labels,timestamp,value
{consumergroup=__strimzi-topic-operator-kstreams},1651598139,10
{consumergroup=__strimzi-topic-operator-kstreams},1651598144,10
{consumergroup=__strimzi-topic-operator-kstreams},1651598149,10
{consumergroup=__strimzi-topic-operator-kstreams},1651598154,0
{consumergroup=__strimzi-topic-operator-kstreams},1651598159,0
{consumergroup=__strimzi-topic-operator-kstreams},1651598164,0
{consumergroup=__strimzi-topic-operator-kstreams},1651598169,0
{consumergroup=__strimzi-topic-operator-kstreams},1651598174,0
{consumergroup=__strimzi-topic-operator-kstreams},1651598179,0
{consumergroup=__strimzi-topic-operator-kstreams},1651598184,0
{consumergroup=__strimzi-topic-operator-kstreams},1651598189,0
{consumergroup=__strimzi-topic-operator-kstreams},1651598194,0
{consumergroup=__strimzi-topic-operator-kstreams},1651598199,0
{consumergroup=__strimzi-topic-operator-kstreams},1651598204,0
{consumergroup=__strimzi-topic-operator-kstreams},1651598209,0
{consumergroup=__strimzi-topic-operator-kstreams},1651598214,0
{consumergroup=__strimzi-topic-operator-kstreams},1651598219,0
{consumergroup=__strimzi-topic-operator-kstreams},1651598224,0
{consumergroup=__strimzi-topic-operator-kstreams},1651598229,0
{consumergroup=__strimzi-topic-operator-kstreams},1651598234,0
{consumergroup=__strimzi-topic-operator-kstreams},1651598239,0
{consumergroup=__strimzi-topic-operator-kstreams},1651598244,0
{consumergroup=__strimzi-topic-operator-kstreams},1651598249,0
{consumergroup=__strimzi-topic-operator-kstreams},1651598254,0
{consumergroup=__strimzi-topic-operator-kstreams},1651598259,0
{consumergroup=__strimzi-topic-operator-kstreams},1651598264,0
{consumergroup=__strimzi-topic-operator-kstreams},1651598269,0
{consumergroup=__strimzi-topic-operator-kstreams},1651598274,0
{consumergroup=__strimzi-topic-operator-kstreams},1651598279,0
{consumergroup=__strimzi-topic-operator-kstreams},1651598284,0
{consumergroup=__strimzi-topic-operator-kstreams},1651598289,0
{consumergroup=__strimzi-topic-operator-kstreams},1651598294,0
{consumergroup=__strimzi-topic-operator-kstreams},1651598299,0
{consumergroup=__strimzi-topic-operator-kstreams},1651598304,0
{consumergroup=__strimzi-topic-operator-kstreams},1651598309,0
{consumergroup=__strimzi-topic-operator-kstreams},1651598314,0
{consumergroup=__strimzi-topic-operator-kstreams},1651598319,0
{consumergroup=__strimzi-topic-operator-kstreams},1651598324,0
{consumergroup=__strimzi-topic-operator-kstreams},1651598329,0
{consumergroup=__strimzi-topic-operator-kstreams},1651598334,0
{consumergroup=__strimzi-topic-operator-kstreams},1651598339,0
{consumergroup=__strimzi-topic-operator-kstreams},1651598344,0
{consumergroup=__strimzi-topic-operator-kstreams},1651598349,0
{consumergroup=__strimzi-topic-operator-kstreams},1651598354,0
{consumergroup=__strimzi-topic-operator-kstreams},1651598359,0
{consumergroup=__strimzi-topic-operator-kstreams},1651598364,0
{consumergroup=__strimzi-topic-operator-kstreams},1651598369,0
{consumergroup=__strimzi-topic-operator-kstreams},1651598374,0
{consumergroup=__strimzi-topic-operator-kstreams},1651598379,0
{consumergroup=__strimzi-topic-operator-kstreams},1651598384,0
{consumergroup=__strimzi-topic-operator-kstreams},1651598389,0
{consumergroup=__strimzi-topic-operator-kstreams},1651598394,0
{consumergroup=landscape-service},1651598184,6232720
{consumergroup=landscape-service},1651598189,6232720
{consumergroup=landscape-service},1651598194,6232720
{consumergroup=landscape-service},1651598199,9264858
{consumergroup=landscape-service},1651598204,9264858
{consumergroup=landscape-service},1651598209,9264858
{consumergroup=landscape-service},1651598214,11093787
{consumergroup=landscape-service},1651598219,11093787
{consumergroup=landscape-service},1651598224,11093787
{consumergroup=landscape-service},1651598229,12784988
{consumergroup=landscape-service},1651598234,12784988
{consumergroup=landscape-service},1651598239,12784988
{consumergroup=landscape-service},1651598244,14162118
{consumergroup=landscape-service},1651598249,14162118
{consumergroup=landscape-service},1651598254,14162118
{consumergroup=landscape-service},1651598259,17233851
{consumergroup=landscape-service},1651598264,17233851
{consumergroup=landscape-service},1651598269,17233851
{consumergroup=landscape-service},1651598274,16773771
{consumergroup=landscape-service},1651598279,16773771
{consumergroup=landscape-service},1651598284,16773771
{consumergroup=landscape-service},1651598289,16644273
{consumergroup=landscape-service},1651598294,16644273
{consumergroup=landscape-service},1651598299,16644273
{consumergroup=landscape-service},1651598304,17077613
{consumergroup=landscape-service},1651598309,17077613
{consumergroup=landscape-service},1651598314,17077613
{consumergroup=landscape-service},1651598319,18616708
{consumergroup=landscape-service},1651598324,18616708
{consumergroup=landscape-service},1651598329,18616708
{consumergroup=landscape-service},1651598334,17697021
{consumergroup=landscape-service},1651598339,17697021
{consumergroup=landscape-service},1651598344,17697021
{consumergroup=landscape-service},1651598349,19942850
{consumergroup=landscape-service},1651598354,19942850
{consumergroup=landscape-service},1651598359,19942850
{consumergroup=landscape-service},1651598364,18651509
{consumergroup=landscape-service},1651598369,18651509
{consumergroup=landscape-service},1651598374,18651509
{consumergroup=landscape-service},1651598379,19392221
{consumergroup=landscape-service},1651598384,19392221
{consumergroup=landscape-service},1651598389,19392221
{consumergroup=landscape-service},1651598394,19788483
