labels,timestamp,value
{consumergroup=__strimzi-topic-operator-kstreams},1651594034,0
{consumergroup=__strimzi-topic-operator-kstreams},1651594039,0
{consumergroup=__strimzi-topic-operator-kstreams},1651594044,0
{consumergroup=__strimzi-topic-operator-kstreams},1651594049,0
{consumergroup=__strimzi-topic-operator-kstreams},1651594054,0
{consumergroup=__strimzi-topic-operator-kstreams},1651594059,0
{consumergroup=__strimzi-topic-operator-kstreams},1651594064,0
{consumergroup=__strimzi-topic-operator-kstreams},1651594069,0
{consumergroup=__strimzi-topic-operator-kstreams},1651594074,0
{consumergroup=__strimzi-topic-operator-kstreams},1651594079,0
{consumergroup=__strimzi-topic-operator-kstreams},1651594084,0
{consumergroup=__strimzi-topic-operator-kstreams},1651594089,0
{consumergroup=__strimzi-topic-operator-kstreams},1651594094,0
{consumergroup=__strimzi-topic-operator-kstreams},1651594099,0
{consumergroup=__strimzi-topic-operator-kstreams},1651594104,0
{consumergroup=__strimzi-topic-operator-kstreams},1651594109,0
{consumergroup=__strimzi-topic-operator-kstreams},1651594114,0
{consumergroup=__strimzi-topic-operator-kstreams},1651594119,0
{consumergroup=__strimzi-topic-operator-kstreams},1651594124,0
{consumergroup=__strimzi-topic-operator-kstreams},1651594129,0
{consumergroup=__strimzi-topic-operator-kstreams},1651594134,0
{consumergroup=__strimzi-topic-operator-kstreams},1651594139,0
{consumergroup=__strimzi-topic-operator-kstreams},1651594144,0
{consumergroup=__strimzi-topic-operator-kstreams},1651594149,0
{consumergroup=__strimzi-topic-operator-kstreams},1651594154,0
{consumergroup=__strimzi-topic-operator-kstreams},1651594159,0
{consumergroup=__strimzi-topic-operator-kstreams},1651594164,0
{consumergroup=__strimzi-topic-operator-kstreams},1651594169,0
{consumergroup=__strimzi-topic-operator-kstreams},1651594174,0
{consumergroup=__strimzi-topic-operator-kstreams},1651594179,0
{consumergroup=__strimzi-topic-operator-kstreams},1651594184,0
{consumergroup=__strimzi-topic-operator-kstreams},1651594189,0
{consumergroup=__strimzi-topic-operator-kstreams},1651594194,0
{consumergroup=__strimzi-topic-operator-kstreams},1651594199,0
{consumergroup=__strimzi-topic-operator-kstreams},1651594204,0
{consumergroup=__strimzi-topic-operator-kstreams},1651594209,0
{consumergroup=__strimzi-topic-operator-kstreams},1651594214,0
{consumergroup=__strimzi-topic-operator-kstreams},1651594219,0
{consumergroup=__strimzi-topic-operator-kstreams},1651594224,0
{consumergroup=__strimzi-topic-operator-kstreams},1651594229,0
{consumergroup=__strimzi-topic-operator-kstreams},1651594234,0
{consumergroup=__strimzi-topic-operator-kstreams},1651594239,0
{consumergroup=__strimzi-topic-operator-kstreams},1651594244,0
{consumergroup=__strimzi-topic-operator-kstreams},1651594249,0
{consumergroup=__strimzi-topic-operator-kstreams},1651594254,0
{consumergroup=__strimzi-topic-operator-kstreams},1651594259,0
{consumergroup=__strimzi-topic-operator-kstreams},1651594264,0
{consumergroup=__strimzi-topic-operator-kstreams},1651594269,0
{consumergroup=__strimzi-topic-operator-kstreams},1651594274,0
{consumergroup=landscape-service},1651594064,5149772
{consumergroup=landscape-service},1651594069,5149772
{consumergroup=landscape-service},1651594074,5149772
{consumergroup=landscape-service},1651594079,9264907
{consumergroup=landscape-service},1651594084,9264907
{consumergroup=landscape-service},1651594089,9264907
{consumergroup=landscape-service},1651594094,10641811
{consumergroup=landscape-service},1651594099,10641811
{consumergroup=landscape-service},1651594104,10641811
{consumergroup=landscape-service},1651594109,12284076
{consumergroup=landscape-service},1651594114,12284076
{consumergroup=landscape-service},1651594119,12284076
{consumergroup=landscape-service},1651594124,13554057
{consumergroup=landscape-service},1651594129,13554057
{consumergroup=landscape-service},1651594134,13554057
{consumergroup=landscape-service},1651594139,14850467
{consumergroup=landscape-service},1651594144,14850467
{consumergroup=landscape-service},1651594149,14850467
{consumergroup=landscape-service},1651594154,15917640
{consumergroup=landscape-service},1651594159,15917640
{consumergroup=landscape-service},1651594164,15917640
{consumergroup=landscape-service},1651594169,16595256
{consumergroup=landscape-service},1651594174,16595256
{consumergroup=landscape-service},1651594179,16595256
{consumergroup=landscape-service},1651594184,17391481
{consumergroup=landscape-service},1651594189,17391481
{consumergroup=landscape-service},1651594194,17391481
{consumergroup=landscape-service},1651594199,17939063
{consumergroup=landscape-service},1651594204,17939063
{consumergroup=landscape-service},1651594209,17939063
{consumergroup=landscape-service},1651594214,18737465
{consumergroup=landscape-service},1651594219,18737465
{consumergroup=landscape-service},1651594224,18737465
{consumergroup=landscape-service},1651594229,19479899
{consumergroup=landscape-service},1651594234,19479899
{consumergroup=landscape-service},1651594239,19479899
{consumergroup=landscape-service},1651594244,19850294
{consumergroup=landscape-service},1651594249,19850294
{consumergroup=landscape-service},1651594254,19850294
{consumergroup=landscape-service},1651594259,20348783
{consumergroup=landscape-service},1651594264,20348783
{consumergroup=landscape-service},1651594269,20348783
{consumergroup=landscape-service},1651594274,21524022
