labels,timestamp,value
{consumergroup=__strimzi-topic-operator-kstreams},1651586863,5
{consumergroup=__strimzi-topic-operator-kstreams},1651586868,5
{consumergroup=__strimzi-topic-operator-kstreams},1651586873,5
{consumergroup=__strimzi-topic-operator-kstreams},1651586878,6
{consumergroup=__strimzi-topic-operator-kstreams},1651586883,6
{consumergroup=__strimzi-topic-operator-kstreams},1651586888,6
{consumergroup=__strimzi-topic-operator-kstreams},1651586893,6
{consumergroup=__strimzi-topic-operator-kstreams},1651586898,6
{consumergroup=__strimzi-topic-operator-kstreams},1651586903,6
{consumergroup=__strimzi-topic-operator-kstreams},1651586908,0
{consumergroup=__strimzi-topic-operator-kstreams},1651586913,0
{consumergroup=__strimzi-topic-operator-kstreams},1651586918,0
{consumergroup=__strimzi-topic-operator-kstreams},1651586923,0
{consumergroup=__strimzi-topic-operator-kstreams},1651586928,0
{consumergroup=__strimzi-topic-operator-kstreams},1651586933,0
{consumergroup=__strimzi-topic-operator-kstreams},1651586938,0
{consumergroup=__strimzi-topic-operator-kstreams},1651586943,0
{consumergroup=__strimzi-topic-operator-kstreams},1651586948,0
{consumergroup=__strimzi-topic-operator-kstreams},1651586953,0
{consumergroup=__strimzi-topic-operator-kstreams},1651586958,0
{consumergroup=__strimzi-topic-operator-kstreams},1651586963,0
{consumergroup=__strimzi-topic-operator-kstreams},1651586968,0
{consumergroup=__strimzi-topic-operator-kstreams},1651586973,0
{consumergroup=__strimzi-topic-operator-kstreams},1651586978,0
{consumergroup=__strimzi-topic-operator-kstreams},1651586983,0
{consumergroup=__strimzi-topic-operator-kstreams},1651586988,0
{consumergroup=__strimzi-topic-operator-kstreams},1651586993,0
{consumergroup=__strimzi-topic-operator-kstreams},1651586998,0
{consumergroup=__strimzi-topic-operator-kstreams},1651587003,0
{consumergroup=__strimzi-topic-operator-kstreams},1651587008,0
{consumergroup=__strimzi-topic-operator-kstreams},1651587013,0
{consumergroup=__strimzi-topic-operator-kstreams},1651587018,0
{consumergroup=__strimzi-topic-operator-kstreams},1651587023,0
{consumergroup=__strimzi-topic-operator-kstreams},1651587028,0
{consumergroup=__strimzi-topic-operator-kstreams},1651587033,0
{consumergroup=__strimzi-topic-operator-kstreams},1651587038,0
{consumergroup=__strimzi-topic-operator-kstreams},1651587043,0
{consumergroup=__strimzi-topic-operator-kstreams},1651587048,0
{consumergroup=__strimzi-topic-operator-kstreams},1651587053,0
{consumergroup=__strimzi-topic-operator-kstreams},1651587058,0
{consumergroup=__strimzi-topic-operator-kstreams},1651587063,0
{consumergroup=__strimzi-topic-operator-kstreams},1651587068,0
{consumergroup=__strimzi-topic-operator-kstreams},1651587073,0
{consumergroup=__strimzi-topic-operator-kstreams},1651587078,0
{consumergroup=__strimzi-topic-operator-kstreams},1651587083,0
{consumergroup=__strimzi-topic-operator-kstreams},1651587088,0
{consumergroup=__strimzi-topic-operator-kstreams},1651587093,0
{consumergroup=__strimzi-topic-operator-kstreams},1651587098,0
{consumergroup=__strimzi-topic-operator-kstreams},1651587103,0
{consumergroup=__strimzi-topic-operator-kstreams},1651587108,0
{consumergroup=__strimzi-topic-operator-kstreams},1651587113,0
{consumergroup=__strimzi-topic-operator-kstreams},1651587118,0
{consumergroup=landscape-service},1651586908,689766
{consumergroup=landscape-service},1651586913,689766
{consumergroup=landscape-service},1651586918,689766
{consumergroup=landscape-service},1651586923,3176277
{consumergroup=landscape-service},1651586928,3176277
{consumergroup=landscape-service},1651586933,3176277
{consumergroup=landscape-service},1651586938,4104128
{consumergroup=landscape-service},1651586943,4104128
{consumergroup=landscape-service},1651586948,4104128
{consumergroup=landscape-service},1651586953,5310706
{consumergroup=landscape-service},1651586958,5310706
{consumergroup=landscape-service},1651586963,5310706
{consumergroup=landscape-service},1651586968,6274551
{consumergroup=landscape-service},1651586973,6274551
{consumergroup=landscape-service},1651586978,6274551
{consumergroup=landscape-service},1651586983,7277409
{consumergroup=landscape-service},1651586988,7277409
{consumergroup=landscape-service},1651586993,7277409
{consumergroup=landscape-service},1651586998,7941541
{consumergroup=landscape-service},1651587003,7941541
{consumergroup=landscape-service},1651587008,7941541
{consumergroup=landscape-service},1651587013,8808295
{consumergroup=landscape-service},1651587018,8808295
{consumergroup=landscape-service},1651587023,8808295
{consumergroup=landscape-service},1651587028,9747063
{consumergroup=landscape-service},1651587033,9747063
{consumergroup=landscape-service},1651587038,9747063
{consumergroup=landscape-service},1651587043,10556622
{consumergroup=landscape-service},1651587048,10556622
{consumergroup=landscape-service},1651587053,10556622
{consumergroup=landscape-service},1651587058,11402783
{consumergroup=landscape-service},1651587063,11402783
{consumergroup=landscape-service},1651587068,11402783
{consumergroup=landscape-service},1651587073,12275656
{consumergroup=landscape-service},1651587078,12275656
{consumergroup=landscape-service},1651587083,12275656
{consumergroup=landscape-service},1651587088,13209979
{consumergroup=landscape-service},1651587093,13209979
{consumergroup=landscape-service},1651587098,13209979
{consumergroup=landscape-service},1651587103,13920487
{consumergroup=landscape-service},1651587108,13920487
{consumergroup=landscape-service},1651587113,13920487
{consumergroup=landscape-service},1651587118,14781810
{consumergroup=landscape-token-events-consumer},1651586908,0
{consumergroup=landscape-token-events-consumer},1651586913,0
{consumergroup=landscape-token-events-consumer},1651586918,0
{consumergroup=landscape-token-events-consumer},1651586923,0
{consumergroup=landscape-token-events-consumer},1651586928,0
{consumergroup=landscape-token-events-consumer},1651586933,0
{consumergroup=landscape-token-events-consumer},1651586938,0
{consumergroup=landscape-token-events-consumer},1651586943,0
{consumergroup=landscape-token-events-consumer},1651586948,0
{consumergroup=landscape-token-events-consumer},1651586953,0
{consumergroup=landscape-token-events-consumer},1651586958,0
{consumergroup=landscape-token-events-consumer},1651586963,0
{consumergroup=landscape-token-events-consumer},1651586968,0
{consumergroup=landscape-token-events-consumer},1651586973,0
{consumergroup=landscape-token-events-consumer},1651586978,0
{consumergroup=landscape-token-events-consumer},1651586983,0
{consumergroup=landscape-token-events-consumer},1651586988,0
{consumergroup=landscape-token-events-consumer},1651586993,0
{consumergroup=landscape-token-events-consumer},1651586998,0
{consumergroup=landscape-token-events-consumer},1651587003,0
{consumergroup=landscape-token-events-consumer},1651587008,0
{consumergroup=landscape-token-events-consumer},1651587013,0
{consumergroup=landscape-token-events-consumer},1651587018,0
{consumergroup=landscape-token-events-consumer},1651587023,0
{consumergroup=landscape-token-events-consumer},1651587028,0
{consumergroup=landscape-token-events-consumer},1651587033,0
{consumergroup=landscape-token-events-consumer},1651587038,0
{consumergroup=landscape-token-events-consumer},1651587043,0
{consumergroup=landscape-token-events-consumer},1651587048,0
{consumergroup=landscape-token-events-consumer},1651587053,0
{consumergroup=landscape-token-events-consumer},1651587058,0
{consumergroup=landscape-token-events-consumer},1651587063,0
{consumergroup=landscape-token-events-consumer},1651587068,0
{consumergroup=landscape-token-events-consumer},1651587073,0
{consumergroup=landscape-token-events-consumer},1651587078,0
{consumergroup=landscape-token-events-consumer},1651587083,0
{consumergroup=landscape-token-events-consumer},1651587088,0
{consumergroup=landscape-token-events-consumer},1651587093,0
{consumergroup=landscape-token-events-consumer},1651587098,0
{consumergroup=landscape-token-events-consumer},1651587103,0
{consumergroup=landscape-token-events-consumer},1651587108,0
{consumergroup=landscape-token-events-consumer},1651587113,0
{consumergroup=landscape-token-events-consumer},1651587118,0
