labels,timestamp,value
{consumergroup=__strimzi-topic-operator-kstreams},1651602151,8
{consumergroup=__strimzi-topic-operator-kstreams},1651602156,8
{consumergroup=__strimzi-topic-operator-kstreams},1651602161,8
{consumergroup=__strimzi-topic-operator-kstreams},1651602166,8
{consumergroup=__strimzi-topic-operator-kstreams},1651602171,8
{consumergroup=__strimzi-topic-operator-kstreams},1651602176,8
{consumergroup=__strimzi-topic-operator-kstreams},1651602181,0
{consumergroup=__strimzi-topic-operator-kstreams},1651602186,0
{consumergroup=__strimzi-topic-operator-kstreams},1651602191,0
{consumergroup=__strimzi-topic-operator-kstreams},1651602196,0
{consumergroup=__strimzi-topic-operator-kstreams},1651602201,0
{consumergroup=__strimzi-topic-operator-kstreams},1651602206,0
{consumergroup=__strimzi-topic-operator-kstreams},1651602211,0
{consumergroup=__strimzi-topic-operator-kstreams},1651602216,0
{consumergroup=__strimzi-topic-operator-kstreams},1651602221,0
{consumergroup=__strimzi-topic-operator-kstreams},1651602226,0
{consumergroup=__strimzi-topic-operator-kstreams},1651602231,0
{consumergroup=__strimzi-topic-operator-kstreams},1651602236,0
{consumergroup=__strimzi-topic-operator-kstreams},1651602241,0
{consumergroup=__strimzi-topic-operator-kstreams},1651602246,0
{consumergroup=__strimzi-topic-operator-kstreams},1651602251,0
{consumergroup=__strimzi-topic-operator-kstreams},1651602256,0
{consumergroup=__strimzi-topic-operator-kstreams},1651602261,0
{consumergroup=__strimzi-topic-operator-kstreams},1651602266,0
{consumergroup=__strimzi-topic-operator-kstreams},1651602271,0
{consumergroup=__strimzi-topic-operator-kstreams},1651602276,0
{consumergroup=__strimzi-topic-operator-kstreams},1651602281,0
{consumergroup=__strimzi-topic-operator-kstreams},1651602286,0
{consumergroup=__strimzi-topic-operator-kstreams},1651602291,0
{consumergroup=__strimzi-topic-operator-kstreams},1651602296,0
{consumergroup=__strimzi-topic-operator-kstreams},1651602301,0
{consumergroup=__strimzi-topic-operator-kstreams},1651602306,0
{consumergroup=__strimzi-topic-operator-kstreams},1651602311,0
{consumergroup=__strimzi-topic-operator-kstreams},1651602316,0
{consumergroup=__strimzi-topic-operator-kstreams},1651602321,0
{consumergroup=__strimzi-topic-operator-kstreams},1651602326,0
{consumergroup=__strimzi-topic-operator-kstreams},1651602331,0
{consumergroup=__strimzi-topic-operator-kstreams},1651602336,0
{consumergroup=__strimzi-topic-operator-kstreams},1651602341,0
{consumergroup=__strimzi-topic-operator-kstreams},1651602346,0
{consumergroup=__strimzi-topic-operator-kstreams},1651602351,0
{consumergroup=__strimzi-topic-operator-kstreams},1651602356,0
{consumergroup=__strimzi-topic-operator-kstreams},1651602361,0
{consumergroup=__strimzi-topic-operator-kstreams},1651602366,0
{consumergroup=__strimzi-topic-operator-kstreams},1651602371,0
{consumergroup=__strimzi-topic-operator-kstreams},1651602376,0
{consumergroup=__strimzi-topic-operator-kstreams},1651602381,0
{consumergroup=__strimzi-topic-operator-kstreams},1651602386,0
{consumergroup=__strimzi-topic-operator-kstreams},1651602391,0
{consumergroup=__strimzi-topic-operator-kstreams},1651602396,0
{consumergroup=__strimzi-topic-operator-kstreams},1651602401,0
{consumergroup=landscape-service},1651602196,4083083
{consumergroup=landscape-service},1651602201,4083083
{consumergroup=landscape-service},1651602206,4083083
{consumergroup=landscape-service},1651602211,6348118
{consumergroup=landscape-service},1651602216,6348118
{consumergroup=landscape-service},1651602221,6348118
{consumergroup=landscape-service},1651602226,7294988
{consumergroup=landscape-service},1651602231,7294988
{consumergroup=landscape-service},1651602236,7294988
{consumergroup=landscape-service},1651602241,8280291
{consumergroup=landscape-service},1651602246,8280291
{consumergroup=landscape-service},1651602251,8280291
{consumergroup=landscape-service},1651602256,8826653
{consumergroup=landscape-service},1651602261,8826653
{consumergroup=landscape-service},1651602266,8826653
{consumergroup=landscape-service},1651602271,9140200
{consumergroup=landscape-service},1651602276,9140200
{consumergroup=landscape-service},1651602281,9140200
{consumergroup=landscape-service},1651602286,9783516
{consumergroup=landscape-service},1651602291,9783516
{consumergroup=landscape-service},1651602296,9783516
{consumergroup=landscape-service},1651602301,10089988
{consumergroup=landscape-service},1651602306,10089988
{consumergroup=landscape-service},1651602311,10089988
{consumergroup=landscape-service},1651602316,10120293
{consumergroup=landscape-service},1651602321,10120293
{consumergroup=landscape-service},1651602326,10120293
{consumergroup=landscape-service},1651602331,10254116
{consumergroup=landscape-service},1651602336,10254116
{consumergroup=landscape-service},1651602341,10254116
{consumergroup=landscape-service},1651602346,10426559
{consumergroup=landscape-service},1651602351,10426559
{consumergroup=landscape-service},1651602356,10426559
{consumergroup=landscape-service},1651602361,10477098
{consumergroup=landscape-service},1651602366,10477098
{consumergroup=landscape-service},1651602371,10477098
{consumergroup=landscape-service},1651602376,10297572
{consumergroup=landscape-service},1651602381,10297572
{consumergroup=landscape-service},1651602386,10297572
{consumergroup=landscape-service},1651602391,10134691
{consumergroup=landscape-service},1651602396,10134691
{consumergroup=landscape-service},1651602401,10134691
