labels,timestamp,value
{consumergroup=__strimzi-topic-operator-kstreams},1651585645,8
{consumergroup=__strimzi-topic-operator-kstreams},1651585650,8
{consumergroup=__strimzi-topic-operator-kstreams},1651585655,8
{consumergroup=__strimzi-topic-operator-kstreams},1651585660,8
{consumergroup=__strimzi-topic-operator-kstreams},1651585665,8
{consumergroup=__strimzi-topic-operator-kstreams},1651585670,8
{consumergroup=__strimzi-topic-operator-kstreams},1651585675,0
{consumergroup=__strimzi-topic-operator-kstreams},1651585680,0
{consumergroup=__strimzi-topic-operator-kstreams},1651585685,0
{consumergroup=__strimzi-topic-operator-kstreams},1651585690,0
{consumergroup=__strimzi-topic-operator-kstreams},1651585695,0
{consumergroup=__strimzi-topic-operator-kstreams},1651585700,0
{consumergroup=__strimzi-topic-operator-kstreams},1651585705,0
{consumergroup=__strimzi-topic-operator-kstreams},1651585710,0
{consumergroup=__strimzi-topic-operator-kstreams},1651585715,0
{consumergroup=__strimzi-topic-operator-kstreams},1651585720,0
{consumergroup=__strimzi-topic-operator-kstreams},1651585725,0
{consumergroup=__strimzi-topic-operator-kstreams},1651585730,0
{consumergroup=__strimzi-topic-operator-kstreams},1651585735,0
{consumergroup=__strimzi-topic-operator-kstreams},1651585740,0
{consumergroup=__strimzi-topic-operator-kstreams},1651585745,0
{consumergroup=__strimzi-topic-operator-kstreams},1651585750,0
{consumergroup=__strimzi-topic-operator-kstreams},1651585755,0
{consumergroup=__strimzi-topic-operator-kstreams},1651585760,0
{consumergroup=__strimzi-topic-operator-kstreams},1651585765,0
{consumergroup=__strimzi-topic-operator-kstreams},1651585770,0
{consumergroup=__strimzi-topic-operator-kstreams},1651585775,0
{consumergroup=__strimzi-topic-operator-kstreams},1651585780,0
{consumergroup=__strimzi-topic-operator-kstreams},1651585785,0
{consumergroup=__strimzi-topic-operator-kstreams},1651585790,0
{consumergroup=__strimzi-topic-operator-kstreams},1651585795,0
{consumergroup=__strimzi-topic-operator-kstreams},1651585800,0
{consumergroup=__strimzi-topic-operator-kstreams},1651585805,0
{consumergroup=__strimzi-topic-operator-kstreams},1651585810,0
{consumergroup=__strimzi-topic-operator-kstreams},1651585815,0
{consumergroup=__strimzi-topic-operator-kstreams},1651585820,0
{consumergroup=__strimzi-topic-operator-kstreams},1651585825,0
{consumergroup=__strimzi-topic-operator-kstreams},1651585830,0
{consumergroup=__strimzi-topic-operator-kstreams},1651585835,0
{consumergroup=__strimzi-topic-operator-kstreams},1651585840,0
{consumergroup=__strimzi-topic-operator-kstreams},1651585845,0
{consumergroup=__strimzi-topic-operator-kstreams},1651585850,0
{consumergroup=__strimzi-topic-operator-kstreams},1651585855,0
{consumergroup=__strimzi-topic-operator-kstreams},1651585860,0
{consumergroup=__strimzi-topic-operator-kstreams},1651585865,0
{consumergroup=__strimzi-topic-operator-kstreams},1651585870,0
{consumergroup=__strimzi-topic-operator-kstreams},1651585875,0
{consumergroup=__strimzi-topic-operator-kstreams},1651585880,0
{consumergroup=__strimzi-topic-operator-kstreams},1651585885,0
{consumergroup=__strimzi-topic-operator-kstreams},1651585890,0
{consumergroup=landscape-service},1651585675,5277
{consumergroup=landscape-service},1651585680,5277
{consumergroup=landscape-service},1651585685,5277
{consumergroup=landscape-service},1651585690,7320815
{consumergroup=landscape-service},1651585695,7320815
{consumergroup=landscape-service},1651585700,7320815
{consumergroup=landscape-service},1651585705,12020969
{consumergroup=landscape-service},1651585710,12020969
{consumergroup=landscape-service},1651585715,12020969
{consumergroup=landscape-service},1651585720,17264495
{consumergroup=landscape-service},1651585725,17264495
{consumergroup=landscape-service},1651585730,17264495
{consumergroup=landscape-service},1651585735,21444816
{consumergroup=landscape-service},1651585740,21444816
{consumergroup=landscape-service},1651585745,21444816
{consumergroup=landscape-service},1651585750,26587486
{consumergroup=landscape-service},1651585755,26587486
{consumergroup=landscape-service},1651585760,26587486
{consumergroup=landscape-service},1651585765,30694299
{consumergroup=landscape-service},1651585770,30694299
{consumergroup=landscape-service},1651585775,30694299
{consumergroup=landscape-service},1651585780,35783955
{consumergroup=landscape-service},1651585785,35783955
{consumergroup=landscape-service},1651585790,35783955
{consumergroup=landscape-service},1651585795,39654878
{consumergroup=landscape-service},1651585800,39654878
{consumergroup=landscape-service},1651585805,39654878
{consumergroup=landscape-service},1651585810,44581885
{consumergroup=landscape-service},1651585815,44581885
{consumergroup=landscape-service},1651585820,44581885
{consumergroup=landscape-service},1651585825,48520623
{consumergroup=landscape-service},1651585830,48520623
{consumergroup=landscape-service},1651585835,48520623
{consumergroup=landscape-service},1651585840,53377308
{consumergroup=landscape-service},1651585845,53377308
{consumergroup=landscape-service},1651585850,53377308
{consumergroup=landscape-service},1651585855,57413346
{consumergroup=landscape-service},1651585860,57413346
{consumergroup=landscape-service},1651585865,57413346
{consumergroup=landscape-service},1651585870,62521168
{consumergroup=landscape-service},1651585875,62521168
{consumergroup=landscape-service},1651585880,62521168
{consumergroup=landscape-service},1651585885,66391513
{consumergroup=landscape-service},1651585890,66391513
