labels,timestamp,value
{consumergroup=__strimzi-topic-operator-kstreams},1651590519,8
{consumergroup=__strimzi-topic-operator-kstreams},1651590524,8
{consumergroup=__strimzi-topic-operator-kstreams},1651590529,8
{consumergroup=__strimzi-topic-operator-kstreams},1651590534,0
{consumergroup=__strimzi-topic-operator-kstreams},1651590539,0
{consumergroup=__strimzi-topic-operator-kstreams},1651590544,0
{consumergroup=__strimzi-topic-operator-kstreams},1651590549,0
{consumergroup=__strimzi-topic-operator-kstreams},1651590554,0
{consumergroup=__strimzi-topic-operator-kstreams},1651590559,0
{consumergroup=__strimzi-topic-operator-kstreams},1651590564,0
{consumergroup=__strimzi-topic-operator-kstreams},1651590569,0
{consumergroup=__strimzi-topic-operator-kstreams},1651590574,0
{consumergroup=__strimzi-topic-operator-kstreams},1651590579,0
{consumergroup=__strimzi-topic-operator-kstreams},1651590584,0
{consumergroup=__strimzi-topic-operator-kstreams},1651590589,0
{consumergroup=__strimzi-topic-operator-kstreams},1651590594,0
{consumergroup=__strimzi-topic-operator-kstreams},1651590599,0
{consumergroup=__strimzi-topic-operator-kstreams},1651590604,0
{consumergroup=__strimzi-topic-operator-kstreams},1651590609,0
{consumergroup=__strimzi-topic-operator-kstreams},1651590614,0
{consumergroup=__strimzi-topic-operator-kstreams},1651590619,0
{consumergroup=__strimzi-topic-operator-kstreams},1651590624,0
{consumergroup=__strimzi-topic-operator-kstreams},1651590629,0
{consumergroup=__strimzi-topic-operator-kstreams},1651590634,0
{consumergroup=__strimzi-topic-operator-kstreams},1651590639,0
{consumergroup=__strimzi-topic-operator-kstreams},1651590644,0
{consumergroup=__strimzi-topic-operator-kstreams},1651590649,0
{consumergroup=__strimzi-topic-operator-kstreams},1651590654,0
{consumergroup=__strimzi-topic-operator-kstreams},1651590659,0
{consumergroup=__strimzi-topic-operator-kstreams},1651590664,0
{consumergroup=__strimzi-topic-operator-kstreams},1651590669,0
{consumergroup=__strimzi-topic-operator-kstreams},1651590674,0
{consumergroup=__strimzi-topic-operator-kstreams},1651590679,0
{consumergroup=__strimzi-topic-operator-kstreams},1651590684,0
{consumergroup=__strimzi-topic-operator-kstreams},1651590689,0
{consumergroup=__strimzi-topic-operator-kstreams},1651590694,0
{consumergroup=__strimzi-topic-operator-kstreams},1651590699,0
{consumergroup=__strimzi-topic-operator-kstreams},1651590704,0
{consumergroup=__strimzi-topic-operator-kstreams},1651590709,0
{consumergroup=__strimzi-topic-operator-kstreams},1651590714,0
{consumergroup=__strimzi-topic-operator-kstreams},1651590719,0
{consumergroup=__strimzi-topic-operator-kstreams},1651590724,0
{consumergroup=__strimzi-topic-operator-kstreams},1651590729,0
{consumergroup=__strimzi-topic-operator-kstreams},1651590734,0
{consumergroup=__strimzi-topic-operator-kstreams},1651590739,0
{consumergroup=__strimzi-topic-operator-kstreams},1651590744,0
{consumergroup=__strimzi-topic-operator-kstreams},1651590749,0
{consumergroup=__strimzi-topic-operator-kstreams},1651590754,0
{consumergroup=__strimzi-topic-operator-kstreams},1651590759,0
{consumergroup=__strimzi-topic-operator-kstreams},1651590764,0
{consumergroup=__strimzi-topic-operator-kstreams},1651590769,0
{consumergroup=landscape-service},1651590564,5996567
{consumergroup=landscape-service},1651590569,5996567
{consumergroup=landscape-service},1651590574,5996567
{consumergroup=landscape-service},1651590579,10642080
{consumergroup=landscape-service},1651590584,10642080
{consumergroup=landscape-service},1651590589,10642080
{consumergroup=landscape-service},1651590594,13318167
{consumergroup=landscape-service},1651590599,13318167
{consumergroup=landscape-service},1651590604,13318167
{consumergroup=landscape-service},1651590609,16401881
{consumergroup=landscape-service},1651590614,16401881
{consumergroup=landscape-service},1651590619,16401881
{consumergroup=landscape-service},1651590624,19239500
{consumergroup=landscape-service},1651590629,19239500
{consumergroup=landscape-service},1651590634,19239500
{consumergroup=landscape-service},1651590639,21672180
{consumergroup=landscape-service},1651590644,21672180
{consumergroup=landscape-service},1651590649,21672180
{consumergroup=landscape-service},1651590654,23673216
{consumergroup=landscape-service},1651590659,23673216
{consumergroup=landscape-service},1651590664,23673216
{consumergroup=landscape-service},1651590669,26434324
{consumergroup=landscape-service},1651590674,26434324
{consumergroup=landscape-service},1651590679,26434324
{consumergroup=landscape-service},1651590684,27483820
{consumergroup=landscape-service},1651590689,27483820
{consumergroup=landscape-service},1651590694,27483820
{consumergroup=landscape-service},1651590699,29228090
{consumergroup=landscape-service},1651590704,29228090
{consumergroup=landscape-service},1651590709,29228090
{consumergroup=landscape-service},1651590714,31240592
{consumergroup=landscape-service},1651590719,31240592
{consumergroup=landscape-service},1651590724,31240592
{consumergroup=landscape-service},1651590729,33054404
{consumergroup=landscape-service},1651590734,33054404
{consumergroup=landscape-service},1651590739,33054404
{consumergroup=landscape-service},1651590744,34760457
{consumergroup=landscape-service},1651590749,34760457
{consumergroup=landscape-service},1651590754,34760457
{consumergroup=landscape-service},1651590759,36602805
{consumergroup=landscape-service},1651590764,36602805
{consumergroup=landscape-service},1651590769,36602805
