labels,timestamp,value
{job=theodolite-stu200776/combined-trace-podmonitor},1651266890,0
{job=theodolite-stu200776/combined-trace-podmonitor},1651266895,0
{job=theodolite-stu200776/combined-trace-podmonitor},1651266900,0
{job=theodolite-stu200776/combined-trace-podmonitor},1651266905,0
{job=theodolite-stu200776/combined-trace-podmonitor},1651266910,0
{job=theodolite-stu200776/combined-trace-podmonitor},1651266915,0
{job=theodolite-stu200776/combined-trace-podmonitor},1651266920,0
{job=theodolite-stu200776/combined-trace-podmonitor},1651266925,0
{job=theodolite-stu200776/combined-trace-podmonitor},1651266930,0
{job=theodolite-stu200776/combined-trace-podmonitor},1651266935,0
{job=theodolite-stu200776/combined-trace-podmonitor},1651266940,0
{job=theodolite-stu200776/combined-trace-podmonitor},1651266945,0
{job=theodolite-stu200776/combined-trace-podmonitor},1651266950,0
{job=theodolite-stu200776/combined-trace-podmonitor},1651266955,0
{job=theodolite-stu200776/combined-trace-podmonitor},1651266960,0
{job=theodolite-stu200776/combined-trace-podmonitor},1651266965,0
{job=theodolite-stu200776/combined-trace-podmonitor},1651266970,0
{job=theodolite-stu200776/combined-trace-podmonitor},1651266975,0
{job=theodolite-stu200776/combined-trace-podmonitor},1651266980,0
{job=theodolite-stu200776/combined-trace-podmonitor},1651266985,0
{job=theodolite-stu200776/combined-trace-podmonitor},1651266990,0
{job=theodolite-stu200776/combined-trace-podmonitor},1651266995,0
{job=theodolite-stu200776/combined-trace-podmonitor},1651267000,0
{job=theodolite-stu200776/combined-trace-podmonitor},1651267005,0
{job=theodolite-stu200776/combined-trace-podmonitor},1651267010,0
{job=theodolite-stu200776/combined-trace-podmonitor},1651267015,0
{job=theodolite-stu200776/combined-trace-podmonitor},1651267020,0
{job=theodolite-stu200776/combined-trace-podmonitor},1651267025,0
{job=theodolite-stu200776/combined-trace-podmonitor},1651267030,0
{job=theodolite-stu200776/combined-trace-podmonitor},1651267035,0
{job=theodolite-stu200776/combined-trace-podmonitor},1651267040,0
{job=theodolite-stu200776/combined-trace-podmonitor},1651267045,0
{job=theodolite-stu200776/combined-trace-podmonitor},1651267050,0
{job=theodolite-stu200776/combined-trace-podmonitor},1651267055,0
{job=theodolite-stu200776/combined-trace-podmonitor},1651267060,203.74117990831473
{job=theodolite-stu200776/combined-trace-podmonitor},1651267065,348.2110513968681
{job=theodolite-stu200776/combined-trace-podmonitor},1651267070,353.7272747220512
{job=theodolite-stu200776/combined-trace-podmonitor},1651267075,329.64357858649583
{job=theodolite-stu200776/combined-trace-podmonitor},1651267080,384.29065470571203
{job=theodolite-stu200776/combined-trace-podmonitor},1651267085,388.13096036021005
{job=theodolite-stu200776/combined-trace-podmonitor},1651267090,573.6068997203981
{job=theodolite-stu200776/combined-trace-podmonitor},1651267095,638.7427686686752
{job=theodolite-stu200776/combined-trace-podmonitor},1651267100,533.9014302770319
{job=theodolite-stu200776/combined-trace-podmonitor},1651267105,494.5687753702988
{job=theodolite-stu200776/combined-trace-podmonitor},1651267110,429.38040548579124
{job=theodolite-stu200776/combined-trace-podmonitor},1651267115,403.5773884554451
{job=theodolite-stu200776/combined-trace-podmonitor},1651267120,124.22667801869376
{job=theodolite-stu200776/combined-trace-podmonitor},1651267125,0
{job=theodolite-stu200776/combined-trace-podmonitor},1651267130,0
{job=theodolite-stu200776/combined-trace-podmonitor},1651267135,0
{job=theodolite-stu200776/combined-trace-podmonitor},1651267140,0
{job=theodolite-stu200776/combined-trace-podmonitor},1651267145,0
