labels,timestamp,value
{consumergroup=__strimzi-topic-operator-kstreams},1651339411,8
{consumergroup=__strimzi-topic-operator-kstreams},1651339416,8
{consumergroup=__strimzi-topic-operator-kstreams},1651339421,8
{consumergroup=__strimzi-topic-operator-kstreams},1651339426,8
{consumergroup=__strimzi-topic-operator-kstreams},1651339431,0
{consumergroup=__strimzi-topic-operator-kstreams},1651339436,0
{consumergroup=__strimzi-topic-operator-kstreams},1651339441,0
{consumergroup=__strimzi-topic-operator-kstreams},1651339446,0
{consumergroup=__strimzi-topic-operator-kstreams},1651339451,0
{consumergroup=__strimzi-topic-operator-kstreams},1651339456,0
{consumergroup=__strimzi-topic-operator-kstreams},1651339461,0
{consumergroup=__strimzi-topic-operator-kstreams},1651339466,0
{consumergroup=__strimzi-topic-operator-kstreams},1651339471,0
{consumergroup=__strimzi-topic-operator-kstreams},1651339476,0
{consumergroup=__strimzi-topic-operator-kstreams},1651339481,0
{consumergroup=__strimzi-topic-operator-kstreams},1651339486,0
{consumergroup=__strimzi-topic-operator-kstreams},1651339491,0
{consumergroup=__strimzi-topic-operator-kstreams},1651339496,0
{consumergroup=__strimzi-topic-operator-kstreams},1651339501,0
{consumergroup=__strimzi-topic-operator-kstreams},1651339506,0
{consumergroup=__strimzi-topic-operator-kstreams},1651339511,0
{consumergroup=__strimzi-topic-operator-kstreams},1651339516,0
{consumergroup=__strimzi-topic-operator-kstreams},1651339521,0
{consumergroup=__strimzi-topic-operator-kstreams},1651339526,0
{consumergroup=__strimzi-topic-operator-kstreams},1651339531,0
{consumergroup=__strimzi-topic-operator-kstreams},1651339536,0
{consumergroup=__strimzi-topic-operator-kstreams},1651339541,0
{consumergroup=__strimzi-topic-operator-kstreams},1651339546,0
{consumergroup=__strimzi-topic-operator-kstreams},1651339551,0
{consumergroup=__strimzi-topic-operator-kstreams},1651339556,0
{consumergroup=__strimzi-topic-operator-kstreams},1651339561,0
{consumergroup=__strimzi-topic-operator-kstreams},1651339566,0
{consumergroup=__strimzi-topic-operator-kstreams},1651339571,0
{consumergroup=__strimzi-topic-operator-kstreams},1651339576,0
{consumergroup=__strimzi-topic-operator-kstreams},1651339581,0
{consumergroup=__strimzi-topic-operator-kstreams},1651339586,0
{consumergroup=__strimzi-topic-operator-kstreams},1651339591,0
{consumergroup=__strimzi-topic-operator-kstreams},1651339596,0
{consumergroup=__strimzi-topic-operator-kstreams},1651339601,0
{consumergroup=__strimzi-topic-operator-kstreams},1651339606,0
{consumergroup=__strimzi-topic-operator-kstreams},1651339611,0
{consumergroup=__strimzi-topic-operator-kstreams},1651339616,0
{consumergroup=__strimzi-topic-operator-kstreams},1651339621,0
{consumergroup=__strimzi-topic-operator-kstreams},1651339626,0
{consumergroup=__strimzi-topic-operator-kstreams},1651339631,0
{consumergroup=__strimzi-topic-operator-kstreams},1651339636,0
{consumergroup=__strimzi-topic-operator-kstreams},1651339641,0
{consumergroup=__strimzi-topic-operator-kstreams},1651339646,0
{consumergroup=__strimzi-topic-operator-kstreams},1651339651,0
{consumergroup=__strimzi-topic-operator-kstreams},1651339656,0
{consumergroup=__strimzi-topic-operator-kstreams},1651339661,0
{consumergroup=__strimzi-topic-operator-kstreams},1651339666,0
{consumergroup=__strimzi-topic-operator-kstreams},1651339671,0
{consumergroup=adapter-service},1651339446,18414
{consumergroup=adapter-service},1651339451,18414
{consumergroup=adapter-service},1651339456,18414
{consumergroup=adapter-service},1651339461,21904
{consumergroup=adapter-service},1651339466,21904
{consumergroup=adapter-service},1651339471,21904
{consumergroup=adapter-service},1651339476,14523
{consumergroup=adapter-service},1651339481,14523
{consumergroup=adapter-service},1651339486,14523
{consumergroup=adapter-service},1651339491,14090
{consumergroup=adapter-service},1651339496,14090
{consumergroup=adapter-service},1651339501,14090
{consumergroup=adapter-service},1651339506,13832
{consumergroup=adapter-service},1651339511,13832
{consumergroup=adapter-service},1651339516,13832
{consumergroup=adapter-service},1651339521,13301
{consumergroup=adapter-service},1651339526,13301
{consumergroup=adapter-service},1651339531,13301
{consumergroup=adapter-service},1651339536,13190
{consumergroup=adapter-service},1651339541,13190
{consumergroup=adapter-service},1651339546,13190
{consumergroup=adapter-service},1651339551,12870
{consumergroup=adapter-service},1651339556,12870
{consumergroup=adapter-service},1651339561,12870
{consumergroup=adapter-service},1651339566,12580
{consumergroup=adapter-service},1651339571,12580
{consumergroup=adapter-service},1651339576,12580
{consumergroup=adapter-service},1651339581,12084
{consumergroup=adapter-service},1651339586,12084
{consumergroup=adapter-service},1651339591,12084
{consumergroup=adapter-service},1651339596,11864
{consumergroup=adapter-service},1651339601,11864
{consumergroup=adapter-service},1651339606,11864
{consumergroup=adapter-service},1651339611,11578
{consumergroup=adapter-service},1651339616,11578
{consumergroup=adapter-service},1651339621,11578
{consumergroup=adapter-service},1651339626,11105
{consumergroup=adapter-service},1651339631,11105
{consumergroup=adapter-service},1651339636,11105
{consumergroup=adapter-service},1651339641,10799
{consumergroup=adapter-service},1651339646,10799
{consumergroup=adapter-service},1651339651,10799
{consumergroup=adapter-service},1651339656,10610
{consumergroup=adapter-service},1651339661,10610
{consumergroup=adapter-service},1651339666,10610
{consumergroup=adapter-service},1651339671,15067
