labels,timestamp,value
{consumergroup=__strimzi-topic-operator-kstreams},1651340058,11
{consumergroup=__strimzi-topic-operator-kstreams},1651340063,11
{consumergroup=__strimzi-topic-operator-kstreams},1651340068,11
{consumergroup=__strimzi-topic-operator-kstreams},1651340073,0
{consumergroup=__strimzi-topic-operator-kstreams},1651340078,0
{consumergroup=__strimzi-topic-operator-kstreams},1651340083,0
{consumergroup=__strimzi-topic-operator-kstreams},1651340088,0
{consumergroup=__strimzi-topic-operator-kstreams},1651340093,0
{consumergroup=__strimzi-topic-operator-kstreams},1651340098,0
{consumergroup=__strimzi-topic-operator-kstreams},1651340103,0
{consumergroup=__strimzi-topic-operator-kstreams},1651340108,0
{consumergroup=__strimzi-topic-operator-kstreams},1651340113,0
{consumergroup=__strimzi-topic-operator-kstreams},1651340118,0
{consumergroup=__strimzi-topic-operator-kstreams},1651340123,0
{consumergroup=__strimzi-topic-operator-kstreams},1651340128,0
{consumergroup=__strimzi-topic-operator-kstreams},1651340133,0
{consumergroup=__strimzi-topic-operator-kstreams},1651340138,0
{consumergroup=__strimzi-topic-operator-kstreams},1651340143,0
{consumergroup=__strimzi-topic-operator-kstreams},1651340148,0
{consumergroup=__strimzi-topic-operator-kstreams},1651340153,0
{consumergroup=__strimzi-topic-operator-kstreams},1651340158,0
{consumergroup=__strimzi-topic-operator-kstreams},1651340163,0
{consumergroup=__strimzi-topic-operator-kstreams},1651340168,0
{consumergroup=__strimzi-topic-operator-kstreams},1651340173,0
{consumergroup=__strimzi-topic-operator-kstreams},1651340178,0
{consumergroup=__strimzi-topic-operator-kstreams},1651340183,0
{consumergroup=__strimzi-topic-operator-kstreams},1651340188,0
{consumergroup=__strimzi-topic-operator-kstreams},1651340193,0
{consumergroup=__strimzi-topic-operator-kstreams},1651340198,0
{consumergroup=__strimzi-topic-operator-kstreams},1651340203,0
{consumergroup=__strimzi-topic-operator-kstreams},1651340208,0
{consumergroup=__strimzi-topic-operator-kstreams},1651340213,0
{consumergroup=__strimzi-topic-operator-kstreams},1651340218,0
{consumergroup=__strimzi-topic-operator-kstreams},1651340223,0
{consumergroup=__strimzi-topic-operator-kstreams},1651340228,0
{consumergroup=__strimzi-topic-operator-kstreams},1651340233,0
{consumergroup=__strimzi-topic-operator-kstreams},1651340238,0
{consumergroup=__strimzi-topic-operator-kstreams},1651340243,0
{consumergroup=__strimzi-topic-operator-kstreams},1651340248,0
{consumergroup=__strimzi-topic-operator-kstreams},1651340253,0
{consumergroup=__strimzi-topic-operator-kstreams},1651340258,0
{consumergroup=__strimzi-topic-operator-kstreams},1651340263,0
{consumergroup=__strimzi-topic-operator-kstreams},1651340268,0
{consumergroup=__strimzi-topic-operator-kstreams},1651340273,0
{consumergroup=__strimzi-topic-operator-kstreams},1651340278,0
{consumergroup=__strimzi-topic-operator-kstreams},1651340283,0
{consumergroup=__strimzi-topic-operator-kstreams},1651340288,0
{consumergroup=__strimzi-topic-operator-kstreams},1651340293,0
{consumergroup=__strimzi-topic-operator-kstreams},1651340298,0
{consumergroup=__strimzi-topic-operator-kstreams},1651340303,0
{consumergroup=__strimzi-topic-operator-kstreams},1651340308,0
{consumergroup=adapter-service},1651340088,985432
{consumergroup=adapter-service},1651340093,985432
{consumergroup=adapter-service},1651340098,985432
{consumergroup=adapter-service},1651340103,3729859
{consumergroup=adapter-service},1651340108,3729859
{consumergroup=adapter-service},1651340113,3729859
{consumergroup=adapter-service},1651340118,5726911
{consumergroup=adapter-service},1651340123,5726911
{consumergroup=adapter-service},1651340128,5726911
{consumergroup=adapter-service},1651340133,7598078
{consumergroup=adapter-service},1651340138,7598078
{consumergroup=adapter-service},1651340143,7598078
{consumergroup=adapter-service},1651340148,9351952
{consumergroup=adapter-service},1651340153,9351952
{consumergroup=adapter-service},1651340158,9351952
{consumergroup=adapter-service},1651340163,10684161
{consumergroup=adapter-service},1651340168,10684161
{consumergroup=adapter-service},1651340173,10684161
{consumergroup=adapter-service},1651340178,11812249
{consumergroup=adapter-service},1651340183,11812249
{consumergroup=adapter-service},1651340188,11812249
{consumergroup=adapter-service},1651340193,12791675
{consumergroup=adapter-service},1651340198,12791675
{consumergroup=adapter-service},1651340203,12791675
{consumergroup=adapter-service},1651340208,13913919
{consumergroup=adapter-service},1651340213,13913919
{consumergroup=adapter-service},1651340218,13913919
{consumergroup=adapter-service},1651340223,15053766
{consumergroup=adapter-service},1651340228,15053766
{consumergroup=adapter-service},1651340233,15053766
{consumergroup=adapter-service},1651340238,15967725
{consumergroup=adapter-service},1651340243,15967725
{consumergroup=adapter-service},1651340248,15967725
{consumergroup=adapter-service},1651340253,16944869
{consumergroup=adapter-service},1651340258,16944869
{consumergroup=adapter-service},1651340263,16944869
{consumergroup=adapter-service},1651340268,18170783
{consumergroup=adapter-service},1651340273,18170783
{consumergroup=adapter-service},1651340278,18170783
{consumergroup=adapter-service},1651340283,19263049
{consumergroup=adapter-service},1651340288,19263049
{consumergroup=adapter-service},1651340293,19263049
{consumergroup=adapter-service},1651340298,20098911
{consumergroup=adapter-service},1651340303,20098911
{consumergroup=adapter-service},1651340308,20098911
