labels,timestamp,value
{consumergroup=__strimzi-topic-operator-kstreams},1651340388,0
{consumergroup=__strimzi-topic-operator-kstreams},1651340393,0
{consumergroup=__strimzi-topic-operator-kstreams},1651340398,0
{consumergroup=__strimzi-topic-operator-kstreams},1651340403,0
{consumergroup=__strimzi-topic-operator-kstreams},1651340408,0
{consumergroup=__strimzi-topic-operator-kstreams},1651340413,0
{consumergroup=__strimzi-topic-operator-kstreams},1651340418,0
{consumergroup=__strimzi-topic-operator-kstreams},1651340423,0
{consumergroup=__strimzi-topic-operator-kstreams},1651340428,0
{consumergroup=__strimzi-topic-operator-kstreams},1651340433,0
{consumergroup=__strimzi-topic-operator-kstreams},1651340438,0
{consumergroup=__strimzi-topic-operator-kstreams},1651340443,0
{consumergroup=__strimzi-topic-operator-kstreams},1651340448,0
{consumergroup=__strimzi-topic-operator-kstreams},1651340453,0
{consumergroup=__strimzi-topic-operator-kstreams},1651340458,0
{consumergroup=__strimzi-topic-operator-kstreams},1651340463,0
{consumergroup=__strimzi-topic-operator-kstreams},1651340468,0
{consumergroup=__strimzi-topic-operator-kstreams},1651340473,0
{consumergroup=__strimzi-topic-operator-kstreams},1651340478,0
{consumergroup=__strimzi-topic-operator-kstreams},1651340483,0
{consumergroup=__strimzi-topic-operator-kstreams},1651340488,0
{consumergroup=__strimzi-topic-operator-kstreams},1651340493,0
{consumergroup=__strimzi-topic-operator-kstreams},1651340498,0
{consumergroup=__strimzi-topic-operator-kstreams},1651340503,0
{consumergroup=__strimzi-topic-operator-kstreams},1651340508,0
{consumergroup=__strimzi-topic-operator-kstreams},1651340513,0
{consumergroup=__strimzi-topic-operator-kstreams},1651340518,0
{consumergroup=__strimzi-topic-operator-kstreams},1651340523,0
{consumergroup=__strimzi-topic-operator-kstreams},1651340528,0
{consumergroup=__strimzi-topic-operator-kstreams},1651340533,0
{consumergroup=__strimzi-topic-operator-kstreams},1651340538,0
{consumergroup=__strimzi-topic-operator-kstreams},1651340543,0
{consumergroup=__strimzi-topic-operator-kstreams},1651340548,0
{consumergroup=__strimzi-topic-operator-kstreams},1651340553,0
{consumergroup=__strimzi-topic-operator-kstreams},1651340558,0
{consumergroup=__strimzi-topic-operator-kstreams},1651340563,0
{consumergroup=__strimzi-topic-operator-kstreams},1651340568,0
{consumergroup=__strimzi-topic-operator-kstreams},1651340573,0
{consumergroup=__strimzi-topic-operator-kstreams},1651340578,0
{consumergroup=__strimzi-topic-operator-kstreams},1651340583,0
{consumergroup=__strimzi-topic-operator-kstreams},1651340588,0
{consumergroup=__strimzi-topic-operator-kstreams},1651340593,0
{consumergroup=__strimzi-topic-operator-kstreams},1651340598,0
{consumergroup=__strimzi-topic-operator-kstreams},1651340603,0
{consumergroup=__strimzi-topic-operator-kstreams},1651340608,0
{consumergroup=__strimzi-topic-operator-kstreams},1651340613,0
{consumergroup=__strimzi-topic-operator-kstreams},1651340618,0
{consumergroup=__strimzi-topic-operator-kstreams},1651340623,0
{consumergroup=__strimzi-topic-operator-kstreams},1651340628,0
{consumergroup=__strimzi-topic-operator-kstreams},1651340633,0
{consumergroup=__strimzi-topic-operator-kstreams},1651340638,0
{consumergroup=__strimzi-topic-operator-kstreams},1651340643,0
{consumergroup=__strimzi-topic-operator-kstreams},1651340648,0
{consumergroup=adapter-service},1651340438,194764
{consumergroup=adapter-service},1651340443,194764
{consumergroup=adapter-service},1651340448,194764
{consumergroup=adapter-service},1651340453,84334
{consumergroup=adapter-service},1651340458,84334
{consumergroup=adapter-service},1651340463,84334
{consumergroup=adapter-service},1651340468,108838
{consumergroup=adapter-service},1651340473,108838
{consumergroup=adapter-service},1651340478,108838
{consumergroup=adapter-service},1651340483,84358
{consumergroup=adapter-service},1651340488,84358
{consumergroup=adapter-service},1651340493,84358
{consumergroup=adapter-service},1651340498,95853
{consumergroup=adapter-service},1651340503,95853
{consumergroup=adapter-service},1651340508,95853
{consumergroup=adapter-service},1651340513,95484
{consumergroup=adapter-service},1651340518,95484
{consumergroup=adapter-service},1651340523,95484
{consumergroup=adapter-service},1651340528,94200
{consumergroup=adapter-service},1651340533,94200
{consumergroup=adapter-service},1651340538,94200
{consumergroup=adapter-service},1651340543,100813
{consumergroup=adapter-service},1651340548,100813
{consumergroup=adapter-service},1651340553,100813
{consumergroup=adapter-service},1651340558,86994
{consumergroup=adapter-service},1651340563,86994
{consumergroup=adapter-service},1651340568,86994
{consumergroup=adapter-service},1651340573,109958
{consumergroup=adapter-service},1651340578,109958
{consumergroup=adapter-service},1651340583,109958
{consumergroup=adapter-service},1651340588,85989
{consumergroup=adapter-service},1651340593,85989
{consumergroup=adapter-service},1651340598,85989
{consumergroup=adapter-service},1651340603,92922
{consumergroup=adapter-service},1651340608,92922
{consumergroup=adapter-service},1651340613,92922
{consumergroup=adapter-service},1651340618,92825
{consumergroup=adapter-service},1651340623,92825
{consumergroup=adapter-service},1651340628,92825
{consumergroup=adapter-service},1651340633,93667
{consumergroup=adapter-service},1651340638,93667
{consumergroup=adapter-service},1651340643,93667
{consumergroup=adapter-service},1651340648,92056
