labels,timestamp,value
{job=theodolite-stu200776/combined-trace-podmonitor},1651289515,0
{job=theodolite-stu200776/combined-trace-podmonitor},1651289520,0
{job=theodolite-stu200776/combined-trace-podmonitor},1651289525,0
{job=theodolite-stu200776/combined-trace-podmonitor},1651289530,0
{job=theodolite-stu200776/combined-trace-podmonitor},1651289535,0
{job=theodolite-stu200776/combined-trace-podmonitor},1651289540,0
{job=theodolite-stu200776/combined-trace-podmonitor},1651289545,0
{job=theodolite-stu200776/combined-trace-podmonitor},1651289550,0
{job=theodolite-stu200776/combined-trace-podmonitor},1651289555,0
{job=theodolite-stu200776/combined-trace-podmonitor},1651289560,0
{job=theodolite-stu200776/combined-trace-podmonitor},1651289565,0
{job=theodolite-stu200776/combined-trace-podmonitor},1651289570,0
{job=theodolite-stu200776/combined-trace-podmonitor},1651289575,0
{job=theodolite-stu200776/combined-trace-podmonitor},1651289580,0
{job=theodolite-stu200776/combined-trace-podmonitor},1651289585,0
{job=theodolite-stu200776/combined-trace-podmonitor},1651289590,0
{job=theodolite-stu200776/combined-trace-podmonitor},1651289595,0
{job=theodolite-stu200776/combined-trace-podmonitor},1651289600,0
{job=theodolite-stu200776/combined-trace-podmonitor},1651289605,0
{job=theodolite-stu200776/combined-trace-podmonitor},1651289610,0
{job=theodolite-stu200776/combined-trace-podmonitor},1651289615,0
{job=theodolite-stu200776/combined-trace-podmonitor},1651289620,0
{job=theodolite-stu200776/combined-trace-podmonitor},1651289625,0
{job=theodolite-stu200776/combined-trace-podmonitor},1651289630,0
{job=theodolite-stu200776/combined-trace-podmonitor},1651289635,0
{job=theodolite-stu200776/combined-trace-podmonitor},1651289640,0
{job=theodolite-stu200776/combined-trace-podmonitor},1651289645,0
{job=theodolite-stu200776/combined-trace-podmonitor},1651289650,0
{job=theodolite-stu200776/combined-trace-podmonitor},1651289655,0
{job=theodolite-stu200776/combined-trace-podmonitor},1651289660,0
{job=theodolite-stu200776/combined-trace-podmonitor},1651289665,0
{job=theodolite-stu200776/combined-trace-podmonitor},1651289670,0
{job=theodolite-stu200776/combined-trace-podmonitor},1651289675,0
{job=theodolite-stu200776/combined-trace-podmonitor},1651289680,0
{job=theodolite-stu200776/combined-trace-podmonitor},1651289685,0
{job=theodolite-stu200776/combined-trace-podmonitor},1651289690,0
{job=theodolite-stu200776/combined-trace-podmonitor},1651289695,0
{job=theodolite-stu200776/combined-trace-podmonitor},1651289700,0
{job=theodolite-stu200776/combined-trace-podmonitor},1651289705,0
{job=theodolite-stu200776/combined-trace-podmonitor},1651289710,0
{job=theodolite-stu200776/combined-trace-podmonitor},1651289715,0
{job=theodolite-stu200776/combined-trace-podmonitor},1651289720,0
{job=theodolite-stu200776/combined-trace-podmonitor},1651289725,0
{job=theodolite-stu200776/combined-trace-podmonitor},1651289730,0
{job=theodolite-stu200776/combined-trace-podmonitor},1651289735,0
{job=theodolite-stu200776/combined-trace-podmonitor},1651289740,0
{job=theodolite-stu200776/combined-trace-podmonitor},1651289745,0
{job=theodolite-stu200776/combined-trace-podmonitor},1651289750,0
{job=theodolite-stu200776/combined-trace-podmonitor},1651289755,0
{job=theodolite-stu200776/combined-trace-podmonitor},1651289760,0
{job=theodolite-stu200776/combined-trace-podmonitor},1651289765,0
{job=theodolite-stu200776/combined-trace-podmonitor},1651289770,0
{job=theodolite-stu200776/combined-trace-podmonitor},1651289775,0
{job=theodolite-stu200776/combined-trace-podmonitor},1651289780,0
{job=theodolite-stu200776/combined-trace-podmonitor},1651289785,0
{job=theodolite-stu200776/combined-trace-podmonitor},1651289790,0
{job=theodolite-stu200776/combined-trace-podmonitor},1651289795,0
{job=theodolite-stu200776/combined-trace-podmonitor},1651289800,0
{job=theodolite-stu200776/combined-trace-podmonitor},1651289805,0
{job=theodolite-stu200776/combined-trace-podmonitor},1651289810,0
{job=theodolite-stu200776/combined-trace-podmonitor},1651289815,0
{job=theodolite-stu200776/combined-trace-podmonitor},1651289820,0
{job=theodolite-stu200776/combined-trace-podmonitor},1651289825,0
{job=theodolite-stu200776/combined-trace-podmonitor},1651289830,0
{job=theodolite-stu200776/combined-trace-podmonitor},1651289835,0
{job=theodolite-stu200776/combined-trace-podmonitor},1651289840,0
{job=theodolite-stu200776/combined-trace-podmonitor},1651289845,0
{job=theodolite-stu200776/combined-trace-podmonitor},1651289850,0
{job=theodolite-stu200776/combined-trace-podmonitor},1651289855,0
{job=theodolite-stu200776/combined-trace-podmonitor},1651289860,0
{job=theodolite-stu200776/combined-trace-podmonitor},1651289865,0
{job=theodolite-stu200776/combined-trace-podmonitor},1651289870,0
{job=theodolite-stu200776/combined-trace-podmonitor},1651289875,0
{job=theodolite-stu200776/combined-trace-podmonitor},1651289880,0
{job=theodolite-stu200776/combined-trace-podmonitor},1651289885,0
{job=theodolite-stu200776/combined-trace-podmonitor},1651289890,0
{job=theodolite-stu200776/combined-trace-podmonitor},1651289895,0
{job=theodolite-stu200776/combined-trace-podmonitor},1651289900,0
{job=theodolite-stu200776/combined-trace-podmonitor},1651289905,0
{job=theodolite-stu200776/combined-trace-podmonitor},1651289910,0
{job=theodolite-stu200776/combined-trace-podmonitor},1651289915,0
{job=theodolite-stu200776/combined-trace-podmonitor},1651289920,0
{job=theodolite-stu200776/combined-trace-podmonitor},1651289925,0
{job=theodolite-stu200776/combined-trace-podmonitor},1651289930,0
{job=theodolite-stu200776/combined-trace-podmonitor},1651289935,0
{job=theodolite-stu200776/combined-trace-podmonitor},1651289940,0
{job=theodolite-stu200776/combined-trace-podmonitor},1651289945,0
{job=theodolite-stu200776/combined-trace-podmonitor},1651289950,0
