labels,timestamp,value
{job=theodolite-stu200776/combined-trace-podmonitor},1651297638,0
{job=theodolite-stu200776/combined-trace-podmonitor},1651297643,0
{job=theodolite-stu200776/combined-trace-podmonitor},1651297648,0
{job=theodolite-stu200776/combined-trace-podmonitor},1651297653,0
{job=theodolite-stu200776/combined-trace-podmonitor},1651297658,0
{job=theodolite-stu200776/combined-trace-podmonitor},1651297663,0
{job=theodolite-stu200776/combined-trace-podmonitor},1651297668,0
{job=theodolite-stu200776/combined-trace-podmonitor},1651297673,0
{job=theodolite-stu200776/combined-trace-podmonitor},1651297678,0
{job=theodolite-stu200776/combined-trace-podmonitor},1651297683,0
{job=theodolite-stu200776/combined-trace-podmonitor},1651297688,0
{job=theodolite-stu200776/combined-trace-podmonitor},1651297693,0
{job=theodolite-stu200776/combined-trace-podmonitor},1651297698,0
{job=theodolite-stu200776/combined-trace-podmonitor},1651297703,0
{job=theodolite-stu200776/combined-trace-podmonitor},1651297708,0
{job=theodolite-stu200776/combined-trace-podmonitor},1651297713,0
{job=theodolite-stu200776/combined-trace-podmonitor},1651297718,0
{job=theodolite-stu200776/combined-trace-podmonitor},1651297723,0
{job=theodolite-stu200776/combined-trace-podmonitor},1651297728,0
{job=theodolite-stu200776/combined-trace-podmonitor},1651297733,0
{job=theodolite-stu200776/combined-trace-podmonitor},1651297738,0
{job=theodolite-stu200776/combined-trace-podmonitor},1651297743,0
{job=theodolite-stu200776/combined-trace-podmonitor},1651297748,0
{job=theodolite-stu200776/combined-trace-podmonitor},1651297753,0
{job=theodolite-stu200776/combined-trace-podmonitor},1651297758,0
{job=theodolite-stu200776/combined-trace-podmonitor},1651297763,0
{job=theodolite-stu200776/combined-trace-podmonitor},1651297768,0
{job=theodolite-stu200776/combined-trace-podmonitor},1651297773,0
{job=theodolite-stu200776/combined-trace-podmonitor},1651297778,0
{job=theodolite-stu200776/combined-trace-podmonitor},1651297783,0
{job=theodolite-stu200776/combined-trace-podmonitor},1651297788,0
{job=theodolite-stu200776/combined-trace-podmonitor},1651297793,0
{job=theodolite-stu200776/combined-trace-podmonitor},1651297798,0
{job=theodolite-stu200776/combined-trace-podmonitor},1651297803,0
{job=theodolite-stu200776/combined-trace-podmonitor},1651297808,0
{job=theodolite-stu200776/combined-trace-podmonitor},1651297813,0
{job=theodolite-stu200776/combined-trace-podmonitor},1651297818,0
{job=theodolite-stu200776/combined-trace-podmonitor},1651297823,0
{job=theodolite-stu200776/combined-trace-podmonitor},1651297828,0
{job=theodolite-stu200776/combined-trace-podmonitor},1651297833,0
{job=theodolite-stu200776/combined-trace-podmonitor},1651297838,0
{job=theodolite-stu200776/combined-trace-podmonitor},1651297843,0
{job=theodolite-stu200776/combined-trace-podmonitor},1651297848,0
{job=theodolite-stu200776/combined-trace-podmonitor},1651297853,0
{job=theodolite-stu200776/combined-trace-podmonitor},1651297858,0
{job=theodolite-stu200776/combined-trace-podmonitor},1651297863,0
{job=theodolite-stu200776/combined-trace-podmonitor},1651297868,0
{job=theodolite-stu200776/combined-trace-podmonitor},1651297873,0
{job=theodolite-stu200776/combined-trace-podmonitor},1651297878,0
{job=theodolite-stu200776/combined-trace-podmonitor},1651297883,0
{job=theodolite-stu200776/combined-trace-podmonitor},1651297888,0
{job=theodolite-stu200776/combined-trace-podmonitor},1651297893,0
{job=theodolite-stu200776/combined-trace-podmonitor},1651297898,0
{job=theodolite-stu200776/combined-trace-podmonitor},1651297903,0
{job=theodolite-stu200776/combined-trace-podmonitor},1651297908,0
{job=theodolite-stu200776/combined-trace-podmonitor},1651297913,0
{job=theodolite-stu200776/combined-trace-podmonitor},1651297918,0
{job=theodolite-stu200776/combined-trace-podmonitor},1651297923,0
{job=theodolite-stu200776/combined-trace-podmonitor},1651297928,0
{job=theodolite-stu200776/combined-trace-podmonitor},1651297933,0
{job=theodolite-stu200776/combined-trace-podmonitor},1651297938,0
