labels,timestamp,value
{consumergroup=__strimzi-topic-operator-kstreams},1651363385,5
{consumergroup=__strimzi-topic-operator-kstreams},1651363390,5
{consumergroup=__strimzi-topic-operator-kstreams},1651363395,5
{consumergroup=__strimzi-topic-operator-kstreams},1651363400,15
{consumergroup=__strimzi-topic-operator-kstreams},1651363405,15
{consumergroup=__strimzi-topic-operator-kstreams},1651363410,15
{consumergroup=__strimzi-topic-operator-kstreams},1651363415,0
{consumergroup=__strimzi-topic-operator-kstreams},1651363420,0
{consumergroup=__strimzi-topic-operator-kstreams},1651363425,0
{consumergroup=__strimzi-topic-operator-kstreams},1651363430,0
{consumergroup=__strimzi-topic-operator-kstreams},1651363435,0
{consumergroup=__strimzi-topic-operator-kstreams},1651363440,0
{consumergroup=__strimzi-topic-operator-kstreams},1651363445,0
{consumergroup=__strimzi-topic-operator-kstreams},1651363450,0
{consumergroup=__strimzi-topic-operator-kstreams},1651363455,0
{consumergroup=__strimzi-topic-operator-kstreams},1651363460,0
{consumergroup=__strimzi-topic-operator-kstreams},1651363465,0
{consumergroup=__strimzi-topic-operator-kstreams},1651363470,0
{consumergroup=__strimzi-topic-operator-kstreams},1651363475,0
{consumergroup=__strimzi-topic-operator-kstreams},1651363480,0
{consumergroup=__strimzi-topic-operator-kstreams},1651363485,0
{consumergroup=__strimzi-topic-operator-kstreams},1651363490,0
{consumergroup=__strimzi-topic-operator-kstreams},1651363495,0
{consumergroup=__strimzi-topic-operator-kstreams},1651363500,0
{consumergroup=__strimzi-topic-operator-kstreams},1651363505,0
{consumergroup=__strimzi-topic-operator-kstreams},1651363510,0
{consumergroup=__strimzi-topic-operator-kstreams},1651363515,0
{consumergroup=__strimzi-topic-operator-kstreams},1651363520,0
{consumergroup=__strimzi-topic-operator-kstreams},1651363525,0
{consumergroup=__strimzi-topic-operator-kstreams},1651363530,0
{consumergroup=__strimzi-topic-operator-kstreams},1651363535,0
{consumergroup=__strimzi-topic-operator-kstreams},1651363540,0
{consumergroup=__strimzi-topic-operator-kstreams},1651363545,0
{consumergroup=__strimzi-topic-operator-kstreams},1651363550,0
{consumergroup=__strimzi-topic-operator-kstreams},1651363555,0
{consumergroup=__strimzi-topic-operator-kstreams},1651363560,0
{consumergroup=__strimzi-topic-operator-kstreams},1651363565,0
{consumergroup=__strimzi-topic-operator-kstreams},1651363570,0
{consumergroup=__strimzi-topic-operator-kstreams},1651363575,0
{consumergroup=__strimzi-topic-operator-kstreams},1651363580,0
{consumergroup=__strimzi-topic-operator-kstreams},1651363585,0
{consumergroup=__strimzi-topic-operator-kstreams},1651363590,0
{consumergroup=__strimzi-topic-operator-kstreams},1651363595,0
{consumergroup=__strimzi-topic-operator-kstreams},1651363600,0
{consumergroup=__strimzi-topic-operator-kstreams},1651363605,0
{consumergroup=__strimzi-topic-operator-kstreams},1651363610,0
{consumergroup=__strimzi-topic-operator-kstreams},1651363615,0
{consumergroup=__strimzi-topic-operator-kstreams},1651363620,0
{consumergroup=__strimzi-topic-operator-kstreams},1651363625,0
{consumergroup=__strimzi-topic-operator-kstreams},1651363630,0
{consumergroup=__strimzi-topic-operator-kstreams},1651363635,0
{consumergroup=__strimzi-topic-operator-kstreams},1651363640,0
{consumergroup=adapter-service},1651363415,310138
{consumergroup=adapter-service},1651363420,310138
{consumergroup=adapter-service},1651363425,310138
{consumergroup=adapter-service},1651363430,415645
{consumergroup=adapter-service},1651363435,415645
{consumergroup=adapter-service},1651363440,415645
{consumergroup=adapter-service},1651363445,568763
{consumergroup=adapter-service},1651363450,568763
{consumergroup=adapter-service},1651363455,568763
{consumergroup=adapter-service},1651363460,511442
{consumergroup=adapter-service},1651363465,511442
{consumergroup=adapter-service},1651363470,511442
{consumergroup=adapter-service},1651363475,984203
{consumergroup=adapter-service},1651363480,984203
{consumergroup=adapter-service},1651363485,984203
{consumergroup=adapter-service},1651363490,965034
{consumergroup=adapter-service},1651363495,965034
{consumergroup=adapter-service},1651363500,965034
{consumergroup=adapter-service},1651363505,983889
{consumergroup=adapter-service},1651363510,983889
{consumergroup=adapter-service},1651363515,983889
{consumergroup=adapter-service},1651363520,916846
{consumergroup=adapter-service},1651363525,916846
{consumergroup=adapter-service},1651363530,916846
{consumergroup=adapter-service},1651363535,1057758
{consumergroup=adapter-service},1651363540,1057758
{consumergroup=adapter-service},1651363545,1057758
{consumergroup=adapter-service},1651363550,906368
{consumergroup=adapter-service},1651363555,906368
{consumergroup=adapter-service},1651363560,906368
{consumergroup=adapter-service},1651363565,1256080
{consumergroup=adapter-service},1651363570,1256080
{consumergroup=adapter-service},1651363575,1256080
{consumergroup=adapter-service},1651363580,1259420
{consumergroup=adapter-service},1651363585,1259420
{consumergroup=adapter-service},1651363590,1259420
{consumergroup=adapter-service},1651363595,1309568
{consumergroup=adapter-service},1651363600,1309568
{consumergroup=adapter-service},1651363605,1309568
{consumergroup=adapter-service},1651363610,1249394
{consumergroup=adapter-service},1651363615,1249394
{consumergroup=adapter-service},1651363620,1249394
{consumergroup=adapter-service},1651363625,1403786
{consumergroup=adapter-service},1651363630,1403786
{consumergroup=adapter-service},1651363635,1403786
{consumergroup=adapter-service},1651363640,1520846
