labels,timestamp,value
{consumergroup=__strimzi-topic-operator-kstreams},1651427654,0
{consumergroup=__strimzi-topic-operator-kstreams},1651427659,7
{consumergroup=__strimzi-topic-operator-kstreams},1651427664,7
{consumergroup=__strimzi-topic-operator-kstreams},1651427669,7
{consumergroup=__strimzi-topic-operator-kstreams},1651427674,3
{consumergroup=__strimzi-topic-operator-kstreams},1651427679,3
{consumergroup=__strimzi-topic-operator-kstreams},1651427684,3
{consumergroup=__strimzi-topic-operator-kstreams},1651427689,3
{consumergroup=__strimzi-topic-operator-kstreams},1651427694,3
{consumergroup=__strimzi-topic-operator-kstreams},1651427699,3
{consumergroup=__strimzi-topic-operator-kstreams},1651427704,0
{consumergroup=__strimzi-topic-operator-kstreams},1651427709,0
{consumergroup=__strimzi-topic-operator-kstreams},1651427714,0
{consumergroup=__strimzi-topic-operator-kstreams},1651427719,0
{consumergroup=__strimzi-topic-operator-kstreams},1651427724,0
{consumergroup=__strimzi-topic-operator-kstreams},1651427729,0
{consumergroup=__strimzi-topic-operator-kstreams},1651427734,0
{consumergroup=__strimzi-topic-operator-kstreams},1651427739,0
{consumergroup=__strimzi-topic-operator-kstreams},1651427744,0
{consumergroup=__strimzi-topic-operator-kstreams},1651427749,0
{consumergroup=__strimzi-topic-operator-kstreams},1651427754,0
{consumergroup=__strimzi-topic-operator-kstreams},1651427759,0
{consumergroup=__strimzi-topic-operator-kstreams},1651427764,0
{consumergroup=__strimzi-topic-operator-kstreams},1651427769,0
{consumergroup=__strimzi-topic-operator-kstreams},1651427774,0
{consumergroup=__strimzi-topic-operator-kstreams},1651427779,0
{consumergroup=__strimzi-topic-operator-kstreams},1651427784,0
{consumergroup=__strimzi-topic-operator-kstreams},1651427789,0
{consumergroup=__strimzi-topic-operator-kstreams},1651427794,0
{consumergroup=__strimzi-topic-operator-kstreams},1651427799,0
{consumergroup=__strimzi-topic-operator-kstreams},1651427804,0
{consumergroup=__strimzi-topic-operator-kstreams},1651427809,0
{consumergroup=__strimzi-topic-operator-kstreams},1651427814,0
{consumergroup=__strimzi-topic-operator-kstreams},1651427819,0
{consumergroup=__strimzi-topic-operator-kstreams},1651427824,0
{consumergroup=__strimzi-topic-operator-kstreams},1651427829,0
{consumergroup=__strimzi-topic-operator-kstreams},1651427834,0
{consumergroup=__strimzi-topic-operator-kstreams},1651427839,0
{consumergroup=__strimzi-topic-operator-kstreams},1651427844,0
{consumergroup=__strimzi-topic-operator-kstreams},1651427849,0
{consumergroup=__strimzi-topic-operator-kstreams},1651427854,0
{consumergroup=__strimzi-topic-operator-kstreams},1651427859,0
{consumergroup=__strimzi-topic-operator-kstreams},1651427864,0
{consumergroup=__strimzi-topic-operator-kstreams},1651427869,0
{consumergroup=__strimzi-topic-operator-kstreams},1651427874,0
{consumergroup=__strimzi-topic-operator-kstreams},1651427879,0
{consumergroup=__strimzi-topic-operator-kstreams},1651427884,0
{consumergroup=__strimzi-topic-operator-kstreams},1651427889,0
{consumergroup=__strimzi-topic-operator-kstreams},1651427894,0
{consumergroup=__strimzi-topic-operator-kstreams},1651427899,0
{consumergroup=__strimzi-topic-operator-kstreams},1651427904,0
{consumergroup=__strimzi-topic-operator-kstreams},1651427909,0
{consumergroup=__strimzi-topic-operator-kstreams},1651427914,0
{consumergroup=__strimzi-topic-operator-kstreams},1651427919,0
{consumergroup=__strimzi-topic-operator-kstreams},1651427924,0
{consumergroup=__strimzi-topic-operator-kstreams},1651427929,0
{consumergroup=__strimzi-topic-operator-kstreams},1651427934,0
{consumergroup=__strimzi-topic-operator-kstreams},1651427939,0
{consumergroup=__strimzi-topic-operator-kstreams},1651427944,0
{consumergroup=__strimzi-topic-operator-kstreams},1651427949,0
{consumergroup=__strimzi-topic-operator-kstreams},1651427954,0
{consumergroup=__strimzi-topic-operator-kstreams},1651427959,0
{consumergroup=__strimzi-topic-operator-kstreams},1651427964,0
{consumergroup=__strimzi-topic-operator-kstreams},1651427969,0
{consumergroup=__strimzi-topic-operator-kstreams},1651427974,0
{consumergroup=__strimzi-topic-operator-kstreams},1651427979,0
{consumergroup=__strimzi-topic-operator-kstreams},1651427984,0
{consumergroup=__strimzi-topic-operator-kstreams},1651427989,0
{consumergroup=__strimzi-topic-operator-kstreams},1651427994,0
{consumergroup=__strimzi-topic-operator-kstreams},1651427999,0
{consumergroup=__strimzi-topic-operator-kstreams},1651428004,0
{consumergroup=__strimzi-topic-operator-kstreams},1651428009,0
{consumergroup=__strimzi-topic-operator-kstreams},1651428014,0
{consumergroup=__strimzi-topic-operator-kstreams},1651428019,0
{consumergroup=__strimzi-topic-operator-kstreams},1651428024,0
{consumergroup=__strimzi-topic-operator-kstreams},1651428029,0
{consumergroup=__strimzi-topic-operator-kstreams},1651428034,0
{consumergroup=__strimzi-topic-operator-kstreams},1651428039,0
{consumergroup=__strimzi-topic-operator-kstreams},1651428044,0
{consumergroup=__strimzi-topic-operator-kstreams},1651428049,0
{consumergroup=__strimzi-topic-operator-kstreams},1651428054,0
{consumergroup=__strimzi-topic-operator-kstreams},1651428059,0
{consumergroup=__strimzi-topic-operator-kstreams},1651428064,0
{consumergroup=__strimzi-topic-operator-kstreams},1651428069,0
{consumergroup=__strimzi-topic-operator-kstreams},1651428074,0
{consumergroup=__strimzi-topic-operator-kstreams},1651428079,0
{consumergroup=__strimzi-topic-operator-kstreams},1651428084,0
{consumergroup=__strimzi-topic-operator-kstreams},1651428089,0
{consumergroup=__strimzi-topic-operator-kstreams},1651428094,0
{consumergroup=trace-service},1651427704,12397
{consumergroup=trace-service},1651427709,12397
{consumergroup=trace-service},1651427714,12397
{consumergroup=trace-service},1651427719,21773
{consumergroup=trace-service},1651427724,21773
{consumergroup=trace-service},1651427729,21773
{consumergroup=trace-service},1651427734,14070
{consumergroup=trace-service},1651427739,14070
{consumergroup=trace-service},1651427744,14070
{consumergroup=trace-service},1651427749,31957
{consumergroup=trace-service},1651427754,31957
{consumergroup=trace-service},1651427759,31957
{consumergroup=trace-service},1651427764,13011
{consumergroup=trace-service},1651427769,13011
{consumergroup=trace-service},1651427774,13011
{consumergroup=trace-service},1651427779,5879
{consumergroup=trace-service},1651427784,5879
{consumergroup=trace-service},1651427789,5879
{consumergroup=trace-service},1651427794,12583
{consumergroup=trace-service},1651427799,12583
{consumergroup=trace-service},1651427804,12583
{consumergroup=trace-service},1651427809,7162
{consumergroup=trace-service},1651427814,7162
{consumergroup=trace-service},1651427819,7162
{consumergroup=trace-service},1651427824,12519
{consumergroup=trace-service},1651427829,12519
{consumergroup=trace-service},1651427834,12519
{consumergroup=trace-service},1651427839,7784
{consumergroup=trace-service},1651427844,7784
{consumergroup=trace-service},1651427849,7784
{consumergroup=trace-service},1651427854,10723
{consumergroup=trace-service},1651427859,10723
{consumergroup=trace-service},1651427864,10723
{consumergroup=trace-service},1651427869,15387
{consumergroup=trace-service},1651427874,15387
{consumergroup=trace-service},1651427879,15387
{consumergroup=trace-service},1651427884,10233
{consumergroup=trace-service},1651427889,10233
{consumergroup=trace-service},1651427894,10233
{consumergroup=trace-service},1651427899,11607
{consumergroup=trace-service},1651427904,11607
{consumergroup=trace-service},1651427909,11607
{consumergroup=trace-service},1651427914,10578
{consumergroup=trace-service},1651427919,10578
{consumergroup=trace-service},1651427924,10578
{consumergroup=trace-service},1651427929,13276
{consumergroup=trace-service},1651427934,13276
{consumergroup=trace-service},1651427939,13276
{consumergroup=trace-service},1651427944,11355
{consumergroup=trace-service},1651427949,11355
{consumergroup=trace-service},1651427954,11355
{consumergroup=trace-service},1651427959,11426
{consumergroup=trace-service},1651427964,11426
{consumergroup=trace-service},1651427969,11426
{consumergroup=trace-service},1651427974,10506
{consumergroup=trace-service},1651427979,10506
{consumergroup=trace-service},1651427984,10506
{consumergroup=trace-service},1651427989,10818
{consumergroup=trace-service},1651427994,10818
{consumergroup=trace-service},1651427999,10818
{consumergroup=trace-service},1651428004,10860
{consumergroup=trace-service},1651428009,10860
{consumergroup=trace-service},1651428014,10860
{consumergroup=trace-service},1651428019,20432
{consumergroup=trace-service},1651428024,20432
{consumergroup=trace-service},1651428029,20432
{consumergroup=trace-service},1651428034,10492
{consumergroup=trace-service},1651428039,10492
{consumergroup=trace-service},1651428044,10492
{consumergroup=trace-service},1651428049,16779
{consumergroup=trace-service},1651428054,16779
{consumergroup=trace-service},1651428059,16779
{consumergroup=trace-service},1651428064,9045
{consumergroup=trace-service},1651428069,9045
{consumergroup=trace-service},1651428074,9045
{consumergroup=trace-service},1651428079,17537
{consumergroup=trace-service},1651428084,17537
{consumergroup=trace-service},1651428089,17537
{consumergroup=trace-service},1651428094,10552
{consumergroup=trace-token-events-consumer},1651427689,0
{consumergroup=trace-token-events-consumer},1651427694,0
{consumergroup=trace-token-events-consumer},1651427699,0
{consumergroup=trace-token-events-consumer},1651427704,0
{consumergroup=trace-token-events-consumer},1651427709,0
{consumergroup=trace-token-events-consumer},1651427714,0
{consumergroup=trace-token-events-consumer},1651427719,0
{consumergroup=trace-token-events-consumer},1651427724,0
{consumergroup=trace-token-events-consumer},1651427729,0
{consumergroup=trace-token-events-consumer},1651427734,0
{consumergroup=trace-token-events-consumer},1651427739,0
{consumergroup=trace-token-events-consumer},1651427744,0
{consumergroup=trace-token-events-consumer},1651427749,0
{consumergroup=trace-token-events-consumer},1651427754,0
{consumergroup=trace-token-events-consumer},1651427759,0
{consumergroup=trace-token-events-consumer},1651427764,0
{consumergroup=trace-token-events-consumer},1651427769,0
{consumergroup=trace-token-events-consumer},1651427774,0
{consumergroup=trace-token-events-consumer},1651427779,0
{consumergroup=trace-token-events-consumer},1651427784,0
{consumergroup=trace-token-events-consumer},1651427789,0
{consumergroup=trace-token-events-consumer},1651427794,0
{consumergroup=trace-token-events-consumer},1651427799,0
{consumergroup=trace-token-events-consumer},1651427804,0
{consumergroup=trace-token-events-consumer},1651427809,0
{consumergroup=trace-token-events-consumer},1651427814,0
{consumergroup=trace-token-events-consumer},1651427819,0
{consumergroup=trace-token-events-consumer},1651427824,0
{consumergroup=trace-token-events-consumer},1651427829,0
{consumergroup=trace-token-events-consumer},1651427834,0
{consumergroup=trace-token-events-consumer},1651427839,0
{consumergroup=trace-token-events-consumer},1651427844,0
{consumergroup=trace-token-events-consumer},1651427849,0
{consumergroup=trace-token-events-consumer},1651427854,0
{consumergroup=trace-token-events-consumer},1651427859,0
{consumergroup=trace-token-events-consumer},1651427864,0
{consumergroup=trace-token-events-consumer},1651427869,0
{consumergroup=trace-token-events-consumer},1651427874,0
{consumergroup=trace-token-events-consumer},1651427879,0
{consumergroup=trace-token-events-consumer},1651427884,0
{consumergroup=trace-token-events-consumer},1651427889,0
{consumergroup=trace-token-events-consumer},1651427894,0
{consumergroup=trace-token-events-consumer},1651427899,0
{consumergroup=trace-token-events-consumer},1651427904,0
{consumergroup=trace-token-events-consumer},1651427909,0
{consumergroup=trace-token-events-consumer},1651427914,0
{consumergroup=trace-token-events-consumer},1651427919,0
{consumergroup=trace-token-events-consumer},1651427924,0
{consumergroup=trace-token-events-consumer},1651427929,0
{consumergroup=trace-token-events-consumer},1651427934,0
{consumergroup=trace-token-events-consumer},1651427939,0
{consumergroup=trace-token-events-consumer},1651427944,0
{consumergroup=trace-token-events-consumer},1651427949,0
{consumergroup=trace-token-events-consumer},1651427954,0
{consumergroup=trace-token-events-consumer},1651427959,0
{consumergroup=trace-token-events-consumer},1651427964,0
{consumergroup=trace-token-events-consumer},1651427969,0
{consumergroup=trace-token-events-consumer},1651427974,0
{consumergroup=trace-token-events-consumer},1651427979,0
{consumergroup=trace-token-events-consumer},1651427984,0
{consumergroup=trace-token-events-consumer},1651427989,0
{consumergroup=trace-token-events-consumer},1651427994,0
{consumergroup=trace-token-events-consumer},1651427999,0
{consumergroup=trace-token-events-consumer},1651428004,0
{consumergroup=trace-token-events-consumer},1651428009,0
{consumergroup=trace-token-events-consumer},1651428014,0
{consumergroup=trace-token-events-consumer},1651428019,0
{consumergroup=trace-token-events-consumer},1651428024,0
{consumergroup=trace-token-events-consumer},1651428029,0
{consumergroup=trace-token-events-consumer},1651428034,0
{consumergroup=trace-token-events-consumer},1651428039,0
{consumergroup=trace-token-events-consumer},1651428044,0
{consumergroup=trace-token-events-consumer},1651428049,0
{consumergroup=trace-token-events-consumer},1651428054,0
{consumergroup=trace-token-events-consumer},1651428059,0
{consumergroup=trace-token-events-consumer},1651428064,0
{consumergroup=trace-token-events-consumer},1651428069,0
{consumergroup=trace-token-events-consumer},1651428074,0
{consumergroup=trace-token-events-consumer},1651428079,0
{consumergroup=trace-token-events-consumer},1651428084,0
{consumergroup=trace-token-events-consumer},1651428089,0
{consumergroup=trace-token-events-consumer},1651428094,0
