labels,timestamp,value
{consumergroup=__strimzi-topic-operator-kstreams},1651371571,0
{consumergroup=__strimzi-topic-operator-kstreams},1651371576,0
{consumergroup=__strimzi-topic-operator-kstreams},1651371581,0
{consumergroup=__strimzi-topic-operator-kstreams},1651371586,0
{consumergroup=__strimzi-topic-operator-kstreams},1651371591,0
{consumergroup=__strimzi-topic-operator-kstreams},1651371596,0
{consumergroup=__strimzi-topic-operator-kstreams},1651371601,0
{consumergroup=__strimzi-topic-operator-kstreams},1651371606,0
{consumergroup=__strimzi-topic-operator-kstreams},1651371611,0
{consumergroup=__strimzi-topic-operator-kstreams},1651371616,0
{consumergroup=__strimzi-topic-operator-kstreams},1651371621,0
{consumergroup=__strimzi-topic-operator-kstreams},1651371626,0
{consumergroup=__strimzi-topic-operator-kstreams},1651371631,0
{consumergroup=__strimzi-topic-operator-kstreams},1651371636,0
{consumergroup=__strimzi-topic-operator-kstreams},1651371641,0
{consumergroup=__strimzi-topic-operator-kstreams},1651371646,0
{consumergroup=__strimzi-topic-operator-kstreams},1651371651,0
{consumergroup=__strimzi-topic-operator-kstreams},1651371656,0
{consumergroup=__strimzi-topic-operator-kstreams},1651371661,0
{consumergroup=__strimzi-topic-operator-kstreams},1651371666,0
{consumergroup=__strimzi-topic-operator-kstreams},1651371671,0
{consumergroup=__strimzi-topic-operator-kstreams},1651371676,0
{consumergroup=__strimzi-topic-operator-kstreams},1651371681,0
{consumergroup=__strimzi-topic-operator-kstreams},1651371686,0
{consumergroup=__strimzi-topic-operator-kstreams},1651371691,0
{consumergroup=__strimzi-topic-operator-kstreams},1651371696,0
{consumergroup=__strimzi-topic-operator-kstreams},1651371701,0
{consumergroup=__strimzi-topic-operator-kstreams},1651371706,0
{consumergroup=__strimzi-topic-operator-kstreams},1651371711,0
{consumergroup=__strimzi-topic-operator-kstreams},1651371716,0
{consumergroup=__strimzi-topic-operator-kstreams},1651371721,0
{consumergroup=__strimzi-topic-operator-kstreams},1651371726,0
{consumergroup=__strimzi-topic-operator-kstreams},1651371731,0
{consumergroup=__strimzi-topic-operator-kstreams},1651371736,0
{consumergroup=__strimzi-topic-operator-kstreams},1651371741,0
{consumergroup=__strimzi-topic-operator-kstreams},1651371746,0
{consumergroup=__strimzi-topic-operator-kstreams},1651371751,0
{consumergroup=__strimzi-topic-operator-kstreams},1651371756,0
{consumergroup=__strimzi-topic-operator-kstreams},1651371761,0
{consumergroup=__strimzi-topic-operator-kstreams},1651371766,0
{consumergroup=__strimzi-topic-operator-kstreams},1651371771,0
{consumergroup=__strimzi-topic-operator-kstreams},1651371776,0
{consumergroup=__strimzi-topic-operator-kstreams},1651371781,0
{consumergroup=__strimzi-topic-operator-kstreams},1651371786,0
{consumergroup=__strimzi-topic-operator-kstreams},1651371791,0
{consumergroup=__strimzi-topic-operator-kstreams},1651371796,0
{consumergroup=__strimzi-topic-operator-kstreams},1651371801,0
{consumergroup=__strimzi-topic-operator-kstreams},1651371806,0
{consumergroup=__strimzi-topic-operator-kstreams},1651371811,0
{consumergroup=__strimzi-topic-operator-kstreams},1651371816,0
{consumergroup=adapter-service},1651371601,204909
{consumergroup=adapter-service},1651371606,204909
{consumergroup=adapter-service},1651371611,204909
{consumergroup=adapter-service},1651371616,964454
{consumergroup=adapter-service},1651371621,964454
{consumergroup=adapter-service},1651371626,964454
{consumergroup=adapter-service},1651371631,1446533
{consumergroup=adapter-service},1651371636,1446533
{consumergroup=adapter-service},1651371641,1446533
{consumergroup=adapter-service},1651371646,1937459
{consumergroup=adapter-service},1651371651,1937459
{consumergroup=adapter-service},1651371656,1937459
{consumergroup=adapter-service},1651371661,2390569
{consumergroup=adapter-service},1651371666,2390569
{consumergroup=adapter-service},1651371671,2390569
{consumergroup=adapter-service},1651371676,2823486
{consumergroup=adapter-service},1651371681,2823486
{consumergroup=adapter-service},1651371686,2823486
{consumergroup=adapter-service},1651371691,3150699
{consumergroup=adapter-service},1651371696,3150699
{consumergroup=adapter-service},1651371701,3150699
{consumergroup=adapter-service},1651371706,3476935
{consumergroup=adapter-service},1651371711,3476935
{consumergroup=adapter-service},1651371716,3476935
{consumergroup=adapter-service},1651371721,3757792
{consumergroup=adapter-service},1651371726,3757792
{consumergroup=adapter-service},1651371731,3757792
{consumergroup=adapter-service},1651371736,4053304
{consumergroup=adapter-service},1651371741,4053304
{consumergroup=adapter-service},1651371746,4053304
{consumergroup=adapter-service},1651371751,4314597
{consumergroup=adapter-service},1651371756,4314597
{consumergroup=adapter-service},1651371761,4314597
{consumergroup=adapter-service},1651371766,4613188
{consumergroup=adapter-service},1651371771,4613188
{consumergroup=adapter-service},1651371776,4613188
{consumergroup=adapter-service},1651371781,4867229
{consumergroup=adapter-service},1651371786,4867229
{consumergroup=adapter-service},1651371791,4867229
{consumergroup=adapter-service},1651371796,5161194
{consumergroup=adapter-service},1651371801,5161194
{consumergroup=adapter-service},1651371806,5161194
{consumergroup=adapter-service},1651371811,5425156
{consumergroup=adapter-service},1651371816,5425156
