labels,timestamp,value
{consumergroup=__strimzi-topic-operator-kstreams},1651347194,16
{consumergroup=__strimzi-topic-operator-kstreams},1651347199,16
{consumergroup=__strimzi-topic-operator-kstreams},1651347204,16
{consumergroup=__strimzi-topic-operator-kstreams},1651347209,0
{consumergroup=__strimzi-topic-operator-kstreams},1651347214,0
{consumergroup=__strimzi-topic-operator-kstreams},1651347219,0
{consumergroup=__strimzi-topic-operator-kstreams},1651347224,0
{consumergroup=__strimzi-topic-operator-kstreams},1651347229,0
{consumergroup=__strimzi-topic-operator-kstreams},1651347234,0
{consumergroup=__strimzi-topic-operator-kstreams},1651347239,0
{consumergroup=__strimzi-topic-operator-kstreams},1651347244,0
{consumergroup=__strimzi-topic-operator-kstreams},1651347249,0
{consumergroup=__strimzi-topic-operator-kstreams},1651347254,0
{consumergroup=__strimzi-topic-operator-kstreams},1651347259,0
{consumergroup=__strimzi-topic-operator-kstreams},1651347264,0
{consumergroup=__strimzi-topic-operator-kstreams},1651347269,0
{consumergroup=__strimzi-topic-operator-kstreams},1651347274,0
{consumergroup=__strimzi-topic-operator-kstreams},1651347279,0
{consumergroup=__strimzi-topic-operator-kstreams},1651347284,0
{consumergroup=__strimzi-topic-operator-kstreams},1651347289,0
{consumergroup=__strimzi-topic-operator-kstreams},1651347294,0
{consumergroup=__strimzi-topic-operator-kstreams},1651347299,0
{consumergroup=__strimzi-topic-operator-kstreams},1651347304,0
{consumergroup=__strimzi-topic-operator-kstreams},1651347309,0
{consumergroup=__strimzi-topic-operator-kstreams},1651347314,0
{consumergroup=__strimzi-topic-operator-kstreams},1651347319,0
{consumergroup=__strimzi-topic-operator-kstreams},1651347324,0
{consumergroup=__strimzi-topic-operator-kstreams},1651347329,0
{consumergroup=__strimzi-topic-operator-kstreams},1651347334,0
{consumergroup=__strimzi-topic-operator-kstreams},1651347339,0
{consumergroup=__strimzi-topic-operator-kstreams},1651347344,0
{consumergroup=__strimzi-topic-operator-kstreams},1651347349,0
{consumergroup=__strimzi-topic-operator-kstreams},1651347354,0
{consumergroup=__strimzi-topic-operator-kstreams},1651347359,0
{consumergroup=__strimzi-topic-operator-kstreams},1651347364,0
{consumergroup=__strimzi-topic-operator-kstreams},1651347369,0
{consumergroup=__strimzi-topic-operator-kstreams},1651347374,0
{consumergroup=__strimzi-topic-operator-kstreams},1651347379,0
{consumergroup=__strimzi-topic-operator-kstreams},1651347384,0
{consumergroup=__strimzi-topic-operator-kstreams},1651347389,0
{consumergroup=__strimzi-topic-operator-kstreams},1651347394,0
{consumergroup=__strimzi-topic-operator-kstreams},1651347399,0
{consumergroup=__strimzi-topic-operator-kstreams},1651347404,0
{consumergroup=__strimzi-topic-operator-kstreams},1651347409,0
{consumergroup=__strimzi-topic-operator-kstreams},1651347414,0
{consumergroup=__strimzi-topic-operator-kstreams},1651347419,0
{consumergroup=__strimzi-topic-operator-kstreams},1651347424,0
{consumergroup=__strimzi-topic-operator-kstreams},1651347429,0
{consumergroup=__strimzi-topic-operator-kstreams},1651347434,0
{consumergroup=__strimzi-topic-operator-kstreams},1651347439,0
{consumergroup=__strimzi-topic-operator-kstreams},1651347444,0
{consumergroup=__strimzi-topic-operator-kstreams},1651347449,0
{consumergroup=adapter-service},1651347224,227028
{consumergroup=adapter-service},1651347229,227028
{consumergroup=adapter-service},1651347234,227028
{consumergroup=adapter-service},1651347239,603799
{consumergroup=adapter-service},1651347244,603799
{consumergroup=adapter-service},1651347249,603799
{consumergroup=adapter-service},1651347254,377949
{consumergroup=adapter-service},1651347259,377949
{consumergroup=adapter-service},1651347264,377949
{consumergroup=adapter-service},1651347269,289880
{consumergroup=adapter-service},1651347274,289880
{consumergroup=adapter-service},1651347279,289880
{consumergroup=adapter-service},1651347284,56550
{consumergroup=adapter-service},1651347289,56550
{consumergroup=adapter-service},1651347294,56550
{consumergroup=adapter-service},1651347299,87753
{consumergroup=adapter-service},1651347304,87753
{consumergroup=adapter-service},1651347309,87753
{consumergroup=adapter-service},1651347314,4148
{consumergroup=adapter-service},1651347319,4148
{consumergroup=adapter-service},1651347324,4148
{consumergroup=adapter-service},1651347329,71409
{consumergroup=adapter-service},1651347334,71409
{consumergroup=adapter-service},1651347339,71409
{consumergroup=adapter-service},1651347344,116034
{consumergroup=adapter-service},1651347349,116034
{consumergroup=adapter-service},1651347354,116034
{consumergroup=adapter-service},1651347359,41937
{consumergroup=adapter-service},1651347364,41937
{consumergroup=adapter-service},1651347369,41937
{consumergroup=adapter-service},1651347374,313636
{consumergroup=adapter-service},1651347379,313636
{consumergroup=adapter-service},1651347384,313636
{consumergroup=adapter-service},1651347389,26975
{consumergroup=adapter-service},1651347394,26975
{consumergroup=adapter-service},1651347399,26975
{consumergroup=adapter-service},1651347404,307186
{consumergroup=adapter-service},1651347409,307186
{consumergroup=adapter-service},1651347414,307186
{consumergroup=adapter-service},1651347419,38372
{consumergroup=adapter-service},1651347424,38372
{consumergroup=adapter-service},1651347429,38372
{consumergroup=adapter-service},1651347434,289333
{consumergroup=adapter-service},1651347439,289333
{consumergroup=adapter-service},1651347444,289333
{consumergroup=adapter-service},1651347449,8145
