labels,timestamp,value
{consumergroup=__strimzi-topic-operator-kstreams},1651277088,5
{consumergroup=__strimzi-topic-operator-kstreams},1651277093,5
{consumergroup=__strimzi-topic-operator-kstreams},1651277098,5
{consumergroup=__strimzi-topic-operator-kstreams},1651277103,14
{consumergroup=__strimzi-topic-operator-kstreams},1651277108,14
{consumergroup=__strimzi-topic-operator-kstreams},1651277113,14
{consumergroup=__strimzi-topic-operator-kstreams},1651277118,0
{consumergroup=__strimzi-topic-operator-kstreams},1651277123,0
{consumergroup=__strimzi-topic-operator-kstreams},1651277128,0
{consumergroup=__strimzi-topic-operator-kstreams},1651277133,0
{consumergroup=__strimzi-topic-operator-kstreams},1651277138,0
{consumergroup=__strimzi-topic-operator-kstreams},1651277143,0
{consumergroup=__strimzi-topic-operator-kstreams},1651277148,0
{consumergroup=__strimzi-topic-operator-kstreams},1651277153,0
{consumergroup=__strimzi-topic-operator-kstreams},1651277158,0
{consumergroup=__strimzi-topic-operator-kstreams},1651277163,0
{consumergroup=__strimzi-topic-operator-kstreams},1651277168,0
{consumergroup=__strimzi-topic-operator-kstreams},1651277173,0
{consumergroup=__strimzi-topic-operator-kstreams},1651277178,0
{consumergroup=__strimzi-topic-operator-kstreams},1651277183,0
{consumergroup=__strimzi-topic-operator-kstreams},1651277188,0
{consumergroup=__strimzi-topic-operator-kstreams},1651277193,0
{consumergroup=__strimzi-topic-operator-kstreams},1651277198,0
{consumergroup=__strimzi-topic-operator-kstreams},1651277203,0
{consumergroup=__strimzi-topic-operator-kstreams},1651277208,0
{consumergroup=__strimzi-topic-operator-kstreams},1651277213,0
{consumergroup=__strimzi-topic-operator-kstreams},1651277218,0
{consumergroup=__strimzi-topic-operator-kstreams},1651277223,0
{consumergroup=__strimzi-topic-operator-kstreams},1651277228,0
{consumergroup=__strimzi-topic-operator-kstreams},1651277233,0
{consumergroup=__strimzi-topic-operator-kstreams},1651277238,0
{consumergroup=__strimzi-topic-operator-kstreams},1651277243,0
{consumergroup=__strimzi-topic-operator-kstreams},1651277248,0
{consumergroup=__strimzi-topic-operator-kstreams},1651277253,0
{consumergroup=__strimzi-topic-operator-kstreams},1651277258,0
{consumergroup=__strimzi-topic-operator-kstreams},1651277263,0
{consumergroup=__strimzi-topic-operator-kstreams},1651277268,0
{consumergroup=__strimzi-topic-operator-kstreams},1651277273,0
{consumergroup=__strimzi-topic-operator-kstreams},1651277278,0
{consumergroup=__strimzi-topic-operator-kstreams},1651277283,0
{consumergroup=__strimzi-topic-operator-kstreams},1651277288,0
{consumergroup=__strimzi-topic-operator-kstreams},1651277293,0
{consumergroup=__strimzi-topic-operator-kstreams},1651277298,0
{consumergroup=__strimzi-topic-operator-kstreams},1651277303,0
{consumergroup=__strimzi-topic-operator-kstreams},1651277308,0
{consumergroup=__strimzi-topic-operator-kstreams},1651277313,0
{consumergroup=__strimzi-topic-operator-kstreams},1651277318,0
{consumergroup=__strimzi-topic-operator-kstreams},1651277323,0
{consumergroup=__strimzi-topic-operator-kstreams},1651277328,0
{consumergroup=__strimzi-topic-operator-kstreams},1651277333,0
{consumergroup=__strimzi-topic-operator-kstreams},1651277338,0
{consumergroup=__strimzi-topic-operator-kstreams},1651277343,0
{consumergroup=__strimzi-topic-operator-kstreams},1651277348,0
{consumergroup=__strimzi-topic-operator-kstreams},1651277353,0
{consumergroup=__strimzi-topic-operator-kstreams},1651277358,0
{consumergroup=__strimzi-topic-operator-kstreams},1651277363,0
{consumergroup=__strimzi-topic-operator-kstreams},1651277368,0
{consumergroup=__strimzi-topic-operator-kstreams},1651277373,0
{consumergroup=__strimzi-topic-operator-kstreams},1651277378,0
{consumergroup=__strimzi-topic-operator-kstreams},1651277383,0
{consumergroup=__strimzi-topic-operator-kstreams},1651277388,0
{consumergroup=__strimzi-topic-operator-kstreams},1651277393,0
{consumergroup=__strimzi-topic-operator-kstreams},1651277398,0
{consumergroup=__strimzi-topic-operator-kstreams},1651277403,0
{consumergroup=__strimzi-topic-operator-kstreams},1651277408,0
{consumergroup=__strimzi-topic-operator-kstreams},1651277413,0
{consumergroup=__strimzi-topic-operator-kstreams},1651277418,0
{consumergroup=__strimzi-topic-operator-kstreams},1651277423,0
{consumergroup=__strimzi-topic-operator-kstreams},1651277428,0
{consumergroup=__strimzi-topic-operator-kstreams},1651277433,0
{consumergroup=__strimzi-topic-operator-kstreams},1651277438,0
{consumergroup=__strimzi-topic-operator-kstreams},1651277443,0
{consumergroup=__strimzi-topic-operator-kstreams},1651277448,0
{consumergroup=__strimzi-topic-operator-kstreams},1651277453,0
{consumergroup=__strimzi-topic-operator-kstreams},1651277458,0
{consumergroup=__strimzi-topic-operator-kstreams},1651277463,0
{consumergroup=__strimzi-topic-operator-kstreams},1651277468,0
{consumergroup=__strimzi-topic-operator-kstreams},1651277473,0
{consumergroup=__strimzi-topic-operator-kstreams},1651277478,0
{consumergroup=__strimzi-topic-operator-kstreams},1651277483,0
{consumergroup=__strimzi-topic-operator-kstreams},1651277488,0
{consumergroup=__strimzi-topic-operator-kstreams},1651277493,0
{consumergroup=__strimzi-topic-operator-kstreams},1651277498,0
{consumergroup=__strimzi-topic-operator-kstreams},1651277503,0
{consumergroup=__strimzi-topic-operator-kstreams},1651277508,0
{consumergroup=__strimzi-topic-operator-kstreams},1651277513,0
{consumergroup=__strimzi-topic-operator-kstreams},1651277518,0
{consumergroup=__strimzi-topic-operator-kstreams},1651277523,0
{consumergroup=__strimzi-topic-operator-kstreams},1651277528,0
{consumergroup=__strimzi-topic-operator-kstreams},1651277533,0
{consumergroup=__strimzi-topic-operator-kstreams},1651277538,0
{consumergroup=__strimzi-topic-operator-kstreams},1651277543,0
{consumergroup=__strimzi-topic-operator-kstreams},1651277548,0
{consumergroup=__strimzi-topic-operator-kstreams},1651277553,0
{consumergroup=__strimzi-topic-operator-kstreams},1651277558,0
{consumergroup=__strimzi-topic-operator-kstreams},1651277563,0
{consumergroup=__strimzi-topic-operator-kstreams},1651277568,0
{consumergroup=__strimzi-topic-operator-kstreams},1651277573,0
{consumergroup=__strimzi-topic-operator-kstreams},1651277578,0
{consumergroup=__strimzi-topic-operator-kstreams},1651277583,0
{consumergroup=__strimzi-topic-operator-kstreams},1651277588,0
{consumergroup=__strimzi-topic-operator-kstreams},1651277593,0
{consumergroup=__strimzi-topic-operator-kstreams},1651277598,0
{consumergroup=adapter-service},1651277133,13381
{consumergroup=adapter-service},1651277138,13381
{consumergroup=adapter-service},1651277143,13381
{consumergroup=adapter-service},1651277148,15561
{consumergroup=adapter-service},1651277153,15561
{consumergroup=adapter-service},1651277158,15561
{consumergroup=adapter-service},1651277163,13345
{consumergroup=adapter-service},1651277168,13345
{consumergroup=adapter-service},1651277173,13345
{consumergroup=adapter-service},1651277178,8507
{consumergroup=adapter-service},1651277183,8507
{consumergroup=adapter-service},1651277188,8507
{consumergroup=adapter-service},1651277193,7058
{consumergroup=adapter-service},1651277198,7058
{consumergroup=adapter-service},1651277203,7058
{consumergroup=adapter-service},1651277208,6220
{consumergroup=adapter-service},1651277213,6220
{consumergroup=adapter-service},1651277218,6220
{consumergroup=adapter-service},1651277223,4310
{consumergroup=adapter-service},1651277228,4310
{consumergroup=adapter-service},1651277233,4310
{consumergroup=adapter-service},1651277238,5885
{consumergroup=adapter-service},1651277243,5885
{consumergroup=adapter-service},1651277248,5885
{consumergroup=adapter-service},1651277253,1561
{consumergroup=adapter-service},1651277258,1561
{consumergroup=adapter-service},1651277263,1561
{consumergroup=adapter-service},1651277268,863
{consumergroup=adapter-service},1651277273,863
{consumergroup=adapter-service},1651277278,863
{consumergroup=adapter-service},1651277283,393
{consumergroup=adapter-service},1651277288,393
{consumergroup=adapter-service},1651277293,393
{consumergroup=adapter-service},1651277298,5972
{consumergroup=adapter-service},1651277303,5972
{consumergroup=adapter-service},1651277308,5972
{consumergroup=adapter-service},1651277313,5731
{consumergroup=adapter-service},1651277318,5731
{consumergroup=adapter-service},1651277323,5731
{consumergroup=adapter-service},1651277328,10720
{consumergroup=adapter-service},1651277333,10720
{consumergroup=adapter-service},1651277338,10720
{consumergroup=adapter-service},1651277343,10531
{consumergroup=adapter-service},1651277348,10531
{consumergroup=adapter-service},1651277353,10531
{consumergroup=adapter-service},1651277358,9434
{consumergroup=adapter-service},1651277363,9434
{consumergroup=adapter-service},1651277368,9434
{consumergroup=adapter-service},1651277373,9000
{consumergroup=adapter-service},1651277378,9000
{consumergroup=adapter-service},1651277383,9000
{consumergroup=adapter-service},1651277388,8474
{consumergroup=adapter-service},1651277393,8474
{consumergroup=adapter-service},1651277398,8474
{consumergroup=adapter-service},1651277403,7984
{consumergroup=adapter-service},1651277408,7984
{consumergroup=adapter-service},1651277413,7984
{consumergroup=adapter-service},1651277418,9284
{consumergroup=adapter-service},1651277423,9284
{consumergroup=adapter-service},1651277428,9284
{consumergroup=adapter-service},1651277433,6254
{consumergroup=adapter-service},1651277438,6254
{consumergroup=adapter-service},1651277443,6254
{consumergroup=adapter-service},1651277448,5839
{consumergroup=adapter-service},1651277453,5839
{consumergroup=adapter-service},1651277458,5839
{consumergroup=adapter-service},1651277463,5248
{consumergroup=adapter-service},1651277468,5248
{consumergroup=adapter-service},1651277473,5248
{consumergroup=adapter-service},1651277478,4750
{consumergroup=adapter-service},1651277483,4750
{consumergroup=adapter-service},1651277488,4750
{consumergroup=adapter-service},1651277493,4000
{consumergroup=adapter-service},1651277498,4000
{consumergroup=adapter-service},1651277503,4000
{consumergroup=adapter-service},1651277508,5803
{consumergroup=adapter-service},1651277513,5803
{consumergroup=adapter-service},1651277518,5803
{consumergroup=adapter-service},1651277523,2887
{consumergroup=adapter-service},1651277528,2887
{consumergroup=adapter-service},1651277533,2887
{consumergroup=adapter-service},1651277538,2219
{consumergroup=adapter-service},1651277543,2219
{consumergroup=adapter-service},1651277548,2219
{consumergroup=adapter-service},1651277553,1692
{consumergroup=adapter-service},1651277558,1692
{consumergroup=adapter-service},1651277563,1692
{consumergroup=adapter-service},1651277568,1749
{consumergroup=adapter-service},1651277573,1749
{consumergroup=adapter-service},1651277578,1749
{consumergroup=adapter-service},1651277583,1203
{consumergroup=adapter-service},1651277588,1203
{consumergroup=adapter-service},1651277593,1203
{consumergroup=adapter-service},1651277598,679
{consumergroup=landscape-service},1651277148,5963
{consumergroup=landscape-service},1651277153,5963
{consumergroup=landscape-service},1651277158,5963
{consumergroup=landscape-service},1651277163,1131
{consumergroup=landscape-service},1651277168,1131
{consumergroup=landscape-service},1651277173,1131
{consumergroup=landscape-service},1651277178,1071
{consumergroup=landscape-service},1651277183,1071
{consumergroup=landscape-service},1651277188,1071
{consumergroup=landscape-service},1651277193,1280
{consumergroup=landscape-service},1651277198,1280
{consumergroup=landscape-service},1651277203,1280
{consumergroup=landscape-service},1651277208,430
{consumergroup=landscape-service},1651277213,430
{consumergroup=landscape-service},1651277218,430
{consumergroup=landscape-service},1651277223,307
{consumergroup=landscape-service},1651277228,307
{consumergroup=landscape-service},1651277233,307
{consumergroup=landscape-service},1651277238,3266
{consumergroup=landscape-service},1651277243,3266
{consumergroup=landscape-service},1651277248,3266
{consumergroup=landscape-service},1651277253,610
{consumergroup=landscape-service},1651277258,610
{consumergroup=landscape-service},1651277263,610
{consumergroup=landscape-service},1651277358,11369
{consumergroup=landscape-service},1651277363,11369
{consumergroup=landscape-service},1651277368,11369
{consumergroup=landscape-service},1651277373,11837
{consumergroup=landscape-service},1651277378,11837
{consumergroup=landscape-service},1651277383,11837
{consumergroup=landscape-service},1651277388,11828
{consumergroup=landscape-service},1651277393,11828
{consumergroup=landscape-service},1651277398,11828
{consumergroup=landscape-service},1651277403,10991
{consumergroup=landscape-service},1651277408,10991
{consumergroup=landscape-service},1651277413,10991
{consumergroup=landscape-service},1651277418,675
{consumergroup=landscape-service},1651277423,675
{consumergroup=landscape-service},1651277428,675
{consumergroup=landscape-service},1651277433,10451
{consumergroup=landscape-service},1651277438,10451
{consumergroup=landscape-service},1651277443,10451
{consumergroup=landscape-service},1651277448,10511
{consumergroup=landscape-service},1651277453,10511
{consumergroup=landscape-service},1651277458,10511
{consumergroup=landscape-service},1651277463,10203
{consumergroup=landscape-service},1651277468,10203
{consumergroup=landscape-service},1651277473,10203
{consumergroup=landscape-service},1651277478,10039
{consumergroup=landscape-service},1651277483,10039
{consumergroup=landscape-service},1651277488,10039
{consumergroup=landscape-service},1651277493,10192
{consumergroup=landscape-service},1651277498,10192
{consumergroup=landscape-service},1651277503,10192
{consumergroup=landscape-service},1651277508,12884
{consumergroup=landscape-service},1651277513,12884
{consumergroup=landscape-service},1651277518,12884
{consumergroup=landscape-service},1651277523,9464
{consumergroup=landscape-service},1651277528,9464
{consumergroup=landscape-service},1651277533,9464
{consumergroup=landscape-service},1651277538,8889
{consumergroup=landscape-service},1651277543,8889
{consumergroup=landscape-service},1651277548,8889
{consumergroup=landscape-service},1651277553,8473
{consumergroup=landscape-service},1651277558,8473
{consumergroup=landscape-service},1651277563,8473
{consumergroup=landscape-service},1651277568,8666
{consumergroup=landscape-service},1651277573,8666
{consumergroup=landscape-service},1651277578,8666
{consumergroup=landscape-service},1651277583,7675
{consumergroup=landscape-service},1651277588,7675
{consumergroup=landscape-service},1651277593,7675
{consumergroup=landscape-service},1651277598,7316
{consumergroup=trace-service},1651277133,1531
{consumergroup=trace-service},1651277138,1531
{consumergroup=trace-service},1651277143,1531
{consumergroup=trace-service},1651277148,11952
{consumergroup=trace-service},1651277153,11952
{consumergroup=trace-service},1651277158,11952
{consumergroup=trace-service},1651277163,20826
{consumergroup=trace-service},1651277168,20826
{consumergroup=trace-service},1651277173,20826
{consumergroup=trace-service},1651277178,40487
{consumergroup=trace-service},1651277183,40487
{consumergroup=trace-service},1651277188,40487
{consumergroup=trace-service},1651277193,21029
{consumergroup=trace-service},1651277198,21029
{consumergroup=trace-service},1651277203,21029
{consumergroup=trace-service},1651277208,36829
{consumergroup=trace-service},1651277213,36829
{consumergroup=trace-service},1651277218,36829
{consumergroup=trace-service},1651277223,22470
{consumergroup=trace-service},1651277228,22470
{consumergroup=trace-service},1651277233,22470
{consumergroup=trace-service},1651277238,50632
{consumergroup=trace-service},1651277243,50632
{consumergroup=trace-service},1651277248,50632
{consumergroup=trace-service},1651277253,20911
{consumergroup=trace-service},1651277258,20911
{consumergroup=trace-service},1651277263,20911
{consumergroup=trace-service},1651277268,51512
{consumergroup=trace-service},1651277273,51512
{consumergroup=trace-service},1651277278,51512
{consumergroup=trace-service},1651277283,18502
{consumergroup=trace-service},1651277288,18502
{consumergroup=trace-service},1651277293,18502
{consumergroup=trace-service},1651277298,36400
{consumergroup=trace-service},1651277303,36400
{consumergroup=trace-service},1651277308,36400
{consumergroup=trace-service},1651277313,15055
{consumergroup=trace-service},1651277318,15055
{consumergroup=trace-service},1651277323,15055
{consumergroup=trace-service},1651277328,42334
{consumergroup=trace-service},1651277333,42334
{consumergroup=trace-service},1651277338,42334
{consumergroup=trace-service},1651277343,45612
{consumergroup=trace-service},1651277348,45612
{consumergroup=trace-service},1651277353,45612
{consumergroup=trace-service},1651277358,43606
{consumergroup=trace-service},1651277363,43606
{consumergroup=trace-service},1651277368,43606
{consumergroup=trace-service},1651277373,28628
{consumergroup=trace-service},1651277378,28628
{consumergroup=trace-service},1651277383,28628
{consumergroup=trace-service},1651277388,48171
{consumergroup=trace-service},1651277393,48171
{consumergroup=trace-service},1651277398,48171
{consumergroup=trace-service},1651277403,17556
{consumergroup=trace-service},1651277408,17556
{consumergroup=trace-service},1651277413,17556
{consumergroup=trace-service},1651277418,35504
{consumergroup=trace-service},1651277423,35504
{consumergroup=trace-service},1651277428,35504
{consumergroup=trace-service},1651277433,25597
{consumergroup=trace-service},1651277438,25597
{consumergroup=trace-service},1651277443,25597
{consumergroup=trace-service},1651277448,46151
{consumergroup=trace-service},1651277453,46151
{consumergroup=trace-service},1651277458,46151
{consumergroup=trace-service},1651277463,63401
{consumergroup=trace-service},1651277468,63401
{consumergroup=trace-service},1651277473,63401
{consumergroup=trace-service},1651277478,49996
{consumergroup=trace-service},1651277483,49996
{consumergroup=trace-service},1651277488,49996
{consumergroup=trace-service},1651277493,28760
{consumergroup=trace-service},1651277498,28760
{consumergroup=trace-service},1651277503,28760
{consumergroup=trace-service},1651277508,41027
{consumergroup=trace-service},1651277513,41027
{consumergroup=trace-service},1651277518,41027
{consumergroup=trace-service},1651277523,18642
{consumergroup=trace-service},1651277528,18642
{consumergroup=trace-service},1651277533,18642
{consumergroup=trace-service},1651277538,51142
{consumergroup=trace-service},1651277543,51142
{consumergroup=trace-service},1651277548,51142
{consumergroup=trace-service},1651277553,29165
{consumergroup=trace-service},1651277558,29165
{consumergroup=trace-service},1651277563,29165
{consumergroup=trace-service},1651277568,40518
{consumergroup=trace-service},1651277573,40518
{consumergroup=trace-service},1651277578,40518
{consumergroup=trace-service},1651277583,25373
{consumergroup=trace-service},1651277588,25373
{consumergroup=trace-service},1651277593,25373
{consumergroup=trace-service},1651277598,52760
{consumergroup=trace-token-events-consumer},1651277118,0
{consumergroup=trace-token-events-consumer},1651277123,0
{consumergroup=trace-token-events-consumer},1651277128,0
{consumergroup=trace-token-events-consumer},1651277133,0
{consumergroup=trace-token-events-consumer},1651277138,0
{consumergroup=trace-token-events-consumer},1651277143,0
{consumergroup=trace-token-events-consumer},1651277148,0
{consumergroup=trace-token-events-consumer},1651277153,0
{consumergroup=trace-token-events-consumer},1651277158,0
{consumergroup=trace-token-events-consumer},1651277163,0
{consumergroup=trace-token-events-consumer},1651277168,0
{consumergroup=trace-token-events-consumer},1651277173,0
{consumergroup=trace-token-events-consumer},1651277178,0
{consumergroup=trace-token-events-consumer},1651277183,0
{consumergroup=trace-token-events-consumer},1651277188,0
{consumergroup=trace-token-events-consumer},1651277193,0
{consumergroup=trace-token-events-consumer},1651277198,0
{consumergroup=trace-token-events-consumer},1651277203,0
{consumergroup=trace-token-events-consumer},1651277208,0
{consumergroup=trace-token-events-consumer},1651277213,0
{consumergroup=trace-token-events-consumer},1651277218,0
{consumergroup=trace-token-events-consumer},1651277223,0
{consumergroup=trace-token-events-consumer},1651277228,0
{consumergroup=trace-token-events-consumer},1651277233,0
{consumergroup=trace-token-events-consumer},1651277238,0
{consumergroup=trace-token-events-consumer},1651277243,0
{consumergroup=trace-token-events-consumer},1651277248,0
{consumergroup=trace-token-events-consumer},1651277253,0
{consumergroup=trace-token-events-consumer},1651277258,0
{consumergroup=trace-token-events-consumer},1651277263,0
{consumergroup=trace-token-events-consumer},1651277268,0
{consumergroup=trace-token-events-consumer},1651277273,0
{consumergroup=trace-token-events-consumer},1651277278,0
{consumergroup=trace-token-events-consumer},1651277283,0
{consumergroup=trace-token-events-consumer},1651277288,0
{consumergroup=trace-token-events-consumer},1651277293,0
{consumergroup=trace-token-events-consumer},1651277298,0
{consumergroup=trace-token-events-consumer},1651277303,0
{consumergroup=trace-token-events-consumer},1651277308,0
{consumergroup=trace-token-events-consumer},1651277313,0
{consumergroup=trace-token-events-consumer},1651277318,0
{consumergroup=trace-token-events-consumer},1651277323,0
{consumergroup=trace-token-events-consumer},1651277328,0
{consumergroup=trace-token-events-consumer},1651277333,0
{consumergroup=trace-token-events-consumer},1651277338,0
{consumergroup=trace-token-events-consumer},1651277343,0
{consumergroup=trace-token-events-consumer},1651277348,0
{consumergroup=trace-token-events-consumer},1651277353,0
{consumergroup=trace-token-events-consumer},1651277358,0
{consumergroup=trace-token-events-consumer},1651277363,0
{consumergroup=trace-token-events-consumer},1651277368,0
{consumergroup=trace-token-events-consumer},1651277373,0
{consumergroup=trace-token-events-consumer},1651277378,0
{consumergroup=trace-token-events-consumer},1651277383,0
{consumergroup=trace-token-events-consumer},1651277388,0
{consumergroup=trace-token-events-consumer},1651277393,0
{consumergroup=trace-token-events-consumer},1651277398,0
{consumergroup=trace-token-events-consumer},1651277403,0
{consumergroup=trace-token-events-consumer},1651277408,0
{consumergroup=trace-token-events-consumer},1651277413,0
{consumergroup=trace-token-events-consumer},1651277418,0
{consumergroup=trace-token-events-consumer},1651277423,0
{consumergroup=trace-token-events-consumer},1651277428,0
{consumergroup=trace-token-events-consumer},1651277433,0
{consumergroup=trace-token-events-consumer},1651277438,0
{consumergroup=trace-token-events-consumer},1651277443,0
{consumergroup=trace-token-events-consumer},1651277448,0
{consumergroup=trace-token-events-consumer},1651277453,0
{consumergroup=trace-token-events-consumer},1651277458,0
{consumergroup=trace-token-events-consumer},1651277463,0
{consumergroup=trace-token-events-consumer},1651277468,0
{consumergroup=trace-token-events-consumer},1651277473,0
{consumergroup=trace-token-events-consumer},1651277478,0
{consumergroup=trace-token-events-consumer},1651277483,0
{consumergroup=trace-token-events-consumer},1651277488,0
{consumergroup=trace-token-events-consumer},1651277493,0
{consumergroup=trace-token-events-consumer},1651277498,0
{consumergroup=trace-token-events-consumer},1651277503,0
{consumergroup=trace-token-events-consumer},1651277508,0
{consumergroup=trace-token-events-consumer},1651277513,0
{consumergroup=trace-token-events-consumer},1651277518,0
{consumergroup=trace-token-events-consumer},1651277523,0
{consumergroup=trace-token-events-consumer},1651277528,0
{consumergroup=trace-token-events-consumer},1651277533,0
{consumergroup=trace-token-events-consumer},1651277538,0
{consumergroup=trace-token-events-consumer},1651277543,0
{consumergroup=trace-token-events-consumer},1651277548,0
{consumergroup=trace-token-events-consumer},1651277553,0
{consumergroup=trace-token-events-consumer},1651277558,0
{consumergroup=trace-token-events-consumer},1651277563,0
{consumergroup=trace-token-events-consumer},1651277568,0
{consumergroup=trace-token-events-consumer},1651277573,0
{consumergroup=trace-token-events-consumer},1651277578,0
{consumergroup=trace-token-events-consumer},1651277583,0
{consumergroup=trace-token-events-consumer},1651277588,0
{consumergroup=trace-token-events-consumer},1651277593,0
{consumergroup=trace-token-events-consumer},1651277598,0
