labels,timestamp,value
{consumergroup=__strimzi-topic-operator-kstreams},1651419622,12
{consumergroup=__strimzi-topic-operator-kstreams},1651419627,12
{consumergroup=__strimzi-topic-operator-kstreams},1651419632,12
{consumergroup=__strimzi-topic-operator-kstreams},1651419637,0
{consumergroup=__strimzi-topic-operator-kstreams},1651419642,0
{consumergroup=__strimzi-topic-operator-kstreams},1651419647,0
{consumergroup=__strimzi-topic-operator-kstreams},1651419652,0
{consumergroup=__strimzi-topic-operator-kstreams},1651419657,0
{consumergroup=__strimzi-topic-operator-kstreams},1651419662,0
{consumergroup=__strimzi-topic-operator-kstreams},1651419667,0
{consumergroup=__strimzi-topic-operator-kstreams},1651419672,0
{consumergroup=__strimzi-topic-operator-kstreams},1651419677,0
{consumergroup=__strimzi-topic-operator-kstreams},1651419682,0
{consumergroup=__strimzi-topic-operator-kstreams},1651419687,0
{consumergroup=__strimzi-topic-operator-kstreams},1651419692,0
{consumergroup=__strimzi-topic-operator-kstreams},1651419697,0
{consumergroup=__strimzi-topic-operator-kstreams},1651419702,0
{consumergroup=__strimzi-topic-operator-kstreams},1651419707,0
{consumergroup=__strimzi-topic-operator-kstreams},1651419712,0
{consumergroup=__strimzi-topic-operator-kstreams},1651419717,0
{consumergroup=__strimzi-topic-operator-kstreams},1651419722,0
{consumergroup=__strimzi-topic-operator-kstreams},1651419727,0
{consumergroup=__strimzi-topic-operator-kstreams},1651419732,0
{consumergroup=__strimzi-topic-operator-kstreams},1651419737,0
{consumergroup=__strimzi-topic-operator-kstreams},1651419742,0
{consumergroup=__strimzi-topic-operator-kstreams},1651419747,0
{consumergroup=__strimzi-topic-operator-kstreams},1651419752,0
{consumergroup=__strimzi-topic-operator-kstreams},1651419757,0
{consumergroup=__strimzi-topic-operator-kstreams},1651419762,0
{consumergroup=__strimzi-topic-operator-kstreams},1651419767,0
{consumergroup=__strimzi-topic-operator-kstreams},1651419772,0
{consumergroup=__strimzi-topic-operator-kstreams},1651419777,0
{consumergroup=__strimzi-topic-operator-kstreams},1651419782,0
{consumergroup=__strimzi-topic-operator-kstreams},1651419787,0
{consumergroup=__strimzi-topic-operator-kstreams},1651419792,0
{consumergroup=__strimzi-topic-operator-kstreams},1651419797,0
{consumergroup=__strimzi-topic-operator-kstreams},1651419802,0
{consumergroup=__strimzi-topic-operator-kstreams},1651419807,0
{consumergroup=__strimzi-topic-operator-kstreams},1651419812,0
{consumergroup=__strimzi-topic-operator-kstreams},1651419817,0
{consumergroup=__strimzi-topic-operator-kstreams},1651419822,0
{consumergroup=__strimzi-topic-operator-kstreams},1651419827,0
{consumergroup=__strimzi-topic-operator-kstreams},1651419832,0
{consumergroup=__strimzi-topic-operator-kstreams},1651419837,0
{consumergroup=__strimzi-topic-operator-kstreams},1651419842,0
{consumergroup=__strimzi-topic-operator-kstreams},1651419847,0
{consumergroup=__strimzi-topic-operator-kstreams},1651419852,0
{consumergroup=__strimzi-topic-operator-kstreams},1651419857,0
{consumergroup=__strimzi-topic-operator-kstreams},1651419862,0
{consumergroup=__strimzi-topic-operator-kstreams},1651419867,0
{consumergroup=adapter-service},1651419637,0
{consumergroup=adapter-service},1651419642,0
{consumergroup=adapter-service},1651419647,0
{consumergroup=adapter-service},1651419652,98225
{consumergroup=adapter-service},1651419657,98225
{consumergroup=adapter-service},1651419662,98225
{consumergroup=adapter-service},1651419667,121686
{consumergroup=adapter-service},1651419672,121686
{consumergroup=adapter-service},1651419677,121686
{consumergroup=adapter-service},1651419682,56927
{consumergroup=adapter-service},1651419687,56927
{consumergroup=adapter-service},1651419692,56927
{consumergroup=adapter-service},1651419697,49457
{consumergroup=adapter-service},1651419702,49457
{consumergroup=adapter-service},1651419707,49457
{consumergroup=adapter-service},1651419712,52252
{consumergroup=adapter-service},1651419717,52252
{consumergroup=adapter-service},1651419722,52252
{consumergroup=adapter-service},1651419727,44652
{consumergroup=adapter-service},1651419732,44652
{consumergroup=adapter-service},1651419737,44652
{consumergroup=adapter-service},1651419742,48731
{consumergroup=adapter-service},1651419747,48731
{consumergroup=adapter-service},1651419752,48731
{consumergroup=adapter-service},1651419757,45121
{consumergroup=adapter-service},1651419762,45121
{consumergroup=adapter-service},1651419767,45121
{consumergroup=adapter-service},1651419772,47322
{consumergroup=adapter-service},1651419777,47322
{consumergroup=adapter-service},1651419782,47322
{consumergroup=adapter-service},1651419787,47190
{consumergroup=adapter-service},1651419792,47190
{consumergroup=adapter-service},1651419797,47190
{consumergroup=adapter-service},1651419802,48999
{consumergroup=adapter-service},1651419807,48999
{consumergroup=adapter-service},1651419812,48999
{consumergroup=adapter-service},1651419817,43383
{consumergroup=adapter-service},1651419822,43383
{consumergroup=adapter-service},1651419827,43383
{consumergroup=adapter-service},1651419832,54918
{consumergroup=adapter-service},1651419837,54918
{consumergroup=adapter-service},1651419842,54918
{consumergroup=adapter-service},1651419847,49776
{consumergroup=adapter-service},1651419852,49776
{consumergroup=adapter-service},1651419857,49776
{consumergroup=adapter-service},1651419862,52014
{consumergroup=adapter-service},1651419867,52014
