labels,timestamp,value
{job=theodolite-stu200776/combined-trace-podmonitor},1651279616,0
{job=theodolite-stu200776/combined-trace-podmonitor},1651279621,0
{job=theodolite-stu200776/combined-trace-podmonitor},1651279626,0
{job=theodolite-stu200776/combined-trace-podmonitor},1651279631,0
{job=theodolite-stu200776/combined-trace-podmonitor},1651279636,0
{job=theodolite-stu200776/combined-trace-podmonitor},1651279641,0
{job=theodolite-stu200776/combined-trace-podmonitor},1651279646,0
{job=theodolite-stu200776/combined-trace-podmonitor},1651279651,0
{job=theodolite-stu200776/combined-trace-podmonitor},1651279656,0
{job=theodolite-stu200776/combined-trace-podmonitor},1651279661,0
{job=theodolite-stu200776/combined-trace-podmonitor},1651279666,0
{job=theodolite-stu200776/combined-trace-podmonitor},1651279671,0
{job=theodolite-stu200776/combined-trace-podmonitor},1651279676,0
{job=theodolite-stu200776/combined-trace-podmonitor},1651279681,0
{job=theodolite-stu200776/combined-trace-podmonitor},1651279686,0
{job=theodolite-stu200776/combined-trace-podmonitor},1651279691,0
{job=theodolite-stu200776/combined-trace-podmonitor},1651279696,0
{job=theodolite-stu200776/combined-trace-podmonitor},1651279701,0
{job=theodolite-stu200776/combined-trace-podmonitor},1651279706,0
{job=theodolite-stu200776/combined-trace-podmonitor},1651279711,0
{job=theodolite-stu200776/combined-trace-podmonitor},1651279716,0
{job=theodolite-stu200776/combined-trace-podmonitor},1651279721,0
{job=theodolite-stu200776/combined-trace-podmonitor},1651279726,0
{job=theodolite-stu200776/combined-trace-podmonitor},1651279731,0
{job=theodolite-stu200776/combined-trace-podmonitor},1651279736,0
{job=theodolite-stu200776/combined-trace-podmonitor},1651279741,0
{job=theodolite-stu200776/combined-trace-podmonitor},1651279746,0
{job=theodolite-stu200776/combined-trace-podmonitor},1651279751,0
{job=theodolite-stu200776/combined-trace-podmonitor},1651279756,0
{job=theodolite-stu200776/combined-trace-podmonitor},1651279761,0
{job=theodolite-stu200776/combined-trace-podmonitor},1651279766,0
{job=theodolite-stu200776/combined-trace-podmonitor},1651279771,0
{job=theodolite-stu200776/combined-trace-podmonitor},1651279776,0
{job=theodolite-stu200776/combined-trace-podmonitor},1651279781,0
{job=theodolite-stu200776/combined-trace-podmonitor},1651279786,0
{job=theodolite-stu200776/combined-trace-podmonitor},1651279791,0
{job=theodolite-stu200776/combined-trace-podmonitor},1651279796,0
{job=theodolite-stu200776/combined-trace-podmonitor},1651279801,0
{job=theodolite-stu200776/combined-trace-podmonitor},1651279806,0
{job=theodolite-stu200776/combined-trace-podmonitor},1651279811,0
{job=theodolite-stu200776/combined-trace-podmonitor},1651279816,0
{job=theodolite-stu200776/combined-trace-podmonitor},1651279821,0
{job=theodolite-stu200776/combined-trace-podmonitor},1651279826,0
{job=theodolite-stu200776/combined-trace-podmonitor},1651279831,0
{job=theodolite-stu200776/combined-trace-podmonitor},1651279836,0
{job=theodolite-stu200776/combined-trace-podmonitor},1651279841,0
{job=theodolite-stu200776/combined-trace-podmonitor},1651279846,0
{job=theodolite-stu200776/combined-trace-podmonitor},1651279851,0
{job=theodolite-stu200776/combined-trace-podmonitor},1651279856,0
{job=theodolite-stu200776/combined-trace-podmonitor},1651279861,0
{job=theodolite-stu200776/combined-trace-podmonitor},1651279866,0
{job=theodolite-stu200776/combined-trace-podmonitor},1651279871,0
{job=theodolite-stu200776/combined-trace-podmonitor},1651279876,0
{job=theodolite-stu200776/combined-trace-podmonitor},1651279881,0
{job=theodolite-stu200776/combined-trace-podmonitor},1651279886,0
{job=theodolite-stu200776/combined-trace-podmonitor},1651279891,0
{job=theodolite-stu200776/combined-trace-podmonitor},1651279896,0
{job=theodolite-stu200776/combined-trace-podmonitor},1651279901,0
{job=theodolite-stu200776/combined-trace-podmonitor},1651279906,0
{job=theodolite-stu200776/combined-trace-podmonitor},1651279911,0
{job=theodolite-stu200776/combined-trace-podmonitor},1651279916,0
{job=theodolite-stu200776/combined-trace-podmonitor},1651279921,0
{job=theodolite-stu200776/combined-trace-podmonitor},1651279926,0
{job=theodolite-stu200776/combined-trace-podmonitor},1651279931,0
{job=theodolite-stu200776/combined-trace-podmonitor},1651279936,0
{job=theodolite-stu200776/combined-trace-podmonitor},1651279941,0
{job=theodolite-stu200776/combined-trace-podmonitor},1651279946,0
{job=theodolite-stu200776/combined-trace-podmonitor},1651279951,0
{job=theodolite-stu200776/combined-trace-podmonitor},1651279956,0
{job=theodolite-stu200776/combined-trace-podmonitor},1651279961,0
{job=theodolite-stu200776/combined-trace-podmonitor},1651279966,0
{job=theodolite-stu200776/combined-trace-podmonitor},1651279971,0
{job=theodolite-stu200776/combined-trace-podmonitor},1651279976,0
{job=theodolite-stu200776/combined-trace-podmonitor},1651279981,0
{job=theodolite-stu200776/combined-trace-podmonitor},1651279986,0
{job=theodolite-stu200776/combined-trace-podmonitor},1651279991,0
{job=theodolite-stu200776/combined-trace-podmonitor},1651279996,0
{job=theodolite-stu200776/combined-trace-podmonitor},1651280001,0
{job=theodolite-stu200776/combined-trace-podmonitor},1651280006,0
{job=theodolite-stu200776/combined-trace-podmonitor},1651280011,0
{job=theodolite-stu200776/combined-trace-podmonitor},1651280016,0
{job=theodolite-stu200776/combined-trace-podmonitor},1651280021,0
{job=theodolite-stu200776/combined-trace-podmonitor},1651280026,0
{job=theodolite-stu200776/combined-trace-podmonitor},1651280031,0
{job=theodolite-stu200776/combined-trace-podmonitor},1651280036,0
{job=theodolite-stu200776/combined-trace-podmonitor},1651280041,0
{job=theodolite-stu200776/combined-trace-podmonitor},1651280046,0
{job=theodolite-stu200776/combined-trace-podmonitor},1651280051,0
