labels,timestamp,value
{job=theodolite-stu200776/combined-trace-podmonitor},1651310399,0
{job=theodolite-stu200776/combined-trace-podmonitor},1651310404,0
{job=theodolite-stu200776/combined-trace-podmonitor},1651310409,0
{job=theodolite-stu200776/combined-trace-podmonitor},1651310414,0
{job=theodolite-stu200776/combined-trace-podmonitor},1651310419,0
{job=theodolite-stu200776/combined-trace-podmonitor},1651310424,0
{job=theodolite-stu200776/combined-trace-podmonitor},1651310429,0
{job=theodolite-stu200776/combined-trace-podmonitor},1651310434,0
{job=theodolite-stu200776/combined-trace-podmonitor},1651310439,0
{job=theodolite-stu200776/combined-trace-podmonitor},1651310444,0
{job=theodolite-stu200776/combined-trace-podmonitor},1651310449,0
{job=theodolite-stu200776/combined-trace-podmonitor},1651310454,0
{job=theodolite-stu200776/combined-trace-podmonitor},1651310459,0
{job=theodolite-stu200776/combined-trace-podmonitor},1651310464,0
{job=theodolite-stu200776/combined-trace-podmonitor},1651310469,0
{job=theodolite-stu200776/combined-trace-podmonitor},1651310474,0
{job=theodolite-stu200776/combined-trace-podmonitor},1651310479,0
{job=theodolite-stu200776/combined-trace-podmonitor},1651310484,0
{job=theodolite-stu200776/combined-trace-podmonitor},1651310489,0
{job=theodolite-stu200776/combined-trace-podmonitor},1651310494,0
{job=theodolite-stu200776/combined-trace-podmonitor},1651310499,0
{job=theodolite-stu200776/combined-trace-podmonitor},1651310504,0
{job=theodolite-stu200776/combined-trace-podmonitor},1651310509,0
{job=theodolite-stu200776/combined-trace-podmonitor},1651310514,0
{job=theodolite-stu200776/combined-trace-podmonitor},1651310519,0
{job=theodolite-stu200776/combined-trace-podmonitor},1651310524,0
{job=theodolite-stu200776/combined-trace-podmonitor},1651310529,0
{job=theodolite-stu200776/combined-trace-podmonitor},1651310534,0
{job=theodolite-stu200776/combined-trace-podmonitor},1651310539,0
{job=theodolite-stu200776/combined-trace-podmonitor},1651310544,0
{job=theodolite-stu200776/combined-trace-podmonitor},1651310549,0
{job=theodolite-stu200776/combined-trace-podmonitor},1651310554,0
{job=theodolite-stu200776/combined-trace-podmonitor},1651310559,0
{job=theodolite-stu200776/combined-trace-podmonitor},1651310564,0
{job=theodolite-stu200776/combined-trace-podmonitor},1651310569,0
{job=theodolite-stu200776/combined-trace-podmonitor},1651310574,0
{job=theodolite-stu200776/combined-trace-podmonitor},1651310579,0
{job=theodolite-stu200776/combined-trace-podmonitor},1651310584,0
{job=theodolite-stu200776/combined-trace-podmonitor},1651310589,0
{job=theodolite-stu200776/combined-trace-podmonitor},1651310594,0
{job=theodolite-stu200776/combined-trace-podmonitor},1651310599,0
{job=theodolite-stu200776/combined-trace-podmonitor},1651310604,0
{job=theodolite-stu200776/combined-trace-podmonitor},1651310609,0
{job=theodolite-stu200776/combined-trace-podmonitor},1651310614,0
{job=theodolite-stu200776/combined-trace-podmonitor},1651310619,0
{job=theodolite-stu200776/combined-trace-podmonitor},1651310624,0
{job=theodolite-stu200776/combined-trace-podmonitor},1651310629,0
{job=theodolite-stu200776/combined-trace-podmonitor},1651310634,0
{job=theodolite-stu200776/combined-trace-podmonitor},1651310639,0
{job=theodolite-stu200776/combined-trace-podmonitor},1651310644,0
{job=theodolite-stu200776/combined-trace-podmonitor},1651310649,0
{job=theodolite-stu200776/combined-trace-podmonitor},1651310654,0
{job=theodolite-stu200776/combined-trace-podmonitor},1651310659,0
{job=theodolite-stu200776/combined-trace-podmonitor},1651310664,0
{job=theodolite-stu200776/combined-trace-podmonitor},1651310669,0
{job=theodolite-stu200776/combined-trace-podmonitor},1651310674,0
{job=theodolite-stu200776/combined-trace-podmonitor},1651310679,0
{job=theodolite-stu200776/combined-trace-podmonitor},1651310684,0
{job=theodolite-stu200776/combined-trace-podmonitor},1651310689,0
{job=theodolite-stu200776/combined-trace-podmonitor},1651310694,0
{job=theodolite-stu200776/combined-trace-podmonitor},1651310699,0
{job=theodolite-stu200776/combined-trace-podmonitor},1651310704,0
{job=theodolite-stu200776/combined-trace-podmonitor},1651310709,0
{job=theodolite-stu200776/combined-trace-podmonitor},1651310714,0
{job=theodolite-stu200776/combined-trace-podmonitor},1651310719,0
{job=theodolite-stu200776/combined-trace-podmonitor},1651310724,0
{job=theodolite-stu200776/combined-trace-podmonitor},1651310729,0
{job=theodolite-stu200776/combined-trace-podmonitor},1651310734,0
{job=theodolite-stu200776/combined-trace-podmonitor},1651310739,0
{job=theodolite-stu200776/combined-trace-podmonitor},1651310744,0
{job=theodolite-stu200776/combined-trace-podmonitor},1651310749,0
{job=theodolite-stu200776/combined-trace-podmonitor},1651310754,0
{job=theodolite-stu200776/combined-trace-podmonitor},1651310759,0
{job=theodolite-stu200776/combined-trace-podmonitor},1651310764,0
{job=theodolite-stu200776/combined-trace-podmonitor},1651310769,0
{job=theodolite-stu200776/combined-trace-podmonitor},1651310774,0
{job=theodolite-stu200776/combined-trace-podmonitor},1651310779,0
{job=theodolite-stu200776/combined-trace-podmonitor},1651310784,0
{job=theodolite-stu200776/combined-trace-podmonitor},1651310789,0
{job=theodolite-stu200776/combined-trace-podmonitor},1651310794,0
{job=theodolite-stu200776/combined-trace-podmonitor},1651310799,0
{job=theodolite-stu200776/combined-trace-podmonitor},1651310804,0
{job=theodolite-stu200776/combined-trace-podmonitor},1651310809,0
{job=theodolite-stu200776/combined-trace-podmonitor},1651310814,0
{job=theodolite-stu200776/combined-trace-podmonitor},1651310819,0
{job=theodolite-stu200776/combined-trace-podmonitor},1651310824,0
{job=theodolite-stu200776/combined-trace-podmonitor},1651310829,0
{job=theodolite-stu200776/combined-trace-podmonitor},1651310834,0
