labels,timestamp,value
{consumergroup=__strimzi-topic-operator-kstreams},1651378687,8
{consumergroup=__strimzi-topic-operator-kstreams},1651378692,8
{consumergroup=__strimzi-topic-operator-kstreams},1651378697,8
{consumergroup=__strimzi-topic-operator-kstreams},1651378702,0
{consumergroup=__strimzi-topic-operator-kstreams},1651378707,0
{consumergroup=__strimzi-topic-operator-kstreams},1651378712,0
{consumergroup=__strimzi-topic-operator-kstreams},1651378717,0
{consumergroup=__strimzi-topic-operator-kstreams},1651378722,0
{consumergroup=__strimzi-topic-operator-kstreams},1651378727,0
{consumergroup=__strimzi-topic-operator-kstreams},1651378732,0
{consumergroup=__strimzi-topic-operator-kstreams},1651378737,0
{consumergroup=__strimzi-topic-operator-kstreams},1651378742,0
{consumergroup=__strimzi-topic-operator-kstreams},1651378747,0
{consumergroup=__strimzi-topic-operator-kstreams},1651378752,0
{consumergroup=__strimzi-topic-operator-kstreams},1651378757,0
{consumergroup=__strimzi-topic-operator-kstreams},1651378762,0
{consumergroup=__strimzi-topic-operator-kstreams},1651378767,0
{consumergroup=__strimzi-topic-operator-kstreams},1651378772,0
{consumergroup=__strimzi-topic-operator-kstreams},1651378777,0
{consumergroup=__strimzi-topic-operator-kstreams},1651378782,0
{consumergroup=__strimzi-topic-operator-kstreams},1651378787,0
{consumergroup=__strimzi-topic-operator-kstreams},1651378792,0
{consumergroup=__strimzi-topic-operator-kstreams},1651378797,0
{consumergroup=__strimzi-topic-operator-kstreams},1651378802,0
{consumergroup=__strimzi-topic-operator-kstreams},1651378807,0
{consumergroup=__strimzi-topic-operator-kstreams},1651378812,0
{consumergroup=__strimzi-topic-operator-kstreams},1651378817,0
{consumergroup=__strimzi-topic-operator-kstreams},1651378822,0
{consumergroup=__strimzi-topic-operator-kstreams},1651378827,0
{consumergroup=__strimzi-topic-operator-kstreams},1651378832,0
{consumergroup=__strimzi-topic-operator-kstreams},1651378837,0
{consumergroup=__strimzi-topic-operator-kstreams},1651378842,0
{consumergroup=__strimzi-topic-operator-kstreams},1651378847,0
{consumergroup=__strimzi-topic-operator-kstreams},1651378852,0
{consumergroup=__strimzi-topic-operator-kstreams},1651378857,0
{consumergroup=__strimzi-topic-operator-kstreams},1651378862,0
{consumergroup=__strimzi-topic-operator-kstreams},1651378867,0
{consumergroup=__strimzi-topic-operator-kstreams},1651378872,0
{consumergroup=__strimzi-topic-operator-kstreams},1651378877,0
{consumergroup=__strimzi-topic-operator-kstreams},1651378882,0
{consumergroup=__strimzi-topic-operator-kstreams},1651378887,0
{consumergroup=__strimzi-topic-operator-kstreams},1651378892,0
{consumergroup=__strimzi-topic-operator-kstreams},1651378897,0
{consumergroup=__strimzi-topic-operator-kstreams},1651378902,0
{consumergroup=__strimzi-topic-operator-kstreams},1651378907,0
{consumergroup=__strimzi-topic-operator-kstreams},1651378912,0
{consumergroup=__strimzi-topic-operator-kstreams},1651378917,0
{consumergroup=__strimzi-topic-operator-kstreams},1651378922,0
{consumergroup=__strimzi-topic-operator-kstreams},1651378927,0
{consumergroup=__strimzi-topic-operator-kstreams},1651378932,0
{consumergroup=adapter-service},1651378717,1050087
{consumergroup=adapter-service},1651378722,1050087
{consumergroup=adapter-service},1651378727,1050087
{consumergroup=adapter-service},1651378732,1422179
{consumergroup=adapter-service},1651378737,1422179
{consumergroup=adapter-service},1651378742,1422179
{consumergroup=adapter-service},1651378747,1588601
{consumergroup=adapter-service},1651378752,1588601
{consumergroup=adapter-service},1651378757,1588601
{consumergroup=adapter-service},1651378762,1569480
{consumergroup=adapter-service},1651378767,1569480
{consumergroup=adapter-service},1651378772,1569480
{consumergroup=adapter-service},1651378777,1154928
{consumergroup=adapter-service},1651378782,1154928
{consumergroup=adapter-service},1651378787,1154928
{consumergroup=adapter-service},1651378792,840940
{consumergroup=adapter-service},1651378797,840940
{consumergroup=adapter-service},1651378802,840940
{consumergroup=adapter-service},1651378807,499959
{consumergroup=adapter-service},1651378812,499959
{consumergroup=adapter-service},1651378817,499959
{consumergroup=adapter-service},1651378822,430564
{consumergroup=adapter-service},1651378827,430564
{consumergroup=adapter-service},1651378832,430564
{consumergroup=adapter-service},1651378837,281827
{consumergroup=adapter-service},1651378842,281827
{consumergroup=adapter-service},1651378847,281827
{consumergroup=adapter-service},1651378852,255187
{consumergroup=adapter-service},1651378857,255187
{consumergroup=adapter-service},1651378862,255187
{consumergroup=adapter-service},1651378867,224493
{consumergroup=adapter-service},1651378872,224493
{consumergroup=adapter-service},1651378877,224493
{consumergroup=adapter-service},1651378882,248801
{consumergroup=adapter-service},1651378887,248801
{consumergroup=adapter-service},1651378892,248801
{consumergroup=adapter-service},1651378897,248921
{consumergroup=adapter-service},1651378902,248921
{consumergroup=adapter-service},1651378907,248921
{consumergroup=adapter-service},1651378912,226357
{consumergroup=adapter-service},1651378917,226357
{consumergroup=adapter-service},1651378922,226357
{consumergroup=adapter-service},1651378927,258350
{consumergroup=adapter-service},1651378932,258350
