labels,timestamp,value
{consumergroup=__strimzi-topic-operator-kstreams},1651282647,0
{consumergroup=__strimzi-topic-operator-kstreams},1651282652,0
{consumergroup=__strimzi-topic-operator-kstreams},1651282657,0
{consumergroup=__strimzi-topic-operator-kstreams},1651282662,3
{consumergroup=__strimzi-topic-operator-kstreams},1651282667,3
{consumergroup=__strimzi-topic-operator-kstreams},1651282672,3
{consumergroup=__strimzi-topic-operator-kstreams},1651282677,0
{consumergroup=__strimzi-topic-operator-kstreams},1651282682,0
{consumergroup=__strimzi-topic-operator-kstreams},1651282687,0
{consumergroup=__strimzi-topic-operator-kstreams},1651282692,0
{consumergroup=__strimzi-topic-operator-kstreams},1651282697,0
{consumergroup=__strimzi-topic-operator-kstreams},1651282702,0
{consumergroup=__strimzi-topic-operator-kstreams},1651282707,0
{consumergroup=__strimzi-topic-operator-kstreams},1651282712,0
{consumergroup=__strimzi-topic-operator-kstreams},1651282717,0
{consumergroup=__strimzi-topic-operator-kstreams},1651282722,0
{consumergroup=__strimzi-topic-operator-kstreams},1651282727,0
{consumergroup=__strimzi-topic-operator-kstreams},1651282732,0
{consumergroup=__strimzi-topic-operator-kstreams},1651282737,0
{consumergroup=__strimzi-topic-operator-kstreams},1651282742,0
{consumergroup=__strimzi-topic-operator-kstreams},1651282747,0
{consumergroup=__strimzi-topic-operator-kstreams},1651282752,0
{consumergroup=__strimzi-topic-operator-kstreams},1651282757,0
{consumergroup=__strimzi-topic-operator-kstreams},1651282762,0
{consumergroup=__strimzi-topic-operator-kstreams},1651282767,0
{consumergroup=__strimzi-topic-operator-kstreams},1651282772,0
{consumergroup=__strimzi-topic-operator-kstreams},1651282777,0
{consumergroup=__strimzi-topic-operator-kstreams},1651282782,0
{consumergroup=__strimzi-topic-operator-kstreams},1651282787,0
{consumergroup=__strimzi-topic-operator-kstreams},1651282792,0
{consumergroup=__strimzi-topic-operator-kstreams},1651282797,0
{consumergroup=__strimzi-topic-operator-kstreams},1651282802,0
{consumergroup=__strimzi-topic-operator-kstreams},1651282807,0
{consumergroup=__strimzi-topic-operator-kstreams},1651282812,0
{consumergroup=__strimzi-topic-operator-kstreams},1651282817,0
{consumergroup=__strimzi-topic-operator-kstreams},1651282822,0
{consumergroup=__strimzi-topic-operator-kstreams},1651282827,0
{consumergroup=__strimzi-topic-operator-kstreams},1651282832,0
{consumergroup=__strimzi-topic-operator-kstreams},1651282837,0
{consumergroup=__strimzi-topic-operator-kstreams},1651282842,0
{consumergroup=__strimzi-topic-operator-kstreams},1651282847,0
{consumergroup=__strimzi-topic-operator-kstreams},1651282852,0
{consumergroup=__strimzi-topic-operator-kstreams},1651282857,0
{consumergroup=__strimzi-topic-operator-kstreams},1651282862,0
{consumergroup=__strimzi-topic-operator-kstreams},1651282867,0
{consumergroup=__strimzi-topic-operator-kstreams},1651282872,0
{consumergroup=__strimzi-topic-operator-kstreams},1651282877,0
{consumergroup=__strimzi-topic-operator-kstreams},1651282882,0
{consumergroup=__strimzi-topic-operator-kstreams},1651282887,0
{consumergroup=__strimzi-topic-operator-kstreams},1651282892,0
{consumergroup=__strimzi-topic-operator-kstreams},1651282897,0
{consumergroup=__strimzi-topic-operator-kstreams},1651282902,0
{consumergroup=__strimzi-topic-operator-kstreams},1651282907,0
{consumergroup=__strimzi-topic-operator-kstreams},1651282912,0
{consumergroup=__strimzi-topic-operator-kstreams},1651282917,0
{consumergroup=__strimzi-topic-operator-kstreams},1651282922,0
{consumergroup=__strimzi-topic-operator-kstreams},1651282927,0
{consumergroup=__strimzi-topic-operator-kstreams},1651282932,0
{consumergroup=__strimzi-topic-operator-kstreams},1651282937,0
{consumergroup=__strimzi-topic-operator-kstreams},1651282942,0
{consumergroup=__strimzi-topic-operator-kstreams},1651282947,0
{consumergroup=__strimzi-topic-operator-kstreams},1651282952,0
{consumergroup=__strimzi-topic-operator-kstreams},1651282957,0
{consumergroup=__strimzi-topic-operator-kstreams},1651282962,0
{consumergroup=__strimzi-topic-operator-kstreams},1651282967,0
{consumergroup=__strimzi-topic-operator-kstreams},1651282972,0
{consumergroup=__strimzi-topic-operator-kstreams},1651282977,0
{consumergroup=__strimzi-topic-operator-kstreams},1651282982,0
{consumergroup=__strimzi-topic-operator-kstreams},1651282987,0
{consumergroup=__strimzi-topic-operator-kstreams},1651282992,0
{consumergroup=__strimzi-topic-operator-kstreams},1651282997,0
{consumergroup=__strimzi-topic-operator-kstreams},1651283002,0
{consumergroup=__strimzi-topic-operator-kstreams},1651283007,0
{consumergroup=__strimzi-topic-operator-kstreams},1651283012,0
{consumergroup=__strimzi-topic-operator-kstreams},1651283017,0
{consumergroup=__strimzi-topic-operator-kstreams},1651283022,0
{consumergroup=__strimzi-topic-operator-kstreams},1651283027,0
{consumergroup=__strimzi-topic-operator-kstreams},1651283032,0
{consumergroup=__strimzi-topic-operator-kstreams},1651283037,0
{consumergroup=__strimzi-topic-operator-kstreams},1651283042,0
{consumergroup=__strimzi-topic-operator-kstreams},1651283047,0
{consumergroup=__strimzi-topic-operator-kstreams},1651283052,0
{consumergroup=__strimzi-topic-operator-kstreams},1651283057,0
{consumergroup=__strimzi-topic-operator-kstreams},1651283062,0
{consumergroup=__strimzi-topic-operator-kstreams},1651283067,0
{consumergroup=__strimzi-topic-operator-kstreams},1651283072,0
{consumergroup=__strimzi-topic-operator-kstreams},1651283077,0
{consumergroup=__strimzi-topic-operator-kstreams},1651283082,0
{consumergroup=__strimzi-topic-operator-kstreams},1651283087,0
{consumergroup=__strimzi-topic-operator-kstreams},1651283092,0
{consumergroup=__strimzi-topic-operator-kstreams},1651283097,0
{consumergroup=__strimzi-topic-operator-kstreams},1651283102,0
{consumergroup=__strimzi-topic-operator-kstreams},1651283107,0
{consumergroup=__strimzi-topic-operator-kstreams},1651283112,0
{consumergroup=__strimzi-topic-operator-kstreams},1651283117,0
{consumergroup=__strimzi-topic-operator-kstreams},1651283122,0
{consumergroup=__strimzi-topic-operator-kstreams},1651283127,0
{consumergroup=__strimzi-topic-operator-kstreams},1651283132,0
{consumergroup=__strimzi-topic-operator-kstreams},1651283137,0
{consumergroup=__strimzi-topic-operator-kstreams},1651283142,0
{consumergroup=__strimzi-topic-operator-kstreams},1651283147,0
{consumergroup=adapter-service},1651282677,0
{consumergroup=adapter-service},1651282682,0
{consumergroup=adapter-service},1651282687,0
{consumergroup=adapter-service},1651282692,1466
{consumergroup=adapter-service},1651282697,1466
{consumergroup=adapter-service},1651282702,1466
{consumergroup=adapter-service},1651282707,370
{consumergroup=adapter-service},1651282712,370
{consumergroup=adapter-service},1651282717,370
{consumergroup=adapter-service},1651282722,2492
{consumergroup=adapter-service},1651282727,2492
{consumergroup=adapter-service},1651282732,2492
{consumergroup=adapter-service},1651282737,6726
{consumergroup=adapter-service},1651282742,6726
{consumergroup=adapter-service},1651282747,6726
{consumergroup=adapter-service},1651282752,7719
{consumergroup=adapter-service},1651282757,7719
{consumergroup=adapter-service},1651282762,7719
{consumergroup=adapter-service},1651282767,7623
{consumergroup=adapter-service},1651282772,7623
{consumergroup=adapter-service},1651282777,7623
{consumergroup=adapter-service},1651282782,8240
{consumergroup=adapter-service},1651282787,8240
{consumergroup=adapter-service},1651282792,8240
{consumergroup=adapter-service},1651282797,8597
{consumergroup=adapter-service},1651282802,8597
{consumergroup=adapter-service},1651282807,8597
{consumergroup=adapter-service},1651282812,7591
{consumergroup=adapter-service},1651282817,7591
{consumergroup=adapter-service},1651282822,7591
{consumergroup=adapter-service},1651282827,11888
{consumergroup=adapter-service},1651282832,11888
{consumergroup=adapter-service},1651282837,11888
{consumergroup=adapter-service},1651282842,11910
{consumergroup=adapter-service},1651282847,11910
{consumergroup=adapter-service},1651282852,11910
{consumergroup=adapter-service},1651282857,9886
{consumergroup=adapter-service},1651282862,9886
{consumergroup=adapter-service},1651282867,9886
{consumergroup=adapter-service},1651282872,12735
{consumergroup=adapter-service},1651282877,12735
{consumergroup=adapter-service},1651282882,12735
{consumergroup=adapter-service},1651282887,13291
{consumergroup=adapter-service},1651282892,13291
{consumergroup=adapter-service},1651282897,13291
{consumergroup=adapter-service},1651282902,12524
{consumergroup=adapter-service},1651282907,12524
{consumergroup=adapter-service},1651282912,12524
{consumergroup=adapter-service},1651282917,9290
{consumergroup=adapter-service},1651282922,9290
{consumergroup=adapter-service},1651282927,9290
{consumergroup=adapter-service},1651282932,12205
{consumergroup=adapter-service},1651282937,12205
{consumergroup=adapter-service},1651282942,12205
{consumergroup=adapter-service},1651282947,12373
{consumergroup=adapter-service},1651282952,12373
{consumergroup=adapter-service},1651282957,12373
{consumergroup=adapter-service},1651282962,11953
{consumergroup=adapter-service},1651282967,11953
{consumergroup=adapter-service},1651282972,11953
{consumergroup=adapter-service},1651282977,8712
{consumergroup=adapter-service},1651282982,8712
{consumergroup=adapter-service},1651282987,8712
{consumergroup=adapter-service},1651282992,11563
{consumergroup=adapter-service},1651282997,11563
{consumergroup=adapter-service},1651283002,11563
{consumergroup=adapter-service},1651283007,8572
{consumergroup=adapter-service},1651283012,8572
{consumergroup=adapter-service},1651283017,8572
{consumergroup=adapter-service},1651283022,11226
{consumergroup=adapter-service},1651283027,11226
{consumergroup=adapter-service},1651283032,11226
{consumergroup=adapter-service},1651283037,10986
{consumergroup=adapter-service},1651283042,10986
{consumergroup=adapter-service},1651283047,10986
{consumergroup=adapter-service},1651283052,11242
{consumergroup=adapter-service},1651283057,11242
{consumergroup=adapter-service},1651283062,11242
{consumergroup=adapter-service},1651283067,7768
{consumergroup=adapter-service},1651283072,7768
{consumergroup=adapter-service},1651283077,7768
{consumergroup=adapter-service},1651283082,10866
{consumergroup=adapter-service},1651283087,10866
{consumergroup=adapter-service},1651283092,10866
{consumergroup=adapter-service},1651283097,10511
{consumergroup=adapter-service},1651283102,10511
{consumergroup=adapter-service},1651283107,10511
{consumergroup=adapter-service},1651283112,10622
{consumergroup=adapter-service},1651283117,10622
{consumergroup=adapter-service},1651283122,10622
{consumergroup=adapter-service},1651283127,11202
{consumergroup=adapter-service},1651283132,11202
{consumergroup=adapter-service},1651283137,11202
{consumergroup=adapter-service},1651283142,10168
{consumergroup=adapter-service},1651283147,10168
{consumergroup=landscape-service},1651282692,23940
{consumergroup=landscape-service},1651282697,23940
{consumergroup=landscape-service},1651282702,23940
{consumergroup=landscape-service},1651282707,15183
{consumergroup=landscape-service},1651282712,15183
{consumergroup=landscape-service},1651282717,15183
{consumergroup=landscape-service},1651282722,1693
{consumergroup=landscape-service},1651282727,1693
{consumergroup=landscape-service},1651282732,1693
{consumergroup=landscape-service},1651282737,13103
{consumergroup=landscape-service},1651282742,13103
{consumergroup=landscape-service},1651282747,13103
{consumergroup=landscape-service},1651282752,12939
{consumergroup=landscape-service},1651282757,12939
{consumergroup=landscape-service},1651282762,12939
{consumergroup=landscape-service},1651282767,12552
{consumergroup=landscape-service},1651282772,12552
{consumergroup=landscape-service},1651282777,12552
{consumergroup=landscape-service},1651282782,12292
{consumergroup=landscape-service},1651282787,12292
{consumergroup=landscape-service},1651282792,12292
{consumergroup=landscape-service},1651282797,11737
{consumergroup=landscape-service},1651282802,11737
{consumergroup=landscape-service},1651282807,11737
{consumergroup=landscape-service},1651282812,12074
{consumergroup=landscape-service},1651282817,12074
{consumergroup=landscape-service},1651282822,12074
{consumergroup=landscape-service},1651282827,10712
{consumergroup=landscape-service},1651282832,10712
{consumergroup=landscape-service},1651282837,10712
{consumergroup=landscape-service},1651282842,10176
{consumergroup=landscape-service},1651282847,10176
{consumergroup=landscape-service},1651282852,10176
{consumergroup=landscape-service},1651282857,7149
{consumergroup=landscape-service},1651282862,7149
{consumergroup=landscape-service},1651282867,7149
{consumergroup=landscape-service},1651282872,8875
{consumergroup=landscape-service},1651282877,8875
{consumergroup=landscape-service},1651282882,8875
{consumergroup=landscape-service},1651282887,8395
{consumergroup=landscape-service},1651282892,8395
{consumergroup=landscape-service},1651282897,8395
{consumergroup=landscape-service},1651282902,7714
{consumergroup=landscape-service},1651282907,7714
{consumergroup=landscape-service},1651282912,7714
{consumergroup=landscape-service},1651282917,3984
{consumergroup=landscape-service},1651282922,3984
{consumergroup=landscape-service},1651282927,3984
{consumergroup=landscape-service},1651282932,6620
{consumergroup=landscape-service},1651282937,6620
{consumergroup=landscape-service},1651282942,6620
{consumergroup=landscape-service},1651282947,6315
{consumergroup=landscape-service},1651282952,6315
{consumergroup=landscape-service},1651282957,6315
{consumergroup=landscape-service},1651282962,5619
{consumergroup=landscape-service},1651282967,5619
{consumergroup=landscape-service},1651282972,5619
{consumergroup=landscape-service},1651282977,1973
{consumergroup=landscape-service},1651282982,1973
{consumergroup=landscape-service},1651282987,1973
{consumergroup=landscape-service},1651282992,4242
{consumergroup=landscape-service},1651282997,4242
{consumergroup=landscape-service},1651283002,4242
{consumergroup=landscape-service},1651283007,824
{consumergroup=landscape-service},1651283012,824
{consumergroup=landscape-service},1651283017,824
{consumergroup=landscape-service},1651283022,3512
{consumergroup=landscape-service},1651283027,3512
{consumergroup=landscape-service},1651283032,3512
{consumergroup=landscape-service},1651283037,2003
{consumergroup=landscape-service},1651283042,2003
{consumergroup=landscape-service},1651283047,2003
{consumergroup=landscape-service},1651283052,1763
{consumergroup=landscape-service},1651283057,1763
{consumergroup=landscape-service},1651283062,1763
{consumergroup=landscape-service},1651283067,13900
{consumergroup=landscape-service},1651283072,13900
{consumergroup=landscape-service},1651283077,13900
{consumergroup=landscape-service},1651283082,581
{consumergroup=landscape-service},1651283087,581
{consumergroup=landscape-service},1651283092,581
{consumergroup=landscape-service},1651283097,287
{consumergroup=landscape-service},1651283102,287
{consumergroup=landscape-service},1651283107,287
{consumergroup=landscape-service},1651283127,14349
{consumergroup=landscape-service},1651283132,14349
{consumergroup=landscape-service},1651283137,14349
{consumergroup=landscape-service},1651283142,14033
{consumergroup=landscape-service},1651283147,14033
{consumergroup=trace-service},1651282692,51278
{consumergroup=trace-service},1651282697,51278
{consumergroup=trace-service},1651282702,51278
{consumergroup=trace-service},1651282707,17736
{consumergroup=trace-service},1651282712,17736
{consumergroup=trace-service},1651282717,17736
{consumergroup=trace-service},1651282722,36605
{consumergroup=trace-service},1651282727,36605
{consumergroup=trace-service},1651282732,36605
{consumergroup=trace-service},1651282737,17344
{consumergroup=trace-service},1651282742,17344
{consumergroup=trace-service},1651282747,17344
{consumergroup=trace-service},1651282752,30221
{consumergroup=trace-service},1651282757,30221
{consumergroup=trace-service},1651282762,30221
{consumergroup=trace-service},1651282767,13545
{consumergroup=trace-service},1651282772,13545
{consumergroup=trace-service},1651282777,13545
{consumergroup=trace-service},1651282782,33491
{consumergroup=trace-service},1651282787,33491
{consumergroup=trace-service},1651282792,33491
{consumergroup=trace-service},1651282797,14668
{consumergroup=trace-service},1651282802,14668
{consumergroup=trace-service},1651282807,14668
{consumergroup=trace-service},1651282812,33984
{consumergroup=trace-service},1651282817,33984
{consumergroup=trace-service},1651282822,33984
{consumergroup=trace-service},1651282827,15398
{consumergroup=trace-service},1651282832,15398
{consumergroup=trace-service},1651282837,15398
{consumergroup=trace-service},1651282842,33212
{consumergroup=trace-service},1651282847,33212
{consumergroup=trace-service},1651282852,33212
{consumergroup=trace-service},1651282857,61445
{consumergroup=trace-service},1651282862,61445
{consumergroup=trace-service},1651282867,61445
{consumergroup=trace-service},1651282872,30505
{consumergroup=trace-service},1651282877,30505
{consumergroup=trace-service},1651282882,30505
{consumergroup=trace-service},1651282887,14560
{consumergroup=trace-service},1651282892,14560
{consumergroup=trace-service},1651282897,14560
{consumergroup=trace-service},1651282902,32658
{consumergroup=trace-service},1651282907,32658
{consumergroup=trace-service},1651282912,32658
{consumergroup=trace-service},1651282917,12211
{consumergroup=trace-service},1651282922,12211
{consumergroup=trace-service},1651282927,12211
{consumergroup=trace-service},1651282932,32363
{consumergroup=trace-service},1651282937,32363
{consumergroup=trace-service},1651282942,32363
{consumergroup=trace-service},1651282947,71280
{consumergroup=trace-service},1651282952,71280
{consumergroup=trace-service},1651282957,71280
{consumergroup=trace-service},1651282962,32237
{consumergroup=trace-service},1651282967,32237
{consumergroup=trace-service},1651282972,32237
{consumergroup=trace-service},1651282977,13669
{consumergroup=trace-service},1651282982,13669
{consumergroup=trace-service},1651282987,13669
{consumergroup=trace-service},1651282992,30890
{consumergroup=trace-service},1651282997,30890
{consumergroup=trace-service},1651283002,30890
{consumergroup=trace-service},1651283007,13309
{consumergroup=trace-service},1651283012,13309
{consumergroup=trace-service},1651283017,13309
{consumergroup=trace-service},1651283022,33600
{consumergroup=trace-service},1651283027,33600
{consumergroup=trace-service},1651283032,33600
{consumergroup=trace-service},1651283037,12983
{consumergroup=trace-service},1651283042,12983
{consumergroup=trace-service},1651283047,12983
{consumergroup=trace-service},1651283052,32937
{consumergroup=trace-service},1651283057,32937
{consumergroup=trace-service},1651283062,32937
{consumergroup=trace-service},1651283067,5844
{consumergroup=trace-service},1651283072,5844
{consumergroup=trace-service},1651283077,5844
{consumergroup=trace-service},1651283082,34183
{consumergroup=trace-service},1651283087,34183
{consumergroup=trace-service},1651283092,34183
{consumergroup=trace-service},1651283097,15816
{consumergroup=trace-service},1651283102,15816
{consumergroup=trace-service},1651283107,15816
{consumergroup=trace-service},1651283112,33472
{consumergroup=trace-service},1651283117,33472
{consumergroup=trace-service},1651283122,33472
{consumergroup=trace-service},1651283127,16110
{consumergroup=trace-service},1651283132,16110
{consumergroup=trace-service},1651283137,16110
{consumergroup=trace-service},1651283142,30975
{consumergroup=trace-service},1651283147,30975
{consumergroup=trace-token-events-consumer},1651282677,0
{consumergroup=trace-token-events-consumer},1651282682,0
{consumergroup=trace-token-events-consumer},1651282687,0
{consumergroup=trace-token-events-consumer},1651282692,0
{consumergroup=trace-token-events-consumer},1651282697,0
{consumergroup=trace-token-events-consumer},1651282702,0
{consumergroup=trace-token-events-consumer},1651282707,0
{consumergroup=trace-token-events-consumer},1651282712,0
{consumergroup=trace-token-events-consumer},1651282717,0
{consumergroup=trace-token-events-consumer},1651282722,0
{consumergroup=trace-token-events-consumer},1651282727,0
{consumergroup=trace-token-events-consumer},1651282732,0
{consumergroup=trace-token-events-consumer},1651282737,0
{consumergroup=trace-token-events-consumer},1651282742,0
{consumergroup=trace-token-events-consumer},1651282747,0
{consumergroup=trace-token-events-consumer},1651282752,0
{consumergroup=trace-token-events-consumer},1651282757,0
{consumergroup=trace-token-events-consumer},1651282762,0
{consumergroup=trace-token-events-consumer},1651282767,0
{consumergroup=trace-token-events-consumer},1651282772,0
{consumergroup=trace-token-events-consumer},1651282777,0
{consumergroup=trace-token-events-consumer},1651282782,0
{consumergroup=trace-token-events-consumer},1651282787,0
{consumergroup=trace-token-events-consumer},1651282792,0
{consumergroup=trace-token-events-consumer},1651282797,0
{consumergroup=trace-token-events-consumer},1651282802,0
{consumergroup=trace-token-events-consumer},1651282807,0
{consumergroup=trace-token-events-consumer},1651282812,0
{consumergroup=trace-token-events-consumer},1651282817,0
{consumergroup=trace-token-events-consumer},1651282822,0
{consumergroup=trace-token-events-consumer},1651282827,0
{consumergroup=trace-token-events-consumer},1651282832,0
{consumergroup=trace-token-events-consumer},1651282837,0
{consumergroup=trace-token-events-consumer},1651282842,0
{consumergroup=trace-token-events-consumer},1651282847,0
{consumergroup=trace-token-events-consumer},1651282852,0
{consumergroup=trace-token-events-consumer},1651282857,0
{consumergroup=trace-token-events-consumer},1651282862,0
{consumergroup=trace-token-events-consumer},1651282867,0
{consumergroup=trace-token-events-consumer},1651282872,0
{consumergroup=trace-token-events-consumer},1651282877,0
{consumergroup=trace-token-events-consumer},1651282882,0
{consumergroup=trace-token-events-consumer},1651282887,0
{consumergroup=trace-token-events-consumer},1651282892,0
{consumergroup=trace-token-events-consumer},1651282897,0
{consumergroup=trace-token-events-consumer},1651282902,0
{consumergroup=trace-token-events-consumer},1651282907,0
{consumergroup=trace-token-events-consumer},1651282912,0
{consumergroup=trace-token-events-consumer},1651282917,0
{consumergroup=trace-token-events-consumer},1651282922,0
{consumergroup=trace-token-events-consumer},1651282927,0
{consumergroup=trace-token-events-consumer},1651282932,0
{consumergroup=trace-token-events-consumer},1651282937,0
{consumergroup=trace-token-events-consumer},1651282942,0
{consumergroup=trace-token-events-consumer},1651282947,0
{consumergroup=trace-token-events-consumer},1651282952,0
{consumergroup=trace-token-events-consumer},1651282957,0
{consumergroup=trace-token-events-consumer},1651282962,0
{consumergroup=trace-token-events-consumer},1651282967,0
{consumergroup=trace-token-events-consumer},1651282972,0
{consumergroup=trace-token-events-consumer},1651282977,0
{consumergroup=trace-token-events-consumer},1651282982,0
{consumergroup=trace-token-events-consumer},1651282987,0
{consumergroup=trace-token-events-consumer},1651282992,0
{consumergroup=trace-token-events-consumer},1651282997,0
{consumergroup=trace-token-events-consumer},1651283002,0
{consumergroup=trace-token-events-consumer},1651283007,0
{consumergroup=trace-token-events-consumer},1651283012,0
{consumergroup=trace-token-events-consumer},1651283017,0
{consumergroup=trace-token-events-consumer},1651283022,0
{consumergroup=trace-token-events-consumer},1651283027,0
{consumergroup=trace-token-events-consumer},1651283032,0
{consumergroup=trace-token-events-consumer},1651283037,0
{consumergroup=trace-token-events-consumer},1651283042,0
{consumergroup=trace-token-events-consumer},1651283047,0
{consumergroup=trace-token-events-consumer},1651283052,0
{consumergroup=trace-token-events-consumer},1651283057,0
{consumergroup=trace-token-events-consumer},1651283062,0
{consumergroup=trace-token-events-consumer},1651283067,0
{consumergroup=trace-token-events-consumer},1651283072,0
{consumergroup=trace-token-events-consumer},1651283077,0
{consumergroup=trace-token-events-consumer},1651283082,0
{consumergroup=trace-token-events-consumer},1651283087,0
{consumergroup=trace-token-events-consumer},1651283092,0
{consumergroup=trace-token-events-consumer},1651283097,0
{consumergroup=trace-token-events-consumer},1651283102,0
{consumergroup=trace-token-events-consumer},1651283107,0
{consumergroup=trace-token-events-consumer},1651283112,0
{consumergroup=trace-token-events-consumer},1651283117,0
{consumergroup=trace-token-events-consumer},1651283122,0
{consumergroup=trace-token-events-consumer},1651283127,0
{consumergroup=trace-token-events-consumer},1651283132,0
{consumergroup=trace-token-events-consumer},1651283137,0
{consumergroup=trace-token-events-consumer},1651283142,0
{consumergroup=trace-token-events-consumer},1651283147,0
