labels,timestamp,value
{consumergroup=__strimzi-topic-operator-kstreams},1651422021,0
{consumergroup=__strimzi-topic-operator-kstreams},1651422036,12
{consumergroup=__strimzi-topic-operator-kstreams},1651422041,12
{consumergroup=__strimzi-topic-operator-kstreams},1651422046,12
{consumergroup=__strimzi-topic-operator-kstreams},1651422051,0
{consumergroup=__strimzi-topic-operator-kstreams},1651422056,0
{consumergroup=__strimzi-topic-operator-kstreams},1651422061,0
{consumergroup=__strimzi-topic-operator-kstreams},1651422066,0
{consumergroup=__strimzi-topic-operator-kstreams},1651422071,0
{consumergroup=__strimzi-topic-operator-kstreams},1651422076,0
{consumergroup=__strimzi-topic-operator-kstreams},1651422081,0
{consumergroup=__strimzi-topic-operator-kstreams},1651422086,0
{consumergroup=__strimzi-topic-operator-kstreams},1651422091,0
{consumergroup=__strimzi-topic-operator-kstreams},1651422096,0
{consumergroup=__strimzi-topic-operator-kstreams},1651422101,0
{consumergroup=__strimzi-topic-operator-kstreams},1651422106,0
{consumergroup=__strimzi-topic-operator-kstreams},1651422111,0
{consumergroup=__strimzi-topic-operator-kstreams},1651422116,0
{consumergroup=__strimzi-topic-operator-kstreams},1651422121,0
{consumergroup=__strimzi-topic-operator-kstreams},1651422126,0
{consumergroup=__strimzi-topic-operator-kstreams},1651422131,0
{consumergroup=__strimzi-topic-operator-kstreams},1651422136,0
{consumergroup=__strimzi-topic-operator-kstreams},1651422141,0
{consumergroup=__strimzi-topic-operator-kstreams},1651422146,0
{consumergroup=__strimzi-topic-operator-kstreams},1651422151,0
{consumergroup=__strimzi-topic-operator-kstreams},1651422156,0
{consumergroup=__strimzi-topic-operator-kstreams},1651422161,0
{consumergroup=__strimzi-topic-operator-kstreams},1651422166,0
{consumergroup=__strimzi-topic-operator-kstreams},1651422171,0
{consumergroup=__strimzi-topic-operator-kstreams},1651422176,0
{consumergroup=__strimzi-topic-operator-kstreams},1651422181,0
{consumergroup=__strimzi-topic-operator-kstreams},1651422186,0
{consumergroup=__strimzi-topic-operator-kstreams},1651422191,0
{consumergroup=__strimzi-topic-operator-kstreams},1651422196,0
{consumergroup=__strimzi-topic-operator-kstreams},1651422201,0
{consumergroup=__strimzi-topic-operator-kstreams},1651422206,0
{consumergroup=__strimzi-topic-operator-kstreams},1651422211,0
{consumergroup=__strimzi-topic-operator-kstreams},1651422216,0
{consumergroup=__strimzi-topic-operator-kstreams},1651422221,0
{consumergroup=__strimzi-topic-operator-kstreams},1651422226,0
{consumergroup=__strimzi-topic-operator-kstreams},1651422231,0
{consumergroup=__strimzi-topic-operator-kstreams},1651422236,0
{consumergroup=__strimzi-topic-operator-kstreams},1651422241,0
{consumergroup=__strimzi-topic-operator-kstreams},1651422246,0
{consumergroup=__strimzi-topic-operator-kstreams},1651422251,0
{consumergroup=__strimzi-topic-operator-kstreams},1651422256,0
{consumergroup=__strimzi-topic-operator-kstreams},1651422261,0
{consumergroup=__strimzi-topic-operator-kstreams},1651422266,0
{consumergroup=__strimzi-topic-operator-kstreams},1651422271,0
{consumergroup=__strimzi-topic-operator-kstreams},1651422276,0
{consumergroup=__strimzi-topic-operator-kstreams},1651422281,0
{consumergroup=adapter-service},1651422021,0
{consumergroup=adapter-service},1651422051,0
{consumergroup=adapter-service},1651422056,0
{consumergroup=adapter-service},1651422061,0
{consumergroup=adapter-service},1651422066,135431
{consumergroup=adapter-service},1651422071,135431
{consumergroup=adapter-service},1651422076,135431
{consumergroup=adapter-service},1651422081,191850
{consumergroup=adapter-service},1651422086,191850
{consumergroup=adapter-service},1651422091,191850
{consumergroup=adapter-service},1651422096,300381
{consumergroup=adapter-service},1651422101,300381
{consumergroup=adapter-service},1651422106,300381
{consumergroup=adapter-service},1651422111,262014
{consumergroup=adapter-service},1651422116,262014
{consumergroup=adapter-service},1651422121,262014
{consumergroup=adapter-service},1651422126,351707
{consumergroup=adapter-service},1651422131,351707
{consumergroup=adapter-service},1651422136,351707
{consumergroup=adapter-service},1651422141,382903
{consumergroup=adapter-service},1651422146,382903
{consumergroup=adapter-service},1651422151,382903
{consumergroup=adapter-service},1651422156,426851
{consumergroup=adapter-service},1651422161,426851
{consumergroup=adapter-service},1651422166,426851
{consumergroup=adapter-service},1651422171,521051
{consumergroup=adapter-service},1651422176,521051
{consumergroup=adapter-service},1651422181,521051
{consumergroup=adapter-service},1651422186,547141
{consumergroup=adapter-service},1651422191,547141
{consumergroup=adapter-service},1651422196,547141
{consumergroup=adapter-service},1651422201,596379
{consumergroup=adapter-service},1651422206,596379
{consumergroup=adapter-service},1651422211,596379
{consumergroup=adapter-service},1651422216,665582
{consumergroup=adapter-service},1651422221,665582
{consumergroup=adapter-service},1651422226,665582
{consumergroup=adapter-service},1651422231,673093
{consumergroup=adapter-service},1651422236,673093
{consumergroup=adapter-service},1651422241,673093
{consumergroup=adapter-service},1651422246,718966
{consumergroup=adapter-service},1651422251,718966
{consumergroup=adapter-service},1651422256,718966
{consumergroup=adapter-service},1651422261,757876
{consumergroup=adapter-service},1651422266,757876
{consumergroup=adapter-service},1651422271,757876
{consumergroup=adapter-service},1651422276,806016
{consumergroup=adapter-service},1651422281,806016
