labels,timestamp,value
{consumergroup=__strimzi-topic-operator-kstreams},1651299878,3
{consumergroup=__strimzi-topic-operator-kstreams},1651299883,3
{consumergroup=__strimzi-topic-operator-kstreams},1651299888,3
{consumergroup=__strimzi-topic-operator-kstreams},1651299893,8
{consumergroup=__strimzi-topic-operator-kstreams},1651299898,8
{consumergroup=__strimzi-topic-operator-kstreams},1651299903,8
{consumergroup=__strimzi-topic-operator-kstreams},1651299908,11
{consumergroup=__strimzi-topic-operator-kstreams},1651299913,11
{consumergroup=__strimzi-topic-operator-kstreams},1651299918,11
{consumergroup=__strimzi-topic-operator-kstreams},1651299923,0
{consumergroup=__strimzi-topic-operator-kstreams},1651299928,0
{consumergroup=__strimzi-topic-operator-kstreams},1651299933,0
{consumergroup=__strimzi-topic-operator-kstreams},1651299938,0
{consumergroup=__strimzi-topic-operator-kstreams},1651299943,0
{consumergroup=__strimzi-topic-operator-kstreams},1651299948,0
{consumergroup=__strimzi-topic-operator-kstreams},1651299953,0
{consumergroup=__strimzi-topic-operator-kstreams},1651299958,0
{consumergroup=__strimzi-topic-operator-kstreams},1651299963,0
{consumergroup=__strimzi-topic-operator-kstreams},1651299968,0
{consumergroup=__strimzi-topic-operator-kstreams},1651299973,0
{consumergroup=__strimzi-topic-operator-kstreams},1651299978,0
{consumergroup=__strimzi-topic-operator-kstreams},1651299983,0
{consumergroup=__strimzi-topic-operator-kstreams},1651299988,0
{consumergroup=__strimzi-topic-operator-kstreams},1651299993,0
{consumergroup=__strimzi-topic-operator-kstreams},1651299998,0
{consumergroup=__strimzi-topic-operator-kstreams},1651300003,0
{consumergroup=__strimzi-topic-operator-kstreams},1651300008,0
{consumergroup=__strimzi-topic-operator-kstreams},1651300013,0
{consumergroup=__strimzi-topic-operator-kstreams},1651300018,0
{consumergroup=__strimzi-topic-operator-kstreams},1651300023,0
{consumergroup=__strimzi-topic-operator-kstreams},1651300028,0
{consumergroup=__strimzi-topic-operator-kstreams},1651300033,0
{consumergroup=__strimzi-topic-operator-kstreams},1651300038,0
{consumergroup=__strimzi-topic-operator-kstreams},1651300043,0
{consumergroup=__strimzi-topic-operator-kstreams},1651300048,0
{consumergroup=__strimzi-topic-operator-kstreams},1651300053,0
{consumergroup=__strimzi-topic-operator-kstreams},1651300058,0
{consumergroup=__strimzi-topic-operator-kstreams},1651300063,0
{consumergroup=__strimzi-topic-operator-kstreams},1651300068,0
{consumergroup=__strimzi-topic-operator-kstreams},1651300073,0
{consumergroup=__strimzi-topic-operator-kstreams},1651300078,0
{consumergroup=__strimzi-topic-operator-kstreams},1651300083,0
{consumergroup=__strimzi-topic-operator-kstreams},1651300088,0
{consumergroup=__strimzi-topic-operator-kstreams},1651300093,0
{consumergroup=__strimzi-topic-operator-kstreams},1651300098,0
{consumergroup=__strimzi-topic-operator-kstreams},1651300103,0
{consumergroup=__strimzi-topic-operator-kstreams},1651300108,0
{consumergroup=__strimzi-topic-operator-kstreams},1651300113,0
{consumergroup=__strimzi-topic-operator-kstreams},1651300118,0
{consumergroup=__strimzi-topic-operator-kstreams},1651300123,0
{consumergroup=__strimzi-topic-operator-kstreams},1651300128,0
{consumergroup=__strimzi-topic-operator-kstreams},1651300133,0
{consumergroup=__strimzi-topic-operator-kstreams},1651300138,0
{consumergroup=__strimzi-topic-operator-kstreams},1651300143,0
{consumergroup=__strimzi-topic-operator-kstreams},1651300148,0
{consumergroup=__strimzi-topic-operator-kstreams},1651300153,0
{consumergroup=__strimzi-topic-operator-kstreams},1651300158,0
{consumergroup=__strimzi-topic-operator-kstreams},1651300163,0
{consumergroup=__strimzi-topic-operator-kstreams},1651300168,0
{consumergroup=__strimzi-topic-operator-kstreams},1651300173,0
{consumergroup=__strimzi-topic-operator-kstreams},1651300178,0
{consumergroup=__strimzi-topic-operator-kstreams},1651300183,0
{consumergroup=__strimzi-topic-operator-kstreams},1651300188,0
{consumergroup=__strimzi-topic-operator-kstreams},1651300193,0
{consumergroup=__strimzi-topic-operator-kstreams},1651300198,0
{consumergroup=__strimzi-topic-operator-kstreams},1651300203,0
{consumergroup=__strimzi-topic-operator-kstreams},1651300208,0
{consumergroup=__strimzi-topic-operator-kstreams},1651300213,0
{consumergroup=__strimzi-topic-operator-kstreams},1651300218,0
{consumergroup=__strimzi-topic-operator-kstreams},1651300223,0
{consumergroup=__strimzi-topic-operator-kstreams},1651300228,0
{consumergroup=__strimzi-topic-operator-kstreams},1651300233,0
{consumergroup=__strimzi-topic-operator-kstreams},1651300238,0
{consumergroup=__strimzi-topic-operator-kstreams},1651300243,0
{consumergroup=__strimzi-topic-operator-kstreams},1651300248,0
{consumergroup=__strimzi-topic-operator-kstreams},1651300253,0
{consumergroup=__strimzi-topic-operator-kstreams},1651300258,0
{consumergroup=__strimzi-topic-operator-kstreams},1651300263,0
{consumergroup=__strimzi-topic-operator-kstreams},1651300268,0
{consumergroup=__strimzi-topic-operator-kstreams},1651300273,0
{consumergroup=__strimzi-topic-operator-kstreams},1651300278,0
{consumergroup=__strimzi-topic-operator-kstreams},1651300283,0
{consumergroup=__strimzi-topic-operator-kstreams},1651300288,0
{consumergroup=__strimzi-topic-operator-kstreams},1651300293,0
{consumergroup=__strimzi-topic-operator-kstreams},1651300298,0
{consumergroup=__strimzi-topic-operator-kstreams},1651300303,0
{consumergroup=__strimzi-topic-operator-kstreams},1651300308,0
{consumergroup=__strimzi-topic-operator-kstreams},1651300313,0
{consumergroup=__strimzi-topic-operator-kstreams},1651300318,0
{consumergroup=__strimzi-topic-operator-kstreams},1651300323,0
{consumergroup=__strimzi-topic-operator-kstreams},1651300328,0
{consumergroup=__strimzi-topic-operator-kstreams},1651300333,0
{consumergroup=__strimzi-topic-operator-kstreams},1651300338,0
{consumergroup=__strimzi-topic-operator-kstreams},1651300343,0
{consumergroup=__strimzi-topic-operator-kstreams},1651300348,0
{consumergroup=__strimzi-topic-operator-kstreams},1651300353,0
{consumergroup=__strimzi-topic-operator-kstreams},1651300358,0
{consumergroup=__strimzi-topic-operator-kstreams},1651300363,0
{consumergroup=__strimzi-topic-operator-kstreams},1651300368,0
{consumergroup=__strimzi-topic-operator-kstreams},1651300373,0
{consumergroup=__strimzi-topic-operator-kstreams},1651300378,0
{consumergroup=__strimzi-topic-operator-kstreams},1651300383,0
{consumergroup=__strimzi-topic-operator-kstreams},1651300388,0
{consumergroup=adapter-service},1651299923,0
{consumergroup=adapter-service},1651299928,0
{consumergroup=adapter-service},1651299933,0
{consumergroup=adapter-service},1651299938,16786
{consumergroup=adapter-service},1651299943,16786
{consumergroup=adapter-service},1651299948,16786
{consumergroup=adapter-service},1651299953,4297
{consumergroup=adapter-service},1651299958,4297
{consumergroup=adapter-service},1651299963,4297
{consumergroup=adapter-service},1651299968,3555
{consumergroup=adapter-service},1651299973,3555
{consumergroup=adapter-service},1651299978,3555
{consumergroup=adapter-service},1651299983,1704
{consumergroup=adapter-service},1651299988,1704
{consumergroup=adapter-service},1651299993,1704
{consumergroup=adapter-service},1651299998,1390
{consumergroup=adapter-service},1651300003,1390
{consumergroup=adapter-service},1651300008,1390
{consumergroup=adapter-service},1651300013,3856
{consumergroup=adapter-service},1651300018,3856
{consumergroup=adapter-service},1651300023,3856
{consumergroup=adapter-service},1651300028,3215
{consumergroup=adapter-service},1651300033,3215
{consumergroup=adapter-service},1651300038,3215
{consumergroup=adapter-service},1651300043,7469
{consumergroup=adapter-service},1651300048,7469
{consumergroup=adapter-service},1651300053,7469
{consumergroup=adapter-service},1651300058,6647
{consumergroup=adapter-service},1651300063,6647
{consumergroup=adapter-service},1651300068,6647
{consumergroup=adapter-service},1651300073,9977
{consumergroup=adapter-service},1651300078,9977
{consumergroup=adapter-service},1651300083,9977
{consumergroup=adapter-service},1651300088,13422
{consumergroup=adapter-service},1651300093,13422
{consumergroup=adapter-service},1651300098,13422
{consumergroup=adapter-service},1651300103,13254
{consumergroup=adapter-service},1651300108,13254
{consumergroup=adapter-service},1651300113,13254
{consumergroup=adapter-service},1651300118,5028
{consumergroup=adapter-service},1651300123,5028
{consumergroup=adapter-service},1651300128,5028
{consumergroup=adapter-service},1651300133,12802
{consumergroup=adapter-service},1651300138,12802
{consumergroup=adapter-service},1651300143,12802
{consumergroup=adapter-service},1651300148,12297
{consumergroup=adapter-service},1651300153,12297
{consumergroup=adapter-service},1651300158,12297
{consumergroup=adapter-service},1651300163,12751
{consumergroup=adapter-service},1651300168,12751
{consumergroup=adapter-service},1651300173,12751
{consumergroup=adapter-service},1651300178,11723
{consumergroup=adapter-service},1651300183,11723
{consumergroup=adapter-service},1651300188,11723
{consumergroup=adapter-service},1651300193,11588
{consumergroup=adapter-service},1651300198,11588
{consumergroup=adapter-service},1651300203,11588
{consumergroup=adapter-service},1651300208,11755
{consumergroup=adapter-service},1651300213,11755
{consumergroup=adapter-service},1651300218,11755
{consumergroup=adapter-service},1651300223,10654
{consumergroup=adapter-service},1651300228,10654
{consumergroup=adapter-service},1651300233,10654
{consumergroup=adapter-service},1651300238,11140
{consumergroup=adapter-service},1651300243,11140
{consumergroup=adapter-service},1651300248,11140
{consumergroup=adapter-service},1651300253,10074
{consumergroup=adapter-service},1651300258,10074
{consumergroup=adapter-service},1651300263,10074
{consumergroup=adapter-service},1651300268,9865
{consumergroup=adapter-service},1651300273,9865
{consumergroup=adapter-service},1651300278,9865
{consumergroup=adapter-service},1651300283,9584
{consumergroup=adapter-service},1651300288,9584
{consumergroup=adapter-service},1651300293,9584
{consumergroup=adapter-service},1651300298,7873
{consumergroup=adapter-service},1651300303,7873
{consumergroup=adapter-service},1651300308,7873
{consumergroup=adapter-service},1651300313,8938
{consumergroup=adapter-service},1651300318,8938
{consumergroup=adapter-service},1651300323,8938
{consumergroup=adapter-service},1651300328,8598
{consumergroup=adapter-service},1651300333,8598
{consumergroup=adapter-service},1651300338,8598
{consumergroup=adapter-service},1651300343,8297
{consumergroup=adapter-service},1651300348,8297
{consumergroup=adapter-service},1651300353,8297
{consumergroup=adapter-service},1651300358,8041
{consumergroup=adapter-service},1651300363,8041
{consumergroup=adapter-service},1651300368,8041
{consumergroup=adapter-service},1651300373,7677
{consumergroup=adapter-service},1651300378,7677
{consumergroup=adapter-service},1651300383,7677
{consumergroup=adapter-service},1651300388,7327
{consumergroup=landscape-service},1651299938,19948
{consumergroup=landscape-service},1651299943,19948
{consumergroup=landscape-service},1651299948,19948
{consumergroup=landscape-service},1651299953,6395
{consumergroup=landscape-service},1651299958,6395
{consumergroup=landscape-service},1651299963,6395
{consumergroup=landscape-service},1651299968,6318
{consumergroup=landscape-service},1651299973,6318
{consumergroup=landscape-service},1651299978,6318
{consumergroup=landscape-service},1651299983,5349
{consumergroup=landscape-service},1651299988,5349
{consumergroup=landscape-service},1651299993,5349
{consumergroup=landscape-service},1651299998,5147
{consumergroup=landscape-service},1651300003,5147
{consumergroup=landscape-service},1651300008,5147
{consumergroup=landscape-service},1651300013,3981
{consumergroup=landscape-service},1651300018,3981
{consumergroup=landscape-service},1651300023,3981
{consumergroup=landscape-service},1651300028,3241
{consumergroup=landscape-service},1651300033,3241
{consumergroup=landscape-service},1651300038,3241
{consumergroup=landscape-service},1651300043,2736
{consumergroup=landscape-service},1651300048,2736
{consumergroup=landscape-service},1651300053,2736
{consumergroup=landscape-service},1651300058,3012
{consumergroup=landscape-service},1651300063,3012
{consumergroup=landscape-service},1651300068,3012
{consumergroup=landscape-service},1651300073,1515
{consumergroup=landscape-service},1651300078,1515
{consumergroup=landscape-service},1651300083,1515
{consumergroup=landscape-service},1651300088,915
{consumergroup=landscape-service},1651300093,915
{consumergroup=landscape-service},1651300098,915
{consumergroup=landscape-service},1651300103,427
{consumergroup=landscape-service},1651300108,427
{consumergroup=landscape-service},1651300113,427
{consumergroup=landscape-service},1651300118,8052
{consumergroup=landscape-service},1651300123,8052
{consumergroup=landscape-service},1651300128,8052
{consumergroup=landscape-service},1651300133,15291
{consumergroup=landscape-service},1651300138,15291
{consumergroup=landscape-service},1651300143,15291
{consumergroup=landscape-service},1651300148,15477
{consumergroup=landscape-service},1651300153,15477
{consumergroup=landscape-service},1651300158,15477
{consumergroup=landscape-service},1651300163,15016
{consumergroup=landscape-service},1651300168,15016
{consumergroup=landscape-service},1651300173,15016
{consumergroup=landscape-service},1651300178,14395
{consumergroup=landscape-service},1651300183,14395
{consumergroup=landscape-service},1651300188,14395
{consumergroup=landscape-service},1651300193,13961
{consumergroup=landscape-service},1651300198,13961
{consumergroup=landscape-service},1651300203,13961
{consumergroup=landscape-service},1651300208,12458
{consumergroup=landscape-service},1651300213,12458
{consumergroup=landscape-service},1651300218,12458
{consumergroup=landscape-service},1651300223,12746
{consumergroup=landscape-service},1651300228,12746
{consumergroup=landscape-service},1651300233,12746
{consumergroup=landscape-service},1651300238,11553
{consumergroup=landscape-service},1651300243,11553
{consumergroup=landscape-service},1651300248,11553
{consumergroup=landscape-service},1651300253,11697
{consumergroup=landscape-service},1651300258,11697
{consumergroup=landscape-service},1651300263,11697
{consumergroup=landscape-service},1651300268,10381
{consumergroup=landscape-service},1651300273,10381
{consumergroup=landscape-service},1651300278,10381
{consumergroup=landscape-service},1651300283,9623
{consumergroup=landscape-service},1651300288,9623
{consumergroup=landscape-service},1651300293,9623
{consumergroup=landscape-service},1651300298,7833
{consumergroup=landscape-service},1651300303,7833
{consumergroup=landscape-service},1651300308,7833
{consumergroup=landscape-service},1651300313,8725
{consumergroup=landscape-service},1651300318,8725
{consumergroup=landscape-service},1651300323,8725
{consumergroup=landscape-service},1651300328,8913
{consumergroup=landscape-service},1651300333,8913
{consumergroup=landscape-service},1651300338,8913
{consumergroup=landscape-service},1651300343,8255
{consumergroup=landscape-service},1651300348,8255
{consumergroup=landscape-service},1651300353,8255
{consumergroup=landscape-service},1651300358,6871
{consumergroup=landscape-service},1651300363,6871
{consumergroup=landscape-service},1651300368,6871
{consumergroup=landscape-service},1651300373,7167
{consumergroup=landscape-service},1651300378,7167
{consumergroup=landscape-service},1651300383,7167
{consumergroup=landscape-service},1651300388,5566
{consumergroup=trace-service},1651299938,51881
{consumergroup=trace-service},1651299943,51881
{consumergroup=trace-service},1651299948,51881
{consumergroup=trace-service},1651299953,25896
{consumergroup=trace-service},1651299958,25896
{consumergroup=trace-service},1651299963,25896
{consumergroup=trace-service},1651299968,35688
{consumergroup=trace-service},1651299973,35688
{consumergroup=trace-service},1651299978,35688
{consumergroup=trace-service},1651299983,101608
{consumergroup=trace-service},1651299988,101608
{consumergroup=trace-service},1651299993,101608
{consumergroup=trace-service},1651299998,32573
{consumergroup=trace-service},1651300003,32573
{consumergroup=trace-service},1651300008,32573
{consumergroup=trace-service},1651300013,97385
{consumergroup=trace-service},1651300018,97385
{consumergroup=trace-service},1651300023,97385
{consumergroup=trace-service},1651300028,31578
{consumergroup=trace-service},1651300033,31578
{consumergroup=trace-service},1651300038,31578
{consumergroup=trace-service},1651300043,66579
{consumergroup=trace-service},1651300048,66579
{consumergroup=trace-service},1651300053,66579
{consumergroup=trace-service},1651300058,28819
{consumergroup=trace-service},1651300063,28819
{consumergroup=trace-service},1651300068,28819
{consumergroup=trace-service},1651300073,55313
{consumergroup=trace-service},1651300078,55313
{consumergroup=trace-service},1651300083,55313
{consumergroup=trace-service},1651300088,31472
{consumergroup=trace-service},1651300093,31472
{consumergroup=trace-service},1651300098,31472
{consumergroup=trace-service},1651300103,87997
{consumergroup=trace-service},1651300108,87997
{consumergroup=trace-service},1651300113,87997
{consumergroup=trace-service},1651300118,36887
{consumergroup=trace-service},1651300123,36887
{consumergroup=trace-service},1651300128,36887
{consumergroup=trace-service},1651300133,91843
{consumergroup=trace-service},1651300138,91843
{consumergroup=trace-service},1651300143,91843
{consumergroup=trace-service},1651300148,31867
{consumergroup=trace-service},1651300153,31867
{consumergroup=trace-service},1651300158,31867
{consumergroup=trace-service},1651300163,51729
{consumergroup=trace-service},1651300168,51729
{consumergroup=trace-service},1651300173,51729
{consumergroup=trace-service},1651300178,30375
{consumergroup=trace-service},1651300183,30375
{consumergroup=trace-service},1651300188,30375
{consumergroup=trace-service},1651300193,84898
{consumergroup=trace-service},1651300198,84898
{consumergroup=trace-service},1651300203,84898
{consumergroup=trace-service},1651300208,29390
{consumergroup=trace-service},1651300213,29390
{consumergroup=trace-service},1651300218,29390
{consumergroup=trace-service},1651300223,73770
{consumergroup=trace-service},1651300228,73770
{consumergroup=trace-service},1651300233,73770
{consumergroup=trace-service},1651300238,31799
{consumergroup=trace-service},1651300243,31799
{consumergroup=trace-service},1651300248,31799
{consumergroup=trace-service},1651300253,69152
{consumergroup=trace-service},1651300258,69152
{consumergroup=trace-service},1651300263,69152
{consumergroup=trace-service},1651300268,30966
{consumergroup=trace-service},1651300273,30966
{consumergroup=trace-service},1651300278,30966
{consumergroup=trace-service},1651300283,63703
{consumergroup=trace-service},1651300288,63703
{consumergroup=trace-service},1651300293,63703
{consumergroup=trace-service},1651300298,29960
{consumergroup=trace-service},1651300303,29960
{consumergroup=trace-service},1651300308,29960
{consumergroup=trace-service},1651300313,87431
{consumergroup=trace-service},1651300318,87431
{consumergroup=trace-service},1651300323,87431
{consumergroup=trace-service},1651300328,34191
{consumergroup=trace-service},1651300333,34191
{consumergroup=trace-service},1651300338,34191
{consumergroup=trace-service},1651300343,85498
{consumergroup=trace-service},1651300348,85498
{consumergroup=trace-service},1651300353,85498
{consumergroup=trace-service},1651300358,30569
{consumergroup=trace-service},1651300363,30569
{consumergroup=trace-service},1651300368,30569
{consumergroup=trace-service},1651300373,79293
{consumergroup=trace-service},1651300378,79293
{consumergroup=trace-service},1651300383,79293
{consumergroup=trace-service},1651300388,29708
{consumergroup=trace-token-events-consumer},1651299923,0
{consumergroup=trace-token-events-consumer},1651299928,0
{consumergroup=trace-token-events-consumer},1651299933,0
{consumergroup=trace-token-events-consumer},1651299938,0
{consumergroup=trace-token-events-consumer},1651299943,0
{consumergroup=trace-token-events-consumer},1651299948,0
{consumergroup=trace-token-events-consumer},1651299953,0
{consumergroup=trace-token-events-consumer},1651299958,0
{consumergroup=trace-token-events-consumer},1651299963,0
{consumergroup=trace-token-events-consumer},1651299968,0
{consumergroup=trace-token-events-consumer},1651299973,0
{consumergroup=trace-token-events-consumer},1651299978,0
{consumergroup=trace-token-events-consumer},1651299983,0
{consumergroup=trace-token-events-consumer},1651299988,0
{consumergroup=trace-token-events-consumer},1651299993,0
{consumergroup=trace-token-events-consumer},1651299998,0
{consumergroup=trace-token-events-consumer},1651300003,0
{consumergroup=trace-token-events-consumer},1651300008,0
{consumergroup=trace-token-events-consumer},1651300013,0
{consumergroup=trace-token-events-consumer},1651300018,0
{consumergroup=trace-token-events-consumer},1651300023,0
{consumergroup=trace-token-events-consumer},1651300028,0
{consumergroup=trace-token-events-consumer},1651300033,0
{consumergroup=trace-token-events-consumer},1651300038,0
{consumergroup=trace-token-events-consumer},1651300043,0
{consumergroup=trace-token-events-consumer},1651300048,0
{consumergroup=trace-token-events-consumer},1651300053,0
{consumergroup=trace-token-events-consumer},1651300058,0
{consumergroup=trace-token-events-consumer},1651300063,0
{consumergroup=trace-token-events-consumer},1651300068,0
{consumergroup=trace-token-events-consumer},1651300073,0
{consumergroup=trace-token-events-consumer},1651300078,0
{consumergroup=trace-token-events-consumer},1651300083,0
{consumergroup=trace-token-events-consumer},1651300088,0
{consumergroup=trace-token-events-consumer},1651300093,0
{consumergroup=trace-token-events-consumer},1651300098,0
{consumergroup=trace-token-events-consumer},1651300103,0
{consumergroup=trace-token-events-consumer},1651300108,0
{consumergroup=trace-token-events-consumer},1651300113,0
{consumergroup=trace-token-events-consumer},1651300118,0
{consumergroup=trace-token-events-consumer},1651300123,0
{consumergroup=trace-token-events-consumer},1651300128,0
{consumergroup=trace-token-events-consumer},1651300133,0
{consumergroup=trace-token-events-consumer},1651300138,0
{consumergroup=trace-token-events-consumer},1651300143,0
{consumergroup=trace-token-events-consumer},1651300148,0
{consumergroup=trace-token-events-consumer},1651300153,0
{consumergroup=trace-token-events-consumer},1651300158,0
{consumergroup=trace-token-events-consumer},1651300163,0
{consumergroup=trace-token-events-consumer},1651300168,0
{consumergroup=trace-token-events-consumer},1651300173,0
{consumergroup=trace-token-events-consumer},1651300178,0
{consumergroup=trace-token-events-consumer},1651300183,0
{consumergroup=trace-token-events-consumer},1651300188,0
{consumergroup=trace-token-events-consumer},1651300193,0
{consumergroup=trace-token-events-consumer},1651300198,0
{consumergroup=trace-token-events-consumer},1651300203,0
{consumergroup=trace-token-events-consumer},1651300208,0
{consumergroup=trace-token-events-consumer},1651300213,0
{consumergroup=trace-token-events-consumer},1651300218,0
{consumergroup=trace-token-events-consumer},1651300223,0
{consumergroup=trace-token-events-consumer},1651300228,0
{consumergroup=trace-token-events-consumer},1651300233,0
{consumergroup=trace-token-events-consumer},1651300238,0
{consumergroup=trace-token-events-consumer},1651300243,0
{consumergroup=trace-token-events-consumer},1651300248,0
{consumergroup=trace-token-events-consumer},1651300253,0
{consumergroup=trace-token-events-consumer},1651300258,0
{consumergroup=trace-token-events-consumer},1651300263,0
{consumergroup=trace-token-events-consumer},1651300268,0
{consumergroup=trace-token-events-consumer},1651300273,0
{consumergroup=trace-token-events-consumer},1651300278,0
{consumergroup=trace-token-events-consumer},1651300283,0
{consumergroup=trace-token-events-consumer},1651300288,0
{consumergroup=trace-token-events-consumer},1651300293,0
{consumergroup=trace-token-events-consumer},1651300298,0
{consumergroup=trace-token-events-consumer},1651300303,0
{consumergroup=trace-token-events-consumer},1651300308,0
{consumergroup=trace-token-events-consumer},1651300313,0
{consumergroup=trace-token-events-consumer},1651300318,0
{consumergroup=trace-token-events-consumer},1651300323,0
{consumergroup=trace-token-events-consumer},1651300328,0
{consumergroup=trace-token-events-consumer},1651300333,0
{consumergroup=trace-token-events-consumer},1651300338,0
{consumergroup=trace-token-events-consumer},1651300343,0
{consumergroup=trace-token-events-consumer},1651300348,0
{consumergroup=trace-token-events-consumer},1651300353,0
{consumergroup=trace-token-events-consumer},1651300358,0
{consumergroup=trace-token-events-consumer},1651300363,0
{consumergroup=trace-token-events-consumer},1651300368,0
{consumergroup=trace-token-events-consumer},1651300373,0
{consumergroup=trace-token-events-consumer},1651300378,0
{consumergroup=trace-token-events-consumer},1651300383,0
{consumergroup=trace-token-events-consumer},1651300388,0
