labels,timestamp,value
{consumergroup=__strimzi-topic-operator-kstreams},1651400744,19
{consumergroup=__strimzi-topic-operator-kstreams},1651400749,19
{consumergroup=__strimzi-topic-operator-kstreams},1651400754,19
{consumergroup=__strimzi-topic-operator-kstreams},1651400759,0
{consumergroup=__strimzi-topic-operator-kstreams},1651400764,0
{consumergroup=__strimzi-topic-operator-kstreams},1651400769,0
{consumergroup=__strimzi-topic-operator-kstreams},1651400774,0
{consumergroup=__strimzi-topic-operator-kstreams},1651400779,0
{consumergroup=__strimzi-topic-operator-kstreams},1651400784,0
{consumergroup=__strimzi-topic-operator-kstreams},1651400789,0
{consumergroup=__strimzi-topic-operator-kstreams},1651400794,0
{consumergroup=__strimzi-topic-operator-kstreams},1651400799,0
{consumergroup=__strimzi-topic-operator-kstreams},1651400804,0
{consumergroup=__strimzi-topic-operator-kstreams},1651400809,0
{consumergroup=__strimzi-topic-operator-kstreams},1651400814,0
{consumergroup=__strimzi-topic-operator-kstreams},1651400819,0
{consumergroup=__strimzi-topic-operator-kstreams},1651400824,0
{consumergroup=__strimzi-topic-operator-kstreams},1651400829,0
{consumergroup=__strimzi-topic-operator-kstreams},1651400834,0
{consumergroup=__strimzi-topic-operator-kstreams},1651400839,0
{consumergroup=__strimzi-topic-operator-kstreams},1651400844,0
{consumergroup=__strimzi-topic-operator-kstreams},1651400849,0
{consumergroup=__strimzi-topic-operator-kstreams},1651400854,0
{consumergroup=__strimzi-topic-operator-kstreams},1651400859,0
{consumergroup=__strimzi-topic-operator-kstreams},1651400864,0
{consumergroup=__strimzi-topic-operator-kstreams},1651400869,0
{consumergroup=__strimzi-topic-operator-kstreams},1651400874,0
{consumergroup=__strimzi-topic-operator-kstreams},1651400879,0
{consumergroup=__strimzi-topic-operator-kstreams},1651400884,0
{consumergroup=__strimzi-topic-operator-kstreams},1651400889,0
{consumergroup=__strimzi-topic-operator-kstreams},1651400894,0
{consumergroup=__strimzi-topic-operator-kstreams},1651400899,0
{consumergroup=__strimzi-topic-operator-kstreams},1651400904,0
{consumergroup=__strimzi-topic-operator-kstreams},1651400909,0
{consumergroup=__strimzi-topic-operator-kstreams},1651400914,0
{consumergroup=__strimzi-topic-operator-kstreams},1651400919,0
{consumergroup=__strimzi-topic-operator-kstreams},1651400924,0
{consumergroup=__strimzi-topic-operator-kstreams},1651400929,0
{consumergroup=__strimzi-topic-operator-kstreams},1651400934,0
{consumergroup=__strimzi-topic-operator-kstreams},1651400939,0
{consumergroup=__strimzi-topic-operator-kstreams},1651400944,0
{consumergroup=__strimzi-topic-operator-kstreams},1651400949,0
{consumergroup=__strimzi-topic-operator-kstreams},1651400954,0
{consumergroup=__strimzi-topic-operator-kstreams},1651400959,0
{consumergroup=__strimzi-topic-operator-kstreams},1651400964,0
{consumergroup=__strimzi-topic-operator-kstreams},1651400969,0
{consumergroup=__strimzi-topic-operator-kstreams},1651400974,0
{consumergroup=__strimzi-topic-operator-kstreams},1651400979,0
{consumergroup=__strimzi-topic-operator-kstreams},1651400984,0
{consumergroup=__strimzi-topic-operator-kstreams},1651400989,0
{consumergroup=__strimzi-topic-operator-kstreams},1651400994,0
{consumergroup=adapter-service},1651400774,101999
{consumergroup=adapter-service},1651400779,101999
{consumergroup=adapter-service},1651400784,101999
{consumergroup=adapter-service},1651400789,99958
{consumergroup=adapter-service},1651400794,99958
{consumergroup=adapter-service},1651400799,99958
{consumergroup=adapter-service},1651400804,50593
{consumergroup=adapter-service},1651400809,50593
{consumergroup=adapter-service},1651400814,50593
{consumergroup=adapter-service},1651400819,13386
{consumergroup=adapter-service},1651400824,13386
{consumergroup=adapter-service},1651400829,13386
{consumergroup=adapter-service},1651400834,61187
{consumergroup=adapter-service},1651400839,61187
{consumergroup=adapter-service},1651400844,61187
{consumergroup=adapter-service},1651400849,11891
{consumergroup=adapter-service},1651400854,11891
{consumergroup=adapter-service},1651400859,11891
{consumergroup=adapter-service},1651400864,57687
{consumergroup=adapter-service},1651400869,57687
{consumergroup=adapter-service},1651400874,57687
{consumergroup=adapter-service},1651400879,75650
{consumergroup=adapter-service},1651400884,75650
{consumergroup=adapter-service},1651400889,75650
{consumergroup=adapter-service},1651400894,53515
{consumergroup=adapter-service},1651400899,53515
{consumergroup=adapter-service},1651400904,53515
{consumergroup=adapter-service},1651400909,9991
{consumergroup=adapter-service},1651400914,9991
{consumergroup=adapter-service},1651400919,9991
{consumergroup=adapter-service},1651400924,52265
{consumergroup=adapter-service},1651400929,52265
{consumergroup=adapter-service},1651400934,52265
{consumergroup=adapter-service},1651400939,77896
{consumergroup=adapter-service},1651400944,77896
{consumergroup=adapter-service},1651400949,77896
{consumergroup=adapter-service},1651400954,51560
{consumergroup=adapter-service},1651400959,51560
{consumergroup=adapter-service},1651400964,51560
{consumergroup=adapter-service},1651400969,75850
{consumergroup=adapter-service},1651400974,75850
{consumergroup=adapter-service},1651400979,75850
{consumergroup=adapter-service},1651400984,54073
{consumergroup=adapter-service},1651400989,54073
{consumergroup=adapter-service},1651400994,54073
