labels,timestamp,value
{consumergroup=__strimzi-topic-operator-kstreams},1651354397,13
{consumergroup=__strimzi-topic-operator-kstreams},1651354402,13
{consumergroup=__strimzi-topic-operator-kstreams},1651354407,13
{consumergroup=__strimzi-topic-operator-kstreams},1651354412,13
{consumergroup=__strimzi-topic-operator-kstreams},1651354417,13
{consumergroup=__strimzi-topic-operator-kstreams},1651354422,13
{consumergroup=__strimzi-topic-operator-kstreams},1651354427,0
{consumergroup=__strimzi-topic-operator-kstreams},1651354432,0
{consumergroup=__strimzi-topic-operator-kstreams},1651354437,0
{consumergroup=__strimzi-topic-operator-kstreams},1651354442,0
{consumergroup=__strimzi-topic-operator-kstreams},1651354447,0
{consumergroup=__strimzi-topic-operator-kstreams},1651354452,0
{consumergroup=__strimzi-topic-operator-kstreams},1651354457,0
{consumergroup=__strimzi-topic-operator-kstreams},1651354462,0
{consumergroup=__strimzi-topic-operator-kstreams},1651354467,0
{consumergroup=__strimzi-topic-operator-kstreams},1651354472,0
{consumergroup=__strimzi-topic-operator-kstreams},1651354477,0
{consumergroup=__strimzi-topic-operator-kstreams},1651354482,0
{consumergroup=__strimzi-topic-operator-kstreams},1651354487,0
{consumergroup=__strimzi-topic-operator-kstreams},1651354492,0
{consumergroup=__strimzi-topic-operator-kstreams},1651354497,0
{consumergroup=__strimzi-topic-operator-kstreams},1651354502,0
{consumergroup=__strimzi-topic-operator-kstreams},1651354507,0
{consumergroup=__strimzi-topic-operator-kstreams},1651354512,0
{consumergroup=__strimzi-topic-operator-kstreams},1651354517,0
{consumergroup=__strimzi-topic-operator-kstreams},1651354522,0
{consumergroup=__strimzi-topic-operator-kstreams},1651354527,0
{consumergroup=__strimzi-topic-operator-kstreams},1651354532,0
{consumergroup=__strimzi-topic-operator-kstreams},1651354537,0
{consumergroup=__strimzi-topic-operator-kstreams},1651354542,0
{consumergroup=__strimzi-topic-operator-kstreams},1651354547,0
{consumergroup=__strimzi-topic-operator-kstreams},1651354552,0
{consumergroup=__strimzi-topic-operator-kstreams},1651354557,0
{consumergroup=__strimzi-topic-operator-kstreams},1651354562,0
{consumergroup=__strimzi-topic-operator-kstreams},1651354567,0
{consumergroup=__strimzi-topic-operator-kstreams},1651354572,0
{consumergroup=__strimzi-topic-operator-kstreams},1651354577,0
{consumergroup=__strimzi-topic-operator-kstreams},1651354582,0
{consumergroup=__strimzi-topic-operator-kstreams},1651354587,0
{consumergroup=__strimzi-topic-operator-kstreams},1651354592,0
{consumergroup=__strimzi-topic-operator-kstreams},1651354597,0
{consumergroup=__strimzi-topic-operator-kstreams},1651354602,0
{consumergroup=__strimzi-topic-operator-kstreams},1651354607,0
{consumergroup=__strimzi-topic-operator-kstreams},1651354612,0
{consumergroup=__strimzi-topic-operator-kstreams},1651354617,0
{consumergroup=__strimzi-topic-operator-kstreams},1651354622,0
{consumergroup=__strimzi-topic-operator-kstreams},1651354627,0
{consumergroup=__strimzi-topic-operator-kstreams},1651354632,0
{consumergroup=__strimzi-topic-operator-kstreams},1651354637,0
{consumergroup=__strimzi-topic-operator-kstreams},1651354642,0
{consumergroup=adapter-service},1651354427,678897
{consumergroup=adapter-service},1651354432,678897
{consumergroup=adapter-service},1651354437,678897
{consumergroup=adapter-service},1651354442,866599
{consumergroup=adapter-service},1651354447,866599
{consumergroup=adapter-service},1651354452,866599
{consumergroup=adapter-service},1651354457,507835
{consumergroup=adapter-service},1651354462,507835
{consumergroup=adapter-service},1651354467,507835
{consumergroup=adapter-service},1651354472,890549
{consumergroup=adapter-service},1651354477,890549
{consumergroup=adapter-service},1651354482,890549
{consumergroup=adapter-service},1651354487,714041
{consumergroup=adapter-service},1651354492,714041
{consumergroup=adapter-service},1651354497,714041
{consumergroup=adapter-service},1651354502,742373
{consumergroup=adapter-service},1651354507,742373
{consumergroup=adapter-service},1651354512,742373
{consumergroup=adapter-service},1651354517,754739
{consumergroup=adapter-service},1651354522,754739
{consumergroup=adapter-service},1651354527,754739
{consumergroup=adapter-service},1651354532,781328
{consumergroup=adapter-service},1651354537,781328
{consumergroup=adapter-service},1651354542,781328
{consumergroup=adapter-service},1651354547,657344
{consumergroup=adapter-service},1651354552,657344
{consumergroup=adapter-service},1651354557,657344
{consumergroup=adapter-service},1651354562,981680
{consumergroup=adapter-service},1651354567,981680
{consumergroup=adapter-service},1651354572,981680
{consumergroup=adapter-service},1651354577,742706
{consumergroup=adapter-service},1651354582,742706
{consumergroup=adapter-service},1651354587,742706
{consumergroup=adapter-service},1651354592,1244087
{consumergroup=adapter-service},1651354597,1244087
{consumergroup=adapter-service},1651354602,1244087
{consumergroup=adapter-service},1651354607,988024
{consumergroup=adapter-service},1651354612,988024
{consumergroup=adapter-service},1651354617,988024
{consumergroup=adapter-service},1651354622,1276383
{consumergroup=adapter-service},1651354627,1276383
{consumergroup=adapter-service},1651354632,1276383
{consumergroup=adapter-service},1651354637,1116238
{consumergroup=adapter-service},1651354642,1116238
