labels,timestamp,value
{consumergroup=__strimzi-topic-operator-kstreams},1651401657,14
{consumergroup=__strimzi-topic-operator-kstreams},1651401662,14
{consumergroup=__strimzi-topic-operator-kstreams},1651401667,14
{consumergroup=__strimzi-topic-operator-kstreams},1651401672,14
{consumergroup=__strimzi-topic-operator-kstreams},1651401677,14
{consumergroup=__strimzi-topic-operator-kstreams},1651401682,14
{consumergroup=__strimzi-topic-operator-kstreams},1651401687,0
{consumergroup=__strimzi-topic-operator-kstreams},1651401692,0
{consumergroup=__strimzi-topic-operator-kstreams},1651401697,0
{consumergroup=__strimzi-topic-operator-kstreams},1651401702,0
{consumergroup=__strimzi-topic-operator-kstreams},1651401707,0
{consumergroup=__strimzi-topic-operator-kstreams},1651401712,0
{consumergroup=__strimzi-topic-operator-kstreams},1651401717,0
{consumergroup=__strimzi-topic-operator-kstreams},1651401722,0
{consumergroup=__strimzi-topic-operator-kstreams},1651401727,0
{consumergroup=__strimzi-topic-operator-kstreams},1651401732,0
{consumergroup=__strimzi-topic-operator-kstreams},1651401737,0
{consumergroup=__strimzi-topic-operator-kstreams},1651401742,0
{consumergroup=__strimzi-topic-operator-kstreams},1651401747,0
{consumergroup=__strimzi-topic-operator-kstreams},1651401752,0
{consumergroup=__strimzi-topic-operator-kstreams},1651401757,0
{consumergroup=__strimzi-topic-operator-kstreams},1651401762,0
{consumergroup=__strimzi-topic-operator-kstreams},1651401767,0
{consumergroup=__strimzi-topic-operator-kstreams},1651401772,0
{consumergroup=__strimzi-topic-operator-kstreams},1651401777,0
{consumergroup=__strimzi-topic-operator-kstreams},1651401782,0
{consumergroup=__strimzi-topic-operator-kstreams},1651401787,0
{consumergroup=__strimzi-topic-operator-kstreams},1651401792,0
{consumergroup=__strimzi-topic-operator-kstreams},1651401797,0
{consumergroup=__strimzi-topic-operator-kstreams},1651401802,0
{consumergroup=__strimzi-topic-operator-kstreams},1651401807,0
{consumergroup=__strimzi-topic-operator-kstreams},1651401812,0
{consumergroup=__strimzi-topic-operator-kstreams},1651401817,0
{consumergroup=__strimzi-topic-operator-kstreams},1651401822,0
{consumergroup=__strimzi-topic-operator-kstreams},1651401827,0
{consumergroup=__strimzi-topic-operator-kstreams},1651401832,0
{consumergroup=__strimzi-topic-operator-kstreams},1651401837,0
{consumergroup=__strimzi-topic-operator-kstreams},1651401842,0
{consumergroup=__strimzi-topic-operator-kstreams},1651401847,0
{consumergroup=__strimzi-topic-operator-kstreams},1651401852,0
{consumergroup=__strimzi-topic-operator-kstreams},1651401857,0
{consumergroup=__strimzi-topic-operator-kstreams},1651401862,0
{consumergroup=__strimzi-topic-operator-kstreams},1651401867,0
{consumergroup=__strimzi-topic-operator-kstreams},1651401872,0
{consumergroup=__strimzi-topic-operator-kstreams},1651401877,0
{consumergroup=__strimzi-topic-operator-kstreams},1651401882,0
{consumergroup=__strimzi-topic-operator-kstreams},1651401887,0
{consumergroup=__strimzi-topic-operator-kstreams},1651401892,0
{consumergroup=__strimzi-topic-operator-kstreams},1651401897,0
{consumergroup=__strimzi-topic-operator-kstreams},1651401902,0
{consumergroup=adapter-service},1651401687,146367
{consumergroup=adapter-service},1651401692,146367
{consumergroup=adapter-service},1651401697,146367
{consumergroup=adapter-service},1651401702,198731
{consumergroup=adapter-service},1651401707,198731
{consumergroup=adapter-service},1651401712,198731
{consumergroup=adapter-service},1651401717,241425
{consumergroup=adapter-service},1651401722,241425
{consumergroup=adapter-service},1651401727,241425
{consumergroup=adapter-service},1651401732,191735
{consumergroup=adapter-service},1651401737,191735
{consumergroup=adapter-service},1651401742,191735
{consumergroup=adapter-service},1651401747,257329
{consumergroup=adapter-service},1651401752,257329
{consumergroup=adapter-service},1651401757,257329
{consumergroup=adapter-service},1651401762,257082
{consumergroup=adapter-service},1651401767,257082
{consumergroup=adapter-service},1651401772,257082
{consumergroup=adapter-service},1651401777,243016
{consumergroup=adapter-service},1651401782,243016
{consumergroup=adapter-service},1651401787,243016
{consumergroup=adapter-service},1651401792,292345
{consumergroup=adapter-service},1651401797,292345
{consumergroup=adapter-service},1651401802,292345
{consumergroup=adapter-service},1651401807,323069
{consumergroup=adapter-service},1651401812,323069
{consumergroup=adapter-service},1651401817,323069
{consumergroup=adapter-service},1651401822,294435
{consumergroup=adapter-service},1651401827,294435
{consumergroup=adapter-service},1651401832,294435
{consumergroup=adapter-service},1651401837,292830
{consumergroup=adapter-service},1651401842,292830
{consumergroup=adapter-service},1651401847,292830
{consumergroup=adapter-service},1651401852,334081
{consumergroup=adapter-service},1651401857,334081
{consumergroup=adapter-service},1651401862,334081
{consumergroup=adapter-service},1651401867,369340
{consumergroup=adapter-service},1651401872,369340
{consumergroup=adapter-service},1651401877,369340
{consumergroup=adapter-service},1651401882,357694
{consumergroup=adapter-service},1651401887,357694
{consumergroup=adapter-service},1651401892,357694
{consumergroup=adapter-service},1651401897,396510
{consumergroup=adapter-service},1651401902,396510
