labels,timestamp,value
{consumergroup=__strimzi-topic-operator-kstreams},1651384986,1
{consumergroup=__strimzi-topic-operator-kstreams},1651384991,1
{consumergroup=__strimzi-topic-operator-kstreams},1651384996,1
{consumergroup=__strimzi-topic-operator-kstreams},1651385001,8
{consumergroup=__strimzi-topic-operator-kstreams},1651385006,8
{consumergroup=__strimzi-topic-operator-kstreams},1651385011,8
{consumergroup=__strimzi-topic-operator-kstreams},1651385016,0
{consumergroup=__strimzi-topic-operator-kstreams},1651385021,0
{consumergroup=__strimzi-topic-operator-kstreams},1651385026,0
{consumergroup=__strimzi-topic-operator-kstreams},1651385031,0
{consumergroup=__strimzi-topic-operator-kstreams},1651385036,0
{consumergroup=__strimzi-topic-operator-kstreams},1651385041,0
{consumergroup=__strimzi-topic-operator-kstreams},1651385046,0
{consumergroup=__strimzi-topic-operator-kstreams},1651385051,0
{consumergroup=__strimzi-topic-operator-kstreams},1651385056,0
{consumergroup=__strimzi-topic-operator-kstreams},1651385061,0
{consumergroup=__strimzi-topic-operator-kstreams},1651385066,0
{consumergroup=__strimzi-topic-operator-kstreams},1651385071,0
{consumergroup=__strimzi-topic-operator-kstreams},1651385076,0
{consumergroup=__strimzi-topic-operator-kstreams},1651385081,0
{consumergroup=__strimzi-topic-operator-kstreams},1651385086,0
{consumergroup=__strimzi-topic-operator-kstreams},1651385091,0
{consumergroup=__strimzi-topic-operator-kstreams},1651385096,0
{consumergroup=__strimzi-topic-operator-kstreams},1651385101,0
{consumergroup=__strimzi-topic-operator-kstreams},1651385106,0
{consumergroup=__strimzi-topic-operator-kstreams},1651385111,0
{consumergroup=__strimzi-topic-operator-kstreams},1651385116,0
{consumergroup=__strimzi-topic-operator-kstreams},1651385121,0
{consumergroup=__strimzi-topic-operator-kstreams},1651385126,0
{consumergroup=__strimzi-topic-operator-kstreams},1651385131,0
{consumergroup=__strimzi-topic-operator-kstreams},1651385136,0
{consumergroup=__strimzi-topic-operator-kstreams},1651385141,0
{consumergroup=__strimzi-topic-operator-kstreams},1651385146,0
{consumergroup=__strimzi-topic-operator-kstreams},1651385151,0
{consumergroup=__strimzi-topic-operator-kstreams},1651385156,0
{consumergroup=__strimzi-topic-operator-kstreams},1651385161,0
{consumergroup=__strimzi-topic-operator-kstreams},1651385166,0
{consumergroup=__strimzi-topic-operator-kstreams},1651385171,0
{consumergroup=__strimzi-topic-operator-kstreams},1651385176,0
{consumergroup=__strimzi-topic-operator-kstreams},1651385181,0
{consumergroup=__strimzi-topic-operator-kstreams},1651385186,0
{consumergroup=__strimzi-topic-operator-kstreams},1651385191,0
{consumergroup=__strimzi-topic-operator-kstreams},1651385196,0
{consumergroup=__strimzi-topic-operator-kstreams},1651385201,0
{consumergroup=__strimzi-topic-operator-kstreams},1651385206,0
{consumergroup=__strimzi-topic-operator-kstreams},1651385211,0
{consumergroup=__strimzi-topic-operator-kstreams},1651385216,0
{consumergroup=__strimzi-topic-operator-kstreams},1651385221,0
{consumergroup=__strimzi-topic-operator-kstreams},1651385226,0
{consumergroup=__strimzi-topic-operator-kstreams},1651385231,0
{consumergroup=__strimzi-topic-operator-kstreams},1651385236,0
{consumergroup=__strimzi-topic-operator-kstreams},1651385241,0
{consumergroup=__strimzi-topic-operator-kstreams},1651385246,0
{consumergroup=adapter-service},1651385016,0
{consumergroup=adapter-service},1651385021,0
{consumergroup=adapter-service},1651385026,0
{consumergroup=adapter-service},1651385031,921601
{consumergroup=adapter-service},1651385036,921601
{consumergroup=adapter-service},1651385041,921601
{consumergroup=adapter-service},1651385046,1635856
{consumergroup=adapter-service},1651385051,1635856
{consumergroup=adapter-service},1651385056,1635856
{consumergroup=adapter-service},1651385061,2068055
{consumergroup=adapter-service},1651385066,2068055
{consumergroup=adapter-service},1651385071,2068055
{consumergroup=adapter-service},1651385076,2606637
{consumergroup=adapter-service},1651385081,2606637
{consumergroup=adapter-service},1651385086,2606637
{consumergroup=adapter-service},1651385091,3003367
{consumergroup=adapter-service},1651385096,3003367
{consumergroup=adapter-service},1651385101,3003367
{consumergroup=adapter-service},1651385106,2985414
{consumergroup=adapter-service},1651385111,2985414
{consumergroup=adapter-service},1651385116,2985414
{consumergroup=adapter-service},1651385121,3291809
{consumergroup=adapter-service},1651385126,3291809
{consumergroup=adapter-service},1651385131,3291809
{consumergroup=adapter-service},1651385136,3096101
{consumergroup=adapter-service},1651385141,3096101
{consumergroup=adapter-service},1651385146,3096101
{consumergroup=adapter-service},1651385151,3228697
{consumergroup=adapter-service},1651385156,3228697
{consumergroup=adapter-service},1651385161,3228697
{consumergroup=adapter-service},1651385166,3258959
{consumergroup=adapter-service},1651385171,3258959
{consumergroup=adapter-service},1651385176,3258959
{consumergroup=adapter-service},1651385181,3113757
{consumergroup=adapter-service},1651385186,3113757
{consumergroup=adapter-service},1651385191,3113757
{consumergroup=adapter-service},1651385196,3108890
{consumergroup=adapter-service},1651385201,3108890
{consumergroup=adapter-service},1651385206,3108890
{consumergroup=adapter-service},1651385211,2983015
{consumergroup=adapter-service},1651385216,2983015
{consumergroup=adapter-service},1651385221,2983015
{consumergroup=adapter-service},1651385226,3001899
{consumergroup=adapter-service},1651385231,3001899
{consumergroup=adapter-service},1651385236,3001899
{consumergroup=adapter-service},1651385241,2823866
{consumergroup=adapter-service},1651385246,2823866
