labels,timestamp,value
{consumergroup=__strimzi-topic-operator-kstreams},1651409751,14
{consumergroup=__strimzi-topic-operator-kstreams},1651409756,14
{consumergroup=__strimzi-topic-operator-kstreams},1651409761,14
{consumergroup=__strimzi-topic-operator-kstreams},1651409766,0
{consumergroup=__strimzi-topic-operator-kstreams},1651409771,0
{consumergroup=__strimzi-topic-operator-kstreams},1651409776,0
{consumergroup=__strimzi-topic-operator-kstreams},1651409781,0
{consumergroup=__strimzi-topic-operator-kstreams},1651409786,0
{consumergroup=__strimzi-topic-operator-kstreams},1651409791,0
{consumergroup=__strimzi-topic-operator-kstreams},1651409796,0
{consumergroup=__strimzi-topic-operator-kstreams},1651409801,0
{consumergroup=__strimzi-topic-operator-kstreams},1651409806,0
{consumergroup=__strimzi-topic-operator-kstreams},1651409811,0
{consumergroup=__strimzi-topic-operator-kstreams},1651409816,0
{consumergroup=__strimzi-topic-operator-kstreams},1651409821,0
{consumergroup=__strimzi-topic-operator-kstreams},1651409826,0
{consumergroup=__strimzi-topic-operator-kstreams},1651409831,0
{consumergroup=__strimzi-topic-operator-kstreams},1651409836,0
{consumergroup=__strimzi-topic-operator-kstreams},1651409841,0
{consumergroup=__strimzi-topic-operator-kstreams},1651409846,0
{consumergroup=__strimzi-topic-operator-kstreams},1651409851,0
{consumergroup=__strimzi-topic-operator-kstreams},1651409856,0
{consumergroup=__strimzi-topic-operator-kstreams},1651409861,0
{consumergroup=__strimzi-topic-operator-kstreams},1651409866,0
{consumergroup=__strimzi-topic-operator-kstreams},1651409871,0
{consumergroup=__strimzi-topic-operator-kstreams},1651409876,0
{consumergroup=__strimzi-topic-operator-kstreams},1651409881,0
{consumergroup=__strimzi-topic-operator-kstreams},1651409886,0
{consumergroup=__strimzi-topic-operator-kstreams},1651409891,0
{consumergroup=__strimzi-topic-operator-kstreams},1651409896,0
{consumergroup=__strimzi-topic-operator-kstreams},1651409901,0
{consumergroup=__strimzi-topic-operator-kstreams},1651409906,0
{consumergroup=__strimzi-topic-operator-kstreams},1651409911,0
{consumergroup=__strimzi-topic-operator-kstreams},1651409916,0
{consumergroup=__strimzi-topic-operator-kstreams},1651409921,0
{consumergroup=__strimzi-topic-operator-kstreams},1651409926,0
{consumergroup=__strimzi-topic-operator-kstreams},1651409931,0
{consumergroup=__strimzi-topic-operator-kstreams},1651409936,0
{consumergroup=__strimzi-topic-operator-kstreams},1651409941,0
{consumergroup=__strimzi-topic-operator-kstreams},1651409946,0
{consumergroup=__strimzi-topic-operator-kstreams},1651409951,0
{consumergroup=__strimzi-topic-operator-kstreams},1651409956,0
{consumergroup=__strimzi-topic-operator-kstreams},1651409961,0
{consumergroup=__strimzi-topic-operator-kstreams},1651409966,0
{consumergroup=__strimzi-topic-operator-kstreams},1651409971,0
{consumergroup=__strimzi-topic-operator-kstreams},1651409976,0
{consumergroup=__strimzi-topic-operator-kstreams},1651409981,0
{consumergroup=__strimzi-topic-operator-kstreams},1651409986,0
{consumergroup=__strimzi-topic-operator-kstreams},1651409991,0
{consumergroup=__strimzi-topic-operator-kstreams},1651409996,0
{consumergroup=adapter-service},1651409766,0
{consumergroup=adapter-service},1651409771,0
{consumergroup=adapter-service},1651409776,0
{consumergroup=adapter-service},1651409781,84818
{consumergroup=adapter-service},1651409786,84818
{consumergroup=adapter-service},1651409791,84818
{consumergroup=adapter-service},1651409796,89203
{consumergroup=adapter-service},1651409801,89203
{consumergroup=adapter-service},1651409806,89203
{consumergroup=adapter-service},1651409811,113750
{consumergroup=adapter-service},1651409816,113750
{consumergroup=adapter-service},1651409821,113750
{consumergroup=adapter-service},1651409826,97016
{consumergroup=adapter-service},1651409831,97016
{consumergroup=adapter-service},1651409836,97016
{consumergroup=adapter-service},1651409841,64698
{consumergroup=adapter-service},1651409846,64698
{consumergroup=adapter-service},1651409851,64698
{consumergroup=adapter-service},1651409856,45970
{consumergroup=adapter-service},1651409861,45970
{consumergroup=adapter-service},1651409866,45970
{consumergroup=adapter-service},1651409871,29142
{consumergroup=adapter-service},1651409876,29142
{consumergroup=adapter-service},1651409881,29142
{consumergroup=adapter-service},1651409886,30213
{consumergroup=adapter-service},1651409891,30213
{consumergroup=adapter-service},1651409896,30213
{consumergroup=adapter-service},1651409901,18741
{consumergroup=adapter-service},1651409906,18741
{consumergroup=adapter-service},1651409911,18741
{consumergroup=adapter-service},1651409916,26001
{consumergroup=adapter-service},1651409921,26001
{consumergroup=adapter-service},1651409926,26001
{consumergroup=adapter-service},1651409931,17111
{consumergroup=adapter-service},1651409936,17111
{consumergroup=adapter-service},1651409941,17111
{consumergroup=adapter-service},1651409946,38959
{consumergroup=adapter-service},1651409951,38959
{consumergroup=adapter-service},1651409956,38959
{consumergroup=adapter-service},1651409961,37663
{consumergroup=adapter-service},1651409966,37663
{consumergroup=adapter-service},1651409971,37663
{consumergroup=adapter-service},1651409976,33276
{consumergroup=adapter-service},1651409981,33276
{consumergroup=adapter-service},1651409986,33276
{consumergroup=adapter-service},1651409991,35929
{consumergroup=adapter-service},1651409996,35929
