labels,timestamp,value
{job=theodolite-stu200776/combined-trace-podmonitor},1651287653,0
{job=theodolite-stu200776/combined-trace-podmonitor},1651287658,0
{job=theodolite-stu200776/combined-trace-podmonitor},1651287663,0
{job=theodolite-stu200776/combined-trace-podmonitor},1651287668,0
{job=theodolite-stu200776/combined-trace-podmonitor},1651287673,0
{job=theodolite-stu200776/combined-trace-podmonitor},1651287678,0
{job=theodolite-stu200776/combined-trace-podmonitor},1651287683,0
{job=theodolite-stu200776/combined-trace-podmonitor},1651287688,0
{job=theodolite-stu200776/combined-trace-podmonitor},1651287693,0
{job=theodolite-stu200776/combined-trace-podmonitor},1651287698,0
{job=theodolite-stu200776/combined-trace-podmonitor},1651287703,0
{job=theodolite-stu200776/combined-trace-podmonitor},1651287708,0
{job=theodolite-stu200776/combined-trace-podmonitor},1651287713,0
{job=theodolite-stu200776/combined-trace-podmonitor},1651287718,0
{job=theodolite-stu200776/combined-trace-podmonitor},1651287723,0
{job=theodolite-stu200776/combined-trace-podmonitor},1651287728,0
{job=theodolite-stu200776/combined-trace-podmonitor},1651287733,0
{job=theodolite-stu200776/combined-trace-podmonitor},1651287738,0
{job=theodolite-stu200776/combined-trace-podmonitor},1651287743,0
{job=theodolite-stu200776/combined-trace-podmonitor},1651287748,0
{job=theodolite-stu200776/combined-trace-podmonitor},1651287753,0
{job=theodolite-stu200776/combined-trace-podmonitor},1651287758,0
{job=theodolite-stu200776/combined-trace-podmonitor},1651287763,0
{job=theodolite-stu200776/combined-trace-podmonitor},1651287768,0
{job=theodolite-stu200776/combined-trace-podmonitor},1651287773,0
{job=theodolite-stu200776/combined-trace-podmonitor},1651287778,0
{job=theodolite-stu200776/combined-trace-podmonitor},1651287783,0
{job=theodolite-stu200776/combined-trace-podmonitor},1651287788,0
{job=theodolite-stu200776/combined-trace-podmonitor},1651287793,0
{job=theodolite-stu200776/combined-trace-podmonitor},1651287798,0
{job=theodolite-stu200776/combined-trace-podmonitor},1651287803,0
{job=theodolite-stu200776/combined-trace-podmonitor},1651287808,0
{job=theodolite-stu200776/combined-trace-podmonitor},1651287813,0
{job=theodolite-stu200776/combined-trace-podmonitor},1651287818,0
{job=theodolite-stu200776/combined-trace-podmonitor},1651287823,0
{job=theodolite-stu200776/combined-trace-podmonitor},1651287828,0
{job=theodolite-stu200776/combined-trace-podmonitor},1651287833,0
{job=theodolite-stu200776/combined-trace-podmonitor},1651287838,0
{job=theodolite-stu200776/combined-trace-podmonitor},1651287843,0
{job=theodolite-stu200776/combined-trace-podmonitor},1651287848,0
{job=theodolite-stu200776/combined-trace-podmonitor},1651287853,0
{job=theodolite-stu200776/combined-trace-podmonitor},1651287858,0
{job=theodolite-stu200776/combined-trace-podmonitor},1651287863,0
{job=theodolite-stu200776/combined-trace-podmonitor},1651287868,0
{job=theodolite-stu200776/combined-trace-podmonitor},1651287873,0
{job=theodolite-stu200776/combined-trace-podmonitor},1651287878,0
{job=theodolite-stu200776/combined-trace-podmonitor},1651287883,0
{job=theodolite-stu200776/combined-trace-podmonitor},1651287888,0
{job=theodolite-stu200776/combined-trace-podmonitor},1651287893,0
{job=theodolite-stu200776/combined-trace-podmonitor},1651287898,0
{job=theodolite-stu200776/combined-trace-podmonitor},1651287903,0
{job=theodolite-stu200776/combined-trace-podmonitor},1651287908,0
{job=theodolite-stu200776/combined-trace-podmonitor},1651287913,0
{job=theodolite-stu200776/combined-trace-podmonitor},1651287918,0
{job=theodolite-stu200776/combined-trace-podmonitor},1651287923,0
{job=theodolite-stu200776/combined-trace-podmonitor},1651287928,0
{job=theodolite-stu200776/combined-trace-podmonitor},1651287933,0
{job=theodolite-stu200776/combined-trace-podmonitor},1651287938,0
{job=theodolite-stu200776/combined-trace-podmonitor},1651287943,0
{job=theodolite-stu200776/combined-trace-podmonitor},1651287948,0
{job=theodolite-stu200776/combined-trace-podmonitor},1651287953,0
{job=theodolite-stu200776/combined-trace-podmonitor},1651287958,0
{job=theodolite-stu200776/combined-trace-podmonitor},1651287963,0
{job=theodolite-stu200776/combined-trace-podmonitor},1651287968,0
{job=theodolite-stu200776/combined-trace-podmonitor},1651287973,0
{job=theodolite-stu200776/combined-trace-podmonitor},1651287978,0
{job=theodolite-stu200776/combined-trace-podmonitor},1651287983,0
{job=theodolite-stu200776/combined-trace-podmonitor},1651287988,0
{job=theodolite-stu200776/combined-trace-podmonitor},1651287993,0
{job=theodolite-stu200776/combined-trace-podmonitor},1651287998,0
{job=theodolite-stu200776/combined-trace-podmonitor},1651288003,0
{job=theodolite-stu200776/combined-trace-podmonitor},1651288008,0
{job=theodolite-stu200776/combined-trace-podmonitor},1651288013,0
{job=theodolite-stu200776/combined-trace-podmonitor},1651288018,0
{job=theodolite-stu200776/combined-trace-podmonitor},1651288023,0
{job=theodolite-stu200776/combined-trace-podmonitor},1651288028,0
{job=theodolite-stu200776/combined-trace-podmonitor},1651288033,0
{job=theodolite-stu200776/combined-trace-podmonitor},1651288038,0
{job=theodolite-stu200776/combined-trace-podmonitor},1651288043,0
{job=theodolite-stu200776/combined-trace-podmonitor},1651288048,0
{job=theodolite-stu200776/combined-trace-podmonitor},1651288053,0
{job=theodolite-stu200776/combined-trace-podmonitor},1651288058,0
{job=theodolite-stu200776/combined-trace-podmonitor},1651288063,0
{job=theodolite-stu200776/combined-trace-podmonitor},1651288068,0
{job=theodolite-stu200776/combined-trace-podmonitor},1651288073,0
{job=theodolite-stu200776/combined-trace-podmonitor},1651288078,0
{job=theodolite-stu200776/combined-trace-podmonitor},1651288083,0
{job=theodolite-stu200776/combined-trace-podmonitor},1651288088,0
{job=theodolite-stu200776/combined-trace-podmonitor},1651288093,0
