labels,timestamp,value
{consumergroup=__strimzi-topic-operator-kstreams},1651370378,0
{consumergroup=__strimzi-topic-operator-kstreams},1651370403,0
{consumergroup=__strimzi-topic-operator-kstreams},1651370408,0
{consumergroup=__strimzi-topic-operator-kstreams},1651370413,0
{consumergroup=__strimzi-topic-operator-kstreams},1651370418,0
{consumergroup=__strimzi-topic-operator-kstreams},1651370423,0
{consumergroup=__strimzi-topic-operator-kstreams},1651370428,0
{consumergroup=__strimzi-topic-operator-kstreams},1651370433,0
{consumergroup=__strimzi-topic-operator-kstreams},1651370438,0
{consumergroup=__strimzi-topic-operator-kstreams},1651370443,0
{consumergroup=__strimzi-topic-operator-kstreams},1651370448,0
{consumergroup=__strimzi-topic-operator-kstreams},1651370453,0
{consumergroup=__strimzi-topic-operator-kstreams},1651370458,0
{consumergroup=__strimzi-topic-operator-kstreams},1651370463,0
{consumergroup=__strimzi-topic-operator-kstreams},1651370468,0
{consumergroup=__strimzi-topic-operator-kstreams},1651370473,0
{consumergroup=__strimzi-topic-operator-kstreams},1651370478,0
{consumergroup=__strimzi-topic-operator-kstreams},1651370483,0
{consumergroup=__strimzi-topic-operator-kstreams},1651370488,0
{consumergroup=__strimzi-topic-operator-kstreams},1651370493,0
{consumergroup=__strimzi-topic-operator-kstreams},1651370498,0
{consumergroup=__strimzi-topic-operator-kstreams},1651370503,0
{consumergroup=__strimzi-topic-operator-kstreams},1651370508,0
{consumergroup=__strimzi-topic-operator-kstreams},1651370513,0
{consumergroup=__strimzi-topic-operator-kstreams},1651370518,0
{consumergroup=__strimzi-topic-operator-kstreams},1651370523,0
{consumergroup=__strimzi-topic-operator-kstreams},1651370528,0
{consumergroup=__strimzi-topic-operator-kstreams},1651370533,0
{consumergroup=__strimzi-topic-operator-kstreams},1651370538,0
{consumergroup=__strimzi-topic-operator-kstreams},1651370543,0
{consumergroup=__strimzi-topic-operator-kstreams},1651370548,0
{consumergroup=__strimzi-topic-operator-kstreams},1651370553,0
{consumergroup=__strimzi-topic-operator-kstreams},1651370558,0
{consumergroup=__strimzi-topic-operator-kstreams},1651370563,0
{consumergroup=__strimzi-topic-operator-kstreams},1651370568,0
{consumergroup=__strimzi-topic-operator-kstreams},1651370573,0
{consumergroup=__strimzi-topic-operator-kstreams},1651370578,0
{consumergroup=__strimzi-topic-operator-kstreams},1651370583,0
{consumergroup=__strimzi-topic-operator-kstreams},1651370588,0
{consumergroup=__strimzi-topic-operator-kstreams},1651370593,0
{consumergroup=__strimzi-topic-operator-kstreams},1651370598,0
{consumergroup=__strimzi-topic-operator-kstreams},1651370603,0
{consumergroup=__strimzi-topic-operator-kstreams},1651370608,0
{consumergroup=__strimzi-topic-operator-kstreams},1651370613,0
{consumergroup=__strimzi-topic-operator-kstreams},1651370618,0
{consumergroup=__strimzi-topic-operator-kstreams},1651370623,0
{consumergroup=__strimzi-topic-operator-kstreams},1651370628,0
{consumergroup=__strimzi-topic-operator-kstreams},1651370633,0
{consumergroup=__strimzi-topic-operator-kstreams},1651370638,0
{consumergroup=adapter-service},1651370378,25068937
{consumergroup=adapter-service},1651370418,359860
{consumergroup=adapter-service},1651370423,359860
{consumergroup=adapter-service},1651370428,359860
{consumergroup=adapter-service},1651370433,2825631
{consumergroup=adapter-service},1651370438,2825631
{consumergroup=adapter-service},1651370443,2825631
{consumergroup=adapter-service},1651370448,4725310
{consumergroup=adapter-service},1651370453,4725310
{consumergroup=adapter-service},1651370458,4725310
{consumergroup=adapter-service},1651370463,6327558
{consumergroup=adapter-service},1651370468,6327558
{consumergroup=adapter-service},1651370473,6327558
{consumergroup=adapter-service},1651370478,8114300
{consumergroup=adapter-service},1651370483,8114300
{consumergroup=adapter-service},1651370488,8114300
{consumergroup=adapter-service},1651370493,9876561
{consumergroup=adapter-service},1651370498,9876561
{consumergroup=adapter-service},1651370503,9876561
{consumergroup=adapter-service},1651370508,11226469
{consumergroup=adapter-service},1651370513,11226469
{consumergroup=adapter-service},1651370518,11226469
{consumergroup=adapter-service},1651370523,12628707
{consumergroup=adapter-service},1651370528,12628707
{consumergroup=adapter-service},1651370533,12628707
{consumergroup=adapter-service},1651370538,14319331
{consumergroup=adapter-service},1651370543,14319331
{consumergroup=adapter-service},1651370548,14319331
{consumergroup=adapter-service},1651370553,15657759
{consumergroup=adapter-service},1651370558,15657759
{consumergroup=adapter-service},1651370563,15657759
{consumergroup=adapter-service},1651370568,17339141
{consumergroup=adapter-service},1651370573,17339141
{consumergroup=adapter-service},1651370578,17339141
{consumergroup=adapter-service},1651370583,18700208
{consumergroup=adapter-service},1651370588,18700208
{consumergroup=adapter-service},1651370593,18700208
{consumergroup=adapter-service},1651370598,20405794
{consumergroup=adapter-service},1651370603,20405794
{consumergroup=adapter-service},1651370608,20405794
{consumergroup=adapter-service},1651370613,21785952
{consumergroup=adapter-service},1651370618,21785952
{consumergroup=adapter-service},1651370623,21785952
{consumergroup=adapter-service},1651370628,23428475
{consumergroup=adapter-service},1651370633,23428475
{consumergroup=adapter-service},1651370638,23428475
