labels,timestamp,value
{consumergroup=__strimzi-topic-operator-kstreams},1651270397,3
{consumergroup=__strimzi-topic-operator-kstreams},1651270402,3
{consumergroup=__strimzi-topic-operator-kstreams},1651270407,3
{consumergroup=__strimzi-topic-operator-kstreams},1651270412,8
{consumergroup=__strimzi-topic-operator-kstreams},1651270417,8
{consumergroup=__strimzi-topic-operator-kstreams},1651270422,8
{consumergroup=__strimzi-topic-operator-kstreams},1651270427,11
{consumergroup=__strimzi-topic-operator-kstreams},1651270432,11
{consumergroup=__strimzi-topic-operator-kstreams},1651270437,11
{consumergroup=__strimzi-topic-operator-kstreams},1651270442,0
{consumergroup=__strimzi-topic-operator-kstreams},1651270447,0
{consumergroup=__strimzi-topic-operator-kstreams},1651270452,0
{consumergroup=__strimzi-topic-operator-kstreams},1651270457,0
{consumergroup=__strimzi-topic-operator-kstreams},1651270462,0
{consumergroup=__strimzi-topic-operator-kstreams},1651270467,0
{consumergroup=__strimzi-topic-operator-kstreams},1651270472,0
{consumergroup=__strimzi-topic-operator-kstreams},1651270477,0
{consumergroup=__strimzi-topic-operator-kstreams},1651270482,0
{consumergroup=__strimzi-topic-operator-kstreams},1651270487,0
{consumergroup=__strimzi-topic-operator-kstreams},1651270492,0
{consumergroup=__strimzi-topic-operator-kstreams},1651270497,0
{consumergroup=__strimzi-topic-operator-kstreams},1651270502,0
{consumergroup=__strimzi-topic-operator-kstreams},1651270507,0
{consumergroup=__strimzi-topic-operator-kstreams},1651270512,0
{consumergroup=__strimzi-topic-operator-kstreams},1651270517,0
{consumergroup=__strimzi-topic-operator-kstreams},1651270522,0
{consumergroup=__strimzi-topic-operator-kstreams},1651270527,0
{consumergroup=__strimzi-topic-operator-kstreams},1651270532,0
{consumergroup=__strimzi-topic-operator-kstreams},1651270537,0
{consumergroup=__strimzi-topic-operator-kstreams},1651270542,0
{consumergroup=__strimzi-topic-operator-kstreams},1651270547,0
{consumergroup=__strimzi-topic-operator-kstreams},1651270552,0
{consumergroup=__strimzi-topic-operator-kstreams},1651270557,0
{consumergroup=__strimzi-topic-operator-kstreams},1651270562,0
{consumergroup=__strimzi-topic-operator-kstreams},1651270567,0
{consumergroup=__strimzi-topic-operator-kstreams},1651270572,0
{consumergroup=__strimzi-topic-operator-kstreams},1651270577,0
{consumergroup=__strimzi-topic-operator-kstreams},1651270582,0
{consumergroup=__strimzi-topic-operator-kstreams},1651270587,0
{consumergroup=__strimzi-topic-operator-kstreams},1651270592,0
{consumergroup=__strimzi-topic-operator-kstreams},1651270597,0
{consumergroup=__strimzi-topic-operator-kstreams},1651270602,0
{consumergroup=__strimzi-topic-operator-kstreams},1651270607,0
{consumergroup=__strimzi-topic-operator-kstreams},1651270612,0
{consumergroup=__strimzi-topic-operator-kstreams},1651270617,0
{consumergroup=__strimzi-topic-operator-kstreams},1651270622,0
{consumergroup=__strimzi-topic-operator-kstreams},1651270627,0
{consumergroup=__strimzi-topic-operator-kstreams},1651270632,0
{consumergroup=__strimzi-topic-operator-kstreams},1651270637,0
{consumergroup=__strimzi-topic-operator-kstreams},1651270642,0
{consumergroup=__strimzi-topic-operator-kstreams},1651270647,0
{consumergroup=__strimzi-topic-operator-kstreams},1651270652,0
{consumergroup=__strimzi-topic-operator-kstreams},1651270657,0
{consumergroup=__strimzi-topic-operator-kstreams},1651270662,0
{consumergroup=__strimzi-topic-operator-kstreams},1651270667,0
{consumergroup=__strimzi-topic-operator-kstreams},1651270672,0
{consumergroup=__strimzi-topic-operator-kstreams},1651270677,0
{consumergroup=__strimzi-topic-operator-kstreams},1651270682,0
{consumergroup=__strimzi-topic-operator-kstreams},1651270687,0
{consumergroup=__strimzi-topic-operator-kstreams},1651270692,0
{consumergroup=__strimzi-topic-operator-kstreams},1651270697,0
{consumergroup=__strimzi-topic-operator-kstreams},1651270702,0
{consumergroup=__strimzi-topic-operator-kstreams},1651270707,0
{consumergroup=__strimzi-topic-operator-kstreams},1651270712,0
{consumergroup=__strimzi-topic-operator-kstreams},1651270717,0
{consumergroup=__strimzi-topic-operator-kstreams},1651270722,0
{consumergroup=__strimzi-topic-operator-kstreams},1651270727,0
{consumergroup=__strimzi-topic-operator-kstreams},1651270732,0
{consumergroup=__strimzi-topic-operator-kstreams},1651270737,0
{consumergroup=__strimzi-topic-operator-kstreams},1651270742,0
{consumergroup=__strimzi-topic-operator-kstreams},1651270747,0
{consumergroup=__strimzi-topic-operator-kstreams},1651270752,0
{consumergroup=__strimzi-topic-operator-kstreams},1651270757,0
{consumergroup=__strimzi-topic-operator-kstreams},1651270762,0
{consumergroup=__strimzi-topic-operator-kstreams},1651270767,0
{consumergroup=__strimzi-topic-operator-kstreams},1651270772,0
{consumergroup=__strimzi-topic-operator-kstreams},1651270777,0
{consumergroup=__strimzi-topic-operator-kstreams},1651270782,0
{consumergroup=__strimzi-topic-operator-kstreams},1651270787,0
{consumergroup=__strimzi-topic-operator-kstreams},1651270792,0
{consumergroup=__strimzi-topic-operator-kstreams},1651270797,0
{consumergroup=__strimzi-topic-operator-kstreams},1651270802,0
{consumergroup=__strimzi-topic-operator-kstreams},1651270807,0
{consumergroup=__strimzi-topic-operator-kstreams},1651270812,0
{consumergroup=__strimzi-topic-operator-kstreams},1651270817,0
{consumergroup=__strimzi-topic-operator-kstreams},1651270822,0
{consumergroup=__strimzi-topic-operator-kstreams},1651270827,0
{consumergroup=__strimzi-topic-operator-kstreams},1651270832,0
{consumergroup=__strimzi-topic-operator-kstreams},1651270837,0
{consumergroup=__strimzi-topic-operator-kstreams},1651270842,0
{consumergroup=__strimzi-topic-operator-kstreams},1651270847,0
{consumergroup=__strimzi-topic-operator-kstreams},1651270852,0
{consumergroup=__strimzi-topic-operator-kstreams},1651270857,0
{consumergroup=__strimzi-topic-operator-kstreams},1651270862,0
{consumergroup=__strimzi-topic-operator-kstreams},1651270867,0
{consumergroup=__strimzi-topic-operator-kstreams},1651270872,0
{consumergroup=__strimzi-topic-operator-kstreams},1651270877,0
{consumergroup=__strimzi-topic-operator-kstreams},1651270882,0
{consumergroup=__strimzi-topic-operator-kstreams},1651270887,0
{consumergroup=__strimzi-topic-operator-kstreams},1651270892,0
{consumergroup=__strimzi-topic-operator-kstreams},1651270897,0
{consumergroup=__strimzi-topic-operator-kstreams},1651270902,0
{consumergroup=__strimzi-topic-operator-kstreams},1651270907,0
{consumergroup=adapter-service},1651270442,0
{consumergroup=adapter-service},1651270447,0
{consumergroup=adapter-service},1651270452,0
{consumergroup=adapter-service},1651270457,14919
{consumergroup=adapter-service},1651270462,14919
{consumergroup=adapter-service},1651270467,14919
{consumergroup=adapter-service},1651270472,490
{consumergroup=adapter-service},1651270477,490
{consumergroup=adapter-service},1651270482,490
{consumergroup=adapter-service},1651270487,4553
{consumergroup=adapter-service},1651270492,4553
{consumergroup=adapter-service},1651270497,4553
{consumergroup=adapter-service},1651270502,8315
{consumergroup=adapter-service},1651270507,8315
{consumergroup=adapter-service},1651270512,8315
{consumergroup=adapter-service},1651270517,7382
{consumergroup=adapter-service},1651270522,7382
{consumergroup=adapter-service},1651270527,7382
{consumergroup=adapter-service},1651270532,6440
{consumergroup=adapter-service},1651270537,6440
{consumergroup=adapter-service},1651270542,6440
{consumergroup=adapter-service},1651270547,5519
{consumergroup=adapter-service},1651270552,5519
{consumergroup=adapter-service},1651270557,5519
{consumergroup=adapter-service},1651270562,4575
{consumergroup=adapter-service},1651270567,4575
{consumergroup=adapter-service},1651270572,4575
{consumergroup=adapter-service},1651270577,4132
{consumergroup=adapter-service},1651270582,4132
{consumergroup=adapter-service},1651270587,4132
{consumergroup=adapter-service},1651270592,3640
{consumergroup=adapter-service},1651270597,3640
{consumergroup=adapter-service},1651270602,3640
{consumergroup=adapter-service},1651270607,3172
{consumergroup=adapter-service},1651270612,3172
{consumergroup=adapter-service},1651270617,3172
{consumergroup=adapter-service},1651270622,3153
{consumergroup=adapter-service},1651270627,3153
{consumergroup=adapter-service},1651270632,3153
{consumergroup=adapter-service},1651270637,2130
{consumergroup=adapter-service},1651270642,2130
{consumergroup=adapter-service},1651270647,2130
{consumergroup=adapter-service},1651270652,4207
{consumergroup=adapter-service},1651270657,4207
{consumergroup=adapter-service},1651270662,4207
{consumergroup=adapter-service},1651270667,1803
{consumergroup=adapter-service},1651270672,1803
{consumergroup=adapter-service},1651270677,1803
{consumergroup=adapter-service},1651270682,822
{consumergroup=adapter-service},1651270687,822
{consumergroup=adapter-service},1651270692,822
{consumergroup=adapter-service},1651270697,664
{consumergroup=adapter-service},1651270702,664
{consumergroup=adapter-service},1651270707,664
{consumergroup=adapter-service},1651270712,8579
{consumergroup=adapter-service},1651270717,8579
{consumergroup=adapter-service},1651270722,8579
{consumergroup=adapter-service},1651270727,4674
{consumergroup=adapter-service},1651270732,4674
{consumergroup=adapter-service},1651270737,4674
{consumergroup=adapter-service},1651270742,4558
{consumergroup=adapter-service},1651270747,4558
{consumergroup=adapter-service},1651270752,4558
{consumergroup=adapter-service},1651270757,8836
{consumergroup=adapter-service},1651270762,8836
{consumergroup=adapter-service},1651270767,8836
{consumergroup=adapter-service},1651270772,8288
{consumergroup=adapter-service},1651270777,8288
{consumergroup=adapter-service},1651270782,8288
{consumergroup=adapter-service},1651270787,7944
{consumergroup=adapter-service},1651270792,7944
{consumergroup=adapter-service},1651270797,7944
{consumergroup=adapter-service},1651270802,7468
{consumergroup=adapter-service},1651270807,7468
{consumergroup=adapter-service},1651270812,7468
{consumergroup=adapter-service},1651270817,7225
{consumergroup=adapter-service},1651270822,7225
{consumergroup=adapter-service},1651270827,7225
{consumergroup=adapter-service},1651270832,6588
{consumergroup=adapter-service},1651270837,6588
{consumergroup=adapter-service},1651270842,6588
{consumergroup=adapter-service},1651270847,6171
{consumergroup=adapter-service},1651270852,6171
{consumergroup=adapter-service},1651270857,6171
{consumergroup=adapter-service},1651270862,6447
{consumergroup=adapter-service},1651270867,6447
{consumergroup=adapter-service},1651270872,6447
{consumergroup=adapter-service},1651270877,5398
{consumergroup=adapter-service},1651270882,5398
{consumergroup=adapter-service},1651270887,5398
{consumergroup=adapter-service},1651270892,4902
{consumergroup=adapter-service},1651270897,4902
{consumergroup=adapter-service},1651270902,4902
{consumergroup=adapter-service},1651270907,4502
{consumergroup=landscape-service},1651270457,5479
{consumergroup=landscape-service},1651270462,5479
{consumergroup=landscape-service},1651270467,5479
{consumergroup=landscape-service},1651270472,2884
{consumergroup=landscape-service},1651270477,2884
{consumergroup=landscape-service},1651270482,2884
{consumergroup=landscape-service},1651270487,2964
{consumergroup=landscape-service},1651270492,2964
{consumergroup=landscape-service},1651270497,2964
{consumergroup=landscape-service},1651270502,3114
{consumergroup=landscape-service},1651270507,3114
{consumergroup=landscape-service},1651270512,3114
{consumergroup=landscape-service},1651270517,3018
{consumergroup=landscape-service},1651270522,3018
{consumergroup=landscape-service},1651270527,3018
{consumergroup=landscape-service},1651270532,2047
{consumergroup=landscape-service},1651270537,2047
{consumergroup=landscape-service},1651270542,2047
{consumergroup=landscape-service},1651270547,1945
{consumergroup=landscape-service},1651270552,1945
{consumergroup=landscape-service},1651270557,1945
{consumergroup=landscape-service},1651270562,2135
{consumergroup=landscape-service},1651270567,2135
{consumergroup=landscape-service},1651270572,2135
{consumergroup=landscape-service},1651270577,1708
{consumergroup=landscape-service},1651270582,1708
{consumergroup=landscape-service},1651270587,1708
{consumergroup=landscape-service},1651270592,1526
{consumergroup=landscape-service},1651270597,1526
{consumergroup=landscape-service},1651270602,1526
{consumergroup=landscape-service},1651270607,1159
{consumergroup=landscape-service},1651270612,1159
{consumergroup=landscape-service},1651270617,1159
{consumergroup=landscape-service},1651270622,976
{consumergroup=landscape-service},1651270627,976
{consumergroup=landscape-service},1651270632,976
{consumergroup=landscape-service},1651270637,793
{consumergroup=landscape-service},1651270642,793
{consumergroup=landscape-service},1651270647,793
{consumergroup=landscape-service},1651270652,2688
{consumergroup=landscape-service},1651270657,2688
{consumergroup=landscape-service},1651270662,2688
{consumergroup=landscape-service},1651270667,1086
{consumergroup=landscape-service},1651270672,1086
{consumergroup=landscape-service},1651270677,1086
{consumergroup=landscape-service},1651270682,937
{consumergroup=landscape-service},1651270687,937
{consumergroup=landscape-service},1651270692,937
{consumergroup=landscape-service},1651270697,427
{consumergroup=landscape-service},1651270702,427
{consumergroup=landscape-service},1651270707,427
{consumergroup=landscape-service},1651270712,9286
{consumergroup=landscape-service},1651270717,9286
{consumergroup=landscape-service},1651270722,9286
{consumergroup=landscape-service},1651270727,121
{consumergroup=landscape-service},1651270732,121
{consumergroup=landscape-service},1651270737,121
{consumergroup=landscape-service},1651270817,9688
{consumergroup=landscape-service},1651270822,9688
{consumergroup=landscape-service},1651270827,9688
{consumergroup=landscape-service},1651270832,9544
{consumergroup=landscape-service},1651270837,9544
{consumergroup=landscape-service},1651270842,9544
{consumergroup=landscape-service},1651270847,9448
{consumergroup=landscape-service},1651270852,9448
{consumergroup=landscape-service},1651270857,9448
{consumergroup=landscape-service},1651270862,9285
{consumergroup=landscape-service},1651270867,9285
{consumergroup=landscape-service},1651270872,9285
{consumergroup=landscape-service},1651270877,9181
{consumergroup=landscape-service},1651270882,9181
{consumergroup=landscape-service},1651270887,9181
{consumergroup=landscape-service},1651270892,8981
{consumergroup=landscape-service},1651270897,8981
{consumergroup=landscape-service},1651270902,8981
{consumergroup=landscape-service},1651270907,8806
{consumergroup=trace-service},1651270442,0
{consumergroup=trace-service},1651270447,0
{consumergroup=trace-service},1651270452,0
{consumergroup=trace-service},1651270457,26369
{consumergroup=trace-service},1651270462,26369
{consumergroup=trace-service},1651270467,26369
{consumergroup=trace-service},1651270472,21641
{consumergroup=trace-service},1651270477,21641
{consumergroup=trace-service},1651270482,21641
{consumergroup=trace-service},1651270487,28280
{consumergroup=trace-service},1651270492,28280
{consumergroup=trace-service},1651270497,28280
{consumergroup=trace-service},1651270502,16425
{consumergroup=trace-service},1651270507,16425
{consumergroup=trace-service},1651270512,16425
{consumergroup=trace-service},1651270517,26181
{consumergroup=trace-service},1651270522,26181
{consumergroup=trace-service},1651270527,26181
{consumergroup=trace-service},1651270532,12873
{consumergroup=trace-service},1651270537,12873
{consumergroup=trace-service},1651270542,12873
{consumergroup=trace-service},1651270547,33279
{consumergroup=trace-service},1651270552,33279
{consumergroup=trace-service},1651270557,33279
{consumergroup=trace-service},1651270562,13122
{consumergroup=trace-service},1651270567,13122
{consumergroup=trace-service},1651270572,13122
{consumergroup=trace-service},1651270577,25363
{consumergroup=trace-service},1651270582,25363
{consumergroup=trace-service},1651270587,25363
{consumergroup=trace-service},1651270592,11160
{consumergroup=trace-service},1651270597,11160
{consumergroup=trace-service},1651270602,11160
{consumergroup=trace-service},1651270607,25804
{consumergroup=trace-service},1651270612,25804
{consumergroup=trace-service},1651270617,25804
{consumergroup=trace-service},1651270622,13548
{consumergroup=trace-service},1651270627,13548
{consumergroup=trace-service},1651270632,13548
{consumergroup=trace-service},1651270637,25150
{consumergroup=trace-service},1651270642,25150
{consumergroup=trace-service},1651270647,25150
{consumergroup=trace-service},1651270652,13671
{consumergroup=trace-service},1651270657,13671
{consumergroup=trace-service},1651270662,13671
{consumergroup=trace-service},1651270667,28457
{consumergroup=trace-service},1651270672,28457
{consumergroup=trace-service},1651270677,28457
{consumergroup=trace-service},1651270682,14900
{consumergroup=trace-service},1651270687,14900
{consumergroup=trace-service},1651270692,14900
{consumergroup=trace-service},1651270697,24924
{consumergroup=trace-service},1651270702,24924
{consumergroup=trace-service},1651270707,24924
{consumergroup=trace-service},1651270712,9013
{consumergroup=trace-service},1651270717,9013
{consumergroup=trace-service},1651270722,9013
{consumergroup=trace-service},1651270727,28555
{consumergroup=trace-service},1651270732,28555
{consumergroup=trace-service},1651270737,28555
{consumergroup=trace-service},1651270742,9398
{consumergroup=trace-service},1651270747,9398
{consumergroup=trace-service},1651270752,9398
{consumergroup=trace-service},1651270757,24372
{consumergroup=trace-service},1651270762,24372
{consumergroup=trace-service},1651270767,24372
{consumergroup=trace-service},1651270772,6572
{consumergroup=trace-service},1651270777,6572
{consumergroup=trace-service},1651270782,6572
{consumergroup=trace-service},1651270787,24367
{consumergroup=trace-service},1651270792,24367
{consumergroup=trace-service},1651270797,24367
{consumergroup=trace-service},1651270802,6490
{consumergroup=trace-service},1651270807,6490
{consumergroup=trace-service},1651270812,6490
{consumergroup=trace-service},1651270817,31537
{consumergroup=trace-service},1651270822,31537
{consumergroup=trace-service},1651270827,31537
{consumergroup=trace-service},1651270832,8979
{consumergroup=trace-service},1651270837,8979
{consumergroup=trace-service},1651270842,8979
{consumergroup=trace-service},1651270847,25194
{consumergroup=trace-service},1651270852,25194
{consumergroup=trace-service},1651270857,25194
{consumergroup=trace-service},1651270862,4621
{consumergroup=trace-service},1651270867,4621
{consumergroup=trace-service},1651270872,4621
{consumergroup=trace-service},1651270877,24120
{consumergroup=trace-service},1651270882,24120
{consumergroup=trace-service},1651270887,24120
{consumergroup=trace-service},1651270892,6998
{consumergroup=trace-service},1651270897,6998
{consumergroup=trace-service},1651270902,6998
{consumergroup=trace-service},1651270907,26060
{consumergroup=trace-token-events-consumer},1651270427,0
{consumergroup=trace-token-events-consumer},1651270432,0
{consumergroup=trace-token-events-consumer},1651270437,0
{consumergroup=trace-token-events-consumer},1651270442,0
{consumergroup=trace-token-events-consumer},1651270447,0
{consumergroup=trace-token-events-consumer},1651270452,0
{consumergroup=trace-token-events-consumer},1651270457,0
{consumergroup=trace-token-events-consumer},1651270462,0
{consumergroup=trace-token-events-consumer},1651270467,0
{consumergroup=trace-token-events-consumer},1651270472,0
{consumergroup=trace-token-events-consumer},1651270477,0
{consumergroup=trace-token-events-consumer},1651270482,0
{consumergroup=trace-token-events-consumer},1651270487,0
{consumergroup=trace-token-events-consumer},1651270492,0
{consumergroup=trace-token-events-consumer},1651270497,0
{consumergroup=trace-token-events-consumer},1651270502,0
{consumergroup=trace-token-events-consumer},1651270507,0
{consumergroup=trace-token-events-consumer},1651270512,0
{consumergroup=trace-token-events-consumer},1651270517,0
{consumergroup=trace-token-events-consumer},1651270522,0
{consumergroup=trace-token-events-consumer},1651270527,0
{consumergroup=trace-token-events-consumer},1651270532,0
{consumergroup=trace-token-events-consumer},1651270537,0
{consumergroup=trace-token-events-consumer},1651270542,0
{consumergroup=trace-token-events-consumer},1651270547,0
{consumergroup=trace-token-events-consumer},1651270552,0
{consumergroup=trace-token-events-consumer},1651270557,0
{consumergroup=trace-token-events-consumer},1651270562,0
{consumergroup=trace-token-events-consumer},1651270567,0
{consumergroup=trace-token-events-consumer},1651270572,0
{consumergroup=trace-token-events-consumer},1651270577,0
{consumergroup=trace-token-events-consumer},1651270582,0
{consumergroup=trace-token-events-consumer},1651270587,0
{consumergroup=trace-token-events-consumer},1651270592,0
{consumergroup=trace-token-events-consumer},1651270597,0
{consumergroup=trace-token-events-consumer},1651270602,0
{consumergroup=trace-token-events-consumer},1651270607,0
{consumergroup=trace-token-events-consumer},1651270612,0
{consumergroup=trace-token-events-consumer},1651270617,0
{consumergroup=trace-token-events-consumer},1651270622,0
{consumergroup=trace-token-events-consumer},1651270627,0
{consumergroup=trace-token-events-consumer},1651270632,0
{consumergroup=trace-token-events-consumer},1651270637,0
{consumergroup=trace-token-events-consumer},1651270642,0
{consumergroup=trace-token-events-consumer},1651270647,0
{consumergroup=trace-token-events-consumer},1651270652,0
{consumergroup=trace-token-events-consumer},1651270657,0
{consumergroup=trace-token-events-consumer},1651270662,0
{consumergroup=trace-token-events-consumer},1651270667,0
{consumergroup=trace-token-events-consumer},1651270672,0
{consumergroup=trace-token-events-consumer},1651270677,0
{consumergroup=trace-token-events-consumer},1651270682,0
{consumergroup=trace-token-events-consumer},1651270687,0
{consumergroup=trace-token-events-consumer},1651270692,0
{consumergroup=trace-token-events-consumer},1651270697,0
{consumergroup=trace-token-events-consumer},1651270702,0
{consumergroup=trace-token-events-consumer},1651270707,0
{consumergroup=trace-token-events-consumer},1651270712,0
{consumergroup=trace-token-events-consumer},1651270717,0
{consumergroup=trace-token-events-consumer},1651270722,0
{consumergroup=trace-token-events-consumer},1651270727,0
{consumergroup=trace-token-events-consumer},1651270732,0
{consumergroup=trace-token-events-consumer},1651270737,0
{consumergroup=trace-token-events-consumer},1651270742,0
{consumergroup=trace-token-events-consumer},1651270747,0
{consumergroup=trace-token-events-consumer},1651270752,0
{consumergroup=trace-token-events-consumer},1651270757,0
{consumergroup=trace-token-events-consumer},1651270762,0
{consumergroup=trace-token-events-consumer},1651270767,0
{consumergroup=trace-token-events-consumer},1651270772,0
{consumergroup=trace-token-events-consumer},1651270777,0
{consumergroup=trace-token-events-consumer},1651270782,0
{consumergroup=trace-token-events-consumer},1651270787,0
{consumergroup=trace-token-events-consumer},1651270792,0
{consumergroup=trace-token-events-consumer},1651270797,0
{consumergroup=trace-token-events-consumer},1651270802,0
{consumergroup=trace-token-events-consumer},1651270807,0
{consumergroup=trace-token-events-consumer},1651270812,0
{consumergroup=trace-token-events-consumer},1651270817,0
{consumergroup=trace-token-events-consumer},1651270822,0
{consumergroup=trace-token-events-consumer},1651270827,0
{consumergroup=trace-token-events-consumer},1651270832,0
{consumergroup=trace-token-events-consumer},1651270837,0
{consumergroup=trace-token-events-consumer},1651270842,0
{consumergroup=trace-token-events-consumer},1651270847,0
{consumergroup=trace-token-events-consumer},1651270852,0
{consumergroup=trace-token-events-consumer},1651270857,0
{consumergroup=trace-token-events-consumer},1651270862,0
{consumergroup=trace-token-events-consumer},1651270867,0
{consumergroup=trace-token-events-consumer},1651270872,0
{consumergroup=trace-token-events-consumer},1651270877,0
{consumergroup=trace-token-events-consumer},1651270882,0
{consumergroup=trace-token-events-consumer},1651270887,0
{consumergroup=trace-token-events-consumer},1651270892,0
{consumergroup=trace-token-events-consumer},1651270897,0
{consumergroup=trace-token-events-consumer},1651270902,0
{consumergroup=trace-token-events-consumer},1651270907,0
