labels,timestamp,value
{consumergroup=__strimzi-topic-operator-kstreams},1651353173,7
{consumergroup=__strimzi-topic-operator-kstreams},1651353178,7
{consumergroup=__strimzi-topic-operator-kstreams},1651353183,7
{consumergroup=__strimzi-topic-operator-kstreams},1651353188,0
{consumergroup=__strimzi-topic-operator-kstreams},1651353193,0
{consumergroup=__strimzi-topic-operator-kstreams},1651353198,0
{consumergroup=__strimzi-topic-operator-kstreams},1651353203,0
{consumergroup=__strimzi-topic-operator-kstreams},1651353208,0
{consumergroup=__strimzi-topic-operator-kstreams},1651353213,0
{consumergroup=__strimzi-topic-operator-kstreams},1651353218,0
{consumergroup=__strimzi-topic-operator-kstreams},1651353223,0
{consumergroup=__strimzi-topic-operator-kstreams},1651353228,0
{consumergroup=__strimzi-topic-operator-kstreams},1651353233,0
{consumergroup=__strimzi-topic-operator-kstreams},1651353238,0
{consumergroup=__strimzi-topic-operator-kstreams},1651353243,0
{consumergroup=__strimzi-topic-operator-kstreams},1651353248,0
{consumergroup=__strimzi-topic-operator-kstreams},1651353253,0
{consumergroup=__strimzi-topic-operator-kstreams},1651353258,0
{consumergroup=__strimzi-topic-operator-kstreams},1651353263,0
{consumergroup=__strimzi-topic-operator-kstreams},1651353268,0
{consumergroup=__strimzi-topic-operator-kstreams},1651353273,0
{consumergroup=__strimzi-topic-operator-kstreams},1651353278,0
{consumergroup=__strimzi-topic-operator-kstreams},1651353283,0
{consumergroup=__strimzi-topic-operator-kstreams},1651353288,0
{consumergroup=__strimzi-topic-operator-kstreams},1651353293,0
{consumergroup=__strimzi-topic-operator-kstreams},1651353298,0
{consumergroup=__strimzi-topic-operator-kstreams},1651353303,0
{consumergroup=__strimzi-topic-operator-kstreams},1651353308,0
{consumergroup=__strimzi-topic-operator-kstreams},1651353313,0
{consumergroup=__strimzi-topic-operator-kstreams},1651353318,0
{consumergroup=__strimzi-topic-operator-kstreams},1651353323,0
{consumergroup=__strimzi-topic-operator-kstreams},1651353328,0
{consumergroup=__strimzi-topic-operator-kstreams},1651353333,0
{consumergroup=__strimzi-topic-operator-kstreams},1651353338,0
{consumergroup=__strimzi-topic-operator-kstreams},1651353343,0
{consumergroup=__strimzi-topic-operator-kstreams},1651353348,0
{consumergroup=__strimzi-topic-operator-kstreams},1651353353,0
{consumergroup=__strimzi-topic-operator-kstreams},1651353358,0
{consumergroup=__strimzi-topic-operator-kstreams},1651353363,0
{consumergroup=__strimzi-topic-operator-kstreams},1651353368,0
{consumergroup=__strimzi-topic-operator-kstreams},1651353373,0
{consumergroup=__strimzi-topic-operator-kstreams},1651353378,0
{consumergroup=__strimzi-topic-operator-kstreams},1651353383,0
{consumergroup=__strimzi-topic-operator-kstreams},1651353388,0
{consumergroup=__strimzi-topic-operator-kstreams},1651353393,0
{consumergroup=__strimzi-topic-operator-kstreams},1651353398,0
{consumergroup=__strimzi-topic-operator-kstreams},1651353403,0
{consumergroup=__strimzi-topic-operator-kstreams},1651353408,0
{consumergroup=__strimzi-topic-operator-kstreams},1651353413,0
{consumergroup=__strimzi-topic-operator-kstreams},1651353418,0
{consumergroup=__strimzi-topic-operator-kstreams},1651353423,0
{consumergroup=__strimzi-topic-operator-kstreams},1651353428,0
{consumergroup=adapter-service},1651353218,896078
{consumergroup=adapter-service},1651353223,896078
{consumergroup=adapter-service},1651353228,896078
{consumergroup=adapter-service},1651353233,761524
{consumergroup=adapter-service},1651353238,761524
{consumergroup=adapter-service},1651353243,761524
{consumergroup=adapter-service},1651353248,609158
{consumergroup=adapter-service},1651353253,609158
{consumergroup=adapter-service},1651353258,609158
{consumergroup=adapter-service},1651353263,321584
{consumergroup=adapter-service},1651353268,321584
{consumergroup=adapter-service},1651353273,321584
{consumergroup=adapter-service},1651353278,501786
{consumergroup=adapter-service},1651353283,501786
{consumergroup=adapter-service},1651353288,501786
{consumergroup=adapter-service},1651353293,440223
{consumergroup=adapter-service},1651353298,440223
{consumergroup=adapter-service},1651353303,440223
{consumergroup=adapter-service},1651353308,388756
{consumergroup=adapter-service},1651353313,388756
{consumergroup=adapter-service},1651353318,388756
{consumergroup=adapter-service},1651353323,246843
{consumergroup=adapter-service},1651353328,246843
{consumergroup=adapter-service},1651353333,246843
{consumergroup=adapter-service},1651353338,249568
{consumergroup=adapter-service},1651353343,249568
{consumergroup=adapter-service},1651353348,249568
{consumergroup=adapter-service},1651353353,386732
{consumergroup=adapter-service},1651353358,386732
{consumergroup=adapter-service},1651353363,386732
{consumergroup=adapter-service},1651353368,347177
{consumergroup=adapter-service},1651353373,347177
{consumergroup=adapter-service},1651353378,347177
{consumergroup=adapter-service},1651353383,24593
{consumergroup=adapter-service},1651353388,24593
{consumergroup=adapter-service},1651353393,24593
{consumergroup=adapter-service},1651353398,125409
{consumergroup=adapter-service},1651353403,125409
{consumergroup=adapter-service},1651353408,125409
{consumergroup=adapter-service},1651353413,181310
{consumergroup=adapter-service},1651353418,181310
{consumergroup=adapter-service},1651353423,181310
{consumergroup=adapter-service},1651353428,247516
