labels,timestamp,value
{consumergroup=__strimzi-topic-operator-kstreams},1651422936,16
{consumergroup=__strimzi-topic-operator-kstreams},1651422941,16
{consumergroup=__strimzi-topic-operator-kstreams},1651422946,16
{consumergroup=__strimzi-topic-operator-kstreams},1651422951,0
{consumergroup=__strimzi-topic-operator-kstreams},1651422956,0
{consumergroup=__strimzi-topic-operator-kstreams},1651422961,0
{consumergroup=__strimzi-topic-operator-kstreams},1651422966,0
{consumergroup=__strimzi-topic-operator-kstreams},1651422971,0
{consumergroup=__strimzi-topic-operator-kstreams},1651422976,0
{consumergroup=__strimzi-topic-operator-kstreams},1651422981,0
{consumergroup=__strimzi-topic-operator-kstreams},1651422986,0
{consumergroup=__strimzi-topic-operator-kstreams},1651422991,0
{consumergroup=__strimzi-topic-operator-kstreams},1651422996,0
{consumergroup=__strimzi-topic-operator-kstreams},1651423001,0
{consumergroup=__strimzi-topic-operator-kstreams},1651423006,0
{consumergroup=__strimzi-topic-operator-kstreams},1651423011,0
{consumergroup=__strimzi-topic-operator-kstreams},1651423016,0
{consumergroup=__strimzi-topic-operator-kstreams},1651423021,0
{consumergroup=__strimzi-topic-operator-kstreams},1651423026,0
{consumergroup=__strimzi-topic-operator-kstreams},1651423031,0
{consumergroup=__strimzi-topic-operator-kstreams},1651423036,0
{consumergroup=__strimzi-topic-operator-kstreams},1651423041,0
{consumergroup=__strimzi-topic-operator-kstreams},1651423046,0
{consumergroup=__strimzi-topic-operator-kstreams},1651423051,0
{consumergroup=__strimzi-topic-operator-kstreams},1651423056,0
{consumergroup=__strimzi-topic-operator-kstreams},1651423061,0
{consumergroup=__strimzi-topic-operator-kstreams},1651423066,0
{consumergroup=__strimzi-topic-operator-kstreams},1651423071,0
{consumergroup=__strimzi-topic-operator-kstreams},1651423076,0
{consumergroup=__strimzi-topic-operator-kstreams},1651423081,0
{consumergroup=__strimzi-topic-operator-kstreams},1651423086,0
{consumergroup=__strimzi-topic-operator-kstreams},1651423091,0
{consumergroup=__strimzi-topic-operator-kstreams},1651423096,0
{consumergroup=__strimzi-topic-operator-kstreams},1651423101,0
{consumergroup=__strimzi-topic-operator-kstreams},1651423106,0
{consumergroup=__strimzi-topic-operator-kstreams},1651423111,0
{consumergroup=__strimzi-topic-operator-kstreams},1651423116,0
{consumergroup=__strimzi-topic-operator-kstreams},1651423121,0
{consumergroup=__strimzi-topic-operator-kstreams},1651423126,0
{consumergroup=__strimzi-topic-operator-kstreams},1651423131,0
{consumergroup=__strimzi-topic-operator-kstreams},1651423136,0
{consumergroup=__strimzi-topic-operator-kstreams},1651423141,0
{consumergroup=__strimzi-topic-operator-kstreams},1651423146,0
{consumergroup=__strimzi-topic-operator-kstreams},1651423151,0
{consumergroup=__strimzi-topic-operator-kstreams},1651423156,0
{consumergroup=__strimzi-topic-operator-kstreams},1651423161,0
{consumergroup=__strimzi-topic-operator-kstreams},1651423166,0
{consumergroup=__strimzi-topic-operator-kstreams},1651423171,0
{consumergroup=__strimzi-topic-operator-kstreams},1651423176,0
{consumergroup=__strimzi-topic-operator-kstreams},1651423181,0
{consumergroup=__strimzi-topic-operator-kstreams},1651423186,0
{consumergroup=__strimzi-topic-operator-kstreams},1651423191,0
{consumergroup=adapter-service},1651422966,7927
{consumergroup=adapter-service},1651422971,7927
{consumergroup=adapter-service},1651422976,7927
{consumergroup=adapter-service},1651422981,45628
{consumergroup=adapter-service},1651422986,45628
{consumergroup=adapter-service},1651422991,45628
{consumergroup=adapter-service},1651422996,24302
{consumergroup=adapter-service},1651423001,24302
{consumergroup=adapter-service},1651423006,24302
{consumergroup=adapter-service},1651423011,79038
{consumergroup=adapter-service},1651423016,79038
{consumergroup=adapter-service},1651423021,79038
{consumergroup=adapter-service},1651423026,87920
{consumergroup=adapter-service},1651423031,87920
{consumergroup=adapter-service},1651423036,87920
{consumergroup=adapter-service},1651423041,80606
{consumergroup=adapter-service},1651423046,80606
{consumergroup=adapter-service},1651423051,80606
{consumergroup=adapter-service},1651423056,77616
{consumergroup=adapter-service},1651423061,77616
{consumergroup=adapter-service},1651423066,77616
{consumergroup=adapter-service},1651423071,88517
{consumergroup=adapter-service},1651423076,88517
{consumergroup=adapter-service},1651423081,88517
{consumergroup=adapter-service},1651423086,51875
{consumergroup=adapter-service},1651423091,51875
{consumergroup=adapter-service},1651423096,51875
{consumergroup=adapter-service},1651423101,73580
{consumergroup=adapter-service},1651423106,73580
{consumergroup=adapter-service},1651423111,73580
{consumergroup=adapter-service},1651423116,69051
{consumergroup=adapter-service},1651423121,69051
{consumergroup=adapter-service},1651423126,69051
{consumergroup=adapter-service},1651423131,88566
{consumergroup=adapter-service},1651423136,88566
{consumergroup=adapter-service},1651423141,88566
{consumergroup=adapter-service},1651423146,66397
{consumergroup=adapter-service},1651423151,66397
{consumergroup=adapter-service},1651423156,66397
{consumergroup=adapter-service},1651423161,96429
{consumergroup=adapter-service},1651423166,96429
{consumergroup=adapter-service},1651423171,96429
{consumergroup=adapter-service},1651423176,71600
{consumergroup=adapter-service},1651423181,71600
{consumergroup=adapter-service},1651423186,71600
{consumergroup=adapter-service},1651423191,71391
