labels,timestamp,value
{consumergroup=__strimzi-topic-operator-kstreams},1651422638,20
{consumergroup=__strimzi-topic-operator-kstreams},1651422643,20
{consumergroup=__strimzi-topic-operator-kstreams},1651422648,20
{consumergroup=__strimzi-topic-operator-kstreams},1651422653,0
{consumergroup=__strimzi-topic-operator-kstreams},1651422658,0
{consumergroup=__strimzi-topic-operator-kstreams},1651422663,0
{consumergroup=__strimzi-topic-operator-kstreams},1651422668,0
{consumergroup=__strimzi-topic-operator-kstreams},1651422673,0
{consumergroup=__strimzi-topic-operator-kstreams},1651422678,0
{consumergroup=__strimzi-topic-operator-kstreams},1651422683,0
{consumergroup=__strimzi-topic-operator-kstreams},1651422688,0
{consumergroup=__strimzi-topic-operator-kstreams},1651422693,0
{consumergroup=__strimzi-topic-operator-kstreams},1651422698,0
{consumergroup=__strimzi-topic-operator-kstreams},1651422703,0
{consumergroup=__strimzi-topic-operator-kstreams},1651422708,0
{consumergroup=__strimzi-topic-operator-kstreams},1651422713,0
{consumergroup=__strimzi-topic-operator-kstreams},1651422718,0
{consumergroup=__strimzi-topic-operator-kstreams},1651422723,0
{consumergroup=__strimzi-topic-operator-kstreams},1651422728,0
{consumergroup=__strimzi-topic-operator-kstreams},1651422733,0
{consumergroup=__strimzi-topic-operator-kstreams},1651422738,0
{consumergroup=__strimzi-topic-operator-kstreams},1651422743,0
{consumergroup=__strimzi-topic-operator-kstreams},1651422748,0
{consumergroup=__strimzi-topic-operator-kstreams},1651422753,0
{consumergroup=__strimzi-topic-operator-kstreams},1651422758,0
{consumergroup=__strimzi-topic-operator-kstreams},1651422763,0
{consumergroup=__strimzi-topic-operator-kstreams},1651422768,0
{consumergroup=__strimzi-topic-operator-kstreams},1651422773,0
{consumergroup=__strimzi-topic-operator-kstreams},1651422778,0
{consumergroup=__strimzi-topic-operator-kstreams},1651422783,0
{consumergroup=__strimzi-topic-operator-kstreams},1651422788,0
{consumergroup=__strimzi-topic-operator-kstreams},1651422793,0
{consumergroup=__strimzi-topic-operator-kstreams},1651422798,0
{consumergroup=__strimzi-topic-operator-kstreams},1651422803,0
{consumergroup=__strimzi-topic-operator-kstreams},1651422808,0
{consumergroup=__strimzi-topic-operator-kstreams},1651422813,0
{consumergroup=__strimzi-topic-operator-kstreams},1651422818,0
{consumergroup=__strimzi-topic-operator-kstreams},1651422823,0
{consumergroup=__strimzi-topic-operator-kstreams},1651422828,0
{consumergroup=__strimzi-topic-operator-kstreams},1651422833,0
{consumergroup=__strimzi-topic-operator-kstreams},1651422838,0
{consumergroup=__strimzi-topic-operator-kstreams},1651422843,0
{consumergroup=__strimzi-topic-operator-kstreams},1651422848,0
{consumergroup=__strimzi-topic-operator-kstreams},1651422853,0
{consumergroup=__strimzi-topic-operator-kstreams},1651422858,0
{consumergroup=__strimzi-topic-operator-kstreams},1651422863,0
{consumergroup=__strimzi-topic-operator-kstreams},1651422868,0
{consumergroup=__strimzi-topic-operator-kstreams},1651422873,0
{consumergroup=__strimzi-topic-operator-kstreams},1651422878,0
{consumergroup=__strimzi-topic-operator-kstreams},1651422883,0
{consumergroup=adapter-service},1651422668,9860
{consumergroup=adapter-service},1651422673,9860
{consumergroup=adapter-service},1651422678,9860
{consumergroup=adapter-service},1651422683,114181
{consumergroup=adapter-service},1651422688,114181
{consumergroup=adapter-service},1651422693,114181
{consumergroup=adapter-service},1651422698,3660
{consumergroup=adapter-service},1651422703,3660
{consumergroup=adapter-service},1651422708,3660
{consumergroup=adapter-service},1651422713,103981
{consumergroup=adapter-service},1651422718,103981
{consumergroup=adapter-service},1651422723,103981
{consumergroup=adapter-service},1651422728,34515
{consumergroup=adapter-service},1651422733,34515
{consumergroup=adapter-service},1651422738,34515
{consumergroup=adapter-service},1651422743,96641
{consumergroup=adapter-service},1651422748,96641
{consumergroup=adapter-service},1651422753,96641
{consumergroup=adapter-service},1651422758,111324
{consumergroup=adapter-service},1651422763,111324
{consumergroup=adapter-service},1651422768,111324
{consumergroup=adapter-service},1651422773,86673
{consumergroup=adapter-service},1651422778,86673
{consumergroup=adapter-service},1651422783,86673
{consumergroup=adapter-service},1651422788,108084
{consumergroup=adapter-service},1651422793,108084
{consumergroup=adapter-service},1651422798,108084
{consumergroup=adapter-service},1651422803,86004
{consumergroup=adapter-service},1651422808,86004
{consumergroup=adapter-service},1651422813,86004
{consumergroup=adapter-service},1651422818,113654
{consumergroup=adapter-service},1651422823,113654
{consumergroup=adapter-service},1651422828,113654
{consumergroup=adapter-service},1651422833,82050
{consumergroup=adapter-service},1651422838,82050
{consumergroup=adapter-service},1651422843,82050
{consumergroup=adapter-service},1651422848,76453
{consumergroup=adapter-service},1651422853,76453
{consumergroup=adapter-service},1651422858,76453
{consumergroup=adapter-service},1651422863,64718
{consumergroup=adapter-service},1651422868,64718
{consumergroup=adapter-service},1651422873,64718
{consumergroup=adapter-service},1651422878,65803
{consumergroup=adapter-service},1651422883,65803
