labels,timestamp,value
{consumergroup=__strimzi-topic-operator-kstreams},1651385883,1
{consumergroup=__strimzi-topic-operator-kstreams},1651385888,1
{consumergroup=__strimzi-topic-operator-kstreams},1651385893,1
{consumergroup=__strimzi-topic-operator-kstreams},1651385898,1
{consumergroup=__strimzi-topic-operator-kstreams},1651385903,1
{consumergroup=__strimzi-topic-operator-kstreams},1651385908,1
{consumergroup=__strimzi-topic-operator-kstreams},1651385913,0
{consumergroup=__strimzi-topic-operator-kstreams},1651385918,0
{consumergroup=__strimzi-topic-operator-kstreams},1651385923,0
{consumergroup=__strimzi-topic-operator-kstreams},1651385928,0
{consumergroup=__strimzi-topic-operator-kstreams},1651385933,0
{consumergroup=__strimzi-topic-operator-kstreams},1651385938,0
{consumergroup=__strimzi-topic-operator-kstreams},1651385943,0
{consumergroup=__strimzi-topic-operator-kstreams},1651385948,0
{consumergroup=__strimzi-topic-operator-kstreams},1651385953,0
{consumergroup=__strimzi-topic-operator-kstreams},1651385958,0
{consumergroup=__strimzi-topic-operator-kstreams},1651385963,0
{consumergroup=__strimzi-topic-operator-kstreams},1651385968,0
{consumergroup=__strimzi-topic-operator-kstreams},1651385973,0
{consumergroup=__strimzi-topic-operator-kstreams},1651385978,0
{consumergroup=__strimzi-topic-operator-kstreams},1651385983,0
{consumergroup=__strimzi-topic-operator-kstreams},1651385988,0
{consumergroup=__strimzi-topic-operator-kstreams},1651385993,0
{consumergroup=__strimzi-topic-operator-kstreams},1651385998,0
{consumergroup=__strimzi-topic-operator-kstreams},1651386003,0
{consumergroup=__strimzi-topic-operator-kstreams},1651386008,0
{consumergroup=__strimzi-topic-operator-kstreams},1651386013,0
{consumergroup=__strimzi-topic-operator-kstreams},1651386018,0
{consumergroup=__strimzi-topic-operator-kstreams},1651386023,0
{consumergroup=__strimzi-topic-operator-kstreams},1651386028,0
{consumergroup=__strimzi-topic-operator-kstreams},1651386033,0
{consumergroup=__strimzi-topic-operator-kstreams},1651386038,0
{consumergroup=__strimzi-topic-operator-kstreams},1651386043,0
{consumergroup=__strimzi-topic-operator-kstreams},1651386048,0
{consumergroup=__strimzi-topic-operator-kstreams},1651386053,0
{consumergroup=__strimzi-topic-operator-kstreams},1651386058,0
{consumergroup=__strimzi-topic-operator-kstreams},1651386063,0
{consumergroup=__strimzi-topic-operator-kstreams},1651386068,0
{consumergroup=__strimzi-topic-operator-kstreams},1651386073,0
{consumergroup=__strimzi-topic-operator-kstreams},1651386078,0
{consumergroup=__strimzi-topic-operator-kstreams},1651386083,0
{consumergroup=__strimzi-topic-operator-kstreams},1651386088,0
{consumergroup=__strimzi-topic-operator-kstreams},1651386093,0
{consumergroup=__strimzi-topic-operator-kstreams},1651386098,0
{consumergroup=__strimzi-topic-operator-kstreams},1651386103,0
{consumergroup=__strimzi-topic-operator-kstreams},1651386108,0
{consumergroup=__strimzi-topic-operator-kstreams},1651386113,0
{consumergroup=__strimzi-topic-operator-kstreams},1651386118,0
{consumergroup=__strimzi-topic-operator-kstreams},1651386123,0
{consumergroup=__strimzi-topic-operator-kstreams},1651386128,0
{consumergroup=__strimzi-topic-operator-kstreams},1651386133,0
{consumergroup=__strimzi-topic-operator-kstreams},1651386138,0
{consumergroup=adapter-service},1651385913,225600
{consumergroup=adapter-service},1651385918,225600
{consumergroup=adapter-service},1651385923,225600
{consumergroup=adapter-service},1651385928,1435332
{consumergroup=adapter-service},1651385933,1435332
{consumergroup=adapter-service},1651385938,1435332
{consumergroup=adapter-service},1651385943,2127771
{consumergroup=adapter-service},1651385948,2127771
{consumergroup=adapter-service},1651385953,2127771
{consumergroup=adapter-service},1651385958,2878495
{consumergroup=adapter-service},1651385963,2878495
{consumergroup=adapter-service},1651385968,2878495
{consumergroup=adapter-service},1651385973,3364892
{consumergroup=adapter-service},1651385978,3364892
{consumergroup=adapter-service},1651385983,3364892
{consumergroup=adapter-service},1651385988,3813499
{consumergroup=adapter-service},1651385993,3813499
{consumergroup=adapter-service},1651385998,3813499
{consumergroup=adapter-service},1651386003,4118001
{consumergroup=adapter-service},1651386008,4118001
{consumergroup=adapter-service},1651386013,4118001
{consumergroup=adapter-service},1651386018,4286376
{consumergroup=adapter-service},1651386023,4286376
{consumergroup=adapter-service},1651386028,4286376
{consumergroup=adapter-service},1651386033,4683538
{consumergroup=adapter-service},1651386038,4683538
{consumergroup=adapter-service},1651386043,4683538
{consumergroup=adapter-service},1651386048,4694108
{consumergroup=adapter-service},1651386053,4694108
{consumergroup=adapter-service},1651386058,4694108
{consumergroup=adapter-service},1651386063,5009694
{consumergroup=adapter-service},1651386068,5009694
{consumergroup=adapter-service},1651386073,5009694
{consumergroup=adapter-service},1651386078,5215211
{consumergroup=adapter-service},1651386083,5215211
{consumergroup=adapter-service},1651386088,5215211
{consumergroup=adapter-service},1651386093,5330948
{consumergroup=adapter-service},1651386098,5330948
{consumergroup=adapter-service},1651386103,5330948
{consumergroup=adapter-service},1651386108,5538186
{consumergroup=adapter-service},1651386113,5538186
{consumergroup=adapter-service},1651386118,5538186
{consumergroup=adapter-service},1651386123,5608190
{consumergroup=adapter-service},1651386128,5608190
{consumergroup=adapter-service},1651386133,5608190
{consumergroup=adapter-service},1651386138,5829113
