labels,timestamp,value
{job=theodolite-stu200776/combined-trace-podmonitor},1651278383,0
{job=theodolite-stu200776/combined-trace-podmonitor},1651278388,0
{job=theodolite-stu200776/combined-trace-podmonitor},1651278393,0
{job=theodolite-stu200776/combined-trace-podmonitor},1651278398,0
{job=theodolite-stu200776/combined-trace-podmonitor},1651278403,0
{job=theodolite-stu200776/combined-trace-podmonitor},1651278408,0
{job=theodolite-stu200776/combined-trace-podmonitor},1651278413,0
{job=theodolite-stu200776/combined-trace-podmonitor},1651278418,0
{job=theodolite-stu200776/combined-trace-podmonitor},1651278423,0
{job=theodolite-stu200776/combined-trace-podmonitor},1651278428,0
{job=theodolite-stu200776/combined-trace-podmonitor},1651278433,0
{job=theodolite-stu200776/combined-trace-podmonitor},1651278438,0
{job=theodolite-stu200776/combined-trace-podmonitor},1651278443,0
{job=theodolite-stu200776/combined-trace-podmonitor},1651278448,0
{job=theodolite-stu200776/combined-trace-podmonitor},1651278453,0
{job=theodolite-stu200776/combined-trace-podmonitor},1651278458,0
{job=theodolite-stu200776/combined-trace-podmonitor},1651278463,0
{job=theodolite-stu200776/combined-trace-podmonitor},1651278468,0
{job=theodolite-stu200776/combined-trace-podmonitor},1651278473,0
{job=theodolite-stu200776/combined-trace-podmonitor},1651278478,0
{job=theodolite-stu200776/combined-trace-podmonitor},1651278483,0
{job=theodolite-stu200776/combined-trace-podmonitor},1651278488,0
{job=theodolite-stu200776/combined-trace-podmonitor},1651278493,0
{job=theodolite-stu200776/combined-trace-podmonitor},1651278498,0
{job=theodolite-stu200776/combined-trace-podmonitor},1651278503,0
{job=theodolite-stu200776/combined-trace-podmonitor},1651278508,0
{job=theodolite-stu200776/combined-trace-podmonitor},1651278513,0
{job=theodolite-stu200776/combined-trace-podmonitor},1651278518,0
{job=theodolite-stu200776/combined-trace-podmonitor},1651278523,0
{job=theodolite-stu200776/combined-trace-podmonitor},1651278528,0
{job=theodolite-stu200776/combined-trace-podmonitor},1651278533,0
{job=theodolite-stu200776/combined-trace-podmonitor},1651278538,0
{job=theodolite-stu200776/combined-trace-podmonitor},1651278543,0
{job=theodolite-stu200776/combined-trace-podmonitor},1651278548,0
{job=theodolite-stu200776/combined-trace-podmonitor},1651278553,0
{job=theodolite-stu200776/combined-trace-podmonitor},1651278558,0
{job=theodolite-stu200776/combined-trace-podmonitor},1651278563,0
{job=theodolite-stu200776/combined-trace-podmonitor},1651278568,0
{job=theodolite-stu200776/combined-trace-podmonitor},1651278573,0
{job=theodolite-stu200776/combined-trace-podmonitor},1651278578,0
{job=theodolite-stu200776/combined-trace-podmonitor},1651278583,0
{job=theodolite-stu200776/combined-trace-podmonitor},1651278588,0
{job=theodolite-stu200776/combined-trace-podmonitor},1651278593,0
{job=theodolite-stu200776/combined-trace-podmonitor},1651278598,0
{job=theodolite-stu200776/combined-trace-podmonitor},1651278603,0
{job=theodolite-stu200776/combined-trace-podmonitor},1651278608,0
{job=theodolite-stu200776/combined-trace-podmonitor},1651278613,0
{job=theodolite-stu200776/combined-trace-podmonitor},1651278618,0
{job=theodolite-stu200776/combined-trace-podmonitor},1651278623,0
{job=theodolite-stu200776/combined-trace-podmonitor},1651278628,0
{job=theodolite-stu200776/combined-trace-podmonitor},1651278633,0
{job=theodolite-stu200776/combined-trace-podmonitor},1651278638,0
{job=theodolite-stu200776/combined-trace-podmonitor},1651278643,0
{job=theodolite-stu200776/combined-trace-podmonitor},1651278648,0
{job=theodolite-stu200776/combined-trace-podmonitor},1651278653,0
{job=theodolite-stu200776/combined-trace-podmonitor},1651278658,0
{job=theodolite-stu200776/combined-trace-podmonitor},1651278663,0
{job=theodolite-stu200776/combined-trace-podmonitor},1651278668,0
{job=theodolite-stu200776/combined-trace-podmonitor},1651278673,0
{job=theodolite-stu200776/combined-trace-podmonitor},1651278678,0
{job=theodolite-stu200776/combined-trace-podmonitor},1651278683,0
{job=theodolite-stu200776/combined-trace-podmonitor},1651278688,0
{job=theodolite-stu200776/combined-trace-podmonitor},1651278693,0
{job=theodolite-stu200776/combined-trace-podmonitor},1651278698,0
{job=theodolite-stu200776/combined-trace-podmonitor},1651278703,0
{job=theodolite-stu200776/combined-trace-podmonitor},1651278708,0
{job=theodolite-stu200776/combined-trace-podmonitor},1651278713,0
{job=theodolite-stu200776/combined-trace-podmonitor},1651278718,0
{job=theodolite-stu200776/combined-trace-podmonitor},1651278723,0
{job=theodolite-stu200776/combined-trace-podmonitor},1651278728,0
{job=theodolite-stu200776/combined-trace-podmonitor},1651278733,0
{job=theodolite-stu200776/combined-trace-podmonitor},1651278738,0
{job=theodolite-stu200776/combined-trace-podmonitor},1651278743,0
{job=theodolite-stu200776/combined-trace-podmonitor},1651278748,0
{job=theodolite-stu200776/combined-trace-podmonitor},1651278753,0
{job=theodolite-stu200776/combined-trace-podmonitor},1651278758,0
{job=theodolite-stu200776/combined-trace-podmonitor},1651278763,0
{job=theodolite-stu200776/combined-trace-podmonitor},1651278768,0
{job=theodolite-stu200776/combined-trace-podmonitor},1651278773,0
{job=theodolite-stu200776/combined-trace-podmonitor},1651278778,0
{job=theodolite-stu200776/combined-trace-podmonitor},1651278783,0
{job=theodolite-stu200776/combined-trace-podmonitor},1651278788,0
{job=theodolite-stu200776/combined-trace-podmonitor},1651278793,0
{job=theodolite-stu200776/combined-trace-podmonitor},1651278798,0
{job=theodolite-stu200776/combined-trace-podmonitor},1651278803,0
{job=theodolite-stu200776/combined-trace-podmonitor},1651278808,0
{job=theodolite-stu200776/combined-trace-podmonitor},1651278813,0
{job=theodolite-stu200776/combined-trace-podmonitor},1651278818,0
{job=theodolite-stu200776/combined-trace-podmonitor},1651278823,0
