labels,timestamp,value
{consumergroup=__strimzi-topic-operator-kstreams},1651273447,3
{consumergroup=__strimzi-topic-operator-kstreams},1651273452,3
{consumergroup=__strimzi-topic-operator-kstreams},1651273457,3
{consumergroup=__strimzi-topic-operator-kstreams},1651273462,12
{consumergroup=__strimzi-topic-operator-kstreams},1651273467,12
{consumergroup=__strimzi-topic-operator-kstreams},1651273472,12
{consumergroup=__strimzi-topic-operator-kstreams},1651273477,0
{consumergroup=__strimzi-topic-operator-kstreams},1651273482,0
{consumergroup=__strimzi-topic-operator-kstreams},1651273487,0
{consumergroup=__strimzi-topic-operator-kstreams},1651273492,0
{consumergroup=__strimzi-topic-operator-kstreams},1651273497,0
{consumergroup=__strimzi-topic-operator-kstreams},1651273502,0
{consumergroup=__strimzi-topic-operator-kstreams},1651273507,0
{consumergroup=__strimzi-topic-operator-kstreams},1651273512,0
{consumergroup=__strimzi-topic-operator-kstreams},1651273517,0
{consumergroup=__strimzi-topic-operator-kstreams},1651273522,0
{consumergroup=__strimzi-topic-operator-kstreams},1651273527,0
{consumergroup=__strimzi-topic-operator-kstreams},1651273532,0
{consumergroup=__strimzi-topic-operator-kstreams},1651273537,0
{consumergroup=__strimzi-topic-operator-kstreams},1651273542,0
{consumergroup=__strimzi-topic-operator-kstreams},1651273547,0
{consumergroup=__strimzi-topic-operator-kstreams},1651273552,0
{consumergroup=__strimzi-topic-operator-kstreams},1651273557,0
{consumergroup=__strimzi-topic-operator-kstreams},1651273562,0
{consumergroup=__strimzi-topic-operator-kstreams},1651273567,0
{consumergroup=__strimzi-topic-operator-kstreams},1651273572,0
{consumergroup=__strimzi-topic-operator-kstreams},1651273577,0
{consumergroup=__strimzi-topic-operator-kstreams},1651273582,0
{consumergroup=__strimzi-topic-operator-kstreams},1651273587,0
{consumergroup=__strimzi-topic-operator-kstreams},1651273592,0
{consumergroup=__strimzi-topic-operator-kstreams},1651273597,0
{consumergroup=__strimzi-topic-operator-kstreams},1651273602,0
{consumergroup=__strimzi-topic-operator-kstreams},1651273607,0
{consumergroup=__strimzi-topic-operator-kstreams},1651273612,0
{consumergroup=__strimzi-topic-operator-kstreams},1651273617,0
{consumergroup=__strimzi-topic-operator-kstreams},1651273622,0
{consumergroup=__strimzi-topic-operator-kstreams},1651273627,0
{consumergroup=__strimzi-topic-operator-kstreams},1651273632,0
{consumergroup=__strimzi-topic-operator-kstreams},1651273637,0
{consumergroup=__strimzi-topic-operator-kstreams},1651273642,0
{consumergroup=__strimzi-topic-operator-kstreams},1651273647,0
{consumergroup=__strimzi-topic-operator-kstreams},1651273652,0
{consumergroup=__strimzi-topic-operator-kstreams},1651273657,0
{consumergroup=__strimzi-topic-operator-kstreams},1651273662,0
{consumergroup=__strimzi-topic-operator-kstreams},1651273667,0
{consumergroup=__strimzi-topic-operator-kstreams},1651273672,0
{consumergroup=__strimzi-topic-operator-kstreams},1651273677,0
{consumergroup=__strimzi-topic-operator-kstreams},1651273682,0
{consumergroup=__strimzi-topic-operator-kstreams},1651273687,0
{consumergroup=__strimzi-topic-operator-kstreams},1651273692,0
{consumergroup=__strimzi-topic-operator-kstreams},1651273697,0
{consumergroup=__strimzi-topic-operator-kstreams},1651273702,0
{consumergroup=__strimzi-topic-operator-kstreams},1651273707,0
{consumergroup=__strimzi-topic-operator-kstreams},1651273712,0
{consumergroup=__strimzi-topic-operator-kstreams},1651273717,0
{consumergroup=__strimzi-topic-operator-kstreams},1651273722,0
{consumergroup=__strimzi-topic-operator-kstreams},1651273727,0
{consumergroup=__strimzi-topic-operator-kstreams},1651273732,0
{consumergroup=__strimzi-topic-operator-kstreams},1651273737,0
{consumergroup=__strimzi-topic-operator-kstreams},1651273742,0
{consumergroup=__strimzi-topic-operator-kstreams},1651273747,0
{consumergroup=__strimzi-topic-operator-kstreams},1651273752,0
{consumergroup=__strimzi-topic-operator-kstreams},1651273757,0
{consumergroup=__strimzi-topic-operator-kstreams},1651273762,0
{consumergroup=__strimzi-topic-operator-kstreams},1651273767,0
{consumergroup=__strimzi-topic-operator-kstreams},1651273772,0
{consumergroup=__strimzi-topic-operator-kstreams},1651273777,0
{consumergroup=__strimzi-topic-operator-kstreams},1651273782,0
{consumergroup=__strimzi-topic-operator-kstreams},1651273787,0
{consumergroup=__strimzi-topic-operator-kstreams},1651273792,0
{consumergroup=__strimzi-topic-operator-kstreams},1651273797,0
{consumergroup=__strimzi-topic-operator-kstreams},1651273802,0
{consumergroup=__strimzi-topic-operator-kstreams},1651273807,0
{consumergroup=__strimzi-topic-operator-kstreams},1651273812,0
{consumergroup=__strimzi-topic-operator-kstreams},1651273817,0
{consumergroup=__strimzi-topic-operator-kstreams},1651273822,0
{consumergroup=__strimzi-topic-operator-kstreams},1651273827,0
{consumergroup=__strimzi-topic-operator-kstreams},1651273832,0
{consumergroup=__strimzi-topic-operator-kstreams},1651273837,0
{consumergroup=__strimzi-topic-operator-kstreams},1651273842,0
{consumergroup=__strimzi-topic-operator-kstreams},1651273847,0
{consumergroup=__strimzi-topic-operator-kstreams},1651273852,0
{consumergroup=__strimzi-topic-operator-kstreams},1651273857,0
{consumergroup=__strimzi-topic-operator-kstreams},1651273862,0
{consumergroup=__strimzi-topic-operator-kstreams},1651273867,0
{consumergroup=__strimzi-topic-operator-kstreams},1651273872,0
{consumergroup=__strimzi-topic-operator-kstreams},1651273877,0
{consumergroup=__strimzi-topic-operator-kstreams},1651273882,0
{consumergroup=__strimzi-topic-operator-kstreams},1651273887,0
{consumergroup=__strimzi-topic-operator-kstreams},1651273892,0
{consumergroup=__strimzi-topic-operator-kstreams},1651273897,0
{consumergroup=__strimzi-topic-operator-kstreams},1651273902,0
{consumergroup=__strimzi-topic-operator-kstreams},1651273907,0
{consumergroup=__strimzi-topic-operator-kstreams},1651273912,0
{consumergroup=__strimzi-topic-operator-kstreams},1651273917,0
{consumergroup=__strimzi-topic-operator-kstreams},1651273922,0
{consumergroup=__strimzi-topic-operator-kstreams},1651273927,0
{consumergroup=__strimzi-topic-operator-kstreams},1651273932,0
{consumergroup=__strimzi-topic-operator-kstreams},1651273937,0
{consumergroup=__strimzi-topic-operator-kstreams},1651273942,0
{consumergroup=__strimzi-topic-operator-kstreams},1651273947,0
{consumergroup=__strimzi-topic-operator-kstreams},1651273952,0
{consumergroup=__strimzi-topic-operator-kstreams},1651273957,0
{consumergroup=adapter-service},1651273492,0
{consumergroup=adapter-service},1651273497,0
{consumergroup=adapter-service},1651273502,0
{consumergroup=adapter-service},1651273507,24888
{consumergroup=adapter-service},1651273512,24888
{consumergroup=adapter-service},1651273517,24888
{consumergroup=adapter-service},1651273522,12803
{consumergroup=adapter-service},1651273527,12803
{consumergroup=adapter-service},1651273532,12803
{consumergroup=adapter-service},1651273537,2774
{consumergroup=adapter-service},1651273542,2774
{consumergroup=adapter-service},1651273547,2774
{consumergroup=adapter-service},1651273552,1362
{consumergroup=adapter-service},1651273557,1362
{consumergroup=adapter-service},1651273562,1362
{consumergroup=adapter-service},1651273567,6270
{consumergroup=adapter-service},1651273572,6270
{consumergroup=adapter-service},1651273577,6270
{consumergroup=adapter-service},1651273582,10706
{consumergroup=adapter-service},1651273587,10706
{consumergroup=adapter-service},1651273592,10706
{consumergroup=adapter-service},1651273597,9829
{consumergroup=adapter-service},1651273602,9829
{consumergroup=adapter-service},1651273607,9829
{consumergroup=adapter-service},1651273612,8607
{consumergroup=adapter-service},1651273617,8607
{consumergroup=adapter-service},1651273622,8607
{consumergroup=adapter-service},1651273627,7737
{consumergroup=adapter-service},1651273632,7737
{consumergroup=adapter-service},1651273637,7737
{consumergroup=adapter-service},1651273642,7127
{consumergroup=adapter-service},1651273647,7127
{consumergroup=adapter-service},1651273652,7127
{consumergroup=adapter-service},1651273657,6604
{consumergroup=adapter-service},1651273662,6604
{consumergroup=adapter-service},1651273667,6604
{consumergroup=adapter-service},1651273672,6588
{consumergroup=adapter-service},1651273677,6588
{consumergroup=adapter-service},1651273682,6588
{consumergroup=adapter-service},1651273687,5341
{consumergroup=adapter-service},1651273692,5341
{consumergroup=adapter-service},1651273697,5341
{consumergroup=adapter-service},1651273702,5148
{consumergroup=adapter-service},1651273707,5148
{consumergroup=adapter-service},1651273712,5148
{consumergroup=adapter-service},1651273717,5072
{consumergroup=adapter-service},1651273722,5072
{consumergroup=adapter-service},1651273727,5072
{consumergroup=adapter-service},1651273732,4481
{consumergroup=adapter-service},1651273737,4481
{consumergroup=adapter-service},1651273742,4481
{consumergroup=adapter-service},1651273747,3200
{consumergroup=adapter-service},1651273752,3200
{consumergroup=adapter-service},1651273757,3200
{consumergroup=adapter-service},1651273762,3196
{consumergroup=adapter-service},1651273767,3196
{consumergroup=adapter-service},1651273772,3196
{consumergroup=adapter-service},1651273777,1642
{consumergroup=adapter-service},1651273782,1642
{consumergroup=adapter-service},1651273787,1642
{consumergroup=adapter-service},1651273792,1223
{consumergroup=adapter-service},1651273797,1223
{consumergroup=adapter-service},1651273802,1223
{consumergroup=adapter-service},1651273807,692
{consumergroup=adapter-service},1651273812,692
{consumergroup=adapter-service},1651273817,692
{consumergroup=adapter-service},1651273822,552
{consumergroup=adapter-service},1651273827,552
{consumergroup=adapter-service},1651273832,552
{consumergroup=adapter-service},1651273837,5666
{consumergroup=adapter-service},1651273842,5666
{consumergroup=adapter-service},1651273847,5666
{consumergroup=adapter-service},1651273852,5331
{consumergroup=adapter-service},1651273857,5331
{consumergroup=adapter-service},1651273862,5331
{consumergroup=adapter-service},1651273867,1282
{consumergroup=adapter-service},1651273872,1282
{consumergroup=adapter-service},1651273877,1282
{consumergroup=adapter-service},1651273882,10231
{consumergroup=adapter-service},1651273887,10231
{consumergroup=adapter-service},1651273892,10231
{consumergroup=adapter-service},1651273897,9623
{consumergroup=adapter-service},1651273902,9623
{consumergroup=adapter-service},1651273907,9623
{consumergroup=adapter-service},1651273912,9189
{consumergroup=adapter-service},1651273917,9189
{consumergroup=adapter-service},1651273922,9189
{consumergroup=adapter-service},1651273927,8983
{consumergroup=adapter-service},1651273932,8983
{consumergroup=adapter-service},1651273937,8983
{consumergroup=adapter-service},1651273942,8267
{consumergroup=adapter-service},1651273947,8267
{consumergroup=adapter-service},1651273952,8267
{consumergroup=adapter-service},1651273957,7948
{consumergroup=landscape-service},1651273507,10078
{consumergroup=landscape-service},1651273512,10078
{consumergroup=landscape-service},1651273517,10078
{consumergroup=landscape-service},1651273522,11893
{consumergroup=landscape-service},1651273527,11893
{consumergroup=landscape-service},1651273532,11893
{consumergroup=landscape-service},1651273537,11933
{consumergroup=landscape-service},1651273542,11933
{consumergroup=landscape-service},1651273547,11933
{consumergroup=landscape-service},1651273552,7814
{consumergroup=landscape-service},1651273557,7814
{consumergroup=landscape-service},1651273562,7814
{consumergroup=landscape-service},1651273567,8251
{consumergroup=landscape-service},1651273572,8251
{consumergroup=landscape-service},1651273577,8251
{consumergroup=landscape-service},1651273582,7162
{consumergroup=landscape-service},1651273587,7162
{consumergroup=landscape-service},1651273592,7162
{consumergroup=landscape-service},1651273597,7217
{consumergroup=landscape-service},1651273602,7217
{consumergroup=landscape-service},1651273607,7217
{consumergroup=landscape-service},1651273612,7099
{consumergroup=landscape-service},1651273617,7099
{consumergroup=landscape-service},1651273622,7099
{consumergroup=landscape-service},1651273627,7742
{consumergroup=landscape-service},1651273632,7742
{consumergroup=landscape-service},1651273637,7742
{consumergroup=landscape-service},1651273642,7624
{consumergroup=landscape-service},1651273647,7624
{consumergroup=landscape-service},1651273652,7624
{consumergroup=landscape-service},1651273657,7418
{consumergroup=landscape-service},1651273662,7418
{consumergroup=landscape-service},1651273667,7418
{consumergroup=landscape-service},1651273672,6368
{consumergroup=landscape-service},1651273677,6368
{consumergroup=landscape-service},1651273682,6368
{consumergroup=landscape-service},1651273687,6219
{consumergroup=landscape-service},1651273692,6219
{consumergroup=landscape-service},1651273697,6219
{consumergroup=landscape-service},1651273702,6019
{consumergroup=landscape-service},1651273707,6019
{consumergroup=landscape-service},1651273712,6019
{consumergroup=landscape-service},1651273717,5922
{consumergroup=landscape-service},1651273722,5922
{consumergroup=landscape-service},1651273727,5922
{consumergroup=landscape-service},1651273732,5795
{consumergroup=landscape-service},1651273737,5795
{consumergroup=landscape-service},1651273742,5795
{consumergroup=landscape-service},1651273747,5523
{consumergroup=landscape-service},1651273752,5523
{consumergroup=landscape-service},1651273757,5523
{consumergroup=landscape-service},1651273762,5363
{consumergroup=landscape-service},1651273767,5363
{consumergroup=landscape-service},1651273772,5363
{consumergroup=landscape-service},1651273777,5156
{consumergroup=landscape-service},1651273782,5156
{consumergroup=landscape-service},1651273787,5156
{consumergroup=landscape-service},1651273792,5162
{consumergroup=landscape-service},1651273797,5162
{consumergroup=landscape-service},1651273802,5162
{consumergroup=landscape-service},1651273807,4943
{consumergroup=landscape-service},1651273812,4943
{consumergroup=landscape-service},1651273817,4943
{consumergroup=landscape-service},1651273822,4848
{consumergroup=landscape-service},1651273827,4848
{consumergroup=landscape-service},1651273832,4848
{consumergroup=landscape-service},1651273837,5445
{consumergroup=landscape-service},1651273842,5445
{consumergroup=landscape-service},1651273847,5445
{consumergroup=landscape-service},1651273852,4948
{consumergroup=landscape-service},1651273857,4948
{consumergroup=landscape-service},1651273862,4948
{consumergroup=landscape-service},1651273867,7005
{consumergroup=landscape-service},1651273872,7005
{consumergroup=landscape-service},1651273877,7005
{consumergroup=landscape-service},1651273882,4027
{consumergroup=landscape-service},1651273887,4027
{consumergroup=landscape-service},1651273892,4027
{consumergroup=landscape-service},1651273897,3790
{consumergroup=landscape-service},1651273902,3790
{consumergroup=landscape-service},1651273907,3790
{consumergroup=landscape-service},1651273912,4033
{consumergroup=landscape-service},1651273917,4033
{consumergroup=landscape-service},1651273922,4033
{consumergroup=landscape-service},1651273927,3087
{consumergroup=landscape-service},1651273932,3087
{consumergroup=landscape-service},1651273937,3087
{consumergroup=landscape-service},1651273942,2567
{consumergroup=landscape-service},1651273947,2567
{consumergroup=landscape-service},1651273952,2567
{consumergroup=landscape-service},1651273957,2259
{consumergroup=trace-service},1651273492,185
{consumergroup=trace-service},1651273497,185
{consumergroup=trace-service},1651273502,185
{consumergroup=trace-service},1651273507,14370
{consumergroup=trace-service},1651273512,14370
{consumergroup=trace-service},1651273517,14370
{consumergroup=trace-service},1651273522,59784
{consumergroup=trace-service},1651273527,59784
{consumergroup=trace-service},1651273532,59784
{consumergroup=trace-service},1651273537,35546
{consumergroup=trace-service},1651273542,35546
{consumergroup=trace-service},1651273547,35546
{consumergroup=trace-service},1651273552,63166
{consumergroup=trace-service},1651273557,63166
{consumergroup=trace-service},1651273562,63166
{consumergroup=trace-service},1651273567,26821
{consumergroup=trace-service},1651273572,26821
{consumergroup=trace-service},1651273577,26821
{consumergroup=trace-service},1651273582,50467
{consumergroup=trace-service},1651273587,50467
{consumergroup=trace-service},1651273592,50467
{consumergroup=trace-service},1651273597,16783
{consumergroup=trace-service},1651273602,16783
{consumergroup=trace-service},1651273607,16783
{consumergroup=trace-service},1651273612,50037
{consumergroup=trace-service},1651273617,50037
{consumergroup=trace-service},1651273622,50037
{consumergroup=trace-service},1651273627,28664
{consumergroup=trace-service},1651273632,28664
{consumergroup=trace-service},1651273637,28664
{consumergroup=trace-service},1651273642,74016
{consumergroup=trace-service},1651273647,74016
{consumergroup=trace-service},1651273652,74016
{consumergroup=trace-service},1651273657,24265
{consumergroup=trace-service},1651273662,24265
{consumergroup=trace-service},1651273667,24265
{consumergroup=trace-service},1651273672,57429
{consumergroup=trace-service},1651273677,57429
{consumergroup=trace-service},1651273682,57429
{consumergroup=trace-service},1651273687,20018
{consumergroup=trace-service},1651273692,20018
{consumergroup=trace-service},1651273697,20018
{consumergroup=trace-service},1651273702,45061
{consumergroup=trace-service},1651273707,45061
{consumergroup=trace-service},1651273712,45061
{consumergroup=trace-service},1651273717,109266
{consumergroup=trace-service},1651273722,109266
{consumergroup=trace-service},1651273727,109266
{consumergroup=trace-service},1651273732,69283
{consumergroup=trace-service},1651273737,69283
{consumergroup=trace-service},1651273742,69283
{consumergroup=trace-service},1651273747,29026
{consumergroup=trace-service},1651273752,29026
{consumergroup=trace-service},1651273757,29026
{consumergroup=trace-service},1651273762,76676
{consumergroup=trace-service},1651273767,76676
{consumergroup=trace-service},1651273772,76676
{consumergroup=trace-service},1651273777,25506
{consumergroup=trace-service},1651273782,25506
{consumergroup=trace-service},1651273787,25506
{consumergroup=trace-service},1651273792,61337
{consumergroup=trace-service},1651273797,61337
{consumergroup=trace-service},1651273802,61337
{consumergroup=trace-service},1651273807,27090
{consumergroup=trace-service},1651273812,27090
{consumergroup=trace-service},1651273817,27090
{consumergroup=trace-service},1651273822,58584
{consumergroup=trace-service},1651273827,58584
{consumergroup=trace-service},1651273832,58584
{consumergroup=trace-service},1651273837,61510
{consumergroup=trace-service},1651273842,61510
{consumergroup=trace-service},1651273847,61510
{consumergroup=trace-service},1651273852,59681
{consumergroup=trace-service},1651273857,59681
{consumergroup=trace-service},1651273862,59681
{consumergroup=trace-service},1651273867,29742
{consumergroup=trace-service},1651273872,29742
{consumergroup=trace-service},1651273877,29742
{consumergroup=trace-service},1651273882,76429
{consumergroup=trace-service},1651273887,76429
{consumergroup=trace-service},1651273892,76429
{consumergroup=trace-service},1651273897,26884
{consumergroup=trace-service},1651273902,26884
{consumergroup=trace-service},1651273907,26884
{consumergroup=trace-service},1651273912,38984
{consumergroup=trace-service},1651273917,38984
{consumergroup=trace-service},1651273922,38984
{consumergroup=trace-service},1651273927,31861
{consumergroup=trace-service},1651273932,31861
{consumergroup=trace-service},1651273937,31861
{consumergroup=trace-service},1651273942,66740
{consumergroup=trace-service},1651273947,66740
{consumergroup=trace-service},1651273952,66740
{consumergroup=trace-service},1651273957,21677
{consumergroup=trace-token-events-consumer},1651273477,0
{consumergroup=trace-token-events-consumer},1651273482,0
{consumergroup=trace-token-events-consumer},1651273487,0
{consumergroup=trace-token-events-consumer},1651273492,0
{consumergroup=trace-token-events-consumer},1651273497,0
{consumergroup=trace-token-events-consumer},1651273502,0
{consumergroup=trace-token-events-consumer},1651273507,0
{consumergroup=trace-token-events-consumer},1651273512,0
{consumergroup=trace-token-events-consumer},1651273517,0
{consumergroup=trace-token-events-consumer},1651273522,0
{consumergroup=trace-token-events-consumer},1651273527,0
{consumergroup=trace-token-events-consumer},1651273532,0
{consumergroup=trace-token-events-consumer},1651273537,0
{consumergroup=trace-token-events-consumer},1651273542,0
{consumergroup=trace-token-events-consumer},1651273547,0
{consumergroup=trace-token-events-consumer},1651273552,0
{consumergroup=trace-token-events-consumer},1651273557,0
{consumergroup=trace-token-events-consumer},1651273562,0
{consumergroup=trace-token-events-consumer},1651273567,0
{consumergroup=trace-token-events-consumer},1651273572,0
{consumergroup=trace-token-events-consumer},1651273577,0
{consumergroup=trace-token-events-consumer},1651273582,0
{consumergroup=trace-token-events-consumer},1651273587,0
{consumergroup=trace-token-events-consumer},1651273592,0
{consumergroup=trace-token-events-consumer},1651273597,0
{consumergroup=trace-token-events-consumer},1651273602,0
{consumergroup=trace-token-events-consumer},1651273607,0
{consumergroup=trace-token-events-consumer},1651273612,0
{consumergroup=trace-token-events-consumer},1651273617,0
{consumergroup=trace-token-events-consumer},1651273622,0
{consumergroup=trace-token-events-consumer},1651273627,0
{consumergroup=trace-token-events-consumer},1651273632,0
{consumergroup=trace-token-events-consumer},1651273637,0
{consumergroup=trace-token-events-consumer},1651273642,0
{consumergroup=trace-token-events-consumer},1651273647,0
{consumergroup=trace-token-events-consumer},1651273652,0
{consumergroup=trace-token-events-consumer},1651273657,0
{consumergroup=trace-token-events-consumer},1651273662,0
{consumergroup=trace-token-events-consumer},1651273667,0
{consumergroup=trace-token-events-consumer},1651273672,0
{consumergroup=trace-token-events-consumer},1651273677,0
{consumergroup=trace-token-events-consumer},1651273682,0
{consumergroup=trace-token-events-consumer},1651273687,0
{consumergroup=trace-token-events-consumer},1651273692,0
{consumergroup=trace-token-events-consumer},1651273697,0
{consumergroup=trace-token-events-consumer},1651273702,0
{consumergroup=trace-token-events-consumer},1651273707,0
{consumergroup=trace-token-events-consumer},1651273712,0
{consumergroup=trace-token-events-consumer},1651273717,0
{consumergroup=trace-token-events-consumer},1651273722,0
{consumergroup=trace-token-events-consumer},1651273727,0
{consumergroup=trace-token-events-consumer},1651273732,0
{consumergroup=trace-token-events-consumer},1651273737,0
{consumergroup=trace-token-events-consumer},1651273742,0
{consumergroup=trace-token-events-consumer},1651273747,0
{consumergroup=trace-token-events-consumer},1651273752,0
{consumergroup=trace-token-events-consumer},1651273757,0
{consumergroup=trace-token-events-consumer},1651273762,0
{consumergroup=trace-token-events-consumer},1651273767,0
{consumergroup=trace-token-events-consumer},1651273772,0
{consumergroup=trace-token-events-consumer},1651273777,0
{consumergroup=trace-token-events-consumer},1651273782,0
{consumergroup=trace-token-events-consumer},1651273787,0
{consumergroup=trace-token-events-consumer},1651273792,0
{consumergroup=trace-token-events-consumer},1651273797,0
{consumergroup=trace-token-events-consumer},1651273802,0
{consumergroup=trace-token-events-consumer},1651273807,0
{consumergroup=trace-token-events-consumer},1651273812,0
{consumergroup=trace-token-events-consumer},1651273817,0
{consumergroup=trace-token-events-consumer},1651273822,0
{consumergroup=trace-token-events-consumer},1651273827,0
{consumergroup=trace-token-events-consumer},1651273832,0
{consumergroup=trace-token-events-consumer},1651273837,0
{consumergroup=trace-token-events-consumer},1651273842,0
{consumergroup=trace-token-events-consumer},1651273847,0
{consumergroup=trace-token-events-consumer},1651273852,0
{consumergroup=trace-token-events-consumer},1651273857,0
{consumergroup=trace-token-events-consumer},1651273862,0
{consumergroup=trace-token-events-consumer},1651273867,0
{consumergroup=trace-token-events-consumer},1651273872,0
{consumergroup=trace-token-events-consumer},1651273877,0
{consumergroup=trace-token-events-consumer},1651273882,0
{consumergroup=trace-token-events-consumer},1651273887,0
{consumergroup=trace-token-events-consumer},1651273892,0
{consumergroup=trace-token-events-consumer},1651273897,0
{consumergroup=trace-token-events-consumer},1651273902,0
{consumergroup=trace-token-events-consumer},1651273907,0
{consumergroup=trace-token-events-consumer},1651273912,0
{consumergroup=trace-token-events-consumer},1651273917,0
{consumergroup=trace-token-events-consumer},1651273922,0
{consumergroup=trace-token-events-consumer},1651273927,0
{consumergroup=trace-token-events-consumer},1651273932,0
{consumergroup=trace-token-events-consumer},1651273937,0
{consumergroup=trace-token-events-consumer},1651273942,0
{consumergroup=trace-token-events-consumer},1651273947,0
{consumergroup=trace-token-events-consumer},1651273952,0
{consumergroup=trace-token-events-consumer},1651273957,0
