labels,timestamp,value
{consumergroup=__strimzi-topic-operator-kstreams},1651383820,12
{consumergroup=__strimzi-topic-operator-kstreams},1651383825,12
{consumergroup=__strimzi-topic-operator-kstreams},1651383830,12
{consumergroup=__strimzi-topic-operator-kstreams},1651383835,12
{consumergroup=__strimzi-topic-operator-kstreams},1651383840,12
{consumergroup=__strimzi-topic-operator-kstreams},1651383845,12
{consumergroup=__strimzi-topic-operator-kstreams},1651383850,0
{consumergroup=__strimzi-topic-operator-kstreams},1651383855,0
{consumergroup=__strimzi-topic-operator-kstreams},1651383860,0
{consumergroup=__strimzi-topic-operator-kstreams},1651383865,0
{consumergroup=__strimzi-topic-operator-kstreams},1651383870,0
{consumergroup=__strimzi-topic-operator-kstreams},1651383875,0
{consumergroup=__strimzi-topic-operator-kstreams},1651383880,0
{consumergroup=__strimzi-topic-operator-kstreams},1651383885,0
{consumergroup=__strimzi-topic-operator-kstreams},1651383890,0
{consumergroup=__strimzi-topic-operator-kstreams},1651383895,0
{consumergroup=__strimzi-topic-operator-kstreams},1651383900,0
{consumergroup=__strimzi-topic-operator-kstreams},1651383905,0
{consumergroup=__strimzi-topic-operator-kstreams},1651383910,0
{consumergroup=__strimzi-topic-operator-kstreams},1651383915,0
{consumergroup=__strimzi-topic-operator-kstreams},1651383920,0
{consumergroup=__strimzi-topic-operator-kstreams},1651383925,0
{consumergroup=__strimzi-topic-operator-kstreams},1651383930,0
{consumergroup=__strimzi-topic-operator-kstreams},1651383935,0
{consumergroup=__strimzi-topic-operator-kstreams},1651383940,0
{consumergroup=__strimzi-topic-operator-kstreams},1651383945,0
{consumergroup=__strimzi-topic-operator-kstreams},1651383950,0
{consumergroup=__strimzi-topic-operator-kstreams},1651383955,0
{consumergroup=__strimzi-topic-operator-kstreams},1651383960,0
{consumergroup=__strimzi-topic-operator-kstreams},1651383965,0
{consumergroup=__strimzi-topic-operator-kstreams},1651383970,0
{consumergroup=__strimzi-topic-operator-kstreams},1651383975,0
{consumergroup=__strimzi-topic-operator-kstreams},1651383980,0
{consumergroup=__strimzi-topic-operator-kstreams},1651383985,0
{consumergroup=__strimzi-topic-operator-kstreams},1651383990,0
{consumergroup=__strimzi-topic-operator-kstreams},1651383995,0
{consumergroup=__strimzi-topic-operator-kstreams},1651384000,0
{consumergroup=__strimzi-topic-operator-kstreams},1651384005,0
{consumergroup=__strimzi-topic-operator-kstreams},1651384010,0
{consumergroup=__strimzi-topic-operator-kstreams},1651384015,0
{consumergroup=__strimzi-topic-operator-kstreams},1651384020,0
{consumergroup=__strimzi-topic-operator-kstreams},1651384025,0
{consumergroup=__strimzi-topic-operator-kstreams},1651384030,0
{consumergroup=__strimzi-topic-operator-kstreams},1651384035,0
{consumergroup=__strimzi-topic-operator-kstreams},1651384040,0
{consumergroup=__strimzi-topic-operator-kstreams},1651384045,0
{consumergroup=__strimzi-topic-operator-kstreams},1651384050,0
{consumergroup=__strimzi-topic-operator-kstreams},1651384055,0
{consumergroup=__strimzi-topic-operator-kstreams},1651384060,0
{consumergroup=__strimzi-topic-operator-kstreams},1651384065,0
{consumergroup=adapter-service},1651383850,602727
{consumergroup=adapter-service},1651383855,602727
{consumergroup=adapter-service},1651383860,602727
{consumergroup=adapter-service},1651383865,1171356
{consumergroup=adapter-service},1651383870,1171356
{consumergroup=adapter-service},1651383875,1171356
{consumergroup=adapter-service},1651383880,1638842
{consumergroup=adapter-service},1651383885,1638842
{consumergroup=adapter-service},1651383890,1638842
{consumergroup=adapter-service},1651383895,2059498
{consumergroup=adapter-service},1651383900,2059498
{consumergroup=adapter-service},1651383905,2059498
{consumergroup=adapter-service},1651383910,2399503
{consumergroup=adapter-service},1651383915,2399503
{consumergroup=adapter-service},1651383920,2399503
{consumergroup=adapter-service},1651383925,2591450
{consumergroup=adapter-service},1651383930,2591450
{consumergroup=adapter-service},1651383935,2591450
{consumergroup=adapter-service},1651383940,2644701
{consumergroup=adapter-service},1651383945,2644701
{consumergroup=adapter-service},1651383950,2644701
{consumergroup=adapter-service},1651383955,2674708
{consumergroup=adapter-service},1651383960,2674708
{consumergroup=adapter-service},1651383965,2674708
{consumergroup=adapter-service},1651383970,2642632
{consumergroup=adapter-service},1651383975,2642632
{consumergroup=adapter-service},1651383980,2642632
{consumergroup=adapter-service},1651383985,2597498
{consumergroup=adapter-service},1651383990,2597498
{consumergroup=adapter-service},1651383995,2597498
{consumergroup=adapter-service},1651384000,2553861
{consumergroup=adapter-service},1651384005,2553861
{consumergroup=adapter-service},1651384010,2553861
{consumergroup=adapter-service},1651384015,2520936
{consumergroup=adapter-service},1651384020,2520936
{consumergroup=adapter-service},1651384025,2520936
{consumergroup=adapter-service},1651384030,2469832
{consumergroup=adapter-service},1651384035,2469832
{consumergroup=adapter-service},1651384040,2469832
{consumergroup=adapter-service},1651384045,2429316
{consumergroup=adapter-service},1651384050,2429316
{consumergroup=adapter-service},1651384055,2429316
{consumergroup=adapter-service},1651384060,2415603
{consumergroup=adapter-service},1651384065,2415603
