labels,timestamp,value
{consumergroup=__strimzi-topic-operator-kstreams},1651424762,8
{consumergroup=__strimzi-topic-operator-kstreams},1651424767,8
{consumergroup=__strimzi-topic-operator-kstreams},1651424772,8
{consumergroup=__strimzi-topic-operator-kstreams},1651424777,8
{consumergroup=__strimzi-topic-operator-kstreams},1651424782,8
{consumergroup=__strimzi-topic-operator-kstreams},1651424787,8
{consumergroup=__strimzi-topic-operator-kstreams},1651424792,0
{consumergroup=__strimzi-topic-operator-kstreams},1651424797,0
{consumergroup=__strimzi-topic-operator-kstreams},1651424802,0
{consumergroup=__strimzi-topic-operator-kstreams},1651424807,0
{consumergroup=__strimzi-topic-operator-kstreams},1651424812,0
{consumergroup=__strimzi-topic-operator-kstreams},1651424817,0
{consumergroup=__strimzi-topic-operator-kstreams},1651424822,0
{consumergroup=__strimzi-topic-operator-kstreams},1651424827,0
{consumergroup=__strimzi-topic-operator-kstreams},1651424832,0
{consumergroup=__strimzi-topic-operator-kstreams},1651424837,0
{consumergroup=__strimzi-topic-operator-kstreams},1651424842,0
{consumergroup=__strimzi-topic-operator-kstreams},1651424847,0
{consumergroup=__strimzi-topic-operator-kstreams},1651424852,0
{consumergroup=__strimzi-topic-operator-kstreams},1651424857,0
{consumergroup=__strimzi-topic-operator-kstreams},1651424862,0
{consumergroup=__strimzi-topic-operator-kstreams},1651424867,0
{consumergroup=__strimzi-topic-operator-kstreams},1651424872,0
{consumergroup=__strimzi-topic-operator-kstreams},1651424877,0
{consumergroup=__strimzi-topic-operator-kstreams},1651424882,0
{consumergroup=__strimzi-topic-operator-kstreams},1651424887,0
{consumergroup=__strimzi-topic-operator-kstreams},1651424892,0
{consumergroup=__strimzi-topic-operator-kstreams},1651424897,0
{consumergroup=__strimzi-topic-operator-kstreams},1651424902,0
{consumergroup=__strimzi-topic-operator-kstreams},1651424907,0
{consumergroup=__strimzi-topic-operator-kstreams},1651424912,0
{consumergroup=__strimzi-topic-operator-kstreams},1651424917,0
{consumergroup=__strimzi-topic-operator-kstreams},1651424922,0
{consumergroup=__strimzi-topic-operator-kstreams},1651424927,0
{consumergroup=__strimzi-topic-operator-kstreams},1651424932,0
{consumergroup=__strimzi-topic-operator-kstreams},1651424937,0
{consumergroup=__strimzi-topic-operator-kstreams},1651424942,0
{consumergroup=__strimzi-topic-operator-kstreams},1651424947,0
{consumergroup=__strimzi-topic-operator-kstreams},1651424952,0
{consumergroup=__strimzi-topic-operator-kstreams},1651424957,0
{consumergroup=__strimzi-topic-operator-kstreams},1651424962,0
{consumergroup=__strimzi-topic-operator-kstreams},1651424967,0
{consumergroup=__strimzi-topic-operator-kstreams},1651424972,0
{consumergroup=__strimzi-topic-operator-kstreams},1651424977,0
{consumergroup=__strimzi-topic-operator-kstreams},1651424982,0
{consumergroup=__strimzi-topic-operator-kstreams},1651424987,0
{consumergroup=__strimzi-topic-operator-kstreams},1651424992,0
{consumergroup=__strimzi-topic-operator-kstreams},1651424997,0
{consumergroup=__strimzi-topic-operator-kstreams},1651425002,0
{consumergroup=__strimzi-topic-operator-kstreams},1651425007,0
{consumergroup=__strimzi-topic-operator-kstreams},1651425012,0
{consumergroup=adapter-service},1651424792,92700
{consumergroup=adapter-service},1651424797,92700
{consumergroup=adapter-service},1651424802,92700
{consumergroup=adapter-service},1651424807,164581
{consumergroup=adapter-service},1651424812,164581
{consumergroup=adapter-service},1651424817,164581
{consumergroup=adapter-service},1651424822,238482
{consumergroup=adapter-service},1651424827,238482
{consumergroup=adapter-service},1651424832,238482
{consumergroup=adapter-service},1651424837,335592
{consumergroup=adapter-service},1651424842,335592
{consumergroup=adapter-service},1651424847,335592
{consumergroup=adapter-service},1651424852,345124
{consumergroup=adapter-service},1651424857,345124
{consumergroup=adapter-service},1651424862,345124
{consumergroup=adapter-service},1651424867,441937
{consumergroup=adapter-service},1651424872,441937
{consumergroup=adapter-service},1651424877,441937
{consumergroup=adapter-service},1651424882,481584
{consumergroup=adapter-service},1651424887,481584
{consumergroup=adapter-service},1651424892,481584
{consumergroup=adapter-service},1651424897,548446
{consumergroup=adapter-service},1651424902,548446
{consumergroup=adapter-service},1651424907,548446
{consumergroup=adapter-service},1651424912,625059
{consumergroup=adapter-service},1651424917,625059
{consumergroup=adapter-service},1651424922,625059
{consumergroup=adapter-service},1651424927,699118
{consumergroup=adapter-service},1651424932,699118
{consumergroup=adapter-service},1651424937,699118
{consumergroup=adapter-service},1651424942,741395
{consumergroup=adapter-service},1651424947,741395
{consumergroup=adapter-service},1651424952,741395
{consumergroup=adapter-service},1651424957,817436
{consumergroup=adapter-service},1651424962,817436
{consumergroup=adapter-service},1651424967,817436
{consumergroup=adapter-service},1651424972,867045
{consumergroup=adapter-service},1651424977,867045
{consumergroup=adapter-service},1651424982,867045
{consumergroup=adapter-service},1651424987,917620
{consumergroup=adapter-service},1651424992,917620
{consumergroup=adapter-service},1651424997,917620
{consumergroup=adapter-service},1651425002,971979
{consumergroup=adapter-service},1651425007,971979
{consumergroup=adapter-service},1651425012,971979
