labels,timestamp,value
{job=theodolite-stu200776/combined-trace-podmonitor},1651274122,14.685748620341794
{job=theodolite-stu200776/combined-trace-podmonitor},1651274127,14.685748620341794
{job=theodolite-stu200776/combined-trace-podmonitor},1651274132,22.40442406065894
{job=theodolite-stu200776/combined-trace-podmonitor},1651274137,22.40442406065894
{job=theodolite-stu200776/combined-trace-podmonitor},1651274142,35.56048324016164
{job=theodolite-stu200776/combined-trace-podmonitor},1651274147,35.56048324016164
{job=theodolite-stu200776/combined-trace-podmonitor},1651274152,27.6037785128533
{job=theodolite-stu200776/combined-trace-podmonitor},1651274157,27.6037785128533
{job=theodolite-stu200776/combined-trace-podmonitor},1651274162,22.406791138956287
{job=theodolite-stu200776/combined-trace-podmonitor},1651274167,22.406791138956287
{job=theodolite-stu200776/combined-trace-podmonitor},1651274172,0.4423547405426238
{job=theodolite-stu200776/combined-trace-podmonitor},1651274177,0.4423547405426238
{job=theodolite-stu200776/combined-trace-podmonitor},1651274182,0.0336500636456428
{job=theodolite-stu200776/combined-trace-podmonitor},1651274187,0.0336500636456428
{job=theodolite-stu200776/combined-trace-podmonitor},1651274192,0
{job=theodolite-stu200776/combined-trace-podmonitor},1651274197,0
{job=theodolite-stu200776/combined-trace-podmonitor},1651274202,0
{job=theodolite-stu200776/combined-trace-podmonitor},1651274207,0
{job=theodolite-stu200776/combined-trace-podmonitor},1651274212,0
{job=theodolite-stu200776/combined-trace-podmonitor},1651274217,0
{job=theodolite-stu200776/combined-trace-podmonitor},1651274222,0
{job=theodolite-stu200776/combined-trace-podmonitor},1651274227,0
{job=theodolite-stu200776/combined-trace-podmonitor},1651274232,0
{job=theodolite-stu200776/combined-trace-podmonitor},1651274237,0
{job=theodolite-stu200776/combined-trace-podmonitor},1651274242,0
{job=theodolite-stu200776/combined-trace-podmonitor},1651274247,0
{job=theodolite-stu200776/combined-trace-podmonitor},1651274252,0
{job=theodolite-stu200776/combined-trace-podmonitor},1651274257,0
{job=theodolite-stu200776/combined-trace-podmonitor},1651274262,0
{job=theodolite-stu200776/combined-trace-podmonitor},1651274267,0
{job=theodolite-stu200776/combined-trace-podmonitor},1651274272,0
{job=theodolite-stu200776/combined-trace-podmonitor},1651274277,0
{job=theodolite-stu200776/combined-trace-podmonitor},1651274282,0
{job=theodolite-stu200776/combined-trace-podmonitor},1651274287,0
{job=theodolite-stu200776/combined-trace-podmonitor},1651274292,0
{job=theodolite-stu200776/combined-trace-podmonitor},1651274297,0
{job=theodolite-stu200776/combined-trace-podmonitor},1651274302,0
{job=theodolite-stu200776/combined-trace-podmonitor},1651274307,0
{job=theodolite-stu200776/combined-trace-podmonitor},1651274312,0
{job=theodolite-stu200776/combined-trace-podmonitor},1651274317,0
{job=theodolite-stu200776/combined-trace-podmonitor},1651274322,0
{job=theodolite-stu200776/combined-trace-podmonitor},1651274327,0
{job=theodolite-stu200776/combined-trace-podmonitor},1651274332,0
{job=theodolite-stu200776/combined-trace-podmonitor},1651274337,0
{job=theodolite-stu200776/combined-trace-podmonitor},1651274342,0
{job=theodolite-stu200776/combined-trace-podmonitor},1651274347,0
{job=theodolite-stu200776/combined-trace-podmonitor},1651274352,0
{job=theodolite-stu200776/combined-trace-podmonitor},1651274357,0
{job=theodolite-stu200776/combined-trace-podmonitor},1651274362,0
{job=theodolite-stu200776/combined-trace-podmonitor},1651274367,0
{job=theodolite-stu200776/combined-trace-podmonitor},1651274372,0
{job=theodolite-stu200776/combined-trace-podmonitor},1651274377,0
{job=theodolite-stu200776/combined-trace-podmonitor},1651274382,0
{job=theodolite-stu200776/combined-trace-podmonitor},1651274387,0
{job=theodolite-stu200776/combined-trace-podmonitor},1651274392,0
{job=theodolite-stu200776/combined-trace-podmonitor},1651274397,0
{job=theodolite-stu200776/combined-trace-podmonitor},1651274402,0
{job=theodolite-stu200776/combined-trace-podmonitor},1651274407,0
{job=theodolite-stu200776/combined-trace-podmonitor},1651274412,0
{job=theodolite-stu200776/combined-trace-podmonitor},1651274417,0
{job=theodolite-stu200776/combined-trace-podmonitor},1651274422,0
{job=theodolite-stu200776/combined-trace-podmonitor},1651274427,0
{job=theodolite-stu200776/combined-trace-podmonitor},1651274432,0
{job=theodolite-stu200776/combined-trace-podmonitor},1651274437,0
{job=theodolite-stu200776/combined-trace-podmonitor},1651274442,0
{job=theodolite-stu200776/combined-trace-podmonitor},1651274447,0
{job=theodolite-stu200776/combined-trace-podmonitor},1651274452,0
{job=theodolite-stu200776/combined-trace-podmonitor},1651274457,0
{job=theodolite-stu200776/combined-trace-podmonitor},1651274462,0
{job=theodolite-stu200776/combined-trace-podmonitor},1651274467,0
{job=theodolite-stu200776/combined-trace-podmonitor},1651274472,0
{job=theodolite-stu200776/combined-trace-podmonitor},1651274477,0
{job=theodolite-stu200776/combined-trace-podmonitor},1651274482,0
{job=theodolite-stu200776/combined-trace-podmonitor},1651274487,0
{job=theodolite-stu200776/combined-trace-podmonitor},1651274492,0
{job=theodolite-stu200776/combined-trace-podmonitor},1651274497,0
{job=theodolite-stu200776/combined-trace-podmonitor},1651274502,0
{job=theodolite-stu200776/combined-trace-podmonitor},1651274507,0
{job=theodolite-stu200776/combined-trace-podmonitor},1651274512,0
{job=theodolite-stu200776/combined-trace-podmonitor},1651274517,0
{job=theodolite-stu200776/combined-trace-podmonitor},1651274522,0
{job=theodolite-stu200776/combined-trace-podmonitor},1651274527,0
{job=theodolite-stu200776/combined-trace-podmonitor},1651274532,0
{job=theodolite-stu200776/combined-trace-podmonitor},1651274537,0
{job=theodolite-stu200776/combined-trace-podmonitor},1651274542,0
{job=theodolite-stu200776/combined-trace-podmonitor},1651274547,0
{job=theodolite-stu200776/combined-trace-podmonitor},1651274552,0
{job=theodolite-stu200776/combined-trace-podmonitor},1651274557,0
{job=theodolite-stu200776/combined-trace-podmonitor},1651274562,0
