labels,timestamp,value
{consumergroup=__strimzi-topic-operator-kstreams},1651299269,3
{consumergroup=__strimzi-topic-operator-kstreams},1651299274,3
{consumergroup=__strimzi-topic-operator-kstreams},1651299279,3
{consumergroup=__strimzi-topic-operator-kstreams},1651299284,0
{consumergroup=__strimzi-topic-operator-kstreams},1651299289,0
{consumergroup=__strimzi-topic-operator-kstreams},1651299294,0
{consumergroup=__strimzi-topic-operator-kstreams},1651299299,3
{consumergroup=__strimzi-topic-operator-kstreams},1651299304,3
{consumergroup=__strimzi-topic-operator-kstreams},1651299309,3
{consumergroup=__strimzi-topic-operator-kstreams},1651299314,0
{consumergroup=__strimzi-topic-operator-kstreams},1651299319,0
{consumergroup=__strimzi-topic-operator-kstreams},1651299324,0
{consumergroup=__strimzi-topic-operator-kstreams},1651299329,0
{consumergroup=__strimzi-topic-operator-kstreams},1651299334,0
{consumergroup=__strimzi-topic-operator-kstreams},1651299339,0
{consumergroup=__strimzi-topic-operator-kstreams},1651299344,0
{consumergroup=__strimzi-topic-operator-kstreams},1651299349,0
{consumergroup=__strimzi-topic-operator-kstreams},1651299354,0
{consumergroup=__strimzi-topic-operator-kstreams},1651299359,0
{consumergroup=__strimzi-topic-operator-kstreams},1651299364,0
{consumergroup=__strimzi-topic-operator-kstreams},1651299369,0
{consumergroup=__strimzi-topic-operator-kstreams},1651299374,0
{consumergroup=__strimzi-topic-operator-kstreams},1651299379,0
{consumergroup=__strimzi-topic-operator-kstreams},1651299384,0
{consumergroup=__strimzi-topic-operator-kstreams},1651299389,0
{consumergroup=__strimzi-topic-operator-kstreams},1651299394,0
{consumergroup=__strimzi-topic-operator-kstreams},1651299399,0
{consumergroup=__strimzi-topic-operator-kstreams},1651299404,0
{consumergroup=__strimzi-topic-operator-kstreams},1651299409,0
{consumergroup=__strimzi-topic-operator-kstreams},1651299414,0
{consumergroup=__strimzi-topic-operator-kstreams},1651299419,0
{consumergroup=__strimzi-topic-operator-kstreams},1651299424,0
{consumergroup=__strimzi-topic-operator-kstreams},1651299429,0
{consumergroup=__strimzi-topic-operator-kstreams},1651299434,0
{consumergroup=__strimzi-topic-operator-kstreams},1651299439,0
{consumergroup=__strimzi-topic-operator-kstreams},1651299444,0
{consumergroup=__strimzi-topic-operator-kstreams},1651299449,0
{consumergroup=__strimzi-topic-operator-kstreams},1651299454,0
{consumergroup=__strimzi-topic-operator-kstreams},1651299459,0
{consumergroup=__strimzi-topic-operator-kstreams},1651299464,0
{consumergroup=__strimzi-topic-operator-kstreams},1651299469,0
{consumergroup=__strimzi-topic-operator-kstreams},1651299474,0
{consumergroup=__strimzi-topic-operator-kstreams},1651299479,0
{consumergroup=__strimzi-topic-operator-kstreams},1651299484,0
{consumergroup=__strimzi-topic-operator-kstreams},1651299489,0
{consumergroup=__strimzi-topic-operator-kstreams},1651299494,0
{consumergroup=__strimzi-topic-operator-kstreams},1651299499,0
{consumergroup=__strimzi-topic-operator-kstreams},1651299504,0
{consumergroup=__strimzi-topic-operator-kstreams},1651299509,0
{consumergroup=__strimzi-topic-operator-kstreams},1651299514,0
{consumergroup=__strimzi-topic-operator-kstreams},1651299519,0
{consumergroup=__strimzi-topic-operator-kstreams},1651299524,0
{consumergroup=__strimzi-topic-operator-kstreams},1651299529,0
{consumergroup=__strimzi-topic-operator-kstreams},1651299534,0
{consumergroup=__strimzi-topic-operator-kstreams},1651299539,0
{consumergroup=__strimzi-topic-operator-kstreams},1651299544,0
{consumergroup=__strimzi-topic-operator-kstreams},1651299549,0
{consumergroup=__strimzi-topic-operator-kstreams},1651299554,0
{consumergroup=__strimzi-topic-operator-kstreams},1651299559,0
{consumergroup=__strimzi-topic-operator-kstreams},1651299564,0
{consumergroup=__strimzi-topic-operator-kstreams},1651299569,0
{consumergroup=__strimzi-topic-operator-kstreams},1651299574,0
{consumergroup=__strimzi-topic-operator-kstreams},1651299579,0
{consumergroup=__strimzi-topic-operator-kstreams},1651299584,0
{consumergroup=__strimzi-topic-operator-kstreams},1651299589,0
{consumergroup=__strimzi-topic-operator-kstreams},1651299594,0
{consumergroup=__strimzi-topic-operator-kstreams},1651299599,0
{consumergroup=__strimzi-topic-operator-kstreams},1651299604,0
{consumergroup=__strimzi-topic-operator-kstreams},1651299609,0
{consumergroup=__strimzi-topic-operator-kstreams},1651299614,0
{consumergroup=__strimzi-topic-operator-kstreams},1651299619,0
{consumergroup=__strimzi-topic-operator-kstreams},1651299624,0
{consumergroup=__strimzi-topic-operator-kstreams},1651299629,0
{consumergroup=__strimzi-topic-operator-kstreams},1651299634,0
{consumergroup=__strimzi-topic-operator-kstreams},1651299639,0
{consumergroup=__strimzi-topic-operator-kstreams},1651299644,0
{consumergroup=__strimzi-topic-operator-kstreams},1651299649,0
{consumergroup=__strimzi-topic-operator-kstreams},1651299654,0
{consumergroup=__strimzi-topic-operator-kstreams},1651299659,0
{consumergroup=__strimzi-topic-operator-kstreams},1651299664,0
{consumergroup=__strimzi-topic-operator-kstreams},1651299669,0
{consumergroup=__strimzi-topic-operator-kstreams},1651299674,0
{consumergroup=__strimzi-topic-operator-kstreams},1651299679,0
{consumergroup=__strimzi-topic-operator-kstreams},1651299684,0
{consumergroup=__strimzi-topic-operator-kstreams},1651299689,0
{consumergroup=__strimzi-topic-operator-kstreams},1651299694,0
{consumergroup=__strimzi-topic-operator-kstreams},1651299699,0
{consumergroup=__strimzi-topic-operator-kstreams},1651299704,0
{consumergroup=__strimzi-topic-operator-kstreams},1651299709,0
{consumergroup=__strimzi-topic-operator-kstreams},1651299714,0
{consumergroup=__strimzi-topic-operator-kstreams},1651299719,0
{consumergroup=__strimzi-topic-operator-kstreams},1651299724,0
{consumergroup=__strimzi-topic-operator-kstreams},1651299729,0
{consumergroup=__strimzi-topic-operator-kstreams},1651299734,0
{consumergroup=__strimzi-topic-operator-kstreams},1651299739,0
{consumergroup=__strimzi-topic-operator-kstreams},1651299744,0
{consumergroup=__strimzi-topic-operator-kstreams},1651299749,0
{consumergroup=__strimzi-topic-operator-kstreams},1651299754,0
{consumergroup=__strimzi-topic-operator-kstreams},1651299759,0
{consumergroup=__strimzi-topic-operator-kstreams},1651299764,0
{consumergroup=__strimzi-topic-operator-kstreams},1651299769,0
{consumergroup=__strimzi-topic-operator-kstreams},1651299774,0
{consumergroup=__strimzi-topic-operator-kstreams},1651299779,0
{consumergroup=adapter-service},1651299314,0
{consumergroup=adapter-service},1651299319,0
{consumergroup=adapter-service},1651299324,0
{consumergroup=adapter-service},1651299329,21984
{consumergroup=adapter-service},1651299334,21984
{consumergroup=adapter-service},1651299339,21984
{consumergroup=adapter-service},1651299344,7107
{consumergroup=adapter-service},1651299349,7107
{consumergroup=adapter-service},1651299354,7107
{consumergroup=adapter-service},1651299359,8686
{consumergroup=adapter-service},1651299364,8686
{consumergroup=adapter-service},1651299369,8686
{consumergroup=adapter-service},1651299374,4212
{consumergroup=adapter-service},1651299379,4212
{consumergroup=adapter-service},1651299384,4212
{consumergroup=adapter-service},1651299389,7572
{consumergroup=adapter-service},1651299394,7572
{consumergroup=adapter-service},1651299399,7572
{consumergroup=adapter-service},1651299404,2213
{consumergroup=adapter-service},1651299409,2213
{consumergroup=adapter-service},1651299414,2213
{consumergroup=adapter-service},1651299419,4841
{consumergroup=adapter-service},1651299424,4841
{consumergroup=adapter-service},1651299429,4841
{consumergroup=adapter-service},1651299434,1176
{consumergroup=adapter-service},1651299439,1176
{consumergroup=adapter-service},1651299444,1176
{consumergroup=adapter-service},1651299449,3962
{consumergroup=adapter-service},1651299454,3962
{consumergroup=adapter-service},1651299459,3962
{consumergroup=adapter-service},1651299464,719
{consumergroup=adapter-service},1651299469,719
{consumergroup=adapter-service},1651299474,719
{consumergroup=adapter-service},1651299479,3212
{consumergroup=adapter-service},1651299484,3212
{consumergroup=adapter-service},1651299489,3212
{consumergroup=adapter-service},1651299494,3727
{consumergroup=adapter-service},1651299499,3727
{consumergroup=adapter-service},1651299504,3727
{consumergroup=adapter-service},1651299509,2631
{consumergroup=adapter-service},1651299514,2631
{consumergroup=adapter-service},1651299519,2631
{consumergroup=adapter-service},1651299524,7961
{consumergroup=adapter-service},1651299529,7961
{consumergroup=adapter-service},1651299534,7961
{consumergroup=adapter-service},1651299539,1939
{consumergroup=adapter-service},1651299544,1939
{consumergroup=adapter-service},1651299549,1939
{consumergroup=adapter-service},1651299554,6866
{consumergroup=adapter-service},1651299559,6866
{consumergroup=adapter-service},1651299564,6866
{consumergroup=adapter-service},1651299569,1439
{consumergroup=adapter-service},1651299574,1439
{consumergroup=adapter-service},1651299579,1439
{consumergroup=adapter-service},1651299584,14226
{consumergroup=adapter-service},1651299589,14226
{consumergroup=adapter-service},1651299594,14226
{consumergroup=adapter-service},1651299599,1145
{consumergroup=adapter-service},1651299604,1145
{consumergroup=adapter-service},1651299609,1145
{consumergroup=adapter-service},1651299614,12680
{consumergroup=adapter-service},1651299619,12680
{consumergroup=adapter-service},1651299624,12680
{consumergroup=adapter-service},1651299629,179
{consumergroup=adapter-service},1651299634,179
{consumergroup=adapter-service},1651299639,179
{consumergroup=adapter-service},1651299644,12326
{consumergroup=adapter-service},1651299649,12326
{consumergroup=adapter-service},1651299654,12326
{consumergroup=adapter-service},1651299659,3638
{consumergroup=adapter-service},1651299664,3638
{consumergroup=adapter-service},1651299669,3638
{consumergroup=adapter-service},1651299674,11851
{consumergroup=adapter-service},1651299679,11851
{consumergroup=adapter-service},1651299684,11851
{consumergroup=adapter-service},1651299689,7102
{consumergroup=adapter-service},1651299694,7102
{consumergroup=adapter-service},1651299699,7102
{consumergroup=adapter-service},1651299704,11085
{consumergroup=adapter-service},1651299709,11085
{consumergroup=adapter-service},1651299714,11085
{consumergroup=adapter-service},1651299719,6862
{consumergroup=adapter-service},1651299724,6862
{consumergroup=adapter-service},1651299729,6862
{consumergroup=adapter-service},1651299734,11314
{consumergroup=adapter-service},1651299739,11314
{consumergroup=adapter-service},1651299744,11314
{consumergroup=adapter-service},1651299749,13514
{consumergroup=adapter-service},1651299754,13514
{consumergroup=adapter-service},1651299759,13514
{consumergroup=adapter-service},1651299764,9905
{consumergroup=adapter-service},1651299769,9905
{consumergroup=adapter-service},1651299774,9905
{consumergroup=adapter-service},1651299779,13040
{consumergroup=landscape-service},1651299329,1763
{consumergroup=landscape-service},1651299334,1763
{consumergroup=landscape-service},1651299339,1763
{consumergroup=landscape-service},1651299344,12112
{consumergroup=landscape-service},1651299349,12112
{consumergroup=landscape-service},1651299354,12112
{consumergroup=landscape-service},1651299359,16533
{consumergroup=landscape-service},1651299364,16533
{consumergroup=landscape-service},1651299369,16533
{consumergroup=landscape-service},1651299374,11067
{consumergroup=landscape-service},1651299379,11067
{consumergroup=landscape-service},1651299384,11067
{consumergroup=landscape-service},1651299389,15242
{consumergroup=landscape-service},1651299394,15242
{consumergroup=landscape-service},1651299399,15242
{consumergroup=landscape-service},1651299404,10148
{consumergroup=landscape-service},1651299409,10148
{consumergroup=landscape-service},1651299414,10148
{consumergroup=landscape-service},1651299419,13847
{consumergroup=landscape-service},1651299424,13847
{consumergroup=landscape-service},1651299429,13847
{consumergroup=landscape-service},1651299434,9279
{consumergroup=landscape-service},1651299439,9279
{consumergroup=landscape-service},1651299444,9279
{consumergroup=landscape-service},1651299449,11976
{consumergroup=landscape-service},1651299454,11976
{consumergroup=landscape-service},1651299459,11976
{consumergroup=landscape-service},1651299464,8111
{consumergroup=landscape-service},1651299469,8111
{consumergroup=landscape-service},1651299474,8111
{consumergroup=landscape-service},1651299479,10660
{consumergroup=landscape-service},1651299484,10660
{consumergroup=landscape-service},1651299489,10660
{consumergroup=landscape-service},1651299494,6781
{consumergroup=landscape-service},1651299499,6781
{consumergroup=landscape-service},1651299504,6781
{consumergroup=landscape-service},1651299509,9655
{consumergroup=landscape-service},1651299514,9655
{consumergroup=landscape-service},1651299519,9655
{consumergroup=landscape-service},1651299524,6427
{consumergroup=landscape-service},1651299529,6427
{consumergroup=landscape-service},1651299534,6427
{consumergroup=landscape-service},1651299539,9149
{consumergroup=landscape-service},1651299544,9149
{consumergroup=landscape-service},1651299549,9149
{consumergroup=landscape-service},1651299554,4203
{consumergroup=landscape-service},1651299559,4203
{consumergroup=landscape-service},1651299564,4203
{consumergroup=landscape-service},1651299569,7800
{consumergroup=landscape-service},1651299574,7800
{consumergroup=landscape-service},1651299579,7800
{consumergroup=landscape-service},1651299584,2993
{consumergroup=landscape-service},1651299589,2993
{consumergroup=landscape-service},1651299594,2993
{consumergroup=landscape-service},1651299599,5890
{consumergroup=landscape-service},1651299604,5890
{consumergroup=landscape-service},1651299609,5890
{consumergroup=landscape-service},1651299614,1894
{consumergroup=landscape-service},1651299619,1894
{consumergroup=landscape-service},1651299624,1894
{consumergroup=landscape-service},1651299629,4495
{consumergroup=landscape-service},1651299634,4495
{consumergroup=landscape-service},1651299639,4495
{consumergroup=landscape-service},1651299644,549
{consumergroup=landscape-service},1651299649,549
{consumergroup=landscape-service},1651299654,549
{consumergroup=landscape-service},1651299659,3813
{consumergroup=landscape-service},1651299664,3813
{consumergroup=landscape-service},1651299669,3813
{consumergroup=landscape-service},1651299674,15773
{consumergroup=landscape-service},1651299679,15773
{consumergroup=landscape-service},1651299684,15773
{consumergroup=landscape-service},1651299689,2017
{consumergroup=landscape-service},1651299694,2017
{consumergroup=landscape-service},1651299699,2017
{consumergroup=landscape-service},1651299704,14202
{consumergroup=landscape-service},1651299709,14202
{consumergroup=landscape-service},1651299714,14202
{consumergroup=landscape-service},1651299719,976
{consumergroup=landscape-service},1651299724,976
{consumergroup=landscape-service},1651299729,976
{consumergroup=landscape-service},1651299734,13014
{consumergroup=landscape-service},1651299739,13014
{consumergroup=landscape-service},1651299744,13014
{consumergroup=landscape-service},1651299749,16713
{consumergroup=landscape-service},1651299754,16713
{consumergroup=landscape-service},1651299759,16713
{consumergroup=landscape-service},1651299764,12053
{consumergroup=landscape-service},1651299769,12053
{consumergroup=landscape-service},1651299774,12053
{consumergroup=landscape-service},1651299779,15747
{consumergroup=trace-service},1651299314,0
{consumergroup=trace-service},1651299319,0
{consumergroup=trace-service},1651299324,0
{consumergroup=trace-service},1651299329,27691
{consumergroup=trace-service},1651299334,27691
{consumergroup=trace-service},1651299339,27691
{consumergroup=trace-service},1651299344,48297
{consumergroup=trace-service},1651299349,48297
{consumergroup=trace-service},1651299354,48297
{consumergroup=trace-service},1651299359,24323
{consumergroup=trace-service},1651299364,24323
{consumergroup=trace-service},1651299369,24323
{consumergroup=trace-service},1651299374,40917
{consumergroup=trace-service},1651299379,40917
{consumergroup=trace-service},1651299384,40917
{consumergroup=trace-service},1651299389,19791
{consumergroup=trace-service},1651299394,19791
{consumergroup=trace-service},1651299399,19791
{consumergroup=trace-service},1651299404,39146
{consumergroup=trace-service},1651299409,39146
{consumergroup=trace-service},1651299414,39146
{consumergroup=trace-service},1651299419,96259
{consumergroup=trace-service},1651299424,96259
{consumergroup=trace-service},1651299429,96259
{consumergroup=trace-service},1651299434,40608
{consumergroup=trace-service},1651299439,40608
{consumergroup=trace-service},1651299444,40608
{consumergroup=trace-service},1651299449,23721
{consumergroup=trace-service},1651299454,23721
{consumergroup=trace-service},1651299459,23721
{consumergroup=trace-service},1651299464,40300
{consumergroup=trace-service},1651299469,40300
{consumergroup=trace-service},1651299474,40300
{consumergroup=trace-service},1651299479,117237
{consumergroup=trace-service},1651299484,117237
{consumergroup=trace-service},1651299489,117237
{consumergroup=trace-service},1651299494,37369
{consumergroup=trace-service},1651299499,37369
{consumergroup=trace-service},1651299504,37369
{consumergroup=trace-service},1651299509,15731
{consumergroup=trace-service},1651299514,15731
{consumergroup=trace-service},1651299519,15731
{consumergroup=trace-service},1651299524,36716
{consumergroup=trace-service},1651299529,36716
{consumergroup=trace-service},1651299534,36716
{consumergroup=trace-service},1651299539,15073
{consumergroup=trace-service},1651299544,15073
{consumergroup=trace-service},1651299549,15073
{consumergroup=trace-service},1651299554,36019
{consumergroup=trace-service},1651299559,36019
{consumergroup=trace-service},1651299564,36019
{consumergroup=trace-service},1651299569,65806
{consumergroup=trace-service},1651299574,65806
{consumergroup=trace-service},1651299579,65806
{consumergroup=trace-service},1651299584,46666
{consumergroup=trace-service},1651299589,46666
{consumergroup=trace-service},1651299594,46666
{consumergroup=trace-service},1651299599,17613
{consumergroup=trace-service},1651299604,17613
{consumergroup=trace-service},1651299609,17613
{consumergroup=trace-service},1651299614,37501
{consumergroup=trace-service},1651299619,37501
{consumergroup=trace-service},1651299624,37501
{consumergroup=trace-service},1651299629,18608
{consumergroup=trace-service},1651299634,18608
{consumergroup=trace-service},1651299639,18608
{consumergroup=trace-service},1651299644,37025
{consumergroup=trace-service},1651299649,37025
{consumergroup=trace-service},1651299654,37025
{consumergroup=trace-service},1651299659,126748
{consumergroup=trace-service},1651299664,126748
{consumergroup=trace-service},1651299669,126748
{consumergroup=trace-service},1651299674,37021
{consumergroup=trace-service},1651299679,37021
{consumergroup=trace-service},1651299684,37021
{consumergroup=trace-service},1651299689,23004
{consumergroup=trace-service},1651299694,23004
{consumergroup=trace-service},1651299699,23004
{consumergroup=trace-service},1651299704,35587
{consumergroup=trace-service},1651299709,35587
{consumergroup=trace-service},1651299714,35587
{consumergroup=trace-service},1651299719,23202
{consumergroup=trace-service},1651299724,23202
{consumergroup=trace-service},1651299729,23202
{consumergroup=trace-service},1651299734,38118
{consumergroup=trace-service},1651299739,38118
{consumergroup=trace-service},1651299744,38118
{consumergroup=trace-service},1651299749,61633
{consumergroup=trace-service},1651299754,61633
{consumergroup=trace-service},1651299759,61633
{consumergroup=trace-service},1651299764,37565
{consumergroup=trace-service},1651299769,37565
{consumergroup=trace-service},1651299774,37565
{consumergroup=trace-service},1651299779,29148
{consumergroup=trace-token-events-consumer},1651299299,0
{consumergroup=trace-token-events-consumer},1651299304,0
{consumergroup=trace-token-events-consumer},1651299309,0
{consumergroup=trace-token-events-consumer},1651299314,0
{consumergroup=trace-token-events-consumer},1651299319,0
{consumergroup=trace-token-events-consumer},1651299324,0
{consumergroup=trace-token-events-consumer},1651299329,0
{consumergroup=trace-token-events-consumer},1651299334,0
{consumergroup=trace-token-events-consumer},1651299339,0
{consumergroup=trace-token-events-consumer},1651299344,0
{consumergroup=trace-token-events-consumer},1651299349,0
{consumergroup=trace-token-events-consumer},1651299354,0
{consumergroup=trace-token-events-consumer},1651299359,0
{consumergroup=trace-token-events-consumer},1651299364,0
{consumergroup=trace-token-events-consumer},1651299369,0
{consumergroup=trace-token-events-consumer},1651299374,0
{consumergroup=trace-token-events-consumer},1651299379,0
{consumergroup=trace-token-events-consumer},1651299384,0
{consumergroup=trace-token-events-consumer},1651299389,0
{consumergroup=trace-token-events-consumer},1651299394,0
{consumergroup=trace-token-events-consumer},1651299399,0
{consumergroup=trace-token-events-consumer},1651299404,0
{consumergroup=trace-token-events-consumer},1651299409,0
{consumergroup=trace-token-events-consumer},1651299414,0
{consumergroup=trace-token-events-consumer},1651299419,0
{consumergroup=trace-token-events-consumer},1651299424,0
{consumergroup=trace-token-events-consumer},1651299429,0
{consumergroup=trace-token-events-consumer},1651299434,0
{consumergroup=trace-token-events-consumer},1651299439,0
{consumergroup=trace-token-events-consumer},1651299444,0
{consumergroup=trace-token-events-consumer},1651299449,0
{consumergroup=trace-token-events-consumer},1651299454,0
{consumergroup=trace-token-events-consumer},1651299459,0
{consumergroup=trace-token-events-consumer},1651299464,0
{consumergroup=trace-token-events-consumer},1651299469,0
{consumergroup=trace-token-events-consumer},1651299474,0
{consumergroup=trace-token-events-consumer},1651299479,0
{consumergroup=trace-token-events-consumer},1651299484,0
{consumergroup=trace-token-events-consumer},1651299489,0
{consumergroup=trace-token-events-consumer},1651299494,0
{consumergroup=trace-token-events-consumer},1651299499,0
{consumergroup=trace-token-events-consumer},1651299504,0
{consumergroup=trace-token-events-consumer},1651299509,0
{consumergroup=trace-token-events-consumer},1651299514,0
{consumergroup=trace-token-events-consumer},1651299519,0
{consumergroup=trace-token-events-consumer},1651299524,0
{consumergroup=trace-token-events-consumer},1651299529,0
{consumergroup=trace-token-events-consumer},1651299534,0
{consumergroup=trace-token-events-consumer},1651299539,0
{consumergroup=trace-token-events-consumer},1651299544,0
{consumergroup=trace-token-events-consumer},1651299549,0
{consumergroup=trace-token-events-consumer},1651299554,0
{consumergroup=trace-token-events-consumer},1651299559,0
{consumergroup=trace-token-events-consumer},1651299564,0
{consumergroup=trace-token-events-consumer},1651299569,0
{consumergroup=trace-token-events-consumer},1651299574,0
{consumergroup=trace-token-events-consumer},1651299579,0
{consumergroup=trace-token-events-consumer},1651299584,0
{consumergroup=trace-token-events-consumer},1651299589,0
{consumergroup=trace-token-events-consumer},1651299594,0
{consumergroup=trace-token-events-consumer},1651299599,0
{consumergroup=trace-token-events-consumer},1651299604,0
{consumergroup=trace-token-events-consumer},1651299609,0
{consumergroup=trace-token-events-consumer},1651299614,0
{consumergroup=trace-token-events-consumer},1651299619,0
{consumergroup=trace-token-events-consumer},1651299624,0
{consumergroup=trace-token-events-consumer},1651299629,0
{consumergroup=trace-token-events-consumer},1651299634,0
{consumergroup=trace-token-events-consumer},1651299639,0
{consumergroup=trace-token-events-consumer},1651299644,0
{consumergroup=trace-token-events-consumer},1651299649,0
{consumergroup=trace-token-events-consumer},1651299654,0
{consumergroup=trace-token-events-consumer},1651299659,0
{consumergroup=trace-token-events-consumer},1651299664,0
{consumergroup=trace-token-events-consumer},1651299669,0
{consumergroup=trace-token-events-consumer},1651299674,0
{consumergroup=trace-token-events-consumer},1651299679,0
{consumergroup=trace-token-events-consumer},1651299684,0
{consumergroup=trace-token-events-consumer},1651299689,0
{consumergroup=trace-token-events-consumer},1651299694,0
{consumergroup=trace-token-events-consumer},1651299699,0
{consumergroup=trace-token-events-consumer},1651299704,0
{consumergroup=trace-token-events-consumer},1651299709,0
{consumergroup=trace-token-events-consumer},1651299714,0
{consumergroup=trace-token-events-consumer},1651299719,0
{consumergroup=trace-token-events-consumer},1651299724,0
{consumergroup=trace-token-events-consumer},1651299729,0
{consumergroup=trace-token-events-consumer},1651299734,0
{consumergroup=trace-token-events-consumer},1651299739,0
{consumergroup=trace-token-events-consumer},1651299744,0
{consumergroup=trace-token-events-consumer},1651299749,0
{consumergroup=trace-token-events-consumer},1651299754,0
{consumergroup=trace-token-events-consumer},1651299759,0
{consumergroup=trace-token-events-consumer},1651299764,0
{consumergroup=trace-token-events-consumer},1651299769,0
{consumergroup=trace-token-events-consumer},1651299774,0
{consumergroup=trace-token-events-consumer},1651299779,0
