labels,timestamp,value
{job=theodolite-stu200776/combined-trace-podmonitor},1651288279,0
{job=theodolite-stu200776/combined-trace-podmonitor},1651288284,0
{job=theodolite-stu200776/combined-trace-podmonitor},1651288289,0
{job=theodolite-stu200776/combined-trace-podmonitor},1651288294,0
{job=theodolite-stu200776/combined-trace-podmonitor},1651288299,0
{job=theodolite-stu200776/combined-trace-podmonitor},1651288304,0
{job=theodolite-stu200776/combined-trace-podmonitor},1651288309,0
{job=theodolite-stu200776/combined-trace-podmonitor},1651288314,0
{job=theodolite-stu200776/combined-trace-podmonitor},1651288319,0
{job=theodolite-stu200776/combined-trace-podmonitor},1651288324,0
{job=theodolite-stu200776/combined-trace-podmonitor},1651288329,0
{job=theodolite-stu200776/combined-trace-podmonitor},1651288334,0
{job=theodolite-stu200776/combined-trace-podmonitor},1651288339,0
{job=theodolite-stu200776/combined-trace-podmonitor},1651288344,0
{job=theodolite-stu200776/combined-trace-podmonitor},1651288349,0
{job=theodolite-stu200776/combined-trace-podmonitor},1651288354,0
{job=theodolite-stu200776/combined-trace-podmonitor},1651288359,0
{job=theodolite-stu200776/combined-trace-podmonitor},1651288364,0
{job=theodolite-stu200776/combined-trace-podmonitor},1651288369,0
{job=theodolite-stu200776/combined-trace-podmonitor},1651288374,0
{job=theodolite-stu200776/combined-trace-podmonitor},1651288379,0
{job=theodolite-stu200776/combined-trace-podmonitor},1651288384,0
{job=theodolite-stu200776/combined-trace-podmonitor},1651288389,0
{job=theodolite-stu200776/combined-trace-podmonitor},1651288394,0
{job=theodolite-stu200776/combined-trace-podmonitor},1651288399,0
{job=theodolite-stu200776/combined-trace-podmonitor},1651288404,0
{job=theodolite-stu200776/combined-trace-podmonitor},1651288409,0
{job=theodolite-stu200776/combined-trace-podmonitor},1651288414,0
{job=theodolite-stu200776/combined-trace-podmonitor},1651288419,0
{job=theodolite-stu200776/combined-trace-podmonitor},1651288424,0
{job=theodolite-stu200776/combined-trace-podmonitor},1651288429,0
{job=theodolite-stu200776/combined-trace-podmonitor},1651288434,0
{job=theodolite-stu200776/combined-trace-podmonitor},1651288439,0
{job=theodolite-stu200776/combined-trace-podmonitor},1651288444,0
{job=theodolite-stu200776/combined-trace-podmonitor},1651288449,0
{job=theodolite-stu200776/combined-trace-podmonitor},1651288454,0
{job=theodolite-stu200776/combined-trace-podmonitor},1651288459,0
{job=theodolite-stu200776/combined-trace-podmonitor},1651288464,0
{job=theodolite-stu200776/combined-trace-podmonitor},1651288469,0
{job=theodolite-stu200776/combined-trace-podmonitor},1651288474,0
{job=theodolite-stu200776/combined-trace-podmonitor},1651288479,0
{job=theodolite-stu200776/combined-trace-podmonitor},1651288484,0
{job=theodolite-stu200776/combined-trace-podmonitor},1651288489,0
{job=theodolite-stu200776/combined-trace-podmonitor},1651288494,0
{job=theodolite-stu200776/combined-trace-podmonitor},1651288499,0
{job=theodolite-stu200776/combined-trace-podmonitor},1651288504,0
{job=theodolite-stu200776/combined-trace-podmonitor},1651288509,0
{job=theodolite-stu200776/combined-trace-podmonitor},1651288514,0
{job=theodolite-stu200776/combined-trace-podmonitor},1651288519,0
{job=theodolite-stu200776/combined-trace-podmonitor},1651288524,0
{job=theodolite-stu200776/combined-trace-podmonitor},1651288529,0
{job=theodolite-stu200776/combined-trace-podmonitor},1651288534,0
{job=theodolite-stu200776/combined-trace-podmonitor},1651288539,0
{job=theodolite-stu200776/combined-trace-podmonitor},1651288544,0
{job=theodolite-stu200776/combined-trace-podmonitor},1651288549,0
{job=theodolite-stu200776/combined-trace-podmonitor},1651288554,0
{job=theodolite-stu200776/combined-trace-podmonitor},1651288559,0
{job=theodolite-stu200776/combined-trace-podmonitor},1651288564,0
{job=theodolite-stu200776/combined-trace-podmonitor},1651288569,0
{job=theodolite-stu200776/combined-trace-podmonitor},1651288574,0
{job=theodolite-stu200776/combined-trace-podmonitor},1651288579,0
{job=theodolite-stu200776/combined-trace-podmonitor},1651288584,0
{job=theodolite-stu200776/combined-trace-podmonitor},1651288589,0
{job=theodolite-stu200776/combined-trace-podmonitor},1651288594,0
{job=theodolite-stu200776/combined-trace-podmonitor},1651288599,0
{job=theodolite-stu200776/combined-trace-podmonitor},1651288604,0
{job=theodolite-stu200776/combined-trace-podmonitor},1651288609,0
{job=theodolite-stu200776/combined-trace-podmonitor},1651288614,0
{job=theodolite-stu200776/combined-trace-podmonitor},1651288619,0
{job=theodolite-stu200776/combined-trace-podmonitor},1651288624,0
{job=theodolite-stu200776/combined-trace-podmonitor},1651288629,0
{job=theodolite-stu200776/combined-trace-podmonitor},1651288634,0
{job=theodolite-stu200776/combined-trace-podmonitor},1651288639,0
{job=theodolite-stu200776/combined-trace-podmonitor},1651288644,0
{job=theodolite-stu200776/combined-trace-podmonitor},1651288649,0
{job=theodolite-stu200776/combined-trace-podmonitor},1651288654,0
{job=theodolite-stu200776/combined-trace-podmonitor},1651288659,0
{job=theodolite-stu200776/combined-trace-podmonitor},1651288664,0
{job=theodolite-stu200776/combined-trace-podmonitor},1651288669,0
{job=theodolite-stu200776/combined-trace-podmonitor},1651288674,0
{job=theodolite-stu200776/combined-trace-podmonitor},1651288679,0
{job=theodolite-stu200776/combined-trace-podmonitor},1651288684,0
{job=theodolite-stu200776/combined-trace-podmonitor},1651288689,0
{job=theodolite-stu200776/combined-trace-podmonitor},1651288694,0
{job=theodolite-stu200776/combined-trace-podmonitor},1651288699,0
{job=theodolite-stu200776/combined-trace-podmonitor},1651288704,0
{job=theodolite-stu200776/combined-trace-podmonitor},1651288709,0
{job=theodolite-stu200776/combined-trace-podmonitor},1651288714,0
