labels,timestamp,value
{consumergroup=__strimzi-topic-operator-kstreams},1651399856,14
{consumergroup=__strimzi-topic-operator-kstreams},1651399861,14
{consumergroup=__strimzi-topic-operator-kstreams},1651399866,14
{consumergroup=__strimzi-topic-operator-kstreams},1651399871,14
{consumergroup=__strimzi-topic-operator-kstreams},1651399876,14
{consumergroup=__strimzi-topic-operator-kstreams},1651399881,14
{consumergroup=__strimzi-topic-operator-kstreams},1651399886,0
{consumergroup=__strimzi-topic-operator-kstreams},1651399891,0
{consumergroup=__strimzi-topic-operator-kstreams},1651399896,0
{consumergroup=__strimzi-topic-operator-kstreams},1651399901,0
{consumergroup=__strimzi-topic-operator-kstreams},1651399906,0
{consumergroup=__strimzi-topic-operator-kstreams},1651399911,0
{consumergroup=__strimzi-topic-operator-kstreams},1651399916,0
{consumergroup=__strimzi-topic-operator-kstreams},1651399921,0
{consumergroup=__strimzi-topic-operator-kstreams},1651399926,0
{consumergroup=__strimzi-topic-operator-kstreams},1651399931,0
{consumergroup=__strimzi-topic-operator-kstreams},1651399936,0
{consumergroup=__strimzi-topic-operator-kstreams},1651399941,0
{consumergroup=__strimzi-topic-operator-kstreams},1651399946,0
{consumergroup=__strimzi-topic-operator-kstreams},1651399951,0
{consumergroup=__strimzi-topic-operator-kstreams},1651399956,0
{consumergroup=__strimzi-topic-operator-kstreams},1651399961,0
{consumergroup=__strimzi-topic-operator-kstreams},1651399966,0
{consumergroup=__strimzi-topic-operator-kstreams},1651399971,0
{consumergroup=__strimzi-topic-operator-kstreams},1651399976,0
{consumergroup=__strimzi-topic-operator-kstreams},1651399981,0
{consumergroup=__strimzi-topic-operator-kstreams},1651399986,0
{consumergroup=__strimzi-topic-operator-kstreams},1651399991,0
{consumergroup=__strimzi-topic-operator-kstreams},1651399996,0
{consumergroup=__strimzi-topic-operator-kstreams},1651400001,0
{consumergroup=__strimzi-topic-operator-kstreams},1651400006,0
{consumergroup=__strimzi-topic-operator-kstreams},1651400011,0
{consumergroup=__strimzi-topic-operator-kstreams},1651400016,0
{consumergroup=__strimzi-topic-operator-kstreams},1651400021,0
{consumergroup=__strimzi-topic-operator-kstreams},1651400026,0
{consumergroup=__strimzi-topic-operator-kstreams},1651400031,0
{consumergroup=__strimzi-topic-operator-kstreams},1651400036,0
{consumergroup=__strimzi-topic-operator-kstreams},1651400041,0
{consumergroup=__strimzi-topic-operator-kstreams},1651400046,0
{consumergroup=__strimzi-topic-operator-kstreams},1651400051,0
{consumergroup=__strimzi-topic-operator-kstreams},1651400056,0
{consumergroup=__strimzi-topic-operator-kstreams},1651400061,0
{consumergroup=__strimzi-topic-operator-kstreams},1651400066,0
{consumergroup=__strimzi-topic-operator-kstreams},1651400071,0
{consumergroup=__strimzi-topic-operator-kstreams},1651400076,0
{consumergroup=__strimzi-topic-operator-kstreams},1651400081,0
{consumergroup=__strimzi-topic-operator-kstreams},1651400086,0
{consumergroup=__strimzi-topic-operator-kstreams},1651400091,0
{consumergroup=__strimzi-topic-operator-kstreams},1651400096,0
{consumergroup=adapter-service},1651399886,103100
{consumergroup=adapter-service},1651399891,103100
{consumergroup=adapter-service},1651399896,103100
{consumergroup=adapter-service},1651399901,120819
{consumergroup=adapter-service},1651399906,120819
{consumergroup=adapter-service},1651399911,120819
{consumergroup=adapter-service},1651399916,122579
{consumergroup=adapter-service},1651399921,122579
{consumergroup=adapter-service},1651399926,122579
{consumergroup=adapter-service},1651399931,147191
{consumergroup=adapter-service},1651399936,147191
{consumergroup=adapter-service},1651399941,147191
{consumergroup=adapter-service},1651399946,133191
{consumergroup=adapter-service},1651399951,133191
{consumergroup=adapter-service},1651399956,133191
{consumergroup=adapter-service},1651399961,163743
{consumergroup=adapter-service},1651399966,163743
{consumergroup=adapter-service},1651399971,163743
{consumergroup=adapter-service},1651399976,157364
{consumergroup=adapter-service},1651399981,157364
{consumergroup=adapter-service},1651399986,157364
{consumergroup=adapter-service},1651399991,169386
{consumergroup=adapter-service},1651399996,169386
{consumergroup=adapter-service},1651400001,169386
{consumergroup=adapter-service},1651400006,169734
{consumergroup=adapter-service},1651400011,169734
{consumergroup=adapter-service},1651400016,169734
{consumergroup=adapter-service},1651400021,161926
{consumergroup=adapter-service},1651400026,161926
{consumergroup=adapter-service},1651400031,161926
{consumergroup=adapter-service},1651400036,179809
{consumergroup=adapter-service},1651400041,179809
{consumergroup=adapter-service},1651400046,179809
{consumergroup=adapter-service},1651400051,186242
{consumergroup=adapter-service},1651400056,186242
{consumergroup=adapter-service},1651400061,186242
{consumergroup=adapter-service},1651400066,196100
{consumergroup=adapter-service},1651400071,196100
{consumergroup=adapter-service},1651400076,196100
{consumergroup=adapter-service},1651400081,174024
{consumergroup=adapter-service},1651400086,174024
{consumergroup=adapter-service},1651400091,174024
{consumergroup=adapter-service},1651400096,206630
