labels,timestamp,value
{consumergroup=__strimzi-topic-operator-kstreams},1651352273,9
{consumergroup=__strimzi-topic-operator-kstreams},1651352278,9
{consumergroup=__strimzi-topic-operator-kstreams},1651352283,9
{consumergroup=__strimzi-topic-operator-kstreams},1651352288,0
{consumergroup=__strimzi-topic-operator-kstreams},1651352293,0
{consumergroup=__strimzi-topic-operator-kstreams},1651352298,0
{consumergroup=__strimzi-topic-operator-kstreams},1651352303,0
{consumergroup=__strimzi-topic-operator-kstreams},1651352308,0
{consumergroup=__strimzi-topic-operator-kstreams},1651352313,0
{consumergroup=__strimzi-topic-operator-kstreams},1651352318,0
{consumergroup=__strimzi-topic-operator-kstreams},1651352323,0
{consumergroup=__strimzi-topic-operator-kstreams},1651352328,0
{consumergroup=__strimzi-topic-operator-kstreams},1651352333,0
{consumergroup=__strimzi-topic-operator-kstreams},1651352338,0
{consumergroup=__strimzi-topic-operator-kstreams},1651352343,0
{consumergroup=__strimzi-topic-operator-kstreams},1651352348,0
{consumergroup=__strimzi-topic-operator-kstreams},1651352353,0
{consumergroup=__strimzi-topic-operator-kstreams},1651352358,0
{consumergroup=__strimzi-topic-operator-kstreams},1651352363,0
{consumergroup=__strimzi-topic-operator-kstreams},1651352368,0
{consumergroup=__strimzi-topic-operator-kstreams},1651352373,0
{consumergroup=__strimzi-topic-operator-kstreams},1651352378,0
{consumergroup=__strimzi-topic-operator-kstreams},1651352383,0
{consumergroup=__strimzi-topic-operator-kstreams},1651352388,0
{consumergroup=__strimzi-topic-operator-kstreams},1651352393,0
{consumergroup=__strimzi-topic-operator-kstreams},1651352398,0
{consumergroup=__strimzi-topic-operator-kstreams},1651352403,0
{consumergroup=__strimzi-topic-operator-kstreams},1651352408,0
{consumergroup=__strimzi-topic-operator-kstreams},1651352413,0
{consumergroup=__strimzi-topic-operator-kstreams},1651352418,0
{consumergroup=__strimzi-topic-operator-kstreams},1651352423,0
{consumergroup=__strimzi-topic-operator-kstreams},1651352428,0
{consumergroup=__strimzi-topic-operator-kstreams},1651352433,0
{consumergroup=__strimzi-topic-operator-kstreams},1651352438,0
{consumergroup=__strimzi-topic-operator-kstreams},1651352443,0
{consumergroup=__strimzi-topic-operator-kstreams},1651352448,0
{consumergroup=__strimzi-topic-operator-kstreams},1651352453,0
{consumergroup=__strimzi-topic-operator-kstreams},1651352458,0
{consumergroup=__strimzi-topic-operator-kstreams},1651352463,0
{consumergroup=__strimzi-topic-operator-kstreams},1651352468,0
{consumergroup=__strimzi-topic-operator-kstreams},1651352473,0
{consumergroup=__strimzi-topic-operator-kstreams},1651352478,0
{consumergroup=__strimzi-topic-operator-kstreams},1651352483,0
{consumergroup=__strimzi-topic-operator-kstreams},1651352488,0
{consumergroup=__strimzi-topic-operator-kstreams},1651352493,0
{consumergroup=__strimzi-topic-operator-kstreams},1651352498,0
{consumergroup=__strimzi-topic-operator-kstreams},1651352503,0
{consumergroup=__strimzi-topic-operator-kstreams},1651352508,0
{consumergroup=__strimzi-topic-operator-kstreams},1651352513,0
{consumergroup=__strimzi-topic-operator-kstreams},1651352518,0
{consumergroup=adapter-service},1651352303,851201
{consumergroup=adapter-service},1651352308,851201
{consumergroup=adapter-service},1651352313,851201
{consumergroup=adapter-service},1651352318,1016008
{consumergroup=adapter-service},1651352323,1016008
{consumergroup=adapter-service},1651352328,1016008
{consumergroup=adapter-service},1651352333,795380
{consumergroup=adapter-service},1651352338,795380
{consumergroup=adapter-service},1651352343,795380
{consumergroup=adapter-service},1651352348,1621614
{consumergroup=adapter-service},1651352353,1621614
{consumergroup=adapter-service},1651352358,1621614
{consumergroup=adapter-service},1651352363,1317836
{consumergroup=adapter-service},1651352368,1317836
{consumergroup=adapter-service},1651352373,1317836
{consumergroup=adapter-service},1651352378,1076348
{consumergroup=adapter-service},1651352383,1076348
{consumergroup=adapter-service},1651352388,1076348
{consumergroup=adapter-service},1651352393,1094077
{consumergroup=adapter-service},1651352398,1094077
{consumergroup=adapter-service},1651352403,1094077
{consumergroup=adapter-service},1651352408,1383053
{consumergroup=adapter-service},1651352413,1383053
{consumergroup=adapter-service},1651352418,1383053
{consumergroup=adapter-service},1651352423,1628782
{consumergroup=adapter-service},1651352428,1628782
{consumergroup=adapter-service},1651352433,1628782
{consumergroup=adapter-service},1651352438,1126853
{consumergroup=adapter-service},1651352443,1126853
{consumergroup=adapter-service},1651352448,1126853
{consumergroup=adapter-service},1651352453,1749692
{consumergroup=adapter-service},1651352458,1749692
{consumergroup=adapter-service},1651352463,1749692
{consumergroup=adapter-service},1651352468,1655301
{consumergroup=adapter-service},1651352473,1655301
{consumergroup=adapter-service},1651352478,1655301
{consumergroup=adapter-service},1651352483,1594753
{consumergroup=adapter-service},1651352488,1594753
{consumergroup=adapter-service},1651352493,1594753
{consumergroup=adapter-service},1651352498,1963566
{consumergroup=adapter-service},1651352503,1963566
{consumergroup=adapter-service},1651352508,1963566
{consumergroup=adapter-service},1651352513,1751430
{consumergroup=adapter-service},1651352518,1751430
