labels,timestamp,value
{consumergroup=__strimzi-topic-operator-kstreams},1651371280,8
{consumergroup=__strimzi-topic-operator-kstreams},1651371285,8
{consumergroup=__strimzi-topic-operator-kstreams},1651371290,8
{consumergroup=__strimzi-topic-operator-kstreams},1651371295,0
{consumergroup=__strimzi-topic-operator-kstreams},1651371300,0
{consumergroup=__strimzi-topic-operator-kstreams},1651371305,0
{consumergroup=__strimzi-topic-operator-kstreams},1651371310,0
{consumergroup=__strimzi-topic-operator-kstreams},1651371315,0
{consumergroup=__strimzi-topic-operator-kstreams},1651371320,0
{consumergroup=__strimzi-topic-operator-kstreams},1651371325,0
{consumergroup=__strimzi-topic-operator-kstreams},1651371330,0
{consumergroup=__strimzi-topic-operator-kstreams},1651371335,0
{consumergroup=__strimzi-topic-operator-kstreams},1651371340,0
{consumergroup=__strimzi-topic-operator-kstreams},1651371345,0
{consumergroup=__strimzi-topic-operator-kstreams},1651371350,0
{consumergroup=__strimzi-topic-operator-kstreams},1651371355,0
{consumergroup=__strimzi-topic-operator-kstreams},1651371360,0
{consumergroup=__strimzi-topic-operator-kstreams},1651371365,0
{consumergroup=__strimzi-topic-operator-kstreams},1651371370,0
{consumergroup=__strimzi-topic-operator-kstreams},1651371375,0
{consumergroup=__strimzi-topic-operator-kstreams},1651371380,0
{consumergroup=__strimzi-topic-operator-kstreams},1651371385,0
{consumergroup=__strimzi-topic-operator-kstreams},1651371390,0
{consumergroup=__strimzi-topic-operator-kstreams},1651371395,0
{consumergroup=__strimzi-topic-operator-kstreams},1651371400,0
{consumergroup=__strimzi-topic-operator-kstreams},1651371405,0
{consumergroup=__strimzi-topic-operator-kstreams},1651371410,0
{consumergroup=__strimzi-topic-operator-kstreams},1651371415,0
{consumergroup=__strimzi-topic-operator-kstreams},1651371420,0
{consumergroup=__strimzi-topic-operator-kstreams},1651371425,0
{consumergroup=__strimzi-topic-operator-kstreams},1651371430,0
{consumergroup=__strimzi-topic-operator-kstreams},1651371435,0
{consumergroup=__strimzi-topic-operator-kstreams},1651371440,0
{consumergroup=__strimzi-topic-operator-kstreams},1651371445,0
{consumergroup=__strimzi-topic-operator-kstreams},1651371450,0
{consumergroup=__strimzi-topic-operator-kstreams},1651371455,0
{consumergroup=__strimzi-topic-operator-kstreams},1651371460,0
{consumergroup=__strimzi-topic-operator-kstreams},1651371465,0
{consumergroup=__strimzi-topic-operator-kstreams},1651371470,0
{consumergroup=__strimzi-topic-operator-kstreams},1651371475,0
{consumergroup=__strimzi-topic-operator-kstreams},1651371480,0
{consumergroup=__strimzi-topic-operator-kstreams},1651371485,0
{consumergroup=__strimzi-topic-operator-kstreams},1651371490,0
{consumergroup=__strimzi-topic-operator-kstreams},1651371495,0
{consumergroup=__strimzi-topic-operator-kstreams},1651371500,0
{consumergroup=__strimzi-topic-operator-kstreams},1651371505,0
{consumergroup=__strimzi-topic-operator-kstreams},1651371510,0
{consumergroup=__strimzi-topic-operator-kstreams},1651371515,0
{consumergroup=__strimzi-topic-operator-kstreams},1651371520,0
{consumergroup=__strimzi-topic-operator-kstreams},1651371525,0
{consumergroup=adapter-service},1651371295,96
{consumergroup=adapter-service},1651371300,96
{consumergroup=adapter-service},1651371305,96
{consumergroup=adapter-service},1651371310,910253
{consumergroup=adapter-service},1651371315,910253
{consumergroup=adapter-service},1651371320,910253
{consumergroup=adapter-service},1651371325,1982580
{consumergroup=adapter-service},1651371330,1982580
{consumergroup=adapter-service},1651371335,1982580
{consumergroup=adapter-service},1651371340,2797418
{consumergroup=adapter-service},1651371345,2797418
{consumergroup=adapter-service},1651371350,2797418
{consumergroup=adapter-service},1651371355,3748193
{consumergroup=adapter-service},1651371360,3748193
{consumergroup=adapter-service},1651371365,3748193
{consumergroup=adapter-service},1651371370,4563886
{consumergroup=adapter-service},1651371375,4563886
{consumergroup=adapter-service},1651371380,4563886
{consumergroup=adapter-service},1651371385,5284347
{consumergroup=adapter-service},1651371390,5284347
{consumergroup=adapter-service},1651371395,5284347
{consumergroup=adapter-service},1651371400,5996229
{consumergroup=adapter-service},1651371405,5996229
{consumergroup=adapter-service},1651371410,5996229
{consumergroup=adapter-service},1651371415,6650079
{consumergroup=adapter-service},1651371420,6650079
{consumergroup=adapter-service},1651371425,6650079
{consumergroup=adapter-service},1651371430,7226174
{consumergroup=adapter-service},1651371435,7226174
{consumergroup=adapter-service},1651371440,7226174
{consumergroup=adapter-service},1651371445,7948556
{consumergroup=adapter-service},1651371450,7948556
{consumergroup=adapter-service},1651371455,7948556
{consumergroup=adapter-service},1651371460,8499610
{consumergroup=adapter-service},1651371465,8499610
{consumergroup=adapter-service},1651371470,8499610
{consumergroup=adapter-service},1651371475,9206755
{consumergroup=adapter-service},1651371480,9206755
{consumergroup=adapter-service},1651371485,9206755
{consumergroup=adapter-service},1651371490,9764087
{consumergroup=adapter-service},1651371495,9764087
{consumergroup=adapter-service},1651371500,9764087
{consumergroup=adapter-service},1651371505,10464748
{consumergroup=adapter-service},1651371510,10464748
{consumergroup=adapter-service},1651371515,10464748
{consumergroup=adapter-service},1651371520,11069364
{consumergroup=adapter-service},1651371525,11069364
