labels,timestamp,value
{consumergroup=__strimzi-topic-operator-kstreams},1651278937,11
{consumergroup=__strimzi-topic-operator-kstreams},1651278942,11
{consumergroup=__strimzi-topic-operator-kstreams},1651278947,11
{consumergroup=__strimzi-topic-operator-kstreams},1651278952,3
{consumergroup=__strimzi-topic-operator-kstreams},1651278957,3
{consumergroup=__strimzi-topic-operator-kstreams},1651278962,3
{consumergroup=__strimzi-topic-operator-kstreams},1651278967,3
{consumergroup=__strimzi-topic-operator-kstreams},1651278972,3
{consumergroup=__strimzi-topic-operator-kstreams},1651278977,3
{consumergroup=__strimzi-topic-operator-kstreams},1651278982,0
{consumergroup=__strimzi-topic-operator-kstreams},1651278987,0
{consumergroup=__strimzi-topic-operator-kstreams},1651278992,0
{consumergroup=__strimzi-topic-operator-kstreams},1651278997,0
{consumergroup=__strimzi-topic-operator-kstreams},1651279002,0
{consumergroup=__strimzi-topic-operator-kstreams},1651279007,0
{consumergroup=__strimzi-topic-operator-kstreams},1651279012,0
{consumergroup=__strimzi-topic-operator-kstreams},1651279017,0
{consumergroup=__strimzi-topic-operator-kstreams},1651279022,0
{consumergroup=__strimzi-topic-operator-kstreams},1651279027,0
{consumergroup=__strimzi-topic-operator-kstreams},1651279032,0
{consumergroup=__strimzi-topic-operator-kstreams},1651279037,0
{consumergroup=__strimzi-topic-operator-kstreams},1651279042,0
{consumergroup=__strimzi-topic-operator-kstreams},1651279047,0
{consumergroup=__strimzi-topic-operator-kstreams},1651279052,0
{consumergroup=__strimzi-topic-operator-kstreams},1651279057,0
{consumergroup=__strimzi-topic-operator-kstreams},1651279062,0
{consumergroup=__strimzi-topic-operator-kstreams},1651279067,0
{consumergroup=__strimzi-topic-operator-kstreams},1651279072,0
{consumergroup=__strimzi-topic-operator-kstreams},1651279077,0
{consumergroup=__strimzi-topic-operator-kstreams},1651279082,0
{consumergroup=__strimzi-topic-operator-kstreams},1651279087,0
{consumergroup=__strimzi-topic-operator-kstreams},1651279092,0
{consumergroup=__strimzi-topic-operator-kstreams},1651279097,0
{consumergroup=__strimzi-topic-operator-kstreams},1651279102,0
{consumergroup=__strimzi-topic-operator-kstreams},1651279107,0
{consumergroup=__strimzi-topic-operator-kstreams},1651279112,0
{consumergroup=__strimzi-topic-operator-kstreams},1651279117,0
{consumergroup=__strimzi-topic-operator-kstreams},1651279122,0
{consumergroup=__strimzi-topic-operator-kstreams},1651279127,0
{consumergroup=__strimzi-topic-operator-kstreams},1651279132,0
{consumergroup=__strimzi-topic-operator-kstreams},1651279137,0
{consumergroup=__strimzi-topic-operator-kstreams},1651279142,0
{consumergroup=__strimzi-topic-operator-kstreams},1651279147,0
{consumergroup=__strimzi-topic-operator-kstreams},1651279152,0
{consumergroup=__strimzi-topic-operator-kstreams},1651279157,0
{consumergroup=__strimzi-topic-operator-kstreams},1651279162,0
{consumergroup=__strimzi-topic-operator-kstreams},1651279167,0
{consumergroup=__strimzi-topic-operator-kstreams},1651279172,0
{consumergroup=__strimzi-topic-operator-kstreams},1651279177,0
{consumergroup=__strimzi-topic-operator-kstreams},1651279182,0
{consumergroup=__strimzi-topic-operator-kstreams},1651279187,0
{consumergroup=__strimzi-topic-operator-kstreams},1651279192,0
{consumergroup=__strimzi-topic-operator-kstreams},1651279197,0
{consumergroup=__strimzi-topic-operator-kstreams},1651279202,0
{consumergroup=__strimzi-topic-operator-kstreams},1651279207,0
{consumergroup=__strimzi-topic-operator-kstreams},1651279212,0
{consumergroup=__strimzi-topic-operator-kstreams},1651279217,0
{consumergroup=__strimzi-topic-operator-kstreams},1651279222,0
{consumergroup=__strimzi-topic-operator-kstreams},1651279227,0
{consumergroup=__strimzi-topic-operator-kstreams},1651279232,0
{consumergroup=__strimzi-topic-operator-kstreams},1651279237,0
{consumergroup=__strimzi-topic-operator-kstreams},1651279242,0
{consumergroup=__strimzi-topic-operator-kstreams},1651279247,0
{consumergroup=__strimzi-topic-operator-kstreams},1651279252,0
{consumergroup=__strimzi-topic-operator-kstreams},1651279257,0
{consumergroup=__strimzi-topic-operator-kstreams},1651279262,0
{consumergroup=__strimzi-topic-operator-kstreams},1651279267,0
{consumergroup=__strimzi-topic-operator-kstreams},1651279272,0
{consumergroup=__strimzi-topic-operator-kstreams},1651279277,0
{consumergroup=__strimzi-topic-operator-kstreams},1651279282,0
{consumergroup=__strimzi-topic-operator-kstreams},1651279287,0
{consumergroup=__strimzi-topic-operator-kstreams},1651279292,0
{consumergroup=__strimzi-topic-operator-kstreams},1651279297,0
{consumergroup=__strimzi-topic-operator-kstreams},1651279302,0
{consumergroup=__strimzi-topic-operator-kstreams},1651279307,0
{consumergroup=__strimzi-topic-operator-kstreams},1651279312,0
{consumergroup=__strimzi-topic-operator-kstreams},1651279317,0
{consumergroup=__strimzi-topic-operator-kstreams},1651279322,0
{consumergroup=__strimzi-topic-operator-kstreams},1651279327,0
{consumergroup=__strimzi-topic-operator-kstreams},1651279332,0
{consumergroup=__strimzi-topic-operator-kstreams},1651279337,0
{consumergroup=__strimzi-topic-operator-kstreams},1651279342,0
{consumergroup=__strimzi-topic-operator-kstreams},1651279347,0
{consumergroup=__strimzi-topic-operator-kstreams},1651279352,0
{consumergroup=__strimzi-topic-operator-kstreams},1651279357,0
{consumergroup=__strimzi-topic-operator-kstreams},1651279362,0
{consumergroup=__strimzi-topic-operator-kstreams},1651279367,0
{consumergroup=__strimzi-topic-operator-kstreams},1651279372,0
{consumergroup=__strimzi-topic-operator-kstreams},1651279377,0
{consumergroup=__strimzi-topic-operator-kstreams},1651279382,0
{consumergroup=__strimzi-topic-operator-kstreams},1651279387,0
{consumergroup=__strimzi-topic-operator-kstreams},1651279392,0
{consumergroup=__strimzi-topic-operator-kstreams},1651279397,0
{consumergroup=__strimzi-topic-operator-kstreams},1651279402,0
{consumergroup=__strimzi-topic-operator-kstreams},1651279407,0
{consumergroup=__strimzi-topic-operator-kstreams},1651279412,0
{consumergroup=__strimzi-topic-operator-kstreams},1651279417,0
{consumergroup=__strimzi-topic-operator-kstreams},1651279422,0
{consumergroup=__strimzi-topic-operator-kstreams},1651279427,0
{consumergroup=__strimzi-topic-operator-kstreams},1651279432,0
{consumergroup=__strimzi-topic-operator-kstreams},1651279437,0
{consumergroup=adapter-service},1651278967,0
{consumergroup=adapter-service},1651278972,0
{consumergroup=adapter-service},1651278977,0
{consumergroup=adapter-service},1651278982,1382
{consumergroup=adapter-service},1651278987,1382
{consumergroup=adapter-service},1651278992,1382
{consumergroup=adapter-service},1651278997,1365
{consumergroup=adapter-service},1651279002,1365
{consumergroup=adapter-service},1651279007,1365
{consumergroup=adapter-service},1651279012,1163
{consumergroup=adapter-service},1651279017,1163
{consumergroup=adapter-service},1651279022,1163
{consumergroup=adapter-service},1651279027,996
{consumergroup=adapter-service},1651279032,996
{consumergroup=adapter-service},1651279037,996
{consumergroup=adapter-service},1651279042,890
{consumergroup=adapter-service},1651279047,890
{consumergroup=adapter-service},1651279052,890
{consumergroup=adapter-service},1651279057,800
{consumergroup=adapter-service},1651279062,800
{consumergroup=adapter-service},1651279067,800
{consumergroup=adapter-service},1651279072,625
{consumergroup=adapter-service},1651279077,625
{consumergroup=adapter-service},1651279082,625
{consumergroup=adapter-service},1651279087,2393
{consumergroup=adapter-service},1651279092,2393
{consumergroup=adapter-service},1651279097,2393
{consumergroup=adapter-service},1651279102,1365
{consumergroup=adapter-service},1651279107,1365
{consumergroup=adapter-service},1651279112,1365
{consumergroup=adapter-service},1651279117,2165
{consumergroup=adapter-service},1651279122,2165
{consumergroup=adapter-service},1651279127,2165
{consumergroup=adapter-service},1651279132,2067
{consumergroup=adapter-service},1651279137,2067
{consumergroup=adapter-service},1651279142,2067
{consumergroup=adapter-service},1651279147,3623
{consumergroup=adapter-service},1651279152,3623
{consumergroup=adapter-service},1651279157,3623
{consumergroup=adapter-service},1651279162,3554
{consumergroup=adapter-service},1651279167,3554
{consumergroup=adapter-service},1651279172,3554
{consumergroup=adapter-service},1651279177,1815
{consumergroup=adapter-service},1651279182,1815
{consumergroup=adapter-service},1651279187,1815
{consumergroup=adapter-service},1651279192,5408
{consumergroup=adapter-service},1651279197,5408
{consumergroup=adapter-service},1651279202,5408
{consumergroup=adapter-service},1651279207,1425
{consumergroup=adapter-service},1651279212,1425
{consumergroup=adapter-service},1651279217,1425
{consumergroup=adapter-service},1651279222,6046
{consumergroup=adapter-service},1651279227,6046
{consumergroup=adapter-service},1651279232,6046
{consumergroup=adapter-service},1651279237,1346
{consumergroup=adapter-service},1651279242,1346
{consumergroup=adapter-service},1651279247,1346
{consumergroup=adapter-service},1651279252,7025
{consumergroup=adapter-service},1651279257,7025
{consumergroup=adapter-service},1651279262,7025
{consumergroup=adapter-service},1651279267,1014
{consumergroup=adapter-service},1651279272,1014
{consumergroup=adapter-service},1651279277,1014
{consumergroup=adapter-service},1651279282,6675
{consumergroup=adapter-service},1651279287,6675
{consumergroup=adapter-service},1651279292,6675
{consumergroup=adapter-service},1651279297,7241
{consumergroup=adapter-service},1651279302,7241
{consumergroup=adapter-service},1651279307,7241
{consumergroup=adapter-service},1651279312,7421
{consumergroup=adapter-service},1651279317,7421
{consumergroup=adapter-service},1651279322,7421
{consumergroup=adapter-service},1651279327,8713
{consumergroup=adapter-service},1651279332,8713
{consumergroup=adapter-service},1651279337,8713
{consumergroup=adapter-service},1651279342,8630
{consumergroup=adapter-service},1651279347,8630
{consumergroup=adapter-service},1651279352,8630
{consumergroup=adapter-service},1651279357,1316
{consumergroup=adapter-service},1651279362,1316
{consumergroup=adapter-service},1651279367,1316
{consumergroup=adapter-service},1651279372,7851
{consumergroup=adapter-service},1651279377,7851
{consumergroup=adapter-service},1651279382,7851
{consumergroup=adapter-service},1651279387,7699
{consumergroup=adapter-service},1651279392,7699
{consumergroup=adapter-service},1651279397,7699
{consumergroup=adapter-service},1651279402,7670
{consumergroup=adapter-service},1651279407,7670
{consumergroup=adapter-service},1651279412,7670
{consumergroup=adapter-service},1651279417,3191
{consumergroup=adapter-service},1651279422,3191
{consumergroup=adapter-service},1651279427,3191
{consumergroup=adapter-service},1651279432,7331
{consumergroup=adapter-service},1651279437,7331
{consumergroup=landscape-service},1651278982,17697
{consumergroup=landscape-service},1651278987,17697
{consumergroup=landscape-service},1651278992,17697
{consumergroup=landscape-service},1651278997,1230
{consumergroup=landscape-service},1651279002,1230
{consumergroup=landscape-service},1651279007,1230
{consumergroup=landscape-service},1651279012,1201
{consumergroup=landscape-service},1651279017,1201
{consumergroup=landscape-service},1651279022,1201
{consumergroup=landscape-service},1651279027,1425
{consumergroup=landscape-service},1651279032,1425
{consumergroup=landscape-service},1651279037,1425
{consumergroup=landscape-service},1651279042,855
{consumergroup=landscape-service},1651279047,855
{consumergroup=landscape-service},1651279052,855
{consumergroup=landscape-service},1651279057,806
{consumergroup=landscape-service},1651279062,806
{consumergroup=landscape-service},1651279067,806
{consumergroup=landscape-service},1651279072,821
{consumergroup=landscape-service},1651279077,821
{consumergroup=landscape-service},1651279082,821
{consumergroup=landscape-service},1651279087,3210
{consumergroup=landscape-service},1651279092,3210
{consumergroup=landscape-service},1651279097,3210
{consumergroup=landscape-service},1651279102,478
{consumergroup=landscape-service},1651279107,478
{consumergroup=landscape-service},1651279112,478
{consumergroup=landscape-service},1651279117,467
{consumergroup=landscape-service},1651279122,467
{consumergroup=landscape-service},1651279127,467
{consumergroup=landscape-service},1651279132,870
{consumergroup=landscape-service},1651279137,870
{consumergroup=landscape-service},1651279142,870
{consumergroup=landscape-service},1651279147,243
{consumergroup=landscape-service},1651279152,243
{consumergroup=landscape-service},1651279157,243
{consumergroup=landscape-service},1651279162,235
{consumergroup=landscape-service},1651279167,235
{consumergroup=landscape-service},1651279172,235
{consumergroup=landscape-service},1651279177,2232
{consumergroup=landscape-service},1651279182,2232
{consumergroup=landscape-service},1651279187,2232
{consumergroup=landscape-service},1651279192,559
{consumergroup=landscape-service},1651279197,559
{consumergroup=landscape-service},1651279202,559
{consumergroup=landscape-service},1651279207,1951
{consumergroup=landscape-service},1651279212,1951
{consumergroup=landscape-service},1651279217,1951
{consumergroup=landscape-service},1651279237,2528
{consumergroup=landscape-service},1651279242,2528
{consumergroup=landscape-service},1651279247,2528
{consumergroup=landscape-service},1651279267,1845
{consumergroup=landscape-service},1651279272,1845
{consumergroup=landscape-service},1651279277,1845
{consumergroup=landscape-service},1651279282,224
{consumergroup=landscape-service},1651279287,224
{consumergroup=landscape-service},1651279292,224
{consumergroup=landscape-service},1651279357,1709
{consumergroup=landscape-service},1651279362,1709
{consumergroup=landscape-service},1651279367,1709
{consumergroup=landscape-service},1651279387,10099
{consumergroup=landscape-service},1651279392,10099
{consumergroup=landscape-service},1651279397,10099
{consumergroup=landscape-service},1651279402,9465
{consumergroup=landscape-service},1651279407,9465
{consumergroup=landscape-service},1651279412,9465
{consumergroup=landscape-service},1651279417,874
{consumergroup=landscape-service},1651279422,874
{consumergroup=landscape-service},1651279427,874
{consumergroup=landscape-service},1651279432,9692
{consumergroup=landscape-service},1651279437,9692
{consumergroup=trace-service},1651278967,1
{consumergroup=trace-service},1651278972,1
{consumergroup=trace-service},1651278977,1
{consumergroup=trace-service},1651278982,7274
{consumergroup=trace-service},1651278987,7274
{consumergroup=trace-service},1651278992,7274
{consumergroup=trace-service},1651278997,20903
{consumergroup=trace-service},1651279002,20903
{consumergroup=trace-service},1651279007,20903
{consumergroup=trace-service},1651279012,9192
{consumergroup=trace-service},1651279017,9192
{consumergroup=trace-service},1651279022,9192
{consumergroup=trace-service},1651279027,19648
{consumergroup=trace-service},1651279032,19648
{consumergroup=trace-service},1651279037,19648
{consumergroup=trace-service},1651279042,15194
{consumergroup=trace-service},1651279047,15194
{consumergroup=trace-service},1651279052,15194
{consumergroup=trace-service},1651279057,15865
{consumergroup=trace-service},1651279062,15865
{consumergroup=trace-service},1651279067,15865
{consumergroup=trace-service},1651279072,6616
{consumergroup=trace-service},1651279077,6616
{consumergroup=trace-service},1651279082,6616
{consumergroup=trace-service},1651279087,17588
{consumergroup=trace-service},1651279092,17588
{consumergroup=trace-service},1651279097,17588
{consumergroup=trace-service},1651279102,10987
{consumergroup=trace-service},1651279107,10987
{consumergroup=trace-service},1651279112,10987
{consumergroup=trace-service},1651279117,15920
{consumergroup=trace-service},1651279122,15920
{consumergroup=trace-service},1651279127,15920
{consumergroup=trace-service},1651279132,12593
{consumergroup=trace-service},1651279137,12593
{consumergroup=trace-service},1651279142,12593
{consumergroup=trace-service},1651279147,15295
{consumergroup=trace-service},1651279152,15295
{consumergroup=trace-service},1651279157,15295
{consumergroup=trace-service},1651279162,13702
{consumergroup=trace-service},1651279167,13702
{consumergroup=trace-service},1651279172,13702
{consumergroup=trace-service},1651279177,20434
{consumergroup=trace-service},1651279182,20434
{consumergroup=trace-service},1651279187,20434
{consumergroup=trace-service},1651279192,37898
{consumergroup=trace-service},1651279197,37898
{consumergroup=trace-service},1651279202,37898
{consumergroup=trace-service},1651279207,18321
{consumergroup=trace-service},1651279212,18321
{consumergroup=trace-service},1651279217,18321
{consumergroup=trace-service},1651279222,14525
{consumergroup=trace-service},1651279227,14525
{consumergroup=trace-service},1651279232,14525
{consumergroup=trace-service},1651279237,16703
{consumergroup=trace-service},1651279242,16703
{consumergroup=trace-service},1651279247,16703
{consumergroup=trace-service},1651279252,9654
{consumergroup=trace-service},1651279257,9654
{consumergroup=trace-service},1651279262,9654
{consumergroup=trace-service},1651279267,17251
{consumergroup=trace-service},1651279272,17251
{consumergroup=trace-service},1651279277,17251
{consumergroup=trace-service},1651279282,10037
{consumergroup=trace-service},1651279287,10037
{consumergroup=trace-service},1651279292,10037
{consumergroup=trace-service},1651279297,15748
{consumergroup=trace-service},1651279302,15748
{consumergroup=trace-service},1651279307,15748
{consumergroup=trace-service},1651279312,11820
{consumergroup=trace-service},1651279317,11820
{consumergroup=trace-service},1651279322,11820
{consumergroup=trace-service},1651279327,17006
{consumergroup=trace-service},1651279332,17006
{consumergroup=trace-service},1651279337,17006
{consumergroup=trace-service},1651279342,10739
{consumergroup=trace-service},1651279347,10739
{consumergroup=trace-service},1651279352,10739
{consumergroup=trace-service},1651279357,16729
{consumergroup=trace-service},1651279362,16729
{consumergroup=trace-service},1651279367,16729
{consumergroup=trace-service},1651279372,13142
{consumergroup=trace-service},1651279377,13142
{consumergroup=trace-service},1651279382,13142
{consumergroup=trace-service},1651279387,15415
{consumergroup=trace-service},1651279392,15415
{consumergroup=trace-service},1651279397,15415
{consumergroup=trace-service},1651279402,14717
{consumergroup=trace-service},1651279407,14717
{consumergroup=trace-service},1651279412,14717
{consumergroup=trace-service},1651279417,16437
{consumergroup=trace-service},1651279422,16437
{consumergroup=trace-service},1651279427,16437
{consumergroup=trace-service},1651279432,9418
{consumergroup=trace-service},1651279437,9418
{consumergroup=trace-token-events-consumer},1651278967,0
{consumergroup=trace-token-events-consumer},1651278972,0
{consumergroup=trace-token-events-consumer},1651278977,0
{consumergroup=trace-token-events-consumer},1651278982,0
{consumergroup=trace-token-events-consumer},1651278987,0
{consumergroup=trace-token-events-consumer},1651278992,0
{consumergroup=trace-token-events-consumer},1651278997,0
{consumergroup=trace-token-events-consumer},1651279002,0
{consumergroup=trace-token-events-consumer},1651279007,0
{consumergroup=trace-token-events-consumer},1651279012,0
{consumergroup=trace-token-events-consumer},1651279017,0
{consumergroup=trace-token-events-consumer},1651279022,0
{consumergroup=trace-token-events-consumer},1651279027,0
{consumergroup=trace-token-events-consumer},1651279032,0
{consumergroup=trace-token-events-consumer},1651279037,0
{consumergroup=trace-token-events-consumer},1651279042,0
{consumergroup=trace-token-events-consumer},1651279047,0
{consumergroup=trace-token-events-consumer},1651279052,0
{consumergroup=trace-token-events-consumer},1651279057,0
{consumergroup=trace-token-events-consumer},1651279062,0
{consumergroup=trace-token-events-consumer},1651279067,0
{consumergroup=trace-token-events-consumer},1651279072,0
{consumergroup=trace-token-events-consumer},1651279077,0
{consumergroup=trace-token-events-consumer},1651279082,0
{consumergroup=trace-token-events-consumer},1651279087,0
{consumergroup=trace-token-events-consumer},1651279092,0
{consumergroup=trace-token-events-consumer},1651279097,0
{consumergroup=trace-token-events-consumer},1651279102,0
{consumergroup=trace-token-events-consumer},1651279107,0
{consumergroup=trace-token-events-consumer},1651279112,0
{consumergroup=trace-token-events-consumer},1651279117,0
{consumergroup=trace-token-events-consumer},1651279122,0
{consumergroup=trace-token-events-consumer},1651279127,0
{consumergroup=trace-token-events-consumer},1651279132,0
{consumergroup=trace-token-events-consumer},1651279137,0
{consumergroup=trace-token-events-consumer},1651279142,0
{consumergroup=trace-token-events-consumer},1651279147,0
{consumergroup=trace-token-events-consumer},1651279152,0
{consumergroup=trace-token-events-consumer},1651279157,0
{consumergroup=trace-token-events-consumer},1651279162,0
{consumergroup=trace-token-events-consumer},1651279167,0
{consumergroup=trace-token-events-consumer},1651279172,0
{consumergroup=trace-token-events-consumer},1651279177,0
{consumergroup=trace-token-events-consumer},1651279182,0
{consumergroup=trace-token-events-consumer},1651279187,0
{consumergroup=trace-token-events-consumer},1651279192,0
{consumergroup=trace-token-events-consumer},1651279197,0
{consumergroup=trace-token-events-consumer},1651279202,0
{consumergroup=trace-token-events-consumer},1651279207,0
{consumergroup=trace-token-events-consumer},1651279212,0
{consumergroup=trace-token-events-consumer},1651279217,0
{consumergroup=trace-token-events-consumer},1651279222,0
{consumergroup=trace-token-events-consumer},1651279227,0
{consumergroup=trace-token-events-consumer},1651279232,0
{consumergroup=trace-token-events-consumer},1651279237,0
{consumergroup=trace-token-events-consumer},1651279242,0
{consumergroup=trace-token-events-consumer},1651279247,0
{consumergroup=trace-token-events-consumer},1651279252,0
{consumergroup=trace-token-events-consumer},1651279257,0
{consumergroup=trace-token-events-consumer},1651279262,0
{consumergroup=trace-token-events-consumer},1651279267,0
{consumergroup=trace-token-events-consumer},1651279272,0
{consumergroup=trace-token-events-consumer},1651279277,0
{consumergroup=trace-token-events-consumer},1651279282,0
{consumergroup=trace-token-events-consumer},1651279287,0
{consumergroup=trace-token-events-consumer},1651279292,0
{consumergroup=trace-token-events-consumer},1651279297,0
{consumergroup=trace-token-events-consumer},1651279302,0
{consumergroup=trace-token-events-consumer},1651279307,0
{consumergroup=trace-token-events-consumer},1651279312,0
{consumergroup=trace-token-events-consumer},1651279317,0
{consumergroup=trace-token-events-consumer},1651279322,0
{consumergroup=trace-token-events-consumer},1651279327,0
{consumergroup=trace-token-events-consumer},1651279332,0
{consumergroup=trace-token-events-consumer},1651279337,0
{consumergroup=trace-token-events-consumer},1651279342,0
{consumergroup=trace-token-events-consumer},1651279347,0
{consumergroup=trace-token-events-consumer},1651279352,0
{consumergroup=trace-token-events-consumer},1651279357,0
{consumergroup=trace-token-events-consumer},1651279362,0
{consumergroup=trace-token-events-consumer},1651279367,0
{consumergroup=trace-token-events-consumer},1651279372,0
{consumergroup=trace-token-events-consumer},1651279377,0
{consumergroup=trace-token-events-consumer},1651279382,0
{consumergroup=trace-token-events-consumer},1651279387,0
{consumergroup=trace-token-events-consumer},1651279392,0
{consumergroup=trace-token-events-consumer},1651279397,0
{consumergroup=trace-token-events-consumer},1651279402,0
{consumergroup=trace-token-events-consumer},1651279407,0
{consumergroup=trace-token-events-consumer},1651279412,0
{consumergroup=trace-token-events-consumer},1651279417,0
{consumergroup=trace-token-events-consumer},1651279422,0
{consumergroup=trace-token-events-consumer},1651279427,0
{consumergroup=trace-token-events-consumer},1651279432,0
{consumergroup=trace-token-events-consumer},1651279437,0
