labels,timestamp,value
{consumergroup=__strimzi-topic-operator-kstreams},1651355624,3
{consumergroup=__strimzi-topic-operator-kstreams},1651355629,3
{consumergroup=__strimzi-topic-operator-kstreams},1651355634,3
{consumergroup=__strimzi-topic-operator-kstreams},1651355639,20
{consumergroup=__strimzi-topic-operator-kstreams},1651355644,20
{consumergroup=__strimzi-topic-operator-kstreams},1651355649,20
{consumergroup=__strimzi-topic-operator-kstreams},1651355654,0
{consumergroup=__strimzi-topic-operator-kstreams},1651355659,0
{consumergroup=__strimzi-topic-operator-kstreams},1651355664,0
{consumergroup=__strimzi-topic-operator-kstreams},1651355669,0
{consumergroup=__strimzi-topic-operator-kstreams},1651355674,0
{consumergroup=__strimzi-topic-operator-kstreams},1651355679,0
{consumergroup=__strimzi-topic-operator-kstreams},1651355684,0
{consumergroup=__strimzi-topic-operator-kstreams},1651355689,0
{consumergroup=__strimzi-topic-operator-kstreams},1651355694,0
{consumergroup=__strimzi-topic-operator-kstreams},1651355699,0
{consumergroup=__strimzi-topic-operator-kstreams},1651355704,0
{consumergroup=__strimzi-topic-operator-kstreams},1651355709,0
{consumergroup=__strimzi-topic-operator-kstreams},1651355714,0
{consumergroup=__strimzi-topic-operator-kstreams},1651355719,0
{consumergroup=__strimzi-topic-operator-kstreams},1651355724,0
{consumergroup=__strimzi-topic-operator-kstreams},1651355729,0
{consumergroup=__strimzi-topic-operator-kstreams},1651355734,0
{consumergroup=__strimzi-topic-operator-kstreams},1651355739,0
{consumergroup=__strimzi-topic-operator-kstreams},1651355744,0
{consumergroup=__strimzi-topic-operator-kstreams},1651355749,0
{consumergroup=__strimzi-topic-operator-kstreams},1651355754,0
{consumergroup=__strimzi-topic-operator-kstreams},1651355759,0
{consumergroup=__strimzi-topic-operator-kstreams},1651355764,0
{consumergroup=__strimzi-topic-operator-kstreams},1651355769,0
{consumergroup=__strimzi-topic-operator-kstreams},1651355774,0
{consumergroup=__strimzi-topic-operator-kstreams},1651355779,0
{consumergroup=__strimzi-topic-operator-kstreams},1651355784,0
{consumergroup=__strimzi-topic-operator-kstreams},1651355789,0
{consumergroup=__strimzi-topic-operator-kstreams},1651355794,0
{consumergroup=__strimzi-topic-operator-kstreams},1651355799,0
{consumergroup=__strimzi-topic-operator-kstreams},1651355804,0
{consumergroup=__strimzi-topic-operator-kstreams},1651355809,0
{consumergroup=__strimzi-topic-operator-kstreams},1651355814,0
{consumergroup=__strimzi-topic-operator-kstreams},1651355819,0
{consumergroup=__strimzi-topic-operator-kstreams},1651355824,0
{consumergroup=__strimzi-topic-operator-kstreams},1651355829,0
{consumergroup=__strimzi-topic-operator-kstreams},1651355834,0
{consumergroup=__strimzi-topic-operator-kstreams},1651355839,0
{consumergroup=__strimzi-topic-operator-kstreams},1651355844,0
{consumergroup=__strimzi-topic-operator-kstreams},1651355849,0
{consumergroup=__strimzi-topic-operator-kstreams},1651355854,0
{consumergroup=__strimzi-topic-operator-kstreams},1651355859,0
{consumergroup=__strimzi-topic-operator-kstreams},1651355864,0
{consumergroup=__strimzi-topic-operator-kstreams},1651355869,0
{consumergroup=__strimzi-topic-operator-kstreams},1651355874,0
{consumergroup=__strimzi-topic-operator-kstreams},1651355879,0
{consumergroup=adapter-service},1651355654,368847
{consumergroup=adapter-service},1651355659,368847
{consumergroup=adapter-service},1651355664,368847
{consumergroup=adapter-service},1651355669,863073
{consumergroup=adapter-service},1651355674,863073
{consumergroup=adapter-service},1651355679,863073
{consumergroup=adapter-service},1651355684,709974
{consumergroup=adapter-service},1651355689,709974
{consumergroup=adapter-service},1651355694,709974
{consumergroup=adapter-service},1651355699,642548
{consumergroup=adapter-service},1651355704,642548
{consumergroup=adapter-service},1651355709,642548
{consumergroup=adapter-service},1651355714,371474
{consumergroup=adapter-service},1651355719,371474
{consumergroup=adapter-service},1651355724,371474
{consumergroup=adapter-service},1651355729,520555
{consumergroup=adapter-service},1651355734,520555
{consumergroup=adapter-service},1651355739,520555
{consumergroup=adapter-service},1651355744,469563
{consumergroup=adapter-service},1651355749,469563
{consumergroup=adapter-service},1651355754,469563
{consumergroup=adapter-service},1651355759,416386
{consumergroup=adapter-service},1651355764,416386
{consumergroup=adapter-service},1651355769,416386
{consumergroup=adapter-service},1651355774,347665
{consumergroup=adapter-service},1651355779,347665
{consumergroup=adapter-service},1651355784,347665
{consumergroup=adapter-service},1651355789,309625
{consumergroup=adapter-service},1651355794,309625
{consumergroup=adapter-service},1651355799,309625
{consumergroup=adapter-service},1651355804,302112
{consumergroup=adapter-service},1651355809,302112
{consumergroup=adapter-service},1651355814,302112
{consumergroup=adapter-service},1651355819,305030
{consumergroup=adapter-service},1651355824,305030
{consumergroup=adapter-service},1651355829,305030
{consumergroup=adapter-service},1651355834,166587
{consumergroup=adapter-service},1651355839,166587
{consumergroup=adapter-service},1651355844,166587
{consumergroup=adapter-service},1651355849,329049
{consumergroup=adapter-service},1651355854,329049
{consumergroup=adapter-service},1651355859,329049
{consumergroup=adapter-service},1651355864,649482
{consumergroup=adapter-service},1651355869,649482
{consumergroup=adapter-service},1651355874,649482
{consumergroup=adapter-service},1651355879,248120
