labels,timestamp,value
{job=theodolite-stu200776/combined-trace-podmonitor},1651277767,2.6171023297667473
{job=theodolite-stu200776/combined-trace-podmonitor},1651277772,12.058061188160321
{job=theodolite-stu200776/combined-trace-podmonitor},1651277777,12.690215299403981
{job=theodolite-stu200776/combined-trace-podmonitor},1651277782,10.668216311673708
{job=theodolite-stu200776/combined-trace-podmonitor},1651277787,10.049008950275306
{job=theodolite-stu200776/combined-trace-podmonitor},1651277792,8.73885193637667
{job=theodolite-stu200776/combined-trace-podmonitor},1651277797,10.3587682785267
{job=theodolite-stu200776/combined-trace-podmonitor},1651277802,13.696292610821603
{job=theodolite-stu200776/combined-trace-podmonitor},1651277807,12.696042738058177
{job=theodolite-stu200776/combined-trace-podmonitor},1651277812,10.669395144143778
{job=theodolite-stu200776/combined-trace-podmonitor},1651277817,10.0500294611983
{job=theodolite-stu200776/combined-trace-podmonitor},1651277822,8.73957573581951
{job=theodolite-stu200776/combined-trace-podmonitor},1651277827,6.109225869766374
{job=theodolite-stu200776/combined-trace-podmonitor},1651277832,0
{job=theodolite-stu200776/combined-trace-podmonitor},1651277837,0
{job=theodolite-stu200776/combined-trace-podmonitor},1651277842,0
{job=theodolite-stu200776/combined-trace-podmonitor},1651277847,0
{job=theodolite-stu200776/combined-trace-podmonitor},1651277852,0
{job=theodolite-stu200776/combined-trace-podmonitor},1651277857,0
{job=theodolite-stu200776/combined-trace-podmonitor},1651277862,0
{job=theodolite-stu200776/combined-trace-podmonitor},1651277867,0
{job=theodolite-stu200776/combined-trace-podmonitor},1651277872,0
{job=theodolite-stu200776/combined-trace-podmonitor},1651277877,0
{job=theodolite-stu200776/combined-trace-podmonitor},1651277882,0
{job=theodolite-stu200776/combined-trace-podmonitor},1651277887,0
{job=theodolite-stu200776/combined-trace-podmonitor},1651277892,0
{job=theodolite-stu200776/combined-trace-podmonitor},1651277897,0
{job=theodolite-stu200776/combined-trace-podmonitor},1651277902,0
{job=theodolite-stu200776/combined-trace-podmonitor},1651277907,0
{job=theodolite-stu200776/combined-trace-podmonitor},1651277912,0
{job=theodolite-stu200776/combined-trace-podmonitor},1651277917,0
{job=theodolite-stu200776/combined-trace-podmonitor},1651277922,0
{job=theodolite-stu200776/combined-trace-podmonitor},1651277927,0
{job=theodolite-stu200776/combined-trace-podmonitor},1651277932,0
{job=theodolite-stu200776/combined-trace-podmonitor},1651277937,0
{job=theodolite-stu200776/combined-trace-podmonitor},1651277942,0
{job=theodolite-stu200776/combined-trace-podmonitor},1651277947,0
{job=theodolite-stu200776/combined-trace-podmonitor},1651277952,0
{job=theodolite-stu200776/combined-trace-podmonitor},1651277957,0
{job=theodolite-stu200776/combined-trace-podmonitor},1651277962,0
{job=theodolite-stu200776/combined-trace-podmonitor},1651277967,0
{job=theodolite-stu200776/combined-trace-podmonitor},1651277972,0
{job=theodolite-stu200776/combined-trace-podmonitor},1651277977,0
{job=theodolite-stu200776/combined-trace-podmonitor},1651277982,0
{job=theodolite-stu200776/combined-trace-podmonitor},1651277987,0
{job=theodolite-stu200776/combined-trace-podmonitor},1651277992,0
{job=theodolite-stu200776/combined-trace-podmonitor},1651277997,0
{job=theodolite-stu200776/combined-trace-podmonitor},1651278002,0
{job=theodolite-stu200776/combined-trace-podmonitor},1651278007,0
{job=theodolite-stu200776/combined-trace-podmonitor},1651278012,0
{job=theodolite-stu200776/combined-trace-podmonitor},1651278017,0
{job=theodolite-stu200776/combined-trace-podmonitor},1651278022,0
{job=theodolite-stu200776/combined-trace-podmonitor},1651278027,0
{job=theodolite-stu200776/combined-trace-podmonitor},1651278032,0
{job=theodolite-stu200776/combined-trace-podmonitor},1651278037,0
{job=theodolite-stu200776/combined-trace-podmonitor},1651278042,0
{job=theodolite-stu200776/combined-trace-podmonitor},1651278047,0
{job=theodolite-stu200776/combined-trace-podmonitor},1651278052,0
{job=theodolite-stu200776/combined-trace-podmonitor},1651278057,0
{job=theodolite-stu200776/combined-trace-podmonitor},1651278062,0
{job=theodolite-stu200776/combined-trace-podmonitor},1651278067,0
{job=theodolite-stu200776/combined-trace-podmonitor},1651278072,0
{job=theodolite-stu200776/combined-trace-podmonitor},1651278077,0
{job=theodolite-stu200776/combined-trace-podmonitor},1651278082,0
{job=theodolite-stu200776/combined-trace-podmonitor},1651278087,0
{job=theodolite-stu200776/combined-trace-podmonitor},1651278092,0
{job=theodolite-stu200776/combined-trace-podmonitor},1651278097,0
{job=theodolite-stu200776/combined-trace-podmonitor},1651278102,0
{job=theodolite-stu200776/combined-trace-podmonitor},1651278107,0
{job=theodolite-stu200776/combined-trace-podmonitor},1651278112,0
{job=theodolite-stu200776/combined-trace-podmonitor},1651278117,0
{job=theodolite-stu200776/combined-trace-podmonitor},1651278122,0
{job=theodolite-stu200776/combined-trace-podmonitor},1651278127,0
{job=theodolite-stu200776/combined-trace-podmonitor},1651278132,0
{job=theodolite-stu200776/combined-trace-podmonitor},1651278137,0
{job=theodolite-stu200776/combined-trace-podmonitor},1651278142,0
{job=theodolite-stu200776/combined-trace-podmonitor},1651278147,0
{job=theodolite-stu200776/combined-trace-podmonitor},1651278152,0
{job=theodolite-stu200776/combined-trace-podmonitor},1651278157,0
{job=theodolite-stu200776/combined-trace-podmonitor},1651278162,0
{job=theodolite-stu200776/combined-trace-podmonitor},1651278167,0
{job=theodolite-stu200776/combined-trace-podmonitor},1651278172,0
{job=theodolite-stu200776/combined-trace-podmonitor},1651278177,0
{job=theodolite-stu200776/combined-trace-podmonitor},1651278182,0
{job=theodolite-stu200776/combined-trace-podmonitor},1651278187,0
{job=theodolite-stu200776/combined-trace-podmonitor},1651278192,0
{job=theodolite-stu200776/combined-trace-podmonitor},1651278197,0
{job=theodolite-stu200776/combined-trace-podmonitor},1651278202,0
{job=theodolite-stu200776/combined-trace-podmonitor},1651278207,0
