labels,timestamp,value
{consumergroup=__strimzi-topic-operator-kstreams},1651356226,17
{consumergroup=__strimzi-topic-operator-kstreams},1651356231,17
{consumergroup=__strimzi-topic-operator-kstreams},1651356236,17
{consumergroup=__strimzi-topic-operator-kstreams},1651356241,21
{consumergroup=__strimzi-topic-operator-kstreams},1651356246,21
{consumergroup=__strimzi-topic-operator-kstreams},1651356251,21
{consumergroup=__strimzi-topic-operator-kstreams},1651356256,0
{consumergroup=__strimzi-topic-operator-kstreams},1651356261,0
{consumergroup=__strimzi-topic-operator-kstreams},1651356266,0
{consumergroup=__strimzi-topic-operator-kstreams},1651356271,0
{consumergroup=__strimzi-topic-operator-kstreams},1651356276,0
{consumergroup=__strimzi-topic-operator-kstreams},1651356281,0
{consumergroup=__strimzi-topic-operator-kstreams},1651356286,0
{consumergroup=__strimzi-topic-operator-kstreams},1651356291,0
{consumergroup=__strimzi-topic-operator-kstreams},1651356296,0
{consumergroup=__strimzi-topic-operator-kstreams},1651356301,0
{consumergroup=__strimzi-topic-operator-kstreams},1651356306,0
{consumergroup=__strimzi-topic-operator-kstreams},1651356311,0
{consumergroup=__strimzi-topic-operator-kstreams},1651356316,0
{consumergroup=__strimzi-topic-operator-kstreams},1651356321,0
{consumergroup=__strimzi-topic-operator-kstreams},1651356326,0
{consumergroup=__strimzi-topic-operator-kstreams},1651356331,0
{consumergroup=__strimzi-topic-operator-kstreams},1651356336,0
{consumergroup=__strimzi-topic-operator-kstreams},1651356341,0
{consumergroup=__strimzi-topic-operator-kstreams},1651356346,0
{consumergroup=__strimzi-topic-operator-kstreams},1651356351,0
{consumergroup=__strimzi-topic-operator-kstreams},1651356356,0
{consumergroup=__strimzi-topic-operator-kstreams},1651356361,0
{consumergroup=__strimzi-topic-operator-kstreams},1651356366,0
{consumergroup=__strimzi-topic-operator-kstreams},1651356371,0
{consumergroup=__strimzi-topic-operator-kstreams},1651356376,0
{consumergroup=__strimzi-topic-operator-kstreams},1651356381,0
{consumergroup=__strimzi-topic-operator-kstreams},1651356386,0
{consumergroup=__strimzi-topic-operator-kstreams},1651356391,0
{consumergroup=__strimzi-topic-operator-kstreams},1651356396,0
{consumergroup=__strimzi-topic-operator-kstreams},1651356401,0
{consumergroup=__strimzi-topic-operator-kstreams},1651356406,0
{consumergroup=__strimzi-topic-operator-kstreams},1651356411,0
{consumergroup=__strimzi-topic-operator-kstreams},1651356416,0
{consumergroup=__strimzi-topic-operator-kstreams},1651356421,0
{consumergroup=__strimzi-topic-operator-kstreams},1651356426,0
{consumergroup=__strimzi-topic-operator-kstreams},1651356431,0
{consumergroup=__strimzi-topic-operator-kstreams},1651356436,0
{consumergroup=__strimzi-topic-operator-kstreams},1651356441,0
{consumergroup=__strimzi-topic-operator-kstreams},1651356446,0
{consumergroup=__strimzi-topic-operator-kstreams},1651356451,0
{consumergroup=__strimzi-topic-operator-kstreams},1651356456,0
{consumergroup=__strimzi-topic-operator-kstreams},1651356461,0
{consumergroup=__strimzi-topic-operator-kstreams},1651356466,0
{consumergroup=__strimzi-topic-operator-kstreams},1651356471,0
{consumergroup=__strimzi-topic-operator-kstreams},1651356476,0
{consumergroup=__strimzi-topic-operator-kstreams},1651356481,0
{consumergroup=adapter-service},1651356256,149545
{consumergroup=adapter-service},1651356261,149545
{consumergroup=adapter-service},1651356266,149545
{consumergroup=adapter-service},1651356271,839620
{consumergroup=adapter-service},1651356276,839620
{consumergroup=adapter-service},1651356281,839620
{consumergroup=adapter-service},1651356286,1051098
{consumergroup=adapter-service},1651356291,1051098
{consumergroup=adapter-service},1651356296,1051098
{consumergroup=adapter-service},1651356301,1054925
{consumergroup=adapter-service},1651356306,1054925
{consumergroup=adapter-service},1651356311,1054925
{consumergroup=adapter-service},1651356316,862746
{consumergroup=adapter-service},1651356321,862746
{consumergroup=adapter-service},1651356326,862746
{consumergroup=adapter-service},1651356331,1145308
{consumergroup=adapter-service},1651356336,1145308
{consumergroup=adapter-service},1651356341,1145308
{consumergroup=adapter-service},1651356346,768340
{consumergroup=adapter-service},1651356351,768340
{consumergroup=adapter-service},1651356356,768340
{consumergroup=adapter-service},1651356361,1238205
{consumergroup=adapter-service},1651356366,1238205
{consumergroup=adapter-service},1651356371,1238205
{consumergroup=adapter-service},1651356376,899057
{consumergroup=adapter-service},1651356381,899057
{consumergroup=adapter-service},1651356386,899057
{consumergroup=adapter-service},1651356391,992577
{consumergroup=adapter-service},1651356396,992577
{consumergroup=adapter-service},1651356401,992577
{consumergroup=adapter-service},1651356406,1105845
{consumergroup=adapter-service},1651356411,1105845
{consumergroup=adapter-service},1651356416,1105845
{consumergroup=adapter-service},1651356421,1168251
{consumergroup=adapter-service},1651356426,1168251
{consumergroup=adapter-service},1651356431,1168251
{consumergroup=adapter-service},1651356436,1042797
{consumergroup=adapter-service},1651356441,1042797
{consumergroup=adapter-service},1651356446,1042797
{consumergroup=adapter-service},1651356451,909448
{consumergroup=adapter-service},1651356456,909448
{consumergroup=adapter-service},1651356461,909448
{consumergroup=adapter-service},1651356466,1410234
{consumergroup=adapter-service},1651356471,1410234
{consumergroup=adapter-service},1651356476,1410234
{consumergroup=adapter-service},1651356481,1148385
