labels,timestamp,value
{consumergroup=__strimzi-topic-operator-kstreams},1651363701,9
{consumergroup=__strimzi-topic-operator-kstreams},1651363706,9
{consumergroup=__strimzi-topic-operator-kstreams},1651363711,9
{consumergroup=__strimzi-topic-operator-kstreams},1651363716,0
{consumergroup=__strimzi-topic-operator-kstreams},1651363721,0
{consumergroup=__strimzi-topic-operator-kstreams},1651363726,0
{consumergroup=__strimzi-topic-operator-kstreams},1651363731,0
{consumergroup=__strimzi-topic-operator-kstreams},1651363736,0
{consumergroup=__strimzi-topic-operator-kstreams},1651363741,0
{consumergroup=__strimzi-topic-operator-kstreams},1651363746,0
{consumergroup=__strimzi-topic-operator-kstreams},1651363751,0
{consumergroup=__strimzi-topic-operator-kstreams},1651363756,0
{consumergroup=__strimzi-topic-operator-kstreams},1651363761,0
{consumergroup=__strimzi-topic-operator-kstreams},1651363766,0
{consumergroup=__strimzi-topic-operator-kstreams},1651363771,0
{consumergroup=__strimzi-topic-operator-kstreams},1651363776,0
{consumergroup=__strimzi-topic-operator-kstreams},1651363781,0
{consumergroup=__strimzi-topic-operator-kstreams},1651363786,0
{consumergroup=__strimzi-topic-operator-kstreams},1651363791,0
{consumergroup=__strimzi-topic-operator-kstreams},1651363796,0
{consumergroup=__strimzi-topic-operator-kstreams},1651363801,0
{consumergroup=__strimzi-topic-operator-kstreams},1651363806,0
{consumergroup=__strimzi-topic-operator-kstreams},1651363811,0
{consumergroup=__strimzi-topic-operator-kstreams},1651363816,0
{consumergroup=__strimzi-topic-operator-kstreams},1651363821,0
{consumergroup=__strimzi-topic-operator-kstreams},1651363826,0
{consumergroup=__strimzi-topic-operator-kstreams},1651363831,0
{consumergroup=__strimzi-topic-operator-kstreams},1651363836,0
{consumergroup=__strimzi-topic-operator-kstreams},1651363841,0
{consumergroup=__strimzi-topic-operator-kstreams},1651363846,0
{consumergroup=__strimzi-topic-operator-kstreams},1651363851,0
{consumergroup=__strimzi-topic-operator-kstreams},1651363856,0
{consumergroup=__strimzi-topic-operator-kstreams},1651363861,0
{consumergroup=__strimzi-topic-operator-kstreams},1651363866,0
{consumergroup=__strimzi-topic-operator-kstreams},1651363871,0
{consumergroup=__strimzi-topic-operator-kstreams},1651363876,0
{consumergroup=__strimzi-topic-operator-kstreams},1651363881,0
{consumergroup=__strimzi-topic-operator-kstreams},1651363886,0
{consumergroup=__strimzi-topic-operator-kstreams},1651363891,0
{consumergroup=__strimzi-topic-operator-kstreams},1651363896,0
{consumergroup=__strimzi-topic-operator-kstreams},1651363901,0
{consumergroup=__strimzi-topic-operator-kstreams},1651363906,0
{consumergroup=__strimzi-topic-operator-kstreams},1651363911,0
{consumergroup=__strimzi-topic-operator-kstreams},1651363916,0
{consumergroup=__strimzi-topic-operator-kstreams},1651363921,0
{consumergroup=__strimzi-topic-operator-kstreams},1651363926,0
{consumergroup=__strimzi-topic-operator-kstreams},1651363931,0
{consumergroup=__strimzi-topic-operator-kstreams},1651363936,0
{consumergroup=__strimzi-topic-operator-kstreams},1651363941,0
{consumergroup=__strimzi-topic-operator-kstreams},1651363946,0
{consumergroup=adapter-service},1651363731,305137
{consumergroup=adapter-service},1651363736,305137
{consumergroup=adapter-service},1651363741,305137
{consumergroup=adapter-service},1651363746,731673
{consumergroup=adapter-service},1651363751,731673
{consumergroup=adapter-service},1651363756,731673
{consumergroup=adapter-service},1651363761,677863
{consumergroup=adapter-service},1651363766,677863
{consumergroup=adapter-service},1651363771,677863
{consumergroup=adapter-service},1651363776,796905
{consumergroup=adapter-service},1651363781,796905
{consumergroup=adapter-service},1651363786,796905
{consumergroup=adapter-service},1651363791,926884
{consumergroup=adapter-service},1651363796,926884
{consumergroup=adapter-service},1651363801,926884
{consumergroup=adapter-service},1651363806,1054394
{consumergroup=adapter-service},1651363811,1054394
{consumergroup=adapter-service},1651363816,1054394
{consumergroup=adapter-service},1651363821,759639
{consumergroup=adapter-service},1651363826,759639
{consumergroup=adapter-service},1651363831,759639
{consumergroup=adapter-service},1651363836,1134173
{consumergroup=adapter-service},1651363841,1134173
{consumergroup=adapter-service},1651363846,1134173
{consumergroup=adapter-service},1651363851,1198172
{consumergroup=adapter-service},1651363856,1198172
{consumergroup=adapter-service},1651363861,1198172
{consumergroup=adapter-service},1651363866,1060464
{consumergroup=adapter-service},1651363871,1060464
{consumergroup=adapter-service},1651363876,1060464
{consumergroup=adapter-service},1651363881,1356032
{consumergroup=adapter-service},1651363886,1356032
{consumergroup=adapter-service},1651363891,1356032
{consumergroup=adapter-service},1651363896,1286127
{consumergroup=adapter-service},1651363901,1286127
{consumergroup=adapter-service},1651363906,1286127
{consumergroup=adapter-service},1651363911,1403016
{consumergroup=adapter-service},1651363916,1403016
{consumergroup=adapter-service},1651363921,1403016
{consumergroup=adapter-service},1651363926,1807927
{consumergroup=adapter-service},1651363931,1807927
{consumergroup=adapter-service},1651363936,1807927
{consumergroup=adapter-service},1651363941,1462316
{consumergroup=adapter-service},1651363946,1462316
