labels,timestamp,value
{consumergroup=__strimzi-topic-operator-kstreams},1651395767,16
{consumergroup=__strimzi-topic-operator-kstreams},1651395772,16
{consumergroup=__strimzi-topic-operator-kstreams},1651395777,16
{consumergroup=__strimzi-topic-operator-kstreams},1651395782,0
{consumergroup=__strimzi-topic-operator-kstreams},1651395787,0
{consumergroup=__strimzi-topic-operator-kstreams},1651395792,0
{consumergroup=__strimzi-topic-operator-kstreams},1651395797,0
{consumergroup=__strimzi-topic-operator-kstreams},1651395802,0
{consumergroup=__strimzi-topic-operator-kstreams},1651395807,0
{consumergroup=__strimzi-topic-operator-kstreams},1651395812,0
{consumergroup=__strimzi-topic-operator-kstreams},1651395817,0
{consumergroup=__strimzi-topic-operator-kstreams},1651395822,0
{consumergroup=__strimzi-topic-operator-kstreams},1651395827,0
{consumergroup=__strimzi-topic-operator-kstreams},1651395832,0
{consumergroup=__strimzi-topic-operator-kstreams},1651395837,0
{consumergroup=__strimzi-topic-operator-kstreams},1651395842,0
{consumergroup=__strimzi-topic-operator-kstreams},1651395847,0
{consumergroup=__strimzi-topic-operator-kstreams},1651395852,0
{consumergroup=__strimzi-topic-operator-kstreams},1651395857,0
{consumergroup=__strimzi-topic-operator-kstreams},1651395862,0
{consumergroup=__strimzi-topic-operator-kstreams},1651395867,0
{consumergroup=__strimzi-topic-operator-kstreams},1651395872,0
{consumergroup=__strimzi-topic-operator-kstreams},1651395877,0
{consumergroup=__strimzi-topic-operator-kstreams},1651395882,0
{consumergroup=__strimzi-topic-operator-kstreams},1651395887,0
{consumergroup=__strimzi-topic-operator-kstreams},1651395892,0
{consumergroup=__strimzi-topic-operator-kstreams},1651395897,0
{consumergroup=__strimzi-topic-operator-kstreams},1651395902,0
{consumergroup=__strimzi-topic-operator-kstreams},1651395907,0
{consumergroup=__strimzi-topic-operator-kstreams},1651395912,0
{consumergroup=__strimzi-topic-operator-kstreams},1651395917,0
{consumergroup=__strimzi-topic-operator-kstreams},1651395922,0
{consumergroup=__strimzi-topic-operator-kstreams},1651395927,0
{consumergroup=__strimzi-topic-operator-kstreams},1651395932,0
{consumergroup=__strimzi-topic-operator-kstreams},1651395937,0
{consumergroup=__strimzi-topic-operator-kstreams},1651395942,0
{consumergroup=__strimzi-topic-operator-kstreams},1651395947,0
{consumergroup=__strimzi-topic-operator-kstreams},1651395952,0
{consumergroup=__strimzi-topic-operator-kstreams},1651395957,0
{consumergroup=__strimzi-topic-operator-kstreams},1651395962,0
{consumergroup=__strimzi-topic-operator-kstreams},1651395967,0
{consumergroup=__strimzi-topic-operator-kstreams},1651395972,0
{consumergroup=__strimzi-topic-operator-kstreams},1651395977,0
{consumergroup=__strimzi-topic-operator-kstreams},1651395982,0
{consumergroup=__strimzi-topic-operator-kstreams},1651395987,0
{consumergroup=__strimzi-topic-operator-kstreams},1651395992,0
{consumergroup=__strimzi-topic-operator-kstreams},1651395997,0
{consumergroup=__strimzi-topic-operator-kstreams},1651396002,0
{consumergroup=__strimzi-topic-operator-kstreams},1651396007,0
{consumergroup=__strimzi-topic-operator-kstreams},1651396012,0
{consumergroup=adapter-service},1651395782,0
{consumergroup=adapter-service},1651395787,0
{consumergroup=adapter-service},1651395792,0
{consumergroup=adapter-service},1651395797,224343
{consumergroup=adapter-service},1651395802,224343
{consumergroup=adapter-service},1651395807,224343
{consumergroup=adapter-service},1651395812,452034
{consumergroup=adapter-service},1651395817,452034
{consumergroup=adapter-service},1651395822,452034
{consumergroup=adapter-service},1651395827,610748
{consumergroup=adapter-service},1651395832,610748
{consumergroup=adapter-service},1651395837,610748
{consumergroup=adapter-service},1651395842,805198
{consumergroup=adapter-service},1651395847,805198
{consumergroup=adapter-service},1651395852,805198
{consumergroup=adapter-service},1651395857,898803
{consumergroup=adapter-service},1651395862,898803
{consumergroup=adapter-service},1651395867,898803
{consumergroup=adapter-service},1651395872,1073486
{consumergroup=adapter-service},1651395877,1073486
{consumergroup=adapter-service},1651395882,1073486
{consumergroup=adapter-service},1651395887,1204355
{consumergroup=adapter-service},1651395892,1204355
{consumergroup=adapter-service},1651395897,1204355
{consumergroup=adapter-service},1651395902,1368922
{consumergroup=adapter-service},1651395907,1368922
{consumergroup=adapter-service},1651395912,1368922
{consumergroup=adapter-service},1651395917,1497570
{consumergroup=adapter-service},1651395922,1497570
{consumergroup=adapter-service},1651395927,1497570
{consumergroup=adapter-service},1651395932,1669085
{consumergroup=adapter-service},1651395937,1669085
{consumergroup=adapter-service},1651395942,1669085
{consumergroup=adapter-service},1651395947,1849716
{consumergroup=adapter-service},1651395952,1849716
{consumergroup=adapter-service},1651395957,1849716
{consumergroup=adapter-service},1651395962,1985118
{consumergroup=adapter-service},1651395967,1985118
{consumergroup=adapter-service},1651395972,1985118
{consumergroup=adapter-service},1651395977,2131922
{consumergroup=adapter-service},1651395982,2131922
{consumergroup=adapter-service},1651395987,2131922
{consumergroup=adapter-service},1651395992,2315635
{consumergroup=adapter-service},1651395997,2315635
{consumergroup=adapter-service},1651396002,2315635
{consumergroup=adapter-service},1651396007,2440576
{consumergroup=adapter-service},1651396012,2440576
