labels,timestamp,value
{consumergroup=__strimzi-topic-operator-kstreams},1651380199,4
{consumergroup=__strimzi-topic-operator-kstreams},1651380204,4
{consumergroup=__strimzi-topic-operator-kstreams},1651380209,4
{consumergroup=__strimzi-topic-operator-kstreams},1651380214,8
{consumergroup=__strimzi-topic-operator-kstreams},1651380219,8
{consumergroup=__strimzi-topic-operator-kstreams},1651380224,8
{consumergroup=__strimzi-topic-operator-kstreams},1651380229,0
{consumergroup=__strimzi-topic-operator-kstreams},1651380234,0
{consumergroup=__strimzi-topic-operator-kstreams},1651380239,0
{consumergroup=__strimzi-topic-operator-kstreams},1651380244,0
{consumergroup=__strimzi-topic-operator-kstreams},1651380249,0
{consumergroup=__strimzi-topic-operator-kstreams},1651380254,0
{consumergroup=__strimzi-topic-operator-kstreams},1651380259,0
{consumergroup=__strimzi-topic-operator-kstreams},1651380264,0
{consumergroup=__strimzi-topic-operator-kstreams},1651380269,0
{consumergroup=__strimzi-topic-operator-kstreams},1651380274,0
{consumergroup=__strimzi-topic-operator-kstreams},1651380279,0
{consumergroup=__strimzi-topic-operator-kstreams},1651380284,0
{consumergroup=__strimzi-topic-operator-kstreams},1651380289,0
{consumergroup=__strimzi-topic-operator-kstreams},1651380294,0
{consumergroup=__strimzi-topic-operator-kstreams},1651380299,0
{consumergroup=__strimzi-topic-operator-kstreams},1651380304,0
{consumergroup=__strimzi-topic-operator-kstreams},1651380309,0
{consumergroup=__strimzi-topic-operator-kstreams},1651380314,0
{consumergroup=__strimzi-topic-operator-kstreams},1651380319,0
{consumergroup=__strimzi-topic-operator-kstreams},1651380324,0
{consumergroup=__strimzi-topic-operator-kstreams},1651380329,0
{consumergroup=__strimzi-topic-operator-kstreams},1651380334,0
{consumergroup=__strimzi-topic-operator-kstreams},1651380339,0
{consumergroup=__strimzi-topic-operator-kstreams},1651380344,0
{consumergroup=__strimzi-topic-operator-kstreams},1651380349,0
{consumergroup=__strimzi-topic-operator-kstreams},1651380354,0
{consumergroup=__strimzi-topic-operator-kstreams},1651380359,0
{consumergroup=__strimzi-topic-operator-kstreams},1651380364,0
{consumergroup=__strimzi-topic-operator-kstreams},1651380369,0
{consumergroup=__strimzi-topic-operator-kstreams},1651380374,0
{consumergroup=__strimzi-topic-operator-kstreams},1651380379,0
{consumergroup=__strimzi-topic-operator-kstreams},1651380384,0
{consumergroup=__strimzi-topic-operator-kstreams},1651380389,0
{consumergroup=__strimzi-topic-operator-kstreams},1651380394,0
{consumergroup=__strimzi-topic-operator-kstreams},1651380399,0
{consumergroup=__strimzi-topic-operator-kstreams},1651380404,0
{consumergroup=__strimzi-topic-operator-kstreams},1651380409,0
{consumergroup=__strimzi-topic-operator-kstreams},1651380414,0
{consumergroup=__strimzi-topic-operator-kstreams},1651380419,0
{consumergroup=__strimzi-topic-operator-kstreams},1651380424,0
{consumergroup=__strimzi-topic-operator-kstreams},1651380429,0
{consumergroup=__strimzi-topic-operator-kstreams},1651380434,0
{consumergroup=__strimzi-topic-operator-kstreams},1651380439,0
{consumergroup=__strimzi-topic-operator-kstreams},1651380444,0
{consumergroup=__strimzi-topic-operator-kstreams},1651380449,0
{consumergroup=adapter-service},1651380229,401721
{consumergroup=adapter-service},1651380234,401721
{consumergroup=adapter-service},1651380239,401721
{consumergroup=adapter-service},1651380244,2791406
{consumergroup=adapter-service},1651380249,2791406
{consumergroup=adapter-service},1651380254,2791406
{consumergroup=adapter-service},1651380259,4076482
{consumergroup=adapter-service},1651380264,4076482
{consumergroup=adapter-service},1651380269,4076482
{consumergroup=adapter-service},1651380274,5061690
{consumergroup=adapter-service},1651380279,5061690
{consumergroup=adapter-service},1651380284,5061690
{consumergroup=adapter-service},1651380289,5882672
{consumergroup=adapter-service},1651380294,5882672
{consumergroup=adapter-service},1651380299,5882672
{consumergroup=adapter-service},1651380304,6670649
{consumergroup=adapter-service},1651380309,6670649
{consumergroup=adapter-service},1651380314,6670649
{consumergroup=adapter-service},1651380319,6931641
{consumergroup=adapter-service},1651380324,6931641
{consumergroup=adapter-service},1651380329,6931641
{consumergroup=adapter-service},1651380334,7254162
{consumergroup=adapter-service},1651380339,7254162
{consumergroup=adapter-service},1651380344,7254162
{consumergroup=adapter-service},1651380349,7697218
{consumergroup=adapter-service},1651380354,7697218
{consumergroup=adapter-service},1651380359,7697218
{consumergroup=adapter-service},1651380364,7933933
{consumergroup=adapter-service},1651380369,7933933
{consumergroup=adapter-service},1651380374,7933933
{consumergroup=adapter-service},1651380379,8216840
{consumergroup=adapter-service},1651380384,8216840
{consumergroup=adapter-service},1651380389,8216840
{consumergroup=adapter-service},1651380394,8206763
{consumergroup=adapter-service},1651380399,8206763
{consumergroup=adapter-service},1651380404,8206763
{consumergroup=adapter-service},1651380409,8663330
{consumergroup=adapter-service},1651380414,8663330
{consumergroup=adapter-service},1651380419,8663330
{consumergroup=adapter-service},1651380424,8887325
{consumergroup=adapter-service},1651380429,8887325
{consumergroup=adapter-service},1651380434,8887325
{consumergroup=adapter-service},1651380439,9023006
{consumergroup=adapter-service},1651380444,9023006
{consumergroup=adapter-service},1651380449,9023006
