labels,timestamp,value
{consumergroup=__strimzi-topic-operator-kstreams},1651296212,6
{consumergroup=__strimzi-topic-operator-kstreams},1651296217,6
{consumergroup=__strimzi-topic-operator-kstreams},1651296222,6
{consumergroup=__strimzi-topic-operator-kstreams},1651296227,9
{consumergroup=__strimzi-topic-operator-kstreams},1651296232,9
{consumergroup=__strimzi-topic-operator-kstreams},1651296237,9
{consumergroup=__strimzi-topic-operator-kstreams},1651296242,0
{consumergroup=__strimzi-topic-operator-kstreams},1651296247,0
{consumergroup=__strimzi-topic-operator-kstreams},1651296252,0
{consumergroup=__strimzi-topic-operator-kstreams},1651296257,0
{consumergroup=__strimzi-topic-operator-kstreams},1651296262,0
{consumergroup=__strimzi-topic-operator-kstreams},1651296267,0
{consumergroup=__strimzi-topic-operator-kstreams},1651296272,0
{consumergroup=__strimzi-topic-operator-kstreams},1651296277,0
{consumergroup=__strimzi-topic-operator-kstreams},1651296282,0
{consumergroup=__strimzi-topic-operator-kstreams},1651296287,0
{consumergroup=__strimzi-topic-operator-kstreams},1651296292,0
{consumergroup=__strimzi-topic-operator-kstreams},1651296297,0
{consumergroup=__strimzi-topic-operator-kstreams},1651296302,0
{consumergroup=__strimzi-topic-operator-kstreams},1651296307,0
{consumergroup=__strimzi-topic-operator-kstreams},1651296312,0
{consumergroup=__strimzi-topic-operator-kstreams},1651296317,0
{consumergroup=__strimzi-topic-operator-kstreams},1651296322,0
{consumergroup=__strimzi-topic-operator-kstreams},1651296327,0
{consumergroup=__strimzi-topic-operator-kstreams},1651296332,0
{consumergroup=__strimzi-topic-operator-kstreams},1651296337,0
{consumergroup=__strimzi-topic-operator-kstreams},1651296342,0
{consumergroup=__strimzi-topic-operator-kstreams},1651296347,0
{consumergroup=__strimzi-topic-operator-kstreams},1651296352,0
{consumergroup=__strimzi-topic-operator-kstreams},1651296357,0
{consumergroup=__strimzi-topic-operator-kstreams},1651296362,0
{consumergroup=__strimzi-topic-operator-kstreams},1651296367,0
{consumergroup=__strimzi-topic-operator-kstreams},1651296372,0
{consumergroup=__strimzi-topic-operator-kstreams},1651296377,0
{consumergroup=__strimzi-topic-operator-kstreams},1651296382,0
{consumergroup=__strimzi-topic-operator-kstreams},1651296387,0
{consumergroup=__strimzi-topic-operator-kstreams},1651296392,0
{consumergroup=__strimzi-topic-operator-kstreams},1651296397,0
{consumergroup=__strimzi-topic-operator-kstreams},1651296402,0
{consumergroup=__strimzi-topic-operator-kstreams},1651296407,0
{consumergroup=__strimzi-topic-operator-kstreams},1651296412,0
{consumergroup=__strimzi-topic-operator-kstreams},1651296417,0
{consumergroup=__strimzi-topic-operator-kstreams},1651296422,0
{consumergroup=__strimzi-topic-operator-kstreams},1651296427,0
{consumergroup=__strimzi-topic-operator-kstreams},1651296432,0
{consumergroup=__strimzi-topic-operator-kstreams},1651296437,0
{consumergroup=__strimzi-topic-operator-kstreams},1651296442,0
{consumergroup=__strimzi-topic-operator-kstreams},1651296447,0
{consumergroup=__strimzi-topic-operator-kstreams},1651296452,0
{consumergroup=__strimzi-topic-operator-kstreams},1651296457,0
{consumergroup=__strimzi-topic-operator-kstreams},1651296462,0
{consumergroup=__strimzi-topic-operator-kstreams},1651296467,0
{consumergroup=__strimzi-topic-operator-kstreams},1651296472,0
{consumergroup=__strimzi-topic-operator-kstreams},1651296477,0
{consumergroup=__strimzi-topic-operator-kstreams},1651296482,0
{consumergroup=__strimzi-topic-operator-kstreams},1651296487,0
{consumergroup=__strimzi-topic-operator-kstreams},1651296492,0
{consumergroup=__strimzi-topic-operator-kstreams},1651296497,0
{consumergroup=__strimzi-topic-operator-kstreams},1651296502,0
{consumergroup=__strimzi-topic-operator-kstreams},1651296507,0
{consumergroup=__strimzi-topic-operator-kstreams},1651296512,0
{consumergroup=__strimzi-topic-operator-kstreams},1651296517,0
{consumergroup=__strimzi-topic-operator-kstreams},1651296522,0
{consumergroup=__strimzi-topic-operator-kstreams},1651296527,0
{consumergroup=__strimzi-topic-operator-kstreams},1651296532,0
{consumergroup=__strimzi-topic-operator-kstreams},1651296537,0
{consumergroup=__strimzi-topic-operator-kstreams},1651296542,0
{consumergroup=__strimzi-topic-operator-kstreams},1651296547,0
{consumergroup=__strimzi-topic-operator-kstreams},1651296552,0
{consumergroup=__strimzi-topic-operator-kstreams},1651296557,0
{consumergroup=__strimzi-topic-operator-kstreams},1651296562,0
{consumergroup=__strimzi-topic-operator-kstreams},1651296567,0
{consumergroup=__strimzi-topic-operator-kstreams},1651296572,0
{consumergroup=__strimzi-topic-operator-kstreams},1651296577,0
{consumergroup=__strimzi-topic-operator-kstreams},1651296582,0
{consumergroup=__strimzi-topic-operator-kstreams},1651296587,0
{consumergroup=__strimzi-topic-operator-kstreams},1651296592,0
{consumergroup=__strimzi-topic-operator-kstreams},1651296597,0
{consumergroup=__strimzi-topic-operator-kstreams},1651296602,0
{consumergroup=__strimzi-topic-operator-kstreams},1651296607,0
{consumergroup=__strimzi-topic-operator-kstreams},1651296612,0
{consumergroup=__strimzi-topic-operator-kstreams},1651296617,0
{consumergroup=__strimzi-topic-operator-kstreams},1651296622,0
{consumergroup=__strimzi-topic-operator-kstreams},1651296627,0
{consumergroup=__strimzi-topic-operator-kstreams},1651296632,0
{consumergroup=__strimzi-topic-operator-kstreams},1651296637,0
{consumergroup=__strimzi-topic-operator-kstreams},1651296642,0
{consumergroup=__strimzi-topic-operator-kstreams},1651296647,0
{consumergroup=__strimzi-topic-operator-kstreams},1651296652,0
{consumergroup=__strimzi-topic-operator-kstreams},1651296657,0
{consumergroup=__strimzi-topic-operator-kstreams},1651296662,0
{consumergroup=__strimzi-topic-operator-kstreams},1651296667,0
{consumergroup=__strimzi-topic-operator-kstreams},1651296672,0
{consumergroup=__strimzi-topic-operator-kstreams},1651296677,0
{consumergroup=__strimzi-topic-operator-kstreams},1651296682,0
{consumergroup=__strimzi-topic-operator-kstreams},1651296687,0
{consumergroup=__strimzi-topic-operator-kstreams},1651296692,0
{consumergroup=__strimzi-topic-operator-kstreams},1651296697,0
{consumergroup=__strimzi-topic-operator-kstreams},1651296702,0
{consumergroup=__strimzi-topic-operator-kstreams},1651296707,0
{consumergroup=__strimzi-topic-operator-kstreams},1651296712,0
{consumergroup=__strimzi-topic-operator-kstreams},1651296717,0
{consumergroup=adapter-service},1651296242,0
{consumergroup=adapter-service},1651296247,0
{consumergroup=adapter-service},1651296252,0
{consumergroup=adapter-service},1651296257,20525
{consumergroup=adapter-service},1651296262,20525
{consumergroup=adapter-service},1651296267,20525
{consumergroup=adapter-service},1651296272,8904
{consumergroup=adapter-service},1651296277,8904
{consumergroup=adapter-service},1651296282,8904
{consumergroup=adapter-service},1651296287,5902
{consumergroup=adapter-service},1651296292,5902
{consumergroup=adapter-service},1651296297,5902
{consumergroup=adapter-service},1651296302,4257
{consumergroup=adapter-service},1651296307,4257
{consumergroup=adapter-service},1651296312,4257
{consumergroup=adapter-service},1651296317,3606
{consumergroup=adapter-service},1651296322,3606
{consumergroup=adapter-service},1651296327,3606
{consumergroup=adapter-service},1651296332,3281
{consumergroup=adapter-service},1651296337,3281
{consumergroup=adapter-service},1651296342,3281
{consumergroup=adapter-service},1651296347,2428
{consumergroup=adapter-service},1651296352,2428
{consumergroup=adapter-service},1651296357,2428
{consumergroup=adapter-service},1651296362,2075
{consumergroup=adapter-service},1651296367,2075
{consumergroup=adapter-service},1651296372,2075
{consumergroup=adapter-service},1651296377,1136
{consumergroup=adapter-service},1651296382,1136
{consumergroup=adapter-service},1651296387,1136
{consumergroup=adapter-service},1651296392,4525
{consumergroup=adapter-service},1651296397,4525
{consumergroup=adapter-service},1651296402,4525
{consumergroup=adapter-service},1651296407,4274
{consumergroup=adapter-service},1651296412,4274
{consumergroup=adapter-service},1651296417,4274
{consumergroup=adapter-service},1651296422,4075
{consumergroup=adapter-service},1651296427,4075
{consumergroup=adapter-service},1651296432,4075
{consumergroup=adapter-service},1651296437,7432
{consumergroup=adapter-service},1651296442,7432
{consumergroup=adapter-service},1651296447,7432
{consumergroup=adapter-service},1651296452,7895
{consumergroup=adapter-service},1651296457,7895
{consumergroup=adapter-service},1651296462,7895
{consumergroup=adapter-service},1651296467,7090
{consumergroup=adapter-service},1651296472,7090
{consumergroup=adapter-service},1651296477,7090
{consumergroup=adapter-service},1651296482,10178
{consumergroup=adapter-service},1651296487,10178
{consumergroup=adapter-service},1651296492,10178
{consumergroup=adapter-service},1651296497,11023
{consumergroup=adapter-service},1651296502,11023
{consumergroup=adapter-service},1651296507,11023
{consumergroup=adapter-service},1651296512,10574
{consumergroup=adapter-service},1651296517,10574
{consumergroup=adapter-service},1651296522,10574
{consumergroup=adapter-service},1651296527,10223
{consumergroup=adapter-service},1651296532,10223
{consumergroup=adapter-service},1651296537,10223
{consumergroup=adapter-service},1651296542,9015
{consumergroup=adapter-service},1651296547,9015
{consumergroup=adapter-service},1651296552,9015
{consumergroup=adapter-service},1651296557,8731
{consumergroup=adapter-service},1651296562,8731
{consumergroup=adapter-service},1651296567,8731
{consumergroup=adapter-service},1651296572,8436
{consumergroup=adapter-service},1651296577,8436
{consumergroup=adapter-service},1651296582,8436
{consumergroup=adapter-service},1651296587,9059
{consumergroup=adapter-service},1651296592,9059
{consumergroup=adapter-service},1651296597,9059
{consumergroup=adapter-service},1651296602,8737
{consumergroup=adapter-service},1651296607,8737
{consumergroup=adapter-service},1651296612,8737
{consumergroup=adapter-service},1651296617,7883
{consumergroup=adapter-service},1651296622,7883
{consumergroup=adapter-service},1651296627,7883
{consumergroup=adapter-service},1651296632,7844
{consumergroup=adapter-service},1651296637,7844
{consumergroup=adapter-service},1651296642,7844
{consumergroup=adapter-service},1651296647,7485
{consumergroup=adapter-service},1651296652,7485
{consumergroup=adapter-service},1651296657,7485
{consumergroup=adapter-service},1651296662,7467
{consumergroup=adapter-service},1651296667,7467
{consumergroup=adapter-service},1651296672,7467
{consumergroup=adapter-service},1651296677,10690
{consumergroup=adapter-service},1651296682,10690
{consumergroup=adapter-service},1651296687,10690
{consumergroup=adapter-service},1651296692,10166
{consumergroup=adapter-service},1651296697,10166
{consumergroup=adapter-service},1651296702,10166
{consumergroup=adapter-service},1651296707,10010
{consumergroup=adapter-service},1651296712,10010
{consumergroup=adapter-service},1651296717,10010
{consumergroup=landscape-service},1651296272,28745
{consumergroup=landscape-service},1651296277,28745
{consumergroup=landscape-service},1651296282,28745
{consumergroup=landscape-service},1651296287,8574
{consumergroup=landscape-service},1651296292,8574
{consumergroup=landscape-service},1651296297,8574
{consumergroup=landscape-service},1651296302,6922
{consumergroup=landscape-service},1651296307,6922
{consumergroup=landscape-service},1651296312,6922
{consumergroup=landscape-service},1651296317,6560
{consumergroup=landscape-service},1651296322,6560
{consumergroup=landscape-service},1651296327,6560
{consumergroup=landscape-service},1651296332,5924
{consumergroup=landscape-service},1651296337,5924
{consumergroup=landscape-service},1651296342,5924
{consumergroup=landscape-service},1651296347,5213
{consumergroup=landscape-service},1651296352,5213
{consumergroup=landscape-service},1651296357,5213
{consumergroup=landscape-service},1651296362,4722
{consumergroup=landscape-service},1651296367,4722
{consumergroup=landscape-service},1651296372,4722
{consumergroup=landscape-service},1651296377,4141
{consumergroup=landscape-service},1651296382,4141
{consumergroup=landscape-service},1651296387,4141
{consumergroup=landscape-service},1651296392,3862
{consumergroup=landscape-service},1651296397,3862
{consumergroup=landscape-service},1651296402,3862
{consumergroup=landscape-service},1651296407,3217
{consumergroup=landscape-service},1651296412,3217
{consumergroup=landscape-service},1651296417,3217
{consumergroup=landscape-service},1651296422,3478
{consumergroup=landscape-service},1651296427,3478
{consumergroup=landscape-service},1651296432,3478
{consumergroup=landscape-service},1651296437,2067
{consumergroup=landscape-service},1651296442,2067
{consumergroup=landscape-service},1651296447,2067
{consumergroup=landscape-service},1651296452,2429
{consumergroup=landscape-service},1651296457,2429
{consumergroup=landscape-service},1651296462,2429
{consumergroup=landscape-service},1651296467,1891
{consumergroup=landscape-service},1651296472,1891
{consumergroup=landscape-service},1651296477,1891
{consumergroup=landscape-service},1651296482,304
{consumergroup=landscape-service},1651296487,304
{consumergroup=landscape-service},1651296492,304
{consumergroup=landscape-service},1651296497,979
{consumergroup=landscape-service},1651296502,979
{consumergroup=landscape-service},1651296507,979
{consumergroup=landscape-service},1651296527,13672
{consumergroup=landscape-service},1651296532,13672
{consumergroup=landscape-service},1651296537,13672
{consumergroup=landscape-service},1651296542,13356
{consumergroup=landscape-service},1651296547,13356
{consumergroup=landscape-service},1651296552,13356
{consumergroup=landscape-service},1651296557,12767
{consumergroup=landscape-service},1651296562,12767
{consumergroup=landscape-service},1651296567,12767
{consumergroup=landscape-service},1651296572,12545
{consumergroup=landscape-service},1651296577,12545
{consumergroup=landscape-service},1651296582,12545
{consumergroup=landscape-service},1651296587,11781
{consumergroup=landscape-service},1651296592,11781
{consumergroup=landscape-service},1651296597,11781
{consumergroup=landscape-service},1651296602,12395
{consumergroup=landscape-service},1651296607,12395
{consumergroup=landscape-service},1651296612,12395
{consumergroup=landscape-service},1651296617,12099
{consumergroup=landscape-service},1651296622,12099
{consumergroup=landscape-service},1651296627,12099
{consumergroup=landscape-service},1651296632,12334
{consumergroup=landscape-service},1651296637,12334
{consumergroup=landscape-service},1651296642,12334
{consumergroup=landscape-service},1651296647,10763
{consumergroup=landscape-service},1651296652,10763
{consumergroup=landscape-service},1651296657,10763
{consumergroup=landscape-service},1651296662,11321
{consumergroup=landscape-service},1651296667,11321
{consumergroup=landscape-service},1651296672,11321
{consumergroup=landscape-service},1651296677,11033
{consumergroup=landscape-service},1651296682,11033
{consumergroup=landscape-service},1651296687,11033
{consumergroup=landscape-service},1651296692,9411
{consumergroup=landscape-service},1651296697,9411
{consumergroup=landscape-service},1651296702,9411
{consumergroup=landscape-service},1651296707,8997
{consumergroup=landscape-service},1651296712,8997
{consumergroup=landscape-service},1651296717,8997
{consumergroup=trace-service},1651296257,7796
{consumergroup=trace-service},1651296262,7796
{consumergroup=trace-service},1651296267,7796
{consumergroup=trace-service},1651296272,12966
{consumergroup=trace-service},1651296277,12966
{consumergroup=trace-service},1651296282,12966
{consumergroup=trace-service},1651296287,39091
{consumergroup=trace-service},1651296292,39091
{consumergroup=trace-service},1651296297,39091
{consumergroup=trace-service},1651296302,16647
{consumergroup=trace-service},1651296307,16647
{consumergroup=trace-service},1651296312,16647
{consumergroup=trace-service},1651296317,39616
{consumergroup=trace-service},1651296322,39616
{consumergroup=trace-service},1651296327,39616
{consumergroup=trace-service},1651296332,23255
{consumergroup=trace-service},1651296337,23255
{consumergroup=trace-service},1651296342,23255
{consumergroup=trace-service},1651296347,37165
{consumergroup=trace-service},1651296352,37165
{consumergroup=trace-service},1651296357,37165
{consumergroup=trace-service},1651296362,19823
{consumergroup=trace-service},1651296367,19823
{consumergroup=trace-service},1651296372,19823
{consumergroup=trace-service},1651296377,37943
{consumergroup=trace-service},1651296382,37943
{consumergroup=trace-service},1651296387,37943
{consumergroup=trace-service},1651296392,18199
{consumergroup=trace-service},1651296397,18199
{consumergroup=trace-service},1651296402,18199
{consumergroup=trace-service},1651296407,37489
{consumergroup=trace-service},1651296412,37489
{consumergroup=trace-service},1651296417,37489
{consumergroup=trace-service},1651296422,18002
{consumergroup=trace-service},1651296427,18002
{consumergroup=trace-service},1651296432,18002
{consumergroup=trace-service},1651296437,30883
{consumergroup=trace-service},1651296442,30883
{consumergroup=trace-service},1651296447,30883
{consumergroup=trace-service},1651296452,25370
{consumergroup=trace-service},1651296457,25370
{consumergroup=trace-service},1651296462,25370
{consumergroup=trace-service},1651296467,34747
{consumergroup=trace-service},1651296472,34747
{consumergroup=trace-service},1651296477,34747
{consumergroup=trace-service},1651296482,18691
{consumergroup=trace-service},1651296487,18691
{consumergroup=trace-service},1651296492,18691
{consumergroup=trace-service},1651296497,40610
{consumergroup=trace-service},1651296502,40610
{consumergroup=trace-service},1651296507,40610
{consumergroup=trace-service},1651296512,15541
{consumergroup=trace-service},1651296517,15541
{consumergroup=trace-service},1651296522,15541
{consumergroup=trace-service},1651296527,37204
{consumergroup=trace-service},1651296532,37204
{consumergroup=trace-service},1651296537,37204
{consumergroup=trace-service},1651296542,14512
{consumergroup=trace-service},1651296547,14512
{consumergroup=trace-service},1651296552,14512
{consumergroup=trace-service},1651296557,34295
{consumergroup=trace-service},1651296562,34295
{consumergroup=trace-service},1651296567,34295
{consumergroup=trace-service},1651296572,18164
{consumergroup=trace-service},1651296577,18164
{consumergroup=trace-service},1651296582,18164
{consumergroup=trace-service},1651296587,33842
{consumergroup=trace-service},1651296592,33842
{consumergroup=trace-service},1651296597,33842
{consumergroup=trace-service},1651296602,13631
{consumergroup=trace-service},1651296607,13631
{consumergroup=trace-service},1651296612,13631
{consumergroup=trace-service},1651296617,43703
{consumergroup=trace-service},1651296622,43703
{consumergroup=trace-service},1651296627,43703
{consumergroup=trace-service},1651296632,99978
{consumergroup=trace-service},1651296637,99978
{consumergroup=trace-service},1651296642,99978
{consumergroup=trace-service},1651296647,42030
{consumergroup=trace-service},1651296652,42030
{consumergroup=trace-service},1651296657,42030
{consumergroup=trace-service},1651296662,20685
{consumergroup=trace-service},1651296667,20685
{consumergroup=trace-service},1651296672,20685
{consumergroup=trace-service},1651296677,33655
{consumergroup=trace-service},1651296682,33655
{consumergroup=trace-service},1651296687,33655
{consumergroup=trace-service},1651296692,22921
{consumergroup=trace-service},1651296697,22921
{consumergroup=trace-service},1651296702,22921
{consumergroup=trace-service},1651296707,39306
{consumergroup=trace-service},1651296712,39306
{consumergroup=trace-service},1651296717,39306
{consumergroup=trace-token-events-consumer},1651296242,0
{consumergroup=trace-token-events-consumer},1651296247,0
{consumergroup=trace-token-events-consumer},1651296252,0
{consumergroup=trace-token-events-consumer},1651296257,0
{consumergroup=trace-token-events-consumer},1651296262,0
{consumergroup=trace-token-events-consumer},1651296267,0
{consumergroup=trace-token-events-consumer},1651296272,0
{consumergroup=trace-token-events-consumer},1651296277,0
{consumergroup=trace-token-events-consumer},1651296282,0
{consumergroup=trace-token-events-consumer},1651296287,0
{consumergroup=trace-token-events-consumer},1651296292,0
{consumergroup=trace-token-events-consumer},1651296297,0
{consumergroup=trace-token-events-consumer},1651296302,0
{consumergroup=trace-token-events-consumer},1651296307,0
{consumergroup=trace-token-events-consumer},1651296312,0
{consumergroup=trace-token-events-consumer},1651296317,0
{consumergroup=trace-token-events-consumer},1651296322,0
{consumergroup=trace-token-events-consumer},1651296327,0
{consumergroup=trace-token-events-consumer},1651296332,0
{consumergroup=trace-token-events-consumer},1651296337,0
{consumergroup=trace-token-events-consumer},1651296342,0
{consumergroup=trace-token-events-consumer},1651296347,0
{consumergroup=trace-token-events-consumer},1651296352,0
{consumergroup=trace-token-events-consumer},1651296357,0
{consumergroup=trace-token-events-consumer},1651296362,0
{consumergroup=trace-token-events-consumer},1651296367,0
{consumergroup=trace-token-events-consumer},1651296372,0
{consumergroup=trace-token-events-consumer},1651296377,0
{consumergroup=trace-token-events-consumer},1651296382,0
{consumergroup=trace-token-events-consumer},1651296387,0
{consumergroup=trace-token-events-consumer},1651296392,0
{consumergroup=trace-token-events-consumer},1651296397,0
{consumergroup=trace-token-events-consumer},1651296402,0
{consumergroup=trace-token-events-consumer},1651296407,0
{consumergroup=trace-token-events-consumer},1651296412,0
{consumergroup=trace-token-events-consumer},1651296417,0
{consumergroup=trace-token-events-consumer},1651296422,0
{consumergroup=trace-token-events-consumer},1651296427,0
{consumergroup=trace-token-events-consumer},1651296432,0
{consumergroup=trace-token-events-consumer},1651296437,0
{consumergroup=trace-token-events-consumer},1651296442,0
{consumergroup=trace-token-events-consumer},1651296447,0
{consumergroup=trace-token-events-consumer},1651296452,0
{consumergroup=trace-token-events-consumer},1651296457,0
{consumergroup=trace-token-events-consumer},1651296462,0
{consumergroup=trace-token-events-consumer},1651296467,0
{consumergroup=trace-token-events-consumer},1651296472,0
{consumergroup=trace-token-events-consumer},1651296477,0
{consumergroup=trace-token-events-consumer},1651296482,0
{consumergroup=trace-token-events-consumer},1651296487,0
{consumergroup=trace-token-events-consumer},1651296492,0
{consumergroup=trace-token-events-consumer},1651296497,0
{consumergroup=trace-token-events-consumer},1651296502,0
{consumergroup=trace-token-events-consumer},1651296507,0
{consumergroup=trace-token-events-consumer},1651296512,0
{consumergroup=trace-token-events-consumer},1651296517,0
{consumergroup=trace-token-events-consumer},1651296522,0
{consumergroup=trace-token-events-consumer},1651296527,0
{consumergroup=trace-token-events-consumer},1651296532,0
{consumergroup=trace-token-events-consumer},1651296537,0
{consumergroup=trace-token-events-consumer},1651296542,0
{consumergroup=trace-token-events-consumer},1651296547,0
{consumergroup=trace-token-events-consumer},1651296552,0
{consumergroup=trace-token-events-consumer},1651296557,0
{consumergroup=trace-token-events-consumer},1651296562,0
{consumergroup=trace-token-events-consumer},1651296567,0
{consumergroup=trace-token-events-consumer},1651296572,0
{consumergroup=trace-token-events-consumer},1651296577,0
{consumergroup=trace-token-events-consumer},1651296582,0
{consumergroup=trace-token-events-consumer},1651296587,0
{consumergroup=trace-token-events-consumer},1651296592,0
{consumergroup=trace-token-events-consumer},1651296597,0
{consumergroup=trace-token-events-consumer},1651296602,0
{consumergroup=trace-token-events-consumer},1651296607,0
{consumergroup=trace-token-events-consumer},1651296612,0
{consumergroup=trace-token-events-consumer},1651296617,0
{consumergroup=trace-token-events-consumer},1651296622,0
{consumergroup=trace-token-events-consumer},1651296627,0
{consumergroup=trace-token-events-consumer},1651296632,0
{consumergroup=trace-token-events-consumer},1651296637,0
{consumergroup=trace-token-events-consumer},1651296642,0
{consumergroup=trace-token-events-consumer},1651296647,0
{consumergroup=trace-token-events-consumer},1651296652,0
{consumergroup=trace-token-events-consumer},1651296657,0
{consumergroup=trace-token-events-consumer},1651296662,0
{consumergroup=trace-token-events-consumer},1651296667,0
{consumergroup=trace-token-events-consumer},1651296672,0
{consumergroup=trace-token-events-consumer},1651296677,0
{consumergroup=trace-token-events-consumer},1651296682,0
{consumergroup=trace-token-events-consumer},1651296687,0
{consumergroup=trace-token-events-consumer},1651296692,0
{consumergroup=trace-token-events-consumer},1651296697,0
{consumergroup=trace-token-events-consumer},1651296702,0
{consumergroup=trace-token-events-consumer},1651296707,0
{consumergroup=trace-token-events-consumer},1651296712,0
{consumergroup=trace-token-events-consumer},1651296717,0
