labels,timestamp,value
{consumergroup=__strimzi-topic-operator-kstreams},1651361890,0
{consumergroup=__strimzi-topic-operator-kstreams},1651361905,26
{consumergroup=__strimzi-topic-operator-kstreams},1651361910,26
{consumergroup=__strimzi-topic-operator-kstreams},1651361915,26
{consumergroup=__strimzi-topic-operator-kstreams},1651361920,0
{consumergroup=__strimzi-topic-operator-kstreams},1651361925,0
{consumergroup=__strimzi-topic-operator-kstreams},1651361930,0
{consumergroup=__strimzi-topic-operator-kstreams},1651361935,0
{consumergroup=__strimzi-topic-operator-kstreams},1651361940,0
{consumergroup=__strimzi-topic-operator-kstreams},1651361945,0
{consumergroup=__strimzi-topic-operator-kstreams},1651361950,0
{consumergroup=__strimzi-topic-operator-kstreams},1651361955,0
{consumergroup=__strimzi-topic-operator-kstreams},1651361960,0
{consumergroup=__strimzi-topic-operator-kstreams},1651361965,0
{consumergroup=__strimzi-topic-operator-kstreams},1651361970,0
{consumergroup=__strimzi-topic-operator-kstreams},1651361975,0
{consumergroup=__strimzi-topic-operator-kstreams},1651361980,0
{consumergroup=__strimzi-topic-operator-kstreams},1651361985,0
{consumergroup=__strimzi-topic-operator-kstreams},1651361990,0
{consumergroup=__strimzi-topic-operator-kstreams},1651361995,0
{consumergroup=__strimzi-topic-operator-kstreams},1651362000,0
{consumergroup=__strimzi-topic-operator-kstreams},1651362005,0
{consumergroup=__strimzi-topic-operator-kstreams},1651362010,0
{consumergroup=__strimzi-topic-operator-kstreams},1651362015,0
{consumergroup=__strimzi-topic-operator-kstreams},1651362020,0
{consumergroup=__strimzi-topic-operator-kstreams},1651362025,0
{consumergroup=__strimzi-topic-operator-kstreams},1651362030,0
{consumergroup=__strimzi-topic-operator-kstreams},1651362035,0
{consumergroup=__strimzi-topic-operator-kstreams},1651362040,0
{consumergroup=__strimzi-topic-operator-kstreams},1651362045,0
{consumergroup=__strimzi-topic-operator-kstreams},1651362050,0
{consumergroup=__strimzi-topic-operator-kstreams},1651362055,0
{consumergroup=__strimzi-topic-operator-kstreams},1651362060,0
{consumergroup=__strimzi-topic-operator-kstreams},1651362065,0
{consumergroup=__strimzi-topic-operator-kstreams},1651362070,0
{consumergroup=__strimzi-topic-operator-kstreams},1651362075,0
{consumergroup=__strimzi-topic-operator-kstreams},1651362080,0
{consumergroup=__strimzi-topic-operator-kstreams},1651362085,0
{consumergroup=__strimzi-topic-operator-kstreams},1651362090,0
{consumergroup=__strimzi-topic-operator-kstreams},1651362095,0
{consumergroup=__strimzi-topic-operator-kstreams},1651362100,0
{consumergroup=__strimzi-topic-operator-kstreams},1651362105,0
{consumergroup=__strimzi-topic-operator-kstreams},1651362110,0
{consumergroup=__strimzi-topic-operator-kstreams},1651362115,0
{consumergroup=__strimzi-topic-operator-kstreams},1651362120,0
{consumergroup=__strimzi-topic-operator-kstreams},1651362125,0
{consumergroup=__strimzi-topic-operator-kstreams},1651362130,0
{consumergroup=__strimzi-topic-operator-kstreams},1651362135,0
{consumergroup=__strimzi-topic-operator-kstreams},1651362140,0
{consumergroup=__strimzi-topic-operator-kstreams},1651362145,0
{consumergroup=__strimzi-topic-operator-kstreams},1651362150,0
{consumergroup=adapter-service},1651361890,244767
{consumergroup=adapter-service},1651361935,539567
{consumergroup=adapter-service},1651361940,539567
{consumergroup=adapter-service},1651361945,539567
{consumergroup=adapter-service},1651361950,483221
{consumergroup=adapter-service},1651361955,483221
{consumergroup=adapter-service},1651361960,483221
{consumergroup=adapter-service},1651361965,434183
{consumergroup=adapter-service},1651361970,434183
{consumergroup=adapter-service},1651361975,434183
{consumergroup=adapter-service},1651361980,308192
{consumergroup=adapter-service},1651361985,308192
{consumergroup=adapter-service},1651361990,308192
{consumergroup=adapter-service},1651361995,367935
{consumergroup=adapter-service},1651362000,367935
{consumergroup=adapter-service},1651362005,367935
{consumergroup=adapter-service},1651362010,258941
{consumergroup=adapter-service},1651362015,258941
{consumergroup=adapter-service},1651362020,258941
{consumergroup=adapter-service},1651362025,220873
{consumergroup=adapter-service},1651362030,220873
{consumergroup=adapter-service},1651362035,220873
{consumergroup=adapter-service},1651362040,317372
{consumergroup=adapter-service},1651362045,317372
{consumergroup=adapter-service},1651362050,317372
{consumergroup=adapter-service},1651362055,376718
{consumergroup=adapter-service},1651362060,376718
{consumergroup=adapter-service},1651362065,376718
{consumergroup=adapter-service},1651362070,323330
{consumergroup=adapter-service},1651362075,323330
{consumergroup=adapter-service},1651362080,323330
{consumergroup=adapter-service},1651362085,286977
{consumergroup=adapter-service},1651362090,286977
{consumergroup=adapter-service},1651362095,286977
{consumergroup=adapter-service},1651362100,262005
{consumergroup=adapter-service},1651362105,262005
{consumergroup=adapter-service},1651362110,262005
{consumergroup=adapter-service},1651362115,234186
{consumergroup=adapter-service},1651362120,234186
{consumergroup=adapter-service},1651362125,234186
{consumergroup=adapter-service},1651362130,242670
{consumergroup=adapter-service},1651362135,242670
{consumergroup=adapter-service},1651362140,242670
{consumergroup=adapter-service},1651362145,222455
{consumergroup=adapter-service},1651362150,222455
