labels,timestamp,value
{job=theodolite-stu200776/combined-trace-podmonitor},1651278997,0
{job=theodolite-stu200776/combined-trace-podmonitor},1651279002,0.16070762716380102
{job=theodolite-stu200776/combined-trace-podmonitor},1651279007,24.23627039176135
{job=theodolite-stu200776/combined-trace-podmonitor},1651279012,83.23778274660599
{job=theodolite-stu200776/combined-trace-podmonitor},1651279017,85.22327132504466
{job=theodolite-stu200776/combined-trace-podmonitor},1651279022,74.05929928558673
{job=theodolite-stu200776/combined-trace-podmonitor},1651279027,76.34374710204183
{job=theodolite-stu200776/combined-trace-podmonitor},1651279032,105.46878105417264
{job=theodolite-stu200776/combined-trace-podmonitor},1651279037,109.74458480830778
{job=theodolite-stu200776/combined-trace-podmonitor},1651279042,91.78622542335633
{job=theodolite-stu200776/combined-trace-podmonitor},1651279047,85.22480726570588
{job=theodolite-stu200776/combined-trace-podmonitor},1651279052,74.05789608039503
{job=theodolite-stu200776/combined-trace-podmonitor},1651279057,62.629297985878594
{job=theodolite-stu200776/combined-trace-podmonitor},1651279062,14.631286661459528
{job=theodolite-stu200776/combined-trace-podmonitor},1651279067,0
{job=theodolite-stu200776/combined-trace-podmonitor},1651279072,0
{job=theodolite-stu200776/combined-trace-podmonitor},1651279077,0
{job=theodolite-stu200776/combined-trace-podmonitor},1651279082,0
{job=theodolite-stu200776/combined-trace-podmonitor},1651279087,0
{job=theodolite-stu200776/combined-trace-podmonitor},1651279092,0
{job=theodolite-stu200776/combined-trace-podmonitor},1651279097,0
{job=theodolite-stu200776/combined-trace-podmonitor},1651279102,0
{job=theodolite-stu200776/combined-trace-podmonitor},1651279107,0
{job=theodolite-stu200776/combined-trace-podmonitor},1651279112,0
{job=theodolite-stu200776/combined-trace-podmonitor},1651279117,0
{job=theodolite-stu200776/combined-trace-podmonitor},1651279122,0
{job=theodolite-stu200776/combined-trace-podmonitor},1651279127,0
{job=theodolite-stu200776/combined-trace-podmonitor},1651279132,0
{job=theodolite-stu200776/combined-trace-podmonitor},1651279137,0
{job=theodolite-stu200776/combined-trace-podmonitor},1651279142,0
{job=theodolite-stu200776/combined-trace-podmonitor},1651279147,0
{job=theodolite-stu200776/combined-trace-podmonitor},1651279152,0
{job=theodolite-stu200776/combined-trace-podmonitor},1651279157,0
{job=theodolite-stu200776/combined-trace-podmonitor},1651279162,0
{job=theodolite-stu200776/combined-trace-podmonitor},1651279167,0
{job=theodolite-stu200776/combined-trace-podmonitor},1651279172,0
{job=theodolite-stu200776/combined-trace-podmonitor},1651279177,0
{job=theodolite-stu200776/combined-trace-podmonitor},1651279182,0
{job=theodolite-stu200776/combined-trace-podmonitor},1651279187,0
{job=theodolite-stu200776/combined-trace-podmonitor},1651279192,0
{job=theodolite-stu200776/combined-trace-podmonitor},1651279197,0
{job=theodolite-stu200776/combined-trace-podmonitor},1651279202,0
{job=theodolite-stu200776/combined-trace-podmonitor},1651279207,0
{job=theodolite-stu200776/combined-trace-podmonitor},1651279212,0
{job=theodolite-stu200776/combined-trace-podmonitor},1651279217,0
{job=theodolite-stu200776/combined-trace-podmonitor},1651279222,0
{job=theodolite-stu200776/combined-trace-podmonitor},1651279227,0
{job=theodolite-stu200776/combined-trace-podmonitor},1651279232,0
{job=theodolite-stu200776/combined-trace-podmonitor},1651279237,0
{job=theodolite-stu200776/combined-trace-podmonitor},1651279242,0
{job=theodolite-stu200776/combined-trace-podmonitor},1651279247,0
{job=theodolite-stu200776/combined-trace-podmonitor},1651279252,0
{job=theodolite-stu200776/combined-trace-podmonitor},1651279257,0
{job=theodolite-stu200776/combined-trace-podmonitor},1651279262,0
{job=theodolite-stu200776/combined-trace-podmonitor},1651279267,0
{job=theodolite-stu200776/combined-trace-podmonitor},1651279272,0
{job=theodolite-stu200776/combined-trace-podmonitor},1651279277,0
{job=theodolite-stu200776/combined-trace-podmonitor},1651279282,0
{job=theodolite-stu200776/combined-trace-podmonitor},1651279287,0
{job=theodolite-stu200776/combined-trace-podmonitor},1651279292,0
{job=theodolite-stu200776/combined-trace-podmonitor},1651279297,0
{job=theodolite-stu200776/combined-trace-podmonitor},1651279302,0
{job=theodolite-stu200776/combined-trace-podmonitor},1651279307,0
{job=theodolite-stu200776/combined-trace-podmonitor},1651279312,0
{job=theodolite-stu200776/combined-trace-podmonitor},1651279317,0
{job=theodolite-stu200776/combined-trace-podmonitor},1651279322,0
{job=theodolite-stu200776/combined-trace-podmonitor},1651279327,0
{job=theodolite-stu200776/combined-trace-podmonitor},1651279332,0
{job=theodolite-stu200776/combined-trace-podmonitor},1651279337,0
{job=theodolite-stu200776/combined-trace-podmonitor},1651279342,0
{job=theodolite-stu200776/combined-trace-podmonitor},1651279347,0
{job=theodolite-stu200776/combined-trace-podmonitor},1651279352,0
{job=theodolite-stu200776/combined-trace-podmonitor},1651279357,0
{job=theodolite-stu200776/combined-trace-podmonitor},1651279362,0
{job=theodolite-stu200776/combined-trace-podmonitor},1651279367,0
{job=theodolite-stu200776/combined-trace-podmonitor},1651279372,0
{job=theodolite-stu200776/combined-trace-podmonitor},1651279377,0
{job=theodolite-stu200776/combined-trace-podmonitor},1651279382,0
{job=theodolite-stu200776/combined-trace-podmonitor},1651279387,0
{job=theodolite-stu200776/combined-trace-podmonitor},1651279392,0
{job=theodolite-stu200776/combined-trace-podmonitor},1651279397,0
{job=theodolite-stu200776/combined-trace-podmonitor},1651279402,0
{job=theodolite-stu200776/combined-trace-podmonitor},1651279407,0
{job=theodolite-stu200776/combined-trace-podmonitor},1651279412,0
{job=theodolite-stu200776/combined-trace-podmonitor},1651279417,0
{job=theodolite-stu200776/combined-trace-podmonitor},1651279422,0
{job=theodolite-stu200776/combined-trace-podmonitor},1651279427,0
{job=theodolite-stu200776/combined-trace-podmonitor},1651279432,0
{job=theodolite-stu200776/combined-trace-podmonitor},1651279437,0
