labels,timestamp,value
{consumergroup=__strimzi-topic-operator-kstreams},1651372435,0
{consumergroup=__strimzi-topic-operator-kstreams},1651372440,0
{consumergroup=__strimzi-topic-operator-kstreams},1651372445,0
{consumergroup=__strimzi-topic-operator-kstreams},1651372450,0
{consumergroup=__strimzi-topic-operator-kstreams},1651372455,0
{consumergroup=__strimzi-topic-operator-kstreams},1651372460,0
{consumergroup=__strimzi-topic-operator-kstreams},1651372465,0
{consumergroup=__strimzi-topic-operator-kstreams},1651372470,0
{consumergroup=__strimzi-topic-operator-kstreams},1651372475,0
{consumergroup=__strimzi-topic-operator-kstreams},1651372480,0
{consumergroup=__strimzi-topic-operator-kstreams},1651372485,0
{consumergroup=__strimzi-topic-operator-kstreams},1651372490,0
{consumergroup=__strimzi-topic-operator-kstreams},1651372495,0
{consumergroup=__strimzi-topic-operator-kstreams},1651372500,0
{consumergroup=__strimzi-topic-operator-kstreams},1651372505,0
{consumergroup=__strimzi-topic-operator-kstreams},1651372510,0
{consumergroup=__strimzi-topic-operator-kstreams},1651372515,0
{consumergroup=__strimzi-topic-operator-kstreams},1651372520,0
{consumergroup=__strimzi-topic-operator-kstreams},1651372525,0
{consumergroup=__strimzi-topic-operator-kstreams},1651372530,0
{consumergroup=__strimzi-topic-operator-kstreams},1651372535,0
{consumergroup=__strimzi-topic-operator-kstreams},1651372540,0
{consumergroup=__strimzi-topic-operator-kstreams},1651372545,0
{consumergroup=__strimzi-topic-operator-kstreams},1651372550,0
{consumergroup=__strimzi-topic-operator-kstreams},1651372555,0
{consumergroup=__strimzi-topic-operator-kstreams},1651372560,0
{consumergroup=__strimzi-topic-operator-kstreams},1651372565,0
{consumergroup=__strimzi-topic-operator-kstreams},1651372570,0
{consumergroup=__strimzi-topic-operator-kstreams},1651372575,0
{consumergroup=__strimzi-topic-operator-kstreams},1651372580,0
{consumergroup=__strimzi-topic-operator-kstreams},1651372585,0
{consumergroup=__strimzi-topic-operator-kstreams},1651372590,0
{consumergroup=__strimzi-topic-operator-kstreams},1651372595,0
{consumergroup=__strimzi-topic-operator-kstreams},1651372600,0
{consumergroup=__strimzi-topic-operator-kstreams},1651372605,0
{consumergroup=__strimzi-topic-operator-kstreams},1651372610,0
{consumergroup=__strimzi-topic-operator-kstreams},1651372615,0
{consumergroup=__strimzi-topic-operator-kstreams},1651372620,0
{consumergroup=__strimzi-topic-operator-kstreams},1651372625,0
{consumergroup=__strimzi-topic-operator-kstreams},1651372630,0
{consumergroup=__strimzi-topic-operator-kstreams},1651372635,0
{consumergroup=__strimzi-topic-operator-kstreams},1651372640,0
{consumergroup=__strimzi-topic-operator-kstreams},1651372645,0
{consumergroup=__strimzi-topic-operator-kstreams},1651372650,0
{consumergroup=__strimzi-topic-operator-kstreams},1651372655,0
{consumergroup=__strimzi-topic-operator-kstreams},1651372660,0
{consumergroup=__strimzi-topic-operator-kstreams},1651372665,0
{consumergroup=__strimzi-topic-operator-kstreams},1651372670,0
{consumergroup=__strimzi-topic-operator-kstreams},1651372675,0
{consumergroup=__strimzi-topic-operator-kstreams},1651372680,0
{consumergroup=__strimzi-topic-operator-kstreams},1651372685,0
{consumergroup=__strimzi-topic-operator-kstreams},1651372690,0
{consumergroup=adapter-service},1651372465,683
{consumergroup=adapter-service},1651372470,683
{consumergroup=adapter-service},1651372475,683
{consumergroup=adapter-service},1651372480,364391
{consumergroup=adapter-service},1651372485,364391
{consumergroup=adapter-service},1651372490,364391
{consumergroup=adapter-service},1651372495,573857
{consumergroup=adapter-service},1651372500,573857
{consumergroup=adapter-service},1651372505,573857
{consumergroup=adapter-service},1651372510,755480
{consumergroup=adapter-service},1651372515,755480
{consumergroup=adapter-service},1651372520,755480
{consumergroup=adapter-service},1651372525,928105
{consumergroup=adapter-service},1651372530,928105
{consumergroup=adapter-service},1651372535,928105
{consumergroup=adapter-service},1651372540,1069817
{consumergroup=adapter-service},1651372545,1069817
{consumergroup=adapter-service},1651372550,1069817
{consumergroup=adapter-service},1651372555,1168374
{consumergroup=adapter-service},1651372560,1168374
{consumergroup=adapter-service},1651372565,1168374
{consumergroup=adapter-service},1651372570,1206469
{consumergroup=adapter-service},1651372575,1206469
{consumergroup=adapter-service},1651372580,1206469
{consumergroup=adapter-service},1651372585,1206773
{consumergroup=adapter-service},1651372590,1206773
{consumergroup=adapter-service},1651372595,1206773
{consumergroup=adapter-service},1651372600,1214408
{consumergroup=adapter-service},1651372605,1214408
{consumergroup=adapter-service},1651372610,1214408
{consumergroup=adapter-service},1651372615,1169753
{consumergroup=adapter-service},1651372620,1169753
{consumergroup=adapter-service},1651372625,1169753
{consumergroup=adapter-service},1651372630,1154628
{consumergroup=adapter-service},1651372635,1154628
{consumergroup=adapter-service},1651372640,1154628
{consumergroup=adapter-service},1651372645,1140784
{consumergroup=adapter-service},1651372650,1140784
{consumergroup=adapter-service},1651372655,1140784
{consumergroup=adapter-service},1651372660,1132113
{consumergroup=adapter-service},1651372665,1132113
{consumergroup=adapter-service},1651372670,1132113
{consumergroup=adapter-service},1651372675,1087565
{consumergroup=adapter-service},1651372680,1087565
{consumergroup=adapter-service},1651372685,1087565
{consumergroup=adapter-service},1651372690,1069353
