labels,timestamp,value
{job=theodolite-stu200776/combined-trace-podmonitor},1651272296,25.276391077274045
{job=theodolite-stu200776/combined-trace-podmonitor},1651272301,51.416093064987926
{job=theodolite-stu200776/combined-trace-podmonitor},1651272306,70.86720464281414
{job=theodolite-stu200776/combined-trace-podmonitor},1651272311,73.37932944684587
{job=theodolite-stu200776/combined-trace-podmonitor},1651272316,99.76847459227291
{job=theodolite-stu200776/combined-trace-podmonitor},1651272321,104.52660626394434
{job=theodolite-stu200776/combined-trace-podmonitor},1651272326,89.46953424880574
{job=theodolite-stu200776/combined-trace-podmonitor},1651272331,82.89408139714756
{job=theodolite-stu200776/combined-trace-podmonitor},1651272336,72.83337572987877
{job=theodolite-stu200776/combined-trace-podmonitor},1651272341,61.38085242810277
{job=theodolite-stu200776/combined-trace-podmonitor},1651272346,16.13610984987077
{job=theodolite-stu200776/combined-trace-podmonitor},1651272351,0.9097004038623129
{job=theodolite-stu200776/combined-trace-podmonitor},1651272356,1.211894212658054
{job=theodolite-stu200776/combined-trace-podmonitor},1651272361,1.267932498789906
{job=theodolite-stu200776/combined-trace-podmonitor},1651272366,1.1317399547912899
{job=theodolite-stu200776/combined-trace-podmonitor},1651272371,1.0554885673603631
{job=theodolite-stu200776/combined-trace-podmonitor},1651272376,0.8894441609745534
{job=theodolite-stu200776/combined-trace-podmonitor},1651272381,0.8645285299044814
{job=theodolite-stu200776/combined-trace-podmonitor},1651272386,0.22978215704953994
{job=theodolite-stu200776/combined-trace-podmonitor},1651272391,0.11933802544430473
{job=theodolite-stu200776/combined-trace-podmonitor},1651272396,0
{job=theodolite-stu200776/combined-trace-podmonitor},1651272401,0
{job=theodolite-stu200776/combined-trace-podmonitor},1651272406,0
{job=theodolite-stu200776/combined-trace-podmonitor},1651272411,0
{job=theodolite-stu200776/combined-trace-podmonitor},1651272416,0
{job=theodolite-stu200776/combined-trace-podmonitor},1651272421,0
{job=theodolite-stu200776/combined-trace-podmonitor},1651272426,0
{job=theodolite-stu200776/combined-trace-podmonitor},1651272431,0
{job=theodolite-stu200776/combined-trace-podmonitor},1651272436,0
{job=theodolite-stu200776/combined-trace-podmonitor},1651272441,0
{job=theodolite-stu200776/combined-trace-podmonitor},1651272446,0
{job=theodolite-stu200776/combined-trace-podmonitor},1651272451,0
{job=theodolite-stu200776/combined-trace-podmonitor},1651272456,0
{job=theodolite-stu200776/combined-trace-podmonitor},1651272461,0
{job=theodolite-stu200776/combined-trace-podmonitor},1651272466,0
{job=theodolite-stu200776/combined-trace-podmonitor},1651272471,0
{job=theodolite-stu200776/combined-trace-podmonitor},1651272476,0
{job=theodolite-stu200776/combined-trace-podmonitor},1651272481,0
{job=theodolite-stu200776/combined-trace-podmonitor},1651272486,0
{job=theodolite-stu200776/combined-trace-podmonitor},1651272491,0
{job=theodolite-stu200776/combined-trace-podmonitor},1651272496,0
{job=theodolite-stu200776/combined-trace-podmonitor},1651272501,0
{job=theodolite-stu200776/combined-trace-podmonitor},1651272506,0
{job=theodolite-stu200776/combined-trace-podmonitor},1651272511,0
{job=theodolite-stu200776/combined-trace-podmonitor},1651272516,0
{job=theodolite-stu200776/combined-trace-podmonitor},1651272521,0
{job=theodolite-stu200776/combined-trace-podmonitor},1651272526,0
{job=theodolite-stu200776/combined-trace-podmonitor},1651272531,0
{job=theodolite-stu200776/combined-trace-podmonitor},1651272536,0
{job=theodolite-stu200776/combined-trace-podmonitor},1651272541,0
{job=theodolite-stu200776/combined-trace-podmonitor},1651272546,0
{job=theodolite-stu200776/combined-trace-podmonitor},1651272551,0
{job=theodolite-stu200776/combined-trace-podmonitor},1651272556,0
{job=theodolite-stu200776/combined-trace-podmonitor},1651272561,0
{job=theodolite-stu200776/combined-trace-podmonitor},1651272566,0
{job=theodolite-stu200776/combined-trace-podmonitor},1651272571,0
{job=theodolite-stu200776/combined-trace-podmonitor},1651272576,0
{job=theodolite-stu200776/combined-trace-podmonitor},1651272581,0
{job=theodolite-stu200776/combined-trace-podmonitor},1651272586,0
{job=theodolite-stu200776/combined-trace-podmonitor},1651272591,0
{job=theodolite-stu200776/combined-trace-podmonitor},1651272596,0
{job=theodolite-stu200776/combined-trace-podmonitor},1651272601,0
{job=theodolite-stu200776/combined-trace-podmonitor},1651272606,0
{job=theodolite-stu200776/combined-trace-podmonitor},1651272611,0
{job=theodolite-stu200776/combined-trace-podmonitor},1651272616,0
{job=theodolite-stu200776/combined-trace-podmonitor},1651272621,0
{job=theodolite-stu200776/combined-trace-podmonitor},1651272626,0
{job=theodolite-stu200776/combined-trace-podmonitor},1651272631,0
{job=theodolite-stu200776/combined-trace-podmonitor},1651272636,0
{job=theodolite-stu200776/combined-trace-podmonitor},1651272641,0
{job=theodolite-stu200776/combined-trace-podmonitor},1651272646,0
{job=theodolite-stu200776/combined-trace-podmonitor},1651272651,0
{job=theodolite-stu200776/combined-trace-podmonitor},1651272656,0
{job=theodolite-stu200776/combined-trace-podmonitor},1651272661,0
{job=theodolite-stu200776/combined-trace-podmonitor},1651272666,0
{job=theodolite-stu200776/combined-trace-podmonitor},1651272671,0
{job=theodolite-stu200776/combined-trace-podmonitor},1651272676,0
{job=theodolite-stu200776/combined-trace-podmonitor},1651272681,0
{job=theodolite-stu200776/combined-trace-podmonitor},1651272686,0
{job=theodolite-stu200776/combined-trace-podmonitor},1651272691,0
{job=theodolite-stu200776/combined-trace-podmonitor},1651272696,0
{job=theodolite-stu200776/combined-trace-podmonitor},1651272701,0
{job=theodolite-stu200776/combined-trace-podmonitor},1651272706,0
{job=theodolite-stu200776/combined-trace-podmonitor},1651272711,0
{job=theodolite-stu200776/combined-trace-podmonitor},1651272716,0
{job=theodolite-stu200776/combined-trace-podmonitor},1651272721,0
{job=theodolite-stu200776/combined-trace-podmonitor},1651272726,0
{job=theodolite-stu200776/combined-trace-podmonitor},1651272731,0
{job=theodolite-stu200776/combined-trace-podmonitor},1651272736,0
