labels,timestamp,value
{consumergroup=__strimzi-topic-operator-kstreams},1651384385,0
{consumergroup=__strimzi-topic-operator-kstreams},1651384395,7
{consumergroup=__strimzi-topic-operator-kstreams},1651384400,7
{consumergroup=__strimzi-topic-operator-kstreams},1651384405,7
{consumergroup=__strimzi-topic-operator-kstreams},1651384410,21
{consumergroup=__strimzi-topic-operator-kstreams},1651384415,21
{consumergroup=__strimzi-topic-operator-kstreams},1651384420,21
{consumergroup=__strimzi-topic-operator-kstreams},1651384425,0
{consumergroup=__strimzi-topic-operator-kstreams},1651384430,0
{consumergroup=__strimzi-topic-operator-kstreams},1651384435,0
{consumergroup=__strimzi-topic-operator-kstreams},1651384440,0
{consumergroup=__strimzi-topic-operator-kstreams},1651384445,0
{consumergroup=__strimzi-topic-operator-kstreams},1651384450,0
{consumergroup=__strimzi-topic-operator-kstreams},1651384455,0
{consumergroup=__strimzi-topic-operator-kstreams},1651384460,0
{consumergroup=__strimzi-topic-operator-kstreams},1651384465,0
{consumergroup=__strimzi-topic-operator-kstreams},1651384470,0
{consumergroup=__strimzi-topic-operator-kstreams},1651384475,0
{consumergroup=__strimzi-topic-operator-kstreams},1651384480,0
{consumergroup=__strimzi-topic-operator-kstreams},1651384485,0
{consumergroup=__strimzi-topic-operator-kstreams},1651384490,0
{consumergroup=__strimzi-topic-operator-kstreams},1651384495,0
{consumergroup=__strimzi-topic-operator-kstreams},1651384500,0
{consumergroup=__strimzi-topic-operator-kstreams},1651384505,0
{consumergroup=__strimzi-topic-operator-kstreams},1651384510,0
{consumergroup=__strimzi-topic-operator-kstreams},1651384515,0
{consumergroup=__strimzi-topic-operator-kstreams},1651384520,0
{consumergroup=__strimzi-topic-operator-kstreams},1651384525,0
{consumergroup=__strimzi-topic-operator-kstreams},1651384530,0
{consumergroup=__strimzi-topic-operator-kstreams},1651384535,0
{consumergroup=__strimzi-topic-operator-kstreams},1651384540,0
{consumergroup=__strimzi-topic-operator-kstreams},1651384545,0
{consumergroup=__strimzi-topic-operator-kstreams},1651384550,0
{consumergroup=__strimzi-topic-operator-kstreams},1651384555,0
{consumergroup=__strimzi-topic-operator-kstreams},1651384560,0
{consumergroup=__strimzi-topic-operator-kstreams},1651384565,0
{consumergroup=__strimzi-topic-operator-kstreams},1651384570,0
{consumergroup=__strimzi-topic-operator-kstreams},1651384575,0
{consumergroup=__strimzi-topic-operator-kstreams},1651384580,0
{consumergroup=__strimzi-topic-operator-kstreams},1651384585,0
{consumergroup=__strimzi-topic-operator-kstreams},1651384590,0
{consumergroup=__strimzi-topic-operator-kstreams},1651384595,0
{consumergroup=__strimzi-topic-operator-kstreams},1651384600,0
{consumergroup=__strimzi-topic-operator-kstreams},1651384605,0
{consumergroup=__strimzi-topic-operator-kstreams},1651384610,0
{consumergroup=__strimzi-topic-operator-kstreams},1651384615,0
{consumergroup=__strimzi-topic-operator-kstreams},1651384620,0
{consumergroup=__strimzi-topic-operator-kstreams},1651384625,0
{consumergroup=__strimzi-topic-operator-kstreams},1651384630,0
{consumergroup=__strimzi-topic-operator-kstreams},1651384635,0
{consumergroup=__strimzi-topic-operator-kstreams},1651384640,0
{consumergroup=__strimzi-topic-operator-kstreams},1651384645,0
{consumergroup=adapter-service},1651384385,4677433
{consumergroup=adapter-service},1651384425,118877
{consumergroup=adapter-service},1651384430,118877
{consumergroup=adapter-service},1651384435,118877
{consumergroup=adapter-service},1651384440,1069897
{consumergroup=adapter-service},1651384445,1069897
{consumergroup=adapter-service},1651384450,1069897
{consumergroup=adapter-service},1651384455,1670953
{consumergroup=adapter-service},1651384460,1670953
{consumergroup=adapter-service},1651384465,1670953
{consumergroup=adapter-service},1651384470,2225843
{consumergroup=adapter-service},1651384475,2225843
{consumergroup=adapter-service},1651384480,2225843
{consumergroup=adapter-service},1651384485,2674636
{consumergroup=adapter-service},1651384490,2674636
{consumergroup=adapter-service},1651384495,2674636
{consumergroup=adapter-service},1651384500,2974660
{consumergroup=adapter-service},1651384505,2974660
{consumergroup=adapter-service},1651384510,2974660
{consumergroup=adapter-service},1651384515,3163508
{consumergroup=adapter-service},1651384520,3163508
{consumergroup=adapter-service},1651384525,3163508
{consumergroup=adapter-service},1651384530,3381590
{consumergroup=adapter-service},1651384535,3381590
{consumergroup=adapter-service},1651384540,3381590
{consumergroup=adapter-service},1651384545,3538355
{consumergroup=adapter-service},1651384550,3538355
{consumergroup=adapter-service},1651384555,3538355
{consumergroup=adapter-service},1651384560,3726168
{consumergroup=adapter-service},1651384565,3726168
{consumergroup=adapter-service},1651384570,3726168
{consumergroup=adapter-service},1651384575,3971983
{consumergroup=adapter-service},1651384580,3971983
{consumergroup=adapter-service},1651384585,3971983
{consumergroup=adapter-service},1651384590,4124764
{consumergroup=adapter-service},1651384595,4124764
{consumergroup=adapter-service},1651384600,4124764
{consumergroup=adapter-service},1651384605,4265970
{consumergroup=adapter-service},1651384610,4265970
{consumergroup=adapter-service},1651384615,4265970
{consumergroup=adapter-service},1651384620,4367385
{consumergroup=adapter-service},1651384625,4367385
{consumergroup=adapter-service},1651384630,4367385
{consumergroup=adapter-service},1651384635,4476043
{consumergroup=adapter-service},1651384640,4476043
{consumergroup=adapter-service},1651384645,4476043
