labels,timestamp,value
{job=theodolite-stu200776/combined-trace-podmonitor},1651293322,0
{job=theodolite-stu200776/combined-trace-podmonitor},1651293327,0
{job=theodolite-stu200776/combined-trace-podmonitor},1651293332,0
{job=theodolite-stu200776/combined-trace-podmonitor},1651293337,0
{job=theodolite-stu200776/combined-trace-podmonitor},1651293342,0
{job=theodolite-stu200776/combined-trace-podmonitor},1651293347,0
{job=theodolite-stu200776/combined-trace-podmonitor},1651293352,0
{job=theodolite-stu200776/combined-trace-podmonitor},1651293357,0
{job=theodolite-stu200776/combined-trace-podmonitor},1651293362,0
{job=theodolite-stu200776/combined-trace-podmonitor},1651293367,0
{job=theodolite-stu200776/combined-trace-podmonitor},1651293372,0
{job=theodolite-stu200776/combined-trace-podmonitor},1651293377,0
{job=theodolite-stu200776/combined-trace-podmonitor},1651293382,0
{job=theodolite-stu200776/combined-trace-podmonitor},1651293387,0
{job=theodolite-stu200776/combined-trace-podmonitor},1651293392,0
{job=theodolite-stu200776/combined-trace-podmonitor},1651293397,0
{job=theodolite-stu200776/combined-trace-podmonitor},1651293402,0
{job=theodolite-stu200776/combined-trace-podmonitor},1651293407,0
{job=theodolite-stu200776/combined-trace-podmonitor},1651293412,0
{job=theodolite-stu200776/combined-trace-podmonitor},1651293417,0
{job=theodolite-stu200776/combined-trace-podmonitor},1651293422,0
{job=theodolite-stu200776/combined-trace-podmonitor},1651293427,0
{job=theodolite-stu200776/combined-trace-podmonitor},1651293432,0
{job=theodolite-stu200776/combined-trace-podmonitor},1651293437,0
{job=theodolite-stu200776/combined-trace-podmonitor},1651293442,0
{job=theodolite-stu200776/combined-trace-podmonitor},1651293447,0
{job=theodolite-stu200776/combined-trace-podmonitor},1651293452,0
{job=theodolite-stu200776/combined-trace-podmonitor},1651293457,0
{job=theodolite-stu200776/combined-trace-podmonitor},1651293462,0
{job=theodolite-stu200776/combined-trace-podmonitor},1651293467,0
{job=theodolite-stu200776/combined-trace-podmonitor},1651293472,0
{job=theodolite-stu200776/combined-trace-podmonitor},1651293477,0
{job=theodolite-stu200776/combined-trace-podmonitor},1651293482,0
{job=theodolite-stu200776/combined-trace-podmonitor},1651293487,0
{job=theodolite-stu200776/combined-trace-podmonitor},1651293492,0
{job=theodolite-stu200776/combined-trace-podmonitor},1651293497,0
{job=theodolite-stu200776/combined-trace-podmonitor},1651293502,0
{job=theodolite-stu200776/combined-trace-podmonitor},1651293507,0
{job=theodolite-stu200776/combined-trace-podmonitor},1651293512,0
{job=theodolite-stu200776/combined-trace-podmonitor},1651293517,0
{job=theodolite-stu200776/combined-trace-podmonitor},1651293522,0
{job=theodolite-stu200776/combined-trace-podmonitor},1651293527,0
{job=theodolite-stu200776/combined-trace-podmonitor},1651293532,0
{job=theodolite-stu200776/combined-trace-podmonitor},1651293537,0
{job=theodolite-stu200776/combined-trace-podmonitor},1651293542,0
{job=theodolite-stu200776/combined-trace-podmonitor},1651293547,0
{job=theodolite-stu200776/combined-trace-podmonitor},1651293552,0
{job=theodolite-stu200776/combined-trace-podmonitor},1651293557,0
{job=theodolite-stu200776/combined-trace-podmonitor},1651293562,0
{job=theodolite-stu200776/combined-trace-podmonitor},1651293567,0
{job=theodolite-stu200776/combined-trace-podmonitor},1651293572,0
{job=theodolite-stu200776/combined-trace-podmonitor},1651293577,0
{job=theodolite-stu200776/combined-trace-podmonitor},1651293582,0
{job=theodolite-stu200776/combined-trace-podmonitor},1651293587,0
{job=theodolite-stu200776/combined-trace-podmonitor},1651293592,0
{job=theodolite-stu200776/combined-trace-podmonitor},1651293597,0
{job=theodolite-stu200776/combined-trace-podmonitor},1651293602,0
{job=theodolite-stu200776/combined-trace-podmonitor},1651293607,0
{job=theodolite-stu200776/combined-trace-podmonitor},1651293612,0
{job=theodolite-stu200776/combined-trace-podmonitor},1651293617,0
{job=theodolite-stu200776/combined-trace-podmonitor},1651293622,0
{job=theodolite-stu200776/combined-trace-podmonitor},1651293627,0
{job=theodolite-stu200776/combined-trace-podmonitor},1651293632,0
{job=theodolite-stu200776/combined-trace-podmonitor},1651293637,0
{job=theodolite-stu200776/combined-trace-podmonitor},1651293642,0
{job=theodolite-stu200776/combined-trace-podmonitor},1651293647,0
