labels,timestamp,value
{consumergroup=__strimzi-topic-operator-kstreams},1651423261,8
{consumergroup=__strimzi-topic-operator-kstreams},1651423266,8
{consumergroup=__strimzi-topic-operator-kstreams},1651423271,8
{consumergroup=__strimzi-topic-operator-kstreams},1651423276,0
{consumergroup=__strimzi-topic-operator-kstreams},1651423281,0
{consumergroup=__strimzi-topic-operator-kstreams},1651423286,0
{consumergroup=__strimzi-topic-operator-kstreams},1651423291,0
{consumergroup=__strimzi-topic-operator-kstreams},1651423296,0
{consumergroup=__strimzi-topic-operator-kstreams},1651423301,0
{consumergroup=__strimzi-topic-operator-kstreams},1651423306,0
{consumergroup=__strimzi-topic-operator-kstreams},1651423311,0
{consumergroup=__strimzi-topic-operator-kstreams},1651423316,0
{consumergroup=__strimzi-topic-operator-kstreams},1651423321,0
{consumergroup=__strimzi-topic-operator-kstreams},1651423326,0
{consumergroup=__strimzi-topic-operator-kstreams},1651423331,0
{consumergroup=__strimzi-topic-operator-kstreams},1651423336,0
{consumergroup=__strimzi-topic-operator-kstreams},1651423341,0
{consumergroup=__strimzi-topic-operator-kstreams},1651423346,0
{consumergroup=__strimzi-topic-operator-kstreams},1651423351,0
{consumergroup=__strimzi-topic-operator-kstreams},1651423356,0
{consumergroup=__strimzi-topic-operator-kstreams},1651423361,0
{consumergroup=__strimzi-topic-operator-kstreams},1651423366,0
{consumergroup=__strimzi-topic-operator-kstreams},1651423371,0
{consumergroup=__strimzi-topic-operator-kstreams},1651423376,0
{consumergroup=__strimzi-topic-operator-kstreams},1651423381,0
{consumergroup=__strimzi-topic-operator-kstreams},1651423386,0
{consumergroup=__strimzi-topic-operator-kstreams},1651423391,0
{consumergroup=__strimzi-topic-operator-kstreams},1651423396,0
{consumergroup=__strimzi-topic-operator-kstreams},1651423401,0
{consumergroup=__strimzi-topic-operator-kstreams},1651423406,0
{consumergroup=__strimzi-topic-operator-kstreams},1651423411,0
{consumergroup=__strimzi-topic-operator-kstreams},1651423416,0
{consumergroup=__strimzi-topic-operator-kstreams},1651423421,0
{consumergroup=__strimzi-topic-operator-kstreams},1651423426,0
{consumergroup=__strimzi-topic-operator-kstreams},1651423431,0
{consumergroup=__strimzi-topic-operator-kstreams},1651423436,0
{consumergroup=__strimzi-topic-operator-kstreams},1651423441,0
{consumergroup=__strimzi-topic-operator-kstreams},1651423446,0
{consumergroup=__strimzi-topic-operator-kstreams},1651423451,0
{consumergroup=__strimzi-topic-operator-kstreams},1651423456,0
{consumergroup=__strimzi-topic-operator-kstreams},1651423461,0
{consumergroup=__strimzi-topic-operator-kstreams},1651423466,0
{consumergroup=__strimzi-topic-operator-kstreams},1651423471,0
{consumergroup=__strimzi-topic-operator-kstreams},1651423476,0
{consumergroup=__strimzi-topic-operator-kstreams},1651423481,0
{consumergroup=__strimzi-topic-operator-kstreams},1651423486,0
{consumergroup=__strimzi-topic-operator-kstreams},1651423491,0
{consumergroup=__strimzi-topic-operator-kstreams},1651423496,0
{consumergroup=__strimzi-topic-operator-kstreams},1651423501,0
{consumergroup=adapter-service},1651423291,78143
{consumergroup=adapter-service},1651423296,78143
{consumergroup=adapter-service},1651423301,78143
{consumergroup=adapter-service},1651423306,38580
{consumergroup=adapter-service},1651423311,38580
{consumergroup=adapter-service},1651423316,38580
{consumergroup=adapter-service},1651423321,40143
{consumergroup=adapter-service},1651423326,40143
{consumergroup=adapter-service},1651423331,40143
{consumergroup=adapter-service},1651423336,37638
{consumergroup=adapter-service},1651423341,37638
{consumergroup=adapter-service},1651423346,37638
{consumergroup=adapter-service},1651423351,31177
{consumergroup=adapter-service},1651423356,31177
{consumergroup=adapter-service},1651423361,31177
{consumergroup=adapter-service},1651423366,45275
{consumergroup=adapter-service},1651423371,45275
{consumergroup=adapter-service},1651423376,45275
{consumergroup=adapter-service},1651423381,43702
{consumergroup=adapter-service},1651423386,43702
{consumergroup=adapter-service},1651423391,43702
{consumergroup=adapter-service},1651423396,81319
{consumergroup=adapter-service},1651423401,81319
{consumergroup=adapter-service},1651423406,81319
{consumergroup=adapter-service},1651423411,50678
{consumergroup=adapter-service},1651423416,50678
{consumergroup=adapter-service},1651423421,50678
{consumergroup=adapter-service},1651423426,123462
{consumergroup=adapter-service},1651423431,123462
{consumergroup=adapter-service},1651423436,123462
{consumergroup=adapter-service},1651423441,232412
{consumergroup=adapter-service},1651423446,232412
{consumergroup=adapter-service},1651423451,232412
{consumergroup=adapter-service},1651423456,321573
{consumergroup=adapter-service},1651423461,321573
{consumergroup=adapter-service},1651423466,321573
{consumergroup=adapter-service},1651423471,423667
{consumergroup=adapter-service},1651423476,423667
{consumergroup=adapter-service},1651423481,423667
{consumergroup=adapter-service},1651423486,502948
{consumergroup=adapter-service},1651423491,502948
{consumergroup=adapter-service},1651423496,502948
{consumergroup=adapter-service},1651423501,564719
