labels,timestamp,value
{consumergroup=__strimzi-topic-operator-kstreams},1651413951,0
{consumergroup=__strimzi-topic-operator-kstreams},1651413956,0
{consumergroup=__strimzi-topic-operator-kstreams},1651413961,0
{consumergroup=__strimzi-topic-operator-kstreams},1651413966,0
{consumergroup=__strimzi-topic-operator-kstreams},1651413971,0
{consumergroup=__strimzi-topic-operator-kstreams},1651413976,0
{consumergroup=__strimzi-topic-operator-kstreams},1651413981,0
{consumergroup=__strimzi-topic-operator-kstreams},1651413986,0
{consumergroup=__strimzi-topic-operator-kstreams},1651413991,0
{consumergroup=__strimzi-topic-operator-kstreams},1651413996,0
{consumergroup=__strimzi-topic-operator-kstreams},1651414001,0
{consumergroup=__strimzi-topic-operator-kstreams},1651414006,0
{consumergroup=__strimzi-topic-operator-kstreams},1651414011,0
{consumergroup=__strimzi-topic-operator-kstreams},1651414016,0
{consumergroup=__strimzi-topic-operator-kstreams},1651414021,0
{consumergroup=__strimzi-topic-operator-kstreams},1651414026,0
{consumergroup=__strimzi-topic-operator-kstreams},1651414031,0
{consumergroup=__strimzi-topic-operator-kstreams},1651414036,0
{consumergroup=__strimzi-topic-operator-kstreams},1651414041,0
{consumergroup=__strimzi-topic-operator-kstreams},1651414046,0
{consumergroup=__strimzi-topic-operator-kstreams},1651414051,0
{consumergroup=__strimzi-topic-operator-kstreams},1651414056,0
{consumergroup=__strimzi-topic-operator-kstreams},1651414061,0
{consumergroup=__strimzi-topic-operator-kstreams},1651414066,0
{consumergroup=__strimzi-topic-operator-kstreams},1651414071,0
{consumergroup=__strimzi-topic-operator-kstreams},1651414076,0
{consumergroup=__strimzi-topic-operator-kstreams},1651414081,0
{consumergroup=__strimzi-topic-operator-kstreams},1651414086,0
{consumergroup=__strimzi-topic-operator-kstreams},1651414091,0
{consumergroup=__strimzi-topic-operator-kstreams},1651414096,0
{consumergroup=__strimzi-topic-operator-kstreams},1651414101,0
{consumergroup=__strimzi-topic-operator-kstreams},1651414106,0
{consumergroup=__strimzi-topic-operator-kstreams},1651414111,0
{consumergroup=__strimzi-topic-operator-kstreams},1651414116,0
{consumergroup=__strimzi-topic-operator-kstreams},1651414121,0
{consumergroup=__strimzi-topic-operator-kstreams},1651414126,0
{consumergroup=__strimzi-topic-operator-kstreams},1651414131,0
{consumergroup=__strimzi-topic-operator-kstreams},1651414136,0
{consumergroup=__strimzi-topic-operator-kstreams},1651414141,0
{consumergroup=__strimzi-topic-operator-kstreams},1651414146,0
{consumergroup=__strimzi-topic-operator-kstreams},1651414151,0
{consumergroup=__strimzi-topic-operator-kstreams},1651414156,0
{consumergroup=__strimzi-topic-operator-kstreams},1651414161,0
{consumergroup=__strimzi-topic-operator-kstreams},1651414166,0
{consumergroup=__strimzi-topic-operator-kstreams},1651414171,0
{consumergroup=__strimzi-topic-operator-kstreams},1651414176,0
{consumergroup=__strimzi-topic-operator-kstreams},1651414181,0
{consumergroup=__strimzi-topic-operator-kstreams},1651414186,0
{consumergroup=__strimzi-topic-operator-kstreams},1651414191,0
{consumergroup=__strimzi-topic-operator-kstreams},1651414196,0
{consumergroup=adapter-service},1651413966,0
{consumergroup=adapter-service},1651413971,0
{consumergroup=adapter-service},1651413976,0
{consumergroup=adapter-service},1651413981,160774
{consumergroup=adapter-service},1651413986,160774
{consumergroup=adapter-service},1651413991,160774
{consumergroup=adapter-service},1651413996,138006
{consumergroup=adapter-service},1651414001,138006
{consumergroup=adapter-service},1651414006,138006
{consumergroup=adapter-service},1651414011,86022
{consumergroup=adapter-service},1651414016,86022
{consumergroup=adapter-service},1651414021,86022
{consumergroup=adapter-service},1651414026,71925
{consumergroup=adapter-service},1651414031,71925
{consumergroup=adapter-service},1651414036,71925
{consumergroup=adapter-service},1651414041,58377
{consumergroup=adapter-service},1651414046,58377
{consumergroup=adapter-service},1651414051,58377
{consumergroup=adapter-service},1651414056,55015
{consumergroup=adapter-service},1651414061,55015
{consumergroup=adapter-service},1651414066,55015
{consumergroup=adapter-service},1651414071,51579
{consumergroup=adapter-service},1651414076,51579
{consumergroup=adapter-service},1651414081,51579
{consumergroup=adapter-service},1651414086,51870
{consumergroup=adapter-service},1651414091,51870
{consumergroup=adapter-service},1651414096,51870
{consumergroup=adapter-service},1651414101,64206
{consumergroup=adapter-service},1651414106,64206
{consumergroup=adapter-service},1651414111,64206
{consumergroup=adapter-service},1651414116,26661
{consumergroup=adapter-service},1651414121,26661
{consumergroup=adapter-service},1651414126,26661
{consumergroup=adapter-service},1651414131,26660
{consumergroup=adapter-service},1651414136,26660
{consumergroup=adapter-service},1651414141,26660
{consumergroup=adapter-service},1651414146,33747
{consumergroup=adapter-service},1651414151,33747
{consumergroup=adapter-service},1651414156,33747
{consumergroup=adapter-service},1651414161,24430
{consumergroup=adapter-service},1651414166,24430
{consumergroup=adapter-service},1651414171,24430
{consumergroup=adapter-service},1651414176,19845
{consumergroup=adapter-service},1651414181,19845
{consumergroup=adapter-service},1651414186,19845
{consumergroup=adapter-service},1651414191,39301
{consumergroup=adapter-service},1651414196,39301
