labels,timestamp,value
{consumergroup=__strimzi-topic-operator-kstreams},1651373016,4
{consumergroup=__strimzi-topic-operator-kstreams},1651373021,4
{consumergroup=__strimzi-topic-operator-kstreams},1651373026,4
{consumergroup=__strimzi-topic-operator-kstreams},1651373031,20
{consumergroup=__strimzi-topic-operator-kstreams},1651373036,20
{consumergroup=__strimzi-topic-operator-kstreams},1651373041,20
{consumergroup=__strimzi-topic-operator-kstreams},1651373046,0
{consumergroup=__strimzi-topic-operator-kstreams},1651373051,0
{consumergroup=__strimzi-topic-operator-kstreams},1651373056,0
{consumergroup=__strimzi-topic-operator-kstreams},1651373061,0
{consumergroup=__strimzi-topic-operator-kstreams},1651373066,0
{consumergroup=__strimzi-topic-operator-kstreams},1651373071,0
{consumergroup=__strimzi-topic-operator-kstreams},1651373076,0
{consumergroup=__strimzi-topic-operator-kstreams},1651373081,0
{consumergroup=__strimzi-topic-operator-kstreams},1651373086,0
{consumergroup=__strimzi-topic-operator-kstreams},1651373091,0
{consumergroup=__strimzi-topic-operator-kstreams},1651373096,0
{consumergroup=__strimzi-topic-operator-kstreams},1651373101,0
{consumergroup=__strimzi-topic-operator-kstreams},1651373106,0
{consumergroup=__strimzi-topic-operator-kstreams},1651373111,0
{consumergroup=__strimzi-topic-operator-kstreams},1651373116,0
{consumergroup=__strimzi-topic-operator-kstreams},1651373121,0
{consumergroup=__strimzi-topic-operator-kstreams},1651373126,0
{consumergroup=__strimzi-topic-operator-kstreams},1651373131,0
{consumergroup=__strimzi-topic-operator-kstreams},1651373136,0
{consumergroup=__strimzi-topic-operator-kstreams},1651373141,0
{consumergroup=__strimzi-topic-operator-kstreams},1651373146,0
{consumergroup=__strimzi-topic-operator-kstreams},1651373151,0
{consumergroup=__strimzi-topic-operator-kstreams},1651373156,0
{consumergroup=__strimzi-topic-operator-kstreams},1651373161,0
{consumergroup=__strimzi-topic-operator-kstreams},1651373166,0
{consumergroup=__strimzi-topic-operator-kstreams},1651373171,0
{consumergroup=__strimzi-topic-operator-kstreams},1651373176,0
{consumergroup=__strimzi-topic-operator-kstreams},1651373181,0
{consumergroup=__strimzi-topic-operator-kstreams},1651373186,0
{consumergroup=__strimzi-topic-operator-kstreams},1651373191,0
{consumergroup=__strimzi-topic-operator-kstreams},1651373196,0
{consumergroup=__strimzi-topic-operator-kstreams},1651373201,0
{consumergroup=__strimzi-topic-operator-kstreams},1651373206,0
{consumergroup=__strimzi-topic-operator-kstreams},1651373211,0
{consumergroup=__strimzi-topic-operator-kstreams},1651373216,0
{consumergroup=__strimzi-topic-operator-kstreams},1651373221,0
{consumergroup=__strimzi-topic-operator-kstreams},1651373226,0
{consumergroup=__strimzi-topic-operator-kstreams},1651373231,0
{consumergroup=__strimzi-topic-operator-kstreams},1651373236,0
{consumergroup=__strimzi-topic-operator-kstreams},1651373241,0
{consumergroup=__strimzi-topic-operator-kstreams},1651373246,0
{consumergroup=__strimzi-topic-operator-kstreams},1651373251,0
{consumergroup=__strimzi-topic-operator-kstreams},1651373256,0
{consumergroup=__strimzi-topic-operator-kstreams},1651373261,0
{consumergroup=__strimzi-topic-operator-kstreams},1651373266,0
{consumergroup=__strimzi-topic-operator-kstreams},1651373271,0
{consumergroup=adapter-service},1651373046,0
{consumergroup=adapter-service},1651373051,0
{consumergroup=adapter-service},1651373056,0
{consumergroup=adapter-service},1651373061,289927
{consumergroup=adapter-service},1651373066,289927
{consumergroup=adapter-service},1651373071,289927
{consumergroup=adapter-service},1651373076,510955
{consumergroup=adapter-service},1651373081,510955
{consumergroup=adapter-service},1651373086,510955
{consumergroup=adapter-service},1651373091,676804
{consumergroup=adapter-service},1651373096,676804
{consumergroup=adapter-service},1651373101,676804
{consumergroup=adapter-service},1651373106,869304
{consumergroup=adapter-service},1651373111,869304
{consumergroup=adapter-service},1651373116,869304
{consumergroup=adapter-service},1651373121,1021128
{consumergroup=adapter-service},1651373126,1021128
{consumergroup=adapter-service},1651373131,1021128
{consumergroup=adapter-service},1651373136,1129509
{consumergroup=adapter-service},1651373141,1129509
{consumergroup=adapter-service},1651373146,1129509
{consumergroup=adapter-service},1651373151,1204263
{consumergroup=adapter-service},1651373156,1204263
{consumergroup=adapter-service},1651373161,1204263
{consumergroup=adapter-service},1651373166,1263302
{consumergroup=adapter-service},1651373171,1263302
{consumergroup=adapter-service},1651373176,1263302
{consumergroup=adapter-service},1651373181,1298430
{consumergroup=adapter-service},1651373186,1298430
{consumergroup=adapter-service},1651373191,1298430
{consumergroup=adapter-service},1651373196,1298847
{consumergroup=adapter-service},1651373201,1298847
{consumergroup=adapter-service},1651373206,1298847
{consumergroup=adapter-service},1651373211,1254043
{consumergroup=adapter-service},1651373216,1254043
{consumergroup=adapter-service},1651373221,1254043
{consumergroup=adapter-service},1651373226,1244422
{consumergroup=adapter-service},1651373231,1244422
{consumergroup=adapter-service},1651373236,1244422
{consumergroup=adapter-service},1651373241,1227617
{consumergroup=adapter-service},1651373246,1227617
{consumergroup=adapter-service},1651373251,1227617
{consumergroup=adapter-service},1651373256,1210963
{consumergroup=adapter-service},1651373261,1210963
{consumergroup=adapter-service},1651373266,1210963
{consumergroup=adapter-service},1651373271,1186281
