labels,timestamp,value
{job=theodolite-stu200776/combined-trace-podmonitor},1651296884,0
{job=theodolite-stu200776/combined-trace-podmonitor},1651296889,0
{job=theodolite-stu200776/combined-trace-podmonitor},1651296894,0
{job=theodolite-stu200776/combined-trace-podmonitor},1651296899,0
{job=theodolite-stu200776/combined-trace-podmonitor},1651296904,0
{job=theodolite-stu200776/combined-trace-podmonitor},1651296909,0
{job=theodolite-stu200776/combined-trace-podmonitor},1651296914,0
{job=theodolite-stu200776/combined-trace-podmonitor},1651296919,0
{job=theodolite-stu200776/combined-trace-podmonitor},1651296924,0
{job=theodolite-stu200776/combined-trace-podmonitor},1651296929,0
{job=theodolite-stu200776/combined-trace-podmonitor},1651296934,0
{job=theodolite-stu200776/combined-trace-podmonitor},1651296939,0
{job=theodolite-stu200776/combined-trace-podmonitor},1651296944,0
{job=theodolite-stu200776/combined-trace-podmonitor},1651296949,0
{job=theodolite-stu200776/combined-trace-podmonitor},1651296954,0
{job=theodolite-stu200776/combined-trace-podmonitor},1651296959,0
{job=theodolite-stu200776/combined-trace-podmonitor},1651296964,0
{job=theodolite-stu200776/combined-trace-podmonitor},1651296969,0
{job=theodolite-stu200776/combined-trace-podmonitor},1651296974,0
{job=theodolite-stu200776/combined-trace-podmonitor},1651296979,0
{job=theodolite-stu200776/combined-trace-podmonitor},1651296984,0
{job=theodolite-stu200776/combined-trace-podmonitor},1651296989,0
{job=theodolite-stu200776/combined-trace-podmonitor},1651296994,0
{job=theodolite-stu200776/combined-trace-podmonitor},1651296999,0
{job=theodolite-stu200776/combined-trace-podmonitor},1651297004,0
{job=theodolite-stu200776/combined-trace-podmonitor},1651297009,0
{job=theodolite-stu200776/combined-trace-podmonitor},1651297014,0
{job=theodolite-stu200776/combined-trace-podmonitor},1651297019,0
{job=theodolite-stu200776/combined-trace-podmonitor},1651297024,0
{job=theodolite-stu200776/combined-trace-podmonitor},1651297029,0
{job=theodolite-stu200776/combined-trace-podmonitor},1651297034,0
{job=theodolite-stu200776/combined-trace-podmonitor},1651297039,0
{job=theodolite-stu200776/combined-trace-podmonitor},1651297044,0
{job=theodolite-stu200776/combined-trace-podmonitor},1651297049,0
{job=theodolite-stu200776/combined-trace-podmonitor},1651297054,0
{job=theodolite-stu200776/combined-trace-podmonitor},1651297059,0
{job=theodolite-stu200776/combined-trace-podmonitor},1651297064,0
{job=theodolite-stu200776/combined-trace-podmonitor},1651297069,0
{job=theodolite-stu200776/combined-trace-podmonitor},1651297074,0
{job=theodolite-stu200776/combined-trace-podmonitor},1651297079,0
{job=theodolite-stu200776/combined-trace-podmonitor},1651297084,0
{job=theodolite-stu200776/combined-trace-podmonitor},1651297089,0
{job=theodolite-stu200776/combined-trace-podmonitor},1651297094,0
{job=theodolite-stu200776/combined-trace-podmonitor},1651297099,0
{job=theodolite-stu200776/combined-trace-podmonitor},1651297104,0
{job=theodolite-stu200776/combined-trace-podmonitor},1651297109,0
{job=theodolite-stu200776/combined-trace-podmonitor},1651297114,0
{job=theodolite-stu200776/combined-trace-podmonitor},1651297119,0
{job=theodolite-stu200776/combined-trace-podmonitor},1651297124,0
{job=theodolite-stu200776/combined-trace-podmonitor},1651297129,0
{job=theodolite-stu200776/combined-trace-podmonitor},1651297134,0
{job=theodolite-stu200776/combined-trace-podmonitor},1651297139,0
{job=theodolite-stu200776/combined-trace-podmonitor},1651297144,0
{job=theodolite-stu200776/combined-trace-podmonitor},1651297149,0
{job=theodolite-stu200776/combined-trace-podmonitor},1651297154,0
{job=theodolite-stu200776/combined-trace-podmonitor},1651297159,0
{job=theodolite-stu200776/combined-trace-podmonitor},1651297164,0
{job=theodolite-stu200776/combined-trace-podmonitor},1651297169,0
{job=theodolite-stu200776/combined-trace-podmonitor},1651297174,0
{job=theodolite-stu200776/combined-trace-podmonitor},1651297179,0
{job=theodolite-stu200776/combined-trace-podmonitor},1651297184,0
{job=theodolite-stu200776/combined-trace-podmonitor},1651297189,0
{job=theodolite-stu200776/combined-trace-podmonitor},1651297194,0
{job=theodolite-stu200776/combined-trace-podmonitor},1651297199,0
{job=theodolite-stu200776/combined-trace-podmonitor},1651297204,0
{job=theodolite-stu200776/combined-trace-podmonitor},1651297209,0
{job=theodolite-stu200776/combined-trace-podmonitor},1651297214,0
{job=theodolite-stu200776/combined-trace-podmonitor},1651297219,0
{job=theodolite-stu200776/combined-trace-podmonitor},1651297224,0
{job=theodolite-stu200776/combined-trace-podmonitor},1651297229,0
{job=theodolite-stu200776/combined-trace-podmonitor},1651297234,0
{job=theodolite-stu200776/combined-trace-podmonitor},1651297239,0
{job=theodolite-stu200776/combined-trace-podmonitor},1651297244,0
{job=theodolite-stu200776/combined-trace-podmonitor},1651297249,0
{job=theodolite-stu200776/combined-trace-podmonitor},1651297254,0
{job=theodolite-stu200776/combined-trace-podmonitor},1651297259,0
{job=theodolite-stu200776/combined-trace-podmonitor},1651297264,0
{job=theodolite-stu200776/combined-trace-podmonitor},1651297269,0
{job=theodolite-stu200776/combined-trace-podmonitor},1651297274,0
{job=theodolite-stu200776/combined-trace-podmonitor},1651297279,0
{job=theodolite-stu200776/combined-trace-podmonitor},1651297284,0
{job=theodolite-stu200776/combined-trace-podmonitor},1651297289,0
{job=theodolite-stu200776/combined-trace-podmonitor},1651297294,0
{job=theodolite-stu200776/combined-trace-podmonitor},1651297299,0
{job=theodolite-stu200776/combined-trace-podmonitor},1651297304,0
{job=theodolite-stu200776/combined-trace-podmonitor},1651297309,0
{job=theodolite-stu200776/combined-trace-podmonitor},1651297314,0
{job=theodolite-stu200776/combined-trace-podmonitor},1651297319,0
