labels,timestamp,value
{consumergroup=__strimzi-topic-operator-kstreams},1651300500,3
{consumergroup=__strimzi-topic-operator-kstreams},1651300505,3
{consumergroup=__strimzi-topic-operator-kstreams},1651300510,3
{consumergroup=__strimzi-topic-operator-kstreams},1651300515,0
{consumergroup=__strimzi-topic-operator-kstreams},1651300520,0
{consumergroup=__strimzi-topic-operator-kstreams},1651300525,0
{consumergroup=__strimzi-topic-operator-kstreams},1651300530,2
{consumergroup=__strimzi-topic-operator-kstreams},1651300535,2
{consumergroup=__strimzi-topic-operator-kstreams},1651300540,2
{consumergroup=__strimzi-topic-operator-kstreams},1651300545,0
{consumergroup=__strimzi-topic-operator-kstreams},1651300550,0
{consumergroup=__strimzi-topic-operator-kstreams},1651300555,0
{consumergroup=__strimzi-topic-operator-kstreams},1651300560,0
{consumergroup=__strimzi-topic-operator-kstreams},1651300565,0
{consumergroup=__strimzi-topic-operator-kstreams},1651300570,0
{consumergroup=__strimzi-topic-operator-kstreams},1651300575,0
{consumergroup=__strimzi-topic-operator-kstreams},1651300580,0
{consumergroup=__strimzi-topic-operator-kstreams},1651300585,0
{consumergroup=__strimzi-topic-operator-kstreams},1651300590,0
{consumergroup=__strimzi-topic-operator-kstreams},1651300595,0
{consumergroup=__strimzi-topic-operator-kstreams},1651300600,0
{consumergroup=__strimzi-topic-operator-kstreams},1651300605,0
{consumergroup=__strimzi-topic-operator-kstreams},1651300610,0
{consumergroup=__strimzi-topic-operator-kstreams},1651300615,0
{consumergroup=__strimzi-topic-operator-kstreams},1651300620,1
{consumergroup=__strimzi-topic-operator-kstreams},1651300625,1
{consumergroup=__strimzi-topic-operator-kstreams},1651300630,1
{consumergroup=__strimzi-topic-operator-kstreams},1651300635,0
{consumergroup=__strimzi-topic-operator-kstreams},1651300640,0
{consumergroup=__strimzi-topic-operator-kstreams},1651300645,0
{consumergroup=__strimzi-topic-operator-kstreams},1651300650,0
{consumergroup=__strimzi-topic-operator-kstreams},1651300655,0
{consumergroup=__strimzi-topic-operator-kstreams},1651300660,0
{consumergroup=__strimzi-topic-operator-kstreams},1651300665,0
{consumergroup=__strimzi-topic-operator-kstreams},1651300670,0
{consumergroup=__strimzi-topic-operator-kstreams},1651300675,0
{consumergroup=__strimzi-topic-operator-kstreams},1651300680,0
{consumergroup=__strimzi-topic-operator-kstreams},1651300685,0
{consumergroup=__strimzi-topic-operator-kstreams},1651300690,0
{consumergroup=__strimzi-topic-operator-kstreams},1651300695,0
{consumergroup=__strimzi-topic-operator-kstreams},1651300700,0
{consumergroup=__strimzi-topic-operator-kstreams},1651300705,0
{consumergroup=__strimzi-topic-operator-kstreams},1651300710,0
{consumergroup=__strimzi-topic-operator-kstreams},1651300715,0
{consumergroup=__strimzi-topic-operator-kstreams},1651300720,0
{consumergroup=__strimzi-topic-operator-kstreams},1651300725,0
{consumergroup=__strimzi-topic-operator-kstreams},1651300730,0
{consumergroup=__strimzi-topic-operator-kstreams},1651300735,0
{consumergroup=__strimzi-topic-operator-kstreams},1651300740,0
{consumergroup=__strimzi-topic-operator-kstreams},1651300745,0
{consumergroup=__strimzi-topic-operator-kstreams},1651300750,0
{consumergroup=__strimzi-topic-operator-kstreams},1651300755,0
{consumergroup=__strimzi-topic-operator-kstreams},1651300760,0
{consumergroup=__strimzi-topic-operator-kstreams},1651300765,0
{consumergroup=__strimzi-topic-operator-kstreams},1651300770,0
{consumergroup=__strimzi-topic-operator-kstreams},1651300775,0
{consumergroup=__strimzi-topic-operator-kstreams},1651300780,0
{consumergroup=__strimzi-topic-operator-kstreams},1651300785,0
{consumergroup=__strimzi-topic-operator-kstreams},1651300790,0
{consumergroup=__strimzi-topic-operator-kstreams},1651300795,0
{consumergroup=__strimzi-topic-operator-kstreams},1651300800,0
{consumergroup=__strimzi-topic-operator-kstreams},1651300805,0
{consumergroup=__strimzi-topic-operator-kstreams},1651300810,0
{consumergroup=__strimzi-topic-operator-kstreams},1651300815,0
{consumergroup=__strimzi-topic-operator-kstreams},1651300820,0
{consumergroup=__strimzi-topic-operator-kstreams},1651300825,0
{consumergroup=__strimzi-topic-operator-kstreams},1651300830,0
{consumergroup=__strimzi-topic-operator-kstreams},1651300835,0
{consumergroup=__strimzi-topic-operator-kstreams},1651300840,0
{consumergroup=__strimzi-topic-operator-kstreams},1651300845,0
{consumergroup=__strimzi-topic-operator-kstreams},1651300850,0
{consumergroup=__strimzi-topic-operator-kstreams},1651300855,0
{consumergroup=__strimzi-topic-operator-kstreams},1651300860,0
{consumergroup=__strimzi-topic-operator-kstreams},1651300865,0
{consumergroup=__strimzi-topic-operator-kstreams},1651300870,0
{consumergroup=__strimzi-topic-operator-kstreams},1651300875,0
{consumergroup=__strimzi-topic-operator-kstreams},1651300880,0
{consumergroup=__strimzi-topic-operator-kstreams},1651300885,0
{consumergroup=__strimzi-topic-operator-kstreams},1651300890,0
{consumergroup=__strimzi-topic-operator-kstreams},1651300895,0
{consumergroup=__strimzi-topic-operator-kstreams},1651300900,0
{consumergroup=__strimzi-topic-operator-kstreams},1651300905,0
{consumergroup=__strimzi-topic-operator-kstreams},1651300910,0
{consumergroup=__strimzi-topic-operator-kstreams},1651300915,0
{consumergroup=__strimzi-topic-operator-kstreams},1651300920,0
{consumergroup=__strimzi-topic-operator-kstreams},1651300925,0
{consumergroup=__strimzi-topic-operator-kstreams},1651300930,0
{consumergroup=__strimzi-topic-operator-kstreams},1651300935,0
{consumergroup=__strimzi-topic-operator-kstreams},1651300940,0
{consumergroup=__strimzi-topic-operator-kstreams},1651300945,0
{consumergroup=__strimzi-topic-operator-kstreams},1651300950,0
{consumergroup=__strimzi-topic-operator-kstreams},1651300955,0
{consumergroup=__strimzi-topic-operator-kstreams},1651300960,0
{consumergroup=__strimzi-topic-operator-kstreams},1651300965,0
{consumergroup=__strimzi-topic-operator-kstreams},1651300970,0
{consumergroup=__strimzi-topic-operator-kstreams},1651300975,0
{consumergroup=__strimzi-topic-operator-kstreams},1651300980,0
{consumergroup=__strimzi-topic-operator-kstreams},1651300985,0
{consumergroup=__strimzi-topic-operator-kstreams},1651300990,0
{consumergroup=__strimzi-topic-operator-kstreams},1651300995,0
{consumergroup=__strimzi-topic-operator-kstreams},1651301000,0
{consumergroup=__strimzi-topic-operator-kstreams},1651301005,0
{consumergroup=__strimzi-topic-operator-kstreams},1651301010,0
{consumergroup=adapter-service},1651300545,3070
{consumergroup=adapter-service},1651300550,3070
{consumergroup=adapter-service},1651300555,3070
{consumergroup=adapter-service},1651300560,8437
{consumergroup=adapter-service},1651300565,8437
{consumergroup=adapter-service},1651300570,8437
{consumergroup=adapter-service},1651300575,7643
{consumergroup=adapter-service},1651300580,7643
{consumergroup=adapter-service},1651300585,7643
{consumergroup=adapter-service},1651300590,11464
{consumergroup=adapter-service},1651300595,11464
{consumergroup=adapter-service},1651300600,11464
{consumergroup=adapter-service},1651300605,5968
{consumergroup=adapter-service},1651300610,5968
{consumergroup=adapter-service},1651300615,5968
{consumergroup=adapter-service},1651300620,9738
{consumergroup=adapter-service},1651300625,9738
{consumergroup=adapter-service},1651300630,9738
{consumergroup=adapter-service},1651300635,9988
{consumergroup=adapter-service},1651300640,9988
{consumergroup=adapter-service},1651300645,9988
{consumergroup=adapter-service},1651300650,8974
{consumergroup=adapter-service},1651300655,8974
{consumergroup=adapter-service},1651300660,8974
{consumergroup=adapter-service},1651300665,9511
{consumergroup=adapter-service},1651300670,9511
{consumergroup=adapter-service},1651300675,9511
{consumergroup=adapter-service},1651300680,9661
{consumergroup=adapter-service},1651300685,9661
{consumergroup=adapter-service},1651300690,9661
{consumergroup=adapter-service},1651300695,9315
{consumergroup=adapter-service},1651300700,9315
{consumergroup=adapter-service},1651300705,9315
{consumergroup=adapter-service},1651300710,8971
{consumergroup=adapter-service},1651300715,8971
{consumergroup=adapter-service},1651300720,8971
{consumergroup=adapter-service},1651300725,11370
{consumergroup=adapter-service},1651300730,11370
{consumergroup=adapter-service},1651300735,11370
{consumergroup=adapter-service},1651300740,8687
{consumergroup=adapter-service},1651300745,8687
{consumergroup=adapter-service},1651300750,8687
{consumergroup=adapter-service},1651300755,10819
{consumergroup=adapter-service},1651300760,10819
{consumergroup=adapter-service},1651300765,10819
{consumergroup=adapter-service},1651300770,7439
{consumergroup=adapter-service},1651300775,7439
{consumergroup=adapter-service},1651300780,7439
{consumergroup=adapter-service},1651300785,10531
{consumergroup=adapter-service},1651300790,10531
{consumergroup=adapter-service},1651300795,10531
{consumergroup=adapter-service},1651300800,4829
{consumergroup=adapter-service},1651300805,4829
{consumergroup=adapter-service},1651300810,4829
{consumergroup=adapter-service},1651300815,10242
{consumergroup=adapter-service},1651300820,10242
{consumergroup=adapter-service},1651300825,10242
{consumergroup=adapter-service},1651300830,6392
{consumergroup=adapter-service},1651300835,6392
{consumergroup=adapter-service},1651300840,6392
{consumergroup=adapter-service},1651300845,10300
{consumergroup=adapter-service},1651300850,10300
{consumergroup=adapter-service},1651300855,10300
{consumergroup=adapter-service},1651300860,6014
{consumergroup=adapter-service},1651300865,6014
{consumergroup=adapter-service},1651300870,6014
{consumergroup=adapter-service},1651300875,9479
{consumergroup=adapter-service},1651300880,9479
{consumergroup=adapter-service},1651300885,9479
{consumergroup=adapter-service},1651300890,5849
{consumergroup=adapter-service},1651300895,5849
{consumergroup=adapter-service},1651300900,5849
{consumergroup=adapter-service},1651300905,8888
{consumergroup=adapter-service},1651300910,8888
{consumergroup=adapter-service},1651300915,8888
{consumergroup=adapter-service},1651300920,5582
{consumergroup=adapter-service},1651300925,5582
{consumergroup=adapter-service},1651300930,5582
{consumergroup=adapter-service},1651300935,9232
{consumergroup=adapter-service},1651300940,9232
{consumergroup=adapter-service},1651300945,9232
{consumergroup=adapter-service},1651300950,4924
{consumergroup=adapter-service},1651300955,4924
{consumergroup=adapter-service},1651300960,4924
{consumergroup=adapter-service},1651300965,8062
{consumergroup=adapter-service},1651300970,8062
{consumergroup=adapter-service},1651300975,8062
{consumergroup=adapter-service},1651300980,4522
{consumergroup=adapter-service},1651300985,4522
{consumergroup=adapter-service},1651300990,4522
{consumergroup=adapter-service},1651300995,7706
{consumergroup=adapter-service},1651301000,7706
{consumergroup=adapter-service},1651301005,7706
{consumergroup=adapter-service},1651301010,4327
{consumergroup=landscape-service},1651300560,34023
{consumergroup=landscape-service},1651300565,34023
{consumergroup=landscape-service},1651300570,34023
{consumergroup=landscape-service},1651300575,12431
{consumergroup=landscape-service},1651300580,12431
{consumergroup=landscape-service},1651300585,12431
{consumergroup=landscape-service},1651300590,8249
{consumergroup=landscape-service},1651300595,8249
{consumergroup=landscape-service},1651300600,8249
{consumergroup=landscape-service},1651300605,11517
{consumergroup=landscape-service},1651300610,11517
{consumergroup=landscape-service},1651300615,11517
{consumergroup=landscape-service},1651300620,6839
{consumergroup=landscape-service},1651300625,6839
{consumergroup=landscape-service},1651300630,6839
{consumergroup=landscape-service},1651300635,9509
{consumergroup=landscape-service},1651300640,9509
{consumergroup=landscape-service},1651300645,9509
{consumergroup=landscape-service},1651300650,5438
{consumergroup=landscape-service},1651300655,5438
{consumergroup=landscape-service},1651300660,5438
{consumergroup=landscape-service},1651300665,8276
{consumergroup=landscape-service},1651300670,8276
{consumergroup=landscape-service},1651300675,8276
{consumergroup=landscape-service},1651300680,4603
{consumergroup=landscape-service},1651300685,4603
{consumergroup=landscape-service},1651300690,4603
{consumergroup=landscape-service},1651300695,7153
{consumergroup=landscape-service},1651300700,7153
{consumergroup=landscape-service},1651300705,7153
{consumergroup=landscape-service},1651300710,3374
{consumergroup=landscape-service},1651300715,3374
{consumergroup=landscape-service},1651300720,3374
{consumergroup=landscape-service},1651300725,5971
{consumergroup=landscape-service},1651300730,5971
{consumergroup=landscape-service},1651300735,5971
{consumergroup=landscape-service},1651300740,2881
{consumergroup=landscape-service},1651300745,2881
{consumergroup=landscape-service},1651300750,2881
{consumergroup=landscape-service},1651300755,4874
{consumergroup=landscape-service},1651300760,4874
{consumergroup=landscape-service},1651300765,4874
{consumergroup=landscape-service},1651300770,1016
{consumergroup=landscape-service},1651300775,1016
{consumergroup=landscape-service},1651300780,1016
{consumergroup=landscape-service},1651300785,4651
{consumergroup=landscape-service},1651300790,4651
{consumergroup=landscape-service},1651300795,4651
{consumergroup=landscape-service},1651300800,14014
{consumergroup=landscape-service},1651300805,14014
{consumergroup=landscape-service},1651300810,14014
{consumergroup=landscape-service},1651300815,2912
{consumergroup=landscape-service},1651300820,2912
{consumergroup=landscape-service},1651300825,2912
{consumergroup=landscape-service},1651300830,14884
{consumergroup=landscape-service},1651300835,14884
{consumergroup=landscape-service},1651300840,14884
{consumergroup=landscape-service},1651300845,1559
{consumergroup=landscape-service},1651300850,1559
{consumergroup=landscape-service},1651300855,1559
{consumergroup=landscape-service},1651300860,14489
{consumergroup=landscape-service},1651300865,14489
{consumergroup=landscape-service},1651300870,14489
{consumergroup=landscape-service},1651300875,397
{consumergroup=landscape-service},1651300880,397
{consumergroup=landscape-service},1651300885,397
{consumergroup=landscape-service},1651300890,13212
{consumergroup=landscape-service},1651300895,13212
{consumergroup=landscape-service},1651300900,13212
{consumergroup=landscape-service},1651300905,1352
{consumergroup=landscape-service},1651300910,1352
{consumergroup=landscape-service},1651300915,1352
{consumergroup=landscape-service},1651300920,12957
{consumergroup=landscape-service},1651300925,12957
{consumergroup=landscape-service},1651300930,12957
{consumergroup=landscape-service},1651300935,15546
{consumergroup=landscape-service},1651300940,15546
{consumergroup=landscape-service},1651300945,15546
{consumergroup=landscape-service},1651300950,11673
{consumergroup=landscape-service},1651300955,11673
{consumergroup=landscape-service},1651300960,11673
{consumergroup=landscape-service},1651300965,14571
{consumergroup=landscape-service},1651300970,14571
{consumergroup=landscape-service},1651300975,14571
{consumergroup=landscape-service},1651300980,10712
{consumergroup=landscape-service},1651300985,10712
{consumergroup=landscape-service},1651300990,10712
{consumergroup=landscape-service},1651300995,14396
{consumergroup=landscape-service},1651301000,14396
{consumergroup=landscape-service},1651301005,14396
{consumergroup=landscape-service},1651301010,9767
{consumergroup=trace-service},1651300545,2
{consumergroup=trace-service},1651300550,2
{consumergroup=trace-service},1651300555,2
{consumergroup=trace-service},1651300560,18507
{consumergroup=trace-service},1651300565,18507
{consumergroup=trace-service},1651300570,18507
{consumergroup=trace-service},1651300575,41020
{consumergroup=trace-service},1651300580,41020
{consumergroup=trace-service},1651300585,41020
{consumergroup=trace-service},1651300590,21413
{consumergroup=trace-service},1651300595,21413
{consumergroup=trace-service},1651300600,21413
{consumergroup=trace-service},1651300605,43628
{consumergroup=trace-service},1651300610,43628
{consumergroup=trace-service},1651300615,43628
{consumergroup=trace-service},1651300620,13194
{consumergroup=trace-service},1651300625,13194
{consumergroup=trace-service},1651300630,13194
{consumergroup=trace-service},1651300635,40455
{consumergroup=trace-service},1651300640,40455
{consumergroup=trace-service},1651300645,40455
{consumergroup=trace-service},1651300650,17959
{consumergroup=trace-service},1651300655,17959
{consumergroup=trace-service},1651300660,17959
{consumergroup=trace-service},1651300665,42409
{consumergroup=trace-service},1651300670,42409
{consumergroup=trace-service},1651300675,42409
{consumergroup=trace-service},1651300680,19243
{consumergroup=trace-service},1651300685,19243
{consumergroup=trace-service},1651300690,19243
{consumergroup=trace-service},1651300695,42172
{consumergroup=trace-service},1651300700,42172
{consumergroup=trace-service},1651300705,42172
{consumergroup=trace-service},1651300710,101412
{consumergroup=trace-service},1651300715,101412
{consumergroup=trace-service},1651300720,101412
{consumergroup=trace-service},1651300725,39441
{consumergroup=trace-service},1651300730,39441
{consumergroup=trace-service},1651300735,39441
{consumergroup=trace-service},1651300740,23793
{consumergroup=trace-service},1651300745,23793
{consumergroup=trace-service},1651300750,23793
{consumergroup=trace-service},1651300755,39615
{consumergroup=trace-service},1651300760,39615
{consumergroup=trace-service},1651300765,39615
{consumergroup=trace-service},1651300770,19166
{consumergroup=trace-service},1651300775,19166
{consumergroup=trace-service},1651300780,19166
{consumergroup=trace-service},1651300785,44315
{consumergroup=trace-service},1651300790,44315
{consumergroup=trace-service},1651300795,44315
{consumergroup=trace-service},1651300800,100269
{consumergroup=trace-service},1651300805,100269
{consumergroup=trace-service},1651300810,100269
{consumergroup=trace-service},1651300815,42743
{consumergroup=trace-service},1651300820,42743
{consumergroup=trace-service},1651300825,42743
{consumergroup=trace-service},1651300830,26574
{consumergroup=trace-service},1651300835,26574
{consumergroup=trace-service},1651300840,26574
{consumergroup=trace-service},1651300845,39364
{consumergroup=trace-service},1651300850,39364
{consumergroup=trace-service},1651300855,39364
{consumergroup=trace-service},1651300860,23109
{consumergroup=trace-service},1651300865,23109
{consumergroup=trace-service},1651300870,23109
{consumergroup=trace-service},1651300875,43154
{consumergroup=trace-service},1651300880,43154
{consumergroup=trace-service},1651300885,43154
{consumergroup=trace-service},1651300890,16906
{consumergroup=trace-service},1651300895,16906
{consumergroup=trace-service},1651300900,16906
{consumergroup=trace-service},1651300905,42005
{consumergroup=trace-service},1651300910,42005
{consumergroup=trace-service},1651300915,42005
{consumergroup=trace-service},1651300920,15982
{consumergroup=trace-service},1651300925,15982
{consumergroup=trace-service},1651300930,15982
{consumergroup=trace-service},1651300935,40221
{consumergroup=trace-service},1651300940,40221
{consumergroup=trace-service},1651300945,40221
{consumergroup=trace-service},1651300950,17400
{consumergroup=trace-service},1651300955,17400
{consumergroup=trace-service},1651300960,17400
{consumergroup=trace-service},1651300965,39860
{consumergroup=trace-service},1651300970,39860
{consumergroup=trace-service},1651300975,39860
{consumergroup=trace-service},1651300980,44646
{consumergroup=trace-service},1651300985,44646
{consumergroup=trace-service},1651300990,44646
{consumergroup=trace-service},1651300995,45432
{consumergroup=trace-service},1651301000,45432
{consumergroup=trace-service},1651301005,45432
{consumergroup=trace-service},1651301010,17726
{consumergroup=trace-token-events-consumer},1651300545,0
{consumergroup=trace-token-events-consumer},1651300550,0
{consumergroup=trace-token-events-consumer},1651300555,0
{consumergroup=trace-token-events-consumer},1651300560,0
{consumergroup=trace-token-events-consumer},1651300565,0
{consumergroup=trace-token-events-consumer},1651300570,0
{consumergroup=trace-token-events-consumer},1651300575,0
{consumergroup=trace-token-events-consumer},1651300580,0
{consumergroup=trace-token-events-consumer},1651300585,0
{consumergroup=trace-token-events-consumer},1651300590,0
{consumergroup=trace-token-events-consumer},1651300595,0
{consumergroup=trace-token-events-consumer},1651300600,0
{consumergroup=trace-token-events-consumer},1651300605,0
{consumergroup=trace-token-events-consumer},1651300610,0
{consumergroup=trace-token-events-consumer},1651300615,0
{consumergroup=trace-token-events-consumer},1651300620,0
{consumergroup=trace-token-events-consumer},1651300625,0
{consumergroup=trace-token-events-consumer},1651300630,0
{consumergroup=trace-token-events-consumer},1651300635,0
{consumergroup=trace-token-events-consumer},1651300640,0
{consumergroup=trace-token-events-consumer},1651300645,0
{consumergroup=trace-token-events-consumer},1651300650,0
{consumergroup=trace-token-events-consumer},1651300655,0
{consumergroup=trace-token-events-consumer},1651300660,0
{consumergroup=trace-token-events-consumer},1651300665,0
{consumergroup=trace-token-events-consumer},1651300670,0
{consumergroup=trace-token-events-consumer},1651300675,0
{consumergroup=trace-token-events-consumer},1651300680,0
{consumergroup=trace-token-events-consumer},1651300685,0
{consumergroup=trace-token-events-consumer},1651300690,0
{consumergroup=trace-token-events-consumer},1651300695,0
{consumergroup=trace-token-events-consumer},1651300700,0
{consumergroup=trace-token-events-consumer},1651300705,0
{consumergroup=trace-token-events-consumer},1651300710,0
{consumergroup=trace-token-events-consumer},1651300715,0
{consumergroup=trace-token-events-consumer},1651300720,0
{consumergroup=trace-token-events-consumer},1651300725,0
{consumergroup=trace-token-events-consumer},1651300730,0
{consumergroup=trace-token-events-consumer},1651300735,0
{consumergroup=trace-token-events-consumer},1651300740,0
{consumergroup=trace-token-events-consumer},1651300745,0
{consumergroup=trace-token-events-consumer},1651300750,0
{consumergroup=trace-token-events-consumer},1651300755,0
{consumergroup=trace-token-events-consumer},1651300760,0
{consumergroup=trace-token-events-consumer},1651300765,0
{consumergroup=trace-token-events-consumer},1651300770,0
{consumergroup=trace-token-events-consumer},1651300775,0
{consumergroup=trace-token-events-consumer},1651300780,0
{consumergroup=trace-token-events-consumer},1651300785,0
{consumergroup=trace-token-events-consumer},1651300790,0
{consumergroup=trace-token-events-consumer},1651300795,0
{consumergroup=trace-token-events-consumer},1651300800,0
{consumergroup=trace-token-events-consumer},1651300805,0
{consumergroup=trace-token-events-consumer},1651300810,0
{consumergroup=trace-token-events-consumer},1651300815,0
{consumergroup=trace-token-events-consumer},1651300820,0
{consumergroup=trace-token-events-consumer},1651300825,0
{consumergroup=trace-token-events-consumer},1651300830,0
{consumergroup=trace-token-events-consumer},1651300835,0
{consumergroup=trace-token-events-consumer},1651300840,0
{consumergroup=trace-token-events-consumer},1651300845,0
{consumergroup=trace-token-events-consumer},1651300850,0
{consumergroup=trace-token-events-consumer},1651300855,0
{consumergroup=trace-token-events-consumer},1651300860,0
{consumergroup=trace-token-events-consumer},1651300865,0
{consumergroup=trace-token-events-consumer},1651300870,0
{consumergroup=trace-token-events-consumer},1651300875,0
{consumergroup=trace-token-events-consumer},1651300880,0
{consumergroup=trace-token-events-consumer},1651300885,0
{consumergroup=trace-token-events-consumer},1651300890,0
{consumergroup=trace-token-events-consumer},1651300895,0
{consumergroup=trace-token-events-consumer},1651300900,0
{consumergroup=trace-token-events-consumer},1651300905,0
{consumergroup=trace-token-events-consumer},1651300910,0
{consumergroup=trace-token-events-consumer},1651300915,0
{consumergroup=trace-token-events-consumer},1651300920,0
{consumergroup=trace-token-events-consumer},1651300925,0
{consumergroup=trace-token-events-consumer},1651300930,0
{consumergroup=trace-token-events-consumer},1651300935,0
{consumergroup=trace-token-events-consumer},1651300940,0
{consumergroup=trace-token-events-consumer},1651300945,0
{consumergroup=trace-token-events-consumer},1651300950,0
{consumergroup=trace-token-events-consumer},1651300955,0
{consumergroup=trace-token-events-consumer},1651300960,0
{consumergroup=trace-token-events-consumer},1651300965,0
{consumergroup=trace-token-events-consumer},1651300970,0
{consumergroup=trace-token-events-consumer},1651300975,0
{consumergroup=trace-token-events-consumer},1651300980,0
{consumergroup=trace-token-events-consumer},1651300985,0
{consumergroup=trace-token-events-consumer},1651300990,0
{consumergroup=trace-token-events-consumer},1651300995,0
{consumergroup=trace-token-events-consumer},1651301000,0
{consumergroup=trace-token-events-consumer},1651301005,0
{consumergroup=trace-token-events-consumer},1651301010,0
