labels,timestamp,value
{consumergroup=__strimzi-topic-operator-kstreams},1651289445,8
{consumergroup=__strimzi-topic-operator-kstreams},1651289450,8
{consumergroup=__strimzi-topic-operator-kstreams},1651289455,8
{consumergroup=__strimzi-topic-operator-kstreams},1651289460,8
{consumergroup=__strimzi-topic-operator-kstreams},1651289465,8
{consumergroup=__strimzi-topic-operator-kstreams},1651289470,8
{consumergroup=__strimzi-topic-operator-kstreams},1651289475,0
{consumergroup=__strimzi-topic-operator-kstreams},1651289480,0
{consumergroup=__strimzi-topic-operator-kstreams},1651289485,0
{consumergroup=__strimzi-topic-operator-kstreams},1651289490,0
{consumergroup=__strimzi-topic-operator-kstreams},1651289495,0
{consumergroup=__strimzi-topic-operator-kstreams},1651289500,0
{consumergroup=__strimzi-topic-operator-kstreams},1651289505,0
{consumergroup=__strimzi-topic-operator-kstreams},1651289510,0
{consumergroup=__strimzi-topic-operator-kstreams},1651289515,0
{consumergroup=__strimzi-topic-operator-kstreams},1651289520,0
{consumergroup=__strimzi-topic-operator-kstreams},1651289525,0
{consumergroup=__strimzi-topic-operator-kstreams},1651289530,0
{consumergroup=__strimzi-topic-operator-kstreams},1651289535,0
{consumergroup=__strimzi-topic-operator-kstreams},1651289540,0
{consumergroup=__strimzi-topic-operator-kstreams},1651289545,0
{consumergroup=__strimzi-topic-operator-kstreams},1651289550,0
{consumergroup=__strimzi-topic-operator-kstreams},1651289555,0
{consumergroup=__strimzi-topic-operator-kstreams},1651289560,0
{consumergroup=__strimzi-topic-operator-kstreams},1651289565,0
{consumergroup=__strimzi-topic-operator-kstreams},1651289570,0
{consumergroup=__strimzi-topic-operator-kstreams},1651289575,0
{consumergroup=__strimzi-topic-operator-kstreams},1651289580,0
{consumergroup=__strimzi-topic-operator-kstreams},1651289585,0
{consumergroup=__strimzi-topic-operator-kstreams},1651289590,0
{consumergroup=__strimzi-topic-operator-kstreams},1651289595,0
{consumergroup=__strimzi-topic-operator-kstreams},1651289600,0
{consumergroup=__strimzi-topic-operator-kstreams},1651289605,0
{consumergroup=__strimzi-topic-operator-kstreams},1651289610,0
{consumergroup=__strimzi-topic-operator-kstreams},1651289615,0
{consumergroup=__strimzi-topic-operator-kstreams},1651289620,0
{consumergroup=__strimzi-topic-operator-kstreams},1651289625,0
{consumergroup=__strimzi-topic-operator-kstreams},1651289630,0
{consumergroup=__strimzi-topic-operator-kstreams},1651289635,0
{consumergroup=__strimzi-topic-operator-kstreams},1651289640,0
{consumergroup=__strimzi-topic-operator-kstreams},1651289645,0
{consumergroup=__strimzi-topic-operator-kstreams},1651289650,0
{consumergroup=__strimzi-topic-operator-kstreams},1651289655,0
{consumergroup=__strimzi-topic-operator-kstreams},1651289660,0
{consumergroup=__strimzi-topic-operator-kstreams},1651289665,0
{consumergroup=__strimzi-topic-operator-kstreams},1651289670,0
{consumergroup=__strimzi-topic-operator-kstreams},1651289675,0
{consumergroup=__strimzi-topic-operator-kstreams},1651289680,0
{consumergroup=__strimzi-topic-operator-kstreams},1651289685,0
{consumergroup=__strimzi-topic-operator-kstreams},1651289690,0
{consumergroup=__strimzi-topic-operator-kstreams},1651289695,0
{consumergroup=__strimzi-topic-operator-kstreams},1651289700,0
{consumergroup=__strimzi-topic-operator-kstreams},1651289705,0
{consumergroup=__strimzi-topic-operator-kstreams},1651289710,0
{consumergroup=__strimzi-topic-operator-kstreams},1651289715,0
{consumergroup=__strimzi-topic-operator-kstreams},1651289720,0
{consumergroup=__strimzi-topic-operator-kstreams},1651289725,0
{consumergroup=__strimzi-topic-operator-kstreams},1651289730,0
{consumergroup=__strimzi-topic-operator-kstreams},1651289735,0
{consumergroup=__strimzi-topic-operator-kstreams},1651289740,0
{consumergroup=__strimzi-topic-operator-kstreams},1651289745,0
{consumergroup=__strimzi-topic-operator-kstreams},1651289750,0
{consumergroup=__strimzi-topic-operator-kstreams},1651289755,0
{consumergroup=__strimzi-topic-operator-kstreams},1651289760,0
{consumergroup=__strimzi-topic-operator-kstreams},1651289765,0
{consumergroup=__strimzi-topic-operator-kstreams},1651289770,0
{consumergroup=__strimzi-topic-operator-kstreams},1651289775,0
{consumergroup=__strimzi-topic-operator-kstreams},1651289780,0
{consumergroup=__strimzi-topic-operator-kstreams},1651289785,0
{consumergroup=__strimzi-topic-operator-kstreams},1651289790,0
{consumergroup=__strimzi-topic-operator-kstreams},1651289795,0
{consumergroup=__strimzi-topic-operator-kstreams},1651289800,0
{consumergroup=__strimzi-topic-operator-kstreams},1651289805,0
{consumergroup=__strimzi-topic-operator-kstreams},1651289810,0
{consumergroup=__strimzi-topic-operator-kstreams},1651289815,0
{consumergroup=__strimzi-topic-operator-kstreams},1651289820,0
{consumergroup=__strimzi-topic-operator-kstreams},1651289825,0
{consumergroup=__strimzi-topic-operator-kstreams},1651289830,0
{consumergroup=__strimzi-topic-operator-kstreams},1651289835,0
{consumergroup=__strimzi-topic-operator-kstreams},1651289840,0
{consumergroup=__strimzi-topic-operator-kstreams},1651289845,0
{consumergroup=__strimzi-topic-operator-kstreams},1651289850,0
{consumergroup=__strimzi-topic-operator-kstreams},1651289855,0
{consumergroup=__strimzi-topic-operator-kstreams},1651289860,0
{consumergroup=__strimzi-topic-operator-kstreams},1651289865,0
{consumergroup=__strimzi-topic-operator-kstreams},1651289870,0
{consumergroup=__strimzi-topic-operator-kstreams},1651289875,0
{consumergroup=__strimzi-topic-operator-kstreams},1651289880,0
{consumergroup=__strimzi-topic-operator-kstreams},1651289885,0
{consumergroup=__strimzi-topic-operator-kstreams},1651289890,0
{consumergroup=__strimzi-topic-operator-kstreams},1651289895,0
{consumergroup=__strimzi-topic-operator-kstreams},1651289900,0
{consumergroup=__strimzi-topic-operator-kstreams},1651289905,0
{consumergroup=__strimzi-topic-operator-kstreams},1651289910,0
{consumergroup=__strimzi-topic-operator-kstreams},1651289915,0
{consumergroup=__strimzi-topic-operator-kstreams},1651289920,0
{consumergroup=__strimzi-topic-operator-kstreams},1651289925,0
{consumergroup=__strimzi-topic-operator-kstreams},1651289930,0
{consumergroup=__strimzi-topic-operator-kstreams},1651289935,0
{consumergroup=__strimzi-topic-operator-kstreams},1651289940,0
{consumergroup=__strimzi-topic-operator-kstreams},1651289945,0
{consumergroup=__strimzi-topic-operator-kstreams},1651289950,0
{consumergroup=adapter-service},1651289490,11526
{consumergroup=adapter-service},1651289495,11526
{consumergroup=adapter-service},1651289500,11526
{consumergroup=adapter-service},1651289505,7654
{consumergroup=adapter-service},1651289510,7654
{consumergroup=adapter-service},1651289515,7654
{consumergroup=adapter-service},1651289520,8320
{consumergroup=adapter-service},1651289525,8320
{consumergroup=adapter-service},1651289530,8320
{consumergroup=adapter-service},1651289535,6863
{consumergroup=adapter-service},1651289540,6863
{consumergroup=adapter-service},1651289545,6863
{consumergroup=adapter-service},1651289550,7706
{consumergroup=adapter-service},1651289555,7706
{consumergroup=adapter-service},1651289560,7706
{consumergroup=adapter-service},1651289565,6656
{consumergroup=adapter-service},1651289570,6656
{consumergroup=adapter-service},1651289575,6656
{consumergroup=adapter-service},1651289580,7990
{consumergroup=adapter-service},1651289585,7990
{consumergroup=adapter-service},1651289590,7990
{consumergroup=adapter-service},1651289595,9972
{consumergroup=adapter-service},1651289600,9972
{consumergroup=adapter-service},1651289605,9972
{consumergroup=adapter-service},1651289610,6874
{consumergroup=adapter-service},1651289615,6874
{consumergroup=adapter-service},1651289620,6874
{consumergroup=adapter-service},1651289625,5967
{consumergroup=adapter-service},1651289630,5967
{consumergroup=adapter-service},1651289635,5967
{consumergroup=adapter-service},1651289640,6611
{consumergroup=adapter-service},1651289645,6611
{consumergroup=adapter-service},1651289650,6611
{consumergroup=adapter-service},1651289655,5438
{consumergroup=adapter-service},1651289660,5438
{consumergroup=adapter-service},1651289665,5438
{consumergroup=adapter-service},1651289670,6158
{consumergroup=adapter-service},1651289675,6158
{consumergroup=adapter-service},1651289680,6158
{consumergroup=adapter-service},1651289685,5001
{consumergroup=adapter-service},1651289690,5001
{consumergroup=adapter-service},1651289695,5001
{consumergroup=adapter-service},1651289700,6755
{consumergroup=adapter-service},1651289705,6755
{consumergroup=adapter-service},1651289710,6755
{consumergroup=adapter-service},1651289715,8022
{consumergroup=adapter-service},1651289720,8022
{consumergroup=adapter-service},1651289725,8022
{consumergroup=adapter-service},1651289730,6334
{consumergroup=adapter-service},1651289735,6334
{consumergroup=adapter-service},1651289740,6334
{consumergroup=adapter-service},1651289745,4449
{consumergroup=adapter-service},1651289750,4449
{consumergroup=adapter-service},1651289755,4449
{consumergroup=adapter-service},1651289760,6236
{consumergroup=adapter-service},1651289765,6236
{consumergroup=adapter-service},1651289770,6236
{consumergroup=adapter-service},1651289775,4179
{consumergroup=adapter-service},1651289780,4179
{consumergroup=adapter-service},1651289785,4179
{consumergroup=adapter-service},1651289790,5089
{consumergroup=adapter-service},1651289795,5089
{consumergroup=adapter-service},1651289800,5089
{consumergroup=adapter-service},1651289805,4529
{consumergroup=adapter-service},1651289810,4529
{consumergroup=adapter-service},1651289815,4529
{consumergroup=adapter-service},1651289820,4821
{consumergroup=adapter-service},1651289825,4821
{consumergroup=adapter-service},1651289830,4821
{consumergroup=adapter-service},1651289835,3581
{consumergroup=adapter-service},1651289840,3581
{consumergroup=adapter-service},1651289845,3581
{consumergroup=adapter-service},1651289850,4561
{consumergroup=adapter-service},1651289855,4561
{consumergroup=adapter-service},1651289860,4561
{consumergroup=adapter-service},1651289865,3385
{consumergroup=adapter-service},1651289870,3385
{consumergroup=adapter-service},1651289875,3385
{consumergroup=adapter-service},1651289880,4184
{consumergroup=adapter-service},1651289885,4184
{consumergroup=adapter-service},1651289890,4184
{consumergroup=adapter-service},1651289895,3776
{consumergroup=adapter-service},1651289900,3776
{consumergroup=adapter-service},1651289905,3776
{consumergroup=adapter-service},1651289910,3893
{consumergroup=adapter-service},1651289915,3893
{consumergroup=adapter-service},1651289920,3893
{consumergroup=adapter-service},1651289925,3566
{consumergroup=adapter-service},1651289930,3566
{consumergroup=adapter-service},1651289935,3566
{consumergroup=adapter-service},1651289940,3695
{consumergroup=adapter-service},1651289945,3695
{consumergroup=adapter-service},1651289950,3695
{consumergroup=landscape-service},1651289490,21036
{consumergroup=landscape-service},1651289495,21036
{consumergroup=landscape-service},1651289500,21036
{consumergroup=landscape-service},1651289505,2544
{consumergroup=landscape-service},1651289510,2544
{consumergroup=landscape-service},1651289515,2544
{consumergroup=landscape-service},1651289520,3261
{consumergroup=landscape-service},1651289525,3261
{consumergroup=landscape-service},1651289530,3261
{consumergroup=landscape-service},1651289535,1535
{consumergroup=landscape-service},1651289540,1535
{consumergroup=landscape-service},1651289545,1535
{consumergroup=landscape-service},1651289550,2375
{consumergroup=landscape-service},1651289555,2375
{consumergroup=landscape-service},1651289560,2375
{consumergroup=landscape-service},1651289565,762
{consumergroup=landscape-service},1651289570,762
{consumergroup=landscape-service},1651289575,762
{consumergroup=landscape-service},1651289580,1338
{consumergroup=landscape-service},1651289585,1338
{consumergroup=landscape-service},1651289590,1338
{consumergroup=landscape-service},1651289595,3912
{consumergroup=landscape-service},1651289600,3912
{consumergroup=landscape-service},1651289605,3912
{consumergroup=landscape-service},1651289610,1529
{consumergroup=landscape-service},1651289615,1529
{consumergroup=landscape-service},1651289620,1529
{consumergroup=landscape-service},1651289625,14303
{consumergroup=landscape-service},1651289630,14303
{consumergroup=landscape-service},1651289635,14303
{consumergroup=landscape-service},1651289655,14402
{consumergroup=landscape-service},1651289660,14402
{consumergroup=landscape-service},1651289665,14402
{consumergroup=landscape-service},1651289670,14802
{consumergroup=landscape-service},1651289675,14802
{consumergroup=landscape-service},1651289680,14802
{consumergroup=landscape-service},1651289685,13295
{consumergroup=landscape-service},1651289690,13295
{consumergroup=landscape-service},1651289695,13295
{consumergroup=landscape-service},1651289700,13347
{consumergroup=landscape-service},1651289705,13347
{consumergroup=landscape-service},1651289710,13347
{consumergroup=landscape-service},1651289730,12542
{consumergroup=landscape-service},1651289735,12542
{consumergroup=landscape-service},1651289740,12542
{consumergroup=landscape-service},1651289745,12003
{consumergroup=landscape-service},1651289750,12003
{consumergroup=landscape-service},1651289755,12003
{consumergroup=landscape-service},1651289760,11739
{consumergroup=landscape-service},1651289765,11739
{consumergroup=landscape-service},1651289770,11739
{consumergroup=landscape-service},1651289775,11069
{consumergroup=landscape-service},1651289780,11069
{consumergroup=landscape-service},1651289785,11069
{consumergroup=landscape-service},1651289790,10951
{consumergroup=landscape-service},1651289795,10951
{consumergroup=landscape-service},1651289800,10951
{consumergroup=landscape-service},1651289805,9466
{consumergroup=landscape-service},1651289810,9466
{consumergroup=landscape-service},1651289815,9466
{consumergroup=landscape-service},1651289820,10170
{consumergroup=landscape-service},1651289825,10170
{consumergroup=landscape-service},1651289830,10170
{consumergroup=landscape-service},1651289835,8871
{consumergroup=landscape-service},1651289840,8871
{consumergroup=landscape-service},1651289845,8871
{consumergroup=landscape-service},1651289850,9469
{consumergroup=landscape-service},1651289855,9469
{consumergroup=landscape-service},1651289860,9469
{consumergroup=landscape-service},1651289865,8037
{consumergroup=landscape-service},1651289870,8037
{consumergroup=landscape-service},1651289875,8037
{consumergroup=landscape-service},1651289880,8341
{consumergroup=landscape-service},1651289885,8341
{consumergroup=landscape-service},1651289890,8341
{consumergroup=landscape-service},1651289895,7037
{consumergroup=landscape-service},1651289900,7037
{consumergroup=landscape-service},1651289905,7037
{consumergroup=landscape-service},1651289910,7685
{consumergroup=landscape-service},1651289915,7685
{consumergroup=landscape-service},1651289920,7685
{consumergroup=landscape-service},1651289925,6592
{consumergroup=landscape-service},1651289930,6592
{consumergroup=landscape-service},1651289935,6592
{consumergroup=landscape-service},1651289940,7072
{consumergroup=landscape-service},1651289945,7072
{consumergroup=landscape-service},1651289950,7072
{consumergroup=trace-service},1651289490,30409
{consumergroup=trace-service},1651289495,30409
{consumergroup=trace-service},1651289500,30409
{consumergroup=trace-service},1651289505,48863
{consumergroup=trace-service},1651289510,48863
{consumergroup=trace-service},1651289515,48863
{consumergroup=trace-service},1651289520,15521
{consumergroup=trace-service},1651289525,15521
{consumergroup=trace-service},1651289530,15521
{consumergroup=trace-service},1651289535,35566
{consumergroup=trace-service},1651289540,35566
{consumergroup=trace-service},1651289545,35566
{consumergroup=trace-service},1651289550,20167
{consumergroup=trace-service},1651289555,20167
{consumergroup=trace-service},1651289560,20167
{consumergroup=trace-service},1651289565,35201
{consumergroup=trace-service},1651289570,35201
{consumergroup=trace-service},1651289575,35201
{consumergroup=trace-service},1651289580,13345
{consumergroup=trace-service},1651289585,13345
{consumergroup=trace-service},1651289590,13345
{consumergroup=trace-service},1651289595,30873
{consumergroup=trace-service},1651289600,30873
{consumergroup=trace-service},1651289605,30873
{consumergroup=trace-service},1651289610,9922
{consumergroup=trace-service},1651289615,9922
{consumergroup=trace-service},1651289620,9922
{consumergroup=trace-service},1651289625,30478
{consumergroup=trace-service},1651289630,30478
{consumergroup=trace-service},1651289635,30478
{consumergroup=trace-service},1651289640,9028
{consumergroup=trace-service},1651289645,9028
{consumergroup=trace-service},1651289650,9028
{consumergroup=trace-service},1651289655,27264
{consumergroup=trace-service},1651289660,27264
{consumergroup=trace-service},1651289665,27264
{consumergroup=trace-service},1651289670,12666
{consumergroup=trace-service},1651289675,12666
{consumergroup=trace-service},1651289680,12666
{consumergroup=trace-service},1651289685,31434
{consumergroup=trace-service},1651289690,31434
{consumergroup=trace-service},1651289695,31434
{consumergroup=trace-service},1651289700,7780
{consumergroup=trace-service},1651289705,7780
{consumergroup=trace-service},1651289710,7780
{consumergroup=trace-service},1651289715,32152
{consumergroup=trace-service},1651289720,32152
{consumergroup=trace-service},1651289725,32152
{consumergroup=trace-service},1651289730,15192
{consumergroup=trace-service},1651289735,15192
{consumergroup=trace-service},1651289740,15192
{consumergroup=trace-service},1651289745,40864
{consumergroup=trace-service},1651289750,40864
{consumergroup=trace-service},1651289755,40864
{consumergroup=trace-service},1651289760,10526
{consumergroup=trace-service},1651289765,10526
{consumergroup=trace-service},1651289770,10526
{consumergroup=trace-service},1651289775,30365
{consumergroup=trace-service},1651289780,30365
{consumergroup=trace-service},1651289785,30365
{consumergroup=trace-service},1651289790,6857
{consumergroup=trace-service},1651289795,6857
{consumergroup=trace-service},1651289800,6857
{consumergroup=trace-service},1651289805,30649
{consumergroup=trace-service},1651289810,30649
{consumergroup=trace-service},1651289815,30649
{consumergroup=trace-service},1651289820,10867
{consumergroup=trace-service},1651289825,10867
{consumergroup=trace-service},1651289830,10867
{consumergroup=trace-service},1651289835,37628
{consumergroup=trace-service},1651289840,37628
{consumergroup=trace-service},1651289845,37628
{consumergroup=trace-service},1651289850,54660
{consumergroup=trace-service},1651289855,54660
{consumergroup=trace-service},1651289860,54660
{consumergroup=trace-service},1651289865,38738
{consumergroup=trace-service},1651289870,38738
{consumergroup=trace-service},1651289875,38738
{consumergroup=trace-service},1651289880,12824
{consumergroup=trace-service},1651289885,12824
{consumergroup=trace-service},1651289890,12824
{consumergroup=trace-service},1651289895,34228
{consumergroup=trace-service},1651289900,34228
{consumergroup=trace-service},1651289905,34228
{consumergroup=trace-service},1651289910,15388
{consumergroup=trace-service},1651289915,15388
{consumergroup=trace-service},1651289920,15388
{consumergroup=trace-service},1651289925,38932
{consumergroup=trace-service},1651289930,38932
{consumergroup=trace-service},1651289935,38932
{consumergroup=trace-service},1651289940,13103
{consumergroup=trace-service},1651289945,13103
{consumergroup=trace-service},1651289950,13103
{consumergroup=trace-token-events-consumer},1651289475,0
{consumergroup=trace-token-events-consumer},1651289480,0
{consumergroup=trace-token-events-consumer},1651289485,0
{consumergroup=trace-token-events-consumer},1651289490,0
{consumergroup=trace-token-events-consumer},1651289495,0
{consumergroup=trace-token-events-consumer},1651289500,0
{consumergroup=trace-token-events-consumer},1651289505,0
{consumergroup=trace-token-events-consumer},1651289510,0
{consumergroup=trace-token-events-consumer},1651289515,0
{consumergroup=trace-token-events-consumer},1651289520,0
{consumergroup=trace-token-events-consumer},1651289525,0
{consumergroup=trace-token-events-consumer},1651289530,0
{consumergroup=trace-token-events-consumer},1651289535,0
{consumergroup=trace-token-events-consumer},1651289540,0
{consumergroup=trace-token-events-consumer},1651289545,0
{consumergroup=trace-token-events-consumer},1651289550,0
{consumergroup=trace-token-events-consumer},1651289555,0
{consumergroup=trace-token-events-consumer},1651289560,0
{consumergroup=trace-token-events-consumer},1651289565,0
{consumergroup=trace-token-events-consumer},1651289570,0
{consumergroup=trace-token-events-consumer},1651289575,0
{consumergroup=trace-token-events-consumer},1651289580,0
{consumergroup=trace-token-events-consumer},1651289585,0
{consumergroup=trace-token-events-consumer},1651289590,0
{consumergroup=trace-token-events-consumer},1651289595,0
{consumergroup=trace-token-events-consumer},1651289600,0
{consumergroup=trace-token-events-consumer},1651289605,0
{consumergroup=trace-token-events-consumer},1651289610,0
{consumergroup=trace-token-events-consumer},1651289615,0
{consumergroup=trace-token-events-consumer},1651289620,0
{consumergroup=trace-token-events-consumer},1651289625,0
{consumergroup=trace-token-events-consumer},1651289630,0
{consumergroup=trace-token-events-consumer},1651289635,0
{consumergroup=trace-token-events-consumer},1651289640,0
{consumergroup=trace-token-events-consumer},1651289645,0
{consumergroup=trace-token-events-consumer},1651289650,0
{consumergroup=trace-token-events-consumer},1651289655,0
{consumergroup=trace-token-events-consumer},1651289660,0
{consumergroup=trace-token-events-consumer},1651289665,0
{consumergroup=trace-token-events-consumer},1651289670,0
{consumergroup=trace-token-events-consumer},1651289675,0
{consumergroup=trace-token-events-consumer},1651289680,0
{consumergroup=trace-token-events-consumer},1651289685,0
{consumergroup=trace-token-events-consumer},1651289690,0
{consumergroup=trace-token-events-consumer},1651289695,0
{consumergroup=trace-token-events-consumer},1651289700,0
{consumergroup=trace-token-events-consumer},1651289705,0
{consumergroup=trace-token-events-consumer},1651289710,0
{consumergroup=trace-token-events-consumer},1651289715,0
{consumergroup=trace-token-events-consumer},1651289720,0
{consumergroup=trace-token-events-consumer},1651289725,0
{consumergroup=trace-token-events-consumer},1651289730,0
{consumergroup=trace-token-events-consumer},1651289735,0
{consumergroup=trace-token-events-consumer},1651289740,0
{consumergroup=trace-token-events-consumer},1651289745,0
{consumergroup=trace-token-events-consumer},1651289750,0
{consumergroup=trace-token-events-consumer},1651289755,0
{consumergroup=trace-token-events-consumer},1651289760,0
{consumergroup=trace-token-events-consumer},1651289765,0
{consumergroup=trace-token-events-consumer},1651289770,0
{consumergroup=trace-token-events-consumer},1651289775,0
{consumergroup=trace-token-events-consumer},1651289780,0
{consumergroup=trace-token-events-consumer},1651289785,0
{consumergroup=trace-token-events-consumer},1651289790,0
{consumergroup=trace-token-events-consumer},1651289795,0
{consumergroup=trace-token-events-consumer},1651289800,0
{consumergroup=trace-token-events-consumer},1651289805,0
{consumergroup=trace-token-events-consumer},1651289810,0
{consumergroup=trace-token-events-consumer},1651289815,0
{consumergroup=trace-token-events-consumer},1651289820,0
{consumergroup=trace-token-events-consumer},1651289825,0
{consumergroup=trace-token-events-consumer},1651289830,0
{consumergroup=trace-token-events-consumer},1651289835,0
{consumergroup=trace-token-events-consumer},1651289840,0
{consumergroup=trace-token-events-consumer},1651289845,0
{consumergroup=trace-token-events-consumer},1651289850,0
{consumergroup=trace-token-events-consumer},1651289855,0
{consumergroup=trace-token-events-consumer},1651289860,0
{consumergroup=trace-token-events-consumer},1651289865,0
{consumergroup=trace-token-events-consumer},1651289870,0
{consumergroup=trace-token-events-consumer},1651289875,0
{consumergroup=trace-token-events-consumer},1651289880,0
{consumergroup=trace-token-events-consumer},1651289885,0
{consumergroup=trace-token-events-consumer},1651289890,0
{consumergroup=trace-token-events-consumer},1651289895,0
{consumergroup=trace-token-events-consumer},1651289900,0
{consumergroup=trace-token-events-consumer},1651289905,0
{consumergroup=trace-token-events-consumer},1651289910,0
{consumergroup=trace-token-events-consumer},1651289915,0
{consumergroup=trace-token-events-consumer},1651289920,0
{consumergroup=trace-token-events-consumer},1651289925,0
{consumergroup=trace-token-events-consumer},1651289930,0
{consumergroup=trace-token-events-consumer},1651289935,0
{consumergroup=trace-token-events-consumer},1651289940,0
{consumergroup=trace-token-events-consumer},1651289945,0
{consumergroup=trace-token-events-consumer},1651289950,0
