labels,timestamp,value
{consumergroup=__strimzi-topic-operator-kstreams},1651426278,16
{consumergroup=__strimzi-topic-operator-kstreams},1651426283,16
{consumergroup=__strimzi-topic-operator-kstreams},1651426288,16
{consumergroup=__strimzi-topic-operator-kstreams},1651426293,0
{consumergroup=__strimzi-topic-operator-kstreams},1651426298,0
{consumergroup=__strimzi-topic-operator-kstreams},1651426303,0
{consumergroup=__strimzi-topic-operator-kstreams},1651426308,0
{consumergroup=__strimzi-topic-operator-kstreams},1651426313,0
{consumergroup=__strimzi-topic-operator-kstreams},1651426318,0
{consumergroup=__strimzi-topic-operator-kstreams},1651426323,0
{consumergroup=__strimzi-topic-operator-kstreams},1651426328,0
{consumergroup=__strimzi-topic-operator-kstreams},1651426333,0
{consumergroup=__strimzi-topic-operator-kstreams},1651426338,0
{consumergroup=__strimzi-topic-operator-kstreams},1651426343,0
{consumergroup=__strimzi-topic-operator-kstreams},1651426348,0
{consumergroup=__strimzi-topic-operator-kstreams},1651426353,0
{consumergroup=__strimzi-topic-operator-kstreams},1651426358,0
{consumergroup=__strimzi-topic-operator-kstreams},1651426363,0
{consumergroup=__strimzi-topic-operator-kstreams},1651426368,0
{consumergroup=__strimzi-topic-operator-kstreams},1651426373,0
{consumergroup=__strimzi-topic-operator-kstreams},1651426378,0
{consumergroup=__strimzi-topic-operator-kstreams},1651426383,0
{consumergroup=__strimzi-topic-operator-kstreams},1651426388,0
{consumergroup=__strimzi-topic-operator-kstreams},1651426393,0
{consumergroup=__strimzi-topic-operator-kstreams},1651426398,0
{consumergroup=__strimzi-topic-operator-kstreams},1651426403,0
{consumergroup=__strimzi-topic-operator-kstreams},1651426408,0
{consumergroup=__strimzi-topic-operator-kstreams},1651426413,0
{consumergroup=__strimzi-topic-operator-kstreams},1651426418,0
{consumergroup=__strimzi-topic-operator-kstreams},1651426423,0
{consumergroup=__strimzi-topic-operator-kstreams},1651426428,0
{consumergroup=__strimzi-topic-operator-kstreams},1651426433,0
{consumergroup=__strimzi-topic-operator-kstreams},1651426438,0
{consumergroup=__strimzi-topic-operator-kstreams},1651426443,0
{consumergroup=__strimzi-topic-operator-kstreams},1651426448,0
{consumergroup=__strimzi-topic-operator-kstreams},1651426453,0
{consumergroup=__strimzi-topic-operator-kstreams},1651426458,0
{consumergroup=__strimzi-topic-operator-kstreams},1651426463,0
{consumergroup=__strimzi-topic-operator-kstreams},1651426468,0
{consumergroup=__strimzi-topic-operator-kstreams},1651426473,0
{consumergroup=__strimzi-topic-operator-kstreams},1651426478,0
{consumergroup=__strimzi-topic-operator-kstreams},1651426483,0
{consumergroup=__strimzi-topic-operator-kstreams},1651426488,0
{consumergroup=__strimzi-topic-operator-kstreams},1651426493,0
{consumergroup=__strimzi-topic-operator-kstreams},1651426498,0
{consumergroup=__strimzi-topic-operator-kstreams},1651426503,0
{consumergroup=__strimzi-topic-operator-kstreams},1651426508,0
{consumergroup=__strimzi-topic-operator-kstreams},1651426513,0
{consumergroup=__strimzi-topic-operator-kstreams},1651426518,0
{consumergroup=__strimzi-topic-operator-kstreams},1651426523,0
{consumergroup=__strimzi-topic-operator-kstreams},1651426528,0
{consumergroup=__strimzi-topic-operator-kstreams},1651426533,0
{consumergroup=adapter-service},1651426308,13304
{consumergroup=adapter-service},1651426313,13304
{consumergroup=adapter-service},1651426318,13304
{consumergroup=adapter-service},1651426323,87961
{consumergroup=adapter-service},1651426328,87961
{consumergroup=adapter-service},1651426333,87961
{consumergroup=adapter-service},1651426338,96293
{consumergroup=adapter-service},1651426343,96293
{consumergroup=adapter-service},1651426348,96293
{consumergroup=adapter-service},1651426353,97256
{consumergroup=adapter-service},1651426358,97256
{consumergroup=adapter-service},1651426363,97256
{consumergroup=adapter-service},1651426368,112765
{consumergroup=adapter-service},1651426373,112765
{consumergroup=adapter-service},1651426378,112765
{consumergroup=adapter-service},1651426383,116503
{consumergroup=adapter-service},1651426388,116503
{consumergroup=adapter-service},1651426393,116503
{consumergroup=adapter-service},1651426398,120358
{consumergroup=adapter-service},1651426403,120358
{consumergroup=adapter-service},1651426408,120358
{consumergroup=adapter-service},1651426413,135099
{consumergroup=adapter-service},1651426418,135099
{consumergroup=adapter-service},1651426423,135099
{consumergroup=adapter-service},1651426428,198558
{consumergroup=adapter-service},1651426433,198558
{consumergroup=adapter-service},1651426438,198558
{consumergroup=adapter-service},1651426443,197350
{consumergroup=adapter-service},1651426448,197350
{consumergroup=adapter-service},1651426453,197350
{consumergroup=adapter-service},1651426458,225049
{consumergroup=adapter-service},1651426463,225049
{consumergroup=adapter-service},1651426468,225049
{consumergroup=adapter-service},1651426473,245452
{consumergroup=adapter-service},1651426478,245452
{consumergroup=adapter-service},1651426483,245452
{consumergroup=adapter-service},1651426488,276340
{consumergroup=adapter-service},1651426493,276340
{consumergroup=adapter-service},1651426498,276340
{consumergroup=adapter-service},1651426503,277833
{consumergroup=adapter-service},1651426508,277833
{consumergroup=adapter-service},1651426513,277833
{consumergroup=adapter-service},1651426518,295865
{consumergroup=adapter-service},1651426523,295865
{consumergroup=adapter-service},1651426528,295865
{consumergroup=adapter-service},1651426533,343994
