labels,timestamp,value
{job=theodolite-stu200776/combined-trace-podmonitor},1651309173,0
{job=theodolite-stu200776/combined-trace-podmonitor},1651309178,0
{job=theodolite-stu200776/combined-trace-podmonitor},1651309183,0
{job=theodolite-stu200776/combined-trace-podmonitor},1651309188,0
{job=theodolite-stu200776/combined-trace-podmonitor},1651309193,0
{job=theodolite-stu200776/combined-trace-podmonitor},1651309198,0
{job=theodolite-stu200776/combined-trace-podmonitor},1651309203,0
{job=theodolite-stu200776/combined-trace-podmonitor},1651309208,0
{job=theodolite-stu200776/combined-trace-podmonitor},1651309213,0
{job=theodolite-stu200776/combined-trace-podmonitor},1651309218,0
{job=theodolite-stu200776/combined-trace-podmonitor},1651309223,0
{job=theodolite-stu200776/combined-trace-podmonitor},1651309228,0
{job=theodolite-stu200776/combined-trace-podmonitor},1651309233,0
{job=theodolite-stu200776/combined-trace-podmonitor},1651309238,0
{job=theodolite-stu200776/combined-trace-podmonitor},1651309243,0
{job=theodolite-stu200776/combined-trace-podmonitor},1651309248,0
{job=theodolite-stu200776/combined-trace-podmonitor},1651309253,0
{job=theodolite-stu200776/combined-trace-podmonitor},1651309258,0
{job=theodolite-stu200776/combined-trace-podmonitor},1651309263,0
{job=theodolite-stu200776/combined-trace-podmonitor},1651309268,0
{job=theodolite-stu200776/combined-trace-podmonitor},1651309273,0
{job=theodolite-stu200776/combined-trace-podmonitor},1651309278,0
{job=theodolite-stu200776/combined-trace-podmonitor},1651309283,0
{job=theodolite-stu200776/combined-trace-podmonitor},1651309288,0
{job=theodolite-stu200776/combined-trace-podmonitor},1651309293,0
{job=theodolite-stu200776/combined-trace-podmonitor},1651309298,0
{job=theodolite-stu200776/combined-trace-podmonitor},1651309303,0
{job=theodolite-stu200776/combined-trace-podmonitor},1651309308,0
{job=theodolite-stu200776/combined-trace-podmonitor},1651309313,0
{job=theodolite-stu200776/combined-trace-podmonitor},1651309318,0
{job=theodolite-stu200776/combined-trace-podmonitor},1651309323,0
{job=theodolite-stu200776/combined-trace-podmonitor},1651309328,0
{job=theodolite-stu200776/combined-trace-podmonitor},1651309333,0
{job=theodolite-stu200776/combined-trace-podmonitor},1651309338,0
{job=theodolite-stu200776/combined-trace-podmonitor},1651309343,0
{job=theodolite-stu200776/combined-trace-podmonitor},1651309348,0
{job=theodolite-stu200776/combined-trace-podmonitor},1651309353,0
{job=theodolite-stu200776/combined-trace-podmonitor},1651309358,0
{job=theodolite-stu200776/combined-trace-podmonitor},1651309363,0
{job=theodolite-stu200776/combined-trace-podmonitor},1651309368,0
{job=theodolite-stu200776/combined-trace-podmonitor},1651309373,0
{job=theodolite-stu200776/combined-trace-podmonitor},1651309378,0
{job=theodolite-stu200776/combined-trace-podmonitor},1651309383,0
{job=theodolite-stu200776/combined-trace-podmonitor},1651309388,0
{job=theodolite-stu200776/combined-trace-podmonitor},1651309393,0
{job=theodolite-stu200776/combined-trace-podmonitor},1651309398,0
{job=theodolite-stu200776/combined-trace-podmonitor},1651309403,0
{job=theodolite-stu200776/combined-trace-podmonitor},1651309408,0
{job=theodolite-stu200776/combined-trace-podmonitor},1651309413,0
{job=theodolite-stu200776/combined-trace-podmonitor},1651309418,0
{job=theodolite-stu200776/combined-trace-podmonitor},1651309423,0
{job=theodolite-stu200776/combined-trace-podmonitor},1651309428,0
{job=theodolite-stu200776/combined-trace-podmonitor},1651309433,0
{job=theodolite-stu200776/combined-trace-podmonitor},1651309438,0
{job=theodolite-stu200776/combined-trace-podmonitor},1651309443,0
{job=theodolite-stu200776/combined-trace-podmonitor},1651309448,0
{job=theodolite-stu200776/combined-trace-podmonitor},1651309453,0
{job=theodolite-stu200776/combined-trace-podmonitor},1651309458,0
{job=theodolite-stu200776/combined-trace-podmonitor},1651309463,0
{job=theodolite-stu200776/combined-trace-podmonitor},1651309468,0
{job=theodolite-stu200776/combined-trace-podmonitor},1651309473,0
{job=theodolite-stu200776/combined-trace-podmonitor},1651309478,0
{job=theodolite-stu200776/combined-trace-podmonitor},1651309483,0
{job=theodolite-stu200776/combined-trace-podmonitor},1651309488,0
{job=theodolite-stu200776/combined-trace-podmonitor},1651309493,0
{job=theodolite-stu200776/combined-trace-podmonitor},1651309498,0
{job=theodolite-stu200776/combined-trace-podmonitor},1651309503,0
{job=theodolite-stu200776/combined-trace-podmonitor},1651309508,0
{job=theodolite-stu200776/combined-trace-podmonitor},1651309513,0
{job=theodolite-stu200776/combined-trace-podmonitor},1651309518,0
{job=theodolite-stu200776/combined-trace-podmonitor},1651309523,0
{job=theodolite-stu200776/combined-trace-podmonitor},1651309528,0
{job=theodolite-stu200776/combined-trace-podmonitor},1651309533,0
{job=theodolite-stu200776/combined-trace-podmonitor},1651309538,0
{job=theodolite-stu200776/combined-trace-podmonitor},1651309543,0
{job=theodolite-stu200776/combined-trace-podmonitor},1651309548,0
{job=theodolite-stu200776/combined-trace-podmonitor},1651309553,0
{job=theodolite-stu200776/combined-trace-podmonitor},1651309558,0
{job=theodolite-stu200776/combined-trace-podmonitor},1651309563,0
{job=theodolite-stu200776/combined-trace-podmonitor},1651309568,0
{job=theodolite-stu200776/combined-trace-podmonitor},1651309573,0
{job=theodolite-stu200776/combined-trace-podmonitor},1651309578,0
{job=theodolite-stu200776/combined-trace-podmonitor},1651309583,0
{job=theodolite-stu200776/combined-trace-podmonitor},1651309588,0
{job=theodolite-stu200776/combined-trace-podmonitor},1651309593,0
{job=theodolite-stu200776/combined-trace-podmonitor},1651309598,0
{job=theodolite-stu200776/combined-trace-podmonitor},1651309603,0
{job=theodolite-stu200776/combined-trace-podmonitor},1651309608,0
{job=theodolite-stu200776/combined-trace-podmonitor},1651309613,0
