labels,timestamp,value
{job=theodolite-stu200776/combined-trace-podmonitor},1651280359,0
{job=theodolite-stu200776/combined-trace-podmonitor},1651280364,0
{job=theodolite-stu200776/combined-trace-podmonitor},1651280369,0
{job=theodolite-stu200776/combined-trace-podmonitor},1651280374,0
{job=theodolite-stu200776/combined-trace-podmonitor},1651280379,0
{job=theodolite-stu200776/combined-trace-podmonitor},1651280384,0
{job=theodolite-stu200776/combined-trace-podmonitor},1651280389,0
{job=theodolite-stu200776/combined-trace-podmonitor},1651280394,0
{job=theodolite-stu200776/combined-trace-podmonitor},1651280399,0
{job=theodolite-stu200776/combined-trace-podmonitor},1651280404,0
{job=theodolite-stu200776/combined-trace-podmonitor},1651280409,0
{job=theodolite-stu200776/combined-trace-podmonitor},1651280414,0
{job=theodolite-stu200776/combined-trace-podmonitor},1651280419,0
{job=theodolite-stu200776/combined-trace-podmonitor},1651280424,0
{job=theodolite-stu200776/combined-trace-podmonitor},1651280429,0
{job=theodolite-stu200776/combined-trace-podmonitor},1651280434,0
{job=theodolite-stu200776/combined-trace-podmonitor},1651280439,0
{job=theodolite-stu200776/combined-trace-podmonitor},1651280444,0
{job=theodolite-stu200776/combined-trace-podmonitor},1651280449,0
{job=theodolite-stu200776/combined-trace-podmonitor},1651280454,0
{job=theodolite-stu200776/combined-trace-podmonitor},1651280459,0
{job=theodolite-stu200776/combined-trace-podmonitor},1651280464,0
{job=theodolite-stu200776/combined-trace-podmonitor},1651280469,0
{job=theodolite-stu200776/combined-trace-podmonitor},1651280474,0
{job=theodolite-stu200776/combined-trace-podmonitor},1651280479,0
{job=theodolite-stu200776/combined-trace-podmonitor},1651280484,0
{job=theodolite-stu200776/combined-trace-podmonitor},1651280489,0
{job=theodolite-stu200776/combined-trace-podmonitor},1651280494,0
{job=theodolite-stu200776/combined-trace-podmonitor},1651280499,0
{job=theodolite-stu200776/combined-trace-podmonitor},1651280504,0
{job=theodolite-stu200776/combined-trace-podmonitor},1651280509,0
{job=theodolite-stu200776/combined-trace-podmonitor},1651280514,0
{job=theodolite-stu200776/combined-trace-podmonitor},1651280519,0
{job=theodolite-stu200776/combined-trace-podmonitor},1651280524,0
{job=theodolite-stu200776/combined-trace-podmonitor},1651280529,0
{job=theodolite-stu200776/combined-trace-podmonitor},1651280534,0
{job=theodolite-stu200776/combined-trace-podmonitor},1651280539,0
{job=theodolite-stu200776/combined-trace-podmonitor},1651280544,0
{job=theodolite-stu200776/combined-trace-podmonitor},1651280549,0
{job=theodolite-stu200776/combined-trace-podmonitor},1651280554,0
{job=theodolite-stu200776/combined-trace-podmonitor},1651280559,0
{job=theodolite-stu200776/combined-trace-podmonitor},1651280564,0
{job=theodolite-stu200776/combined-trace-podmonitor},1651280569,0
{job=theodolite-stu200776/combined-trace-podmonitor},1651280574,0
{job=theodolite-stu200776/combined-trace-podmonitor},1651280579,0
{job=theodolite-stu200776/combined-trace-podmonitor},1651280584,0
{job=theodolite-stu200776/combined-trace-podmonitor},1651280589,0
{job=theodolite-stu200776/combined-trace-podmonitor},1651280594,0
{job=theodolite-stu200776/combined-trace-podmonitor},1651280599,0
{job=theodolite-stu200776/combined-trace-podmonitor},1651280604,0
{job=theodolite-stu200776/combined-trace-podmonitor},1651280609,0
{job=theodolite-stu200776/combined-trace-podmonitor},1651280614,0
{job=theodolite-stu200776/combined-trace-podmonitor},1651280619,0
{job=theodolite-stu200776/combined-trace-podmonitor},1651280624,0
{job=theodolite-stu200776/combined-trace-podmonitor},1651280629,0
{job=theodolite-stu200776/combined-trace-podmonitor},1651280634,0
{job=theodolite-stu200776/combined-trace-podmonitor},1651280639,0
{job=theodolite-stu200776/combined-trace-podmonitor},1651280644,0
{job=theodolite-stu200776/combined-trace-podmonitor},1651280649,0
{job=theodolite-stu200776/combined-trace-podmonitor},1651280654,0
{job=theodolite-stu200776/combined-trace-podmonitor},1651280659,0
{job=theodolite-stu200776/combined-trace-podmonitor},1651280664,0
{job=theodolite-stu200776/combined-trace-podmonitor},1651280669,0
