labels,timestamp,value
{consumergroup=__strimzi-topic-operator-kstreams},1651307236,0
{consumergroup=__strimzi-topic-operator-kstreams},1651307241,0
{consumergroup=__strimzi-topic-operator-kstreams},1651307251,0
{consumergroup=__strimzi-topic-operator-kstreams},1651307256,0
{consumergroup=__strimzi-topic-operator-kstreams},1651307261,0
{consumergroup=__strimzi-topic-operator-kstreams},1651307266,3
{consumergroup=__strimzi-topic-operator-kstreams},1651307271,3
{consumergroup=__strimzi-topic-operator-kstreams},1651307276,3
{consumergroup=__strimzi-topic-operator-kstreams},1651307281,0
{consumergroup=__strimzi-topic-operator-kstreams},1651307286,0
{consumergroup=__strimzi-topic-operator-kstreams},1651307291,0
{consumergroup=__strimzi-topic-operator-kstreams},1651307296,0
{consumergroup=__strimzi-topic-operator-kstreams},1651307301,0
{consumergroup=__strimzi-topic-operator-kstreams},1651307306,0
{consumergroup=__strimzi-topic-operator-kstreams},1651307311,0
{consumergroup=__strimzi-topic-operator-kstreams},1651307316,0
{consumergroup=__strimzi-topic-operator-kstreams},1651307321,0
{consumergroup=__strimzi-topic-operator-kstreams},1651307326,0
{consumergroup=__strimzi-topic-operator-kstreams},1651307331,0
{consumergroup=__strimzi-topic-operator-kstreams},1651307336,0
{consumergroup=__strimzi-topic-operator-kstreams},1651307341,0
{consumergroup=__strimzi-topic-operator-kstreams},1651307346,0
{consumergroup=__strimzi-topic-operator-kstreams},1651307351,0
{consumergroup=__strimzi-topic-operator-kstreams},1651307356,0
{consumergroup=__strimzi-topic-operator-kstreams},1651307361,0
{consumergroup=__strimzi-topic-operator-kstreams},1651307366,0
{consumergroup=__strimzi-topic-operator-kstreams},1651307371,0
{consumergroup=__strimzi-topic-operator-kstreams},1651307376,0
{consumergroup=__strimzi-topic-operator-kstreams},1651307381,0
{consumergroup=__strimzi-topic-operator-kstreams},1651307386,0
{consumergroup=__strimzi-topic-operator-kstreams},1651307391,0
{consumergroup=__strimzi-topic-operator-kstreams},1651307396,0
{consumergroup=__strimzi-topic-operator-kstreams},1651307401,0
{consumergroup=__strimzi-topic-operator-kstreams},1651307406,0
{consumergroup=__strimzi-topic-operator-kstreams},1651307411,0
{consumergroup=__strimzi-topic-operator-kstreams},1651307416,0
{consumergroup=__strimzi-topic-operator-kstreams},1651307421,0
{consumergroup=__strimzi-topic-operator-kstreams},1651307426,0
{consumergroup=__strimzi-topic-operator-kstreams},1651307431,0
{consumergroup=__strimzi-topic-operator-kstreams},1651307436,0
{consumergroup=__strimzi-topic-operator-kstreams},1651307441,0
{consumergroup=__strimzi-topic-operator-kstreams},1651307446,0
{consumergroup=__strimzi-topic-operator-kstreams},1651307451,0
{consumergroup=__strimzi-topic-operator-kstreams},1651307456,0
{consumergroup=__strimzi-topic-operator-kstreams},1651307461,0
{consumergroup=__strimzi-topic-operator-kstreams},1651307466,0
{consumergroup=__strimzi-topic-operator-kstreams},1651307471,0
{consumergroup=__strimzi-topic-operator-kstreams},1651307476,0
{consumergroup=__strimzi-topic-operator-kstreams},1651307481,0
{consumergroup=__strimzi-topic-operator-kstreams},1651307486,0
{consumergroup=__strimzi-topic-operator-kstreams},1651307491,0
{consumergroup=__strimzi-topic-operator-kstreams},1651307496,0
{consumergroup=__strimzi-topic-operator-kstreams},1651307501,0
{consumergroup=__strimzi-topic-operator-kstreams},1651307506,0
{consumergroup=__strimzi-topic-operator-kstreams},1651307511,0
{consumergroup=__strimzi-topic-operator-kstreams},1651307516,0
{consumergroup=__strimzi-topic-operator-kstreams},1651307521,0
{consumergroup=__strimzi-topic-operator-kstreams},1651307526,0
{consumergroup=__strimzi-topic-operator-kstreams},1651307531,0
{consumergroup=__strimzi-topic-operator-kstreams},1651307536,0
{consumergroup=__strimzi-topic-operator-kstreams},1651307541,0
{consumergroup=__strimzi-topic-operator-kstreams},1651307546,0
{consumergroup=__strimzi-topic-operator-kstreams},1651307551,0
{consumergroup=__strimzi-topic-operator-kstreams},1651307556,0
{consumergroup=__strimzi-topic-operator-kstreams},1651307561,0
{consumergroup=__strimzi-topic-operator-kstreams},1651307566,0
{consumergroup=__strimzi-topic-operator-kstreams},1651307571,0
{consumergroup=__strimzi-topic-operator-kstreams},1651307576,0
{consumergroup=__strimzi-topic-operator-kstreams},1651307581,0
{consumergroup=__strimzi-topic-operator-kstreams},1651307586,0
{consumergroup=__strimzi-topic-operator-kstreams},1651307591,0
{consumergroup=__strimzi-topic-operator-kstreams},1651307596,0
{consumergroup=__strimzi-topic-operator-kstreams},1651307601,0
{consumergroup=__strimzi-topic-operator-kstreams},1651307606,0
{consumergroup=__strimzi-topic-operator-kstreams},1651307611,0
{consumergroup=__strimzi-topic-operator-kstreams},1651307616,0
{consumergroup=__strimzi-topic-operator-kstreams},1651307621,0
{consumergroup=__strimzi-topic-operator-kstreams},1651307626,0
{consumergroup=__strimzi-topic-operator-kstreams},1651307631,0
{consumergroup=__strimzi-topic-operator-kstreams},1651307636,0
{consumergroup=__strimzi-topic-operator-kstreams},1651307641,0
{consumergroup=__strimzi-topic-operator-kstreams},1651307646,0
{consumergroup=__strimzi-topic-operator-kstreams},1651307651,0
{consumergroup=__strimzi-topic-operator-kstreams},1651307656,0
{consumergroup=__strimzi-topic-operator-kstreams},1651307661,0
{consumergroup=__strimzi-topic-operator-kstreams},1651307666,0
{consumergroup=__strimzi-topic-operator-kstreams},1651307671,0
{consumergroup=__strimzi-topic-operator-kstreams},1651307676,0
{consumergroup=__strimzi-topic-operator-kstreams},1651307681,0
{consumergroup=__strimzi-topic-operator-kstreams},1651307686,0
{consumergroup=__strimzi-topic-operator-kstreams},1651307691,0
{consumergroup=__strimzi-topic-operator-kstreams},1651307696,0
{consumergroup=__strimzi-topic-operator-kstreams},1651307701,0
{consumergroup=__strimzi-topic-operator-kstreams},1651307706,0
{consumergroup=__strimzi-topic-operator-kstreams},1651307711,0
{consumergroup=__strimzi-topic-operator-kstreams},1651307716,0
{consumergroup=__strimzi-topic-operator-kstreams},1651307721,0
{consumergroup=__strimzi-topic-operator-kstreams},1651307726,0
{consumergroup=__strimzi-topic-operator-kstreams},1651307731,0
{consumergroup=__strimzi-topic-operator-kstreams},1651307736,0
{consumergroup=__strimzi-topic-operator-kstreams},1651307741,0
{consumergroup=__strimzi-topic-operator-kstreams},1651307746,0
{consumergroup=__strimzi-topic-operator-kstreams},1651307751,0
{consumergroup=adapter-service},1651307281,0
{consumergroup=adapter-service},1651307286,0
{consumergroup=adapter-service},1651307291,0
{consumergroup=adapter-service},1651307296,1436
{consumergroup=adapter-service},1651307301,1436
{consumergroup=adapter-service},1651307306,1436
{consumergroup=adapter-service},1651307311,4351
{consumergroup=adapter-service},1651307316,4351
{consumergroup=adapter-service},1651307321,4351
{consumergroup=adapter-service},1651307326,649
{consumergroup=adapter-service},1651307331,649
{consumergroup=adapter-service},1651307336,649
{consumergroup=adapter-service},1651307341,3346
{consumergroup=adapter-service},1651307346,3346
{consumergroup=adapter-service},1651307351,3346
{consumergroup=adapter-service},1651307356,2389
{consumergroup=adapter-service},1651307361,2389
{consumergroup=adapter-service},1651307366,2389
{consumergroup=adapter-service},1651307371,2784
{consumergroup=adapter-service},1651307376,2784
{consumergroup=adapter-service},1651307381,2784
{consumergroup=adapter-service},1651307386,2699
{consumergroup=adapter-service},1651307391,2699
{consumergroup=adapter-service},1651307396,2699
{consumergroup=adapter-service},1651307401,3328
{consumergroup=adapter-service},1651307406,3328
{consumergroup=adapter-service},1651307411,3328
{consumergroup=adapter-service},1651307416,4245
{consumergroup=adapter-service},1651307421,4245
{consumergroup=adapter-service},1651307426,4245
{consumergroup=adapter-service},1651307431,2269
{consumergroup=adapter-service},1651307436,2269
{consumergroup=adapter-service},1651307441,2269
{consumergroup=adapter-service},1651307446,6041
{consumergroup=adapter-service},1651307451,6041
{consumergroup=adapter-service},1651307456,6041
{consumergroup=adapter-service},1651307461,1940
{consumergroup=adapter-service},1651307466,1940
{consumergroup=adapter-service},1651307471,1940
{consumergroup=adapter-service},1651307476,1915
{consumergroup=adapter-service},1651307481,1915
{consumergroup=adapter-service},1651307486,1915
{consumergroup=adapter-service},1651307491,1939
{consumergroup=adapter-service},1651307496,1939
{consumergroup=adapter-service},1651307501,1939
{consumergroup=adapter-service},1651307506,7944
{consumergroup=adapter-service},1651307511,7944
{consumergroup=adapter-service},1651307516,7944
{consumergroup=adapter-service},1651307521,2081
{consumergroup=adapter-service},1651307526,2081
{consumergroup=adapter-service},1651307531,2081
{consumergroup=adapter-service},1651307536,8718
{consumergroup=adapter-service},1651307541,8718
{consumergroup=adapter-service},1651307546,8718
{consumergroup=adapter-service},1651307551,4400
{consumergroup=adapter-service},1651307556,4400
{consumergroup=adapter-service},1651307561,4400
{consumergroup=adapter-service},1651307566,854
{consumergroup=adapter-service},1651307571,854
{consumergroup=adapter-service},1651307576,854
{consumergroup=adapter-service},1651307581,1426
{consumergroup=adapter-service},1651307586,1426
{consumergroup=adapter-service},1651307591,1426
{consumergroup=adapter-service},1651307596,769
{consumergroup=adapter-service},1651307601,769
{consumergroup=adapter-service},1651307606,769
{consumergroup=adapter-service},1651307611,661
{consumergroup=adapter-service},1651307616,661
{consumergroup=adapter-service},1651307621,661
{consumergroup=adapter-service},1651307626,11159
{consumergroup=adapter-service},1651307631,11159
{consumergroup=adapter-service},1651307636,11159
{consumergroup=adapter-service},1651307641,1071
{consumergroup=adapter-service},1651307646,1071
{consumergroup=adapter-service},1651307651,1071
{consumergroup=adapter-service},1651307656,13641
{consumergroup=adapter-service},1651307661,13641
{consumergroup=adapter-service},1651307666,13641
{consumergroup=adapter-service},1651307671,4517
{consumergroup=adapter-service},1651307676,4517
{consumergroup=adapter-service},1651307681,4517
{consumergroup=adapter-service},1651307686,4585
{consumergroup=adapter-service},1651307691,4585
{consumergroup=adapter-service},1651307696,4585
{consumergroup=adapter-service},1651307701,4887
{consumergroup=adapter-service},1651307706,4887
{consumergroup=adapter-service},1651307711,4887
{consumergroup=adapter-service},1651307716,12335
{consumergroup=adapter-service},1651307721,12335
{consumergroup=adapter-service},1651307726,12335
{consumergroup=adapter-service},1651307731,5956
{consumergroup=adapter-service},1651307736,5956
{consumergroup=adapter-service},1651307741,5956
{consumergroup=adapter-service},1651307746,6169
{consumergroup=adapter-service},1651307751,6169
{consumergroup=landscape-service},1651307296,15578
{consumergroup=landscape-service},1651307301,15578
{consumergroup=landscape-service},1651307306,15578
{consumergroup=landscape-service},1651307311,16199
{consumergroup=landscape-service},1651307316,16199
{consumergroup=landscape-service},1651307321,16199
{consumergroup=landscape-service},1651307326,13072
{consumergroup=landscape-service},1651307331,13072
{consumergroup=landscape-service},1651307336,13072
{consumergroup=landscape-service},1651307341,14648
{consumergroup=landscape-service},1651307346,14648
{consumergroup=landscape-service},1651307351,14648
{consumergroup=landscape-service},1651307356,10955
{consumergroup=landscape-service},1651307361,10955
{consumergroup=landscape-service},1651307366,10955
{consumergroup=landscape-service},1651307371,13712
{consumergroup=landscape-service},1651307376,13712
{consumergroup=landscape-service},1651307381,13712
{consumergroup=landscape-service},1651307386,14075
{consumergroup=landscape-service},1651307391,14075
{consumergroup=landscape-service},1651307396,14075
{consumergroup=landscape-service},1651307401,13069
{consumergroup=landscape-service},1651307406,13069
{consumergroup=landscape-service},1651307411,13069
{consumergroup=landscape-service},1651307416,9349
{consumergroup=landscape-service},1651307421,9349
{consumergroup=landscape-service},1651307426,9349
{consumergroup=landscape-service},1651307431,11751
{consumergroup=landscape-service},1651307436,11751
{consumergroup=landscape-service},1651307441,11751
{consumergroup=landscape-service},1651307446,7919
{consumergroup=landscape-service},1651307451,7919
{consumergroup=landscape-service},1651307456,7919
{consumergroup=landscape-service},1651307461,11477
{consumergroup=landscape-service},1651307466,11477
{consumergroup=landscape-service},1651307471,11477
{consumergroup=landscape-service},1651307476,10320
{consumergroup=landscape-service},1651307481,10320
{consumergroup=landscape-service},1651307486,10320
{consumergroup=landscape-service},1651307491,9953
{consumergroup=landscape-service},1651307496,9953
{consumergroup=landscape-service},1651307501,9953
{consumergroup=landscape-service},1651307506,7260
{consumergroup=landscape-service},1651307511,7260
{consumergroup=landscape-service},1651307516,7260
{consumergroup=landscape-service},1651307521,9048
{consumergroup=landscape-service},1651307526,9048
{consumergroup=landscape-service},1651307531,9048
{consumergroup=landscape-service},1651307536,5307
{consumergroup=landscape-service},1651307541,5307
{consumergroup=landscape-service},1651307546,5307
{consumergroup=landscape-service},1651307551,11281
{consumergroup=landscape-service},1651307556,11281
{consumergroup=landscape-service},1651307561,11281
{consumergroup=landscape-service},1651307566,7399
{consumergroup=landscape-service},1651307571,7399
{consumergroup=landscape-service},1651307576,7399
{consumergroup=landscape-service},1651307581,6933
{consumergroup=landscape-service},1651307586,6933
{consumergroup=landscape-service},1651307591,6933
{consumergroup=landscape-service},1651307596,6450
{consumergroup=landscape-service},1651307601,6450
{consumergroup=landscape-service},1651307606,6450
{consumergroup=landscape-service},1651307611,5958
{consumergroup=landscape-service},1651307616,5958
{consumergroup=landscape-service},1651307621,5958
{consumergroup=landscape-service},1651307626,3900
{consumergroup=landscape-service},1651307631,3900
{consumergroup=landscape-service},1651307636,3900
{consumergroup=landscape-service},1651307641,6501
{consumergroup=landscape-service},1651307646,6501
{consumergroup=landscape-service},1651307651,6501
{consumergroup=landscape-service},1651307656,2742
{consumergroup=landscape-service},1651307661,2742
{consumergroup=landscape-service},1651307666,2742
{consumergroup=landscape-service},1651307671,6101
{consumergroup=landscape-service},1651307676,6101
{consumergroup=landscape-service},1651307681,6101
{consumergroup=landscape-service},1651307686,4836
{consumergroup=landscape-service},1651307691,4836
{consumergroup=landscape-service},1651307696,4836
{consumergroup=landscape-service},1651307701,4384
{consumergroup=landscape-service},1651307706,4384
{consumergroup=landscape-service},1651307711,4384
{consumergroup=landscape-service},1651307716,935
{consumergroup=landscape-service},1651307721,935
{consumergroup=landscape-service},1651307726,935
{consumergroup=landscape-service},1651307731,4442
{consumergroup=landscape-service},1651307736,4442
{consumergroup=landscape-service},1651307741,4442
{consumergroup=landscape-service},1651307746,3123
{consumergroup=landscape-service},1651307751,3123
{consumergroup=trace-service},1651307236,0
{consumergroup=trace-service},1651307241,0
{consumergroup=trace-service},1651307281,3
{consumergroup=trace-service},1651307286,3
{consumergroup=trace-service},1651307291,3
{consumergroup=trace-service},1651307296,55735
{consumergroup=trace-service},1651307301,55735
{consumergroup=trace-service},1651307306,55735
{consumergroup=trace-service},1651307311,13995
{consumergroup=trace-service},1651307316,13995
{consumergroup=trace-service},1651307321,13995
{consumergroup=trace-service},1651307326,33932
{consumergroup=trace-service},1651307331,33932
{consumergroup=trace-service},1651307336,33932
{consumergroup=trace-service},1651307341,10369
{consumergroup=trace-service},1651307346,10369
{consumergroup=trace-service},1651307351,10369
{consumergroup=trace-service},1651307356,45414
{consumergroup=trace-service},1651307361,45414
{consumergroup=trace-service},1651307366,45414
{consumergroup=trace-service},1651307371,16061
{consumergroup=trace-service},1651307376,16061
{consumergroup=trace-service},1651307381,16061
{consumergroup=trace-service},1651307386,47037
{consumergroup=trace-service},1651307391,47037
{consumergroup=trace-service},1651307396,47037
{consumergroup=trace-service},1651307401,10631
{consumergroup=trace-service},1651307406,10631
{consumergroup=trace-service},1651307411,10631
{consumergroup=trace-service},1651307416,41876
{consumergroup=trace-service},1651307421,41876
{consumergroup=trace-service},1651307426,41876
{consumergroup=trace-service},1651307431,13109
{consumergroup=trace-service},1651307436,13109
{consumergroup=trace-service},1651307441,13109
{consumergroup=trace-service},1651307446,42124
{consumergroup=trace-service},1651307451,42124
{consumergroup=trace-service},1651307456,42124
{consumergroup=trace-service},1651307461,16464
{consumergroup=trace-service},1651307466,16464
{consumergroup=trace-service},1651307471,16464
{consumergroup=trace-service},1651307476,54996
{consumergroup=trace-service},1651307481,54996
{consumergroup=trace-service},1651307486,54996
{consumergroup=trace-service},1651307491,15714
{consumergroup=trace-service},1651307496,15714
{consumergroup=trace-service},1651307501,15714
{consumergroup=trace-service},1651307506,43080
{consumergroup=trace-service},1651307511,43080
{consumergroup=trace-service},1651307516,43080
{consumergroup=trace-service},1651307521,11331
{consumergroup=trace-service},1651307526,11331
{consumergroup=trace-service},1651307531,11331
{consumergroup=trace-service},1651307536,43085
{consumergroup=trace-service},1651307541,43085
{consumergroup=trace-service},1651307546,43085
{consumergroup=trace-service},1651307551,15022
{consumergroup=trace-service},1651307556,15022
{consumergroup=trace-service},1651307561,15022
{consumergroup=trace-service},1651307566,37705
{consumergroup=trace-service},1651307571,37705
{consumergroup=trace-service},1651307576,37705
{consumergroup=trace-service},1651307581,18717
{consumergroup=trace-service},1651307586,18717
{consumergroup=trace-service},1651307591,18717
{consumergroup=trace-service},1651307596,47711
{consumergroup=trace-service},1651307601,47711
{consumergroup=trace-service},1651307606,47711
{consumergroup=trace-service},1651307611,21218
{consumergroup=trace-service},1651307616,21218
{consumergroup=trace-service},1651307621,21218
{consumergroup=trace-service},1651307626,39646
{consumergroup=trace-service},1651307631,39646
{consumergroup=trace-service},1651307636,39646
{consumergroup=trace-service},1651307641,17680
{consumergroup=trace-service},1651307646,17680
{consumergroup=trace-service},1651307651,17680
{consumergroup=trace-service},1651307656,49869
{consumergroup=trace-service},1651307661,49869
{consumergroup=trace-service},1651307666,49869
{consumergroup=trace-service},1651307671,20255
{consumergroup=trace-service},1651307676,20255
{consumergroup=trace-service},1651307681,20255
{consumergroup=trace-service},1651307686,62509
{consumergroup=trace-service},1651307691,62509
{consumergroup=trace-service},1651307696,62509
{consumergroup=trace-service},1651307701,14163
{consumergroup=trace-service},1651307706,14163
{consumergroup=trace-service},1651307711,14163
{consumergroup=trace-service},1651307716,46326
{consumergroup=trace-service},1651307721,46326
{consumergroup=trace-service},1651307726,46326
{consumergroup=trace-service},1651307731,20489
{consumergroup=trace-service},1651307736,20489
{consumergroup=trace-service},1651307741,20489
{consumergroup=trace-service},1651307746,40099
{consumergroup=trace-service},1651307751,40099
{consumergroup=trace-token-events-consumer},1651307281,0
{consumergroup=trace-token-events-consumer},1651307286,0
{consumergroup=trace-token-events-consumer},1651307291,0
{consumergroup=trace-token-events-consumer},1651307296,0
{consumergroup=trace-token-events-consumer},1651307301,0
{consumergroup=trace-token-events-consumer},1651307306,0
{consumergroup=trace-token-events-consumer},1651307311,0
{consumergroup=trace-token-events-consumer},1651307316,0
{consumergroup=trace-token-events-consumer},1651307321,0
{consumergroup=trace-token-events-consumer},1651307326,0
{consumergroup=trace-token-events-consumer},1651307331,0
{consumergroup=trace-token-events-consumer},1651307336,0
{consumergroup=trace-token-events-consumer},1651307341,0
{consumergroup=trace-token-events-consumer},1651307346,0
{consumergroup=trace-token-events-consumer},1651307351,0
{consumergroup=trace-token-events-consumer},1651307356,0
{consumergroup=trace-token-events-consumer},1651307361,0
{consumergroup=trace-token-events-consumer},1651307366,0
{consumergroup=trace-token-events-consumer},1651307371,0
{consumergroup=trace-token-events-consumer},1651307376,0
{consumergroup=trace-token-events-consumer},1651307381,0
{consumergroup=trace-token-events-consumer},1651307386,0
{consumergroup=trace-token-events-consumer},1651307391,0
{consumergroup=trace-token-events-consumer},1651307396,0
{consumergroup=trace-token-events-consumer},1651307401,0
{consumergroup=trace-token-events-consumer},1651307406,0
{consumergroup=trace-token-events-consumer},1651307411,0
{consumergroup=trace-token-events-consumer},1651307416,0
{consumergroup=trace-token-events-consumer},1651307421,0
{consumergroup=trace-token-events-consumer},1651307426,0
{consumergroup=trace-token-events-consumer},1651307431,0
{consumergroup=trace-token-events-consumer},1651307436,0
{consumergroup=trace-token-events-consumer},1651307441,0
{consumergroup=trace-token-events-consumer},1651307446,0
{consumergroup=trace-token-events-consumer},1651307451,0
{consumergroup=trace-token-events-consumer},1651307456,0
{consumergroup=trace-token-events-consumer},1651307461,0
{consumergroup=trace-token-events-consumer},1651307466,0
{consumergroup=trace-token-events-consumer},1651307471,0
{consumergroup=trace-token-events-consumer},1651307476,0
{consumergroup=trace-token-events-consumer},1651307481,0
{consumergroup=trace-token-events-consumer},1651307486,0
{consumergroup=trace-token-events-consumer},1651307491,0
{consumergroup=trace-token-events-consumer},1651307496,0
{consumergroup=trace-token-events-consumer},1651307501,0
{consumergroup=trace-token-events-consumer},1651307506,0
{consumergroup=trace-token-events-consumer},1651307511,0
{consumergroup=trace-token-events-consumer},1651307516,0
{consumergroup=trace-token-events-consumer},1651307521,0
{consumergroup=trace-token-events-consumer},1651307526,0
{consumergroup=trace-token-events-consumer},1651307531,0
{consumergroup=trace-token-events-consumer},1651307536,0
{consumergroup=trace-token-events-consumer},1651307541,0
{consumergroup=trace-token-events-consumer},1651307546,0
{consumergroup=trace-token-events-consumer},1651307551,0
{consumergroup=trace-token-events-consumer},1651307556,0
{consumergroup=trace-token-events-consumer},1651307561,0
{consumergroup=trace-token-events-consumer},1651307566,0
{consumergroup=trace-token-events-consumer},1651307571,0
{consumergroup=trace-token-events-consumer},1651307576,0
{consumergroup=trace-token-events-consumer},1651307581,0
{consumergroup=trace-token-events-consumer},1651307586,0
{consumergroup=trace-token-events-consumer},1651307591,0
{consumergroup=trace-token-events-consumer},1651307596,0
{consumergroup=trace-token-events-consumer},1651307601,0
{consumergroup=trace-token-events-consumer},1651307606,0
{consumergroup=trace-token-events-consumer},1651307611,0
{consumergroup=trace-token-events-consumer},1651307616,0
{consumergroup=trace-token-events-consumer},1651307621,0
{consumergroup=trace-token-events-consumer},1651307626,0
{consumergroup=trace-token-events-consumer},1651307631,0
{consumergroup=trace-token-events-consumer},1651307636,0
{consumergroup=trace-token-events-consumer},1651307641,0
{consumergroup=trace-token-events-consumer},1651307646,0
{consumergroup=trace-token-events-consumer},1651307651,0
{consumergroup=trace-token-events-consumer},1651307656,0
{consumergroup=trace-token-events-consumer},1651307661,0
{consumergroup=trace-token-events-consumer},1651307666,0
{consumergroup=trace-token-events-consumer},1651307671,0
{consumergroup=trace-token-events-consumer},1651307676,0
{consumergroup=trace-token-events-consumer},1651307681,0
{consumergroup=trace-token-events-consumer},1651307686,0
{consumergroup=trace-token-events-consumer},1651307691,0
{consumergroup=trace-token-events-consumer},1651307696,0
{consumergroup=trace-token-events-consumer},1651307701,0
{consumergroup=trace-token-events-consumer},1651307706,0
{consumergroup=trace-token-events-consumer},1651307711,0
{consumergroup=trace-token-events-consumer},1651307716,0
{consumergroup=trace-token-events-consumer},1651307721,0
{consumergroup=trace-token-events-consumer},1651307726,0
{consumergroup=trace-token-events-consumer},1651307731,0
{consumergroup=trace-token-events-consumer},1651307736,0
{consumergroup=trace-token-events-consumer},1651307741,0
{consumergroup=trace-token-events-consumer},1651307746,0
{consumergroup=trace-token-events-consumer},1651307751,0
