labels,timestamp,value
{consumergroup=__strimzi-topic-operator-kstreams},1651356525,0
{consumergroup=__strimzi-topic-operator-kstreams},1651356540,15
{consumergroup=__strimzi-topic-operator-kstreams},1651356545,15
{consumergroup=__strimzi-topic-operator-kstreams},1651356550,15
{consumergroup=__strimzi-topic-operator-kstreams},1651356555,0
{consumergroup=__strimzi-topic-operator-kstreams},1651356560,0
{consumergroup=__strimzi-topic-operator-kstreams},1651356565,0
{consumergroup=__strimzi-topic-operator-kstreams},1651356570,0
{consumergroup=__strimzi-topic-operator-kstreams},1651356575,0
{consumergroup=__strimzi-topic-operator-kstreams},1651356580,0
{consumergroup=__strimzi-topic-operator-kstreams},1651356585,0
{consumergroup=__strimzi-topic-operator-kstreams},1651356590,0
{consumergroup=__strimzi-topic-operator-kstreams},1651356595,0
{consumergroup=__strimzi-topic-operator-kstreams},1651356600,0
{consumergroup=__strimzi-topic-operator-kstreams},1651356605,0
{consumergroup=__strimzi-topic-operator-kstreams},1651356610,0
{consumergroup=__strimzi-topic-operator-kstreams},1651356615,0
{consumergroup=__strimzi-topic-operator-kstreams},1651356620,0
{consumergroup=__strimzi-topic-operator-kstreams},1651356625,0
{consumergroup=__strimzi-topic-operator-kstreams},1651356630,0
{consumergroup=__strimzi-topic-operator-kstreams},1651356635,0
{consumergroup=__strimzi-topic-operator-kstreams},1651356640,0
{consumergroup=__strimzi-topic-operator-kstreams},1651356645,0
{consumergroup=__strimzi-topic-operator-kstreams},1651356650,0
{consumergroup=__strimzi-topic-operator-kstreams},1651356655,0
{consumergroup=__strimzi-topic-operator-kstreams},1651356660,0
{consumergroup=__strimzi-topic-operator-kstreams},1651356665,0
{consumergroup=__strimzi-topic-operator-kstreams},1651356670,0
{consumergroup=__strimzi-topic-operator-kstreams},1651356675,0
{consumergroup=__strimzi-topic-operator-kstreams},1651356680,0
{consumergroup=__strimzi-topic-operator-kstreams},1651356685,0
{consumergroup=__strimzi-topic-operator-kstreams},1651356690,0
{consumergroup=__strimzi-topic-operator-kstreams},1651356695,0
{consumergroup=__strimzi-topic-operator-kstreams},1651356700,0
{consumergroup=__strimzi-topic-operator-kstreams},1651356705,0
{consumergroup=__strimzi-topic-operator-kstreams},1651356710,0
{consumergroup=__strimzi-topic-operator-kstreams},1651356715,0
{consumergroup=__strimzi-topic-operator-kstreams},1651356720,0
{consumergroup=__strimzi-topic-operator-kstreams},1651356725,0
{consumergroup=__strimzi-topic-operator-kstreams},1651356730,0
{consumergroup=__strimzi-topic-operator-kstreams},1651356735,0
{consumergroup=__strimzi-topic-operator-kstreams},1651356740,0
{consumergroup=__strimzi-topic-operator-kstreams},1651356745,0
{consumergroup=__strimzi-topic-operator-kstreams},1651356750,0
{consumergroup=__strimzi-topic-operator-kstreams},1651356755,0
{consumergroup=__strimzi-topic-operator-kstreams},1651356760,0
{consumergroup=__strimzi-topic-operator-kstreams},1651356765,0
{consumergroup=__strimzi-topic-operator-kstreams},1651356770,0
{consumergroup=__strimzi-topic-operator-kstreams},1651356775,0
{consumergroup=__strimzi-topic-operator-kstreams},1651356780,0
{consumergroup=__strimzi-topic-operator-kstreams},1651356785,0
{consumergroup=adapter-service},1651356525,278904
{consumergroup=adapter-service},1651356570,727786
{consumergroup=adapter-service},1651356575,727786
{consumergroup=adapter-service},1651356580,727786
{consumergroup=adapter-service},1651356585,1246086
{consumergroup=adapter-service},1651356590,1246086
{consumergroup=adapter-service},1651356595,1246086
{consumergroup=adapter-service},1651356600,756170
{consumergroup=adapter-service},1651356605,756170
{consumergroup=adapter-service},1651356610,756170
{consumergroup=adapter-service},1651356615,1340041
{consumergroup=adapter-service},1651356620,1340041
{consumergroup=adapter-service},1651356625,1340041
{consumergroup=adapter-service},1651356630,813424
{consumergroup=adapter-service},1651356635,813424
{consumergroup=adapter-service},1651356640,813424
{consumergroup=adapter-service},1651356645,1229424
{consumergroup=adapter-service},1651356650,1229424
{consumergroup=adapter-service},1651356655,1229424
{consumergroup=adapter-service},1651356660,869487
{consumergroup=adapter-service},1651356665,869487
{consumergroup=adapter-service},1651356670,869487
{consumergroup=adapter-service},1651356675,1052301
{consumergroup=adapter-service},1651356680,1052301
{consumergroup=adapter-service},1651356685,1052301
{consumergroup=adapter-service},1651356690,1387442
{consumergroup=adapter-service},1651356695,1387442
{consumergroup=adapter-service},1651356700,1387442
{consumergroup=adapter-service},1651356705,1501317
{consumergroup=adapter-service},1651356710,1501317
{consumergroup=adapter-service},1651356715,1501317
{consumergroup=adapter-service},1651356720,1637289
{consumergroup=adapter-service},1651356725,1637289
{consumergroup=adapter-service},1651356730,1637289
{consumergroup=adapter-service},1651356735,1495967
{consumergroup=adapter-service},1651356740,1495967
{consumergroup=adapter-service},1651356745,1495967
{consumergroup=adapter-service},1651356750,1974530
{consumergroup=adapter-service},1651356755,1974530
{consumergroup=adapter-service},1651356760,1974530
{consumergroup=adapter-service},1651356765,2000034
{consumergroup=adapter-service},1651356770,2000034
{consumergroup=adapter-service},1651356775,2000034
{consumergroup=adapter-service},1651356780,1833444
{consumergroup=adapter-service},1651356785,1833444
