labels,timestamp,value
{consumergroup=__strimzi-topic-operator-kstreams},1651397527,0
{consumergroup=__strimzi-topic-operator-kstreams},1651397532,0
{consumergroup=__strimzi-topic-operator-kstreams},1651397537,0
{consumergroup=__strimzi-topic-operator-kstreams},1651397542,0
{consumergroup=__strimzi-topic-operator-kstreams},1651397547,0
{consumergroup=__strimzi-topic-operator-kstreams},1651397552,0
{consumergroup=__strimzi-topic-operator-kstreams},1651397557,0
{consumergroup=__strimzi-topic-operator-kstreams},1651397562,0
{consumergroup=__strimzi-topic-operator-kstreams},1651397567,0
{consumergroup=__strimzi-topic-operator-kstreams},1651397572,0
{consumergroup=__strimzi-topic-operator-kstreams},1651397577,0
{consumergroup=__strimzi-topic-operator-kstreams},1651397582,0
{consumergroup=__strimzi-topic-operator-kstreams},1651397587,0
{consumergroup=__strimzi-topic-operator-kstreams},1651397592,0
{consumergroup=__strimzi-topic-operator-kstreams},1651397597,0
{consumergroup=__strimzi-topic-operator-kstreams},1651397602,0
{consumergroup=__strimzi-topic-operator-kstreams},1651397607,0
{consumergroup=__strimzi-topic-operator-kstreams},1651397612,0
{consumergroup=__strimzi-topic-operator-kstreams},1651397617,0
{consumergroup=__strimzi-topic-operator-kstreams},1651397622,0
{consumergroup=__strimzi-topic-operator-kstreams},1651397627,0
{consumergroup=__strimzi-topic-operator-kstreams},1651397632,0
{consumergroup=__strimzi-topic-operator-kstreams},1651397637,0
{consumergroup=__strimzi-topic-operator-kstreams},1651397642,0
{consumergroup=__strimzi-topic-operator-kstreams},1651397647,0
{consumergroup=__strimzi-topic-operator-kstreams},1651397652,0
{consumergroup=__strimzi-topic-operator-kstreams},1651397657,0
{consumergroup=__strimzi-topic-operator-kstreams},1651397662,0
{consumergroup=__strimzi-topic-operator-kstreams},1651397667,0
{consumergroup=__strimzi-topic-operator-kstreams},1651397672,0
{consumergroup=__strimzi-topic-operator-kstreams},1651397677,0
{consumergroup=__strimzi-topic-operator-kstreams},1651397682,0
{consumergroup=__strimzi-topic-operator-kstreams},1651397687,0
{consumergroup=__strimzi-topic-operator-kstreams},1651397692,0
{consumergroup=__strimzi-topic-operator-kstreams},1651397697,0
{consumergroup=__strimzi-topic-operator-kstreams},1651397702,0
{consumergroup=__strimzi-topic-operator-kstreams},1651397707,0
{consumergroup=__strimzi-topic-operator-kstreams},1651397712,0
{consumergroup=__strimzi-topic-operator-kstreams},1651397717,0
{consumergroup=__strimzi-topic-operator-kstreams},1651397722,0
{consumergroup=__strimzi-topic-operator-kstreams},1651397727,0
{consumergroup=__strimzi-topic-operator-kstreams},1651397732,0
{consumergroup=__strimzi-topic-operator-kstreams},1651397737,0
{consumergroup=__strimzi-topic-operator-kstreams},1651397742,0
{consumergroup=__strimzi-topic-operator-kstreams},1651397747,0
{consumergroup=__strimzi-topic-operator-kstreams},1651397752,0
{consumergroup=__strimzi-topic-operator-kstreams},1651397757,0
{consumergroup=__strimzi-topic-operator-kstreams},1651397762,0
{consumergroup=__strimzi-topic-operator-kstreams},1651397767,0
{consumergroup=__strimzi-topic-operator-kstreams},1651397772,0
{consumergroup=__strimzi-topic-operator-kstreams},1651397777,0
{consumergroup=adapter-service},1651397557,50594
{consumergroup=adapter-service},1651397562,50594
{consumergroup=adapter-service},1651397567,50594
{consumergroup=adapter-service},1651397572,86767
{consumergroup=adapter-service},1651397577,86767
{consumergroup=adapter-service},1651397582,86767
{consumergroup=adapter-service},1651397587,70396
{consumergroup=adapter-service},1651397592,70396
{consumergroup=adapter-service},1651397597,70396
{consumergroup=adapter-service},1651397602,46590
{consumergroup=adapter-service},1651397607,46590
{consumergroup=adapter-service},1651397612,46590
{consumergroup=adapter-service},1651397617,57033
{consumergroup=adapter-service},1651397622,57033
{consumergroup=adapter-service},1651397627,57033
{consumergroup=adapter-service},1651397632,17702
{consumergroup=adapter-service},1651397637,17702
{consumergroup=adapter-service},1651397642,17702
{consumergroup=adapter-service},1651397647,18757
{consumergroup=adapter-service},1651397652,18757
{consumergroup=adapter-service},1651397657,18757
{consumergroup=adapter-service},1651397662,16491
{consumergroup=adapter-service},1651397667,16491
{consumergroup=adapter-service},1651397672,16491
{consumergroup=adapter-service},1651397677,16162
{consumergroup=adapter-service},1651397682,16162
{consumergroup=adapter-service},1651397687,16162
{consumergroup=adapter-service},1651397692,15184
{consumergroup=adapter-service},1651397697,15184
{consumergroup=adapter-service},1651397702,15184
{consumergroup=adapter-service},1651397707,16831
{consumergroup=adapter-service},1651397712,16831
{consumergroup=adapter-service},1651397717,16831
{consumergroup=adapter-service},1651397722,14660
{consumergroup=adapter-service},1651397727,14660
{consumergroup=adapter-service},1651397732,14660
{consumergroup=adapter-service},1651397737,15706
{consumergroup=adapter-service},1651397742,15706
{consumergroup=adapter-service},1651397747,15706
{consumergroup=adapter-service},1651397752,13367
{consumergroup=adapter-service},1651397757,13367
{consumergroup=adapter-service},1651397762,13367
{consumergroup=adapter-service},1651397767,20174
{consumergroup=adapter-service},1651397772,20174
{consumergroup=adapter-service},1651397777,20174
