labels,timestamp,value
{consumergroup=__strimzi-topic-operator-kstreams},1651351064,15
{consumergroup=__strimzi-topic-operator-kstreams},1651351069,15
{consumergroup=__strimzi-topic-operator-kstreams},1651351074,15
{consumergroup=__strimzi-topic-operator-kstreams},1651351079,0
{consumergroup=__strimzi-topic-operator-kstreams},1651351084,0
{consumergroup=__strimzi-topic-operator-kstreams},1651351089,0
{consumergroup=__strimzi-topic-operator-kstreams},1651351094,0
{consumergroup=__strimzi-topic-operator-kstreams},1651351099,0
{consumergroup=__strimzi-topic-operator-kstreams},1651351104,0
{consumergroup=__strimzi-topic-operator-kstreams},1651351109,0
{consumergroup=__strimzi-topic-operator-kstreams},1651351114,0
{consumergroup=__strimzi-topic-operator-kstreams},1651351119,0
{consumergroup=__strimzi-topic-operator-kstreams},1651351124,0
{consumergroup=__strimzi-topic-operator-kstreams},1651351129,0
{consumergroup=__strimzi-topic-operator-kstreams},1651351134,0
{consumergroup=__strimzi-topic-operator-kstreams},1651351139,0
{consumergroup=__strimzi-topic-operator-kstreams},1651351144,0
{consumergroup=__strimzi-topic-operator-kstreams},1651351149,0
{consumergroup=__strimzi-topic-operator-kstreams},1651351154,0
{consumergroup=__strimzi-topic-operator-kstreams},1651351159,0
{consumergroup=__strimzi-topic-operator-kstreams},1651351164,0
{consumergroup=__strimzi-topic-operator-kstreams},1651351169,0
{consumergroup=__strimzi-topic-operator-kstreams},1651351174,0
{consumergroup=__strimzi-topic-operator-kstreams},1651351179,0
{consumergroup=__strimzi-topic-operator-kstreams},1651351184,0
{consumergroup=__strimzi-topic-operator-kstreams},1651351189,0
{consumergroup=__strimzi-topic-operator-kstreams},1651351194,0
{consumergroup=__strimzi-topic-operator-kstreams},1651351199,0
{consumergroup=__strimzi-topic-operator-kstreams},1651351204,0
{consumergroup=__strimzi-topic-operator-kstreams},1651351209,0
{consumergroup=__strimzi-topic-operator-kstreams},1651351214,0
{consumergroup=__strimzi-topic-operator-kstreams},1651351219,0
{consumergroup=__strimzi-topic-operator-kstreams},1651351224,0
{consumergroup=__strimzi-topic-operator-kstreams},1651351229,0
{consumergroup=__strimzi-topic-operator-kstreams},1651351234,0
{consumergroup=__strimzi-topic-operator-kstreams},1651351239,0
{consumergroup=__strimzi-topic-operator-kstreams},1651351244,0
{consumergroup=__strimzi-topic-operator-kstreams},1651351249,0
{consumergroup=__strimzi-topic-operator-kstreams},1651351254,0
{consumergroup=__strimzi-topic-operator-kstreams},1651351259,0
{consumergroup=__strimzi-topic-operator-kstreams},1651351264,0
{consumergroup=__strimzi-topic-operator-kstreams},1651351269,0
{consumergroup=__strimzi-topic-operator-kstreams},1651351274,0
{consumergroup=__strimzi-topic-operator-kstreams},1651351279,0
{consumergroup=__strimzi-topic-operator-kstreams},1651351284,0
{consumergroup=__strimzi-topic-operator-kstreams},1651351289,0
{consumergroup=__strimzi-topic-operator-kstreams},1651351294,0
{consumergroup=__strimzi-topic-operator-kstreams},1651351299,0
{consumergroup=__strimzi-topic-operator-kstreams},1651351304,0
{consumergroup=__strimzi-topic-operator-kstreams},1651351309,0
{consumergroup=adapter-service},1651351094,491640
{consumergroup=adapter-service},1651351099,491640
{consumergroup=adapter-service},1651351104,491640
{consumergroup=adapter-service},1651351109,716454
{consumergroup=adapter-service},1651351114,716454
{consumergroup=adapter-service},1651351119,716454
{consumergroup=adapter-service},1651351124,350221
{consumergroup=adapter-service},1651351129,350221
{consumergroup=adapter-service},1651351134,350221
{consumergroup=adapter-service},1651351139,284456
{consumergroup=adapter-service},1651351144,284456
{consumergroup=adapter-service},1651351149,284456
{consumergroup=adapter-service},1651351154,388500
{consumergroup=adapter-service},1651351159,388500
{consumergroup=adapter-service},1651351164,388500
{consumergroup=adapter-service},1651351169,404424
{consumergroup=adapter-service},1651351174,404424
{consumergroup=adapter-service},1651351179,404424
{consumergroup=adapter-service},1651351184,358478
{consumergroup=adapter-service},1651351189,358478
{consumergroup=adapter-service},1651351194,358478
{consumergroup=adapter-service},1651351199,380751
{consumergroup=adapter-service},1651351204,380751
{consumergroup=adapter-service},1651351209,380751
{consumergroup=adapter-service},1651351214,254546
{consumergroup=adapter-service},1651351219,254546
{consumergroup=adapter-service},1651351224,254546
{consumergroup=adapter-service},1651351229,325406
{consumergroup=adapter-service},1651351234,325406
{consumergroup=adapter-service},1651351239,325406
{consumergroup=adapter-service},1651351244,225953
{consumergroup=adapter-service},1651351249,225953
{consumergroup=adapter-service},1651351254,225953
{consumergroup=adapter-service},1651351259,337735
{consumergroup=adapter-service},1651351264,337735
{consumergroup=adapter-service},1651351269,337735
{consumergroup=adapter-service},1651351274,398096
{consumergroup=adapter-service},1651351279,398096
{consumergroup=adapter-service},1651351284,398096
{consumergroup=adapter-service},1651351289,493282
{consumergroup=adapter-service},1651351294,493282
{consumergroup=adapter-service},1651351299,493282
{consumergroup=adapter-service},1651351304,465486
{consumergroup=adapter-service},1651351309,465486
