labels,timestamp,value
{job=theodolite-stu200776/trace-isolated-podmonitor},1651499404,7.637165769669879
{job=theodolite-stu200776/trace-isolated-podmonitor},1651499409,30.590317639707006
{job=theodolite-stu200776/trace-isolated-podmonitor},1651499414,33.08017673894737
{job=theodolite-stu200776/trace-isolated-podmonitor},1651499419,27.871693445777076
{job=theodolite-stu200776/trace-isolated-podmonitor},1651499424,25.795099705587937
{job=theodolite-stu200776/trace-isolated-podmonitor},1651499429,22.50681219877076
{job=theodolite-stu200776/trace-isolated-podmonitor},1651499434,20.52797408004175
{job=theodolite-stu200776/trace-isolated-podmonitor},1651499439,6.071593009992107
{job=theodolite-stu200776/trace-isolated-podmonitor},1651499444,0
{job=theodolite-stu200776/trace-isolated-podmonitor},1651499449,0
{job=theodolite-stu200776/trace-isolated-podmonitor},1651499454,0
{job=theodolite-stu200776/trace-isolated-podmonitor},1651499459,0
{job=theodolite-stu200776/trace-isolated-podmonitor},1651499464,0
{job=theodolite-stu200776/trace-isolated-podmonitor},1651499469,0
{job=theodolite-stu200776/trace-isolated-podmonitor},1651499474,0
{job=theodolite-stu200776/trace-isolated-podmonitor},1651499479,0
{job=theodolite-stu200776/trace-isolated-podmonitor},1651499484,0
{job=theodolite-stu200776/trace-isolated-podmonitor},1651499489,0
{job=theodolite-stu200776/trace-isolated-podmonitor},1651499494,0
{job=theodolite-stu200776/trace-isolated-podmonitor},1651499499,0
{job=theodolite-stu200776/trace-isolated-podmonitor},1651499504,0
{job=theodolite-stu200776/trace-isolated-podmonitor},1651499509,0
{job=theodolite-stu200776/trace-isolated-podmonitor},1651499514,0
{job=theodolite-stu200776/trace-isolated-podmonitor},1651499519,0
{job=theodolite-stu200776/trace-isolated-podmonitor},1651499524,0
{job=theodolite-stu200776/trace-isolated-podmonitor},1651499529,0
{job=theodolite-stu200776/trace-isolated-podmonitor},1651499534,0
{job=theodolite-stu200776/trace-isolated-podmonitor},1651499539,0
{job=theodolite-stu200776/trace-isolated-podmonitor},1651499544,0
{job=theodolite-stu200776/trace-isolated-podmonitor},1651499549,0
{job=theodolite-stu200776/trace-isolated-podmonitor},1651499554,0
{job=theodolite-stu200776/trace-isolated-podmonitor},1651499559,0
{job=theodolite-stu200776/trace-isolated-podmonitor},1651499564,0
{job=theodolite-stu200776/trace-isolated-podmonitor},1651499569,0
{job=theodolite-stu200776/trace-isolated-podmonitor},1651499574,0
{job=theodolite-stu200776/trace-isolated-podmonitor},1651499579,0
{job=theodolite-stu200776/trace-isolated-podmonitor},1651499584,0
{job=theodolite-stu200776/trace-isolated-podmonitor},1651499589,0
{job=theodolite-stu200776/trace-isolated-podmonitor},1651499594,0
{job=theodolite-stu200776/trace-isolated-podmonitor},1651499599,0
{job=theodolite-stu200776/trace-isolated-podmonitor},1651499604,0
{job=theodolite-stu200776/trace-isolated-podmonitor},1651499609,0
{job=theodolite-stu200776/trace-isolated-podmonitor},1651499614,0
{job=theodolite-stu200776/trace-isolated-podmonitor},1651499619,0
{job=theodolite-stu200776/trace-isolated-podmonitor},1651499624,0
{job=theodolite-stu200776/trace-isolated-podmonitor},1651499629,0
{job=theodolite-stu200776/trace-isolated-podmonitor},1651499634,0
{job=theodolite-stu200776/trace-isolated-podmonitor},1651499639,0
{job=theodolite-stu200776/trace-isolated-podmonitor},1651499644,0
{job=theodolite-stu200776/trace-isolated-podmonitor},1651499649,0
{job=theodolite-stu200776/trace-isolated-podmonitor},1651499654,0
{job=theodolite-stu200776/trace-isolated-podmonitor},1651499659,0
{job=theodolite-stu200776/trace-isolated-podmonitor},1651499664,0
{job=theodolite-stu200776/trace-isolated-podmonitor},1651499669,0
{job=theodolite-stu200776/trace-isolated-podmonitor},1651499674,0
{job=theodolite-stu200776/trace-isolated-podmonitor},1651499679,0
{job=theodolite-stu200776/trace-isolated-podmonitor},1651499684,0
{job=theodolite-stu200776/trace-isolated-podmonitor},1651499689,0
{job=theodolite-stu200776/trace-isolated-podmonitor},1651499694,0
{job=theodolite-stu200776/trace-isolated-podmonitor},1651499699,0
{job=theodolite-stu200776/trace-isolated-podmonitor},1651499704,0
{job=theodolite-stu200776/trace-isolated-podmonitor},1651499709,0
{job=theodolite-stu200776/trace-isolated-podmonitor},1651499714,0
{job=theodolite-stu200776/trace-isolated-podmonitor},1651499719,0
{job=theodolite-stu200776/trace-isolated-podmonitor},1651499724,0
{job=theodolite-stu200776/trace-isolated-podmonitor},1651499729,0
{job=theodolite-stu200776/trace-isolated-podmonitor},1651499734,0
{job=theodolite-stu200776/trace-isolated-podmonitor},1651499739,0
{job=theodolite-stu200776/trace-isolated-podmonitor},1651499744,0
{job=theodolite-stu200776/trace-isolated-podmonitor},1651499749,0
{job=theodolite-stu200776/trace-isolated-podmonitor},1651499754,0
{job=theodolite-stu200776/trace-isolated-podmonitor},1651499759,0
{job=theodolite-stu200776/trace-isolated-podmonitor},1651499764,0
{job=theodolite-stu200776/trace-isolated-podmonitor},1651499769,0
{job=theodolite-stu200776/trace-isolated-podmonitor},1651499774,0
