labels,timestamp,value
{consumergroup=__strimzi-topic-operator-kstreams},1651445915,9
{consumergroup=__strimzi-topic-operator-kstreams},1651445920,9
{consumergroup=__strimzi-topic-operator-kstreams},1651445925,9
{consumergroup=__strimzi-topic-operator-kstreams},1651445930,0
{consumergroup=__strimzi-topic-operator-kstreams},1651445935,0
{consumergroup=__strimzi-topic-operator-kstreams},1651445940,0
{consumergroup=__strimzi-topic-operator-kstreams},1651445945,0
{consumergroup=__strimzi-topic-operator-kstreams},1651445950,0
{consumergroup=__strimzi-topic-operator-kstreams},1651445955,0
{consumergroup=__strimzi-topic-operator-kstreams},1651445960,0
{consumergroup=__strimzi-topic-operator-kstreams},1651445965,0
{consumergroup=__strimzi-topic-operator-kstreams},1651445970,0
{consumergroup=__strimzi-topic-operator-kstreams},1651445975,0
{consumergroup=__strimzi-topic-operator-kstreams},1651445980,0
{consumergroup=__strimzi-topic-operator-kstreams},1651445985,0
{consumergroup=__strimzi-topic-operator-kstreams},1651445990,0
{consumergroup=__strimzi-topic-operator-kstreams},1651445995,0
{consumergroup=__strimzi-topic-operator-kstreams},1651446000,0
{consumergroup=__strimzi-topic-operator-kstreams},1651446005,0
{consumergroup=__strimzi-topic-operator-kstreams},1651446010,0
{consumergroup=__strimzi-topic-operator-kstreams},1651446015,0
{consumergroup=__strimzi-topic-operator-kstreams},1651446020,0
{consumergroup=__strimzi-topic-operator-kstreams},1651446025,0
{consumergroup=__strimzi-topic-operator-kstreams},1651446030,0
{consumergroup=__strimzi-topic-operator-kstreams},1651446035,0
{consumergroup=__strimzi-topic-operator-kstreams},1651446040,0
{consumergroup=__strimzi-topic-operator-kstreams},1651446045,0
{consumergroup=__strimzi-topic-operator-kstreams},1651446050,0
{consumergroup=__strimzi-topic-operator-kstreams},1651446055,0
{consumergroup=__strimzi-topic-operator-kstreams},1651446060,0
{consumergroup=__strimzi-topic-operator-kstreams},1651446065,0
{consumergroup=__strimzi-topic-operator-kstreams},1651446070,0
{consumergroup=__strimzi-topic-operator-kstreams},1651446075,0
{consumergroup=__strimzi-topic-operator-kstreams},1651446080,0
{consumergroup=__strimzi-topic-operator-kstreams},1651446085,0
{consumergroup=__strimzi-topic-operator-kstreams},1651446090,0
{consumergroup=__strimzi-topic-operator-kstreams},1651446095,0
{consumergroup=__strimzi-topic-operator-kstreams},1651446100,0
{consumergroup=__strimzi-topic-operator-kstreams},1651446105,0
{consumergroup=__strimzi-topic-operator-kstreams},1651446110,0
{consumergroup=__strimzi-topic-operator-kstreams},1651446115,0
{consumergroup=__strimzi-topic-operator-kstreams},1651446120,0
{consumergroup=__strimzi-topic-operator-kstreams},1651446125,0
{consumergroup=__strimzi-topic-operator-kstreams},1651446130,0
{consumergroup=__strimzi-topic-operator-kstreams},1651446135,0
{consumergroup=__strimzi-topic-operator-kstreams},1651446140,0
{consumergroup=__strimzi-topic-operator-kstreams},1651446145,0
{consumergroup=__strimzi-topic-operator-kstreams},1651446150,0
{consumergroup=__strimzi-topic-operator-kstreams},1651446155,0
{consumergroup=__strimzi-topic-operator-kstreams},1651446160,0
{consumergroup=__strimzi-topic-operator-kstreams},1651446165,0
{consumergroup=__strimzi-topic-operator-kstreams},1651446170,0
{consumergroup=adapter-service},1651445945,16540
{consumergroup=adapter-service},1651445950,16540
{consumergroup=adapter-service},1651445955,16540
{consumergroup=adapter-service},1651445960,162671
{consumergroup=adapter-service},1651445965,162671
{consumergroup=adapter-service},1651445970,162671
{consumergroup=adapter-service},1651445975,273371
{consumergroup=adapter-service},1651445980,273371
{consumergroup=adapter-service},1651445985,273371
{consumergroup=adapter-service},1651445990,367577
{consumergroup=adapter-service},1651445995,367577
{consumergroup=adapter-service},1651446000,367577
{consumergroup=adapter-service},1651446005,440438
{consumergroup=adapter-service},1651446010,440438
{consumergroup=adapter-service},1651446015,440438
{consumergroup=adapter-service},1651446020,499891
{consumergroup=adapter-service},1651446025,499891
{consumergroup=adapter-service},1651446030,499891
{consumergroup=adapter-service},1651446035,552816
{consumergroup=adapter-service},1651446040,552816
{consumergroup=adapter-service},1651446045,552816
{consumergroup=adapter-service},1651446050,578842
{consumergroup=adapter-service},1651446055,578842
{consumergroup=adapter-service},1651446060,578842
{consumergroup=adapter-service},1651446065,603188
{consumergroup=adapter-service},1651446070,603188
{consumergroup=adapter-service},1651446075,603188
{consumergroup=adapter-service},1651446080,611956
{consumergroup=adapter-service},1651446085,611956
{consumergroup=adapter-service},1651446090,611956
{consumergroup=adapter-service},1651446095,606926
{consumergroup=adapter-service},1651446100,606926
{consumergroup=adapter-service},1651446105,606926
{consumergroup=adapter-service},1651446110,611975
{consumergroup=adapter-service},1651446115,611975
{consumergroup=adapter-service},1651446120,611975
{consumergroup=adapter-service},1651446125,604578
{consumergroup=adapter-service},1651446130,604578
{consumergroup=adapter-service},1651446135,604578
{consumergroup=adapter-service},1651446140,595103
{consumergroup=adapter-service},1651446145,595103
{consumergroup=adapter-service},1651446150,595103
{consumergroup=adapter-service},1651446155,592659
{consumergroup=adapter-service},1651446160,592659
{consumergroup=adapter-service},1651446165,592659
{consumergroup=adapter-service},1651446170,590515
