labels,timestamp,value
{job=theodolite-stu200776/combined-trace-podmonitor},1651321945,4.111479289459017
{job=theodolite-stu200776/combined-trace-podmonitor},1651321950,4.111479289459017
{job=theodolite-stu200776/combined-trace-podmonitor},1651321955,12.582759945893644
{job=theodolite-stu200776/combined-trace-podmonitor},1651321960,12.582759945893644
{job=theodolite-stu200776/combined-trace-podmonitor},1651321965,126.94130709062694
{job=theodolite-stu200776/combined-trace-podmonitor},1651321970,126.94130709062694
{job=theodolite-stu200776/combined-trace-podmonitor},1651321975,114.4691913158573
{job=theodolite-stu200776/combined-trace-podmonitor},1651321980,114.4691913158573
{job=theodolite-stu200776/combined-trace-podmonitor},1651321985,121.65130219091463
{job=theodolite-stu200776/combined-trace-podmonitor},1651321990,121.65130219091463
{job=theodolite-stu200776/combined-trace-podmonitor},1651321995,54.05245984895906
{job=theodolite-stu200776/combined-trace-podmonitor},1651322000,54.05245984895906
{job=theodolite-stu200776/combined-trace-podmonitor},1651322005,29.465282917631402
{job=theodolite-stu200776/combined-trace-podmonitor},1651322010,29.465282917631402
{job=theodolite-stu200776/combined-trace-podmonitor},1651322015,28.44176999025648
{job=theodolite-stu200776/combined-trace-podmonitor},1651322020,28.44176999025648
{job=theodolite-stu200776/combined-trace-podmonitor},1651322025,22.36617974431884
{job=theodolite-stu200776/combined-trace-podmonitor},1651322030,22.36617974431884
{job=theodolite-stu200776/combined-trace-podmonitor},1651322035,18.42881695998958
{job=theodolite-stu200776/combined-trace-podmonitor},1651322040,18.42881695998958
{job=theodolite-stu200776/combined-trace-podmonitor},1651322045,0
{job=theodolite-stu200776/combined-trace-podmonitor},1651322050,0
{job=theodolite-stu200776/combined-trace-podmonitor},1651322055,0
{job=theodolite-stu200776/combined-trace-podmonitor},1651322060,0
{job=theodolite-stu200776/combined-trace-podmonitor},1651322065,0
{job=theodolite-stu200776/combined-trace-podmonitor},1651322070,0
{job=theodolite-stu200776/combined-trace-podmonitor},1651322075,0
{job=theodolite-stu200776/combined-trace-podmonitor},1651322080,0
{job=theodolite-stu200776/combined-trace-podmonitor},1651322085,0
{job=theodolite-stu200776/combined-trace-podmonitor},1651322090,0
{job=theodolite-stu200776/combined-trace-podmonitor},1651322095,0
{job=theodolite-stu200776/combined-trace-podmonitor},1651322100,0
{job=theodolite-stu200776/combined-trace-podmonitor},1651322105,42.22492469961794
{job=theodolite-stu200776/combined-trace-podmonitor},1651322110,42.22492469961794
{job=theodolite-stu200776/combined-trace-podmonitor},1651322115,366.8687254272581
{job=theodolite-stu200776/combined-trace-podmonitor},1651322120,366.8687254272581
{job=theodolite-stu200776/combined-trace-podmonitor},1651322125,338.8264503678578
{job=theodolite-stu200776/combined-trace-podmonitor},1651322130,338.8264503678578
{job=theodolite-stu200776/combined-trace-podmonitor},1651322135,355.9511247129278
{job=theodolite-stu200776/combined-trace-podmonitor},1651322140,355.9511247129278
{job=theodolite-stu200776/combined-trace-podmonitor},1651322145,422.82572645872335
{job=theodolite-stu200776/combined-trace-podmonitor},1651322150,422.82572645872335
{job=theodolite-stu200776/combined-trace-podmonitor},1651322155,335.94778649343493
{job=theodolite-stu200776/combined-trace-podmonitor},1651322160,335.94778649343493
{job=theodolite-stu200776/combined-trace-podmonitor},1651322165,203.57463600872438
{job=theodolite-stu200776/combined-trace-podmonitor},1651322170,203.57463600872438
{job=theodolite-stu200776/combined-trace-podmonitor},1651322175,1.1689556193630035
{job=theodolite-stu200776/combined-trace-podmonitor},1651322180,1.1689556193630035
{job=theodolite-stu200776/combined-trace-podmonitor},1651322185,0
{job=theodolite-stu200776/combined-trace-podmonitor},1651322190,0
{job=theodolite-stu200776/combined-trace-podmonitor},1651322195,0
{job=theodolite-stu200776/combined-trace-podmonitor},1651322200,0
{job=theodolite-stu200776/combined-trace-podmonitor},1651322205,0
{job=theodolite-stu200776/combined-trace-podmonitor},1651322210,0
{job=theodolite-stu200776/combined-trace-podmonitor},1651322215,0
{job=theodolite-stu200776/combined-trace-podmonitor},1651322220,0
{job=theodolite-stu200776/combined-trace-podmonitor},1651322225,0
{job=theodolite-stu200776/combined-trace-podmonitor},1651322230,0
{job=theodolite-stu200776/combined-trace-podmonitor},1651322235,0
{job=theodolite-stu200776/combined-trace-podmonitor},1651322240,0
{job=theodolite-stu200776/combined-trace-podmonitor},1651322245,0
{job=theodolite-stu200776/combined-trace-podmonitor},1651322250,0
{job=theodolite-stu200776/combined-trace-podmonitor},1651322255,0
{job=theodolite-stu200776/combined-trace-podmonitor},1651322260,0
{job=theodolite-stu200776/combined-trace-podmonitor},1651322265,0
{job=theodolite-stu200776/combined-trace-podmonitor},1651322270,0
{job=theodolite-stu200776/combined-trace-podmonitor},1651322275,0
{job=theodolite-stu200776/combined-trace-podmonitor},1651322280,0
{job=theodolite-stu200776/combined-trace-podmonitor},1651322285,0
{job=theodolite-stu200776/combined-trace-podmonitor},1651322290,0
{job=theodolite-stu200776/combined-trace-podmonitor},1651322295,0
{job=theodolite-stu200776/combined-trace-podmonitor},1651322300,0
{job=theodolite-stu200776/combined-trace-podmonitor},1651322305,0
{job=theodolite-stu200776/combined-trace-podmonitor},1651322310,0
{job=theodolite-stu200776/combined-trace-podmonitor},1651322315,0
{job=theodolite-stu200776/combined-trace-podmonitor},1651322320,0
{job=theodolite-stu200776/combined-trace-podmonitor},1651322325,0
{job=theodolite-stu200776/combined-trace-podmonitor},1651322330,0
{job=theodolite-stu200776/combined-trace-podmonitor},1651322335,0
{job=theodolite-stu200776/combined-trace-podmonitor},1651322340,0
{job=theodolite-stu200776/combined-trace-podmonitor},1651322345,0
{job=theodolite-stu200776/combined-trace-podmonitor},1651322350,0
{job=theodolite-stu200776/combined-trace-podmonitor},1651322355,0
{job=theodolite-stu200776/combined-trace-podmonitor},1651322360,0
{job=theodolite-stu200776/combined-trace-podmonitor},1651322365,0
{job=theodolite-stu200776/combined-trace-podmonitor},1651322370,0
{job=theodolite-stu200776/combined-trace-podmonitor},1651322375,0
{job=theodolite-stu200776/combined-trace-podmonitor},1651322380,0
{job=theodolite-stu200776/combined-trace-podmonitor},1651322385,0
