labels,timestamp,value
{job=theodolite-stu200776/trace-isolated-podmonitor},1651494256,0
{job=theodolite-stu200776/trace-isolated-podmonitor},1651494261,0
{job=theodolite-stu200776/trace-isolated-podmonitor},1651494266,0
{job=theodolite-stu200776/trace-isolated-podmonitor},1651494271,0
{job=theodolite-stu200776/trace-isolated-podmonitor},1651494276,0
{job=theodolite-stu200776/trace-isolated-podmonitor},1651494281,0
{job=theodolite-stu200776/trace-isolated-podmonitor},1651494286,0
{job=theodolite-stu200776/trace-isolated-podmonitor},1651494291,0
{job=theodolite-stu200776/trace-isolated-podmonitor},1651494296,0
{job=theodolite-stu200776/trace-isolated-podmonitor},1651494301,0
{job=theodolite-stu200776/trace-isolated-podmonitor},1651494306,0
{job=theodolite-stu200776/trace-isolated-podmonitor},1651494311,0
{job=theodolite-stu200776/trace-isolated-podmonitor},1651494316,0
{job=theodolite-stu200776/trace-isolated-podmonitor},1651494321,0
{job=theodolite-stu200776/trace-isolated-podmonitor},1651494326,0
{job=theodolite-stu200776/trace-isolated-podmonitor},1651494331,0
{job=theodolite-stu200776/trace-isolated-podmonitor},1651494336,0
{job=theodolite-stu200776/trace-isolated-podmonitor},1651494341,0
{job=theodolite-stu200776/trace-isolated-podmonitor},1651494346,0
{job=theodolite-stu200776/trace-isolated-podmonitor},1651494351,0
{job=theodolite-stu200776/trace-isolated-podmonitor},1651494356,0
{job=theodolite-stu200776/trace-isolated-podmonitor},1651494361,0
{job=theodolite-stu200776/trace-isolated-podmonitor},1651494366,0
{job=theodolite-stu200776/trace-isolated-podmonitor},1651494371,0
{job=theodolite-stu200776/trace-isolated-podmonitor},1651494376,0
{job=theodolite-stu200776/trace-isolated-podmonitor},1651494381,0
{job=theodolite-stu200776/trace-isolated-podmonitor},1651494386,0
{job=theodolite-stu200776/trace-isolated-podmonitor},1651494391,0
{job=theodolite-stu200776/trace-isolated-podmonitor},1651494396,0
{job=theodolite-stu200776/trace-isolated-podmonitor},1651494401,0
{job=theodolite-stu200776/trace-isolated-podmonitor},1651494406,0
{job=theodolite-stu200776/trace-isolated-podmonitor},1651494411,0
{job=theodolite-stu200776/trace-isolated-podmonitor},1651494416,0
{job=theodolite-stu200776/trace-isolated-podmonitor},1651494421,0
{job=theodolite-stu200776/trace-isolated-podmonitor},1651494426,0
{job=theodolite-stu200776/trace-isolated-podmonitor},1651494431,0
{job=theodolite-stu200776/trace-isolated-podmonitor},1651494436,0
{job=theodolite-stu200776/trace-isolated-podmonitor},1651494441,0
{job=theodolite-stu200776/trace-isolated-podmonitor},1651494446,0
{job=theodolite-stu200776/trace-isolated-podmonitor},1651494451,0
{job=theodolite-stu200776/trace-isolated-podmonitor},1651494456,0
{job=theodolite-stu200776/trace-isolated-podmonitor},1651494461,0
{job=theodolite-stu200776/trace-isolated-podmonitor},1651494466,0
{job=theodolite-stu200776/trace-isolated-podmonitor},1651494471,0
{job=theodolite-stu200776/trace-isolated-podmonitor},1651494476,0
{job=theodolite-stu200776/trace-isolated-podmonitor},1651494481,0
{job=theodolite-stu200776/trace-isolated-podmonitor},1651494486,0
{job=theodolite-stu200776/trace-isolated-podmonitor},1651494491,0
{job=theodolite-stu200776/trace-isolated-podmonitor},1651494496,0
{job=theodolite-stu200776/trace-isolated-podmonitor},1651494501,0
{job=theodolite-stu200776/trace-isolated-podmonitor},1651494506,0
{job=theodolite-stu200776/trace-isolated-podmonitor},1651494511,0
{job=theodolite-stu200776/trace-isolated-podmonitor},1651494516,0
{job=theodolite-stu200776/trace-isolated-podmonitor},1651494521,0
{job=theodolite-stu200776/trace-isolated-podmonitor},1651494526,0
{job=theodolite-stu200776/trace-isolated-podmonitor},1651494531,0
{job=theodolite-stu200776/trace-isolated-podmonitor},1651494536,0
{job=theodolite-stu200776/trace-isolated-podmonitor},1651494541,0
{job=theodolite-stu200776/trace-isolated-podmonitor},1651494546,0
{job=theodolite-stu200776/trace-isolated-podmonitor},1651494551,0
{job=theodolite-stu200776/trace-isolated-podmonitor},1651494556,0
{job=theodolite-stu200776/trace-isolated-podmonitor},1651494561,0
{job=theodolite-stu200776/trace-isolated-podmonitor},1651494566,0
{job=theodolite-stu200776/trace-isolated-podmonitor},1651494571,0
{job=theodolite-stu200776/trace-isolated-podmonitor},1651494576,0
{job=theodolite-stu200776/trace-isolated-podmonitor},1651494581,0
{job=theodolite-stu200776/trace-isolated-podmonitor},1651494586,0
{job=theodolite-stu200776/trace-isolated-podmonitor},1651494591,0
{job=theodolite-stu200776/trace-isolated-podmonitor},1651494596,0
{job=theodolite-stu200776/trace-isolated-podmonitor},1651494601,0
{job=theodolite-stu200776/trace-isolated-podmonitor},1651494606,0
{job=theodolite-stu200776/trace-isolated-podmonitor},1651494611,0
{job=theodolite-stu200776/trace-isolated-podmonitor},1651494616,0
{job=theodolite-stu200776/trace-isolated-podmonitor},1651494621,0
{job=theodolite-stu200776/trace-isolated-podmonitor},1651494626,0
