labels,timestamp,value
{job=theodolite-stu200776/trace-isolated-podmonitor},1651495283,0
{job=theodolite-stu200776/trace-isolated-podmonitor},1651495288,0
{job=theodolite-stu200776/trace-isolated-podmonitor},1651495293,0
{job=theodolite-stu200776/trace-isolated-podmonitor},1651495298,0
{job=theodolite-stu200776/trace-isolated-podmonitor},1651495303,0
{job=theodolite-stu200776/trace-isolated-podmonitor},1651495308,0
{job=theodolite-stu200776/trace-isolated-podmonitor},1651495313,0
{job=theodolite-stu200776/trace-isolated-podmonitor},1651495318,0
{job=theodolite-stu200776/trace-isolated-podmonitor},1651495323,0
{job=theodolite-stu200776/trace-isolated-podmonitor},1651495328,0
{job=theodolite-stu200776/trace-isolated-podmonitor},1651495333,0
{job=theodolite-stu200776/trace-isolated-podmonitor},1651495338,0
{job=theodolite-stu200776/trace-isolated-podmonitor},1651495343,0
{job=theodolite-stu200776/trace-isolated-podmonitor},1651495348,0
{job=theodolite-stu200776/trace-isolated-podmonitor},1651495353,0
{job=theodolite-stu200776/trace-isolated-podmonitor},1651495358,0
{job=theodolite-stu200776/trace-isolated-podmonitor},1651495363,0
{job=theodolite-stu200776/trace-isolated-podmonitor},1651495368,0
{job=theodolite-stu200776/trace-isolated-podmonitor},1651495373,0
{job=theodolite-stu200776/trace-isolated-podmonitor},1651495378,0
{job=theodolite-stu200776/trace-isolated-podmonitor},1651495383,0
{job=theodolite-stu200776/trace-isolated-podmonitor},1651495388,0
{job=theodolite-stu200776/trace-isolated-podmonitor},1651495393,0
{job=theodolite-stu200776/trace-isolated-podmonitor},1651495398,0
{job=theodolite-stu200776/trace-isolated-podmonitor},1651495403,0
{job=theodolite-stu200776/trace-isolated-podmonitor},1651495408,0
{job=theodolite-stu200776/trace-isolated-podmonitor},1651495413,0
{job=theodolite-stu200776/trace-isolated-podmonitor},1651495418,0
{job=theodolite-stu200776/trace-isolated-podmonitor},1651495423,0
{job=theodolite-stu200776/trace-isolated-podmonitor},1651495428,0
{job=theodolite-stu200776/trace-isolated-podmonitor},1651495433,0
{job=theodolite-stu200776/trace-isolated-podmonitor},1651495438,0
{job=theodolite-stu200776/trace-isolated-podmonitor},1651495443,0
{job=theodolite-stu200776/trace-isolated-podmonitor},1651495448,0
{job=theodolite-stu200776/trace-isolated-podmonitor},1651495453,0
{job=theodolite-stu200776/trace-isolated-podmonitor},1651495458,0
{job=theodolite-stu200776/trace-isolated-podmonitor},1651495463,0
{job=theodolite-stu200776/trace-isolated-podmonitor},1651495468,0
{job=theodolite-stu200776/trace-isolated-podmonitor},1651495473,0
{job=theodolite-stu200776/trace-isolated-podmonitor},1651495478,0
{job=theodolite-stu200776/trace-isolated-podmonitor},1651495483,0
{job=theodolite-stu200776/trace-isolated-podmonitor},1651495488,0
{job=theodolite-stu200776/trace-isolated-podmonitor},1651495493,0
{job=theodolite-stu200776/trace-isolated-podmonitor},1651495498,0
{job=theodolite-stu200776/trace-isolated-podmonitor},1651495503,0
{job=theodolite-stu200776/trace-isolated-podmonitor},1651495508,0
{job=theodolite-stu200776/trace-isolated-podmonitor},1651495513,0
{job=theodolite-stu200776/trace-isolated-podmonitor},1651495518,0
{job=theodolite-stu200776/trace-isolated-podmonitor},1651495523,0
{job=theodolite-stu200776/trace-isolated-podmonitor},1651495528,0
{job=theodolite-stu200776/trace-isolated-podmonitor},1651495533,0
{job=theodolite-stu200776/trace-isolated-podmonitor},1651495538,0
{job=theodolite-stu200776/trace-isolated-podmonitor},1651495543,0
{job=theodolite-stu200776/trace-isolated-podmonitor},1651495548,0
{job=theodolite-stu200776/trace-isolated-podmonitor},1651495553,0
{job=theodolite-stu200776/trace-isolated-podmonitor},1651495558,0
{job=theodolite-stu200776/trace-isolated-podmonitor},1651495563,0
{job=theodolite-stu200776/trace-isolated-podmonitor},1651495568,0
{job=theodolite-stu200776/trace-isolated-podmonitor},1651495573,0
{job=theodolite-stu200776/trace-isolated-podmonitor},1651495578,0
{job=theodolite-stu200776/trace-isolated-podmonitor},1651495583,0
{job=theodolite-stu200776/trace-isolated-podmonitor},1651495588,0
{job=theodolite-stu200776/trace-isolated-podmonitor},1651495593,0
{job=theodolite-stu200776/trace-isolated-podmonitor},1651495598,0
{job=theodolite-stu200776/trace-isolated-podmonitor},1651495603,0
{job=theodolite-stu200776/trace-isolated-podmonitor},1651495608,0
{job=theodolite-stu200776/trace-isolated-podmonitor},1651495613,0
{job=theodolite-stu200776/trace-isolated-podmonitor},1651495618,0
{job=theodolite-stu200776/trace-isolated-podmonitor},1651495623,0
{job=theodolite-stu200776/trace-isolated-podmonitor},1651495628,0
{job=theodolite-stu200776/trace-isolated-podmonitor},1651495633,0
{job=theodolite-stu200776/trace-isolated-podmonitor},1651495638,0
{job=theodolite-stu200776/trace-isolated-podmonitor},1651495643,0
{job=theodolite-stu200776/trace-isolated-podmonitor},1651495648,0
{job=theodolite-stu200776/trace-isolated-podmonitor},1651495653,0
{job=theodolite-stu200776/trace-isolated-podmonitor},1651495658,0
