labels,timestamp,value
{job=theodolite-stu200776/combined-trace-podmonitor},1651552165,11.500223834084965
{job=theodolite-stu200776/combined-trace-podmonitor},1651552170,33.32696709686786
{job=theodolite-stu200776/combined-trace-podmonitor},1651552175,38.14626880185588
{job=theodolite-stu200776/combined-trace-podmonitor},1651552180,50.350689364214084
{job=theodolite-stu200776/combined-trace-podmonitor},1651552185,48.477749296959836
{job=theodolite-stu200776/combined-trace-podmonitor},1651552190,41.03111410020359
{job=theodolite-stu200776/combined-trace-podmonitor},1651552195,38.09365864461828
{job=theodolite-stu200776/combined-trace-podmonitor},1651552200,33.3382741064859
{job=theodolite-stu200776/combined-trace-podmonitor},1651552205,24.21174566101091
{job=theodolite-stu200776/combined-trace-podmonitor},1651552210,2.423310724211552
{job=theodolite-stu200776/combined-trace-podmonitor},1651552215,0.04070915345315394
{job=theodolite-stu200776/combined-trace-podmonitor},1651552220,0.033824922202678936
{job=theodolite-stu200776/combined-trace-podmonitor},1651552225,0.033824922202678936
{job=theodolite-stu200776/combined-trace-podmonitor},1651552230,0
{job=theodolite-stu200776/combined-trace-podmonitor},1651552235,0
{job=theodolite-stu200776/combined-trace-podmonitor},1651552240,0
{job=theodolite-stu200776/combined-trace-podmonitor},1651552245,0
{job=theodolite-stu200776/combined-trace-podmonitor},1651552250,0
{job=theodolite-stu200776/combined-trace-podmonitor},1651552255,0
{job=theodolite-stu200776/combined-trace-podmonitor},1651552260,0
{job=theodolite-stu200776/combined-trace-podmonitor},1651552265,0
{job=theodolite-stu200776/combined-trace-podmonitor},1651552270,0
{job=theodolite-stu200776/combined-trace-podmonitor},1651552275,0
{job=theodolite-stu200776/combined-trace-podmonitor},1651552280,0
{job=theodolite-stu200776/combined-trace-podmonitor},1651552285,0
{job=theodolite-stu200776/combined-trace-podmonitor},1651552290,0
{job=theodolite-stu200776/combined-trace-podmonitor},1651552295,0
{job=theodolite-stu200776/combined-trace-podmonitor},1651552300,0
{job=theodolite-stu200776/combined-trace-podmonitor},1651552305,0
{job=theodolite-stu200776/combined-trace-podmonitor},1651552310,0
{job=theodolite-stu200776/combined-trace-podmonitor},1651552315,0
{job=theodolite-stu200776/combined-trace-podmonitor},1651552320,0
{job=theodolite-stu200776/combined-trace-podmonitor},1651552325,0
{job=theodolite-stu200776/combined-trace-podmonitor},1651552330,0
{job=theodolite-stu200776/combined-trace-podmonitor},1651552335,0
{job=theodolite-stu200776/combined-trace-podmonitor},1651552340,0
{job=theodolite-stu200776/combined-trace-podmonitor},1651552345,0
{job=theodolite-stu200776/combined-trace-podmonitor},1651552350,0
{job=theodolite-stu200776/combined-trace-podmonitor},1651552355,0
{job=theodolite-stu200776/combined-trace-podmonitor},1651552360,0
{job=theodolite-stu200776/combined-trace-podmonitor},1651552365,0
{job=theodolite-stu200776/combined-trace-podmonitor},1651552370,0
{job=theodolite-stu200776/combined-trace-podmonitor},1651552375,0
{job=theodolite-stu200776/combined-trace-podmonitor},1651552380,0
{job=theodolite-stu200776/combined-trace-podmonitor},1651552385,0
{job=theodolite-stu200776/combined-trace-podmonitor},1651552390,0
{job=theodolite-stu200776/combined-trace-podmonitor},1651552395,0
{job=theodolite-stu200776/combined-trace-podmonitor},1651552400,0
{job=theodolite-stu200776/combined-trace-podmonitor},1651552405,0
{job=theodolite-stu200776/combined-trace-podmonitor},1651552410,0
{job=theodolite-stu200776/combined-trace-podmonitor},1651552415,0
{job=theodolite-stu200776/combined-trace-podmonitor},1651552420,0
{job=theodolite-stu200776/combined-trace-podmonitor},1651552425,0
{job=theodolite-stu200776/combined-trace-podmonitor},1651552430,0
{job=theodolite-stu200776/combined-trace-podmonitor},1651552435,0
{job=theodolite-stu200776/combined-trace-podmonitor},1651552440,0
{job=theodolite-stu200776/combined-trace-podmonitor},1651552445,0
{job=theodolite-stu200776/combined-trace-podmonitor},1651552450,0
{job=theodolite-stu200776/combined-trace-podmonitor},1651552455,0
{job=theodolite-stu200776/combined-trace-podmonitor},1651552460,0
{job=theodolite-stu200776/combined-trace-podmonitor},1651552465,0
{job=theodolite-stu200776/combined-trace-podmonitor},1651552470,0
{job=theodolite-stu200776/combined-trace-podmonitor},1651552475,0
{job=theodolite-stu200776/combined-trace-podmonitor},1651552480,0
{job=theodolite-stu200776/combined-trace-podmonitor},1651552485,0
{job=theodolite-stu200776/combined-trace-podmonitor},1651552490,0
{job=theodolite-stu200776/combined-trace-podmonitor},1651552495,0
{job=theodolite-stu200776/combined-trace-podmonitor},1651552500,0
{job=theodolite-stu200776/combined-trace-podmonitor},1651552505,0
{job=theodolite-stu200776/combined-trace-podmonitor},1651552510,0
{job=theodolite-stu200776/combined-trace-podmonitor},1651552515,0
{job=theodolite-stu200776/combined-trace-podmonitor},1651552520,0
{job=theodolite-stu200776/combined-trace-podmonitor},1651552525,0
{job=theodolite-stu200776/combined-trace-podmonitor},1651552530,0
{job=theodolite-stu200776/combined-trace-podmonitor},1651552535,0
