labels,timestamp,value
{consumergroup=__strimzi-topic-operator-kstreams},1651486520,11
{consumergroup=__strimzi-topic-operator-kstreams},1651486525,11
{consumergroup=__strimzi-topic-operator-kstreams},1651486530,11
{consumergroup=__strimzi-topic-operator-kstreams},1651486535,3
{consumergroup=__strimzi-topic-operator-kstreams},1651486540,3
{consumergroup=__strimzi-topic-operator-kstreams},1651486545,3
{consumergroup=__strimzi-topic-operator-kstreams},1651486550,3
{consumergroup=__strimzi-topic-operator-kstreams},1651486555,3
{consumergroup=__strimzi-topic-operator-kstreams},1651486560,3
{consumergroup=__strimzi-topic-operator-kstreams},1651486565,0
{consumergroup=__strimzi-topic-operator-kstreams},1651486570,0
{consumergroup=__strimzi-topic-operator-kstreams},1651486575,0
{consumergroup=__strimzi-topic-operator-kstreams},1651486580,0
{consumergroup=__strimzi-topic-operator-kstreams},1651486585,0
{consumergroup=__strimzi-topic-operator-kstreams},1651486590,0
{consumergroup=__strimzi-topic-operator-kstreams},1651486595,0
{consumergroup=__strimzi-topic-operator-kstreams},1651486600,0
{consumergroup=__strimzi-topic-operator-kstreams},1651486605,0
{consumergroup=__strimzi-topic-operator-kstreams},1651486610,0
{consumergroup=__strimzi-topic-operator-kstreams},1651486615,0
{consumergroup=__strimzi-topic-operator-kstreams},1651486620,0
{consumergroup=__strimzi-topic-operator-kstreams},1651486625,0
{consumergroup=__strimzi-topic-operator-kstreams},1651486630,0
{consumergroup=__strimzi-topic-operator-kstreams},1651486635,0
{consumergroup=__strimzi-topic-operator-kstreams},1651486640,0
{consumergroup=__strimzi-topic-operator-kstreams},1651486645,0
{consumergroup=__strimzi-topic-operator-kstreams},1651486650,0
{consumergroup=__strimzi-topic-operator-kstreams},1651486655,0
{consumergroup=__strimzi-topic-operator-kstreams},1651486660,0
{consumergroup=__strimzi-topic-operator-kstreams},1651486665,0
{consumergroup=__strimzi-topic-operator-kstreams},1651486670,0
{consumergroup=__strimzi-topic-operator-kstreams},1651486675,0
{consumergroup=__strimzi-topic-operator-kstreams},1651486680,0
{consumergroup=__strimzi-topic-operator-kstreams},1651486685,0
{consumergroup=__strimzi-topic-operator-kstreams},1651486690,0
{consumergroup=__strimzi-topic-operator-kstreams},1651486695,0
{consumergroup=__strimzi-topic-operator-kstreams},1651486700,0
{consumergroup=__strimzi-topic-operator-kstreams},1651486705,0
{consumergroup=__strimzi-topic-operator-kstreams},1651486710,0
{consumergroup=__strimzi-topic-operator-kstreams},1651486715,0
{consumergroup=__strimzi-topic-operator-kstreams},1651486720,0
{consumergroup=__strimzi-topic-operator-kstreams},1651486725,0
{consumergroup=__strimzi-topic-operator-kstreams},1651486730,0
{consumergroup=__strimzi-topic-operator-kstreams},1651486735,0
{consumergroup=__strimzi-topic-operator-kstreams},1651486740,0
{consumergroup=__strimzi-topic-operator-kstreams},1651486745,0
{consumergroup=__strimzi-topic-operator-kstreams},1651486750,0
{consumergroup=__strimzi-topic-operator-kstreams},1651486755,0
{consumergroup=__strimzi-topic-operator-kstreams},1651486760,0
{consumergroup=__strimzi-topic-operator-kstreams},1651486765,0
{consumergroup=__strimzi-topic-operator-kstreams},1651486770,0
{consumergroup=__strimzi-topic-operator-kstreams},1651486775,0
{consumergroup=__strimzi-topic-operator-kstreams},1651486780,0
{consumergroup=__strimzi-topic-operator-kstreams},1651486785,0
{consumergroup=__strimzi-topic-operator-kstreams},1651486790,0
{consumergroup=__strimzi-topic-operator-kstreams},1651486795,0
{consumergroup=__strimzi-topic-operator-kstreams},1651486800,0
{consumergroup=__strimzi-topic-operator-kstreams},1651486805,0
{consumergroup=__strimzi-topic-operator-kstreams},1651486810,0
{consumergroup=__strimzi-topic-operator-kstreams},1651486815,0
{consumergroup=__strimzi-topic-operator-kstreams},1651486820,0
{consumergroup=__strimzi-topic-operator-kstreams},1651486825,0
{consumergroup=__strimzi-topic-operator-kstreams},1651486830,0
{consumergroup=__strimzi-topic-operator-kstreams},1651486835,0
{consumergroup=__strimzi-topic-operator-kstreams},1651486840,0
{consumergroup=__strimzi-topic-operator-kstreams},1651486845,0
{consumergroup=__strimzi-topic-operator-kstreams},1651486850,0
{consumergroup=__strimzi-topic-operator-kstreams},1651486855,0
{consumergroup=__strimzi-topic-operator-kstreams},1651486860,0
{consumergroup=__strimzi-topic-operator-kstreams},1651486865,0
{consumergroup=__strimzi-topic-operator-kstreams},1651486870,0
{consumergroup=__strimzi-topic-operator-kstreams},1651486875,0
{consumergroup=__strimzi-topic-operator-kstreams},1651486880,0
{consumergroup=__strimzi-topic-operator-kstreams},1651486885,0
{consumergroup=__strimzi-topic-operator-kstreams},1651486890,0
{consumergroup=__strimzi-topic-operator-kstreams},1651486895,0
{consumergroup=__strimzi-topic-operator-kstreams},1651486900,0
{consumergroup=__strimzi-topic-operator-kstreams},1651486905,0
{consumergroup=__strimzi-topic-operator-kstreams},1651486910,0
{consumergroup=__strimzi-topic-operator-kstreams},1651486915,0
{consumergroup=__strimzi-topic-operator-kstreams},1651486920,0
{consumergroup=__strimzi-topic-operator-kstreams},1651486925,0
{consumergroup=__strimzi-topic-operator-kstreams},1651486930,0
{consumergroup=__strimzi-topic-operator-kstreams},1651486935,0
{consumergroup=__strimzi-topic-operator-kstreams},1651486940,0
{consumergroup=__strimzi-topic-operator-kstreams},1651486945,0
{consumergroup=__strimzi-topic-operator-kstreams},1651486950,0
{consumergroup=__strimzi-topic-operator-kstreams},1651486955,0
{consumergroup=trace-service},1651486565,31094
{consumergroup=trace-service},1651486570,31094
{consumergroup=trace-service},1651486575,31094
{consumergroup=trace-service},1651486580,85300
{consumergroup=trace-service},1651486585,85300
{consumergroup=trace-service},1651486590,85300
{consumergroup=trace-service},1651486595,42142
{consumergroup=trace-service},1651486600,42142
{consumergroup=trace-service},1651486605,42142
{consumergroup=trace-service},1651486610,70617
{consumergroup=trace-service},1651486615,70617
{consumergroup=trace-service},1651486620,70617
{consumergroup=trace-service},1651486625,13844
{consumergroup=trace-service},1651486630,13844
{consumergroup=trace-service},1651486635,13844
{consumergroup=trace-service},1651486640,71480
{consumergroup=trace-service},1651486645,71480
{consumergroup=trace-service},1651486650,71480
{consumergroup=trace-service},1651486655,39263
{consumergroup=trace-service},1651486660,39263
{consumergroup=trace-service},1651486665,39263
{consumergroup=trace-service},1651486670,75580
{consumergroup=trace-service},1651486675,75580
{consumergroup=trace-service},1651486680,75580
{consumergroup=trace-service},1651486685,34338
{consumergroup=trace-service},1651486690,34338
{consumergroup=trace-service},1651486695,34338
{consumergroup=trace-service},1651486700,82511
{consumergroup=trace-service},1651486705,82511
{consumergroup=trace-service},1651486710,82511
{consumergroup=trace-service},1651486715,26820
{consumergroup=trace-service},1651486720,26820
{consumergroup=trace-service},1651486725,26820
{consumergroup=trace-service},1651486730,71338
{consumergroup=trace-service},1651486735,71338
{consumergroup=trace-service},1651486740,71338
{consumergroup=trace-service},1651486745,22595
{consumergroup=trace-service},1651486750,22595
{consumergroup=trace-service},1651486755,22595
{consumergroup=trace-service},1651486760,80114
{consumergroup=trace-service},1651486765,80114
{consumergroup=trace-service},1651486770,80114
{consumergroup=trace-service},1651486775,21305
{consumergroup=trace-service},1651486780,21305
{consumergroup=trace-service},1651486785,21305
{consumergroup=trace-service},1651486790,65153
{consumergroup=trace-service},1651486795,65153
{consumergroup=trace-service},1651486800,65153
{consumergroup=trace-service},1651486805,19563
{consumergroup=trace-service},1651486810,19563
{consumergroup=trace-service},1651486815,19563
{consumergroup=trace-service},1651486820,72778
{consumergroup=trace-service},1651486825,72778
{consumergroup=trace-service},1651486830,72778
{consumergroup=trace-service},1651486835,117843
{consumergroup=trace-service},1651486840,117843
{consumergroup=trace-service},1651486845,117843
{consumergroup=trace-service},1651486850,93000
{consumergroup=trace-service},1651486855,93000
{consumergroup=trace-service},1651486860,93000
{consumergroup=trace-service},1651486865,37197
{consumergroup=trace-service},1651486870,37197
{consumergroup=trace-service},1651486875,37197
{consumergroup=trace-service},1651486880,77142
{consumergroup=trace-service},1651486885,77142
{consumergroup=trace-service},1651486890,77142
{consumergroup=trace-service},1651486895,28647
{consumergroup=trace-service},1651486900,28647
{consumergroup=trace-service},1651486905,28647
{consumergroup=trace-service},1651486910,76160
{consumergroup=trace-service},1651486915,76160
{consumergroup=trace-service},1651486920,76160
{consumergroup=trace-service},1651486925,33744
{consumergroup=trace-service},1651486930,33744
{consumergroup=trace-service},1651486935,33744
{consumergroup=trace-service},1651486940,73632
{consumergroup=trace-service},1651486945,73632
{consumergroup=trace-service},1651486950,73632
{consumergroup=trace-service},1651486955,29883
{consumergroup=trace-token-events-consumer},1651486550,0
{consumergroup=trace-token-events-consumer},1651486555,0
{consumergroup=trace-token-events-consumer},1651486560,0
{consumergroup=trace-token-events-consumer},1651486565,0
{consumergroup=trace-token-events-consumer},1651486570,0
{consumergroup=trace-token-events-consumer},1651486575,0
{consumergroup=trace-token-events-consumer},1651486580,0
{consumergroup=trace-token-events-consumer},1651486585,0
{consumergroup=trace-token-events-consumer},1651486590,0
{consumergroup=trace-token-events-consumer},1651486595,0
{consumergroup=trace-token-events-consumer},1651486600,0
{consumergroup=trace-token-events-consumer},1651486605,0
{consumergroup=trace-token-events-consumer},1651486610,0
{consumergroup=trace-token-events-consumer},1651486615,0
{consumergroup=trace-token-events-consumer},1651486620,0
{consumergroup=trace-token-events-consumer},1651486625,0
{consumergroup=trace-token-events-consumer},1651486630,0
{consumergroup=trace-token-events-consumer},1651486635,0
{consumergroup=trace-token-events-consumer},1651486640,0
{consumergroup=trace-token-events-consumer},1651486645,0
{consumergroup=trace-token-events-consumer},1651486650,0
{consumergroup=trace-token-events-consumer},1651486655,0
{consumergroup=trace-token-events-consumer},1651486660,0
{consumergroup=trace-token-events-consumer},1651486665,0
{consumergroup=trace-token-events-consumer},1651486670,0
{consumergroup=trace-token-events-consumer},1651486675,0
{consumergroup=trace-token-events-consumer},1651486680,0
{consumergroup=trace-token-events-consumer},1651486685,0
{consumergroup=trace-token-events-consumer},1651486690,0
{consumergroup=trace-token-events-consumer},1651486695,0
{consumergroup=trace-token-events-consumer},1651486700,0
{consumergroup=trace-token-events-consumer},1651486705,0
{consumergroup=trace-token-events-consumer},1651486710,0
{consumergroup=trace-token-events-consumer},1651486715,0
{consumergroup=trace-token-events-consumer},1651486720,0
{consumergroup=trace-token-events-consumer},1651486725,0
{consumergroup=trace-token-events-consumer},1651486730,0
{consumergroup=trace-token-events-consumer},1651486735,0
{consumergroup=trace-token-events-consumer},1651486740,0
{consumergroup=trace-token-events-consumer},1651486745,0
{consumergroup=trace-token-events-consumer},1651486750,0
{consumergroup=trace-token-events-consumer},1651486755,0
{consumergroup=trace-token-events-consumer},1651486760,0
{consumergroup=trace-token-events-consumer},1651486765,0
{consumergroup=trace-token-events-consumer},1651486770,0
{consumergroup=trace-token-events-consumer},1651486775,0
{consumergroup=trace-token-events-consumer},1651486780,0
{consumergroup=trace-token-events-consumer},1651486785,0
{consumergroup=trace-token-events-consumer},1651486790,0
{consumergroup=trace-token-events-consumer},1651486795,0
{consumergroup=trace-token-events-consumer},1651486800,0
{consumergroup=trace-token-events-consumer},1651486805,0
{consumergroup=trace-token-events-consumer},1651486810,0
{consumergroup=trace-token-events-consumer},1651486815,0
{consumergroup=trace-token-events-consumer},1651486820,0
{consumergroup=trace-token-events-consumer},1651486825,0
{consumergroup=trace-token-events-consumer},1651486830,0
{consumergroup=trace-token-events-consumer},1651486835,0
{consumergroup=trace-token-events-consumer},1651486840,0
{consumergroup=trace-token-events-consumer},1651486845,0
{consumergroup=trace-token-events-consumer},1651486850,0
{consumergroup=trace-token-events-consumer},1651486855,0
{consumergroup=trace-token-events-consumer},1651486860,0
{consumergroup=trace-token-events-consumer},1651486865,0
{consumergroup=trace-token-events-consumer},1651486870,0
{consumergroup=trace-token-events-consumer},1651486875,0
{consumergroup=trace-token-events-consumer},1651486880,0
{consumergroup=trace-token-events-consumer},1651486885,0
{consumergroup=trace-token-events-consumer},1651486890,0
{consumergroup=trace-token-events-consumer},1651486895,0
{consumergroup=trace-token-events-consumer},1651486900,0
{consumergroup=trace-token-events-consumer},1651486905,0
{consumergroup=trace-token-events-consumer},1651486910,0
{consumergroup=trace-token-events-consumer},1651486915,0
{consumergroup=trace-token-events-consumer},1651486920,0
{consumergroup=trace-token-events-consumer},1651486925,0
{consumergroup=trace-token-events-consumer},1651486930,0
{consumergroup=trace-token-events-consumer},1651486935,0
{consumergroup=trace-token-events-consumer},1651486940,0
{consumergroup=trace-token-events-consumer},1651486945,0
{consumergroup=trace-token-events-consumer},1651486950,0
{consumergroup=trace-token-events-consumer},1651486955,0
