labels,timestamp,value
{job=theodolite-stu200776/trace-isolated-podmonitor},1651483519,0.021093041405640278
{job=theodolite-stu200776/trace-isolated-podmonitor},1651483524,0.6154378633921144
{job=theodolite-stu200776/trace-isolated-podmonitor},1651483529,1.063887121963925
{job=theodolite-stu200776/trace-isolated-podmonitor},1651483534,1.8422376284397057
{job=theodolite-stu200776/trace-isolated-podmonitor},1651483539,367.04136831637004
{job=theodolite-stu200776/trace-isolated-podmonitor},1651483544,1278.445656169211
{job=theodolite-stu200776/trace-isolated-podmonitor},1651483549,1351.6711872806309
{job=theodolite-stu200776/trace-isolated-podmonitor},1651483554,1492.1897674158122
{job=theodolite-stu200776/trace-isolated-podmonitor},1651483559,1621.708563129456
{job=theodolite-stu200776/trace-isolated-podmonitor},1651483564,1562.5751942491659
{job=theodolite-stu200776/trace-isolated-podmonitor},1651483569,1524.210365205492
{job=theodolite-stu200776/trace-isolated-podmonitor},1651483574,1503.647753924838
{job=theodolite-stu200776/trace-isolated-podmonitor},1651483579,1373.452031245764
{job=theodolite-stu200776/trace-isolated-podmonitor},1651483584,875.7420810795697
{job=theodolite-stu200776/trace-isolated-podmonitor},1651483589,575.2166275947526
{job=theodolite-stu200776/trace-isolated-podmonitor},1651483594,313.98557081385917
{job=theodolite-stu200776/trace-isolated-podmonitor},1651483599,214.65857620845355
{job=theodolite-stu200776/trace-isolated-podmonitor},1651483604,0
{job=theodolite-stu200776/trace-isolated-podmonitor},1651483609,0
{job=theodolite-stu200776/trace-isolated-podmonitor},1651483614,0
{job=theodolite-stu200776/trace-isolated-podmonitor},1651483619,0
{job=theodolite-stu200776/trace-isolated-podmonitor},1651483624,0
{job=theodolite-stu200776/trace-isolated-podmonitor},1651483629,0
{job=theodolite-stu200776/trace-isolated-podmonitor},1651483634,0
{job=theodolite-stu200776/trace-isolated-podmonitor},1651483639,0
{job=theodolite-stu200776/trace-isolated-podmonitor},1651483644,0
{job=theodolite-stu200776/trace-isolated-podmonitor},1651483649,0
{job=theodolite-stu200776/trace-isolated-podmonitor},1651483654,0
{job=theodolite-stu200776/trace-isolated-podmonitor},1651483659,0
{job=theodolite-stu200776/trace-isolated-podmonitor},1651483664,0
{job=theodolite-stu200776/trace-isolated-podmonitor},1651483669,0
{job=theodolite-stu200776/trace-isolated-podmonitor},1651483674,0
{job=theodolite-stu200776/trace-isolated-podmonitor},1651483679,0
{job=theodolite-stu200776/trace-isolated-podmonitor},1651483684,0
{job=theodolite-stu200776/trace-isolated-podmonitor},1651483689,0
{job=theodolite-stu200776/trace-isolated-podmonitor},1651483694,0
{job=theodolite-stu200776/trace-isolated-podmonitor},1651483699,0
{job=theodolite-stu200776/trace-isolated-podmonitor},1651483704,0
{job=theodolite-stu200776/trace-isolated-podmonitor},1651483709,0
{job=theodolite-stu200776/trace-isolated-podmonitor},1651483714,0
{job=theodolite-stu200776/trace-isolated-podmonitor},1651483719,0
{job=theodolite-stu200776/trace-isolated-podmonitor},1651483724,0
{job=theodolite-stu200776/trace-isolated-podmonitor},1651483729,0
{job=theodolite-stu200776/trace-isolated-podmonitor},1651483734,0
{job=theodolite-stu200776/trace-isolated-podmonitor},1651483739,0
{job=theodolite-stu200776/trace-isolated-podmonitor},1651483744,0
{job=theodolite-stu200776/trace-isolated-podmonitor},1651483749,0
{job=theodolite-stu200776/trace-isolated-podmonitor},1651483754,0
{job=theodolite-stu200776/trace-isolated-podmonitor},1651483759,0
{job=theodolite-stu200776/trace-isolated-podmonitor},1651483764,0
{job=theodolite-stu200776/trace-isolated-podmonitor},1651483769,0
{job=theodolite-stu200776/trace-isolated-podmonitor},1651483774,0
{job=theodolite-stu200776/trace-isolated-podmonitor},1651483779,0
{job=theodolite-stu200776/trace-isolated-podmonitor},1651483784,0
{job=theodolite-stu200776/trace-isolated-podmonitor},1651483789,0
{job=theodolite-stu200776/trace-isolated-podmonitor},1651483794,0
{job=theodolite-stu200776/trace-isolated-podmonitor},1651483799,0
{job=theodolite-stu200776/trace-isolated-podmonitor},1651483804,124.77322408918751
{job=theodolite-stu200776/trace-isolated-podmonitor},1651483809,235.34671056730406
{job=theodolite-stu200776/trace-isolated-podmonitor},1651483814,264.1877725901776
{job=theodolite-stu200776/trace-isolated-podmonitor},1651483819,250.21352615725857
{job=theodolite-stu200776/trace-isolated-podmonitor},1651483824,365.4182618966947
{job=theodolite-stu200776/trace-isolated-podmonitor},1651483829,419.2520956757284
{job=theodolite-stu200776/trace-isolated-podmonitor},1651483834,392.117399237798
{job=theodolite-stu200776/trace-isolated-podmonitor},1651483839,359.8417593843684
{job=theodolite-stu200776/trace-isolated-podmonitor},1651483844,281.50043529390047
{job=theodolite-stu200776/trace-isolated-podmonitor},1651483849,254.94951512322135
{job=theodolite-stu200776/trace-isolated-podmonitor},1651483854,234.37777364262848
{job=theodolite-stu200776/trace-isolated-podmonitor},1651483859,168.1887737596364
{job=theodolite-stu200776/trace-isolated-podmonitor},1651483864,114.61963758634829
{job=theodolite-stu200776/trace-isolated-podmonitor},1651483869,89.20212366921777
{job=theodolite-stu200776/trace-isolated-podmonitor},1651483874,73.45621329153181
{job=theodolite-stu200776/trace-isolated-podmonitor},1651483879,73.45621329153181
{job=theodolite-stu200776/trace-isolated-podmonitor},1651483884,0
{job=theodolite-stu200776/trace-isolated-podmonitor},1651483889,0
