labels,timestamp,value
{consumergroup=__strimzi-topic-operator-kstreams},1651454603,14
{consumergroup=__strimzi-topic-operator-kstreams},1651454608,14
{consumergroup=__strimzi-topic-operator-kstreams},1651454613,14
{consumergroup=__strimzi-topic-operator-kstreams},1651454618,0
{consumergroup=__strimzi-topic-operator-kstreams},1651454623,0
{consumergroup=__strimzi-topic-operator-kstreams},1651454628,0
{consumergroup=__strimzi-topic-operator-kstreams},1651454633,0
{consumergroup=__strimzi-topic-operator-kstreams},1651454638,0
{consumergroup=__strimzi-topic-operator-kstreams},1651454643,0
{consumergroup=__strimzi-topic-operator-kstreams},1651454648,0
{consumergroup=__strimzi-topic-operator-kstreams},1651454653,0
{consumergroup=__strimzi-topic-operator-kstreams},1651454658,0
{consumergroup=__strimzi-topic-operator-kstreams},1651454663,0
{consumergroup=__strimzi-topic-operator-kstreams},1651454668,0
{consumergroup=__strimzi-topic-operator-kstreams},1651454673,0
{consumergroup=__strimzi-topic-operator-kstreams},1651454678,0
{consumergroup=__strimzi-topic-operator-kstreams},1651454683,0
{consumergroup=__strimzi-topic-operator-kstreams},1651454688,0
{consumergroup=__strimzi-topic-operator-kstreams},1651454693,0
{consumergroup=__strimzi-topic-operator-kstreams},1651454698,0
{consumergroup=__strimzi-topic-operator-kstreams},1651454703,0
{consumergroup=__strimzi-topic-operator-kstreams},1651454708,0
{consumergroup=__strimzi-topic-operator-kstreams},1651454713,0
{consumergroup=__strimzi-topic-operator-kstreams},1651454718,0
{consumergroup=__strimzi-topic-operator-kstreams},1651454723,0
{consumergroup=__strimzi-topic-operator-kstreams},1651454728,0
{consumergroup=__strimzi-topic-operator-kstreams},1651454733,0
{consumergroup=__strimzi-topic-operator-kstreams},1651454738,0
{consumergroup=__strimzi-topic-operator-kstreams},1651454743,0
{consumergroup=__strimzi-topic-operator-kstreams},1651454748,0
{consumergroup=__strimzi-topic-operator-kstreams},1651454753,0
{consumergroup=__strimzi-topic-operator-kstreams},1651454758,0
{consumergroup=__strimzi-topic-operator-kstreams},1651454763,0
{consumergroup=__strimzi-topic-operator-kstreams},1651454768,0
{consumergroup=__strimzi-topic-operator-kstreams},1651454773,0
{consumergroup=__strimzi-topic-operator-kstreams},1651454778,0
{consumergroup=__strimzi-topic-operator-kstreams},1651454783,0
{consumergroup=__strimzi-topic-operator-kstreams},1651454788,0
{consumergroup=__strimzi-topic-operator-kstreams},1651454793,0
{consumergroup=__strimzi-topic-operator-kstreams},1651454798,0
{consumergroup=__strimzi-topic-operator-kstreams},1651454803,0
{consumergroup=__strimzi-topic-operator-kstreams},1651454808,0
{consumergroup=__strimzi-topic-operator-kstreams},1651454813,0
{consumergroup=__strimzi-topic-operator-kstreams},1651454818,0
{consumergroup=__strimzi-topic-operator-kstreams},1651454823,0
{consumergroup=__strimzi-topic-operator-kstreams},1651454828,0
{consumergroup=__strimzi-topic-operator-kstreams},1651454833,0
{consumergroup=__strimzi-topic-operator-kstreams},1651454838,0
{consumergroup=__strimzi-topic-operator-kstreams},1651454843,0
{consumergroup=__strimzi-topic-operator-kstreams},1651454848,0
{consumergroup=__strimzi-topic-operator-kstreams},1651454853,0
{consumergroup=__strimzi-topic-operator-kstreams},1651454858,0
{consumergroup=adapter-service},1651454633,22897
{consumergroup=adapter-service},1651454638,22897
{consumergroup=adapter-service},1651454643,22897
{consumergroup=adapter-service},1651454648,258521
{consumergroup=adapter-service},1651454653,258521
{consumergroup=adapter-service},1651454658,258521
{consumergroup=adapter-service},1651454663,422372
{consumergroup=adapter-service},1651454668,422372
{consumergroup=adapter-service},1651454673,422372
{consumergroup=adapter-service},1651454678,556863
{consumergroup=adapter-service},1651454683,556863
{consumergroup=adapter-service},1651454688,556863
{consumergroup=adapter-service},1651454693,668422
{consumergroup=adapter-service},1651454698,668422
{consumergroup=adapter-service},1651454703,668422
{consumergroup=adapter-service},1651454708,754582
{consumergroup=adapter-service},1651454713,754582
{consumergroup=adapter-service},1651454718,754582
{consumergroup=adapter-service},1651454723,790439
{consumergroup=adapter-service},1651454728,790439
{consumergroup=adapter-service},1651454733,790439
{consumergroup=adapter-service},1651454738,804492
{consumergroup=adapter-service},1651454743,804492
{consumergroup=adapter-service},1651454748,804492
{consumergroup=adapter-service},1651454753,777226
{consumergroup=adapter-service},1651454758,777226
{consumergroup=adapter-service},1651454763,777226
{consumergroup=adapter-service},1651454768,769117
{consumergroup=adapter-service},1651454773,769117
{consumergroup=adapter-service},1651454778,769117
{consumergroup=adapter-service},1651454783,762214
{consumergroup=adapter-service},1651454788,762214
{consumergroup=adapter-service},1651454793,762214
{consumergroup=adapter-service},1651454798,732388
{consumergroup=adapter-service},1651454803,732388
{consumergroup=adapter-service},1651454808,732388
{consumergroup=adapter-service},1651454813,712776
{consumergroup=adapter-service},1651454818,712776
{consumergroup=adapter-service},1651454823,712776
{consumergroup=adapter-service},1651454828,682666
{consumergroup=adapter-service},1651454833,682666
{consumergroup=adapter-service},1651454838,682666
{consumergroup=adapter-service},1651454843,655164
{consumergroup=adapter-service},1651454848,655164
{consumergroup=adapter-service},1651454853,655164
{consumergroup=adapter-service},1651454858,625522
