labels,timestamp,value
{consumergroup=__strimzi-topic-operator-kstreams},1651532704,8
{consumergroup=__strimzi-topic-operator-kstreams},1651532709,8
{consumergroup=__strimzi-topic-operator-kstreams},1651532714,8
{consumergroup=__strimzi-topic-operator-kstreams},1651532719,8
{consumergroup=__strimzi-topic-operator-kstreams},1651532724,8
{consumergroup=__strimzi-topic-operator-kstreams},1651532729,8
{consumergroup=__strimzi-topic-operator-kstreams},1651532734,0
{consumergroup=__strimzi-topic-operator-kstreams},1651532739,0
{consumergroup=__strimzi-topic-operator-kstreams},1651532744,0
{consumergroup=__strimzi-topic-operator-kstreams},1651532749,0
{consumergroup=__strimzi-topic-operator-kstreams},1651532754,0
{consumergroup=__strimzi-topic-operator-kstreams},1651532759,0
{consumergroup=__strimzi-topic-operator-kstreams},1651532764,0
{consumergroup=__strimzi-topic-operator-kstreams},1651532769,0
{consumergroup=__strimzi-topic-operator-kstreams},1651532774,0
{consumergroup=__strimzi-topic-operator-kstreams},1651532779,0
{consumergroup=__strimzi-topic-operator-kstreams},1651532784,0
{consumergroup=__strimzi-topic-operator-kstreams},1651532789,0
{consumergroup=__strimzi-topic-operator-kstreams},1651532794,0
{consumergroup=__strimzi-topic-operator-kstreams},1651532799,0
{consumergroup=__strimzi-topic-operator-kstreams},1651532804,0
{consumergroup=__strimzi-topic-operator-kstreams},1651532809,0
{consumergroup=__strimzi-topic-operator-kstreams},1651532814,0
{consumergroup=__strimzi-topic-operator-kstreams},1651532819,0
{consumergroup=__strimzi-topic-operator-kstreams},1651532824,1
{consumergroup=__strimzi-topic-operator-kstreams},1651532829,1
{consumergroup=__strimzi-topic-operator-kstreams},1651532834,1
{consumergroup=__strimzi-topic-operator-kstreams},1651532839,1
{consumergroup=__strimzi-topic-operator-kstreams},1651532844,1
{consumergroup=__strimzi-topic-operator-kstreams},1651532849,1
{consumergroup=__strimzi-topic-operator-kstreams},1651532854,0
{consumergroup=__strimzi-topic-operator-kstreams},1651532859,0
{consumergroup=__strimzi-topic-operator-kstreams},1651532864,0
{consumergroup=__strimzi-topic-operator-kstreams},1651532869,0
{consumergroup=__strimzi-topic-operator-kstreams},1651532874,0
{consumergroup=__strimzi-topic-operator-kstreams},1651532879,0
{consumergroup=__strimzi-topic-operator-kstreams},1651532884,0
{consumergroup=__strimzi-topic-operator-kstreams},1651532889,0
{consumergroup=__strimzi-topic-operator-kstreams},1651532894,0
{consumergroup=__strimzi-topic-operator-kstreams},1651532899,0
{consumergroup=__strimzi-topic-operator-kstreams},1651532904,0
{consumergroup=__strimzi-topic-operator-kstreams},1651532909,0
{consumergroup=__strimzi-topic-operator-kstreams},1651532914,0
{consumergroup=__strimzi-topic-operator-kstreams},1651532919,0
{consumergroup=__strimzi-topic-operator-kstreams},1651532924,0
{consumergroup=__strimzi-topic-operator-kstreams},1651532929,0
{consumergroup=__strimzi-topic-operator-kstreams},1651532934,0
{consumergroup=__strimzi-topic-operator-kstreams},1651532939,0
{consumergroup=__strimzi-topic-operator-kstreams},1651532944,0
{consumergroup=__strimzi-topic-operator-kstreams},1651532949,0
{consumergroup=__strimzi-topic-operator-kstreams},1651532954,0
{consumergroup=__strimzi-topic-operator-kstreams},1651532959,0
{consumergroup=__strimzi-topic-operator-kstreams},1651532964,0
{consumergroup=__strimzi-topic-operator-kstreams},1651532969,0
{consumergroup=__strimzi-topic-operator-kstreams},1651532974,0
{consumergroup=__strimzi-topic-operator-kstreams},1651532979,0
{consumergroup=__strimzi-topic-operator-kstreams},1651532984,0
{consumergroup=__strimzi-topic-operator-kstreams},1651532989,0
{consumergroup=__strimzi-topic-operator-kstreams},1651532994,0
{consumergroup=__strimzi-topic-operator-kstreams},1651532999,0
{consumergroup=__strimzi-topic-operator-kstreams},1651533004,0
{consumergroup=__strimzi-topic-operator-kstreams},1651533009,0
{consumergroup=__strimzi-topic-operator-kstreams},1651533014,0
{consumergroup=__strimzi-topic-operator-kstreams},1651533019,0
{consumergroup=__strimzi-topic-operator-kstreams},1651533024,0
{consumergroup=__strimzi-topic-operator-kstreams},1651533029,0
{consumergroup=__strimzi-topic-operator-kstreams},1651533034,0
{consumergroup=__strimzi-topic-operator-kstreams},1651533039,0
{consumergroup=__strimzi-topic-operator-kstreams},1651533044,0
{consumergroup=__strimzi-topic-operator-kstreams},1651533049,0
{consumergroup=__strimzi-topic-operator-kstreams},1651533054,0
{consumergroup=__strimzi-topic-operator-kstreams},1651533059,0
{consumergroup=__strimzi-topic-operator-kstreams},1651533064,0
{consumergroup=__strimzi-topic-operator-kstreams},1651533069,0
{consumergroup=__strimzi-topic-operator-kstreams},1651533074,0
{consumergroup=__strimzi-topic-operator-kstreams},1651533079,0
{consumergroup=__strimzi-topic-operator-kstreams},1651533084,0
{consumergroup=__strimzi-topic-operator-kstreams},1651533089,0
{consumergroup=__strimzi-topic-operator-kstreams},1651533094,0
{consumergroup=__strimzi-topic-operator-kstreams},1651533099,0
{consumergroup=__strimzi-topic-operator-kstreams},1651533104,0
{consumergroup=__strimzi-topic-operator-kstreams},1651533109,0
{consumergroup=__strimzi-topic-operator-kstreams},1651533114,0
{consumergroup=__strimzi-topic-operator-kstreams},1651533119,0
{consumergroup=__strimzi-topic-operator-kstreams},1651533124,0
{consumergroup=__strimzi-topic-operator-kstreams},1651533129,0
{consumergroup=__strimzi-topic-operator-kstreams},1651533134,0
{consumergroup=__strimzi-topic-operator-kstreams},1651533139,0
{consumergroup=adapter-service},1651532734,0
{consumergroup=adapter-service},1651532739,0
{consumergroup=adapter-service},1651532744,0
{consumergroup=adapter-service},1651532749,2829
{consumergroup=adapter-service},1651532754,2829
{consumergroup=adapter-service},1651532759,2829
{consumergroup=adapter-service},1651532764,3904
{consumergroup=adapter-service},1651532769,3904
{consumergroup=adapter-service},1651532774,3904
{consumergroup=adapter-service},1651532779,3249
{consumergroup=adapter-service},1651532784,3249
{consumergroup=adapter-service},1651532789,3249
{consumergroup=adapter-service},1651532794,4262
{consumergroup=adapter-service},1651532799,4262
{consumergroup=adapter-service},1651532804,4262
{consumergroup=adapter-service},1651532809,2473
{consumergroup=adapter-service},1651532814,2473
{consumergroup=adapter-service},1651532819,2473
{consumergroup=adapter-service},1651532824,1996
{consumergroup=adapter-service},1651532829,1996
{consumergroup=adapter-service},1651532834,1996
{consumergroup=adapter-service},1651532839,1886
{consumergroup=adapter-service},1651532844,1886
{consumergroup=adapter-service},1651532849,1886
{consumergroup=adapter-service},1651532854,3450
{consumergroup=adapter-service},1651532859,3450
{consumergroup=adapter-service},1651532864,3450
{consumergroup=adapter-service},1651532869,1590
{consumergroup=adapter-service},1651532874,1590
{consumergroup=adapter-service},1651532879,1590
{consumergroup=adapter-service},1651532884,1398
{consumergroup=adapter-service},1651532889,1398
{consumergroup=adapter-service},1651532894,1398
{consumergroup=adapter-service},1651532899,1430
{consumergroup=adapter-service},1651532904,1430
{consumergroup=adapter-service},1651532909,1430
{consumergroup=adapter-service},1651532914,1323
{consumergroup=adapter-service},1651532919,1323
{consumergroup=adapter-service},1651532924,1323
{consumergroup=adapter-service},1651532929,1121
{consumergroup=adapter-service},1651532934,1121
{consumergroup=adapter-service},1651532939,1121
{consumergroup=adapter-service},1651532944,6184
{consumergroup=adapter-service},1651532949,6184
{consumergroup=adapter-service},1651532954,6184
{consumergroup=adapter-service},1651532959,6061
{consumergroup=adapter-service},1651532964,6061
{consumergroup=adapter-service},1651532969,6061
{consumergroup=adapter-service},1651532974,6321
{consumergroup=adapter-service},1651532979,6321
{consumergroup=adapter-service},1651532984,6321
{consumergroup=adapter-service},1651532989,5832
{consumergroup=adapter-service},1651532994,5832
{consumergroup=adapter-service},1651532999,5832
{consumergroup=adapter-service},1651533004,3125
{consumergroup=adapter-service},1651533009,3125
{consumergroup=adapter-service},1651533014,3125
{consumergroup=adapter-service},1651533019,9293
{consumergroup=adapter-service},1651533024,9293
{consumergroup=adapter-service},1651533029,9293
{consumergroup=adapter-service},1651533034,9241
{consumergroup=adapter-service},1651533039,9241
{consumergroup=adapter-service},1651533044,9241
{consumergroup=adapter-service},1651533049,9625
{consumergroup=adapter-service},1651533054,9625
{consumergroup=adapter-service},1651533059,9625
{consumergroup=adapter-service},1651533064,11491
{consumergroup=adapter-service},1651533069,11491
{consumergroup=adapter-service},1651533074,11491
{consumergroup=adapter-service},1651533079,11252
{consumergroup=adapter-service},1651533084,11252
{consumergroup=adapter-service},1651533089,11252
{consumergroup=adapter-service},1651533094,11056
{consumergroup=adapter-service},1651533099,11056
{consumergroup=adapter-service},1651533104,11056
{consumergroup=adapter-service},1651533109,12232
{consumergroup=adapter-service},1651533114,12232
{consumergroup=adapter-service},1651533119,12232
{consumergroup=adapter-service},1651533124,10907
{consumergroup=adapter-service},1651533129,10907
{consumergroup=adapter-service},1651533134,10907
{consumergroup=adapter-service},1651533139,13990
{consumergroup=landscape-service},1651532749,39238
{consumergroup=landscape-service},1651532754,39238
{consumergroup=landscape-service},1651532759,39238
{consumergroup=landscape-service},1651532764,32408
{consumergroup=landscape-service},1651532769,32408
{consumergroup=landscape-service},1651532774,32408
{consumergroup=landscape-service},1651532779,10728
{consumergroup=landscape-service},1651532784,10728
{consumergroup=landscape-service},1651532789,10728
{consumergroup=landscape-service},1651532794,13068
{consumergroup=landscape-service},1651532799,13068
{consumergroup=landscape-service},1651532804,13068
{consumergroup=landscape-service},1651532809,9146
{consumergroup=landscape-service},1651532814,9146
{consumergroup=landscape-service},1651532819,9146
{consumergroup=landscape-service},1651532824,8691
{consumergroup=landscape-service},1651532829,8691
{consumergroup=landscape-service},1651532834,8691
{consumergroup=landscape-service},1651532839,8962
{consumergroup=landscape-service},1651532844,8962
{consumergroup=landscape-service},1651532849,8962
{consumergroup=landscape-service},1651532854,11537
{consumergroup=landscape-service},1651532859,11537
{consumergroup=landscape-service},1651532864,11537
{consumergroup=landscape-service},1651532869,7133
{consumergroup=landscape-service},1651532874,7133
{consumergroup=landscape-service},1651532879,7133
{consumergroup=landscape-service},1651532884,6610
{consumergroup=landscape-service},1651532889,6610
{consumergroup=landscape-service},1651532894,6610
{consumergroup=landscape-service},1651532899,6195
{consumergroup=landscape-service},1651532904,6195
{consumergroup=landscape-service},1651532909,6195
{consumergroup=landscape-service},1651532914,5968
{consumergroup=landscape-service},1651532919,5968
{consumergroup=landscape-service},1651532924,5968
{consumergroup=landscape-service},1651532929,5938
{consumergroup=landscape-service},1651532934,5938
{consumergroup=landscape-service},1651532939,5938
{consumergroup=landscape-service},1651532944,5496
{consumergroup=landscape-service},1651532949,5496
{consumergroup=landscape-service},1651532954,5496
{consumergroup=landscape-service},1651532959,4961
{consumergroup=landscape-service},1651532964,4961
{consumergroup=landscape-service},1651532969,4961
{consumergroup=landscape-service},1651532974,4009
{consumergroup=landscape-service},1651532979,4009
{consumergroup=landscape-service},1651532984,4009
{consumergroup=landscape-service},1651532989,3284
{consumergroup=landscape-service},1651532994,3284
{consumergroup=landscape-service},1651532999,3284
{consumergroup=landscape-service},1651533004,6750
{consumergroup=landscape-service},1651533009,6750
{consumergroup=landscape-service},1651533014,6750
{consumergroup=landscape-service},1651533019,2581
{consumergroup=landscape-service},1651533024,2581
{consumergroup=landscape-service},1651533029,2581
{consumergroup=landscape-service},1651533034,2680
{consumergroup=landscape-service},1651533039,2680
{consumergroup=landscape-service},1651533044,2680
{consumergroup=landscape-service},1651533049,1570
{consumergroup=landscape-service},1651533054,1570
{consumergroup=landscape-service},1651533059,1570
{consumergroup=landscape-service},1651533064,1710
{consumergroup=landscape-service},1651533069,1710
{consumergroup=landscape-service},1651533074,1710
{consumergroup=landscape-service},1651533079,1325
{consumergroup=landscape-service},1651533084,1325
{consumergroup=landscape-service},1651533089,1325
{consumergroup=landscape-service},1651533109,15257
{consumergroup=landscape-service},1651533114,15257
{consumergroup=landscape-service},1651533119,15257
{consumergroup=landscape-service},1651533124,15685
{consumergroup=landscape-service},1651533129,15685
{consumergroup=landscape-service},1651533134,15685
{consumergroup=landscape-service},1651533139,14333
{consumergroup=trace-service},1651532749,22825
{consumergroup=trace-service},1651532754,22825
{consumergroup=trace-service},1651532759,22825
{consumergroup=trace-service},1651532764,15989
{consumergroup=trace-service},1651532769,15989
{consumergroup=trace-service},1651532774,15989
{consumergroup=trace-service},1651532779,53805
{consumergroup=trace-service},1651532784,53805
{consumergroup=trace-service},1651532789,53805
{consumergroup=trace-service},1651532794,19151
{consumergroup=trace-service},1651532799,19151
{consumergroup=trace-service},1651532804,19151
{consumergroup=trace-service},1651532809,41338
{consumergroup=trace-service},1651532814,41338
{consumergroup=trace-service},1651532819,41338
{consumergroup=trace-service},1651532824,18673
{consumergroup=trace-service},1651532829,18673
{consumergroup=trace-service},1651532834,18673
{consumergroup=trace-service},1651532839,40954
{consumergroup=trace-service},1651532844,40954
{consumergroup=trace-service},1651532849,40954
{consumergroup=trace-service},1651532854,11924
{consumergroup=trace-service},1651532859,11924
{consumergroup=trace-service},1651532864,11924
{consumergroup=trace-service},1651532869,37470
{consumergroup=trace-service},1651532874,37470
{consumergroup=trace-service},1651532879,37470
{consumergroup=trace-service},1651532884,13399
{consumergroup=trace-service},1651532889,13399
{consumergroup=trace-service},1651532894,13399
{consumergroup=trace-service},1651532899,53632
{consumergroup=trace-service},1651532904,53632
{consumergroup=trace-service},1651532909,53632
{consumergroup=trace-service},1651532914,18302
{consumergroup=trace-service},1651532919,18302
{consumergroup=trace-service},1651532924,18302
{consumergroup=trace-service},1651532929,71993
{consumergroup=trace-service},1651532934,71993
{consumergroup=trace-service},1651532939,71993
{consumergroup=trace-service},1651532944,9488
{consumergroup=trace-service},1651532949,9488
{consumergroup=trace-service},1651532954,9488
{consumergroup=trace-service},1651532959,41590
{consumergroup=trace-service},1651532964,41590
{consumergroup=trace-service},1651532969,41590
{consumergroup=trace-service},1651532974,13286
{consumergroup=trace-service},1651532979,13286
{consumergroup=trace-service},1651532984,13286
{consumergroup=trace-service},1651532989,52685
{consumergroup=trace-service},1651532994,52685
{consumergroup=trace-service},1651532999,52685
{consumergroup=trace-service},1651533004,17507
{consumergroup=trace-service},1651533009,17507
{consumergroup=trace-service},1651533014,17507
{consumergroup=trace-service},1651533019,42530
{consumergroup=trace-service},1651533024,42530
{consumergroup=trace-service},1651533029,42530
{consumergroup=trace-service},1651533034,20023
{consumergroup=trace-service},1651533039,20023
{consumergroup=trace-service},1651533044,20023
{consumergroup=trace-service},1651533049,40451
{consumergroup=trace-service},1651533054,40451
{consumergroup=trace-service},1651533059,40451
{consumergroup=trace-service},1651533064,17473
{consumergroup=trace-service},1651533069,17473
{consumergroup=trace-service},1651533074,17473
{consumergroup=trace-service},1651533079,44532
{consumergroup=trace-service},1651533084,44532
{consumergroup=trace-service},1651533089,44532
{consumergroup=trace-service},1651533094,14222
{consumergroup=trace-service},1651533099,14222
{consumergroup=trace-service},1651533104,14222
{consumergroup=trace-service},1651533109,46602
{consumergroup=trace-service},1651533114,46602
{consumergroup=trace-service},1651533119,46602
{consumergroup=trace-service},1651533124,20239
{consumergroup=trace-service},1651533129,20239
{consumergroup=trace-service},1651533134,20239
{consumergroup=trace-service},1651533139,46838
{consumergroup=trace-token-events-consumer},1651532734,0
{consumergroup=trace-token-events-consumer},1651532739,0
{consumergroup=trace-token-events-consumer},1651532744,0
{consumergroup=trace-token-events-consumer},1651532749,0
{consumergroup=trace-token-events-consumer},1651532754,0
{consumergroup=trace-token-events-consumer},1651532759,0
{consumergroup=trace-token-events-consumer},1651532764,0
{consumergroup=trace-token-events-consumer},1651532769,0
{consumergroup=trace-token-events-consumer},1651532774,0
{consumergroup=trace-token-events-consumer},1651532779,0
{consumergroup=trace-token-events-consumer},1651532784,0
{consumergroup=trace-token-events-consumer},1651532789,0
{consumergroup=trace-token-events-consumer},1651532794,0
{consumergroup=trace-token-events-consumer},1651532799,0
{consumergroup=trace-token-events-consumer},1651532804,0
{consumergroup=trace-token-events-consumer},1651532809,0
{consumergroup=trace-token-events-consumer},1651532814,0
{consumergroup=trace-token-events-consumer},1651532819,0
{consumergroup=trace-token-events-consumer},1651532824,0
{consumergroup=trace-token-events-consumer},1651532829,0
{consumergroup=trace-token-events-consumer},1651532834,0
{consumergroup=trace-token-events-consumer},1651532839,0
{consumergroup=trace-token-events-consumer},1651532844,0
{consumergroup=trace-token-events-consumer},1651532849,0
{consumergroup=trace-token-events-consumer},1651532854,0
{consumergroup=trace-token-events-consumer},1651532859,0
{consumergroup=trace-token-events-consumer},1651532864,0
{consumergroup=trace-token-events-consumer},1651532869,0
{consumergroup=trace-token-events-consumer},1651532874,0
{consumergroup=trace-token-events-consumer},1651532879,0
{consumergroup=trace-token-events-consumer},1651532884,0
{consumergroup=trace-token-events-consumer},1651532889,0
{consumergroup=trace-token-events-consumer},1651532894,0
{consumergroup=trace-token-events-consumer},1651532899,0
{consumergroup=trace-token-events-consumer},1651532904,0
{consumergroup=trace-token-events-consumer},1651532909,0
{consumergroup=trace-token-events-consumer},1651532914,0
{consumergroup=trace-token-events-consumer},1651532919,0
{consumergroup=trace-token-events-consumer},1651532924,0
{consumergroup=trace-token-events-consumer},1651532929,0
{consumergroup=trace-token-events-consumer},1651532934,0
{consumergroup=trace-token-events-consumer},1651532939,0
{consumergroup=trace-token-events-consumer},1651532944,0
{consumergroup=trace-token-events-consumer},1651532949,0
{consumergroup=trace-token-events-consumer},1651532954,0
{consumergroup=trace-token-events-consumer},1651532959,0
{consumergroup=trace-token-events-consumer},1651532964,0
{consumergroup=trace-token-events-consumer},1651532969,0
{consumergroup=trace-token-events-consumer},1651532974,0
{consumergroup=trace-token-events-consumer},1651532979,0
{consumergroup=trace-token-events-consumer},1651532984,0
{consumergroup=trace-token-events-consumer},1651532989,0
{consumergroup=trace-token-events-consumer},1651532994,0
{consumergroup=trace-token-events-consumer},1651532999,0
{consumergroup=trace-token-events-consumer},1651533004,0
{consumergroup=trace-token-events-consumer},1651533009,0
{consumergroup=trace-token-events-consumer},1651533014,0
{consumergroup=trace-token-events-consumer},1651533019,0
{consumergroup=trace-token-events-consumer},1651533024,0
{consumergroup=trace-token-events-consumer},1651533029,0
{consumergroup=trace-token-events-consumer},1651533034,0
{consumergroup=trace-token-events-consumer},1651533039,0
{consumergroup=trace-token-events-consumer},1651533044,0
{consumergroup=trace-token-events-consumer},1651533049,0
{consumergroup=trace-token-events-consumer},1651533054,0
{consumergroup=trace-token-events-consumer},1651533059,0
{consumergroup=trace-token-events-consumer},1651533064,0
{consumergroup=trace-token-events-consumer},1651533069,0
{consumergroup=trace-token-events-consumer},1651533074,0
{consumergroup=trace-token-events-consumer},1651533079,0
{consumergroup=trace-token-events-consumer},1651533084,0
{consumergroup=trace-token-events-consumer},1651533089,0
{consumergroup=trace-token-events-consumer},1651533094,0
{consumergroup=trace-token-events-consumer},1651533099,0
{consumergroup=trace-token-events-consumer},1651533104,0
{consumergroup=trace-token-events-consumer},1651533109,0
{consumergroup=trace-token-events-consumer},1651533114,0
{consumergroup=trace-token-events-consumer},1651533119,0
{consumergroup=trace-token-events-consumer},1651533124,0
{consumergroup=trace-token-events-consumer},1651533129,0
{consumergroup=trace-token-events-consumer},1651533134,0
{consumergroup=trace-token-events-consumer},1651533139,0
