labels,timestamp,value
{consumergroup=__strimzi-topic-operator-kstreams},1651500315,9
{consumergroup=__strimzi-topic-operator-kstreams},1651500320,9
{consumergroup=__strimzi-topic-operator-kstreams},1651500325,9
{consumergroup=__strimzi-topic-operator-kstreams},1651500330,0
{consumergroup=__strimzi-topic-operator-kstreams},1651500335,0
{consumergroup=__strimzi-topic-operator-kstreams},1651500340,0
{consumergroup=__strimzi-topic-operator-kstreams},1651500345,0
{consumergroup=__strimzi-topic-operator-kstreams},1651500350,0
{consumergroup=__strimzi-topic-operator-kstreams},1651500355,0
{consumergroup=__strimzi-topic-operator-kstreams},1651500360,0
{consumergroup=__strimzi-topic-operator-kstreams},1651500365,0
{consumergroup=__strimzi-topic-operator-kstreams},1651500370,0
{consumergroup=__strimzi-topic-operator-kstreams},1651500375,0
{consumergroup=__strimzi-topic-operator-kstreams},1651500380,0
{consumergroup=__strimzi-topic-operator-kstreams},1651500385,0
{consumergroup=__strimzi-topic-operator-kstreams},1651500390,0
{consumergroup=__strimzi-topic-operator-kstreams},1651500395,0
{consumergroup=__strimzi-topic-operator-kstreams},1651500400,0
{consumergroup=__strimzi-topic-operator-kstreams},1651500405,0
{consumergroup=__strimzi-topic-operator-kstreams},1651500410,0
{consumergroup=__strimzi-topic-operator-kstreams},1651500415,0
{consumergroup=__strimzi-topic-operator-kstreams},1651500420,0
{consumergroup=__strimzi-topic-operator-kstreams},1651500425,0
{consumergroup=__strimzi-topic-operator-kstreams},1651500430,0
{consumergroup=__strimzi-topic-operator-kstreams},1651500435,0
{consumergroup=__strimzi-topic-operator-kstreams},1651500440,0
{consumergroup=__strimzi-topic-operator-kstreams},1651500445,0
{consumergroup=__strimzi-topic-operator-kstreams},1651500450,0
{consumergroup=__strimzi-topic-operator-kstreams},1651500455,0
{consumergroup=__strimzi-topic-operator-kstreams},1651500460,0
{consumergroup=__strimzi-topic-operator-kstreams},1651500465,0
{consumergroup=__strimzi-topic-operator-kstreams},1651500470,0
{consumergroup=__strimzi-topic-operator-kstreams},1651500475,0
{consumergroup=__strimzi-topic-operator-kstreams},1651500480,0
{consumergroup=__strimzi-topic-operator-kstreams},1651500485,0
{consumergroup=__strimzi-topic-operator-kstreams},1651500490,0
{consumergroup=__strimzi-topic-operator-kstreams},1651500495,0
{consumergroup=__strimzi-topic-operator-kstreams},1651500500,0
{consumergroup=__strimzi-topic-operator-kstreams},1651500505,0
{consumergroup=__strimzi-topic-operator-kstreams},1651500510,0
{consumergroup=__strimzi-topic-operator-kstreams},1651500515,0
{consumergroup=__strimzi-topic-operator-kstreams},1651500520,0
{consumergroup=__strimzi-topic-operator-kstreams},1651500525,0
{consumergroup=__strimzi-topic-operator-kstreams},1651500530,0
{consumergroup=__strimzi-topic-operator-kstreams},1651500535,0
{consumergroup=__strimzi-topic-operator-kstreams},1651500540,0
{consumergroup=__strimzi-topic-operator-kstreams},1651500545,0
{consumergroup=__strimzi-topic-operator-kstreams},1651500550,0
{consumergroup=__strimzi-topic-operator-kstreams},1651500555,0
{consumergroup=__strimzi-topic-operator-kstreams},1651500560,0
{consumergroup=__strimzi-topic-operator-kstreams},1651500565,0
{consumergroup=__strimzi-topic-operator-kstreams},1651500570,0
{consumergroup=__strimzi-topic-operator-kstreams},1651500575,0
{consumergroup=__strimzi-topic-operator-kstreams},1651500580,0
{consumergroup=__strimzi-topic-operator-kstreams},1651500585,0
{consumergroup=__strimzi-topic-operator-kstreams},1651500590,0
{consumergroup=__strimzi-topic-operator-kstreams},1651500595,0
{consumergroup=__strimzi-topic-operator-kstreams},1651500600,0
{consumergroup=__strimzi-topic-operator-kstreams},1651500605,0
{consumergroup=__strimzi-topic-operator-kstreams},1651500610,0
{consumergroup=__strimzi-topic-operator-kstreams},1651500615,0
{consumergroup=__strimzi-topic-operator-kstreams},1651500620,0
{consumergroup=__strimzi-topic-operator-kstreams},1651500625,0
{consumergroup=__strimzi-topic-operator-kstreams},1651500630,0
{consumergroup=__strimzi-topic-operator-kstreams},1651500635,0
{consumergroup=__strimzi-topic-operator-kstreams},1651500640,0
{consumergroup=__strimzi-topic-operator-kstreams},1651500645,0
{consumergroup=__strimzi-topic-operator-kstreams},1651500650,0
{consumergroup=__strimzi-topic-operator-kstreams},1651500655,0
{consumergroup=__strimzi-topic-operator-kstreams},1651500660,0
{consumergroup=__strimzi-topic-operator-kstreams},1651500665,0
{consumergroup=__strimzi-topic-operator-kstreams},1651500670,0
{consumergroup=__strimzi-topic-operator-kstreams},1651500675,0
{consumergroup=__strimzi-topic-operator-kstreams},1651500680,0
{consumergroup=__strimzi-topic-operator-kstreams},1651500685,0
{consumergroup=__strimzi-topic-operator-kstreams},1651500690,0
{consumergroup=__strimzi-topic-operator-kstreams},1651500695,0
{consumergroup=__strimzi-topic-operator-kstreams},1651500700,0
{consumergroup=__strimzi-topic-operator-kstreams},1651500705,0
{consumergroup=__strimzi-topic-operator-kstreams},1651500710,0
{consumergroup=__strimzi-topic-operator-kstreams},1651500715,0
{consumergroup=__strimzi-topic-operator-kstreams},1651500720,0
{consumergroup=__strimzi-topic-operator-kstreams},1651500725,0
{consumergroup=__strimzi-topic-operator-kstreams},1651500730,0
{consumergroup=__strimzi-topic-operator-kstreams},1651500735,0
{consumergroup=__strimzi-topic-operator-kstreams},1651500740,0
{consumergroup=__strimzi-topic-operator-kstreams},1651500745,0
{consumergroup=__strimzi-topic-operator-kstreams},1651500750,0
{consumergroup=__strimzi-topic-operator-kstreams},1651500755,0
{consumergroup=trace-service},1651500360,27233
{consumergroup=trace-service},1651500365,27233
{consumergroup=trace-service},1651500370,27233
{consumergroup=trace-service},1651500375,66536
{consumergroup=trace-service},1651500380,66536
{consumergroup=trace-service},1651500385,66536
{consumergroup=trace-service},1651500390,49402
{consumergroup=trace-service},1651500395,49402
{consumergroup=trace-service},1651500400,49402
{consumergroup=trace-service},1651500405,58594
{consumergroup=trace-service},1651500410,58594
{consumergroup=trace-service},1651500415,58594
{consumergroup=trace-service},1651500420,29466
{consumergroup=trace-service},1651500425,29466
{consumergroup=trace-service},1651500430,29466
{consumergroup=trace-service},1651500435,62438
{consumergroup=trace-service},1651500440,62438
{consumergroup=trace-service},1651500445,62438
{consumergroup=trace-service},1651500450,16735
{consumergroup=trace-service},1651500455,16735
{consumergroup=trace-service},1651500460,16735
{consumergroup=trace-service},1651500465,57040
{consumergroup=trace-service},1651500470,57040
{consumergroup=trace-service},1651500475,57040
{consumergroup=trace-service},1651500480,36019
{consumergroup=trace-service},1651500485,36019
{consumergroup=trace-service},1651500490,36019
{consumergroup=trace-service},1651500495,61964
{consumergroup=trace-service},1651500500,61964
{consumergroup=trace-service},1651500505,61964
{consumergroup=trace-service},1651500510,39051
{consumergroup=trace-service},1651500515,39051
{consumergroup=trace-service},1651500520,39051
{consumergroup=trace-service},1651500525,47523
{consumergroup=trace-service},1651500530,47523
{consumergroup=trace-service},1651500535,47523
{consumergroup=trace-service},1651500540,17272
{consumergroup=trace-service},1651500545,17272
{consumergroup=trace-service},1651500550,17272
{consumergroup=trace-service},1651500555,50012
{consumergroup=trace-service},1651500560,50012
{consumergroup=trace-service},1651500565,50012
{consumergroup=trace-service},1651500570,47575
{consumergroup=trace-service},1651500575,47575
{consumergroup=trace-service},1651500580,47575
{consumergroup=trace-service},1651500585,49693
{consumergroup=trace-service},1651500590,49693
{consumergroup=trace-service},1651500595,49693
{consumergroup=trace-service},1651500600,23047
{consumergroup=trace-service},1651500605,23047
{consumergroup=trace-service},1651500610,23047
{consumergroup=trace-service},1651500615,51347
{consumergroup=trace-service},1651500620,51347
{consumergroup=trace-service},1651500625,51347
{consumergroup=trace-service},1651500630,19072
{consumergroup=trace-service},1651500635,19072
{consumergroup=trace-service},1651500640,19072
{consumergroup=trace-service},1651500645,57940
{consumergroup=trace-service},1651500650,57940
{consumergroup=trace-service},1651500655,57940
{consumergroup=trace-service},1651500660,21674
{consumergroup=trace-service},1651500665,21674
{consumergroup=trace-service},1651500670,21674
{consumergroup=trace-service},1651500675,55508
{consumergroup=trace-service},1651500680,55508
{consumergroup=trace-service},1651500685,55508
{consumergroup=trace-service},1651500690,25959
{consumergroup=trace-service},1651500695,25959
{consumergroup=trace-service},1651500700,25959
{consumergroup=trace-service},1651500705,49131
{consumergroup=trace-service},1651500710,49131
{consumergroup=trace-service},1651500715,49131
{consumergroup=trace-service},1651500720,28709
{consumergroup=trace-service},1651500725,28709
{consumergroup=trace-service},1651500730,28709
{consumergroup=trace-service},1651500735,51852
{consumergroup=trace-service},1651500740,51852
{consumergroup=trace-service},1651500745,51852
{consumergroup=trace-service},1651500750,29183
{consumergroup=trace-service},1651500755,29183
{consumergroup=trace-token-events-consumer},1651500345,0
{consumergroup=trace-token-events-consumer},1651500350,0
{consumergroup=trace-token-events-consumer},1651500355,0
{consumergroup=trace-token-events-consumer},1651500360,0
{consumergroup=trace-token-events-consumer},1651500365,0
{consumergroup=trace-token-events-consumer},1651500370,0
{consumergroup=trace-token-events-consumer},1651500375,0
{consumergroup=trace-token-events-consumer},1651500380,0
{consumergroup=trace-token-events-consumer},1651500385,0
{consumergroup=trace-token-events-consumer},1651500390,0
{consumergroup=trace-token-events-consumer},1651500395,0
{consumergroup=trace-token-events-consumer},1651500400,0
{consumergroup=trace-token-events-consumer},1651500405,0
{consumergroup=trace-token-events-consumer},1651500410,0
{consumergroup=trace-token-events-consumer},1651500415,0
{consumergroup=trace-token-events-consumer},1651500420,0
{consumergroup=trace-token-events-consumer},1651500425,0
{consumergroup=trace-token-events-consumer},1651500430,0
{consumergroup=trace-token-events-consumer},1651500435,0
{consumergroup=trace-token-events-consumer},1651500440,0
{consumergroup=trace-token-events-consumer},1651500445,0
{consumergroup=trace-token-events-consumer},1651500450,0
{consumergroup=trace-token-events-consumer},1651500455,0
{consumergroup=trace-token-events-consumer},1651500460,0
{consumergroup=trace-token-events-consumer},1651500465,0
{consumergroup=trace-token-events-consumer},1651500470,0
{consumergroup=trace-token-events-consumer},1651500475,0
{consumergroup=trace-token-events-consumer},1651500480,0
{consumergroup=trace-token-events-consumer},1651500485,0
{consumergroup=trace-token-events-consumer},1651500490,0
{consumergroup=trace-token-events-consumer},1651500495,0
{consumergroup=trace-token-events-consumer},1651500500,0
{consumergroup=trace-token-events-consumer},1651500505,0
{consumergroup=trace-token-events-consumer},1651500510,0
{consumergroup=trace-token-events-consumer},1651500515,0
{consumergroup=trace-token-events-consumer},1651500520,0
{consumergroup=trace-token-events-consumer},1651500525,0
{consumergroup=trace-token-events-consumer},1651500530,0
{consumergroup=trace-token-events-consumer},1651500535,0
{consumergroup=trace-token-events-consumer},1651500540,0
{consumergroup=trace-token-events-consumer},1651500545,0
{consumergroup=trace-token-events-consumer},1651500550,0
{consumergroup=trace-token-events-consumer},1651500555,0
{consumergroup=trace-token-events-consumer},1651500560,0
{consumergroup=trace-token-events-consumer},1651500565,0
{consumergroup=trace-token-events-consumer},1651500570,0
{consumergroup=trace-token-events-consumer},1651500575,0
{consumergroup=trace-token-events-consumer},1651500580,0
{consumergroup=trace-token-events-consumer},1651500585,0
{consumergroup=trace-token-events-consumer},1651500590,0
{consumergroup=trace-token-events-consumer},1651500595,0
{consumergroup=trace-token-events-consumer},1651500600,0
{consumergroup=trace-token-events-consumer},1651500605,0
{consumergroup=trace-token-events-consumer},1651500610,0
{consumergroup=trace-token-events-consumer},1651500615,0
{consumergroup=trace-token-events-consumer},1651500620,0
{consumergroup=trace-token-events-consumer},1651500625,0
{consumergroup=trace-token-events-consumer},1651500630,0
{consumergroup=trace-token-events-consumer},1651500635,0
{consumergroup=trace-token-events-consumer},1651500640,0
{consumergroup=trace-token-events-consumer},1651500645,0
{consumergroup=trace-token-events-consumer},1651500650,0
{consumergroup=trace-token-events-consumer},1651500655,0
{consumergroup=trace-token-events-consumer},1651500660,0
{consumergroup=trace-token-events-consumer},1651500665,0
{consumergroup=trace-token-events-consumer},1651500670,0
{consumergroup=trace-token-events-consumer},1651500675,0
{consumergroup=trace-token-events-consumer},1651500680,0
{consumergroup=trace-token-events-consumer},1651500685,0
{consumergroup=trace-token-events-consumer},1651500690,0
{consumergroup=trace-token-events-consumer},1651500695,0
{consumergroup=trace-token-events-consumer},1651500700,0
{consumergroup=trace-token-events-consumer},1651500705,0
{consumergroup=trace-token-events-consumer},1651500710,0
{consumergroup=trace-token-events-consumer},1651500715,0
{consumergroup=trace-token-events-consumer},1651500720,0
{consumergroup=trace-token-events-consumer},1651500725,0
{consumergroup=trace-token-events-consumer},1651500730,0
{consumergroup=trace-token-events-consumer},1651500735,0
{consumergroup=trace-token-events-consumer},1651500740,0
{consumergroup=trace-token-events-consumer},1651500745,0
{consumergroup=trace-token-events-consumer},1651500750,0
{consumergroup=trace-token-events-consumer},1651500755,0
