labels,timestamp,value
{consumergroup=__strimzi-topic-operator-kstreams},1651536019,3
{consumergroup=__strimzi-topic-operator-kstreams},1651536024,3
{consumergroup=__strimzi-topic-operator-kstreams},1651536029,3
{consumergroup=__strimzi-topic-operator-kstreams},1651536034,0
{consumergroup=__strimzi-topic-operator-kstreams},1651536039,0
{consumergroup=__strimzi-topic-operator-kstreams},1651536044,0
{consumergroup=__strimzi-topic-operator-kstreams},1651536049,3
{consumergroup=__strimzi-topic-operator-kstreams},1651536054,3
{consumergroup=__strimzi-topic-operator-kstreams},1651536059,3
{consumergroup=__strimzi-topic-operator-kstreams},1651536064,0
{consumergroup=__strimzi-topic-operator-kstreams},1651536069,0
{consumergroup=__strimzi-topic-operator-kstreams},1651536074,0
{consumergroup=__strimzi-topic-operator-kstreams},1651536079,0
{consumergroup=__strimzi-topic-operator-kstreams},1651536084,0
{consumergroup=__strimzi-topic-operator-kstreams},1651536089,0
{consumergroup=__strimzi-topic-operator-kstreams},1651536094,0
{consumergroup=__strimzi-topic-operator-kstreams},1651536099,0
{consumergroup=__strimzi-topic-operator-kstreams},1651536104,0
{consumergroup=__strimzi-topic-operator-kstreams},1651536109,0
{consumergroup=__strimzi-topic-operator-kstreams},1651536114,0
{consumergroup=__strimzi-topic-operator-kstreams},1651536119,0
{consumergroup=__strimzi-topic-operator-kstreams},1651536124,0
{consumergroup=__strimzi-topic-operator-kstreams},1651536129,0
{consumergroup=__strimzi-topic-operator-kstreams},1651536134,0
{consumergroup=__strimzi-topic-operator-kstreams},1651536139,0
{consumergroup=__strimzi-topic-operator-kstreams},1651536144,0
{consumergroup=__strimzi-topic-operator-kstreams},1651536149,0
{consumergroup=__strimzi-topic-operator-kstreams},1651536154,0
{consumergroup=__strimzi-topic-operator-kstreams},1651536159,0
{consumergroup=__strimzi-topic-operator-kstreams},1651536164,0
{consumergroup=__strimzi-topic-operator-kstreams},1651536169,0
{consumergroup=__strimzi-topic-operator-kstreams},1651536174,0
{consumergroup=__strimzi-topic-operator-kstreams},1651536179,0
{consumergroup=__strimzi-topic-operator-kstreams},1651536184,0
{consumergroup=__strimzi-topic-operator-kstreams},1651536189,0
{consumergroup=__strimzi-topic-operator-kstreams},1651536194,0
{consumergroup=__strimzi-topic-operator-kstreams},1651536199,0
{consumergroup=__strimzi-topic-operator-kstreams},1651536204,0
{consumergroup=__strimzi-topic-operator-kstreams},1651536209,0
{consumergroup=__strimzi-topic-operator-kstreams},1651536214,0
{consumergroup=__strimzi-topic-operator-kstreams},1651536219,0
{consumergroup=__strimzi-topic-operator-kstreams},1651536224,0
{consumergroup=__strimzi-topic-operator-kstreams},1651536229,0
{consumergroup=__strimzi-topic-operator-kstreams},1651536234,0
{consumergroup=__strimzi-topic-operator-kstreams},1651536239,0
{consumergroup=__strimzi-topic-operator-kstreams},1651536244,0
{consumergroup=__strimzi-topic-operator-kstreams},1651536249,0
{consumergroup=__strimzi-topic-operator-kstreams},1651536254,0
{consumergroup=__strimzi-topic-operator-kstreams},1651536259,0
{consumergroup=__strimzi-topic-operator-kstreams},1651536264,0
{consumergroup=__strimzi-topic-operator-kstreams},1651536269,0
{consumergroup=__strimzi-topic-operator-kstreams},1651536274,0
{consumergroup=__strimzi-topic-operator-kstreams},1651536279,0
{consumergroup=__strimzi-topic-operator-kstreams},1651536284,0
{consumergroup=__strimzi-topic-operator-kstreams},1651536289,0
{consumergroup=__strimzi-topic-operator-kstreams},1651536294,0
{consumergroup=__strimzi-topic-operator-kstreams},1651536299,0
{consumergroup=__strimzi-topic-operator-kstreams},1651536304,0
{consumergroup=__strimzi-topic-operator-kstreams},1651536309,0
{consumergroup=__strimzi-topic-operator-kstreams},1651536314,0
{consumergroup=__strimzi-topic-operator-kstreams},1651536319,0
{consumergroup=__strimzi-topic-operator-kstreams},1651536324,0
{consumergroup=__strimzi-topic-operator-kstreams},1651536329,0
{consumergroup=__strimzi-topic-operator-kstreams},1651536334,0
{consumergroup=__strimzi-topic-operator-kstreams},1651536339,0
{consumergroup=__strimzi-topic-operator-kstreams},1651536344,0
{consumergroup=__strimzi-topic-operator-kstreams},1651536349,0
{consumergroup=__strimzi-topic-operator-kstreams},1651536354,0
{consumergroup=__strimzi-topic-operator-kstreams},1651536359,0
{consumergroup=__strimzi-topic-operator-kstreams},1651536364,0
{consumergroup=__strimzi-topic-operator-kstreams},1651536369,0
{consumergroup=__strimzi-topic-operator-kstreams},1651536374,0
{consumergroup=__strimzi-topic-operator-kstreams},1651536379,0
{consumergroup=__strimzi-topic-operator-kstreams},1651536384,0
{consumergroup=__strimzi-topic-operator-kstreams},1651536389,0
{consumergroup=__strimzi-topic-operator-kstreams},1651536394,0
{consumergroup=__strimzi-topic-operator-kstreams},1651536399,0
{consumergroup=__strimzi-topic-operator-kstreams},1651536404,0
{consumergroup=__strimzi-topic-operator-kstreams},1651536409,0
{consumergroup=__strimzi-topic-operator-kstreams},1651536414,0
{consumergroup=__strimzi-topic-operator-kstreams},1651536419,0
{consumergroup=__strimzi-topic-operator-kstreams},1651536424,0
{consumergroup=__strimzi-topic-operator-kstreams},1651536429,0
{consumergroup=__strimzi-topic-operator-kstreams},1651536434,0
{consumergroup=__strimzi-topic-operator-kstreams},1651536439,0
{consumergroup=__strimzi-topic-operator-kstreams},1651536444,0
{consumergroup=__strimzi-topic-operator-kstreams},1651536449,0
{consumergroup=__strimzi-topic-operator-kstreams},1651536454,0
{consumergroup=__strimzi-topic-operator-kstreams},1651536459,0
{consumergroup=__strimzi-topic-operator-kstreams},1651536464,0
{consumergroup=__strimzi-topic-operator-kstreams},1651536469,0
{consumergroup=adapter-service},1651536064,8660
{consumergroup=adapter-service},1651536069,8660
{consumergroup=adapter-service},1651536074,8660
{consumergroup=adapter-service},1651536079,5057
{consumergroup=adapter-service},1651536084,5057
{consumergroup=adapter-service},1651536089,5057
{consumergroup=adapter-service},1651536094,7205
{consumergroup=adapter-service},1651536099,7205
{consumergroup=adapter-service},1651536104,7205
{consumergroup=adapter-service},1651536109,3915
{consumergroup=adapter-service},1651536114,3915
{consumergroup=adapter-service},1651536119,3915
{consumergroup=adapter-service},1651536124,15429
{consumergroup=adapter-service},1651536129,15429
{consumergroup=adapter-service},1651536134,15429
{consumergroup=adapter-service},1651536139,3449
{consumergroup=adapter-service},1651536144,3449
{consumergroup=adapter-service},1651536149,3449
{consumergroup=adapter-service},1651536154,20396
{consumergroup=adapter-service},1651536159,20396
{consumergroup=adapter-service},1651536164,20396
{consumergroup=adapter-service},1651536169,3835
{consumergroup=adapter-service},1651536174,3835
{consumergroup=adapter-service},1651536179,3835
{consumergroup=adapter-service},1651536184,19404
{consumergroup=adapter-service},1651536189,19404
{consumergroup=adapter-service},1651536194,19404
{consumergroup=adapter-service},1651536199,2580
{consumergroup=adapter-service},1651536204,2580
{consumergroup=adapter-service},1651536209,2580
{consumergroup=adapter-service},1651536214,21352
{consumergroup=adapter-service},1651536219,21352
{consumergroup=adapter-service},1651536224,21352
{consumergroup=adapter-service},1651536229,3735
{consumergroup=adapter-service},1651536234,3735
{consumergroup=adapter-service},1651536239,3735
{consumergroup=adapter-service},1651536244,18719
{consumergroup=adapter-service},1651536249,18719
{consumergroup=adapter-service},1651536254,18719
{consumergroup=adapter-service},1651536259,4481
{consumergroup=adapter-service},1651536264,4481
{consumergroup=adapter-service},1651536269,4481
{consumergroup=adapter-service},1651536274,18223
{consumergroup=adapter-service},1651536279,18223
{consumergroup=adapter-service},1651536284,18223
{consumergroup=adapter-service},1651536289,3363
{consumergroup=adapter-service},1651536294,3363
{consumergroup=adapter-service},1651536299,3363
{consumergroup=adapter-service},1651536304,17828
{consumergroup=adapter-service},1651536309,17828
{consumergroup=adapter-service},1651536314,17828
{consumergroup=adapter-service},1651536319,3259
{consumergroup=adapter-service},1651536324,3259
{consumergroup=adapter-service},1651536329,3259
{consumergroup=adapter-service},1651536334,18379
{consumergroup=adapter-service},1651536339,18379
{consumergroup=adapter-service},1651536344,18379
{consumergroup=adapter-service},1651536349,12141
{consumergroup=adapter-service},1651536354,12141
{consumergroup=adapter-service},1651536359,12141
{consumergroup=adapter-service},1651536364,18078
{consumergroup=adapter-service},1651536369,18078
{consumergroup=adapter-service},1651536374,18078
{consumergroup=adapter-service},1651536379,15774
{consumergroup=adapter-service},1651536384,15774
{consumergroup=adapter-service},1651536389,15774
{consumergroup=adapter-service},1651536394,16454
{consumergroup=adapter-service},1651536399,16454
{consumergroup=adapter-service},1651536404,16454
{consumergroup=adapter-service},1651536409,16424
{consumergroup=adapter-service},1651536414,16424
{consumergroup=adapter-service},1651536419,16424
{consumergroup=adapter-service},1651536424,16018
{consumergroup=adapter-service},1651536429,16018
{consumergroup=adapter-service},1651536434,16018
{consumergroup=adapter-service},1651536439,15400
{consumergroup=adapter-service},1651536444,15400
{consumergroup=adapter-service},1651536449,15400
{consumergroup=adapter-service},1651536454,15580
{consumergroup=adapter-service},1651536459,15580
{consumergroup=adapter-service},1651536464,15580
{consumergroup=adapter-service},1651536469,20399
{consumergroup=landscape-service},1651536079,74063
{consumergroup=landscape-service},1651536084,74063
{consumergroup=landscape-service},1651536089,74063
{consumergroup=landscape-service},1651536094,44363
{consumergroup=landscape-service},1651536099,44363
{consumergroup=landscape-service},1651536104,44363
{consumergroup=landscape-service},1651536109,22711
{consumergroup=landscape-service},1651536114,22711
{consumergroup=landscape-service},1651536119,22711
{consumergroup=landscape-service},1651536124,17172
{consumergroup=landscape-service},1651536129,17172
{consumergroup=landscape-service},1651536134,17172
{consumergroup=landscape-service},1651536139,21562
{consumergroup=landscape-service},1651536144,21562
{consumergroup=landscape-service},1651536149,21562
{consumergroup=landscape-service},1651536154,15772
{consumergroup=landscape-service},1651536159,15772
{consumergroup=landscape-service},1651536164,15772
{consumergroup=landscape-service},1651536169,19719
{consumergroup=landscape-service},1651536174,19719
{consumergroup=landscape-service},1651536179,19719
{consumergroup=landscape-service},1651536184,14642
{consumergroup=landscape-service},1651536189,14642
{consumergroup=landscape-service},1651536194,14642
{consumergroup=landscape-service},1651536199,17918
{consumergroup=landscape-service},1651536204,17918
{consumergroup=landscape-service},1651536209,17918
{consumergroup=landscape-service},1651536214,13343
{consumergroup=landscape-service},1651536219,13343
{consumergroup=landscape-service},1651536224,13343
{consumergroup=landscape-service},1651536229,16210
{consumergroup=landscape-service},1651536234,16210
{consumergroup=landscape-service},1651536239,16210
{consumergroup=landscape-service},1651536244,10593
{consumergroup=landscape-service},1651536249,10593
{consumergroup=landscape-service},1651536254,10593
{consumergroup=landscape-service},1651536259,14723
{consumergroup=landscape-service},1651536264,14723
{consumergroup=landscape-service},1651536269,14723
{consumergroup=landscape-service},1651536274,8811
{consumergroup=landscape-service},1651536279,8811
{consumergroup=landscape-service},1651536284,8811
{consumergroup=landscape-service},1651536289,12641
{consumergroup=landscape-service},1651536294,12641
{consumergroup=landscape-service},1651536299,12641
{consumergroup=landscape-service},1651536304,7002
{consumergroup=landscape-service},1651536309,7002
{consumergroup=landscape-service},1651536314,7002
{consumergroup=landscape-service},1651536319,11302
{consumergroup=landscape-service},1651536324,11302
{consumergroup=landscape-service},1651536329,11302
{consumergroup=landscape-service},1651536334,6417
{consumergroup=landscape-service},1651536339,6417
{consumergroup=landscape-service},1651536344,6417
{consumergroup=landscape-service},1651536349,9347
{consumergroup=landscape-service},1651536354,9347
{consumergroup=landscape-service},1651536359,9347
{consumergroup=landscape-service},1651536364,4689
{consumergroup=landscape-service},1651536369,4689
{consumergroup=landscape-service},1651536374,4689
{consumergroup=landscape-service},1651536379,7611
{consumergroup=landscape-service},1651536384,7611
{consumergroup=landscape-service},1651536389,7611
{consumergroup=landscape-service},1651536394,2495
{consumergroup=landscape-service},1651536399,2495
{consumergroup=landscape-service},1651536404,2495
{consumergroup=landscape-service},1651536409,5789
{consumergroup=landscape-service},1651536414,5789
{consumergroup=landscape-service},1651536419,5789
{consumergroup=landscape-service},1651536439,5862
{consumergroup=landscape-service},1651536444,5862
{consumergroup=landscape-service},1651536449,5862
{consumergroup=landscape-service},1651536454,22596
{consumergroup=landscape-service},1651536459,22596
{consumergroup=landscape-service},1651536464,22596
{consumergroup=landscape-service},1651536469,2134
{consumergroup=trace-service},1651536064,14
{consumergroup=trace-service},1651536069,14
{consumergroup=trace-service},1651536074,14
{consumergroup=trace-service},1651536079,74284
{consumergroup=trace-service},1651536084,74284
{consumergroup=trace-service},1651536089,74284
{consumergroup=trace-service},1651536094,7079
{consumergroup=trace-service},1651536099,7079
{consumergroup=trace-service},1651536104,7079
{consumergroup=trace-service},1651536109,69004
{consumergroup=trace-service},1651536114,69004
{consumergroup=trace-service},1651536119,69004
{consumergroup=trace-service},1651536124,37709
{consumergroup=trace-service},1651536129,37709
{consumergroup=trace-service},1651536134,37709
{consumergroup=trace-service},1651536139,82697
{consumergroup=trace-service},1651536144,82697
{consumergroup=trace-service},1651536149,82697
{consumergroup=trace-service},1651536154,10911
{consumergroup=trace-service},1651536159,10911
{consumergroup=trace-service},1651536164,10911
{consumergroup=trace-service},1651536169,73801
{consumergroup=trace-service},1651536174,73801
{consumergroup=trace-service},1651536179,73801
{consumergroup=trace-service},1651536184,30490
{consumergroup=trace-service},1651536189,30490
{consumergroup=trace-service},1651536194,30490
{consumergroup=trace-service},1651536199,121673
{consumergroup=trace-service},1651536204,121673
{consumergroup=trace-service},1651536209,121673
{consumergroup=trace-service},1651536214,63180
{consumergroup=trace-service},1651536219,63180
{consumergroup=trace-service},1651536224,63180
{consumergroup=trace-service},1651536229,135413
{consumergroup=trace-service},1651536234,135413
{consumergroup=trace-service},1651536239,135413
{consumergroup=trace-service},1651536244,78701
{consumergroup=trace-service},1651536249,78701
{consumergroup=trace-service},1651536254,78701
{consumergroup=trace-service},1651536259,132512
{consumergroup=trace-service},1651536264,132512
{consumergroup=trace-service},1651536269,132512
{consumergroup=trace-service},1651536274,285023
{consumergroup=trace-service},1651536279,285023
{consumergroup=trace-service},1651536284,285023
{consumergroup=trace-service},1651536289,159495
{consumergroup=trace-service},1651536294,159495
{consumergroup=trace-service},1651536299,159495
{consumergroup=trace-service},1651536304,27067
{consumergroup=trace-service},1651536309,27067
{consumergroup=trace-service},1651536314,27067
{consumergroup=trace-service},1651536319,106685
{consumergroup=trace-service},1651536324,106685
{consumergroup=trace-service},1651536329,106685
{consumergroup=trace-service},1651536334,32485
{consumergroup=trace-service},1651536339,32485
{consumergroup=trace-service},1651536344,32485
{consumergroup=trace-service},1651536349,94031
{consumergroup=trace-service},1651536354,94031
{consumergroup=trace-service},1651536359,94031
{consumergroup=trace-service},1651536364,21692
{consumergroup=trace-service},1651536369,21692
{consumergroup=trace-service},1651536374,21692
{consumergroup=trace-service},1651536379,87242
{consumergroup=trace-service},1651536384,87242
{consumergroup=trace-service},1651536389,87242
{consumergroup=trace-service},1651536394,205280
{consumergroup=trace-service},1651536399,205280
{consumergroup=trace-service},1651536404,205280
{consumergroup=trace-service},1651536409,148126
{consumergroup=trace-service},1651536414,148126
{consumergroup=trace-service},1651536419,148126
{consumergroup=trace-service},1651536424,18213
{consumergroup=trace-service},1651536429,18213
{consumergroup=trace-service},1651536434,18213
{consumergroup=trace-service},1651536439,91691
{consumergroup=trace-service},1651536444,91691
{consumergroup=trace-service},1651536449,91691
{consumergroup=trace-service},1651536454,154289
{consumergroup=trace-service},1651536459,154289
{consumergroup=trace-service},1651536464,154289
{consumergroup=trace-service},1651536469,116367
{consumergroup=trace-token-events-consumer},1651536049,0
{consumergroup=trace-token-events-consumer},1651536054,0
{consumergroup=trace-token-events-consumer},1651536059,0
{consumergroup=trace-token-events-consumer},1651536064,0
{consumergroup=trace-token-events-consumer},1651536069,0
{consumergroup=trace-token-events-consumer},1651536074,0
{consumergroup=trace-token-events-consumer},1651536079,0
{consumergroup=trace-token-events-consumer},1651536084,0
{consumergroup=trace-token-events-consumer},1651536089,0
{consumergroup=trace-token-events-consumer},1651536094,0
{consumergroup=trace-token-events-consumer},1651536099,0
{consumergroup=trace-token-events-consumer},1651536104,0
{consumergroup=trace-token-events-consumer},1651536109,0
{consumergroup=trace-token-events-consumer},1651536114,0
{consumergroup=trace-token-events-consumer},1651536119,0
{consumergroup=trace-token-events-consumer},1651536124,0
{consumergroup=trace-token-events-consumer},1651536129,0
{consumergroup=trace-token-events-consumer},1651536134,0
{consumergroup=trace-token-events-consumer},1651536139,0
{consumergroup=trace-token-events-consumer},1651536144,0
{consumergroup=trace-token-events-consumer},1651536149,0
{consumergroup=trace-token-events-consumer},1651536154,0
{consumergroup=trace-token-events-consumer},1651536159,0
{consumergroup=trace-token-events-consumer},1651536164,0
{consumergroup=trace-token-events-consumer},1651536169,0
{consumergroup=trace-token-events-consumer},1651536174,0
{consumergroup=trace-token-events-consumer},1651536179,0
{consumergroup=trace-token-events-consumer},1651536184,0
{consumergroup=trace-token-events-consumer},1651536189,0
{consumergroup=trace-token-events-consumer},1651536194,0
{consumergroup=trace-token-events-consumer},1651536199,0
{consumergroup=trace-token-events-consumer},1651536204,0
{consumergroup=trace-token-events-consumer},1651536209,0
{consumergroup=trace-token-events-consumer},1651536214,0
{consumergroup=trace-token-events-consumer},1651536219,0
{consumergroup=trace-token-events-consumer},1651536224,0
{consumergroup=trace-token-events-consumer},1651536229,0
{consumergroup=trace-token-events-consumer},1651536234,0
{consumergroup=trace-token-events-consumer},1651536239,0
{consumergroup=trace-token-events-consumer},1651536244,0
{consumergroup=trace-token-events-consumer},1651536249,0
{consumergroup=trace-token-events-consumer},1651536254,0
{consumergroup=trace-token-events-consumer},1651536259,0
{consumergroup=trace-token-events-consumer},1651536264,0
{consumergroup=trace-token-events-consumer},1651536269,0
{consumergroup=trace-token-events-consumer},1651536274,0
{consumergroup=trace-token-events-consumer},1651536279,0
{consumergroup=trace-token-events-consumer},1651536284,0
{consumergroup=trace-token-events-consumer},1651536289,0
{consumergroup=trace-token-events-consumer},1651536294,0
{consumergroup=trace-token-events-consumer},1651536299,0
{consumergroup=trace-token-events-consumer},1651536304,0
{consumergroup=trace-token-events-consumer},1651536309,0
{consumergroup=trace-token-events-consumer},1651536314,0
{consumergroup=trace-token-events-consumer},1651536319,0
{consumergroup=trace-token-events-consumer},1651536324,0
{consumergroup=trace-token-events-consumer},1651536329,0
{consumergroup=trace-token-events-consumer},1651536334,0
{consumergroup=trace-token-events-consumer},1651536339,0
{consumergroup=trace-token-events-consumer},1651536344,0
{consumergroup=trace-token-events-consumer},1651536349,0
{consumergroup=trace-token-events-consumer},1651536354,0
{consumergroup=trace-token-events-consumer},1651536359,0
{consumergroup=trace-token-events-consumer},1651536364,0
{consumergroup=trace-token-events-consumer},1651536369,0
{consumergroup=trace-token-events-consumer},1651536374,0
{consumergroup=trace-token-events-consumer},1651536379,0
{consumergroup=trace-token-events-consumer},1651536384,0
{consumergroup=trace-token-events-consumer},1651536389,0
{consumergroup=trace-token-events-consumer},1651536394,0
{consumergroup=trace-token-events-consumer},1651536399,0
{consumergroup=trace-token-events-consumer},1651536404,0
{consumergroup=trace-token-events-consumer},1651536409,0
{consumergroup=trace-token-events-consumer},1651536414,0
{consumergroup=trace-token-events-consumer},1651536419,0
{consumergroup=trace-token-events-consumer},1651536424,0
{consumergroup=trace-token-events-consumer},1651536429,0
{consumergroup=trace-token-events-consumer},1651536434,0
{consumergroup=trace-token-events-consumer},1651536439,0
{consumergroup=trace-token-events-consumer},1651536444,0
{consumergroup=trace-token-events-consumer},1651536449,0
{consumergroup=trace-token-events-consumer},1651536454,0
{consumergroup=trace-token-events-consumer},1651536459,0
{consumergroup=trace-token-events-consumer},1651536464,0
{consumergroup=trace-token-events-consumer},1651536469,0
