labels,timestamp,value
{job=theodolite-stu200776/combined-trace-podmonitor},1651323926,0
{job=theodolite-stu200776/combined-trace-podmonitor},1651323931,0
{job=theodolite-stu200776/combined-trace-podmonitor},1651323936,0
{job=theodolite-stu200776/combined-trace-podmonitor},1651323941,0
{job=theodolite-stu200776/combined-trace-podmonitor},1651323946,0
{job=theodolite-stu200776/combined-trace-podmonitor},1651323951,0
{job=theodolite-stu200776/combined-trace-podmonitor},1651323956,0
{job=theodolite-stu200776/combined-trace-podmonitor},1651323961,0
{job=theodolite-stu200776/combined-trace-podmonitor},1651323966,0
{job=theodolite-stu200776/combined-trace-podmonitor},1651323971,0
{job=theodolite-stu200776/combined-trace-podmonitor},1651323976,0
{job=theodolite-stu200776/combined-trace-podmonitor},1651323981,0
{job=theodolite-stu200776/combined-trace-podmonitor},1651323986,0
{job=theodolite-stu200776/combined-trace-podmonitor},1651323991,0
{job=theodolite-stu200776/combined-trace-podmonitor},1651323996,0
{job=theodolite-stu200776/combined-trace-podmonitor},1651324001,0
{job=theodolite-stu200776/combined-trace-podmonitor},1651324006,0
{job=theodolite-stu200776/combined-trace-podmonitor},1651324011,0
{job=theodolite-stu200776/combined-trace-podmonitor},1651324016,0
{job=theodolite-stu200776/combined-trace-podmonitor},1651324021,0
{job=theodolite-stu200776/combined-trace-podmonitor},1651324026,0
{job=theodolite-stu200776/combined-trace-podmonitor},1651324031,0
{job=theodolite-stu200776/combined-trace-podmonitor},1651324036,0
{job=theodolite-stu200776/combined-trace-podmonitor},1651324041,0
{job=theodolite-stu200776/combined-trace-podmonitor},1651324046,0
{job=theodolite-stu200776/combined-trace-podmonitor},1651324051,0
{job=theodolite-stu200776/combined-trace-podmonitor},1651324056,0
{job=theodolite-stu200776/combined-trace-podmonitor},1651324061,0
{job=theodolite-stu200776/combined-trace-podmonitor},1651324066,0
{job=theodolite-stu200776/combined-trace-podmonitor},1651324071,0
{job=theodolite-stu200776/combined-trace-podmonitor},1651324076,0
{job=theodolite-stu200776/combined-trace-podmonitor},1651324081,0
{job=theodolite-stu200776/combined-trace-podmonitor},1651324086,0
{job=theodolite-stu200776/combined-trace-podmonitor},1651324091,0
{job=theodolite-stu200776/combined-trace-podmonitor},1651324096,0
{job=theodolite-stu200776/combined-trace-podmonitor},1651324101,0
{job=theodolite-stu200776/combined-trace-podmonitor},1651324106,0
{job=theodolite-stu200776/combined-trace-podmonitor},1651324111,0
{job=theodolite-stu200776/combined-trace-podmonitor},1651324116,0
{job=theodolite-stu200776/combined-trace-podmonitor},1651324121,0
{job=theodolite-stu200776/combined-trace-podmonitor},1651324126,0
{job=theodolite-stu200776/combined-trace-podmonitor},1651324131,0
{job=theodolite-stu200776/combined-trace-podmonitor},1651324136,0
{job=theodolite-stu200776/combined-trace-podmonitor},1651324141,0
{job=theodolite-stu200776/combined-trace-podmonitor},1651324146,0
{job=theodolite-stu200776/combined-trace-podmonitor},1651324151,0
{job=theodolite-stu200776/combined-trace-podmonitor},1651324156,0
{job=theodolite-stu200776/combined-trace-podmonitor},1651324161,0
{job=theodolite-stu200776/combined-trace-podmonitor},1651324166,0
{job=theodolite-stu200776/combined-trace-podmonitor},1651324171,0
{job=theodolite-stu200776/combined-trace-podmonitor},1651324176,0
{job=theodolite-stu200776/combined-trace-podmonitor},1651324181,0
{job=theodolite-stu200776/combined-trace-podmonitor},1651324186,0
{job=theodolite-stu200776/combined-trace-podmonitor},1651324191,0
{job=theodolite-stu200776/combined-trace-podmonitor},1651324196,0
{job=theodolite-stu200776/combined-trace-podmonitor},1651324201,0
