labels,timestamp,value
{consumergroup=__strimzi-topic-operator-kstreams},1651547677,8
{consumergroup=__strimzi-topic-operator-kstreams},1651547682,8
{consumergroup=__strimzi-topic-operator-kstreams},1651547687,8
{consumergroup=__strimzi-topic-operator-kstreams},1651547692,11
{consumergroup=__strimzi-topic-operator-kstreams},1651547697,11
{consumergroup=__strimzi-topic-operator-kstreams},1651547702,11
{consumergroup=__strimzi-topic-operator-kstreams},1651547707,0
{consumergroup=__strimzi-topic-operator-kstreams},1651547712,0
{consumergroup=__strimzi-topic-operator-kstreams},1651547717,0
{consumergroup=__strimzi-topic-operator-kstreams},1651547722,0
{consumergroup=__strimzi-topic-operator-kstreams},1651547727,0
{consumergroup=__strimzi-topic-operator-kstreams},1651547732,0
{consumergroup=__strimzi-topic-operator-kstreams},1651547737,0
{consumergroup=__strimzi-topic-operator-kstreams},1651547742,0
{consumergroup=__strimzi-topic-operator-kstreams},1651547747,0
{consumergroup=__strimzi-topic-operator-kstreams},1651547752,0
{consumergroup=__strimzi-topic-operator-kstreams},1651547757,0
{consumergroup=__strimzi-topic-operator-kstreams},1651547762,0
{consumergroup=__strimzi-topic-operator-kstreams},1651547767,0
{consumergroup=__strimzi-topic-operator-kstreams},1651547772,0
{consumergroup=__strimzi-topic-operator-kstreams},1651547777,0
{consumergroup=__strimzi-topic-operator-kstreams},1651547782,0
{consumergroup=__strimzi-topic-operator-kstreams},1651547787,0
{consumergroup=__strimzi-topic-operator-kstreams},1651547792,0
{consumergroup=__strimzi-topic-operator-kstreams},1651547797,0
{consumergroup=__strimzi-topic-operator-kstreams},1651547802,0
{consumergroup=__strimzi-topic-operator-kstreams},1651547807,0
{consumergroup=__strimzi-topic-operator-kstreams},1651547812,0
{consumergroup=__strimzi-topic-operator-kstreams},1651547817,0
{consumergroup=__strimzi-topic-operator-kstreams},1651547822,0
{consumergroup=__strimzi-topic-operator-kstreams},1651547827,0
{consumergroup=__strimzi-topic-operator-kstreams},1651547832,0
{consumergroup=__strimzi-topic-operator-kstreams},1651547837,0
{consumergroup=__strimzi-topic-operator-kstreams},1651547842,0
{consumergroup=__strimzi-topic-operator-kstreams},1651547847,0
{consumergroup=__strimzi-topic-operator-kstreams},1651547852,0
{consumergroup=__strimzi-topic-operator-kstreams},1651547857,0
{consumergroup=__strimzi-topic-operator-kstreams},1651547862,0
{consumergroup=__strimzi-topic-operator-kstreams},1651547867,0
{consumergroup=__strimzi-topic-operator-kstreams},1651547872,0
{consumergroup=__strimzi-topic-operator-kstreams},1651547877,0
{consumergroup=__strimzi-topic-operator-kstreams},1651547882,0
{consumergroup=__strimzi-topic-operator-kstreams},1651547887,0
{consumergroup=__strimzi-topic-operator-kstreams},1651547892,0
{consumergroup=__strimzi-topic-operator-kstreams},1651547897,0
{consumergroup=__strimzi-topic-operator-kstreams},1651547902,0
{consumergroup=__strimzi-topic-operator-kstreams},1651547907,0
{consumergroup=__strimzi-topic-operator-kstreams},1651547912,0
{consumergroup=__strimzi-topic-operator-kstreams},1651547917,0
{consumergroup=__strimzi-topic-operator-kstreams},1651547922,0
{consumergroup=__strimzi-topic-operator-kstreams},1651547927,0
{consumergroup=__strimzi-topic-operator-kstreams},1651547932,0
{consumergroup=__strimzi-topic-operator-kstreams},1651547937,0
{consumergroup=__strimzi-topic-operator-kstreams},1651547942,0
{consumergroup=__strimzi-topic-operator-kstreams},1651547947,0
{consumergroup=__strimzi-topic-operator-kstreams},1651547952,0
{consumergroup=__strimzi-topic-operator-kstreams},1651547957,0
{consumergroup=__strimzi-topic-operator-kstreams},1651547962,0
{consumergroup=__strimzi-topic-operator-kstreams},1651547967,0
{consumergroup=__strimzi-topic-operator-kstreams},1651547972,0
{consumergroup=__strimzi-topic-operator-kstreams},1651547977,0
{consumergroup=__strimzi-topic-operator-kstreams},1651547982,0
{consumergroup=__strimzi-topic-operator-kstreams},1651547987,0
{consumergroup=__strimzi-topic-operator-kstreams},1651547992,0
{consumergroup=__strimzi-topic-operator-kstreams},1651547997,0
{consumergroup=__strimzi-topic-operator-kstreams},1651548002,0
{consumergroup=__strimzi-topic-operator-kstreams},1651548007,0
{consumergroup=__strimzi-topic-operator-kstreams},1651548012,0
{consumergroup=__strimzi-topic-operator-kstreams},1651548017,0
{consumergroup=__strimzi-topic-operator-kstreams},1651548022,0
{consumergroup=__strimzi-topic-operator-kstreams},1651548027,0
{consumergroup=__strimzi-topic-operator-kstreams},1651548032,0
{consumergroup=__strimzi-topic-operator-kstreams},1651548037,0
{consumergroup=__strimzi-topic-operator-kstreams},1651548042,0
{consumergroup=__strimzi-topic-operator-kstreams},1651548047,0
{consumergroup=__strimzi-topic-operator-kstreams},1651548052,0
{consumergroup=__strimzi-topic-operator-kstreams},1651548057,0
{consumergroup=__strimzi-topic-operator-kstreams},1651548062,0
{consumergroup=__strimzi-topic-operator-kstreams},1651548067,0
{consumergroup=__strimzi-topic-operator-kstreams},1651548072,0
{consumergroup=__strimzi-topic-operator-kstreams},1651548077,0
{consumergroup=__strimzi-topic-operator-kstreams},1651548082,0
{consumergroup=__strimzi-topic-operator-kstreams},1651548087,0
{consumergroup=__strimzi-topic-operator-kstreams},1651548092,0
{consumergroup=__strimzi-topic-operator-kstreams},1651548097,0
{consumergroup=__strimzi-topic-operator-kstreams},1651548102,0
{consumergroup=__strimzi-topic-operator-kstreams},1651548107,0
{consumergroup=__strimzi-topic-operator-kstreams},1651548112,0
{consumergroup=__strimzi-topic-operator-kstreams},1651548117,0
{consumergroup=adapter-service},1651547707,0
{consumergroup=adapter-service},1651547712,0
{consumergroup=adapter-service},1651547717,0
{consumergroup=adapter-service},1651547722,23578
{consumergroup=adapter-service},1651547727,23578
{consumergroup=adapter-service},1651547732,23578
{consumergroup=adapter-service},1651547737,26280
{consumergroup=adapter-service},1651547742,26280
{consumergroup=adapter-service},1651547747,26280
{consumergroup=adapter-service},1651547752,13927
{consumergroup=adapter-service},1651547757,13927
{consumergroup=adapter-service},1651547762,13927
{consumergroup=adapter-service},1651547767,4785
{consumergroup=adapter-service},1651547772,4785
{consumergroup=adapter-service},1651547777,4785
{consumergroup=adapter-service},1651547782,13184
{consumergroup=adapter-service},1651547787,13184
{consumergroup=adapter-service},1651547792,13184
{consumergroup=adapter-service},1651547797,2456
{consumergroup=adapter-service},1651547802,2456
{consumergroup=adapter-service},1651547807,2456
{consumergroup=adapter-service},1651547812,7150
{consumergroup=adapter-service},1651547817,7150
{consumergroup=adapter-service},1651547822,7150
{consumergroup=adapter-service},1651547827,2336
{consumergroup=adapter-service},1651547832,2336
{consumergroup=adapter-service},1651547837,2336
{consumergroup=adapter-service},1651547842,5431
{consumergroup=adapter-service},1651547847,5431
{consumergroup=adapter-service},1651547852,5431
{consumergroup=adapter-service},1651547857,1091
{consumergroup=adapter-service},1651547862,1091
{consumergroup=adapter-service},1651547867,1091
{consumergroup=adapter-service},1651547872,4382
{consumergroup=adapter-service},1651547877,4382
{consumergroup=adapter-service},1651547882,4382
{consumergroup=adapter-service},1651547887,12532
{consumergroup=adapter-service},1651547892,12532
{consumergroup=adapter-service},1651547897,12532
{consumergroup=adapter-service},1651547902,3517
{consumergroup=adapter-service},1651547907,3517
{consumergroup=adapter-service},1651547912,3517
{consumergroup=adapter-service},1651547917,4470
{consumergroup=adapter-service},1651547922,4470
{consumergroup=adapter-service},1651547927,4470
{consumergroup=adapter-service},1651547932,2511
{consumergroup=adapter-service},1651547937,2511
{consumergroup=adapter-service},1651547942,2511
{consumergroup=adapter-service},1651547947,9442
{consumergroup=adapter-service},1651547952,9442
{consumergroup=adapter-service},1651547957,9442
{consumergroup=adapter-service},1651547962,2761
{consumergroup=adapter-service},1651547967,2761
{consumergroup=adapter-service},1651547972,2761
{consumergroup=adapter-service},1651547977,15496
{consumergroup=adapter-service},1651547982,15496
{consumergroup=adapter-service},1651547987,15496
{consumergroup=adapter-service},1651547992,1486
{consumergroup=adapter-service},1651547997,1486
{consumergroup=adapter-service},1651548002,1486
{consumergroup=adapter-service},1651548007,13483
{consumergroup=adapter-service},1651548012,13483
{consumergroup=adapter-service},1651548017,13483
{consumergroup=adapter-service},1651548022,538
{consumergroup=adapter-service},1651548027,538
{consumergroup=adapter-service},1651548032,538
{consumergroup=adapter-service},1651548037,12850
{consumergroup=adapter-service},1651548042,12850
{consumergroup=adapter-service},1651548047,12850
{consumergroup=adapter-service},1651548052,9034
{consumergroup=adapter-service},1651548057,9034
{consumergroup=adapter-service},1651548062,9034
{consumergroup=adapter-service},1651548067,11982
{consumergroup=adapter-service},1651548072,11982
{consumergroup=adapter-service},1651548077,11982
{consumergroup=adapter-service},1651548082,3429
{consumergroup=adapter-service},1651548087,3429
{consumergroup=adapter-service},1651548092,3429
{consumergroup=adapter-service},1651548097,11385
{consumergroup=adapter-service},1651548102,11385
{consumergroup=adapter-service},1651548107,11385
{consumergroup=adapter-service},1651548112,8657
{consumergroup=adapter-service},1651548117,8657
{consumergroup=landscape-service},1651547722,10404
{consumergroup=landscape-service},1651547727,10404
{consumergroup=landscape-service},1651547732,10404
{consumergroup=landscape-service},1651547737,17162
{consumergroup=landscape-service},1651547742,17162
{consumergroup=landscape-service},1651547747,17162
{consumergroup=landscape-service},1651547752,15336
{consumergroup=landscape-service},1651547757,15336
{consumergroup=landscape-service},1651547762,15336
{consumergroup=landscape-service},1651547767,9713
{consumergroup=landscape-service},1651547772,9713
{consumergroup=landscape-service},1651547777,9713
{consumergroup=landscape-service},1651547797,8702
{consumergroup=landscape-service},1651547802,8702
{consumergroup=landscape-service},1651547807,8702
{consumergroup=landscape-service},1651547812,14777
{consumergroup=landscape-service},1651547817,14777
{consumergroup=landscape-service},1651547822,14777
{consumergroup=landscape-service},1651547827,10463
{consumergroup=landscape-service},1651547832,10463
{consumergroup=landscape-service},1651547837,10463
{consumergroup=landscape-service},1651547842,13956
{consumergroup=landscape-service},1651547847,13956
{consumergroup=landscape-service},1651547852,13956
{consumergroup=landscape-service},1651547857,9883
{consumergroup=landscape-service},1651547862,9883
{consumergroup=landscape-service},1651547867,9883
{consumergroup=landscape-service},1651547872,13407
{consumergroup=landscape-service},1651547877,13407
{consumergroup=landscape-service},1651547882,13407
{consumergroup=landscape-service},1651547887,7514
{consumergroup=landscape-service},1651547892,7514
{consumergroup=landscape-service},1651547897,7514
{consumergroup=landscape-service},1651547902,13126
{consumergroup=landscape-service},1651547907,13126
{consumergroup=landscape-service},1651547912,13126
{consumergroup=landscape-service},1651547917,10015
{consumergroup=landscape-service},1651547922,10015
{consumergroup=landscape-service},1651547927,10015
{consumergroup=landscape-service},1651547932,12900
{consumergroup=landscape-service},1651547937,12900
{consumergroup=landscape-service},1651547942,12900
{consumergroup=landscape-service},1651547947,9164
{consumergroup=landscape-service},1651547952,9164
{consumergroup=landscape-service},1651547957,9164
{consumergroup=landscape-service},1651547962,12517
{consumergroup=landscape-service},1651547967,12517
{consumergroup=landscape-service},1651547972,12517
{consumergroup=landscape-service},1651547977,5922
{consumergroup=landscape-service},1651547982,5922
{consumergroup=landscape-service},1651547987,5922
{consumergroup=landscape-service},1651547992,12029
{consumergroup=landscape-service},1651547997,12029
{consumergroup=landscape-service},1651548002,12029
{consumergroup=landscape-service},1651548007,5414
{consumergroup=landscape-service},1651548012,5414
{consumergroup=landscape-service},1651548017,5414
{consumergroup=landscape-service},1651548022,11476
{consumergroup=landscape-service},1651548027,11476
{consumergroup=landscape-service},1651548032,11476
{consumergroup=landscape-service},1651548037,6294
{consumergroup=landscape-service},1651548042,6294
{consumergroup=landscape-service},1651548047,6294
{consumergroup=landscape-service},1651548052,12177
{consumergroup=landscape-service},1651548057,12177
{consumergroup=landscape-service},1651548062,12177
{consumergroup=landscape-service},1651548067,4885
{consumergroup=landscape-service},1651548072,4885
{consumergroup=landscape-service},1651548077,4885
{consumergroup=landscape-service},1651548082,14528
{consumergroup=landscape-service},1651548087,14528
{consumergroup=landscape-service},1651548092,14528
{consumergroup=landscape-service},1651548097,5500
{consumergroup=landscape-service},1651548102,5500
{consumergroup=landscape-service},1651548107,5500
{consumergroup=landscape-service},1651548112,10325
{consumergroup=landscape-service},1651548117,10325
{consumergroup=trace-service},1651547722,17410
{consumergroup=trace-service},1651547727,17410
{consumergroup=trace-service},1651547732,17410
{consumergroup=trace-service},1651547737,48045
{consumergroup=trace-service},1651547742,48045
{consumergroup=trace-service},1651547747,48045
{consumergroup=trace-service},1651547752,97449
{consumergroup=trace-service},1651547757,97449
{consumergroup=trace-service},1651547762,97449
{consumergroup=trace-service},1651547767,33689
{consumergroup=trace-service},1651547772,33689
{consumergroup=trace-service},1651547777,33689
{consumergroup=trace-service},1651547782,56301
{consumergroup=trace-service},1651547787,56301
{consumergroup=trace-service},1651547792,56301
{consumergroup=trace-service},1651547797,33157
{consumergroup=trace-service},1651547802,33157
{consumergroup=trace-service},1651547807,33157
{consumergroup=trace-service},1651547812,73562
{consumergroup=trace-service},1651547817,73562
{consumergroup=trace-service},1651547822,73562
{consumergroup=trace-service},1651547827,27469
{consumergroup=trace-service},1651547832,27469
{consumergroup=trace-service},1651547837,27469
{consumergroup=trace-service},1651547842,77302
{consumergroup=trace-service},1651547847,77302
{consumergroup=trace-service},1651547852,77302
{consumergroup=trace-service},1651547857,25851
{consumergroup=trace-service},1651547862,25851
{consumergroup=trace-service},1651547867,25851
{consumergroup=trace-service},1651547872,83456
{consumergroup=trace-service},1651547877,83456
{consumergroup=trace-service},1651547882,83456
{consumergroup=trace-service},1651547887,21399
{consumergroup=trace-service},1651547892,21399
{consumergroup=trace-service},1651547897,21399
{consumergroup=trace-service},1651547902,54097
{consumergroup=trace-service},1651547907,54097
{consumergroup=trace-service},1651547912,54097
{consumergroup=trace-service},1651547917,25864
{consumergroup=trace-service},1651547922,25864
{consumergroup=trace-service},1651547927,25864
{consumergroup=trace-service},1651547932,85995
{consumergroup=trace-service},1651547937,85995
{consumergroup=trace-service},1651547942,85995
{consumergroup=trace-service},1651547947,29711
{consumergroup=trace-service},1651547952,29711
{consumergroup=trace-service},1651547957,29711
{consumergroup=trace-service},1651547962,78316
{consumergroup=trace-service},1651547967,78316
{consumergroup=trace-service},1651547972,78316
{consumergroup=trace-service},1651547977,19330
{consumergroup=trace-service},1651547982,19330
{consumergroup=trace-service},1651547987,19330
{consumergroup=trace-service},1651547992,68145
{consumergroup=trace-service},1651547997,68145
{consumergroup=trace-service},1651548002,68145
{consumergroup=trace-service},1651548007,26269
{consumergroup=trace-service},1651548012,26269
{consumergroup=trace-service},1651548017,26269
{consumergroup=trace-service},1651548022,82200
{consumergroup=trace-service},1651548027,82200
{consumergroup=trace-service},1651548032,82200
{consumergroup=trace-service},1651548037,75864
{consumergroup=trace-service},1651548042,75864
{consumergroup=trace-service},1651548047,75864
{consumergroup=trace-service},1651548052,83078
{consumergroup=trace-service},1651548057,83078
{consumergroup=trace-service},1651548062,83078
{consumergroup=trace-service},1651548067,22890
{consumergroup=trace-service},1651548072,22890
{consumergroup=trace-service},1651548077,22890
{consumergroup=trace-service},1651548082,74242
{consumergroup=trace-service},1651548087,74242
{consumergroup=trace-service},1651548092,74242
{consumergroup=trace-service},1651548097,35426
{consumergroup=trace-service},1651548102,35426
{consumergroup=trace-service},1651548107,35426
{consumergroup=trace-service},1651548112,78823
{consumergroup=trace-service},1651548117,78823
{consumergroup=trace-token-events-consumer},1651547707,0
{consumergroup=trace-token-events-consumer},1651547712,0
{consumergroup=trace-token-events-consumer},1651547717,0
{consumergroup=trace-token-events-consumer},1651547722,0
{consumergroup=trace-token-events-consumer},1651547727,0
{consumergroup=trace-token-events-consumer},1651547732,0
{consumergroup=trace-token-events-consumer},1651547737,0
{consumergroup=trace-token-events-consumer},1651547742,0
{consumergroup=trace-token-events-consumer},1651547747,0
{consumergroup=trace-token-events-consumer},1651547752,0
{consumergroup=trace-token-events-consumer},1651547757,0
{consumergroup=trace-token-events-consumer},1651547762,0
{consumergroup=trace-token-events-consumer},1651547767,0
{consumergroup=trace-token-events-consumer},1651547772,0
{consumergroup=trace-token-events-consumer},1651547777,0
{consumergroup=trace-token-events-consumer},1651547782,0
{consumergroup=trace-token-events-consumer},1651547787,0
{consumergroup=trace-token-events-consumer},1651547792,0
{consumergroup=trace-token-events-consumer},1651547797,0
{consumergroup=trace-token-events-consumer},1651547802,0
{consumergroup=trace-token-events-consumer},1651547807,0
{consumergroup=trace-token-events-consumer},1651547812,0
{consumergroup=trace-token-events-consumer},1651547817,0
{consumergroup=trace-token-events-consumer},1651547822,0
{consumergroup=trace-token-events-consumer},1651547827,0
{consumergroup=trace-token-events-consumer},1651547832,0
{consumergroup=trace-token-events-consumer},1651547837,0
{consumergroup=trace-token-events-consumer},1651547842,0
{consumergroup=trace-token-events-consumer},1651547847,0
{consumergroup=trace-token-events-consumer},1651547852,0
{consumergroup=trace-token-events-consumer},1651547857,0
{consumergroup=trace-token-events-consumer},1651547862,0
{consumergroup=trace-token-events-consumer},1651547867,0
{consumergroup=trace-token-events-consumer},1651547872,0
{consumergroup=trace-token-events-consumer},1651547877,0
{consumergroup=trace-token-events-consumer},1651547882,0
{consumergroup=trace-token-events-consumer},1651547887,0
{consumergroup=trace-token-events-consumer},1651547892,0
{consumergroup=trace-token-events-consumer},1651547897,0
{consumergroup=trace-token-events-consumer},1651547902,0
{consumergroup=trace-token-events-consumer},1651547907,0
{consumergroup=trace-token-events-consumer},1651547912,0
{consumergroup=trace-token-events-consumer},1651547917,0
{consumergroup=trace-token-events-consumer},1651547922,0
{consumergroup=trace-token-events-consumer},1651547927,0
{consumergroup=trace-token-events-consumer},1651547932,0
{consumergroup=trace-token-events-consumer},1651547937,0
{consumergroup=trace-token-events-consumer},1651547942,0
{consumergroup=trace-token-events-consumer},1651547947,0
{consumergroup=trace-token-events-consumer},1651547952,0
{consumergroup=trace-token-events-consumer},1651547957,0
{consumergroup=trace-token-events-consumer},1651547962,0
{consumergroup=trace-token-events-consumer},1651547967,0
{consumergroup=trace-token-events-consumer},1651547972,0
{consumergroup=trace-token-events-consumer},1651547977,0
{consumergroup=trace-token-events-consumer},1651547982,0
{consumergroup=trace-token-events-consumer},1651547987,0
{consumergroup=trace-token-events-consumer},1651547992,0
{consumergroup=trace-token-events-consumer},1651547997,0
{consumergroup=trace-token-events-consumer},1651548002,0
{consumergroup=trace-token-events-consumer},1651548007,0
{consumergroup=trace-token-events-consumer},1651548012,0
{consumergroup=trace-token-events-consumer},1651548017,0
{consumergroup=trace-token-events-consumer},1651548022,0
{consumergroup=trace-token-events-consumer},1651548027,0
{consumergroup=trace-token-events-consumer},1651548032,0
{consumergroup=trace-token-events-consumer},1651548037,0
{consumergroup=trace-token-events-consumer},1651548042,0
{consumergroup=trace-token-events-consumer},1651548047,0
{consumergroup=trace-token-events-consumer},1651548052,0
{consumergroup=trace-token-events-consumer},1651548057,0
{consumergroup=trace-token-events-consumer},1651548062,0
{consumergroup=trace-token-events-consumer},1651548067,0
{consumergroup=trace-token-events-consumer},1651548072,0
{consumergroup=trace-token-events-consumer},1651548077,0
{consumergroup=trace-token-events-consumer},1651548082,0
{consumergroup=trace-token-events-consumer},1651548087,0
{consumergroup=trace-token-events-consumer},1651548092,0
{consumergroup=trace-token-events-consumer},1651548097,0
{consumergroup=trace-token-events-consumer},1651548102,0
{consumergroup=trace-token-events-consumer},1651548107,0
{consumergroup=trace-token-events-consumer},1651548112,0
{consumergroup=trace-token-events-consumer},1651548117,0
