labels,timestamp,value
{consumergroup=__strimzi-topic-operator-kstreams},1651469024,8
{consumergroup=__strimzi-topic-operator-kstreams},1651469029,8
{consumergroup=__strimzi-topic-operator-kstreams},1651469034,8
{consumergroup=__strimzi-topic-operator-kstreams},1651469039,8
{consumergroup=__strimzi-topic-operator-kstreams},1651469044,8
{consumergroup=__strimzi-topic-operator-kstreams},1651469049,8
{consumergroup=__strimzi-topic-operator-kstreams},1651469054,0
{consumergroup=__strimzi-topic-operator-kstreams},1651469059,0
{consumergroup=__strimzi-topic-operator-kstreams},1651469064,0
{consumergroup=__strimzi-topic-operator-kstreams},1651469069,0
{consumergroup=__strimzi-topic-operator-kstreams},1651469074,0
{consumergroup=__strimzi-topic-operator-kstreams},1651469079,0
{consumergroup=__strimzi-topic-operator-kstreams},1651469084,0
{consumergroup=__strimzi-topic-operator-kstreams},1651469089,0
{consumergroup=__strimzi-topic-operator-kstreams},1651469094,0
{consumergroup=__strimzi-topic-operator-kstreams},1651469099,0
{consumergroup=__strimzi-topic-operator-kstreams},1651469104,0
{consumergroup=__strimzi-topic-operator-kstreams},1651469109,0
{consumergroup=__strimzi-topic-operator-kstreams},1651469114,0
{consumergroup=__strimzi-topic-operator-kstreams},1651469119,0
{consumergroup=__strimzi-topic-operator-kstreams},1651469124,0
{consumergroup=__strimzi-topic-operator-kstreams},1651469129,0
{consumergroup=__strimzi-topic-operator-kstreams},1651469134,0
{consumergroup=__strimzi-topic-operator-kstreams},1651469139,0
{consumergroup=__strimzi-topic-operator-kstreams},1651469144,0
{consumergroup=__strimzi-topic-operator-kstreams},1651469149,0
{consumergroup=__strimzi-topic-operator-kstreams},1651469154,0
{consumergroup=__strimzi-topic-operator-kstreams},1651469159,0
{consumergroup=__strimzi-topic-operator-kstreams},1651469164,0
{consumergroup=__strimzi-topic-operator-kstreams},1651469169,0
{consumergroup=__strimzi-topic-operator-kstreams},1651469174,0
{consumergroup=__strimzi-topic-operator-kstreams},1651469179,0
{consumergroup=__strimzi-topic-operator-kstreams},1651469184,0
{consumergroup=__strimzi-topic-operator-kstreams},1651469189,0
{consumergroup=__strimzi-topic-operator-kstreams},1651469194,0
{consumergroup=__strimzi-topic-operator-kstreams},1651469199,0
{consumergroup=__strimzi-topic-operator-kstreams},1651469204,0
{consumergroup=__strimzi-topic-operator-kstreams},1651469209,0
{consumergroup=__strimzi-topic-operator-kstreams},1651469214,0
{consumergroup=__strimzi-topic-operator-kstreams},1651469219,0
{consumergroup=__strimzi-topic-operator-kstreams},1651469224,0
{consumergroup=__strimzi-topic-operator-kstreams},1651469229,0
{consumergroup=__strimzi-topic-operator-kstreams},1651469234,0
{consumergroup=__strimzi-topic-operator-kstreams},1651469239,0
{consumergroup=__strimzi-topic-operator-kstreams},1651469244,0
{consumergroup=__strimzi-topic-operator-kstreams},1651469249,0
{consumergroup=__strimzi-topic-operator-kstreams},1651469254,0
{consumergroup=__strimzi-topic-operator-kstreams},1651469259,0
{consumergroup=__strimzi-topic-operator-kstreams},1651469264,0
{consumergroup=__strimzi-topic-operator-kstreams},1651469269,0
{consumergroup=__strimzi-topic-operator-kstreams},1651469274,0
{consumergroup=__strimzi-topic-operator-kstreams},1651469279,0
{consumergroup=__strimzi-topic-operator-kstreams},1651469284,0
{consumergroup=__strimzi-topic-operator-kstreams},1651469289,0
{consumergroup=__strimzi-topic-operator-kstreams},1651469294,0
{consumergroup=__strimzi-topic-operator-kstreams},1651469299,0
{consumergroup=__strimzi-topic-operator-kstreams},1651469304,0
{consumergroup=__strimzi-topic-operator-kstreams},1651469309,0
{consumergroup=__strimzi-topic-operator-kstreams},1651469314,0
{consumergroup=__strimzi-topic-operator-kstreams},1651469319,0
{consumergroup=__strimzi-topic-operator-kstreams},1651469324,0
{consumergroup=__strimzi-topic-operator-kstreams},1651469329,0
{consumergroup=__strimzi-topic-operator-kstreams},1651469334,0
{consumergroup=__strimzi-topic-operator-kstreams},1651469339,0
{consumergroup=__strimzi-topic-operator-kstreams},1651469344,0
{consumergroup=__strimzi-topic-operator-kstreams},1651469349,0
{consumergroup=__strimzi-topic-operator-kstreams},1651469354,0
{consumergroup=__strimzi-topic-operator-kstreams},1651469359,0
{consumergroup=__strimzi-topic-operator-kstreams},1651469364,0
{consumergroup=__strimzi-topic-operator-kstreams},1651469369,0
{consumergroup=__strimzi-topic-operator-kstreams},1651469374,0
{consumergroup=__strimzi-topic-operator-kstreams},1651469379,0
{consumergroup=__strimzi-topic-operator-kstreams},1651469384,0
{consumergroup=__strimzi-topic-operator-kstreams},1651469389,0
{consumergroup=__strimzi-topic-operator-kstreams},1651469394,0
{consumergroup=__strimzi-topic-operator-kstreams},1651469399,0
{consumergroup=__strimzi-topic-operator-kstreams},1651469404,0
{consumergroup=__strimzi-topic-operator-kstreams},1651469409,0
{consumergroup=__strimzi-topic-operator-kstreams},1651469414,0
{consumergroup=__strimzi-topic-operator-kstreams},1651469419,0
{consumergroup=__strimzi-topic-operator-kstreams},1651469424,0
{consumergroup=__strimzi-topic-operator-kstreams},1651469429,0
{consumergroup=__strimzi-topic-operator-kstreams},1651469434,0
{consumergroup=__strimzi-topic-operator-kstreams},1651469439,0
{consumergroup=__strimzi-topic-operator-kstreams},1651469444,0
{consumergroup=__strimzi-topic-operator-kstreams},1651469449,0
{consumergroup=__strimzi-topic-operator-kstreams},1651469454,0
{consumergroup=__strimzi-topic-operator-kstreams},1651469459,0
{consumergroup=__strimzi-topic-operator-kstreams},1651469464,0
{consumergroup=__strimzi-topic-operator-kstreams},1651469469,0
{consumergroup=trace-service},1651469069,32859
{consumergroup=trace-service},1651469074,32859
{consumergroup=trace-service},1651469079,32859
{consumergroup=trace-service},1651469084,63808
{consumergroup=trace-service},1651469089,63808
{consumergroup=trace-service},1651469094,63808
{consumergroup=trace-service},1651469099,38868
{consumergroup=trace-service},1651469104,38868
{consumergroup=trace-service},1651469109,38868
{consumergroup=trace-service},1651469114,71108
{consumergroup=trace-service},1651469119,71108
{consumergroup=trace-service},1651469124,71108
{consumergroup=trace-service},1651469129,198602
{consumergroup=trace-service},1651469134,198602
{consumergroup=trace-service},1651469139,198602
{consumergroup=trace-service},1651469144,107926
{consumergroup=trace-service},1651469149,107926
{consumergroup=trace-service},1651469154,107926
{consumergroup=trace-service},1651469159,171152
{consumergroup=trace-service},1651469164,171152
{consumergroup=trace-service},1651469169,171152
{consumergroup=trace-service},1651469174,106721
{consumergroup=trace-service},1651469179,106721
{consumergroup=trace-service},1651469184,106721
{consumergroup=trace-service},1651469189,184109
{consumergroup=trace-service},1651469194,184109
{consumergroup=trace-service},1651469199,184109
{consumergroup=trace-service},1651469204,167913
{consumergroup=trace-service},1651469209,167913
{consumergroup=trace-service},1651469214,167913
{consumergroup=trace-service},1651469219,107145
{consumergroup=trace-service},1651469224,107145
{consumergroup=trace-service},1651469229,107145
{consumergroup=trace-service},1651469234,71468
{consumergroup=trace-service},1651469239,71468
{consumergroup=trace-service},1651469244,71468
{consumergroup=trace-service},1651469249,157319
{consumergroup=trace-service},1651469254,157319
{consumergroup=trace-service},1651469259,157319
{consumergroup=trace-service},1651469264,169659
{consumergroup=trace-service},1651469269,169659
{consumergroup=trace-service},1651469274,169659
{consumergroup=trace-service},1651469279,44113
{consumergroup=trace-service},1651469284,44113
{consumergroup=trace-service},1651469289,44113
{consumergroup=trace-service},1651469294,74258
{consumergroup=trace-service},1651469299,74258
{consumergroup=trace-service},1651469304,74258
{consumergroup=trace-service},1651469309,135807
{consumergroup=trace-service},1651469314,135807
{consumergroup=trace-service},1651469319,135807
{consumergroup=trace-service},1651469324,74913
{consumergroup=trace-service},1651469329,74913
{consumergroup=trace-service},1651469334,74913
{consumergroup=trace-service},1651469339,159071
{consumergroup=trace-service},1651469344,159071
{consumergroup=trace-service},1651469349,159071
{consumergroup=trace-service},1651469354,170902
{consumergroup=trace-service},1651469359,170902
{consumergroup=trace-service},1651469364,170902
{consumergroup=trace-service},1651469369,137819
{consumergroup=trace-service},1651469374,137819
{consumergroup=trace-service},1651469379,137819
{consumergroup=trace-service},1651469384,73850
{consumergroup=trace-service},1651469389,73850
{consumergroup=trace-service},1651469394,73850
{consumergroup=trace-service},1651469399,170546
{consumergroup=trace-service},1651469404,170546
{consumergroup=trace-service},1651469409,170546
{consumergroup=trace-service},1651469414,255475
{consumergroup=trace-service},1651469419,255475
{consumergroup=trace-service},1651469424,255475
{consumergroup=trace-service},1651469429,12782
{consumergroup=trace-service},1651469434,12782
{consumergroup=trace-service},1651469439,12782
{consumergroup=trace-service},1651469444,73763
{consumergroup=trace-service},1651469449,73763
{consumergroup=trace-service},1651469454,73763
{consumergroup=trace-service},1651469459,177713
{consumergroup=trace-service},1651469464,177713
{consumergroup=trace-service},1651469469,177713
{consumergroup=trace-token-events-consumer},1651469054,0
{consumergroup=trace-token-events-consumer},1651469059,0
{consumergroup=trace-token-events-consumer},1651469064,0
{consumergroup=trace-token-events-consumer},1651469069,0
{consumergroup=trace-token-events-consumer},1651469074,0
{consumergroup=trace-token-events-consumer},1651469079,0
{consumergroup=trace-token-events-consumer},1651469084,0
{consumergroup=trace-token-events-consumer},1651469089,0
{consumergroup=trace-token-events-consumer},1651469094,0
{consumergroup=trace-token-events-consumer},1651469099,0
{consumergroup=trace-token-events-consumer},1651469104,0
{consumergroup=trace-token-events-consumer},1651469109,0
{consumergroup=trace-token-events-consumer},1651469114,0
{consumergroup=trace-token-events-consumer},1651469119,0
{consumergroup=trace-token-events-consumer},1651469124,0
{consumergroup=trace-token-events-consumer},1651469129,0
{consumergroup=trace-token-events-consumer},1651469134,0
{consumergroup=trace-token-events-consumer},1651469139,0
{consumergroup=trace-token-events-consumer},1651469144,0
{consumergroup=trace-token-events-consumer},1651469149,0
{consumergroup=trace-token-events-consumer},1651469154,0
{consumergroup=trace-token-events-consumer},1651469159,0
{consumergroup=trace-token-events-consumer},1651469164,0
{consumergroup=trace-token-events-consumer},1651469169,0
{consumergroup=trace-token-events-consumer},1651469174,0
{consumergroup=trace-token-events-consumer},1651469179,0
{consumergroup=trace-token-events-consumer},1651469184,0
{consumergroup=trace-token-events-consumer},1651469189,0
{consumergroup=trace-token-events-consumer},1651469194,0
{consumergroup=trace-token-events-consumer},1651469199,0
{consumergroup=trace-token-events-consumer},1651469204,0
{consumergroup=trace-token-events-consumer},1651469209,0
{consumergroup=trace-token-events-consumer},1651469214,0
{consumergroup=trace-token-events-consumer},1651469219,0
{consumergroup=trace-token-events-consumer},1651469224,0
{consumergroup=trace-token-events-consumer},1651469229,0
{consumergroup=trace-token-events-consumer},1651469234,0
{consumergroup=trace-token-events-consumer},1651469239,0
{consumergroup=trace-token-events-consumer},1651469244,0
{consumergroup=trace-token-events-consumer},1651469249,0
{consumergroup=trace-token-events-consumer},1651469254,0
{consumergroup=trace-token-events-consumer},1651469259,0
{consumergroup=trace-token-events-consumer},1651469264,0
{consumergroup=trace-token-events-consumer},1651469269,0
{consumergroup=trace-token-events-consumer},1651469274,0
{consumergroup=trace-token-events-consumer},1651469279,0
{consumergroup=trace-token-events-consumer},1651469284,0
{consumergroup=trace-token-events-consumer},1651469289,0
{consumergroup=trace-token-events-consumer},1651469294,0
{consumergroup=trace-token-events-consumer},1651469299,0
{consumergroup=trace-token-events-consumer},1651469304,0
{consumergroup=trace-token-events-consumer},1651469309,0
{consumergroup=trace-token-events-consumer},1651469314,0
{consumergroup=trace-token-events-consumer},1651469319,0
{consumergroup=trace-token-events-consumer},1651469324,0
{consumergroup=trace-token-events-consumer},1651469329,0
{consumergroup=trace-token-events-consumer},1651469334,0
{consumergroup=trace-token-events-consumer},1651469339,0
{consumergroup=trace-token-events-consumer},1651469344,0
{consumergroup=trace-token-events-consumer},1651469349,0
{consumergroup=trace-token-events-consumer},1651469354,0
{consumergroup=trace-token-events-consumer},1651469359,0
{consumergroup=trace-token-events-consumer},1651469364,0
{consumergroup=trace-token-events-consumer},1651469369,0
{consumergroup=trace-token-events-consumer},1651469374,0
{consumergroup=trace-token-events-consumer},1651469379,0
{consumergroup=trace-token-events-consumer},1651469384,0
{consumergroup=trace-token-events-consumer},1651469389,0
{consumergroup=trace-token-events-consumer},1651469394,0
{consumergroup=trace-token-events-consumer},1651469399,0
{consumergroup=trace-token-events-consumer},1651469404,0
{consumergroup=trace-token-events-consumer},1651469409,0
{consumergroup=trace-token-events-consumer},1651469414,0
{consumergroup=trace-token-events-consumer},1651469419,0
{consumergroup=trace-token-events-consumer},1651469424,0
{consumergroup=trace-token-events-consumer},1651469429,0
{consumergroup=trace-token-events-consumer},1651469434,0
{consumergroup=trace-token-events-consumer},1651469439,0
{consumergroup=trace-token-events-consumer},1651469444,0
{consumergroup=trace-token-events-consumer},1651469449,0
{consumergroup=trace-token-events-consumer},1651469454,0
{consumergroup=trace-token-events-consumer},1651469459,0
{consumergroup=trace-token-events-consumer},1651469464,0
{consumergroup=trace-token-events-consumer},1651469469,0
