labels,timestamp,value
{consumergroup=__strimzi-topic-operator-kstreams},1651557634,7
{consumergroup=__strimzi-topic-operator-kstreams},1651557639,7
{consumergroup=__strimzi-topic-operator-kstreams},1651557644,7
{consumergroup=__strimzi-topic-operator-kstreams},1651557649,9
{consumergroup=__strimzi-topic-operator-kstreams},1651557654,9
{consumergroup=__strimzi-topic-operator-kstreams},1651557659,9
{consumergroup=__strimzi-topic-operator-kstreams},1651557664,0
{consumergroup=__strimzi-topic-operator-kstreams},1651557669,0
{consumergroup=__strimzi-topic-operator-kstreams},1651557674,0
{consumergroup=__strimzi-topic-operator-kstreams},1651557679,0
{consumergroup=__strimzi-topic-operator-kstreams},1651557684,0
{consumergroup=__strimzi-topic-operator-kstreams},1651557689,0
{consumergroup=__strimzi-topic-operator-kstreams},1651557694,0
{consumergroup=__strimzi-topic-operator-kstreams},1651557699,0
{consumergroup=__strimzi-topic-operator-kstreams},1651557704,0
{consumergroup=__strimzi-topic-operator-kstreams},1651557709,1
{consumergroup=__strimzi-topic-operator-kstreams},1651557714,1
{consumergroup=__strimzi-topic-operator-kstreams},1651557719,1
{consumergroup=__strimzi-topic-operator-kstreams},1651557724,0
{consumergroup=__strimzi-topic-operator-kstreams},1651557729,0
{consumergroup=__strimzi-topic-operator-kstreams},1651557734,0
{consumergroup=__strimzi-topic-operator-kstreams},1651557739,0
{consumergroup=__strimzi-topic-operator-kstreams},1651557744,0
{consumergroup=__strimzi-topic-operator-kstreams},1651557749,0
{consumergroup=__strimzi-topic-operator-kstreams},1651557754,0
{consumergroup=__strimzi-topic-operator-kstreams},1651557759,0
{consumergroup=__strimzi-topic-operator-kstreams},1651557764,0
{consumergroup=__strimzi-topic-operator-kstreams},1651557769,0
{consumergroup=__strimzi-topic-operator-kstreams},1651557774,0
{consumergroup=__strimzi-topic-operator-kstreams},1651557779,0
{consumergroup=__strimzi-topic-operator-kstreams},1651557784,0
{consumergroup=__strimzi-topic-operator-kstreams},1651557789,0
{consumergroup=__strimzi-topic-operator-kstreams},1651557794,0
{consumergroup=__strimzi-topic-operator-kstreams},1651557799,0
{consumergroup=__strimzi-topic-operator-kstreams},1651557804,0
{consumergroup=__strimzi-topic-operator-kstreams},1651557809,0
{consumergroup=__strimzi-topic-operator-kstreams},1651557814,0
{consumergroup=__strimzi-topic-operator-kstreams},1651557819,0
{consumergroup=__strimzi-topic-operator-kstreams},1651557824,0
{consumergroup=__strimzi-topic-operator-kstreams},1651557829,0
{consumergroup=__strimzi-topic-operator-kstreams},1651557834,0
{consumergroup=__strimzi-topic-operator-kstreams},1651557839,0
{consumergroup=__strimzi-topic-operator-kstreams},1651557844,0
{consumergroup=__strimzi-topic-operator-kstreams},1651557849,0
{consumergroup=__strimzi-topic-operator-kstreams},1651557854,0
{consumergroup=__strimzi-topic-operator-kstreams},1651557859,0
{consumergroup=__strimzi-topic-operator-kstreams},1651557864,0
{consumergroup=__strimzi-topic-operator-kstreams},1651557869,0
{consumergroup=__strimzi-topic-operator-kstreams},1651557874,0
{consumergroup=__strimzi-topic-operator-kstreams},1651557879,0
{consumergroup=__strimzi-topic-operator-kstreams},1651557884,0
{consumergroup=__strimzi-topic-operator-kstreams},1651557889,0
{consumergroup=__strimzi-topic-operator-kstreams},1651557894,0
{consumergroup=__strimzi-topic-operator-kstreams},1651557899,0
{consumergroup=__strimzi-topic-operator-kstreams},1651557904,0
{consumergroup=__strimzi-topic-operator-kstreams},1651557909,0
{consumergroup=__strimzi-topic-operator-kstreams},1651557914,0
{consumergroup=__strimzi-topic-operator-kstreams},1651557919,0
{consumergroup=__strimzi-topic-operator-kstreams},1651557924,0
{consumergroup=__strimzi-topic-operator-kstreams},1651557929,0
{consumergroup=__strimzi-topic-operator-kstreams},1651557934,0
{consumergroup=__strimzi-topic-operator-kstreams},1651557939,0
{consumergroup=__strimzi-topic-operator-kstreams},1651557944,0
{consumergroup=__strimzi-topic-operator-kstreams},1651557949,0
{consumergroup=__strimzi-topic-operator-kstreams},1651557954,0
{consumergroup=__strimzi-topic-operator-kstreams},1651557959,0
{consumergroup=__strimzi-topic-operator-kstreams},1651557964,0
{consumergroup=__strimzi-topic-operator-kstreams},1651557969,0
{consumergroup=__strimzi-topic-operator-kstreams},1651557974,0
{consumergroup=__strimzi-topic-operator-kstreams},1651557979,0
{consumergroup=__strimzi-topic-operator-kstreams},1651557984,0
{consumergroup=__strimzi-topic-operator-kstreams},1651557989,0
{consumergroup=__strimzi-topic-operator-kstreams},1651557994,0
{consumergroup=__strimzi-topic-operator-kstreams},1651557999,0
{consumergroup=__strimzi-topic-operator-kstreams},1651558004,0
{consumergroup=__strimzi-topic-operator-kstreams},1651558009,0
{consumergroup=__strimzi-topic-operator-kstreams},1651558014,0
{consumergroup=__strimzi-topic-operator-kstreams},1651558019,0
{consumergroup=__strimzi-topic-operator-kstreams},1651558024,0
{consumergroup=__strimzi-topic-operator-kstreams},1651558029,0
{consumergroup=__strimzi-topic-operator-kstreams},1651558034,0
{consumergroup=__strimzi-topic-operator-kstreams},1651558039,0
{consumergroup=__strimzi-topic-operator-kstreams},1651558044,0
{consumergroup=__strimzi-topic-operator-kstreams},1651558049,0
{consumergroup=__strimzi-topic-operator-kstreams},1651558054,0
{consumergroup=__strimzi-topic-operator-kstreams},1651558059,0
{consumergroup=__strimzi-topic-operator-kstreams},1651558064,0
{consumergroup=__strimzi-topic-operator-kstreams},1651558069,0
{consumergroup=__strimzi-topic-operator-kstreams},1651558074,0
{consumergroup=adapter-service},1651557664,0
{consumergroup=adapter-service},1651557669,0
{consumergroup=adapter-service},1651557674,0
{consumergroup=adapter-service},1651557679,17672
{consumergroup=adapter-service},1651557684,17672
{consumergroup=adapter-service},1651557689,17672
{consumergroup=adapter-service},1651557694,5363
{consumergroup=adapter-service},1651557699,5363
{consumergroup=adapter-service},1651557704,5363
{consumergroup=adapter-service},1651557709,11232
{consumergroup=adapter-service},1651557714,11232
{consumergroup=adapter-service},1651557719,11232
{consumergroup=adapter-service},1651557724,7007
{consumergroup=adapter-service},1651557729,7007
{consumergroup=adapter-service},1651557734,7007
{consumergroup=adapter-service},1651557739,9775
{consumergroup=adapter-service},1651557744,9775
{consumergroup=adapter-service},1651557749,9775
{consumergroup=adapter-service},1651557754,2144
{consumergroup=adapter-service},1651557759,2144
{consumergroup=adapter-service},1651557764,2144
{consumergroup=adapter-service},1651557769,9011
{consumergroup=adapter-service},1651557774,9011
{consumergroup=adapter-service},1651557779,9011
{consumergroup=adapter-service},1651557784,4777
{consumergroup=adapter-service},1651557789,4777
{consumergroup=adapter-service},1651557794,4777
{consumergroup=adapter-service},1651557799,8542
{consumergroup=adapter-service},1651557804,8542
{consumergroup=adapter-service},1651557809,8542
{consumergroup=adapter-service},1651557814,4709
{consumergroup=adapter-service},1651557819,4709
{consumergroup=adapter-service},1651557824,4709
{consumergroup=adapter-service},1651557829,12381
{consumergroup=adapter-service},1651557834,12381
{consumergroup=adapter-service},1651557839,12381
{consumergroup=adapter-service},1651557844,3535
{consumergroup=adapter-service},1651557849,3535
{consumergroup=adapter-service},1651557854,3535
{consumergroup=adapter-service},1651557859,7806
{consumergroup=adapter-service},1651557864,7806
{consumergroup=adapter-service},1651557869,7806
{consumergroup=adapter-service},1651557874,3221
{consumergroup=adapter-service},1651557879,3221
{consumergroup=adapter-service},1651557884,3221
{consumergroup=adapter-service},1651557889,8354
{consumergroup=adapter-service},1651557894,8354
{consumergroup=adapter-service},1651557899,8354
{consumergroup=adapter-service},1651557904,2592
{consumergroup=adapter-service},1651557909,2592
{consumergroup=adapter-service},1651557914,2592
{consumergroup=adapter-service},1651557919,6949
{consumergroup=adapter-service},1651557924,6949
{consumergroup=adapter-service},1651557929,6949
{consumergroup=adapter-service},1651557934,6305
{consumergroup=adapter-service},1651557939,6305
{consumergroup=adapter-service},1651557944,6305
{consumergroup=adapter-service},1651557949,6405
{consumergroup=adapter-service},1651557954,6405
{consumergroup=adapter-service},1651557959,6405
{consumergroup=adapter-service},1651557964,2733
{consumergroup=adapter-service},1651557969,2733
{consumergroup=adapter-service},1651557974,2733
{consumergroup=adapter-service},1651557979,5853
{consumergroup=adapter-service},1651557984,5853
{consumergroup=adapter-service},1651557989,5853
{consumergroup=adapter-service},1651557994,7598
{consumergroup=adapter-service},1651557999,7598
{consumergroup=adapter-service},1651558004,7598
{consumergroup=adapter-service},1651558009,5354
{consumergroup=adapter-service},1651558014,5354
{consumergroup=adapter-service},1651558019,5354
{consumergroup=adapter-service},1651558024,5357
{consumergroup=adapter-service},1651558029,5357
{consumergroup=adapter-service},1651558034,5357
{consumergroup=adapter-service},1651558039,6085
{consumergroup=adapter-service},1651558044,6085
{consumergroup=adapter-service},1651558049,6085
{consumergroup=adapter-service},1651558054,5761
{consumergroup=adapter-service},1651558059,5761
{consumergroup=adapter-service},1651558064,5761
{consumergroup=adapter-service},1651558069,4608
{consumergroup=adapter-service},1651558074,4608
{consumergroup=landscape-service},1651557679,62544
{consumergroup=landscape-service},1651557684,62544
{consumergroup=landscape-service},1651557689,62544
{consumergroup=landscape-service},1651557694,27753
{consumergroup=landscape-service},1651557699,27753
{consumergroup=landscape-service},1651557704,27753
{consumergroup=landscape-service},1651557709,11963
{consumergroup=landscape-service},1651557714,11963
{consumergroup=landscape-service},1651557719,11963
{consumergroup=landscape-service},1651557724,6328
{consumergroup=landscape-service},1651557729,6328
{consumergroup=landscape-service},1651557734,6328
{consumergroup=landscape-service},1651557739,10903
{consumergroup=landscape-service},1651557744,10903
{consumergroup=landscape-service},1651557749,10903
{consumergroup=landscape-service},1651557754,1805
{consumergroup=landscape-service},1651557759,1805
{consumergroup=landscape-service},1651557764,1805
{consumergroup=landscape-service},1651557769,9444
{consumergroup=landscape-service},1651557774,9444
{consumergroup=landscape-service},1651557779,9444
{consumergroup=landscape-service},1651557784,4434
{consumergroup=landscape-service},1651557789,4434
{consumergroup=landscape-service},1651557794,4434
{consumergroup=landscape-service},1651557799,6966
{consumergroup=landscape-service},1651557804,6966
{consumergroup=landscape-service},1651557809,6966
{consumergroup=landscape-service},1651557814,2455
{consumergroup=landscape-service},1651557819,2455
{consumergroup=landscape-service},1651557824,2455
{consumergroup=landscape-service},1651557829,10452
{consumergroup=landscape-service},1651557834,10452
{consumergroup=landscape-service},1651557839,10452
{consumergroup=landscape-service},1651557844,23128
{consumergroup=landscape-service},1651557849,23128
{consumergroup=landscape-service},1651557854,23128
{consumergroup=landscape-service},1651557859,4869
{consumergroup=landscape-service},1651557864,4869
{consumergroup=landscape-service},1651557869,4869
{consumergroup=landscape-service},1651557874,20596
{consumergroup=landscape-service},1651557879,20596
{consumergroup=landscape-service},1651557884,20596
{consumergroup=landscape-service},1651557889,1956
{consumergroup=landscape-service},1651557894,1956
{consumergroup=landscape-service},1651557899,1956
{consumergroup=landscape-service},1651557904,18810
{consumergroup=landscape-service},1651557909,18810
{consumergroup=landscape-service},1651557914,18810
{consumergroup=landscape-service},1651557919,399
{consumergroup=landscape-service},1651557924,399
{consumergroup=landscape-service},1651557929,399
{consumergroup=landscape-service},1651557934,14834
{consumergroup=landscape-service},1651557939,14834
{consumergroup=landscape-service},1651557944,14834
{consumergroup=landscape-service},1651557949,22336
{consumergroup=landscape-service},1651557954,22336
{consumergroup=landscape-service},1651557959,22336
{consumergroup=landscape-service},1651557964,15906
{consumergroup=landscape-service},1651557969,15906
{consumergroup=landscape-service},1651557974,15906
{consumergroup=landscape-service},1651557979,19387
{consumergroup=landscape-service},1651557984,19387
{consumergroup=landscape-service},1651557989,19387
{consumergroup=landscape-service},1651557994,11515
{consumergroup=landscape-service},1651557999,11515
{consumergroup=landscape-service},1651558004,11515
{consumergroup=landscape-service},1651558009,18606
{consumergroup=landscape-service},1651558014,18606
{consumergroup=landscape-service},1651558019,18606
{consumergroup=landscape-service},1651558024,12509
{consumergroup=landscape-service},1651558029,12509
{consumergroup=landscape-service},1651558034,12509
{consumergroup=landscape-service},1651558039,17106
{consumergroup=landscape-service},1651558044,17106
{consumergroup=landscape-service},1651558049,17106
{consumergroup=landscape-service},1651558054,10978
{consumergroup=landscape-service},1651558059,10978
{consumergroup=landscape-service},1651558064,10978
{consumergroup=landscape-service},1651558069,15382
{consumergroup=landscape-service},1651558074,15382
{consumergroup=trace-service},1651557679,12560
{consumergroup=trace-service},1651557684,12560
{consumergroup=trace-service},1651557689,12560
{consumergroup=trace-service},1651557694,15942
{consumergroup=trace-service},1651557699,15942
{consumergroup=trace-service},1651557704,15942
{consumergroup=trace-service},1651557709,84154
{consumergroup=trace-service},1651557714,84154
{consumergroup=trace-service},1651557719,84154
{consumergroup=trace-service},1651557724,93323
{consumergroup=trace-service},1651557729,93323
{consumergroup=trace-service},1651557734,93323
{consumergroup=trace-service},1651557739,88241
{consumergroup=trace-service},1651557744,88241
{consumergroup=trace-service},1651557749,88241
{consumergroup=trace-service},1651557754,33435
{consumergroup=trace-service},1651557759,33435
{consumergroup=trace-service},1651557764,33435
{consumergroup=trace-service},1651557769,98996
{consumergroup=trace-service},1651557774,98996
{consumergroup=trace-service},1651557779,98996
{consumergroup=trace-service},1651557784,29758
{consumergroup=trace-service},1651557789,29758
{consumergroup=trace-service},1651557794,29758
{consumergroup=trace-service},1651557799,88898
{consumergroup=trace-service},1651557804,88898
{consumergroup=trace-service},1651557809,88898
{consumergroup=trace-service},1651557814,38991
{consumergroup=trace-service},1651557819,38991
{consumergroup=trace-service},1651557824,38991
{consumergroup=trace-service},1651557829,120601
{consumergroup=trace-service},1651557834,120601
{consumergroup=trace-service},1651557839,120601
{consumergroup=trace-service},1651557844,33290
{consumergroup=trace-service},1651557849,33290
{consumergroup=trace-service},1651557854,33290
{consumergroup=trace-service},1651557859,84274
{consumergroup=trace-service},1651557864,84274
{consumergroup=trace-service},1651557869,84274
{consumergroup=trace-service},1651557874,174621
{consumergroup=trace-service},1651557879,174621
{consumergroup=trace-service},1651557884,174621
{consumergroup=trace-service},1651557889,125704
{consumergroup=trace-service},1651557894,125704
{consumergroup=trace-service},1651557899,125704
{consumergroup=trace-service},1651557904,43394
{consumergroup=trace-service},1651557909,43394
{consumergroup=trace-service},1651557914,43394
{consumergroup=trace-service},1651557919,91323
{consumergroup=trace-service},1651557924,91323
{consumergroup=trace-service},1651557929,91323
{consumergroup=trace-service},1651557934,227408
{consumergroup=trace-service},1651557939,227408
{consumergroup=trace-service},1651557944,227408
{consumergroup=trace-service},1651557949,140313
{consumergroup=trace-service},1651557954,140313
{consumergroup=trace-service},1651557959,140313
{consumergroup=trace-service},1651557964,33237
{consumergroup=trace-service},1651557969,33237
{consumergroup=trace-service},1651557974,33237
{consumergroup=trace-service},1651557979,90692
{consumergroup=trace-service},1651557984,90692
{consumergroup=trace-service},1651557989,90692
{consumergroup=trace-service},1651557994,138351
{consumergroup=trace-service},1651557999,138351
{consumergroup=trace-service},1651558004,138351
{consumergroup=trace-service},1651558009,95892
{consumergroup=trace-service},1651558014,95892
{consumergroup=trace-service},1651558019,95892
{consumergroup=trace-service},1651558024,28936
{consumergroup=trace-service},1651558029,28936
{consumergroup=trace-service},1651558034,28936
{consumergroup=trace-service},1651558039,71127
{consumergroup=trace-service},1651558044,71127
{consumergroup=trace-service},1651558049,71127
{consumergroup=trace-service},1651558054,38191
{consumergroup=trace-service},1651558059,38191
{consumergroup=trace-service},1651558064,38191
{consumergroup=trace-service},1651558069,79359
{consumergroup=trace-service},1651558074,79359
{consumergroup=trace-token-events-consumer},1651557649,0
{consumergroup=trace-token-events-consumer},1651557654,0
{consumergroup=trace-token-events-consumer},1651557659,0
{consumergroup=trace-token-events-consumer},1651557664,0
{consumergroup=trace-token-events-consumer},1651557669,0
{consumergroup=trace-token-events-consumer},1651557674,0
{consumergroup=trace-token-events-consumer},1651557679,0
{consumergroup=trace-token-events-consumer},1651557684,0
{consumergroup=trace-token-events-consumer},1651557689,0
{consumergroup=trace-token-events-consumer},1651557694,0
{consumergroup=trace-token-events-consumer},1651557699,0
{consumergroup=trace-token-events-consumer},1651557704,0
{consumergroup=trace-token-events-consumer},1651557709,0
{consumergroup=trace-token-events-consumer},1651557714,0
{consumergroup=trace-token-events-consumer},1651557719,0
{consumergroup=trace-token-events-consumer},1651557724,0
{consumergroup=trace-token-events-consumer},1651557729,0
{consumergroup=trace-token-events-consumer},1651557734,0
{consumergroup=trace-token-events-consumer},1651557739,0
{consumergroup=trace-token-events-consumer},1651557744,0
{consumergroup=trace-token-events-consumer},1651557749,0
{consumergroup=trace-token-events-consumer},1651557754,0
{consumergroup=trace-token-events-consumer},1651557759,0
{consumergroup=trace-token-events-consumer},1651557764,0
{consumergroup=trace-token-events-consumer},1651557769,0
{consumergroup=trace-token-events-consumer},1651557774,0
{consumergroup=trace-token-events-consumer},1651557779,0
{consumergroup=trace-token-events-consumer},1651557784,0
{consumergroup=trace-token-events-consumer},1651557789,0
{consumergroup=trace-token-events-consumer},1651557794,0
{consumergroup=trace-token-events-consumer},1651557799,0
{consumergroup=trace-token-events-consumer},1651557804,0
{consumergroup=trace-token-events-consumer},1651557809,0
{consumergroup=trace-token-events-consumer},1651557814,0
{consumergroup=trace-token-events-consumer},1651557819,0
{consumergroup=trace-token-events-consumer},1651557824,0
{consumergroup=trace-token-events-consumer},1651557829,0
{consumergroup=trace-token-events-consumer},1651557834,0
{consumergroup=trace-token-events-consumer},1651557839,0
{consumergroup=trace-token-events-consumer},1651557844,0
{consumergroup=trace-token-events-consumer},1651557849,0
{consumergroup=trace-token-events-consumer},1651557854,0
{consumergroup=trace-token-events-consumer},1651557859,0
{consumergroup=trace-token-events-consumer},1651557864,0
{consumergroup=trace-token-events-consumer},1651557869,0
{consumergroup=trace-token-events-consumer},1651557874,0
{consumergroup=trace-token-events-consumer},1651557879,0
{consumergroup=trace-token-events-consumer},1651557884,0
{consumergroup=trace-token-events-consumer},1651557889,0
{consumergroup=trace-token-events-consumer},1651557894,0
{consumergroup=trace-token-events-consumer},1651557899,0
{consumergroup=trace-token-events-consumer},1651557904,0
{consumergroup=trace-token-events-consumer},1651557909,0
{consumergroup=trace-token-events-consumer},1651557914,0
{consumergroup=trace-token-events-consumer},1651557919,0
{consumergroup=trace-token-events-consumer},1651557924,0
{consumergroup=trace-token-events-consumer},1651557929,0
{consumergroup=trace-token-events-consumer},1651557934,0
{consumergroup=trace-token-events-consumer},1651557939,0
{consumergroup=trace-token-events-consumer},1651557944,0
{consumergroup=trace-token-events-consumer},1651557949,0
{consumergroup=trace-token-events-consumer},1651557954,0
{consumergroup=trace-token-events-consumer},1651557959,0
{consumergroup=trace-token-events-consumer},1651557964,0
{consumergroup=trace-token-events-consumer},1651557969,0
{consumergroup=trace-token-events-consumer},1651557974,0
{consumergroup=trace-token-events-consumer},1651557979,0
{consumergroup=trace-token-events-consumer},1651557984,0
{consumergroup=trace-token-events-consumer},1651557989,0
{consumergroup=trace-token-events-consumer},1651557994,0
{consumergroup=trace-token-events-consumer},1651557999,0
{consumergroup=trace-token-events-consumer},1651558004,0
{consumergroup=trace-token-events-consumer},1651558009,0
{consumergroup=trace-token-events-consumer},1651558014,0
{consumergroup=trace-token-events-consumer},1651558019,0
{consumergroup=trace-token-events-consumer},1651558024,0
{consumergroup=trace-token-events-consumer},1651558029,0
{consumergroup=trace-token-events-consumer},1651558034,0
{consumergroup=trace-token-events-consumer},1651558039,0
{consumergroup=trace-token-events-consumer},1651558044,0
{consumergroup=trace-token-events-consumer},1651558049,0
{consumergroup=trace-token-events-consumer},1651558054,0
{consumergroup=trace-token-events-consumer},1651558059,0
{consumergroup=trace-token-events-consumer},1651558064,0
{consumergroup=trace-token-events-consumer},1651558069,0
{consumergroup=trace-token-events-consumer},1651558074,0
