labels,timestamp,value
{consumergroup=__strimzi-topic-operator-kstreams},1651514184,3
{consumergroup=__strimzi-topic-operator-kstreams},1651514189,3
{consumergroup=__strimzi-topic-operator-kstreams},1651514194,3
{consumergroup=__strimzi-topic-operator-kstreams},1651514199,0
{consumergroup=__strimzi-topic-operator-kstreams},1651514204,0
{consumergroup=__strimzi-topic-operator-kstreams},1651514209,0
{consumergroup=__strimzi-topic-operator-kstreams},1651514214,2
{consumergroup=__strimzi-topic-operator-kstreams},1651514219,2
{consumergroup=__strimzi-topic-operator-kstreams},1651514224,2
{consumergroup=__strimzi-topic-operator-kstreams},1651514229,0
{consumergroup=__strimzi-topic-operator-kstreams},1651514234,0
{consumergroup=__strimzi-topic-operator-kstreams},1651514239,0
{consumergroup=__strimzi-topic-operator-kstreams},1651514244,0
{consumergroup=__strimzi-topic-operator-kstreams},1651514249,0
{consumergroup=__strimzi-topic-operator-kstreams},1651514254,0
{consumergroup=__strimzi-topic-operator-kstreams},1651514259,0
{consumergroup=__strimzi-topic-operator-kstreams},1651514264,0
{consumergroup=__strimzi-topic-operator-kstreams},1651514269,0
{consumergroup=__strimzi-topic-operator-kstreams},1651514274,0
{consumergroup=__strimzi-topic-operator-kstreams},1651514279,0
{consumergroup=__strimzi-topic-operator-kstreams},1651514284,0
{consumergroup=__strimzi-topic-operator-kstreams},1651514289,0
{consumergroup=__strimzi-topic-operator-kstreams},1651514294,0
{consumergroup=__strimzi-topic-operator-kstreams},1651514299,0
{consumergroup=__strimzi-topic-operator-kstreams},1651514304,0
{consumergroup=__strimzi-topic-operator-kstreams},1651514309,0
{consumergroup=__strimzi-topic-operator-kstreams},1651514314,0
{consumergroup=__strimzi-topic-operator-kstreams},1651514319,0
{consumergroup=__strimzi-topic-operator-kstreams},1651514324,0
{consumergroup=__strimzi-topic-operator-kstreams},1651514329,0
{consumergroup=__strimzi-topic-operator-kstreams},1651514334,0
{consumergroup=__strimzi-topic-operator-kstreams},1651514339,0
{consumergroup=__strimzi-topic-operator-kstreams},1651514344,0
{consumergroup=__strimzi-topic-operator-kstreams},1651514349,0
{consumergroup=__strimzi-topic-operator-kstreams},1651514354,0
{consumergroup=__strimzi-topic-operator-kstreams},1651514359,0
{consumergroup=__strimzi-topic-operator-kstreams},1651514364,0
{consumergroup=__strimzi-topic-operator-kstreams},1651514369,0
{consumergroup=__strimzi-topic-operator-kstreams},1651514374,0
{consumergroup=__strimzi-topic-operator-kstreams},1651514379,0
{consumergroup=__strimzi-topic-operator-kstreams},1651514384,0
{consumergroup=__strimzi-topic-operator-kstreams},1651514389,0
{consumergroup=__strimzi-topic-operator-kstreams},1651514394,0
{consumergroup=__strimzi-topic-operator-kstreams},1651514399,0
{consumergroup=__strimzi-topic-operator-kstreams},1651514404,0
{consumergroup=__strimzi-topic-operator-kstreams},1651514409,0
{consumergroup=__strimzi-topic-operator-kstreams},1651514414,0
{consumergroup=__strimzi-topic-operator-kstreams},1651514419,0
{consumergroup=__strimzi-topic-operator-kstreams},1651514424,0
{consumergroup=__strimzi-topic-operator-kstreams},1651514429,0
{consumergroup=__strimzi-topic-operator-kstreams},1651514434,0
{consumergroup=__strimzi-topic-operator-kstreams},1651514439,0
{consumergroup=__strimzi-topic-operator-kstreams},1651514444,0
{consumergroup=__strimzi-topic-operator-kstreams},1651514449,0
{consumergroup=__strimzi-topic-operator-kstreams},1651514454,0
{consumergroup=__strimzi-topic-operator-kstreams},1651514459,0
{consumergroup=__strimzi-topic-operator-kstreams},1651514464,0
{consumergroup=__strimzi-topic-operator-kstreams},1651514469,0
{consumergroup=__strimzi-topic-operator-kstreams},1651514474,0
{consumergroup=__strimzi-topic-operator-kstreams},1651514479,0
{consumergroup=__strimzi-topic-operator-kstreams},1651514484,0
{consumergroup=__strimzi-topic-operator-kstreams},1651514489,0
{consumergroup=__strimzi-topic-operator-kstreams},1651514494,0
{consumergroup=__strimzi-topic-operator-kstreams},1651514499,0
{consumergroup=__strimzi-topic-operator-kstreams},1651514504,0
{consumergroup=__strimzi-topic-operator-kstreams},1651514509,0
{consumergroup=__strimzi-topic-operator-kstreams},1651514514,0
{consumergroup=__strimzi-topic-operator-kstreams},1651514519,0
{consumergroup=__strimzi-topic-operator-kstreams},1651514524,0
{consumergroup=__strimzi-topic-operator-kstreams},1651514529,0
{consumergroup=__strimzi-topic-operator-kstreams},1651514534,0
{consumergroup=__strimzi-topic-operator-kstreams},1651514539,0
{consumergroup=__strimzi-topic-operator-kstreams},1651514544,0
{consumergroup=__strimzi-topic-operator-kstreams},1651514549,0
{consumergroup=__strimzi-topic-operator-kstreams},1651514554,0
{consumergroup=__strimzi-topic-operator-kstreams},1651514559,0
{consumergroup=__strimzi-topic-operator-kstreams},1651514564,0
{consumergroup=__strimzi-topic-operator-kstreams},1651514569,0
{consumergroup=__strimzi-topic-operator-kstreams},1651514574,0
{consumergroup=__strimzi-topic-operator-kstreams},1651514579,0
{consumergroup=__strimzi-topic-operator-kstreams},1651514584,0
{consumergroup=__strimzi-topic-operator-kstreams},1651514589,0
{consumergroup=__strimzi-topic-operator-kstreams},1651514594,0
{consumergroup=__strimzi-topic-operator-kstreams},1651514599,0
{consumergroup=__strimzi-topic-operator-kstreams},1651514604,0
{consumergroup=__strimzi-topic-operator-kstreams},1651514609,0
{consumergroup=__strimzi-topic-operator-kstreams},1651514614,0
{consumergroup=__strimzi-topic-operator-kstreams},1651514619,0
{consumergroup=__strimzi-topic-operator-kstreams},1651514624,0
{consumergroup=__strimzi-topic-operator-kstreams},1651514629,0
{consumergroup=trace-service},1651514229,26360
{consumergroup=trace-service},1651514234,26360
{consumergroup=trace-service},1651514239,26360
{consumergroup=trace-service},1651514244,21735
{consumergroup=trace-service},1651514249,21735
{consumergroup=trace-service},1651514254,21735
{consumergroup=trace-service},1651514259,48361
{consumergroup=trace-service},1651514264,48361
{consumergroup=trace-service},1651514269,48361
{consumergroup=trace-service},1651514274,92533
{consumergroup=trace-service},1651514279,92533
{consumergroup=trace-service},1651514284,92533
{consumergroup=trace-service},1651514289,220180
{consumergroup=trace-service},1651514294,220180
{consumergroup=trace-service},1651514299,220180
{consumergroup=trace-service},1651514304,123070
{consumergroup=trace-service},1651514309,123070
{consumergroup=trace-service},1651514314,123070
{consumergroup=trace-service},1651514319,53197
{consumergroup=trace-service},1651514324,53197
{consumergroup=trace-service},1651514329,53197
{consumergroup=trace-service},1651514334,112028
{consumergroup=trace-service},1651514339,112028
{consumergroup=trace-service},1651514344,112028
{consumergroup=trace-service},1651514349,53142
{consumergroup=trace-service},1651514354,53142
{consumergroup=trace-service},1651514359,53142
{consumergroup=trace-service},1651514364,115826
{consumergroup=trace-service},1651514369,115826
{consumergroup=trace-service},1651514374,115826
{consumergroup=trace-service},1651514379,49903
{consumergroup=trace-service},1651514384,49903
{consumergroup=trace-service},1651514389,49903
{consumergroup=trace-service},1651514394,125635
{consumergroup=trace-service},1651514399,125635
{consumergroup=trace-service},1651514404,125635
{consumergroup=trace-service},1651514409,49722
{consumergroup=trace-service},1651514414,49722
{consumergroup=trace-service},1651514419,49722
{consumergroup=trace-service},1651514424,117692
{consumergroup=trace-service},1651514429,117692
{consumergroup=trace-service},1651514434,117692
{consumergroup=trace-service},1651514439,54030
{consumergroup=trace-service},1651514444,54030
{consumergroup=trace-service},1651514449,54030
{consumergroup=trace-service},1651514454,141971
{consumergroup=trace-service},1651514459,141971
{consumergroup=trace-service},1651514464,141971
{consumergroup=trace-service},1651514469,54817
{consumergroup=trace-service},1651514474,54817
{consumergroup=trace-service},1651514479,54817
{consumergroup=trace-service},1651514484,108958
{consumergroup=trace-service},1651514489,108958
{consumergroup=trace-service},1651514494,108958
{consumergroup=trace-service},1651514499,55002
{consumergroup=trace-service},1651514504,55002
{consumergroup=trace-service},1651514509,55002
{consumergroup=trace-service},1651514514,95283
{consumergroup=trace-service},1651514519,95283
{consumergroup=trace-service},1651514524,95283
{consumergroup=trace-service},1651514529,57020
{consumergroup=trace-service},1651514534,57020
{consumergroup=trace-service},1651514539,57020
{consumergroup=trace-service},1651514544,113939
{consumergroup=trace-service},1651514549,113939
{consumergroup=trace-service},1651514554,113939
{consumergroup=trace-service},1651514559,53300
{consumergroup=trace-service},1651514564,53300
{consumergroup=trace-service},1651514569,53300
{consumergroup=trace-service},1651514574,90677
{consumergroup=trace-service},1651514579,90677
{consumergroup=trace-service},1651514584,90677
{consumergroup=trace-service},1651514589,52560
{consumergroup=trace-service},1651514594,52560
{consumergroup=trace-service},1651514599,52560
{consumergroup=trace-service},1651514604,108190
{consumergroup=trace-service},1651514609,108190
{consumergroup=trace-service},1651514614,108190
{consumergroup=trace-service},1651514619,200284
{consumergroup=trace-service},1651514624,200284
{consumergroup=trace-service},1651514629,200284
{consumergroup=trace-token-events-consumer},1651514214,0
{consumergroup=trace-token-events-consumer},1651514219,0
{consumergroup=trace-token-events-consumer},1651514224,0
{consumergroup=trace-token-events-consumer},1651514229,0
{consumergroup=trace-token-events-consumer},1651514234,0
{consumergroup=trace-token-events-consumer},1651514239,0
{consumergroup=trace-token-events-consumer},1651514244,0
{consumergroup=trace-token-events-consumer},1651514249,0
{consumergroup=trace-token-events-consumer},1651514254,0
{consumergroup=trace-token-events-consumer},1651514259,0
{consumergroup=trace-token-events-consumer},1651514264,0
{consumergroup=trace-token-events-consumer},1651514269,0
{consumergroup=trace-token-events-consumer},1651514274,0
{consumergroup=trace-token-events-consumer},1651514279,0
{consumergroup=trace-token-events-consumer},1651514284,0
{consumergroup=trace-token-events-consumer},1651514289,0
{consumergroup=trace-token-events-consumer},1651514294,0
{consumergroup=trace-token-events-consumer},1651514299,0
{consumergroup=trace-token-events-consumer},1651514304,0
{consumergroup=trace-token-events-consumer},1651514309,0
{consumergroup=trace-token-events-consumer},1651514314,0
{consumergroup=trace-token-events-consumer},1651514319,0
{consumergroup=trace-token-events-consumer},1651514324,0
{consumergroup=trace-token-events-consumer},1651514329,0
{consumergroup=trace-token-events-consumer},1651514334,0
{consumergroup=trace-token-events-consumer},1651514339,0
{consumergroup=trace-token-events-consumer},1651514344,0
{consumergroup=trace-token-events-consumer},1651514349,0
{consumergroup=trace-token-events-consumer},1651514354,0
{consumergroup=trace-token-events-consumer},1651514359,0
{consumergroup=trace-token-events-consumer},1651514364,0
{consumergroup=trace-token-events-consumer},1651514369,0
{consumergroup=trace-token-events-consumer},1651514374,0
{consumergroup=trace-token-events-consumer},1651514379,0
{consumergroup=trace-token-events-consumer},1651514384,0
{consumergroup=trace-token-events-consumer},1651514389,0
{consumergroup=trace-token-events-consumer},1651514394,0
{consumergroup=trace-token-events-consumer},1651514399,0
{consumergroup=trace-token-events-consumer},1651514404,0
{consumergroup=trace-token-events-consumer},1651514409,0
{consumergroup=trace-token-events-consumer},1651514414,0
{consumergroup=trace-token-events-consumer},1651514419,0
{consumergroup=trace-token-events-consumer},1651514424,0
{consumergroup=trace-token-events-consumer},1651514429,0
{consumergroup=trace-token-events-consumer},1651514434,0
{consumergroup=trace-token-events-consumer},1651514439,0
{consumergroup=trace-token-events-consumer},1651514444,0
{consumergroup=trace-token-events-consumer},1651514449,0
{consumergroup=trace-token-events-consumer},1651514454,0
{consumergroup=trace-token-events-consumer},1651514459,0
{consumergroup=trace-token-events-consumer},1651514464,0
{consumergroup=trace-token-events-consumer},1651514469,0
{consumergroup=trace-token-events-consumer},1651514474,0
{consumergroup=trace-token-events-consumer},1651514479,0
{consumergroup=trace-token-events-consumer},1651514484,0
{consumergroup=trace-token-events-consumer},1651514489,0
{consumergroup=trace-token-events-consumer},1651514494,0
{consumergroup=trace-token-events-consumer},1651514499,0
{consumergroup=trace-token-events-consumer},1651514504,0
{consumergroup=trace-token-events-consumer},1651514509,0
{consumergroup=trace-token-events-consumer},1651514514,0
{consumergroup=trace-token-events-consumer},1651514519,0
{consumergroup=trace-token-events-consumer},1651514524,0
{consumergroup=trace-token-events-consumer},1651514529,0
{consumergroup=trace-token-events-consumer},1651514534,0
{consumergroup=trace-token-events-consumer},1651514539,0
{consumergroup=trace-token-events-consumer},1651514544,0
{consumergroup=trace-token-events-consumer},1651514549,0
{consumergroup=trace-token-events-consumer},1651514554,0
{consumergroup=trace-token-events-consumer},1651514559,0
{consumergroup=trace-token-events-consumer},1651514564,0
{consumergroup=trace-token-events-consumer},1651514569,0
{consumergroup=trace-token-events-consumer},1651514574,0
{consumergroup=trace-token-events-consumer},1651514579,0
{consumergroup=trace-token-events-consumer},1651514584,0
{consumergroup=trace-token-events-consumer},1651514589,0
{consumergroup=trace-token-events-consumer},1651514594,0
{consumergroup=trace-token-events-consumer},1651514599,0
{consumergroup=trace-token-events-consumer},1651514604,0
{consumergroup=trace-token-events-consumer},1651514609,0
{consumergroup=trace-token-events-consumer},1651514614,0
{consumergroup=trace-token-events-consumer},1651514619,0
{consumergroup=trace-token-events-consumer},1651514624,0
{consumergroup=trace-token-events-consumer},1651514629,0
