labels,timestamp,value
{consumergroup=__strimzi-topic-operator-kstreams},1651322483,4
{consumergroup=__strimzi-topic-operator-kstreams},1651322488,4
{consumergroup=__strimzi-topic-operator-kstreams},1651322493,4
{consumergroup=__strimzi-topic-operator-kstreams},1651322498,14
{consumergroup=__strimzi-topic-operator-kstreams},1651322503,14
{consumergroup=__strimzi-topic-operator-kstreams},1651322508,14
{consumergroup=__strimzi-topic-operator-kstreams},1651322513,0
{consumergroup=__strimzi-topic-operator-kstreams},1651322518,0
{consumergroup=__strimzi-topic-operator-kstreams},1651322523,0
{consumergroup=__strimzi-topic-operator-kstreams},1651322528,0
{consumergroup=__strimzi-topic-operator-kstreams},1651322533,0
{consumergroup=__strimzi-topic-operator-kstreams},1651322538,0
{consumergroup=__strimzi-topic-operator-kstreams},1651322543,0
{consumergroup=__strimzi-topic-operator-kstreams},1651322548,0
{consumergroup=__strimzi-topic-operator-kstreams},1651322553,0
{consumergroup=__strimzi-topic-operator-kstreams},1651322558,0
{consumergroup=__strimzi-topic-operator-kstreams},1651322563,0
{consumergroup=__strimzi-topic-operator-kstreams},1651322568,0
{consumergroup=__strimzi-topic-operator-kstreams},1651322573,0
{consumergroup=__strimzi-topic-operator-kstreams},1651322578,0
{consumergroup=__strimzi-topic-operator-kstreams},1651322583,0
{consumergroup=__strimzi-topic-operator-kstreams},1651322588,0
{consumergroup=__strimzi-topic-operator-kstreams},1651322593,0
{consumergroup=__strimzi-topic-operator-kstreams},1651322598,0
{consumergroup=__strimzi-topic-operator-kstreams},1651322603,0
{consumergroup=__strimzi-topic-operator-kstreams},1651322608,0
{consumergroup=__strimzi-topic-operator-kstreams},1651322613,0
{consumergroup=__strimzi-topic-operator-kstreams},1651322618,0
{consumergroup=__strimzi-topic-operator-kstreams},1651322623,0
{consumergroup=__strimzi-topic-operator-kstreams},1651322628,0
{consumergroup=__strimzi-topic-operator-kstreams},1651322633,0
{consumergroup=__strimzi-topic-operator-kstreams},1651322638,0
{consumergroup=__strimzi-topic-operator-kstreams},1651322643,0
{consumergroup=__strimzi-topic-operator-kstreams},1651322648,0
{consumergroup=__strimzi-topic-operator-kstreams},1651322653,0
{consumergroup=__strimzi-topic-operator-kstreams},1651322658,0
{consumergroup=__strimzi-topic-operator-kstreams},1651322663,0
{consumergroup=__strimzi-topic-operator-kstreams},1651322668,0
{consumergroup=__strimzi-topic-operator-kstreams},1651322673,0
{consumergroup=__strimzi-topic-operator-kstreams},1651322678,0
{consumergroup=__strimzi-topic-operator-kstreams},1651322683,0
{consumergroup=__strimzi-topic-operator-kstreams},1651322688,0
{consumergroup=__strimzi-topic-operator-kstreams},1651322693,0
{consumergroup=__strimzi-topic-operator-kstreams},1651322698,0
{consumergroup=__strimzi-topic-operator-kstreams},1651322703,0
{consumergroup=__strimzi-topic-operator-kstreams},1651322708,0
{consumergroup=__strimzi-topic-operator-kstreams},1651322713,0
{consumergroup=__strimzi-topic-operator-kstreams},1651322718,0
{consumergroup=__strimzi-topic-operator-kstreams},1651322723,0
{consumergroup=__strimzi-topic-operator-kstreams},1651322728,0
{consumergroup=__strimzi-topic-operator-kstreams},1651322733,0
{consumergroup=__strimzi-topic-operator-kstreams},1651322738,0
{consumergroup=__strimzi-topic-operator-kstreams},1651322743,0
{consumergroup=__strimzi-topic-operator-kstreams},1651322748,0
{consumergroup=__strimzi-topic-operator-kstreams},1651322753,0
{consumergroup=__strimzi-topic-operator-kstreams},1651322758,0
{consumergroup=__strimzi-topic-operator-kstreams},1651322763,0
{consumergroup=__strimzi-topic-operator-kstreams},1651322768,0
{consumergroup=__strimzi-topic-operator-kstreams},1651322773,0
{consumergroup=__strimzi-topic-operator-kstreams},1651322778,0
{consumergroup=__strimzi-topic-operator-kstreams},1651322783,0
{consumergroup=__strimzi-topic-operator-kstreams},1651322788,0
{consumergroup=__strimzi-topic-operator-kstreams},1651322793,0
{consumergroup=__strimzi-topic-operator-kstreams},1651322798,0
{consumergroup=__strimzi-topic-operator-kstreams},1651322803,0
{consumergroup=__strimzi-topic-operator-kstreams},1651322808,0
{consumergroup=__strimzi-topic-operator-kstreams},1651322813,0
{consumergroup=__strimzi-topic-operator-kstreams},1651322818,0
{consumergroup=__strimzi-topic-operator-kstreams},1651322823,0
{consumergroup=__strimzi-topic-operator-kstreams},1651322828,0
{consumergroup=__strimzi-topic-operator-kstreams},1651322833,0
{consumergroup=__strimzi-topic-operator-kstreams},1651322838,0
{consumergroup=__strimzi-topic-operator-kstreams},1651322843,0
{consumergroup=__strimzi-topic-operator-kstreams},1651322848,0
{consumergroup=__strimzi-topic-operator-kstreams},1651322853,0
{consumergroup=__strimzi-topic-operator-kstreams},1651322858,0
{consumergroup=__strimzi-topic-operator-kstreams},1651322863,0
{consumergroup=__strimzi-topic-operator-kstreams},1651322868,0
{consumergroup=__strimzi-topic-operator-kstreams},1651322873,0
{consumergroup=__strimzi-topic-operator-kstreams},1651322878,0
{consumergroup=__strimzi-topic-operator-kstreams},1651322883,0
{consumergroup=__strimzi-topic-operator-kstreams},1651322888,0
{consumergroup=__strimzi-topic-operator-kstreams},1651322893,0
{consumergroup=__strimzi-topic-operator-kstreams},1651322898,0
{consumergroup=__strimzi-topic-operator-kstreams},1651322903,0
{consumergroup=__strimzi-topic-operator-kstreams},1651322908,0
{consumergroup=__strimzi-topic-operator-kstreams},1651322913,0
{consumergroup=__strimzi-topic-operator-kstreams},1651322918,0
{consumergroup=__strimzi-topic-operator-kstreams},1651322923,0
{consumergroup=__strimzi-topic-operator-kstreams},1651322928,0
{consumergroup=__strimzi-topic-operator-kstreams},1651322933,0
{consumergroup=__strimzi-topic-operator-kstreams},1651322938,0
{consumergroup=__strimzi-topic-operator-kstreams},1651322943,0
{consumergroup=__strimzi-topic-operator-kstreams},1651322948,0
{consumergroup=__strimzi-topic-operator-kstreams},1651322953,0
{consumergroup=__strimzi-topic-operator-kstreams},1651322958,0
{consumergroup=__strimzi-topic-operator-kstreams},1651322963,0
{consumergroup=__strimzi-topic-operator-kstreams},1651322968,0
{consumergroup=__strimzi-topic-operator-kstreams},1651322973,0
{consumergroup=__strimzi-topic-operator-kstreams},1651322978,0
{consumergroup=__strimzi-topic-operator-kstreams},1651322983,0
{consumergroup=__strimzi-topic-operator-kstreams},1651322988,0
{consumergroup=adapter-service},1651322528,13154
{consumergroup=adapter-service},1651322533,13154
{consumergroup=adapter-service},1651322538,13154
{consumergroup=adapter-service},1651322543,42387
{consumergroup=adapter-service},1651322548,42387
{consumergroup=adapter-service},1651322553,42387
{consumergroup=adapter-service},1651322558,40404
{consumergroup=adapter-service},1651322563,40404
{consumergroup=adapter-service},1651322568,40404
{consumergroup=adapter-service},1651322573,36765
{consumergroup=adapter-service},1651322578,36765
{consumergroup=adapter-service},1651322583,36765
{consumergroup=adapter-service},1651322588,10978
{consumergroup=adapter-service},1651322593,10978
{consumergroup=adapter-service},1651322598,10978
{consumergroup=adapter-service},1651322603,3310
{consumergroup=adapter-service},1651322608,3310
{consumergroup=adapter-service},1651322613,3310
{consumergroup=adapter-service},1651322618,1841
{consumergroup=adapter-service},1651322623,1841
{consumergroup=adapter-service},1651322628,1841
{consumergroup=adapter-service},1651322633,688
{consumergroup=adapter-service},1651322638,688
{consumergroup=adapter-service},1651322643,688
{consumergroup=adapter-service},1651322648,14428
{consumergroup=adapter-service},1651322653,14428
{consumergroup=adapter-service},1651322658,14428
{consumergroup=adapter-service},1651322663,12474
{consumergroup=adapter-service},1651322668,12474
{consumergroup=adapter-service},1651322673,12474
{consumergroup=adapter-service},1651322678,11747
{consumergroup=adapter-service},1651322683,11747
{consumergroup=adapter-service},1651322688,11747
{consumergroup=adapter-service},1651322693,11086
{consumergroup=adapter-service},1651322698,11086
{consumergroup=adapter-service},1651322703,11086
{consumergroup=adapter-service},1651322708,10858
{consumergroup=adapter-service},1651322713,10858
{consumergroup=adapter-service},1651322718,10858
{consumergroup=adapter-service},1651322723,10060
{consumergroup=adapter-service},1651322728,10060
{consumergroup=adapter-service},1651322733,10060
{consumergroup=adapter-service},1651322738,9552
{consumergroup=adapter-service},1651322743,9552
{consumergroup=adapter-service},1651322748,9552
{consumergroup=adapter-service},1651322753,7917
{consumergroup=adapter-service},1651322758,7917
{consumergroup=adapter-service},1651322763,7917
{consumergroup=adapter-service},1651322768,7026
{consumergroup=adapter-service},1651322773,7026
{consumergroup=adapter-service},1651322778,7026
{consumergroup=adapter-service},1651322783,6394
{consumergroup=adapter-service},1651322788,6394
{consumergroup=adapter-service},1651322793,6394
{consumergroup=adapter-service},1651322798,5799
{consumergroup=adapter-service},1651322803,5799
{consumergroup=adapter-service},1651322808,5799
{consumergroup=adapter-service},1651322813,7427
{consumergroup=adapter-service},1651322818,7427
{consumergroup=adapter-service},1651322823,7427
{consumergroup=adapter-service},1651322828,3967
{consumergroup=adapter-service},1651322833,3967
{consumergroup=adapter-service},1651322838,3967
{consumergroup=adapter-service},1651322843,3284
{consumergroup=adapter-service},1651322848,3284
{consumergroup=adapter-service},1651322853,3284
{consumergroup=adapter-service},1651322858,3270
{consumergroup=adapter-service},1651322863,3270
{consumergroup=adapter-service},1651322868,3270
{consumergroup=adapter-service},1651322873,1889
{consumergroup=adapter-service},1651322878,1889
{consumergroup=adapter-service},1651322883,1889
{consumergroup=adapter-service},1651322888,2103
{consumergroup=adapter-service},1651322893,2103
{consumergroup=adapter-service},1651322898,2103
{consumergroup=adapter-service},1651322903,758
{consumergroup=adapter-service},1651322908,758
{consumergroup=adapter-service},1651322913,758
{consumergroup=adapter-service},1651322918,154
{consumergroup=adapter-service},1651322923,154
{consumergroup=adapter-service},1651322928,154
{consumergroup=adapter-service},1651322933,0
{consumergroup=adapter-service},1651322938,0
{consumergroup=adapter-service},1651322943,0
{consumergroup=adapter-service},1651322948,7201
{consumergroup=adapter-service},1651322953,7201
{consumergroup=adapter-service},1651322958,7201
{consumergroup=adapter-service},1651322963,13169
{consumergroup=adapter-service},1651322968,13169
{consumergroup=adapter-service},1651322973,13169
{consumergroup=adapter-service},1651322978,12512
{consumergroup=adapter-service},1651322983,12512
{consumergroup=adapter-service},1651322988,12512
{consumergroup=landscape-service},1651322573,2692
{consumergroup=landscape-service},1651322578,2692
{consumergroup=landscape-service},1651322583,2692
{consumergroup=landscape-service},1651322588,18689
{consumergroup=landscape-service},1651322593,18689
{consumergroup=landscape-service},1651322598,18689
{consumergroup=landscape-service},1651322603,13632
{consumergroup=landscape-service},1651322608,13632
{consumergroup=landscape-service},1651322613,13632
{consumergroup=landscape-service},1651322618,13597
{consumergroup=landscape-service},1651322623,13597
{consumergroup=landscape-service},1651322628,13597
{consumergroup=landscape-service},1651322633,14017
{consumergroup=landscape-service},1651322638,14017
{consumergroup=landscape-service},1651322643,14017
{consumergroup=landscape-service},1651322648,13862
{consumergroup=landscape-service},1651322653,13862
{consumergroup=landscape-service},1651322658,13862
{consumergroup=landscape-service},1651322663,12709
{consumergroup=landscape-service},1651322668,12709
{consumergroup=landscape-service},1651322673,12709
{consumergroup=landscape-service},1651322678,12385
{consumergroup=landscape-service},1651322683,12385
{consumergroup=landscape-service},1651322688,12385
{consumergroup=landscape-service},1651322693,12123
{consumergroup=landscape-service},1651322698,12123
{consumergroup=landscape-service},1651322703,12123
{consumergroup=landscape-service},1651322708,11632
{consumergroup=landscape-service},1651322713,11632
{consumergroup=landscape-service},1651322718,11632
{consumergroup=landscape-service},1651322723,12439
{consumergroup=landscape-service},1651322728,12439
{consumergroup=landscape-service},1651322733,12439
{consumergroup=landscape-service},1651322738,11693
{consumergroup=landscape-service},1651322743,11693
{consumergroup=landscape-service},1651322748,11693
{consumergroup=landscape-service},1651322753,11238
{consumergroup=landscape-service},1651322758,11238
{consumergroup=landscape-service},1651322763,11238
{consumergroup=landscape-service},1651322768,11862
{consumergroup=landscape-service},1651322773,11862
{consumergroup=landscape-service},1651322778,11862
{consumergroup=landscape-service},1651322783,11009
{consumergroup=landscape-service},1651322788,11009
{consumergroup=landscape-service},1651322793,11009
{consumergroup=landscape-service},1651322798,10289
{consumergroup=landscape-service},1651322803,10289
{consumergroup=landscape-service},1651322808,10289
{consumergroup=landscape-service},1651322813,13989
{consumergroup=landscape-service},1651322818,13989
{consumergroup=landscape-service},1651322823,13989
{consumergroup=landscape-service},1651322828,10322
{consumergroup=landscape-service},1651322833,10322
{consumergroup=landscape-service},1651322838,10322
{consumergroup=landscape-service},1651322843,10151
{consumergroup=landscape-service},1651322848,10151
{consumergroup=landscape-service},1651322853,10151
{consumergroup=landscape-service},1651322858,9881
{consumergroup=landscape-service},1651322863,9881
{consumergroup=landscape-service},1651322868,9881
{consumergroup=landscape-service},1651322873,10672
{consumergroup=landscape-service},1651322878,10672
{consumergroup=landscape-service},1651322883,10672
{consumergroup=landscape-service},1651322888,9751
{consumergroup=landscape-service},1651322893,9751
{consumergroup=landscape-service},1651322898,9751
{consumergroup=landscape-service},1651322903,8954
{consumergroup=landscape-service},1651322908,8954
{consumergroup=landscape-service},1651322913,8954
{consumergroup=landscape-service},1651322918,9240
{consumergroup=landscape-service},1651322923,9240
{consumergroup=landscape-service},1651322928,9240
{consumergroup=landscape-service},1651322933,8190
{consumergroup=landscape-service},1651322938,8190
{consumergroup=landscape-service},1651322943,8190
{consumergroup=landscape-service},1651322948,8372
{consumergroup=landscape-service},1651322953,8372
{consumergroup=landscape-service},1651322958,8372
{consumergroup=landscape-service},1651322963,6902
{consumergroup=landscape-service},1651322968,6902
{consumergroup=landscape-service},1651322973,6902
{consumergroup=landscape-service},1651322978,7330
{consumergroup=landscape-service},1651322983,7330
{consumergroup=landscape-service},1651322988,7330
{consumergroup=trace-service},1651322528,1120
{consumergroup=trace-service},1651322533,1120
{consumergroup=trace-service},1651322538,1120
{consumergroup=trace-service},1651322543,18112
{consumergroup=trace-service},1651322548,18112
{consumergroup=trace-service},1651322553,18112
{consumergroup=trace-service},1651322558,25249
{consumergroup=trace-service},1651322563,25249
{consumergroup=trace-service},1651322568,25249
{consumergroup=trace-service},1651322573,62071
{consumergroup=trace-service},1651322578,62071
{consumergroup=trace-service},1651322583,62071
{consumergroup=trace-service},1651322588,142140
{consumergroup=trace-service},1651322593,142140
{consumergroup=trace-service},1651322598,142140
{consumergroup=trace-service},1651322603,64933
{consumergroup=trace-service},1651322608,64933
{consumergroup=trace-service},1651322613,64933
{consumergroup=trace-service},1651322618,76812
{consumergroup=trace-service},1651322623,76812
{consumergroup=trace-service},1651322628,76812
{consumergroup=trace-service},1651322633,115263
{consumergroup=trace-service},1651322638,115263
{consumergroup=trace-service},1651322643,115263
{consumergroup=trace-service},1651322648,34438
{consumergroup=trace-service},1651322653,34438
{consumergroup=trace-service},1651322658,34438
{consumergroup=trace-service},1651322663,79081
{consumergroup=trace-service},1651322668,79081
{consumergroup=trace-service},1651322673,79081
{consumergroup=trace-service},1651322678,38917
{consumergroup=trace-service},1651322683,38917
{consumergroup=trace-service},1651322688,38917
{consumergroup=trace-service},1651322693,53121
{consumergroup=trace-service},1651322698,53121
{consumergroup=trace-service},1651322703,53121
{consumergroup=trace-service},1651322708,149332
{consumergroup=trace-service},1651322713,149332
{consumergroup=trace-service},1651322718,149332
{consumergroup=trace-service},1651322723,107651
{consumergroup=trace-service},1651322728,107651
{consumergroup=trace-service},1651322733,107651
{consumergroup=trace-service},1651322738,42002
{consumergroup=trace-service},1651322743,42002
{consumergroup=trace-service},1651322748,42002
{consumergroup=trace-service},1651322753,121346
{consumergroup=trace-service},1651322758,121346
{consumergroup=trace-service},1651322763,121346
{consumergroup=trace-service},1651322768,35658
{consumergroup=trace-service},1651322773,35658
{consumergroup=trace-service},1651322778,35658
{consumergroup=trace-service},1651322783,49281
{consumergroup=trace-service},1651322788,49281
{consumergroup=trace-service},1651322793,49281
{consumergroup=trace-service},1651322798,39424
{consumergroup=trace-service},1651322803,39424
{consumergroup=trace-service},1651322808,39424
{consumergroup=trace-service},1651322813,66189
{consumergroup=trace-service},1651322818,66189
{consumergroup=trace-service},1651322823,66189
{consumergroup=trace-service},1651322828,174246
{consumergroup=trace-service},1651322833,174246
{consumergroup=trace-service},1651322838,174246
{consumergroup=trace-service},1651322843,32220
{consumergroup=trace-service},1651322848,32220
{consumergroup=trace-service},1651322853,32220
{consumergroup=trace-service},1651322858,39746
{consumergroup=trace-service},1651322863,39746
{consumergroup=trace-service},1651322868,39746
{consumergroup=trace-service},1651322873,94400
{consumergroup=trace-service},1651322878,94400
{consumergroup=trace-service},1651322883,94400
{consumergroup=trace-service},1651322888,35521
{consumergroup=trace-service},1651322893,35521
{consumergroup=trace-service},1651322898,35521
{consumergroup=trace-service},1651322903,74249
{consumergroup=trace-service},1651322908,74249
{consumergroup=trace-service},1651322913,74249
{consumergroup=trace-service},1651322918,40072
{consumergroup=trace-service},1651322923,40072
{consumergroup=trace-service},1651322928,40072
{consumergroup=trace-service},1651322933,75960
{consumergroup=trace-service},1651322938,75960
{consumergroup=trace-service},1651322943,75960
{consumergroup=trace-service},1651322948,38493
{consumergroup=trace-service},1651322953,38493
{consumergroup=trace-service},1651322958,38493
{consumergroup=trace-service},1651322963,90898
{consumergroup=trace-service},1651322968,90898
{consumergroup=trace-service},1651322973,90898
{consumergroup=trace-service},1651322978,36226
{consumergroup=trace-service},1651322983,36226
{consumergroup=trace-service},1651322988,36226
{consumergroup=trace-token-events-consumer},1651322513,0
{consumergroup=trace-token-events-consumer},1651322518,0
{consumergroup=trace-token-events-consumer},1651322523,0
{consumergroup=trace-token-events-consumer},1651322528,0
{consumergroup=trace-token-events-consumer},1651322533,0
{consumergroup=trace-token-events-consumer},1651322538,0
{consumergroup=trace-token-events-consumer},1651322543,0
{consumergroup=trace-token-events-consumer},1651322548,0
{consumergroup=trace-token-events-consumer},1651322553,0
{consumergroup=trace-token-events-consumer},1651322558,0
{consumergroup=trace-token-events-consumer},1651322563,0
{consumergroup=trace-token-events-consumer},1651322568,0
{consumergroup=trace-token-events-consumer},1651322573,0
{consumergroup=trace-token-events-consumer},1651322578,0
{consumergroup=trace-token-events-consumer},1651322583,0
{consumergroup=trace-token-events-consumer},1651322588,0
{consumergroup=trace-token-events-consumer},1651322593,0
{consumergroup=trace-token-events-consumer},1651322598,0
{consumergroup=trace-token-events-consumer},1651322603,0
{consumergroup=trace-token-events-consumer},1651322608,0
{consumergroup=trace-token-events-consumer},1651322613,0
{consumergroup=trace-token-events-consumer},1651322618,0
{consumergroup=trace-token-events-consumer},1651322623,0
{consumergroup=trace-token-events-consumer},1651322628,0
{consumergroup=trace-token-events-consumer},1651322633,0
{consumergroup=trace-token-events-consumer},1651322638,0
{consumergroup=trace-token-events-consumer},1651322643,0
{consumergroup=trace-token-events-consumer},1651322648,0
{consumergroup=trace-token-events-consumer},1651322653,0
{consumergroup=trace-token-events-consumer},1651322658,0
{consumergroup=trace-token-events-consumer},1651322663,0
{consumergroup=trace-token-events-consumer},1651322668,0
{consumergroup=trace-token-events-consumer},1651322673,0
{consumergroup=trace-token-events-consumer},1651322678,0
{consumergroup=trace-token-events-consumer},1651322683,0
{consumergroup=trace-token-events-consumer},1651322688,0
{consumergroup=trace-token-events-consumer},1651322693,0
{consumergroup=trace-token-events-consumer},1651322698,0
{consumergroup=trace-token-events-consumer},1651322703,0
{consumergroup=trace-token-events-consumer},1651322708,0
{consumergroup=trace-token-events-consumer},1651322713,0
{consumergroup=trace-token-events-consumer},1651322718,0
{consumergroup=trace-token-events-consumer},1651322723,0
{consumergroup=trace-token-events-consumer},1651322728,0
{consumergroup=trace-token-events-consumer},1651322733,0
{consumergroup=trace-token-events-consumer},1651322738,0
{consumergroup=trace-token-events-consumer},1651322743,0
{consumergroup=trace-token-events-consumer},1651322748,0
{consumergroup=trace-token-events-consumer},1651322753,0
{consumergroup=trace-token-events-consumer},1651322758,0
{consumergroup=trace-token-events-consumer},1651322763,0
{consumergroup=trace-token-events-consumer},1651322768,0
{consumergroup=trace-token-events-consumer},1651322773,0
{consumergroup=trace-token-events-consumer},1651322778,0
{consumergroup=trace-token-events-consumer},1651322783,0
{consumergroup=trace-token-events-consumer},1651322788,0
{consumergroup=trace-token-events-consumer},1651322793,0
{consumergroup=trace-token-events-consumer},1651322798,0
{consumergroup=trace-token-events-consumer},1651322803,0
{consumergroup=trace-token-events-consumer},1651322808,0
{consumergroup=trace-token-events-consumer},1651322813,0
{consumergroup=trace-token-events-consumer},1651322818,0
{consumergroup=trace-token-events-consumer},1651322823,0
{consumergroup=trace-token-events-consumer},1651322828,0
{consumergroup=trace-token-events-consumer},1651322833,0
{consumergroup=trace-token-events-consumer},1651322838,0
{consumergroup=trace-token-events-consumer},1651322843,0
{consumergroup=trace-token-events-consumer},1651322848,0
{consumergroup=trace-token-events-consumer},1651322853,0
{consumergroup=trace-token-events-consumer},1651322858,0
{consumergroup=trace-token-events-consumer},1651322863,0
{consumergroup=trace-token-events-consumer},1651322868,0
{consumergroup=trace-token-events-consumer},1651322873,0
{consumergroup=trace-token-events-consumer},1651322878,0
{consumergroup=trace-token-events-consumer},1651322883,0
{consumergroup=trace-token-events-consumer},1651322888,0
{consumergroup=trace-token-events-consumer},1651322893,0
{consumergroup=trace-token-events-consumer},1651322898,0
{consumergroup=trace-token-events-consumer},1651322903,0
{consumergroup=trace-token-events-consumer},1651322908,0
{consumergroup=trace-token-events-consumer},1651322913,0
{consumergroup=trace-token-events-consumer},1651322918,0
{consumergroup=trace-token-events-consumer},1651322923,0
{consumergroup=trace-token-events-consumer},1651322928,0
{consumergroup=trace-token-events-consumer},1651322933,0
{consumergroup=trace-token-events-consumer},1651322938,0
{consumergroup=trace-token-events-consumer},1651322943,0
{consumergroup=trace-token-events-consumer},1651322948,0
{consumergroup=trace-token-events-consumer},1651322953,0
{consumergroup=trace-token-events-consumer},1651322958,0
{consumergroup=trace-token-events-consumer},1651322963,0
{consumergroup=trace-token-events-consumer},1651322968,0
{consumergroup=trace-token-events-consumer},1651322973,0
{consumergroup=trace-token-events-consumer},1651322978,0
{consumergroup=trace-token-events-consumer},1651322983,0
{consumergroup=trace-token-events-consumer},1651322988,0
