labels,timestamp,value
{consumergroup=__strimzi-topic-operator-kstreams},1651502335,3
{consumergroup=__strimzi-topic-operator-kstreams},1651502340,3
{consumergroup=__strimzi-topic-operator-kstreams},1651502345,3
{consumergroup=__strimzi-topic-operator-kstreams},1651502350,0
{consumergroup=__strimzi-topic-operator-kstreams},1651502355,0
{consumergroup=__strimzi-topic-operator-kstreams},1651502360,0
{consumergroup=__strimzi-topic-operator-kstreams},1651502365,3
{consumergroup=__strimzi-topic-operator-kstreams},1651502370,3
{consumergroup=__strimzi-topic-operator-kstreams},1651502375,3
{consumergroup=__strimzi-topic-operator-kstreams},1651502380,0
{consumergroup=__strimzi-topic-operator-kstreams},1651502385,0
{consumergroup=__strimzi-topic-operator-kstreams},1651502390,0
{consumergroup=__strimzi-topic-operator-kstreams},1651502395,0
{consumergroup=__strimzi-topic-operator-kstreams},1651502400,0
{consumergroup=__strimzi-topic-operator-kstreams},1651502405,0
{consumergroup=__strimzi-topic-operator-kstreams},1651502410,0
{consumergroup=__strimzi-topic-operator-kstreams},1651502415,0
{consumergroup=__strimzi-topic-operator-kstreams},1651502420,0
{consumergroup=__strimzi-topic-operator-kstreams},1651502425,0
{consumergroup=__strimzi-topic-operator-kstreams},1651502430,0
{consumergroup=__strimzi-topic-operator-kstreams},1651502435,0
{consumergroup=__strimzi-topic-operator-kstreams},1651502440,0
{consumergroup=__strimzi-topic-operator-kstreams},1651502445,0
{consumergroup=__strimzi-topic-operator-kstreams},1651502450,0
{consumergroup=__strimzi-topic-operator-kstreams},1651502455,0
{consumergroup=__strimzi-topic-operator-kstreams},1651502460,0
{consumergroup=__strimzi-topic-operator-kstreams},1651502465,0
{consumergroup=__strimzi-topic-operator-kstreams},1651502470,0
{consumergroup=__strimzi-topic-operator-kstreams},1651502475,0
{consumergroup=__strimzi-topic-operator-kstreams},1651502480,0
{consumergroup=__strimzi-topic-operator-kstreams},1651502485,0
{consumergroup=__strimzi-topic-operator-kstreams},1651502490,0
{consumergroup=__strimzi-topic-operator-kstreams},1651502495,0
{consumergroup=__strimzi-topic-operator-kstreams},1651502500,0
{consumergroup=__strimzi-topic-operator-kstreams},1651502505,0
{consumergroup=__strimzi-topic-operator-kstreams},1651502510,0
{consumergroup=__strimzi-topic-operator-kstreams},1651502515,0
{consumergroup=__strimzi-topic-operator-kstreams},1651502520,0
{consumergroup=__strimzi-topic-operator-kstreams},1651502525,0
{consumergroup=__strimzi-topic-operator-kstreams},1651502530,0
{consumergroup=__strimzi-topic-operator-kstreams},1651502535,0
{consumergroup=__strimzi-topic-operator-kstreams},1651502540,0
{consumergroup=__strimzi-topic-operator-kstreams},1651502545,0
{consumergroup=__strimzi-topic-operator-kstreams},1651502550,0
{consumergroup=__strimzi-topic-operator-kstreams},1651502555,0
{consumergroup=__strimzi-topic-operator-kstreams},1651502560,0
{consumergroup=__strimzi-topic-operator-kstreams},1651502565,0
{consumergroup=__strimzi-topic-operator-kstreams},1651502570,0
{consumergroup=__strimzi-topic-operator-kstreams},1651502575,0
{consumergroup=__strimzi-topic-operator-kstreams},1651502580,0
{consumergroup=__strimzi-topic-operator-kstreams},1651502585,0
{consumergroup=__strimzi-topic-operator-kstreams},1651502590,0
{consumergroup=__strimzi-topic-operator-kstreams},1651502595,0
{consumergroup=__strimzi-topic-operator-kstreams},1651502600,0
{consumergroup=__strimzi-topic-operator-kstreams},1651502605,0
{consumergroup=__strimzi-topic-operator-kstreams},1651502610,0
{consumergroup=__strimzi-topic-operator-kstreams},1651502615,0
{consumergroup=__strimzi-topic-operator-kstreams},1651502620,0
{consumergroup=__strimzi-topic-operator-kstreams},1651502625,0
{consumergroup=__strimzi-topic-operator-kstreams},1651502630,0
{consumergroup=__strimzi-topic-operator-kstreams},1651502635,0
{consumergroup=__strimzi-topic-operator-kstreams},1651502640,0
{consumergroup=__strimzi-topic-operator-kstreams},1651502645,0
{consumergroup=__strimzi-topic-operator-kstreams},1651502650,0
{consumergroup=__strimzi-topic-operator-kstreams},1651502655,0
{consumergroup=__strimzi-topic-operator-kstreams},1651502660,0
{consumergroup=__strimzi-topic-operator-kstreams},1651502665,0
{consumergroup=__strimzi-topic-operator-kstreams},1651502670,0
{consumergroup=__strimzi-topic-operator-kstreams},1651502675,0
{consumergroup=__strimzi-topic-operator-kstreams},1651502680,0
{consumergroup=__strimzi-topic-operator-kstreams},1651502685,0
{consumergroup=__strimzi-topic-operator-kstreams},1651502690,0
{consumergroup=__strimzi-topic-operator-kstreams},1651502695,0
{consumergroup=__strimzi-topic-operator-kstreams},1651502700,0
{consumergroup=__strimzi-topic-operator-kstreams},1651502705,0
{consumergroup=__strimzi-topic-operator-kstreams},1651502710,0
{consumergroup=__strimzi-topic-operator-kstreams},1651502715,0
{consumergroup=__strimzi-topic-operator-kstreams},1651502720,0
{consumergroup=__strimzi-topic-operator-kstreams},1651502725,0
{consumergroup=__strimzi-topic-operator-kstreams},1651502730,0
{consumergroup=__strimzi-topic-operator-kstreams},1651502735,0
{consumergroup=__strimzi-topic-operator-kstreams},1651502740,0
{consumergroup=__strimzi-topic-operator-kstreams},1651502745,0
{consumergroup=__strimzi-topic-operator-kstreams},1651502750,0
{consumergroup=__strimzi-topic-operator-kstreams},1651502755,0
{consumergroup=__strimzi-topic-operator-kstreams},1651502760,0
{consumergroup=__strimzi-topic-operator-kstreams},1651502765,0
{consumergroup=__strimzi-topic-operator-kstreams},1651502770,0
{consumergroup=__strimzi-topic-operator-kstreams},1651502775,0
{consumergroup=__strimzi-topic-operator-kstreams},1651502780,0
{consumergroup=trace-service},1651502380,10786
{consumergroup=trace-service},1651502385,10786
{consumergroup=trace-service},1651502390,10786
{consumergroup=trace-service},1651502395,24494
{consumergroup=trace-service},1651502400,24494
{consumergroup=trace-service},1651502405,24494
{consumergroup=trace-service},1651502410,67915
{consumergroup=trace-service},1651502415,67915
{consumergroup=trace-service},1651502420,67915
{consumergroup=trace-service},1651502425,95039
{consumergroup=trace-service},1651502430,95039
{consumergroup=trace-service},1651502435,95039
{consumergroup=trace-service},1651502440,166892
{consumergroup=trace-service},1651502445,166892
{consumergroup=trace-service},1651502450,166892
{consumergroup=trace-service},1651502455,72465
{consumergroup=trace-service},1651502460,72465
{consumergroup=trace-service},1651502465,72465
{consumergroup=trace-service},1651502470,47780
{consumergroup=trace-service},1651502475,47780
{consumergroup=trace-service},1651502480,47780
{consumergroup=trace-service},1651502485,114581
{consumergroup=trace-service},1651502490,114581
{consumergroup=trace-service},1651502495,114581
{consumergroup=trace-service},1651502500,45293
{consumergroup=trace-service},1651502505,45293
{consumergroup=trace-service},1651502510,45293
{consumergroup=trace-service},1651502515,97359
{consumergroup=trace-service},1651502520,97359
{consumergroup=trace-service},1651502525,97359
{consumergroup=trace-service},1651502530,49032
{consumergroup=trace-service},1651502535,49032
{consumergroup=trace-service},1651502540,49032
{consumergroup=trace-service},1651502545,100554
{consumergroup=trace-service},1651502550,100554
{consumergroup=trace-service},1651502555,100554
{consumergroup=trace-service},1651502560,47999
{consumergroup=trace-service},1651502565,47999
{consumergroup=trace-service},1651502570,47999
{consumergroup=trace-service},1651502575,120607
{consumergroup=trace-service},1651502580,120607
{consumergroup=trace-service},1651502585,120607
{consumergroup=trace-service},1651502590,47137
{consumergroup=trace-service},1651502595,47137
{consumergroup=trace-service},1651502600,47137
{consumergroup=trace-service},1651502605,74443
{consumergroup=trace-service},1651502610,74443
{consumergroup=trace-service},1651502615,74443
{consumergroup=trace-service},1651502620,45794
{consumergroup=trace-service},1651502625,45794
{consumergroup=trace-service},1651502630,45794
{consumergroup=trace-service},1651502635,99276
{consumergroup=trace-service},1651502640,99276
{consumergroup=trace-service},1651502645,99276
{consumergroup=trace-service},1651502650,44113
{consumergroup=trace-service},1651502655,44113
{consumergroup=trace-service},1651502660,44113
{consumergroup=trace-service},1651502665,102349
{consumergroup=trace-service},1651502670,102349
{consumergroup=trace-service},1651502675,102349
{consumergroup=trace-service},1651502680,48901
{consumergroup=trace-service},1651502685,48901
{consumergroup=trace-service},1651502690,48901
{consumergroup=trace-service},1651502695,124718
{consumergroup=trace-service},1651502700,124718
{consumergroup=trace-service},1651502705,124718
{consumergroup=trace-service},1651502710,52958
{consumergroup=trace-service},1651502715,52958
{consumergroup=trace-service},1651502720,52958
{consumergroup=trace-service},1651502725,118182
{consumergroup=trace-service},1651502730,118182
{consumergroup=trace-service},1651502735,118182
{consumergroup=trace-service},1651502740,46046
{consumergroup=trace-service},1651502745,46046
{consumergroup=trace-service},1651502750,46046
{consumergroup=trace-service},1651502755,137472
{consumergroup=trace-service},1651502760,137472
{consumergroup=trace-service},1651502765,137472
{consumergroup=trace-service},1651502770,50295
{consumergroup=trace-service},1651502775,50295
{consumergroup=trace-service},1651502780,50295
{consumergroup=trace-token-events-consumer},1651502365,0
{consumergroup=trace-token-events-consumer},1651502370,0
{consumergroup=trace-token-events-consumer},1651502375,0
{consumergroup=trace-token-events-consumer},1651502380,0
{consumergroup=trace-token-events-consumer},1651502385,0
{consumergroup=trace-token-events-consumer},1651502390,0
{consumergroup=trace-token-events-consumer},1651502395,0
{consumergroup=trace-token-events-consumer},1651502400,0
{consumergroup=trace-token-events-consumer},1651502405,0
{consumergroup=trace-token-events-consumer},1651502410,0
{consumergroup=trace-token-events-consumer},1651502415,0
{consumergroup=trace-token-events-consumer},1651502420,0
{consumergroup=trace-token-events-consumer},1651502425,0
{consumergroup=trace-token-events-consumer},1651502430,0
{consumergroup=trace-token-events-consumer},1651502435,0
{consumergroup=trace-token-events-consumer},1651502440,0
{consumergroup=trace-token-events-consumer},1651502445,0
{consumergroup=trace-token-events-consumer},1651502450,0
{consumergroup=trace-token-events-consumer},1651502455,0
{consumergroup=trace-token-events-consumer},1651502460,0
{consumergroup=trace-token-events-consumer},1651502465,0
{consumergroup=trace-token-events-consumer},1651502470,0
{consumergroup=trace-token-events-consumer},1651502475,0
{consumergroup=trace-token-events-consumer},1651502480,0
{consumergroup=trace-token-events-consumer},1651502485,0
{consumergroup=trace-token-events-consumer},1651502490,0
{consumergroup=trace-token-events-consumer},1651502495,0
{consumergroup=trace-token-events-consumer},1651502500,0
{consumergroup=trace-token-events-consumer},1651502505,0
{consumergroup=trace-token-events-consumer},1651502510,0
{consumergroup=trace-token-events-consumer},1651502515,0
{consumergroup=trace-token-events-consumer},1651502520,0
{consumergroup=trace-token-events-consumer},1651502525,0
{consumergroup=trace-token-events-consumer},1651502530,0
{consumergroup=trace-token-events-consumer},1651502535,0
{consumergroup=trace-token-events-consumer},1651502540,0
{consumergroup=trace-token-events-consumer},1651502545,0
{consumergroup=trace-token-events-consumer},1651502550,0
{consumergroup=trace-token-events-consumer},1651502555,0
{consumergroup=trace-token-events-consumer},1651502560,0
{consumergroup=trace-token-events-consumer},1651502565,0
{consumergroup=trace-token-events-consumer},1651502570,0
{consumergroup=trace-token-events-consumer},1651502575,0
{consumergroup=trace-token-events-consumer},1651502580,0
{consumergroup=trace-token-events-consumer},1651502585,0
{consumergroup=trace-token-events-consumer},1651502590,0
{consumergroup=trace-token-events-consumer},1651502595,0
{consumergroup=trace-token-events-consumer},1651502600,0
{consumergroup=trace-token-events-consumer},1651502605,0
{consumergroup=trace-token-events-consumer},1651502610,0
{consumergroup=trace-token-events-consumer},1651502615,0
{consumergroup=trace-token-events-consumer},1651502620,0
{consumergroup=trace-token-events-consumer},1651502625,0
{consumergroup=trace-token-events-consumer},1651502630,0
{consumergroup=trace-token-events-consumer},1651502635,0
{consumergroup=trace-token-events-consumer},1651502640,0
{consumergroup=trace-token-events-consumer},1651502645,0
{consumergroup=trace-token-events-consumer},1651502650,0
{consumergroup=trace-token-events-consumer},1651502655,0
{consumergroup=trace-token-events-consumer},1651502660,0
{consumergroup=trace-token-events-consumer},1651502665,0
{consumergroup=trace-token-events-consumer},1651502670,0
{consumergroup=trace-token-events-consumer},1651502675,0
{consumergroup=trace-token-events-consumer},1651502680,0
{consumergroup=trace-token-events-consumer},1651502685,0
{consumergroup=trace-token-events-consumer},1651502690,0
{consumergroup=trace-token-events-consumer},1651502695,0
{consumergroup=trace-token-events-consumer},1651502700,0
{consumergroup=trace-token-events-consumer},1651502705,0
{consumergroup=trace-token-events-consumer},1651502710,0
{consumergroup=trace-token-events-consumer},1651502715,0
{consumergroup=trace-token-events-consumer},1651502720,0
{consumergroup=trace-token-events-consumer},1651502725,0
{consumergroup=trace-token-events-consumer},1651502730,0
{consumergroup=trace-token-events-consumer},1651502735,0
{consumergroup=trace-token-events-consumer},1651502740,0
{consumergroup=trace-token-events-consumer},1651502745,0
{consumergroup=trace-token-events-consumer},1651502750,0
{consumergroup=trace-token-events-consumer},1651502755,0
{consumergroup=trace-token-events-consumer},1651502760,0
{consumergroup=trace-token-events-consumer},1651502765,0
{consumergroup=trace-token-events-consumer},1651502770,0
{consumergroup=trace-token-events-consumer},1651502775,0
{consumergroup=trace-token-events-consumer},1651502780,0
