labels,timestamp,value
{job=theodolite-stu200776/trace-isolated-podmonitor},1651465487,0
{job=theodolite-stu200776/trace-isolated-podmonitor},1651465492,0
{job=theodolite-stu200776/trace-isolated-podmonitor},1651465497,0
{job=theodolite-stu200776/trace-isolated-podmonitor},1651465502,0
{job=theodolite-stu200776/trace-isolated-podmonitor},1651465507,0
{job=theodolite-stu200776/trace-isolated-podmonitor},1651465512,0
{job=theodolite-stu200776/trace-isolated-podmonitor},1651465517,0
{job=theodolite-stu200776/trace-isolated-podmonitor},1651465522,0
{job=theodolite-stu200776/trace-isolated-podmonitor},1651465527,0
{job=theodolite-stu200776/trace-isolated-podmonitor},1651465532,0
{job=theodolite-stu200776/trace-isolated-podmonitor},1651465537,0
{job=theodolite-stu200776/trace-isolated-podmonitor},1651465542,0
{job=theodolite-stu200776/trace-isolated-podmonitor},1651465547,0
{job=theodolite-stu200776/trace-isolated-podmonitor},1651465552,0
{job=theodolite-stu200776/trace-isolated-podmonitor},1651465557,0
{job=theodolite-stu200776/trace-isolated-podmonitor},1651465562,0
{job=theodolite-stu200776/trace-isolated-podmonitor},1651465567,0
{job=theodolite-stu200776/trace-isolated-podmonitor},1651465572,0
{job=theodolite-stu200776/trace-isolated-podmonitor},1651465577,0
{job=theodolite-stu200776/trace-isolated-podmonitor},1651465582,0
{job=theodolite-stu200776/trace-isolated-podmonitor},1651465587,0
{job=theodolite-stu200776/trace-isolated-podmonitor},1651465592,0
{job=theodolite-stu200776/trace-isolated-podmonitor},1651465597,0
{job=theodolite-stu200776/trace-isolated-podmonitor},1651465602,0
{job=theodolite-stu200776/trace-isolated-podmonitor},1651465607,0
{job=theodolite-stu200776/trace-isolated-podmonitor},1651465612,0
{job=theodolite-stu200776/trace-isolated-podmonitor},1651465617,0
{job=theodolite-stu200776/trace-isolated-podmonitor},1651465622,0
{job=theodolite-stu200776/trace-isolated-podmonitor},1651465627,0
{job=theodolite-stu200776/trace-isolated-podmonitor},1651465632,0
{job=theodolite-stu200776/trace-isolated-podmonitor},1651465637,0
{job=theodolite-stu200776/trace-isolated-podmonitor},1651465642,0
{job=theodolite-stu200776/trace-isolated-podmonitor},1651465647,0
{job=theodolite-stu200776/trace-isolated-podmonitor},1651465652,0
{job=theodolite-stu200776/trace-isolated-podmonitor},1651465657,0
{job=theodolite-stu200776/trace-isolated-podmonitor},1651465662,0
{job=theodolite-stu200776/trace-isolated-podmonitor},1651465667,0
{job=theodolite-stu200776/trace-isolated-podmonitor},1651465672,0
{job=theodolite-stu200776/trace-isolated-podmonitor},1651465677,0
{job=theodolite-stu200776/trace-isolated-podmonitor},1651465682,0
{job=theodolite-stu200776/trace-isolated-podmonitor},1651465687,0
{job=theodolite-stu200776/trace-isolated-podmonitor},1651465692,0
{job=theodolite-stu200776/trace-isolated-podmonitor},1651465697,0
{job=theodolite-stu200776/trace-isolated-podmonitor},1651465702,0
{job=theodolite-stu200776/trace-isolated-podmonitor},1651465707,0
{job=theodolite-stu200776/trace-isolated-podmonitor},1651465712,0
{job=theodolite-stu200776/trace-isolated-podmonitor},1651465717,0
{job=theodolite-stu200776/trace-isolated-podmonitor},1651465722,0
{job=theodolite-stu200776/trace-isolated-podmonitor},1651465727,0
{job=theodolite-stu200776/trace-isolated-podmonitor},1651465732,0
{job=theodolite-stu200776/trace-isolated-podmonitor},1651465737,0
{job=theodolite-stu200776/trace-isolated-podmonitor},1651465742,0
{job=theodolite-stu200776/trace-isolated-podmonitor},1651465747,0
{job=theodolite-stu200776/trace-isolated-podmonitor},1651465752,0
{job=theodolite-stu200776/trace-isolated-podmonitor},1651465757,0
{job=theodolite-stu200776/trace-isolated-podmonitor},1651465762,0
{job=theodolite-stu200776/trace-isolated-podmonitor},1651465767,0
{job=theodolite-stu200776/trace-isolated-podmonitor},1651465772,0
{job=theodolite-stu200776/trace-isolated-podmonitor},1651465777,0
{job=theodolite-stu200776/trace-isolated-podmonitor},1651465782,0
{job=theodolite-stu200776/trace-isolated-podmonitor},1651465787,0
{job=theodolite-stu200776/trace-isolated-podmonitor},1651465792,0
{job=theodolite-stu200776/trace-isolated-podmonitor},1651465797,0
{job=theodolite-stu200776/trace-isolated-podmonitor},1651465802,0
{job=theodolite-stu200776/trace-isolated-podmonitor},1651465807,0
{job=theodolite-stu200776/trace-isolated-podmonitor},1651465812,0
{job=theodolite-stu200776/trace-isolated-podmonitor},1651465817,0
{job=theodolite-stu200776/trace-isolated-podmonitor},1651465822,0
{job=theodolite-stu200776/trace-isolated-podmonitor},1651465827,0
{job=theodolite-stu200776/trace-isolated-podmonitor},1651465832,0
{job=theodolite-stu200776/trace-isolated-podmonitor},1651465837,0
{job=theodolite-stu200776/trace-isolated-podmonitor},1651465842,0
{job=theodolite-stu200776/trace-isolated-podmonitor},1651465847,0
{job=theodolite-stu200776/trace-isolated-podmonitor},1651465852,0
{job=theodolite-stu200776/trace-isolated-podmonitor},1651465857,0
