labels,timestamp,value
{consumergroup=__strimzi-topic-operator-kstreams},1651496763,8
{consumergroup=__strimzi-topic-operator-kstreams},1651496768,8
{consumergroup=__strimzi-topic-operator-kstreams},1651496773,8
{consumergroup=__strimzi-topic-operator-kstreams},1651496778,8
{consumergroup=__strimzi-topic-operator-kstreams},1651496783,8
{consumergroup=__strimzi-topic-operator-kstreams},1651496788,8
{consumergroup=__strimzi-topic-operator-kstreams},1651496793,0
{consumergroup=__strimzi-topic-operator-kstreams},1651496798,0
{consumergroup=__strimzi-topic-operator-kstreams},1651496803,0
{consumergroup=__strimzi-topic-operator-kstreams},1651496808,0
{consumergroup=__strimzi-topic-operator-kstreams},1651496813,0
{consumergroup=__strimzi-topic-operator-kstreams},1651496818,0
{consumergroup=__strimzi-topic-operator-kstreams},1651496823,0
{consumergroup=__strimzi-topic-operator-kstreams},1651496828,0
{consumergroup=__strimzi-topic-operator-kstreams},1651496833,0
{consumergroup=__strimzi-topic-operator-kstreams},1651496838,0
{consumergroup=__strimzi-topic-operator-kstreams},1651496843,0
{consumergroup=__strimzi-topic-operator-kstreams},1651496848,0
{consumergroup=__strimzi-topic-operator-kstreams},1651496853,0
{consumergroup=__strimzi-topic-operator-kstreams},1651496858,0
{consumergroup=__strimzi-topic-operator-kstreams},1651496863,0
{consumergroup=__strimzi-topic-operator-kstreams},1651496868,0
{consumergroup=__strimzi-topic-operator-kstreams},1651496873,0
{consumergroup=__strimzi-topic-operator-kstreams},1651496878,0
{consumergroup=__strimzi-topic-operator-kstreams},1651496883,0
{consumergroup=__strimzi-topic-operator-kstreams},1651496888,0
{consumergroup=__strimzi-topic-operator-kstreams},1651496893,0
{consumergroup=__strimzi-topic-operator-kstreams},1651496898,0
{consumergroup=__strimzi-topic-operator-kstreams},1651496903,0
{consumergroup=__strimzi-topic-operator-kstreams},1651496908,0
{consumergroup=__strimzi-topic-operator-kstreams},1651496913,0
{consumergroup=__strimzi-topic-operator-kstreams},1651496918,0
{consumergroup=__strimzi-topic-operator-kstreams},1651496923,0
{consumergroup=__strimzi-topic-operator-kstreams},1651496928,0
{consumergroup=__strimzi-topic-operator-kstreams},1651496933,0
{consumergroup=__strimzi-topic-operator-kstreams},1651496938,0
{consumergroup=__strimzi-topic-operator-kstreams},1651496943,0
{consumergroup=__strimzi-topic-operator-kstreams},1651496948,0
{consumergroup=__strimzi-topic-operator-kstreams},1651496953,0
{consumergroup=__strimzi-topic-operator-kstreams},1651496958,0
{consumergroup=__strimzi-topic-operator-kstreams},1651496963,0
{consumergroup=__strimzi-topic-operator-kstreams},1651496968,0
{consumergroup=__strimzi-topic-operator-kstreams},1651496973,0
{consumergroup=__strimzi-topic-operator-kstreams},1651496978,0
{consumergroup=__strimzi-topic-operator-kstreams},1651496983,0
{consumergroup=__strimzi-topic-operator-kstreams},1651496988,0
{consumergroup=__strimzi-topic-operator-kstreams},1651496993,0
{consumergroup=__strimzi-topic-operator-kstreams},1651496998,0
{consumergroup=__strimzi-topic-operator-kstreams},1651497003,0
{consumergroup=__strimzi-topic-operator-kstreams},1651497008,0
{consumergroup=__strimzi-topic-operator-kstreams},1651497013,0
{consumergroup=__strimzi-topic-operator-kstreams},1651497018,0
{consumergroup=__strimzi-topic-operator-kstreams},1651497023,0
{consumergroup=__strimzi-topic-operator-kstreams},1651497028,0
{consumergroup=__strimzi-topic-operator-kstreams},1651497033,0
{consumergroup=__strimzi-topic-operator-kstreams},1651497038,0
{consumergroup=__strimzi-topic-operator-kstreams},1651497043,0
{consumergroup=__strimzi-topic-operator-kstreams},1651497048,0
{consumergroup=__strimzi-topic-operator-kstreams},1651497053,0
{consumergroup=__strimzi-topic-operator-kstreams},1651497058,0
{consumergroup=__strimzi-topic-operator-kstreams},1651497063,0
{consumergroup=__strimzi-topic-operator-kstreams},1651497068,0
{consumergroup=__strimzi-topic-operator-kstreams},1651497073,0
{consumergroup=__strimzi-topic-operator-kstreams},1651497078,0
{consumergroup=__strimzi-topic-operator-kstreams},1651497083,0
{consumergroup=__strimzi-topic-operator-kstreams},1651497088,0
{consumergroup=__strimzi-topic-operator-kstreams},1651497093,0
{consumergroup=__strimzi-topic-operator-kstreams},1651497098,0
{consumergroup=__strimzi-topic-operator-kstreams},1651497103,0
{consumergroup=__strimzi-topic-operator-kstreams},1651497108,0
{consumergroup=__strimzi-topic-operator-kstreams},1651497113,0
{consumergroup=__strimzi-topic-operator-kstreams},1651497118,0
{consumergroup=__strimzi-topic-operator-kstreams},1651497123,0
{consumergroup=__strimzi-topic-operator-kstreams},1651497128,0
{consumergroup=__strimzi-topic-operator-kstreams},1651497133,0
{consumergroup=__strimzi-topic-operator-kstreams},1651497138,0
{consumergroup=__strimzi-topic-operator-kstreams},1651497143,0
{consumergroup=__strimzi-topic-operator-kstreams},1651497148,0
{consumergroup=__strimzi-topic-operator-kstreams},1651497153,0
{consumergroup=__strimzi-topic-operator-kstreams},1651497158,0
{consumergroup=__strimzi-topic-operator-kstreams},1651497163,0
{consumergroup=__strimzi-topic-operator-kstreams},1651497168,0
{consumergroup=__strimzi-topic-operator-kstreams},1651497173,0
{consumergroup=__strimzi-topic-operator-kstreams},1651497178,0
{consumergroup=__strimzi-topic-operator-kstreams},1651497183,0
{consumergroup=__strimzi-topic-operator-kstreams},1651497188,0
{consumergroup=__strimzi-topic-operator-kstreams},1651497193,0
{consumergroup=__strimzi-topic-operator-kstreams},1651497198,0
{consumergroup=__strimzi-topic-operator-kstreams},1651497203,0
{consumergroup=trace-service},1651496808,4704
{consumergroup=trace-service},1651496813,4704
{consumergroup=trace-service},1651496818,4704
{consumergroup=trace-service},1651496823,7380
{consumergroup=trace-service},1651496828,7380
{consumergroup=trace-service},1651496833,7380
{consumergroup=trace-service},1651496838,76049
{consumergroup=trace-service},1651496843,76049
{consumergroup=trace-service},1651496848,76049
{consumergroup=trace-service},1651496853,184470
{consumergroup=trace-service},1651496858,184470
{consumergroup=trace-service},1651496863,184470
{consumergroup=trace-service},1651496868,131975
{consumergroup=trace-service},1651496873,131975
{consumergroup=trace-service},1651496878,131975
{consumergroup=trace-service},1651496883,16590
{consumergroup=trace-service},1651496888,16590
{consumergroup=trace-service},1651496893,16590
{consumergroup=trace-service},1651496898,66574
{consumergroup=trace-service},1651496903,66574
{consumergroup=trace-service},1651496908,66574
{consumergroup=trace-service},1651496913,15971
{consumergroup=trace-service},1651496918,15971
{consumergroup=trace-service},1651496923,15971
{consumergroup=trace-service},1651496928,61617
{consumergroup=trace-service},1651496933,61617
{consumergroup=trace-service},1651496938,61617
{consumergroup=trace-service},1651496943,49274
{consumergroup=trace-service},1651496948,49274
{consumergroup=trace-service},1651496953,49274
{consumergroup=trace-service},1651496958,75855
{consumergroup=trace-service},1651496963,75855
{consumergroup=trace-service},1651496968,75855
{consumergroup=trace-service},1651496973,16528
{consumergroup=trace-service},1651496978,16528
{consumergroup=trace-service},1651496983,16528
{consumergroup=trace-service},1651496988,68485
{consumergroup=trace-service},1651496993,68485
{consumergroup=trace-service},1651496998,68485
{consumergroup=trace-service},1651497003,16121
{consumergroup=trace-service},1651497008,16121
{consumergroup=trace-service},1651497013,16121
{consumergroup=trace-service},1651497018,67847
{consumergroup=trace-service},1651497023,67847
{consumergroup=trace-service},1651497028,67847
{consumergroup=trace-service},1651497033,15797
{consumergroup=trace-service},1651497038,15797
{consumergroup=trace-service},1651497043,15797
{consumergroup=trace-service},1651497048,61813
{consumergroup=trace-service},1651497053,61813
{consumergroup=trace-service},1651497058,61813
{consumergroup=trace-service},1651497063,21207
{consumergroup=trace-service},1651497068,21207
{consumergroup=trace-service},1651497073,21207
{consumergroup=trace-service},1651497078,69326
{consumergroup=trace-service},1651497083,69326
{consumergroup=trace-service},1651497088,69326
{consumergroup=trace-service},1651497093,26126
{consumergroup=trace-service},1651497098,26126
{consumergroup=trace-service},1651497103,26126
{consumergroup=trace-service},1651497108,70705
{consumergroup=trace-service},1651497113,70705
{consumergroup=trace-service},1651497118,70705
{consumergroup=trace-service},1651497123,25823
{consumergroup=trace-service},1651497128,25823
{consumergroup=trace-service},1651497133,25823
{consumergroup=trace-service},1651497138,73583
{consumergroup=trace-service},1651497143,73583
{consumergroup=trace-service},1651497148,73583
{consumergroup=trace-service},1651497153,27917
{consumergroup=trace-service},1651497158,27917
{consumergroup=trace-service},1651497163,27917
{consumergroup=trace-service},1651497168,73058
{consumergroup=trace-service},1651497173,73058
{consumergroup=trace-service},1651497178,73058
{consumergroup=trace-service},1651497183,27770
{consumergroup=trace-service},1651497188,27770
{consumergroup=trace-service},1651497193,27770
{consumergroup=trace-service},1651497198,66747
{consumergroup=trace-service},1651497203,66747
{consumergroup=trace-token-events-consumer},1651496793,0
{consumergroup=trace-token-events-consumer},1651496798,0
{consumergroup=trace-token-events-consumer},1651496803,0
{consumergroup=trace-token-events-consumer},1651496808,0
{consumergroup=trace-token-events-consumer},1651496813,0
{consumergroup=trace-token-events-consumer},1651496818,0
{consumergroup=trace-token-events-consumer},1651496823,0
{consumergroup=trace-token-events-consumer},1651496828,0
{consumergroup=trace-token-events-consumer},1651496833,0
{consumergroup=trace-token-events-consumer},1651496838,0
{consumergroup=trace-token-events-consumer},1651496843,0
{consumergroup=trace-token-events-consumer},1651496848,0
{consumergroup=trace-token-events-consumer},1651496853,0
{consumergroup=trace-token-events-consumer},1651496858,0
{consumergroup=trace-token-events-consumer},1651496863,0
{consumergroup=trace-token-events-consumer},1651496868,0
{consumergroup=trace-token-events-consumer},1651496873,0
{consumergroup=trace-token-events-consumer},1651496878,0
{consumergroup=trace-token-events-consumer},1651496883,0
{consumergroup=trace-token-events-consumer},1651496888,0
{consumergroup=trace-token-events-consumer},1651496893,0
{consumergroup=trace-token-events-consumer},1651496898,0
{consumergroup=trace-token-events-consumer},1651496903,0
{consumergroup=trace-token-events-consumer},1651496908,0
{consumergroup=trace-token-events-consumer},1651496913,0
{consumergroup=trace-token-events-consumer},1651496918,0
{consumergroup=trace-token-events-consumer},1651496923,0
{consumergroup=trace-token-events-consumer},1651496928,0
{consumergroup=trace-token-events-consumer},1651496933,0
{consumergroup=trace-token-events-consumer},1651496938,0
{consumergroup=trace-token-events-consumer},1651496943,0
{consumergroup=trace-token-events-consumer},1651496948,0
{consumergroup=trace-token-events-consumer},1651496953,0
{consumergroup=trace-token-events-consumer},1651496958,0
{consumergroup=trace-token-events-consumer},1651496963,0
{consumergroup=trace-token-events-consumer},1651496968,0
{consumergroup=trace-token-events-consumer},1651496973,0
{consumergroup=trace-token-events-consumer},1651496978,0
{consumergroup=trace-token-events-consumer},1651496983,0
{consumergroup=trace-token-events-consumer},1651496988,0
{consumergroup=trace-token-events-consumer},1651496993,0
{consumergroup=trace-token-events-consumer},1651496998,0
{consumergroup=trace-token-events-consumer},1651497003,0
{consumergroup=trace-token-events-consumer},1651497008,0
{consumergroup=trace-token-events-consumer},1651497013,0
{consumergroup=trace-token-events-consumer},1651497018,0
{consumergroup=trace-token-events-consumer},1651497023,0
{consumergroup=trace-token-events-consumer},1651497028,0
{consumergroup=trace-token-events-consumer},1651497033,0
{consumergroup=trace-token-events-consumer},1651497038,0
{consumergroup=trace-token-events-consumer},1651497043,0
{consumergroup=trace-token-events-consumer},1651497048,0
{consumergroup=trace-token-events-consumer},1651497053,0
{consumergroup=trace-token-events-consumer},1651497058,0
{consumergroup=trace-token-events-consumer},1651497063,0
{consumergroup=trace-token-events-consumer},1651497068,0
{consumergroup=trace-token-events-consumer},1651497073,0
{consumergroup=trace-token-events-consumer},1651497078,0
{consumergroup=trace-token-events-consumer},1651497083,0
{consumergroup=trace-token-events-consumer},1651497088,0
{consumergroup=trace-token-events-consumer},1651497093,0
{consumergroup=trace-token-events-consumer},1651497098,0
{consumergroup=trace-token-events-consumer},1651497103,0
{consumergroup=trace-token-events-consumer},1651497108,0
{consumergroup=trace-token-events-consumer},1651497113,0
{consumergroup=trace-token-events-consumer},1651497118,0
{consumergroup=trace-token-events-consumer},1651497123,0
{consumergroup=trace-token-events-consumer},1651497128,0
{consumergroup=trace-token-events-consumer},1651497133,0
{consumergroup=trace-token-events-consumer},1651497138,0
{consumergroup=trace-token-events-consumer},1651497143,0
{consumergroup=trace-token-events-consumer},1651497148,0
{consumergroup=trace-token-events-consumer},1651497153,0
{consumergroup=trace-token-events-consumer},1651497158,0
{consumergroup=trace-token-events-consumer},1651497163,0
{consumergroup=trace-token-events-consumer},1651497168,0
{consumergroup=trace-token-events-consumer},1651497173,0
{consumergroup=trace-token-events-consumer},1651497178,0
{consumergroup=trace-token-events-consumer},1651497183,0
{consumergroup=trace-token-events-consumer},1651497188,0
{consumergroup=trace-token-events-consumer},1651497193,0
{consumergroup=trace-token-events-consumer},1651497198,0
{consumergroup=trace-token-events-consumer},1651497203,0
