labels,timestamp,value
{job=theodolite-stu200776/trace-isolated-podmonitor},1651466513,0
{job=theodolite-stu200776/trace-isolated-podmonitor},1651466518,0
{job=theodolite-stu200776/trace-isolated-podmonitor},1651466523,0
{job=theodolite-stu200776/trace-isolated-podmonitor},1651466528,0
{job=theodolite-stu200776/trace-isolated-podmonitor},1651466533,0
{job=theodolite-stu200776/trace-isolated-podmonitor},1651466538,0
{job=theodolite-stu200776/trace-isolated-podmonitor},1651466543,0
{job=theodolite-stu200776/trace-isolated-podmonitor},1651466548,0
{job=theodolite-stu200776/trace-isolated-podmonitor},1651466553,0
{job=theodolite-stu200776/trace-isolated-podmonitor},1651466558,0
{job=theodolite-stu200776/trace-isolated-podmonitor},1651466563,0
{job=theodolite-stu200776/trace-isolated-podmonitor},1651466568,0
{job=theodolite-stu200776/trace-isolated-podmonitor},1651466573,0
{job=theodolite-stu200776/trace-isolated-podmonitor},1651466578,0
{job=theodolite-stu200776/trace-isolated-podmonitor},1651466583,0
{job=theodolite-stu200776/trace-isolated-podmonitor},1651466588,0
{job=theodolite-stu200776/trace-isolated-podmonitor},1651466593,0
{job=theodolite-stu200776/trace-isolated-podmonitor},1651466598,0
{job=theodolite-stu200776/trace-isolated-podmonitor},1651466603,0
{job=theodolite-stu200776/trace-isolated-podmonitor},1651466608,0
{job=theodolite-stu200776/trace-isolated-podmonitor},1651466613,0
{job=theodolite-stu200776/trace-isolated-podmonitor},1651466618,0
{job=theodolite-stu200776/trace-isolated-podmonitor},1651466623,0
{job=theodolite-stu200776/trace-isolated-podmonitor},1651466628,0
{job=theodolite-stu200776/trace-isolated-podmonitor},1651466633,0
{job=theodolite-stu200776/trace-isolated-podmonitor},1651466638,0
{job=theodolite-stu200776/trace-isolated-podmonitor},1651466643,0
{job=theodolite-stu200776/trace-isolated-podmonitor},1651466648,0
{job=theodolite-stu200776/trace-isolated-podmonitor},1651466653,0
{job=theodolite-stu200776/trace-isolated-podmonitor},1651466658,0
{job=theodolite-stu200776/trace-isolated-podmonitor},1651466663,0
{job=theodolite-stu200776/trace-isolated-podmonitor},1651466668,0
{job=theodolite-stu200776/trace-isolated-podmonitor},1651466673,0
{job=theodolite-stu200776/trace-isolated-podmonitor},1651466678,0
{job=theodolite-stu200776/trace-isolated-podmonitor},1651466683,0
{job=theodolite-stu200776/trace-isolated-podmonitor},1651466688,0
{job=theodolite-stu200776/trace-isolated-podmonitor},1651466693,0
{job=theodolite-stu200776/trace-isolated-podmonitor},1651466698,0
{job=theodolite-stu200776/trace-isolated-podmonitor},1651466703,0
{job=theodolite-stu200776/trace-isolated-podmonitor},1651466708,0
{job=theodolite-stu200776/trace-isolated-podmonitor},1651466713,0
{job=theodolite-stu200776/trace-isolated-podmonitor},1651466718,0
{job=theodolite-stu200776/trace-isolated-podmonitor},1651466723,0
{job=theodolite-stu200776/trace-isolated-podmonitor},1651466728,0
{job=theodolite-stu200776/trace-isolated-podmonitor},1651466733,45.67039702744948
{job=theodolite-stu200776/trace-isolated-podmonitor},1651466738,284.065346230427
{job=theodolite-stu200776/trace-isolated-podmonitor},1651466743,828.1692161328629
{job=theodolite-stu200776/trace-isolated-podmonitor},1651466748,963.4340767489653
{job=theodolite-stu200776/trace-isolated-podmonitor},1651466753,866.1443078227179
{job=theodolite-stu200776/trace-isolated-podmonitor},1651466758,824.5896859191818
{job=theodolite-stu200776/trace-isolated-podmonitor},1651466763,746.5135534148783
{job=theodolite-stu200776/trace-isolated-podmonitor},1651466768,692.6812143201854
{job=theodolite-stu200776/trace-isolated-podmonitor},1651466773,893.3538715964833
{job=theodolite-stu200776/trace-isolated-podmonitor},1651466778,789.7915133849441
{job=theodolite-stu200776/trace-isolated-podmonitor},1651466783,661.8524790066493
{job=theodolite-stu200776/trace-isolated-podmonitor},1651466788,591.3389787740292
{job=theodolite-stu200776/trace-isolated-podmonitor},1651466793,507.4747957245189
{job=theodolite-stu200776/trace-isolated-podmonitor},1651466798,442.48571704567934
{job=theodolite-stu200776/trace-isolated-podmonitor},1651466803,39.20791169785208
{job=theodolite-stu200776/trace-isolated-podmonitor},1651466808,0
{job=theodolite-stu200776/trace-isolated-podmonitor},1651466813,0
{job=theodolite-stu200776/trace-isolated-podmonitor},1651466818,0
{job=theodolite-stu200776/trace-isolated-podmonitor},1651466823,0
{job=theodolite-stu200776/trace-isolated-podmonitor},1651466828,0
{job=theodolite-stu200776/trace-isolated-podmonitor},1651466833,0
{job=theodolite-stu200776/trace-isolated-podmonitor},1651466838,0
{job=theodolite-stu200776/trace-isolated-podmonitor},1651466843,0
{job=theodolite-stu200776/trace-isolated-podmonitor},1651466848,0
{job=theodolite-stu200776/trace-isolated-podmonitor},1651466853,8.340166803336066
{job=theodolite-stu200776/trace-isolated-podmonitor},1651466858,186.05171027909793
{job=theodolite-stu200776/trace-isolated-podmonitor},1651466863,900.7557030068673
{job=theodolite-stu200776/trace-isolated-podmonitor},1651466868,1170.5620714688168
{job=theodolite-stu200776/trace-isolated-podmonitor},1651466873,1362.76938269681
{job=theodolite-stu200776/trace-isolated-podmonitor},1651466878,1544.6668970107792
{job=theodolite-stu200776/trace-isolated-podmonitor},1651466883,1450.0198542301353
