labels,timestamp,value
{consumergroup=__strimzi-topic-operator-kstreams},1651540499,11
{consumergroup=__strimzi-topic-operator-kstreams},1651540504,11
{consumergroup=__strimzi-topic-operator-kstreams},1651540509,11
{consumergroup=__strimzi-topic-operator-kstreams},1651540514,0
{consumergroup=__strimzi-topic-operator-kstreams},1651540519,0
{consumergroup=__strimzi-topic-operator-kstreams},1651540524,0
{consumergroup=__strimzi-topic-operator-kstreams},1651540529,3
{consumergroup=__strimzi-topic-operator-kstreams},1651540534,3
{consumergroup=__strimzi-topic-operator-kstreams},1651540539,3
{consumergroup=__strimzi-topic-operator-kstreams},1651540544,0
{consumergroup=__strimzi-topic-operator-kstreams},1651540549,0
{consumergroup=__strimzi-topic-operator-kstreams},1651540554,0
{consumergroup=__strimzi-topic-operator-kstreams},1651540559,0
{consumergroup=__strimzi-topic-operator-kstreams},1651540564,0
{consumergroup=__strimzi-topic-operator-kstreams},1651540569,0
{consumergroup=__strimzi-topic-operator-kstreams},1651540574,0
{consumergroup=__strimzi-topic-operator-kstreams},1651540579,0
{consumergroup=__strimzi-topic-operator-kstreams},1651540584,0
{consumergroup=__strimzi-topic-operator-kstreams},1651540589,0
{consumergroup=__strimzi-topic-operator-kstreams},1651540594,0
{consumergroup=__strimzi-topic-operator-kstreams},1651540599,0
{consumergroup=__strimzi-topic-operator-kstreams},1651540604,0
{consumergroup=__strimzi-topic-operator-kstreams},1651540609,0
{consumergroup=__strimzi-topic-operator-kstreams},1651540614,0
{consumergroup=__strimzi-topic-operator-kstreams},1651540619,0
{consumergroup=__strimzi-topic-operator-kstreams},1651540624,0
{consumergroup=__strimzi-topic-operator-kstreams},1651540629,0
{consumergroup=__strimzi-topic-operator-kstreams},1651540634,0
{consumergroup=__strimzi-topic-operator-kstreams},1651540639,0
{consumergroup=__strimzi-topic-operator-kstreams},1651540644,0
{consumergroup=__strimzi-topic-operator-kstreams},1651540649,0
{consumergroup=__strimzi-topic-operator-kstreams},1651540654,0
{consumergroup=__strimzi-topic-operator-kstreams},1651540659,0
{consumergroup=__strimzi-topic-operator-kstreams},1651540664,0
{consumergroup=__strimzi-topic-operator-kstreams},1651540669,0
{consumergroup=__strimzi-topic-operator-kstreams},1651540674,0
{consumergroup=__strimzi-topic-operator-kstreams},1651540679,0
{consumergroup=__strimzi-topic-operator-kstreams},1651540684,0
{consumergroup=__strimzi-topic-operator-kstreams},1651540689,0
{consumergroup=__strimzi-topic-operator-kstreams},1651540694,0
{consumergroup=__strimzi-topic-operator-kstreams},1651540699,0
{consumergroup=__strimzi-topic-operator-kstreams},1651540704,0
{consumergroup=__strimzi-topic-operator-kstreams},1651540709,0
{consumergroup=__strimzi-topic-operator-kstreams},1651540714,0
{consumergroup=__strimzi-topic-operator-kstreams},1651540719,0
{consumergroup=__strimzi-topic-operator-kstreams},1651540724,0
{consumergroup=__strimzi-topic-operator-kstreams},1651540729,0
{consumergroup=__strimzi-topic-operator-kstreams},1651540734,0
{consumergroup=__strimzi-topic-operator-kstreams},1651540739,0
{consumergroup=__strimzi-topic-operator-kstreams},1651540744,0
{consumergroup=__strimzi-topic-operator-kstreams},1651540749,0
{consumergroup=__strimzi-topic-operator-kstreams},1651540754,0
{consumergroup=__strimzi-topic-operator-kstreams},1651540759,0
{consumergroup=__strimzi-topic-operator-kstreams},1651540764,0
{consumergroup=__strimzi-topic-operator-kstreams},1651540769,0
{consumergroup=__strimzi-topic-operator-kstreams},1651540774,0
{consumergroup=__strimzi-topic-operator-kstreams},1651540779,0
{consumergroup=__strimzi-topic-operator-kstreams},1651540784,0
{consumergroup=__strimzi-topic-operator-kstreams},1651540789,0
{consumergroup=__strimzi-topic-operator-kstreams},1651540794,0
{consumergroup=__strimzi-topic-operator-kstreams},1651540799,0
{consumergroup=__strimzi-topic-operator-kstreams},1651540804,0
{consumergroup=__strimzi-topic-operator-kstreams},1651540809,0
{consumergroup=__strimzi-topic-operator-kstreams},1651540814,0
{consumergroup=__strimzi-topic-operator-kstreams},1651540819,0
{consumergroup=__strimzi-topic-operator-kstreams},1651540824,0
{consumergroup=__strimzi-topic-operator-kstreams},1651540829,0
{consumergroup=__strimzi-topic-operator-kstreams},1651540834,0
{consumergroup=__strimzi-topic-operator-kstreams},1651540839,0
{consumergroup=__strimzi-topic-operator-kstreams},1651540844,0
{consumergroup=__strimzi-topic-operator-kstreams},1651540849,0
{consumergroup=__strimzi-topic-operator-kstreams},1651540854,0
{consumergroup=__strimzi-topic-operator-kstreams},1651540859,0
{consumergroup=__strimzi-topic-operator-kstreams},1651540864,0
{consumergroup=__strimzi-topic-operator-kstreams},1651540869,0
{consumergroup=__strimzi-topic-operator-kstreams},1651540874,0
{consumergroup=__strimzi-topic-operator-kstreams},1651540879,0
{consumergroup=__strimzi-topic-operator-kstreams},1651540884,0
{consumergroup=__strimzi-topic-operator-kstreams},1651540889,0
{consumergroup=__strimzi-topic-operator-kstreams},1651540894,0
{consumergroup=__strimzi-topic-operator-kstreams},1651540899,0
{consumergroup=__strimzi-topic-operator-kstreams},1651540904,0
{consumergroup=__strimzi-topic-operator-kstreams},1651540909,0
{consumergroup=__strimzi-topic-operator-kstreams},1651540914,0
{consumergroup=__strimzi-topic-operator-kstreams},1651540919,0
{consumergroup=__strimzi-topic-operator-kstreams},1651540924,0
{consumergroup=__strimzi-topic-operator-kstreams},1651540929,0
{consumergroup=__strimzi-topic-operator-kstreams},1651540934,0
{consumergroup=__strimzi-topic-operator-kstreams},1651540939,0
{consumergroup=__strimzi-topic-operator-kstreams},1651540944,0
{consumergroup=adapter-service},1651540529,0
{consumergroup=adapter-service},1651540534,0
{consumergroup=adapter-service},1651540539,0
{consumergroup=adapter-service},1651540544,11853
{consumergroup=adapter-service},1651540549,11853
{consumergroup=adapter-service},1651540554,11853
{consumergroup=adapter-service},1651540559,6776
{consumergroup=adapter-service},1651540564,6776
{consumergroup=adapter-service},1651540569,6776
{consumergroup=adapter-service},1651540574,10627
{consumergroup=adapter-service},1651540579,10627
{consumergroup=adapter-service},1651540584,10627
{consumergroup=adapter-service},1651540589,5729
{consumergroup=adapter-service},1651540594,5729
{consumergroup=adapter-service},1651540599,5729
{consumergroup=adapter-service},1651540604,9781
{consumergroup=adapter-service},1651540609,9781
{consumergroup=adapter-service},1651540614,9781
{consumergroup=adapter-service},1651540619,6288
{consumergroup=adapter-service},1651540624,6288
{consumergroup=adapter-service},1651540629,6288
{consumergroup=adapter-service},1651540634,9314
{consumergroup=adapter-service},1651540639,9314
{consumergroup=adapter-service},1651540644,9314
{consumergroup=adapter-service},1651540649,5720
{consumergroup=adapter-service},1651540654,5720
{consumergroup=adapter-service},1651540659,5720
{consumergroup=adapter-service},1651540664,8959
{consumergroup=adapter-service},1651540669,8959
{consumergroup=adapter-service},1651540674,8959
{consumergroup=adapter-service},1651540679,4465
{consumergroup=adapter-service},1651540684,4465
{consumergroup=adapter-service},1651540689,4465
{consumergroup=adapter-service},1651540694,9007
{consumergroup=adapter-service},1651540699,9007
{consumergroup=adapter-service},1651540704,9007
{consumergroup=adapter-service},1651540709,5078
{consumergroup=adapter-service},1651540714,5078
{consumergroup=adapter-service},1651540719,5078
{consumergroup=adapter-service},1651540724,8098
{consumergroup=adapter-service},1651540729,8098
{consumergroup=adapter-service},1651540734,8098
{consumergroup=adapter-service},1651540739,3646
{consumergroup=adapter-service},1651540744,3646
{consumergroup=adapter-service},1651540749,3646
{consumergroup=adapter-service},1651540754,7605
{consumergroup=adapter-service},1651540759,7605
{consumergroup=adapter-service},1651540764,7605
{consumergroup=adapter-service},1651540769,3587
{consumergroup=adapter-service},1651540774,3587
{consumergroup=adapter-service},1651540779,3587
{consumergroup=adapter-service},1651540784,7333
{consumergroup=adapter-service},1651540789,7333
{consumergroup=adapter-service},1651540794,7333
{consumergroup=adapter-service},1651540799,2778
{consumergroup=adapter-service},1651540804,2778
{consumergroup=adapter-service},1651540809,2778
{consumergroup=adapter-service},1651540814,7052
{consumergroup=adapter-service},1651540819,7052
{consumergroup=adapter-service},1651540824,7052
{consumergroup=adapter-service},1651540829,2260
{consumergroup=adapter-service},1651540834,2260
{consumergroup=adapter-service},1651540839,2260
{consumergroup=adapter-service},1651540844,6535
{consumergroup=adapter-service},1651540849,6535
{consumergroup=adapter-service},1651540854,6535
{consumergroup=adapter-service},1651540859,2201
{consumergroup=adapter-service},1651540864,2201
{consumergroup=adapter-service},1651540869,2201
{consumergroup=adapter-service},1651540874,6336
{consumergroup=adapter-service},1651540879,6336
{consumergroup=adapter-service},1651540884,6336
{consumergroup=adapter-service},1651540889,1923
{consumergroup=adapter-service},1651540894,1923
{consumergroup=adapter-service},1651540899,1923
{consumergroup=adapter-service},1651540904,6130
{consumergroup=adapter-service},1651540909,6130
{consumergroup=adapter-service},1651540914,6130
{consumergroup=adapter-service},1651540919,1308
{consumergroup=adapter-service},1651540924,1308
{consumergroup=adapter-service},1651540929,1308
{consumergroup=adapter-service},1651540934,5266
{consumergroup=adapter-service},1651540939,5266
{consumergroup=adapter-service},1651540944,5266
{consumergroup=landscape-service},1651540544,51216
{consumergroup=landscape-service},1651540549,51216
{consumergroup=landscape-service},1651540554,51216
{consumergroup=landscape-service},1651540559,15873
{consumergroup=landscape-service},1651540564,15873
{consumergroup=landscape-service},1651540569,15873
{consumergroup=landscape-service},1651540574,19064
{consumergroup=landscape-service},1651540579,19064
{consumergroup=landscape-service},1651540584,19064
{consumergroup=landscape-service},1651540589,13665
{consumergroup=landscape-service},1651540594,13665
{consumergroup=landscape-service},1651540599,13665
{consumergroup=landscape-service},1651540604,18299
{consumergroup=landscape-service},1651540609,18299
{consumergroup=landscape-service},1651540614,18299
{consumergroup=landscape-service},1651540619,12523
{consumergroup=landscape-service},1651540624,12523
{consumergroup=landscape-service},1651540629,12523
{consumergroup=landscape-service},1651540634,16367
{consumergroup=landscape-service},1651540639,16367
{consumergroup=landscape-service},1651540644,16367
{consumergroup=landscape-service},1651540649,12207
{consumergroup=landscape-service},1651540654,12207
{consumergroup=landscape-service},1651540659,12207
{consumergroup=landscape-service},1651540664,16016
{consumergroup=landscape-service},1651540669,16016
{consumergroup=landscape-service},1651540674,16016
{consumergroup=landscape-service},1651540679,10294
{consumergroup=landscape-service},1651540684,10294
{consumergroup=landscape-service},1651540689,10294
{consumergroup=landscape-service},1651540694,13620
{consumergroup=landscape-service},1651540699,13620
{consumergroup=landscape-service},1651540704,13620
{consumergroup=landscape-service},1651540709,9832
{consumergroup=landscape-service},1651540714,9832
{consumergroup=landscape-service},1651540719,9832
{consumergroup=landscape-service},1651540724,12465
{consumergroup=landscape-service},1651540729,12465
{consumergroup=landscape-service},1651540734,12465
{consumergroup=landscape-service},1651540739,7792
{consumergroup=landscape-service},1651540744,7792
{consumergroup=landscape-service},1651540749,7792
{consumergroup=landscape-service},1651540754,11252
{consumergroup=landscape-service},1651540759,11252
{consumergroup=landscape-service},1651540764,11252
{consumergroup=landscape-service},1651540769,6424
{consumergroup=landscape-service},1651540774,6424
{consumergroup=landscape-service},1651540779,6424
{consumergroup=landscape-service},1651540784,10424
{consumergroup=landscape-service},1651540789,10424
{consumergroup=landscape-service},1651540794,10424
{consumergroup=landscape-service},1651540799,5992
{consumergroup=landscape-service},1651540804,5992
{consumergroup=landscape-service},1651540809,5992
{consumergroup=landscape-service},1651540814,9019
{consumergroup=landscape-service},1651540819,9019
{consumergroup=landscape-service},1651540824,9019
{consumergroup=landscape-service},1651540829,4655
{consumergroup=landscape-service},1651540834,4655
{consumergroup=landscape-service},1651540839,4655
{consumergroup=landscape-service},1651540844,7602
{consumergroup=landscape-service},1651540849,7602
{consumergroup=landscape-service},1651540854,7602
{consumergroup=landscape-service},1651540859,2596
{consumergroup=landscape-service},1651540864,2596
{consumergroup=landscape-service},1651540869,2596
{consumergroup=landscape-service},1651540874,7398
{consumergroup=landscape-service},1651540879,7398
{consumergroup=landscape-service},1651540884,7398
{consumergroup=landscape-service},1651540889,1517
{consumergroup=landscape-service},1651540894,1517
{consumergroup=landscape-service},1651540899,1517
{consumergroup=landscape-service},1651540904,5254
{consumergroup=landscape-service},1651540909,5254
{consumergroup=landscape-service},1651540914,5254
{consumergroup=landscape-service},1651540919,392
{consumergroup=landscape-service},1651540924,392
{consumergroup=landscape-service},1651540929,392
{consumergroup=landscape-service},1651540934,4273
{consumergroup=landscape-service},1651540939,4273
{consumergroup=landscape-service},1651540944,4273
{consumergroup=trace-service},1651540544,26375
{consumergroup=trace-service},1651540549,26375
{consumergroup=trace-service},1651540554,26375
{consumergroup=trace-service},1651540559,10721
{consumergroup=trace-service},1651540564,10721
{consumergroup=trace-service},1651540569,10721
{consumergroup=trace-service},1651540574,76647
{consumergroup=trace-service},1651540579,76647
{consumergroup=trace-service},1651540584,76647
{consumergroup=trace-service},1651540589,52995
{consumergroup=trace-service},1651540594,52995
{consumergroup=trace-service},1651540599,52995
{consumergroup=trace-service},1651540604,68725
{consumergroup=trace-service},1651540609,68725
{consumergroup=trace-service},1651540614,68725
{consumergroup=trace-service},1651540619,25412
{consumergroup=trace-service},1651540624,25412
{consumergroup=trace-service},1651540629,25412
{consumergroup=trace-service},1651540634,64330
{consumergroup=trace-service},1651540639,64330
{consumergroup=trace-service},1651540644,64330
{consumergroup=trace-service},1651540649,18158
{consumergroup=trace-service},1651540654,18158
{consumergroup=trace-service},1651540659,18158
{consumergroup=trace-service},1651540664,66684
{consumergroup=trace-service},1651540669,66684
{consumergroup=trace-service},1651540674,66684
{consumergroup=trace-service},1651540679,156573
{consumergroup=trace-service},1651540684,156573
{consumergroup=trace-service},1651540689,156573
{consumergroup=trace-service},1651540694,63427
{consumergroup=trace-service},1651540699,63427
{consumergroup=trace-service},1651540704,63427
{consumergroup=trace-service},1651540709,28015
{consumergroup=trace-service},1651540714,28015
{consumergroup=trace-service},1651540719,28015
{consumergroup=trace-service},1651540724,65187
{consumergroup=trace-service},1651540729,65187
{consumergroup=trace-service},1651540734,65187
{consumergroup=trace-service},1651540739,96229
{consumergroup=trace-service},1651540744,96229
{consumergroup=trace-service},1651540749,96229
{consumergroup=trace-service},1651540754,66069
{consumergroup=trace-service},1651540759,66069
{consumergroup=trace-service},1651540764,66069
{consumergroup=trace-service},1651540769,20899
{consumergroup=trace-service},1651540774,20899
{consumergroup=trace-service},1651540779,20899
{consumergroup=trace-service},1651540784,56777
{consumergroup=trace-service},1651540789,56777
{consumergroup=trace-service},1651540794,56777
{consumergroup=trace-service},1651540799,21606
{consumergroup=trace-service},1651540804,21606
{consumergroup=trace-service},1651540809,21606
{consumergroup=trace-service},1651540814,57186
{consumergroup=trace-service},1651540819,57186
{consumergroup=trace-service},1651540824,57186
{consumergroup=trace-service},1651540829,15264
{consumergroup=trace-service},1651540834,15264
{consumergroup=trace-service},1651540839,15264
{consumergroup=trace-service},1651540844,61416
{consumergroup=trace-service},1651540849,61416
{consumergroup=trace-service},1651540854,61416
{consumergroup=trace-service},1651540859,17144
{consumergroup=trace-service},1651540864,17144
{consumergroup=trace-service},1651540869,17144
{consumergroup=trace-service},1651540874,66676
{consumergroup=trace-service},1651540879,66676
{consumergroup=trace-service},1651540884,66676
{consumergroup=trace-service},1651540889,18177
{consumergroup=trace-service},1651540894,18177
{consumergroup=trace-service},1651540899,18177
{consumergroup=trace-service},1651540904,69070
{consumergroup=trace-service},1651540909,69070
{consumergroup=trace-service},1651540914,69070
{consumergroup=trace-service},1651540919,15372
{consumergroup=trace-service},1651540924,15372
{consumergroup=trace-service},1651540929,15372
{consumergroup=trace-service},1651540934,65612
{consumergroup=trace-service},1651540939,65612
{consumergroup=trace-service},1651540944,65612
{consumergroup=trace-token-events-consumer},1651540529,0
{consumergroup=trace-token-events-consumer},1651540534,0
{consumergroup=trace-token-events-consumer},1651540539,0
{consumergroup=trace-token-events-consumer},1651540544,0
{consumergroup=trace-token-events-consumer},1651540549,0
{consumergroup=trace-token-events-consumer},1651540554,0
{consumergroup=trace-token-events-consumer},1651540559,0
{consumergroup=trace-token-events-consumer},1651540564,0
{consumergroup=trace-token-events-consumer},1651540569,0
{consumergroup=trace-token-events-consumer},1651540574,0
{consumergroup=trace-token-events-consumer},1651540579,0
{consumergroup=trace-token-events-consumer},1651540584,0
{consumergroup=trace-token-events-consumer},1651540589,0
{consumergroup=trace-token-events-consumer},1651540594,0
{consumergroup=trace-token-events-consumer},1651540599,0
{consumergroup=trace-token-events-consumer},1651540604,0
{consumergroup=trace-token-events-consumer},1651540609,0
{consumergroup=trace-token-events-consumer},1651540614,0
{consumergroup=trace-token-events-consumer},1651540619,0
{consumergroup=trace-token-events-consumer},1651540624,0
{consumergroup=trace-token-events-consumer},1651540629,0
{consumergroup=trace-token-events-consumer},1651540634,0
{consumergroup=trace-token-events-consumer},1651540639,0
{consumergroup=trace-token-events-consumer},1651540644,0
{consumergroup=trace-token-events-consumer},1651540649,0
{consumergroup=trace-token-events-consumer},1651540654,0
{consumergroup=trace-token-events-consumer},1651540659,0
{consumergroup=trace-token-events-consumer},1651540664,0
{consumergroup=trace-token-events-consumer},1651540669,0
{consumergroup=trace-token-events-consumer},1651540674,0
{consumergroup=trace-token-events-consumer},1651540679,0
{consumergroup=trace-token-events-consumer},1651540684,0
{consumergroup=trace-token-events-consumer},1651540689,0
{consumergroup=trace-token-events-consumer},1651540694,0
{consumergroup=trace-token-events-consumer},1651540699,0
{consumergroup=trace-token-events-consumer},1651540704,0
{consumergroup=trace-token-events-consumer},1651540709,0
{consumergroup=trace-token-events-consumer},1651540714,0
{consumergroup=trace-token-events-consumer},1651540719,0
{consumergroup=trace-token-events-consumer},1651540724,0
{consumergroup=trace-token-events-consumer},1651540729,0
{consumergroup=trace-token-events-consumer},1651540734,0
{consumergroup=trace-token-events-consumer},1651540739,0
{consumergroup=trace-token-events-consumer},1651540744,0
{consumergroup=trace-token-events-consumer},1651540749,0
{consumergroup=trace-token-events-consumer},1651540754,0
{consumergroup=trace-token-events-consumer},1651540759,0
{consumergroup=trace-token-events-consumer},1651540764,0
{consumergroup=trace-token-events-consumer},1651540769,0
{consumergroup=trace-token-events-consumer},1651540774,0
{consumergroup=trace-token-events-consumer},1651540779,0
{consumergroup=trace-token-events-consumer},1651540784,0
{consumergroup=trace-token-events-consumer},1651540789,0
{consumergroup=trace-token-events-consumer},1651540794,0
{consumergroup=trace-token-events-consumer},1651540799,0
{consumergroup=trace-token-events-consumer},1651540804,0
{consumergroup=trace-token-events-consumer},1651540809,0
{consumergroup=trace-token-events-consumer},1651540814,0
{consumergroup=trace-token-events-consumer},1651540819,0
{consumergroup=trace-token-events-consumer},1651540824,0
{consumergroup=trace-token-events-consumer},1651540829,0
{consumergroup=trace-token-events-consumer},1651540834,0
{consumergroup=trace-token-events-consumer},1651540839,0
{consumergroup=trace-token-events-consumer},1651540844,0
{consumergroup=trace-token-events-consumer},1651540849,0
{consumergroup=trace-token-events-consumer},1651540854,0
{consumergroup=trace-token-events-consumer},1651540859,0
{consumergroup=trace-token-events-consumer},1651540864,0
{consumergroup=trace-token-events-consumer},1651540869,0
{consumergroup=trace-token-events-consumer},1651540874,0
{consumergroup=trace-token-events-consumer},1651540879,0
{consumergroup=trace-token-events-consumer},1651540884,0
{consumergroup=trace-token-events-consumer},1651540889,0
{consumergroup=trace-token-events-consumer},1651540894,0
{consumergroup=trace-token-events-consumer},1651540899,0
{consumergroup=trace-token-events-consumer},1651540904,0
{consumergroup=trace-token-events-consumer},1651540909,0
{consumergroup=trace-token-events-consumer},1651540914,0
{consumergroup=trace-token-events-consumer},1651540919,0
{consumergroup=trace-token-events-consumer},1651540924,0
{consumergroup=trace-token-events-consumer},1651540929,0
{consumergroup=trace-token-events-consumer},1651540934,0
{consumergroup=trace-token-events-consumer},1651540939,0
{consumergroup=trace-token-events-consumer},1651540944,0
