labels,timestamp,value
{consumergroup=__strimzi-topic-operator-kstreams},1651521930,8
{consumergroup=__strimzi-topic-operator-kstreams},1651521935,8
{consumergroup=__strimzi-topic-operator-kstreams},1651521940,8
{consumergroup=__strimzi-topic-operator-kstreams},1651521945,8
{consumergroup=__strimzi-topic-operator-kstreams},1651521950,8
{consumergroup=__strimzi-topic-operator-kstreams},1651521955,8
{consumergroup=__strimzi-topic-operator-kstreams},1651521960,0
{consumergroup=__strimzi-topic-operator-kstreams},1651521965,0
{consumergroup=__strimzi-topic-operator-kstreams},1651521970,0
{consumergroup=__strimzi-topic-operator-kstreams},1651521975,0
{consumergroup=__strimzi-topic-operator-kstreams},1651521980,0
{consumergroup=__strimzi-topic-operator-kstreams},1651521985,0
{consumergroup=__strimzi-topic-operator-kstreams},1651521990,0
{consumergroup=__strimzi-topic-operator-kstreams},1651521995,0
{consumergroup=__strimzi-topic-operator-kstreams},1651522000,0
{consumergroup=__strimzi-topic-operator-kstreams},1651522005,0
{consumergroup=__strimzi-topic-operator-kstreams},1651522010,0
{consumergroup=__strimzi-topic-operator-kstreams},1651522015,0
{consumergroup=__strimzi-topic-operator-kstreams},1651522020,0
{consumergroup=__strimzi-topic-operator-kstreams},1651522025,0
{consumergroup=__strimzi-topic-operator-kstreams},1651522030,0
{consumergroup=__strimzi-topic-operator-kstreams},1651522035,0
{consumergroup=__strimzi-topic-operator-kstreams},1651522040,0
{consumergroup=__strimzi-topic-operator-kstreams},1651522045,0
{consumergroup=__strimzi-topic-operator-kstreams},1651522050,0
{consumergroup=__strimzi-topic-operator-kstreams},1651522055,0
{consumergroup=__strimzi-topic-operator-kstreams},1651522060,0
{consumergroup=__strimzi-topic-operator-kstreams},1651522065,0
{consumergroup=__strimzi-topic-operator-kstreams},1651522070,0
{consumergroup=__strimzi-topic-operator-kstreams},1651522075,0
{consumergroup=__strimzi-topic-operator-kstreams},1651522080,0
{consumergroup=__strimzi-topic-operator-kstreams},1651522085,0
{consumergroup=__strimzi-topic-operator-kstreams},1651522090,0
{consumergroup=__strimzi-topic-operator-kstreams},1651522095,0
{consumergroup=__strimzi-topic-operator-kstreams},1651522100,0
{consumergroup=__strimzi-topic-operator-kstreams},1651522105,0
{consumergroup=__strimzi-topic-operator-kstreams},1651522110,0
{consumergroup=__strimzi-topic-operator-kstreams},1651522115,0
{consumergroup=__strimzi-topic-operator-kstreams},1651522120,0
{consumergroup=__strimzi-topic-operator-kstreams},1651522125,0
{consumergroup=__strimzi-topic-operator-kstreams},1651522130,0
{consumergroup=__strimzi-topic-operator-kstreams},1651522135,0
{consumergroup=__strimzi-topic-operator-kstreams},1651522140,0
{consumergroup=__strimzi-topic-operator-kstreams},1651522145,0
{consumergroup=__strimzi-topic-operator-kstreams},1651522150,0
{consumergroup=__strimzi-topic-operator-kstreams},1651522155,0
{consumergroup=__strimzi-topic-operator-kstreams},1651522160,0
{consumergroup=__strimzi-topic-operator-kstreams},1651522165,0
{consumergroup=__strimzi-topic-operator-kstreams},1651522170,0
{consumergroup=__strimzi-topic-operator-kstreams},1651522175,0
{consumergroup=__strimzi-topic-operator-kstreams},1651522180,0
{consumergroup=__strimzi-topic-operator-kstreams},1651522185,0
{consumergroup=__strimzi-topic-operator-kstreams},1651522190,0
{consumergroup=__strimzi-topic-operator-kstreams},1651522195,0
{consumergroup=__strimzi-topic-operator-kstreams},1651522200,0
{consumergroup=__strimzi-topic-operator-kstreams},1651522205,0
{consumergroup=__strimzi-topic-operator-kstreams},1651522210,0
{consumergroup=__strimzi-topic-operator-kstreams},1651522215,0
{consumergroup=__strimzi-topic-operator-kstreams},1651522220,0
{consumergroup=__strimzi-topic-operator-kstreams},1651522225,0
{consumergroup=__strimzi-topic-operator-kstreams},1651522230,0
{consumergroup=__strimzi-topic-operator-kstreams},1651522235,0
{consumergroup=__strimzi-topic-operator-kstreams},1651522240,0
{consumergroup=__strimzi-topic-operator-kstreams},1651522245,0
{consumergroup=__strimzi-topic-operator-kstreams},1651522250,0
{consumergroup=__strimzi-topic-operator-kstreams},1651522255,0
{consumergroup=__strimzi-topic-operator-kstreams},1651522260,0
{consumergroup=__strimzi-topic-operator-kstreams},1651522265,0
{consumergroup=__strimzi-topic-operator-kstreams},1651522270,0
{consumergroup=__strimzi-topic-operator-kstreams},1651522275,0
{consumergroup=__strimzi-topic-operator-kstreams},1651522280,0
{consumergroup=__strimzi-topic-operator-kstreams},1651522285,0
{consumergroup=__strimzi-topic-operator-kstreams},1651522290,0
{consumergroup=__strimzi-topic-operator-kstreams},1651522295,0
{consumergroup=__strimzi-topic-operator-kstreams},1651522300,0
{consumergroup=__strimzi-topic-operator-kstreams},1651522305,0
{consumergroup=__strimzi-topic-operator-kstreams},1651522310,0
{consumergroup=__strimzi-topic-operator-kstreams},1651522315,0
{consumergroup=__strimzi-topic-operator-kstreams},1651522320,0
{consumergroup=__strimzi-topic-operator-kstreams},1651522325,0
{consumergroup=__strimzi-topic-operator-kstreams},1651522330,0
{consumergroup=__strimzi-topic-operator-kstreams},1651522335,0
{consumergroup=__strimzi-topic-operator-kstreams},1651522340,0
{consumergroup=__strimzi-topic-operator-kstreams},1651522345,0
{consumergroup=__strimzi-topic-operator-kstreams},1651522350,0
{consumergroup=__strimzi-topic-operator-kstreams},1651522355,0
{consumergroup=__strimzi-topic-operator-kstreams},1651522360,0
{consumergroup=__strimzi-topic-operator-kstreams},1651522365,0
{consumergroup=__strimzi-topic-operator-kstreams},1651522370,0
{consumergroup=__strimzi-topic-operator-kstreams},1651522375,0
{consumergroup=trace-service},1651521975,25370
{consumergroup=trace-service},1651521980,25370
{consumergroup=trace-service},1651521985,25370
{consumergroup=trace-service},1651521990,29358
{consumergroup=trace-service},1651521995,29358
{consumergroup=trace-service},1651522000,29358
{consumergroup=trace-service},1651522005,70001
{consumergroup=trace-service},1651522010,70001
{consumergroup=trace-service},1651522015,70001
{consumergroup=trace-service},1651522020,15933
{consumergroup=trace-service},1651522025,15933
{consumergroup=trace-service},1651522030,15933
{consumergroup=trace-service},1651522035,59206
{consumergroup=trace-service},1651522040,59206
{consumergroup=trace-service},1651522045,59206
{consumergroup=trace-service},1651522050,23381
{consumergroup=trace-service},1651522055,23381
{consumergroup=trace-service},1651522060,23381
{consumergroup=trace-service},1651522065,80170
{consumergroup=trace-service},1651522070,80170
{consumergroup=trace-service},1651522075,80170
{consumergroup=trace-service},1651522080,13585
{consumergroup=trace-service},1651522085,13585
{consumergroup=trace-service},1651522090,13585
{consumergroup=trace-service},1651522095,63919
{consumergroup=trace-service},1651522100,63919
{consumergroup=trace-service},1651522105,63919
{consumergroup=trace-service},1651522110,138915
{consumergroup=trace-service},1651522115,138915
{consumergroup=trace-service},1651522120,138915
{consumergroup=trace-service},1651522125,90871
{consumergroup=trace-service},1651522130,90871
{consumergroup=trace-service},1651522135,90871
{consumergroup=trace-service},1651522140,14542
{consumergroup=trace-service},1651522145,14542
{consumergroup=trace-service},1651522150,14542
{consumergroup=trace-service},1651522155,63439
{consumergroup=trace-service},1651522160,63439
{consumergroup=trace-service},1651522165,63439
{consumergroup=trace-service},1651522170,16499
{consumergroup=trace-service},1651522175,16499
{consumergroup=trace-service},1651522180,16499
{consumergroup=trace-service},1651522185,73442
{consumergroup=trace-service},1651522190,73442
{consumergroup=trace-service},1651522195,73442
{consumergroup=trace-service},1651522200,163702
{consumergroup=trace-service},1651522205,163702
{consumergroup=trace-service},1651522210,163702
{consumergroup=trace-service},1651522215,132883
{consumergroup=trace-service},1651522220,132883
{consumergroup=trace-service},1651522225,132883
{consumergroup=trace-service},1651522230,24538
{consumergroup=trace-service},1651522235,24538
{consumergroup=trace-service},1651522240,24538
{consumergroup=trace-service},1651522245,71621
{consumergroup=trace-service},1651522250,71621
{consumergroup=trace-service},1651522255,71621
{consumergroup=trace-service},1651522260,31384
{consumergroup=trace-service},1651522265,31384
{consumergroup=trace-service},1651522270,31384
{consumergroup=trace-service},1651522275,77123
{consumergroup=trace-service},1651522280,77123
{consumergroup=trace-service},1651522285,77123
{consumergroup=trace-service},1651522290,25417
{consumergroup=trace-service},1651522295,25417
{consumergroup=trace-service},1651522300,25417
{consumergroup=trace-service},1651522305,72950
{consumergroup=trace-service},1651522310,72950
{consumergroup=trace-service},1651522315,72950
{consumergroup=trace-service},1651522320,26007
{consumergroup=trace-service},1651522325,26007
{consumergroup=trace-service},1651522330,26007
{consumergroup=trace-service},1651522335,70452
{consumergroup=trace-service},1651522340,70452
{consumergroup=trace-service},1651522345,70452
{consumergroup=trace-service},1651522350,17912
{consumergroup=trace-service},1651522355,17912
{consumergroup=trace-service},1651522360,17912
{consumergroup=trace-service},1651522365,61747
{consumergroup=trace-service},1651522370,61747
{consumergroup=trace-service},1651522375,61747
{consumergroup=trace-token-events-consumer},1651521960,0
{consumergroup=trace-token-events-consumer},1651521965,0
{consumergroup=trace-token-events-consumer},1651521970,0
{consumergroup=trace-token-events-consumer},1651521975,0
{consumergroup=trace-token-events-consumer},1651521980,0
{consumergroup=trace-token-events-consumer},1651521985,0
{consumergroup=trace-token-events-consumer},1651521990,0
{consumergroup=trace-token-events-consumer},1651521995,0
{consumergroup=trace-token-events-consumer},1651522000,0
{consumergroup=trace-token-events-consumer},1651522005,0
{consumergroup=trace-token-events-consumer},1651522010,0
{consumergroup=trace-token-events-consumer},1651522015,0
{consumergroup=trace-token-events-consumer},1651522020,0
{consumergroup=trace-token-events-consumer},1651522025,0
{consumergroup=trace-token-events-consumer},1651522030,0
{consumergroup=trace-token-events-consumer},1651522035,0
{consumergroup=trace-token-events-consumer},1651522040,0
{consumergroup=trace-token-events-consumer},1651522045,0
{consumergroup=trace-token-events-consumer},1651522050,0
{consumergroup=trace-token-events-consumer},1651522055,0
{consumergroup=trace-token-events-consumer},1651522060,0
{consumergroup=trace-token-events-consumer},1651522065,0
{consumergroup=trace-token-events-consumer},1651522070,0
{consumergroup=trace-token-events-consumer},1651522075,0
{consumergroup=trace-token-events-consumer},1651522080,0
{consumergroup=trace-token-events-consumer},1651522085,0
{consumergroup=trace-token-events-consumer},1651522090,0
{consumergroup=trace-token-events-consumer},1651522095,0
{consumergroup=trace-token-events-consumer},1651522100,0
{consumergroup=trace-token-events-consumer},1651522105,0
{consumergroup=trace-token-events-consumer},1651522110,0
{consumergroup=trace-token-events-consumer},1651522115,0
{consumergroup=trace-token-events-consumer},1651522120,0
{consumergroup=trace-token-events-consumer},1651522125,0
{consumergroup=trace-token-events-consumer},1651522130,0
{consumergroup=trace-token-events-consumer},1651522135,0
{consumergroup=trace-token-events-consumer},1651522140,0
{consumergroup=trace-token-events-consumer},1651522145,0
{consumergroup=trace-token-events-consumer},1651522150,0
{consumergroup=trace-token-events-consumer},1651522155,0
{consumergroup=trace-token-events-consumer},1651522160,0
{consumergroup=trace-token-events-consumer},1651522165,0
{consumergroup=trace-token-events-consumer},1651522170,0
{consumergroup=trace-token-events-consumer},1651522175,0
{consumergroup=trace-token-events-consumer},1651522180,0
{consumergroup=trace-token-events-consumer},1651522185,0
{consumergroup=trace-token-events-consumer},1651522190,0
{consumergroup=trace-token-events-consumer},1651522195,0
{consumergroup=trace-token-events-consumer},1651522200,0
{consumergroup=trace-token-events-consumer},1651522205,0
{consumergroup=trace-token-events-consumer},1651522210,0
{consumergroup=trace-token-events-consumer},1651522215,0
{consumergroup=trace-token-events-consumer},1651522220,0
{consumergroup=trace-token-events-consumer},1651522225,0
{consumergroup=trace-token-events-consumer},1651522230,0
{consumergroup=trace-token-events-consumer},1651522235,0
{consumergroup=trace-token-events-consumer},1651522240,0
{consumergroup=trace-token-events-consumer},1651522245,0
{consumergroup=trace-token-events-consumer},1651522250,0
{consumergroup=trace-token-events-consumer},1651522255,0
{consumergroup=trace-token-events-consumer},1651522260,0
{consumergroup=trace-token-events-consumer},1651522265,0
{consumergroup=trace-token-events-consumer},1651522270,0
{consumergroup=trace-token-events-consumer},1651522275,0
{consumergroup=trace-token-events-consumer},1651522280,0
{consumergroup=trace-token-events-consumer},1651522285,0
{consumergroup=trace-token-events-consumer},1651522290,0
{consumergroup=trace-token-events-consumer},1651522295,0
{consumergroup=trace-token-events-consumer},1651522300,0
{consumergroup=trace-token-events-consumer},1651522305,0
{consumergroup=trace-token-events-consumer},1651522310,0
{consumergroup=trace-token-events-consumer},1651522315,0
{consumergroup=trace-token-events-consumer},1651522320,0
{consumergroup=trace-token-events-consumer},1651522325,0
{consumergroup=trace-token-events-consumer},1651522330,0
{consumergroup=trace-token-events-consumer},1651522335,0
{consumergroup=trace-token-events-consumer},1651522340,0
{consumergroup=trace-token-events-consumer},1651522345,0
{consumergroup=trace-token-events-consumer},1651522350,0
{consumergroup=trace-token-events-consumer},1651522355,0
{consumergroup=trace-token-events-consumer},1651522360,0
{consumergroup=trace-token-events-consumer},1651522365,0
{consumergroup=trace-token-events-consumer},1651522370,0
{consumergroup=trace-token-events-consumer},1651522375,0
