labels,timestamp,value
{job=theodolite-stu200776/combined-trace-podmonitor},1651543899,0
{job=theodolite-stu200776/combined-trace-podmonitor},1651543904,0
{job=theodolite-stu200776/combined-trace-podmonitor},1651543909,0
{job=theodolite-stu200776/combined-trace-podmonitor},1651543914,0
{job=theodolite-stu200776/combined-trace-podmonitor},1651543919,0
{job=theodolite-stu200776/combined-trace-podmonitor},1651543924,18.53184373304847
{job=theodolite-stu200776/combined-trace-podmonitor},1651543929,40.822710252571945
{job=theodolite-stu200776/combined-trace-podmonitor},1651543934,89.62728821934478
{job=theodolite-stu200776/combined-trace-podmonitor},1651543939,88.70105878934444
{job=theodolite-stu200776/combined-trace-podmonitor},1651543944,73.66090289026862
{job=theodolite-stu200776/combined-trace-podmonitor},1651543949,69.41286359818169
{job=theodolite-stu200776/combined-trace-podmonitor},1651543954,59.86799124447666
{job=theodolite-stu200776/combined-trace-podmonitor},1651543959,48.667195465563026
{job=theodolite-stu200776/combined-trace-podmonitor},1651543964,5.9158020185226095
{job=theodolite-stu200776/combined-trace-podmonitor},1651543969,0
{job=theodolite-stu200776/combined-trace-podmonitor},1651543974,0
{job=theodolite-stu200776/combined-trace-podmonitor},1651543979,0
{job=theodolite-stu200776/combined-trace-podmonitor},1651543984,0
{job=theodolite-stu200776/combined-trace-podmonitor},1651543989,0
{job=theodolite-stu200776/combined-trace-podmonitor},1651543994,0
{job=theodolite-stu200776/combined-trace-podmonitor},1651543999,0
{job=theodolite-stu200776/combined-trace-podmonitor},1651544004,0
{job=theodolite-stu200776/combined-trace-podmonitor},1651544009,0
{job=theodolite-stu200776/combined-trace-podmonitor},1651544014,0
{job=theodolite-stu200776/combined-trace-podmonitor},1651544019,0
{job=theodolite-stu200776/combined-trace-podmonitor},1651544024,0
{job=theodolite-stu200776/combined-trace-podmonitor},1651544029,0
{job=theodolite-stu200776/combined-trace-podmonitor},1651544034,0
{job=theodolite-stu200776/combined-trace-podmonitor},1651544039,0
{job=theodolite-stu200776/combined-trace-podmonitor},1651544044,0
{job=theodolite-stu200776/combined-trace-podmonitor},1651544049,0
{job=theodolite-stu200776/combined-trace-podmonitor},1651544054,0
{job=theodolite-stu200776/combined-trace-podmonitor},1651544059,0
{job=theodolite-stu200776/combined-trace-podmonitor},1651544064,0
{job=theodolite-stu200776/combined-trace-podmonitor},1651544069,0
{job=theodolite-stu200776/combined-trace-podmonitor},1651544074,0
{job=theodolite-stu200776/combined-trace-podmonitor},1651544079,0
{job=theodolite-stu200776/combined-trace-podmonitor},1651544084,0
{job=theodolite-stu200776/combined-trace-podmonitor},1651544089,0
{job=theodolite-stu200776/combined-trace-podmonitor},1651544094,0
{job=theodolite-stu200776/combined-trace-podmonitor},1651544099,0
{job=theodolite-stu200776/combined-trace-podmonitor},1651544104,0
{job=theodolite-stu200776/combined-trace-podmonitor},1651544109,0
{job=theodolite-stu200776/combined-trace-podmonitor},1651544114,0
{job=theodolite-stu200776/combined-trace-podmonitor},1651544119,0
{job=theodolite-stu200776/combined-trace-podmonitor},1651544124,0
{job=theodolite-stu200776/combined-trace-podmonitor},1651544129,0
{job=theodolite-stu200776/combined-trace-podmonitor},1651544134,56.71353983589458
{job=theodolite-stu200776/combined-trace-podmonitor},1651544139,100.01151489040613
{job=theodolite-stu200776/combined-trace-podmonitor},1651544144,149.5355659151486
{job=theodolite-stu200776/combined-trace-podmonitor},1651544149,141.91463219500687
{job=theodolite-stu200776/combined-trace-podmonitor},1651544154,136.32381364230383
{job=theodolite-stu200776/combined-trace-podmonitor},1651544159,133.32744341459784
{job=theodolite-stu200776/combined-trace-podmonitor},1651544164,158.43216961963725
{job=theodolite-stu200776/combined-trace-podmonitor},1651544169,168.88288725396708
{job=theodolite-stu200776/combined-trace-podmonitor},1651544174,174.19967339497884
{job=theodolite-stu200776/combined-trace-podmonitor},1651544179,164.71971958694337
{job=theodolite-stu200776/combined-trace-podmonitor},1651544184,138.26375777188156
{job=theodolite-stu200776/combined-trace-podmonitor},1651544189,132.20065421637025
{job=theodolite-stu200776/combined-trace-podmonitor},1651544194,138.90798480191694
{job=theodolite-stu200776/combined-trace-podmonitor},1651544199,164.8904591156329
{job=theodolite-stu200776/combined-trace-podmonitor},1651544204,179.1955865182688
{job=theodolite-stu200776/combined-trace-podmonitor},1651544209,167.81418955139057
{job=theodolite-stu200776/combined-trace-podmonitor},1651544214,144.89755958463627
{job=theodolite-stu200776/combined-trace-podmonitor},1651544219,137.12741738292274
{job=theodolite-stu200776/combined-trace-podmonitor},1651544224,157.58246119319608
{job=theodolite-stu200776/combined-trace-podmonitor},1651544229,171.4364153773055
{job=theodolite-stu200776/combined-trace-podmonitor},1651544234,177.48031216269095
{job=theodolite-stu200776/combined-trace-podmonitor},1651544239,163.44509160077783
{job=theodolite-stu200776/combined-trace-podmonitor},1651544244,137.33205413317282
{job=theodolite-stu200776/combined-trace-podmonitor},1651544249,131.1546954214196
{job=theodolite-stu200776/combined-trace-podmonitor},1651544254,74.8421939711676
{job=theodolite-stu200776/combined-trace-podmonitor},1651544259,46.781552538153306
{job=theodolite-stu200776/combined-trace-podmonitor},1651544264,0
{job=theodolite-stu200776/combined-trace-podmonitor},1651544269,0
{job=theodolite-stu200776/combined-trace-podmonitor},1651544274,0
