labels,timestamp,value
{job=theodolite-stu200776/combined-trace-podmonitor},1651315919,0.06451716560594453
{job=theodolite-stu200776/combined-trace-podmonitor},1651315924,3.5048745433091013
{job=theodolite-stu200776/combined-trace-podmonitor},1651315929,5.238761833433794
{job=theodolite-stu200776/combined-trace-podmonitor},1651315934,23.384792018255546
{job=theodolite-stu200776/combined-trace-podmonitor},1651315939,27.279121782295114
{job=theodolite-stu200776/combined-trace-podmonitor},1651315944,37.707253868976615
{job=theodolite-stu200776/combined-trace-podmonitor},1651315949,70.56380897221769
{job=theodolite-stu200776/combined-trace-podmonitor},1651315954,72.32302781958838
{job=theodolite-stu200776/combined-trace-podmonitor},1651315959,71.26055944603262
{job=theodolite-stu200776/combined-trace-podmonitor},1651315964,403.5434062265297
{job=theodolite-stu200776/combined-trace-podmonitor},1651315969,580.9694495294177
{job=theodolite-stu200776/combined-trace-podmonitor},1651315974,808.8766104863084
{job=theodolite-stu200776/combined-trace-podmonitor},1651315979,947.6568910603648
{job=theodolite-stu200776/combined-trace-podmonitor},1651315984,872.2832656843464
{job=theodolite-stu200776/combined-trace-podmonitor},1651315989,802.7504609198221
{job=theodolite-stu200776/combined-trace-podmonitor},1651315994,815.7027691921887
{job=theodolite-stu200776/combined-trace-podmonitor},1651315999,810.6816459423551
{job=theodolite-stu200776/combined-trace-podmonitor},1651316004,736.8803939900392
{job=theodolite-stu200776/combined-trace-podmonitor},1651316009,624.6079988004842
{job=theodolite-stu200776/combined-trace-podmonitor},1651316014,508.9465196662061
{job=theodolite-stu200776/combined-trace-podmonitor},1651316019,475.6677179904648
{job=theodolite-stu200776/combined-trace-podmonitor},1651316024,229.99286110575207
{job=theodolite-stu200776/combined-trace-podmonitor},1651316029,140.4691654583681
{job=theodolite-stu200776/combined-trace-podmonitor},1651316034,44.06432429936066
{job=theodolite-stu200776/combined-trace-podmonitor},1651316039,0
{job=theodolite-stu200776/combined-trace-podmonitor},1651316044,0
{job=theodolite-stu200776/combined-trace-podmonitor},1651316049,0
{job=theodolite-stu200776/combined-trace-podmonitor},1651316054,0
{job=theodolite-stu200776/combined-trace-podmonitor},1651316059,0
{job=theodolite-stu200776/combined-trace-podmonitor},1651316064,0
{job=theodolite-stu200776/combined-trace-podmonitor},1651316069,0
{job=theodolite-stu200776/combined-trace-podmonitor},1651316074,0.4800768122899664
{job=theodolite-stu200776/combined-trace-podmonitor},1651316079,158.44065516947336
{job=theodolite-stu200776/combined-trace-podmonitor},1651316084,321.06867215646037
{job=theodolite-stu200776/combined-trace-podmonitor},1651316089,322.88877637953516
{job=theodolite-stu200776/combined-trace-podmonitor},1651316094,515.2919668263942
{job=theodolite-stu200776/combined-trace-podmonitor},1651316099,525.740330383019
{job=theodolite-stu200776/combined-trace-podmonitor},1651316104,480.7242700286268
{job=theodolite-stu200776/combined-trace-podmonitor},1651316109,593.551941331849
{job=theodolite-stu200776/combined-trace-podmonitor},1651316114,740.1722750459867
{job=theodolite-stu200776/combined-trace-podmonitor},1651316119,669.7057893704896
{job=theodolite-stu200776/combined-trace-podmonitor},1651316124,588.8544863164025
{job=theodolite-stu200776/combined-trace-podmonitor},1651316129,546.5102624690519
{job=theodolite-stu200776/combined-trace-podmonitor},1651316134,476.71141057308483
{job=theodolite-stu200776/combined-trace-podmonitor},1651316139,306.46540265582814
{job=theodolite-stu200776/combined-trace-podmonitor},1651316144,18.89374374224726
{job=theodolite-stu200776/combined-trace-podmonitor},1651316149,18.89374374224726
{job=theodolite-stu200776/combined-trace-podmonitor},1651316154,0
{job=theodolite-stu200776/combined-trace-podmonitor},1651316159,0
{job=theodolite-stu200776/combined-trace-podmonitor},1651316164,352.3985174117122
{job=theodolite-stu200776/combined-trace-podmonitor},1651316169,910.7318507450461
{job=theodolite-stu200776/combined-trace-podmonitor},1651316174,1429.0026964978977
{job=theodolite-stu200776/combined-trace-podmonitor},1651316179,1289.4298321762897
{job=theodolite-stu200776/combined-trace-podmonitor},1651316184,1293.7409610075754
{job=theodolite-stu200776/combined-trace-podmonitor},1651316189,1209.9858469029487
{job=theodolite-stu200776/combined-trace-podmonitor},1651316194,1028.510689094249
{job=theodolite-stu200776/combined-trace-podmonitor},1651316199,693.505334187151
{job=theodolite-stu200776/combined-trace-podmonitor},1651316204,286.63054359827095
{job=theodolite-stu200776/combined-trace-podmonitor},1651316209,286.63054359827095
{job=theodolite-stu200776/combined-trace-podmonitor},1651316214,0
{job=theodolite-stu200776/combined-trace-podmonitor},1651316219,0
{job=theodolite-stu200776/combined-trace-podmonitor},1651316224,0
{job=theodolite-stu200776/combined-trace-podmonitor},1651316229,0
{job=theodolite-stu200776/combined-trace-podmonitor},1651316234,0
{job=theodolite-stu200776/combined-trace-podmonitor},1651316239,0
{job=theodolite-stu200776/combined-trace-podmonitor},1651316244,0
{job=theodolite-stu200776/combined-trace-podmonitor},1651316249,0
{job=theodolite-stu200776/combined-trace-podmonitor},1651316254,0
{job=theodolite-stu200776/combined-trace-podmonitor},1651316259,0
{job=theodolite-stu200776/combined-trace-podmonitor},1651316264,0
{job=theodolite-stu200776/combined-trace-podmonitor},1651316269,0
{job=theodolite-stu200776/combined-trace-podmonitor},1651316274,0
{job=theodolite-stu200776/combined-trace-podmonitor},1651316279,0
{job=theodolite-stu200776/combined-trace-podmonitor},1651316284,62.546286014216214
{job=theodolite-stu200776/combined-trace-podmonitor},1651316289,117.46627038488165
{job=theodolite-stu200776/combined-trace-podmonitor},1651316294,188.95913489942956
{job=theodolite-stu200776/combined-trace-podmonitor},1651316299,216.39973742605704
{job=theodolite-stu200776/combined-trace-podmonitor},1651316304,305.05276146366356
{job=theodolite-stu200776/combined-trace-podmonitor},1651316309,288.5639051050115
{job=theodolite-stu200776/combined-trace-podmonitor},1651316314,233.0399051002701
{job=theodolite-stu200776/combined-trace-podmonitor},1651316319,167.16817456162914
{job=theodolite-stu200776/combined-trace-podmonitor},1651316324,133.35161713095192
{job=theodolite-stu200776/combined-trace-podmonitor},1651316329,133.35161713095192
{job=theodolite-stu200776/combined-trace-podmonitor},1651316334,0
{job=theodolite-stu200776/combined-trace-podmonitor},1651316339,0
{job=theodolite-stu200776/combined-trace-podmonitor},1651316344,0
{job=theodolite-stu200776/combined-trace-podmonitor},1651316349,0
{job=theodolite-stu200776/combined-trace-podmonitor},1651316354,0
{job=theodolite-stu200776/combined-trace-podmonitor},1651316359,0
