labels,timestamp,value
{job=theodolite-stu200776/trace-isolated-podmonitor},1651503442,0
{job=theodolite-stu200776/trace-isolated-podmonitor},1651503447,0
{job=theodolite-stu200776/trace-isolated-podmonitor},1651503452,0
{job=theodolite-stu200776/trace-isolated-podmonitor},1651503457,0
{job=theodolite-stu200776/trace-isolated-podmonitor},1651503462,0
{job=theodolite-stu200776/trace-isolated-podmonitor},1651503467,0
{job=theodolite-stu200776/trace-isolated-podmonitor},1651503472,0
{job=theodolite-stu200776/trace-isolated-podmonitor},1651503477,0
{job=theodolite-stu200776/trace-isolated-podmonitor},1651503482,0
{job=theodolite-stu200776/trace-isolated-podmonitor},1651503487,0
{job=theodolite-stu200776/trace-isolated-podmonitor},1651503492,0
{job=theodolite-stu200776/trace-isolated-podmonitor},1651503497,0
{job=theodolite-stu200776/trace-isolated-podmonitor},1651503502,0
{job=theodolite-stu200776/trace-isolated-podmonitor},1651503507,0
{job=theodolite-stu200776/trace-isolated-podmonitor},1651503512,0
{job=theodolite-stu200776/trace-isolated-podmonitor},1651503517,0
{job=theodolite-stu200776/trace-isolated-podmonitor},1651503522,0
{job=theodolite-stu200776/trace-isolated-podmonitor},1651503527,0
{job=theodolite-stu200776/trace-isolated-podmonitor},1651503532,0
{job=theodolite-stu200776/trace-isolated-podmonitor},1651503537,0
{job=theodolite-stu200776/trace-isolated-podmonitor},1651503542,0
{job=theodolite-stu200776/trace-isolated-podmonitor},1651503547,0
{job=theodolite-stu200776/trace-isolated-podmonitor},1651503552,0
{job=theodolite-stu200776/trace-isolated-podmonitor},1651503557,0
{job=theodolite-stu200776/trace-isolated-podmonitor},1651503562,0
{job=theodolite-stu200776/trace-isolated-podmonitor},1651503567,0
{job=theodolite-stu200776/trace-isolated-podmonitor},1651503572,0
{job=theodolite-stu200776/trace-isolated-podmonitor},1651503577,0
{job=theodolite-stu200776/trace-isolated-podmonitor},1651503582,0
{job=theodolite-stu200776/trace-isolated-podmonitor},1651503587,0
{job=theodolite-stu200776/trace-isolated-podmonitor},1651503592,0
{job=theodolite-stu200776/trace-isolated-podmonitor},1651503597,0
{job=theodolite-stu200776/trace-isolated-podmonitor},1651503602,0
{job=theodolite-stu200776/trace-isolated-podmonitor},1651503607,0
{job=theodolite-stu200776/trace-isolated-podmonitor},1651503612,0
{job=theodolite-stu200776/trace-isolated-podmonitor},1651503617,0
{job=theodolite-stu200776/trace-isolated-podmonitor},1651503622,0
{job=theodolite-stu200776/trace-isolated-podmonitor},1651503627,0
{job=theodolite-stu200776/trace-isolated-podmonitor},1651503632,0
{job=theodolite-stu200776/trace-isolated-podmonitor},1651503637,175.1918101219012
{job=theodolite-stu200776/trace-isolated-podmonitor},1651503642,261.4309799934089
{job=theodolite-stu200776/trace-isolated-podmonitor},1651503647,245.82924176702747
{job=theodolite-stu200776/trace-isolated-podmonitor},1651503652,228.37620592458353
{job=theodolite-stu200776/trace-isolated-podmonitor},1651503657,198.19198360655832
{job=theodolite-stu200776/trace-isolated-podmonitor},1651503662,206.18042877365855
{job=theodolite-stu200776/trace-isolated-podmonitor},1651503667,284.9316393247347
{job=theodolite-stu200776/trace-isolated-podmonitor},1651503672,294.38517232246613
{job=theodolite-stu200776/trace-isolated-podmonitor},1651503677,245.81326751208445
{job=theodolite-stu200776/trace-isolated-podmonitor},1651503682,228.4708976971682
{job=theodolite-stu200776/trace-isolated-podmonitor},1651503687,198.2892282385854
{job=theodolite-stu200776/trace-isolated-podmonitor},1651503692,161.04249998978673
{job=theodolite-stu200776/trace-isolated-podmonitor},1651503697,31.63901413018066
{job=theodolite-stu200776/trace-isolated-podmonitor},1651503702,0
{job=theodolite-stu200776/trace-isolated-podmonitor},1651503707,0
{job=theodolite-stu200776/trace-isolated-podmonitor},1651503712,0
{job=theodolite-stu200776/trace-isolated-podmonitor},1651503717,0
{job=theodolite-stu200776/trace-isolated-podmonitor},1651503722,0
{job=theodolite-stu200776/trace-isolated-podmonitor},1651503727,0
{job=theodolite-stu200776/trace-isolated-podmonitor},1651503732,0
{job=theodolite-stu200776/trace-isolated-podmonitor},1651503737,0
{job=theodolite-stu200776/trace-isolated-podmonitor},1651503742,0
{job=theodolite-stu200776/trace-isolated-podmonitor},1651503747,0
{job=theodolite-stu200776/trace-isolated-podmonitor},1651503752,0
{job=theodolite-stu200776/trace-isolated-podmonitor},1651503757,0
{job=theodolite-stu200776/trace-isolated-podmonitor},1651503762,0
{job=theodolite-stu200776/trace-isolated-podmonitor},1651503767,0
{job=theodolite-stu200776/trace-isolated-podmonitor},1651503772,0
{job=theodolite-stu200776/trace-isolated-podmonitor},1651503777,0
{job=theodolite-stu200776/trace-isolated-podmonitor},1651503782,0
{job=theodolite-stu200776/trace-isolated-podmonitor},1651503787,0
{job=theodolite-stu200776/trace-isolated-podmonitor},1651503792,0
{job=theodolite-stu200776/trace-isolated-podmonitor},1651503797,0
{job=theodolite-stu200776/trace-isolated-podmonitor},1651503802,0
{job=theodolite-stu200776/trace-isolated-podmonitor},1651503807,0
{job=theodolite-stu200776/trace-isolated-podmonitor},1651503812,0
