labels,timestamp,value
{job=theodolite-stu200776/combined-trace-podmonitor},1651545013,4.715283387649176
{job=theodolite-stu200776/combined-trace-podmonitor},1651545018,7.8651632513793
{job=theodolite-stu200776/combined-trace-podmonitor},1651545023,8.67172791562122
{job=theodolite-stu200776/combined-trace-podmonitor},1651545028,8.04565197409992
{job=theodolite-stu200776/combined-trace-podmonitor},1651545033,7.148248061962811
{job=theodolite-stu200776/combined-trace-podmonitor},1651545038,9.458070263918898
{job=theodolite-stu200776/combined-trace-podmonitor},1651545043,12.055832443657806
{job=theodolite-stu200776/combined-trace-podmonitor},1651545048,11.316854406840696
{job=theodolite-stu200776/combined-trace-podmonitor},1651545053,9.79357020687041
{job=theodolite-stu200776/combined-trace-podmonitor},1651545058,8.970434239815706
{job=theodolite-stu200776/combined-trace-podmonitor},1651545063,7.97052222724911
{job=theodolite-stu200776/combined-trace-podmonitor},1651545068,5.28666865485628
{job=theodolite-stu200776/combined-trace-podmonitor},1651545073,0.6048652172052862
{job=theodolite-stu200776/combined-trace-podmonitor},1651545078,0.017206669305022626
{job=theodolite-stu200776/combined-trace-podmonitor},1651545083,0
{job=theodolite-stu200776/combined-trace-podmonitor},1651545088,0
{job=theodolite-stu200776/combined-trace-podmonitor},1651545093,0
{job=theodolite-stu200776/combined-trace-podmonitor},1651545098,0
{job=theodolite-stu200776/combined-trace-podmonitor},1651545103,0
{job=theodolite-stu200776/combined-trace-podmonitor},1651545108,0
{job=theodolite-stu200776/combined-trace-podmonitor},1651545113,0
{job=theodolite-stu200776/combined-trace-podmonitor},1651545118,0
{job=theodolite-stu200776/combined-trace-podmonitor},1651545123,0
{job=theodolite-stu200776/combined-trace-podmonitor},1651545128,0
{job=theodolite-stu200776/combined-trace-podmonitor},1651545133,0
{job=theodolite-stu200776/combined-trace-podmonitor},1651545138,0
{job=theodolite-stu200776/combined-trace-podmonitor},1651545143,0
{job=theodolite-stu200776/combined-trace-podmonitor},1651545148,0
{job=theodolite-stu200776/combined-trace-podmonitor},1651545153,0
{job=theodolite-stu200776/combined-trace-podmonitor},1651545158,0
{job=theodolite-stu200776/combined-trace-podmonitor},1651545163,0
{job=theodolite-stu200776/combined-trace-podmonitor},1651545168,0
{job=theodolite-stu200776/combined-trace-podmonitor},1651545173,0
{job=theodolite-stu200776/combined-trace-podmonitor},1651545178,0
{job=theodolite-stu200776/combined-trace-podmonitor},1651545183,0
{job=theodolite-stu200776/combined-trace-podmonitor},1651545188,0
{job=theodolite-stu200776/combined-trace-podmonitor},1651545193,0
{job=theodolite-stu200776/combined-trace-podmonitor},1651545198,0
{job=theodolite-stu200776/combined-trace-podmonitor},1651545203,0
{job=theodolite-stu200776/combined-trace-podmonitor},1651545208,0
{job=theodolite-stu200776/combined-trace-podmonitor},1651545213,0
{job=theodolite-stu200776/combined-trace-podmonitor},1651545218,0
{job=theodolite-stu200776/combined-trace-podmonitor},1651545223,0
{job=theodolite-stu200776/combined-trace-podmonitor},1651545228,0
{job=theodolite-stu200776/combined-trace-podmonitor},1651545233,0
{job=theodolite-stu200776/combined-trace-podmonitor},1651545238,0
{job=theodolite-stu200776/combined-trace-podmonitor},1651545243,0
{job=theodolite-stu200776/combined-trace-podmonitor},1651545248,0
{job=theodolite-stu200776/combined-trace-podmonitor},1651545253,0
{job=theodolite-stu200776/combined-trace-podmonitor},1651545258,0
{job=theodolite-stu200776/combined-trace-podmonitor},1651545263,0
{job=theodolite-stu200776/combined-trace-podmonitor},1651545268,0
{job=theodolite-stu200776/combined-trace-podmonitor},1651545273,0
{job=theodolite-stu200776/combined-trace-podmonitor},1651545278,0
{job=theodolite-stu200776/combined-trace-podmonitor},1651545283,0
{job=theodolite-stu200776/combined-trace-podmonitor},1651545288,0
{job=theodolite-stu200776/combined-trace-podmonitor},1651545293,0
{job=theodolite-stu200776/combined-trace-podmonitor},1651545298,0
{job=theodolite-stu200776/combined-trace-podmonitor},1651545303,0
{job=theodolite-stu200776/combined-trace-podmonitor},1651545308,0
{job=theodolite-stu200776/combined-trace-podmonitor},1651545313,0
{job=theodolite-stu200776/combined-trace-podmonitor},1651545318,0
{job=theodolite-stu200776/combined-trace-podmonitor},1651545323,0
{job=theodolite-stu200776/combined-trace-podmonitor},1651545328,0
{job=theodolite-stu200776/combined-trace-podmonitor},1651545333,0
{job=theodolite-stu200776/combined-trace-podmonitor},1651545338,0
{job=theodolite-stu200776/combined-trace-podmonitor},1651545343,0
{job=theodolite-stu200776/combined-trace-podmonitor},1651545348,0
{job=theodolite-stu200776/combined-trace-podmonitor},1651545353,0
{job=theodolite-stu200776/combined-trace-podmonitor},1651545358,0
{job=theodolite-stu200776/combined-trace-podmonitor},1651545363,0
{job=theodolite-stu200776/combined-trace-podmonitor},1651545368,0
{job=theodolite-stu200776/combined-trace-podmonitor},1651545373,0
{job=theodolite-stu200776/combined-trace-podmonitor},1651545378,0
{job=theodolite-stu200776/combined-trace-podmonitor},1651545383,0
{job=theodolite-stu200776/combined-trace-podmonitor},1651545388,0
