labels,timestamp,value
{consumergroup=__strimzi-topic-operator-kstreams},1651493148,8
{consumergroup=__strimzi-topic-operator-kstreams},1651493153,8
{consumergroup=__strimzi-topic-operator-kstreams},1651493158,8
{consumergroup=__strimzi-topic-operator-kstreams},1651493163,8
{consumergroup=__strimzi-topic-operator-kstreams},1651493168,8
{consumergroup=__strimzi-topic-operator-kstreams},1651493173,8
{consumergroup=__strimzi-topic-operator-kstreams},1651493178,0
{consumergroup=__strimzi-topic-operator-kstreams},1651493183,0
{consumergroup=__strimzi-topic-operator-kstreams},1651493188,0
{consumergroup=__strimzi-topic-operator-kstreams},1651493193,0
{consumergroup=__strimzi-topic-operator-kstreams},1651493198,0
{consumergroup=__strimzi-topic-operator-kstreams},1651493203,0
{consumergroup=__strimzi-topic-operator-kstreams},1651493208,0
{consumergroup=__strimzi-topic-operator-kstreams},1651493213,0
{consumergroup=__strimzi-topic-operator-kstreams},1651493218,0
{consumergroup=__strimzi-topic-operator-kstreams},1651493223,0
{consumergroup=__strimzi-topic-operator-kstreams},1651493228,0
{consumergroup=__strimzi-topic-operator-kstreams},1651493233,0
{consumergroup=__strimzi-topic-operator-kstreams},1651493238,0
{consumergroup=__strimzi-topic-operator-kstreams},1651493243,0
{consumergroup=__strimzi-topic-operator-kstreams},1651493248,0
{consumergroup=__strimzi-topic-operator-kstreams},1651493253,0
{consumergroup=__strimzi-topic-operator-kstreams},1651493258,0
{consumergroup=__strimzi-topic-operator-kstreams},1651493263,0
{consumergroup=__strimzi-topic-operator-kstreams},1651493268,0
{consumergroup=__strimzi-topic-operator-kstreams},1651493273,0
{consumergroup=__strimzi-topic-operator-kstreams},1651493278,0
{consumergroup=__strimzi-topic-operator-kstreams},1651493283,0
{consumergroup=__strimzi-topic-operator-kstreams},1651493288,0
{consumergroup=__strimzi-topic-operator-kstreams},1651493293,0
{consumergroup=__strimzi-topic-operator-kstreams},1651493298,0
{consumergroup=__strimzi-topic-operator-kstreams},1651493303,0
{consumergroup=__strimzi-topic-operator-kstreams},1651493308,0
{consumergroup=__strimzi-topic-operator-kstreams},1651493313,0
{consumergroup=__strimzi-topic-operator-kstreams},1651493318,0
{consumergroup=__strimzi-topic-operator-kstreams},1651493323,0
{consumergroup=__strimzi-topic-operator-kstreams},1651493328,0
{consumergroup=__strimzi-topic-operator-kstreams},1651493333,0
{consumergroup=__strimzi-topic-operator-kstreams},1651493338,0
{consumergroup=__strimzi-topic-operator-kstreams},1651493343,0
{consumergroup=__strimzi-topic-operator-kstreams},1651493348,0
{consumergroup=__strimzi-topic-operator-kstreams},1651493353,0
{consumergroup=__strimzi-topic-operator-kstreams},1651493358,0
{consumergroup=__strimzi-topic-operator-kstreams},1651493363,0
{consumergroup=__strimzi-topic-operator-kstreams},1651493368,0
{consumergroup=__strimzi-topic-operator-kstreams},1651493373,0
{consumergroup=__strimzi-topic-operator-kstreams},1651493378,0
{consumergroup=__strimzi-topic-operator-kstreams},1651493383,0
{consumergroup=__strimzi-topic-operator-kstreams},1651493388,0
{consumergroup=__strimzi-topic-operator-kstreams},1651493393,0
{consumergroup=__strimzi-topic-operator-kstreams},1651493398,0
{consumergroup=__strimzi-topic-operator-kstreams},1651493403,0
{consumergroup=__strimzi-topic-operator-kstreams},1651493408,0
{consumergroup=__strimzi-topic-operator-kstreams},1651493413,0
{consumergroup=__strimzi-topic-operator-kstreams},1651493418,0
{consumergroup=__strimzi-topic-operator-kstreams},1651493423,0
{consumergroup=__strimzi-topic-operator-kstreams},1651493428,0
{consumergroup=__strimzi-topic-operator-kstreams},1651493433,0
{consumergroup=__strimzi-topic-operator-kstreams},1651493438,0
{consumergroup=__strimzi-topic-operator-kstreams},1651493443,0
{consumergroup=__strimzi-topic-operator-kstreams},1651493448,0
{consumergroup=__strimzi-topic-operator-kstreams},1651493453,0
{consumergroup=__strimzi-topic-operator-kstreams},1651493458,0
{consumergroup=__strimzi-topic-operator-kstreams},1651493463,0
{consumergroup=__strimzi-topic-operator-kstreams},1651493468,0
{consumergroup=__strimzi-topic-operator-kstreams},1651493473,0
{consumergroup=__strimzi-topic-operator-kstreams},1651493478,0
{consumergroup=__strimzi-topic-operator-kstreams},1651493483,0
{consumergroup=__strimzi-topic-operator-kstreams},1651493488,0
{consumergroup=__strimzi-topic-operator-kstreams},1651493493,0
{consumergroup=__strimzi-topic-operator-kstreams},1651493498,0
{consumergroup=__strimzi-topic-operator-kstreams},1651493503,0
{consumergroup=__strimzi-topic-operator-kstreams},1651493508,0
{consumergroup=__strimzi-topic-operator-kstreams},1651493513,0
{consumergroup=__strimzi-topic-operator-kstreams},1651493518,0
{consumergroup=__strimzi-topic-operator-kstreams},1651493523,0
{consumergroup=__strimzi-topic-operator-kstreams},1651493528,0
{consumergroup=__strimzi-topic-operator-kstreams},1651493533,0
{consumergroup=__strimzi-topic-operator-kstreams},1651493538,0
{consumergroup=__strimzi-topic-operator-kstreams},1651493543,0
{consumergroup=__strimzi-topic-operator-kstreams},1651493548,0
{consumergroup=__strimzi-topic-operator-kstreams},1651493553,0
{consumergroup=__strimzi-topic-operator-kstreams},1651493558,0
{consumergroup=__strimzi-topic-operator-kstreams},1651493563,0
{consumergroup=__strimzi-topic-operator-kstreams},1651493568,0
{consumergroup=__strimzi-topic-operator-kstreams},1651493573,0
{consumergroup=__strimzi-topic-operator-kstreams},1651493578,0
{consumergroup=__strimzi-topic-operator-kstreams},1651493583,0
{consumergroup=__strimzi-topic-operator-kstreams},1651493588,0
{consumergroup=__strimzi-topic-operator-kstreams},1651493593,0
{consumergroup=trace-service},1651493193,47076
{consumergroup=trace-service},1651493198,47076
{consumergroup=trace-service},1651493203,47076
{consumergroup=trace-service},1651493208,41281
{consumergroup=trace-service},1651493213,41281
{consumergroup=trace-service},1651493218,41281
{consumergroup=trace-service},1651493223,31417
{consumergroup=trace-service},1651493228,31417
{consumergroup=trace-service},1651493233,31417
{consumergroup=trace-service},1651493238,82610
{consumergroup=trace-service},1651493243,82610
{consumergroup=trace-service},1651493248,82610
{consumergroup=trace-service},1651493253,43228
{consumergroup=trace-service},1651493258,43228
{consumergroup=trace-service},1651493263,43228
{consumergroup=trace-service},1651493268,91293
{consumergroup=trace-service},1651493273,91293
{consumergroup=trace-service},1651493278,91293
{consumergroup=trace-service},1651493283,35030
{consumergroup=trace-service},1651493288,35030
{consumergroup=trace-service},1651493293,35030
{consumergroup=trace-service},1651493298,104321
{consumergroup=trace-service},1651493303,104321
{consumergroup=trace-service},1651493308,104321
{consumergroup=trace-service},1651493313,31492
{consumergroup=trace-service},1651493318,31492
{consumergroup=trace-service},1651493323,31492
{consumergroup=trace-service},1651493328,83242
{consumergroup=trace-service},1651493333,83242
{consumergroup=trace-service},1651493338,83242
{consumergroup=trace-service},1651493343,207657
{consumergroup=trace-service},1651493348,207657
{consumergroup=trace-service},1651493353,207657
{consumergroup=trace-service},1651493358,98188
{consumergroup=trace-service},1651493363,98188
{consumergroup=trace-service},1651493368,98188
{consumergroup=trace-service},1651493373,30083
{consumergroup=trace-service},1651493378,30083
{consumergroup=trace-service},1651493383,30083
{consumergroup=trace-service},1651493388,72480
{consumergroup=trace-service},1651493393,72480
{consumergroup=trace-service},1651493398,72480
{consumergroup=trace-service},1651493403,44613
{consumergroup=trace-service},1651493408,44613
{consumergroup=trace-service},1651493413,44613
{consumergroup=trace-service},1651493418,83457
{consumergroup=trace-service},1651493423,83457
{consumergroup=trace-service},1651493428,83457
{consumergroup=trace-service},1651493433,35744
{consumergroup=trace-service},1651493438,35744
{consumergroup=trace-service},1651493443,35744
{consumergroup=trace-service},1651493448,81447
{consumergroup=trace-service},1651493453,81447
{consumergroup=trace-service},1651493458,81447
{consumergroup=trace-service},1651493463,44060
{consumergroup=trace-service},1651493468,44060
{consumergroup=trace-service},1651493473,44060
{consumergroup=trace-service},1651493478,87544
{consumergroup=trace-service},1651493483,87544
{consumergroup=trace-service},1651493488,87544
{consumergroup=trace-service},1651493493,33689
{consumergroup=trace-service},1651493498,33689
{consumergroup=trace-service},1651493503,33689
{consumergroup=trace-service},1651493508,87204
{consumergroup=trace-service},1651493513,87204
{consumergroup=trace-service},1651493518,87204
{consumergroup=trace-service},1651493523,39073
{consumergroup=trace-service},1651493528,39073
{consumergroup=trace-service},1651493533,39073
{consumergroup=trace-service},1651493538,91172
{consumergroup=trace-service},1651493543,91172
{consumergroup=trace-service},1651493548,91172
{consumergroup=trace-service},1651493553,114619
{consumergroup=trace-service},1651493558,114619
{consumergroup=trace-service},1651493563,114619
{consumergroup=trace-service},1651493568,131092
{consumergroup=trace-service},1651493573,131092
{consumergroup=trace-service},1651493578,131092
{consumergroup=trace-service},1651493583,196757
{consumergroup=trace-service},1651493588,196757
{consumergroup=trace-service},1651493593,196757
{consumergroup=trace-token-events-consumer},1651493178,0
{consumergroup=trace-token-events-consumer},1651493183,0
{consumergroup=trace-token-events-consumer},1651493188,0
{consumergroup=trace-token-events-consumer},1651493193,0
{consumergroup=trace-token-events-consumer},1651493198,0
{consumergroup=trace-token-events-consumer},1651493203,0
{consumergroup=trace-token-events-consumer},1651493208,0
{consumergroup=trace-token-events-consumer},1651493213,0
{consumergroup=trace-token-events-consumer},1651493218,0
{consumergroup=trace-token-events-consumer},1651493223,0
{consumergroup=trace-token-events-consumer},1651493228,0
{consumergroup=trace-token-events-consumer},1651493233,0
{consumergroup=trace-token-events-consumer},1651493238,0
{consumergroup=trace-token-events-consumer},1651493243,0
{consumergroup=trace-token-events-consumer},1651493248,0
{consumergroup=trace-token-events-consumer},1651493253,0
{consumergroup=trace-token-events-consumer},1651493258,0
{consumergroup=trace-token-events-consumer},1651493263,0
{consumergroup=trace-token-events-consumer},1651493268,0
{consumergroup=trace-token-events-consumer},1651493273,0
{consumergroup=trace-token-events-consumer},1651493278,0
{consumergroup=trace-token-events-consumer},1651493283,0
{consumergroup=trace-token-events-consumer},1651493288,0
{consumergroup=trace-token-events-consumer},1651493293,0
{consumergroup=trace-token-events-consumer},1651493298,0
{consumergroup=trace-token-events-consumer},1651493303,0
{consumergroup=trace-token-events-consumer},1651493308,0
{consumergroup=trace-token-events-consumer},1651493313,0
{consumergroup=trace-token-events-consumer},1651493318,0
{consumergroup=trace-token-events-consumer},1651493323,0
{consumergroup=trace-token-events-consumer},1651493328,0
{consumergroup=trace-token-events-consumer},1651493333,0
{consumergroup=trace-token-events-consumer},1651493338,0
{consumergroup=trace-token-events-consumer},1651493343,0
{consumergroup=trace-token-events-consumer},1651493348,0
{consumergroup=trace-token-events-consumer},1651493353,0
{consumergroup=trace-token-events-consumer},1651493358,0
{consumergroup=trace-token-events-consumer},1651493363,0
{consumergroup=trace-token-events-consumer},1651493368,0
{consumergroup=trace-token-events-consumer},1651493373,0
{consumergroup=trace-token-events-consumer},1651493378,0
{consumergroup=trace-token-events-consumer},1651493383,0
{consumergroup=trace-token-events-consumer},1651493388,0
{consumergroup=trace-token-events-consumer},1651493393,0
{consumergroup=trace-token-events-consumer},1651493398,0
{consumergroup=trace-token-events-consumer},1651493403,0
{consumergroup=trace-token-events-consumer},1651493408,0
{consumergroup=trace-token-events-consumer},1651493413,0
{consumergroup=trace-token-events-consumer},1651493418,0
{consumergroup=trace-token-events-consumer},1651493423,0
{consumergroup=trace-token-events-consumer},1651493428,0
{consumergroup=trace-token-events-consumer},1651493433,0
{consumergroup=trace-token-events-consumer},1651493438,0
{consumergroup=trace-token-events-consumer},1651493443,0
{consumergroup=trace-token-events-consumer},1651493448,0
{consumergroup=trace-token-events-consumer},1651493453,0
{consumergroup=trace-token-events-consumer},1651493458,0
{consumergroup=trace-token-events-consumer},1651493463,0
{consumergroup=trace-token-events-consumer},1651493468,0
{consumergroup=trace-token-events-consumer},1651493473,0
{consumergroup=trace-token-events-consumer},1651493478,0
{consumergroup=trace-token-events-consumer},1651493483,0
{consumergroup=trace-token-events-consumer},1651493488,0
{consumergroup=trace-token-events-consumer},1651493493,0
{consumergroup=trace-token-events-consumer},1651493498,0
{consumergroup=trace-token-events-consumer},1651493503,0
{consumergroup=trace-token-events-consumer},1651493508,0
{consumergroup=trace-token-events-consumer},1651493513,0
{consumergroup=trace-token-events-consumer},1651493518,0
{consumergroup=trace-token-events-consumer},1651493523,0
{consumergroup=trace-token-events-consumer},1651493528,0
{consumergroup=trace-token-events-consumer},1651493533,0
{consumergroup=trace-token-events-consumer},1651493538,0
{consumergroup=trace-token-events-consumer},1651493543,0
{consumergroup=trace-token-events-consumer},1651493548,0
{consumergroup=trace-token-events-consumer},1651493553,0
{consumergroup=trace-token-events-consumer},1651493558,0
{consumergroup=trace-token-events-consumer},1651493563,0
{consumergroup=trace-token-events-consumer},1651493568,0
{consumergroup=trace-token-events-consumer},1651493573,0
{consumergroup=trace-token-events-consumer},1651493578,0
{consumergroup=trace-token-events-consumer},1651493583,0
{consumergroup=trace-token-events-consumer},1651493588,0
{consumergroup=trace-token-events-consumer},1651493593,0
