labels,timestamp,value
{job=theodolite-stu200776/combined-trace-podmonitor},1651561748,0
{job=theodolite-stu200776/combined-trace-podmonitor},1651561753,0
{job=theodolite-stu200776/combined-trace-podmonitor},1651561758,0
{job=theodolite-stu200776/combined-trace-podmonitor},1651561763,0
{job=theodolite-stu200776/combined-trace-podmonitor},1651561768,0
{job=theodolite-stu200776/combined-trace-podmonitor},1651561773,0
{job=theodolite-stu200776/combined-trace-podmonitor},1651561778,0
{job=theodolite-stu200776/combined-trace-podmonitor},1651561783,0
{job=theodolite-stu200776/combined-trace-podmonitor},1651561788,0
{job=theodolite-stu200776/combined-trace-podmonitor},1651561793,0
{job=theodolite-stu200776/combined-trace-podmonitor},1651561798,0
{job=theodolite-stu200776/combined-trace-podmonitor},1651561803,0
{job=theodolite-stu200776/combined-trace-podmonitor},1651561808,0
{job=theodolite-stu200776/combined-trace-podmonitor},1651561813,0
{job=theodolite-stu200776/combined-trace-podmonitor},1651561818,0
{job=theodolite-stu200776/combined-trace-podmonitor},1651561823,0
{job=theodolite-stu200776/combined-trace-podmonitor},1651561828,0
{job=theodolite-stu200776/combined-trace-podmonitor},1651561833,0
{job=theodolite-stu200776/combined-trace-podmonitor},1651561838,0
{job=theodolite-stu200776/combined-trace-podmonitor},1651561843,0
{job=theodolite-stu200776/combined-trace-podmonitor},1651561848,0
{job=theodolite-stu200776/combined-trace-podmonitor},1651561853,0
{job=theodolite-stu200776/combined-trace-podmonitor},1651561858,0
{job=theodolite-stu200776/combined-trace-podmonitor},1651561863,0
{job=theodolite-stu200776/combined-trace-podmonitor},1651561868,0
{job=theodolite-stu200776/combined-trace-podmonitor},1651561873,0
{job=theodolite-stu200776/combined-trace-podmonitor},1651561878,0
{job=theodolite-stu200776/combined-trace-podmonitor},1651561883,0
{job=theodolite-stu200776/combined-trace-podmonitor},1651561888,0
{job=theodolite-stu200776/combined-trace-podmonitor},1651561893,0
{job=theodolite-stu200776/combined-trace-podmonitor},1651561898,0
{job=theodolite-stu200776/combined-trace-podmonitor},1651561903,0
{job=theodolite-stu200776/combined-trace-podmonitor},1651561908,0
{job=theodolite-stu200776/combined-trace-podmonitor},1651561913,0
{job=theodolite-stu200776/combined-trace-podmonitor},1651561918,0
{job=theodolite-stu200776/combined-trace-podmonitor},1651561923,7.426185199535219
{job=theodolite-stu200776/combined-trace-podmonitor},1651561928,497.1136803487255
{job=theodolite-stu200776/combined-trace-podmonitor},1651561933,1128.1871556683407
{job=theodolite-stu200776/combined-trace-podmonitor},1651561938,1100.854075951323
{job=theodolite-stu200776/combined-trace-podmonitor},1651561943,1011.2929372377282
{job=theodolite-stu200776/combined-trace-podmonitor},1651561948,973.0913612925891
{job=theodolite-stu200776/combined-trace-podmonitor},1651561953,995.6826469959946
{job=theodolite-stu200776/combined-trace-podmonitor},1651561958,1180.4434526999762
{job=theodolite-stu200776/combined-trace-podmonitor},1651561963,1404.3777903460314
{job=theodolite-stu200776/combined-trace-podmonitor},1651561968,1201.9103024360397
{job=theodolite-stu200776/combined-trace-podmonitor},1651561973,1035.2936763524513
