labels,timestamp,value
{consumergroup=__strimzi-topic-operator-kstreams},1651448603,0
{consumergroup=__strimzi-topic-operator-kstreams},1651448608,0
{consumergroup=__strimzi-topic-operator-kstreams},1651448613,0
{consumergroup=__strimzi-topic-operator-kstreams},1651448618,0
{consumergroup=__strimzi-topic-operator-kstreams},1651448623,0
{consumergroup=__strimzi-topic-operator-kstreams},1651448628,0
{consumergroup=__strimzi-topic-operator-kstreams},1651448633,0
{consumergroup=__strimzi-topic-operator-kstreams},1651448638,0
{consumergroup=__strimzi-topic-operator-kstreams},1651448643,0
{consumergroup=__strimzi-topic-operator-kstreams},1651448648,0
{consumergroup=__strimzi-topic-operator-kstreams},1651448653,0
{consumergroup=__strimzi-topic-operator-kstreams},1651448658,0
{consumergroup=__strimzi-topic-operator-kstreams},1651448663,0
{consumergroup=__strimzi-topic-operator-kstreams},1651448668,0
{consumergroup=__strimzi-topic-operator-kstreams},1651448673,0
{consumergroup=__strimzi-topic-operator-kstreams},1651448678,0
{consumergroup=__strimzi-topic-operator-kstreams},1651448683,0
{consumergroup=__strimzi-topic-operator-kstreams},1651448688,0
{consumergroup=__strimzi-topic-operator-kstreams},1651448693,0
{consumergroup=__strimzi-topic-operator-kstreams},1651448698,0
{consumergroup=__strimzi-topic-operator-kstreams},1651448703,0
{consumergroup=__strimzi-topic-operator-kstreams},1651448708,0
{consumergroup=__strimzi-topic-operator-kstreams},1651448713,0
{consumergroup=__strimzi-topic-operator-kstreams},1651448718,0
{consumergroup=__strimzi-topic-operator-kstreams},1651448723,0
{consumergroup=__strimzi-topic-operator-kstreams},1651448728,0
{consumergroup=__strimzi-topic-operator-kstreams},1651448733,0
{consumergroup=__strimzi-topic-operator-kstreams},1651448738,0
{consumergroup=__strimzi-topic-operator-kstreams},1651448743,0
{consumergroup=__strimzi-topic-operator-kstreams},1651448748,0
{consumergroup=__strimzi-topic-operator-kstreams},1651448753,0
{consumergroup=__strimzi-topic-operator-kstreams},1651448758,0
{consumergroup=__strimzi-topic-operator-kstreams},1651448763,0
{consumergroup=__strimzi-topic-operator-kstreams},1651448768,0
{consumergroup=__strimzi-topic-operator-kstreams},1651448773,0
{consumergroup=__strimzi-topic-operator-kstreams},1651448778,0
{consumergroup=__strimzi-topic-operator-kstreams},1651448783,0
{consumergroup=__strimzi-topic-operator-kstreams},1651448788,0
{consumergroup=__strimzi-topic-operator-kstreams},1651448793,0
{consumergroup=__strimzi-topic-operator-kstreams},1651448798,0
{consumergroup=__strimzi-topic-operator-kstreams},1651448803,0
{consumergroup=__strimzi-topic-operator-kstreams},1651448808,0
{consumergroup=__strimzi-topic-operator-kstreams},1651448813,0
{consumergroup=__strimzi-topic-operator-kstreams},1651448818,0
{consumergroup=__strimzi-topic-operator-kstreams},1651448823,0
{consumergroup=__strimzi-topic-operator-kstreams},1651448828,0
{consumergroup=__strimzi-topic-operator-kstreams},1651448833,0
{consumergroup=__strimzi-topic-operator-kstreams},1651448838,0
{consumergroup=__strimzi-topic-operator-kstreams},1651448843,0
{consumergroup=__strimzi-topic-operator-kstreams},1651448848,0
{consumergroup=__strimzi-topic-operator-kstreams},1651448853,0
{consumergroup=adapter-service},1651448633,69447
{consumergroup=adapter-service},1651448638,69447
{consumergroup=adapter-service},1651448643,69447
{consumergroup=adapter-service},1651448648,237193
{consumergroup=adapter-service},1651448653,237193
{consumergroup=adapter-service},1651448658,237193
{consumergroup=adapter-service},1651448663,370888
{consumergroup=adapter-service},1651448668,370888
{consumergroup=adapter-service},1651448673,370888
{consumergroup=adapter-service},1651448678,471106
{consumergroup=adapter-service},1651448683,471106
{consumergroup=adapter-service},1651448688,471106
{consumergroup=adapter-service},1651448693,574439
{consumergroup=adapter-service},1651448698,574439
{consumergroup=adapter-service},1651448703,574439
{consumergroup=adapter-service},1651448708,672615
{consumergroup=adapter-service},1651448713,672615
{consumergroup=adapter-service},1651448718,672615
{consumergroup=adapter-service},1651448723,752261
{consumergroup=adapter-service},1651448728,752261
{consumergroup=adapter-service},1651448733,752261
{consumergroup=adapter-service},1651448738,782973
{consumergroup=adapter-service},1651448743,782973
{consumergroup=adapter-service},1651448748,782973
{consumergroup=adapter-service},1651448753,811781
{consumergroup=adapter-service},1651448758,811781
{consumergroup=adapter-service},1651448763,811781
{consumergroup=adapter-service},1651448768,817089
{consumergroup=adapter-service},1651448773,817089
{consumergroup=adapter-service},1651448778,817089
{consumergroup=adapter-service},1651448783,835420
{consumergroup=adapter-service},1651448788,835420
{consumergroup=adapter-service},1651448793,835420
{consumergroup=adapter-service},1651448798,842131
{consumergroup=adapter-service},1651448803,842131
{consumergroup=adapter-service},1651448808,842131
{consumergroup=adapter-service},1651448813,847105
{consumergroup=adapter-service},1651448818,847105
{consumergroup=adapter-service},1651448823,847105
{consumergroup=adapter-service},1651448828,870440
{consumergroup=adapter-service},1651448833,870440
{consumergroup=adapter-service},1651448838,870440
{consumergroup=adapter-service},1651448843,862977
{consumergroup=adapter-service},1651448848,862977
{consumergroup=adapter-service},1651448853,862977
