labels,timestamp,value
{consumergroup=__strimzi-topic-operator-kstreams},1651485477,8
{consumergroup=__strimzi-topic-operator-kstreams},1651485482,8
{consumergroup=__strimzi-topic-operator-kstreams},1651485487,8
{consumergroup=__strimzi-topic-operator-kstreams},1651485492,8
{consumergroup=__strimzi-topic-operator-kstreams},1651485497,8
{consumergroup=__strimzi-topic-operator-kstreams},1651485502,8
{consumergroup=__strimzi-topic-operator-kstreams},1651485507,0
{consumergroup=__strimzi-topic-operator-kstreams},1651485512,0
{consumergroup=__strimzi-topic-operator-kstreams},1651485517,0
{consumergroup=__strimzi-topic-operator-kstreams},1651485522,0
{consumergroup=__strimzi-topic-operator-kstreams},1651485527,0
{consumergroup=__strimzi-topic-operator-kstreams},1651485532,0
{consumergroup=__strimzi-topic-operator-kstreams},1651485537,0
{consumergroup=__strimzi-topic-operator-kstreams},1651485542,0
{consumergroup=__strimzi-topic-operator-kstreams},1651485547,0
{consumergroup=__strimzi-topic-operator-kstreams},1651485552,0
{consumergroup=__strimzi-topic-operator-kstreams},1651485557,0
{consumergroup=__strimzi-topic-operator-kstreams},1651485562,0
{consumergroup=__strimzi-topic-operator-kstreams},1651485567,0
{consumergroup=__strimzi-topic-operator-kstreams},1651485572,0
{consumergroup=__strimzi-topic-operator-kstreams},1651485577,0
{consumergroup=__strimzi-topic-operator-kstreams},1651485582,0
{consumergroup=__strimzi-topic-operator-kstreams},1651485587,0
{consumergroup=__strimzi-topic-operator-kstreams},1651485592,0
{consumergroup=__strimzi-topic-operator-kstreams},1651485597,0
{consumergroup=__strimzi-topic-operator-kstreams},1651485602,0
{consumergroup=__strimzi-topic-operator-kstreams},1651485607,0
{consumergroup=__strimzi-topic-operator-kstreams},1651485612,0
{consumergroup=__strimzi-topic-operator-kstreams},1651485617,0
{consumergroup=__strimzi-topic-operator-kstreams},1651485622,0
{consumergroup=__strimzi-topic-operator-kstreams},1651485627,0
{consumergroup=__strimzi-topic-operator-kstreams},1651485632,0
{consumergroup=__strimzi-topic-operator-kstreams},1651485637,0
{consumergroup=__strimzi-topic-operator-kstreams},1651485642,0
{consumergroup=__strimzi-topic-operator-kstreams},1651485647,0
{consumergroup=__strimzi-topic-operator-kstreams},1651485652,0
{consumergroup=__strimzi-topic-operator-kstreams},1651485657,0
{consumergroup=__strimzi-topic-operator-kstreams},1651485662,0
{consumergroup=__strimzi-topic-operator-kstreams},1651485667,0
{consumergroup=__strimzi-topic-operator-kstreams},1651485672,0
{consumergroup=__strimzi-topic-operator-kstreams},1651485677,0
{consumergroup=__strimzi-topic-operator-kstreams},1651485682,0
{consumergroup=__strimzi-topic-operator-kstreams},1651485687,0
{consumergroup=__strimzi-topic-operator-kstreams},1651485692,0
{consumergroup=__strimzi-topic-operator-kstreams},1651485697,0
{consumergroup=__strimzi-topic-operator-kstreams},1651485702,0
{consumergroup=__strimzi-topic-operator-kstreams},1651485707,0
{consumergroup=__strimzi-topic-operator-kstreams},1651485712,0
{consumergroup=__strimzi-topic-operator-kstreams},1651485717,0
{consumergroup=__strimzi-topic-operator-kstreams},1651485722,0
{consumergroup=__strimzi-topic-operator-kstreams},1651485727,0
{consumergroup=__strimzi-topic-operator-kstreams},1651485732,0
{consumergroup=__strimzi-topic-operator-kstreams},1651485737,0
{consumergroup=__strimzi-topic-operator-kstreams},1651485742,0
{consumergroup=__strimzi-topic-operator-kstreams},1651485747,0
{consumergroup=__strimzi-topic-operator-kstreams},1651485752,0
{consumergroup=__strimzi-topic-operator-kstreams},1651485757,0
{consumergroup=__strimzi-topic-operator-kstreams},1651485762,0
{consumergroup=__strimzi-topic-operator-kstreams},1651485767,0
{consumergroup=__strimzi-topic-operator-kstreams},1651485772,0
{consumergroup=__strimzi-topic-operator-kstreams},1651485777,0
{consumergroup=__strimzi-topic-operator-kstreams},1651485782,0
{consumergroup=__strimzi-topic-operator-kstreams},1651485787,0
{consumergroup=__strimzi-topic-operator-kstreams},1651485822,0
{consumergroup=__strimzi-topic-operator-kstreams},1651485827,0
{consumergroup=__strimzi-topic-operator-kstreams},1651485832,0
{consumergroup=__strimzi-topic-operator-kstreams},1651485837,0
{consumergroup=__strimzi-topic-operator-kstreams},1651485842,0
{consumergroup=__strimzi-topic-operator-kstreams},1651485847,0
{consumergroup=__strimzi-topic-operator-kstreams},1651485852,0
{consumergroup=__strimzi-topic-operator-kstreams},1651485857,0
{consumergroup=__strimzi-topic-operator-kstreams},1651485862,0
{consumergroup=__strimzi-topic-operator-kstreams},1651485867,0
{consumergroup=__strimzi-topic-operator-kstreams},1651485872,0
{consumergroup=__strimzi-topic-operator-kstreams},1651485877,0
{consumergroup=__strimzi-topic-operator-kstreams},1651485882,0
{consumergroup=__strimzi-topic-operator-kstreams},1651485887,0
{consumergroup=__strimzi-topic-operator-kstreams},1651485892,0
{consumergroup=__strimzi-topic-operator-kstreams},1651485897,0
{consumergroup=__strimzi-topic-operator-kstreams},1651485902,0
{consumergroup=__strimzi-topic-operator-kstreams},1651485907,0
{consumergroup=__strimzi-topic-operator-kstreams},1651485912,0
{consumergroup=__strimzi-topic-operator-kstreams},1651485917,0
{consumergroup=__strimzi-topic-operator-kstreams},1651485922,0
{consumergroup=trace-service},1651485522,10418
{consumergroup=trace-service},1651485527,10418
{consumergroup=trace-service},1651485532,10418
{consumergroup=trace-service},1651485537,21970
{consumergroup=trace-service},1651485542,21970
{consumergroup=trace-service},1651485547,21970
{consumergroup=trace-service},1651485552,50635
{consumergroup=trace-service},1651485557,50635
{consumergroup=trace-service},1651485562,50635
{consumergroup=trace-service},1651485567,19131
{consumergroup=trace-service},1651485572,19131
{consumergroup=trace-service},1651485577,19131
{consumergroup=trace-service},1651485582,35534
{consumergroup=trace-service},1651485587,35534
{consumergroup=trace-service},1651485592,35534
{consumergroup=trace-service},1651485597,17932
{consumergroup=trace-service},1651485602,17932
{consumergroup=trace-service},1651485607,17932
{consumergroup=trace-service},1651485612,36277
{consumergroup=trace-service},1651485617,36277
{consumergroup=trace-service},1651485622,36277
{consumergroup=trace-service},1651485627,14393
{consumergroup=trace-service},1651485632,14393
{consumergroup=trace-service},1651485637,14393
{consumergroup=trace-service},1651485642,38242
{consumergroup=trace-service},1651485647,38242
{consumergroup=trace-service},1651485652,38242
{consumergroup=trace-service},1651485657,17697
{consumergroup=trace-service},1651485662,17697
{consumergroup=trace-service},1651485667,17697
{consumergroup=trace-service},1651485672,40358
{consumergroup=trace-service},1651485677,40358
{consumergroup=trace-service},1651485682,40358
{consumergroup=trace-service},1651485687,50839
{consumergroup=trace-service},1651485692,50839
{consumergroup=trace-service},1651485697,50839
{consumergroup=trace-service},1651485702,36791
{consumergroup=trace-service},1651485707,36791
{consumergroup=trace-service},1651485712,36791
{consumergroup=trace-service},1651485717,4763
{consumergroup=trace-service},1651485722,4763
{consumergroup=trace-service},1651485727,4763
{consumergroup=trace-service},1651485732,31791
{consumergroup=trace-service},1651485737,31791
{consumergroup=trace-service},1651485742,31791
{consumergroup=trace-service},1651485747,23142
{consumergroup=trace-service},1651485752,23142
{consumergroup=trace-service},1651485757,23142
{consumergroup=trace-service},1651485762,37038
{consumergroup=trace-service},1651485767,37038
{consumergroup=trace-service},1651485772,37038
{consumergroup=trace-service},1651485777,44624
{consumergroup=trace-service},1651485782,44624
{consumergroup=trace-service},1651485787,44624
{consumergroup=trace-service},1651485822,41637
{consumergroup=trace-service},1651485827,41637
{consumergroup=trace-service},1651485832,41637
{consumergroup=trace-service},1651485837,11769
{consumergroup=trace-service},1651485842,11769
{consumergroup=trace-service},1651485847,11769
{consumergroup=trace-service},1651485852,34664
{consumergroup=trace-service},1651485857,34664
{consumergroup=trace-service},1651485862,34664
{consumergroup=trace-service},1651485867,20598
{consumergroup=trace-service},1651485872,20598
{consumergroup=trace-service},1651485877,20598
{consumergroup=trace-service},1651485882,39794
{consumergroup=trace-service},1651485887,39794
{consumergroup=trace-service},1651485892,39794
{consumergroup=trace-service},1651485897,22719
{consumergroup=trace-service},1651485902,22719
{consumergroup=trace-service},1651485907,22719
{consumergroup=trace-service},1651485912,39944
{consumergroup=trace-service},1651485917,39944
{consumergroup=trace-service},1651485922,39944
{consumergroup=trace-token-events-consumer},1651485507,0
{consumergroup=trace-token-events-consumer},1651485512,0
{consumergroup=trace-token-events-consumer},1651485517,0
{consumergroup=trace-token-events-consumer},1651485522,0
{consumergroup=trace-token-events-consumer},1651485527,0
{consumergroup=trace-token-events-consumer},1651485532,0
{consumergroup=trace-token-events-consumer},1651485537,0
{consumergroup=trace-token-events-consumer},1651485542,0
{consumergroup=trace-token-events-consumer},1651485547,0
{consumergroup=trace-token-events-consumer},1651485552,0
{consumergroup=trace-token-events-consumer},1651485557,0
{consumergroup=trace-token-events-consumer},1651485562,0
{consumergroup=trace-token-events-consumer},1651485567,0
{consumergroup=trace-token-events-consumer},1651485572,0
{consumergroup=trace-token-events-consumer},1651485577,0
{consumergroup=trace-token-events-consumer},1651485582,0
{consumergroup=trace-token-events-consumer},1651485587,0
{consumergroup=trace-token-events-consumer},1651485592,0
{consumergroup=trace-token-events-consumer},1651485597,0
{consumergroup=trace-token-events-consumer},1651485602,0
{consumergroup=trace-token-events-consumer},1651485607,0
{consumergroup=trace-token-events-consumer},1651485612,0
{consumergroup=trace-token-events-consumer},1651485617,0
{consumergroup=trace-token-events-consumer},1651485622,0
{consumergroup=trace-token-events-consumer},1651485627,0
{consumergroup=trace-token-events-consumer},1651485632,0
{consumergroup=trace-token-events-consumer},1651485637,0
{consumergroup=trace-token-events-consumer},1651485642,0
{consumergroup=trace-token-events-consumer},1651485647,0
{consumergroup=trace-token-events-consumer},1651485652,0
{consumergroup=trace-token-events-consumer},1651485657,0
{consumergroup=trace-token-events-consumer},1651485662,0
{consumergroup=trace-token-events-consumer},1651485667,0
{consumergroup=trace-token-events-consumer},1651485672,0
{consumergroup=trace-token-events-consumer},1651485677,0
{consumergroup=trace-token-events-consumer},1651485682,0
{consumergroup=trace-token-events-consumer},1651485687,0
{consumergroup=trace-token-events-consumer},1651485692,0
{consumergroup=trace-token-events-consumer},1651485697,0
{consumergroup=trace-token-events-consumer},1651485702,0
{consumergroup=trace-token-events-consumer},1651485707,0
{consumergroup=trace-token-events-consumer},1651485712,0
{consumergroup=trace-token-events-consumer},1651485717,0
{consumergroup=trace-token-events-consumer},1651485722,0
{consumergroup=trace-token-events-consumer},1651485727,0
{consumergroup=trace-token-events-consumer},1651485732,0
{consumergroup=trace-token-events-consumer},1651485737,0
{consumergroup=trace-token-events-consumer},1651485742,0
{consumergroup=trace-token-events-consumer},1651485747,0
{consumergroup=trace-token-events-consumer},1651485752,0
{consumergroup=trace-token-events-consumer},1651485757,0
{consumergroup=trace-token-events-consumer},1651485762,0
{consumergroup=trace-token-events-consumer},1651485767,0
{consumergroup=trace-token-events-consumer},1651485772,0
{consumergroup=trace-token-events-consumer},1651485777,0
{consumergroup=trace-token-events-consumer},1651485782,0
{consumergroup=trace-token-events-consumer},1651485787,0
{consumergroup=trace-token-events-consumer},1651485822,0
{consumergroup=trace-token-events-consumer},1651485827,0
{consumergroup=trace-token-events-consumer},1651485832,0
{consumergroup=trace-token-events-consumer},1651485837,0
{consumergroup=trace-token-events-consumer},1651485842,0
{consumergroup=trace-token-events-consumer},1651485847,0
{consumergroup=trace-token-events-consumer},1651485852,0
{consumergroup=trace-token-events-consumer},1651485857,0
{consumergroup=trace-token-events-consumer},1651485862,0
{consumergroup=trace-token-events-consumer},1651485867,0
{consumergroup=trace-token-events-consumer},1651485872,0
{consumergroup=trace-token-events-consumer},1651485877,0
{consumergroup=trace-token-events-consumer},1651485882,0
{consumergroup=trace-token-events-consumer},1651485887,0
{consumergroup=trace-token-events-consumer},1651485892,0
{consumergroup=trace-token-events-consumer},1651485897,0
{consumergroup=trace-token-events-consumer},1651485902,0
{consumergroup=trace-token-events-consumer},1651485907,0
{consumergroup=trace-token-events-consumer},1651485912,0
{consumergroup=trace-token-events-consumer},1651485917,0
{consumergroup=trace-token-events-consumer},1651485922,0
