labels,timestamp,value
{consumergroup=__strimzi-topic-operator-kstreams},1651433976,0
{consumergroup=__strimzi-topic-operator-kstreams},1651433991,18
{consumergroup=__strimzi-topic-operator-kstreams},1651433996,18
{consumergroup=__strimzi-topic-operator-kstreams},1651434001,18
{consumergroup=__strimzi-topic-operator-kstreams},1651434006,18
{consumergroup=__strimzi-topic-operator-kstreams},1651434011,18
{consumergroup=__strimzi-topic-operator-kstreams},1651434016,18
{consumergroup=__strimzi-topic-operator-kstreams},1651434021,0
{consumergroup=__strimzi-topic-operator-kstreams},1651434026,0
{consumergroup=__strimzi-topic-operator-kstreams},1651434031,0
{consumergroup=__strimzi-topic-operator-kstreams},1651434036,0
{consumergroup=__strimzi-topic-operator-kstreams},1651434041,0
{consumergroup=__strimzi-topic-operator-kstreams},1651434046,0
{consumergroup=__strimzi-topic-operator-kstreams},1651434051,0
{consumergroup=__strimzi-topic-operator-kstreams},1651434056,0
{consumergroup=__strimzi-topic-operator-kstreams},1651434061,0
{consumergroup=__strimzi-topic-operator-kstreams},1651434066,0
{consumergroup=__strimzi-topic-operator-kstreams},1651434071,0
{consumergroup=__strimzi-topic-operator-kstreams},1651434076,0
{consumergroup=__strimzi-topic-operator-kstreams},1651434081,0
{consumergroup=__strimzi-topic-operator-kstreams},1651434086,0
{consumergroup=__strimzi-topic-operator-kstreams},1651434091,0
{consumergroup=__strimzi-topic-operator-kstreams},1651434096,0
{consumergroup=__strimzi-topic-operator-kstreams},1651434101,0
{consumergroup=__strimzi-topic-operator-kstreams},1651434106,0
{consumergroup=__strimzi-topic-operator-kstreams},1651434111,0
{consumergroup=__strimzi-topic-operator-kstreams},1651434116,0
{consumergroup=__strimzi-topic-operator-kstreams},1651434121,0
{consumergroup=__strimzi-topic-operator-kstreams},1651434126,0
{consumergroup=__strimzi-topic-operator-kstreams},1651434131,0
{consumergroup=__strimzi-topic-operator-kstreams},1651434136,0
{consumergroup=__strimzi-topic-operator-kstreams},1651434141,0
{consumergroup=__strimzi-topic-operator-kstreams},1651434146,0
{consumergroup=__strimzi-topic-operator-kstreams},1651434151,0
{consumergroup=__strimzi-topic-operator-kstreams},1651434156,0
{consumergroup=__strimzi-topic-operator-kstreams},1651434161,0
{consumergroup=__strimzi-topic-operator-kstreams},1651434166,0
{consumergroup=__strimzi-topic-operator-kstreams},1651434171,0
{consumergroup=__strimzi-topic-operator-kstreams},1651434176,0
{consumergroup=__strimzi-topic-operator-kstreams},1651434181,0
{consumergroup=__strimzi-topic-operator-kstreams},1651434186,0
{consumergroup=__strimzi-topic-operator-kstreams},1651434191,0
{consumergroup=__strimzi-topic-operator-kstreams},1651434196,0
{consumergroup=__strimzi-topic-operator-kstreams},1651434201,0
{consumergroup=__strimzi-topic-operator-kstreams},1651434206,0
{consumergroup=__strimzi-topic-operator-kstreams},1651434211,0
{consumergroup=__strimzi-topic-operator-kstreams},1651434216,0
{consumergroup=__strimzi-topic-operator-kstreams},1651434221,0
{consumergroup=__strimzi-topic-operator-kstreams},1651434226,0
{consumergroup=__strimzi-topic-operator-kstreams},1651434231,0
{consumergroup=__strimzi-topic-operator-kstreams},1651434236,0
{consumergroup=adapter-service},1651433976,1187768
{consumergroup=adapter-service},1651434021,198537
{consumergroup=adapter-service},1651434026,198537
{consumergroup=adapter-service},1651434031,198537
{consumergroup=adapter-service},1651434036,374023
{consumergroup=adapter-service},1651434041,374023
{consumergroup=adapter-service},1651434046,374023
{consumergroup=adapter-service},1651434051,509574
{consumergroup=adapter-service},1651434056,509574
{consumergroup=adapter-service},1651434061,509574
{consumergroup=adapter-service},1651434066,654308
{consumergroup=adapter-service},1651434071,654308
{consumergroup=adapter-service},1651434076,654308
{consumergroup=adapter-service},1651434081,758340
{consumergroup=adapter-service},1651434086,758340
{consumergroup=adapter-service},1651434091,758340
{consumergroup=adapter-service},1651434096,862007
{consumergroup=adapter-service},1651434101,862007
{consumergroup=adapter-service},1651434106,862007
{consumergroup=adapter-service},1651434111,915812
{consumergroup=adapter-service},1651434116,915812
{consumergroup=adapter-service},1651434121,915812
{consumergroup=adapter-service},1651434126,960631
{consumergroup=adapter-service},1651434131,960631
{consumergroup=adapter-service},1651434136,960631
{consumergroup=adapter-service},1651434141,994740
{consumergroup=adapter-service},1651434146,994740
{consumergroup=adapter-service},1651434151,994740
{consumergroup=adapter-service},1651434156,1025356
{consumergroup=adapter-service},1651434161,1025356
{consumergroup=adapter-service},1651434166,1025356
{consumergroup=adapter-service},1651434171,1035377
{consumergroup=adapter-service},1651434176,1035377
{consumergroup=adapter-service},1651434181,1035377
{consumergroup=adapter-service},1651434186,1063915
{consumergroup=adapter-service},1651434191,1063915
{consumergroup=adapter-service},1651434196,1063915
{consumergroup=adapter-service},1651434201,1070064
{consumergroup=adapter-service},1651434206,1070064
{consumergroup=adapter-service},1651434211,1070064
{consumergroup=adapter-service},1651434216,1098135
{consumergroup=adapter-service},1651434221,1098135
{consumergroup=adapter-service},1651434226,1098135
{consumergroup=adapter-service},1651434231,1119426
{consumergroup=adapter-service},1651434236,1119426
