labels,timestamp,value
{job=theodolite-stu200776/trace-isolated-podmonitor},1651486069,0
{job=theodolite-stu200776/trace-isolated-podmonitor},1651486074,0
{job=theodolite-stu200776/trace-isolated-podmonitor},1651486079,0
{job=theodolite-stu200776/trace-isolated-podmonitor},1651486084,0
{job=theodolite-stu200776/trace-isolated-podmonitor},1651486089,0
{job=theodolite-stu200776/trace-isolated-podmonitor},1651486094,0
{job=theodolite-stu200776/trace-isolated-podmonitor},1651486099,0
{job=theodolite-stu200776/trace-isolated-podmonitor},1651486104,0
{job=theodolite-stu200776/trace-isolated-podmonitor},1651486109,0
{job=theodolite-stu200776/trace-isolated-podmonitor},1651486114,0
{job=theodolite-stu200776/trace-isolated-podmonitor},1651486119,0
{job=theodolite-stu200776/trace-isolated-podmonitor},1651486124,0
{job=theodolite-stu200776/trace-isolated-podmonitor},1651486129,0
{job=theodolite-stu200776/trace-isolated-podmonitor},1651486134,0
{job=theodolite-stu200776/trace-isolated-podmonitor},1651486139,0
{job=theodolite-stu200776/trace-isolated-podmonitor},1651486144,0
{job=theodolite-stu200776/trace-isolated-podmonitor},1651486149,0
{job=theodolite-stu200776/trace-isolated-podmonitor},1651486154,0
{job=theodolite-stu200776/trace-isolated-podmonitor},1651486159,0
{job=theodolite-stu200776/trace-isolated-podmonitor},1651486164,0
{job=theodolite-stu200776/trace-isolated-podmonitor},1651486169,0
{job=theodolite-stu200776/trace-isolated-podmonitor},1651486174,0
{job=theodolite-stu200776/trace-isolated-podmonitor},1651486179,0
{job=theodolite-stu200776/trace-isolated-podmonitor},1651486184,0
{job=theodolite-stu200776/trace-isolated-podmonitor},1651486189,0
{job=theodolite-stu200776/trace-isolated-podmonitor},1651486194,0
{job=theodolite-stu200776/trace-isolated-podmonitor},1651486199,0
{job=theodolite-stu200776/trace-isolated-podmonitor},1651486204,0
{job=theodolite-stu200776/trace-isolated-podmonitor},1651486209,0
{job=theodolite-stu200776/trace-isolated-podmonitor},1651486214,0
{job=theodolite-stu200776/trace-isolated-podmonitor},1651486219,0
{job=theodolite-stu200776/trace-isolated-podmonitor},1651486224,0
{job=theodolite-stu200776/trace-isolated-podmonitor},1651486229,0
{job=theodolite-stu200776/trace-isolated-podmonitor},1651486234,0
{job=theodolite-stu200776/trace-isolated-podmonitor},1651486239,0
{job=theodolite-stu200776/trace-isolated-podmonitor},1651486244,0
{job=theodolite-stu200776/trace-isolated-podmonitor},1651486249,0
{job=theodolite-stu200776/trace-isolated-podmonitor},1651486254,0
{job=theodolite-stu200776/trace-isolated-podmonitor},1651486259,0
{job=theodolite-stu200776/trace-isolated-podmonitor},1651486264,0
{job=theodolite-stu200776/trace-isolated-podmonitor},1651486269,0
{job=theodolite-stu200776/trace-isolated-podmonitor},1651486274,0
{job=theodolite-stu200776/trace-isolated-podmonitor},1651486279,0
{job=theodolite-stu200776/trace-isolated-podmonitor},1651486284,0
{job=theodolite-stu200776/trace-isolated-podmonitor},1651486289,0
{job=theodolite-stu200776/trace-isolated-podmonitor},1651486294,0
{job=theodolite-stu200776/trace-isolated-podmonitor},1651486299,0
{job=theodolite-stu200776/trace-isolated-podmonitor},1651486304,0
{job=theodolite-stu200776/trace-isolated-podmonitor},1651486309,0
{job=theodolite-stu200776/trace-isolated-podmonitor},1651486314,0
{job=theodolite-stu200776/trace-isolated-podmonitor},1651486319,0
{job=theodolite-stu200776/trace-isolated-podmonitor},1651486324,0
{job=theodolite-stu200776/trace-isolated-podmonitor},1651486329,0
{job=theodolite-stu200776/trace-isolated-podmonitor},1651486334,0
{job=theodolite-stu200776/trace-isolated-podmonitor},1651486339,0
{job=theodolite-stu200776/trace-isolated-podmonitor},1651486344,0
{job=theodolite-stu200776/trace-isolated-podmonitor},1651486349,0
{job=theodolite-stu200776/trace-isolated-podmonitor},1651486354,0
{job=theodolite-stu200776/trace-isolated-podmonitor},1651486359,0
{job=theodolite-stu200776/trace-isolated-podmonitor},1651486364,0
{job=theodolite-stu200776/trace-isolated-podmonitor},1651486369,0
{job=theodolite-stu200776/trace-isolated-podmonitor},1651486374,0
{job=theodolite-stu200776/trace-isolated-podmonitor},1651486379,0
{job=theodolite-stu200776/trace-isolated-podmonitor},1651486384,0
{job=theodolite-stu200776/trace-isolated-podmonitor},1651486389,0
{job=theodolite-stu200776/trace-isolated-podmonitor},1651486394,0
{job=theodolite-stu200776/trace-isolated-podmonitor},1651486399,0
{job=theodolite-stu200776/trace-isolated-podmonitor},1651486404,0
{job=theodolite-stu200776/trace-isolated-podmonitor},1651486409,0
{job=theodolite-stu200776/trace-isolated-podmonitor},1651486414,0
{job=theodolite-stu200776/trace-isolated-podmonitor},1651486419,0
{job=theodolite-stu200776/trace-isolated-podmonitor},1651486424,0
{job=theodolite-stu200776/trace-isolated-podmonitor},1651486429,0
{job=theodolite-stu200776/trace-isolated-podmonitor},1651486434,0
{job=theodolite-stu200776/trace-isolated-podmonitor},1651486439,0
