labels,timestamp,value
{consumergroup=__strimzi-topic-operator-kstreams},1651485007,8
{consumergroup=__strimzi-topic-operator-kstreams},1651485012,8
{consumergroup=__strimzi-topic-operator-kstreams},1651485017,8
{consumergroup=__strimzi-topic-operator-kstreams},1651485022,0
{consumergroup=__strimzi-topic-operator-kstreams},1651485027,0
{consumergroup=__strimzi-topic-operator-kstreams},1651485032,0
{consumergroup=__strimzi-topic-operator-kstreams},1651485037,0
{consumergroup=__strimzi-topic-operator-kstreams},1651485042,0
{consumergroup=__strimzi-topic-operator-kstreams},1651485047,0
{consumergroup=__strimzi-topic-operator-kstreams},1651485052,0
{consumergroup=__strimzi-topic-operator-kstreams},1651485057,0
{consumergroup=__strimzi-topic-operator-kstreams},1651485062,0
{consumergroup=__strimzi-topic-operator-kstreams},1651485067,0
{consumergroup=__strimzi-topic-operator-kstreams},1651485072,0
{consumergroup=__strimzi-topic-operator-kstreams},1651485077,0
{consumergroup=__strimzi-topic-operator-kstreams},1651485082,0
{consumergroup=__strimzi-topic-operator-kstreams},1651485087,0
{consumergroup=__strimzi-topic-operator-kstreams},1651485092,0
{consumergroup=__strimzi-topic-operator-kstreams},1651485097,0
{consumergroup=__strimzi-topic-operator-kstreams},1651485102,0
{consumergroup=__strimzi-topic-operator-kstreams},1651485107,0
{consumergroup=__strimzi-topic-operator-kstreams},1651485112,0
{consumergroup=__strimzi-topic-operator-kstreams},1651485117,0
{consumergroup=__strimzi-topic-operator-kstreams},1651485122,0
{consumergroup=__strimzi-topic-operator-kstreams},1651485127,0
{consumergroup=__strimzi-topic-operator-kstreams},1651485132,0
{consumergroup=__strimzi-topic-operator-kstreams},1651485137,0
{consumergroup=__strimzi-topic-operator-kstreams},1651485142,0
{consumergroup=__strimzi-topic-operator-kstreams},1651485147,0
{consumergroup=__strimzi-topic-operator-kstreams},1651485152,0
{consumergroup=__strimzi-topic-operator-kstreams},1651485157,0
{consumergroup=__strimzi-topic-operator-kstreams},1651485162,0
{consumergroup=__strimzi-topic-operator-kstreams},1651485167,0
{consumergroup=__strimzi-topic-operator-kstreams},1651485172,0
{consumergroup=__strimzi-topic-operator-kstreams},1651485177,0
{consumergroup=__strimzi-topic-operator-kstreams},1651485182,0
{consumergroup=__strimzi-topic-operator-kstreams},1651485187,0
{consumergroup=__strimzi-topic-operator-kstreams},1651485192,0
{consumergroup=__strimzi-topic-operator-kstreams},1651485197,0
{consumergroup=__strimzi-topic-operator-kstreams},1651485202,0
{consumergroup=__strimzi-topic-operator-kstreams},1651485207,0
{consumergroup=__strimzi-topic-operator-kstreams},1651485212,0
{consumergroup=__strimzi-topic-operator-kstreams},1651485217,0
{consumergroup=__strimzi-topic-operator-kstreams},1651485222,0
{consumergroup=__strimzi-topic-operator-kstreams},1651485227,0
{consumergroup=__strimzi-topic-operator-kstreams},1651485232,0
{consumergroup=__strimzi-topic-operator-kstreams},1651485237,0
{consumergroup=__strimzi-topic-operator-kstreams},1651485242,0
{consumergroup=__strimzi-topic-operator-kstreams},1651485247,0
{consumergroup=__strimzi-topic-operator-kstreams},1651485252,0
{consumergroup=__strimzi-topic-operator-kstreams},1651485257,0
{consumergroup=__strimzi-topic-operator-kstreams},1651485262,0
{consumergroup=__strimzi-topic-operator-kstreams},1651485267,0
{consumergroup=__strimzi-topic-operator-kstreams},1651485272,0
{consumergroup=__strimzi-topic-operator-kstreams},1651485277,0
{consumergroup=__strimzi-topic-operator-kstreams},1651485282,0
{consumergroup=__strimzi-topic-operator-kstreams},1651485287,0
{consumergroup=__strimzi-topic-operator-kstreams},1651485292,0
{consumergroup=__strimzi-topic-operator-kstreams},1651485297,0
{consumergroup=__strimzi-topic-operator-kstreams},1651485302,0
{consumergroup=__strimzi-topic-operator-kstreams},1651485307,0
{consumergroup=__strimzi-topic-operator-kstreams},1651485312,0
{consumergroup=__strimzi-topic-operator-kstreams},1651485317,0
{consumergroup=__strimzi-topic-operator-kstreams},1651485322,0
{consumergroup=__strimzi-topic-operator-kstreams},1651485327,0
{consumergroup=__strimzi-topic-operator-kstreams},1651485332,0
{consumergroup=__strimzi-topic-operator-kstreams},1651485337,0
{consumergroup=__strimzi-topic-operator-kstreams},1651485342,0
{consumergroup=__strimzi-topic-operator-kstreams},1651485347,0
{consumergroup=__strimzi-topic-operator-kstreams},1651485352,0
{consumergroup=__strimzi-topic-operator-kstreams},1651485357,0
{consumergroup=__strimzi-topic-operator-kstreams},1651485362,0
{consumergroup=__strimzi-topic-operator-kstreams},1651485367,0
{consumergroup=__strimzi-topic-operator-kstreams},1651485372,0
{consumergroup=__strimzi-topic-operator-kstreams},1651485377,0
{consumergroup=__strimzi-topic-operator-kstreams},1651485382,0
{consumergroup=__strimzi-topic-operator-kstreams},1651485387,0
{consumergroup=__strimzi-topic-operator-kstreams},1651485392,0
{consumergroup=__strimzi-topic-operator-kstreams},1651485397,0
{consumergroup=__strimzi-topic-operator-kstreams},1651485402,0
{consumergroup=__strimzi-topic-operator-kstreams},1651485407,0
{consumergroup=__strimzi-topic-operator-kstreams},1651485412,0
{consumergroup=__strimzi-topic-operator-kstreams},1651485417,0
{consumergroup=__strimzi-topic-operator-kstreams},1651485422,0
{consumergroup=__strimzi-topic-operator-kstreams},1651485427,0
{consumergroup=__strimzi-topic-operator-kstreams},1651485432,0
{consumergroup=__strimzi-topic-operator-kstreams},1651485437,0
{consumergroup=__strimzi-topic-operator-kstreams},1651485442,0
{consumergroup=trace-service},1651485037,59
{consumergroup=trace-service},1651485042,59
{consumergroup=trace-service},1651485047,59
{consumergroup=trace-service},1651485052,21323
{consumergroup=trace-service},1651485057,21323
{consumergroup=trace-service},1651485062,21323
{consumergroup=trace-service},1651485067,37429
{consumergroup=trace-service},1651485072,37429
{consumergroup=trace-service},1651485077,37429
{consumergroup=trace-service},1651485082,107553
{consumergroup=trace-service},1651485087,107553
{consumergroup=trace-service},1651485092,107553
{consumergroup=trace-service},1651485097,26820
{consumergroup=trace-service},1651485102,26820
{consumergroup=trace-service},1651485107,26820
{consumergroup=trace-service},1651485112,12316
{consumergroup=trace-service},1651485117,12316
{consumergroup=trace-service},1651485122,12316
{consumergroup=trace-service},1651485127,28618
{consumergroup=trace-service},1651485132,28618
{consumergroup=trace-service},1651485137,28618
{consumergroup=trace-service},1651485142,10840
{consumergroup=trace-service},1651485147,10840
{consumergroup=trace-service},1651485152,10840
{consumergroup=trace-service},1651485157,29003
{consumergroup=trace-service},1651485162,29003
{consumergroup=trace-service},1651485167,29003
{consumergroup=trace-service},1651485172,69352
{consumergroup=trace-service},1651485177,69352
{consumergroup=trace-service},1651485182,69352
{consumergroup=trace-service},1651485187,30664
{consumergroup=trace-service},1651485192,30664
{consumergroup=trace-service},1651485197,30664
{consumergroup=trace-service},1651485202,75366
{consumergroup=trace-service},1651485207,75366
{consumergroup=trace-service},1651485212,75366
{consumergroup=trace-service},1651485217,31660
{consumergroup=trace-service},1651485222,31660
{consumergroup=trace-service},1651485227,31660
{consumergroup=trace-service},1651485232,31553
{consumergroup=trace-service},1651485237,31553
{consumergroup=trace-service},1651485242,31553
{consumergroup=trace-service},1651485247,28717
{consumergroup=trace-service},1651485252,28717
{consumergroup=trace-service},1651485257,28717
{consumergroup=trace-service},1651485262,10064
{consumergroup=trace-service},1651485267,10064
{consumergroup=trace-service},1651485272,10064
{consumergroup=trace-service},1651485277,25902
{consumergroup=trace-service},1651485282,25902
{consumergroup=trace-service},1651485287,25902
{consumergroup=trace-service},1651485292,10139
{consumergroup=trace-service},1651485297,10139
{consumergroup=trace-service},1651485302,10139
{consumergroup=trace-service},1651485307,28034
{consumergroup=trace-service},1651485312,28034
{consumergroup=trace-service},1651485317,28034
{consumergroup=trace-service},1651485322,13150
{consumergroup=trace-service},1651485327,13150
{consumergroup=trace-service},1651485332,13150
{consumergroup=trace-service},1651485337,27278
{consumergroup=trace-service},1651485342,27278
{consumergroup=trace-service},1651485347,27278
{consumergroup=trace-service},1651485352,38401
{consumergroup=trace-service},1651485357,38401
{consumergroup=trace-service},1651485362,38401
{consumergroup=trace-service},1651485367,29487
{consumergroup=trace-service},1651485372,29487
{consumergroup=trace-service},1651485377,29487
{consumergroup=trace-service},1651485382,83564
{consumergroup=trace-service},1651485387,83564
{consumergroup=trace-service},1651485392,83564
{consumergroup=trace-service},1651485397,31556
{consumergroup=trace-service},1651485402,31556
{consumergroup=trace-service},1651485407,31556
{consumergroup=trace-service},1651485412,109109
{consumergroup=trace-service},1651485417,109109
{consumergroup=trace-service},1651485422,109109
{consumergroup=trace-service},1651485427,33372
{consumergroup=trace-service},1651485432,33372
{consumergroup=trace-service},1651485437,33372
{consumergroup=trace-service},1651485442,110509
{consumergroup=trace-token-events-consumer},1651485022,0
{consumergroup=trace-token-events-consumer},1651485027,0
{consumergroup=trace-token-events-consumer},1651485032,0
{consumergroup=trace-token-events-consumer},1651485037,0
{consumergroup=trace-token-events-consumer},1651485042,0
{consumergroup=trace-token-events-consumer},1651485047,0
{consumergroup=trace-token-events-consumer},1651485052,0
{consumergroup=trace-token-events-consumer},1651485057,0
{consumergroup=trace-token-events-consumer},1651485062,0
{consumergroup=trace-token-events-consumer},1651485067,0
{consumergroup=trace-token-events-consumer},1651485072,0
{consumergroup=trace-token-events-consumer},1651485077,0
{consumergroup=trace-token-events-consumer},1651485082,0
{consumergroup=trace-token-events-consumer},1651485087,0
{consumergroup=trace-token-events-consumer},1651485092,0
{consumergroup=trace-token-events-consumer},1651485097,0
{consumergroup=trace-token-events-consumer},1651485102,0
{consumergroup=trace-token-events-consumer},1651485107,0
{consumergroup=trace-token-events-consumer},1651485112,0
{consumergroup=trace-token-events-consumer},1651485117,0
{consumergroup=trace-token-events-consumer},1651485122,0
{consumergroup=trace-token-events-consumer},1651485127,0
{consumergroup=trace-token-events-consumer},1651485132,0
{consumergroup=trace-token-events-consumer},1651485137,0
{consumergroup=trace-token-events-consumer},1651485142,0
{consumergroup=trace-token-events-consumer},1651485147,0
{consumergroup=trace-token-events-consumer},1651485152,0
{consumergroup=trace-token-events-consumer},1651485157,0
{consumergroup=trace-token-events-consumer},1651485162,0
{consumergroup=trace-token-events-consumer},1651485167,0
{consumergroup=trace-token-events-consumer},1651485172,0
{consumergroup=trace-token-events-consumer},1651485177,0
{consumergroup=trace-token-events-consumer},1651485182,0
{consumergroup=trace-token-events-consumer},1651485187,0
{consumergroup=trace-token-events-consumer},1651485192,0
{consumergroup=trace-token-events-consumer},1651485197,0
{consumergroup=trace-token-events-consumer},1651485202,0
{consumergroup=trace-token-events-consumer},1651485207,0
{consumergroup=trace-token-events-consumer},1651485212,0
{consumergroup=trace-token-events-consumer},1651485217,0
{consumergroup=trace-token-events-consumer},1651485222,0
{consumergroup=trace-token-events-consumer},1651485227,0
{consumergroup=trace-token-events-consumer},1651485232,0
{consumergroup=trace-token-events-consumer},1651485237,0
{consumergroup=trace-token-events-consumer},1651485242,0
{consumergroup=trace-token-events-consumer},1651485247,0
{consumergroup=trace-token-events-consumer},1651485252,0
{consumergroup=trace-token-events-consumer},1651485257,0
{consumergroup=trace-token-events-consumer},1651485262,0
{consumergroup=trace-token-events-consumer},1651485267,0
{consumergroup=trace-token-events-consumer},1651485272,0
{consumergroup=trace-token-events-consumer},1651485277,0
{consumergroup=trace-token-events-consumer},1651485282,0
{consumergroup=trace-token-events-consumer},1651485287,0
{consumergroup=trace-token-events-consumer},1651485292,0
{consumergroup=trace-token-events-consumer},1651485297,0
{consumergroup=trace-token-events-consumer},1651485302,0
{consumergroup=trace-token-events-consumer},1651485307,0
{consumergroup=trace-token-events-consumer},1651485312,0
{consumergroup=trace-token-events-consumer},1651485317,0
{consumergroup=trace-token-events-consumer},1651485322,0
{consumergroup=trace-token-events-consumer},1651485327,0
{consumergroup=trace-token-events-consumer},1651485332,0
{consumergroup=trace-token-events-consumer},1651485337,0
{consumergroup=trace-token-events-consumer},1651485342,0
{consumergroup=trace-token-events-consumer},1651485347,0
{consumergroup=trace-token-events-consumer},1651485352,0
{consumergroup=trace-token-events-consumer},1651485357,0
{consumergroup=trace-token-events-consumer},1651485362,0
{consumergroup=trace-token-events-consumer},1651485367,0
{consumergroup=trace-token-events-consumer},1651485372,0
{consumergroup=trace-token-events-consumer},1651485377,0
{consumergroup=trace-token-events-consumer},1651485382,0
{consumergroup=trace-token-events-consumer},1651485387,0
{consumergroup=trace-token-events-consumer},1651485392,0
{consumergroup=trace-token-events-consumer},1651485397,0
{consumergroup=trace-token-events-consumer},1651485402,0
{consumergroup=trace-token-events-consumer},1651485407,0
{consumergroup=trace-token-events-consumer},1651485412,0
{consumergroup=trace-token-events-consumer},1651485417,0
{consumergroup=trace-token-events-consumer},1651485422,0
{consumergroup=trace-token-events-consumer},1651485427,0
{consumergroup=trace-token-events-consumer},1651485432,0
{consumergroup=trace-token-events-consumer},1651485437,0
{consumergroup=trace-token-events-consumer},1651485442,0
