labels,timestamp,value
{job=theodolite-stu200776/combined-trace-podmonitor},1651549950,10.265555098088354
{job=theodolite-stu200776/combined-trace-podmonitor},1651549955,60.56555365951414
{job=theodolite-stu200776/combined-trace-podmonitor},1651549960,67.33812631458278
{job=theodolite-stu200776/combined-trace-podmonitor},1651549965,77.54425508943405
{job=theodolite-stu200776/combined-trace-podmonitor},1651549970,73.74560732203953
{job=theodolite-stu200776/combined-trace-podmonitor},1651549975,61.40286988470275
{job=theodolite-stu200776/combined-trace-podmonitor},1651549980,58.98996557061384
{job=theodolite-stu200776/combined-trace-podmonitor},1651549985,40.430214577079695
{job=theodolite-stu200776/combined-trace-podmonitor},1651549990,29.603638905406132
{job=theodolite-stu200776/combined-trace-podmonitor},1651549995,0.06801999654963925
{job=theodolite-stu200776/combined-trace-podmonitor},1651550000,0.06801999654963925
{job=theodolite-stu200776/combined-trace-podmonitor},1651550005,0
{job=theodolite-stu200776/combined-trace-podmonitor},1651550010,0
{job=theodolite-stu200776/combined-trace-podmonitor},1651550015,0
{job=theodolite-stu200776/combined-trace-podmonitor},1651550020,0
{job=theodolite-stu200776/combined-trace-podmonitor},1651550025,0
{job=theodolite-stu200776/combined-trace-podmonitor},1651550030,0
{job=theodolite-stu200776/combined-trace-podmonitor},1651550035,0
{job=theodolite-stu200776/combined-trace-podmonitor},1651550040,0
{job=theodolite-stu200776/combined-trace-podmonitor},1651550045,0
{job=theodolite-stu200776/combined-trace-podmonitor},1651550050,0
{job=theodolite-stu200776/combined-trace-podmonitor},1651550055,0
{job=theodolite-stu200776/combined-trace-podmonitor},1651550060,0
{job=theodolite-stu200776/combined-trace-podmonitor},1651550065,0
{job=theodolite-stu200776/combined-trace-podmonitor},1651550070,0
{job=theodolite-stu200776/combined-trace-podmonitor},1651550075,0
{job=theodolite-stu200776/combined-trace-podmonitor},1651550080,0
{job=theodolite-stu200776/combined-trace-podmonitor},1651550085,0
{job=theodolite-stu200776/combined-trace-podmonitor},1651550090,0
{job=theodolite-stu200776/combined-trace-podmonitor},1651550095,0
{job=theodolite-stu200776/combined-trace-podmonitor},1651550100,0
{job=theodolite-stu200776/combined-trace-podmonitor},1651550105,0
{job=theodolite-stu200776/combined-trace-podmonitor},1651550110,0
{job=theodolite-stu200776/combined-trace-podmonitor},1651550115,0
{job=theodolite-stu200776/combined-trace-podmonitor},1651550120,0
{job=theodolite-stu200776/combined-trace-podmonitor},1651550125,0
{job=theodolite-stu200776/combined-trace-podmonitor},1651550130,0
{job=theodolite-stu200776/combined-trace-podmonitor},1651550135,237.08864496163505
{job=theodolite-stu200776/combined-trace-podmonitor},1651550140,307.645372987331
{job=theodolite-stu200776/combined-trace-podmonitor},1651550145,363.1791268714828
{job=theodolite-stu200776/combined-trace-podmonitor},1651550150,407.0658860997266
{job=theodolite-stu200776/combined-trace-podmonitor},1651550155,410.70056887925784
{job=theodolite-stu200776/combined-trace-podmonitor},1651550160,382.59497514439954
{job=theodolite-stu200776/combined-trace-podmonitor},1651550165,386.7511524335999
{job=theodolite-stu200776/combined-trace-podmonitor},1651550170,371.4830659237496
{job=theodolite-stu200776/combined-trace-podmonitor},1651550175,281.54294903180215
{job=theodolite-stu200776/combined-trace-podmonitor},1651550180,243.05960391732214
{job=theodolite-stu200776/combined-trace-podmonitor},1651550185,130.35456233893353
{job=theodolite-stu200776/combined-trace-podmonitor},1651550190,100.47825982454506
{job=theodolite-stu200776/combined-trace-podmonitor},1651550195,2.7101593803624735
{job=theodolite-stu200776/combined-trace-podmonitor},1651550200,0
{job=theodolite-stu200776/combined-trace-podmonitor},1651550205,0
{job=theodolite-stu200776/combined-trace-podmonitor},1651550210,0
{job=theodolite-stu200776/combined-trace-podmonitor},1651550215,0
{job=theodolite-stu200776/combined-trace-podmonitor},1651550220,0
{job=theodolite-stu200776/combined-trace-podmonitor},1651550225,0
{job=theodolite-stu200776/combined-trace-podmonitor},1651550230,0
{job=theodolite-stu200776/combined-trace-podmonitor},1651550235,0
{job=theodolite-stu200776/combined-trace-podmonitor},1651550240,0
{job=theodolite-stu200776/combined-trace-podmonitor},1651550245,0
{job=theodolite-stu200776/combined-trace-podmonitor},1651550250,0
{job=theodolite-stu200776/combined-trace-podmonitor},1651550255,0
{job=theodolite-stu200776/combined-trace-podmonitor},1651550260,0
{job=theodolite-stu200776/combined-trace-podmonitor},1651550265,0
{job=theodolite-stu200776/combined-trace-podmonitor},1651550270,0
{job=theodolite-stu200776/combined-trace-podmonitor},1651550275,0
{job=theodolite-stu200776/combined-trace-podmonitor},1651550280,0
{job=theodolite-stu200776/combined-trace-podmonitor},1651550285,0
{job=theodolite-stu200776/combined-trace-podmonitor},1651550290,0
{job=theodolite-stu200776/combined-trace-podmonitor},1651550295,0
{job=theodolite-stu200776/combined-trace-podmonitor},1651550300,0
{job=theodolite-stu200776/combined-trace-podmonitor},1651550305,0
{job=theodolite-stu200776/combined-trace-podmonitor},1651550310,0
{job=theodolite-stu200776/combined-trace-podmonitor},1651550315,0
{job=theodolite-stu200776/combined-trace-podmonitor},1651550320,0
{job=theodolite-stu200776/combined-trace-podmonitor},1651550325,0
