labels,timestamp,value
{consumergroup=__strimzi-topic-operator-kstreams},1651462875,11
{consumergroup=__strimzi-topic-operator-kstreams},1651462880,11
{consumergroup=__strimzi-topic-operator-kstreams},1651462885,11
{consumergroup=__strimzi-topic-operator-kstreams},1651462890,0
{consumergroup=__strimzi-topic-operator-kstreams},1651462895,0
{consumergroup=__strimzi-topic-operator-kstreams},1651462900,0
{consumergroup=__strimzi-topic-operator-kstreams},1651462905,0
{consumergroup=__strimzi-topic-operator-kstreams},1651462910,0
{consumergroup=__strimzi-topic-operator-kstreams},1651462915,0
{consumergroup=__strimzi-topic-operator-kstreams},1651462920,0
{consumergroup=__strimzi-topic-operator-kstreams},1651462925,0
{consumergroup=__strimzi-topic-operator-kstreams},1651462930,0
{consumergroup=__strimzi-topic-operator-kstreams},1651462935,0
{consumergroup=__strimzi-topic-operator-kstreams},1651462940,0
{consumergroup=__strimzi-topic-operator-kstreams},1651462945,0
{consumergroup=__strimzi-topic-operator-kstreams},1651462950,0
{consumergroup=__strimzi-topic-operator-kstreams},1651462955,0
{consumergroup=__strimzi-topic-operator-kstreams},1651462960,0
{consumergroup=__strimzi-topic-operator-kstreams},1651462965,0
{consumergroup=__strimzi-topic-operator-kstreams},1651462970,0
{consumergroup=__strimzi-topic-operator-kstreams},1651462975,0
{consumergroup=__strimzi-topic-operator-kstreams},1651462980,0
{consumergroup=__strimzi-topic-operator-kstreams},1651462985,0
{consumergroup=__strimzi-topic-operator-kstreams},1651462990,0
{consumergroup=__strimzi-topic-operator-kstreams},1651462995,0
{consumergroup=__strimzi-topic-operator-kstreams},1651463000,0
{consumergroup=__strimzi-topic-operator-kstreams},1651463005,0
{consumergroup=__strimzi-topic-operator-kstreams},1651463010,0
{consumergroup=__strimzi-topic-operator-kstreams},1651463015,0
{consumergroup=__strimzi-topic-operator-kstreams},1651463020,0
{consumergroup=__strimzi-topic-operator-kstreams},1651463025,0
{consumergroup=__strimzi-topic-operator-kstreams},1651463030,0
{consumergroup=__strimzi-topic-operator-kstreams},1651463035,0
{consumergroup=__strimzi-topic-operator-kstreams},1651463040,0
{consumergroup=__strimzi-topic-operator-kstreams},1651463045,0
{consumergroup=__strimzi-topic-operator-kstreams},1651463050,0
{consumergroup=__strimzi-topic-operator-kstreams},1651463055,0
{consumergroup=__strimzi-topic-operator-kstreams},1651463060,0
{consumergroup=__strimzi-topic-operator-kstreams},1651463065,0
{consumergroup=__strimzi-topic-operator-kstreams},1651463070,0
{consumergroup=__strimzi-topic-operator-kstreams},1651463075,0
{consumergroup=__strimzi-topic-operator-kstreams},1651463080,0
{consumergroup=__strimzi-topic-operator-kstreams},1651463085,0
{consumergroup=__strimzi-topic-operator-kstreams},1651463090,0
{consumergroup=__strimzi-topic-operator-kstreams},1651463095,0
{consumergroup=__strimzi-topic-operator-kstreams},1651463100,0
{consumergroup=__strimzi-topic-operator-kstreams},1651463105,0
{consumergroup=__strimzi-topic-operator-kstreams},1651463110,0
{consumergroup=__strimzi-topic-operator-kstreams},1651463115,0
{consumergroup=__strimzi-topic-operator-kstreams},1651463120,0
{consumergroup=__strimzi-topic-operator-kstreams},1651463125,0
{consumergroup=__strimzi-topic-operator-kstreams},1651463130,0
{consumergroup=__strimzi-topic-operator-kstreams},1651463135,0
{consumergroup=__strimzi-topic-operator-kstreams},1651463140,0
{consumergroup=__strimzi-topic-operator-kstreams},1651463145,0
{consumergroup=__strimzi-topic-operator-kstreams},1651463150,0
{consumergroup=__strimzi-topic-operator-kstreams},1651463155,0
{consumergroup=__strimzi-topic-operator-kstreams},1651463160,0
{consumergroup=__strimzi-topic-operator-kstreams},1651463165,0
{consumergroup=__strimzi-topic-operator-kstreams},1651463170,0
{consumergroup=__strimzi-topic-operator-kstreams},1651463175,0
{consumergroup=__strimzi-topic-operator-kstreams},1651463180,0
{consumergroup=__strimzi-topic-operator-kstreams},1651463185,0
{consumergroup=__strimzi-topic-operator-kstreams},1651463190,0
{consumergroup=__strimzi-topic-operator-kstreams},1651463195,0
{consumergroup=__strimzi-topic-operator-kstreams},1651463200,0
{consumergroup=__strimzi-topic-operator-kstreams},1651463205,0
{consumergroup=__strimzi-topic-operator-kstreams},1651463210,0
{consumergroup=__strimzi-topic-operator-kstreams},1651463215,0
{consumergroup=__strimzi-topic-operator-kstreams},1651463220,0
{consumergroup=__strimzi-topic-operator-kstreams},1651463225,0
{consumergroup=__strimzi-topic-operator-kstreams},1651463230,0
{consumergroup=__strimzi-topic-operator-kstreams},1651463235,0
{consumergroup=__strimzi-topic-operator-kstreams},1651463240,0
{consumergroup=__strimzi-topic-operator-kstreams},1651463245,0
{consumergroup=__strimzi-topic-operator-kstreams},1651463250,0
{consumergroup=__strimzi-topic-operator-kstreams},1651463255,0
{consumergroup=__strimzi-topic-operator-kstreams},1651463260,0
{consumergroup=__strimzi-topic-operator-kstreams},1651463265,0
{consumergroup=__strimzi-topic-operator-kstreams},1651463270,0
{consumergroup=__strimzi-topic-operator-kstreams},1651463275,0
{consumergroup=__strimzi-topic-operator-kstreams},1651463280,0
{consumergroup=__strimzi-topic-operator-kstreams},1651463285,0
{consumergroup=__strimzi-topic-operator-kstreams},1651463290,0
{consumergroup=__strimzi-topic-operator-kstreams},1651463295,0
{consumergroup=__strimzi-topic-operator-kstreams},1651463300,0
{consumergroup=__strimzi-topic-operator-kstreams},1651463305,0
{consumergroup=__strimzi-topic-operator-kstreams},1651463310,0
{consumergroup=trace-service},1651462920,42848
{consumergroup=trace-service},1651462925,42848
{consumergroup=trace-service},1651462930,42848
{consumergroup=trace-service},1651462935,81287
{consumergroup=trace-service},1651462940,81287
{consumergroup=trace-service},1651462945,81287
{consumergroup=trace-service},1651462950,125684
{consumergroup=trace-service},1651462955,125684
{consumergroup=trace-service},1651462960,125684
{consumergroup=trace-service},1651462965,74890
{consumergroup=trace-service},1651462970,74890
{consumergroup=trace-service},1651462975,74890
{consumergroup=trace-service},1651462980,154893
{consumergroup=trace-service},1651462985,154893
{consumergroup=trace-service},1651462990,154893
{consumergroup=trace-service},1651462995,60905
{consumergroup=trace-service},1651463000,60905
{consumergroup=trace-service},1651463005,60905
{consumergroup=trace-service},1651463010,83870
{consumergroup=trace-service},1651463015,83870
{consumergroup=trace-service},1651463020,83870
{consumergroup=trace-service},1651463025,67811
{consumergroup=trace-service},1651463030,67811
{consumergroup=trace-service},1651463035,67811
{consumergroup=trace-service},1651463040,162077
{consumergroup=trace-service},1651463045,162077
{consumergroup=trace-service},1651463050,162077
{consumergroup=trace-service},1651463055,132000
{consumergroup=trace-service},1651463060,132000
{consumergroup=trace-service},1651463065,132000
{consumergroup=trace-service},1651463070,32603
{consumergroup=trace-service},1651463075,32603
{consumergroup=trace-service},1651463080,32603
{consumergroup=trace-service},1651463085,59772
{consumergroup=trace-service},1651463090,59772
{consumergroup=trace-service},1651463095,59772
{consumergroup=trace-service},1651463100,130571
{consumergroup=trace-service},1651463105,130571
{consumergroup=trace-service},1651463110,130571
{consumergroup=trace-service},1651463115,140779
{consumergroup=trace-service},1651463120,140779
{consumergroup=trace-service},1651463125,140779
{consumergroup=trace-service},1651463130,30442
{consumergroup=trace-service},1651463135,30442
{consumergroup=trace-service},1651463140,30442
{consumergroup=trace-service},1651463145,64680
{consumergroup=trace-service},1651463150,64680
{consumergroup=trace-service},1651463155,64680
{consumergroup=trace-service},1651463160,170394
{consumergroup=trace-service},1651463165,170394
{consumergroup=trace-service},1651463170,170394
{consumergroup=trace-service},1651463175,76818
{consumergroup=trace-service},1651463180,76818
{consumergroup=trace-service},1651463185,76818
{consumergroup=trace-service},1651463190,145114
{consumergroup=trace-service},1651463195,145114
{consumergroup=trace-service},1651463200,145114
{consumergroup=trace-service},1651463205,64651
{consumergroup=trace-service},1651463210,64651
{consumergroup=trace-service},1651463215,64651
{consumergroup=trace-service},1651463220,155942
{consumergroup=trace-service},1651463225,155942
{consumergroup=trace-service},1651463230,155942
{consumergroup=trace-service},1651463235,86460
{consumergroup=trace-service},1651463240,86460
{consumergroup=trace-service},1651463245,86460
{consumergroup=trace-service},1651463250,159621
{consumergroup=trace-service},1651463255,159621
{consumergroup=trace-service},1651463260,159621
{consumergroup=trace-service},1651463265,130856
{consumergroup=trace-service},1651463270,130856
{consumergroup=trace-service},1651463275,130856
{consumergroup=trace-service},1651463280,72745
{consumergroup=trace-service},1651463285,72745
{consumergroup=trace-service},1651463290,72745
{consumergroup=trace-service},1651463295,70492
{consumergroup=trace-service},1651463300,70492
{consumergroup=trace-service},1651463305,70492
{consumergroup=trace-service},1651463310,118512
{consumergroup=trace-token-events-consumer},1651462905,0
{consumergroup=trace-token-events-consumer},1651462910,0
{consumergroup=trace-token-events-consumer},1651462915,0
{consumergroup=trace-token-events-consumer},1651462920,0
{consumergroup=trace-token-events-consumer},1651462925,0
{consumergroup=trace-token-events-consumer},1651462930,0
{consumergroup=trace-token-events-consumer},1651462935,0
{consumergroup=trace-token-events-consumer},1651462940,0
{consumergroup=trace-token-events-consumer},1651462945,0
{consumergroup=trace-token-events-consumer},1651462950,0
{consumergroup=trace-token-events-consumer},1651462955,0
{consumergroup=trace-token-events-consumer},1651462960,0
{consumergroup=trace-token-events-consumer},1651462965,0
{consumergroup=trace-token-events-consumer},1651462970,0
{consumergroup=trace-token-events-consumer},1651462975,0
{consumergroup=trace-token-events-consumer},1651462980,0
{consumergroup=trace-token-events-consumer},1651462985,0
{consumergroup=trace-token-events-consumer},1651462990,0
{consumergroup=trace-token-events-consumer},1651462995,0
{consumergroup=trace-token-events-consumer},1651463000,0
{consumergroup=trace-token-events-consumer},1651463005,0
{consumergroup=trace-token-events-consumer},1651463010,0
{consumergroup=trace-token-events-consumer},1651463015,0
{consumergroup=trace-token-events-consumer},1651463020,0
{consumergroup=trace-token-events-consumer},1651463025,0
{consumergroup=trace-token-events-consumer},1651463030,0
{consumergroup=trace-token-events-consumer},1651463035,0
{consumergroup=trace-token-events-consumer},1651463040,0
{consumergroup=trace-token-events-consumer},1651463045,0
{consumergroup=trace-token-events-consumer},1651463050,0
{consumergroup=trace-token-events-consumer},1651463055,0
{consumergroup=trace-token-events-consumer},1651463060,0
{consumergroup=trace-token-events-consumer},1651463065,0
{consumergroup=trace-token-events-consumer},1651463070,0
{consumergroup=trace-token-events-consumer},1651463075,0
{consumergroup=trace-token-events-consumer},1651463080,0
{consumergroup=trace-token-events-consumer},1651463085,0
{consumergroup=trace-token-events-consumer},1651463090,0
{consumergroup=trace-token-events-consumer},1651463095,0
{consumergroup=trace-token-events-consumer},1651463100,0
{consumergroup=trace-token-events-consumer},1651463105,0
{consumergroup=trace-token-events-consumer},1651463110,0
{consumergroup=trace-token-events-consumer},1651463115,0
{consumergroup=trace-token-events-consumer},1651463120,0
{consumergroup=trace-token-events-consumer},1651463125,0
{consumergroup=trace-token-events-consumer},1651463130,0
{consumergroup=trace-token-events-consumer},1651463135,0
{consumergroup=trace-token-events-consumer},1651463140,0
{consumergroup=trace-token-events-consumer},1651463145,0
{consumergroup=trace-token-events-consumer},1651463150,0
{consumergroup=trace-token-events-consumer},1651463155,0
{consumergroup=trace-token-events-consumer},1651463160,0
{consumergroup=trace-token-events-consumer},1651463165,0
{consumergroup=trace-token-events-consumer},1651463170,0
{consumergroup=trace-token-events-consumer},1651463175,0
{consumergroup=trace-token-events-consumer},1651463180,0
{consumergroup=trace-token-events-consumer},1651463185,0
{consumergroup=trace-token-events-consumer},1651463190,0
{consumergroup=trace-token-events-consumer},1651463195,0
{consumergroup=trace-token-events-consumer},1651463200,0
{consumergroup=trace-token-events-consumer},1651463205,0
{consumergroup=trace-token-events-consumer},1651463210,0
{consumergroup=trace-token-events-consumer},1651463215,0
{consumergroup=trace-token-events-consumer},1651463220,0
{consumergroup=trace-token-events-consumer},1651463225,0
{consumergroup=trace-token-events-consumer},1651463230,0
{consumergroup=trace-token-events-consumer},1651463235,0
{consumergroup=trace-token-events-consumer},1651463240,0
{consumergroup=trace-token-events-consumer},1651463245,0
{consumergroup=trace-token-events-consumer},1651463250,0
{consumergroup=trace-token-events-consumer},1651463255,0
{consumergroup=trace-token-events-consumer},1651463260,0
{consumergroup=trace-token-events-consumer},1651463265,0
{consumergroup=trace-token-events-consumer},1651463270,0
{consumergroup=trace-token-events-consumer},1651463275,0
{consumergroup=trace-token-events-consumer},1651463280,0
{consumergroup=trace-token-events-consumer},1651463285,0
{consumergroup=trace-token-events-consumer},1651463290,0
{consumergroup=trace-token-events-consumer},1651463295,0
{consumergroup=trace-token-events-consumer},1651463300,0
{consumergroup=trace-token-events-consumer},1651463305,0
{consumergroup=trace-token-events-consumer},1651463310,0
