labels,timestamp,value
{consumergroup=__strimzi-topic-operator-kstreams},1651550446,8
{consumergroup=__strimzi-topic-operator-kstreams},1651550451,8
{consumergroup=__strimzi-topic-operator-kstreams},1651550456,8
{consumergroup=__strimzi-topic-operator-kstreams},1651550461,11
{consumergroup=__strimzi-topic-operator-kstreams},1651550466,11
{consumergroup=__strimzi-topic-operator-kstreams},1651550471,11
{consumergroup=__strimzi-topic-operator-kstreams},1651550476,0
{consumergroup=__strimzi-topic-operator-kstreams},1651550481,0
{consumergroup=__strimzi-topic-operator-kstreams},1651550486,0
{consumergroup=__strimzi-topic-operator-kstreams},1651550491,0
{consumergroup=__strimzi-topic-operator-kstreams},1651550496,0
{consumergroup=__strimzi-topic-operator-kstreams},1651550501,0
{consumergroup=__strimzi-topic-operator-kstreams},1651550506,0
{consumergroup=__strimzi-topic-operator-kstreams},1651550511,0
{consumergroup=__strimzi-topic-operator-kstreams},1651550516,0
{consumergroup=__strimzi-topic-operator-kstreams},1651550521,0
{consumergroup=__strimzi-topic-operator-kstreams},1651550526,0
{consumergroup=__strimzi-topic-operator-kstreams},1651550531,0
{consumergroup=__strimzi-topic-operator-kstreams},1651550536,0
{consumergroup=__strimzi-topic-operator-kstreams},1651550541,0
{consumergroup=__strimzi-topic-operator-kstreams},1651550546,0
{consumergroup=__strimzi-topic-operator-kstreams},1651550551,0
{consumergroup=__strimzi-topic-operator-kstreams},1651550556,0
{consumergroup=__strimzi-topic-operator-kstreams},1651550561,0
{consumergroup=__strimzi-topic-operator-kstreams},1651550566,0
{consumergroup=__strimzi-topic-operator-kstreams},1651550571,0
{consumergroup=__strimzi-topic-operator-kstreams},1651550576,0
{consumergroup=__strimzi-topic-operator-kstreams},1651550581,0
{consumergroup=__strimzi-topic-operator-kstreams},1651550586,0
{consumergroup=__strimzi-topic-operator-kstreams},1651550591,0
{consumergroup=__strimzi-topic-operator-kstreams},1651550596,0
{consumergroup=__strimzi-topic-operator-kstreams},1651550601,0
{consumergroup=__strimzi-topic-operator-kstreams},1651550606,0
{consumergroup=__strimzi-topic-operator-kstreams},1651550611,0
{consumergroup=__strimzi-topic-operator-kstreams},1651550616,0
{consumergroup=__strimzi-topic-operator-kstreams},1651550621,0
{consumergroup=__strimzi-topic-operator-kstreams},1651550626,0
{consumergroup=__strimzi-topic-operator-kstreams},1651550631,0
{consumergroup=__strimzi-topic-operator-kstreams},1651550636,0
{consumergroup=__strimzi-topic-operator-kstreams},1651550641,0
{consumergroup=__strimzi-topic-operator-kstreams},1651550646,0
{consumergroup=__strimzi-topic-operator-kstreams},1651550651,0
{consumergroup=__strimzi-topic-operator-kstreams},1651550656,0
{consumergroup=__strimzi-topic-operator-kstreams},1651550661,0
{consumergroup=__strimzi-topic-operator-kstreams},1651550666,0
{consumergroup=__strimzi-topic-operator-kstreams},1651550671,0
{consumergroup=__strimzi-topic-operator-kstreams},1651550676,0
{consumergroup=__strimzi-topic-operator-kstreams},1651550681,0
{consumergroup=__strimzi-topic-operator-kstreams},1651550686,0
{consumergroup=__strimzi-topic-operator-kstreams},1651550691,0
{consumergroup=__strimzi-topic-operator-kstreams},1651550696,0
{consumergroup=__strimzi-topic-operator-kstreams},1651550701,0
{consumergroup=__strimzi-topic-operator-kstreams},1651550706,0
{consumergroup=__strimzi-topic-operator-kstreams},1651550711,0
{consumergroup=__strimzi-topic-operator-kstreams},1651550716,0
{consumergroup=__strimzi-topic-operator-kstreams},1651550721,0
{consumergroup=__strimzi-topic-operator-kstreams},1651550726,0
{consumergroup=__strimzi-topic-operator-kstreams},1651550731,0
{consumergroup=__strimzi-topic-operator-kstreams},1651550736,0
{consumergroup=__strimzi-topic-operator-kstreams},1651550741,0
{consumergroup=__strimzi-topic-operator-kstreams},1651550746,0
{consumergroup=__strimzi-topic-operator-kstreams},1651550751,0
{consumergroup=__strimzi-topic-operator-kstreams},1651550756,0
{consumergroup=__strimzi-topic-operator-kstreams},1651550761,0
{consumergroup=__strimzi-topic-operator-kstreams},1651550766,0
{consumergroup=__strimzi-topic-operator-kstreams},1651550771,0
{consumergroup=__strimzi-topic-operator-kstreams},1651550776,0
{consumergroup=__strimzi-topic-operator-kstreams},1651550781,0
{consumergroup=__strimzi-topic-operator-kstreams},1651550786,0
{consumergroup=__strimzi-topic-operator-kstreams},1651550791,0
{consumergroup=__strimzi-topic-operator-kstreams},1651550796,0
{consumergroup=__strimzi-topic-operator-kstreams},1651550801,0
{consumergroup=__strimzi-topic-operator-kstreams},1651550806,0
{consumergroup=__strimzi-topic-operator-kstreams},1651550811,0
{consumergroup=__strimzi-topic-operator-kstreams},1651550816,0
{consumergroup=__strimzi-topic-operator-kstreams},1651550821,0
{consumergroup=__strimzi-topic-operator-kstreams},1651550826,0
{consumergroup=__strimzi-topic-operator-kstreams},1651550831,0
{consumergroup=__strimzi-topic-operator-kstreams},1651550836,0
{consumergroup=__strimzi-topic-operator-kstreams},1651550841,0
{consumergroup=__strimzi-topic-operator-kstreams},1651550846,0
{consumergroup=__strimzi-topic-operator-kstreams},1651550851,0
{consumergroup=__strimzi-topic-operator-kstreams},1651550856,0
{consumergroup=__strimzi-topic-operator-kstreams},1651550861,0
{consumergroup=__strimzi-topic-operator-kstreams},1651550866,0
{consumergroup=__strimzi-topic-operator-kstreams},1651550871,0
{consumergroup=__strimzi-topic-operator-kstreams},1651550876,0
{consumergroup=__strimzi-topic-operator-kstreams},1651550881,0
{consumergroup=__strimzi-topic-operator-kstreams},1651550886,0
{consumergroup=__strimzi-topic-operator-kstreams},1651550891,0
{consumergroup=adapter-service},1651550476,0
{consumergroup=adapter-service},1651550481,0
{consumergroup=adapter-service},1651550486,0
{consumergroup=adapter-service},1651550491,31053
{consumergroup=adapter-service},1651550496,31053
{consumergroup=adapter-service},1651550501,31053
{consumergroup=adapter-service},1651550506,8215
{consumergroup=adapter-service},1651550511,8215
{consumergroup=adapter-service},1651550516,8215
{consumergroup=adapter-service},1651550521,7882
{consumergroup=adapter-service},1651550526,7882
{consumergroup=adapter-service},1651550531,7882
{consumergroup=adapter-service},1651550536,5092
{consumergroup=adapter-service},1651550541,5092
{consumergroup=adapter-service},1651550546,5092
{consumergroup=adapter-service},1651550551,4293
{consumergroup=adapter-service},1651550556,4293
{consumergroup=adapter-service},1651550561,4293
{consumergroup=adapter-service},1651550566,6407
{consumergroup=adapter-service},1651550571,6407
{consumergroup=adapter-service},1651550576,6407
{consumergroup=adapter-service},1651550581,6485
{consumergroup=adapter-service},1651550586,6485
{consumergroup=adapter-service},1651550591,6485
{consumergroup=adapter-service},1651550596,8340
{consumergroup=adapter-service},1651550601,8340
{consumergroup=adapter-service},1651550606,8340
{consumergroup=adapter-service},1651550611,5039
{consumergroup=adapter-service},1651550616,5039
{consumergroup=adapter-service},1651550621,5039
{consumergroup=adapter-service},1651550626,10915
{consumergroup=adapter-service},1651550631,10915
{consumergroup=adapter-service},1651550636,10915
{consumergroup=adapter-service},1651550641,4827
{consumergroup=adapter-service},1651550646,4827
{consumergroup=adapter-service},1651550651,4827
{consumergroup=adapter-service},1651550656,11015
{consumergroup=adapter-service},1651550661,11015
{consumergroup=adapter-service},1651550666,11015
{consumergroup=adapter-service},1651550671,7630
{consumergroup=adapter-service},1651550676,7630
{consumergroup=adapter-service},1651550681,7630
{consumergroup=adapter-service},1651550686,13853
{consumergroup=adapter-service},1651550691,13853
{consumergroup=adapter-service},1651550696,13853
{consumergroup=adapter-service},1651550701,7004
{consumergroup=adapter-service},1651550706,7004
{consumergroup=adapter-service},1651550711,7004
{consumergroup=adapter-service},1651550716,14185
{consumergroup=adapter-service},1651550721,14185
{consumergroup=adapter-service},1651550726,14185
{consumergroup=adapter-service},1651550731,7371
{consumergroup=adapter-service},1651550736,7371
{consumergroup=adapter-service},1651550741,7371
{consumergroup=adapter-service},1651550746,15766
{consumergroup=adapter-service},1651550751,15766
{consumergroup=adapter-service},1651550756,15766
{consumergroup=adapter-service},1651550761,10158
{consumergroup=adapter-service},1651550766,10158
{consumergroup=adapter-service},1651550771,10158
{consumergroup=adapter-service},1651550776,16151
{consumergroup=adapter-service},1651550781,16151
{consumergroup=adapter-service},1651550786,16151
{consumergroup=adapter-service},1651550791,12167
{consumergroup=adapter-service},1651550796,12167
{consumergroup=adapter-service},1651550801,12167
{consumergroup=adapter-service},1651550806,14691
{consumergroup=adapter-service},1651550811,14691
{consumergroup=adapter-service},1651550816,14691
{consumergroup=adapter-service},1651550821,11912
{consumergroup=adapter-service},1651550826,11912
{consumergroup=adapter-service},1651550831,11912
{consumergroup=adapter-service},1651550836,15115
{consumergroup=adapter-service},1651550841,15115
{consumergroup=adapter-service},1651550846,15115
{consumergroup=adapter-service},1651550851,11440
{consumergroup=adapter-service},1651550856,11440
{consumergroup=adapter-service},1651550861,11440
{consumergroup=adapter-service},1651550866,13728
{consumergroup=adapter-service},1651550871,13728
{consumergroup=adapter-service},1651550876,13728
{consumergroup=adapter-service},1651550881,7727
{consumergroup=adapter-service},1651550886,7727
{consumergroup=adapter-service},1651550891,7727
{consumergroup=landscape-service},1651550491,30122
{consumergroup=landscape-service},1651550496,30122
{consumergroup=landscape-service},1651550501,30122
{consumergroup=landscape-service},1651550506,16818
{consumergroup=landscape-service},1651550511,16818
{consumergroup=landscape-service},1651550516,16818
{consumergroup=landscape-service},1651550521,9328
{consumergroup=landscape-service},1651550526,9328
{consumergroup=landscape-service},1651550531,9328
{consumergroup=landscape-service},1651550536,2687
{consumergroup=landscape-service},1651550541,2687
{consumergroup=landscape-service},1651550546,2687
{consumergroup=landscape-service},1651550551,5859
{consumergroup=landscape-service},1651550556,5859
{consumergroup=landscape-service},1651550561,5859
{consumergroup=landscape-service},1651550566,2110
{consumergroup=landscape-service},1651550571,2110
{consumergroup=landscape-service},1651550576,2110
{consumergroup=landscape-service},1651550581,8045
{consumergroup=landscape-service},1651550586,8045
{consumergroup=landscape-service},1651550591,8045
{consumergroup=landscape-service},1651550596,21117
{consumergroup=landscape-service},1651550601,21117
{consumergroup=landscape-service},1651550606,21117
{consumergroup=landscape-service},1651550611,3440
{consumergroup=landscape-service},1651550616,3440
{consumergroup=landscape-service},1651550621,3440
{consumergroup=landscape-service},1651550626,18873
{consumergroup=landscape-service},1651550631,18873
{consumergroup=landscape-service},1651550636,18873
{consumergroup=landscape-service},1651550641,1415
{consumergroup=landscape-service},1651550646,1415
{consumergroup=landscape-service},1651550651,1415
{consumergroup=landscape-service},1651550656,18240
{consumergroup=landscape-service},1651550661,18240
{consumergroup=landscape-service},1651550666,18240
{consumergroup=landscape-service},1651550671,21795
{consumergroup=landscape-service},1651550676,21795
{consumergroup=landscape-service},1651550681,21795
{consumergroup=landscape-service},1651550686,15704
{consumergroup=landscape-service},1651550691,15704
{consumergroup=landscape-service},1651550696,15704
{consumergroup=landscape-service},1651550701,20412
{consumergroup=landscape-service},1651550706,20412
{consumergroup=landscape-service},1651550711,20412
{consumergroup=landscape-service},1651550716,15555
{consumergroup=landscape-service},1651550721,15555
{consumergroup=landscape-service},1651550726,15555
{consumergroup=landscape-service},1651550731,17939
{consumergroup=landscape-service},1651550736,17939
{consumergroup=landscape-service},1651550741,17939
{consumergroup=landscape-service},1651550746,12888
{consumergroup=landscape-service},1651550751,12888
{consumergroup=landscape-service},1651550756,12888
{consumergroup=landscape-service},1651550761,17637
{consumergroup=landscape-service},1651550766,17637
{consumergroup=landscape-service},1651550771,17637
{consumergroup=landscape-service},1651550776,11488
{consumergroup=landscape-service},1651550781,11488
{consumergroup=landscape-service},1651550786,11488
{consumergroup=landscape-service},1651550791,14858
{consumergroup=landscape-service},1651550796,14858
{consumergroup=landscape-service},1651550801,14858
{consumergroup=landscape-service},1651550806,9770
{consumergroup=landscape-service},1651550811,9770
{consumergroup=landscape-service},1651550816,9770
{consumergroup=landscape-service},1651550821,13398
{consumergroup=landscape-service},1651550826,13398
{consumergroup=landscape-service},1651550831,13398
{consumergroup=landscape-service},1651550836,8259
{consumergroup=landscape-service},1651550841,8259
{consumergroup=landscape-service},1651550846,8259
{consumergroup=landscape-service},1651550851,12807
{consumergroup=landscape-service},1651550856,12807
{consumergroup=landscape-service},1651550861,12807
{consumergroup=landscape-service},1651550866,7919
{consumergroup=landscape-service},1651550871,7919
{consumergroup=landscape-service},1651550876,7919
{consumergroup=landscape-service},1651550881,15672
{consumergroup=landscape-service},1651550886,15672
{consumergroup=landscape-service},1651550891,15672
{consumergroup=trace-service},1651550491,27602
{consumergroup=trace-service},1651550496,27602
{consumergroup=trace-service},1651550501,27602
{consumergroup=trace-service},1651550506,85297
{consumergroup=trace-service},1651550511,85297
{consumergroup=trace-service},1651550516,85297
{consumergroup=trace-service},1651550521,30058
{consumergroup=trace-service},1651550526,30058
{consumergroup=trace-service},1651550531,30058
{consumergroup=trace-service},1651550536,59596
{consumergroup=trace-service},1651550541,59596
{consumergroup=trace-service},1651550546,59596
{consumergroup=trace-service},1651550551,22488
{consumergroup=trace-service},1651550556,22488
{consumergroup=trace-service},1651550561,22488
{consumergroup=trace-service},1651550566,62912
{consumergroup=trace-service},1651550571,62912
{consumergroup=trace-service},1651550576,62912
{consumergroup=trace-service},1651550581,30575
{consumergroup=trace-service},1651550586,30575
{consumergroup=trace-service},1651550591,30575
{consumergroup=trace-service},1651550596,56961
{consumergroup=trace-service},1651550601,56961
{consumergroup=trace-service},1651550606,56961
{consumergroup=trace-service},1651550611,24054
{consumergroup=trace-service},1651550616,24054
{consumergroup=trace-service},1651550621,24054
{consumergroup=trace-service},1651550626,57121
{consumergroup=trace-service},1651550631,57121
{consumergroup=trace-service},1651550636,57121
{consumergroup=trace-service},1651550641,29487
{consumergroup=trace-service},1651550646,29487
{consumergroup=trace-service},1651550651,29487
{consumergroup=trace-service},1651550656,60510
{consumergroup=trace-service},1651550661,60510
{consumergroup=trace-service},1651550666,60510
{consumergroup=trace-service},1651550671,21547
{consumergroup=trace-service},1651550676,21547
{consumergroup=trace-service},1651550681,21547
{consumergroup=trace-service},1651550686,61302
{consumergroup=trace-service},1651550691,61302
{consumergroup=trace-service},1651550696,61302
{consumergroup=trace-service},1651550701,18362
{consumergroup=trace-service},1651550706,18362
{consumergroup=trace-service},1651550711,18362
{consumergroup=trace-service},1651550716,57937
{consumergroup=trace-service},1651550721,57937
{consumergroup=trace-service},1651550726,57937
{consumergroup=trace-service},1651550731,37310
{consumergroup=trace-service},1651550736,37310
{consumergroup=trace-service},1651550741,37310
{consumergroup=trace-service},1651550746,58452
{consumergroup=trace-service},1651550751,58452
{consumergroup=trace-service},1651550756,58452
{consumergroup=trace-service},1651550761,177896
{consumergroup=trace-service},1651550766,177896
{consumergroup=trace-service},1651550771,177896
{consumergroup=trace-service},1651550776,75398
{consumergroup=trace-service},1651550781,75398
{consumergroup=trace-service},1651550786,75398
{consumergroup=trace-service},1651550791,25401
{consumergroup=trace-service},1651550796,25401
{consumergroup=trace-service},1651550801,25401
{consumergroup=trace-service},1651550806,58299
{consumergroup=trace-service},1651550811,58299
{consumergroup=trace-service},1651550816,58299
{consumergroup=trace-service},1651550821,22404
{consumergroup=trace-service},1651550826,22404
{consumergroup=trace-service},1651550831,22404
{consumergroup=trace-service},1651550836,60907
{consumergroup=trace-service},1651550841,60907
{consumergroup=trace-service},1651550846,60907
{consumergroup=trace-service},1651550851,19401
{consumergroup=trace-service},1651550856,19401
{consumergroup=trace-service},1651550861,19401
{consumergroup=trace-service},1651550866,55514
{consumergroup=trace-service},1651550871,55514
{consumergroup=trace-service},1651550876,55514
{consumergroup=trace-service},1651550881,33380
{consumergroup=trace-service},1651550886,33380
{consumergroup=trace-service},1651550891,33380
{consumergroup=trace-token-events-consumer},1651550476,0
{consumergroup=trace-token-events-consumer},1651550481,0
{consumergroup=trace-token-events-consumer},1651550486,0
{consumergroup=trace-token-events-consumer},1651550491,0
{consumergroup=trace-token-events-consumer},1651550496,0
{consumergroup=trace-token-events-consumer},1651550501,0
{consumergroup=trace-token-events-consumer},1651550506,0
{consumergroup=trace-token-events-consumer},1651550511,0
{consumergroup=trace-token-events-consumer},1651550516,0
{consumergroup=trace-token-events-consumer},1651550521,0
{consumergroup=trace-token-events-consumer},1651550526,0
{consumergroup=trace-token-events-consumer},1651550531,0
{consumergroup=trace-token-events-consumer},1651550536,0
{consumergroup=trace-token-events-consumer},1651550541,0
{consumergroup=trace-token-events-consumer},1651550546,0
{consumergroup=trace-token-events-consumer},1651550551,0
{consumergroup=trace-token-events-consumer},1651550556,0
{consumergroup=trace-token-events-consumer},1651550561,0
{consumergroup=trace-token-events-consumer},1651550566,0
{consumergroup=trace-token-events-consumer},1651550571,0
{consumergroup=trace-token-events-consumer},1651550576,0
{consumergroup=trace-token-events-consumer},1651550581,0
{consumergroup=trace-token-events-consumer},1651550586,0
{consumergroup=trace-token-events-consumer},1651550591,0
{consumergroup=trace-token-events-consumer},1651550596,0
{consumergroup=trace-token-events-consumer},1651550601,0
{consumergroup=trace-token-events-consumer},1651550606,0
{consumergroup=trace-token-events-consumer},1651550611,0
{consumergroup=trace-token-events-consumer},1651550616,0
{consumergroup=trace-token-events-consumer},1651550621,0
{consumergroup=trace-token-events-consumer},1651550626,0
{consumergroup=trace-token-events-consumer},1651550631,0
{consumergroup=trace-token-events-consumer},1651550636,0
{consumergroup=trace-token-events-consumer},1651550641,0
{consumergroup=trace-token-events-consumer},1651550646,0
{consumergroup=trace-token-events-consumer},1651550651,0
{consumergroup=trace-token-events-consumer},1651550656,0
{consumergroup=trace-token-events-consumer},1651550661,0
{consumergroup=trace-token-events-consumer},1651550666,0
{consumergroup=trace-token-events-consumer},1651550671,0
{consumergroup=trace-token-events-consumer},1651550676,0
{consumergroup=trace-token-events-consumer},1651550681,0
{consumergroup=trace-token-events-consumer},1651550686,0
{consumergroup=trace-token-events-consumer},1651550691,0
{consumergroup=trace-token-events-consumer},1651550696,0
{consumergroup=trace-token-events-consumer},1651550701,0
{consumergroup=trace-token-events-consumer},1651550706,0
{consumergroup=trace-token-events-consumer},1651550711,0
{consumergroup=trace-token-events-consumer},1651550716,0
{consumergroup=trace-token-events-consumer},1651550721,0
{consumergroup=trace-token-events-consumer},1651550726,0
{consumergroup=trace-token-events-consumer},1651550731,0
{consumergroup=trace-token-events-consumer},1651550736,0
{consumergroup=trace-token-events-consumer},1651550741,0
{consumergroup=trace-token-events-consumer},1651550746,0
{consumergroup=trace-token-events-consumer},1651550751,0
{consumergroup=trace-token-events-consumer},1651550756,0
{consumergroup=trace-token-events-consumer},1651550761,0
{consumergroup=trace-token-events-consumer},1651550766,0
{consumergroup=trace-token-events-consumer},1651550771,0
{consumergroup=trace-token-events-consumer},1651550776,0
{consumergroup=trace-token-events-consumer},1651550781,0
{consumergroup=trace-token-events-consumer},1651550786,0
{consumergroup=trace-token-events-consumer},1651550791,0
{consumergroup=trace-token-events-consumer},1651550796,0
{consumergroup=trace-token-events-consumer},1651550801,0
{consumergroup=trace-token-events-consumer},1651550806,0
{consumergroup=trace-token-events-consumer},1651550811,0
{consumergroup=trace-token-events-consumer},1651550816,0
{consumergroup=trace-token-events-consumer},1651550821,0
{consumergroup=trace-token-events-consumer},1651550826,0
{consumergroup=trace-token-events-consumer},1651550831,0
{consumergroup=trace-token-events-consumer},1651550836,0
{consumergroup=trace-token-events-consumer},1651550841,0
{consumergroup=trace-token-events-consumer},1651550846,0
{consumergroup=trace-token-events-consumer},1651550851,0
{consumergroup=trace-token-events-consumer},1651550856,0
{consumergroup=trace-token-events-consumer},1651550861,0
{consumergroup=trace-token-events-consumer},1651550866,0
{consumergroup=trace-token-events-consumer},1651550871,0
{consumergroup=trace-token-events-consumer},1651550876,0
{consumergroup=trace-token-events-consumer},1651550881,0
{consumergroup=trace-token-events-consumer},1651550886,0
{consumergroup=trace-token-events-consumer},1651550891,0
