labels,timestamp,value
{consumergroup=__strimzi-topic-operator-kstreams},1651466968,11
{consumergroup=__strimzi-topic-operator-kstreams},1651466973,11
{consumergroup=__strimzi-topic-operator-kstreams},1651466978,11
{consumergroup=__strimzi-topic-operator-kstreams},1651466983,3
{consumergroup=__strimzi-topic-operator-kstreams},1651466988,3
{consumergroup=__strimzi-topic-operator-kstreams},1651466993,3
{consumergroup=__strimzi-topic-operator-kstreams},1651466998,3
{consumergroup=__strimzi-topic-operator-kstreams},1651467003,3
{consumergroup=__strimzi-topic-operator-kstreams},1651467008,3
{consumergroup=__strimzi-topic-operator-kstreams},1651467013,0
{consumergroup=__strimzi-topic-operator-kstreams},1651467018,0
{consumergroup=__strimzi-topic-operator-kstreams},1651467023,0
{consumergroup=__strimzi-topic-operator-kstreams},1651467028,0
{consumergroup=__strimzi-topic-operator-kstreams},1651467033,0
{consumergroup=__strimzi-topic-operator-kstreams},1651467038,0
{consumergroup=__strimzi-topic-operator-kstreams},1651467043,0
{consumergroup=__strimzi-topic-operator-kstreams},1651467048,0
{consumergroup=__strimzi-topic-operator-kstreams},1651467053,0
{consumergroup=__strimzi-topic-operator-kstreams},1651467058,0
{consumergroup=__strimzi-topic-operator-kstreams},1651467063,0
{consumergroup=__strimzi-topic-operator-kstreams},1651467068,0
{consumergroup=__strimzi-topic-operator-kstreams},1651467073,0
{consumergroup=__strimzi-topic-operator-kstreams},1651467078,0
{consumergroup=__strimzi-topic-operator-kstreams},1651467083,0
{consumergroup=__strimzi-topic-operator-kstreams},1651467088,0
{consumergroup=__strimzi-topic-operator-kstreams},1651467093,0
{consumergroup=__strimzi-topic-operator-kstreams},1651467098,0
{consumergroup=__strimzi-topic-operator-kstreams},1651467103,0
{consumergroup=__strimzi-topic-operator-kstreams},1651467108,0
{consumergroup=__strimzi-topic-operator-kstreams},1651467113,0
{consumergroup=__strimzi-topic-operator-kstreams},1651467118,0
{consumergroup=__strimzi-topic-operator-kstreams},1651467123,0
{consumergroup=__strimzi-topic-operator-kstreams},1651467128,0
{consumergroup=__strimzi-topic-operator-kstreams},1651467133,0
{consumergroup=__strimzi-topic-operator-kstreams},1651467138,0
{consumergroup=__strimzi-topic-operator-kstreams},1651467143,0
{consumergroup=__strimzi-topic-operator-kstreams},1651467148,0
{consumergroup=__strimzi-topic-operator-kstreams},1651467153,0
{consumergroup=__strimzi-topic-operator-kstreams},1651467158,0
{consumergroup=__strimzi-topic-operator-kstreams},1651467163,0
{consumergroup=__strimzi-topic-operator-kstreams},1651467168,0
{consumergroup=__strimzi-topic-operator-kstreams},1651467173,0
{consumergroup=__strimzi-topic-operator-kstreams},1651467178,0
{consumergroup=__strimzi-topic-operator-kstreams},1651467183,0
{consumergroup=__strimzi-topic-operator-kstreams},1651467188,0
{consumergroup=__strimzi-topic-operator-kstreams},1651467193,0
{consumergroup=__strimzi-topic-operator-kstreams},1651467198,0
{consumergroup=__strimzi-topic-operator-kstreams},1651467203,0
{consumergroup=__strimzi-topic-operator-kstreams},1651467208,0
{consumergroup=__strimzi-topic-operator-kstreams},1651467213,0
{consumergroup=__strimzi-topic-operator-kstreams},1651467218,0
{consumergroup=__strimzi-topic-operator-kstreams},1651467223,0
{consumergroup=__strimzi-topic-operator-kstreams},1651467228,0
{consumergroup=__strimzi-topic-operator-kstreams},1651467233,0
{consumergroup=__strimzi-topic-operator-kstreams},1651467238,0
{consumergroup=__strimzi-topic-operator-kstreams},1651467243,0
{consumergroup=__strimzi-topic-operator-kstreams},1651467248,0
{consumergroup=__strimzi-topic-operator-kstreams},1651467253,0
{consumergroup=__strimzi-topic-operator-kstreams},1651467258,0
{consumergroup=__strimzi-topic-operator-kstreams},1651467263,0
{consumergroup=__strimzi-topic-operator-kstreams},1651467268,0
{consumergroup=__strimzi-topic-operator-kstreams},1651467273,0
{consumergroup=__strimzi-topic-operator-kstreams},1651467278,0
{consumergroup=__strimzi-topic-operator-kstreams},1651467283,0
{consumergroup=__strimzi-topic-operator-kstreams},1651467288,0
{consumergroup=__strimzi-topic-operator-kstreams},1651467293,0
{consumergroup=__strimzi-topic-operator-kstreams},1651467298,0
{consumergroup=__strimzi-topic-operator-kstreams},1651467303,0
{consumergroup=__strimzi-topic-operator-kstreams},1651467308,0
{consumergroup=__strimzi-topic-operator-kstreams},1651467313,0
{consumergroup=__strimzi-topic-operator-kstreams},1651467318,0
{consumergroup=__strimzi-topic-operator-kstreams},1651467323,0
{consumergroup=__strimzi-topic-operator-kstreams},1651467328,0
{consumergroup=__strimzi-topic-operator-kstreams},1651467333,0
{consumergroup=__strimzi-topic-operator-kstreams},1651467338,0
{consumergroup=__strimzi-topic-operator-kstreams},1651467343,0
{consumergroup=__strimzi-topic-operator-kstreams},1651467348,0
{consumergroup=__strimzi-topic-operator-kstreams},1651467353,0
{consumergroup=__strimzi-topic-operator-kstreams},1651467358,0
{consumergroup=__strimzi-topic-operator-kstreams},1651467363,0
{consumergroup=__strimzi-topic-operator-kstreams},1651467368,0
{consumergroup=__strimzi-topic-operator-kstreams},1651467373,0
{consumergroup=__strimzi-topic-operator-kstreams},1651467378,0
{consumergroup=__strimzi-topic-operator-kstreams},1651467383,0
{consumergroup=__strimzi-topic-operator-kstreams},1651467388,0
{consumergroup=__strimzi-topic-operator-kstreams},1651467393,0
{consumergroup=__strimzi-topic-operator-kstreams},1651467398,0
{consumergroup=__strimzi-topic-operator-kstreams},1651467403,0
{consumergroup=trace-service},1651467013,89782
{consumergroup=trace-service},1651467018,89782
{consumergroup=trace-service},1651467023,89782
{consumergroup=trace-service},1651467028,20541
{consumergroup=trace-service},1651467033,20541
{consumergroup=trace-service},1651467038,20541
{consumergroup=trace-service},1651467043,68129
{consumergroup=trace-service},1651467048,68129
{consumergroup=trace-service},1651467053,68129
{consumergroup=trace-service},1651467058,52888
{consumergroup=trace-service},1651467063,52888
{consumergroup=trace-service},1651467068,52888
{consumergroup=trace-service},1651467073,62532
{consumergroup=trace-service},1651467078,62532
{consumergroup=trace-service},1651467083,62532
{consumergroup=trace-service},1651467088,75340
{consumergroup=trace-service},1651467093,75340
{consumergroup=trace-service},1651467098,75340
{consumergroup=trace-service},1651467103,61039
{consumergroup=trace-service},1651467108,61039
{consumergroup=trace-service},1651467113,61039
{consumergroup=trace-service},1651467118,115832
{consumergroup=trace-service},1651467123,115832
{consumergroup=trace-service},1651467128,115832
{consumergroup=trace-service},1651467133,62777
{consumergroup=trace-service},1651467138,62777
{consumergroup=trace-service},1651467143,62777
{consumergroup=trace-service},1651467148,16985
{consumergroup=trace-service},1651467153,16985
{consumergroup=trace-service},1651467158,16985
{consumergroup=trace-service},1651467163,63150
{consumergroup=trace-service},1651467168,63150
{consumergroup=trace-service},1651467173,63150
{consumergroup=trace-service},1651467178,111721
{consumergroup=trace-service},1651467183,111721
{consumergroup=trace-service},1651467188,111721
{consumergroup=trace-service},1651467193,65863
{consumergroup=trace-service},1651467198,65863
{consumergroup=trace-service},1651467203,65863
{consumergroup=trace-service},1651467208,134737
{consumergroup=trace-service},1651467213,134737
{consumergroup=trace-service},1651467218,134737
{consumergroup=trace-service},1651467223,66310
{consumergroup=trace-service},1651467228,66310
{consumergroup=trace-service},1651467233,66310
{consumergroup=trace-service},1651467238,124570
{consumergroup=trace-service},1651467243,124570
{consumergroup=trace-service},1651467248,124570
{consumergroup=trace-service},1651467253,67276
{consumergroup=trace-service},1651467258,67276
{consumergroup=trace-service},1651467263,67276
{consumergroup=trace-service},1651467268,160168
{consumergroup=trace-service},1651467273,160168
{consumergroup=trace-service},1651467278,160168
{consumergroup=trace-service},1651467283,63001
{consumergroup=trace-service},1651467288,63001
{consumergroup=trace-service},1651467293,63001
{consumergroup=trace-service},1651467298,98216
{consumergroup=trace-service},1651467303,98216
{consumergroup=trace-service},1651467308,98216
{consumergroup=trace-service},1651467313,64794
{consumergroup=trace-service},1651467318,64794
{consumergroup=trace-service},1651467323,64794
{consumergroup=trace-service},1651467328,127808
{consumergroup=trace-service},1651467333,127808
{consumergroup=trace-service},1651467338,127808
{consumergroup=trace-service},1651467343,150749
{consumergroup=trace-service},1651467348,150749
{consumergroup=trace-service},1651467353,150749
{consumergroup=trace-service},1651467358,153545
{consumergroup=trace-service},1651467363,153545
{consumergroup=trace-service},1651467368,153545
{consumergroup=trace-service},1651467373,69316
{consumergroup=trace-service},1651467378,69316
{consumergroup=trace-service},1651467383,69316
{consumergroup=trace-service},1651467388,132484
{consumergroup=trace-service},1651467393,132484
{consumergroup=trace-service},1651467398,132484
{consumergroup=trace-service},1651467403,153844
{consumergroup=trace-token-events-consumer},1651466998,0
{consumergroup=trace-token-events-consumer},1651467003,0
{consumergroup=trace-token-events-consumer},1651467008,0
{consumergroup=trace-token-events-consumer},1651467013,0
{consumergroup=trace-token-events-consumer},1651467018,0
{consumergroup=trace-token-events-consumer},1651467023,0
{consumergroup=trace-token-events-consumer},1651467028,0
{consumergroup=trace-token-events-consumer},1651467033,0
{consumergroup=trace-token-events-consumer},1651467038,0
{consumergroup=trace-token-events-consumer},1651467043,0
{consumergroup=trace-token-events-consumer},1651467048,0
{consumergroup=trace-token-events-consumer},1651467053,0
{consumergroup=trace-token-events-consumer},1651467058,0
{consumergroup=trace-token-events-consumer},1651467063,0
{consumergroup=trace-token-events-consumer},1651467068,0
{consumergroup=trace-token-events-consumer},1651467073,0
{consumergroup=trace-token-events-consumer},1651467078,0
{consumergroup=trace-token-events-consumer},1651467083,0
{consumergroup=trace-token-events-consumer},1651467088,0
{consumergroup=trace-token-events-consumer},1651467093,0
{consumergroup=trace-token-events-consumer},1651467098,0
{consumergroup=trace-token-events-consumer},1651467103,0
{consumergroup=trace-token-events-consumer},1651467108,0
{consumergroup=trace-token-events-consumer},1651467113,0
{consumergroup=trace-token-events-consumer},1651467118,0
{consumergroup=trace-token-events-consumer},1651467123,0
{consumergroup=trace-token-events-consumer},1651467128,0
{consumergroup=trace-token-events-consumer},1651467133,0
{consumergroup=trace-token-events-consumer},1651467138,0
{consumergroup=trace-token-events-consumer},1651467143,0
{consumergroup=trace-token-events-consumer},1651467148,0
{consumergroup=trace-token-events-consumer},1651467153,0
{consumergroup=trace-token-events-consumer},1651467158,0
{consumergroup=trace-token-events-consumer},1651467163,0
{consumergroup=trace-token-events-consumer},1651467168,0
{consumergroup=trace-token-events-consumer},1651467173,0
{consumergroup=trace-token-events-consumer},1651467178,0
{consumergroup=trace-token-events-consumer},1651467183,0
{consumergroup=trace-token-events-consumer},1651467188,0
{consumergroup=trace-token-events-consumer},1651467193,0
{consumergroup=trace-token-events-consumer},1651467198,0
{consumergroup=trace-token-events-consumer},1651467203,0
{consumergroup=trace-token-events-consumer},1651467208,0
{consumergroup=trace-token-events-consumer},1651467213,0
{consumergroup=trace-token-events-consumer},1651467218,0
{consumergroup=trace-token-events-consumer},1651467223,0
{consumergroup=trace-token-events-consumer},1651467228,0
{consumergroup=trace-token-events-consumer},1651467233,0
{consumergroup=trace-token-events-consumer},1651467238,0
{consumergroup=trace-token-events-consumer},1651467243,0
{consumergroup=trace-token-events-consumer},1651467248,0
{consumergroup=trace-token-events-consumer},1651467253,0
{consumergroup=trace-token-events-consumer},1651467258,0
{consumergroup=trace-token-events-consumer},1651467263,0
{consumergroup=trace-token-events-consumer},1651467268,0
{consumergroup=trace-token-events-consumer},1651467273,0
{consumergroup=trace-token-events-consumer},1651467278,0
{consumergroup=trace-token-events-consumer},1651467283,0
{consumergroup=trace-token-events-consumer},1651467288,0
{consumergroup=trace-token-events-consumer},1651467293,0
{consumergroup=trace-token-events-consumer},1651467298,0
{consumergroup=trace-token-events-consumer},1651467303,0
{consumergroup=trace-token-events-consumer},1651467308,0
{consumergroup=trace-token-events-consumer},1651467313,0
{consumergroup=trace-token-events-consumer},1651467318,0
{consumergroup=trace-token-events-consumer},1651467323,0
{consumergroup=trace-token-events-consumer},1651467328,0
{consumergroup=trace-token-events-consumer},1651467333,0
{consumergroup=trace-token-events-consumer},1651467338,0
{consumergroup=trace-token-events-consumer},1651467343,0
{consumergroup=trace-token-events-consumer},1651467348,0
{consumergroup=trace-token-events-consumer},1651467353,0
{consumergroup=trace-token-events-consumer},1651467358,0
{consumergroup=trace-token-events-consumer},1651467363,0
{consumergroup=trace-token-events-consumer},1651467368,0
{consumergroup=trace-token-events-consumer},1651467373,0
{consumergroup=trace-token-events-consumer},1651467378,0
{consumergroup=trace-token-events-consumer},1651467383,0
{consumergroup=trace-token-events-consumer},1651467388,0
{consumergroup=trace-token-events-consumer},1651467393,0
{consumergroup=trace-token-events-consumer},1651467398,0
{consumergroup=trace-token-events-consumer},1651467403,0
