labels,timestamp,value
{job=theodolite-stu200776/trace-isolated-podmonitor},1651504457,0
{job=theodolite-stu200776/trace-isolated-podmonitor},1651504462,0
{job=theodolite-stu200776/trace-isolated-podmonitor},1651504467,0
{job=theodolite-stu200776/trace-isolated-podmonitor},1651504472,0
{job=theodolite-stu200776/trace-isolated-podmonitor},1651504477,0
{job=theodolite-stu200776/trace-isolated-podmonitor},1651504482,0
{job=theodolite-stu200776/trace-isolated-podmonitor},1651504487,0
{job=theodolite-stu200776/trace-isolated-podmonitor},1651504492,0
{job=theodolite-stu200776/trace-isolated-podmonitor},1651504497,0
{job=theodolite-stu200776/trace-isolated-podmonitor},1651504502,0
{job=theodolite-stu200776/trace-isolated-podmonitor},1651504507,0
{job=theodolite-stu200776/trace-isolated-podmonitor},1651504512,0
{job=theodolite-stu200776/trace-isolated-podmonitor},1651504517,0
{job=theodolite-stu200776/trace-isolated-podmonitor},1651504522,0
{job=theodolite-stu200776/trace-isolated-podmonitor},1651504527,0
{job=theodolite-stu200776/trace-isolated-podmonitor},1651504532,0
{job=theodolite-stu200776/trace-isolated-podmonitor},1651504537,0
{job=theodolite-stu200776/trace-isolated-podmonitor},1651504542,0
{job=theodolite-stu200776/trace-isolated-podmonitor},1651504547,0
{job=theodolite-stu200776/trace-isolated-podmonitor},1651504552,0
{job=theodolite-stu200776/trace-isolated-podmonitor},1651504557,0
{job=theodolite-stu200776/trace-isolated-podmonitor},1651504562,0
{job=theodolite-stu200776/trace-isolated-podmonitor},1651504567,0
{job=theodolite-stu200776/trace-isolated-podmonitor},1651504572,0
{job=theodolite-stu200776/trace-isolated-podmonitor},1651504577,0
{job=theodolite-stu200776/trace-isolated-podmonitor},1651504582,0
{job=theodolite-stu200776/trace-isolated-podmonitor},1651504587,0
{job=theodolite-stu200776/trace-isolated-podmonitor},1651504592,0
{job=theodolite-stu200776/trace-isolated-podmonitor},1651504597,0
{job=theodolite-stu200776/trace-isolated-podmonitor},1651504602,0
{job=theodolite-stu200776/trace-isolated-podmonitor},1651504607,0
{job=theodolite-stu200776/trace-isolated-podmonitor},1651504612,0
{job=theodolite-stu200776/trace-isolated-podmonitor},1651504617,0
{job=theodolite-stu200776/trace-isolated-podmonitor},1651504622,0
{job=theodolite-stu200776/trace-isolated-podmonitor},1651504627,0
{job=theodolite-stu200776/trace-isolated-podmonitor},1651504632,0
{job=theodolite-stu200776/trace-isolated-podmonitor},1651504637,0
{job=theodolite-stu200776/trace-isolated-podmonitor},1651504642,0
{job=theodolite-stu200776/trace-isolated-podmonitor},1651504647,0
{job=theodolite-stu200776/trace-isolated-podmonitor},1651504652,0
{job=theodolite-stu200776/trace-isolated-podmonitor},1651504657,0
{job=theodolite-stu200776/trace-isolated-podmonitor},1651504662,0
{job=theodolite-stu200776/trace-isolated-podmonitor},1651504667,0
{job=theodolite-stu200776/trace-isolated-podmonitor},1651504672,0
{job=theodolite-stu200776/trace-isolated-podmonitor},1651504677,0
{job=theodolite-stu200776/trace-isolated-podmonitor},1651504682,0
{job=theodolite-stu200776/trace-isolated-podmonitor},1651504687,0
{job=theodolite-stu200776/trace-isolated-podmonitor},1651504692,0
{job=theodolite-stu200776/trace-isolated-podmonitor},1651504697,0
{job=theodolite-stu200776/trace-isolated-podmonitor},1651504702,0
{job=theodolite-stu200776/trace-isolated-podmonitor},1651504707,0
{job=theodolite-stu200776/trace-isolated-podmonitor},1651504712,0
{job=theodolite-stu200776/trace-isolated-podmonitor},1651504717,0
{job=theodolite-stu200776/trace-isolated-podmonitor},1651504722,0
{job=theodolite-stu200776/trace-isolated-podmonitor},1651504727,0
{job=theodolite-stu200776/trace-isolated-podmonitor},1651504732,0
{job=theodolite-stu200776/trace-isolated-podmonitor},1651504737,0
{job=theodolite-stu200776/trace-isolated-podmonitor},1651504742,0
{job=theodolite-stu200776/trace-isolated-podmonitor},1651504747,0
{job=theodolite-stu200776/trace-isolated-podmonitor},1651504752,0
{job=theodolite-stu200776/trace-isolated-podmonitor},1651504757,0
{job=theodolite-stu200776/trace-isolated-podmonitor},1651504762,0
{job=theodolite-stu200776/trace-isolated-podmonitor},1651504767,0
{job=theodolite-stu200776/trace-isolated-podmonitor},1651504772,0
{job=theodolite-stu200776/trace-isolated-podmonitor},1651504777,0
{job=theodolite-stu200776/trace-isolated-podmonitor},1651504782,0
{job=theodolite-stu200776/trace-isolated-podmonitor},1651504787,0
{job=theodolite-stu200776/trace-isolated-podmonitor},1651504792,0
{job=theodolite-stu200776/trace-isolated-podmonitor},1651504797,0
{job=theodolite-stu200776/trace-isolated-podmonitor},1651504802,0
{job=theodolite-stu200776/trace-isolated-podmonitor},1651504807,0
{job=theodolite-stu200776/trace-isolated-podmonitor},1651504812,0
{job=theodolite-stu200776/trace-isolated-podmonitor},1651504817,0
{job=theodolite-stu200776/trace-isolated-podmonitor},1651504822,0
{job=theodolite-stu200776/trace-isolated-podmonitor},1651504827,0
