labels,timestamp,value
{consumergroup=__strimzi-topic-operator-kstreams},1651435772,9
{consumergroup=__strimzi-topic-operator-kstreams},1651435777,9
{consumergroup=__strimzi-topic-operator-kstreams},1651435782,9
{consumergroup=__strimzi-topic-operator-kstreams},1651435787,0
{consumergroup=__strimzi-topic-operator-kstreams},1651435792,0
{consumergroup=__strimzi-topic-operator-kstreams},1651435797,0
{consumergroup=__strimzi-topic-operator-kstreams},1651435802,0
{consumergroup=__strimzi-topic-operator-kstreams},1651435807,0
{consumergroup=__strimzi-topic-operator-kstreams},1651435812,0
{consumergroup=__strimzi-topic-operator-kstreams},1651435817,0
{consumergroup=__strimzi-topic-operator-kstreams},1651435822,0
{consumergroup=__strimzi-topic-operator-kstreams},1651435827,0
{consumergroup=__strimzi-topic-operator-kstreams},1651435832,0
{consumergroup=__strimzi-topic-operator-kstreams},1651435837,0
{consumergroup=__strimzi-topic-operator-kstreams},1651435842,0
{consumergroup=__strimzi-topic-operator-kstreams},1651435847,0
{consumergroup=__strimzi-topic-operator-kstreams},1651435852,0
{consumergroup=__strimzi-topic-operator-kstreams},1651435857,0
{consumergroup=__strimzi-topic-operator-kstreams},1651435862,0
{consumergroup=__strimzi-topic-operator-kstreams},1651435867,0
{consumergroup=__strimzi-topic-operator-kstreams},1651435872,0
{consumergroup=__strimzi-topic-operator-kstreams},1651435877,0
{consumergroup=__strimzi-topic-operator-kstreams},1651435882,0
{consumergroup=__strimzi-topic-operator-kstreams},1651435887,0
{consumergroup=__strimzi-topic-operator-kstreams},1651435892,0
{consumergroup=__strimzi-topic-operator-kstreams},1651435897,0
{consumergroup=__strimzi-topic-operator-kstreams},1651435902,0
{consumergroup=__strimzi-topic-operator-kstreams},1651435907,0
{consumergroup=__strimzi-topic-operator-kstreams},1651435912,0
{consumergroup=__strimzi-topic-operator-kstreams},1651435917,0
{consumergroup=__strimzi-topic-operator-kstreams},1651435922,0
{consumergroup=__strimzi-topic-operator-kstreams},1651435927,0
{consumergroup=__strimzi-topic-operator-kstreams},1651435932,0
{consumergroup=__strimzi-topic-operator-kstreams},1651435937,0
{consumergroup=__strimzi-topic-operator-kstreams},1651435942,0
{consumergroup=__strimzi-topic-operator-kstreams},1651435947,0
{consumergroup=__strimzi-topic-operator-kstreams},1651435952,0
{consumergroup=__strimzi-topic-operator-kstreams},1651435957,0
{consumergroup=__strimzi-topic-operator-kstreams},1651435962,0
{consumergroup=__strimzi-topic-operator-kstreams},1651435967,0
{consumergroup=__strimzi-topic-operator-kstreams},1651435972,0
{consumergroup=__strimzi-topic-operator-kstreams},1651435977,0
{consumergroup=__strimzi-topic-operator-kstreams},1651435982,0
{consumergroup=__strimzi-topic-operator-kstreams},1651435987,0
{consumergroup=__strimzi-topic-operator-kstreams},1651435992,0
{consumergroup=__strimzi-topic-operator-kstreams},1651435997,0
{consumergroup=__strimzi-topic-operator-kstreams},1651436002,0
{consumergroup=__strimzi-topic-operator-kstreams},1651436007,0
{consumergroup=__strimzi-topic-operator-kstreams},1651436012,0
{consumergroup=__strimzi-topic-operator-kstreams},1651436017,0
{consumergroup=__strimzi-topic-operator-kstreams},1651436022,0
{consumergroup=adapter-service},1651435802,64413
{consumergroup=adapter-service},1651435807,64413
{consumergroup=adapter-service},1651435812,64413
{consumergroup=adapter-service},1651435817,211261
{consumergroup=adapter-service},1651435822,211261
{consumergroup=adapter-service},1651435827,211261
{consumergroup=adapter-service},1651435832,314994
{consumergroup=adapter-service},1651435837,314994
{consumergroup=adapter-service},1651435842,314994
{consumergroup=adapter-service},1651435847,399277
{consumergroup=adapter-service},1651435852,399277
{consumergroup=adapter-service},1651435857,399277
{consumergroup=adapter-service},1651435862,472056
{consumergroup=adapter-service},1651435867,472056
{consumergroup=adapter-service},1651435872,472056
{consumergroup=adapter-service},1651435877,522393
{consumergroup=adapter-service},1651435882,522393
{consumergroup=adapter-service},1651435887,522393
{consumergroup=adapter-service},1651435892,557395
{consumergroup=adapter-service},1651435897,557395
{consumergroup=adapter-service},1651435902,557395
{consumergroup=adapter-service},1651435907,557329
{consumergroup=adapter-service},1651435912,557329
{consumergroup=adapter-service},1651435917,557329
{consumergroup=adapter-service},1651435922,550471
{consumergroup=adapter-service},1651435927,550471
{consumergroup=adapter-service},1651435932,550471
{consumergroup=adapter-service},1651435937,518263
{consumergroup=adapter-service},1651435942,518263
{consumergroup=adapter-service},1651435947,518263
{consumergroup=adapter-service},1651435952,513064
{consumergroup=adapter-service},1651435957,513064
{consumergroup=adapter-service},1651435962,513064
{consumergroup=adapter-service},1651435967,478909
{consumergroup=adapter-service},1651435972,478909
{consumergroup=adapter-service},1651435977,478909
{consumergroup=adapter-service},1651435982,453217
{consumergroup=adapter-service},1651435987,453217
{consumergroup=adapter-service},1651435992,453217
{consumergroup=adapter-service},1651435997,423129
{consumergroup=adapter-service},1651436002,423129
{consumergroup=adapter-service},1651436007,423129
{consumergroup=adapter-service},1651436012,385715
{consumergroup=adapter-service},1651436017,385715
{consumergroup=adapter-service},1651436022,385715
