labels,timestamp,value
{consumergroup=__strimzi-topic-operator-kstreams},1651536580,0
{consumergroup=__strimzi-topic-operator-kstreams},1651536585,0
{consumergroup=__strimzi-topic-operator-kstreams},1651536590,0
{consumergroup=__strimzi-topic-operator-kstreams},1651536595,8
{consumergroup=__strimzi-topic-operator-kstreams},1651536600,8
{consumergroup=__strimzi-topic-operator-kstreams},1651536605,8
{consumergroup=__strimzi-topic-operator-kstreams},1651536610,0
{consumergroup=__strimzi-topic-operator-kstreams},1651536615,0
{consumergroup=__strimzi-topic-operator-kstreams},1651536620,0
{consumergroup=__strimzi-topic-operator-kstreams},1651536625,0
{consumergroup=__strimzi-topic-operator-kstreams},1651536630,0
{consumergroup=__strimzi-topic-operator-kstreams},1651536635,0
{consumergroup=__strimzi-topic-operator-kstreams},1651536640,0
{consumergroup=__strimzi-topic-operator-kstreams},1651536645,0
{consumergroup=__strimzi-topic-operator-kstreams},1651536650,0
{consumergroup=__strimzi-topic-operator-kstreams},1651536655,0
{consumergroup=__strimzi-topic-operator-kstreams},1651536660,0
{consumergroup=__strimzi-topic-operator-kstreams},1651536665,0
{consumergroup=__strimzi-topic-operator-kstreams},1651536670,0
{consumergroup=__strimzi-topic-operator-kstreams},1651536675,0
{consumergroup=__strimzi-topic-operator-kstreams},1651536680,0
{consumergroup=__strimzi-topic-operator-kstreams},1651536685,0
{consumergroup=__strimzi-topic-operator-kstreams},1651536690,0
{consumergroup=__strimzi-topic-operator-kstreams},1651536695,0
{consumergroup=__strimzi-topic-operator-kstreams},1651536700,0
{consumergroup=__strimzi-topic-operator-kstreams},1651536705,0
{consumergroup=__strimzi-topic-operator-kstreams},1651536710,0
{consumergroup=__strimzi-topic-operator-kstreams},1651536715,0
{consumergroup=__strimzi-topic-operator-kstreams},1651536720,0
{consumergroup=__strimzi-topic-operator-kstreams},1651536725,0
{consumergroup=__strimzi-topic-operator-kstreams},1651536730,0
{consumergroup=__strimzi-topic-operator-kstreams},1651536735,0
{consumergroup=__strimzi-topic-operator-kstreams},1651536740,0
{consumergroup=__strimzi-topic-operator-kstreams},1651536745,0
{consumergroup=__strimzi-topic-operator-kstreams},1651536750,0
{consumergroup=__strimzi-topic-operator-kstreams},1651536755,0
{consumergroup=__strimzi-topic-operator-kstreams},1651536760,0
{consumergroup=__strimzi-topic-operator-kstreams},1651536765,0
{consumergroup=__strimzi-topic-operator-kstreams},1651536770,0
{consumergroup=__strimzi-topic-operator-kstreams},1651536775,0
{consumergroup=__strimzi-topic-operator-kstreams},1651536780,0
{consumergroup=__strimzi-topic-operator-kstreams},1651536785,0
{consumergroup=__strimzi-topic-operator-kstreams},1651536790,0
{consumergroup=__strimzi-topic-operator-kstreams},1651536795,0
{consumergroup=__strimzi-topic-operator-kstreams},1651536800,0
{consumergroup=__strimzi-topic-operator-kstreams},1651536805,0
{consumergroup=__strimzi-topic-operator-kstreams},1651536810,0
{consumergroup=__strimzi-topic-operator-kstreams},1651536815,0
{consumergroup=__strimzi-topic-operator-kstreams},1651536820,0
{consumergroup=__strimzi-topic-operator-kstreams},1651536825,0
{consumergroup=__strimzi-topic-operator-kstreams},1651536830,0
{consumergroup=__strimzi-topic-operator-kstreams},1651536835,0
{consumergroup=__strimzi-topic-operator-kstreams},1651536840,0
{consumergroup=__strimzi-topic-operator-kstreams},1651536845,0
{consumergroup=__strimzi-topic-operator-kstreams},1651536850,0
{consumergroup=__strimzi-topic-operator-kstreams},1651536855,0
{consumergroup=__strimzi-topic-operator-kstreams},1651536860,0
{consumergroup=__strimzi-topic-operator-kstreams},1651536865,0
{consumergroup=__strimzi-topic-operator-kstreams},1651536870,0
{consumergroup=__strimzi-topic-operator-kstreams},1651536875,0
{consumergroup=__strimzi-topic-operator-kstreams},1651536880,0
{consumergroup=__strimzi-topic-operator-kstreams},1651536885,0
{consumergroup=__strimzi-topic-operator-kstreams},1651536890,0
{consumergroup=__strimzi-topic-operator-kstreams},1651536895,0
{consumergroup=__strimzi-topic-operator-kstreams},1651536900,0
{consumergroup=__strimzi-topic-operator-kstreams},1651536905,0
{consumergroup=__strimzi-topic-operator-kstreams},1651536910,0
{consumergroup=__strimzi-topic-operator-kstreams},1651536915,0
{consumergroup=__strimzi-topic-operator-kstreams},1651536920,0
{consumergroup=__strimzi-topic-operator-kstreams},1651536925,0
{consumergroup=__strimzi-topic-operator-kstreams},1651536930,0
{consumergroup=__strimzi-topic-operator-kstreams},1651536935,0
{consumergroup=__strimzi-topic-operator-kstreams},1651536940,0
{consumergroup=__strimzi-topic-operator-kstreams},1651536945,0
{consumergroup=__strimzi-topic-operator-kstreams},1651536950,0
{consumergroup=__strimzi-topic-operator-kstreams},1651536955,0
{consumergroup=__strimzi-topic-operator-kstreams},1651536960,0
{consumergroup=__strimzi-topic-operator-kstreams},1651536965,0
{consumergroup=__strimzi-topic-operator-kstreams},1651536970,0
{consumergroup=__strimzi-topic-operator-kstreams},1651536975,0
{consumergroup=__strimzi-topic-operator-kstreams},1651536980,0
{consumergroup=__strimzi-topic-operator-kstreams},1651536985,0
{consumergroup=__strimzi-topic-operator-kstreams},1651536990,0
{consumergroup=__strimzi-topic-operator-kstreams},1651536995,0
{consumergroup=__strimzi-topic-operator-kstreams},1651537000,0
{consumergroup=__strimzi-topic-operator-kstreams},1651537005,0
{consumergroup=__strimzi-topic-operator-kstreams},1651537010,0
{consumergroup=__strimzi-topic-operator-kstreams},1651537015,0
{consumergroup=__strimzi-topic-operator-kstreams},1651537020,0
{consumergroup=__strimzi-topic-operator-kstreams},1651537025,0
{consumergroup=__strimzi-topic-operator-kstreams},1651537030,0
{consumergroup=adapter-service},1651536625,4303
{consumergroup=adapter-service},1651536630,4303
{consumergroup=adapter-service},1651536635,4303
{consumergroup=adapter-service},1651536640,3065
{consumergroup=adapter-service},1651536645,3065
{consumergroup=adapter-service},1651536650,3065
{consumergroup=adapter-service},1651536655,4461
{consumergroup=adapter-service},1651536660,4461
{consumergroup=adapter-service},1651536665,4461
{consumergroup=adapter-service},1651536670,8674
{consumergroup=adapter-service},1651536675,8674
{consumergroup=adapter-service},1651536680,8674
{consumergroup=adapter-service},1651536685,10079
{consumergroup=adapter-service},1651536690,10079
{consumergroup=adapter-service},1651536695,10079
{consumergroup=adapter-service},1651536700,14651
{consumergroup=adapter-service},1651536705,14651
{consumergroup=adapter-service},1651536710,14651
{consumergroup=adapter-service},1651536715,14417
{consumergroup=adapter-service},1651536720,14417
{consumergroup=adapter-service},1651536725,14417
{consumergroup=adapter-service},1651536730,17773
{consumergroup=adapter-service},1651536735,17773
{consumergroup=adapter-service},1651536740,17773
{consumergroup=adapter-service},1651536745,17850
{consumergroup=adapter-service},1651536750,17850
{consumergroup=adapter-service},1651536755,17850
{consumergroup=adapter-service},1651536760,17264
{consumergroup=adapter-service},1651536765,17264
{consumergroup=adapter-service},1651536770,17264
{consumergroup=adapter-service},1651536775,17159
{consumergroup=adapter-service},1651536780,17159
{consumergroup=adapter-service},1651536785,17159
{consumergroup=adapter-service},1651536790,17985
{consumergroup=adapter-service},1651536795,17985
{consumergroup=adapter-service},1651536800,17985
{consumergroup=adapter-service},1651536805,19499
{consumergroup=adapter-service},1651536810,19499
{consumergroup=adapter-service},1651536815,19499
{consumergroup=adapter-service},1651536820,18248
{consumergroup=adapter-service},1651536825,18248
{consumergroup=adapter-service},1651536830,18248
{consumergroup=adapter-service},1651536835,18058
{consumergroup=adapter-service},1651536840,18058
{consumergroup=adapter-service},1651536845,18058
{consumergroup=adapter-service},1651536850,19209
{consumergroup=adapter-service},1651536855,19209
{consumergroup=adapter-service},1651536860,19209
{consumergroup=adapter-service},1651536865,17815
{consumergroup=adapter-service},1651536870,17815
{consumergroup=adapter-service},1651536875,17815
{consumergroup=adapter-service},1651536880,18494
{consumergroup=adapter-service},1651536885,18494
{consumergroup=adapter-service},1651536890,18494
{consumergroup=adapter-service},1651536895,18330
{consumergroup=adapter-service},1651536900,18330
{consumergroup=adapter-service},1651536905,18330
{consumergroup=adapter-service},1651536910,16672
{consumergroup=adapter-service},1651536915,16672
{consumergroup=adapter-service},1651536920,16672
{consumergroup=adapter-service},1651536925,17004
{consumergroup=adapter-service},1651536930,17004
{consumergroup=adapter-service},1651536935,17004
{consumergroup=adapter-service},1651536940,16224
{consumergroup=adapter-service},1651536945,16224
{consumergroup=adapter-service},1651536950,16224
{consumergroup=adapter-service},1651536955,16711
{consumergroup=adapter-service},1651536960,16711
{consumergroup=adapter-service},1651536965,16711
{consumergroup=adapter-service},1651536970,15878
{consumergroup=adapter-service},1651536975,15878
{consumergroup=adapter-service},1651536980,15878
{consumergroup=adapter-service},1651536985,16036
{consumergroup=adapter-service},1651536990,16036
{consumergroup=adapter-service},1651536995,16036
{consumergroup=adapter-service},1651537000,16827
{consumergroup=adapter-service},1651537005,16827
{consumergroup=adapter-service},1651537010,16827
{consumergroup=adapter-service},1651537015,15633
{consumergroup=adapter-service},1651537020,15633
{consumergroup=adapter-service},1651537025,15633
{consumergroup=adapter-service},1651537030,14967
{consumergroup=landscape-service},1651536640,66603
{consumergroup=landscape-service},1651536645,66603
{consumergroup=landscape-service},1651536650,66603
{consumergroup=landscape-service},1651536655,49873
{consumergroup=landscape-service},1651536660,49873
{consumergroup=landscape-service},1651536665,49873
{consumergroup=landscape-service},1651536670,13782
{consumergroup=landscape-service},1651536675,13782
{consumergroup=landscape-service},1651536680,13782
{consumergroup=landscape-service},1651536685,12689
{consumergroup=landscape-service},1651536690,12689
{consumergroup=landscape-service},1651536695,12689
{consumergroup=landscape-service},1651536700,11056
{consumergroup=landscape-service},1651536705,11056
{consumergroup=landscape-service},1651536710,11056
{consumergroup=landscape-service},1651536715,10234
{consumergroup=landscape-service},1651536720,10234
{consumergroup=landscape-service},1651536725,10234
{consumergroup=landscape-service},1651536730,8342
{consumergroup=landscape-service},1651536735,8342
{consumergroup=landscape-service},1651536740,8342
{consumergroup=landscape-service},1651536745,7165
{consumergroup=landscape-service},1651536750,7165
{consumergroup=landscape-service},1651536755,7165
{consumergroup=landscape-service},1651536760,9135
{consumergroup=landscape-service},1651536765,9135
{consumergroup=landscape-service},1651536770,9135
{consumergroup=landscape-service},1651536775,7359
{consumergroup=landscape-service},1651536780,7359
{consumergroup=landscape-service},1651536785,7359
{consumergroup=landscape-service},1651536790,7498
{consumergroup=landscape-service},1651536795,7498
{consumergroup=landscape-service},1651536800,7498
{consumergroup=landscape-service},1651536805,6744
{consumergroup=landscape-service},1651536810,6744
{consumergroup=landscape-service},1651536815,6744
{consumergroup=landscape-service},1651536820,5801
{consumergroup=landscape-service},1651536825,5801
{consumergroup=landscape-service},1651536830,5801
{consumergroup=landscape-service},1651536835,4026
{consumergroup=landscape-service},1651536840,4026
{consumergroup=landscape-service},1651536845,4026
{consumergroup=landscape-service},1651536850,3027
{consumergroup=landscape-service},1651536855,3027
{consumergroup=landscape-service},1651536860,3027
{consumergroup=landscape-service},1651536865,2287
{consumergroup=landscape-service},1651536870,2287
{consumergroup=landscape-service},1651536875,2287
{consumergroup=landscape-service},1651536880,1092
{consumergroup=landscape-service},1651536885,1092
{consumergroup=landscape-service},1651536890,1092
{consumergroup=landscape-service},1651536895,23252
{consumergroup=landscape-service},1651536900,23252
{consumergroup=landscape-service},1651536905,23252
{consumergroup=landscape-service},1651536910,22498
{consumergroup=landscape-service},1651536915,22498
{consumergroup=landscape-service},1651536920,22498
{consumergroup=landscape-service},1651536925,23068
{consumergroup=landscape-service},1651536930,23068
{consumergroup=landscape-service},1651536935,23068
{consumergroup=landscape-service},1651536940,20159
{consumergroup=landscape-service},1651536945,20159
{consumergroup=landscape-service},1651536950,20159
{consumergroup=landscape-service},1651536955,19603
{consumergroup=landscape-service},1651536960,19603
{consumergroup=landscape-service},1651536965,19603
{consumergroup=landscape-service},1651536970,18916
{consumergroup=landscape-service},1651536975,18916
{consumergroup=landscape-service},1651536980,18916
{consumergroup=landscape-service},1651536985,17922
{consumergroup=landscape-service},1651536990,17922
{consumergroup=landscape-service},1651536995,17922
{consumergroup=landscape-service},1651537000,16138
{consumergroup=landscape-service},1651537005,16138
{consumergroup=landscape-service},1651537010,16138
{consumergroup=landscape-service},1651537015,14881
{consumergroup=landscape-service},1651537020,14881
{consumergroup=landscape-service},1651537025,14881
{consumergroup=landscape-service},1651537030,14679
{consumergroup=trace-service},1651536640,55284
{consumergroup=trace-service},1651536645,55284
{consumergroup=trace-service},1651536650,55284
{consumergroup=trace-service},1651536655,68606
{consumergroup=trace-service},1651536660,68606
{consumergroup=trace-service},1651536665,68606
{consumergroup=trace-service},1651536670,53235
{consumergroup=trace-service},1651536675,53235
{consumergroup=trace-service},1651536680,53235
{consumergroup=trace-service},1651536685,112446
{consumergroup=trace-service},1651536690,112446
{consumergroup=trace-service},1651536695,112446
{consumergroup=trace-service},1651536700,53421
{consumergroup=trace-service},1651536705,53421
{consumergroup=trace-service},1651536710,53421
{consumergroup=trace-service},1651536715,104114
{consumergroup=trace-service},1651536720,104114
{consumergroup=trace-service},1651536725,104114
{consumergroup=trace-service},1651536730,51396
{consumergroup=trace-service},1651536735,51396
{consumergroup=trace-service},1651536740,51396
{consumergroup=trace-service},1651536745,100778
{consumergroup=trace-service},1651536750,100778
{consumergroup=trace-service},1651536755,100778
{consumergroup=trace-service},1651536760,106855
{consumergroup=trace-service},1651536765,106855
{consumergroup=trace-service},1651536770,106855
{consumergroup=trace-service},1651536775,131274
{consumergroup=trace-service},1651536780,131274
{consumergroup=trace-service},1651536785,131274
{consumergroup=trace-service},1651536790,49960
{consumergroup=trace-service},1651536795,49960
{consumergroup=trace-service},1651536800,49960
{consumergroup=trace-service},1651536805,108743
{consumergroup=trace-service},1651536810,108743
{consumergroup=trace-service},1651536815,108743
{consumergroup=trace-service},1651536820,83194
{consumergroup=trace-service},1651536825,83194
{consumergroup=trace-service},1651536830,83194
{consumergroup=trace-service},1651536835,119395
{consumergroup=trace-service},1651536840,119395
{consumergroup=trace-service},1651536845,119395
{consumergroup=trace-service},1651536850,50704
{consumergroup=trace-service},1651536855,50704
{consumergroup=trace-service},1651536860,50704
{consumergroup=trace-service},1651536865,108778
{consumergroup=trace-service},1651536870,108778
{consumergroup=trace-service},1651536875,108778
{consumergroup=trace-service},1651536880,96289
{consumergroup=trace-service},1651536885,96289
{consumergroup=trace-service},1651536890,96289
{consumergroup=trace-service},1651536895,101446
{consumergroup=trace-service},1651536900,101446
{consumergroup=trace-service},1651536905,101446
{consumergroup=trace-service},1651536910,51189
{consumergroup=trace-service},1651536915,51189
{consumergroup=trace-service},1651536920,51189
{consumergroup=trace-service},1651536925,104448
{consumergroup=trace-service},1651536930,104448
{consumergroup=trace-service},1651536935,104448
{consumergroup=trace-service},1651536940,80573
{consumergroup=trace-service},1651536945,80573
{consumergroup=trace-service},1651536950,80573
{consumergroup=trace-service},1651536955,110759
{consumergroup=trace-service},1651536960,110759
{consumergroup=trace-service},1651536965,110759
{consumergroup=trace-service},1651536970,50054
{consumergroup=trace-service},1651536975,50054
{consumergroup=trace-service},1651536980,50054
{consumergroup=trace-service},1651536985,101501
{consumergroup=trace-service},1651536990,101501
{consumergroup=trace-service},1651536995,101501
{consumergroup=trace-service},1651537000,133247
{consumergroup=trace-service},1651537005,133247
{consumergroup=trace-service},1651537010,133247
{consumergroup=trace-service},1651537015,119242
{consumergroup=trace-service},1651537020,119242
{consumergroup=trace-service},1651537025,119242
{consumergroup=trace-service},1651537030,183564
{consumergroup=trace-token-events-consumer},1651536610,0
{consumergroup=trace-token-events-consumer},1651536615,0
{consumergroup=trace-token-events-consumer},1651536620,0
{consumergroup=trace-token-events-consumer},1651536625,0
{consumergroup=trace-token-events-consumer},1651536630,0
{consumergroup=trace-token-events-consumer},1651536635,0
{consumergroup=trace-token-events-consumer},1651536640,0
{consumergroup=trace-token-events-consumer},1651536645,0
{consumergroup=trace-token-events-consumer},1651536650,0
{consumergroup=trace-token-events-consumer},1651536655,0
{consumergroup=trace-token-events-consumer},1651536660,0
{consumergroup=trace-token-events-consumer},1651536665,0
{consumergroup=trace-token-events-consumer},1651536670,0
{consumergroup=trace-token-events-consumer},1651536675,0
{consumergroup=trace-token-events-consumer},1651536680,0
{consumergroup=trace-token-events-consumer},1651536685,0
{consumergroup=trace-token-events-consumer},1651536690,0
{consumergroup=trace-token-events-consumer},1651536695,0
{consumergroup=trace-token-events-consumer},1651536700,0
{consumergroup=trace-token-events-consumer},1651536705,0
{consumergroup=trace-token-events-consumer},1651536710,0
{consumergroup=trace-token-events-consumer},1651536715,0
{consumergroup=trace-token-events-consumer},1651536720,0
{consumergroup=trace-token-events-consumer},1651536725,0
{consumergroup=trace-token-events-consumer},1651536730,0
{consumergroup=trace-token-events-consumer},1651536735,0
{consumergroup=trace-token-events-consumer},1651536740,0
{consumergroup=trace-token-events-consumer},1651536745,0
{consumergroup=trace-token-events-consumer},1651536750,0
{consumergroup=trace-token-events-consumer},1651536755,0
{consumergroup=trace-token-events-consumer},1651536760,0
{consumergroup=trace-token-events-consumer},1651536765,0
{consumergroup=trace-token-events-consumer},1651536770,0
{consumergroup=trace-token-events-consumer},1651536775,0
{consumergroup=trace-token-events-consumer},1651536780,0
{consumergroup=trace-token-events-consumer},1651536785,0
{consumergroup=trace-token-events-consumer},1651536790,0
{consumergroup=trace-token-events-consumer},1651536795,0
{consumergroup=trace-token-events-consumer},1651536800,0
{consumergroup=trace-token-events-consumer},1651536805,0
{consumergroup=trace-token-events-consumer},1651536810,0
{consumergroup=trace-token-events-consumer},1651536815,0
{consumergroup=trace-token-events-consumer},1651536820,0
{consumergroup=trace-token-events-consumer},1651536825,0
{consumergroup=trace-token-events-consumer},1651536830,0
{consumergroup=trace-token-events-consumer},1651536835,0
{consumergroup=trace-token-events-consumer},1651536840,0
{consumergroup=trace-token-events-consumer},1651536845,0
{consumergroup=trace-token-events-consumer},1651536850,0
{consumergroup=trace-token-events-consumer},1651536855,0
{consumergroup=trace-token-events-consumer},1651536860,0
{consumergroup=trace-token-events-consumer},1651536865,0
{consumergroup=trace-token-events-consumer},1651536870,0
{consumergroup=trace-token-events-consumer},1651536875,0
{consumergroup=trace-token-events-consumer},1651536880,0
{consumergroup=trace-token-events-consumer},1651536885,0
{consumergroup=trace-token-events-consumer},1651536890,0
{consumergroup=trace-token-events-consumer},1651536895,0
{consumergroup=trace-token-events-consumer},1651536900,0
{consumergroup=trace-token-events-consumer},1651536905,0
{consumergroup=trace-token-events-consumer},1651536910,0
{consumergroup=trace-token-events-consumer},1651536915,0
{consumergroup=trace-token-events-consumer},1651536920,0
{consumergroup=trace-token-events-consumer},1651536925,0
{consumergroup=trace-token-events-consumer},1651536930,0
{consumergroup=trace-token-events-consumer},1651536935,0
{consumergroup=trace-token-events-consumer},1651536940,0
{consumergroup=trace-token-events-consumer},1651536945,0
{consumergroup=trace-token-events-consumer},1651536950,0
{consumergroup=trace-token-events-consumer},1651536955,0
{consumergroup=trace-token-events-consumer},1651536960,0
{consumergroup=trace-token-events-consumer},1651536965,0
{consumergroup=trace-token-events-consumer},1651536970,0
{consumergroup=trace-token-events-consumer},1651536975,0
{consumergroup=trace-token-events-consumer},1651536980,0
{consumergroup=trace-token-events-consumer},1651536985,0
{consumergroup=trace-token-events-consumer},1651536990,0
{consumergroup=trace-token-events-consumer},1651536995,0
{consumergroup=trace-token-events-consumer},1651537000,0
{consumergroup=trace-token-events-consumer},1651537005,0
{consumergroup=trace-token-events-consumer},1651537010,0
{consumergroup=trace-token-events-consumer},1651537015,0
{consumergroup=trace-token-events-consumer},1651537020,0
{consumergroup=trace-token-events-consumer},1651537025,0
{consumergroup=trace-token-events-consumer},1651537030,0
