labels,timestamp,value
{consumergroup=__strimzi-topic-operator-kstreams},1651542149,9
{consumergroup=__strimzi-topic-operator-kstreams},1651542154,9
{consumergroup=__strimzi-topic-operator-kstreams},1651542159,9
{consumergroup=__strimzi-topic-operator-kstreams},1651542164,9
{consumergroup=__strimzi-topic-operator-kstreams},1651542169,9
{consumergroup=__strimzi-topic-operator-kstreams},1651542174,9
{consumergroup=__strimzi-topic-operator-kstreams},1651542179,3
{consumergroup=__strimzi-topic-operator-kstreams},1651542184,3
{consumergroup=__strimzi-topic-operator-kstreams},1651542189,3
{consumergroup=__strimzi-topic-operator-kstreams},1651542194,3
{consumergroup=__strimzi-topic-operator-kstreams},1651542199,3
{consumergroup=__strimzi-topic-operator-kstreams},1651542204,3
{consumergroup=__strimzi-topic-operator-kstreams},1651542209,0
{consumergroup=__strimzi-topic-operator-kstreams},1651542214,0
{consumergroup=__strimzi-topic-operator-kstreams},1651542219,0
{consumergroup=__strimzi-topic-operator-kstreams},1651542224,0
{consumergroup=__strimzi-topic-operator-kstreams},1651542229,0
{consumergroup=__strimzi-topic-operator-kstreams},1651542234,0
{consumergroup=__strimzi-topic-operator-kstreams},1651542239,0
{consumergroup=__strimzi-topic-operator-kstreams},1651542244,0
{consumergroup=__strimzi-topic-operator-kstreams},1651542249,0
{consumergroup=__strimzi-topic-operator-kstreams},1651542254,0
{consumergroup=__strimzi-topic-operator-kstreams},1651542259,0
{consumergroup=__strimzi-topic-operator-kstreams},1651542264,0
{consumergroup=__strimzi-topic-operator-kstreams},1651542269,0
{consumergroup=__strimzi-topic-operator-kstreams},1651542274,0
{consumergroup=__strimzi-topic-operator-kstreams},1651542279,0
{consumergroup=__strimzi-topic-operator-kstreams},1651542284,0
{consumergroup=__strimzi-topic-operator-kstreams},1651542289,0
{consumergroup=__strimzi-topic-operator-kstreams},1651542294,0
{consumergroup=__strimzi-topic-operator-kstreams},1651542299,0
{consumergroup=__strimzi-topic-operator-kstreams},1651542304,0
{consumergroup=__strimzi-topic-operator-kstreams},1651542309,0
{consumergroup=__strimzi-topic-operator-kstreams},1651542314,0
{consumergroup=__strimzi-topic-operator-kstreams},1651542319,0
{consumergroup=__strimzi-topic-operator-kstreams},1651542324,0
{consumergroup=__strimzi-topic-operator-kstreams},1651542329,0
{consumergroup=__strimzi-topic-operator-kstreams},1651542334,0
{consumergroup=__strimzi-topic-operator-kstreams},1651542339,0
{consumergroup=__strimzi-topic-operator-kstreams},1651542344,0
{consumergroup=__strimzi-topic-operator-kstreams},1651542349,0
{consumergroup=__strimzi-topic-operator-kstreams},1651542354,0
{consumergroup=__strimzi-topic-operator-kstreams},1651542359,0
{consumergroup=__strimzi-topic-operator-kstreams},1651542364,0
{consumergroup=__strimzi-topic-operator-kstreams},1651542369,0
{consumergroup=__strimzi-topic-operator-kstreams},1651542374,0
{consumergroup=__strimzi-topic-operator-kstreams},1651542379,0
{consumergroup=__strimzi-topic-operator-kstreams},1651542384,0
{consumergroup=__strimzi-topic-operator-kstreams},1651542389,0
{consumergroup=__strimzi-topic-operator-kstreams},1651542394,0
{consumergroup=__strimzi-topic-operator-kstreams},1651542399,0
{consumergroup=__strimzi-topic-operator-kstreams},1651542404,0
{consumergroup=__strimzi-topic-operator-kstreams},1651542409,0
{consumergroup=__strimzi-topic-operator-kstreams},1651542414,0
{consumergroup=__strimzi-topic-operator-kstreams},1651542419,0
{consumergroup=__strimzi-topic-operator-kstreams},1651542424,0
{consumergroup=__strimzi-topic-operator-kstreams},1651542429,0
{consumergroup=__strimzi-topic-operator-kstreams},1651542434,0
{consumergroup=__strimzi-topic-operator-kstreams},1651542439,0
{consumergroup=__strimzi-topic-operator-kstreams},1651542444,0
{consumergroup=__strimzi-topic-operator-kstreams},1651542449,0
{consumergroup=__strimzi-topic-operator-kstreams},1651542454,0
{consumergroup=__strimzi-topic-operator-kstreams},1651542459,0
{consumergroup=__strimzi-topic-operator-kstreams},1651542464,0
{consumergroup=__strimzi-topic-operator-kstreams},1651542469,0
{consumergroup=__strimzi-topic-operator-kstreams},1651542474,0
{consumergroup=__strimzi-topic-operator-kstreams},1651542479,0
{consumergroup=__strimzi-topic-operator-kstreams},1651542484,0
{consumergroup=__strimzi-topic-operator-kstreams},1651542489,0
{consumergroup=__strimzi-topic-operator-kstreams},1651542494,0
{consumergroup=__strimzi-topic-operator-kstreams},1651542499,0
{consumergroup=__strimzi-topic-operator-kstreams},1651542504,0
{consumergroup=__strimzi-topic-operator-kstreams},1651542509,0
{consumergroup=__strimzi-topic-operator-kstreams},1651542514,0
{consumergroup=__strimzi-topic-operator-kstreams},1651542519,0
{consumergroup=__strimzi-topic-operator-kstreams},1651542524,0
{consumergroup=__strimzi-topic-operator-kstreams},1651542529,0
{consumergroup=__strimzi-topic-operator-kstreams},1651542534,0
{consumergroup=__strimzi-topic-operator-kstreams},1651542539,0
{consumergroup=__strimzi-topic-operator-kstreams},1651542544,0
{consumergroup=__strimzi-topic-operator-kstreams},1651542549,0
{consumergroup=__strimzi-topic-operator-kstreams},1651542554,0
{consumergroup=__strimzi-topic-operator-kstreams},1651542559,0
{consumergroup=__strimzi-topic-operator-kstreams},1651542564,0
{consumergroup=__strimzi-topic-operator-kstreams},1651542569,0
{consumergroup=__strimzi-topic-operator-kstreams},1651542574,0
{consumergroup=__strimzi-topic-operator-kstreams},1651542579,0
{consumergroup=__strimzi-topic-operator-kstreams},1651542584,0
{consumergroup=__strimzi-topic-operator-kstreams},1651542589,0
{consumergroup=__strimzi-topic-operator-kstreams},1651542594,0
{consumergroup=adapter-service},1651542194,1099
{consumergroup=adapter-service},1651542199,1099
{consumergroup=adapter-service},1651542204,1099
{consumergroup=adapter-service},1651542209,19704
{consumergroup=adapter-service},1651542214,19704
{consumergroup=adapter-service},1651542219,19704
{consumergroup=adapter-service},1651542224,18740
{consumergroup=adapter-service},1651542229,18740
{consumergroup=adapter-service},1651542234,18740
{consumergroup=adapter-service},1651542239,18324
{consumergroup=adapter-service},1651542244,18324
{consumergroup=adapter-service},1651542249,18324
{consumergroup=adapter-service},1651542254,17844
{consumergroup=adapter-service},1651542259,17844
{consumergroup=adapter-service},1651542264,17844
{consumergroup=adapter-service},1651542269,14842
{consumergroup=adapter-service},1651542274,14842
{consumergroup=adapter-service},1651542279,14842
{consumergroup=adapter-service},1651542284,14928
{consumergroup=adapter-service},1651542289,14928
{consumergroup=adapter-service},1651542294,14928
{consumergroup=adapter-service},1651542299,17176
{consumergroup=adapter-service},1651542304,17176
{consumergroup=adapter-service},1651542309,17176
{consumergroup=adapter-service},1651542314,16997
{consumergroup=adapter-service},1651542319,16997
{consumergroup=adapter-service},1651542324,16997
{consumergroup=adapter-service},1651542329,16661
{consumergroup=adapter-service},1651542334,16661
{consumergroup=adapter-service},1651542339,16661
{consumergroup=adapter-service},1651542344,16435
{consumergroup=adapter-service},1651542349,16435
{consumergroup=adapter-service},1651542354,16435
{consumergroup=adapter-service},1651542359,16160
{consumergroup=adapter-service},1651542364,16160
{consumergroup=adapter-service},1651542369,16160
{consumergroup=adapter-service},1651542374,17524
{consumergroup=adapter-service},1651542379,17524
{consumergroup=adapter-service},1651542384,17524
{consumergroup=adapter-service},1651542389,16868
{consumergroup=adapter-service},1651542394,16868
{consumergroup=adapter-service},1651542399,16868
{consumergroup=adapter-service},1651542404,16767
{consumergroup=adapter-service},1651542409,16767
{consumergroup=adapter-service},1651542414,16767
{consumergroup=adapter-service},1651542419,16612
{consumergroup=adapter-service},1651542424,16612
{consumergroup=adapter-service},1651542429,16612
{consumergroup=adapter-service},1651542434,18931
{consumergroup=adapter-service},1651542439,18931
{consumergroup=adapter-service},1651542444,18931
{consumergroup=adapter-service},1651542449,14931
{consumergroup=adapter-service},1651542454,14931
{consumergroup=adapter-service},1651542459,14931
{consumergroup=adapter-service},1651542464,15016
{consumergroup=adapter-service},1651542469,15016
{consumergroup=adapter-service},1651542474,15016
{consumergroup=adapter-service},1651542479,15639
{consumergroup=adapter-service},1651542484,15639
{consumergroup=adapter-service},1651542489,15639
{consumergroup=adapter-service},1651542494,19157
{consumergroup=adapter-service},1651542499,19157
{consumergroup=adapter-service},1651542504,19157
{consumergroup=adapter-service},1651542509,20072
{consumergroup=adapter-service},1651542514,20072
{consumergroup=adapter-service},1651542519,20072
{consumergroup=adapter-service},1651542524,18602
{consumergroup=adapter-service},1651542529,18602
{consumergroup=adapter-service},1651542534,18602
{consumergroup=adapter-service},1651542539,13741
{consumergroup=adapter-service},1651542544,13741
{consumergroup=adapter-service},1651542549,13741
{consumergroup=adapter-service},1651542554,14771
{consumergroup=adapter-service},1651542559,14771
{consumergroup=adapter-service},1651542564,14771
{consumergroup=adapter-service},1651542569,13440
{consumergroup=adapter-service},1651542574,13440
{consumergroup=adapter-service},1651542579,13440
{consumergroup=adapter-service},1651542584,19059
{consumergroup=adapter-service},1651542589,19059
{consumergroup=adapter-service},1651542594,19059
{consumergroup=landscape-service},1651542194,46723
{consumergroup=landscape-service},1651542199,46723
{consumergroup=landscape-service},1651542204,46723
{consumergroup=landscape-service},1651542209,4284
{consumergroup=landscape-service},1651542214,4284
{consumergroup=landscape-service},1651542219,4284
{consumergroup=landscape-service},1651542224,2376
{consumergroup=landscape-service},1651542229,2376
{consumergroup=landscape-service},1651542234,2376
{consumergroup=landscape-service},1651542239,1685
{consumergroup=landscape-service},1651542244,1685
{consumergroup=landscape-service},1651542249,1685
{consumergroup=landscape-service},1651542254,1722
{consumergroup=landscape-service},1651542259,1722
{consumergroup=landscape-service},1651542264,1722
{consumergroup=landscape-service},1651542269,4780
{consumergroup=landscape-service},1651542274,4780
{consumergroup=landscape-service},1651542279,4780
{consumergroup=landscape-service},1651542284,4543
{consumergroup=landscape-service},1651542289,4543
{consumergroup=landscape-service},1651542294,4543
{consumergroup=landscape-service},1651542299,23422
{consumergroup=landscape-service},1651542304,23422
{consumergroup=landscape-service},1651542309,23422
{consumergroup=landscape-service},1651542314,23119
{consumergroup=landscape-service},1651542319,23119
{consumergroup=landscape-service},1651542324,23119
{consumergroup=landscape-service},1651542329,23589
{consumergroup=landscape-service},1651542334,23589
{consumergroup=landscape-service},1651542339,23589
{consumergroup=landscape-service},1651542344,22316
{consumergroup=landscape-service},1651542349,22316
{consumergroup=landscape-service},1651542354,22316
{consumergroup=landscape-service},1651542359,21567
{consumergroup=landscape-service},1651542364,21567
{consumergroup=landscape-service},1651542369,21567
{consumergroup=landscape-service},1651542374,1861
{consumergroup=landscape-service},1651542379,1861
{consumergroup=landscape-service},1651542384,1861
{consumergroup=landscape-service},1651542389,20824
{consumergroup=landscape-service},1651542394,20824
{consumergroup=landscape-service},1651542399,20824
{consumergroup=landscape-service},1651542404,21607
{consumergroup=landscape-service},1651542409,21607
{consumergroup=landscape-service},1651542414,21607
{consumergroup=landscape-service},1651542419,21085
{consumergroup=landscape-service},1651542424,21085
{consumergroup=landscape-service},1651542429,21085
{consumergroup=landscape-service},1651542434,25366
{consumergroup=landscape-service},1651542439,25366
{consumergroup=landscape-service},1651542444,25366
{consumergroup=landscape-service},1651542449,19008
{consumergroup=landscape-service},1651542454,19008
{consumergroup=landscape-service},1651542459,19008
{consumergroup=landscape-service},1651542464,19911
{consumergroup=landscape-service},1651542469,19911
{consumergroup=landscape-service},1651542474,19911
{consumergroup=landscape-service},1651542479,19450
{consumergroup=landscape-service},1651542484,19450
{consumergroup=landscape-service},1651542489,19450
{consumergroup=landscape-service},1651542494,22786
{consumergroup=landscape-service},1651542499,22786
{consumergroup=landscape-service},1651542504,22786
{consumergroup=landscape-service},1651542509,22196
{consumergroup=landscape-service},1651542514,22196
{consumergroup=landscape-service},1651542519,22196
{consumergroup=landscape-service},1651542524,22605
{consumergroup=landscape-service},1651542529,22605
{consumergroup=landscape-service},1651542534,22605
{consumergroup=landscape-service},1651542539,16206
{consumergroup=landscape-service},1651542544,16206
{consumergroup=landscape-service},1651542549,16206
{consumergroup=landscape-service},1651542554,16336
{consumergroup=landscape-service},1651542559,16336
{consumergroup=landscape-service},1651542564,16336
{consumergroup=landscape-service},1651542569,15202
{consumergroup=landscape-service},1651542574,15202
{consumergroup=landscape-service},1651542579,15202
{consumergroup=landscape-service},1651542584,19671
{consumergroup=landscape-service},1651542589,19671
{consumergroup=landscape-service},1651542594,19671
{consumergroup=trace-service},1651542194,5654
{consumergroup=trace-service},1651542199,5654
{consumergroup=trace-service},1651542204,5654
{consumergroup=trace-service},1651542209,34490
{consumergroup=trace-service},1651542214,34490
{consumergroup=trace-service},1651542219,34490
{consumergroup=trace-service},1651542224,86379
{consumergroup=trace-service},1651542229,86379
{consumergroup=trace-service},1651542234,86379
{consumergroup=trace-service},1651542239,130007
{consumergroup=trace-service},1651542244,130007
{consumergroup=trace-service},1651542249,130007
{consumergroup=trace-service},1651542254,201543
{consumergroup=trace-service},1651542259,201543
{consumergroup=trace-service},1651542264,201543
{consumergroup=trace-service},1651542269,18318
{consumergroup=trace-service},1651542274,18318
{consumergroup=trace-service},1651542279,18318
{consumergroup=trace-service},1651542284,74195
{consumergroup=trace-service},1651542289,74195
{consumergroup=trace-service},1651542294,74195
{consumergroup=trace-service},1651542299,156380
{consumergroup=trace-service},1651542304,156380
{consumergroup=trace-service},1651542309,156380
{consumergroup=trace-service},1651542314,67927
{consumergroup=trace-service},1651542319,67927
{consumergroup=trace-service},1651542324,67927
{consumergroup=trace-service},1651542329,172939
{consumergroup=trace-service},1651542334,172939
{consumergroup=trace-service},1651542339,172939
{consumergroup=trace-service},1651542344,73104
{consumergroup=trace-service},1651542349,73104
{consumergroup=trace-service},1651542354,73104
{consumergroup=trace-service},1651542359,171939
{consumergroup=trace-service},1651542364,171939
{consumergroup=trace-service},1651542369,171939
{consumergroup=trace-service},1651542374,73823
{consumergroup=trace-service},1651542379,73823
{consumergroup=trace-service},1651542384,73823
{consumergroup=trace-service},1651542389,152497
{consumergroup=trace-service},1651542394,152497
{consumergroup=trace-service},1651542399,152497
{consumergroup=trace-service},1651542404,69980
{consumergroup=trace-service},1651542409,69980
{consumergroup=trace-service},1651542414,69980
{consumergroup=trace-service},1651542419,150457
{consumergroup=trace-service},1651542424,150457
{consumergroup=trace-service},1651542429,150457
{consumergroup=trace-service},1651542434,77661
{consumergroup=trace-service},1651542439,77661
{consumergroup=trace-service},1651542444,77661
{consumergroup=trace-service},1651542449,202019
{consumergroup=trace-service},1651542454,202019
{consumergroup=trace-service},1651542459,202019
{consumergroup=trace-service},1651542464,63711
{consumergroup=trace-service},1651542469,63711
{consumergroup=trace-service},1651542474,63711
{consumergroup=trace-service},1651542479,160779
{consumergroup=trace-service},1651542484,160779
{consumergroup=trace-service},1651542489,160779
{consumergroup=trace-service},1651542494,76052
{consumergroup=trace-service},1651542499,76052
{consumergroup=trace-service},1651542504,76052
{consumergroup=trace-service},1651542509,132922
{consumergroup=trace-service},1651542514,132922
{consumergroup=trace-service},1651542519,132922
{consumergroup=trace-service},1651542524,202389
{consumergroup=trace-service},1651542529,202389
{consumergroup=trace-service},1651542534,202389
{consumergroup=trace-service},1651542539,157788
{consumergroup=trace-service},1651542544,157788
{consumergroup=trace-service},1651542549,157788
{consumergroup=trace-service},1651542554,71932
{consumergroup=trace-service},1651542559,71932
{consumergroup=trace-service},1651542564,71932
{consumergroup=trace-service},1651542569,127705
{consumergroup=trace-service},1651542574,127705
{consumergroup=trace-service},1651542579,127705
{consumergroup=trace-service},1651542584,223355
{consumergroup=trace-service},1651542589,223355
{consumergroup=trace-service},1651542594,223355
{consumergroup=trace-token-events-consumer},1651542179,0
{consumergroup=trace-token-events-consumer},1651542184,0
{consumergroup=trace-token-events-consumer},1651542189,0
{consumergroup=trace-token-events-consumer},1651542194,0
{consumergroup=trace-token-events-consumer},1651542199,0
{consumergroup=trace-token-events-consumer},1651542204,0
{consumergroup=trace-token-events-consumer},1651542209,0
{consumergroup=trace-token-events-consumer},1651542214,0
{consumergroup=trace-token-events-consumer},1651542219,0
{consumergroup=trace-token-events-consumer},1651542224,0
{consumergroup=trace-token-events-consumer},1651542229,0
{consumergroup=trace-token-events-consumer},1651542234,0
{consumergroup=trace-token-events-consumer},1651542239,0
{consumergroup=trace-token-events-consumer},1651542244,0
{consumergroup=trace-token-events-consumer},1651542249,0
{consumergroup=trace-token-events-consumer},1651542254,0
{consumergroup=trace-token-events-consumer},1651542259,0
{consumergroup=trace-token-events-consumer},1651542264,0
{consumergroup=trace-token-events-consumer},1651542269,0
{consumergroup=trace-token-events-consumer},1651542274,0
{consumergroup=trace-token-events-consumer},1651542279,0
{consumergroup=trace-token-events-consumer},1651542284,0
{consumergroup=trace-token-events-consumer},1651542289,0
{consumergroup=trace-token-events-consumer},1651542294,0
{consumergroup=trace-token-events-consumer},1651542299,0
{consumergroup=trace-token-events-consumer},1651542304,0
{consumergroup=trace-token-events-consumer},1651542309,0
{consumergroup=trace-token-events-consumer},1651542314,0
{consumergroup=trace-token-events-consumer},1651542319,0
{consumergroup=trace-token-events-consumer},1651542324,0
{consumergroup=trace-token-events-consumer},1651542329,0
{consumergroup=trace-token-events-consumer},1651542334,0
{consumergroup=trace-token-events-consumer},1651542339,0
{consumergroup=trace-token-events-consumer},1651542344,0
{consumergroup=trace-token-events-consumer},1651542349,0
{consumergroup=trace-token-events-consumer},1651542354,0
{consumergroup=trace-token-events-consumer},1651542359,0
{consumergroup=trace-token-events-consumer},1651542364,0
{consumergroup=trace-token-events-consumer},1651542369,0
{consumergroup=trace-token-events-consumer},1651542374,0
{consumergroup=trace-token-events-consumer},1651542379,0
{consumergroup=trace-token-events-consumer},1651542384,0
{consumergroup=trace-token-events-consumer},1651542389,0
{consumergroup=trace-token-events-consumer},1651542394,0
{consumergroup=trace-token-events-consumer},1651542399,0
{consumergroup=trace-token-events-consumer},1651542404,0
{consumergroup=trace-token-events-consumer},1651542409,0
{consumergroup=trace-token-events-consumer},1651542414,0
{consumergroup=trace-token-events-consumer},1651542419,0
{consumergroup=trace-token-events-consumer},1651542424,0
{consumergroup=trace-token-events-consumer},1651542429,0
{consumergroup=trace-token-events-consumer},1651542434,0
{consumergroup=trace-token-events-consumer},1651542439,0
{consumergroup=trace-token-events-consumer},1651542444,0
{consumergroup=trace-token-events-consumer},1651542449,0
{consumergroup=trace-token-events-consumer},1651542454,0
{consumergroup=trace-token-events-consumer},1651542459,0
{consumergroup=trace-token-events-consumer},1651542464,0
{consumergroup=trace-token-events-consumer},1651542469,0
{consumergroup=trace-token-events-consumer},1651542474,0
{consumergroup=trace-token-events-consumer},1651542479,0
{consumergroup=trace-token-events-consumer},1651542484,0
{consumergroup=trace-token-events-consumer},1651542489,0
{consumergroup=trace-token-events-consumer},1651542494,0
{consumergroup=trace-token-events-consumer},1651542499,0
{consumergroup=trace-token-events-consumer},1651542504,0
{consumergroup=trace-token-events-consumer},1651542509,0
{consumergroup=trace-token-events-consumer},1651542514,0
{consumergroup=trace-token-events-consumer},1651542519,0
{consumergroup=trace-token-events-consumer},1651542524,0
{consumergroup=trace-token-events-consumer},1651542529,0
{consumergroup=trace-token-events-consumer},1651542534,0
{consumergroup=trace-token-events-consumer},1651542539,0
{consumergroup=trace-token-events-consumer},1651542544,0
{consumergroup=trace-token-events-consumer},1651542549,0
{consumergroup=trace-token-events-consumer},1651542554,0
{consumergroup=trace-token-events-consumer},1651542559,0
{consumergroup=trace-token-events-consumer},1651542564,0
{consumergroup=trace-token-events-consumer},1651542569,0
{consumergroup=trace-token-events-consumer},1651542574,0
{consumergroup=trace-token-events-consumer},1651542579,0
{consumergroup=trace-token-events-consumer},1651542584,0
{consumergroup=trace-token-events-consumer},1651542589,0
{consumergroup=trace-token-events-consumer},1651542594,0
