labels,timestamp,value
{consumergroup=__strimzi-topic-operator-kstreams},1651543275,11
{consumergroup=__strimzi-topic-operator-kstreams},1651543280,11
{consumergroup=__strimzi-topic-operator-kstreams},1651543285,11
{consumergroup=__strimzi-topic-operator-kstreams},1651543290,0
{consumergroup=__strimzi-topic-operator-kstreams},1651543295,0
{consumergroup=__strimzi-topic-operator-kstreams},1651543300,0
{consumergroup=__strimzi-topic-operator-kstreams},1651543305,3
{consumergroup=__strimzi-topic-operator-kstreams},1651543310,3
{consumergroup=__strimzi-topic-operator-kstreams},1651543315,3
{consumergroup=__strimzi-topic-operator-kstreams},1651543320,0
{consumergroup=__strimzi-topic-operator-kstreams},1651543325,0
{consumergroup=__strimzi-topic-operator-kstreams},1651543330,0
{consumergroup=__strimzi-topic-operator-kstreams},1651543335,0
{consumergroup=__strimzi-topic-operator-kstreams},1651543340,0
{consumergroup=__strimzi-topic-operator-kstreams},1651543345,0
{consumergroup=__strimzi-topic-operator-kstreams},1651543350,0
{consumergroup=__strimzi-topic-operator-kstreams},1651543355,0
{consumergroup=__strimzi-topic-operator-kstreams},1651543360,0
{consumergroup=__strimzi-topic-operator-kstreams},1651543365,0
{consumergroup=__strimzi-topic-operator-kstreams},1651543370,0
{consumergroup=__strimzi-topic-operator-kstreams},1651543375,0
{consumergroup=__strimzi-topic-operator-kstreams},1651543380,0
{consumergroup=__strimzi-topic-operator-kstreams},1651543385,0
{consumergroup=__strimzi-topic-operator-kstreams},1651543390,0
{consumergroup=__strimzi-topic-operator-kstreams},1651543395,0
{consumergroup=__strimzi-topic-operator-kstreams},1651543400,0
{consumergroup=__strimzi-topic-operator-kstreams},1651543405,0
{consumergroup=__strimzi-topic-operator-kstreams},1651543410,0
{consumergroup=__strimzi-topic-operator-kstreams},1651543415,0
{consumergroup=__strimzi-topic-operator-kstreams},1651543420,0
{consumergroup=__strimzi-topic-operator-kstreams},1651543425,0
{consumergroup=__strimzi-topic-operator-kstreams},1651543430,0
{consumergroup=__strimzi-topic-operator-kstreams},1651543435,0
{consumergroup=__strimzi-topic-operator-kstreams},1651543440,0
{consumergroup=__strimzi-topic-operator-kstreams},1651543445,0
{consumergroup=__strimzi-topic-operator-kstreams},1651543450,0
{consumergroup=__strimzi-topic-operator-kstreams},1651543455,0
{consumergroup=__strimzi-topic-operator-kstreams},1651543460,0
{consumergroup=__strimzi-topic-operator-kstreams},1651543465,0
{consumergroup=__strimzi-topic-operator-kstreams},1651543470,0
{consumergroup=__strimzi-topic-operator-kstreams},1651543475,0
{consumergroup=__strimzi-topic-operator-kstreams},1651543480,0
{consumergroup=__strimzi-topic-operator-kstreams},1651543485,0
{consumergroup=__strimzi-topic-operator-kstreams},1651543490,0
{consumergroup=__strimzi-topic-operator-kstreams},1651543495,0
{consumergroup=__strimzi-topic-operator-kstreams},1651543500,0
{consumergroup=__strimzi-topic-operator-kstreams},1651543505,0
{consumergroup=__strimzi-topic-operator-kstreams},1651543510,0
{consumergroup=__strimzi-topic-operator-kstreams},1651543515,0
{consumergroup=__strimzi-topic-operator-kstreams},1651543520,0
{consumergroup=__strimzi-topic-operator-kstreams},1651543525,0
{consumergroup=__strimzi-topic-operator-kstreams},1651543530,0
{consumergroup=__strimzi-topic-operator-kstreams},1651543535,0
{consumergroup=__strimzi-topic-operator-kstreams},1651543540,0
{consumergroup=__strimzi-topic-operator-kstreams},1651543545,0
{consumergroup=__strimzi-topic-operator-kstreams},1651543550,0
{consumergroup=__strimzi-topic-operator-kstreams},1651543555,0
{consumergroup=__strimzi-topic-operator-kstreams},1651543560,0
{consumergroup=__strimzi-topic-operator-kstreams},1651543565,0
{consumergroup=__strimzi-topic-operator-kstreams},1651543570,0
{consumergroup=__strimzi-topic-operator-kstreams},1651543575,0
{consumergroup=__strimzi-topic-operator-kstreams},1651543580,0
{consumergroup=__strimzi-topic-operator-kstreams},1651543585,0
{consumergroup=__strimzi-topic-operator-kstreams},1651543590,0
{consumergroup=__strimzi-topic-operator-kstreams},1651543595,0
{consumergroup=__strimzi-topic-operator-kstreams},1651543600,0
{consumergroup=__strimzi-topic-operator-kstreams},1651543605,0
{consumergroup=__strimzi-topic-operator-kstreams},1651543610,0
{consumergroup=__strimzi-topic-operator-kstreams},1651543615,0
{consumergroup=__strimzi-topic-operator-kstreams},1651543620,0
{consumergroup=__strimzi-topic-operator-kstreams},1651543625,0
{consumergroup=__strimzi-topic-operator-kstreams},1651543630,0
{consumergroup=__strimzi-topic-operator-kstreams},1651543635,0
{consumergroup=__strimzi-topic-operator-kstreams},1651543640,0
{consumergroup=__strimzi-topic-operator-kstreams},1651543645,0
{consumergroup=__strimzi-topic-operator-kstreams},1651543650,0
{consumergroup=__strimzi-topic-operator-kstreams},1651543655,0
{consumergroup=__strimzi-topic-operator-kstreams},1651543660,0
{consumergroup=__strimzi-topic-operator-kstreams},1651543665,0
{consumergroup=__strimzi-topic-operator-kstreams},1651543670,0
{consumergroup=__strimzi-topic-operator-kstreams},1651543675,0
{consumergroup=__strimzi-topic-operator-kstreams},1651543680,0
{consumergroup=__strimzi-topic-operator-kstreams},1651543685,0
{consumergroup=__strimzi-topic-operator-kstreams},1651543690,0
{consumergroup=__strimzi-topic-operator-kstreams},1651543695,0
{consumergroup=__strimzi-topic-operator-kstreams},1651543700,0
{consumergroup=__strimzi-topic-operator-kstreams},1651543705,0
{consumergroup=__strimzi-topic-operator-kstreams},1651543710,0
{consumergroup=__strimzi-topic-operator-kstreams},1651543715,0
{consumergroup=adapter-service},1651543305,0
{consumergroup=adapter-service},1651543310,0
{consumergroup=adapter-service},1651543315,0
{consumergroup=adapter-service},1651543320,5470
{consumergroup=adapter-service},1651543325,5470
{consumergroup=adapter-service},1651543330,5470
{consumergroup=adapter-service},1651543335,6142
{consumergroup=adapter-service},1651543340,6142
{consumergroup=adapter-service},1651543345,6142
{consumergroup=adapter-service},1651543350,8795
{consumergroup=adapter-service},1651543355,8795
{consumergroup=adapter-service},1651543360,8795
{consumergroup=adapter-service},1651543365,4309
{consumergroup=adapter-service},1651543370,4309
{consumergroup=adapter-service},1651543375,4309
{consumergroup=adapter-service},1651543380,4039
{consumergroup=adapter-service},1651543385,4039
{consumergroup=adapter-service},1651543390,4039
{consumergroup=adapter-service},1651543395,2762
{consumergroup=adapter-service},1651543400,2762
{consumergroup=adapter-service},1651543405,2762
{consumergroup=adapter-service},1651543410,2891
{consumergroup=adapter-service},1651543415,2891
{consumergroup=adapter-service},1651543420,2891
{consumergroup=adapter-service},1651543425,2121
{consumergroup=adapter-service},1651543430,2121
{consumergroup=adapter-service},1651543435,2121
{consumergroup=adapter-service},1651543440,3212
{consumergroup=adapter-service},1651543445,3212
{consumergroup=adapter-service},1651543450,3212
{consumergroup=adapter-service},1651543455,2883
{consumergroup=adapter-service},1651543460,2883
{consumergroup=adapter-service},1651543465,2883
{consumergroup=adapter-service},1651543470,1456
{consumergroup=adapter-service},1651543475,1456
{consumergroup=adapter-service},1651543480,1456
{consumergroup=adapter-service},1651543485,1463
{consumergroup=adapter-service},1651543490,1463
{consumergroup=adapter-service},1651543495,1463
{consumergroup=adapter-service},1651543500,1469
{consumergroup=adapter-service},1651543505,1469
{consumergroup=adapter-service},1651543510,1469
{consumergroup=adapter-service},1651543515,1074
{consumergroup=adapter-service},1651543520,1074
{consumergroup=adapter-service},1651543525,1074
{consumergroup=adapter-service},1651543530,705
{consumergroup=adapter-service},1651543535,705
{consumergroup=adapter-service},1651543540,705
{consumergroup=adapter-service},1651543545,613
{consumergroup=adapter-service},1651543550,613
{consumergroup=adapter-service},1651543555,613
{consumergroup=adapter-service},1651543560,600
{consumergroup=adapter-service},1651543565,600
{consumergroup=adapter-service},1651543570,600
{consumergroup=adapter-service},1651543575,2942
{consumergroup=adapter-service},1651543580,2942
{consumergroup=adapter-service},1651543585,2942
{consumergroup=adapter-service},1651543590,4253
{consumergroup=adapter-service},1651543595,4253
{consumergroup=adapter-service},1651543600,4253
{consumergroup=adapter-service},1651543605,6124
{consumergroup=adapter-service},1651543610,6124
{consumergroup=adapter-service},1651543615,6124
{consumergroup=adapter-service},1651543620,6271
{consumergroup=adapter-service},1651543625,6271
{consumergroup=adapter-service},1651543630,6271
{consumergroup=adapter-service},1651543635,10717
{consumergroup=adapter-service},1651543640,10717
{consumergroup=adapter-service},1651543645,10717
{consumergroup=adapter-service},1651543650,9230
{consumergroup=adapter-service},1651543655,9230
{consumergroup=adapter-service},1651543660,9230
{consumergroup=adapter-service},1651543665,12603
{consumergroup=adapter-service},1651543670,12603
{consumergroup=adapter-service},1651543675,12603
{consumergroup=adapter-service},1651543680,12650
{consumergroup=adapter-service},1651543685,12650
{consumergroup=adapter-service},1651543690,12650
{consumergroup=adapter-service},1651543695,13188
{consumergroup=adapter-service},1651543700,13188
{consumergroup=adapter-service},1651543705,13188
{consumergroup=adapter-service},1651543710,14523
{consumergroup=adapter-service},1651543715,14523
{consumergroup=landscape-service},1651543320,61495
{consumergroup=landscape-service},1651543325,61495
{consumergroup=landscape-service},1651543330,61495
{consumergroup=landscape-service},1651543335,64085
{consumergroup=landscape-service},1651543340,64085
{consumergroup=landscape-service},1651543345,64085
{consumergroup=landscape-service},1651543350,26719
{consumergroup=landscape-service},1651543355,26719
{consumergroup=landscape-service},1651543360,26719
{consumergroup=landscape-service},1651543365,16301
{consumergroup=landscape-service},1651543370,16301
{consumergroup=landscape-service},1651543375,16301
{consumergroup=landscape-service},1651543380,14886
{consumergroup=landscape-service},1651543385,14886
{consumergroup=landscape-service},1651543390,14886
{consumergroup=landscape-service},1651543395,13845
{consumergroup=landscape-service},1651543400,13845
{consumergroup=landscape-service},1651543405,13845
{consumergroup=landscape-service},1651543410,13022
{consumergroup=landscape-service},1651543415,13022
{consumergroup=landscape-service},1651543420,13022
{consumergroup=landscape-service},1651543425,12169
{consumergroup=landscape-service},1651543430,12169
{consumergroup=landscape-service},1651543435,12169
{consumergroup=landscape-service},1651543440,10921
{consumergroup=landscape-service},1651543445,10921
{consumergroup=landscape-service},1651543450,10921
{consumergroup=landscape-service},1651543455,9915
{consumergroup=landscape-service},1651543460,9915
{consumergroup=landscape-service},1651543465,9915
{consumergroup=landscape-service},1651543470,10082
{consumergroup=landscape-service},1651543475,10082
{consumergroup=landscape-service},1651543480,10082
{consumergroup=landscape-service},1651543485,8227
{consumergroup=landscape-service},1651543490,8227
{consumergroup=landscape-service},1651543495,8227
{consumergroup=landscape-service},1651543500,7138
{consumergroup=landscape-service},1651543505,7138
{consumergroup=landscape-service},1651543510,7138
{consumergroup=landscape-service},1651543515,7406
{consumergroup=landscape-service},1651543520,7406
{consumergroup=landscape-service},1651543525,7406
{consumergroup=landscape-service},1651543530,6343
{consumergroup=landscape-service},1651543535,6343
{consumergroup=landscape-service},1651543540,6343
{consumergroup=landscape-service},1651543545,4780
{consumergroup=landscape-service},1651543550,4780
{consumergroup=landscape-service},1651543555,4780
{consumergroup=landscape-service},1651543560,4753
{consumergroup=landscape-service},1651543565,4753
{consumergroup=landscape-service},1651543570,4753
{consumergroup=landscape-service},1651543575,2823
{consumergroup=landscape-service},1651543580,2823
{consumergroup=landscape-service},1651543585,2823
{consumergroup=landscape-service},1651543590,6576
{consumergroup=landscape-service},1651543595,6576
{consumergroup=landscape-service},1651543600,6576
{consumergroup=landscape-service},1651543605,1032
{consumergroup=landscape-service},1651543610,1032
{consumergroup=landscape-service},1651543615,1032
{consumergroup=landscape-service},1651543620,25370
{consumergroup=landscape-service},1651543625,25370
{consumergroup=landscape-service},1651543630,25370
{consumergroup=landscape-service},1651543635,25188
{consumergroup=landscape-service},1651543640,25188
{consumergroup=landscape-service},1651543645,25188
{consumergroup=landscape-service},1651543650,23368
{consumergroup=landscape-service},1651543655,23368
{consumergroup=landscape-service},1651543660,23368
{consumergroup=landscape-service},1651543665,22408
{consumergroup=landscape-service},1651543670,22408
{consumergroup=landscape-service},1651543675,22408
{consumergroup=landscape-service},1651543680,21528
{consumergroup=landscape-service},1651543685,21528
{consumergroup=landscape-service},1651543690,21528
{consumergroup=landscape-service},1651543695,21043
{consumergroup=landscape-service},1651543700,21043
{consumergroup=landscape-service},1651543705,21043
{consumergroup=landscape-service},1651543710,20666
{consumergroup=landscape-service},1651543715,20666
{consumergroup=trace-service},1651543320,44046
{consumergroup=trace-service},1651543325,44046
{consumergroup=trace-service},1651543330,44046
{consumergroup=trace-service},1651543335,90921
{consumergroup=trace-service},1651543340,90921
{consumergroup=trace-service},1651543345,90921
{consumergroup=trace-service},1651543350,15818
{consumergroup=trace-service},1651543355,15818
{consumergroup=trace-service},1651543360,15818
{consumergroup=trace-service},1651543365,63742
{consumergroup=trace-service},1651543370,63742
{consumergroup=trace-service},1651543375,63742
{consumergroup=trace-service},1651543380,160180
{consumergroup=trace-service},1651543385,160180
{consumergroup=trace-service},1651543390,160180
{consumergroup=trace-service},1651543395,74929
{consumergroup=trace-service},1651543400,74929
{consumergroup=trace-service},1651543405,74929
{consumergroup=trace-service},1651543410,172624
{consumergroup=trace-service},1651543415,172624
{consumergroup=trace-service},1651543420,172624
{consumergroup=trace-service},1651543425,78206
{consumergroup=trace-service},1651543430,78206
{consumergroup=trace-service},1651543435,78206
{consumergroup=trace-service},1651543440,138359
{consumergroup=trace-service},1651543445,138359
{consumergroup=trace-service},1651543450,138359
{consumergroup=trace-service},1651543455,246279
{consumergroup=trace-service},1651543460,246279
{consumergroup=trace-service},1651543465,246279
{consumergroup=trace-service},1651543470,165739
{consumergroup=trace-service},1651543475,165739
{consumergroup=trace-service},1651543480,165739
{consumergroup=trace-service},1651543485,78437
{consumergroup=trace-service},1651543490,78437
{consumergroup=trace-service},1651543495,78437
{consumergroup=trace-service},1651543500,140383
{consumergroup=trace-service},1651543505,140383
{consumergroup=trace-service},1651543510,140383
{consumergroup=trace-service},1651543515,241766
{consumergroup=trace-service},1651543520,241766
{consumergroup=trace-service},1651543525,241766
{consumergroup=trace-service},1651543530,21170
{consumergroup=trace-service},1651543535,21170
{consumergroup=trace-service},1651543540,21170
{consumergroup=trace-service},1651543545,68779
{consumergroup=trace-service},1651543550,68779
{consumergroup=trace-service},1651543555,68779
{consumergroup=trace-service},1651543560,148723
{consumergroup=trace-service},1651543565,148723
{consumergroup=trace-service},1651543570,148723
{consumergroup=trace-service},1651543575,206532
{consumergroup=trace-service},1651543580,206532
{consumergroup=trace-service},1651543585,206532
{consumergroup=trace-service},1651543590,181467
{consumergroup=trace-service},1651543595,181467
{consumergroup=trace-service},1651543600,181467
{consumergroup=trace-service},1651543605,214941
{consumergroup=trace-service},1651543610,214941
{consumergroup=trace-service},1651543615,214941
{consumergroup=trace-service},1651543620,22130
{consumergroup=trace-service},1651543625,22130
{consumergroup=trace-service},1651543630,22130
{consumergroup=trace-service},1651543635,69952
{consumergroup=trace-service},1651543640,69952
{consumergroup=trace-service},1651543645,69952
{consumergroup=trace-service},1651543650,166465
{consumergroup=trace-service},1651543655,166465
{consumergroup=trace-service},1651543660,166465
{consumergroup=trace-service},1651543665,107945
{consumergroup=trace-service},1651543670,107945
{consumergroup=trace-service},1651543675,107945
{consumergroup=trace-service},1651543680,180399
{consumergroup=trace-service},1651543685,180399
{consumergroup=trace-service},1651543690,180399
{consumergroup=trace-service},1651543695,74683
{consumergroup=trace-service},1651543700,74683
{consumergroup=trace-service},1651543705,74683
{consumergroup=trace-service},1651543710,128016
{consumergroup=trace-service},1651543715,128016
{consumergroup=trace-token-events-consumer},1651543305,0
{consumergroup=trace-token-events-consumer},1651543310,0
{consumergroup=trace-token-events-consumer},1651543315,0
{consumergroup=trace-token-events-consumer},1651543320,0
{consumergroup=trace-token-events-consumer},1651543325,0
{consumergroup=trace-token-events-consumer},1651543330,0
{consumergroup=trace-token-events-consumer},1651543335,0
{consumergroup=trace-token-events-consumer},1651543340,0
{consumergroup=trace-token-events-consumer},1651543345,0
{consumergroup=trace-token-events-consumer},1651543350,0
{consumergroup=trace-token-events-consumer},1651543355,0
{consumergroup=trace-token-events-consumer},1651543360,0
{consumergroup=trace-token-events-consumer},1651543365,0
{consumergroup=trace-token-events-consumer},1651543370,0
{consumergroup=trace-token-events-consumer},1651543375,0
{consumergroup=trace-token-events-consumer},1651543380,0
{consumergroup=trace-token-events-consumer},1651543385,0
{consumergroup=trace-token-events-consumer},1651543390,0
{consumergroup=trace-token-events-consumer},1651543395,0
{consumergroup=trace-token-events-consumer},1651543400,0
{consumergroup=trace-token-events-consumer},1651543405,0
{consumergroup=trace-token-events-consumer},1651543410,0
{consumergroup=trace-token-events-consumer},1651543415,0
{consumergroup=trace-token-events-consumer},1651543420,0
{consumergroup=trace-token-events-consumer},1651543425,0
{consumergroup=trace-token-events-consumer},1651543430,0
{consumergroup=trace-token-events-consumer},1651543435,0
{consumergroup=trace-token-events-consumer},1651543440,0
{consumergroup=trace-token-events-consumer},1651543445,0
{consumergroup=trace-token-events-consumer},1651543450,0
{consumergroup=trace-token-events-consumer},1651543455,0
{consumergroup=trace-token-events-consumer},1651543460,0
{consumergroup=trace-token-events-consumer},1651543465,0
{consumergroup=trace-token-events-consumer},1651543470,0
{consumergroup=trace-token-events-consumer},1651543475,0
{consumergroup=trace-token-events-consumer},1651543480,0
{consumergroup=trace-token-events-consumer},1651543485,0
{consumergroup=trace-token-events-consumer},1651543490,0
{consumergroup=trace-token-events-consumer},1651543495,0
{consumergroup=trace-token-events-consumer},1651543500,0
{consumergroup=trace-token-events-consumer},1651543505,0
{consumergroup=trace-token-events-consumer},1651543510,0
{consumergroup=trace-token-events-consumer},1651543515,0
{consumergroup=trace-token-events-consumer},1651543520,0
{consumergroup=trace-token-events-consumer},1651543525,0
{consumergroup=trace-token-events-consumer},1651543530,0
{consumergroup=trace-token-events-consumer},1651543535,0
{consumergroup=trace-token-events-consumer},1651543540,0
{consumergroup=trace-token-events-consumer},1651543545,0
{consumergroup=trace-token-events-consumer},1651543550,0
{consumergroup=trace-token-events-consumer},1651543555,0
{consumergroup=trace-token-events-consumer},1651543560,0
{consumergroup=trace-token-events-consumer},1651543565,0
{consumergroup=trace-token-events-consumer},1651543570,0
{consumergroup=trace-token-events-consumer},1651543575,0
{consumergroup=trace-token-events-consumer},1651543580,0
{consumergroup=trace-token-events-consumer},1651543585,0
{consumergroup=trace-token-events-consumer},1651543590,0
{consumergroup=trace-token-events-consumer},1651543595,0
{consumergroup=trace-token-events-consumer},1651543600,0
{consumergroup=trace-token-events-consumer},1651543605,0
{consumergroup=trace-token-events-consumer},1651543610,0
{consumergroup=trace-token-events-consumer},1651543615,0
{consumergroup=trace-token-events-consumer},1651543620,0
{consumergroup=trace-token-events-consumer},1651543625,0
{consumergroup=trace-token-events-consumer},1651543630,0
{consumergroup=trace-token-events-consumer},1651543635,0
{consumergroup=trace-token-events-consumer},1651543640,0
{consumergroup=trace-token-events-consumer},1651543645,0
{consumergroup=trace-token-events-consumer},1651543650,0
{consumergroup=trace-token-events-consumer},1651543655,0
{consumergroup=trace-token-events-consumer},1651543660,0
{consumergroup=trace-token-events-consumer},1651543665,0
{consumergroup=trace-token-events-consumer},1651543670,0
{consumergroup=trace-token-events-consumer},1651543675,0
{consumergroup=trace-token-events-consumer},1651543680,0
{consumergroup=trace-token-events-consumer},1651543685,0
{consumergroup=trace-token-events-consumer},1651543690,0
{consumergroup=trace-token-events-consumer},1651543695,0
{consumergroup=trace-token-events-consumer},1651543700,0
{consumergroup=trace-token-events-consumer},1651543705,0
{consumergroup=trace-token-events-consumer},1651543710,0
{consumergroup=trace-token-events-consumer},1651543715,0
