labels,timestamp,value
{job=theodolite-stu200776/trace-isolated-podmonitor},1651487095,0
{job=theodolite-stu200776/trace-isolated-podmonitor},1651487100,0
{job=theodolite-stu200776/trace-isolated-podmonitor},1651487105,0
{job=theodolite-stu200776/trace-isolated-podmonitor},1651487110,0
{job=theodolite-stu200776/trace-isolated-podmonitor},1651487115,0
{job=theodolite-stu200776/trace-isolated-podmonitor},1651487120,0
{job=theodolite-stu200776/trace-isolated-podmonitor},1651487125,0
{job=theodolite-stu200776/trace-isolated-podmonitor},1651487130,0
{job=theodolite-stu200776/trace-isolated-podmonitor},1651487135,0
{job=theodolite-stu200776/trace-isolated-podmonitor},1651487140,0
{job=theodolite-stu200776/trace-isolated-podmonitor},1651487145,0
{job=theodolite-stu200776/trace-isolated-podmonitor},1651487150,0
{job=theodolite-stu200776/trace-isolated-podmonitor},1651487155,0
{job=theodolite-stu200776/trace-isolated-podmonitor},1651487160,0
{job=theodolite-stu200776/trace-isolated-podmonitor},1651487165,0
{job=theodolite-stu200776/trace-isolated-podmonitor},1651487170,0
{job=theodolite-stu200776/trace-isolated-podmonitor},1651487175,0
{job=theodolite-stu200776/trace-isolated-podmonitor},1651487180,0
{job=theodolite-stu200776/trace-isolated-podmonitor},1651487185,0
{job=theodolite-stu200776/trace-isolated-podmonitor},1651487190,0
{job=theodolite-stu200776/trace-isolated-podmonitor},1651487195,0
{job=theodolite-stu200776/trace-isolated-podmonitor},1651487200,0
{job=theodolite-stu200776/trace-isolated-podmonitor},1651487205,0
{job=theodolite-stu200776/trace-isolated-podmonitor},1651487210,0
{job=theodolite-stu200776/trace-isolated-podmonitor},1651487215,0
{job=theodolite-stu200776/trace-isolated-podmonitor},1651487220,0
{job=theodolite-stu200776/trace-isolated-podmonitor},1651487225,0
{job=theodolite-stu200776/trace-isolated-podmonitor},1651487230,0
{job=theodolite-stu200776/trace-isolated-podmonitor},1651487235,0
{job=theodolite-stu200776/trace-isolated-podmonitor},1651487240,0
{job=theodolite-stu200776/trace-isolated-podmonitor},1651487245,0
{job=theodolite-stu200776/trace-isolated-podmonitor},1651487250,0
{job=theodolite-stu200776/trace-isolated-podmonitor},1651487255,0
{job=theodolite-stu200776/trace-isolated-podmonitor},1651487260,0
{job=theodolite-stu200776/trace-isolated-podmonitor},1651487265,0
{job=theodolite-stu200776/trace-isolated-podmonitor},1651487270,0
{job=theodolite-stu200776/trace-isolated-podmonitor},1651487275,0
{job=theodolite-stu200776/trace-isolated-podmonitor},1651487280,0
{job=theodolite-stu200776/trace-isolated-podmonitor},1651487285,0
{job=theodolite-stu200776/trace-isolated-podmonitor},1651487290,0
{job=theodolite-stu200776/trace-isolated-podmonitor},1651487295,0
{job=theodolite-stu200776/trace-isolated-podmonitor},1651487300,0
{job=theodolite-stu200776/trace-isolated-podmonitor},1651487305,0
{job=theodolite-stu200776/trace-isolated-podmonitor},1651487310,0
{job=theodolite-stu200776/trace-isolated-podmonitor},1651487315,0
{job=theodolite-stu200776/trace-isolated-podmonitor},1651487320,0
{job=theodolite-stu200776/trace-isolated-podmonitor},1651487325,0
{job=theodolite-stu200776/trace-isolated-podmonitor},1651487330,0
{job=theodolite-stu200776/trace-isolated-podmonitor},1651487335,0
{job=theodolite-stu200776/trace-isolated-podmonitor},1651487340,0
{job=theodolite-stu200776/trace-isolated-podmonitor},1651487345,0
{job=theodolite-stu200776/trace-isolated-podmonitor},1651487350,0
{job=theodolite-stu200776/trace-isolated-podmonitor},1651487355,0
{job=theodolite-stu200776/trace-isolated-podmonitor},1651487360,0
{job=theodolite-stu200776/trace-isolated-podmonitor},1651487365,0
{job=theodolite-stu200776/trace-isolated-podmonitor},1651487370,0
{job=theodolite-stu200776/trace-isolated-podmonitor},1651487375,0
{job=theodolite-stu200776/trace-isolated-podmonitor},1651487380,0
{job=theodolite-stu200776/trace-isolated-podmonitor},1651487385,0
{job=theodolite-stu200776/trace-isolated-podmonitor},1651487390,0
{job=theodolite-stu200776/trace-isolated-podmonitor},1651487395,0
{job=theodolite-stu200776/trace-isolated-podmonitor},1651487400,0
{job=theodolite-stu200776/trace-isolated-podmonitor},1651487405,0
{job=theodolite-stu200776/trace-isolated-podmonitor},1651487410,0
{job=theodolite-stu200776/trace-isolated-podmonitor},1651487415,0
{job=theodolite-stu200776/trace-isolated-podmonitor},1651487420,0
{job=theodolite-stu200776/trace-isolated-podmonitor},1651487425,0
{job=theodolite-stu200776/trace-isolated-podmonitor},1651487430,0
{job=theodolite-stu200776/trace-isolated-podmonitor},1651487435,0
{job=theodolite-stu200776/trace-isolated-podmonitor},1651487440,0
{job=theodolite-stu200776/trace-isolated-podmonitor},1651487445,0
{job=theodolite-stu200776/trace-isolated-podmonitor},1651487450,0
{job=theodolite-stu200776/trace-isolated-podmonitor},1651487455,0
{job=theodolite-stu200776/trace-isolated-podmonitor},1651487460,0
{job=theodolite-stu200776/trace-isolated-podmonitor},1651487465,0
{job=theodolite-stu200776/trace-isolated-podmonitor},1651487470,0
