labels,timestamp,value
{consumergroup=__strimzi-topic-operator-kstreams},1651508541,11
{consumergroup=__strimzi-topic-operator-kstreams},1651508546,11
{consumergroup=__strimzi-topic-operator-kstreams},1651508551,11
{consumergroup=__strimzi-topic-operator-kstreams},1651508556,3
{consumergroup=__strimzi-topic-operator-kstreams},1651508561,3
{consumergroup=__strimzi-topic-operator-kstreams},1651508566,3
{consumergroup=__strimzi-topic-operator-kstreams},1651508571,3
{consumergroup=__strimzi-topic-operator-kstreams},1651508576,3
{consumergroup=__strimzi-topic-operator-kstreams},1651508581,3
{consumergroup=__strimzi-topic-operator-kstreams},1651508586,0
{consumergroup=__strimzi-topic-operator-kstreams},1651508591,0
{consumergroup=__strimzi-topic-operator-kstreams},1651508596,0
{consumergroup=__strimzi-topic-operator-kstreams},1651508601,0
{consumergroup=__strimzi-topic-operator-kstreams},1651508606,0
{consumergroup=__strimzi-topic-operator-kstreams},1651508611,0
{consumergroup=__strimzi-topic-operator-kstreams},1651508616,0
{consumergroup=__strimzi-topic-operator-kstreams},1651508621,0
{consumergroup=__strimzi-topic-operator-kstreams},1651508626,0
{consumergroup=__strimzi-topic-operator-kstreams},1651508631,0
{consumergroup=__strimzi-topic-operator-kstreams},1651508636,0
{consumergroup=__strimzi-topic-operator-kstreams},1651508641,0
{consumergroup=__strimzi-topic-operator-kstreams},1651508646,0
{consumergroup=__strimzi-topic-operator-kstreams},1651508651,0
{consumergroup=__strimzi-topic-operator-kstreams},1651508656,0
{consumergroup=__strimzi-topic-operator-kstreams},1651508661,0
{consumergroup=__strimzi-topic-operator-kstreams},1651508666,0
{consumergroup=__strimzi-topic-operator-kstreams},1651508671,0
{consumergroup=__strimzi-topic-operator-kstreams},1651508676,0
{consumergroup=__strimzi-topic-operator-kstreams},1651508681,0
{consumergroup=__strimzi-topic-operator-kstreams},1651508686,0
{consumergroup=__strimzi-topic-operator-kstreams},1651508691,0
{consumergroup=__strimzi-topic-operator-kstreams},1651508696,0
{consumergroup=__strimzi-topic-operator-kstreams},1651508701,0
{consumergroup=__strimzi-topic-operator-kstreams},1651508706,0
{consumergroup=__strimzi-topic-operator-kstreams},1651508711,0
{consumergroup=__strimzi-topic-operator-kstreams},1651508716,0
{consumergroup=__strimzi-topic-operator-kstreams},1651508721,0
{consumergroup=__strimzi-topic-operator-kstreams},1651508726,0
{consumergroup=__strimzi-topic-operator-kstreams},1651508731,0
{consumergroup=__strimzi-topic-operator-kstreams},1651508736,0
{consumergroup=__strimzi-topic-operator-kstreams},1651508741,0
{consumergroup=__strimzi-topic-operator-kstreams},1651508746,0
{consumergroup=__strimzi-topic-operator-kstreams},1651508751,0
{consumergroup=__strimzi-topic-operator-kstreams},1651508756,0
{consumergroup=__strimzi-topic-operator-kstreams},1651508761,0
{consumergroup=__strimzi-topic-operator-kstreams},1651508766,0
{consumergroup=__strimzi-topic-operator-kstreams},1651508771,0
{consumergroup=__strimzi-topic-operator-kstreams},1651508776,0
{consumergroup=__strimzi-topic-operator-kstreams},1651508781,0
{consumergroup=__strimzi-topic-operator-kstreams},1651508786,0
{consumergroup=__strimzi-topic-operator-kstreams},1651508791,0
{consumergroup=__strimzi-topic-operator-kstreams},1651508796,0
{consumergroup=__strimzi-topic-operator-kstreams},1651508801,0
{consumergroup=__strimzi-topic-operator-kstreams},1651508806,0
{consumergroup=__strimzi-topic-operator-kstreams},1651508811,0
{consumergroup=__strimzi-topic-operator-kstreams},1651508816,0
{consumergroup=__strimzi-topic-operator-kstreams},1651508821,0
{consumergroup=__strimzi-topic-operator-kstreams},1651508826,0
{consumergroup=__strimzi-topic-operator-kstreams},1651508831,0
{consumergroup=__strimzi-topic-operator-kstreams},1651508836,0
{consumergroup=__strimzi-topic-operator-kstreams},1651508841,0
{consumergroup=__strimzi-topic-operator-kstreams},1651508846,0
{consumergroup=__strimzi-topic-operator-kstreams},1651508851,0
{consumergroup=__strimzi-topic-operator-kstreams},1651508856,0
{consumergroup=__strimzi-topic-operator-kstreams},1651508861,0
{consumergroup=__strimzi-topic-operator-kstreams},1651508866,0
{consumergroup=__strimzi-topic-operator-kstreams},1651508871,0
{consumergroup=__strimzi-topic-operator-kstreams},1651508876,0
{consumergroup=__strimzi-topic-operator-kstreams},1651508881,0
{consumergroup=__strimzi-topic-operator-kstreams},1651508886,0
{consumergroup=__strimzi-topic-operator-kstreams},1651508891,0
{consumergroup=__strimzi-topic-operator-kstreams},1651508896,0
{consumergroup=__strimzi-topic-operator-kstreams},1651508901,0
{consumergroup=__strimzi-topic-operator-kstreams},1651508906,0
{consumergroup=__strimzi-topic-operator-kstreams},1651508911,0
{consumergroup=__strimzi-topic-operator-kstreams},1651508916,0
{consumergroup=__strimzi-topic-operator-kstreams},1651508921,0
{consumergroup=__strimzi-topic-operator-kstreams},1651508926,0
{consumergroup=__strimzi-topic-operator-kstreams},1651508931,0
{consumergroup=__strimzi-topic-operator-kstreams},1651508936,0
{consumergroup=__strimzi-topic-operator-kstreams},1651508941,0
{consumergroup=__strimzi-topic-operator-kstreams},1651508946,0
{consumergroup=__strimzi-topic-operator-kstreams},1651508951,0
{consumergroup=__strimzi-topic-operator-kstreams},1651508956,0
{consumergroup=__strimzi-topic-operator-kstreams},1651508961,0
{consumergroup=__strimzi-topic-operator-kstreams},1651508966,0
{consumergroup=__strimzi-topic-operator-kstreams},1651508971,0
{consumergroup=trace-service},1651508571,1128
{consumergroup=trace-service},1651508576,1128
{consumergroup=trace-service},1651508581,1128
{consumergroup=trace-service},1651508586,22022
{consumergroup=trace-service},1651508591,22022
{consumergroup=trace-service},1651508596,22022
{consumergroup=trace-service},1651508601,67592
{consumergroup=trace-service},1651508606,67592
{consumergroup=trace-service},1651508611,67592
{consumergroup=trace-service},1651508616,18533
{consumergroup=trace-service},1651508621,18533
{consumergroup=trace-service},1651508626,18533
{consumergroup=trace-service},1651508631,67720
{consumergroup=trace-service},1651508636,67720
{consumergroup=trace-service},1651508641,67720
{consumergroup=trace-service},1651508646,33533
{consumergroup=trace-service},1651508651,33533
{consumergroup=trace-service},1651508656,33533
{consumergroup=trace-service},1651508661,73891
{consumergroup=trace-service},1651508666,73891
{consumergroup=trace-service},1651508671,73891
{consumergroup=trace-service},1651508676,23730
{consumergroup=trace-service},1651508681,23730
{consumergroup=trace-service},1651508686,23730
{consumergroup=trace-service},1651508691,70568
{consumergroup=trace-service},1651508696,70568
{consumergroup=trace-service},1651508701,70568
{consumergroup=trace-service},1651508706,34494
{consumergroup=trace-service},1651508711,34494
{consumergroup=trace-service},1651508716,34494
{consumergroup=trace-service},1651508721,65868
{consumergroup=trace-service},1651508726,65868
{consumergroup=trace-service},1651508731,65868
{consumergroup=trace-service},1651508736,18890
{consumergroup=trace-service},1651508741,18890
{consumergroup=trace-service},1651508746,18890
{consumergroup=trace-service},1651508751,61199
{consumergroup=trace-service},1651508756,61199
{consumergroup=trace-service},1651508761,61199
{consumergroup=trace-service},1651508766,27294
{consumergroup=trace-service},1651508771,27294
{consumergroup=trace-service},1651508776,27294
{consumergroup=trace-service},1651508781,67932
{consumergroup=trace-service},1651508786,67932
{consumergroup=trace-service},1651508791,67932
{consumergroup=trace-service},1651508796,25194
{consumergroup=trace-service},1651508801,25194
{consumergroup=trace-service},1651508806,25194
{consumergroup=trace-service},1651508811,65178
{consumergroup=trace-service},1651508816,65178
{consumergroup=trace-service},1651508821,65178
{consumergroup=trace-service},1651508826,31108
{consumergroup=trace-service},1651508831,31108
{consumergroup=trace-service},1651508836,31108
{consumergroup=trace-service},1651508841,73079
{consumergroup=trace-service},1651508846,73079
{consumergroup=trace-service},1651508851,73079
{consumergroup=trace-service},1651508856,18441
{consumergroup=trace-service},1651508861,18441
{consumergroup=trace-service},1651508866,18441
{consumergroup=trace-service},1651508871,64246
{consumergroup=trace-service},1651508876,64246
{consumergroup=trace-service},1651508881,64246
{consumergroup=trace-service},1651508886,31940
{consumergroup=trace-service},1651508891,31940
{consumergroup=trace-service},1651508896,31940
{consumergroup=trace-service},1651508901,68776
{consumergroup=trace-service},1651508906,68776
{consumergroup=trace-service},1651508911,68776
{consumergroup=trace-service},1651508916,16965
{consumergroup=trace-service},1651508921,16965
{consumergroup=trace-service},1651508926,16965
{consumergroup=trace-service},1651508931,59042
{consumergroup=trace-service},1651508936,59042
{consumergroup=trace-service},1651508941,59042
{consumergroup=trace-service},1651508946,18123
{consumergroup=trace-service},1651508951,18123
{consumergroup=trace-service},1651508956,18123
{consumergroup=trace-service},1651508961,68555
{consumergroup=trace-service},1651508966,68555
{consumergroup=trace-service},1651508971,68555
{consumergroup=trace-token-events-consumer},1651508556,0
{consumergroup=trace-token-events-consumer},1651508561,0
{consumergroup=trace-token-events-consumer},1651508566,0
{consumergroup=trace-token-events-consumer},1651508571,0
{consumergroup=trace-token-events-consumer},1651508576,0
{consumergroup=trace-token-events-consumer},1651508581,0
{consumergroup=trace-token-events-consumer},1651508586,0
{consumergroup=trace-token-events-consumer},1651508591,0
{consumergroup=trace-token-events-consumer},1651508596,0
{consumergroup=trace-token-events-consumer},1651508601,0
{consumergroup=trace-token-events-consumer},1651508606,0
{consumergroup=trace-token-events-consumer},1651508611,0
{consumergroup=trace-token-events-consumer},1651508616,0
{consumergroup=trace-token-events-consumer},1651508621,0
{consumergroup=trace-token-events-consumer},1651508626,0
{consumergroup=trace-token-events-consumer},1651508631,0
{consumergroup=trace-token-events-consumer},1651508636,0
{consumergroup=trace-token-events-consumer},1651508641,0
{consumergroup=trace-token-events-consumer},1651508646,0
{consumergroup=trace-token-events-consumer},1651508651,0
{consumergroup=trace-token-events-consumer},1651508656,0
{consumergroup=trace-token-events-consumer},1651508661,0
{consumergroup=trace-token-events-consumer},1651508666,0
{consumergroup=trace-token-events-consumer},1651508671,0
{consumergroup=trace-token-events-consumer},1651508676,0
{consumergroup=trace-token-events-consumer},1651508681,0
{consumergroup=trace-token-events-consumer},1651508686,0
{consumergroup=trace-token-events-consumer},1651508691,0
{consumergroup=trace-token-events-consumer},1651508696,0
{consumergroup=trace-token-events-consumer},1651508701,0
{consumergroup=trace-token-events-consumer},1651508706,0
{consumergroup=trace-token-events-consumer},1651508711,0
{consumergroup=trace-token-events-consumer},1651508716,0
{consumergroup=trace-token-events-consumer},1651508721,0
{consumergroup=trace-token-events-consumer},1651508726,0
{consumergroup=trace-token-events-consumer},1651508731,0
{consumergroup=trace-token-events-consumer},1651508736,0
{consumergroup=trace-token-events-consumer},1651508741,0
{consumergroup=trace-token-events-consumer},1651508746,0
{consumergroup=trace-token-events-consumer},1651508751,0
{consumergroup=trace-token-events-consumer},1651508756,0
{consumergroup=trace-token-events-consumer},1651508761,0
{consumergroup=trace-token-events-consumer},1651508766,0
{consumergroup=trace-token-events-consumer},1651508771,0
{consumergroup=trace-token-events-consumer},1651508776,0
{consumergroup=trace-token-events-consumer},1651508781,0
{consumergroup=trace-token-events-consumer},1651508786,0
{consumergroup=trace-token-events-consumer},1651508791,0
{consumergroup=trace-token-events-consumer},1651508796,0
{consumergroup=trace-token-events-consumer},1651508801,0
{consumergroup=trace-token-events-consumer},1651508806,0
{consumergroup=trace-token-events-consumer},1651508811,0
{consumergroup=trace-token-events-consumer},1651508816,0
{consumergroup=trace-token-events-consumer},1651508821,0
{consumergroup=trace-token-events-consumer},1651508826,0
{consumergroup=trace-token-events-consumer},1651508831,0
{consumergroup=trace-token-events-consumer},1651508836,0
{consumergroup=trace-token-events-consumer},1651508841,0
{consumergroup=trace-token-events-consumer},1651508846,0
{consumergroup=trace-token-events-consumer},1651508851,0
{consumergroup=trace-token-events-consumer},1651508856,0
{consumergroup=trace-token-events-consumer},1651508861,0
{consumergroup=trace-token-events-consumer},1651508866,0
{consumergroup=trace-token-events-consumer},1651508871,0
{consumergroup=trace-token-events-consumer},1651508876,0
{consumergroup=trace-token-events-consumer},1651508881,0
{consumergroup=trace-token-events-consumer},1651508886,0
{consumergroup=trace-token-events-consumer},1651508891,0
{consumergroup=trace-token-events-consumer},1651508896,0
{consumergroup=trace-token-events-consumer},1651508901,0
{consumergroup=trace-token-events-consumer},1651508906,0
{consumergroup=trace-token-events-consumer},1651508911,0
{consumergroup=trace-token-events-consumer},1651508916,0
{consumergroup=trace-token-events-consumer},1651508921,0
{consumergroup=trace-token-events-consumer},1651508926,0
{consumergroup=trace-token-events-consumer},1651508931,0
{consumergroup=trace-token-events-consumer},1651508936,0
{consumergroup=trace-token-events-consumer},1651508941,0
{consumergroup=trace-token-events-consumer},1651508946,0
{consumergroup=trace-token-events-consumer},1651508951,0
{consumergroup=trace-token-events-consumer},1651508956,0
{consumergroup=trace-token-events-consumer},1651508961,0
{consumergroup=trace-token-events-consumer},1651508966,0
{consumergroup=trace-token-events-consumer},1651508971,0
