labels,timestamp,value
{job=theodolite-stu200776/combined-trace-podmonitor},1651320132,1.5252047875533603
{job=theodolite-stu200776/combined-trace-podmonitor},1651320137,26.62662887744578
{job=theodolite-stu200776/combined-trace-podmonitor},1651320142,45.76923166939032
{job=theodolite-stu200776/combined-trace-podmonitor},1651320147,40.09262542981991
{job=theodolite-stu200776/combined-trace-podmonitor},1651320152,95.33568592130956
{job=theodolite-stu200776/combined-trace-podmonitor},1651320157,115.86939704823843
{job=theodolite-stu200776/combined-trace-podmonitor},1651320162,240.73441213995537
{job=theodolite-stu200776/combined-trace-podmonitor},1651320167,340.8465580455032
{job=theodolite-stu200776/combined-trace-podmonitor},1651320172,350.5955927358191
{job=theodolite-stu200776/combined-trace-podmonitor},1651320177,318.68217054496125
{job=theodolite-stu200776/combined-trace-podmonitor},1651320182,298.949109906289
{job=theodolite-stu200776/combined-trace-podmonitor},1651320187,283.4247601953801
{job=theodolite-stu200776/combined-trace-podmonitor},1651320192,183.24132688267883
{job=theodolite-stu200776/combined-trace-podmonitor},1651320197,96.05353473155017
{job=theodolite-stu200776/combined-trace-podmonitor},1651320202,25.60726301812442
{job=theodolite-stu200776/combined-trace-podmonitor},1651320207,24.618324698666072
{job=theodolite-stu200776/combined-trace-podmonitor},1651320212,36.21799743137082
{job=theodolite-stu200776/combined-trace-podmonitor},1651320217,38.586447911990994
{job=theodolite-stu200776/combined-trace-podmonitor},1651320222,31.37428340753073
{job=theodolite-stu200776/combined-trace-podmonitor},1651320227,29.76256606953078
{job=theodolite-stu200776/combined-trace-podmonitor},1651320232,25.258424538242313
{job=theodolite-stu200776/combined-trace-podmonitor},1651320237,24.323478744206795
{job=theodolite-stu200776/combined-trace-podmonitor},1651320242,4.277959859029623
{job=theodolite-stu200776/combined-trace-podmonitor},1651320247,0
{job=theodolite-stu200776/combined-trace-podmonitor},1651320252,0
{job=theodolite-stu200776/combined-trace-podmonitor},1651320257,0
{job=theodolite-stu200776/combined-trace-podmonitor},1651320262,0
{job=theodolite-stu200776/combined-trace-podmonitor},1651320267,0
{job=theodolite-stu200776/combined-trace-podmonitor},1651320272,0
{job=theodolite-stu200776/combined-trace-podmonitor},1651320277,0
{job=theodolite-stu200776/combined-trace-podmonitor},1651320282,0
{job=theodolite-stu200776/combined-trace-podmonitor},1651320287,0
{job=theodolite-stu200776/combined-trace-podmonitor},1651320292,0
{job=theodolite-stu200776/combined-trace-podmonitor},1651320297,0
{job=theodolite-stu200776/combined-trace-podmonitor},1651320302,0
{job=theodolite-stu200776/combined-trace-podmonitor},1651320307,0
{job=theodolite-stu200776/combined-trace-podmonitor},1651320312,0
{job=theodolite-stu200776/combined-trace-podmonitor},1651320317,0
{job=theodolite-stu200776/combined-trace-podmonitor},1651320322,0
{job=theodolite-stu200776/combined-trace-podmonitor},1651320327,0
{job=theodolite-stu200776/combined-trace-podmonitor},1651320332,0
{job=theodolite-stu200776/combined-trace-podmonitor},1651320337,0
{job=theodolite-stu200776/combined-trace-podmonitor},1651320342,0
{job=theodolite-stu200776/combined-trace-podmonitor},1651320347,0
{job=theodolite-stu200776/combined-trace-podmonitor},1651320352,0
{job=theodolite-stu200776/combined-trace-podmonitor},1651320357,0
{job=theodolite-stu200776/combined-trace-podmonitor},1651320362,0
{job=theodolite-stu200776/combined-trace-podmonitor},1651320367,0
{job=theodolite-stu200776/combined-trace-podmonitor},1651320372,0
{job=theodolite-stu200776/combined-trace-podmonitor},1651320377,0
{job=theodolite-stu200776/combined-trace-podmonitor},1651320382,0
{job=theodolite-stu200776/combined-trace-podmonitor},1651320387,0
{job=theodolite-stu200776/combined-trace-podmonitor},1651320392,0
{job=theodolite-stu200776/combined-trace-podmonitor},1651320397,0
{job=theodolite-stu200776/combined-trace-podmonitor},1651320402,0
{job=theodolite-stu200776/combined-trace-podmonitor},1651320407,0
{job=theodolite-stu200776/combined-trace-podmonitor},1651320412,0
{job=theodolite-stu200776/combined-trace-podmonitor},1651320417,0
{job=theodolite-stu200776/combined-trace-podmonitor},1651320422,0
{job=theodolite-stu200776/combined-trace-podmonitor},1651320427,0
{job=theodolite-stu200776/combined-trace-podmonitor},1651320432,0
{job=theodolite-stu200776/combined-trace-podmonitor},1651320437,0
{job=theodolite-stu200776/combined-trace-podmonitor},1651320442,0
{job=theodolite-stu200776/combined-trace-podmonitor},1651320447,0
{job=theodolite-stu200776/combined-trace-podmonitor},1651320452,0
{job=theodolite-stu200776/combined-trace-podmonitor},1651320457,0
{job=theodolite-stu200776/combined-trace-podmonitor},1651320462,0
{job=theodolite-stu200776/combined-trace-podmonitor},1651320467,0
{job=theodolite-stu200776/combined-trace-podmonitor},1651320472,0
{job=theodolite-stu200776/combined-trace-podmonitor},1651320477,0
{job=theodolite-stu200776/combined-trace-podmonitor},1651320482,0
{job=theodolite-stu200776/combined-trace-podmonitor},1651320487,0
{job=theodolite-stu200776/combined-trace-podmonitor},1651320492,0
{job=theodolite-stu200776/combined-trace-podmonitor},1651320497,0
{job=theodolite-stu200776/combined-trace-podmonitor},1651320502,0
{job=theodolite-stu200776/combined-trace-podmonitor},1651320507,0
{job=theodolite-stu200776/combined-trace-podmonitor},1651320512,0
{job=theodolite-stu200776/combined-trace-podmonitor},1651320517,0
{job=theodolite-stu200776/combined-trace-podmonitor},1651320522,0
{job=theodolite-stu200776/combined-trace-podmonitor},1651320527,0
{job=theodolite-stu200776/combined-trace-podmonitor},1651320532,0
{job=theodolite-stu200776/combined-trace-podmonitor},1651320537,0
{job=theodolite-stu200776/combined-trace-podmonitor},1651320542,0
{job=theodolite-stu200776/combined-trace-podmonitor},1651320547,0
{job=theodolite-stu200776/combined-trace-podmonitor},1651320552,0
{job=theodolite-stu200776/combined-trace-podmonitor},1651320557,0
{job=theodolite-stu200776/combined-trace-podmonitor},1651320562,0
{job=theodolite-stu200776/combined-trace-podmonitor},1651320567,0
{job=theodolite-stu200776/combined-trace-podmonitor},1651320572,0
