labels,timestamp,value
{consumergroup=__strimzi-topic-operator-kstreams},1651429868,3
{consumergroup=__strimzi-topic-operator-kstreams},1651429873,3
{consumergroup=__strimzi-topic-operator-kstreams},1651429878,3
{consumergroup=__strimzi-topic-operator-kstreams},1651429883,23
{consumergroup=__strimzi-topic-operator-kstreams},1651429888,23
{consumergroup=__strimzi-topic-operator-kstreams},1651429893,23
{consumergroup=__strimzi-topic-operator-kstreams},1651429898,0
{consumergroup=__strimzi-topic-operator-kstreams},1651429903,0
{consumergroup=__strimzi-topic-operator-kstreams},1651429908,0
{consumergroup=__strimzi-topic-operator-kstreams},1651429913,0
{consumergroup=__strimzi-topic-operator-kstreams},1651429918,0
{consumergroup=__strimzi-topic-operator-kstreams},1651429923,0
{consumergroup=__strimzi-topic-operator-kstreams},1651429928,0
{consumergroup=__strimzi-topic-operator-kstreams},1651429933,0
{consumergroup=__strimzi-topic-operator-kstreams},1651429938,0
{consumergroup=__strimzi-topic-operator-kstreams},1651429943,0
{consumergroup=__strimzi-topic-operator-kstreams},1651429948,0
{consumergroup=__strimzi-topic-operator-kstreams},1651429953,0
{consumergroup=__strimzi-topic-operator-kstreams},1651429958,0
{consumergroup=__strimzi-topic-operator-kstreams},1651429963,0
{consumergroup=__strimzi-topic-operator-kstreams},1651429968,0
{consumergroup=__strimzi-topic-operator-kstreams},1651429973,0
{consumergroup=__strimzi-topic-operator-kstreams},1651429978,0
{consumergroup=__strimzi-topic-operator-kstreams},1651429983,0
{consumergroup=__strimzi-topic-operator-kstreams},1651429988,0
{consumergroup=__strimzi-topic-operator-kstreams},1651429993,0
{consumergroup=__strimzi-topic-operator-kstreams},1651429998,0
{consumergroup=__strimzi-topic-operator-kstreams},1651430003,0
{consumergroup=__strimzi-topic-operator-kstreams},1651430008,0
{consumergroup=__strimzi-topic-operator-kstreams},1651430013,0
{consumergroup=__strimzi-topic-operator-kstreams},1651430018,0
{consumergroup=__strimzi-topic-operator-kstreams},1651430023,0
{consumergroup=__strimzi-topic-operator-kstreams},1651430028,0
{consumergroup=__strimzi-topic-operator-kstreams},1651430033,0
{consumergroup=__strimzi-topic-operator-kstreams},1651430038,0
{consumergroup=__strimzi-topic-operator-kstreams},1651430043,0
{consumergroup=__strimzi-topic-operator-kstreams},1651430048,0
{consumergroup=__strimzi-topic-operator-kstreams},1651430053,0
{consumergroup=__strimzi-topic-operator-kstreams},1651430058,0
{consumergroup=__strimzi-topic-operator-kstreams},1651430063,0
{consumergroup=__strimzi-topic-operator-kstreams},1651430068,0
{consumergroup=__strimzi-topic-operator-kstreams},1651430073,0
{consumergroup=__strimzi-topic-operator-kstreams},1651430078,0
{consumergroup=__strimzi-topic-operator-kstreams},1651430083,0
{consumergroup=__strimzi-topic-operator-kstreams},1651430088,0
{consumergroup=__strimzi-topic-operator-kstreams},1651430093,0
{consumergroup=__strimzi-topic-operator-kstreams},1651430098,0
{consumergroup=__strimzi-topic-operator-kstreams},1651430103,0
{consumergroup=__strimzi-topic-operator-kstreams},1651430108,0
{consumergroup=__strimzi-topic-operator-kstreams},1651430113,0
{consumergroup=__strimzi-topic-operator-kstreams},1651430118,0
{consumergroup=__strimzi-topic-operator-kstreams},1651430123,0
{consumergroup=adapter-service},1651429898,433
{consumergroup=adapter-service},1651429903,433
{consumergroup=adapter-service},1651429908,433
{consumergroup=adapter-service},1651429913,146391
{consumergroup=adapter-service},1651429918,146391
{consumergroup=adapter-service},1651429923,146391
{consumergroup=adapter-service},1651429928,258381
{consumergroup=adapter-service},1651429933,258381
{consumergroup=adapter-service},1651429938,258381
{consumergroup=adapter-service},1651429943,364729
{consumergroup=adapter-service},1651429948,364729
{consumergroup=adapter-service},1651429953,364729
{consumergroup=adapter-service},1651429958,460395
{consumergroup=adapter-service},1651429963,460395
{consumergroup=adapter-service},1651429968,460395
{consumergroup=adapter-service},1651429973,568082
{consumergroup=adapter-service},1651429978,568082
{consumergroup=adapter-service},1651429983,568082
{consumergroup=adapter-service},1651429988,660398
{consumergroup=adapter-service},1651429993,660398
{consumergroup=adapter-service},1651429998,660398
{consumergroup=adapter-service},1651430003,758138
{consumergroup=adapter-service},1651430008,758138
{consumergroup=adapter-service},1651430013,758138
{consumergroup=adapter-service},1651430018,837807
{consumergroup=adapter-service},1651430023,837807
{consumergroup=adapter-service},1651430028,837807
{consumergroup=adapter-service},1651430033,919904
{consumergroup=adapter-service},1651430038,919904
{consumergroup=adapter-service},1651430043,919904
{consumergroup=adapter-service},1651430048,1007936
{consumergroup=adapter-service},1651430053,1007936
{consumergroup=adapter-service},1651430058,1007936
{consumergroup=adapter-service},1651430063,1086528
{consumergroup=adapter-service},1651430068,1086528
{consumergroup=adapter-service},1651430073,1086528
{consumergroup=adapter-service},1651430078,1157156
{consumergroup=adapter-service},1651430083,1157156
{consumergroup=adapter-service},1651430088,1157156
{consumergroup=adapter-service},1651430093,1256514
{consumergroup=adapter-service},1651430098,1256514
{consumergroup=adapter-service},1651430103,1256514
{consumergroup=adapter-service},1651430108,1314252
{consumergroup=adapter-service},1651430113,1314252
{consumergroup=adapter-service},1651430118,1314252
{consumergroup=adapter-service},1651430123,1400947
