labels,timestamp,value
{job=theodolite-stu200776/trace-isolated-podmonitor},1651505500,0
{job=theodolite-stu200776/trace-isolated-podmonitor},1651505505,0
{job=theodolite-stu200776/trace-isolated-podmonitor},1651505510,0
{job=theodolite-stu200776/trace-isolated-podmonitor},1651505515,0
{job=theodolite-stu200776/trace-isolated-podmonitor},1651505520,0
{job=theodolite-stu200776/trace-isolated-podmonitor},1651505525,0
{job=theodolite-stu200776/trace-isolated-podmonitor},1651505530,0
{job=theodolite-stu200776/trace-isolated-podmonitor},1651505535,0
{job=theodolite-stu200776/trace-isolated-podmonitor},1651505540,0
{job=theodolite-stu200776/trace-isolated-podmonitor},1651505545,0
{job=theodolite-stu200776/trace-isolated-podmonitor},1651505550,0
{job=theodolite-stu200776/trace-isolated-podmonitor},1651505555,0
{job=theodolite-stu200776/trace-isolated-podmonitor},1651505560,0
{job=theodolite-stu200776/trace-isolated-podmonitor},1651505565,0
{job=theodolite-stu200776/trace-isolated-podmonitor},1651505570,0
{job=theodolite-stu200776/trace-isolated-podmonitor},1651505575,0
{job=theodolite-stu200776/trace-isolated-podmonitor},1651505580,0
{job=theodolite-stu200776/trace-isolated-podmonitor},1651505585,0
{job=theodolite-stu200776/trace-isolated-podmonitor},1651505590,0
{job=theodolite-stu200776/trace-isolated-podmonitor},1651505595,0
{job=theodolite-stu200776/trace-isolated-podmonitor},1651505600,0
{job=theodolite-stu200776/trace-isolated-podmonitor},1651505605,0
{job=theodolite-stu200776/trace-isolated-podmonitor},1651505610,0
{job=theodolite-stu200776/trace-isolated-podmonitor},1651505615,0
{job=theodolite-stu200776/trace-isolated-podmonitor},1651505620,0
{job=theodolite-stu200776/trace-isolated-podmonitor},1651505625,0
{job=theodolite-stu200776/trace-isolated-podmonitor},1651505630,0
{job=theodolite-stu200776/trace-isolated-podmonitor},1651505635,0
{job=theodolite-stu200776/trace-isolated-podmonitor},1651505640,0
{job=theodolite-stu200776/trace-isolated-podmonitor},1651505645,0
{job=theodolite-stu200776/trace-isolated-podmonitor},1651505650,0
{job=theodolite-stu200776/trace-isolated-podmonitor},1651505655,0
{job=theodolite-stu200776/trace-isolated-podmonitor},1651505660,0
{job=theodolite-stu200776/trace-isolated-podmonitor},1651505665,0
{job=theodolite-stu200776/trace-isolated-podmonitor},1651505670,0
{job=theodolite-stu200776/trace-isolated-podmonitor},1651505675,0
{job=theodolite-stu200776/trace-isolated-podmonitor},1651505680,0
{job=theodolite-stu200776/trace-isolated-podmonitor},1651505685,0
{job=theodolite-stu200776/trace-isolated-podmonitor},1651505690,0
{job=theodolite-stu200776/trace-isolated-podmonitor},1651505695,0
{job=theodolite-stu200776/trace-isolated-podmonitor},1651505700,0
{job=theodolite-stu200776/trace-isolated-podmonitor},1651505705,0
{job=theodolite-stu200776/trace-isolated-podmonitor},1651505710,0
{job=theodolite-stu200776/trace-isolated-podmonitor},1651505715,0
{job=theodolite-stu200776/trace-isolated-podmonitor},1651505720,0
{job=theodolite-stu200776/trace-isolated-podmonitor},1651505725,0
{job=theodolite-stu200776/trace-isolated-podmonitor},1651505730,0
{job=theodolite-stu200776/trace-isolated-podmonitor},1651505735,0
{job=theodolite-stu200776/trace-isolated-podmonitor},1651505740,0
{job=theodolite-stu200776/trace-isolated-podmonitor},1651505745,0
{job=theodolite-stu200776/trace-isolated-podmonitor},1651505750,0
{job=theodolite-stu200776/trace-isolated-podmonitor},1651505755,0
{job=theodolite-stu200776/trace-isolated-podmonitor},1651505760,0
{job=theodolite-stu200776/trace-isolated-podmonitor},1651505765,0
{job=theodolite-stu200776/trace-isolated-podmonitor},1651505770,0
{job=theodolite-stu200776/trace-isolated-podmonitor},1651505775,0
{job=theodolite-stu200776/trace-isolated-podmonitor},1651505780,0
{job=theodolite-stu200776/trace-isolated-podmonitor},1651505785,0
{job=theodolite-stu200776/trace-isolated-podmonitor},1651505790,0
{job=theodolite-stu200776/trace-isolated-podmonitor},1651505795,0
{job=theodolite-stu200776/trace-isolated-podmonitor},1651505800,0
{job=theodolite-stu200776/trace-isolated-podmonitor},1651505805,0
{job=theodolite-stu200776/trace-isolated-podmonitor},1651505810,0
{job=theodolite-stu200776/trace-isolated-podmonitor},1651505815,0
{job=theodolite-stu200776/trace-isolated-podmonitor},1651505820,0
{job=theodolite-stu200776/trace-isolated-podmonitor},1651505825,0
{job=theodolite-stu200776/trace-isolated-podmonitor},1651505830,0
{job=theodolite-stu200776/trace-isolated-podmonitor},1651505835,0
{job=theodolite-stu200776/trace-isolated-podmonitor},1651505840,0
{job=theodolite-stu200776/trace-isolated-podmonitor},1651505845,0
{job=theodolite-stu200776/trace-isolated-podmonitor},1651505850,0
{job=theodolite-stu200776/trace-isolated-podmonitor},1651505855,0
{job=theodolite-stu200776/trace-isolated-podmonitor},1651505860,0
{job=theodolite-stu200776/trace-isolated-podmonitor},1651505865,0
{job=theodolite-stu200776/trace-isolated-podmonitor},1651505870,0
{job=theodolite-stu200776/trace-isolated-podmonitor},1651505875,0
