labels,timestamp,value
{job=theodolite-stu200776/trace-isolated-podmonitor},1651522520,0
{job=theodolite-stu200776/trace-isolated-podmonitor},1651522525,0
{job=theodolite-stu200776/trace-isolated-podmonitor},1651522530,0
{job=theodolite-stu200776/trace-isolated-podmonitor},1651522535,0
{job=theodolite-stu200776/trace-isolated-podmonitor},1651522540,0
{job=theodolite-stu200776/trace-isolated-podmonitor},1651522545,0
{job=theodolite-stu200776/trace-isolated-podmonitor},1651522550,0
{job=theodolite-stu200776/trace-isolated-podmonitor},1651522555,0
{job=theodolite-stu200776/trace-isolated-podmonitor},1651522560,0
{job=theodolite-stu200776/trace-isolated-podmonitor},1651522565,0
{job=theodolite-stu200776/trace-isolated-podmonitor},1651522570,0
{job=theodolite-stu200776/trace-isolated-podmonitor},1651522575,0
{job=theodolite-stu200776/trace-isolated-podmonitor},1651522580,0
{job=theodolite-stu200776/trace-isolated-podmonitor},1651522585,0
{job=theodolite-stu200776/trace-isolated-podmonitor},1651522590,0
{job=theodolite-stu200776/trace-isolated-podmonitor},1651522595,0
{job=theodolite-stu200776/trace-isolated-podmonitor},1651522600,0
{job=theodolite-stu200776/trace-isolated-podmonitor},1651522605,0
{job=theodolite-stu200776/trace-isolated-podmonitor},1651522610,0
{job=theodolite-stu200776/trace-isolated-podmonitor},1651522615,0
{job=theodolite-stu200776/trace-isolated-podmonitor},1651522620,0
{job=theodolite-stu200776/trace-isolated-podmonitor},1651522625,0
{job=theodolite-stu200776/trace-isolated-podmonitor},1651522630,0
{job=theodolite-stu200776/trace-isolated-podmonitor},1651522635,0
{job=theodolite-stu200776/trace-isolated-podmonitor},1651522640,0
{job=theodolite-stu200776/trace-isolated-podmonitor},1651522645,0
{job=theodolite-stu200776/trace-isolated-podmonitor},1651522650,0
{job=theodolite-stu200776/trace-isolated-podmonitor},1651522655,0
{job=theodolite-stu200776/trace-isolated-podmonitor},1651522660,0
{job=theodolite-stu200776/trace-isolated-podmonitor},1651522665,0
{job=theodolite-stu200776/trace-isolated-podmonitor},1651522670,0
{job=theodolite-stu200776/trace-isolated-podmonitor},1651522675,0
{job=theodolite-stu200776/trace-isolated-podmonitor},1651522680,0
{job=theodolite-stu200776/trace-isolated-podmonitor},1651522685,0
{job=theodolite-stu200776/trace-isolated-podmonitor},1651522690,0
{job=theodolite-stu200776/trace-isolated-podmonitor},1651522695,0
{job=theodolite-stu200776/trace-isolated-podmonitor},1651522700,0
{job=theodolite-stu200776/trace-isolated-podmonitor},1651522705,0
{job=theodolite-stu200776/trace-isolated-podmonitor},1651522710,0
{job=theodolite-stu200776/trace-isolated-podmonitor},1651522715,0
{job=theodolite-stu200776/trace-isolated-podmonitor},1651522720,0
{job=theodolite-stu200776/trace-isolated-podmonitor},1651522725,0
{job=theodolite-stu200776/trace-isolated-podmonitor},1651522730,0
{job=theodolite-stu200776/trace-isolated-podmonitor},1651522735,0
{job=theodolite-stu200776/trace-isolated-podmonitor},1651522740,0
{job=theodolite-stu200776/trace-isolated-podmonitor},1651522745,0
{job=theodolite-stu200776/trace-isolated-podmonitor},1651522750,0
{job=theodolite-stu200776/trace-isolated-podmonitor},1651522755,0
{job=theodolite-stu200776/trace-isolated-podmonitor},1651522760,0
{job=theodolite-stu200776/trace-isolated-podmonitor},1651522765,0
{job=theodolite-stu200776/trace-isolated-podmonitor},1651522770,0
{job=theodolite-stu200776/trace-isolated-podmonitor},1651522775,0
{job=theodolite-stu200776/trace-isolated-podmonitor},1651522780,0
{job=theodolite-stu200776/trace-isolated-podmonitor},1651522785,0
{job=theodolite-stu200776/trace-isolated-podmonitor},1651522790,0
{job=theodolite-stu200776/trace-isolated-podmonitor},1651522795,0
{job=theodolite-stu200776/trace-isolated-podmonitor},1651522800,0
{job=theodolite-stu200776/trace-isolated-podmonitor},1651522805,0
{job=theodolite-stu200776/trace-isolated-podmonitor},1651522810,0
{job=theodolite-stu200776/trace-isolated-podmonitor},1651522815,0
{job=theodolite-stu200776/trace-isolated-podmonitor},1651522820,0
{job=theodolite-stu200776/trace-isolated-podmonitor},1651522825,0
{job=theodolite-stu200776/trace-isolated-podmonitor},1651522830,0
{job=theodolite-stu200776/trace-isolated-podmonitor},1651522835,0
{job=theodolite-stu200776/trace-isolated-podmonitor},1651522840,0
{job=theodolite-stu200776/trace-isolated-podmonitor},1651522845,0
{job=theodolite-stu200776/trace-isolated-podmonitor},1651522850,0
{job=theodolite-stu200776/trace-isolated-podmonitor},1651522855,0
{job=theodolite-stu200776/trace-isolated-podmonitor},1651522860,0
{job=theodolite-stu200776/trace-isolated-podmonitor},1651522865,0
{job=theodolite-stu200776/trace-isolated-podmonitor},1651522870,0
{job=theodolite-stu200776/trace-isolated-podmonitor},1651522875,0
{job=theodolite-stu200776/trace-isolated-podmonitor},1651522880,0
{job=theodolite-stu200776/trace-isolated-podmonitor},1651522885,0
{job=theodolite-stu200776/trace-isolated-podmonitor},1651522890,0
