labels,timestamp,value
{consumergroup=__strimzi-topic-operator-kstreams},1651551552,11
{consumergroup=__strimzi-topic-operator-kstreams},1651551557,11
{consumergroup=__strimzi-topic-operator-kstreams},1651551562,11
{consumergroup=__strimzi-topic-operator-kstreams},1651551567,3
{consumergroup=__strimzi-topic-operator-kstreams},1651551572,3
{consumergroup=__strimzi-topic-operator-kstreams},1651551577,3
{consumergroup=__strimzi-topic-operator-kstreams},1651551582,3
{consumergroup=__strimzi-topic-operator-kstreams},1651551587,3
{consumergroup=__strimzi-topic-operator-kstreams},1651551592,3
{consumergroup=__strimzi-topic-operator-kstreams},1651551597,0
{consumergroup=__strimzi-topic-operator-kstreams},1651551602,0
{consumergroup=__strimzi-topic-operator-kstreams},1651551607,0
{consumergroup=__strimzi-topic-operator-kstreams},1651551612,0
{consumergroup=__strimzi-topic-operator-kstreams},1651551617,0
{consumergroup=__strimzi-topic-operator-kstreams},1651551622,0
{consumergroup=__strimzi-topic-operator-kstreams},1651551627,0
{consumergroup=__strimzi-topic-operator-kstreams},1651551632,0
{consumergroup=__strimzi-topic-operator-kstreams},1651551637,0
{consumergroup=__strimzi-topic-operator-kstreams},1651551642,0
{consumergroup=__strimzi-topic-operator-kstreams},1651551647,0
{consumergroup=__strimzi-topic-operator-kstreams},1651551652,0
{consumergroup=__strimzi-topic-operator-kstreams},1651551657,0
{consumergroup=__strimzi-topic-operator-kstreams},1651551662,0
{consumergroup=__strimzi-topic-operator-kstreams},1651551667,0
{consumergroup=__strimzi-topic-operator-kstreams},1651551672,0
{consumergroup=__strimzi-topic-operator-kstreams},1651551677,0
{consumergroup=__strimzi-topic-operator-kstreams},1651551682,0
{consumergroup=__strimzi-topic-operator-kstreams},1651551687,0
{consumergroup=__strimzi-topic-operator-kstreams},1651551692,0
{consumergroup=__strimzi-topic-operator-kstreams},1651551697,0
{consumergroup=__strimzi-topic-operator-kstreams},1651551702,0
{consumergroup=__strimzi-topic-operator-kstreams},1651551707,0
{consumergroup=__strimzi-topic-operator-kstreams},1651551712,0
{consumergroup=__strimzi-topic-operator-kstreams},1651551717,0
{consumergroup=__strimzi-topic-operator-kstreams},1651551722,0
{consumergroup=__strimzi-topic-operator-kstreams},1651551727,0
{consumergroup=__strimzi-topic-operator-kstreams},1651551732,0
{consumergroup=__strimzi-topic-operator-kstreams},1651551737,0
{consumergroup=__strimzi-topic-operator-kstreams},1651551742,0
{consumergroup=__strimzi-topic-operator-kstreams},1651551747,0
{consumergroup=__strimzi-topic-operator-kstreams},1651551752,0
{consumergroup=__strimzi-topic-operator-kstreams},1651551757,0
{consumergroup=__strimzi-topic-operator-kstreams},1651551762,0
{consumergroup=__strimzi-topic-operator-kstreams},1651551767,0
{consumergroup=__strimzi-topic-operator-kstreams},1651551772,0
{consumergroup=__strimzi-topic-operator-kstreams},1651551777,0
{consumergroup=__strimzi-topic-operator-kstreams},1651551782,0
{consumergroup=__strimzi-topic-operator-kstreams},1651551787,0
{consumergroup=__strimzi-topic-operator-kstreams},1651551792,0
{consumergroup=__strimzi-topic-operator-kstreams},1651551797,0
{consumergroup=__strimzi-topic-operator-kstreams},1651551802,0
{consumergroup=__strimzi-topic-operator-kstreams},1651551807,0
{consumergroup=__strimzi-topic-operator-kstreams},1651551812,0
{consumergroup=__strimzi-topic-operator-kstreams},1651551817,0
{consumergroup=__strimzi-topic-operator-kstreams},1651551822,0
{consumergroup=__strimzi-topic-operator-kstreams},1651551827,0
{consumergroup=__strimzi-topic-operator-kstreams},1651551832,0
{consumergroup=__strimzi-topic-operator-kstreams},1651551837,0
{consumergroup=__strimzi-topic-operator-kstreams},1651551842,0
{consumergroup=__strimzi-topic-operator-kstreams},1651551847,0
{consumergroup=__strimzi-topic-operator-kstreams},1651551852,0
{consumergroup=__strimzi-topic-operator-kstreams},1651551857,0
{consumergroup=__strimzi-topic-operator-kstreams},1651551862,0
{consumergroup=__strimzi-topic-operator-kstreams},1651551867,0
{consumergroup=__strimzi-topic-operator-kstreams},1651551872,0
{consumergroup=__strimzi-topic-operator-kstreams},1651551877,0
{consumergroup=__strimzi-topic-operator-kstreams},1651551882,0
{consumergroup=__strimzi-topic-operator-kstreams},1651551887,0
{consumergroup=__strimzi-topic-operator-kstreams},1651551892,0
{consumergroup=__strimzi-topic-operator-kstreams},1651551897,0
{consumergroup=__strimzi-topic-operator-kstreams},1651551902,0
{consumergroup=__strimzi-topic-operator-kstreams},1651551907,0
{consumergroup=__strimzi-topic-operator-kstreams},1651551912,0
{consumergroup=__strimzi-topic-operator-kstreams},1651551917,0
{consumergroup=__strimzi-topic-operator-kstreams},1651551922,0
{consumergroup=__strimzi-topic-operator-kstreams},1651551927,0
{consumergroup=__strimzi-topic-operator-kstreams},1651551932,0
{consumergroup=__strimzi-topic-operator-kstreams},1651551937,0
{consumergroup=__strimzi-topic-operator-kstreams},1651551942,0
{consumergroup=__strimzi-topic-operator-kstreams},1651551947,0
{consumergroup=__strimzi-topic-operator-kstreams},1651551952,0
{consumergroup=__strimzi-topic-operator-kstreams},1651551957,0
{consumergroup=__strimzi-topic-operator-kstreams},1651551962,0
{consumergroup=__strimzi-topic-operator-kstreams},1651551967,0
{consumergroup=__strimzi-topic-operator-kstreams},1651551972,0
{consumergroup=__strimzi-topic-operator-kstreams},1651551977,0
{consumergroup=__strimzi-topic-operator-kstreams},1651551982,0
{consumergroup=__strimzi-topic-operator-kstreams},1651551987,0
{consumergroup=__strimzi-topic-operator-kstreams},1651551992,0
{consumergroup=adapter-service},1651551582,0
{consumergroup=adapter-service},1651551587,0
{consumergroup=adapter-service},1651551592,0
{consumergroup=adapter-service},1651551597,33966
{consumergroup=adapter-service},1651551602,33966
{consumergroup=adapter-service},1651551607,33966
{consumergroup=adapter-service},1651551612,12952
{consumergroup=adapter-service},1651551617,12952
{consumergroup=adapter-service},1651551622,12952
{consumergroup=adapter-service},1651551627,11089
{consumergroup=adapter-service},1651551632,11089
{consumergroup=adapter-service},1651551637,11089
{consumergroup=adapter-service},1651551642,13334
{consumergroup=adapter-service},1651551647,13334
{consumergroup=adapter-service},1651551652,13334
{consumergroup=adapter-service},1651551657,7998
{consumergroup=adapter-service},1651551662,7998
{consumergroup=adapter-service},1651551667,7998
{consumergroup=adapter-service},1651551672,12193
{consumergroup=adapter-service},1651551677,12193
{consumergroup=adapter-service},1651551682,12193
{consumergroup=adapter-service},1651551687,6432
{consumergroup=adapter-service},1651551692,6432
{consumergroup=adapter-service},1651551697,6432
{consumergroup=adapter-service},1651551702,10118
{consumergroup=adapter-service},1651551707,10118
{consumergroup=adapter-service},1651551712,10118
{consumergroup=adapter-service},1651551717,5796
{consumergroup=adapter-service},1651551722,5796
{consumergroup=adapter-service},1651551727,5796
{consumergroup=adapter-service},1651551732,9512
{consumergroup=adapter-service},1651551737,9512
{consumergroup=adapter-service},1651551742,9512
{consumergroup=adapter-service},1651551747,6299
{consumergroup=adapter-service},1651551752,6299
{consumergroup=adapter-service},1651551757,6299
{consumergroup=adapter-service},1651551762,12939
{consumergroup=adapter-service},1651551767,12939
{consumergroup=adapter-service},1651551772,12939
{consumergroup=adapter-service},1651551777,4651
{consumergroup=adapter-service},1651551782,4651
{consumergroup=adapter-service},1651551787,4651
{consumergroup=adapter-service},1651551792,8590
{consumergroup=adapter-service},1651551797,8590
{consumergroup=adapter-service},1651551802,8590
{consumergroup=adapter-service},1651551807,4198
{consumergroup=adapter-service},1651551812,4198
{consumergroup=adapter-service},1651551817,4198
{consumergroup=adapter-service},1651551822,8149
{consumergroup=adapter-service},1651551827,8149
{consumergroup=adapter-service},1651551832,8149
{consumergroup=adapter-service},1651551837,3703
{consumergroup=adapter-service},1651551842,3703
{consumergroup=adapter-service},1651551847,3703
{consumergroup=adapter-service},1651551852,7997
{consumergroup=adapter-service},1651551857,7997
{consumergroup=adapter-service},1651551862,7997
{consumergroup=adapter-service},1651551867,3218
{consumergroup=adapter-service},1651551872,3218
{consumergroup=adapter-service},1651551877,3218
{consumergroup=adapter-service},1651551882,6908
{consumergroup=adapter-service},1651551887,6908
{consumergroup=adapter-service},1651551892,6908
{consumergroup=adapter-service},1651551897,2816
{consumergroup=adapter-service},1651551902,2816
{consumergroup=adapter-service},1651551907,2816
{consumergroup=adapter-service},1651551912,6510
{consumergroup=adapter-service},1651551917,6510
{consumergroup=adapter-service},1651551922,6510
{consumergroup=adapter-service},1651551927,2208
{consumergroup=adapter-service},1651551932,2208
{consumergroup=adapter-service},1651551937,2208
{consumergroup=adapter-service},1651551942,5862
{consumergroup=adapter-service},1651551947,5862
{consumergroup=adapter-service},1651551952,5862
{consumergroup=adapter-service},1651551957,1897
{consumergroup=adapter-service},1651551962,1897
{consumergroup=adapter-service},1651551967,1897
{consumergroup=adapter-service},1651551972,5488
{consumergroup=adapter-service},1651551977,5488
{consumergroup=adapter-service},1651551982,5488
{consumergroup=adapter-service},1651551987,4656
{consumergroup=adapter-service},1651551992,4656
{consumergroup=landscape-service},1651551597,36386
{consumergroup=landscape-service},1651551602,36386
{consumergroup=landscape-service},1651551607,36386
{consumergroup=landscape-service},1651551612,49395
{consumergroup=landscape-service},1651551617,49395
{consumergroup=landscape-service},1651551622,49395
{consumergroup=landscape-service},1651551627,13872
{consumergroup=landscape-service},1651551632,13872
{consumergroup=landscape-service},1651551637,13872
{consumergroup=landscape-service},1651551642,17575
{consumergroup=landscape-service},1651551647,17575
{consumergroup=landscape-service},1651551652,17575
{consumergroup=landscape-service},1651551657,11557
{consumergroup=landscape-service},1651551662,11557
{consumergroup=landscape-service},1651551667,11557
{consumergroup=landscape-service},1651551672,14932
{consumergroup=landscape-service},1651551677,14932
{consumergroup=landscape-service},1651551682,14932
{consumergroup=landscape-service},1651551687,10935
{consumergroup=landscape-service},1651551692,10935
{consumergroup=landscape-service},1651551697,10935
{consumergroup=landscape-service},1651551702,14012
{consumergroup=landscape-service},1651551707,14012
{consumergroup=landscape-service},1651551712,14012
{consumergroup=landscape-service},1651551717,9228
{consumergroup=landscape-service},1651551722,9228
{consumergroup=landscape-service},1651551727,9228
{consumergroup=landscape-service},1651551732,12603
{consumergroup=landscape-service},1651551737,12603
{consumergroup=landscape-service},1651551742,12603
{consumergroup=landscape-service},1651551747,7252
{consumergroup=landscape-service},1651551752,7252
{consumergroup=landscape-service},1651551757,7252
{consumergroup=landscape-service},1651551762,14246
{consumergroup=landscape-service},1651551767,14246
{consumergroup=landscape-service},1651551772,14246
{consumergroup=landscape-service},1651551777,5424
{consumergroup=landscape-service},1651551782,5424
{consumergroup=landscape-service},1651551787,5424
{consumergroup=landscape-service},1651551792,10047
{consumergroup=landscape-service},1651551797,10047
{consumergroup=landscape-service},1651551802,10047
{consumergroup=landscape-service},1651551807,4494
{consumergroup=landscape-service},1651551812,4494
{consumergroup=landscape-service},1651551817,4494
{consumergroup=landscape-service},1651551822,8843
{consumergroup=landscape-service},1651551827,8843
{consumergroup=landscape-service},1651551832,8843
{consumergroup=landscape-service},1651551837,2800
{consumergroup=landscape-service},1651551842,2800
{consumergroup=landscape-service},1651551847,2800
{consumergroup=landscape-service},1651551852,6396
{consumergroup=landscape-service},1651551857,6396
{consumergroup=landscape-service},1651551862,6396
{consumergroup=landscape-service},1651551867,2419
{consumergroup=landscape-service},1651551872,2419
{consumergroup=landscape-service},1651551877,2419
{consumergroup=landscape-service},1651551882,5175
{consumergroup=landscape-service},1651551887,5175
{consumergroup=landscape-service},1651551892,5175
{consumergroup=landscape-service},1651551897,359
{consumergroup=landscape-service},1651551902,359
{consumergroup=landscape-service},1651551907,359
{consumergroup=landscape-service},1651551912,3606
{consumergroup=landscape-service},1651551917,3606
{consumergroup=landscape-service},1651551922,3606
{consumergroup=landscape-service},1651551927,18745
{consumergroup=landscape-service},1651551932,18745
{consumergroup=landscape-service},1651551937,18745
{consumergroup=landscape-service},1651551942,1642
{consumergroup=landscape-service},1651551947,1642
{consumergroup=landscape-service},1651551952,1642
{consumergroup=landscape-service},1651551957,17319
{consumergroup=landscape-service},1651551962,17319
{consumergroup=landscape-service},1651551967,17319
{consumergroup=landscape-service},1651551972,610
{consumergroup=landscape-service},1651551977,610
{consumergroup=landscape-service},1651551982,610
{consumergroup=landscape-service},1651551987,16214
{consumergroup=landscape-service},1651551992,16214
{consumergroup=trace-service},1651551597,21665
{consumergroup=trace-service},1651551602,21665
{consumergroup=trace-service},1651551607,21665
{consumergroup=trace-service},1651551612,63733
{consumergroup=trace-service},1651551617,63733
{consumergroup=trace-service},1651551622,63733
{consumergroup=trace-service},1651551627,76766
{consumergroup=trace-service},1651551632,76766
{consumergroup=trace-service},1651551637,76766
{consumergroup=trace-service},1651551642,56317
{consumergroup=trace-service},1651551647,56317
{consumergroup=trace-service},1651551652,56317
{consumergroup=trace-service},1651551657,146610
{consumergroup=trace-service},1651551662,146610
{consumergroup=trace-service},1651551667,146610
{consumergroup=trace-service},1651551672,44937
{consumergroup=trace-service},1651551677,44937
{consumergroup=trace-service},1651551682,44937
{consumergroup=trace-service},1651551687,66765
{consumergroup=trace-service},1651551692,66765
{consumergroup=trace-service},1651551697,66765
{consumergroup=trace-service},1651551702,49687
{consumergroup=trace-service},1651551707,49687
{consumergroup=trace-service},1651551712,49687
{consumergroup=trace-service},1651551717,108254
{consumergroup=trace-service},1651551722,108254
{consumergroup=trace-service},1651551727,108254
{consumergroup=trace-service},1651551732,47977
{consumergroup=trace-service},1651551737,47977
{consumergroup=trace-service},1651551742,47977
{consumergroup=trace-service},1651551747,105688
{consumergroup=trace-service},1651551752,105688
{consumergroup=trace-service},1651551757,105688
{consumergroup=trace-service},1651551762,50398
{consumergroup=trace-service},1651551767,50398
{consumergroup=trace-service},1651551772,50398
{consumergroup=trace-service},1651551777,133267
{consumergroup=trace-service},1651551782,133267
{consumergroup=trace-service},1651551787,133267
{consumergroup=trace-service},1651551792,44816
{consumergroup=trace-service},1651551797,44816
{consumergroup=trace-service},1651551802,44816
{consumergroup=trace-service},1651551807,100403
{consumergroup=trace-service},1651551812,100403
{consumergroup=trace-service},1651551817,100403
{consumergroup=trace-service},1651551822,46846
{consumergroup=trace-service},1651551827,46846
{consumergroup=trace-service},1651551832,46846
{consumergroup=trace-service},1651551837,133720
{consumergroup=trace-service},1651551842,133720
{consumergroup=trace-service},1651551847,133720
{consumergroup=trace-service},1651551852,44437
{consumergroup=trace-service},1651551857,44437
{consumergroup=trace-service},1651551862,44437
{consumergroup=trace-service},1651551867,88839
{consumergroup=trace-service},1651551872,88839
{consumergroup=trace-service},1651551877,88839
{consumergroup=trace-service},1651551882,48235
{consumergroup=trace-service},1651551887,48235
{consumergroup=trace-service},1651551892,48235
{consumergroup=trace-service},1651551897,84550
{consumergroup=trace-service},1651551902,84550
{consumergroup=trace-service},1651551907,84550
{consumergroup=trace-service},1651551912,47349
{consumergroup=trace-service},1651551917,47349
{consumergroup=trace-service},1651551922,47349
{consumergroup=trace-service},1651551927,138655
{consumergroup=trace-service},1651551932,138655
{consumergroup=trace-service},1651551937,138655
{consumergroup=trace-service},1651551942,45109
{consumergroup=trace-service},1651551947,45109
{consumergroup=trace-service},1651551952,45109
{consumergroup=trace-service},1651551957,91943
{consumergroup=trace-service},1651551962,91943
{consumergroup=trace-service},1651551967,91943
{consumergroup=trace-service},1651551972,46250
{consumergroup=trace-service},1651551977,46250
{consumergroup=trace-service},1651551982,46250
{consumergroup=trace-service},1651551987,137225
{consumergroup=trace-service},1651551992,137225
{consumergroup=trace-token-events-consumer},1651551582,0
{consumergroup=trace-token-events-consumer},1651551587,0
{consumergroup=trace-token-events-consumer},1651551592,0
{consumergroup=trace-token-events-consumer},1651551597,0
{consumergroup=trace-token-events-consumer},1651551602,0
{consumergroup=trace-token-events-consumer},1651551607,0
{consumergroup=trace-token-events-consumer},1651551612,0
{consumergroup=trace-token-events-consumer},1651551617,0
{consumergroup=trace-token-events-consumer},1651551622,0
{consumergroup=trace-token-events-consumer},1651551627,0
{consumergroup=trace-token-events-consumer},1651551632,0
{consumergroup=trace-token-events-consumer},1651551637,0
{consumergroup=trace-token-events-consumer},1651551642,0
{consumergroup=trace-token-events-consumer},1651551647,0
{consumergroup=trace-token-events-consumer},1651551652,0
{consumergroup=trace-token-events-consumer},1651551657,0
{consumergroup=trace-token-events-consumer},1651551662,0
{consumergroup=trace-token-events-consumer},1651551667,0
{consumergroup=trace-token-events-consumer},1651551672,0
{consumergroup=trace-token-events-consumer},1651551677,0
{consumergroup=trace-token-events-consumer},1651551682,0
{consumergroup=trace-token-events-consumer},1651551687,0
{consumergroup=trace-token-events-consumer},1651551692,0
{consumergroup=trace-token-events-consumer},1651551697,0
{consumergroup=trace-token-events-consumer},1651551702,0
{consumergroup=trace-token-events-consumer},1651551707,0
{consumergroup=trace-token-events-consumer},1651551712,0
{consumergroup=trace-token-events-consumer},1651551717,0
{consumergroup=trace-token-events-consumer},1651551722,0
{consumergroup=trace-token-events-consumer},1651551727,0
{consumergroup=trace-token-events-consumer},1651551732,0
{consumergroup=trace-token-events-consumer},1651551737,0
{consumergroup=trace-token-events-consumer},1651551742,0
{consumergroup=trace-token-events-consumer},1651551747,0
{consumergroup=trace-token-events-consumer},1651551752,0
{consumergroup=trace-token-events-consumer},1651551757,0
{consumergroup=trace-token-events-consumer},1651551762,0
{consumergroup=trace-token-events-consumer},1651551767,0
{consumergroup=trace-token-events-consumer},1651551772,0
{consumergroup=trace-token-events-consumer},1651551777,0
{consumergroup=trace-token-events-consumer},1651551782,0
{consumergroup=trace-token-events-consumer},1651551787,0
{consumergroup=trace-token-events-consumer},1651551792,0
{consumergroup=trace-token-events-consumer},1651551797,0
{consumergroup=trace-token-events-consumer},1651551802,0
{consumergroup=trace-token-events-consumer},1651551807,0
{consumergroup=trace-token-events-consumer},1651551812,0
{consumergroup=trace-token-events-consumer},1651551817,0
{consumergroup=trace-token-events-consumer},1651551822,0
{consumergroup=trace-token-events-consumer},1651551827,0
{consumergroup=trace-token-events-consumer},1651551832,0
{consumergroup=trace-token-events-consumer},1651551837,0
{consumergroup=trace-token-events-consumer},1651551842,0
{consumergroup=trace-token-events-consumer},1651551847,0
{consumergroup=trace-token-events-consumer},1651551852,0
{consumergroup=trace-token-events-consumer},1651551857,0
{consumergroup=trace-token-events-consumer},1651551862,0
{consumergroup=trace-token-events-consumer},1651551867,0
{consumergroup=trace-token-events-consumer},1651551872,0
{consumergroup=trace-token-events-consumer},1651551877,0
{consumergroup=trace-token-events-consumer},1651551882,0
{consumergroup=trace-token-events-consumer},1651551887,0
{consumergroup=trace-token-events-consumer},1651551892,0
{consumergroup=trace-token-events-consumer},1651551897,0
{consumergroup=trace-token-events-consumer},1651551902,0
{consumergroup=trace-token-events-consumer},1651551907,0
{consumergroup=trace-token-events-consumer},1651551912,0
{consumergroup=trace-token-events-consumer},1651551917,0
{consumergroup=trace-token-events-consumer},1651551922,0
{consumergroup=trace-token-events-consumer},1651551927,0
{consumergroup=trace-token-events-consumer},1651551932,0
{consumergroup=trace-token-events-consumer},1651551937,0
{consumergroup=trace-token-events-consumer},1651551942,0
{consumergroup=trace-token-events-consumer},1651551947,0
{consumergroup=trace-token-events-consumer},1651551952,0
{consumergroup=trace-token-events-consumer},1651551957,0
{consumergroup=trace-token-events-consumer},1651551962,0
{consumergroup=trace-token-events-consumer},1651551967,0
{consumergroup=trace-token-events-consumer},1651551972,0
{consumergroup=trace-token-events-consumer},1651551977,0
{consumergroup=trace-token-events-consumer},1651551982,0
{consumergroup=trace-token-events-consumer},1651551987,0
{consumergroup=trace-token-events-consumer},1651551992,0
