labels,timestamp,value
{consumergroup=__strimzi-topic-operator-kstreams},1651497799,11
{consumergroup=__strimzi-topic-operator-kstreams},1651497804,11
{consumergroup=__strimzi-topic-operator-kstreams},1651497809,11
{consumergroup=__strimzi-topic-operator-kstreams},1651497814,3
{consumergroup=__strimzi-topic-operator-kstreams},1651497819,3
{consumergroup=__strimzi-topic-operator-kstreams},1651497824,3
{consumergroup=__strimzi-topic-operator-kstreams},1651497829,3
{consumergroup=__strimzi-topic-operator-kstreams},1651497834,3
{consumergroup=__strimzi-topic-operator-kstreams},1651497839,3
{consumergroup=__strimzi-topic-operator-kstreams},1651497844,0
{consumergroup=__strimzi-topic-operator-kstreams},1651497849,0
{consumergroup=__strimzi-topic-operator-kstreams},1651497854,0
{consumergroup=__strimzi-topic-operator-kstreams},1651497859,0
{consumergroup=__strimzi-topic-operator-kstreams},1651497864,0
{consumergroup=__strimzi-topic-operator-kstreams},1651497869,0
{consumergroup=__strimzi-topic-operator-kstreams},1651497874,0
{consumergroup=__strimzi-topic-operator-kstreams},1651497879,0
{consumergroup=__strimzi-topic-operator-kstreams},1651497884,0
{consumergroup=__strimzi-topic-operator-kstreams},1651497889,0
{consumergroup=__strimzi-topic-operator-kstreams},1651497894,0
{consumergroup=__strimzi-topic-operator-kstreams},1651497899,0
{consumergroup=__strimzi-topic-operator-kstreams},1651497904,0
{consumergroup=__strimzi-topic-operator-kstreams},1651497909,0
{consumergroup=__strimzi-topic-operator-kstreams},1651497914,0
{consumergroup=__strimzi-topic-operator-kstreams},1651497919,0
{consumergroup=__strimzi-topic-operator-kstreams},1651497924,0
{consumergroup=__strimzi-topic-operator-kstreams},1651497929,0
{consumergroup=__strimzi-topic-operator-kstreams},1651497934,0
{consumergroup=__strimzi-topic-operator-kstreams},1651497939,0
{consumergroup=__strimzi-topic-operator-kstreams},1651497944,0
{consumergroup=__strimzi-topic-operator-kstreams},1651497949,0
{consumergroup=__strimzi-topic-operator-kstreams},1651497954,0
{consumergroup=__strimzi-topic-operator-kstreams},1651497959,0
{consumergroup=__strimzi-topic-operator-kstreams},1651497964,0
{consumergroup=__strimzi-topic-operator-kstreams},1651497969,0
{consumergroup=__strimzi-topic-operator-kstreams},1651497974,0
{consumergroup=__strimzi-topic-operator-kstreams},1651497979,0
{consumergroup=__strimzi-topic-operator-kstreams},1651497984,0
{consumergroup=__strimzi-topic-operator-kstreams},1651497989,0
{consumergroup=__strimzi-topic-operator-kstreams},1651497994,0
{consumergroup=__strimzi-topic-operator-kstreams},1651497999,0
{consumergroup=__strimzi-topic-operator-kstreams},1651498004,0
{consumergroup=__strimzi-topic-operator-kstreams},1651498009,0
{consumergroup=__strimzi-topic-operator-kstreams},1651498014,0
{consumergroup=__strimzi-topic-operator-kstreams},1651498019,0
{consumergroup=__strimzi-topic-operator-kstreams},1651498024,0
{consumergroup=__strimzi-topic-operator-kstreams},1651498029,0
{consumergroup=__strimzi-topic-operator-kstreams},1651498034,0
{consumergroup=__strimzi-topic-operator-kstreams},1651498039,0
{consumergroup=__strimzi-topic-operator-kstreams},1651498044,0
{consumergroup=__strimzi-topic-operator-kstreams},1651498049,0
{consumergroup=__strimzi-topic-operator-kstreams},1651498054,0
{consumergroup=__strimzi-topic-operator-kstreams},1651498059,0
{consumergroup=__strimzi-topic-operator-kstreams},1651498064,0
{consumergroup=__strimzi-topic-operator-kstreams},1651498069,0
{consumergroup=__strimzi-topic-operator-kstreams},1651498074,0
{consumergroup=__strimzi-topic-operator-kstreams},1651498079,0
{consumergroup=__strimzi-topic-operator-kstreams},1651498084,0
{consumergroup=__strimzi-topic-operator-kstreams},1651498089,0
{consumergroup=__strimzi-topic-operator-kstreams},1651498094,0
{consumergroup=__strimzi-topic-operator-kstreams},1651498099,0
{consumergroup=__strimzi-topic-operator-kstreams},1651498104,0
{consumergroup=__strimzi-topic-operator-kstreams},1651498109,0
{consumergroup=__strimzi-topic-operator-kstreams},1651498114,0
{consumergroup=__strimzi-topic-operator-kstreams},1651498119,0
{consumergroup=__strimzi-topic-operator-kstreams},1651498124,0
{consumergroup=__strimzi-topic-operator-kstreams},1651498129,0
{consumergroup=__strimzi-topic-operator-kstreams},1651498134,0
{consumergroup=__strimzi-topic-operator-kstreams},1651498139,0
{consumergroup=__strimzi-topic-operator-kstreams},1651498144,0
{consumergroup=__strimzi-topic-operator-kstreams},1651498149,0
{consumergroup=__strimzi-topic-operator-kstreams},1651498154,0
{consumergroup=__strimzi-topic-operator-kstreams},1651498159,0
{consumergroup=__strimzi-topic-operator-kstreams},1651498164,0
{consumergroup=__strimzi-topic-operator-kstreams},1651498169,0
{consumergroup=__strimzi-topic-operator-kstreams},1651498174,0
{consumergroup=__strimzi-topic-operator-kstreams},1651498179,0
{consumergroup=__strimzi-topic-operator-kstreams},1651498184,0
{consumergroup=__strimzi-topic-operator-kstreams},1651498189,0
{consumergroup=__strimzi-topic-operator-kstreams},1651498194,0
{consumergroup=__strimzi-topic-operator-kstreams},1651498199,0
{consumergroup=__strimzi-topic-operator-kstreams},1651498204,0
{consumergroup=__strimzi-topic-operator-kstreams},1651498209,0
{consumergroup=__strimzi-topic-operator-kstreams},1651498214,0
{consumergroup=__strimzi-topic-operator-kstreams},1651498219,0
{consumergroup=__strimzi-topic-operator-kstreams},1651498224,0
{consumergroup=__strimzi-topic-operator-kstreams},1651498229,0
{consumergroup=__strimzi-topic-operator-kstreams},1651498234,0
{consumergroup=__strimzi-topic-operator-kstreams},1651498239,0
{consumergroup=trace-service},1651497844,35997
{consumergroup=trace-service},1651497849,35997
{consumergroup=trace-service},1651497854,35997
{consumergroup=trace-service},1651497859,82900
{consumergroup=trace-service},1651497864,82900
{consumergroup=trace-service},1651497869,82900
{consumergroup=trace-service},1651497874,28262
{consumergroup=trace-service},1651497879,28262
{consumergroup=trace-service},1651497884,28262
{consumergroup=trace-service},1651497889,58882
{consumergroup=trace-service},1651497894,58882
{consumergroup=trace-service},1651497899,58882
{consumergroup=trace-service},1651497904,30084
{consumergroup=trace-service},1651497909,30084
{consumergroup=trace-service},1651497914,30084
{consumergroup=trace-service},1651497919,96547
{consumergroup=trace-service},1651497924,96547
{consumergroup=trace-service},1651497929,96547
{consumergroup=trace-service},1651497934,32889
{consumergroup=trace-service},1651497939,32889
{consumergroup=trace-service},1651497944,32889
{consumergroup=trace-service},1651497949,91799
{consumergroup=trace-service},1651497954,91799
{consumergroup=trace-service},1651497959,91799
{consumergroup=trace-service},1651497964,34914
{consumergroup=trace-service},1651497969,34914
{consumergroup=trace-service},1651497974,34914
{consumergroup=trace-service},1651497979,56564
{consumergroup=trace-service},1651497984,56564
{consumergroup=trace-service},1651497989,56564
{consumergroup=trace-service},1651497994,30448
{consumergroup=trace-service},1651497999,30448
{consumergroup=trace-service},1651498004,30448
{consumergroup=trace-service},1651498009,95198
{consumergroup=trace-service},1651498014,95198
{consumergroup=trace-service},1651498019,95198
{consumergroup=trace-service},1651498024,27369
{consumergroup=trace-service},1651498029,27369
{consumergroup=trace-service},1651498034,27369
{consumergroup=trace-service},1651498039,93916
{consumergroup=trace-service},1651498044,93916
{consumergroup=trace-service},1651498049,93916
{consumergroup=trace-service},1651498054,24093
{consumergroup=trace-service},1651498059,24093
{consumergroup=trace-service},1651498064,24093
{consumergroup=trace-service},1651498069,62390
{consumergroup=trace-service},1651498074,62390
{consumergroup=trace-service},1651498079,62390
{consumergroup=trace-service},1651498084,25113
{consumergroup=trace-service},1651498089,25113
{consumergroup=trace-service},1651498094,25113
{consumergroup=trace-service},1651498099,93513
{consumergroup=trace-service},1651498104,93513
{consumergroup=trace-service},1651498109,93513
{consumergroup=trace-service},1651498114,19468
{consumergroup=trace-service},1651498119,19468
{consumergroup=trace-service},1651498124,19468
{consumergroup=trace-service},1651498129,94441
{consumergroup=trace-service},1651498134,94441
{consumergroup=trace-service},1651498139,94441
{consumergroup=trace-service},1651498144,22944
{consumergroup=trace-service},1651498149,22944
{consumergroup=trace-service},1651498154,22944
{consumergroup=trace-service},1651498159,78321
{consumergroup=trace-service},1651498164,78321
{consumergroup=trace-service},1651498169,78321
{consumergroup=trace-service},1651498174,28487
{consumergroup=trace-service},1651498179,28487
{consumergroup=trace-service},1651498184,28487
{consumergroup=trace-service},1651498189,77210
{consumergroup=trace-service},1651498194,77210
{consumergroup=trace-service},1651498199,77210
{consumergroup=trace-service},1651498204,23770
{consumergroup=trace-service},1651498209,23770
{consumergroup=trace-service},1651498214,23770
{consumergroup=trace-service},1651498219,78825
{consumergroup=trace-service},1651498224,78825
{consumergroup=trace-service},1651498229,78825
{consumergroup=trace-service},1651498234,29492
{consumergroup=trace-service},1651498239,29492
{consumergroup=trace-token-events-consumer},1651497829,0
{consumergroup=trace-token-events-consumer},1651497834,0
{consumergroup=trace-token-events-consumer},1651497839,0
{consumergroup=trace-token-events-consumer},1651497844,0
{consumergroup=trace-token-events-consumer},1651497849,0
{consumergroup=trace-token-events-consumer},1651497854,0
{consumergroup=trace-token-events-consumer},1651497859,0
{consumergroup=trace-token-events-consumer},1651497864,0
{consumergroup=trace-token-events-consumer},1651497869,0
{consumergroup=trace-token-events-consumer},1651497874,0
{consumergroup=trace-token-events-consumer},1651497879,0
{consumergroup=trace-token-events-consumer},1651497884,0
{consumergroup=trace-token-events-consumer},1651497889,0
{consumergroup=trace-token-events-consumer},1651497894,0
{consumergroup=trace-token-events-consumer},1651497899,0
{consumergroup=trace-token-events-consumer},1651497904,0
{consumergroup=trace-token-events-consumer},1651497909,0
{consumergroup=trace-token-events-consumer},1651497914,0
{consumergroup=trace-token-events-consumer},1651497919,0
{consumergroup=trace-token-events-consumer},1651497924,0
{consumergroup=trace-token-events-consumer},1651497929,0
{consumergroup=trace-token-events-consumer},1651497934,0
{consumergroup=trace-token-events-consumer},1651497939,0
{consumergroup=trace-token-events-consumer},1651497944,0
{consumergroup=trace-token-events-consumer},1651497949,0
{consumergroup=trace-token-events-consumer},1651497954,0
{consumergroup=trace-token-events-consumer},1651497959,0
{consumergroup=trace-token-events-consumer},1651497964,0
{consumergroup=trace-token-events-consumer},1651497969,0
{consumergroup=trace-token-events-consumer},1651497974,0
{consumergroup=trace-token-events-consumer},1651497979,0
{consumergroup=trace-token-events-consumer},1651497984,0
{consumergroup=trace-token-events-consumer},1651497989,0
{consumergroup=trace-token-events-consumer},1651497994,0
{consumergroup=trace-token-events-consumer},1651497999,0
{consumergroup=trace-token-events-consumer},1651498004,0
{consumergroup=trace-token-events-consumer},1651498009,0
{consumergroup=trace-token-events-consumer},1651498014,0
{consumergroup=trace-token-events-consumer},1651498019,0
{consumergroup=trace-token-events-consumer},1651498024,0
{consumergroup=trace-token-events-consumer},1651498029,0
{consumergroup=trace-token-events-consumer},1651498034,0
{consumergroup=trace-token-events-consumer},1651498039,0
{consumergroup=trace-token-events-consumer},1651498044,0
{consumergroup=trace-token-events-consumer},1651498049,0
{consumergroup=trace-token-events-consumer},1651498054,0
{consumergroup=trace-token-events-consumer},1651498059,0
{consumergroup=trace-token-events-consumer},1651498064,0
{consumergroup=trace-token-events-consumer},1651498069,0
{consumergroup=trace-token-events-consumer},1651498074,0
{consumergroup=trace-token-events-consumer},1651498079,0
{consumergroup=trace-token-events-consumer},1651498084,0
{consumergroup=trace-token-events-consumer},1651498089,0
{consumergroup=trace-token-events-consumer},1651498094,0
{consumergroup=trace-token-events-consumer},1651498099,0
{consumergroup=trace-token-events-consumer},1651498104,0
{consumergroup=trace-token-events-consumer},1651498109,0
{consumergroup=trace-token-events-consumer},1651498114,0
{consumergroup=trace-token-events-consumer},1651498119,0
{consumergroup=trace-token-events-consumer},1651498124,0
{consumergroup=trace-token-events-consumer},1651498129,0
{consumergroup=trace-token-events-consumer},1651498134,0
{consumergroup=trace-token-events-consumer},1651498139,0
{consumergroup=trace-token-events-consumer},1651498144,0
{consumergroup=trace-token-events-consumer},1651498149,0
{consumergroup=trace-token-events-consumer},1651498154,0
{consumergroup=trace-token-events-consumer},1651498159,0
{consumergroup=trace-token-events-consumer},1651498164,0
{consumergroup=trace-token-events-consumer},1651498169,0
{consumergroup=trace-token-events-consumer},1651498174,0
{consumergroup=trace-token-events-consumer},1651498179,0
{consumergroup=trace-token-events-consumer},1651498184,0
{consumergroup=trace-token-events-consumer},1651498189,0
{consumergroup=trace-token-events-consumer},1651498194,0
{consumergroup=trace-token-events-consumer},1651498199,0
{consumergroup=trace-token-events-consumer},1651498204,0
{consumergroup=trace-token-events-consumer},1651498209,0
{consumergroup=trace-token-events-consumer},1651498214,0
{consumergroup=trace-token-events-consumer},1651498219,0
{consumergroup=trace-token-events-consumer},1651498224,0
{consumergroup=trace-token-events-consumer},1651498229,0
{consumergroup=trace-token-events-consumer},1651498234,0
{consumergroup=trace-token-events-consumer},1651498239,0
