labels,timestamp,value
{consumergroup=__strimzi-topic-operator-kstreams},1651544384,11
{consumergroup=__strimzi-topic-operator-kstreams},1651544389,11
{consumergroup=__strimzi-topic-operator-kstreams},1651544394,11
{consumergroup=__strimzi-topic-operator-kstreams},1651544399,0
{consumergroup=__strimzi-topic-operator-kstreams},1651544404,0
{consumergroup=__strimzi-topic-operator-kstreams},1651544409,0
{consumergroup=__strimzi-topic-operator-kstreams},1651544414,3
{consumergroup=__strimzi-topic-operator-kstreams},1651544419,3
{consumergroup=__strimzi-topic-operator-kstreams},1651544424,3
{consumergroup=__strimzi-topic-operator-kstreams},1651544429,0
{consumergroup=__strimzi-topic-operator-kstreams},1651544434,0
{consumergroup=__strimzi-topic-operator-kstreams},1651544439,0
{consumergroup=__strimzi-topic-operator-kstreams},1651544444,0
{consumergroup=__strimzi-topic-operator-kstreams},1651544449,0
{consumergroup=__strimzi-topic-operator-kstreams},1651544454,0
{consumergroup=__strimzi-topic-operator-kstreams},1651544459,0
{consumergroup=__strimzi-topic-operator-kstreams},1651544464,0
{consumergroup=__strimzi-topic-operator-kstreams},1651544469,0
{consumergroup=__strimzi-topic-operator-kstreams},1651544474,0
{consumergroup=__strimzi-topic-operator-kstreams},1651544479,0
{consumergroup=__strimzi-topic-operator-kstreams},1651544484,0
{consumergroup=__strimzi-topic-operator-kstreams},1651544489,0
{consumergroup=__strimzi-topic-operator-kstreams},1651544494,0
{consumergroup=__strimzi-topic-operator-kstreams},1651544499,0
{consumergroup=__strimzi-topic-operator-kstreams},1651544504,0
{consumergroup=__strimzi-topic-operator-kstreams},1651544509,0
{consumergroup=__strimzi-topic-operator-kstreams},1651544514,0
{consumergroup=__strimzi-topic-operator-kstreams},1651544519,0
{consumergroup=__strimzi-topic-operator-kstreams},1651544524,0
{consumergroup=__strimzi-topic-operator-kstreams},1651544529,0
{consumergroup=__strimzi-topic-operator-kstreams},1651544534,0
{consumergroup=__strimzi-topic-operator-kstreams},1651544539,0
{consumergroup=__strimzi-topic-operator-kstreams},1651544544,0
{consumergroup=__strimzi-topic-operator-kstreams},1651544549,0
{consumergroup=__strimzi-topic-operator-kstreams},1651544554,0
{consumergroup=__strimzi-topic-operator-kstreams},1651544559,0
{consumergroup=__strimzi-topic-operator-kstreams},1651544564,0
{consumergroup=__strimzi-topic-operator-kstreams},1651544569,0
{consumergroup=__strimzi-topic-operator-kstreams},1651544574,0
{consumergroup=__strimzi-topic-operator-kstreams},1651544579,0
{consumergroup=__strimzi-topic-operator-kstreams},1651544584,0
{consumergroup=__strimzi-topic-operator-kstreams},1651544589,0
{consumergroup=__strimzi-topic-operator-kstreams},1651544594,0
{consumergroup=__strimzi-topic-operator-kstreams},1651544599,0
{consumergroup=__strimzi-topic-operator-kstreams},1651544604,0
{consumergroup=__strimzi-topic-operator-kstreams},1651544609,0
{consumergroup=__strimzi-topic-operator-kstreams},1651544614,0
{consumergroup=__strimzi-topic-operator-kstreams},1651544619,0
{consumergroup=__strimzi-topic-operator-kstreams},1651544624,0
{consumergroup=__strimzi-topic-operator-kstreams},1651544629,0
{consumergroup=__strimzi-topic-operator-kstreams},1651544634,0
{consumergroup=__strimzi-topic-operator-kstreams},1651544639,0
{consumergroup=__strimzi-topic-operator-kstreams},1651544644,0
{consumergroup=__strimzi-topic-operator-kstreams},1651544649,0
{consumergroup=__strimzi-topic-operator-kstreams},1651544654,0
{consumergroup=__strimzi-topic-operator-kstreams},1651544659,0
{consumergroup=__strimzi-topic-operator-kstreams},1651544664,0
{consumergroup=__strimzi-topic-operator-kstreams},1651544669,0
{consumergroup=__strimzi-topic-operator-kstreams},1651544674,0
{consumergroup=__strimzi-topic-operator-kstreams},1651544679,0
{consumergroup=__strimzi-topic-operator-kstreams},1651544684,0
{consumergroup=__strimzi-topic-operator-kstreams},1651544689,0
{consumergroup=__strimzi-topic-operator-kstreams},1651544694,0
{consumergroup=__strimzi-topic-operator-kstreams},1651544699,0
{consumergroup=__strimzi-topic-operator-kstreams},1651544704,0
{consumergroup=__strimzi-topic-operator-kstreams},1651544709,0
{consumergroup=__strimzi-topic-operator-kstreams},1651544714,0
{consumergroup=__strimzi-topic-operator-kstreams},1651544719,0
{consumergroup=__strimzi-topic-operator-kstreams},1651544724,0
{consumergroup=__strimzi-topic-operator-kstreams},1651544729,0
{consumergroup=__strimzi-topic-operator-kstreams},1651544734,0
{consumergroup=__strimzi-topic-operator-kstreams},1651544739,0
{consumergroup=__strimzi-topic-operator-kstreams},1651544744,0
{consumergroup=__strimzi-topic-operator-kstreams},1651544749,0
{consumergroup=__strimzi-topic-operator-kstreams},1651544754,0
{consumergroup=__strimzi-topic-operator-kstreams},1651544759,0
{consumergroup=__strimzi-topic-operator-kstreams},1651544764,0
{consumergroup=__strimzi-topic-operator-kstreams},1651544769,0
{consumergroup=__strimzi-topic-operator-kstreams},1651544774,0
{consumergroup=__strimzi-topic-operator-kstreams},1651544779,0
{consumergroup=__strimzi-topic-operator-kstreams},1651544784,0
{consumergroup=__strimzi-topic-operator-kstreams},1651544789,0
{consumergroup=__strimzi-topic-operator-kstreams},1651544794,0
{consumergroup=__strimzi-topic-operator-kstreams},1651544799,0
{consumergroup=__strimzi-topic-operator-kstreams},1651544804,0
{consumergroup=__strimzi-topic-operator-kstreams},1651544809,0
{consumergroup=__strimzi-topic-operator-kstreams},1651544814,0
{consumergroup=__strimzi-topic-operator-kstreams},1651544819,0
{consumergroup=__strimzi-topic-operator-kstreams},1651544824,0
{consumergroup=__strimzi-topic-operator-kstreams},1651544829,0
{consumergroup=adapter-service},1651544414,0
{consumergroup=adapter-service},1651544419,0
{consumergroup=adapter-service},1651544424,0
{consumergroup=adapter-service},1651544429,27988
{consumergroup=adapter-service},1651544434,27988
{consumergroup=adapter-service},1651544439,27988
{consumergroup=adapter-service},1651544444,21822
{consumergroup=adapter-service},1651544449,21822
{consumergroup=adapter-service},1651544454,21822
{consumergroup=adapter-service},1651544459,16212
{consumergroup=adapter-service},1651544464,16212
{consumergroup=adapter-service},1651544469,16212
{consumergroup=adapter-service},1651544474,20029
{consumergroup=adapter-service},1651544479,20029
{consumergroup=adapter-service},1651544484,20029
{consumergroup=adapter-service},1651544489,13176
{consumergroup=adapter-service},1651544494,13176
{consumergroup=adapter-service},1651544499,13176
{consumergroup=adapter-service},1651544504,20658
{consumergroup=adapter-service},1651544509,20658
{consumergroup=adapter-service},1651544514,20658
{consumergroup=adapter-service},1651544519,11780
{consumergroup=adapter-service},1651544524,11780
{consumergroup=adapter-service},1651544529,11780
{consumergroup=adapter-service},1651544534,18905
{consumergroup=adapter-service},1651544539,18905
{consumergroup=adapter-service},1651544544,18905
{consumergroup=adapter-service},1651544549,13736
{consumergroup=adapter-service},1651544554,13736
{consumergroup=adapter-service},1651544559,13736
{consumergroup=adapter-service},1651544564,19930
{consumergroup=adapter-service},1651544569,19930
{consumergroup=adapter-service},1651544574,19930
{consumergroup=adapter-service},1651544579,11541
{consumergroup=adapter-service},1651544584,11541
{consumergroup=adapter-service},1651544589,11541
{consumergroup=adapter-service},1651544594,18135
{consumergroup=adapter-service},1651544599,18135
{consumergroup=adapter-service},1651544604,18135
{consumergroup=adapter-service},1651544609,11252
{consumergroup=adapter-service},1651544614,11252
{consumergroup=adapter-service},1651544619,11252
{consumergroup=adapter-service},1651544624,17978
{consumergroup=adapter-service},1651544629,17978
{consumergroup=adapter-service},1651544634,17978
{consumergroup=adapter-service},1651544639,12405
{consumergroup=adapter-service},1651544644,12405
{consumergroup=adapter-service},1651544649,12405
{consumergroup=adapter-service},1651544654,17484
{consumergroup=adapter-service},1651544659,17484
{consumergroup=adapter-service},1651544664,17484
{consumergroup=adapter-service},1651544669,12154
{consumergroup=adapter-service},1651544674,12154
{consumergroup=adapter-service},1651544679,12154
{consumergroup=adapter-service},1651544684,16849
{consumergroup=adapter-service},1651544689,16849
{consumergroup=adapter-service},1651544694,16849
{consumergroup=adapter-service},1651544699,8805
{consumergroup=adapter-service},1651544704,8805
{consumergroup=adapter-service},1651544709,8805
{consumergroup=adapter-service},1651544714,16221
{consumergroup=adapter-service},1651544719,16221
{consumergroup=adapter-service},1651544724,16221
{consumergroup=adapter-service},1651544729,8219
{consumergroup=adapter-service},1651544734,8219
{consumergroup=adapter-service},1651544739,8219
{consumergroup=adapter-service},1651544744,20900
{consumergroup=adapter-service},1651544749,20900
{consumergroup=adapter-service},1651544754,20900
{consumergroup=adapter-service},1651544759,7710
{consumergroup=adapter-service},1651544764,7710
{consumergroup=adapter-service},1651544769,7710
{consumergroup=adapter-service},1651544774,15461
{consumergroup=adapter-service},1651544779,15461
{consumergroup=adapter-service},1651544784,15461
{consumergroup=adapter-service},1651544789,7686
{consumergroup=adapter-service},1651544794,7686
{consumergroup=adapter-service},1651544799,7686
{consumergroup=adapter-service},1651544804,15051
{consumergroup=adapter-service},1651544809,15051
{consumergroup=adapter-service},1651544814,15051
{consumergroup=adapter-service},1651544819,12029
{consumergroup=adapter-service},1651544824,12029
{consumergroup=adapter-service},1651544829,12029
{consumergroup=landscape-service},1651544429,31940
{consumergroup=landscape-service},1651544434,31940
{consumergroup=landscape-service},1651544439,31940
{consumergroup=landscape-service},1651544444,11213
{consumergroup=landscape-service},1651544449,11213
{consumergroup=landscape-service},1651544454,11213
{consumergroup=landscape-service},1651544459,5350
{consumergroup=landscape-service},1651544464,5350
{consumergroup=landscape-service},1651544469,5350
{consumergroup=landscape-service},1651544474,7816
{consumergroup=landscape-service},1651544479,7816
{consumergroup=landscape-service},1651544484,7816
{consumergroup=landscape-service},1651544489,24713
{consumergroup=landscape-service},1651544494,24713
{consumergroup=landscape-service},1651544499,24713
{consumergroup=landscape-service},1651544504,8183
{consumergroup=landscape-service},1651544509,8183
{consumergroup=landscape-service},1651544514,8183
{consumergroup=landscape-service},1651544519,24112
{consumergroup=landscape-service},1651544524,24112
{consumergroup=landscape-service},1651544529,24112
{consumergroup=landscape-service},1651544534,5740
{consumergroup=landscape-service},1651544539,5740
{consumergroup=landscape-service},1651544544,5740
{consumergroup=landscape-service},1651544549,26588
{consumergroup=landscape-service},1651544554,26588
{consumergroup=landscape-service},1651544559,26588
{consumergroup=landscape-service},1651544564,6083
{consumergroup=landscape-service},1651544569,6083
{consumergroup=landscape-service},1651544574,6083
{consumergroup=landscape-service},1651544579,22393
{consumergroup=landscape-service},1651544584,22393
{consumergroup=landscape-service},1651544589,22393
{consumergroup=landscape-service},1651544594,4892
{consumergroup=landscape-service},1651544599,4892
{consumergroup=landscape-service},1651544604,4892
{consumergroup=landscape-service},1651544609,20293
{consumergroup=landscape-service},1651544614,20293
{consumergroup=landscape-service},1651544619,20293
{consumergroup=landscape-service},1651544624,2708
{consumergroup=landscape-service},1651544629,2708
{consumergroup=landscape-service},1651544634,2708
{consumergroup=landscape-service},1651544639,22052
{consumergroup=landscape-service},1651544644,22052
{consumergroup=landscape-service},1651544649,22052
{consumergroup=landscape-service},1651544654,2951
{consumergroup=landscape-service},1651544659,2951
{consumergroup=landscape-service},1651544664,2951
{consumergroup=landscape-service},1651544669,22217
{consumergroup=landscape-service},1651544674,22217
{consumergroup=landscape-service},1651544679,22217
{consumergroup=landscape-service},1651544684,1690
{consumergroup=landscape-service},1651544689,1690
{consumergroup=landscape-service},1651544694,1690
{consumergroup=landscape-service},1651544699,18449
{consumergroup=landscape-service},1651544704,18449
{consumergroup=landscape-service},1651544709,18449
{consumergroup=landscape-service},1651544714,24624
{consumergroup=landscape-service},1651544719,24624
{consumergroup=landscape-service},1651544724,24624
{consumergroup=landscape-service},1651544729,17425
{consumergroup=landscape-service},1651544734,17425
{consumergroup=landscape-service},1651544739,17425
{consumergroup=landscape-service},1651544744,3488
{consumergroup=landscape-service},1651544749,3488
{consumergroup=landscape-service},1651544754,3488
{consumergroup=landscape-service},1651544759,15330
{consumergroup=landscape-service},1651544764,15330
{consumergroup=landscape-service},1651544769,15330
{consumergroup=landscape-service},1651544774,22649
{consumergroup=landscape-service},1651544779,22649
{consumergroup=landscape-service},1651544784,22649
{consumergroup=landscape-service},1651544789,14263
{consumergroup=landscape-service},1651544794,14263
{consumergroup=landscape-service},1651544799,14263
{consumergroup=landscape-service},1651544804,21770
{consumergroup=landscape-service},1651544809,21770
{consumergroup=landscape-service},1651544814,21770
{consumergroup=landscape-service},1651544819,18942
{consumergroup=landscape-service},1651544824,18942
{consumergroup=landscape-service},1651544829,18942
{consumergroup=trace-service},1651544429,36416
{consumergroup=trace-service},1651544434,36416
{consumergroup=trace-service},1651544439,36416
{consumergroup=trace-service},1651544444,85371
{consumergroup=trace-service},1651544449,85371
{consumergroup=trace-service},1651544454,85371
{consumergroup=trace-service},1651544459,25428
{consumergroup=trace-service},1651544464,25428
{consumergroup=trace-service},1651544469,25428
{consumergroup=trace-service},1651544474,76134
{consumergroup=trace-service},1651544479,76134
{consumergroup=trace-service},1651544484,76134
{consumergroup=trace-service},1651544489,199726
{consumergroup=trace-service},1651544494,199726
{consumergroup=trace-service},1651544499,199726
{consumergroup=trace-service},1651544504,73529
{consumergroup=trace-service},1651544509,73529
{consumergroup=trace-service},1651544514,73529
{consumergroup=trace-service},1651544519,204739
{consumergroup=trace-service},1651544524,204739
{consumergroup=trace-service},1651544529,204739
{consumergroup=trace-service},1651544534,74805
{consumergroup=trace-service},1651544539,74805
{consumergroup=trace-service},1651544544,74805
{consumergroup=trace-service},1651544549,124801
{consumergroup=trace-service},1651544554,124801
{consumergroup=trace-service},1651544559,124801
{consumergroup=trace-service},1651544564,197437
{consumergroup=trace-service},1651544569,197437
{consumergroup=trace-service},1651544574,197437
{consumergroup=trace-service},1651544579,160723
{consumergroup=trace-service},1651544584,160723
{consumergroup=trace-service},1651544589,160723
{consumergroup=trace-service},1651544594,76445
{consumergroup=trace-service},1651544599,76445
{consumergroup=trace-service},1651544604,76445
{consumergroup=trace-service},1651544609,133891
{consumergroup=trace-service},1651544614,133891
{consumergroup=trace-service},1651544619,133891
{consumergroup=trace-service},1651544624,246052
{consumergroup=trace-service},1651544629,246052
{consumergroup=trace-service},1651544634,246052
{consumergroup=trace-service},1651544639,14071
{consumergroup=trace-service},1651544644,14071
{consumergroup=trace-service},1651544649,14071
{consumergroup=trace-service},1651544654,72390
{consumergroup=trace-service},1651544659,72390
{consumergroup=trace-service},1651544664,72390
{consumergroup=trace-service},1651544669,174774
{consumergroup=trace-service},1651544674,174774
{consumergroup=trace-service},1651544679,174774
{consumergroup=trace-service},1651544684,72426
{consumergroup=trace-service},1651544689,72426
{consumergroup=trace-service},1651544694,72426
{consumergroup=trace-service},1651544699,128009
{consumergroup=trace-service},1651544704,128009
{consumergroup=trace-service},1651544709,128009
{consumergroup=trace-service},1651544714,67831
{consumergroup=trace-service},1651544719,67831
{consumergroup=trace-service},1651544724,67831
{consumergroup=trace-service},1651544729,112734
{consumergroup=trace-service},1651544734,112734
{consumergroup=trace-service},1651544739,112734
{consumergroup=trace-service},1651544744,77056
{consumergroup=trace-service},1651544749,77056
{consumergroup=trace-service},1651544754,77056
{consumergroup=trace-service},1651544759,122639
{consumergroup=trace-service},1651544764,122639
{consumergroup=trace-service},1651544769,122639
{consumergroup=trace-service},1651544774,237853
{consumergroup=trace-service},1651544779,237853
{consumergroup=trace-service},1651544784,237853
{consumergroup=trace-service},1651544789,59548
{consumergroup=trace-service},1651544794,59548
{consumergroup=trace-service},1651544799,59548
{consumergroup=trace-service},1651544804,74131
{consumergroup=trace-service},1651544809,74131
{consumergroup=trace-service},1651544814,74131
{consumergroup=trace-service},1651544819,151353
{consumergroup=trace-service},1651544824,151353
{consumergroup=trace-service},1651544829,151353
{consumergroup=trace-token-events-consumer},1651544414,0
{consumergroup=trace-token-events-consumer},1651544419,0
{consumergroup=trace-token-events-consumer},1651544424,0
{consumergroup=trace-token-events-consumer},1651544429,0
{consumergroup=trace-token-events-consumer},1651544434,0
{consumergroup=trace-token-events-consumer},1651544439,0
{consumergroup=trace-token-events-consumer},1651544444,0
{consumergroup=trace-token-events-consumer},1651544449,0
{consumergroup=trace-token-events-consumer},1651544454,0
{consumergroup=trace-token-events-consumer},1651544459,0
{consumergroup=trace-token-events-consumer},1651544464,0
{consumergroup=trace-token-events-consumer},1651544469,0
{consumergroup=trace-token-events-consumer},1651544474,0
{consumergroup=trace-token-events-consumer},1651544479,0
{consumergroup=trace-token-events-consumer},1651544484,0
{consumergroup=trace-token-events-consumer},1651544489,0
{consumergroup=trace-token-events-consumer},1651544494,0
{consumergroup=trace-token-events-consumer},1651544499,0
{consumergroup=trace-token-events-consumer},1651544504,0
{consumergroup=trace-token-events-consumer},1651544509,0
{consumergroup=trace-token-events-consumer},1651544514,0
{consumergroup=trace-token-events-consumer},1651544519,0
{consumergroup=trace-token-events-consumer},1651544524,0
{consumergroup=trace-token-events-consumer},1651544529,0
{consumergroup=trace-token-events-consumer},1651544534,0
{consumergroup=trace-token-events-consumer},1651544539,0
{consumergroup=trace-token-events-consumer},1651544544,0
{consumergroup=trace-token-events-consumer},1651544549,0
{consumergroup=trace-token-events-consumer},1651544554,0
{consumergroup=trace-token-events-consumer},1651544559,0
{consumergroup=trace-token-events-consumer},1651544564,0
{consumergroup=trace-token-events-consumer},1651544569,0
{consumergroup=trace-token-events-consumer},1651544574,0
{consumergroup=trace-token-events-consumer},1651544579,0
{consumergroup=trace-token-events-consumer},1651544584,0
{consumergroup=trace-token-events-consumer},1651544589,0
{consumergroup=trace-token-events-consumer},1651544594,0
{consumergroup=trace-token-events-consumer},1651544599,0
{consumergroup=trace-token-events-consumer},1651544604,0
{consumergroup=trace-token-events-consumer},1651544609,0
{consumergroup=trace-token-events-consumer},1651544614,0
{consumergroup=trace-token-events-consumer},1651544619,0
{consumergroup=trace-token-events-consumer},1651544624,0
{consumergroup=trace-token-events-consumer},1651544629,0
{consumergroup=trace-token-events-consumer},1651544634,0
{consumergroup=trace-token-events-consumer},1651544639,0
{consumergroup=trace-token-events-consumer},1651544644,0
{consumergroup=trace-token-events-consumer},1651544649,0
{consumergroup=trace-token-events-consumer},1651544654,0
{consumergroup=trace-token-events-consumer},1651544659,0
{consumergroup=trace-token-events-consumer},1651544664,0
{consumergroup=trace-token-events-consumer},1651544669,0
{consumergroup=trace-token-events-consumer},1651544674,0
{consumergroup=trace-token-events-consumer},1651544679,0
{consumergroup=trace-token-events-consumer},1651544684,0
{consumergroup=trace-token-events-consumer},1651544689,0
{consumergroup=trace-token-events-consumer},1651544694,0
{consumergroup=trace-token-events-consumer},1651544699,0
{consumergroup=trace-token-events-consumer},1651544704,0
{consumergroup=trace-token-events-consumer},1651544709,0
{consumergroup=trace-token-events-consumer},1651544714,0
{consumergroup=trace-token-events-consumer},1651544719,0
{consumergroup=trace-token-events-consumer},1651544724,0
{consumergroup=trace-token-events-consumer},1651544729,0
{consumergroup=trace-token-events-consumer},1651544734,0
{consumergroup=trace-token-events-consumer},1651544739,0
{consumergroup=trace-token-events-consumer},1651544744,0
{consumergroup=trace-token-events-consumer},1651544749,0
{consumergroup=trace-token-events-consumer},1651544754,0
{consumergroup=trace-token-events-consumer},1651544759,0
{consumergroup=trace-token-events-consumer},1651544764,0
{consumergroup=trace-token-events-consumer},1651544769,0
{consumergroup=trace-token-events-consumer},1651544774,0
{consumergroup=trace-token-events-consumer},1651544779,0
{consumergroup=trace-token-events-consumer},1651544784,0
{consumergroup=trace-token-events-consumer},1651544789,0
{consumergroup=trace-token-events-consumer},1651544794,0
{consumergroup=trace-token-events-consumer},1651544799,0
{consumergroup=trace-token-events-consumer},1651544804,0
{consumergroup=trace-token-events-consumer},1651544809,0
{consumergroup=trace-token-events-consumer},1651544814,0
{consumergroup=trace-token-events-consumer},1651544819,0
{consumergroup=trace-token-events-consumer},1651544824,0
{consumergroup=trace-token-events-consumer},1651544829,0
