labels,timestamp,value
{consumergroup=__strimzi-topic-operator-kstreams},1651538819,11
{consumergroup=__strimzi-topic-operator-kstreams},1651538824,11
{consumergroup=__strimzi-topic-operator-kstreams},1651538829,11
{consumergroup=__strimzi-topic-operator-kstreams},1651538834,0
{consumergroup=__strimzi-topic-operator-kstreams},1651538839,0
{consumergroup=__strimzi-topic-operator-kstreams},1651538844,0
{consumergroup=__strimzi-topic-operator-kstreams},1651538849,3
{consumergroup=__strimzi-topic-operator-kstreams},1651538854,3
{consumergroup=__strimzi-topic-operator-kstreams},1651538859,3
{consumergroup=__strimzi-topic-operator-kstreams},1651538864,0
{consumergroup=__strimzi-topic-operator-kstreams},1651538869,0
{consumergroup=__strimzi-topic-operator-kstreams},1651538874,0
{consumergroup=__strimzi-topic-operator-kstreams},1651538879,0
{consumergroup=__strimzi-topic-operator-kstreams},1651538884,0
{consumergroup=__strimzi-topic-operator-kstreams},1651538889,0
{consumergroup=__strimzi-topic-operator-kstreams},1651538894,0
{consumergroup=__strimzi-topic-operator-kstreams},1651538899,0
{consumergroup=__strimzi-topic-operator-kstreams},1651538904,0
{consumergroup=__strimzi-topic-operator-kstreams},1651538909,0
{consumergroup=__strimzi-topic-operator-kstreams},1651538914,0
{consumergroup=__strimzi-topic-operator-kstreams},1651538919,0
{consumergroup=__strimzi-topic-operator-kstreams},1651538924,0
{consumergroup=__strimzi-topic-operator-kstreams},1651538929,0
{consumergroup=__strimzi-topic-operator-kstreams},1651538934,0
{consumergroup=__strimzi-topic-operator-kstreams},1651538939,0
{consumergroup=__strimzi-topic-operator-kstreams},1651538944,0
{consumergroup=__strimzi-topic-operator-kstreams},1651538949,0
{consumergroup=__strimzi-topic-operator-kstreams},1651538954,0
{consumergroup=__strimzi-topic-operator-kstreams},1651538959,0
{consumergroup=__strimzi-topic-operator-kstreams},1651538964,0
{consumergroup=__strimzi-topic-operator-kstreams},1651538969,0
{consumergroup=__strimzi-topic-operator-kstreams},1651538974,0
{consumergroup=__strimzi-topic-operator-kstreams},1651538979,0
{consumergroup=__strimzi-topic-operator-kstreams},1651538984,0
{consumergroup=__strimzi-topic-operator-kstreams},1651538989,0
{consumergroup=__strimzi-topic-operator-kstreams},1651538994,0
{consumergroup=__strimzi-topic-operator-kstreams},1651538999,0
{consumergroup=__strimzi-topic-operator-kstreams},1651539004,0
{consumergroup=__strimzi-topic-operator-kstreams},1651539009,0
{consumergroup=__strimzi-topic-operator-kstreams},1651539014,0
{consumergroup=__strimzi-topic-operator-kstreams},1651539019,0
{consumergroup=__strimzi-topic-operator-kstreams},1651539024,0
{consumergroup=__strimzi-topic-operator-kstreams},1651539029,0
{consumergroup=__strimzi-topic-operator-kstreams},1651539034,0
{consumergroup=__strimzi-topic-operator-kstreams},1651539039,0
{consumergroup=__strimzi-topic-operator-kstreams},1651539044,0
{consumergroup=__strimzi-topic-operator-kstreams},1651539049,0
{consumergroup=__strimzi-topic-operator-kstreams},1651539054,0
{consumergroup=__strimzi-topic-operator-kstreams},1651539059,0
{consumergroup=__strimzi-topic-operator-kstreams},1651539064,0
{consumergroup=__strimzi-topic-operator-kstreams},1651539069,0
{consumergroup=__strimzi-topic-operator-kstreams},1651539074,0
{consumergroup=__strimzi-topic-operator-kstreams},1651539079,0
{consumergroup=__strimzi-topic-operator-kstreams},1651539084,0
{consumergroup=__strimzi-topic-operator-kstreams},1651539089,0
{consumergroup=__strimzi-topic-operator-kstreams},1651539094,0
{consumergroup=__strimzi-topic-operator-kstreams},1651539099,0
{consumergroup=__strimzi-topic-operator-kstreams},1651539104,0
{consumergroup=__strimzi-topic-operator-kstreams},1651539109,0
{consumergroup=__strimzi-topic-operator-kstreams},1651539114,0
{consumergroup=__strimzi-topic-operator-kstreams},1651539119,0
{consumergroup=__strimzi-topic-operator-kstreams},1651539124,0
{consumergroup=__strimzi-topic-operator-kstreams},1651539129,0
{consumergroup=__strimzi-topic-operator-kstreams},1651539134,0
{consumergroup=__strimzi-topic-operator-kstreams},1651539139,0
{consumergroup=__strimzi-topic-operator-kstreams},1651539144,0
{consumergroup=__strimzi-topic-operator-kstreams},1651539149,0
{consumergroup=__strimzi-topic-operator-kstreams},1651539154,0
{consumergroup=__strimzi-topic-operator-kstreams},1651539159,0
{consumergroup=__strimzi-topic-operator-kstreams},1651539164,0
{consumergroup=__strimzi-topic-operator-kstreams},1651539169,0
{consumergroup=__strimzi-topic-operator-kstreams},1651539174,0
{consumergroup=__strimzi-topic-operator-kstreams},1651539179,0
{consumergroup=__strimzi-topic-operator-kstreams},1651539184,0
{consumergroup=__strimzi-topic-operator-kstreams},1651539189,0
{consumergroup=__strimzi-topic-operator-kstreams},1651539194,0
{consumergroup=__strimzi-topic-operator-kstreams},1651539199,0
{consumergroup=__strimzi-topic-operator-kstreams},1651539204,0
{consumergroup=__strimzi-topic-operator-kstreams},1651539209,0
{consumergroup=__strimzi-topic-operator-kstreams},1651539214,0
{consumergroup=__strimzi-topic-operator-kstreams},1651539219,0
{consumergroup=__strimzi-topic-operator-kstreams},1651539224,0
{consumergroup=__strimzi-topic-operator-kstreams},1651539229,0
{consumergroup=__strimzi-topic-operator-kstreams},1651539234,0
{consumergroup=__strimzi-topic-operator-kstreams},1651539239,0
{consumergroup=__strimzi-topic-operator-kstreams},1651539244,0
{consumergroup=__strimzi-topic-operator-kstreams},1651539249,0
{consumergroup=__strimzi-topic-operator-kstreams},1651539254,0
{consumergroup=__strimzi-topic-operator-kstreams},1651539259,0
{consumergroup=__strimzi-topic-operator-kstreams},1651539264,0
{consumergroup=adapter-service},1651538864,19648
{consumergroup=adapter-service},1651538869,19648
{consumergroup=adapter-service},1651538874,19648
{consumergroup=adapter-service},1651538879,10686
{consumergroup=adapter-service},1651538884,10686
{consumergroup=adapter-service},1651538889,10686
{consumergroup=adapter-service},1651538894,13523
{consumergroup=adapter-service},1651538899,13523
{consumergroup=adapter-service},1651538904,13523
{consumergroup=adapter-service},1651538909,9914
{consumergroup=adapter-service},1651538914,9914
{consumergroup=adapter-service},1651538919,9914
{consumergroup=adapter-service},1651538924,12177
{consumergroup=adapter-service},1651538929,12177
{consumergroup=adapter-service},1651538934,12177
{consumergroup=adapter-service},1651538939,9499
{consumergroup=adapter-service},1651538944,9499
{consumergroup=adapter-service},1651538949,9499
{consumergroup=adapter-service},1651538954,11615
{consumergroup=adapter-service},1651538959,11615
{consumergroup=adapter-service},1651538964,11615
{consumergroup=adapter-service},1651538969,8256
{consumergroup=adapter-service},1651538974,8256
{consumergroup=adapter-service},1651538979,8256
{consumergroup=adapter-service},1651538984,11341
{consumergroup=adapter-service},1651538989,11341
{consumergroup=adapter-service},1651538994,11341
{consumergroup=adapter-service},1651538999,8832
{consumergroup=adapter-service},1651539004,8832
{consumergroup=adapter-service},1651539009,8832
{consumergroup=adapter-service},1651539014,11091
{consumergroup=adapter-service},1651539019,11091
{consumergroup=adapter-service},1651539024,11091
{consumergroup=adapter-service},1651539029,7757
{consumergroup=adapter-service},1651539034,7757
{consumergroup=adapter-service},1651539039,7757
{consumergroup=adapter-service},1651539044,10803
{consumergroup=adapter-service},1651539049,10803
{consumergroup=adapter-service},1651539054,10803
{consumergroup=adapter-service},1651539059,8097
{consumergroup=adapter-service},1651539064,8097
{consumergroup=adapter-service},1651539069,8097
{consumergroup=adapter-service},1651539074,10577
{consumergroup=adapter-service},1651539079,10577
{consumergroup=adapter-service},1651539084,10577
{consumergroup=adapter-service},1651539089,7112
{consumergroup=adapter-service},1651539094,7112
{consumergroup=adapter-service},1651539099,7112
{consumergroup=adapter-service},1651539104,10457
{consumergroup=adapter-service},1651539109,10457
{consumergroup=adapter-service},1651539114,10457
{consumergroup=adapter-service},1651539119,6595
{consumergroup=adapter-service},1651539124,6595
{consumergroup=adapter-service},1651539129,6595
{consumergroup=adapter-service},1651539134,10605
{consumergroup=adapter-service},1651539139,10605
{consumergroup=adapter-service},1651539144,10605
{consumergroup=adapter-service},1651539149,6319
{consumergroup=adapter-service},1651539154,6319
{consumergroup=adapter-service},1651539159,6319
{consumergroup=adapter-service},1651539164,928
{consumergroup=adapter-service},1651539169,928
{consumergroup=adapter-service},1651539174,928
{consumergroup=adapter-service},1651539179,6989
{consumergroup=adapter-service},1651539184,6989
{consumergroup=adapter-service},1651539189,6989
{consumergroup=adapter-service},1651539194,9354
{consumergroup=adapter-service},1651539199,9354
{consumergroup=adapter-service},1651539204,9354
{consumergroup=adapter-service},1651539209,6489
{consumergroup=adapter-service},1651539214,6489
{consumergroup=adapter-service},1651539219,6489
{consumergroup=adapter-service},1651539224,8745
{consumergroup=adapter-service},1651539229,8745
{consumergroup=adapter-service},1651539234,8745
{consumergroup=adapter-service},1651539239,6362
{consumergroup=adapter-service},1651539244,6362
{consumergroup=adapter-service},1651539249,6362
{consumergroup=adapter-service},1651539254,8516
{consumergroup=adapter-service},1651539259,8516
{consumergroup=adapter-service},1651539264,8516
{consumergroup=landscape-service},1651538879,16070
{consumergroup=landscape-service},1651538884,16070
{consumergroup=landscape-service},1651538889,16070
{consumergroup=landscape-service},1651538894,10971
{consumergroup=landscape-service},1651538899,10971
{consumergroup=landscape-service},1651538904,10971
{consumergroup=landscape-service},1651538909,8342
{consumergroup=landscape-service},1651538914,8342
{consumergroup=landscape-service},1651538919,8342
{consumergroup=landscape-service},1651538924,11558
{consumergroup=landscape-service},1651538929,11558
{consumergroup=landscape-service},1651538934,11558
{consumergroup=landscape-service},1651538939,6867
{consumergroup=landscape-service},1651538944,6867
{consumergroup=landscape-service},1651538949,6867
{consumergroup=landscape-service},1651538954,9483
{consumergroup=landscape-service},1651538959,9483
{consumergroup=landscape-service},1651538964,9483
{consumergroup=landscape-service},1651538969,5677
{consumergroup=landscape-service},1651538974,5677
{consumergroup=landscape-service},1651538979,5677
{consumergroup=landscape-service},1651538984,8379
{consumergroup=landscape-service},1651538989,8379
{consumergroup=landscape-service},1651538994,8379
{consumergroup=landscape-service},1651538999,4521
{consumergroup=landscape-service},1651539004,4521
{consumergroup=landscape-service},1651539009,4521
{consumergroup=landscape-service},1651539014,7131
{consumergroup=landscape-service},1651539019,7131
{consumergroup=landscape-service},1651539024,7131
{consumergroup=landscape-service},1651539029,3364
{consumergroup=landscape-service},1651539034,3364
{consumergroup=landscape-service},1651539039,3364
{consumergroup=landscape-service},1651539044,6874
{consumergroup=landscape-service},1651539049,6874
{consumergroup=landscape-service},1651539054,6874
{consumergroup=landscape-service},1651539059,2193
{consumergroup=landscape-service},1651539064,2193
{consumergroup=landscape-service},1651539069,2193
{consumergroup=landscape-service},1651539074,4958
{consumergroup=landscape-service},1651539079,4958
{consumergroup=landscape-service},1651539084,4958
{consumergroup=landscape-service},1651539089,1099
{consumergroup=landscape-service},1651539094,1099
{consumergroup=landscape-service},1651539099,1099
{consumergroup=landscape-service},1651539104,4609
{consumergroup=landscape-service},1651539109,4609
{consumergroup=landscape-service},1651539114,4609
{consumergroup=landscape-service},1651539119,0
{consumergroup=landscape-service},1651539124,0
{consumergroup=landscape-service},1651539129,0
{consumergroup=landscape-service},1651539134,2924
{consumergroup=landscape-service},1651539139,2924
{consumergroup=landscape-service},1651539144,2924
{consumergroup=landscape-service},1651539149,15162
{consumergroup=landscape-service},1651539154,15162
{consumergroup=landscape-service},1651539159,15162
{consumergroup=landscape-service},1651539164,7879
{consumergroup=landscape-service},1651539169,7879
{consumergroup=landscape-service},1651539174,7879
{consumergroup=landscape-service},1651539179,13955
{consumergroup=landscape-service},1651539184,13955
{consumergroup=landscape-service},1651539189,13955
{consumergroup=landscape-service},1651539194,240
{consumergroup=landscape-service},1651539199,240
{consumergroup=landscape-service},1651539204,240
{consumergroup=landscape-service},1651539209,13346
{consumergroup=landscape-service},1651539214,13346
{consumergroup=landscape-service},1651539219,13346
{consumergroup=landscape-service},1651539224,15278
{consumergroup=landscape-service},1651539229,15278
{consumergroup=landscape-service},1651539234,15278
{consumergroup=landscape-service},1651539239,11488
{consumergroup=landscape-service},1651539244,11488
{consumergroup=landscape-service},1651539249,11488
{consumergroup=landscape-service},1651539254,14877
{consumergroup=landscape-service},1651539259,14877
{consumergroup=landscape-service},1651539264,14877
{consumergroup=trace-service},1651538864,42721
{consumergroup=trace-service},1651538869,42721
{consumergroup=trace-service},1651538874,42721
{consumergroup=trace-service},1651538879,19774
{consumergroup=trace-service},1651538884,19774
{consumergroup=trace-service},1651538889,19774
{consumergroup=trace-service},1651538894,53002
{consumergroup=trace-service},1651538899,53002
{consumergroup=trace-service},1651538904,53002
{consumergroup=trace-service},1651538909,52274
{consumergroup=trace-service},1651538914,52274
{consumergroup=trace-service},1651538919,52274
{consumergroup=trace-service},1651538924,39513
{consumergroup=trace-service},1651538929,39513
{consumergroup=trace-service},1651538934,39513
{consumergroup=trace-service},1651538939,20989
{consumergroup=trace-service},1651538944,20989
{consumergroup=trace-service},1651538949,20989
{consumergroup=trace-service},1651538954,33987
{consumergroup=trace-service},1651538959,33987
{consumergroup=trace-service},1651538964,33987
{consumergroup=trace-service},1651538969,16088
{consumergroup=trace-service},1651538974,16088
{consumergroup=trace-service},1651538979,16088
{consumergroup=trace-service},1651538984,38898
{consumergroup=trace-service},1651538989,38898
{consumergroup=trace-service},1651538994,38898
{consumergroup=trace-service},1651538999,9710
{consumergroup=trace-service},1651539004,9710
{consumergroup=trace-service},1651539009,9710
{consumergroup=trace-service},1651539014,43302
{consumergroup=trace-service},1651539019,43302
{consumergroup=trace-service},1651539024,43302
{consumergroup=trace-service},1651539029,112022
{consumergroup=trace-service},1651539034,112022
{consumergroup=trace-service},1651539039,112022
{consumergroup=trace-service},1651539044,40738
{consumergroup=trace-service},1651539049,40738
{consumergroup=trace-service},1651539054,40738
{consumergroup=trace-service},1651539059,16940
{consumergroup=trace-service},1651539064,16940
{consumergroup=trace-service},1651539069,16940
{consumergroup=trace-service},1651539074,38439
{consumergroup=trace-service},1651539079,38439
{consumergroup=trace-service},1651539084,38439
{consumergroup=trace-service},1651539089,14853
{consumergroup=trace-service},1651539094,14853
{consumergroup=trace-service},1651539099,14853
{consumergroup=trace-service},1651539104,42339
{consumergroup=trace-service},1651539109,42339
{consumergroup=trace-service},1651539114,42339
{consumergroup=trace-service},1651539119,103270
{consumergroup=trace-service},1651539124,103270
{consumergroup=trace-service},1651539129,103270
{consumergroup=trace-service},1651539134,38458
{consumergroup=trace-service},1651539139,38458
{consumergroup=trace-service},1651539144,38458
{consumergroup=trace-service},1651539149,21213
{consumergroup=trace-service},1651539154,21213
{consumergroup=trace-service},1651539159,21213
{consumergroup=trace-service},1651539164,49237
{consumergroup=trace-service},1651539169,49237
{consumergroup=trace-service},1651539174,49237
{consumergroup=trace-service},1651539179,18691
{consumergroup=trace-service},1651539184,18691
{consumergroup=trace-service},1651539189,18691
{consumergroup=trace-service},1651539194,39330
{consumergroup=trace-service},1651539199,39330
{consumergroup=trace-service},1651539204,39330
{consumergroup=trace-service},1651539209,69214
{consumergroup=trace-service},1651539214,69214
{consumergroup=trace-service},1651539219,69214
{consumergroup=trace-service},1651539224,42087
{consumergroup=trace-service},1651539229,42087
{consumergroup=trace-service},1651539234,42087
{consumergroup=trace-service},1651539239,9513
{consumergroup=trace-service},1651539244,9513
{consumergroup=trace-service},1651539249,9513
{consumergroup=trace-service},1651539254,40840
{consumergroup=trace-service},1651539259,40840
{consumergroup=trace-service},1651539264,40840
{consumergroup=trace-token-events-consumer},1651538849,0
{consumergroup=trace-token-events-consumer},1651538854,0
{consumergroup=trace-token-events-consumer},1651538859,0
{consumergroup=trace-token-events-consumer},1651538864,0
{consumergroup=trace-token-events-consumer},1651538869,0
{consumergroup=trace-token-events-consumer},1651538874,0
{consumergroup=trace-token-events-consumer},1651538879,0
{consumergroup=trace-token-events-consumer},1651538884,0
{consumergroup=trace-token-events-consumer},1651538889,0
{consumergroup=trace-token-events-consumer},1651538894,0
{consumergroup=trace-token-events-consumer},1651538899,0
{consumergroup=trace-token-events-consumer},1651538904,0
{consumergroup=trace-token-events-consumer},1651538909,0
{consumergroup=trace-token-events-consumer},1651538914,0
{consumergroup=trace-token-events-consumer},1651538919,0
{consumergroup=trace-token-events-consumer},1651538924,0
{consumergroup=trace-token-events-consumer},1651538929,0
{consumergroup=trace-token-events-consumer},1651538934,0
{consumergroup=trace-token-events-consumer},1651538939,0
{consumergroup=trace-token-events-consumer},1651538944,0
{consumergroup=trace-token-events-consumer},1651538949,0
{consumergroup=trace-token-events-consumer},1651538954,0
{consumergroup=trace-token-events-consumer},1651538959,0
{consumergroup=trace-token-events-consumer},1651538964,0
{consumergroup=trace-token-events-consumer},1651538969,0
{consumergroup=trace-token-events-consumer},1651538974,0
{consumergroup=trace-token-events-consumer},1651538979,0
{consumergroup=trace-token-events-consumer},1651538984,0
{consumergroup=trace-token-events-consumer},1651538989,0
{consumergroup=trace-token-events-consumer},1651538994,0
{consumergroup=trace-token-events-consumer},1651538999,0
{consumergroup=trace-token-events-consumer},1651539004,0
{consumergroup=trace-token-events-consumer},1651539009,0
{consumergroup=trace-token-events-consumer},1651539014,0
{consumergroup=trace-token-events-consumer},1651539019,0
{consumergroup=trace-token-events-consumer},1651539024,0
{consumergroup=trace-token-events-consumer},1651539029,0
{consumergroup=trace-token-events-consumer},1651539034,0
{consumergroup=trace-token-events-consumer},1651539039,0
{consumergroup=trace-token-events-consumer},1651539044,0
{consumergroup=trace-token-events-consumer},1651539049,0
{consumergroup=trace-token-events-consumer},1651539054,0
{consumergroup=trace-token-events-consumer},1651539059,0
{consumergroup=trace-token-events-consumer},1651539064,0
{consumergroup=trace-token-events-consumer},1651539069,0
{consumergroup=trace-token-events-consumer},1651539074,0
{consumergroup=trace-token-events-consumer},1651539079,0
{consumergroup=trace-token-events-consumer},1651539084,0
{consumergroup=trace-token-events-consumer},1651539089,0
{consumergroup=trace-token-events-consumer},1651539094,0
{consumergroup=trace-token-events-consumer},1651539099,0
{consumergroup=trace-token-events-consumer},1651539104,0
{consumergroup=trace-token-events-consumer},1651539109,0
{consumergroup=trace-token-events-consumer},1651539114,0
{consumergroup=trace-token-events-consumer},1651539119,0
{consumergroup=trace-token-events-consumer},1651539124,0
{consumergroup=trace-token-events-consumer},1651539129,0
{consumergroup=trace-token-events-consumer},1651539134,0
{consumergroup=trace-token-events-consumer},1651539139,0
{consumergroup=trace-token-events-consumer},1651539144,0
{consumergroup=trace-token-events-consumer},1651539149,0
{consumergroup=trace-token-events-consumer},1651539154,0
{consumergroup=trace-token-events-consumer},1651539159,0
{consumergroup=trace-token-events-consumer},1651539164,0
{consumergroup=trace-token-events-consumer},1651539169,0
{consumergroup=trace-token-events-consumer},1651539174,0
{consumergroup=trace-token-events-consumer},1651539179,0
{consumergroup=trace-token-events-consumer},1651539184,0
{consumergroup=trace-token-events-consumer},1651539189,0
{consumergroup=trace-token-events-consumer},1651539194,0
{consumergroup=trace-token-events-consumer},1651539199,0
{consumergroup=trace-token-events-consumer},1651539204,0
{consumergroup=trace-token-events-consumer},1651539209,0
{consumergroup=trace-token-events-consumer},1651539214,0
{consumergroup=trace-token-events-consumer},1651539219,0
{consumergroup=trace-token-events-consumer},1651539224,0
{consumergroup=trace-token-events-consumer},1651539229,0
{consumergroup=trace-token-events-consumer},1651539234,0
{consumergroup=trace-token-events-consumer},1651539239,0
{consumergroup=trace-token-events-consumer},1651539244,0
{consumergroup=trace-token-events-consumer},1651539249,0
{consumergroup=trace-token-events-consumer},1651539254,0
{consumergroup=trace-token-events-consumer},1651539259,0
{consumergroup=trace-token-events-consumer},1651539264,0
