labels,timestamp,value
{consumergroup=__strimzi-topic-operator-kstreams},1651458778,9
{consumergroup=__strimzi-topic-operator-kstreams},1651458783,9
{consumergroup=__strimzi-topic-operator-kstreams},1651458788,9
{consumergroup=__strimzi-topic-operator-kstreams},1651458793,12
{consumergroup=__strimzi-topic-operator-kstreams},1651458798,12
{consumergroup=__strimzi-topic-operator-kstreams},1651458803,12
{consumergroup=__strimzi-topic-operator-kstreams},1651458808,0
{consumergroup=__strimzi-topic-operator-kstreams},1651458813,0
{consumergroup=__strimzi-topic-operator-kstreams},1651458818,0
{consumergroup=__strimzi-topic-operator-kstreams},1651458823,0
{consumergroup=__strimzi-topic-operator-kstreams},1651458828,0
{consumergroup=__strimzi-topic-operator-kstreams},1651458833,0
{consumergroup=__strimzi-topic-operator-kstreams},1651458838,0
{consumergroup=__strimzi-topic-operator-kstreams},1651458843,0
{consumergroup=__strimzi-topic-operator-kstreams},1651458848,0
{consumergroup=__strimzi-topic-operator-kstreams},1651458853,0
{consumergroup=__strimzi-topic-operator-kstreams},1651458858,0
{consumergroup=__strimzi-topic-operator-kstreams},1651458863,0
{consumergroup=__strimzi-topic-operator-kstreams},1651458868,0
{consumergroup=__strimzi-topic-operator-kstreams},1651458873,0
{consumergroup=__strimzi-topic-operator-kstreams},1651458878,0
{consumergroup=__strimzi-topic-operator-kstreams},1651458883,0
{consumergroup=__strimzi-topic-operator-kstreams},1651458888,0
{consumergroup=__strimzi-topic-operator-kstreams},1651458893,0
{consumergroup=__strimzi-topic-operator-kstreams},1651458898,0
{consumergroup=__strimzi-topic-operator-kstreams},1651458903,0
{consumergroup=__strimzi-topic-operator-kstreams},1651458908,0
{consumergroup=__strimzi-topic-operator-kstreams},1651458913,0
{consumergroup=__strimzi-topic-operator-kstreams},1651458918,0
{consumergroup=__strimzi-topic-operator-kstreams},1651458923,0
{consumergroup=__strimzi-topic-operator-kstreams},1651458928,0
{consumergroup=__strimzi-topic-operator-kstreams},1651458933,0
{consumergroup=__strimzi-topic-operator-kstreams},1651458938,0
{consumergroup=__strimzi-topic-operator-kstreams},1651458943,0
{consumergroup=__strimzi-topic-operator-kstreams},1651458948,0
{consumergroup=__strimzi-topic-operator-kstreams},1651458953,0
{consumergroup=__strimzi-topic-operator-kstreams},1651458958,0
{consumergroup=__strimzi-topic-operator-kstreams},1651458963,0
{consumergroup=__strimzi-topic-operator-kstreams},1651458968,0
{consumergroup=__strimzi-topic-operator-kstreams},1651458973,0
{consumergroup=__strimzi-topic-operator-kstreams},1651458978,0
{consumergroup=__strimzi-topic-operator-kstreams},1651458983,0
{consumergroup=__strimzi-topic-operator-kstreams},1651458988,0
{consumergroup=__strimzi-topic-operator-kstreams},1651458993,0
{consumergroup=__strimzi-topic-operator-kstreams},1651458998,0
{consumergroup=__strimzi-topic-operator-kstreams},1651459003,0
{consumergroup=__strimzi-topic-operator-kstreams},1651459008,0
{consumergroup=__strimzi-topic-operator-kstreams},1651459013,0
{consumergroup=__strimzi-topic-operator-kstreams},1651459018,0
{consumergroup=__strimzi-topic-operator-kstreams},1651459023,0
{consumergroup=__strimzi-topic-operator-kstreams},1651459028,0
{consumergroup=__strimzi-topic-operator-kstreams},1651459033,0
{consumergroup=__strimzi-topic-operator-kstreams},1651459038,0
{consumergroup=__strimzi-topic-operator-kstreams},1651459043,0
{consumergroup=__strimzi-topic-operator-kstreams},1651459048,0
{consumergroup=__strimzi-topic-operator-kstreams},1651459053,0
{consumergroup=__strimzi-topic-operator-kstreams},1651459058,0
{consumergroup=__strimzi-topic-operator-kstreams},1651459063,0
{consumergroup=__strimzi-topic-operator-kstreams},1651459068,0
{consumergroup=__strimzi-topic-operator-kstreams},1651459073,0
{consumergroup=__strimzi-topic-operator-kstreams},1651459078,0
{consumergroup=__strimzi-topic-operator-kstreams},1651459083,0
{consumergroup=__strimzi-topic-operator-kstreams},1651459088,0
{consumergroup=__strimzi-topic-operator-kstreams},1651459093,0
{consumergroup=__strimzi-topic-operator-kstreams},1651459098,0
{consumergroup=__strimzi-topic-operator-kstreams},1651459103,0
{consumergroup=__strimzi-topic-operator-kstreams},1651459108,0
{consumergroup=__strimzi-topic-operator-kstreams},1651459113,0
{consumergroup=__strimzi-topic-operator-kstreams},1651459118,0
{consumergroup=__strimzi-topic-operator-kstreams},1651459123,0
{consumergroup=__strimzi-topic-operator-kstreams},1651459128,0
{consumergroup=__strimzi-topic-operator-kstreams},1651459133,0
{consumergroup=__strimzi-topic-operator-kstreams},1651459138,0
{consumergroup=__strimzi-topic-operator-kstreams},1651459143,0
{consumergroup=__strimzi-topic-operator-kstreams},1651459148,0
{consumergroup=__strimzi-topic-operator-kstreams},1651459153,0
{consumergroup=__strimzi-topic-operator-kstreams},1651459158,0
{consumergroup=__strimzi-topic-operator-kstreams},1651459163,0
{consumergroup=__strimzi-topic-operator-kstreams},1651459168,0
{consumergroup=__strimzi-topic-operator-kstreams},1651459173,0
{consumergroup=__strimzi-topic-operator-kstreams},1651459178,0
{consumergroup=__strimzi-topic-operator-kstreams},1651459183,0
{consumergroup=__strimzi-topic-operator-kstreams},1651459188,0
{consumergroup=__strimzi-topic-operator-kstreams},1651459193,0
{consumergroup=__strimzi-topic-operator-kstreams},1651459198,0
{consumergroup=__strimzi-topic-operator-kstreams},1651459203,0
{consumergroup=__strimzi-topic-operator-kstreams},1651459208,0
{consumergroup=__strimzi-topic-operator-kstreams},1651459213,0
{consumergroup=__strimzi-topic-operator-kstreams},1651459218,0
{consumergroup=trace-service},1651458823,31690
{consumergroup=trace-service},1651458828,31690
{consumergroup=trace-service},1651458833,31690
{consumergroup=trace-service},1651458838,26373
{consumergroup=trace-service},1651458843,26373
{consumergroup=trace-service},1651458848,26373
{consumergroup=trace-service},1651458853,47054
{consumergroup=trace-service},1651458858,47054
{consumergroup=trace-service},1651458863,47054
{consumergroup=trace-service},1651458868,80965
{consumergroup=trace-service},1651458873,80965
{consumergroup=trace-service},1651458878,80965
{consumergroup=trace-service},1651458883,84944
{consumergroup=trace-service},1651458888,84944
{consumergroup=trace-service},1651458893,84944
{consumergroup=trace-service},1651458898,21396
{consumergroup=trace-service},1651458903,21396
{consumergroup=trace-service},1651458908,21396
{consumergroup=trace-service},1651458913,35353
{consumergroup=trace-service},1651458918,35353
{consumergroup=trace-service},1651458923,35353
{consumergroup=trace-service},1651458928,21825
{consumergroup=trace-service},1651458933,21825
{consumergroup=trace-service},1651458938,21825
{consumergroup=trace-service},1651458943,35407
{consumergroup=trace-service},1651458948,35407
{consumergroup=trace-service},1651458953,35407
{consumergroup=trace-service},1651458958,20567
{consumergroup=trace-service},1651458963,20567
{consumergroup=trace-service},1651458968,20567
{consumergroup=trace-service},1651458973,36754
{consumergroup=trace-service},1651458978,36754
{consumergroup=trace-service},1651458983,36754
{consumergroup=trace-service},1651458988,74054
{consumergroup=trace-service},1651458993,74054
{consumergroup=trace-service},1651458998,74054
{consumergroup=trace-service},1651459003,34406
{consumergroup=trace-service},1651459008,34406
{consumergroup=trace-service},1651459013,34406
{consumergroup=trace-service},1651459018,14108
{consumergroup=trace-service},1651459023,14108
{consumergroup=trace-service},1651459028,14108
{consumergroup=trace-service},1651459033,34185
{consumergroup=trace-service},1651459038,34185
{consumergroup=trace-service},1651459043,34185
{consumergroup=trace-service},1651459048,19142
{consumergroup=trace-service},1651459053,19142
{consumergroup=trace-service},1651459058,19142
{consumergroup=trace-service},1651459063,38469
{consumergroup=trace-service},1651459068,38469
{consumergroup=trace-service},1651459073,38469
{consumergroup=trace-service},1651459078,79268
{consumergroup=trace-service},1651459083,79268
{consumergroup=trace-service},1651459088,79268
{consumergroup=trace-service},1651459093,35210
{consumergroup=trace-service},1651459098,35210
{consumergroup=trace-service},1651459103,35210
{consumergroup=trace-service},1651459108,19008
{consumergroup=trace-service},1651459113,19008
{consumergroup=trace-service},1651459118,19008
{consumergroup=trace-service},1651459123,34413
{consumergroup=trace-service},1651459128,34413
{consumergroup=trace-service},1651459133,34413
{consumergroup=trace-service},1651459138,22801
{consumergroup=trace-service},1651459143,22801
{consumergroup=trace-service},1651459148,22801
{consumergroup=trace-service},1651459153,34881
{consumergroup=trace-service},1651459158,34881
{consumergroup=trace-service},1651459163,34881
{consumergroup=trace-service},1651459168,17272
{consumergroup=trace-service},1651459173,17272
{consumergroup=trace-service},1651459178,17272
{consumergroup=trace-service},1651459183,33911
{consumergroup=trace-service},1651459188,33911
{consumergroup=trace-service},1651459193,33911
{consumergroup=trace-service},1651459198,21150
{consumergroup=trace-service},1651459203,21150
{consumergroup=trace-service},1651459208,21150
{consumergroup=trace-service},1651459213,34401
{consumergroup=trace-service},1651459218,34401
{consumergroup=trace-token-events-consumer},1651458808,0
{consumergroup=trace-token-events-consumer},1651458813,0
{consumergroup=trace-token-events-consumer},1651458818,0
{consumergroup=trace-token-events-consumer},1651458823,0
{consumergroup=trace-token-events-consumer},1651458828,0
{consumergroup=trace-token-events-consumer},1651458833,0
{consumergroup=trace-token-events-consumer},1651458838,0
{consumergroup=trace-token-events-consumer},1651458843,0
{consumergroup=trace-token-events-consumer},1651458848,0
{consumergroup=trace-token-events-consumer},1651458853,0
{consumergroup=trace-token-events-consumer},1651458858,0
{consumergroup=trace-token-events-consumer},1651458863,0
{consumergroup=trace-token-events-consumer},1651458868,0
{consumergroup=trace-token-events-consumer},1651458873,0
{consumergroup=trace-token-events-consumer},1651458878,0
{consumergroup=trace-token-events-consumer},1651458883,0
{consumergroup=trace-token-events-consumer},1651458888,0
{consumergroup=trace-token-events-consumer},1651458893,0
{consumergroup=trace-token-events-consumer},1651458898,0
{consumergroup=trace-token-events-consumer},1651458903,0
{consumergroup=trace-token-events-consumer},1651458908,0
{consumergroup=trace-token-events-consumer},1651458913,0
{consumergroup=trace-token-events-consumer},1651458918,0
{consumergroup=trace-token-events-consumer},1651458923,0
{consumergroup=trace-token-events-consumer},1651458928,0
{consumergroup=trace-token-events-consumer},1651458933,0
{consumergroup=trace-token-events-consumer},1651458938,0
{consumergroup=trace-token-events-consumer},1651458943,0
{consumergroup=trace-token-events-consumer},1651458948,0
{consumergroup=trace-token-events-consumer},1651458953,0
{consumergroup=trace-token-events-consumer},1651458958,0
{consumergroup=trace-token-events-consumer},1651458963,0
{consumergroup=trace-token-events-consumer},1651458968,0
{consumergroup=trace-token-events-consumer},1651458973,0
{consumergroup=trace-token-events-consumer},1651458978,0
{consumergroup=trace-token-events-consumer},1651458983,0
{consumergroup=trace-token-events-consumer},1651458988,0
{consumergroup=trace-token-events-consumer},1651458993,0
{consumergroup=trace-token-events-consumer},1651458998,0
{consumergroup=trace-token-events-consumer},1651459003,0
{consumergroup=trace-token-events-consumer},1651459008,0
{consumergroup=trace-token-events-consumer},1651459013,0
{consumergroup=trace-token-events-consumer},1651459018,0
{consumergroup=trace-token-events-consumer},1651459023,0
{consumergroup=trace-token-events-consumer},1651459028,0
{consumergroup=trace-token-events-consumer},1651459033,0
{consumergroup=trace-token-events-consumer},1651459038,0
{consumergroup=trace-token-events-consumer},1651459043,0
{consumergroup=trace-token-events-consumer},1651459048,0
{consumergroup=trace-token-events-consumer},1651459053,0
{consumergroup=trace-token-events-consumer},1651459058,0
{consumergroup=trace-token-events-consumer},1651459063,0
{consumergroup=trace-token-events-consumer},1651459068,0
{consumergroup=trace-token-events-consumer},1651459073,0
{consumergroup=trace-token-events-consumer},1651459078,0
{consumergroup=trace-token-events-consumer},1651459083,0
{consumergroup=trace-token-events-consumer},1651459088,0
{consumergroup=trace-token-events-consumer},1651459093,0
{consumergroup=trace-token-events-consumer},1651459098,0
{consumergroup=trace-token-events-consumer},1651459103,0
{consumergroup=trace-token-events-consumer},1651459108,0
{consumergroup=trace-token-events-consumer},1651459113,0
{consumergroup=trace-token-events-consumer},1651459118,0
{consumergroup=trace-token-events-consumer},1651459123,0
{consumergroup=trace-token-events-consumer},1651459128,0
{consumergroup=trace-token-events-consumer},1651459133,0
{consumergroup=trace-token-events-consumer},1651459138,0
{consumergroup=trace-token-events-consumer},1651459143,0
{consumergroup=trace-token-events-consumer},1651459148,0
{consumergroup=trace-token-events-consumer},1651459153,0
{consumergroup=trace-token-events-consumer},1651459158,0
{consumergroup=trace-token-events-consumer},1651459163,0
{consumergroup=trace-token-events-consumer},1651459168,0
{consumergroup=trace-token-events-consumer},1651459173,0
{consumergroup=trace-token-events-consumer},1651459178,0
{consumergroup=trace-token-events-consumer},1651459183,0
{consumergroup=trace-token-events-consumer},1651459188,0
{consumergroup=trace-token-events-consumer},1651459193,0
{consumergroup=trace-token-events-consumer},1651459198,0
{consumergroup=trace-token-events-consumer},1651459203,0
{consumergroup=trace-token-events-consumer},1651459208,0
{consumergroup=trace-token-events-consumer},1651459213,0
{consumergroup=trace-token-events-consumer},1651459218,0
