labels,timestamp,value
{consumergroup=__strimzi-topic-operator-kstreams},1651456408,14
{consumergroup=__strimzi-topic-operator-kstreams},1651456413,14
{consumergroup=__strimzi-topic-operator-kstreams},1651456418,14
{consumergroup=__strimzi-topic-operator-kstreams},1651456423,0
{consumergroup=__strimzi-topic-operator-kstreams},1651456428,0
{consumergroup=__strimzi-topic-operator-kstreams},1651456433,0
{consumergroup=__strimzi-topic-operator-kstreams},1651456438,0
{consumergroup=__strimzi-topic-operator-kstreams},1651456443,0
{consumergroup=__strimzi-topic-operator-kstreams},1651456448,0
{consumergroup=__strimzi-topic-operator-kstreams},1651456453,0
{consumergroup=__strimzi-topic-operator-kstreams},1651456458,0
{consumergroup=__strimzi-topic-operator-kstreams},1651456463,0
{consumergroup=__strimzi-topic-operator-kstreams},1651456468,0
{consumergroup=__strimzi-topic-operator-kstreams},1651456473,0
{consumergroup=__strimzi-topic-operator-kstreams},1651456478,0
{consumergroup=__strimzi-topic-operator-kstreams},1651456483,0
{consumergroup=__strimzi-topic-operator-kstreams},1651456488,0
{consumergroup=__strimzi-topic-operator-kstreams},1651456493,0
{consumergroup=__strimzi-topic-operator-kstreams},1651456498,0
{consumergroup=__strimzi-topic-operator-kstreams},1651456503,0
{consumergroup=__strimzi-topic-operator-kstreams},1651456508,0
{consumergroup=__strimzi-topic-operator-kstreams},1651456513,0
{consumergroup=__strimzi-topic-operator-kstreams},1651456518,0
{consumergroup=__strimzi-topic-operator-kstreams},1651456523,0
{consumergroup=__strimzi-topic-operator-kstreams},1651456528,0
{consumergroup=__strimzi-topic-operator-kstreams},1651456533,0
{consumergroup=__strimzi-topic-operator-kstreams},1651456538,0
{consumergroup=__strimzi-topic-operator-kstreams},1651456543,0
{consumergroup=__strimzi-topic-operator-kstreams},1651456548,0
{consumergroup=__strimzi-topic-operator-kstreams},1651456553,0
{consumergroup=__strimzi-topic-operator-kstreams},1651456558,0
{consumergroup=__strimzi-topic-operator-kstreams},1651456563,0
{consumergroup=__strimzi-topic-operator-kstreams},1651456568,0
{consumergroup=__strimzi-topic-operator-kstreams},1651456573,0
{consumergroup=__strimzi-topic-operator-kstreams},1651456578,0
{consumergroup=__strimzi-topic-operator-kstreams},1651456583,0
{consumergroup=__strimzi-topic-operator-kstreams},1651456588,0
{consumergroup=__strimzi-topic-operator-kstreams},1651456593,0
{consumergroup=__strimzi-topic-operator-kstreams},1651456598,0
{consumergroup=__strimzi-topic-operator-kstreams},1651456603,0
{consumergroup=__strimzi-topic-operator-kstreams},1651456608,0
{consumergroup=__strimzi-topic-operator-kstreams},1651456613,0
{consumergroup=__strimzi-topic-operator-kstreams},1651456618,0
{consumergroup=__strimzi-topic-operator-kstreams},1651456623,0
{consumergroup=__strimzi-topic-operator-kstreams},1651456628,0
{consumergroup=__strimzi-topic-operator-kstreams},1651456633,0
{consumergroup=__strimzi-topic-operator-kstreams},1651456638,0
{consumergroup=__strimzi-topic-operator-kstreams},1651456643,0
{consumergroup=__strimzi-topic-operator-kstreams},1651456648,0
{consumergroup=__strimzi-topic-operator-kstreams},1651456653,0
{consumergroup=__strimzi-topic-operator-kstreams},1651456658,0
{consumergroup=adapter-service},1651456438,146419
{consumergroup=adapter-service},1651456443,146419
{consumergroup=adapter-service},1651456448,146419
{consumergroup=adapter-service},1651456453,359235
{consumergroup=adapter-service},1651456458,359235
{consumergroup=adapter-service},1651456463,359235
{consumergroup=adapter-service},1651456468,539363
{consumergroup=adapter-service},1651456473,539363
{consumergroup=adapter-service},1651456478,539363
{consumergroup=adapter-service},1651456483,697010
{consumergroup=adapter-service},1651456488,697010
{consumergroup=adapter-service},1651456493,697010
{consumergroup=adapter-service},1651456498,830042
{consumergroup=adapter-service},1651456503,830042
{consumergroup=adapter-service},1651456508,830042
{consumergroup=adapter-service},1651456513,922689
{consumergroup=adapter-service},1651456518,922689
{consumergroup=adapter-service},1651456523,922689
{consumergroup=adapter-service},1651456528,991341
{consumergroup=adapter-service},1651456533,991341
{consumergroup=adapter-service},1651456538,991341
{consumergroup=adapter-service},1651456543,1029509
{consumergroup=adapter-service},1651456548,1029509
{consumergroup=adapter-service},1651456553,1029509
{consumergroup=adapter-service},1651456558,1060057
{consumergroup=adapter-service},1651456563,1060057
{consumergroup=adapter-service},1651456568,1060057
{consumergroup=adapter-service},1651456573,1080072
{consumergroup=adapter-service},1651456578,1080072
{consumergroup=adapter-service},1651456583,1080072
{consumergroup=adapter-service},1651456588,1112953
{consumergroup=adapter-service},1651456593,1112953
{consumergroup=adapter-service},1651456598,1112953
{consumergroup=adapter-service},1651456603,1110506
{consumergroup=adapter-service},1651456608,1110506
{consumergroup=adapter-service},1651456613,1110506
{consumergroup=adapter-service},1651456618,1124621
{consumergroup=adapter-service},1651456623,1124621
{consumergroup=adapter-service},1651456628,1124621
{consumergroup=adapter-service},1651456633,1142892
{consumergroup=adapter-service},1651456638,1142892
{consumergroup=adapter-service},1651456643,1142892
{consumergroup=adapter-service},1651456648,1140845
{consumergroup=adapter-service},1651456653,1140845
{consumergroup=adapter-service},1651456658,1140845
