labels,timestamp,value
{consumergroup=__strimzi-topic-operator-kstreams},1651488583,11
{consumergroup=__strimzi-topic-operator-kstreams},1651488588,11
{consumergroup=__strimzi-topic-operator-kstreams},1651488593,11
{consumergroup=__strimzi-topic-operator-kstreams},1651488598,11
{consumergroup=__strimzi-topic-operator-kstreams},1651488603,11
{consumergroup=__strimzi-topic-operator-kstreams},1651488608,11
{consumergroup=__strimzi-topic-operator-kstreams},1651488613,0
{consumergroup=__strimzi-topic-operator-kstreams},1651488618,0
{consumergroup=__strimzi-topic-operator-kstreams},1651488623,0
{consumergroup=__strimzi-topic-operator-kstreams},1651488628,0
{consumergroup=__strimzi-topic-operator-kstreams},1651488633,0
{consumergroup=__strimzi-topic-operator-kstreams},1651488638,0
{consumergroup=__strimzi-topic-operator-kstreams},1651488643,0
{consumergroup=__strimzi-topic-operator-kstreams},1651488648,0
{consumergroup=__strimzi-topic-operator-kstreams},1651488653,0
{consumergroup=__strimzi-topic-operator-kstreams},1651488658,1
{consumergroup=__strimzi-topic-operator-kstreams},1651488663,1
{consumergroup=__strimzi-topic-operator-kstreams},1651488668,1
{consumergroup=__strimzi-topic-operator-kstreams},1651488673,0
{consumergroup=__strimzi-topic-operator-kstreams},1651488678,0
{consumergroup=__strimzi-topic-operator-kstreams},1651488683,0
{consumergroup=__strimzi-topic-operator-kstreams},1651488688,0
{consumergroup=__strimzi-topic-operator-kstreams},1651488693,0
{consumergroup=__strimzi-topic-operator-kstreams},1651488698,0
{consumergroup=__strimzi-topic-operator-kstreams},1651488703,0
{consumergroup=__strimzi-topic-operator-kstreams},1651488708,0
{consumergroup=__strimzi-topic-operator-kstreams},1651488713,0
{consumergroup=__strimzi-topic-operator-kstreams},1651488718,0
{consumergroup=__strimzi-topic-operator-kstreams},1651488723,0
{consumergroup=__strimzi-topic-operator-kstreams},1651488728,0
{consumergroup=__strimzi-topic-operator-kstreams},1651488733,0
{consumergroup=__strimzi-topic-operator-kstreams},1651488738,0
{consumergroup=__strimzi-topic-operator-kstreams},1651488743,0
{consumergroup=__strimzi-topic-operator-kstreams},1651488748,0
{consumergroup=__strimzi-topic-operator-kstreams},1651488753,0
{consumergroup=__strimzi-topic-operator-kstreams},1651488758,0
{consumergroup=__strimzi-topic-operator-kstreams},1651488763,0
{consumergroup=__strimzi-topic-operator-kstreams},1651488768,0
{consumergroup=__strimzi-topic-operator-kstreams},1651488773,0
{consumergroup=__strimzi-topic-operator-kstreams},1651488778,0
{consumergroup=__strimzi-topic-operator-kstreams},1651488783,0
{consumergroup=__strimzi-topic-operator-kstreams},1651488788,0
{consumergroup=__strimzi-topic-operator-kstreams},1651488793,0
{consumergroup=__strimzi-topic-operator-kstreams},1651488798,0
{consumergroup=__strimzi-topic-operator-kstreams},1651488803,0
{consumergroup=__strimzi-topic-operator-kstreams},1651488808,0
{consumergroup=__strimzi-topic-operator-kstreams},1651488813,0
{consumergroup=__strimzi-topic-operator-kstreams},1651488818,0
{consumergroup=__strimzi-topic-operator-kstreams},1651488823,0
{consumergroup=__strimzi-topic-operator-kstreams},1651488828,0
{consumergroup=__strimzi-topic-operator-kstreams},1651488833,0
{consumergroup=__strimzi-topic-operator-kstreams},1651488838,0
{consumergroup=__strimzi-topic-operator-kstreams},1651488843,0
{consumergroup=__strimzi-topic-operator-kstreams},1651488848,0
{consumergroup=__strimzi-topic-operator-kstreams},1651488853,0
{consumergroup=__strimzi-topic-operator-kstreams},1651488858,0
{consumergroup=__strimzi-topic-operator-kstreams},1651488863,0
{consumergroup=__strimzi-topic-operator-kstreams},1651488868,0
{consumergroup=__strimzi-topic-operator-kstreams},1651488873,0
{consumergroup=__strimzi-topic-operator-kstreams},1651488878,0
{consumergroup=__strimzi-topic-operator-kstreams},1651488883,0
{consumergroup=__strimzi-topic-operator-kstreams},1651488888,0
{consumergroup=__strimzi-topic-operator-kstreams},1651488893,0
{consumergroup=__strimzi-topic-operator-kstreams},1651488898,0
{consumergroup=__strimzi-topic-operator-kstreams},1651488903,0
{consumergroup=__strimzi-topic-operator-kstreams},1651488908,0
{consumergroup=__strimzi-topic-operator-kstreams},1651488913,0
{consumergroup=__strimzi-topic-operator-kstreams},1651488918,0
{consumergroup=__strimzi-topic-operator-kstreams},1651488923,0
{consumergroup=__strimzi-topic-operator-kstreams},1651488928,0
{consumergroup=__strimzi-topic-operator-kstreams},1651488933,0
{consumergroup=__strimzi-topic-operator-kstreams},1651488938,0
{consumergroup=__strimzi-topic-operator-kstreams},1651488943,0
{consumergroup=__strimzi-topic-operator-kstreams},1651488948,0
{consumergroup=__strimzi-topic-operator-kstreams},1651488953,0
{consumergroup=__strimzi-topic-operator-kstreams},1651488958,0
{consumergroup=__strimzi-topic-operator-kstreams},1651488963,0
{consumergroup=__strimzi-topic-operator-kstreams},1651488968,0
{consumergroup=__strimzi-topic-operator-kstreams},1651488973,0
{consumergroup=__strimzi-topic-operator-kstreams},1651488978,0
{consumergroup=__strimzi-topic-operator-kstreams},1651488983,0
{consumergroup=__strimzi-topic-operator-kstreams},1651488988,0
{consumergroup=__strimzi-topic-operator-kstreams},1651488993,0
{consumergroup=__strimzi-topic-operator-kstreams},1651488998,0
{consumergroup=__strimzi-topic-operator-kstreams},1651489003,0
{consumergroup=__strimzi-topic-operator-kstreams},1651489008,0
{consumergroup=__strimzi-topic-operator-kstreams},1651489013,0
{consumergroup=__strimzi-topic-operator-kstreams},1651489018,0
{consumergroup=__strimzi-topic-operator-kstreams},1651489023,0
{consumergroup=__strimzi-topic-operator-kstreams},1651489028,0
{consumergroup=trace-service},1651488628,14738
{consumergroup=trace-service},1651488633,14738
{consumergroup=trace-service},1651488638,14738
{consumergroup=trace-service},1651488643,55106
{consumergroup=trace-service},1651488648,55106
{consumergroup=trace-service},1651488653,55106
{consumergroup=trace-service},1651488658,11491
{consumergroup=trace-service},1651488663,11491
{consumergroup=trace-service},1651488668,11491
{consumergroup=trace-service},1651488673,46464
{consumergroup=trace-service},1651488678,46464
{consumergroup=trace-service},1651488683,46464
{consumergroup=trace-service},1651488688,24837
{consumergroup=trace-service},1651488693,24837
{consumergroup=trace-service},1651488698,24837
{consumergroup=trace-service},1651488703,48032
{consumergroup=trace-service},1651488708,48032
{consumergroup=trace-service},1651488713,48032
{consumergroup=trace-service},1651488718,18796
{consumergroup=trace-service},1651488723,18796
{consumergroup=trace-service},1651488728,18796
{consumergroup=trace-service},1651488733,46725
{consumergroup=trace-service},1651488738,46725
{consumergroup=trace-service},1651488743,46725
{consumergroup=trace-service},1651488748,13696
{consumergroup=trace-service},1651488753,13696
{consumergroup=trace-service},1651488758,13696
{consumergroup=trace-service},1651488763,48958
{consumergroup=trace-service},1651488768,48958
{consumergroup=trace-service},1651488773,48958
{consumergroup=trace-service},1651488778,152206
{consumergroup=trace-service},1651488783,152206
{consumergroup=trace-service},1651488788,152206
{consumergroup=trace-service},1651488793,44074
{consumergroup=trace-service},1651488798,44074
{consumergroup=trace-service},1651488803,44074
{consumergroup=trace-service},1651488808,23034
{consumergroup=trace-service},1651488813,23034
{consumergroup=trace-service},1651488818,23034
{consumergroup=trace-service},1651488823,45698
{consumergroup=trace-service},1651488828,45698
{consumergroup=trace-service},1651488833,45698
{consumergroup=trace-service},1651488838,85632
{consumergroup=trace-service},1651488843,85632
{consumergroup=trace-service},1651488848,85632
{consumergroup=trace-service},1651488853,48327
{consumergroup=trace-service},1651488858,48327
{consumergroup=trace-service},1651488863,48327
{consumergroup=trace-service},1651488868,23310
{consumergroup=trace-service},1651488873,23310
{consumergroup=trace-service},1651488878,23310
{consumergroup=trace-service},1651488883,48597
{consumergroup=trace-service},1651488888,48597
{consumergroup=trace-service},1651488893,48597
{consumergroup=trace-service},1651488898,19284
{consumergroup=trace-service},1651488903,19284
{consumergroup=trace-service},1651488908,19284
{consumergroup=trace-service},1651488913,46615
{consumergroup=trace-service},1651488918,46615
{consumergroup=trace-service},1651488923,46615
{consumergroup=trace-service},1651488928,128032
{consumergroup=trace-service},1651488933,128032
{consumergroup=trace-service},1651488938,128032
{consumergroup=trace-service},1651488943,48285
{consumergroup=trace-service},1651488948,48285
{consumergroup=trace-service},1651488953,48285
{consumergroup=trace-service},1651488958,19186
{consumergroup=trace-service},1651488963,19186
{consumergroup=trace-service},1651488968,19186
{consumergroup=trace-service},1651488973,44271
{consumergroup=trace-service},1651488978,44271
{consumergroup=trace-service},1651488983,44271
{consumergroup=trace-service},1651488988,13167
{consumergroup=trace-service},1651488993,13167
{consumergroup=trace-service},1651488998,13167
{consumergroup=trace-service},1651489003,42021
{consumergroup=trace-service},1651489008,42021
{consumergroup=trace-service},1651489013,42021
{consumergroup=trace-service},1651489018,13540
{consumergroup=trace-service},1651489023,13540
{consumergroup=trace-service},1651489028,13540
{consumergroup=trace-token-events-consumer},1651488628,0
{consumergroup=trace-token-events-consumer},1651488633,0
{consumergroup=trace-token-events-consumer},1651488638,0
{consumergroup=trace-token-events-consumer},1651488643,0
{consumergroup=trace-token-events-consumer},1651488648,0
{consumergroup=trace-token-events-consumer},1651488653,0
{consumergroup=trace-token-events-consumer},1651488658,0
{consumergroup=trace-token-events-consumer},1651488663,0
{consumergroup=trace-token-events-consumer},1651488668,0
{consumergroup=trace-token-events-consumer},1651488673,0
{consumergroup=trace-token-events-consumer},1651488678,0
{consumergroup=trace-token-events-consumer},1651488683,0
{consumergroup=trace-token-events-consumer},1651488688,0
{consumergroup=trace-token-events-consumer},1651488693,0
{consumergroup=trace-token-events-consumer},1651488698,0
{consumergroup=trace-token-events-consumer},1651488703,0
{consumergroup=trace-token-events-consumer},1651488708,0
{consumergroup=trace-token-events-consumer},1651488713,0
{consumergroup=trace-token-events-consumer},1651488718,0
{consumergroup=trace-token-events-consumer},1651488723,0
{consumergroup=trace-token-events-consumer},1651488728,0
{consumergroup=trace-token-events-consumer},1651488733,0
{consumergroup=trace-token-events-consumer},1651488738,0
{consumergroup=trace-token-events-consumer},1651488743,0
{consumergroup=trace-token-events-consumer},1651488748,0
{consumergroup=trace-token-events-consumer},1651488753,0
{consumergroup=trace-token-events-consumer},1651488758,0
{consumergroup=trace-token-events-consumer},1651488763,0
{consumergroup=trace-token-events-consumer},1651488768,0
{consumergroup=trace-token-events-consumer},1651488773,0
{consumergroup=trace-token-events-consumer},1651488778,0
{consumergroup=trace-token-events-consumer},1651488783,0
{consumergroup=trace-token-events-consumer},1651488788,0
{consumergroup=trace-token-events-consumer},1651488793,0
{consumergroup=trace-token-events-consumer},1651488798,0
{consumergroup=trace-token-events-consumer},1651488803,0
{consumergroup=trace-token-events-consumer},1651488808,0
{consumergroup=trace-token-events-consumer},1651488813,0
{consumergroup=trace-token-events-consumer},1651488818,0
{consumergroup=trace-token-events-consumer},1651488823,0
{consumergroup=trace-token-events-consumer},1651488828,0
{consumergroup=trace-token-events-consumer},1651488833,0
{consumergroup=trace-token-events-consumer},1651488838,0
{consumergroup=trace-token-events-consumer},1651488843,0
{consumergroup=trace-token-events-consumer},1651488848,0
{consumergroup=trace-token-events-consumer},1651488853,0
{consumergroup=trace-token-events-consumer},1651488858,0
{consumergroup=trace-token-events-consumer},1651488863,0
{consumergroup=trace-token-events-consumer},1651488868,0
{consumergroup=trace-token-events-consumer},1651488873,0
{consumergroup=trace-token-events-consumer},1651488878,0
{consumergroup=trace-token-events-consumer},1651488883,0
{consumergroup=trace-token-events-consumer},1651488888,0
{consumergroup=trace-token-events-consumer},1651488893,0
{consumergroup=trace-token-events-consumer},1651488898,0
{consumergroup=trace-token-events-consumer},1651488903,0
{consumergroup=trace-token-events-consumer},1651488908,0
{consumergroup=trace-token-events-consumer},1651488913,0
{consumergroup=trace-token-events-consumer},1651488918,0
{consumergroup=trace-token-events-consumer},1651488923,0
{consumergroup=trace-token-events-consumer},1651488928,0
{consumergroup=trace-token-events-consumer},1651488933,0
{consumergroup=trace-token-events-consumer},1651488938,0
{consumergroup=trace-token-events-consumer},1651488943,0
{consumergroup=trace-token-events-consumer},1651488948,0
{consumergroup=trace-token-events-consumer},1651488953,0
{consumergroup=trace-token-events-consumer},1651488958,0
{consumergroup=trace-token-events-consumer},1651488963,0
{consumergroup=trace-token-events-consumer},1651488968,0
{consumergroup=trace-token-events-consumer},1651488973,0
{consumergroup=trace-token-events-consumer},1651488978,0
{consumergroup=trace-token-events-consumer},1651488983,0
{consumergroup=trace-token-events-consumer},1651488988,0
{consumergroup=trace-token-events-consumer},1651488993,0
{consumergroup=trace-token-events-consumer},1651488998,0
{consumergroup=trace-token-events-consumer},1651489003,0
{consumergroup=trace-token-events-consumer},1651489008,0
{consumergroup=trace-token-events-consumer},1651489013,0
{consumergroup=trace-token-events-consumer},1651489018,0
{consumergroup=trace-token-events-consumer},1651489023,0
{consumergroup=trace-token-events-consumer},1651489028,0
