labels,timestamp,value
{consumergroup=__strimzi-topic-operator-kstreams},1651450396,16
{consumergroup=__strimzi-topic-operator-kstreams},1651450401,16
{consumergroup=__strimzi-topic-operator-kstreams},1651450406,16
{consumergroup=__strimzi-topic-operator-kstreams},1651450411,0
{consumergroup=__strimzi-topic-operator-kstreams},1651450416,0
{consumergroup=__strimzi-topic-operator-kstreams},1651450421,0
{consumergroup=__strimzi-topic-operator-kstreams},1651450426,0
{consumergroup=__strimzi-topic-operator-kstreams},1651450431,0
{consumergroup=__strimzi-topic-operator-kstreams},1651450436,0
{consumergroup=__strimzi-topic-operator-kstreams},1651450441,0
{consumergroup=__strimzi-topic-operator-kstreams},1651450446,0
{consumergroup=__strimzi-topic-operator-kstreams},1651450451,0
{consumergroup=__strimzi-topic-operator-kstreams},1651450456,0
{consumergroup=__strimzi-topic-operator-kstreams},1651450461,0
{consumergroup=__strimzi-topic-operator-kstreams},1651450466,0
{consumergroup=__strimzi-topic-operator-kstreams},1651450471,0
{consumergroup=__strimzi-topic-operator-kstreams},1651450476,0
{consumergroup=__strimzi-topic-operator-kstreams},1651450481,0
{consumergroup=__strimzi-topic-operator-kstreams},1651450486,0
{consumergroup=__strimzi-topic-operator-kstreams},1651450491,0
{consumergroup=__strimzi-topic-operator-kstreams},1651450496,0
{consumergroup=__strimzi-topic-operator-kstreams},1651450501,0
{consumergroup=__strimzi-topic-operator-kstreams},1651450506,0
{consumergroup=__strimzi-topic-operator-kstreams},1651450511,0
{consumergroup=__strimzi-topic-operator-kstreams},1651450516,0
{consumergroup=__strimzi-topic-operator-kstreams},1651450521,0
{consumergroup=__strimzi-topic-operator-kstreams},1651450526,0
{consumergroup=__strimzi-topic-operator-kstreams},1651450531,0
{consumergroup=__strimzi-topic-operator-kstreams},1651450536,0
{consumergroup=__strimzi-topic-operator-kstreams},1651450541,0
{consumergroup=__strimzi-topic-operator-kstreams},1651450546,0
{consumergroup=__strimzi-topic-operator-kstreams},1651450551,0
{consumergroup=__strimzi-topic-operator-kstreams},1651450556,0
{consumergroup=__strimzi-topic-operator-kstreams},1651450561,0
{consumergroup=__strimzi-topic-operator-kstreams},1651450566,0
{consumergroup=__strimzi-topic-operator-kstreams},1651450571,0
{consumergroup=__strimzi-topic-operator-kstreams},1651450576,0
{consumergroup=__strimzi-topic-operator-kstreams},1651450581,0
{consumergroup=__strimzi-topic-operator-kstreams},1651450586,0
{consumergroup=__strimzi-topic-operator-kstreams},1651450591,0
{consumergroup=__strimzi-topic-operator-kstreams},1651450596,0
{consumergroup=__strimzi-topic-operator-kstreams},1651450601,0
{consumergroup=__strimzi-topic-operator-kstreams},1651450606,0
{consumergroup=__strimzi-topic-operator-kstreams},1651450611,0
{consumergroup=__strimzi-topic-operator-kstreams},1651450616,0
{consumergroup=__strimzi-topic-operator-kstreams},1651450621,0
{consumergroup=__strimzi-topic-operator-kstreams},1651450626,0
{consumergroup=__strimzi-topic-operator-kstreams},1651450631,0
{consumergroup=__strimzi-topic-operator-kstreams},1651450636,0
{consumergroup=__strimzi-topic-operator-kstreams},1651450641,0
{consumergroup=__strimzi-topic-operator-kstreams},1651450646,0
{consumergroup=__strimzi-topic-operator-kstreams},1651450651,0
{consumergroup=adapter-service},1651450426,43315
{consumergroup=adapter-service},1651450431,43315
{consumergroup=adapter-service},1651450436,43315
{consumergroup=adapter-service},1651450441,269555
{consumergroup=adapter-service},1651450446,269555
{consumergroup=adapter-service},1651450451,269555
{consumergroup=adapter-service},1651450456,453980
{consumergroup=adapter-service},1651450461,453980
{consumergroup=adapter-service},1651450466,453980
{consumergroup=adapter-service},1651450471,565458
{consumergroup=adapter-service},1651450476,565458
{consumergroup=adapter-service},1651450481,565458
{consumergroup=adapter-service},1651450486,711877
{consumergroup=adapter-service},1651450491,711877
{consumergroup=adapter-service},1651450496,711877
{consumergroup=adapter-service},1651450501,809538
{consumergroup=adapter-service},1651450506,809538
{consumergroup=adapter-service},1651450511,809538
{consumergroup=adapter-service},1651450516,894288
{consumergroup=adapter-service},1651450521,894288
{consumergroup=adapter-service},1651450526,894288
{consumergroup=adapter-service},1651450531,970940
{consumergroup=adapter-service},1651450536,970940
{consumergroup=adapter-service},1651450541,970940
{consumergroup=adapter-service},1651450546,1000523
{consumergroup=adapter-service},1651450551,1000523
{consumergroup=adapter-service},1651450556,1000523
{consumergroup=adapter-service},1651450561,1008329
{consumergroup=adapter-service},1651450566,1008329
{consumergroup=adapter-service},1651450571,1008329
{consumergroup=adapter-service},1651450576,1026719
{consumergroup=adapter-service},1651450581,1026719
{consumergroup=adapter-service},1651450586,1026719
{consumergroup=adapter-service},1651450591,1018448
{consumergroup=adapter-service},1651450596,1018448
{consumergroup=adapter-service},1651450601,1018448
{consumergroup=adapter-service},1651450606,1032565
{consumergroup=adapter-service},1651450611,1032565
{consumergroup=adapter-service},1651450616,1032565
{consumergroup=adapter-service},1651450621,1043916
{consumergroup=adapter-service},1651450626,1043916
{consumergroup=adapter-service},1651450631,1043916
{consumergroup=adapter-service},1651450636,1044935
{consumergroup=adapter-service},1651450641,1044935
{consumergroup=adapter-service},1651450646,1044935
{consumergroup=adapter-service},1651450651,1052452
