labels,timestamp,value
{job=theodolite-stu200776/trace-isolated-podmonitor},1651523028,0
{job=theodolite-stu200776/trace-isolated-podmonitor},1651523033,0
{job=theodolite-stu200776/trace-isolated-podmonitor},1651523038,0
{job=theodolite-stu200776/trace-isolated-podmonitor},1651523043,0
{job=theodolite-stu200776/trace-isolated-podmonitor},1651523048,0
{job=theodolite-stu200776/trace-isolated-podmonitor},1651523053,0
{job=theodolite-stu200776/trace-isolated-podmonitor},1651523058,0
{job=theodolite-stu200776/trace-isolated-podmonitor},1651523063,0
{job=theodolite-stu200776/trace-isolated-podmonitor},1651523068,0
{job=theodolite-stu200776/trace-isolated-podmonitor},1651523073,0
{job=theodolite-stu200776/trace-isolated-podmonitor},1651523078,0
{job=theodolite-stu200776/trace-isolated-podmonitor},1651523083,0
{job=theodolite-stu200776/trace-isolated-podmonitor},1651523088,0
{job=theodolite-stu200776/trace-isolated-podmonitor},1651523093,0
{job=theodolite-stu200776/trace-isolated-podmonitor},1651523098,0
{job=theodolite-stu200776/trace-isolated-podmonitor},1651523103,0
{job=theodolite-stu200776/trace-isolated-podmonitor},1651523108,0
{job=theodolite-stu200776/trace-isolated-podmonitor},1651523113,0
{job=theodolite-stu200776/trace-isolated-podmonitor},1651523118,0
{job=theodolite-stu200776/trace-isolated-podmonitor},1651523123,0
{job=theodolite-stu200776/trace-isolated-podmonitor},1651523128,0
{job=theodolite-stu200776/trace-isolated-podmonitor},1651523133,0
{job=theodolite-stu200776/trace-isolated-podmonitor},1651523138,0
{job=theodolite-stu200776/trace-isolated-podmonitor},1651523143,0
{job=theodolite-stu200776/trace-isolated-podmonitor},1651523148,0
{job=theodolite-stu200776/trace-isolated-podmonitor},1651523153,0
{job=theodolite-stu200776/trace-isolated-podmonitor},1651523158,0
{job=theodolite-stu200776/trace-isolated-podmonitor},1651523163,0
{job=theodolite-stu200776/trace-isolated-podmonitor},1651523168,0
{job=theodolite-stu200776/trace-isolated-podmonitor},1651523173,0
{job=theodolite-stu200776/trace-isolated-podmonitor},1651523178,0
{job=theodolite-stu200776/trace-isolated-podmonitor},1651523183,0
{job=theodolite-stu200776/trace-isolated-podmonitor},1651523188,0
{job=theodolite-stu200776/trace-isolated-podmonitor},1651523193,0
{job=theodolite-stu200776/trace-isolated-podmonitor},1651523198,0
{job=theodolite-stu200776/trace-isolated-podmonitor},1651523203,0
{job=theodolite-stu200776/trace-isolated-podmonitor},1651523208,0
{job=theodolite-stu200776/trace-isolated-podmonitor},1651523213,0
{job=theodolite-stu200776/trace-isolated-podmonitor},1651523218,0
{job=theodolite-stu200776/trace-isolated-podmonitor},1651523223,0
{job=theodolite-stu200776/trace-isolated-podmonitor},1651523228,0
{job=theodolite-stu200776/trace-isolated-podmonitor},1651523233,0
{job=theodolite-stu200776/trace-isolated-podmonitor},1651523238,0
{job=theodolite-stu200776/trace-isolated-podmonitor},1651523243,0
{job=theodolite-stu200776/trace-isolated-podmonitor},1651523248,0
{job=theodolite-stu200776/trace-isolated-podmonitor},1651523253,0
{job=theodolite-stu200776/trace-isolated-podmonitor},1651523258,0
{job=theodolite-stu200776/trace-isolated-podmonitor},1651523263,0
{job=theodolite-stu200776/trace-isolated-podmonitor},1651523268,0
{job=theodolite-stu200776/trace-isolated-podmonitor},1651523273,0
{job=theodolite-stu200776/trace-isolated-podmonitor},1651523278,0
{job=theodolite-stu200776/trace-isolated-podmonitor},1651523283,0
{job=theodolite-stu200776/trace-isolated-podmonitor},1651523288,0
{job=theodolite-stu200776/trace-isolated-podmonitor},1651523293,0
{job=theodolite-stu200776/trace-isolated-podmonitor},1651523298,0
{job=theodolite-stu200776/trace-isolated-podmonitor},1651523303,0
{job=theodolite-stu200776/trace-isolated-podmonitor},1651523308,0
{job=theodolite-stu200776/trace-isolated-podmonitor},1651523313,0
{job=theodolite-stu200776/trace-isolated-podmonitor},1651523318,0
{job=theodolite-stu200776/trace-isolated-podmonitor},1651523323,0
{job=theodolite-stu200776/trace-isolated-podmonitor},1651523328,0
{job=theodolite-stu200776/trace-isolated-podmonitor},1651523333,0
{job=theodolite-stu200776/trace-isolated-podmonitor},1651523338,0
{job=theodolite-stu200776/trace-isolated-podmonitor},1651523343,0
{job=theodolite-stu200776/trace-isolated-podmonitor},1651523348,0
{job=theodolite-stu200776/trace-isolated-podmonitor},1651523353,0
{job=theodolite-stu200776/trace-isolated-podmonitor},1651523358,0
{job=theodolite-stu200776/trace-isolated-podmonitor},1651523363,0
{job=theodolite-stu200776/trace-isolated-podmonitor},1651523368,0
{job=theodolite-stu200776/trace-isolated-podmonitor},1651523373,0
{job=theodolite-stu200776/trace-isolated-podmonitor},1651523378,0
{job=theodolite-stu200776/trace-isolated-podmonitor},1651523383,0
{job=theodolite-stu200776/trace-isolated-podmonitor},1651523388,0
{job=theodolite-stu200776/trace-isolated-podmonitor},1651523393,0
{job=theodolite-stu200776/trace-isolated-podmonitor},1651523398,0
{job=theodolite-stu200776/trace-isolated-podmonitor},1651523403,0
