labels,timestamp,value
{job=theodolite-stu200776/combined-trace-podmonitor},1651554917,0
{job=theodolite-stu200776/combined-trace-podmonitor},1651554922,0
{job=theodolite-stu200776/combined-trace-podmonitor},1651554927,0
{job=theodolite-stu200776/combined-trace-podmonitor},1651554932,0
{job=theodolite-stu200776/combined-trace-podmonitor},1651554937,0
{job=theodolite-stu200776/combined-trace-podmonitor},1651554942,0
{job=theodolite-stu200776/combined-trace-podmonitor},1651554947,0
{job=theodolite-stu200776/combined-trace-podmonitor},1651554952,0
{job=theodolite-stu200776/combined-trace-podmonitor},1651554957,0
{job=theodolite-stu200776/combined-trace-podmonitor},1651554962,0
{job=theodolite-stu200776/combined-trace-podmonitor},1651554967,0
{job=theodolite-stu200776/combined-trace-podmonitor},1651554972,0
{job=theodolite-stu200776/combined-trace-podmonitor},1651554977,0
{job=theodolite-stu200776/combined-trace-podmonitor},1651554982,0
{job=theodolite-stu200776/combined-trace-podmonitor},1651554987,0
{job=theodolite-stu200776/combined-trace-podmonitor},1651554992,0
{job=theodolite-stu200776/combined-trace-podmonitor},1651554997,0
{job=theodolite-stu200776/combined-trace-podmonitor},1651555002,0
{job=theodolite-stu200776/combined-trace-podmonitor},1651555007,0
{job=theodolite-stu200776/combined-trace-podmonitor},1651555012,0
{job=theodolite-stu200776/combined-trace-podmonitor},1651555017,0
{job=theodolite-stu200776/combined-trace-podmonitor},1651555022,0
{job=theodolite-stu200776/combined-trace-podmonitor},1651555027,0
{job=theodolite-stu200776/combined-trace-podmonitor},1651555032,0
{job=theodolite-stu200776/combined-trace-podmonitor},1651555037,0
{job=theodolite-stu200776/combined-trace-podmonitor},1651555042,0
{job=theodolite-stu200776/combined-trace-podmonitor},1651555047,0
{job=theodolite-stu200776/combined-trace-podmonitor},1651555052,0
{job=theodolite-stu200776/combined-trace-podmonitor},1651555057,0
{job=theodolite-stu200776/combined-trace-podmonitor},1651555062,0
{job=theodolite-stu200776/combined-trace-podmonitor},1651555067,0
{job=theodolite-stu200776/combined-trace-podmonitor},1651555072,0
{job=theodolite-stu200776/combined-trace-podmonitor},1651555077,0
{job=theodolite-stu200776/combined-trace-podmonitor},1651555082,0
{job=theodolite-stu200776/combined-trace-podmonitor},1651555087,0
{job=theodolite-stu200776/combined-trace-podmonitor},1651555092,0
{job=theodolite-stu200776/combined-trace-podmonitor},1651555097,0
{job=theodolite-stu200776/combined-trace-podmonitor},1651555102,0
{job=theodolite-stu200776/combined-trace-podmonitor},1651555107,0
{job=theodolite-stu200776/combined-trace-podmonitor},1651555112,0
{job=theodolite-stu200776/combined-trace-podmonitor},1651555117,0
{job=theodolite-stu200776/combined-trace-podmonitor},1651555122,0
{job=theodolite-stu200776/combined-trace-podmonitor},1651555127,0
{job=theodolite-stu200776/combined-trace-podmonitor},1651555132,0
{job=theodolite-stu200776/combined-trace-podmonitor},1651555137,0
{job=theodolite-stu200776/combined-trace-podmonitor},1651555142,0
{job=theodolite-stu200776/combined-trace-podmonitor},1651555147,0
{job=theodolite-stu200776/combined-trace-podmonitor},1651555152,0
{job=theodolite-stu200776/combined-trace-podmonitor},1651555157,0
{job=theodolite-stu200776/combined-trace-podmonitor},1651555162,0
{job=theodolite-stu200776/combined-trace-podmonitor},1651555167,0
{job=theodolite-stu200776/combined-trace-podmonitor},1651555172,0
{job=theodolite-stu200776/combined-trace-podmonitor},1651555177,0
{job=theodolite-stu200776/combined-trace-podmonitor},1651555182,0
{job=theodolite-stu200776/combined-trace-podmonitor},1651555187,0
{job=theodolite-stu200776/combined-trace-podmonitor},1651555192,0
{job=theodolite-stu200776/combined-trace-podmonitor},1651555197,0
{job=theodolite-stu200776/combined-trace-podmonitor},1651555202,0
{job=theodolite-stu200776/combined-trace-podmonitor},1651555207,0
{job=theodolite-stu200776/combined-trace-podmonitor},1651555212,0
{job=theodolite-stu200776/combined-trace-podmonitor},1651555217,0
{job=theodolite-stu200776/combined-trace-podmonitor},1651555222,0
{job=theodolite-stu200776/combined-trace-podmonitor},1651555227,0
{job=theodolite-stu200776/combined-trace-podmonitor},1651555232,0
{job=theodolite-stu200776/combined-trace-podmonitor},1651555237,0
{job=theodolite-stu200776/combined-trace-podmonitor},1651555242,0
{job=theodolite-stu200776/combined-trace-podmonitor},1651555247,0
{job=theodolite-stu200776/combined-trace-podmonitor},1651555252,0
{job=theodolite-stu200776/combined-trace-podmonitor},1651555257,0
{job=theodolite-stu200776/combined-trace-podmonitor},1651555262,0
{job=theodolite-stu200776/combined-trace-podmonitor},1651555267,0
{job=theodolite-stu200776/combined-trace-podmonitor},1651555272,0
{job=theodolite-stu200776/combined-trace-podmonitor},1651555277,0
{job=theodolite-stu200776/combined-trace-podmonitor},1651555282,0
{job=theodolite-stu200776/combined-trace-podmonitor},1651555287,0
{job=theodolite-stu200776/combined-trace-podmonitor},1651555292,0
