labels,timestamp,value
{job=theodolite-stu200776/trace-isolated-podmonitor},1651481984,0
{job=theodolite-stu200776/trace-isolated-podmonitor},1651481989,0
{job=theodolite-stu200776/trace-isolated-podmonitor},1651481994,0
{job=theodolite-stu200776/trace-isolated-podmonitor},1651481999,0
{job=theodolite-stu200776/trace-isolated-podmonitor},1651482004,0
{job=theodolite-stu200776/trace-isolated-podmonitor},1651482009,0
{job=theodolite-stu200776/trace-isolated-podmonitor},1651482014,1339.5201858795128
{job=theodolite-stu200776/trace-isolated-podmonitor},1651482019,1339.5201858795128
{job=theodolite-stu200776/trace-isolated-podmonitor},1651482024,1543.9736677788032
{job=theodolite-stu200776/trace-isolated-podmonitor},1651482029,1543.9736677788032
{job=theodolite-stu200776/trace-isolated-podmonitor},1651482034,1244.5173266223148
{job=theodolite-stu200776/trace-isolated-podmonitor},1651482039,1244.5173266223148
{job=theodolite-stu200776/trace-isolated-podmonitor},1651482044,1474.5450890028908
{job=theodolite-stu200776/trace-isolated-podmonitor},1651482049,1474.5450890028908
{job=theodolite-stu200776/trace-isolated-podmonitor},1651482054,992.0678585671627
{job=theodolite-stu200776/trace-isolated-podmonitor},1651482059,992.0678585671627
{job=theodolite-stu200776/trace-isolated-podmonitor},1651482064,799.375736119408
{job=theodolite-stu200776/trace-isolated-podmonitor},1651482069,799.375736119408
{job=theodolite-stu200776/trace-isolated-podmonitor},1651482074,59.365982280703044
{job=theodolite-stu200776/trace-isolated-podmonitor},1651482079,59.365982280703044
{job=theodolite-stu200776/trace-isolated-podmonitor},1651482084,0
{job=theodolite-stu200776/trace-isolated-podmonitor},1651482089,0
{job=theodolite-stu200776/trace-isolated-podmonitor},1651482094,0
{job=theodolite-stu200776/trace-isolated-podmonitor},1651482099,0
{job=theodolite-stu200776/trace-isolated-podmonitor},1651482104,0
{job=theodolite-stu200776/trace-isolated-podmonitor},1651482109,0
{job=theodolite-stu200776/trace-isolated-podmonitor},1651482114,0
{job=theodolite-stu200776/trace-isolated-podmonitor},1651482119,0
{job=theodolite-stu200776/trace-isolated-podmonitor},1651482124,0
{job=theodolite-stu200776/trace-isolated-podmonitor},1651482129,0
{job=theodolite-stu200776/trace-isolated-podmonitor},1651482134,0
{job=theodolite-stu200776/trace-isolated-podmonitor},1651482139,0
{job=theodolite-stu200776/trace-isolated-podmonitor},1651482144,0
{job=theodolite-stu200776/trace-isolated-podmonitor},1651482149,0
{job=theodolite-stu200776/trace-isolated-podmonitor},1651482154,0
{job=theodolite-stu200776/trace-isolated-podmonitor},1651482159,0
{job=theodolite-stu200776/trace-isolated-podmonitor},1651482164,0
{job=theodolite-stu200776/trace-isolated-podmonitor},1651482169,0
{job=theodolite-stu200776/trace-isolated-podmonitor},1651482174,0
{job=theodolite-stu200776/trace-isolated-podmonitor},1651482179,0
{job=theodolite-stu200776/trace-isolated-podmonitor},1651482184,0
{job=theodolite-stu200776/trace-isolated-podmonitor},1651482189,0
{job=theodolite-stu200776/trace-isolated-podmonitor},1651482194,0
{job=theodolite-stu200776/trace-isolated-podmonitor},1651482199,0
{job=theodolite-stu200776/trace-isolated-podmonitor},1651482204,0
{job=theodolite-stu200776/trace-isolated-podmonitor},1651482209,0
{job=theodolite-stu200776/trace-isolated-podmonitor},1651482214,0
{job=theodolite-stu200776/trace-isolated-podmonitor},1651482219,0
{job=theodolite-stu200776/trace-isolated-podmonitor},1651482224,0
{job=theodolite-stu200776/trace-isolated-podmonitor},1651482229,0
{job=theodolite-stu200776/trace-isolated-podmonitor},1651482234,0
{job=theodolite-stu200776/trace-isolated-podmonitor},1651482239,0
{job=theodolite-stu200776/trace-isolated-podmonitor},1651482244,0
{job=theodolite-stu200776/trace-isolated-podmonitor},1651482249,0
{job=theodolite-stu200776/trace-isolated-podmonitor},1651482254,0
{job=theodolite-stu200776/trace-isolated-podmonitor},1651482259,0
{job=theodolite-stu200776/trace-isolated-podmonitor},1651482264,0
{job=theodolite-stu200776/trace-isolated-podmonitor},1651482269,0
{job=theodolite-stu200776/trace-isolated-podmonitor},1651482274,0
{job=theodolite-stu200776/trace-isolated-podmonitor},1651482279,0
{job=theodolite-stu200776/trace-isolated-podmonitor},1651482284,0
{job=theodolite-stu200776/trace-isolated-podmonitor},1651482289,0
{job=theodolite-stu200776/trace-isolated-podmonitor},1651482294,0
{job=theodolite-stu200776/trace-isolated-podmonitor},1651482299,0
{job=theodolite-stu200776/trace-isolated-podmonitor},1651482304,0
{job=theodolite-stu200776/trace-isolated-podmonitor},1651482309,0
{job=theodolite-stu200776/trace-isolated-podmonitor},1651482314,0
{job=theodolite-stu200776/trace-isolated-podmonitor},1651482319,0
{job=theodolite-stu200776/trace-isolated-podmonitor},1651482324,0
{job=theodolite-stu200776/trace-isolated-podmonitor},1651482329,0
{job=theodolite-stu200776/trace-isolated-podmonitor},1651482334,0
{job=theodolite-stu200776/trace-isolated-podmonitor},1651482339,0
{job=theodolite-stu200776/trace-isolated-podmonitor},1651482344,0
{job=theodolite-stu200776/trace-isolated-podmonitor},1651482349,0
