labels,timestamp,value
{job=theodolite-stu200776/combined-trace-podmonitor},1651557699,0
{job=theodolite-stu200776/combined-trace-podmonitor},1651557704,0
{job=theodolite-stu200776/combined-trace-podmonitor},1651557709,0
{job=theodolite-stu200776/combined-trace-podmonitor},1651557714,0
{job=theodolite-stu200776/combined-trace-podmonitor},1651557719,0
{job=theodolite-stu200776/combined-trace-podmonitor},1651557724,0
{job=theodolite-stu200776/combined-trace-podmonitor},1651557729,0
{job=theodolite-stu200776/combined-trace-podmonitor},1651557734,0
{job=theodolite-stu200776/combined-trace-podmonitor},1651557739,0
{job=theodolite-stu200776/combined-trace-podmonitor},1651557744,0
{job=theodolite-stu200776/combined-trace-podmonitor},1651557749,0
{job=theodolite-stu200776/combined-trace-podmonitor},1651557754,0
{job=theodolite-stu200776/combined-trace-podmonitor},1651557759,0
{job=theodolite-stu200776/combined-trace-podmonitor},1651557764,0
{job=theodolite-stu200776/combined-trace-podmonitor},1651557769,0
{job=theodolite-stu200776/combined-trace-podmonitor},1651557774,0
{job=theodolite-stu200776/combined-trace-podmonitor},1651557779,0
{job=theodolite-stu200776/combined-trace-podmonitor},1651557784,0
{job=theodolite-stu200776/combined-trace-podmonitor},1651557789,0
{job=theodolite-stu200776/combined-trace-podmonitor},1651557794,0
{job=theodolite-stu200776/combined-trace-podmonitor},1651557799,0
{job=theodolite-stu200776/combined-trace-podmonitor},1651557804,0
{job=theodolite-stu200776/combined-trace-podmonitor},1651557809,0
{job=theodolite-stu200776/combined-trace-podmonitor},1651557814,0
{job=theodolite-stu200776/combined-trace-podmonitor},1651557819,0
{job=theodolite-stu200776/combined-trace-podmonitor},1651557824,0
{job=theodolite-stu200776/combined-trace-podmonitor},1651557829,0
{job=theodolite-stu200776/combined-trace-podmonitor},1651557834,0
{job=theodolite-stu200776/combined-trace-podmonitor},1651557839,0
{job=theodolite-stu200776/combined-trace-podmonitor},1651557844,0
{job=theodolite-stu200776/combined-trace-podmonitor},1651557849,0
{job=theodolite-stu200776/combined-trace-podmonitor},1651557854,0
{job=theodolite-stu200776/combined-trace-podmonitor},1651557859,0
{job=theodolite-stu200776/combined-trace-podmonitor},1651557864,0
{job=theodolite-stu200776/combined-trace-podmonitor},1651557869,0
{job=theodolite-stu200776/combined-trace-podmonitor},1651557874,0
{job=theodolite-stu200776/combined-trace-podmonitor},1651557879,0
{job=theodolite-stu200776/combined-trace-podmonitor},1651557884,0
{job=theodolite-stu200776/combined-trace-podmonitor},1651557889,0
{job=theodolite-stu200776/combined-trace-podmonitor},1651557894,0
{job=theodolite-stu200776/combined-trace-podmonitor},1651557899,0
{job=theodolite-stu200776/combined-trace-podmonitor},1651557904,0
{job=theodolite-stu200776/combined-trace-podmonitor},1651557909,0
{job=theodolite-stu200776/combined-trace-podmonitor},1651557914,0
{job=theodolite-stu200776/combined-trace-podmonitor},1651557919,0
{job=theodolite-stu200776/combined-trace-podmonitor},1651557924,0
{job=theodolite-stu200776/combined-trace-podmonitor},1651557929,0
{job=theodolite-stu200776/combined-trace-podmonitor},1651557934,0
{job=theodolite-stu200776/combined-trace-podmonitor},1651557939,0
{job=theodolite-stu200776/combined-trace-podmonitor},1651557944,0
{job=theodolite-stu200776/combined-trace-podmonitor},1651557949,0
{job=theodolite-stu200776/combined-trace-podmonitor},1651557954,0
{job=theodolite-stu200776/combined-trace-podmonitor},1651557959,0
{job=theodolite-stu200776/combined-trace-podmonitor},1651557964,0
{job=theodolite-stu200776/combined-trace-podmonitor},1651557969,0
{job=theodolite-stu200776/combined-trace-podmonitor},1651557974,0
{job=theodolite-stu200776/combined-trace-podmonitor},1651557979,0
{job=theodolite-stu200776/combined-trace-podmonitor},1651557984,0
{job=theodolite-stu200776/combined-trace-podmonitor},1651557989,0
{job=theodolite-stu200776/combined-trace-podmonitor},1651557994,0
{job=theodolite-stu200776/combined-trace-podmonitor},1651557999,0
{job=theodolite-stu200776/combined-trace-podmonitor},1651558004,0
{job=theodolite-stu200776/combined-trace-podmonitor},1651558009,0
{job=theodolite-stu200776/combined-trace-podmonitor},1651558014,0
{job=theodolite-stu200776/combined-trace-podmonitor},1651558019,0
{job=theodolite-stu200776/combined-trace-podmonitor},1651558024,0
{job=theodolite-stu200776/combined-trace-podmonitor},1651558029,0
{job=theodolite-stu200776/combined-trace-podmonitor},1651558034,0
{job=theodolite-stu200776/combined-trace-podmonitor},1651558039,0
{job=theodolite-stu200776/combined-trace-podmonitor},1651558044,0
{job=theodolite-stu200776/combined-trace-podmonitor},1651558049,0
{job=theodolite-stu200776/combined-trace-podmonitor},1651558054,0
{job=theodolite-stu200776/combined-trace-podmonitor},1651558059,0
{job=theodolite-stu200776/combined-trace-podmonitor},1651558064,0
{job=theodolite-stu200776/combined-trace-podmonitor},1651558069,0
{job=theodolite-stu200776/combined-trace-podmonitor},1651558074,0
