labels,timestamp,value
{job=theodolite-stu200776/trace-isolated-podmonitor},1651478899,0
{job=theodolite-stu200776/trace-isolated-podmonitor},1651478904,0
{job=theodolite-stu200776/trace-isolated-podmonitor},1651478909,0
{job=theodolite-stu200776/trace-isolated-podmonitor},1651478914,0
{job=theodolite-stu200776/trace-isolated-podmonitor},1651478919,181.82633264830582
{job=theodolite-stu200776/trace-isolated-podmonitor},1651478924,688.5372494333611
{job=theodolite-stu200776/trace-isolated-podmonitor},1651478929,1752.821616906656
{job=theodolite-stu200776/trace-isolated-podmonitor},1651478934,1869.294767637558
{job=theodolite-stu200776/trace-isolated-podmonitor},1651478939,2083.210588499872
{job=theodolite-stu200776/trace-isolated-podmonitor},1651478944,2089.255507488759
{job=theodolite-stu200776/trace-isolated-podmonitor},1651478949,1770.1405143779784
{job=theodolite-stu200776/trace-isolated-podmonitor},1651478954,1648.9126400779785
{job=theodolite-stu200776/trace-isolated-podmonitor},1651478959,1106.9344729525417
{job=theodolite-stu200776/trace-isolated-podmonitor},1651478964,782.8827794857814
{job=theodolite-stu200776/trace-isolated-podmonitor},1651478969,184.6369680469109
{job=theodolite-stu200776/trace-isolated-podmonitor},1651478974,0.68754930882609
{job=theodolite-stu200776/trace-isolated-podmonitor},1651478979,0.5558008162909411
{job=theodolite-stu200776/trace-isolated-podmonitor},1651478984,0.5558008162909411
{job=theodolite-stu200776/trace-isolated-podmonitor},1651478989,0
{job=theodolite-stu200776/trace-isolated-podmonitor},1651478994,0
{job=theodolite-stu200776/trace-isolated-podmonitor},1651478999,0
{job=theodolite-stu200776/trace-isolated-podmonitor},1651479004,0
{job=theodolite-stu200776/trace-isolated-podmonitor},1651479009,0
{job=theodolite-stu200776/trace-isolated-podmonitor},1651479014,0
{job=theodolite-stu200776/trace-isolated-podmonitor},1651479019,0
{job=theodolite-stu200776/trace-isolated-podmonitor},1651479024,0
{job=theodolite-stu200776/trace-isolated-podmonitor},1651479029,0
{job=theodolite-stu200776/trace-isolated-podmonitor},1651479034,0
{job=theodolite-stu200776/trace-isolated-podmonitor},1651479039,0
{job=theodolite-stu200776/trace-isolated-podmonitor},1651479044,0
{job=theodolite-stu200776/trace-isolated-podmonitor},1651479049,0
{job=theodolite-stu200776/trace-isolated-podmonitor},1651479054,0
{job=theodolite-stu200776/trace-isolated-podmonitor},1651479059,0
{job=theodolite-stu200776/trace-isolated-podmonitor},1651479064,0
{job=theodolite-stu200776/trace-isolated-podmonitor},1651479069,0
{job=theodolite-stu200776/trace-isolated-podmonitor},1651479074,0
{job=theodolite-stu200776/trace-isolated-podmonitor},1651479079,0
{job=theodolite-stu200776/trace-isolated-podmonitor},1651479084,0
{job=theodolite-stu200776/trace-isolated-podmonitor},1651479089,0
{job=theodolite-stu200776/trace-isolated-podmonitor},1651479094,0
{job=theodolite-stu200776/trace-isolated-podmonitor},1651479099,0
{job=theodolite-stu200776/trace-isolated-podmonitor},1651479104,0
{job=theodolite-stu200776/trace-isolated-podmonitor},1651479109,0
{job=theodolite-stu200776/trace-isolated-podmonitor},1651479114,0
{job=theodolite-stu200776/trace-isolated-podmonitor},1651479119,0
{job=theodolite-stu200776/trace-isolated-podmonitor},1651479124,0
{job=theodolite-stu200776/trace-isolated-podmonitor},1651479129,0
{job=theodolite-stu200776/trace-isolated-podmonitor},1651479134,0
{job=theodolite-stu200776/trace-isolated-podmonitor},1651479139,0
{job=theodolite-stu200776/trace-isolated-podmonitor},1651479144,0
{job=theodolite-stu200776/trace-isolated-podmonitor},1651479149,0
{job=theodolite-stu200776/trace-isolated-podmonitor},1651479154,0
{job=theodolite-stu200776/trace-isolated-podmonitor},1651479159,0
{job=theodolite-stu200776/trace-isolated-podmonitor},1651479164,0
{job=theodolite-stu200776/trace-isolated-podmonitor},1651479169,0
{job=theodolite-stu200776/trace-isolated-podmonitor},1651479174,0
{job=theodolite-stu200776/trace-isolated-podmonitor},1651479179,0
{job=theodolite-stu200776/trace-isolated-podmonitor},1651479184,0
{job=theodolite-stu200776/trace-isolated-podmonitor},1651479189,0
{job=theodolite-stu200776/trace-isolated-podmonitor},1651479194,0
{job=theodolite-stu200776/trace-isolated-podmonitor},1651479199,0
{job=theodolite-stu200776/trace-isolated-podmonitor},1651479204,0
{job=theodolite-stu200776/trace-isolated-podmonitor},1651479209,0
{job=theodolite-stu200776/trace-isolated-podmonitor},1651479214,0
{job=theodolite-stu200776/trace-isolated-podmonitor},1651479219,0
{job=theodolite-stu200776/trace-isolated-podmonitor},1651479224,0
{job=theodolite-stu200776/trace-isolated-podmonitor},1651479229,0
{job=theodolite-stu200776/trace-isolated-podmonitor},1651479234,0
{job=theodolite-stu200776/trace-isolated-podmonitor},1651479239,0
{job=theodolite-stu200776/trace-isolated-podmonitor},1651479244,0
{job=theodolite-stu200776/trace-isolated-podmonitor},1651479249,0
{job=theodolite-stu200776/trace-isolated-podmonitor},1651479254,0
{job=theodolite-stu200776/trace-isolated-podmonitor},1651479259,0
{job=theodolite-stu200776/trace-isolated-podmonitor},1651479264,0
{job=theodolite-stu200776/trace-isolated-podmonitor},1651479269,0
