labels,timestamp,value
{consumergroup=__strimzi-topic-operator-kstreams},1651478308,11
{consumergroup=__strimzi-topic-operator-kstreams},1651478313,11
{consumergroup=__strimzi-topic-operator-kstreams},1651478318,11
{consumergroup=__strimzi-topic-operator-kstreams},1651478323,3
{consumergroup=__strimzi-topic-operator-kstreams},1651478328,3
{consumergroup=__strimzi-topic-operator-kstreams},1651478333,3
{consumergroup=__strimzi-topic-operator-kstreams},1651478338,3
{consumergroup=__strimzi-topic-operator-kstreams},1651478343,3
{consumergroup=__strimzi-topic-operator-kstreams},1651478348,3
{consumergroup=__strimzi-topic-operator-kstreams},1651478353,0
{consumergroup=__strimzi-topic-operator-kstreams},1651478358,0
{consumergroup=__strimzi-topic-operator-kstreams},1651478363,0
{consumergroup=__strimzi-topic-operator-kstreams},1651478368,0
{consumergroup=__strimzi-topic-operator-kstreams},1651478373,0
{consumergroup=__strimzi-topic-operator-kstreams},1651478378,0
{consumergroup=__strimzi-topic-operator-kstreams},1651478383,0
{consumergroup=__strimzi-topic-operator-kstreams},1651478388,0
{consumergroup=__strimzi-topic-operator-kstreams},1651478393,0
{consumergroup=__strimzi-topic-operator-kstreams},1651478398,0
{consumergroup=__strimzi-topic-operator-kstreams},1651478403,0
{consumergroup=__strimzi-topic-operator-kstreams},1651478408,0
{consumergroup=__strimzi-topic-operator-kstreams},1651478413,0
{consumergroup=__strimzi-topic-operator-kstreams},1651478418,0
{consumergroup=__strimzi-topic-operator-kstreams},1651478423,0
{consumergroup=__strimzi-topic-operator-kstreams},1651478428,0
{consumergroup=__strimzi-topic-operator-kstreams},1651478433,0
{consumergroup=__strimzi-topic-operator-kstreams},1651478438,0
{consumergroup=__strimzi-topic-operator-kstreams},1651478443,0
{consumergroup=__strimzi-topic-operator-kstreams},1651478448,0
{consumergroup=__strimzi-topic-operator-kstreams},1651478453,0
{consumergroup=__strimzi-topic-operator-kstreams},1651478458,0
{consumergroup=__strimzi-topic-operator-kstreams},1651478463,0
{consumergroup=__strimzi-topic-operator-kstreams},1651478468,0
{consumergroup=__strimzi-topic-operator-kstreams},1651478473,0
{consumergroup=__strimzi-topic-operator-kstreams},1651478478,0
{consumergroup=__strimzi-topic-operator-kstreams},1651478483,0
{consumergroup=__strimzi-topic-operator-kstreams},1651478488,0
{consumergroup=__strimzi-topic-operator-kstreams},1651478493,0
{consumergroup=__strimzi-topic-operator-kstreams},1651478498,0
{consumergroup=__strimzi-topic-operator-kstreams},1651478503,0
{consumergroup=__strimzi-topic-operator-kstreams},1651478508,0
{consumergroup=__strimzi-topic-operator-kstreams},1651478513,0
{consumergroup=__strimzi-topic-operator-kstreams},1651478518,0
{consumergroup=__strimzi-topic-operator-kstreams},1651478523,0
{consumergroup=__strimzi-topic-operator-kstreams},1651478528,0
{consumergroup=__strimzi-topic-operator-kstreams},1651478533,0
{consumergroup=__strimzi-topic-operator-kstreams},1651478538,0
{consumergroup=__strimzi-topic-operator-kstreams},1651478543,0
{consumergroup=__strimzi-topic-operator-kstreams},1651478548,0
{consumergroup=__strimzi-topic-operator-kstreams},1651478553,0
{consumergroup=__strimzi-topic-operator-kstreams},1651478558,0
{consumergroup=__strimzi-topic-operator-kstreams},1651478563,0
{consumergroup=__strimzi-topic-operator-kstreams},1651478568,0
{consumergroup=__strimzi-topic-operator-kstreams},1651478573,0
{consumergroup=__strimzi-topic-operator-kstreams},1651478578,0
{consumergroup=__strimzi-topic-operator-kstreams},1651478583,0
{consumergroup=__strimzi-topic-operator-kstreams},1651478588,0
{consumergroup=__strimzi-topic-operator-kstreams},1651478593,0
{consumergroup=__strimzi-topic-operator-kstreams},1651478598,0
{consumergroup=__strimzi-topic-operator-kstreams},1651478603,0
{consumergroup=__strimzi-topic-operator-kstreams},1651478608,0
{consumergroup=__strimzi-topic-operator-kstreams},1651478613,0
{consumergroup=__strimzi-topic-operator-kstreams},1651478618,0
{consumergroup=__strimzi-topic-operator-kstreams},1651478623,0
{consumergroup=__strimzi-topic-operator-kstreams},1651478628,0
{consumergroup=__strimzi-topic-operator-kstreams},1651478633,0
{consumergroup=__strimzi-topic-operator-kstreams},1651478638,0
{consumergroup=__strimzi-topic-operator-kstreams},1651478643,0
{consumergroup=__strimzi-topic-operator-kstreams},1651478648,0
{consumergroup=__strimzi-topic-operator-kstreams},1651478653,0
{consumergroup=__strimzi-topic-operator-kstreams},1651478658,0
{consumergroup=__strimzi-topic-operator-kstreams},1651478663,0
{consumergroup=__strimzi-topic-operator-kstreams},1651478668,0
{consumergroup=__strimzi-topic-operator-kstreams},1651478673,0
{consumergroup=__strimzi-topic-operator-kstreams},1651478678,0
{consumergroup=__strimzi-topic-operator-kstreams},1651478683,0
{consumergroup=__strimzi-topic-operator-kstreams},1651478688,0
{consumergroup=__strimzi-topic-operator-kstreams},1651478693,0
{consumergroup=__strimzi-topic-operator-kstreams},1651478698,0
{consumergroup=__strimzi-topic-operator-kstreams},1651478703,0
{consumergroup=__strimzi-topic-operator-kstreams},1651478708,0
{consumergroup=__strimzi-topic-operator-kstreams},1651478713,0
{consumergroup=__strimzi-topic-operator-kstreams},1651478718,0
{consumergroup=__strimzi-topic-operator-kstreams},1651478723,0
{consumergroup=__strimzi-topic-operator-kstreams},1651478728,0
{consumergroup=__strimzi-topic-operator-kstreams},1651478733,0
{consumergroup=__strimzi-topic-operator-kstreams},1651478738,0
{consumergroup=__strimzi-topic-operator-kstreams},1651478743,0
{consumergroup=trace-service},1651478353,65320
{consumergroup=trace-service},1651478358,65320
{consumergroup=trace-service},1651478363,65320
{consumergroup=trace-service},1651478368,11663
{consumergroup=trace-service},1651478373,11663
{consumergroup=trace-service},1651478378,11663
{consumergroup=trace-service},1651478383,55380
{consumergroup=trace-service},1651478388,55380
{consumergroup=trace-service},1651478393,55380
{consumergroup=trace-service},1651478398,18097
{consumergroup=trace-service},1651478403,18097
{consumergroup=trace-service},1651478408,18097
{consumergroup=trace-service},1651478413,54530
{consumergroup=trace-service},1651478418,54530
{consumergroup=trace-service},1651478423,54530
{consumergroup=trace-service},1651478428,14188
{consumergroup=trace-service},1651478433,14188
{consumergroup=trace-service},1651478438,14188
{consumergroup=trace-service},1651478443,61671
{consumergroup=trace-service},1651478448,61671
{consumergroup=trace-service},1651478453,61671
{consumergroup=trace-service},1651478458,11550
{consumergroup=trace-service},1651478463,11550
{consumergroup=trace-service},1651478468,11550
{consumergroup=trace-service},1651478473,68887
{consumergroup=trace-service},1651478478,68887
{consumergroup=trace-service},1651478483,68887
{consumergroup=trace-service},1651478488,139432
{consumergroup=trace-service},1651478493,139432
{consumergroup=trace-service},1651478498,139432
{consumergroup=trace-service},1651478503,163125
{consumergroup=trace-service},1651478508,163125
{consumergroup=trace-service},1651478513,163125
{consumergroup=trace-service},1651478518,12358
{consumergroup=trace-service},1651478523,12358
{consumergroup=trace-service},1651478528,12358
{consumergroup=trace-service},1651478533,58356
{consumergroup=trace-service},1651478538,58356
{consumergroup=trace-service},1651478543,58356
{consumergroup=trace-service},1651478548,92878
{consumergroup=trace-service},1651478553,92878
{consumergroup=trace-service},1651478558,92878
{consumergroup=trace-service},1651478563,59552
{consumergroup=trace-service},1651478568,59552
{consumergroup=trace-service},1651478573,59552
{consumergroup=trace-service},1651478578,144491
{consumergroup=trace-service},1651478583,144491
{consumergroup=trace-service},1651478588,144491
{consumergroup=trace-service},1651478593,57592
{consumergroup=trace-service},1651478598,57592
{consumergroup=trace-service},1651478603,57592
{consumergroup=trace-service},1651478608,14639
{consumergroup=trace-service},1651478613,14639
{consumergroup=trace-service},1651478618,14639
{consumergroup=trace-service},1651478623,59452
{consumergroup=trace-service},1651478628,59452
{consumergroup=trace-service},1651478633,59452
{consumergroup=trace-service},1651478638,164902
{consumergroup=trace-service},1651478643,164902
{consumergroup=trace-service},1651478648,164902
{consumergroup=trace-service},1651478653,59919
{consumergroup=trace-service},1651478658,59919
{consumergroup=trace-service},1651478663,59919
{consumergroup=trace-service},1651478668,149822
{consumergroup=trace-service},1651478673,149822
{consumergroup=trace-service},1651478678,149822
{consumergroup=trace-service},1651478683,81045
{consumergroup=trace-service},1651478688,81045
{consumergroup=trace-service},1651478693,81045
{consumergroup=trace-service},1651478698,76258
{consumergroup=trace-service},1651478703,76258
{consumergroup=trace-service},1651478708,76258
{consumergroup=trace-service},1651478713,62035
{consumergroup=trace-service},1651478718,62035
{consumergroup=trace-service},1651478723,62035
{consumergroup=trace-service},1651478728,147355
{consumergroup=trace-service},1651478733,147355
{consumergroup=trace-service},1651478738,147355
{consumergroup=trace-service},1651478743,148525
{consumergroup=trace-token-events-consumer},1651478338,0
{consumergroup=trace-token-events-consumer},1651478343,0
{consumergroup=trace-token-events-consumer},1651478348,0
{consumergroup=trace-token-events-consumer},1651478353,0
{consumergroup=trace-token-events-consumer},1651478358,0
{consumergroup=trace-token-events-consumer},1651478363,0
{consumergroup=trace-token-events-consumer},1651478368,0
{consumergroup=trace-token-events-consumer},1651478373,0
{consumergroup=trace-token-events-consumer},1651478378,0
{consumergroup=trace-token-events-consumer},1651478383,0
{consumergroup=trace-token-events-consumer},1651478388,0
{consumergroup=trace-token-events-consumer},1651478393,0
{consumergroup=trace-token-events-consumer},1651478398,0
{consumergroup=trace-token-events-consumer},1651478403,0
{consumergroup=trace-token-events-consumer},1651478408,0
{consumergroup=trace-token-events-consumer},1651478413,0
{consumergroup=trace-token-events-consumer},1651478418,0
{consumergroup=trace-token-events-consumer},1651478423,0
{consumergroup=trace-token-events-consumer},1651478428,0
{consumergroup=trace-token-events-consumer},1651478433,0
{consumergroup=trace-token-events-consumer},1651478438,0
{consumergroup=trace-token-events-consumer},1651478443,0
{consumergroup=trace-token-events-consumer},1651478448,0
{consumergroup=trace-token-events-consumer},1651478453,0
{consumergroup=trace-token-events-consumer},1651478458,0
{consumergroup=trace-token-events-consumer},1651478463,0
{consumergroup=trace-token-events-consumer},1651478468,0
{consumergroup=trace-token-events-consumer},1651478473,0
{consumergroup=trace-token-events-consumer},1651478478,0
{consumergroup=trace-token-events-consumer},1651478483,0
{consumergroup=trace-token-events-consumer},1651478488,0
{consumergroup=trace-token-events-consumer},1651478493,0
{consumergroup=trace-token-events-consumer},1651478498,0
{consumergroup=trace-token-events-consumer},1651478503,0
{consumergroup=trace-token-events-consumer},1651478508,0
{consumergroup=trace-token-events-consumer},1651478513,0
{consumergroup=trace-token-events-consumer},1651478518,0
{consumergroup=trace-token-events-consumer},1651478523,0
{consumergroup=trace-token-events-consumer},1651478528,0
{consumergroup=trace-token-events-consumer},1651478533,0
{consumergroup=trace-token-events-consumer},1651478538,0
{consumergroup=trace-token-events-consumer},1651478543,0
{consumergroup=trace-token-events-consumer},1651478548,0
{consumergroup=trace-token-events-consumer},1651478553,0
{consumergroup=trace-token-events-consumer},1651478558,0
{consumergroup=trace-token-events-consumer},1651478563,0
{consumergroup=trace-token-events-consumer},1651478568,0
{consumergroup=trace-token-events-consumer},1651478573,0
{consumergroup=trace-token-events-consumer},1651478578,0
{consumergroup=trace-token-events-consumer},1651478583,0
{consumergroup=trace-token-events-consumer},1651478588,0
{consumergroup=trace-token-events-consumer},1651478593,0
{consumergroup=trace-token-events-consumer},1651478598,0
{consumergroup=trace-token-events-consumer},1651478603,0
{consumergroup=trace-token-events-consumer},1651478608,0
{consumergroup=trace-token-events-consumer},1651478613,0
{consumergroup=trace-token-events-consumer},1651478618,0
{consumergroup=trace-token-events-consumer},1651478623,0
{consumergroup=trace-token-events-consumer},1651478628,0
{consumergroup=trace-token-events-consumer},1651478633,0
{consumergroup=trace-token-events-consumer},1651478638,0
{consumergroup=trace-token-events-consumer},1651478643,0
{consumergroup=trace-token-events-consumer},1651478648,0
{consumergroup=trace-token-events-consumer},1651478653,0
{consumergroup=trace-token-events-consumer},1651478658,0
{consumergroup=trace-token-events-consumer},1651478663,0
{consumergroup=trace-token-events-consumer},1651478668,0
{consumergroup=trace-token-events-consumer},1651478673,0
{consumergroup=trace-token-events-consumer},1651478678,0
{consumergroup=trace-token-events-consumer},1651478683,0
{consumergroup=trace-token-events-consumer},1651478688,0
{consumergroup=trace-token-events-consumer},1651478693,0
{consumergroup=trace-token-events-consumer},1651478698,0
{consumergroup=trace-token-events-consumer},1651478703,0
{consumergroup=trace-token-events-consumer},1651478708,0
{consumergroup=trace-token-events-consumer},1651478713,0
{consumergroup=trace-token-events-consumer},1651478718,0
{consumergroup=trace-token-events-consumer},1651478723,0
{consumergroup=trace-token-events-consumer},1651478728,0
{consumergroup=trace-token-events-consumer},1651478733,0
{consumergroup=trace-token-events-consumer},1651478738,0
{consumergroup=trace-token-events-consumer},1651478743,0
