labels,timestamp,value
{consumergroup=__strimzi-topic-operator-kstreams},1651532149,11
{consumergroup=__strimzi-topic-operator-kstreams},1651532154,11
{consumergroup=__strimzi-topic-operator-kstreams},1651532159,11
{consumergroup=__strimzi-topic-operator-kstreams},1651532164,0
{consumergroup=__strimzi-topic-operator-kstreams},1651532169,0
{consumergroup=__strimzi-topic-operator-kstreams},1651532174,0
{consumergroup=__strimzi-topic-operator-kstreams},1651532179,3
{consumergroup=__strimzi-topic-operator-kstreams},1651532184,3
{consumergroup=__strimzi-topic-operator-kstreams},1651532189,3
{consumergroup=__strimzi-topic-operator-kstreams},1651532194,0
{consumergroup=__strimzi-topic-operator-kstreams},1651532199,0
{consumergroup=__strimzi-topic-operator-kstreams},1651532204,0
{consumergroup=__strimzi-topic-operator-kstreams},1651532209,0
{consumergroup=__strimzi-topic-operator-kstreams},1651532214,0
{consumergroup=__strimzi-topic-operator-kstreams},1651532219,0
{consumergroup=__strimzi-topic-operator-kstreams},1651532224,0
{consumergroup=__strimzi-topic-operator-kstreams},1651532229,0
{consumergroup=__strimzi-topic-operator-kstreams},1651532234,0
{consumergroup=__strimzi-topic-operator-kstreams},1651532239,0
{consumergroup=__strimzi-topic-operator-kstreams},1651532244,0
{consumergroup=__strimzi-topic-operator-kstreams},1651532249,0
{consumergroup=__strimzi-topic-operator-kstreams},1651532254,0
{consumergroup=__strimzi-topic-operator-kstreams},1651532259,0
{consumergroup=__strimzi-topic-operator-kstreams},1651532264,0
{consumergroup=__strimzi-topic-operator-kstreams},1651532269,0
{consumergroup=__strimzi-topic-operator-kstreams},1651532274,0
{consumergroup=__strimzi-topic-operator-kstreams},1651532279,0
{consumergroup=__strimzi-topic-operator-kstreams},1651532284,0
{consumergroup=__strimzi-topic-operator-kstreams},1651532289,0
{consumergroup=__strimzi-topic-operator-kstreams},1651532294,0
{consumergroup=__strimzi-topic-operator-kstreams},1651532299,0
{consumergroup=__strimzi-topic-operator-kstreams},1651532304,0
{consumergroup=__strimzi-topic-operator-kstreams},1651532309,0
{consumergroup=__strimzi-topic-operator-kstreams},1651532314,0
{consumergroup=__strimzi-topic-operator-kstreams},1651532319,0
{consumergroup=__strimzi-topic-operator-kstreams},1651532324,0
{consumergroup=__strimzi-topic-operator-kstreams},1651532329,0
{consumergroup=__strimzi-topic-operator-kstreams},1651532334,0
{consumergroup=__strimzi-topic-operator-kstreams},1651532339,0
{consumergroup=__strimzi-topic-operator-kstreams},1651532344,0
{consumergroup=__strimzi-topic-operator-kstreams},1651532349,0
{consumergroup=__strimzi-topic-operator-kstreams},1651532354,0
{consumergroup=__strimzi-topic-operator-kstreams},1651532359,0
{consumergroup=__strimzi-topic-operator-kstreams},1651532364,0
{consumergroup=__strimzi-topic-operator-kstreams},1651532369,0
{consumergroup=__strimzi-topic-operator-kstreams},1651532374,0
{consumergroup=__strimzi-topic-operator-kstreams},1651532379,0
{consumergroup=__strimzi-topic-operator-kstreams},1651532384,0
{consumergroup=__strimzi-topic-operator-kstreams},1651532389,0
{consumergroup=__strimzi-topic-operator-kstreams},1651532394,0
{consumergroup=__strimzi-topic-operator-kstreams},1651532399,0
{consumergroup=__strimzi-topic-operator-kstreams},1651532404,0
{consumergroup=__strimzi-topic-operator-kstreams},1651532409,0
{consumergroup=__strimzi-topic-operator-kstreams},1651532414,0
{consumergroup=__strimzi-topic-operator-kstreams},1651532419,0
{consumergroup=__strimzi-topic-operator-kstreams},1651532424,0
{consumergroup=__strimzi-topic-operator-kstreams},1651532429,0
{consumergroup=__strimzi-topic-operator-kstreams},1651532434,0
{consumergroup=__strimzi-topic-operator-kstreams},1651532439,0
{consumergroup=__strimzi-topic-operator-kstreams},1651532444,0
{consumergroup=__strimzi-topic-operator-kstreams},1651532449,0
{consumergroup=__strimzi-topic-operator-kstreams},1651532454,0
{consumergroup=__strimzi-topic-operator-kstreams},1651532459,0
{consumergroup=__strimzi-topic-operator-kstreams},1651532464,0
{consumergroup=__strimzi-topic-operator-kstreams},1651532469,0
{consumergroup=__strimzi-topic-operator-kstreams},1651532474,0
{consumergroup=__strimzi-topic-operator-kstreams},1651532479,0
{consumergroup=__strimzi-topic-operator-kstreams},1651532484,0
{consumergroup=__strimzi-topic-operator-kstreams},1651532489,0
{consumergroup=__strimzi-topic-operator-kstreams},1651532494,0
{consumergroup=__strimzi-topic-operator-kstreams},1651532499,0
{consumergroup=__strimzi-topic-operator-kstreams},1651532504,0
{consumergroup=__strimzi-topic-operator-kstreams},1651532509,0
{consumergroup=__strimzi-topic-operator-kstreams},1651532514,0
{consumergroup=__strimzi-topic-operator-kstreams},1651532519,0
{consumergroup=__strimzi-topic-operator-kstreams},1651532524,0
{consumergroup=__strimzi-topic-operator-kstreams},1651532529,0
{consumergroup=__strimzi-topic-operator-kstreams},1651532534,0
{consumergroup=__strimzi-topic-operator-kstreams},1651532539,0
{consumergroup=__strimzi-topic-operator-kstreams},1651532544,0
{consumergroup=__strimzi-topic-operator-kstreams},1651532549,0
{consumergroup=__strimzi-topic-operator-kstreams},1651532554,0
{consumergroup=__strimzi-topic-operator-kstreams},1651532559,0
{consumergroup=__strimzi-topic-operator-kstreams},1651532564,0
{consumergroup=__strimzi-topic-operator-kstreams},1651532569,0
{consumergroup=__strimzi-topic-operator-kstreams},1651532574,0
{consumergroup=__strimzi-topic-operator-kstreams},1651532579,0
{consumergroup=__strimzi-topic-operator-kstreams},1651532584,0
{consumergroup=__strimzi-topic-operator-kstreams},1651532589,0
{consumergroup=__strimzi-topic-operator-kstreams},1651532594,0
{consumergroup=adapter-service},1651532179,0
{consumergroup=adapter-service},1651532184,0
{consumergroup=adapter-service},1651532189,0
{consumergroup=adapter-service},1651532194,4220
{consumergroup=adapter-service},1651532199,4220
{consumergroup=adapter-service},1651532204,4220
{consumergroup=adapter-service},1651532209,1794
{consumergroup=adapter-service},1651532214,1794
{consumergroup=adapter-service},1651532219,1794
{consumergroup=adapter-service},1651532224,2497
{consumergroup=adapter-service},1651532229,2497
{consumergroup=adapter-service},1651532234,2497
{consumergroup=adapter-service},1651532239,3646
{consumergroup=adapter-service},1651532244,3646
{consumergroup=adapter-service},1651532249,3646
{consumergroup=adapter-service},1651532254,1761
{consumergroup=adapter-service},1651532259,1761
{consumergroup=adapter-service},1651532264,1761
{consumergroup=adapter-service},1651532269,2799
{consumergroup=adapter-service},1651532274,2799
{consumergroup=adapter-service},1651532279,2799
{consumergroup=adapter-service},1651532284,1455
{consumergroup=adapter-service},1651532289,1455
{consumergroup=adapter-service},1651532294,1455
{consumergroup=adapter-service},1651532299,2889
{consumergroup=adapter-service},1651532304,2889
{consumergroup=adapter-service},1651532309,2889
{consumergroup=adapter-service},1651532314,957
{consumergroup=adapter-service},1651532319,957
{consumergroup=adapter-service},1651532324,957
{consumergroup=adapter-service},1651532329,6275
{consumergroup=adapter-service},1651532334,6275
{consumergroup=adapter-service},1651532339,6275
{consumergroup=adapter-service},1651532344,791
{consumergroup=adapter-service},1651532349,791
{consumergroup=adapter-service},1651532354,791
{consumergroup=adapter-service},1651532359,6080
{consumergroup=adapter-service},1651532364,6080
{consumergroup=adapter-service},1651532369,6080
{consumergroup=adapter-service},1651532374,657
{consumergroup=adapter-service},1651532379,657
{consumergroup=adapter-service},1651532384,657
{consumergroup=adapter-service},1651532389,8962
{consumergroup=adapter-service},1651532394,8962
{consumergroup=adapter-service},1651532399,8962
{consumergroup=adapter-service},1651532404,3020
{consumergroup=adapter-service},1651532409,3020
{consumergroup=adapter-service},1651532414,3020
{consumergroup=adapter-service},1651532419,8429
{consumergroup=adapter-service},1651532424,8429
{consumergroup=adapter-service},1651532429,8429
{consumergroup=adapter-service},1651532434,3971
{consumergroup=adapter-service},1651532439,3971
{consumergroup=adapter-service},1651532444,3971
{consumergroup=adapter-service},1651532449,9746
{consumergroup=adapter-service},1651532454,9746
{consumergroup=adapter-service},1651532459,9746
{consumergroup=adapter-service},1651532464,6012
{consumergroup=adapter-service},1651532469,6012
{consumergroup=adapter-service},1651532474,6012
{consumergroup=adapter-service},1651532479,11269
{consumergroup=adapter-service},1651532484,11269
{consumergroup=adapter-service},1651532489,11269
{consumergroup=adapter-service},1651532494,5992
{consumergroup=adapter-service},1651532499,5992
{consumergroup=adapter-service},1651532504,5992
{consumergroup=adapter-service},1651532509,12343
{consumergroup=adapter-service},1651532514,12343
{consumergroup=adapter-service},1651532519,12343
{consumergroup=adapter-service},1651532524,1721
{consumergroup=adapter-service},1651532529,1721
{consumergroup=adapter-service},1651532534,1721
{consumergroup=adapter-service},1651532539,12784
{consumergroup=adapter-service},1651532544,12784
{consumergroup=adapter-service},1651532549,12784
{consumergroup=adapter-service},1651532554,8136
{consumergroup=adapter-service},1651532559,8136
{consumergroup=adapter-service},1651532564,8136
{consumergroup=adapter-service},1651532569,11842
{consumergroup=adapter-service},1651532574,11842
{consumergroup=adapter-service},1651532579,11842
{consumergroup=adapter-service},1651532584,7723
{consumergroup=adapter-service},1651532589,7723
{consumergroup=adapter-service},1651532594,7723
{consumergroup=landscape-service},1651532194,37566
{consumergroup=landscape-service},1651532199,37566
{consumergroup=landscape-service},1651532204,37566
{consumergroup=landscape-service},1651532209,8635
{consumergroup=landscape-service},1651532214,8635
{consumergroup=landscape-service},1651532219,8635
{consumergroup=landscape-service},1651532224,9364
{consumergroup=landscape-service},1651532229,9364
{consumergroup=landscape-service},1651532234,9364
{consumergroup=landscape-service},1651532239,10182
{consumergroup=landscape-service},1651532244,10182
{consumergroup=landscape-service},1651532249,10182
{consumergroup=landscape-service},1651532254,7780
{consumergroup=landscape-service},1651532259,7780
{consumergroup=landscape-service},1651532264,7780
{consumergroup=landscape-service},1651532269,7093
{consumergroup=landscape-service},1651532274,7093
{consumergroup=landscape-service},1651532279,7093
{consumergroup=landscape-service},1651532284,7947
{consumergroup=landscape-service},1651532289,7947
{consumergroup=landscape-service},1651532294,7947
{consumergroup=landscape-service},1651532299,6209
{consumergroup=landscape-service},1651532304,6209
{consumergroup=landscape-service},1651532309,6209
{consumergroup=landscape-service},1651532314,6867
{consumergroup=landscape-service},1651532319,6867
{consumergroup=landscape-service},1651532324,6867
{consumergroup=landscape-service},1651532329,5085
{consumergroup=landscape-service},1651532334,5085
{consumergroup=landscape-service},1651532339,5085
{consumergroup=landscape-service},1651532344,5892
{consumergroup=landscape-service},1651532349,5892
{consumergroup=landscape-service},1651532354,5892
{consumergroup=landscape-service},1651532359,3875
{consumergroup=landscape-service},1651532364,3875
{consumergroup=landscape-service},1651532369,3875
{consumergroup=landscape-service},1651532374,4697
{consumergroup=landscape-service},1651532379,4697
{consumergroup=landscape-service},1651532384,4697
{consumergroup=landscape-service},1651532389,2802
{consumergroup=landscape-service},1651532394,2802
{consumergroup=landscape-service},1651532399,2802
{consumergroup=landscape-service},1651532404,3652
{consumergroup=landscape-service},1651532409,3652
{consumergroup=landscape-service},1651532414,3652
{consumergroup=landscape-service},1651532419,1996
{consumergroup=landscape-service},1651532424,1996
{consumergroup=landscape-service},1651532429,1996
{consumergroup=landscape-service},1651532434,3409
{consumergroup=landscape-service},1651532439,3409
{consumergroup=landscape-service},1651532444,3409
{consumergroup=landscape-service},1651532449,744
{consumergroup=landscape-service},1651532454,744
{consumergroup=landscape-service},1651532459,744
{consumergroup=landscape-service},1651532464,1440
{consumergroup=landscape-service},1651532469,1440
{consumergroup=landscape-service},1651532474,1440
{consumergroup=landscape-service},1651532479,15276
{consumergroup=landscape-service},1651532484,15276
{consumergroup=landscape-service},1651532489,15276
{consumergroup=landscape-service},1651532494,974
{consumergroup=landscape-service},1651532499,974
{consumergroup=landscape-service},1651532504,974
{consumergroup=landscape-service},1651532509,14164
{consumergroup=landscape-service},1651532514,14164
{consumergroup=landscape-service},1651532519,14164
{consumergroup=landscape-service},1651532524,1912
{consumergroup=landscape-service},1651532529,1912
{consumergroup=landscape-service},1651532534,1912
{consumergroup=landscape-service},1651532539,12999
{consumergroup=landscape-service},1651532544,12999
{consumergroup=landscape-service},1651532549,12999
{consumergroup=landscape-service},1651532554,13933
{consumergroup=landscape-service},1651532559,13933
{consumergroup=landscape-service},1651532564,13933
{consumergroup=landscape-service},1651532569,12139
{consumergroup=landscape-service},1651532574,12139
{consumergroup=landscape-service},1651532579,12139
{consumergroup=landscape-service},1651532584,13223
{consumergroup=landscape-service},1651532589,13223
{consumergroup=landscape-service},1651532594,13223
{consumergroup=trace-service},1651532194,58542
{consumergroup=trace-service},1651532199,58542
{consumergroup=trace-service},1651532204,58542
{consumergroup=trace-service},1651532209,16685
{consumergroup=trace-service},1651532214,16685
{consumergroup=trace-service},1651532219,16685
{consumergroup=trace-service},1651532224,31357
{consumergroup=trace-service},1651532229,31357
{consumergroup=trace-service},1651532234,31357
{consumergroup=trace-service},1651532239,101106
{consumergroup=trace-service},1651532244,101106
{consumergroup=trace-service},1651532249,101106
{consumergroup=trace-service},1651532254,25181
{consumergroup=trace-service},1651532259,25181
{consumergroup=trace-service},1651532264,25181
{consumergroup=trace-service},1651532269,54193
{consumergroup=trace-service},1651532274,54193
{consumergroup=trace-service},1651532279,54193
{consumergroup=trace-service},1651532284,24445
{consumergroup=trace-service},1651532289,24445
{consumergroup=trace-service},1651532294,24445
{consumergroup=trace-service},1651532299,63045
{consumergroup=trace-service},1651532304,63045
{consumergroup=trace-service},1651532309,63045
{consumergroup=trace-service},1651532314,20212
{consumergroup=trace-service},1651532319,20212
{consumergroup=trace-service},1651532324,20212
{consumergroup=trace-service},1651532329,51996
{consumergroup=trace-service},1651532334,51996
{consumergroup=trace-service},1651532339,51996
{consumergroup=trace-service},1651532344,26385
{consumergroup=trace-service},1651532349,26385
{consumergroup=trace-service},1651532354,26385
{consumergroup=trace-service},1651532359,81879
{consumergroup=trace-service},1651532364,81879
{consumergroup=trace-service},1651532369,81879
{consumergroup=trace-service},1651532374,26419
{consumergroup=trace-service},1651532379,26419
{consumergroup=trace-service},1651532384,26419
{consumergroup=trace-service},1651532389,79207
{consumergroup=trace-service},1651532394,79207
{consumergroup=trace-service},1651532399,79207
{consumergroup=trace-service},1651532404,22551
{consumergroup=trace-service},1651532409,22551
{consumergroup=trace-service},1651532414,22551
{consumergroup=trace-service},1651532419,58413
{consumergroup=trace-service},1651532424,58413
{consumergroup=trace-service},1651532429,58413
{consumergroup=trace-service},1651532434,19990
{consumergroup=trace-service},1651532439,19990
{consumergroup=trace-service},1651532444,19990
{consumergroup=trace-service},1651532449,64022
{consumergroup=trace-service},1651532454,64022
{consumergroup=trace-service},1651532459,64022
{consumergroup=trace-service},1651532464,23476
{consumergroup=trace-service},1651532469,23476
{consumergroup=trace-service},1651532474,23476
{consumergroup=trace-service},1651532479,79870
{consumergroup=trace-service},1651532484,79870
{consumergroup=trace-service},1651532489,79870
{consumergroup=trace-service},1651532494,23457
{consumergroup=trace-service},1651532499,23457
{consumergroup=trace-service},1651532504,23457
{consumergroup=trace-service},1651532509,64774
{consumergroup=trace-service},1651532514,64774
{consumergroup=trace-service},1651532519,64774
{consumergroup=trace-service},1651532524,28908
{consumergroup=trace-service},1651532529,28908
{consumergroup=trace-service},1651532534,28908
{consumergroup=trace-service},1651532539,65655
{consumergroup=trace-service},1651532544,65655
{consumergroup=trace-service},1651532549,65655
{consumergroup=trace-service},1651532554,22110
{consumergroup=trace-service},1651532559,22110
{consumergroup=trace-service},1651532564,22110
{consumergroup=trace-service},1651532569,56264
{consumergroup=trace-service},1651532574,56264
{consumergroup=trace-service},1651532579,56264
{consumergroup=trace-service},1651532584,19168
{consumergroup=trace-service},1651532589,19168
{consumergroup=trace-service},1651532594,19168
{consumergroup=trace-token-events-consumer},1651532179,0
{consumergroup=trace-token-events-consumer},1651532184,0
{consumergroup=trace-token-events-consumer},1651532189,0
{consumergroup=trace-token-events-consumer},1651532194,0
{consumergroup=trace-token-events-consumer},1651532199,0
{consumergroup=trace-token-events-consumer},1651532204,0
{consumergroup=trace-token-events-consumer},1651532209,0
{consumergroup=trace-token-events-consumer},1651532214,0
{consumergroup=trace-token-events-consumer},1651532219,0
{consumergroup=trace-token-events-consumer},1651532224,0
{consumergroup=trace-token-events-consumer},1651532229,0
{consumergroup=trace-token-events-consumer},1651532234,0
{consumergroup=trace-token-events-consumer},1651532239,0
{consumergroup=trace-token-events-consumer},1651532244,0
{consumergroup=trace-token-events-consumer},1651532249,0
{consumergroup=trace-token-events-consumer},1651532254,0
{consumergroup=trace-token-events-consumer},1651532259,0
{consumergroup=trace-token-events-consumer},1651532264,0
{consumergroup=trace-token-events-consumer},1651532269,0
{consumergroup=trace-token-events-consumer},1651532274,0
{consumergroup=trace-token-events-consumer},1651532279,0
{consumergroup=trace-token-events-consumer},1651532284,0
{consumergroup=trace-token-events-consumer},1651532289,0
{consumergroup=trace-token-events-consumer},1651532294,0
{consumergroup=trace-token-events-consumer},1651532299,0
{consumergroup=trace-token-events-consumer},1651532304,0
{consumergroup=trace-token-events-consumer},1651532309,0
{consumergroup=trace-token-events-consumer},1651532314,0
{consumergroup=trace-token-events-consumer},1651532319,0
{consumergroup=trace-token-events-consumer},1651532324,0
{consumergroup=trace-token-events-consumer},1651532329,0
{consumergroup=trace-token-events-consumer},1651532334,0
{consumergroup=trace-token-events-consumer},1651532339,0
{consumergroup=trace-token-events-consumer},1651532344,0
{consumergroup=trace-token-events-consumer},1651532349,0
{consumergroup=trace-token-events-consumer},1651532354,0
{consumergroup=trace-token-events-consumer},1651532359,0
{consumergroup=trace-token-events-consumer},1651532364,0
{consumergroup=trace-token-events-consumer},1651532369,0
{consumergroup=trace-token-events-consumer},1651532374,0
{consumergroup=trace-token-events-consumer},1651532379,0
{consumergroup=trace-token-events-consumer},1651532384,0
{consumergroup=trace-token-events-consumer},1651532389,0
{consumergroup=trace-token-events-consumer},1651532394,0
{consumergroup=trace-token-events-consumer},1651532399,0
{consumergroup=trace-token-events-consumer},1651532404,0
{consumergroup=trace-token-events-consumer},1651532409,0
{consumergroup=trace-token-events-consumer},1651532414,0
{consumergroup=trace-token-events-consumer},1651532419,0
{consumergroup=trace-token-events-consumer},1651532424,0
{consumergroup=trace-token-events-consumer},1651532429,0
{consumergroup=trace-token-events-consumer},1651532434,0
{consumergroup=trace-token-events-consumer},1651532439,0
{consumergroup=trace-token-events-consumer},1651532444,0
{consumergroup=trace-token-events-consumer},1651532449,0
{consumergroup=trace-token-events-consumer},1651532454,0
{consumergroup=trace-token-events-consumer},1651532459,0
{consumergroup=trace-token-events-consumer},1651532464,0
{consumergroup=trace-token-events-consumer},1651532469,0
{consumergroup=trace-token-events-consumer},1651532474,0
{consumergroup=trace-token-events-consumer},1651532479,0
{consumergroup=trace-token-events-consumer},1651532484,0
{consumergroup=trace-token-events-consumer},1651532489,0
{consumergroup=trace-token-events-consumer},1651532494,0
{consumergroup=trace-token-events-consumer},1651532499,0
{consumergroup=trace-token-events-consumer},1651532504,0
{consumergroup=trace-token-events-consumer},1651532509,0
{consumergroup=trace-token-events-consumer},1651532514,0
{consumergroup=trace-token-events-consumer},1651532519,0
{consumergroup=trace-token-events-consumer},1651532524,0
{consumergroup=trace-token-events-consumer},1651532529,0
{consumergroup=trace-token-events-consumer},1651532534,0
{consumergroup=trace-token-events-consumer},1651532539,0
{consumergroup=trace-token-events-consumer},1651532544,0
{consumergroup=trace-token-events-consumer},1651532549,0
{consumergroup=trace-token-events-consumer},1651532554,0
{consumergroup=trace-token-events-consumer},1651532559,0
{consumergroup=trace-token-events-consumer},1651532564,0
{consumergroup=trace-token-events-consumer},1651532569,0
{consumergroup=trace-token-events-consumer},1651532574,0
{consumergroup=trace-token-events-consumer},1651532579,0
{consumergroup=trace-token-events-consumer},1651532584,0
{consumergroup=trace-token-events-consumer},1651532589,0
{consumergroup=trace-token-events-consumer},1651532594,0
