labels,timestamp,value
{consumergroup=__strimzi-topic-operator-kstreams},1651533799,3
{consumergroup=__strimzi-topic-operator-kstreams},1651533804,3
{consumergroup=__strimzi-topic-operator-kstreams},1651533809,3
{consumergroup=__strimzi-topic-operator-kstreams},1651533814,0
{consumergroup=__strimzi-topic-operator-kstreams},1651533819,0
{consumergroup=__strimzi-topic-operator-kstreams},1651533824,0
{consumergroup=__strimzi-topic-operator-kstreams},1651533829,3
{consumergroup=__strimzi-topic-operator-kstreams},1651533834,3
{consumergroup=__strimzi-topic-operator-kstreams},1651533839,3
{consumergroup=__strimzi-topic-operator-kstreams},1651533844,0
{consumergroup=__strimzi-topic-operator-kstreams},1651533849,0
{consumergroup=__strimzi-topic-operator-kstreams},1651533854,0
{consumergroup=__strimzi-topic-operator-kstreams},1651533859,0
{consumergroup=__strimzi-topic-operator-kstreams},1651533864,0
{consumergroup=__strimzi-topic-operator-kstreams},1651533869,0
{consumergroup=__strimzi-topic-operator-kstreams},1651533874,0
{consumergroup=__strimzi-topic-operator-kstreams},1651533879,0
{consumergroup=__strimzi-topic-operator-kstreams},1651533884,0
{consumergroup=__strimzi-topic-operator-kstreams},1651533889,0
{consumergroup=__strimzi-topic-operator-kstreams},1651533894,0
{consumergroup=__strimzi-topic-operator-kstreams},1651533899,0
{consumergroup=__strimzi-topic-operator-kstreams},1651533904,0
{consumergroup=__strimzi-topic-operator-kstreams},1651533909,0
{consumergroup=__strimzi-topic-operator-kstreams},1651533914,0
{consumergroup=__strimzi-topic-operator-kstreams},1651533919,0
{consumergroup=__strimzi-topic-operator-kstreams},1651533924,0
{consumergroup=__strimzi-topic-operator-kstreams},1651533929,0
{consumergroup=__strimzi-topic-operator-kstreams},1651533934,0
{consumergroup=__strimzi-topic-operator-kstreams},1651533939,0
{consumergroup=__strimzi-topic-operator-kstreams},1651533944,0
{consumergroup=__strimzi-topic-operator-kstreams},1651533949,0
{consumergroup=__strimzi-topic-operator-kstreams},1651533954,0
{consumergroup=__strimzi-topic-operator-kstreams},1651533959,0
{consumergroup=__strimzi-topic-operator-kstreams},1651533964,0
{consumergroup=__strimzi-topic-operator-kstreams},1651533969,0
{consumergroup=__strimzi-topic-operator-kstreams},1651533974,0
{consumergroup=__strimzi-topic-operator-kstreams},1651533979,0
{consumergroup=__strimzi-topic-operator-kstreams},1651533984,0
{consumergroup=__strimzi-topic-operator-kstreams},1651533989,0
{consumergroup=__strimzi-topic-operator-kstreams},1651533994,0
{consumergroup=__strimzi-topic-operator-kstreams},1651533999,0
{consumergroup=__strimzi-topic-operator-kstreams},1651534004,0
{consumergroup=__strimzi-topic-operator-kstreams},1651534009,0
{consumergroup=__strimzi-topic-operator-kstreams},1651534014,0
{consumergroup=__strimzi-topic-operator-kstreams},1651534019,0
{consumergroup=__strimzi-topic-operator-kstreams},1651534024,0
{consumergroup=__strimzi-topic-operator-kstreams},1651534029,0
{consumergroup=__strimzi-topic-operator-kstreams},1651534034,0
{consumergroup=__strimzi-topic-operator-kstreams},1651534039,0
{consumergroup=__strimzi-topic-operator-kstreams},1651534044,0
{consumergroup=__strimzi-topic-operator-kstreams},1651534049,0
{consumergroup=__strimzi-topic-operator-kstreams},1651534054,0
{consumergroup=__strimzi-topic-operator-kstreams},1651534059,0
{consumergroup=__strimzi-topic-operator-kstreams},1651534064,0
{consumergroup=__strimzi-topic-operator-kstreams},1651534069,0
{consumergroup=__strimzi-topic-operator-kstreams},1651534074,0
{consumergroup=__strimzi-topic-operator-kstreams},1651534079,0
{consumergroup=__strimzi-topic-operator-kstreams},1651534084,0
{consumergroup=__strimzi-topic-operator-kstreams},1651534089,0
{consumergroup=__strimzi-topic-operator-kstreams},1651534094,0
{consumergroup=__strimzi-topic-operator-kstreams},1651534099,0
{consumergroup=__strimzi-topic-operator-kstreams},1651534104,0
{consumergroup=__strimzi-topic-operator-kstreams},1651534109,0
{consumergroup=__strimzi-topic-operator-kstreams},1651534114,0
{consumergroup=__strimzi-topic-operator-kstreams},1651534119,0
{consumergroup=__strimzi-topic-operator-kstreams},1651534124,0
{consumergroup=__strimzi-topic-operator-kstreams},1651534129,0
{consumergroup=__strimzi-topic-operator-kstreams},1651534134,0
{consumergroup=__strimzi-topic-operator-kstreams},1651534139,0
{consumergroup=__strimzi-topic-operator-kstreams},1651534144,0
{consumergroup=__strimzi-topic-operator-kstreams},1651534149,0
{consumergroup=__strimzi-topic-operator-kstreams},1651534154,0
{consumergroup=__strimzi-topic-operator-kstreams},1651534159,0
{consumergroup=__strimzi-topic-operator-kstreams},1651534164,0
{consumergroup=__strimzi-topic-operator-kstreams},1651534169,0
{consumergroup=__strimzi-topic-operator-kstreams},1651534174,0
{consumergroup=__strimzi-topic-operator-kstreams},1651534179,0
{consumergroup=__strimzi-topic-operator-kstreams},1651534184,0
{consumergroup=__strimzi-topic-operator-kstreams},1651534189,0
{consumergroup=__strimzi-topic-operator-kstreams},1651534194,0
{consumergroup=__strimzi-topic-operator-kstreams},1651534199,0
{consumergroup=__strimzi-topic-operator-kstreams},1651534204,0
{consumergroup=__strimzi-topic-operator-kstreams},1651534209,0
{consumergroup=__strimzi-topic-operator-kstreams},1651534214,0
{consumergroup=__strimzi-topic-operator-kstreams},1651534219,0
{consumergroup=__strimzi-topic-operator-kstreams},1651534224,0
{consumergroup=__strimzi-topic-operator-kstreams},1651534229,0
{consumergroup=__strimzi-topic-operator-kstreams},1651534234,0
{consumergroup=__strimzi-topic-operator-kstreams},1651534239,0
{consumergroup=__strimzi-topic-operator-kstreams},1651534244,0
{consumergroup=__strimzi-topic-operator-kstreams},1651534249,0
{consumergroup=adapter-service},1651533844,16463
{consumergroup=adapter-service},1651533849,16463
{consumergroup=adapter-service},1651533854,16463
{consumergroup=adapter-service},1651533859,10930
{consumergroup=adapter-service},1651533864,10930
{consumergroup=adapter-service},1651533869,10930
{consumergroup=adapter-service},1651533874,5887
{consumergroup=adapter-service},1651533879,5887
{consumergroup=adapter-service},1651533884,5887
{consumergroup=adapter-service},1651533889,9207
{consumergroup=adapter-service},1651533894,9207
{consumergroup=adapter-service},1651533899,9207
{consumergroup=adapter-service},1651533904,4294
{consumergroup=adapter-service},1651533909,4294
{consumergroup=adapter-service},1651533914,4294
{consumergroup=adapter-service},1651533919,8170
{consumergroup=adapter-service},1651533924,8170
{consumergroup=adapter-service},1651533929,8170
{consumergroup=adapter-service},1651533934,3567
{consumergroup=adapter-service},1651533939,3567
{consumergroup=adapter-service},1651533944,3567
{consumergroup=adapter-service},1651533949,8671
{consumergroup=adapter-service},1651533954,8671
{consumergroup=adapter-service},1651533959,8671
{consumergroup=adapter-service},1651533964,4160
{consumergroup=adapter-service},1651533969,4160
{consumergroup=adapter-service},1651533974,4160
{consumergroup=adapter-service},1651533979,7470
{consumergroup=adapter-service},1651533984,7470
{consumergroup=adapter-service},1651533989,7470
{consumergroup=adapter-service},1651533994,4355
{consumergroup=adapter-service},1651533999,4355
{consumergroup=adapter-service},1651534004,4355
{consumergroup=adapter-service},1651534009,8092
{consumergroup=adapter-service},1651534014,8092
{consumergroup=adapter-service},1651534019,8092
{consumergroup=adapter-service},1651534024,4003
{consumergroup=adapter-service},1651534029,4003
{consumergroup=adapter-service},1651534034,4003
{consumergroup=adapter-service},1651534039,11444
{consumergroup=adapter-service},1651534044,11444
{consumergroup=adapter-service},1651534049,11444
{consumergroup=adapter-service},1651534054,3690
{consumergroup=adapter-service},1651534059,3690
{consumergroup=adapter-service},1651534064,3690
{consumergroup=adapter-service},1651534069,6011
{consumergroup=adapter-service},1651534074,6011
{consumergroup=adapter-service},1651534079,6011
{consumergroup=adapter-service},1651534084,4343
{consumergroup=adapter-service},1651534089,4343
{consumergroup=adapter-service},1651534094,4343
{consumergroup=adapter-service},1651534099,5387
{consumergroup=adapter-service},1651534104,5387
{consumergroup=adapter-service},1651534109,5387
{consumergroup=adapter-service},1651534114,3725
{consumergroup=adapter-service},1651534119,3725
{consumergroup=adapter-service},1651534124,3725
{consumergroup=adapter-service},1651534129,10534
{consumergroup=adapter-service},1651534134,10534
{consumergroup=adapter-service},1651534139,10534
{consumergroup=adapter-service},1651534144,2367
{consumergroup=adapter-service},1651534149,2367
{consumergroup=adapter-service},1651534154,2367
{consumergroup=adapter-service},1651534159,5657
{consumergroup=adapter-service},1651534164,5657
{consumergroup=adapter-service},1651534169,5657
{consumergroup=adapter-service},1651534174,3730
{consumergroup=adapter-service},1651534179,3730
{consumergroup=adapter-service},1651534184,3730
{consumergroup=adapter-service},1651534189,5288
{consumergroup=adapter-service},1651534194,5288
{consumergroup=adapter-service},1651534199,5288
{consumergroup=adapter-service},1651534204,3436
{consumergroup=adapter-service},1651534209,3436
{consumergroup=adapter-service},1651534214,3436
{consumergroup=adapter-service},1651534219,3912
{consumergroup=adapter-service},1651534224,3912
{consumergroup=adapter-service},1651534229,3912
{consumergroup=adapter-service},1651534234,3579
{consumergroup=adapter-service},1651534239,3579
{consumergroup=adapter-service},1651534244,3579
{consumergroup=adapter-service},1651534249,3881
{consumergroup=landscape-service},1651533859,29247
{consumergroup=landscape-service},1651533864,29247
{consumergroup=landscape-service},1651533869,29247
{consumergroup=landscape-service},1651533874,1878
{consumergroup=landscape-service},1651533879,1878
{consumergroup=landscape-service},1651533884,1878
{consumergroup=landscape-service},1651533889,5906
{consumergroup=landscape-service},1651533894,5906
{consumergroup=landscape-service},1651533899,5906
{consumergroup=landscape-service},1651533904,21458
{consumergroup=landscape-service},1651533909,21458
{consumergroup=landscape-service},1651533914,21458
{consumergroup=landscape-service},1651533919,2960
{consumergroup=landscape-service},1651533924,2960
{consumergroup=landscape-service},1651533929,2960
{consumergroup=landscape-service},1651533934,20371
{consumergroup=landscape-service},1651533939,20371
{consumergroup=landscape-service},1651533944,20371
{consumergroup=landscape-service},1651533949,2593
{consumergroup=landscape-service},1651533954,2593
{consumergroup=landscape-service},1651533959,2593
{consumergroup=landscape-service},1651533964,18000
{consumergroup=landscape-service},1651533969,18000
{consumergroup=landscape-service},1651533974,18000
{consumergroup=landscape-service},1651533979,381
{consumergroup=landscape-service},1651533984,381
{consumergroup=landscape-service},1651533989,381
{consumergroup=landscape-service},1651533994,17178
{consumergroup=landscape-service},1651533999,17178
{consumergroup=landscape-service},1651534004,17178
{consumergroup=landscape-service},1651534009,20136
{consumergroup=landscape-service},1651534014,20136
{consumergroup=landscape-service},1651534019,20136
{consumergroup=landscape-service},1651534024,14785
{consumergroup=landscape-service},1651534029,14785
{consumergroup=landscape-service},1651534034,14785
{consumergroup=landscape-service},1651534039,1716
{consumergroup=landscape-service},1651534044,1716
{consumergroup=landscape-service},1651534049,1716
{consumergroup=landscape-service},1651534054,13731
{consumergroup=landscape-service},1651534059,13731
{consumergroup=landscape-service},1651534064,13731
{consumergroup=landscape-service},1651534069,17167
{consumergroup=landscape-service},1651534074,17167
{consumergroup=landscape-service},1651534079,17167
{consumergroup=landscape-service},1651534084,12015
{consumergroup=landscape-service},1651534089,12015
{consumergroup=landscape-service},1651534094,12015
{consumergroup=landscape-service},1651534099,16558
{consumergroup=landscape-service},1651534104,16558
{consumergroup=landscape-service},1651534109,16558
{consumergroup=landscape-service},1651534114,10781
{consumergroup=landscape-service},1651534119,10781
{consumergroup=landscape-service},1651534124,10781
{consumergroup=landscape-service},1651534129,19075
{consumergroup=landscape-service},1651534134,19075
{consumergroup=landscape-service},1651534139,19075
{consumergroup=landscape-service},1651534144,10319
{consumergroup=landscape-service},1651534149,10319
{consumergroup=landscape-service},1651534154,10319
{consumergroup=landscape-service},1651534159,12930
{consumergroup=landscape-service},1651534164,12930
{consumergroup=landscape-service},1651534169,12930
{consumergroup=landscape-service},1651534174,7655
{consumergroup=landscape-service},1651534179,7655
{consumergroup=landscape-service},1651534184,7655
{consumergroup=landscape-service},1651534189,12216
{consumergroup=landscape-service},1651534194,12216
{consumergroup=landscape-service},1651534199,12216
{consumergroup=landscape-service},1651534204,6233
{consumergroup=landscape-service},1651534209,6233
{consumergroup=landscape-service},1651534214,6233
{consumergroup=landscape-service},1651534219,9824
{consumergroup=landscape-service},1651534224,9824
{consumergroup=landscape-service},1651534229,9824
{consumergroup=landscape-service},1651534234,5010
{consumergroup=landscape-service},1651534239,5010
{consumergroup=landscape-service},1651534244,5010
{consumergroup=landscape-service},1651534249,8837
{consumergroup=trace-service},1651533844,7195
{consumergroup=trace-service},1651533849,7195
{consumergroup=trace-service},1651533854,7195
{consumergroup=trace-service},1651533859,42374
{consumergroup=trace-service},1651533864,42374
{consumergroup=trace-service},1651533869,42374
{consumergroup=trace-service},1651533874,26713
{consumergroup=trace-service},1651533879,26713
{consumergroup=trace-service},1651533884,26713
{consumergroup=trace-service},1651533889,68818
{consumergroup=trace-service},1651533894,68818
{consumergroup=trace-service},1651533899,68818
{consumergroup=trace-service},1651533904,31584
{consumergroup=trace-service},1651533909,31584
{consumergroup=trace-service},1651533914,31584
{consumergroup=trace-service},1651533919,86492
{consumergroup=trace-service},1651533924,86492
{consumergroup=trace-service},1651533929,86492
{consumergroup=trace-service},1651533934,18109
{consumergroup=trace-service},1651533939,18109
{consumergroup=trace-service},1651533944,18109
{consumergroup=trace-service},1651533949,79730
{consumergroup=trace-service},1651533954,79730
{consumergroup=trace-service},1651533959,79730
{consumergroup=trace-service},1651533964,23921
{consumergroup=trace-service},1651533969,23921
{consumergroup=trace-service},1651533974,23921
{consumergroup=trace-service},1651533979,62313
{consumergroup=trace-service},1651533984,62313
{consumergroup=trace-service},1651533989,62313
{consumergroup=trace-service},1651533994,14986
{consumergroup=trace-service},1651533999,14986
{consumergroup=trace-service},1651534004,14986
{consumergroup=trace-service},1651534009,70836
{consumergroup=trace-service},1651534014,70836
{consumergroup=trace-service},1651534019,70836
{consumergroup=trace-service},1651534024,32213
{consumergroup=trace-service},1651534029,32213
{consumergroup=trace-service},1651534034,32213
{consumergroup=trace-service},1651534039,78803
{consumergroup=trace-service},1651534044,78803
{consumergroup=trace-service},1651534049,78803
{consumergroup=trace-service},1651534054,49774
{consumergroup=trace-service},1651534059,49774
{consumergroup=trace-service},1651534064,49774
{consumergroup=trace-service},1651534069,63830
{consumergroup=trace-service},1651534074,63830
{consumergroup=trace-service},1651534079,63830
{consumergroup=trace-service},1651534084,32091
{consumergroup=trace-service},1651534089,32091
{consumergroup=trace-service},1651534094,32091
{consumergroup=trace-service},1651534099,76444
{consumergroup=trace-service},1651534104,76444
{consumergroup=trace-service},1651534109,76444
{consumergroup=trace-service},1651534114,32143
{consumergroup=trace-service},1651534119,32143
{consumergroup=trace-service},1651534124,32143
{consumergroup=trace-service},1651534129,80735
{consumergroup=trace-service},1651534134,80735
{consumergroup=trace-service},1651534139,80735
{consumergroup=trace-service},1651534144,22028
{consumergroup=trace-service},1651534149,22028
{consumergroup=trace-service},1651534154,22028
{consumergroup=trace-service},1651534159,70247
{consumergroup=trace-service},1651534164,70247
{consumergroup=trace-service},1651534169,70247
{consumergroup=trace-service},1651534174,32194
{consumergroup=trace-service},1651534179,32194
{consumergroup=trace-service},1651534184,32194
{consumergroup=trace-service},1651534189,75049
{consumergroup=trace-service},1651534194,75049
{consumergroup=trace-service},1651534199,75049
{consumergroup=trace-service},1651534204,28892
{consumergroup=trace-service},1651534209,28892
{consumergroup=trace-service},1651534214,28892
{consumergroup=trace-service},1651534219,77023
{consumergroup=trace-service},1651534224,77023
{consumergroup=trace-service},1651534229,77023
{consumergroup=trace-service},1651534234,22204
{consumergroup=trace-service},1651534239,22204
{consumergroup=trace-service},1651534244,22204
{consumergroup=trace-service},1651534249,80859
{consumergroup=trace-token-events-consumer},1651533829,0
{consumergroup=trace-token-events-consumer},1651533834,0
{consumergroup=trace-token-events-consumer},1651533839,0
{consumergroup=trace-token-events-consumer},1651533844,0
{consumergroup=trace-token-events-consumer},1651533849,0
{consumergroup=trace-token-events-consumer},1651533854,0
{consumergroup=trace-token-events-consumer},1651533859,0
{consumergroup=trace-token-events-consumer},1651533864,0
{consumergroup=trace-token-events-consumer},1651533869,0
{consumergroup=trace-token-events-consumer},1651533874,0
{consumergroup=trace-token-events-consumer},1651533879,0
{consumergroup=trace-token-events-consumer},1651533884,0
{consumergroup=trace-token-events-consumer},1651533889,0
{consumergroup=trace-token-events-consumer},1651533894,0
{consumergroup=trace-token-events-consumer},1651533899,0
{consumergroup=trace-token-events-consumer},1651533904,0
{consumergroup=trace-token-events-consumer},1651533909,0
{consumergroup=trace-token-events-consumer},1651533914,0
{consumergroup=trace-token-events-consumer},1651533919,0
{consumergroup=trace-token-events-consumer},1651533924,0
{consumergroup=trace-token-events-consumer},1651533929,0
{consumergroup=trace-token-events-consumer},1651533934,0
{consumergroup=trace-token-events-consumer},1651533939,0
{consumergroup=trace-token-events-consumer},1651533944,0
{consumergroup=trace-token-events-consumer},1651533949,0
{consumergroup=trace-token-events-consumer},1651533954,0
{consumergroup=trace-token-events-consumer},1651533959,0
{consumergroup=trace-token-events-consumer},1651533964,0
{consumergroup=trace-token-events-consumer},1651533969,0
{consumergroup=trace-token-events-consumer},1651533974,0
{consumergroup=trace-token-events-consumer},1651533979,0
{consumergroup=trace-token-events-consumer},1651533984,0
{consumergroup=trace-token-events-consumer},1651533989,0
{consumergroup=trace-token-events-consumer},1651533994,0
{consumergroup=trace-token-events-consumer},1651533999,0
{consumergroup=trace-token-events-consumer},1651534004,0
{consumergroup=trace-token-events-consumer},1651534009,0
{consumergroup=trace-token-events-consumer},1651534014,0
{consumergroup=trace-token-events-consumer},1651534019,0
{consumergroup=trace-token-events-consumer},1651534024,0
{consumergroup=trace-token-events-consumer},1651534029,0
{consumergroup=trace-token-events-consumer},1651534034,0
{consumergroup=trace-token-events-consumer},1651534039,0
{consumergroup=trace-token-events-consumer},1651534044,0
{consumergroup=trace-token-events-consumer},1651534049,0
{consumergroup=trace-token-events-consumer},1651534054,0
{consumergroup=trace-token-events-consumer},1651534059,0
{consumergroup=trace-token-events-consumer},1651534064,0
{consumergroup=trace-token-events-consumer},1651534069,0
{consumergroup=trace-token-events-consumer},1651534074,0
{consumergroup=trace-token-events-consumer},1651534079,0
{consumergroup=trace-token-events-consumer},1651534084,0
{consumergroup=trace-token-events-consumer},1651534089,0
{consumergroup=trace-token-events-consumer},1651534094,0
{consumergroup=trace-token-events-consumer},1651534099,0
{consumergroup=trace-token-events-consumer},1651534104,0
{consumergroup=trace-token-events-consumer},1651534109,0
{consumergroup=trace-token-events-consumer},1651534114,0
{consumergroup=trace-token-events-consumer},1651534119,0
{consumergroup=trace-token-events-consumer},1651534124,0
{consumergroup=trace-token-events-consumer},1651534129,0
{consumergroup=trace-token-events-consumer},1651534134,0
{consumergroup=trace-token-events-consumer},1651534139,0
{consumergroup=trace-token-events-consumer},1651534144,0
{consumergroup=trace-token-events-consumer},1651534149,0
{consumergroup=trace-token-events-consumer},1651534154,0
{consumergroup=trace-token-events-consumer},1651534159,0
{consumergroup=trace-token-events-consumer},1651534164,0
{consumergroup=trace-token-events-consumer},1651534169,0
{consumergroup=trace-token-events-consumer},1651534174,0
{consumergroup=trace-token-events-consumer},1651534179,0
{consumergroup=trace-token-events-consumer},1651534184,0
{consumergroup=trace-token-events-consumer},1651534189,0
{consumergroup=trace-token-events-consumer},1651534194,0
{consumergroup=trace-token-events-consumer},1651534199,0
{consumergroup=trace-token-events-consumer},1651534204,0
{consumergroup=trace-token-events-consumer},1651534209,0
{consumergroup=trace-token-events-consumer},1651534214,0
{consumergroup=trace-token-events-consumer},1651534219,0
{consumergroup=trace-token-events-consumer},1651534224,0
{consumergroup=trace-token-events-consumer},1651534229,0
{consumergroup=trace-token-events-consumer},1651534234,0
{consumergroup=trace-token-events-consumer},1651534239,0
{consumergroup=trace-token-events-consumer},1651534244,0
{consumergroup=trace-token-events-consumer},1651534249,0
