labels,timestamp,value
{consumergroup=__strimzi-topic-operator-kstreams},1651454298,3
{consumergroup=__strimzi-topic-operator-kstreams},1651454303,3
{consumergroup=__strimzi-topic-operator-kstreams},1651454313,0
{consumergroup=__strimzi-topic-operator-kstreams},1651454318,0
{consumergroup=__strimzi-topic-operator-kstreams},1651454323,0
{consumergroup=__strimzi-topic-operator-kstreams},1651454328,0
{consumergroup=__strimzi-topic-operator-kstreams},1651454333,0
{consumergroup=__strimzi-topic-operator-kstreams},1651454338,0
{consumergroup=__strimzi-topic-operator-kstreams},1651454343,0
{consumergroup=__strimzi-topic-operator-kstreams},1651454348,0
{consumergroup=__strimzi-topic-operator-kstreams},1651454353,0
{consumergroup=__strimzi-topic-operator-kstreams},1651454358,0
{consumergroup=__strimzi-topic-operator-kstreams},1651454363,0
{consumergroup=__strimzi-topic-operator-kstreams},1651454368,0
{consumergroup=__strimzi-topic-operator-kstreams},1651454373,0
{consumergroup=__strimzi-topic-operator-kstreams},1651454378,0
{consumergroup=__strimzi-topic-operator-kstreams},1651454383,0
{consumergroup=__strimzi-topic-operator-kstreams},1651454388,0
{consumergroup=__strimzi-topic-operator-kstreams},1651454393,0
{consumergroup=__strimzi-topic-operator-kstreams},1651454398,0
{consumergroup=__strimzi-topic-operator-kstreams},1651454403,0
{consumergroup=__strimzi-topic-operator-kstreams},1651454408,0
{consumergroup=__strimzi-topic-operator-kstreams},1651454413,0
{consumergroup=__strimzi-topic-operator-kstreams},1651454418,0
{consumergroup=__strimzi-topic-operator-kstreams},1651454423,0
{consumergroup=__strimzi-topic-operator-kstreams},1651454428,0
{consumergroup=__strimzi-topic-operator-kstreams},1651454433,0
{consumergroup=__strimzi-topic-operator-kstreams},1651454438,0
{consumergroup=__strimzi-topic-operator-kstreams},1651454443,0
{consumergroup=__strimzi-topic-operator-kstreams},1651454448,0
{consumergroup=__strimzi-topic-operator-kstreams},1651454453,0
{consumergroup=__strimzi-topic-operator-kstreams},1651454458,0
{consumergroup=__strimzi-topic-operator-kstreams},1651454463,0
{consumergroup=__strimzi-topic-operator-kstreams},1651454468,0
{consumergroup=__strimzi-topic-operator-kstreams},1651454473,0
{consumergroup=__strimzi-topic-operator-kstreams},1651454478,0
{consumergroup=__strimzi-topic-operator-kstreams},1651454483,0
{consumergroup=__strimzi-topic-operator-kstreams},1651454488,0
{consumergroup=__strimzi-topic-operator-kstreams},1651454493,0
{consumergroup=__strimzi-topic-operator-kstreams},1651454498,0
{consumergroup=__strimzi-topic-operator-kstreams},1651454503,0
{consumergroup=__strimzi-topic-operator-kstreams},1651454508,0
{consumergroup=__strimzi-topic-operator-kstreams},1651454513,0
{consumergroup=__strimzi-topic-operator-kstreams},1651454518,0
{consumergroup=__strimzi-topic-operator-kstreams},1651454523,0
{consumergroup=__strimzi-topic-operator-kstreams},1651454528,0
{consumergroup=__strimzi-topic-operator-kstreams},1651454533,0
{consumergroup=__strimzi-topic-operator-kstreams},1651454538,0
{consumergroup=__strimzi-topic-operator-kstreams},1651454543,0
{consumergroup=__strimzi-topic-operator-kstreams},1651454548,0
{consumergroup=__strimzi-topic-operator-kstreams},1651454553,0
{consumergroup=__strimzi-topic-operator-kstreams},1651454558,0
{consumergroup=adapter-service},1651454298,0
{consumergroup=adapter-service},1651454303,0
{consumergroup=adapter-service},1651454343,203599
{consumergroup=adapter-service},1651454348,203599
{consumergroup=adapter-service},1651454353,203599
{consumergroup=adapter-service},1651454358,422701
{consumergroup=adapter-service},1651454363,422701
{consumergroup=adapter-service},1651454368,422701
{consumergroup=adapter-service},1651454373,557644
{consumergroup=adapter-service},1651454378,557644
{consumergroup=adapter-service},1651454383,557644
{consumergroup=adapter-service},1651454388,705527
{consumergroup=adapter-service},1651454393,705527
{consumergroup=adapter-service},1651454398,705527
{consumergroup=adapter-service},1651454403,776660
{consumergroup=adapter-service},1651454408,776660
{consumergroup=adapter-service},1651454413,776660
{consumergroup=adapter-service},1651454418,843701
{consumergroup=adapter-service},1651454423,843701
{consumergroup=adapter-service},1651454428,843701
{consumergroup=adapter-service},1651454433,880305
{consumergroup=adapter-service},1651454438,880305
{consumergroup=adapter-service},1651454443,880305
{consumergroup=adapter-service},1651454448,879205
{consumergroup=adapter-service},1651454453,879205
{consumergroup=adapter-service},1651454458,879205
{consumergroup=adapter-service},1651454463,893552
{consumergroup=adapter-service},1651454468,893552
{consumergroup=adapter-service},1651454473,893552
{consumergroup=adapter-service},1651454478,872501
{consumergroup=adapter-service},1651454483,872501
{consumergroup=adapter-service},1651454488,872501
{consumergroup=adapter-service},1651454493,852968
{consumergroup=adapter-service},1651454498,852968
{consumergroup=adapter-service},1651454503,852968
{consumergroup=adapter-service},1651454508,837719
{consumergroup=adapter-service},1651454513,837719
{consumergroup=adapter-service},1651454518,837719
{consumergroup=adapter-service},1651454523,807887
{consumergroup=adapter-service},1651454528,807887
{consumergroup=adapter-service},1651454533,807887
{consumergroup=adapter-service},1651454538,784379
{consumergroup=adapter-service},1651454543,784379
{consumergroup=adapter-service},1651454548,784379
{consumergroup=adapter-service},1651454553,765065
{consumergroup=adapter-service},1651454558,765065
