labels,timestamp,value
{job=theodolite-stu200776/trace-isolated-podmonitor},1651462421,0
{job=theodolite-stu200776/trace-isolated-podmonitor},1651462426,0
{job=theodolite-stu200776/trace-isolated-podmonitor},1651462431,0
{job=theodolite-stu200776/trace-isolated-podmonitor},1651462436,0
{job=theodolite-stu200776/trace-isolated-podmonitor},1651462441,0
{job=theodolite-stu200776/trace-isolated-podmonitor},1651462446,0
{job=theodolite-stu200776/trace-isolated-podmonitor},1651462451,0
{job=theodolite-stu200776/trace-isolated-podmonitor},1651462456,0
{job=theodolite-stu200776/trace-isolated-podmonitor},1651462461,0
{job=theodolite-stu200776/trace-isolated-podmonitor},1651462466,0
{job=theodolite-stu200776/trace-isolated-podmonitor},1651462471,0
{job=theodolite-stu200776/trace-isolated-podmonitor},1651462476,0
{job=theodolite-stu200776/trace-isolated-podmonitor},1651462481,0
{job=theodolite-stu200776/trace-isolated-podmonitor},1651462486,0
{job=theodolite-stu200776/trace-isolated-podmonitor},1651462491,0
{job=theodolite-stu200776/trace-isolated-podmonitor},1651462496,0
{job=theodolite-stu200776/trace-isolated-podmonitor},1651462501,0
{job=theodolite-stu200776/trace-isolated-podmonitor},1651462506,0
{job=theodolite-stu200776/trace-isolated-podmonitor},1651462511,0
{job=theodolite-stu200776/trace-isolated-podmonitor},1651462516,0
{job=theodolite-stu200776/trace-isolated-podmonitor},1651462521,0
{job=theodolite-stu200776/trace-isolated-podmonitor},1651462526,0
{job=theodolite-stu200776/trace-isolated-podmonitor},1651462531,0
{job=theodolite-stu200776/trace-isolated-podmonitor},1651462536,0
{job=theodolite-stu200776/trace-isolated-podmonitor},1651462541,0
{job=theodolite-stu200776/trace-isolated-podmonitor},1651462546,0
{job=theodolite-stu200776/trace-isolated-podmonitor},1651462551,0
{job=theodolite-stu200776/trace-isolated-podmonitor},1651462556,0
{job=theodolite-stu200776/trace-isolated-podmonitor},1651462561,0
{job=theodolite-stu200776/trace-isolated-podmonitor},1651462566,0
{job=theodolite-stu200776/trace-isolated-podmonitor},1651462571,0
{job=theodolite-stu200776/trace-isolated-podmonitor},1651462576,0
{job=theodolite-stu200776/trace-isolated-podmonitor},1651462581,0
{job=theodolite-stu200776/trace-isolated-podmonitor},1651462586,0
{job=theodolite-stu200776/trace-isolated-podmonitor},1651462591,0
{job=theodolite-stu200776/trace-isolated-podmonitor},1651462596,0
{job=theodolite-stu200776/trace-isolated-podmonitor},1651462601,0
{job=theodolite-stu200776/trace-isolated-podmonitor},1651462606,0
{job=theodolite-stu200776/trace-isolated-podmonitor},1651462611,0
{job=theodolite-stu200776/trace-isolated-podmonitor},1651462616,0
{job=theodolite-stu200776/trace-isolated-podmonitor},1651462621,0
{job=theodolite-stu200776/trace-isolated-podmonitor},1651462626,0
{job=theodolite-stu200776/trace-isolated-podmonitor},1651462631,0
{job=theodolite-stu200776/trace-isolated-podmonitor},1651462636,0
{job=theodolite-stu200776/trace-isolated-podmonitor},1651462641,0
{job=theodolite-stu200776/trace-isolated-podmonitor},1651462646,0
{job=theodolite-stu200776/trace-isolated-podmonitor},1651462651,0
{job=theodolite-stu200776/trace-isolated-podmonitor},1651462656,0
{job=theodolite-stu200776/trace-isolated-podmonitor},1651462661,0
{job=theodolite-stu200776/trace-isolated-podmonitor},1651462666,0
{job=theodolite-stu200776/trace-isolated-podmonitor},1651462671,0
{job=theodolite-stu200776/trace-isolated-podmonitor},1651462676,0
{job=theodolite-stu200776/trace-isolated-podmonitor},1651462681,0
{job=theodolite-stu200776/trace-isolated-podmonitor},1651462686,0
{job=theodolite-stu200776/trace-isolated-podmonitor},1651462691,0
{job=theodolite-stu200776/trace-isolated-podmonitor},1651462696,0
{job=theodolite-stu200776/trace-isolated-podmonitor},1651462701,0
{job=theodolite-stu200776/trace-isolated-podmonitor},1651462706,0
{job=theodolite-stu200776/trace-isolated-podmonitor},1651462711,0
{job=theodolite-stu200776/trace-isolated-podmonitor},1651462716,20.375458765969366
{job=theodolite-stu200776/trace-isolated-podmonitor},1651462721,289.9107903896738
{job=theodolite-stu200776/trace-isolated-podmonitor},1651462726,472.01076023861407
{job=theodolite-stu200776/trace-isolated-podmonitor},1651462731,723.9093394136872
{job=theodolite-stu200776/trace-isolated-podmonitor},1651462736,842.3791782676013
{job=theodolite-stu200776/trace-isolated-podmonitor},1651462741,747.5042358144863
{job=theodolite-stu200776/trace-isolated-podmonitor},1651462746,889.5614369217207
{job=theodolite-stu200776/trace-isolated-podmonitor},1651462751,826.6200360183517
{job=theodolite-stu200776/trace-isolated-podmonitor},1651462756,780.780272882625
{job=theodolite-stu200776/trace-isolated-podmonitor},1651462761,810.0064938941808
{job=theodolite-stu200776/trace-isolated-podmonitor},1651462766,726.8524693503119
{job=theodolite-stu200776/trace-isolated-podmonitor},1651462771,608.2760568544523
{job=theodolite-stu200776/trace-isolated-podmonitor},1651462776,749.0688149326024
{job=theodolite-stu200776/trace-isolated-podmonitor},1651462781,1013.7403327260308
{job=theodolite-stu200776/trace-isolated-podmonitor},1651462786,878.8504949844985
{job=theodolite-stu200776/trace-isolated-podmonitor},1651462791,709.1320333384195
{job=theodolite-stu200776/trace-isolated-podmonitor},1651462796,644.4761674229171
