labels,timestamp,value
{consumergroup=__strimzi-topic-operator-kstreams},1651318279,9
{consumergroup=__strimzi-topic-operator-kstreams},1651318284,9
{consumergroup=__strimzi-topic-operator-kstreams},1651318289,9
{consumergroup=__strimzi-topic-operator-kstreams},1651318294,0
{consumergroup=__strimzi-topic-operator-kstreams},1651318299,0
{consumergroup=__strimzi-topic-operator-kstreams},1651318304,0
{consumergroup=__strimzi-topic-operator-kstreams},1651318309,0
{consumergroup=__strimzi-topic-operator-kstreams},1651318314,0
{consumergroup=__strimzi-topic-operator-kstreams},1651318319,0
{consumergroup=__strimzi-topic-operator-kstreams},1651318324,0
{consumergroup=__strimzi-topic-operator-kstreams},1651318329,0
{consumergroup=__strimzi-topic-operator-kstreams},1651318334,0
{consumergroup=__strimzi-topic-operator-kstreams},1651318339,0
{consumergroup=__strimzi-topic-operator-kstreams},1651318344,0
{consumergroup=__strimzi-topic-operator-kstreams},1651318349,0
{consumergroup=__strimzi-topic-operator-kstreams},1651318354,0
{consumergroup=__strimzi-topic-operator-kstreams},1651318359,0
{consumergroup=__strimzi-topic-operator-kstreams},1651318364,0
{consumergroup=__strimzi-topic-operator-kstreams},1651318369,0
{consumergroup=__strimzi-topic-operator-kstreams},1651318374,0
{consumergroup=__strimzi-topic-operator-kstreams},1651318379,0
{consumergroup=__strimzi-topic-operator-kstreams},1651318384,0
{consumergroup=__strimzi-topic-operator-kstreams},1651318389,0
{consumergroup=__strimzi-topic-operator-kstreams},1651318394,0
{consumergroup=__strimzi-topic-operator-kstreams},1651318399,0
{consumergroup=__strimzi-topic-operator-kstreams},1651318404,0
{consumergroup=__strimzi-topic-operator-kstreams},1651318409,0
{consumergroup=__strimzi-topic-operator-kstreams},1651318414,0
{consumergroup=__strimzi-topic-operator-kstreams},1651318419,0
{consumergroup=__strimzi-topic-operator-kstreams},1651318424,0
{consumergroup=__strimzi-topic-operator-kstreams},1651318429,0
{consumergroup=__strimzi-topic-operator-kstreams},1651318434,0
{consumergroup=__strimzi-topic-operator-kstreams},1651318439,0
{consumergroup=__strimzi-topic-operator-kstreams},1651318444,0
{consumergroup=__strimzi-topic-operator-kstreams},1651318449,0
{consumergroup=__strimzi-topic-operator-kstreams},1651318454,0
{consumergroup=__strimzi-topic-operator-kstreams},1651318459,0
{consumergroup=__strimzi-topic-operator-kstreams},1651318464,0
{consumergroup=__strimzi-topic-operator-kstreams},1651318469,0
{consumergroup=__strimzi-topic-operator-kstreams},1651318474,0
{consumergroup=__strimzi-topic-operator-kstreams},1651318479,0
{consumergroup=__strimzi-topic-operator-kstreams},1651318484,0
{consumergroup=__strimzi-topic-operator-kstreams},1651318489,0
{consumergroup=__strimzi-topic-operator-kstreams},1651318494,0
{consumergroup=__strimzi-topic-operator-kstreams},1651318499,0
{consumergroup=__strimzi-topic-operator-kstreams},1651318504,0
{consumergroup=__strimzi-topic-operator-kstreams},1651318509,0
{consumergroup=__strimzi-topic-operator-kstreams},1651318514,0
{consumergroup=__strimzi-topic-operator-kstreams},1651318519,0
{consumergroup=__strimzi-topic-operator-kstreams},1651318524,0
{consumergroup=__strimzi-topic-operator-kstreams},1651318529,0
{consumergroup=__strimzi-topic-operator-kstreams},1651318534,0
{consumergroup=__strimzi-topic-operator-kstreams},1651318539,0
{consumergroup=__strimzi-topic-operator-kstreams},1651318544,0
{consumergroup=__strimzi-topic-operator-kstreams},1651318549,0
{consumergroup=__strimzi-topic-operator-kstreams},1651318554,0
{consumergroup=__strimzi-topic-operator-kstreams},1651318559,0
{consumergroup=__strimzi-topic-operator-kstreams},1651318564,0
{consumergroup=__strimzi-topic-operator-kstreams},1651318569,0
{consumergroup=__strimzi-topic-operator-kstreams},1651318574,0
{consumergroup=__strimzi-topic-operator-kstreams},1651318579,0
{consumergroup=__strimzi-topic-operator-kstreams},1651318584,0
{consumergroup=__strimzi-topic-operator-kstreams},1651318589,0
{consumergroup=__strimzi-topic-operator-kstreams},1651318594,0
{consumergroup=__strimzi-topic-operator-kstreams},1651318599,0
{consumergroup=__strimzi-topic-operator-kstreams},1651318604,0
{consumergroup=__strimzi-topic-operator-kstreams},1651318609,0
{consumergroup=__strimzi-topic-operator-kstreams},1651318614,0
{consumergroup=__strimzi-topic-operator-kstreams},1651318619,0
{consumergroup=__strimzi-topic-operator-kstreams},1651318624,0
{consumergroup=__strimzi-topic-operator-kstreams},1651318629,0
{consumergroup=__strimzi-topic-operator-kstreams},1651318634,0
{consumergroup=__strimzi-topic-operator-kstreams},1651318639,0
{consumergroup=__strimzi-topic-operator-kstreams},1651318644,0
{consumergroup=__strimzi-topic-operator-kstreams},1651318649,0
{consumergroup=__strimzi-topic-operator-kstreams},1651318654,0
{consumergroup=__strimzi-topic-operator-kstreams},1651318659,0
{consumergroup=__strimzi-topic-operator-kstreams},1651318664,0
{consumergroup=__strimzi-topic-operator-kstreams},1651318669,0
{consumergroup=__strimzi-topic-operator-kstreams},1651318674,0
{consumergroup=__strimzi-topic-operator-kstreams},1651318679,0
{consumergroup=__strimzi-topic-operator-kstreams},1651318684,0
{consumergroup=__strimzi-topic-operator-kstreams},1651318689,0
{consumergroup=__strimzi-topic-operator-kstreams},1651318694,0
{consumergroup=__strimzi-topic-operator-kstreams},1651318699,0
{consumergroup=__strimzi-topic-operator-kstreams},1651318704,0
{consumergroup=__strimzi-topic-operator-kstreams},1651318709,0
{consumergroup=__strimzi-topic-operator-kstreams},1651318714,0
{consumergroup=__strimzi-topic-operator-kstreams},1651318719,0
{consumergroup=__strimzi-topic-operator-kstreams},1651318724,0
{consumergroup=__strimzi-topic-operator-kstreams},1651318729,0
{consumergroup=__strimzi-topic-operator-kstreams},1651318734,0
{consumergroup=__strimzi-topic-operator-kstreams},1651318739,0
{consumergroup=__strimzi-topic-operator-kstreams},1651318744,0
{consumergroup=__strimzi-topic-operator-kstreams},1651318749,0
{consumergroup=__strimzi-topic-operator-kstreams},1651318754,0
{consumergroup=__strimzi-topic-operator-kstreams},1651318759,0
{consumergroup=__strimzi-topic-operator-kstreams},1651318764,0
{consumergroup=__strimzi-topic-operator-kstreams},1651318769,0
{consumergroup=__strimzi-topic-operator-kstreams},1651318774,0
{consumergroup=__strimzi-topic-operator-kstreams},1651318779,0
{consumergroup=adapter-service},1651318309,0
{consumergroup=adapter-service},1651318314,0
{consumergroup=adapter-service},1651318319,0
{consumergroup=adapter-service},1651318324,33207
{consumergroup=adapter-service},1651318329,33207
{consumergroup=adapter-service},1651318334,33207
{consumergroup=adapter-service},1651318339,29586
{consumergroup=adapter-service},1651318344,29586
{consumergroup=adapter-service},1651318349,29586
{consumergroup=adapter-service},1651318354,20950
{consumergroup=adapter-service},1651318359,20950
{consumergroup=adapter-service},1651318364,20950
{consumergroup=adapter-service},1651318369,11407
{consumergroup=adapter-service},1651318374,11407
{consumergroup=adapter-service},1651318379,11407
{consumergroup=adapter-service},1651318384,1436
{consumergroup=adapter-service},1651318389,1436
{consumergroup=adapter-service},1651318394,1436
{consumergroup=adapter-service},1651318399,173
{consumergroup=adapter-service},1651318404,173
{consumergroup=adapter-service},1651318409,173
{consumergroup=adapter-service},1651318414,12933
{consumergroup=adapter-service},1651318419,12933
{consumergroup=adapter-service},1651318424,12933
{consumergroup=adapter-service},1651318429,11597
{consumergroup=adapter-service},1651318434,11597
{consumergroup=adapter-service},1651318439,11597
{consumergroup=adapter-service},1651318444,10634
{consumergroup=adapter-service},1651318449,10634
{consumergroup=adapter-service},1651318454,10634
{consumergroup=adapter-service},1651318459,9927
{consumergroup=adapter-service},1651318464,9927
{consumergroup=adapter-service},1651318469,9927
{consumergroup=adapter-service},1651318474,9437
{consumergroup=adapter-service},1651318479,9437
{consumergroup=adapter-service},1651318484,9437
{consumergroup=adapter-service},1651318489,8616
{consumergroup=adapter-service},1651318494,8616
{consumergroup=adapter-service},1651318499,8616
{consumergroup=adapter-service},1651318504,8551
{consumergroup=adapter-service},1651318509,8551
{consumergroup=adapter-service},1651318514,8551
{consumergroup=adapter-service},1651318519,7182
{consumergroup=adapter-service},1651318524,7182
{consumergroup=adapter-service},1651318529,7182
{consumergroup=adapter-service},1651318534,9562
{consumergroup=adapter-service},1651318539,9562
{consumergroup=adapter-service},1651318544,9562
{consumergroup=adapter-service},1651318549,6162
{consumergroup=adapter-service},1651318554,6162
{consumergroup=adapter-service},1651318559,6162
{consumergroup=adapter-service},1651318564,5250
{consumergroup=adapter-service},1651318569,5250
{consumergroup=adapter-service},1651318574,5250
{consumergroup=adapter-service},1651318579,4577
{consumergroup=adapter-service},1651318584,4577
{consumergroup=adapter-service},1651318589,4577
{consumergroup=adapter-service},1651318594,4554
{consumergroup=adapter-service},1651318599,4554
{consumergroup=adapter-service},1651318604,4554
{consumergroup=adapter-service},1651318609,2973
{consumergroup=adapter-service},1651318614,2973
{consumergroup=adapter-service},1651318619,2973
{consumergroup=adapter-service},1651318624,3060
{consumergroup=adapter-service},1651318629,3060
{consumergroup=adapter-service},1651318634,3060
{consumergroup=adapter-service},1651318639,2441
{consumergroup=adapter-service},1651318644,2441
{consumergroup=adapter-service},1651318649,2441
{consumergroup=adapter-service},1651318654,3952
{consumergroup=adapter-service},1651318659,3952
{consumergroup=adapter-service},1651318664,3952
{consumergroup=adapter-service},1651318669,1265
{consumergroup=adapter-service},1651318674,1265
{consumergroup=adapter-service},1651318679,1265
{consumergroup=adapter-service},1651318684,662
{consumergroup=adapter-service},1651318689,662
{consumergroup=adapter-service},1651318694,662
{consumergroup=adapter-service},1651318699,211
{consumergroup=adapter-service},1651318704,211
{consumergroup=adapter-service},1651318709,211
{consumergroup=adapter-service},1651318714,6361
{consumergroup=adapter-service},1651318719,6361
{consumergroup=adapter-service},1651318724,6361
{consumergroup=adapter-service},1651318729,12473
{consumergroup=adapter-service},1651318734,12473
{consumergroup=adapter-service},1651318739,12473
{consumergroup=adapter-service},1651318744,11868
{consumergroup=adapter-service},1651318749,11868
{consumergroup=adapter-service},1651318754,11868
{consumergroup=adapter-service},1651318759,11425
{consumergroup=adapter-service},1651318764,11425
{consumergroup=adapter-service},1651318769,11425
{consumergroup=adapter-service},1651318774,10908
{consumergroup=adapter-service},1651318779,10908
{consumergroup=landscape-service},1651318324,1959
{consumergroup=landscape-service},1651318329,1959
{consumergroup=landscape-service},1651318334,1959
{consumergroup=landscape-service},1651318339,1769
{consumergroup=landscape-service},1651318344,1769
{consumergroup=landscape-service},1651318349,1769
{consumergroup=landscape-service},1651318369,7684
{consumergroup=landscape-service},1651318374,7684
{consumergroup=landscape-service},1651318379,7684
{consumergroup=landscape-service},1651318384,12890
{consumergroup=landscape-service},1651318389,12890
{consumergroup=landscape-service},1651318394,12890
{consumergroup=landscape-service},1651318399,12694
{consumergroup=landscape-service},1651318404,12694
{consumergroup=landscape-service},1651318409,12694
{consumergroup=landscape-service},1651318414,12398
{consumergroup=landscape-service},1651318419,12398
{consumergroup=landscape-service},1651318424,12398
{consumergroup=landscape-service},1651318429,12688
{consumergroup=landscape-service},1651318434,12688
{consumergroup=landscape-service},1651318439,12688
{consumergroup=landscape-service},1651318444,12759
{consumergroup=landscape-service},1651318449,12759
{consumergroup=landscape-service},1651318454,12759
{consumergroup=landscape-service},1651318459,11790
{consumergroup=landscape-service},1651318464,11790
{consumergroup=landscape-service},1651318469,11790
{consumergroup=landscape-service},1651318474,11295
{consumergroup=landscape-service},1651318479,11295
{consumergroup=landscape-service},1651318484,11295
{consumergroup=landscape-service},1651318489,11266
{consumergroup=landscape-service},1651318494,11266
{consumergroup=landscape-service},1651318499,11266
{consumergroup=landscape-service},1651318504,10832
{consumergroup=landscape-service},1651318509,10832
{consumergroup=landscape-service},1651318514,10832
{consumergroup=landscape-service},1651318519,11299
{consumergroup=landscape-service},1651318524,11299
{consumergroup=landscape-service},1651318529,11299
{consumergroup=landscape-service},1651318549,10308
{consumergroup=landscape-service},1651318554,10308
{consumergroup=landscape-service},1651318559,10308
{consumergroup=landscape-service},1651318564,10823
{consumergroup=landscape-service},1651318569,10823
{consumergroup=landscape-service},1651318574,10823
{consumergroup=landscape-service},1651318579,10088
{consumergroup=landscape-service},1651318584,10088
{consumergroup=landscape-service},1651318589,10088
{consumergroup=landscape-service},1651318594,9888
{consumergroup=landscape-service},1651318599,9888
{consumergroup=landscape-service},1651318604,9888
{consumergroup=landscape-service},1651318609,9693
{consumergroup=landscape-service},1651318614,9693
{consumergroup=landscape-service},1651318619,9693
{consumergroup=landscape-service},1651318624,9355
{consumergroup=landscape-service},1651318629,9355
{consumergroup=landscape-service},1651318634,9355
{consumergroup=landscape-service},1651318639,9267
{consumergroup=landscape-service},1651318644,9267
{consumergroup=landscape-service},1651318649,9267
{consumergroup=landscape-service},1651318654,12723
{consumergroup=landscape-service},1651318659,12723
{consumergroup=landscape-service},1651318664,12723
{consumergroup=landscape-service},1651318669,8783
{consumergroup=landscape-service},1651318674,8783
{consumergroup=landscape-service},1651318679,8783
{consumergroup=landscape-service},1651318684,9149
{consumergroup=landscape-service},1651318689,9149
{consumergroup=landscape-service},1651318694,9149
{consumergroup=landscape-service},1651318699,7941
{consumergroup=landscape-service},1651318704,7941
{consumergroup=landscape-service},1651318709,7941
{consumergroup=landscape-service},1651318714,8128
{consumergroup=landscape-service},1651318719,8128
{consumergroup=landscape-service},1651318724,8128
{consumergroup=landscape-service},1651318729,7147
{consumergroup=landscape-service},1651318734,7147
{consumergroup=landscape-service},1651318739,7147
{consumergroup=landscape-service},1651318744,6720
{consumergroup=landscape-service},1651318749,6720
{consumergroup=landscape-service},1651318754,6720
{consumergroup=landscape-service},1651318759,6294
{consumergroup=landscape-service},1651318764,6294
{consumergroup=landscape-service},1651318769,6294
{consumergroup=landscape-service},1651318774,5682
{consumergroup=landscape-service},1651318779,5682
{consumergroup=trace-service},1651318324,17879
{consumergroup=trace-service},1651318329,17879
{consumergroup=trace-service},1651318334,17879
{consumergroup=trace-service},1651318339,46754
{consumergroup=trace-service},1651318344,46754
{consumergroup=trace-service},1651318349,46754
{consumergroup=trace-service},1651318354,19373
{consumergroup=trace-service},1651318359,19373
{consumergroup=trace-service},1651318364,19373
{consumergroup=trace-service},1651318369,55413
{consumergroup=trace-service},1651318374,55413
{consumergroup=trace-service},1651318379,55413
{consumergroup=trace-service},1651318384,27181
{consumergroup=trace-service},1651318389,27181
{consumergroup=trace-service},1651318394,27181
{consumergroup=trace-service},1651318399,60803
{consumergroup=trace-service},1651318404,60803
{consumergroup=trace-service},1651318409,60803
{consumergroup=trace-service},1651318414,14932
{consumergroup=trace-service},1651318419,14932
{consumergroup=trace-service},1651318424,14932
{consumergroup=trace-service},1651318429,44243
{consumergroup=trace-service},1651318434,44243
{consumergroup=trace-service},1651318439,44243
{consumergroup=trace-service},1651318444,24867
{consumergroup=trace-service},1651318449,24867
{consumergroup=trace-service},1651318454,24867
{consumergroup=trace-service},1651318459,46262
{consumergroup=trace-service},1651318464,46262
{consumergroup=trace-service},1651318469,46262
{consumergroup=trace-service},1651318474,25518
{consumergroup=trace-service},1651318479,25518
{consumergroup=trace-service},1651318484,25518
{consumergroup=trace-service},1651318489,49696
{consumergroup=trace-service},1651318494,49696
{consumergroup=trace-service},1651318499,49696
{consumergroup=trace-service},1651318504,106239
{consumergroup=trace-service},1651318509,106239
{consumergroup=trace-service},1651318514,106239
{consumergroup=trace-service},1651318519,51071
{consumergroup=trace-service},1651318524,51071
{consumergroup=trace-service},1651318529,51071
{consumergroup=trace-service},1651318534,23012
{consumergroup=trace-service},1651318539,23012
{consumergroup=trace-service},1651318544,23012
{consumergroup=trace-service},1651318549,43828
{consumergroup=trace-service},1651318554,43828
{consumergroup=trace-service},1651318559,43828
{consumergroup=trace-service},1651318564,20523
{consumergroup=trace-service},1651318569,20523
{consumergroup=trace-service},1651318574,20523
{consumergroup=trace-service},1651318579,47636
{consumergroup=trace-service},1651318584,47636
{consumergroup=trace-service},1651318589,47636
{consumergroup=trace-service},1651318594,20289
{consumergroup=trace-service},1651318599,20289
{consumergroup=trace-service},1651318604,20289
{consumergroup=trace-service},1651318609,53335
{consumergroup=trace-service},1651318614,53335
{consumergroup=trace-service},1651318619,53335
{consumergroup=trace-service},1651318624,152616
{consumergroup=trace-service},1651318629,152616
{consumergroup=trace-service},1651318634,152616
{consumergroup=trace-service},1651318639,55860
{consumergroup=trace-service},1651318644,55860
{consumergroup=trace-service},1651318649,55860
{consumergroup=trace-service},1651318654,15089
{consumergroup=trace-service},1651318659,15089
{consumergroup=trace-service},1651318664,15089
{consumergroup=trace-service},1651318669,41853
{consumergroup=trace-service},1651318674,41853
{consumergroup=trace-service},1651318679,41853
{consumergroup=trace-service},1651318684,21542
{consumergroup=trace-service},1651318689,21542
{consumergroup=trace-service},1651318694,21542
{consumergroup=trace-service},1651318699,43291
{consumergroup=trace-service},1651318704,43291
{consumergroup=trace-service},1651318709,43291
{consumergroup=trace-service},1651318714,48454
{consumergroup=trace-service},1651318719,48454
{consumergroup=trace-service},1651318724,48454
{consumergroup=trace-service},1651318729,47430
{consumergroup=trace-service},1651318734,47430
{consumergroup=trace-service},1651318739,47430
{consumergroup=trace-service},1651318744,25697
{consumergroup=trace-service},1651318749,25697
{consumergroup=trace-service},1651318754,25697
{consumergroup=trace-service},1651318759,44992
{consumergroup=trace-service},1651318764,44992
{consumergroup=trace-service},1651318769,44992
{consumergroup=trace-service},1651318774,23921
{consumergroup=trace-service},1651318779,23921
{consumergroup=trace-token-events-consumer},1651318309,0
{consumergroup=trace-token-events-consumer},1651318314,0
{consumergroup=trace-token-events-consumer},1651318319,0
{consumergroup=trace-token-events-consumer},1651318324,0
{consumergroup=trace-token-events-consumer},1651318329,0
{consumergroup=trace-token-events-consumer},1651318334,0
{consumergroup=trace-token-events-consumer},1651318339,0
{consumergroup=trace-token-events-consumer},1651318344,0
{consumergroup=trace-token-events-consumer},1651318349,0
{consumergroup=trace-token-events-consumer},1651318354,0
{consumergroup=trace-token-events-consumer},1651318359,0
{consumergroup=trace-token-events-consumer},1651318364,0
{consumergroup=trace-token-events-consumer},1651318369,0
{consumergroup=trace-token-events-consumer},1651318374,0
{consumergroup=trace-token-events-consumer},1651318379,0
{consumergroup=trace-token-events-consumer},1651318384,0
{consumergroup=trace-token-events-consumer},1651318389,0
{consumergroup=trace-token-events-consumer},1651318394,0
{consumergroup=trace-token-events-consumer},1651318399,0
{consumergroup=trace-token-events-consumer},1651318404,0
{consumergroup=trace-token-events-consumer},1651318409,0
{consumergroup=trace-token-events-consumer},1651318414,0
{consumergroup=trace-token-events-consumer},1651318419,0
{consumergroup=trace-token-events-consumer},1651318424,0
{consumergroup=trace-token-events-consumer},1651318429,0
{consumergroup=trace-token-events-consumer},1651318434,0
{consumergroup=trace-token-events-consumer},1651318439,0
{consumergroup=trace-token-events-consumer},1651318444,0
{consumergroup=trace-token-events-consumer},1651318449,0
{consumergroup=trace-token-events-consumer},1651318454,0
{consumergroup=trace-token-events-consumer},1651318459,0
{consumergroup=trace-token-events-consumer},1651318464,0
{consumergroup=trace-token-events-consumer},1651318469,0
{consumergroup=trace-token-events-consumer},1651318474,0
{consumergroup=trace-token-events-consumer},1651318479,0
{consumergroup=trace-token-events-consumer},1651318484,0
{consumergroup=trace-token-events-consumer},1651318489,0
{consumergroup=trace-token-events-consumer},1651318494,0
{consumergroup=trace-token-events-consumer},1651318499,0
{consumergroup=trace-token-events-consumer},1651318504,0
{consumergroup=trace-token-events-consumer},1651318509,0
{consumergroup=trace-token-events-consumer},1651318514,0
{consumergroup=trace-token-events-consumer},1651318519,0
{consumergroup=trace-token-events-consumer},1651318524,0
{consumergroup=trace-token-events-consumer},1651318529,0
{consumergroup=trace-token-events-consumer},1651318534,0
{consumergroup=trace-token-events-consumer},1651318539,0
{consumergroup=trace-token-events-consumer},1651318544,0
{consumergroup=trace-token-events-consumer},1651318549,0
{consumergroup=trace-token-events-consumer},1651318554,0
{consumergroup=trace-token-events-consumer},1651318559,0
{consumergroup=trace-token-events-consumer},1651318564,0
{consumergroup=trace-token-events-consumer},1651318569,0
{consumergroup=trace-token-events-consumer},1651318574,0
{consumergroup=trace-token-events-consumer},1651318579,0
{consumergroup=trace-token-events-consumer},1651318584,0
{consumergroup=trace-token-events-consumer},1651318589,0
{consumergroup=trace-token-events-consumer},1651318594,0
{consumergroup=trace-token-events-consumer},1651318599,0
{consumergroup=trace-token-events-consumer},1651318604,0
{consumergroup=trace-token-events-consumer},1651318609,0
{consumergroup=trace-token-events-consumer},1651318614,0
{consumergroup=trace-token-events-consumer},1651318619,0
{consumergroup=trace-token-events-consumer},1651318624,0
{consumergroup=trace-token-events-consumer},1651318629,0
{consumergroup=trace-token-events-consumer},1651318634,0
{consumergroup=trace-token-events-consumer},1651318639,0
{consumergroup=trace-token-events-consumer},1651318644,0
{consumergroup=trace-token-events-consumer},1651318649,0
{consumergroup=trace-token-events-consumer},1651318654,0
{consumergroup=trace-token-events-consumer},1651318659,0
{consumergroup=trace-token-events-consumer},1651318664,0
{consumergroup=trace-token-events-consumer},1651318669,0
{consumergroup=trace-token-events-consumer},1651318674,0
{consumergroup=trace-token-events-consumer},1651318679,0
{consumergroup=trace-token-events-consumer},1651318684,0
{consumergroup=trace-token-events-consumer},1651318689,0
{consumergroup=trace-token-events-consumer},1651318694,0
{consumergroup=trace-token-events-consumer},1651318699,0
{consumergroup=trace-token-events-consumer},1651318704,0
{consumergroup=trace-token-events-consumer},1651318709,0
{consumergroup=trace-token-events-consumer},1651318714,0
{consumergroup=trace-token-events-consumer},1651318719,0
{consumergroup=trace-token-events-consumer},1651318724,0
{consumergroup=trace-token-events-consumer},1651318729,0
{consumergroup=trace-token-events-consumer},1651318734,0
{consumergroup=trace-token-events-consumer},1651318739,0
{consumergroup=trace-token-events-consumer},1651318744,0
{consumergroup=trace-token-events-consumer},1651318749,0
{consumergroup=trace-token-events-consumer},1651318754,0
{consumergroup=trace-token-events-consumer},1651318759,0
{consumergroup=trace-token-events-consumer},1651318764,0
{consumergroup=trace-token-events-consumer},1651318769,0
{consumergroup=trace-token-events-consumer},1651318774,0
{consumergroup=trace-token-events-consumer},1651318779,0
