labels,timestamp,value
{consumergroup=__strimzi-topic-operator-kstreams},1651548235,11
{consumergroup=__strimzi-topic-operator-kstreams},1651548240,11
{consumergroup=__strimzi-topic-operator-kstreams},1651548245,11
{consumergroup=__strimzi-topic-operator-kstreams},1651548250,3
{consumergroup=__strimzi-topic-operator-kstreams},1651548255,3
{consumergroup=__strimzi-topic-operator-kstreams},1651548260,3
{consumergroup=__strimzi-topic-operator-kstreams},1651548265,3
{consumergroup=__strimzi-topic-operator-kstreams},1651548270,3
{consumergroup=__strimzi-topic-operator-kstreams},1651548275,3
{consumergroup=__strimzi-topic-operator-kstreams},1651548280,0
{consumergroup=__strimzi-topic-operator-kstreams},1651548285,0
{consumergroup=__strimzi-topic-operator-kstreams},1651548290,0
{consumergroup=__strimzi-topic-operator-kstreams},1651548295,0
{consumergroup=__strimzi-topic-operator-kstreams},1651548300,0
{consumergroup=__strimzi-topic-operator-kstreams},1651548305,0
{consumergroup=__strimzi-topic-operator-kstreams},1651548310,0
{consumergroup=__strimzi-topic-operator-kstreams},1651548315,0
{consumergroup=__strimzi-topic-operator-kstreams},1651548320,0
{consumergroup=__strimzi-topic-operator-kstreams},1651548325,0
{consumergroup=__strimzi-topic-operator-kstreams},1651548330,0
{consumergroup=__strimzi-topic-operator-kstreams},1651548335,0
{consumergroup=__strimzi-topic-operator-kstreams},1651548340,0
{consumergroup=__strimzi-topic-operator-kstreams},1651548345,0
{consumergroup=__strimzi-topic-operator-kstreams},1651548350,0
{consumergroup=__strimzi-topic-operator-kstreams},1651548355,0
{consumergroup=__strimzi-topic-operator-kstreams},1651548360,0
{consumergroup=__strimzi-topic-operator-kstreams},1651548365,0
{consumergroup=__strimzi-topic-operator-kstreams},1651548370,0
{consumergroup=__strimzi-topic-operator-kstreams},1651548375,0
{consumergroup=__strimzi-topic-operator-kstreams},1651548380,0
{consumergroup=__strimzi-topic-operator-kstreams},1651548385,0
{consumergroup=__strimzi-topic-operator-kstreams},1651548390,0
{consumergroup=__strimzi-topic-operator-kstreams},1651548395,0
{consumergroup=__strimzi-topic-operator-kstreams},1651548400,0
{consumergroup=__strimzi-topic-operator-kstreams},1651548405,0
{consumergroup=__strimzi-topic-operator-kstreams},1651548410,0
{consumergroup=__strimzi-topic-operator-kstreams},1651548415,0
{consumergroup=__strimzi-topic-operator-kstreams},1651548420,0
{consumergroup=__strimzi-topic-operator-kstreams},1651548425,0
{consumergroup=__strimzi-topic-operator-kstreams},1651548430,0
{consumergroup=__strimzi-topic-operator-kstreams},1651548435,0
{consumergroup=__strimzi-topic-operator-kstreams},1651548440,0
{consumergroup=__strimzi-topic-operator-kstreams},1651548445,0
{consumergroup=__strimzi-topic-operator-kstreams},1651548450,0
{consumergroup=__strimzi-topic-operator-kstreams},1651548455,0
{consumergroup=__strimzi-topic-operator-kstreams},1651548460,0
{consumergroup=__strimzi-topic-operator-kstreams},1651548465,0
{consumergroup=__strimzi-topic-operator-kstreams},1651548470,0
{consumergroup=__strimzi-topic-operator-kstreams},1651548475,0
{consumergroup=__strimzi-topic-operator-kstreams},1651548480,0
{consumergroup=__strimzi-topic-operator-kstreams},1651548485,0
{consumergroup=__strimzi-topic-operator-kstreams},1651548490,0
{consumergroup=__strimzi-topic-operator-kstreams},1651548495,0
{consumergroup=__strimzi-topic-operator-kstreams},1651548500,0
{consumergroup=__strimzi-topic-operator-kstreams},1651548505,0
{consumergroup=__strimzi-topic-operator-kstreams},1651548510,0
{consumergroup=__strimzi-topic-operator-kstreams},1651548515,0
{consumergroup=__strimzi-topic-operator-kstreams},1651548520,0
{consumergroup=__strimzi-topic-operator-kstreams},1651548525,0
{consumergroup=__strimzi-topic-operator-kstreams},1651548530,0
{consumergroup=__strimzi-topic-operator-kstreams},1651548535,0
{consumergroup=__strimzi-topic-operator-kstreams},1651548540,0
{consumergroup=__strimzi-topic-operator-kstreams},1651548545,0
{consumergroup=__strimzi-topic-operator-kstreams},1651548550,0
{consumergroup=__strimzi-topic-operator-kstreams},1651548555,0
{consumergroup=__strimzi-topic-operator-kstreams},1651548560,0
{consumergroup=__strimzi-topic-operator-kstreams},1651548565,0
{consumergroup=__strimzi-topic-operator-kstreams},1651548570,0
{consumergroup=__strimzi-topic-operator-kstreams},1651548575,0
{consumergroup=__strimzi-topic-operator-kstreams},1651548580,0
{consumergroup=__strimzi-topic-operator-kstreams},1651548585,0
{consumergroup=__strimzi-topic-operator-kstreams},1651548590,0
{consumergroup=__strimzi-topic-operator-kstreams},1651548595,0
{consumergroup=__strimzi-topic-operator-kstreams},1651548600,0
{consumergroup=__strimzi-topic-operator-kstreams},1651548605,0
{consumergroup=__strimzi-topic-operator-kstreams},1651548610,0
{consumergroup=__strimzi-topic-operator-kstreams},1651548615,0
{consumergroup=__strimzi-topic-operator-kstreams},1651548620,0
{consumergroup=__strimzi-topic-operator-kstreams},1651548625,0
{consumergroup=__strimzi-topic-operator-kstreams},1651548630,0
{consumergroup=__strimzi-topic-operator-kstreams},1651548635,0
{consumergroup=__strimzi-topic-operator-kstreams},1651548640,0
{consumergroup=__strimzi-topic-operator-kstreams},1651548645,0
{consumergroup=__strimzi-topic-operator-kstreams},1651548650,0
{consumergroup=__strimzi-topic-operator-kstreams},1651548655,0
{consumergroup=__strimzi-topic-operator-kstreams},1651548660,0
{consumergroup=__strimzi-topic-operator-kstreams},1651548665,0
{consumergroup=__strimzi-topic-operator-kstreams},1651548670,0
{consumergroup=__strimzi-topic-operator-kstreams},1651548675,0
{consumergroup=__strimzi-topic-operator-kstreams},1651548680,0
{consumergroup=adapter-service},1651548265,0
{consumergroup=adapter-service},1651548270,0
{consumergroup=adapter-service},1651548275,0
{consumergroup=adapter-service},1651548280,39381
{consumergroup=adapter-service},1651548285,39381
{consumergroup=adapter-service},1651548290,39381
{consumergroup=adapter-service},1651548295,25662
{consumergroup=adapter-service},1651548300,25662
{consumergroup=adapter-service},1651548305,25662
{consumergroup=adapter-service},1651548310,11002
{consumergroup=adapter-service},1651548315,11002
{consumergroup=adapter-service},1651548320,11002
{consumergroup=adapter-service},1651548325,6324
{consumergroup=adapter-service},1651548330,6324
{consumergroup=adapter-service},1651548335,6324
{consumergroup=adapter-service},1651548340,3973
{consumergroup=adapter-service},1651548345,3973
{consumergroup=adapter-service},1651548350,3973
{consumergroup=adapter-service},1651548355,2747
{consumergroup=adapter-service},1651548360,2747
{consumergroup=adapter-service},1651548365,2747
{consumergroup=adapter-service},1651548370,6570
{consumergroup=adapter-service},1651548375,6570
{consumergroup=adapter-service},1651548380,6570
{consumergroup=adapter-service},1651548385,5910
{consumergroup=adapter-service},1651548390,5910
{consumergroup=adapter-service},1651548395,5910
{consumergroup=adapter-service},1651548400,4977
{consumergroup=adapter-service},1651548405,4977
{consumergroup=adapter-service},1651548410,4977
{consumergroup=adapter-service},1651548415,4557
{consumergroup=adapter-service},1651548420,4557
{consumergroup=adapter-service},1651548425,4557
{consumergroup=adapter-service},1651548430,9176
{consumergroup=adapter-service},1651548435,9176
{consumergroup=adapter-service},1651548440,9176
{consumergroup=adapter-service},1651548445,13404
{consumergroup=adapter-service},1651548450,13404
{consumergroup=adapter-service},1651548455,13404
{consumergroup=adapter-service},1651548460,13122
{consumergroup=adapter-service},1651548465,13122
{consumergroup=adapter-service},1651548470,13122
{consumergroup=adapter-service},1651548475,12360
{consumergroup=adapter-service},1651548480,12360
{consumergroup=adapter-service},1651548485,12360
{consumergroup=adapter-service},1651548490,12347
{consumergroup=adapter-service},1651548495,12347
{consumergroup=adapter-service},1651548500,12347
{consumergroup=adapter-service},1651548505,12166
{consumergroup=adapter-service},1651548510,12166
{consumergroup=adapter-service},1651548515,12166
{consumergroup=adapter-service},1651548520,11925
{consumergroup=adapter-service},1651548525,11925
{consumergroup=adapter-service},1651548530,11925
{consumergroup=adapter-service},1651548535,11320
{consumergroup=adapter-service},1651548540,11320
{consumergroup=adapter-service},1651548545,11320
{consumergroup=adapter-service},1651548550,11043
{consumergroup=adapter-service},1651548555,11043
{consumergroup=adapter-service},1651548560,11043
{consumergroup=adapter-service},1651548565,10564
{consumergroup=adapter-service},1651548570,10564
{consumergroup=adapter-service},1651548575,10564
{consumergroup=adapter-service},1651548580,9687
{consumergroup=adapter-service},1651548585,9687
{consumergroup=adapter-service},1651548590,9687
{consumergroup=adapter-service},1651548595,15272
{consumergroup=adapter-service},1651548600,15272
{consumergroup=adapter-service},1651548605,15272
{consumergroup=adapter-service},1651548610,15025
{consumergroup=adapter-service},1651548615,15025
{consumergroup=adapter-service},1651548620,15025
{consumergroup=adapter-service},1651548625,14052
{consumergroup=adapter-service},1651548630,14052
{consumergroup=adapter-service},1651548635,14052
{consumergroup=adapter-service},1651548640,13287
{consumergroup=adapter-service},1651548645,13287
{consumergroup=adapter-service},1651548650,13287
{consumergroup=adapter-service},1651548655,13165
{consumergroup=adapter-service},1651548660,13165
{consumergroup=adapter-service},1651548665,13165
{consumergroup=adapter-service},1651548670,5550
{consumergroup=adapter-service},1651548675,5550
{consumergroup=adapter-service},1651548680,5550
{consumergroup=landscape-service},1651548280,25096
{consumergroup=landscape-service},1651548285,25096
{consumergroup=landscape-service},1651548290,25096
{consumergroup=landscape-service},1651548295,2267
{consumergroup=landscape-service},1651548300,2267
{consumergroup=landscape-service},1651548305,2267
{consumergroup=landscape-service},1651548310,19958
{consumergroup=landscape-service},1651548315,19958
{consumergroup=landscape-service},1651548320,19958
{consumergroup=landscape-service},1651548325,17616
{consumergroup=landscape-service},1651548330,17616
{consumergroup=landscape-service},1651548335,17616
{consumergroup=landscape-service},1651548340,15931
{consumergroup=landscape-service},1651548345,15931
{consumergroup=landscape-service},1651548350,15931
{consumergroup=landscape-service},1651548355,15521
{consumergroup=landscape-service},1651548360,15521
{consumergroup=landscape-service},1651548365,15521
{consumergroup=landscape-service},1651548370,14423
{consumergroup=landscape-service},1651548375,14423
{consumergroup=landscape-service},1651548380,14423
{consumergroup=landscape-service},1651548385,13615
{consumergroup=landscape-service},1651548390,13615
{consumergroup=landscape-service},1651548395,13615
{consumergroup=landscape-service},1651548400,12737
{consumergroup=landscape-service},1651548405,12737
{consumergroup=landscape-service},1651548410,12737
{consumergroup=landscape-service},1651548415,11858
{consumergroup=landscape-service},1651548420,11858
{consumergroup=landscape-service},1651548425,11858
{consumergroup=landscape-service},1651548430,11029
{consumergroup=landscape-service},1651548435,11029
{consumergroup=landscape-service},1651548440,11029
{consumergroup=landscape-service},1651548445,11271
{consumergroup=landscape-service},1651548450,11271
{consumergroup=landscape-service},1651548455,11271
{consumergroup=landscape-service},1651548460,10836
{consumergroup=landscape-service},1651548465,10836
{consumergroup=landscape-service},1651548470,10836
{consumergroup=landscape-service},1651548475,8979
{consumergroup=landscape-service},1651548480,8979
{consumergroup=landscape-service},1651548485,8979
{consumergroup=landscape-service},1651548490,8746
{consumergroup=landscape-service},1651548495,8746
{consumergroup=landscape-service},1651548500,8746
{consumergroup=landscape-service},1651548505,8730
{consumergroup=landscape-service},1651548510,8730
{consumergroup=landscape-service},1651548515,8730
{consumergroup=landscape-service},1651548520,8105
{consumergroup=landscape-service},1651548525,8105
{consumergroup=landscape-service},1651548530,8105
{consumergroup=landscape-service},1651548535,6388
{consumergroup=landscape-service},1651548540,6388
{consumergroup=landscape-service},1651548545,6388
{consumergroup=landscape-service},1651548550,6456
{consumergroup=landscape-service},1651548555,6456
{consumergroup=landscape-service},1651548560,6456
{consumergroup=landscape-service},1651548565,5844
{consumergroup=landscape-service},1651548570,5844
{consumergroup=landscape-service},1651548575,5844
{consumergroup=landscape-service},1651548580,9579
{consumergroup=landscape-service},1651548585,9579
{consumergroup=landscape-service},1651548590,9579
{consumergroup=landscape-service},1651548595,4827
{consumergroup=landscape-service},1651548600,4827
{consumergroup=landscape-service},1651548605,4827
{consumergroup=landscape-service},1651548610,4277
{consumergroup=landscape-service},1651548615,4277
{consumergroup=landscape-service},1651548620,4277
{consumergroup=landscape-service},1651548625,3789
{consumergroup=landscape-service},1651548630,3789
{consumergroup=landscape-service},1651548635,3789
{consumergroup=landscape-service},1651548640,3972
{consumergroup=landscape-service},1651548645,3972
{consumergroup=landscape-service},1651548650,3972
{consumergroup=landscape-service},1651548655,2264
{consumergroup=landscape-service},1651548660,2264
{consumergroup=landscape-service},1651548665,2264
{consumergroup=landscape-service},1651548670,13580
{consumergroup=landscape-service},1651548675,13580
{consumergroup=landscape-service},1651548680,13580
{consumergroup=trace-service},1651548280,41385
{consumergroup=trace-service},1651548285,41385
{consumergroup=trace-service},1651548290,41385
{consumergroup=trace-service},1651548295,38946
{consumergroup=trace-service},1651548300,38946
{consumergroup=trace-service},1651548305,38946
{consumergroup=trace-service},1651548310,67280
{consumergroup=trace-service},1651548315,67280
{consumergroup=trace-service},1651548320,67280
{consumergroup=trace-service},1651548325,112446
{consumergroup=trace-service},1651548330,112446
{consumergroup=trace-service},1651548335,112446
{consumergroup=trace-service},1651548340,51921
{consumergroup=trace-service},1651548345,51921
{consumergroup=trace-service},1651548350,51921
{consumergroup=trace-service},1651548355,140080
{consumergroup=trace-service},1651548360,140080
{consumergroup=trace-service},1651548365,140080
{consumergroup=trace-service},1651548370,57150
{consumergroup=trace-service},1651548375,57150
{consumergroup=trace-service},1651548380,57150
{consumergroup=trace-service},1651548385,73369
{consumergroup=trace-service},1651548390,73369
{consumergroup=trace-service},1651548395,73369
{consumergroup=trace-service},1651548400,48401
{consumergroup=trace-service},1651548405,48401
{consumergroup=trace-service},1651548410,48401
{consumergroup=trace-service},1651548415,91509
{consumergroup=trace-service},1651548420,91509
{consumergroup=trace-service},1651548425,91509
{consumergroup=trace-service},1651548430,63966
{consumergroup=trace-service},1651548435,63966
{consumergroup=trace-service},1651548440,63966
{consumergroup=trace-service},1651548445,101553
{consumergroup=trace-service},1651548450,101553
{consumergroup=trace-service},1651548455,101553
{consumergroup=trace-service},1651548460,52014
{consumergroup=trace-service},1651548465,52014
{consumergroup=trace-service},1651548470,52014
{consumergroup=trace-service},1651548475,124004
{consumergroup=trace-service},1651548480,124004
{consumergroup=trace-service},1651548485,124004
{consumergroup=trace-service},1651548490,52823
{consumergroup=trace-service},1651548495,52823
{consumergroup=trace-service},1651548500,52823
{consumergroup=trace-service},1651548505,116777
{consumergroup=trace-service},1651548510,116777
{consumergroup=trace-service},1651548515,116777
{consumergroup=trace-service},1651548520,53151
{consumergroup=trace-service},1651548525,53151
{consumergroup=trace-service},1651548530,53151
{consumergroup=trace-service},1651548535,43735
{consumergroup=trace-service},1651548540,43735
{consumergroup=trace-service},1651548545,43735
{consumergroup=trace-service},1651548550,54754
{consumergroup=trace-service},1651548555,54754
{consumergroup=trace-service},1651548560,54754
{consumergroup=trace-service},1651548565,137304
{consumergroup=trace-service},1651548570,137304
{consumergroup=trace-service},1651548575,137304
{consumergroup=trace-service},1651548580,73865
{consumergroup=trace-service},1651548585,73865
{consumergroup=trace-service},1651548590,73865
{consumergroup=trace-service},1651548595,111603
{consumergroup=trace-service},1651548600,111603
{consumergroup=trace-service},1651548605,111603
{consumergroup=trace-service},1651548610,54415
{consumergroup=trace-service},1651548615,54415
{consumergroup=trace-service},1651548620,54415
{consumergroup=trace-service},1651548625,96450
{consumergroup=trace-service},1651548630,96450
{consumergroup=trace-service},1651548635,96450
{consumergroup=trace-service},1651548640,52532
{consumergroup=trace-service},1651548645,52532
{consumergroup=trace-service},1651548650,52532
{consumergroup=trace-service},1651548655,101535
{consumergroup=trace-service},1651548660,101535
{consumergroup=trace-service},1651548665,101535
{consumergroup=trace-service},1651548670,56463
{consumergroup=trace-service},1651548675,56463
{consumergroup=trace-service},1651548680,56463
{consumergroup=trace-token-events-consumer},1651548265,0
{consumergroup=trace-token-events-consumer},1651548270,0
{consumergroup=trace-token-events-consumer},1651548275,0
{consumergroup=trace-token-events-consumer},1651548280,0
{consumergroup=trace-token-events-consumer},1651548285,0
{consumergroup=trace-token-events-consumer},1651548290,0
{consumergroup=trace-token-events-consumer},1651548295,0
{consumergroup=trace-token-events-consumer},1651548300,0
{consumergroup=trace-token-events-consumer},1651548305,0
{consumergroup=trace-token-events-consumer},1651548310,0
{consumergroup=trace-token-events-consumer},1651548315,0
{consumergroup=trace-token-events-consumer},1651548320,0
{consumergroup=trace-token-events-consumer},1651548325,0
{consumergroup=trace-token-events-consumer},1651548330,0
{consumergroup=trace-token-events-consumer},1651548335,0
{consumergroup=trace-token-events-consumer},1651548340,0
{consumergroup=trace-token-events-consumer},1651548345,0
{consumergroup=trace-token-events-consumer},1651548350,0
{consumergroup=trace-token-events-consumer},1651548355,0
{consumergroup=trace-token-events-consumer},1651548360,0
{consumergroup=trace-token-events-consumer},1651548365,0
{consumergroup=trace-token-events-consumer},1651548370,0
{consumergroup=trace-token-events-consumer},1651548375,0
{consumergroup=trace-token-events-consumer},1651548380,0
{consumergroup=trace-token-events-consumer},1651548385,0
{consumergroup=trace-token-events-consumer},1651548390,0
{consumergroup=trace-token-events-consumer},1651548395,0
{consumergroup=trace-token-events-consumer},1651548400,0
{consumergroup=trace-token-events-consumer},1651548405,0
{consumergroup=trace-token-events-consumer},1651548410,0
{consumergroup=trace-token-events-consumer},1651548415,0
{consumergroup=trace-token-events-consumer},1651548420,0
{consumergroup=trace-token-events-consumer},1651548425,0
{consumergroup=trace-token-events-consumer},1651548430,0
{consumergroup=trace-token-events-consumer},1651548435,0
{consumergroup=trace-token-events-consumer},1651548440,0
{consumergroup=trace-token-events-consumer},1651548445,0
{consumergroup=trace-token-events-consumer},1651548450,0
{consumergroup=trace-token-events-consumer},1651548455,0
{consumergroup=trace-token-events-consumer},1651548460,0
{consumergroup=trace-token-events-consumer},1651548465,0
{consumergroup=trace-token-events-consumer},1651548470,0
{consumergroup=trace-token-events-consumer},1651548475,0
{consumergroup=trace-token-events-consumer},1651548480,0
{consumergroup=trace-token-events-consumer},1651548485,0
{consumergroup=trace-token-events-consumer},1651548490,0
{consumergroup=trace-token-events-consumer},1651548495,0
{consumergroup=trace-token-events-consumer},1651548500,0
{consumergroup=trace-token-events-consumer},1651548505,0
{consumergroup=trace-token-events-consumer},1651548510,0
{consumergroup=trace-token-events-consumer},1651548515,0
{consumergroup=trace-token-events-consumer},1651548520,0
{consumergroup=trace-token-events-consumer},1651548525,0
{consumergroup=trace-token-events-consumer},1651548530,0
{consumergroup=trace-token-events-consumer},1651548535,0
{consumergroup=trace-token-events-consumer},1651548540,0
{consumergroup=trace-token-events-consumer},1651548545,0
{consumergroup=trace-token-events-consumer},1651548550,0
{consumergroup=trace-token-events-consumer},1651548555,0
{consumergroup=trace-token-events-consumer},1651548560,0
{consumergroup=trace-token-events-consumer},1651548565,0
{consumergroup=trace-token-events-consumer},1651548570,0
{consumergroup=trace-token-events-consumer},1651548575,0
{consumergroup=trace-token-events-consumer},1651548580,0
{consumergroup=trace-token-events-consumer},1651548585,0
{consumergroup=trace-token-events-consumer},1651548590,0
{consumergroup=trace-token-events-consumer},1651548595,0
{consumergroup=trace-token-events-consumer},1651548600,0
{consumergroup=trace-token-events-consumer},1651548605,0
{consumergroup=trace-token-events-consumer},1651548610,0
{consumergroup=trace-token-events-consumer},1651548615,0
{consumergroup=trace-token-events-consumer},1651548620,0
{consumergroup=trace-token-events-consumer},1651548625,0
{consumergroup=trace-token-events-consumer},1651548630,0
{consumergroup=trace-token-events-consumer},1651548635,0
{consumergroup=trace-token-events-consumer},1651548640,0
{consumergroup=trace-token-events-consumer},1651548645,0
{consumergroup=trace-token-events-consumer},1651548650,0
{consumergroup=trace-token-events-consumer},1651548655,0
{consumergroup=trace-token-events-consumer},1651548660,0
{consumergroup=trace-token-events-consumer},1651548665,0
{consumergroup=trace-token-events-consumer},1651548670,0
{consumergroup=trace-token-events-consumer},1651548675,0
{consumergroup=trace-token-events-consumer},1651548680,0
