labels,timestamp,value
{consumergroup=__strimzi-topic-operator-kstreams},1651541054,0
{consumergroup=__strimzi-topic-operator-kstreams},1651541059,0
{consumergroup=__strimzi-topic-operator-kstreams},1651541064,0
{consumergroup=__strimzi-topic-operator-kstreams},1651541069,3
{consumergroup=__strimzi-topic-operator-kstreams},1651541074,3
{consumergroup=__strimzi-topic-operator-kstreams},1651541079,3
{consumergroup=__strimzi-topic-operator-kstreams},1651541084,3
{consumergroup=__strimzi-topic-operator-kstreams},1651541089,3
{consumergroup=__strimzi-topic-operator-kstreams},1651541094,3
{consumergroup=__strimzi-topic-operator-kstreams},1651541099,0
{consumergroup=__strimzi-topic-operator-kstreams},1651541104,0
{consumergroup=__strimzi-topic-operator-kstreams},1651541109,0
{consumergroup=__strimzi-topic-operator-kstreams},1651541114,0
{consumergroup=__strimzi-topic-operator-kstreams},1651541119,0
{consumergroup=__strimzi-topic-operator-kstreams},1651541124,0
{consumergroup=__strimzi-topic-operator-kstreams},1651541129,0
{consumergroup=__strimzi-topic-operator-kstreams},1651541134,0
{consumergroup=__strimzi-topic-operator-kstreams},1651541139,0
{consumergroup=__strimzi-topic-operator-kstreams},1651541144,0
{consumergroup=__strimzi-topic-operator-kstreams},1651541149,0
{consumergroup=__strimzi-topic-operator-kstreams},1651541154,0
{consumergroup=__strimzi-topic-operator-kstreams},1651541159,0
{consumergroup=__strimzi-topic-operator-kstreams},1651541164,0
{consumergroup=__strimzi-topic-operator-kstreams},1651541169,0
{consumergroup=__strimzi-topic-operator-kstreams},1651541174,0
{consumergroup=__strimzi-topic-operator-kstreams},1651541179,0
{consumergroup=__strimzi-topic-operator-kstreams},1651541184,0
{consumergroup=__strimzi-topic-operator-kstreams},1651541189,0
{consumergroup=__strimzi-topic-operator-kstreams},1651541194,0
{consumergroup=__strimzi-topic-operator-kstreams},1651541199,0
{consumergroup=__strimzi-topic-operator-kstreams},1651541204,0
{consumergroup=__strimzi-topic-operator-kstreams},1651541209,0
{consumergroup=__strimzi-topic-operator-kstreams},1651541214,0
{consumergroup=__strimzi-topic-operator-kstreams},1651541219,0
{consumergroup=__strimzi-topic-operator-kstreams},1651541224,0
{consumergroup=__strimzi-topic-operator-kstreams},1651541229,0
{consumergroup=__strimzi-topic-operator-kstreams},1651541234,0
{consumergroup=__strimzi-topic-operator-kstreams},1651541239,0
{consumergroup=__strimzi-topic-operator-kstreams},1651541244,0
{consumergroup=__strimzi-topic-operator-kstreams},1651541249,0
{consumergroup=__strimzi-topic-operator-kstreams},1651541254,0
{consumergroup=__strimzi-topic-operator-kstreams},1651541259,0
{consumergroup=__strimzi-topic-operator-kstreams},1651541264,0
{consumergroup=__strimzi-topic-operator-kstreams},1651541269,0
{consumergroup=__strimzi-topic-operator-kstreams},1651541274,0
{consumergroup=__strimzi-topic-operator-kstreams},1651541279,0
{consumergroup=__strimzi-topic-operator-kstreams},1651541284,0
{consumergroup=__strimzi-topic-operator-kstreams},1651541289,0
{consumergroup=__strimzi-topic-operator-kstreams},1651541294,0
{consumergroup=__strimzi-topic-operator-kstreams},1651541299,0
{consumergroup=__strimzi-topic-operator-kstreams},1651541304,0
{consumergroup=__strimzi-topic-operator-kstreams},1651541309,0
{consumergroup=__strimzi-topic-operator-kstreams},1651541314,0
{consumergroup=__strimzi-topic-operator-kstreams},1651541319,0
{consumergroup=__strimzi-topic-operator-kstreams},1651541324,0
{consumergroup=__strimzi-topic-operator-kstreams},1651541329,0
{consumergroup=__strimzi-topic-operator-kstreams},1651541334,0
{consumergroup=__strimzi-topic-operator-kstreams},1651541339,0
{consumergroup=__strimzi-topic-operator-kstreams},1651541344,0
{consumergroup=__strimzi-topic-operator-kstreams},1651541349,0
{consumergroup=__strimzi-topic-operator-kstreams},1651541354,0
{consumergroup=__strimzi-topic-operator-kstreams},1651541359,0
{consumergroup=__strimzi-topic-operator-kstreams},1651541364,0
{consumergroup=__strimzi-topic-operator-kstreams},1651541369,0
{consumergroup=__strimzi-topic-operator-kstreams},1651541374,0
{consumergroup=__strimzi-topic-operator-kstreams},1651541379,0
{consumergroup=__strimzi-topic-operator-kstreams},1651541384,0
{consumergroup=__strimzi-topic-operator-kstreams},1651541389,0
{consumergroup=__strimzi-topic-operator-kstreams},1651541394,0
{consumergroup=__strimzi-topic-operator-kstreams},1651541399,0
{consumergroup=__strimzi-topic-operator-kstreams},1651541404,0
{consumergroup=__strimzi-topic-operator-kstreams},1651541409,0
{consumergroup=__strimzi-topic-operator-kstreams},1651541414,0
{consumergroup=__strimzi-topic-operator-kstreams},1651541419,0
{consumergroup=__strimzi-topic-operator-kstreams},1651541424,0
{consumergroup=__strimzi-topic-operator-kstreams},1651541429,0
{consumergroup=__strimzi-topic-operator-kstreams},1651541434,0
{consumergroup=__strimzi-topic-operator-kstreams},1651541439,0
{consumergroup=__strimzi-topic-operator-kstreams},1651541444,0
{consumergroup=__strimzi-topic-operator-kstreams},1651541449,0
{consumergroup=__strimzi-topic-operator-kstreams},1651541454,0
{consumergroup=__strimzi-topic-operator-kstreams},1651541459,0
{consumergroup=__strimzi-topic-operator-kstreams},1651541464,0
{consumergroup=__strimzi-topic-operator-kstreams},1651541469,0
{consumergroup=__strimzi-topic-operator-kstreams},1651541474,0
{consumergroup=__strimzi-topic-operator-kstreams},1651541479,0
{consumergroup=__strimzi-topic-operator-kstreams},1651541484,0
{consumergroup=__strimzi-topic-operator-kstreams},1651541489,0
{consumergroup=__strimzi-topic-operator-kstreams},1651541494,0
{consumergroup=adapter-service},1651541099,4454
{consumergroup=adapter-service},1651541104,4454
{consumergroup=adapter-service},1651541109,4454
{consumergroup=adapter-service},1651541114,2501
{consumergroup=adapter-service},1651541119,2501
{consumergroup=adapter-service},1651541124,2501
{consumergroup=adapter-service},1651541129,5904
{consumergroup=adapter-service},1651541134,5904
{consumergroup=adapter-service},1651541139,5904
{consumergroup=adapter-service},1651541144,17475
{consumergroup=adapter-service},1651541149,17475
{consumergroup=adapter-service},1651541154,17475
{consumergroup=adapter-service},1651541159,5308
{consumergroup=adapter-service},1651541164,5308
{consumergroup=adapter-service},1651541169,5308
{consumergroup=adapter-service},1651541174,1865
{consumergroup=adapter-service},1651541179,1865
{consumergroup=adapter-service},1651541184,1865
{consumergroup=adapter-service},1651541189,4598
{consumergroup=adapter-service},1651541194,4598
{consumergroup=adapter-service},1651541199,4598
{consumergroup=adapter-service},1651541204,17799
{consumergroup=adapter-service},1651541209,17799
{consumergroup=adapter-service},1651541214,17799
{consumergroup=adapter-service},1651541219,4275
{consumergroup=adapter-service},1651541224,4275
{consumergroup=adapter-service},1651541229,4275
{consumergroup=adapter-service},1651541234,16988
{consumergroup=adapter-service},1651541239,16988
{consumergroup=adapter-service},1651541244,16988
{consumergroup=adapter-service},1651541249,1237
{consumergroup=adapter-service},1651541254,1237
{consumergroup=adapter-service},1651541259,1237
{consumergroup=adapter-service},1651541264,3060
{consumergroup=adapter-service},1651541269,3060
{consumergroup=adapter-service},1651541274,3060
{consumergroup=adapter-service},1651541279,3742
{consumergroup=adapter-service},1651541284,3742
{consumergroup=adapter-service},1651541289,3742
{consumergroup=adapter-service},1651541294,2918
{consumergroup=adapter-service},1651541299,2918
{consumergroup=adapter-service},1651541304,2918
{consumergroup=adapter-service},1651541309,2876
{consumergroup=adapter-service},1651541314,2876
{consumergroup=adapter-service},1651541319,2876
{consumergroup=adapter-service},1651541324,15693
{consumergroup=adapter-service},1651541329,15693
{consumergroup=adapter-service},1651541334,15693
{consumergroup=adapter-service},1651541339,5912
{consumergroup=adapter-service},1651541344,5912
{consumergroup=adapter-service},1651541349,5912
{consumergroup=adapter-service},1651541354,16099
{consumergroup=adapter-service},1651541359,16099
{consumergroup=adapter-service},1651541364,16099
{consumergroup=adapter-service},1651541369,10372
{consumergroup=adapter-service},1651541374,10372
{consumergroup=adapter-service},1651541379,10372
{consumergroup=adapter-service},1651541384,14835
{consumergroup=adapter-service},1651541389,14835
{consumergroup=adapter-service},1651541394,14835
{consumergroup=adapter-service},1651541399,14877
{consumergroup=adapter-service},1651541404,14877
{consumergroup=adapter-service},1651541409,14877
{consumergroup=adapter-service},1651541414,15336
{consumergroup=adapter-service},1651541419,15336
{consumergroup=adapter-service},1651541424,15336
{consumergroup=adapter-service},1651541429,1982
{consumergroup=adapter-service},1651541434,1982
{consumergroup=adapter-service},1651541439,1982
{consumergroup=adapter-service},1651541444,14253
{consumergroup=adapter-service},1651541449,14253
{consumergroup=adapter-service},1651541454,14253
{consumergroup=adapter-service},1651541459,14071
{consumergroup=adapter-service},1651541464,14071
{consumergroup=adapter-service},1651541469,14071
{consumergroup=adapter-service},1651541474,17201
{consumergroup=adapter-service},1651541479,17201
{consumergroup=adapter-service},1651541484,17201
{consumergroup=adapter-service},1651541489,17399
{consumergroup=adapter-service},1651541494,17399
{consumergroup=landscape-service},1651541114,41242
{consumergroup=landscape-service},1651541119,41242
{consumergroup=landscape-service},1651541124,41242
{consumergroup=landscape-service},1651541129,17457
{consumergroup=landscape-service},1651541134,17457
{consumergroup=landscape-service},1651541139,17457
{consumergroup=landscape-service},1651541144,7611
{consumergroup=landscape-service},1651541149,7611
{consumergroup=landscape-service},1651541154,7611
{consumergroup=landscape-service},1651541159,15482
{consumergroup=landscape-service},1651541164,15482
{consumergroup=landscape-service},1651541169,15482
{consumergroup=landscape-service},1651541174,10462
{consumergroup=landscape-service},1651541179,10462
{consumergroup=landscape-service},1651541184,10462
{consumergroup=landscape-service},1651541189,14575
{consumergroup=landscape-service},1651541194,14575
{consumergroup=landscape-service},1651541199,14575
{consumergroup=landscape-service},1651541204,4633
{consumergroup=landscape-service},1651541209,4633
{consumergroup=landscape-service},1651541214,4633
{consumergroup=landscape-service},1651541219,12389
{consumergroup=landscape-service},1651541224,12389
{consumergroup=landscape-service},1651541229,12389
{consumergroup=landscape-service},1651541234,4371
{consumergroup=landscape-service},1651541239,4371
{consumergroup=landscape-service},1651541244,4371
{consumergroup=landscape-service},1651541249,6747
{consumergroup=landscape-service},1651541254,6747
{consumergroup=landscape-service},1651541259,6747
{consumergroup=landscape-service},1651541264,5893
{consumergroup=landscape-service},1651541269,5893
{consumergroup=landscape-service},1651541274,5893
{consumergroup=landscape-service},1651541279,9770
{consumergroup=landscape-service},1651541284,9770
{consumergroup=landscape-service},1651541289,9770
{consumergroup=landscape-service},1651541294,4465
{consumergroup=landscape-service},1651541299,4465
{consumergroup=landscape-service},1651541304,4465
{consumergroup=landscape-service},1651541309,8000
{consumergroup=landscape-service},1651541314,8000
{consumergroup=landscape-service},1651541319,8000
{consumergroup=landscape-service},1651541339,2811
{consumergroup=landscape-service},1651541344,2811
{consumergroup=landscape-service},1651541349,2811
{consumergroup=landscape-service},1651541354,18994
{consumergroup=landscape-service},1651541359,18994
{consumergroup=landscape-service},1651541364,18994
{consumergroup=landscape-service},1651541369,1267
{consumergroup=landscape-service},1651541374,1267
{consumergroup=landscape-service},1651541379,1267
{consumergroup=landscape-service},1651541384,17387
{consumergroup=landscape-service},1651541389,17387
{consumergroup=landscape-service},1651541394,17387
{consumergroup=landscape-service},1651541414,15871
{consumergroup=landscape-service},1651541419,15871
{consumergroup=landscape-service},1651541424,15871
{consumergroup=landscape-service},1651541429,4239
{consumergroup=landscape-service},1651541434,4239
{consumergroup=landscape-service},1651541439,4239
{consumergroup=landscape-service},1651541444,17461
{consumergroup=landscape-service},1651541449,17461
{consumergroup=landscape-service},1651541454,17461
{consumergroup=landscape-service},1651541459,15461
{consumergroup=landscape-service},1651541464,15461
{consumergroup=landscape-service},1651541469,15461
{consumergroup=landscape-service},1651541474,19055
{consumergroup=landscape-service},1651541479,19055
{consumergroup=landscape-service},1651541484,19055
{consumergroup=landscape-service},1651541489,19874
{consumergroup=landscape-service},1651541494,19874
{consumergroup=landscape-token-events-consumer},1651541114,0
{consumergroup=landscape-token-events-consumer},1651541119,0
{consumergroup=landscape-token-events-consumer},1651541124,0
{consumergroup=landscape-token-events-consumer},1651541129,0
{consumergroup=landscape-token-events-consumer},1651541134,0
{consumergroup=landscape-token-events-consumer},1651541139,0
{consumergroup=landscape-token-events-consumer},1651541144,0
{consumergroup=landscape-token-events-consumer},1651541149,0
{consumergroup=landscape-token-events-consumer},1651541154,0
{consumergroup=landscape-token-events-consumer},1651541159,0
{consumergroup=landscape-token-events-consumer},1651541164,0
{consumergroup=landscape-token-events-consumer},1651541169,0
{consumergroup=landscape-token-events-consumer},1651541174,0
{consumergroup=landscape-token-events-consumer},1651541179,0
{consumergroup=landscape-token-events-consumer},1651541184,0
{consumergroup=landscape-token-events-consumer},1651541189,0
{consumergroup=landscape-token-events-consumer},1651541194,0
{consumergroup=landscape-token-events-consumer},1651541199,0
{consumergroup=landscape-token-events-consumer},1651541204,0
{consumergroup=landscape-token-events-consumer},1651541209,0
{consumergroup=landscape-token-events-consumer},1651541214,0
{consumergroup=landscape-token-events-consumer},1651541219,0
{consumergroup=landscape-token-events-consumer},1651541224,0
{consumergroup=landscape-token-events-consumer},1651541229,0
{consumergroup=landscape-token-events-consumer},1651541234,0
{consumergroup=landscape-token-events-consumer},1651541239,0
{consumergroup=landscape-token-events-consumer},1651541244,0
{consumergroup=landscape-token-events-consumer},1651541249,0
{consumergroup=landscape-token-events-consumer},1651541254,0
{consumergroup=landscape-token-events-consumer},1651541259,0
{consumergroup=landscape-token-events-consumer},1651541264,0
{consumergroup=landscape-token-events-consumer},1651541269,0
{consumergroup=landscape-token-events-consumer},1651541274,0
{consumergroup=landscape-token-events-consumer},1651541279,0
{consumergroup=landscape-token-events-consumer},1651541284,0
{consumergroup=landscape-token-events-consumer},1651541289,0
{consumergroup=landscape-token-events-consumer},1651541294,0
{consumergroup=landscape-token-events-consumer},1651541299,0
{consumergroup=landscape-token-events-consumer},1651541304,0
{consumergroup=landscape-token-events-consumer},1651541309,0
{consumergroup=landscape-token-events-consumer},1651541314,0
{consumergroup=landscape-token-events-consumer},1651541319,0
{consumergroup=landscape-token-events-consumer},1651541324,0
{consumergroup=landscape-token-events-consumer},1651541329,0
{consumergroup=landscape-token-events-consumer},1651541334,0
{consumergroup=landscape-token-events-consumer},1651541339,0
{consumergroup=landscape-token-events-consumer},1651541344,0
{consumergroup=landscape-token-events-consumer},1651541349,0
{consumergroup=landscape-token-events-consumer},1651541354,0
{consumergroup=landscape-token-events-consumer},1651541359,0
{consumergroup=landscape-token-events-consumer},1651541364,0
{consumergroup=landscape-token-events-consumer},1651541369,0
{consumergroup=landscape-token-events-consumer},1651541374,0
{consumergroup=landscape-token-events-consumer},1651541379,0
{consumergroup=landscape-token-events-consumer},1651541384,0
{consumergroup=landscape-token-events-consumer},1651541389,0
{consumergroup=landscape-token-events-consumer},1651541394,0
{consumergroup=landscape-token-events-consumer},1651541399,0
{consumergroup=landscape-token-events-consumer},1651541404,0
{consumergroup=landscape-token-events-consumer},1651541409,0
{consumergroup=landscape-token-events-consumer},1651541414,0
{consumergroup=landscape-token-events-consumer},1651541419,0
{consumergroup=landscape-token-events-consumer},1651541424,0
{consumergroup=landscape-token-events-consumer},1651541429,0
{consumergroup=landscape-token-events-consumer},1651541434,0
{consumergroup=landscape-token-events-consumer},1651541439,0
{consumergroup=landscape-token-events-consumer},1651541444,0
{consumergroup=landscape-token-events-consumer},1651541449,0
{consumergroup=landscape-token-events-consumer},1651541454,0
{consumergroup=landscape-token-events-consumer},1651541459,0
{consumergroup=landscape-token-events-consumer},1651541464,0
{consumergroup=landscape-token-events-consumer},1651541469,0
{consumergroup=landscape-token-events-consumer},1651541474,0
{consumergroup=landscape-token-events-consumer},1651541479,0
{consumergroup=landscape-token-events-consumer},1651541484,0
{consumergroup=landscape-token-events-consumer},1651541489,0
{consumergroup=landscape-token-events-consumer},1651541494,0
{consumergroup=trace-service},1651541114,15451
{consumergroup=trace-service},1651541119,15451
{consumergroup=trace-service},1651541124,15451
{consumergroup=trace-service},1651541129,15402
{consumergroup=trace-service},1651541134,15402
{consumergroup=trace-service},1651541139,15402
{consumergroup=trace-service},1651541144,82112
{consumergroup=trace-service},1651541149,82112
{consumergroup=trace-service},1651541154,82112
{consumergroup=trace-service},1651541159,144136
{consumergroup=trace-service},1651541164,144136
{consumergroup=trace-service},1651541169,144136
{consumergroup=trace-service},1651541174,61979
{consumergroup=trace-service},1651541179,61979
{consumergroup=trace-service},1651541184,61979
{consumergroup=trace-service},1651541189,16982
{consumergroup=trace-service},1651541194,16982
{consumergroup=trace-service},1651541199,16982
{consumergroup=trace-service},1651541204,59232
{consumergroup=trace-service},1651541209,59232
{consumergroup=trace-service},1651541214,59232
{consumergroup=trace-service},1651541219,28157
{consumergroup=trace-service},1651541224,28157
{consumergroup=trace-service},1651541229,28157
{consumergroup=trace-service},1651541234,54000
{consumergroup=trace-service},1651541239,54000
{consumergroup=trace-service},1651541244,54000
{consumergroup=trace-service},1651541249,114015
{consumergroup=trace-service},1651541254,114015
{consumergroup=trace-service},1651541259,114015
{consumergroup=trace-service},1651541264,58315
{consumergroup=trace-service},1651541269,58315
{consumergroup=trace-service},1651541274,58315
{consumergroup=trace-service},1651541279,22135
{consumergroup=trace-service},1651541284,22135
{consumergroup=trace-service},1651541289,22135
{consumergroup=trace-service},1651541294,60219
{consumergroup=trace-service},1651541299,60219
{consumergroup=trace-service},1651541304,60219
{consumergroup=trace-service},1651541309,11029
{consumergroup=trace-service},1651541314,11029
{consumergroup=trace-service},1651541319,11029
{consumergroup=trace-service},1651541324,62575
{consumergroup=trace-service},1651541329,62575
{consumergroup=trace-service},1651541334,62575
{consumergroup=trace-service},1651541339,22881
{consumergroup=trace-service},1651541344,22881
{consumergroup=trace-service},1651541349,22881
{consumergroup=trace-service},1651541354,53393
{consumergroup=trace-service},1651541359,53393
{consumergroup=trace-service},1651541364,53393
{consumergroup=trace-service},1651541369,16825
{consumergroup=trace-service},1651541374,16825
{consumergroup=trace-service},1651541379,16825
{consumergroup=trace-service},1651541384,56660
{consumergroup=trace-service},1651541389,56660
{consumergroup=trace-service},1651541394,56660
{consumergroup=trace-service},1651541399,15361
{consumergroup=trace-service},1651541404,15361
{consumergroup=trace-service},1651541409,15361
{consumergroup=trace-service},1651541414,56662
{consumergroup=trace-service},1651541419,56662
{consumergroup=trace-service},1651541424,56662
{consumergroup=trace-service},1651541429,28159
{consumergroup=trace-service},1651541434,28159
{consumergroup=trace-service},1651541439,28159
{consumergroup=trace-service},1651541444,59377
{consumergroup=trace-service},1651541449,59377
{consumergroup=trace-service},1651541454,59377
{consumergroup=trace-service},1651541459,117132
{consumergroup=trace-service},1651541464,117132
{consumergroup=trace-service},1651541469,117132
{consumergroup=trace-service},1651541474,63195
{consumergroup=trace-service},1651541479,63195
{consumergroup=trace-service},1651541484,63195
{consumergroup=trace-service},1651541489,163797
{consumergroup=trace-service},1651541494,163797
{consumergroup=trace-token-events-consumer},1651541114,0
{consumergroup=trace-token-events-consumer},1651541119,0
{consumergroup=trace-token-events-consumer},1651541124,0
{consumergroup=trace-token-events-consumer},1651541129,0
{consumergroup=trace-token-events-consumer},1651541134,0
{consumergroup=trace-token-events-consumer},1651541139,0
{consumergroup=trace-token-events-consumer},1651541144,0
{consumergroup=trace-token-events-consumer},1651541149,0
{consumergroup=trace-token-events-consumer},1651541154,0
{consumergroup=trace-token-events-consumer},1651541159,0
{consumergroup=trace-token-events-consumer},1651541164,0
{consumergroup=trace-token-events-consumer},1651541169,0
{consumergroup=trace-token-events-consumer},1651541174,0
{consumergroup=trace-token-events-consumer},1651541179,0
{consumergroup=trace-token-events-consumer},1651541184,0
{consumergroup=trace-token-events-consumer},1651541189,0
{consumergroup=trace-token-events-consumer},1651541194,0
{consumergroup=trace-token-events-consumer},1651541199,0
{consumergroup=trace-token-events-consumer},1651541204,0
{consumergroup=trace-token-events-consumer},1651541209,0
{consumergroup=trace-token-events-consumer},1651541214,0
{consumergroup=trace-token-events-consumer},1651541219,0
{consumergroup=trace-token-events-consumer},1651541224,0
{consumergroup=trace-token-events-consumer},1651541229,0
{consumergroup=trace-token-events-consumer},1651541234,0
{consumergroup=trace-token-events-consumer},1651541239,0
{consumergroup=trace-token-events-consumer},1651541244,0
{consumergroup=trace-token-events-consumer},1651541249,0
{consumergroup=trace-token-events-consumer},1651541254,0
{consumergroup=trace-token-events-consumer},1651541259,0
{consumergroup=trace-token-events-consumer},1651541264,0
{consumergroup=trace-token-events-consumer},1651541269,0
{consumergroup=trace-token-events-consumer},1651541274,0
{consumergroup=trace-token-events-consumer},1651541279,0
{consumergroup=trace-token-events-consumer},1651541284,0
{consumergroup=trace-token-events-consumer},1651541289,0
{consumergroup=trace-token-events-consumer},1651541294,0
{consumergroup=trace-token-events-consumer},1651541299,0
{consumergroup=trace-token-events-consumer},1651541304,0
{consumergroup=trace-token-events-consumer},1651541309,0
{consumergroup=trace-token-events-consumer},1651541314,0
{consumergroup=trace-token-events-consumer},1651541319,0
{consumergroup=trace-token-events-consumer},1651541324,0
{consumergroup=trace-token-events-consumer},1651541329,0
{consumergroup=trace-token-events-consumer},1651541334,0
{consumergroup=trace-token-events-consumer},1651541339,0
{consumergroup=trace-token-events-consumer},1651541344,0
{consumergroup=trace-token-events-consumer},1651541349,0
{consumergroup=trace-token-events-consumer},1651541354,0
{consumergroup=trace-token-events-consumer},1651541359,0
{consumergroup=trace-token-events-consumer},1651541364,0
{consumergroup=trace-token-events-consumer},1651541369,0
{consumergroup=trace-token-events-consumer},1651541374,0
{consumergroup=trace-token-events-consumer},1651541379,0
{consumergroup=trace-token-events-consumer},1651541384,0
{consumergroup=trace-token-events-consumer},1651541389,0
{consumergroup=trace-token-events-consumer},1651541394,0
{consumergroup=trace-token-events-consumer},1651541399,0
{consumergroup=trace-token-events-consumer},1651541404,0
{consumergroup=trace-token-events-consumer},1651541409,0
{consumergroup=trace-token-events-consumer},1651541414,0
{consumergroup=trace-token-events-consumer},1651541419,0
{consumergroup=trace-token-events-consumer},1651541424,0
{consumergroup=trace-token-events-consumer},1651541429,0
{consumergroup=trace-token-events-consumer},1651541434,0
{consumergroup=trace-token-events-consumer},1651541439,0
{consumergroup=trace-token-events-consumer},1651541444,0
{consumergroup=trace-token-events-consumer},1651541449,0
{consumergroup=trace-token-events-consumer},1651541454,0
{consumergroup=trace-token-events-consumer},1651541459,0
{consumergroup=trace-token-events-consumer},1651541464,0
{consumergroup=trace-token-events-consumer},1651541469,0
{consumergroup=trace-token-events-consumer},1651541474,0
{consumergroup=trace-token-events-consumer},1651541479,0
{consumergroup=trace-token-events-consumer},1651541484,0
{consumergroup=trace-token-events-consumer},1651541489,0
{consumergroup=trace-token-events-consumer},1651541494,0
