labels,timestamp,value
{consumergroup=__strimzi-topic-operator-kstreams},1651439052,13
{consumergroup=__strimzi-topic-operator-kstreams},1651439057,13
{consumergroup=__strimzi-topic-operator-kstreams},1651439062,13
{consumergroup=__strimzi-topic-operator-kstreams},1651439067,0
{consumergroup=__strimzi-topic-operator-kstreams},1651439072,0
{consumergroup=__strimzi-topic-operator-kstreams},1651439077,0
{consumergroup=__strimzi-topic-operator-kstreams},1651439082,0
{consumergroup=__strimzi-topic-operator-kstreams},1651439087,0
{consumergroup=__strimzi-topic-operator-kstreams},1651439092,0
{consumergroup=__strimzi-topic-operator-kstreams},1651439097,0
{consumergroup=__strimzi-topic-operator-kstreams},1651439102,0
{consumergroup=__strimzi-topic-operator-kstreams},1651439107,0
{consumergroup=__strimzi-topic-operator-kstreams},1651439112,0
{consumergroup=__strimzi-topic-operator-kstreams},1651439117,0
{consumergroup=__strimzi-topic-operator-kstreams},1651439122,0
{consumergroup=__strimzi-topic-operator-kstreams},1651439127,0
{consumergroup=__strimzi-topic-operator-kstreams},1651439132,0
{consumergroup=__strimzi-topic-operator-kstreams},1651439137,0
{consumergroup=__strimzi-topic-operator-kstreams},1651439142,0
{consumergroup=__strimzi-topic-operator-kstreams},1651439147,0
{consumergroup=__strimzi-topic-operator-kstreams},1651439152,0
{consumergroup=__strimzi-topic-operator-kstreams},1651439157,0
{consumergroup=__strimzi-topic-operator-kstreams},1651439162,0
{consumergroup=__strimzi-topic-operator-kstreams},1651439167,0
{consumergroup=__strimzi-topic-operator-kstreams},1651439172,0
{consumergroup=__strimzi-topic-operator-kstreams},1651439177,0
{consumergroup=__strimzi-topic-operator-kstreams},1651439182,0
{consumergroup=__strimzi-topic-operator-kstreams},1651439187,0
{consumergroup=__strimzi-topic-operator-kstreams},1651439192,0
{consumergroup=__strimzi-topic-operator-kstreams},1651439197,0
{consumergroup=__strimzi-topic-operator-kstreams},1651439202,0
{consumergroup=__strimzi-topic-operator-kstreams},1651439207,0
{consumergroup=__strimzi-topic-operator-kstreams},1651439212,0
{consumergroup=__strimzi-topic-operator-kstreams},1651439217,0
{consumergroup=__strimzi-topic-operator-kstreams},1651439222,0
{consumergroup=__strimzi-topic-operator-kstreams},1651439227,0
{consumergroup=__strimzi-topic-operator-kstreams},1651439232,0
{consumergroup=__strimzi-topic-operator-kstreams},1651439237,0
{consumergroup=__strimzi-topic-operator-kstreams},1651439242,0
{consumergroup=__strimzi-topic-operator-kstreams},1651439247,0
{consumergroup=__strimzi-topic-operator-kstreams},1651439252,0
{consumergroup=__strimzi-topic-operator-kstreams},1651439257,0
{consumergroup=__strimzi-topic-operator-kstreams},1651439262,0
{consumergroup=__strimzi-topic-operator-kstreams},1651439267,0
{consumergroup=__strimzi-topic-operator-kstreams},1651439272,0
{consumergroup=__strimzi-topic-operator-kstreams},1651439277,0
{consumergroup=__strimzi-topic-operator-kstreams},1651439282,0
{consumergroup=__strimzi-topic-operator-kstreams},1651439287,0
{consumergroup=__strimzi-topic-operator-kstreams},1651439292,0
{consumergroup=__strimzi-topic-operator-kstreams},1651439297,0
{consumergroup=__strimzi-topic-operator-kstreams},1651439302,0
{consumergroup=adapter-service},1651439082,150364
{consumergroup=adapter-service},1651439087,150364
{consumergroup=adapter-service},1651439092,150364
{consumergroup=adapter-service},1651439097,433748
{consumergroup=adapter-service},1651439102,433748
{consumergroup=adapter-service},1651439107,433748
{consumergroup=adapter-service},1651439112,635479
{consumergroup=adapter-service},1651439117,635479
{consumergroup=adapter-service},1651439122,635479
{consumergroup=adapter-service},1651439127,844551
{consumergroup=adapter-service},1651439132,844551
{consumergroup=adapter-service},1651439137,844551
{consumergroup=adapter-service},1651439142,993607
{consumergroup=adapter-service},1651439147,993607
{consumergroup=adapter-service},1651439152,993607
{consumergroup=adapter-service},1651439157,1147557
{consumergroup=adapter-service},1651439162,1147557
{consumergroup=adapter-service},1651439167,1147557
{consumergroup=adapter-service},1651439172,1251956
{consumergroup=adapter-service},1651439177,1251956
{consumergroup=adapter-service},1651439182,1251956
{consumergroup=adapter-service},1651439187,1322300
{consumergroup=adapter-service},1651439192,1322300
{consumergroup=adapter-service},1651439197,1322300
{consumergroup=adapter-service},1651439202,1380986
{consumergroup=adapter-service},1651439207,1380986
{consumergroup=adapter-service},1651439212,1380986
{consumergroup=adapter-service},1651439217,1438346
{consumergroup=adapter-service},1651439222,1438346
{consumergroup=adapter-service},1651439227,1438346
{consumergroup=adapter-service},1651439232,1451579
{consumergroup=adapter-service},1651439237,1451579
{consumergroup=adapter-service},1651439242,1451579
{consumergroup=adapter-service},1651439247,1497389
{consumergroup=adapter-service},1651439252,1497389
{consumergroup=adapter-service},1651439257,1497389
{consumergroup=adapter-service},1651439262,1527451
{consumergroup=adapter-service},1651439267,1527451
{consumergroup=adapter-service},1651439272,1527451
{consumergroup=adapter-service},1651439277,1559809
{consumergroup=adapter-service},1651439282,1559809
{consumergroup=adapter-service},1651439287,1559809
{consumergroup=adapter-service},1651439292,1599967
{consumergroup=adapter-service},1651439297,1599967
{consumergroup=adapter-service},1651439302,1599967
