labels,timestamp,value
{consumergroup=__strimzi-topic-operator-kstreams},1651463383,8
{consumergroup=__strimzi-topic-operator-kstreams},1651463388,8
{consumergroup=__strimzi-topic-operator-kstreams},1651463393,8
{consumergroup=__strimzi-topic-operator-kstreams},1651463398,0
{consumergroup=__strimzi-topic-operator-kstreams},1651463403,0
{consumergroup=__strimzi-topic-operator-kstreams},1651463408,0
{consumergroup=__strimzi-topic-operator-kstreams},1651463413,2
{consumergroup=__strimzi-topic-operator-kstreams},1651463418,2
{consumergroup=__strimzi-topic-operator-kstreams},1651463423,2
{consumergroup=__strimzi-topic-operator-kstreams},1651463428,0
{consumergroup=__strimzi-topic-operator-kstreams},1651463433,0
{consumergroup=__strimzi-topic-operator-kstreams},1651463438,0
{consumergroup=__strimzi-topic-operator-kstreams},1651463443,0
{consumergroup=__strimzi-topic-operator-kstreams},1651463448,0
{consumergroup=__strimzi-topic-operator-kstreams},1651463453,0
{consumergroup=__strimzi-topic-operator-kstreams},1651463458,0
{consumergroup=__strimzi-topic-operator-kstreams},1651463463,0
{consumergroup=__strimzi-topic-operator-kstreams},1651463468,0
{consumergroup=__strimzi-topic-operator-kstreams},1651463473,0
{consumergroup=__strimzi-topic-operator-kstreams},1651463478,0
{consumergroup=__strimzi-topic-operator-kstreams},1651463483,0
{consumergroup=__strimzi-topic-operator-kstreams},1651463488,0
{consumergroup=__strimzi-topic-operator-kstreams},1651463493,0
{consumergroup=__strimzi-topic-operator-kstreams},1651463498,0
{consumergroup=__strimzi-topic-operator-kstreams},1651463503,0
{consumergroup=__strimzi-topic-operator-kstreams},1651463508,0
{consumergroup=__strimzi-topic-operator-kstreams},1651463513,0
{consumergroup=__strimzi-topic-operator-kstreams},1651463518,0
{consumergroup=__strimzi-topic-operator-kstreams},1651463523,0
{consumergroup=__strimzi-topic-operator-kstreams},1651463528,0
{consumergroup=__strimzi-topic-operator-kstreams},1651463533,0
{consumergroup=__strimzi-topic-operator-kstreams},1651463538,0
{consumergroup=__strimzi-topic-operator-kstreams},1651463543,0
{consumergroup=__strimzi-topic-operator-kstreams},1651463548,0
{consumergroup=__strimzi-topic-operator-kstreams},1651463553,0
{consumergroup=__strimzi-topic-operator-kstreams},1651463558,0
{consumergroup=__strimzi-topic-operator-kstreams},1651463563,0
{consumergroup=__strimzi-topic-operator-kstreams},1651463568,0
{consumergroup=__strimzi-topic-operator-kstreams},1651463573,0
{consumergroup=__strimzi-topic-operator-kstreams},1651463578,0
{consumergroup=__strimzi-topic-operator-kstreams},1651463583,0
{consumergroup=__strimzi-topic-operator-kstreams},1651463588,0
{consumergroup=__strimzi-topic-operator-kstreams},1651463593,0
{consumergroup=__strimzi-topic-operator-kstreams},1651463598,0
{consumergroup=__strimzi-topic-operator-kstreams},1651463603,0
{consumergroup=__strimzi-topic-operator-kstreams},1651463608,0
{consumergroup=__strimzi-topic-operator-kstreams},1651463613,0
{consumergroup=__strimzi-topic-operator-kstreams},1651463618,0
{consumergroup=__strimzi-topic-operator-kstreams},1651463623,0
{consumergroup=__strimzi-topic-operator-kstreams},1651463628,0
{consumergroup=__strimzi-topic-operator-kstreams},1651463633,0
{consumergroup=__strimzi-topic-operator-kstreams},1651463638,0
{consumergroup=__strimzi-topic-operator-kstreams},1651463643,0
{consumergroup=__strimzi-topic-operator-kstreams},1651463648,0
{consumergroup=__strimzi-topic-operator-kstreams},1651463653,0
{consumergroup=__strimzi-topic-operator-kstreams},1651463658,0
{consumergroup=__strimzi-topic-operator-kstreams},1651463663,0
{consumergroup=__strimzi-topic-operator-kstreams},1651463668,0
{consumergroup=__strimzi-topic-operator-kstreams},1651463673,0
{consumergroup=__strimzi-topic-operator-kstreams},1651463678,0
{consumergroup=__strimzi-topic-operator-kstreams},1651463683,0
{consumergroup=__strimzi-topic-operator-kstreams},1651463688,0
{consumergroup=__strimzi-topic-operator-kstreams},1651463693,0
{consumergroup=__strimzi-topic-operator-kstreams},1651463698,0
{consumergroup=__strimzi-topic-operator-kstreams},1651463703,0
{consumergroup=__strimzi-topic-operator-kstreams},1651463708,0
{consumergroup=__strimzi-topic-operator-kstreams},1651463713,0
{consumergroup=__strimzi-topic-operator-kstreams},1651463718,0
{consumergroup=__strimzi-topic-operator-kstreams},1651463723,0
{consumergroup=__strimzi-topic-operator-kstreams},1651463728,0
{consumergroup=__strimzi-topic-operator-kstreams},1651463733,0
{consumergroup=__strimzi-topic-operator-kstreams},1651463738,0
{consumergroup=__strimzi-topic-operator-kstreams},1651463743,0
{consumergroup=__strimzi-topic-operator-kstreams},1651463748,0
{consumergroup=__strimzi-topic-operator-kstreams},1651463753,0
{consumergroup=__strimzi-topic-operator-kstreams},1651463758,0
{consumergroup=__strimzi-topic-operator-kstreams},1651463763,0
{consumergroup=__strimzi-topic-operator-kstreams},1651463768,0
{consumergroup=__strimzi-topic-operator-kstreams},1651463773,0
{consumergroup=__strimzi-topic-operator-kstreams},1651463778,0
{consumergroup=__strimzi-topic-operator-kstreams},1651463783,0
{consumergroup=__strimzi-topic-operator-kstreams},1651463788,0
{consumergroup=__strimzi-topic-operator-kstreams},1651463793,0
{consumergroup=__strimzi-topic-operator-kstreams},1651463798,0
{consumergroup=__strimzi-topic-operator-kstreams},1651463803,0
{consumergroup=__strimzi-topic-operator-kstreams},1651463808,0
{consumergroup=__strimzi-topic-operator-kstreams},1651463813,0
{consumergroup=__strimzi-topic-operator-kstreams},1651463818,0
{consumergroup=__strimzi-topic-operator-kstreams},1651463823,0
{consumergroup=__strimzi-topic-operator-kstreams},1651463828,0
{consumergroup=trace-service},1651463428,13059
{consumergroup=trace-service},1651463433,13059
{consumergroup=trace-service},1651463438,13059
{consumergroup=trace-service},1651463443,46470
{consumergroup=trace-service},1651463448,46470
{consumergroup=trace-service},1651463453,46470
{consumergroup=trace-service},1651463458,25751
{consumergroup=trace-service},1651463463,25751
{consumergroup=trace-service},1651463468,25751
{consumergroup=trace-service},1651463473,38338
{consumergroup=trace-service},1651463478,38338
{consumergroup=trace-service},1651463483,38338
{consumergroup=trace-service},1651463488,11118
{consumergroup=trace-service},1651463493,11118
{consumergroup=trace-service},1651463498,11118
{consumergroup=trace-service},1651463503,44482
{consumergroup=trace-service},1651463508,44482
{consumergroup=trace-service},1651463513,44482
{consumergroup=trace-service},1651463518,7658
{consumergroup=trace-service},1651463523,7658
{consumergroup=trace-service},1651463528,7658
{consumergroup=trace-service},1651463533,40723
{consumergroup=trace-service},1651463538,40723
{consumergroup=trace-service},1651463543,40723
{consumergroup=trace-service},1651463548,9338
{consumergroup=trace-service},1651463553,9338
{consumergroup=trace-service},1651463558,9338
{consumergroup=trace-service},1651463563,40749
{consumergroup=trace-service},1651463568,40749
{consumergroup=trace-service},1651463573,40749
{consumergroup=trace-service},1651463578,14160
{consumergroup=trace-service},1651463583,14160
{consumergroup=trace-service},1651463588,14160
{consumergroup=trace-service},1651463593,34118
{consumergroup=trace-service},1651463598,34118
{consumergroup=trace-service},1651463603,34118
{consumergroup=trace-service},1651463608,9315
{consumergroup=trace-service},1651463613,9315
{consumergroup=trace-service},1651463618,9315
{consumergroup=trace-service},1651463623,48278
{consumergroup=trace-service},1651463628,48278
{consumergroup=trace-service},1651463633,48278
{consumergroup=trace-service},1651463638,11315
{consumergroup=trace-service},1651463643,11315
{consumergroup=trace-service},1651463648,11315
{consumergroup=trace-service},1651463653,44148
{consumergroup=trace-service},1651463658,44148
{consumergroup=trace-service},1651463663,44148
{consumergroup=trace-service},1651463668,19303
{consumergroup=trace-service},1651463673,19303
{consumergroup=trace-service},1651463678,19303
{consumergroup=trace-service},1651463683,43724
{consumergroup=trace-service},1651463688,43724
{consumergroup=trace-service},1651463693,43724
{consumergroup=trace-service},1651463698,7451
{consumergroup=trace-service},1651463703,7451
{consumergroup=trace-service},1651463708,7451
{consumergroup=trace-service},1651463713,46083
{consumergroup=trace-service},1651463718,46083
{consumergroup=trace-service},1651463723,46083
{consumergroup=trace-service},1651463728,9251
{consumergroup=trace-service},1651463733,9251
{consumergroup=trace-service},1651463738,9251
{consumergroup=trace-service},1651463743,49540
{consumergroup=trace-service},1651463748,49540
{consumergroup=trace-service},1651463753,49540
{consumergroup=trace-service},1651463758,23933
{consumergroup=trace-service},1651463763,23933
{consumergroup=trace-service},1651463768,23933
{consumergroup=trace-service},1651463773,40505
{consumergroup=trace-service},1651463778,40505
{consumergroup=trace-service},1651463783,40505
{consumergroup=trace-service},1651463788,12781
{consumergroup=trace-service},1651463793,12781
{consumergroup=trace-service},1651463798,12781
{consumergroup=trace-service},1651463803,44198
{consumergroup=trace-service},1651463808,44198
{consumergroup=trace-service},1651463813,44198
{consumergroup=trace-service},1651463818,15516
{consumergroup=trace-service},1651463823,15516
{consumergroup=trace-service},1651463828,15516
{consumergroup=trace-token-events-consumer},1651463413,0
{consumergroup=trace-token-events-consumer},1651463418,0
{consumergroup=trace-token-events-consumer},1651463423,0
{consumergroup=trace-token-events-consumer},1651463428,0
{consumergroup=trace-token-events-consumer},1651463433,0
{consumergroup=trace-token-events-consumer},1651463438,0
{consumergroup=trace-token-events-consumer},1651463443,0
{consumergroup=trace-token-events-consumer},1651463448,0
{consumergroup=trace-token-events-consumer},1651463453,0
{consumergroup=trace-token-events-consumer},1651463458,0
{consumergroup=trace-token-events-consumer},1651463463,0
{consumergroup=trace-token-events-consumer},1651463468,0
{consumergroup=trace-token-events-consumer},1651463473,0
{consumergroup=trace-token-events-consumer},1651463478,0
{consumergroup=trace-token-events-consumer},1651463483,0
{consumergroup=trace-token-events-consumer},1651463488,0
{consumergroup=trace-token-events-consumer},1651463493,0
{consumergroup=trace-token-events-consumer},1651463498,0
{consumergroup=trace-token-events-consumer},1651463503,0
{consumergroup=trace-token-events-consumer},1651463508,0
{consumergroup=trace-token-events-consumer},1651463513,0
{consumergroup=trace-token-events-consumer},1651463518,0
{consumergroup=trace-token-events-consumer},1651463523,0
{consumergroup=trace-token-events-consumer},1651463528,0
{consumergroup=trace-token-events-consumer},1651463533,0
{consumergroup=trace-token-events-consumer},1651463538,0
{consumergroup=trace-token-events-consumer},1651463543,0
{consumergroup=trace-token-events-consumer},1651463548,0
{consumergroup=trace-token-events-consumer},1651463553,0
{consumergroup=trace-token-events-consumer},1651463558,0
{consumergroup=trace-token-events-consumer},1651463563,0
{consumergroup=trace-token-events-consumer},1651463568,0
{consumergroup=trace-token-events-consumer},1651463573,0
{consumergroup=trace-token-events-consumer},1651463578,0
{consumergroup=trace-token-events-consumer},1651463583,0
{consumergroup=trace-token-events-consumer},1651463588,0
{consumergroup=trace-token-events-consumer},1651463593,0
{consumergroup=trace-token-events-consumer},1651463598,0
{consumergroup=trace-token-events-consumer},1651463603,0
{consumergroup=trace-token-events-consumer},1651463608,0
{consumergroup=trace-token-events-consumer},1651463613,0
{consumergroup=trace-token-events-consumer},1651463618,0
{consumergroup=trace-token-events-consumer},1651463623,0
{consumergroup=trace-token-events-consumer},1651463628,0
{consumergroup=trace-token-events-consumer},1651463633,0
{consumergroup=trace-token-events-consumer},1651463638,0
{consumergroup=trace-token-events-consumer},1651463643,0
{consumergroup=trace-token-events-consumer},1651463648,0
{consumergroup=trace-token-events-consumer},1651463653,0
{consumergroup=trace-token-events-consumer},1651463658,0
{consumergroup=trace-token-events-consumer},1651463663,0
{consumergroup=trace-token-events-consumer},1651463668,0
{consumergroup=trace-token-events-consumer},1651463673,0
{consumergroup=trace-token-events-consumer},1651463678,0
{consumergroup=trace-token-events-consumer},1651463683,0
{consumergroup=trace-token-events-consumer},1651463688,0
{consumergroup=trace-token-events-consumer},1651463693,0
{consumergroup=trace-token-events-consumer},1651463698,0
{consumergroup=trace-token-events-consumer},1651463703,0
{consumergroup=trace-token-events-consumer},1651463708,0
{consumergroup=trace-token-events-consumer},1651463713,0
{consumergroup=trace-token-events-consumer},1651463718,0
{consumergroup=trace-token-events-consumer},1651463723,0
{consumergroup=trace-token-events-consumer},1651463728,0
{consumergroup=trace-token-events-consumer},1651463733,0
{consumergroup=trace-token-events-consumer},1651463738,0
{consumergroup=trace-token-events-consumer},1651463743,0
{consumergroup=trace-token-events-consumer},1651463748,0
{consumergroup=trace-token-events-consumer},1651463753,0
{consumergroup=trace-token-events-consumer},1651463758,0
{consumergroup=trace-token-events-consumer},1651463763,0
{consumergroup=trace-token-events-consumer},1651463768,0
{consumergroup=trace-token-events-consumer},1651463773,0
{consumergroup=trace-token-events-consumer},1651463778,0
{consumergroup=trace-token-events-consumer},1651463783,0
{consumergroup=trace-token-events-consumer},1651463788,0
{consumergroup=trace-token-events-consumer},1651463793,0
{consumergroup=trace-token-events-consumer},1651463798,0
{consumergroup=trace-token-events-consumer},1651463803,0
{consumergroup=trace-token-events-consumer},1651463808,0
{consumergroup=trace-token-events-consumer},1651463813,0
{consumergroup=trace-token-events-consumer},1651463818,0
{consumergroup=trace-token-events-consumer},1651463823,0
{consumergroup=trace-token-events-consumer},1651463828,0
