labels,timestamp,value
{consumergroup=__strimzi-topic-operator-kstreams},1651447684,11
{consumergroup=__strimzi-topic-operator-kstreams},1651447689,11
{consumergroup=__strimzi-topic-operator-kstreams},1651447694,11
{consumergroup=__strimzi-topic-operator-kstreams},1651447699,0
{consumergroup=__strimzi-topic-operator-kstreams},1651447704,0
{consumergroup=__strimzi-topic-operator-kstreams},1651447709,0
{consumergroup=__strimzi-topic-operator-kstreams},1651447714,0
{consumergroup=__strimzi-topic-operator-kstreams},1651447719,0
{consumergroup=__strimzi-topic-operator-kstreams},1651447724,0
{consumergroup=__strimzi-topic-operator-kstreams},1651447729,0
{consumergroup=__strimzi-topic-operator-kstreams},1651447734,0
{consumergroup=__strimzi-topic-operator-kstreams},1651447739,0
{consumergroup=__strimzi-topic-operator-kstreams},1651447744,0
{consumergroup=__strimzi-topic-operator-kstreams},1651447749,0
{consumergroup=__strimzi-topic-operator-kstreams},1651447754,0
{consumergroup=__strimzi-topic-operator-kstreams},1651447759,0
{consumergroup=__strimzi-topic-operator-kstreams},1651447764,0
{consumergroup=__strimzi-topic-operator-kstreams},1651447769,0
{consumergroup=__strimzi-topic-operator-kstreams},1651447774,0
{consumergroup=__strimzi-topic-operator-kstreams},1651447779,0
{consumergroup=__strimzi-topic-operator-kstreams},1651447784,0
{consumergroup=__strimzi-topic-operator-kstreams},1651447789,0
{consumergroup=__strimzi-topic-operator-kstreams},1651447794,0
{consumergroup=__strimzi-topic-operator-kstreams},1651447799,0
{consumergroup=__strimzi-topic-operator-kstreams},1651447804,0
{consumergroup=__strimzi-topic-operator-kstreams},1651447809,0
{consumergroup=__strimzi-topic-operator-kstreams},1651447814,0
{consumergroup=__strimzi-topic-operator-kstreams},1651447819,0
{consumergroup=__strimzi-topic-operator-kstreams},1651447824,0
{consumergroup=__strimzi-topic-operator-kstreams},1651447829,0
{consumergroup=__strimzi-topic-operator-kstreams},1651447834,0
{consumergroup=__strimzi-topic-operator-kstreams},1651447839,0
{consumergroup=__strimzi-topic-operator-kstreams},1651447844,0
{consumergroup=__strimzi-topic-operator-kstreams},1651447849,0
{consumergroup=__strimzi-topic-operator-kstreams},1651447854,0
{consumergroup=__strimzi-topic-operator-kstreams},1651447859,0
{consumergroup=__strimzi-topic-operator-kstreams},1651447864,0
{consumergroup=__strimzi-topic-operator-kstreams},1651447869,0
{consumergroup=__strimzi-topic-operator-kstreams},1651447874,0
{consumergroup=__strimzi-topic-operator-kstreams},1651447879,0
{consumergroup=__strimzi-topic-operator-kstreams},1651447884,0
{consumergroup=__strimzi-topic-operator-kstreams},1651447889,0
{consumergroup=__strimzi-topic-operator-kstreams},1651447894,0
{consumergroup=__strimzi-topic-operator-kstreams},1651447899,0
{consumergroup=__strimzi-topic-operator-kstreams},1651447904,0
{consumergroup=__strimzi-topic-operator-kstreams},1651447909,0
{consumergroup=__strimzi-topic-operator-kstreams},1651447914,0
{consumergroup=__strimzi-topic-operator-kstreams},1651447919,0
{consumergroup=__strimzi-topic-operator-kstreams},1651447924,0
{consumergroup=__strimzi-topic-operator-kstreams},1651447929,0
{consumergroup=__strimzi-topic-operator-kstreams},1651447934,0
{consumergroup=__strimzi-topic-operator-kstreams},1651447939,0
{consumergroup=adapter-service},1651447714,49946
{consumergroup=adapter-service},1651447719,49946
{consumergroup=adapter-service},1651447724,49946
{consumergroup=adapter-service},1651447729,209226
{consumergroup=adapter-service},1651447734,209226
{consumergroup=adapter-service},1651447739,209226
{consumergroup=adapter-service},1651447744,333978
{consumergroup=adapter-service},1651447749,333978
{consumergroup=adapter-service},1651447754,333978
{consumergroup=adapter-service},1651447759,415898
{consumergroup=adapter-service},1651447764,415898
{consumergroup=adapter-service},1651447769,415898
{consumergroup=adapter-service},1651447774,513126
{consumergroup=adapter-service},1651447779,513126
{consumergroup=adapter-service},1651447784,513126
{consumergroup=adapter-service},1651447789,584591
{consumergroup=adapter-service},1651447794,584591
{consumergroup=adapter-service},1651447799,584591
{consumergroup=adapter-service},1651447804,652504
{consumergroup=adapter-service},1651447809,652504
{consumergroup=adapter-service},1651447814,652504
{consumergroup=adapter-service},1651447819,698922
{consumergroup=adapter-service},1651447824,698922
{consumergroup=adapter-service},1651447829,698922
{consumergroup=adapter-service},1651447834,710608
{consumergroup=adapter-service},1651447839,710608
{consumergroup=adapter-service},1651447844,710608
{consumergroup=adapter-service},1651447849,701853
{consumergroup=adapter-service},1651447854,701853
{consumergroup=adapter-service},1651447859,701853
{consumergroup=adapter-service},1651447864,709360
{consumergroup=adapter-service},1651447869,709360
{consumergroup=adapter-service},1651447874,709360
{consumergroup=adapter-service},1651447879,714983
{consumergroup=adapter-service},1651447884,714983
{consumergroup=adapter-service},1651447889,714983
{consumergroup=adapter-service},1651447894,697824
{consumergroup=adapter-service},1651447899,697824
{consumergroup=adapter-service},1651447904,697824
{consumergroup=adapter-service},1651447909,699655
{consumergroup=adapter-service},1651447914,699655
{consumergroup=adapter-service},1651447919,699655
{consumergroup=adapter-service},1651447924,680399
{consumergroup=adapter-service},1651447929,680399
{consumergroup=adapter-service},1651447934,680399
{consumergroup=adapter-service},1651447939,670099
