labels,timestamp,value
{job=theodolite-stu200776/combined-trace-podmonitor},1651533320,0
{job=theodolite-stu200776/combined-trace-podmonitor},1651533325,0
{job=theodolite-stu200776/combined-trace-podmonitor},1651533330,0
{job=theodolite-stu200776/combined-trace-podmonitor},1651533335,0
{job=theodolite-stu200776/combined-trace-podmonitor},1651533340,0
{job=theodolite-stu200776/combined-trace-podmonitor},1651533345,0
{job=theodolite-stu200776/combined-trace-podmonitor},1651533350,0
{job=theodolite-stu200776/combined-trace-podmonitor},1651533355,0
{job=theodolite-stu200776/combined-trace-podmonitor},1651533360,0
{job=theodolite-stu200776/combined-trace-podmonitor},1651533365,0
{job=theodolite-stu200776/combined-trace-podmonitor},1651533370,0
{job=theodolite-stu200776/combined-trace-podmonitor},1651533375,0
{job=theodolite-stu200776/combined-trace-podmonitor},1651533380,0
{job=theodolite-stu200776/combined-trace-podmonitor},1651533385,0
{job=theodolite-stu200776/combined-trace-podmonitor},1651533390,0
{job=theodolite-stu200776/combined-trace-podmonitor},1651533395,0
{job=theodolite-stu200776/combined-trace-podmonitor},1651533400,0
{job=theodolite-stu200776/combined-trace-podmonitor},1651533405,0
{job=theodolite-stu200776/combined-trace-podmonitor},1651533410,0
{job=theodolite-stu200776/combined-trace-podmonitor},1651533415,0
{job=theodolite-stu200776/combined-trace-podmonitor},1651533420,0
{job=theodolite-stu200776/combined-trace-podmonitor},1651533425,0
{job=theodolite-stu200776/combined-trace-podmonitor},1651533430,0
{job=theodolite-stu200776/combined-trace-podmonitor},1651533435,0
{job=theodolite-stu200776/combined-trace-podmonitor},1651533440,0
{job=theodolite-stu200776/combined-trace-podmonitor},1651533445,0
{job=theodolite-stu200776/combined-trace-podmonitor},1651533450,0
{job=theodolite-stu200776/combined-trace-podmonitor},1651533455,0
{job=theodolite-stu200776/combined-trace-podmonitor},1651533460,0
{job=theodolite-stu200776/combined-trace-podmonitor},1651533465,0
{job=theodolite-stu200776/combined-trace-podmonitor},1651533470,0
{job=theodolite-stu200776/combined-trace-podmonitor},1651533475,0
{job=theodolite-stu200776/combined-trace-podmonitor},1651533480,0
{job=theodolite-stu200776/combined-trace-podmonitor},1651533485,0
{job=theodolite-stu200776/combined-trace-podmonitor},1651533490,0
{job=theodolite-stu200776/combined-trace-podmonitor},1651533495,0
{job=theodolite-stu200776/combined-trace-podmonitor},1651533500,0
{job=theodolite-stu200776/combined-trace-podmonitor},1651533505,0
{job=theodolite-stu200776/combined-trace-podmonitor},1651533510,0
{job=theodolite-stu200776/combined-trace-podmonitor},1651533515,0
{job=theodolite-stu200776/combined-trace-podmonitor},1651533520,0
{job=theodolite-stu200776/combined-trace-podmonitor},1651533525,0
{job=theodolite-stu200776/combined-trace-podmonitor},1651533530,0
{job=theodolite-stu200776/combined-trace-podmonitor},1651533535,0
{job=theodolite-stu200776/combined-trace-podmonitor},1651533540,0
{job=theodolite-stu200776/combined-trace-podmonitor},1651533545,0
{job=theodolite-stu200776/combined-trace-podmonitor},1651533550,0
{job=theodolite-stu200776/combined-trace-podmonitor},1651533555,0
{job=theodolite-stu200776/combined-trace-podmonitor},1651533560,0
{job=theodolite-stu200776/combined-trace-podmonitor},1651533565,0
{job=theodolite-stu200776/combined-trace-podmonitor},1651533570,0
{job=theodolite-stu200776/combined-trace-podmonitor},1651533575,0
{job=theodolite-stu200776/combined-trace-podmonitor},1651533580,0
{job=theodolite-stu200776/combined-trace-podmonitor},1651533585,0
{job=theodolite-stu200776/combined-trace-podmonitor},1651533590,0
{job=theodolite-stu200776/combined-trace-podmonitor},1651533595,0
{job=theodolite-stu200776/combined-trace-podmonitor},1651533600,0
{job=theodolite-stu200776/combined-trace-podmonitor},1651533605,0
{job=theodolite-stu200776/combined-trace-podmonitor},1651533610,0
{job=theodolite-stu200776/combined-trace-podmonitor},1651533615,0
{job=theodolite-stu200776/combined-trace-podmonitor},1651533620,0
{job=theodolite-stu200776/combined-trace-podmonitor},1651533625,0
{job=theodolite-stu200776/combined-trace-podmonitor},1651533630,0
{job=theodolite-stu200776/combined-trace-podmonitor},1651533635,0
{job=theodolite-stu200776/combined-trace-podmonitor},1651533640,0
{job=theodolite-stu200776/combined-trace-podmonitor},1651533645,0
{job=theodolite-stu200776/combined-trace-podmonitor},1651533650,0
{job=theodolite-stu200776/combined-trace-podmonitor},1651533655,0
{job=theodolite-stu200776/combined-trace-podmonitor},1651533660,0
{job=theodolite-stu200776/combined-trace-podmonitor},1651533665,0
{job=theodolite-stu200776/combined-trace-podmonitor},1651533670,0
{job=theodolite-stu200776/combined-trace-podmonitor},1651533675,0
{job=theodolite-stu200776/combined-trace-podmonitor},1651533680,0
{job=theodolite-stu200776/combined-trace-podmonitor},1651533685,0
{job=theodolite-stu200776/combined-trace-podmonitor},1651533690,0
{job=theodolite-stu200776/combined-trace-podmonitor},1651533695,0
