labels,timestamp,value
{job=theodolite-stu200776/trace-isolated-podmonitor},1651516309,0
{job=theodolite-stu200776/trace-isolated-podmonitor},1651516314,0
{job=theodolite-stu200776/trace-isolated-podmonitor},1651516319,0
{job=theodolite-stu200776/trace-isolated-podmonitor},1651516324,0
{job=theodolite-stu200776/trace-isolated-podmonitor},1651516329,0
{job=theodolite-stu200776/trace-isolated-podmonitor},1651516334,0
{job=theodolite-stu200776/trace-isolated-podmonitor},1651516339,0
{job=theodolite-stu200776/trace-isolated-podmonitor},1651516344,0
{job=theodolite-stu200776/trace-isolated-podmonitor},1651516349,0
{job=theodolite-stu200776/trace-isolated-podmonitor},1651516354,0
{job=theodolite-stu200776/trace-isolated-podmonitor},1651516359,0
{job=theodolite-stu200776/trace-isolated-podmonitor},1651516364,0
{job=theodolite-stu200776/trace-isolated-podmonitor},1651516369,0
{job=theodolite-stu200776/trace-isolated-podmonitor},1651516374,0
{job=theodolite-stu200776/trace-isolated-podmonitor},1651516379,0
{job=theodolite-stu200776/trace-isolated-podmonitor},1651516384,0
{job=theodolite-stu200776/trace-isolated-podmonitor},1651516389,0
{job=theodolite-stu200776/trace-isolated-podmonitor},1651516394,0
{job=theodolite-stu200776/trace-isolated-podmonitor},1651516399,0
{job=theodolite-stu200776/trace-isolated-podmonitor},1651516404,0
{job=theodolite-stu200776/trace-isolated-podmonitor},1651516409,0
{job=theodolite-stu200776/trace-isolated-podmonitor},1651516414,0
{job=theodolite-stu200776/trace-isolated-podmonitor},1651516419,0
{job=theodolite-stu200776/trace-isolated-podmonitor},1651516424,0
{job=theodolite-stu200776/trace-isolated-podmonitor},1651516429,0
{job=theodolite-stu200776/trace-isolated-podmonitor},1651516434,0
{job=theodolite-stu200776/trace-isolated-podmonitor},1651516439,0
{job=theodolite-stu200776/trace-isolated-podmonitor},1651516444,0
{job=theodolite-stu200776/trace-isolated-podmonitor},1651516449,0
{job=theodolite-stu200776/trace-isolated-podmonitor},1651516454,0
{job=theodolite-stu200776/trace-isolated-podmonitor},1651516459,0
{job=theodolite-stu200776/trace-isolated-podmonitor},1651516464,0
{job=theodolite-stu200776/trace-isolated-podmonitor},1651516469,0
{job=theodolite-stu200776/trace-isolated-podmonitor},1651516474,0
{job=theodolite-stu200776/trace-isolated-podmonitor},1651516479,0
{job=theodolite-stu200776/trace-isolated-podmonitor},1651516484,0
{job=theodolite-stu200776/trace-isolated-podmonitor},1651516489,0
{job=theodolite-stu200776/trace-isolated-podmonitor},1651516494,0
{job=theodolite-stu200776/trace-isolated-podmonitor},1651516499,0
{job=theodolite-stu200776/trace-isolated-podmonitor},1651516504,0
{job=theodolite-stu200776/trace-isolated-podmonitor},1651516509,0
{job=theodolite-stu200776/trace-isolated-podmonitor},1651516514,0
{job=theodolite-stu200776/trace-isolated-podmonitor},1651516519,0
{job=theodolite-stu200776/trace-isolated-podmonitor},1651516524,0
{job=theodolite-stu200776/trace-isolated-podmonitor},1651516529,0
{job=theodolite-stu200776/trace-isolated-podmonitor},1651516534,0
{job=theodolite-stu200776/trace-isolated-podmonitor},1651516539,0
{job=theodolite-stu200776/trace-isolated-podmonitor},1651516544,0
{job=theodolite-stu200776/trace-isolated-podmonitor},1651516549,0
{job=theodolite-stu200776/trace-isolated-podmonitor},1651516554,0
{job=theodolite-stu200776/trace-isolated-podmonitor},1651516559,0
{job=theodolite-stu200776/trace-isolated-podmonitor},1651516564,0
{job=theodolite-stu200776/trace-isolated-podmonitor},1651516569,0
{job=theodolite-stu200776/trace-isolated-podmonitor},1651516574,0
{job=theodolite-stu200776/trace-isolated-podmonitor},1651516579,0
{job=theodolite-stu200776/trace-isolated-podmonitor},1651516584,0
{job=theodolite-stu200776/trace-isolated-podmonitor},1651516589,0
{job=theodolite-stu200776/trace-isolated-podmonitor},1651516594,0
{job=theodolite-stu200776/trace-isolated-podmonitor},1651516599,0
{job=theodolite-stu200776/trace-isolated-podmonitor},1651516604,0
{job=theodolite-stu200776/trace-isolated-podmonitor},1651516609,0
{job=theodolite-stu200776/trace-isolated-podmonitor},1651516614,0
{job=theodolite-stu200776/trace-isolated-podmonitor},1651516619,0
{job=theodolite-stu200776/trace-isolated-podmonitor},1651516624,0
{job=theodolite-stu200776/trace-isolated-podmonitor},1651516629,0
{job=theodolite-stu200776/trace-isolated-podmonitor},1651516634,0
{job=theodolite-stu200776/trace-isolated-podmonitor},1651516639,0
{job=theodolite-stu200776/trace-isolated-podmonitor},1651516644,0
{job=theodolite-stu200776/trace-isolated-podmonitor},1651516649,0
{job=theodolite-stu200776/trace-isolated-podmonitor},1651516654,0
{job=theodolite-stu200776/trace-isolated-podmonitor},1651516659,0
{job=theodolite-stu200776/trace-isolated-podmonitor},1651516664,0
{job=theodolite-stu200776/trace-isolated-podmonitor},1651516669,0
{job=theodolite-stu200776/trace-isolated-podmonitor},1651516674,0
{job=theodolite-stu200776/trace-isolated-podmonitor},1651516679,0
{job=theodolite-stu200776/trace-isolated-podmonitor},1651516684,0
