labels,timestamp,value
{consumergroup=__strimzi-topic-operator-kstreams},1651444458,0
{consumergroup=__strimzi-topic-operator-kstreams},1651444463,0
{consumergroup=__strimzi-topic-operator-kstreams},1651444468,0
{consumergroup=__strimzi-topic-operator-kstreams},1651444473,0
{consumergroup=__strimzi-topic-operator-kstreams},1651444478,0
{consumergroup=__strimzi-topic-operator-kstreams},1651444483,0
{consumergroup=__strimzi-topic-operator-kstreams},1651444488,0
{consumergroup=__strimzi-topic-operator-kstreams},1651444493,0
{consumergroup=__strimzi-topic-operator-kstreams},1651444498,0
{consumergroup=__strimzi-topic-operator-kstreams},1651444503,0
{consumergroup=__strimzi-topic-operator-kstreams},1651444508,0
{consumergroup=__strimzi-topic-operator-kstreams},1651444513,0
{consumergroup=__strimzi-topic-operator-kstreams},1651444518,0
{consumergroup=__strimzi-topic-operator-kstreams},1651444523,0
{consumergroup=__strimzi-topic-operator-kstreams},1651444528,0
{consumergroup=__strimzi-topic-operator-kstreams},1651444533,0
{consumergroup=__strimzi-topic-operator-kstreams},1651444538,0
{consumergroup=__strimzi-topic-operator-kstreams},1651444543,0
{consumergroup=__strimzi-topic-operator-kstreams},1651444548,0
{consumergroup=__strimzi-topic-operator-kstreams},1651444553,0
{consumergroup=__strimzi-topic-operator-kstreams},1651444558,0
{consumergroup=__strimzi-topic-operator-kstreams},1651444563,0
{consumergroup=__strimzi-topic-operator-kstreams},1651444568,0
{consumergroup=__strimzi-topic-operator-kstreams},1651444573,0
{consumergroup=__strimzi-topic-operator-kstreams},1651444578,0
{consumergroup=__strimzi-topic-operator-kstreams},1651444583,0
{consumergroup=__strimzi-topic-operator-kstreams},1651444588,0
{consumergroup=__strimzi-topic-operator-kstreams},1651444593,0
{consumergroup=__strimzi-topic-operator-kstreams},1651444598,0
{consumergroup=__strimzi-topic-operator-kstreams},1651444603,0
{consumergroup=__strimzi-topic-operator-kstreams},1651444608,0
{consumergroup=__strimzi-topic-operator-kstreams},1651444613,0
{consumergroup=__strimzi-topic-operator-kstreams},1651444618,0
{consumergroup=__strimzi-topic-operator-kstreams},1651444623,0
{consumergroup=__strimzi-topic-operator-kstreams},1651444628,0
{consumergroup=__strimzi-topic-operator-kstreams},1651444633,0
{consumergroup=__strimzi-topic-operator-kstreams},1651444638,0
{consumergroup=__strimzi-topic-operator-kstreams},1651444643,0
{consumergroup=__strimzi-topic-operator-kstreams},1651444648,0
{consumergroup=__strimzi-topic-operator-kstreams},1651444653,0
{consumergroup=__strimzi-topic-operator-kstreams},1651444658,0
{consumergroup=__strimzi-topic-operator-kstreams},1651444663,0
{consumergroup=__strimzi-topic-operator-kstreams},1651444668,0
{consumergroup=__strimzi-topic-operator-kstreams},1651444673,0
{consumergroup=__strimzi-topic-operator-kstreams},1651444678,0
{consumergroup=__strimzi-topic-operator-kstreams},1651444683,0
{consumergroup=__strimzi-topic-operator-kstreams},1651444688,0
{consumergroup=__strimzi-topic-operator-kstreams},1651444693,0
{consumergroup=__strimzi-topic-operator-kstreams},1651444698,0
{consumergroup=__strimzi-topic-operator-kstreams},1651444703,0
{consumergroup=adapter-service},1651444488,88808
{consumergroup=adapter-service},1651444493,88808
{consumergroup=adapter-service},1651444498,88808
{consumergroup=adapter-service},1651444503,156588
{consumergroup=adapter-service},1651444508,156588
{consumergroup=adapter-service},1651444513,156588
{consumergroup=adapter-service},1651444518,218756
{consumergroup=adapter-service},1651444523,218756
{consumergroup=adapter-service},1651444528,218756
{consumergroup=adapter-service},1651444533,282105
{consumergroup=adapter-service},1651444538,282105
{consumergroup=adapter-service},1651444543,282105
{consumergroup=adapter-service},1651444548,334725
{consumergroup=adapter-service},1651444553,334725
{consumergroup=adapter-service},1651444558,334725
{consumergroup=adapter-service},1651444563,373662
{consumergroup=adapter-service},1651444568,373662
{consumergroup=adapter-service},1651444573,373662
{consumergroup=adapter-service},1651444578,410622
{consumergroup=adapter-service},1651444583,410622
{consumergroup=adapter-service},1651444588,410622
{consumergroup=adapter-service},1651444593,415337
{consumergroup=adapter-service},1651444598,415337
{consumergroup=adapter-service},1651444603,415337
{consumergroup=adapter-service},1651444608,418564
{consumergroup=adapter-service},1651444613,418564
{consumergroup=adapter-service},1651444618,418564
{consumergroup=adapter-service},1651444623,420066
{consumergroup=adapter-service},1651444628,420066
{consumergroup=adapter-service},1651444633,420066
{consumergroup=adapter-service},1651444638,412112
{consumergroup=adapter-service},1651444643,412112
{consumergroup=adapter-service},1651444648,412112
{consumergroup=adapter-service},1651444653,404060
{consumergroup=adapter-service},1651444658,404060
{consumergroup=adapter-service},1651444663,404060
{consumergroup=adapter-service},1651444668,394772
{consumergroup=adapter-service},1651444673,394772
{consumergroup=adapter-service},1651444678,394772
{consumergroup=adapter-service},1651444683,383060
{consumergroup=adapter-service},1651444688,383060
{consumergroup=adapter-service},1651444693,383060
{consumergroup=adapter-service},1651444698,374947
{consumergroup=adapter-service},1651444703,374947
