labels,timestamp,value
{consumergroup=__strimzi-topic-operator-kstreams},1651541601,8
{consumergroup=__strimzi-topic-operator-kstreams},1651541606,8
{consumergroup=__strimzi-topic-operator-kstreams},1651541611,8
{consumergroup=__strimzi-topic-operator-kstreams},1651541616,8
{consumergroup=__strimzi-topic-operator-kstreams},1651541621,8
{consumergroup=__strimzi-topic-operator-kstreams},1651541626,8
{consumergroup=__strimzi-topic-operator-kstreams},1651541631,0
{consumergroup=__strimzi-topic-operator-kstreams},1651541636,0
{consumergroup=__strimzi-topic-operator-kstreams},1651541641,0
{consumergroup=__strimzi-topic-operator-kstreams},1651541646,0
{consumergroup=__strimzi-topic-operator-kstreams},1651541651,0
{consumergroup=__strimzi-topic-operator-kstreams},1651541656,0
{consumergroup=__strimzi-topic-operator-kstreams},1651541661,0
{consumergroup=__strimzi-topic-operator-kstreams},1651541666,0
{consumergroup=__strimzi-topic-operator-kstreams},1651541671,0
{consumergroup=__strimzi-topic-operator-kstreams},1651541676,0
{consumergroup=__strimzi-topic-operator-kstreams},1651541681,0
{consumergroup=__strimzi-topic-operator-kstreams},1651541686,0
{consumergroup=__strimzi-topic-operator-kstreams},1651541691,0
{consumergroup=__strimzi-topic-operator-kstreams},1651541696,0
{consumergroup=__strimzi-topic-operator-kstreams},1651541701,0
{consumergroup=__strimzi-topic-operator-kstreams},1651541706,0
{consumergroup=__strimzi-topic-operator-kstreams},1651541711,0
{consumergroup=__strimzi-topic-operator-kstreams},1651541716,0
{consumergroup=__strimzi-topic-operator-kstreams},1651541721,0
{consumergroup=__strimzi-topic-operator-kstreams},1651541726,0
{consumergroup=__strimzi-topic-operator-kstreams},1651541731,0
{consumergroup=__strimzi-topic-operator-kstreams},1651541736,0
{consumergroup=__strimzi-topic-operator-kstreams},1651541741,0
{consumergroup=__strimzi-topic-operator-kstreams},1651541746,0
{consumergroup=__strimzi-topic-operator-kstreams},1651541751,0
{consumergroup=__strimzi-topic-operator-kstreams},1651541756,0
{consumergroup=__strimzi-topic-operator-kstreams},1651541761,0
{consumergroup=__strimzi-topic-operator-kstreams},1651541766,0
{consumergroup=__strimzi-topic-operator-kstreams},1651541771,0
{consumergroup=__strimzi-topic-operator-kstreams},1651541776,0
{consumergroup=__strimzi-topic-operator-kstreams},1651541781,0
{consumergroup=__strimzi-topic-operator-kstreams},1651541786,0
{consumergroup=__strimzi-topic-operator-kstreams},1651541791,0
{consumergroup=__strimzi-topic-operator-kstreams},1651541796,0
{consumergroup=__strimzi-topic-operator-kstreams},1651541801,0
{consumergroup=__strimzi-topic-operator-kstreams},1651541806,0
{consumergroup=__strimzi-topic-operator-kstreams},1651541811,0
{consumergroup=__strimzi-topic-operator-kstreams},1651541816,0
{consumergroup=__strimzi-topic-operator-kstreams},1651541821,0
{consumergroup=__strimzi-topic-operator-kstreams},1651541826,0
{consumergroup=__strimzi-topic-operator-kstreams},1651541831,0
{consumergroup=__strimzi-topic-operator-kstreams},1651541836,0
{consumergroup=__strimzi-topic-operator-kstreams},1651541841,0
{consumergroup=__strimzi-topic-operator-kstreams},1651541846,0
{consumergroup=__strimzi-topic-operator-kstreams},1651541851,0
{consumergroup=__strimzi-topic-operator-kstreams},1651541856,0
{consumergroup=__strimzi-topic-operator-kstreams},1651541861,0
{consumergroup=__strimzi-topic-operator-kstreams},1651541866,0
{consumergroup=__strimzi-topic-operator-kstreams},1651541871,0
{consumergroup=__strimzi-topic-operator-kstreams},1651541876,0
{consumergroup=__strimzi-topic-operator-kstreams},1651541881,0
{consumergroup=__strimzi-topic-operator-kstreams},1651541886,0
{consumergroup=__strimzi-topic-operator-kstreams},1651541891,0
{consumergroup=__strimzi-topic-operator-kstreams},1651541896,0
{consumergroup=__strimzi-topic-operator-kstreams},1651541901,0
{consumergroup=__strimzi-topic-operator-kstreams},1651541906,0
{consumergroup=__strimzi-topic-operator-kstreams},1651541911,0
{consumergroup=__strimzi-topic-operator-kstreams},1651541916,0
{consumergroup=__strimzi-topic-operator-kstreams},1651541921,0
{consumergroup=__strimzi-topic-operator-kstreams},1651541926,0
{consumergroup=__strimzi-topic-operator-kstreams},1651541931,0
{consumergroup=__strimzi-topic-operator-kstreams},1651541936,0
{consumergroup=__strimzi-topic-operator-kstreams},1651541941,0
{consumergroup=__strimzi-topic-operator-kstreams},1651541946,0
{consumergroup=__strimzi-topic-operator-kstreams},1651541951,0
{consumergroup=__strimzi-topic-operator-kstreams},1651541956,0
{consumergroup=__strimzi-topic-operator-kstreams},1651541961,0
{consumergroup=__strimzi-topic-operator-kstreams},1651541966,0
{consumergroup=__strimzi-topic-operator-kstreams},1651541971,0
{consumergroup=__strimzi-topic-operator-kstreams},1651541976,0
{consumergroup=__strimzi-topic-operator-kstreams},1651541981,0
{consumergroup=__strimzi-topic-operator-kstreams},1651541986,0
{consumergroup=__strimzi-topic-operator-kstreams},1651541991,0
{consumergroup=__strimzi-topic-operator-kstreams},1651541996,0
{consumergroup=__strimzi-topic-operator-kstreams},1651542001,0
{consumergroup=__strimzi-topic-operator-kstreams},1651542006,0
{consumergroup=__strimzi-topic-operator-kstreams},1651542011,0
{consumergroup=__strimzi-topic-operator-kstreams},1651542016,0
{consumergroup=__strimzi-topic-operator-kstreams},1651542021,0
{consumergroup=__strimzi-topic-operator-kstreams},1651542026,0
{consumergroup=__strimzi-topic-operator-kstreams},1651542031,0
{consumergroup=__strimzi-topic-operator-kstreams},1651542036,0
{consumergroup=__strimzi-topic-operator-kstreams},1651542041,0
{consumergroup=__strimzi-topic-operator-kstreams},1651542046,0
{consumergroup=adapter-service},1651541631,0
{consumergroup=adapter-service},1651541636,0
{consumergroup=adapter-service},1651541641,0
{consumergroup=adapter-service},1651541646,17470
{consumergroup=adapter-service},1651541651,17470
{consumergroup=adapter-service},1651541656,17470
{consumergroup=adapter-service},1651541661,12561
{consumergroup=adapter-service},1651541666,12561
{consumergroup=adapter-service},1651541671,12561
{consumergroup=adapter-service},1651541676,15650
{consumergroup=adapter-service},1651541681,15650
{consumergroup=adapter-service},1651541686,15650
{consumergroup=adapter-service},1651541691,10413
{consumergroup=adapter-service},1651541696,10413
{consumergroup=adapter-service},1651541701,10413
{consumergroup=adapter-service},1651541706,10045
{consumergroup=adapter-service},1651541711,10045
{consumergroup=adapter-service},1651541716,10045
{consumergroup=adapter-service},1651541721,14456
{consumergroup=adapter-service},1651541726,14456
{consumergroup=adapter-service},1651541731,14456
{consumergroup=adapter-service},1651541736,10382
{consumergroup=adapter-service},1651541741,10382
{consumergroup=adapter-service},1651541746,10382
{consumergroup=adapter-service},1651541751,9254
{consumergroup=adapter-service},1651541756,9254
{consumergroup=adapter-service},1651541761,9254
{consumergroup=adapter-service},1651541766,8882
{consumergroup=adapter-service},1651541771,8882
{consumergroup=adapter-service},1651541776,8882
{consumergroup=adapter-service},1651541781,8691
{consumergroup=adapter-service},1651541786,8691
{consumergroup=adapter-service},1651541791,8691
{consumergroup=adapter-service},1651541796,9582
{consumergroup=adapter-service},1651541801,9582
{consumergroup=adapter-service},1651541806,9582
{consumergroup=adapter-service},1651541811,8480
{consumergroup=adapter-service},1651541816,8480
{consumergroup=adapter-service},1651541821,8480
{consumergroup=adapter-service},1651541826,8201
{consumergroup=adapter-service},1651541831,8201
{consumergroup=adapter-service},1651541836,8201
{consumergroup=adapter-service},1651541841,9212
{consumergroup=adapter-service},1651541846,9212
{consumergroup=adapter-service},1651541851,9212
{consumergroup=adapter-service},1651541856,8760
{consumergroup=adapter-service},1651541861,8760
{consumergroup=adapter-service},1651541866,8760
{consumergroup=adapter-service},1651541871,8575
{consumergroup=adapter-service},1651541876,8575
{consumergroup=adapter-service},1651541881,8575
{consumergroup=adapter-service},1651541886,7219
{consumergroup=adapter-service},1651541891,7219
{consumergroup=adapter-service},1651541896,7219
{consumergroup=adapter-service},1651541901,7016
{consumergroup=adapter-service},1651541906,7016
{consumergroup=adapter-service},1651541911,7016
{consumergroup=adapter-service},1651541916,7934
{consumergroup=adapter-service},1651541921,7934
{consumergroup=adapter-service},1651541926,7934
{consumergroup=adapter-service},1651541931,7854
{consumergroup=adapter-service},1651541936,7854
{consumergroup=adapter-service},1651541941,7854
{consumergroup=adapter-service},1651541946,6420
{consumergroup=adapter-service},1651541951,6420
{consumergroup=adapter-service},1651541956,6420
{consumergroup=adapter-service},1651541961,6350
{consumergroup=adapter-service},1651541966,6350
{consumergroup=adapter-service},1651541971,6350
{consumergroup=adapter-service},1651541976,10695
{consumergroup=adapter-service},1651541981,10695
{consumergroup=adapter-service},1651541986,10695
{consumergroup=adapter-service},1651541991,5870
{consumergroup=adapter-service},1651541996,5870
{consumergroup=adapter-service},1651542001,5870
{consumergroup=adapter-service},1651542006,10141
{consumergroup=adapter-service},1651542011,10141
{consumergroup=adapter-service},1651542016,10141
{consumergroup=adapter-service},1651542021,5237
{consumergroup=adapter-service},1651542026,5237
{consumergroup=adapter-service},1651542031,5237
{consumergroup=adapter-service},1651542036,6292
{consumergroup=adapter-service},1651542041,6292
{consumergroup=adapter-service},1651542046,6292
{consumergroup=landscape-service},1651541646,42482
{consumergroup=landscape-service},1651541651,42482
{consumergroup=landscape-service},1651541656,42482
{consumergroup=landscape-service},1651541661,5301
{consumergroup=landscape-service},1651541666,5301
{consumergroup=landscape-service},1651541671,5301
{consumergroup=landscape-service},1651541676,10694
{consumergroup=landscape-service},1651541681,10694
{consumergroup=landscape-service},1651541686,10694
{consumergroup=landscape-service},1651541691,5179
{consumergroup=landscape-service},1651541696,5179
{consumergroup=landscape-service},1651541701,5179
{consumergroup=landscape-service},1651541706,3821
{consumergroup=landscape-service},1651541711,3821
{consumergroup=landscape-service},1651541716,3821
{consumergroup=landscape-service},1651541721,7760
{consumergroup=landscape-service},1651541726,7760
{consumergroup=landscape-service},1651541731,7760
{consumergroup=landscape-service},1651541736,1388
{consumergroup=landscape-service},1651541741,1388
{consumergroup=landscape-service},1651541746,1388
{consumergroup=landscape-service},1651541751,943
{consumergroup=landscape-service},1651541756,943
{consumergroup=landscape-service},1651541761,943
{consumergroup=landscape-service},1651541766,25437
{consumergroup=landscape-service},1651541771,25437
{consumergroup=landscape-service},1651541776,25437
{consumergroup=landscape-service},1651541781,23549
{consumergroup=landscape-service},1651541786,23549
{consumergroup=landscape-service},1651541791,23549
{consumergroup=landscape-service},1651541796,23960
{consumergroup=landscape-service},1651541801,23960
{consumergroup=landscape-service},1651541806,23960
{consumergroup=landscape-service},1651541811,22199
{consumergroup=landscape-service},1651541816,22199
{consumergroup=landscape-service},1651541821,22199
{consumergroup=landscape-service},1651541826,22635
{consumergroup=landscape-service},1651541831,22635
{consumergroup=landscape-service},1651541836,22635
{consumergroup=landscape-service},1651541841,20955
{consumergroup=landscape-service},1651541846,20955
{consumergroup=landscape-service},1651541851,20955
{consumergroup=landscape-service},1651541856,21323
{consumergroup=landscape-service},1651541861,21323
{consumergroup=landscape-service},1651541866,21323
{consumergroup=landscape-service},1651541871,19465
{consumergroup=landscape-service},1651541876,19465
{consumergroup=landscape-service},1651541881,19465
{consumergroup=landscape-service},1651541886,18936
{consumergroup=landscape-service},1651541891,18936
{consumergroup=landscape-service},1651541896,18936
{consumergroup=landscape-service},1651541901,18265
{consumergroup=landscape-service},1651541906,18265
{consumergroup=landscape-service},1651541911,18265
{consumergroup=landscape-service},1651541916,17527
{consumergroup=landscape-service},1651541921,17527
{consumergroup=landscape-service},1651541926,17527
{consumergroup=landscape-service},1651541931,17502
{consumergroup=landscape-service},1651541936,17502
{consumergroup=landscape-service},1651541941,17502
{consumergroup=landscape-service},1651541946,16446
{consumergroup=landscape-service},1651541951,16446
{consumergroup=landscape-service},1651541956,16446
{consumergroup=landscape-service},1651541961,16187
{consumergroup=landscape-service},1651541966,16187
{consumergroup=landscape-service},1651541971,16187
{consumergroup=landscape-service},1651541976,20014
{consumergroup=landscape-service},1651541981,20014
{consumergroup=landscape-service},1651541986,20014
{consumergroup=landscape-service},1651541991,13104
{consumergroup=landscape-service},1651541996,13104
{consumergroup=landscape-service},1651542001,13104
{consumergroup=landscape-service},1651542006,16997
{consumergroup=landscape-service},1651542011,16997
{consumergroup=landscape-service},1651542016,16997
{consumergroup=landscape-service},1651542021,13208
{consumergroup=landscape-service},1651542026,13208
{consumergroup=landscape-service},1651542031,13208
{consumergroup=landscape-service},1651542036,11275
{consumergroup=landscape-service},1651542041,11275
{consumergroup=landscape-service},1651542046,11275
{consumergroup=trace-service},1651541646,63911
{consumergroup=trace-service},1651541651,63911
{consumergroup=trace-service},1651541656,63911
{consumergroup=trace-service},1651541661,127373
{consumergroup=trace-service},1651541666,127373
{consumergroup=trace-service},1651541671,127373
{consumergroup=trace-service},1651541676,39583
{consumergroup=trace-service},1651541681,39583
{consumergroup=trace-service},1651541686,39583
{consumergroup=trace-service},1651541691,80748
{consumergroup=trace-service},1651541696,80748
{consumergroup=trace-service},1651541701,80748
{consumergroup=trace-service},1651541706,46933
{consumergroup=trace-service},1651541711,46933
{consumergroup=trace-service},1651541716,46933
{consumergroup=trace-service},1651541721,109065
{consumergroup=trace-service},1651541726,109065
{consumergroup=trace-service},1651541731,109065
{consumergroup=trace-service},1651541736,46065
{consumergroup=trace-service},1651541741,46065
{consumergroup=trace-service},1651541746,46065
{consumergroup=trace-service},1651541751,90339
{consumergroup=trace-service},1651541756,90339
{consumergroup=trace-service},1651541761,90339
{consumergroup=trace-service},1651541766,42331
{consumergroup=trace-service},1651541771,42331
{consumergroup=trace-service},1651541776,42331
{consumergroup=trace-service},1651541781,97798
{consumergroup=trace-service},1651541786,97798
{consumergroup=trace-service},1651541791,97798
{consumergroup=trace-service},1651541796,46081
{consumergroup=trace-service},1651541801,46081
{consumergroup=trace-service},1651541806,46081
{consumergroup=trace-service},1651541811,104063
{consumergroup=trace-service},1651541816,104063
{consumergroup=trace-service},1651541821,104063
{consumergroup=trace-service},1651541826,70949
{consumergroup=trace-service},1651541831,70949
{consumergroup=trace-service},1651541836,70949
{consumergroup=trace-service},1651541841,105262
{consumergroup=trace-service},1651541846,105262
{consumergroup=trace-service},1651541851,105262
{consumergroup=trace-service},1651541856,37097
{consumergroup=trace-service},1651541861,37097
{consumergroup=trace-service},1651541866,37097
{consumergroup=trace-service},1651541871,92098
{consumergroup=trace-service},1651541876,92098
{consumergroup=trace-service},1651541881,92098
{consumergroup=trace-service},1651541886,42306
{consumergroup=trace-service},1651541891,42306
{consumergroup=trace-service},1651541896,42306
{consumergroup=trace-service},1651541901,99560
{consumergroup=trace-service},1651541906,99560
{consumergroup=trace-service},1651541911,99560
{consumergroup=trace-service},1651541916,194266
{consumergroup=trace-service},1651541921,194266
{consumergroup=trace-service},1651541926,194266
{consumergroup=trace-service},1651541931,147358
{consumergroup=trace-service},1651541936,147358
{consumergroup=trace-service},1651541941,147358
{consumergroup=trace-service},1651541946,51598
{consumergroup=trace-service},1651541951,51598
{consumergroup=trace-service},1651541956,51598
{consumergroup=trace-service},1651541961,104373
{consumergroup=trace-service},1651541966,104373
{consumergroup=trace-service},1651541971,104373
{consumergroup=trace-service},1651541976,246974
{consumergroup=trace-service},1651541981,246974
{consumergroup=trace-service},1651541986,246974
{consumergroup=trace-service},1651541991,204831
{consumergroup=trace-service},1651541996,204831
{consumergroup=trace-service},1651542001,204831
{consumergroup=trace-service},1651542006,57843
{consumergroup=trace-service},1651542011,57843
{consumergroup=trace-service},1651542016,57843
{consumergroup=trace-service},1651542021,98487
{consumergroup=trace-service},1651542026,98487
{consumergroup=trace-service},1651542031,98487
{consumergroup=trace-service},1651542036,170025
{consumergroup=trace-service},1651542041,170025
{consumergroup=trace-service},1651542046,170025
{consumergroup=trace-token-events-consumer},1651541631,0
{consumergroup=trace-token-events-consumer},1651541636,0
{consumergroup=trace-token-events-consumer},1651541641,0
{consumergroup=trace-token-events-consumer},1651541646,0
{consumergroup=trace-token-events-consumer},1651541651,0
{consumergroup=trace-token-events-consumer},1651541656,0
{consumergroup=trace-token-events-consumer},1651541661,0
{consumergroup=trace-token-events-consumer},1651541666,0
{consumergroup=trace-token-events-consumer},1651541671,0
{consumergroup=trace-token-events-consumer},1651541676,0
{consumergroup=trace-token-events-consumer},1651541681,0
{consumergroup=trace-token-events-consumer},1651541686,0
{consumergroup=trace-token-events-consumer},1651541691,0
{consumergroup=trace-token-events-consumer},1651541696,0
{consumergroup=trace-token-events-consumer},1651541701,0
{consumergroup=trace-token-events-consumer},1651541706,0
{consumergroup=trace-token-events-consumer},1651541711,0
{consumergroup=trace-token-events-consumer},1651541716,0
{consumergroup=trace-token-events-consumer},1651541721,0
{consumergroup=trace-token-events-consumer},1651541726,0
{consumergroup=trace-token-events-consumer},1651541731,0
{consumergroup=trace-token-events-consumer},1651541736,0
{consumergroup=trace-token-events-consumer},1651541741,0
{consumergroup=trace-token-events-consumer},1651541746,0
{consumergroup=trace-token-events-consumer},1651541751,0
{consumergroup=trace-token-events-consumer},1651541756,0
{consumergroup=trace-token-events-consumer},1651541761,0
{consumergroup=trace-token-events-consumer},1651541766,0
{consumergroup=trace-token-events-consumer},1651541771,0
{consumergroup=trace-token-events-consumer},1651541776,0
{consumergroup=trace-token-events-consumer},1651541781,0
{consumergroup=trace-token-events-consumer},1651541786,0
{consumergroup=trace-token-events-consumer},1651541791,0
{consumergroup=trace-token-events-consumer},1651541796,0
{consumergroup=trace-token-events-consumer},1651541801,0
{consumergroup=trace-token-events-consumer},1651541806,0
{consumergroup=trace-token-events-consumer},1651541811,0
{consumergroup=trace-token-events-consumer},1651541816,0
{consumergroup=trace-token-events-consumer},1651541821,0
{consumergroup=trace-token-events-consumer},1651541826,0
{consumergroup=trace-token-events-consumer},1651541831,0
{consumergroup=trace-token-events-consumer},1651541836,0
{consumergroup=trace-token-events-consumer},1651541841,0
{consumergroup=trace-token-events-consumer},1651541846,0
{consumergroup=trace-token-events-consumer},1651541851,0
{consumergroup=trace-token-events-consumer},1651541856,0
{consumergroup=trace-token-events-consumer},1651541861,0
{consumergroup=trace-token-events-consumer},1651541866,0
{consumergroup=trace-token-events-consumer},1651541871,0
{consumergroup=trace-token-events-consumer},1651541876,0
{consumergroup=trace-token-events-consumer},1651541881,0
{consumergroup=trace-token-events-consumer},1651541886,0
{consumergroup=trace-token-events-consumer},1651541891,0
{consumergroup=trace-token-events-consumer},1651541896,0
{consumergroup=trace-token-events-consumer},1651541901,0
{consumergroup=trace-token-events-consumer},1651541906,0
{consumergroup=trace-token-events-consumer},1651541911,0
{consumergroup=trace-token-events-consumer},1651541916,0
{consumergroup=trace-token-events-consumer},1651541921,0
{consumergroup=trace-token-events-consumer},1651541926,0
{consumergroup=trace-token-events-consumer},1651541931,0
{consumergroup=trace-token-events-consumer},1651541936,0
{consumergroup=trace-token-events-consumer},1651541941,0
{consumergroup=trace-token-events-consumer},1651541946,0
{consumergroup=trace-token-events-consumer},1651541951,0
{consumergroup=trace-token-events-consumer},1651541956,0
{consumergroup=trace-token-events-consumer},1651541961,0
{consumergroup=trace-token-events-consumer},1651541966,0
{consumergroup=trace-token-events-consumer},1651541971,0
{consumergroup=trace-token-events-consumer},1651541976,0
{consumergroup=trace-token-events-consumer},1651541981,0
{consumergroup=trace-token-events-consumer},1651541986,0
{consumergroup=trace-token-events-consumer},1651541991,0
{consumergroup=trace-token-events-consumer},1651541996,0
{consumergroup=trace-token-events-consumer},1651542001,0
{consumergroup=trace-token-events-consumer},1651542006,0
{consumergroup=trace-token-events-consumer},1651542011,0
{consumergroup=trace-token-events-consumer},1651542016,0
{consumergroup=trace-token-events-consumer},1651542021,0
{consumergroup=trace-token-events-consumer},1651542026,0
{consumergroup=trace-token-events-consumer},1651542031,0
{consumergroup=trace-token-events-consumer},1651542036,0
{consumergroup=trace-token-events-consumer},1651542041,0
{consumergroup=trace-token-events-consumer},1651542046,0
