labels,timestamp,value
{consumergroup=__strimzi-topic-operator-kstreams},1651443842,0
{consumergroup=__strimzi-topic-operator-kstreams},1651443847,1
{consumergroup=__strimzi-topic-operator-kstreams},1651443852,1
{consumergroup=__strimzi-topic-operator-kstreams},1651443857,1
{consumergroup=__strimzi-topic-operator-kstreams},1651443862,21
{consumergroup=__strimzi-topic-operator-kstreams},1651443867,21
{consumergroup=__strimzi-topic-operator-kstreams},1651443872,21
{consumergroup=__strimzi-topic-operator-kstreams},1651443877,0
{consumergroup=__strimzi-topic-operator-kstreams},1651443882,0
{consumergroup=__strimzi-topic-operator-kstreams},1651443887,0
{consumergroup=__strimzi-topic-operator-kstreams},1651443892,0
{consumergroup=__strimzi-topic-operator-kstreams},1651443897,0
{consumergroup=__strimzi-topic-operator-kstreams},1651443902,0
{consumergroup=__strimzi-topic-operator-kstreams},1651443907,0
{consumergroup=__strimzi-topic-operator-kstreams},1651443912,0
{consumergroup=__strimzi-topic-operator-kstreams},1651443917,0
{consumergroup=__strimzi-topic-operator-kstreams},1651443922,0
{consumergroup=__strimzi-topic-operator-kstreams},1651443927,0
{consumergroup=__strimzi-topic-operator-kstreams},1651443932,0
{consumergroup=__strimzi-topic-operator-kstreams},1651443937,0
{consumergroup=__strimzi-topic-operator-kstreams},1651443942,0
{consumergroup=__strimzi-topic-operator-kstreams},1651443947,0
{consumergroup=__strimzi-topic-operator-kstreams},1651443952,0
{consumergroup=__strimzi-topic-operator-kstreams},1651443957,0
{consumergroup=__strimzi-topic-operator-kstreams},1651443962,0
{consumergroup=__strimzi-topic-operator-kstreams},1651443967,0
{consumergroup=__strimzi-topic-operator-kstreams},1651443972,0
{consumergroup=__strimzi-topic-operator-kstreams},1651443977,0
{consumergroup=__strimzi-topic-operator-kstreams},1651443982,0
{consumergroup=__strimzi-topic-operator-kstreams},1651443987,0
{consumergroup=__strimzi-topic-operator-kstreams},1651443992,0
{consumergroup=__strimzi-topic-operator-kstreams},1651443997,0
{consumergroup=__strimzi-topic-operator-kstreams},1651444002,0
{consumergroup=__strimzi-topic-operator-kstreams},1651444007,0
{consumergroup=__strimzi-topic-operator-kstreams},1651444012,0
{consumergroup=__strimzi-topic-operator-kstreams},1651444017,0
{consumergroup=__strimzi-topic-operator-kstreams},1651444022,0
{consumergroup=__strimzi-topic-operator-kstreams},1651444027,0
{consumergroup=__strimzi-topic-operator-kstreams},1651444032,0
{consumergroup=__strimzi-topic-operator-kstreams},1651444037,0
{consumergroup=__strimzi-topic-operator-kstreams},1651444042,0
{consumergroup=__strimzi-topic-operator-kstreams},1651444047,0
{consumergroup=__strimzi-topic-operator-kstreams},1651444052,0
{consumergroup=__strimzi-topic-operator-kstreams},1651444057,0
{consumergroup=__strimzi-topic-operator-kstreams},1651444062,0
{consumergroup=__strimzi-topic-operator-kstreams},1651444067,0
{consumergroup=__strimzi-topic-operator-kstreams},1651444072,0
{consumergroup=__strimzi-topic-operator-kstreams},1651444077,0
{consumergroup=__strimzi-topic-operator-kstreams},1651444082,0
{consumergroup=__strimzi-topic-operator-kstreams},1651444087,0
{consumergroup=__strimzi-topic-operator-kstreams},1651444092,0
{consumergroup=__strimzi-topic-operator-kstreams},1651444097,0
{consumergroup=__strimzi-topic-operator-kstreams},1651444102,0
{consumergroup=adapter-service},1651443842,544947
{consumergroup=adapter-service},1651443877,21818
{consumergroup=adapter-service},1651443882,21818
{consumergroup=adapter-service},1651443887,21818
{consumergroup=adapter-service},1651443892,109891
{consumergroup=adapter-service},1651443897,109891
{consumergroup=adapter-service},1651443902,109891
{consumergroup=adapter-service},1651443907,175973
{consumergroup=adapter-service},1651443912,175973
{consumergroup=adapter-service},1651443917,175973
{consumergroup=adapter-service},1651443922,231848
{consumergroup=adapter-service},1651443927,231848
{consumergroup=adapter-service},1651443932,231848
{consumergroup=adapter-service},1651443937,283395
{consumergroup=adapter-service},1651443942,283395
{consumergroup=adapter-service},1651443947,283395
{consumergroup=adapter-service},1651443952,327954
{consumergroup=adapter-service},1651443957,327954
{consumergroup=adapter-service},1651443962,327954
{consumergroup=adapter-service},1651443967,370819
{consumergroup=adapter-service},1651443972,370819
{consumergroup=adapter-service},1651443977,370819
{consumergroup=adapter-service},1651443982,408527
{consumergroup=adapter-service},1651443987,408527
{consumergroup=adapter-service},1651443992,408527
{consumergroup=adapter-service},1651443997,424569
{consumergroup=adapter-service},1651444002,424569
{consumergroup=adapter-service},1651444007,424569
{consumergroup=adapter-service},1651444012,447349
{consumergroup=adapter-service},1651444017,447349
{consumergroup=adapter-service},1651444022,447349
{consumergroup=adapter-service},1651444027,465689
{consumergroup=adapter-service},1651444032,465689
{consumergroup=adapter-service},1651444037,465689
{consumergroup=adapter-service},1651444042,470500
{consumergroup=adapter-service},1651444047,470500
{consumergroup=adapter-service},1651444052,470500
{consumergroup=adapter-service},1651444057,480237
{consumergroup=adapter-service},1651444062,480237
{consumergroup=adapter-service},1651444067,480237
{consumergroup=adapter-service},1651444072,491332
{consumergroup=adapter-service},1651444077,491332
{consumergroup=adapter-service},1651444082,491332
{consumergroup=adapter-service},1651444087,505085
{consumergroup=adapter-service},1651444092,505085
{consumergroup=adapter-service},1651444097,505085
{consumergroup=adapter-service},1651444102,522409
