labels,timestamp,value
{job=theodolite-stu200776/trace-isolated-podmonitor},1651497476,0
{job=theodolite-stu200776/trace-isolated-podmonitor},1651497481,0
{job=theodolite-stu200776/trace-isolated-podmonitor},1651497486,0
{job=theodolite-stu200776/trace-isolated-podmonitor},1651497491,0
{job=theodolite-stu200776/trace-isolated-podmonitor},1651497496,0
{job=theodolite-stu200776/trace-isolated-podmonitor},1651497501,0
{job=theodolite-stu200776/trace-isolated-podmonitor},1651497506,0
{job=theodolite-stu200776/trace-isolated-podmonitor},1651497511,0
{job=theodolite-stu200776/trace-isolated-podmonitor},1651497516,0
{job=theodolite-stu200776/trace-isolated-podmonitor},1651497521,0
{job=theodolite-stu200776/trace-isolated-podmonitor},1651497526,0
{job=theodolite-stu200776/trace-isolated-podmonitor},1651497531,0
{job=theodolite-stu200776/trace-isolated-podmonitor},1651497536,0
{job=theodolite-stu200776/trace-isolated-podmonitor},1651497541,0
{job=theodolite-stu200776/trace-isolated-podmonitor},1651497546,0
{job=theodolite-stu200776/trace-isolated-podmonitor},1651497551,0
{job=theodolite-stu200776/trace-isolated-podmonitor},1651497556,0
{job=theodolite-stu200776/trace-isolated-podmonitor},1651497561,0
{job=theodolite-stu200776/trace-isolated-podmonitor},1651497566,0
{job=theodolite-stu200776/trace-isolated-podmonitor},1651497571,0
{job=theodolite-stu200776/trace-isolated-podmonitor},1651497576,0
{job=theodolite-stu200776/trace-isolated-podmonitor},1651497581,0
{job=theodolite-stu200776/trace-isolated-podmonitor},1651497586,0
{job=theodolite-stu200776/trace-isolated-podmonitor},1651497591,0
{job=theodolite-stu200776/trace-isolated-podmonitor},1651497596,0
{job=theodolite-stu200776/trace-isolated-podmonitor},1651497601,0
{job=theodolite-stu200776/trace-isolated-podmonitor},1651497606,0
{job=theodolite-stu200776/trace-isolated-podmonitor},1651497611,0
{job=theodolite-stu200776/trace-isolated-podmonitor},1651497616,0
{job=theodolite-stu200776/trace-isolated-podmonitor},1651497621,0
{job=theodolite-stu200776/trace-isolated-podmonitor},1651497626,0
{job=theodolite-stu200776/trace-isolated-podmonitor},1651497631,0
{job=theodolite-stu200776/trace-isolated-podmonitor},1651497636,0
{job=theodolite-stu200776/trace-isolated-podmonitor},1651497641,0
{job=theodolite-stu200776/trace-isolated-podmonitor},1651497646,0
{job=theodolite-stu200776/trace-isolated-podmonitor},1651497651,0
{job=theodolite-stu200776/trace-isolated-podmonitor},1651497656,0
{job=theodolite-stu200776/trace-isolated-podmonitor},1651497661,0
{job=theodolite-stu200776/trace-isolated-podmonitor},1651497666,0
{job=theodolite-stu200776/trace-isolated-podmonitor},1651497671,0
{job=theodolite-stu200776/trace-isolated-podmonitor},1651497676,0
{job=theodolite-stu200776/trace-isolated-podmonitor},1651497681,0
{job=theodolite-stu200776/trace-isolated-podmonitor},1651497686,0
{job=theodolite-stu200776/trace-isolated-podmonitor},1651497691,0
{job=theodolite-stu200776/trace-isolated-podmonitor},1651497696,0
{job=theodolite-stu200776/trace-isolated-podmonitor},1651497701,0
{job=theodolite-stu200776/trace-isolated-podmonitor},1651497706,0
{job=theodolite-stu200776/trace-isolated-podmonitor},1651497711,0
{job=theodolite-stu200776/trace-isolated-podmonitor},1651497716,0
{job=theodolite-stu200776/trace-isolated-podmonitor},1651497721,0
{job=theodolite-stu200776/trace-isolated-podmonitor},1651497726,0
{job=theodolite-stu200776/trace-isolated-podmonitor},1651497731,0
