labels,timestamp,value
{job=theodolite-stu200776/trace-isolated-podmonitor},1651486580,0
{job=theodolite-stu200776/trace-isolated-podmonitor},1651486585,0
{job=theodolite-stu200776/trace-isolated-podmonitor},1651486590,0
{job=theodolite-stu200776/trace-isolated-podmonitor},1651486595,0
{job=theodolite-stu200776/trace-isolated-podmonitor},1651486600,0
{job=theodolite-stu200776/trace-isolated-podmonitor},1651486605,0
{job=theodolite-stu200776/trace-isolated-podmonitor},1651486610,0
{job=theodolite-stu200776/trace-isolated-podmonitor},1651486615,0
{job=theodolite-stu200776/trace-isolated-podmonitor},1651486620,0
{job=theodolite-stu200776/trace-isolated-podmonitor},1651486625,0
{job=theodolite-stu200776/trace-isolated-podmonitor},1651486630,0
{job=theodolite-stu200776/trace-isolated-podmonitor},1651486635,0
{job=theodolite-stu200776/trace-isolated-podmonitor},1651486640,0
{job=theodolite-stu200776/trace-isolated-podmonitor},1651486645,0
{job=theodolite-stu200776/trace-isolated-podmonitor},1651486650,0
{job=theodolite-stu200776/trace-isolated-podmonitor},1651486655,0
{job=theodolite-stu200776/trace-isolated-podmonitor},1651486660,0
{job=theodolite-stu200776/trace-isolated-podmonitor},1651486665,0
{job=theodolite-stu200776/trace-isolated-podmonitor},1651486670,0
{job=theodolite-stu200776/trace-isolated-podmonitor},1651486675,0
{job=theodolite-stu200776/trace-isolated-podmonitor},1651486680,0
{job=theodolite-stu200776/trace-isolated-podmonitor},1651486685,0
{job=theodolite-stu200776/trace-isolated-podmonitor},1651486690,0
{job=theodolite-stu200776/trace-isolated-podmonitor},1651486695,0
{job=theodolite-stu200776/trace-isolated-podmonitor},1651486700,0
{job=theodolite-stu200776/trace-isolated-podmonitor},1651486705,0
{job=theodolite-stu200776/trace-isolated-podmonitor},1651486710,0
{job=theodolite-stu200776/trace-isolated-podmonitor},1651486715,0
{job=theodolite-stu200776/trace-isolated-podmonitor},1651486720,0
{job=theodolite-stu200776/trace-isolated-podmonitor},1651486725,0
{job=theodolite-stu200776/trace-isolated-podmonitor},1651486730,0
{job=theodolite-stu200776/trace-isolated-podmonitor},1651486735,0
{job=theodolite-stu200776/trace-isolated-podmonitor},1651486740,0
{job=theodolite-stu200776/trace-isolated-podmonitor},1651486745,0
{job=theodolite-stu200776/trace-isolated-podmonitor},1651486750,0
{job=theodolite-stu200776/trace-isolated-podmonitor},1651486755,0
{job=theodolite-stu200776/trace-isolated-podmonitor},1651486760,0
{job=theodolite-stu200776/trace-isolated-podmonitor},1651486765,0
{job=theodolite-stu200776/trace-isolated-podmonitor},1651486770,0
{job=theodolite-stu200776/trace-isolated-podmonitor},1651486775,0
{job=theodolite-stu200776/trace-isolated-podmonitor},1651486780,0
{job=theodolite-stu200776/trace-isolated-podmonitor},1651486785,0
{job=theodolite-stu200776/trace-isolated-podmonitor},1651486790,0
{job=theodolite-stu200776/trace-isolated-podmonitor},1651486795,0
{job=theodolite-stu200776/trace-isolated-podmonitor},1651486800,0
{job=theodolite-stu200776/trace-isolated-podmonitor},1651486805,0
{job=theodolite-stu200776/trace-isolated-podmonitor},1651486810,0
{job=theodolite-stu200776/trace-isolated-podmonitor},1651486815,0
{job=theodolite-stu200776/trace-isolated-podmonitor},1651486820,0
{job=theodolite-stu200776/trace-isolated-podmonitor},1651486825,0
{job=theodolite-stu200776/trace-isolated-podmonitor},1651486830,0
{job=theodolite-stu200776/trace-isolated-podmonitor},1651486835,0
{job=theodolite-stu200776/trace-isolated-podmonitor},1651486840,0
{job=theodolite-stu200776/trace-isolated-podmonitor},1651486845,0
{job=theodolite-stu200776/trace-isolated-podmonitor},1651486850,0
{job=theodolite-stu200776/trace-isolated-podmonitor},1651486855,0
{job=theodolite-stu200776/trace-isolated-podmonitor},1651486860,0
{job=theodolite-stu200776/trace-isolated-podmonitor},1651486865,0
{job=theodolite-stu200776/trace-isolated-podmonitor},1651486870,0
{job=theodolite-stu200776/trace-isolated-podmonitor},1651486875,0
{job=theodolite-stu200776/trace-isolated-podmonitor},1651486880,0
{job=theodolite-stu200776/trace-isolated-podmonitor},1651486885,0
{job=theodolite-stu200776/trace-isolated-podmonitor},1651486890,0
{job=theodolite-stu200776/trace-isolated-podmonitor},1651486895,0
{job=theodolite-stu200776/trace-isolated-podmonitor},1651486900,0
{job=theodolite-stu200776/trace-isolated-podmonitor},1651486905,0
{job=theodolite-stu200776/trace-isolated-podmonitor},1651486910,0
{job=theodolite-stu200776/trace-isolated-podmonitor},1651486915,0
{job=theodolite-stu200776/trace-isolated-podmonitor},1651486920,0
{job=theodolite-stu200776/trace-isolated-podmonitor},1651486925,0
{job=theodolite-stu200776/trace-isolated-podmonitor},1651486930,0
{job=theodolite-stu200776/trace-isolated-podmonitor},1651486935,0
{job=theodolite-stu200776/trace-isolated-podmonitor},1651486940,0
{job=theodolite-stu200776/trace-isolated-podmonitor},1651486945,0
{job=theodolite-stu200776/trace-isolated-podmonitor},1651486950,0
{job=theodolite-stu200776/trace-isolated-podmonitor},1651486955,0
