labels,timestamp,value
{consumergroup=__strimzi-topic-operator-kstreams},1651483962,11
{consumergroup=__strimzi-topic-operator-kstreams},1651483967,11
{consumergroup=__strimzi-topic-operator-kstreams},1651483972,11
{consumergroup=__strimzi-topic-operator-kstreams},1651483977,1
{consumergroup=__strimzi-topic-operator-kstreams},1651483982,1
{consumergroup=__strimzi-topic-operator-kstreams},1651483987,1
{consumergroup=__strimzi-topic-operator-kstreams},1651483992,3
{consumergroup=__strimzi-topic-operator-kstreams},1651483997,3
{consumergroup=__strimzi-topic-operator-kstreams},1651484002,3
{consumergroup=__strimzi-topic-operator-kstreams},1651484007,0
{consumergroup=__strimzi-topic-operator-kstreams},1651484012,0
{consumergroup=__strimzi-topic-operator-kstreams},1651484017,0
{consumergroup=__strimzi-topic-operator-kstreams},1651484022,0
{consumergroup=__strimzi-topic-operator-kstreams},1651484027,0
{consumergroup=__strimzi-topic-operator-kstreams},1651484032,0
{consumergroup=__strimzi-topic-operator-kstreams},1651484037,0
{consumergroup=__strimzi-topic-operator-kstreams},1651484042,0
{consumergroup=__strimzi-topic-operator-kstreams},1651484047,0
{consumergroup=__strimzi-topic-operator-kstreams},1651484052,0
{consumergroup=__strimzi-topic-operator-kstreams},1651484057,0
{consumergroup=__strimzi-topic-operator-kstreams},1651484062,0
{consumergroup=__strimzi-topic-operator-kstreams},1651484067,0
{consumergroup=__strimzi-topic-operator-kstreams},1651484072,0
{consumergroup=__strimzi-topic-operator-kstreams},1651484077,0
{consumergroup=__strimzi-topic-operator-kstreams},1651484082,0
{consumergroup=__strimzi-topic-operator-kstreams},1651484087,0
{consumergroup=__strimzi-topic-operator-kstreams},1651484092,0
{consumergroup=__strimzi-topic-operator-kstreams},1651484097,0
{consumergroup=__strimzi-topic-operator-kstreams},1651484102,0
{consumergroup=__strimzi-topic-operator-kstreams},1651484107,0
{consumergroup=__strimzi-topic-operator-kstreams},1651484112,0
{consumergroup=__strimzi-topic-operator-kstreams},1651484117,0
{consumergroup=__strimzi-topic-operator-kstreams},1651484122,0
{consumergroup=__strimzi-topic-operator-kstreams},1651484127,0
{consumergroup=__strimzi-topic-operator-kstreams},1651484132,0
{consumergroup=__strimzi-topic-operator-kstreams},1651484137,0
{consumergroup=__strimzi-topic-operator-kstreams},1651484142,0
{consumergroup=__strimzi-topic-operator-kstreams},1651484147,0
{consumergroup=__strimzi-topic-operator-kstreams},1651484152,0
{consumergroup=__strimzi-topic-operator-kstreams},1651484157,0
{consumergroup=__strimzi-topic-operator-kstreams},1651484162,0
{consumergroup=__strimzi-topic-operator-kstreams},1651484167,0
{consumergroup=__strimzi-topic-operator-kstreams},1651484172,0
{consumergroup=__strimzi-topic-operator-kstreams},1651484177,0
{consumergroup=__strimzi-topic-operator-kstreams},1651484182,0
{consumergroup=__strimzi-topic-operator-kstreams},1651484187,0
{consumergroup=__strimzi-topic-operator-kstreams},1651484192,0
{consumergroup=__strimzi-topic-operator-kstreams},1651484197,0
{consumergroup=__strimzi-topic-operator-kstreams},1651484202,0
{consumergroup=__strimzi-topic-operator-kstreams},1651484207,0
{consumergroup=__strimzi-topic-operator-kstreams},1651484212,0
{consumergroup=__strimzi-topic-operator-kstreams},1651484217,0
{consumergroup=__strimzi-topic-operator-kstreams},1651484222,0
{consumergroup=__strimzi-topic-operator-kstreams},1651484227,0
{consumergroup=__strimzi-topic-operator-kstreams},1651484232,0
{consumergroup=__strimzi-topic-operator-kstreams},1651484237,0
{consumergroup=__strimzi-topic-operator-kstreams},1651484242,0
{consumergroup=__strimzi-topic-operator-kstreams},1651484247,0
{consumergroup=__strimzi-topic-operator-kstreams},1651484252,0
{consumergroup=__strimzi-topic-operator-kstreams},1651484257,0
{consumergroup=__strimzi-topic-operator-kstreams},1651484262,0
{consumergroup=__strimzi-topic-operator-kstreams},1651484267,0
{consumergroup=__strimzi-topic-operator-kstreams},1651484272,0
{consumergroup=__strimzi-topic-operator-kstreams},1651484277,0
{consumergroup=__strimzi-topic-operator-kstreams},1651484282,0
{consumergroup=__strimzi-topic-operator-kstreams},1651484287,0
{consumergroup=__strimzi-topic-operator-kstreams},1651484292,0
{consumergroup=__strimzi-topic-operator-kstreams},1651484297,0
{consumergroup=__strimzi-topic-operator-kstreams},1651484302,0
{consumergroup=__strimzi-topic-operator-kstreams},1651484307,0
{consumergroup=__strimzi-topic-operator-kstreams},1651484312,0
{consumergroup=__strimzi-topic-operator-kstreams},1651484317,0
{consumergroup=__strimzi-topic-operator-kstreams},1651484322,0
{consumergroup=__strimzi-topic-operator-kstreams},1651484327,0
{consumergroup=__strimzi-topic-operator-kstreams},1651484332,0
{consumergroup=__strimzi-topic-operator-kstreams},1651484337,0
{consumergroup=__strimzi-topic-operator-kstreams},1651484342,0
{consumergroup=__strimzi-topic-operator-kstreams},1651484347,0
{consumergroup=__strimzi-topic-operator-kstreams},1651484352,0
{consumergroup=__strimzi-topic-operator-kstreams},1651484357,0
{consumergroup=__strimzi-topic-operator-kstreams},1651484362,0
{consumergroup=__strimzi-topic-operator-kstreams},1651484367,0
{consumergroup=__strimzi-topic-operator-kstreams},1651484372,0
{consumergroup=__strimzi-topic-operator-kstreams},1651484377,0
{consumergroup=__strimzi-topic-operator-kstreams},1651484382,0
{consumergroup=__strimzi-topic-operator-kstreams},1651484387,0
{consumergroup=__strimzi-topic-operator-kstreams},1651484392,0
{consumergroup=__strimzi-topic-operator-kstreams},1651484397,0
{consumergroup=__strimzi-topic-operator-kstreams},1651484402,0
{consumergroup=__strimzi-topic-operator-kstreams},1651484407,0
{consumergroup=trace-service},1651484007,19121
{consumergroup=trace-service},1651484012,19121
{consumergroup=trace-service},1651484017,19121
{consumergroup=trace-service},1651484022,65873
{consumergroup=trace-service},1651484027,65873
{consumergroup=trace-service},1651484032,65873
{consumergroup=trace-service},1651484037,65873
{consumergroup=trace-service},1651484042,93845
{consumergroup=trace-service},1651484047,93845
{consumergroup=trace-service},1651484052,93845
{consumergroup=trace-service},1651484057,79334
{consumergroup=trace-service},1651484062,79334
{consumergroup=trace-service},1651484067,79334
{consumergroup=trace-service},1651484072,102156
{consumergroup=trace-service},1651484077,102156
{consumergroup=trace-service},1651484082,102156
{consumergroup=trace-service},1651484087,50316
{consumergroup=trace-service},1651484092,50316
{consumergroup=trace-service},1651484097,50316
{consumergroup=trace-service},1651484102,96744
{consumergroup=trace-service},1651484107,96744
{consumergroup=trace-service},1651484112,96744
{consumergroup=trace-service},1651484117,47977
{consumergroup=trace-service},1651484122,47977
{consumergroup=trace-service},1651484127,47977
{consumergroup=trace-service},1651484132,16992
{consumergroup=trace-service},1651484137,16992
{consumergroup=trace-service},1651484142,16992
{consumergroup=trace-service},1651484147,44769
{consumergroup=trace-service},1651484152,44769
{consumergroup=trace-service},1651484157,44769
{consumergroup=trace-service},1651484162,23158
{consumergroup=trace-service},1651484167,23158
{consumergroup=trace-service},1651484172,23158
{consumergroup=trace-service},1651484177,47624
{consumergroup=trace-service},1651484182,47624
{consumergroup=trace-service},1651484187,47624
{consumergroup=trace-service},1651484192,120192
{consumergroup=trace-service},1651484197,120192
{consumergroup=trace-service},1651484202,120192
{consumergroup=trace-service},1651484207,50901
{consumergroup=trace-service},1651484212,50901
{consumergroup=trace-service},1651484217,50901
{consumergroup=trace-service},1651484222,60463
{consumergroup=trace-service},1651484227,60463
{consumergroup=trace-service},1651484232,60463
{consumergroup=trace-service},1651484237,45031
{consumergroup=trace-service},1651484242,45031
{consumergroup=trace-service},1651484247,45031
{consumergroup=trace-service},1651484252,21360
{consumergroup=trace-service},1651484257,21360
{consumergroup=trace-service},1651484262,21360
{consumergroup=trace-service},1651484267,45799
{consumergroup=trace-service},1651484272,45799
{consumergroup=trace-service},1651484277,45799
{consumergroup=trace-service},1651484282,31588
{consumergroup=trace-service},1651484287,31588
{consumergroup=trace-service},1651484292,31588
{consumergroup=trace-service},1651484297,44504
{consumergroup=trace-service},1651484302,44504
{consumergroup=trace-service},1651484307,44504
{consumergroup=trace-service},1651484312,26015
{consumergroup=trace-service},1651484317,26015
{consumergroup=trace-service},1651484322,26015
{consumergroup=trace-service},1651484327,45813
{consumergroup=trace-service},1651484332,45813
{consumergroup=trace-service},1651484337,45813
{consumergroup=trace-service},1651484342,34474
{consumergroup=trace-service},1651484347,34474
{consumergroup=trace-service},1651484352,34474
{consumergroup=trace-service},1651484357,44228
{consumergroup=trace-service},1651484362,44228
{consumergroup=trace-service},1651484367,44228
{consumergroup=trace-service},1651484372,14362
{consumergroup=trace-service},1651484377,14362
{consumergroup=trace-service},1651484382,14362
{consumergroup=trace-service},1651484387,57668
{consumergroup=trace-service},1651484392,57668
{consumergroup=trace-service},1651484397,57668
{consumergroup=trace-service},1651484402,40489
{consumergroup=trace-service},1651484407,40489
{consumergroup=trace-token-events-consumer},1651483992,0
{consumergroup=trace-token-events-consumer},1651483997,0
{consumergroup=trace-token-events-consumer},1651484002,0
{consumergroup=trace-token-events-consumer},1651484007,0
{consumergroup=trace-token-events-consumer},1651484012,0
{consumergroup=trace-token-events-consumer},1651484017,0
{consumergroup=trace-token-events-consumer},1651484022,0
{consumergroup=trace-token-events-consumer},1651484027,0
{consumergroup=trace-token-events-consumer},1651484032,0
{consumergroup=trace-token-events-consumer},1651484037,0
{consumergroup=trace-token-events-consumer},1651484042,0
{consumergroup=trace-token-events-consumer},1651484047,0
{consumergroup=trace-token-events-consumer},1651484052,0
{consumergroup=trace-token-events-consumer},1651484057,0
{consumergroup=trace-token-events-consumer},1651484062,0
{consumergroup=trace-token-events-consumer},1651484067,0
{consumergroup=trace-token-events-consumer},1651484072,0
{consumergroup=trace-token-events-consumer},1651484077,0
{consumergroup=trace-token-events-consumer},1651484082,0
{consumergroup=trace-token-events-consumer},1651484087,0
{consumergroup=trace-token-events-consumer},1651484092,0
{consumergroup=trace-token-events-consumer},1651484097,0
{consumergroup=trace-token-events-consumer},1651484102,0
{consumergroup=trace-token-events-consumer},1651484107,0
{consumergroup=trace-token-events-consumer},1651484112,0
{consumergroup=trace-token-events-consumer},1651484117,0
{consumergroup=trace-token-events-consumer},1651484122,0
{consumergroup=trace-token-events-consumer},1651484127,0
{consumergroup=trace-token-events-consumer},1651484132,0
{consumergroup=trace-token-events-consumer},1651484137,0
{consumergroup=trace-token-events-consumer},1651484142,0
{consumergroup=trace-token-events-consumer},1651484147,0
{consumergroup=trace-token-events-consumer},1651484152,0
{consumergroup=trace-token-events-consumer},1651484157,0
{consumergroup=trace-token-events-consumer},1651484162,0
{consumergroup=trace-token-events-consumer},1651484167,0
{consumergroup=trace-token-events-consumer},1651484172,0
{consumergroup=trace-token-events-consumer},1651484177,0
{consumergroup=trace-token-events-consumer},1651484182,0
{consumergroup=trace-token-events-consumer},1651484187,0
{consumergroup=trace-token-events-consumer},1651484192,0
{consumergroup=trace-token-events-consumer},1651484197,0
{consumergroup=trace-token-events-consumer},1651484202,0
{consumergroup=trace-token-events-consumer},1651484207,0
{consumergroup=trace-token-events-consumer},1651484212,0
{consumergroup=trace-token-events-consumer},1651484217,0
{consumergroup=trace-token-events-consumer},1651484222,0
{consumergroup=trace-token-events-consumer},1651484227,0
{consumergroup=trace-token-events-consumer},1651484232,0
{consumergroup=trace-token-events-consumer},1651484237,0
{consumergroup=trace-token-events-consumer},1651484242,0
{consumergroup=trace-token-events-consumer},1651484247,0
{consumergroup=trace-token-events-consumer},1651484252,0
{consumergroup=trace-token-events-consumer},1651484257,0
{consumergroup=trace-token-events-consumer},1651484262,0
{consumergroup=trace-token-events-consumer},1651484267,0
{consumergroup=trace-token-events-consumer},1651484272,0
{consumergroup=trace-token-events-consumer},1651484277,0
{consumergroup=trace-token-events-consumer},1651484282,0
{consumergroup=trace-token-events-consumer},1651484287,0
{consumergroup=trace-token-events-consumer},1651484292,0
{consumergroup=trace-token-events-consumer},1651484297,0
{consumergroup=trace-token-events-consumer},1651484302,0
{consumergroup=trace-token-events-consumer},1651484307,0
{consumergroup=trace-token-events-consumer},1651484312,0
{consumergroup=trace-token-events-consumer},1651484317,0
{consumergroup=trace-token-events-consumer},1651484322,0
{consumergroup=trace-token-events-consumer},1651484327,0
{consumergroup=trace-token-events-consumer},1651484332,0
{consumergroup=trace-token-events-consumer},1651484337,0
{consumergroup=trace-token-events-consumer},1651484342,0
{consumergroup=trace-token-events-consumer},1651484347,0
{consumergroup=trace-token-events-consumer},1651484352,0
{consumergroup=trace-token-events-consumer},1651484357,0
{consumergroup=trace-token-events-consumer},1651484362,0
{consumergroup=trace-token-events-consumer},1651484367,0
{consumergroup=trace-token-events-consumer},1651484372,0
{consumergroup=trace-token-events-consumer},1651484377,0
{consumergroup=trace-token-events-consumer},1651484382,0
{consumergroup=trace-token-events-consumer},1651484387,0
{consumergroup=trace-token-events-consumer},1651484392,0
{consumergroup=trace-token-events-consumer},1651484397,0
{consumergroup=trace-token-events-consumer},1651484402,0
{consumergroup=trace-token-events-consumer},1651484407,0
