labels,timestamp,value
{job=theodolite-stu200776/combined-trace-podmonitor},1651551064,18.085492928163227
{job=theodolite-stu200776/combined-trace-podmonitor},1651551069,39.58780636024353
{job=theodolite-stu200776/combined-trace-podmonitor},1651551074,64.16192036612308
{job=theodolite-stu200776/combined-trace-podmonitor},1651551079,61.42534557595326
{job=theodolite-stu200776/combined-trace-podmonitor},1651551084,52.20647886344804
{job=theodolite-stu200776/combined-trace-podmonitor},1651551089,48.483921608319285
{job=theodolite-stu200776/combined-trace-podmonitor},1651551094,42.53404762086667
{job=theodolite-stu200776/combined-trace-podmonitor},1651551099,30.770399329332292
{job=theodolite-stu200776/combined-trace-podmonitor},1651551104,3.2795330952474164
{job=theodolite-stu200776/combined-trace-podmonitor},1651551109,0
{job=theodolite-stu200776/combined-trace-podmonitor},1651551114,0
{job=theodolite-stu200776/combined-trace-podmonitor},1651551119,0
{job=theodolite-stu200776/combined-trace-podmonitor},1651551124,0
{job=theodolite-stu200776/combined-trace-podmonitor},1651551129,0
{job=theodolite-stu200776/combined-trace-podmonitor},1651551134,0
{job=theodolite-stu200776/combined-trace-podmonitor},1651551139,0
{job=theodolite-stu200776/combined-trace-podmonitor},1651551144,0
{job=theodolite-stu200776/combined-trace-podmonitor},1651551149,0
{job=theodolite-stu200776/combined-trace-podmonitor},1651551154,0
{job=theodolite-stu200776/combined-trace-podmonitor},1651551159,0
{job=theodolite-stu200776/combined-trace-podmonitor},1651551164,0
{job=theodolite-stu200776/combined-trace-podmonitor},1651551169,0
{job=theodolite-stu200776/combined-trace-podmonitor},1651551174,0
{job=theodolite-stu200776/combined-trace-podmonitor},1651551179,0
{job=theodolite-stu200776/combined-trace-podmonitor},1651551184,0
{job=theodolite-stu200776/combined-trace-podmonitor},1651551189,0
{job=theodolite-stu200776/combined-trace-podmonitor},1651551194,0
{job=theodolite-stu200776/combined-trace-podmonitor},1651551199,0
{job=theodolite-stu200776/combined-trace-podmonitor},1651551204,0
{job=theodolite-stu200776/combined-trace-podmonitor},1651551209,0
{job=theodolite-stu200776/combined-trace-podmonitor},1651551214,0
{job=theodolite-stu200776/combined-trace-podmonitor},1651551219,0
{job=theodolite-stu200776/combined-trace-podmonitor},1651551224,0
{job=theodolite-stu200776/combined-trace-podmonitor},1651551229,0
{job=theodolite-stu200776/combined-trace-podmonitor},1651551234,0
{job=theodolite-stu200776/combined-trace-podmonitor},1651551239,0
{job=theodolite-stu200776/combined-trace-podmonitor},1651551244,0
{job=theodolite-stu200776/combined-trace-podmonitor},1651551249,0
{job=theodolite-stu200776/combined-trace-podmonitor},1651551254,0
{job=theodolite-stu200776/combined-trace-podmonitor},1651551259,0
{job=theodolite-stu200776/combined-trace-podmonitor},1651551264,0
{job=theodolite-stu200776/combined-trace-podmonitor},1651551269,0
{job=theodolite-stu200776/combined-trace-podmonitor},1651551274,0
{job=theodolite-stu200776/combined-trace-podmonitor},1651551279,0
{job=theodolite-stu200776/combined-trace-podmonitor},1651551284,0
{job=theodolite-stu200776/combined-trace-podmonitor},1651551289,0
{job=theodolite-stu200776/combined-trace-podmonitor},1651551294,0
{job=theodolite-stu200776/combined-trace-podmonitor},1651551299,0
{job=theodolite-stu200776/combined-trace-podmonitor},1651551304,0
{job=theodolite-stu200776/combined-trace-podmonitor},1651551309,0
{job=theodolite-stu200776/combined-trace-podmonitor},1651551314,0
{job=theodolite-stu200776/combined-trace-podmonitor},1651551319,0
{job=theodolite-stu200776/combined-trace-podmonitor},1651551324,0
{job=theodolite-stu200776/combined-trace-podmonitor},1651551329,0
{job=theodolite-stu200776/combined-trace-podmonitor},1651551334,0
{job=theodolite-stu200776/combined-trace-podmonitor},1651551339,0
{job=theodolite-stu200776/combined-trace-podmonitor},1651551344,0
{job=theodolite-stu200776/combined-trace-podmonitor},1651551349,0
{job=theodolite-stu200776/combined-trace-podmonitor},1651551354,0
{job=theodolite-stu200776/combined-trace-podmonitor},1651551359,0
{job=theodolite-stu200776/combined-trace-podmonitor},1651551364,0
{job=theodolite-stu200776/combined-trace-podmonitor},1651551369,0
{job=theodolite-stu200776/combined-trace-podmonitor},1651551374,0
{job=theodolite-stu200776/combined-trace-podmonitor},1651551379,0
{job=theodolite-stu200776/combined-trace-podmonitor},1651551384,0
{job=theodolite-stu200776/combined-trace-podmonitor},1651551389,0
{job=theodolite-stu200776/combined-trace-podmonitor},1651551394,0
{job=theodolite-stu200776/combined-trace-podmonitor},1651551399,0
{job=theodolite-stu200776/combined-trace-podmonitor},1651551404,0
{job=theodolite-stu200776/combined-trace-podmonitor},1651551409,0
{job=theodolite-stu200776/combined-trace-podmonitor},1651551414,0
{job=theodolite-stu200776/combined-trace-podmonitor},1651551419,0
{job=theodolite-stu200776/combined-trace-podmonitor},1651551424,0
{job=theodolite-stu200776/combined-trace-podmonitor},1651551429,0
{job=theodolite-stu200776/combined-trace-podmonitor},1651551434,0
{job=theodolite-stu200776/combined-trace-podmonitor},1651551439,0
