labels,timestamp,value
{job=theodolite-stu200776/combined-trace-podmonitor},1651525658,0
{job=theodolite-stu200776/combined-trace-podmonitor},1651525663,69.54175439949567
{job=theodolite-stu200776/combined-trace-podmonitor},1651525668,96.17319020127039
{job=theodolite-stu200776/combined-trace-podmonitor},1651525673,82.45960701729958
{job=theodolite-stu200776/combined-trace-podmonitor},1651525678,77.16197161830098
{job=theodolite-stu200776/combined-trace-podmonitor},1651525683,66.93776094807968
{job=theodolite-stu200776/combined-trace-podmonitor},1651525688,67.61875851704598
{job=theodolite-stu200776/combined-trace-podmonitor},1651525693,94.0990585964544
{job=theodolite-stu200776/combined-trace-podmonitor},1651525698,771.1402649708282
{job=theodolite-stu200776/combined-trace-podmonitor},1651525703,1994.484711720618
{job=theodolite-stu200776/combined-trace-podmonitor},1651525708,1874.2499487128232
{job=theodolite-stu200776/combined-trace-podmonitor},1651525713,1636.3309023948232
{job=theodolite-stu200776/combined-trace-podmonitor},1651525718,1561.234656702322
{job=theodolite-stu200776/combined-trace-podmonitor},1651525723,1495.435766003706
{job=theodolite-stu200776/combined-trace-podmonitor},1651525728,1845.1343464406243
{job=theodolite-stu200776/combined-trace-podmonitor},1651525733,2402.476719845382
{job=theodolite-stu200776/combined-trace-podmonitor},1651525738,2202.736607739106
{job=theodolite-stu200776/combined-trace-podmonitor},1651525743,1862.9630920890502
{job=theodolite-stu200776/combined-trace-podmonitor},1651525748,1738.7741299467018
{job=theodolite-stu200776/combined-trace-podmonitor},1651525753,1521.2325769458994
{job=theodolite-stu200776/combined-trace-podmonitor},1651525758,991.7380751117847
{job=theodolite-stu200776/combined-trace-podmonitor},1651525763,0
{job=theodolite-stu200776/combined-trace-podmonitor},1651525768,0
{job=theodolite-stu200776/combined-trace-podmonitor},1651525773,0
{job=theodolite-stu200776/combined-trace-podmonitor},1651525778,0
{job=theodolite-stu200776/combined-trace-podmonitor},1651525783,0
{job=theodolite-stu200776/combined-trace-podmonitor},1651525788,0
{job=theodolite-stu200776/combined-trace-podmonitor},1651525793,0
{job=theodolite-stu200776/combined-trace-podmonitor},1651525798,0
{job=theodolite-stu200776/combined-trace-podmonitor},1651525803,0
{job=theodolite-stu200776/combined-trace-podmonitor},1651525808,0
{job=theodolite-stu200776/combined-trace-podmonitor},1651525813,0
{job=theodolite-stu200776/combined-trace-podmonitor},1651525818,0
{job=theodolite-stu200776/combined-trace-podmonitor},1651525823,0
{job=theodolite-stu200776/combined-trace-podmonitor},1651525828,0
{job=theodolite-stu200776/combined-trace-podmonitor},1651525833,0
{job=theodolite-stu200776/combined-trace-podmonitor},1651525838,0
{job=theodolite-stu200776/combined-trace-podmonitor},1651525843,0
{job=theodolite-stu200776/combined-trace-podmonitor},1651525848,0
{job=theodolite-stu200776/combined-trace-podmonitor},1651525853,0
{job=theodolite-stu200776/combined-trace-podmonitor},1651525858,0
{job=theodolite-stu200776/combined-trace-podmonitor},1651525863,0
{job=theodolite-stu200776/combined-trace-podmonitor},1651525868,0
{job=theodolite-stu200776/combined-trace-podmonitor},1651525873,0
{job=theodolite-stu200776/combined-trace-podmonitor},1651525878,0
{job=theodolite-stu200776/combined-trace-podmonitor},1651525883,0
{job=theodolite-stu200776/combined-trace-podmonitor},1651525888,0
{job=theodolite-stu200776/combined-trace-podmonitor},1651525893,0
{job=theodolite-stu200776/combined-trace-podmonitor},1651525898,0
{job=theodolite-stu200776/combined-trace-podmonitor},1651525903,0
{job=theodolite-stu200776/combined-trace-podmonitor},1651525908,0
{job=theodolite-stu200776/combined-trace-podmonitor},1651525913,0
{job=theodolite-stu200776/combined-trace-podmonitor},1651525918,0
{job=theodolite-stu200776/combined-trace-podmonitor},1651525923,0
{job=theodolite-stu200776/combined-trace-podmonitor},1651525928,6.640265610624427
{job=theodolite-stu200776/combined-trace-podmonitor},1651525933,162.3325063548285
{job=theodolite-stu200776/combined-trace-podmonitor},1651525938,235.51422887674627
{job=theodolite-stu200776/combined-trace-podmonitor},1651525943,306.2608252765414
{job=theodolite-stu200776/combined-trace-podmonitor},1651525948,320.65320407728643
{job=theodolite-stu200776/combined-trace-podmonitor},1651525953,283.6292495891536
{job=theodolite-stu200776/combined-trace-podmonitor},1651525958,303.1525173210671
{job=theodolite-stu200776/combined-trace-podmonitor},1651525963,310.70307710538845
{job=theodolite-stu200776/combined-trace-podmonitor},1651525968,314.5564417372109
{job=theodolite-stu200776/combined-trace-podmonitor},1651525973,317.6987862670941
{job=theodolite-stu200776/combined-trace-podmonitor},1651525978,294.32630822969884
{job=theodolite-stu200776/combined-trace-podmonitor},1651525983,255.23956697389423
{job=theodolite-stu200776/combined-trace-podmonitor},1651525988,198.21713517313503
{job=theodolite-stu200776/combined-trace-podmonitor},1651525993,95.85295788224548
{job=theodolite-stu200776/combined-trace-podmonitor},1651525998,58.65686842337681
{job=theodolite-stu200776/combined-trace-podmonitor},1651526003,0
{job=theodolite-stu200776/combined-trace-podmonitor},1651526008,0
{job=theodolite-stu200776/combined-trace-podmonitor},1651526013,0
{job=theodolite-stu200776/combined-trace-podmonitor},1651526018,0
{job=theodolite-stu200776/combined-trace-podmonitor},1651526023,0
{job=theodolite-stu200776/combined-trace-podmonitor},1651526028,0
{job=theodolite-stu200776/combined-trace-podmonitor},1651526033,0
