labels,timestamp,value
{consumergroup=__strimzi-topic-operator-kstreams},1651481909,9
{consumergroup=__strimzi-topic-operator-kstreams},1651481914,9
{consumergroup=__strimzi-topic-operator-kstreams},1651481919,9
{consumergroup=__strimzi-topic-operator-kstreams},1651481924,0
{consumergroup=__strimzi-topic-operator-kstreams},1651481929,0
{consumergroup=__strimzi-topic-operator-kstreams},1651481934,0
{consumergroup=__strimzi-topic-operator-kstreams},1651481939,0
{consumergroup=__strimzi-topic-operator-kstreams},1651481944,0
{consumergroup=__strimzi-topic-operator-kstreams},1651481949,0
{consumergroup=__strimzi-topic-operator-kstreams},1651481954,0
{consumergroup=__strimzi-topic-operator-kstreams},1651481959,0
{consumergroup=__strimzi-topic-operator-kstreams},1651481964,0
{consumergroup=__strimzi-topic-operator-kstreams},1651481969,0
{consumergroup=__strimzi-topic-operator-kstreams},1651481974,0
{consumergroup=__strimzi-topic-operator-kstreams},1651481979,0
{consumergroup=__strimzi-topic-operator-kstreams},1651481984,0
{consumergroup=__strimzi-topic-operator-kstreams},1651481989,0
{consumergroup=__strimzi-topic-operator-kstreams},1651481994,0
{consumergroup=__strimzi-topic-operator-kstreams},1651481999,0
{consumergroup=__strimzi-topic-operator-kstreams},1651482004,0
{consumergroup=__strimzi-topic-operator-kstreams},1651482009,0
{consumergroup=__strimzi-topic-operator-kstreams},1651482014,0
{consumergroup=__strimzi-topic-operator-kstreams},1651482019,0
{consumergroup=__strimzi-topic-operator-kstreams},1651482024,0
{consumergroup=__strimzi-topic-operator-kstreams},1651482029,0
{consumergroup=__strimzi-topic-operator-kstreams},1651482034,0
{consumergroup=__strimzi-topic-operator-kstreams},1651482039,0
{consumergroup=__strimzi-topic-operator-kstreams},1651482044,0
{consumergroup=__strimzi-topic-operator-kstreams},1651482049,0
{consumergroup=__strimzi-topic-operator-kstreams},1651482054,0
{consumergroup=__strimzi-topic-operator-kstreams},1651482059,0
{consumergroup=__strimzi-topic-operator-kstreams},1651482064,0
{consumergroup=__strimzi-topic-operator-kstreams},1651482069,0
{consumergroup=__strimzi-topic-operator-kstreams},1651482074,0
{consumergroup=__strimzi-topic-operator-kstreams},1651482079,0
{consumergroup=__strimzi-topic-operator-kstreams},1651482084,0
{consumergroup=__strimzi-topic-operator-kstreams},1651482089,0
{consumergroup=__strimzi-topic-operator-kstreams},1651482094,0
{consumergroup=__strimzi-topic-operator-kstreams},1651482099,0
{consumergroup=__strimzi-topic-operator-kstreams},1651482104,0
{consumergroup=__strimzi-topic-operator-kstreams},1651482109,0
{consumergroup=__strimzi-topic-operator-kstreams},1651482114,0
{consumergroup=__strimzi-topic-operator-kstreams},1651482119,0
{consumergroup=__strimzi-topic-operator-kstreams},1651482124,0
{consumergroup=__strimzi-topic-operator-kstreams},1651482129,0
{consumergroup=__strimzi-topic-operator-kstreams},1651482134,0
{consumergroup=__strimzi-topic-operator-kstreams},1651482139,0
{consumergroup=__strimzi-topic-operator-kstreams},1651482144,0
{consumergroup=__strimzi-topic-operator-kstreams},1651482149,0
{consumergroup=__strimzi-topic-operator-kstreams},1651482154,0
{consumergroup=__strimzi-topic-operator-kstreams},1651482159,0
{consumergroup=__strimzi-topic-operator-kstreams},1651482164,0
{consumergroup=__strimzi-topic-operator-kstreams},1651482169,0
{consumergroup=__strimzi-topic-operator-kstreams},1651482174,0
{consumergroup=__strimzi-topic-operator-kstreams},1651482179,0
{consumergroup=__strimzi-topic-operator-kstreams},1651482184,0
{consumergroup=__strimzi-topic-operator-kstreams},1651482189,0
{consumergroup=__strimzi-topic-operator-kstreams},1651482194,0
{consumergroup=__strimzi-topic-operator-kstreams},1651482199,0
{consumergroup=__strimzi-topic-operator-kstreams},1651482204,0
{consumergroup=__strimzi-topic-operator-kstreams},1651482209,0
{consumergroup=__strimzi-topic-operator-kstreams},1651482214,0
{consumergroup=__strimzi-topic-operator-kstreams},1651482219,0
{consumergroup=__strimzi-topic-operator-kstreams},1651482224,0
{consumergroup=__strimzi-topic-operator-kstreams},1651482229,0
{consumergroup=__strimzi-topic-operator-kstreams},1651482234,0
{consumergroup=__strimzi-topic-operator-kstreams},1651482239,0
{consumergroup=__strimzi-topic-operator-kstreams},1651482244,0
{consumergroup=__strimzi-topic-operator-kstreams},1651482249,0
{consumergroup=__strimzi-topic-operator-kstreams},1651482254,0
{consumergroup=__strimzi-topic-operator-kstreams},1651482259,0
{consumergroup=__strimzi-topic-operator-kstreams},1651482264,0
{consumergroup=__strimzi-topic-operator-kstreams},1651482269,0
{consumergroup=__strimzi-topic-operator-kstreams},1651482274,0
{consumergroup=__strimzi-topic-operator-kstreams},1651482279,0
{consumergroup=__strimzi-topic-operator-kstreams},1651482284,0
{consumergroup=__strimzi-topic-operator-kstreams},1651482289,0
{consumergroup=__strimzi-topic-operator-kstreams},1651482294,0
{consumergroup=__strimzi-topic-operator-kstreams},1651482299,0
{consumergroup=__strimzi-topic-operator-kstreams},1651482304,0
{consumergroup=__strimzi-topic-operator-kstreams},1651482309,0
{consumergroup=__strimzi-topic-operator-kstreams},1651482314,0
{consumergroup=__strimzi-topic-operator-kstreams},1651482319,0
{consumergroup=__strimzi-topic-operator-kstreams},1651482324,0
{consumergroup=__strimzi-topic-operator-kstreams},1651482329,0
{consumergroup=__strimzi-topic-operator-kstreams},1651482334,0
{consumergroup=__strimzi-topic-operator-kstreams},1651482339,0
{consumergroup=__strimzi-topic-operator-kstreams},1651482344,0
{consumergroup=__strimzi-topic-operator-kstreams},1651482349,0
{consumergroup=trace-service},1651481954,40135
{consumergroup=trace-service},1651481959,40135
{consumergroup=trace-service},1651481964,40135
{consumergroup=trace-service},1651481969,21901
{consumergroup=trace-service},1651481974,21901
{consumergroup=trace-service},1651481979,21901
{consumergroup=trace-service},1651481984,59082
{consumergroup=trace-service},1651481989,59082
{consumergroup=trace-service},1651481994,59082
{consumergroup=trace-service},1651481999,83796
{consumergroup=trace-service},1651482004,83796
{consumergroup=trace-service},1651482009,83796
{consumergroup=trace-service},1651482014,152018
{consumergroup=trace-service},1651482019,152018
{consumergroup=trace-service},1651482024,152018
{consumergroup=trace-service},1651482029,22985
{consumergroup=trace-service},1651482034,22985
{consumergroup=trace-service},1651482039,22985
{consumergroup=trace-service},1651482044,37219
{consumergroup=trace-service},1651482049,37219
{consumergroup=trace-service},1651482054,37219
{consumergroup=trace-service},1651482059,34644
{consumergroup=trace-service},1651482064,34644
{consumergroup=trace-service},1651482069,34644
{consumergroup=trace-service},1651482074,38586
{consumergroup=trace-service},1651482079,38586
{consumergroup=trace-service},1651482084,38586
{consumergroup=trace-service},1651482089,31096
{consumergroup=trace-service},1651482094,31096
{consumergroup=trace-service},1651482099,31096
{consumergroup=trace-service},1651482104,40646
{consumergroup=trace-service},1651482109,40646
{consumergroup=trace-service},1651482114,40646
{consumergroup=trace-service},1651482119,23446
{consumergroup=trace-service},1651482124,23446
{consumergroup=trace-service},1651482129,23446
{consumergroup=trace-service},1651482134,39059
{consumergroup=trace-service},1651482139,39059
{consumergroup=trace-service},1651482144,39059
{consumergroup=trace-service},1651482149,88763
{consumergroup=trace-service},1651482154,88763
{consumergroup=trace-service},1651482159,88763
{consumergroup=trace-service},1651482164,39133
{consumergroup=trace-service},1651482169,39133
{consumergroup=trace-service},1651482174,39133
{consumergroup=trace-service},1651482179,36068
{consumergroup=trace-service},1651482184,36068
{consumergroup=trace-service},1651482189,36068
{consumergroup=trace-service},1651482194,38450
{consumergroup=trace-service},1651482199,38450
{consumergroup=trace-service},1651482204,38450
{consumergroup=trace-service},1651482209,33895
{consumergroup=trace-service},1651482214,33895
{consumergroup=trace-service},1651482219,33895
{consumergroup=trace-service},1651482224,39028
{consumergroup=trace-service},1651482229,39028
{consumergroup=trace-service},1651482234,39028
{consumergroup=trace-service},1651482239,28730
{consumergroup=trace-service},1651482244,28730
{consumergroup=trace-service},1651482249,28730
{consumergroup=trace-service},1651482254,44105
{consumergroup=trace-service},1651482259,44105
{consumergroup=trace-service},1651482264,44105
{consumergroup=trace-service},1651482269,112058
{consumergroup=trace-service},1651482274,112058
{consumergroup=trace-service},1651482279,112058
{consumergroup=trace-service},1651482284,57370
{consumergroup=trace-service},1651482289,57370
{consumergroup=trace-service},1651482294,57370
{consumergroup=trace-service},1651482299,48189
{consumergroup=trace-service},1651482304,48189
{consumergroup=trace-service},1651482309,48189
{consumergroup=trace-service},1651482314,39476
{consumergroup=trace-service},1651482319,39476
{consumergroup=trace-service},1651482324,39476
{consumergroup=trace-service},1651482329,48844
{consumergroup=trace-service},1651482334,48844
{consumergroup=trace-service},1651482339,48844
{consumergroup=trace-service},1651482344,38975
{consumergroup=trace-service},1651482349,38975
{consumergroup=trace-token-events-consumer},1651481939,0
{consumergroup=trace-token-events-consumer},1651481944,0
{consumergroup=trace-token-events-consumer},1651481949,0
{consumergroup=trace-token-events-consumer},1651481954,0
{consumergroup=trace-token-events-consumer},1651481959,0
{consumergroup=trace-token-events-consumer},1651481964,0
{consumergroup=trace-token-events-consumer},1651481969,0
{consumergroup=trace-token-events-consumer},1651481974,0
{consumergroup=trace-token-events-consumer},1651481979,0
{consumergroup=trace-token-events-consumer},1651481984,0
{consumergroup=trace-token-events-consumer},1651481989,0
{consumergroup=trace-token-events-consumer},1651481994,0
{consumergroup=trace-token-events-consumer},1651481999,0
{consumergroup=trace-token-events-consumer},1651482004,0
{consumergroup=trace-token-events-consumer},1651482009,0
{consumergroup=trace-token-events-consumer},1651482014,0
{consumergroup=trace-token-events-consumer},1651482019,0
{consumergroup=trace-token-events-consumer},1651482024,0
{consumergroup=trace-token-events-consumer},1651482029,0
{consumergroup=trace-token-events-consumer},1651482034,0
{consumergroup=trace-token-events-consumer},1651482039,0
{consumergroup=trace-token-events-consumer},1651482044,0
{consumergroup=trace-token-events-consumer},1651482049,0
{consumergroup=trace-token-events-consumer},1651482054,0
{consumergroup=trace-token-events-consumer},1651482059,0
{consumergroup=trace-token-events-consumer},1651482064,0
{consumergroup=trace-token-events-consumer},1651482069,0
{consumergroup=trace-token-events-consumer},1651482074,0
{consumergroup=trace-token-events-consumer},1651482079,0
{consumergroup=trace-token-events-consumer},1651482084,0
{consumergroup=trace-token-events-consumer},1651482089,0
{consumergroup=trace-token-events-consumer},1651482094,0
{consumergroup=trace-token-events-consumer},1651482099,0
{consumergroup=trace-token-events-consumer},1651482104,0
{consumergroup=trace-token-events-consumer},1651482109,0
{consumergroup=trace-token-events-consumer},1651482114,0
{consumergroup=trace-token-events-consumer},1651482119,0
{consumergroup=trace-token-events-consumer},1651482124,0
{consumergroup=trace-token-events-consumer},1651482129,0
{consumergroup=trace-token-events-consumer},1651482134,0
{consumergroup=trace-token-events-consumer},1651482139,0
{consumergroup=trace-token-events-consumer},1651482144,0
{consumergroup=trace-token-events-consumer},1651482149,0
{consumergroup=trace-token-events-consumer},1651482154,0
{consumergroup=trace-token-events-consumer},1651482159,0
{consumergroup=trace-token-events-consumer},1651482164,0
{consumergroup=trace-token-events-consumer},1651482169,0
{consumergroup=trace-token-events-consumer},1651482174,0
{consumergroup=trace-token-events-consumer},1651482179,0
{consumergroup=trace-token-events-consumer},1651482184,0
{consumergroup=trace-token-events-consumer},1651482189,0
{consumergroup=trace-token-events-consumer},1651482194,0
{consumergroup=trace-token-events-consumer},1651482199,0
{consumergroup=trace-token-events-consumer},1651482204,0
{consumergroup=trace-token-events-consumer},1651482209,0
{consumergroup=trace-token-events-consumer},1651482214,0
{consumergroup=trace-token-events-consumer},1651482219,0
{consumergroup=trace-token-events-consumer},1651482224,0
{consumergroup=trace-token-events-consumer},1651482229,0
{consumergroup=trace-token-events-consumer},1651482234,0
{consumergroup=trace-token-events-consumer},1651482239,0
{consumergroup=trace-token-events-consumer},1651482244,0
{consumergroup=trace-token-events-consumer},1651482249,0
{consumergroup=trace-token-events-consumer},1651482254,0
{consumergroup=trace-token-events-consumer},1651482259,0
{consumergroup=trace-token-events-consumer},1651482264,0
{consumergroup=trace-token-events-consumer},1651482269,0
{consumergroup=trace-token-events-consumer},1651482274,0
{consumergroup=trace-token-events-consumer},1651482279,0
{consumergroup=trace-token-events-consumer},1651482284,0
{consumergroup=trace-token-events-consumer},1651482289,0
{consumergroup=trace-token-events-consumer},1651482294,0
{consumergroup=trace-token-events-consumer},1651482299,0
{consumergroup=trace-token-events-consumer},1651482304,0
{consumergroup=trace-token-events-consumer},1651482309,0
{consumergroup=trace-token-events-consumer},1651482314,0
{consumergroup=trace-token-events-consumer},1651482319,0
{consumergroup=trace-token-events-consumer},1651482324,0
{consumergroup=trace-token-events-consumer},1651482329,0
{consumergroup=trace-token-events-consumer},1651482334,0
{consumergroup=trace-token-events-consumer},1651482339,0
{consumergroup=trace-token-events-consumer},1651482344,0
{consumergroup=trace-token-events-consumer},1651482349,0
