labels,timestamp,value
{job=theodolite-stu200776/trace-isolated-podmonitor},1651481094,0
{job=theodolite-stu200776/trace-isolated-podmonitor},1651481099,0
{job=theodolite-stu200776/trace-isolated-podmonitor},1651481104,0
{job=theodolite-stu200776/trace-isolated-podmonitor},1651481109,0
{job=theodolite-stu200776/trace-isolated-podmonitor},1651481114,0
{job=theodolite-stu200776/trace-isolated-podmonitor},1651481119,0
{job=theodolite-stu200776/trace-isolated-podmonitor},1651481124,0
{job=theodolite-stu200776/trace-isolated-podmonitor},1651481129,0
{job=theodolite-stu200776/trace-isolated-podmonitor},1651481134,0
{job=theodolite-stu200776/trace-isolated-podmonitor},1651481139,0
{job=theodolite-stu200776/trace-isolated-podmonitor},1651481144,0
{job=theodolite-stu200776/trace-isolated-podmonitor},1651481149,0
{job=theodolite-stu200776/trace-isolated-podmonitor},1651481154,0
{job=theodolite-stu200776/trace-isolated-podmonitor},1651481159,0
{job=theodolite-stu200776/trace-isolated-podmonitor},1651481164,0
{job=theodolite-stu200776/trace-isolated-podmonitor},1651481169,0
{job=theodolite-stu200776/trace-isolated-podmonitor},1651481174,0
{job=theodolite-stu200776/trace-isolated-podmonitor},1651481179,0
{job=theodolite-stu200776/trace-isolated-podmonitor},1651481184,0
{job=theodolite-stu200776/trace-isolated-podmonitor},1651481189,0
{job=theodolite-stu200776/trace-isolated-podmonitor},1651481194,0
{job=theodolite-stu200776/trace-isolated-podmonitor},1651481199,0
{job=theodolite-stu200776/trace-isolated-podmonitor},1651481204,0
{job=theodolite-stu200776/trace-isolated-podmonitor},1651481209,0
{job=theodolite-stu200776/trace-isolated-podmonitor},1651481214,0
{job=theodolite-stu200776/trace-isolated-podmonitor},1651481219,0
{job=theodolite-stu200776/trace-isolated-podmonitor},1651481224,0
{job=theodolite-stu200776/trace-isolated-podmonitor},1651481229,0
{job=theodolite-stu200776/trace-isolated-podmonitor},1651481234,0
{job=theodolite-stu200776/trace-isolated-podmonitor},1651481239,0
{job=theodolite-stu200776/trace-isolated-podmonitor},1651481244,0
{job=theodolite-stu200776/trace-isolated-podmonitor},1651481249,0
{job=theodolite-stu200776/trace-isolated-podmonitor},1651481254,0
{job=theodolite-stu200776/trace-isolated-podmonitor},1651481259,0
{job=theodolite-stu200776/trace-isolated-podmonitor},1651481264,0
{job=theodolite-stu200776/trace-isolated-podmonitor},1651481269,0
{job=theodolite-stu200776/trace-isolated-podmonitor},1651481274,0
{job=theodolite-stu200776/trace-isolated-podmonitor},1651481279,0
{job=theodolite-stu200776/trace-isolated-podmonitor},1651481284,0
{job=theodolite-stu200776/trace-isolated-podmonitor},1651481289,0
{job=theodolite-stu200776/trace-isolated-podmonitor},1651481294,0
{job=theodolite-stu200776/trace-isolated-podmonitor},1651481299,0
{job=theodolite-stu200776/trace-isolated-podmonitor},1651481304,0
{job=theodolite-stu200776/trace-isolated-podmonitor},1651481309,0
