labels,timestamp,value
{consumergroup=__strimzi-topic-operator-kstreams},1651431928,16
{consumergroup=__strimzi-topic-operator-kstreams},1651431933,16
{consumergroup=__strimzi-topic-operator-kstreams},1651431938,16
{consumergroup=__strimzi-topic-operator-kstreams},1651431943,0
{consumergroup=__strimzi-topic-operator-kstreams},1651431948,0
{consumergroup=__strimzi-topic-operator-kstreams},1651431953,0
{consumergroup=__strimzi-topic-operator-kstreams},1651431958,0
{consumergroup=__strimzi-topic-operator-kstreams},1651431963,0
{consumergroup=__strimzi-topic-operator-kstreams},1651431968,0
{consumergroup=__strimzi-topic-operator-kstreams},1651431973,0
{consumergroup=__strimzi-topic-operator-kstreams},1651431978,0
{consumergroup=__strimzi-topic-operator-kstreams},1651431983,0
{consumergroup=__strimzi-topic-operator-kstreams},1651431988,0
{consumergroup=__strimzi-topic-operator-kstreams},1651431993,0
{consumergroup=__strimzi-topic-operator-kstreams},1651431998,0
{consumergroup=__strimzi-topic-operator-kstreams},1651432003,0
{consumergroup=__strimzi-topic-operator-kstreams},1651432008,0
{consumergroup=__strimzi-topic-operator-kstreams},1651432013,0
{consumergroup=__strimzi-topic-operator-kstreams},1651432018,0
{consumergroup=__strimzi-topic-operator-kstreams},1651432023,0
{consumergroup=__strimzi-topic-operator-kstreams},1651432028,0
{consumergroup=__strimzi-topic-operator-kstreams},1651432033,0
{consumergroup=__strimzi-topic-operator-kstreams},1651432038,0
{consumergroup=__strimzi-topic-operator-kstreams},1651432043,0
{consumergroup=__strimzi-topic-operator-kstreams},1651432048,0
{consumergroup=__strimzi-topic-operator-kstreams},1651432053,0
{consumergroup=__strimzi-topic-operator-kstreams},1651432058,0
{consumergroup=__strimzi-topic-operator-kstreams},1651432063,0
{consumergroup=__strimzi-topic-operator-kstreams},1651432068,0
{consumergroup=__strimzi-topic-operator-kstreams},1651432073,0
{consumergroup=__strimzi-topic-operator-kstreams},1651432078,0
{consumergroup=__strimzi-topic-operator-kstreams},1651432083,0
{consumergroup=__strimzi-topic-operator-kstreams},1651432088,0
{consumergroup=__strimzi-topic-operator-kstreams},1651432093,0
{consumergroup=__strimzi-topic-operator-kstreams},1651432098,0
{consumergroup=__strimzi-topic-operator-kstreams},1651432103,0
{consumergroup=__strimzi-topic-operator-kstreams},1651432108,0
{consumergroup=__strimzi-topic-operator-kstreams},1651432113,0
{consumergroup=__strimzi-topic-operator-kstreams},1651432118,0
{consumergroup=__strimzi-topic-operator-kstreams},1651432123,0
{consumergroup=__strimzi-topic-operator-kstreams},1651432128,0
{consumergroup=__strimzi-topic-operator-kstreams},1651432133,0
{consumergroup=__strimzi-topic-operator-kstreams},1651432138,0
{consumergroup=__strimzi-topic-operator-kstreams},1651432143,0
{consumergroup=__strimzi-topic-operator-kstreams},1651432148,0
{consumergroup=__strimzi-topic-operator-kstreams},1651432153,0
{consumergroup=__strimzi-topic-operator-kstreams},1651432158,0
{consumergroup=__strimzi-topic-operator-kstreams},1651432163,0
{consumergroup=__strimzi-topic-operator-kstreams},1651432168,0
{consumergroup=__strimzi-topic-operator-kstreams},1651432173,0
{consumergroup=__strimzi-topic-operator-kstreams},1651432178,0
{consumergroup=adapter-service},1651431958,13332
{consumergroup=adapter-service},1651431963,13332
{consumergroup=adapter-service},1651431968,13332
{consumergroup=adapter-service},1651431973,39000
{consumergroup=adapter-service},1651431978,39000
{consumergroup=adapter-service},1651431983,39000
{consumergroup=adapter-service},1651431988,56007
{consumergroup=adapter-service},1651431993,56007
{consumergroup=adapter-service},1651431998,56007
{consumergroup=adapter-service},1651432003,74313
{consumergroup=adapter-service},1651432008,74313
{consumergroup=adapter-service},1651432013,74313
{consumergroup=adapter-service},1651432018,85442
{consumergroup=adapter-service},1651432023,85442
{consumergroup=adapter-service},1651432028,85442
{consumergroup=adapter-service},1651432033,99925
{consumergroup=adapter-service},1651432038,99925
{consumergroup=adapter-service},1651432043,99925
{consumergroup=adapter-service},1651432048,106891
{consumergroup=adapter-service},1651432053,106891
{consumergroup=adapter-service},1651432058,106891
{consumergroup=adapter-service},1651432063,107854
{consumergroup=adapter-service},1651432068,107854
{consumergroup=adapter-service},1651432073,107854
{consumergroup=adapter-service},1651432078,102519
{consumergroup=adapter-service},1651432083,102519
{consumergroup=adapter-service},1651432088,102519
{consumergroup=adapter-service},1651432093,94538
{consumergroup=adapter-service},1651432098,94538
{consumergroup=adapter-service},1651432103,94538
{consumergroup=adapter-service},1651432108,87861
{consumergroup=adapter-service},1651432113,87861
{consumergroup=adapter-service},1651432118,87861
{consumergroup=adapter-service},1651432123,79949
{consumergroup=adapter-service},1651432128,79949
{consumergroup=adapter-service},1651432133,79949
{consumergroup=adapter-service},1651432138,66536
{consumergroup=adapter-service},1651432143,66536
{consumergroup=adapter-service},1651432148,66536
{consumergroup=adapter-service},1651432153,61112
{consumergroup=adapter-service},1651432158,61112
{consumergroup=adapter-service},1651432163,61112
{consumergroup=adapter-service},1651432168,54525
{consumergroup=adapter-service},1651432173,54525
{consumergroup=adapter-service},1651432178,54525
