labels,timestamp,value
{consumergroup=__strimzi-topic-operator-kstreams},1651494196,11
{consumergroup=__strimzi-topic-operator-kstreams},1651494201,11
{consumergroup=__strimzi-topic-operator-kstreams},1651494206,11
{consumergroup=__strimzi-topic-operator-kstreams},1651494211,3
{consumergroup=__strimzi-topic-operator-kstreams},1651494216,3
{consumergroup=__strimzi-topic-operator-kstreams},1651494221,3
{consumergroup=__strimzi-topic-operator-kstreams},1651494226,3
{consumergroup=__strimzi-topic-operator-kstreams},1651494231,3
{consumergroup=__strimzi-topic-operator-kstreams},1651494236,3
{consumergroup=__strimzi-topic-operator-kstreams},1651494241,0
{consumergroup=__strimzi-topic-operator-kstreams},1651494246,0
{consumergroup=__strimzi-topic-operator-kstreams},1651494251,0
{consumergroup=__strimzi-topic-operator-kstreams},1651494256,0
{consumergroup=__strimzi-topic-operator-kstreams},1651494261,0
{consumergroup=__strimzi-topic-operator-kstreams},1651494266,0
{consumergroup=__strimzi-topic-operator-kstreams},1651494271,0
{consumergroup=__strimzi-topic-operator-kstreams},1651494276,0
{consumergroup=__strimzi-topic-operator-kstreams},1651494281,0
{consumergroup=__strimzi-topic-operator-kstreams},1651494286,0
{consumergroup=__strimzi-topic-operator-kstreams},1651494291,0
{consumergroup=__strimzi-topic-operator-kstreams},1651494296,0
{consumergroup=__strimzi-topic-operator-kstreams},1651494301,0
{consumergroup=__strimzi-topic-operator-kstreams},1651494306,0
{consumergroup=__strimzi-topic-operator-kstreams},1651494311,0
{consumergroup=__strimzi-topic-operator-kstreams},1651494316,0
{consumergroup=__strimzi-topic-operator-kstreams},1651494321,0
{consumergroup=__strimzi-topic-operator-kstreams},1651494326,0
{consumergroup=__strimzi-topic-operator-kstreams},1651494331,0
{consumergroup=__strimzi-topic-operator-kstreams},1651494336,0
{consumergroup=__strimzi-topic-operator-kstreams},1651494341,0
{consumergroup=__strimzi-topic-operator-kstreams},1651494346,0
{consumergroup=__strimzi-topic-operator-kstreams},1651494351,0
{consumergroup=__strimzi-topic-operator-kstreams},1651494356,0
{consumergroup=__strimzi-topic-operator-kstreams},1651494361,0
{consumergroup=__strimzi-topic-operator-kstreams},1651494366,0
{consumergroup=__strimzi-topic-operator-kstreams},1651494371,0
{consumergroup=__strimzi-topic-operator-kstreams},1651494376,0
{consumergroup=__strimzi-topic-operator-kstreams},1651494381,0
{consumergroup=__strimzi-topic-operator-kstreams},1651494386,0
{consumergroup=__strimzi-topic-operator-kstreams},1651494391,0
{consumergroup=__strimzi-topic-operator-kstreams},1651494396,0
{consumergroup=__strimzi-topic-operator-kstreams},1651494401,0
{consumergroup=__strimzi-topic-operator-kstreams},1651494406,0
{consumergroup=__strimzi-topic-operator-kstreams},1651494411,0
{consumergroup=__strimzi-topic-operator-kstreams},1651494416,0
{consumergroup=__strimzi-topic-operator-kstreams},1651494421,0
{consumergroup=__strimzi-topic-operator-kstreams},1651494426,0
{consumergroup=__strimzi-topic-operator-kstreams},1651494431,0
{consumergroup=__strimzi-topic-operator-kstreams},1651494436,0
{consumergroup=__strimzi-topic-operator-kstreams},1651494441,0
{consumergroup=__strimzi-topic-operator-kstreams},1651494446,0
{consumergroup=__strimzi-topic-operator-kstreams},1651494451,0
{consumergroup=__strimzi-topic-operator-kstreams},1651494456,0
{consumergroup=__strimzi-topic-operator-kstreams},1651494461,0
{consumergroup=__strimzi-topic-operator-kstreams},1651494466,0
{consumergroup=__strimzi-topic-operator-kstreams},1651494471,0
{consumergroup=__strimzi-topic-operator-kstreams},1651494476,0
{consumergroup=__strimzi-topic-operator-kstreams},1651494481,0
{consumergroup=__strimzi-topic-operator-kstreams},1651494486,0
{consumergroup=__strimzi-topic-operator-kstreams},1651494491,0
{consumergroup=__strimzi-topic-operator-kstreams},1651494496,0
{consumergroup=__strimzi-topic-operator-kstreams},1651494501,0
{consumergroup=__strimzi-topic-operator-kstreams},1651494506,0
{consumergroup=__strimzi-topic-operator-kstreams},1651494511,0
{consumergroup=__strimzi-topic-operator-kstreams},1651494516,0
{consumergroup=__strimzi-topic-operator-kstreams},1651494521,0
{consumergroup=__strimzi-topic-operator-kstreams},1651494526,0
{consumergroup=__strimzi-topic-operator-kstreams},1651494531,0
{consumergroup=__strimzi-topic-operator-kstreams},1651494536,0
{consumergroup=__strimzi-topic-operator-kstreams},1651494541,0
{consumergroup=__strimzi-topic-operator-kstreams},1651494546,0
{consumergroup=__strimzi-topic-operator-kstreams},1651494551,0
{consumergroup=__strimzi-topic-operator-kstreams},1651494556,0
{consumergroup=__strimzi-topic-operator-kstreams},1651494561,0
{consumergroup=__strimzi-topic-operator-kstreams},1651494566,0
{consumergroup=__strimzi-topic-operator-kstreams},1651494571,0
{consumergroup=__strimzi-topic-operator-kstreams},1651494576,0
{consumergroup=__strimzi-topic-operator-kstreams},1651494581,0
{consumergroup=__strimzi-topic-operator-kstreams},1651494586,0
{consumergroup=__strimzi-topic-operator-kstreams},1651494591,0
{consumergroup=__strimzi-topic-operator-kstreams},1651494596,0
{consumergroup=__strimzi-topic-operator-kstreams},1651494601,0
{consumergroup=__strimzi-topic-operator-kstreams},1651494606,0
{consumergroup=__strimzi-topic-operator-kstreams},1651494611,0
{consumergroup=__strimzi-topic-operator-kstreams},1651494616,0
{consumergroup=__strimzi-topic-operator-kstreams},1651494621,0
{consumergroup=__strimzi-topic-operator-kstreams},1651494626,0
{consumergroup=trace-service},1651494226,2346
{consumergroup=trace-service},1651494231,2346
{consumergroup=trace-service},1651494236,2346
{consumergroup=trace-service},1651494241,32585
{consumergroup=trace-service},1651494246,32585
{consumergroup=trace-service},1651494251,32585
{consumergroup=trace-service},1651494256,68867
{consumergroup=trace-service},1651494261,68867
{consumergroup=trace-service},1651494266,68867
{consumergroup=trace-service},1651494271,17689
{consumergroup=trace-service},1651494276,17689
{consumergroup=trace-service},1651494281,17689
{consumergroup=trace-service},1651494286,63405
{consumergroup=trace-service},1651494291,63405
{consumergroup=trace-service},1651494296,63405
{consumergroup=trace-service},1651494301,23598
{consumergroup=trace-service},1651494306,23598
{consumergroup=trace-service},1651494311,23598
{consumergroup=trace-service},1651494316,57921
{consumergroup=trace-service},1651494321,57921
{consumergroup=trace-service},1651494326,57921
{consumergroup=trace-service},1651494331,20976
{consumergroup=trace-service},1651494336,20976
{consumergroup=trace-service},1651494341,20976
{consumergroup=trace-service},1651494346,53940
{consumergroup=trace-service},1651494351,53940
{consumergroup=trace-service},1651494356,53940
{consumergroup=trace-service},1651494361,28852
{consumergroup=trace-service},1651494366,28852
{consumergroup=trace-service},1651494371,28852
{consumergroup=trace-service},1651494376,59518
{consumergroup=trace-service},1651494381,59518
{consumergroup=trace-service},1651494386,59518
{consumergroup=trace-service},1651494391,19231
{consumergroup=trace-service},1651494396,19231
{consumergroup=trace-service},1651494401,19231
{consumergroup=trace-service},1651494406,57295
{consumergroup=trace-service},1651494411,57295
{consumergroup=trace-service},1651494416,57295
{consumergroup=trace-service},1651494421,19652
{consumergroup=trace-service},1651494426,19652
{consumergroup=trace-service},1651494431,19652
{consumergroup=trace-service},1651494436,51914
{consumergroup=trace-service},1651494441,51914
{consumergroup=trace-service},1651494446,51914
{consumergroup=trace-service},1651494451,11077
{consumergroup=trace-service},1651494456,11077
{consumergroup=trace-service},1651494461,11077
{consumergroup=trace-service},1651494466,61615
{consumergroup=trace-service},1651494471,61615
{consumergroup=trace-service},1651494476,61615
{consumergroup=trace-service},1651494481,20380
{consumergroup=trace-service},1651494486,20380
{consumergroup=trace-service},1651494491,20380
{consumergroup=trace-service},1651494496,61913
{consumergroup=trace-service},1651494501,61913
{consumergroup=trace-service},1651494506,61913
{consumergroup=trace-service},1651494511,20909
{consumergroup=trace-service},1651494516,20909
{consumergroup=trace-service},1651494521,20909
{consumergroup=trace-service},1651494526,58054
{consumergroup=trace-service},1651494531,58054
{consumergroup=trace-service},1651494536,58054
{consumergroup=trace-service},1651494541,11165
{consumergroup=trace-service},1651494546,11165
{consumergroup=trace-service},1651494551,11165
{consumergroup=trace-service},1651494556,61321
{consumergroup=trace-service},1651494561,61321
{consumergroup=trace-service},1651494566,61321
{consumergroup=trace-service},1651494571,108749
{consumergroup=trace-service},1651494576,108749
{consumergroup=trace-service},1651494581,108749
{consumergroup=trace-service},1651494586,57687
{consumergroup=trace-service},1651494591,57687
{consumergroup=trace-service},1651494596,57687
{consumergroup=trace-service},1651494601,20549
{consumergroup=trace-service},1651494606,20549
{consumergroup=trace-service},1651494611,20549
{consumergroup=trace-service},1651494616,51784
{consumergroup=trace-service},1651494621,51784
{consumergroup=trace-service},1651494626,51784
{consumergroup=trace-token-events-consumer},1651494226,0
{consumergroup=trace-token-events-consumer},1651494231,0
{consumergroup=trace-token-events-consumer},1651494236,0
{consumergroup=trace-token-events-consumer},1651494241,0
{consumergroup=trace-token-events-consumer},1651494246,0
{consumergroup=trace-token-events-consumer},1651494251,0
{consumergroup=trace-token-events-consumer},1651494256,0
{consumergroup=trace-token-events-consumer},1651494261,0
{consumergroup=trace-token-events-consumer},1651494266,0
{consumergroup=trace-token-events-consumer},1651494271,0
{consumergroup=trace-token-events-consumer},1651494276,0
{consumergroup=trace-token-events-consumer},1651494281,0
{consumergroup=trace-token-events-consumer},1651494286,0
{consumergroup=trace-token-events-consumer},1651494291,0
{consumergroup=trace-token-events-consumer},1651494296,0
{consumergroup=trace-token-events-consumer},1651494301,0
{consumergroup=trace-token-events-consumer},1651494306,0
{consumergroup=trace-token-events-consumer},1651494311,0
{consumergroup=trace-token-events-consumer},1651494316,0
{consumergroup=trace-token-events-consumer},1651494321,0
{consumergroup=trace-token-events-consumer},1651494326,0
{consumergroup=trace-token-events-consumer},1651494331,0
{consumergroup=trace-token-events-consumer},1651494336,0
{consumergroup=trace-token-events-consumer},1651494341,0
{consumergroup=trace-token-events-consumer},1651494346,0
{consumergroup=trace-token-events-consumer},1651494351,0
{consumergroup=trace-token-events-consumer},1651494356,0
{consumergroup=trace-token-events-consumer},1651494361,0
{consumergroup=trace-token-events-consumer},1651494366,0
{consumergroup=trace-token-events-consumer},1651494371,0
{consumergroup=trace-token-events-consumer},1651494376,0
{consumergroup=trace-token-events-consumer},1651494381,0
{consumergroup=trace-token-events-consumer},1651494386,0
{consumergroup=trace-token-events-consumer},1651494391,0
{consumergroup=trace-token-events-consumer},1651494396,0
{consumergroup=trace-token-events-consumer},1651494401,0
{consumergroup=trace-token-events-consumer},1651494406,0
{consumergroup=trace-token-events-consumer},1651494411,0
{consumergroup=trace-token-events-consumer},1651494416,0
{consumergroup=trace-token-events-consumer},1651494421,0
{consumergroup=trace-token-events-consumer},1651494426,0
{consumergroup=trace-token-events-consumer},1651494431,0
{consumergroup=trace-token-events-consumer},1651494436,0
{consumergroup=trace-token-events-consumer},1651494441,0
{consumergroup=trace-token-events-consumer},1651494446,0
{consumergroup=trace-token-events-consumer},1651494451,0
{consumergroup=trace-token-events-consumer},1651494456,0
{consumergroup=trace-token-events-consumer},1651494461,0
{consumergroup=trace-token-events-consumer},1651494466,0
{consumergroup=trace-token-events-consumer},1651494471,0
{consumergroup=trace-token-events-consumer},1651494476,0
{consumergroup=trace-token-events-consumer},1651494481,0
{consumergroup=trace-token-events-consumer},1651494486,0
{consumergroup=trace-token-events-consumer},1651494491,0
{consumergroup=trace-token-events-consumer},1651494496,0
{consumergroup=trace-token-events-consumer},1651494501,0
{consumergroup=trace-token-events-consumer},1651494506,0
{consumergroup=trace-token-events-consumer},1651494511,0
{consumergroup=trace-token-events-consumer},1651494516,0
{consumergroup=trace-token-events-consumer},1651494521,0
{consumergroup=trace-token-events-consumer},1651494526,0
{consumergroup=trace-token-events-consumer},1651494531,0
{consumergroup=trace-token-events-consumer},1651494536,0
{consumergroup=trace-token-events-consumer},1651494541,0
{consumergroup=trace-token-events-consumer},1651494546,0
{consumergroup=trace-token-events-consumer},1651494551,0
{consumergroup=trace-token-events-consumer},1651494556,0
{consumergroup=trace-token-events-consumer},1651494561,0
{consumergroup=trace-token-events-consumer},1651494566,0
{consumergroup=trace-token-events-consumer},1651494571,0
{consumergroup=trace-token-events-consumer},1651494576,0
{consumergroup=trace-token-events-consumer},1651494581,0
{consumergroup=trace-token-events-consumer},1651494586,0
{consumergroup=trace-token-events-consumer},1651494591,0
{consumergroup=trace-token-events-consumer},1651494596,0
{consumergroup=trace-token-events-consumer},1651494601,0
{consumergroup=trace-token-events-consumer},1651494606,0
{consumergroup=trace-token-events-consumer},1651494611,0
{consumergroup=trace-token-events-consumer},1651494616,0
{consumergroup=trace-token-events-consumer},1651494621,0
{consumergroup=trace-token-events-consumer},1651494626,0
