labels,timestamp,value
{job=theodolite-stu200776/combined-trace-podmonitor},1651317734,0.7455465701877789
{job=theodolite-stu200776/combined-trace-podmonitor},1651317739,1.2507874443123048
{job=theodolite-stu200776/combined-trace-podmonitor},1651317744,1.0984379368811168
{job=theodolite-stu200776/combined-trace-podmonitor},1651317749,1.0004711078031725
{job=theodolite-stu200776/combined-trace-podmonitor},1651317754,0.8997577993786571
{job=theodolite-stu200776/combined-trace-podmonitor},1651317759,1.1579392274422609
{job=theodolite-stu200776/combined-trace-podmonitor},1651317764,1.4113622399931192
{job=theodolite-stu200776/combined-trace-podmonitor},1651317769,1.2511719534480132
{job=theodolite-stu200776/combined-trace-podmonitor},1651317774,1.098549229094456
{job=theodolite-stu200776/combined-trace-podmonitor},1651317779,1.0005738855361876
{job=theodolite-stu200776/combined-trace-podmonitor},1651317784,0.8998091556140355
{job=theodolite-stu200776/combined-trace-podmonitor},1651317789,0.49251931260722426
{job=theodolite-stu200776/combined-trace-podmonitor},1651317794,0
{job=theodolite-stu200776/combined-trace-podmonitor},1651317799,0
{job=theodolite-stu200776/combined-trace-podmonitor},1651317804,0
{job=theodolite-stu200776/combined-trace-podmonitor},1651317809,0
{job=theodolite-stu200776/combined-trace-podmonitor},1651317814,0
{job=theodolite-stu200776/combined-trace-podmonitor},1651317819,0
{job=theodolite-stu200776/combined-trace-podmonitor},1651317824,0
{job=theodolite-stu200776/combined-trace-podmonitor},1651317829,0
{job=theodolite-stu200776/combined-trace-podmonitor},1651317834,0
{job=theodolite-stu200776/combined-trace-podmonitor},1651317839,0
{job=theodolite-stu200776/combined-trace-podmonitor},1651317844,0
{job=theodolite-stu200776/combined-trace-podmonitor},1651317849,0
{job=theodolite-stu200776/combined-trace-podmonitor},1651317854,0
{job=theodolite-stu200776/combined-trace-podmonitor},1651317859,0
{job=theodolite-stu200776/combined-trace-podmonitor},1651317864,0
{job=theodolite-stu200776/combined-trace-podmonitor},1651317869,0
{job=theodolite-stu200776/combined-trace-podmonitor},1651317874,0
{job=theodolite-stu200776/combined-trace-podmonitor},1651317879,0
{job=theodolite-stu200776/combined-trace-podmonitor},1651317884,0
{job=theodolite-stu200776/combined-trace-podmonitor},1651317889,0
{job=theodolite-stu200776/combined-trace-podmonitor},1651317894,0
{job=theodolite-stu200776/combined-trace-podmonitor},1651317899,0
{job=theodolite-stu200776/combined-trace-podmonitor},1651317904,0
{job=theodolite-stu200776/combined-trace-podmonitor},1651317909,0
{job=theodolite-stu200776/combined-trace-podmonitor},1651317914,0
{job=theodolite-stu200776/combined-trace-podmonitor},1651317919,0
{job=theodolite-stu200776/combined-trace-podmonitor},1651317924,0
{job=theodolite-stu200776/combined-trace-podmonitor},1651317929,0
{job=theodolite-stu200776/combined-trace-podmonitor},1651317934,0
{job=theodolite-stu200776/combined-trace-podmonitor},1651317939,0
{job=theodolite-stu200776/combined-trace-podmonitor},1651317944,0
{job=theodolite-stu200776/combined-trace-podmonitor},1651317949,0
{job=theodolite-stu200776/combined-trace-podmonitor},1651317954,0
{job=theodolite-stu200776/combined-trace-podmonitor},1651317959,0
{job=theodolite-stu200776/combined-trace-podmonitor},1651317964,0
{job=theodolite-stu200776/combined-trace-podmonitor},1651317969,0
{job=theodolite-stu200776/combined-trace-podmonitor},1651317974,0
{job=theodolite-stu200776/combined-trace-podmonitor},1651317979,0
{job=theodolite-stu200776/combined-trace-podmonitor},1651317984,0
{job=theodolite-stu200776/combined-trace-podmonitor},1651317989,0
{job=theodolite-stu200776/combined-trace-podmonitor},1651317994,0
{job=theodolite-stu200776/combined-trace-podmonitor},1651317999,0
{job=theodolite-stu200776/combined-trace-podmonitor},1651318004,0
{job=theodolite-stu200776/combined-trace-podmonitor},1651318009,0
{job=theodolite-stu200776/combined-trace-podmonitor},1651318014,0
{job=theodolite-stu200776/combined-trace-podmonitor},1651318019,0
{job=theodolite-stu200776/combined-trace-podmonitor},1651318024,0
{job=theodolite-stu200776/combined-trace-podmonitor},1651318029,0
{job=theodolite-stu200776/combined-trace-podmonitor},1651318034,0
{job=theodolite-stu200776/combined-trace-podmonitor},1651318039,0
{job=theodolite-stu200776/combined-trace-podmonitor},1651318044,0
{job=theodolite-stu200776/combined-trace-podmonitor},1651318049,0
{job=theodolite-stu200776/combined-trace-podmonitor},1651318054,0
{job=theodolite-stu200776/combined-trace-podmonitor},1651318059,0
{job=theodolite-stu200776/combined-trace-podmonitor},1651318064,0
{job=theodolite-stu200776/combined-trace-podmonitor},1651318069,0
{job=theodolite-stu200776/combined-trace-podmonitor},1651318074,0
{job=theodolite-stu200776/combined-trace-podmonitor},1651318079,0
{job=theodolite-stu200776/combined-trace-podmonitor},1651318084,0
{job=theodolite-stu200776/combined-trace-podmonitor},1651318089,0
{job=theodolite-stu200776/combined-trace-podmonitor},1651318094,0
{job=theodolite-stu200776/combined-trace-podmonitor},1651318099,0
{job=theodolite-stu200776/combined-trace-podmonitor},1651318104,0
{job=theodolite-stu200776/combined-trace-podmonitor},1651318109,0
{job=theodolite-stu200776/combined-trace-podmonitor},1651318114,0
{job=theodolite-stu200776/combined-trace-podmonitor},1651318119,0
{job=theodolite-stu200776/combined-trace-podmonitor},1651318124,0
{job=theodolite-stu200776/combined-trace-podmonitor},1651318129,0
{job=theodolite-stu200776/combined-trace-podmonitor},1651318134,0
{job=theodolite-stu200776/combined-trace-podmonitor},1651318139,0
{job=theodolite-stu200776/combined-trace-podmonitor},1651318144,0
{job=theodolite-stu200776/combined-trace-podmonitor},1651318149,0
{job=theodolite-stu200776/combined-trace-podmonitor},1651318154,0
{job=theodolite-stu200776/combined-trace-podmonitor},1651318159,0
{job=theodolite-stu200776/combined-trace-podmonitor},1651318164,0
{job=theodolite-stu200776/combined-trace-podmonitor},1651318169,0
