labels,timestamp,value
{consumergroup=__strimzi-topic-operator-kstreams},1651485994,3
{consumergroup=__strimzi-topic-operator-kstreams},1651485999,3
{consumergroup=__strimzi-topic-operator-kstreams},1651486004,3
{consumergroup=__strimzi-topic-operator-kstreams},1651486009,11
{consumergroup=__strimzi-topic-operator-kstreams},1651486014,11
{consumergroup=__strimzi-topic-operator-kstreams},1651486019,11
{consumergroup=__strimzi-topic-operator-kstreams},1651486024,3
{consumergroup=__strimzi-topic-operator-kstreams},1651486029,3
{consumergroup=__strimzi-topic-operator-kstreams},1651486034,3
{consumergroup=__strimzi-topic-operator-kstreams},1651486039,3
{consumergroup=__strimzi-topic-operator-kstreams},1651486044,3
{consumergroup=__strimzi-topic-operator-kstreams},1651486049,3
{consumergroup=__strimzi-topic-operator-kstreams},1651486054,0
{consumergroup=__strimzi-topic-operator-kstreams},1651486059,0
{consumergroup=__strimzi-topic-operator-kstreams},1651486064,0
{consumergroup=__strimzi-topic-operator-kstreams},1651486069,0
{consumergroup=__strimzi-topic-operator-kstreams},1651486074,0
{consumergroup=__strimzi-topic-operator-kstreams},1651486079,0
{consumergroup=__strimzi-topic-operator-kstreams},1651486084,0
{consumergroup=__strimzi-topic-operator-kstreams},1651486089,0
{consumergroup=__strimzi-topic-operator-kstreams},1651486094,0
{consumergroup=__strimzi-topic-operator-kstreams},1651486099,0
{consumergroup=__strimzi-topic-operator-kstreams},1651486104,0
{consumergroup=__strimzi-topic-operator-kstreams},1651486109,0
{consumergroup=__strimzi-topic-operator-kstreams},1651486114,0
{consumergroup=__strimzi-topic-operator-kstreams},1651486119,0
{consumergroup=__strimzi-topic-operator-kstreams},1651486124,0
{consumergroup=__strimzi-topic-operator-kstreams},1651486129,0
{consumergroup=__strimzi-topic-operator-kstreams},1651486134,0
{consumergroup=__strimzi-topic-operator-kstreams},1651486139,0
{consumergroup=__strimzi-topic-operator-kstreams},1651486144,0
{consumergroup=__strimzi-topic-operator-kstreams},1651486149,0
{consumergroup=__strimzi-topic-operator-kstreams},1651486154,0
{consumergroup=__strimzi-topic-operator-kstreams},1651486159,0
{consumergroup=__strimzi-topic-operator-kstreams},1651486164,0
{consumergroup=__strimzi-topic-operator-kstreams},1651486169,0
{consumergroup=__strimzi-topic-operator-kstreams},1651486174,0
{consumergroup=__strimzi-topic-operator-kstreams},1651486179,0
{consumergroup=__strimzi-topic-operator-kstreams},1651486184,0
{consumergroup=__strimzi-topic-operator-kstreams},1651486189,0
{consumergroup=__strimzi-topic-operator-kstreams},1651486194,0
{consumergroup=__strimzi-topic-operator-kstreams},1651486199,0
{consumergroup=__strimzi-topic-operator-kstreams},1651486204,0
{consumergroup=__strimzi-topic-operator-kstreams},1651486209,0
{consumergroup=__strimzi-topic-operator-kstreams},1651486214,0
{consumergroup=__strimzi-topic-operator-kstreams},1651486219,0
{consumergroup=__strimzi-topic-operator-kstreams},1651486224,0
{consumergroup=__strimzi-topic-operator-kstreams},1651486229,0
{consumergroup=__strimzi-topic-operator-kstreams},1651486234,0
{consumergroup=__strimzi-topic-operator-kstreams},1651486239,0
{consumergroup=__strimzi-topic-operator-kstreams},1651486244,0
{consumergroup=__strimzi-topic-operator-kstreams},1651486249,0
{consumergroup=__strimzi-topic-operator-kstreams},1651486254,0
{consumergroup=__strimzi-topic-operator-kstreams},1651486259,0
{consumergroup=__strimzi-topic-operator-kstreams},1651486264,0
{consumergroup=__strimzi-topic-operator-kstreams},1651486269,0
{consumergroup=__strimzi-topic-operator-kstreams},1651486274,0
{consumergroup=__strimzi-topic-operator-kstreams},1651486279,0
{consumergroup=__strimzi-topic-operator-kstreams},1651486284,0
{consumergroup=__strimzi-topic-operator-kstreams},1651486289,0
{consumergroup=__strimzi-topic-operator-kstreams},1651486294,0
{consumergroup=__strimzi-topic-operator-kstreams},1651486299,0
{consumergroup=__strimzi-topic-operator-kstreams},1651486304,0
{consumergroup=__strimzi-topic-operator-kstreams},1651486309,0
{consumergroup=__strimzi-topic-operator-kstreams},1651486314,0
{consumergroup=__strimzi-topic-operator-kstreams},1651486319,0
{consumergroup=__strimzi-topic-operator-kstreams},1651486324,0
{consumergroup=__strimzi-topic-operator-kstreams},1651486329,0
{consumergroup=__strimzi-topic-operator-kstreams},1651486334,0
{consumergroup=__strimzi-topic-operator-kstreams},1651486339,0
{consumergroup=__strimzi-topic-operator-kstreams},1651486344,0
{consumergroup=__strimzi-topic-operator-kstreams},1651486349,0
{consumergroup=__strimzi-topic-operator-kstreams},1651486354,0
{consumergroup=__strimzi-topic-operator-kstreams},1651486359,0
{consumergroup=__strimzi-topic-operator-kstreams},1651486364,0
{consumergroup=__strimzi-topic-operator-kstreams},1651486369,0
{consumergroup=__strimzi-topic-operator-kstreams},1651486374,0
{consumergroup=__strimzi-topic-operator-kstreams},1651486379,0
{consumergroup=__strimzi-topic-operator-kstreams},1651486384,0
{consumergroup=__strimzi-topic-operator-kstreams},1651486389,0
{consumergroup=__strimzi-topic-operator-kstreams},1651486394,0
{consumergroup=__strimzi-topic-operator-kstreams},1651486399,0
{consumergroup=__strimzi-topic-operator-kstreams},1651486404,0
{consumergroup=__strimzi-topic-operator-kstreams},1651486409,0
{consumergroup=__strimzi-topic-operator-kstreams},1651486414,0
{consumergroup=__strimzi-topic-operator-kstreams},1651486419,0
{consumergroup=__strimzi-topic-operator-kstreams},1651486424,0
{consumergroup=__strimzi-topic-operator-kstreams},1651486429,0
{consumergroup=__strimzi-topic-operator-kstreams},1651486434,0
{consumergroup=__strimzi-topic-operator-kstreams},1651486439,0
{consumergroup=trace-service},1651486039,10137
{consumergroup=trace-service},1651486044,10137
{consumergroup=trace-service},1651486049,10137
{consumergroup=trace-service},1651486054,4368
{consumergroup=trace-service},1651486059,4368
{consumergroup=trace-service},1651486064,4368
{consumergroup=trace-service},1651486069,48525
{consumergroup=trace-service},1651486074,48525
{consumergroup=trace-service},1651486079,48525
{consumergroup=trace-service},1651486084,11950
{consumergroup=trace-service},1651486089,11950
{consumergroup=trace-service},1651486094,11950
{consumergroup=trace-service},1651486099,63540
{consumergroup=trace-service},1651486104,63540
{consumergroup=trace-service},1651486109,63540
{consumergroup=trace-service},1651486114,18511
{consumergroup=trace-service},1651486119,18511
{consumergroup=trace-service},1651486124,18511
{consumergroup=trace-service},1651486129,64657
{consumergroup=trace-service},1651486134,64657
{consumergroup=trace-service},1651486139,64657
{consumergroup=trace-service},1651486144,15979
{consumergroup=trace-service},1651486149,15979
{consumergroup=trace-service},1651486154,15979
{consumergroup=trace-service},1651486159,48561
{consumergroup=trace-service},1651486164,48561
{consumergroup=trace-service},1651486169,48561
{consumergroup=trace-service},1651486174,21362
{consumergroup=trace-service},1651486179,21362
{consumergroup=trace-service},1651486184,21362
{consumergroup=trace-service},1651486189,57349
{consumergroup=trace-service},1651486194,57349
{consumergroup=trace-service},1651486199,57349
{consumergroup=trace-service},1651486204,13363
{consumergroup=trace-service},1651486209,13363
{consumergroup=trace-service},1651486214,13363
{consumergroup=trace-service},1651486219,55354
{consumergroup=trace-service},1651486224,55354
{consumergroup=trace-service},1651486229,55354
{consumergroup=trace-service},1651486234,21278
{consumergroup=trace-service},1651486239,21278
{consumergroup=trace-service},1651486244,21278
{consumergroup=trace-service},1651486249,56873
{consumergroup=trace-service},1651486254,56873
{consumergroup=trace-service},1651486259,56873
{consumergroup=trace-service},1651486264,14212
{consumergroup=trace-service},1651486269,14212
{consumergroup=trace-service},1651486274,14212
{consumergroup=trace-service},1651486279,45340
{consumergroup=trace-service},1651486284,45340
{consumergroup=trace-service},1651486289,45340
{consumergroup=trace-service},1651486294,14385
{consumergroup=trace-service},1651486299,14385
{consumergroup=trace-service},1651486304,14385
{consumergroup=trace-service},1651486309,52407
{consumergroup=trace-service},1651486314,52407
{consumergroup=trace-service},1651486319,52407
{consumergroup=trace-service},1651486324,16419
{consumergroup=trace-service},1651486329,16419
{consumergroup=trace-service},1651486334,16419
{consumergroup=trace-service},1651486339,50322
{consumergroup=trace-service},1651486344,50322
{consumergroup=trace-service},1651486349,50322
{consumergroup=trace-service},1651486354,17106
{consumergroup=trace-service},1651486359,17106
{consumergroup=trace-service},1651486364,17106
{consumergroup=trace-service},1651486369,48038
{consumergroup=trace-service},1651486374,48038
{consumergroup=trace-service},1651486379,48038
{consumergroup=trace-service},1651486384,10200
{consumergroup=trace-service},1651486389,10200
{consumergroup=trace-service},1651486394,10200
{consumergroup=trace-service},1651486399,49035
{consumergroup=trace-service},1651486404,49035
{consumergroup=trace-service},1651486409,49035
{consumergroup=trace-service},1651486414,17210
{consumergroup=trace-service},1651486419,17210
{consumergroup=trace-service},1651486424,17210
{consumergroup=trace-service},1651486429,55013
{consumergroup=trace-service},1651486434,55013
{consumergroup=trace-service},1651486439,55013
{consumergroup=trace-token-events-consumer},1651486039,0
{consumergroup=trace-token-events-consumer},1651486044,0
{consumergroup=trace-token-events-consumer},1651486049,0
{consumergroup=trace-token-events-consumer},1651486054,0
{consumergroup=trace-token-events-consumer},1651486059,0
{consumergroup=trace-token-events-consumer},1651486064,0
{consumergroup=trace-token-events-consumer},1651486069,0
{consumergroup=trace-token-events-consumer},1651486074,0
{consumergroup=trace-token-events-consumer},1651486079,0
{consumergroup=trace-token-events-consumer},1651486084,0
{consumergroup=trace-token-events-consumer},1651486089,0
{consumergroup=trace-token-events-consumer},1651486094,0
{consumergroup=trace-token-events-consumer},1651486099,0
{consumergroup=trace-token-events-consumer},1651486104,0
{consumergroup=trace-token-events-consumer},1651486109,0
{consumergroup=trace-token-events-consumer},1651486114,0
{consumergroup=trace-token-events-consumer},1651486119,0
{consumergroup=trace-token-events-consumer},1651486124,0
{consumergroup=trace-token-events-consumer},1651486129,0
{consumergroup=trace-token-events-consumer},1651486134,0
{consumergroup=trace-token-events-consumer},1651486139,0
{consumergroup=trace-token-events-consumer},1651486144,0
{consumergroup=trace-token-events-consumer},1651486149,0
{consumergroup=trace-token-events-consumer},1651486154,0
{consumergroup=trace-token-events-consumer},1651486159,0
{consumergroup=trace-token-events-consumer},1651486164,0
{consumergroup=trace-token-events-consumer},1651486169,0
{consumergroup=trace-token-events-consumer},1651486174,0
{consumergroup=trace-token-events-consumer},1651486179,0
{consumergroup=trace-token-events-consumer},1651486184,0
{consumergroup=trace-token-events-consumer},1651486189,0
{consumergroup=trace-token-events-consumer},1651486194,0
{consumergroup=trace-token-events-consumer},1651486199,0
{consumergroup=trace-token-events-consumer},1651486204,0
{consumergroup=trace-token-events-consumer},1651486209,0
{consumergroup=trace-token-events-consumer},1651486214,0
{consumergroup=trace-token-events-consumer},1651486219,0
{consumergroup=trace-token-events-consumer},1651486224,0
{consumergroup=trace-token-events-consumer},1651486229,0
{consumergroup=trace-token-events-consumer},1651486234,0
{consumergroup=trace-token-events-consumer},1651486239,0
{consumergroup=trace-token-events-consumer},1651486244,0
{consumergroup=trace-token-events-consumer},1651486249,0
{consumergroup=trace-token-events-consumer},1651486254,0
{consumergroup=trace-token-events-consumer},1651486259,0
{consumergroup=trace-token-events-consumer},1651486264,0
{consumergroup=trace-token-events-consumer},1651486269,0
{consumergroup=trace-token-events-consumer},1651486274,0
{consumergroup=trace-token-events-consumer},1651486279,0
{consumergroup=trace-token-events-consumer},1651486284,0
{consumergroup=trace-token-events-consumer},1651486289,0
{consumergroup=trace-token-events-consumer},1651486294,0
{consumergroup=trace-token-events-consumer},1651486299,0
{consumergroup=trace-token-events-consumer},1651486304,0
{consumergroup=trace-token-events-consumer},1651486309,0
{consumergroup=trace-token-events-consumer},1651486314,0
{consumergroup=trace-token-events-consumer},1651486319,0
{consumergroup=trace-token-events-consumer},1651486324,0
{consumergroup=trace-token-events-consumer},1651486329,0
{consumergroup=trace-token-events-consumer},1651486334,0
{consumergroup=trace-token-events-consumer},1651486339,0
{consumergroup=trace-token-events-consumer},1651486344,0
{consumergroup=trace-token-events-consumer},1651486349,0
{consumergroup=trace-token-events-consumer},1651486354,0
{consumergroup=trace-token-events-consumer},1651486359,0
{consumergroup=trace-token-events-consumer},1651486364,0
{consumergroup=trace-token-events-consumer},1651486369,0
{consumergroup=trace-token-events-consumer},1651486374,0
{consumergroup=trace-token-events-consumer},1651486379,0
{consumergroup=trace-token-events-consumer},1651486384,0
{consumergroup=trace-token-events-consumer},1651486389,0
{consumergroup=trace-token-events-consumer},1651486394,0
{consumergroup=trace-token-events-consumer},1651486399,0
{consumergroup=trace-token-events-consumer},1651486404,0
{consumergroup=trace-token-events-consumer},1651486409,0
{consumergroup=trace-token-events-consumer},1651486414,0
{consumergroup=trace-token-events-consumer},1651486419,0
{consumergroup=trace-token-events-consumer},1651486424,0
{consumergroup=trace-token-events-consumer},1651486429,0
{consumergroup=trace-token-events-consumer},1651486434,0
{consumergroup=trace-token-events-consumer},1651486439,0
