labels,timestamp,value
{consumergroup=__strimzi-topic-operator-kstreams},1651508010,3
{consumergroup=__strimzi-topic-operator-kstreams},1651508015,3
{consumergroup=__strimzi-topic-operator-kstreams},1651508020,3
{consumergroup=__strimzi-topic-operator-kstreams},1651508025,11
{consumergroup=__strimzi-topic-operator-kstreams},1651508030,11
{consumergroup=__strimzi-topic-operator-kstreams},1651508035,11
{consumergroup=__strimzi-topic-operator-kstreams},1651508040,3
{consumergroup=__strimzi-topic-operator-kstreams},1651508045,3
{consumergroup=__strimzi-topic-operator-kstreams},1651508050,3
{consumergroup=__strimzi-topic-operator-kstreams},1651508055,3
{consumergroup=__strimzi-topic-operator-kstreams},1651508060,3
{consumergroup=__strimzi-topic-operator-kstreams},1651508065,3
{consumergroup=__strimzi-topic-operator-kstreams},1651508070,0
{consumergroup=__strimzi-topic-operator-kstreams},1651508075,0
{consumergroup=__strimzi-topic-operator-kstreams},1651508080,0
{consumergroup=__strimzi-topic-operator-kstreams},1651508085,0
{consumergroup=__strimzi-topic-operator-kstreams},1651508090,0
{consumergroup=__strimzi-topic-operator-kstreams},1651508095,0
{consumergroup=__strimzi-topic-operator-kstreams},1651508100,0
{consumergroup=__strimzi-topic-operator-kstreams},1651508105,0
{consumergroup=__strimzi-topic-operator-kstreams},1651508110,0
{consumergroup=__strimzi-topic-operator-kstreams},1651508115,0
{consumergroup=__strimzi-topic-operator-kstreams},1651508120,0
{consumergroup=__strimzi-topic-operator-kstreams},1651508125,0
{consumergroup=__strimzi-topic-operator-kstreams},1651508130,0
{consumergroup=__strimzi-topic-operator-kstreams},1651508135,0
{consumergroup=__strimzi-topic-operator-kstreams},1651508140,0
{consumergroup=__strimzi-topic-operator-kstreams},1651508145,0
{consumergroup=__strimzi-topic-operator-kstreams},1651508150,0
{consumergroup=__strimzi-topic-operator-kstreams},1651508155,0
{consumergroup=__strimzi-topic-operator-kstreams},1651508160,0
{consumergroup=__strimzi-topic-operator-kstreams},1651508165,0
{consumergroup=__strimzi-topic-operator-kstreams},1651508170,0
{consumergroup=__strimzi-topic-operator-kstreams},1651508175,0
{consumergroup=__strimzi-topic-operator-kstreams},1651508180,0
{consumergroup=__strimzi-topic-operator-kstreams},1651508185,0
{consumergroup=__strimzi-topic-operator-kstreams},1651508190,0
{consumergroup=__strimzi-topic-operator-kstreams},1651508195,0
{consumergroup=__strimzi-topic-operator-kstreams},1651508200,0
{consumergroup=__strimzi-topic-operator-kstreams},1651508205,0
{consumergroup=__strimzi-topic-operator-kstreams},1651508210,0
{consumergroup=__strimzi-topic-operator-kstreams},1651508215,0
{consumergroup=__strimzi-topic-operator-kstreams},1651508220,0
{consumergroup=__strimzi-topic-operator-kstreams},1651508225,0
{consumergroup=__strimzi-topic-operator-kstreams},1651508230,0
{consumergroup=__strimzi-topic-operator-kstreams},1651508235,0
{consumergroup=__strimzi-topic-operator-kstreams},1651508240,0
{consumergroup=__strimzi-topic-operator-kstreams},1651508245,0
{consumergroup=__strimzi-topic-operator-kstreams},1651508250,0
{consumergroup=__strimzi-topic-operator-kstreams},1651508255,0
{consumergroup=__strimzi-topic-operator-kstreams},1651508260,0
{consumergroup=__strimzi-topic-operator-kstreams},1651508265,0
{consumergroup=__strimzi-topic-operator-kstreams},1651508270,0
{consumergroup=__strimzi-topic-operator-kstreams},1651508275,0
{consumergroup=__strimzi-topic-operator-kstreams},1651508280,0
{consumergroup=__strimzi-topic-operator-kstreams},1651508285,0
{consumergroup=__strimzi-topic-operator-kstreams},1651508290,0
{consumergroup=__strimzi-topic-operator-kstreams},1651508295,0
{consumergroup=__strimzi-topic-operator-kstreams},1651508300,0
{consumergroup=__strimzi-topic-operator-kstreams},1651508305,0
{consumergroup=__strimzi-topic-operator-kstreams},1651508310,0
{consumergroup=__strimzi-topic-operator-kstreams},1651508315,0
{consumergroup=__strimzi-topic-operator-kstreams},1651508320,0
{consumergroup=__strimzi-topic-operator-kstreams},1651508325,0
{consumergroup=__strimzi-topic-operator-kstreams},1651508330,0
{consumergroup=__strimzi-topic-operator-kstreams},1651508335,0
{consumergroup=__strimzi-topic-operator-kstreams},1651508340,0
{consumergroup=__strimzi-topic-operator-kstreams},1651508345,0
{consumergroup=__strimzi-topic-operator-kstreams},1651508350,0
{consumergroup=__strimzi-topic-operator-kstreams},1651508355,0
{consumergroup=__strimzi-topic-operator-kstreams},1651508360,0
{consumergroup=__strimzi-topic-operator-kstreams},1651508365,0
{consumergroup=__strimzi-topic-operator-kstreams},1651508370,0
{consumergroup=__strimzi-topic-operator-kstreams},1651508375,0
{consumergroup=__strimzi-topic-operator-kstreams},1651508380,0
{consumergroup=__strimzi-topic-operator-kstreams},1651508385,0
{consumergroup=__strimzi-topic-operator-kstreams},1651508390,0
{consumergroup=__strimzi-topic-operator-kstreams},1651508395,0
{consumergroup=__strimzi-topic-operator-kstreams},1651508400,0
{consumergroup=__strimzi-topic-operator-kstreams},1651508405,0
{consumergroup=__strimzi-topic-operator-kstreams},1651508410,0
{consumergroup=__strimzi-topic-operator-kstreams},1651508415,0
{consumergroup=__strimzi-topic-operator-kstreams},1651508420,0
{consumergroup=__strimzi-topic-operator-kstreams},1651508425,0
{consumergroup=__strimzi-topic-operator-kstreams},1651508430,0
{consumergroup=__strimzi-topic-operator-kstreams},1651508435,0
{consumergroup=__strimzi-topic-operator-kstreams},1651508440,0
{consumergroup=__strimzi-topic-operator-kstreams},1651508445,0
{consumergroup=__strimzi-topic-operator-kstreams},1651508450,0
{consumergroup=__strimzi-topic-operator-kstreams},1651508455,0
{consumergroup=__strimzi-topic-operator-kstreams},1651508460,0
{consumergroup=trace-service},1651508055,36
{consumergroup=trace-service},1651508060,36
{consumergroup=trace-service},1651508065,36
{consumergroup=trace-service},1651508070,14667
{consumergroup=trace-service},1651508075,14667
{consumergroup=trace-service},1651508080,14667
{consumergroup=trace-service},1651508085,68352
{consumergroup=trace-service},1651508090,68352
{consumergroup=trace-service},1651508095,68352
{consumergroup=trace-service},1651508100,34416
{consumergroup=trace-service},1651508105,34416
{consumergroup=trace-service},1651508110,34416
{consumergroup=trace-service},1651508115,58334
{consumergroup=trace-service},1651508120,58334
{consumergroup=trace-service},1651508125,58334
{consumergroup=trace-service},1651508130,28560
{consumergroup=trace-service},1651508135,28560
{consumergroup=trace-service},1651508140,28560
{consumergroup=trace-service},1651508145,84685
{consumergroup=trace-service},1651508150,84685
{consumergroup=trace-service},1651508155,84685
{consumergroup=trace-service},1651508160,17695
{consumergroup=trace-service},1651508165,17695
{consumergroup=trace-service},1651508170,17695
{consumergroup=trace-service},1651508175,70387
{consumergroup=trace-service},1651508180,70387
{consumergroup=trace-service},1651508185,70387
{consumergroup=trace-service},1651508190,25665
{consumergroup=trace-service},1651508195,25665
{consumergroup=trace-service},1651508200,25665
{consumergroup=trace-service},1651508205,62887
{consumergroup=trace-service},1651508210,62887
{consumergroup=trace-service},1651508215,62887
{consumergroup=trace-service},1651508220,29655
{consumergroup=trace-service},1651508225,29655
{consumergroup=trace-service},1651508230,29655
{consumergroup=trace-service},1651508235,75412
{consumergroup=trace-service},1651508240,75412
{consumergroup=trace-service},1651508245,75412
{consumergroup=trace-service},1651508250,21410
{consumergroup=trace-service},1651508255,21410
{consumergroup=trace-service},1651508260,21410
{consumergroup=trace-service},1651508265,65653
{consumergroup=trace-service},1651508270,65653
{consumergroup=trace-service},1651508275,65653
{consumergroup=trace-service},1651508280,21768
{consumergroup=trace-service},1651508285,21768
{consumergroup=trace-service},1651508290,21768
{consumergroup=trace-service},1651508295,59088
{consumergroup=trace-service},1651508300,59088
{consumergroup=trace-service},1651508305,59088
{consumergroup=trace-service},1651508310,29618
{consumergroup=trace-service},1651508315,29618
{consumergroup=trace-service},1651508320,29618
{consumergroup=trace-service},1651508325,70128
{consumergroup=trace-service},1651508330,70128
{consumergroup=trace-service},1651508335,70128
{consumergroup=trace-service},1651508340,22428
{consumergroup=trace-service},1651508345,22428
{consumergroup=trace-service},1651508350,22428
{consumergroup=trace-service},1651508355,61937
{consumergroup=trace-service},1651508360,61937
{consumergroup=trace-service},1651508365,61937
{consumergroup=trace-service},1651508370,13843
{consumergroup=trace-service},1651508375,13843
{consumergroup=trace-service},1651508380,13843
{consumergroup=trace-service},1651508385,62984
{consumergroup=trace-service},1651508390,62984
{consumergroup=trace-service},1651508395,62984
{consumergroup=trace-service},1651508400,26127
{consumergroup=trace-service},1651508405,26127
{consumergroup=trace-service},1651508410,26127
{consumergroup=trace-service},1651508415,65974
{consumergroup=trace-service},1651508420,65974
{consumergroup=trace-service},1651508425,65974
{consumergroup=trace-service},1651508430,14347
{consumergroup=trace-service},1651508435,14347
{consumergroup=trace-service},1651508440,14347
{consumergroup=trace-service},1651508445,64964
{consumergroup=trace-service},1651508450,64964
{consumergroup=trace-service},1651508455,64964
{consumergroup=trace-service},1651508460,20812
{consumergroup=trace-token-events-consumer},1651508055,0
{consumergroup=trace-token-events-consumer},1651508060,0
{consumergroup=trace-token-events-consumer},1651508065,0
{consumergroup=trace-token-events-consumer},1651508070,0
{consumergroup=trace-token-events-consumer},1651508075,0
{consumergroup=trace-token-events-consumer},1651508080,0
{consumergroup=trace-token-events-consumer},1651508085,0
{consumergroup=trace-token-events-consumer},1651508090,0
{consumergroup=trace-token-events-consumer},1651508095,0
{consumergroup=trace-token-events-consumer},1651508100,0
{consumergroup=trace-token-events-consumer},1651508105,0
{consumergroup=trace-token-events-consumer},1651508110,0
{consumergroup=trace-token-events-consumer},1651508115,0
{consumergroup=trace-token-events-consumer},1651508120,0
{consumergroup=trace-token-events-consumer},1651508125,0
{consumergroup=trace-token-events-consumer},1651508130,0
{consumergroup=trace-token-events-consumer},1651508135,0
{consumergroup=trace-token-events-consumer},1651508140,0
{consumergroup=trace-token-events-consumer},1651508145,0
{consumergroup=trace-token-events-consumer},1651508150,0
{consumergroup=trace-token-events-consumer},1651508155,0
{consumergroup=trace-token-events-consumer},1651508160,0
{consumergroup=trace-token-events-consumer},1651508165,0
{consumergroup=trace-token-events-consumer},1651508170,0
{consumergroup=trace-token-events-consumer},1651508175,0
{consumergroup=trace-token-events-consumer},1651508180,0
{consumergroup=trace-token-events-consumer},1651508185,0
{consumergroup=trace-token-events-consumer},1651508190,0
{consumergroup=trace-token-events-consumer},1651508195,0
{consumergroup=trace-token-events-consumer},1651508200,0
{consumergroup=trace-token-events-consumer},1651508205,0
{consumergroup=trace-token-events-consumer},1651508210,0
{consumergroup=trace-token-events-consumer},1651508215,0
{consumergroup=trace-token-events-consumer},1651508220,0
{consumergroup=trace-token-events-consumer},1651508225,0
{consumergroup=trace-token-events-consumer},1651508230,0
{consumergroup=trace-token-events-consumer},1651508235,0
{consumergroup=trace-token-events-consumer},1651508240,0
{consumergroup=trace-token-events-consumer},1651508245,0
{consumergroup=trace-token-events-consumer},1651508250,0
{consumergroup=trace-token-events-consumer},1651508255,0
{consumergroup=trace-token-events-consumer},1651508260,0
{consumergroup=trace-token-events-consumer},1651508265,0
{consumergroup=trace-token-events-consumer},1651508270,0
{consumergroup=trace-token-events-consumer},1651508275,0
{consumergroup=trace-token-events-consumer},1651508280,0
{consumergroup=trace-token-events-consumer},1651508285,0
{consumergroup=trace-token-events-consumer},1651508290,0
{consumergroup=trace-token-events-consumer},1651508295,0
{consumergroup=trace-token-events-consumer},1651508300,0
{consumergroup=trace-token-events-consumer},1651508305,0
{consumergroup=trace-token-events-consumer},1651508310,0
{consumergroup=trace-token-events-consumer},1651508315,0
{consumergroup=trace-token-events-consumer},1651508320,0
{consumergroup=trace-token-events-consumer},1651508325,0
{consumergroup=trace-token-events-consumer},1651508330,0
{consumergroup=trace-token-events-consumer},1651508335,0
{consumergroup=trace-token-events-consumer},1651508340,0
{consumergroup=trace-token-events-consumer},1651508345,0
{consumergroup=trace-token-events-consumer},1651508350,0
{consumergroup=trace-token-events-consumer},1651508355,0
{consumergroup=trace-token-events-consumer},1651508360,0
{consumergroup=trace-token-events-consumer},1651508365,0
{consumergroup=trace-token-events-consumer},1651508370,0
{consumergroup=trace-token-events-consumer},1651508375,0
{consumergroup=trace-token-events-consumer},1651508380,0
{consumergroup=trace-token-events-consumer},1651508385,0
{consumergroup=trace-token-events-consumer},1651508390,0
{consumergroup=trace-token-events-consumer},1651508395,0
{consumergroup=trace-token-events-consumer},1651508400,0
{consumergroup=trace-token-events-consumer},1651508405,0
{consumergroup=trace-token-events-consumer},1651508410,0
{consumergroup=trace-token-events-consumer},1651508415,0
{consumergroup=trace-token-events-consumer},1651508420,0
{consumergroup=trace-token-events-consumer},1651508425,0
{consumergroup=trace-token-events-consumer},1651508430,0
{consumergroup=trace-token-events-consumer},1651508435,0
{consumergroup=trace-token-events-consumer},1651508440,0
{consumergroup=trace-token-events-consumer},1651508445,0
{consumergroup=trace-token-events-consumer},1651508450,0
{consumergroup=trace-token-events-consumer},1651508455,0
{consumergroup=trace-token-events-consumer},1651508460,0
