labels,timestamp,value
{consumergroup=__strimzi-topic-operator-kstreams},1651440564,12
{consumergroup=__strimzi-topic-operator-kstreams},1651440569,12
{consumergroup=__strimzi-topic-operator-kstreams},1651440574,12
{consumergroup=__strimzi-topic-operator-kstreams},1651440579,0
{consumergroup=__strimzi-topic-operator-kstreams},1651440584,0
{consumergroup=__strimzi-topic-operator-kstreams},1651440589,0
{consumergroup=__strimzi-topic-operator-kstreams},1651440594,0
{consumergroup=__strimzi-topic-operator-kstreams},1651440599,0
{consumergroup=__strimzi-topic-operator-kstreams},1651440604,0
{consumergroup=__strimzi-topic-operator-kstreams},1651440609,0
{consumergroup=__strimzi-topic-operator-kstreams},1651440614,0
{consumergroup=__strimzi-topic-operator-kstreams},1651440619,0
{consumergroup=__strimzi-topic-operator-kstreams},1651440624,0
{consumergroup=__strimzi-topic-operator-kstreams},1651440629,0
{consumergroup=__strimzi-topic-operator-kstreams},1651440634,0
{consumergroup=__strimzi-topic-operator-kstreams},1651440639,0
{consumergroup=__strimzi-topic-operator-kstreams},1651440644,0
{consumergroup=__strimzi-topic-operator-kstreams},1651440649,0
{consumergroup=__strimzi-topic-operator-kstreams},1651440654,0
{consumergroup=__strimzi-topic-operator-kstreams},1651440659,0
{consumergroup=__strimzi-topic-operator-kstreams},1651440664,0
{consumergroup=__strimzi-topic-operator-kstreams},1651440669,0
{consumergroup=__strimzi-topic-operator-kstreams},1651440674,0
{consumergroup=__strimzi-topic-operator-kstreams},1651440679,0
{consumergroup=__strimzi-topic-operator-kstreams},1651440684,0
{consumergroup=__strimzi-topic-operator-kstreams},1651440689,0
{consumergroup=__strimzi-topic-operator-kstreams},1651440694,0
{consumergroup=__strimzi-topic-operator-kstreams},1651440699,0
{consumergroup=__strimzi-topic-operator-kstreams},1651440704,0
{consumergroup=__strimzi-topic-operator-kstreams},1651440709,0
{consumergroup=__strimzi-topic-operator-kstreams},1651440714,0
{consumergroup=__strimzi-topic-operator-kstreams},1651440719,0
{consumergroup=__strimzi-topic-operator-kstreams},1651440724,0
{consumergroup=__strimzi-topic-operator-kstreams},1651440729,0
{consumergroup=__strimzi-topic-operator-kstreams},1651440734,0
{consumergroup=__strimzi-topic-operator-kstreams},1651440739,0
{consumergroup=__strimzi-topic-operator-kstreams},1651440744,0
{consumergroup=__strimzi-topic-operator-kstreams},1651440749,0
{consumergroup=__strimzi-topic-operator-kstreams},1651440754,0
{consumergroup=__strimzi-topic-operator-kstreams},1651440759,0
{consumergroup=__strimzi-topic-operator-kstreams},1651440764,0
{consumergroup=__strimzi-topic-operator-kstreams},1651440769,0
{consumergroup=__strimzi-topic-operator-kstreams},1651440774,0
{consumergroup=__strimzi-topic-operator-kstreams},1651440779,0
{consumergroup=__strimzi-topic-operator-kstreams},1651440784,0
{consumergroup=__strimzi-topic-operator-kstreams},1651440789,0
{consumergroup=__strimzi-topic-operator-kstreams},1651440794,0
{consumergroup=__strimzi-topic-operator-kstreams},1651440799,0
{consumergroup=__strimzi-topic-operator-kstreams},1651440804,0
{consumergroup=__strimzi-topic-operator-kstreams},1651440809,0
{consumergroup=__strimzi-topic-operator-kstreams},1651440814,0
{consumergroup=adapter-service},1651440594,157008
{consumergroup=adapter-service},1651440599,157008
{consumergroup=adapter-service},1651440604,157008
{consumergroup=adapter-service},1651440609,381662
{consumergroup=adapter-service},1651440614,381662
{consumergroup=adapter-service},1651440619,381662
{consumergroup=adapter-service},1651440624,560657
{consumergroup=adapter-service},1651440629,560657
{consumergroup=adapter-service},1651440634,560657
{consumergroup=adapter-service},1651440639,710408
{consumergroup=adapter-service},1651440644,710408
{consumergroup=adapter-service},1651440649,710408
{consumergroup=adapter-service},1651440654,842570
{consumergroup=adapter-service},1651440659,842570
{consumergroup=adapter-service},1651440664,842570
{consumergroup=adapter-service},1651440669,959072
{consumergroup=adapter-service},1651440674,959072
{consumergroup=adapter-service},1651440679,959072
{consumergroup=adapter-service},1651440684,1048078
{consumergroup=adapter-service},1651440689,1048078
{consumergroup=adapter-service},1651440694,1048078
{consumergroup=adapter-service},1651440699,1106999
{consumergroup=adapter-service},1651440704,1106999
{consumergroup=adapter-service},1651440709,1106999
{consumergroup=adapter-service},1651440714,1181294
{consumergroup=adapter-service},1651440719,1181294
{consumergroup=adapter-service},1651440724,1181294
{consumergroup=adapter-service},1651440729,1232773
{consumergroup=adapter-service},1651440734,1232773
{consumergroup=adapter-service},1651440739,1232773
{consumergroup=adapter-service},1651440744,1260320
{consumergroup=adapter-service},1651440749,1260320
{consumergroup=adapter-service},1651440754,1260320
{consumergroup=adapter-service},1651440759,1312500
{consumergroup=adapter-service},1651440764,1312500
{consumergroup=adapter-service},1651440769,1312500
{consumergroup=adapter-service},1651440774,1345179
{consumergroup=adapter-service},1651440779,1345179
{consumergroup=adapter-service},1651440784,1345179
{consumergroup=adapter-service},1651440789,1410258
{consumergroup=adapter-service},1651440794,1410258
{consumergroup=adapter-service},1651440799,1410258
{consumergroup=adapter-service},1651440804,1468486
{consumergroup=adapter-service},1651440809,1468486
{consumergroup=adapter-service},1651440814,1468486
