labels,timestamp,value
{job=theodolite-stu200776/trace-isolated-podmonitor},1651484037,0.638144136488215
{job=theodolite-stu200776/trace-isolated-podmonitor},1651484042,27.274863105413935
{job=theodolite-stu200776/trace-isolated-podmonitor},1651484047,100.13134179270793
{job=theodolite-stu200776/trace-isolated-podmonitor},1651484052,179.24407946799053
{job=theodolite-stu200776/trace-isolated-podmonitor},1651484057,164.2387494820736
{job=theodolite-stu200776/trace-isolated-podmonitor},1651484062,141.5393077800676
{job=theodolite-stu200776/trace-isolated-podmonitor},1651484067,130.54296684679818
{job=theodolite-stu200776/trace-isolated-podmonitor},1651484072,137.03715747545002
{job=theodolite-stu200776/trace-isolated-podmonitor},1651484077,142.11527429612212
{job=theodolite-stu200776/trace-isolated-podmonitor},1651484082,148.79420299057898
{job=theodolite-stu200776/trace-isolated-podmonitor},1651484087,136.39007799082026
{job=theodolite-stu200776/trace-isolated-podmonitor},1651484092,115.16764508094963
{job=theodolite-stu200776/trace-isolated-podmonitor},1651484097,107.30888958428649
{job=theodolite-stu200776/trace-isolated-podmonitor},1651484102,93.75338765652927
{job=theodolite-stu200776/trace-isolated-podmonitor},1651484107,61.4451994276832
{job=theodolite-stu200776/trace-isolated-podmonitor},1651484112,0
{job=theodolite-stu200776/trace-isolated-podmonitor},1651484117,0
{job=theodolite-stu200776/trace-isolated-podmonitor},1651484122,0
{job=theodolite-stu200776/trace-isolated-podmonitor},1651484127,0
{job=theodolite-stu200776/trace-isolated-podmonitor},1651484132,0
{job=theodolite-stu200776/trace-isolated-podmonitor},1651484137,0
{job=theodolite-stu200776/trace-isolated-podmonitor},1651484142,0
{job=theodolite-stu200776/trace-isolated-podmonitor},1651484147,0
{job=theodolite-stu200776/trace-isolated-podmonitor},1651484152,0
{job=theodolite-stu200776/trace-isolated-podmonitor},1651484157,0
{job=theodolite-stu200776/trace-isolated-podmonitor},1651484162,0
{job=theodolite-stu200776/trace-isolated-podmonitor},1651484167,0
{job=theodolite-stu200776/trace-isolated-podmonitor},1651484172,0
{job=theodolite-stu200776/trace-isolated-podmonitor},1651484177,0
{job=theodolite-stu200776/trace-isolated-podmonitor},1651484182,0
{job=theodolite-stu200776/trace-isolated-podmonitor},1651484187,0
{job=theodolite-stu200776/trace-isolated-podmonitor},1651484192,0
{job=theodolite-stu200776/trace-isolated-podmonitor},1651484197,0
{job=theodolite-stu200776/trace-isolated-podmonitor},1651484202,0
{job=theodolite-stu200776/trace-isolated-podmonitor},1651484207,0
{job=theodolite-stu200776/trace-isolated-podmonitor},1651484212,0
{job=theodolite-stu200776/trace-isolated-podmonitor},1651484217,0
{job=theodolite-stu200776/trace-isolated-podmonitor},1651484222,0
{job=theodolite-stu200776/trace-isolated-podmonitor},1651484227,0
{job=theodolite-stu200776/trace-isolated-podmonitor},1651484232,0
{job=theodolite-stu200776/trace-isolated-podmonitor},1651484237,0
{job=theodolite-stu200776/trace-isolated-podmonitor},1651484242,0
{job=theodolite-stu200776/trace-isolated-podmonitor},1651484247,0
{job=theodolite-stu200776/trace-isolated-podmonitor},1651484252,0
{job=theodolite-stu200776/trace-isolated-podmonitor},1651484257,0
{job=theodolite-stu200776/trace-isolated-podmonitor},1651484262,0
{job=theodolite-stu200776/trace-isolated-podmonitor},1651484267,0
{job=theodolite-stu200776/trace-isolated-podmonitor},1651484272,0
{job=theodolite-stu200776/trace-isolated-podmonitor},1651484277,0
{job=theodolite-stu200776/trace-isolated-podmonitor},1651484282,0
{job=theodolite-stu200776/trace-isolated-podmonitor},1651484287,0
{job=theodolite-stu200776/trace-isolated-podmonitor},1651484292,0
{job=theodolite-stu200776/trace-isolated-podmonitor},1651484297,0
{job=theodolite-stu200776/trace-isolated-podmonitor},1651484302,0
{job=theodolite-stu200776/trace-isolated-podmonitor},1651484307,0
{job=theodolite-stu200776/trace-isolated-podmonitor},1651484312,0
{job=theodolite-stu200776/trace-isolated-podmonitor},1651484317,0
{job=theodolite-stu200776/trace-isolated-podmonitor},1651484322,0
{job=theodolite-stu200776/trace-isolated-podmonitor},1651484327,0
{job=theodolite-stu200776/trace-isolated-podmonitor},1651484332,0
{job=theodolite-stu200776/trace-isolated-podmonitor},1651484337,0
{job=theodolite-stu200776/trace-isolated-podmonitor},1651484342,0
{job=theodolite-stu200776/trace-isolated-podmonitor},1651484347,0
{job=theodolite-stu200776/trace-isolated-podmonitor},1651484352,0
{job=theodolite-stu200776/trace-isolated-podmonitor},1651484357,0
{job=theodolite-stu200776/trace-isolated-podmonitor},1651484362,0
{job=theodolite-stu200776/trace-isolated-podmonitor},1651484367,0
{job=theodolite-stu200776/trace-isolated-podmonitor},1651484372,0
{job=theodolite-stu200776/trace-isolated-podmonitor},1651484377,0
{job=theodolite-stu200776/trace-isolated-podmonitor},1651484382,0
{job=theodolite-stu200776/trace-isolated-podmonitor},1651484387,0
{job=theodolite-stu200776/trace-isolated-podmonitor},1651484392,0
{job=theodolite-stu200776/trace-isolated-podmonitor},1651484397,0
{job=theodolite-stu200776/trace-isolated-podmonitor},1651484402,0
{job=theodolite-stu200776/trace-isolated-podmonitor},1651484407,0
