labels,timestamp,value
{consumergroup=__strimzi-topic-operator-kstreams},1651527773,9
{consumergroup=__strimzi-topic-operator-kstreams},1651527778,9
{consumergroup=__strimzi-topic-operator-kstreams},1651527783,9
{consumergroup=__strimzi-topic-operator-kstreams},1651527788,12
{consumergroup=__strimzi-topic-operator-kstreams},1651527793,12
{consumergroup=__strimzi-topic-operator-kstreams},1651527798,12
{consumergroup=__strimzi-topic-operator-kstreams},1651527803,0
{consumergroup=__strimzi-topic-operator-kstreams},1651527808,0
{consumergroup=__strimzi-topic-operator-kstreams},1651527813,0
{consumergroup=__strimzi-topic-operator-kstreams},1651527818,0
{consumergroup=__strimzi-topic-operator-kstreams},1651527823,0
{consumergroup=__strimzi-topic-operator-kstreams},1651527828,0
{consumergroup=__strimzi-topic-operator-kstreams},1651527833,0
{consumergroup=__strimzi-topic-operator-kstreams},1651527838,0
{consumergroup=__strimzi-topic-operator-kstreams},1651527843,0
{consumergroup=__strimzi-topic-operator-kstreams},1651527848,0
{consumergroup=__strimzi-topic-operator-kstreams},1651527853,0
{consumergroup=__strimzi-topic-operator-kstreams},1651527858,0
{consumergroup=__strimzi-topic-operator-kstreams},1651527863,0
{consumergroup=__strimzi-topic-operator-kstreams},1651527868,0
{consumergroup=__strimzi-topic-operator-kstreams},1651527873,0
{consumergroup=__strimzi-topic-operator-kstreams},1651527878,0
{consumergroup=__strimzi-topic-operator-kstreams},1651527883,0
{consumergroup=__strimzi-topic-operator-kstreams},1651527888,0
{consumergroup=__strimzi-topic-operator-kstreams},1651527893,0
{consumergroup=__strimzi-topic-operator-kstreams},1651527898,0
{consumergroup=__strimzi-topic-operator-kstreams},1651527903,0
{consumergroup=__strimzi-topic-operator-kstreams},1651527908,0
{consumergroup=__strimzi-topic-operator-kstreams},1651527913,0
{consumergroup=__strimzi-topic-operator-kstreams},1651527918,0
{consumergroup=__strimzi-topic-operator-kstreams},1651527923,0
{consumergroup=__strimzi-topic-operator-kstreams},1651527928,0
{consumergroup=__strimzi-topic-operator-kstreams},1651527933,0
{consumergroup=__strimzi-topic-operator-kstreams},1651527938,0
{consumergroup=__strimzi-topic-operator-kstreams},1651527943,0
{consumergroup=__strimzi-topic-operator-kstreams},1651527948,0
{consumergroup=__strimzi-topic-operator-kstreams},1651527953,0
{consumergroup=__strimzi-topic-operator-kstreams},1651527958,0
{consumergroup=__strimzi-topic-operator-kstreams},1651527963,0
{consumergroup=__strimzi-topic-operator-kstreams},1651527968,0
{consumergroup=__strimzi-topic-operator-kstreams},1651527973,0
{consumergroup=__strimzi-topic-operator-kstreams},1651527978,0
{consumergroup=__strimzi-topic-operator-kstreams},1651527983,0
{consumergroup=__strimzi-topic-operator-kstreams},1651527988,0
{consumergroup=__strimzi-topic-operator-kstreams},1651527993,0
{consumergroup=__strimzi-topic-operator-kstreams},1651527998,0
{consumergroup=__strimzi-topic-operator-kstreams},1651528003,0
{consumergroup=__strimzi-topic-operator-kstreams},1651528008,0
{consumergroup=__strimzi-topic-operator-kstreams},1651528013,0
{consumergroup=__strimzi-topic-operator-kstreams},1651528018,0
{consumergroup=__strimzi-topic-operator-kstreams},1651528023,0
{consumergroup=__strimzi-topic-operator-kstreams},1651528028,0
{consumergroup=__strimzi-topic-operator-kstreams},1651528033,0
{consumergroup=__strimzi-topic-operator-kstreams},1651528038,0
{consumergroup=__strimzi-topic-operator-kstreams},1651528043,0
{consumergroup=__strimzi-topic-operator-kstreams},1651528048,0
{consumergroup=__strimzi-topic-operator-kstreams},1651528053,0
{consumergroup=__strimzi-topic-operator-kstreams},1651528058,0
{consumergroup=__strimzi-topic-operator-kstreams},1651528063,0
{consumergroup=__strimzi-topic-operator-kstreams},1651528068,0
{consumergroup=__strimzi-topic-operator-kstreams},1651528073,0
{consumergroup=__strimzi-topic-operator-kstreams},1651528078,0
{consumergroup=__strimzi-topic-operator-kstreams},1651528083,0
{consumergroup=__strimzi-topic-operator-kstreams},1651528088,0
{consumergroup=__strimzi-topic-operator-kstreams},1651528093,0
{consumergroup=__strimzi-topic-operator-kstreams},1651528098,0
{consumergroup=__strimzi-topic-operator-kstreams},1651528103,0
{consumergroup=__strimzi-topic-operator-kstreams},1651528108,0
{consumergroup=__strimzi-topic-operator-kstreams},1651528113,0
{consumergroup=__strimzi-topic-operator-kstreams},1651528118,0
{consumergroup=__strimzi-topic-operator-kstreams},1651528123,0
{consumergroup=__strimzi-topic-operator-kstreams},1651528128,0
{consumergroup=__strimzi-topic-operator-kstreams},1651528133,0
{consumergroup=__strimzi-topic-operator-kstreams},1651528138,0
{consumergroup=__strimzi-topic-operator-kstreams},1651528143,0
{consumergroup=__strimzi-topic-operator-kstreams},1651528148,0
{consumergroup=__strimzi-topic-operator-kstreams},1651528153,0
{consumergroup=__strimzi-topic-operator-kstreams},1651528158,0
{consumergroup=__strimzi-topic-operator-kstreams},1651528163,0
{consumergroup=__strimzi-topic-operator-kstreams},1651528168,0
{consumergroup=__strimzi-topic-operator-kstreams},1651528173,0
{consumergroup=__strimzi-topic-operator-kstreams},1651528178,0
{consumergroup=__strimzi-topic-operator-kstreams},1651528183,0
{consumergroup=__strimzi-topic-operator-kstreams},1651528188,0
{consumergroup=__strimzi-topic-operator-kstreams},1651528193,0
{consumergroup=__strimzi-topic-operator-kstreams},1651528198,0
{consumergroup=__strimzi-topic-operator-kstreams},1651528203,0
{consumergroup=__strimzi-topic-operator-kstreams},1651528208,0
{consumergroup=__strimzi-topic-operator-kstreams},1651528213,0
{consumergroup=adapter-service},1651527803,0
{consumergroup=adapter-service},1651527808,0
{consumergroup=adapter-service},1651527813,0
{consumergroup=adapter-service},1651527818,17352
{consumergroup=adapter-service},1651527823,17352
{consumergroup=adapter-service},1651527828,17352
{consumergroup=adapter-service},1651527833,6919
{consumergroup=adapter-service},1651527838,6919
{consumergroup=adapter-service},1651527843,6919
{consumergroup=adapter-service},1651527848,8596
{consumergroup=adapter-service},1651527853,8596
{consumergroup=adapter-service},1651527858,8596
{consumergroup=adapter-service},1651527863,7292
{consumergroup=adapter-service},1651527868,7292
{consumergroup=adapter-service},1651527873,7292
{consumergroup=adapter-service},1651527878,3979
{consumergroup=adapter-service},1651527883,3979
{consumergroup=adapter-service},1651527888,3979
{consumergroup=adapter-service},1651527893,4795
{consumergroup=adapter-service},1651527898,4795
{consumergroup=adapter-service},1651527903,4795
{consumergroup=adapter-service},1651527908,1079
{consumergroup=adapter-service},1651527913,1079
{consumergroup=adapter-service},1651527918,1079
{consumergroup=adapter-service},1651527923,767
{consumergroup=adapter-service},1651527928,767
{consumergroup=adapter-service},1651527933,767
{consumergroup=adapter-service},1651527938,10155
{consumergroup=adapter-service},1651527943,10155
{consumergroup=adapter-service},1651527948,10155
{consumergroup=adapter-service},1651527953,275
{consumergroup=adapter-service},1651527958,275
{consumergroup=adapter-service},1651527963,275
{consumergroup=adapter-service},1651527968,8690
{consumergroup=adapter-service},1651527973,8690
{consumergroup=adapter-service},1651527978,8690
{consumergroup=adapter-service},1651527983,5047
{consumergroup=adapter-service},1651527988,5047
{consumergroup=adapter-service},1651527993,5047
{consumergroup=adapter-service},1651527998,7590
{consumergroup=adapter-service},1651528003,7590
{consumergroup=adapter-service},1651528008,7590
{consumergroup=adapter-service},1651528013,9827
{consumergroup=adapter-service},1651528018,9827
{consumergroup=adapter-service},1651528023,9827
{consumergroup=adapter-service},1651528028,7069
{consumergroup=adapter-service},1651528033,7069
{consumergroup=adapter-service},1651528038,7069
{consumergroup=adapter-service},1651528043,3982
{consumergroup=adapter-service},1651528048,3982
{consumergroup=adapter-service},1651528053,3982
{consumergroup=adapter-service},1651528058,6394
{consumergroup=adapter-service},1651528063,6394
{consumergroup=adapter-service},1651528068,6394
{consumergroup=adapter-service},1651528073,8272
{consumergroup=adapter-service},1651528078,8272
{consumergroup=adapter-service},1651528083,8272
{consumergroup=adapter-service},1651528088,5558
{consumergroup=adapter-service},1651528093,5558
{consumergroup=adapter-service},1651528098,5558
{consumergroup=adapter-service},1651528103,6834
{consumergroup=adapter-service},1651528108,6834
{consumergroup=adapter-service},1651528113,6834
{consumergroup=adapter-service},1651528118,4614
{consumergroup=adapter-service},1651528123,4614
{consumergroup=adapter-service},1651528128,4614
{consumergroup=adapter-service},1651528133,5994
{consumergroup=adapter-service},1651528138,5994
{consumergroup=adapter-service},1651528143,5994
{consumergroup=adapter-service},1651528148,3113
{consumergroup=adapter-service},1651528153,3113
{consumergroup=adapter-service},1651528158,3113
{consumergroup=adapter-service},1651528163,4888
{consumergroup=adapter-service},1651528168,4888
{consumergroup=adapter-service},1651528173,4888
{consumergroup=adapter-service},1651528178,2248
{consumergroup=adapter-service},1651528183,2248
{consumergroup=adapter-service},1651528188,2248
{consumergroup=adapter-service},1651528193,3865
{consumergroup=adapter-service},1651528198,3865
{consumergroup=adapter-service},1651528203,3865
{consumergroup=adapter-service},1651528208,1069
{consumergroup=adapter-service},1651528213,1069
{consumergroup=landscape-service},1651527818,10440
{consumergroup=landscape-service},1651527823,10440
{consumergroup=landscape-service},1651527828,10440
{consumergroup=landscape-service},1651527833,14188
{consumergroup=landscape-service},1651527838,14188
{consumergroup=landscape-service},1651527843,14188
{consumergroup=landscape-service},1651527848,5362
{consumergroup=landscape-service},1651527853,5362
{consumergroup=landscape-service},1651527858,5362
{consumergroup=landscape-service},1651527863,8234
{consumergroup=landscape-service},1651527868,8234
{consumergroup=landscape-service},1651527873,8234
{consumergroup=landscape-service},1651527878,6431
{consumergroup=landscape-service},1651527883,6431
{consumergroup=landscape-service},1651527888,6431
{consumergroup=landscape-service},1651527893,8622
{consumergroup=landscape-service},1651527898,8622
{consumergroup=landscape-service},1651527903,8622
{consumergroup=landscape-service},1651527908,5903
{consumergroup=landscape-service},1651527913,5903
{consumergroup=landscape-service},1651527918,5903
{consumergroup=landscape-service},1651527923,5225
{consumergroup=landscape-service},1651527928,5225
{consumergroup=landscape-service},1651527933,5225
{consumergroup=landscape-service},1651527938,4961
{consumergroup=landscape-service},1651527943,4961
{consumergroup=landscape-service},1651527948,4961
{consumergroup=landscape-service},1651527953,6796
{consumergroup=landscape-service},1651527958,6796
{consumergroup=landscape-service},1651527963,6796
{consumergroup=landscape-service},1651527968,4523
{consumergroup=landscape-service},1651527973,4523
{consumergroup=landscape-service},1651527978,4523
{consumergroup=landscape-service},1651527983,7188
{consumergroup=landscape-service},1651527988,7188
{consumergroup=landscape-service},1651527993,7188
{consumergroup=landscape-service},1651527998,4186
{consumergroup=landscape-service},1651528003,4186
{consumergroup=landscape-service},1651528008,4186
{consumergroup=landscape-service},1651528013,6230
{consumergroup=landscape-service},1651528018,6230
{consumergroup=landscape-service},1651528023,6230
{consumergroup=landscape-service},1651528028,3602
{consumergroup=landscape-service},1651528033,3602
{consumergroup=landscape-service},1651528038,3602
{consumergroup=landscape-service},1651528043,5729
{consumergroup=landscape-service},1651528048,5729
{consumergroup=landscape-service},1651528053,5729
{consumergroup=landscape-service},1651528058,3238
{consumergroup=landscape-service},1651528063,3238
{consumergroup=landscape-service},1651528068,3238
{consumergroup=landscape-service},1651528073,6109
{consumergroup=landscape-service},1651528078,6109
{consumergroup=landscape-service},1651528083,6109
{consumergroup=landscape-service},1651528088,3778
{consumergroup=landscape-service},1651528093,3778
{consumergroup=landscape-service},1651528098,3778
{consumergroup=landscape-service},1651528103,5047
{consumergroup=landscape-service},1651528108,5047
{consumergroup=landscape-service},1651528113,5047
{consumergroup=landscape-service},1651528118,3241
{consumergroup=landscape-service},1651528123,3241
{consumergroup=landscape-service},1651528128,3241
{consumergroup=landscape-service},1651528133,4736
{consumergroup=landscape-service},1651528138,4736
{consumergroup=landscape-service},1651528143,4736
{consumergroup=landscape-service},1651528148,2877
{consumergroup=landscape-service},1651528153,2877
{consumergroup=landscape-service},1651528158,2877
{consumergroup=landscape-service},1651528163,5110
{consumergroup=landscape-service},1651528168,5110
{consumergroup=landscape-service},1651528173,5110
{consumergroup=landscape-service},1651528178,3080
{consumergroup=landscape-service},1651528183,3080
{consumergroup=landscape-service},1651528188,3080
{consumergroup=landscape-service},1651528193,4545
{consumergroup=landscape-service},1651528198,4545
{consumergroup=landscape-service},1651528203,4545
{consumergroup=landscape-service},1651528208,1456
{consumergroup=landscape-service},1651528213,1456
{consumergroup=trace-service},1651527818,16402
{consumergroup=trace-service},1651527823,16402
{consumergroup=trace-service},1651527828,16402
{consumergroup=trace-service},1651527833,73009
{consumergroup=trace-service},1651527838,73009
{consumergroup=trace-service},1651527843,73009
{consumergroup=trace-service},1651527848,40664
{consumergroup=trace-service},1651527853,40664
{consumergroup=trace-service},1651527858,40664
{consumergroup=trace-service},1651527863,52085
{consumergroup=trace-service},1651527868,52085
{consumergroup=trace-service},1651527873,52085
{consumergroup=trace-service},1651527878,31944
{consumergroup=trace-service},1651527883,31944
{consumergroup=trace-service},1651527888,31944
{consumergroup=trace-service},1651527893,46199
{consumergroup=trace-service},1651527898,46199
{consumergroup=trace-service},1651527903,46199
{consumergroup=trace-service},1651527908,27901
{consumergroup=trace-service},1651527913,27901
{consumergroup=trace-service},1651527918,27901
{consumergroup=trace-service},1651527923,43781
{consumergroup=trace-service},1651527928,43781
{consumergroup=trace-service},1651527933,43781
{consumergroup=trace-service},1651527938,26042
{consumergroup=trace-service},1651527943,26042
{consumergroup=trace-service},1651527948,26042
{consumergroup=trace-service},1651527953,36349
{consumergroup=trace-service},1651527958,36349
{consumergroup=trace-service},1651527963,36349
{consumergroup=trace-service},1651527968,25446
{consumergroup=trace-service},1651527973,25446
{consumergroup=trace-service},1651527978,25446
{consumergroup=trace-service},1651527983,56878
{consumergroup=trace-service},1651527988,56878
{consumergroup=trace-service},1651527993,56878
{consumergroup=trace-service},1651527998,26583
{consumergroup=trace-service},1651528003,26583
{consumergroup=trace-service},1651528008,26583
{consumergroup=trace-service},1651528013,26035
{consumergroup=trace-service},1651528018,26035
{consumergroup=trace-service},1651528023,26035
{consumergroup=trace-service},1651528028,25196
{consumergroup=trace-service},1651528033,25196
{consumergroup=trace-service},1651528038,25196
{consumergroup=trace-service},1651528043,74022
{consumergroup=trace-service},1651528048,74022
{consumergroup=trace-service},1651528053,74022
{consumergroup=trace-service},1651528058,27573
{consumergroup=trace-service},1651528063,27573
{consumergroup=trace-service},1651528068,27573
{consumergroup=trace-service},1651528073,25478
{consumergroup=trace-service},1651528078,25478
{consumergroup=trace-service},1651528083,25478
{consumergroup=trace-service},1651528088,25832
{consumergroup=trace-service},1651528093,25832
{consumergroup=trace-service},1651528098,25832
{consumergroup=trace-service},1651528103,31687
{consumergroup=trace-service},1651528108,31687
{consumergroup=trace-service},1651528113,31687
{consumergroup=trace-service},1651528118,26200
{consumergroup=trace-service},1651528123,26200
{consumergroup=trace-service},1651528128,26200
{consumergroup=trace-service},1651528133,22295
{consumergroup=trace-service},1651528138,22295
{consumergroup=trace-service},1651528143,22295
{consumergroup=trace-service},1651528148,27427
{consumergroup=trace-service},1651528153,27427
{consumergroup=trace-service},1651528158,27427
{consumergroup=trace-service},1651528163,57413
{consumergroup=trace-service},1651528168,57413
{consumergroup=trace-service},1651528173,57413
{consumergroup=trace-service},1651528178,29050
{consumergroup=trace-service},1651528183,29050
{consumergroup=trace-service},1651528188,29050
{consumergroup=trace-service},1651528193,12445
{consumergroup=trace-service},1651528198,12445
{consumergroup=trace-service},1651528203,12445
{consumergroup=trace-service},1651528208,28560
{consumergroup=trace-service},1651528213,28560
{consumergroup=trace-token-events-consumer},1651527803,0
{consumergroup=trace-token-events-consumer},1651527808,0
{consumergroup=trace-token-events-consumer},1651527813,0
{consumergroup=trace-token-events-consumer},1651527818,0
{consumergroup=trace-token-events-consumer},1651527823,0
{consumergroup=trace-token-events-consumer},1651527828,0
{consumergroup=trace-token-events-consumer},1651527833,0
{consumergroup=trace-token-events-consumer},1651527838,0
{consumergroup=trace-token-events-consumer},1651527843,0
{consumergroup=trace-token-events-consumer},1651527848,0
{consumergroup=trace-token-events-consumer},1651527853,0
{consumergroup=trace-token-events-consumer},1651527858,0
{consumergroup=trace-token-events-consumer},1651527863,0
{consumergroup=trace-token-events-consumer},1651527868,0
{consumergroup=trace-token-events-consumer},1651527873,0
{consumergroup=trace-token-events-consumer},1651527878,0
{consumergroup=trace-token-events-consumer},1651527883,0
{consumergroup=trace-token-events-consumer},1651527888,0
{consumergroup=trace-token-events-consumer},1651527893,0
{consumergroup=trace-token-events-consumer},1651527898,0
{consumergroup=trace-token-events-consumer},1651527903,0
{consumergroup=trace-token-events-consumer},1651527908,0
{consumergroup=trace-token-events-consumer},1651527913,0
{consumergroup=trace-token-events-consumer},1651527918,0
{consumergroup=trace-token-events-consumer},1651527923,0
{consumergroup=trace-token-events-consumer},1651527928,0
{consumergroup=trace-token-events-consumer},1651527933,0
{consumergroup=trace-token-events-consumer},1651527938,0
{consumergroup=trace-token-events-consumer},1651527943,0
{consumergroup=trace-token-events-consumer},1651527948,0
{consumergroup=trace-token-events-consumer},1651527953,0
{consumergroup=trace-token-events-consumer},1651527958,0
{consumergroup=trace-token-events-consumer},1651527963,0
{consumergroup=trace-token-events-consumer},1651527968,0
{consumergroup=trace-token-events-consumer},1651527973,0
{consumergroup=trace-token-events-consumer},1651527978,0
{consumergroup=trace-token-events-consumer},1651527983,0
{consumergroup=trace-token-events-consumer},1651527988,0
{consumergroup=trace-token-events-consumer},1651527993,0
{consumergroup=trace-token-events-consumer},1651527998,0
{consumergroup=trace-token-events-consumer},1651528003,0
{consumergroup=trace-token-events-consumer},1651528008,0
{consumergroup=trace-token-events-consumer},1651528013,0
{consumergroup=trace-token-events-consumer},1651528018,0
{consumergroup=trace-token-events-consumer},1651528023,0
{consumergroup=trace-token-events-consumer},1651528028,0
{consumergroup=trace-token-events-consumer},1651528033,0
{consumergroup=trace-token-events-consumer},1651528038,0
{consumergroup=trace-token-events-consumer},1651528043,0
{consumergroup=trace-token-events-consumer},1651528048,0
{consumergroup=trace-token-events-consumer},1651528053,0
{consumergroup=trace-token-events-consumer},1651528058,0
{consumergroup=trace-token-events-consumer},1651528063,0
{consumergroup=trace-token-events-consumer},1651528068,0
{consumergroup=trace-token-events-consumer},1651528073,0
{consumergroup=trace-token-events-consumer},1651528078,0
{consumergroup=trace-token-events-consumer},1651528083,0
{consumergroup=trace-token-events-consumer},1651528088,0
{consumergroup=trace-token-events-consumer},1651528093,0
{consumergroup=trace-token-events-consumer},1651528098,0
{consumergroup=trace-token-events-consumer},1651528103,0
{consumergroup=trace-token-events-consumer},1651528108,0
{consumergroup=trace-token-events-consumer},1651528113,0
{consumergroup=trace-token-events-consumer},1651528118,0
{consumergroup=trace-token-events-consumer},1651528123,0
{consumergroup=trace-token-events-consumer},1651528128,0
{consumergroup=trace-token-events-consumer},1651528133,0
{consumergroup=trace-token-events-consumer},1651528138,0
{consumergroup=trace-token-events-consumer},1651528143,0
{consumergroup=trace-token-events-consumer},1651528148,0
{consumergroup=trace-token-events-consumer},1651528153,0
{consumergroup=trace-token-events-consumer},1651528158,0
{consumergroup=trace-token-events-consumer},1651528163,0
{consumergroup=trace-token-events-consumer},1651528168,0
{consumergroup=trace-token-events-consumer},1651528173,0
{consumergroup=trace-token-events-consumer},1651528178,0
{consumergroup=trace-token-events-consumer},1651528183,0
{consumergroup=trace-token-events-consumer},1651528188,0
{consumergroup=trace-token-events-consumer},1651528193,0
{consumergroup=trace-token-events-consumer},1651528198,0
{consumergroup=trace-token-events-consumer},1651528203,0
{consumergroup=trace-token-events-consumer},1651528208,0
{consumergroup=trace-token-events-consumer},1651528213,0
