labels,timestamp,value
{job=theodolite-stu200776/trace-isolated-podmonitor},1651512725,0
{job=theodolite-stu200776/trace-isolated-podmonitor},1651512730,0
{job=theodolite-stu200776/trace-isolated-podmonitor},1651512735,0
{job=theodolite-stu200776/trace-isolated-podmonitor},1651512740,0
{job=theodolite-stu200776/trace-isolated-podmonitor},1651512745,0
{job=theodolite-stu200776/trace-isolated-podmonitor},1651512750,0
{job=theodolite-stu200776/trace-isolated-podmonitor},1651512755,0
{job=theodolite-stu200776/trace-isolated-podmonitor},1651512760,0
{job=theodolite-stu200776/trace-isolated-podmonitor},1651512765,0
{job=theodolite-stu200776/trace-isolated-podmonitor},1651512770,0
{job=theodolite-stu200776/trace-isolated-podmonitor},1651512775,0
{job=theodolite-stu200776/trace-isolated-podmonitor},1651512780,0
{job=theodolite-stu200776/trace-isolated-podmonitor},1651512785,0
{job=theodolite-stu200776/trace-isolated-podmonitor},1651512790,0
{job=theodolite-stu200776/trace-isolated-podmonitor},1651512795,0
{job=theodolite-stu200776/trace-isolated-podmonitor},1651512800,0
{job=theodolite-stu200776/trace-isolated-podmonitor},1651512805,0
{job=theodolite-stu200776/trace-isolated-podmonitor},1651512810,0
{job=theodolite-stu200776/trace-isolated-podmonitor},1651512815,0
{job=theodolite-stu200776/trace-isolated-podmonitor},1651512820,0
{job=theodolite-stu200776/trace-isolated-podmonitor},1651512825,0
{job=theodolite-stu200776/trace-isolated-podmonitor},1651512830,0
{job=theodolite-stu200776/trace-isolated-podmonitor},1651512835,0
{job=theodolite-stu200776/trace-isolated-podmonitor},1651512840,0
{job=theodolite-stu200776/trace-isolated-podmonitor},1651512845,0
{job=theodolite-stu200776/trace-isolated-podmonitor},1651512850,0
{job=theodolite-stu200776/trace-isolated-podmonitor},1651512855,0
{job=theodolite-stu200776/trace-isolated-podmonitor},1651512860,0
{job=theodolite-stu200776/trace-isolated-podmonitor},1651512865,0
{job=theodolite-stu200776/trace-isolated-podmonitor},1651512870,0
{job=theodolite-stu200776/trace-isolated-podmonitor},1651512875,0
{job=theodolite-stu200776/trace-isolated-podmonitor},1651512880,0
{job=theodolite-stu200776/trace-isolated-podmonitor},1651512885,0
{job=theodolite-stu200776/trace-isolated-podmonitor},1651512890,0
{job=theodolite-stu200776/trace-isolated-podmonitor},1651512895,0
{job=theodolite-stu200776/trace-isolated-podmonitor},1651512900,0
{job=theodolite-stu200776/trace-isolated-podmonitor},1651512905,0
{job=theodolite-stu200776/trace-isolated-podmonitor},1651512910,0
{job=theodolite-stu200776/trace-isolated-podmonitor},1651512915,0
{job=theodolite-stu200776/trace-isolated-podmonitor},1651512920,0
{job=theodolite-stu200776/trace-isolated-podmonitor},1651512925,0
{job=theodolite-stu200776/trace-isolated-podmonitor},1651512930,0
{job=theodolite-stu200776/trace-isolated-podmonitor},1651512935,0
{job=theodolite-stu200776/trace-isolated-podmonitor},1651512940,0
{job=theodolite-stu200776/trace-isolated-podmonitor},1651512945,0
{job=theodolite-stu200776/trace-isolated-podmonitor},1651512950,0
{job=theodolite-stu200776/trace-isolated-podmonitor},1651512955,0
{job=theodolite-stu200776/trace-isolated-podmonitor},1651512960,0
{job=theodolite-stu200776/trace-isolated-podmonitor},1651512965,0
{job=theodolite-stu200776/trace-isolated-podmonitor},1651512970,0
{job=theodolite-stu200776/trace-isolated-podmonitor},1651512975,0
{job=theodolite-stu200776/trace-isolated-podmonitor},1651512980,0
{job=theodolite-stu200776/trace-isolated-podmonitor},1651512985,0
{job=theodolite-stu200776/trace-isolated-podmonitor},1651512990,0
{job=theodolite-stu200776/trace-isolated-podmonitor},1651512995,0
{job=theodolite-stu200776/trace-isolated-podmonitor},1651513000,0
{job=theodolite-stu200776/trace-isolated-podmonitor},1651513005,0
{job=theodolite-stu200776/trace-isolated-podmonitor},1651513010,0
{job=theodolite-stu200776/trace-isolated-podmonitor},1651513015,0
{job=theodolite-stu200776/trace-isolated-podmonitor},1651513020,0
{job=theodolite-stu200776/trace-isolated-podmonitor},1651513025,0
{job=theodolite-stu200776/trace-isolated-podmonitor},1651513030,0
{job=theodolite-stu200776/trace-isolated-podmonitor},1651513035,0
{job=theodolite-stu200776/trace-isolated-podmonitor},1651513040,0
{job=theodolite-stu200776/trace-isolated-podmonitor},1651513045,0
{job=theodolite-stu200776/trace-isolated-podmonitor},1651513050,0
{job=theodolite-stu200776/trace-isolated-podmonitor},1651513055,0
{job=theodolite-stu200776/trace-isolated-podmonitor},1651513060,0
{job=theodolite-stu200776/trace-isolated-podmonitor},1651513065,0
{job=theodolite-stu200776/trace-isolated-podmonitor},1651513070,0
{job=theodolite-stu200776/trace-isolated-podmonitor},1651513075,0
{job=theodolite-stu200776/trace-isolated-podmonitor},1651513080,0
{job=theodolite-stu200776/trace-isolated-podmonitor},1651513085,0
{job=theodolite-stu200776/trace-isolated-podmonitor},1651513090,0
{job=theodolite-stu200776/trace-isolated-podmonitor},1651513095,0
