labels,timestamp,value
{consumergroup=__strimzi-topic-operator-kstreams},1651444743,17
{consumergroup=__strimzi-topic-operator-kstreams},1651444748,17
{consumergroup=__strimzi-topic-operator-kstreams},1651444753,17
{consumergroup=__strimzi-topic-operator-kstreams},1651444758,0
{consumergroup=__strimzi-topic-operator-kstreams},1651444763,0
{consumergroup=__strimzi-topic-operator-kstreams},1651444768,0
{consumergroup=__strimzi-topic-operator-kstreams},1651444773,0
{consumergroup=__strimzi-topic-operator-kstreams},1651444778,0
{consumergroup=__strimzi-topic-operator-kstreams},1651444783,0
{consumergroup=__strimzi-topic-operator-kstreams},1651444788,0
{consumergroup=__strimzi-topic-operator-kstreams},1651444793,0
{consumergroup=__strimzi-topic-operator-kstreams},1651444798,0
{consumergroup=__strimzi-topic-operator-kstreams},1651444803,0
{consumergroup=__strimzi-topic-operator-kstreams},1651444808,0
{consumergroup=__strimzi-topic-operator-kstreams},1651444813,0
{consumergroup=__strimzi-topic-operator-kstreams},1651444818,0
{consumergroup=__strimzi-topic-operator-kstreams},1651444823,0
{consumergroup=__strimzi-topic-operator-kstreams},1651444828,0
{consumergroup=__strimzi-topic-operator-kstreams},1651444833,0
{consumergroup=__strimzi-topic-operator-kstreams},1651444838,0
{consumergroup=__strimzi-topic-operator-kstreams},1651444843,0
{consumergroup=__strimzi-topic-operator-kstreams},1651444848,0
{consumergroup=__strimzi-topic-operator-kstreams},1651444853,0
{consumergroup=__strimzi-topic-operator-kstreams},1651444858,0
{consumergroup=__strimzi-topic-operator-kstreams},1651444863,0
{consumergroup=__strimzi-topic-operator-kstreams},1651444868,0
{consumergroup=__strimzi-topic-operator-kstreams},1651444873,0
{consumergroup=__strimzi-topic-operator-kstreams},1651444878,0
{consumergroup=__strimzi-topic-operator-kstreams},1651444883,0
{consumergroup=__strimzi-topic-operator-kstreams},1651444888,0
{consumergroup=__strimzi-topic-operator-kstreams},1651444893,0
{consumergroup=__strimzi-topic-operator-kstreams},1651444898,0
{consumergroup=__strimzi-topic-operator-kstreams},1651444903,0
{consumergroup=__strimzi-topic-operator-kstreams},1651444908,0
{consumergroup=__strimzi-topic-operator-kstreams},1651444913,0
{consumergroup=__strimzi-topic-operator-kstreams},1651444918,0
{consumergroup=__strimzi-topic-operator-kstreams},1651444923,0
{consumergroup=__strimzi-topic-operator-kstreams},1651444928,0
{consumergroup=__strimzi-topic-operator-kstreams},1651444933,0
{consumergroup=__strimzi-topic-operator-kstreams},1651444938,0
{consumergroup=__strimzi-topic-operator-kstreams},1651444943,0
{consumergroup=__strimzi-topic-operator-kstreams},1651444948,0
{consumergroup=__strimzi-topic-operator-kstreams},1651444953,0
{consumergroup=__strimzi-topic-operator-kstreams},1651444958,0
{consumergroup=__strimzi-topic-operator-kstreams},1651444963,0
{consumergroup=__strimzi-topic-operator-kstreams},1651444968,0
{consumergroup=__strimzi-topic-operator-kstreams},1651444973,0
{consumergroup=__strimzi-topic-operator-kstreams},1651444978,0
{consumergroup=__strimzi-topic-operator-kstreams},1651444983,0
{consumergroup=__strimzi-topic-operator-kstreams},1651444988,0
{consumergroup=__strimzi-topic-operator-kstreams},1651444993,0
{consumergroup=__strimzi-topic-operator-kstreams},1651444998,0
{consumergroup=adapter-service},1651444773,28215
{consumergroup=adapter-service},1651444778,28215
{consumergroup=adapter-service},1651444783,28215
{consumergroup=adapter-service},1651444788,120109
{consumergroup=adapter-service},1651444793,120109
{consumergroup=adapter-service},1651444798,120109
{consumergroup=adapter-service},1651444803,195190
{consumergroup=adapter-service},1651444808,195190
{consumergroup=adapter-service},1651444813,195190
{consumergroup=adapter-service},1651444818,251736
{consumergroup=adapter-service},1651444823,251736
{consumergroup=adapter-service},1651444828,251736
{consumergroup=adapter-service},1651444833,301191
{consumergroup=adapter-service},1651444838,301191
{consumergroup=adapter-service},1651444843,301191
{consumergroup=adapter-service},1651444848,346671
{consumergroup=adapter-service},1651444853,346671
{consumergroup=adapter-service},1651444858,346671
{consumergroup=adapter-service},1651444863,395962
{consumergroup=adapter-service},1651444868,395962
{consumergroup=adapter-service},1651444873,395962
{consumergroup=adapter-service},1651444878,418240
{consumergroup=adapter-service},1651444883,418240
{consumergroup=adapter-service},1651444888,418240
{consumergroup=adapter-service},1651444893,423687
{consumergroup=adapter-service},1651444898,423687
{consumergroup=adapter-service},1651444903,423687
{consumergroup=adapter-service},1651444908,424663
{consumergroup=adapter-service},1651444913,424663
{consumergroup=adapter-service},1651444918,424663
{consumergroup=adapter-service},1651444923,414968
{consumergroup=adapter-service},1651444928,414968
{consumergroup=adapter-service},1651444933,414968
{consumergroup=adapter-service},1651444938,409469
{consumergroup=adapter-service},1651444943,409469
{consumergroup=adapter-service},1651444948,409469
{consumergroup=adapter-service},1651444953,392843
{consumergroup=adapter-service},1651444958,392843
{consumergroup=adapter-service},1651444963,392843
{consumergroup=adapter-service},1651444968,378292
{consumergroup=adapter-service},1651444973,378292
{consumergroup=adapter-service},1651444978,378292
{consumergroup=adapter-service},1651444983,378597
{consumergroup=adapter-service},1651444988,378597
{consumergroup=adapter-service},1651444993,378597
{consumergroup=adapter-service},1651444998,364399
