labels,timestamp,value
{consumergroup=__strimzi-topic-operator-kstreams},1651469547,10
{consumergroup=__strimzi-topic-operator-kstreams},1651469552,10
{consumergroup=__strimzi-topic-operator-kstreams},1651469557,10
{consumergroup=__strimzi-topic-operator-kstreams},1651469562,10
{consumergroup=__strimzi-topic-operator-kstreams},1651469567,10
{consumergroup=__strimzi-topic-operator-kstreams},1651469572,10
{consumergroup=__strimzi-topic-operator-kstreams},1651469577,2
{consumergroup=__strimzi-topic-operator-kstreams},1651469582,2
{consumergroup=__strimzi-topic-operator-kstreams},1651469587,2
{consumergroup=__strimzi-topic-operator-kstreams},1651469592,2
{consumergroup=__strimzi-topic-operator-kstreams},1651469597,2
{consumergroup=__strimzi-topic-operator-kstreams},1651469602,2
{consumergroup=__strimzi-topic-operator-kstreams},1651469607,0
{consumergroup=__strimzi-topic-operator-kstreams},1651469612,0
{consumergroup=__strimzi-topic-operator-kstreams},1651469617,0
{consumergroup=__strimzi-topic-operator-kstreams},1651469622,0
{consumergroup=__strimzi-topic-operator-kstreams},1651469627,0
{consumergroup=__strimzi-topic-operator-kstreams},1651469632,0
{consumergroup=__strimzi-topic-operator-kstreams},1651469637,0
{consumergroup=__strimzi-topic-operator-kstreams},1651469642,0
{consumergroup=__strimzi-topic-operator-kstreams},1651469647,0
{consumergroup=__strimzi-topic-operator-kstreams},1651469652,0
{consumergroup=__strimzi-topic-operator-kstreams},1651469657,0
{consumergroup=__strimzi-topic-operator-kstreams},1651469662,0
{consumergroup=__strimzi-topic-operator-kstreams},1651469667,0
{consumergroup=__strimzi-topic-operator-kstreams},1651469672,0
{consumergroup=__strimzi-topic-operator-kstreams},1651469677,0
{consumergroup=__strimzi-topic-operator-kstreams},1651469682,0
{consumergroup=__strimzi-topic-operator-kstreams},1651469687,0
{consumergroup=__strimzi-topic-operator-kstreams},1651469692,0
{consumergroup=__strimzi-topic-operator-kstreams},1651469697,0
{consumergroup=__strimzi-topic-operator-kstreams},1651469702,0
{consumergroup=__strimzi-topic-operator-kstreams},1651469707,0
{consumergroup=__strimzi-topic-operator-kstreams},1651469712,0
{consumergroup=__strimzi-topic-operator-kstreams},1651469717,0
{consumergroup=__strimzi-topic-operator-kstreams},1651469722,0
{consumergroup=__strimzi-topic-operator-kstreams},1651469727,0
{consumergroup=__strimzi-topic-operator-kstreams},1651469732,0
{consumergroup=__strimzi-topic-operator-kstreams},1651469737,0
{consumergroup=__strimzi-topic-operator-kstreams},1651469742,0
{consumergroup=__strimzi-topic-operator-kstreams},1651469747,0
{consumergroup=__strimzi-topic-operator-kstreams},1651469752,0
{consumergroup=__strimzi-topic-operator-kstreams},1651469757,0
{consumergroup=__strimzi-topic-operator-kstreams},1651469762,0
{consumergroup=__strimzi-topic-operator-kstreams},1651469767,0
{consumergroup=__strimzi-topic-operator-kstreams},1651469772,0
{consumergroup=__strimzi-topic-operator-kstreams},1651469777,0
{consumergroup=__strimzi-topic-operator-kstreams},1651469782,0
{consumergroup=__strimzi-topic-operator-kstreams},1651469787,0
{consumergroup=__strimzi-topic-operator-kstreams},1651469792,0
{consumergroup=__strimzi-topic-operator-kstreams},1651469797,0
{consumergroup=__strimzi-topic-operator-kstreams},1651469802,0
{consumergroup=__strimzi-topic-operator-kstreams},1651469807,0
{consumergroup=__strimzi-topic-operator-kstreams},1651469812,0
{consumergroup=__strimzi-topic-operator-kstreams},1651469817,0
{consumergroup=__strimzi-topic-operator-kstreams},1651469822,0
{consumergroup=__strimzi-topic-operator-kstreams},1651469827,0
{consumergroup=__strimzi-topic-operator-kstreams},1651469832,0
{consumergroup=__strimzi-topic-operator-kstreams},1651469837,0
{consumergroup=__strimzi-topic-operator-kstreams},1651469842,0
{consumergroup=__strimzi-topic-operator-kstreams},1651469847,0
{consumergroup=__strimzi-topic-operator-kstreams},1651469852,0
{consumergroup=__strimzi-topic-operator-kstreams},1651469857,0
{consumergroup=__strimzi-topic-operator-kstreams},1651469862,0
{consumergroup=__strimzi-topic-operator-kstreams},1651469867,0
{consumergroup=__strimzi-topic-operator-kstreams},1651469872,0
{consumergroup=__strimzi-topic-operator-kstreams},1651469877,0
{consumergroup=__strimzi-topic-operator-kstreams},1651469882,0
{consumergroup=__strimzi-topic-operator-kstreams},1651469887,0
{consumergroup=__strimzi-topic-operator-kstreams},1651469892,0
{consumergroup=__strimzi-topic-operator-kstreams},1651469897,0
{consumergroup=__strimzi-topic-operator-kstreams},1651469902,0
{consumergroup=__strimzi-topic-operator-kstreams},1651469907,0
{consumergroup=__strimzi-topic-operator-kstreams},1651469912,0
{consumergroup=__strimzi-topic-operator-kstreams},1651469917,0
{consumergroup=__strimzi-topic-operator-kstreams},1651469922,0
{consumergroup=__strimzi-topic-operator-kstreams},1651469927,0
{consumergroup=__strimzi-topic-operator-kstreams},1651469932,0
{consumergroup=__strimzi-topic-operator-kstreams},1651469937,0
{consumergroup=__strimzi-topic-operator-kstreams},1651469942,0
{consumergroup=__strimzi-topic-operator-kstreams},1651469947,0
{consumergroup=__strimzi-topic-operator-kstreams},1651469952,0
{consumergroup=__strimzi-topic-operator-kstreams},1651469957,0
{consumergroup=__strimzi-topic-operator-kstreams},1651469962,0
{consumergroup=__strimzi-topic-operator-kstreams},1651469967,0
{consumergroup=__strimzi-topic-operator-kstreams},1651469972,0
{consumergroup=__strimzi-topic-operator-kstreams},1651469977,0
{consumergroup=__strimzi-topic-operator-kstreams},1651469982,0
{consumergroup=__strimzi-topic-operator-kstreams},1651469987,0
{consumergroup=trace-service},1651469592,34367
{consumergroup=trace-service},1651469597,34367
{consumergroup=trace-service},1651469602,34367
{consumergroup=trace-service},1651469607,8684
{consumergroup=trace-service},1651469612,8684
{consumergroup=trace-service},1651469617,8684
{consumergroup=trace-service},1651469622,75124
{consumergroup=trace-service},1651469627,75124
{consumergroup=trace-service},1651469632,75124
{consumergroup=trace-service},1651469637,109585
{consumergroup=trace-service},1651469642,109585
{consumergroup=trace-service},1651469647,109585
{consumergroup=trace-service},1651469652,137233
{consumergroup=trace-service},1651469657,137233
{consumergroup=trace-service},1651469662,137233
{consumergroup=trace-service},1651469667,23056
{consumergroup=trace-service},1651469672,23056
{consumergroup=trace-service},1651469677,23056
{consumergroup=trace-service},1651469682,56725
{consumergroup=trace-service},1651469687,56725
{consumergroup=trace-service},1651469692,56725
{consumergroup=trace-service},1651469697,133081
{consumergroup=trace-service},1651469702,133081
{consumergroup=trace-service},1651469707,133081
{consumergroup=trace-service},1651469712,62871
{consumergroup=trace-service},1651469717,62871
{consumergroup=trace-service},1651469722,62871
{consumergroup=trace-service},1651469727,114615
{consumergroup=trace-service},1651469732,114615
{consumergroup=trace-service},1651469737,114615
{consumergroup=trace-service},1651469742,148596
{consumergroup=trace-service},1651469747,148596
{consumergroup=trace-service},1651469752,148596
{consumergroup=trace-service},1651469757,28716
{consumergroup=trace-service},1651469762,28716
{consumergroup=trace-service},1651469767,28716
{consumergroup=trace-service},1651469772,60452
{consumergroup=trace-service},1651469777,60452
{consumergroup=trace-service},1651469782,60452
{consumergroup=trace-service},1651469787,134846
{consumergroup=trace-service},1651469792,134846
{consumergroup=trace-service},1651469797,134846
{consumergroup=trace-service},1651469802,62482
{consumergroup=trace-service},1651469807,62482
{consumergroup=trace-service},1651469812,62482
{consumergroup=trace-service},1651469817,114884
{consumergroup=trace-service},1651469822,114884
{consumergroup=trace-service},1651469827,114884
{consumergroup=trace-service},1651469832,57022
{consumergroup=trace-service},1651469837,57022
{consumergroup=trace-service},1651469842,57022
{consumergroup=trace-service},1651469847,98028
{consumergroup=trace-service},1651469852,98028
{consumergroup=trace-service},1651469857,98028
{consumergroup=trace-service},1651469862,67774
{consumergroup=trace-service},1651469867,67774
{consumergroup=trace-service},1651469872,67774
{consumergroup=trace-service},1651469877,119285
{consumergroup=trace-service},1651469882,119285
{consumergroup=trace-service},1651469887,119285
{consumergroup=trace-service},1651469892,183398
{consumergroup=trace-service},1651469897,183398
{consumergroup=trace-service},1651469902,183398
{consumergroup=trace-service},1651469907,144932
{consumergroup=trace-service},1651469912,144932
{consumergroup=trace-service},1651469917,144932
{consumergroup=trace-service},1651469922,189787
{consumergroup=trace-service},1651469927,189787
{consumergroup=trace-service},1651469932,189787
{consumergroup=trace-service},1651469937,160279
{consumergroup=trace-service},1651469942,160279
{consumergroup=trace-service},1651469947,160279
{consumergroup=trace-service},1651469952,200734
{consumergroup=trace-service},1651469957,200734
{consumergroup=trace-service},1651469962,200734
{consumergroup=trace-service},1651469967,30596
{consumergroup=trace-service},1651469972,30596
{consumergroup=trace-service},1651469977,30596
{consumergroup=trace-service},1651469982,62553
{consumergroup=trace-service},1651469987,62553
{consumergroup=trace-token-events-consumer},1651469577,0
{consumergroup=trace-token-events-consumer},1651469582,0
{consumergroup=trace-token-events-consumer},1651469587,0
{consumergroup=trace-token-events-consumer},1651469592,0
{consumergroup=trace-token-events-consumer},1651469597,0
{consumergroup=trace-token-events-consumer},1651469602,0
{consumergroup=trace-token-events-consumer},1651469607,0
{consumergroup=trace-token-events-consumer},1651469612,0
{consumergroup=trace-token-events-consumer},1651469617,0
{consumergroup=trace-token-events-consumer},1651469622,0
{consumergroup=trace-token-events-consumer},1651469627,0
{consumergroup=trace-token-events-consumer},1651469632,0
{consumergroup=trace-token-events-consumer},1651469637,0
{consumergroup=trace-token-events-consumer},1651469642,0
{consumergroup=trace-token-events-consumer},1651469647,0
{consumergroup=trace-token-events-consumer},1651469652,0
{consumergroup=trace-token-events-consumer},1651469657,0
{consumergroup=trace-token-events-consumer},1651469662,0
{consumergroup=trace-token-events-consumer},1651469667,0
{consumergroup=trace-token-events-consumer},1651469672,0
{consumergroup=trace-token-events-consumer},1651469677,0
{consumergroup=trace-token-events-consumer},1651469682,0
{consumergroup=trace-token-events-consumer},1651469687,0
{consumergroup=trace-token-events-consumer},1651469692,0
{consumergroup=trace-token-events-consumer},1651469697,0
{consumergroup=trace-token-events-consumer},1651469702,0
{consumergroup=trace-token-events-consumer},1651469707,0
{consumergroup=trace-token-events-consumer},1651469712,0
{consumergroup=trace-token-events-consumer},1651469717,0
{consumergroup=trace-token-events-consumer},1651469722,0
{consumergroup=trace-token-events-consumer},1651469727,0
{consumergroup=trace-token-events-consumer},1651469732,0
{consumergroup=trace-token-events-consumer},1651469737,0
{consumergroup=trace-token-events-consumer},1651469742,0
{consumergroup=trace-token-events-consumer},1651469747,0
{consumergroup=trace-token-events-consumer},1651469752,0
{consumergroup=trace-token-events-consumer},1651469757,0
{consumergroup=trace-token-events-consumer},1651469762,0
{consumergroup=trace-token-events-consumer},1651469767,0
{consumergroup=trace-token-events-consumer},1651469772,0
{consumergroup=trace-token-events-consumer},1651469777,0
{consumergroup=trace-token-events-consumer},1651469782,0
{consumergroup=trace-token-events-consumer},1651469787,0
{consumergroup=trace-token-events-consumer},1651469792,0
{consumergroup=trace-token-events-consumer},1651469797,0
{consumergroup=trace-token-events-consumer},1651469802,0
{consumergroup=trace-token-events-consumer},1651469807,0
{consumergroup=trace-token-events-consumer},1651469812,0
{consumergroup=trace-token-events-consumer},1651469817,0
{consumergroup=trace-token-events-consumer},1651469822,0
{consumergroup=trace-token-events-consumer},1651469827,0
{consumergroup=trace-token-events-consumer},1651469832,0
{consumergroup=trace-token-events-consumer},1651469837,0
{consumergroup=trace-token-events-consumer},1651469842,0
{consumergroup=trace-token-events-consumer},1651469847,0
{consumergroup=trace-token-events-consumer},1651469852,0
{consumergroup=trace-token-events-consumer},1651469857,0
{consumergroup=trace-token-events-consumer},1651469862,0
{consumergroup=trace-token-events-consumer},1651469867,0
{consumergroup=trace-token-events-consumer},1651469872,0
{consumergroup=trace-token-events-consumer},1651469877,0
{consumergroup=trace-token-events-consumer},1651469882,0
{consumergroup=trace-token-events-consumer},1651469887,0
{consumergroup=trace-token-events-consumer},1651469892,0
{consumergroup=trace-token-events-consumer},1651469897,0
{consumergroup=trace-token-events-consumer},1651469902,0
{consumergroup=trace-token-events-consumer},1651469907,0
{consumergroup=trace-token-events-consumer},1651469912,0
{consumergroup=trace-token-events-consumer},1651469917,0
{consumergroup=trace-token-events-consumer},1651469922,0
{consumergroup=trace-token-events-consumer},1651469927,0
{consumergroup=trace-token-events-consumer},1651469932,0
{consumergroup=trace-token-events-consumer},1651469937,0
{consumergroup=trace-token-events-consumer},1651469942,0
{consumergroup=trace-token-events-consumer},1651469947,0
{consumergroup=trace-token-events-consumer},1651469952,0
{consumergroup=trace-token-events-consumer},1651469957,0
{consumergroup=trace-token-events-consumer},1651469962,0
{consumergroup=trace-token-events-consumer},1651469967,0
{consumergroup=trace-token-events-consumer},1651469972,0
{consumergroup=trace-token-events-consumer},1651469977,0
{consumergroup=trace-token-events-consumer},1651469982,0
{consumergroup=trace-token-events-consumer},1651469987,0
