labels,timestamp,value
{consumergroup=__strimzi-topic-operator-kstreams},1651567009,0
{consumergroup=__strimzi-topic-operator-kstreams},1651567014,0
{consumergroup=__strimzi-topic-operator-kstreams},1651567019,0
{consumergroup=__strimzi-topic-operator-kstreams},1651567024,8
{consumergroup=__strimzi-topic-operator-kstreams},1651567029,8
{consumergroup=__strimzi-topic-operator-kstreams},1651567034,8
{consumergroup=__strimzi-topic-operator-kstreams},1651567039,0
{consumergroup=__strimzi-topic-operator-kstreams},1651567044,0
{consumergroup=__strimzi-topic-operator-kstreams},1651567049,0
{consumergroup=__strimzi-topic-operator-kstreams},1651567054,0
{consumergroup=__strimzi-topic-operator-kstreams},1651567059,0
{consumergroup=__strimzi-topic-operator-kstreams},1651567064,0
{consumergroup=__strimzi-topic-operator-kstreams},1651567069,0
{consumergroup=__strimzi-topic-operator-kstreams},1651567074,0
{consumergroup=__strimzi-topic-operator-kstreams},1651567079,0
{consumergroup=__strimzi-topic-operator-kstreams},1651567084,0
{consumergroup=__strimzi-topic-operator-kstreams},1651567089,0
{consumergroup=__strimzi-topic-operator-kstreams},1651567094,0
{consumergroup=__strimzi-topic-operator-kstreams},1651567099,0
{consumergroup=__strimzi-topic-operator-kstreams},1651567104,0
{consumergroup=__strimzi-topic-operator-kstreams},1651567109,0
{consumergroup=__strimzi-topic-operator-kstreams},1651567114,0
{consumergroup=__strimzi-topic-operator-kstreams},1651567119,0
{consumergroup=__strimzi-topic-operator-kstreams},1651567124,0
{consumergroup=__strimzi-topic-operator-kstreams},1651567129,0
{consumergroup=__strimzi-topic-operator-kstreams},1651567134,0
{consumergroup=__strimzi-topic-operator-kstreams},1651567139,0
{consumergroup=__strimzi-topic-operator-kstreams},1651567144,0
{consumergroup=__strimzi-topic-operator-kstreams},1651567149,0
{consumergroup=__strimzi-topic-operator-kstreams},1651567154,0
{consumergroup=__strimzi-topic-operator-kstreams},1651567159,0
{consumergroup=__strimzi-topic-operator-kstreams},1651567164,0
{consumergroup=__strimzi-topic-operator-kstreams},1651567169,0
{consumergroup=__strimzi-topic-operator-kstreams},1651567174,0
{consumergroup=__strimzi-topic-operator-kstreams},1651567179,0
{consumergroup=__strimzi-topic-operator-kstreams},1651567184,0
{consumergroup=__strimzi-topic-operator-kstreams},1651567189,0
{consumergroup=__strimzi-topic-operator-kstreams},1651567194,0
{consumergroup=__strimzi-topic-operator-kstreams},1651567199,0
{consumergroup=__strimzi-topic-operator-kstreams},1651567204,0
{consumergroup=__strimzi-topic-operator-kstreams},1651567209,0
{consumergroup=__strimzi-topic-operator-kstreams},1651567214,0
{consumergroup=__strimzi-topic-operator-kstreams},1651567219,0
{consumergroup=__strimzi-topic-operator-kstreams},1651567224,0
{consumergroup=__strimzi-topic-operator-kstreams},1651567229,0
{consumergroup=__strimzi-topic-operator-kstreams},1651567234,0
{consumergroup=__strimzi-topic-operator-kstreams},1651567239,0
{consumergroup=__strimzi-topic-operator-kstreams},1651567244,0
{consumergroup=__strimzi-topic-operator-kstreams},1651567249,0
{consumergroup=__strimzi-topic-operator-kstreams},1651567254,0
{consumergroup=__strimzi-topic-operator-kstreams},1651567259,0
{consumergroup=__strimzi-topic-operator-kstreams},1651567264,0
{consumergroup=__strimzi-topic-operator-kstreams},1651567269,0
{consumergroup=landscape-service},1651567054,638541
{consumergroup=landscape-service},1651567059,638541
{consumergroup=landscape-service},1651567064,638541
{consumergroup=landscape-service},1651567069,1601844
{consumergroup=landscape-service},1651567074,1601844
{consumergroup=landscape-service},1651567079,1601844
{consumergroup=landscape-service},1651567084,1554948
{consumergroup=landscape-service},1651567089,1554948
{consumergroup=landscape-service},1651567094,1554948
{consumergroup=landscape-service},1651567099,1908479
{consumergroup=landscape-service},1651567104,1908479
{consumergroup=landscape-service},1651567109,1908479
{consumergroup=landscape-service},1651567114,2293520
{consumergroup=landscape-service},1651567119,2293520
{consumergroup=landscape-service},1651567124,2293520
{consumergroup=landscape-service},1651567129,1878362
{consumergroup=landscape-service},1651567134,1878362
{consumergroup=landscape-service},1651567139,1878362
{consumergroup=landscape-service},1651567144,2411075
{consumergroup=landscape-service},1651567149,2411075
{consumergroup=landscape-service},1651567154,2411075
{consumergroup=landscape-service},1651567159,1953492
{consumergroup=landscape-service},1651567164,1953492
{consumergroup=landscape-service},1651567169,1953492
{consumergroup=landscape-service},1651567174,1717653
{consumergroup=landscape-service},1651567179,1717653
{consumergroup=landscape-service},1651567184,1717653
{consumergroup=landscape-service},1651567189,1601192
{consumergroup=landscape-service},1651567194,1601192
{consumergroup=landscape-service},1651567199,1601192
{consumergroup=landscape-service},1651567204,1484831
{consumergroup=landscape-service},1651567209,1484831
{consumergroup=landscape-service},1651567214,1484831
{consumergroup=landscape-service},1651567219,1403928
{consumergroup=landscape-service},1651567224,1403928
{consumergroup=landscape-service},1651567229,1403928
{consumergroup=landscape-service},1651567234,1777045
{consumergroup=landscape-service},1651567239,1777045
{consumergroup=landscape-service},1651567244,1777045
{consumergroup=landscape-service},1651567249,1163140
{consumergroup=landscape-service},1651567254,1163140
{consumergroup=landscape-service},1651567259,1163140
{consumergroup=landscape-service},1651567264,1540771
{consumergroup=landscape-service},1651567269,1540771
{consumergroup=landscape-token-events-consumer},1651567054,0
{consumergroup=landscape-token-events-consumer},1651567059,0
{consumergroup=landscape-token-events-consumer},1651567064,0
{consumergroup=landscape-token-events-consumer},1651567069,0
{consumergroup=landscape-token-events-consumer},1651567074,0
{consumergroup=landscape-token-events-consumer},1651567079,0
{consumergroup=landscape-token-events-consumer},1651567084,0
{consumergroup=landscape-token-events-consumer},1651567089,0
{consumergroup=landscape-token-events-consumer},1651567094,0
{consumergroup=landscape-token-events-consumer},1651567099,0
{consumergroup=landscape-token-events-consumer},1651567104,0
{consumergroup=landscape-token-events-consumer},1651567109,0
{consumergroup=landscape-token-events-consumer},1651567114,0
{consumergroup=landscape-token-events-consumer},1651567119,0
{consumergroup=landscape-token-events-consumer},1651567124,0
{consumergroup=landscape-token-events-consumer},1651567129,0
{consumergroup=landscape-token-events-consumer},1651567134,0
{consumergroup=landscape-token-events-consumer},1651567139,0
{consumergroup=landscape-token-events-consumer},1651567144,0
{consumergroup=landscape-token-events-consumer},1651567149,0
{consumergroup=landscape-token-events-consumer},1651567154,0
{consumergroup=landscape-token-events-consumer},1651567159,0
{consumergroup=landscape-token-events-consumer},1651567164,0
{consumergroup=landscape-token-events-consumer},1651567169,0
{consumergroup=landscape-token-events-consumer},1651567174,0
{consumergroup=landscape-token-events-consumer},1651567179,0
{consumergroup=landscape-token-events-consumer},1651567184,0
{consumergroup=landscape-token-events-consumer},1651567189,0
{consumergroup=landscape-token-events-consumer},1651567194,0
{consumergroup=landscape-token-events-consumer},1651567199,0
{consumergroup=landscape-token-events-consumer},1651567204,0
{consumergroup=landscape-token-events-consumer},1651567209,0
{consumergroup=landscape-token-events-consumer},1651567214,0
{consumergroup=landscape-token-events-consumer},1651567219,0
{consumergroup=landscape-token-events-consumer},1651567224,0
{consumergroup=landscape-token-events-consumer},1651567229,0
{consumergroup=landscape-token-events-consumer},1651567234,0
{consumergroup=landscape-token-events-consumer},1651567239,0
{consumergroup=landscape-token-events-consumer},1651567244,0
{consumergroup=landscape-token-events-consumer},1651567249,0
{consumergroup=landscape-token-events-consumer},1651567254,0
{consumergroup=landscape-token-events-consumer},1651567259,0
{consumergroup=landscape-token-events-consumer},1651567264,0
{consumergroup=landscape-token-events-consumer},1651567269,0
