labels,timestamp,value
{consumergroup=__strimzi-topic-operator-kstreams},1651568526,11
{consumergroup=__strimzi-topic-operator-kstreams},1651568531,11
{consumergroup=__strimzi-topic-operator-kstreams},1651568536,11
{consumergroup=__strimzi-topic-operator-kstreams},1651568541,11
{consumergroup=__strimzi-topic-operator-kstreams},1651568546,11
{consumergroup=__strimzi-topic-operator-kstreams},1651568551,11
{consumergroup=__strimzi-topic-operator-kstreams},1651568556,3
{consumergroup=__strimzi-topic-operator-kstreams},1651568561,3
{consumergroup=__strimzi-topic-operator-kstreams},1651568566,3
{consumergroup=__strimzi-topic-operator-kstreams},1651568571,3
{consumergroup=__strimzi-topic-operator-kstreams},1651568576,3
{consumergroup=__strimzi-topic-operator-kstreams},1651568581,3
{consumergroup=__strimzi-topic-operator-kstreams},1651568586,0
{consumergroup=__strimzi-topic-operator-kstreams},1651568591,0
{consumergroup=__strimzi-topic-operator-kstreams},1651568596,0
{consumergroup=__strimzi-topic-operator-kstreams},1651568601,0
{consumergroup=__strimzi-topic-operator-kstreams},1651568606,0
{consumergroup=__strimzi-topic-operator-kstreams},1651568611,0
{consumergroup=__strimzi-topic-operator-kstreams},1651568616,0
{consumergroup=__strimzi-topic-operator-kstreams},1651568621,0
{consumergroup=__strimzi-topic-operator-kstreams},1651568626,0
{consumergroup=__strimzi-topic-operator-kstreams},1651568631,0
{consumergroup=__strimzi-topic-operator-kstreams},1651568636,0
{consumergroup=__strimzi-topic-operator-kstreams},1651568641,0
{consumergroup=__strimzi-topic-operator-kstreams},1651568646,0
{consumergroup=__strimzi-topic-operator-kstreams},1651568651,0
{consumergroup=__strimzi-topic-operator-kstreams},1651568656,0
{consumergroup=__strimzi-topic-operator-kstreams},1651568661,0
{consumergroup=__strimzi-topic-operator-kstreams},1651568666,0
{consumergroup=__strimzi-topic-operator-kstreams},1651568671,0
{consumergroup=__strimzi-topic-operator-kstreams},1651568676,0
{consumergroup=__strimzi-topic-operator-kstreams},1651568681,0
{consumergroup=__strimzi-topic-operator-kstreams},1651568686,0
{consumergroup=__strimzi-topic-operator-kstreams},1651568691,0
{consumergroup=__strimzi-topic-operator-kstreams},1651568696,0
{consumergroup=__strimzi-topic-operator-kstreams},1651568701,0
{consumergroup=__strimzi-topic-operator-kstreams},1651568706,0
{consumergroup=__strimzi-topic-operator-kstreams},1651568711,0
{consumergroup=__strimzi-topic-operator-kstreams},1651568716,0
{consumergroup=__strimzi-topic-operator-kstreams},1651568721,0
{consumergroup=__strimzi-topic-operator-kstreams},1651568726,0
{consumergroup=__strimzi-topic-operator-kstreams},1651568731,0
{consumergroup=__strimzi-topic-operator-kstreams},1651568736,0
{consumergroup=__strimzi-topic-operator-kstreams},1651568741,0
{consumergroup=__strimzi-topic-operator-kstreams},1651568746,0
{consumergroup=__strimzi-topic-operator-kstreams},1651568751,0
{consumergroup=__strimzi-topic-operator-kstreams},1651568756,0
{consumergroup=__strimzi-topic-operator-kstreams},1651568761,0
{consumergroup=__strimzi-topic-operator-kstreams},1651568766,0
{consumergroup=__strimzi-topic-operator-kstreams},1651568771,0
{consumergroup=__strimzi-topic-operator-kstreams},1651568776,0
{consumergroup=__strimzi-topic-operator-kstreams},1651568781,0
{consumergroup=__strimzi-topic-operator-kstreams},1651568786,0
{consumergroup=__strimzi-topic-operator-kstreams},1651568791,0
{consumergroup=__strimzi-topic-operator-kstreams},1651568796,0
{consumergroup=__strimzi-topic-operator-kstreams},1651568801,0
{consumergroup=__strimzi-topic-operator-kstreams},1651568806,0
{consumergroup=__strimzi-topic-operator-kstreams},1651568811,0
{consumergroup=__strimzi-topic-operator-kstreams},1651568816,0
{consumergroup=__strimzi-topic-operator-kstreams},1651568821,0
{consumergroup=__strimzi-topic-operator-kstreams},1651568826,0
{consumergroup=__strimzi-topic-operator-kstreams},1651568831,0
{consumergroup=__strimzi-topic-operator-kstreams},1651568836,0
{consumergroup=__strimzi-topic-operator-kstreams},1651568841,0
{consumergroup=__strimzi-topic-operator-kstreams},1651568846,0
{consumergroup=__strimzi-topic-operator-kstreams},1651568851,0
{consumergroup=__strimzi-topic-operator-kstreams},1651568856,0
{consumergroup=__strimzi-topic-operator-kstreams},1651568861,0
{consumergroup=__strimzi-topic-operator-kstreams},1651568866,0
{consumergroup=__strimzi-topic-operator-kstreams},1651568871,0
{consumergroup=__strimzi-topic-operator-kstreams},1651568876,0
{consumergroup=__strimzi-topic-operator-kstreams},1651568881,0
{consumergroup=__strimzi-topic-operator-kstreams},1651568886,0
{consumergroup=__strimzi-topic-operator-kstreams},1651568891,0
{consumergroup=__strimzi-topic-operator-kstreams},1651568896,0
{consumergroup=__strimzi-topic-operator-kstreams},1651568901,0
{consumergroup=__strimzi-topic-operator-kstreams},1651568906,0
{consumergroup=__strimzi-topic-operator-kstreams},1651568911,0
{consumergroup=__strimzi-topic-operator-kstreams},1651568916,0
{consumergroup=__strimzi-topic-operator-kstreams},1651568921,0
{consumergroup=__strimzi-topic-operator-kstreams},1651568926,0
{consumergroup=__strimzi-topic-operator-kstreams},1651568931,0
{consumergroup=__strimzi-topic-operator-kstreams},1651568936,0
{consumergroup=__strimzi-topic-operator-kstreams},1651568941,0
{consumergroup=__strimzi-topic-operator-kstreams},1651568946,0
{consumergroup=__strimzi-topic-operator-kstreams},1651568951,0
{consumergroup=__strimzi-topic-operator-kstreams},1651568956,0
{consumergroup=__strimzi-topic-operator-kstreams},1651568961,0
{consumergroup=__strimzi-topic-operator-kstreams},1651568966,0
{consumergroup=__strimzi-topic-operator-kstreams},1651568971,0
{consumergroup=__strimzi-topic-operator-kstreams},1651568976,0
{consumergroup=adapter-service},1651568556,0
{consumergroup=adapter-service},1651568561,0
{consumergroup=adapter-service},1651568566,0
{consumergroup=adapter-service},1651568571,15766
{consumergroup=adapter-service},1651568576,15766
{consumergroup=adapter-service},1651568581,15766
{consumergroup=adapter-service},1651568586,7044
{consumergroup=adapter-service},1651568591,7044
{consumergroup=adapter-service},1651568596,7044
{consumergroup=adapter-service},1651568601,2341
{consumergroup=adapter-service},1651568606,2341
{consumergroup=adapter-service},1651568611,2341
{consumergroup=adapter-service},1651568616,4218
{consumergroup=adapter-service},1651568621,4218
{consumergroup=adapter-service},1651568626,4218
{consumergroup=adapter-service},1651568631,2714
{consumergroup=adapter-service},1651568636,2714
{consumergroup=adapter-service},1651568641,2714
{consumergroup=adapter-service},1651568646,16328
{consumergroup=adapter-service},1651568651,16328
{consumergroup=adapter-service},1651568656,16328
{consumergroup=adapter-service},1651568661,2178
{consumergroup=adapter-service},1651568666,2178
{consumergroup=adapter-service},1651568671,2178
{consumergroup=adapter-service},1651568676,1872
{consumergroup=adapter-service},1651568681,1872
{consumergroup=adapter-service},1651568686,1872
{consumergroup=adapter-service},1651568691,2744
{consumergroup=adapter-service},1651568696,2744
{consumergroup=adapter-service},1651568701,2744
{consumergroup=adapter-service},1651568706,1736
{consumergroup=adapter-service},1651568711,1736
{consumergroup=adapter-service},1651568716,1736
{consumergroup=adapter-service},1651568721,4701
{consumergroup=adapter-service},1651568726,4701
{consumergroup=adapter-service},1651568731,4701
{consumergroup=adapter-service},1651568736,4260
{consumergroup=adapter-service},1651568741,4260
{consumergroup=adapter-service},1651568746,4260
{consumergroup=adapter-service},1651568751,3525
{consumergroup=adapter-service},1651568756,3525
{consumergroup=adapter-service},1651568761,3525
{consumergroup=adapter-service},1651568766,4027
{consumergroup=adapter-service},1651568771,4027
{consumergroup=adapter-service},1651568776,4027
{consumergroup=adapter-service},1651568781,5316
{consumergroup=adapter-service},1651568786,5316
{consumergroup=adapter-service},1651568791,5316
{consumergroup=adapter-service},1651568796,5115
{consumergroup=adapter-service},1651568801,5115
{consumergroup=adapter-service},1651568806,5115
{consumergroup=adapter-service},1651568811,2852
{consumergroup=adapter-service},1651568816,2852
{consumergroup=adapter-service},1651568821,2852
{consumergroup=adapter-service},1651568826,6193
{consumergroup=adapter-service},1651568831,6193
{consumergroup=adapter-service},1651568836,6193
{consumergroup=adapter-service},1651568841,11385
{consumergroup=adapter-service},1651568846,11385
{consumergroup=adapter-service},1651568851,11385
{consumergroup=adapter-service},1651568856,3427
{consumergroup=adapter-service},1651568861,3427
{consumergroup=adapter-service},1651568866,3427
{consumergroup=adapter-service},1651568871,13180
{consumergroup=adapter-service},1651568876,13180
{consumergroup=adapter-service},1651568881,13180
{consumergroup=adapter-service},1651568886,12346
{consumergroup=adapter-service},1651568891,12346
{consumergroup=adapter-service},1651568896,12346
{consumergroup=adapter-service},1651568901,13111
{consumergroup=adapter-service},1651568906,13111
{consumergroup=adapter-service},1651568911,13111
{consumergroup=adapter-service},1651568916,13974
{consumergroup=adapter-service},1651568921,13974
{consumergroup=adapter-service},1651568926,13974
{consumergroup=adapter-service},1651568931,13348
{consumergroup=adapter-service},1651568936,13348
{consumergroup=adapter-service},1651568941,13348
{consumergroup=adapter-service},1651568946,2411
{consumergroup=adapter-service},1651568951,2411
{consumergroup=adapter-service},1651568956,2411
{consumergroup=adapter-service},1651568961,13184
{consumergroup=adapter-service},1651568966,13184
{consumergroup=adapter-service},1651568971,13184
{consumergroup=adapter-service},1651568976,16521
{consumergroup=landscape-service},1651568586,42322
{consumergroup=landscape-service},1651568591,42322
{consumergroup=landscape-service},1651568596,42322
{consumergroup=landscape-service},1651568601,14058
{consumergroup=landscape-service},1651568606,14058
{consumergroup=landscape-service},1651568611,14058
{consumergroup=landscape-service},1651568616,13271
{consumergroup=landscape-service},1651568621,13271
{consumergroup=landscape-service},1651568626,13271
{consumergroup=landscape-service},1651568631,12063
{consumergroup=landscape-service},1651568636,12063
{consumergroup=landscape-service},1651568641,12063
{consumergroup=landscape-service},1651568646,8040
{consumergroup=landscape-service},1651568651,8040
{consumergroup=landscape-service},1651568656,8040
{consumergroup=landscape-service},1651568661,10372
{consumergroup=landscape-service},1651568666,10372
{consumergroup=landscape-service},1651568671,10372
{consumergroup=landscape-service},1651568676,9429
{consumergroup=landscape-service},1651568681,9429
{consumergroup=landscape-service},1651568686,9429
{consumergroup=landscape-service},1651568691,8954
{consumergroup=landscape-service},1651568696,8954
{consumergroup=landscape-service},1651568701,8954
{consumergroup=landscape-service},1651568706,9211
{consumergroup=landscape-service},1651568711,9211
{consumergroup=landscape-service},1651568716,9211
{consumergroup=landscape-service},1651568721,8259
{consumergroup=landscape-service},1651568726,8259
{consumergroup=landscape-service},1651568731,8259
{consumergroup=landscape-service},1651568736,7594
{consumergroup=landscape-service},1651568741,7594
{consumergroup=landscape-service},1651568746,7594
{consumergroup=landscape-service},1651568751,10648
{consumergroup=landscape-service},1651568756,10648
{consumergroup=landscape-service},1651568761,10648
{consumergroup=landscape-service},1651568766,5014
{consumergroup=landscape-service},1651568771,5014
{consumergroup=landscape-service},1651568776,5014
{consumergroup=landscape-service},1651568781,4242
{consumergroup=landscape-service},1651568786,4242
{consumergroup=landscape-service},1651568791,4242
{consumergroup=landscape-service},1651568796,3759
{consumergroup=landscape-service},1651568801,3759
{consumergroup=landscape-service},1651568806,3759
{consumergroup=landscape-service},1651568811,6948
{consumergroup=landscape-service},1651568816,6948
{consumergroup=landscape-service},1651568821,6948
{consumergroup=landscape-service},1651568826,2022
{consumergroup=landscape-service},1651568831,2022
{consumergroup=landscape-service},1651568836,2022
{consumergroup=landscape-service},1651568841,1294
{consumergroup=landscape-service},1651568846,1294
{consumergroup=landscape-service},1651568851,1294
{consumergroup=landscape-service},1651568856,4577
{consumergroup=landscape-service},1651568861,4577
{consumergroup=landscape-service},1651568866,4577
{consumergroup=landscape-service},1651568901,19458
{consumergroup=landscape-service},1651568906,19458
{consumergroup=landscape-service},1651568911,19458
{consumergroup=landscape-service},1651568916,19082
{consumergroup=landscape-service},1651568921,19082
{consumergroup=landscape-service},1651568926,19082
{consumergroup=landscape-service},1651568931,19526
{consumergroup=landscape-service},1651568936,19526
{consumergroup=landscape-service},1651568941,19526
{consumergroup=landscape-service},1651568946,1473
{consumergroup=landscape-service},1651568951,1473
{consumergroup=landscape-service},1651568956,1473
{consumergroup=landscape-service},1651568961,17333
{consumergroup=landscape-service},1651568966,17333
{consumergroup=landscape-service},1651568971,17333
{consumergroup=landscape-service},1651568976,17593
{consumergroup=trace-service},1651568571,37207
{consumergroup=trace-service},1651568576,37207
{consumergroup=trace-service},1651568581,37207
{consumergroup=trace-service},1651568586,44570
{consumergroup=trace-service},1651568591,44570
{consumergroup=trace-service},1651568596,44570
{consumergroup=trace-service},1651568601,125429
{consumergroup=trace-service},1651568606,125429
{consumergroup=trace-service},1651568611,125429
{consumergroup=trace-service},1651568616,38971
{consumergroup=trace-service},1651568621,38971
{consumergroup=trace-service},1651568626,38971
{consumergroup=trace-service},1651568631,78026
{consumergroup=trace-service},1651568636,78026
{consumergroup=trace-service},1651568641,78026
{consumergroup=trace-service},1651568646,40062
{consumergroup=trace-service},1651568651,40062
{consumergroup=trace-service},1651568656,40062
{consumergroup=trace-service},1651568661,114662
{consumergroup=trace-service},1651568666,114662
{consumergroup=trace-service},1651568671,114662
{consumergroup=trace-service},1651568676,42032
{consumergroup=trace-service},1651568681,42032
{consumergroup=trace-service},1651568686,42032
{consumergroup=trace-service},1651568691,122339
{consumergroup=trace-service},1651568696,122339
{consumergroup=trace-service},1651568701,122339
{consumergroup=trace-service},1651568706,41519
{consumergroup=trace-service},1651568711,41519
{consumergroup=trace-service},1651568716,41519
{consumergroup=trace-service},1651568721,119278
{consumergroup=trace-service},1651568726,119278
{consumergroup=trace-service},1651568731,119278
{consumergroup=trace-service},1651568736,38812
{consumergroup=trace-service},1651568741,38812
{consumergroup=trace-service},1651568746,38812
{consumergroup=trace-service},1651568751,83233
{consumergroup=trace-service},1651568756,83233
{consumergroup=trace-service},1651568761,83233
{consumergroup=trace-service},1651568766,39917
{consumergroup=trace-service},1651568771,39917
{consumergroup=trace-service},1651568776,39917
{consumergroup=trace-service},1651568781,90375
{consumergroup=trace-service},1651568786,90375
{consumergroup=trace-service},1651568791,90375
{consumergroup=trace-service},1651568796,117298
{consumergroup=trace-service},1651568801,117298
{consumergroup=trace-service},1651568806,117298
{consumergroup=trace-service},1651568811,145711
{consumergroup=trace-service},1651568816,145711
{consumergroup=trace-service},1651568821,145711
{consumergroup=trace-service},1651568826,46057
{consumergroup=trace-service},1651568831,46057
{consumergroup=trace-service},1651568836,46057
{consumergroup=trace-service},1651568841,142372
{consumergroup=trace-service},1651568846,142372
{consumergroup=trace-service},1651568851,142372
{consumergroup=trace-service},1651568856,43935
{consumergroup=trace-service},1651568861,43935
{consumergroup=trace-service},1651568866,43935
{consumergroup=trace-service},1651568871,122460
{consumergroup=trace-service},1651568876,122460
{consumergroup=trace-service},1651568881,122460
{consumergroup=trace-service},1651568886,46297
{consumergroup=trace-service},1651568891,46297
{consumergroup=trace-service},1651568896,46297
{consumergroup=trace-service},1651568901,148169
{consumergroup=trace-service},1651568906,148169
{consumergroup=trace-service},1651568911,148169
{consumergroup=trace-service},1651568916,40629
{consumergroup=trace-service},1651568921,40629
{consumergroup=trace-service},1651568926,40629
{consumergroup=trace-service},1651568931,103883
{consumergroup=trace-service},1651568936,103883
{consumergroup=trace-service},1651568941,103883
{consumergroup=trace-service},1651568946,45324
{consumergroup=trace-service},1651568951,45324
{consumergroup=trace-service},1651568956,45324
{consumergroup=trace-service},1651568961,139188
{consumergroup=trace-service},1651568966,139188
{consumergroup=trace-service},1651568971,139188
{consumergroup=trace-service},1651568976,39840
{consumergroup=trace-token-events-consumer},1651568556,0
{consumergroup=trace-token-events-consumer},1651568561,0
{consumergroup=trace-token-events-consumer},1651568566,0
{consumergroup=trace-token-events-consumer},1651568571,0
{consumergroup=trace-token-events-consumer},1651568576,0
{consumergroup=trace-token-events-consumer},1651568581,0
{consumergroup=trace-token-events-consumer},1651568586,0
{consumergroup=trace-token-events-consumer},1651568591,0
{consumergroup=trace-token-events-consumer},1651568596,0
{consumergroup=trace-token-events-consumer},1651568601,0
{consumergroup=trace-token-events-consumer},1651568606,0
{consumergroup=trace-token-events-consumer},1651568611,0
{consumergroup=trace-token-events-consumer},1651568616,0
{consumergroup=trace-token-events-consumer},1651568621,0
{consumergroup=trace-token-events-consumer},1651568626,0
{consumergroup=trace-token-events-consumer},1651568631,0
{consumergroup=trace-token-events-consumer},1651568636,0
{consumergroup=trace-token-events-consumer},1651568641,0
{consumergroup=trace-token-events-consumer},1651568646,0
{consumergroup=trace-token-events-consumer},1651568651,0
{consumergroup=trace-token-events-consumer},1651568656,0
{consumergroup=trace-token-events-consumer},1651568661,0
{consumergroup=trace-token-events-consumer},1651568666,0
{consumergroup=trace-token-events-consumer},1651568671,0
{consumergroup=trace-token-events-consumer},1651568676,0
{consumergroup=trace-token-events-consumer},1651568681,0
{consumergroup=trace-token-events-consumer},1651568686,0
{consumergroup=trace-token-events-consumer},1651568691,0
{consumergroup=trace-token-events-consumer},1651568696,0
{consumergroup=trace-token-events-consumer},1651568701,0
{consumergroup=trace-token-events-consumer},1651568706,0
{consumergroup=trace-token-events-consumer},1651568711,0
{consumergroup=trace-token-events-consumer},1651568716,0
{consumergroup=trace-token-events-consumer},1651568721,0
{consumergroup=trace-token-events-consumer},1651568726,0
{consumergroup=trace-token-events-consumer},1651568731,0
{consumergroup=trace-token-events-consumer},1651568736,0
{consumergroup=trace-token-events-consumer},1651568741,0
{consumergroup=trace-token-events-consumer},1651568746,0
{consumergroup=trace-token-events-consumer},1651568751,0
{consumergroup=trace-token-events-consumer},1651568756,0
{consumergroup=trace-token-events-consumer},1651568761,0
{consumergroup=trace-token-events-consumer},1651568766,0
{consumergroup=trace-token-events-consumer},1651568771,0
{consumergroup=trace-token-events-consumer},1651568776,0
{consumergroup=trace-token-events-consumer},1651568781,0
{consumergroup=trace-token-events-consumer},1651568786,0
{consumergroup=trace-token-events-consumer},1651568791,0
{consumergroup=trace-token-events-consumer},1651568796,0
{consumergroup=trace-token-events-consumer},1651568801,0
{consumergroup=trace-token-events-consumer},1651568806,0
{consumergroup=trace-token-events-consumer},1651568811,0
{consumergroup=trace-token-events-consumer},1651568816,0
{consumergroup=trace-token-events-consumer},1651568821,0
{consumergroup=trace-token-events-consumer},1651568826,0
{consumergroup=trace-token-events-consumer},1651568831,0
{consumergroup=trace-token-events-consumer},1651568836,0
{consumergroup=trace-token-events-consumer},1651568841,0
{consumergroup=trace-token-events-consumer},1651568846,0
{consumergroup=trace-token-events-consumer},1651568851,0
{consumergroup=trace-token-events-consumer},1651568856,0
{consumergroup=trace-token-events-consumer},1651568861,0
{consumergroup=trace-token-events-consumer},1651568866,0
{consumergroup=trace-token-events-consumer},1651568871,0
{consumergroup=trace-token-events-consumer},1651568876,0
{consumergroup=trace-token-events-consumer},1651568881,0
{consumergroup=trace-token-events-consumer},1651568886,0
{consumergroup=trace-token-events-consumer},1651568891,0
{consumergroup=trace-token-events-consumer},1651568896,0
{consumergroup=trace-token-events-consumer},1651568901,0
{consumergroup=trace-token-events-consumer},1651568906,0
{consumergroup=trace-token-events-consumer},1651568911,0
{consumergroup=trace-token-events-consumer},1651568916,0
{consumergroup=trace-token-events-consumer},1651568921,0
{consumergroup=trace-token-events-consumer},1651568926,0
{consumergroup=trace-token-events-consumer},1651568931,0
{consumergroup=trace-token-events-consumer},1651568936,0
{consumergroup=trace-token-events-consumer},1651568941,0
{consumergroup=trace-token-events-consumer},1651568946,0
{consumergroup=trace-token-events-consumer},1651568951,0
{consumergroup=trace-token-events-consumer},1651568956,0
{consumergroup=trace-token-events-consumer},1651568961,0
{consumergroup=trace-token-events-consumer},1651568966,0
{consumergroup=trace-token-events-consumer},1651568971,0
{consumergroup=trace-token-events-consumer},1651568976,0
