labels,timestamp,value
{consumergroup=__strimzi-topic-operator-kstreams},1651567977,5
{consumergroup=__strimzi-topic-operator-kstreams},1651567982,5
{consumergroup=__strimzi-topic-operator-kstreams},1651567987,5
{consumergroup=__strimzi-topic-operator-kstreams},1651567992,5
{consumergroup=__strimzi-topic-operator-kstreams},1651567997,5
{consumergroup=__strimzi-topic-operator-kstreams},1651568002,5
{consumergroup=__strimzi-topic-operator-kstreams},1651568007,0
{consumergroup=__strimzi-topic-operator-kstreams},1651568012,0
{consumergroup=__strimzi-topic-operator-kstreams},1651568017,0
{consumergroup=__strimzi-topic-operator-kstreams},1651568022,0
{consumergroup=__strimzi-topic-operator-kstreams},1651568027,0
{consumergroup=__strimzi-topic-operator-kstreams},1651568032,0
{consumergroup=__strimzi-topic-operator-kstreams},1651568037,0
{consumergroup=__strimzi-topic-operator-kstreams},1651568042,0
{consumergroup=__strimzi-topic-operator-kstreams},1651568047,0
{consumergroup=__strimzi-topic-operator-kstreams},1651568052,0
{consumergroup=__strimzi-topic-operator-kstreams},1651568057,0
{consumergroup=__strimzi-topic-operator-kstreams},1651568062,0
{consumergroup=__strimzi-topic-operator-kstreams},1651568067,0
{consumergroup=__strimzi-topic-operator-kstreams},1651568072,0
{consumergroup=__strimzi-topic-operator-kstreams},1651568077,0
{consumergroup=__strimzi-topic-operator-kstreams},1651568082,0
{consumergroup=__strimzi-topic-operator-kstreams},1651568087,0
{consumergroup=__strimzi-topic-operator-kstreams},1651568092,0
{consumergroup=__strimzi-topic-operator-kstreams},1651568097,0
{consumergroup=__strimzi-topic-operator-kstreams},1651568102,0
{consumergroup=__strimzi-topic-operator-kstreams},1651568107,0
{consumergroup=__strimzi-topic-operator-kstreams},1651568112,0
{consumergroup=__strimzi-topic-operator-kstreams},1651568117,0
{consumergroup=__strimzi-topic-operator-kstreams},1651568122,0
{consumergroup=__strimzi-topic-operator-kstreams},1651568127,0
{consumergroup=__strimzi-topic-operator-kstreams},1651568132,0
{consumergroup=__strimzi-topic-operator-kstreams},1651568137,0
{consumergroup=__strimzi-topic-operator-kstreams},1651568142,0
{consumergroup=__strimzi-topic-operator-kstreams},1651568147,0
{consumergroup=__strimzi-topic-operator-kstreams},1651568152,0
{consumergroup=__strimzi-topic-operator-kstreams},1651568157,0
{consumergroup=__strimzi-topic-operator-kstreams},1651568162,0
{consumergroup=__strimzi-topic-operator-kstreams},1651568167,0
{consumergroup=__strimzi-topic-operator-kstreams},1651568172,0
{consumergroup=__strimzi-topic-operator-kstreams},1651568177,0
{consumergroup=__strimzi-topic-operator-kstreams},1651568182,0
{consumergroup=__strimzi-topic-operator-kstreams},1651568187,0
{consumergroup=__strimzi-topic-operator-kstreams},1651568192,0
{consumergroup=__strimzi-topic-operator-kstreams},1651568197,0
{consumergroup=__strimzi-topic-operator-kstreams},1651568202,0
{consumergroup=__strimzi-topic-operator-kstreams},1651568207,0
{consumergroup=__strimzi-topic-operator-kstreams},1651568212,0
{consumergroup=__strimzi-topic-operator-kstreams},1651568217,0
{consumergroup=__strimzi-topic-operator-kstreams},1651568222,0
{consumergroup=__strimzi-topic-operator-kstreams},1651568227,0
{consumergroup=__strimzi-topic-operator-kstreams},1651568232,0
{consumergroup=__strimzi-topic-operator-kstreams},1651568237,0
{consumergroup=__strimzi-topic-operator-kstreams},1651568242,0
{consumergroup=__strimzi-topic-operator-kstreams},1651568247,0
{consumergroup=__strimzi-topic-operator-kstreams},1651568252,0
{consumergroup=__strimzi-topic-operator-kstreams},1651568257,0
{consumergroup=__strimzi-topic-operator-kstreams},1651568262,0
{consumergroup=__strimzi-topic-operator-kstreams},1651568267,0
{consumergroup=__strimzi-topic-operator-kstreams},1651568272,0
{consumergroup=__strimzi-topic-operator-kstreams},1651568277,0
{consumergroup=__strimzi-topic-operator-kstreams},1651568282,0
{consumergroup=__strimzi-topic-operator-kstreams},1651568287,0
{consumergroup=__strimzi-topic-operator-kstreams},1651568292,0
{consumergroup=__strimzi-topic-operator-kstreams},1651568297,0
{consumergroup=__strimzi-topic-operator-kstreams},1651568302,0
{consumergroup=__strimzi-topic-operator-kstreams},1651568307,0
{consumergroup=__strimzi-topic-operator-kstreams},1651568312,0
{consumergroup=__strimzi-topic-operator-kstreams},1651568317,0
{consumergroup=__strimzi-topic-operator-kstreams},1651568322,0
{consumergroup=__strimzi-topic-operator-kstreams},1651568327,0
{consumergroup=__strimzi-topic-operator-kstreams},1651568332,0
{consumergroup=__strimzi-topic-operator-kstreams},1651568337,0
{consumergroup=__strimzi-topic-operator-kstreams},1651568342,0
{consumergroup=__strimzi-topic-operator-kstreams},1651568347,0
{consumergroup=__strimzi-topic-operator-kstreams},1651568352,0
{consumergroup=__strimzi-topic-operator-kstreams},1651568357,0
{consumergroup=__strimzi-topic-operator-kstreams},1651568362,0
{consumergroup=__strimzi-topic-operator-kstreams},1651568367,0
{consumergroup=__strimzi-topic-operator-kstreams},1651568372,0
{consumergroup=__strimzi-topic-operator-kstreams},1651568377,0
{consumergroup=__strimzi-topic-operator-kstreams},1651568382,0
{consumergroup=__strimzi-topic-operator-kstreams},1651568387,0
{consumergroup=__strimzi-topic-operator-kstreams},1651568392,0
{consumergroup=__strimzi-topic-operator-kstreams},1651568397,0
{consumergroup=__strimzi-topic-operator-kstreams},1651568402,0
{consumergroup=__strimzi-topic-operator-kstreams},1651568407,0
{consumergroup=__strimzi-topic-operator-kstreams},1651568412,0
{consumergroup=__strimzi-topic-operator-kstreams},1651568417,0
{consumergroup=adapter-service},1651568007,0
{consumergroup=adapter-service},1651568012,0
{consumergroup=adapter-service},1651568017,0
{consumergroup=adapter-service},1651568022,17059
{consumergroup=adapter-service},1651568027,17059
{consumergroup=adapter-service},1651568032,17059
{consumergroup=adapter-service},1651568037,1472
{consumergroup=adapter-service},1651568042,1472
{consumergroup=adapter-service},1651568047,1472
{consumergroup=adapter-service},1651568052,10264
{consumergroup=adapter-service},1651568057,10264
{consumergroup=adapter-service},1651568062,10264
{consumergroup=adapter-service},1651568067,15490
{consumergroup=adapter-service},1651568072,15490
{consumergroup=adapter-service},1651568077,15490
{consumergroup=adapter-service},1651568082,9957
{consumergroup=adapter-service},1651568087,9957
{consumergroup=adapter-service},1651568092,9957
{consumergroup=adapter-service},1651568097,13854
{consumergroup=adapter-service},1651568102,13854
{consumergroup=adapter-service},1651568107,13854
{consumergroup=adapter-service},1651568112,8188
{consumergroup=adapter-service},1651568117,8188
{consumergroup=adapter-service},1651568122,8188
{consumergroup=adapter-service},1651568127,14469
{consumergroup=adapter-service},1651568132,14469
{consumergroup=adapter-service},1651568137,14469
{consumergroup=adapter-service},1651568142,7905
{consumergroup=adapter-service},1651568147,7905
{consumergroup=adapter-service},1651568152,7905
{consumergroup=adapter-service},1651568157,12853
{consumergroup=adapter-service},1651568162,12853
{consumergroup=adapter-service},1651568167,12853
{consumergroup=adapter-service},1651568172,8622
{consumergroup=adapter-service},1651568177,8622
{consumergroup=adapter-service},1651568182,8622
{consumergroup=adapter-service},1651568187,12767
{consumergroup=adapter-service},1651568192,12767
{consumergroup=adapter-service},1651568197,12767
{consumergroup=adapter-service},1651568202,10979
{consumergroup=adapter-service},1651568207,10979
{consumergroup=adapter-service},1651568212,10979
{consumergroup=adapter-service},1651568217,12258
{consumergroup=adapter-service},1651568222,12258
{consumergroup=adapter-service},1651568227,12258
{consumergroup=adapter-service},1651568232,6718
{consumergroup=adapter-service},1651568237,6718
{consumergroup=adapter-service},1651568242,6718
{consumergroup=adapter-service},1651568247,11848
{consumergroup=adapter-service},1651568252,11848
{consumergroup=adapter-service},1651568257,11848
{consumergroup=adapter-service},1651568262,10549
{consumergroup=adapter-service},1651568267,10549
{consumergroup=adapter-service},1651568272,10549
{consumergroup=adapter-service},1651568277,11468
{consumergroup=adapter-service},1651568282,11468
{consumergroup=adapter-service},1651568287,11468
{consumergroup=adapter-service},1651568292,7251
{consumergroup=adapter-service},1651568297,7251
{consumergroup=adapter-service},1651568302,7251
{consumergroup=adapter-service},1651568307,12010
{consumergroup=adapter-service},1651568312,12010
{consumergroup=adapter-service},1651568317,12010
{consumergroup=adapter-service},1651568322,5734
{consumergroup=adapter-service},1651568327,5734
{consumergroup=adapter-service},1651568332,5734
{consumergroup=adapter-service},1651568337,10659
{consumergroup=adapter-service},1651568342,10659
{consumergroup=adapter-service},1651568347,10659
{consumergroup=adapter-service},1651568352,9109
{consumergroup=adapter-service},1651568357,9109
{consumergroup=adapter-service},1651568362,9109
{consumergroup=adapter-service},1651568367,11040
{consumergroup=adapter-service},1651568372,11040
{consumergroup=adapter-service},1651568377,11040
{consumergroup=adapter-service},1651568382,5992
{consumergroup=adapter-service},1651568387,5992
{consumergroup=adapter-service},1651568392,5992
{consumergroup=adapter-service},1651568397,14067
{consumergroup=adapter-service},1651568402,14067
{consumergroup=adapter-service},1651568407,14067
{consumergroup=adapter-service},1651568412,4549
{consumergroup=adapter-service},1651568417,4549
{consumergroup=landscape-service},1651568022,40738
{consumergroup=landscape-service},1651568027,40738
{consumergroup=landscape-service},1651568032,40738
{consumergroup=landscape-service},1651568037,3270
{consumergroup=landscape-service},1651568042,3270
{consumergroup=landscape-service},1651568047,3270
{consumergroup=landscape-service},1651568052,14053
{consumergroup=landscape-service},1651568057,14053
{consumergroup=landscape-service},1651568062,14053
{consumergroup=landscape-service},1651568067,17709
{consumergroup=landscape-service},1651568072,17709
{consumergroup=landscape-service},1651568077,17709
{consumergroup=landscape-service},1651568082,11767
{consumergroup=landscape-service},1651568087,11767
{consumergroup=landscape-service},1651568092,11767
{consumergroup=landscape-service},1651568097,243
{consumergroup=landscape-service},1651568102,243
{consumergroup=landscape-service},1651568107,243
{consumergroup=landscape-service},1651568112,11123
{consumergroup=landscape-service},1651568117,11123
{consumergroup=landscape-service},1651568122,11123
{consumergroup=landscape-service},1651568127,15307
{consumergroup=landscape-service},1651568132,15307
{consumergroup=landscape-service},1651568137,15307
{consumergroup=landscape-service},1651568142,9149
{consumergroup=landscape-service},1651568147,9149
{consumergroup=landscape-service},1651568152,9149
{consumergroup=landscape-service},1651568157,13844
{consumergroup=landscape-service},1651568162,13844
{consumergroup=landscape-service},1651568167,13844
{consumergroup=landscape-service},1651568172,7467
{consumergroup=landscape-service},1651568177,7467
{consumergroup=landscape-service},1651568182,7467
{consumergroup=landscape-service},1651568187,13172
{consumergroup=landscape-service},1651568192,13172
{consumergroup=landscape-service},1651568197,13172
{consumergroup=landscape-service},1651568202,10333
{consumergroup=landscape-service},1651568207,10333
{consumergroup=landscape-service},1651568212,10333
{consumergroup=landscape-service},1651568217,11115
{consumergroup=landscape-service},1651568222,11115
{consumergroup=landscape-service},1651568227,11115
{consumergroup=landscape-service},1651568232,6144
{consumergroup=landscape-service},1651568237,6144
{consumergroup=landscape-service},1651568242,6144
{consumergroup=landscape-service},1651568247,9870
{consumergroup=landscape-service},1651568252,9870
{consumergroup=landscape-service},1651568257,9870
{consumergroup=landscape-service},1651568262,8099
{consumergroup=landscape-service},1651568267,8099
{consumergroup=landscape-service},1651568272,8099
{consumergroup=landscape-service},1651568277,8793
{consumergroup=landscape-service},1651568282,8793
{consumergroup=landscape-service},1651568287,8793
{consumergroup=landscape-service},1651568292,3063
{consumergroup=landscape-service},1651568297,3063
{consumergroup=landscape-service},1651568302,3063
{consumergroup=landscape-service},1651568307,8894
{consumergroup=landscape-service},1651568312,8894
{consumergroup=landscape-service},1651568317,8894
{consumergroup=landscape-service},1651568322,4404
{consumergroup=landscape-service},1651568327,4404
{consumergroup=landscape-service},1651568332,4404
{consumergroup=landscape-service},1651568337,8075
{consumergroup=landscape-service},1651568342,8075
{consumergroup=landscape-service},1651568347,8075
{consumergroup=landscape-service},1651568352,6222
{consumergroup=landscape-service},1651568357,6222
{consumergroup=landscape-service},1651568362,6222
{consumergroup=landscape-service},1651568367,6762
{consumergroup=landscape-service},1651568372,6762
{consumergroup=landscape-service},1651568377,6762
{consumergroup=landscape-service},1651568382,1481
{consumergroup=landscape-service},1651568387,1481
{consumergroup=landscape-service},1651568392,1481
{consumergroup=landscape-service},1651568397,10005
{consumergroup=landscape-service},1651568402,10005
{consumergroup=landscape-service},1651568407,10005
{consumergroup=landscape-service},1651568412,20320
{consumergroup=landscape-service},1651568417,20320
{consumergroup=trace-service},1651568022,14564
{consumergroup=trace-service},1651568027,14564
{consumergroup=trace-service},1651568032,14564
{consumergroup=trace-service},1651568037,21462
{consumergroup=trace-service},1651568042,21462
{consumergroup=trace-service},1651568047,21462
{consumergroup=trace-service},1651568052,55001
{consumergroup=trace-service},1651568057,55001
{consumergroup=trace-service},1651568062,55001
{consumergroup=trace-service},1651568067,139125
{consumergroup=trace-service},1651568072,139125
{consumergroup=trace-service},1651568077,139125
{consumergroup=trace-service},1651568082,66086
{consumergroup=trace-service},1651568087,66086
{consumergroup=trace-service},1651568092,66086
{consumergroup=trace-service},1651568097,13156
{consumergroup=trace-service},1651568102,13156
{consumergroup=trace-service},1651568107,13156
{consumergroup=trace-service},1651568112,48767
{consumergroup=trace-service},1651568117,48767
{consumergroup=trace-service},1651568122,48767
{consumergroup=trace-service},1651568127,21937
{consumergroup=trace-service},1651568132,21937
{consumergroup=trace-service},1651568137,21937
{consumergroup=trace-service},1651568142,50190
{consumergroup=trace-service},1651568147,50190
{consumergroup=trace-service},1651568152,50190
{consumergroup=trace-service},1651568157,159500
{consumergroup=trace-service},1651568162,159500
{consumergroup=trace-service},1651568167,159500
{consumergroup=trace-service},1651568172,47582
{consumergroup=trace-service},1651568177,47582
{consumergroup=trace-service},1651568182,47582
{consumergroup=trace-service},1651568187,14192
{consumergroup=trace-service},1651568192,14192
{consumergroup=trace-service},1651568197,14192
{consumergroup=trace-service},1651568202,50496
{consumergroup=trace-service},1651568207,50496
{consumergroup=trace-service},1651568212,50496
{consumergroup=trace-service},1651568217,122553
{consumergroup=trace-service},1651568222,122553
{consumergroup=trace-service},1651568227,122553
{consumergroup=trace-service},1651568232,50605
{consumergroup=trace-service},1651568237,50605
{consumergroup=trace-service},1651568242,50605
{consumergroup=trace-service},1651568247,16000
{consumergroup=trace-service},1651568252,16000
{consumergroup=trace-service},1651568257,16000
{consumergroup=trace-service},1651568262,50703
{consumergroup=trace-service},1651568267,50703
{consumergroup=trace-service},1651568272,50703
{consumergroup=trace-service},1651568277,14655
{consumergroup=trace-service},1651568282,14655
{consumergroup=trace-service},1651568287,14655
{consumergroup=trace-service},1651568292,49782
{consumergroup=trace-service},1651568297,49782
{consumergroup=trace-service},1651568302,49782
{consumergroup=trace-service},1651568307,96127
{consumergroup=trace-service},1651568312,96127
{consumergroup=trace-service},1651568317,96127
{consumergroup=trace-service},1651568322,52233
{consumergroup=trace-service},1651568327,52233
{consumergroup=trace-service},1651568332,52233
{consumergroup=trace-service},1651568337,15496
{consumergroup=trace-service},1651568342,15496
{consumergroup=trace-service},1651568347,15496
{consumergroup=trace-service},1651568352,49838
{consumergroup=trace-service},1651568357,49838
{consumergroup=trace-service},1651568362,49838
{consumergroup=trace-service},1651568367,135181
{consumergroup=trace-service},1651568372,135181
{consumergroup=trace-service},1651568377,135181
{consumergroup=trace-service},1651568382,55637
{consumergroup=trace-service},1651568387,55637
{consumergroup=trace-service},1651568392,55637
{consumergroup=trace-service},1651568397,168128
{consumergroup=trace-service},1651568402,168128
{consumergroup=trace-service},1651568407,168128
{consumergroup=trace-service},1651568412,46553
{consumergroup=trace-service},1651568417,46553
{consumergroup=trace-token-events-consumer},1651568007,0
{consumergroup=trace-token-events-consumer},1651568012,0
{consumergroup=trace-token-events-consumer},1651568017,0
{consumergroup=trace-token-events-consumer},1651568022,0
{consumergroup=trace-token-events-consumer},1651568027,0
{consumergroup=trace-token-events-consumer},1651568032,0
{consumergroup=trace-token-events-consumer},1651568037,0
{consumergroup=trace-token-events-consumer},1651568042,0
{consumergroup=trace-token-events-consumer},1651568047,0
{consumergroup=trace-token-events-consumer},1651568052,0
{consumergroup=trace-token-events-consumer},1651568057,0
{consumergroup=trace-token-events-consumer},1651568062,0
{consumergroup=trace-token-events-consumer},1651568067,0
{consumergroup=trace-token-events-consumer},1651568072,0
{consumergroup=trace-token-events-consumer},1651568077,0
{consumergroup=trace-token-events-consumer},1651568082,0
{consumergroup=trace-token-events-consumer},1651568087,0
{consumergroup=trace-token-events-consumer},1651568092,0
{consumergroup=trace-token-events-consumer},1651568097,0
{consumergroup=trace-token-events-consumer},1651568102,0
{consumergroup=trace-token-events-consumer},1651568107,0
{consumergroup=trace-token-events-consumer},1651568112,0
{consumergroup=trace-token-events-consumer},1651568117,0
{consumergroup=trace-token-events-consumer},1651568122,0
{consumergroup=trace-token-events-consumer},1651568127,0
{consumergroup=trace-token-events-consumer},1651568132,0
{consumergroup=trace-token-events-consumer},1651568137,0
{consumergroup=trace-token-events-consumer},1651568142,0
{consumergroup=trace-token-events-consumer},1651568147,0
{consumergroup=trace-token-events-consumer},1651568152,0
{consumergroup=trace-token-events-consumer},1651568157,0
{consumergroup=trace-token-events-consumer},1651568162,0
{consumergroup=trace-token-events-consumer},1651568167,0
{consumergroup=trace-token-events-consumer},1651568172,0
{consumergroup=trace-token-events-consumer},1651568177,0
{consumergroup=trace-token-events-consumer},1651568182,0
{consumergroup=trace-token-events-consumer},1651568187,0
{consumergroup=trace-token-events-consumer},1651568192,0
{consumergroup=trace-token-events-consumer},1651568197,0
{consumergroup=trace-token-events-consumer},1651568202,0
{consumergroup=trace-token-events-consumer},1651568207,0
{consumergroup=trace-token-events-consumer},1651568212,0
{consumergroup=trace-token-events-consumer},1651568217,0
{consumergroup=trace-token-events-consumer},1651568222,0
{consumergroup=trace-token-events-consumer},1651568227,0
{consumergroup=trace-token-events-consumer},1651568232,0
{consumergroup=trace-token-events-consumer},1651568237,0
{consumergroup=trace-token-events-consumer},1651568242,0
{consumergroup=trace-token-events-consumer},1651568247,0
{consumergroup=trace-token-events-consumer},1651568252,0
{consumergroup=trace-token-events-consumer},1651568257,0
{consumergroup=trace-token-events-consumer},1651568262,0
{consumergroup=trace-token-events-consumer},1651568267,0
{consumergroup=trace-token-events-consumer},1651568272,0
{consumergroup=trace-token-events-consumer},1651568277,0
{consumergroup=trace-token-events-consumer},1651568282,0
{consumergroup=trace-token-events-consumer},1651568287,0
{consumergroup=trace-token-events-consumer},1651568292,0
{consumergroup=trace-token-events-consumer},1651568297,0
{consumergroup=trace-token-events-consumer},1651568302,0
{consumergroup=trace-token-events-consumer},1651568307,0
{consumergroup=trace-token-events-consumer},1651568312,0
{consumergroup=trace-token-events-consumer},1651568317,0
{consumergroup=trace-token-events-consumer},1651568322,0
{consumergroup=trace-token-events-consumer},1651568327,0
{consumergroup=trace-token-events-consumer},1651568332,0
{consumergroup=trace-token-events-consumer},1651568337,0
{consumergroup=trace-token-events-consumer},1651568342,0
{consumergroup=trace-token-events-consumer},1651568347,0
{consumergroup=trace-token-events-consumer},1651568352,0
{consumergroup=trace-token-events-consumer},1651568357,0
{consumergroup=trace-token-events-consumer},1651568362,0
{consumergroup=trace-token-events-consumer},1651568367,0
{consumergroup=trace-token-events-consumer},1651568372,0
{consumergroup=trace-token-events-consumer},1651568377,0
{consumergroup=trace-token-events-consumer},1651568382,0
{consumergroup=trace-token-events-consumer},1651568387,0
{consumergroup=trace-token-events-consumer},1651568392,0
{consumergroup=trace-token-events-consumer},1651568397,0
{consumergroup=trace-token-events-consumer},1651568402,0
{consumergroup=trace-token-events-consumer},1651568407,0
{consumergroup=trace-token-events-consumer},1651568412,0
{consumergroup=trace-token-events-consumer},1651568417,0
