labels,timestamp,value
{consumergroup=__strimzi-topic-operator-kstreams},1651579450,11
{consumergroup=__strimzi-topic-operator-kstreams},1651579455,11
{consumergroup=__strimzi-topic-operator-kstreams},1651579460,11
{consumergroup=__strimzi-topic-operator-kstreams},1651579465,0
{consumergroup=__strimzi-topic-operator-kstreams},1651579470,0
{consumergroup=__strimzi-topic-operator-kstreams},1651579475,0
{consumergroup=__strimzi-topic-operator-kstreams},1651579480,3
{consumergroup=__strimzi-topic-operator-kstreams},1651579485,3
{consumergroup=__strimzi-topic-operator-kstreams},1651579490,3
{consumergroup=__strimzi-topic-operator-kstreams},1651579495,0
{consumergroup=__strimzi-topic-operator-kstreams},1651579500,0
{consumergroup=__strimzi-topic-operator-kstreams},1651579505,0
{consumergroup=__strimzi-topic-operator-kstreams},1651579510,0
{consumergroup=__strimzi-topic-operator-kstreams},1651579515,0
{consumergroup=__strimzi-topic-operator-kstreams},1651579520,0
{consumergroup=__strimzi-topic-operator-kstreams},1651579525,0
{consumergroup=__strimzi-topic-operator-kstreams},1651579530,0
{consumergroup=__strimzi-topic-operator-kstreams},1651579535,0
{consumergroup=__strimzi-topic-operator-kstreams},1651579540,0
{consumergroup=__strimzi-topic-operator-kstreams},1651579545,0
{consumergroup=__strimzi-topic-operator-kstreams},1651579550,0
{consumergroup=__strimzi-topic-operator-kstreams},1651579555,0
{consumergroup=__strimzi-topic-operator-kstreams},1651579560,0
{consumergroup=__strimzi-topic-operator-kstreams},1651579565,0
{consumergroup=__strimzi-topic-operator-kstreams},1651579570,0
{consumergroup=__strimzi-topic-operator-kstreams},1651579575,0
{consumergroup=__strimzi-topic-operator-kstreams},1651579580,0
{consumergroup=__strimzi-topic-operator-kstreams},1651579585,0
{consumergroup=__strimzi-topic-operator-kstreams},1651579590,0
{consumergroup=__strimzi-topic-operator-kstreams},1651579595,0
{consumergroup=__strimzi-topic-operator-kstreams},1651579600,0
{consumergroup=__strimzi-topic-operator-kstreams},1651579605,0
{consumergroup=__strimzi-topic-operator-kstreams},1651579610,0
{consumergroup=__strimzi-topic-operator-kstreams},1651579615,0
{consumergroup=__strimzi-topic-operator-kstreams},1651579620,0
{consumergroup=__strimzi-topic-operator-kstreams},1651579625,0
{consumergroup=__strimzi-topic-operator-kstreams},1651579630,0
{consumergroup=__strimzi-topic-operator-kstreams},1651579635,0
{consumergroup=__strimzi-topic-operator-kstreams},1651579640,0
{consumergroup=__strimzi-topic-operator-kstreams},1651579645,0
{consumergroup=__strimzi-topic-operator-kstreams},1651579650,0
{consumergroup=__strimzi-topic-operator-kstreams},1651579655,0
{consumergroup=__strimzi-topic-operator-kstreams},1651579660,0
{consumergroup=__strimzi-topic-operator-kstreams},1651579665,0
{consumergroup=__strimzi-topic-operator-kstreams},1651579670,0
{consumergroup=__strimzi-topic-operator-kstreams},1651579675,0
{consumergroup=__strimzi-topic-operator-kstreams},1651579680,0
{consumergroup=__strimzi-topic-operator-kstreams},1651579685,0
{consumergroup=__strimzi-topic-operator-kstreams},1651579690,0
{consumergroup=__strimzi-topic-operator-kstreams},1651579695,0
{consumergroup=__strimzi-topic-operator-kstreams},1651579700,0
{consumergroup=__strimzi-topic-operator-kstreams},1651579705,0
{consumergroup=__strimzi-topic-operator-kstreams},1651579710,0
{consumergroup=__strimzi-topic-operator-kstreams},1651579715,0
{consumergroup=__strimzi-topic-operator-kstreams},1651579720,0
{consumergroup=__strimzi-topic-operator-kstreams},1651579725,0
{consumergroup=__strimzi-topic-operator-kstreams},1651579730,0
{consumergroup=__strimzi-topic-operator-kstreams},1651579735,0
{consumergroup=__strimzi-topic-operator-kstreams},1651579740,0
{consumergroup=__strimzi-topic-operator-kstreams},1651579745,0
{consumergroup=__strimzi-topic-operator-kstreams},1651579750,0
{consumergroup=__strimzi-topic-operator-kstreams},1651579755,0
{consumergroup=__strimzi-topic-operator-kstreams},1651579760,0
{consumergroup=__strimzi-topic-operator-kstreams},1651579765,0
{consumergroup=__strimzi-topic-operator-kstreams},1651579770,0
{consumergroup=__strimzi-topic-operator-kstreams},1651579775,0
{consumergroup=__strimzi-topic-operator-kstreams},1651579780,0
{consumergroup=__strimzi-topic-operator-kstreams},1651579785,0
{consumergroup=__strimzi-topic-operator-kstreams},1651579790,0
{consumergroup=__strimzi-topic-operator-kstreams},1651579795,0
{consumergroup=__strimzi-topic-operator-kstreams},1651579800,0
{consumergroup=__strimzi-topic-operator-kstreams},1651579805,0
{consumergroup=__strimzi-topic-operator-kstreams},1651579810,0
{consumergroup=__strimzi-topic-operator-kstreams},1651579815,0
{consumergroup=__strimzi-topic-operator-kstreams},1651579820,0
{consumergroup=__strimzi-topic-operator-kstreams},1651579825,0
{consumergroup=__strimzi-topic-operator-kstreams},1651579830,0
{consumergroup=__strimzi-topic-operator-kstreams},1651579835,0
{consumergroup=__strimzi-topic-operator-kstreams},1651579840,0
{consumergroup=__strimzi-topic-operator-kstreams},1651579845,0
{consumergroup=__strimzi-topic-operator-kstreams},1651579850,0
{consumergroup=__strimzi-topic-operator-kstreams},1651579855,0
{consumergroup=__strimzi-topic-operator-kstreams},1651579860,0
{consumergroup=__strimzi-topic-operator-kstreams},1651579865,0
{consumergroup=__strimzi-topic-operator-kstreams},1651579870,0
{consumergroup=__strimzi-topic-operator-kstreams},1651579875,0
{consumergroup=__strimzi-topic-operator-kstreams},1651579880,0
{consumergroup=__strimzi-topic-operator-kstreams},1651579885,0
{consumergroup=__strimzi-topic-operator-kstreams},1651579890,0
{consumergroup=adapter-service},1651579480,0
{consumergroup=adapter-service},1651579485,0
{consumergroup=adapter-service},1651579490,0
{consumergroup=adapter-service},1651579495,13966
{consumergroup=adapter-service},1651579500,13966
{consumergroup=adapter-service},1651579505,13966
{consumergroup=adapter-service},1651579510,6469
{consumergroup=adapter-service},1651579515,6469
{consumergroup=adapter-service},1651579520,6469
{consumergroup=adapter-service},1651579525,9410
{consumergroup=adapter-service},1651579530,9410
{consumergroup=adapter-service},1651579535,9410
{consumergroup=adapter-service},1651579540,4099
{consumergroup=adapter-service},1651579545,4099
{consumergroup=adapter-service},1651579550,4099
{consumergroup=adapter-service},1651579555,13326
{consumergroup=adapter-service},1651579560,13326
{consumergroup=adapter-service},1651579565,13326
{consumergroup=adapter-service},1651579570,3647
{consumergroup=adapter-service},1651579575,3647
{consumergroup=adapter-service},1651579580,3647
{consumergroup=adapter-service},1651579585,7640
{consumergroup=adapter-service},1651579590,7640
{consumergroup=adapter-service},1651579595,7640
{consumergroup=adapter-service},1651579600,3151
{consumergroup=adapter-service},1651579605,3151
{consumergroup=adapter-service},1651579610,3151
{consumergroup=adapter-service},1651579615,12646
{consumergroup=adapter-service},1651579620,12646
{consumergroup=adapter-service},1651579625,12646
{consumergroup=adapter-service},1651579630,2645
{consumergroup=adapter-service},1651579635,2645
{consumergroup=adapter-service},1651579640,2645
{consumergroup=adapter-service},1651579645,6679
{consumergroup=adapter-service},1651579650,6679
{consumergroup=adapter-service},1651579655,6679
{consumergroup=adapter-service},1651579660,3578
{consumergroup=adapter-service},1651579665,3578
{consumergroup=adapter-service},1651579670,3578
{consumergroup=adapter-service},1651579675,6739
{consumergroup=adapter-service},1651579680,6739
{consumergroup=adapter-service},1651579685,6739
{consumergroup=adapter-service},1651579690,1978
{consumergroup=adapter-service},1651579695,1978
{consumergroup=adapter-service},1651579700,1978
{consumergroup=adapter-service},1651579705,5925
{consumergroup=adapter-service},1651579710,5925
{consumergroup=adapter-service},1651579715,5925
{consumergroup=adapter-service},1651579720,1722
{consumergroup=adapter-service},1651579725,1722
{consumergroup=adapter-service},1651579730,1722
{consumergroup=adapter-service},1651579735,5477
{consumergroup=adapter-service},1651579740,5477
{consumergroup=adapter-service},1651579745,5477
{consumergroup=adapter-service},1651579750,1348
{consumergroup=adapter-service},1651579755,1348
{consumergroup=adapter-service},1651579760,1348
{consumergroup=adapter-service},1651579765,5288
{consumergroup=adapter-service},1651579770,5288
{consumergroup=adapter-service},1651579775,5288
{consumergroup=adapter-service},1651579780,1341
{consumergroup=adapter-service},1651579785,1341
{consumergroup=adapter-service},1651579790,1341
{consumergroup=adapter-service},1651579795,4878
{consumergroup=adapter-service},1651579800,4878
{consumergroup=adapter-service},1651579805,4878
{consumergroup=adapter-service},1651579810,3356
{consumergroup=adapter-service},1651579815,3356
{consumergroup=adapter-service},1651579820,3356
{consumergroup=adapter-service},1651579825,4558
{consumergroup=adapter-service},1651579830,4558
{consumergroup=adapter-service},1651579835,4558
{consumergroup=adapter-service},1651579840,5448
{consumergroup=adapter-service},1651579845,5448
{consumergroup=adapter-service},1651579850,5448
{consumergroup=adapter-service},1651579855,4025
{consumergroup=adapter-service},1651579860,4025
{consumergroup=adapter-service},1651579865,4025
{consumergroup=adapter-service},1651579870,5159
{consumergroup=adapter-service},1651579875,5159
{consumergroup=adapter-service},1651579880,5159
{consumergroup=adapter-service},1651579885,4695
{consumergroup=adapter-service},1651579890,4695
{consumergroup=landscape-service},1651579495,40259
{consumergroup=landscape-service},1651579500,40259
{consumergroup=landscape-service},1651579505,40259
{consumergroup=landscape-service},1651579510,3365
{consumergroup=landscape-service},1651579515,3365
{consumergroup=landscape-service},1651579520,3365
{consumergroup=landscape-service},1651579525,7343
{consumergroup=landscape-service},1651579530,7343
{consumergroup=landscape-service},1651579535,7343
{consumergroup=landscape-service},1651579540,1239
{consumergroup=landscape-service},1651579545,1239
{consumergroup=landscape-service},1651579550,1239
{consumergroup=landscape-service},1651579555,9012
{consumergroup=landscape-service},1651579560,9012
{consumergroup=landscape-service},1651579565,9012
{consumergroup=landscape-service},1651579570,71
{consumergroup=landscape-service},1651579575,71
{consumergroup=landscape-service},1651579580,71
{consumergroup=landscape-service},1651579585,3589
{consumergroup=landscape-service},1651579590,3589
{consumergroup=landscape-service},1651579595,3589
{consumergroup=landscape-service},1651579600,19871
{consumergroup=landscape-service},1651579605,19871
{consumergroup=landscape-service},1651579610,19871
{consumergroup=landscape-service},1651579615,6702
{consumergroup=landscape-service},1651579620,6702
{consumergroup=landscape-service},1651579625,6702
{consumergroup=landscape-service},1651579630,18524
{consumergroup=landscape-service},1651579635,18524
{consumergroup=landscape-service},1651579640,18524
{consumergroup=landscape-service},1651579645,2008
{consumergroup=landscape-service},1651579650,2008
{consumergroup=landscape-service},1651579655,2008
{consumergroup=landscape-service},1651579660,17646
{consumergroup=landscape-service},1651579665,17646
{consumergroup=landscape-service},1651579670,17646
{consumergroup=landscape-service},1651579675,195
{consumergroup=landscape-service},1651579680,195
{consumergroup=landscape-service},1651579685,195
{consumergroup=landscape-service},1651579690,17317
{consumergroup=landscape-service},1651579695,17317
{consumergroup=landscape-service},1651579700,17317
{consumergroup=landscape-service},1651579705,19834
{consumergroup=landscape-service},1651579710,19834
{consumergroup=landscape-service},1651579715,19834
{consumergroup=landscape-service},1651579720,16132
{consumergroup=landscape-service},1651579725,16132
{consumergroup=landscape-service},1651579730,16132
{consumergroup=landscape-service},1651579735,19743
{consumergroup=landscape-service},1651579740,19743
{consumergroup=landscape-service},1651579745,19743
{consumergroup=landscape-service},1651579750,13889
{consumergroup=landscape-service},1651579755,13889
{consumergroup=landscape-service},1651579760,13889
{consumergroup=landscape-service},1651579765,18514
{consumergroup=landscape-service},1651579770,18514
{consumergroup=landscape-service},1651579775,18514
{consumergroup=landscape-service},1651579780,14157
{consumergroup=landscape-service},1651579785,14157
{consumergroup=landscape-service},1651579790,14157
{consumergroup=landscape-service},1651579795,16437
{consumergroup=landscape-service},1651579800,16437
{consumergroup=landscape-service},1651579805,16437
{consumergroup=landscape-service},1651579810,11787
{consumergroup=landscape-service},1651579815,11787
{consumergroup=landscape-service},1651579820,11787
{consumergroup=landscape-service},1651579825,16302
{consumergroup=landscape-service},1651579830,16302
{consumergroup=landscape-service},1651579835,16302
{consumergroup=landscape-service},1651579840,10252
{consumergroup=landscape-service},1651579845,10252
{consumergroup=landscape-service},1651579850,10252
{consumergroup=landscape-service},1651579855,13850
{consumergroup=landscape-service},1651579860,13850
{consumergroup=landscape-service},1651579865,13850
{consumergroup=landscape-service},1651579870,9118
{consumergroup=landscape-service},1651579875,9118
{consumergroup=landscape-service},1651579880,9118
{consumergroup=landscape-service},1651579885,13816
{consumergroup=landscape-service},1651579890,13816
{consumergroup=trace-service},1651579495,6480
{consumergroup=trace-service},1651579500,6480
{consumergroup=trace-service},1651579505,6480
{consumergroup=trace-service},1651579510,58332
{consumergroup=trace-service},1651579515,58332
{consumergroup=trace-service},1651579520,58332
{consumergroup=trace-service},1651579525,46923
{consumergroup=trace-service},1651579530,46923
{consumergroup=trace-service},1651579535,46923
{consumergroup=trace-service},1651579540,51554
{consumergroup=trace-service},1651579545,51554
{consumergroup=trace-service},1651579550,51554
{consumergroup=trace-service},1651579555,154161
{consumergroup=trace-service},1651579560,154161
{consumergroup=trace-service},1651579565,154161
{consumergroup=trace-service},1651579570,46155
{consumergroup=trace-service},1651579575,46155
{consumergroup=trace-service},1651579580,46155
{consumergroup=trace-service},1651579585,107509
{consumergroup=trace-service},1651579590,107509
{consumergroup=trace-service},1651579595,107509
{consumergroup=trace-service},1651579600,45477
{consumergroup=trace-service},1651579605,45477
{consumergroup=trace-service},1651579610,45477
{consumergroup=trace-service},1651579615,105600
{consumergroup=trace-service},1651579620,105600
{consumergroup=trace-service},1651579625,105600
{consumergroup=trace-service},1651579630,97256
{consumergroup=trace-service},1651579635,97256
{consumergroup=trace-service},1651579640,97256
{consumergroup=trace-service},1651579645,100500
{consumergroup=trace-service},1651579650,100500
{consumergroup=trace-service},1651579655,100500
{consumergroup=trace-service},1651579660,43910
{consumergroup=trace-service},1651579665,43910
{consumergroup=trace-service},1651579670,43910
{consumergroup=trace-service},1651579675,120886
{consumergroup=trace-service},1651579680,120886
{consumergroup=trace-service},1651579685,120886
{consumergroup=trace-service},1651579690,47863
{consumergroup=trace-service},1651579695,47863
{consumergroup=trace-service},1651579700,47863
{consumergroup=trace-service},1651579705,115317
{consumergroup=trace-service},1651579710,115317
{consumergroup=trace-service},1651579715,115317
{consumergroup=trace-service},1651579720,44057
{consumergroup=trace-service},1651579725,44057
{consumergroup=trace-service},1651579730,44057
{consumergroup=trace-service},1651579735,90608
{consumergroup=trace-service},1651579740,90608
{consumergroup=trace-service},1651579745,90608
{consumergroup=trace-service},1651579750,41679
{consumergroup=trace-service},1651579755,41679
{consumergroup=trace-service},1651579760,41679
{consumergroup=trace-service},1651579765,85341
{consumergroup=trace-service},1651579770,85341
{consumergroup=trace-service},1651579775,85341
{consumergroup=trace-service},1651579780,49753
{consumergroup=trace-service},1651579785,49753
{consumergroup=trace-service},1651579790,49753
{consumergroup=trace-service},1651579795,109138
{consumergroup=trace-service},1651579800,109138
{consumergroup=trace-service},1651579805,109138
{consumergroup=trace-service},1651579810,48309
{consumergroup=trace-service},1651579815,48309
{consumergroup=trace-service},1651579820,48309
{consumergroup=trace-service},1651579825,127990
{consumergroup=trace-service},1651579830,127990
{consumergroup=trace-service},1651579835,127990
{consumergroup=trace-service},1651579840,50944
{consumergroup=trace-service},1651579845,50944
{consumergroup=trace-service},1651579850,50944
{consumergroup=trace-service},1651579855,106275
{consumergroup=trace-service},1651579860,106275
{consumergroup=trace-service},1651579865,106275
{consumergroup=trace-service},1651579870,45650
{consumergroup=trace-service},1651579875,45650
{consumergroup=trace-service},1651579880,45650
{consumergroup=trace-service},1651579885,138117
{consumergroup=trace-service},1651579890,138117
{consumergroup=trace-token-events-consumer},1651579480,0
{consumergroup=trace-token-events-consumer},1651579485,0
{consumergroup=trace-token-events-consumer},1651579490,0
{consumergroup=trace-token-events-consumer},1651579495,0
{consumergroup=trace-token-events-consumer},1651579500,0
{consumergroup=trace-token-events-consumer},1651579505,0
{consumergroup=trace-token-events-consumer},1651579510,0
{consumergroup=trace-token-events-consumer},1651579515,0
{consumergroup=trace-token-events-consumer},1651579520,0
{consumergroup=trace-token-events-consumer},1651579525,0
{consumergroup=trace-token-events-consumer},1651579530,0
{consumergroup=trace-token-events-consumer},1651579535,0
{consumergroup=trace-token-events-consumer},1651579540,0
{consumergroup=trace-token-events-consumer},1651579545,0
{consumergroup=trace-token-events-consumer},1651579550,0
{consumergroup=trace-token-events-consumer},1651579555,0
{consumergroup=trace-token-events-consumer},1651579560,0
{consumergroup=trace-token-events-consumer},1651579565,0
{consumergroup=trace-token-events-consumer},1651579570,0
{consumergroup=trace-token-events-consumer},1651579575,0
{consumergroup=trace-token-events-consumer},1651579580,0
{consumergroup=trace-token-events-consumer},1651579585,0
{consumergroup=trace-token-events-consumer},1651579590,0
{consumergroup=trace-token-events-consumer},1651579595,0
{consumergroup=trace-token-events-consumer},1651579600,0
{consumergroup=trace-token-events-consumer},1651579605,0
{consumergroup=trace-token-events-consumer},1651579610,0
{consumergroup=trace-token-events-consumer},1651579615,0
{consumergroup=trace-token-events-consumer},1651579620,0
{consumergroup=trace-token-events-consumer},1651579625,0
{consumergroup=trace-token-events-consumer},1651579630,0
{consumergroup=trace-token-events-consumer},1651579635,0
{consumergroup=trace-token-events-consumer},1651579640,0
{consumergroup=trace-token-events-consumer},1651579645,0
{consumergroup=trace-token-events-consumer},1651579650,0
{consumergroup=trace-token-events-consumer},1651579655,0
{consumergroup=trace-token-events-consumer},1651579660,0
{consumergroup=trace-token-events-consumer},1651579665,0
{consumergroup=trace-token-events-consumer},1651579670,0
{consumergroup=trace-token-events-consumer},1651579675,0
{consumergroup=trace-token-events-consumer},1651579680,0
{consumergroup=trace-token-events-consumer},1651579685,0
{consumergroup=trace-token-events-consumer},1651579690,0
{consumergroup=trace-token-events-consumer},1651579695,0
{consumergroup=trace-token-events-consumer},1651579700,0
{consumergroup=trace-token-events-consumer},1651579705,0
{consumergroup=trace-token-events-consumer},1651579710,0
{consumergroup=trace-token-events-consumer},1651579715,0
{consumergroup=trace-token-events-consumer},1651579720,0
{consumergroup=trace-token-events-consumer},1651579725,0
{consumergroup=trace-token-events-consumer},1651579730,0
{consumergroup=trace-token-events-consumer},1651579735,0
{consumergroup=trace-token-events-consumer},1651579740,0
{consumergroup=trace-token-events-consumer},1651579745,0
{consumergroup=trace-token-events-consumer},1651579750,0
{consumergroup=trace-token-events-consumer},1651579755,0
{consumergroup=trace-token-events-consumer},1651579760,0
{consumergroup=trace-token-events-consumer},1651579765,0
{consumergroup=trace-token-events-consumer},1651579770,0
{consumergroup=trace-token-events-consumer},1651579775,0
{consumergroup=trace-token-events-consumer},1651579780,0
{consumergroup=trace-token-events-consumer},1651579785,0
{consumergroup=trace-token-events-consumer},1651579790,0
{consumergroup=trace-token-events-consumer},1651579795,0
{consumergroup=trace-token-events-consumer},1651579800,0
{consumergroup=trace-token-events-consumer},1651579805,0
{consumergroup=trace-token-events-consumer},1651579810,0
{consumergroup=trace-token-events-consumer},1651579815,0
{consumergroup=trace-token-events-consumer},1651579820,0
{consumergroup=trace-token-events-consumer},1651579825,0
{consumergroup=trace-token-events-consumer},1651579830,0
{consumergroup=trace-token-events-consumer},1651579835,0
{consumergroup=trace-token-events-consumer},1651579840,0
{consumergroup=trace-token-events-consumer},1651579845,0
{consumergroup=trace-token-events-consumer},1651579850,0
{consumergroup=trace-token-events-consumer},1651579855,0
{consumergroup=trace-token-events-consumer},1651579860,0
{consumergroup=trace-token-events-consumer},1651579865,0
{consumergroup=trace-token-events-consumer},1651579870,0
{consumergroup=trace-token-events-consumer},1651579875,0
{consumergroup=trace-token-events-consumer},1651579880,0
{consumergroup=trace-token-events-consumer},1651579885,0
{consumergroup=trace-token-events-consumer},1651579890,0
