labels,timestamp,value
{job=theodolite-stu200776/combined-trace-podmonitor},1651581339,0
{job=theodolite-stu200776/combined-trace-podmonitor},1651581344,0
{job=theodolite-stu200776/combined-trace-podmonitor},1651581349,0
{job=theodolite-stu200776/combined-trace-podmonitor},1651581354,0
{job=theodolite-stu200776/combined-trace-podmonitor},1651581359,0
{job=theodolite-stu200776/combined-trace-podmonitor},1651581364,0
{job=theodolite-stu200776/combined-trace-podmonitor},1651581369,0
{job=theodolite-stu200776/combined-trace-podmonitor},1651581374,0
{job=theodolite-stu200776/combined-trace-podmonitor},1651581379,0
{job=theodolite-stu200776/combined-trace-podmonitor},1651581384,0
{job=theodolite-stu200776/combined-trace-podmonitor},1651581389,0
{job=theodolite-stu200776/combined-trace-podmonitor},1651581394,0
{job=theodolite-stu200776/combined-trace-podmonitor},1651581399,0
{job=theodolite-stu200776/combined-trace-podmonitor},1651581404,0
{job=theodolite-stu200776/combined-trace-podmonitor},1651581409,0
{job=theodolite-stu200776/combined-trace-podmonitor},1651581414,0
{job=theodolite-stu200776/combined-trace-podmonitor},1651581419,0
{job=theodolite-stu200776/combined-trace-podmonitor},1651581424,0
{job=theodolite-stu200776/combined-trace-podmonitor},1651581429,0
{job=theodolite-stu200776/combined-trace-podmonitor},1651581434,0
{job=theodolite-stu200776/combined-trace-podmonitor},1651581439,0
{job=theodolite-stu200776/combined-trace-podmonitor},1651581444,0
{job=theodolite-stu200776/combined-trace-podmonitor},1651581449,0
{job=theodolite-stu200776/combined-trace-podmonitor},1651581454,0
{job=theodolite-stu200776/combined-trace-podmonitor},1651581459,0
{job=theodolite-stu200776/combined-trace-podmonitor},1651581464,0
{job=theodolite-stu200776/combined-trace-podmonitor},1651581469,0
{job=theodolite-stu200776/combined-trace-podmonitor},1651581474,0
{job=theodolite-stu200776/combined-trace-podmonitor},1651581479,0
{job=theodolite-stu200776/combined-trace-podmonitor},1651581484,0
{job=theodolite-stu200776/combined-trace-podmonitor},1651581489,0
{job=theodolite-stu200776/combined-trace-podmonitor},1651581494,0
{job=theodolite-stu200776/combined-trace-podmonitor},1651581499,0
{job=theodolite-stu200776/combined-trace-podmonitor},1651581504,0
{job=theodolite-stu200776/combined-trace-podmonitor},1651581509,0
{job=theodolite-stu200776/combined-trace-podmonitor},1651581514,0
{job=theodolite-stu200776/combined-trace-podmonitor},1651581519,0
{job=theodolite-stu200776/combined-trace-podmonitor},1651581524,0
{job=theodolite-stu200776/combined-trace-podmonitor},1651581529,0
{job=theodolite-stu200776/combined-trace-podmonitor},1651581534,0
{job=theodolite-stu200776/combined-trace-podmonitor},1651581539,0
{job=theodolite-stu200776/combined-trace-podmonitor},1651581544,0
{job=theodolite-stu200776/combined-trace-podmonitor},1651581549,0
{job=theodolite-stu200776/combined-trace-podmonitor},1651581554,0
{job=theodolite-stu200776/combined-trace-podmonitor},1651581559,0
{job=theodolite-stu200776/combined-trace-podmonitor},1651581564,0
{job=theodolite-stu200776/combined-trace-podmonitor},1651581569,0
{job=theodolite-stu200776/combined-trace-podmonitor},1651581574,0
{job=theodolite-stu200776/combined-trace-podmonitor},1651581579,0
{job=theodolite-stu200776/combined-trace-podmonitor},1651581584,0
{job=theodolite-stu200776/combined-trace-podmonitor},1651581589,0
{job=theodolite-stu200776/combined-trace-podmonitor},1651581594,0
{job=theodolite-stu200776/combined-trace-podmonitor},1651581599,0
{job=theodolite-stu200776/combined-trace-podmonitor},1651581604,0
{job=theodolite-stu200776/combined-trace-podmonitor},1651581609,0
{job=theodolite-stu200776/combined-trace-podmonitor},1651581614,0
{job=theodolite-stu200776/combined-trace-podmonitor},1651581619,0
{job=theodolite-stu200776/combined-trace-podmonitor},1651581624,0
{job=theodolite-stu200776/combined-trace-podmonitor},1651581629,0
{job=theodolite-stu200776/combined-trace-podmonitor},1651581634,0
{job=theodolite-stu200776/combined-trace-podmonitor},1651581639,0
{job=theodolite-stu200776/combined-trace-podmonitor},1651581644,0
{job=theodolite-stu200776/combined-trace-podmonitor},1651581649,0
{job=theodolite-stu200776/combined-trace-podmonitor},1651581654,0
{job=theodolite-stu200776/combined-trace-podmonitor},1651581659,0
{job=theodolite-stu200776/combined-trace-podmonitor},1651581664,0
{job=theodolite-stu200776/combined-trace-podmonitor},1651581669,0
{job=theodolite-stu200776/combined-trace-podmonitor},1651581674,0
{job=theodolite-stu200776/combined-trace-podmonitor},1651581679,0
{job=theodolite-stu200776/combined-trace-podmonitor},1651581684,0
{job=theodolite-stu200776/combined-trace-podmonitor},1651581689,0
{job=theodolite-stu200776/combined-trace-podmonitor},1651581694,0
{job=theodolite-stu200776/combined-trace-podmonitor},1651581699,0
{job=theodolite-stu200776/combined-trace-podmonitor},1651581704,0
{job=theodolite-stu200776/combined-trace-podmonitor},1651581709,0
{job=theodolite-stu200776/combined-trace-podmonitor},1651581714,0
