labels,timestamp,value
{consumergroup=__strimzi-topic-operator-kstreams},1651719806,1
{consumergroup=__strimzi-topic-operator-kstreams},1651719811,1
{consumergroup=__strimzi-topic-operator-kstreams},1651719816,1
{consumergroup=__strimzi-topic-operator-kstreams},1651719821,1
{consumergroup=__strimzi-topic-operator-kstreams},1651719826,1
{consumergroup=__strimzi-topic-operator-kstreams},1651719831,1
{consumergroup=__strimzi-topic-operator-kstreams},1651719836,0
{consumergroup=__strimzi-topic-operator-kstreams},1651719841,0
{consumergroup=__strimzi-topic-operator-kstreams},1651719846,0
{consumergroup=__strimzi-topic-operator-kstreams},1651719851,0
{consumergroup=__strimzi-topic-operator-kstreams},1651719856,0
{consumergroup=__strimzi-topic-operator-kstreams},1651719861,0
{consumergroup=__strimzi-topic-operator-kstreams},1651719866,0
{consumergroup=__strimzi-topic-operator-kstreams},1651719871,0
{consumergroup=__strimzi-topic-operator-kstreams},1651719876,0
{consumergroup=__strimzi-topic-operator-kstreams},1651719881,0
{consumergroup=__strimzi-topic-operator-kstreams},1651719886,0
{consumergroup=__strimzi-topic-operator-kstreams},1651719891,0
{consumergroup=__strimzi-topic-operator-kstreams},1651719896,0
{consumergroup=__strimzi-topic-operator-kstreams},1651719901,0
{consumergroup=__strimzi-topic-operator-kstreams},1651719906,0
{consumergroup=__strimzi-topic-operator-kstreams},1651719911,0
{consumergroup=__strimzi-topic-operator-kstreams},1651719916,0
{consumergroup=__strimzi-topic-operator-kstreams},1651719921,0
{consumergroup=__strimzi-topic-operator-kstreams},1651719926,0
{consumergroup=__strimzi-topic-operator-kstreams},1651719931,0
{consumergroup=__strimzi-topic-operator-kstreams},1651719936,0
{consumergroup=__strimzi-topic-operator-kstreams},1651719941,0
{consumergroup=__strimzi-topic-operator-kstreams},1651719946,0
{consumergroup=__strimzi-topic-operator-kstreams},1651719951,0
{consumergroup=__strimzi-topic-operator-kstreams},1651719956,0
{consumergroup=__strimzi-topic-operator-kstreams},1651719961,0
{consumergroup=__strimzi-topic-operator-kstreams},1651719966,0
{consumergroup=__strimzi-topic-operator-kstreams},1651719971,0
{consumergroup=__strimzi-topic-operator-kstreams},1651719976,0
{consumergroup=__strimzi-topic-operator-kstreams},1651719981,0
{consumergroup=__strimzi-topic-operator-kstreams},1651719986,0
{consumergroup=__strimzi-topic-operator-kstreams},1651719991,0
{consumergroup=__strimzi-topic-operator-kstreams},1651719996,0
{consumergroup=__strimzi-topic-operator-kstreams},1651720001,0
{consumergroup=__strimzi-topic-operator-kstreams},1651720006,0
{consumergroup=__strimzi-topic-operator-kstreams},1651720011,0
{consumergroup=__strimzi-topic-operator-kstreams},1651720016,0
{consumergroup=__strimzi-topic-operator-kstreams},1651720021,0
{consumergroup=__strimzi-topic-operator-kstreams},1651720026,0
{consumergroup=__strimzi-topic-operator-kstreams},1651720031,0
{consumergroup=__strimzi-topic-operator-kstreams},1651720036,0
{consumergroup=__strimzi-topic-operator-kstreams},1651720041,0
{consumergroup=__strimzi-topic-operator-kstreams},1651720046,0
{consumergroup=__strimzi-topic-operator-kstreams},1651720051,0
{consumergroup=adapter-service},1651719821,0
{consumergroup=adapter-service},1651719826,0
{consumergroup=adapter-service},1651719831,0
{consumergroup=adapter-service},1651719836,1425825
{consumergroup=adapter-service},1651719841,1425825
{consumergroup=adapter-service},1651719846,1425825
{consumergroup=adapter-service},1651719851,2889783
{consumergroup=adapter-service},1651719856,2889783
{consumergroup=adapter-service},1651719861,2889783
{consumergroup=adapter-service},1651719866,3704208
{consumergroup=adapter-service},1651719871,3704208
{consumergroup=adapter-service},1651719876,3704208
{consumergroup=adapter-service},1651719881,4444950
{consumergroup=adapter-service},1651719886,4444950
{consumergroup=adapter-service},1651719891,4444950
{consumergroup=adapter-service},1651719896,5290568
{consumergroup=adapter-service},1651719901,5290568
{consumergroup=adapter-service},1651719906,5290568
{consumergroup=adapter-service},1651719911,5559897
{consumergroup=adapter-service},1651719916,5559897
{consumergroup=adapter-service},1651719921,5559897
{consumergroup=adapter-service},1651719926,5672201
{consumergroup=adapter-service},1651719931,5672201
{consumergroup=adapter-service},1651719936,5672201
{consumergroup=adapter-service},1651719941,5769600
{consumergroup=adapter-service},1651719946,5769600
{consumergroup=adapter-service},1651719951,5769600
{consumergroup=adapter-service},1651719956,5854441
{consumergroup=adapter-service},1651719961,5854441
{consumergroup=adapter-service},1651719966,5854441
{consumergroup=adapter-service},1651719971,5935315
{consumergroup=adapter-service},1651719976,5935315
{consumergroup=adapter-service},1651719981,5935315
{consumergroup=adapter-service},1651719986,6038097
{consumergroup=adapter-service},1651719991,6038097
{consumergroup=adapter-service},1651719996,6038097
{consumergroup=adapter-service},1651720001,6111595
{consumergroup=adapter-service},1651720006,6111595
{consumergroup=adapter-service},1651720011,6111595
{consumergroup=adapter-service},1651720016,6072746
{consumergroup=adapter-service},1651720021,6072746
{consumergroup=adapter-service},1651720026,6072746
{consumergroup=adapter-service},1651720031,6169941
{consumergroup=adapter-service},1651720036,6169941
{consumergroup=adapter-service},1651720041,6169941
{consumergroup=adapter-service},1651720046,6078287
{consumergroup=adapter-service},1651720051,6078287
