labels,timestamp,value
{consumergroup=__strimzi-topic-operator-kstreams},1651709409,17
{consumergroup=__strimzi-topic-operator-kstreams},1651709414,17
{consumergroup=__strimzi-topic-operator-kstreams},1651709419,17
{consumergroup=__strimzi-topic-operator-kstreams},1651709424,0
{consumergroup=__strimzi-topic-operator-kstreams},1651709429,0
{consumergroup=__strimzi-topic-operator-kstreams},1651709434,0
{consumergroup=__strimzi-topic-operator-kstreams},1651709439,0
{consumergroup=__strimzi-topic-operator-kstreams},1651709444,0
{consumergroup=__strimzi-topic-operator-kstreams},1651709449,0
{consumergroup=__strimzi-topic-operator-kstreams},1651709454,0
{consumergroup=__strimzi-topic-operator-kstreams},1651709459,0
{consumergroup=__strimzi-topic-operator-kstreams},1651709464,0
{consumergroup=__strimzi-topic-operator-kstreams},1651709469,0
{consumergroup=__strimzi-topic-operator-kstreams},1651709474,0
{consumergroup=__strimzi-topic-operator-kstreams},1651709479,0
{consumergroup=__strimzi-topic-operator-kstreams},1651709484,0
{consumergroup=__strimzi-topic-operator-kstreams},1651709489,0
{consumergroup=__strimzi-topic-operator-kstreams},1651709494,0
{consumergroup=__strimzi-topic-operator-kstreams},1651709499,0
{consumergroup=__strimzi-topic-operator-kstreams},1651709504,0
{consumergroup=__strimzi-topic-operator-kstreams},1651709509,0
{consumergroup=__strimzi-topic-operator-kstreams},1651709514,0
{consumergroup=__strimzi-topic-operator-kstreams},1651709519,0
{consumergroup=__strimzi-topic-operator-kstreams},1651709524,0
{consumergroup=__strimzi-topic-operator-kstreams},1651709529,0
{consumergroup=__strimzi-topic-operator-kstreams},1651709534,0
{consumergroup=__strimzi-topic-operator-kstreams},1651709539,0
{consumergroup=__strimzi-topic-operator-kstreams},1651709544,0
{consumergroup=__strimzi-topic-operator-kstreams},1651709549,0
{consumergroup=__strimzi-topic-operator-kstreams},1651709554,0
{consumergroup=__strimzi-topic-operator-kstreams},1651709559,0
{consumergroup=__strimzi-topic-operator-kstreams},1651709564,0
{consumergroup=__strimzi-topic-operator-kstreams},1651709569,0
{consumergroup=__strimzi-topic-operator-kstreams},1651709574,0
{consumergroup=__strimzi-topic-operator-kstreams},1651709579,0
{consumergroup=__strimzi-topic-operator-kstreams},1651709584,0
{consumergroup=__strimzi-topic-operator-kstreams},1651709589,0
{consumergroup=__strimzi-topic-operator-kstreams},1651709594,0
{consumergroup=__strimzi-topic-operator-kstreams},1651709599,0
{consumergroup=__strimzi-topic-operator-kstreams},1651709604,0
{consumergroup=__strimzi-topic-operator-kstreams},1651709609,0
{consumergroup=__strimzi-topic-operator-kstreams},1651709614,0
{consumergroup=__strimzi-topic-operator-kstreams},1651709619,0
{consumergroup=__strimzi-topic-operator-kstreams},1651709624,0
{consumergroup=__strimzi-topic-operator-kstreams},1651709629,0
{consumergroup=__strimzi-topic-operator-kstreams},1651709634,0
{consumergroup=__strimzi-topic-operator-kstreams},1651709639,0
{consumergroup=__strimzi-topic-operator-kstreams},1651709644,0
{consumergroup=__strimzi-topic-operator-kstreams},1651709649,0
{consumergroup=__strimzi-topic-operator-kstreams},1651709654,0
{consumergroup=__strimzi-topic-operator-kstreams},1651709659,0
{consumergroup=__strimzi-topic-operator-kstreams},1651709664,0
{consumergroup=adapter-service},1651709439,96791
{consumergroup=adapter-service},1651709444,96791
{consumergroup=adapter-service},1651709449,96791
{consumergroup=adapter-service},1651709454,237875
{consumergroup=adapter-service},1651709459,237875
{consumergroup=adapter-service},1651709464,237875
{consumergroup=adapter-service},1651709469,264963
{consumergroup=adapter-service},1651709474,264963
{consumergroup=adapter-service},1651709479,264963
{consumergroup=adapter-service},1651709484,19126
{consumergroup=adapter-service},1651709489,19126
{consumergroup=adapter-service},1651709494,19126
{consumergroup=adapter-service},1651709499,116345
{consumergroup=adapter-service},1651709504,116345
{consumergroup=adapter-service},1651709509,116345
{consumergroup=adapter-service},1651709514,73383
{consumergroup=adapter-service},1651709519,73383
{consumergroup=adapter-service},1651709524,73383
{consumergroup=adapter-service},1651709529,102178
{consumergroup=adapter-service},1651709534,102178
{consumergroup=adapter-service},1651709539,102178
{consumergroup=adapter-service},1651709544,113208
{consumergroup=adapter-service},1651709549,113208
{consumergroup=adapter-service},1651709554,113208
{consumergroup=adapter-service},1651709559,95333
{consumergroup=adapter-service},1651709564,95333
{consumergroup=adapter-service},1651709569,95333
{consumergroup=adapter-service},1651709574,116928
{consumergroup=adapter-service},1651709579,116928
{consumergroup=adapter-service},1651709584,116928
{consumergroup=adapter-service},1651709589,97532
{consumergroup=adapter-service},1651709594,97532
{consumergroup=adapter-service},1651709599,97532
{consumergroup=adapter-service},1651709604,123646
{consumergroup=adapter-service},1651709609,123646
{consumergroup=adapter-service},1651709614,123646
{consumergroup=adapter-service},1651709619,98788
{consumergroup=adapter-service},1651709624,98788
{consumergroup=adapter-service},1651709629,98788
{consumergroup=adapter-service},1651709634,26366
{consumergroup=adapter-service},1651709639,26366
{consumergroup=adapter-service},1651709644,26366
{consumergroup=adapter-service},1651709649,87717
{consumergroup=adapter-service},1651709654,87717
{consumergroup=adapter-service},1651709659,87717
{consumergroup=adapter-service},1651709664,118615
