labels,timestamp,value
{consumergroup=__strimzi-topic-operator-kstreams},1651593702,8
{consumergroup=__strimzi-topic-operator-kstreams},1651593707,8
{consumergroup=__strimzi-topic-operator-kstreams},1651593712,8
{consumergroup=__strimzi-topic-operator-kstreams},1651593717,8
{consumergroup=__strimzi-topic-operator-kstreams},1651593722,8
{consumergroup=__strimzi-topic-operator-kstreams},1651593727,8
{consumergroup=__strimzi-topic-operator-kstreams},1651593732,0
{consumergroup=__strimzi-topic-operator-kstreams},1651593737,0
{consumergroup=__strimzi-topic-operator-kstreams},1651593742,0
{consumergroup=__strimzi-topic-operator-kstreams},1651593747,0
{consumergroup=__strimzi-topic-operator-kstreams},1651593752,0
{consumergroup=__strimzi-topic-operator-kstreams},1651593757,0
{consumergroup=__strimzi-topic-operator-kstreams},1651593762,0
{consumergroup=__strimzi-topic-operator-kstreams},1651593767,0
{consumergroup=__strimzi-topic-operator-kstreams},1651593772,0
{consumergroup=__strimzi-topic-operator-kstreams},1651593777,0
{consumergroup=__strimzi-topic-operator-kstreams},1651593782,0
{consumergroup=__strimzi-topic-operator-kstreams},1651593787,0
{consumergroup=__strimzi-topic-operator-kstreams},1651593792,0
{consumergroup=__strimzi-topic-operator-kstreams},1651593797,0
{consumergroup=__strimzi-topic-operator-kstreams},1651593802,0
{consumergroup=__strimzi-topic-operator-kstreams},1651593807,0
{consumergroup=__strimzi-topic-operator-kstreams},1651593812,0
{consumergroup=__strimzi-topic-operator-kstreams},1651593817,0
{consumergroup=__strimzi-topic-operator-kstreams},1651593822,0
{consumergroup=__strimzi-topic-operator-kstreams},1651593827,0
{consumergroup=__strimzi-topic-operator-kstreams},1651593832,0
{consumergroup=__strimzi-topic-operator-kstreams},1651593837,0
{consumergroup=__strimzi-topic-operator-kstreams},1651593842,0
{consumergroup=__strimzi-topic-operator-kstreams},1651593847,0
{consumergroup=__strimzi-topic-operator-kstreams},1651593852,0
{consumergroup=__strimzi-topic-operator-kstreams},1651593857,0
{consumergroup=__strimzi-topic-operator-kstreams},1651593862,0
{consumergroup=__strimzi-topic-operator-kstreams},1651593867,0
{consumergroup=__strimzi-topic-operator-kstreams},1651593872,0
{consumergroup=__strimzi-topic-operator-kstreams},1651593877,0
{consumergroup=__strimzi-topic-operator-kstreams},1651593882,0
{consumergroup=__strimzi-topic-operator-kstreams},1651593887,0
{consumergroup=__strimzi-topic-operator-kstreams},1651593892,0
{consumergroup=__strimzi-topic-operator-kstreams},1651593897,0
{consumergroup=__strimzi-topic-operator-kstreams},1651593902,0
{consumergroup=__strimzi-topic-operator-kstreams},1651593907,0
{consumergroup=__strimzi-topic-operator-kstreams},1651593912,0
{consumergroup=__strimzi-topic-operator-kstreams},1651593917,0
{consumergroup=__strimzi-topic-operator-kstreams},1651593922,0
{consumergroup=__strimzi-topic-operator-kstreams},1651593927,0
{consumergroup=__strimzi-topic-operator-kstreams},1651593932,0
{consumergroup=__strimzi-topic-operator-kstreams},1651593937,0
{consumergroup=__strimzi-topic-operator-kstreams},1651593942,0
{consumergroup=__strimzi-topic-operator-kstreams},1651593947,0
{consumergroup=__strimzi-topic-operator-kstreams},1651593952,0
{consumergroup=landscape-service},1651593747,5509601
{consumergroup=landscape-service},1651593752,5509601
{consumergroup=landscape-service},1651593757,5509601
{consumergroup=landscape-service},1651593762,8059295
{consumergroup=landscape-service},1651593767,8059295
{consumergroup=landscape-service},1651593772,8059295
{consumergroup=landscape-service},1651593777,9646316
{consumergroup=landscape-service},1651593782,9646316
{consumergroup=landscape-service},1651593787,9646316
{consumergroup=landscape-service},1651593792,10814334
{consumergroup=landscape-service},1651593797,10814334
{consumergroup=landscape-service},1651593802,10814334
{consumergroup=landscape-service},1651593807,11859359
{consumergroup=landscape-service},1651593812,11859359
{consumergroup=landscape-service},1651593817,11859359
{consumergroup=landscape-service},1651593822,12662102
{consumergroup=landscape-service},1651593827,12662102
{consumergroup=landscape-service},1651593832,12662102
{consumergroup=landscape-service},1651593837,13122532
{consumergroup=landscape-service},1651593842,13122532
{consumergroup=landscape-service},1651593847,13122532
{consumergroup=landscape-service},1651593852,13603416
{consumergroup=landscape-service},1651593857,13603416
{consumergroup=landscape-service},1651593862,13603416
{consumergroup=landscape-service},1651593867,13704063
{consumergroup=landscape-service},1651593872,13704063
{consumergroup=landscape-service},1651593877,13704063
{consumergroup=landscape-service},1651593882,13722383
{consumergroup=landscape-service},1651593887,13722383
{consumergroup=landscape-service},1651593892,13722383
{consumergroup=landscape-service},1651593897,14043189
{consumergroup=landscape-service},1651593902,14043189
{consumergroup=landscape-service},1651593907,14043189
{consumergroup=landscape-service},1651593912,14290123
{consumergroup=landscape-service},1651593917,14290123
{consumergroup=landscape-service},1651593922,14290123
{consumergroup=landscape-service},1651593927,14471094
{consumergroup=landscape-service},1651593932,14471094
{consumergroup=landscape-service},1651593937,14471094
{consumergroup=landscape-service},1651593942,14216019
{consumergroup=landscape-service},1651593947,14216019
{consumergroup=landscape-service},1651593952,14216019
