labels,timestamp,value
{job=theodolite-stu200776/trace-isolated-podmonitor},1651758514,0
{job=theodolite-stu200776/trace-isolated-podmonitor},1651758519,0
{job=theodolite-stu200776/trace-isolated-podmonitor},1651758524,0
{job=theodolite-stu200776/trace-isolated-podmonitor},1651758529,0
{job=theodolite-stu200776/trace-isolated-podmonitor},1651758534,0
{job=theodolite-stu200776/trace-isolated-podmonitor},1651758539,0
{job=theodolite-stu200776/trace-isolated-podmonitor},1651758544,0
{job=theodolite-stu200776/trace-isolated-podmonitor},1651758549,0
{job=theodolite-stu200776/trace-isolated-podmonitor},1651758554,0
{job=theodolite-stu200776/trace-isolated-podmonitor},1651758559,0
{job=theodolite-stu200776/trace-isolated-podmonitor},1651758564,0
{job=theodolite-stu200776/trace-isolated-podmonitor},1651758569,0
{job=theodolite-stu200776/trace-isolated-podmonitor},1651758574,0
{job=theodolite-stu200776/trace-isolated-podmonitor},1651758579,0
{job=theodolite-stu200776/trace-isolated-podmonitor},1651758584,0
{job=theodolite-stu200776/trace-isolated-podmonitor},1651758589,0
{job=theodolite-stu200776/trace-isolated-podmonitor},1651758594,0
{job=theodolite-stu200776/trace-isolated-podmonitor},1651758599,0
{job=theodolite-stu200776/trace-isolated-podmonitor},1651758604,0
{job=theodolite-stu200776/trace-isolated-podmonitor},1651758609,0
{job=theodolite-stu200776/trace-isolated-podmonitor},1651758614,0
{job=theodolite-stu200776/trace-isolated-podmonitor},1651758619,0
{job=theodolite-stu200776/trace-isolated-podmonitor},1651758624,0
{job=theodolite-stu200776/trace-isolated-podmonitor},1651758629,0
{job=theodolite-stu200776/trace-isolated-podmonitor},1651758634,0
{job=theodolite-stu200776/trace-isolated-podmonitor},1651758639,0
{job=theodolite-stu200776/trace-isolated-podmonitor},1651758644,0
{job=theodolite-stu200776/trace-isolated-podmonitor},1651758649,0
{job=theodolite-stu200776/trace-isolated-podmonitor},1651758654,0
{job=theodolite-stu200776/trace-isolated-podmonitor},1651758659,0
{job=theodolite-stu200776/trace-isolated-podmonitor},1651758664,0
{job=theodolite-stu200776/trace-isolated-podmonitor},1651758669,0
{job=theodolite-stu200776/trace-isolated-podmonitor},1651758674,0
{job=theodolite-stu200776/trace-isolated-podmonitor},1651758679,0
{job=theodolite-stu200776/trace-isolated-podmonitor},1651758684,0
{job=theodolite-stu200776/trace-isolated-podmonitor},1651758689,0
{job=theodolite-stu200776/trace-isolated-podmonitor},1651758694,0
{job=theodolite-stu200776/trace-isolated-podmonitor},1651758699,0
{job=theodolite-stu200776/trace-isolated-podmonitor},1651758704,0
{job=theodolite-stu200776/trace-isolated-podmonitor},1651758709,0
{job=theodolite-stu200776/trace-isolated-podmonitor},1651758714,0
{job=theodolite-stu200776/trace-isolated-podmonitor},1651758719,0
{job=theodolite-stu200776/trace-isolated-podmonitor},1651758724,0
{job=theodolite-stu200776/trace-isolated-podmonitor},1651758729,0
{job=theodolite-stu200776/trace-isolated-podmonitor},1651758734,0
{job=theodolite-stu200776/trace-isolated-podmonitor},1651758739,0
{job=theodolite-stu200776/trace-isolated-podmonitor},1651758744,0
{job=theodolite-stu200776/trace-isolated-podmonitor},1651758749,0
{job=theodolite-stu200776/trace-isolated-podmonitor},1651758754,0
{job=theodolite-stu200776/trace-isolated-podmonitor},1651758759,0
