labels,timestamp,value
{consumergroup=__strimzi-topic-operator-kstreams},1651704136,12
{consumergroup=__strimzi-topic-operator-kstreams},1651704141,12
{consumergroup=__strimzi-topic-operator-kstreams},1651704146,12
{consumergroup=__strimzi-topic-operator-kstreams},1651704151,13
{consumergroup=__strimzi-topic-operator-kstreams},1651704156,13
{consumergroup=__strimzi-topic-operator-kstreams},1651704161,13
{consumergroup=__strimzi-topic-operator-kstreams},1651704166,0
{consumergroup=__strimzi-topic-operator-kstreams},1651704171,0
{consumergroup=__strimzi-topic-operator-kstreams},1651704176,0
{consumergroup=__strimzi-topic-operator-kstreams},1651704181,0
{consumergroup=__strimzi-topic-operator-kstreams},1651704186,0
{consumergroup=__strimzi-topic-operator-kstreams},1651704191,0
{consumergroup=__strimzi-topic-operator-kstreams},1651704196,0
{consumergroup=__strimzi-topic-operator-kstreams},1651704201,0
{consumergroup=__strimzi-topic-operator-kstreams},1651704206,0
{consumergroup=__strimzi-topic-operator-kstreams},1651704211,0
{consumergroup=__strimzi-topic-operator-kstreams},1651704216,0
{consumergroup=__strimzi-topic-operator-kstreams},1651704221,0
{consumergroup=__strimzi-topic-operator-kstreams},1651704226,0
{consumergroup=__strimzi-topic-operator-kstreams},1651704231,0
{consumergroup=__strimzi-topic-operator-kstreams},1651704236,0
{consumergroup=__strimzi-topic-operator-kstreams},1651704241,0
{consumergroup=__strimzi-topic-operator-kstreams},1651704246,0
{consumergroup=__strimzi-topic-operator-kstreams},1651704251,0
{consumergroup=__strimzi-topic-operator-kstreams},1651704256,0
{consumergroup=__strimzi-topic-operator-kstreams},1651704261,0
{consumergroup=__strimzi-topic-operator-kstreams},1651704266,0
{consumergroup=__strimzi-topic-operator-kstreams},1651704271,0
{consumergroup=__strimzi-topic-operator-kstreams},1651704276,0
{consumergroup=__strimzi-topic-operator-kstreams},1651704281,0
{consumergroup=__strimzi-topic-operator-kstreams},1651704286,0
{consumergroup=__strimzi-topic-operator-kstreams},1651704291,0
{consumergroup=__strimzi-topic-operator-kstreams},1651704296,0
{consumergroup=__strimzi-topic-operator-kstreams},1651704301,0
{consumergroup=__strimzi-topic-operator-kstreams},1651704306,0
{consumergroup=__strimzi-topic-operator-kstreams},1651704311,0
{consumergroup=__strimzi-topic-operator-kstreams},1651704316,0
{consumergroup=__strimzi-topic-operator-kstreams},1651704321,0
{consumergroup=__strimzi-topic-operator-kstreams},1651704326,0
{consumergroup=__strimzi-topic-operator-kstreams},1651704331,0
{consumergroup=__strimzi-topic-operator-kstreams},1651704336,0
{consumergroup=__strimzi-topic-operator-kstreams},1651704341,0
{consumergroup=__strimzi-topic-operator-kstreams},1651704346,0
{consumergroup=__strimzi-topic-operator-kstreams},1651704351,0
{consumergroup=__strimzi-topic-operator-kstreams},1651704356,0
{consumergroup=__strimzi-topic-operator-kstreams},1651704361,0
{consumergroup=__strimzi-topic-operator-kstreams},1651704366,0
{consumergroup=__strimzi-topic-operator-kstreams},1651704371,0
{consumergroup=__strimzi-topic-operator-kstreams},1651704376,0
{consumergroup=__strimzi-topic-operator-kstreams},1651704381,0
{consumergroup=__strimzi-topic-operator-kstreams},1651704386,0
{consumergroup=__strimzi-topic-operator-kstreams},1651704391,0
{consumergroup=adapter-service},1651704166,227014
{consumergroup=adapter-service},1651704171,227014
{consumergroup=adapter-service},1651704176,227014
{consumergroup=adapter-service},1651704181,1248744
{consumergroup=adapter-service},1651704186,1248744
{consumergroup=adapter-service},1651704191,1248744
{consumergroup=adapter-service},1651704196,1979659
{consumergroup=adapter-service},1651704201,1979659
{consumergroup=adapter-service},1651704206,1979659
{consumergroup=adapter-service},1651704211,2435437
{consumergroup=adapter-service},1651704216,2435437
{consumergroup=adapter-service},1651704221,2435437
{consumergroup=adapter-service},1651704226,3008623
{consumergroup=adapter-service},1651704231,3008623
{consumergroup=adapter-service},1651704236,3008623
{consumergroup=adapter-service},1651704241,3075772
{consumergroup=adapter-service},1651704246,3075772
{consumergroup=adapter-service},1651704251,3075772
{consumergroup=adapter-service},1651704256,3352924
{consumergroup=adapter-service},1651704261,3352924
{consumergroup=adapter-service},1651704266,3352924
{consumergroup=adapter-service},1651704271,3352403
{consumergroup=adapter-service},1651704276,3352403
{consumergroup=adapter-service},1651704281,3352403
{consumergroup=adapter-service},1651704286,3191712
{consumergroup=adapter-service},1651704291,3191712
{consumergroup=adapter-service},1651704296,3191712
{consumergroup=adapter-service},1651704301,3015764
{consumergroup=adapter-service},1651704306,3015764
{consumergroup=adapter-service},1651704311,3015764
{consumergroup=adapter-service},1651704316,2797840
{consumergroup=adapter-service},1651704321,2797840
{consumergroup=adapter-service},1651704326,2797840
{consumergroup=adapter-service},1651704331,2687456
{consumergroup=adapter-service},1651704336,2687456
{consumergroup=adapter-service},1651704341,2687456
{consumergroup=adapter-service},1651704346,2505699
{consumergroup=adapter-service},1651704351,2505699
{consumergroup=adapter-service},1651704356,2505699
{consumergroup=adapter-service},1651704361,2300881
{consumergroup=adapter-service},1651704366,2300881
{consumergroup=adapter-service},1651704371,2300881
{consumergroup=adapter-service},1651704376,2090655
{consumergroup=adapter-service},1651704381,2090655
{consumergroup=adapter-service},1651704386,2090655
{consumergroup=adapter-service},1651704391,1985006
