labels,timestamp,value
{consumergroup=__strimzi-topic-operator-kstreams},1651636562,0
{consumergroup=__strimzi-topic-operator-kstreams},1651636567,0
{consumergroup=__strimzi-topic-operator-kstreams},1651636572,0
{consumergroup=__strimzi-topic-operator-kstreams},1651636577,0
{consumergroup=__strimzi-topic-operator-kstreams},1651636582,0
{consumergroup=__strimzi-topic-operator-kstreams},1651636587,0
{consumergroup=__strimzi-topic-operator-kstreams},1651636592,0
{consumergroup=__strimzi-topic-operator-kstreams},1651636597,0
{consumergroup=__strimzi-topic-operator-kstreams},1651636602,0
{consumergroup=__strimzi-topic-operator-kstreams},1651636607,0
{consumergroup=__strimzi-topic-operator-kstreams},1651636612,0
{consumergroup=__strimzi-topic-operator-kstreams},1651636617,0
{consumergroup=__strimzi-topic-operator-kstreams},1651636622,0
{consumergroup=__strimzi-topic-operator-kstreams},1651636627,0
{consumergroup=__strimzi-topic-operator-kstreams},1651636632,0
{consumergroup=__strimzi-topic-operator-kstreams},1651636637,0
{consumergroup=__strimzi-topic-operator-kstreams},1651636642,0
{consumergroup=__strimzi-topic-operator-kstreams},1651636647,0
{consumergroup=__strimzi-topic-operator-kstreams},1651636652,0
{consumergroup=__strimzi-topic-operator-kstreams},1651636657,0
{consumergroup=__strimzi-topic-operator-kstreams},1651636662,0
{consumergroup=__strimzi-topic-operator-kstreams},1651636667,0
{consumergroup=__strimzi-topic-operator-kstreams},1651636672,0
{consumergroup=__strimzi-topic-operator-kstreams},1651636677,0
{consumergroup=__strimzi-topic-operator-kstreams},1651636682,0
{consumergroup=__strimzi-topic-operator-kstreams},1651636687,0
{consumergroup=__strimzi-topic-operator-kstreams},1651636692,0
{consumergroup=__strimzi-topic-operator-kstreams},1651636697,0
{consumergroup=__strimzi-topic-operator-kstreams},1651636702,0
{consumergroup=__strimzi-topic-operator-kstreams},1651636707,0
{consumergroup=__strimzi-topic-operator-kstreams},1651636712,0
{consumergroup=__strimzi-topic-operator-kstreams},1651636717,0
{consumergroup=__strimzi-topic-operator-kstreams},1651636722,0
{consumergroup=__strimzi-topic-operator-kstreams},1651636727,0
{consumergroup=__strimzi-topic-operator-kstreams},1651636732,0
{consumergroup=__strimzi-topic-operator-kstreams},1651636737,0
{consumergroup=__strimzi-topic-operator-kstreams},1651636742,0
{consumergroup=__strimzi-topic-operator-kstreams},1651636747,0
{consumergroup=__strimzi-topic-operator-kstreams},1651636752,0
{consumergroup=__strimzi-topic-operator-kstreams},1651636757,0
{consumergroup=__strimzi-topic-operator-kstreams},1651636762,0
{consumergroup=__strimzi-topic-operator-kstreams},1651636767,0
{consumergroup=__strimzi-topic-operator-kstreams},1651636772,0
{consumergroup=__strimzi-topic-operator-kstreams},1651636777,0
{consumergroup=__strimzi-topic-operator-kstreams},1651636782,0
{consumergroup=__strimzi-topic-operator-kstreams},1651636787,0
{consumergroup=__strimzi-topic-operator-kstreams},1651636792,0
{consumergroup=__strimzi-topic-operator-kstreams},1651636797,0
{consumergroup=__strimzi-topic-operator-kstreams},1651636802,0
{consumergroup=__strimzi-topic-operator-kstreams},1651636807,0
{consumergroup=__strimzi-topic-operator-kstreams},1651636812,0
{consumergroup=adapter-service},1651636592,846862
{consumergroup=adapter-service},1651636597,846862
{consumergroup=adapter-service},1651636602,846862
{consumergroup=adapter-service},1651636607,1951279
{consumergroup=adapter-service},1651636612,1951279
{consumergroup=adapter-service},1651636617,1951279
{consumergroup=adapter-service},1651636622,2469539
{consumergroup=adapter-service},1651636627,2469539
{consumergroup=adapter-service},1651636632,2469539
{consumergroup=adapter-service},1651636637,3134923
{consumergroup=adapter-service},1651636642,3134923
{consumergroup=adapter-service},1651636647,3134923
{consumergroup=adapter-service},1651636652,3489617
{consumergroup=adapter-service},1651636657,3489617
{consumergroup=adapter-service},1651636662,3489617
{consumergroup=adapter-service},1651636667,3945832
{consumergroup=adapter-service},1651636672,3945832
{consumergroup=adapter-service},1651636677,3945832
{consumergroup=adapter-service},1651636682,4284916
{consumergroup=adapter-service},1651636687,4284916
{consumergroup=adapter-service},1651636692,4284916
{consumergroup=adapter-service},1651636697,4476140
{consumergroup=adapter-service},1651636702,4476140
{consumergroup=adapter-service},1651636707,4476140
{consumergroup=adapter-service},1651636712,4664155
{consumergroup=adapter-service},1651636717,4664155
{consumergroup=adapter-service},1651636722,4664155
{consumergroup=adapter-service},1651636727,4864032
{consumergroup=adapter-service},1651636732,4864032
{consumergroup=adapter-service},1651636737,4864032
{consumergroup=adapter-service},1651636742,4971792
{consumergroup=adapter-service},1651636747,4971792
{consumergroup=adapter-service},1651636752,4971792
{consumergroup=adapter-service},1651636757,5229029
{consumergroup=adapter-service},1651636762,5229029
{consumergroup=adapter-service},1651636767,5229029
{consumergroup=adapter-service},1651636772,5277433
{consumergroup=adapter-service},1651636777,5277433
{consumergroup=adapter-service},1651636782,5277433
{consumergroup=adapter-service},1651636787,5483972
{consumergroup=adapter-service},1651636792,5483972
{consumergroup=adapter-service},1651636797,5483972
{consumergroup=adapter-service},1651636802,5673677
{consumergroup=adapter-service},1651636807,5673677
{consumergroup=adapter-service},1651636812,5673677
