labels,timestamp,value
{consumergroup=__strimzi-topic-operator-kstreams},1651712347,12
{consumergroup=__strimzi-topic-operator-kstreams},1651712352,12
{consumergroup=__strimzi-topic-operator-kstreams},1651712357,12
{consumergroup=__strimzi-topic-operator-kstreams},1651712362,12
{consumergroup=__strimzi-topic-operator-kstreams},1651712367,12
{consumergroup=__strimzi-topic-operator-kstreams},1651712372,12
{consumergroup=__strimzi-topic-operator-kstreams},1651712377,0
{consumergroup=__strimzi-topic-operator-kstreams},1651712382,0
{consumergroup=__strimzi-topic-operator-kstreams},1651712387,0
{consumergroup=__strimzi-topic-operator-kstreams},1651712392,0
{consumergroup=__strimzi-topic-operator-kstreams},1651712397,0
{consumergroup=__strimzi-topic-operator-kstreams},1651712402,0
{consumergroup=__strimzi-topic-operator-kstreams},1651712407,0
{consumergroup=__strimzi-topic-operator-kstreams},1651712412,0
{consumergroup=__strimzi-topic-operator-kstreams},1651712417,0
{consumergroup=__strimzi-topic-operator-kstreams},1651712422,0
{consumergroup=__strimzi-topic-operator-kstreams},1651712427,0
{consumergroup=__strimzi-topic-operator-kstreams},1651712432,0
{consumergroup=__strimzi-topic-operator-kstreams},1651712437,0
{consumergroup=__strimzi-topic-operator-kstreams},1651712442,0
{consumergroup=__strimzi-topic-operator-kstreams},1651712447,0
{consumergroup=__strimzi-topic-operator-kstreams},1651712452,0
{consumergroup=__strimzi-topic-operator-kstreams},1651712457,0
{consumergroup=__strimzi-topic-operator-kstreams},1651712462,0
{consumergroup=__strimzi-topic-operator-kstreams},1651712467,0
{consumergroup=__strimzi-topic-operator-kstreams},1651712472,0
{consumergroup=__strimzi-topic-operator-kstreams},1651712477,0
{consumergroup=__strimzi-topic-operator-kstreams},1651712482,0
{consumergroup=__strimzi-topic-operator-kstreams},1651712487,0
{consumergroup=__strimzi-topic-operator-kstreams},1651712492,0
{consumergroup=__strimzi-topic-operator-kstreams},1651712497,0
{consumergroup=__strimzi-topic-operator-kstreams},1651712502,0
{consumergroup=__strimzi-topic-operator-kstreams},1651712507,0
{consumergroup=__strimzi-topic-operator-kstreams},1651712512,0
{consumergroup=__strimzi-topic-operator-kstreams},1651712517,0
{consumergroup=__strimzi-topic-operator-kstreams},1651712522,0
{consumergroup=__strimzi-topic-operator-kstreams},1651712527,0
{consumergroup=__strimzi-topic-operator-kstreams},1651712532,0
{consumergroup=__strimzi-topic-operator-kstreams},1651712537,0
{consumergroup=__strimzi-topic-operator-kstreams},1651712542,0
{consumergroup=__strimzi-topic-operator-kstreams},1651712547,0
{consumergroup=__strimzi-topic-operator-kstreams},1651712552,0
{consumergroup=__strimzi-topic-operator-kstreams},1651712557,0
{consumergroup=__strimzi-topic-operator-kstreams},1651712562,0
{consumergroup=__strimzi-topic-operator-kstreams},1651712567,0
{consumergroup=__strimzi-topic-operator-kstreams},1651712572,0
{consumergroup=__strimzi-topic-operator-kstreams},1651712577,0
{consumergroup=__strimzi-topic-operator-kstreams},1651712582,0
{consumergroup=__strimzi-topic-operator-kstreams},1651712587,0
{consumergroup=__strimzi-topic-operator-kstreams},1651712592,0
{consumergroup=adapter-service},1651712362,0
{consumergroup=adapter-service},1651712367,0
{consumergroup=adapter-service},1651712372,0
{consumergroup=adapter-service},1651712377,578964
{consumergroup=adapter-service},1651712382,578964
{consumergroup=adapter-service},1651712387,578964
{consumergroup=adapter-service},1651712392,846058
{consumergroup=adapter-service},1651712397,846058
{consumergroup=adapter-service},1651712402,846058
{consumergroup=adapter-service},1651712407,1043152
{consumergroup=adapter-service},1651712412,1043152
{consumergroup=adapter-service},1651712417,1043152
{consumergroup=adapter-service},1651712422,630204
{consumergroup=adapter-service},1651712427,630204
{consumergroup=adapter-service},1651712432,630204
{consumergroup=adapter-service},1651712437,561344
{consumergroup=adapter-service},1651712442,561344
{consumergroup=adapter-service},1651712447,561344
{consumergroup=adapter-service},1651712452,272105
{consumergroup=adapter-service},1651712457,272105
{consumergroup=adapter-service},1651712462,272105
{consumergroup=adapter-service},1651712467,239940
{consumergroup=adapter-service},1651712472,239940
{consumergroup=adapter-service},1651712477,239940
{consumergroup=adapter-service},1651712482,225663
{consumergroup=adapter-service},1651712487,225663
{consumergroup=adapter-service},1651712492,225663
{consumergroup=adapter-service},1651712497,170685
{consumergroup=adapter-service},1651712502,170685
{consumergroup=adapter-service},1651712507,170685
{consumergroup=adapter-service},1651712512,225650
{consumergroup=adapter-service},1651712517,225650
{consumergroup=adapter-service},1651712522,225650
{consumergroup=adapter-service},1651712527,160674
{consumergroup=adapter-service},1651712532,160674
{consumergroup=adapter-service},1651712537,160674
{consumergroup=adapter-service},1651712542,219133
{consumergroup=adapter-service},1651712547,219133
{consumergroup=adapter-service},1651712552,219133
{consumergroup=adapter-service},1651712557,210092
{consumergroup=adapter-service},1651712562,210092
{consumergroup=adapter-service},1651712567,210092
{consumergroup=adapter-service},1651712572,140773
{consumergroup=adapter-service},1651712577,140773
{consumergroup=adapter-service},1651712582,140773
{consumergroup=adapter-service},1651712587,207623
{consumergroup=adapter-service},1651712592,207623
