labels,timestamp,value
{consumergroup=__strimzi-topic-operator-kstreams},1651595609,8
{consumergroup=__strimzi-topic-operator-kstreams},1651595614,8
{consumergroup=__strimzi-topic-operator-kstreams},1651595619,8
{consumergroup=__strimzi-topic-operator-kstreams},1651595624,0
{consumergroup=__strimzi-topic-operator-kstreams},1651595629,0
{consumergroup=__strimzi-topic-operator-kstreams},1651595634,0
{consumergroup=__strimzi-topic-operator-kstreams},1651595639,0
{consumergroup=__strimzi-topic-operator-kstreams},1651595644,0
{consumergroup=__strimzi-topic-operator-kstreams},1651595649,0
{consumergroup=__strimzi-topic-operator-kstreams},1651595654,0
{consumergroup=__strimzi-topic-operator-kstreams},1651595659,0
{consumergroup=__strimzi-topic-operator-kstreams},1651595664,0
{consumergroup=__strimzi-topic-operator-kstreams},1651595669,0
{consumergroup=__strimzi-topic-operator-kstreams},1651595674,0
{consumergroup=__strimzi-topic-operator-kstreams},1651595679,0
{consumergroup=__strimzi-topic-operator-kstreams},1651595684,0
{consumergroup=__strimzi-topic-operator-kstreams},1651595689,0
{consumergroup=__strimzi-topic-operator-kstreams},1651595694,0
{consumergroup=__strimzi-topic-operator-kstreams},1651595699,0
{consumergroup=__strimzi-topic-operator-kstreams},1651595704,0
{consumergroup=__strimzi-topic-operator-kstreams},1651595709,0
{consumergroup=__strimzi-topic-operator-kstreams},1651595714,0
{consumergroup=__strimzi-topic-operator-kstreams},1651595719,0
{consumergroup=__strimzi-topic-operator-kstreams},1651595724,0
{consumergroup=__strimzi-topic-operator-kstreams},1651595729,0
{consumergroup=__strimzi-topic-operator-kstreams},1651595734,0
{consumergroup=__strimzi-topic-operator-kstreams},1651595739,0
{consumergroup=__strimzi-topic-operator-kstreams},1651595744,0
{consumergroup=__strimzi-topic-operator-kstreams},1651595749,0
{consumergroup=__strimzi-topic-operator-kstreams},1651595754,0
{consumergroup=__strimzi-topic-operator-kstreams},1651595759,0
{consumergroup=__strimzi-topic-operator-kstreams},1651595764,0
{consumergroup=__strimzi-topic-operator-kstreams},1651595769,0
{consumergroup=__strimzi-topic-operator-kstreams},1651595774,0
{consumergroup=__strimzi-topic-operator-kstreams},1651595779,0
{consumergroup=__strimzi-topic-operator-kstreams},1651595784,0
{consumergroup=__strimzi-topic-operator-kstreams},1651595789,0
{consumergroup=__strimzi-topic-operator-kstreams},1651595794,0
{consumergroup=__strimzi-topic-operator-kstreams},1651595799,0
{consumergroup=__strimzi-topic-operator-kstreams},1651595804,0
{consumergroup=__strimzi-topic-operator-kstreams},1651595809,0
{consumergroup=__strimzi-topic-operator-kstreams},1651595814,0
{consumergroup=__strimzi-topic-operator-kstreams},1651595819,0
{consumergroup=__strimzi-topic-operator-kstreams},1651595824,0
{consumergroup=__strimzi-topic-operator-kstreams},1651595829,0
{consumergroup=__strimzi-topic-operator-kstreams},1651595834,0
{consumergroup=__strimzi-topic-operator-kstreams},1651595839,0
{consumergroup=__strimzi-topic-operator-kstreams},1651595844,0
{consumergroup=__strimzi-topic-operator-kstreams},1651595849,0
{consumergroup=__strimzi-topic-operator-kstreams},1651595854,0
{consumergroup=__strimzi-topic-operator-kstreams},1651595859,0
{consumergroup=landscape-service},1651595639,11857
{consumergroup=landscape-service},1651595644,11857
{consumergroup=landscape-service},1651595649,11857
{consumergroup=landscape-service},1651595654,5595278
{consumergroup=landscape-service},1651595659,5595278
{consumergroup=landscape-service},1651595664,5595278
{consumergroup=landscape-service},1651595669,7045902
{consumergroup=landscape-service},1651595674,7045902
{consumergroup=landscape-service},1651595679,7045902
{consumergroup=landscape-service},1651595684,6981275
{consumergroup=landscape-service},1651595689,6981275
{consumergroup=landscape-service},1651595694,6981275
{consumergroup=landscape-service},1651595699,6576129
{consumergroup=landscape-service},1651595704,6576129
{consumergroup=landscape-service},1651595709,6576129
{consumergroup=landscape-service},1651595714,5976421
{consumergroup=landscape-service},1651595719,5976421
{consumergroup=landscape-service},1651595724,5976421
{consumergroup=landscape-service},1651595729,5781628
{consumergroup=landscape-service},1651595734,5781628
{consumergroup=landscape-service},1651595739,5781628
{consumergroup=landscape-service},1651595744,5488742
{consumergroup=landscape-service},1651595749,5488742
{consumergroup=landscape-service},1651595754,5488742
{consumergroup=landscape-service},1651595759,5849514
{consumergroup=landscape-service},1651595764,5849514
{consumergroup=landscape-service},1651595769,5849514
{consumergroup=landscape-service},1651595774,5689855
{consumergroup=landscape-service},1651595779,5689855
{consumergroup=landscape-service},1651595784,5689855
{consumergroup=landscape-service},1651595789,5974278
{consumergroup=landscape-service},1651595794,5974278
{consumergroup=landscape-service},1651595799,5974278
{consumergroup=landscape-service},1651595804,5548094
{consumergroup=landscape-service},1651595809,5548094
{consumergroup=landscape-service},1651595814,5548094
{consumergroup=landscape-service},1651595819,5382284
{consumergroup=landscape-service},1651595824,5382284
{consumergroup=landscape-service},1651595829,5382284
{consumergroup=landscape-service},1651595834,6299448
{consumergroup=landscape-service},1651595839,6299448
{consumergroup=landscape-service},1651595844,6299448
{consumergroup=landscape-service},1651595849,5686570
{consumergroup=landscape-service},1651595854,5686570
{consumergroup=landscape-service},1651595859,5686570
