labels,timestamp,value
{consumergroup=__strimzi-topic-operator-kstreams},1651705011,11
{consumergroup=__strimzi-topic-operator-kstreams},1651705016,11
{consumergroup=__strimzi-topic-operator-kstreams},1651705021,11
{consumergroup=__strimzi-topic-operator-kstreams},1651705026,0
{consumergroup=__strimzi-topic-operator-kstreams},1651705031,0
{consumergroup=__strimzi-topic-operator-kstreams},1651705036,0
{consumergroup=__strimzi-topic-operator-kstreams},1651705041,0
{consumergroup=__strimzi-topic-operator-kstreams},1651705046,0
{consumergroup=__strimzi-topic-operator-kstreams},1651705051,0
{consumergroup=__strimzi-topic-operator-kstreams},1651705056,0
{consumergroup=__strimzi-topic-operator-kstreams},1651705061,0
{consumergroup=__strimzi-topic-operator-kstreams},1651705066,0
{consumergroup=__strimzi-topic-operator-kstreams},1651705071,0
{consumergroup=__strimzi-topic-operator-kstreams},1651705076,0
{consumergroup=__strimzi-topic-operator-kstreams},1651705081,0
{consumergroup=__strimzi-topic-operator-kstreams},1651705086,0
{consumergroup=__strimzi-topic-operator-kstreams},1651705091,0
{consumergroup=__strimzi-topic-operator-kstreams},1651705096,0
{consumergroup=__strimzi-topic-operator-kstreams},1651705101,0
{consumergroup=__strimzi-topic-operator-kstreams},1651705106,0
{consumergroup=__strimzi-topic-operator-kstreams},1651705111,0
{consumergroup=__strimzi-topic-operator-kstreams},1651705116,0
{consumergroup=__strimzi-topic-operator-kstreams},1651705121,0
{consumergroup=__strimzi-topic-operator-kstreams},1651705126,0
{consumergroup=__strimzi-topic-operator-kstreams},1651705131,0
{consumergroup=__strimzi-topic-operator-kstreams},1651705136,0
{consumergroup=__strimzi-topic-operator-kstreams},1651705141,0
{consumergroup=__strimzi-topic-operator-kstreams},1651705146,0
{consumergroup=__strimzi-topic-operator-kstreams},1651705151,0
{consumergroup=__strimzi-topic-operator-kstreams},1651705156,0
{consumergroup=__strimzi-topic-operator-kstreams},1651705161,0
{consumergroup=__strimzi-topic-operator-kstreams},1651705166,0
{consumergroup=__strimzi-topic-operator-kstreams},1651705171,0
{consumergroup=__strimzi-topic-operator-kstreams},1651705176,0
{consumergroup=__strimzi-topic-operator-kstreams},1651705181,0
{consumergroup=__strimzi-topic-operator-kstreams},1651705186,0
{consumergroup=__strimzi-topic-operator-kstreams},1651705191,0
{consumergroup=__strimzi-topic-operator-kstreams},1651705196,0
{consumergroup=__strimzi-topic-operator-kstreams},1651705201,0
{consumergroup=__strimzi-topic-operator-kstreams},1651705206,0
{consumergroup=__strimzi-topic-operator-kstreams},1651705211,0
{consumergroup=__strimzi-topic-operator-kstreams},1651705216,0
{consumergroup=__strimzi-topic-operator-kstreams},1651705221,0
{consumergroup=__strimzi-topic-operator-kstreams},1651705226,0
{consumergroup=__strimzi-topic-operator-kstreams},1651705231,0
{consumergroup=__strimzi-topic-operator-kstreams},1651705236,0
{consumergroup=__strimzi-topic-operator-kstreams},1651705241,0
{consumergroup=__strimzi-topic-operator-kstreams},1651705246,0
{consumergroup=__strimzi-topic-operator-kstreams},1651705251,0
{consumergroup=__strimzi-topic-operator-kstreams},1651705256,0
{consumergroup=__strimzi-topic-operator-kstreams},1651705261,0
{consumergroup=__strimzi-topic-operator-kstreams},1651705266,0
{consumergroup=adapter-service},1651705041,284961
{consumergroup=adapter-service},1651705046,284961
{consumergroup=adapter-service},1651705051,284961
{consumergroup=adapter-service},1651705056,1464401
{consumergroup=adapter-service},1651705061,1464401
{consumergroup=adapter-service},1651705066,1464401
{consumergroup=adapter-service},1651705071,2304153
{consumergroup=adapter-service},1651705076,2304153
{consumergroup=adapter-service},1651705081,2304153
{consumergroup=adapter-service},1651705086,2891773
{consumergroup=adapter-service},1651705091,2891773
{consumergroup=adapter-service},1651705096,2891773
{consumergroup=adapter-service},1651705101,3487508
{consumergroup=adapter-service},1651705106,3487508
{consumergroup=adapter-service},1651705111,3487508
{consumergroup=adapter-service},1651705116,3710282
{consumergroup=adapter-service},1651705121,3710282
{consumergroup=adapter-service},1651705126,3710282
{consumergroup=adapter-service},1651705131,3857148
{consumergroup=adapter-service},1651705136,3857148
{consumergroup=adapter-service},1651705141,3857148
{consumergroup=adapter-service},1651705146,3768124
{consumergroup=adapter-service},1651705151,3768124
{consumergroup=adapter-service},1651705156,3768124
{consumergroup=adapter-service},1651705161,3635821
{consumergroup=adapter-service},1651705166,3635821
{consumergroup=adapter-service},1651705171,3635821
{consumergroup=adapter-service},1651705176,3368765
{consumergroup=adapter-service},1651705181,3368765
{consumergroup=adapter-service},1651705186,3368765
{consumergroup=adapter-service},1651705191,3232483
{consumergroup=adapter-service},1651705196,3232483
{consumergroup=adapter-service},1651705201,3232483
{consumergroup=adapter-service},1651705206,2908376
{consumergroup=adapter-service},1651705211,2908376
{consumergroup=adapter-service},1651705216,2908376
{consumergroup=adapter-service},1651705221,2893874
{consumergroup=adapter-service},1651705226,2893874
{consumergroup=adapter-service},1651705231,2893874
{consumergroup=adapter-service},1651705236,2584497
{consumergroup=adapter-service},1651705241,2584497
{consumergroup=adapter-service},1651705246,2584497
{consumergroup=adapter-service},1651705251,2456345
{consumergroup=adapter-service},1651705256,2456345
{consumergroup=adapter-service},1651705261,2456345
{consumergroup=adapter-service},1651705266,2219023
