labels,timestamp,value
{consumergroup=__strimzi-topic-operator-kstreams},1651600301,9
{consumergroup=__strimzi-topic-operator-kstreams},1651600306,9
{consumergroup=__strimzi-topic-operator-kstreams},1651600311,9
{consumergroup=__strimzi-topic-operator-kstreams},1651600316,0
{consumergroup=__strimzi-topic-operator-kstreams},1651600321,0
{consumergroup=__strimzi-topic-operator-kstreams},1651600326,0
{consumergroup=__strimzi-topic-operator-kstreams},1651600331,0
{consumergroup=__strimzi-topic-operator-kstreams},1651600336,0
{consumergroup=__strimzi-topic-operator-kstreams},1651600341,0
{consumergroup=__strimzi-topic-operator-kstreams},1651600346,0
{consumergroup=__strimzi-topic-operator-kstreams},1651600351,0
{consumergroup=__strimzi-topic-operator-kstreams},1651600356,0
{consumergroup=__strimzi-topic-operator-kstreams},1651600361,0
{consumergroup=__strimzi-topic-operator-kstreams},1651600366,0
{consumergroup=__strimzi-topic-operator-kstreams},1651600371,0
{consumergroup=__strimzi-topic-operator-kstreams},1651600376,0
{consumergroup=__strimzi-topic-operator-kstreams},1651600381,0
{consumergroup=__strimzi-topic-operator-kstreams},1651600386,0
{consumergroup=__strimzi-topic-operator-kstreams},1651600391,0
{consumergroup=__strimzi-topic-operator-kstreams},1651600396,0
{consumergroup=__strimzi-topic-operator-kstreams},1651600401,0
{consumergroup=__strimzi-topic-operator-kstreams},1651600406,0
{consumergroup=__strimzi-topic-operator-kstreams},1651600411,0
{consumergroup=__strimzi-topic-operator-kstreams},1651600416,0
{consumergroup=__strimzi-topic-operator-kstreams},1651600421,0
{consumergroup=__strimzi-topic-operator-kstreams},1651600426,0
{consumergroup=__strimzi-topic-operator-kstreams},1651600431,0
{consumergroup=__strimzi-topic-operator-kstreams},1651600436,0
{consumergroup=__strimzi-topic-operator-kstreams},1651600441,0
{consumergroup=__strimzi-topic-operator-kstreams},1651600446,0
{consumergroup=__strimzi-topic-operator-kstreams},1651600451,0
{consumergroup=__strimzi-topic-operator-kstreams},1651600456,0
{consumergroup=__strimzi-topic-operator-kstreams},1651600461,0
{consumergroup=__strimzi-topic-operator-kstreams},1651600466,0
{consumergroup=__strimzi-topic-operator-kstreams},1651600471,0
{consumergroup=__strimzi-topic-operator-kstreams},1651600476,0
{consumergroup=__strimzi-topic-operator-kstreams},1651600481,0
{consumergroup=__strimzi-topic-operator-kstreams},1651600486,0
{consumergroup=__strimzi-topic-operator-kstreams},1651600491,0
{consumergroup=__strimzi-topic-operator-kstreams},1651600496,0
{consumergroup=__strimzi-topic-operator-kstreams},1651600501,0
{consumergroup=__strimzi-topic-operator-kstreams},1651600506,0
{consumergroup=__strimzi-topic-operator-kstreams},1651600511,0
{consumergroup=__strimzi-topic-operator-kstreams},1651600516,0
{consumergroup=__strimzi-topic-operator-kstreams},1651600521,0
{consumergroup=__strimzi-topic-operator-kstreams},1651600526,0
{consumergroup=__strimzi-topic-operator-kstreams},1651600531,0
{consumergroup=__strimzi-topic-operator-kstreams},1651600536,0
{consumergroup=__strimzi-topic-operator-kstreams},1651600541,0
{consumergroup=__strimzi-topic-operator-kstreams},1651600546,0
{consumergroup=__strimzi-topic-operator-kstreams},1651600551,0
{consumergroup=landscape-service},1651600331,1323
{consumergroup=landscape-service},1651600336,1323
{consumergroup=landscape-service},1651600341,1323
{consumergroup=landscape-service},1651600346,2327151
{consumergroup=landscape-service},1651600351,2327151
{consumergroup=landscape-service},1651600356,2327151
{consumergroup=landscape-service},1651600361,2582107
{consumergroup=landscape-service},1651600366,2582107
{consumergroup=landscape-service},1651600371,2582107
{consumergroup=landscape-service},1651600376,2311303
{consumergroup=landscape-service},1651600381,2311303
{consumergroup=landscape-service},1651600386,2311303
{consumergroup=landscape-service},1651600391,2602194
{consumergroup=landscape-service},1651600396,2602194
{consumergroup=landscape-service},1651600401,2602194
{consumergroup=landscape-service},1651600406,2432625
{consumergroup=landscape-service},1651600411,2432625
{consumergroup=landscape-service},1651600416,2432625
{consumergroup=landscape-service},1651600421,1845432
{consumergroup=landscape-service},1651600426,1845432
{consumergroup=landscape-service},1651600431,1845432
{consumergroup=landscape-service},1651600436,1084144
{consumergroup=landscape-service},1651600441,1084144
{consumergroup=landscape-service},1651600446,1084144
{consumergroup=landscape-service},1651600451,662731
{consumergroup=landscape-service},1651600456,662731
{consumergroup=landscape-service},1651600461,662731
{consumergroup=landscape-service},1651600466,454269
{consumergroup=landscape-service},1651600471,454269
{consumergroup=landscape-service},1651600476,454269
{consumergroup=landscape-service},1651600481,526729
{consumergroup=landscape-service},1651600486,526729
{consumergroup=landscape-service},1651600491,526729
{consumergroup=landscape-service},1651600496,790421
{consumergroup=landscape-service},1651600501,790421
{consumergroup=landscape-service},1651600506,790421
{consumergroup=landscape-service},1651600511,501891
{consumergroup=landscape-service},1651600516,501891
{consumergroup=landscape-service},1651600521,501891
{consumergroup=landscape-service},1651600526,449922
{consumergroup=landscape-service},1651600531,449922
{consumergroup=landscape-service},1651600536,449922
{consumergroup=landscape-service},1651600541,443877
{consumergroup=landscape-service},1651600546,443877
{consumergroup=landscape-service},1651600551,443877
