labels,timestamp,value
{consumergroup=__strimzi-topic-operator-kstreams},1651626822,1
{consumergroup=__strimzi-topic-operator-kstreams},1651626827,1
{consumergroup=__strimzi-topic-operator-kstreams},1651626832,1
{consumergroup=__strimzi-topic-operator-kstreams},1651626837,1
{consumergroup=__strimzi-topic-operator-kstreams},1651626842,1
{consumergroup=__strimzi-topic-operator-kstreams},1651626847,1
{consumergroup=__strimzi-topic-operator-kstreams},1651626852,0
{consumergroup=__strimzi-topic-operator-kstreams},1651626857,0
{consumergroup=__strimzi-topic-operator-kstreams},1651626862,0
{consumergroup=__strimzi-topic-operator-kstreams},1651626867,0
{consumergroup=__strimzi-topic-operator-kstreams},1651626872,0
{consumergroup=__strimzi-topic-operator-kstreams},1651626877,0
{consumergroup=__strimzi-topic-operator-kstreams},1651626882,0
{consumergroup=__strimzi-topic-operator-kstreams},1651626887,0
{consumergroup=__strimzi-topic-operator-kstreams},1651626892,0
{consumergroup=__strimzi-topic-operator-kstreams},1651626897,0
{consumergroup=__strimzi-topic-operator-kstreams},1651626902,0
{consumergroup=__strimzi-topic-operator-kstreams},1651626907,0
{consumergroup=__strimzi-topic-operator-kstreams},1651626912,0
{consumergroup=__strimzi-topic-operator-kstreams},1651626917,0
{consumergroup=__strimzi-topic-operator-kstreams},1651626922,0
{consumergroup=__strimzi-topic-operator-kstreams},1651626927,0
{consumergroup=__strimzi-topic-operator-kstreams},1651626932,0
{consumergroup=__strimzi-topic-operator-kstreams},1651626937,0
{consumergroup=__strimzi-topic-operator-kstreams},1651626942,0
{consumergroup=__strimzi-topic-operator-kstreams},1651626947,0
{consumergroup=__strimzi-topic-operator-kstreams},1651626952,0
{consumergroup=__strimzi-topic-operator-kstreams},1651626957,0
{consumergroup=__strimzi-topic-operator-kstreams},1651626962,0
{consumergroup=__strimzi-topic-operator-kstreams},1651626967,0
{consumergroup=__strimzi-topic-operator-kstreams},1651626972,0
{consumergroup=__strimzi-topic-operator-kstreams},1651626977,0
{consumergroup=__strimzi-topic-operator-kstreams},1651626982,0
{consumergroup=__strimzi-topic-operator-kstreams},1651626987,0
{consumergroup=__strimzi-topic-operator-kstreams},1651626992,0
{consumergroup=__strimzi-topic-operator-kstreams},1651626997,0
{consumergroup=__strimzi-topic-operator-kstreams},1651627002,0
{consumergroup=__strimzi-topic-operator-kstreams},1651627007,0
{consumergroup=__strimzi-topic-operator-kstreams},1651627012,0
{consumergroup=__strimzi-topic-operator-kstreams},1651627017,0
{consumergroup=__strimzi-topic-operator-kstreams},1651627022,0
{consumergroup=__strimzi-topic-operator-kstreams},1651627027,0
{consumergroup=__strimzi-topic-operator-kstreams},1651627032,0
{consumergroup=__strimzi-topic-operator-kstreams},1651627037,0
{consumergroup=__strimzi-topic-operator-kstreams},1651627042,0
{consumergroup=__strimzi-topic-operator-kstreams},1651627047,0
{consumergroup=__strimzi-topic-operator-kstreams},1651627052,0
{consumergroup=__strimzi-topic-operator-kstreams},1651627057,0
{consumergroup=__strimzi-topic-operator-kstreams},1651627062,0
{consumergroup=__strimzi-topic-operator-kstreams},1651627067,0
{consumergroup=adapter-service},1651626837,0
{consumergroup=adapter-service},1651626842,0
{consumergroup=adapter-service},1651626847,0
{consumergroup=adapter-service},1651626852,1218997
{consumergroup=adapter-service},1651626857,1218997
{consumergroup=adapter-service},1651626862,1218997
{consumergroup=adapter-service},1651626867,2070414
{consumergroup=adapter-service},1651626872,2070414
{consumergroup=adapter-service},1651626877,2070414
{consumergroup=adapter-service},1651626882,2710771
{consumergroup=adapter-service},1651626887,2710771
{consumergroup=adapter-service},1651626892,2710771
{consumergroup=adapter-service},1651626897,3253460
{consumergroup=adapter-service},1651626902,3253460
{consumergroup=adapter-service},1651626907,3253460
{consumergroup=adapter-service},1651626912,3516943
{consumergroup=adapter-service},1651626917,3516943
{consumergroup=adapter-service},1651626922,3516943
{consumergroup=adapter-service},1651626927,3670334
{consumergroup=adapter-service},1651626932,3670334
{consumergroup=adapter-service},1651626937,3670334
{consumergroup=adapter-service},1651626942,3660788
{consumergroup=adapter-service},1651626947,3660788
{consumergroup=adapter-service},1651626952,3660788
{consumergroup=adapter-service},1651626957,3661777
{consumergroup=adapter-service},1651626962,3661777
{consumergroup=adapter-service},1651626967,3661777
{consumergroup=adapter-service},1651626972,3979701
{consumergroup=adapter-service},1651626977,3979701
{consumergroup=adapter-service},1651626982,3979701
{consumergroup=adapter-service},1651626987,3646045
{consumergroup=adapter-service},1651626992,3646045
{consumergroup=adapter-service},1651626997,3646045
{consumergroup=adapter-service},1651627002,3837658
{consumergroup=adapter-service},1651627007,3837658
{consumergroup=adapter-service},1651627012,3837658
{consumergroup=adapter-service},1651627017,3779142
{consumergroup=adapter-service},1651627022,3779142
{consumergroup=adapter-service},1651627027,3779142
{consumergroup=adapter-service},1651627032,3582758
{consumergroup=adapter-service},1651627037,3582758
{consumergroup=adapter-service},1651627042,3582758
{consumergroup=adapter-service},1651627047,3552363
{consumergroup=adapter-service},1651627052,3552363
{consumergroup=adapter-service},1651627057,3552363
{consumergroup=adapter-service},1651627062,3431862
{consumergroup=adapter-service},1651627067,3431862
