labels,timestamp,value
{consumergroup=__strimzi-topic-operator-kstreams},1651641908,24
{consumergroup=__strimzi-topic-operator-kstreams},1651641913,24
{consumergroup=__strimzi-topic-operator-kstreams},1651641918,24
{consumergroup=__strimzi-topic-operator-kstreams},1651641923,0
{consumergroup=__strimzi-topic-operator-kstreams},1651641928,0
{consumergroup=__strimzi-topic-operator-kstreams},1651641933,0
{consumergroup=__strimzi-topic-operator-kstreams},1651641938,0
{consumergroup=__strimzi-topic-operator-kstreams},1651641943,0
{consumergroup=__strimzi-topic-operator-kstreams},1651641948,0
{consumergroup=__strimzi-topic-operator-kstreams},1651641953,0
{consumergroup=__strimzi-topic-operator-kstreams},1651641958,0
{consumergroup=__strimzi-topic-operator-kstreams},1651641963,0
{consumergroup=__strimzi-topic-operator-kstreams},1651641968,0
{consumergroup=__strimzi-topic-operator-kstreams},1651641973,0
{consumergroup=__strimzi-topic-operator-kstreams},1651641978,0
{consumergroup=__strimzi-topic-operator-kstreams},1651641983,0
{consumergroup=__strimzi-topic-operator-kstreams},1651641988,0
{consumergroup=__strimzi-topic-operator-kstreams},1651641993,0
{consumergroup=__strimzi-topic-operator-kstreams},1651641998,0
{consumergroup=__strimzi-topic-operator-kstreams},1651642003,0
{consumergroup=__strimzi-topic-operator-kstreams},1651642008,0
{consumergroup=__strimzi-topic-operator-kstreams},1651642013,0
{consumergroup=__strimzi-topic-operator-kstreams},1651642018,0
{consumergroup=__strimzi-topic-operator-kstreams},1651642023,0
{consumergroup=__strimzi-topic-operator-kstreams},1651642028,0
{consumergroup=__strimzi-topic-operator-kstreams},1651642033,0
{consumergroup=__strimzi-topic-operator-kstreams},1651642038,0
{consumergroup=__strimzi-topic-operator-kstreams},1651642043,0
{consumergroup=__strimzi-topic-operator-kstreams},1651642048,0
{consumergroup=__strimzi-topic-operator-kstreams},1651642053,0
{consumergroup=__strimzi-topic-operator-kstreams},1651642058,0
{consumergroup=__strimzi-topic-operator-kstreams},1651642063,0
{consumergroup=__strimzi-topic-operator-kstreams},1651642068,0
{consumergroup=__strimzi-topic-operator-kstreams},1651642073,0
{consumergroup=__strimzi-topic-operator-kstreams},1651642078,0
{consumergroup=__strimzi-topic-operator-kstreams},1651642083,0
{consumergroup=__strimzi-topic-operator-kstreams},1651642088,0
{consumergroup=__strimzi-topic-operator-kstreams},1651642093,0
{consumergroup=__strimzi-topic-operator-kstreams},1651642098,0
{consumergroup=__strimzi-topic-operator-kstreams},1651642103,0
{consumergroup=__strimzi-topic-operator-kstreams},1651642108,0
{consumergroup=__strimzi-topic-operator-kstreams},1651642113,0
{consumergroup=__strimzi-topic-operator-kstreams},1651642118,0
{consumergroup=__strimzi-topic-operator-kstreams},1651642123,0
{consumergroup=__strimzi-topic-operator-kstreams},1651642128,0
{consumergroup=__strimzi-topic-operator-kstreams},1651642133,0
{consumergroup=__strimzi-topic-operator-kstreams},1651642138,0
{consumergroup=__strimzi-topic-operator-kstreams},1651642143,0
{consumergroup=__strimzi-topic-operator-kstreams},1651642148,0
{consumergroup=__strimzi-topic-operator-kstreams},1651642153,0
{consumergroup=__strimzi-topic-operator-kstreams},1651642158,0
{consumergroup=adapter-service},1651641938,305304
{consumergroup=adapter-service},1651641943,305304
{consumergroup=adapter-service},1651641948,305304
{consumergroup=adapter-service},1651641953,476135
{consumergroup=adapter-service},1651641958,476135
{consumergroup=adapter-service},1651641963,476135
{consumergroup=adapter-service},1651641968,412061
{consumergroup=adapter-service},1651641973,412061
{consumergroup=adapter-service},1651641978,412061
{consumergroup=adapter-service},1651641983,436966
{consumergroup=adapter-service},1651641988,436966
{consumergroup=adapter-service},1651641993,436966
{consumergroup=adapter-service},1651641998,91895
{consumergroup=adapter-service},1651642003,91895
{consumergroup=adapter-service},1651642008,91895
{consumergroup=adapter-service},1651642013,159848
{consumergroup=adapter-service},1651642018,159848
{consumergroup=adapter-service},1651642023,159848
{consumergroup=adapter-service},1651642028,48006
{consumergroup=adapter-service},1651642033,48006
{consumergroup=adapter-service},1651642038,48006
{consumergroup=adapter-service},1651642043,125816
{consumergroup=adapter-service},1651642048,125816
{consumergroup=adapter-service},1651642053,125816
{consumergroup=adapter-service},1651642058,99092
{consumergroup=adapter-service},1651642063,99092
{consumergroup=adapter-service},1651642068,99092
{consumergroup=adapter-service},1651642073,126957
{consumergroup=adapter-service},1651642078,126957
{consumergroup=adapter-service},1651642083,126957
{consumergroup=adapter-service},1651642088,98131
{consumergroup=adapter-service},1651642093,98131
{consumergroup=adapter-service},1651642098,98131
{consumergroup=adapter-service},1651642103,120278
{consumergroup=adapter-service},1651642108,120278
{consumergroup=adapter-service},1651642113,120278
{consumergroup=adapter-service},1651642118,134327
{consumergroup=adapter-service},1651642123,134327
{consumergroup=adapter-service},1651642128,134327
{consumergroup=adapter-service},1651642133,118046
{consumergroup=adapter-service},1651642138,118046
{consumergroup=adapter-service},1651642143,118046
{consumergroup=adapter-service},1651642148,132020
{consumergroup=adapter-service},1651642153,132020
{consumergroup=adapter-service},1651642158,132020
