labels,timestamp,value
{consumergroup=__strimzi-topic-operator-kstreams},1651585951,8
{consumergroup=__strimzi-topic-operator-kstreams},1651585956,8
{consumergroup=__strimzi-topic-operator-kstreams},1651585961,8
{consumergroup=__strimzi-topic-operator-kstreams},1651585966,0
{consumergroup=__strimzi-topic-operator-kstreams},1651585971,0
{consumergroup=__strimzi-topic-operator-kstreams},1651585976,0
{consumergroup=__strimzi-topic-operator-kstreams},1651585981,0
{consumergroup=__strimzi-topic-operator-kstreams},1651585986,0
{consumergroup=__strimzi-topic-operator-kstreams},1651585991,0
{consumergroup=__strimzi-topic-operator-kstreams},1651585996,0
{consumergroup=__strimzi-topic-operator-kstreams},1651586001,0
{consumergroup=__strimzi-topic-operator-kstreams},1651586006,0
{consumergroup=__strimzi-topic-operator-kstreams},1651586011,0
{consumergroup=__strimzi-topic-operator-kstreams},1651586016,0
{consumergroup=__strimzi-topic-operator-kstreams},1651586021,0
{consumergroup=__strimzi-topic-operator-kstreams},1651586026,0
{consumergroup=__strimzi-topic-operator-kstreams},1651586031,0
{consumergroup=__strimzi-topic-operator-kstreams},1651586036,0
{consumergroup=__strimzi-topic-operator-kstreams},1651586041,0
{consumergroup=__strimzi-topic-operator-kstreams},1651586046,0
{consumergroup=__strimzi-topic-operator-kstreams},1651586051,0
{consumergroup=__strimzi-topic-operator-kstreams},1651586056,0
{consumergroup=__strimzi-topic-operator-kstreams},1651586061,0
{consumergroup=__strimzi-topic-operator-kstreams},1651586066,0
{consumergroup=__strimzi-topic-operator-kstreams},1651586071,0
{consumergroup=__strimzi-topic-operator-kstreams},1651586076,0
{consumergroup=__strimzi-topic-operator-kstreams},1651586081,0
{consumergroup=__strimzi-topic-operator-kstreams},1651586086,0
{consumergroup=__strimzi-topic-operator-kstreams},1651586091,0
{consumergroup=__strimzi-topic-operator-kstreams},1651586096,0
{consumergroup=__strimzi-topic-operator-kstreams},1651586101,0
{consumergroup=__strimzi-topic-operator-kstreams},1651586106,0
{consumergroup=__strimzi-topic-operator-kstreams},1651586111,0
{consumergroup=__strimzi-topic-operator-kstreams},1651586116,0
{consumergroup=__strimzi-topic-operator-kstreams},1651586121,0
{consumergroup=__strimzi-topic-operator-kstreams},1651586126,0
{consumergroup=__strimzi-topic-operator-kstreams},1651586131,0
{consumergroup=__strimzi-topic-operator-kstreams},1651586136,0
{consumergroup=__strimzi-topic-operator-kstreams},1651586141,0
{consumergroup=__strimzi-topic-operator-kstreams},1651586146,0
{consumergroup=__strimzi-topic-operator-kstreams},1651586151,0
{consumergroup=__strimzi-topic-operator-kstreams},1651586156,0
{consumergroup=__strimzi-topic-operator-kstreams},1651586161,0
{consumergroup=__strimzi-topic-operator-kstreams},1651586166,0
{consumergroup=__strimzi-topic-operator-kstreams},1651586171,0
{consumergroup=__strimzi-topic-operator-kstreams},1651586176,0
{consumergroup=__strimzi-topic-operator-kstreams},1651586181,0
{consumergroup=__strimzi-topic-operator-kstreams},1651586186,0
{consumergroup=__strimzi-topic-operator-kstreams},1651586191,0
{consumergroup=__strimzi-topic-operator-kstreams},1651586196,0
{consumergroup=landscape-service},1651585981,86802
{consumergroup=landscape-service},1651585986,86802
{consumergroup=landscape-service},1651585991,86802
{consumergroup=landscape-service},1651585996,4259122
{consumergroup=landscape-service},1651586001,4259122
{consumergroup=landscape-service},1651586006,4259122
{consumergroup=landscape-service},1651586011,7072855
{consumergroup=landscape-service},1651586016,7072855
{consumergroup=landscape-service},1651586021,7072855
{consumergroup=landscape-service},1651586026,9306324
{consumergroup=landscape-service},1651586031,9306324
{consumergroup=landscape-service},1651586036,9306324
{consumergroup=landscape-service},1651586041,11940840
{consumergroup=landscape-service},1651586046,11940840
{consumergroup=landscape-service},1651586051,11940840
{consumergroup=landscape-service},1651586056,14016428
{consumergroup=landscape-service},1651586061,14016428
{consumergroup=landscape-service},1651586066,14016428
{consumergroup=landscape-service},1651586071,16475394
{consumergroup=landscape-service},1651586076,16475394
{consumergroup=landscape-service},1651586081,16475394
{consumergroup=landscape-service},1651586086,18520661
{consumergroup=landscape-service},1651586091,18520661
{consumergroup=landscape-service},1651586096,18520661
{consumergroup=landscape-service},1651586101,20953085
{consumergroup=landscape-service},1651586106,20953085
{consumergroup=landscape-service},1651586111,20953085
{consumergroup=landscape-service},1651586116,22958163
{consumergroup=landscape-service},1651586121,22958163
{consumergroup=landscape-service},1651586126,22958163
{consumergroup=landscape-service},1651586131,25358483
{consumergroup=landscape-service},1651586136,25358483
{consumergroup=landscape-service},1651586141,25358483
{consumergroup=landscape-service},1651586146,27221431
{consumergroup=landscape-service},1651586151,27221431
{consumergroup=landscape-service},1651586156,27221431
{consumergroup=landscape-service},1651586161,29697097
{consumergroup=landscape-service},1651586166,29697097
{consumergroup=landscape-service},1651586171,29697097
{consumergroup=landscape-service},1651586176,31554249
{consumergroup=landscape-service},1651586181,31554249
{consumergroup=landscape-service},1651586186,31554249
{consumergroup=landscape-service},1651586191,34137578
{consumergroup=landscape-service},1651586196,34137578
{consumergroup=landscape-token-events-consumer},1651585981,0
{consumergroup=landscape-token-events-consumer},1651585986,0
{consumergroup=landscape-token-events-consumer},1651585991,0
{consumergroup=landscape-token-events-consumer},1651585996,0
{consumergroup=landscape-token-events-consumer},1651586001,0
{consumergroup=landscape-token-events-consumer},1651586006,0
{consumergroup=landscape-token-events-consumer},1651586011,0
{consumergroup=landscape-token-events-consumer},1651586016,0
{consumergroup=landscape-token-events-consumer},1651586021,0
{consumergroup=landscape-token-events-consumer},1651586026,0
{consumergroup=landscape-token-events-consumer},1651586031,0
{consumergroup=landscape-token-events-consumer},1651586036,0
{consumergroup=landscape-token-events-consumer},1651586041,0
{consumergroup=landscape-token-events-consumer},1651586046,0
{consumergroup=landscape-token-events-consumer},1651586051,0
{consumergroup=landscape-token-events-consumer},1651586056,0
{consumergroup=landscape-token-events-consumer},1651586061,0
{consumergroup=landscape-token-events-consumer},1651586066,0
{consumergroup=landscape-token-events-consumer},1651586071,0
{consumergroup=landscape-token-events-consumer},1651586076,0
{consumergroup=landscape-token-events-consumer},1651586081,0
{consumergroup=landscape-token-events-consumer},1651586086,0
{consumergroup=landscape-token-events-consumer},1651586091,0
{consumergroup=landscape-token-events-consumer},1651586096,0
{consumergroup=landscape-token-events-consumer},1651586101,0
{consumergroup=landscape-token-events-consumer},1651586106,0
{consumergroup=landscape-token-events-consumer},1651586111,0
{consumergroup=landscape-token-events-consumer},1651586116,0
{consumergroup=landscape-token-events-consumer},1651586121,0
{consumergroup=landscape-token-events-consumer},1651586126,0
{consumergroup=landscape-token-events-consumer},1651586131,0
{consumergroup=landscape-token-events-consumer},1651586136,0
{consumergroup=landscape-token-events-consumer},1651586141,0
{consumergroup=landscape-token-events-consumer},1651586146,0
{consumergroup=landscape-token-events-consumer},1651586151,0
{consumergroup=landscape-token-events-consumer},1651586156,0
{consumergroup=landscape-token-events-consumer},1651586161,0
{consumergroup=landscape-token-events-consumer},1651586166,0
{consumergroup=landscape-token-events-consumer},1651586171,0
{consumergroup=landscape-token-events-consumer},1651586176,0
{consumergroup=landscape-token-events-consumer},1651586181,0
{consumergroup=landscape-token-events-consumer},1651586186,0
{consumergroup=landscape-token-events-consumer},1651586191,0
{consumergroup=landscape-token-events-consumer},1651586196,0
