labels,timestamp,value
{consumergroup=__strimzi-topic-operator-kstreams},1651633593,17
{consumergroup=__strimzi-topic-operator-kstreams},1651633598,17
{consumergroup=__strimzi-topic-operator-kstreams},1651633603,17
{consumergroup=__strimzi-topic-operator-kstreams},1651633608,19
{consumergroup=__strimzi-topic-operator-kstreams},1651633613,19
{consumergroup=__strimzi-topic-operator-kstreams},1651633618,19
{consumergroup=__strimzi-topic-operator-kstreams},1651633623,0
{consumergroup=__strimzi-topic-operator-kstreams},1651633628,0
{consumergroup=__strimzi-topic-operator-kstreams},1651633633,0
{consumergroup=__strimzi-topic-operator-kstreams},1651633638,0
{consumergroup=__strimzi-topic-operator-kstreams},1651633643,0
{consumergroup=__strimzi-topic-operator-kstreams},1651633648,0
{consumergroup=__strimzi-topic-operator-kstreams},1651633653,0
{consumergroup=__strimzi-topic-operator-kstreams},1651633658,0
{consumergroup=__strimzi-topic-operator-kstreams},1651633663,0
{consumergroup=__strimzi-topic-operator-kstreams},1651633668,0
{consumergroup=__strimzi-topic-operator-kstreams},1651633673,0
{consumergroup=__strimzi-topic-operator-kstreams},1651633678,0
{consumergroup=__strimzi-topic-operator-kstreams},1651633683,0
{consumergroup=__strimzi-topic-operator-kstreams},1651633688,0
{consumergroup=__strimzi-topic-operator-kstreams},1651633693,0
{consumergroup=__strimzi-topic-operator-kstreams},1651633698,0
{consumergroup=__strimzi-topic-operator-kstreams},1651633703,0
{consumergroup=__strimzi-topic-operator-kstreams},1651633708,0
{consumergroup=__strimzi-topic-operator-kstreams},1651633713,0
{consumergroup=__strimzi-topic-operator-kstreams},1651633718,0
{consumergroup=__strimzi-topic-operator-kstreams},1651633723,0
{consumergroup=__strimzi-topic-operator-kstreams},1651633728,0
{consumergroup=__strimzi-topic-operator-kstreams},1651633733,0
{consumergroup=__strimzi-topic-operator-kstreams},1651633738,0
{consumergroup=__strimzi-topic-operator-kstreams},1651633743,0
{consumergroup=__strimzi-topic-operator-kstreams},1651633748,0
{consumergroup=__strimzi-topic-operator-kstreams},1651633753,0
{consumergroup=__strimzi-topic-operator-kstreams},1651633758,0
{consumergroup=__strimzi-topic-operator-kstreams},1651633763,0
{consumergroup=__strimzi-topic-operator-kstreams},1651633768,0
{consumergroup=__strimzi-topic-operator-kstreams},1651633773,0
{consumergroup=__strimzi-topic-operator-kstreams},1651633778,0
{consumergroup=__strimzi-topic-operator-kstreams},1651633783,0
{consumergroup=__strimzi-topic-operator-kstreams},1651633788,0
{consumergroup=__strimzi-topic-operator-kstreams},1651633793,0
{consumergroup=__strimzi-topic-operator-kstreams},1651633798,0
{consumergroup=__strimzi-topic-operator-kstreams},1651633803,0
{consumergroup=__strimzi-topic-operator-kstreams},1651633808,0
{consumergroup=__strimzi-topic-operator-kstreams},1651633813,0
{consumergroup=__strimzi-topic-operator-kstreams},1651633818,0
{consumergroup=__strimzi-topic-operator-kstreams},1651633823,0
{consumergroup=__strimzi-topic-operator-kstreams},1651633828,0
{consumergroup=__strimzi-topic-operator-kstreams},1651633833,0
{consumergroup=__strimzi-topic-operator-kstreams},1651633838,0
{consumergroup=__strimzi-topic-operator-kstreams},1651633843,0
{consumergroup=adapter-service},1651633623,298045
{consumergroup=adapter-service},1651633628,298045
{consumergroup=adapter-service},1651633633,298045
{consumergroup=adapter-service},1651633638,1059956
{consumergroup=adapter-service},1651633643,1059956
{consumergroup=adapter-service},1651633648,1059956
{consumergroup=adapter-service},1651633653,1298355
{consumergroup=adapter-service},1651633658,1298355
{consumergroup=adapter-service},1651633663,1298355
{consumergroup=adapter-service},1651633668,1366404
{consumergroup=adapter-service},1651633673,1366404
{consumergroup=adapter-service},1651633678,1366404
{consumergroup=adapter-service},1651633683,1249208
{consumergroup=adapter-service},1651633688,1249208
{consumergroup=adapter-service},1651633693,1249208
{consumergroup=adapter-service},1651633698,944348
{consumergroup=adapter-service},1651633703,944348
{consumergroup=adapter-service},1651633708,944348
{consumergroup=adapter-service},1651633713,547242
{consumergroup=adapter-service},1651633718,547242
{consumergroup=adapter-service},1651633723,547242
{consumergroup=adapter-service},1651633728,165404
{consumergroup=adapter-service},1651633733,165404
{consumergroup=adapter-service},1651633738,165404
{consumergroup=adapter-service},1651633743,133695
{consumergroup=adapter-service},1651633748,133695
{consumergroup=adapter-service},1651633753,133695
{consumergroup=adapter-service},1651633758,131505
{consumergroup=adapter-service},1651633763,131505
{consumergroup=adapter-service},1651633768,131505
{consumergroup=adapter-service},1651633773,142961
{consumergroup=adapter-service},1651633778,142961
{consumergroup=adapter-service},1651633783,142961
{consumergroup=adapter-service},1651633788,118406
{consumergroup=adapter-service},1651633793,118406
{consumergroup=adapter-service},1651633798,118406
{consumergroup=adapter-service},1651633803,117035
{consumergroup=adapter-service},1651633808,117035
{consumergroup=adapter-service},1651633813,117035
{consumergroup=adapter-service},1651633818,112533
{consumergroup=adapter-service},1651633823,112533
{consumergroup=adapter-service},1651633828,112533
{consumergroup=adapter-service},1651633833,120835
{consumergroup=adapter-service},1651633838,120835
{consumergroup=adapter-service},1651633843,120835
