labels,timestamp,value
{consumergroup=__strimzi-topic-operator-kstreams},1651596241,2
{consumergroup=__strimzi-topic-operator-kstreams},1651596246,2
{consumergroup=__strimzi-topic-operator-kstreams},1651596251,2
{consumergroup=__strimzi-topic-operator-kstreams},1651596256,0
{consumergroup=__strimzi-topic-operator-kstreams},1651596261,0
{consumergroup=__strimzi-topic-operator-kstreams},1651596266,0
{consumergroup=__strimzi-topic-operator-kstreams},1651596271,0
{consumergroup=__strimzi-topic-operator-kstreams},1651596276,0
{consumergroup=__strimzi-topic-operator-kstreams},1651596281,0
{consumergroup=__strimzi-topic-operator-kstreams},1651596286,0
{consumergroup=__strimzi-topic-operator-kstreams},1651596291,0
{consumergroup=__strimzi-topic-operator-kstreams},1651596296,0
{consumergroup=__strimzi-topic-operator-kstreams},1651596301,0
{consumergroup=__strimzi-topic-operator-kstreams},1651596306,0
{consumergroup=__strimzi-topic-operator-kstreams},1651596311,0
{consumergroup=__strimzi-topic-operator-kstreams},1651596316,0
{consumergroup=__strimzi-topic-operator-kstreams},1651596321,0
{consumergroup=__strimzi-topic-operator-kstreams},1651596326,0
{consumergroup=__strimzi-topic-operator-kstreams},1651596331,0
{consumergroup=__strimzi-topic-operator-kstreams},1651596336,0
{consumergroup=__strimzi-topic-operator-kstreams},1651596341,0
{consumergroup=__strimzi-topic-operator-kstreams},1651596346,0
{consumergroup=__strimzi-topic-operator-kstreams},1651596351,0
{consumergroup=__strimzi-topic-operator-kstreams},1651596356,0
{consumergroup=__strimzi-topic-operator-kstreams},1651596361,0
{consumergroup=__strimzi-topic-operator-kstreams},1651596366,0
{consumergroup=__strimzi-topic-operator-kstreams},1651596371,0
{consumergroup=__strimzi-topic-operator-kstreams},1651596376,0
{consumergroup=__strimzi-topic-operator-kstreams},1651596381,0
{consumergroup=__strimzi-topic-operator-kstreams},1651596386,0
{consumergroup=__strimzi-topic-operator-kstreams},1651596391,0
{consumergroup=__strimzi-topic-operator-kstreams},1651596396,0
{consumergroup=__strimzi-topic-operator-kstreams},1651596401,0
{consumergroup=__strimzi-topic-operator-kstreams},1651596406,0
{consumergroup=__strimzi-topic-operator-kstreams},1651596411,0
{consumergroup=__strimzi-topic-operator-kstreams},1651596416,0
{consumergroup=__strimzi-topic-operator-kstreams},1651596421,0
{consumergroup=__strimzi-topic-operator-kstreams},1651596426,0
{consumergroup=__strimzi-topic-operator-kstreams},1651596431,0
{consumergroup=__strimzi-topic-operator-kstreams},1651596436,0
{consumergroup=__strimzi-topic-operator-kstreams},1651596441,0
{consumergroup=__strimzi-topic-operator-kstreams},1651596446,0
{consumergroup=__strimzi-topic-operator-kstreams},1651596451,0
{consumergroup=__strimzi-topic-operator-kstreams},1651596456,0
{consumergroup=__strimzi-topic-operator-kstreams},1651596461,0
{consumergroup=__strimzi-topic-operator-kstreams},1651596466,0
{consumergroup=__strimzi-topic-operator-kstreams},1651596471,0
{consumergroup=__strimzi-topic-operator-kstreams},1651596476,0
{consumergroup=__strimzi-topic-operator-kstreams},1651596481,0
{consumergroup=__strimzi-topic-operator-kstreams},1651596486,0
{consumergroup=__strimzi-topic-operator-kstreams},1651596491,0
{consumergroup=__strimzi-topic-operator-kstreams},1651596496,0
{consumergroup=landscape-service},1651596286,3194374
{consumergroup=landscape-service},1651596291,3194374
{consumergroup=landscape-service},1651596296,3194374
{consumergroup=landscape-service},1651596301,9060565
{consumergroup=landscape-service},1651596306,9060565
{consumergroup=landscape-service},1651596311,9060565
{consumergroup=landscape-service},1651596316,11217650
{consumergroup=landscape-service},1651596321,11217650
{consumergroup=landscape-service},1651596326,11217650
{consumergroup=landscape-service},1651596331,11824418
{consumergroup=landscape-service},1651596336,11824418
{consumergroup=landscape-service},1651596341,11824418
{consumergroup=landscape-service},1651596346,13218799
{consumergroup=landscape-service},1651596351,13218799
{consumergroup=landscape-service},1651596356,13218799
{consumergroup=landscape-service},1651596361,14077447
{consumergroup=landscape-service},1651596366,14077447
{consumergroup=landscape-service},1651596371,14077447
{consumergroup=landscape-service},1651596376,14482392
{consumergroup=landscape-service},1651596381,14482392
{consumergroup=landscape-service},1651596386,14482392
{consumergroup=landscape-service},1651596391,14519894
{consumergroup=landscape-service},1651596396,14519894
{consumergroup=landscape-service},1651596401,14519894
{consumergroup=landscape-service},1651596406,14295209
{consumergroup=landscape-service},1651596411,14295209
{consumergroup=landscape-service},1651596416,14295209
{consumergroup=landscape-service},1651596421,13875366
{consumergroup=landscape-service},1651596426,13875366
{consumergroup=landscape-service},1651596431,13875366
{consumergroup=landscape-service},1651596436,14745369
{consumergroup=landscape-service},1651596441,14745369
{consumergroup=landscape-service},1651596446,14745369
{consumergroup=landscape-service},1651596451,14326513
{consumergroup=landscape-service},1651596456,14326513
{consumergroup=landscape-service},1651596461,14326513
{consumergroup=landscape-service},1651596466,14469236
{consumergroup=landscape-service},1651596471,14469236
{consumergroup=landscape-service},1651596476,14469236
{consumergroup=landscape-service},1651596481,14606238
{consumergroup=landscape-service},1651596486,14606238
{consumergroup=landscape-service},1651596491,14606238
{consumergroup=landscape-service},1651596496,15551875
