labels,timestamp,value
{consumergroup=__strimzi-topic-operator-kstreams},1651629161,0
{consumergroup=__strimzi-topic-operator-kstreams},1651629171,9
{consumergroup=__strimzi-topic-operator-kstreams},1651629176,9
{consumergroup=__strimzi-topic-operator-kstreams},1651629181,9
{consumergroup=__strimzi-topic-operator-kstreams},1651629186,24
{consumergroup=__strimzi-topic-operator-kstreams},1651629191,24
{consumergroup=__strimzi-topic-operator-kstreams},1651629196,24
{consumergroup=__strimzi-topic-operator-kstreams},1651629201,0
{consumergroup=__strimzi-topic-operator-kstreams},1651629206,0
{consumergroup=__strimzi-topic-operator-kstreams},1651629211,0
{consumergroup=__strimzi-topic-operator-kstreams},1651629216,0
{consumergroup=__strimzi-topic-operator-kstreams},1651629221,0
{consumergroup=__strimzi-topic-operator-kstreams},1651629226,0
{consumergroup=__strimzi-topic-operator-kstreams},1651629231,0
{consumergroup=__strimzi-topic-operator-kstreams},1651629236,0
{consumergroup=__strimzi-topic-operator-kstreams},1651629241,0
{consumergroup=__strimzi-topic-operator-kstreams},1651629246,0
{consumergroup=__strimzi-topic-operator-kstreams},1651629251,0
{consumergroup=__strimzi-topic-operator-kstreams},1651629256,0
{consumergroup=__strimzi-topic-operator-kstreams},1651629261,0
{consumergroup=__strimzi-topic-operator-kstreams},1651629266,0
{consumergroup=__strimzi-topic-operator-kstreams},1651629271,0
{consumergroup=__strimzi-topic-operator-kstreams},1651629276,0
{consumergroup=__strimzi-topic-operator-kstreams},1651629281,0
{consumergroup=__strimzi-topic-operator-kstreams},1651629286,0
{consumergroup=__strimzi-topic-operator-kstreams},1651629291,0
{consumergroup=__strimzi-topic-operator-kstreams},1651629296,0
{consumergroup=__strimzi-topic-operator-kstreams},1651629301,0
{consumergroup=__strimzi-topic-operator-kstreams},1651629306,0
{consumergroup=__strimzi-topic-operator-kstreams},1651629311,0
{consumergroup=__strimzi-topic-operator-kstreams},1651629316,0
{consumergroup=__strimzi-topic-operator-kstreams},1651629321,0
{consumergroup=__strimzi-topic-operator-kstreams},1651629326,0
{consumergroup=__strimzi-topic-operator-kstreams},1651629331,0
{consumergroup=__strimzi-topic-operator-kstreams},1651629336,0
{consumergroup=__strimzi-topic-operator-kstreams},1651629341,0
{consumergroup=__strimzi-topic-operator-kstreams},1651629346,0
{consumergroup=__strimzi-topic-operator-kstreams},1651629351,0
{consumergroup=__strimzi-topic-operator-kstreams},1651629356,0
{consumergroup=__strimzi-topic-operator-kstreams},1651629361,0
{consumergroup=__strimzi-topic-operator-kstreams},1651629366,0
{consumergroup=__strimzi-topic-operator-kstreams},1651629371,0
{consumergroup=__strimzi-topic-operator-kstreams},1651629376,0
{consumergroup=__strimzi-topic-operator-kstreams},1651629381,0
{consumergroup=__strimzi-topic-operator-kstreams},1651629386,0
{consumergroup=__strimzi-topic-operator-kstreams},1651629391,0
{consumergroup=__strimzi-topic-operator-kstreams},1651629396,0
{consumergroup=__strimzi-topic-operator-kstreams},1651629401,0
{consumergroup=__strimzi-topic-operator-kstreams},1651629406,0
{consumergroup=__strimzi-topic-operator-kstreams},1651629411,0
{consumergroup=__strimzi-topic-operator-kstreams},1651629416,0
{consumergroup=__strimzi-topic-operator-kstreams},1651629421,0
{consumergroup=adapter-service},1651629161,12754
{consumergroup=adapter-service},1651629201,85115
{consumergroup=adapter-service},1651629206,85115
{consumergroup=adapter-service},1651629211,85115
{consumergroup=adapter-service},1651629216,26017
{consumergroup=adapter-service},1651629221,26017
{consumergroup=adapter-service},1651629226,26017
{consumergroup=adapter-service},1651629231,28022
{consumergroup=adapter-service},1651629236,28022
{consumergroup=adapter-service},1651629241,28022
{consumergroup=adapter-service},1651629246,22654
{consumergroup=adapter-service},1651629251,22654
{consumergroup=adapter-service},1651629256,22654
{consumergroup=adapter-service},1651629261,24986
{consumergroup=adapter-service},1651629266,24986
{consumergroup=adapter-service},1651629271,24986
{consumergroup=adapter-service},1651629276,19249
{consumergroup=adapter-service},1651629281,19249
{consumergroup=adapter-service},1651629286,19249
{consumergroup=adapter-service},1651629291,24986
{consumergroup=adapter-service},1651629296,24986
{consumergroup=adapter-service},1651629301,24986
{consumergroup=adapter-service},1651629306,17745
{consumergroup=adapter-service},1651629311,17745
{consumergroup=adapter-service},1651629316,17745
{consumergroup=adapter-service},1651629321,21350
{consumergroup=adapter-service},1651629326,21350
{consumergroup=adapter-service},1651629331,21350
{consumergroup=adapter-service},1651629336,17293
{consumergroup=adapter-service},1651629341,17293
{consumergroup=adapter-service},1651629346,17293
{consumergroup=adapter-service},1651629351,20500
{consumergroup=adapter-service},1651629356,20500
{consumergroup=adapter-service},1651629361,20500
{consumergroup=adapter-service},1651629366,16089
{consumergroup=adapter-service},1651629371,16089
{consumergroup=adapter-service},1651629376,16089
{consumergroup=adapter-service},1651629381,19558
{consumergroup=adapter-service},1651629386,19558
{consumergroup=adapter-service},1651629391,19558
{consumergroup=adapter-service},1651629396,15106
{consumergroup=adapter-service},1651629401,15106
{consumergroup=adapter-service},1651629406,15106
{consumergroup=adapter-service},1651629411,19082
{consumergroup=adapter-service},1651629416,19082
{consumergroup=adapter-service},1651629421,19082
