labels,timestamp,value
{consumergroup=__strimzi-topic-operator-kstreams},1651585004,0
{consumergroup=__strimzi-topic-operator-kstreams},1651585009,0
{consumergroup=__strimzi-topic-operator-kstreams},1651585014,8
{consumergroup=__strimzi-topic-operator-kstreams},1651585019,8
{consumergroup=__strimzi-topic-operator-kstreams},1651585024,8
{consumergroup=__strimzi-topic-operator-kstreams},1651585029,0
{consumergroup=__strimzi-topic-operator-kstreams},1651585034,0
{consumergroup=__strimzi-topic-operator-kstreams},1651585039,0
{consumergroup=__strimzi-topic-operator-kstreams},1651585044,0
{consumergroup=__strimzi-topic-operator-kstreams},1651585049,0
{consumergroup=__strimzi-topic-operator-kstreams},1651585054,0
{consumergroup=__strimzi-topic-operator-kstreams},1651585059,0
{consumergroup=__strimzi-topic-operator-kstreams},1651585064,0
{consumergroup=__strimzi-topic-operator-kstreams},1651585069,0
{consumergroup=__strimzi-topic-operator-kstreams},1651585074,0
{consumergroup=__strimzi-topic-operator-kstreams},1651585079,0
{consumergroup=__strimzi-topic-operator-kstreams},1651585084,0
{consumergroup=__strimzi-topic-operator-kstreams},1651585089,0
{consumergroup=__strimzi-topic-operator-kstreams},1651585094,0
{consumergroup=__strimzi-topic-operator-kstreams},1651585099,0
{consumergroup=__strimzi-topic-operator-kstreams},1651585104,0
{consumergroup=__strimzi-topic-operator-kstreams},1651585109,0
{consumergroup=__strimzi-topic-operator-kstreams},1651585114,0
{consumergroup=__strimzi-topic-operator-kstreams},1651585119,0
{consumergroup=__strimzi-topic-operator-kstreams},1651585124,0
{consumergroup=__strimzi-topic-operator-kstreams},1651585129,0
{consumergroup=__strimzi-topic-operator-kstreams},1651585134,0
{consumergroup=__strimzi-topic-operator-kstreams},1651585139,0
{consumergroup=__strimzi-topic-operator-kstreams},1651585144,0
{consumergroup=__strimzi-topic-operator-kstreams},1651585149,0
{consumergroup=__strimzi-topic-operator-kstreams},1651585154,0
{consumergroup=__strimzi-topic-operator-kstreams},1651585159,0
{consumergroup=__strimzi-topic-operator-kstreams},1651585164,0
{consumergroup=__strimzi-topic-operator-kstreams},1651585169,0
{consumergroup=__strimzi-topic-operator-kstreams},1651585174,0
{consumergroup=__strimzi-topic-operator-kstreams},1651585179,0
{consumergroup=__strimzi-topic-operator-kstreams},1651585184,0
{consumergroup=__strimzi-topic-operator-kstreams},1651585189,0
{consumergroup=__strimzi-topic-operator-kstreams},1651585194,0
{consumergroup=__strimzi-topic-operator-kstreams},1651585199,0
{consumergroup=__strimzi-topic-operator-kstreams},1651585204,0
{consumergroup=__strimzi-topic-operator-kstreams},1651585209,0
{consumergroup=__strimzi-topic-operator-kstreams},1651585214,0
{consumergroup=__strimzi-topic-operator-kstreams},1651585219,0
{consumergroup=__strimzi-topic-operator-kstreams},1651585224,0
{consumergroup=__strimzi-topic-operator-kstreams},1651585229,0
{consumergroup=__strimzi-topic-operator-kstreams},1651585234,0
{consumergroup=__strimzi-topic-operator-kstreams},1651585239,0
{consumergroup=__strimzi-topic-operator-kstreams},1651585244,0
{consumergroup=__strimzi-topic-operator-kstreams},1651585249,0
{consumergroup=__strimzi-topic-operator-kstreams},1651585254,0
{consumergroup=__strimzi-topic-operator-kstreams},1651585259,0
{consumergroup=__strimzi-topic-operator-kstreams},1651585264,0
{consumergroup=landscape-service},1651585044,25959
{consumergroup=landscape-service},1651585049,25959
{consumergroup=landscape-service},1651585054,25959
{consumergroup=landscape-service},1651585059,6838777
{consumergroup=landscape-service},1651585064,6838777
{consumergroup=landscape-service},1651585069,6838777
{consumergroup=landscape-service},1651585074,11530435
{consumergroup=landscape-service},1651585079,11530435
{consumergroup=landscape-service},1651585084,11530435
{consumergroup=landscape-service},1651585089,16430834
{consumergroup=landscape-service},1651585094,16430834
{consumergroup=landscape-service},1651585099,16430834
{consumergroup=landscape-service},1651585104,20837690
{consumergroup=landscape-service},1651585109,20837690
{consumergroup=landscape-service},1651585114,20837690
{consumergroup=landscape-service},1651585119,25675021
{consumergroup=landscape-service},1651585124,25675021
{consumergroup=landscape-service},1651585129,25675021
{consumergroup=landscape-service},1651585134,30443070
{consumergroup=landscape-service},1651585139,30443070
{consumergroup=landscape-service},1651585144,30443070
{consumergroup=landscape-service},1651585149,34977559
{consumergroup=landscape-service},1651585154,34977559
{consumergroup=landscape-service},1651585159,34977559
{consumergroup=landscape-service},1651585164,39379107
{consumergroup=landscape-service},1651585169,39379107
{consumergroup=landscape-service},1651585174,39379107
{consumergroup=landscape-service},1651585179,43884968
{consumergroup=landscape-service},1651585184,43884968
{consumergroup=landscape-service},1651585189,43884968
{consumergroup=landscape-service},1651585194,48618655
{consumergroup=landscape-service},1651585199,48618655
{consumergroup=landscape-service},1651585204,48618655
{consumergroup=landscape-service},1651585209,52743254
{consumergroup=landscape-service},1651585214,52743254
{consumergroup=landscape-service},1651585219,52743254
{consumergroup=landscape-service},1651585224,57182794
{consumergroup=landscape-service},1651585229,57182794
{consumergroup=landscape-service},1651585234,57182794
{consumergroup=landscape-service},1651585239,62086141
{consumergroup=landscape-service},1651585244,62086141
{consumergroup=landscape-service},1651585249,62086141
{consumergroup=landscape-service},1651585254,66592371
{consumergroup=landscape-service},1651585259,66592371
{consumergroup=landscape-service},1651585264,66592371
{consumergroup=landscape-token-events-consumer},1651585044,0
{consumergroup=landscape-token-events-consumer},1651585049,0
{consumergroup=landscape-token-events-consumer},1651585054,0
{consumergroup=landscape-token-events-consumer},1651585059,0
{consumergroup=landscape-token-events-consumer},1651585064,0
{consumergroup=landscape-token-events-consumer},1651585069,0
{consumergroup=landscape-token-events-consumer},1651585074,0
{consumergroup=landscape-token-events-consumer},1651585079,0
{consumergroup=landscape-token-events-consumer},1651585084,0
{consumergroup=landscape-token-events-consumer},1651585089,0
{consumergroup=landscape-token-events-consumer},1651585094,0
{consumergroup=landscape-token-events-consumer},1651585099,0
{consumergroup=landscape-token-events-consumer},1651585104,0
{consumergroup=landscape-token-events-consumer},1651585109,0
{consumergroup=landscape-token-events-consumer},1651585114,0
{consumergroup=landscape-token-events-consumer},1651585119,0
{consumergroup=landscape-token-events-consumer},1651585124,0
{consumergroup=landscape-token-events-consumer},1651585129,0
{consumergroup=landscape-token-events-consumer},1651585134,0
{consumergroup=landscape-token-events-consumer},1651585139,0
{consumergroup=landscape-token-events-consumer},1651585144,0
{consumergroup=landscape-token-events-consumer},1651585149,0
{consumergroup=landscape-token-events-consumer},1651585154,0
{consumergroup=landscape-token-events-consumer},1651585159,0
{consumergroup=landscape-token-events-consumer},1651585164,0
{consumergroup=landscape-token-events-consumer},1651585169,0
{consumergroup=landscape-token-events-consumer},1651585174,0
{consumergroup=landscape-token-events-consumer},1651585179,0
{consumergroup=landscape-token-events-consumer},1651585184,0
{consumergroup=landscape-token-events-consumer},1651585189,0
{consumergroup=landscape-token-events-consumer},1651585194,0
{consumergroup=landscape-token-events-consumer},1651585199,0
{consumergroup=landscape-token-events-consumer},1651585204,0
{consumergroup=landscape-token-events-consumer},1651585209,0
{consumergroup=landscape-token-events-consumer},1651585214,0
{consumergroup=landscape-token-events-consumer},1651585219,0
{consumergroup=landscape-token-events-consumer},1651585224,0
{consumergroup=landscape-token-events-consumer},1651585229,0
{consumergroup=landscape-token-events-consumer},1651585234,0
{consumergroup=landscape-token-events-consumer},1651585239,0
{consumergroup=landscape-token-events-consumer},1651585244,0
{consumergroup=landscape-token-events-consumer},1651585249,0
{consumergroup=landscape-token-events-consumer},1651585254,0
{consumergroup=landscape-token-events-consumer},1651585259,0
{consumergroup=landscape-token-events-consumer},1651585264,0
