labels,timestamp,value
{job=theodolite-stu200776/combined-trace-podmonitor},1651582892,0.11975849262537132
{job=theodolite-stu200776/combined-trace-podmonitor},1651582897,3.5050151352092644
{job=theodolite-stu200776/combined-trace-podmonitor},1651582902,4.795009056324973
{job=theodolite-stu200776/combined-trace-podmonitor},1651582907,3.992443375326035
{job=theodolite-stu200776/combined-trace-podmonitor},1651582912,3.6915083628104917
{job=theodolite-stu200776/combined-trace-podmonitor},1651582917,3.1961107424102133
{job=theodolite-stu200776/combined-trace-podmonitor},1651582922,3.0011252249821454
{job=theodolite-stu200776/combined-trace-podmonitor},1651582927,0.9138318837974713
{job=theodolite-stu200776/combined-trace-podmonitor},1651582932,0
{job=theodolite-stu200776/combined-trace-podmonitor},1651582937,0
{job=theodolite-stu200776/combined-trace-podmonitor},1651582942,0
{job=theodolite-stu200776/combined-trace-podmonitor},1651582947,0
{job=theodolite-stu200776/combined-trace-podmonitor},1651582952,0
{job=theodolite-stu200776/combined-trace-podmonitor},1651582957,0
{job=theodolite-stu200776/combined-trace-podmonitor},1651582962,0
{job=theodolite-stu200776/combined-trace-podmonitor},1651582967,0
{job=theodolite-stu200776/combined-trace-podmonitor},1651582972,0
{job=theodolite-stu200776/combined-trace-podmonitor},1651582977,0
{job=theodolite-stu200776/combined-trace-podmonitor},1651582982,0
{job=theodolite-stu200776/combined-trace-podmonitor},1651582987,0
{job=theodolite-stu200776/combined-trace-podmonitor},1651582992,0
{job=theodolite-stu200776/combined-trace-podmonitor},1651582997,0
{job=theodolite-stu200776/combined-trace-podmonitor},1651583002,0
{job=theodolite-stu200776/combined-trace-podmonitor},1651583007,0
{job=theodolite-stu200776/combined-trace-podmonitor},1651583012,0
{job=theodolite-stu200776/combined-trace-podmonitor},1651583017,0
{job=theodolite-stu200776/combined-trace-podmonitor},1651583022,0
{job=theodolite-stu200776/combined-trace-podmonitor},1651583027,0
{job=theodolite-stu200776/combined-trace-podmonitor},1651583032,0
{job=theodolite-stu200776/combined-trace-podmonitor},1651583037,0
{job=theodolite-stu200776/combined-trace-podmonitor},1651583042,0
{job=theodolite-stu200776/combined-trace-podmonitor},1651583047,0
{job=theodolite-stu200776/combined-trace-podmonitor},1651583052,0
{job=theodolite-stu200776/combined-trace-podmonitor},1651583057,0
{job=theodolite-stu200776/combined-trace-podmonitor},1651583062,0
{job=theodolite-stu200776/combined-trace-podmonitor},1651583067,0
{job=theodolite-stu200776/combined-trace-podmonitor},1651583072,0
{job=theodolite-stu200776/combined-trace-podmonitor},1651583077,0
{job=theodolite-stu200776/combined-trace-podmonitor},1651583082,0
{job=theodolite-stu200776/combined-trace-podmonitor},1651583087,0
{job=theodolite-stu200776/combined-trace-podmonitor},1651583092,0
{job=theodolite-stu200776/combined-trace-podmonitor},1651583097,0
{job=theodolite-stu200776/combined-trace-podmonitor},1651583102,0
{job=theodolite-stu200776/combined-trace-podmonitor},1651583107,0
{job=theodolite-stu200776/combined-trace-podmonitor},1651583112,0
{job=theodolite-stu200776/combined-trace-podmonitor},1651583117,0
{job=theodolite-stu200776/combined-trace-podmonitor},1651583122,0
{job=theodolite-stu200776/combined-trace-podmonitor},1651583127,0
{job=theodolite-stu200776/combined-trace-podmonitor},1651583132,0
{job=theodolite-stu200776/combined-trace-podmonitor},1651583137,0
{job=theodolite-stu200776/combined-trace-podmonitor},1651583142,0
{job=theodolite-stu200776/combined-trace-podmonitor},1651583147,0
{job=theodolite-stu200776/combined-trace-podmonitor},1651583152,0
{job=theodolite-stu200776/combined-trace-podmonitor},1651583157,0
{job=theodolite-stu200776/combined-trace-podmonitor},1651583162,0
{job=theodolite-stu200776/combined-trace-podmonitor},1651583167,0
{job=theodolite-stu200776/combined-trace-podmonitor},1651583172,0
{job=theodolite-stu200776/combined-trace-podmonitor},1651583177,0
{job=theodolite-stu200776/combined-trace-podmonitor},1651583182,0
{job=theodolite-stu200776/combined-trace-podmonitor},1651583187,0
{job=theodolite-stu200776/combined-trace-podmonitor},1651583192,0
{job=theodolite-stu200776/combined-trace-podmonitor},1651583197,0
{job=theodolite-stu200776/combined-trace-podmonitor},1651583202,0
{job=theodolite-stu200776/combined-trace-podmonitor},1651583207,0
{job=theodolite-stu200776/combined-trace-podmonitor},1651583212,0
{job=theodolite-stu200776/combined-trace-podmonitor},1651583217,0
{job=theodolite-stu200776/combined-trace-podmonitor},1651583222,0
{job=theodolite-stu200776/combined-trace-podmonitor},1651583227,109.45883736774894
{job=theodolite-stu200776/combined-trace-podmonitor},1651583232,159.22335471222996
{job=theodolite-stu200776/combined-trace-podmonitor},1651583237,146.24657979603163
{job=theodolite-stu200776/combined-trace-podmonitor},1651583242,146.04459968106892
{job=theodolite-stu200776/combined-trace-podmonitor},1651583247,146.56329702167878
{job=theodolite-stu200776/combined-trace-podmonitor},1651583252,138.68536215926176
{job=theodolite-stu200776/combined-trace-podmonitor},1651583257,160.5172381364324
{job=theodolite-stu200776/combined-trace-podmonitor},1651583262,159.23475571034507
