labels,timestamp,value
{consumergroup=__strimzi-topic-operator-kstreams},1651610621,15
{consumergroup=__strimzi-topic-operator-kstreams},1651610626,15
{consumergroup=__strimzi-topic-operator-kstreams},1651610631,15
{consumergroup=__strimzi-topic-operator-kstreams},1651610636,0
{consumergroup=__strimzi-topic-operator-kstreams},1651610641,0
{consumergroup=__strimzi-topic-operator-kstreams},1651610646,0
{consumergroup=__strimzi-topic-operator-kstreams},1651610651,0
{consumergroup=__strimzi-topic-operator-kstreams},1651610656,0
{consumergroup=__strimzi-topic-operator-kstreams},1651610661,0
{consumergroup=__strimzi-topic-operator-kstreams},1651610666,0
{consumergroup=__strimzi-topic-operator-kstreams},1651610671,0
{consumergroup=__strimzi-topic-operator-kstreams},1651610676,0
{consumergroup=__strimzi-topic-operator-kstreams},1651610681,0
{consumergroup=__strimzi-topic-operator-kstreams},1651610686,0
{consumergroup=__strimzi-topic-operator-kstreams},1651610691,0
{consumergroup=__strimzi-topic-operator-kstreams},1651610696,0
{consumergroup=__strimzi-topic-operator-kstreams},1651610701,0
{consumergroup=__strimzi-topic-operator-kstreams},1651610706,0
{consumergroup=__strimzi-topic-operator-kstreams},1651610711,0
{consumergroup=__strimzi-topic-operator-kstreams},1651610716,0
{consumergroup=__strimzi-topic-operator-kstreams},1651610721,0
{consumergroup=__strimzi-topic-operator-kstreams},1651610726,0
{consumergroup=__strimzi-topic-operator-kstreams},1651610731,0
{consumergroup=__strimzi-topic-operator-kstreams},1651610736,0
{consumergroup=__strimzi-topic-operator-kstreams},1651610741,0
{consumergroup=__strimzi-topic-operator-kstreams},1651610746,0
{consumergroup=__strimzi-topic-operator-kstreams},1651610751,0
{consumergroup=__strimzi-topic-operator-kstreams},1651610756,0
{consumergroup=__strimzi-topic-operator-kstreams},1651610761,0
{consumergroup=__strimzi-topic-operator-kstreams},1651610766,0
{consumergroup=__strimzi-topic-operator-kstreams},1651610771,0
{consumergroup=__strimzi-topic-operator-kstreams},1651610776,0
{consumergroup=__strimzi-topic-operator-kstreams},1651610781,0
{consumergroup=__strimzi-topic-operator-kstreams},1651610786,0
{consumergroup=__strimzi-topic-operator-kstreams},1651610791,0
{consumergroup=__strimzi-topic-operator-kstreams},1651610796,0
{consumergroup=__strimzi-topic-operator-kstreams},1651610801,0
{consumergroup=__strimzi-topic-operator-kstreams},1651610806,0
{consumergroup=__strimzi-topic-operator-kstreams},1651610811,0
{consumergroup=__strimzi-topic-operator-kstreams},1651610816,0
{consumergroup=__strimzi-topic-operator-kstreams},1651610821,0
{consumergroup=__strimzi-topic-operator-kstreams},1651610826,0
{consumergroup=__strimzi-topic-operator-kstreams},1651610831,0
{consumergroup=__strimzi-topic-operator-kstreams},1651610836,0
{consumergroup=__strimzi-topic-operator-kstreams},1651610841,0
{consumergroup=__strimzi-topic-operator-kstreams},1651610846,0
{consumergroup=__strimzi-topic-operator-kstreams},1651610851,0
{consumergroup=__strimzi-topic-operator-kstreams},1651610856,0
{consumergroup=__strimzi-topic-operator-kstreams},1651610861,0
{consumergroup=__strimzi-topic-operator-kstreams},1651610866,0
{consumergroup=__strimzi-topic-operator-kstreams},1651610871,0
{consumergroup=adapter-service},1651610651,219073
{consumergroup=adapter-service},1651610656,219073
{consumergroup=adapter-service},1651610661,219073
{consumergroup=adapter-service},1651610666,540258
{consumergroup=adapter-service},1651610671,540258
{consumergroup=adapter-service},1651610676,540258
{consumergroup=adapter-service},1651610681,788081
{consumergroup=adapter-service},1651610686,788081
{consumergroup=adapter-service},1651610691,788081
{consumergroup=adapter-service},1651610696,1014921
{consumergroup=adapter-service},1651610701,1014921
{consumergroup=adapter-service},1651610706,1014921
{consumergroup=adapter-service},1651610711,1064964
{consumergroup=adapter-service},1651610716,1064964
{consumergroup=adapter-service},1651610721,1064964
{consumergroup=adapter-service},1651610726,1173478
{consumergroup=adapter-service},1651610731,1173478
{consumergroup=adapter-service},1651610736,1173478
{consumergroup=adapter-service},1651610741,1039057
{consumergroup=adapter-service},1651610746,1039057
{consumergroup=adapter-service},1651610751,1039057
{consumergroup=adapter-service},1651610756,972307
{consumergroup=adapter-service},1651610761,972307
{consumergroup=adapter-service},1651610766,972307
{consumergroup=adapter-service},1651610771,844509
{consumergroup=adapter-service},1651610776,844509
{consumergroup=adapter-service},1651610781,844509
{consumergroup=adapter-service},1651610786,628928
{consumergroup=adapter-service},1651610791,628928
{consumergroup=adapter-service},1651610796,628928
{consumergroup=adapter-service},1651610801,477217
{consumergroup=adapter-service},1651610806,477217
{consumergroup=adapter-service},1651610811,477217
{consumergroup=adapter-service},1651610816,288886
{consumergroup=adapter-service},1651610821,288886
{consumergroup=adapter-service},1651610826,288886
{consumergroup=adapter-service},1651610831,232997
{consumergroup=adapter-service},1651610836,232997
{consumergroup=adapter-service},1651610841,232997
{consumergroup=adapter-service},1651610846,133046
{consumergroup=adapter-service},1651610851,133046
{consumergroup=adapter-service},1651610856,133046
{consumergroup=adapter-service},1651610861,118580
{consumergroup=adapter-service},1651610866,118580
{consumergroup=adapter-service},1651610871,118580
