labels,timestamp,value
{consumergroup=__strimzi-topic-operator-kstreams},1651605004,0
{consumergroup=__strimzi-topic-operator-kstreams},1651605009,0
{consumergroup=__strimzi-topic-operator-kstreams},1651605014,0
{consumergroup=__strimzi-topic-operator-kstreams},1651605019,0
{consumergroup=__strimzi-topic-operator-kstreams},1651605024,0
{consumergroup=__strimzi-topic-operator-kstreams},1651605029,0
{consumergroup=__strimzi-topic-operator-kstreams},1651605034,0
{consumergroup=__strimzi-topic-operator-kstreams},1651605039,0
{consumergroup=__strimzi-topic-operator-kstreams},1651605044,0
{consumergroup=__strimzi-topic-operator-kstreams},1651605049,0
{consumergroup=__strimzi-topic-operator-kstreams},1651605054,0
{consumergroup=__strimzi-topic-operator-kstreams},1651605059,0
{consumergroup=__strimzi-topic-operator-kstreams},1651605064,0
{consumergroup=__strimzi-topic-operator-kstreams},1651605069,0
{consumergroup=__strimzi-topic-operator-kstreams},1651605074,0
{consumergroup=__strimzi-topic-operator-kstreams},1651605079,0
{consumergroup=__strimzi-topic-operator-kstreams},1651605084,0
{consumergroup=__strimzi-topic-operator-kstreams},1651605089,0
{consumergroup=__strimzi-topic-operator-kstreams},1651605094,0
{consumergroup=__strimzi-topic-operator-kstreams},1651605099,0
{consumergroup=__strimzi-topic-operator-kstreams},1651605104,0
{consumergroup=__strimzi-topic-operator-kstreams},1651605109,0
{consumergroup=__strimzi-topic-operator-kstreams},1651605114,0
{consumergroup=__strimzi-topic-operator-kstreams},1651605119,0
{consumergroup=__strimzi-topic-operator-kstreams},1651605124,0
{consumergroup=__strimzi-topic-operator-kstreams},1651605129,0
{consumergroup=__strimzi-topic-operator-kstreams},1651605134,0
{consumergroup=__strimzi-topic-operator-kstreams},1651605139,0
{consumergroup=__strimzi-topic-operator-kstreams},1651605144,0
{consumergroup=__strimzi-topic-operator-kstreams},1651605149,0
{consumergroup=__strimzi-topic-operator-kstreams},1651605154,0
{consumergroup=__strimzi-topic-operator-kstreams},1651605159,0
{consumergroup=__strimzi-topic-operator-kstreams},1651605164,0
{consumergroup=__strimzi-topic-operator-kstreams},1651605169,0
{consumergroup=__strimzi-topic-operator-kstreams},1651605174,0
{consumergroup=__strimzi-topic-operator-kstreams},1651605179,0
{consumergroup=__strimzi-topic-operator-kstreams},1651605184,0
{consumergroup=__strimzi-topic-operator-kstreams},1651605189,0
{consumergroup=__strimzi-topic-operator-kstreams},1651605194,0
{consumergroup=__strimzi-topic-operator-kstreams},1651605199,0
{consumergroup=__strimzi-topic-operator-kstreams},1651605204,0
{consumergroup=__strimzi-topic-operator-kstreams},1651605209,0
{consumergroup=__strimzi-topic-operator-kstreams},1651605214,0
{consumergroup=__strimzi-topic-operator-kstreams},1651605219,0
{consumergroup=__strimzi-topic-operator-kstreams},1651605224,0
{consumergroup=__strimzi-topic-operator-kstreams},1651605229,0
{consumergroup=__strimzi-topic-operator-kstreams},1651605234,0
{consumergroup=__strimzi-topic-operator-kstreams},1651605239,0
{consumergroup=__strimzi-topic-operator-kstreams},1651605244,0
{consumergroup=__strimzi-topic-operator-kstreams},1651605249,0
{consumergroup=__strimzi-topic-operator-kstreams},1651605254,0
{consumergroup=landscape-service},1651605034,1912
{consumergroup=landscape-service},1651605039,1912
{consumergroup=landscape-service},1651605044,1912
{consumergroup=landscape-service},1651605049,5112841
{consumergroup=landscape-service},1651605054,5112841
{consumergroup=landscape-service},1651605059,5112841
{consumergroup=landscape-service},1651605064,9306010
{consumergroup=landscape-service},1651605069,9306010
{consumergroup=landscape-service},1651605074,9306010
{consumergroup=landscape-service},1651605079,11997625
{consumergroup=landscape-service},1651605084,11997625
{consumergroup=landscape-service},1651605089,11997625
{consumergroup=landscape-service},1651605094,13505851
{consumergroup=landscape-service},1651605099,13505851
{consumergroup=landscape-service},1651605104,13505851
{consumergroup=landscape-service},1651605109,15025092
{consumergroup=landscape-service},1651605114,15025092
{consumergroup=landscape-service},1651605119,15025092
{consumergroup=landscape-service},1651605124,16063917
{consumergroup=landscape-service},1651605129,16063917
{consumergroup=landscape-service},1651605134,16063917
{consumergroup=landscape-service},1651605139,16990137
{consumergroup=landscape-service},1651605144,16990137
{consumergroup=landscape-service},1651605149,16990137
{consumergroup=landscape-service},1651605154,18087470
{consumergroup=landscape-service},1651605159,18087470
{consumergroup=landscape-service},1651605164,18087470
{consumergroup=landscape-service},1651605169,18840656
{consumergroup=landscape-service},1651605174,18840656
{consumergroup=landscape-service},1651605179,18840656
{consumergroup=landscape-service},1651605184,19239301
{consumergroup=landscape-service},1651605189,19239301
{consumergroup=landscape-service},1651605194,19239301
{consumergroup=landscape-service},1651605199,20269003
{consumergroup=landscape-service},1651605204,20269003
{consumergroup=landscape-service},1651605209,20269003
{consumergroup=landscape-service},1651605214,20826172
{consumergroup=landscape-service},1651605219,20826172
{consumergroup=landscape-service},1651605224,20826172
{consumergroup=landscape-service},1651605229,20652880
{consumergroup=landscape-service},1651605234,20652880
{consumergroup=landscape-service},1651605239,20652880
{consumergroup=landscape-service},1651605244,21522170
{consumergroup=landscape-service},1651605249,21522170
{consumergroup=landscape-service},1651605254,21522170
