labels,timestamp,value
{consumergroup=__strimzi-topic-operator-kstreams},1651604350,4
{consumergroup=__strimzi-topic-operator-kstreams},1651604355,4
{consumergroup=__strimzi-topic-operator-kstreams},1651604360,4
{consumergroup=__strimzi-topic-operator-kstreams},1651604365,8
{consumergroup=__strimzi-topic-operator-kstreams},1651604370,8
{consumergroup=__strimzi-topic-operator-kstreams},1651604375,8
{consumergroup=__strimzi-topic-operator-kstreams},1651604380,0
{consumergroup=__strimzi-topic-operator-kstreams},1651604385,0
{consumergroup=__strimzi-topic-operator-kstreams},1651604390,0
{consumergroup=__strimzi-topic-operator-kstreams},1651604395,0
{consumergroup=__strimzi-topic-operator-kstreams},1651604400,0
{consumergroup=__strimzi-topic-operator-kstreams},1651604405,0
{consumergroup=__strimzi-topic-operator-kstreams},1651604410,0
{consumergroup=__strimzi-topic-operator-kstreams},1651604415,0
{consumergroup=__strimzi-topic-operator-kstreams},1651604420,0
{consumergroup=__strimzi-topic-operator-kstreams},1651604425,0
{consumergroup=__strimzi-topic-operator-kstreams},1651604430,0
{consumergroup=__strimzi-topic-operator-kstreams},1651604435,0
{consumergroup=__strimzi-topic-operator-kstreams},1651604440,0
{consumergroup=__strimzi-topic-operator-kstreams},1651604445,0
{consumergroup=__strimzi-topic-operator-kstreams},1651604450,0
{consumergroup=__strimzi-topic-operator-kstreams},1651604455,0
{consumergroup=__strimzi-topic-operator-kstreams},1651604460,0
{consumergroup=__strimzi-topic-operator-kstreams},1651604465,0
{consumergroup=__strimzi-topic-operator-kstreams},1651604470,0
{consumergroup=__strimzi-topic-operator-kstreams},1651604475,0
{consumergroup=__strimzi-topic-operator-kstreams},1651604480,0
{consumergroup=__strimzi-topic-operator-kstreams},1651604485,0
{consumergroup=__strimzi-topic-operator-kstreams},1651604490,0
{consumergroup=__strimzi-topic-operator-kstreams},1651604495,0
{consumergroup=__strimzi-topic-operator-kstreams},1651604500,0
{consumergroup=__strimzi-topic-operator-kstreams},1651604505,0
{consumergroup=__strimzi-topic-operator-kstreams},1651604510,0
{consumergroup=__strimzi-topic-operator-kstreams},1651604515,0
{consumergroup=__strimzi-topic-operator-kstreams},1651604520,0
{consumergroup=__strimzi-topic-operator-kstreams},1651604525,0
{consumergroup=__strimzi-topic-operator-kstreams},1651604530,0
{consumergroup=__strimzi-topic-operator-kstreams},1651604535,0
{consumergroup=__strimzi-topic-operator-kstreams},1651604540,0
{consumergroup=__strimzi-topic-operator-kstreams},1651604545,0
{consumergroup=__strimzi-topic-operator-kstreams},1651604550,0
{consumergroup=__strimzi-topic-operator-kstreams},1651604555,0
{consumergroup=__strimzi-topic-operator-kstreams},1651604560,0
{consumergroup=__strimzi-topic-operator-kstreams},1651604565,0
{consumergroup=__strimzi-topic-operator-kstreams},1651604570,0
{consumergroup=__strimzi-topic-operator-kstreams},1651604575,0
{consumergroup=__strimzi-topic-operator-kstreams},1651604580,0
{consumergroup=__strimzi-topic-operator-kstreams},1651604585,0
{consumergroup=__strimzi-topic-operator-kstreams},1651604590,0
{consumergroup=__strimzi-topic-operator-kstreams},1651604595,0
{consumergroup=__strimzi-topic-operator-kstreams},1651604600,0
{consumergroup=__strimzi-topic-operator-kstreams},1651604605,0
{consumergroup=landscape-service},1651604395,4256380
{consumergroup=landscape-service},1651604400,4256380
{consumergroup=landscape-service},1651604405,4256380
{consumergroup=landscape-service},1651604410,8729190
{consumergroup=landscape-service},1651604415,8729190
{consumergroup=landscape-service},1651604420,8729190
{consumergroup=landscape-service},1651604425,9040166
{consumergroup=landscape-service},1651604430,9040166
{consumergroup=landscape-service},1651604435,9040166
{consumergroup=landscape-service},1651604440,10482573
{consumergroup=landscape-service},1651604445,10482573
{consumergroup=landscape-service},1651604450,10482573
{consumergroup=landscape-service},1651604455,10547719
{consumergroup=landscape-service},1651604460,10547719
{consumergroup=landscape-service},1651604465,10547719
{consumergroup=landscape-service},1651604470,11599952
{consumergroup=landscape-service},1651604475,11599952
{consumergroup=landscape-service},1651604480,11599952
{consumergroup=landscape-service},1651604485,11172418
{consumergroup=landscape-service},1651604490,11172418
{consumergroup=landscape-service},1651604495,11172418
{consumergroup=landscape-service},1651604500,11660449
{consumergroup=landscape-service},1651604505,11660449
{consumergroup=landscape-service},1651604510,11660449
{consumergroup=landscape-service},1651604515,11765472
{consumergroup=landscape-service},1651604520,11765472
{consumergroup=landscape-service},1651604525,11765472
{consumergroup=landscape-service},1651604530,10477649
{consumergroup=landscape-service},1651604535,10477649
{consumergroup=landscape-service},1651604540,10477649
{consumergroup=landscape-service},1651604545,10962835
{consumergroup=landscape-service},1651604550,10962835
{consumergroup=landscape-service},1651604555,10962835
{consumergroup=landscape-service},1651604560,10213461
{consumergroup=landscape-service},1651604565,10213461
{consumergroup=landscape-service},1651604570,10213461
{consumergroup=landscape-service},1651604575,10586807
{consumergroup=landscape-service},1651604580,10586807
{consumergroup=landscape-service},1651604585,10586807
{consumergroup=landscape-service},1651604590,10252309
{consumergroup=landscape-service},1651604595,10252309
{consumergroup=landscape-service},1651604600,10252309
{consumergroup=landscape-service},1651604605,10665330
