labels,timestamp,value
{consumergroup=__strimzi-topic-operator-kstreams},1651599690,8
{consumergroup=__strimzi-topic-operator-kstreams},1651599695,8
{consumergroup=__strimzi-topic-operator-kstreams},1651599700,8
{consumergroup=__strimzi-topic-operator-kstreams},1651599705,8
{consumergroup=__strimzi-topic-operator-kstreams},1651599710,8
{consumergroup=__strimzi-topic-operator-kstreams},1651599715,8
{consumergroup=__strimzi-topic-operator-kstreams},1651599720,0
{consumergroup=__strimzi-topic-operator-kstreams},1651599725,0
{consumergroup=__strimzi-topic-operator-kstreams},1651599730,0
{consumergroup=__strimzi-topic-operator-kstreams},1651599735,0
{consumergroup=__strimzi-topic-operator-kstreams},1651599740,0
{consumergroup=__strimzi-topic-operator-kstreams},1651599745,0
{consumergroup=__strimzi-topic-operator-kstreams},1651599750,0
{consumergroup=__strimzi-topic-operator-kstreams},1651599755,0
{consumergroup=__strimzi-topic-operator-kstreams},1651599760,0
{consumergroup=__strimzi-topic-operator-kstreams},1651599765,0
{consumergroup=__strimzi-topic-operator-kstreams},1651599770,0
{consumergroup=__strimzi-topic-operator-kstreams},1651599775,0
{consumergroup=__strimzi-topic-operator-kstreams},1651599780,0
{consumergroup=__strimzi-topic-operator-kstreams},1651599785,0
{consumergroup=__strimzi-topic-operator-kstreams},1651599790,0
{consumergroup=__strimzi-topic-operator-kstreams},1651599795,0
{consumergroup=__strimzi-topic-operator-kstreams},1651599800,0
{consumergroup=__strimzi-topic-operator-kstreams},1651599805,0
{consumergroup=__strimzi-topic-operator-kstreams},1651599810,0
{consumergroup=__strimzi-topic-operator-kstreams},1651599815,0
{consumergroup=__strimzi-topic-operator-kstreams},1651599820,0
{consumergroup=__strimzi-topic-operator-kstreams},1651599825,0
{consumergroup=__strimzi-topic-operator-kstreams},1651599830,0
{consumergroup=__strimzi-topic-operator-kstreams},1651599835,0
{consumergroup=__strimzi-topic-operator-kstreams},1651599840,0
{consumergroup=__strimzi-topic-operator-kstreams},1651599845,0
{consumergroup=__strimzi-topic-operator-kstreams},1651599850,0
{consumergroup=__strimzi-topic-operator-kstreams},1651599855,0
{consumergroup=__strimzi-topic-operator-kstreams},1651599860,0
{consumergroup=__strimzi-topic-operator-kstreams},1651599865,0
{consumergroup=__strimzi-topic-operator-kstreams},1651599870,0
{consumergroup=__strimzi-topic-operator-kstreams},1651599875,0
{consumergroup=__strimzi-topic-operator-kstreams},1651599880,0
{consumergroup=__strimzi-topic-operator-kstreams},1651599885,0
{consumergroup=__strimzi-topic-operator-kstreams},1651599890,0
{consumergroup=__strimzi-topic-operator-kstreams},1651599895,0
{consumergroup=__strimzi-topic-operator-kstreams},1651599900,0
{consumergroup=__strimzi-topic-operator-kstreams},1651599905,0
{consumergroup=__strimzi-topic-operator-kstreams},1651599910,0
{consumergroup=__strimzi-topic-operator-kstreams},1651599915,0
{consumergroup=__strimzi-topic-operator-kstreams},1651599920,0
{consumergroup=__strimzi-topic-operator-kstreams},1651599925,0
{consumergroup=__strimzi-topic-operator-kstreams},1651599930,0
{consumergroup=__strimzi-topic-operator-kstreams},1651599935,0
{consumergroup=__strimzi-topic-operator-kstreams},1651599940,0
{consumergroup=landscape-service},1651599735,2441407
{consumergroup=landscape-service},1651599740,2441407
{consumergroup=landscape-service},1651599745,2441407
{consumergroup=landscape-service},1651599750,4022708
{consumergroup=landscape-service},1651599755,4022708
{consumergroup=landscape-service},1651599760,4022708
{consumergroup=landscape-service},1651599765,4062389
{consumergroup=landscape-service},1651599770,4062389
{consumergroup=landscape-service},1651599775,4062389
{consumergroup=landscape-service},1651599780,4571235
{consumergroup=landscape-service},1651599785,4571235
{consumergroup=landscape-service},1651599790,4571235
{consumergroup=landscape-service},1651599795,4530236
{consumergroup=landscape-service},1651599800,4530236
{consumergroup=landscape-service},1651599805,4530236
{consumergroup=landscape-service},1651599810,4901633
{consumergroup=landscape-service},1651599815,4901633
{consumergroup=landscape-service},1651599820,4901633
{consumergroup=landscape-service},1651599825,4426276
{consumergroup=landscape-service},1651599830,4426276
{consumergroup=landscape-service},1651599835,4426276
{consumergroup=landscape-service},1651599840,4666516
{consumergroup=landscape-service},1651599845,4666516
{consumergroup=landscape-service},1651599850,4666516
{consumergroup=landscape-service},1651599855,4138927
{consumergroup=landscape-service},1651599860,4138927
{consumergroup=landscape-service},1651599865,4138927
{consumergroup=landscape-service},1651599870,4158395
{consumergroup=landscape-service},1651599875,4158395
{consumergroup=landscape-service},1651599880,4158395
{consumergroup=landscape-service},1651599885,3661309
{consumergroup=landscape-service},1651599890,3661309
{consumergroup=landscape-service},1651599895,3661309
{consumergroup=landscape-service},1651599900,3899874
{consumergroup=landscape-service},1651599905,3899874
{consumergroup=landscape-service},1651599910,3899874
{consumergroup=landscape-service},1651599915,3441640
{consumergroup=landscape-service},1651599920,3441640
{consumergroup=landscape-service},1651599925,3441640
{consumergroup=landscape-service},1651599930,4009261
{consumergroup=landscape-service},1651599935,4009261
{consumergroup=landscape-service},1651599940,4009261
