labels,timestamp,value
{consumergroup=__strimzi-topic-operator-kstreams},1651623841,8
{consumergroup=__strimzi-topic-operator-kstreams},1651623846,8
{consumergroup=__strimzi-topic-operator-kstreams},1651623851,8
{consumergroup=__strimzi-topic-operator-kstreams},1651623856,8
{consumergroup=__strimzi-topic-operator-kstreams},1651623861,8
{consumergroup=__strimzi-topic-operator-kstreams},1651623866,8
{consumergroup=__strimzi-topic-operator-kstreams},1651623871,0
{consumergroup=__strimzi-topic-operator-kstreams},1651623876,0
{consumergroup=__strimzi-topic-operator-kstreams},1651623881,0
{consumergroup=__strimzi-topic-operator-kstreams},1651623886,0
{consumergroup=__strimzi-topic-operator-kstreams},1651623891,0
{consumergroup=__strimzi-topic-operator-kstreams},1651623896,0
{consumergroup=__strimzi-topic-operator-kstreams},1651623901,0
{consumergroup=__strimzi-topic-operator-kstreams},1651623906,0
{consumergroup=__strimzi-topic-operator-kstreams},1651623911,0
{consumergroup=__strimzi-topic-operator-kstreams},1651623916,0
{consumergroup=__strimzi-topic-operator-kstreams},1651623921,0
{consumergroup=__strimzi-topic-operator-kstreams},1651623926,0
{consumergroup=__strimzi-topic-operator-kstreams},1651623931,0
{consumergroup=__strimzi-topic-operator-kstreams},1651623936,0
{consumergroup=__strimzi-topic-operator-kstreams},1651623941,0
{consumergroup=__strimzi-topic-operator-kstreams},1651623946,0
{consumergroup=__strimzi-topic-operator-kstreams},1651623951,0
{consumergroup=__strimzi-topic-operator-kstreams},1651623956,0
{consumergroup=__strimzi-topic-operator-kstreams},1651623961,0
{consumergroup=__strimzi-topic-operator-kstreams},1651623966,0
{consumergroup=__strimzi-topic-operator-kstreams},1651623971,0
{consumergroup=__strimzi-topic-operator-kstreams},1651623976,0
{consumergroup=__strimzi-topic-operator-kstreams},1651623981,0
{consumergroup=__strimzi-topic-operator-kstreams},1651623986,0
{consumergroup=__strimzi-topic-operator-kstreams},1651623991,0
{consumergroup=__strimzi-topic-operator-kstreams},1651623996,0
{consumergroup=__strimzi-topic-operator-kstreams},1651624001,0
{consumergroup=__strimzi-topic-operator-kstreams},1651624006,0
{consumergroup=__strimzi-topic-operator-kstreams},1651624011,0
{consumergroup=__strimzi-topic-operator-kstreams},1651624016,0
{consumergroup=__strimzi-topic-operator-kstreams},1651624021,0
{consumergroup=__strimzi-topic-operator-kstreams},1651624026,0
{consumergroup=__strimzi-topic-operator-kstreams},1651624031,0
{consumergroup=__strimzi-topic-operator-kstreams},1651624036,0
{consumergroup=__strimzi-topic-operator-kstreams},1651624041,0
{consumergroup=__strimzi-topic-operator-kstreams},1651624046,0
{consumergroup=__strimzi-topic-operator-kstreams},1651624051,0
{consumergroup=__strimzi-topic-operator-kstreams},1651624056,0
{consumergroup=__strimzi-topic-operator-kstreams},1651624061,0
{consumergroup=__strimzi-topic-operator-kstreams},1651624066,0
{consumergroup=__strimzi-topic-operator-kstreams},1651624071,0
{consumergroup=__strimzi-topic-operator-kstreams},1651624076,0
{consumergroup=__strimzi-topic-operator-kstreams},1651624081,0
{consumergroup=__strimzi-topic-operator-kstreams},1651624086,0
{consumergroup=__strimzi-topic-operator-kstreams},1651624091,0
{consumergroup=__strimzi-topic-operator-kstreams},1651624096,0
{consumergroup=adapter-service},1651623871,382692
{consumergroup=adapter-service},1651623876,382692
{consumergroup=adapter-service},1651623881,382692
{consumergroup=adapter-service},1651623886,781616
{consumergroup=adapter-service},1651623891,781616
{consumergroup=adapter-service},1651623896,781616
{consumergroup=adapter-service},1651623901,1093623
{consumergroup=adapter-service},1651623906,1093623
{consumergroup=adapter-service},1651623911,1093623
{consumergroup=adapter-service},1651623916,1140836
{consumergroup=adapter-service},1651623921,1140836
{consumergroup=adapter-service},1651623926,1140836
{consumergroup=adapter-service},1651623931,1259071
{consumergroup=adapter-service},1651623936,1259071
{consumergroup=adapter-service},1651623941,1259071
{consumergroup=adapter-service},1651623946,1105542
{consumergroup=adapter-service},1651623951,1105542
{consumergroup=adapter-service},1651623956,1105542
{consumergroup=adapter-service},1651623961,829380
{consumergroup=adapter-service},1651623966,829380
{consumergroup=adapter-service},1651623971,829380
{consumergroup=adapter-service},1651623976,436239
{consumergroup=adapter-service},1651623981,436239
{consumergroup=adapter-service},1651623986,436239
{consumergroup=adapter-service},1651623991,226917
{consumergroup=adapter-service},1651623996,226917
{consumergroup=adapter-service},1651624001,226917
{consumergroup=adapter-service},1651624006,78909
{consumergroup=adapter-service},1651624011,78909
{consumergroup=adapter-service},1651624016,78909
{consumergroup=adapter-service},1651624021,116879
{consumergroup=adapter-service},1651624026,116879
{consumergroup=adapter-service},1651624031,116879
{consumergroup=adapter-service},1651624036,61055
{consumergroup=adapter-service},1651624041,61055
{consumergroup=adapter-service},1651624046,61055
{consumergroup=adapter-service},1651624051,108649
{consumergroup=adapter-service},1651624056,108649
{consumergroup=adapter-service},1651624061,108649
{consumergroup=adapter-service},1651624066,52094
{consumergroup=adapter-service},1651624071,52094
{consumergroup=adapter-service},1651624076,52094
{consumergroup=adapter-service},1651624081,98487
{consumergroup=adapter-service},1651624086,98487
{consumergroup=adapter-service},1651624091,98487
{consumergroup=adapter-service},1651624096,90829
