labels,timestamp,value
{consumergroup=__strimzi-topic-operator-kstreams},1651732491,0
{consumergroup=__strimzi-topic-operator-kstreams},1651732496,0
{consumergroup=__strimzi-topic-operator-kstreams},1651732501,0
{consumergroup=__strimzi-topic-operator-kstreams},1651732506,0
{consumergroup=__strimzi-topic-operator-kstreams},1651732511,0
{consumergroup=__strimzi-topic-operator-kstreams},1651732516,0
{consumergroup=__strimzi-topic-operator-kstreams},1651732521,0
{consumergroup=__strimzi-topic-operator-kstreams},1651732526,0
{consumergroup=__strimzi-topic-operator-kstreams},1651732531,0
{consumergroup=__strimzi-topic-operator-kstreams},1651732536,0
{consumergroup=__strimzi-topic-operator-kstreams},1651732541,0
{consumergroup=__strimzi-topic-operator-kstreams},1651732546,0
{consumergroup=__strimzi-topic-operator-kstreams},1651732551,0
{consumergroup=__strimzi-topic-operator-kstreams},1651732556,0
{consumergroup=__strimzi-topic-operator-kstreams},1651732561,0
{consumergroup=__strimzi-topic-operator-kstreams},1651732566,0
{consumergroup=__strimzi-topic-operator-kstreams},1651732571,0
{consumergroup=__strimzi-topic-operator-kstreams},1651732576,0
{consumergroup=__strimzi-topic-operator-kstreams},1651732581,0
{consumergroup=__strimzi-topic-operator-kstreams},1651732586,0
{consumergroup=__strimzi-topic-operator-kstreams},1651732591,0
{consumergroup=__strimzi-topic-operator-kstreams},1651732596,0
{consumergroup=__strimzi-topic-operator-kstreams},1651732601,0
{consumergroup=__strimzi-topic-operator-kstreams},1651732606,0
{consumergroup=__strimzi-topic-operator-kstreams},1651732611,0
{consumergroup=__strimzi-topic-operator-kstreams},1651732616,0
{consumergroup=__strimzi-topic-operator-kstreams},1651732621,0
{consumergroup=__strimzi-topic-operator-kstreams},1651732626,0
{consumergroup=__strimzi-topic-operator-kstreams},1651732631,0
{consumergroup=__strimzi-topic-operator-kstreams},1651732636,0
{consumergroup=__strimzi-topic-operator-kstreams},1651732641,0
{consumergroup=__strimzi-topic-operator-kstreams},1651732646,0
{consumergroup=__strimzi-topic-operator-kstreams},1651732651,0
{consumergroup=__strimzi-topic-operator-kstreams},1651732656,0
{consumergroup=__strimzi-topic-operator-kstreams},1651732661,0
{consumergroup=__strimzi-topic-operator-kstreams},1651732666,0
{consumergroup=__strimzi-topic-operator-kstreams},1651732671,0
{consumergroup=__strimzi-topic-operator-kstreams},1651732676,0
{consumergroup=__strimzi-topic-operator-kstreams},1651732681,0
{consumergroup=__strimzi-topic-operator-kstreams},1651732686,0
{consumergroup=__strimzi-topic-operator-kstreams},1651732691,0
{consumergroup=__strimzi-topic-operator-kstreams},1651732696,0
{consumergroup=__strimzi-topic-operator-kstreams},1651732701,0
{consumergroup=__strimzi-topic-operator-kstreams},1651732706,0
{consumergroup=__strimzi-topic-operator-kstreams},1651732711,0
{consumergroup=__strimzi-topic-operator-kstreams},1651732716,0
{consumergroup=__strimzi-topic-operator-kstreams},1651732721,0
{consumergroup=__strimzi-topic-operator-kstreams},1651732726,0
{consumergroup=__strimzi-topic-operator-kstreams},1651732731,0
{consumergroup=__strimzi-topic-operator-kstreams},1651732736,0
{consumergroup=__strimzi-topic-operator-kstreams},1651732741,0
{consumergroup=__strimzi-topic-operator-kstreams},1651732746,0
{consumergroup=adapter-service},1651732521,458111
{consumergroup=adapter-service},1651732526,458111
{consumergroup=adapter-service},1651732531,458111
{consumergroup=adapter-service},1651732536,2386598
{consumergroup=adapter-service},1651732541,2386598
{consumergroup=adapter-service},1651732546,2386598
{consumergroup=adapter-service},1651732551,3992747
{consumergroup=adapter-service},1651732556,3992747
{consumergroup=adapter-service},1651732561,3992747
{consumergroup=adapter-service},1651732566,5387406
{consumergroup=adapter-service},1651732571,5387406
{consumergroup=adapter-service},1651732576,5387406
{consumergroup=adapter-service},1651732581,6810879
{consumergroup=adapter-service},1651732586,6810879
{consumergroup=adapter-service},1651732591,6810879
{consumergroup=adapter-service},1651732596,7576189
{consumergroup=adapter-service},1651732601,7576189
{consumergroup=adapter-service},1651732606,7576189
{consumergroup=adapter-service},1651732611,8479026
{consumergroup=adapter-service},1651732616,8479026
{consumergroup=adapter-service},1651732621,8479026
{consumergroup=adapter-service},1651732626,9284454
{consumergroup=adapter-service},1651732631,9284454
{consumergroup=adapter-service},1651732636,9284454
{consumergroup=adapter-service},1651732641,9991296
{consumergroup=adapter-service},1651732646,9991296
{consumergroup=adapter-service},1651732651,9991296
{consumergroup=adapter-service},1651732656,10719819
{consumergroup=adapter-service},1651732661,10719819
{consumergroup=adapter-service},1651732666,10719819
{consumergroup=adapter-service},1651732671,11562993
{consumergroup=adapter-service},1651732676,11562993
{consumergroup=adapter-service},1651732681,11562993
{consumergroup=adapter-service},1651732686,12244144
{consumergroup=adapter-service},1651732691,12244144
{consumergroup=adapter-service},1651732696,12244144
{consumergroup=adapter-service},1651732701,12917513
{consumergroup=adapter-service},1651732706,12917513
{consumergroup=adapter-service},1651732711,12917513
{consumergroup=adapter-service},1651732716,13553102
{consumergroup=adapter-service},1651732721,13553102
{consumergroup=adapter-service},1651732726,13553102
{consumergroup=adapter-service},1651732731,14347133
{consumergroup=adapter-service},1651732736,14347133
{consumergroup=adapter-service},1651732741,14347133
{consumergroup=adapter-service},1651732746,15072517
