labels,timestamp,value
{consumergroup=__strimzi-topic-operator-kstreams},1651635957,0
{consumergroup=__strimzi-topic-operator-kstreams},1651635962,0
{consumergroup=__strimzi-topic-operator-kstreams},1651635967,0
{consumergroup=__strimzi-topic-operator-kstreams},1651635972,14
{consumergroup=__strimzi-topic-operator-kstreams},1651635977,14
{consumergroup=__strimzi-topic-operator-kstreams},1651635982,14
{consumergroup=__strimzi-topic-operator-kstreams},1651635987,14
{consumergroup=__strimzi-topic-operator-kstreams},1651635992,14
{consumergroup=__strimzi-topic-operator-kstreams},1651635997,14
{consumergroup=__strimzi-topic-operator-kstreams},1651636002,0
{consumergroup=__strimzi-topic-operator-kstreams},1651636007,0
{consumergroup=__strimzi-topic-operator-kstreams},1651636012,0
{consumergroup=__strimzi-topic-operator-kstreams},1651636017,0
{consumergroup=__strimzi-topic-operator-kstreams},1651636022,0
{consumergroup=__strimzi-topic-operator-kstreams},1651636027,0
{consumergroup=__strimzi-topic-operator-kstreams},1651636032,0
{consumergroup=__strimzi-topic-operator-kstreams},1651636037,0
{consumergroup=__strimzi-topic-operator-kstreams},1651636042,0
{consumergroup=__strimzi-topic-operator-kstreams},1651636047,0
{consumergroup=__strimzi-topic-operator-kstreams},1651636052,0
{consumergroup=__strimzi-topic-operator-kstreams},1651636057,0
{consumergroup=__strimzi-topic-operator-kstreams},1651636062,0
{consumergroup=__strimzi-topic-operator-kstreams},1651636067,0
{consumergroup=__strimzi-topic-operator-kstreams},1651636072,0
{consumergroup=__strimzi-topic-operator-kstreams},1651636077,0
{consumergroup=__strimzi-topic-operator-kstreams},1651636082,0
{consumergroup=__strimzi-topic-operator-kstreams},1651636087,0
{consumergroup=__strimzi-topic-operator-kstreams},1651636092,0
{consumergroup=__strimzi-topic-operator-kstreams},1651636097,0
{consumergroup=__strimzi-topic-operator-kstreams},1651636102,0
{consumergroup=__strimzi-topic-operator-kstreams},1651636107,0
{consumergroup=__strimzi-topic-operator-kstreams},1651636112,0
{consumergroup=__strimzi-topic-operator-kstreams},1651636117,0
{consumergroup=__strimzi-topic-operator-kstreams},1651636122,0
{consumergroup=__strimzi-topic-operator-kstreams},1651636127,0
{consumergroup=__strimzi-topic-operator-kstreams},1651636132,0
{consumergroup=__strimzi-topic-operator-kstreams},1651636137,0
{consumergroup=__strimzi-topic-operator-kstreams},1651636142,0
{consumergroup=__strimzi-topic-operator-kstreams},1651636147,0
{consumergroup=__strimzi-topic-operator-kstreams},1651636152,0
{consumergroup=__strimzi-topic-operator-kstreams},1651636157,0
{consumergroup=__strimzi-topic-operator-kstreams},1651636162,0
{consumergroup=__strimzi-topic-operator-kstreams},1651636167,0
{consumergroup=__strimzi-topic-operator-kstreams},1651636172,0
{consumergroup=__strimzi-topic-operator-kstreams},1651636177,0
{consumergroup=__strimzi-topic-operator-kstreams},1651636182,0
{consumergroup=__strimzi-topic-operator-kstreams},1651636187,0
{consumergroup=__strimzi-topic-operator-kstreams},1651636192,0
{consumergroup=__strimzi-topic-operator-kstreams},1651636197,0
{consumergroup=__strimzi-topic-operator-kstreams},1651636202,0
{consumergroup=__strimzi-topic-operator-kstreams},1651636207,0
{consumergroup=__strimzi-topic-operator-kstreams},1651636212,0
{consumergroup=adapter-service},1651635987,0
{consumergroup=adapter-service},1651635992,0
{consumergroup=adapter-service},1651635997,0
{consumergroup=adapter-service},1651636002,1335330
{consumergroup=adapter-service},1651636007,1335330
{consumergroup=adapter-service},1651636012,1335330
{consumergroup=adapter-service},1651636017,2045079
{consumergroup=adapter-service},1651636022,2045079
{consumergroup=adapter-service},1651636027,2045079
{consumergroup=adapter-service},1651636032,2457090
{consumergroup=adapter-service},1651636037,2457090
{consumergroup=adapter-service},1651636042,2457090
{consumergroup=adapter-service},1651636047,2803417
{consumergroup=adapter-service},1651636052,2803417
{consumergroup=adapter-service},1651636057,2803417
{consumergroup=adapter-service},1651636062,2913290
{consumergroup=adapter-service},1651636067,2913290
{consumergroup=adapter-service},1651636072,2913290
{consumergroup=adapter-service},1651636077,2788852
{consumergroup=adapter-service},1651636082,2788852
{consumergroup=adapter-service},1651636087,2788852
{consumergroup=adapter-service},1651636092,2531169
{consumergroup=adapter-service},1651636097,2531169
{consumergroup=adapter-service},1651636102,2531169
{consumergroup=adapter-service},1651636107,2249874
{consumergroup=adapter-service},1651636112,2249874
{consumergroup=adapter-service},1651636117,2249874
{consumergroup=adapter-service},1651636122,1886620
{consumergroup=adapter-service},1651636127,1886620
{consumergroup=adapter-service},1651636132,1886620
{consumergroup=adapter-service},1651636137,1586139
{consumergroup=adapter-service},1651636142,1586139
{consumergroup=adapter-service},1651636147,1586139
{consumergroup=adapter-service},1651636152,1470425
{consumergroup=adapter-service},1651636157,1470425
{consumergroup=adapter-service},1651636162,1470425
{consumergroup=adapter-service},1651636167,1162527
{consumergroup=adapter-service},1651636172,1162527
{consumergroup=adapter-service},1651636177,1162527
{consumergroup=adapter-service},1651636182,1007858
{consumergroup=adapter-service},1651636187,1007858
{consumergroup=adapter-service},1651636192,1007858
{consumergroup=adapter-service},1651636197,901327
{consumergroup=adapter-service},1651636202,901327
{consumergroup=adapter-service},1651636207,901327
{consumergroup=adapter-service},1651636212,765400
