labels,timestamp,value
{consumergroup=__strimzi-topic-operator-kstreams},1651610037,6
{consumergroup=__strimzi-topic-operator-kstreams},1651610042,6
{consumergroup=__strimzi-topic-operator-kstreams},1651610047,6
{consumergroup=__strimzi-topic-operator-kstreams},1651610052,19
{consumergroup=__strimzi-topic-operator-kstreams},1651610057,19
{consumergroup=__strimzi-topic-operator-kstreams},1651610062,19
{consumergroup=__strimzi-topic-operator-kstreams},1651610067,0
{consumergroup=__strimzi-topic-operator-kstreams},1651610072,0
{consumergroup=__strimzi-topic-operator-kstreams},1651610077,0
{consumergroup=__strimzi-topic-operator-kstreams},1651610082,0
{consumergroup=__strimzi-topic-operator-kstreams},1651610087,0
{consumergroup=__strimzi-topic-operator-kstreams},1651610092,0
{consumergroup=__strimzi-topic-operator-kstreams},1651610097,0
{consumergroup=__strimzi-topic-operator-kstreams},1651610102,0
{consumergroup=__strimzi-topic-operator-kstreams},1651610107,0
{consumergroup=__strimzi-topic-operator-kstreams},1651610112,0
{consumergroup=__strimzi-topic-operator-kstreams},1651610117,0
{consumergroup=__strimzi-topic-operator-kstreams},1651610122,0
{consumergroup=__strimzi-topic-operator-kstreams},1651610127,0
{consumergroup=__strimzi-topic-operator-kstreams},1651610132,0
{consumergroup=__strimzi-topic-operator-kstreams},1651610137,0
{consumergroup=__strimzi-topic-operator-kstreams},1651610142,0
{consumergroup=__strimzi-topic-operator-kstreams},1651610147,0
{consumergroup=__strimzi-topic-operator-kstreams},1651610152,0
{consumergroup=__strimzi-topic-operator-kstreams},1651610157,0
{consumergroup=__strimzi-topic-operator-kstreams},1651610162,0
{consumergroup=__strimzi-topic-operator-kstreams},1651610167,0
{consumergroup=__strimzi-topic-operator-kstreams},1651610172,0
{consumergroup=__strimzi-topic-operator-kstreams},1651610177,0
{consumergroup=__strimzi-topic-operator-kstreams},1651610182,0
{consumergroup=__strimzi-topic-operator-kstreams},1651610187,0
{consumergroup=__strimzi-topic-operator-kstreams},1651610192,0
{consumergroup=__strimzi-topic-operator-kstreams},1651610197,0
{consumergroup=__strimzi-topic-operator-kstreams},1651610202,0
{consumergroup=__strimzi-topic-operator-kstreams},1651610207,0
{consumergroup=__strimzi-topic-operator-kstreams},1651610212,0
{consumergroup=__strimzi-topic-operator-kstreams},1651610217,0
{consumergroup=__strimzi-topic-operator-kstreams},1651610222,0
{consumergroup=__strimzi-topic-operator-kstreams},1651610227,0
{consumergroup=__strimzi-topic-operator-kstreams},1651610232,0
{consumergroup=__strimzi-topic-operator-kstreams},1651610237,0
{consumergroup=__strimzi-topic-operator-kstreams},1651610242,0
{consumergroup=__strimzi-topic-operator-kstreams},1651610247,0
{consumergroup=__strimzi-topic-operator-kstreams},1651610252,0
{consumergroup=__strimzi-topic-operator-kstreams},1651610257,0
{consumergroup=__strimzi-topic-operator-kstreams},1651610262,0
{consumergroup=__strimzi-topic-operator-kstreams},1651610267,0
{consumergroup=__strimzi-topic-operator-kstreams},1651610272,0
{consumergroup=__strimzi-topic-operator-kstreams},1651610277,0
{consumergroup=__strimzi-topic-operator-kstreams},1651610282,0
{consumergroup=__strimzi-topic-operator-kstreams},1651610287,0
{consumergroup=__strimzi-topic-operator-kstreams},1651610292,0
{consumergroup=adapter-service},1651610067,116036
{consumergroup=adapter-service},1651610072,116036
{consumergroup=adapter-service},1651610077,116036
{consumergroup=adapter-service},1651610082,490580
{consumergroup=adapter-service},1651610087,490580
{consumergroup=adapter-service},1651610092,490580
{consumergroup=adapter-service},1651610097,718524
{consumergroup=adapter-service},1651610102,718524
{consumergroup=adapter-service},1651610107,718524
{consumergroup=adapter-service},1651610112,924402
{consumergroup=adapter-service},1651610117,924402
{consumergroup=adapter-service},1651610122,924402
{consumergroup=adapter-service},1651610127,1071272
{consumergroup=adapter-service},1651610132,1071272
{consumergroup=adapter-service},1651610137,1071272
{consumergroup=adapter-service},1651610142,1148688
{consumergroup=adapter-service},1651610147,1148688
{consumergroup=adapter-service},1651610152,1148688
{consumergroup=adapter-service},1651610157,1161010
{consumergroup=adapter-service},1651610162,1161010
{consumergroup=adapter-service},1651610167,1161010
{consumergroup=adapter-service},1651610172,1141053
{consumergroup=adapter-service},1651610177,1141053
{consumergroup=adapter-service},1651610182,1141053
{consumergroup=adapter-service},1651610187,1022384
{consumergroup=adapter-service},1651610192,1022384
{consumergroup=adapter-service},1651610197,1022384
{consumergroup=adapter-service},1651610202,868697
{consumergroup=adapter-service},1651610207,868697
{consumergroup=adapter-service},1651610212,868697
{consumergroup=adapter-service},1651610217,673687
{consumergroup=adapter-service},1651610222,673687
{consumergroup=adapter-service},1651610227,673687
{consumergroup=adapter-service},1651610232,462409
{consumergroup=adapter-service},1651610237,462409
{consumergroup=adapter-service},1651610242,462409
{consumergroup=adapter-service},1651610247,331960
{consumergroup=adapter-service},1651610252,331960
{consumergroup=adapter-service},1651610257,331960
{consumergroup=adapter-service},1651610262,218163
{consumergroup=adapter-service},1651610267,218163
{consumergroup=adapter-service},1651610272,218163
{consumergroup=adapter-service},1651610277,144877
{consumergroup=adapter-service},1651610282,144877
{consumergroup=adapter-service},1651610287,144877
{consumergroup=adapter-service},1651610292,80069
