labels,timestamp,value
{consumergroup=__strimzi-topic-operator-kstreams},1651597518,0
{consumergroup=__strimzi-topic-operator-kstreams},1651597523,0
{consumergroup=__strimzi-topic-operator-kstreams},1651597528,0
{consumergroup=__strimzi-topic-operator-kstreams},1651597533,0
{consumergroup=__strimzi-topic-operator-kstreams},1651597538,0
{consumergroup=__strimzi-topic-operator-kstreams},1651597543,0
{consumergroup=__strimzi-topic-operator-kstreams},1651597548,0
{consumergroup=__strimzi-topic-operator-kstreams},1651597553,0
{consumergroup=__strimzi-topic-operator-kstreams},1651597558,0
{consumergroup=__strimzi-topic-operator-kstreams},1651597563,0
{consumergroup=__strimzi-topic-operator-kstreams},1651597568,0
{consumergroup=__strimzi-topic-operator-kstreams},1651597573,0
{consumergroup=__strimzi-topic-operator-kstreams},1651597578,0
{consumergroup=__strimzi-topic-operator-kstreams},1651597583,0
{consumergroup=__strimzi-topic-operator-kstreams},1651597588,0
{consumergroup=__strimzi-topic-operator-kstreams},1651597593,0
{consumergroup=__strimzi-topic-operator-kstreams},1651597598,0
{consumergroup=__strimzi-topic-operator-kstreams},1651597603,0
{consumergroup=__strimzi-topic-operator-kstreams},1651597608,0
{consumergroup=__strimzi-topic-operator-kstreams},1651597613,0
{consumergroup=__strimzi-topic-operator-kstreams},1651597618,0
{consumergroup=__strimzi-topic-operator-kstreams},1651597623,0
{consumergroup=__strimzi-topic-operator-kstreams},1651597628,0
{consumergroup=__strimzi-topic-operator-kstreams},1651597633,0
{consumergroup=__strimzi-topic-operator-kstreams},1651597638,0
{consumergroup=__strimzi-topic-operator-kstreams},1651597643,0
{consumergroup=__strimzi-topic-operator-kstreams},1651597648,0
{consumergroup=__strimzi-topic-operator-kstreams},1651597653,0
{consumergroup=__strimzi-topic-operator-kstreams},1651597658,0
{consumergroup=__strimzi-topic-operator-kstreams},1651597663,0
{consumergroup=__strimzi-topic-operator-kstreams},1651597668,0
{consumergroup=__strimzi-topic-operator-kstreams},1651597673,0
{consumergroup=__strimzi-topic-operator-kstreams},1651597678,0
{consumergroup=__strimzi-topic-operator-kstreams},1651597683,0
{consumergroup=__strimzi-topic-operator-kstreams},1651597688,0
{consumergroup=__strimzi-topic-operator-kstreams},1651597693,0
{consumergroup=__strimzi-topic-operator-kstreams},1651597698,0
{consumergroup=__strimzi-topic-operator-kstreams},1651597703,0
{consumergroup=__strimzi-topic-operator-kstreams},1651597708,0
{consumergroup=__strimzi-topic-operator-kstreams},1651597713,0
{consumergroup=__strimzi-topic-operator-kstreams},1651597718,0
{consumergroup=__strimzi-topic-operator-kstreams},1651597723,0
{consumergroup=__strimzi-topic-operator-kstreams},1651597728,0
{consumergroup=__strimzi-topic-operator-kstreams},1651597733,0
{consumergroup=__strimzi-topic-operator-kstreams},1651597738,0
{consumergroup=__strimzi-topic-operator-kstreams},1651597743,0
{consumergroup=__strimzi-topic-operator-kstreams},1651597748,0
{consumergroup=__strimzi-topic-operator-kstreams},1651597753,0
{consumergroup=__strimzi-topic-operator-kstreams},1651597758,0
{consumergroup=__strimzi-topic-operator-kstreams},1651597763,0
{consumergroup=landscape-service},1651597548,39846
{consumergroup=landscape-service},1651597553,39846
{consumergroup=landscape-service},1651597558,39846
{consumergroup=landscape-service},1651597563,8664397
{consumergroup=landscape-service},1651597568,8664397
{consumergroup=landscape-service},1651597573,8664397
{consumergroup=landscape-service},1651597578,12179047
{consumergroup=landscape-service},1651597583,12179047
{consumergroup=landscape-service},1651597588,12179047
{consumergroup=landscape-service},1651597593,14352619
{consumergroup=landscape-service},1651597598,14352619
{consumergroup=landscape-service},1651597603,14352619
{consumergroup=landscape-service},1651597608,15934877
{consumergroup=landscape-service},1651597613,15934877
{consumergroup=landscape-service},1651597618,15934877
{consumergroup=landscape-service},1651597623,17406038
{consumergroup=landscape-service},1651597628,17406038
{consumergroup=landscape-service},1651597633,17406038
{consumergroup=landscape-service},1651597638,19100173
{consumergroup=landscape-service},1651597643,19100173
{consumergroup=landscape-service},1651597648,19100173
{consumergroup=landscape-service},1651597653,19633964
{consumergroup=landscape-service},1651597658,19633964
{consumergroup=landscape-service},1651597663,19633964
{consumergroup=landscape-service},1651597668,20789634
{consumergroup=landscape-service},1651597673,20789634
{consumergroup=landscape-service},1651597678,20789634
{consumergroup=landscape-service},1651597683,20645245
{consumergroup=landscape-service},1651597688,20645245
{consumergroup=landscape-service},1651597693,20645245
{consumergroup=landscape-service},1651597698,21102797
{consumergroup=landscape-service},1651597703,21102797
{consumergroup=landscape-service},1651597708,21102797
{consumergroup=landscape-service},1651597713,21686731
{consumergroup=landscape-service},1651597718,21686731
{consumergroup=landscape-service},1651597723,21686731
{consumergroup=landscape-service},1651597728,22185160
{consumergroup=landscape-service},1651597733,22185160
{consumergroup=landscape-service},1651597738,22185160
{consumergroup=landscape-service},1651597743,22695513
{consumergroup=landscape-service},1651597748,22695513
{consumergroup=landscape-service},1651597753,22695513
{consumergroup=landscape-service},1651597758,22683607
{consumergroup=landscape-service},1651597763,22683607
