labels,timestamp,value
{consumergroup=__strimzi-topic-operator-kstreams},1651713502,8
{consumergroup=__strimzi-topic-operator-kstreams},1651713507,8
{consumergroup=__strimzi-topic-operator-kstreams},1651713512,8
{consumergroup=__strimzi-topic-operator-kstreams},1651713517,4
{consumergroup=__strimzi-topic-operator-kstreams},1651713522,4
{consumergroup=__strimzi-topic-operator-kstreams},1651713527,4
{consumergroup=__strimzi-topic-operator-kstreams},1651713532,4
{consumergroup=__strimzi-topic-operator-kstreams},1651713537,4
{consumergroup=__strimzi-topic-operator-kstreams},1651713542,4
{consumergroup=__strimzi-topic-operator-kstreams},1651713547,0
{consumergroup=__strimzi-topic-operator-kstreams},1651713552,0
{consumergroup=__strimzi-topic-operator-kstreams},1651713557,0
{consumergroup=__strimzi-topic-operator-kstreams},1651713562,0
{consumergroup=__strimzi-topic-operator-kstreams},1651713567,0
{consumergroup=__strimzi-topic-operator-kstreams},1651713572,0
{consumergroup=__strimzi-topic-operator-kstreams},1651713577,0
{consumergroup=__strimzi-topic-operator-kstreams},1651713582,0
{consumergroup=__strimzi-topic-operator-kstreams},1651713587,0
{consumergroup=__strimzi-topic-operator-kstreams},1651713592,0
{consumergroup=__strimzi-topic-operator-kstreams},1651713597,0
{consumergroup=__strimzi-topic-operator-kstreams},1651713602,0
{consumergroup=__strimzi-topic-operator-kstreams},1651713607,0
{consumergroup=__strimzi-topic-operator-kstreams},1651713612,0
{consumergroup=__strimzi-topic-operator-kstreams},1651713617,0
{consumergroup=__strimzi-topic-operator-kstreams},1651713622,0
{consumergroup=__strimzi-topic-operator-kstreams},1651713627,0
{consumergroup=__strimzi-topic-operator-kstreams},1651713632,0
{consumergroup=__strimzi-topic-operator-kstreams},1651713637,0
{consumergroup=__strimzi-topic-operator-kstreams},1651713642,0
{consumergroup=__strimzi-topic-operator-kstreams},1651713647,0
{consumergroup=__strimzi-topic-operator-kstreams},1651713652,0
{consumergroup=__strimzi-topic-operator-kstreams},1651713657,0
{consumergroup=__strimzi-topic-operator-kstreams},1651713662,0
{consumergroup=__strimzi-topic-operator-kstreams},1651713667,0
{consumergroup=__strimzi-topic-operator-kstreams},1651713672,0
{consumergroup=__strimzi-topic-operator-kstreams},1651713677,0
{consumergroup=__strimzi-topic-operator-kstreams},1651713682,0
{consumergroup=__strimzi-topic-operator-kstreams},1651713687,0
{consumergroup=__strimzi-topic-operator-kstreams},1651713692,0
{consumergroup=__strimzi-topic-operator-kstreams},1651713697,0
{consumergroup=__strimzi-topic-operator-kstreams},1651713702,0
{consumergroup=__strimzi-topic-operator-kstreams},1651713707,0
{consumergroup=__strimzi-topic-operator-kstreams},1651713712,0
{consumergroup=__strimzi-topic-operator-kstreams},1651713717,0
{consumergroup=__strimzi-topic-operator-kstreams},1651713722,0
{consumergroup=__strimzi-topic-operator-kstreams},1651713727,0
{consumergroup=__strimzi-topic-operator-kstreams},1651713732,0
{consumergroup=__strimzi-topic-operator-kstreams},1651713737,0
{consumergroup=__strimzi-topic-operator-kstreams},1651713742,0
{consumergroup=__strimzi-topic-operator-kstreams},1651713747,0
{consumergroup=__strimzi-topic-operator-kstreams},1651713752,0
{consumergroup=__strimzi-topic-operator-kstreams},1651713757,0
{consumergroup=adapter-service},1651713532,260063
{consumergroup=adapter-service},1651713537,260063
{consumergroup=adapter-service},1651713542,260063
{consumergroup=adapter-service},1651713547,958804
{consumergroup=adapter-service},1651713552,958804
{consumergroup=adapter-service},1651713557,958804
{consumergroup=adapter-service},1651713562,1222382
{consumergroup=adapter-service},1651713567,1222382
{consumergroup=adapter-service},1651713572,1222382
{consumergroup=adapter-service},1651713577,1184035
{consumergroup=adapter-service},1651713582,1184035
{consumergroup=adapter-service},1651713587,1184035
{consumergroup=adapter-service},1651713592,1019324
{consumergroup=adapter-service},1651713597,1019324
{consumergroup=adapter-service},1651713602,1019324
{consumergroup=adapter-service},1651713607,711805
{consumergroup=adapter-service},1651713612,711805
{consumergroup=adapter-service},1651713617,711805
{consumergroup=adapter-service},1651713622,327004
{consumergroup=adapter-service},1651713627,327004
{consumergroup=adapter-service},1651713632,327004
{consumergroup=adapter-service},1651713637,173178
{consumergroup=adapter-service},1651713642,173178
{consumergroup=adapter-service},1651713647,173178
{consumergroup=adapter-service},1651713652,88636
{consumergroup=adapter-service},1651713657,88636
{consumergroup=adapter-service},1651713662,88636
{consumergroup=adapter-service},1651713667,123329
{consumergroup=adapter-service},1651713672,123329
{consumergroup=adapter-service},1651713677,123329
{consumergroup=adapter-service},1651713682,133670
{consumergroup=adapter-service},1651713687,133670
{consumergroup=adapter-service},1651713692,133670
{consumergroup=adapter-service},1651713697,109104
{consumergroup=adapter-service},1651713702,109104
{consumergroup=adapter-service},1651713707,109104
{consumergroup=adapter-service},1651713712,99111
{consumergroup=adapter-service},1651713717,99111
{consumergroup=adapter-service},1651713722,99111
{consumergroup=adapter-service},1651713727,98281
{consumergroup=adapter-service},1651713732,98281
{consumergroup=adapter-service},1651713737,98281
{consumergroup=adapter-service},1651713742,79332
{consumergroup=adapter-service},1651713747,79332
{consumergroup=adapter-service},1651713752,79332
{consumergroup=adapter-service},1651713757,52000
