labels,timestamp,value
{consumergroup=__strimzi-topic-operator-kstreams},1651588963,5
{consumergroup=__strimzi-topic-operator-kstreams},1651588968,5
{consumergroup=__strimzi-topic-operator-kstreams},1651588973,5
{consumergroup=__strimzi-topic-operator-kstreams},1651588978,3
{consumergroup=__strimzi-topic-operator-kstreams},1651588983,3
{consumergroup=__strimzi-topic-operator-kstreams},1651588988,3
{consumergroup=__strimzi-topic-operator-kstreams},1651588993,3
{consumergroup=__strimzi-topic-operator-kstreams},1651588998,3
{consumergroup=__strimzi-topic-operator-kstreams},1651589003,3
{consumergroup=__strimzi-topic-operator-kstreams},1651589008,0
{consumergroup=__strimzi-topic-operator-kstreams},1651589013,0
{consumergroup=__strimzi-topic-operator-kstreams},1651589018,0
{consumergroup=__strimzi-topic-operator-kstreams},1651589023,0
{consumergroup=__strimzi-topic-operator-kstreams},1651589028,0
{consumergroup=__strimzi-topic-operator-kstreams},1651589033,0
{consumergroup=__strimzi-topic-operator-kstreams},1651589038,0
{consumergroup=__strimzi-topic-operator-kstreams},1651589043,0
{consumergroup=__strimzi-topic-operator-kstreams},1651589048,0
{consumergroup=__strimzi-topic-operator-kstreams},1651589053,0
{consumergroup=__strimzi-topic-operator-kstreams},1651589058,0
{consumergroup=__strimzi-topic-operator-kstreams},1651589063,0
{consumergroup=__strimzi-topic-operator-kstreams},1651589068,0
{consumergroup=__strimzi-topic-operator-kstreams},1651589073,0
{consumergroup=__strimzi-topic-operator-kstreams},1651589078,0
{consumergroup=__strimzi-topic-operator-kstreams},1651589083,0
{consumergroup=__strimzi-topic-operator-kstreams},1651589088,0
{consumergroup=__strimzi-topic-operator-kstreams},1651589093,0
{consumergroup=__strimzi-topic-operator-kstreams},1651589098,0
{consumergroup=__strimzi-topic-operator-kstreams},1651589103,0
{consumergroup=__strimzi-topic-operator-kstreams},1651589108,0
{consumergroup=__strimzi-topic-operator-kstreams},1651589113,0
{consumergroup=__strimzi-topic-operator-kstreams},1651589118,0
{consumergroup=__strimzi-topic-operator-kstreams},1651589123,0
{consumergroup=__strimzi-topic-operator-kstreams},1651589128,0
{consumergroup=__strimzi-topic-operator-kstreams},1651589133,0
{consumergroup=__strimzi-topic-operator-kstreams},1651589138,0
{consumergroup=__strimzi-topic-operator-kstreams},1651589143,0
{consumergroup=__strimzi-topic-operator-kstreams},1651589148,0
{consumergroup=__strimzi-topic-operator-kstreams},1651589153,0
{consumergroup=__strimzi-topic-operator-kstreams},1651589158,0
{consumergroup=__strimzi-topic-operator-kstreams},1651589163,0
{consumergroup=__strimzi-topic-operator-kstreams},1651589168,0
{consumergroup=__strimzi-topic-operator-kstreams},1651589173,0
{consumergroup=__strimzi-topic-operator-kstreams},1651589178,0
{consumergroup=__strimzi-topic-operator-kstreams},1651589183,0
{consumergroup=__strimzi-topic-operator-kstreams},1651589188,0
{consumergroup=__strimzi-topic-operator-kstreams},1651589193,0
{consumergroup=__strimzi-topic-operator-kstreams},1651589198,0
{consumergroup=__strimzi-topic-operator-kstreams},1651589203,0
{consumergroup=__strimzi-topic-operator-kstreams},1651589208,0
{consumergroup=__strimzi-topic-operator-kstreams},1651589213,0
{consumergroup=__strimzi-topic-operator-kstreams},1651589218,0
{consumergroup=__strimzi-topic-operator-kstreams},1651589223,0
{consumergroup=landscape-service},1651589008,29273
{consumergroup=landscape-service},1651589013,29273
{consumergroup=landscape-service},1651589018,29273
{consumergroup=landscape-service},1651589023,1773937
{consumergroup=landscape-service},1651589028,1773937
{consumergroup=landscape-service},1651589033,1773937
{consumergroup=landscape-service},1651589038,2053244
{consumergroup=landscape-service},1651589043,2053244
{consumergroup=landscape-service},1651589048,2053244
{consumergroup=landscape-service},1651589053,2323882
{consumergroup=landscape-service},1651589058,2323882
{consumergroup=landscape-service},1651589063,2323882
{consumergroup=landscape-service},1651589068,2333863
{consumergroup=landscape-service},1651589073,2333863
{consumergroup=landscape-service},1651589078,2333863
{consumergroup=landscape-service},1651589083,2503851
{consumergroup=landscape-service},1651589088,2503851
{consumergroup=landscape-service},1651589093,2503851
{consumergroup=landscape-service},1651589098,2608124
{consumergroup=landscape-service},1651589103,2608124
{consumergroup=landscape-service},1651589108,2608124
{consumergroup=landscape-service},1651589113,2615730
{consumergroup=landscape-service},1651589118,2615730
{consumergroup=landscape-service},1651589123,2615730
{consumergroup=landscape-service},1651589128,2549265
{consumergroup=landscape-service},1651589133,2549265
{consumergroup=landscape-service},1651589138,2549265
{consumergroup=landscape-service},1651589143,2505653
{consumergroup=landscape-service},1651589148,2505653
{consumergroup=landscape-service},1651589153,2505653
{consumergroup=landscape-service},1651589158,2501647
{consumergroup=landscape-service},1651589163,2501647
{consumergroup=landscape-service},1651589168,2501647
{consumergroup=landscape-service},1651589173,2434478
{consumergroup=landscape-service},1651589178,2434478
{consumergroup=landscape-service},1651589183,2434478
{consumergroup=landscape-service},1651589188,2407280
{consumergroup=landscape-service},1651589193,2407280
{consumergroup=landscape-service},1651589198,2407280
{consumergroup=landscape-service},1651589203,2308878
{consumergroup=landscape-service},1651589208,2308878
{consumergroup=landscape-service},1651589213,2308878
{consumergroup=landscape-service},1651589218,2182232
{consumergroup=landscape-service},1651589223,2182232
