labels,timestamp,value
{consumergroup=__strimzi-topic-operator-kstreams},1651590827,10
{consumergroup=__strimzi-topic-operator-kstreams},1651590832,10
{consumergroup=__strimzi-topic-operator-kstreams},1651590837,10
{consumergroup=__strimzi-topic-operator-kstreams},1651590842,0
{consumergroup=__strimzi-topic-operator-kstreams},1651590847,0
{consumergroup=__strimzi-topic-operator-kstreams},1651590852,0
{consumergroup=__strimzi-topic-operator-kstreams},1651590857,0
{consumergroup=__strimzi-topic-operator-kstreams},1651590862,0
{consumergroup=__strimzi-topic-operator-kstreams},1651590867,0
{consumergroup=__strimzi-topic-operator-kstreams},1651590872,0
{consumergroup=__strimzi-topic-operator-kstreams},1651590877,0
{consumergroup=__strimzi-topic-operator-kstreams},1651590882,0
{consumergroup=__strimzi-topic-operator-kstreams},1651590887,0
{consumergroup=__strimzi-topic-operator-kstreams},1651590892,0
{consumergroup=__strimzi-topic-operator-kstreams},1651590897,0
{consumergroup=__strimzi-topic-operator-kstreams},1651590902,0
{consumergroup=__strimzi-topic-operator-kstreams},1651590907,0
{consumergroup=__strimzi-topic-operator-kstreams},1651590912,0
{consumergroup=__strimzi-topic-operator-kstreams},1651590917,0
{consumergroup=__strimzi-topic-operator-kstreams},1651590922,0
{consumergroup=__strimzi-topic-operator-kstreams},1651590927,0
{consumergroup=__strimzi-topic-operator-kstreams},1651590932,0
{consumergroup=__strimzi-topic-operator-kstreams},1651590937,0
{consumergroup=__strimzi-topic-operator-kstreams},1651590942,0
{consumergroup=__strimzi-topic-operator-kstreams},1651590947,0
{consumergroup=__strimzi-topic-operator-kstreams},1651590952,0
{consumergroup=__strimzi-topic-operator-kstreams},1651590957,0
{consumergroup=__strimzi-topic-operator-kstreams},1651590962,0
{consumergroup=__strimzi-topic-operator-kstreams},1651590967,0
{consumergroup=__strimzi-topic-operator-kstreams},1651590972,0
{consumergroup=__strimzi-topic-operator-kstreams},1651590977,0
{consumergroup=__strimzi-topic-operator-kstreams},1651590982,0
{consumergroup=__strimzi-topic-operator-kstreams},1651590987,0
{consumergroup=__strimzi-topic-operator-kstreams},1651590992,0
{consumergroup=__strimzi-topic-operator-kstreams},1651590997,0
{consumergroup=__strimzi-topic-operator-kstreams},1651591002,0
{consumergroup=__strimzi-topic-operator-kstreams},1651591007,0
{consumergroup=__strimzi-topic-operator-kstreams},1651591012,0
{consumergroup=__strimzi-topic-operator-kstreams},1651591017,0
{consumergroup=__strimzi-topic-operator-kstreams},1651591022,0
{consumergroup=__strimzi-topic-operator-kstreams},1651591027,0
{consumergroup=__strimzi-topic-operator-kstreams},1651591032,0
{consumergroup=__strimzi-topic-operator-kstreams},1651591037,0
{consumergroup=__strimzi-topic-operator-kstreams},1651591042,0
{consumergroup=__strimzi-topic-operator-kstreams},1651591047,0
{consumergroup=__strimzi-topic-operator-kstreams},1651591052,0
{consumergroup=__strimzi-topic-operator-kstreams},1651591057,0
{consumergroup=__strimzi-topic-operator-kstreams},1651591062,0
{consumergroup=__strimzi-topic-operator-kstreams},1651591067,0
{consumergroup=__strimzi-topic-operator-kstreams},1651591072,0
{consumergroup=__strimzi-topic-operator-kstreams},1651591077,0
{consumergroup=__strimzi-topic-operator-kstreams},1651591082,0
{consumergroup=landscape-service},1651590872,4518305
{consumergroup=landscape-service},1651590877,4518305
{consumergroup=landscape-service},1651590882,4518305
{consumergroup=landscape-service},1651590887,8199968
{consumergroup=landscape-service},1651590892,8199968
{consumergroup=landscape-service},1651590897,8199968
{consumergroup=landscape-service},1651590902,9555752
{consumergroup=landscape-service},1651590907,9555752
{consumergroup=landscape-service},1651590912,9555752
{consumergroup=landscape-service},1651590917,12485071
{consumergroup=landscape-service},1651590922,12485071
{consumergroup=landscape-service},1651590927,12485071
{consumergroup=landscape-service},1651590932,13874710
{consumergroup=landscape-service},1651590937,13874710
{consumergroup=landscape-service},1651590942,13874710
{consumergroup=landscape-service},1651590947,16196873
{consumergroup=landscape-service},1651590952,16196873
{consumergroup=landscape-service},1651590957,16196873
{consumergroup=landscape-service},1651590962,17277818
{consumergroup=landscape-service},1651590967,17277818
{consumergroup=landscape-service},1651590972,17277818
{consumergroup=landscape-service},1651590977,18550477
{consumergroup=landscape-service},1651590982,18550477
{consumergroup=landscape-service},1651590987,18550477
{consumergroup=landscape-service},1651590992,19607080
{consumergroup=landscape-service},1651590997,19607080
{consumergroup=landscape-service},1651591002,19607080
{consumergroup=landscape-service},1651591007,20663064
{consumergroup=landscape-service},1651591012,20663064
{consumergroup=landscape-service},1651591017,20663064
{consumergroup=landscape-service},1651591022,21293517
{consumergroup=landscape-service},1651591027,21293517
{consumergroup=landscape-service},1651591032,21293517
{consumergroup=landscape-service},1651591037,23419730
{consumergroup=landscape-service},1651591042,23419730
{consumergroup=landscape-service},1651591047,23419730
{consumergroup=landscape-service},1651591052,24123918
{consumergroup=landscape-service},1651591057,24123918
{consumergroup=landscape-service},1651591062,24123918
{consumergroup=landscape-service},1651591067,25259632
{consumergroup=landscape-service},1651591072,25259632
{consumergroup=landscape-service},1651591077,25259632
{consumergroup=landscape-service},1651591082,26975401
