labels,timestamp,value
{consumergroup=__strimzi-topic-operator-kstreams},1651614135,12
{consumergroup=__strimzi-topic-operator-kstreams},1651614140,12
{consumergroup=__strimzi-topic-operator-kstreams},1651614145,12
{consumergroup=__strimzi-topic-operator-kstreams},1651614150,0
{consumergroup=__strimzi-topic-operator-kstreams},1651614155,0
{consumergroup=__strimzi-topic-operator-kstreams},1651614160,0
{consumergroup=__strimzi-topic-operator-kstreams},1651614165,0
{consumergroup=__strimzi-topic-operator-kstreams},1651614170,0
{consumergroup=__strimzi-topic-operator-kstreams},1651614175,0
{consumergroup=__strimzi-topic-operator-kstreams},1651614180,0
{consumergroup=__strimzi-topic-operator-kstreams},1651614185,0
{consumergroup=__strimzi-topic-operator-kstreams},1651614190,0
{consumergroup=__strimzi-topic-operator-kstreams},1651614195,0
{consumergroup=__strimzi-topic-operator-kstreams},1651614200,0
{consumergroup=__strimzi-topic-operator-kstreams},1651614205,0
{consumergroup=__strimzi-topic-operator-kstreams},1651614210,0
{consumergroup=__strimzi-topic-operator-kstreams},1651614215,0
{consumergroup=__strimzi-topic-operator-kstreams},1651614220,0
{consumergroup=__strimzi-topic-operator-kstreams},1651614225,0
{consumergroup=__strimzi-topic-operator-kstreams},1651614230,0
{consumergroup=__strimzi-topic-operator-kstreams},1651614235,0
{consumergroup=__strimzi-topic-operator-kstreams},1651614240,0
{consumergroup=__strimzi-topic-operator-kstreams},1651614245,0
{consumergroup=__strimzi-topic-operator-kstreams},1651614250,0
{consumergroup=__strimzi-topic-operator-kstreams},1651614255,0
{consumergroup=__strimzi-topic-operator-kstreams},1651614260,0
{consumergroup=__strimzi-topic-operator-kstreams},1651614265,0
{consumergroup=__strimzi-topic-operator-kstreams},1651614270,0
{consumergroup=__strimzi-topic-operator-kstreams},1651614275,0
{consumergroup=__strimzi-topic-operator-kstreams},1651614280,0
{consumergroup=__strimzi-topic-operator-kstreams},1651614285,0
{consumergroup=__strimzi-topic-operator-kstreams},1651614290,0
{consumergroup=__strimzi-topic-operator-kstreams},1651614295,0
{consumergroup=__strimzi-topic-operator-kstreams},1651614300,0
{consumergroup=__strimzi-topic-operator-kstreams},1651614305,0
{consumergroup=__strimzi-topic-operator-kstreams},1651614310,0
{consumergroup=__strimzi-topic-operator-kstreams},1651614315,0
{consumergroup=__strimzi-topic-operator-kstreams},1651614320,0
{consumergroup=__strimzi-topic-operator-kstreams},1651614325,0
{consumergroup=__strimzi-topic-operator-kstreams},1651614330,0
{consumergroup=__strimzi-topic-operator-kstreams},1651614335,0
{consumergroup=__strimzi-topic-operator-kstreams},1651614340,0
{consumergroup=__strimzi-topic-operator-kstreams},1651614345,0
{consumergroup=__strimzi-topic-operator-kstreams},1651614350,0
{consumergroup=__strimzi-topic-operator-kstreams},1651614355,0
{consumergroup=__strimzi-topic-operator-kstreams},1651614360,0
{consumergroup=__strimzi-topic-operator-kstreams},1651614365,0
{consumergroup=__strimzi-topic-operator-kstreams},1651614370,0
{consumergroup=__strimzi-topic-operator-kstreams},1651614375,0
{consumergroup=__strimzi-topic-operator-kstreams},1651614380,0
{consumergroup=__strimzi-topic-operator-kstreams},1651614385,0
{consumergroup=__strimzi-topic-operator-kstreams},1651614390,0
{consumergroup=adapter-service},1651614165,74007
{consumergroup=adapter-service},1651614170,74007
{consumergroup=adapter-service},1651614175,74007
{consumergroup=adapter-service},1651614180,267634
{consumergroup=adapter-service},1651614185,267634
{consumergroup=adapter-service},1651614190,267634
{consumergroup=adapter-service},1651614195,289998
{consumergroup=adapter-service},1651614200,289998
{consumergroup=adapter-service},1651614205,289998
{consumergroup=adapter-service},1651614210,326587
{consumergroup=adapter-service},1651614215,326587
{consumergroup=adapter-service},1651614220,326587
{consumergroup=adapter-service},1651614225,262427
{consumergroup=adapter-service},1651614230,262427
{consumergroup=adapter-service},1651614235,262427
{consumergroup=adapter-service},1651614240,174118
{consumergroup=adapter-service},1651614245,174118
{consumergroup=adapter-service},1651614250,174118
{consumergroup=adapter-service},1651614255,92837
{consumergroup=adapter-service},1651614260,92837
{consumergroup=adapter-service},1651614265,92837
{consumergroup=adapter-service},1651614270,54875
{consumergroup=adapter-service},1651614275,54875
{consumergroup=adapter-service},1651614280,54875
{consumergroup=adapter-service},1651614285,63750
{consumergroup=adapter-service},1651614290,63750
{consumergroup=adapter-service},1651614295,63750
{consumergroup=adapter-service},1651614300,46139
{consumergroup=adapter-service},1651614305,46139
{consumergroup=adapter-service},1651614310,46139
{consumergroup=adapter-service},1651614315,57814
{consumergroup=adapter-service},1651614320,57814
{consumergroup=adapter-service},1651614325,57814
{consumergroup=adapter-service},1651614330,43020
{consumergroup=adapter-service},1651614335,43020
{consumergroup=adapter-service},1651614340,43020
{consumergroup=adapter-service},1651614345,55123
{consumergroup=adapter-service},1651614350,55123
{consumergroup=adapter-service},1651614355,55123
{consumergroup=adapter-service},1651614360,40852
{consumergroup=adapter-service},1651614365,40852
{consumergroup=adapter-service},1651614370,40852
{consumergroup=adapter-service},1651614375,52048
{consumergroup=adapter-service},1651614380,52048
{consumergroup=adapter-service},1651614385,52048
{consumergroup=adapter-service},1651614390,37593
