labels,timestamp,value
{consumergroup=__strimzi-topic-operator-kstreams},1651613256,8
{consumergroup=__strimzi-topic-operator-kstreams},1651613261,8
{consumergroup=__strimzi-topic-operator-kstreams},1651613266,8
{consumergroup=__strimzi-topic-operator-kstreams},1651613271,8
{consumergroup=__strimzi-topic-operator-kstreams},1651613276,8
{consumergroup=__strimzi-topic-operator-kstreams},1651613281,8
{consumergroup=__strimzi-topic-operator-kstreams},1651613286,0
{consumergroup=__strimzi-topic-operator-kstreams},1651613291,0
{consumergroup=__strimzi-topic-operator-kstreams},1651613296,0
{consumergroup=__strimzi-topic-operator-kstreams},1651613301,0
{consumergroup=__strimzi-topic-operator-kstreams},1651613306,0
{consumergroup=__strimzi-topic-operator-kstreams},1651613311,0
{consumergroup=__strimzi-topic-operator-kstreams},1651613316,0
{consumergroup=__strimzi-topic-operator-kstreams},1651613321,0
{consumergroup=__strimzi-topic-operator-kstreams},1651613326,0
{consumergroup=__strimzi-topic-operator-kstreams},1651613331,0
{consumergroup=__strimzi-topic-operator-kstreams},1651613336,0
{consumergroup=__strimzi-topic-operator-kstreams},1651613341,0
{consumergroup=__strimzi-topic-operator-kstreams},1651613346,0
{consumergroup=__strimzi-topic-operator-kstreams},1651613351,0
{consumergroup=__strimzi-topic-operator-kstreams},1651613356,0
{consumergroup=__strimzi-topic-operator-kstreams},1651613361,0
{consumergroup=__strimzi-topic-operator-kstreams},1651613366,0
{consumergroup=__strimzi-topic-operator-kstreams},1651613371,0
{consumergroup=__strimzi-topic-operator-kstreams},1651613376,0
{consumergroup=__strimzi-topic-operator-kstreams},1651613381,0
{consumergroup=__strimzi-topic-operator-kstreams},1651613386,0
{consumergroup=__strimzi-topic-operator-kstreams},1651613391,0
{consumergroup=__strimzi-topic-operator-kstreams},1651613396,0
{consumergroup=__strimzi-topic-operator-kstreams},1651613401,0
{consumergroup=__strimzi-topic-operator-kstreams},1651613406,0
{consumergroup=__strimzi-topic-operator-kstreams},1651613411,0
{consumergroup=__strimzi-topic-operator-kstreams},1651613416,0
{consumergroup=__strimzi-topic-operator-kstreams},1651613421,0
{consumergroup=__strimzi-topic-operator-kstreams},1651613426,0
{consumergroup=__strimzi-topic-operator-kstreams},1651613431,0
{consumergroup=__strimzi-topic-operator-kstreams},1651613436,0
{consumergroup=__strimzi-topic-operator-kstreams},1651613441,0
{consumergroup=__strimzi-topic-operator-kstreams},1651613446,0
{consumergroup=__strimzi-topic-operator-kstreams},1651613451,0
{consumergroup=__strimzi-topic-operator-kstreams},1651613456,0
{consumergroup=__strimzi-topic-operator-kstreams},1651613461,0
{consumergroup=__strimzi-topic-operator-kstreams},1651613466,0
{consumergroup=__strimzi-topic-operator-kstreams},1651613471,0
{consumergroup=__strimzi-topic-operator-kstreams},1651613476,0
{consumergroup=__strimzi-topic-operator-kstreams},1651613481,0
{consumergroup=__strimzi-topic-operator-kstreams},1651613486,0
{consumergroup=__strimzi-topic-operator-kstreams},1651613491,0
{consumergroup=__strimzi-topic-operator-kstreams},1651613496,0
{consumergroup=__strimzi-topic-operator-kstreams},1651613501,0
{consumergroup=__strimzi-topic-operator-kstreams},1651613506,0
{consumergroup=adapter-service},1651613286,82166
{consumergroup=adapter-service},1651613291,82166
{consumergroup=adapter-service},1651613296,82166
{consumergroup=adapter-service},1651613301,85761
{consumergroup=adapter-service},1651613306,85761
{consumergroup=adapter-service},1651613311,85761
{consumergroup=adapter-service},1651613316,39486
{consumergroup=adapter-service},1651613321,39486
{consumergroup=adapter-service},1651613326,39486
{consumergroup=adapter-service},1651613331,27901
{consumergroup=adapter-service},1651613336,27901
{consumergroup=adapter-service},1651613341,27901
{consumergroup=adapter-service},1651613346,26044
{consumergroup=adapter-service},1651613351,26044
{consumergroup=adapter-service},1651613356,26044
{consumergroup=adapter-service},1651613361,12797
{consumergroup=adapter-service},1651613366,12797
{consumergroup=adapter-service},1651613371,12797
{consumergroup=adapter-service},1651613376,33679
{consumergroup=adapter-service},1651613381,33679
{consumergroup=adapter-service},1651613386,33679
{consumergroup=adapter-service},1651613391,19243
{consumergroup=adapter-service},1651613396,19243
{consumergroup=adapter-service},1651613401,19243
{consumergroup=adapter-service},1651613406,21455
{consumergroup=adapter-service},1651613411,21455
{consumergroup=adapter-service},1651613416,21455
{consumergroup=adapter-service},1651613421,18097
{consumergroup=adapter-service},1651613426,18097
{consumergroup=adapter-service},1651613431,18097
{consumergroup=adapter-service},1651613436,20058
{consumergroup=adapter-service},1651613441,20058
{consumergroup=adapter-service},1651613446,20058
{consumergroup=adapter-service},1651613451,6705
{consumergroup=adapter-service},1651613456,6705
{consumergroup=adapter-service},1651613461,6705
{consumergroup=adapter-service},1651613466,16803
{consumergroup=adapter-service},1651613471,16803
{consumergroup=adapter-service},1651613476,16803
{consumergroup=adapter-service},1651613481,6068
{consumergroup=adapter-service},1651613486,6068
{consumergroup=adapter-service},1651613491,6068
{consumergroup=adapter-service},1651613496,16006
{consumergroup=adapter-service},1651613501,16006
{consumergroup=adapter-service},1651613506,16006
