labels,timestamp,value
{consumergroup=__strimzi-topic-operator-kstreams},1651709980,0
{consumergroup=__strimzi-topic-operator-kstreams},1651709995,4
{consumergroup=__strimzi-topic-operator-kstreams},1651710000,4
{consumergroup=__strimzi-topic-operator-kstreams},1651710005,4
{consumergroup=__strimzi-topic-operator-kstreams},1651710010,4
{consumergroup=__strimzi-topic-operator-kstreams},1651710015,4
{consumergroup=__strimzi-topic-operator-kstreams},1651710020,4
{consumergroup=__strimzi-topic-operator-kstreams},1651710025,0
{consumergroup=__strimzi-topic-operator-kstreams},1651710030,0
{consumergroup=__strimzi-topic-operator-kstreams},1651710035,0
{consumergroup=__strimzi-topic-operator-kstreams},1651710040,0
{consumergroup=__strimzi-topic-operator-kstreams},1651710045,0
{consumergroup=__strimzi-topic-operator-kstreams},1651710050,0
{consumergroup=__strimzi-topic-operator-kstreams},1651710055,0
{consumergroup=__strimzi-topic-operator-kstreams},1651710060,0
{consumergroup=__strimzi-topic-operator-kstreams},1651710065,0
{consumergroup=__strimzi-topic-operator-kstreams},1651710070,0
{consumergroup=__strimzi-topic-operator-kstreams},1651710075,0
{consumergroup=__strimzi-topic-operator-kstreams},1651710080,0
{consumergroup=__strimzi-topic-operator-kstreams},1651710085,0
{consumergroup=__strimzi-topic-operator-kstreams},1651710090,0
{consumergroup=__strimzi-topic-operator-kstreams},1651710095,0
{consumergroup=__strimzi-topic-operator-kstreams},1651710100,0
{consumergroup=__strimzi-topic-operator-kstreams},1651710105,0
{consumergroup=__strimzi-topic-operator-kstreams},1651710110,0
{consumergroup=__strimzi-topic-operator-kstreams},1651710115,0
{consumergroup=__strimzi-topic-operator-kstreams},1651710120,0
{consumergroup=__strimzi-topic-operator-kstreams},1651710125,0
{consumergroup=__strimzi-topic-operator-kstreams},1651710130,0
{consumergroup=__strimzi-topic-operator-kstreams},1651710135,0
{consumergroup=__strimzi-topic-operator-kstreams},1651710140,0
{consumergroup=__strimzi-topic-operator-kstreams},1651710145,0
{consumergroup=__strimzi-topic-operator-kstreams},1651710150,0
{consumergroup=__strimzi-topic-operator-kstreams},1651710155,0
{consumergroup=__strimzi-topic-operator-kstreams},1651710160,0
{consumergroup=__strimzi-topic-operator-kstreams},1651710165,0
{consumergroup=__strimzi-topic-operator-kstreams},1651710170,0
{consumergroup=__strimzi-topic-operator-kstreams},1651710175,0
{consumergroup=__strimzi-topic-operator-kstreams},1651710180,0
{consumergroup=__strimzi-topic-operator-kstreams},1651710185,0
{consumergroup=__strimzi-topic-operator-kstreams},1651710190,0
{consumergroup=__strimzi-topic-operator-kstreams},1651710195,0
{consumergroup=__strimzi-topic-operator-kstreams},1651710200,0
{consumergroup=__strimzi-topic-operator-kstreams},1651710205,0
{consumergroup=__strimzi-topic-operator-kstreams},1651710210,0
{consumergroup=__strimzi-topic-operator-kstreams},1651710215,0
{consumergroup=__strimzi-topic-operator-kstreams},1651710220,0
{consumergroup=__strimzi-topic-operator-kstreams},1651710225,0
{consumergroup=__strimzi-topic-operator-kstreams},1651710230,0
{consumergroup=__strimzi-topic-operator-kstreams},1651710235,0
{consumergroup=__strimzi-topic-operator-kstreams},1651710240,0
{consumergroup=adapter-service},1651709980,35844
{consumergroup=adapter-service},1651710010,0
{consumergroup=adapter-service},1651710015,0
{consumergroup=adapter-service},1651710020,0
{consumergroup=adapter-service},1651710025,276704
{consumergroup=adapter-service},1651710030,276704
{consumergroup=adapter-service},1651710035,276704
{consumergroup=adapter-service},1651710040,169215
{consumergroup=adapter-service},1651710045,169215
{consumergroup=adapter-service},1651710050,169215
{consumergroup=adapter-service},1651710055,29353
{consumergroup=adapter-service},1651710060,29353
{consumergroup=adapter-service},1651710065,29353
{consumergroup=adapter-service},1651710070,24031
{consumergroup=adapter-service},1651710075,24031
{consumergroup=adapter-service},1651710080,24031
{consumergroup=adapter-service},1651710085,36636
{consumergroup=adapter-service},1651710090,36636
{consumergroup=adapter-service},1651710095,36636
{consumergroup=adapter-service},1651710100,63708
{consumergroup=adapter-service},1651710105,63708
{consumergroup=adapter-service},1651710110,63708
{consumergroup=adapter-service},1651710115,61679
{consumergroup=adapter-service},1651710120,61679
{consumergroup=adapter-service},1651710125,61679
{consumergroup=adapter-service},1651710130,67692
{consumergroup=adapter-service},1651710135,67692
{consumergroup=adapter-service},1651710140,67692
{consumergroup=adapter-service},1651710145,90000
{consumergroup=adapter-service},1651710150,90000
{consumergroup=adapter-service},1651710155,90000
{consumergroup=adapter-service},1651710160,109044
{consumergroup=adapter-service},1651710165,109044
{consumergroup=adapter-service},1651710170,109044
{consumergroup=adapter-service},1651710175,102360
{consumergroup=adapter-service},1651710180,102360
{consumergroup=adapter-service},1651710185,102360
{consumergroup=adapter-service},1651710190,106924
{consumergroup=adapter-service},1651710195,106924
{consumergroup=adapter-service},1651710200,106924
{consumergroup=adapter-service},1651710205,108308
{consumergroup=adapter-service},1651710210,108308
{consumergroup=adapter-service},1651710215,108308
{consumergroup=adapter-service},1651710220,91033
{consumergroup=adapter-service},1651710225,91033
{consumergroup=adapter-service},1651710230,91033
{consumergroup=adapter-service},1651710235,103061
{consumergroup=adapter-service},1651710240,103061
