labels,timestamp,value
{consumergroup=__strimzi-topic-operator-kstreams},1651602770,8
{consumergroup=__strimzi-topic-operator-kstreams},1651602775,8
{consumergroup=__strimzi-topic-operator-kstreams},1651602780,8
{consumergroup=__strimzi-topic-operator-kstreams},1651602785,0
{consumergroup=__strimzi-topic-operator-kstreams},1651602790,0
{consumergroup=__strimzi-topic-operator-kstreams},1651602795,0
{consumergroup=__strimzi-topic-operator-kstreams},1651602800,0
{consumergroup=__strimzi-topic-operator-kstreams},1651602805,0
{consumergroup=__strimzi-topic-operator-kstreams},1651602810,0
{consumergroup=__strimzi-topic-operator-kstreams},1651602815,0
{consumergroup=__strimzi-topic-operator-kstreams},1651602820,0
{consumergroup=__strimzi-topic-operator-kstreams},1651602825,0
{consumergroup=__strimzi-topic-operator-kstreams},1651602830,0
{consumergroup=__strimzi-topic-operator-kstreams},1651602835,0
{consumergroup=__strimzi-topic-operator-kstreams},1651602840,0
{consumergroup=__strimzi-topic-operator-kstreams},1651602845,0
{consumergroup=__strimzi-topic-operator-kstreams},1651602850,0
{consumergroup=__strimzi-topic-operator-kstreams},1651602855,0
{consumergroup=__strimzi-topic-operator-kstreams},1651602860,0
{consumergroup=__strimzi-topic-operator-kstreams},1651602865,0
{consumergroup=__strimzi-topic-operator-kstreams},1651602870,0
{consumergroup=__strimzi-topic-operator-kstreams},1651602875,0
{consumergroup=__strimzi-topic-operator-kstreams},1651602880,0
{consumergroup=__strimzi-topic-operator-kstreams},1651602885,0
{consumergroup=__strimzi-topic-operator-kstreams},1651602890,0
{consumergroup=__strimzi-topic-operator-kstreams},1651602895,0
{consumergroup=__strimzi-topic-operator-kstreams},1651602900,0
{consumergroup=__strimzi-topic-operator-kstreams},1651602905,0
{consumergroup=__strimzi-topic-operator-kstreams},1651602910,0
{consumergroup=__strimzi-topic-operator-kstreams},1651602915,0
{consumergroup=__strimzi-topic-operator-kstreams},1651602920,0
{consumergroup=__strimzi-topic-operator-kstreams},1651602925,0
{consumergroup=__strimzi-topic-operator-kstreams},1651602930,0
{consumergroup=__strimzi-topic-operator-kstreams},1651602935,0
{consumergroup=__strimzi-topic-operator-kstreams},1651602940,0
{consumergroup=__strimzi-topic-operator-kstreams},1651602945,0
{consumergroup=__strimzi-topic-operator-kstreams},1651602950,0
{consumergroup=__strimzi-topic-operator-kstreams},1651602955,0
{consumergroup=__strimzi-topic-operator-kstreams},1651602960,0
{consumergroup=__strimzi-topic-operator-kstreams},1651602965,0
{consumergroup=__strimzi-topic-operator-kstreams},1651602970,0
{consumergroup=__strimzi-topic-operator-kstreams},1651602975,0
{consumergroup=__strimzi-topic-operator-kstreams},1651602980,0
{consumergroup=__strimzi-topic-operator-kstreams},1651602985,0
{consumergroup=__strimzi-topic-operator-kstreams},1651602990,0
{consumergroup=__strimzi-topic-operator-kstreams},1651602995,0
{consumergroup=__strimzi-topic-operator-kstreams},1651603000,0
{consumergroup=__strimzi-topic-operator-kstreams},1651603005,0
{consumergroup=__strimzi-topic-operator-kstreams},1651603010,0
{consumergroup=__strimzi-topic-operator-kstreams},1651603015,0
{consumergroup=landscape-service},1651602800,13005
{consumergroup=landscape-service},1651602805,13005
{consumergroup=landscape-service},1651602810,13005
{consumergroup=landscape-service},1651602815,5808656
{consumergroup=landscape-service},1651602820,5808656
{consumergroup=landscape-service},1651602825,5808656
{consumergroup=landscape-service},1651602830,7985857
{consumergroup=landscape-service},1651602835,7985857
{consumergroup=landscape-service},1651602840,7985857
{consumergroup=landscape-service},1651602845,9337053
{consumergroup=landscape-service},1651602850,9337053
{consumergroup=landscape-service},1651602855,9337053
{consumergroup=landscape-service},1651602860,10526696
{consumergroup=landscape-service},1651602865,10526696
{consumergroup=landscape-service},1651602870,10526696
{consumergroup=landscape-service},1651602875,11662173
{consumergroup=landscape-service},1651602880,11662173
{consumergroup=landscape-service},1651602885,11662173
{consumergroup=landscape-service},1651602890,12166674
{consumergroup=landscape-service},1651602895,12166674
{consumergroup=landscape-service},1651602900,12166674
{consumergroup=landscape-service},1651602905,13006982
{consumergroup=landscape-service},1651602910,13006982
{consumergroup=landscape-service},1651602915,13006982
{consumergroup=landscape-service},1651602920,13616071
{consumergroup=landscape-service},1651602925,13616071
{consumergroup=landscape-service},1651602930,13616071
{consumergroup=landscape-service},1651602935,14571355
{consumergroup=landscape-service},1651602940,14571355
{consumergroup=landscape-service},1651602945,14571355
{consumergroup=landscape-service},1651602950,14532558
{consumergroup=landscape-service},1651602955,14532558
{consumergroup=landscape-service},1651602960,14532558
{consumergroup=landscape-service},1651602965,14970835
{consumergroup=landscape-service},1651602970,14970835
{consumergroup=landscape-service},1651602975,14970835
{consumergroup=landscape-service},1651602980,15434686
{consumergroup=landscape-service},1651602985,15434686
{consumergroup=landscape-service},1651602990,15434686
{consumergroup=landscape-service},1651602995,15754073
{consumergroup=landscape-service},1651603000,15754073
{consumergroup=landscape-service},1651603005,15754073
{consumergroup=landscape-service},1651603010,16060807
{consumergroup=landscape-service},1651603015,16060807
