labels,timestamp,value
{consumergroup=__strimzi-topic-operator-kstreams},1651706482,14
{consumergroup=__strimzi-topic-operator-kstreams},1651706487,14
{consumergroup=__strimzi-topic-operator-kstreams},1651706492,14
{consumergroup=__strimzi-topic-operator-kstreams},1651706497,14
{consumergroup=__strimzi-topic-operator-kstreams},1651706502,14
{consumergroup=__strimzi-topic-operator-kstreams},1651706507,14
{consumergroup=__strimzi-topic-operator-kstreams},1651706512,0
{consumergroup=__strimzi-topic-operator-kstreams},1651706517,0
{consumergroup=__strimzi-topic-operator-kstreams},1651706522,0
{consumergroup=__strimzi-topic-operator-kstreams},1651706527,0
{consumergroup=__strimzi-topic-operator-kstreams},1651706532,0
{consumergroup=__strimzi-topic-operator-kstreams},1651706537,0
{consumergroup=__strimzi-topic-operator-kstreams},1651706542,0
{consumergroup=__strimzi-topic-operator-kstreams},1651706547,0
{consumergroup=__strimzi-topic-operator-kstreams},1651706552,0
{consumergroup=__strimzi-topic-operator-kstreams},1651706557,0
{consumergroup=__strimzi-topic-operator-kstreams},1651706562,0
{consumergroup=__strimzi-topic-operator-kstreams},1651706567,0
{consumergroup=__strimzi-topic-operator-kstreams},1651706572,0
{consumergroup=__strimzi-topic-operator-kstreams},1651706577,0
{consumergroup=__strimzi-topic-operator-kstreams},1651706582,0
{consumergroup=__strimzi-topic-operator-kstreams},1651706587,0
{consumergroup=__strimzi-topic-operator-kstreams},1651706592,0
{consumergroup=__strimzi-topic-operator-kstreams},1651706597,0
{consumergroup=__strimzi-topic-operator-kstreams},1651706602,0
{consumergroup=__strimzi-topic-operator-kstreams},1651706607,0
{consumergroup=__strimzi-topic-operator-kstreams},1651706612,0
{consumergroup=__strimzi-topic-operator-kstreams},1651706617,0
{consumergroup=__strimzi-topic-operator-kstreams},1651706622,0
{consumergroup=__strimzi-topic-operator-kstreams},1651706627,0
{consumergroup=__strimzi-topic-operator-kstreams},1651706632,0
{consumergroup=__strimzi-topic-operator-kstreams},1651706637,0
{consumergroup=__strimzi-topic-operator-kstreams},1651706642,0
{consumergroup=__strimzi-topic-operator-kstreams},1651706647,0
{consumergroup=__strimzi-topic-operator-kstreams},1651706652,0
{consumergroup=__strimzi-topic-operator-kstreams},1651706657,0
{consumergroup=__strimzi-topic-operator-kstreams},1651706662,0
{consumergroup=__strimzi-topic-operator-kstreams},1651706667,0
{consumergroup=__strimzi-topic-operator-kstreams},1651706672,0
{consumergroup=__strimzi-topic-operator-kstreams},1651706677,0
{consumergroup=__strimzi-topic-operator-kstreams},1651706682,0
{consumergroup=__strimzi-topic-operator-kstreams},1651706687,0
{consumergroup=__strimzi-topic-operator-kstreams},1651706692,0
{consumergroup=__strimzi-topic-operator-kstreams},1651706697,0
{consumergroup=__strimzi-topic-operator-kstreams},1651706702,0
{consumergroup=__strimzi-topic-operator-kstreams},1651706707,0
{consumergroup=__strimzi-topic-operator-kstreams},1651706712,0
{consumergroup=__strimzi-topic-operator-kstreams},1651706717,0
{consumergroup=__strimzi-topic-operator-kstreams},1651706722,0
{consumergroup=__strimzi-topic-operator-kstreams},1651706727,0
{consumergroup=adapter-service},1651706497,0
{consumergroup=adapter-service},1651706502,0
{consumergroup=adapter-service},1651706507,0
{consumergroup=adapter-service},1651706512,1286177
{consumergroup=adapter-service},1651706517,1286177
{consumergroup=adapter-service},1651706522,1286177
{consumergroup=adapter-service},1651706527,2221279
{consumergroup=adapter-service},1651706532,2221279
{consumergroup=adapter-service},1651706537,2221279
{consumergroup=adapter-service},1651706542,2974330
{consumergroup=adapter-service},1651706547,2974330
{consumergroup=adapter-service},1651706552,2974330
{consumergroup=adapter-service},1651706557,3679522
{consumergroup=adapter-service},1651706562,3679522
{consumergroup=adapter-service},1651706567,3679522
{consumergroup=adapter-service},1651706572,4250744
{consumergroup=adapter-service},1651706577,4250744
{consumergroup=adapter-service},1651706582,4250744
{consumergroup=adapter-service},1651706587,4696386
{consumergroup=adapter-service},1651706592,4696386
{consumergroup=adapter-service},1651706597,4696386
{consumergroup=adapter-service},1651706602,5229972
{consumergroup=adapter-service},1651706607,5229972
{consumergroup=adapter-service},1651706612,5229972
{consumergroup=adapter-service},1651706617,5444854
{consumergroup=adapter-service},1651706622,5444854
{consumergroup=adapter-service},1651706627,5444854
{consumergroup=adapter-service},1651706632,5639254
{consumergroup=adapter-service},1651706637,5639254
{consumergroup=adapter-service},1651706642,5639254
{consumergroup=adapter-service},1651706647,5908595
{consumergroup=adapter-service},1651706652,5908595
{consumergroup=adapter-service},1651706657,5908595
{consumergroup=adapter-service},1651706662,6000484
{consumergroup=adapter-service},1651706667,6000484
{consumergroup=adapter-service},1651706672,6000484
{consumergroup=adapter-service},1651706677,6160753
{consumergroup=adapter-service},1651706682,6160753
{consumergroup=adapter-service},1651706687,6160753
{consumergroup=adapter-service},1651706692,6389995
{consumergroup=adapter-service},1651706697,6389995
{consumergroup=adapter-service},1651706702,6389995
{consumergroup=adapter-service},1651706707,6574287
{consumergroup=adapter-service},1651706712,6574287
{consumergroup=adapter-service},1651706717,6574287
{consumergroup=adapter-service},1651706722,6743480
{consumergroup=adapter-service},1651706727,6743480
