labels,timestamp,value
{consumergroup=__strimzi-topic-operator-kstreams},1651627693,17
{consumergroup=__strimzi-topic-operator-kstreams},1651627698,17
{consumergroup=__strimzi-topic-operator-kstreams},1651627703,17
{consumergroup=__strimzi-topic-operator-kstreams},1651627708,17
{consumergroup=__strimzi-topic-operator-kstreams},1651627713,17
{consumergroup=__strimzi-topic-operator-kstreams},1651627718,17
{consumergroup=__strimzi-topic-operator-kstreams},1651627723,0
{consumergroup=__strimzi-topic-operator-kstreams},1651627728,0
{consumergroup=__strimzi-topic-operator-kstreams},1651627733,0
{consumergroup=__strimzi-topic-operator-kstreams},1651627738,0
{consumergroup=__strimzi-topic-operator-kstreams},1651627743,0
{consumergroup=__strimzi-topic-operator-kstreams},1651627748,0
{consumergroup=__strimzi-topic-operator-kstreams},1651627753,0
{consumergroup=__strimzi-topic-operator-kstreams},1651627758,0
{consumergroup=__strimzi-topic-operator-kstreams},1651627763,0
{consumergroup=__strimzi-topic-operator-kstreams},1651627768,0
{consumergroup=__strimzi-topic-operator-kstreams},1651627773,0
{consumergroup=__strimzi-topic-operator-kstreams},1651627778,0
{consumergroup=__strimzi-topic-operator-kstreams},1651627783,0
{consumergroup=__strimzi-topic-operator-kstreams},1651627788,0
{consumergroup=__strimzi-topic-operator-kstreams},1651627793,0
{consumergroup=__strimzi-topic-operator-kstreams},1651627798,0
{consumergroup=__strimzi-topic-operator-kstreams},1651627803,0
{consumergroup=__strimzi-topic-operator-kstreams},1651627808,0
{consumergroup=__strimzi-topic-operator-kstreams},1651627813,0
{consumergroup=__strimzi-topic-operator-kstreams},1651627818,0
{consumergroup=__strimzi-topic-operator-kstreams},1651627823,0
{consumergroup=__strimzi-topic-operator-kstreams},1651627828,0
{consumergroup=__strimzi-topic-operator-kstreams},1651627833,0
{consumergroup=__strimzi-topic-operator-kstreams},1651627838,0
{consumergroup=__strimzi-topic-operator-kstreams},1651627843,0
{consumergroup=__strimzi-topic-operator-kstreams},1651627848,0
{consumergroup=__strimzi-topic-operator-kstreams},1651627853,0
{consumergroup=__strimzi-topic-operator-kstreams},1651627858,0
{consumergroup=__strimzi-topic-operator-kstreams},1651627863,0
{consumergroup=__strimzi-topic-operator-kstreams},1651627868,0
{consumergroup=__strimzi-topic-operator-kstreams},1651627873,0
{consumergroup=__strimzi-topic-operator-kstreams},1651627878,0
{consumergroup=__strimzi-topic-operator-kstreams},1651627883,0
{consumergroup=__strimzi-topic-operator-kstreams},1651627888,0
{consumergroup=__strimzi-topic-operator-kstreams},1651627893,0
{consumergroup=__strimzi-topic-operator-kstreams},1651627898,0
{consumergroup=__strimzi-topic-operator-kstreams},1651627903,0
{consumergroup=__strimzi-topic-operator-kstreams},1651627908,0
{consumergroup=__strimzi-topic-operator-kstreams},1651627913,0
{consumergroup=__strimzi-topic-operator-kstreams},1651627918,0
{consumergroup=__strimzi-topic-operator-kstreams},1651627923,0
{consumergroup=__strimzi-topic-operator-kstreams},1651627928,0
{consumergroup=__strimzi-topic-operator-kstreams},1651627933,0
{consumergroup=__strimzi-topic-operator-kstreams},1651627938,0
{consumergroup=adapter-service},1651627708,0
{consumergroup=adapter-service},1651627713,0
{consumergroup=adapter-service},1651627718,0
{consumergroup=adapter-service},1651627723,1143070
{consumergroup=adapter-service},1651627728,1143070
{consumergroup=adapter-service},1651627733,1143070
{consumergroup=adapter-service},1651627738,2178168
{consumergroup=adapter-service},1651627743,2178168
{consumergroup=adapter-service},1651627748,2178168
{consumergroup=adapter-service},1651627753,2956885
{consumergroup=adapter-service},1651627758,2956885
{consumergroup=adapter-service},1651627763,2956885
{consumergroup=adapter-service},1651627768,3820824
{consumergroup=adapter-service},1651627773,3820824
{consumergroup=adapter-service},1651627778,3820824
{consumergroup=adapter-service},1651627783,4315447
{consumergroup=adapter-service},1651627788,4315447
{consumergroup=adapter-service},1651627793,4315447
{consumergroup=adapter-service},1651627798,4594616
{consumergroup=adapter-service},1651627803,4594616
{consumergroup=adapter-service},1651627808,4594616
{consumergroup=adapter-service},1651627813,4746006
{consumergroup=adapter-service},1651627818,4746006
{consumergroup=adapter-service},1651627823,4746006
{consumergroup=adapter-service},1651627828,4848327
{consumergroup=adapter-service},1651627833,4848327
{consumergroup=adapter-service},1651627838,4848327
{consumergroup=adapter-service},1651627843,4895753
{consumergroup=adapter-service},1651627848,4895753
{consumergroup=adapter-service},1651627853,4895753
{consumergroup=adapter-service},1651627858,4941245
{consumergroup=adapter-service},1651627863,4941245
{consumergroup=adapter-service},1651627868,4941245
{consumergroup=adapter-service},1651627873,4984236
{consumergroup=adapter-service},1651627878,4984236
{consumergroup=adapter-service},1651627883,4984236
{consumergroup=adapter-service},1651627888,5006068
{consumergroup=adapter-service},1651627893,5006068
{consumergroup=adapter-service},1651627898,5006068
{consumergroup=adapter-service},1651627903,5139928
{consumergroup=adapter-service},1651627908,5139928
{consumergroup=adapter-service},1651627913,5139928
{consumergroup=adapter-service},1651627918,5071655
{consumergroup=adapter-service},1651627923,5071655
{consumergroup=adapter-service},1651627928,5071655
{consumergroup=adapter-service},1651627933,5126911
{consumergroup=adapter-service},1651627938,5126911
