labels,timestamp,value
{consumergroup=__strimzi-topic-operator-kstreams},1651717977,15
{consumergroup=__strimzi-topic-operator-kstreams},1651717982,15
{consumergroup=__strimzi-topic-operator-kstreams},1651717987,15
{consumergroup=__strimzi-topic-operator-kstreams},1651717992,0
{consumergroup=__strimzi-topic-operator-kstreams},1651717997,0
{consumergroup=__strimzi-topic-operator-kstreams},1651718002,0
{consumergroup=__strimzi-topic-operator-kstreams},1651718007,0
{consumergroup=__strimzi-topic-operator-kstreams},1651718012,0
{consumergroup=__strimzi-topic-operator-kstreams},1651718017,0
{consumergroup=__strimzi-topic-operator-kstreams},1651718022,0
{consumergroup=__strimzi-topic-operator-kstreams},1651718027,0
{consumergroup=__strimzi-topic-operator-kstreams},1651718032,0
{consumergroup=__strimzi-topic-operator-kstreams},1651718037,0
{consumergroup=__strimzi-topic-operator-kstreams},1651718042,0
{consumergroup=__strimzi-topic-operator-kstreams},1651718047,0
{consumergroup=__strimzi-topic-operator-kstreams},1651718052,0
{consumergroup=__strimzi-topic-operator-kstreams},1651718057,0
{consumergroup=__strimzi-topic-operator-kstreams},1651718062,0
{consumergroup=__strimzi-topic-operator-kstreams},1651718067,0
{consumergroup=__strimzi-topic-operator-kstreams},1651718072,0
{consumergroup=__strimzi-topic-operator-kstreams},1651718077,0
{consumergroup=__strimzi-topic-operator-kstreams},1651718082,0
{consumergroup=__strimzi-topic-operator-kstreams},1651718087,0
{consumergroup=__strimzi-topic-operator-kstreams},1651718092,0
{consumergroup=__strimzi-topic-operator-kstreams},1651718097,0
{consumergroup=__strimzi-topic-operator-kstreams},1651718102,0
{consumergroup=__strimzi-topic-operator-kstreams},1651718107,0
{consumergroup=__strimzi-topic-operator-kstreams},1651718112,0
{consumergroup=__strimzi-topic-operator-kstreams},1651718117,0
{consumergroup=__strimzi-topic-operator-kstreams},1651718122,0
{consumergroup=__strimzi-topic-operator-kstreams},1651718127,0
{consumergroup=__strimzi-topic-operator-kstreams},1651718132,0
{consumergroup=__strimzi-topic-operator-kstreams},1651718137,0
{consumergroup=__strimzi-topic-operator-kstreams},1651718142,0
{consumergroup=__strimzi-topic-operator-kstreams},1651718147,0
{consumergroup=__strimzi-topic-operator-kstreams},1651718152,0
{consumergroup=__strimzi-topic-operator-kstreams},1651718157,0
{consumergroup=__strimzi-topic-operator-kstreams},1651718162,0
{consumergroup=__strimzi-topic-operator-kstreams},1651718167,0
{consumergroup=__strimzi-topic-operator-kstreams},1651718172,0
{consumergroup=__strimzi-topic-operator-kstreams},1651718177,0
{consumergroup=__strimzi-topic-operator-kstreams},1651718182,0
{consumergroup=__strimzi-topic-operator-kstreams},1651718187,0
{consumergroup=__strimzi-topic-operator-kstreams},1651718192,0
{consumergroup=__strimzi-topic-operator-kstreams},1651718197,0
{consumergroup=__strimzi-topic-operator-kstreams},1651718202,0
{consumergroup=__strimzi-topic-operator-kstreams},1651718207,0
{consumergroup=__strimzi-topic-operator-kstreams},1651718212,0
{consumergroup=__strimzi-topic-operator-kstreams},1651718217,0
{consumergroup=__strimzi-topic-operator-kstreams},1651718222,0
{consumergroup=__strimzi-topic-operator-kstreams},1651718227,0
{consumergroup=__strimzi-topic-operator-kstreams},1651718232,0
{consumergroup=adapter-service},1651718007,489514
{consumergroup=adapter-service},1651718012,489514
{consumergroup=adapter-service},1651718017,489514
{consumergroup=adapter-service},1651718022,1892097
{consumergroup=adapter-service},1651718027,1892097
{consumergroup=adapter-service},1651718032,1892097
{consumergroup=adapter-service},1651718037,2823493
{consumergroup=adapter-service},1651718042,2823493
{consumergroup=adapter-service},1651718047,2823493
{consumergroup=adapter-service},1651718052,3389085
{consumergroup=adapter-service},1651718057,3389085
{consumergroup=adapter-service},1651718062,3389085
{consumergroup=adapter-service},1651718067,4191410
{consumergroup=adapter-service},1651718072,4191410
{consumergroup=adapter-service},1651718077,4191410
{consumergroup=adapter-service},1651718082,4461312
{consumergroup=adapter-service},1651718087,4461312
{consumergroup=adapter-service},1651718092,4461312
{consumergroup=adapter-service},1651718097,4371705
{consumergroup=adapter-service},1651718102,4371705
{consumergroup=adapter-service},1651718107,4371705
{consumergroup=adapter-service},1651718112,4327316
{consumergroup=adapter-service},1651718117,4327316
{consumergroup=adapter-service},1651718122,4327316
{consumergroup=adapter-service},1651718127,4173289
{consumergroup=adapter-service},1651718132,4173289
{consumergroup=adapter-service},1651718137,4173289
{consumergroup=adapter-service},1651718142,4009548
{consumergroup=adapter-service},1651718147,4009548
{consumergroup=adapter-service},1651718152,4009548
{consumergroup=adapter-service},1651718157,3932898
{consumergroup=adapter-service},1651718162,3932898
{consumergroup=adapter-service},1651718167,3932898
{consumergroup=adapter-service},1651718172,3683135
{consumergroup=adapter-service},1651718177,3683135
{consumergroup=adapter-service},1651718182,3683135
{consumergroup=adapter-service},1651718187,3501319
{consumergroup=adapter-service},1651718192,3501319
{consumergroup=adapter-service},1651718197,3501319
{consumergroup=adapter-service},1651718202,3344441
{consumergroup=adapter-service},1651718207,3344441
{consumergroup=adapter-service},1651718212,3344441
{consumergroup=adapter-service},1651718217,3163888
{consumergroup=adapter-service},1651718222,3163888
{consumergroup=adapter-service},1651718227,3163888
{consumergroup=adapter-service},1651718232,2938628
