labels,timestamp,value
{consumergroup=__strimzi-topic-operator-kstreams},1651625031,16
{consumergroup=__strimzi-topic-operator-kstreams},1651625036,16
{consumergroup=__strimzi-topic-operator-kstreams},1651625041,16
{consumergroup=__strimzi-topic-operator-kstreams},1651625046,0
{consumergroup=__strimzi-topic-operator-kstreams},1651625051,0
{consumergroup=__strimzi-topic-operator-kstreams},1651625056,0
{consumergroup=__strimzi-topic-operator-kstreams},1651625061,0
{consumergroup=__strimzi-topic-operator-kstreams},1651625066,0
{consumergroup=__strimzi-topic-operator-kstreams},1651625071,0
{consumergroup=__strimzi-topic-operator-kstreams},1651625076,0
{consumergroup=__strimzi-topic-operator-kstreams},1651625081,0
{consumergroup=__strimzi-topic-operator-kstreams},1651625086,0
{consumergroup=__strimzi-topic-operator-kstreams},1651625091,0
{consumergroup=__strimzi-topic-operator-kstreams},1651625096,0
{consumergroup=__strimzi-topic-operator-kstreams},1651625101,0
{consumergroup=__strimzi-topic-operator-kstreams},1651625106,0
{consumergroup=__strimzi-topic-operator-kstreams},1651625111,0
{consumergroup=__strimzi-topic-operator-kstreams},1651625116,0
{consumergroup=__strimzi-topic-operator-kstreams},1651625121,0
{consumergroup=__strimzi-topic-operator-kstreams},1651625126,0
{consumergroup=__strimzi-topic-operator-kstreams},1651625131,0
{consumergroup=__strimzi-topic-operator-kstreams},1651625136,0
{consumergroup=__strimzi-topic-operator-kstreams},1651625141,0
{consumergroup=__strimzi-topic-operator-kstreams},1651625146,0
{consumergroup=__strimzi-topic-operator-kstreams},1651625151,0
{consumergroup=__strimzi-topic-operator-kstreams},1651625156,0
{consumergroup=__strimzi-topic-operator-kstreams},1651625161,0
{consumergroup=__strimzi-topic-operator-kstreams},1651625166,0
{consumergroup=__strimzi-topic-operator-kstreams},1651625171,0
{consumergroup=__strimzi-topic-operator-kstreams},1651625176,0
{consumergroup=__strimzi-topic-operator-kstreams},1651625181,0
{consumergroup=__strimzi-topic-operator-kstreams},1651625186,0
{consumergroup=__strimzi-topic-operator-kstreams},1651625191,0
{consumergroup=__strimzi-topic-operator-kstreams},1651625196,0
{consumergroup=__strimzi-topic-operator-kstreams},1651625201,0
{consumergroup=__strimzi-topic-operator-kstreams},1651625206,0
{consumergroup=__strimzi-topic-operator-kstreams},1651625211,0
{consumergroup=__strimzi-topic-operator-kstreams},1651625216,0
{consumergroup=__strimzi-topic-operator-kstreams},1651625221,0
{consumergroup=__strimzi-topic-operator-kstreams},1651625226,0
{consumergroup=__strimzi-topic-operator-kstreams},1651625231,0
{consumergroup=__strimzi-topic-operator-kstreams},1651625236,0
{consumergroup=__strimzi-topic-operator-kstreams},1651625241,0
{consumergroup=__strimzi-topic-operator-kstreams},1651625246,0
{consumergroup=__strimzi-topic-operator-kstreams},1651625251,0
{consumergroup=__strimzi-topic-operator-kstreams},1651625256,0
{consumergroup=__strimzi-topic-operator-kstreams},1651625261,0
{consumergroup=__strimzi-topic-operator-kstreams},1651625266,0
{consumergroup=__strimzi-topic-operator-kstreams},1651625271,0
{consumergroup=__strimzi-topic-operator-kstreams},1651625276,0
{consumergroup=__strimzi-topic-operator-kstreams},1651625281,0
{consumergroup=__strimzi-topic-operator-kstreams},1651625286,0
{consumergroup=adapter-service},1651625061,135455
{consumergroup=adapter-service},1651625066,135455
{consumergroup=adapter-service},1651625071,135455
{consumergroup=adapter-service},1651625076,1071507
{consumergroup=adapter-service},1651625081,1071507
{consumergroup=adapter-service},1651625086,1071507
{consumergroup=adapter-service},1651625091,1634355
{consumergroup=adapter-service},1651625096,1634355
{consumergroup=adapter-service},1651625101,1634355
{consumergroup=adapter-service},1651625106,2083929
{consumergroup=adapter-service},1651625111,2083929
{consumergroup=adapter-service},1651625116,2083929
{consumergroup=adapter-service},1651625121,2345228
{consumergroup=adapter-service},1651625126,2345228
{consumergroup=adapter-service},1651625131,2345228
{consumergroup=adapter-service},1651625136,2423910
{consumergroup=adapter-service},1651625141,2423910
{consumergroup=adapter-service},1651625146,2423910
{consumergroup=adapter-service},1651625151,2146982
{consumergroup=adapter-service},1651625156,2146982
{consumergroup=adapter-service},1651625161,2146982
{consumergroup=adapter-service},1651625166,1966436
{consumergroup=adapter-service},1651625171,1966436
{consumergroup=adapter-service},1651625176,1966436
{consumergroup=adapter-service},1651625181,1543392
{consumergroup=adapter-service},1651625186,1543392
{consumergroup=adapter-service},1651625191,1543392
{consumergroup=adapter-service},1651625196,1160817
{consumergroup=adapter-service},1651625201,1160817
{consumergroup=adapter-service},1651625206,1160817
{consumergroup=adapter-service},1651625211,743167
{consumergroup=adapter-service},1651625216,743167
{consumergroup=adapter-service},1651625221,743167
{consumergroup=adapter-service},1651625226,543375
{consumergroup=adapter-service},1651625231,543375
{consumergroup=adapter-service},1651625236,543375
{consumergroup=adapter-service},1651625241,340644
{consumergroup=adapter-service},1651625246,340644
{consumergroup=adapter-service},1651625251,340644
{consumergroup=adapter-service},1651625256,182757
{consumergroup=adapter-service},1651625261,182757
{consumergroup=adapter-service},1651625266,182757
{consumergroup=adapter-service},1651625271,134114
{consumergroup=adapter-service},1651625276,134114
{consumergroup=adapter-service},1651625281,134114
{consumergroup=adapter-service},1651625286,87794
