labels,timestamp,value
{consumergroup=__strimzi-topic-operator-kstreams},1651701474,20
{consumergroup=__strimzi-topic-operator-kstreams},1651701479,20
{consumergroup=__strimzi-topic-operator-kstreams},1651701484,20
{consumergroup=__strimzi-topic-operator-kstreams},1651701489,0
{consumergroup=__strimzi-topic-operator-kstreams},1651701494,0
{consumergroup=__strimzi-topic-operator-kstreams},1651701499,0
{consumergroup=__strimzi-topic-operator-kstreams},1651701504,0
{consumergroup=__strimzi-topic-operator-kstreams},1651701509,0
{consumergroup=__strimzi-topic-operator-kstreams},1651701514,0
{consumergroup=__strimzi-topic-operator-kstreams},1651701519,0
{consumergroup=__strimzi-topic-operator-kstreams},1651701524,0
{consumergroup=__strimzi-topic-operator-kstreams},1651701529,0
{consumergroup=__strimzi-topic-operator-kstreams},1651701534,0
{consumergroup=__strimzi-topic-operator-kstreams},1651701539,0
{consumergroup=__strimzi-topic-operator-kstreams},1651701544,0
{consumergroup=__strimzi-topic-operator-kstreams},1651701549,0
{consumergroup=__strimzi-topic-operator-kstreams},1651701554,0
{consumergroup=__strimzi-topic-operator-kstreams},1651701559,0
{consumergroup=__strimzi-topic-operator-kstreams},1651701564,0
{consumergroup=__strimzi-topic-operator-kstreams},1651701569,0
{consumergroup=__strimzi-topic-operator-kstreams},1651701574,0
{consumergroup=__strimzi-topic-operator-kstreams},1651701579,0
{consumergroup=__strimzi-topic-operator-kstreams},1651701584,0
{consumergroup=__strimzi-topic-operator-kstreams},1651701589,0
{consumergroup=__strimzi-topic-operator-kstreams},1651701594,0
{consumergroup=__strimzi-topic-operator-kstreams},1651701599,0
{consumergroup=__strimzi-topic-operator-kstreams},1651701604,0
{consumergroup=__strimzi-topic-operator-kstreams},1651701609,0
{consumergroup=__strimzi-topic-operator-kstreams},1651701614,0
{consumergroup=__strimzi-topic-operator-kstreams},1651701619,0
{consumergroup=__strimzi-topic-operator-kstreams},1651701624,0
{consumergroup=__strimzi-topic-operator-kstreams},1651701629,0
{consumergroup=__strimzi-topic-operator-kstreams},1651701634,0
{consumergroup=__strimzi-topic-operator-kstreams},1651701639,0
{consumergroup=__strimzi-topic-operator-kstreams},1651701644,0
{consumergroup=__strimzi-topic-operator-kstreams},1651701649,0
{consumergroup=__strimzi-topic-operator-kstreams},1651701654,0
{consumergroup=__strimzi-topic-operator-kstreams},1651701659,0
{consumergroup=__strimzi-topic-operator-kstreams},1651701664,0
{consumergroup=__strimzi-topic-operator-kstreams},1651701669,0
{consumergroup=__strimzi-topic-operator-kstreams},1651701674,0
{consumergroup=__strimzi-topic-operator-kstreams},1651701679,0
{consumergroup=__strimzi-topic-operator-kstreams},1651701684,0
{consumergroup=__strimzi-topic-operator-kstreams},1651701689,0
{consumergroup=__strimzi-topic-operator-kstreams},1651701694,0
{consumergroup=__strimzi-topic-operator-kstreams},1651701699,0
{consumergroup=__strimzi-topic-operator-kstreams},1651701704,0
{consumergroup=__strimzi-topic-operator-kstreams},1651701709,0
{consumergroup=__strimzi-topic-operator-kstreams},1651701714,0
{consumergroup=__strimzi-topic-operator-kstreams},1651701719,0
{consumergroup=__strimzi-topic-operator-kstreams},1651701724,0
{consumergroup=adapter-service},1651701504,278111
{consumergroup=adapter-service},1651701509,278111
{consumergroup=adapter-service},1651701514,278111
{consumergroup=adapter-service},1651701519,1351849
{consumergroup=adapter-service},1651701524,1351849
{consumergroup=adapter-service},1651701529,1351849
{consumergroup=adapter-service},1651701534,1959820
{consumergroup=adapter-service},1651701539,1959820
{consumergroup=adapter-service},1651701544,1959820
{consumergroup=adapter-service},1651701549,2465341
{consumergroup=adapter-service},1651701554,2465341
{consumergroup=adapter-service},1651701559,2465341
{consumergroup=adapter-service},1651701564,2834085
{consumergroup=adapter-service},1651701569,2834085
{consumergroup=adapter-service},1651701574,2834085
{consumergroup=adapter-service},1651701579,3039836
{consumergroup=adapter-service},1651701584,3039836
{consumergroup=adapter-service},1651701589,3039836
{consumergroup=adapter-service},1651701594,3089202
{consumergroup=adapter-service},1651701599,3089202
{consumergroup=adapter-service},1651701604,3089202
{consumergroup=adapter-service},1651701609,3120347
{consumergroup=adapter-service},1651701614,3120347
{consumergroup=adapter-service},1651701619,3120347
{consumergroup=adapter-service},1651701624,3109187
{consumergroup=adapter-service},1651701629,3109187
{consumergroup=adapter-service},1651701634,3109187
{consumergroup=adapter-service},1651701639,3093270
{consumergroup=adapter-service},1651701644,3093270
{consumergroup=adapter-service},1651701649,3093270
{consumergroup=adapter-service},1651701654,3050402
{consumergroup=adapter-service},1651701659,3050402
{consumergroup=adapter-service},1651701664,3050402
{consumergroup=adapter-service},1651701669,3013481
{consumergroup=adapter-service},1651701674,3013481
{consumergroup=adapter-service},1651701679,3013481
{consumergroup=adapter-service},1651701684,2976987
{consumergroup=adapter-service},1651701689,2976987
{consumergroup=adapter-service},1651701694,2976987
{consumergroup=adapter-service},1651701699,2982708
{consumergroup=adapter-service},1651701704,2982708
{consumergroup=adapter-service},1651701709,2982708
{consumergroup=adapter-service},1651701714,3020970
{consumergroup=adapter-service},1651701719,3020970
{consumergroup=adapter-service},1651701724,3020970
