labels,timestamp,value
{consumergroup=__strimzi-topic-operator-kstreams},1651624446,0
{consumergroup=__strimzi-topic-operator-kstreams},1651624451,0
{consumergroup=__strimzi-topic-operator-kstreams},1651624456,0
{consumergroup=__strimzi-topic-operator-kstreams},1651624461,0
{consumergroup=__strimzi-topic-operator-kstreams},1651624466,0
{consumergroup=__strimzi-topic-operator-kstreams},1651624471,0
{consumergroup=__strimzi-topic-operator-kstreams},1651624476,0
{consumergroup=__strimzi-topic-operator-kstreams},1651624481,0
{consumergroup=__strimzi-topic-operator-kstreams},1651624486,0
{consumergroup=__strimzi-topic-operator-kstreams},1651624491,0
{consumergroup=__strimzi-topic-operator-kstreams},1651624496,0
{consumergroup=__strimzi-topic-operator-kstreams},1651624501,0
{consumergroup=__strimzi-topic-operator-kstreams},1651624506,0
{consumergroup=__strimzi-topic-operator-kstreams},1651624511,0
{consumergroup=__strimzi-topic-operator-kstreams},1651624516,0
{consumergroup=__strimzi-topic-operator-kstreams},1651624521,0
{consumergroup=__strimzi-topic-operator-kstreams},1651624526,0
{consumergroup=__strimzi-topic-operator-kstreams},1651624531,0
{consumergroup=__strimzi-topic-operator-kstreams},1651624536,0
{consumergroup=__strimzi-topic-operator-kstreams},1651624541,0
{consumergroup=__strimzi-topic-operator-kstreams},1651624546,0
{consumergroup=__strimzi-topic-operator-kstreams},1651624551,0
{consumergroup=__strimzi-topic-operator-kstreams},1651624556,0
{consumergroup=__strimzi-topic-operator-kstreams},1651624561,0
{consumergroup=__strimzi-topic-operator-kstreams},1651624566,0
{consumergroup=__strimzi-topic-operator-kstreams},1651624571,0
{consumergroup=__strimzi-topic-operator-kstreams},1651624576,0
{consumergroup=__strimzi-topic-operator-kstreams},1651624581,0
{consumergroup=__strimzi-topic-operator-kstreams},1651624586,0
{consumergroup=__strimzi-topic-operator-kstreams},1651624591,0
{consumergroup=__strimzi-topic-operator-kstreams},1651624596,0
{consumergroup=__strimzi-topic-operator-kstreams},1651624601,0
{consumergroup=__strimzi-topic-operator-kstreams},1651624606,0
{consumergroup=__strimzi-topic-operator-kstreams},1651624611,0
{consumergroup=__strimzi-topic-operator-kstreams},1651624616,0
{consumergroup=__strimzi-topic-operator-kstreams},1651624621,0
{consumergroup=__strimzi-topic-operator-kstreams},1651624626,0
{consumergroup=__strimzi-topic-operator-kstreams},1651624631,0
{consumergroup=__strimzi-topic-operator-kstreams},1651624636,0
{consumergroup=__strimzi-topic-operator-kstreams},1651624641,0
{consumergroup=__strimzi-topic-operator-kstreams},1651624646,0
{consumergroup=__strimzi-topic-operator-kstreams},1651624651,0
{consumergroup=__strimzi-topic-operator-kstreams},1651624656,0
{consumergroup=__strimzi-topic-operator-kstreams},1651624661,0
{consumergroup=__strimzi-topic-operator-kstreams},1651624666,0
{consumergroup=__strimzi-topic-operator-kstreams},1651624671,0
{consumergroup=__strimzi-topic-operator-kstreams},1651624676,0
{consumergroup=__strimzi-topic-operator-kstreams},1651624681,0
{consumergroup=__strimzi-topic-operator-kstreams},1651624686,0
{consumergroup=adapter-service},1651624461,209154
{consumergroup=adapter-service},1651624466,209154
{consumergroup=adapter-service},1651624471,209154
{consumergroup=adapter-service},1651624476,963233
{consumergroup=adapter-service},1651624481,963233
{consumergroup=adapter-service},1651624486,963233
{consumergroup=adapter-service},1651624491,1302053
{consumergroup=adapter-service},1651624496,1302053
{consumergroup=adapter-service},1651624501,1302053
{consumergroup=adapter-service},1651624506,1524800
{consumergroup=adapter-service},1651624511,1524800
{consumergroup=adapter-service},1651624516,1524800
{consumergroup=adapter-service},1651624521,1612672
{consumergroup=adapter-service},1651624526,1612672
{consumergroup=adapter-service},1651624531,1612672
{consumergroup=adapter-service},1651624536,1484853
{consumergroup=adapter-service},1651624541,1484853
{consumergroup=adapter-service},1651624546,1484853
{consumergroup=adapter-service},1651624551,1163276
{consumergroup=adapter-service},1651624556,1163276
{consumergroup=adapter-service},1651624561,1163276
{consumergroup=adapter-service},1651624566,817857
{consumergroup=adapter-service},1651624571,817857
{consumergroup=adapter-service},1651624576,817857
{consumergroup=adapter-service},1651624581,558732
{consumergroup=adapter-service},1651624586,558732
{consumergroup=adapter-service},1651624591,558732
{consumergroup=adapter-service},1651624596,313064
{consumergroup=adapter-service},1651624601,313064
{consumergroup=adapter-service},1651624606,313064
{consumergroup=adapter-service},1651624611,162329
{consumergroup=adapter-service},1651624616,162329
{consumergroup=adapter-service},1651624621,162329
{consumergroup=adapter-service},1651624626,101855
{consumergroup=adapter-service},1651624631,101855
{consumergroup=adapter-service},1651624636,101855
{consumergroup=adapter-service},1651624641,131889
{consumergroup=adapter-service},1651624646,131889
{consumergroup=adapter-service},1651624651,131889
{consumergroup=adapter-service},1651624656,168827
{consumergroup=adapter-service},1651624661,168827
{consumergroup=adapter-service},1651624666,168827
{consumergroup=adapter-service},1651624671,210162
{consumergroup=adapter-service},1651624676,210162
{consumergroup=adapter-service},1651624681,210162
{consumergroup=adapter-service},1651624686,202653
