labels,timestamp,value
{consumergroup=__strimzi-topic-operator-kstreams},1651635672,8
{consumergroup=__strimzi-topic-operator-kstreams},1651635677,8
{consumergroup=__strimzi-topic-operator-kstreams},1651635682,8
{consumergroup=__strimzi-topic-operator-kstreams},1651635687,0
{consumergroup=__strimzi-topic-operator-kstreams},1651635692,0
{consumergroup=__strimzi-topic-operator-kstreams},1651635697,0
{consumergroup=__strimzi-topic-operator-kstreams},1651635702,0
{consumergroup=__strimzi-topic-operator-kstreams},1651635707,0
{consumergroup=__strimzi-topic-operator-kstreams},1651635712,0
{consumergroup=__strimzi-topic-operator-kstreams},1651635717,0
{consumergroup=__strimzi-topic-operator-kstreams},1651635722,0
{consumergroup=__strimzi-topic-operator-kstreams},1651635727,0
{consumergroup=__strimzi-topic-operator-kstreams},1651635732,0
{consumergroup=__strimzi-topic-operator-kstreams},1651635737,0
{consumergroup=__strimzi-topic-operator-kstreams},1651635742,0
{consumergroup=__strimzi-topic-operator-kstreams},1651635747,0
{consumergroup=__strimzi-topic-operator-kstreams},1651635752,0
{consumergroup=__strimzi-topic-operator-kstreams},1651635757,0
{consumergroup=__strimzi-topic-operator-kstreams},1651635762,0
{consumergroup=__strimzi-topic-operator-kstreams},1651635767,0
{consumergroup=__strimzi-topic-operator-kstreams},1651635772,0
{consumergroup=__strimzi-topic-operator-kstreams},1651635777,0
{consumergroup=__strimzi-topic-operator-kstreams},1651635782,0
{consumergroup=__strimzi-topic-operator-kstreams},1651635787,0
{consumergroup=__strimzi-topic-operator-kstreams},1651635792,0
{consumergroup=__strimzi-topic-operator-kstreams},1651635797,0
{consumergroup=__strimzi-topic-operator-kstreams},1651635802,0
{consumergroup=__strimzi-topic-operator-kstreams},1651635807,0
{consumergroup=__strimzi-topic-operator-kstreams},1651635812,0
{consumergroup=__strimzi-topic-operator-kstreams},1651635817,0
{consumergroup=__strimzi-topic-operator-kstreams},1651635822,0
{consumergroup=__strimzi-topic-operator-kstreams},1651635827,0
{consumergroup=__strimzi-topic-operator-kstreams},1651635832,0
{consumergroup=__strimzi-topic-operator-kstreams},1651635837,0
{consumergroup=__strimzi-topic-operator-kstreams},1651635842,0
{consumergroup=__strimzi-topic-operator-kstreams},1651635847,0
{consumergroup=__strimzi-topic-operator-kstreams},1651635852,0
{consumergroup=__strimzi-topic-operator-kstreams},1651635857,0
{consumergroup=__strimzi-topic-operator-kstreams},1651635862,0
{consumergroup=__strimzi-topic-operator-kstreams},1651635867,0
{consumergroup=__strimzi-topic-operator-kstreams},1651635872,0
{consumergroup=__strimzi-topic-operator-kstreams},1651635877,0
{consumergroup=__strimzi-topic-operator-kstreams},1651635882,0
{consumergroup=__strimzi-topic-operator-kstreams},1651635887,0
{consumergroup=__strimzi-topic-operator-kstreams},1651635892,0
{consumergroup=__strimzi-topic-operator-kstreams},1651635897,0
{consumergroup=__strimzi-topic-operator-kstreams},1651635902,0
{consumergroup=__strimzi-topic-operator-kstreams},1651635907,0
{consumergroup=__strimzi-topic-operator-kstreams},1651635912,0
{consumergroup=__strimzi-topic-operator-kstreams},1651635917,0
{consumergroup=__strimzi-topic-operator-kstreams},1651635922,0
{consumergroup=adapter-service},1651635702,867669
{consumergroup=adapter-service},1651635707,867669
{consumergroup=adapter-service},1651635712,867669
{consumergroup=adapter-service},1651635717,1773881
{consumergroup=adapter-service},1651635722,1773881
{consumergroup=adapter-service},1651635727,1773881
{consumergroup=adapter-service},1651635732,2204922
{consumergroup=adapter-service},1651635737,2204922
{consumergroup=adapter-service},1651635742,2204922
{consumergroup=adapter-service},1651635747,2699846
{consumergroup=adapter-service},1651635752,2699846
{consumergroup=adapter-service},1651635757,2699846
{consumergroup=adapter-service},1651635762,3050448
{consumergroup=adapter-service},1651635767,3050448
{consumergroup=adapter-service},1651635772,3050448
{consumergroup=adapter-service},1651635777,3079324
{consumergroup=adapter-service},1651635782,3079324
{consumergroup=adapter-service},1651635787,3079324
{consumergroup=adapter-service},1651635792,2898777
{consumergroup=adapter-service},1651635797,2898777
{consumergroup=adapter-service},1651635802,2898777
{consumergroup=adapter-service},1651635807,2722126
{consumergroup=adapter-service},1651635812,2722126
{consumergroup=adapter-service},1651635817,2722126
{consumergroup=adapter-service},1651635822,2569279
{consumergroup=adapter-service},1651635827,2569279
{consumergroup=adapter-service},1651635832,2569279
{consumergroup=adapter-service},1651635837,2466487
{consumergroup=adapter-service},1651635842,2466487
{consumergroup=adapter-service},1651635847,2466487
{consumergroup=adapter-service},1651635852,2292504
{consumergroup=adapter-service},1651635857,2292504
{consumergroup=adapter-service},1651635862,2292504
{consumergroup=adapter-service},1651635867,1988221
{consumergroup=adapter-service},1651635872,1988221
{consumergroup=adapter-service},1651635877,1988221
{consumergroup=adapter-service},1651635882,1985104
{consumergroup=adapter-service},1651635887,1985104
{consumergroup=adapter-service},1651635892,1985104
{consumergroup=adapter-service},1651635897,1746662
{consumergroup=adapter-service},1651635902,1746662
{consumergroup=adapter-service},1651635907,1746662
{consumergroup=adapter-service},1651635912,1569855
{consumergroup=adapter-service},1651635917,1569855
{consumergroup=adapter-service},1651635922,1569855
