labels,timestamp,value
{consumergroup=__strimzi-topic-operator-kstreams},1651621196,8
{consumergroup=__strimzi-topic-operator-kstreams},1651621201,8
{consumergroup=__strimzi-topic-operator-kstreams},1651621206,8
{consumergroup=__strimzi-topic-operator-kstreams},1651621211,8
{consumergroup=__strimzi-topic-operator-kstreams},1651621216,8
{consumergroup=__strimzi-topic-operator-kstreams},1651621221,8
{consumergroup=__strimzi-topic-operator-kstreams},1651621226,0
{consumergroup=__strimzi-topic-operator-kstreams},1651621231,0
{consumergroup=__strimzi-topic-operator-kstreams},1651621236,0
{consumergroup=__strimzi-topic-operator-kstreams},1651621241,0
{consumergroup=__strimzi-topic-operator-kstreams},1651621246,0
{consumergroup=__strimzi-topic-operator-kstreams},1651621251,0
{consumergroup=__strimzi-topic-operator-kstreams},1651621256,0
{consumergroup=__strimzi-topic-operator-kstreams},1651621261,0
{consumergroup=__strimzi-topic-operator-kstreams},1651621266,0
{consumergroup=__strimzi-topic-operator-kstreams},1651621271,0
{consumergroup=__strimzi-topic-operator-kstreams},1651621276,0
{consumergroup=__strimzi-topic-operator-kstreams},1651621281,0
{consumergroup=__strimzi-topic-operator-kstreams},1651621286,0
{consumergroup=__strimzi-topic-operator-kstreams},1651621291,0
{consumergroup=__strimzi-topic-operator-kstreams},1651621296,0
{consumergroup=__strimzi-topic-operator-kstreams},1651621301,0
{consumergroup=__strimzi-topic-operator-kstreams},1651621306,0
{consumergroup=__strimzi-topic-operator-kstreams},1651621311,0
{consumergroup=__strimzi-topic-operator-kstreams},1651621316,0
{consumergroup=__strimzi-topic-operator-kstreams},1651621321,0
{consumergroup=__strimzi-topic-operator-kstreams},1651621326,0
{consumergroup=__strimzi-topic-operator-kstreams},1651621331,0
{consumergroup=__strimzi-topic-operator-kstreams},1651621336,0
{consumergroup=__strimzi-topic-operator-kstreams},1651621341,0
{consumergroup=__strimzi-topic-operator-kstreams},1651621346,0
{consumergroup=__strimzi-topic-operator-kstreams},1651621351,0
{consumergroup=__strimzi-topic-operator-kstreams},1651621356,0
{consumergroup=__strimzi-topic-operator-kstreams},1651621361,0
{consumergroup=__strimzi-topic-operator-kstreams},1651621366,0
{consumergroup=__strimzi-topic-operator-kstreams},1651621371,0
{consumergroup=__strimzi-topic-operator-kstreams},1651621376,0
{consumergroup=__strimzi-topic-operator-kstreams},1651621381,0
{consumergroup=__strimzi-topic-operator-kstreams},1651621386,0
{consumergroup=__strimzi-topic-operator-kstreams},1651621391,0
{consumergroup=__strimzi-topic-operator-kstreams},1651621396,0
{consumergroup=__strimzi-topic-operator-kstreams},1651621401,0
{consumergroup=__strimzi-topic-operator-kstreams},1651621406,0
{consumergroup=__strimzi-topic-operator-kstreams},1651621411,0
{consumergroup=__strimzi-topic-operator-kstreams},1651621416,0
{consumergroup=__strimzi-topic-operator-kstreams},1651621421,0
{consumergroup=__strimzi-topic-operator-kstreams},1651621426,0
{consumergroup=__strimzi-topic-operator-kstreams},1651621431,0
{consumergroup=__strimzi-topic-operator-kstreams},1651621436,0
{consumergroup=__strimzi-topic-operator-kstreams},1651621441,0
{consumergroup=__strimzi-topic-operator-kstreams},1651621446,0
{consumergroup=adapter-service},1651621226,132477
{consumergroup=adapter-service},1651621231,132477
{consumergroup=adapter-service},1651621236,132477
{consumergroup=adapter-service},1651621241,196175
{consumergroup=adapter-service},1651621246,196175
{consumergroup=adapter-service},1651621251,196175
{consumergroup=adapter-service},1651621256,201292
{consumergroup=adapter-service},1651621261,201292
{consumergroup=adapter-service},1651621266,201292
{consumergroup=adapter-service},1651621271,126355
{consumergroup=adapter-service},1651621276,126355
{consumergroup=adapter-service},1651621281,126355
{consumergroup=adapter-service},1651621286,55823
{consumergroup=adapter-service},1651621291,55823
{consumergroup=adapter-service},1651621296,55823
{consumergroup=adapter-service},1651621301,44088
{consumergroup=adapter-service},1651621306,44088
{consumergroup=adapter-service},1651621311,44088
{consumergroup=adapter-service},1651621316,47775
{consumergroup=adapter-service},1651621321,47775
{consumergroup=adapter-service},1651621326,47775
{consumergroup=adapter-service},1651621331,66601
{consumergroup=adapter-service},1651621336,66601
{consumergroup=adapter-service},1651621341,66601
{consumergroup=adapter-service},1651621346,41398
{consumergroup=adapter-service},1651621351,41398
{consumergroup=adapter-service},1651621356,41398
{consumergroup=adapter-service},1651621361,61450
{consumergroup=adapter-service},1651621366,61450
{consumergroup=adapter-service},1651621371,61450
{consumergroup=adapter-service},1651621376,39849
{consumergroup=adapter-service},1651621381,39849
{consumergroup=adapter-service},1651621386,39849
{consumergroup=adapter-service},1651621391,58685
{consumergroup=adapter-service},1651621396,58685
{consumergroup=adapter-service},1651621401,58685
{consumergroup=adapter-service},1651621406,36601
{consumergroup=adapter-service},1651621411,36601
{consumergroup=adapter-service},1651621416,36601
{consumergroup=adapter-service},1651621421,73669
{consumergroup=adapter-service},1651621426,73669
{consumergroup=adapter-service},1651621431,73669
{consumergroup=adapter-service},1651621436,35639
{consumergroup=adapter-service},1651621441,35639
{consumergroup=adapter-service},1651621446,35639
