labels,timestamp,value
{job=theodolite-stu200776/trace-isolated-podmonitor},1651754219,25.524570904010538
{job=theodolite-stu200776/trace-isolated-podmonitor},1651754224,47.02308216128746
{job=theodolite-stu200776/trace-isolated-podmonitor},1651754229,119.09518254338087
{job=theodolite-stu200776/trace-isolated-podmonitor},1651754234,147.2124843480109
{job=theodolite-stu200776/trace-isolated-podmonitor},1651754239,222.85797428855784
{job=theodolite-stu200776/trace-isolated-podmonitor},1651754244,243.32378206500397
{job=theodolite-stu200776/trace-isolated-podmonitor},1651754249,456.6733465313219
{job=theodolite-stu200776/trace-isolated-podmonitor},1651754254,571.680385484876
{job=theodolite-stu200776/trace-isolated-podmonitor},1651754259,525.1586437017369
{job=theodolite-stu200776/trace-isolated-podmonitor},1651754264,578.1834894440804
{job=theodolite-stu200776/trace-isolated-podmonitor},1651754269,1026.8055838068715
{job=theodolite-stu200776/trace-isolated-podmonitor},1651754274,1143.7215249036433
{job=theodolite-stu200776/trace-isolated-podmonitor},1651754279,1206.9890469341883
{job=theodolite-stu200776/trace-isolated-podmonitor},1651754284,1267.0972216507885
{job=theodolite-stu200776/trace-isolated-podmonitor},1651754289,1087.0837651328652
{job=theodolite-stu200776/trace-isolated-podmonitor},1651754294,1006.8768587776898
{job=theodolite-stu200776/trace-isolated-podmonitor},1651754299,660.8658059480111
{job=theodolite-stu200776/trace-isolated-podmonitor},1651754304,529.9941340878229
{job=theodolite-stu200776/trace-isolated-podmonitor},1651754309,242.07843561745904
{job=theodolite-stu200776/trace-isolated-podmonitor},1651754314,59.585866925078555
{job=theodolite-stu200776/trace-isolated-podmonitor},1651754319,52.430615922689505
{job=theodolite-stu200776/trace-isolated-podmonitor},1651754324,48.167002001299245
{job=theodolite-stu200776/trace-isolated-podmonitor},1651754329,23.795892158934873
{job=theodolite-stu200776/trace-isolated-podmonitor},1651754334,8.614543463777942
{job=theodolite-stu200776/trace-isolated-podmonitor},1651754339,2.121511823331215
{job=theodolite-stu200776/trace-isolated-podmonitor},1651754344,0
{job=theodolite-stu200776/trace-isolated-podmonitor},1651754349,0
{job=theodolite-stu200776/trace-isolated-podmonitor},1651754354,0
{job=theodolite-stu200776/trace-isolated-podmonitor},1651754359,0
{job=theodolite-stu200776/trace-isolated-podmonitor},1651754364,0
{job=theodolite-stu200776/trace-isolated-podmonitor},1651754369,0
{job=theodolite-stu200776/trace-isolated-podmonitor},1651754374,0
{job=theodolite-stu200776/trace-isolated-podmonitor},1651754379,0
{job=theodolite-stu200776/trace-isolated-podmonitor},1651754384,0
{job=theodolite-stu200776/trace-isolated-podmonitor},1651754389,0
{job=theodolite-stu200776/trace-isolated-podmonitor},1651754394,0
{job=theodolite-stu200776/trace-isolated-podmonitor},1651754399,0
{job=theodolite-stu200776/trace-isolated-podmonitor},1651754404,0
{job=theodolite-stu200776/trace-isolated-podmonitor},1651754409,0
{job=theodolite-stu200776/trace-isolated-podmonitor},1651754414,0
{job=theodolite-stu200776/trace-isolated-podmonitor},1651754419,0
{job=theodolite-stu200776/trace-isolated-podmonitor},1651754424,0
{job=theodolite-stu200776/trace-isolated-podmonitor},1651754429,0
{job=theodolite-stu200776/trace-isolated-podmonitor},1651754434,0
{job=theodolite-stu200776/trace-isolated-podmonitor},1651754439,0
{job=theodolite-stu200776/trace-isolated-podmonitor},1651754444,0
{job=theodolite-stu200776/trace-isolated-podmonitor},1651754449,0
{job=theodolite-stu200776/trace-isolated-podmonitor},1651754454,0
{job=theodolite-stu200776/trace-isolated-podmonitor},1651754459,0
{job=theodolite-stu200776/trace-isolated-podmonitor},1651754464,0
{job=theodolite-stu200776/trace-isolated-podmonitor},1651754469,0
{job=theodolite-stu200776/trace-isolated-podmonitor},1651754474,0
{job=theodolite-stu200776/trace-isolated-podmonitor},1651754479,0
{job=theodolite-stu200776/trace-isolated-podmonitor},1651754484,0
{job=theodolite-stu200776/trace-isolated-podmonitor},1651754489,0
{job=theodolite-stu200776/trace-isolated-podmonitor},1651754494,0
{job=theodolite-stu200776/trace-isolated-podmonitor},1651754499,0
{job=theodolite-stu200776/trace-isolated-podmonitor},1651754504,0
{job=theodolite-stu200776/trace-isolated-podmonitor},1651754509,0
{job=theodolite-stu200776/trace-isolated-podmonitor},1651754514,0
{job=theodolite-stu200776/trace-isolated-podmonitor},1651754519,0
{job=theodolite-stu200776/trace-isolated-podmonitor},1651754524,0
{job=theodolite-stu200776/trace-isolated-podmonitor},1651754529,0
{job=theodolite-stu200776/trace-isolated-podmonitor},1651754534,0
{job=theodolite-stu200776/trace-isolated-podmonitor},1651754539,0
{job=theodolite-stu200776/trace-isolated-podmonitor},1651754544,0
{job=theodolite-stu200776/trace-isolated-podmonitor},1651754549,0
{job=theodolite-stu200776/trace-isolated-podmonitor},1651754554,0
{job=theodolite-stu200776/trace-isolated-podmonitor},1651754559,0
{job=theodolite-stu200776/trace-isolated-podmonitor},1651754564,0
{job=theodolite-stu200776/trace-isolated-podmonitor},1651754569,0
{job=theodolite-stu200776/trace-isolated-podmonitor},1651754574,0
{job=theodolite-stu200776/trace-isolated-podmonitor},1651754579,0
{job=theodolite-stu200776/trace-isolated-podmonitor},1651754584,0
{job=theodolite-stu200776/trace-isolated-podmonitor},1651754589,0
