labels,timestamp,value
{consumergroup=__strimzi-topic-operator-kstreams},1651586264,0
{consumergroup=__strimzi-topic-operator-kstreams},1651586269,0
{consumergroup=__strimzi-topic-operator-kstreams},1651586274,0
{consumergroup=__strimzi-topic-operator-kstreams},1651586279,0
{consumergroup=__strimzi-topic-operator-kstreams},1651586284,0
{consumergroup=__strimzi-topic-operator-kstreams},1651586289,0
{consumergroup=__strimzi-topic-operator-kstreams},1651586294,0
{consumergroup=__strimzi-topic-operator-kstreams},1651586299,0
{consumergroup=__strimzi-topic-operator-kstreams},1651586304,0
{consumergroup=__strimzi-topic-operator-kstreams},1651586309,0
{consumergroup=__strimzi-topic-operator-kstreams},1651586314,0
{consumergroup=__strimzi-topic-operator-kstreams},1651586319,0
{consumergroup=__strimzi-topic-operator-kstreams},1651586324,0
{consumergroup=__strimzi-topic-operator-kstreams},1651586329,0
{consumergroup=__strimzi-topic-operator-kstreams},1651586334,0
{consumergroup=__strimzi-topic-operator-kstreams},1651586339,0
{consumergroup=__strimzi-topic-operator-kstreams},1651586344,0
{consumergroup=__strimzi-topic-operator-kstreams},1651586349,0
{consumergroup=__strimzi-topic-operator-kstreams},1651586354,0
{consumergroup=__strimzi-topic-operator-kstreams},1651586359,0
{consumergroup=__strimzi-topic-operator-kstreams},1651586364,0
{consumergroup=__strimzi-topic-operator-kstreams},1651586369,0
{consumergroup=__strimzi-topic-operator-kstreams},1651586374,0
{consumergroup=__strimzi-topic-operator-kstreams},1651586379,0
{consumergroup=__strimzi-topic-operator-kstreams},1651586384,0
{consumergroup=__strimzi-topic-operator-kstreams},1651586389,0
{consumergroup=__strimzi-topic-operator-kstreams},1651586394,0
{consumergroup=__strimzi-topic-operator-kstreams},1651586399,0
{consumergroup=__strimzi-topic-operator-kstreams},1651586404,0
{consumergroup=__strimzi-topic-operator-kstreams},1651586409,0
{consumergroup=__strimzi-topic-operator-kstreams},1651586414,0
{consumergroup=__strimzi-topic-operator-kstreams},1651586419,0
{consumergroup=__strimzi-topic-operator-kstreams},1651586424,0
{consumergroup=__strimzi-topic-operator-kstreams},1651586429,0
{consumergroup=__strimzi-topic-operator-kstreams},1651586434,0
{consumergroup=__strimzi-topic-operator-kstreams},1651586439,0
{consumergroup=__strimzi-topic-operator-kstreams},1651586444,0
{consumergroup=__strimzi-topic-operator-kstreams},1651586449,0
{consumergroup=__strimzi-topic-operator-kstreams},1651586454,0
{consumergroup=__strimzi-topic-operator-kstreams},1651586459,0
{consumergroup=__strimzi-topic-operator-kstreams},1651586464,0
{consumergroup=__strimzi-topic-operator-kstreams},1651586469,0
{consumergroup=__strimzi-topic-operator-kstreams},1651586474,0
{consumergroup=__strimzi-topic-operator-kstreams},1651586479,0
{consumergroup=__strimzi-topic-operator-kstreams},1651586484,0
{consumergroup=__strimzi-topic-operator-kstreams},1651586489,0
{consumergroup=__strimzi-topic-operator-kstreams},1651586494,0
{consumergroup=__strimzi-topic-operator-kstreams},1651586499,0
{consumergroup=__strimzi-topic-operator-kstreams},1651586504,0
{consumergroup=__strimzi-topic-operator-kstreams},1651586509,0
{consumergroup=landscape-service},1651586294,1023
{consumergroup=landscape-service},1651586299,1023
{consumergroup=landscape-service},1651586304,1023
{consumergroup=landscape-service},1651586309,4163193
{consumergroup=landscape-service},1651586314,4163193
{consumergroup=landscape-service},1651586319,4163193
{consumergroup=landscape-service},1651586324,6403306
{consumergroup=landscape-service},1651586329,6403306
{consumergroup=landscape-service},1651586334,6403306
{consumergroup=landscape-service},1651586339,9193088
{consumergroup=landscape-service},1651586344,9193088
{consumergroup=landscape-service},1651586349,9193088
{consumergroup=landscape-service},1651586354,11284541
{consumergroup=landscape-service},1651586359,11284541
{consumergroup=landscape-service},1651586364,11284541
{consumergroup=landscape-service},1651586369,14275959
{consumergroup=landscape-service},1651586374,14275959
{consumergroup=landscape-service},1651586379,14275959
{consumergroup=landscape-service},1651586384,16220294
{consumergroup=landscape-service},1651586389,16220294
{consumergroup=landscape-service},1651586394,16220294
{consumergroup=landscape-service},1651586399,18848867
{consumergroup=landscape-service},1651586404,18848867
{consumergroup=landscape-service},1651586409,18848867
{consumergroup=landscape-service},1651586414,21183360
{consumergroup=landscape-service},1651586419,21183360
{consumergroup=landscape-service},1651586424,21183360
{consumergroup=landscape-service},1651586429,23632060
{consumergroup=landscape-service},1651586434,23632060
{consumergroup=landscape-service},1651586439,23632060
{consumergroup=landscape-service},1651586444,25663895
{consumergroup=landscape-service},1651586449,25663895
{consumergroup=landscape-service},1651586454,25663895
{consumergroup=landscape-service},1651586459,28124793
{consumergroup=landscape-service},1651586464,28124793
{consumergroup=landscape-service},1651586469,28124793
{consumergroup=landscape-service},1651586474,30213833
{consumergroup=landscape-service},1651586479,30213833
{consumergroup=landscape-service},1651586484,30213833
{consumergroup=landscape-service},1651586489,33039806
{consumergroup=landscape-service},1651586494,33039806
{consumergroup=landscape-service},1651586499,33039806
{consumergroup=landscape-service},1651586504,34744253
{consumergroup=landscape-service},1651586509,34744253
{consumergroup=landscape-token-events-consumer},1651586294,0
{consumergroup=landscape-token-events-consumer},1651586299,0
{consumergroup=landscape-token-events-consumer},1651586304,0
{consumergroup=landscape-token-events-consumer},1651586309,0
{consumergroup=landscape-token-events-consumer},1651586314,0
{consumergroup=landscape-token-events-consumer},1651586319,0
{consumergroup=landscape-token-events-consumer},1651586324,0
{consumergroup=landscape-token-events-consumer},1651586329,0
{consumergroup=landscape-token-events-consumer},1651586334,0
{consumergroup=landscape-token-events-consumer},1651586339,0
{consumergroup=landscape-token-events-consumer},1651586344,0
{consumergroup=landscape-token-events-consumer},1651586349,0
{consumergroup=landscape-token-events-consumer},1651586354,0
{consumergroup=landscape-token-events-consumer},1651586359,0
{consumergroup=landscape-token-events-consumer},1651586364,0
{consumergroup=landscape-token-events-consumer},1651586369,0
{consumergroup=landscape-token-events-consumer},1651586374,0
{consumergroup=landscape-token-events-consumer},1651586379,0
{consumergroup=landscape-token-events-consumer},1651586384,0
{consumergroup=landscape-token-events-consumer},1651586389,0
{consumergroup=landscape-token-events-consumer},1651586394,0
{consumergroup=landscape-token-events-consumer},1651586399,0
{consumergroup=landscape-token-events-consumer},1651586404,0
{consumergroup=landscape-token-events-consumer},1651586409,0
{consumergroup=landscape-token-events-consumer},1651586414,0
{consumergroup=landscape-token-events-consumer},1651586419,0
{consumergroup=landscape-token-events-consumer},1651586424,0
{consumergroup=landscape-token-events-consumer},1651586429,0
{consumergroup=landscape-token-events-consumer},1651586434,0
{consumergroup=landscape-token-events-consumer},1651586439,0
{consumergroup=landscape-token-events-consumer},1651586444,0
{consumergroup=landscape-token-events-consumer},1651586449,0
{consumergroup=landscape-token-events-consumer},1651586454,0
{consumergroup=landscape-token-events-consumer},1651586459,0
{consumergroup=landscape-token-events-consumer},1651586464,0
{consumergroup=landscape-token-events-consumer},1651586469,0
{consumergroup=landscape-token-events-consumer},1651586474,0
{consumergroup=landscape-token-events-consumer},1651586479,0
{consumergroup=landscape-token-events-consumer},1651586484,0
{consumergroup=landscape-token-events-consumer},1651586489,0
{consumergroup=landscape-token-events-consumer},1651586494,0
{consumergroup=landscape-token-events-consumer},1651586499,0
{consumergroup=landscape-token-events-consumer},1651586504,0
{consumergroup=landscape-token-events-consumer},1651586509,0
