labels,timestamp,value
{consumergroup=__strimzi-topic-operator-kstreams},1651695351,14
{consumergroup=__strimzi-topic-operator-kstreams},1651695356,14
{consumergroup=__strimzi-topic-operator-kstreams},1651695361,14
{consumergroup=__strimzi-topic-operator-kstreams},1651695366,14
{consumergroup=__strimzi-topic-operator-kstreams},1651695371,14
{consumergroup=__strimzi-topic-operator-kstreams},1651695376,14
{consumergroup=__strimzi-topic-operator-kstreams},1651695381,0
{consumergroup=__strimzi-topic-operator-kstreams},1651695386,0
{consumergroup=__strimzi-topic-operator-kstreams},1651695391,0
{consumergroup=__strimzi-topic-operator-kstreams},1651695396,0
{consumergroup=__strimzi-topic-operator-kstreams},1651695401,0
{consumergroup=__strimzi-topic-operator-kstreams},1651695406,0
{consumergroup=__strimzi-topic-operator-kstreams},1651695411,0
{consumergroup=__strimzi-topic-operator-kstreams},1651695416,0
{consumergroup=__strimzi-topic-operator-kstreams},1651695421,0
{consumergroup=__strimzi-topic-operator-kstreams},1651695426,0
{consumergroup=__strimzi-topic-operator-kstreams},1651695431,0
{consumergroup=__strimzi-topic-operator-kstreams},1651695436,0
{consumergroup=__strimzi-topic-operator-kstreams},1651695441,0
{consumergroup=__strimzi-topic-operator-kstreams},1651695446,0
{consumergroup=__strimzi-topic-operator-kstreams},1651695451,0
{consumergroup=__strimzi-topic-operator-kstreams},1651695456,0
{consumergroup=__strimzi-topic-operator-kstreams},1651695461,0
{consumergroup=__strimzi-topic-operator-kstreams},1651695466,0
{consumergroup=__strimzi-topic-operator-kstreams},1651695471,0
{consumergroup=__strimzi-topic-operator-kstreams},1651695476,0
{consumergroup=__strimzi-topic-operator-kstreams},1651695481,0
{consumergroup=__strimzi-topic-operator-kstreams},1651695486,0
{consumergroup=__strimzi-topic-operator-kstreams},1651695491,0
{consumergroup=__strimzi-topic-operator-kstreams},1651695496,0
{consumergroup=__strimzi-topic-operator-kstreams},1651695501,0
{consumergroup=__strimzi-topic-operator-kstreams},1651695506,0
{consumergroup=__strimzi-topic-operator-kstreams},1651695511,0
{consumergroup=__strimzi-topic-operator-kstreams},1651695516,0
{consumergroup=__strimzi-topic-operator-kstreams},1651695521,0
{consumergroup=__strimzi-topic-operator-kstreams},1651695526,0
{consumergroup=__strimzi-topic-operator-kstreams},1651695531,0
{consumergroup=__strimzi-topic-operator-kstreams},1651695536,0
{consumergroup=__strimzi-topic-operator-kstreams},1651695541,0
{consumergroup=__strimzi-topic-operator-kstreams},1651695546,0
{consumergroup=__strimzi-topic-operator-kstreams},1651695551,0
{consumergroup=__strimzi-topic-operator-kstreams},1651695556,0
{consumergroup=__strimzi-topic-operator-kstreams},1651695561,0
{consumergroup=__strimzi-topic-operator-kstreams},1651695566,0
{consumergroup=__strimzi-topic-operator-kstreams},1651695571,0
{consumergroup=__strimzi-topic-operator-kstreams},1651695576,0
{consumergroup=__strimzi-topic-operator-kstreams},1651695581,0
{consumergroup=__strimzi-topic-operator-kstreams},1651695586,0
{consumergroup=__strimzi-topic-operator-kstreams},1651695591,0
{consumergroup=__strimzi-topic-operator-kstreams},1651695596,0
{consumergroup=adapter-service},1651695381,106534
{consumergroup=adapter-service},1651695386,106534
{consumergroup=adapter-service},1651695391,106534
{consumergroup=adapter-service},1651695396,376659
{consumergroup=adapter-service},1651695401,376659
{consumergroup=adapter-service},1651695406,376659
{consumergroup=adapter-service},1651695411,517087
{consumergroup=adapter-service},1651695416,517087
{consumergroup=adapter-service},1651695421,517087
{consumergroup=adapter-service},1651695426,603197
{consumergroup=adapter-service},1651695431,603197
{consumergroup=adapter-service},1651695436,603197
{consumergroup=adapter-service},1651695441,592352
{consumergroup=adapter-service},1651695446,592352
{consumergroup=adapter-service},1651695451,592352
{consumergroup=adapter-service},1651695456,591500
{consumergroup=adapter-service},1651695461,591500
{consumergroup=adapter-service},1651695466,591500
{consumergroup=adapter-service},1651695471,488987
{consumergroup=adapter-service},1651695476,488987
{consumergroup=adapter-service},1651695481,488987
{consumergroup=adapter-service},1651695486,264685
{consumergroup=adapter-service},1651695491,264685
{consumergroup=adapter-service},1651695496,264685
{consumergroup=adapter-service},1651695501,132984
{consumergroup=adapter-service},1651695506,132984
{consumergroup=adapter-service},1651695511,132984
{consumergroup=adapter-service},1651695516,35342
{consumergroup=adapter-service},1651695521,35342
{consumergroup=adapter-service},1651695526,35342
{consumergroup=adapter-service},1651695531,18317
{consumergroup=adapter-service},1651695536,18317
{consumergroup=adapter-service},1651695541,18317
{consumergroup=adapter-service},1651695546,15599
{consumergroup=adapter-service},1651695551,15599
{consumergroup=adapter-service},1651695556,15599
{consumergroup=adapter-service},1651695561,11531
{consumergroup=adapter-service},1651695566,11531
{consumergroup=adapter-service},1651695571,11531
{consumergroup=adapter-service},1651695576,8875
{consumergroup=adapter-service},1651695581,8875
{consumergroup=adapter-service},1651695586,8875
{consumergroup=adapter-service},1651695591,6317
{consumergroup=adapter-service},1651695596,6317
