labels,timestamp,value
{consumergroup=__strimzi-topic-operator-kstreams},1651697087,1
{consumergroup=__strimzi-topic-operator-kstreams},1651697092,1
{consumergroup=__strimzi-topic-operator-kstreams},1651697097,1
{consumergroup=__strimzi-topic-operator-kstreams},1651697102,16
{consumergroup=__strimzi-topic-operator-kstreams},1651697107,16
{consumergroup=__strimzi-topic-operator-kstreams},1651697112,16
{consumergroup=__strimzi-topic-operator-kstreams},1651697117,0
{consumergroup=__strimzi-topic-operator-kstreams},1651697122,0
{consumergroup=__strimzi-topic-operator-kstreams},1651697127,0
{consumergroup=__strimzi-topic-operator-kstreams},1651697132,0
{consumergroup=__strimzi-topic-operator-kstreams},1651697137,0
{consumergroup=__strimzi-topic-operator-kstreams},1651697142,0
{consumergroup=__strimzi-topic-operator-kstreams},1651697147,0
{consumergroup=__strimzi-topic-operator-kstreams},1651697152,0
{consumergroup=__strimzi-topic-operator-kstreams},1651697157,0
{consumergroup=__strimzi-topic-operator-kstreams},1651697162,0
{consumergroup=__strimzi-topic-operator-kstreams},1651697167,0
{consumergroup=__strimzi-topic-operator-kstreams},1651697172,0
{consumergroup=__strimzi-topic-operator-kstreams},1651697177,0
{consumergroup=__strimzi-topic-operator-kstreams},1651697182,0
{consumergroup=__strimzi-topic-operator-kstreams},1651697187,0
{consumergroup=__strimzi-topic-operator-kstreams},1651697192,0
{consumergroup=__strimzi-topic-operator-kstreams},1651697197,0
{consumergroup=__strimzi-topic-operator-kstreams},1651697202,0
{consumergroup=__strimzi-topic-operator-kstreams},1651697207,0
{consumergroup=__strimzi-topic-operator-kstreams},1651697212,0
{consumergroup=__strimzi-topic-operator-kstreams},1651697217,0
{consumergroup=__strimzi-topic-operator-kstreams},1651697222,0
{consumergroup=__strimzi-topic-operator-kstreams},1651697227,0
{consumergroup=__strimzi-topic-operator-kstreams},1651697232,0
{consumergroup=__strimzi-topic-operator-kstreams},1651697237,0
{consumergroup=__strimzi-topic-operator-kstreams},1651697242,0
{consumergroup=__strimzi-topic-operator-kstreams},1651697247,0
{consumergroup=__strimzi-topic-operator-kstreams},1651697252,0
{consumergroup=__strimzi-topic-operator-kstreams},1651697257,0
{consumergroup=__strimzi-topic-operator-kstreams},1651697262,0
{consumergroup=__strimzi-topic-operator-kstreams},1651697267,0
{consumergroup=__strimzi-topic-operator-kstreams},1651697272,0
{consumergroup=__strimzi-topic-operator-kstreams},1651697277,0
{consumergroup=__strimzi-topic-operator-kstreams},1651697282,0
{consumergroup=__strimzi-topic-operator-kstreams},1651697287,0
{consumergroup=__strimzi-topic-operator-kstreams},1651697292,0
{consumergroup=__strimzi-topic-operator-kstreams},1651697297,0
{consumergroup=__strimzi-topic-operator-kstreams},1651697302,0
{consumergroup=__strimzi-topic-operator-kstreams},1651697307,0
{consumergroup=__strimzi-topic-operator-kstreams},1651697312,0
{consumergroup=__strimzi-topic-operator-kstreams},1651697317,0
{consumergroup=__strimzi-topic-operator-kstreams},1651697322,0
{consumergroup=__strimzi-topic-operator-kstreams},1651697327,0
{consumergroup=__strimzi-topic-operator-kstreams},1651697332,0
{consumergroup=__strimzi-topic-operator-kstreams},1651697337,0
{consumergroup=__strimzi-topic-operator-kstreams},1651697342,0
{consumergroup=__strimzi-topic-operator-kstreams},1651697347,0
{consumergroup=adapter-service},1651697117,0
{consumergroup=adapter-service},1651697122,0
{consumergroup=adapter-service},1651697127,0
{consumergroup=adapter-service},1651697132,533506
{consumergroup=adapter-service},1651697137,533506
{consumergroup=adapter-service},1651697142,533506
{consumergroup=adapter-service},1651697147,963214
{consumergroup=adapter-service},1651697152,963214
{consumergroup=adapter-service},1651697157,963214
{consumergroup=adapter-service},1651697162,1370683
{consumergroup=adapter-service},1651697167,1370683
{consumergroup=adapter-service},1651697172,1370683
{consumergroup=adapter-service},1651697177,1642504
{consumergroup=adapter-service},1651697182,1642504
{consumergroup=adapter-service},1651697187,1642504
{consumergroup=adapter-service},1651697192,1991568
{consumergroup=adapter-service},1651697197,1991568
{consumergroup=adapter-service},1651697202,1991568
{consumergroup=adapter-service},1651697207,2215467
{consumergroup=adapter-service},1651697212,2215467
{consumergroup=adapter-service},1651697217,2215467
{consumergroup=adapter-service},1651697222,2336163
{consumergroup=adapter-service},1651697227,2336163
{consumergroup=adapter-service},1651697232,2336163
{consumergroup=adapter-service},1651697237,2434813
{consumergroup=adapter-service},1651697242,2434813
{consumergroup=adapter-service},1651697247,2434813
{consumergroup=adapter-service},1651697252,2377015
{consumergroup=adapter-service},1651697257,2377015
{consumergroup=adapter-service},1651697262,2377015
{consumergroup=adapter-service},1651697267,2397166
{consumergroup=adapter-service},1651697272,2397166
{consumergroup=adapter-service},1651697277,2397166
{consumergroup=adapter-service},1651697282,2299289
{consumergroup=adapter-service},1651697287,2299289
{consumergroup=adapter-service},1651697292,2299289
{consumergroup=adapter-service},1651697297,2284128
{consumergroup=adapter-service},1651697302,2284128
{consumergroup=adapter-service},1651697307,2284128
{consumergroup=adapter-service},1651697312,2195725
{consumergroup=adapter-service},1651697317,2195725
{consumergroup=adapter-service},1651697322,2195725
{consumergroup=adapter-service},1651697327,2172084
{consumergroup=adapter-service},1651697332,2172084
{consumergroup=adapter-service},1651697337,2172084
{consumergroup=adapter-service},1651697342,2072066
{consumergroup=adapter-service},1651697347,2072066
