labels,timestamp,value
{consumergroup=__strimzi-topic-operator-kstreams},1651597829,8
{consumergroup=__strimzi-topic-operator-kstreams},1651597834,8
{consumergroup=__strimzi-topic-operator-kstreams},1651597839,8
{consumergroup=__strimzi-topic-operator-kstreams},1651597844,0
{consumergroup=__strimzi-topic-operator-kstreams},1651597849,0
{consumergroup=__strimzi-topic-operator-kstreams},1651597854,0
{consumergroup=__strimzi-topic-operator-kstreams},1651597859,0
{consumergroup=__strimzi-topic-operator-kstreams},1651597864,0
{consumergroup=__strimzi-topic-operator-kstreams},1651597869,0
{consumergroup=__strimzi-topic-operator-kstreams},1651597874,0
{consumergroup=__strimzi-topic-operator-kstreams},1651597879,0
{consumergroup=__strimzi-topic-operator-kstreams},1651597884,0
{consumergroup=__strimzi-topic-operator-kstreams},1651597889,0
{consumergroup=__strimzi-topic-operator-kstreams},1651597894,0
{consumergroup=__strimzi-topic-operator-kstreams},1651597899,0
{consumergroup=__strimzi-topic-operator-kstreams},1651597904,0
{consumergroup=__strimzi-topic-operator-kstreams},1651597909,0
{consumergroup=__strimzi-topic-operator-kstreams},1651597914,0
{consumergroup=__strimzi-topic-operator-kstreams},1651597919,0
{consumergroup=__strimzi-topic-operator-kstreams},1651597924,0
{consumergroup=__strimzi-topic-operator-kstreams},1651597929,0
{consumergroup=__strimzi-topic-operator-kstreams},1651597934,0
{consumergroup=__strimzi-topic-operator-kstreams},1651597939,0
{consumergroup=__strimzi-topic-operator-kstreams},1651597944,0
{consumergroup=__strimzi-topic-operator-kstreams},1651597949,0
{consumergroup=__strimzi-topic-operator-kstreams},1651597954,0
{consumergroup=__strimzi-topic-operator-kstreams},1651597959,0
{consumergroup=__strimzi-topic-operator-kstreams},1651597964,0
{consumergroup=__strimzi-topic-operator-kstreams},1651597969,0
{consumergroup=__strimzi-topic-operator-kstreams},1651597974,0
{consumergroup=__strimzi-topic-operator-kstreams},1651597979,0
{consumergroup=__strimzi-topic-operator-kstreams},1651597984,0
{consumergroup=__strimzi-topic-operator-kstreams},1651597989,0
{consumergroup=__strimzi-topic-operator-kstreams},1651597994,0
{consumergroup=__strimzi-topic-operator-kstreams},1651597999,0
{consumergroup=__strimzi-topic-operator-kstreams},1651598004,0
{consumergroup=__strimzi-topic-operator-kstreams},1651598009,0
{consumergroup=__strimzi-topic-operator-kstreams},1651598014,0
{consumergroup=__strimzi-topic-operator-kstreams},1651598019,0
{consumergroup=__strimzi-topic-operator-kstreams},1651598024,0
{consumergroup=__strimzi-topic-operator-kstreams},1651598029,0
{consumergroup=__strimzi-topic-operator-kstreams},1651598034,0
{consumergroup=__strimzi-topic-operator-kstreams},1651598039,0
{consumergroup=__strimzi-topic-operator-kstreams},1651598044,0
{consumergroup=__strimzi-topic-operator-kstreams},1651598049,0
{consumergroup=__strimzi-topic-operator-kstreams},1651598054,0
{consumergroup=__strimzi-topic-operator-kstreams},1651598059,0
{consumergroup=__strimzi-topic-operator-kstreams},1651598064,0
{consumergroup=__strimzi-topic-operator-kstreams},1651598069,0
{consumergroup=__strimzi-topic-operator-kstreams},1651598074,0
{consumergroup=__strimzi-topic-operator-kstreams},1651598079,0
{consumergroup=landscape-service},1651597874,3463474
{consumergroup=landscape-service},1651597879,3463474
{consumergroup=landscape-service},1651597884,3463474
{consumergroup=landscape-service},1651597889,8728801
{consumergroup=landscape-service},1651597894,8728801
{consumergroup=landscape-service},1651597899,8728801
{consumergroup=landscape-service},1651597904,11027971
{consumergroup=landscape-service},1651597909,11027971
{consumergroup=landscape-service},1651597914,11027971
{consumergroup=landscape-service},1651597919,12741745
{consumergroup=landscape-service},1651597924,12741745
{consumergroup=landscape-service},1651597929,12741745
{consumergroup=landscape-service},1651597934,13495112
{consumergroup=landscape-service},1651597939,13495112
{consumergroup=landscape-service},1651597944,13495112
{consumergroup=landscape-service},1651597949,15244832
{consumergroup=landscape-service},1651597954,15244832
{consumergroup=landscape-service},1651597959,15244832
{consumergroup=landscape-service},1651597964,15257864
{consumergroup=landscape-service},1651597969,15257864
{consumergroup=landscape-service},1651597974,15257864
{consumergroup=landscape-service},1651597979,15374266
{consumergroup=landscape-service},1651597984,15374266
{consumergroup=landscape-service},1651597989,15374266
{consumergroup=landscape-service},1651597994,15930029
{consumergroup=landscape-service},1651597999,15930029
{consumergroup=landscape-service},1651598004,15930029
{consumergroup=landscape-service},1651598009,16245364
{consumergroup=landscape-service},1651598014,16245364
{consumergroup=landscape-service},1651598019,16245364
{consumergroup=landscape-service},1651598024,15615164
{consumergroup=landscape-service},1651598029,15615164
{consumergroup=landscape-service},1651598034,15615164
{consumergroup=landscape-service},1651598039,15790245
{consumergroup=landscape-service},1651598044,15790245
{consumergroup=landscape-service},1651598049,15790245
{consumergroup=landscape-service},1651598054,15305581
{consumergroup=landscape-service},1651598059,15305581
{consumergroup=landscape-service},1651598064,15305581
{consumergroup=landscape-service},1651598069,15714940
{consumergroup=landscape-service},1651598074,15714940
{consumergroup=landscape-service},1651598079,15714940
