labels,timestamp,value
{consumergroup=__strimzi-topic-operator-kstreams},1651708822,0
{consumergroup=__strimzi-topic-operator-kstreams},1651708837,20
{consumergroup=__strimzi-topic-operator-kstreams},1651708842,20
{consumergroup=__strimzi-topic-operator-kstreams},1651708847,20
{consumergroup=__strimzi-topic-operator-kstreams},1651708852,0
{consumergroup=__strimzi-topic-operator-kstreams},1651708857,0
{consumergroup=__strimzi-topic-operator-kstreams},1651708862,0
{consumergroup=__strimzi-topic-operator-kstreams},1651708867,0
{consumergroup=__strimzi-topic-operator-kstreams},1651708872,0
{consumergroup=__strimzi-topic-operator-kstreams},1651708877,0
{consumergroup=__strimzi-topic-operator-kstreams},1651708882,0
{consumergroup=__strimzi-topic-operator-kstreams},1651708887,0
{consumergroup=__strimzi-topic-operator-kstreams},1651708892,0
{consumergroup=__strimzi-topic-operator-kstreams},1651708897,0
{consumergroup=__strimzi-topic-operator-kstreams},1651708902,0
{consumergroup=__strimzi-topic-operator-kstreams},1651708907,0
{consumergroup=__strimzi-topic-operator-kstreams},1651708912,0
{consumergroup=__strimzi-topic-operator-kstreams},1651708917,0
{consumergroup=__strimzi-topic-operator-kstreams},1651708922,0
{consumergroup=__strimzi-topic-operator-kstreams},1651708927,0
{consumergroup=__strimzi-topic-operator-kstreams},1651708932,0
{consumergroup=__strimzi-topic-operator-kstreams},1651708937,0
{consumergroup=__strimzi-topic-operator-kstreams},1651708942,0
{consumergroup=__strimzi-topic-operator-kstreams},1651708947,0
{consumergroup=__strimzi-topic-operator-kstreams},1651708952,0
{consumergroup=__strimzi-topic-operator-kstreams},1651708957,0
{consumergroup=__strimzi-topic-operator-kstreams},1651708962,0
{consumergroup=__strimzi-topic-operator-kstreams},1651708967,0
{consumergroup=__strimzi-topic-operator-kstreams},1651708972,0
{consumergroup=__strimzi-topic-operator-kstreams},1651708977,0
{consumergroup=__strimzi-topic-operator-kstreams},1651708982,0
{consumergroup=__strimzi-topic-operator-kstreams},1651708987,0
{consumergroup=__strimzi-topic-operator-kstreams},1651708992,0
{consumergroup=__strimzi-topic-operator-kstreams},1651708997,0
{consumergroup=__strimzi-topic-operator-kstreams},1651709002,0
{consumergroup=__strimzi-topic-operator-kstreams},1651709007,0
{consumergroup=__strimzi-topic-operator-kstreams},1651709012,0
{consumergroup=__strimzi-topic-operator-kstreams},1651709017,0
{consumergroup=__strimzi-topic-operator-kstreams},1651709022,0
{consumergroup=__strimzi-topic-operator-kstreams},1651709027,0
{consumergroup=__strimzi-topic-operator-kstreams},1651709032,0
{consumergroup=__strimzi-topic-operator-kstreams},1651709037,0
{consumergroup=__strimzi-topic-operator-kstreams},1651709042,0
{consumergroup=__strimzi-topic-operator-kstreams},1651709047,0
{consumergroup=__strimzi-topic-operator-kstreams},1651709052,0
{consumergroup=__strimzi-topic-operator-kstreams},1651709057,0
{consumergroup=__strimzi-topic-operator-kstreams},1651709062,0
{consumergroup=__strimzi-topic-operator-kstreams},1651709067,0
{consumergroup=__strimzi-topic-operator-kstreams},1651709072,0
{consumergroup=__strimzi-topic-operator-kstreams},1651709077,0
{consumergroup=__strimzi-topic-operator-kstreams},1651709082,0
{consumergroup=adapter-service},1651708822,23213
{consumergroup=adapter-service},1651708867,140074
{consumergroup=adapter-service},1651708872,140074
{consumergroup=adapter-service},1651708877,140074
{consumergroup=adapter-service},1651708882,79801
{consumergroup=adapter-service},1651708887,79801
{consumergroup=adapter-service},1651708892,79801
{consumergroup=adapter-service},1651708897,23086
{consumergroup=adapter-service},1651708902,23086
{consumergroup=adapter-service},1651708907,23086
{consumergroup=adapter-service},1651708912,44316
{consumergroup=adapter-service},1651708917,44316
{consumergroup=adapter-service},1651708922,44316
{consumergroup=adapter-service},1651708927,14137
{consumergroup=adapter-service},1651708932,14137
{consumergroup=adapter-service},1651708937,14137
{consumergroup=adapter-service},1651708942,50612
{consumergroup=adapter-service},1651708947,50612
{consumergroup=adapter-service},1651708952,50612
{consumergroup=adapter-service},1651708957,8936
{consumergroup=adapter-service},1651708962,8936
{consumergroup=adapter-service},1651708967,8936
{consumergroup=adapter-service},1651708972,45274
{consumergroup=adapter-service},1651708977,45274
{consumergroup=adapter-service},1651708982,45274
{consumergroup=adapter-service},1651708987,12721
{consumergroup=adapter-service},1651708992,12721
{consumergroup=adapter-service},1651708997,12721
{consumergroup=adapter-service},1651709002,26824
{consumergroup=adapter-service},1651709007,26824
{consumergroup=adapter-service},1651709012,26824
{consumergroup=adapter-service},1651709017,10344
{consumergroup=adapter-service},1651709022,10344
{consumergroup=adapter-service},1651709027,10344
{consumergroup=adapter-service},1651709032,43867
{consumergroup=adapter-service},1651709037,43867
{consumergroup=adapter-service},1651709042,43867
{consumergroup=adapter-service},1651709047,20145
{consumergroup=adapter-service},1651709052,20145
{consumergroup=adapter-service},1651709057,20145
{consumergroup=adapter-service},1651709062,22680
{consumergroup=adapter-service},1651709067,22680
{consumergroup=adapter-service},1651709072,22680
{consumergroup=adapter-service},1651709077,23404
{consumergroup=adapter-service},1651709082,23404
