labels,timestamp,value
{consumergroup=__strimzi-topic-operator-kstreams},1651693605,8
{consumergroup=__strimzi-topic-operator-kstreams},1651693610,8
{consumergroup=__strimzi-topic-operator-kstreams},1651693615,8
{consumergroup=__strimzi-topic-operator-kstreams},1651693620,8
{consumergroup=__strimzi-topic-operator-kstreams},1651693625,8
{consumergroup=__strimzi-topic-operator-kstreams},1651693630,8
{consumergroup=__strimzi-topic-operator-kstreams},1651693635,0
{consumergroup=__strimzi-topic-operator-kstreams},1651693640,0
{consumergroup=__strimzi-topic-operator-kstreams},1651693645,0
{consumergroup=__strimzi-topic-operator-kstreams},1651693650,0
{consumergroup=__strimzi-topic-operator-kstreams},1651693655,0
{consumergroup=__strimzi-topic-operator-kstreams},1651693660,0
{consumergroup=__strimzi-topic-operator-kstreams},1651693665,0
{consumergroup=__strimzi-topic-operator-kstreams},1651693670,0
{consumergroup=__strimzi-topic-operator-kstreams},1651693675,0
{consumergroup=__strimzi-topic-operator-kstreams},1651693680,0
{consumergroup=__strimzi-topic-operator-kstreams},1651693685,0
{consumergroup=__strimzi-topic-operator-kstreams},1651693690,0
{consumergroup=__strimzi-topic-operator-kstreams},1651693695,0
{consumergroup=__strimzi-topic-operator-kstreams},1651693700,0
{consumergroup=__strimzi-topic-operator-kstreams},1651693705,0
{consumergroup=__strimzi-topic-operator-kstreams},1651693710,0
{consumergroup=__strimzi-topic-operator-kstreams},1651693715,0
{consumergroup=__strimzi-topic-operator-kstreams},1651693720,0
{consumergroup=__strimzi-topic-operator-kstreams},1651693725,0
{consumergroup=__strimzi-topic-operator-kstreams},1651693730,0
{consumergroup=__strimzi-topic-operator-kstreams},1651693735,0
{consumergroup=__strimzi-topic-operator-kstreams},1651693740,0
{consumergroup=__strimzi-topic-operator-kstreams},1651693745,0
{consumergroup=__strimzi-topic-operator-kstreams},1651693750,0
{consumergroup=__strimzi-topic-operator-kstreams},1651693755,0
{consumergroup=__strimzi-topic-operator-kstreams},1651693760,0
{consumergroup=__strimzi-topic-operator-kstreams},1651693765,0
{consumergroup=__strimzi-topic-operator-kstreams},1651693770,0
{consumergroup=__strimzi-topic-operator-kstreams},1651693775,0
{consumergroup=__strimzi-topic-operator-kstreams},1651693780,0
{consumergroup=__strimzi-topic-operator-kstreams},1651693785,0
{consumergroup=__strimzi-topic-operator-kstreams},1651693790,0
{consumergroup=__strimzi-topic-operator-kstreams},1651693795,0
{consumergroup=__strimzi-topic-operator-kstreams},1651693800,0
{consumergroup=__strimzi-topic-operator-kstreams},1651693805,0
{consumergroup=__strimzi-topic-operator-kstreams},1651693810,0
{consumergroup=__strimzi-topic-operator-kstreams},1651693815,0
{consumergroup=__strimzi-topic-operator-kstreams},1651693820,0
{consumergroup=__strimzi-topic-operator-kstreams},1651693825,0
{consumergroup=__strimzi-topic-operator-kstreams},1651693830,0
{consumergroup=__strimzi-topic-operator-kstreams},1651693835,0
{consumergroup=__strimzi-topic-operator-kstreams},1651693840,0
{consumergroup=__strimzi-topic-operator-kstreams},1651693845,0
{consumergroup=__strimzi-topic-operator-kstreams},1651693850,0
{consumergroup=__strimzi-topic-operator-kstreams},1651693855,0
{consumergroup=__strimzi-topic-operator-kstreams},1651693860,0
{consumergroup=adapter-service},1651693635,0
{consumergroup=adapter-service},1651693640,0
{consumergroup=adapter-service},1651693645,0
{consumergroup=adapter-service},1651693650,360483
{consumergroup=adapter-service},1651693655,360483
{consumergroup=adapter-service},1651693660,360483
{consumergroup=adapter-service},1651693665,523150
{consumergroup=adapter-service},1651693670,523150
{consumergroup=adapter-service},1651693675,523150
{consumergroup=adapter-service},1651693680,722623
{consumergroup=adapter-service},1651693685,722623
{consumergroup=adapter-service},1651693690,722623
{consumergroup=adapter-service},1651693695,869638
{consumergroup=adapter-service},1651693700,869638
{consumergroup=adapter-service},1651693705,869638
{consumergroup=adapter-service},1651693710,1030893
{consumergroup=adapter-service},1651693715,1030893
{consumergroup=adapter-service},1651693720,1030893
{consumergroup=adapter-service},1651693725,1103843
{consumergroup=adapter-service},1651693730,1103843
{consumergroup=adapter-service},1651693735,1103843
{consumergroup=adapter-service},1651693740,1147908
{consumergroup=adapter-service},1651693745,1147908
{consumergroup=adapter-service},1651693750,1147908
{consumergroup=adapter-service},1651693755,1151464
{consumergroup=adapter-service},1651693760,1151464
{consumergroup=adapter-service},1651693765,1151464
{consumergroup=adapter-service},1651693770,1170931
{consumergroup=adapter-service},1651693775,1170931
{consumergroup=adapter-service},1651693780,1170931
{consumergroup=adapter-service},1651693785,1179345
{consumergroup=adapter-service},1651693790,1179345
{consumergroup=adapter-service},1651693795,1179345
{consumergroup=adapter-service},1651693800,1173405
{consumergroup=adapter-service},1651693805,1173405
{consumergroup=adapter-service},1651693810,1173405
{consumergroup=adapter-service},1651693815,1138338
{consumergroup=adapter-service},1651693820,1138338
{consumergroup=adapter-service},1651693825,1138338
{consumergroup=adapter-service},1651693830,1192161
{consumergroup=adapter-service},1651693835,1192161
{consumergroup=adapter-service},1651693840,1192161
{consumergroup=adapter-service},1651693845,1182385
{consumergroup=adapter-service},1651693850,1182385
{consumergroup=adapter-service},1651693855,1182385
{consumergroup=adapter-service},1651693860,1128223
