labels,timestamp,value
{consumergroup=__strimzi-topic-operator-kstreams},1651587166,0
{consumergroup=__strimzi-topic-operator-kstreams},1651587171,0
{consumergroup=__strimzi-topic-operator-kstreams},1651587176,0
{consumergroup=__strimzi-topic-operator-kstreams},1651587181,0
{consumergroup=__strimzi-topic-operator-kstreams},1651587186,0
{consumergroup=__strimzi-topic-operator-kstreams},1651587191,0
{consumergroup=__strimzi-topic-operator-kstreams},1651587196,0
{consumergroup=__strimzi-topic-operator-kstreams},1651587201,0
{consumergroup=__strimzi-topic-operator-kstreams},1651587206,0
{consumergroup=__strimzi-topic-operator-kstreams},1651587211,0
{consumergroup=__strimzi-topic-operator-kstreams},1651587216,0
{consumergroup=__strimzi-topic-operator-kstreams},1651587221,0
{consumergroup=__strimzi-topic-operator-kstreams},1651587226,0
{consumergroup=__strimzi-topic-operator-kstreams},1651587231,0
{consumergroup=__strimzi-topic-operator-kstreams},1651587236,0
{consumergroup=__strimzi-topic-operator-kstreams},1651587241,0
{consumergroup=__strimzi-topic-operator-kstreams},1651587246,0
{consumergroup=__strimzi-topic-operator-kstreams},1651587251,0
{consumergroup=__strimzi-topic-operator-kstreams},1651587256,0
{consumergroup=__strimzi-topic-operator-kstreams},1651587261,0
{consumergroup=__strimzi-topic-operator-kstreams},1651587266,0
{consumergroup=__strimzi-topic-operator-kstreams},1651587271,0
{consumergroup=__strimzi-topic-operator-kstreams},1651587276,0
{consumergroup=__strimzi-topic-operator-kstreams},1651587281,0
{consumergroup=__strimzi-topic-operator-kstreams},1651587286,0
{consumergroup=__strimzi-topic-operator-kstreams},1651587291,0
{consumergroup=__strimzi-topic-operator-kstreams},1651587296,0
{consumergroup=__strimzi-topic-operator-kstreams},1651587301,0
{consumergroup=__strimzi-topic-operator-kstreams},1651587306,0
{consumergroup=__strimzi-topic-operator-kstreams},1651587311,0
{consumergroup=__strimzi-topic-operator-kstreams},1651587316,0
{consumergroup=__strimzi-topic-operator-kstreams},1651587321,0
{consumergroup=__strimzi-topic-operator-kstreams},1651587326,0
{consumergroup=__strimzi-topic-operator-kstreams},1651587331,0
{consumergroup=__strimzi-topic-operator-kstreams},1651587336,0
{consumergroup=__strimzi-topic-operator-kstreams},1651587341,0
{consumergroup=__strimzi-topic-operator-kstreams},1651587346,0
{consumergroup=__strimzi-topic-operator-kstreams},1651587351,0
{consumergroup=__strimzi-topic-operator-kstreams},1651587356,0
{consumergroup=__strimzi-topic-operator-kstreams},1651587361,0
{consumergroup=__strimzi-topic-operator-kstreams},1651587366,0
{consumergroup=__strimzi-topic-operator-kstreams},1651587371,0
{consumergroup=__strimzi-topic-operator-kstreams},1651587376,0
{consumergroup=__strimzi-topic-operator-kstreams},1651587381,0
{consumergroup=__strimzi-topic-operator-kstreams},1651587386,0
{consumergroup=__strimzi-topic-operator-kstreams},1651587391,0
{consumergroup=__strimzi-topic-operator-kstreams},1651587396,0
{consumergroup=__strimzi-topic-operator-kstreams},1651587401,0
{consumergroup=__strimzi-topic-operator-kstreams},1651587406,0
{consumergroup=__strimzi-topic-operator-kstreams},1651587411,0
{consumergroup=__strimzi-topic-operator-kstreams},1651587416,0
{consumergroup=landscape-service},1651587196,658
{consumergroup=landscape-service},1651587201,658
{consumergroup=landscape-service},1651587206,658
{consumergroup=landscape-service},1651587211,2560600
{consumergroup=landscape-service},1651587216,2560600
{consumergroup=landscape-service},1651587221,2560600
{consumergroup=landscape-service},1651587226,4356277
{consumergroup=landscape-service},1651587231,4356277
{consumergroup=landscape-service},1651587236,4356277
{consumergroup=landscape-service},1651587241,5792207
{consumergroup=landscape-service},1651587246,5792207
{consumergroup=landscape-service},1651587251,5792207
{consumergroup=landscape-service},1651587256,7039328
{consumergroup=landscape-service},1651587261,7039328
{consumergroup=landscape-service},1651587266,7039328
{consumergroup=landscape-service},1651587271,8485628
{consumergroup=landscape-service},1651587276,8485628
{consumergroup=landscape-service},1651587281,8485628
{consumergroup=landscape-service},1651587286,9688670
{consumergroup=landscape-service},1651587291,9688670
{consumergroup=landscape-service},1651587296,9688670
{consumergroup=landscape-service},1651587301,11058476
{consumergroup=landscape-service},1651587306,11058476
{consumergroup=landscape-service},1651587311,11058476
{consumergroup=landscape-service},1651587316,11817654
{consumergroup=landscape-service},1651587321,11817654
{consumergroup=landscape-service},1651587326,11817654
{consumergroup=landscape-service},1651587331,13167203
{consumergroup=landscape-service},1651587336,13167203
{consumergroup=landscape-service},1651587341,13167203
{consumergroup=landscape-service},1651587346,13911336
{consumergroup=landscape-service},1651587351,13911336
{consumergroup=landscape-service},1651587356,13911336
{consumergroup=landscape-service},1651587361,15167202
{consumergroup=landscape-service},1651587366,15167202
{consumergroup=landscape-service},1651587371,15167202
{consumergroup=landscape-service},1651587376,16555656
{consumergroup=landscape-service},1651587381,16555656
{consumergroup=landscape-service},1651587386,16555656
{consumergroup=landscape-service},1651587391,17394838
{consumergroup=landscape-service},1651587396,17394838
{consumergroup=landscape-service},1651587401,17394838
{consumergroup=landscape-service},1651587406,18657172
{consumergroup=landscape-service},1651587411,18657172
{consumergroup=landscape-service},1651587416,18657172
{consumergroup=landscape-token-events-consumer},1651587196,0
{consumergroup=landscape-token-events-consumer},1651587201,0
{consumergroup=landscape-token-events-consumer},1651587206,0
{consumergroup=landscape-token-events-consumer},1651587211,0
{consumergroup=landscape-token-events-consumer},1651587216,0
{consumergroup=landscape-token-events-consumer},1651587221,0
{consumergroup=landscape-token-events-consumer},1651587226,0
{consumergroup=landscape-token-events-consumer},1651587231,0
{consumergroup=landscape-token-events-consumer},1651587236,0
{consumergroup=landscape-token-events-consumer},1651587241,0
{consumergroup=landscape-token-events-consumer},1651587246,0
{consumergroup=landscape-token-events-consumer},1651587251,0
{consumergroup=landscape-token-events-consumer},1651587256,0
{consumergroup=landscape-token-events-consumer},1651587261,0
{consumergroup=landscape-token-events-consumer},1651587266,0
{consumergroup=landscape-token-events-consumer},1651587271,0
{consumergroup=landscape-token-events-consumer},1651587276,0
{consumergroup=landscape-token-events-consumer},1651587281,0
{consumergroup=landscape-token-events-consumer},1651587286,0
{consumergroup=landscape-token-events-consumer},1651587291,0
{consumergroup=landscape-token-events-consumer},1651587296,0
{consumergroup=landscape-token-events-consumer},1651587301,0
{consumergroup=landscape-token-events-consumer},1651587306,0
{consumergroup=landscape-token-events-consumer},1651587311,0
{consumergroup=landscape-token-events-consumer},1651587316,0
{consumergroup=landscape-token-events-consumer},1651587321,0
{consumergroup=landscape-token-events-consumer},1651587326,0
{consumergroup=landscape-token-events-consumer},1651587331,0
{consumergroup=landscape-token-events-consumer},1651587336,0
{consumergroup=landscape-token-events-consumer},1651587341,0
{consumergroup=landscape-token-events-consumer},1651587346,0
{consumergroup=landscape-token-events-consumer},1651587351,0
{consumergroup=landscape-token-events-consumer},1651587356,0
{consumergroup=landscape-token-events-consumer},1651587361,0
{consumergroup=landscape-token-events-consumer},1651587366,0
{consumergroup=landscape-token-events-consumer},1651587371,0
{consumergroup=landscape-token-events-consumer},1651587376,0
{consumergroup=landscape-token-events-consumer},1651587381,0
{consumergroup=landscape-token-events-consumer},1651587386,0
{consumergroup=landscape-token-events-consumer},1651587391,0
{consumergroup=landscape-token-events-consumer},1651587396,0
{consumergroup=landscape-token-events-consumer},1651587401,0
{consumergroup=landscape-token-events-consumer},1651587406,0
{consumergroup=landscape-token-events-consumer},1651587411,0
{consumergroup=landscape-token-events-consumer},1651587416,0
