labels,timestamp,value
{consumergroup=__strimzi-topic-operator-kstreams},1651723102,0
{consumergroup=__strimzi-topic-operator-kstreams},1651723107,0
{consumergroup=__strimzi-topic-operator-kstreams},1651723112,0
{consumergroup=__strimzi-topic-operator-kstreams},1651723117,13
{consumergroup=__strimzi-topic-operator-kstreams},1651723122,13
{consumergroup=__strimzi-topic-operator-kstreams},1651723127,13
{consumergroup=__strimzi-topic-operator-kstreams},1651723132,13
{consumergroup=__strimzi-topic-operator-kstreams},1651723137,13
{consumergroup=__strimzi-topic-operator-kstreams},1651723142,13
{consumergroup=__strimzi-topic-operator-kstreams},1651723147,0
{consumergroup=__strimzi-topic-operator-kstreams},1651723152,0
{consumergroup=__strimzi-topic-operator-kstreams},1651723157,0
{consumergroup=__strimzi-topic-operator-kstreams},1651723162,0
{consumergroup=__strimzi-topic-operator-kstreams},1651723167,0
{consumergroup=__strimzi-topic-operator-kstreams},1651723172,0
{consumergroup=__strimzi-topic-operator-kstreams},1651723177,0
{consumergroup=__strimzi-topic-operator-kstreams},1651723182,0
{consumergroup=__strimzi-topic-operator-kstreams},1651723187,0
{consumergroup=__strimzi-topic-operator-kstreams},1651723192,0
{consumergroup=__strimzi-topic-operator-kstreams},1651723197,0
{consumergroup=__strimzi-topic-operator-kstreams},1651723202,0
{consumergroup=__strimzi-topic-operator-kstreams},1651723207,0
{consumergroup=__strimzi-topic-operator-kstreams},1651723212,0
{consumergroup=__strimzi-topic-operator-kstreams},1651723217,0
{consumergroup=__strimzi-topic-operator-kstreams},1651723222,0
{consumergroup=__strimzi-topic-operator-kstreams},1651723227,0
{consumergroup=__strimzi-topic-operator-kstreams},1651723232,0
{consumergroup=__strimzi-topic-operator-kstreams},1651723237,0
{consumergroup=__strimzi-topic-operator-kstreams},1651723242,0
{consumergroup=__strimzi-topic-operator-kstreams},1651723247,0
{consumergroup=__strimzi-topic-operator-kstreams},1651723252,0
{consumergroup=__strimzi-topic-operator-kstreams},1651723257,0
{consumergroup=__strimzi-topic-operator-kstreams},1651723262,0
{consumergroup=__strimzi-topic-operator-kstreams},1651723267,0
{consumergroup=__strimzi-topic-operator-kstreams},1651723272,0
{consumergroup=__strimzi-topic-operator-kstreams},1651723277,0
{consumergroup=__strimzi-topic-operator-kstreams},1651723282,0
{consumergroup=__strimzi-topic-operator-kstreams},1651723287,0
{consumergroup=__strimzi-topic-operator-kstreams},1651723292,0
{consumergroup=__strimzi-topic-operator-kstreams},1651723297,0
{consumergroup=__strimzi-topic-operator-kstreams},1651723302,0
{consumergroup=__strimzi-topic-operator-kstreams},1651723307,0
{consumergroup=__strimzi-topic-operator-kstreams},1651723312,0
{consumergroup=__strimzi-topic-operator-kstreams},1651723317,0
{consumergroup=__strimzi-topic-operator-kstreams},1651723322,0
{consumergroup=__strimzi-topic-operator-kstreams},1651723327,0
{consumergroup=__strimzi-topic-operator-kstreams},1651723332,0
{consumergroup=__strimzi-topic-operator-kstreams},1651723337,0
{consumergroup=__strimzi-topic-operator-kstreams},1651723342,0
{consumergroup=__strimzi-topic-operator-kstreams},1651723347,0
{consumergroup=__strimzi-topic-operator-kstreams},1651723352,0
{consumergroup=__strimzi-topic-operator-kstreams},1651723357,0
{consumergroup=adapter-service},1651723132,521770
{consumergroup=adapter-service},1651723137,521770
{consumergroup=adapter-service},1651723142,521770
{consumergroup=adapter-service},1651723147,1858068
{consumergroup=adapter-service},1651723152,1858068
{consumergroup=adapter-service},1651723157,1858068
{consumergroup=adapter-service},1651723162,2632958
{consumergroup=adapter-service},1651723167,2632958
{consumergroup=adapter-service},1651723172,2632958
{consumergroup=adapter-service},1651723177,3221362
{consumergroup=adapter-service},1651723182,3221362
{consumergroup=adapter-service},1651723187,3221362
{consumergroup=adapter-service},1651723192,3492705
{consumergroup=adapter-service},1651723197,3492705
{consumergroup=adapter-service},1651723202,3492705
{consumergroup=adapter-service},1651723207,3422595
{consumergroup=adapter-service},1651723212,3422595
{consumergroup=adapter-service},1651723217,3422595
{consumergroup=adapter-service},1651723222,3163490
{consumergroup=adapter-service},1651723227,3163490
{consumergroup=adapter-service},1651723232,3163490
{consumergroup=adapter-service},1651723237,2837831
{consumergroup=adapter-service},1651723242,2837831
{consumergroup=adapter-service},1651723247,2837831
{consumergroup=adapter-service},1651723252,2531543
{consumergroup=adapter-service},1651723257,2531543
{consumergroup=adapter-service},1651723262,2531543
{consumergroup=adapter-service},1651723267,2096700
{consumergroup=adapter-service},1651723272,2096700
{consumergroup=adapter-service},1651723277,2096700
{consumergroup=adapter-service},1651723282,1672223
{consumergroup=adapter-service},1651723287,1672223
{consumergroup=adapter-service},1651723292,1672223
{consumergroup=adapter-service},1651723297,1393092
{consumergroup=adapter-service},1651723302,1393092
{consumergroup=adapter-service},1651723307,1393092
{consumergroup=adapter-service},1651723312,1227751
{consumergroup=adapter-service},1651723317,1227751
{consumergroup=adapter-service},1651723322,1227751
{consumergroup=adapter-service},1651723327,1099944
{consumergroup=adapter-service},1651723332,1099944
{consumergroup=adapter-service},1651723337,1099944
{consumergroup=adapter-service},1651723342,911029
{consumergroup=adapter-service},1651723347,911029
{consumergroup=adapter-service},1651723352,911029
{consumergroup=adapter-service},1651723357,829690
