labels,timestamp,value
{consumergroup=__strimzi-topic-operator-kstreams},1651614996,0
{consumergroup=__strimzi-topic-operator-kstreams},1651615006,8
{consumergroup=__strimzi-topic-operator-kstreams},1651615011,8
{consumergroup=__strimzi-topic-operator-kstreams},1651615016,8
{consumergroup=__strimzi-topic-operator-kstreams},1651615021,0
{consumergroup=__strimzi-topic-operator-kstreams},1651615026,0
{consumergroup=__strimzi-topic-operator-kstreams},1651615031,0
{consumergroup=__strimzi-topic-operator-kstreams},1651615036,0
{consumergroup=__strimzi-topic-operator-kstreams},1651615041,0
{consumergroup=__strimzi-topic-operator-kstreams},1651615046,0
{consumergroup=__strimzi-topic-operator-kstreams},1651615051,0
{consumergroup=__strimzi-topic-operator-kstreams},1651615056,0
{consumergroup=__strimzi-topic-operator-kstreams},1651615061,0
{consumergroup=__strimzi-topic-operator-kstreams},1651615066,0
{consumergroup=__strimzi-topic-operator-kstreams},1651615071,0
{consumergroup=__strimzi-topic-operator-kstreams},1651615076,0
{consumergroup=__strimzi-topic-operator-kstreams},1651615081,0
{consumergroup=__strimzi-topic-operator-kstreams},1651615086,0
{consumergroup=__strimzi-topic-operator-kstreams},1651615091,0
{consumergroup=__strimzi-topic-operator-kstreams},1651615096,0
{consumergroup=__strimzi-topic-operator-kstreams},1651615101,0
{consumergroup=__strimzi-topic-operator-kstreams},1651615106,0
{consumergroup=__strimzi-topic-operator-kstreams},1651615111,0
{consumergroup=__strimzi-topic-operator-kstreams},1651615116,0
{consumergroup=__strimzi-topic-operator-kstreams},1651615121,0
{consumergroup=__strimzi-topic-operator-kstreams},1651615126,0
{consumergroup=__strimzi-topic-operator-kstreams},1651615131,0
{consumergroup=__strimzi-topic-operator-kstreams},1651615136,0
{consumergroup=__strimzi-topic-operator-kstreams},1651615141,0
{consumergroup=__strimzi-topic-operator-kstreams},1651615146,0
{consumergroup=__strimzi-topic-operator-kstreams},1651615151,0
{consumergroup=__strimzi-topic-operator-kstreams},1651615156,0
{consumergroup=__strimzi-topic-operator-kstreams},1651615161,0
{consumergroup=__strimzi-topic-operator-kstreams},1651615166,0
{consumergroup=__strimzi-topic-operator-kstreams},1651615171,0
{consumergroup=__strimzi-topic-operator-kstreams},1651615176,0
{consumergroup=__strimzi-topic-operator-kstreams},1651615181,0
{consumergroup=__strimzi-topic-operator-kstreams},1651615186,0
{consumergroup=__strimzi-topic-operator-kstreams},1651615191,0
{consumergroup=__strimzi-topic-operator-kstreams},1651615196,0
{consumergroup=__strimzi-topic-operator-kstreams},1651615201,0
{consumergroup=__strimzi-topic-operator-kstreams},1651615206,0
{consumergroup=__strimzi-topic-operator-kstreams},1651615211,0
{consumergroup=__strimzi-topic-operator-kstreams},1651615216,0
{consumergroup=__strimzi-topic-operator-kstreams},1651615221,0
{consumergroup=__strimzi-topic-operator-kstreams},1651615226,0
{consumergroup=__strimzi-topic-operator-kstreams},1651615231,0
{consumergroup=__strimzi-topic-operator-kstreams},1651615236,0
{consumergroup=__strimzi-topic-operator-kstreams},1651615241,0
{consumergroup=__strimzi-topic-operator-kstreams},1651615246,0
{consumergroup=__strimzi-topic-operator-kstreams},1651615251,0
{consumergroup=__strimzi-topic-operator-kstreams},1651615256,0
{consumergroup=adapter-service},1651614996,38944
{consumergroup=adapter-service},1651615036,162927
{consumergroup=adapter-service},1651615041,162927
{consumergroup=adapter-service},1651615046,162927
{consumergroup=adapter-service},1651615051,439365
{consumergroup=adapter-service},1651615056,439365
{consumergroup=adapter-service},1651615061,439365
{consumergroup=adapter-service},1651615066,606876
{consumergroup=adapter-service},1651615071,606876
{consumergroup=adapter-service},1651615076,606876
{consumergroup=adapter-service},1651615081,719125
{consumergroup=adapter-service},1651615086,719125
{consumergroup=adapter-service},1651615091,719125
{consumergroup=adapter-service},1651615096,754868
{consumergroup=adapter-service},1651615101,754868
{consumergroup=adapter-service},1651615106,754868
{consumergroup=adapter-service},1651615111,679156
{consumergroup=adapter-service},1651615116,679156
{consumergroup=adapter-service},1651615121,679156
{consumergroup=adapter-service},1651615126,514789
{consumergroup=adapter-service},1651615131,514789
{consumergroup=adapter-service},1651615136,514789
{consumergroup=adapter-service},1651615141,286755
{consumergroup=adapter-service},1651615146,286755
{consumergroup=adapter-service},1651615151,286755
{consumergroup=adapter-service},1651615156,164455
{consumergroup=adapter-service},1651615161,164455
{consumergroup=adapter-service},1651615166,164455
{consumergroup=adapter-service},1651615171,100838
{consumergroup=adapter-service},1651615176,100838
{consumergroup=adapter-service},1651615181,100838
{consumergroup=adapter-service},1651615186,73765
{consumergroup=adapter-service},1651615191,73765
{consumergroup=adapter-service},1651615196,73765
{consumergroup=adapter-service},1651615201,101271
{consumergroup=adapter-service},1651615206,101271
{consumergroup=adapter-service},1651615211,101271
{consumergroup=adapter-service},1651615216,74224
{consumergroup=adapter-service},1651615221,74224
{consumergroup=adapter-service},1651615226,74224
{consumergroup=adapter-service},1651615231,61593
{consumergroup=adapter-service},1651615236,61593
{consumergroup=adapter-service},1651615241,61593
{consumergroup=adapter-service},1651615246,59414
{consumergroup=adapter-service},1651615251,59414
{consumergroup=adapter-service},1651615256,59414
