labels,timestamp,value
{consumergroup=__strimzi-topic-operator-kstreams},1651589566,8
{consumergroup=__strimzi-topic-operator-kstreams},1651589571,8
{consumergroup=__strimzi-topic-operator-kstreams},1651589576,8
{consumergroup=__strimzi-topic-operator-kstreams},1651589581,0
{consumergroup=__strimzi-topic-operator-kstreams},1651589586,0
{consumergroup=__strimzi-topic-operator-kstreams},1651589591,0
{consumergroup=__strimzi-topic-operator-kstreams},1651589596,0
{consumergroup=__strimzi-topic-operator-kstreams},1651589601,0
{consumergroup=__strimzi-topic-operator-kstreams},1651589606,0
{consumergroup=__strimzi-topic-operator-kstreams},1651589611,0
{consumergroup=__strimzi-topic-operator-kstreams},1651589616,0
{consumergroup=__strimzi-topic-operator-kstreams},1651589621,0
{consumergroup=__strimzi-topic-operator-kstreams},1651589626,0
{consumergroup=__strimzi-topic-operator-kstreams},1651589631,0
{consumergroup=__strimzi-topic-operator-kstreams},1651589636,0
{consumergroup=__strimzi-topic-operator-kstreams},1651589641,0
{consumergroup=__strimzi-topic-operator-kstreams},1651589646,0
{consumergroup=__strimzi-topic-operator-kstreams},1651589651,0
{consumergroup=__strimzi-topic-operator-kstreams},1651589656,0
{consumergroup=__strimzi-topic-operator-kstreams},1651589661,0
{consumergroup=__strimzi-topic-operator-kstreams},1651589666,0
{consumergroup=__strimzi-topic-operator-kstreams},1651589671,0
{consumergroup=__strimzi-topic-operator-kstreams},1651589676,0
{consumergroup=__strimzi-topic-operator-kstreams},1651589681,0
{consumergroup=__strimzi-topic-operator-kstreams},1651589686,0
{consumergroup=__strimzi-topic-operator-kstreams},1651589691,0
{consumergroup=__strimzi-topic-operator-kstreams},1651589696,0
{consumergroup=__strimzi-topic-operator-kstreams},1651589701,0
{consumergroup=__strimzi-topic-operator-kstreams},1651589706,0
{consumergroup=__strimzi-topic-operator-kstreams},1651589711,0
{consumergroup=__strimzi-topic-operator-kstreams},1651589716,0
{consumergroup=__strimzi-topic-operator-kstreams},1651589721,0
{consumergroup=__strimzi-topic-operator-kstreams},1651589726,0
{consumergroup=__strimzi-topic-operator-kstreams},1651589731,0
{consumergroup=__strimzi-topic-operator-kstreams},1651589736,0
{consumergroup=__strimzi-topic-operator-kstreams},1651589741,0
{consumergroup=__strimzi-topic-operator-kstreams},1651589746,0
{consumergroup=__strimzi-topic-operator-kstreams},1651589751,0
{consumergroup=__strimzi-topic-operator-kstreams},1651589756,0
{consumergroup=__strimzi-topic-operator-kstreams},1651589761,0
{consumergroup=__strimzi-topic-operator-kstreams},1651589766,0
{consumergroup=__strimzi-topic-operator-kstreams},1651589771,0
{consumergroup=__strimzi-topic-operator-kstreams},1651589776,0
{consumergroup=__strimzi-topic-operator-kstreams},1651589781,0
{consumergroup=__strimzi-topic-operator-kstreams},1651589786,0
{consumergroup=__strimzi-topic-operator-kstreams},1651589791,0
{consumergroup=__strimzi-topic-operator-kstreams},1651589796,0
{consumergroup=__strimzi-topic-operator-kstreams},1651589801,0
{consumergroup=__strimzi-topic-operator-kstreams},1651589806,0
{consumergroup=__strimzi-topic-operator-kstreams},1651589811,0
{consumergroup=__strimzi-topic-operator-kstreams},1651589816,0
{consumergroup=__strimzi-topic-operator-kstreams},1651589821,0
{consumergroup=landscape-service},1651589611,3727120
{consumergroup=landscape-service},1651589616,3727120
{consumergroup=landscape-service},1651589621,3727120
{consumergroup=landscape-service},1651589626,6083578
{consumergroup=landscape-service},1651589631,6083578
{consumergroup=landscape-service},1651589636,6083578
{consumergroup=landscape-service},1651589641,6023004
{consumergroup=landscape-service},1651589646,6023004
{consumergroup=landscape-service},1651589651,6023004
{consumergroup=landscape-service},1651589656,6424814
{consumergroup=landscape-service},1651589661,6424814
{consumergroup=landscape-service},1651589666,6424814
{consumergroup=landscape-service},1651589671,5747992
{consumergroup=landscape-service},1651589676,5747992
{consumergroup=landscape-service},1651589681,5747992
{consumergroup=landscape-service},1651589686,6250897
{consumergroup=landscape-service},1651589691,6250897
{consumergroup=landscape-service},1651589696,6250897
{consumergroup=landscape-service},1651589701,6087239
{consumergroup=landscape-service},1651589706,6087239
{consumergroup=landscape-service},1651589711,6087239
{consumergroup=landscape-service},1651589716,6756844
{consumergroup=landscape-service},1651589721,6756844
{consumergroup=landscape-service},1651589726,6756844
{consumergroup=landscape-service},1651589731,6903826
{consumergroup=landscape-service},1651589736,6903826
{consumergroup=landscape-service},1651589741,6903826
{consumergroup=landscape-service},1651589746,6762937
{consumergroup=landscape-service},1651589751,6762937
{consumergroup=landscape-service},1651589756,6762937
{consumergroup=landscape-service},1651589761,6586009
{consumergroup=landscape-service},1651589766,6586009
{consumergroup=landscape-service},1651589771,6586009
{consumergroup=landscape-service},1651589776,7084642
{consumergroup=landscape-service},1651589781,7084642
{consumergroup=landscape-service},1651589786,7084642
{consumergroup=landscape-service},1651589791,6535885
{consumergroup=landscape-service},1651589796,6535885
{consumergroup=landscape-service},1651589801,6535885
{consumergroup=landscape-service},1651589806,6768056
{consumergroup=landscape-service},1651589811,6768056
{consumergroup=landscape-service},1651589816,6768056
{consumergroup=landscape-service},1651589821,6669425
