labels,timestamp,value
{consumergroup=__strimzi-topic-operator-kstreams},1651619722,8
{consumergroup=__strimzi-topic-operator-kstreams},1651619727,8
{consumergroup=__strimzi-topic-operator-kstreams},1651619732,8
{consumergroup=__strimzi-topic-operator-kstreams},1651619737,8
{consumergroup=__strimzi-topic-operator-kstreams},1651619742,8
{consumergroup=__strimzi-topic-operator-kstreams},1651619747,8
{consumergroup=__strimzi-topic-operator-kstreams},1651619752,0
{consumergroup=__strimzi-topic-operator-kstreams},1651619757,0
{consumergroup=__strimzi-topic-operator-kstreams},1651619762,0
{consumergroup=__strimzi-topic-operator-kstreams},1651619767,0
{consumergroup=__strimzi-topic-operator-kstreams},1651619772,0
{consumergroup=__strimzi-topic-operator-kstreams},1651619777,0
{consumergroup=__strimzi-topic-operator-kstreams},1651619782,0
{consumergroup=__strimzi-topic-operator-kstreams},1651619787,0
{consumergroup=__strimzi-topic-operator-kstreams},1651619792,0
{consumergroup=__strimzi-topic-operator-kstreams},1651619797,0
{consumergroup=__strimzi-topic-operator-kstreams},1651619802,0
{consumergroup=__strimzi-topic-operator-kstreams},1651619807,0
{consumergroup=__strimzi-topic-operator-kstreams},1651619812,0
{consumergroup=__strimzi-topic-operator-kstreams},1651619817,0
{consumergroup=__strimzi-topic-operator-kstreams},1651619822,0
{consumergroup=__strimzi-topic-operator-kstreams},1651619827,0
{consumergroup=__strimzi-topic-operator-kstreams},1651619832,0
{consumergroup=__strimzi-topic-operator-kstreams},1651619837,0
{consumergroup=__strimzi-topic-operator-kstreams},1651619842,0
{consumergroup=__strimzi-topic-operator-kstreams},1651619847,0
{consumergroup=__strimzi-topic-operator-kstreams},1651619852,0
{consumergroup=__strimzi-topic-operator-kstreams},1651619857,0
{consumergroup=__strimzi-topic-operator-kstreams},1651619862,0
{consumergroup=__strimzi-topic-operator-kstreams},1651619867,0
{consumergroup=__strimzi-topic-operator-kstreams},1651619872,0
{consumergroup=__strimzi-topic-operator-kstreams},1651619877,0
{consumergroup=__strimzi-topic-operator-kstreams},1651619882,0
{consumergroup=__strimzi-topic-operator-kstreams},1651619887,0
{consumergroup=__strimzi-topic-operator-kstreams},1651619892,0
{consumergroup=__strimzi-topic-operator-kstreams},1651619897,0
{consumergroup=__strimzi-topic-operator-kstreams},1651619902,0
{consumergroup=__strimzi-topic-operator-kstreams},1651619907,0
{consumergroup=__strimzi-topic-operator-kstreams},1651619912,0
{consumergroup=__strimzi-topic-operator-kstreams},1651619917,0
{consumergroup=__strimzi-topic-operator-kstreams},1651619922,0
{consumergroup=__strimzi-topic-operator-kstreams},1651619927,0
{consumergroup=__strimzi-topic-operator-kstreams},1651619932,0
{consumergroup=__strimzi-topic-operator-kstreams},1651619937,0
{consumergroup=__strimzi-topic-operator-kstreams},1651619942,0
{consumergroup=__strimzi-topic-operator-kstreams},1651619947,0
{consumergroup=__strimzi-topic-operator-kstreams},1651619952,0
{consumergroup=__strimzi-topic-operator-kstreams},1651619957,0
{consumergroup=__strimzi-topic-operator-kstreams},1651619962,0
{consumergroup=__strimzi-topic-operator-kstreams},1651619967,0
{consumergroup=__strimzi-topic-operator-kstreams},1651619972,0
{consumergroup=adapter-service},1651619752,62139
{consumergroup=adapter-service},1651619757,62139
{consumergroup=adapter-service},1651619762,62139
{consumergroup=adapter-service},1651619767,51457
{consumergroup=adapter-service},1651619772,51457
{consumergroup=adapter-service},1651619777,51457
{consumergroup=adapter-service},1651619782,26090
{consumergroup=adapter-service},1651619787,26090
{consumergroup=adapter-service},1651619792,26090
{consumergroup=adapter-service},1651619797,33360
{consumergroup=adapter-service},1651619802,33360
{consumergroup=adapter-service},1651619807,33360
{consumergroup=adapter-service},1651619812,37582
{consumergroup=adapter-service},1651619817,37582
{consumergroup=adapter-service},1651619822,37582
{consumergroup=adapter-service},1651619827,39756
{consumergroup=adapter-service},1651619832,39756
{consumergroup=adapter-service},1651619837,39756
{consumergroup=adapter-service},1651619842,38437
{consumergroup=adapter-service},1651619847,38437
{consumergroup=adapter-service},1651619852,38437
{consumergroup=adapter-service},1651619857,28046
{consumergroup=adapter-service},1651619862,28046
{consumergroup=adapter-service},1651619867,28046
{consumergroup=adapter-service},1651619872,37692
{consumergroup=adapter-service},1651619877,37692
{consumergroup=adapter-service},1651619882,37692
{consumergroup=adapter-service},1651619887,26183
{consumergroup=adapter-service},1651619892,26183
{consumergroup=adapter-service},1651619897,26183
{consumergroup=adapter-service},1651619902,36388
{consumergroup=adapter-service},1651619907,36388
{consumergroup=adapter-service},1651619912,36388
{consumergroup=adapter-service},1651619917,36274
{consumergroup=adapter-service},1651619922,36274
{consumergroup=adapter-service},1651619927,36274
{consumergroup=adapter-service},1651619932,35763
{consumergroup=adapter-service},1651619937,35763
{consumergroup=adapter-service},1651619942,35763
{consumergroup=adapter-service},1651619947,33517
{consumergroup=adapter-service},1651619952,33517
{consumergroup=adapter-service},1651619957,33517
{consumergroup=adapter-service},1651619962,36263
{consumergroup=adapter-service},1651619967,36263
{consumergroup=adapter-service},1651619972,36263
