labels,timestamp,value
{consumergroup=__strimzi-topic-operator-kstreams},1651640452,8
{consumergroup=__strimzi-topic-operator-kstreams},1651640457,8
{consumergroup=__strimzi-topic-operator-kstreams},1651640462,8
{consumergroup=__strimzi-topic-operator-kstreams},1651640467,8
{consumergroup=__strimzi-topic-operator-kstreams},1651640472,8
{consumergroup=__strimzi-topic-operator-kstreams},1651640477,8
{consumergroup=__strimzi-topic-operator-kstreams},1651640482,0
{consumergroup=__strimzi-topic-operator-kstreams},1651640487,0
{consumergroup=__strimzi-topic-operator-kstreams},1651640492,0
{consumergroup=__strimzi-topic-operator-kstreams},1651640497,0
{consumergroup=__strimzi-topic-operator-kstreams},1651640502,0
{consumergroup=__strimzi-topic-operator-kstreams},1651640507,0
{consumergroup=__strimzi-topic-operator-kstreams},1651640512,0
{consumergroup=__strimzi-topic-operator-kstreams},1651640517,0
{consumergroup=__strimzi-topic-operator-kstreams},1651640522,0
{consumergroup=__strimzi-topic-operator-kstreams},1651640527,0
{consumergroup=__strimzi-topic-operator-kstreams},1651640532,0
{consumergroup=__strimzi-topic-operator-kstreams},1651640537,0
{consumergroup=__strimzi-topic-operator-kstreams},1651640542,0
{consumergroup=__strimzi-topic-operator-kstreams},1651640547,0
{consumergroup=__strimzi-topic-operator-kstreams},1651640552,0
{consumergroup=__strimzi-topic-operator-kstreams},1651640557,0
{consumergroup=__strimzi-topic-operator-kstreams},1651640562,0
{consumergroup=__strimzi-topic-operator-kstreams},1651640567,0
{consumergroup=__strimzi-topic-operator-kstreams},1651640572,0
{consumergroup=__strimzi-topic-operator-kstreams},1651640577,0
{consumergroup=__strimzi-topic-operator-kstreams},1651640582,0
{consumergroup=__strimzi-topic-operator-kstreams},1651640587,0
{consumergroup=__strimzi-topic-operator-kstreams},1651640592,0
{consumergroup=__strimzi-topic-operator-kstreams},1651640597,0
{consumergroup=__strimzi-topic-operator-kstreams},1651640602,0
{consumergroup=__strimzi-topic-operator-kstreams},1651640607,0
{consumergroup=__strimzi-topic-operator-kstreams},1651640612,0
{consumergroup=__strimzi-topic-operator-kstreams},1651640617,0
{consumergroup=__strimzi-topic-operator-kstreams},1651640622,0
{consumergroup=__strimzi-topic-operator-kstreams},1651640627,0
{consumergroup=__strimzi-topic-operator-kstreams},1651640632,0
{consumergroup=__strimzi-topic-operator-kstreams},1651640637,0
{consumergroup=__strimzi-topic-operator-kstreams},1651640642,0
{consumergroup=__strimzi-topic-operator-kstreams},1651640647,0
{consumergroup=__strimzi-topic-operator-kstreams},1651640652,0
{consumergroup=__strimzi-topic-operator-kstreams},1651640657,0
{consumergroup=__strimzi-topic-operator-kstreams},1651640662,0
{consumergroup=__strimzi-topic-operator-kstreams},1651640667,0
{consumergroup=__strimzi-topic-operator-kstreams},1651640672,0
{consumergroup=__strimzi-topic-operator-kstreams},1651640677,0
{consumergroup=__strimzi-topic-operator-kstreams},1651640682,0
{consumergroup=__strimzi-topic-operator-kstreams},1651640687,0
{consumergroup=__strimzi-topic-operator-kstreams},1651640692,0
{consumergroup=__strimzi-topic-operator-kstreams},1651640697,0
{consumergroup=__strimzi-topic-operator-kstreams},1651640702,0
{consumergroup=adapter-service},1651640482,136734
{consumergroup=adapter-service},1651640487,136734
{consumergroup=adapter-service},1651640492,136734
{consumergroup=adapter-service},1651640497,114130
{consumergroup=adapter-service},1651640502,114130
{consumergroup=adapter-service},1651640507,114130
{consumergroup=adapter-service},1651640512,45058
{consumergroup=adapter-service},1651640517,45058
{consumergroup=adapter-service},1651640522,45058
{consumergroup=adapter-service},1651640527,20994
{consumergroup=adapter-service},1651640532,20994
{consumergroup=adapter-service},1651640537,20994
{consumergroup=adapter-service},1651640542,35633
{consumergroup=adapter-service},1651640547,35633
{consumergroup=adapter-service},1651640552,35633
{consumergroup=adapter-service},1651640557,33291
{consumergroup=adapter-service},1651640562,33291
{consumergroup=adapter-service},1651640567,33291
{consumergroup=adapter-service},1651640572,30102
{consumergroup=adapter-service},1651640577,30102
{consumergroup=adapter-service},1651640582,30102
{consumergroup=adapter-service},1651640587,12429
{consumergroup=adapter-service},1651640592,12429
{consumergroup=adapter-service},1651640597,12429
{consumergroup=adapter-service},1651640602,27113
{consumergroup=adapter-service},1651640607,27113
{consumergroup=adapter-service},1651640612,27113
{consumergroup=adapter-service},1651640617,9820
{consumergroup=adapter-service},1651640622,9820
{consumergroup=adapter-service},1651640627,9820
{consumergroup=adapter-service},1651640632,51463
{consumergroup=adapter-service},1651640637,51463
{consumergroup=adapter-service},1651640642,51463
{consumergroup=adapter-service},1651640647,14280
{consumergroup=adapter-service},1651640652,14280
{consumergroup=adapter-service},1651640657,14280
{consumergroup=adapter-service},1651640662,24185
{consumergroup=adapter-service},1651640667,24185
{consumergroup=adapter-service},1651640672,24185
{consumergroup=adapter-service},1651640677,14084
{consumergroup=adapter-service},1651640682,14084
{consumergroup=adapter-service},1651640687,14084
{consumergroup=adapter-service},1651640692,22824
{consumergroup=adapter-service},1651640697,22824
{consumergroup=adapter-service},1651640702,22824
