labels,timestamp,value
{consumergroup=__strimzi-topic-operator-kstreams},1651719179,6
{consumergroup=__strimzi-topic-operator-kstreams},1651719184,6
{consumergroup=__strimzi-topic-operator-kstreams},1651719189,6
{consumergroup=__strimzi-topic-operator-kstreams},1651719194,0
{consumergroup=__strimzi-topic-operator-kstreams},1651719199,0
{consumergroup=__strimzi-topic-operator-kstreams},1651719204,0
{consumergroup=__strimzi-topic-operator-kstreams},1651719209,0
{consumergroup=__strimzi-topic-operator-kstreams},1651719214,0
{consumergroup=__strimzi-topic-operator-kstreams},1651719219,0
{consumergroup=__strimzi-topic-operator-kstreams},1651719224,0
{consumergroup=__strimzi-topic-operator-kstreams},1651719229,0
{consumergroup=__strimzi-topic-operator-kstreams},1651719234,0
{consumergroup=__strimzi-topic-operator-kstreams},1651719239,0
{consumergroup=__strimzi-topic-operator-kstreams},1651719244,0
{consumergroup=__strimzi-topic-operator-kstreams},1651719249,0
{consumergroup=__strimzi-topic-operator-kstreams},1651719254,0
{consumergroup=__strimzi-topic-operator-kstreams},1651719259,0
{consumergroup=__strimzi-topic-operator-kstreams},1651719264,0
{consumergroup=__strimzi-topic-operator-kstreams},1651719269,0
{consumergroup=__strimzi-topic-operator-kstreams},1651719274,0
{consumergroup=__strimzi-topic-operator-kstreams},1651719279,0
{consumergroup=__strimzi-topic-operator-kstreams},1651719284,0
{consumergroup=__strimzi-topic-operator-kstreams},1651719289,0
{consumergroup=__strimzi-topic-operator-kstreams},1651719294,0
{consumergroup=__strimzi-topic-operator-kstreams},1651719299,0
{consumergroup=__strimzi-topic-operator-kstreams},1651719304,0
{consumergroup=__strimzi-topic-operator-kstreams},1651719309,0
{consumergroup=__strimzi-topic-operator-kstreams},1651719314,0
{consumergroup=__strimzi-topic-operator-kstreams},1651719319,0
{consumergroup=__strimzi-topic-operator-kstreams},1651719324,0
{consumergroup=__strimzi-topic-operator-kstreams},1651719329,0
{consumergroup=__strimzi-topic-operator-kstreams},1651719334,0
{consumergroup=__strimzi-topic-operator-kstreams},1651719339,0
{consumergroup=__strimzi-topic-operator-kstreams},1651719344,0
{consumergroup=__strimzi-topic-operator-kstreams},1651719349,0
{consumergroup=__strimzi-topic-operator-kstreams},1651719354,0
{consumergroup=__strimzi-topic-operator-kstreams},1651719359,0
{consumergroup=__strimzi-topic-operator-kstreams},1651719364,0
{consumergroup=__strimzi-topic-operator-kstreams},1651719369,0
{consumergroup=__strimzi-topic-operator-kstreams},1651719374,0
{consumergroup=__strimzi-topic-operator-kstreams},1651719379,0
{consumergroup=__strimzi-topic-operator-kstreams},1651719384,0
{consumergroup=__strimzi-topic-operator-kstreams},1651719389,0
{consumergroup=__strimzi-topic-operator-kstreams},1651719394,0
{consumergroup=__strimzi-topic-operator-kstreams},1651719399,0
{consumergroup=__strimzi-topic-operator-kstreams},1651719404,0
{consumergroup=__strimzi-topic-operator-kstreams},1651719409,0
{consumergroup=__strimzi-topic-operator-kstreams},1651719414,0
{consumergroup=__strimzi-topic-operator-kstreams},1651719419,0
{consumergroup=__strimzi-topic-operator-kstreams},1651719424,0
{consumergroup=__strimzi-topic-operator-kstreams},1651719429,0
{consumergroup=__strimzi-topic-operator-kstreams},1651719434,0
{consumergroup=__strimzi-topic-operator-kstreams},1651719439,0
{consumergroup=adapter-service},1651719209,0
{consumergroup=adapter-service},1651719214,0
{consumergroup=adapter-service},1651719219,0
{consumergroup=adapter-service},1651719224,1472610
{consumergroup=adapter-service},1651719229,1472610
{consumergroup=adapter-service},1651719234,1472610
{consumergroup=adapter-service},1651719239,3032559
{consumergroup=adapter-service},1651719244,3032559
{consumergroup=adapter-service},1651719249,3032559
{consumergroup=adapter-service},1651719254,3670891
{consumergroup=adapter-service},1651719259,3670891
{consumergroup=adapter-service},1651719264,3670891
{consumergroup=adapter-service},1651719269,4658124
{consumergroup=adapter-service},1651719274,4658124
{consumergroup=adapter-service},1651719279,4658124
{consumergroup=adapter-service},1651719284,5525988
{consumergroup=adapter-service},1651719289,5525988
{consumergroup=adapter-service},1651719294,5525988
{consumergroup=adapter-service},1651719299,5795223
{consumergroup=adapter-service},1651719304,5795223
{consumergroup=adapter-service},1651719309,5795223
{consumergroup=adapter-service},1651719314,6267056
{consumergroup=adapter-service},1651719319,6267056
{consumergroup=adapter-service},1651719324,6267056
{consumergroup=adapter-service},1651719329,6602418
{consumergroup=adapter-service},1651719334,6602418
{consumergroup=adapter-service},1651719339,6602418
{consumergroup=adapter-service},1651719344,6927129
{consumergroup=adapter-service},1651719349,6927129
{consumergroup=adapter-service},1651719354,6927129
{consumergroup=adapter-service},1651719359,7250233
{consumergroup=adapter-service},1651719364,7250233
{consumergroup=adapter-service},1651719369,7250233
{consumergroup=adapter-service},1651719374,7534775
{consumergroup=adapter-service},1651719379,7534775
{consumergroup=adapter-service},1651719384,7534775
{consumergroup=adapter-service},1651719389,7800822
{consumergroup=adapter-service},1651719394,7800822
{consumergroup=adapter-service},1651719399,7800822
{consumergroup=adapter-service},1651719404,8102546
{consumergroup=adapter-service},1651719409,8102546
{consumergroup=adapter-service},1651719414,8102546
{consumergroup=adapter-service},1651719419,8411395
{consumergroup=adapter-service},1651719424,8411395
{consumergroup=adapter-service},1651719429,8411395
{consumergroup=adapter-service},1651719434,8753206
{consumergroup=adapter-service},1651719439,8753206
