labels,timestamp,value
{consumergroup=__strimzi-topic-operator-kstreams},1651758309,0
{consumergroup=__strimzi-topic-operator-kstreams},1651758314,0
{consumergroup=__strimzi-topic-operator-kstreams},1651758319,8
{consumergroup=__strimzi-topic-operator-kstreams},1651758324,8
{consumergroup=__strimzi-topic-operator-kstreams},1651758329,8
{consumergroup=__strimzi-topic-operator-kstreams},1651758334,11
{consumergroup=__strimzi-topic-operator-kstreams},1651758339,11
{consumergroup=__strimzi-topic-operator-kstreams},1651758344,11
{consumergroup=__strimzi-topic-operator-kstreams},1651758349,0
{consumergroup=__strimzi-topic-operator-kstreams},1651758354,0
{consumergroup=__strimzi-topic-operator-kstreams},1651758359,0
{consumergroup=__strimzi-topic-operator-kstreams},1651758364,0
{consumergroup=__strimzi-topic-operator-kstreams},1651758369,0
{consumergroup=__strimzi-topic-operator-kstreams},1651758374,0
{consumergroup=__strimzi-topic-operator-kstreams},1651758379,0
{consumergroup=__strimzi-topic-operator-kstreams},1651758384,0
{consumergroup=__strimzi-topic-operator-kstreams},1651758389,0
{consumergroup=__strimzi-topic-operator-kstreams},1651758394,0
{consumergroup=__strimzi-topic-operator-kstreams},1651758399,0
{consumergroup=__strimzi-topic-operator-kstreams},1651758404,0
{consumergroup=__strimzi-topic-operator-kstreams},1651758409,0
{consumergroup=__strimzi-topic-operator-kstreams},1651758414,0
{consumergroup=__strimzi-topic-operator-kstreams},1651758419,0
{consumergroup=__strimzi-topic-operator-kstreams},1651758424,0
{consumergroup=__strimzi-topic-operator-kstreams},1651758429,0
{consumergroup=__strimzi-topic-operator-kstreams},1651758434,0
{consumergroup=__strimzi-topic-operator-kstreams},1651758439,0
{consumergroup=__strimzi-topic-operator-kstreams},1651758444,0
{consumergroup=__strimzi-topic-operator-kstreams},1651758449,0
{consumergroup=__strimzi-topic-operator-kstreams},1651758454,0
{consumergroup=__strimzi-topic-operator-kstreams},1651758459,0
{consumergroup=__strimzi-topic-operator-kstreams},1651758464,0
{consumergroup=__strimzi-topic-operator-kstreams},1651758469,0
{consumergroup=__strimzi-topic-operator-kstreams},1651758474,0
{consumergroup=__strimzi-topic-operator-kstreams},1651758479,0
{consumergroup=__strimzi-topic-operator-kstreams},1651758484,0
{consumergroup=__strimzi-topic-operator-kstreams},1651758489,0
{consumergroup=__strimzi-topic-operator-kstreams},1651758494,0
{consumergroup=__strimzi-topic-operator-kstreams},1651758499,0
{consumergroup=__strimzi-topic-operator-kstreams},1651758504,0
{consumergroup=__strimzi-topic-operator-kstreams},1651758509,0
{consumergroup=__strimzi-topic-operator-kstreams},1651758514,0
{consumergroup=__strimzi-topic-operator-kstreams},1651758519,0
{consumergroup=__strimzi-topic-operator-kstreams},1651758524,0
{consumergroup=__strimzi-topic-operator-kstreams},1651758529,0
{consumergroup=__strimzi-topic-operator-kstreams},1651758534,0
{consumergroup=__strimzi-topic-operator-kstreams},1651758539,0
{consumergroup=__strimzi-topic-operator-kstreams},1651758544,0
{consumergroup=__strimzi-topic-operator-kstreams},1651758549,0
{consumergroup=__strimzi-topic-operator-kstreams},1651758554,0
{consumergroup=__strimzi-topic-operator-kstreams},1651758559,0
{consumergroup=__strimzi-topic-operator-kstreams},1651758564,0
{consumergroup=__strimzi-topic-operator-kstreams},1651758569,0
{consumergroup=__strimzi-topic-operator-kstreams},1651758574,0
{consumergroup=__strimzi-topic-operator-kstreams},1651758579,0
{consumergroup=__strimzi-topic-operator-kstreams},1651758584,0
{consumergroup=__strimzi-topic-operator-kstreams},1651758589,0
{consumergroup=__strimzi-topic-operator-kstreams},1651758594,0
{consumergroup=__strimzi-topic-operator-kstreams},1651758599,0
{consumergroup=__strimzi-topic-operator-kstreams},1651758604,0
{consumergroup=__strimzi-topic-operator-kstreams},1651758609,0
{consumergroup=__strimzi-topic-operator-kstreams},1651758614,0
{consumergroup=__strimzi-topic-operator-kstreams},1651758619,0
{consumergroup=__strimzi-topic-operator-kstreams},1651758624,0
{consumergroup=__strimzi-topic-operator-kstreams},1651758629,0
{consumergroup=__strimzi-topic-operator-kstreams},1651758634,0
{consumergroup=__strimzi-topic-operator-kstreams},1651758639,0
{consumergroup=__strimzi-topic-operator-kstreams},1651758644,0
{consumergroup=__strimzi-topic-operator-kstreams},1651758649,0
{consumergroup=__strimzi-topic-operator-kstreams},1651758654,0
{consumergroup=__strimzi-topic-operator-kstreams},1651758659,0
{consumergroup=__strimzi-topic-operator-kstreams},1651758664,0
{consumergroup=__strimzi-topic-operator-kstreams},1651758669,0
{consumergroup=__strimzi-topic-operator-kstreams},1651758674,0
{consumergroup=__strimzi-topic-operator-kstreams},1651758679,0
{consumergroup=__strimzi-topic-operator-kstreams},1651758684,0
{consumergroup=__strimzi-topic-operator-kstreams},1651758689,0
{consumergroup=__strimzi-topic-operator-kstreams},1651758694,0
{consumergroup=__strimzi-topic-operator-kstreams},1651758699,0
{consumergroup=__strimzi-topic-operator-kstreams},1651758704,0
{consumergroup=__strimzi-topic-operator-kstreams},1651758709,0
{consumergroup=__strimzi-topic-operator-kstreams},1651758714,0
{consumergroup=__strimzi-topic-operator-kstreams},1651758719,0
{consumergroup=__strimzi-topic-operator-kstreams},1651758724,0
{consumergroup=__strimzi-topic-operator-kstreams},1651758729,0
{consumergroup=__strimzi-topic-operator-kstreams},1651758734,0
{consumergroup=__strimzi-topic-operator-kstreams},1651758739,0
{consumergroup=__strimzi-topic-operator-kstreams},1651758744,0
{consumergroup=__strimzi-topic-operator-kstreams},1651758749,0
{consumergroup=__strimzi-topic-operator-kstreams},1651758754,0
{consumergroup=__strimzi-topic-operator-kstreams},1651758759,0
{consumergroup=trace-service},1651758364,39903
{consumergroup=trace-service},1651758369,39903
{consumergroup=trace-service},1651758374,39903
{consumergroup=trace-service},1651758379,400572
{consumergroup=trace-service},1651758384,400572
{consumergroup=trace-service},1651758389,400572
{consumergroup=trace-service},1651758394,124809
{consumergroup=trace-service},1651758399,124809
{consumergroup=trace-service},1651758404,124809
{consumergroup=trace-service},1651758409,482349
{consumergroup=trace-service},1651758414,482349
{consumergroup=trace-service},1651758419,482349
{consumergroup=trace-service},1651758424,137300
{consumergroup=trace-service},1651758429,137300
{consumergroup=trace-service},1651758434,137300
{consumergroup=trace-service},1651758439,447440
{consumergroup=trace-service},1651758444,447440
{consumergroup=trace-service},1651758449,447440
{consumergroup=trace-service},1651758454,174139
{consumergroup=trace-service},1651758459,174139
{consumergroup=trace-service},1651758464,174139
{consumergroup=trace-service},1651758469,446996
{consumergroup=trace-service},1651758474,446996
{consumergroup=trace-service},1651758479,446996
{consumergroup=trace-service},1651758484,178838
{consumergroup=trace-service},1651758489,178838
{consumergroup=trace-service},1651758494,178838
{consumergroup=trace-service},1651758499,457501
{consumergroup=trace-service},1651758504,457501
{consumergroup=trace-service},1651758509,457501
{consumergroup=trace-service},1651758514,185543
{consumergroup=trace-service},1651758519,185543
{consumergroup=trace-service},1651758524,185543
{consumergroup=trace-service},1651758529,548629
{consumergroup=trace-service},1651758534,548629
{consumergroup=trace-service},1651758539,548629
{consumergroup=trace-service},1651758544,174270
{consumergroup=trace-service},1651758549,174270
{consumergroup=trace-service},1651758554,174270
{consumergroup=trace-service},1651758559,460730
{consumergroup=trace-service},1651758564,460730
{consumergroup=trace-service},1651758569,460730
{consumergroup=trace-service},1651758574,170361
{consumergroup=trace-service},1651758579,170361
{consumergroup=trace-service},1651758584,170361
{consumergroup=trace-service},1651758589,521849
{consumergroup=trace-service},1651758594,521849
{consumergroup=trace-service},1651758599,521849
{consumergroup=trace-service},1651758604,65443
{consumergroup=trace-service},1651758609,65443
{consumergroup=trace-service},1651758614,65443
{consumergroup=trace-service},1651758619,444120
{consumergroup=trace-service},1651758624,444120
{consumergroup=trace-service},1651758629,444120
{consumergroup=trace-service},1651758634,140604
{consumergroup=trace-service},1651758639,140604
{consumergroup=trace-service},1651758644,140604
{consumergroup=trace-service},1651758649,463498
{consumergroup=trace-service},1651758654,463498
{consumergroup=trace-service},1651758659,463498
{consumergroup=trace-service},1651758664,171187
{consumergroup=trace-service},1651758669,171187
{consumergroup=trace-service},1651758674,171187
{consumergroup=trace-service},1651758679,386617
{consumergroup=trace-service},1651758684,386617
{consumergroup=trace-service},1651758689,386617
{consumergroup=trace-service},1651758694,213012
{consumergroup=trace-service},1651758699,213012
{consumergroup=trace-service},1651758704,213012
{consumergroup=trace-service},1651758709,382919
{consumergroup=trace-service},1651758714,382919
{consumergroup=trace-service},1651758719,382919
{consumergroup=trace-service},1651758724,107942
{consumergroup=trace-service},1651758729,107942
{consumergroup=trace-service},1651758734,107942
{consumergroup=trace-service},1651758739,393103
{consumergroup=trace-service},1651758744,393103
{consumergroup=trace-service},1651758749,393103
{consumergroup=trace-service},1651758754,131083
{consumergroup=trace-service},1651758759,131083
{consumergroup=trace-token-events-consumer},1651758349,0
{consumergroup=trace-token-events-consumer},1651758354,0
{consumergroup=trace-token-events-consumer},1651758359,0
{consumergroup=trace-token-events-consumer},1651758364,0
{consumergroup=trace-token-events-consumer},1651758369,0
{consumergroup=trace-token-events-consumer},1651758374,0
{consumergroup=trace-token-events-consumer},1651758379,0
{consumergroup=trace-token-events-consumer},1651758384,0
{consumergroup=trace-token-events-consumer},1651758389,0
{consumergroup=trace-token-events-consumer},1651758394,0
{consumergroup=trace-token-events-consumer},1651758399,0
{consumergroup=trace-token-events-consumer},1651758404,0
{consumergroup=trace-token-events-consumer},1651758409,0
{consumergroup=trace-token-events-consumer},1651758414,0
{consumergroup=trace-token-events-consumer},1651758419,0
{consumergroup=trace-token-events-consumer},1651758424,0
{consumergroup=trace-token-events-consumer},1651758429,0
{consumergroup=trace-token-events-consumer},1651758434,0
{consumergroup=trace-token-events-consumer},1651758439,0
{consumergroup=trace-token-events-consumer},1651758444,0
{consumergroup=trace-token-events-consumer},1651758449,0
{consumergroup=trace-token-events-consumer},1651758454,0
{consumergroup=trace-token-events-consumer},1651758459,0
{consumergroup=trace-token-events-consumer},1651758464,0
{consumergroup=trace-token-events-consumer},1651758469,0
{consumergroup=trace-token-events-consumer},1651758474,0
{consumergroup=trace-token-events-consumer},1651758479,0
{consumergroup=trace-token-events-consumer},1651758484,0
{consumergroup=trace-token-events-consumer},1651758489,0
{consumergroup=trace-token-events-consumer},1651758494,0
{consumergroup=trace-token-events-consumer},1651758499,0
{consumergroup=trace-token-events-consumer},1651758504,0
{consumergroup=trace-token-events-consumer},1651758509,0
{consumergroup=trace-token-events-consumer},1651758514,0
{consumergroup=trace-token-events-consumer},1651758519,0
{consumergroup=trace-token-events-consumer},1651758524,0
{consumergroup=trace-token-events-consumer},1651758529,0
{consumergroup=trace-token-events-consumer},1651758534,0
{consumergroup=trace-token-events-consumer},1651758539,0
{consumergroup=trace-token-events-consumer},1651758544,0
{consumergroup=trace-token-events-consumer},1651758549,0
{consumergroup=trace-token-events-consumer},1651758554,0
{consumergroup=trace-token-events-consumer},1651758559,0
{consumergroup=trace-token-events-consumer},1651758564,0
{consumergroup=trace-token-events-consumer},1651758569,0
{consumergroup=trace-token-events-consumer},1651758574,0
{consumergroup=trace-token-events-consumer},1651758579,0
{consumergroup=trace-token-events-consumer},1651758584,0
{consumergroup=trace-token-events-consumer},1651758589,0
{consumergroup=trace-token-events-consumer},1651758594,0
{consumergroup=trace-token-events-consumer},1651758599,0
{consumergroup=trace-token-events-consumer},1651758604,0
{consumergroup=trace-token-events-consumer},1651758609,0
{consumergroup=trace-token-events-consumer},1651758614,0
{consumergroup=trace-token-events-consumer},1651758619,0
{consumergroup=trace-token-events-consumer},1651758624,0
{consumergroup=trace-token-events-consumer},1651758629,0
{consumergroup=trace-token-events-consumer},1651758634,0
{consumergroup=trace-token-events-consumer},1651758639,0
{consumergroup=trace-token-events-consumer},1651758644,0
{consumergroup=trace-token-events-consumer},1651758649,0
{consumergroup=trace-token-events-consumer},1651758654,0
{consumergroup=trace-token-events-consumer},1651758659,0
{consumergroup=trace-token-events-consumer},1651758664,0
{consumergroup=trace-token-events-consumer},1651758669,0
{consumergroup=trace-token-events-consumer},1651758674,0
{consumergroup=trace-token-events-consumer},1651758679,0
{consumergroup=trace-token-events-consumer},1651758684,0
{consumergroup=trace-token-events-consumer},1651758689,0
{consumergroup=trace-token-events-consumer},1651758694,0
{consumergroup=trace-token-events-consumer},1651758699,0
{consumergroup=trace-token-events-consumer},1651758704,0
{consumergroup=trace-token-events-consumer},1651758709,0
{consumergroup=trace-token-events-consumer},1651758714,0
{consumergroup=trace-token-events-consumer},1651758719,0
{consumergroup=trace-token-events-consumer},1651758724,0
{consumergroup=trace-token-events-consumer},1651758729,0
{consumergroup=trace-token-events-consumer},1651758734,0
{consumergroup=trace-token-events-consumer},1651758739,0
{consumergroup=trace-token-events-consumer},1651758744,0
{consumergroup=trace-token-events-consumer},1651758749,0
{consumergroup=trace-token-events-consumer},1651758754,0
{consumergroup=trace-token-events-consumer},1651758759,0
