labels,timestamp,value
{consumergroup=__strimzi-topic-operator-kstreams},1651595288,0
{consumergroup=__strimzi-topic-operator-kstreams},1651595293,0
{consumergroup=__strimzi-topic-operator-kstreams},1651595298,0
{consumergroup=__strimzi-topic-operator-kstreams},1651595303,0
{consumergroup=__strimzi-topic-operator-kstreams},1651595308,0
{consumergroup=__strimzi-topic-operator-kstreams},1651595313,0
{consumergroup=__strimzi-topic-operator-kstreams},1651595318,0
{consumergroup=__strimzi-topic-operator-kstreams},1651595323,0
{consumergroup=__strimzi-topic-operator-kstreams},1651595328,0
{consumergroup=__strimzi-topic-operator-kstreams},1651595333,0
{consumergroup=__strimzi-topic-operator-kstreams},1651595338,0
{consumergroup=__strimzi-topic-operator-kstreams},1651595343,0
{consumergroup=__strimzi-topic-operator-kstreams},1651595348,0
{consumergroup=__strimzi-topic-operator-kstreams},1651595353,0
{consumergroup=__strimzi-topic-operator-kstreams},1651595358,0
{consumergroup=__strimzi-topic-operator-kstreams},1651595363,0
{consumergroup=__strimzi-topic-operator-kstreams},1651595368,0
{consumergroup=__strimzi-topic-operator-kstreams},1651595373,0
{consumergroup=__strimzi-topic-operator-kstreams},1651595378,0
{consumergroup=__strimzi-topic-operator-kstreams},1651595383,0
{consumergroup=__strimzi-topic-operator-kstreams},1651595388,0
{consumergroup=__strimzi-topic-operator-kstreams},1651595393,0
{consumergroup=__strimzi-topic-operator-kstreams},1651595398,0
{consumergroup=__strimzi-topic-operator-kstreams},1651595403,0
{consumergroup=__strimzi-topic-operator-kstreams},1651595408,0
{consumergroup=__strimzi-topic-operator-kstreams},1651595413,0
{consumergroup=__strimzi-topic-operator-kstreams},1651595418,0
{consumergroup=__strimzi-topic-operator-kstreams},1651595423,0
{consumergroup=__strimzi-topic-operator-kstreams},1651595428,0
{consumergroup=__strimzi-topic-operator-kstreams},1651595433,0
{consumergroup=__strimzi-topic-operator-kstreams},1651595438,0
{consumergroup=__strimzi-topic-operator-kstreams},1651595443,0
{consumergroup=__strimzi-topic-operator-kstreams},1651595448,0
{consumergroup=__strimzi-topic-operator-kstreams},1651595453,0
{consumergroup=__strimzi-topic-operator-kstreams},1651595458,0
{consumergroup=__strimzi-topic-operator-kstreams},1651595463,0
{consumergroup=__strimzi-topic-operator-kstreams},1651595468,0
{consumergroup=__strimzi-topic-operator-kstreams},1651595473,0
{consumergroup=__strimzi-topic-operator-kstreams},1651595478,0
{consumergroup=__strimzi-topic-operator-kstreams},1651595483,0
{consumergroup=__strimzi-topic-operator-kstreams},1651595488,0
{consumergroup=__strimzi-topic-operator-kstreams},1651595493,0
{consumergroup=__strimzi-topic-operator-kstreams},1651595498,0
{consumergroup=__strimzi-topic-operator-kstreams},1651595503,0
{consumergroup=__strimzi-topic-operator-kstreams},1651595508,0
{consumergroup=__strimzi-topic-operator-kstreams},1651595513,0
{consumergroup=__strimzi-topic-operator-kstreams},1651595518,0
{consumergroup=__strimzi-topic-operator-kstreams},1651595523,0
{consumergroup=__strimzi-topic-operator-kstreams},1651595528,0
{consumergroup=__strimzi-topic-operator-kstreams},1651595533,0
{consumergroup=__strimzi-topic-operator-kstreams},1651595538,0
{consumergroup=landscape-service},1651595318,3912
{consumergroup=landscape-service},1651595323,3912
{consumergroup=landscape-service},1651595328,3912
{consumergroup=landscape-service},1651595333,6433180
{consumergroup=landscape-service},1651595338,6433180
{consumergroup=landscape-service},1651595343,6433180
{consumergroup=landscape-service},1651595348,7245979
{consumergroup=landscape-service},1651595353,7245979
{consumergroup=landscape-service},1651595358,7245979
{consumergroup=landscape-service},1651595363,7824620
{consumergroup=landscape-service},1651595368,7824620
{consumergroup=landscape-service},1651595373,7824620
{consumergroup=landscape-service},1651595378,6982458
{consumergroup=landscape-service},1651595383,6982458
{consumergroup=landscape-service},1651595388,6982458
{consumergroup=landscape-service},1651595393,7690093
{consumergroup=landscape-service},1651595398,7690093
{consumergroup=landscape-service},1651595403,7690093
{consumergroup=landscape-service},1651595408,6926508
{consumergroup=landscape-service},1651595413,6926508
{consumergroup=landscape-service},1651595418,6926508
{consumergroup=landscape-service},1651595423,7554456
{consumergroup=landscape-service},1651595428,7554456
{consumergroup=landscape-service},1651595433,7554456
{consumergroup=landscape-service},1651595438,6778927
{consumergroup=landscape-service},1651595443,6778927
{consumergroup=landscape-service},1651595448,6778927
{consumergroup=landscape-service},1651595453,6973286
{consumergroup=landscape-service},1651595458,6973286
{consumergroup=landscape-service},1651595463,6973286
{consumergroup=landscape-service},1651595468,6495431
{consumergroup=landscape-service},1651595473,6495431
{consumergroup=landscape-service},1651595478,6495431
{consumergroup=landscape-service},1651595483,6446113
{consumergroup=landscape-service},1651595488,6446113
{consumergroup=landscape-service},1651595493,6446113
{consumergroup=landscape-service},1651595498,6985370
{consumergroup=landscape-service},1651595503,6985370
{consumergroup=landscape-service},1651595508,6985370
{consumergroup=landscape-service},1651595513,6166705
{consumergroup=landscape-service},1651595518,6166705
{consumergroup=landscape-service},1651595523,6166705
{consumergroup=landscape-service},1651595528,6752978
{consumergroup=landscape-service},1651595533,6752978
{consumergroup=landscape-service},1651595538,6752978
