labels,timestamp,value
{consumergroup=__strimzi-topic-operator-kstreams},1651618242,4
{consumergroup=__strimzi-topic-operator-kstreams},1651618247,4
{consumergroup=__strimzi-topic-operator-kstreams},1651618252,4
{consumergroup=__strimzi-topic-operator-kstreams},1651618257,15
{consumergroup=__strimzi-topic-operator-kstreams},1651618262,15
{consumergroup=__strimzi-topic-operator-kstreams},1651618267,15
{consumergroup=__strimzi-topic-operator-kstreams},1651618272,0
{consumergroup=__strimzi-topic-operator-kstreams},1651618277,0
{consumergroup=__strimzi-topic-operator-kstreams},1651618282,0
{consumergroup=__strimzi-topic-operator-kstreams},1651618287,0
{consumergroup=__strimzi-topic-operator-kstreams},1651618292,0
{consumergroup=__strimzi-topic-operator-kstreams},1651618297,0
{consumergroup=__strimzi-topic-operator-kstreams},1651618302,0
{consumergroup=__strimzi-topic-operator-kstreams},1651618307,0
{consumergroup=__strimzi-topic-operator-kstreams},1651618312,0
{consumergroup=__strimzi-topic-operator-kstreams},1651618317,0
{consumergroup=__strimzi-topic-operator-kstreams},1651618322,0
{consumergroup=__strimzi-topic-operator-kstreams},1651618327,0
{consumergroup=__strimzi-topic-operator-kstreams},1651618332,0
{consumergroup=__strimzi-topic-operator-kstreams},1651618337,0
{consumergroup=__strimzi-topic-operator-kstreams},1651618342,0
{consumergroup=__strimzi-topic-operator-kstreams},1651618347,0
{consumergroup=__strimzi-topic-operator-kstreams},1651618352,0
{consumergroup=__strimzi-topic-operator-kstreams},1651618357,0
{consumergroup=__strimzi-topic-operator-kstreams},1651618362,0
{consumergroup=__strimzi-topic-operator-kstreams},1651618367,0
{consumergroup=__strimzi-topic-operator-kstreams},1651618372,0
{consumergroup=__strimzi-topic-operator-kstreams},1651618377,0
{consumergroup=__strimzi-topic-operator-kstreams},1651618382,0
{consumergroup=__strimzi-topic-operator-kstreams},1651618387,0
{consumergroup=__strimzi-topic-operator-kstreams},1651618392,0
{consumergroup=__strimzi-topic-operator-kstreams},1651618397,0
{consumergroup=__strimzi-topic-operator-kstreams},1651618402,0
{consumergroup=__strimzi-topic-operator-kstreams},1651618407,0
{consumergroup=__strimzi-topic-operator-kstreams},1651618412,0
{consumergroup=__strimzi-topic-operator-kstreams},1651618417,0
{consumergroup=__strimzi-topic-operator-kstreams},1651618422,0
{consumergroup=__strimzi-topic-operator-kstreams},1651618427,0
{consumergroup=__strimzi-topic-operator-kstreams},1651618432,0
{consumergroup=__strimzi-topic-operator-kstreams},1651618437,0
{consumergroup=__strimzi-topic-operator-kstreams},1651618442,0
{consumergroup=__strimzi-topic-operator-kstreams},1651618447,0
{consumergroup=__strimzi-topic-operator-kstreams},1651618452,0
{consumergroup=__strimzi-topic-operator-kstreams},1651618457,0
{consumergroup=__strimzi-topic-operator-kstreams},1651618462,0
{consumergroup=__strimzi-topic-operator-kstreams},1651618467,0
{consumergroup=__strimzi-topic-operator-kstreams},1651618472,0
{consumergroup=__strimzi-topic-operator-kstreams},1651618477,0
{consumergroup=__strimzi-topic-operator-kstreams},1651618482,0
{consumergroup=__strimzi-topic-operator-kstreams},1651618487,0
{consumergroup=__strimzi-topic-operator-kstreams},1651618492,0
{consumergroup=adapter-service},1651618272,232633
{consumergroup=adapter-service},1651618277,232633
{consumergroup=adapter-service},1651618282,232633
{consumergroup=adapter-service},1651618287,1180644
{consumergroup=adapter-service},1651618292,1180644
{consumergroup=adapter-service},1651618297,1180644
{consumergroup=adapter-service},1651618302,1885832
{consumergroup=adapter-service},1651618307,1885832
{consumergroup=adapter-service},1651618312,1885832
{consumergroup=adapter-service},1651618317,2339012
{consumergroup=adapter-service},1651618322,2339012
{consumergroup=adapter-service},1651618327,2339012
{consumergroup=adapter-service},1651618332,2787368
{consumergroup=adapter-service},1651618337,2787368
{consumergroup=adapter-service},1651618342,2787368
{consumergroup=adapter-service},1651618347,2980084
{consumergroup=adapter-service},1651618352,2980084
{consumergroup=adapter-service},1651618357,2980084
{consumergroup=adapter-service},1651618362,3119951
{consumergroup=adapter-service},1651618367,3119951
{consumergroup=adapter-service},1651618372,3119951
{consumergroup=adapter-service},1651618377,3187234
{consumergroup=adapter-service},1651618382,3187234
{consumergroup=adapter-service},1651618387,3187234
{consumergroup=adapter-service},1651618392,3207994
{consumergroup=adapter-service},1651618397,3207994
{consumergroup=adapter-service},1651618402,3207994
{consumergroup=adapter-service},1651618407,3476509
{consumergroup=adapter-service},1651618412,3476509
{consumergroup=adapter-service},1651618417,3476509
{consumergroup=adapter-service},1651618422,3271760
{consumergroup=adapter-service},1651618427,3271760
{consumergroup=adapter-service},1651618432,3271760
{consumergroup=adapter-service},1651618437,3502427
{consumergroup=adapter-service},1651618442,3502427
{consumergroup=adapter-service},1651618447,3502427
{consumergroup=adapter-service},1651618452,3461074
{consumergroup=adapter-service},1651618457,3461074
{consumergroup=adapter-service},1651618462,3461074
{consumergroup=adapter-service},1651618467,3463519
{consumergroup=adapter-service},1651618472,3463519
{consumergroup=adapter-service},1651618477,3463519
{consumergroup=adapter-service},1651618482,3485893
{consumergroup=adapter-service},1651618487,3485893
{consumergroup=adapter-service},1651618492,3485893
