labels,timestamp,value
{consumergroup=__strimzi-topic-operator-kstreams},1651600910,0
{consumergroup=__strimzi-topic-operator-kstreams},1651600915,0
{consumergroup=__strimzi-topic-operator-kstreams},1651600920,0
{consumergroup=__strimzi-topic-operator-kstreams},1651600925,0
{consumergroup=__strimzi-topic-operator-kstreams},1651600930,0
{consumergroup=__strimzi-topic-operator-kstreams},1651600935,0
{consumergroup=__strimzi-topic-operator-kstreams},1651600940,0
{consumergroup=__strimzi-topic-operator-kstreams},1651600945,0
{consumergroup=__strimzi-topic-operator-kstreams},1651600950,0
{consumergroup=__strimzi-topic-operator-kstreams},1651600955,0
{consumergroup=__strimzi-topic-operator-kstreams},1651600960,0
{consumergroup=__strimzi-topic-operator-kstreams},1651600965,0
{consumergroup=__strimzi-topic-operator-kstreams},1651600970,0
{consumergroup=__strimzi-topic-operator-kstreams},1651600975,0
{consumergroup=__strimzi-topic-operator-kstreams},1651600980,0
{consumergroup=__strimzi-topic-operator-kstreams},1651600985,0
{consumergroup=__strimzi-topic-operator-kstreams},1651600990,0
{consumergroup=__strimzi-topic-operator-kstreams},1651600995,0
{consumergroup=__strimzi-topic-operator-kstreams},1651601000,0
{consumergroup=__strimzi-topic-operator-kstreams},1651601005,0
{consumergroup=__strimzi-topic-operator-kstreams},1651601010,0
{consumergroup=__strimzi-topic-operator-kstreams},1651601015,0
{consumergroup=__strimzi-topic-operator-kstreams},1651601020,0
{consumergroup=__strimzi-topic-operator-kstreams},1651601025,0
{consumergroup=__strimzi-topic-operator-kstreams},1651601030,0
{consumergroup=__strimzi-topic-operator-kstreams},1651601035,0
{consumergroup=__strimzi-topic-operator-kstreams},1651601040,0
{consumergroup=__strimzi-topic-operator-kstreams},1651601045,0
{consumergroup=__strimzi-topic-operator-kstreams},1651601050,0
{consumergroup=__strimzi-topic-operator-kstreams},1651601055,0
{consumergroup=__strimzi-topic-operator-kstreams},1651601060,0
{consumergroup=__strimzi-topic-operator-kstreams},1651601065,0
{consumergroup=__strimzi-topic-operator-kstreams},1651601070,0
{consumergroup=__strimzi-topic-operator-kstreams},1651601075,0
{consumergroup=__strimzi-topic-operator-kstreams},1651601080,0
{consumergroup=__strimzi-topic-operator-kstreams},1651601085,0
{consumergroup=__strimzi-topic-operator-kstreams},1651601090,0
{consumergroup=__strimzi-topic-operator-kstreams},1651601095,0
{consumergroup=__strimzi-topic-operator-kstreams},1651601100,0
{consumergroup=__strimzi-topic-operator-kstreams},1651601105,0
{consumergroup=__strimzi-topic-operator-kstreams},1651601110,0
{consumergroup=__strimzi-topic-operator-kstreams},1651601115,0
{consumergroup=__strimzi-topic-operator-kstreams},1651601120,0
{consumergroup=__strimzi-topic-operator-kstreams},1651601125,0
{consumergroup=__strimzi-topic-operator-kstreams},1651601130,0
{consumergroup=__strimzi-topic-operator-kstreams},1651601135,0
{consumergroup=__strimzi-topic-operator-kstreams},1651601140,0
{consumergroup=__strimzi-topic-operator-kstreams},1651601145,0
{consumergroup=__strimzi-topic-operator-kstreams},1651601150,0
{consumergroup=__strimzi-topic-operator-kstreams},1651601155,0
{consumergroup=__strimzi-topic-operator-kstreams},1651601160,0
{consumergroup=landscape-service},1651600955,3838848
{consumergroup=landscape-service},1651600960,3838848
{consumergroup=landscape-service},1651600965,3838848
{consumergroup=landscape-service},1651600970,5182656
{consumergroup=landscape-service},1651600975,5182656
{consumergroup=landscape-service},1651600980,5182656
{consumergroup=landscape-service},1651600985,5408403
{consumergroup=landscape-service},1651600990,5408403
{consumergroup=landscape-service},1651600995,5408403
{consumergroup=landscape-service},1651601000,5459212
{consumergroup=landscape-service},1651601005,5459212
{consumergroup=landscape-service},1651601010,5459212
{consumergroup=landscape-service},1651601015,5667470
{consumergroup=landscape-service},1651601020,5667470
{consumergroup=landscape-service},1651601025,5667470
{consumergroup=landscape-service},1651601030,5456510
{consumergroup=landscape-service},1651601035,5456510
{consumergroup=landscape-service},1651601040,5456510
{consumergroup=landscape-service},1651601045,5171439
{consumergroup=landscape-service},1651601050,5171439
{consumergroup=landscape-service},1651601055,5171439
{consumergroup=landscape-service},1651601060,4733560
{consumergroup=landscape-service},1651601065,4733560
{consumergroup=landscape-service},1651601070,4733560
{consumergroup=landscape-service},1651601075,4302270
{consumergroup=landscape-service},1651601080,4302270
{consumergroup=landscape-service},1651601085,4302270
{consumergroup=landscape-service},1651601090,4233397
{consumergroup=landscape-service},1651601095,4233397
{consumergroup=landscape-service},1651601100,4233397
{consumergroup=landscape-service},1651601105,4447129
{consumergroup=landscape-service},1651601110,4447129
{consumergroup=landscape-service},1651601115,4447129
{consumergroup=landscape-service},1651601120,3926430
{consumergroup=landscape-service},1651601125,3926430
{consumergroup=landscape-service},1651601130,3926430
{consumergroup=landscape-service},1651601135,3928964
{consumergroup=landscape-service},1651601140,3928964
{consumergroup=landscape-service},1651601145,3928964
{consumergroup=landscape-service},1651601150,3381433
{consumergroup=landscape-service},1651601155,3381433
{consumergroup=landscape-service},1651601160,3381433
