labels,timestamp,value
{consumergroup=__strimzi-topic-operator-kstreams},1651622063,0
{consumergroup=__strimzi-topic-operator-kstreams},1651622078,18
{consumergroup=__strimzi-topic-operator-kstreams},1651622083,18
{consumergroup=__strimzi-topic-operator-kstreams},1651622088,18
{consumergroup=__strimzi-topic-operator-kstreams},1651622093,0
{consumergroup=__strimzi-topic-operator-kstreams},1651622098,0
{consumergroup=__strimzi-topic-operator-kstreams},1651622103,0
{consumergroup=__strimzi-topic-operator-kstreams},1651622108,0
{consumergroup=__strimzi-topic-operator-kstreams},1651622113,0
{consumergroup=__strimzi-topic-operator-kstreams},1651622118,0
{consumergroup=__strimzi-topic-operator-kstreams},1651622123,0
{consumergroup=__strimzi-topic-operator-kstreams},1651622128,0
{consumergroup=__strimzi-topic-operator-kstreams},1651622133,0
{consumergroup=__strimzi-topic-operator-kstreams},1651622138,0
{consumergroup=__strimzi-topic-operator-kstreams},1651622143,0
{consumergroup=__strimzi-topic-operator-kstreams},1651622148,0
{consumergroup=__strimzi-topic-operator-kstreams},1651622153,0
{consumergroup=__strimzi-topic-operator-kstreams},1651622158,0
{consumergroup=__strimzi-topic-operator-kstreams},1651622163,0
{consumergroup=__strimzi-topic-operator-kstreams},1651622168,0
{consumergroup=__strimzi-topic-operator-kstreams},1651622173,0
{consumergroup=__strimzi-topic-operator-kstreams},1651622178,0
{consumergroup=__strimzi-topic-operator-kstreams},1651622183,0
{consumergroup=__strimzi-topic-operator-kstreams},1651622188,0
{consumergroup=__strimzi-topic-operator-kstreams},1651622193,0
{consumergroup=__strimzi-topic-operator-kstreams},1651622198,0
{consumergroup=__strimzi-topic-operator-kstreams},1651622203,0
{consumergroup=__strimzi-topic-operator-kstreams},1651622208,0
{consumergroup=__strimzi-topic-operator-kstreams},1651622213,0
{consumergroup=__strimzi-topic-operator-kstreams},1651622218,0
{consumergroup=__strimzi-topic-operator-kstreams},1651622223,0
{consumergroup=__strimzi-topic-operator-kstreams},1651622228,0
{consumergroup=__strimzi-topic-operator-kstreams},1651622233,0
{consumergroup=__strimzi-topic-operator-kstreams},1651622238,0
{consumergroup=__strimzi-topic-operator-kstreams},1651622243,0
{consumergroup=__strimzi-topic-operator-kstreams},1651622248,0
{consumergroup=__strimzi-topic-operator-kstreams},1651622253,0
{consumergroup=__strimzi-topic-operator-kstreams},1651622258,0
{consumergroup=__strimzi-topic-operator-kstreams},1651622263,0
{consumergroup=__strimzi-topic-operator-kstreams},1651622268,0
{consumergroup=__strimzi-topic-operator-kstreams},1651622273,0
{consumergroup=__strimzi-topic-operator-kstreams},1651622278,0
{consumergroup=__strimzi-topic-operator-kstreams},1651622283,0
{consumergroup=__strimzi-topic-operator-kstreams},1651622288,0
{consumergroup=__strimzi-topic-operator-kstreams},1651622293,0
{consumergroup=__strimzi-topic-operator-kstreams},1651622298,0
{consumergroup=__strimzi-topic-operator-kstreams},1651622303,0
{consumergroup=__strimzi-topic-operator-kstreams},1651622308,0
{consumergroup=__strimzi-topic-operator-kstreams},1651622313,0
{consumergroup=__strimzi-topic-operator-kstreams},1651622318,0
{consumergroup=__strimzi-topic-operator-kstreams},1651622323,0
{consumergroup=adapter-service},1651622063,9733
{consumergroup=adapter-service},1651622108,331258
{consumergroup=adapter-service},1651622113,331258
{consumergroup=adapter-service},1651622118,331258
{consumergroup=adapter-service},1651622123,483864
{consumergroup=adapter-service},1651622128,483864
{consumergroup=adapter-service},1651622133,483864
{consumergroup=adapter-service},1651622138,477636
{consumergroup=adapter-service},1651622143,477636
{consumergroup=adapter-service},1651622148,477636
{consumergroup=adapter-service},1651622153,408658
{consumergroup=adapter-service},1651622158,408658
{consumergroup=adapter-service},1651622163,408658
{consumergroup=adapter-service},1651622168,251690
{consumergroup=adapter-service},1651622173,251690
{consumergroup=adapter-service},1651622178,251690
{consumergroup=adapter-service},1651622183,124500
{consumergroup=adapter-service},1651622188,124500
{consumergroup=adapter-service},1651622193,124500
{consumergroup=adapter-service},1651622198,48417
{consumergroup=adapter-service},1651622203,48417
{consumergroup=adapter-service},1651622208,48417
{consumergroup=adapter-service},1651622213,37937
{consumergroup=adapter-service},1651622218,37937
{consumergroup=adapter-service},1651622223,37937
{consumergroup=adapter-service},1651622228,33347
{consumergroup=adapter-service},1651622233,33347
{consumergroup=adapter-service},1651622238,33347
{consumergroup=adapter-service},1651622243,32880
{consumergroup=adapter-service},1651622248,32880
{consumergroup=adapter-service},1651622253,32880
{consumergroup=adapter-service},1651622258,34360
{consumergroup=adapter-service},1651622263,34360
{consumergroup=adapter-service},1651622268,34360
{consumergroup=adapter-service},1651622273,23316
{consumergroup=adapter-service},1651622278,23316
{consumergroup=adapter-service},1651622283,23316
{consumergroup=adapter-service},1651622288,49949
{consumergroup=adapter-service},1651622293,49949
{consumergroup=adapter-service},1651622298,49949
{consumergroup=adapter-service},1651622303,26060
{consumergroup=adapter-service},1651622308,26060
{consumergroup=adapter-service},1651622313,26060
{consumergroup=adapter-service},1651622318,15300
{consumergroup=adapter-service},1651622323,15300
