labels,timestamp,value
{consumergroup=__strimzi-topic-operator-kstreams},1651727013,16
{consumergroup=__strimzi-topic-operator-kstreams},1651727018,16
{consumergroup=__strimzi-topic-operator-kstreams},1651727023,16
{consumergroup=__strimzi-topic-operator-kstreams},1651727028,0
{consumergroup=__strimzi-topic-operator-kstreams},1651727033,0
{consumergroup=__strimzi-topic-operator-kstreams},1651727038,0
{consumergroup=__strimzi-topic-operator-kstreams},1651727043,0
{consumergroup=__strimzi-topic-operator-kstreams},1651727048,0
{consumergroup=__strimzi-topic-operator-kstreams},1651727053,0
{consumergroup=__strimzi-topic-operator-kstreams},1651727058,0
{consumergroup=__strimzi-topic-operator-kstreams},1651727063,0
{consumergroup=__strimzi-topic-operator-kstreams},1651727068,0
{consumergroup=__strimzi-topic-operator-kstreams},1651727073,0
{consumergroup=__strimzi-topic-operator-kstreams},1651727078,0
{consumergroup=__strimzi-topic-operator-kstreams},1651727083,0
{consumergroup=__strimzi-topic-operator-kstreams},1651727088,0
{consumergroup=__strimzi-topic-operator-kstreams},1651727093,0
{consumergroup=__strimzi-topic-operator-kstreams},1651727098,0
{consumergroup=__strimzi-topic-operator-kstreams},1651727103,0
{consumergroup=__strimzi-topic-operator-kstreams},1651727108,0
{consumergroup=__strimzi-topic-operator-kstreams},1651727113,0
{consumergroup=__strimzi-topic-operator-kstreams},1651727118,0
{consumergroup=__strimzi-topic-operator-kstreams},1651727123,0
{consumergroup=__strimzi-topic-operator-kstreams},1651727128,0
{consumergroup=__strimzi-topic-operator-kstreams},1651727133,0
{consumergroup=__strimzi-topic-operator-kstreams},1651727138,0
{consumergroup=__strimzi-topic-operator-kstreams},1651727143,0
{consumergroup=__strimzi-topic-operator-kstreams},1651727148,0
{consumergroup=__strimzi-topic-operator-kstreams},1651727153,0
{consumergroup=__strimzi-topic-operator-kstreams},1651727158,0
{consumergroup=__strimzi-topic-operator-kstreams},1651727163,0
{consumergroup=__strimzi-topic-operator-kstreams},1651727168,0
{consumergroup=__strimzi-topic-operator-kstreams},1651727173,0
{consumergroup=__strimzi-topic-operator-kstreams},1651727178,0
{consumergroup=__strimzi-topic-operator-kstreams},1651727183,0
{consumergroup=__strimzi-topic-operator-kstreams},1651727188,0
{consumergroup=__strimzi-topic-operator-kstreams},1651727193,0
{consumergroup=__strimzi-topic-operator-kstreams},1651727198,0
{consumergroup=__strimzi-topic-operator-kstreams},1651727203,0
{consumergroup=__strimzi-topic-operator-kstreams},1651727208,0
{consumergroup=__strimzi-topic-operator-kstreams},1651727213,0
{consumergroup=__strimzi-topic-operator-kstreams},1651727218,0
{consumergroup=__strimzi-topic-operator-kstreams},1651727223,0
{consumergroup=__strimzi-topic-operator-kstreams},1651727228,0
{consumergroup=__strimzi-topic-operator-kstreams},1651727233,0
{consumergroup=__strimzi-topic-operator-kstreams},1651727238,0
{consumergroup=__strimzi-topic-operator-kstreams},1651727243,0
{consumergroup=__strimzi-topic-operator-kstreams},1651727248,0
{consumergroup=__strimzi-topic-operator-kstreams},1651727253,0
{consumergroup=__strimzi-topic-operator-kstreams},1651727258,0
{consumergroup=__strimzi-topic-operator-kstreams},1651727263,0
{consumergroup=adapter-service},1651727043,547309
{consumergroup=adapter-service},1651727048,547309
{consumergroup=adapter-service},1651727053,547309
{consumergroup=adapter-service},1651727058,2119566
{consumergroup=adapter-service},1651727063,2119566
{consumergroup=adapter-service},1651727068,2119566
{consumergroup=adapter-service},1651727073,3192506
{consumergroup=adapter-service},1651727078,3192506
{consumergroup=adapter-service},1651727083,3192506
{consumergroup=adapter-service},1651727088,3942522
{consumergroup=adapter-service},1651727093,3942522
{consumergroup=adapter-service},1651727098,3942522
{consumergroup=adapter-service},1651727103,4737170
{consumergroup=adapter-service},1651727108,4737170
{consumergroup=adapter-service},1651727113,4737170
{consumergroup=adapter-service},1651727118,5078096
{consumergroup=adapter-service},1651727123,5078096
{consumergroup=adapter-service},1651727128,5078096
{consumergroup=adapter-service},1651727133,5200709
{consumergroup=adapter-service},1651727138,5200709
{consumergroup=adapter-service},1651727143,5200709
{consumergroup=adapter-service},1651727148,5456116
{consumergroup=adapter-service},1651727153,5456116
{consumergroup=adapter-service},1651727158,5456116
{consumergroup=adapter-service},1651727163,5448583
{consumergroup=adapter-service},1651727168,5448583
{consumergroup=adapter-service},1651727173,5448583
{consumergroup=adapter-service},1651727178,5519908
{consumergroup=adapter-service},1651727183,5519908
{consumergroup=adapter-service},1651727188,5519908
{consumergroup=adapter-service},1651727193,5832235
{consumergroup=adapter-service},1651727198,5832235
{consumergroup=adapter-service},1651727203,5832235
{consumergroup=adapter-service},1651727208,5663041
{consumergroup=adapter-service},1651727213,5663041
{consumergroup=adapter-service},1651727218,5663041
{consumergroup=adapter-service},1651727223,5989551
{consumergroup=adapter-service},1651727228,5989551
{consumergroup=adapter-service},1651727233,5989551
{consumergroup=adapter-service},1651727238,6096457
{consumergroup=adapter-service},1651727243,6096457
{consumergroup=adapter-service},1651727248,6096457
{consumergroup=adapter-service},1651727253,5961807
{consumergroup=adapter-service},1651727258,5961807
{consumergroup=adapter-service},1651727263,5961807
