labels,timestamp,value
{consumergroup=__strimzi-topic-operator-kstreams},1651757449,0
{consumergroup=__strimzi-topic-operator-kstreams},1651757454,0
{consumergroup=__strimzi-topic-operator-kstreams},1651757459,8
{consumergroup=__strimzi-topic-operator-kstreams},1651757464,8
{consumergroup=__strimzi-topic-operator-kstreams},1651757469,8
{consumergroup=__strimzi-topic-operator-kstreams},1651757489,0
{consumergroup=__strimzi-topic-operator-kstreams},1651757494,0
{consumergroup=__strimzi-topic-operator-kstreams},1651757499,0
{consumergroup=__strimzi-topic-operator-kstreams},1651757534,0
{consumergroup=__strimzi-topic-operator-kstreams},1651757539,0
{consumergroup=__strimzi-topic-operator-kstreams},1651757544,0
{consumergroup=__strimzi-topic-operator-kstreams},1651757549,0
{consumergroup=__strimzi-topic-operator-kstreams},1651757554,0
{consumergroup=__strimzi-topic-operator-kstreams},1651757559,0
{consumergroup=__strimzi-topic-operator-kstreams},1651757564,0
{consumergroup=__strimzi-topic-operator-kstreams},1651757569,0
{consumergroup=__strimzi-topic-operator-kstreams},1651757574,0
{consumergroup=__strimzi-topic-operator-kstreams},1651757579,2
{consumergroup=__strimzi-topic-operator-kstreams},1651757584,2
{consumergroup=__strimzi-topic-operator-kstreams},1651757589,2
{consumergroup=__strimzi-topic-operator-kstreams},1651757594,0
{consumergroup=__strimzi-topic-operator-kstreams},1651757599,0
{consumergroup=__strimzi-topic-operator-kstreams},1651757604,0
{consumergroup=__strimzi-topic-operator-kstreams},1651757609,0
{consumergroup=__strimzi-topic-operator-kstreams},1651757614,0
{consumergroup=__strimzi-topic-operator-kstreams},1651757619,0
{consumergroup=__strimzi-topic-operator-kstreams},1651757624,0
{consumergroup=__strimzi-topic-operator-kstreams},1651757629,0
{consumergroup=__strimzi-topic-operator-kstreams},1651757634,0
{consumergroup=__strimzi-topic-operator-kstreams},1651757639,0
{consumergroup=__strimzi-topic-operator-kstreams},1651757644,0
{consumergroup=__strimzi-topic-operator-kstreams},1651757649,0
{consumergroup=__strimzi-topic-operator-kstreams},1651757654,0
{consumergroup=__strimzi-topic-operator-kstreams},1651757659,0
{consumergroup=__strimzi-topic-operator-kstreams},1651757664,0
{consumergroup=__strimzi-topic-operator-kstreams},1651757669,0
{consumergroup=__strimzi-topic-operator-kstreams},1651757674,0
{consumergroup=__strimzi-topic-operator-kstreams},1651757679,0
{consumergroup=__strimzi-topic-operator-kstreams},1651757684,0
{consumergroup=__strimzi-topic-operator-kstreams},1651757689,0
{consumergroup=__strimzi-topic-operator-kstreams},1651757694,0
{consumergroup=__strimzi-topic-operator-kstreams},1651757699,0
{consumergroup=__strimzi-topic-operator-kstreams},1651757704,0
{consumergroup=__strimzi-topic-operator-kstreams},1651757709,0
{consumergroup=__strimzi-topic-operator-kstreams},1651757714,0
{consumergroup=__strimzi-topic-operator-kstreams},1651757719,0
{consumergroup=__strimzi-topic-operator-kstreams},1651757724,0
{consumergroup=__strimzi-topic-operator-kstreams},1651757729,0
{consumergroup=__strimzi-topic-operator-kstreams},1651757734,0
{consumergroup=__strimzi-topic-operator-kstreams},1651757739,0
{consumergroup=__strimzi-topic-operator-kstreams},1651757744,0
{consumergroup=__strimzi-topic-operator-kstreams},1651757749,0
{consumergroup=__strimzi-topic-operator-kstreams},1651757754,0
{consumergroup=__strimzi-topic-operator-kstreams},1651757759,0
{consumergroup=__strimzi-topic-operator-kstreams},1651757764,0
{consumergroup=__strimzi-topic-operator-kstreams},1651757769,0
{consumergroup=__strimzi-topic-operator-kstreams},1651757774,0
{consumergroup=__strimzi-topic-operator-kstreams},1651757779,0
{consumergroup=__strimzi-topic-operator-kstreams},1651757784,0
{consumergroup=__strimzi-topic-operator-kstreams},1651757789,0
{consumergroup=__strimzi-topic-operator-kstreams},1651757794,0
{consumergroup=__strimzi-topic-operator-kstreams},1651757799,0
{consumergroup=__strimzi-topic-operator-kstreams},1651757804,0
{consumergroup=__strimzi-topic-operator-kstreams},1651757809,0
{consumergroup=__strimzi-topic-operator-kstreams},1651757814,0
{consumergroup=__strimzi-topic-operator-kstreams},1651757819,0
{consumergroup=__strimzi-topic-operator-kstreams},1651757824,0
{consumergroup=__strimzi-topic-operator-kstreams},1651757829,0
{consumergroup=__strimzi-topic-operator-kstreams},1651757834,0
{consumergroup=__strimzi-topic-operator-kstreams},1651757839,0
{consumergroup=__strimzi-topic-operator-kstreams},1651757844,0
{consumergroup=__strimzi-topic-operator-kstreams},1651757849,0
{consumergroup=__strimzi-topic-operator-kstreams},1651757854,0
{consumergroup=__strimzi-topic-operator-kstreams},1651757859,0
{consumergroup=__strimzi-topic-operator-kstreams},1651757864,0
{consumergroup=__strimzi-topic-operator-kstreams},1651757869,0
{consumergroup=__strimzi-topic-operator-kstreams},1651757874,0
{consumergroup=__strimzi-topic-operator-kstreams},1651757879,0
{consumergroup=__strimzi-topic-operator-kstreams},1651757884,0
{consumergroup=__strimzi-topic-operator-kstreams},1651757889,0
{consumergroup=__strimzi-topic-operator-kstreams},1651757894,0
{consumergroup=__strimzi-topic-operator-kstreams},1651757899,0
{consumergroup=trace-service},1651757534,357396
{consumergroup=trace-service},1651757539,357396
{consumergroup=trace-service},1651757544,357396
{consumergroup=trace-service},1651757549,515389
{consumergroup=trace-service},1651757554,515389
{consumergroup=trace-service},1651757559,515389
{consumergroup=trace-service},1651757564,685446
{consumergroup=trace-service},1651757569,685446
{consumergroup=trace-service},1651757574,685446
{consumergroup=trace-service},1651757579,669135
{consumergroup=trace-service},1651757584,669135
{consumergroup=trace-service},1651757589,669135
{consumergroup=trace-service},1651757594,548755
{consumergroup=trace-service},1651757599,548755
{consumergroup=trace-service},1651757604,548755
{consumergroup=trace-service},1651757609,451235
{consumergroup=trace-service},1651757614,451235
{consumergroup=trace-service},1651757619,451235
{consumergroup=trace-service},1651757624,303003
{consumergroup=trace-service},1651757629,303003
{consumergroup=trace-service},1651757634,303003
{consumergroup=trace-service},1651757639,422035
{consumergroup=trace-service},1651757644,422035
{consumergroup=trace-service},1651757649,422035
{consumergroup=trace-service},1651757654,371722
{consumergroup=trace-service},1651757659,371722
{consumergroup=trace-service},1651757664,371722
{consumergroup=trace-service},1651757669,517114
{consumergroup=trace-service},1651757674,517114
{consumergroup=trace-service},1651757679,517114
{consumergroup=trace-service},1651757684,500066
{consumergroup=trace-service},1651757689,500066
{consumergroup=trace-service},1651757694,500066
{consumergroup=trace-service},1651757699,469467
{consumergroup=trace-service},1651757704,469467
{consumergroup=trace-service},1651757709,469467
{consumergroup=trace-service},1651757714,323682
{consumergroup=trace-service},1651757719,323682
{consumergroup=trace-service},1651757724,323682
{consumergroup=trace-service},1651757729,377388
{consumergroup=trace-service},1651757734,377388
{consumergroup=trace-service},1651757739,377388
{consumergroup=trace-service},1651757744,350013
{consumergroup=trace-service},1651757749,350013
{consumergroup=trace-service},1651757754,350013
{consumergroup=trace-service},1651757759,375933
{consumergroup=trace-service},1651757764,375933
{consumergroup=trace-service},1651757769,375933
{consumergroup=trace-service},1651757774,321998
{consumergroup=trace-service},1651757779,321998
{consumergroup=trace-service},1651757784,321998
{consumergroup=trace-service},1651757789,359967
{consumergroup=trace-service},1651757794,359967
{consumergroup=trace-service},1651757799,359967
{consumergroup=trace-service},1651757804,294145
{consumergroup=trace-service},1651757809,294145
{consumergroup=trace-service},1651757814,294145
{consumergroup=trace-service},1651757819,409829
{consumergroup=trace-service},1651757824,409829
{consumergroup=trace-service},1651757829,409829
{consumergroup=trace-service},1651757834,356154
{consumergroup=trace-service},1651757839,356154
{consumergroup=trace-service},1651757844,356154
{consumergroup=trace-service},1651757849,309958
{consumergroup=trace-service},1651757854,309958
{consumergroup=trace-service},1651757859,309958
{consumergroup=trace-service},1651757864,280139
{consumergroup=trace-service},1651757869,280139
{consumergroup=trace-service},1651757874,280139
{consumergroup=trace-service},1651757879,382582
{consumergroup=trace-service},1651757884,382582
{consumergroup=trace-service},1651757889,382582
{consumergroup=trace-service},1651757894,334938
{consumergroup=trace-service},1651757899,334938
{consumergroup=trace-token-events-consumer},1651757489,0
{consumergroup=trace-token-events-consumer},1651757494,0
{consumergroup=trace-token-events-consumer},1651757499,0
{consumergroup=trace-token-events-consumer},1651757534,0
{consumergroup=trace-token-events-consumer},1651757539,0
{consumergroup=trace-token-events-consumer},1651757544,0
{consumergroup=trace-token-events-consumer},1651757549,0
{consumergroup=trace-token-events-consumer},1651757554,0
{consumergroup=trace-token-events-consumer},1651757559,0
{consumergroup=trace-token-events-consumer},1651757564,0
{consumergroup=trace-token-events-consumer},1651757569,0
{consumergroup=trace-token-events-consumer},1651757574,0
{consumergroup=trace-token-events-consumer},1651757579,0
{consumergroup=trace-token-events-consumer},1651757584,0
{consumergroup=trace-token-events-consumer},1651757589,0
{consumergroup=trace-token-events-consumer},1651757594,0
{consumergroup=trace-token-events-consumer},1651757599,0
{consumergroup=trace-token-events-consumer},1651757604,0
{consumergroup=trace-token-events-consumer},1651757609,0
{consumergroup=trace-token-events-consumer},1651757614,0
{consumergroup=trace-token-events-consumer},1651757619,0
{consumergroup=trace-token-events-consumer},1651757624,0
{consumergroup=trace-token-events-consumer},1651757629,0
{consumergroup=trace-token-events-consumer},1651757634,0
{consumergroup=trace-token-events-consumer},1651757639,0
{consumergroup=trace-token-events-consumer},1651757644,0
{consumergroup=trace-token-events-consumer},1651757649,0
{consumergroup=trace-token-events-consumer},1651757654,0
{consumergroup=trace-token-events-consumer},1651757659,0
{consumergroup=trace-token-events-consumer},1651757664,0
{consumergroup=trace-token-events-consumer},1651757669,0
{consumergroup=trace-token-events-consumer},1651757674,0
{consumergroup=trace-token-events-consumer},1651757679,0
{consumergroup=trace-token-events-consumer},1651757684,0
{consumergroup=trace-token-events-consumer},1651757689,0
{consumergroup=trace-token-events-consumer},1651757694,0
{consumergroup=trace-token-events-consumer},1651757699,0
{consumergroup=trace-token-events-consumer},1651757704,0
{consumergroup=trace-token-events-consumer},1651757709,0
{consumergroup=trace-token-events-consumer},1651757714,0
{consumergroup=trace-token-events-consumer},1651757719,0
{consumergroup=trace-token-events-consumer},1651757724,0
{consumergroup=trace-token-events-consumer},1651757729,0
{consumergroup=trace-token-events-consumer},1651757734,0
{consumergroup=trace-token-events-consumer},1651757739,0
{consumergroup=trace-token-events-consumer},1651757744,0
{consumergroup=trace-token-events-consumer},1651757749,0
{consumergroup=trace-token-events-consumer},1651757754,0
{consumergroup=trace-token-events-consumer},1651757759,0
{consumergroup=trace-token-events-consumer},1651757764,0
{consumergroup=trace-token-events-consumer},1651757769,0
{consumergroup=trace-token-events-consumer},1651757774,0
{consumergroup=trace-token-events-consumer},1651757779,0
{consumergroup=trace-token-events-consumer},1651757784,0
{consumergroup=trace-token-events-consumer},1651757789,0
{consumergroup=trace-token-events-consumer},1651757794,0
{consumergroup=trace-token-events-consumer},1651757799,0
{consumergroup=trace-token-events-consumer},1651757804,0
{consumergroup=trace-token-events-consumer},1651757809,0
{consumergroup=trace-token-events-consumer},1651757814,0
{consumergroup=trace-token-events-consumer},1651757819,0
{consumergroup=trace-token-events-consumer},1651757824,0
{consumergroup=trace-token-events-consumer},1651757829,0
{consumergroup=trace-token-events-consumer},1651757834,0
{consumergroup=trace-token-events-consumer},1651757839,0
{consumergroup=trace-token-events-consumer},1651757844,0
{consumergroup=trace-token-events-consumer},1651757849,0
{consumergroup=trace-token-events-consumer},1651757854,0
{consumergroup=trace-token-events-consumer},1651757859,0
{consumergroup=trace-token-events-consumer},1651757864,0
{consumergroup=trace-token-events-consumer},1651757869,0
{consumergroup=trace-token-events-consumer},1651757874,0
{consumergroup=trace-token-events-consumer},1651757879,0
{consumergroup=trace-token-events-consumer},1651757884,0
{consumergroup=trace-token-events-consumer},1651757889,0
{consumergroup=trace-token-events-consumer},1651757894,0
{consumergroup=trace-token-events-consumer},1651757899,0
