labels,timestamp,value
{consumergroup=__strimzi-topic-operator-kstreams},1651847199,12
{consumergroup=__strimzi-topic-operator-kstreams},1651847204,12
{consumergroup=__strimzi-topic-operator-kstreams},1651847209,12
{consumergroup=__strimzi-topic-operator-kstreams},1651847214,0
{consumergroup=__strimzi-topic-operator-kstreams},1651847219,0
{consumergroup=__strimzi-topic-operator-kstreams},1651847224,0
{consumergroup=__strimzi-topic-operator-kstreams},1651847229,0
{consumergroup=__strimzi-topic-operator-kstreams},1651847234,0
{consumergroup=__strimzi-topic-operator-kstreams},1651847239,0
{consumergroup=__strimzi-topic-operator-kstreams},1651847244,0
{consumergroup=__strimzi-topic-operator-kstreams},1651847249,0
{consumergroup=__strimzi-topic-operator-kstreams},1651847254,0
{consumergroup=__strimzi-topic-operator-kstreams},1651847259,0
{consumergroup=__strimzi-topic-operator-kstreams},1651847264,0
{consumergroup=__strimzi-topic-operator-kstreams},1651847269,0
{consumergroup=__strimzi-topic-operator-kstreams},1651847274,0
{consumergroup=__strimzi-topic-operator-kstreams},1651847279,0
{consumergroup=__strimzi-topic-operator-kstreams},1651847284,0
{consumergroup=__strimzi-topic-operator-kstreams},1651847289,0
{consumergroup=__strimzi-topic-operator-kstreams},1651847294,0
{consumergroup=__strimzi-topic-operator-kstreams},1651847299,0
{consumergroup=__strimzi-topic-operator-kstreams},1651847304,0
{consumergroup=__strimzi-topic-operator-kstreams},1651847309,0
{consumergroup=__strimzi-topic-operator-kstreams},1651847314,0
{consumergroup=__strimzi-topic-operator-kstreams},1651847319,0
{consumergroup=__strimzi-topic-operator-kstreams},1651847324,0
{consumergroup=__strimzi-topic-operator-kstreams},1651847329,0
{consumergroup=__strimzi-topic-operator-kstreams},1651847334,0
{consumergroup=__strimzi-topic-operator-kstreams},1651847339,0
{consumergroup=__strimzi-topic-operator-kstreams},1651847344,0
{consumergroup=__strimzi-topic-operator-kstreams},1651847349,0
{consumergroup=__strimzi-topic-operator-kstreams},1651847354,0
{consumergroup=__strimzi-topic-operator-kstreams},1651847359,0
{consumergroup=__strimzi-topic-operator-kstreams},1651847364,0
{consumergroup=__strimzi-topic-operator-kstreams},1651847369,0
{consumergroup=__strimzi-topic-operator-kstreams},1651847374,0
{consumergroup=__strimzi-topic-operator-kstreams},1651847379,0
{consumergroup=__strimzi-topic-operator-kstreams},1651847384,0
{consumergroup=__strimzi-topic-operator-kstreams},1651847389,0
{consumergroup=__strimzi-topic-operator-kstreams},1651847394,0
{consumergroup=__strimzi-topic-operator-kstreams},1651847399,0
{consumergroup=__strimzi-topic-operator-kstreams},1651847404,0
{consumergroup=__strimzi-topic-operator-kstreams},1651847409,0
{consumergroup=__strimzi-topic-operator-kstreams},1651847414,0
{consumergroup=__strimzi-topic-operator-kstreams},1651847419,0
{consumergroup=__strimzi-topic-operator-kstreams},1651847439,0
{consumergroup=__strimzi-topic-operator-kstreams},1651847444,0
{consumergroup=__strimzi-topic-operator-kstreams},1651847449,0
{consumergroup=adapter-service},1651847229,354554
{consumergroup=adapter-service},1651847234,354554
{consumergroup=adapter-service},1651847239,354554
{consumergroup=adapter-service},1651847244,1282306
{consumergroup=adapter-service},1651847249,1282306
{consumergroup=adapter-service},1651847254,1282306
{consumergroup=adapter-service},1651847259,1898806
{consumergroup=adapter-service},1651847264,1898806
{consumergroup=adapter-service},1651847269,1898806
{consumergroup=adapter-service},1651847274,2416188
{consumergroup=adapter-service},1651847279,2416188
{consumergroup=adapter-service},1651847284,2416188
{consumergroup=adapter-service},1651847289,2702793
{consumergroup=adapter-service},1651847294,2702793
{consumergroup=adapter-service},1651847299,2702793
{consumergroup=adapter-service},1651847304,2971694
{consumergroup=adapter-service},1651847309,2971694
{consumergroup=adapter-service},1651847314,2971694
{consumergroup=adapter-service},1651847319,2900204
{consumergroup=adapter-service},1651847324,2900204
{consumergroup=adapter-service},1651847329,2900204
{consumergroup=adapter-service},1651847334,2956064
{consumergroup=adapter-service},1651847339,2956064
{consumergroup=adapter-service},1651847344,2956064
{consumergroup=adapter-service},1651847349,2823127
{consumergroup=adapter-service},1651847354,2823127
{consumergroup=adapter-service},1651847359,2823127
{consumergroup=adapter-service},1651847364,2691583
{consumergroup=adapter-service},1651847369,2691583
{consumergroup=adapter-service},1651847374,2691583
{consumergroup=adapter-service},1651847379,2486655
{consumergroup=adapter-service},1651847384,2486655
{consumergroup=adapter-service},1651847389,2486655
{consumergroup=adapter-service},1651847394,2145423
{consumergroup=adapter-service},1651847399,2145423
{consumergroup=adapter-service},1651847404,2145423
{consumergroup=adapter-service},1651847409,1901908
{consumergroup=adapter-service},1651847414,1901908
{consumergroup=adapter-service},1651847419,1901908
{consumergroup=adapter-service},1651847439,1745648
{consumergroup=adapter-service},1651847444,1745648
{consumergroup=adapter-service},1651847449,1745648
