labels,timestamp,value
{job=theodolite-stu200776/trace-isolated-podmonitor},1651795862,1.3196134578299743
{job=theodolite-stu200776/trace-isolated-podmonitor},1651795867,2.5900604689713123
{job=theodolite-stu200776/trace-isolated-podmonitor},1651795872,4.181569138066224
{job=theodolite-stu200776/trace-isolated-podmonitor},1651795877,4.142695016098309
{job=theodolite-stu200776/trace-isolated-podmonitor},1651795882,3.51089210936627
{job=theodolite-stu200776/trace-isolated-podmonitor},1651795887,3.266781142182873
{job=theodolite-stu200776/trace-isolated-podmonitor},1651795892,13.457361729519118
{job=theodolite-stu200776/trace-isolated-podmonitor},1651795897,41.23770496344348
{job=theodolite-stu200776/trace-isolated-podmonitor},1651795902,88.68638266963356
{job=theodolite-stu200776/trace-isolated-podmonitor},1651795907,83.8815309001821
{job=theodolite-stu200776/trace-isolated-podmonitor},1651795912,71.78339044537121
{job=theodolite-stu200776/trace-isolated-podmonitor},1651795917,67.37361647240495
{job=theodolite-stu200776/trace-isolated-podmonitor},1651795922,72.3950545553951
{job=theodolite-stu200776/trace-isolated-podmonitor},1651795927,84.41116822381579
{job=theodolite-stu200776/trace-isolated-podmonitor},1651795932,92.27786108795893
{job=theodolite-stu200776/trace-isolated-podmonitor},1651795937,85.04331817574692
{job=theodolite-stu200776/trace-isolated-podmonitor},1651795942,72.62195890976271
{job=theodolite-stu200776/trace-isolated-podmonitor},1651795947,68.08654478810132
{job=theodolite-stu200776/trace-isolated-podmonitor},1651795952,47.11730293506174
{job=theodolite-stu200776/trace-isolated-podmonitor},1651795957,27.317966887017814
{job=theodolite-stu200776/trace-isolated-podmonitor},1651795962,0
{job=theodolite-stu200776/trace-isolated-podmonitor},1651795967,0
{job=theodolite-stu200776/trace-isolated-podmonitor},1651795972,0
{job=theodolite-stu200776/trace-isolated-podmonitor},1651795977,0
{job=theodolite-stu200776/trace-isolated-podmonitor},1651795982,0
{job=theodolite-stu200776/trace-isolated-podmonitor},1651795987,0
{job=theodolite-stu200776/trace-isolated-podmonitor},1651795992,0
{job=theodolite-stu200776/trace-isolated-podmonitor},1651795997,0
{job=theodolite-stu200776/trace-isolated-podmonitor},1651796002,0
{job=theodolite-stu200776/trace-isolated-podmonitor},1651796007,0
{job=theodolite-stu200776/trace-isolated-podmonitor},1651796012,0
{job=theodolite-stu200776/trace-isolated-podmonitor},1651796017,0
{job=theodolite-stu200776/trace-isolated-podmonitor},1651796022,0
{job=theodolite-stu200776/trace-isolated-podmonitor},1651796027,0
{job=theodolite-stu200776/trace-isolated-podmonitor},1651796032,0
{job=theodolite-stu200776/trace-isolated-podmonitor},1651796037,0
{job=theodolite-stu200776/trace-isolated-podmonitor},1651796042,0
{job=theodolite-stu200776/trace-isolated-podmonitor},1651796047,0
{job=theodolite-stu200776/trace-isolated-podmonitor},1651796052,0
{job=theodolite-stu200776/trace-isolated-podmonitor},1651796057,0
{job=theodolite-stu200776/trace-isolated-podmonitor},1651796062,0
{job=theodolite-stu200776/trace-isolated-podmonitor},1651796067,0
{job=theodolite-stu200776/trace-isolated-podmonitor},1651796072,0
{job=theodolite-stu200776/trace-isolated-podmonitor},1651796077,0
{job=theodolite-stu200776/trace-isolated-podmonitor},1651796082,0
{job=theodolite-stu200776/trace-isolated-podmonitor},1651796087,0
{job=theodolite-stu200776/trace-isolated-podmonitor},1651796092,0
{job=theodolite-stu200776/trace-isolated-podmonitor},1651796097,0
{job=theodolite-stu200776/trace-isolated-podmonitor},1651796102,0
{job=theodolite-stu200776/trace-isolated-podmonitor},1651796107,0
{job=theodolite-stu200776/trace-isolated-podmonitor},1651796112,0
{job=theodolite-stu200776/trace-isolated-podmonitor},1651796117,0
{job=theodolite-stu200776/trace-isolated-podmonitor},1651796122,0
{job=theodolite-stu200776/trace-isolated-podmonitor},1651796127,0
{job=theodolite-stu200776/trace-isolated-podmonitor},1651796132,0
{job=theodolite-stu200776/trace-isolated-podmonitor},1651796137,0
{job=theodolite-stu200776/trace-isolated-podmonitor},1651796142,0
{job=theodolite-stu200776/trace-isolated-podmonitor},1651796147,0
{job=theodolite-stu200776/trace-isolated-podmonitor},1651796152,0
{job=theodolite-stu200776/trace-isolated-podmonitor},1651796157,0
{job=theodolite-stu200776/trace-isolated-podmonitor},1651796162,0
{job=theodolite-stu200776/trace-isolated-podmonitor},1651796167,0
{job=theodolite-stu200776/trace-isolated-podmonitor},1651796172,0
{job=theodolite-stu200776/trace-isolated-podmonitor},1651796177,0
{job=theodolite-stu200776/trace-isolated-podmonitor},1651796182,0
{job=theodolite-stu200776/trace-isolated-podmonitor},1651796187,0
{job=theodolite-stu200776/trace-isolated-podmonitor},1651796192,0
{job=theodolite-stu200776/trace-isolated-podmonitor},1651796197,0
{job=theodolite-stu200776/trace-isolated-podmonitor},1651796202,0
{job=theodolite-stu200776/trace-isolated-podmonitor},1651796207,0
{job=theodolite-stu200776/trace-isolated-podmonitor},1651796212,0
{job=theodolite-stu200776/trace-isolated-podmonitor},1651796217,0
{job=theodolite-stu200776/trace-isolated-podmonitor},1651796222,0
{job=theodolite-stu200776/trace-isolated-podmonitor},1651796227,0
{job=theodolite-stu200776/trace-isolated-podmonitor},1651796232,0
{job=theodolite-stu200776/trace-isolated-podmonitor},1651796237,0
