labels,timestamp,value
{job=theodolite-stu200776/trace-isolated-podmonitor},1651773693,8.015817913146643
{job=theodolite-stu200776/trace-isolated-podmonitor},1651773698,20.03447670305774
{job=theodolite-stu200776/trace-isolated-podmonitor},1651773703,24.23045775411031
{job=theodolite-stu200776/trace-isolated-podmonitor},1651773708,21.520769816752146
{job=theodolite-stu200776/trace-isolated-podmonitor},1651773713,18.98847148642096
{job=theodolite-stu200776/trace-isolated-podmonitor},1651773718,17.23234842847939
{job=theodolite-stu200776/trace-isolated-podmonitor},1651773723,15.570715642138456
{job=theodolite-stu200776/trace-isolated-podmonitor},1651773728,8.108630035157438
{job=theodolite-stu200776/trace-isolated-podmonitor},1651773733,0.09076218763036725
{job=theodolite-stu200776/trace-isolated-podmonitor},1651773738,0
{job=theodolite-stu200776/trace-isolated-podmonitor},1651773743,0
{job=theodolite-stu200776/trace-isolated-podmonitor},1651773748,0
{job=theodolite-stu200776/trace-isolated-podmonitor},1651773753,0
{job=theodolite-stu200776/trace-isolated-podmonitor},1651773758,0
{job=theodolite-stu200776/trace-isolated-podmonitor},1651773763,0
{job=theodolite-stu200776/trace-isolated-podmonitor},1651773768,0
{job=theodolite-stu200776/trace-isolated-podmonitor},1651773773,0
{job=theodolite-stu200776/trace-isolated-podmonitor},1651773778,0
{job=theodolite-stu200776/trace-isolated-podmonitor},1651773783,0
{job=theodolite-stu200776/trace-isolated-podmonitor},1651773788,0
{job=theodolite-stu200776/trace-isolated-podmonitor},1651773793,0
{job=theodolite-stu200776/trace-isolated-podmonitor},1651773798,0
{job=theodolite-stu200776/trace-isolated-podmonitor},1651773803,0
{job=theodolite-stu200776/trace-isolated-podmonitor},1651773808,0
{job=theodolite-stu200776/trace-isolated-podmonitor},1651773813,0
{job=theodolite-stu200776/trace-isolated-podmonitor},1651773818,0
{job=theodolite-stu200776/trace-isolated-podmonitor},1651773823,0
{job=theodolite-stu200776/trace-isolated-podmonitor},1651773828,0
{job=theodolite-stu200776/trace-isolated-podmonitor},1651773833,0
{job=theodolite-stu200776/trace-isolated-podmonitor},1651773838,0
{job=theodolite-stu200776/trace-isolated-podmonitor},1651773843,0
{job=theodolite-stu200776/trace-isolated-podmonitor},1651773848,0
{job=theodolite-stu200776/trace-isolated-podmonitor},1651773853,0
{job=theodolite-stu200776/trace-isolated-podmonitor},1651773858,0
{job=theodolite-stu200776/trace-isolated-podmonitor},1651773863,0
{job=theodolite-stu200776/trace-isolated-podmonitor},1651773868,0
{job=theodolite-stu200776/trace-isolated-podmonitor},1651773873,0
{job=theodolite-stu200776/trace-isolated-podmonitor},1651773878,0
{job=theodolite-stu200776/trace-isolated-podmonitor},1651773883,0
{job=theodolite-stu200776/trace-isolated-podmonitor},1651773888,0
{job=theodolite-stu200776/trace-isolated-podmonitor},1651773893,0
{job=theodolite-stu200776/trace-isolated-podmonitor},1651773898,0
{job=theodolite-stu200776/trace-isolated-podmonitor},1651773903,0
{job=theodolite-stu200776/trace-isolated-podmonitor},1651773908,0
{job=theodolite-stu200776/trace-isolated-podmonitor},1651773913,0
{job=theodolite-stu200776/trace-isolated-podmonitor},1651773918,0
{job=theodolite-stu200776/trace-isolated-podmonitor},1651773923,0
{job=theodolite-stu200776/trace-isolated-podmonitor},1651773928,0
{job=theodolite-stu200776/trace-isolated-podmonitor},1651773933,0
{job=theodolite-stu200776/trace-isolated-podmonitor},1651773938,0
{job=theodolite-stu200776/trace-isolated-podmonitor},1651773943,0
{job=theodolite-stu200776/trace-isolated-podmonitor},1651773948,0
{job=theodolite-stu200776/trace-isolated-podmonitor},1651773953,0
{job=theodolite-stu200776/trace-isolated-podmonitor},1651773958,0
{job=theodolite-stu200776/trace-isolated-podmonitor},1651773963,0
{job=theodolite-stu200776/trace-isolated-podmonitor},1651773968,0
{job=theodolite-stu200776/trace-isolated-podmonitor},1651773973,0
{job=theodolite-stu200776/trace-isolated-podmonitor},1651773978,0
{job=theodolite-stu200776/trace-isolated-podmonitor},1651773983,0
{job=theodolite-stu200776/trace-isolated-podmonitor},1651773988,0
{job=theodolite-stu200776/trace-isolated-podmonitor},1651773993,0
{job=theodolite-stu200776/trace-isolated-podmonitor},1651773998,0
{job=theodolite-stu200776/trace-isolated-podmonitor},1651774003,0
{job=theodolite-stu200776/trace-isolated-podmonitor},1651774008,0
{job=theodolite-stu200776/trace-isolated-podmonitor},1651774013,0
{job=theodolite-stu200776/trace-isolated-podmonitor},1651774018,0
{job=theodolite-stu200776/trace-isolated-podmonitor},1651774023,0
{job=theodolite-stu200776/trace-isolated-podmonitor},1651774028,0
{job=theodolite-stu200776/trace-isolated-podmonitor},1651774033,0
{job=theodolite-stu200776/trace-isolated-podmonitor},1651774038,0
{job=theodolite-stu200776/trace-isolated-podmonitor},1651774043,0
{job=theodolite-stu200776/trace-isolated-podmonitor},1651774048,0
{job=theodolite-stu200776/trace-isolated-podmonitor},1651774053,0
{job=theodolite-stu200776/trace-isolated-podmonitor},1651774058,0
{job=theodolite-stu200776/trace-isolated-podmonitor},1651774063,0
