labels,timestamp,value
{consumergroup=__strimzi-topic-operator-kstreams},1651861330,5
{consumergroup=__strimzi-topic-operator-kstreams},1651861335,5
{consumergroup=__strimzi-topic-operator-kstreams},1651861340,5
{consumergroup=__strimzi-topic-operator-kstreams},1651861345,19
{consumergroup=__strimzi-topic-operator-kstreams},1651861350,19
{consumergroup=__strimzi-topic-operator-kstreams},1651861355,19
{consumergroup=__strimzi-topic-operator-kstreams},1651861360,0
{consumergroup=__strimzi-topic-operator-kstreams},1651861365,0
{consumergroup=__strimzi-topic-operator-kstreams},1651861370,0
{consumergroup=__strimzi-topic-operator-kstreams},1651861375,0
{consumergroup=__strimzi-topic-operator-kstreams},1651861380,0
{consumergroup=__strimzi-topic-operator-kstreams},1651861385,0
{consumergroup=__strimzi-topic-operator-kstreams},1651861390,0
{consumergroup=__strimzi-topic-operator-kstreams},1651861395,0
{consumergroup=__strimzi-topic-operator-kstreams},1651861400,0
{consumergroup=__strimzi-topic-operator-kstreams},1651861405,0
{consumergroup=__strimzi-topic-operator-kstreams},1651861410,0
{consumergroup=__strimzi-topic-operator-kstreams},1651861415,0
{consumergroup=__strimzi-topic-operator-kstreams},1651861420,0
{consumergroup=__strimzi-topic-operator-kstreams},1651861425,0
{consumergroup=__strimzi-topic-operator-kstreams},1651861430,0
{consumergroup=__strimzi-topic-operator-kstreams},1651861435,0
{consumergroup=__strimzi-topic-operator-kstreams},1651861440,0
{consumergroup=__strimzi-topic-operator-kstreams},1651861445,0
{consumergroup=__strimzi-topic-operator-kstreams},1651861450,0
{consumergroup=__strimzi-topic-operator-kstreams},1651861455,0
{consumergroup=__strimzi-topic-operator-kstreams},1651861460,0
{consumergroup=__strimzi-topic-operator-kstreams},1651861465,0
{consumergroup=__strimzi-topic-operator-kstreams},1651861470,0
{consumergroup=__strimzi-topic-operator-kstreams},1651861475,0
{consumergroup=__strimzi-topic-operator-kstreams},1651861480,0
{consumergroup=__strimzi-topic-operator-kstreams},1651861485,0
{consumergroup=__strimzi-topic-operator-kstreams},1651861490,0
{consumergroup=__strimzi-topic-operator-kstreams},1651861495,0
{consumergroup=__strimzi-topic-operator-kstreams},1651861500,0
{consumergroup=__strimzi-topic-operator-kstreams},1651861505,0
{consumergroup=__strimzi-topic-operator-kstreams},1651861510,0
{consumergroup=__strimzi-topic-operator-kstreams},1651861515,0
{consumergroup=__strimzi-topic-operator-kstreams},1651861520,0
{consumergroup=__strimzi-topic-operator-kstreams},1651861525,0
{consumergroup=__strimzi-topic-operator-kstreams},1651861530,0
{consumergroup=__strimzi-topic-operator-kstreams},1651861535,0
{consumergroup=__strimzi-topic-operator-kstreams},1651861540,0
{consumergroup=__strimzi-topic-operator-kstreams},1651861545,0
{consumergroup=__strimzi-topic-operator-kstreams},1651861550,0
{consumergroup=__strimzi-topic-operator-kstreams},1651861555,0
{consumergroup=__strimzi-topic-operator-kstreams},1651861560,0
{consumergroup=__strimzi-topic-operator-kstreams},1651861565,0
{consumergroup=__strimzi-topic-operator-kstreams},1651861570,0
{consumergroup=__strimzi-topic-operator-kstreams},1651861575,0
{consumergroup=__strimzi-topic-operator-kstreams},1651861580,0
{consumergroup=__strimzi-topic-operator-kstreams},1651861585,0
{consumergroup=adapter-service},1651861360,525850
{consumergroup=adapter-service},1651861365,525850
{consumergroup=adapter-service},1651861370,525850
{consumergroup=adapter-service},1651861375,2127636
{consumergroup=adapter-service},1651861380,2127636
{consumergroup=adapter-service},1651861385,2127636
{consumergroup=adapter-service},1651861390,3190956
{consumergroup=adapter-service},1651861395,3190956
{consumergroup=adapter-service},1651861400,3190956
{consumergroup=adapter-service},1651861405,3911675
{consumergroup=adapter-service},1651861410,3911675
{consumergroup=adapter-service},1651861415,3911675
{consumergroup=adapter-service},1651861420,4548690
{consumergroup=adapter-service},1651861425,4548690
{consumergroup=adapter-service},1651861430,4548690
{consumergroup=adapter-service},1651861435,5196578
{consumergroup=adapter-service},1651861440,5196578
{consumergroup=adapter-service},1651861445,5196578
{consumergroup=adapter-service},1651861450,5356776
{consumergroup=adapter-service},1651861455,5356776
{consumergroup=adapter-service},1651861460,5356776
{consumergroup=adapter-service},1651861465,5402395
{consumergroup=adapter-service},1651861470,5402395
{consumergroup=adapter-service},1651861475,5402395
{consumergroup=adapter-service},1651861480,5337997
{consumergroup=adapter-service},1651861485,5337997
{consumergroup=adapter-service},1651861490,5337997
{consumergroup=adapter-service},1651861495,5191567
{consumergroup=adapter-service},1651861500,5191567
{consumergroup=adapter-service},1651861505,5191567
{consumergroup=adapter-service},1651861510,5090426
{consumergroup=adapter-service},1651861515,5090426
{consumergroup=adapter-service},1651861520,5090426
{consumergroup=adapter-service},1651861525,5017132
{consumergroup=adapter-service},1651861530,5017132
{consumergroup=adapter-service},1651861535,5017132
{consumergroup=adapter-service},1651861540,4957982
{consumergroup=adapter-service},1651861545,4957982
{consumergroup=adapter-service},1651861550,4957982
{consumergroup=adapter-service},1651861555,5058489
{consumergroup=adapter-service},1651861560,5058489
{consumergroup=adapter-service},1651861565,5058489
{consumergroup=adapter-service},1651861570,4984804
{consumergroup=adapter-service},1651861575,4984804
{consumergroup=adapter-service},1651861580,4984804
{consumergroup=adapter-service},1651861585,4982273
