labels,timestamp,value
{consumergroup=__strimzi-topic-operator-kstreams},1651852273,0
{consumergroup=__strimzi-topic-operator-kstreams},1651852278,0
{consumergroup=__strimzi-topic-operator-kstreams},1651852283,0
{consumergroup=__strimzi-topic-operator-kstreams},1651852288,0
{consumergroup=__strimzi-topic-operator-kstreams},1651852293,0
{consumergroup=__strimzi-topic-operator-kstreams},1651852298,0
{consumergroup=__strimzi-topic-operator-kstreams},1651852303,0
{consumergroup=__strimzi-topic-operator-kstreams},1651852308,0
{consumergroup=__strimzi-topic-operator-kstreams},1651852313,0
{consumergroup=__strimzi-topic-operator-kstreams},1651852318,0
{consumergroup=__strimzi-topic-operator-kstreams},1651852323,0
{consumergroup=__strimzi-topic-operator-kstreams},1651852328,0
{consumergroup=__strimzi-topic-operator-kstreams},1651852333,0
{consumergroup=__strimzi-topic-operator-kstreams},1651852338,0
{consumergroup=__strimzi-topic-operator-kstreams},1651852343,0
{consumergroup=__strimzi-topic-operator-kstreams},1651852348,0
{consumergroup=__strimzi-topic-operator-kstreams},1651852353,0
{consumergroup=__strimzi-topic-operator-kstreams},1651852358,0
{consumergroup=__strimzi-topic-operator-kstreams},1651852363,0
{consumergroup=__strimzi-topic-operator-kstreams},1651852368,0
{consumergroup=__strimzi-topic-operator-kstreams},1651852373,0
{consumergroup=__strimzi-topic-operator-kstreams},1651852378,0
{consumergroup=__strimzi-topic-operator-kstreams},1651852383,0
{consumergroup=__strimzi-topic-operator-kstreams},1651852388,0
{consumergroup=__strimzi-topic-operator-kstreams},1651852393,0
{consumergroup=__strimzi-topic-operator-kstreams},1651852398,0
{consumergroup=__strimzi-topic-operator-kstreams},1651852403,0
{consumergroup=__strimzi-topic-operator-kstreams},1651852408,0
{consumergroup=__strimzi-topic-operator-kstreams},1651852413,0
{consumergroup=__strimzi-topic-operator-kstreams},1651852418,0
{consumergroup=__strimzi-topic-operator-kstreams},1651852423,0
{consumergroup=__strimzi-topic-operator-kstreams},1651852428,0
{consumergroup=__strimzi-topic-operator-kstreams},1651852433,0
{consumergroup=__strimzi-topic-operator-kstreams},1651852438,0
{consumergroup=__strimzi-topic-operator-kstreams},1651852443,0
{consumergroup=__strimzi-topic-operator-kstreams},1651852448,0
{consumergroup=__strimzi-topic-operator-kstreams},1651852453,0
{consumergroup=__strimzi-topic-operator-kstreams},1651852458,0
{consumergroup=__strimzi-topic-operator-kstreams},1651852463,0
{consumergroup=__strimzi-topic-operator-kstreams},1651852468,0
{consumergroup=__strimzi-topic-operator-kstreams},1651852473,0
{consumergroup=__strimzi-topic-operator-kstreams},1651852478,0
{consumergroup=__strimzi-topic-operator-kstreams},1651852483,0
{consumergroup=__strimzi-topic-operator-kstreams},1651852488,0
{consumergroup=__strimzi-topic-operator-kstreams},1651852493,0
{consumergroup=__strimzi-topic-operator-kstreams},1651852498,0
{consumergroup=__strimzi-topic-operator-kstreams},1651852503,0
{consumergroup=__strimzi-topic-operator-kstreams},1651852508,0
{consumergroup=__strimzi-topic-operator-kstreams},1651852513,0
{consumergroup=__strimzi-topic-operator-kstreams},1651852518,0
{consumergroup=adapter-service},1651852303,1299750
{consumergroup=adapter-service},1651852308,1299750
{consumergroup=adapter-service},1651852313,1299750
{consumergroup=adapter-service},1651852318,2387274
{consumergroup=adapter-service},1651852323,2387274
{consumergroup=adapter-service},1651852328,2387274
{consumergroup=adapter-service},1651852333,2777518
{consumergroup=adapter-service},1651852338,2777518
{consumergroup=adapter-service},1651852343,2777518
{consumergroup=adapter-service},1651852348,3095652
{consumergroup=adapter-service},1651852353,3095652
{consumergroup=adapter-service},1651852358,3095652
{consumergroup=adapter-service},1651852363,3357701
{consumergroup=adapter-service},1651852368,3357701
{consumergroup=adapter-service},1651852373,3357701
{consumergroup=adapter-service},1651852378,3523645
{consumergroup=adapter-service},1651852383,3523645
{consumergroup=adapter-service},1651852388,3523645
{consumergroup=adapter-service},1651852393,3063374
{consumergroup=adapter-service},1651852398,3063374
{consumergroup=adapter-service},1651852403,3063374
{consumergroup=adapter-service},1651852408,2779817
{consumergroup=adapter-service},1651852413,2779817
{consumergroup=adapter-service},1651852418,2779817
{consumergroup=adapter-service},1651852423,2597249
{consumergroup=adapter-service},1651852428,2597249
{consumergroup=adapter-service},1651852433,2597249
{consumergroup=adapter-service},1651852438,2650929
{consumergroup=adapter-service},1651852443,2650929
{consumergroup=adapter-service},1651852448,2650929
{consumergroup=adapter-service},1651852453,2007092
{consumergroup=adapter-service},1651852458,2007092
{consumergroup=adapter-service},1651852463,2007092
{consumergroup=adapter-service},1651852468,1932234
{consumergroup=adapter-service},1651852473,1932234
{consumergroup=adapter-service},1651852478,1932234
{consumergroup=adapter-service},1651852483,1709531
{consumergroup=adapter-service},1651852488,1709531
{consumergroup=adapter-service},1651852493,1709531
{consumergroup=adapter-service},1651852498,1625131
{consumergroup=adapter-service},1651852503,1625131
{consumergroup=adapter-service},1651852508,1625131
{consumergroup=adapter-service},1651852513,1538591
{consumergroup=adapter-service},1651852518,1538591
