labels,timestamp,value
{consumergroup=__strimzi-topic-operator-kstreams},1651774666,0
{consumergroup=__strimzi-topic-operator-kstreams},1651774671,0
{consumergroup=__strimzi-topic-operator-kstreams},1651774676,0
{consumergroup=__strimzi-topic-operator-kstreams},1651774681,3
{consumergroup=__strimzi-topic-operator-kstreams},1651774686,3
{consumergroup=__strimzi-topic-operator-kstreams},1651774691,3
{consumergroup=__strimzi-topic-operator-kstreams},1651774696,0
{consumergroup=__strimzi-topic-operator-kstreams},1651774701,0
{consumergroup=__strimzi-topic-operator-kstreams},1651774706,0
{consumergroup=__strimzi-topic-operator-kstreams},1651774711,0
{consumergroup=__strimzi-topic-operator-kstreams},1651774716,0
{consumergroup=__strimzi-topic-operator-kstreams},1651774721,0
{consumergroup=__strimzi-topic-operator-kstreams},1651774726,0
{consumergroup=__strimzi-topic-operator-kstreams},1651774731,0
{consumergroup=__strimzi-topic-operator-kstreams},1651774736,0
{consumergroup=__strimzi-topic-operator-kstreams},1651774741,0
{consumergroup=__strimzi-topic-operator-kstreams},1651774746,0
{consumergroup=__strimzi-topic-operator-kstreams},1651774751,0
{consumergroup=__strimzi-topic-operator-kstreams},1651774756,0
{consumergroup=__strimzi-topic-operator-kstreams},1651774761,0
{consumergroup=__strimzi-topic-operator-kstreams},1651774766,0
{consumergroup=__strimzi-topic-operator-kstreams},1651774771,0
{consumergroup=__strimzi-topic-operator-kstreams},1651774776,0
{consumergroup=__strimzi-topic-operator-kstreams},1651774781,0
{consumergroup=__strimzi-topic-operator-kstreams},1651774786,0
{consumergroup=__strimzi-topic-operator-kstreams},1651774791,0
{consumergroup=__strimzi-topic-operator-kstreams},1651774796,0
{consumergroup=__strimzi-topic-operator-kstreams},1651774801,0
{consumergroup=__strimzi-topic-operator-kstreams},1651774806,0
{consumergroup=__strimzi-topic-operator-kstreams},1651774811,0
{consumergroup=__strimzi-topic-operator-kstreams},1651774816,0
{consumergroup=__strimzi-topic-operator-kstreams},1651774821,0
{consumergroup=__strimzi-topic-operator-kstreams},1651774826,0
{consumergroup=__strimzi-topic-operator-kstreams},1651774831,0
{consumergroup=__strimzi-topic-operator-kstreams},1651774836,0
{consumergroup=__strimzi-topic-operator-kstreams},1651774841,0
{consumergroup=__strimzi-topic-operator-kstreams},1651774846,0
{consumergroup=__strimzi-topic-operator-kstreams},1651774851,0
{consumergroup=__strimzi-topic-operator-kstreams},1651774856,0
{consumergroup=__strimzi-topic-operator-kstreams},1651774861,0
{consumergroup=__strimzi-topic-operator-kstreams},1651774866,0
{consumergroup=__strimzi-topic-operator-kstreams},1651774871,0
{consumergroup=__strimzi-topic-operator-kstreams},1651774876,0
{consumergroup=__strimzi-topic-operator-kstreams},1651774881,0
{consumergroup=__strimzi-topic-operator-kstreams},1651774886,0
{consumergroup=__strimzi-topic-operator-kstreams},1651774891,0
{consumergroup=__strimzi-topic-operator-kstreams},1651774896,0
{consumergroup=__strimzi-topic-operator-kstreams},1651774901,0
{consumergroup=__strimzi-topic-operator-kstreams},1651774906,0
{consumergroup=__strimzi-topic-operator-kstreams},1651774911,0
{consumergroup=__strimzi-topic-operator-kstreams},1651774916,0
{consumergroup=__strimzi-topic-operator-kstreams},1651774921,0
{consumergroup=__strimzi-topic-operator-kstreams},1651774926,0
{consumergroup=__strimzi-topic-operator-kstreams},1651774931,0
{consumergroup=__strimzi-topic-operator-kstreams},1651774936,0
{consumergroup=__strimzi-topic-operator-kstreams},1651774941,0
{consumergroup=__strimzi-topic-operator-kstreams},1651774946,0
{consumergroup=__strimzi-topic-operator-kstreams},1651774951,0
{consumergroup=__strimzi-topic-operator-kstreams},1651774956,0
{consumergroup=__strimzi-topic-operator-kstreams},1651774961,0
{consumergroup=__strimzi-topic-operator-kstreams},1651774966,0
{consumergroup=__strimzi-topic-operator-kstreams},1651774971,0
{consumergroup=__strimzi-topic-operator-kstreams},1651774976,0
{consumergroup=__strimzi-topic-operator-kstreams},1651774981,0
{consumergroup=__strimzi-topic-operator-kstreams},1651774986,0
{consumergroup=__strimzi-topic-operator-kstreams},1651774991,0
{consumergroup=__strimzi-topic-operator-kstreams},1651774996,0
{consumergroup=__strimzi-topic-operator-kstreams},1651775001,0
{consumergroup=__strimzi-topic-operator-kstreams},1651775006,0
{consumergroup=__strimzi-topic-operator-kstreams},1651775011,0
{consumergroup=__strimzi-topic-operator-kstreams},1651775016,0
{consumergroup=__strimzi-topic-operator-kstreams},1651775021,0
{consumergroup=__strimzi-topic-operator-kstreams},1651775026,0
{consumergroup=__strimzi-topic-operator-kstreams},1651775031,0
{consumergroup=__strimzi-topic-operator-kstreams},1651775036,0
{consumergroup=__strimzi-topic-operator-kstreams},1651775041,0
{consumergroup=__strimzi-topic-operator-kstreams},1651775046,0
{consumergroup=__strimzi-topic-operator-kstreams},1651775051,0
{consumergroup=__strimzi-topic-operator-kstreams},1651775056,0
{consumergroup=__strimzi-topic-operator-kstreams},1651775061,0
{consumergroup=__strimzi-topic-operator-kstreams},1651775066,0
{consumergroup=__strimzi-topic-operator-kstreams},1651775071,0
{consumergroup=__strimzi-topic-operator-kstreams},1651775076,0
{consumergroup=__strimzi-topic-operator-kstreams},1651775081,0
{consumergroup=__strimzi-topic-operator-kstreams},1651775086,0
{consumergroup=__strimzi-topic-operator-kstreams},1651775091,0
{consumergroup=__strimzi-topic-operator-kstreams},1651775096,0
{consumergroup=__strimzi-topic-operator-kstreams},1651775101,0
{consumergroup=trace-service},1651774696,192
{consumergroup=trace-service},1651774701,192
{consumergroup=trace-service},1651774706,192
{consumergroup=trace-service},1651774711,54616
{consumergroup=trace-service},1651774716,54616
{consumergroup=trace-service},1651774721,54616
{consumergroup=trace-service},1651774726,458855
{consumergroup=trace-service},1651774731,458855
{consumergroup=trace-service},1651774736,458855
{consumergroup=trace-service},1651774741,264975
{consumergroup=trace-service},1651774746,264975
{consumergroup=trace-service},1651774751,264975
{consumergroup=trace-service},1651774756,472636
{consumergroup=trace-service},1651774761,472636
{consumergroup=trace-service},1651774766,472636
{consumergroup=trace-service},1651774771,244153
{consumergroup=trace-service},1651774776,244153
{consumergroup=trace-service},1651774781,244153
{consumergroup=trace-service},1651774786,460601
{consumergroup=trace-service},1651774791,460601
{consumergroup=trace-service},1651774796,460601
{consumergroup=trace-service},1651774801,918267
{consumergroup=trace-service},1651774806,918267
{consumergroup=trace-service},1651774811,918267
{consumergroup=trace-service},1651774816,433370
{consumergroup=trace-service},1651774821,433370
{consumergroup=trace-service},1651774826,433370
{consumergroup=trace-service},1651774831,1116480
{consumergroup=trace-service},1651774836,1116480
{consumergroup=trace-service},1651774841,1116480
{consumergroup=trace-service},1651774846,449884
{consumergroup=trace-service},1651774851,449884
{consumergroup=trace-service},1651774856,449884
{consumergroup=trace-service},1651774861,146369
{consumergroup=trace-service},1651774866,146369
{consumergroup=trace-service},1651774871,146369
{consumergroup=trace-service},1651774876,441134
{consumergroup=trace-service},1651774881,441134
{consumergroup=trace-service},1651774886,441134
{consumergroup=trace-service},1651774891,166420
{consumergroup=trace-service},1651774896,166420
{consumergroup=trace-service},1651774901,166420
{consumergroup=trace-service},1651774906,423030
{consumergroup=trace-service},1651774911,423030
{consumergroup=trace-service},1651774916,423030
{consumergroup=trace-service},1651774921,960838
{consumergroup=trace-service},1651774926,960838
{consumergroup=trace-service},1651774931,960838
{consumergroup=trace-service},1651774936,435960
{consumergroup=trace-service},1651774941,435960
{consumergroup=trace-service},1651774946,435960
{consumergroup=trace-service},1651774951,171616
{consumergroup=trace-service},1651774956,171616
{consumergroup=trace-service},1651774961,171616
{consumergroup=trace-service},1651774966,454346
{consumergroup=trace-service},1651774971,454346
{consumergroup=trace-service},1651774976,454346
{consumergroup=trace-service},1651774981,173688
{consumergroup=trace-service},1651774986,173688
{consumergroup=trace-service},1651774991,173688
{consumergroup=trace-service},1651774996,385935
{consumergroup=trace-service},1651775001,385935
{consumergroup=trace-service},1651775006,385935
{consumergroup=trace-service},1651775011,158140
{consumergroup=trace-service},1651775016,158140
{consumergroup=trace-service},1651775021,158140
{consumergroup=trace-service},1651775026,473667
{consumergroup=trace-service},1651775031,473667
{consumergroup=trace-service},1651775036,473667
{consumergroup=trace-service},1651775041,169451
{consumergroup=trace-service},1651775046,169451
{consumergroup=trace-service},1651775051,169451
{consumergroup=trace-service},1651775056,403862
{consumergroup=trace-service},1651775061,403862
{consumergroup=trace-service},1651775066,403862
{consumergroup=trace-service},1651775071,176114
{consumergroup=trace-service},1651775076,176114
{consumergroup=trace-service},1651775081,176114
{consumergroup=trace-service},1651775086,447808
{consumergroup=trace-service},1651775091,447808
{consumergroup=trace-service},1651775096,447808
{consumergroup=trace-service},1651775101,153994
{consumergroup=trace-token-events-consumer},1651774696,0
{consumergroup=trace-token-events-consumer},1651774701,0
{consumergroup=trace-token-events-consumer},1651774706,0
{consumergroup=trace-token-events-consumer},1651774711,0
{consumergroup=trace-token-events-consumer},1651774716,0
{consumergroup=trace-token-events-consumer},1651774721,0
{consumergroup=trace-token-events-consumer},1651774726,0
{consumergroup=trace-token-events-consumer},1651774731,0
{consumergroup=trace-token-events-consumer},1651774736,0
{consumergroup=trace-token-events-consumer},1651774741,0
{consumergroup=trace-token-events-consumer},1651774746,0
{consumergroup=trace-token-events-consumer},1651774751,0
{consumergroup=trace-token-events-consumer},1651774756,0
{consumergroup=trace-token-events-consumer},1651774761,0
{consumergroup=trace-token-events-consumer},1651774766,0
{consumergroup=trace-token-events-consumer},1651774771,0
{consumergroup=trace-token-events-consumer},1651774776,0
{consumergroup=trace-token-events-consumer},1651774781,0
{consumergroup=trace-token-events-consumer},1651774786,0
{consumergroup=trace-token-events-consumer},1651774791,0
{consumergroup=trace-token-events-consumer},1651774796,0
{consumergroup=trace-token-events-consumer},1651774801,0
{consumergroup=trace-token-events-consumer},1651774806,0
{consumergroup=trace-token-events-consumer},1651774811,0
{consumergroup=trace-token-events-consumer},1651774816,0
{consumergroup=trace-token-events-consumer},1651774821,0
{consumergroup=trace-token-events-consumer},1651774826,0
{consumergroup=trace-token-events-consumer},1651774831,0
{consumergroup=trace-token-events-consumer},1651774836,0
{consumergroup=trace-token-events-consumer},1651774841,0
{consumergroup=trace-token-events-consumer},1651774846,0
{consumergroup=trace-token-events-consumer},1651774851,0
{consumergroup=trace-token-events-consumer},1651774856,0
{consumergroup=trace-token-events-consumer},1651774861,0
{consumergroup=trace-token-events-consumer},1651774866,0
{consumergroup=trace-token-events-consumer},1651774871,0
{consumergroup=trace-token-events-consumer},1651774876,0
{consumergroup=trace-token-events-consumer},1651774881,0
{consumergroup=trace-token-events-consumer},1651774886,0
{consumergroup=trace-token-events-consumer},1651774891,0
{consumergroup=trace-token-events-consumer},1651774896,0
{consumergroup=trace-token-events-consumer},1651774901,0
{consumergroup=trace-token-events-consumer},1651774906,0
{consumergroup=trace-token-events-consumer},1651774911,0
{consumergroup=trace-token-events-consumer},1651774916,0
{consumergroup=trace-token-events-consumer},1651774921,0
{consumergroup=trace-token-events-consumer},1651774926,0
{consumergroup=trace-token-events-consumer},1651774931,0
{consumergroup=trace-token-events-consumer},1651774936,0
{consumergroup=trace-token-events-consumer},1651774941,0
{consumergroup=trace-token-events-consumer},1651774946,0
{consumergroup=trace-token-events-consumer},1651774951,0
{consumergroup=trace-token-events-consumer},1651774956,0
{consumergroup=trace-token-events-consumer},1651774961,0
{consumergroup=trace-token-events-consumer},1651774966,0
{consumergroup=trace-token-events-consumer},1651774971,0
{consumergroup=trace-token-events-consumer},1651774976,0
{consumergroup=trace-token-events-consumer},1651774981,0
{consumergroup=trace-token-events-consumer},1651774986,0
{consumergroup=trace-token-events-consumer},1651774991,0
{consumergroup=trace-token-events-consumer},1651774996,0
{consumergroup=trace-token-events-consumer},1651775001,0
{consumergroup=trace-token-events-consumer},1651775006,0
{consumergroup=trace-token-events-consumer},1651775011,0
{consumergroup=trace-token-events-consumer},1651775016,0
{consumergroup=trace-token-events-consumer},1651775021,0
{consumergroup=trace-token-events-consumer},1651775026,0
{consumergroup=trace-token-events-consumer},1651775031,0
{consumergroup=trace-token-events-consumer},1651775036,0
{consumergroup=trace-token-events-consumer},1651775041,0
{consumergroup=trace-token-events-consumer},1651775046,0
{consumergroup=trace-token-events-consumer},1651775051,0
{consumergroup=trace-token-events-consumer},1651775056,0
{consumergroup=trace-token-events-consumer},1651775061,0
{consumergroup=trace-token-events-consumer},1651775066,0
{consumergroup=trace-token-events-consumer},1651775071,0
{consumergroup=trace-token-events-consumer},1651775076,0
{consumergroup=trace-token-events-consumer},1651775081,0
{consumergroup=trace-token-events-consumer},1651775086,0
{consumergroup=trace-token-events-consumer},1651775091,0
{consumergroup=trace-token-events-consumer},1651775096,0
{consumergroup=trace-token-events-consumer},1651775101,0
