labels,timestamp,value
{consumergroup=__strimzi-topic-operator-kstreams},1651864979,11
{consumergroup=__strimzi-topic-operator-kstreams},1651864984,11
{consumergroup=__strimzi-topic-operator-kstreams},1651864989,11
{consumergroup=__strimzi-topic-operator-kstreams},1651864994,0
{consumergroup=__strimzi-topic-operator-kstreams},1651864999,0
{consumergroup=__strimzi-topic-operator-kstreams},1651865004,0
{consumergroup=__strimzi-topic-operator-kstreams},1651865009,0
{consumergroup=__strimzi-topic-operator-kstreams},1651865014,0
{consumergroup=__strimzi-topic-operator-kstreams},1651865019,0
{consumergroup=__strimzi-topic-operator-kstreams},1651865024,0
{consumergroup=__strimzi-topic-operator-kstreams},1651865029,0
{consumergroup=__strimzi-topic-operator-kstreams},1651865034,0
{consumergroup=__strimzi-topic-operator-kstreams},1651865039,0
{consumergroup=__strimzi-topic-operator-kstreams},1651865044,0
{consumergroup=__strimzi-topic-operator-kstreams},1651865049,0
{consumergroup=__strimzi-topic-operator-kstreams},1651865054,0
{consumergroup=__strimzi-topic-operator-kstreams},1651865059,0
{consumergroup=__strimzi-topic-operator-kstreams},1651865064,0
{consumergroup=__strimzi-topic-operator-kstreams},1651865069,0
{consumergroup=__strimzi-topic-operator-kstreams},1651865074,0
{consumergroup=__strimzi-topic-operator-kstreams},1651865079,0
{consumergroup=__strimzi-topic-operator-kstreams},1651865084,0
{consumergroup=__strimzi-topic-operator-kstreams},1651865089,0
{consumergroup=__strimzi-topic-operator-kstreams},1651865094,0
{consumergroup=__strimzi-topic-operator-kstreams},1651865099,0
{consumergroup=__strimzi-topic-operator-kstreams},1651865104,0
{consumergroup=__strimzi-topic-operator-kstreams},1651865109,0
{consumergroup=__strimzi-topic-operator-kstreams},1651865114,0
{consumergroup=__strimzi-topic-operator-kstreams},1651865119,0
{consumergroup=__strimzi-topic-operator-kstreams},1651865124,0
{consumergroup=__strimzi-topic-operator-kstreams},1651865129,0
{consumergroup=__strimzi-topic-operator-kstreams},1651865134,0
{consumergroup=__strimzi-topic-operator-kstreams},1651865139,0
{consumergroup=__strimzi-topic-operator-kstreams},1651865144,0
{consumergroup=__strimzi-topic-operator-kstreams},1651865149,0
{consumergroup=__strimzi-topic-operator-kstreams},1651865154,0
{consumergroup=__strimzi-topic-operator-kstreams},1651865159,0
{consumergroup=__strimzi-topic-operator-kstreams},1651865164,0
{consumergroup=__strimzi-topic-operator-kstreams},1651865169,0
{consumergroup=__strimzi-topic-operator-kstreams},1651865174,0
{consumergroup=__strimzi-topic-operator-kstreams},1651865179,0
{consumergroup=__strimzi-topic-operator-kstreams},1651865184,0
{consumergroup=__strimzi-topic-operator-kstreams},1651865189,0
{consumergroup=__strimzi-topic-operator-kstreams},1651865194,0
{consumergroup=__strimzi-topic-operator-kstreams},1651865199,0
{consumergroup=__strimzi-topic-operator-kstreams},1651865204,0
{consumergroup=__strimzi-topic-operator-kstreams},1651865209,0
{consumergroup=__strimzi-topic-operator-kstreams},1651865214,0
{consumergroup=__strimzi-topic-operator-kstreams},1651865219,0
{consumergroup=__strimzi-topic-operator-kstreams},1651865224,0
{consumergroup=__strimzi-topic-operator-kstreams},1651865229,0
{consumergroup=adapter-service},1651865009,440258
{consumergroup=adapter-service},1651865014,440258
{consumergroup=adapter-service},1651865019,440258
{consumergroup=adapter-service},1651865024,2576549
{consumergroup=adapter-service},1651865029,2576549
{consumergroup=adapter-service},1651865034,2576549
{consumergroup=adapter-service},1651865039,4068735
{consumergroup=adapter-service},1651865044,4068735
{consumergroup=adapter-service},1651865049,4068735
{consumergroup=adapter-service},1651865054,5176898
{consumergroup=adapter-service},1651865059,5176898
{consumergroup=adapter-service},1651865064,5176898
{consumergroup=adapter-service},1651865069,5813468
{consumergroup=adapter-service},1651865074,5813468
{consumergroup=adapter-service},1651865079,5813468
{consumergroup=adapter-service},1651865084,6354481
{consumergroup=adapter-service},1651865089,6354481
{consumergroup=adapter-service},1651865094,6354481
{consumergroup=adapter-service},1651865099,6620318
{consumergroup=adapter-service},1651865104,6620318
{consumergroup=adapter-service},1651865109,6620318
{consumergroup=adapter-service},1651865114,6796135
{consumergroup=adapter-service},1651865119,6796135
{consumergroup=adapter-service},1651865124,6796135
{consumergroup=adapter-service},1651865129,6934142
{consumergroup=adapter-service},1651865134,6934142
{consumergroup=adapter-service},1651865139,6934142
{consumergroup=adapter-service},1651865144,7379105
{consumergroup=adapter-service},1651865149,7379105
{consumergroup=adapter-service},1651865154,7379105
{consumergroup=adapter-service},1651865159,7522151
{consumergroup=adapter-service},1651865164,7522151
{consumergroup=adapter-service},1651865169,7522151
{consumergroup=adapter-service},1651865174,7804824
{consumergroup=adapter-service},1651865179,7804824
{consumergroup=adapter-service},1651865184,7804824
{consumergroup=adapter-service},1651865189,7858381
{consumergroup=adapter-service},1651865194,7858381
{consumergroup=adapter-service},1651865199,7858381
{consumergroup=adapter-service},1651865204,7812792
{consumergroup=adapter-service},1651865209,7812792
{consumergroup=adapter-service},1651865214,7812792
{consumergroup=adapter-service},1651865219,7976439
{consumergroup=adapter-service},1651865224,7976439
{consumergroup=adapter-service},1651865229,7976439
