labels,timestamp,value
{consumergroup=__strimzi-topic-operator-kstreams},1651801471,8
{consumergroup=__strimzi-topic-operator-kstreams},1651801476,8
{consumergroup=__strimzi-topic-operator-kstreams},1651801481,8
{consumergroup=__strimzi-topic-operator-kstreams},1651801486,8
{consumergroup=__strimzi-topic-operator-kstreams},1651801491,8
{consumergroup=__strimzi-topic-operator-kstreams},1651801496,8
{consumergroup=__strimzi-topic-operator-kstreams},1651801501,0
{consumergroup=__strimzi-topic-operator-kstreams},1651801506,0
{consumergroup=__strimzi-topic-operator-kstreams},1651801511,0
{consumergroup=__strimzi-topic-operator-kstreams},1651801516,0
{consumergroup=__strimzi-topic-operator-kstreams},1651801521,0
{consumergroup=__strimzi-topic-operator-kstreams},1651801526,0
{consumergroup=__strimzi-topic-operator-kstreams},1651801531,0
{consumergroup=__strimzi-topic-operator-kstreams},1651801536,0
{consumergroup=__strimzi-topic-operator-kstreams},1651801541,0
{consumergroup=__strimzi-topic-operator-kstreams},1651801546,0
{consumergroup=__strimzi-topic-operator-kstreams},1651801551,0
{consumergroup=__strimzi-topic-operator-kstreams},1651801556,0
{consumergroup=__strimzi-topic-operator-kstreams},1651801561,0
{consumergroup=__strimzi-topic-operator-kstreams},1651801566,0
{consumergroup=__strimzi-topic-operator-kstreams},1651801571,0
{consumergroup=__strimzi-topic-operator-kstreams},1651801576,0
{consumergroup=__strimzi-topic-operator-kstreams},1651801581,0
{consumergroup=__strimzi-topic-operator-kstreams},1651801586,0
{consumergroup=__strimzi-topic-operator-kstreams},1651801591,0
{consumergroup=__strimzi-topic-operator-kstreams},1651801596,0
{consumergroup=__strimzi-topic-operator-kstreams},1651801601,0
{consumergroup=__strimzi-topic-operator-kstreams},1651801606,0
{consumergroup=__strimzi-topic-operator-kstreams},1651801611,0
{consumergroup=__strimzi-topic-operator-kstreams},1651801616,0
{consumergroup=__strimzi-topic-operator-kstreams},1651801621,0
{consumergroup=__strimzi-topic-operator-kstreams},1651801626,0
{consumergroup=__strimzi-topic-operator-kstreams},1651801631,0
{consumergroup=__strimzi-topic-operator-kstreams},1651801636,0
{consumergroup=__strimzi-topic-operator-kstreams},1651801641,0
{consumergroup=__strimzi-topic-operator-kstreams},1651801646,0
{consumergroup=__strimzi-topic-operator-kstreams},1651801651,0
{consumergroup=__strimzi-topic-operator-kstreams},1651801656,0
{consumergroup=__strimzi-topic-operator-kstreams},1651801661,0
{consumergroup=__strimzi-topic-operator-kstreams},1651801666,0
{consumergroup=__strimzi-topic-operator-kstreams},1651801671,0
{consumergroup=__strimzi-topic-operator-kstreams},1651801676,0
{consumergroup=__strimzi-topic-operator-kstreams},1651801681,0
{consumergroup=__strimzi-topic-operator-kstreams},1651801686,0
{consumergroup=__strimzi-topic-operator-kstreams},1651801691,0
{consumergroup=__strimzi-topic-operator-kstreams},1651801696,0
{consumergroup=__strimzi-topic-operator-kstreams},1651801701,0
{consumergroup=__strimzi-topic-operator-kstreams},1651801706,0
{consumergroup=__strimzi-topic-operator-kstreams},1651801711,0
{consumergroup=__strimzi-topic-operator-kstreams},1651801716,0
{consumergroup=__strimzi-topic-operator-kstreams},1651801721,0
{consumergroup=__strimzi-topic-operator-kstreams},1651801726,0
{consumergroup=__strimzi-topic-operator-kstreams},1651801731,0
{consumergroup=__strimzi-topic-operator-kstreams},1651801736,0
{consumergroup=__strimzi-topic-operator-kstreams},1651801741,0
{consumergroup=__strimzi-topic-operator-kstreams},1651801746,0
{consumergroup=__strimzi-topic-operator-kstreams},1651801751,0
{consumergroup=__strimzi-topic-operator-kstreams},1651801756,0
{consumergroup=__strimzi-topic-operator-kstreams},1651801761,0
{consumergroup=__strimzi-topic-operator-kstreams},1651801766,0
{consumergroup=__strimzi-topic-operator-kstreams},1651801771,0
{consumergroup=__strimzi-topic-operator-kstreams},1651801776,0
{consumergroup=__strimzi-topic-operator-kstreams},1651801781,0
{consumergroup=__strimzi-topic-operator-kstreams},1651801786,0
{consumergroup=__strimzi-topic-operator-kstreams},1651801791,0
{consumergroup=__strimzi-topic-operator-kstreams},1651801796,0
{consumergroup=__strimzi-topic-operator-kstreams},1651801801,0
{consumergroup=__strimzi-topic-operator-kstreams},1651801806,0
{consumergroup=__strimzi-topic-operator-kstreams},1651801811,0
{consumergroup=__strimzi-topic-operator-kstreams},1651801816,0
{consumergroup=__strimzi-topic-operator-kstreams},1651801821,0
{consumergroup=__strimzi-topic-operator-kstreams},1651801826,0
{consumergroup=__strimzi-topic-operator-kstreams},1651801831,0
{consumergroup=__strimzi-topic-operator-kstreams},1651801836,0
{consumergroup=__strimzi-topic-operator-kstreams},1651801841,0
{consumergroup=__strimzi-topic-operator-kstreams},1651801846,0
{consumergroup=__strimzi-topic-operator-kstreams},1651801851,0
{consumergroup=__strimzi-topic-operator-kstreams},1651801856,0
{consumergroup=__strimzi-topic-operator-kstreams},1651801861,0
{consumergroup=__strimzi-topic-operator-kstreams},1651801866,0
{consumergroup=__strimzi-topic-operator-kstreams},1651801871,0
{consumergroup=__strimzi-topic-operator-kstreams},1651801876,0
{consumergroup=__strimzi-topic-operator-kstreams},1651801881,0
{consumergroup=__strimzi-topic-operator-kstreams},1651801886,0
{consumergroup=__strimzi-topic-operator-kstreams},1651801891,0
{consumergroup=__strimzi-topic-operator-kstreams},1651801896,0
{consumergroup=__strimzi-topic-operator-kstreams},1651801901,0
{consumergroup=__strimzi-topic-operator-kstreams},1651801906,0
{consumergroup=__strimzi-topic-operator-kstreams},1651801911,0
{consumergroup=trace-service},1651801516,472219
{consumergroup=trace-service},1651801521,472219
{consumergroup=trace-service},1651801526,472219
{consumergroup=trace-service},1651801531,278218
{consumergroup=trace-service},1651801536,278218
{consumergroup=trace-service},1651801541,278218
{consumergroup=trace-service},1651801546,606391
{consumergroup=trace-service},1651801551,606391
{consumergroup=trace-service},1651801556,606391
{consumergroup=trace-service},1651801561,913261
{consumergroup=trace-service},1651801566,913261
{consumergroup=trace-service},1651801571,913261
{consumergroup=trace-service},1651801576,773991
{consumergroup=trace-service},1651801581,773991
{consumergroup=trace-service},1651801586,773991
{consumergroup=trace-service},1651801591,1260178
{consumergroup=trace-service},1651801596,1260178
{consumergroup=trace-service},1651801601,1260178
{consumergroup=trace-service},1651801606,641311
{consumergroup=trace-service},1651801611,641311
{consumergroup=trace-service},1651801616,641311
{consumergroup=trace-service},1651801621,652988
{consumergroup=trace-service},1651801626,652988
{consumergroup=trace-service},1651801631,652988
{consumergroup=trace-service},1651801636,490451
{consumergroup=trace-service},1651801641,490451
{consumergroup=trace-service},1651801646,490451
{consumergroup=trace-service},1651801651,276020
{consumergroup=trace-service},1651801656,276020
{consumergroup=trace-service},1651801661,276020
{consumergroup=trace-service},1651801666,535625
{consumergroup=trace-service},1651801671,535625
{consumergroup=trace-service},1651801676,535625
{consumergroup=trace-service},1651801681,1254960
{consumergroup=trace-service},1651801686,1254960
{consumergroup=trace-service},1651801691,1254960
{consumergroup=trace-service},1651801696,570242
{consumergroup=trace-service},1651801701,570242
{consumergroup=trace-service},1651801706,570242
{consumergroup=trace-service},1651801711,1019033
{consumergroup=trace-service},1651801716,1019033
{consumergroup=trace-service},1651801721,1019033
{consumergroup=trace-service},1651801726,495989
{consumergroup=trace-service},1651801731,495989
{consumergroup=trace-service},1651801736,495989
{consumergroup=trace-service},1651801741,1016166
{consumergroup=trace-service},1651801746,1016166
{consumergroup=trace-service},1651801751,1016166
{consumergroup=trace-service},1651801756,490202
{consumergroup=trace-service},1651801761,490202
{consumergroup=trace-service},1651801766,490202
{consumergroup=trace-service},1651801771,682195
{consumergroup=trace-service},1651801776,682195
{consumergroup=trace-service},1651801781,682195
{consumergroup=trace-service},1651801786,527216
{consumergroup=trace-service},1651801791,527216
{consumergroup=trace-service},1651801796,527216
{consumergroup=trace-service},1651801801,1144378
{consumergroup=trace-service},1651801806,1144378
{consumergroup=trace-service},1651801811,1144378
{consumergroup=trace-service},1651801816,540413
{consumergroup=trace-service},1651801821,540413
{consumergroup=trace-service},1651801826,540413
{consumergroup=trace-service},1651801831,1110675
{consumergroup=trace-service},1651801836,1110675
{consumergroup=trace-service},1651801841,1110675
{consumergroup=trace-service},1651801846,844350
{consumergroup=trace-service},1651801851,844350
{consumergroup=trace-service},1651801856,844350
{consumergroup=trace-service},1651801861,1293770
{consumergroup=trace-service},1651801866,1293770
{consumergroup=trace-service},1651801871,1293770
{consumergroup=trace-service},1651801876,745657
{consumergroup=trace-service},1651801881,745657
{consumergroup=trace-service},1651801886,745657
{consumergroup=trace-service},1651801891,1295357
{consumergroup=trace-service},1651801896,1295357
{consumergroup=trace-service},1651801901,1295357
{consumergroup=trace-service},1651801906,1144017
{consumergroup=trace-service},1651801911,1144017
{consumergroup=trace-token-events-consumer},1651801501,0
{consumergroup=trace-token-events-consumer},1651801506,0
{consumergroup=trace-token-events-consumer},1651801511,0
{consumergroup=trace-token-events-consumer},1651801516,0
{consumergroup=trace-token-events-consumer},1651801521,0
{consumergroup=trace-token-events-consumer},1651801526,0
{consumergroup=trace-token-events-consumer},1651801531,0
{consumergroup=trace-token-events-consumer},1651801536,0
{consumergroup=trace-token-events-consumer},1651801541,0
{consumergroup=trace-token-events-consumer},1651801546,0
{consumergroup=trace-token-events-consumer},1651801551,0
{consumergroup=trace-token-events-consumer},1651801556,0
{consumergroup=trace-token-events-consumer},1651801561,0
{consumergroup=trace-token-events-consumer},1651801566,0
{consumergroup=trace-token-events-consumer},1651801571,0
{consumergroup=trace-token-events-consumer},1651801576,0
{consumergroup=trace-token-events-consumer},1651801581,0
{consumergroup=trace-token-events-consumer},1651801586,0
{consumergroup=trace-token-events-consumer},1651801591,0
{consumergroup=trace-token-events-consumer},1651801596,0
{consumergroup=trace-token-events-consumer},1651801601,0
{consumergroup=trace-token-events-consumer},1651801606,0
{consumergroup=trace-token-events-consumer},1651801611,0
{consumergroup=trace-token-events-consumer},1651801616,0
{consumergroup=trace-token-events-consumer},1651801621,0
{consumergroup=trace-token-events-consumer},1651801626,0
{consumergroup=trace-token-events-consumer},1651801631,0
{consumergroup=trace-token-events-consumer},1651801636,0
{consumergroup=trace-token-events-consumer},1651801641,0
{consumergroup=trace-token-events-consumer},1651801646,0
{consumergroup=trace-token-events-consumer},1651801651,0
{consumergroup=trace-token-events-consumer},1651801656,0
{consumergroup=trace-token-events-consumer},1651801661,0
{consumergroup=trace-token-events-consumer},1651801666,0
{consumergroup=trace-token-events-consumer},1651801671,0
{consumergroup=trace-token-events-consumer},1651801676,0
{consumergroup=trace-token-events-consumer},1651801681,0
{consumergroup=trace-token-events-consumer},1651801686,0
{consumergroup=trace-token-events-consumer},1651801691,0
{consumergroup=trace-token-events-consumer},1651801696,0
{consumergroup=trace-token-events-consumer},1651801701,0
{consumergroup=trace-token-events-consumer},1651801706,0
{consumergroup=trace-token-events-consumer},1651801711,0
{consumergroup=trace-token-events-consumer},1651801716,0
{consumergroup=trace-token-events-consumer},1651801721,0
{consumergroup=trace-token-events-consumer},1651801726,0
{consumergroup=trace-token-events-consumer},1651801731,0
{consumergroup=trace-token-events-consumer},1651801736,0
{consumergroup=trace-token-events-consumer},1651801741,0
{consumergroup=trace-token-events-consumer},1651801746,0
{consumergroup=trace-token-events-consumer},1651801751,0
{consumergroup=trace-token-events-consumer},1651801756,0
{consumergroup=trace-token-events-consumer},1651801761,0
{consumergroup=trace-token-events-consumer},1651801766,0
{consumergroup=trace-token-events-consumer},1651801771,0
{consumergroup=trace-token-events-consumer},1651801776,0
{consumergroup=trace-token-events-consumer},1651801781,0
{consumergroup=trace-token-events-consumer},1651801786,0
{consumergroup=trace-token-events-consumer},1651801791,0
{consumergroup=trace-token-events-consumer},1651801796,0
{consumergroup=trace-token-events-consumer},1651801801,0
{consumergroup=trace-token-events-consumer},1651801806,0
{consumergroup=trace-token-events-consumer},1651801811,0
{consumergroup=trace-token-events-consumer},1651801816,0
{consumergroup=trace-token-events-consumer},1651801821,0
{consumergroup=trace-token-events-consumer},1651801826,0
{consumergroup=trace-token-events-consumer},1651801831,0
{consumergroup=trace-token-events-consumer},1651801836,0
{consumergroup=trace-token-events-consumer},1651801841,0
{consumergroup=trace-token-events-consumer},1651801846,0
{consumergroup=trace-token-events-consumer},1651801851,0
{consumergroup=trace-token-events-consumer},1651801856,0
{consumergroup=trace-token-events-consumer},1651801861,0
{consumergroup=trace-token-events-consumer},1651801866,0
{consumergroup=trace-token-events-consumer},1651801871,0
{consumergroup=trace-token-events-consumer},1651801876,0
{consumergroup=trace-token-events-consumer},1651801881,0
{consumergroup=trace-token-events-consumer},1651801886,0
{consumergroup=trace-token-events-consumer},1651801891,0
{consumergroup=trace-token-events-consumer},1651801896,0
{consumergroup=trace-token-events-consumer},1651801901,0
{consumergroup=trace-token-events-consumer},1651801906,0
{consumergroup=trace-token-events-consumer},1651801911,0
