labels,timestamp,value
{consumergroup=__strimzi-topic-operator-kstreams},1651789168,8
{consumergroup=__strimzi-topic-operator-kstreams},1651789173,8
{consumergroup=__strimzi-topic-operator-kstreams},1651789178,8
{consumergroup=__strimzi-topic-operator-kstreams},1651789183,11
{consumergroup=__strimzi-topic-operator-kstreams},1651789188,11
{consumergroup=__strimzi-topic-operator-kstreams},1651789193,11
{consumergroup=__strimzi-topic-operator-kstreams},1651789198,0
{consumergroup=__strimzi-topic-operator-kstreams},1651789203,0
{consumergroup=__strimzi-topic-operator-kstreams},1651789208,0
{consumergroup=__strimzi-topic-operator-kstreams},1651789213,0
{consumergroup=__strimzi-topic-operator-kstreams},1651789218,0
{consumergroup=__strimzi-topic-operator-kstreams},1651789223,0
{consumergroup=__strimzi-topic-operator-kstreams},1651789228,0
{consumergroup=__strimzi-topic-operator-kstreams},1651789233,0
{consumergroup=__strimzi-topic-operator-kstreams},1651789238,0
{consumergroup=__strimzi-topic-operator-kstreams},1651789243,0
{consumergroup=__strimzi-topic-operator-kstreams},1651789248,0
{consumergroup=__strimzi-topic-operator-kstreams},1651789253,0
{consumergroup=__strimzi-topic-operator-kstreams},1651789258,0
{consumergroup=__strimzi-topic-operator-kstreams},1651789263,0
{consumergroup=__strimzi-topic-operator-kstreams},1651789268,0
{consumergroup=__strimzi-topic-operator-kstreams},1651789273,0
{consumergroup=__strimzi-topic-operator-kstreams},1651789278,0
{consumergroup=__strimzi-topic-operator-kstreams},1651789283,0
{consumergroup=__strimzi-topic-operator-kstreams},1651789288,0
{consumergroup=__strimzi-topic-operator-kstreams},1651789293,0
{consumergroup=__strimzi-topic-operator-kstreams},1651789298,0
{consumergroup=__strimzi-topic-operator-kstreams},1651789303,0
{consumergroup=__strimzi-topic-operator-kstreams},1651789308,0
{consumergroup=__strimzi-topic-operator-kstreams},1651789313,0
{consumergroup=__strimzi-topic-operator-kstreams},1651789318,0
{consumergroup=__strimzi-topic-operator-kstreams},1651789323,0
{consumergroup=__strimzi-topic-operator-kstreams},1651789328,0
{consumergroup=__strimzi-topic-operator-kstreams},1651789333,0
{consumergroup=__strimzi-topic-operator-kstreams},1651789338,0
{consumergroup=__strimzi-topic-operator-kstreams},1651789343,0
{consumergroup=__strimzi-topic-operator-kstreams},1651789348,0
{consumergroup=__strimzi-topic-operator-kstreams},1651789353,0
{consumergroup=__strimzi-topic-operator-kstreams},1651789358,0
{consumergroup=__strimzi-topic-operator-kstreams},1651789363,0
{consumergroup=__strimzi-topic-operator-kstreams},1651789368,0
{consumergroup=__strimzi-topic-operator-kstreams},1651789373,0
{consumergroup=__strimzi-topic-operator-kstreams},1651789378,0
{consumergroup=__strimzi-topic-operator-kstreams},1651789383,0
{consumergroup=__strimzi-topic-operator-kstreams},1651789388,0
{consumergroup=__strimzi-topic-operator-kstreams},1651789393,0
{consumergroup=__strimzi-topic-operator-kstreams},1651789398,0
{consumergroup=__strimzi-topic-operator-kstreams},1651789403,0
{consumergroup=__strimzi-topic-operator-kstreams},1651789408,0
{consumergroup=__strimzi-topic-operator-kstreams},1651789413,0
{consumergroup=__strimzi-topic-operator-kstreams},1651789418,0
{consumergroup=__strimzi-topic-operator-kstreams},1651789423,0
{consumergroup=__strimzi-topic-operator-kstreams},1651789428,0
{consumergroup=__strimzi-topic-operator-kstreams},1651789433,0
{consumergroup=__strimzi-topic-operator-kstreams},1651789438,0
{consumergroup=__strimzi-topic-operator-kstreams},1651789443,0
{consumergroup=__strimzi-topic-operator-kstreams},1651789448,0
{consumergroup=__strimzi-topic-operator-kstreams},1651789453,0
{consumergroup=__strimzi-topic-operator-kstreams},1651789458,0
{consumergroup=__strimzi-topic-operator-kstreams},1651789463,0
{consumergroup=__strimzi-topic-operator-kstreams},1651789468,0
{consumergroup=__strimzi-topic-operator-kstreams},1651789473,0
{consumergroup=__strimzi-topic-operator-kstreams},1651789478,0
{consumergroup=__strimzi-topic-operator-kstreams},1651789483,0
{consumergroup=__strimzi-topic-operator-kstreams},1651789488,0
{consumergroup=__strimzi-topic-operator-kstreams},1651789493,0
{consumergroup=__strimzi-topic-operator-kstreams},1651789498,0
{consumergroup=__strimzi-topic-operator-kstreams},1651789503,0
{consumergroup=__strimzi-topic-operator-kstreams},1651789508,0
{consumergroup=__strimzi-topic-operator-kstreams},1651789513,0
{consumergroup=__strimzi-topic-operator-kstreams},1651789518,0
{consumergroup=__strimzi-topic-operator-kstreams},1651789523,0
{consumergroup=__strimzi-topic-operator-kstreams},1651789528,0
{consumergroup=__strimzi-topic-operator-kstreams},1651789533,0
{consumergroup=__strimzi-topic-operator-kstreams},1651789538,0
{consumergroup=__strimzi-topic-operator-kstreams},1651789543,0
{consumergroup=__strimzi-topic-operator-kstreams},1651789548,0
{consumergroup=__strimzi-topic-operator-kstreams},1651789553,0
{consumergroup=__strimzi-topic-operator-kstreams},1651789558,0
{consumergroup=__strimzi-topic-operator-kstreams},1651789563,0
{consumergroup=__strimzi-topic-operator-kstreams},1651789568,0
{consumergroup=__strimzi-topic-operator-kstreams},1651789573,0
{consumergroup=__strimzi-topic-operator-kstreams},1651789578,0
{consumergroup=__strimzi-topic-operator-kstreams},1651789583,0
{consumergroup=__strimzi-topic-operator-kstreams},1651789588,0
{consumergroup=__strimzi-topic-operator-kstreams},1651789593,0
{consumergroup=__strimzi-topic-operator-kstreams},1651789598,0
{consumergroup=__strimzi-topic-operator-kstreams},1651789603,0
{consumergroup=__strimzi-topic-operator-kstreams},1651789608,0
{consumergroup=trace-service},1651789213,126847
{consumergroup=trace-service},1651789218,126847
{consumergroup=trace-service},1651789223,126847
{consumergroup=trace-service},1651789228,221097
{consumergroup=trace-service},1651789233,221097
{consumergroup=trace-service},1651789238,221097
{consumergroup=trace-service},1651789243,418560
{consumergroup=trace-service},1651789248,418560
{consumergroup=trace-service},1651789253,418560
{consumergroup=trace-service},1651789258,542182
{consumergroup=trace-service},1651789263,542182
{consumergroup=trace-service},1651789268,542182
{consumergroup=trace-service},1651789273,515466
{consumergroup=trace-service},1651789278,515466
{consumergroup=trace-service},1651789283,515466
{consumergroup=trace-service},1651789288,848103
{consumergroup=trace-service},1651789293,848103
{consumergroup=trace-service},1651789298,848103
{consumergroup=trace-service},1651789303,337029
{consumergroup=trace-service},1651789308,337029
{consumergroup=trace-service},1651789313,337029
{consumergroup=trace-service},1651789318,126653
{consumergroup=trace-service},1651789323,126653
{consumergroup=trace-service},1651789328,126653
{consumergroup=trace-service},1651789333,294426
{consumergroup=trace-service},1651789338,294426
{consumergroup=trace-service},1651789343,294426
{consumergroup=trace-service},1651789348,87645
{consumergroup=trace-service},1651789353,87645
{consumergroup=trace-service},1651789358,87645
{consumergroup=trace-service},1651789363,297407
{consumergroup=trace-service},1651789368,297407
{consumergroup=trace-service},1651789373,297407
{consumergroup=trace-service},1651789378,180548
{consumergroup=trace-service},1651789383,180548
{consumergroup=trace-service},1651789388,180548
{consumergroup=trace-service},1651789393,313479
{consumergroup=trace-service},1651789398,313479
{consumergroup=trace-service},1651789403,313479
{consumergroup=trace-service},1651789408,243477
{consumergroup=trace-service},1651789413,243477
{consumergroup=trace-service},1651789418,243477
{consumergroup=trace-service},1651789423,247959
{consumergroup=trace-service},1651789428,247959
{consumergroup=trace-service},1651789433,247959
{consumergroup=trace-service},1651789438,212122
{consumergroup=trace-service},1651789443,212122
{consumergroup=trace-service},1651789448,212122
{consumergroup=trace-service},1651789453,321103
{consumergroup=trace-service},1651789458,321103
{consumergroup=trace-service},1651789463,321103
{consumergroup=trace-service},1651789468,86770
{consumergroup=trace-service},1651789473,86770
{consumergroup=trace-service},1651789478,86770
{consumergroup=trace-service},1651789483,322662
{consumergroup=trace-service},1651789488,322662
{consumergroup=trace-service},1651789493,322662
{consumergroup=trace-service},1651789498,270793
{consumergroup=trace-service},1651789503,270793
{consumergroup=trace-service},1651789508,270793
{consumergroup=trace-service},1651789513,284775
{consumergroup=trace-service},1651789518,284775
{consumergroup=trace-service},1651789523,284775
{consumergroup=trace-service},1651789528,84694
{consumergroup=trace-service},1651789533,84694
{consumergroup=trace-service},1651789538,84694
{consumergroup=trace-service},1651789543,309691
{consumergroup=trace-service},1651789548,309691
{consumergroup=trace-service},1651789553,309691
{consumergroup=trace-service},1651789558,642206
{consumergroup=trace-service},1651789563,642206
{consumergroup=trace-service},1651789568,642206
{consumergroup=trace-service},1651789573,323629
{consumergroup=trace-service},1651789578,323629
{consumergroup=trace-service},1651789583,323629
{consumergroup=trace-service},1651789588,105954
{consumergroup=trace-service},1651789593,105954
{consumergroup=trace-service},1651789598,105954
{consumergroup=trace-service},1651789603,274526
{consumergroup=trace-service},1651789608,274526
{consumergroup=trace-token-events-consumer},1651789198,0
{consumergroup=trace-token-events-consumer},1651789203,0
{consumergroup=trace-token-events-consumer},1651789208,0
{consumergroup=trace-token-events-consumer},1651789213,0
{consumergroup=trace-token-events-consumer},1651789218,0
{consumergroup=trace-token-events-consumer},1651789223,0
{consumergroup=trace-token-events-consumer},1651789228,0
{consumergroup=trace-token-events-consumer},1651789233,0
{consumergroup=trace-token-events-consumer},1651789238,0
{consumergroup=trace-token-events-consumer},1651789243,0
{consumergroup=trace-token-events-consumer},1651789248,0
{consumergroup=trace-token-events-consumer},1651789253,0
{consumergroup=trace-token-events-consumer},1651789258,0
{consumergroup=trace-token-events-consumer},1651789263,0
{consumergroup=trace-token-events-consumer},1651789268,0
{consumergroup=trace-token-events-consumer},1651789273,0
{consumergroup=trace-token-events-consumer},1651789278,0
{consumergroup=trace-token-events-consumer},1651789283,0
{consumergroup=trace-token-events-consumer},1651789288,0
{consumergroup=trace-token-events-consumer},1651789293,0
{consumergroup=trace-token-events-consumer},1651789298,0
{consumergroup=trace-token-events-consumer},1651789303,0
{consumergroup=trace-token-events-consumer},1651789308,0
{consumergroup=trace-token-events-consumer},1651789313,0
{consumergroup=trace-token-events-consumer},1651789318,0
{consumergroup=trace-token-events-consumer},1651789323,0
{consumergroup=trace-token-events-consumer},1651789328,0
{consumergroup=trace-token-events-consumer},1651789333,0
{consumergroup=trace-token-events-consumer},1651789338,0
{consumergroup=trace-token-events-consumer},1651789343,0
{consumergroup=trace-token-events-consumer},1651789348,0
{consumergroup=trace-token-events-consumer},1651789353,0
{consumergroup=trace-token-events-consumer},1651789358,0
{consumergroup=trace-token-events-consumer},1651789363,0
{consumergroup=trace-token-events-consumer},1651789368,0
{consumergroup=trace-token-events-consumer},1651789373,0
{consumergroup=trace-token-events-consumer},1651789378,0
{consumergroup=trace-token-events-consumer},1651789383,0
{consumergroup=trace-token-events-consumer},1651789388,0
{consumergroup=trace-token-events-consumer},1651789393,0
{consumergroup=trace-token-events-consumer},1651789398,0
{consumergroup=trace-token-events-consumer},1651789403,0
{consumergroup=trace-token-events-consumer},1651789408,0
{consumergroup=trace-token-events-consumer},1651789413,0
{consumergroup=trace-token-events-consumer},1651789418,0
{consumergroup=trace-token-events-consumer},1651789423,0
{consumergroup=trace-token-events-consumer},1651789428,0
{consumergroup=trace-token-events-consumer},1651789433,0
{consumergroup=trace-token-events-consumer},1651789438,0
{consumergroup=trace-token-events-consumer},1651789443,0
{consumergroup=trace-token-events-consumer},1651789448,0
{consumergroup=trace-token-events-consumer},1651789453,0
{consumergroup=trace-token-events-consumer},1651789458,0
{consumergroup=trace-token-events-consumer},1651789463,0
{consumergroup=trace-token-events-consumer},1651789468,0
{consumergroup=trace-token-events-consumer},1651789473,0
{consumergroup=trace-token-events-consumer},1651789478,0
{consumergroup=trace-token-events-consumer},1651789483,0
{consumergroup=trace-token-events-consumer},1651789488,0
{consumergroup=trace-token-events-consumer},1651789493,0
{consumergroup=trace-token-events-consumer},1651789498,0
{consumergroup=trace-token-events-consumer},1651789503,0
{consumergroup=trace-token-events-consumer},1651789508,0
{consumergroup=trace-token-events-consumer},1651789513,0
{consumergroup=trace-token-events-consumer},1651789518,0
{consumergroup=trace-token-events-consumer},1651789523,0
{consumergroup=trace-token-events-consumer},1651789528,0
{consumergroup=trace-token-events-consumer},1651789533,0
{consumergroup=trace-token-events-consumer},1651789538,0
{consumergroup=trace-token-events-consumer},1651789543,0
{consumergroup=trace-token-events-consumer},1651789548,0
{consumergroup=trace-token-events-consumer},1651789553,0
{consumergroup=trace-token-events-consumer},1651789558,0
{consumergroup=trace-token-events-consumer},1651789563,0
{consumergroup=trace-token-events-consumer},1651789568,0
{consumergroup=trace-token-events-consumer},1651789573,0
{consumergroup=trace-token-events-consumer},1651789578,0
{consumergroup=trace-token-events-consumer},1651789583,0
{consumergroup=trace-token-events-consumer},1651789588,0
{consumergroup=trace-token-events-consumer},1651789593,0
{consumergroup=trace-token-events-consumer},1651789598,0
{consumergroup=trace-token-events-consumer},1651789603,0
{consumergroup=trace-token-events-consumer},1651789608,0
