labels,timestamp,value
{consumergroup=__strimzi-topic-operator-kstreams},1651780343,9
{consumergroup=__strimzi-topic-operator-kstreams},1651780348,9
{consumergroup=__strimzi-topic-operator-kstreams},1651780353,9
{consumergroup=__strimzi-topic-operator-kstreams},1651780358,0
{consumergroup=__strimzi-topic-operator-kstreams},1651780363,0
{consumergroup=__strimzi-topic-operator-kstreams},1651780368,0
{consumergroup=__strimzi-topic-operator-kstreams},1651780373,3
{consumergroup=__strimzi-topic-operator-kstreams},1651780378,3
{consumergroup=__strimzi-topic-operator-kstreams},1651780383,3
{consumergroup=__strimzi-topic-operator-kstreams},1651780388,0
{consumergroup=__strimzi-topic-operator-kstreams},1651780393,0
{consumergroup=__strimzi-topic-operator-kstreams},1651780398,0
{consumergroup=__strimzi-topic-operator-kstreams},1651780403,0
{consumergroup=__strimzi-topic-operator-kstreams},1651780408,0
{consumergroup=__strimzi-topic-operator-kstreams},1651780413,0
{consumergroup=__strimzi-topic-operator-kstreams},1651780418,0
{consumergroup=__strimzi-topic-operator-kstreams},1651780423,0
{consumergroup=__strimzi-topic-operator-kstreams},1651780428,0
{consumergroup=__strimzi-topic-operator-kstreams},1651780433,0
{consumergroup=__strimzi-topic-operator-kstreams},1651780438,0
{consumergroup=__strimzi-topic-operator-kstreams},1651780443,0
{consumergroup=__strimzi-topic-operator-kstreams},1651780448,0
{consumergroup=__strimzi-topic-operator-kstreams},1651780453,0
{consumergroup=__strimzi-topic-operator-kstreams},1651780458,0
{consumergroup=__strimzi-topic-operator-kstreams},1651780463,0
{consumergroup=__strimzi-topic-operator-kstreams},1651780468,0
{consumergroup=__strimzi-topic-operator-kstreams},1651780473,0
{consumergroup=__strimzi-topic-operator-kstreams},1651780478,0
{consumergroup=__strimzi-topic-operator-kstreams},1651780483,0
{consumergroup=__strimzi-topic-operator-kstreams},1651780488,0
{consumergroup=__strimzi-topic-operator-kstreams},1651780493,0
{consumergroup=__strimzi-topic-operator-kstreams},1651780498,0
{consumergroup=__strimzi-topic-operator-kstreams},1651780503,0
{consumergroup=__strimzi-topic-operator-kstreams},1651780508,0
{consumergroup=__strimzi-topic-operator-kstreams},1651780513,0
{consumergroup=__strimzi-topic-operator-kstreams},1651780518,0
{consumergroup=__strimzi-topic-operator-kstreams},1651780523,0
{consumergroup=__strimzi-topic-operator-kstreams},1651780528,0
{consumergroup=__strimzi-topic-operator-kstreams},1651780533,0
{consumergroup=__strimzi-topic-operator-kstreams},1651780538,0
{consumergroup=__strimzi-topic-operator-kstreams},1651780543,0
{consumergroup=__strimzi-topic-operator-kstreams},1651780548,0
{consumergroup=__strimzi-topic-operator-kstreams},1651780553,0
{consumergroup=__strimzi-topic-operator-kstreams},1651780558,0
{consumergroup=__strimzi-topic-operator-kstreams},1651780563,0
{consumergroup=__strimzi-topic-operator-kstreams},1651780568,0
{consumergroup=__strimzi-topic-operator-kstreams},1651780573,0
{consumergroup=__strimzi-topic-operator-kstreams},1651780578,0
{consumergroup=__strimzi-topic-operator-kstreams},1651780583,0
{consumergroup=__strimzi-topic-operator-kstreams},1651780588,0
{consumergroup=__strimzi-topic-operator-kstreams},1651780593,0
{consumergroup=__strimzi-topic-operator-kstreams},1651780598,0
{consumergroup=__strimzi-topic-operator-kstreams},1651780603,0
{consumergroup=__strimzi-topic-operator-kstreams},1651780608,0
{consumergroup=__strimzi-topic-operator-kstreams},1651780613,0
{consumergroup=__strimzi-topic-operator-kstreams},1651780618,0
{consumergroup=__strimzi-topic-operator-kstreams},1651780623,0
{consumergroup=__strimzi-topic-operator-kstreams},1651780628,0
{consumergroup=__strimzi-topic-operator-kstreams},1651780633,0
{consumergroup=__strimzi-topic-operator-kstreams},1651780638,0
{consumergroup=__strimzi-topic-operator-kstreams},1651780643,0
{consumergroup=__strimzi-topic-operator-kstreams},1651780648,0
{consumergroup=__strimzi-topic-operator-kstreams},1651780653,0
{consumergroup=__strimzi-topic-operator-kstreams},1651780658,0
{consumergroup=__strimzi-topic-operator-kstreams},1651780663,0
{consumergroup=__strimzi-topic-operator-kstreams},1651780668,0
{consumergroup=__strimzi-topic-operator-kstreams},1651780673,0
{consumergroup=__strimzi-topic-operator-kstreams},1651780678,0
{consumergroup=__strimzi-topic-operator-kstreams},1651780683,0
{consumergroup=__strimzi-topic-operator-kstreams},1651780688,0
{consumergroup=__strimzi-topic-operator-kstreams},1651780693,0
{consumergroup=__strimzi-topic-operator-kstreams},1651780698,0
{consumergroup=__strimzi-topic-operator-kstreams},1651780703,0
{consumergroup=__strimzi-topic-operator-kstreams},1651780708,0
{consumergroup=__strimzi-topic-operator-kstreams},1651780713,0
{consumergroup=__strimzi-topic-operator-kstreams},1651780718,0
{consumergroup=__strimzi-topic-operator-kstreams},1651780723,0
{consumergroup=__strimzi-topic-operator-kstreams},1651780728,0
{consumergroup=__strimzi-topic-operator-kstreams},1651780733,0
{consumergroup=__strimzi-topic-operator-kstreams},1651780738,0
{consumergroup=__strimzi-topic-operator-kstreams},1651780743,0
{consumergroup=__strimzi-topic-operator-kstreams},1651780748,0
{consumergroup=__strimzi-topic-operator-kstreams},1651780753,0
{consumergroup=__strimzi-topic-operator-kstreams},1651780758,0
{consumergroup=__strimzi-topic-operator-kstreams},1651780763,0
{consumergroup=__strimzi-topic-operator-kstreams},1651780768,0
{consumergroup=__strimzi-topic-operator-kstreams},1651780773,0
{consumergroup=__strimzi-topic-operator-kstreams},1651780778,0
{consumergroup=__strimzi-topic-operator-kstreams},1651780783,0
{consumergroup=__strimzi-topic-operator-kstreams},1651780788,0
{consumergroup=trace-service},1651780403,19625
{consumergroup=trace-service},1651780408,19625
{consumergroup=trace-service},1651780413,19625
{consumergroup=trace-service},1651780418,429824
{consumergroup=trace-service},1651780423,429824
{consumergroup=trace-service},1651780428,429824
{consumergroup=trace-service},1651780433,895811
{consumergroup=trace-service},1651780438,895811
{consumergroup=trace-service},1651780443,895811
{consumergroup=trace-service},1651780448,316676
{consumergroup=trace-service},1651780453,316676
{consumergroup=trace-service},1651780458,316676
{consumergroup=trace-service},1651780463,546670
{consumergroup=trace-service},1651780468,546670
{consumergroup=trace-service},1651780473,546670
{consumergroup=trace-service},1651780478,298791
{consumergroup=trace-service},1651780483,298791
{consumergroup=trace-service},1651780488,298791
{consumergroup=trace-service},1651780493,755986
{consumergroup=trace-service},1651780498,755986
{consumergroup=trace-service},1651780503,755986
{consumergroup=trace-service},1651780508,284938
{consumergroup=trace-service},1651780513,284938
{consumergroup=trace-service},1651780518,284938
{consumergroup=trace-service},1651780523,522275
{consumergroup=trace-service},1651780528,522275
{consumergroup=trace-service},1651780533,522275
{consumergroup=trace-service},1651780538,295039
{consumergroup=trace-service},1651780543,295039
{consumergroup=trace-service},1651780548,295039
{consumergroup=trace-service},1651780553,648736
{consumergroup=trace-service},1651780558,648736
{consumergroup=trace-service},1651780563,648736
{consumergroup=trace-service},1651780568,297998
{consumergroup=trace-service},1651780573,297998
{consumergroup=trace-service},1651780578,297998
{consumergroup=trace-service},1651780583,621127
{consumergroup=trace-service},1651780588,621127
{consumergroup=trace-service},1651780593,621127
{consumergroup=trace-service},1651780598,301329
{consumergroup=trace-service},1651780603,301329
{consumergroup=trace-service},1651780608,301329
{consumergroup=trace-service},1651780613,723314
{consumergroup=trace-service},1651780618,723314
{consumergroup=trace-service},1651780623,723314
{consumergroup=trace-service},1651780628,283978
{consumergroup=trace-service},1651780633,283978
{consumergroup=trace-service},1651780638,283978
{consumergroup=trace-service},1651780643,596046
{consumergroup=trace-service},1651780648,596046
{consumergroup=trace-service},1651780653,596046
{consumergroup=trace-service},1651780658,280563
{consumergroup=trace-service},1651780663,280563
{consumergroup=trace-service},1651780668,280563
{consumergroup=trace-service},1651780673,749171
{consumergroup=trace-service},1651780678,749171
{consumergroup=trace-service},1651780683,749171
{consumergroup=trace-service},1651780688,283547
{consumergroup=trace-service},1651780693,283547
{consumergroup=trace-service},1651780698,283547
{consumergroup=trace-service},1651780703,653283
{consumergroup=trace-service},1651780708,653283
{consumergroup=trace-service},1651780713,653283
{consumergroup=trace-service},1651780718,299425
{consumergroup=trace-service},1651780723,299425
{consumergroup=trace-service},1651780728,299425
{consumergroup=trace-service},1651780733,610166
{consumergroup=trace-service},1651780738,610166
{consumergroup=trace-service},1651780743,610166
{consumergroup=trace-service},1651780748,282607
{consumergroup=trace-service},1651780753,282607
{consumergroup=trace-service},1651780758,282607
{consumergroup=trace-service},1651780763,600549
{consumergroup=trace-service},1651780768,600549
{consumergroup=trace-service},1651780773,600549
{consumergroup=trace-service},1651780778,282134
{consumergroup=trace-service},1651780783,282134
{consumergroup=trace-service},1651780788,282134
{consumergroup=trace-token-events-consumer},1651780373,0
{consumergroup=trace-token-events-consumer},1651780378,0
{consumergroup=trace-token-events-consumer},1651780383,0
{consumergroup=trace-token-events-consumer},1651780388,0
{consumergroup=trace-token-events-consumer},1651780393,0
{consumergroup=trace-token-events-consumer},1651780398,0
{consumergroup=trace-token-events-consumer},1651780403,0
{consumergroup=trace-token-events-consumer},1651780408,0
{consumergroup=trace-token-events-consumer},1651780413,0
{consumergroup=trace-token-events-consumer},1651780418,0
{consumergroup=trace-token-events-consumer},1651780423,0
{consumergroup=trace-token-events-consumer},1651780428,0
{consumergroup=trace-token-events-consumer},1651780433,0
{consumergroup=trace-token-events-consumer},1651780438,0
{consumergroup=trace-token-events-consumer},1651780443,0
{consumergroup=trace-token-events-consumer},1651780448,0
{consumergroup=trace-token-events-consumer},1651780453,0
{consumergroup=trace-token-events-consumer},1651780458,0
{consumergroup=trace-token-events-consumer},1651780463,0
{consumergroup=trace-token-events-consumer},1651780468,0
{consumergroup=trace-token-events-consumer},1651780473,0
{consumergroup=trace-token-events-consumer},1651780478,0
{consumergroup=trace-token-events-consumer},1651780483,0
{consumergroup=trace-token-events-consumer},1651780488,0
{consumergroup=trace-token-events-consumer},1651780493,0
{consumergroup=trace-token-events-consumer},1651780498,0
{consumergroup=trace-token-events-consumer},1651780503,0
{consumergroup=trace-token-events-consumer},1651780508,0
{consumergroup=trace-token-events-consumer},1651780513,0
{consumergroup=trace-token-events-consumer},1651780518,0
{consumergroup=trace-token-events-consumer},1651780523,0
{consumergroup=trace-token-events-consumer},1651780528,0
{consumergroup=trace-token-events-consumer},1651780533,0
{consumergroup=trace-token-events-consumer},1651780538,0
{consumergroup=trace-token-events-consumer},1651780543,0
{consumergroup=trace-token-events-consumer},1651780548,0
{consumergroup=trace-token-events-consumer},1651780553,0
{consumergroup=trace-token-events-consumer},1651780558,0
{consumergroup=trace-token-events-consumer},1651780563,0
{consumergroup=trace-token-events-consumer},1651780568,0
{consumergroup=trace-token-events-consumer},1651780573,0
{consumergroup=trace-token-events-consumer},1651780578,0
{consumergroup=trace-token-events-consumer},1651780583,0
{consumergroup=trace-token-events-consumer},1651780588,0
{consumergroup=trace-token-events-consumer},1651780593,0
{consumergroup=trace-token-events-consumer},1651780598,0
{consumergroup=trace-token-events-consumer},1651780603,0
{consumergroup=trace-token-events-consumer},1651780608,0
{consumergroup=trace-token-events-consumer},1651780613,0
{consumergroup=trace-token-events-consumer},1651780618,0
{consumergroup=trace-token-events-consumer},1651780623,0
{consumergroup=trace-token-events-consumer},1651780628,0
{consumergroup=trace-token-events-consumer},1651780633,0
{consumergroup=trace-token-events-consumer},1651780638,0
{consumergroup=trace-token-events-consumer},1651780643,0
{consumergroup=trace-token-events-consumer},1651780648,0
{consumergroup=trace-token-events-consumer},1651780653,0
{consumergroup=trace-token-events-consumer},1651780658,0
{consumergroup=trace-token-events-consumer},1651780663,0
{consumergroup=trace-token-events-consumer},1651780668,0
{consumergroup=trace-token-events-consumer},1651780673,0
{consumergroup=trace-token-events-consumer},1651780678,0
{consumergroup=trace-token-events-consumer},1651780683,0
{consumergroup=trace-token-events-consumer},1651780688,0
{consumergroup=trace-token-events-consumer},1651780693,0
{consumergroup=trace-token-events-consumer},1651780698,0
{consumergroup=trace-token-events-consumer},1651780703,0
{consumergroup=trace-token-events-consumer},1651780708,0
{consumergroup=trace-token-events-consumer},1651780713,0
{consumergroup=trace-token-events-consumer},1651780718,0
{consumergroup=trace-token-events-consumer},1651780723,0
{consumergroup=trace-token-events-consumer},1651780728,0
{consumergroup=trace-token-events-consumer},1651780733,0
{consumergroup=trace-token-events-consumer},1651780738,0
{consumergroup=trace-token-events-consumer},1651780743,0
{consumergroup=trace-token-events-consumer},1651780748,0
{consumergroup=trace-token-events-consumer},1651780753,0
{consumergroup=trace-token-events-consumer},1651780758,0
{consumergroup=trace-token-events-consumer},1651780763,0
{consumergroup=trace-token-events-consumer},1651780768,0
{consumergroup=trace-token-events-consumer},1651780773,0
{consumergroup=trace-token-events-consumer},1651780778,0
{consumergroup=trace-token-events-consumer},1651780783,0
{consumergroup=trace-token-events-consumer},1651780788,0
