labels,timestamp,value
{job=theodolite-stu200776/trace-isolated-podmonitor},1651799564,0
{job=theodolite-stu200776/trace-isolated-podmonitor},1651799569,0
{job=theodolite-stu200776/trace-isolated-podmonitor},1651799574,0
{job=theodolite-stu200776/trace-isolated-podmonitor},1651799579,0
{job=theodolite-stu200776/trace-isolated-podmonitor},1651799584,0
{job=theodolite-stu200776/trace-isolated-podmonitor},1651799589,0
{job=theodolite-stu200776/trace-isolated-podmonitor},1651799594,0
{job=theodolite-stu200776/trace-isolated-podmonitor},1651799599,0
{job=theodolite-stu200776/trace-isolated-podmonitor},1651799604,0
{job=theodolite-stu200776/trace-isolated-podmonitor},1651799609,0
{job=theodolite-stu200776/trace-isolated-podmonitor},1651799614,0
{job=theodolite-stu200776/trace-isolated-podmonitor},1651799619,0
{job=theodolite-stu200776/trace-isolated-podmonitor},1651799624,0
{job=theodolite-stu200776/trace-isolated-podmonitor},1651799629,0
{job=theodolite-stu200776/trace-isolated-podmonitor},1651799634,0
{job=theodolite-stu200776/trace-isolated-podmonitor},1651799639,0
{job=theodolite-stu200776/trace-isolated-podmonitor},1651799644,0
{job=theodolite-stu200776/trace-isolated-podmonitor},1651799649,0
{job=theodolite-stu200776/trace-isolated-podmonitor},1651799654,0
{job=theodolite-stu200776/trace-isolated-podmonitor},1651799659,0
{job=theodolite-stu200776/trace-isolated-podmonitor},1651799664,0
{job=theodolite-stu200776/trace-isolated-podmonitor},1651799669,0
{job=theodolite-stu200776/trace-isolated-podmonitor},1651799674,0
{job=theodolite-stu200776/trace-isolated-podmonitor},1651799679,0
{job=theodolite-stu200776/trace-isolated-podmonitor},1651799684,0
{job=theodolite-stu200776/trace-isolated-podmonitor},1651799689,0
{job=theodolite-stu200776/trace-isolated-podmonitor},1651799694,0
{job=theodolite-stu200776/trace-isolated-podmonitor},1651799699,0
{job=theodolite-stu200776/trace-isolated-podmonitor},1651799704,0
{job=theodolite-stu200776/trace-isolated-podmonitor},1651799709,0
{job=theodolite-stu200776/trace-isolated-podmonitor},1651799714,0
{job=theodolite-stu200776/trace-isolated-podmonitor},1651799719,0
{job=theodolite-stu200776/trace-isolated-podmonitor},1651799724,0
{job=theodolite-stu200776/trace-isolated-podmonitor},1651799729,0
{job=theodolite-stu200776/trace-isolated-podmonitor},1651799734,0
{job=theodolite-stu200776/trace-isolated-podmonitor},1651799739,0
{job=theodolite-stu200776/trace-isolated-podmonitor},1651799744,0
{job=theodolite-stu200776/trace-isolated-podmonitor},1651799749,0
{job=theodolite-stu200776/trace-isolated-podmonitor},1651799754,0
{job=theodolite-stu200776/trace-isolated-podmonitor},1651799759,0
{job=theodolite-stu200776/trace-isolated-podmonitor},1651799764,0
{job=theodolite-stu200776/trace-isolated-podmonitor},1651799769,0
{job=theodolite-stu200776/trace-isolated-podmonitor},1651799774,0
{job=theodolite-stu200776/trace-isolated-podmonitor},1651799779,0
{job=theodolite-stu200776/trace-isolated-podmonitor},1651799784,0
{job=theodolite-stu200776/trace-isolated-podmonitor},1651799789,0
{job=theodolite-stu200776/trace-isolated-podmonitor},1651799794,0
{job=theodolite-stu200776/trace-isolated-podmonitor},1651799799,0
{job=theodolite-stu200776/trace-isolated-podmonitor},1651799804,0
{job=theodolite-stu200776/trace-isolated-podmonitor},1651799809,0
{job=theodolite-stu200776/trace-isolated-podmonitor},1651799814,0
{job=theodolite-stu200776/trace-isolated-podmonitor},1651799819,0
{job=theodolite-stu200776/trace-isolated-podmonitor},1651799824,0
{job=theodolite-stu200776/trace-isolated-podmonitor},1651799829,0
