labels,timestamp,value
{consumergroup=__strimzi-topic-operator-kstreams},1651807107,11
{consumergroup=__strimzi-topic-operator-kstreams},1651807112,11
{consumergroup=__strimzi-topic-operator-kstreams},1651807117,11
{consumergroup=__strimzi-topic-operator-kstreams},1651807122,0
{consumergroup=__strimzi-topic-operator-kstreams},1651807127,0
{consumergroup=__strimzi-topic-operator-kstreams},1651807132,0
{consumergroup=__strimzi-topic-operator-kstreams},1651807137,3
{consumergroup=__strimzi-topic-operator-kstreams},1651807142,3
{consumergroup=__strimzi-topic-operator-kstreams},1651807147,3
{consumergroup=__strimzi-topic-operator-kstreams},1651807152,0
{consumergroup=__strimzi-topic-operator-kstreams},1651807157,0
{consumergroup=__strimzi-topic-operator-kstreams},1651807162,0
{consumergroup=__strimzi-topic-operator-kstreams},1651807167,0
{consumergroup=__strimzi-topic-operator-kstreams},1651807172,0
{consumergroup=__strimzi-topic-operator-kstreams},1651807177,0
{consumergroup=__strimzi-topic-operator-kstreams},1651807182,0
{consumergroup=__strimzi-topic-operator-kstreams},1651807187,0
{consumergroup=__strimzi-topic-operator-kstreams},1651807192,0
{consumergroup=__strimzi-topic-operator-kstreams},1651807197,0
{consumergroup=__strimzi-topic-operator-kstreams},1651807202,0
{consumergroup=__strimzi-topic-operator-kstreams},1651807207,0
{consumergroup=__strimzi-topic-operator-kstreams},1651807212,0
{consumergroup=__strimzi-topic-operator-kstreams},1651807217,0
{consumergroup=__strimzi-topic-operator-kstreams},1651807222,0
{consumergroup=__strimzi-topic-operator-kstreams},1651807227,0
{consumergroup=__strimzi-topic-operator-kstreams},1651807232,0
{consumergroup=__strimzi-topic-operator-kstreams},1651807237,0
{consumergroup=__strimzi-topic-operator-kstreams},1651807242,0
{consumergroup=__strimzi-topic-operator-kstreams},1651807247,0
{consumergroup=__strimzi-topic-operator-kstreams},1651807252,0
{consumergroup=__strimzi-topic-operator-kstreams},1651807257,0
{consumergroup=__strimzi-topic-operator-kstreams},1651807262,0
{consumergroup=__strimzi-topic-operator-kstreams},1651807267,0
{consumergroup=__strimzi-topic-operator-kstreams},1651807272,0
{consumergroup=__strimzi-topic-operator-kstreams},1651807277,0
{consumergroup=__strimzi-topic-operator-kstreams},1651807282,0
{consumergroup=__strimzi-topic-operator-kstreams},1651807287,0
{consumergroup=__strimzi-topic-operator-kstreams},1651807292,0
{consumergroup=__strimzi-topic-operator-kstreams},1651807297,0
{consumergroup=__strimzi-topic-operator-kstreams},1651807302,0
{consumergroup=__strimzi-topic-operator-kstreams},1651807307,0
{consumergroup=__strimzi-topic-operator-kstreams},1651807312,0
{consumergroup=__strimzi-topic-operator-kstreams},1651807317,0
{consumergroup=__strimzi-topic-operator-kstreams},1651807322,0
{consumergroup=__strimzi-topic-operator-kstreams},1651807327,0
{consumergroup=__strimzi-topic-operator-kstreams},1651807332,0
{consumergroup=__strimzi-topic-operator-kstreams},1651807337,0
{consumergroup=__strimzi-topic-operator-kstreams},1651807342,0
{consumergroup=__strimzi-topic-operator-kstreams},1651807347,0
{consumergroup=__strimzi-topic-operator-kstreams},1651807352,0
{consumergroup=__strimzi-topic-operator-kstreams},1651807357,0
{consumergroup=__strimzi-topic-operator-kstreams},1651807362,0
{consumergroup=__strimzi-topic-operator-kstreams},1651807367,0
{consumergroup=__strimzi-topic-operator-kstreams},1651807372,0
{consumergroup=__strimzi-topic-operator-kstreams},1651807377,0
{consumergroup=__strimzi-topic-operator-kstreams},1651807382,0
{consumergroup=__strimzi-topic-operator-kstreams},1651807387,0
{consumergroup=__strimzi-topic-operator-kstreams},1651807392,0
{consumergroup=__strimzi-topic-operator-kstreams},1651807397,0
{consumergroup=__strimzi-topic-operator-kstreams},1651807402,0
{consumergroup=__strimzi-topic-operator-kstreams},1651807407,0
{consumergroup=__strimzi-topic-operator-kstreams},1651807412,0
{consumergroup=__strimzi-topic-operator-kstreams},1651807417,0
{consumergroup=__strimzi-topic-operator-kstreams},1651807422,0
{consumergroup=__strimzi-topic-operator-kstreams},1651807427,0
{consumergroup=__strimzi-topic-operator-kstreams},1651807432,0
{consumergroup=__strimzi-topic-operator-kstreams},1651807437,0
{consumergroup=__strimzi-topic-operator-kstreams},1651807442,0
{consumergroup=__strimzi-topic-operator-kstreams},1651807447,0
{consumergroup=__strimzi-topic-operator-kstreams},1651807452,0
{consumergroup=__strimzi-topic-operator-kstreams},1651807457,0
{consumergroup=__strimzi-topic-operator-kstreams},1651807462,0
{consumergroup=__strimzi-topic-operator-kstreams},1651807467,0
{consumergroup=__strimzi-topic-operator-kstreams},1651807472,0
{consumergroup=__strimzi-topic-operator-kstreams},1651807477,0
{consumergroup=__strimzi-topic-operator-kstreams},1651807482,0
{consumergroup=__strimzi-topic-operator-kstreams},1651807487,0
{consumergroup=__strimzi-topic-operator-kstreams},1651807492,0
{consumergroup=__strimzi-topic-operator-kstreams},1651807497,0
{consumergroup=__strimzi-topic-operator-kstreams},1651807502,0
{consumergroup=__strimzi-topic-operator-kstreams},1651807507,0
{consumergroup=__strimzi-topic-operator-kstreams},1651807512,0
{consumergroup=__strimzi-topic-operator-kstreams},1651807517,0
{consumergroup=__strimzi-topic-operator-kstreams},1651807522,0
{consumergroup=__strimzi-topic-operator-kstreams},1651807527,0
{consumergroup=__strimzi-topic-operator-kstreams},1651807532,0
{consumergroup=__strimzi-topic-operator-kstreams},1651807537,0
{consumergroup=__strimzi-topic-operator-kstreams},1651807542,0
{consumergroup=__strimzi-topic-operator-kstreams},1651807547,0
{consumergroup=__strimzi-topic-operator-kstreams},1651807552,0
{consumergroup=trace-service},1651807152,143576
{consumergroup=trace-service},1651807157,143576
{consumergroup=trace-service},1651807162,143576
{consumergroup=trace-service},1651807167,81667
{consumergroup=trace-service},1651807172,81667
{consumergroup=trace-service},1651807177,81667
{consumergroup=trace-service},1651807182,640419
{consumergroup=trace-service},1651807187,640419
{consumergroup=trace-service},1651807192,640419
{consumergroup=trace-service},1651807197,775990
{consumergroup=trace-service},1651807202,775990
{consumergroup=trace-service},1651807207,775990
{consumergroup=trace-service},1651807212,522045
{consumergroup=trace-service},1651807217,522045
{consumergroup=trace-service},1651807222,522045
{consumergroup=trace-service},1651807227,314374
{consumergroup=trace-service},1651807232,314374
{consumergroup=trace-service},1651807237,314374
{consumergroup=trace-service},1651807242,482616
{consumergroup=trace-service},1651807247,482616
{consumergroup=trace-service},1651807252,482616
{consumergroup=trace-service},1651807257,210577
{consumergroup=trace-service},1651807262,210577
{consumergroup=trace-service},1651807267,210577
{consumergroup=trace-service},1651807272,504731
{consumergroup=trace-service},1651807277,504731
{consumergroup=trace-service},1651807282,504731
{consumergroup=trace-service},1651807287,771975
{consumergroup=trace-service},1651807292,771975
{consumergroup=trace-service},1651807297,771975
{consumergroup=trace-service},1651807302,458752
{consumergroup=trace-service},1651807307,458752
{consumergroup=trace-service},1651807312,458752
{consumergroup=trace-service},1651807317,197666
{consumergroup=trace-service},1651807322,197666
{consumergroup=trace-service},1651807327,197666
{consumergroup=trace-service},1651807332,505959
{consumergroup=trace-service},1651807337,505959
{consumergroup=trace-service},1651807342,505959
{consumergroup=trace-service},1651807347,170331
{consumergroup=trace-service},1651807352,170331
{consumergroup=trace-service},1651807357,170331
{consumergroup=trace-service},1651807362,513853
{consumergroup=trace-service},1651807367,513853
{consumergroup=trace-service},1651807372,513853
{consumergroup=trace-service},1651807377,221753
{consumergroup=trace-service},1651807382,221753
{consumergroup=trace-service},1651807387,221753
{consumergroup=trace-service},1651807392,510916
{consumergroup=trace-service},1651807397,510916
{consumergroup=trace-service},1651807402,510916
{consumergroup=trace-service},1651807407,180714
{consumergroup=trace-service},1651807412,180714
{consumergroup=trace-service},1651807417,180714
{consumergroup=trace-service},1651807422,479668
{consumergroup=trace-service},1651807427,479668
{consumergroup=trace-service},1651807432,479668
{consumergroup=trace-service},1651807437,366763
{consumergroup=trace-service},1651807442,366763
{consumergroup=trace-service},1651807447,366763
{consumergroup=trace-service},1651807452,465820
{consumergroup=trace-service},1651807457,465820
{consumergroup=trace-service},1651807462,465820
{consumergroup=trace-service},1651807467,688380
{consumergroup=trace-service},1651807472,688380
{consumergroup=trace-service},1651807477,688380
{consumergroup=trace-service},1651807482,531732
{consumergroup=trace-service},1651807487,531732
{consumergroup=trace-service},1651807492,531732
{consumergroup=trace-service},1651807497,859324
{consumergroup=trace-service},1651807502,859324
{consumergroup=trace-service},1651807507,859324
{consumergroup=trace-service},1651807512,507788
{consumergroup=trace-service},1651807517,507788
{consumergroup=trace-service},1651807522,507788
{consumergroup=trace-service},1651807527,936162
{consumergroup=trace-service},1651807532,936162
{consumergroup=trace-service},1651807537,936162
{consumergroup=trace-service},1651807542,520301
{consumergroup=trace-service},1651807547,520301
{consumergroup=trace-service},1651807552,520301
{consumergroup=trace-token-events-consumer},1651807137,0
{consumergroup=trace-token-events-consumer},1651807142,0
{consumergroup=trace-token-events-consumer},1651807147,0
{consumergroup=trace-token-events-consumer},1651807152,0
{consumergroup=trace-token-events-consumer},1651807157,0
{consumergroup=trace-token-events-consumer},1651807162,0
{consumergroup=trace-token-events-consumer},1651807167,0
{consumergroup=trace-token-events-consumer},1651807172,0
{consumergroup=trace-token-events-consumer},1651807177,0
{consumergroup=trace-token-events-consumer},1651807182,0
{consumergroup=trace-token-events-consumer},1651807187,0
{consumergroup=trace-token-events-consumer},1651807192,0
{consumergroup=trace-token-events-consumer},1651807197,0
{consumergroup=trace-token-events-consumer},1651807202,0
{consumergroup=trace-token-events-consumer},1651807207,0
{consumergroup=trace-token-events-consumer},1651807212,0
{consumergroup=trace-token-events-consumer},1651807217,0
{consumergroup=trace-token-events-consumer},1651807222,0
{consumergroup=trace-token-events-consumer},1651807227,0
{consumergroup=trace-token-events-consumer},1651807232,0
{consumergroup=trace-token-events-consumer},1651807237,0
{consumergroup=trace-token-events-consumer},1651807242,0
{consumergroup=trace-token-events-consumer},1651807247,0
{consumergroup=trace-token-events-consumer},1651807252,0
{consumergroup=trace-token-events-consumer},1651807257,0
{consumergroup=trace-token-events-consumer},1651807262,0
{consumergroup=trace-token-events-consumer},1651807267,0
{consumergroup=trace-token-events-consumer},1651807272,0
{consumergroup=trace-token-events-consumer},1651807277,0
{consumergroup=trace-token-events-consumer},1651807282,0
{consumergroup=trace-token-events-consumer},1651807287,0
{consumergroup=trace-token-events-consumer},1651807292,0
{consumergroup=trace-token-events-consumer},1651807297,0
{consumergroup=trace-token-events-consumer},1651807302,0
{consumergroup=trace-token-events-consumer},1651807307,0
{consumergroup=trace-token-events-consumer},1651807312,0
{consumergroup=trace-token-events-consumer},1651807317,0
{consumergroup=trace-token-events-consumer},1651807322,0
{consumergroup=trace-token-events-consumer},1651807327,0
{consumergroup=trace-token-events-consumer},1651807332,0
{consumergroup=trace-token-events-consumer},1651807337,0
{consumergroup=trace-token-events-consumer},1651807342,0
{consumergroup=trace-token-events-consumer},1651807347,0
{consumergroup=trace-token-events-consumer},1651807352,0
{consumergroup=trace-token-events-consumer},1651807357,0
{consumergroup=trace-token-events-consumer},1651807362,0
{consumergroup=trace-token-events-consumer},1651807367,0
{consumergroup=trace-token-events-consumer},1651807372,0
{consumergroup=trace-token-events-consumer},1651807377,0
{consumergroup=trace-token-events-consumer},1651807382,0
{consumergroup=trace-token-events-consumer},1651807387,0
{consumergroup=trace-token-events-consumer},1651807392,0
{consumergroup=trace-token-events-consumer},1651807397,0
{consumergroup=trace-token-events-consumer},1651807402,0
{consumergroup=trace-token-events-consumer},1651807407,0
{consumergroup=trace-token-events-consumer},1651807412,0
{consumergroup=trace-token-events-consumer},1651807417,0
{consumergroup=trace-token-events-consumer},1651807422,0
{consumergroup=trace-token-events-consumer},1651807427,0
{consumergroup=trace-token-events-consumer},1651807432,0
{consumergroup=trace-token-events-consumer},1651807437,0
{consumergroup=trace-token-events-consumer},1651807442,0
{consumergroup=trace-token-events-consumer},1651807447,0
{consumergroup=trace-token-events-consumer},1651807452,0
{consumergroup=trace-token-events-consumer},1651807457,0
{consumergroup=trace-token-events-consumer},1651807462,0
{consumergroup=trace-token-events-consumer},1651807467,0
{consumergroup=trace-token-events-consumer},1651807472,0
{consumergroup=trace-token-events-consumer},1651807477,0
{consumergroup=trace-token-events-consumer},1651807482,0
{consumergroup=trace-token-events-consumer},1651807487,0
{consumergroup=trace-token-events-consumer},1651807492,0
{consumergroup=trace-token-events-consumer},1651807497,0
{consumergroup=trace-token-events-consumer},1651807502,0
{consumergroup=trace-token-events-consumer},1651807507,0
{consumergroup=trace-token-events-consumer},1651807512,0
{consumergroup=trace-token-events-consumer},1651807517,0
{consumergroup=trace-token-events-consumer},1651807522,0
{consumergroup=trace-token-events-consumer},1651807527,0
{consumergroup=trace-token-events-consumer},1651807532,0
{consumergroup=trace-token-events-consumer},1651807537,0
{consumergroup=trace-token-events-consumer},1651807542,0
{consumergroup=trace-token-events-consumer},1651807547,0
{consumergroup=trace-token-events-consumer},1651807552,0
