labels,timestamp,value
{consumergroup=__strimzi-topic-operator-kstreams},1651854698,28
{consumergroup=__strimzi-topic-operator-kstreams},1651854703,28
{consumergroup=__strimzi-topic-operator-kstreams},1651854708,28
{consumergroup=__strimzi-topic-operator-kstreams},1651854713,0
{consumergroup=__strimzi-topic-operator-kstreams},1651854718,0
{consumergroup=__strimzi-topic-operator-kstreams},1651854723,0
{consumergroup=__strimzi-topic-operator-kstreams},1651854728,0
{consumergroup=__strimzi-topic-operator-kstreams},1651854733,0
{consumergroup=__strimzi-topic-operator-kstreams},1651854738,0
{consumergroup=__strimzi-topic-operator-kstreams},1651854743,0
{consumergroup=__strimzi-topic-operator-kstreams},1651854748,0
{consumergroup=__strimzi-topic-operator-kstreams},1651854753,0
{consumergroup=__strimzi-topic-operator-kstreams},1651854758,0
{consumergroup=__strimzi-topic-operator-kstreams},1651854763,0
{consumergroup=__strimzi-topic-operator-kstreams},1651854768,0
{consumergroup=__strimzi-topic-operator-kstreams},1651854773,0
{consumergroup=__strimzi-topic-operator-kstreams},1651854778,0
{consumergroup=__strimzi-topic-operator-kstreams},1651854783,0
{consumergroup=__strimzi-topic-operator-kstreams},1651854788,0
{consumergroup=__strimzi-topic-operator-kstreams},1651854793,0
{consumergroup=__strimzi-topic-operator-kstreams},1651854798,0
{consumergroup=__strimzi-topic-operator-kstreams},1651854803,0
{consumergroup=__strimzi-topic-operator-kstreams},1651854808,0
{consumergroup=__strimzi-topic-operator-kstreams},1651854813,0
{consumergroup=__strimzi-topic-operator-kstreams},1651854818,0
{consumergroup=__strimzi-topic-operator-kstreams},1651854823,0
{consumergroup=__strimzi-topic-operator-kstreams},1651854828,0
{consumergroup=__strimzi-topic-operator-kstreams},1651854833,0
{consumergroup=__strimzi-topic-operator-kstreams},1651854838,0
{consumergroup=__strimzi-topic-operator-kstreams},1651854843,0
{consumergroup=__strimzi-topic-operator-kstreams},1651854848,0
{consumergroup=__strimzi-topic-operator-kstreams},1651854853,0
{consumergroup=__strimzi-topic-operator-kstreams},1651854858,0
{consumergroup=__strimzi-topic-operator-kstreams},1651854863,0
{consumergroup=__strimzi-topic-operator-kstreams},1651854868,0
{consumergroup=__strimzi-topic-operator-kstreams},1651854873,0
{consumergroup=__strimzi-topic-operator-kstreams},1651854878,0
{consumergroup=__strimzi-topic-operator-kstreams},1651854883,0
{consumergroup=__strimzi-topic-operator-kstreams},1651854888,0
{consumergroup=__strimzi-topic-operator-kstreams},1651854893,0
{consumergroup=__strimzi-topic-operator-kstreams},1651854898,0
{consumergroup=__strimzi-topic-operator-kstreams},1651854903,0
{consumergroup=__strimzi-topic-operator-kstreams},1651854908,0
{consumergroup=__strimzi-topic-operator-kstreams},1651854913,0
{consumergroup=__strimzi-topic-operator-kstreams},1651854918,0
{consumergroup=__strimzi-topic-operator-kstreams},1651854923,0
{consumergroup=__strimzi-topic-operator-kstreams},1651854928,0
{consumergroup=__strimzi-topic-operator-kstreams},1651854933,0
{consumergroup=__strimzi-topic-operator-kstreams},1651854938,0
{consumergroup=__strimzi-topic-operator-kstreams},1651854943,0
{consumergroup=adapter-service},1651854728,1876887
{consumergroup=adapter-service},1651854733,1876887
{consumergroup=adapter-service},1651854738,1876887
{consumergroup=adapter-service},1651854743,3345215
{consumergroup=adapter-service},1651854748,3345215
{consumergroup=adapter-service},1651854753,3345215
{consumergroup=adapter-service},1651854758,4441922
{consumergroup=adapter-service},1651854763,4441922
{consumergroup=adapter-service},1651854768,4441922
{consumergroup=adapter-service},1651854773,5258671
{consumergroup=adapter-service},1651854778,5258671
{consumergroup=adapter-service},1651854783,5258671
{consumergroup=adapter-service},1651854788,5780779
{consumergroup=adapter-service},1651854793,5780779
{consumergroup=adapter-service},1651854798,5780779
{consumergroup=adapter-service},1651854803,6083930
{consumergroup=adapter-service},1651854808,6083930
{consumergroup=adapter-service},1651854813,6083930
{consumergroup=adapter-service},1651854818,6003222
{consumergroup=adapter-service},1651854823,6003222
{consumergroup=adapter-service},1651854828,6003222
{consumergroup=adapter-service},1651854833,6474520
{consumergroup=adapter-service},1651854838,6474520
{consumergroup=adapter-service},1651854843,6474520
{consumergroup=adapter-service},1651854848,6458918
{consumergroup=adapter-service},1651854853,6458918
{consumergroup=adapter-service},1651854858,6458918
{consumergroup=adapter-service},1651854863,6471132
{consumergroup=adapter-service},1651854868,6471132
{consumergroup=adapter-service},1651854873,6471132
{consumergroup=adapter-service},1651854878,6632923
{consumergroup=adapter-service},1651854883,6632923
{consumergroup=adapter-service},1651854888,6632923
{consumergroup=adapter-service},1651854893,6863645
{consumergroup=adapter-service},1651854898,6863645
{consumergroup=adapter-service},1651854903,6863645
{consumergroup=adapter-service},1651854908,6729009
{consumergroup=adapter-service},1651854913,6729009
{consumergroup=adapter-service},1651854918,6729009
{consumergroup=adapter-service},1651854923,6836246
{consumergroup=adapter-service},1651854928,6836246
{consumergroup=adapter-service},1651854933,6836246
{consumergroup=adapter-service},1651854938,7016961
{consumergroup=adapter-service},1651854943,7016961
