labels,timestamp,value
{consumergroup=__strimzi-topic-operator-kstreams},1651866190,0
{consumergroup=__strimzi-topic-operator-kstreams},1651866195,0
{consumergroup=__strimzi-topic-operator-kstreams},1651866200,0
{consumergroup=__strimzi-topic-operator-kstreams},1651866205,0
{consumergroup=__strimzi-topic-operator-kstreams},1651866210,0
{consumergroup=__strimzi-topic-operator-kstreams},1651866215,0
{consumergroup=__strimzi-topic-operator-kstreams},1651866220,0
{consumergroup=__strimzi-topic-operator-kstreams},1651866225,0
{consumergroup=__strimzi-topic-operator-kstreams},1651866230,0
{consumergroup=__strimzi-topic-operator-kstreams},1651866235,0
{consumergroup=__strimzi-topic-operator-kstreams},1651866240,0
{consumergroup=__strimzi-topic-operator-kstreams},1651866245,0
{consumergroup=__strimzi-topic-operator-kstreams},1651866250,0
{consumergroup=__strimzi-topic-operator-kstreams},1651866255,0
{consumergroup=__strimzi-topic-operator-kstreams},1651866260,0
{consumergroup=__strimzi-topic-operator-kstreams},1651866265,0
{consumergroup=__strimzi-topic-operator-kstreams},1651866270,0
{consumergroup=__strimzi-topic-operator-kstreams},1651866275,0
{consumergroup=__strimzi-topic-operator-kstreams},1651866280,0
{consumergroup=__strimzi-topic-operator-kstreams},1651866285,0
{consumergroup=__strimzi-topic-operator-kstreams},1651866290,0
{consumergroup=__strimzi-topic-operator-kstreams},1651866295,0
{consumergroup=__strimzi-topic-operator-kstreams},1651866300,0
{consumergroup=__strimzi-topic-operator-kstreams},1651866305,0
{consumergroup=__strimzi-topic-operator-kstreams},1651866310,0
{consumergroup=__strimzi-topic-operator-kstreams},1651866315,0
{consumergroup=__strimzi-topic-operator-kstreams},1651866320,0
{consumergroup=__strimzi-topic-operator-kstreams},1651866325,0
{consumergroup=__strimzi-topic-operator-kstreams},1651866330,0
{consumergroup=__strimzi-topic-operator-kstreams},1651866335,0
{consumergroup=__strimzi-topic-operator-kstreams},1651866340,0
{consumergroup=__strimzi-topic-operator-kstreams},1651866345,0
{consumergroup=__strimzi-topic-operator-kstreams},1651866350,0
{consumergroup=__strimzi-topic-operator-kstreams},1651866355,0
{consumergroup=__strimzi-topic-operator-kstreams},1651866360,0
{consumergroup=__strimzi-topic-operator-kstreams},1651866365,0
{consumergroup=__strimzi-topic-operator-kstreams},1651866370,0
{consumergroup=__strimzi-topic-operator-kstreams},1651866375,0
{consumergroup=__strimzi-topic-operator-kstreams},1651866380,0
{consumergroup=__strimzi-topic-operator-kstreams},1651866385,0
{consumergroup=__strimzi-topic-operator-kstreams},1651866390,0
{consumergroup=__strimzi-topic-operator-kstreams},1651866395,0
{consumergroup=__strimzi-topic-operator-kstreams},1651866400,0
{consumergroup=__strimzi-topic-operator-kstreams},1651866405,0
{consumergroup=__strimzi-topic-operator-kstreams},1651866410,0
{consumergroup=__strimzi-topic-operator-kstreams},1651866415,0
{consumergroup=__strimzi-topic-operator-kstreams},1651866420,0
{consumergroup=__strimzi-topic-operator-kstreams},1651866425,0
{consumergroup=__strimzi-topic-operator-kstreams},1651866430,0
{consumergroup=__strimzi-topic-operator-kstreams},1651866435,0
{consumergroup=__strimzi-topic-operator-kstreams},1651866440,0
{consumergroup=adapter-service},1651866220,793015
{consumergroup=adapter-service},1651866225,793015
{consumergroup=adapter-service},1651866230,793015
{consumergroup=adapter-service},1651866235,2949654
{consumergroup=adapter-service},1651866240,2949654
{consumergroup=adapter-service},1651866245,2949654
{consumergroup=adapter-service},1651866250,4051705
{consumergroup=adapter-service},1651866255,4051705
{consumergroup=adapter-service},1651866260,4051705
{consumergroup=adapter-service},1651866265,4226038
{consumergroup=adapter-service},1651866270,4226038
{consumergroup=adapter-service},1651866275,4226038
{consumergroup=adapter-service},1651866280,5162270
{consumergroup=adapter-service},1651866285,5162270
{consumergroup=adapter-service},1651866290,5162270
{consumergroup=adapter-service},1651866295,4928816
{consumergroup=adapter-service},1651866300,4928816
{consumergroup=adapter-service},1651866305,4928816
{consumergroup=adapter-service},1651866310,5536577
{consumergroup=adapter-service},1651866315,5536577
{consumergroup=adapter-service},1651866320,5536577
{consumergroup=adapter-service},1651866325,5469106
{consumergroup=adapter-service},1651866330,5469106
{consumergroup=adapter-service},1651866335,5469106
{consumergroup=adapter-service},1651866340,6076353
{consumergroup=adapter-service},1651866345,6076353
{consumergroup=adapter-service},1651866350,6076353
{consumergroup=adapter-service},1651866355,5957427
{consumergroup=adapter-service},1651866360,5957427
{consumergroup=adapter-service},1651866365,5957427
{consumergroup=adapter-service},1651866370,6179108
{consumergroup=adapter-service},1651866375,6179108
{consumergroup=adapter-service},1651866380,6179108
{consumergroup=adapter-service},1651866385,6130424
{consumergroup=adapter-service},1651866390,6130424
{consumergroup=adapter-service},1651866395,6130424
{consumergroup=adapter-service},1651866400,6442771
{consumergroup=adapter-service},1651866405,6442771
{consumergroup=adapter-service},1651866410,6442771
{consumergroup=adapter-service},1651866415,6146120
{consumergroup=adapter-service},1651866420,6146120
{consumergroup=adapter-service},1651866425,6146120
{consumergroup=adapter-service},1651866430,6739611
{consumergroup=adapter-service},1651866435,6739611
{consumergroup=adapter-service},1651866440,6739611
