labels,timestamp,value
{consumergroup=__strimzi-topic-operator-kstreams},1651850178,8
{consumergroup=__strimzi-topic-operator-kstreams},1651850183,8
{consumergroup=__strimzi-topic-operator-kstreams},1651850188,8
{consumergroup=__strimzi-topic-operator-kstreams},1651850193,0
{consumergroup=__strimzi-topic-operator-kstreams},1651850198,0
{consumergroup=__strimzi-topic-operator-kstreams},1651850203,0
{consumergroup=__strimzi-topic-operator-kstreams},1651850208,0
{consumergroup=__strimzi-topic-operator-kstreams},1651850213,0
{consumergroup=__strimzi-topic-operator-kstreams},1651850218,0
{consumergroup=__strimzi-topic-operator-kstreams},1651850223,0
{consumergroup=__strimzi-topic-operator-kstreams},1651850228,0
{consumergroup=__strimzi-topic-operator-kstreams},1651850233,0
{consumergroup=__strimzi-topic-operator-kstreams},1651850238,0
{consumergroup=__strimzi-topic-operator-kstreams},1651850243,0
{consumergroup=__strimzi-topic-operator-kstreams},1651850248,0
{consumergroup=__strimzi-topic-operator-kstreams},1651850253,0
{consumergroup=__strimzi-topic-operator-kstreams},1651850258,0
{consumergroup=__strimzi-topic-operator-kstreams},1651850263,0
{consumergroup=__strimzi-topic-operator-kstreams},1651850268,0
{consumergroup=__strimzi-topic-operator-kstreams},1651850273,0
{consumergroup=__strimzi-topic-operator-kstreams},1651850278,0
{consumergroup=__strimzi-topic-operator-kstreams},1651850283,0
{consumergroup=__strimzi-topic-operator-kstreams},1651850288,0
{consumergroup=__strimzi-topic-operator-kstreams},1651850293,0
{consumergroup=__strimzi-topic-operator-kstreams},1651850298,0
{consumergroup=__strimzi-topic-operator-kstreams},1651850303,0
{consumergroup=__strimzi-topic-operator-kstreams},1651850308,0
{consumergroup=__strimzi-topic-operator-kstreams},1651850313,0
{consumergroup=__strimzi-topic-operator-kstreams},1651850318,0
{consumergroup=__strimzi-topic-operator-kstreams},1651850323,0
{consumergroup=__strimzi-topic-operator-kstreams},1651850328,0
{consumergroup=__strimzi-topic-operator-kstreams},1651850333,0
{consumergroup=__strimzi-topic-operator-kstreams},1651850338,0
{consumergroup=__strimzi-topic-operator-kstreams},1651850343,0
{consumergroup=__strimzi-topic-operator-kstreams},1651850348,0
{consumergroup=__strimzi-topic-operator-kstreams},1651850353,0
{consumergroup=__strimzi-topic-operator-kstreams},1651850358,0
{consumergroup=__strimzi-topic-operator-kstreams},1651850363,0
{consumergroup=__strimzi-topic-operator-kstreams},1651850368,0
{consumergroup=__strimzi-topic-operator-kstreams},1651850373,0
{consumergroup=__strimzi-topic-operator-kstreams},1651850378,0
{consumergroup=__strimzi-topic-operator-kstreams},1651850383,0
{consumergroup=__strimzi-topic-operator-kstreams},1651850388,0
{consumergroup=__strimzi-topic-operator-kstreams},1651850393,0
{consumergroup=__strimzi-topic-operator-kstreams},1651850398,0
{consumergroup=__strimzi-topic-operator-kstreams},1651850403,0
{consumergroup=__strimzi-topic-operator-kstreams},1651850408,0
{consumergroup=__strimzi-topic-operator-kstreams},1651850413,0
{consumergroup=__strimzi-topic-operator-kstreams},1651850418,0
{consumergroup=__strimzi-topic-operator-kstreams},1651850423,0
{consumergroup=__strimzi-topic-operator-kstreams},1651850428,0
{consumergroup=__strimzi-topic-operator-kstreams},1651850433,0
{consumergroup=__strimzi-topic-operator-kstreams},1651850438,0
{consumergroup=adapter-service},1651850208,0
{consumergroup=adapter-service},1651850213,0
{consumergroup=adapter-service},1651850218,0
{consumergroup=adapter-service},1651850223,1140612
{consumergroup=adapter-service},1651850228,1140612
{consumergroup=adapter-service},1651850233,1140612
{consumergroup=adapter-service},1651850238,1739273
{consumergroup=adapter-service},1651850243,1739273
{consumergroup=adapter-service},1651850248,1739273
{consumergroup=adapter-service},1651850253,2410981
{consumergroup=adapter-service},1651850258,2410981
{consumergroup=adapter-service},1651850263,2410981
{consumergroup=adapter-service},1651850268,2934440
{consumergroup=adapter-service},1651850273,2934440
{consumergroup=adapter-service},1651850278,2934440
{consumergroup=adapter-service},1651850283,3341145
{consumergroup=adapter-service},1651850288,3341145
{consumergroup=adapter-service},1651850293,3341145
{consumergroup=adapter-service},1651850298,3780181
{consumergroup=adapter-service},1651850303,3780181
{consumergroup=adapter-service},1651850308,3780181
{consumergroup=adapter-service},1651850313,3634752
{consumergroup=adapter-service},1651850318,3634752
{consumergroup=adapter-service},1651850323,3634752
{consumergroup=adapter-service},1651850328,3924071
{consumergroup=adapter-service},1651850333,3924071
{consumergroup=adapter-service},1651850338,3924071
{consumergroup=adapter-service},1651850343,3947693
{consumergroup=adapter-service},1651850348,3947693
{consumergroup=adapter-service},1651850353,3947693
{consumergroup=adapter-service},1651850358,3910951
{consumergroup=adapter-service},1651850363,3910951
{consumergroup=adapter-service},1651850368,3910951
{consumergroup=adapter-service},1651850373,4007623
{consumergroup=adapter-service},1651850378,4007623
{consumergroup=adapter-service},1651850383,4007623
{consumergroup=adapter-service},1651850388,3903181
{consumergroup=adapter-service},1651850393,3903181
{consumergroup=adapter-service},1651850398,3903181
{consumergroup=adapter-service},1651850403,3978564
{consumergroup=adapter-service},1651850408,3978564
{consumergroup=adapter-service},1651850413,3978564
{consumergroup=adapter-service},1651850418,3851889
{consumergroup=adapter-service},1651850423,3851889
{consumergroup=adapter-service},1651850428,3851889
{consumergroup=adapter-service},1651850433,3904230
{consumergroup=adapter-service},1651850438,3904230
