labels,timestamp,value
{consumergroup=__strimzi-topic-operator-kstreams},1651850488,14
{consumergroup=__strimzi-topic-operator-kstreams},1651850493,14
{consumergroup=__strimzi-topic-operator-kstreams},1651850498,14
{consumergroup=__strimzi-topic-operator-kstreams},1651850503,0
{consumergroup=__strimzi-topic-operator-kstreams},1651850508,0
{consumergroup=__strimzi-topic-operator-kstreams},1651850513,0
{consumergroup=__strimzi-topic-operator-kstreams},1651850518,0
{consumergroup=__strimzi-topic-operator-kstreams},1651850523,0
{consumergroup=__strimzi-topic-operator-kstreams},1651850528,0
{consumergroup=__strimzi-topic-operator-kstreams},1651850533,0
{consumergroup=__strimzi-topic-operator-kstreams},1651850538,0
{consumergroup=__strimzi-topic-operator-kstreams},1651850543,0
{consumergroup=__strimzi-topic-operator-kstreams},1651850548,0
{consumergroup=__strimzi-topic-operator-kstreams},1651850553,0
{consumergroup=__strimzi-topic-operator-kstreams},1651850558,0
{consumergroup=__strimzi-topic-operator-kstreams},1651850563,0
{consumergroup=__strimzi-topic-operator-kstreams},1651850568,0
{consumergroup=__strimzi-topic-operator-kstreams},1651850573,0
{consumergroup=__strimzi-topic-operator-kstreams},1651850578,0
{consumergroup=__strimzi-topic-operator-kstreams},1651850583,0
{consumergroup=__strimzi-topic-operator-kstreams},1651850588,0
{consumergroup=__strimzi-topic-operator-kstreams},1651850593,0
{consumergroup=__strimzi-topic-operator-kstreams},1651850598,0
{consumergroup=__strimzi-topic-operator-kstreams},1651850603,0
{consumergroup=__strimzi-topic-operator-kstreams},1651850608,0
{consumergroup=__strimzi-topic-operator-kstreams},1651850613,0
{consumergroup=__strimzi-topic-operator-kstreams},1651850618,0
{consumergroup=__strimzi-topic-operator-kstreams},1651850623,0
{consumergroup=__strimzi-topic-operator-kstreams},1651850628,0
{consumergroup=__strimzi-topic-operator-kstreams},1651850633,0
{consumergroup=__strimzi-topic-operator-kstreams},1651850638,0
{consumergroup=__strimzi-topic-operator-kstreams},1651850643,0
{consumergroup=__strimzi-topic-operator-kstreams},1651850648,0
{consumergroup=__strimzi-topic-operator-kstreams},1651850653,0
{consumergroup=__strimzi-topic-operator-kstreams},1651850658,0
{consumergroup=__strimzi-topic-operator-kstreams},1651850663,0
{consumergroup=__strimzi-topic-operator-kstreams},1651850668,0
{consumergroup=__strimzi-topic-operator-kstreams},1651850673,0
{consumergroup=__strimzi-topic-operator-kstreams},1651850678,0
{consumergroup=__strimzi-topic-operator-kstreams},1651850683,0
{consumergroup=__strimzi-topic-operator-kstreams},1651850688,0
{consumergroup=__strimzi-topic-operator-kstreams},1651850693,0
{consumergroup=__strimzi-topic-operator-kstreams},1651850698,0
{consumergroup=__strimzi-topic-operator-kstreams},1651850703,0
{consumergroup=__strimzi-topic-operator-kstreams},1651850708,0
{consumergroup=__strimzi-topic-operator-kstreams},1651850713,0
{consumergroup=__strimzi-topic-operator-kstreams},1651850718,0
{consumergroup=__strimzi-topic-operator-kstreams},1651850723,0
{consumergroup=__strimzi-topic-operator-kstreams},1651850728,0
{consumergroup=__strimzi-topic-operator-kstreams},1651850733,0
{consumergroup=__strimzi-topic-operator-kstreams},1651850738,0
{consumergroup=adapter-service},1651850518,690311
{consumergroup=adapter-service},1651850523,690311
{consumergroup=adapter-service},1651850528,690311
{consumergroup=adapter-service},1651850533,1531201
{consumergroup=adapter-service},1651850538,1531201
{consumergroup=adapter-service},1651850543,1531201
{consumergroup=adapter-service},1651850548,2226627
{consumergroup=adapter-service},1651850553,2226627
{consumergroup=adapter-service},1651850558,2226627
{consumergroup=adapter-service},1651850563,2939259
{consumergroup=adapter-service},1651850568,2939259
{consumergroup=adapter-service},1651850573,2939259
{consumergroup=adapter-service},1651850578,3345986
{consumergroup=adapter-service},1651850583,3345986
{consumergroup=adapter-service},1651850588,3345986
{consumergroup=adapter-service},1651850593,3854803
{consumergroup=adapter-service},1651850598,3854803
{consumergroup=adapter-service},1651850603,3854803
{consumergroup=adapter-service},1651850608,4110091
{consumergroup=adapter-service},1651850613,4110091
{consumergroup=adapter-service},1651850618,4110091
{consumergroup=adapter-service},1651850623,4282000
{consumergroup=adapter-service},1651850628,4282000
{consumergroup=adapter-service},1651850633,4282000
{consumergroup=adapter-service},1651850638,4422266
{consumergroup=adapter-service},1651850643,4422266
{consumergroup=adapter-service},1651850648,4422266
{consumergroup=adapter-service},1651850653,4620811
{consumergroup=adapter-service},1651850658,4620811
{consumergroup=adapter-service},1651850663,4620811
{consumergroup=adapter-service},1651850668,4741756
{consumergroup=adapter-service},1651850673,4741756
{consumergroup=adapter-service},1651850678,4741756
{consumergroup=adapter-service},1651850683,4850383
{consumergroup=adapter-service},1651850688,4850383
{consumergroup=adapter-service},1651850693,4850383
{consumergroup=adapter-service},1651850698,4960528
{consumergroup=adapter-service},1651850703,4960528
{consumergroup=adapter-service},1651850708,4960528
{consumergroup=adapter-service},1651850713,5216886
{consumergroup=adapter-service},1651850718,5216886
{consumergroup=adapter-service},1651850723,5216886
{consumergroup=adapter-service},1651850728,5399361
{consumergroup=adapter-service},1651850733,5399361
{consumergroup=adapter-service},1651850738,5399361
