labels,timestamp,value
{job=theodolite-stu200776/trace-isolated-podmonitor},1651803607,0
{job=theodolite-stu200776/trace-isolated-podmonitor},1651803612,0
{job=theodolite-stu200776/trace-isolated-podmonitor},1651803617,0
{job=theodolite-stu200776/trace-isolated-podmonitor},1651803622,0
{job=theodolite-stu200776/trace-isolated-podmonitor},1651803627,0
{job=theodolite-stu200776/trace-isolated-podmonitor},1651803632,0
{job=theodolite-stu200776/trace-isolated-podmonitor},1651803637,8.590629122126138
{job=theodolite-stu200776/trace-isolated-podmonitor},1651803642,21.098797471357816
{job=theodolite-stu200776/trace-isolated-podmonitor},1651803647,26.248082790349244
{job=theodolite-stu200776/trace-isolated-podmonitor},1651803652,24.67921175136234
{job=theodolite-stu200776/trace-isolated-podmonitor},1651803657,21.818098748220756
{job=theodolite-stu200776/trace-isolated-podmonitor},1651803662,19.79259914004229
{job=theodolite-stu200776/trace-isolated-podmonitor},1651803667,16.960719392873077
{job=theodolite-stu200776/trace-isolated-podmonitor},1651803672,9.299162191542102
{job=theodolite-stu200776/trace-isolated-podmonitor},1651803677,1.2522405007353177
{job=theodolite-stu200776/trace-isolated-podmonitor},1651803682,1.0021260247258028
{job=theodolite-stu200776/trace-isolated-podmonitor},1651803687,1.0021260247258028
{job=theodolite-stu200776/trace-isolated-podmonitor},1651803692,0.7885179551897319
{job=theodolite-stu200776/trace-isolated-podmonitor},1651803697,0.7885179551897319
{job=theodolite-stu200776/trace-isolated-podmonitor},1651803702,0.6499679699374126
{job=theodolite-stu200776/trace-isolated-podmonitor},1651803707,0.6499679699374126
{job=theodolite-stu200776/trace-isolated-podmonitor},1651803712,0
{job=theodolite-stu200776/trace-isolated-podmonitor},1651803717,0
{job=theodolite-stu200776/trace-isolated-podmonitor},1651803722,0
{job=theodolite-stu200776/trace-isolated-podmonitor},1651803727,0
{job=theodolite-stu200776/trace-isolated-podmonitor},1651803732,0
{job=theodolite-stu200776/trace-isolated-podmonitor},1651803737,0
{job=theodolite-stu200776/trace-isolated-podmonitor},1651803742,0
{job=theodolite-stu200776/trace-isolated-podmonitor},1651803747,0
{job=theodolite-stu200776/trace-isolated-podmonitor},1651803752,0
{job=theodolite-stu200776/trace-isolated-podmonitor},1651803757,0
{job=theodolite-stu200776/trace-isolated-podmonitor},1651803762,0
{job=theodolite-stu200776/trace-isolated-podmonitor},1651803767,0
{job=theodolite-stu200776/trace-isolated-podmonitor},1651803772,0
{job=theodolite-stu200776/trace-isolated-podmonitor},1651803777,0
{job=theodolite-stu200776/trace-isolated-podmonitor},1651803782,0
{job=theodolite-stu200776/trace-isolated-podmonitor},1651803787,0
{job=theodolite-stu200776/trace-isolated-podmonitor},1651803792,0
{job=theodolite-stu200776/trace-isolated-podmonitor},1651803797,0
{job=theodolite-stu200776/trace-isolated-podmonitor},1651803802,0
{job=theodolite-stu200776/trace-isolated-podmonitor},1651803807,0
{job=theodolite-stu200776/trace-isolated-podmonitor},1651803812,0
{job=theodolite-stu200776/trace-isolated-podmonitor},1651803817,0
{job=theodolite-stu200776/trace-isolated-podmonitor},1651803822,0
{job=theodolite-stu200776/trace-isolated-podmonitor},1651803827,0
{job=theodolite-stu200776/trace-isolated-podmonitor},1651803832,0
{job=theodolite-stu200776/trace-isolated-podmonitor},1651803837,0
{job=theodolite-stu200776/trace-isolated-podmonitor},1651803842,0
{job=theodolite-stu200776/trace-isolated-podmonitor},1651803847,0
{job=theodolite-stu200776/trace-isolated-podmonitor},1651803852,0
{job=theodolite-stu200776/trace-isolated-podmonitor},1651803857,0
{job=theodolite-stu200776/trace-isolated-podmonitor},1651803862,0
{job=theodolite-stu200776/trace-isolated-podmonitor},1651803867,0
{job=theodolite-stu200776/trace-isolated-podmonitor},1651803872,0
{job=theodolite-stu200776/trace-isolated-podmonitor},1651803877,0
{job=theodolite-stu200776/trace-isolated-podmonitor},1651803882,0
{job=theodolite-stu200776/trace-isolated-podmonitor},1651803887,0
{job=theodolite-stu200776/trace-isolated-podmonitor},1651803892,0
{job=theodolite-stu200776/trace-isolated-podmonitor},1651803897,0
{job=theodolite-stu200776/trace-isolated-podmonitor},1651803902,0
{job=theodolite-stu200776/trace-isolated-podmonitor},1651803907,1.9082451846021853
{job=theodolite-stu200776/trace-isolated-podmonitor},1651803912,4.135558449574556
{job=theodolite-stu200776/trace-isolated-podmonitor},1651803917,4.467454340821102
{job=theodolite-stu200776/trace-isolated-podmonitor},1651803922,4.167223095271427
{job=theodolite-stu200776/trace-isolated-podmonitor},1651803927,3.7882888708224662
{job=theodolite-stu200776/trace-isolated-podmonitor},1651803932,3.54423376264865
{job=theodolite-stu200776/trace-isolated-podmonitor},1651803937,3.3996878140003193
{job=theodolite-stu200776/trace-isolated-podmonitor},1651803942,3.997720010248365
{job=theodolite-stu200776/trace-isolated-podmonitor},1651803947,3.06077634087632
{job=theodolite-stu200776/trace-isolated-podmonitor},1651803952,2.4939519046775214
{job=theodolite-stu200776/trace-isolated-podmonitor},1651803957,2.3308546875509304
{job=theodolite-stu200776/trace-isolated-podmonitor},1651803962,2.0454988176683284
{job=theodolite-stu200776/trace-isolated-podmonitor},1651803967,1.5859662476512217
{job=theodolite-stu200776/trace-isolated-podmonitor},1651803972,0.17758849178901764
{job=theodolite-stu200776/trace-isolated-podmonitor},1651803977,0.02050104555332322
{job=theodolite-stu200776/trace-isolated-podmonitor},1651803982,0.017013747107662992
