labels,timestamp,value
{consumergroup=__strimzi-topic-operator-kstreams},1651863445,19
{consumergroup=__strimzi-topic-operator-kstreams},1651863450,19
{consumergroup=__strimzi-topic-operator-kstreams},1651863455,19
{consumergroup=__strimzi-topic-operator-kstreams},1651863460,0
{consumergroup=__strimzi-topic-operator-kstreams},1651863465,0
{consumergroup=__strimzi-topic-operator-kstreams},1651863470,0
{consumergroup=__strimzi-topic-operator-kstreams},1651863475,0
{consumergroup=__strimzi-topic-operator-kstreams},1651863480,0
{consumergroup=__strimzi-topic-operator-kstreams},1651863485,0
{consumergroup=__strimzi-topic-operator-kstreams},1651863490,0
{consumergroup=__strimzi-topic-operator-kstreams},1651863495,0
{consumergroup=__strimzi-topic-operator-kstreams},1651863500,0
{consumergroup=__strimzi-topic-operator-kstreams},1651863505,0
{consumergroup=__strimzi-topic-operator-kstreams},1651863510,0
{consumergroup=__strimzi-topic-operator-kstreams},1651863515,0
{consumergroup=__strimzi-topic-operator-kstreams},1651863520,0
{consumergroup=__strimzi-topic-operator-kstreams},1651863525,0
{consumergroup=__strimzi-topic-operator-kstreams},1651863530,0
{consumergroup=__strimzi-topic-operator-kstreams},1651863535,0
{consumergroup=__strimzi-topic-operator-kstreams},1651863540,0
{consumergroup=__strimzi-topic-operator-kstreams},1651863545,0
{consumergroup=__strimzi-topic-operator-kstreams},1651863550,0
{consumergroup=__strimzi-topic-operator-kstreams},1651863555,0
{consumergroup=__strimzi-topic-operator-kstreams},1651863560,0
{consumergroup=__strimzi-topic-operator-kstreams},1651863565,0
{consumergroup=__strimzi-topic-operator-kstreams},1651863570,0
{consumergroup=__strimzi-topic-operator-kstreams},1651863575,0
{consumergroup=__strimzi-topic-operator-kstreams},1651863580,0
{consumergroup=__strimzi-topic-operator-kstreams},1651863585,0
{consumergroup=__strimzi-topic-operator-kstreams},1651863590,0
{consumergroup=__strimzi-topic-operator-kstreams},1651863595,0
{consumergroup=__strimzi-topic-operator-kstreams},1651863600,0
{consumergroup=__strimzi-topic-operator-kstreams},1651863605,0
{consumergroup=__strimzi-topic-operator-kstreams},1651863610,0
{consumergroup=__strimzi-topic-operator-kstreams},1651863615,0
{consumergroup=__strimzi-topic-operator-kstreams},1651863620,0
{consumergroup=__strimzi-topic-operator-kstreams},1651863625,0
{consumergroup=__strimzi-topic-operator-kstreams},1651863630,0
{consumergroup=__strimzi-topic-operator-kstreams},1651863635,0
{consumergroup=__strimzi-topic-operator-kstreams},1651863640,0
{consumergroup=__strimzi-topic-operator-kstreams},1651863645,0
{consumergroup=__strimzi-topic-operator-kstreams},1651863650,0
{consumergroup=__strimzi-topic-operator-kstreams},1651863655,0
{consumergroup=__strimzi-topic-operator-kstreams},1651863660,0
{consumergroup=__strimzi-topic-operator-kstreams},1651863665,0
{consumergroup=__strimzi-topic-operator-kstreams},1651863670,0
{consumergroup=__strimzi-topic-operator-kstreams},1651863675,0
{consumergroup=__strimzi-topic-operator-kstreams},1651863680,0
{consumergroup=__strimzi-topic-operator-kstreams},1651863685,0
{consumergroup=__strimzi-topic-operator-kstreams},1651863690,0
{consumergroup=__strimzi-topic-operator-kstreams},1651863695,0
{consumergroup=__strimzi-topic-operator-kstreams},1651863700,0
{consumergroup=adapter-service},1651863475,518617
{consumergroup=adapter-service},1651863480,518617
{consumergroup=adapter-service},1651863485,518617
{consumergroup=adapter-service},1651863490,2291885
{consumergroup=adapter-service},1651863495,2291885
{consumergroup=adapter-service},1651863500,2291885
{consumergroup=adapter-service},1651863505,3393004
{consumergroup=adapter-service},1651863510,3393004
{consumergroup=adapter-service},1651863515,3393004
{consumergroup=adapter-service},1651863520,4234329
{consumergroup=adapter-service},1651863525,4234329
{consumergroup=adapter-service},1651863530,4234329
{consumergroup=adapter-service},1651863535,4776994
{consumergroup=adapter-service},1651863540,4776994
{consumergroup=adapter-service},1651863545,4776994
{consumergroup=adapter-service},1651863550,5074486
{consumergroup=adapter-service},1651863555,5074486
{consumergroup=adapter-service},1651863560,5074486
{consumergroup=adapter-service},1651863565,5032965
{consumergroup=adapter-service},1651863570,5032965
{consumergroup=adapter-service},1651863575,5032965
{consumergroup=adapter-service},1651863580,4815110
{consumergroup=adapter-service},1651863585,4815110
{consumergroup=adapter-service},1651863590,4815110
{consumergroup=adapter-service},1651863595,4745555
{consumergroup=adapter-service},1651863600,4745555
{consumergroup=adapter-service},1651863605,4745555
{consumergroup=adapter-service},1651863610,4289926
{consumergroup=adapter-service},1651863615,4289926
{consumergroup=adapter-service},1651863620,4289926
{consumergroup=adapter-service},1651863625,3879222
{consumergroup=adapter-service},1651863630,3879222
{consumergroup=adapter-service},1651863635,3879222
{consumergroup=adapter-service},1651863640,3836095
{consumergroup=adapter-service},1651863645,3836095
{consumergroup=adapter-service},1651863650,3836095
{consumergroup=adapter-service},1651863655,3646064
{consumergroup=adapter-service},1651863660,3646064
{consumergroup=adapter-service},1651863665,3646064
{consumergroup=adapter-service},1651863670,3414406
{consumergroup=adapter-service},1651863675,3414406
{consumergroup=adapter-service},1651863680,3414406
{consumergroup=adapter-service},1651863685,3190628
{consumergroup=adapter-service},1651863690,3190628
{consumergroup=adapter-service},1651863695,3190628
{consumergroup=adapter-service},1651863700,3184825
