labels,timestamp,value
{job=theodolite-stu200776/trace-isolated-podmonitor},1651789238,0
{job=theodolite-stu200776/trace-isolated-podmonitor},1651789243,0
{job=theodolite-stu200776/trace-isolated-podmonitor},1651789248,0
{job=theodolite-stu200776/trace-isolated-podmonitor},1651789253,0
{job=theodolite-stu200776/trace-isolated-podmonitor},1651789258,0
{job=theodolite-stu200776/trace-isolated-podmonitor},1651789263,0
{job=theodolite-stu200776/trace-isolated-podmonitor},1651789268,0
{job=theodolite-stu200776/trace-isolated-podmonitor},1651789273,31.044827004543773
{job=theodolite-stu200776/trace-isolated-podmonitor},1651789278,224.05997651696512
{job=theodolite-stu200776/trace-isolated-podmonitor},1651789283,343.5385781620317
{job=theodolite-stu200776/trace-isolated-podmonitor},1651789288,417.85465083070983
{job=theodolite-stu200776/trace-isolated-podmonitor},1651789293,392.34859117809015
{job=theodolite-stu200776/trace-isolated-podmonitor},1651789298,522.6276385244138
{job=theodolite-stu200776/trace-isolated-podmonitor},1651789303,698.4846900123949
{job=theodolite-stu200776/trace-isolated-podmonitor},1651789308,946.8620976508633
{job=theodolite-stu200776/trace-isolated-podmonitor},1651789313,1052.1329153701895
{job=theodolite-stu200776/trace-isolated-podmonitor},1651789318,1094.7706952347498
{job=theodolite-stu200776/trace-isolated-podmonitor},1651789323,1005.661584997461
{job=theodolite-stu200776/trace-isolated-podmonitor},1651789328,871.4264141044353
{job=theodolite-stu200776/trace-isolated-podmonitor},1651789333,740.0384358321014
{job=theodolite-stu200776/trace-isolated-podmonitor},1651789338,392.75908233826743
{job=theodolite-stu200776/trace-isolated-podmonitor},1651789343,244.32824294832298
{job=theodolite-stu200776/trace-isolated-podmonitor},1651789348,133.63185243919742
{job=theodolite-stu200776/trace-isolated-podmonitor},1651789353,125.1397568177047
{job=theodolite-stu200776/trace-isolated-podmonitor},1651789358,105.64902872558056
{job=theodolite-stu200776/trace-isolated-podmonitor},1651789363,100.30845744615765
{job=theodolite-stu200776/trace-isolated-podmonitor},1651789368,81.1140575313006
{job=theodolite-stu200776/trace-isolated-podmonitor},1651789373,57.7294141274848
{job=theodolite-stu200776/trace-isolated-podmonitor},1651789378,0
{job=theodolite-stu200776/trace-isolated-podmonitor},1651789383,0
{job=theodolite-stu200776/trace-isolated-podmonitor},1651789388,0
{job=theodolite-stu200776/trace-isolated-podmonitor},1651789393,0
{job=theodolite-stu200776/trace-isolated-podmonitor},1651789398,0
{job=theodolite-stu200776/trace-isolated-podmonitor},1651789403,0
{job=theodolite-stu200776/trace-isolated-podmonitor},1651789408,0
{job=theodolite-stu200776/trace-isolated-podmonitor},1651789413,0
{job=theodolite-stu200776/trace-isolated-podmonitor},1651789418,0
{job=theodolite-stu200776/trace-isolated-podmonitor},1651789423,0
{job=theodolite-stu200776/trace-isolated-podmonitor},1651789428,0
{job=theodolite-stu200776/trace-isolated-podmonitor},1651789433,0
{job=theodolite-stu200776/trace-isolated-podmonitor},1651789438,0
{job=theodolite-stu200776/trace-isolated-podmonitor},1651789443,0
{job=theodolite-stu200776/trace-isolated-podmonitor},1651789448,0
{job=theodolite-stu200776/trace-isolated-podmonitor},1651789453,0
{job=theodolite-stu200776/trace-isolated-podmonitor},1651789458,0
{job=theodolite-stu200776/trace-isolated-podmonitor},1651789463,0
{job=theodolite-stu200776/trace-isolated-podmonitor},1651789468,0
{job=theodolite-stu200776/trace-isolated-podmonitor},1651789473,0
{job=theodolite-stu200776/trace-isolated-podmonitor},1651789478,0
{job=theodolite-stu200776/trace-isolated-podmonitor},1651789483,0
{job=theodolite-stu200776/trace-isolated-podmonitor},1651789488,0
{job=theodolite-stu200776/trace-isolated-podmonitor},1651789493,0
{job=theodolite-stu200776/trace-isolated-podmonitor},1651789498,0
{job=theodolite-stu200776/trace-isolated-podmonitor},1651789503,0
{job=theodolite-stu200776/trace-isolated-podmonitor},1651789508,0
{job=theodolite-stu200776/trace-isolated-podmonitor},1651789513,0
{job=theodolite-stu200776/trace-isolated-podmonitor},1651789518,0
{job=theodolite-stu200776/trace-isolated-podmonitor},1651789523,0
{job=theodolite-stu200776/trace-isolated-podmonitor},1651789528,0
{job=theodolite-stu200776/trace-isolated-podmonitor},1651789533,0
{job=theodolite-stu200776/trace-isolated-podmonitor},1651789538,0
{job=theodolite-stu200776/trace-isolated-podmonitor},1651789543,0
{job=theodolite-stu200776/trace-isolated-podmonitor},1651789548,0
{job=theodolite-stu200776/trace-isolated-podmonitor},1651789553,0
{job=theodolite-stu200776/trace-isolated-podmonitor},1651789558,0
{job=theodolite-stu200776/trace-isolated-podmonitor},1651789563,0
{job=theodolite-stu200776/trace-isolated-podmonitor},1651789568,274.56032766135365
{job=theodolite-stu200776/trace-isolated-podmonitor},1651789573,420.6539436648781
{job=theodolite-stu200776/trace-isolated-podmonitor},1651789578,543.2724033803455
{job=theodolite-stu200776/trace-isolated-podmonitor},1651789583,596.9143421691425
{job=theodolite-stu200776/trace-isolated-podmonitor},1651789588,638.4223287416428
{job=theodolite-stu200776/trace-isolated-podmonitor},1651789593,606.8712655879721
{job=theodolite-stu200776/trace-isolated-podmonitor},1651789598,649.9677364081978
{job=theodolite-stu200776/trace-isolated-podmonitor},1651789603,668.3507939613409
{job=theodolite-stu200776/trace-isolated-podmonitor},1651789608,525.3773756032479
