labels,timestamp,value
{job=theodolite-stu200776/trace-isolated-podmonitor},1651764458,4383.436224014638
{job=theodolite-stu200776/trace-isolated-podmonitor},1651764463,6447.378929106526
{job=theodolite-stu200776/trace-isolated-podmonitor},1651764468,6713.703084924913
{job=theodolite-stu200776/trace-isolated-podmonitor},1651764473,6958.23488062462
{job=theodolite-stu200776/trace-isolated-podmonitor},1651764478,7242.162469404355
{job=theodolite-stu200776/trace-isolated-podmonitor},1651764483,7313.605239110907
{job=theodolite-stu200776/trace-isolated-podmonitor},1651764488,7663.211959507771
{job=theodolite-stu200776/trace-isolated-podmonitor},1651764493,7782.029712897637
{job=theodolite-stu200776/trace-isolated-podmonitor},1651764498,8064.401653188294
{job=theodolite-stu200776/trace-isolated-podmonitor},1651764503,8315.552167228629
{job=theodolite-stu200776/trace-isolated-podmonitor},1651764508,8814.163917161353
{job=theodolite-stu200776/trace-isolated-podmonitor},1651764513,8870.770471289256
{job=theodolite-stu200776/trace-isolated-podmonitor},1651764518,9288.920673501521
{job=theodolite-stu200776/trace-isolated-podmonitor},1651764523,9567.110456008691
{job=theodolite-stu200776/trace-isolated-podmonitor},1651764528,9813.114535820208
{job=theodolite-stu200776/trace-isolated-podmonitor},1651764533,10086.689441333003
{job=theodolite-stu200776/trace-isolated-podmonitor},1651764538,10749.821306936672
{job=theodolite-stu200776/trace-isolated-podmonitor},1651764543,10930.3207547933
{job=theodolite-stu200776/trace-isolated-podmonitor},1651764548,11282.487447627185
{job=theodolite-stu200776/trace-isolated-podmonitor},1651764553,11740.93423579384
{job=theodolite-stu200776/trace-isolated-podmonitor},1651764558,12740.922293596355
{job=theodolite-stu200776/trace-isolated-podmonitor},1651764563,13140.607644987256
{job=theodolite-stu200776/trace-isolated-podmonitor},1651764568,14854.486103086088
{job=theodolite-stu200776/trace-isolated-podmonitor},1651764573,15868.172482805103
{job=theodolite-stu200776/trace-isolated-podmonitor},1651764578,17670.522195928028
{job=theodolite-stu200776/trace-isolated-podmonitor},1651764583,18457.491558468235
{job=theodolite-stu200776/trace-isolated-podmonitor},1651764588,19314.749111221794
{job=theodolite-stu200776/trace-isolated-podmonitor},1651764593,19529.2981792834
{job=theodolite-stu200776/trace-isolated-podmonitor},1651764598,20914.110927299458
{job=theodolite-stu200776/trace-isolated-podmonitor},1651764603,22005.796651442663
{job=theodolite-stu200776/trace-isolated-podmonitor},1651764608,23382.82029275981
{job=theodolite-stu200776/trace-isolated-podmonitor},1651764613,23610.745274827386
{job=theodolite-stu200776/trace-isolated-podmonitor},1651764618,23135.787932504853
{job=theodolite-stu200776/trace-isolated-podmonitor},1651764623,23082.227925983578
{job=theodolite-stu200776/trace-isolated-podmonitor},1651764628,22682.610147288746
{job=theodolite-stu200776/trace-isolated-podmonitor},1651764633,22541.041007662843
{job=theodolite-stu200776/trace-isolated-podmonitor},1651764638,21960.223815425023
{job=theodolite-stu200776/trace-isolated-podmonitor},1651764643,21635.14275409753
{job=theodolite-stu200776/trace-isolated-podmonitor},1651764648,21112.529029387973
{job=theodolite-stu200776/trace-isolated-podmonitor},1651764653,21342.518427557086
{job=theodolite-stu200776/trace-isolated-podmonitor},1651764658,22251.701790066327
{job=theodolite-stu200776/trace-isolated-podmonitor},1651764663,22362.048850017618
{job=theodolite-stu200776/trace-isolated-podmonitor},1651764668,23563.03253279363
