labels,timestamp,value
{job=theodolite-stu200776/trace-isolated-podmonitor},1651800496,0
{job=theodolite-stu200776/trace-isolated-podmonitor},1651800501,0
{job=theodolite-stu200776/trace-isolated-podmonitor},1651800506,0
{job=theodolite-stu200776/trace-isolated-podmonitor},1651800511,0
{job=theodolite-stu200776/trace-isolated-podmonitor},1651800516,0
{job=theodolite-stu200776/trace-isolated-podmonitor},1651800521,0
{job=theodolite-stu200776/trace-isolated-podmonitor},1651800526,0
{job=theodolite-stu200776/trace-isolated-podmonitor},1651800531,0
{job=theodolite-stu200776/trace-isolated-podmonitor},1651800536,0
{job=theodolite-stu200776/trace-isolated-podmonitor},1651800541,0
{job=theodolite-stu200776/trace-isolated-podmonitor},1651800546,0
{job=theodolite-stu200776/trace-isolated-podmonitor},1651800551,0
{job=theodolite-stu200776/trace-isolated-podmonitor},1651800556,0
{job=theodolite-stu200776/trace-isolated-podmonitor},1651800561,0
{job=theodolite-stu200776/trace-isolated-podmonitor},1651800566,0
{job=theodolite-stu200776/trace-isolated-podmonitor},1651800571,0
{job=theodolite-stu200776/trace-isolated-podmonitor},1651800576,0
{job=theodolite-stu200776/trace-isolated-podmonitor},1651800581,0
{job=theodolite-stu200776/trace-isolated-podmonitor},1651800586,0
{job=theodolite-stu200776/trace-isolated-podmonitor},1651800591,0
{job=theodolite-stu200776/trace-isolated-podmonitor},1651800596,0
{job=theodolite-stu200776/trace-isolated-podmonitor},1651800601,0
{job=theodolite-stu200776/trace-isolated-podmonitor},1651800606,0
{job=theodolite-stu200776/trace-isolated-podmonitor},1651800611,0
{job=theodolite-stu200776/trace-isolated-podmonitor},1651800616,0
{job=theodolite-stu200776/trace-isolated-podmonitor},1651800621,0
{job=theodolite-stu200776/trace-isolated-podmonitor},1651800626,0
{job=theodolite-stu200776/trace-isolated-podmonitor},1651800631,0
{job=theodolite-stu200776/trace-isolated-podmonitor},1651800636,0
{job=theodolite-stu200776/trace-isolated-podmonitor},1651800641,0
{job=theodolite-stu200776/trace-isolated-podmonitor},1651800646,0
{job=theodolite-stu200776/trace-isolated-podmonitor},1651800651,0
{job=theodolite-stu200776/trace-isolated-podmonitor},1651800656,0
{job=theodolite-stu200776/trace-isolated-podmonitor},1651800661,0
{job=theodolite-stu200776/trace-isolated-podmonitor},1651800666,0
{job=theodolite-stu200776/trace-isolated-podmonitor},1651800671,0
{job=theodolite-stu200776/trace-isolated-podmonitor},1651800676,0
{job=theodolite-stu200776/trace-isolated-podmonitor},1651800681,0
{job=theodolite-stu200776/trace-isolated-podmonitor},1651800686,0
{job=theodolite-stu200776/trace-isolated-podmonitor},1651800691,0
{job=theodolite-stu200776/trace-isolated-podmonitor},1651800696,0
{job=theodolite-stu200776/trace-isolated-podmonitor},1651800701,0
{job=theodolite-stu200776/trace-isolated-podmonitor},1651800706,0
{job=theodolite-stu200776/trace-isolated-podmonitor},1651800711,0
{job=theodolite-stu200776/trace-isolated-podmonitor},1651800716,0
{job=theodolite-stu200776/trace-isolated-podmonitor},1651800721,0
{job=theodolite-stu200776/trace-isolated-podmonitor},1651800726,0
{job=theodolite-stu200776/trace-isolated-podmonitor},1651800731,0
{job=theodolite-stu200776/trace-isolated-podmonitor},1651800736,0
{job=theodolite-stu200776/trace-isolated-podmonitor},1651800741,0
{job=theodolite-stu200776/trace-isolated-podmonitor},1651800746,0
{job=theodolite-stu200776/trace-isolated-podmonitor},1651800751,0
{job=theodolite-stu200776/trace-isolated-podmonitor},1651800756,0
{job=theodolite-stu200776/trace-isolated-podmonitor},1651800761,0
{job=theodolite-stu200776/trace-isolated-podmonitor},1651800766,0
{job=theodolite-stu200776/trace-isolated-podmonitor},1651800771,0
{job=theodolite-stu200776/trace-isolated-podmonitor},1651800776,0
{job=theodolite-stu200776/trace-isolated-podmonitor},1651800781,0
{job=theodolite-stu200776/trace-isolated-podmonitor},1651800786,0
{job=theodolite-stu200776/trace-isolated-podmonitor},1651800791,0
{job=theodolite-stu200776/trace-isolated-podmonitor},1651800796,0
{job=theodolite-stu200776/trace-isolated-podmonitor},1651800801,0
{job=theodolite-stu200776/trace-isolated-podmonitor},1651800806,0
{job=theodolite-stu200776/trace-isolated-podmonitor},1651800811,0
{job=theodolite-stu200776/trace-isolated-podmonitor},1651800816,4.230096592018875
{job=theodolite-stu200776/trace-isolated-podmonitor},1651800821,10.013269598149263
{job=theodolite-stu200776/trace-isolated-podmonitor},1651800826,16.61170003828537
{job=theodolite-stu200776/trace-isolated-podmonitor},1651800831,19.146062676925258
{job=theodolite-stu200776/trace-isolated-podmonitor},1651800836,18.324873826217768
{job=theodolite-stu200776/trace-isolated-podmonitor},1651800841,19.18008313681703
{job=theodolite-stu200776/trace-isolated-podmonitor},1651800846,21.399204551670056
{job=theodolite-stu200776/trace-isolated-podmonitor},1651800851,23.73257827722611
{job=theodolite-stu200776/trace-isolated-podmonitor},1651800856,23.635447367935296
{job=theodolite-stu200776/trace-isolated-podmonitor},1651800861,22.740734748038143
{job=theodolite-stu200776/trace-isolated-podmonitor},1651800866,19.718178742975386
{job=theodolite-stu200776/trace-isolated-podmonitor},1651800871,17.278596857702702
