labels,timestamp,value
{consumergroup=__strimzi-topic-operator-kstreams},1651869223,24
{consumergroup=__strimzi-topic-operator-kstreams},1651869228,24
{consumergroup=__strimzi-topic-operator-kstreams},1651869233,24
{consumergroup=__strimzi-topic-operator-kstreams},1651869238,0
{consumergroup=__strimzi-topic-operator-kstreams},1651869243,0
{consumergroup=__strimzi-topic-operator-kstreams},1651869248,0
{consumergroup=__strimzi-topic-operator-kstreams},1651869253,0
{consumergroup=__strimzi-topic-operator-kstreams},1651869258,0
{consumergroup=__strimzi-topic-operator-kstreams},1651869263,0
{consumergroup=__strimzi-topic-operator-kstreams},1651869268,0
{consumergroup=__strimzi-topic-operator-kstreams},1651869273,0
{consumergroup=__strimzi-topic-operator-kstreams},1651869278,0
{consumergroup=__strimzi-topic-operator-kstreams},1651869283,0
{consumergroup=__strimzi-topic-operator-kstreams},1651869288,0
{consumergroup=__strimzi-topic-operator-kstreams},1651869293,0
{consumergroup=__strimzi-topic-operator-kstreams},1651869298,0
{consumergroup=__strimzi-topic-operator-kstreams},1651869303,0
{consumergroup=__strimzi-topic-operator-kstreams},1651869308,0
{consumergroup=__strimzi-topic-operator-kstreams},1651869313,0
{consumergroup=__strimzi-topic-operator-kstreams},1651869318,0
{consumergroup=__strimzi-topic-operator-kstreams},1651869323,0
{consumergroup=__strimzi-topic-operator-kstreams},1651869328,0
{consumergroup=__strimzi-topic-operator-kstreams},1651869333,0
{consumergroup=__strimzi-topic-operator-kstreams},1651869338,0
{consumergroup=__strimzi-topic-operator-kstreams},1651869343,0
{consumergroup=__strimzi-topic-operator-kstreams},1651869348,0
{consumergroup=__strimzi-topic-operator-kstreams},1651869353,0
{consumergroup=__strimzi-topic-operator-kstreams},1651869358,0
{consumergroup=__strimzi-topic-operator-kstreams},1651869363,0
{consumergroup=__strimzi-topic-operator-kstreams},1651869368,0
{consumergroup=__strimzi-topic-operator-kstreams},1651869373,0
{consumergroup=__strimzi-topic-operator-kstreams},1651869378,0
{consumergroup=__strimzi-topic-operator-kstreams},1651869383,0
{consumergroup=__strimzi-topic-operator-kstreams},1651869388,0
{consumergroup=__strimzi-topic-operator-kstreams},1651869393,0
{consumergroup=__strimzi-topic-operator-kstreams},1651869398,0
{consumergroup=__strimzi-topic-operator-kstreams},1651869403,0
{consumergroup=__strimzi-topic-operator-kstreams},1651869408,0
{consumergroup=__strimzi-topic-operator-kstreams},1651869413,0
{consumergroup=__strimzi-topic-operator-kstreams},1651869418,0
{consumergroup=__strimzi-topic-operator-kstreams},1651869423,0
{consumergroup=__strimzi-topic-operator-kstreams},1651869428,0
{consumergroup=__strimzi-topic-operator-kstreams},1651869433,0
{consumergroup=__strimzi-topic-operator-kstreams},1651869438,0
{consumergroup=__strimzi-topic-operator-kstreams},1651869443,0
{consumergroup=__strimzi-topic-operator-kstreams},1651869448,0
{consumergroup=__strimzi-topic-operator-kstreams},1651869453,0
{consumergroup=__strimzi-topic-operator-kstreams},1651869458,0
{consumergroup=__strimzi-topic-operator-kstreams},1651869463,0
{consumergroup=__strimzi-topic-operator-kstreams},1651869468,0
{consumergroup=adapter-service},1651869253,1249766
{consumergroup=adapter-service},1651869258,1249766
{consumergroup=adapter-service},1651869263,1249766
{consumergroup=adapter-service},1651869268,2264429
{consumergroup=adapter-service},1651869273,2264429
{consumergroup=adapter-service},1651869278,2264429
{consumergroup=adapter-service},1651869283,2356465
{consumergroup=adapter-service},1651869288,2356465
{consumergroup=adapter-service},1651869293,2356465
{consumergroup=adapter-service},1651869298,2728467
{consumergroup=adapter-service},1651869303,2728467
{consumergroup=adapter-service},1651869308,2728467
{consumergroup=adapter-service},1651869313,3579886
{consumergroup=adapter-service},1651869318,3579886
{consumergroup=adapter-service},1651869323,3579886
{consumergroup=adapter-service},1651869328,3972302
{consumergroup=adapter-service},1651869333,3972302
{consumergroup=adapter-service},1651869338,3972302
{consumergroup=adapter-service},1651869343,4180461
{consumergroup=adapter-service},1651869348,4180461
{consumergroup=adapter-service},1651869353,4180461
{consumergroup=adapter-service},1651869358,4695233
{consumergroup=adapter-service},1651869363,4695233
{consumergroup=adapter-service},1651869368,4695233
{consumergroup=adapter-service},1651869373,4849651
{consumergroup=adapter-service},1651869378,4849651
{consumergroup=adapter-service},1651869383,4849651
{consumergroup=adapter-service},1651869388,5435965
{consumergroup=adapter-service},1651869393,5435965
{consumergroup=adapter-service},1651869398,5435965
{consumergroup=adapter-service},1651869403,5940446
{consumergroup=adapter-service},1651869408,5940446
{consumergroup=adapter-service},1651869413,5940446
{consumergroup=adapter-service},1651869418,6163672
{consumergroup=adapter-service},1651869423,6163672
{consumergroup=adapter-service},1651869428,6163672
{consumergroup=adapter-service},1651869433,6042898
{consumergroup=adapter-service},1651869438,6042898
{consumergroup=adapter-service},1651869443,6042898
{consumergroup=adapter-service},1651869448,6388466
{consumergroup=adapter-service},1651869453,6388466
{consumergroup=adapter-service},1651869458,6388466
{consumergroup=adapter-service},1651869463,6433370
{consumergroup=adapter-service},1651869468,6433370
