labels,timestamp,value
{consumergroup=__strimzi-topic-operator-kstreams},1651802507,11
{consumergroup=__strimzi-topic-operator-kstreams},1651802512,11
{consumergroup=__strimzi-topic-operator-kstreams},1651802517,11
{consumergroup=__strimzi-topic-operator-kstreams},1651802522,0
{consumergroup=__strimzi-topic-operator-kstreams},1651802527,0
{consumergroup=__strimzi-topic-operator-kstreams},1651802532,0
{consumergroup=__strimzi-topic-operator-kstreams},1651802537,0
{consumergroup=__strimzi-topic-operator-kstreams},1651802542,0
{consumergroup=__strimzi-topic-operator-kstreams},1651802547,0
{consumergroup=__strimzi-topic-operator-kstreams},1651802552,0
{consumergroup=__strimzi-topic-operator-kstreams},1651802557,0
{consumergroup=__strimzi-topic-operator-kstreams},1651802562,0
{consumergroup=__strimzi-topic-operator-kstreams},1651802567,0
{consumergroup=__strimzi-topic-operator-kstreams},1651802572,0
{consumergroup=__strimzi-topic-operator-kstreams},1651802577,0
{consumergroup=__strimzi-topic-operator-kstreams},1651802582,0
{consumergroup=__strimzi-topic-operator-kstreams},1651802587,0
{consumergroup=__strimzi-topic-operator-kstreams},1651802592,0
{consumergroup=__strimzi-topic-operator-kstreams},1651802597,0
{consumergroup=__strimzi-topic-operator-kstreams},1651802602,0
{consumergroup=__strimzi-topic-operator-kstreams},1651802607,0
{consumergroup=__strimzi-topic-operator-kstreams},1651802612,0
{consumergroup=__strimzi-topic-operator-kstreams},1651802617,0
{consumergroup=__strimzi-topic-operator-kstreams},1651802622,0
{consumergroup=__strimzi-topic-operator-kstreams},1651802627,0
{consumergroup=__strimzi-topic-operator-kstreams},1651802632,0
{consumergroup=__strimzi-topic-operator-kstreams},1651802637,0
{consumergroup=__strimzi-topic-operator-kstreams},1651802642,0
{consumergroup=__strimzi-topic-operator-kstreams},1651802647,0
{consumergroup=__strimzi-topic-operator-kstreams},1651802652,0
{consumergroup=__strimzi-topic-operator-kstreams},1651802657,0
{consumergroup=__strimzi-topic-operator-kstreams},1651802662,0
{consumergroup=__strimzi-topic-operator-kstreams},1651802667,0
{consumergroup=__strimzi-topic-operator-kstreams},1651802672,0
{consumergroup=__strimzi-topic-operator-kstreams},1651802677,0
{consumergroup=__strimzi-topic-operator-kstreams},1651802682,0
{consumergroup=__strimzi-topic-operator-kstreams},1651802687,0
{consumergroup=__strimzi-topic-operator-kstreams},1651802692,0
{consumergroup=__strimzi-topic-operator-kstreams},1651802697,0
{consumergroup=__strimzi-topic-operator-kstreams},1651802702,0
{consumergroup=__strimzi-topic-operator-kstreams},1651802707,0
{consumergroup=__strimzi-topic-operator-kstreams},1651802712,0
{consumergroup=__strimzi-topic-operator-kstreams},1651802717,0
{consumergroup=__strimzi-topic-operator-kstreams},1651802722,0
{consumergroup=__strimzi-topic-operator-kstreams},1651802727,0
{consumergroup=__strimzi-topic-operator-kstreams},1651802732,0
{consumergroup=__strimzi-topic-operator-kstreams},1651802737,0
{consumergroup=__strimzi-topic-operator-kstreams},1651802742,0
{consumergroup=__strimzi-topic-operator-kstreams},1651802747,0
{consumergroup=__strimzi-topic-operator-kstreams},1651802752,0
{consumergroup=__strimzi-topic-operator-kstreams},1651802757,0
{consumergroup=__strimzi-topic-operator-kstreams},1651802762,0
{consumergroup=__strimzi-topic-operator-kstreams},1651802767,0
{consumergroup=__strimzi-topic-operator-kstreams},1651802772,0
{consumergroup=__strimzi-topic-operator-kstreams},1651802777,0
{consumergroup=__strimzi-topic-operator-kstreams},1651802782,0
{consumergroup=__strimzi-topic-operator-kstreams},1651802787,0
{consumergroup=__strimzi-topic-operator-kstreams},1651802792,0
{consumergroup=__strimzi-topic-operator-kstreams},1651802797,0
{consumergroup=__strimzi-topic-operator-kstreams},1651802802,0
{consumergroup=__strimzi-topic-operator-kstreams},1651802807,0
{consumergroup=__strimzi-topic-operator-kstreams},1651802812,0
{consumergroup=__strimzi-topic-operator-kstreams},1651802817,0
{consumergroup=__strimzi-topic-operator-kstreams},1651802822,0
{consumergroup=__strimzi-topic-operator-kstreams},1651802827,0
{consumergroup=__strimzi-topic-operator-kstreams},1651802832,0
{consumergroup=__strimzi-topic-operator-kstreams},1651802837,0
{consumergroup=__strimzi-topic-operator-kstreams},1651802842,0
{consumergroup=__strimzi-topic-operator-kstreams},1651802847,0
{consumergroup=__strimzi-topic-operator-kstreams},1651802852,0
{consumergroup=__strimzi-topic-operator-kstreams},1651802857,0
{consumergroup=__strimzi-topic-operator-kstreams},1651802862,0
{consumergroup=__strimzi-topic-operator-kstreams},1651802867,0
{consumergroup=__strimzi-topic-operator-kstreams},1651802872,0
{consumergroup=__strimzi-topic-operator-kstreams},1651802877,0
{consumergroup=__strimzi-topic-operator-kstreams},1651802882,0
{consumergroup=__strimzi-topic-operator-kstreams},1651802887,0
{consumergroup=__strimzi-topic-operator-kstreams},1651802892,0
{consumergroup=__strimzi-topic-operator-kstreams},1651802897,0
{consumergroup=__strimzi-topic-operator-kstreams},1651802902,0
{consumergroup=__strimzi-topic-operator-kstreams},1651802907,0
{consumergroup=__strimzi-topic-operator-kstreams},1651802912,0
{consumergroup=__strimzi-topic-operator-kstreams},1651802917,0
{consumergroup=__strimzi-topic-operator-kstreams},1651802922,0
{consumergroup=__strimzi-topic-operator-kstreams},1651802927,0
{consumergroup=__strimzi-topic-operator-kstreams},1651802932,0
{consumergroup=__strimzi-topic-operator-kstreams},1651802937,0
{consumergroup=__strimzi-topic-operator-kstreams},1651802942,0
{consumergroup=trace-service},1651802537,47
{consumergroup=trace-service},1651802542,47
{consumergroup=trace-service},1651802547,47
{consumergroup=trace-service},1651802552,73854
{consumergroup=trace-service},1651802557,73854
{consumergroup=trace-service},1651802562,73854
{consumergroup=trace-service},1651802567,620920
{consumergroup=trace-service},1651802572,620920
{consumergroup=trace-service},1651802577,620920
{consumergroup=trace-service},1651802582,531661
{consumergroup=trace-service},1651802587,531661
{consumergroup=trace-service},1651802592,531661
{consumergroup=trace-service},1651802597,615650
{consumergroup=trace-service},1651802602,615650
{consumergroup=trace-service},1651802607,615650
{consumergroup=trace-service},1651802612,277443
{consumergroup=trace-service},1651802617,277443
{consumergroup=trace-service},1651802622,277443
{consumergroup=trace-service},1651802627,632510
{consumergroup=trace-service},1651802632,632510
{consumergroup=trace-service},1651802637,632510
{consumergroup=trace-service},1651802642,228515
{consumergroup=trace-service},1651802647,228515
{consumergroup=trace-service},1651802652,228515
{consumergroup=trace-service},1651802657,551279
{consumergroup=trace-service},1651802662,551279
{consumergroup=trace-service},1651802667,551279
{consumergroup=trace-service},1651802672,214670
{consumergroup=trace-service},1651802677,214670
{consumergroup=trace-service},1651802682,214670
{consumergroup=trace-service},1651802687,565595
{consumergroup=trace-service},1651802692,565595
{consumergroup=trace-service},1651802697,565595
{consumergroup=trace-service},1651802702,1068628
{consumergroup=trace-service},1651802707,1068628
{consumergroup=trace-service},1651802712,1068628
{consumergroup=trace-service},1651802717,424183
{consumergroup=trace-service},1651802722,424183
{consumergroup=trace-service},1651802727,424183
{consumergroup=trace-service},1651802732,224536
{consumergroup=trace-service},1651802737,224536
{consumergroup=trace-service},1651802742,224536
{consumergroup=trace-service},1651802747,575888
{consumergroup=trace-service},1651802752,575888
{consumergroup=trace-service},1651802757,575888
{consumergroup=trace-service},1651802762,1307405
{consumergroup=trace-service},1651802767,1307405
{consumergroup=trace-service},1651802772,1307405
{consumergroup=trace-service},1651802777,952732
{consumergroup=trace-service},1651802782,952732
{consumergroup=trace-service},1651802787,952732
{consumergroup=trace-service},1651802792,1176386
{consumergroup=trace-service},1651802797,1176386
{consumergroup=trace-service},1651802802,1176386
{consumergroup=trace-service},1651802807,576967
{consumergroup=trace-service},1651802812,576967
{consumergroup=trace-service},1651802817,576967
{consumergroup=trace-service},1651802822,246912
{consumergroup=trace-service},1651802827,246912
{consumergroup=trace-service},1651802832,246912
{consumergroup=trace-service},1651802837,568154
{consumergroup=trace-service},1651802842,568154
{consumergroup=trace-service},1651802847,568154
{consumergroup=trace-service},1651802852,186072
{consumergroup=trace-service},1651802857,186072
{consumergroup=trace-service},1651802862,186072
{consumergroup=trace-service},1651802867,523502
{consumergroup=trace-service},1651802872,523502
{consumergroup=trace-service},1651802877,523502
{consumergroup=trace-service},1651802882,190285
{consumergroup=trace-service},1651802887,190285
{consumergroup=trace-service},1651802892,190285
{consumergroup=trace-service},1651802897,582946
{consumergroup=trace-service},1651802902,582946
{consumergroup=trace-service},1651802907,582946
{consumergroup=trace-service},1651802912,198985
{consumergroup=trace-service},1651802917,198985
{consumergroup=trace-service},1651802922,198985
{consumergroup=trace-service},1651802927,528711
{consumergroup=trace-service},1651802932,528711
{consumergroup=trace-service},1651802937,528711
{consumergroup=trace-service},1651802942,207236
{consumergroup=trace-token-events-consumer},1651802537,0
{consumergroup=trace-token-events-consumer},1651802542,0
{consumergroup=trace-token-events-consumer},1651802547,0
{consumergroup=trace-token-events-consumer},1651802552,0
{consumergroup=trace-token-events-consumer},1651802557,0
{consumergroup=trace-token-events-consumer},1651802562,0
{consumergroup=trace-token-events-consumer},1651802567,0
{consumergroup=trace-token-events-consumer},1651802572,0
{consumergroup=trace-token-events-consumer},1651802577,0
{consumergroup=trace-token-events-consumer},1651802582,0
{consumergroup=trace-token-events-consumer},1651802587,0
{consumergroup=trace-token-events-consumer},1651802592,0
{consumergroup=trace-token-events-consumer},1651802597,0
{consumergroup=trace-token-events-consumer},1651802602,0
{consumergroup=trace-token-events-consumer},1651802607,0
{consumergroup=trace-token-events-consumer},1651802612,0
{consumergroup=trace-token-events-consumer},1651802617,0
{consumergroup=trace-token-events-consumer},1651802622,0
{consumergroup=trace-token-events-consumer},1651802627,0
{consumergroup=trace-token-events-consumer},1651802632,0
{consumergroup=trace-token-events-consumer},1651802637,0
{consumergroup=trace-token-events-consumer},1651802642,0
{consumergroup=trace-token-events-consumer},1651802647,0
{consumergroup=trace-token-events-consumer},1651802652,0
{consumergroup=trace-token-events-consumer},1651802657,0
{consumergroup=trace-token-events-consumer},1651802662,0
{consumergroup=trace-token-events-consumer},1651802667,0
{consumergroup=trace-token-events-consumer},1651802672,0
{consumergroup=trace-token-events-consumer},1651802677,0
{consumergroup=trace-token-events-consumer},1651802682,0
{consumergroup=trace-token-events-consumer},1651802687,0
{consumergroup=trace-token-events-consumer},1651802692,0
{consumergroup=trace-token-events-consumer},1651802697,0
{consumergroup=trace-token-events-consumer},1651802702,0
{consumergroup=trace-token-events-consumer},1651802707,0
{consumergroup=trace-token-events-consumer},1651802712,0
{consumergroup=trace-token-events-consumer},1651802717,0
{consumergroup=trace-token-events-consumer},1651802722,0
{consumergroup=trace-token-events-consumer},1651802727,0
{consumergroup=trace-token-events-consumer},1651802732,0
{consumergroup=trace-token-events-consumer},1651802737,0
{consumergroup=trace-token-events-consumer},1651802742,0
{consumergroup=trace-token-events-consumer},1651802747,0
{consumergroup=trace-token-events-consumer},1651802752,0
{consumergroup=trace-token-events-consumer},1651802757,0
{consumergroup=trace-token-events-consumer},1651802762,0
{consumergroup=trace-token-events-consumer},1651802767,0
{consumergroup=trace-token-events-consumer},1651802772,0
{consumergroup=trace-token-events-consumer},1651802777,0
{consumergroup=trace-token-events-consumer},1651802782,0
{consumergroup=trace-token-events-consumer},1651802787,0
{consumergroup=trace-token-events-consumer},1651802792,0
{consumergroup=trace-token-events-consumer},1651802797,0
{consumergroup=trace-token-events-consumer},1651802802,0
{consumergroup=trace-token-events-consumer},1651802807,0
{consumergroup=trace-token-events-consumer},1651802812,0
{consumergroup=trace-token-events-consumer},1651802817,0
{consumergroup=trace-token-events-consumer},1651802822,0
{consumergroup=trace-token-events-consumer},1651802827,0
{consumergroup=trace-token-events-consumer},1651802832,0
{consumergroup=trace-token-events-consumer},1651802837,0
{consumergroup=trace-token-events-consumer},1651802842,0
{consumergroup=trace-token-events-consumer},1651802847,0
{consumergroup=trace-token-events-consumer},1651802852,0
{consumergroup=trace-token-events-consumer},1651802857,0
{consumergroup=trace-token-events-consumer},1651802862,0
{consumergroup=trace-token-events-consumer},1651802867,0
{consumergroup=trace-token-events-consumer},1651802872,0
{consumergroup=trace-token-events-consumer},1651802877,0
{consumergroup=trace-token-events-consumer},1651802882,0
{consumergroup=trace-token-events-consumer},1651802887,0
{consumergroup=trace-token-events-consumer},1651802892,0
{consumergroup=trace-token-events-consumer},1651802897,0
{consumergroup=trace-token-events-consumer},1651802902,0
{consumergroup=trace-token-events-consumer},1651802907,0
{consumergroup=trace-token-events-consumer},1651802912,0
{consumergroup=trace-token-events-consumer},1651802917,0
{consumergroup=trace-token-events-consumer},1651802922,0
{consumergroup=trace-token-events-consumer},1651802927,0
{consumergroup=trace-token-events-consumer},1651802932,0
{consumergroup=trace-token-events-consumer},1651802937,0
{consumergroup=trace-token-events-consumer},1651802942,0
