labels,timestamp,value
{consumergroup=__strimzi-topic-operator-kstreams},1651864669,8
{consumergroup=__strimzi-topic-operator-kstreams},1651864674,8
{consumergroup=__strimzi-topic-operator-kstreams},1651864679,8
{consumergroup=__strimzi-topic-operator-kstreams},1651864684,8
{consumergroup=__strimzi-topic-operator-kstreams},1651864689,8
{consumergroup=__strimzi-topic-operator-kstreams},1651864694,8
{consumergroup=__strimzi-topic-operator-kstreams},1651864699,0
{consumergroup=__strimzi-topic-operator-kstreams},1651864704,0
{consumergroup=__strimzi-topic-operator-kstreams},1651864709,0
{consumergroup=__strimzi-topic-operator-kstreams},1651864714,0
{consumergroup=__strimzi-topic-operator-kstreams},1651864719,0
{consumergroup=__strimzi-topic-operator-kstreams},1651864724,0
{consumergroup=__strimzi-topic-operator-kstreams},1651864729,0
{consumergroup=__strimzi-topic-operator-kstreams},1651864734,0
{consumergroup=__strimzi-topic-operator-kstreams},1651864739,0
{consumergroup=__strimzi-topic-operator-kstreams},1651864744,0
{consumergroup=__strimzi-topic-operator-kstreams},1651864749,0
{consumergroup=__strimzi-topic-operator-kstreams},1651864754,0
{consumergroup=__strimzi-topic-operator-kstreams},1651864759,0
{consumergroup=__strimzi-topic-operator-kstreams},1651864764,0
{consumergroup=__strimzi-topic-operator-kstreams},1651864769,0
{consumergroup=__strimzi-topic-operator-kstreams},1651864774,0
{consumergroup=__strimzi-topic-operator-kstreams},1651864779,0
{consumergroup=__strimzi-topic-operator-kstreams},1651864784,0
{consumergroup=__strimzi-topic-operator-kstreams},1651864789,0
{consumergroup=__strimzi-topic-operator-kstreams},1651864794,0
{consumergroup=__strimzi-topic-operator-kstreams},1651864799,0
{consumergroup=__strimzi-topic-operator-kstreams},1651864804,0
{consumergroup=__strimzi-topic-operator-kstreams},1651864809,0
{consumergroup=__strimzi-topic-operator-kstreams},1651864814,0
{consumergroup=__strimzi-topic-operator-kstreams},1651864819,0
{consumergroup=__strimzi-topic-operator-kstreams},1651864824,0
{consumergroup=__strimzi-topic-operator-kstreams},1651864829,0
{consumergroup=__strimzi-topic-operator-kstreams},1651864834,0
{consumergroup=__strimzi-topic-operator-kstreams},1651864839,0
{consumergroup=__strimzi-topic-operator-kstreams},1651864844,0
{consumergroup=__strimzi-topic-operator-kstreams},1651864849,0
{consumergroup=__strimzi-topic-operator-kstreams},1651864854,0
{consumergroup=__strimzi-topic-operator-kstreams},1651864859,0
{consumergroup=__strimzi-topic-operator-kstreams},1651864864,0
{consumergroup=__strimzi-topic-operator-kstreams},1651864869,0
{consumergroup=__strimzi-topic-operator-kstreams},1651864874,0
{consumergroup=__strimzi-topic-operator-kstreams},1651864879,0
{consumergroup=__strimzi-topic-operator-kstreams},1651864884,0
{consumergroup=__strimzi-topic-operator-kstreams},1651864889,0
{consumergroup=__strimzi-topic-operator-kstreams},1651864894,0
{consumergroup=__strimzi-topic-operator-kstreams},1651864899,0
{consumergroup=__strimzi-topic-operator-kstreams},1651864904,0
{consumergroup=__strimzi-topic-operator-kstreams},1651864909,0
{consumergroup=__strimzi-topic-operator-kstreams},1651864914,0
{consumergroup=__strimzi-topic-operator-kstreams},1651864919,0
{consumergroup=adapter-service},1651864699,931883
{consumergroup=adapter-service},1651864704,931883
{consumergroup=adapter-service},1651864709,931883
{consumergroup=adapter-service},1651864714,2603848
{consumergroup=adapter-service},1651864719,2603848
{consumergroup=adapter-service},1651864724,2603848
{consumergroup=adapter-service},1651864729,4005657
{consumergroup=adapter-service},1651864734,4005657
{consumergroup=adapter-service},1651864739,4005657
{consumergroup=adapter-service},1651864744,5132462
{consumergroup=adapter-service},1651864749,5132462
{consumergroup=adapter-service},1651864754,5132462
{consumergroup=adapter-service},1651864759,5957185
{consumergroup=adapter-service},1651864764,5957185
{consumergroup=adapter-service},1651864769,5957185
{consumergroup=adapter-service},1651864774,6404205
{consumergroup=adapter-service},1651864779,6404205
{consumergroup=adapter-service},1651864784,6404205
{consumergroup=adapter-service},1651864789,6449012
{consumergroup=adapter-service},1651864794,6449012
{consumergroup=adapter-service},1651864799,6449012
{consumergroup=adapter-service},1651864804,6469610
{consumergroup=adapter-service},1651864809,6469610
{consumergroup=adapter-service},1651864814,6469610
{consumergroup=adapter-service},1651864819,6328878
{consumergroup=adapter-service},1651864824,6328878
{consumergroup=adapter-service},1651864829,6328878
{consumergroup=adapter-service},1651864834,6561787
{consumergroup=adapter-service},1651864839,6561787
{consumergroup=adapter-service},1651864844,6561787
{consumergroup=adapter-service},1651864849,6206822
{consumergroup=adapter-service},1651864854,6206822
{consumergroup=adapter-service},1651864859,6206822
{consumergroup=adapter-service},1651864864,6412499
{consumergroup=adapter-service},1651864869,6412499
{consumergroup=adapter-service},1651864874,6412499
{consumergroup=adapter-service},1651864879,6216066
{consumergroup=adapter-service},1651864884,6216066
{consumergroup=adapter-service},1651864889,6216066
{consumergroup=adapter-service},1651864894,6200087
{consumergroup=adapter-service},1651864899,6200087
{consumergroup=adapter-service},1651864904,6200087
{consumergroup=adapter-service},1651864909,6087623
{consumergroup=adapter-service},1651864914,6087623
{consumergroup=adapter-service},1651864919,6087623
