labels,timestamp,value
{consumergroup=__strimzi-topic-operator-kstreams},1651782943,0
{consumergroup=__strimzi-topic-operator-kstreams},1651782948,0
{consumergroup=__strimzi-topic-operator-kstreams},1651782958,11
{consumergroup=__strimzi-topic-operator-kstreams},1651782963,11
{consumergroup=__strimzi-topic-operator-kstreams},1651782968,11
{consumergroup=__strimzi-topic-operator-kstreams},1651782973,2
{consumergroup=__strimzi-topic-operator-kstreams},1651782978,2
{consumergroup=__strimzi-topic-operator-kstreams},1651782983,2
{consumergroup=__strimzi-topic-operator-kstreams},1651782988,2
{consumergroup=__strimzi-topic-operator-kstreams},1651782993,2
{consumergroup=__strimzi-topic-operator-kstreams},1651782998,2
{consumergroup=__strimzi-topic-operator-kstreams},1651783003,0
{consumergroup=__strimzi-topic-operator-kstreams},1651783008,0
{consumergroup=__strimzi-topic-operator-kstreams},1651783013,0
{consumergroup=__strimzi-topic-operator-kstreams},1651783018,0
{consumergroup=__strimzi-topic-operator-kstreams},1651783023,0
{consumergroup=__strimzi-topic-operator-kstreams},1651783028,0
{consumergroup=__strimzi-topic-operator-kstreams},1651783033,0
{consumergroup=__strimzi-topic-operator-kstreams},1651783038,0
{consumergroup=__strimzi-topic-operator-kstreams},1651783043,0
{consumergroup=__strimzi-topic-operator-kstreams},1651783048,0
{consumergroup=__strimzi-topic-operator-kstreams},1651783053,0
{consumergroup=__strimzi-topic-operator-kstreams},1651783058,0
{consumergroup=__strimzi-topic-operator-kstreams},1651783063,0
{consumergroup=__strimzi-topic-operator-kstreams},1651783068,0
{consumergroup=__strimzi-topic-operator-kstreams},1651783073,0
{consumergroup=__strimzi-topic-operator-kstreams},1651783078,1
{consumergroup=__strimzi-topic-operator-kstreams},1651783083,1
{consumergroup=__strimzi-topic-operator-kstreams},1651783088,1
{consumergroup=__strimzi-topic-operator-kstreams},1651783093,0
{consumergroup=__strimzi-topic-operator-kstreams},1651783098,0
{consumergroup=__strimzi-topic-operator-kstreams},1651783103,0
{consumergroup=__strimzi-topic-operator-kstreams},1651783108,0
{consumergroup=__strimzi-topic-operator-kstreams},1651783113,0
{consumergroup=__strimzi-topic-operator-kstreams},1651783118,0
{consumergroup=__strimzi-topic-operator-kstreams},1651783123,0
{consumergroup=__strimzi-topic-operator-kstreams},1651783128,0
{consumergroup=__strimzi-topic-operator-kstreams},1651783133,0
{consumergroup=__strimzi-topic-operator-kstreams},1651783138,0
{consumergroup=__strimzi-topic-operator-kstreams},1651783143,0
{consumergroup=__strimzi-topic-operator-kstreams},1651783148,0
{consumergroup=__strimzi-topic-operator-kstreams},1651783153,0
{consumergroup=__strimzi-topic-operator-kstreams},1651783158,0
{consumergroup=__strimzi-topic-operator-kstreams},1651783163,0
{consumergroup=__strimzi-topic-operator-kstreams},1651783168,0
{consumergroup=__strimzi-topic-operator-kstreams},1651783173,0
{consumergroup=__strimzi-topic-operator-kstreams},1651783178,0
{consumergroup=__strimzi-topic-operator-kstreams},1651783183,0
{consumergroup=__strimzi-topic-operator-kstreams},1651783188,0
{consumergroup=__strimzi-topic-operator-kstreams},1651783193,0
{consumergroup=__strimzi-topic-operator-kstreams},1651783198,0
{consumergroup=__strimzi-topic-operator-kstreams},1651783203,0
{consumergroup=__strimzi-topic-operator-kstreams},1651783208,0
{consumergroup=__strimzi-topic-operator-kstreams},1651783213,0
{consumergroup=__strimzi-topic-operator-kstreams},1651783218,0
{consumergroup=__strimzi-topic-operator-kstreams},1651783223,0
{consumergroup=__strimzi-topic-operator-kstreams},1651783228,0
{consumergroup=__strimzi-topic-operator-kstreams},1651783233,0
{consumergroup=__strimzi-topic-operator-kstreams},1651783238,0
{consumergroup=__strimzi-topic-operator-kstreams},1651783243,0
{consumergroup=__strimzi-topic-operator-kstreams},1651783248,0
{consumergroup=__strimzi-topic-operator-kstreams},1651783253,0
{consumergroup=__strimzi-topic-operator-kstreams},1651783258,0
{consumergroup=__strimzi-topic-operator-kstreams},1651783263,0
{consumergroup=__strimzi-topic-operator-kstreams},1651783268,0
{consumergroup=__strimzi-topic-operator-kstreams},1651783273,0
{consumergroup=__strimzi-topic-operator-kstreams},1651783278,0
{consumergroup=__strimzi-topic-operator-kstreams},1651783283,0
{consumergroup=__strimzi-topic-operator-kstreams},1651783288,0
{consumergroup=__strimzi-topic-operator-kstreams},1651783293,0
{consumergroup=__strimzi-topic-operator-kstreams},1651783298,0
{consumergroup=__strimzi-topic-operator-kstreams},1651783303,0
{consumergroup=__strimzi-topic-operator-kstreams},1651783308,0
{consumergroup=__strimzi-topic-operator-kstreams},1651783313,0
{consumergroup=__strimzi-topic-operator-kstreams},1651783318,0
{consumergroup=__strimzi-topic-operator-kstreams},1651783323,0
{consumergroup=__strimzi-topic-operator-kstreams},1651783328,0
{consumergroup=__strimzi-topic-operator-kstreams},1651783333,0
{consumergroup=__strimzi-topic-operator-kstreams},1651783338,0
{consumergroup=__strimzi-topic-operator-kstreams},1651783343,0
{consumergroup=__strimzi-topic-operator-kstreams},1651783348,0
{consumergroup=__strimzi-topic-operator-kstreams},1651783353,0
{consumergroup=__strimzi-topic-operator-kstreams},1651783358,0
{consumergroup=__strimzi-topic-operator-kstreams},1651783363,0
{consumergroup=__strimzi-topic-operator-kstreams},1651783368,0
{consumergroup=__strimzi-topic-operator-kstreams},1651783373,0
{consumergroup=__strimzi-topic-operator-kstreams},1651783378,0
{consumergroup=__strimzi-topic-operator-kstreams},1651783383,0
{consumergroup=__strimzi-topic-operator-kstreams},1651783388,0
{consumergroup=__strimzi-topic-operator-kstreams},1651783393,0
{consumergroup=trace-service},1651782943,374621
{consumergroup=trace-service},1651782948,374621
{consumergroup=trace-service},1651783003,440060
{consumergroup=trace-service},1651783008,440060
{consumergroup=trace-service},1651783013,440060
{consumergroup=trace-service},1651783018,155514
{consumergroup=trace-service},1651783023,155514
{consumergroup=trace-service},1651783028,155514
{consumergroup=trace-service},1651783033,484028
{consumergroup=trace-service},1651783038,484028
{consumergroup=trace-service},1651783043,484028
{consumergroup=trace-service},1651783048,591091
{consumergroup=trace-service},1651783053,591091
{consumergroup=trace-service},1651783058,591091
{consumergroup=trace-service},1651783063,446822
{consumergroup=trace-service},1651783068,446822
{consumergroup=trace-service},1651783073,446822
{consumergroup=trace-service},1651783078,631025
{consumergroup=trace-service},1651783083,631025
{consumergroup=trace-service},1651783088,631025
{consumergroup=trace-service},1651783093,443818
{consumergroup=trace-service},1651783098,443818
{consumergroup=trace-service},1651783103,443818
{consumergroup=trace-service},1651783108,1008703
{consumergroup=trace-service},1651783113,1008703
{consumergroup=trace-service},1651783118,1008703
{consumergroup=trace-service},1651783123,495801
{consumergroup=trace-service},1651783128,495801
{consumergroup=trace-service},1651783133,495801
{consumergroup=trace-service},1651783138,1118961
{consumergroup=trace-service},1651783143,1118961
{consumergroup=trace-service},1651783148,1118961
{consumergroup=trace-service},1651783153,476917
{consumergroup=trace-service},1651783158,476917
{consumergroup=trace-service},1651783163,476917
{consumergroup=trace-service},1651783168,907123
{consumergroup=trace-service},1651783173,907123
{consumergroup=trace-service},1651783178,907123
{consumergroup=trace-service},1651783183,1374194
{consumergroup=trace-service},1651783188,1374194
{consumergroup=trace-service},1651783193,1374194
{consumergroup=trace-service},1651783198,1144368
{consumergroup=trace-service},1651783203,1144368
{consumergroup=trace-service},1651783208,1144368
{consumergroup=trace-service},1651783213,1178967
{consumergroup=trace-service},1651783218,1178967
{consumergroup=trace-service},1651783223,1178967
{consumergroup=trace-service},1651783228,1112955
{consumergroup=trace-service},1651783233,1112955
{consumergroup=trace-service},1651783238,1112955
{consumergroup=trace-service},1651783243,1227087
{consumergroup=trace-service},1651783248,1227087
{consumergroup=trace-service},1651783253,1227087
{consumergroup=trace-service},1651783258,1122923
{consumergroup=trace-service},1651783263,1122923
{consumergroup=trace-service},1651783268,1122923
{consumergroup=trace-service},1651783273,673849
{consumergroup=trace-service},1651783278,673849
{consumergroup=trace-service},1651783283,673849
{consumergroup=trace-service},1651783288,911702
{consumergroup=trace-service},1651783293,911702
{consumergroup=trace-service},1651783298,911702
{consumergroup=trace-service},1651783303,477753
{consumergroup=trace-service},1651783308,477753
{consumergroup=trace-service},1651783313,477753
{consumergroup=trace-service},1651783318,882358
{consumergroup=trace-service},1651783323,882358
{consumergroup=trace-service},1651783328,882358
{consumergroup=trace-service},1651783333,446365
{consumergroup=trace-service},1651783338,446365
{consumergroup=trace-service},1651783343,446365
{consumergroup=trace-service},1651783348,878965
{consumergroup=trace-service},1651783353,878965
{consumergroup=trace-service},1651783358,878965
{consumergroup=trace-service},1651783363,633230
{consumergroup=trace-service},1651783368,633230
{consumergroup=trace-service},1651783373,633230
{consumergroup=trace-service},1651783378,956909
{consumergroup=trace-service},1651783383,956909
{consumergroup=trace-service},1651783388,956909
{consumergroup=trace-service},1651783393,1223361
{consumergroup=trace-token-events-consumer},1651782988,0
{consumergroup=trace-token-events-consumer},1651782993,0
{consumergroup=trace-token-events-consumer},1651782998,0
{consumergroup=trace-token-events-consumer},1651783003,0
{consumergroup=trace-token-events-consumer},1651783008,0
{consumergroup=trace-token-events-consumer},1651783013,0
{consumergroup=trace-token-events-consumer},1651783018,0
{consumergroup=trace-token-events-consumer},1651783023,0
{consumergroup=trace-token-events-consumer},1651783028,0
{consumergroup=trace-token-events-consumer},1651783033,0
{consumergroup=trace-token-events-consumer},1651783038,0
{consumergroup=trace-token-events-consumer},1651783043,0
{consumergroup=trace-token-events-consumer},1651783048,0
{consumergroup=trace-token-events-consumer},1651783053,0
{consumergroup=trace-token-events-consumer},1651783058,0
{consumergroup=trace-token-events-consumer},1651783063,0
{consumergroup=trace-token-events-consumer},1651783068,0
{consumergroup=trace-token-events-consumer},1651783073,0
{consumergroup=trace-token-events-consumer},1651783078,0
{consumergroup=trace-token-events-consumer},1651783083,0
{consumergroup=trace-token-events-consumer},1651783088,0
{consumergroup=trace-token-events-consumer},1651783093,0
{consumergroup=trace-token-events-consumer},1651783098,0
{consumergroup=trace-token-events-consumer},1651783103,0
{consumergroup=trace-token-events-consumer},1651783108,0
{consumergroup=trace-token-events-consumer},1651783113,0
{consumergroup=trace-token-events-consumer},1651783118,0
{consumergroup=trace-token-events-consumer},1651783123,0
{consumergroup=trace-token-events-consumer},1651783128,0
{consumergroup=trace-token-events-consumer},1651783133,0
{consumergroup=trace-token-events-consumer},1651783138,0
{consumergroup=trace-token-events-consumer},1651783143,0
{consumergroup=trace-token-events-consumer},1651783148,0
{consumergroup=trace-token-events-consumer},1651783153,0
{consumergroup=trace-token-events-consumer},1651783158,0
{consumergroup=trace-token-events-consumer},1651783163,0
{consumergroup=trace-token-events-consumer},1651783168,0
{consumergroup=trace-token-events-consumer},1651783173,0
{consumergroup=trace-token-events-consumer},1651783178,0
{consumergroup=trace-token-events-consumer},1651783183,0
{consumergroup=trace-token-events-consumer},1651783188,0
{consumergroup=trace-token-events-consumer},1651783193,0
{consumergroup=trace-token-events-consumer},1651783198,0
{consumergroup=trace-token-events-consumer},1651783203,0
{consumergroup=trace-token-events-consumer},1651783208,0
{consumergroup=trace-token-events-consumer},1651783213,0
{consumergroup=trace-token-events-consumer},1651783218,0
{consumergroup=trace-token-events-consumer},1651783223,0
{consumergroup=trace-token-events-consumer},1651783228,0
{consumergroup=trace-token-events-consumer},1651783233,0
{consumergroup=trace-token-events-consumer},1651783238,0
{consumergroup=trace-token-events-consumer},1651783243,0
{consumergroup=trace-token-events-consumer},1651783248,0
{consumergroup=trace-token-events-consumer},1651783253,0
{consumergroup=trace-token-events-consumer},1651783258,0
{consumergroup=trace-token-events-consumer},1651783263,0
{consumergroup=trace-token-events-consumer},1651783268,0
{consumergroup=trace-token-events-consumer},1651783273,0
{consumergroup=trace-token-events-consumer},1651783278,0
{consumergroup=trace-token-events-consumer},1651783283,0
{consumergroup=trace-token-events-consumer},1651783288,0
{consumergroup=trace-token-events-consumer},1651783293,0
{consumergroup=trace-token-events-consumer},1651783298,0
{consumergroup=trace-token-events-consumer},1651783303,0
{consumergroup=trace-token-events-consumer},1651783308,0
{consumergroup=trace-token-events-consumer},1651783313,0
{consumergroup=trace-token-events-consumer},1651783318,0
{consumergroup=trace-token-events-consumer},1651783323,0
{consumergroup=trace-token-events-consumer},1651783328,0
{consumergroup=trace-token-events-consumer},1651783333,0
{consumergroup=trace-token-events-consumer},1651783338,0
{consumergroup=trace-token-events-consumer},1651783343,0
{consumergroup=trace-token-events-consumer},1651783348,0
{consumergroup=trace-token-events-consumer},1651783353,0
{consumergroup=trace-token-events-consumer},1651783358,0
{consumergroup=trace-token-events-consumer},1651783363,0
{consumergroup=trace-token-events-consumer},1651783368,0
{consumergroup=trace-token-events-consumer},1651783373,0
{consumergroup=trace-token-events-consumer},1651783378,0
{consumergroup=trace-token-events-consumer},1651783383,0
{consumergroup=trace-token-events-consumer},1651783388,0
{consumergroup=trace-token-events-consumer},1651783393,0
