labels,timestamp,value
{consumergroup=__strimzi-topic-operator-kstreams},1651774131,0
{consumergroup=__strimzi-topic-operator-kstreams},1651774136,0
{consumergroup=__strimzi-topic-operator-kstreams},1651774146,11
{consumergroup=__strimzi-topic-operator-kstreams},1651774151,11
{consumergroup=__strimzi-topic-operator-kstreams},1651774156,11
{consumergroup=__strimzi-topic-operator-kstreams},1651774161,0
{consumergroup=__strimzi-topic-operator-kstreams},1651774166,0
{consumergroup=__strimzi-topic-operator-kstreams},1651774171,0
{consumergroup=__strimzi-topic-operator-kstreams},1651774176,0
{consumergroup=__strimzi-topic-operator-kstreams},1651774181,0
{consumergroup=__strimzi-topic-operator-kstreams},1651774186,0
{consumergroup=__strimzi-topic-operator-kstreams},1651774191,0
{consumergroup=__strimzi-topic-operator-kstreams},1651774196,0
{consumergroup=__strimzi-topic-operator-kstreams},1651774201,0
{consumergroup=__strimzi-topic-operator-kstreams},1651774206,0
{consumergroup=__strimzi-topic-operator-kstreams},1651774211,0
{consumergroup=__strimzi-topic-operator-kstreams},1651774216,0
{consumergroup=__strimzi-topic-operator-kstreams},1651774221,0
{consumergroup=__strimzi-topic-operator-kstreams},1651774226,0
{consumergroup=__strimzi-topic-operator-kstreams},1651774231,0
{consumergroup=__strimzi-topic-operator-kstreams},1651774236,0
{consumergroup=__strimzi-topic-operator-kstreams},1651774241,0
{consumergroup=__strimzi-topic-operator-kstreams},1651774246,0
{consumergroup=__strimzi-topic-operator-kstreams},1651774251,0
{consumergroup=__strimzi-topic-operator-kstreams},1651774256,0
{consumergroup=__strimzi-topic-operator-kstreams},1651774261,0
{consumergroup=__strimzi-topic-operator-kstreams},1651774266,0
{consumergroup=__strimzi-topic-operator-kstreams},1651774271,0
{consumergroup=__strimzi-topic-operator-kstreams},1651774276,0
{consumergroup=__strimzi-topic-operator-kstreams},1651774281,0
{consumergroup=__strimzi-topic-operator-kstreams},1651774286,0
{consumergroup=__strimzi-topic-operator-kstreams},1651774291,0
{consumergroup=__strimzi-topic-operator-kstreams},1651774296,0
{consumergroup=__strimzi-topic-operator-kstreams},1651774301,0
{consumergroup=__strimzi-topic-operator-kstreams},1651774306,0
{consumergroup=__strimzi-topic-operator-kstreams},1651774311,0
{consumergroup=__strimzi-topic-operator-kstreams},1651774316,0
{consumergroup=__strimzi-topic-operator-kstreams},1651774321,0
{consumergroup=__strimzi-topic-operator-kstreams},1651774326,0
{consumergroup=__strimzi-topic-operator-kstreams},1651774331,0
{consumergroup=__strimzi-topic-operator-kstreams},1651774336,0
{consumergroup=__strimzi-topic-operator-kstreams},1651774341,0
{consumergroup=__strimzi-topic-operator-kstreams},1651774346,0
{consumergroup=__strimzi-topic-operator-kstreams},1651774351,0
{consumergroup=__strimzi-topic-operator-kstreams},1651774356,0
{consumergroup=__strimzi-topic-operator-kstreams},1651774361,0
{consumergroup=__strimzi-topic-operator-kstreams},1651774366,0
{consumergroup=__strimzi-topic-operator-kstreams},1651774371,0
{consumergroup=__strimzi-topic-operator-kstreams},1651774376,0
{consumergroup=__strimzi-topic-operator-kstreams},1651774381,0
{consumergroup=__strimzi-topic-operator-kstreams},1651774386,0
{consumergroup=__strimzi-topic-operator-kstreams},1651774391,0
{consumergroup=__strimzi-topic-operator-kstreams},1651774396,0
{consumergroup=__strimzi-topic-operator-kstreams},1651774401,0
{consumergroup=__strimzi-topic-operator-kstreams},1651774406,0
{consumergroup=__strimzi-topic-operator-kstreams},1651774411,0
{consumergroup=__strimzi-topic-operator-kstreams},1651774416,0
{consumergroup=__strimzi-topic-operator-kstreams},1651774421,0
{consumergroup=__strimzi-topic-operator-kstreams},1651774426,0
{consumergroup=__strimzi-topic-operator-kstreams},1651774431,0
{consumergroup=__strimzi-topic-operator-kstreams},1651774436,0
{consumergroup=__strimzi-topic-operator-kstreams},1651774441,0
{consumergroup=__strimzi-topic-operator-kstreams},1651774446,0
{consumergroup=__strimzi-topic-operator-kstreams},1651774451,0
{consumergroup=__strimzi-topic-operator-kstreams},1651774456,0
{consumergroup=__strimzi-topic-operator-kstreams},1651774461,0
{consumergroup=__strimzi-topic-operator-kstreams},1651774466,0
{consumergroup=__strimzi-topic-operator-kstreams},1651774471,0
{consumergroup=__strimzi-topic-operator-kstreams},1651774476,0
{consumergroup=__strimzi-topic-operator-kstreams},1651774481,0
{consumergroup=__strimzi-topic-operator-kstreams},1651774486,0
{consumergroup=__strimzi-topic-operator-kstreams},1651774491,0
{consumergroup=__strimzi-topic-operator-kstreams},1651774496,0
{consumergroup=__strimzi-topic-operator-kstreams},1651774501,0
{consumergroup=__strimzi-topic-operator-kstreams},1651774506,0
{consumergroup=__strimzi-topic-operator-kstreams},1651774511,0
{consumergroup=__strimzi-topic-operator-kstreams},1651774516,0
{consumergroup=__strimzi-topic-operator-kstreams},1651774521,0
{consumergroup=__strimzi-topic-operator-kstreams},1651774526,0
{consumergroup=__strimzi-topic-operator-kstreams},1651774531,0
{consumergroup=__strimzi-topic-operator-kstreams},1651774536,0
{consumergroup=__strimzi-topic-operator-kstreams},1651774541,0
{consumergroup=__strimzi-topic-operator-kstreams},1651774546,0
{consumergroup=__strimzi-topic-operator-kstreams},1651774551,0
{consumergroup=__strimzi-topic-operator-kstreams},1651774556,0
{consumergroup=__strimzi-topic-operator-kstreams},1651774561,0
{consumergroup=__strimzi-topic-operator-kstreams},1651774566,0
{consumergroup=__strimzi-topic-operator-kstreams},1651774571,0
{consumergroup=__strimzi-topic-operator-kstreams},1651774576,0
{consumergroup=__strimzi-topic-operator-kstreams},1651774581,0
{consumergroup=trace-service},1651774131,108179
{consumergroup=trace-service},1651774136,108179
{consumergroup=trace-service},1651774191,306180
{consumergroup=trace-service},1651774196,306180
{consumergroup=trace-service},1651774201,306180
{consumergroup=trace-service},1651774206,252609
{consumergroup=trace-service},1651774211,252609
{consumergroup=trace-service},1651774216,252609
{consumergroup=trace-service},1651774221,572015
{consumergroup=trace-service},1651774226,572015
{consumergroup=trace-service},1651774231,572015
{consumergroup=trace-service},1651774236,181561
{consumergroup=trace-service},1651774241,181561
{consumergroup=trace-service},1651774246,181561
{consumergroup=trace-service},1651774251,499460
{consumergroup=trace-service},1651774256,499460
{consumergroup=trace-service},1651774261,499460
{consumergroup=trace-service},1651774266,314563
{consumergroup=trace-service},1651774271,314563
{consumergroup=trace-service},1651774276,314563
{consumergroup=trace-service},1651774281,545572
{consumergroup=trace-service},1651774286,545572
{consumergroup=trace-service},1651774291,545572
{consumergroup=trace-service},1651774296,181626
{consumergroup=trace-service},1651774301,181626
{consumergroup=trace-service},1651774306,181626
{consumergroup=trace-service},1651774311,445286
{consumergroup=trace-service},1651774316,445286
{consumergroup=trace-service},1651774321,445286
{consumergroup=trace-service},1651774326,146683
{consumergroup=trace-service},1651774331,146683
{consumergroup=trace-service},1651774336,146683
{consumergroup=trace-service},1651774341,438885
{consumergroup=trace-service},1651774346,438885
{consumergroup=trace-service},1651774351,438885
{consumergroup=trace-service},1651774356,220888
{consumergroup=trace-service},1651774361,220888
{consumergroup=trace-service},1651774366,220888
{consumergroup=trace-service},1651774371,627012
{consumergroup=trace-service},1651774376,627012
{consumergroup=trace-service},1651774381,627012
{consumergroup=trace-service},1651774386,263785
{consumergroup=trace-service},1651774391,263785
{consumergroup=trace-service},1651774396,263785
{consumergroup=trace-service},1651774401,558708
{consumergroup=trace-service},1651774406,558708
{consumergroup=trace-service},1651774411,558708
{consumergroup=trace-service},1651774416,150639
{consumergroup=trace-service},1651774421,150639
{consumergroup=trace-service},1651774426,150639
{consumergroup=trace-service},1651774431,502194
{consumergroup=trace-service},1651774436,502194
{consumergroup=trace-service},1651774441,502194
{consumergroup=trace-service},1651774446,259174
{consumergroup=trace-service},1651774451,259174
{consumergroup=trace-service},1651774456,259174
{consumergroup=trace-service},1651774461,614489
{consumergroup=trace-service},1651774466,614489
{consumergroup=trace-service},1651774471,614489
{consumergroup=trace-service},1651774476,194805
{consumergroup=trace-service},1651774481,194805
{consumergroup=trace-service},1651774486,194805
{consumergroup=trace-service},1651774491,442120
{consumergroup=trace-service},1651774496,442120
{consumergroup=trace-service},1651774501,442120
{consumergroup=trace-service},1651774506,218460
{consumergroup=trace-service},1651774511,218460
{consumergroup=trace-service},1651774516,218460
{consumergroup=trace-service},1651774521,512299
{consumergroup=trace-service},1651774526,512299
{consumergroup=trace-service},1651774531,512299
{consumergroup=trace-service},1651774536,254384
{consumergroup=trace-service},1651774541,254384
{consumergroup=trace-service},1651774546,254384
{consumergroup=trace-service},1651774551,526196
{consumergroup=trace-service},1651774556,526196
{consumergroup=trace-service},1651774561,526196
{consumergroup=trace-service},1651774566,197545
{consumergroup=trace-service},1651774571,197545
{consumergroup=trace-service},1651774576,197545
{consumergroup=trace-service},1651774581,522147
{consumergroup=trace-token-events-consumer},1651774176,0
{consumergroup=trace-token-events-consumer},1651774181,0
{consumergroup=trace-token-events-consumer},1651774186,0
{consumergroup=trace-token-events-consumer},1651774191,0
{consumergroup=trace-token-events-consumer},1651774196,0
{consumergroup=trace-token-events-consumer},1651774201,0
{consumergroup=trace-token-events-consumer},1651774206,0
{consumergroup=trace-token-events-consumer},1651774211,0
{consumergroup=trace-token-events-consumer},1651774216,0
{consumergroup=trace-token-events-consumer},1651774221,0
{consumergroup=trace-token-events-consumer},1651774226,0
{consumergroup=trace-token-events-consumer},1651774231,0
{consumergroup=trace-token-events-consumer},1651774236,0
{consumergroup=trace-token-events-consumer},1651774241,0
{consumergroup=trace-token-events-consumer},1651774246,0
{consumergroup=trace-token-events-consumer},1651774251,0
{consumergroup=trace-token-events-consumer},1651774256,0
{consumergroup=trace-token-events-consumer},1651774261,0
{consumergroup=trace-token-events-consumer},1651774266,0
{consumergroup=trace-token-events-consumer},1651774271,0
{consumergroup=trace-token-events-consumer},1651774276,0
{consumergroup=trace-token-events-consumer},1651774281,0
{consumergroup=trace-token-events-consumer},1651774286,0
{consumergroup=trace-token-events-consumer},1651774291,0
{consumergroup=trace-token-events-consumer},1651774296,0
{consumergroup=trace-token-events-consumer},1651774301,0
{consumergroup=trace-token-events-consumer},1651774306,0
{consumergroup=trace-token-events-consumer},1651774311,0
{consumergroup=trace-token-events-consumer},1651774316,0
{consumergroup=trace-token-events-consumer},1651774321,0
{consumergroup=trace-token-events-consumer},1651774326,0
{consumergroup=trace-token-events-consumer},1651774331,0
{consumergroup=trace-token-events-consumer},1651774336,0
{consumergroup=trace-token-events-consumer},1651774341,0
{consumergroup=trace-token-events-consumer},1651774346,0
{consumergroup=trace-token-events-consumer},1651774351,0
{consumergroup=trace-token-events-consumer},1651774356,0
{consumergroup=trace-token-events-consumer},1651774361,0
{consumergroup=trace-token-events-consumer},1651774366,0
{consumergroup=trace-token-events-consumer},1651774371,0
{consumergroup=trace-token-events-consumer},1651774376,0
{consumergroup=trace-token-events-consumer},1651774381,0
{consumergroup=trace-token-events-consumer},1651774386,0
{consumergroup=trace-token-events-consumer},1651774391,0
{consumergroup=trace-token-events-consumer},1651774396,0
{consumergroup=trace-token-events-consumer},1651774401,0
{consumergroup=trace-token-events-consumer},1651774406,0
{consumergroup=trace-token-events-consumer},1651774411,0
{consumergroup=trace-token-events-consumer},1651774416,0
{consumergroup=trace-token-events-consumer},1651774421,0
{consumergroup=trace-token-events-consumer},1651774426,0
{consumergroup=trace-token-events-consumer},1651774431,0
{consumergroup=trace-token-events-consumer},1651774436,0
{consumergroup=trace-token-events-consumer},1651774441,0
{consumergroup=trace-token-events-consumer},1651774446,0
{consumergroup=trace-token-events-consumer},1651774451,0
{consumergroup=trace-token-events-consumer},1651774456,0
{consumergroup=trace-token-events-consumer},1651774461,0
{consumergroup=trace-token-events-consumer},1651774466,0
{consumergroup=trace-token-events-consumer},1651774471,0
{consumergroup=trace-token-events-consumer},1651774476,0
{consumergroup=trace-token-events-consumer},1651774481,0
{consumergroup=trace-token-events-consumer},1651774486,0
{consumergroup=trace-token-events-consumer},1651774491,0
{consumergroup=trace-token-events-consumer},1651774496,0
{consumergroup=trace-token-events-consumer},1651774501,0
{consumergroup=trace-token-events-consumer},1651774506,0
{consumergroup=trace-token-events-consumer},1651774511,0
{consumergroup=trace-token-events-consumer},1651774516,0
{consumergroup=trace-token-events-consumer},1651774521,0
{consumergroup=trace-token-events-consumer},1651774526,0
{consumergroup=trace-token-events-consumer},1651774531,0
{consumergroup=trace-token-events-consumer},1651774536,0
{consumergroup=trace-token-events-consumer},1651774541,0
{consumergroup=trace-token-events-consumer},1651774546,0
{consumergroup=trace-token-events-consumer},1651774551,0
{consumergroup=trace-token-events-consumer},1651774556,0
{consumergroup=trace-token-events-consumer},1651774561,0
{consumergroup=trace-token-events-consumer},1651774566,0
{consumergroup=trace-token-events-consumer},1651774571,0
{consumergroup=trace-token-events-consumer},1651774576,0
{consumergroup=trace-token-events-consumer},1651774581,0
