labels,timestamp,value
{consumergroup=__strimzi-topic-operator-kstreams},1651809159,3
{consumergroup=__strimzi-topic-operator-kstreams},1651809164,3
{consumergroup=__strimzi-topic-operator-kstreams},1651809169,3
{consumergroup=__strimzi-topic-operator-kstreams},1651809174,8
{consumergroup=__strimzi-topic-operator-kstreams},1651809179,8
{consumergroup=__strimzi-topic-operator-kstreams},1651809184,8
{consumergroup=__strimzi-topic-operator-kstreams},1651809189,11
{consumergroup=__strimzi-topic-operator-kstreams},1651809194,11
{consumergroup=__strimzi-topic-operator-kstreams},1651809199,11
{consumergroup=__strimzi-topic-operator-kstreams},1651809204,0
{consumergroup=__strimzi-topic-operator-kstreams},1651809209,0
{consumergroup=__strimzi-topic-operator-kstreams},1651809214,0
{consumergroup=__strimzi-topic-operator-kstreams},1651809219,0
{consumergroup=__strimzi-topic-operator-kstreams},1651809224,0
{consumergroup=__strimzi-topic-operator-kstreams},1651809229,0
{consumergroup=__strimzi-topic-operator-kstreams},1651809234,0
{consumergroup=__strimzi-topic-operator-kstreams},1651809239,0
{consumergroup=__strimzi-topic-operator-kstreams},1651809244,0
{consumergroup=__strimzi-topic-operator-kstreams},1651809249,0
{consumergroup=__strimzi-topic-operator-kstreams},1651809254,0
{consumergroup=__strimzi-topic-operator-kstreams},1651809259,0
{consumergroup=__strimzi-topic-operator-kstreams},1651809264,0
{consumergroup=__strimzi-topic-operator-kstreams},1651809269,0
{consumergroup=__strimzi-topic-operator-kstreams},1651809274,0
{consumergroup=__strimzi-topic-operator-kstreams},1651809279,0
{consumergroup=__strimzi-topic-operator-kstreams},1651809284,0
{consumergroup=__strimzi-topic-operator-kstreams},1651809289,0
{consumergroup=__strimzi-topic-operator-kstreams},1651809294,0
{consumergroup=__strimzi-topic-operator-kstreams},1651809299,0
{consumergroup=__strimzi-topic-operator-kstreams},1651809304,0
{consumergroup=__strimzi-topic-operator-kstreams},1651809309,0
{consumergroup=__strimzi-topic-operator-kstreams},1651809314,0
{consumergroup=__strimzi-topic-operator-kstreams},1651809319,0
{consumergroup=__strimzi-topic-operator-kstreams},1651809324,0
{consumergroup=__strimzi-topic-operator-kstreams},1651809329,0
{consumergroup=__strimzi-topic-operator-kstreams},1651809334,0
{consumergroup=__strimzi-topic-operator-kstreams},1651809339,0
{consumergroup=__strimzi-topic-operator-kstreams},1651809344,0
{consumergroup=__strimzi-topic-operator-kstreams},1651809349,0
{consumergroup=__strimzi-topic-operator-kstreams},1651809354,0
{consumergroup=__strimzi-topic-operator-kstreams},1651809359,0
{consumergroup=__strimzi-topic-operator-kstreams},1651809364,0
{consumergroup=__strimzi-topic-operator-kstreams},1651809369,0
{consumergroup=__strimzi-topic-operator-kstreams},1651809374,0
{consumergroup=__strimzi-topic-operator-kstreams},1651809379,0
{consumergroup=__strimzi-topic-operator-kstreams},1651809384,0
{consumergroup=__strimzi-topic-operator-kstreams},1651809389,0
{consumergroup=__strimzi-topic-operator-kstreams},1651809394,0
{consumergroup=__strimzi-topic-operator-kstreams},1651809399,0
{consumergroup=__strimzi-topic-operator-kstreams},1651809404,0
{consumergroup=__strimzi-topic-operator-kstreams},1651809409,0
{consumergroup=__strimzi-topic-operator-kstreams},1651809414,0
{consumergroup=__strimzi-topic-operator-kstreams},1651809419,0
{consumergroup=__strimzi-topic-operator-kstreams},1651809424,0
{consumergroup=__strimzi-topic-operator-kstreams},1651809429,0
{consumergroup=__strimzi-topic-operator-kstreams},1651809434,0
{consumergroup=__strimzi-topic-operator-kstreams},1651809439,0
{consumergroup=__strimzi-topic-operator-kstreams},1651809444,0
{consumergroup=__strimzi-topic-operator-kstreams},1651809449,0
{consumergroup=__strimzi-topic-operator-kstreams},1651809454,0
{consumergroup=__strimzi-topic-operator-kstreams},1651809459,0
{consumergroup=__strimzi-topic-operator-kstreams},1651809464,0
{consumergroup=__strimzi-topic-operator-kstreams},1651809469,0
{consumergroup=__strimzi-topic-operator-kstreams},1651809474,0
{consumergroup=__strimzi-topic-operator-kstreams},1651809479,0
{consumergroup=__strimzi-topic-operator-kstreams},1651809484,0
{consumergroup=__strimzi-topic-operator-kstreams},1651809489,0
{consumergroup=__strimzi-topic-operator-kstreams},1651809494,0
{consumergroup=__strimzi-topic-operator-kstreams},1651809499,0
{consumergroup=__strimzi-topic-operator-kstreams},1651809504,0
{consumergroup=__strimzi-topic-operator-kstreams},1651809509,0
{consumergroup=__strimzi-topic-operator-kstreams},1651809514,0
{consumergroup=__strimzi-topic-operator-kstreams},1651809519,0
{consumergroup=__strimzi-topic-operator-kstreams},1651809524,0
{consumergroup=__strimzi-topic-operator-kstreams},1651809529,0
{consumergroup=__strimzi-topic-operator-kstreams},1651809534,0
{consumergroup=__strimzi-topic-operator-kstreams},1651809539,0
{consumergroup=__strimzi-topic-operator-kstreams},1651809544,0
{consumergroup=__strimzi-topic-operator-kstreams},1651809549,0
{consumergroup=__strimzi-topic-operator-kstreams},1651809554,0
{consumergroup=__strimzi-topic-operator-kstreams},1651809559,0
{consumergroup=__strimzi-topic-operator-kstreams},1651809564,0
{consumergroup=__strimzi-topic-operator-kstreams},1651809569,0
{consumergroup=__strimzi-topic-operator-kstreams},1651809574,0
{consumergroup=__strimzi-topic-operator-kstreams},1651809579,0
{consumergroup=__strimzi-topic-operator-kstreams},1651809584,0
{consumergroup=__strimzi-topic-operator-kstreams},1651809589,0
{consumergroup=__strimzi-topic-operator-kstreams},1651809594,0
{consumergroup=__strimzi-topic-operator-kstreams},1651809599,0
{consumergroup=__strimzi-topic-operator-kstreams},1651809604,0
{consumergroup=__strimzi-topic-operator-kstreams},1651809609,0
{consumergroup=trace-service},1651809219,489513
{consumergroup=trace-service},1651809224,489513
{consumergroup=trace-service},1651809229,489513
{consumergroup=trace-service},1651809234,736728
{consumergroup=trace-service},1651809239,736728
{consumergroup=trace-service},1651809244,736728
{consumergroup=trace-service},1651809249,346630
{consumergroup=trace-service},1651809254,346630
{consumergroup=trace-service},1651809259,346630
{consumergroup=trace-service},1651809264,675577
{consumergroup=trace-service},1651809269,675577
{consumergroup=trace-service},1651809274,675577
{consumergroup=trace-service},1651809279,362267
{consumergroup=trace-service},1651809284,362267
{consumergroup=trace-service},1651809289,362267
{consumergroup=trace-service},1651809294,729882
{consumergroup=trace-service},1651809299,729882
{consumergroup=trace-service},1651809304,729882
{consumergroup=trace-service},1651809309,385153
{consumergroup=trace-service},1651809314,385153
{consumergroup=trace-service},1651809319,385153
{consumergroup=trace-service},1651809324,660992
{consumergroup=trace-service},1651809329,660992
{consumergroup=trace-service},1651809334,660992
{consumergroup=trace-service},1651809339,323946
{consumergroup=trace-service},1651809344,323946
{consumergroup=trace-service},1651809349,323946
{consumergroup=trace-service},1651809354,604022
{consumergroup=trace-service},1651809359,604022
{consumergroup=trace-service},1651809364,604022
{consumergroup=trace-service},1651809369,397227
{consumergroup=trace-service},1651809374,397227
{consumergroup=trace-service},1651809379,397227
{consumergroup=trace-service},1651809384,729858
{consumergroup=trace-service},1651809389,729858
{consumergroup=trace-service},1651809394,729858
{consumergroup=trace-service},1651809399,367341
{consumergroup=trace-service},1651809404,367341
{consumergroup=trace-service},1651809409,367341
{consumergroup=trace-service},1651809414,734213
{consumergroup=trace-service},1651809419,734213
{consumergroup=trace-service},1651809424,734213
{consumergroup=trace-service},1651809429,373391
{consumergroup=trace-service},1651809434,373391
{consumergroup=trace-service},1651809439,373391
{consumergroup=trace-service},1651809444,743042
{consumergroup=trace-service},1651809449,743042
{consumergroup=trace-service},1651809454,743042
{consumergroup=trace-service},1651809459,378112
{consumergroup=trace-service},1651809464,378112
{consumergroup=trace-service},1651809469,378112
{consumergroup=trace-service},1651809474,696643
{consumergroup=trace-service},1651809479,696643
{consumergroup=trace-service},1651809484,696643
{consumergroup=trace-service},1651809489,394708
{consumergroup=trace-service},1651809494,394708
{consumergroup=trace-service},1651809499,394708
{consumergroup=trace-service},1651809504,750268
{consumergroup=trace-service},1651809509,750268
{consumergroup=trace-service},1651809514,750268
{consumergroup=trace-service},1651809519,440826
{consumergroup=trace-service},1651809524,440826
{consumergroup=trace-service},1651809529,440826
{consumergroup=trace-service},1651809534,692205
{consumergroup=trace-service},1651809539,692205
{consumergroup=trace-service},1651809544,692205
{consumergroup=trace-service},1651809549,376468
{consumergroup=trace-service},1651809554,376468
{consumergroup=trace-service},1651809559,376468
{consumergroup=trace-service},1651809564,680615
{consumergroup=trace-service},1651809569,680615
{consumergroup=trace-service},1651809574,680615
{consumergroup=trace-service},1651809579,920054
{consumergroup=trace-service},1651809584,920054
{consumergroup=trace-service},1651809589,920054
{consumergroup=trace-service},1651809594,829787
{consumergroup=trace-service},1651809599,829787
{consumergroup=trace-service},1651809604,829787
{consumergroup=trace-service},1651809609,603709
{consumergroup=trace-token-events-consumer},1651809204,0
{consumergroup=trace-token-events-consumer},1651809209,0
{consumergroup=trace-token-events-consumer},1651809214,0
{consumergroup=trace-token-events-consumer},1651809219,0
{consumergroup=trace-token-events-consumer},1651809224,0
{consumergroup=trace-token-events-consumer},1651809229,0
{consumergroup=trace-token-events-consumer},1651809234,0
{consumergroup=trace-token-events-consumer},1651809239,0
{consumergroup=trace-token-events-consumer},1651809244,0
{consumergroup=trace-token-events-consumer},1651809249,0
{consumergroup=trace-token-events-consumer},1651809254,0
{consumergroup=trace-token-events-consumer},1651809259,0
{consumergroup=trace-token-events-consumer},1651809264,0
{consumergroup=trace-token-events-consumer},1651809269,0
{consumergroup=trace-token-events-consumer},1651809274,0
{consumergroup=trace-token-events-consumer},1651809279,0
{consumergroup=trace-token-events-consumer},1651809284,0
{consumergroup=trace-token-events-consumer},1651809289,0
{consumergroup=trace-token-events-consumer},1651809294,0
{consumergroup=trace-token-events-consumer},1651809299,0
{consumergroup=trace-token-events-consumer},1651809304,0
{consumergroup=trace-token-events-consumer},1651809309,0
{consumergroup=trace-token-events-consumer},1651809314,0
{consumergroup=trace-token-events-consumer},1651809319,0
{consumergroup=trace-token-events-consumer},1651809324,0
{consumergroup=trace-token-events-consumer},1651809329,0
{consumergroup=trace-token-events-consumer},1651809334,0
{consumergroup=trace-token-events-consumer},1651809339,0
{consumergroup=trace-token-events-consumer},1651809344,0
{consumergroup=trace-token-events-consumer},1651809349,0
{consumergroup=trace-token-events-consumer},1651809354,0
{consumergroup=trace-token-events-consumer},1651809359,0
{consumergroup=trace-token-events-consumer},1651809364,0
{consumergroup=trace-token-events-consumer},1651809369,0
{consumergroup=trace-token-events-consumer},1651809374,0
{consumergroup=trace-token-events-consumer},1651809379,0
{consumergroup=trace-token-events-consumer},1651809384,0
{consumergroup=trace-token-events-consumer},1651809389,0
{consumergroup=trace-token-events-consumer},1651809394,0
{consumergroup=trace-token-events-consumer},1651809399,0
{consumergroup=trace-token-events-consumer},1651809404,0
{consumergroup=trace-token-events-consumer},1651809409,0
{consumergroup=trace-token-events-consumer},1651809414,0
{consumergroup=trace-token-events-consumer},1651809419,0
{consumergroup=trace-token-events-consumer},1651809424,0
{consumergroup=trace-token-events-consumer},1651809429,0
{consumergroup=trace-token-events-consumer},1651809434,0
{consumergroup=trace-token-events-consumer},1651809439,0
{consumergroup=trace-token-events-consumer},1651809444,0
{consumergroup=trace-token-events-consumer},1651809449,0
{consumergroup=trace-token-events-consumer},1651809454,0
{consumergroup=trace-token-events-consumer},1651809459,0
{consumergroup=trace-token-events-consumer},1651809464,0
{consumergroup=trace-token-events-consumer},1651809469,0
{consumergroup=trace-token-events-consumer},1651809474,0
{consumergroup=trace-token-events-consumer},1651809479,0
{consumergroup=trace-token-events-consumer},1651809484,0
{consumergroup=trace-token-events-consumer},1651809489,0
{consumergroup=trace-token-events-consumer},1651809494,0
{consumergroup=trace-token-events-consumer},1651809499,0
{consumergroup=trace-token-events-consumer},1651809504,0
{consumergroup=trace-token-events-consumer},1651809509,0
{consumergroup=trace-token-events-consumer},1651809514,0
{consumergroup=trace-token-events-consumer},1651809519,0
{consumergroup=trace-token-events-consumer},1651809524,0
{consumergroup=trace-token-events-consumer},1651809529,0
{consumergroup=trace-token-events-consumer},1651809534,0
{consumergroup=trace-token-events-consumer},1651809539,0
{consumergroup=trace-token-events-consumer},1651809544,0
{consumergroup=trace-token-events-consumer},1651809549,0
{consumergroup=trace-token-events-consumer},1651809554,0
{consumergroup=trace-token-events-consumer},1651809559,0
{consumergroup=trace-token-events-consumer},1651809564,0
{consumergroup=trace-token-events-consumer},1651809569,0
{consumergroup=trace-token-events-consumer},1651809574,0
{consumergroup=trace-token-events-consumer},1651809579,0
{consumergroup=trace-token-events-consumer},1651809584,0
{consumergroup=trace-token-events-consumer},1651809589,0
{consumergroup=trace-token-events-consumer},1651809594,0
{consumergroup=trace-token-events-consumer},1651809599,0
{consumergroup=trace-token-events-consumer},1651809604,0
{consumergroup=trace-token-events-consumer},1651809609,0
