labels,timestamp,value
{consumergroup=__strimzi-topic-operator-kstreams},1651857757,8
{consumergroup=__strimzi-topic-operator-kstreams},1651857762,8
{consumergroup=__strimzi-topic-operator-kstreams},1651857767,8
{consumergroup=__strimzi-topic-operator-kstreams},1651857772,0
{consumergroup=__strimzi-topic-operator-kstreams},1651857777,0
{consumergroup=__strimzi-topic-operator-kstreams},1651857782,0
{consumergroup=__strimzi-topic-operator-kstreams},1651857787,0
{consumergroup=__strimzi-topic-operator-kstreams},1651857792,0
{consumergroup=__strimzi-topic-operator-kstreams},1651857797,0
{consumergroup=__strimzi-topic-operator-kstreams},1651857802,0
{consumergroup=__strimzi-topic-operator-kstreams},1651857807,0
{consumergroup=__strimzi-topic-operator-kstreams},1651857812,0
{consumergroup=__strimzi-topic-operator-kstreams},1651857817,0
{consumergroup=__strimzi-topic-operator-kstreams},1651857822,0
{consumergroup=__strimzi-topic-operator-kstreams},1651857827,0
{consumergroup=__strimzi-topic-operator-kstreams},1651857832,0
{consumergroup=__strimzi-topic-operator-kstreams},1651857837,0
{consumergroup=__strimzi-topic-operator-kstreams},1651857842,0
{consumergroup=__strimzi-topic-operator-kstreams},1651857847,0
{consumergroup=__strimzi-topic-operator-kstreams},1651857852,0
{consumergroup=__strimzi-topic-operator-kstreams},1651857857,0
{consumergroup=__strimzi-topic-operator-kstreams},1651857862,0
{consumergroup=__strimzi-topic-operator-kstreams},1651857867,0
{consumergroup=__strimzi-topic-operator-kstreams},1651857872,0
{consumergroup=__strimzi-topic-operator-kstreams},1651857877,0
{consumergroup=__strimzi-topic-operator-kstreams},1651857882,0
{consumergroup=__strimzi-topic-operator-kstreams},1651857887,0
{consumergroup=__strimzi-topic-operator-kstreams},1651857892,0
{consumergroup=__strimzi-topic-operator-kstreams},1651857897,0
{consumergroup=__strimzi-topic-operator-kstreams},1651857902,0
{consumergroup=__strimzi-topic-operator-kstreams},1651857907,0
{consumergroup=__strimzi-topic-operator-kstreams},1651857912,0
{consumergroup=__strimzi-topic-operator-kstreams},1651857917,0
{consumergroup=__strimzi-topic-operator-kstreams},1651857922,0
{consumergroup=__strimzi-topic-operator-kstreams},1651857927,0
{consumergroup=__strimzi-topic-operator-kstreams},1651857932,0
{consumergroup=__strimzi-topic-operator-kstreams},1651857937,0
{consumergroup=__strimzi-topic-operator-kstreams},1651857942,0
{consumergroup=__strimzi-topic-operator-kstreams},1651857947,0
{consumergroup=__strimzi-topic-operator-kstreams},1651857952,0
{consumergroup=__strimzi-topic-operator-kstreams},1651857957,0
{consumergroup=__strimzi-topic-operator-kstreams},1651857962,0
{consumergroup=__strimzi-topic-operator-kstreams},1651857967,0
{consumergroup=__strimzi-topic-operator-kstreams},1651857972,0
{consumergroup=__strimzi-topic-operator-kstreams},1651857977,0
{consumergroup=__strimzi-topic-operator-kstreams},1651857982,0
{consumergroup=__strimzi-topic-operator-kstreams},1651857987,0
{consumergroup=__strimzi-topic-operator-kstreams},1651857992,0
{consumergroup=__strimzi-topic-operator-kstreams},1651857997,0
{consumergroup=__strimzi-topic-operator-kstreams},1651858002,0
{consumergroup=adapter-service},1651857772,0
{consumergroup=adapter-service},1651857777,0
{consumergroup=adapter-service},1651857782,0
{consumergroup=adapter-service},1651857787,1377304
{consumergroup=adapter-service},1651857792,1377304
{consumergroup=adapter-service},1651857797,1377304
{consumergroup=adapter-service},1651857802,3179244
{consumergroup=adapter-service},1651857807,3179244
{consumergroup=adapter-service},1651857812,3179244
{consumergroup=adapter-service},1651857817,3594971
{consumergroup=adapter-service},1651857822,3594971
{consumergroup=adapter-service},1651857827,3594971
{consumergroup=adapter-service},1651857832,3559024
{consumergroup=adapter-service},1651857837,3559024
{consumergroup=adapter-service},1651857842,3559024
{consumergroup=adapter-service},1651857847,3471017
{consumergroup=adapter-service},1651857852,3471017
{consumergroup=adapter-service},1651857857,3471017
{consumergroup=adapter-service},1651857862,3278117
{consumergroup=adapter-service},1651857867,3278117
{consumergroup=adapter-service},1651857872,3278117
{consumergroup=adapter-service},1651857877,3687532
{consumergroup=adapter-service},1651857882,3687532
{consumergroup=adapter-service},1651857887,3687532
{consumergroup=adapter-service},1651857892,3097571
{consumergroup=adapter-service},1651857897,3097571
{consumergroup=adapter-service},1651857902,3097571
{consumergroup=adapter-service},1651857907,3124538
{consumergroup=adapter-service},1651857912,3124538
{consumergroup=adapter-service},1651857917,3124538
{consumergroup=adapter-service},1651857922,2841740
{consumergroup=adapter-service},1651857927,2841740
{consumergroup=adapter-service},1651857932,2841740
{consumergroup=adapter-service},1651857937,2880346
{consumergroup=adapter-service},1651857942,2880346
{consumergroup=adapter-service},1651857947,2880346
{consumergroup=adapter-service},1651857952,2688883
{consumergroup=adapter-service},1651857957,2688883
{consumergroup=adapter-service},1651857962,2688883
{consumergroup=adapter-service},1651857967,2712546
{consumergroup=adapter-service},1651857972,2712546
{consumergroup=adapter-service},1651857977,2712546
{consumergroup=adapter-service},1651857982,2734074
{consumergroup=adapter-service},1651857987,2734074
{consumergroup=adapter-service},1651857992,2734074
{consumergroup=adapter-service},1651857997,2950782
{consumergroup=adapter-service},1651858002,2950782
