labels,timestamp,value
{job=theodolite-stu200776/trace-isolated-podmonitor},1651778862,0
{job=theodolite-stu200776/trace-isolated-podmonitor},1651778867,0
{job=theodolite-stu200776/trace-isolated-podmonitor},1651778872,0
{job=theodolite-stu200776/trace-isolated-podmonitor},1651778877,0
{job=theodolite-stu200776/trace-isolated-podmonitor},1651778882,0
{job=theodolite-stu200776/trace-isolated-podmonitor},1651778887,1.1801042395857915
{job=theodolite-stu200776/trace-isolated-podmonitor},1651778892,2.658456283962569
{job=theodolite-stu200776/trace-isolated-podmonitor},1651778897,3.3330027275202356
{job=theodolite-stu200776/trace-isolated-podmonitor},1651778902,3.9154436655565115
{job=theodolite-stu200776/trace-isolated-podmonitor},1651778907,3.502688700824147
{job=theodolite-stu200776/trace-isolated-podmonitor},1651778912,3.075526848910394
{job=theodolite-stu200776/trace-isolated-podmonitor},1651778917,2.8139475101062152
{job=theodolite-stu200776/trace-isolated-podmonitor},1651778922,2.403556671043846
{job=theodolite-stu200776/trace-isolated-podmonitor},1651778927,1.2232402914369311
{job=theodolite-stu200776/trace-isolated-podmonitor},1651778932,0
{job=theodolite-stu200776/trace-isolated-podmonitor},1651778937,0
{job=theodolite-stu200776/trace-isolated-podmonitor},1651778942,0
{job=theodolite-stu200776/trace-isolated-podmonitor},1651778947,0
{job=theodolite-stu200776/trace-isolated-podmonitor},1651778952,0
{job=theodolite-stu200776/trace-isolated-podmonitor},1651778957,0
{job=theodolite-stu200776/trace-isolated-podmonitor},1651778962,0
{job=theodolite-stu200776/trace-isolated-podmonitor},1651778967,0
{job=theodolite-stu200776/trace-isolated-podmonitor},1651778972,0
{job=theodolite-stu200776/trace-isolated-podmonitor},1651778977,0
{job=theodolite-stu200776/trace-isolated-podmonitor},1651778982,0
{job=theodolite-stu200776/trace-isolated-podmonitor},1651778987,0
{job=theodolite-stu200776/trace-isolated-podmonitor},1651778992,0
{job=theodolite-stu200776/trace-isolated-podmonitor},1651778997,0
{job=theodolite-stu200776/trace-isolated-podmonitor},1651779002,0
{job=theodolite-stu200776/trace-isolated-podmonitor},1651779007,0
{job=theodolite-stu200776/trace-isolated-podmonitor},1651779012,0
{job=theodolite-stu200776/trace-isolated-podmonitor},1651779017,0
{job=theodolite-stu200776/trace-isolated-podmonitor},1651779022,0
{job=theodolite-stu200776/trace-isolated-podmonitor},1651779027,0
{job=theodolite-stu200776/trace-isolated-podmonitor},1651779032,0
{job=theodolite-stu200776/trace-isolated-podmonitor},1651779037,0
{job=theodolite-stu200776/trace-isolated-podmonitor},1651779042,0
{job=theodolite-stu200776/trace-isolated-podmonitor},1651779047,0
{job=theodolite-stu200776/trace-isolated-podmonitor},1651779052,0
{job=theodolite-stu200776/trace-isolated-podmonitor},1651779057,0
{job=theodolite-stu200776/trace-isolated-podmonitor},1651779062,0
{job=theodolite-stu200776/trace-isolated-podmonitor},1651779067,0
{job=theodolite-stu200776/trace-isolated-podmonitor},1651779072,0
{job=theodolite-stu200776/trace-isolated-podmonitor},1651779077,0
{job=theodolite-stu200776/trace-isolated-podmonitor},1651779082,0
{job=theodolite-stu200776/trace-isolated-podmonitor},1651779087,0
{job=theodolite-stu200776/trace-isolated-podmonitor},1651779092,0
{job=theodolite-stu200776/trace-isolated-podmonitor},1651779097,0
{job=theodolite-stu200776/trace-isolated-podmonitor},1651779102,0
{job=theodolite-stu200776/trace-isolated-podmonitor},1651779107,0
{job=theodolite-stu200776/trace-isolated-podmonitor},1651779112,0
{job=theodolite-stu200776/trace-isolated-podmonitor},1651779117,0
{job=theodolite-stu200776/trace-isolated-podmonitor},1651779122,0
{job=theodolite-stu200776/trace-isolated-podmonitor},1651779127,0
{job=theodolite-stu200776/trace-isolated-podmonitor},1651779132,0
{job=theodolite-stu200776/trace-isolated-podmonitor},1651779137,0
{job=theodolite-stu200776/trace-isolated-podmonitor},1651779142,0
{job=theodolite-stu200776/trace-isolated-podmonitor},1651779147,0
{job=theodolite-stu200776/trace-isolated-podmonitor},1651779152,0
{job=theodolite-stu200776/trace-isolated-podmonitor},1651779157,0
{job=theodolite-stu200776/trace-isolated-podmonitor},1651779162,0
{job=theodolite-stu200776/trace-isolated-podmonitor},1651779167,0
{job=theodolite-stu200776/trace-isolated-podmonitor},1651779172,0
{job=theodolite-stu200776/trace-isolated-podmonitor},1651779177,0
{job=theodolite-stu200776/trace-isolated-podmonitor},1651779182,0
{job=theodolite-stu200776/trace-isolated-podmonitor},1651779187,0
{job=theodolite-stu200776/trace-isolated-podmonitor},1651779192,0
{job=theodolite-stu200776/trace-isolated-podmonitor},1651779197,0
{job=theodolite-stu200776/trace-isolated-podmonitor},1651779202,0
{job=theodolite-stu200776/trace-isolated-podmonitor},1651779207,0
{job=theodolite-stu200776/trace-isolated-podmonitor},1651779212,0
{job=theodolite-stu200776/trace-isolated-podmonitor},1651779217,0
{job=theodolite-stu200776/trace-isolated-podmonitor},1651779222,0
{job=theodolite-stu200776/trace-isolated-podmonitor},1651779227,0
{job=theodolite-stu200776/trace-isolated-podmonitor},1651779232,0
{job=theodolite-stu200776/trace-isolated-podmonitor},1651779237,0
