labels,timestamp,value
{consumergroup=__strimzi-topic-operator-kstreams},1651855891,16
{consumergroup=__strimzi-topic-operator-kstreams},1651855896,16
{consumergroup=__strimzi-topic-operator-kstreams},1651855901,16
{consumergroup=__strimzi-topic-operator-kstreams},1651855906,0
{consumergroup=__strimzi-topic-operator-kstreams},1651855911,0
{consumergroup=__strimzi-topic-operator-kstreams},1651855916,0
{consumergroup=__strimzi-topic-operator-kstreams},1651855921,0
{consumergroup=__strimzi-topic-operator-kstreams},1651855926,0
{consumergroup=__strimzi-topic-operator-kstreams},1651855931,0
{consumergroup=__strimzi-topic-operator-kstreams},1651855936,0
{consumergroup=__strimzi-topic-operator-kstreams},1651855941,0
{consumergroup=__strimzi-topic-operator-kstreams},1651855946,0
{consumergroup=__strimzi-topic-operator-kstreams},1651855951,0
{consumergroup=__strimzi-topic-operator-kstreams},1651855956,0
{consumergroup=__strimzi-topic-operator-kstreams},1651855961,0
{consumergroup=__strimzi-topic-operator-kstreams},1651855966,0
{consumergroup=__strimzi-topic-operator-kstreams},1651855971,0
{consumergroup=__strimzi-topic-operator-kstreams},1651855976,0
{consumergroup=__strimzi-topic-operator-kstreams},1651855981,0
{consumergroup=__strimzi-topic-operator-kstreams},1651855986,0
{consumergroup=__strimzi-topic-operator-kstreams},1651855991,0
{consumergroup=__strimzi-topic-operator-kstreams},1651855996,0
{consumergroup=__strimzi-topic-operator-kstreams},1651856001,0
{consumergroup=__strimzi-topic-operator-kstreams},1651856006,0
{consumergroup=__strimzi-topic-operator-kstreams},1651856011,0
{consumergroup=__strimzi-topic-operator-kstreams},1651856016,0
{consumergroup=__strimzi-topic-operator-kstreams},1651856021,0
{consumergroup=__strimzi-topic-operator-kstreams},1651856026,0
{consumergroup=__strimzi-topic-operator-kstreams},1651856031,0
{consumergroup=__strimzi-topic-operator-kstreams},1651856036,0
{consumergroup=__strimzi-topic-operator-kstreams},1651856041,0
{consumergroup=__strimzi-topic-operator-kstreams},1651856046,0
{consumergroup=__strimzi-topic-operator-kstreams},1651856051,0
{consumergroup=__strimzi-topic-operator-kstreams},1651856056,0
{consumergroup=__strimzi-topic-operator-kstreams},1651856061,0
{consumergroup=__strimzi-topic-operator-kstreams},1651856066,0
{consumergroup=__strimzi-topic-operator-kstreams},1651856071,0
{consumergroup=__strimzi-topic-operator-kstreams},1651856076,0
{consumergroup=__strimzi-topic-operator-kstreams},1651856081,0
{consumergroup=__strimzi-topic-operator-kstreams},1651856086,0
{consumergroup=__strimzi-topic-operator-kstreams},1651856091,0
{consumergroup=__strimzi-topic-operator-kstreams},1651856096,0
{consumergroup=__strimzi-topic-operator-kstreams},1651856101,0
{consumergroup=__strimzi-topic-operator-kstreams},1651856106,0
{consumergroup=__strimzi-topic-operator-kstreams},1651856111,0
{consumergroup=__strimzi-topic-operator-kstreams},1651856116,0
{consumergroup=__strimzi-topic-operator-kstreams},1651856121,0
{consumergroup=__strimzi-topic-operator-kstreams},1651856126,0
{consumergroup=__strimzi-topic-operator-kstreams},1651856131,0
{consumergroup=__strimzi-topic-operator-kstreams},1651856136,0
{consumergroup=__strimzi-topic-operator-kstreams},1651856141,0
{consumergroup=adapter-service},1651855921,808459
{consumergroup=adapter-service},1651855926,808459
{consumergroup=adapter-service},1651855931,808459
{consumergroup=adapter-service},1651855936,1138736
{consumergroup=adapter-service},1651855941,1138736
{consumergroup=adapter-service},1651855946,1138736
{consumergroup=adapter-service},1651855951,473899
{consumergroup=adapter-service},1651855956,473899
{consumergroup=adapter-service},1651855961,473899
{consumergroup=adapter-service},1651855966,308584
{consumergroup=adapter-service},1651855971,308584
{consumergroup=adapter-service},1651855976,308584
{consumergroup=adapter-service},1651855981,230431
{consumergroup=adapter-service},1651855986,230431
{consumergroup=adapter-service},1651855991,230431
{consumergroup=adapter-service},1651855996,107070
{consumergroup=adapter-service},1651856001,107070
{consumergroup=adapter-service},1651856006,107070
{consumergroup=adapter-service},1651856011,189018
{consumergroup=adapter-service},1651856016,189018
{consumergroup=adapter-service},1651856021,189018
{consumergroup=adapter-service},1651856026,139416
{consumergroup=adapter-service},1651856031,139416
{consumergroup=adapter-service},1651856036,139416
{consumergroup=adapter-service},1651856041,140658
{consumergroup=adapter-service},1651856046,140658
{consumergroup=adapter-service},1651856051,140658
{consumergroup=adapter-service},1651856056,55042
{consumergroup=adapter-service},1651856061,55042
{consumergroup=adapter-service},1651856066,55042
{consumergroup=adapter-service},1651856071,72576
{consumergroup=adapter-service},1651856076,72576
{consumergroup=adapter-service},1651856081,72576
{consumergroup=adapter-service},1651856086,66787
{consumergroup=adapter-service},1651856091,66787
{consumergroup=adapter-service},1651856096,66787
{consumergroup=adapter-service},1651856101,63908
{consumergroup=adapter-service},1651856106,63908
{consumergroup=adapter-service},1651856111,63908
{consumergroup=adapter-service},1651856116,79631
{consumergroup=adapter-service},1651856121,79631
{consumergroup=adapter-service},1651856126,79631
{consumergroup=adapter-service},1651856131,65890
{consumergroup=adapter-service},1651856136,65890
{consumergroup=adapter-service},1651856141,65890
