labels,timestamp,value
{job=theodolite-stu200776/trace-isolated-podmonitor},1651787167,0
{job=theodolite-stu200776/trace-isolated-podmonitor},1651787172,0
{job=theodolite-stu200776/trace-isolated-podmonitor},1651787177,0
{job=theodolite-stu200776/trace-isolated-podmonitor},1651787182,0
{job=theodolite-stu200776/trace-isolated-podmonitor},1651787187,0
{job=theodolite-stu200776/trace-isolated-podmonitor},1651787192,1.2417641631837149
{job=theodolite-stu200776/trace-isolated-podmonitor},1651787197,45.6567651820462
{job=theodolite-stu200776/trace-isolated-podmonitor},1651787202,125.34292710717759
{job=theodolite-stu200776/trace-isolated-podmonitor},1651787207,129.58440826592434
{job=theodolite-stu200776/trace-isolated-podmonitor},1651787212,112.04745473468735
{job=theodolite-stu200776/trace-isolated-podmonitor},1651787217,102.25082751878861
{job=theodolite-stu200776/trace-isolated-podmonitor},1651787222,90.40624783562981
{job=theodolite-stu200776/trace-isolated-podmonitor},1651787227,70.74962287103088
{job=theodolite-stu200776/trace-isolated-podmonitor},1651787232,20.00003909049866
{job=theodolite-stu200776/trace-isolated-podmonitor},1651787237,1.1597546377801482
{job=theodolite-stu200776/trace-isolated-podmonitor},1651787242,1.5992594918087248
{job=theodolite-stu200776/trace-isolated-podmonitor},1651787247,1.6470550769704089
{job=theodolite-stu200776/trace-isolated-podmonitor},1651787252,1.3796740231375746
{job=theodolite-stu200776/trace-isolated-podmonitor},1651787257,1.2956205913004226
{job=theodolite-stu200776/trace-isolated-podmonitor},1651787262,1.1234756128448902
{job=theodolite-stu200776/trace-isolated-podmonitor},1651787267,0.9708859568192382
{job=theodolite-stu200776/trace-isolated-podmonitor},1651787272,0.17409804169197604
{job=theodolite-stu200776/trace-isolated-podmonitor},1651787277,0
{job=theodolite-stu200776/trace-isolated-podmonitor},1651787282,0
{job=theodolite-stu200776/trace-isolated-podmonitor},1651787287,0
{job=theodolite-stu200776/trace-isolated-podmonitor},1651787292,0
{job=theodolite-stu200776/trace-isolated-podmonitor},1651787297,0
{job=theodolite-stu200776/trace-isolated-podmonitor},1651787302,0
{job=theodolite-stu200776/trace-isolated-podmonitor},1651787307,0
{job=theodolite-stu200776/trace-isolated-podmonitor},1651787312,0
{job=theodolite-stu200776/trace-isolated-podmonitor},1651787317,0
{job=theodolite-stu200776/trace-isolated-podmonitor},1651787322,0
{job=theodolite-stu200776/trace-isolated-podmonitor},1651787327,0
{job=theodolite-stu200776/trace-isolated-podmonitor},1651787332,0
{job=theodolite-stu200776/trace-isolated-podmonitor},1651787337,0
{job=theodolite-stu200776/trace-isolated-podmonitor},1651787342,0
{job=theodolite-stu200776/trace-isolated-podmonitor},1651787347,0
{job=theodolite-stu200776/trace-isolated-podmonitor},1651787352,0
{job=theodolite-stu200776/trace-isolated-podmonitor},1651787357,0
{job=theodolite-stu200776/trace-isolated-podmonitor},1651787362,0
{job=theodolite-stu200776/trace-isolated-podmonitor},1651787367,0
{job=theodolite-stu200776/trace-isolated-podmonitor},1651787372,0
{job=theodolite-stu200776/trace-isolated-podmonitor},1651787377,0
{job=theodolite-stu200776/trace-isolated-podmonitor},1651787382,0
{job=theodolite-stu200776/trace-isolated-podmonitor},1651787387,0
{job=theodolite-stu200776/trace-isolated-podmonitor},1651787392,0
{job=theodolite-stu200776/trace-isolated-podmonitor},1651787397,0
{job=theodolite-stu200776/trace-isolated-podmonitor},1651787402,0
{job=theodolite-stu200776/trace-isolated-podmonitor},1651787407,0
{job=theodolite-stu200776/trace-isolated-podmonitor},1651787412,0
{job=theodolite-stu200776/trace-isolated-podmonitor},1651787417,0
{job=theodolite-stu200776/trace-isolated-podmonitor},1651787422,0
{job=theodolite-stu200776/trace-isolated-podmonitor},1651787427,0
{job=theodolite-stu200776/trace-isolated-podmonitor},1651787432,0
{job=theodolite-stu200776/trace-isolated-podmonitor},1651787437,0
{job=theodolite-stu200776/trace-isolated-podmonitor},1651787442,0
{job=theodolite-stu200776/trace-isolated-podmonitor},1651787447,0
{job=theodolite-stu200776/trace-isolated-podmonitor},1651787452,0
{job=theodolite-stu200776/trace-isolated-podmonitor},1651787457,0
{job=theodolite-stu200776/trace-isolated-podmonitor},1651787462,0
{job=theodolite-stu200776/trace-isolated-podmonitor},1651787467,0
{job=theodolite-stu200776/trace-isolated-podmonitor},1651787472,0
{job=theodolite-stu200776/trace-isolated-podmonitor},1651787477,0
{job=theodolite-stu200776/trace-isolated-podmonitor},1651787482,0
{job=theodolite-stu200776/trace-isolated-podmonitor},1651787487,0
{job=theodolite-stu200776/trace-isolated-podmonitor},1651787492,0
{job=theodolite-stu200776/trace-isolated-podmonitor},1651787497,0
{job=theodolite-stu200776/trace-isolated-podmonitor},1651787502,0
{job=theodolite-stu200776/trace-isolated-podmonitor},1651787507,0
{job=theodolite-stu200776/trace-isolated-podmonitor},1651787512,0
{job=theodolite-stu200776/trace-isolated-podmonitor},1651787517,0
{job=theodolite-stu200776/trace-isolated-podmonitor},1651787522,0
{job=theodolite-stu200776/trace-isolated-podmonitor},1651787527,0
{job=theodolite-stu200776/trace-isolated-podmonitor},1651787532,0
{job=theodolite-stu200776/trace-isolated-podmonitor},1651787537,0
{job=theodolite-stu200776/trace-isolated-podmonitor},1651787542,0
