labels,timestamp,value
{consumergroup=__strimzi-topic-operator-kstreams},1651779820,3
{consumergroup=__strimzi-topic-operator-kstreams},1651779825,3
{consumergroup=__strimzi-topic-operator-kstreams},1651779830,3
{consumergroup=__strimzi-topic-operator-kstreams},1651779835,11
{consumergroup=__strimzi-topic-operator-kstreams},1651779840,11
{consumergroup=__strimzi-topic-operator-kstreams},1651779845,11
{consumergroup=__strimzi-topic-operator-kstreams},1651779850,3
{consumergroup=__strimzi-topic-operator-kstreams},1651779855,3
{consumergroup=__strimzi-topic-operator-kstreams},1651779860,3
{consumergroup=__strimzi-topic-operator-kstreams},1651779865,3
{consumergroup=__strimzi-topic-operator-kstreams},1651779870,3
{consumergroup=__strimzi-topic-operator-kstreams},1651779875,3
{consumergroup=__strimzi-topic-operator-kstreams},1651779880,0
{consumergroup=__strimzi-topic-operator-kstreams},1651779885,0
{consumergroup=__strimzi-topic-operator-kstreams},1651779890,0
{consumergroup=__strimzi-topic-operator-kstreams},1651779895,0
{consumergroup=__strimzi-topic-operator-kstreams},1651779900,0
{consumergroup=__strimzi-topic-operator-kstreams},1651779905,0
{consumergroup=__strimzi-topic-operator-kstreams},1651779910,0
{consumergroup=__strimzi-topic-operator-kstreams},1651779915,0
{consumergroup=__strimzi-topic-operator-kstreams},1651779920,0
{consumergroup=__strimzi-topic-operator-kstreams},1651779925,0
{consumergroup=__strimzi-topic-operator-kstreams},1651779930,0
{consumergroup=__strimzi-topic-operator-kstreams},1651779935,0
{consumergroup=__strimzi-topic-operator-kstreams},1651779940,0
{consumergroup=__strimzi-topic-operator-kstreams},1651779945,0
{consumergroup=__strimzi-topic-operator-kstreams},1651779950,0
{consumergroup=__strimzi-topic-operator-kstreams},1651779955,0
{consumergroup=__strimzi-topic-operator-kstreams},1651779960,0
{consumergroup=__strimzi-topic-operator-kstreams},1651779965,0
{consumergroup=__strimzi-topic-operator-kstreams},1651779970,0
{consumergroup=__strimzi-topic-operator-kstreams},1651779975,0
{consumergroup=__strimzi-topic-operator-kstreams},1651779980,0
{consumergroup=__strimzi-topic-operator-kstreams},1651779985,0
{consumergroup=__strimzi-topic-operator-kstreams},1651779990,0
{consumergroup=__strimzi-topic-operator-kstreams},1651779995,0
{consumergroup=__strimzi-topic-operator-kstreams},1651780000,0
{consumergroup=__strimzi-topic-operator-kstreams},1651780005,0
{consumergroup=__strimzi-topic-operator-kstreams},1651780010,0
{consumergroup=__strimzi-topic-operator-kstreams},1651780015,0
{consumergroup=__strimzi-topic-operator-kstreams},1651780020,0
{consumergroup=__strimzi-topic-operator-kstreams},1651780025,0
{consumergroup=__strimzi-topic-operator-kstreams},1651780030,0
{consumergroup=__strimzi-topic-operator-kstreams},1651780035,0
{consumergroup=__strimzi-topic-operator-kstreams},1651780040,0
{consumergroup=__strimzi-topic-operator-kstreams},1651780045,0
{consumergroup=__strimzi-topic-operator-kstreams},1651780050,0
{consumergroup=__strimzi-topic-operator-kstreams},1651780055,0
{consumergroup=__strimzi-topic-operator-kstreams},1651780060,0
{consumergroup=__strimzi-topic-operator-kstreams},1651780065,0
{consumergroup=__strimzi-topic-operator-kstreams},1651780070,0
{consumergroup=__strimzi-topic-operator-kstreams},1651780075,0
{consumergroup=__strimzi-topic-operator-kstreams},1651780080,0
{consumergroup=__strimzi-topic-operator-kstreams},1651780085,0
{consumergroup=__strimzi-topic-operator-kstreams},1651780090,0
{consumergroup=__strimzi-topic-operator-kstreams},1651780095,0
{consumergroup=__strimzi-topic-operator-kstreams},1651780100,0
{consumergroup=__strimzi-topic-operator-kstreams},1651780105,0
{consumergroup=__strimzi-topic-operator-kstreams},1651780110,0
{consumergroup=__strimzi-topic-operator-kstreams},1651780115,0
{consumergroup=__strimzi-topic-operator-kstreams},1651780120,0
{consumergroup=__strimzi-topic-operator-kstreams},1651780125,0
{consumergroup=__strimzi-topic-operator-kstreams},1651780130,0
{consumergroup=__strimzi-topic-operator-kstreams},1651780135,0
{consumergroup=__strimzi-topic-operator-kstreams},1651780140,0
{consumergroup=__strimzi-topic-operator-kstreams},1651780145,0
{consumergroup=__strimzi-topic-operator-kstreams},1651780150,0
{consumergroup=__strimzi-topic-operator-kstreams},1651780155,0
{consumergroup=__strimzi-topic-operator-kstreams},1651780160,0
{consumergroup=__strimzi-topic-operator-kstreams},1651780165,0
{consumergroup=__strimzi-topic-operator-kstreams},1651780170,0
{consumergroup=__strimzi-topic-operator-kstreams},1651780175,0
{consumergroup=__strimzi-topic-operator-kstreams},1651780180,0
{consumergroup=__strimzi-topic-operator-kstreams},1651780185,0
{consumergroup=__strimzi-topic-operator-kstreams},1651780190,0
{consumergroup=__strimzi-topic-operator-kstreams},1651780195,0
{consumergroup=__strimzi-topic-operator-kstreams},1651780200,0
{consumergroup=__strimzi-topic-operator-kstreams},1651780205,0
{consumergroup=__strimzi-topic-operator-kstreams},1651780210,0
{consumergroup=__strimzi-topic-operator-kstreams},1651780215,0
{consumergroup=__strimzi-topic-operator-kstreams},1651780220,0
{consumergroup=__strimzi-topic-operator-kstreams},1651780225,0
{consumergroup=__strimzi-topic-operator-kstreams},1651780230,0
{consumergroup=__strimzi-topic-operator-kstreams},1651780235,0
{consumergroup=__strimzi-topic-operator-kstreams},1651780240,0
{consumergroup=__strimzi-topic-operator-kstreams},1651780245,0
{consumergroup=__strimzi-topic-operator-kstreams},1651780250,0
{consumergroup=__strimzi-topic-operator-kstreams},1651780255,0
{consumergroup=__strimzi-topic-operator-kstreams},1651780260,0
{consumergroup=__strimzi-topic-operator-kstreams},1651780265,0
{consumergroup=trace-service},1651779865,201681
{consumergroup=trace-service},1651779870,201681
{consumergroup=trace-service},1651779875,201681
{consumergroup=trace-service},1651779880,364044
{consumergroup=trace-service},1651779885,364044
{consumergroup=trace-service},1651779890,364044
{consumergroup=trace-service},1651779895,969887
{consumergroup=trace-service},1651779900,969887
{consumergroup=trace-service},1651779905,969887
{consumergroup=trace-service},1651779910,329335
{consumergroup=trace-service},1651779915,329335
{consumergroup=trace-service},1651779920,329335
{consumergroup=trace-service},1651779925,818999
{consumergroup=trace-service},1651779930,818999
{consumergroup=trace-service},1651779935,818999
{consumergroup=trace-service},1651779940,309521
{consumergroup=trace-service},1651779945,309521
{consumergroup=trace-service},1651779950,309521
{consumergroup=trace-service},1651779955,390201
{consumergroup=trace-service},1651779960,390201
{consumergroup=trace-service},1651779965,390201
{consumergroup=trace-service},1651779970,310792
{consumergroup=trace-service},1651779975,310792
{consumergroup=trace-service},1651779980,310792
{consumergroup=trace-service},1651779985,790855
{consumergroup=trace-service},1651779990,790855
{consumergroup=trace-service},1651779995,790855
{consumergroup=trace-service},1651780000,297046
{consumergroup=trace-service},1651780005,297046
{consumergroup=trace-service},1651780010,297046
{consumergroup=trace-service},1651780015,484991
{consumergroup=trace-service},1651780020,484991
{consumergroup=trace-service},1651780025,484991
{consumergroup=trace-service},1651780030,306625
{consumergroup=trace-service},1651780035,306625
{consumergroup=trace-service},1651780040,306625
{consumergroup=trace-service},1651780045,252067
{consumergroup=trace-service},1651780050,252067
{consumergroup=trace-service},1651780055,252067
{consumergroup=trace-service},1651780060,316080
{consumergroup=trace-service},1651780065,316080
{consumergroup=trace-service},1651780070,316080
{consumergroup=trace-service},1651780075,511646
{consumergroup=trace-service},1651780080,511646
{consumergroup=trace-service},1651780085,511646
{consumergroup=trace-service},1651780090,337112
{consumergroup=trace-service},1651780095,337112
{consumergroup=trace-service},1651780100,337112
{consumergroup=trace-service},1651780105,953567
{consumergroup=trace-service},1651780110,953567
{consumergroup=trace-service},1651780115,953567
{consumergroup=trace-service},1651780120,297188
{consumergroup=trace-service},1651780125,297188
{consumergroup=trace-service},1651780130,297188
{consumergroup=trace-service},1651780135,733439
{consumergroup=trace-service},1651780140,733439
{consumergroup=trace-service},1651780145,733439
{consumergroup=trace-service},1651780150,314964
{consumergroup=trace-service},1651780155,314964
{consumergroup=trace-service},1651780160,314964
{consumergroup=trace-service},1651780165,909106
{consumergroup=trace-service},1651780170,909106
{consumergroup=trace-service},1651780175,909106
{consumergroup=trace-service},1651780180,315263
{consumergroup=trace-service},1651780185,315263
{consumergroup=trace-service},1651780190,315263
{consumergroup=trace-service},1651780195,753794
{consumergroup=trace-service},1651780200,753794
{consumergroup=trace-service},1651780205,753794
{consumergroup=trace-service},1651780210,326051
{consumergroup=trace-service},1651780215,326051
{consumergroup=trace-service},1651780220,326051
{consumergroup=trace-service},1651780225,744708
{consumergroup=trace-service},1651780230,744708
{consumergroup=trace-service},1651780235,744708
{consumergroup=trace-service},1651780240,332752
{consumergroup=trace-service},1651780245,332752
{consumergroup=trace-service},1651780250,332752
{consumergroup=trace-service},1651780255,651289
{consumergroup=trace-service},1651780260,651289
{consumergroup=trace-service},1651780265,651289
{consumergroup=trace-token-events-consumer},1651779865,0
{consumergroup=trace-token-events-consumer},1651779870,0
{consumergroup=trace-token-events-consumer},1651779875,0
{consumergroup=trace-token-events-consumer},1651779880,0
{consumergroup=trace-token-events-consumer},1651779885,0
{consumergroup=trace-token-events-consumer},1651779890,0
{consumergroup=trace-token-events-consumer},1651779895,0
{consumergroup=trace-token-events-consumer},1651779900,0
{consumergroup=trace-token-events-consumer},1651779905,0
{consumergroup=trace-token-events-consumer},1651779910,0
{consumergroup=trace-token-events-consumer},1651779915,0
{consumergroup=trace-token-events-consumer},1651779920,0
{consumergroup=trace-token-events-consumer},1651779925,0
{consumergroup=trace-token-events-consumer},1651779930,0
{consumergroup=trace-token-events-consumer},1651779935,0
{consumergroup=trace-token-events-consumer},1651779940,0
{consumergroup=trace-token-events-consumer},1651779945,0
{consumergroup=trace-token-events-consumer},1651779950,0
{consumergroup=trace-token-events-consumer},1651779955,0
{consumergroup=trace-token-events-consumer},1651779960,0
{consumergroup=trace-token-events-consumer},1651779965,0
{consumergroup=trace-token-events-consumer},1651779970,0
{consumergroup=trace-token-events-consumer},1651779975,0
{consumergroup=trace-token-events-consumer},1651779980,0
{consumergroup=trace-token-events-consumer},1651779985,0
{consumergroup=trace-token-events-consumer},1651779990,0
{consumergroup=trace-token-events-consumer},1651779995,0
{consumergroup=trace-token-events-consumer},1651780000,0
{consumergroup=trace-token-events-consumer},1651780005,0
{consumergroup=trace-token-events-consumer},1651780010,0
{consumergroup=trace-token-events-consumer},1651780015,0
{consumergroup=trace-token-events-consumer},1651780020,0
{consumergroup=trace-token-events-consumer},1651780025,0
{consumergroup=trace-token-events-consumer},1651780030,0
{consumergroup=trace-token-events-consumer},1651780035,0
{consumergroup=trace-token-events-consumer},1651780040,0
{consumergroup=trace-token-events-consumer},1651780045,0
{consumergroup=trace-token-events-consumer},1651780050,0
{consumergroup=trace-token-events-consumer},1651780055,0
{consumergroup=trace-token-events-consumer},1651780060,0
{consumergroup=trace-token-events-consumer},1651780065,0
{consumergroup=trace-token-events-consumer},1651780070,0
{consumergroup=trace-token-events-consumer},1651780075,0
{consumergroup=trace-token-events-consumer},1651780080,0
{consumergroup=trace-token-events-consumer},1651780085,0
{consumergroup=trace-token-events-consumer},1651780090,0
{consumergroup=trace-token-events-consumer},1651780095,0
{consumergroup=trace-token-events-consumer},1651780100,0
{consumergroup=trace-token-events-consumer},1651780105,0
{consumergroup=trace-token-events-consumer},1651780110,0
{consumergroup=trace-token-events-consumer},1651780115,0
{consumergroup=trace-token-events-consumer},1651780120,0
{consumergroup=trace-token-events-consumer},1651780125,0
{consumergroup=trace-token-events-consumer},1651780130,0
{consumergroup=trace-token-events-consumer},1651780135,0
{consumergroup=trace-token-events-consumer},1651780140,0
{consumergroup=trace-token-events-consumer},1651780145,0
{consumergroup=trace-token-events-consumer},1651780150,0
{consumergroup=trace-token-events-consumer},1651780155,0
{consumergroup=trace-token-events-consumer},1651780160,0
{consumergroup=trace-token-events-consumer},1651780165,0
{consumergroup=trace-token-events-consumer},1651780170,0
{consumergroup=trace-token-events-consumer},1651780175,0
{consumergroup=trace-token-events-consumer},1651780180,0
{consumergroup=trace-token-events-consumer},1651780185,0
{consumergroup=trace-token-events-consumer},1651780190,0
{consumergroup=trace-token-events-consumer},1651780195,0
{consumergroup=trace-token-events-consumer},1651780200,0
{consumergroup=trace-token-events-consumer},1651780205,0
{consumergroup=trace-token-events-consumer},1651780210,0
{consumergroup=trace-token-events-consumer},1651780215,0
{consumergroup=trace-token-events-consumer},1651780220,0
{consumergroup=trace-token-events-consumer},1651780225,0
{consumergroup=trace-token-events-consumer},1651780230,0
{consumergroup=trace-token-events-consumer},1651780235,0
{consumergroup=trace-token-events-consumer},1651780240,0
{consumergroup=trace-token-events-consumer},1651780245,0
{consumergroup=trace-token-events-consumer},1651780250,0
{consumergroup=trace-token-events-consumer},1651780255,0
{consumergroup=trace-token-events-consumer},1651780260,0
{consumergroup=trace-token-events-consumer},1651780265,0
