labels,timestamp,value
{job=theodolite-stu200776/trace-isolated-podmonitor},1651784579,0
{job=theodolite-stu200776/trace-isolated-podmonitor},1651784584,0
{job=theodolite-stu200776/trace-isolated-podmonitor},1651784589,0
{job=theodolite-stu200776/trace-isolated-podmonitor},1651784594,0
{job=theodolite-stu200776/trace-isolated-podmonitor},1651784599,0
{job=theodolite-stu200776/trace-isolated-podmonitor},1651784604,0
{job=theodolite-stu200776/trace-isolated-podmonitor},1651784609,0
{job=theodolite-stu200776/trace-isolated-podmonitor},1651784614,0
{job=theodolite-stu200776/trace-isolated-podmonitor},1651784619,0
{job=theodolite-stu200776/trace-isolated-podmonitor},1651784624,0
{job=theodolite-stu200776/trace-isolated-podmonitor},1651784629,0
{job=theodolite-stu200776/trace-isolated-podmonitor},1651784634,0
{job=theodolite-stu200776/trace-isolated-podmonitor},1651784639,0
{job=theodolite-stu200776/trace-isolated-podmonitor},1651784644,0
{job=theodolite-stu200776/trace-isolated-podmonitor},1651784649,0
{job=theodolite-stu200776/trace-isolated-podmonitor},1651784654,0
{job=theodolite-stu200776/trace-isolated-podmonitor},1651784659,0
{job=theodolite-stu200776/trace-isolated-podmonitor},1651784664,0
{job=theodolite-stu200776/trace-isolated-podmonitor},1651784669,0
{job=theodolite-stu200776/trace-isolated-podmonitor},1651784674,0
{job=theodolite-stu200776/trace-isolated-podmonitor},1651784679,0
{job=theodolite-stu200776/trace-isolated-podmonitor},1651784684,0
{job=theodolite-stu200776/trace-isolated-podmonitor},1651784689,0
{job=theodolite-stu200776/trace-isolated-podmonitor},1651784694,0
{job=theodolite-stu200776/trace-isolated-podmonitor},1651784699,0
{job=theodolite-stu200776/trace-isolated-podmonitor},1651784704,0
{job=theodolite-stu200776/trace-isolated-podmonitor},1651784709,0
{job=theodolite-stu200776/trace-isolated-podmonitor},1651784714,0
{job=theodolite-stu200776/trace-isolated-podmonitor},1651784719,0
{job=theodolite-stu200776/trace-isolated-podmonitor},1651784724,0
{job=theodolite-stu200776/trace-isolated-podmonitor},1651784729,0
{job=theodolite-stu200776/trace-isolated-podmonitor},1651784734,0
{job=theodolite-stu200776/trace-isolated-podmonitor},1651784739,0
{job=theodolite-stu200776/trace-isolated-podmonitor},1651784744,0
{job=theodolite-stu200776/trace-isolated-podmonitor},1651784749,0
{job=theodolite-stu200776/trace-isolated-podmonitor},1651784754,0
{job=theodolite-stu200776/trace-isolated-podmonitor},1651784759,0
{job=theodolite-stu200776/trace-isolated-podmonitor},1651784764,184.4045006760607
{job=theodolite-stu200776/trace-isolated-podmonitor},1651784769,829.9149742121946
{job=theodolite-stu200776/trace-isolated-podmonitor},1651784774,959.4400200363384
{job=theodolite-stu200776/trace-isolated-podmonitor},1651784779,924.7231351380515
{job=theodolite-stu200776/trace-isolated-podmonitor},1651784784,887.4008442322865
{job=theodolite-stu200776/trace-isolated-podmonitor},1651784789,807.1040641097205
{job=theodolite-stu200776/trace-isolated-podmonitor},1651784794,1346.1595860060966
{job=theodolite-stu200776/trace-isolated-podmonitor},1651784799,2971.040777838421
{job=theodolite-stu200776/trace-isolated-podmonitor},1651784804,3158.896843545506
{job=theodolite-stu200776/trace-isolated-podmonitor},1651784809,2685.149045536942
{job=theodolite-stu200776/trace-isolated-podmonitor},1651784814,2484.1665283224793
{job=theodolite-stu200776/trace-isolated-podmonitor},1651784819,2205.5108447723846
{job=theodolite-stu200776/trace-isolated-podmonitor},1651784824,2811.6886452369295
{job=theodolite-stu200776/trace-isolated-podmonitor},1651784829,9063.182786272848
{job=theodolite-stu200776/trace-isolated-podmonitor},1651784834,11118.343012657127
{job=theodolite-stu200776/trace-isolated-podmonitor},1651784839,9631.169495112368
{job=theodolite-stu200776/trace-isolated-podmonitor},1651784844,8937.119792541962
{job=theodolite-stu200776/trace-isolated-podmonitor},1651784849,7808.907698956566
{job=theodolite-stu200776/trace-isolated-podmonitor},1651784854,7646.625870654288
{job=theodolite-stu200776/trace-isolated-podmonitor},1651784859,8551.814286554827
{job=theodolite-stu200776/trace-isolated-podmonitor},1651784864,8835.411779199785
{job=theodolite-stu200776/trace-isolated-podmonitor},1651784869,7502.865998756542
{job=theodolite-stu200776/trace-isolated-podmonitor},1651784874,6912.369434748184
{job=theodolite-stu200776/trace-isolated-podmonitor},1651784879,6068.167121748185
{job=theodolite-stu200776/trace-isolated-podmonitor},1651784884,5363.703466283491
{job=theodolite-stu200776/trace-isolated-podmonitor},1651784889,2512.307740692672
{job=theodolite-stu200776/trace-isolated-podmonitor},1651784894,1317.146530298789
{job=theodolite-stu200776/trace-isolated-podmonitor},1651784899,1112.5644849345404
{job=theodolite-stu200776/trace-isolated-podmonitor},1651784904,1032.502392658642
{job=theodolite-stu200776/trace-isolated-podmonitor},1651784909,939.1231543725414
{job=theodolite-stu200776/trace-isolated-podmonitor},1651784914,1781.9469507147178
{job=theodolite-stu200776/trace-isolated-podmonitor},1651784919,7824.705820552112
{job=theodolite-stu200776/trace-isolated-podmonitor},1651784924,9469.638818166888
{job=theodolite-stu200776/trace-isolated-podmonitor},1651784929,7984.3260828810235
{job=theodolite-stu200776/trace-isolated-podmonitor},1651784934,7547.712245595247
{job=theodolite-stu200776/trace-isolated-podmonitor},1651784939,6762.714706774164
{job=theodolite-stu200776/trace-isolated-podmonitor},1651784944,7175.800835723947
{job=theodolite-stu200776/trace-isolated-podmonitor},1651784949,18617.77530446213
