labels,timestamp,value
{job=theodolite-stu200776/trace-isolated-podmonitor},1651794337,36.675716086562325
{job=theodolite-stu200776/trace-isolated-podmonitor},1651794342,44.829595585532495
{job=theodolite-stu200776/trace-isolated-podmonitor},1651794347,44.86150424382446
{job=theodolite-stu200776/trace-isolated-podmonitor},1651794352,43.053260774290344
{job=theodolite-stu200776/trace-isolated-podmonitor},1651794357,35.75745603659845
{job=theodolite-stu200776/trace-isolated-podmonitor},1651794362,34.60901850251506
{job=theodolite-stu200776/trace-isolated-podmonitor},1651794367,17.045256237988557
{job=theodolite-stu200776/trace-isolated-podmonitor},1651794372,11.848057742635868
{job=theodolite-stu200776/trace-isolated-podmonitor},1651794377,0
{job=theodolite-stu200776/trace-isolated-podmonitor},1651794382,0
{job=theodolite-stu200776/trace-isolated-podmonitor},1651794387,0
{job=theodolite-stu200776/trace-isolated-podmonitor},1651794392,0
{job=theodolite-stu200776/trace-isolated-podmonitor},1651794397,0
{job=theodolite-stu200776/trace-isolated-podmonitor},1651794402,0
{job=theodolite-stu200776/trace-isolated-podmonitor},1651794407,0
{job=theodolite-stu200776/trace-isolated-podmonitor},1651794412,0
{job=theodolite-stu200776/trace-isolated-podmonitor},1651794417,0
{job=theodolite-stu200776/trace-isolated-podmonitor},1651794422,0
{job=theodolite-stu200776/trace-isolated-podmonitor},1651794427,0
{job=theodolite-stu200776/trace-isolated-podmonitor},1651794432,0
{job=theodolite-stu200776/trace-isolated-podmonitor},1651794437,0
{job=theodolite-stu200776/trace-isolated-podmonitor},1651794442,0
{job=theodolite-stu200776/trace-isolated-podmonitor},1651794447,0
{job=theodolite-stu200776/trace-isolated-podmonitor},1651794452,0
{job=theodolite-stu200776/trace-isolated-podmonitor},1651794457,0
{job=theodolite-stu200776/trace-isolated-podmonitor},1651794462,0
{job=theodolite-stu200776/trace-isolated-podmonitor},1651794467,0
{job=theodolite-stu200776/trace-isolated-podmonitor},1651794472,0
{job=theodolite-stu200776/trace-isolated-podmonitor},1651794477,0
{job=theodolite-stu200776/trace-isolated-podmonitor},1651794482,0
{job=theodolite-stu200776/trace-isolated-podmonitor},1651794487,0
{job=theodolite-stu200776/trace-isolated-podmonitor},1651794492,0
{job=theodolite-stu200776/trace-isolated-podmonitor},1651794497,0
{job=theodolite-stu200776/trace-isolated-podmonitor},1651794502,0
{job=theodolite-stu200776/trace-isolated-podmonitor},1651794507,0
{job=theodolite-stu200776/trace-isolated-podmonitor},1651794512,0
{job=theodolite-stu200776/trace-isolated-podmonitor},1651794517,0
{job=theodolite-stu200776/trace-isolated-podmonitor},1651794522,0
{job=theodolite-stu200776/trace-isolated-podmonitor},1651794527,0
{job=theodolite-stu200776/trace-isolated-podmonitor},1651794532,0
{job=theodolite-stu200776/trace-isolated-podmonitor},1651794537,0
{job=theodolite-stu200776/trace-isolated-podmonitor},1651794542,0
{job=theodolite-stu200776/trace-isolated-podmonitor},1651794547,0
{job=theodolite-stu200776/trace-isolated-podmonitor},1651794552,0
{job=theodolite-stu200776/trace-isolated-podmonitor},1651794557,0
{job=theodolite-stu200776/trace-isolated-podmonitor},1651794562,0
{job=theodolite-stu200776/trace-isolated-podmonitor},1651794567,0
{job=theodolite-stu200776/trace-isolated-podmonitor},1651794572,0
{job=theodolite-stu200776/trace-isolated-podmonitor},1651794577,3.512417994818335
{job=theodolite-stu200776/trace-isolated-podmonitor},1651794582,4.688073268568868
{job=theodolite-stu200776/trace-isolated-podmonitor},1651794587,5.792810788842911
{job=theodolite-stu200776/trace-isolated-podmonitor},1651794592,5.557557139882801
{job=theodolite-stu200776/trace-isolated-podmonitor},1651794597,5.2591624071018535
{job=theodolite-stu200776/trace-isolated-podmonitor},1651794602,5.519044937268253
{job=theodolite-stu200776/trace-isolated-podmonitor},1651794607,6.243162747442536
{job=theodolite-stu200776/trace-isolated-podmonitor},1651794612,6.21856695293628
{job=theodolite-stu200776/trace-isolated-podmonitor},1651794617,5.109671237428385
{job=theodolite-stu200776/trace-isolated-podmonitor},1651794622,4.8744321352212285
{job=theodolite-stu200776/trace-isolated-podmonitor},1651794627,3.418041929999734
{job=theodolite-stu200776/trace-isolated-podmonitor},1651794632,2.8445712702316968
{job=theodolite-stu200776/trace-isolated-podmonitor},1651794637,0.6172313537749238
{job=theodolite-stu200776/trace-isolated-podmonitor},1651794642,0.25025275529955293
{job=theodolite-stu200776/trace-isolated-podmonitor},1651794647,0
{job=theodolite-stu200776/trace-isolated-podmonitor},1651794652,0
{job=theodolite-stu200776/trace-isolated-podmonitor},1651794657,0
{job=theodolite-stu200776/trace-isolated-podmonitor},1651794662,0
{job=theodolite-stu200776/trace-isolated-podmonitor},1651794667,0
{job=theodolite-stu200776/trace-isolated-podmonitor},1651794672,0
{job=theodolite-stu200776/trace-isolated-podmonitor},1651794677,0
{job=theodolite-stu200776/trace-isolated-podmonitor},1651794682,0
{job=theodolite-stu200776/trace-isolated-podmonitor},1651794687,0
{job=theodolite-stu200776/trace-isolated-podmonitor},1651794692,0
{job=theodolite-stu200776/trace-isolated-podmonitor},1651794697,0
{job=theodolite-stu200776/trace-isolated-podmonitor},1651794702,0
{job=theodolite-stu200776/trace-isolated-podmonitor},1651794707,0
