labels,timestamp,value
{job=theodolite-stu200776/trace-isolated-podmonitor},1651793985,0
{job=theodolite-stu200776/trace-isolated-podmonitor},1651793990,0
{job=theodolite-stu200776/trace-isolated-podmonitor},1651793995,0
{job=theodolite-stu200776/trace-isolated-podmonitor},1651794000,0
{job=theodolite-stu200776/trace-isolated-podmonitor},1651794005,0
{job=theodolite-stu200776/trace-isolated-podmonitor},1651794010,0
{job=theodolite-stu200776/trace-isolated-podmonitor},1651794015,0
{job=theodolite-stu200776/trace-isolated-podmonitor},1651794020,0
{job=theodolite-stu200776/trace-isolated-podmonitor},1651794025,0
{job=theodolite-stu200776/trace-isolated-podmonitor},1651794030,0
{job=theodolite-stu200776/trace-isolated-podmonitor},1651794035,0
{job=theodolite-stu200776/trace-isolated-podmonitor},1651794040,0
{job=theodolite-stu200776/trace-isolated-podmonitor},1651794045,0
{job=theodolite-stu200776/trace-isolated-podmonitor},1651794050,0
{job=theodolite-stu200776/trace-isolated-podmonitor},1651794055,0
{job=theodolite-stu200776/trace-isolated-podmonitor},1651794060,0
{job=theodolite-stu200776/trace-isolated-podmonitor},1651794065,0
{job=theodolite-stu200776/trace-isolated-podmonitor},1651794070,0
{job=theodolite-stu200776/trace-isolated-podmonitor},1651794075,0
{job=theodolite-stu200776/trace-isolated-podmonitor},1651794080,0
{job=theodolite-stu200776/trace-isolated-podmonitor},1651794085,0
{job=theodolite-stu200776/trace-isolated-podmonitor},1651794090,0
{job=theodolite-stu200776/trace-isolated-podmonitor},1651794095,0
{job=theodolite-stu200776/trace-isolated-podmonitor},1651794100,0
{job=theodolite-stu200776/trace-isolated-podmonitor},1651794105,0
{job=theodolite-stu200776/trace-isolated-podmonitor},1651794110,0
{job=theodolite-stu200776/trace-isolated-podmonitor},1651794115,0
{job=theodolite-stu200776/trace-isolated-podmonitor},1651794120,0
{job=theodolite-stu200776/trace-isolated-podmonitor},1651794125,0
{job=theodolite-stu200776/trace-isolated-podmonitor},1651794130,0
{job=theodolite-stu200776/trace-isolated-podmonitor},1651794135,0
{job=theodolite-stu200776/trace-isolated-podmonitor},1651794140,0
{job=theodolite-stu200776/trace-isolated-podmonitor},1651794145,0
{job=theodolite-stu200776/trace-isolated-podmonitor},1651794150,0
{job=theodolite-stu200776/trace-isolated-podmonitor},1651794155,0
{job=theodolite-stu200776/trace-isolated-podmonitor},1651794160,0
{job=theodolite-stu200776/trace-isolated-podmonitor},1651794165,0
{job=theodolite-stu200776/trace-isolated-podmonitor},1651794170,0
{job=theodolite-stu200776/trace-isolated-podmonitor},1651794175,0
{job=theodolite-stu200776/trace-isolated-podmonitor},1651794180,0
{job=theodolite-stu200776/trace-isolated-podmonitor},1651794185,0
{job=theodolite-stu200776/trace-isolated-podmonitor},1651794190,0
{job=theodolite-stu200776/trace-isolated-podmonitor},1651794195,0
