labels,timestamp,value
{consumergroup=__strimzi-topic-operator-kstreams},1651848099,8
{consumergroup=__strimzi-topic-operator-kstreams},1651848104,8
{consumergroup=__strimzi-topic-operator-kstreams},1651848109,8
{consumergroup=__strimzi-topic-operator-kstreams},1651848114,8
{consumergroup=__strimzi-topic-operator-kstreams},1651848119,8
{consumergroup=__strimzi-topic-operator-kstreams},1651848124,8
{consumergroup=__strimzi-topic-operator-kstreams},1651848129,0
{consumergroup=__strimzi-topic-operator-kstreams},1651848134,0
{consumergroup=__strimzi-topic-operator-kstreams},1651848139,0
{consumergroup=__strimzi-topic-operator-kstreams},1651848144,0
{consumergroup=__strimzi-topic-operator-kstreams},1651848149,0
{consumergroup=__strimzi-topic-operator-kstreams},1651848154,0
{consumergroup=__strimzi-topic-operator-kstreams},1651848159,0
{consumergroup=__strimzi-topic-operator-kstreams},1651848164,0
{consumergroup=__strimzi-topic-operator-kstreams},1651848169,0
{consumergroup=__strimzi-topic-operator-kstreams},1651848174,0
{consumergroup=__strimzi-topic-operator-kstreams},1651848179,0
{consumergroup=__strimzi-topic-operator-kstreams},1651848184,0
{consumergroup=__strimzi-topic-operator-kstreams},1651848189,0
{consumergroup=__strimzi-topic-operator-kstreams},1651848194,0
{consumergroup=__strimzi-topic-operator-kstreams},1651848199,0
{consumergroup=__strimzi-topic-operator-kstreams},1651848204,0
{consumergroup=__strimzi-topic-operator-kstreams},1651848209,0
{consumergroup=__strimzi-topic-operator-kstreams},1651848214,0
{consumergroup=__strimzi-topic-operator-kstreams},1651848219,0
{consumergroup=__strimzi-topic-operator-kstreams},1651848224,0
{consumergroup=__strimzi-topic-operator-kstreams},1651848229,0
{consumergroup=__strimzi-topic-operator-kstreams},1651848234,0
{consumergroup=__strimzi-topic-operator-kstreams},1651848239,0
{consumergroup=__strimzi-topic-operator-kstreams},1651848244,0
{consumergroup=__strimzi-topic-operator-kstreams},1651848249,0
{consumergroup=__strimzi-topic-operator-kstreams},1651848254,0
{consumergroup=__strimzi-topic-operator-kstreams},1651848259,0
{consumergroup=__strimzi-topic-operator-kstreams},1651848264,0
{consumergroup=__strimzi-topic-operator-kstreams},1651848269,0
{consumergroup=__strimzi-topic-operator-kstreams},1651848274,0
{consumergroup=__strimzi-topic-operator-kstreams},1651848279,0
{consumergroup=__strimzi-topic-operator-kstreams},1651848284,0
{consumergroup=__strimzi-topic-operator-kstreams},1651848289,0
{consumergroup=__strimzi-topic-operator-kstreams},1651848294,0
{consumergroup=__strimzi-topic-operator-kstreams},1651848299,0
{consumergroup=__strimzi-topic-operator-kstreams},1651848304,0
{consumergroup=__strimzi-topic-operator-kstreams},1651848309,0
{consumergroup=__strimzi-topic-operator-kstreams},1651848314,0
{consumergroup=__strimzi-topic-operator-kstreams},1651848319,0
{consumergroup=__strimzi-topic-operator-kstreams},1651848324,0
{consumergroup=__strimzi-topic-operator-kstreams},1651848329,0
{consumergroup=__strimzi-topic-operator-kstreams},1651848334,0
{consumergroup=__strimzi-topic-operator-kstreams},1651848339,0
{consumergroup=__strimzi-topic-operator-kstreams},1651848344,0
{consumergroup=__strimzi-topic-operator-kstreams},1651848349,0
{consumergroup=adapter-service},1651848129,442513
{consumergroup=adapter-service},1651848134,442513
{consumergroup=adapter-service},1651848139,442513
{consumergroup=adapter-service},1651848144,2169070
{consumergroup=adapter-service},1651848149,2169070
{consumergroup=adapter-service},1651848154,2169070
{consumergroup=adapter-service},1651848159,3221340
{consumergroup=adapter-service},1651848164,3221340
{consumergroup=adapter-service},1651848169,3221340
{consumergroup=adapter-service},1651848174,4267058
{consumergroup=adapter-service},1651848179,4267058
{consumergroup=adapter-service},1651848184,4267058
{consumergroup=adapter-service},1651848189,5133822
{consumergroup=adapter-service},1651848194,5133822
{consumergroup=adapter-service},1651848199,5133822
{consumergroup=adapter-service},1651848204,5892995
{consumergroup=adapter-service},1651848209,5892995
{consumergroup=adapter-service},1651848214,5892995
{consumergroup=adapter-service},1651848219,6452871
{consumergroup=adapter-service},1651848224,6452871
{consumergroup=adapter-service},1651848229,6452871
{consumergroup=adapter-service},1651848234,7032569
{consumergroup=adapter-service},1651848239,7032569
{consumergroup=adapter-service},1651848244,7032569
{consumergroup=adapter-service},1651848249,7534272
{consumergroup=adapter-service},1651848254,7534272
{consumergroup=adapter-service},1651848259,7534272
{consumergroup=adapter-service},1651848264,8077492
{consumergroup=adapter-service},1651848269,8077492
{consumergroup=adapter-service},1651848274,8077492
{consumergroup=adapter-service},1651848279,8672584
{consumergroup=adapter-service},1651848284,8672584
{consumergroup=adapter-service},1651848289,8672584
{consumergroup=adapter-service},1651848294,9246447
{consumergroup=adapter-service},1651848299,9246447
{consumergroup=adapter-service},1651848304,9246447
{consumergroup=adapter-service},1651848309,9768880
{consumergroup=adapter-service},1651848314,9768880
{consumergroup=adapter-service},1651848319,9768880
{consumergroup=adapter-service},1651848324,10277164
{consumergroup=adapter-service},1651848329,10277164
{consumergroup=adapter-service},1651848334,10277164
{consumergroup=adapter-service},1651848339,10779482
{consumergroup=adapter-service},1651848344,10779482
{consumergroup=adapter-service},1651848349,10779482
