labels,timestamp,value
{job=theodolite-stu200776/trace-isolated-podmonitor},1651795354,0
{job=theodolite-stu200776/trace-isolated-podmonitor},1651795359,0
{job=theodolite-stu200776/trace-isolated-podmonitor},1651795364,0
{job=theodolite-stu200776/trace-isolated-podmonitor},1651795369,0
{job=theodolite-stu200776/trace-isolated-podmonitor},1651795374,0
{job=theodolite-stu200776/trace-isolated-podmonitor},1651795379,0
{job=theodolite-stu200776/trace-isolated-podmonitor},1651795384,0
{job=theodolite-stu200776/trace-isolated-podmonitor},1651795389,177.58159438192348
{job=theodolite-stu200776/trace-isolated-podmonitor},1651795394,846.4811937528558
{job=theodolite-stu200776/trace-isolated-podmonitor},1651795399,810.6108621730647
{job=theodolite-stu200776/trace-isolated-podmonitor},1651795404,789.5677033435733
{job=theodolite-stu200776/trace-isolated-podmonitor},1651795409,763.0834013307859
{job=theodolite-stu200776/trace-isolated-podmonitor},1651795414,679.0973713091115
{job=theodolite-stu200776/trace-isolated-podmonitor},1651795419,673.6672348950133
{job=theodolite-stu200776/trace-isolated-podmonitor},1651795424,901.1643188628367
{job=theodolite-stu200776/trace-isolated-podmonitor},1651795429,876.2039400476892
{job=theodolite-stu200776/trace-isolated-podmonitor},1651795434,725.2077862217411
{job=theodolite-stu200776/trace-isolated-podmonitor},1651795439,709.499522421735
{job=theodolite-stu200776/trace-isolated-podmonitor},1651795444,594.0882355439186
{job=theodolite-stu200776/trace-isolated-podmonitor},1651795449,524.9600537838257
{job=theodolite-stu200776/trace-isolated-podmonitor},1651795454,24.894049531298165
{job=theodolite-stu200776/trace-isolated-podmonitor},1651795459,24.894049531298165
{job=theodolite-stu200776/trace-isolated-podmonitor},1651795464,0
{job=theodolite-stu200776/trace-isolated-podmonitor},1651795469,0
{job=theodolite-stu200776/trace-isolated-podmonitor},1651795474,0
{job=theodolite-stu200776/trace-isolated-podmonitor},1651795479,0
{job=theodolite-stu200776/trace-isolated-podmonitor},1651795484,0
{job=theodolite-stu200776/trace-isolated-podmonitor},1651795489,0
{job=theodolite-stu200776/trace-isolated-podmonitor},1651795494,0
{job=theodolite-stu200776/trace-isolated-podmonitor},1651795499,0
{job=theodolite-stu200776/trace-isolated-podmonitor},1651795504,0
{job=theodolite-stu200776/trace-isolated-podmonitor},1651795509,0
{job=theodolite-stu200776/trace-isolated-podmonitor},1651795514,0
{job=theodolite-stu200776/trace-isolated-podmonitor},1651795519,0
{job=theodolite-stu200776/trace-isolated-podmonitor},1651795524,0
{job=theodolite-stu200776/trace-isolated-podmonitor},1651795529,0
{job=theodolite-stu200776/trace-isolated-podmonitor},1651795534,0
{job=theodolite-stu200776/trace-isolated-podmonitor},1651795539,0
{job=theodolite-stu200776/trace-isolated-podmonitor},1651795544,0
{job=theodolite-stu200776/trace-isolated-podmonitor},1651795549,0
{job=theodolite-stu200776/trace-isolated-podmonitor},1651795554,0
{job=theodolite-stu200776/trace-isolated-podmonitor},1651795559,0
{job=theodolite-stu200776/trace-isolated-podmonitor},1651795564,0
{job=theodolite-stu200776/trace-isolated-podmonitor},1651795569,0
{job=theodolite-stu200776/trace-isolated-podmonitor},1651795574,0
{job=theodolite-stu200776/trace-isolated-podmonitor},1651795579,0
{job=theodolite-stu200776/trace-isolated-podmonitor},1651795584,0
{job=theodolite-stu200776/trace-isolated-podmonitor},1651795589,0
{job=theodolite-stu200776/trace-isolated-podmonitor},1651795594,0
{job=theodolite-stu200776/trace-isolated-podmonitor},1651795599,0
{job=theodolite-stu200776/trace-isolated-podmonitor},1651795604,0
{job=theodolite-stu200776/trace-isolated-podmonitor},1651795609,0
{job=theodolite-stu200776/trace-isolated-podmonitor},1651795614,0
{job=theodolite-stu200776/trace-isolated-podmonitor},1651795619,0
{job=theodolite-stu200776/trace-isolated-podmonitor},1651795624,0
{job=theodolite-stu200776/trace-isolated-podmonitor},1651795629,0
{job=theodolite-stu200776/trace-isolated-podmonitor},1651795634,0
{job=theodolite-stu200776/trace-isolated-podmonitor},1651795639,0
{job=theodolite-stu200776/trace-isolated-podmonitor},1651795644,0
{job=theodolite-stu200776/trace-isolated-podmonitor},1651795649,0
{job=theodolite-stu200776/trace-isolated-podmonitor},1651795654,0
{job=theodolite-stu200776/trace-isolated-podmonitor},1651795659,0
{job=theodolite-stu200776/trace-isolated-podmonitor},1651795664,0
{job=theodolite-stu200776/trace-isolated-podmonitor},1651795669,0
{job=theodolite-stu200776/trace-isolated-podmonitor},1651795674,0
{job=theodolite-stu200776/trace-isolated-podmonitor},1651795679,0
{job=theodolite-stu200776/trace-isolated-podmonitor},1651795684,0
{job=theodolite-stu200776/trace-isolated-podmonitor},1651795689,0
{job=theodolite-stu200776/trace-isolated-podmonitor},1651795694,0
{job=theodolite-stu200776/trace-isolated-podmonitor},1651795699,0
{job=theodolite-stu200776/trace-isolated-podmonitor},1651795704,0
{job=theodolite-stu200776/trace-isolated-podmonitor},1651795709,0
{job=theodolite-stu200776/trace-isolated-podmonitor},1651795714,0
{job=theodolite-stu200776/trace-isolated-podmonitor},1651795719,0
{job=theodolite-stu200776/trace-isolated-podmonitor},1651795724,0
{job=theodolite-stu200776/trace-isolated-podmonitor},1651795729,0
