labels,timestamp,value
{consumergroup=__strimzi-topic-operator-kstreams},1651857148,0
{consumergroup=__strimzi-topic-operator-kstreams},1651857153,0
{consumergroup=__strimzi-topic-operator-kstreams},1651857158,0
{consumergroup=__strimzi-topic-operator-kstreams},1651857163,0
{consumergroup=__strimzi-topic-operator-kstreams},1651857168,0
{consumergroup=__strimzi-topic-operator-kstreams},1651857173,0
{consumergroup=__strimzi-topic-operator-kstreams},1651857178,0
{consumergroup=__strimzi-topic-operator-kstreams},1651857183,0
{consumergroup=__strimzi-topic-operator-kstreams},1651857188,0
{consumergroup=__strimzi-topic-operator-kstreams},1651857193,0
{consumergroup=__strimzi-topic-operator-kstreams},1651857198,0
{consumergroup=__strimzi-topic-operator-kstreams},1651857203,0
{consumergroup=__strimzi-topic-operator-kstreams},1651857208,0
{consumergroup=__strimzi-topic-operator-kstreams},1651857213,0
{consumergroup=__strimzi-topic-operator-kstreams},1651857218,0
{consumergroup=__strimzi-topic-operator-kstreams},1651857223,0
{consumergroup=__strimzi-topic-operator-kstreams},1651857228,0
{consumergroup=__strimzi-topic-operator-kstreams},1651857233,0
{consumergroup=__strimzi-topic-operator-kstreams},1651857238,0
{consumergroup=__strimzi-topic-operator-kstreams},1651857243,0
{consumergroup=__strimzi-topic-operator-kstreams},1651857248,0
{consumergroup=__strimzi-topic-operator-kstreams},1651857253,0
{consumergroup=__strimzi-topic-operator-kstreams},1651857258,0
{consumergroup=__strimzi-topic-operator-kstreams},1651857263,0
{consumergroup=__strimzi-topic-operator-kstreams},1651857268,0
{consumergroup=__strimzi-topic-operator-kstreams},1651857273,0
{consumergroup=__strimzi-topic-operator-kstreams},1651857278,0
{consumergroup=__strimzi-topic-operator-kstreams},1651857283,0
{consumergroup=__strimzi-topic-operator-kstreams},1651857288,0
{consumergroup=__strimzi-topic-operator-kstreams},1651857293,0
{consumergroup=__strimzi-topic-operator-kstreams},1651857298,0
{consumergroup=__strimzi-topic-operator-kstreams},1651857303,0
{consumergroup=__strimzi-topic-operator-kstreams},1651857308,0
{consumergroup=__strimzi-topic-operator-kstreams},1651857313,0
{consumergroup=__strimzi-topic-operator-kstreams},1651857318,0
{consumergroup=__strimzi-topic-operator-kstreams},1651857323,0
{consumergroup=__strimzi-topic-operator-kstreams},1651857328,0
{consumergroup=__strimzi-topic-operator-kstreams},1651857333,0
{consumergroup=__strimzi-topic-operator-kstreams},1651857338,0
{consumergroup=__strimzi-topic-operator-kstreams},1651857343,0
{consumergroup=__strimzi-topic-operator-kstreams},1651857348,0
{consumergroup=__strimzi-topic-operator-kstreams},1651857353,0
{consumergroup=__strimzi-topic-operator-kstreams},1651857358,0
{consumergroup=__strimzi-topic-operator-kstreams},1651857363,0
{consumergroup=__strimzi-topic-operator-kstreams},1651857368,0
{consumergroup=__strimzi-topic-operator-kstreams},1651857373,0
{consumergroup=__strimzi-topic-operator-kstreams},1651857378,0
{consumergroup=__strimzi-topic-operator-kstreams},1651857383,0
{consumergroup=__strimzi-topic-operator-kstreams},1651857388,0
{consumergroup=__strimzi-topic-operator-kstreams},1651857393,0
{consumergroup=adapter-service},1651857178,1391806
{consumergroup=adapter-service},1651857183,1391806
{consumergroup=adapter-service},1651857188,1391806
{consumergroup=adapter-service},1651857193,2589603
{consumergroup=adapter-service},1651857198,2589603
{consumergroup=adapter-service},1651857203,2589603
{consumergroup=adapter-service},1651857208,3003413
{consumergroup=adapter-service},1651857213,3003413
{consumergroup=adapter-service},1651857218,3003413
{consumergroup=adapter-service},1651857223,3564621
{consumergroup=adapter-service},1651857228,3564621
{consumergroup=adapter-service},1651857233,3564621
{consumergroup=adapter-service},1651857238,3970381
{consumergroup=adapter-service},1651857243,3970381
{consumergroup=adapter-service},1651857248,3970381
{consumergroup=adapter-service},1651857253,4140774
{consumergroup=adapter-service},1651857258,4140774
{consumergroup=adapter-service},1651857263,4140774
{consumergroup=adapter-service},1651857268,4046536
{consumergroup=adapter-service},1651857273,4046536
{consumergroup=adapter-service},1651857278,4046536
{consumergroup=adapter-service},1651857283,4478843
{consumergroup=adapter-service},1651857288,4478843
{consumergroup=adapter-service},1651857293,4478843
{consumergroup=adapter-service},1651857298,4237918
{consumergroup=adapter-service},1651857303,4237918
{consumergroup=adapter-service},1651857308,4237918
{consumergroup=adapter-service},1651857313,4497455
{consumergroup=adapter-service},1651857318,4497455
{consumergroup=adapter-service},1651857323,4497455
{consumergroup=adapter-service},1651857328,4609287
{consumergroup=adapter-service},1651857333,4609287
{consumergroup=adapter-service},1651857338,4609287
{consumergroup=adapter-service},1651857343,4747558
{consumergroup=adapter-service},1651857348,4747558
{consumergroup=adapter-service},1651857353,4747558
{consumergroup=adapter-service},1651857358,4519382
{consumergroup=adapter-service},1651857363,4519382
{consumergroup=adapter-service},1651857368,4519382
{consumergroup=adapter-service},1651857373,4583832
{consumergroup=adapter-service},1651857378,4583832
{consumergroup=adapter-service},1651857383,4583832
{consumergroup=adapter-service},1651857388,4302376
{consumergroup=adapter-service},1651857393,4302376
