labels,timestamp,value
{consumergroup=__strimzi-topic-operator-kstreams},1651770508,8
{consumergroup=__strimzi-topic-operator-kstreams},1651770513,8
{consumergroup=__strimzi-topic-operator-kstreams},1651770518,8
{consumergroup=__strimzi-topic-operator-kstreams},1651770523,0
{consumergroup=__strimzi-topic-operator-kstreams},1651770528,0
{consumergroup=__strimzi-topic-operator-kstreams},1651770533,0
{consumergroup=__strimzi-topic-operator-kstreams},1651770538,3
{consumergroup=__strimzi-topic-operator-kstreams},1651770543,3
{consumergroup=__strimzi-topic-operator-kstreams},1651770548,3
{consumergroup=__strimzi-topic-operator-kstreams},1651770553,0
{consumergroup=__strimzi-topic-operator-kstreams},1651770558,0
{consumergroup=__strimzi-topic-operator-kstreams},1651770563,0
{consumergroup=__strimzi-topic-operator-kstreams},1651770568,0
{consumergroup=__strimzi-topic-operator-kstreams},1651770573,0
{consumergroup=__strimzi-topic-operator-kstreams},1651770578,0
{consumergroup=__strimzi-topic-operator-kstreams},1651770583,0
{consumergroup=__strimzi-topic-operator-kstreams},1651770588,0
{consumergroup=__strimzi-topic-operator-kstreams},1651770593,0
{consumergroup=__strimzi-topic-operator-kstreams},1651770598,0
{consumergroup=__strimzi-topic-operator-kstreams},1651770603,0
{consumergroup=__strimzi-topic-operator-kstreams},1651770608,0
{consumergroup=__strimzi-topic-operator-kstreams},1651770613,0
{consumergroup=__strimzi-topic-operator-kstreams},1651770618,0
{consumergroup=__strimzi-topic-operator-kstreams},1651770623,0
{consumergroup=__strimzi-topic-operator-kstreams},1651770628,0
{consumergroup=__strimzi-topic-operator-kstreams},1651770633,0
{consumergroup=__strimzi-topic-operator-kstreams},1651770638,0
{consumergroup=__strimzi-topic-operator-kstreams},1651770643,0
{consumergroup=__strimzi-topic-operator-kstreams},1651770648,0
{consumergroup=__strimzi-topic-operator-kstreams},1651770653,0
{consumergroup=__strimzi-topic-operator-kstreams},1651770658,0
{consumergroup=__strimzi-topic-operator-kstreams},1651770663,0
{consumergroup=__strimzi-topic-operator-kstreams},1651770668,0
{consumergroup=__strimzi-topic-operator-kstreams},1651770673,0
{consumergroup=__strimzi-topic-operator-kstreams},1651770678,0
{consumergroup=__strimzi-topic-operator-kstreams},1651770683,0
{consumergroup=__strimzi-topic-operator-kstreams},1651770688,0
{consumergroup=__strimzi-topic-operator-kstreams},1651770693,0
{consumergroup=__strimzi-topic-operator-kstreams},1651770698,0
{consumergroup=__strimzi-topic-operator-kstreams},1651770703,0
{consumergroup=__strimzi-topic-operator-kstreams},1651770708,0
{consumergroup=__strimzi-topic-operator-kstreams},1651770713,0
{consumergroup=__strimzi-topic-operator-kstreams},1651770718,0
{consumergroup=__strimzi-topic-operator-kstreams},1651770723,0
{consumergroup=__strimzi-topic-operator-kstreams},1651770728,0
{consumergroup=__strimzi-topic-operator-kstreams},1651770733,0
{consumergroup=__strimzi-topic-operator-kstreams},1651770738,0
{consumergroup=__strimzi-topic-operator-kstreams},1651770743,0
{consumergroup=__strimzi-topic-operator-kstreams},1651770748,0
{consumergroup=__strimzi-topic-operator-kstreams},1651770753,0
{consumergroup=__strimzi-topic-operator-kstreams},1651770758,0
{consumergroup=__strimzi-topic-operator-kstreams},1651770763,0
{consumergroup=__strimzi-topic-operator-kstreams},1651770768,0
{consumergroup=__strimzi-topic-operator-kstreams},1651770773,0
{consumergroup=__strimzi-topic-operator-kstreams},1651770778,0
{consumergroup=__strimzi-topic-operator-kstreams},1651770783,0
{consumergroup=__strimzi-topic-operator-kstreams},1651770788,0
{consumergroup=__strimzi-topic-operator-kstreams},1651770793,0
{consumergroup=__strimzi-topic-operator-kstreams},1651770798,0
{consumergroup=__strimzi-topic-operator-kstreams},1651770803,0
{consumergroup=__strimzi-topic-operator-kstreams},1651770808,0
{consumergroup=__strimzi-topic-operator-kstreams},1651770813,0
{consumergroup=__strimzi-topic-operator-kstreams},1651770818,0
{consumergroup=__strimzi-topic-operator-kstreams},1651770823,0
{consumergroup=__strimzi-topic-operator-kstreams},1651770828,0
{consumergroup=__strimzi-topic-operator-kstreams},1651770833,0
{consumergroup=__strimzi-topic-operator-kstreams},1651770838,0
{consumergroup=__strimzi-topic-operator-kstreams},1651770843,0
{consumergroup=__strimzi-topic-operator-kstreams},1651770848,0
{consumergroup=__strimzi-topic-operator-kstreams},1651770853,0
{consumergroup=__strimzi-topic-operator-kstreams},1651770858,0
{consumergroup=__strimzi-topic-operator-kstreams},1651770863,0
{consumergroup=__strimzi-topic-operator-kstreams},1651770868,0
{consumergroup=__strimzi-topic-operator-kstreams},1651770873,0
{consumergroup=__strimzi-topic-operator-kstreams},1651770878,0
{consumergroup=__strimzi-topic-operator-kstreams},1651770883,0
{consumergroup=__strimzi-topic-operator-kstreams},1651770888,0
{consumergroup=__strimzi-topic-operator-kstreams},1651770893,0
{consumergroup=__strimzi-topic-operator-kstreams},1651770898,0
{consumergroup=__strimzi-topic-operator-kstreams},1651770903,0
{consumergroup=__strimzi-topic-operator-kstreams},1651770908,0
{consumergroup=__strimzi-topic-operator-kstreams},1651770913,0
{consumergroup=__strimzi-topic-operator-kstreams},1651770918,0
{consumergroup=__strimzi-topic-operator-kstreams},1651770923,0
{consumergroup=__strimzi-topic-operator-kstreams},1651770928,0
{consumergroup=__strimzi-topic-operator-kstreams},1651770933,0
{consumergroup=__strimzi-topic-operator-kstreams},1651770938,0
{consumergroup=__strimzi-topic-operator-kstreams},1651770943,0
{consumergroup=__strimzi-topic-operator-kstreams},1651770948,0
{consumergroup=__strimzi-topic-operator-kstreams},1651770953,0
{consumergroup=trace-service},1651770553,75967
{consumergroup=trace-service},1651770558,75967
{consumergroup=trace-service},1651770563,75967
{consumergroup=trace-service},1651770568,187704
{consumergroup=trace-service},1651770573,187704
{consumergroup=trace-service},1651770578,187704
{consumergroup=trace-service},1651770583,265941
{consumergroup=trace-service},1651770588,265941
{consumergroup=trace-service},1651770593,265941
{consumergroup=trace-service},1651770598,449414
{consumergroup=trace-service},1651770603,449414
{consumergroup=trace-service},1651770608,449414
{consumergroup=trace-service},1651770613,668308
{consumergroup=trace-service},1651770618,668308
{consumergroup=trace-service},1651770623,668308
{consumergroup=trace-service},1651770628,661184
{consumergroup=trace-service},1651770633,661184
{consumergroup=trace-service},1651770638,661184
{consumergroup=trace-service},1651770643,442126
{consumergroup=trace-service},1651770648,442126
{consumergroup=trace-service},1651770653,442126
{consumergroup=trace-service},1651770658,445519
{consumergroup=trace-service},1651770663,445519
{consumergroup=trace-service},1651770668,445519
{consumergroup=trace-service},1651770673,310895
{consumergroup=trace-service},1651770678,310895
{consumergroup=trace-service},1651770683,310895
{consumergroup=trace-service},1651770688,400489
{consumergroup=trace-service},1651770693,400489
{consumergroup=trace-service},1651770698,400489
{consumergroup=trace-service},1651770703,291542
{consumergroup=trace-service},1651770708,291542
{consumergroup=trace-service},1651770713,291542
{consumergroup=trace-service},1651770718,220798
{consumergroup=trace-service},1651770723,220798
{consumergroup=trace-service},1651770728,220798
{consumergroup=trace-service},1651770733,239692
{consumergroup=trace-service},1651770738,239692
{consumergroup=trace-service},1651770743,239692
{consumergroup=trace-service},1651770748,232168
{consumergroup=trace-service},1651770753,232168
{consumergroup=trace-service},1651770758,232168
{consumergroup=trace-service},1651770763,191170
{consumergroup=trace-service},1651770768,191170
{consumergroup=trace-service},1651770773,191170
{consumergroup=trace-service},1651770778,250272
{consumergroup=trace-service},1651770783,250272
{consumergroup=trace-service},1651770788,250272
{consumergroup=trace-service},1651770793,187279
{consumergroup=trace-service},1651770798,187279
{consumergroup=trace-service},1651770803,187279
{consumergroup=trace-service},1651770808,127521
{consumergroup=trace-service},1651770813,127521
{consumergroup=trace-service},1651770818,127521
{consumergroup=trace-service},1651770823,181311
{consumergroup=trace-service},1651770828,181311
{consumergroup=trace-service},1651770833,181311
{consumergroup=trace-service},1651770838,153302
{consumergroup=trace-service},1651770843,153302
{consumergroup=trace-service},1651770848,153302
{consumergroup=trace-service},1651770853,259548
{consumergroup=trace-service},1651770858,259548
{consumergroup=trace-service},1651770863,259548
{consumergroup=trace-service},1651770868,194190
{consumergroup=trace-service},1651770873,194190
{consumergroup=trace-service},1651770878,194190
{consumergroup=trace-service},1651770883,153334
{consumergroup=trace-service},1651770888,153334
{consumergroup=trace-service},1651770893,153334
{consumergroup=trace-service},1651770898,140346
{consumergroup=trace-service},1651770903,140346
{consumergroup=trace-service},1651770908,140346
{consumergroup=trace-service},1651770913,155566
{consumergroup=trace-service},1651770918,155566
{consumergroup=trace-service},1651770923,155566
{consumergroup=trace-service},1651770928,118819
{consumergroup=trace-service},1651770933,118819
{consumergroup=trace-service},1651770938,118819
{consumergroup=trace-service},1651770943,179115
{consumergroup=trace-service},1651770948,179115
{consumergroup=trace-service},1651770953,179115
{consumergroup=trace-token-events-consumer},1651770538,0
{consumergroup=trace-token-events-consumer},1651770543,0
{consumergroup=trace-token-events-consumer},1651770548,0
{consumergroup=trace-token-events-consumer},1651770553,0
{consumergroup=trace-token-events-consumer},1651770558,0
{consumergroup=trace-token-events-consumer},1651770563,0
{consumergroup=trace-token-events-consumer},1651770568,0
{consumergroup=trace-token-events-consumer},1651770573,0
{consumergroup=trace-token-events-consumer},1651770578,0
{consumergroup=trace-token-events-consumer},1651770583,0
{consumergroup=trace-token-events-consumer},1651770588,0
{consumergroup=trace-token-events-consumer},1651770593,0
{consumergroup=trace-token-events-consumer},1651770598,0
{consumergroup=trace-token-events-consumer},1651770603,0
{consumergroup=trace-token-events-consumer},1651770608,0
{consumergroup=trace-token-events-consumer},1651770613,0
{consumergroup=trace-token-events-consumer},1651770618,0
{consumergroup=trace-token-events-consumer},1651770623,0
{consumergroup=trace-token-events-consumer},1651770628,0
{consumergroup=trace-token-events-consumer},1651770633,0
{consumergroup=trace-token-events-consumer},1651770638,0
{consumergroup=trace-token-events-consumer},1651770643,0
{consumergroup=trace-token-events-consumer},1651770648,0
{consumergroup=trace-token-events-consumer},1651770653,0
{consumergroup=trace-token-events-consumer},1651770658,0
{consumergroup=trace-token-events-consumer},1651770663,0
{consumergroup=trace-token-events-consumer},1651770668,0
{consumergroup=trace-token-events-consumer},1651770673,0
{consumergroup=trace-token-events-consumer},1651770678,0
{consumergroup=trace-token-events-consumer},1651770683,0
{consumergroup=trace-token-events-consumer},1651770688,0
{consumergroup=trace-token-events-consumer},1651770693,0
{consumergroup=trace-token-events-consumer},1651770698,0
{consumergroup=trace-token-events-consumer},1651770703,0
{consumergroup=trace-token-events-consumer},1651770708,0
{consumergroup=trace-token-events-consumer},1651770713,0
{consumergroup=trace-token-events-consumer},1651770718,0
{consumergroup=trace-token-events-consumer},1651770723,0
{consumergroup=trace-token-events-consumer},1651770728,0
{consumergroup=trace-token-events-consumer},1651770733,0
{consumergroup=trace-token-events-consumer},1651770738,0
{consumergroup=trace-token-events-consumer},1651770743,0
{consumergroup=trace-token-events-consumer},1651770748,0
{consumergroup=trace-token-events-consumer},1651770753,0
{consumergroup=trace-token-events-consumer},1651770758,0
{consumergroup=trace-token-events-consumer},1651770763,0
{consumergroup=trace-token-events-consumer},1651770768,0
{consumergroup=trace-token-events-consumer},1651770773,0
{consumergroup=trace-token-events-consumer},1651770778,0
{consumergroup=trace-token-events-consumer},1651770783,0
{consumergroup=trace-token-events-consumer},1651770788,0
{consumergroup=trace-token-events-consumer},1651770793,0
{consumergroup=trace-token-events-consumer},1651770798,0
{consumergroup=trace-token-events-consumer},1651770803,0
{consumergroup=trace-token-events-consumer},1651770808,0
{consumergroup=trace-token-events-consumer},1651770813,0
{consumergroup=trace-token-events-consumer},1651770818,0
{consumergroup=trace-token-events-consumer},1651770823,0
{consumergroup=trace-token-events-consumer},1651770828,0
{consumergroup=trace-token-events-consumer},1651770833,0
{consumergroup=trace-token-events-consumer},1651770838,0
{consumergroup=trace-token-events-consumer},1651770843,0
{consumergroup=trace-token-events-consumer},1651770848,0
{consumergroup=trace-token-events-consumer},1651770853,0
{consumergroup=trace-token-events-consumer},1651770858,0
{consumergroup=trace-token-events-consumer},1651770863,0
{consumergroup=trace-token-events-consumer},1651770868,0
{consumergroup=trace-token-events-consumer},1651770873,0
{consumergroup=trace-token-events-consumer},1651770878,0
{consumergroup=trace-token-events-consumer},1651770883,0
{consumergroup=trace-token-events-consumer},1651770888,0
{consumergroup=trace-token-events-consumer},1651770893,0
{consumergroup=trace-token-events-consumer},1651770898,0
{consumergroup=trace-token-events-consumer},1651770903,0
{consumergroup=trace-token-events-consumer},1651770908,0
{consumergroup=trace-token-events-consumer},1651770913,0
{consumergroup=trace-token-events-consumer},1651770918,0
{consumergroup=trace-token-events-consumer},1651770923,0
{consumergroup=trace-token-events-consumer},1651770928,0
{consumergroup=trace-token-events-consumer},1651770933,0
{consumergroup=trace-token-events-consumer},1651770938,0
{consumergroup=trace-token-events-consumer},1651770943,0
{consumergroup=trace-token-events-consumer},1651770948,0
{consumergroup=trace-token-events-consumer},1651770953,0
