labels,timestamp,value
{consumergroup=__strimzi-topic-operator-kstreams},1651859848,0
{consumergroup=__strimzi-topic-operator-kstreams},1651859853,0
{consumergroup=__strimzi-topic-operator-kstreams},1651859858,0
{consumergroup=__strimzi-topic-operator-kstreams},1651859863,0
{consumergroup=__strimzi-topic-operator-kstreams},1651859868,0
{consumergroup=__strimzi-topic-operator-kstreams},1651859873,0
{consumergroup=__strimzi-topic-operator-kstreams},1651859878,0
{consumergroup=__strimzi-topic-operator-kstreams},1651859883,0
{consumergroup=__strimzi-topic-operator-kstreams},1651859888,0
{consumergroup=__strimzi-topic-operator-kstreams},1651859893,0
{consumergroup=__strimzi-topic-operator-kstreams},1651859898,0
{consumergroup=__strimzi-topic-operator-kstreams},1651859903,0
{consumergroup=__strimzi-topic-operator-kstreams},1651859908,0
{consumergroup=__strimzi-topic-operator-kstreams},1651859913,0
{consumergroup=__strimzi-topic-operator-kstreams},1651859918,0
{consumergroup=__strimzi-topic-operator-kstreams},1651859923,0
{consumergroup=__strimzi-topic-operator-kstreams},1651859928,0
{consumergroup=__strimzi-topic-operator-kstreams},1651859933,0
{consumergroup=__strimzi-topic-operator-kstreams},1651859938,0
{consumergroup=__strimzi-topic-operator-kstreams},1651859943,0
{consumergroup=__strimzi-topic-operator-kstreams},1651859948,0
{consumergroup=__strimzi-topic-operator-kstreams},1651859953,0
{consumergroup=__strimzi-topic-operator-kstreams},1651859958,0
{consumergroup=__strimzi-topic-operator-kstreams},1651859963,0
{consumergroup=__strimzi-topic-operator-kstreams},1651859968,0
{consumergroup=__strimzi-topic-operator-kstreams},1651859973,0
{consumergroup=__strimzi-topic-operator-kstreams},1651859978,0
{consumergroup=__strimzi-topic-operator-kstreams},1651859983,0
{consumergroup=__strimzi-topic-operator-kstreams},1651859988,0
{consumergroup=__strimzi-topic-operator-kstreams},1651859993,0
{consumergroup=__strimzi-topic-operator-kstreams},1651859998,0
{consumergroup=__strimzi-topic-operator-kstreams},1651860003,0
{consumergroup=__strimzi-topic-operator-kstreams},1651860008,0
{consumergroup=__strimzi-topic-operator-kstreams},1651860013,0
{consumergroup=__strimzi-topic-operator-kstreams},1651860018,0
{consumergroup=__strimzi-topic-operator-kstreams},1651860023,0
{consumergroup=__strimzi-topic-operator-kstreams},1651860028,0
{consumergroup=__strimzi-topic-operator-kstreams},1651860033,0
{consumergroup=__strimzi-topic-operator-kstreams},1651860038,0
{consumergroup=__strimzi-topic-operator-kstreams},1651860043,0
{consumergroup=__strimzi-topic-operator-kstreams},1651860048,0
{consumergroup=__strimzi-topic-operator-kstreams},1651860053,0
{consumergroup=__strimzi-topic-operator-kstreams},1651860058,0
{consumergroup=__strimzi-topic-operator-kstreams},1651860063,0
{consumergroup=__strimzi-topic-operator-kstreams},1651860068,0
{consumergroup=__strimzi-topic-operator-kstreams},1651860073,0
{consumergroup=__strimzi-topic-operator-kstreams},1651860078,0
{consumergroup=__strimzi-topic-operator-kstreams},1651860083,0
{consumergroup=__strimzi-topic-operator-kstreams},1651860088,0
{consumergroup=__strimzi-topic-operator-kstreams},1651860093,0
{consumergroup=adapter-service},1651859863,0
{consumergroup=adapter-service},1651859868,0
{consumergroup=adapter-service},1651859873,0
{consumergroup=adapter-service},1651859878,1408521
{consumergroup=adapter-service},1651859883,1408521
{consumergroup=adapter-service},1651859888,1408521
{consumergroup=adapter-service},1651859893,2538957
{consumergroup=adapter-service},1651859898,2538957
{consumergroup=adapter-service},1651859903,2538957
{consumergroup=adapter-service},1651859908,3347703
{consumergroup=adapter-service},1651859913,3347703
{consumergroup=adapter-service},1651859918,3347703
{consumergroup=adapter-service},1651859923,3844784
{consumergroup=adapter-service},1651859928,3844784
{consumergroup=adapter-service},1651859933,3844784
{consumergroup=adapter-service},1651859938,4414312
{consumergroup=adapter-service},1651859943,4414312
{consumergroup=adapter-service},1651859948,4414312
{consumergroup=adapter-service},1651859953,4491174
{consumergroup=adapter-service},1651859958,4491174
{consumergroup=adapter-service},1651859963,4491174
{consumergroup=adapter-service},1651859968,4526127
{consumergroup=adapter-service},1651859973,4526127
{consumergroup=adapter-service},1651859978,4526127
{consumergroup=adapter-service},1651859983,4401579
{consumergroup=adapter-service},1651859988,4401579
{consumergroup=adapter-service},1651859993,4401579
{consumergroup=adapter-service},1651859998,4241191
{consumergroup=adapter-service},1651860003,4241191
{consumergroup=adapter-service},1651860008,4241191
{consumergroup=adapter-service},1651860013,3972927
{consumergroup=adapter-service},1651860018,3972927
{consumergroup=adapter-service},1651860023,3972927
{consumergroup=adapter-service},1651860028,3897460
{consumergroup=adapter-service},1651860033,3897460
{consumergroup=adapter-service},1651860038,3897460
{consumergroup=adapter-service},1651860043,3746858
{consumergroup=adapter-service},1651860048,3746858
{consumergroup=adapter-service},1651860053,3746858
{consumergroup=adapter-service},1651860058,3588307
{consumergroup=adapter-service},1651860063,3588307
{consumergroup=adapter-service},1651860068,3588307
{consumergroup=adapter-service},1651860073,3369167
{consumergroup=adapter-service},1651860078,3369167
{consumergroup=adapter-service},1651860083,3369167
{consumergroup=adapter-service},1651860088,3373434
{consumergroup=adapter-service},1651860093,3373434
