labels,timestamp,value
{consumergroup=__strimzi-topic-operator-kstreams},1651853186,15
{consumergroup=__strimzi-topic-operator-kstreams},1651853191,15
{consumergroup=__strimzi-topic-operator-kstreams},1651853196,15
{consumergroup=__strimzi-topic-operator-kstreams},1651853201,15
{consumergroup=__strimzi-topic-operator-kstreams},1651853206,15
{consumergroup=__strimzi-topic-operator-kstreams},1651853211,15
{consumergroup=__strimzi-topic-operator-kstreams},1651853216,0
{consumergroup=__strimzi-topic-operator-kstreams},1651853221,0
{consumergroup=__strimzi-topic-operator-kstreams},1651853226,0
{consumergroup=__strimzi-topic-operator-kstreams},1651853231,0
{consumergroup=__strimzi-topic-operator-kstreams},1651853236,0
{consumergroup=__strimzi-topic-operator-kstreams},1651853241,0
{consumergroup=__strimzi-topic-operator-kstreams},1651853246,0
{consumergroup=__strimzi-topic-operator-kstreams},1651853251,0
{consumergroup=__strimzi-topic-operator-kstreams},1651853256,0
{consumergroup=__strimzi-topic-operator-kstreams},1651853261,0
{consumergroup=__strimzi-topic-operator-kstreams},1651853266,0
{consumergroup=__strimzi-topic-operator-kstreams},1651853271,0
{consumergroup=__strimzi-topic-operator-kstreams},1651853276,0
{consumergroup=__strimzi-topic-operator-kstreams},1651853281,0
{consumergroup=__strimzi-topic-operator-kstreams},1651853286,0
{consumergroup=__strimzi-topic-operator-kstreams},1651853291,0
{consumergroup=__strimzi-topic-operator-kstreams},1651853296,0
{consumergroup=__strimzi-topic-operator-kstreams},1651853301,0
{consumergroup=__strimzi-topic-operator-kstreams},1651853306,0
{consumergroup=__strimzi-topic-operator-kstreams},1651853311,0
{consumergroup=__strimzi-topic-operator-kstreams},1651853316,0
{consumergroup=__strimzi-topic-operator-kstreams},1651853321,0
{consumergroup=__strimzi-topic-operator-kstreams},1651853326,0
{consumergroup=__strimzi-topic-operator-kstreams},1651853331,0
{consumergroup=__strimzi-topic-operator-kstreams},1651853336,0
{consumergroup=__strimzi-topic-operator-kstreams},1651853341,0
{consumergroup=__strimzi-topic-operator-kstreams},1651853346,0
{consumergroup=__strimzi-topic-operator-kstreams},1651853351,0
{consumergroup=__strimzi-topic-operator-kstreams},1651853356,0
{consumergroup=__strimzi-topic-operator-kstreams},1651853361,0
{consumergroup=__strimzi-topic-operator-kstreams},1651853366,0
{consumergroup=__strimzi-topic-operator-kstreams},1651853371,0
{consumergroup=__strimzi-topic-operator-kstreams},1651853376,0
{consumergroup=__strimzi-topic-operator-kstreams},1651853381,0
{consumergroup=__strimzi-topic-operator-kstreams},1651853386,0
{consumergroup=__strimzi-topic-operator-kstreams},1651853391,0
{consumergroup=__strimzi-topic-operator-kstreams},1651853396,0
{consumergroup=__strimzi-topic-operator-kstreams},1651853401,0
{consumergroup=__strimzi-topic-operator-kstreams},1651853406,0
{consumergroup=__strimzi-topic-operator-kstreams},1651853411,0
{consumergroup=__strimzi-topic-operator-kstreams},1651853416,0
{consumergroup=__strimzi-topic-operator-kstreams},1651853421,0
{consumergroup=__strimzi-topic-operator-kstreams},1651853426,0
{consumergroup=adapter-service},1651853216,2432706
{consumergroup=adapter-service},1651853221,2432706
{consumergroup=adapter-service},1651853226,2432706
{consumergroup=adapter-service},1651853231,3699746
{consumergroup=adapter-service},1651853236,3699746
{consumergroup=adapter-service},1651853241,3699746
{consumergroup=adapter-service},1651853246,4841030
{consumergroup=adapter-service},1651853251,4841030
{consumergroup=adapter-service},1651853256,4841030
{consumergroup=adapter-service},1651853261,6129330
{consumergroup=adapter-service},1651853266,6129330
{consumergroup=adapter-service},1651853271,6129330
{consumergroup=adapter-service},1651853276,6618781
{consumergroup=adapter-service},1651853281,6618781
{consumergroup=adapter-service},1651853286,6618781
{consumergroup=adapter-service},1651853291,6698559
{consumergroup=adapter-service},1651853296,6698559
{consumergroup=adapter-service},1651853301,6698559
{consumergroup=adapter-service},1651853306,7242325
{consumergroup=adapter-service},1651853311,7242325
{consumergroup=adapter-service},1651853316,7242325
{consumergroup=adapter-service},1651853321,7522153
{consumergroup=adapter-service},1651853326,7522153
{consumergroup=adapter-service},1651853331,7522153
{consumergroup=adapter-service},1651853336,7936752
{consumergroup=adapter-service},1651853341,7936752
{consumergroup=adapter-service},1651853346,7936752
{consumergroup=adapter-service},1651853351,7983136
{consumergroup=adapter-service},1651853356,7983136
{consumergroup=adapter-service},1651853361,7983136
{consumergroup=adapter-service},1651853366,8601589
{consumergroup=adapter-service},1651853371,8601589
{consumergroup=adapter-service},1651853376,8601589
{consumergroup=adapter-service},1651853381,8604661
{consumergroup=adapter-service},1651853386,8604661
{consumergroup=adapter-service},1651853391,8604661
{consumergroup=adapter-service},1651853396,8707495
{consumergroup=adapter-service},1651853401,8707495
{consumergroup=adapter-service},1651853406,8707495
{consumergroup=adapter-service},1651853411,8695845
{consumergroup=adapter-service},1651853416,8695845
{consumergroup=adapter-service},1651853421,8695845
{consumergroup=adapter-service},1651853426,9101204
