labels,timestamp,value
{consumergroup=__strimzi-topic-operator-kstreams},1651806079,5
{consumergroup=__strimzi-topic-operator-kstreams},1651806084,5
{consumergroup=__strimzi-topic-operator-kstreams},1651806089,5
{consumergroup=__strimzi-topic-operator-kstreams},1651806094,11
{consumergroup=__strimzi-topic-operator-kstreams},1651806099,11
{consumergroup=__strimzi-topic-operator-kstreams},1651806104,11
{consumergroup=__strimzi-topic-operator-kstreams},1651806109,2
{consumergroup=__strimzi-topic-operator-kstreams},1651806114,2
{consumergroup=__strimzi-topic-operator-kstreams},1651806119,2
{consumergroup=__strimzi-topic-operator-kstreams},1651806124,2
{consumergroup=__strimzi-topic-operator-kstreams},1651806129,2
{consumergroup=__strimzi-topic-operator-kstreams},1651806134,2
{consumergroup=__strimzi-topic-operator-kstreams},1651806139,0
{consumergroup=__strimzi-topic-operator-kstreams},1651806144,0
{consumergroup=__strimzi-topic-operator-kstreams},1651806149,0
{consumergroup=__strimzi-topic-operator-kstreams},1651806154,0
{consumergroup=__strimzi-topic-operator-kstreams},1651806159,0
{consumergroup=__strimzi-topic-operator-kstreams},1651806164,0
{consumergroup=__strimzi-topic-operator-kstreams},1651806169,0
{consumergroup=__strimzi-topic-operator-kstreams},1651806174,0
{consumergroup=__strimzi-topic-operator-kstreams},1651806179,0
{consumergroup=__strimzi-topic-operator-kstreams},1651806184,1
{consumergroup=__strimzi-topic-operator-kstreams},1651806189,1
{consumergroup=__strimzi-topic-operator-kstreams},1651806194,1
{consumergroup=__strimzi-topic-operator-kstreams},1651806199,0
{consumergroup=__strimzi-topic-operator-kstreams},1651806204,0
{consumergroup=__strimzi-topic-operator-kstreams},1651806209,0
{consumergroup=__strimzi-topic-operator-kstreams},1651806214,0
{consumergroup=__strimzi-topic-operator-kstreams},1651806219,0
{consumergroup=__strimzi-topic-operator-kstreams},1651806224,0
{consumergroup=__strimzi-topic-operator-kstreams},1651806229,0
{consumergroup=__strimzi-topic-operator-kstreams},1651806234,0
{consumergroup=__strimzi-topic-operator-kstreams},1651806239,0
{consumergroup=__strimzi-topic-operator-kstreams},1651806244,0
{consumergroup=__strimzi-topic-operator-kstreams},1651806249,0
{consumergroup=__strimzi-topic-operator-kstreams},1651806254,0
{consumergroup=__strimzi-topic-operator-kstreams},1651806259,0
{consumergroup=__strimzi-topic-operator-kstreams},1651806264,0
{consumergroup=__strimzi-topic-operator-kstreams},1651806269,0
{consumergroup=__strimzi-topic-operator-kstreams},1651806274,0
{consumergroup=__strimzi-topic-operator-kstreams},1651806279,0
{consumergroup=__strimzi-topic-operator-kstreams},1651806284,0
{consumergroup=__strimzi-topic-operator-kstreams},1651806289,0
{consumergroup=__strimzi-topic-operator-kstreams},1651806294,0
{consumergroup=__strimzi-topic-operator-kstreams},1651806299,0
{consumergroup=__strimzi-topic-operator-kstreams},1651806304,0
{consumergroup=__strimzi-topic-operator-kstreams},1651806309,0
{consumergroup=__strimzi-topic-operator-kstreams},1651806314,0
{consumergroup=__strimzi-topic-operator-kstreams},1651806319,0
{consumergroup=__strimzi-topic-operator-kstreams},1651806324,0
{consumergroup=__strimzi-topic-operator-kstreams},1651806329,0
{consumergroup=__strimzi-topic-operator-kstreams},1651806334,0
{consumergroup=__strimzi-topic-operator-kstreams},1651806339,0
{consumergroup=__strimzi-topic-operator-kstreams},1651806344,0
{consumergroup=__strimzi-topic-operator-kstreams},1651806349,0
{consumergroup=__strimzi-topic-operator-kstreams},1651806354,0
{consumergroup=__strimzi-topic-operator-kstreams},1651806359,0
{consumergroup=__strimzi-topic-operator-kstreams},1651806364,0
{consumergroup=__strimzi-topic-operator-kstreams},1651806369,0
{consumergroup=__strimzi-topic-operator-kstreams},1651806374,0
{consumergroup=__strimzi-topic-operator-kstreams},1651806379,0
{consumergroup=__strimzi-topic-operator-kstreams},1651806384,0
{consumergroup=__strimzi-topic-operator-kstreams},1651806389,0
{consumergroup=__strimzi-topic-operator-kstreams},1651806394,0
{consumergroup=__strimzi-topic-operator-kstreams},1651806399,0
{consumergroup=__strimzi-topic-operator-kstreams},1651806404,0
{consumergroup=__strimzi-topic-operator-kstreams},1651806409,0
{consumergroup=__strimzi-topic-operator-kstreams},1651806414,0
{consumergroup=__strimzi-topic-operator-kstreams},1651806419,0
{consumergroup=__strimzi-topic-operator-kstreams},1651806424,0
{consumergroup=__strimzi-topic-operator-kstreams},1651806429,0
{consumergroup=__strimzi-topic-operator-kstreams},1651806434,0
{consumergroup=__strimzi-topic-operator-kstreams},1651806439,0
{consumergroup=__strimzi-topic-operator-kstreams},1651806444,0
{consumergroup=__strimzi-topic-operator-kstreams},1651806449,0
{consumergroup=__strimzi-topic-operator-kstreams},1651806454,0
{consumergroup=__strimzi-topic-operator-kstreams},1651806459,0
{consumergroup=__strimzi-topic-operator-kstreams},1651806464,0
{consumergroup=__strimzi-topic-operator-kstreams},1651806469,0
{consumergroup=__strimzi-topic-operator-kstreams},1651806474,0
{consumergroup=__strimzi-topic-operator-kstreams},1651806479,0
{consumergroup=__strimzi-topic-operator-kstreams},1651806484,0
{consumergroup=__strimzi-topic-operator-kstreams},1651806489,0
{consumergroup=__strimzi-topic-operator-kstreams},1651806494,0
{consumergroup=__strimzi-topic-operator-kstreams},1651806499,0
{consumergroup=__strimzi-topic-operator-kstreams},1651806504,0
{consumergroup=__strimzi-topic-operator-kstreams},1651806509,0
{consumergroup=__strimzi-topic-operator-kstreams},1651806514,0
{consumergroup=__strimzi-topic-operator-kstreams},1651806519,0
{consumergroup=__strimzi-topic-operator-kstreams},1651806524,0
{consumergroup=trace-service},1651806124,21891
{consumergroup=trace-service},1651806129,21891
{consumergroup=trace-service},1651806134,21891
{consumergroup=trace-service},1651806139,286563
{consumergroup=trace-service},1651806144,286563
{consumergroup=trace-service},1651806149,286563
{consumergroup=trace-service},1651806154,286146
{consumergroup=trace-service},1651806159,286146
{consumergroup=trace-service},1651806164,286146
{consumergroup=trace-service},1651806169,643916
{consumergroup=trace-service},1651806174,643916
{consumergroup=trace-service},1651806179,643916
{consumergroup=trace-service},1651806184,294087
{consumergroup=trace-service},1651806189,294087
{consumergroup=trace-service},1651806194,294087
{consumergroup=trace-service},1651806199,662685
{consumergroup=trace-service},1651806204,662685
{consumergroup=trace-service},1651806209,662685
{consumergroup=trace-service},1651806214,270060
{consumergroup=trace-service},1651806219,270060
{consumergroup=trace-service},1651806224,270060
{consumergroup=trace-service},1651806229,654975
{consumergroup=trace-service},1651806234,654975
{consumergroup=trace-service},1651806239,654975
{consumergroup=trace-service},1651806244,241106
{consumergroup=trace-service},1651806249,241106
{consumergroup=trace-service},1651806254,241106
{consumergroup=trace-service},1651806259,624420
{consumergroup=trace-service},1651806264,624420
{consumergroup=trace-service},1651806269,624420
{consumergroup=trace-service},1651806274,266449
{consumergroup=trace-service},1651806279,266449
{consumergroup=trace-service},1651806284,266449
{consumergroup=trace-service},1651806289,572612
{consumergroup=trace-service},1651806294,572612
{consumergroup=trace-service},1651806299,572612
{consumergroup=trace-service},1651806304,263351
{consumergroup=trace-service},1651806309,263351
{consumergroup=trace-service},1651806314,263351
{consumergroup=trace-service},1651806319,628179
{consumergroup=trace-service},1651806324,628179
{consumergroup=trace-service},1651806329,628179
{consumergroup=trace-service},1651806334,236757
{consumergroup=trace-service},1651806339,236757
{consumergroup=trace-service},1651806344,236757
{consumergroup=trace-service},1651806349,549360
{consumergroup=trace-service},1651806354,549360
{consumergroup=trace-service},1651806359,549360
{consumergroup=trace-service},1651806364,249884
{consumergroup=trace-service},1651806369,249884
{consumergroup=trace-service},1651806374,249884
{consumergroup=trace-service},1651806379,590637
{consumergroup=trace-service},1651806384,590637
{consumergroup=trace-service},1651806389,590637
{consumergroup=trace-service},1651806394,246591
{consumergroup=trace-service},1651806399,246591
{consumergroup=trace-service},1651806404,246591
{consumergroup=trace-service},1651806409,642272
{consumergroup=trace-service},1651806414,642272
{consumergroup=trace-service},1651806419,642272
{consumergroup=trace-service},1651806424,253837
{consumergroup=trace-service},1651806429,253837
{consumergroup=trace-service},1651806434,253837
{consumergroup=trace-service},1651806439,640592
{consumergroup=trace-service},1651806444,640592
{consumergroup=trace-service},1651806449,640592
{consumergroup=trace-service},1651806454,286034
{consumergroup=trace-service},1651806459,286034
{consumergroup=trace-service},1651806464,286034
{consumergroup=trace-service},1651806469,587935
{consumergroup=trace-service},1651806474,587935
{consumergroup=trace-service},1651806479,587935
{consumergroup=trace-service},1651806484,710957
{consumergroup=trace-service},1651806489,710957
{consumergroup=trace-service},1651806494,710957
{consumergroup=trace-service},1651806499,763704
{consumergroup=trace-service},1651806504,763704
{consumergroup=trace-service},1651806509,763704
{consumergroup=trace-service},1651806514,903247
{consumergroup=trace-service},1651806519,903247
{consumergroup=trace-service},1651806524,903247
{consumergroup=trace-token-events-consumer},1651806109,0
{consumergroup=trace-token-events-consumer},1651806114,0
{consumergroup=trace-token-events-consumer},1651806119,0
{consumergroup=trace-token-events-consumer},1651806124,0
{consumergroup=trace-token-events-consumer},1651806129,0
{consumergroup=trace-token-events-consumer},1651806134,0
{consumergroup=trace-token-events-consumer},1651806139,0
{consumergroup=trace-token-events-consumer},1651806144,0
{consumergroup=trace-token-events-consumer},1651806149,0
{consumergroup=trace-token-events-consumer},1651806154,0
{consumergroup=trace-token-events-consumer},1651806159,0
{consumergroup=trace-token-events-consumer},1651806164,0
{consumergroup=trace-token-events-consumer},1651806169,0
{consumergroup=trace-token-events-consumer},1651806174,0
{consumergroup=trace-token-events-consumer},1651806179,0
{consumergroup=trace-token-events-consumer},1651806184,0
{consumergroup=trace-token-events-consumer},1651806189,0
{consumergroup=trace-token-events-consumer},1651806194,0
{consumergroup=trace-token-events-consumer},1651806199,0
{consumergroup=trace-token-events-consumer},1651806204,0
{consumergroup=trace-token-events-consumer},1651806209,0
{consumergroup=trace-token-events-consumer},1651806214,0
{consumergroup=trace-token-events-consumer},1651806219,0
{consumergroup=trace-token-events-consumer},1651806224,0
{consumergroup=trace-token-events-consumer},1651806229,0
{consumergroup=trace-token-events-consumer},1651806234,0
{consumergroup=trace-token-events-consumer},1651806239,0
{consumergroup=trace-token-events-consumer},1651806244,0
{consumergroup=trace-token-events-consumer},1651806249,0
{consumergroup=trace-token-events-consumer},1651806254,0
{consumergroup=trace-token-events-consumer},1651806259,0
{consumergroup=trace-token-events-consumer},1651806264,0
{consumergroup=trace-token-events-consumer},1651806269,0
{consumergroup=trace-token-events-consumer},1651806274,0
{consumergroup=trace-token-events-consumer},1651806279,0
{consumergroup=trace-token-events-consumer},1651806284,0
{consumergroup=trace-token-events-consumer},1651806289,0
{consumergroup=trace-token-events-consumer},1651806294,0
{consumergroup=trace-token-events-consumer},1651806299,0
{consumergroup=trace-token-events-consumer},1651806304,0
{consumergroup=trace-token-events-consumer},1651806309,0
{consumergroup=trace-token-events-consumer},1651806314,0
{consumergroup=trace-token-events-consumer},1651806319,0
{consumergroup=trace-token-events-consumer},1651806324,0
{consumergroup=trace-token-events-consumer},1651806329,0
{consumergroup=trace-token-events-consumer},1651806334,0
{consumergroup=trace-token-events-consumer},1651806339,0
{consumergroup=trace-token-events-consumer},1651806344,0
{consumergroup=trace-token-events-consumer},1651806349,0
{consumergroup=trace-token-events-consumer},1651806354,0
{consumergroup=trace-token-events-consumer},1651806359,0
{consumergroup=trace-token-events-consumer},1651806364,0
{consumergroup=trace-token-events-consumer},1651806369,0
{consumergroup=trace-token-events-consumer},1651806374,0
{consumergroup=trace-token-events-consumer},1651806379,0
{consumergroup=trace-token-events-consumer},1651806384,0
{consumergroup=trace-token-events-consumer},1651806389,0
{consumergroup=trace-token-events-consumer},1651806394,0
{consumergroup=trace-token-events-consumer},1651806399,0
{consumergroup=trace-token-events-consumer},1651806404,0
{consumergroup=trace-token-events-consumer},1651806409,0
{consumergroup=trace-token-events-consumer},1651806414,0
{consumergroup=trace-token-events-consumer},1651806419,0
{consumergroup=trace-token-events-consumer},1651806424,0
{consumergroup=trace-token-events-consumer},1651806429,0
{consumergroup=trace-token-events-consumer},1651806434,0
{consumergroup=trace-token-events-consumer},1651806439,0
{consumergroup=trace-token-events-consumer},1651806444,0
{consumergroup=trace-token-events-consumer},1651806449,0
{consumergroup=trace-token-events-consumer},1651806454,0
{consumergroup=trace-token-events-consumer},1651806459,0
{consumergroup=trace-token-events-consumer},1651806464,0
{consumergroup=trace-token-events-consumer},1651806469,0
{consumergroup=trace-token-events-consumer},1651806474,0
{consumergroup=trace-token-events-consumer},1651806479,0
{consumergroup=trace-token-events-consumer},1651806484,0
{consumergroup=trace-token-events-consumer},1651806489,0
{consumergroup=trace-token-events-consumer},1651806494,0
{consumergroup=trace-token-events-consumer},1651806499,0
{consumergroup=trace-token-events-consumer},1651806504,0
{consumergroup=trace-token-events-consumer},1651806509,0
{consumergroup=trace-token-events-consumer},1651806514,0
{consumergroup=trace-token-events-consumer},1651806519,0
{consumergroup=trace-token-events-consumer},1651806524,0
