labels,timestamp,value
{consumergroup=__strimzi-topic-operator-kstreams},1651777251,11
{consumergroup=__strimzi-topic-operator-kstreams},1651777256,11
{consumergroup=__strimzi-topic-operator-kstreams},1651777261,11
{consumergroup=__strimzi-topic-operator-kstreams},1651777266,3
{consumergroup=__strimzi-topic-operator-kstreams},1651777271,3
{consumergroup=__strimzi-topic-operator-kstreams},1651777276,3
{consumergroup=__strimzi-topic-operator-kstreams},1651777281,3
{consumergroup=__strimzi-topic-operator-kstreams},1651777286,3
{consumergroup=__strimzi-topic-operator-kstreams},1651777291,3
{consumergroup=__strimzi-topic-operator-kstreams},1651777296,0
{consumergroup=__strimzi-topic-operator-kstreams},1651777301,0
{consumergroup=__strimzi-topic-operator-kstreams},1651777306,0
{consumergroup=__strimzi-topic-operator-kstreams},1651777311,0
{consumergroup=__strimzi-topic-operator-kstreams},1651777316,0
{consumergroup=__strimzi-topic-operator-kstreams},1651777321,0
{consumergroup=__strimzi-topic-operator-kstreams},1651777326,0
{consumergroup=__strimzi-topic-operator-kstreams},1651777331,0
{consumergroup=__strimzi-topic-operator-kstreams},1651777336,0
{consumergroup=__strimzi-topic-operator-kstreams},1651777341,0
{consumergroup=__strimzi-topic-operator-kstreams},1651777346,0
{consumergroup=__strimzi-topic-operator-kstreams},1651777351,0
{consumergroup=__strimzi-topic-operator-kstreams},1651777356,0
{consumergroup=__strimzi-topic-operator-kstreams},1651777361,0
{consumergroup=__strimzi-topic-operator-kstreams},1651777366,0
{consumergroup=__strimzi-topic-operator-kstreams},1651777371,0
{consumergroup=__strimzi-topic-operator-kstreams},1651777376,0
{consumergroup=__strimzi-topic-operator-kstreams},1651777381,0
{consumergroup=__strimzi-topic-operator-kstreams},1651777386,0
{consumergroup=__strimzi-topic-operator-kstreams},1651777391,0
{consumergroup=__strimzi-topic-operator-kstreams},1651777396,0
{consumergroup=__strimzi-topic-operator-kstreams},1651777401,0
{consumergroup=__strimzi-topic-operator-kstreams},1651777406,0
{consumergroup=__strimzi-topic-operator-kstreams},1651777411,0
{consumergroup=__strimzi-topic-operator-kstreams},1651777416,0
{consumergroup=__strimzi-topic-operator-kstreams},1651777421,0
{consumergroup=__strimzi-topic-operator-kstreams},1651777426,0
{consumergroup=__strimzi-topic-operator-kstreams},1651777431,0
{consumergroup=__strimzi-topic-operator-kstreams},1651777436,0
{consumergroup=__strimzi-topic-operator-kstreams},1651777441,0
{consumergroup=__strimzi-topic-operator-kstreams},1651777446,0
{consumergroup=__strimzi-topic-operator-kstreams},1651777451,0
{consumergroup=__strimzi-topic-operator-kstreams},1651777456,0
{consumergroup=__strimzi-topic-operator-kstreams},1651777461,0
{consumergroup=__strimzi-topic-operator-kstreams},1651777466,0
{consumergroup=__strimzi-topic-operator-kstreams},1651777471,0
{consumergroup=__strimzi-topic-operator-kstreams},1651777476,0
{consumergroup=__strimzi-topic-operator-kstreams},1651777481,0
{consumergroup=__strimzi-topic-operator-kstreams},1651777486,0
{consumergroup=__strimzi-topic-operator-kstreams},1651777491,0
{consumergroup=__strimzi-topic-operator-kstreams},1651777496,0
{consumergroup=__strimzi-topic-operator-kstreams},1651777501,0
{consumergroup=__strimzi-topic-operator-kstreams},1651777506,0
{consumergroup=__strimzi-topic-operator-kstreams},1651777511,0
{consumergroup=__strimzi-topic-operator-kstreams},1651777516,0
{consumergroup=__strimzi-topic-operator-kstreams},1651777521,0
{consumergroup=__strimzi-topic-operator-kstreams},1651777526,0
{consumergroup=__strimzi-topic-operator-kstreams},1651777531,0
{consumergroup=__strimzi-topic-operator-kstreams},1651777536,0
{consumergroup=__strimzi-topic-operator-kstreams},1651777541,0
{consumergroup=__strimzi-topic-operator-kstreams},1651777546,0
{consumergroup=__strimzi-topic-operator-kstreams},1651777551,0
{consumergroup=__strimzi-topic-operator-kstreams},1651777556,0
{consumergroup=__strimzi-topic-operator-kstreams},1651777561,0
{consumergroup=__strimzi-topic-operator-kstreams},1651777566,0
{consumergroup=__strimzi-topic-operator-kstreams},1651777571,0
{consumergroup=__strimzi-topic-operator-kstreams},1651777576,0
{consumergroup=__strimzi-topic-operator-kstreams},1651777581,0
{consumergroup=__strimzi-topic-operator-kstreams},1651777586,0
{consumergroup=__strimzi-topic-operator-kstreams},1651777591,0
{consumergroup=__strimzi-topic-operator-kstreams},1651777596,0
{consumergroup=__strimzi-topic-operator-kstreams},1651777601,0
{consumergroup=__strimzi-topic-operator-kstreams},1651777606,0
{consumergroup=__strimzi-topic-operator-kstreams},1651777611,0
{consumergroup=__strimzi-topic-operator-kstreams},1651777616,0
{consumergroup=__strimzi-topic-operator-kstreams},1651777621,0
{consumergroup=__strimzi-topic-operator-kstreams},1651777626,0
{consumergroup=__strimzi-topic-operator-kstreams},1651777631,0
{consumergroup=__strimzi-topic-operator-kstreams},1651777636,0
{consumergroup=__strimzi-topic-operator-kstreams},1651777641,0
{consumergroup=__strimzi-topic-operator-kstreams},1651777646,0
{consumergroup=__strimzi-topic-operator-kstreams},1651777651,0
{consumergroup=__strimzi-topic-operator-kstreams},1651777656,0
{consumergroup=__strimzi-topic-operator-kstreams},1651777661,0
{consumergroup=__strimzi-topic-operator-kstreams},1651777666,0
{consumergroup=__strimzi-topic-operator-kstreams},1651777671,0
{consumergroup=__strimzi-topic-operator-kstreams},1651777676,0
{consumergroup=__strimzi-topic-operator-kstreams},1651777681,0
{consumergroup=__strimzi-topic-operator-kstreams},1651777686,0
{consumergroup=__strimzi-topic-operator-kstreams},1651777691,0
{consumergroup=trace-service},1651777296,260715
{consumergroup=trace-service},1651777301,260715
{consumergroup=trace-service},1651777306,260715
{consumergroup=trace-service},1651777311,720030
{consumergroup=trace-service},1651777316,720030
{consumergroup=trace-service},1651777321,720030
{consumergroup=trace-service},1651777326,362866
{consumergroup=trace-service},1651777331,362866
{consumergroup=trace-service},1651777336,362866
{consumergroup=trace-service},1651777341,767334
{consumergroup=trace-service},1651777346,767334
{consumergroup=trace-service},1651777351,767334
{consumergroup=trace-service},1651777356,380069
{consumergroup=trace-service},1651777361,380069
{consumergroup=trace-service},1651777366,380069
{consumergroup=trace-service},1651777371,729377
{consumergroup=trace-service},1651777376,729377
{consumergroup=trace-service},1651777381,729377
{consumergroup=trace-service},1651777386,343449
{consumergroup=trace-service},1651777391,343449
{consumergroup=trace-service},1651777396,343449
{consumergroup=trace-service},1651777401,677256
{consumergroup=trace-service},1651777406,677256
{consumergroup=trace-service},1651777411,677256
{consumergroup=trace-service},1651777416,354055
{consumergroup=trace-service},1651777421,354055
{consumergroup=trace-service},1651777426,354055
{consumergroup=trace-service},1651777431,656262
{consumergroup=trace-service},1651777436,656262
{consumergroup=trace-service},1651777441,656262
{consumergroup=trace-service},1651777446,335768
{consumergroup=trace-service},1651777451,335768
{consumergroup=trace-service},1651777456,335768
{consumergroup=trace-service},1651777461,648031
{consumergroup=trace-service},1651777466,648031
{consumergroup=trace-service},1651777471,648031
{consumergroup=trace-service},1651777476,329045
{consumergroup=trace-service},1651777481,329045
{consumergroup=trace-service},1651777486,329045
{consumergroup=trace-service},1651777491,591545
{consumergroup=trace-service},1651777496,591545
{consumergroup=trace-service},1651777501,591545
{consumergroup=trace-service},1651777506,291528
{consumergroup=trace-service},1651777511,291528
{consumergroup=trace-service},1651777516,291528
{consumergroup=trace-service},1651777521,620464
{consumergroup=trace-service},1651777526,620464
{consumergroup=trace-service},1651777531,620464
{consumergroup=trace-service},1651777536,319546
{consumergroup=trace-service},1651777541,319546
{consumergroup=trace-service},1651777546,319546
{consumergroup=trace-service},1651777551,674853
{consumergroup=trace-service},1651777556,674853
{consumergroup=trace-service},1651777561,674853
{consumergroup=trace-service},1651777566,335868
{consumergroup=trace-service},1651777571,335868
{consumergroup=trace-service},1651777576,335868
{consumergroup=trace-service},1651777581,675669
{consumergroup=trace-service},1651777586,675669
{consumergroup=trace-service},1651777591,675669
{consumergroup=trace-service},1651777596,1252981
{consumergroup=trace-service},1651777601,1252981
{consumergroup=trace-service},1651777606,1252981
{consumergroup=trace-service},1651777611,927849
{consumergroup=trace-service},1651777616,927849
{consumergroup=trace-service},1651777621,927849
{consumergroup=trace-service},1651777626,716515
{consumergroup=trace-service},1651777631,716515
{consumergroup=trace-service},1651777636,716515
{consumergroup=trace-service},1651777641,726458
{consumergroup=trace-service},1651777646,726458
{consumergroup=trace-service},1651777651,726458
{consumergroup=trace-service},1651777656,1191915
{consumergroup=trace-service},1651777661,1191915
{consumergroup=trace-service},1651777666,1191915
{consumergroup=trace-service},1651777671,839519
{consumergroup=trace-service},1651777676,839519
{consumergroup=trace-service},1651777681,839519
{consumergroup=trace-service},1651777686,747578
{consumergroup=trace-service},1651777691,747578
{consumergroup=trace-token-events-consumer},1651777281,0
{consumergroup=trace-token-events-consumer},1651777286,0
{consumergroup=trace-token-events-consumer},1651777291,0
{consumergroup=trace-token-events-consumer},1651777296,0
{consumergroup=trace-token-events-consumer},1651777301,0
{consumergroup=trace-token-events-consumer},1651777306,0
{consumergroup=trace-token-events-consumer},1651777311,0
{consumergroup=trace-token-events-consumer},1651777316,0
{consumergroup=trace-token-events-consumer},1651777321,0
{consumergroup=trace-token-events-consumer},1651777326,0
{consumergroup=trace-token-events-consumer},1651777331,0
{consumergroup=trace-token-events-consumer},1651777336,0
{consumergroup=trace-token-events-consumer},1651777341,0
{consumergroup=trace-token-events-consumer},1651777346,0
{consumergroup=trace-token-events-consumer},1651777351,0
{consumergroup=trace-token-events-consumer},1651777356,0
{consumergroup=trace-token-events-consumer},1651777361,0
{consumergroup=trace-token-events-consumer},1651777366,0
{consumergroup=trace-token-events-consumer},1651777371,0
{consumergroup=trace-token-events-consumer},1651777376,0
{consumergroup=trace-token-events-consumer},1651777381,0
{consumergroup=trace-token-events-consumer},1651777386,0
{consumergroup=trace-token-events-consumer},1651777391,0
{consumergroup=trace-token-events-consumer},1651777396,0
{consumergroup=trace-token-events-consumer},1651777401,0
{consumergroup=trace-token-events-consumer},1651777406,0
{consumergroup=trace-token-events-consumer},1651777411,0
{consumergroup=trace-token-events-consumer},1651777416,0
{consumergroup=trace-token-events-consumer},1651777421,0
{consumergroup=trace-token-events-consumer},1651777426,0
{consumergroup=trace-token-events-consumer},1651777431,0
{consumergroup=trace-token-events-consumer},1651777436,0
{consumergroup=trace-token-events-consumer},1651777441,0
{consumergroup=trace-token-events-consumer},1651777446,0
{consumergroup=trace-token-events-consumer},1651777451,0
{consumergroup=trace-token-events-consumer},1651777456,0
{consumergroup=trace-token-events-consumer},1651777461,0
{consumergroup=trace-token-events-consumer},1651777466,0
{consumergroup=trace-token-events-consumer},1651777471,0
{consumergroup=trace-token-events-consumer},1651777476,0
{consumergroup=trace-token-events-consumer},1651777481,0
{consumergroup=trace-token-events-consumer},1651777486,0
{consumergroup=trace-token-events-consumer},1651777491,0
{consumergroup=trace-token-events-consumer},1651777496,0
{consumergroup=trace-token-events-consumer},1651777501,0
{consumergroup=trace-token-events-consumer},1651777506,0
{consumergroup=trace-token-events-consumer},1651777511,0
{consumergroup=trace-token-events-consumer},1651777516,0
{consumergroup=trace-token-events-consumer},1651777521,0
{consumergroup=trace-token-events-consumer},1651777526,0
{consumergroup=trace-token-events-consumer},1651777531,0
{consumergroup=trace-token-events-consumer},1651777536,0
{consumergroup=trace-token-events-consumer},1651777541,0
{consumergroup=trace-token-events-consumer},1651777546,0
{consumergroup=trace-token-events-consumer},1651777551,0
{consumergroup=trace-token-events-consumer},1651777556,0
{consumergroup=trace-token-events-consumer},1651777561,0
{consumergroup=trace-token-events-consumer},1651777566,0
{consumergroup=trace-token-events-consumer},1651777571,0
{consumergroup=trace-token-events-consumer},1651777576,0
{consumergroup=trace-token-events-consumer},1651777581,0
{consumergroup=trace-token-events-consumer},1651777586,0
{consumergroup=trace-token-events-consumer},1651777591,0
{consumergroup=trace-token-events-consumer},1651777596,0
{consumergroup=trace-token-events-consumer},1651777601,0
{consumergroup=trace-token-events-consumer},1651777606,0
{consumergroup=trace-token-events-consumer},1651777611,0
{consumergroup=trace-token-events-consumer},1651777616,0
{consumergroup=trace-token-events-consumer},1651777621,0
{consumergroup=trace-token-events-consumer},1651777626,0
{consumergroup=trace-token-events-consumer},1651777631,0
{consumergroup=trace-token-events-consumer},1651777636,0
{consumergroup=trace-token-events-consumer},1651777641,0
{consumergroup=trace-token-events-consumer},1651777646,0
{consumergroup=trace-token-events-consumer},1651777651,0
{consumergroup=trace-token-events-consumer},1651777656,0
{consumergroup=trace-token-events-consumer},1651777661,0
{consumergroup=trace-token-events-consumer},1651777666,0
{consumergroup=trace-token-events-consumer},1651777671,0
{consumergroup=trace-token-events-consumer},1651777676,0
{consumergroup=trace-token-events-consumer},1651777681,0
{consumergroup=trace-token-events-consumer},1651777686,0
{consumergroup=trace-token-events-consumer},1651777691,0
