labels,timestamp,value
{consumergroup=__strimzi-topic-operator-kstreams},1651849589,18
{consumergroup=__strimzi-topic-operator-kstreams},1651849594,18
{consumergroup=__strimzi-topic-operator-kstreams},1651849599,18
{consumergroup=__strimzi-topic-operator-kstreams},1651849604,0
{consumergroup=__strimzi-topic-operator-kstreams},1651849609,0
{consumergroup=__strimzi-topic-operator-kstreams},1651849614,0
{consumergroup=__strimzi-topic-operator-kstreams},1651849619,0
{consumergroup=__strimzi-topic-operator-kstreams},1651849624,0
{consumergroup=__strimzi-topic-operator-kstreams},1651849629,0
{consumergroup=__strimzi-topic-operator-kstreams},1651849634,0
{consumergroup=__strimzi-topic-operator-kstreams},1651849639,0
{consumergroup=__strimzi-topic-operator-kstreams},1651849644,0
{consumergroup=__strimzi-topic-operator-kstreams},1651849649,0
{consumergroup=__strimzi-topic-operator-kstreams},1651849654,0
{consumergroup=__strimzi-topic-operator-kstreams},1651849659,0
{consumergroup=__strimzi-topic-operator-kstreams},1651849664,0
{consumergroup=__strimzi-topic-operator-kstreams},1651849669,0
{consumergroup=__strimzi-topic-operator-kstreams},1651849674,0
{consumergroup=__strimzi-topic-operator-kstreams},1651849679,0
{consumergroup=__strimzi-topic-operator-kstreams},1651849684,0
{consumergroup=__strimzi-topic-operator-kstreams},1651849689,0
{consumergroup=__strimzi-topic-operator-kstreams},1651849694,0
{consumergroup=__strimzi-topic-operator-kstreams},1651849699,0
{consumergroup=__strimzi-topic-operator-kstreams},1651849704,0
{consumergroup=__strimzi-topic-operator-kstreams},1651849709,0
{consumergroup=__strimzi-topic-operator-kstreams},1651849714,0
{consumergroup=__strimzi-topic-operator-kstreams},1651849719,0
{consumergroup=__strimzi-topic-operator-kstreams},1651849724,0
{consumergroup=__strimzi-topic-operator-kstreams},1651849729,0
{consumergroup=__strimzi-topic-operator-kstreams},1651849734,0
{consumergroup=__strimzi-topic-operator-kstreams},1651849739,0
{consumergroup=__strimzi-topic-operator-kstreams},1651849744,0
{consumergroup=__strimzi-topic-operator-kstreams},1651849749,0
{consumergroup=__strimzi-topic-operator-kstreams},1651849754,0
{consumergroup=__strimzi-topic-operator-kstreams},1651849759,0
{consumergroup=__strimzi-topic-operator-kstreams},1651849764,0
{consumergroup=__strimzi-topic-operator-kstreams},1651849769,0
{consumergroup=__strimzi-topic-operator-kstreams},1651849774,0
{consumergroup=__strimzi-topic-operator-kstreams},1651849779,0
{consumergroup=__strimzi-topic-operator-kstreams},1651849784,0
{consumergroup=__strimzi-topic-operator-kstreams},1651849789,0
{consumergroup=__strimzi-topic-operator-kstreams},1651849794,0
{consumergroup=__strimzi-topic-operator-kstreams},1651849799,0
{consumergroup=__strimzi-topic-operator-kstreams},1651849804,0
{consumergroup=__strimzi-topic-operator-kstreams},1651849809,0
{consumergroup=__strimzi-topic-operator-kstreams},1651849814,0
{consumergroup=__strimzi-topic-operator-kstreams},1651849819,0
{consumergroup=__strimzi-topic-operator-kstreams},1651849824,0
{consumergroup=__strimzi-topic-operator-kstreams},1651849829,0
{consumergroup=__strimzi-topic-operator-kstreams},1651849834,0
{consumergroup=__strimzi-topic-operator-kstreams},1651849839,0
{consumergroup=adapter-service},1651849619,388188
{consumergroup=adapter-service},1651849624,388188
{consumergroup=adapter-service},1651849629,388188
{consumergroup=adapter-service},1651849634,1664594
{consumergroup=adapter-service},1651849639,1664594
{consumergroup=adapter-service},1651849644,1664594
{consumergroup=adapter-service},1651849649,2409700
{consumergroup=adapter-service},1651849654,2409700
{consumergroup=adapter-service},1651849659,2409700
{consumergroup=adapter-service},1651849664,3241573
{consumergroup=adapter-service},1651849669,3241573
{consumergroup=adapter-service},1651849674,3241573
{consumergroup=adapter-service},1651849679,3741236
{consumergroup=adapter-service},1651849684,3741236
{consumergroup=adapter-service},1651849689,3741236
{consumergroup=adapter-service},1651849694,4266653
{consumergroup=adapter-service},1651849699,4266653
{consumergroup=adapter-service},1651849704,4266653
{consumergroup=adapter-service},1651849709,4471881
{consumergroup=adapter-service},1651849714,4471881
{consumergroup=adapter-service},1651849719,4471881
{consumergroup=adapter-service},1651849724,4863834
{consumergroup=adapter-service},1651849729,4863834
{consumergroup=adapter-service},1651849734,4863834
{consumergroup=adapter-service},1651849739,5128343
{consumergroup=adapter-service},1651849744,5128343
{consumergroup=adapter-service},1651849749,5128343
{consumergroup=adapter-service},1651849754,5112422
{consumergroup=adapter-service},1651849759,5112422
{consumergroup=adapter-service},1651849764,5112422
{consumergroup=adapter-service},1651849769,5583404
{consumergroup=adapter-service},1651849774,5583404
{consumergroup=adapter-service},1651849779,5583404
{consumergroup=adapter-service},1651849784,5579173
{consumergroup=adapter-service},1651849789,5579173
{consumergroup=adapter-service},1651849794,5579173
{consumergroup=adapter-service},1651849799,5866214
{consumergroup=adapter-service},1651849804,5866214
{consumergroup=adapter-service},1651849809,5866214
{consumergroup=adapter-service},1651849814,6065907
{consumergroup=adapter-service},1651849819,6065907
{consumergroup=adapter-service},1651849824,6065907
{consumergroup=adapter-service},1651849829,6165453
{consumergroup=adapter-service},1651849834,6165453
{consumergroup=adapter-service},1651849839,6165453
