labels,timestamp,value
{consumergroup=__strimzi-topic-operator-kstreams},1651798380,3
{consumergroup=__strimzi-topic-operator-kstreams},1651798385,3
{consumergroup=__strimzi-topic-operator-kstreams},1651798390,3
{consumergroup=__strimzi-topic-operator-kstreams},1651798395,11
{consumergroup=__strimzi-topic-operator-kstreams},1651798400,11
{consumergroup=__strimzi-topic-operator-kstreams},1651798405,11
{consumergroup=__strimzi-topic-operator-kstreams},1651798410,3
{consumergroup=__strimzi-topic-operator-kstreams},1651798415,3
{consumergroup=__strimzi-topic-operator-kstreams},1651798420,3
{consumergroup=__strimzi-topic-operator-kstreams},1651798425,3
{consumergroup=__strimzi-topic-operator-kstreams},1651798430,3
{consumergroup=__strimzi-topic-operator-kstreams},1651798435,3
{consumergroup=__strimzi-topic-operator-kstreams},1651798440,0
{consumergroup=__strimzi-topic-operator-kstreams},1651798445,0
{consumergroup=__strimzi-topic-operator-kstreams},1651798450,0
{consumergroup=__strimzi-topic-operator-kstreams},1651798455,0
{consumergroup=__strimzi-topic-operator-kstreams},1651798460,0
{consumergroup=__strimzi-topic-operator-kstreams},1651798465,0
{consumergroup=__strimzi-topic-operator-kstreams},1651798470,0
{consumergroup=__strimzi-topic-operator-kstreams},1651798475,0
{consumergroup=__strimzi-topic-operator-kstreams},1651798480,0
{consumergroup=__strimzi-topic-operator-kstreams},1651798485,0
{consumergroup=__strimzi-topic-operator-kstreams},1651798490,0
{consumergroup=__strimzi-topic-operator-kstreams},1651798495,0
{consumergroup=__strimzi-topic-operator-kstreams},1651798500,0
{consumergroup=__strimzi-topic-operator-kstreams},1651798505,0
{consumergroup=__strimzi-topic-operator-kstreams},1651798510,0
{consumergroup=__strimzi-topic-operator-kstreams},1651798515,0
{consumergroup=__strimzi-topic-operator-kstreams},1651798520,0
{consumergroup=__strimzi-topic-operator-kstreams},1651798525,0
{consumergroup=__strimzi-topic-operator-kstreams},1651798530,0
{consumergroup=__strimzi-topic-operator-kstreams},1651798535,0
{consumergroup=__strimzi-topic-operator-kstreams},1651798540,0
{consumergroup=__strimzi-topic-operator-kstreams},1651798545,0
{consumergroup=__strimzi-topic-operator-kstreams},1651798550,0
{consumergroup=__strimzi-topic-operator-kstreams},1651798555,0
{consumergroup=__strimzi-topic-operator-kstreams},1651798560,0
{consumergroup=__strimzi-topic-operator-kstreams},1651798565,0
{consumergroup=__strimzi-topic-operator-kstreams},1651798570,0
{consumergroup=__strimzi-topic-operator-kstreams},1651798575,0
{consumergroup=__strimzi-topic-operator-kstreams},1651798580,0
{consumergroup=__strimzi-topic-operator-kstreams},1651798585,0
{consumergroup=__strimzi-topic-operator-kstreams},1651798590,0
{consumergroup=__strimzi-topic-operator-kstreams},1651798595,0
{consumergroup=__strimzi-topic-operator-kstreams},1651798600,0
{consumergroup=__strimzi-topic-operator-kstreams},1651798605,0
{consumergroup=__strimzi-topic-operator-kstreams},1651798610,0
{consumergroup=__strimzi-topic-operator-kstreams},1651798615,0
{consumergroup=__strimzi-topic-operator-kstreams},1651798620,0
{consumergroup=__strimzi-topic-operator-kstreams},1651798625,0
{consumergroup=__strimzi-topic-operator-kstreams},1651798630,0
{consumergroup=__strimzi-topic-operator-kstreams},1651798635,0
{consumergroup=__strimzi-topic-operator-kstreams},1651798640,0
{consumergroup=__strimzi-topic-operator-kstreams},1651798645,0
{consumergroup=__strimzi-topic-operator-kstreams},1651798650,0
{consumergroup=__strimzi-topic-operator-kstreams},1651798655,0
{consumergroup=__strimzi-topic-operator-kstreams},1651798660,0
{consumergroup=__strimzi-topic-operator-kstreams},1651798665,0
{consumergroup=__strimzi-topic-operator-kstreams},1651798670,0
{consumergroup=__strimzi-topic-operator-kstreams},1651798675,0
{consumergroup=__strimzi-topic-operator-kstreams},1651798680,0
{consumergroup=__strimzi-topic-operator-kstreams},1651798685,0
{consumergroup=__strimzi-topic-operator-kstreams},1651798690,0
{consumergroup=__strimzi-topic-operator-kstreams},1651798695,0
{consumergroup=__strimzi-topic-operator-kstreams},1651798700,0
{consumergroup=__strimzi-topic-operator-kstreams},1651798705,0
{consumergroup=__strimzi-topic-operator-kstreams},1651798710,0
{consumergroup=__strimzi-topic-operator-kstreams},1651798715,0
{consumergroup=__strimzi-topic-operator-kstreams},1651798720,0
{consumergroup=__strimzi-topic-operator-kstreams},1651798725,0
{consumergroup=__strimzi-topic-operator-kstreams},1651798730,0
{consumergroup=__strimzi-topic-operator-kstreams},1651798735,0
{consumergroup=__strimzi-topic-operator-kstreams},1651798740,0
{consumergroup=__strimzi-topic-operator-kstreams},1651798745,0
{consumergroup=__strimzi-topic-operator-kstreams},1651798750,0
{consumergroup=__strimzi-topic-operator-kstreams},1651798755,0
{consumergroup=__strimzi-topic-operator-kstreams},1651798760,0
{consumergroup=__strimzi-topic-operator-kstreams},1651798765,0
{consumergroup=__strimzi-topic-operator-kstreams},1651798770,0
{consumergroup=__strimzi-topic-operator-kstreams},1651798775,0
{consumergroup=__strimzi-topic-operator-kstreams},1651798780,0
{consumergroup=__strimzi-topic-operator-kstreams},1651798785,0
{consumergroup=__strimzi-topic-operator-kstreams},1651798790,0
{consumergroup=__strimzi-topic-operator-kstreams},1651798795,0
{consumergroup=__strimzi-topic-operator-kstreams},1651798800,0
{consumergroup=__strimzi-topic-operator-kstreams},1651798805,0
{consumergroup=__strimzi-topic-operator-kstreams},1651798810,0
{consumergroup=__strimzi-topic-operator-kstreams},1651798815,0
{consumergroup=__strimzi-topic-operator-kstreams},1651798820,0
{consumergroup=__strimzi-topic-operator-kstreams},1651798825,0
{consumergroup=trace-service},1651798425,86094
{consumergroup=trace-service},1651798430,86094
{consumergroup=trace-service},1651798435,86094
{consumergroup=trace-service},1651798440,202925
{consumergroup=trace-service},1651798445,202925
{consumergroup=trace-service},1651798450,202925
{consumergroup=trace-service},1651798455,558814
{consumergroup=trace-service},1651798460,558814
{consumergroup=trace-service},1651798465,558814
{consumergroup=trace-service},1651798470,1086508
{consumergroup=trace-service},1651798475,1086508
{consumergroup=trace-service},1651798480,1086508
{consumergroup=trace-service},1651798485,496858
{consumergroup=trace-service},1651798490,496858
{consumergroup=trace-service},1651798495,496858
{consumergroup=trace-service},1651798500,232056
{consumergroup=trace-service},1651798505,232056
{consumergroup=trace-service},1651798510,232056
{consumergroup=trace-service},1651798515,428773
{consumergroup=trace-service},1651798520,428773
{consumergroup=trace-service},1651798525,428773
{consumergroup=trace-service},1651798530,180198
{consumergroup=trace-service},1651798535,180198
{consumergroup=trace-service},1651798540,180198
{consumergroup=trace-service},1651798545,427507
{consumergroup=trace-service},1651798550,427507
{consumergroup=trace-service},1651798555,427507
{consumergroup=trace-service},1651798560,291456
{consumergroup=trace-service},1651798565,291456
{consumergroup=trace-service},1651798570,291456
{consumergroup=trace-service},1651798575,422734
{consumergroup=trace-service},1651798580,422734
{consumergroup=trace-service},1651798585,422734
{consumergroup=trace-service},1651798590,211059
{consumergroup=trace-service},1651798595,211059
{consumergroup=trace-service},1651798600,211059
{consumergroup=trace-service},1651798605,422611
{consumergroup=trace-service},1651798610,422611
{consumergroup=trace-service},1651798615,422611
{consumergroup=trace-service},1651798620,1022150
{consumergroup=trace-service},1651798625,1022150
{consumergroup=trace-service},1651798630,1022150
{consumergroup=trace-service},1651798635,455819
{consumergroup=trace-service},1651798640,455819
{consumergroup=trace-service},1651798645,455819
{consumergroup=trace-service},1651798650,876065
{consumergroup=trace-service},1651798655,876065
{consumergroup=trace-service},1651798660,876065
{consumergroup=trace-service},1651798665,439775
{consumergroup=trace-service},1651798670,439775
{consumergroup=trace-service},1651798675,439775
{consumergroup=trace-service},1651798680,928543
{consumergroup=trace-service},1651798685,928543
{consumergroup=trace-service},1651798690,928543
{consumergroup=trace-service},1651798695,433433
{consumergroup=trace-service},1651798700,433433
{consumergroup=trace-service},1651798705,433433
{consumergroup=trace-service},1651798710,1196966
{consumergroup=trace-service},1651798715,1196966
{consumergroup=trace-service},1651798720,1196966
{consumergroup=trace-service},1651798725,452267
{consumergroup=trace-service},1651798730,452267
{consumergroup=trace-service},1651798735,452267
{consumergroup=trace-service},1651798740,1119704
{consumergroup=trace-service},1651798745,1119704
{consumergroup=trace-service},1651798750,1119704
{consumergroup=trace-service},1651798755,443050
{consumergroup=trace-service},1651798760,443050
{consumergroup=trace-service},1651798765,443050
{consumergroup=trace-service},1651798770,1362022
{consumergroup=trace-service},1651798775,1362022
{consumergroup=trace-service},1651798780,1362022
{consumergroup=trace-service},1651798785,434761
{consumergroup=trace-service},1651798790,434761
{consumergroup=trace-service},1651798795,434761
{consumergroup=trace-service},1651798800,1024567
{consumergroup=trace-service},1651798805,1024567
{consumergroup=trace-service},1651798810,1024567
{consumergroup=trace-service},1651798815,457582
{consumergroup=trace-service},1651798820,457582
{consumergroup=trace-service},1651798825,457582
{consumergroup=trace-token-events-consumer},1651798425,0
{consumergroup=trace-token-events-consumer},1651798430,0
{consumergroup=trace-token-events-consumer},1651798435,0
{consumergroup=trace-token-events-consumer},1651798440,0
{consumergroup=trace-token-events-consumer},1651798445,0
{consumergroup=trace-token-events-consumer},1651798450,0
{consumergroup=trace-token-events-consumer},1651798455,0
{consumergroup=trace-token-events-consumer},1651798460,0
{consumergroup=trace-token-events-consumer},1651798465,0
{consumergroup=trace-token-events-consumer},1651798470,0
{consumergroup=trace-token-events-consumer},1651798475,0
{consumergroup=trace-token-events-consumer},1651798480,0
{consumergroup=trace-token-events-consumer},1651798485,0
{consumergroup=trace-token-events-consumer},1651798490,0
{consumergroup=trace-token-events-consumer},1651798495,0
{consumergroup=trace-token-events-consumer},1651798500,0
{consumergroup=trace-token-events-consumer},1651798505,0
{consumergroup=trace-token-events-consumer},1651798510,0
{consumergroup=trace-token-events-consumer},1651798515,0
{consumergroup=trace-token-events-consumer},1651798520,0
{consumergroup=trace-token-events-consumer},1651798525,0
{consumergroup=trace-token-events-consumer},1651798530,0
{consumergroup=trace-token-events-consumer},1651798535,0
{consumergroup=trace-token-events-consumer},1651798540,0
{consumergroup=trace-token-events-consumer},1651798545,0
{consumergroup=trace-token-events-consumer},1651798550,0
{consumergroup=trace-token-events-consumer},1651798555,0
{consumergroup=trace-token-events-consumer},1651798560,0
{consumergroup=trace-token-events-consumer},1651798565,0
{consumergroup=trace-token-events-consumer},1651798570,0
{consumergroup=trace-token-events-consumer},1651798575,0
{consumergroup=trace-token-events-consumer},1651798580,0
{consumergroup=trace-token-events-consumer},1651798585,0
{consumergroup=trace-token-events-consumer},1651798590,0
{consumergroup=trace-token-events-consumer},1651798595,0
{consumergroup=trace-token-events-consumer},1651798600,0
{consumergroup=trace-token-events-consumer},1651798605,0
{consumergroup=trace-token-events-consumer},1651798610,0
{consumergroup=trace-token-events-consumer},1651798615,0
{consumergroup=trace-token-events-consumer},1651798620,0
{consumergroup=trace-token-events-consumer},1651798625,0
{consumergroup=trace-token-events-consumer},1651798630,0
{consumergroup=trace-token-events-consumer},1651798635,0
{consumergroup=trace-token-events-consumer},1651798640,0
{consumergroup=trace-token-events-consumer},1651798645,0
{consumergroup=trace-token-events-consumer},1651798650,0
{consumergroup=trace-token-events-consumer},1651798655,0
{consumergroup=trace-token-events-consumer},1651798660,0
{consumergroup=trace-token-events-consumer},1651798665,0
{consumergroup=trace-token-events-consumer},1651798670,0
{consumergroup=trace-token-events-consumer},1651798675,0
{consumergroup=trace-token-events-consumer},1651798680,0
{consumergroup=trace-token-events-consumer},1651798685,0
{consumergroup=trace-token-events-consumer},1651798690,0
{consumergroup=trace-token-events-consumer},1651798695,0
{consumergroup=trace-token-events-consumer},1651798700,0
{consumergroup=trace-token-events-consumer},1651798705,0
{consumergroup=trace-token-events-consumer},1651798710,0
{consumergroup=trace-token-events-consumer},1651798715,0
{consumergroup=trace-token-events-consumer},1651798720,0
{consumergroup=trace-token-events-consumer},1651798725,0
{consumergroup=trace-token-events-consumer},1651798730,0
{consumergroup=trace-token-events-consumer},1651798735,0
{consumergroup=trace-token-events-consumer},1651798740,0
{consumergroup=trace-token-events-consumer},1651798745,0
{consumergroup=trace-token-events-consumer},1651798750,0
{consumergroup=trace-token-events-consumer},1651798755,0
{consumergroup=trace-token-events-consumer},1651798760,0
{consumergroup=trace-token-events-consumer},1651798765,0
{consumergroup=trace-token-events-consumer},1651798770,0
{consumergroup=trace-token-events-consumer},1651798775,0
{consumergroup=trace-token-events-consumer},1651798780,0
{consumergroup=trace-token-events-consumer},1651798785,0
{consumergroup=trace-token-events-consumer},1651798790,0
{consumergroup=trace-token-events-consumer},1651798795,0
{consumergroup=trace-token-events-consumer},1651798800,0
{consumergroup=trace-token-events-consumer},1651798805,0
{consumergroup=trace-token-events-consumer},1651798810,0
{consumergroup=trace-token-events-consumer},1651798815,0
{consumergroup=trace-token-events-consumer},1651798820,0
{consumergroup=trace-token-events-consumer},1651798825,0
