labels,timestamp,value
{job=theodolite-stu200776/trace-isolated-podmonitor},1651776276,0
{job=theodolite-stu200776/trace-isolated-podmonitor},1651776281,0
{job=theodolite-stu200776/trace-isolated-podmonitor},1651776286,0
{job=theodolite-stu200776/trace-isolated-podmonitor},1651776291,0
{job=theodolite-stu200776/trace-isolated-podmonitor},1651776296,0
{job=theodolite-stu200776/trace-isolated-podmonitor},1651776301,0
{job=theodolite-stu200776/trace-isolated-podmonitor},1651776306,85.57364079730351
{job=theodolite-stu200776/trace-isolated-podmonitor},1651776311,633.102196784903
{job=theodolite-stu200776/trace-isolated-podmonitor},1651776316,680.2621298129897
{job=theodolite-stu200776/trace-isolated-podmonitor},1651776321,555.3079573804685
{job=theodolite-stu200776/trace-isolated-podmonitor},1651776326,528.763811142768
{job=theodolite-stu200776/trace-isolated-podmonitor},1651776331,450.1688022606173
{job=theodolite-stu200776/trace-isolated-podmonitor},1651776336,412.43327775489206
{job=theodolite-stu200776/trace-isolated-podmonitor},1651776341,97.03220290577498
{job=theodolite-stu200776/trace-isolated-podmonitor},1651776346,29.824913938409736
{job=theodolite-stu200776/trace-isolated-podmonitor},1651776351,21.08188563724161
{job=theodolite-stu200776/trace-isolated-podmonitor},1651776356,21.034592327504402
{job=theodolite-stu200776/trace-isolated-podmonitor},1651776361,17.769328918670038
{job=theodolite-stu200776/trace-isolated-podmonitor},1651776366,17.486625023379403
{job=theodolite-stu200776/trace-isolated-podmonitor},1651776371,1.414770657123604
{job=theodolite-stu200776/trace-isolated-podmonitor},1651776376,0.7616749786739831
{job=theodolite-stu200776/trace-isolated-podmonitor},1651776381,0.66963156650076
{job=theodolite-stu200776/trace-isolated-podmonitor},1651776386,0.4061103353791121
{job=theodolite-stu200776/trace-isolated-podmonitor},1651776391,0
{job=theodolite-stu200776/trace-isolated-podmonitor},1651776396,10.807000048616526
{job=theodolite-stu200776/trace-isolated-podmonitor},1651776401,53.037099840976154
{job=theodolite-stu200776/trace-isolated-podmonitor},1651776406,54.094619624736346
{job=theodolite-stu200776/trace-isolated-podmonitor},1651776411,71.07754706615279
{job=theodolite-stu200776/trace-isolated-podmonitor},1651776416,73.10031727707421
{job=theodolite-stu200776/trace-isolated-podmonitor},1651776421,64.80570584794314
{job=theodolite-stu200776/trace-isolated-podmonitor},1651776426,70.59007296213332
{job=theodolite-stu200776/trace-isolated-podmonitor},1651776431,77.08443409367567
{job=theodolite-stu200776/trace-isolated-podmonitor},1651776436,72.75016343619984
{job=theodolite-stu200776/trace-isolated-podmonitor},1651776441,58.07944636762028
{job=theodolite-stu200776/trace-isolated-podmonitor},1651776446,55.424709465748535
{job=theodolite-stu200776/trace-isolated-podmonitor},1651776451,44.54655955743388
{job=theodolite-stu200776/trace-isolated-podmonitor},1651776456,33.40386534182834
{job=theodolite-stu200776/trace-isolated-podmonitor},1651776461,6.734622090200252
{job=theodolite-stu200776/trace-isolated-podmonitor},1651776466,5.952869530091177
{job=theodolite-stu200776/trace-isolated-podmonitor},1651776471,0.7762863320736143
{job=theodolite-stu200776/trace-isolated-podmonitor},1651776476,0.018083509647552398
{job=theodolite-stu200776/trace-isolated-podmonitor},1651776481,0
{job=theodolite-stu200776/trace-isolated-podmonitor},1651776486,0
{job=theodolite-stu200776/trace-isolated-podmonitor},1651776491,0
{job=theodolite-stu200776/trace-isolated-podmonitor},1651776496,0
{job=theodolite-stu200776/trace-isolated-podmonitor},1651776501,0
{job=theodolite-stu200776/trace-isolated-podmonitor},1651776506,0
{job=theodolite-stu200776/trace-isolated-podmonitor},1651776511,0
{job=theodolite-stu200776/trace-isolated-podmonitor},1651776516,0
{job=theodolite-stu200776/trace-isolated-podmonitor},1651776521,0
{job=theodolite-stu200776/trace-isolated-podmonitor},1651776526,0
{job=theodolite-stu200776/trace-isolated-podmonitor},1651776531,0
{job=theodolite-stu200776/trace-isolated-podmonitor},1651776536,0
{job=theodolite-stu200776/trace-isolated-podmonitor},1651776541,0
{job=theodolite-stu200776/trace-isolated-podmonitor},1651776546,0
{job=theodolite-stu200776/trace-isolated-podmonitor},1651776551,0
{job=theodolite-stu200776/trace-isolated-podmonitor},1651776556,0
{job=theodolite-stu200776/trace-isolated-podmonitor},1651776561,0
{job=theodolite-stu200776/trace-isolated-podmonitor},1651776566,0
{job=theodolite-stu200776/trace-isolated-podmonitor},1651776571,0
{job=theodolite-stu200776/trace-isolated-podmonitor},1651776576,22.687474754942727
{job=theodolite-stu200776/trace-isolated-podmonitor},1651776581,183.01310094224013
{job=theodolite-stu200776/trace-isolated-podmonitor},1651776586,203.24238524707184
{job=theodolite-stu200776/trace-isolated-podmonitor},1651776591,212.99158912627973
{job=theodolite-stu200776/trace-isolated-podmonitor},1651776596,228.5938326617382
{job=theodolite-stu200776/trace-isolated-podmonitor},1651776601,251.60484609343175
{job=theodolite-stu200776/trace-isolated-podmonitor},1651776606,271.63747040083416
{job=theodolite-stu200776/trace-isolated-podmonitor},1651776611,351.2916878858257
{job=theodolite-stu200776/trace-isolated-podmonitor},1651776616,342.6270624492344
{job=theodolite-stu200776/trace-isolated-podmonitor},1651776621,280.8975351510647
{job=theodolite-stu200776/trace-isolated-podmonitor},1651776626,267.39262613822956
{job=theodolite-stu200776/trace-isolated-podmonitor},1651776631,207.7782844564371
{job=theodolite-stu200776/trace-isolated-podmonitor},1651776636,160.13241986420255
{job=theodolite-stu200776/trace-isolated-podmonitor},1651776641,18.94974110559966
{job=theodolite-stu200776/trace-isolated-podmonitor},1651776646,10.276691975821503
{job=theodolite-stu200776/trace-isolated-podmonitor},1651776651,2.176117074742283
