labels,timestamp,value
{job=theodolite-stu200776/trace-isolated-podmonitor},1651779890,0
{job=theodolite-stu200776/trace-isolated-podmonitor},1651779895,0
{job=theodolite-stu200776/trace-isolated-podmonitor},1651779900,0
{job=theodolite-stu200776/trace-isolated-podmonitor},1651779905,0
{job=theodolite-stu200776/trace-isolated-podmonitor},1651779910,0
{job=theodolite-stu200776/trace-isolated-podmonitor},1651779915,0
{job=theodolite-stu200776/trace-isolated-podmonitor},1651779920,0
{job=theodolite-stu200776/trace-isolated-podmonitor},1651779925,0
{job=theodolite-stu200776/trace-isolated-podmonitor},1651779930,0
{job=theodolite-stu200776/trace-isolated-podmonitor},1651779935,0
{job=theodolite-stu200776/trace-isolated-podmonitor},1651779940,0
{job=theodolite-stu200776/trace-isolated-podmonitor},1651779945,0
{job=theodolite-stu200776/trace-isolated-podmonitor},1651779950,0
{job=theodolite-stu200776/trace-isolated-podmonitor},1651779955,0
{job=theodolite-stu200776/trace-isolated-podmonitor},1651779960,0
{job=theodolite-stu200776/trace-isolated-podmonitor},1651779965,0
{job=theodolite-stu200776/trace-isolated-podmonitor},1651779970,0
{job=theodolite-stu200776/trace-isolated-podmonitor},1651779975,0
{job=theodolite-stu200776/trace-isolated-podmonitor},1651779980,0
{job=theodolite-stu200776/trace-isolated-podmonitor},1651779985,0
{job=theodolite-stu200776/trace-isolated-podmonitor},1651779990,0
{job=theodolite-stu200776/trace-isolated-podmonitor},1651779995,0
{job=theodolite-stu200776/trace-isolated-podmonitor},1651780000,0
{job=theodolite-stu200776/trace-isolated-podmonitor},1651780005,0
{job=theodolite-stu200776/trace-isolated-podmonitor},1651780010,0
{job=theodolite-stu200776/trace-isolated-podmonitor},1651780015,0
{job=theodolite-stu200776/trace-isolated-podmonitor},1651780020,0
{job=theodolite-stu200776/trace-isolated-podmonitor},1651780025,0
{job=theodolite-stu200776/trace-isolated-podmonitor},1651780030,0
{job=theodolite-stu200776/trace-isolated-podmonitor},1651780035,0
{job=theodolite-stu200776/trace-isolated-podmonitor},1651780040,0
{job=theodolite-stu200776/trace-isolated-podmonitor},1651780045,0
{job=theodolite-stu200776/trace-isolated-podmonitor},1651780050,0
{job=theodolite-stu200776/trace-isolated-podmonitor},1651780055,0
{job=theodolite-stu200776/trace-isolated-podmonitor},1651780060,0
{job=theodolite-stu200776/trace-isolated-podmonitor},1651780065,0
{job=theodolite-stu200776/trace-isolated-podmonitor},1651780070,0
{job=theodolite-stu200776/trace-isolated-podmonitor},1651780075,0
{job=theodolite-stu200776/trace-isolated-podmonitor},1651780080,0
{job=theodolite-stu200776/trace-isolated-podmonitor},1651780085,0
{job=theodolite-stu200776/trace-isolated-podmonitor},1651780090,0
{job=theodolite-stu200776/trace-isolated-podmonitor},1651780095,0
{job=theodolite-stu200776/trace-isolated-podmonitor},1651780100,0
{job=theodolite-stu200776/trace-isolated-podmonitor},1651780105,0
{job=theodolite-stu200776/trace-isolated-podmonitor},1651780110,0
{job=theodolite-stu200776/trace-isolated-podmonitor},1651780115,0
{job=theodolite-stu200776/trace-isolated-podmonitor},1651780120,0
{job=theodolite-stu200776/trace-isolated-podmonitor},1651780125,0
{job=theodolite-stu200776/trace-isolated-podmonitor},1651780130,0
{job=theodolite-stu200776/trace-isolated-podmonitor},1651780135,0
{job=theodolite-stu200776/trace-isolated-podmonitor},1651780140,0
{job=theodolite-stu200776/trace-isolated-podmonitor},1651780145,0
{job=theodolite-stu200776/trace-isolated-podmonitor},1651780150,0
{job=theodolite-stu200776/trace-isolated-podmonitor},1651780155,0
{job=theodolite-stu200776/trace-isolated-podmonitor},1651780160,0
{job=theodolite-stu200776/trace-isolated-podmonitor},1651780165,0
{job=theodolite-stu200776/trace-isolated-podmonitor},1651780170,0
{job=theodolite-stu200776/trace-isolated-podmonitor},1651780175,0
{job=theodolite-stu200776/trace-isolated-podmonitor},1651780180,0
{job=theodolite-stu200776/trace-isolated-podmonitor},1651780185,0
{job=theodolite-stu200776/trace-isolated-podmonitor},1651780190,0
{job=theodolite-stu200776/trace-isolated-podmonitor},1651780195,0
{job=theodolite-stu200776/trace-isolated-podmonitor},1651780200,0
{job=theodolite-stu200776/trace-isolated-podmonitor},1651780205,0
{job=theodolite-stu200776/trace-isolated-podmonitor},1651780210,0
{job=theodolite-stu200776/trace-isolated-podmonitor},1651780215,0
{job=theodolite-stu200776/trace-isolated-podmonitor},1651780220,0
{job=theodolite-stu200776/trace-isolated-podmonitor},1651780225,0
{job=theodolite-stu200776/trace-isolated-podmonitor},1651780230,0
{job=theodolite-stu200776/trace-isolated-podmonitor},1651780235,0
{job=theodolite-stu200776/trace-isolated-podmonitor},1651780240,0
{job=theodolite-stu200776/trace-isolated-podmonitor},1651780245,0
{job=theodolite-stu200776/trace-isolated-podmonitor},1651780250,0
{job=theodolite-stu200776/trace-isolated-podmonitor},1651780255,0
{job=theodolite-stu200776/trace-isolated-podmonitor},1651780260,0
{job=theodolite-stu200776/trace-isolated-podmonitor},1651780265,0
