labels,timestamp,value
{consumergroup=__strimzi-topic-operator-kstreams},1651778802,8
{consumergroup=__strimzi-topic-operator-kstreams},1651778807,8
{consumergroup=__strimzi-topic-operator-kstreams},1651778812,8
{consumergroup=__strimzi-topic-operator-kstreams},1651778817,0
{consumergroup=__strimzi-topic-operator-kstreams},1651778822,0
{consumergroup=__strimzi-topic-operator-kstreams},1651778827,0
{consumergroup=__strimzi-topic-operator-kstreams},1651778832,0
{consumergroup=__strimzi-topic-operator-kstreams},1651778837,0
{consumergroup=__strimzi-topic-operator-kstreams},1651778842,0
{consumergroup=__strimzi-topic-operator-kstreams},1651778847,0
{consumergroup=__strimzi-topic-operator-kstreams},1651778852,0
{consumergroup=__strimzi-topic-operator-kstreams},1651778857,0
{consumergroup=__strimzi-topic-operator-kstreams},1651778862,0
{consumergroup=__strimzi-topic-operator-kstreams},1651778867,0
{consumergroup=__strimzi-topic-operator-kstreams},1651778872,0
{consumergroup=__strimzi-topic-operator-kstreams},1651778877,0
{consumergroup=__strimzi-topic-operator-kstreams},1651778882,0
{consumergroup=__strimzi-topic-operator-kstreams},1651778887,0
{consumergroup=__strimzi-topic-operator-kstreams},1651778892,0
{consumergroup=__strimzi-topic-operator-kstreams},1651778897,0
{consumergroup=__strimzi-topic-operator-kstreams},1651778902,0
{consumergroup=__strimzi-topic-operator-kstreams},1651778907,0
{consumergroup=__strimzi-topic-operator-kstreams},1651778912,0
{consumergroup=__strimzi-topic-operator-kstreams},1651778917,0
{consumergroup=__strimzi-topic-operator-kstreams},1651778922,0
{consumergroup=__strimzi-topic-operator-kstreams},1651778927,0
{consumergroup=__strimzi-topic-operator-kstreams},1651778932,0
{consumergroup=__strimzi-topic-operator-kstreams},1651778937,0
{consumergroup=__strimzi-topic-operator-kstreams},1651778942,0
{consumergroup=__strimzi-topic-operator-kstreams},1651778947,0
{consumergroup=__strimzi-topic-operator-kstreams},1651778952,0
{consumergroup=__strimzi-topic-operator-kstreams},1651778957,0
{consumergroup=__strimzi-topic-operator-kstreams},1651778962,0
{consumergroup=__strimzi-topic-operator-kstreams},1651778967,0
{consumergroup=__strimzi-topic-operator-kstreams},1651778972,0
{consumergroup=__strimzi-topic-operator-kstreams},1651778977,0
{consumergroup=__strimzi-topic-operator-kstreams},1651778982,0
{consumergroup=__strimzi-topic-operator-kstreams},1651778987,0
{consumergroup=__strimzi-topic-operator-kstreams},1651778992,0
{consumergroup=__strimzi-topic-operator-kstreams},1651778997,0
{consumergroup=__strimzi-topic-operator-kstreams},1651779002,0
{consumergroup=__strimzi-topic-operator-kstreams},1651779007,0
{consumergroup=__strimzi-topic-operator-kstreams},1651779012,0
{consumergroup=__strimzi-topic-operator-kstreams},1651779017,0
{consumergroup=__strimzi-topic-operator-kstreams},1651779022,0
{consumergroup=__strimzi-topic-operator-kstreams},1651779027,0
{consumergroup=__strimzi-topic-operator-kstreams},1651779032,0
{consumergroup=__strimzi-topic-operator-kstreams},1651779037,0
{consumergroup=__strimzi-topic-operator-kstreams},1651779042,0
{consumergroup=__strimzi-topic-operator-kstreams},1651779047,0
{consumergroup=__strimzi-topic-operator-kstreams},1651779052,0
{consumergroup=__strimzi-topic-operator-kstreams},1651779057,0
{consumergroup=__strimzi-topic-operator-kstreams},1651779062,0
{consumergroup=__strimzi-topic-operator-kstreams},1651779067,0
{consumergroup=__strimzi-topic-operator-kstreams},1651779072,0
{consumergroup=__strimzi-topic-operator-kstreams},1651779077,0
{consumergroup=__strimzi-topic-operator-kstreams},1651779082,0
{consumergroup=__strimzi-topic-operator-kstreams},1651779087,0
{consumergroup=__strimzi-topic-operator-kstreams},1651779092,0
{consumergroup=__strimzi-topic-operator-kstreams},1651779097,0
{consumergroup=__strimzi-topic-operator-kstreams},1651779102,0
{consumergroup=__strimzi-topic-operator-kstreams},1651779107,0
{consumergroup=__strimzi-topic-operator-kstreams},1651779112,0
{consumergroup=__strimzi-topic-operator-kstreams},1651779117,0
{consumergroup=__strimzi-topic-operator-kstreams},1651779122,0
{consumergroup=__strimzi-topic-operator-kstreams},1651779127,0
{consumergroup=__strimzi-topic-operator-kstreams},1651779132,0
{consumergroup=__strimzi-topic-operator-kstreams},1651779137,0
{consumergroup=__strimzi-topic-operator-kstreams},1651779142,0
{consumergroup=__strimzi-topic-operator-kstreams},1651779147,0
{consumergroup=__strimzi-topic-operator-kstreams},1651779152,0
{consumergroup=__strimzi-topic-operator-kstreams},1651779157,0
{consumergroup=__strimzi-topic-operator-kstreams},1651779162,0
{consumergroup=__strimzi-topic-operator-kstreams},1651779167,0
{consumergroup=__strimzi-topic-operator-kstreams},1651779172,0
{consumergroup=__strimzi-topic-operator-kstreams},1651779177,0
{consumergroup=__strimzi-topic-operator-kstreams},1651779182,0
{consumergroup=__strimzi-topic-operator-kstreams},1651779187,0
{consumergroup=__strimzi-topic-operator-kstreams},1651779192,0
{consumergroup=__strimzi-topic-operator-kstreams},1651779197,0
{consumergroup=__strimzi-topic-operator-kstreams},1651779202,0
{consumergroup=__strimzi-topic-operator-kstreams},1651779207,0
{consumergroup=__strimzi-topic-operator-kstreams},1651779212,0
{consumergroup=__strimzi-topic-operator-kstreams},1651779217,0
{consumergroup=__strimzi-topic-operator-kstreams},1651779222,0
{consumergroup=__strimzi-topic-operator-kstreams},1651779227,0
{consumergroup=__strimzi-topic-operator-kstreams},1651779232,0
{consumergroup=__strimzi-topic-operator-kstreams},1651779237,0
{consumergroup=trace-service},1651778832,201
{consumergroup=trace-service},1651778837,201
{consumergroup=trace-service},1651778842,201
{consumergroup=trace-service},1651778847,129295
{consumergroup=trace-service},1651778852,129295
{consumergroup=trace-service},1651778857,129295
{consumergroup=trace-service},1651778862,550591
{consumergroup=trace-service},1651778867,550591
{consumergroup=trace-service},1651778872,550591
{consumergroup=trace-service},1651778877,1089997
{consumergroup=trace-service},1651778882,1089997
{consumergroup=trace-service},1651778887,1089997
{consumergroup=trace-service},1651778892,525075
{consumergroup=trace-service},1651778897,525075
{consumergroup=trace-service},1651778902,525075
{consumergroup=trace-service},1651778907,1118940
{consumergroup=trace-service},1651778912,1118940
{consumergroup=trace-service},1651778917,1118940
{consumergroup=trace-service},1651778922,426864
{consumergroup=trace-service},1651778927,426864
{consumergroup=trace-service},1651778932,426864
{consumergroup=trace-service},1651778937,698486
{consumergroup=trace-service},1651778942,698486
{consumergroup=trace-service},1651778947,698486
{consumergroup=trace-service},1651778952,425739
{consumergroup=trace-service},1651778957,425739
{consumergroup=trace-service},1651778962,425739
{consumergroup=trace-service},1651778967,395344
{consumergroup=trace-service},1651778972,395344
{consumergroup=trace-service},1651778977,395344
{consumergroup=trace-service},1651778982,419158
{consumergroup=trace-service},1651778987,419158
{consumergroup=trace-service},1651778992,419158
{consumergroup=trace-service},1651778997,1024478
{consumergroup=trace-service},1651779002,1024478
{consumergroup=trace-service},1651779007,1024478
{consumergroup=trace-service},1651779012,432556
{consumergroup=trace-service},1651779017,432556
{consumergroup=trace-service},1651779022,432556
{consumergroup=trace-service},1651779027,1077235
{consumergroup=trace-service},1651779032,1077235
{consumergroup=trace-service},1651779037,1077235
{consumergroup=trace-service},1651779042,432835
{consumergroup=trace-service},1651779047,432835
{consumergroup=trace-service},1651779052,432835
{consumergroup=trace-service},1651779057,982868
{consumergroup=trace-service},1651779062,982868
{consumergroup=trace-service},1651779067,982868
{consumergroup=trace-service},1651779072,416728
{consumergroup=trace-service},1651779077,416728
{consumergroup=trace-service},1651779082,416728
{consumergroup=trace-service},1651779087,568647
{consumergroup=trace-service},1651779092,568647
{consumergroup=trace-service},1651779097,568647
{consumergroup=trace-service},1651779102,414634
{consumergroup=trace-service},1651779107,414634
{consumergroup=trace-service},1651779112,414634
{consumergroup=trace-service},1651779117,1023595
{consumergroup=trace-service},1651779122,1023595
{consumergroup=trace-service},1651779127,1023595
{consumergroup=trace-service},1651779132,420505
{consumergroup=trace-service},1651779137,420505
{consumergroup=trace-service},1651779142,420505
{consumergroup=trace-service},1651779147,896225
{consumergroup=trace-service},1651779152,896225
{consumergroup=trace-service},1651779157,896225
{consumergroup=trace-service},1651779162,428915
{consumergroup=trace-service},1651779167,428915
{consumergroup=trace-service},1651779172,428915
{consumergroup=trace-service},1651779177,1058413
{consumergroup=trace-service},1651779182,1058413
{consumergroup=trace-service},1651779187,1058413
{consumergroup=trace-service},1651779192,431518
{consumergroup=trace-service},1651779197,431518
{consumergroup=trace-service},1651779202,431518
{consumergroup=trace-service},1651779207,1046926
{consumergroup=trace-service},1651779212,1046926
{consumergroup=trace-service},1651779217,1046926
{consumergroup=trace-service},1651779222,433319
{consumergroup=trace-service},1651779227,433319
{consumergroup=trace-service},1651779232,433319
{consumergroup=trace-service},1651779237,1127996
{consumergroup=trace-token-events-consumer},1651778832,0
{consumergroup=trace-token-events-consumer},1651778837,0
{consumergroup=trace-token-events-consumer},1651778842,0
{consumergroup=trace-token-events-consumer},1651778847,0
{consumergroup=trace-token-events-consumer},1651778852,0
{consumergroup=trace-token-events-consumer},1651778857,0
{consumergroup=trace-token-events-consumer},1651778862,0
{consumergroup=trace-token-events-consumer},1651778867,0
{consumergroup=trace-token-events-consumer},1651778872,0
{consumergroup=trace-token-events-consumer},1651778877,0
{consumergroup=trace-token-events-consumer},1651778882,0
{consumergroup=trace-token-events-consumer},1651778887,0
{consumergroup=trace-token-events-consumer},1651778892,0
{consumergroup=trace-token-events-consumer},1651778897,0
{consumergroup=trace-token-events-consumer},1651778902,0
{consumergroup=trace-token-events-consumer},1651778907,0
{consumergroup=trace-token-events-consumer},1651778912,0
{consumergroup=trace-token-events-consumer},1651778917,0
{consumergroup=trace-token-events-consumer},1651778922,0
{consumergroup=trace-token-events-consumer},1651778927,0
{consumergroup=trace-token-events-consumer},1651778932,0
{consumergroup=trace-token-events-consumer},1651778937,0
{consumergroup=trace-token-events-consumer},1651778942,0
{consumergroup=trace-token-events-consumer},1651778947,0
{consumergroup=trace-token-events-consumer},1651778952,0
{consumergroup=trace-token-events-consumer},1651778957,0
{consumergroup=trace-token-events-consumer},1651778962,0
{consumergroup=trace-token-events-consumer},1651778967,0
{consumergroup=trace-token-events-consumer},1651778972,0
{consumergroup=trace-token-events-consumer},1651778977,0
{consumergroup=trace-token-events-consumer},1651778982,0
{consumergroup=trace-token-events-consumer},1651778987,0
{consumergroup=trace-token-events-consumer},1651778992,0
{consumergroup=trace-token-events-consumer},1651778997,0
{consumergroup=trace-token-events-consumer},1651779002,0
{consumergroup=trace-token-events-consumer},1651779007,0
{consumergroup=trace-token-events-consumer},1651779012,0
{consumergroup=trace-token-events-consumer},1651779017,0
{consumergroup=trace-token-events-consumer},1651779022,0
{consumergroup=trace-token-events-consumer},1651779027,0
{consumergroup=trace-token-events-consumer},1651779032,0
{consumergroup=trace-token-events-consumer},1651779037,0
{consumergroup=trace-token-events-consumer},1651779042,0
{consumergroup=trace-token-events-consumer},1651779047,0
{consumergroup=trace-token-events-consumer},1651779052,0
{consumergroup=trace-token-events-consumer},1651779057,0
{consumergroup=trace-token-events-consumer},1651779062,0
{consumergroup=trace-token-events-consumer},1651779067,0
{consumergroup=trace-token-events-consumer},1651779072,0
{consumergroup=trace-token-events-consumer},1651779077,0
{consumergroup=trace-token-events-consumer},1651779082,0
{consumergroup=trace-token-events-consumer},1651779087,0
{consumergroup=trace-token-events-consumer},1651779092,0
{consumergroup=trace-token-events-consumer},1651779097,0
{consumergroup=trace-token-events-consumer},1651779102,0
{consumergroup=trace-token-events-consumer},1651779107,0
{consumergroup=trace-token-events-consumer},1651779112,0
{consumergroup=trace-token-events-consumer},1651779117,0
{consumergroup=trace-token-events-consumer},1651779122,0
{consumergroup=trace-token-events-consumer},1651779127,0
{consumergroup=trace-token-events-consumer},1651779132,0
{consumergroup=trace-token-events-consumer},1651779137,0
{consumergroup=trace-token-events-consumer},1651779142,0
{consumergroup=trace-token-events-consumer},1651779147,0
{consumergroup=trace-token-events-consumer},1651779152,0
{consumergroup=trace-token-events-consumer},1651779157,0
{consumergroup=trace-token-events-consumer},1651779162,0
{consumergroup=trace-token-events-consumer},1651779167,0
{consumergroup=trace-token-events-consumer},1651779172,0
{consumergroup=trace-token-events-consumer},1651779177,0
{consumergroup=trace-token-events-consumer},1651779182,0
{consumergroup=trace-token-events-consumer},1651779187,0
{consumergroup=trace-token-events-consumer},1651779192,0
{consumergroup=trace-token-events-consumer},1651779197,0
{consumergroup=trace-token-events-consumer},1651779202,0
{consumergroup=trace-token-events-consumer},1651779207,0
{consumergroup=trace-token-events-consumer},1651779212,0
{consumergroup=trace-token-events-consumer},1651779217,0
{consumergroup=trace-token-events-consumer},1651779222,0
{consumergroup=trace-token-events-consumer},1651779227,0
{consumergroup=trace-token-events-consumer},1651779232,0
{consumergroup=trace-token-events-consumer},1651779237,0
