labels,timestamp,value
{consumergroup=__strimzi-topic-operator-kstreams},1651797857,8
{consumergroup=__strimzi-topic-operator-kstreams},1651797862,8
{consumergroup=__strimzi-topic-operator-kstreams},1651797867,8
{consumergroup=__strimzi-topic-operator-kstreams},1651797872,11
{consumergroup=__strimzi-topic-operator-kstreams},1651797877,11
{consumergroup=__strimzi-topic-operator-kstreams},1651797882,11
{consumergroup=__strimzi-topic-operator-kstreams},1651797887,0
{consumergroup=__strimzi-topic-operator-kstreams},1651797892,0
{consumergroup=__strimzi-topic-operator-kstreams},1651797897,0
{consumergroup=__strimzi-topic-operator-kstreams},1651797902,0
{consumergroup=__strimzi-topic-operator-kstreams},1651797907,0
{consumergroup=__strimzi-topic-operator-kstreams},1651797912,0
{consumergroup=__strimzi-topic-operator-kstreams},1651797917,0
{consumergroup=__strimzi-topic-operator-kstreams},1651797922,0
{consumergroup=__strimzi-topic-operator-kstreams},1651797927,0
{consumergroup=__strimzi-topic-operator-kstreams},1651797932,0
{consumergroup=__strimzi-topic-operator-kstreams},1651797937,0
{consumergroup=__strimzi-topic-operator-kstreams},1651797942,0
{consumergroup=__strimzi-topic-operator-kstreams},1651797947,0
{consumergroup=__strimzi-topic-operator-kstreams},1651797952,0
{consumergroup=__strimzi-topic-operator-kstreams},1651797957,0
{consumergroup=__strimzi-topic-operator-kstreams},1651797962,0
{consumergroup=__strimzi-topic-operator-kstreams},1651797967,0
{consumergroup=__strimzi-topic-operator-kstreams},1651797972,0
{consumergroup=__strimzi-topic-operator-kstreams},1651797977,0
{consumergroup=__strimzi-topic-operator-kstreams},1651797982,0
{consumergroup=__strimzi-topic-operator-kstreams},1651797987,0
{consumergroup=__strimzi-topic-operator-kstreams},1651797992,0
{consumergroup=__strimzi-topic-operator-kstreams},1651797997,0
{consumergroup=__strimzi-topic-operator-kstreams},1651798002,0
{consumergroup=__strimzi-topic-operator-kstreams},1651798007,0
{consumergroup=__strimzi-topic-operator-kstreams},1651798012,0
{consumergroup=__strimzi-topic-operator-kstreams},1651798017,0
{consumergroup=__strimzi-topic-operator-kstreams},1651798022,0
{consumergroup=__strimzi-topic-operator-kstreams},1651798027,0
{consumergroup=__strimzi-topic-operator-kstreams},1651798032,0
{consumergroup=__strimzi-topic-operator-kstreams},1651798037,0
{consumergroup=__strimzi-topic-operator-kstreams},1651798042,0
{consumergroup=__strimzi-topic-operator-kstreams},1651798047,0
{consumergroup=__strimzi-topic-operator-kstreams},1651798052,0
{consumergroup=__strimzi-topic-operator-kstreams},1651798057,0
{consumergroup=__strimzi-topic-operator-kstreams},1651798062,0
{consumergroup=__strimzi-topic-operator-kstreams},1651798067,0
{consumergroup=__strimzi-topic-operator-kstreams},1651798072,0
{consumergroup=__strimzi-topic-operator-kstreams},1651798077,0
{consumergroup=__strimzi-topic-operator-kstreams},1651798082,0
{consumergroup=__strimzi-topic-operator-kstreams},1651798087,0
{consumergroup=__strimzi-topic-operator-kstreams},1651798092,0
{consumergroup=__strimzi-topic-operator-kstreams},1651798097,0
{consumergroup=__strimzi-topic-operator-kstreams},1651798102,0
{consumergroup=__strimzi-topic-operator-kstreams},1651798107,0
{consumergroup=__strimzi-topic-operator-kstreams},1651798112,0
{consumergroup=__strimzi-topic-operator-kstreams},1651798117,0
{consumergroup=__strimzi-topic-operator-kstreams},1651798122,0
{consumergroup=__strimzi-topic-operator-kstreams},1651798127,0
{consumergroup=__strimzi-topic-operator-kstreams},1651798132,0
{consumergroup=__strimzi-topic-operator-kstreams},1651798137,0
{consumergroup=__strimzi-topic-operator-kstreams},1651798142,0
{consumergroup=__strimzi-topic-operator-kstreams},1651798147,0
{consumergroup=__strimzi-topic-operator-kstreams},1651798152,0
{consumergroup=__strimzi-topic-operator-kstreams},1651798157,0
{consumergroup=__strimzi-topic-operator-kstreams},1651798162,0
{consumergroup=__strimzi-topic-operator-kstreams},1651798167,0
{consumergroup=__strimzi-topic-operator-kstreams},1651798172,0
{consumergroup=__strimzi-topic-operator-kstreams},1651798177,0
{consumergroup=__strimzi-topic-operator-kstreams},1651798182,0
{consumergroup=__strimzi-topic-operator-kstreams},1651798187,0
{consumergroup=__strimzi-topic-operator-kstreams},1651798192,0
{consumergroup=__strimzi-topic-operator-kstreams},1651798197,0
{consumergroup=__strimzi-topic-operator-kstreams},1651798202,0
{consumergroup=__strimzi-topic-operator-kstreams},1651798207,0
{consumergroup=__strimzi-topic-operator-kstreams},1651798212,0
{consumergroup=__strimzi-topic-operator-kstreams},1651798217,0
{consumergroup=__strimzi-topic-operator-kstreams},1651798222,0
{consumergroup=__strimzi-topic-operator-kstreams},1651798227,0
{consumergroup=__strimzi-topic-operator-kstreams},1651798232,0
{consumergroup=__strimzi-topic-operator-kstreams},1651798237,0
{consumergroup=__strimzi-topic-operator-kstreams},1651798242,0
{consumergroup=__strimzi-topic-operator-kstreams},1651798247,0
{consumergroup=__strimzi-topic-operator-kstreams},1651798252,0
{consumergroup=__strimzi-topic-operator-kstreams},1651798257,0
{consumergroup=__strimzi-topic-operator-kstreams},1651798262,0
{consumergroup=__strimzi-topic-operator-kstreams},1651798267,0
{consumergroup=__strimzi-topic-operator-kstreams},1651798272,0
{consumergroup=__strimzi-topic-operator-kstreams},1651798277,0
{consumergroup=__strimzi-topic-operator-kstreams},1651798282,0
{consumergroup=__strimzi-topic-operator-kstreams},1651798287,0
{consumergroup=__strimzi-topic-operator-kstreams},1651798292,0
{consumergroup=__strimzi-topic-operator-kstreams},1651798297,0
{consumergroup=__strimzi-topic-operator-kstreams},1651798302,0
{consumergroup=trace-service},1651797902,250699
{consumergroup=trace-service},1651797907,250699
{consumergroup=trace-service},1651797912,250699
{consumergroup=trace-service},1651797917,369274
{consumergroup=trace-service},1651797922,369274
{consumergroup=trace-service},1651797927,369274
{consumergroup=trace-service},1651797932,262423
{consumergroup=trace-service},1651797937,262423
{consumergroup=trace-service},1651797942,262423
{consumergroup=trace-service},1651797947,502596
{consumergroup=trace-service},1651797952,502596
{consumergroup=trace-service},1651797957,502596
{consumergroup=trace-service},1651797962,392721
{consumergroup=trace-service},1651797967,392721
{consumergroup=trace-service},1651797972,392721
{consumergroup=trace-service},1651797977,608144
{consumergroup=trace-service},1651797982,608144
{consumergroup=trace-service},1651797987,608144
{consumergroup=trace-service},1651797992,352107
{consumergroup=trace-service},1651797997,352107
{consumergroup=trace-service},1651798002,352107
{consumergroup=trace-service},1651798007,601426
{consumergroup=trace-service},1651798012,601426
{consumergroup=trace-service},1651798017,601426
{consumergroup=trace-service},1651798022,284687
{consumergroup=trace-service},1651798027,284687
{consumergroup=trace-service},1651798032,284687
{consumergroup=trace-service},1651798037,560661
{consumergroup=trace-service},1651798042,560661
{consumergroup=trace-service},1651798047,560661
{consumergroup=trace-service},1651798052,245563
{consumergroup=trace-service},1651798057,245563
{consumergroup=trace-service},1651798062,245563
{consumergroup=trace-service},1651798067,691184
{consumergroup=trace-service},1651798072,691184
{consumergroup=trace-service},1651798077,691184
{consumergroup=trace-service},1651798082,258232
{consumergroup=trace-service},1651798087,258232
{consumergroup=trace-service},1651798092,258232
{consumergroup=trace-service},1651798097,682680
{consumergroup=trace-service},1651798102,682680
{consumergroup=trace-service},1651798107,682680
{consumergroup=trace-service},1651798112,217040
{consumergroup=trace-service},1651798117,217040
{consumergroup=trace-service},1651798122,217040
{consumergroup=trace-service},1651798127,558106
{consumergroup=trace-service},1651798132,558106
{consumergroup=trace-service},1651798137,558106
{consumergroup=trace-service},1651798142,1266927
{consumergroup=trace-service},1651798147,1266927
{consumergroup=trace-service},1651798152,1266927
{consumergroup=trace-service},1651798157,644857
{consumergroup=trace-service},1651798162,644857
{consumergroup=trace-service},1651798167,644857
{consumergroup=trace-service},1651798172,754627
{consumergroup=trace-service},1651798177,754627
{consumergroup=trace-service},1651798182,754627
{consumergroup=trace-service},1651798187,674013
{consumergroup=trace-service},1651798192,674013
{consumergroup=trace-service},1651798197,674013
{consumergroup=trace-service},1651798202,237737
{consumergroup=trace-service},1651798207,237737
{consumergroup=trace-service},1651798212,237737
{consumergroup=trace-service},1651798217,526271
{consumergroup=trace-service},1651798222,526271
{consumergroup=trace-service},1651798227,526271
{consumergroup=trace-service},1651798232,208491
{consumergroup=trace-service},1651798237,208491
{consumergroup=trace-service},1651798242,208491
{consumergroup=trace-service},1651798247,486187
{consumergroup=trace-service},1651798252,486187
{consumergroup=trace-service},1651798257,486187
{consumergroup=trace-service},1651798262,248043
{consumergroup=trace-service},1651798267,248043
{consumergroup=trace-service},1651798272,248043
{consumergroup=trace-service},1651798277,518508
{consumergroup=trace-service},1651798282,518508
{consumergroup=trace-service},1651798287,518508
{consumergroup=trace-service},1651798292,262252
{consumergroup=trace-service},1651798297,262252
{consumergroup=trace-service},1651798302,262252
{consumergroup=trace-token-events-consumer},1651797887,0
{consumergroup=trace-token-events-consumer},1651797892,0
{consumergroup=trace-token-events-consumer},1651797897,0
{consumergroup=trace-token-events-consumer},1651797902,0
{consumergroup=trace-token-events-consumer},1651797907,0
{consumergroup=trace-token-events-consumer},1651797912,0
{consumergroup=trace-token-events-consumer},1651797917,0
{consumergroup=trace-token-events-consumer},1651797922,0
{consumergroup=trace-token-events-consumer},1651797927,0
{consumergroup=trace-token-events-consumer},1651797932,0
{consumergroup=trace-token-events-consumer},1651797937,0
{consumergroup=trace-token-events-consumer},1651797942,0
{consumergroup=trace-token-events-consumer},1651797947,0
{consumergroup=trace-token-events-consumer},1651797952,0
{consumergroup=trace-token-events-consumer},1651797957,0
{consumergroup=trace-token-events-consumer},1651797962,0
{consumergroup=trace-token-events-consumer},1651797967,0
{consumergroup=trace-token-events-consumer},1651797972,0
{consumergroup=trace-token-events-consumer},1651797977,0
{consumergroup=trace-token-events-consumer},1651797982,0
{consumergroup=trace-token-events-consumer},1651797987,0
{consumergroup=trace-token-events-consumer},1651797992,0
{consumergroup=trace-token-events-consumer},1651797997,0
{consumergroup=trace-token-events-consumer},1651798002,0
{consumergroup=trace-token-events-consumer},1651798007,0
{consumergroup=trace-token-events-consumer},1651798012,0
{consumergroup=trace-token-events-consumer},1651798017,0
{consumergroup=trace-token-events-consumer},1651798022,0
{consumergroup=trace-token-events-consumer},1651798027,0
{consumergroup=trace-token-events-consumer},1651798032,0
{consumergroup=trace-token-events-consumer},1651798037,0
{consumergroup=trace-token-events-consumer},1651798042,0
{consumergroup=trace-token-events-consumer},1651798047,0
{consumergroup=trace-token-events-consumer},1651798052,0
{consumergroup=trace-token-events-consumer},1651798057,0
{consumergroup=trace-token-events-consumer},1651798062,0
{consumergroup=trace-token-events-consumer},1651798067,0
{consumergroup=trace-token-events-consumer},1651798072,0
{consumergroup=trace-token-events-consumer},1651798077,0
{consumergroup=trace-token-events-consumer},1651798082,0
{consumergroup=trace-token-events-consumer},1651798087,0
{consumergroup=trace-token-events-consumer},1651798092,0
{consumergroup=trace-token-events-consumer},1651798097,0
{consumergroup=trace-token-events-consumer},1651798102,0
{consumergroup=trace-token-events-consumer},1651798107,0
{consumergroup=trace-token-events-consumer},1651798112,0
{consumergroup=trace-token-events-consumer},1651798117,0
{consumergroup=trace-token-events-consumer},1651798122,0
{consumergroup=trace-token-events-consumer},1651798127,0
{consumergroup=trace-token-events-consumer},1651798132,0
{consumergroup=trace-token-events-consumer},1651798137,0
{consumergroup=trace-token-events-consumer},1651798142,0
{consumergroup=trace-token-events-consumer},1651798147,0
{consumergroup=trace-token-events-consumer},1651798152,0
{consumergroup=trace-token-events-consumer},1651798157,0
{consumergroup=trace-token-events-consumer},1651798162,0
{consumergroup=trace-token-events-consumer},1651798167,0
{consumergroup=trace-token-events-consumer},1651798172,0
{consumergroup=trace-token-events-consumer},1651798177,0
{consumergroup=trace-token-events-consumer},1651798182,0
{consumergroup=trace-token-events-consumer},1651798187,0
{consumergroup=trace-token-events-consumer},1651798192,0
{consumergroup=trace-token-events-consumer},1651798197,0
{consumergroup=trace-token-events-consumer},1651798202,0
{consumergroup=trace-token-events-consumer},1651798207,0
{consumergroup=trace-token-events-consumer},1651798212,0
{consumergroup=trace-token-events-consumer},1651798217,0
{consumergroup=trace-token-events-consumer},1651798222,0
{consumergroup=trace-token-events-consumer},1651798227,0
{consumergroup=trace-token-events-consumer},1651798232,0
{consumergroup=trace-token-events-consumer},1651798237,0
{consumergroup=trace-token-events-consumer},1651798242,0
{consumergroup=trace-token-events-consumer},1651798247,0
{consumergroup=trace-token-events-consumer},1651798252,0
{consumergroup=trace-token-events-consumer},1651798257,0
{consumergroup=trace-token-events-consumer},1651798262,0
{consumergroup=trace-token-events-consumer},1651798267,0
{consumergroup=trace-token-events-consumer},1651798272,0
{consumergroup=trace-token-events-consumer},1651798277,0
{consumergroup=trace-token-events-consumer},1651798282,0
{consumergroup=trace-token-events-consumer},1651798287,0
{consumergroup=trace-token-events-consumer},1651798292,0
{consumergroup=trace-token-events-consumer},1651798297,0
{consumergroup=trace-token-events-consumer},1651798302,0
