labels,timestamp,value
{job=theodolite-stu200776/trace-isolated-podmonitor},1651798450,0
{job=theodolite-stu200776/trace-isolated-podmonitor},1651798455,0
{job=theodolite-stu200776/trace-isolated-podmonitor},1651798460,0
{job=theodolite-stu200776/trace-isolated-podmonitor},1651798465,0
{job=theodolite-stu200776/trace-isolated-podmonitor},1651798470,0
{job=theodolite-stu200776/trace-isolated-podmonitor},1651798475,33.891239293725725
{job=theodolite-stu200776/trace-isolated-podmonitor},1651798480,74.96199232689315
{job=theodolite-stu200776/trace-isolated-podmonitor},1651798485,151.33938551419791
{job=theodolite-stu200776/trace-isolated-podmonitor},1651798490,156.12474051055807
{job=theodolite-stu200776/trace-isolated-podmonitor},1651798495,130.17402382041413
{job=theodolite-stu200776/trace-isolated-podmonitor},1651798500,120.88260137533102
{job=theodolite-stu200776/trace-isolated-podmonitor},1651798505,104.84465350903862
{job=theodolite-stu200776/trace-isolated-podmonitor},1651798510,87.61909335612573
{job=theodolite-stu200776/trace-isolated-podmonitor},1651798515,19.33912543153154
{job=theodolite-stu200776/trace-isolated-podmonitor},1651798520,0
{job=theodolite-stu200776/trace-isolated-podmonitor},1651798525,0
{job=theodolite-stu200776/trace-isolated-podmonitor},1651798530,0
{job=theodolite-stu200776/trace-isolated-podmonitor},1651798535,0
{job=theodolite-stu200776/trace-isolated-podmonitor},1651798540,0
{job=theodolite-stu200776/trace-isolated-podmonitor},1651798545,0
{job=theodolite-stu200776/trace-isolated-podmonitor},1651798550,0
{job=theodolite-stu200776/trace-isolated-podmonitor},1651798555,0
{job=theodolite-stu200776/trace-isolated-podmonitor},1651798560,0
{job=theodolite-stu200776/trace-isolated-podmonitor},1651798565,0
{job=theodolite-stu200776/trace-isolated-podmonitor},1651798570,0
{job=theodolite-stu200776/trace-isolated-podmonitor},1651798575,0
{job=theodolite-stu200776/trace-isolated-podmonitor},1651798580,0
{job=theodolite-stu200776/trace-isolated-podmonitor},1651798585,0
{job=theodolite-stu200776/trace-isolated-podmonitor},1651798590,0
{job=theodolite-stu200776/trace-isolated-podmonitor},1651798595,0
{job=theodolite-stu200776/trace-isolated-podmonitor},1651798600,0
{job=theodolite-stu200776/trace-isolated-podmonitor},1651798605,0
{job=theodolite-stu200776/trace-isolated-podmonitor},1651798610,0
{job=theodolite-stu200776/trace-isolated-podmonitor},1651798615,0
{job=theodolite-stu200776/trace-isolated-podmonitor},1651798620,0
{job=theodolite-stu200776/trace-isolated-podmonitor},1651798625,0
{job=theodolite-stu200776/trace-isolated-podmonitor},1651798630,0
{job=theodolite-stu200776/trace-isolated-podmonitor},1651798635,0
{job=theodolite-stu200776/trace-isolated-podmonitor},1651798640,0
{job=theodolite-stu200776/trace-isolated-podmonitor},1651798645,0
{job=theodolite-stu200776/trace-isolated-podmonitor},1651798650,0
{job=theodolite-stu200776/trace-isolated-podmonitor},1651798655,0
{job=theodolite-stu200776/trace-isolated-podmonitor},1651798660,0
{job=theodolite-stu200776/trace-isolated-podmonitor},1651798665,0
{job=theodolite-stu200776/trace-isolated-podmonitor},1651798670,0
{job=theodolite-stu200776/trace-isolated-podmonitor},1651798675,0
{job=theodolite-stu200776/trace-isolated-podmonitor},1651798680,0
{job=theodolite-stu200776/trace-isolated-podmonitor},1651798685,0
{job=theodolite-stu200776/trace-isolated-podmonitor},1651798690,0
{job=theodolite-stu200776/trace-isolated-podmonitor},1651798695,0
{job=theodolite-stu200776/trace-isolated-podmonitor},1651798700,0
{job=theodolite-stu200776/trace-isolated-podmonitor},1651798705,0
{job=theodolite-stu200776/trace-isolated-podmonitor},1651798710,0
{job=theodolite-stu200776/trace-isolated-podmonitor},1651798715,0
{job=theodolite-stu200776/trace-isolated-podmonitor},1651798720,0
{job=theodolite-stu200776/trace-isolated-podmonitor},1651798725,0
{job=theodolite-stu200776/trace-isolated-podmonitor},1651798730,0
{job=theodolite-stu200776/trace-isolated-podmonitor},1651798735,0
{job=theodolite-stu200776/trace-isolated-podmonitor},1651798740,0
{job=theodolite-stu200776/trace-isolated-podmonitor},1651798745,0
{job=theodolite-stu200776/trace-isolated-podmonitor},1651798750,0
{job=theodolite-stu200776/trace-isolated-podmonitor},1651798755,0
{job=theodolite-stu200776/trace-isolated-podmonitor},1651798760,0
{job=theodolite-stu200776/trace-isolated-podmonitor},1651798765,0
{job=theodolite-stu200776/trace-isolated-podmonitor},1651798770,0
{job=theodolite-stu200776/trace-isolated-podmonitor},1651798775,0
{job=theodolite-stu200776/trace-isolated-podmonitor},1651798780,0
{job=theodolite-stu200776/trace-isolated-podmonitor},1651798785,0
{job=theodolite-stu200776/trace-isolated-podmonitor},1651798790,0
{job=theodolite-stu200776/trace-isolated-podmonitor},1651798795,0
{job=theodolite-stu200776/trace-isolated-podmonitor},1651798800,0
{job=theodolite-stu200776/trace-isolated-podmonitor},1651798805,0
{job=theodolite-stu200776/trace-isolated-podmonitor},1651798810,0
{job=theodolite-stu200776/trace-isolated-podmonitor},1651798815,0
{job=theodolite-stu200776/trace-isolated-podmonitor},1651798820,0
{job=theodolite-stu200776/trace-isolated-podmonitor},1651798825,0
