labels,timestamp,value
{job=theodolite-stu200776/trace-isolated-podmonitor},1651786646,0
{job=theodolite-stu200776/trace-isolated-podmonitor},1651786651,0
{job=theodolite-stu200776/trace-isolated-podmonitor},1651786656,0
{job=theodolite-stu200776/trace-isolated-podmonitor},1651786661,0
{job=theodolite-stu200776/trace-isolated-podmonitor},1651786666,0
{job=theodolite-stu200776/trace-isolated-podmonitor},1651786671,0
{job=theodolite-stu200776/trace-isolated-podmonitor},1651786676,0
{job=theodolite-stu200776/trace-isolated-podmonitor},1651786681,0
{job=theodolite-stu200776/trace-isolated-podmonitor},1651786686,0
{job=theodolite-stu200776/trace-isolated-podmonitor},1651786691,0
{job=theodolite-stu200776/trace-isolated-podmonitor},1651786696,0
{job=theodolite-stu200776/trace-isolated-podmonitor},1651786701,0
{job=theodolite-stu200776/trace-isolated-podmonitor},1651786706,0
{job=theodolite-stu200776/trace-isolated-podmonitor},1651786711,0
{job=theodolite-stu200776/trace-isolated-podmonitor},1651786716,0
{job=theodolite-stu200776/trace-isolated-podmonitor},1651786721,0
{job=theodolite-stu200776/trace-isolated-podmonitor},1651786726,0
{job=theodolite-stu200776/trace-isolated-podmonitor},1651786731,0
{job=theodolite-stu200776/trace-isolated-podmonitor},1651786736,0
{job=theodolite-stu200776/trace-isolated-podmonitor},1651786741,0
{job=theodolite-stu200776/trace-isolated-podmonitor},1651786746,0
{job=theodolite-stu200776/trace-isolated-podmonitor},1651786751,0
{job=theodolite-stu200776/trace-isolated-podmonitor},1651786756,0
{job=theodolite-stu200776/trace-isolated-podmonitor},1651786761,0
{job=theodolite-stu200776/trace-isolated-podmonitor},1651786766,0
{job=theodolite-stu200776/trace-isolated-podmonitor},1651786771,0
{job=theodolite-stu200776/trace-isolated-podmonitor},1651786776,0
{job=theodolite-stu200776/trace-isolated-podmonitor},1651786781,0
{job=theodolite-stu200776/trace-isolated-podmonitor},1651786786,0
{job=theodolite-stu200776/trace-isolated-podmonitor},1651786791,0
{job=theodolite-stu200776/trace-isolated-podmonitor},1651786796,0
{job=theodolite-stu200776/trace-isolated-podmonitor},1651786801,0
{job=theodolite-stu200776/trace-isolated-podmonitor},1651786806,0
{job=theodolite-stu200776/trace-isolated-podmonitor},1651786811,0
{job=theodolite-stu200776/trace-isolated-podmonitor},1651786816,0
{job=theodolite-stu200776/trace-isolated-podmonitor},1651786821,0
{job=theodolite-stu200776/trace-isolated-podmonitor},1651786826,0
{job=theodolite-stu200776/trace-isolated-podmonitor},1651786831,0
{job=theodolite-stu200776/trace-isolated-podmonitor},1651786836,0
{job=theodolite-stu200776/trace-isolated-podmonitor},1651786841,0
{job=theodolite-stu200776/trace-isolated-podmonitor},1651786846,0
{job=theodolite-stu200776/trace-isolated-podmonitor},1651786851,0
{job=theodolite-stu200776/trace-isolated-podmonitor},1651786856,0
{job=theodolite-stu200776/trace-isolated-podmonitor},1651786861,0
{job=theodolite-stu200776/trace-isolated-podmonitor},1651786866,217.53337215643825
{job=theodolite-stu200776/trace-isolated-podmonitor},1651786871,608.6816454884967
{job=theodolite-stu200776/trace-isolated-podmonitor},1651786876,710.4911923829709
{job=theodolite-stu200776/trace-isolated-podmonitor},1651786881,739.2904406150078
{job=theodolite-stu200776/trace-isolated-podmonitor},1651786886,754.9213708070555
{job=theodolite-stu200776/trace-isolated-podmonitor},1651786891,698.4910875995045
{job=theodolite-stu200776/trace-isolated-podmonitor},1651786896,1659.2012769034234
{job=theodolite-stu200776/trace-isolated-podmonitor},1651786901,3494.4919862501583
{job=theodolite-stu200776/trace-isolated-podmonitor},1651786906,3675.4107285372766
{job=theodolite-stu200776/trace-isolated-podmonitor},1651786911,3378.216094264835
{job=theodolite-stu200776/trace-isolated-podmonitor},1651786916,3249.4558710415486
{job=theodolite-stu200776/trace-isolated-podmonitor},1651786921,2984.911220167476
{job=theodolite-stu200776/trace-isolated-podmonitor},1651786926,3401.9530641867505
{job=theodolite-stu200776/trace-isolated-podmonitor},1651786931,4087.974850533328
{job=theodolite-stu200776/trace-isolated-podmonitor},1651786936,3878.271945359538
{job=theodolite-stu200776/trace-isolated-podmonitor},1651786941,3384.9847962518566
{job=theodolite-stu200776/trace-isolated-podmonitor},1651786946,3006.0638902553655
{job=theodolite-stu200776/trace-isolated-podmonitor},1651786951,2608.642293459401
{job=theodolite-stu200776/trace-isolated-podmonitor},1651786956,1688.0351642207793
{job=theodolite-stu200776/trace-isolated-podmonitor},1651786961,255.65346122107923
{job=theodolite-stu200776/trace-isolated-podmonitor},1651786966,0
{job=theodolite-stu200776/trace-isolated-podmonitor},1651786971,0
{job=theodolite-stu200776/trace-isolated-podmonitor},1651786976,0
{job=theodolite-stu200776/trace-isolated-podmonitor},1651786981,0
{job=theodolite-stu200776/trace-isolated-podmonitor},1651786986,1560.8925719748595
{job=theodolite-stu200776/trace-isolated-podmonitor},1651786991,4246.647612017399
{job=theodolite-stu200776/trace-isolated-podmonitor},1651786996,4693.346585632744
{job=theodolite-stu200776/trace-isolated-podmonitor},1651787001,4429.5215559035105
{job=theodolite-stu200776/trace-isolated-podmonitor},1651787006,4095.526952472946
{job=theodolite-stu200776/trace-isolated-podmonitor},1651787011,3739.6937888062494
{job=theodolite-stu200776/trace-isolated-podmonitor},1651787016,3856.281981796056
{job=theodolite-stu200776/trace-isolated-podmonitor},1651787021,3875.2114197204332
