labels,timestamp,value
{consumergroup=__strimzi-topic-operator-kstreams},1651948385,3
{consumergroup=__strimzi-topic-operator-kstreams},1651948390,3
{consumergroup=__strimzi-topic-operator-kstreams},1651948395,3
{consumergroup=__strimzi-topic-operator-kstreams},1651948400,8
{consumergroup=__strimzi-topic-operator-kstreams},1651948405,8
{consumergroup=__strimzi-topic-operator-kstreams},1651948410,8
{consumergroup=__strimzi-topic-operator-kstreams},1651948415,11
{consumergroup=__strimzi-topic-operator-kstreams},1651948420,11
{consumergroup=__strimzi-topic-operator-kstreams},1651948425,11
{consumergroup=__strimzi-topic-operator-kstreams},1651948430,0
{consumergroup=__strimzi-topic-operator-kstreams},1651948435,0
{consumergroup=__strimzi-topic-operator-kstreams},1651948440,0
{consumergroup=__strimzi-topic-operator-kstreams},1651948445,0
{consumergroup=__strimzi-topic-operator-kstreams},1651948450,0
{consumergroup=__strimzi-topic-operator-kstreams},1651948455,0
{consumergroup=__strimzi-topic-operator-kstreams},1651948460,0
{consumergroup=__strimzi-topic-operator-kstreams},1651948465,0
{consumergroup=__strimzi-topic-operator-kstreams},1651948470,0
{consumergroup=__strimzi-topic-operator-kstreams},1651948475,0
{consumergroup=__strimzi-topic-operator-kstreams},1651948480,0
{consumergroup=__strimzi-topic-operator-kstreams},1651948485,0
{consumergroup=__strimzi-topic-operator-kstreams},1651948490,0
{consumergroup=__strimzi-topic-operator-kstreams},1651948495,0
{consumergroup=__strimzi-topic-operator-kstreams},1651948500,0
{consumergroup=__strimzi-topic-operator-kstreams},1651948505,0
{consumergroup=__strimzi-topic-operator-kstreams},1651948510,0
{consumergroup=__strimzi-topic-operator-kstreams},1651948515,0
{consumergroup=__strimzi-topic-operator-kstreams},1651948520,0
{consumergroup=__strimzi-topic-operator-kstreams},1651948525,0
{consumergroup=__strimzi-topic-operator-kstreams},1651948530,0
{consumergroup=__strimzi-topic-operator-kstreams},1651948535,0
{consumergroup=__strimzi-topic-operator-kstreams},1651948540,0
{consumergroup=__strimzi-topic-operator-kstreams},1651948545,0
{consumergroup=__strimzi-topic-operator-kstreams},1651948550,0
{consumergroup=__strimzi-topic-operator-kstreams},1651948555,0
{consumergroup=__strimzi-topic-operator-kstreams},1651948560,0
{consumergroup=__strimzi-topic-operator-kstreams},1651948565,0
{consumergroup=__strimzi-topic-operator-kstreams},1651948570,0
{consumergroup=__strimzi-topic-operator-kstreams},1651948575,0
{consumergroup=__strimzi-topic-operator-kstreams},1651948580,0
{consumergroup=__strimzi-topic-operator-kstreams},1651948585,0
{consumergroup=__strimzi-topic-operator-kstreams},1651948590,0
{consumergroup=__strimzi-topic-operator-kstreams},1651948595,0
{consumergroup=__strimzi-topic-operator-kstreams},1651948600,0
{consumergroup=__strimzi-topic-operator-kstreams},1651948605,0
{consumergroup=__strimzi-topic-operator-kstreams},1651948610,0
{consumergroup=__strimzi-topic-operator-kstreams},1651948615,0
{consumergroup=__strimzi-topic-operator-kstreams},1651948620,0
{consumergroup=__strimzi-topic-operator-kstreams},1651948625,0
{consumergroup=__strimzi-topic-operator-kstreams},1651948630,0
{consumergroup=__strimzi-topic-operator-kstreams},1651948635,0
{consumergroup=__strimzi-topic-operator-kstreams},1651948640,0
{consumergroup=__strimzi-topic-operator-kstreams},1651948645,0
{consumergroup=__strimzi-topic-operator-kstreams},1651948650,0
{consumergroup=__strimzi-topic-operator-kstreams},1651948655,0
{consumergroup=__strimzi-topic-operator-kstreams},1651948660,0
{consumergroup=__strimzi-topic-operator-kstreams},1651948665,0
{consumergroup=__strimzi-topic-operator-kstreams},1651948670,0
{consumergroup=__strimzi-topic-operator-kstreams},1651948675,0
{consumergroup=__strimzi-topic-operator-kstreams},1651948680,0
{consumergroup=__strimzi-topic-operator-kstreams},1651948685,0
{consumergroup=__strimzi-topic-operator-kstreams},1651948690,0
{consumergroup=__strimzi-topic-operator-kstreams},1651948695,0
{consumergroup=__strimzi-topic-operator-kstreams},1651948700,0
{consumergroup=__strimzi-topic-operator-kstreams},1651948705,0
{consumergroup=__strimzi-topic-operator-kstreams},1651948710,0
{consumergroup=__strimzi-topic-operator-kstreams},1651948715,0
{consumergroup=__strimzi-topic-operator-kstreams},1651948720,0
{consumergroup=__strimzi-topic-operator-kstreams},1651948725,0
{consumergroup=__strimzi-topic-operator-kstreams},1651948730,0
{consumergroup=__strimzi-topic-operator-kstreams},1651948735,0
{consumergroup=__strimzi-topic-operator-kstreams},1651948740,0
{consumergroup=__strimzi-topic-operator-kstreams},1651948745,0
{consumergroup=__strimzi-topic-operator-kstreams},1651948750,0
{consumergroup=__strimzi-topic-operator-kstreams},1651948755,0
{consumergroup=__strimzi-topic-operator-kstreams},1651948760,0
{consumergroup=__strimzi-topic-operator-kstreams},1651948765,0
{consumergroup=__strimzi-topic-operator-kstreams},1651948770,0
{consumergroup=__strimzi-topic-operator-kstreams},1651948775,0
{consumergroup=__strimzi-topic-operator-kstreams},1651948780,0
{consumergroup=__strimzi-topic-operator-kstreams},1651948785,0
{consumergroup=__strimzi-topic-operator-kstreams},1651948790,0
{consumergroup=__strimzi-topic-operator-kstreams},1651948795,0
{consumergroup=__strimzi-topic-operator-kstreams},1651948800,0
{consumergroup=__strimzi-topic-operator-kstreams},1651948805,0
{consumergroup=__strimzi-topic-operator-kstreams},1651948810,0
{consumergroup=__strimzi-topic-operator-kstreams},1651948815,0
{consumergroup=__strimzi-topic-operator-kstreams},1651948820,0
{consumergroup=__strimzi-topic-operator-kstreams},1651948825,0
{consumergroup=__strimzi-topic-operator-kstreams},1651948830,0
{consumergroup=__strimzi-topic-operator-kstreams},1651948835,0
{consumergroup=__strimzi-topic-operator-kstreams},1651948840,0
{consumergroup=adapter-service},1651948430,0
{consumergroup=adapter-service},1651948435,0
{consumergroup=adapter-service},1651948440,0
{consumergroup=adapter-service},1651948445,9449
{consumergroup=adapter-service},1651948450,9449
{consumergroup=adapter-service},1651948455,9449
{consumergroup=adapter-service},1651948460,12466
{consumergroup=adapter-service},1651948465,12466
{consumergroup=adapter-service},1651948470,12466
{consumergroup=adapter-service},1651948475,9820
{consumergroup=adapter-service},1651948480,9820
{consumergroup=adapter-service},1651948485,9820
{consumergroup=adapter-service},1651948490,12108
{consumergroup=adapter-service},1651948495,12108
{consumergroup=adapter-service},1651948500,12108
{consumergroup=adapter-service},1651948505,9246
{consumergroup=adapter-service},1651948510,9246
{consumergroup=adapter-service},1651948515,9246
{consumergroup=adapter-service},1651948520,10639
{consumergroup=adapter-service},1651948525,10639
{consumergroup=adapter-service},1651948530,10639
{consumergroup=adapter-service},1651948535,7897
{consumergroup=adapter-service},1651948540,7897
{consumergroup=adapter-service},1651948545,7897
{consumergroup=adapter-service},1651948550,10876
{consumergroup=adapter-service},1651948555,10876
{consumergroup=adapter-service},1651948560,10876
{consumergroup=adapter-service},1651948565,7491
{consumergroup=adapter-service},1651948570,7491
{consumergroup=adapter-service},1651948575,7491
{consumergroup=adapter-service},1651948580,10514
{consumergroup=adapter-service},1651948585,10514
{consumergroup=adapter-service},1651948590,10514
{consumergroup=adapter-service},1651948595,6892
{consumergroup=adapter-service},1651948600,6892
{consumergroup=adapter-service},1651948605,6892
{consumergroup=adapter-service},1651948610,9810
{consumergroup=adapter-service},1651948615,9810
{consumergroup=adapter-service},1651948620,9810
{consumergroup=adapter-service},1651948625,6490
{consumergroup=adapter-service},1651948630,6490
{consumergroup=adapter-service},1651948635,6490
{consumergroup=adapter-service},1651948640,9409
{consumergroup=adapter-service},1651948645,9409
{consumergroup=adapter-service},1651948650,9409
{consumergroup=adapter-service},1651948655,6880
{consumergroup=adapter-service},1651948660,6880
{consumergroup=adapter-service},1651948665,6880
{consumergroup=adapter-service},1651948670,8109
{consumergroup=adapter-service},1651948675,8109
{consumergroup=adapter-service},1651948680,8109
{consumergroup=adapter-service},1651948685,5564
{consumergroup=adapter-service},1651948690,5564
{consumergroup=adapter-service},1651948695,5564
{consumergroup=adapter-service},1651948700,8434
{consumergroup=adapter-service},1651948705,8434
{consumergroup=adapter-service},1651948710,8434
{consumergroup=adapter-service},1651948715,5256
{consumergroup=adapter-service},1651948720,5256
{consumergroup=adapter-service},1651948725,5256
{consumergroup=adapter-service},1651948730,7303
{consumergroup=adapter-service},1651948735,7303
{consumergroup=adapter-service},1651948740,7303
{consumergroup=adapter-service},1651948745,4823
{consumergroup=adapter-service},1651948750,4823
{consumergroup=adapter-service},1651948755,4823
{consumergroup=adapter-service},1651948760,7700
{consumergroup=adapter-service},1651948765,7700
{consumergroup=adapter-service},1651948770,7700
{consumergroup=adapter-service},1651948775,4250
{consumergroup=adapter-service},1651948780,4250
{consumergroup=adapter-service},1651948785,4250
{consumergroup=adapter-service},1651948790,6378
{consumergroup=adapter-service},1651948795,6378
{consumergroup=adapter-service},1651948800,6378
{consumergroup=adapter-service},1651948805,6600
{consumergroup=adapter-service},1651948810,6600
{consumergroup=adapter-service},1651948815,6600
{consumergroup=adapter-service},1651948820,5820
{consumergroup=adapter-service},1651948825,5820
{consumergroup=adapter-service},1651948830,5820
{consumergroup=adapter-service},1651948835,3838
{consumergroup=adapter-service},1651948840,3838
{consumergroup=landscape-service},1651948445,11613
{consumergroup=landscape-service},1651948450,11613
{consumergroup=landscape-service},1651948455,11613
{consumergroup=landscape-service},1651948460,13890
{consumergroup=landscape-service},1651948465,13890
{consumergroup=landscape-service},1651948470,13890
{consumergroup=landscape-service},1651948475,11329
{consumergroup=landscape-service},1651948480,11329
{consumergroup=landscape-service},1651948485,11329
{consumergroup=landscape-service},1651948490,12947
{consumergroup=landscape-service},1651948495,12947
{consumergroup=landscape-service},1651948500,12947
{consumergroup=landscape-service},1651948505,10258
{consumergroup=landscape-service},1651948510,10258
{consumergroup=landscape-service},1651948515,10258
{consumergroup=landscape-service},1651948520,12862
{consumergroup=landscape-service},1651948525,12862
{consumergroup=landscape-service},1651948530,12862
{consumergroup=landscape-service},1651948535,10323
{consumergroup=landscape-service},1651948540,10323
{consumergroup=landscape-service},1651948545,10323
{consumergroup=landscape-service},1651948550,12515
{consumergroup=landscape-service},1651948555,12515
{consumergroup=landscape-service},1651948560,12515
{consumergroup=landscape-service},1651948565,10870
{consumergroup=landscape-service},1651948570,10870
{consumergroup=landscape-service},1651948575,10870
{consumergroup=landscape-service},1651948580,13215
{consumergroup=landscape-service},1651948585,13215
{consumergroup=landscape-service},1651948590,13215
{consumergroup=landscape-service},1651948595,9780
{consumergroup=landscape-service},1651948600,9780
{consumergroup=landscape-service},1651948605,9780
{consumergroup=landscape-service},1651948610,12880
{consumergroup=landscape-service},1651948615,12880
{consumergroup=landscape-service},1651948620,12880
{consumergroup=landscape-service},1651948625,10503
{consumergroup=landscape-service},1651948630,10503
{consumergroup=landscape-service},1651948635,10503
{consumergroup=landscape-service},1651948640,12001
{consumergroup=landscape-service},1651948645,12001
{consumergroup=landscape-service},1651948650,12001
{consumergroup=landscape-service},1651948655,9542
{consumergroup=landscape-service},1651948660,9542
{consumergroup=landscape-service},1651948665,9542
{consumergroup=landscape-service},1651948670,11823
{consumergroup=landscape-service},1651948675,11823
{consumergroup=landscape-service},1651948680,11823
{consumergroup=landscape-service},1651948685,10182
{consumergroup=landscape-service},1651948690,10182
{consumergroup=landscape-service},1651948695,10182
{consumergroup=landscape-service},1651948700,12387
{consumergroup=landscape-service},1651948705,12387
{consumergroup=landscape-service},1651948710,12387
{consumergroup=landscape-service},1651948715,9255
{consumergroup=landscape-service},1651948720,9255
{consumergroup=landscape-service},1651948725,9255
{consumergroup=landscape-service},1651948730,11613
{consumergroup=landscape-service},1651948735,11613
{consumergroup=landscape-service},1651948740,11613
{consumergroup=landscape-service},1651948745,9269
{consumergroup=landscape-service},1651948750,9269
{consumergroup=landscape-service},1651948755,9269
{consumergroup=landscape-service},1651948760,11585
{consumergroup=landscape-service},1651948765,11585
{consumergroup=landscape-service},1651948770,11585
{consumergroup=landscape-service},1651948775,9619
{consumergroup=landscape-service},1651948780,9619
{consumergroup=landscape-service},1651948785,9619
{consumergroup=landscape-service},1651948790,11339
{consumergroup=landscape-service},1651948795,11339
{consumergroup=landscape-service},1651948800,11339
{consumergroup=landscape-service},1651948805,12686
{consumergroup=landscape-service},1651948810,12686
{consumergroup=landscape-service},1651948815,12686
{consumergroup=landscape-service},1651948820,11317
{consumergroup=landscape-service},1651948825,11317
{consumergroup=landscape-service},1651948830,11317
{consumergroup=landscape-service},1651948835,8588
{consumergroup=landscape-service},1651948840,8588
{consumergroup=landscape-token-events-consumer},1651948430,0
{consumergroup=landscape-token-events-consumer},1651948435,0
{consumergroup=landscape-token-events-consumer},1651948440,0
{consumergroup=landscape-token-events-consumer},1651948445,0
{consumergroup=landscape-token-events-consumer},1651948450,0
{consumergroup=landscape-token-events-consumer},1651948455,0
{consumergroup=landscape-token-events-consumer},1651948460,0
{consumergroup=landscape-token-events-consumer},1651948465,0
{consumergroup=landscape-token-events-consumer},1651948470,0
{consumergroup=landscape-token-events-consumer},1651948475,0
{consumergroup=landscape-token-events-consumer},1651948480,0
{consumergroup=landscape-token-events-consumer},1651948485,0
{consumergroup=landscape-token-events-consumer},1651948490,0
{consumergroup=landscape-token-events-consumer},1651948495,0
{consumergroup=landscape-token-events-consumer},1651948500,0
{consumergroup=landscape-token-events-consumer},1651948505,0
{consumergroup=landscape-token-events-consumer},1651948510,0
{consumergroup=landscape-token-events-consumer},1651948515,0
{consumergroup=landscape-token-events-consumer},1651948520,0
{consumergroup=landscape-token-events-consumer},1651948525,0
{consumergroup=landscape-token-events-consumer},1651948530,0
{consumergroup=landscape-token-events-consumer},1651948535,0
{consumergroup=landscape-token-events-consumer},1651948540,0
{consumergroup=landscape-token-events-consumer},1651948545,0
{consumergroup=landscape-token-events-consumer},1651948550,0
{consumergroup=landscape-token-events-consumer},1651948555,0
{consumergroup=landscape-token-events-consumer},1651948560,0
{consumergroup=landscape-token-events-consumer},1651948565,0
{consumergroup=landscape-token-events-consumer},1651948570,0
{consumergroup=landscape-token-events-consumer},1651948575,0
{consumergroup=landscape-token-events-consumer},1651948580,0
{consumergroup=landscape-token-events-consumer},1651948585,0
{consumergroup=landscape-token-events-consumer},1651948590,0
{consumergroup=landscape-token-events-consumer},1651948595,0
{consumergroup=landscape-token-events-consumer},1651948600,0
{consumergroup=landscape-token-events-consumer},1651948605,0
{consumergroup=landscape-token-events-consumer},1651948610,0
{consumergroup=landscape-token-events-consumer},1651948615,0
{consumergroup=landscape-token-events-consumer},1651948620,0
{consumergroup=landscape-token-events-consumer},1651948625,0
{consumergroup=landscape-token-events-consumer},1651948630,0
{consumergroup=landscape-token-events-consumer},1651948635,0
{consumergroup=landscape-token-events-consumer},1651948640,0
{consumergroup=landscape-token-events-consumer},1651948645,0
{consumergroup=landscape-token-events-consumer},1651948650,0
{consumergroup=landscape-token-events-consumer},1651948655,0
{consumergroup=landscape-token-events-consumer},1651948660,0
{consumergroup=landscape-token-events-consumer},1651948665,0
{consumergroup=landscape-token-events-consumer},1651948670,0
{consumergroup=landscape-token-events-consumer},1651948675,0
{consumergroup=landscape-token-events-consumer},1651948680,0
{consumergroup=landscape-token-events-consumer},1651948685,0
{consumergroup=landscape-token-events-consumer},1651948690,0
{consumergroup=landscape-token-events-consumer},1651948695,0
{consumergroup=landscape-token-events-consumer},1651948700,0
{consumergroup=landscape-token-events-consumer},1651948705,0
{consumergroup=landscape-token-events-consumer},1651948710,0
{consumergroup=landscape-token-events-consumer},1651948715,0
{consumergroup=landscape-token-events-consumer},1651948720,0
{consumergroup=landscape-token-events-consumer},1651948725,0
{consumergroup=landscape-token-events-consumer},1651948730,0
{consumergroup=landscape-token-events-consumer},1651948735,0
{consumergroup=landscape-token-events-consumer},1651948740,0
{consumergroup=landscape-token-events-consumer},1651948745,0
{consumergroup=landscape-token-events-consumer},1651948750,0
{consumergroup=landscape-token-events-consumer},1651948755,0
{consumergroup=landscape-token-events-consumer},1651948760,0
{consumergroup=landscape-token-events-consumer},1651948765,0
{consumergroup=landscape-token-events-consumer},1651948770,0
{consumergroup=landscape-token-events-consumer},1651948775,0
{consumergroup=landscape-token-events-consumer},1651948780,0
{consumergroup=landscape-token-events-consumer},1651948785,0
{consumergroup=landscape-token-events-consumer},1651948790,0
{consumergroup=landscape-token-events-consumer},1651948795,0
{consumergroup=landscape-token-events-consumer},1651948800,0
{consumergroup=landscape-token-events-consumer},1651948805,0
{consumergroup=landscape-token-events-consumer},1651948810,0
{consumergroup=landscape-token-events-consumer},1651948815,0
{consumergroup=landscape-token-events-consumer},1651948820,0
{consumergroup=landscape-token-events-consumer},1651948825,0
{consumergroup=landscape-token-events-consumer},1651948830,0
{consumergroup=landscape-token-events-consumer},1651948835,0
{consumergroup=landscape-token-events-consumer},1651948840,0
{consumergroup=trace-service},1651948445,17620
{consumergroup=trace-service},1651948450,17620
{consumergroup=trace-service},1651948455,17620
{consumergroup=trace-service},1651948460,63946
{consumergroup=trace-service},1651948465,63946
{consumergroup=trace-service},1651948470,63946
{consumergroup=trace-service},1651948475,18688
{consumergroup=trace-service},1651948480,18688
{consumergroup=trace-service},1651948485,18688
{consumergroup=trace-service},1651948490,68040
{consumergroup=trace-service},1651948495,68040
{consumergroup=trace-service},1651948500,68040
{consumergroup=trace-service},1651948505,23927
{consumergroup=trace-service},1651948510,23927
{consumergroup=trace-service},1651948515,23927
{consumergroup=trace-service},1651948520,81429
{consumergroup=trace-service},1651948525,81429
{consumergroup=trace-service},1651948530,81429
{consumergroup=trace-service},1651948535,25972
{consumergroup=trace-service},1651948540,25972
{consumergroup=trace-service},1651948545,25972
{consumergroup=trace-service},1651948550,76090
{consumergroup=trace-service},1651948555,76090
{consumergroup=trace-service},1651948560,76090
{consumergroup=trace-service},1651948565,22090
{consumergroup=trace-service},1651948570,22090
{consumergroup=trace-service},1651948575,22090
{consumergroup=trace-service},1651948580,62345
{consumergroup=trace-service},1651948585,62345
{consumergroup=trace-service},1651948590,62345
{consumergroup=trace-service},1651948595,24253
{consumergroup=trace-service},1651948600,24253
{consumergroup=trace-service},1651948605,24253
{consumergroup=trace-service},1651948610,71777
{consumergroup=trace-service},1651948615,71777
{consumergroup=trace-service},1651948620,71777
{consumergroup=trace-service},1651948625,26215
{consumergroup=trace-service},1651948630,26215
{consumergroup=trace-service},1651948635,26215
{consumergroup=trace-service},1651948640,72474
{consumergroup=trace-service},1651948645,72474
{consumergroup=trace-service},1651948650,72474
{consumergroup=trace-service},1651948655,23537
{consumergroup=trace-service},1651948660,23537
{consumergroup=trace-service},1651948665,23537
{consumergroup=trace-service},1651948670,63692
{consumergroup=trace-service},1651948675,63692
{consumergroup=trace-service},1651948680,63692
{consumergroup=trace-service},1651948685,23542
{consumergroup=trace-service},1651948690,23542
{consumergroup=trace-service},1651948695,23542
{consumergroup=trace-service},1651948700,79012
{consumergroup=trace-service},1651948705,79012
{consumergroup=trace-service},1651948710,79012
{consumergroup=trace-service},1651948715,25835
{consumergroup=trace-service},1651948720,25835
{consumergroup=trace-service},1651948725,25835
{consumergroup=trace-service},1651948730,83770
{consumergroup=trace-service},1651948735,83770
{consumergroup=trace-service},1651948740,83770
{consumergroup=trace-service},1651948745,28511
{consumergroup=trace-service},1651948750,28511
{consumergroup=trace-service},1651948755,28511
{consumergroup=trace-service},1651948760,82594
{consumergroup=trace-service},1651948765,82594
{consumergroup=trace-service},1651948770,82594
{consumergroup=trace-service},1651948775,26964
{consumergroup=trace-service},1651948780,26964
{consumergroup=trace-service},1651948785,26964
{consumergroup=trace-service},1651948790,79631
{consumergroup=trace-service},1651948795,79631
{consumergroup=trace-service},1651948800,79631
{consumergroup=trace-service},1651948805,29889
{consumergroup=trace-service},1651948810,29889
{consumergroup=trace-service},1651948815,29889
{consumergroup=trace-service},1651948820,82805
{consumergroup=trace-service},1651948825,82805
{consumergroup=trace-service},1651948830,82805
{consumergroup=trace-service},1651948835,24741
{consumergroup=trace-service},1651948840,24741
{consumergroup=trace-token-events-consumer},1651948430,0
{consumergroup=trace-token-events-consumer},1651948435,0
{consumergroup=trace-token-events-consumer},1651948440,0
{consumergroup=trace-token-events-consumer},1651948445,0
{consumergroup=trace-token-events-consumer},1651948450,0
{consumergroup=trace-token-events-consumer},1651948455,0
{consumergroup=trace-token-events-consumer},1651948460,0
{consumergroup=trace-token-events-consumer},1651948465,0
{consumergroup=trace-token-events-consumer},1651948470,0
{consumergroup=trace-token-events-consumer},1651948475,0
{consumergroup=trace-token-events-consumer},1651948480,0
{consumergroup=trace-token-events-consumer},1651948485,0
{consumergroup=trace-token-events-consumer},1651948490,0
{consumergroup=trace-token-events-consumer},1651948495,0
{consumergroup=trace-token-events-consumer},1651948500,0
{consumergroup=trace-token-events-consumer},1651948505,0
{consumergroup=trace-token-events-consumer},1651948510,0
{consumergroup=trace-token-events-consumer},1651948515,0
{consumergroup=trace-token-events-consumer},1651948520,0
{consumergroup=trace-token-events-consumer},1651948525,0
{consumergroup=trace-token-events-consumer},1651948530,0
{consumergroup=trace-token-events-consumer},1651948535,0
{consumergroup=trace-token-events-consumer},1651948540,0
{consumergroup=trace-token-events-consumer},1651948545,0
{consumergroup=trace-token-events-consumer},1651948550,0
{consumergroup=trace-token-events-consumer},1651948555,0
{consumergroup=trace-token-events-consumer},1651948560,0
{consumergroup=trace-token-events-consumer},1651948565,0
{consumergroup=trace-token-events-consumer},1651948570,0
{consumergroup=trace-token-events-consumer},1651948575,0
{consumergroup=trace-token-events-consumer},1651948580,0
{consumergroup=trace-token-events-consumer},1651948585,0
{consumergroup=trace-token-events-consumer},1651948590,0
{consumergroup=trace-token-events-consumer},1651948595,0
{consumergroup=trace-token-events-consumer},1651948600,0
{consumergroup=trace-token-events-consumer},1651948605,0
{consumergroup=trace-token-events-consumer},1651948610,0
{consumergroup=trace-token-events-consumer},1651948615,0
{consumergroup=trace-token-events-consumer},1651948620,0
{consumergroup=trace-token-events-consumer},1651948625,0
{consumergroup=trace-token-events-consumer},1651948630,0
{consumergroup=trace-token-events-consumer},1651948635,0
{consumergroup=trace-token-events-consumer},1651948640,0
{consumergroup=trace-token-events-consumer},1651948645,0
{consumergroup=trace-token-events-consumer},1651948650,0
{consumergroup=trace-token-events-consumer},1651948655,0
{consumergroup=trace-token-events-consumer},1651948660,0
{consumergroup=trace-token-events-consumer},1651948665,0
{consumergroup=trace-token-events-consumer},1651948670,0
{consumergroup=trace-token-events-consumer},1651948675,0
{consumergroup=trace-token-events-consumer},1651948680,0
{consumergroup=trace-token-events-consumer},1651948685,0
{consumergroup=trace-token-events-consumer},1651948690,0
{consumergroup=trace-token-events-consumer},1651948695,0
{consumergroup=trace-token-events-consumer},1651948700,0
{consumergroup=trace-token-events-consumer},1651948705,0
{consumergroup=trace-token-events-consumer},1651948710,0
{consumergroup=trace-token-events-consumer},1651948715,0
{consumergroup=trace-token-events-consumer},1651948720,0
{consumergroup=trace-token-events-consumer},1651948725,0
{consumergroup=trace-token-events-consumer},1651948730,0
{consumergroup=trace-token-events-consumer},1651948735,0
{consumergroup=trace-token-events-consumer},1651948740,0
{consumergroup=trace-token-events-consumer},1651948745,0
{consumergroup=trace-token-events-consumer},1651948750,0
{consumergroup=trace-token-events-consumer},1651948755,0
{consumergroup=trace-token-events-consumer},1651948760,0
{consumergroup=trace-token-events-consumer},1651948765,0
{consumergroup=trace-token-events-consumer},1651948770,0
{consumergroup=trace-token-events-consumer},1651948775,0
{consumergroup=trace-token-events-consumer},1651948780,0
{consumergroup=trace-token-events-consumer},1651948785,0
{consumergroup=trace-token-events-consumer},1651948790,0
{consumergroup=trace-token-events-consumer},1651948795,0
{consumergroup=trace-token-events-consumer},1651948800,0
{consumergroup=trace-token-events-consumer},1651948805,0
{consumergroup=trace-token-events-consumer},1651948810,0
{consumergroup=trace-token-events-consumer},1651948815,0
{consumergroup=trace-token-events-consumer},1651948820,0
{consumergroup=trace-token-events-consumer},1651948825,0
{consumergroup=trace-token-events-consumer},1651948830,0
{consumergroup=trace-token-events-consumer},1651948835,0
{consumergroup=trace-token-events-consumer},1651948840,0
