labels,timestamp,value
{consumergroup=__strimzi-topic-operator-kstreams},1651990843,11
{consumergroup=__strimzi-topic-operator-kstreams},1651990848,11
{consumergroup=__strimzi-topic-operator-kstreams},1651990853,11
{consumergroup=__strimzi-topic-operator-kstreams},1651990858,0
{consumergroup=__strimzi-topic-operator-kstreams},1651990863,0
{consumergroup=__strimzi-topic-operator-kstreams},1651990868,0
{consumergroup=__strimzi-topic-operator-kstreams},1651990873,3
{consumergroup=__strimzi-topic-operator-kstreams},1651990878,3
{consumergroup=__strimzi-topic-operator-kstreams},1651990883,3
{consumergroup=__strimzi-topic-operator-kstreams},1651990888,0
{consumergroup=__strimzi-topic-operator-kstreams},1651990893,0
{consumergroup=__strimzi-topic-operator-kstreams},1651990898,0
{consumergroup=__strimzi-topic-operator-kstreams},1651990903,0
{consumergroup=__strimzi-topic-operator-kstreams},1651990908,0
{consumergroup=__strimzi-topic-operator-kstreams},1651990913,0
{consumergroup=__strimzi-topic-operator-kstreams},1651990918,0
{consumergroup=__strimzi-topic-operator-kstreams},1651990923,0
{consumergroup=__strimzi-topic-operator-kstreams},1651990928,0
{consumergroup=__strimzi-topic-operator-kstreams},1651990933,0
{consumergroup=__strimzi-topic-operator-kstreams},1651990938,0
{consumergroup=__strimzi-topic-operator-kstreams},1651990943,0
{consumergroup=__strimzi-topic-operator-kstreams},1651990948,0
{consumergroup=__strimzi-topic-operator-kstreams},1651990953,0
{consumergroup=__strimzi-topic-operator-kstreams},1651990958,0
{consumergroup=__strimzi-topic-operator-kstreams},1651990963,0
{consumergroup=__strimzi-topic-operator-kstreams},1651990968,0
{consumergroup=__strimzi-topic-operator-kstreams},1651990973,0
{consumergroup=__strimzi-topic-operator-kstreams},1651990978,0
{consumergroup=__strimzi-topic-operator-kstreams},1651990983,0
{consumergroup=__strimzi-topic-operator-kstreams},1651990988,0
{consumergroup=__strimzi-topic-operator-kstreams},1651990993,0
{consumergroup=__strimzi-topic-operator-kstreams},1651990998,0
{consumergroup=__strimzi-topic-operator-kstreams},1651991003,0
{consumergroup=__strimzi-topic-operator-kstreams},1651991008,0
{consumergroup=__strimzi-topic-operator-kstreams},1651991013,0
{consumergroup=__strimzi-topic-operator-kstreams},1651991018,0
{consumergroup=__strimzi-topic-operator-kstreams},1651991023,0
{consumergroup=__strimzi-topic-operator-kstreams},1651991028,0
{consumergroup=__strimzi-topic-operator-kstreams},1651991033,0
{consumergroup=__strimzi-topic-operator-kstreams},1651991038,0
{consumergroup=__strimzi-topic-operator-kstreams},1651991043,0
{consumergroup=__strimzi-topic-operator-kstreams},1651991048,0
{consumergroup=__strimzi-topic-operator-kstreams},1651991053,0
{consumergroup=__strimzi-topic-operator-kstreams},1651991058,0
{consumergroup=__strimzi-topic-operator-kstreams},1651991063,0
{consumergroup=__strimzi-topic-operator-kstreams},1651991068,0
{consumergroup=__strimzi-topic-operator-kstreams},1651991073,0
{consumergroup=__strimzi-topic-operator-kstreams},1651991078,0
{consumergroup=__strimzi-topic-operator-kstreams},1651991083,0
{consumergroup=__strimzi-topic-operator-kstreams},1651991088,0
{consumergroup=__strimzi-topic-operator-kstreams},1651991093,0
{consumergroup=__strimzi-topic-operator-kstreams},1651991098,0
{consumergroup=__strimzi-topic-operator-kstreams},1651991103,0
{consumergroup=__strimzi-topic-operator-kstreams},1651991108,0
{consumergroup=__strimzi-topic-operator-kstreams},1651991113,0
{consumergroup=__strimzi-topic-operator-kstreams},1651991118,0
{consumergroup=__strimzi-topic-operator-kstreams},1651991123,0
{consumergroup=__strimzi-topic-operator-kstreams},1651991128,0
{consumergroup=__strimzi-topic-operator-kstreams},1651991133,0
{consumergroup=__strimzi-topic-operator-kstreams},1651991138,0
{consumergroup=__strimzi-topic-operator-kstreams},1651991143,0
{consumergroup=__strimzi-topic-operator-kstreams},1651991148,0
{consumergroup=__strimzi-topic-operator-kstreams},1651991153,0
{consumergroup=__strimzi-topic-operator-kstreams},1651991158,0
{consumergroup=__strimzi-topic-operator-kstreams},1651991163,0
{consumergroup=__strimzi-topic-operator-kstreams},1651991168,0
{consumergroup=__strimzi-topic-operator-kstreams},1651991173,0
{consumergroup=__strimzi-topic-operator-kstreams},1651991178,0
{consumergroup=__strimzi-topic-operator-kstreams},1651991183,0
{consumergroup=__strimzi-topic-operator-kstreams},1651991188,0
{consumergroup=__strimzi-topic-operator-kstreams},1651991193,0
{consumergroup=__strimzi-topic-operator-kstreams},1651991198,0
{consumergroup=__strimzi-topic-operator-kstreams},1651991203,0
{consumergroup=__strimzi-topic-operator-kstreams},1651991208,0
{consumergroup=__strimzi-topic-operator-kstreams},1651991213,0
{consumergroup=__strimzi-topic-operator-kstreams},1651991218,0
{consumergroup=__strimzi-topic-operator-kstreams},1651991223,0
{consumergroup=__strimzi-topic-operator-kstreams},1651991228,0
{consumergroup=__strimzi-topic-operator-kstreams},1651991233,0
{consumergroup=__strimzi-topic-operator-kstreams},1651991238,0
{consumergroup=__strimzi-topic-operator-kstreams},1651991243,0
{consumergroup=__strimzi-topic-operator-kstreams},1651991248,0
{consumergroup=__strimzi-topic-operator-kstreams},1651991253,0
{consumergroup=__strimzi-topic-operator-kstreams},1651991258,0
{consumergroup=__strimzi-topic-operator-kstreams},1651991263,0
{consumergroup=__strimzi-topic-operator-kstreams},1651991268,0
{consumergroup=__strimzi-topic-operator-kstreams},1651991273,0
{consumergroup=__strimzi-topic-operator-kstreams},1651991278,0
{consumergroup=__strimzi-topic-operator-kstreams},1651991283,0
{consumergroup=__strimzi-topic-operator-kstreams},1651991288,0
{consumergroup=adapter-service},1651990873,0
{consumergroup=adapter-service},1651990878,0
{consumergroup=adapter-service},1651990883,0
{consumergroup=adapter-service},1651990888,5904
{consumergroup=adapter-service},1651990893,5904
{consumergroup=adapter-service},1651990898,5904
{consumergroup=adapter-service},1651990903,5939
{consumergroup=adapter-service},1651990908,5939
{consumergroup=adapter-service},1651990913,5939
{consumergroup=adapter-service},1651990918,3453
{consumergroup=adapter-service},1651990923,3453
{consumergroup=adapter-service},1651990928,3453
{consumergroup=adapter-service},1651990933,3779
{consumergroup=adapter-service},1651990938,3779
{consumergroup=adapter-service},1651990943,3779
{consumergroup=adapter-service},1651990948,2395
{consumergroup=adapter-service},1651990953,2395
{consumergroup=adapter-service},1651990958,2395
{consumergroup=adapter-service},1651990963,3033
{consumergroup=adapter-service},1651990968,3033
{consumergroup=adapter-service},1651990973,3033
{consumergroup=adapter-service},1651990978,1940
{consumergroup=adapter-service},1651990983,1940
{consumergroup=adapter-service},1651990988,1940
{consumergroup=adapter-service},1651990993,2384
{consumergroup=adapter-service},1651990998,2384
{consumergroup=adapter-service},1651991003,2384
{consumergroup=adapter-service},1651991008,1240
{consumergroup=adapter-service},1651991013,1240
{consumergroup=adapter-service},1651991018,1240
{consumergroup=adapter-service},1651991023,1653
{consumergroup=adapter-service},1651991028,1653
{consumergroup=adapter-service},1651991033,1653
{consumergroup=adapter-service},1651991038,1437
{consumergroup=adapter-service},1651991043,1437
{consumergroup=adapter-service},1651991048,1437
{consumergroup=adapter-service},1651991053,1186
{consumergroup=adapter-service},1651991058,1186
{consumergroup=adapter-service},1651991063,1186
{consumergroup=adapter-service},1651991068,3510
{consumergroup=adapter-service},1651991073,3510
{consumergroup=adapter-service},1651991078,3510
{consumergroup=adapter-service},1651991083,1514
{consumergroup=adapter-service},1651991088,1514
{consumergroup=adapter-service},1651991093,1514
{consumergroup=adapter-service},1651991098,5974
{consumergroup=adapter-service},1651991103,5974
{consumergroup=adapter-service},1651991108,5974
{consumergroup=adapter-service},1651991113,3510
{consumergroup=adapter-service},1651991118,3510
{consumergroup=adapter-service},1651991123,3510
{consumergroup=adapter-service},1651991128,8840
{consumergroup=adapter-service},1651991133,8840
{consumergroup=adapter-service},1651991138,8840
{consumergroup=adapter-service},1651991143,5858
{consumergroup=adapter-service},1651991148,5858
{consumergroup=adapter-service},1651991153,5858
{consumergroup=adapter-service},1651991158,10752
{consumergroup=adapter-service},1651991163,10752
{consumergroup=adapter-service},1651991168,10752
{consumergroup=adapter-service},1651991173,8588
{consumergroup=adapter-service},1651991178,8588
{consumergroup=adapter-service},1651991183,8588
{consumergroup=adapter-service},1651991188,13387
{consumergroup=adapter-service},1651991193,13387
{consumergroup=adapter-service},1651991198,13387
{consumergroup=adapter-service},1651991203,10734
{consumergroup=adapter-service},1651991208,10734
{consumergroup=adapter-service},1651991213,10734
{consumergroup=adapter-service},1651991218,12992
{consumergroup=adapter-service},1651991223,12992
{consumergroup=adapter-service},1651991228,12992
{consumergroup=adapter-service},1651991233,14354
{consumergroup=adapter-service},1651991238,14354
{consumergroup=adapter-service},1651991243,14354
{consumergroup=adapter-service},1651991248,15126
{consumergroup=adapter-service},1651991253,15126
{consumergroup=adapter-service},1651991258,15126
{consumergroup=adapter-service},1651991263,12952
{consumergroup=adapter-service},1651991268,12952
{consumergroup=adapter-service},1651991273,12952
{consumergroup=adapter-service},1651991278,14798
{consumergroup=adapter-service},1651991283,14798
{consumergroup=adapter-service},1651991288,14798
{consumergroup=landscape-service},1651990888,503
{consumergroup=landscape-service},1651990893,503
{consumergroup=landscape-service},1651990898,503
{consumergroup=landscape-service},1651990903,5917
{consumergroup=landscape-service},1651990908,5917
{consumergroup=landscape-service},1651990913,5917
{consumergroup=landscape-service},1651990918,10760
{consumergroup=landscape-service},1651990923,10760
{consumergroup=landscape-service},1651990928,10760
{consumergroup=landscape-service},1651990933,5907
{consumergroup=landscape-service},1651990938,5907
{consumergroup=landscape-service},1651990943,5907
{consumergroup=landscape-service},1651990948,11495
{consumergroup=landscape-service},1651990953,11495
{consumergroup=landscape-service},1651990958,11495
{consumergroup=landscape-service},1651990963,5680
{consumergroup=landscape-service},1651990968,5680
{consumergroup=landscape-service},1651990973,5680
{consumergroup=landscape-service},1651990978,10819
{consumergroup=landscape-service},1651990983,10819
{consumergroup=landscape-service},1651990988,10819
{consumergroup=landscape-service},1651990993,5989
{consumergroup=landscape-service},1651990998,5989
{consumergroup=landscape-service},1651991003,5989
{consumergroup=landscape-service},1651991008,10438
{consumergroup=landscape-service},1651991013,10438
{consumergroup=landscape-service},1651991018,10438
{consumergroup=landscape-service},1651991023,11036
{consumergroup=landscape-service},1651991028,11036
{consumergroup=landscape-service},1651991033,11036
{consumergroup=landscape-service},1651991038,10206
{consumergroup=landscape-service},1651991043,10206
{consumergroup=landscape-service},1651991048,10206
{consumergroup=landscape-service},1651991053,10989
{consumergroup=landscape-service},1651991058,10989
{consumergroup=landscape-service},1651991063,10989
{consumergroup=landscape-service},1651991068,10189
{consumergroup=landscape-service},1651991073,10189
{consumergroup=landscape-service},1651991078,10189
{consumergroup=landscape-service},1651991083,10773
{consumergroup=landscape-service},1651991088,10773
{consumergroup=landscape-service},1651991093,10773
{consumergroup=landscape-service},1651991098,9956
{consumergroup=landscape-service},1651991103,9956
{consumergroup=landscape-service},1651991108,9956
{consumergroup=landscape-service},1651991113,11594
{consumergroup=landscape-service},1651991118,11594
{consumergroup=landscape-service},1651991123,11594
{consumergroup=landscape-service},1651991128,10723
{consumergroup=landscape-service},1651991133,10723
{consumergroup=landscape-service},1651991138,10723
{consumergroup=landscape-service},1651991143,10470
{consumergroup=landscape-service},1651991148,10470
{consumergroup=landscape-service},1651991153,10470
{consumergroup=landscape-service},1651991158,9895
{consumergroup=landscape-service},1651991163,9895
{consumergroup=landscape-service},1651991168,9895
{consumergroup=landscape-service},1651991173,10338
{consumergroup=landscape-service},1651991178,10338
{consumergroup=landscape-service},1651991183,10338
{consumergroup=landscape-service},1651991188,10461
{consumergroup=landscape-service},1651991193,10461
{consumergroup=landscape-service},1651991198,10461
{consumergroup=landscape-service},1651991203,11062
{consumergroup=landscape-service},1651991208,11062
{consumergroup=landscape-service},1651991213,11062
{consumergroup=landscape-service},1651991218,16435
{consumergroup=landscape-service},1651991223,16435
{consumergroup=landscape-service},1651991228,16435
{consumergroup=landscape-service},1651991233,10111
{consumergroup=landscape-service},1651991238,10111
{consumergroup=landscape-service},1651991243,10111
{consumergroup=landscape-service},1651991248,15124
{consumergroup=landscape-service},1651991253,15124
{consumergroup=landscape-service},1651991258,15124
{consumergroup=landscape-service},1651991263,10626
{consumergroup=landscape-service},1651991268,10626
{consumergroup=landscape-service},1651991273,10626
{consumergroup=landscape-service},1651991278,16214
{consumergroup=landscape-service},1651991283,16214
{consumergroup=landscape-service},1651991288,16214
{consumergroup=landscape-token-events-consumer},1651990873,0
{consumergroup=landscape-token-events-consumer},1651990878,0
{consumergroup=landscape-token-events-consumer},1651990883,0
{consumergroup=landscape-token-events-consumer},1651990888,0
{consumergroup=landscape-token-events-consumer},1651990893,0
{consumergroup=landscape-token-events-consumer},1651990898,0
{consumergroup=landscape-token-events-consumer},1651990903,0
{consumergroup=landscape-token-events-consumer},1651990908,0
{consumergroup=landscape-token-events-consumer},1651990913,0
{consumergroup=landscape-token-events-consumer},1651990918,0
{consumergroup=landscape-token-events-consumer},1651990923,0
{consumergroup=landscape-token-events-consumer},1651990928,0
{consumergroup=landscape-token-events-consumer},1651990933,0
{consumergroup=landscape-token-events-consumer},1651990938,0
{consumergroup=landscape-token-events-consumer},1651990943,0
{consumergroup=landscape-token-events-consumer},1651990948,0
{consumergroup=landscape-token-events-consumer},1651990953,0
{consumergroup=landscape-token-events-consumer},1651990958,0
{consumergroup=landscape-token-events-consumer},1651990963,0
{consumergroup=landscape-token-events-consumer},1651990968,0
{consumergroup=landscape-token-events-consumer},1651990973,0
{consumergroup=landscape-token-events-consumer},1651990978,0
{consumergroup=landscape-token-events-consumer},1651990983,0
{consumergroup=landscape-token-events-consumer},1651990988,0
{consumergroup=landscape-token-events-consumer},1651990993,0
{consumergroup=landscape-token-events-consumer},1651990998,0
{consumergroup=landscape-token-events-consumer},1651991003,0
{consumergroup=landscape-token-events-consumer},1651991008,0
{consumergroup=landscape-token-events-consumer},1651991013,0
{consumergroup=landscape-token-events-consumer},1651991018,0
{consumergroup=landscape-token-events-consumer},1651991023,0
{consumergroup=landscape-token-events-consumer},1651991028,0
{consumergroup=landscape-token-events-consumer},1651991033,0
{consumergroup=landscape-token-events-consumer},1651991038,0
{consumergroup=landscape-token-events-consumer},1651991043,0
{consumergroup=landscape-token-events-consumer},1651991048,0
{consumergroup=landscape-token-events-consumer},1651991053,0
{consumergroup=landscape-token-events-consumer},1651991058,0
{consumergroup=landscape-token-events-consumer},1651991063,0
{consumergroup=landscape-token-events-consumer},1651991068,0
{consumergroup=landscape-token-events-consumer},1651991073,0
{consumergroup=landscape-token-events-consumer},1651991078,0
{consumergroup=landscape-token-events-consumer},1651991083,0
{consumergroup=landscape-token-events-consumer},1651991088,0
{consumergroup=landscape-token-events-consumer},1651991093,0
{consumergroup=landscape-token-events-consumer},1651991098,0
{consumergroup=landscape-token-events-consumer},1651991103,0
{consumergroup=landscape-token-events-consumer},1651991108,0
{consumergroup=landscape-token-events-consumer},1651991113,0
{consumergroup=landscape-token-events-consumer},1651991118,0
{consumergroup=landscape-token-events-consumer},1651991123,0
{consumergroup=landscape-token-events-consumer},1651991128,0
{consumergroup=landscape-token-events-consumer},1651991133,0
{consumergroup=landscape-token-events-consumer},1651991138,0
{consumergroup=landscape-token-events-consumer},1651991143,0
{consumergroup=landscape-token-events-consumer},1651991148,0
{consumergroup=landscape-token-events-consumer},1651991153,0
{consumergroup=landscape-token-events-consumer},1651991158,0
{consumergroup=landscape-token-events-consumer},1651991163,0
{consumergroup=landscape-token-events-consumer},1651991168,0
{consumergroup=landscape-token-events-consumer},1651991173,0
{consumergroup=landscape-token-events-consumer},1651991178,0
{consumergroup=landscape-token-events-consumer},1651991183,0
{consumergroup=landscape-token-events-consumer},1651991188,0
{consumergroup=landscape-token-events-consumer},1651991193,0
{consumergroup=landscape-token-events-consumer},1651991198,0
{consumergroup=landscape-token-events-consumer},1651991203,0
{consumergroup=landscape-token-events-consumer},1651991208,0
{consumergroup=landscape-token-events-consumer},1651991213,0
{consumergroup=landscape-token-events-consumer},1651991218,0
{consumergroup=landscape-token-events-consumer},1651991223,0
{consumergroup=landscape-token-events-consumer},1651991228,0
{consumergroup=landscape-token-events-consumer},1651991233,0
{consumergroup=landscape-token-events-consumer},1651991238,0
{consumergroup=landscape-token-events-consumer},1651991243,0
{consumergroup=landscape-token-events-consumer},1651991248,0
{consumergroup=landscape-token-events-consumer},1651991253,0
{consumergroup=landscape-token-events-consumer},1651991258,0
{consumergroup=landscape-token-events-consumer},1651991263,0
{consumergroup=landscape-token-events-consumer},1651991268,0
{consumergroup=landscape-token-events-consumer},1651991273,0
{consumergroup=landscape-token-events-consumer},1651991278,0
{consumergroup=landscape-token-events-consumer},1651991283,0
{consumergroup=landscape-token-events-consumer},1651991288,0
{consumergroup=trace-service},1651990888,26353
{consumergroup=trace-service},1651990893,26353
{consumergroup=trace-service},1651990898,26353
{consumergroup=trace-service},1651990903,77779
{consumergroup=trace-service},1651990908,77779
{consumergroup=trace-service},1651990913,77779
{consumergroup=trace-service},1651990918,63205
{consumergroup=trace-service},1651990923,63205
{consumergroup=trace-service},1651990928,63205
{consumergroup=trace-service},1651990933,55342
{consumergroup=trace-service},1651990938,55342
{consumergroup=trace-service},1651990943,55342
{consumergroup=trace-service},1651990948,93842
{consumergroup=trace-service},1651990953,93842
{consumergroup=trace-service},1651990958,93842
{consumergroup=trace-service},1651990963,48607
{consumergroup=trace-service},1651990968,48607
{consumergroup=trace-service},1651990973,48607
{consumergroup=trace-service},1651990978,22523
{consumergroup=trace-service},1651990983,22523
{consumergroup=trace-service},1651990988,22523
{consumergroup=trace-service},1651990993,48174
{consumergroup=trace-service},1651990998,48174
{consumergroup=trace-service},1651991003,48174
{consumergroup=trace-service},1651991008,22146
{consumergroup=trace-service},1651991013,22146
{consumergroup=trace-service},1651991018,22146
{consumergroup=trace-service},1651991023,45518
{consumergroup=trace-service},1651991028,45518
{consumergroup=trace-service},1651991033,45518
{consumergroup=trace-service},1651991038,9165
{consumergroup=trace-service},1651991043,9165
{consumergroup=trace-service},1651991048,9165
{consumergroup=trace-service},1651991053,55313
{consumergroup=trace-service},1651991058,55313
{consumergroup=trace-service},1651991063,55313
{consumergroup=trace-service},1651991068,20218
{consumergroup=trace-service},1651991073,20218
{consumergroup=trace-service},1651991078,20218
{consumergroup=trace-service},1651991083,46475
{consumergroup=trace-service},1651991088,46475
{consumergroup=trace-service},1651991093,46475
{consumergroup=trace-service},1651991098,125643
{consumergroup=trace-service},1651991103,125643
{consumergroup=trace-service},1651991108,125643
{consumergroup=trace-service},1651991113,48440
{consumergroup=trace-service},1651991118,48440
{consumergroup=trace-service},1651991123,48440
{consumergroup=trace-service},1651991128,25361
{consumergroup=trace-service},1651991133,25361
{consumergroup=trace-service},1651991138,25361
{consumergroup=trace-service},1651991143,52277
{consumergroup=trace-service},1651991148,52277
{consumergroup=trace-service},1651991153,52277
{consumergroup=trace-service},1651991158,19945
{consumergroup=trace-service},1651991163,19945
{consumergroup=trace-service},1651991168,19945
{consumergroup=trace-service},1651991173,51733
{consumergroup=trace-service},1651991178,51733
{consumergroup=trace-service},1651991183,51733
{consumergroup=trace-service},1651991188,26160
{consumergroup=trace-service},1651991193,26160
{consumergroup=trace-service},1651991198,26160
{consumergroup=trace-service},1651991203,47918
{consumergroup=trace-service},1651991208,47918
{consumergroup=trace-service},1651991213,47918
{consumergroup=trace-service},1651991218,19943
{consumergroup=trace-service},1651991223,19943
{consumergroup=trace-service},1651991228,19943
{consumergroup=trace-service},1651991233,50870
{consumergroup=trace-service},1651991238,50870
{consumergroup=trace-service},1651991243,50870
{consumergroup=trace-service},1651991248,104672
{consumergroup=trace-service},1651991253,104672
{consumergroup=trace-service},1651991258,104672
{consumergroup=trace-service},1651991263,52596
{consumergroup=trace-service},1651991268,52596
{consumergroup=trace-service},1651991273,52596
{consumergroup=trace-service},1651991278,14604
{consumergroup=trace-service},1651991283,14604
{consumergroup=trace-service},1651991288,14604
{consumergroup=trace-token-events-consumer},1651990873,0
{consumergroup=trace-token-events-consumer},1651990878,0
{consumergroup=trace-token-events-consumer},1651990883,0
{consumergroup=trace-token-events-consumer},1651990888,0
{consumergroup=trace-token-events-consumer},1651990893,0
{consumergroup=trace-token-events-consumer},1651990898,0
{consumergroup=trace-token-events-consumer},1651990903,0
{consumergroup=trace-token-events-consumer},1651990908,0
{consumergroup=trace-token-events-consumer},1651990913,0
{consumergroup=trace-token-events-consumer},1651990918,0
{consumergroup=trace-token-events-consumer},1651990923,0
{consumergroup=trace-token-events-consumer},1651990928,0
{consumergroup=trace-token-events-consumer},1651990933,0
{consumergroup=trace-token-events-consumer},1651990938,0
{consumergroup=trace-token-events-consumer},1651990943,0
{consumergroup=trace-token-events-consumer},1651990948,0
{consumergroup=trace-token-events-consumer},1651990953,0
{consumergroup=trace-token-events-consumer},1651990958,0
{consumergroup=trace-token-events-consumer},1651990963,0
{consumergroup=trace-token-events-consumer},1651990968,0
{consumergroup=trace-token-events-consumer},1651990973,0
{consumergroup=trace-token-events-consumer},1651990978,0
{consumergroup=trace-token-events-consumer},1651990983,0
{consumergroup=trace-token-events-consumer},1651990988,0
{consumergroup=trace-token-events-consumer},1651990993,0
{consumergroup=trace-token-events-consumer},1651990998,0
{consumergroup=trace-token-events-consumer},1651991003,0
{consumergroup=trace-token-events-consumer},1651991008,0
{consumergroup=trace-token-events-consumer},1651991013,0
{consumergroup=trace-token-events-consumer},1651991018,0
{consumergroup=trace-token-events-consumer},1651991023,0
{consumergroup=trace-token-events-consumer},1651991028,0
{consumergroup=trace-token-events-consumer},1651991033,0
{consumergroup=trace-token-events-consumer},1651991038,0
{consumergroup=trace-token-events-consumer},1651991043,0
{consumergroup=trace-token-events-consumer},1651991048,0
{consumergroup=trace-token-events-consumer},1651991053,0
{consumergroup=trace-token-events-consumer},1651991058,0
{consumergroup=trace-token-events-consumer},1651991063,0
{consumergroup=trace-token-events-consumer},1651991068,0
{consumergroup=trace-token-events-consumer},1651991073,0
{consumergroup=trace-token-events-consumer},1651991078,0
{consumergroup=trace-token-events-consumer},1651991083,0
{consumergroup=trace-token-events-consumer},1651991088,0
{consumergroup=trace-token-events-consumer},1651991093,0
{consumergroup=trace-token-events-consumer},1651991098,0
{consumergroup=trace-token-events-consumer},1651991103,0
{consumergroup=trace-token-events-consumer},1651991108,0
{consumergroup=trace-token-events-consumer},1651991113,0
{consumergroup=trace-token-events-consumer},1651991118,0
{consumergroup=trace-token-events-consumer},1651991123,0
{consumergroup=trace-token-events-consumer},1651991128,0
{consumergroup=trace-token-events-consumer},1651991133,0
{consumergroup=trace-token-events-consumer},1651991138,0
{consumergroup=trace-token-events-consumer},1651991143,0
{consumergroup=trace-token-events-consumer},1651991148,0
{consumergroup=trace-token-events-consumer},1651991153,0
{consumergroup=trace-token-events-consumer},1651991158,0
{consumergroup=trace-token-events-consumer},1651991163,0
{consumergroup=trace-token-events-consumer},1651991168,0
{consumergroup=trace-token-events-consumer},1651991173,0
{consumergroup=trace-token-events-consumer},1651991178,0
{consumergroup=trace-token-events-consumer},1651991183,0
{consumergroup=trace-token-events-consumer},1651991188,0
{consumergroup=trace-token-events-consumer},1651991193,0
{consumergroup=trace-token-events-consumer},1651991198,0
{consumergroup=trace-token-events-consumer},1651991203,0
{consumergroup=trace-token-events-consumer},1651991208,0
{consumergroup=trace-token-events-consumer},1651991213,0
{consumergroup=trace-token-events-consumer},1651991218,0
{consumergroup=trace-token-events-consumer},1651991223,0
{consumergroup=trace-token-events-consumer},1651991228,0
{consumergroup=trace-token-events-consumer},1651991233,0
{consumergroup=trace-token-events-consumer},1651991238,0
{consumergroup=trace-token-events-consumer},1651991243,0
{consumergroup=trace-token-events-consumer},1651991248,0
{consumergroup=trace-token-events-consumer},1651991253,0
{consumergroup=trace-token-events-consumer},1651991258,0
{consumergroup=trace-token-events-consumer},1651991263,0
{consumergroup=trace-token-events-consumer},1651991268,0
{consumergroup=trace-token-events-consumer},1651991273,0
{consumergroup=trace-token-events-consumer},1651991278,0
{consumergroup=trace-token-events-consumer},1651991283,0
{consumergroup=trace-token-events-consumer},1651991288,0
