labels,timestamp,value
{job=theodolite-stu200776/combined-trace-podmonitor},1651969481,0
{job=theodolite-stu200776/combined-trace-podmonitor},1651969486,0
{job=theodolite-stu200776/combined-trace-podmonitor},1651969491,0
{job=theodolite-stu200776/combined-trace-podmonitor},1651969496,0
{job=theodolite-stu200776/combined-trace-podmonitor},1651969501,0
{job=theodolite-stu200776/combined-trace-podmonitor},1651969506,0
{job=theodolite-stu200776/combined-trace-podmonitor},1651969511,0
{job=theodolite-stu200776/combined-trace-podmonitor},1651969516,0
{job=theodolite-stu200776/combined-trace-podmonitor},1651969521,0
{job=theodolite-stu200776/combined-trace-podmonitor},1651969526,0
{job=theodolite-stu200776/combined-trace-podmonitor},1651969531,0
{job=theodolite-stu200776/combined-trace-podmonitor},1651969536,0
{job=theodolite-stu200776/combined-trace-podmonitor},1651969541,0
{job=theodolite-stu200776/combined-trace-podmonitor},1651969546,0
{job=theodolite-stu200776/combined-trace-podmonitor},1651969551,0
{job=theodolite-stu200776/combined-trace-podmonitor},1651969556,0
{job=theodolite-stu200776/combined-trace-podmonitor},1651969561,0
{job=theodolite-stu200776/combined-trace-podmonitor},1651969566,0
{job=theodolite-stu200776/combined-trace-podmonitor},1651969571,0
{job=theodolite-stu200776/combined-trace-podmonitor},1651969576,0
{job=theodolite-stu200776/combined-trace-podmonitor},1651969581,0
{job=theodolite-stu200776/combined-trace-podmonitor},1651969586,0
{job=theodolite-stu200776/combined-trace-podmonitor},1651969591,0
{job=theodolite-stu200776/combined-trace-podmonitor},1651969596,0
{job=theodolite-stu200776/combined-trace-podmonitor},1651969601,0
{job=theodolite-stu200776/combined-trace-podmonitor},1651969606,0
{job=theodolite-stu200776/combined-trace-podmonitor},1651969611,0
{job=theodolite-stu200776/combined-trace-podmonitor},1651969616,0
{job=theodolite-stu200776/combined-trace-podmonitor},1651969621,0
{job=theodolite-stu200776/combined-trace-podmonitor},1651969626,0
{job=theodolite-stu200776/combined-trace-podmonitor},1651969631,0
{job=theodolite-stu200776/combined-trace-podmonitor},1651969636,0
{job=theodolite-stu200776/combined-trace-podmonitor},1651969641,0
{job=theodolite-stu200776/combined-trace-podmonitor},1651969646,0
{job=theodolite-stu200776/combined-trace-podmonitor},1651969651,0
{job=theodolite-stu200776/combined-trace-podmonitor},1651969656,0
{job=theodolite-stu200776/combined-trace-podmonitor},1651969661,0
{job=theodolite-stu200776/combined-trace-podmonitor},1651969666,0
{job=theodolite-stu200776/combined-trace-podmonitor},1651969671,0
{job=theodolite-stu200776/combined-trace-podmonitor},1651969676,0
{job=theodolite-stu200776/combined-trace-podmonitor},1651969681,0
{job=theodolite-stu200776/combined-trace-podmonitor},1651969686,0
{job=theodolite-stu200776/combined-trace-podmonitor},1651969691,0
{job=theodolite-stu200776/combined-trace-podmonitor},1651969696,0
{job=theodolite-stu200776/combined-trace-podmonitor},1651969701,0
{job=theodolite-stu200776/combined-trace-podmonitor},1651969706,0
{job=theodolite-stu200776/combined-trace-podmonitor},1651969711,0
{job=theodolite-stu200776/combined-trace-podmonitor},1651969716,0
{job=theodolite-stu200776/combined-trace-podmonitor},1651969721,0
{job=theodolite-stu200776/combined-trace-podmonitor},1651969726,0
{job=theodolite-stu200776/combined-trace-podmonitor},1651969731,0
{job=theodolite-stu200776/combined-trace-podmonitor},1651969736,0
{job=theodolite-stu200776/combined-trace-podmonitor},1651969741,0
{job=theodolite-stu200776/combined-trace-podmonitor},1651969746,0
{job=theodolite-stu200776/combined-trace-podmonitor},1651969751,0
{job=theodolite-stu200776/combined-trace-podmonitor},1651969756,0
{job=theodolite-stu200776/combined-trace-podmonitor},1651969761,0
{job=theodolite-stu200776/combined-trace-podmonitor},1651969766,0
{job=theodolite-stu200776/combined-trace-podmonitor},1651969771,0
{job=theodolite-stu200776/combined-trace-podmonitor},1651969776,0
{job=theodolite-stu200776/combined-trace-podmonitor},1651969781,0
{job=theodolite-stu200776/combined-trace-podmonitor},1651969786,0
{job=theodolite-stu200776/combined-trace-podmonitor},1651969791,0
{job=theodolite-stu200776/combined-trace-podmonitor},1651969796,0
{job=theodolite-stu200776/combined-trace-podmonitor},1651969801,0
{job=theodolite-stu200776/combined-trace-podmonitor},1651969806,0
{job=theodolite-stu200776/combined-trace-podmonitor},1651969811,0
{job=theodolite-stu200776/combined-trace-podmonitor},1651969816,0
{job=theodolite-stu200776/combined-trace-podmonitor},1651969821,0
{job=theodolite-stu200776/combined-trace-podmonitor},1651969826,0
{job=theodolite-stu200776/combined-trace-podmonitor},1651969831,0
{job=theodolite-stu200776/combined-trace-podmonitor},1651969836,0
{job=theodolite-stu200776/combined-trace-podmonitor},1651969841,0
{job=theodolite-stu200776/combined-trace-podmonitor},1651969846,0
{job=theodolite-stu200776/combined-trace-podmonitor},1651969851,0
