labels,timestamp,value
{consumergroup=__strimzi-topic-operator-kstreams},1651883914,8
{consumergroup=__strimzi-topic-operator-kstreams},1651883919,8
{consumergroup=__strimzi-topic-operator-kstreams},1651883924,8
{consumergroup=__strimzi-topic-operator-kstreams},1651883929,8
{consumergroup=__strimzi-topic-operator-kstreams},1651883934,8
{consumergroup=__strimzi-topic-operator-kstreams},1651883939,8
{consumergroup=__strimzi-topic-operator-kstreams},1651883944,0
{consumergroup=__strimzi-topic-operator-kstreams},1651883949,0
{consumergroup=__strimzi-topic-operator-kstreams},1651883954,0
{consumergroup=__strimzi-topic-operator-kstreams},1651883959,0
{consumergroup=__strimzi-topic-operator-kstreams},1651883964,0
{consumergroup=__strimzi-topic-operator-kstreams},1651883969,0
{consumergroup=__strimzi-topic-operator-kstreams},1651883974,0
{consumergroup=__strimzi-topic-operator-kstreams},1651883979,0
{consumergroup=__strimzi-topic-operator-kstreams},1651883984,0
{consumergroup=__strimzi-topic-operator-kstreams},1651883989,0
{consumergroup=__strimzi-topic-operator-kstreams},1651883994,0
{consumergroup=__strimzi-topic-operator-kstreams},1651883999,0
{consumergroup=__strimzi-topic-operator-kstreams},1651884004,0
{consumergroup=__strimzi-topic-operator-kstreams},1651884009,0
{consumergroup=__strimzi-topic-operator-kstreams},1651884014,0
{consumergroup=__strimzi-topic-operator-kstreams},1651884019,0
{consumergroup=__strimzi-topic-operator-kstreams},1651884024,0
{consumergroup=__strimzi-topic-operator-kstreams},1651884029,0
{consumergroup=__strimzi-topic-operator-kstreams},1651884034,0
{consumergroup=__strimzi-topic-operator-kstreams},1651884039,0
{consumergroup=__strimzi-topic-operator-kstreams},1651884044,0
{consumergroup=__strimzi-topic-operator-kstreams},1651884049,0
{consumergroup=__strimzi-topic-operator-kstreams},1651884054,0
{consumergroup=__strimzi-topic-operator-kstreams},1651884059,0
{consumergroup=__strimzi-topic-operator-kstreams},1651884064,0
{consumergroup=__strimzi-topic-operator-kstreams},1651884069,0
{consumergroup=__strimzi-topic-operator-kstreams},1651884074,0
{consumergroup=__strimzi-topic-operator-kstreams},1651884079,0
{consumergroup=__strimzi-topic-operator-kstreams},1651884084,0
{consumergroup=__strimzi-topic-operator-kstreams},1651884089,0
{consumergroup=__strimzi-topic-operator-kstreams},1651884094,0
{consumergroup=__strimzi-topic-operator-kstreams},1651884099,0
{consumergroup=__strimzi-topic-operator-kstreams},1651884104,0
{consumergroup=__strimzi-topic-operator-kstreams},1651884109,0
{consumergroup=__strimzi-topic-operator-kstreams},1651884114,0
{consumergroup=__strimzi-topic-operator-kstreams},1651884119,0
{consumergroup=__strimzi-topic-operator-kstreams},1651884124,0
{consumergroup=__strimzi-topic-operator-kstreams},1651884129,0
{consumergroup=__strimzi-topic-operator-kstreams},1651884134,0
{consumergroup=__strimzi-topic-operator-kstreams},1651884139,0
{consumergroup=__strimzi-topic-operator-kstreams},1651884144,0
{consumergroup=__strimzi-topic-operator-kstreams},1651884149,0
{consumergroup=__strimzi-topic-operator-kstreams},1651884154,0
{consumergroup=__strimzi-topic-operator-kstreams},1651884159,0
{consumergroup=__strimzi-topic-operator-kstreams},1651884164,0
{consumergroup=__strimzi-topic-operator-kstreams},1651884169,0
{consumergroup=adapter-service},1651883944,32473
{consumergroup=adapter-service},1651883949,32473
{consumergroup=adapter-service},1651883954,32473
{consumergroup=adapter-service},1651883959,273992
{consumergroup=adapter-service},1651883964,273992
{consumergroup=adapter-service},1651883969,273992
{consumergroup=adapter-service},1651883974,436071
{consumergroup=adapter-service},1651883979,436071
{consumergroup=adapter-service},1651883984,436071
{consumergroup=adapter-service},1651883989,579729
{consumergroup=adapter-service},1651883994,579729
{consumergroup=adapter-service},1651883999,579729
{consumergroup=adapter-service},1651884004,683542
{consumergroup=adapter-service},1651884009,683542
{consumergroup=adapter-service},1651884014,683542
{consumergroup=adapter-service},1651884019,798711
{consumergroup=adapter-service},1651884024,798711
{consumergroup=adapter-service},1651884029,798711
{consumergroup=adapter-service},1651884034,864152
{consumergroup=adapter-service},1651884039,864152
{consumergroup=adapter-service},1651884044,864152
{consumergroup=adapter-service},1651884049,936546
{consumergroup=adapter-service},1651884054,936546
{consumergroup=adapter-service},1651884059,936546
{consumergroup=adapter-service},1651884064,988720
{consumergroup=adapter-service},1651884069,988720
{consumergroup=adapter-service},1651884074,988720
{consumergroup=adapter-service},1651884079,993785
{consumergroup=adapter-service},1651884084,993785
{consumergroup=adapter-service},1651884089,993785
{consumergroup=adapter-service},1651884094,1026690
{consumergroup=adapter-service},1651884099,1026690
{consumergroup=adapter-service},1651884104,1026690
{consumergroup=adapter-service},1651884109,1046103
{consumergroup=adapter-service},1651884114,1046103
{consumergroup=adapter-service},1651884119,1046103
{consumergroup=adapter-service},1651884124,1046902
{consumergroup=adapter-service},1651884129,1046902
{consumergroup=adapter-service},1651884134,1046902
{consumergroup=adapter-service},1651884139,1061274
{consumergroup=adapter-service},1651884144,1061274
{consumergroup=adapter-service},1651884149,1061274
{consumergroup=adapter-service},1651884154,1066358
{consumergroup=adapter-service},1651884159,1066358
{consumergroup=adapter-service},1651884164,1066358
{consumergroup=adapter-service},1651884169,1082286
