labels,timestamp,value
{consumergroup=__strimzi-topic-operator-kstreams},1652010743,4
{consumergroup=__strimzi-topic-operator-kstreams},1652010748,4
{consumergroup=__strimzi-topic-operator-kstreams},1652010753,4
{consumergroup=__strimzi-topic-operator-kstreams},1652010758,10
{consumergroup=__strimzi-topic-operator-kstreams},1652010763,10
{consumergroup=__strimzi-topic-operator-kstreams},1652010768,10
{consumergroup=__strimzi-topic-operator-kstreams},1652010773,0
{consumergroup=__strimzi-topic-operator-kstreams},1652010778,0
{consumergroup=__strimzi-topic-operator-kstreams},1652010783,0
{consumergroup=__strimzi-topic-operator-kstreams},1652010788,0
{consumergroup=__strimzi-topic-operator-kstreams},1652010793,0
{consumergroup=__strimzi-topic-operator-kstreams},1652010798,0
{consumergroup=__strimzi-topic-operator-kstreams},1652010803,0
{consumergroup=__strimzi-topic-operator-kstreams},1652010808,0
{consumergroup=__strimzi-topic-operator-kstreams},1652010813,0
{consumergroup=__strimzi-topic-operator-kstreams},1652010818,0
{consumergroup=__strimzi-topic-operator-kstreams},1652010823,0
{consumergroup=__strimzi-topic-operator-kstreams},1652010828,0
{consumergroup=__strimzi-topic-operator-kstreams},1652010833,0
{consumergroup=__strimzi-topic-operator-kstreams},1652010838,0
{consumergroup=__strimzi-topic-operator-kstreams},1652010843,0
{consumergroup=__strimzi-topic-operator-kstreams},1652010848,0
{consumergroup=__strimzi-topic-operator-kstreams},1652010853,0
{consumergroup=__strimzi-topic-operator-kstreams},1652010858,0
{consumergroup=__strimzi-topic-operator-kstreams},1652010863,0
{consumergroup=__strimzi-topic-operator-kstreams},1652010868,0
{consumergroup=__strimzi-topic-operator-kstreams},1652010873,0
{consumergroup=__strimzi-topic-operator-kstreams},1652010878,1
{consumergroup=__strimzi-topic-operator-kstreams},1652010883,1
{consumergroup=__strimzi-topic-operator-kstreams},1652010888,1
{consumergroup=__strimzi-topic-operator-kstreams},1652010893,0
{consumergroup=__strimzi-topic-operator-kstreams},1652010898,0
{consumergroup=__strimzi-topic-operator-kstreams},1652010903,0
{consumergroup=__strimzi-topic-operator-kstreams},1652010908,0
{consumergroup=__strimzi-topic-operator-kstreams},1652010913,0
{consumergroup=__strimzi-topic-operator-kstreams},1652010918,0
{consumergroup=__strimzi-topic-operator-kstreams},1652010923,0
{consumergroup=__strimzi-topic-operator-kstreams},1652010928,0
{consumergroup=__strimzi-topic-operator-kstreams},1652010933,0
{consumergroup=__strimzi-topic-operator-kstreams},1652010938,0
{consumergroup=__strimzi-topic-operator-kstreams},1652010943,0
{consumergroup=__strimzi-topic-operator-kstreams},1652010948,0
{consumergroup=__strimzi-topic-operator-kstreams},1652010953,0
{consumergroup=__strimzi-topic-operator-kstreams},1652010958,0
{consumergroup=__strimzi-topic-operator-kstreams},1652010963,0
{consumergroup=__strimzi-topic-operator-kstreams},1652010968,0
{consumergroup=__strimzi-topic-operator-kstreams},1652010973,0
{consumergroup=__strimzi-topic-operator-kstreams},1652010978,0
{consumergroup=__strimzi-topic-operator-kstreams},1652010983,0
{consumergroup=__strimzi-topic-operator-kstreams},1652010988,0
{consumergroup=__strimzi-topic-operator-kstreams},1652010993,0
{consumergroup=__strimzi-topic-operator-kstreams},1652010998,0
{consumergroup=__strimzi-topic-operator-kstreams},1652011003,0
{consumergroup=__strimzi-topic-operator-kstreams},1652011008,0
{consumergroup=__strimzi-topic-operator-kstreams},1652011013,0
{consumergroup=__strimzi-topic-operator-kstreams},1652011018,0
{consumergroup=__strimzi-topic-operator-kstreams},1652011023,0
{consumergroup=__strimzi-topic-operator-kstreams},1652011028,0
{consumergroup=__strimzi-topic-operator-kstreams},1652011033,0
{consumergroup=__strimzi-topic-operator-kstreams},1652011038,0
{consumergroup=__strimzi-topic-operator-kstreams},1652011043,0
{consumergroup=__strimzi-topic-operator-kstreams},1652011048,0
{consumergroup=__strimzi-topic-operator-kstreams},1652011053,0
{consumergroup=__strimzi-topic-operator-kstreams},1652011058,0
{consumergroup=__strimzi-topic-operator-kstreams},1652011063,0
{consumergroup=__strimzi-topic-operator-kstreams},1652011068,0
{consumergroup=__strimzi-topic-operator-kstreams},1652011073,0
{consumergroup=__strimzi-topic-operator-kstreams},1652011078,0
{consumergroup=__strimzi-topic-operator-kstreams},1652011083,0
{consumergroup=__strimzi-topic-operator-kstreams},1652011088,0
{consumergroup=__strimzi-topic-operator-kstreams},1652011093,0
{consumergroup=__strimzi-topic-operator-kstreams},1652011098,0
{consumergroup=__strimzi-topic-operator-kstreams},1652011103,0
{consumergroup=__strimzi-topic-operator-kstreams},1652011108,0
{consumergroup=__strimzi-topic-operator-kstreams},1652011113,0
{consumergroup=__strimzi-topic-operator-kstreams},1652011118,0
{consumergroup=__strimzi-topic-operator-kstreams},1652011123,0
{consumergroup=__strimzi-topic-operator-kstreams},1652011128,0
{consumergroup=__strimzi-topic-operator-kstreams},1652011133,0
{consumergroup=__strimzi-topic-operator-kstreams},1652011138,0
{consumergroup=__strimzi-topic-operator-kstreams},1652011143,0
{consumergroup=__strimzi-topic-operator-kstreams},1652011148,0
{consumergroup=__strimzi-topic-operator-kstreams},1652011153,0
{consumergroup=__strimzi-topic-operator-kstreams},1652011158,0
{consumergroup=__strimzi-topic-operator-kstreams},1652011163,0
{consumergroup=__strimzi-topic-operator-kstreams},1652011168,0
{consumergroup=__strimzi-topic-operator-kstreams},1652011173,0
{consumergroup=__strimzi-topic-operator-kstreams},1652011178,0
{consumergroup=__strimzi-topic-operator-kstreams},1652011183,0
{consumergroup=__strimzi-topic-operator-kstreams},1652011188,0
{consumergroup=__strimzi-topic-operator-kstreams},1652011193,0
{consumergroup=adapter-service},1652010773,0
{consumergroup=adapter-service},1652010778,0
{consumergroup=adapter-service},1652010783,0
{consumergroup=adapter-service},1652010788,13948
{consumergroup=adapter-service},1652010793,13948
{consumergroup=adapter-service},1652010798,13948
{consumergroup=adapter-service},1652010803,9774
{consumergroup=adapter-service},1652010808,9774
{consumergroup=adapter-service},1652010813,9774
{consumergroup=adapter-service},1652010818,13371
{consumergroup=adapter-service},1652010823,13371
{consumergroup=adapter-service},1652010828,13371
{consumergroup=adapter-service},1652010833,8992
{consumergroup=adapter-service},1652010838,8992
{consumergroup=adapter-service},1652010843,8992
{consumergroup=adapter-service},1652010848,13075
{consumergroup=adapter-service},1652010853,13075
{consumergroup=adapter-service},1652010858,13075
{consumergroup=adapter-service},1652010863,8562
{consumergroup=adapter-service},1652010868,8562
{consumergroup=adapter-service},1652010873,8562
{consumergroup=adapter-service},1652010878,13296
{consumergroup=adapter-service},1652010883,13296
{consumergroup=adapter-service},1652010888,13296
{consumergroup=adapter-service},1652010893,7964
{consumergroup=adapter-service},1652010898,7964
{consumergroup=adapter-service},1652010903,7964
{consumergroup=adapter-service},1652010908,11763
{consumergroup=adapter-service},1652010913,11763
{consumergroup=adapter-service},1652010918,11763
{consumergroup=adapter-service},1652010923,7246
{consumergroup=adapter-service},1652010928,7246
{consumergroup=adapter-service},1652010933,7246
{consumergroup=adapter-service},1652010938,11898
{consumergroup=adapter-service},1652010943,11898
{consumergroup=adapter-service},1652010948,11898
{consumergroup=adapter-service},1652010953,6756
{consumergroup=adapter-service},1652010958,6756
{consumergroup=adapter-service},1652010963,6756
{consumergroup=adapter-service},1652010968,10290
{consumergroup=adapter-service},1652010973,10290
{consumergroup=adapter-service},1652010978,10290
{consumergroup=adapter-service},1652010983,7114
{consumergroup=adapter-service},1652010988,7114
{consumergroup=adapter-service},1652010993,7114
{consumergroup=adapter-service},1652010998,10041
{consumergroup=adapter-service},1652011003,10041
{consumergroup=adapter-service},1652011008,10041
{consumergroup=adapter-service},1652011013,5509
{consumergroup=adapter-service},1652011018,5509
{consumergroup=adapter-service},1652011023,5509
{consumergroup=adapter-service},1652011028,9280
{consumergroup=adapter-service},1652011033,9280
{consumergroup=adapter-service},1652011038,9280
{consumergroup=adapter-service},1652011043,5820
{consumergroup=adapter-service},1652011048,5820
{consumergroup=adapter-service},1652011053,5820
{consumergroup=adapter-service},1652011058,8740
{consumergroup=adapter-service},1652011063,8740
{consumergroup=adapter-service},1652011068,8740
{consumergroup=adapter-service},1652011073,4413
{consumergroup=adapter-service},1652011078,4413
{consumergroup=adapter-service},1652011083,4413
{consumergroup=adapter-service},1652011088,12302
{consumergroup=adapter-service},1652011093,12302
{consumergroup=adapter-service},1652011098,12302
{consumergroup=adapter-service},1652011103,3753
{consumergroup=adapter-service},1652011108,3753
{consumergroup=adapter-service},1652011113,3753
{consumergroup=adapter-service},1652011118,7437
{consumergroup=adapter-service},1652011123,7437
{consumergroup=adapter-service},1652011128,7437
{consumergroup=adapter-service},1652011133,4034
{consumergroup=adapter-service},1652011138,4034
{consumergroup=adapter-service},1652011143,4034
{consumergroup=adapter-service},1652011148,6904
{consumergroup=adapter-service},1652011153,6904
{consumergroup=adapter-service},1652011158,6904
{consumergroup=adapter-service},1652011163,2907
{consumergroup=adapter-service},1652011168,2907
{consumergroup=adapter-service},1652011173,2907
{consumergroup=adapter-service},1652011178,7357
{consumergroup=adapter-service},1652011183,7357
{consumergroup=adapter-service},1652011188,7357
{consumergroup=adapter-service},1652011193,1809
{consumergroup=landscape-service},1652010788,354
{consumergroup=landscape-service},1652010793,354
{consumergroup=landscape-service},1652010798,354
{consumergroup=landscape-service},1652010803,12005
{consumergroup=landscape-service},1652010808,12005
{consumergroup=landscape-service},1652010813,12005
{consumergroup=landscape-service},1652010818,16659
{consumergroup=landscape-service},1652010823,16659
{consumergroup=landscape-service},1652010828,16659
{consumergroup=landscape-service},1652010833,12318
{consumergroup=landscape-service},1652010838,12318
{consumergroup=landscape-service},1652010843,12318
{consumergroup=landscape-service},1652010848,16460
{consumergroup=landscape-service},1652010853,16460
{consumergroup=landscape-service},1652010858,16460
{consumergroup=landscape-service},1652010863,12296
{consumergroup=landscape-service},1652010868,12296
{consumergroup=landscape-service},1652010873,12296
{consumergroup=landscape-service},1652010878,15095
{consumergroup=landscape-service},1652010883,15095
{consumergroup=landscape-service},1652010888,15095
{consumergroup=landscape-service},1652010893,11059
{consumergroup=landscape-service},1652010898,11059
{consumergroup=landscape-service},1652010903,11059
{consumergroup=landscape-service},1652010908,15100
{consumergroup=landscape-service},1652010913,15100
{consumergroup=landscape-service},1652010918,15100
{consumergroup=landscape-service},1652010923,11964
{consumergroup=landscape-service},1652010928,11964
{consumergroup=landscape-service},1652010933,11964
{consumergroup=landscape-service},1652010938,14698
{consumergroup=landscape-service},1652010943,14698
{consumergroup=landscape-service},1652010948,14698
{consumergroup=landscape-service},1652010953,11794
{consumergroup=landscape-service},1652010958,11794
{consumergroup=landscape-service},1652010963,11794
{consumergroup=landscape-service},1652010968,14527
{consumergroup=landscape-service},1652010973,14527
{consumergroup=landscape-service},1652010978,14527
{consumergroup=landscape-service},1652010983,10511
{consumergroup=landscape-service},1652010988,10511
{consumergroup=landscape-service},1652010993,10511
{consumergroup=landscape-service},1652010998,15782
{consumergroup=landscape-service},1652011003,15782
{consumergroup=landscape-service},1652011008,15782
{consumergroup=landscape-service},1652011013,10433
{consumergroup=landscape-service},1652011018,10433
{consumergroup=landscape-service},1652011023,10433
{consumergroup=landscape-service},1652011028,15269
{consumergroup=landscape-service},1652011033,15269
{consumergroup=landscape-service},1652011038,15269
{consumergroup=landscape-service},1652011043,10141
{consumergroup=landscape-service},1652011048,10141
{consumergroup=landscape-service},1652011053,10141
{consumergroup=landscape-service},1652011058,14173
{consumergroup=landscape-service},1652011063,14173
{consumergroup=landscape-service},1652011068,14173
{consumergroup=landscape-service},1652011073,10863
{consumergroup=landscape-service},1652011078,10863
{consumergroup=landscape-service},1652011083,10863
{consumergroup=landscape-service},1652011088,12528
{consumergroup=landscape-service},1652011093,12528
{consumergroup=landscape-service},1652011098,12528
{consumergroup=landscape-service},1652011103,9887
{consumergroup=landscape-service},1652011108,9887
{consumergroup=landscape-service},1652011113,9887
{consumergroup=landscape-service},1652011118,14827
{consumergroup=landscape-service},1652011123,14827
{consumergroup=landscape-service},1652011128,14827
{consumergroup=landscape-service},1652011133,9563
{consumergroup=landscape-service},1652011138,9563
{consumergroup=landscape-service},1652011143,9563
{consumergroup=landscape-service},1652011148,13636
{consumergroup=landscape-service},1652011153,13636
{consumergroup=landscape-service},1652011158,13636
{consumergroup=landscape-service},1652011163,9437
{consumergroup=landscape-service},1652011168,9437
{consumergroup=landscape-service},1652011173,9437
{consumergroup=landscape-service},1652011178,13825
{consumergroup=landscape-service},1652011183,13825
{consumergroup=landscape-service},1652011188,13825
{consumergroup=landscape-service},1652011193,9296
{consumergroup=landscape-token-events-consumer},1652010773,0
{consumergroup=landscape-token-events-consumer},1652010778,0
{consumergroup=landscape-token-events-consumer},1652010783,0
{consumergroup=landscape-token-events-consumer},1652010788,0
{consumergroup=landscape-token-events-consumer},1652010793,0
{consumergroup=landscape-token-events-consumer},1652010798,0
{consumergroup=landscape-token-events-consumer},1652010803,0
{consumergroup=landscape-token-events-consumer},1652010808,0
{consumergroup=landscape-token-events-consumer},1652010813,0
{consumergroup=landscape-token-events-consumer},1652010818,0
{consumergroup=landscape-token-events-consumer},1652010823,0
{consumergroup=landscape-token-events-consumer},1652010828,0
{consumergroup=landscape-token-events-consumer},1652010833,0
{consumergroup=landscape-token-events-consumer},1652010838,0
{consumergroup=landscape-token-events-consumer},1652010843,0
{consumergroup=landscape-token-events-consumer},1652010848,0
{consumergroup=landscape-token-events-consumer},1652010853,0
{consumergroup=landscape-token-events-consumer},1652010858,0
{consumergroup=landscape-token-events-consumer},1652010863,0
{consumergroup=landscape-token-events-consumer},1652010868,0
{consumergroup=landscape-token-events-consumer},1652010873,0
{consumergroup=landscape-token-events-consumer},1652010878,0
{consumergroup=landscape-token-events-consumer},1652010883,0
{consumergroup=landscape-token-events-consumer},1652010888,0
{consumergroup=landscape-token-events-consumer},1652010893,0
{consumergroup=landscape-token-events-consumer},1652010898,0
{consumergroup=landscape-token-events-consumer},1652010903,0
{consumergroup=landscape-token-events-consumer},1652010908,0
{consumergroup=landscape-token-events-consumer},1652010913,0
{consumergroup=landscape-token-events-consumer},1652010918,0
{consumergroup=landscape-token-events-consumer},1652010923,0
{consumergroup=landscape-token-events-consumer},1652010928,0
{consumergroup=landscape-token-events-consumer},1652010933,0
{consumergroup=landscape-token-events-consumer},1652010938,0
{consumergroup=landscape-token-events-consumer},1652010943,0
{consumergroup=landscape-token-events-consumer},1652010948,0
{consumergroup=landscape-token-events-consumer},1652010953,0
{consumergroup=landscape-token-events-consumer},1652010958,0
{consumergroup=landscape-token-events-consumer},1652010963,0
{consumergroup=landscape-token-events-consumer},1652010968,0
{consumergroup=landscape-token-events-consumer},1652010973,0
{consumergroup=landscape-token-events-consumer},1652010978,0
{consumergroup=landscape-token-events-consumer},1652010983,0
{consumergroup=landscape-token-events-consumer},1652010988,0
{consumergroup=landscape-token-events-consumer},1652010993,0
{consumergroup=landscape-token-events-consumer},1652010998,0
{consumergroup=landscape-token-events-consumer},1652011003,0
{consumergroup=landscape-token-events-consumer},1652011008,0
{consumergroup=landscape-token-events-consumer},1652011013,0
{consumergroup=landscape-token-events-consumer},1652011018,0
{consumergroup=landscape-token-events-consumer},1652011023,0
{consumergroup=landscape-token-events-consumer},1652011028,0
{consumergroup=landscape-token-events-consumer},1652011033,0
{consumergroup=landscape-token-events-consumer},1652011038,0
{consumergroup=landscape-token-events-consumer},1652011043,0
{consumergroup=landscape-token-events-consumer},1652011048,0
{consumergroup=landscape-token-events-consumer},1652011053,0
{consumergroup=landscape-token-events-consumer},1652011058,0
{consumergroup=landscape-token-events-consumer},1652011063,0
{consumergroup=landscape-token-events-consumer},1652011068,0
{consumergroup=landscape-token-events-consumer},1652011073,0
{consumergroup=landscape-token-events-consumer},1652011078,0
{consumergroup=landscape-token-events-consumer},1652011083,0
{consumergroup=landscape-token-events-consumer},1652011088,0
{consumergroup=landscape-token-events-consumer},1652011093,0
{consumergroup=landscape-token-events-consumer},1652011098,0
{consumergroup=landscape-token-events-consumer},1652011103,0
{consumergroup=landscape-token-events-consumer},1652011108,0
{consumergroup=landscape-token-events-consumer},1652011113,0
{consumergroup=landscape-token-events-consumer},1652011118,0
{consumergroup=landscape-token-events-consumer},1652011123,0
{consumergroup=landscape-token-events-consumer},1652011128,0
{consumergroup=landscape-token-events-consumer},1652011133,0
{consumergroup=landscape-token-events-consumer},1652011138,0
{consumergroup=landscape-token-events-consumer},1652011143,0
{consumergroup=landscape-token-events-consumer},1652011148,0
{consumergroup=landscape-token-events-consumer},1652011153,0
{consumergroup=landscape-token-events-consumer},1652011158,0
{consumergroup=landscape-token-events-consumer},1652011163,0
{consumergroup=landscape-token-events-consumer},1652011168,0
{consumergroup=landscape-token-events-consumer},1652011173,0
{consumergroup=landscape-token-events-consumer},1652011178,0
{consumergroup=landscape-token-events-consumer},1652011183,0
{consumergroup=landscape-token-events-consumer},1652011188,0
{consumergroup=landscape-token-events-consumer},1652011193,0
{consumergroup=trace-service},1652010788,16534
{consumergroup=trace-service},1652010793,16534
{consumergroup=trace-service},1652010798,16534
{consumergroup=trace-service},1652010803,41177
{consumergroup=trace-service},1652010808,41177
{consumergroup=trace-service},1652010813,41177
{consumergroup=trace-service},1652010818,57792
{consumergroup=trace-service},1652010823,57792
{consumergroup=trace-service},1652010828,57792
{consumergroup=trace-service},1652010833,94836
{consumergroup=trace-service},1652010838,94836
{consumergroup=trace-service},1652010843,94836
{consumergroup=trace-service},1652010848,48197
{consumergroup=trace-service},1652010853,48197
{consumergroup=trace-service},1652010858,48197
{consumergroup=trace-service},1652010863,89965
{consumergroup=trace-service},1652010868,89965
{consumergroup=trace-service},1652010873,89965
{consumergroup=trace-service},1652010878,43742
{consumergroup=trace-service},1652010883,43742
{consumergroup=trace-service},1652010888,43742
{consumergroup=trace-service},1652010893,108972
{consumergroup=trace-service},1652010898,108972
{consumergroup=trace-service},1652010903,108972
{consumergroup=trace-service},1652010908,45165
{consumergroup=trace-service},1652010913,45165
{consumergroup=trace-service},1652010918,45165
{consumergroup=trace-service},1652010923,92636
{consumergroup=trace-service},1652010928,92636
{consumergroup=trace-service},1652010933,92636
{consumergroup=trace-service},1652010938,47547
{consumergroup=trace-service},1652010943,47547
{consumergroup=trace-service},1652010948,47547
{consumergroup=trace-service},1652010953,101921
{consumergroup=trace-service},1652010958,101921
{consumergroup=trace-service},1652010963,101921
{consumergroup=trace-service},1652010968,43491
{consumergroup=trace-service},1652010973,43491
{consumergroup=trace-service},1652010978,43491
{consumergroup=trace-service},1652010983,74658
{consumergroup=trace-service},1652010988,74658
{consumergroup=trace-service},1652010993,74658
{consumergroup=trace-service},1652010998,41805
{consumergroup=trace-service},1652011003,41805
{consumergroup=trace-service},1652011008,41805
{consumergroup=trace-service},1652011013,75792
{consumergroup=trace-service},1652011018,75792
{consumergroup=trace-service},1652011023,75792
{consumergroup=trace-service},1652011028,43287
{consumergroup=trace-service},1652011033,43287
{consumergroup=trace-service},1652011038,43287
{consumergroup=trace-service},1652011043,107778
{consumergroup=trace-service},1652011048,107778
{consumergroup=trace-service},1652011053,107778
{consumergroup=trace-service},1652011058,43687
{consumergroup=trace-service},1652011063,43687
{consumergroup=trace-service},1652011068,43687
{consumergroup=trace-service},1652011073,87902
{consumergroup=trace-service},1652011078,87902
{consumergroup=trace-service},1652011083,87902
{consumergroup=trace-service},1652011088,45798
{consumergroup=trace-service},1652011093,45798
{consumergroup=trace-service},1652011098,45798
{consumergroup=trace-service},1652011103,57132
{consumergroup=trace-service},1652011108,57132
{consumergroup=trace-service},1652011113,57132
{consumergroup=trace-service},1652011118,41802
{consumergroup=trace-service},1652011123,41802
{consumergroup=trace-service},1652011128,41802
{consumergroup=trace-service},1652011133,83818
{consumergroup=trace-service},1652011138,83818
{consumergroup=trace-service},1652011143,83818
{consumergroup=trace-service},1652011148,43969
{consumergroup=trace-service},1652011153,43969
{consumergroup=trace-service},1652011158,43969
{consumergroup=trace-service},1652011163,113593
{consumergroup=trace-service},1652011168,113593
{consumergroup=trace-service},1652011173,113593
{consumergroup=trace-service},1652011178,42565
{consumergroup=trace-service},1652011183,42565
{consumergroup=trace-service},1652011188,42565
{consumergroup=trace-service},1652011193,63045
{consumergroup=trace-token-events-consumer},1652010773,0
{consumergroup=trace-token-events-consumer},1652010778,0
{consumergroup=trace-token-events-consumer},1652010783,0
{consumergroup=trace-token-events-consumer},1652010788,0
{consumergroup=trace-token-events-consumer},1652010793,0
{consumergroup=trace-token-events-consumer},1652010798,0
{consumergroup=trace-token-events-consumer},1652010803,0
{consumergroup=trace-token-events-consumer},1652010808,0
{consumergroup=trace-token-events-consumer},1652010813,0
{consumergroup=trace-token-events-consumer},1652010818,0
{consumergroup=trace-token-events-consumer},1652010823,0
{consumergroup=trace-token-events-consumer},1652010828,0
{consumergroup=trace-token-events-consumer},1652010833,0
{consumergroup=trace-token-events-consumer},1652010838,0
{consumergroup=trace-token-events-consumer},1652010843,0
{consumergroup=trace-token-events-consumer},1652010848,0
{consumergroup=trace-token-events-consumer},1652010853,0
{consumergroup=trace-token-events-consumer},1652010858,0
{consumergroup=trace-token-events-consumer},1652010863,0
{consumergroup=trace-token-events-consumer},1652010868,0
{consumergroup=trace-token-events-consumer},1652010873,0
{consumergroup=trace-token-events-consumer},1652010878,0
{consumergroup=trace-token-events-consumer},1652010883,0
{consumergroup=trace-token-events-consumer},1652010888,0
{consumergroup=trace-token-events-consumer},1652010893,0
{consumergroup=trace-token-events-consumer},1652010898,0
{consumergroup=trace-token-events-consumer},1652010903,0
{consumergroup=trace-token-events-consumer},1652010908,0
{consumergroup=trace-token-events-consumer},1652010913,0
{consumergroup=trace-token-events-consumer},1652010918,0
{consumergroup=trace-token-events-consumer},1652010923,0
{consumergroup=trace-token-events-consumer},1652010928,0
{consumergroup=trace-token-events-consumer},1652010933,0
{consumergroup=trace-token-events-consumer},1652010938,0
{consumergroup=trace-token-events-consumer},1652010943,0
{consumergroup=trace-token-events-consumer},1652010948,0
{consumergroup=trace-token-events-consumer},1652010953,0
{consumergroup=trace-token-events-consumer},1652010958,0
{consumergroup=trace-token-events-consumer},1652010963,0
{consumergroup=trace-token-events-consumer},1652010968,0
{consumergroup=trace-token-events-consumer},1652010973,0
{consumergroup=trace-token-events-consumer},1652010978,0
{consumergroup=trace-token-events-consumer},1652010983,0
{consumergroup=trace-token-events-consumer},1652010988,0
{consumergroup=trace-token-events-consumer},1652010993,0
{consumergroup=trace-token-events-consumer},1652010998,0
{consumergroup=trace-token-events-consumer},1652011003,0
{consumergroup=trace-token-events-consumer},1652011008,0
{consumergroup=trace-token-events-consumer},1652011013,0
{consumergroup=trace-token-events-consumer},1652011018,0
{consumergroup=trace-token-events-consumer},1652011023,0
{consumergroup=trace-token-events-consumer},1652011028,0
{consumergroup=trace-token-events-consumer},1652011033,0
{consumergroup=trace-token-events-consumer},1652011038,0
{consumergroup=trace-token-events-consumer},1652011043,0
{consumergroup=trace-token-events-consumer},1652011048,0
{consumergroup=trace-token-events-consumer},1652011053,0
{consumergroup=trace-token-events-consumer},1652011058,0
{consumergroup=trace-token-events-consumer},1652011063,0
{consumergroup=trace-token-events-consumer},1652011068,0
{consumergroup=trace-token-events-consumer},1652011073,0
{consumergroup=trace-token-events-consumer},1652011078,0
{consumergroup=trace-token-events-consumer},1652011083,0
{consumergroup=trace-token-events-consumer},1652011088,0
{consumergroup=trace-token-events-consumer},1652011093,0
{consumergroup=trace-token-events-consumer},1652011098,0
{consumergroup=trace-token-events-consumer},1652011103,0
{consumergroup=trace-token-events-consumer},1652011108,0
{consumergroup=trace-token-events-consumer},1652011113,0
{consumergroup=trace-token-events-consumer},1652011118,0
{consumergroup=trace-token-events-consumer},1652011123,0
{consumergroup=trace-token-events-consumer},1652011128,0
{consumergroup=trace-token-events-consumer},1652011133,0
{consumergroup=trace-token-events-consumer},1652011138,0
{consumergroup=trace-token-events-consumer},1652011143,0
{consumergroup=trace-token-events-consumer},1652011148,0
{consumergroup=trace-token-events-consumer},1652011153,0
{consumergroup=trace-token-events-consumer},1652011158,0
{consumergroup=trace-token-events-consumer},1652011163,0
{consumergroup=trace-token-events-consumer},1652011168,0
{consumergroup=trace-token-events-consumer},1652011173,0
{consumergroup=trace-token-events-consumer},1652011178,0
{consumergroup=trace-token-events-consumer},1652011183,0
{consumergroup=trace-token-events-consumer},1652011188,0
{consumergroup=trace-token-events-consumer},1652011193,0
