labels,timestamp,value
{consumergroup=__strimzi-topic-operator-kstreams},1651946734,0
{consumergroup=__strimzi-topic-operator-kstreams},1651946739,0
{consumergroup=__strimzi-topic-operator-kstreams},1651946744,0
{consumergroup=__strimzi-topic-operator-kstreams},1651946749,8
{consumergroup=__strimzi-topic-operator-kstreams},1651946754,8
{consumergroup=__strimzi-topic-operator-kstreams},1651946759,8
{consumergroup=__strimzi-topic-operator-kstreams},1651946764,0
{consumergroup=__strimzi-topic-operator-kstreams},1651946769,0
{consumergroup=__strimzi-topic-operator-kstreams},1651946774,0
{consumergroup=__strimzi-topic-operator-kstreams},1651946779,2
{consumergroup=__strimzi-topic-operator-kstreams},1651946784,2
{consumergroup=__strimzi-topic-operator-kstreams},1651946789,2
{consumergroup=__strimzi-topic-operator-kstreams},1651946794,0
{consumergroup=__strimzi-topic-operator-kstreams},1651946799,0
{consumergroup=__strimzi-topic-operator-kstreams},1651946804,0
{consumergroup=__strimzi-topic-operator-kstreams},1651946809,0
{consumergroup=__strimzi-topic-operator-kstreams},1651946814,0
{consumergroup=__strimzi-topic-operator-kstreams},1651946819,0
{consumergroup=__strimzi-topic-operator-kstreams},1651946824,0
{consumergroup=__strimzi-topic-operator-kstreams},1651946829,0
{consumergroup=__strimzi-topic-operator-kstreams},1651946834,0
{consumergroup=__strimzi-topic-operator-kstreams},1651946839,0
{consumergroup=__strimzi-topic-operator-kstreams},1651946844,0
{consumergroup=__strimzi-topic-operator-kstreams},1651946849,0
{consumergroup=__strimzi-topic-operator-kstreams},1651946854,0
{consumergroup=__strimzi-topic-operator-kstreams},1651946859,0
{consumergroup=__strimzi-topic-operator-kstreams},1651946864,0
{consumergroup=__strimzi-topic-operator-kstreams},1651946869,0
{consumergroup=__strimzi-topic-operator-kstreams},1651946874,0
{consumergroup=__strimzi-topic-operator-kstreams},1651946879,0
{consumergroup=__strimzi-topic-operator-kstreams},1651946884,0
{consumergroup=__strimzi-topic-operator-kstreams},1651946889,0
{consumergroup=__strimzi-topic-operator-kstreams},1651946894,0
{consumergroup=__strimzi-topic-operator-kstreams},1651946899,0
{consumergroup=__strimzi-topic-operator-kstreams},1651946904,0
{consumergroup=__strimzi-topic-operator-kstreams},1651946909,0
{consumergroup=__strimzi-topic-operator-kstreams},1651946914,0
{consumergroup=__strimzi-topic-operator-kstreams},1651946919,0
{consumergroup=__strimzi-topic-operator-kstreams},1651946924,0
{consumergroup=__strimzi-topic-operator-kstreams},1651946929,0
{consumergroup=__strimzi-topic-operator-kstreams},1651946934,0
{consumergroup=__strimzi-topic-operator-kstreams},1651946939,0
{consumergroup=__strimzi-topic-operator-kstreams},1651946944,0
{consumergroup=__strimzi-topic-operator-kstreams},1651946949,0
{consumergroup=__strimzi-topic-operator-kstreams},1651946954,0
{consumergroup=__strimzi-topic-operator-kstreams},1651946959,0
{consumergroup=__strimzi-topic-operator-kstreams},1651946964,0
{consumergroup=__strimzi-topic-operator-kstreams},1651946969,0
{consumergroup=__strimzi-topic-operator-kstreams},1651946974,0
{consumergroup=__strimzi-topic-operator-kstreams},1651946979,0
{consumergroup=__strimzi-topic-operator-kstreams},1651946984,0
{consumergroup=__strimzi-topic-operator-kstreams},1651946989,0
{consumergroup=__strimzi-topic-operator-kstreams},1651946994,0
{consumergroup=__strimzi-topic-operator-kstreams},1651946999,0
{consumergroup=__strimzi-topic-operator-kstreams},1651947004,0
{consumergroup=__strimzi-topic-operator-kstreams},1651947009,0
{consumergroup=__strimzi-topic-operator-kstreams},1651947014,0
{consumergroup=__strimzi-topic-operator-kstreams},1651947019,0
{consumergroup=__strimzi-topic-operator-kstreams},1651947024,0
{consumergroup=__strimzi-topic-operator-kstreams},1651947029,0
{consumergroup=__strimzi-topic-operator-kstreams},1651947034,0
{consumergroup=__strimzi-topic-operator-kstreams},1651947039,0
{consumergroup=__strimzi-topic-operator-kstreams},1651947044,0
{consumergroup=__strimzi-topic-operator-kstreams},1651947049,0
{consumergroup=__strimzi-topic-operator-kstreams},1651947054,0
{consumergroup=__strimzi-topic-operator-kstreams},1651947059,0
{consumergroup=__strimzi-topic-operator-kstreams},1651947064,0
{consumergroup=__strimzi-topic-operator-kstreams},1651947069,0
{consumergroup=__strimzi-topic-operator-kstreams},1651947074,0
{consumergroup=__strimzi-topic-operator-kstreams},1651947079,0
{consumergroup=__strimzi-topic-operator-kstreams},1651947084,0
{consumergroup=__strimzi-topic-operator-kstreams},1651947089,0
{consumergroup=__strimzi-topic-operator-kstreams},1651947094,0
{consumergroup=__strimzi-topic-operator-kstreams},1651947099,0
{consumergroup=__strimzi-topic-operator-kstreams},1651947104,0
{consumergroup=__strimzi-topic-operator-kstreams},1651947109,0
{consumergroup=__strimzi-topic-operator-kstreams},1651947114,0
{consumergroup=__strimzi-topic-operator-kstreams},1651947119,0
{consumergroup=__strimzi-topic-operator-kstreams},1651947124,0
{consumergroup=__strimzi-topic-operator-kstreams},1651947129,0
{consumergroup=__strimzi-topic-operator-kstreams},1651947134,0
{consumergroup=__strimzi-topic-operator-kstreams},1651947139,0
{consumergroup=__strimzi-topic-operator-kstreams},1651947144,0
{consumergroup=__strimzi-topic-operator-kstreams},1651947149,0
{consumergroup=__strimzi-topic-operator-kstreams},1651947154,0
{consumergroup=__strimzi-topic-operator-kstreams},1651947159,0
{consumergroup=__strimzi-topic-operator-kstreams},1651947164,0
{consumergroup=__strimzi-topic-operator-kstreams},1651947169,0
{consumergroup=__strimzi-topic-operator-kstreams},1651947174,0
{consumergroup=__strimzi-topic-operator-kstreams},1651947179,0
{consumergroup=__strimzi-topic-operator-kstreams},1651947184,0
{consumergroup=__strimzi-topic-operator-kstreams},1651947189,0
{consumergroup=adapter-service},1651946779,0
{consumergroup=adapter-service},1651946784,0
{consumergroup=adapter-service},1651946789,0
{consumergroup=adapter-service},1651946794,15402
{consumergroup=adapter-service},1651946799,15402
{consumergroup=adapter-service},1651946804,15402
{consumergroup=adapter-service},1651946809,4118
{consumergroup=adapter-service},1651946814,4118
{consumergroup=adapter-service},1651946819,4118
{consumergroup=adapter-service},1651946824,2892
{consumergroup=adapter-service},1651946829,2892
{consumergroup=adapter-service},1651946834,2892
{consumergroup=adapter-service},1651946839,703
{consumergroup=adapter-service},1651946844,703
{consumergroup=adapter-service},1651946849,703
{consumergroup=adapter-service},1651946854,8641
{consumergroup=adapter-service},1651946859,8641
{consumergroup=adapter-service},1651946864,8641
{consumergroup=adapter-service},1651946869,10448
{consumergroup=adapter-service},1651946874,10448
{consumergroup=adapter-service},1651946879,10448
{consumergroup=adapter-service},1651946884,12631
{consumergroup=adapter-service},1651946889,12631
{consumergroup=adapter-service},1651946894,12631
{consumergroup=adapter-service},1651946899,14649
{consumergroup=adapter-service},1651946904,14649
{consumergroup=adapter-service},1651946909,14649
{consumergroup=adapter-service},1651946914,15180
{consumergroup=adapter-service},1651946919,15180
{consumergroup=adapter-service},1651946924,15180
{consumergroup=adapter-service},1651946929,14136
{consumergroup=adapter-service},1651946934,14136
{consumergroup=adapter-service},1651946939,14136
{consumergroup=adapter-service},1651946944,13570
{consumergroup=adapter-service},1651946949,13570
{consumergroup=adapter-service},1651946954,13570
{consumergroup=adapter-service},1651946959,14183
{consumergroup=adapter-service},1651946964,14183
{consumergroup=adapter-service},1651946969,14183
{consumergroup=adapter-service},1651946974,13002
{consumergroup=adapter-service},1651946979,13002
{consumergroup=adapter-service},1651946984,13002
{consumergroup=adapter-service},1651946989,10132
{consumergroup=adapter-service},1651946994,10132
{consumergroup=adapter-service},1651946999,10132
{consumergroup=adapter-service},1651947004,12406
{consumergroup=adapter-service},1651947009,12406
{consumergroup=adapter-service},1651947014,12406
{consumergroup=adapter-service},1651947019,11984
{consumergroup=adapter-service},1651947024,11984
{consumergroup=adapter-service},1651947029,11984
{consumergroup=adapter-service},1651947034,11454
{consumergroup=adapter-service},1651947039,11454
{consumergroup=adapter-service},1651947044,11454
{consumergroup=adapter-service},1651947049,12143
{consumergroup=adapter-service},1651947054,12143
{consumergroup=adapter-service},1651947059,12143
{consumergroup=adapter-service},1651947064,14352
{consumergroup=adapter-service},1651947069,14352
{consumergroup=adapter-service},1651947074,14352
{consumergroup=adapter-service},1651947079,10231
{consumergroup=adapter-service},1651947084,10231
{consumergroup=adapter-service},1651947089,10231
{consumergroup=adapter-service},1651947094,9900
{consumergroup=adapter-service},1651947099,9900
{consumergroup=adapter-service},1651947104,9900
{consumergroup=adapter-service},1651947109,9699
{consumergroup=adapter-service},1651947114,9699
{consumergroup=adapter-service},1651947119,9699
{consumergroup=adapter-service},1651947124,9228
{consumergroup=adapter-service},1651947129,9228
{consumergroup=adapter-service},1651947134,9228
{consumergroup=adapter-service},1651947139,9191
{consumergroup=adapter-service},1651947144,9191
{consumergroup=adapter-service},1651947149,9191
{consumergroup=adapter-service},1651947154,9501
{consumergroup=adapter-service},1651947159,9501
{consumergroup=adapter-service},1651947164,9501
{consumergroup=adapter-service},1651947169,8405
{consumergroup=adapter-service},1651947174,8405
{consumergroup=adapter-service},1651947179,8405
{consumergroup=adapter-service},1651947184,8963
{consumergroup=adapter-service},1651947189,8963
{consumergroup=landscape-service},1651946794,12390
{consumergroup=landscape-service},1651946799,12390
{consumergroup=landscape-service},1651946804,12390
{consumergroup=landscape-service},1651946809,8451
{consumergroup=landscape-service},1651946814,8451
{consumergroup=landscape-service},1651946819,8451
{consumergroup=landscape-service},1651946824,7748
{consumergroup=landscape-service},1651946829,7748
{consumergroup=landscape-service},1651946834,7748
{consumergroup=landscape-service},1651946839,6108
{consumergroup=landscape-service},1651946844,6108
{consumergroup=landscape-service},1651946849,6108
{consumergroup=landscape-service},1651946854,6324
{consumergroup=landscape-service},1651946859,6324
{consumergroup=landscape-service},1651946864,6324
{consumergroup=landscape-service},1651946869,5853
{consumergroup=landscape-service},1651946874,5853
{consumergroup=landscape-service},1651946879,5853
{consumergroup=landscape-service},1651946884,5649
{consumergroup=landscape-service},1651946889,5649
{consumergroup=landscape-service},1651946894,5649
{consumergroup=landscape-service},1651946899,5413
{consumergroup=landscape-service},1651946904,5413
{consumergroup=landscape-service},1651946909,5413
{consumergroup=landscape-service},1651946914,6405
{consumergroup=landscape-service},1651946919,6405
{consumergroup=landscape-service},1651946924,6405
{consumergroup=landscape-service},1651946929,6330
{consumergroup=landscape-service},1651946934,6330
{consumergroup=landscape-service},1651946939,6330
{consumergroup=landscape-service},1651946944,5164
{consumergroup=landscape-service},1651946949,5164
{consumergroup=landscape-service},1651946954,5164
{consumergroup=landscape-service},1651946959,5351
{consumergroup=landscape-service},1651946964,5351
{consumergroup=landscape-service},1651946969,5351
{consumergroup=landscape-service},1651946974,5992
{consumergroup=landscape-service},1651946979,5992
{consumergroup=landscape-service},1651946984,5992
{consumergroup=landscape-service},1651946989,8412
{consumergroup=landscape-service},1651946994,8412
{consumergroup=landscape-service},1651946999,8412
{consumergroup=landscape-service},1651947004,4772
{consumergroup=landscape-service},1651947009,4772
{consumergroup=landscape-service},1651947014,4772
{consumergroup=landscape-service},1651947019,4982
{consumergroup=landscape-service},1651947024,4982
{consumergroup=landscape-service},1651947029,4982
{consumergroup=landscape-service},1651947034,4583
{consumergroup=landscape-service},1651947039,4583
{consumergroup=landscape-service},1651947044,4583
{consumergroup=landscape-service},1651947049,5526
{consumergroup=landscape-service},1651947054,5526
{consumergroup=landscape-service},1651947059,5526
{consumergroup=landscape-service},1651947064,8328
{consumergroup=landscape-service},1651947069,8328
{consumergroup=landscape-service},1651947074,8328
{consumergroup=landscape-service},1651947079,4337
{consumergroup=landscape-service},1651947084,4337
{consumergroup=landscape-service},1651947089,4337
{consumergroup=landscape-service},1651947094,4111
{consumergroup=landscape-service},1651947099,4111
{consumergroup=landscape-service},1651947104,4111
{consumergroup=landscape-service},1651947109,4947
{consumergroup=landscape-service},1651947114,4947
{consumergroup=landscape-service},1651947119,4947
{consumergroup=landscape-service},1651947124,3998
{consumergroup=landscape-service},1651947129,3998
{consumergroup=landscape-service},1651947134,3998
{consumergroup=landscape-service},1651947139,4667
{consumergroup=landscape-service},1651947144,4667
{consumergroup=landscape-service},1651947149,4667
{consumergroup=landscape-service},1651947154,3729
{consumergroup=landscape-service},1651947159,3729
{consumergroup=landscape-service},1651947164,3729
{consumergroup=landscape-service},1651947169,3702
{consumergroup=landscape-service},1651947174,3702
{consumergroup=landscape-service},1651947179,3702
{consumergroup=landscape-service},1651947184,3544
{consumergroup=landscape-service},1651947189,3544
{consumergroup=trace-service},1651946794,50852
{consumergroup=trace-service},1651946799,50852
{consumergroup=trace-service},1651946804,50852
{consumergroup=trace-service},1651946809,109924
{consumergroup=trace-service},1651946814,109924
{consumergroup=trace-service},1651946819,109924
{consumergroup=trace-service},1651946824,142670
{consumergroup=trace-service},1651946829,142670
{consumergroup=trace-service},1651946834,142670
{consumergroup=trace-service},1651946839,186418
{consumergroup=trace-service},1651946844,186418
{consumergroup=trace-service},1651946849,186418
{consumergroup=trace-service},1651946854,138422
{consumergroup=trace-service},1651946859,138422
{consumergroup=trace-service},1651946864,138422
{consumergroup=trace-service},1651946869,110325
{consumergroup=trace-service},1651946874,110325
{consumergroup=trace-service},1651946879,110325
{consumergroup=trace-service},1651946884,45230
{consumergroup=trace-service},1651946889,45230
{consumergroup=trace-service},1651946894,45230
{consumergroup=trace-service},1651946899,88271
{consumergroup=trace-service},1651946904,88271
{consumergroup=trace-service},1651946909,88271
{consumergroup=trace-service},1651946914,31455
{consumergroup=trace-service},1651946919,31455
{consumergroup=trace-service},1651946924,31455
{consumergroup=trace-service},1651946929,91736
{consumergroup=trace-service},1651946934,91736
{consumergroup=trace-service},1651946939,91736
{consumergroup=trace-service},1651946944,28111
{consumergroup=trace-service},1651946949,28111
{consumergroup=trace-service},1651946954,28111
{consumergroup=trace-service},1651946959,64281
{consumergroup=trace-service},1651946964,64281
{consumergroup=trace-service},1651946969,64281
{consumergroup=trace-service},1651946974,44846
{consumergroup=trace-service},1651946979,44846
{consumergroup=trace-service},1651946984,44846
{consumergroup=trace-service},1651946989,106853
{consumergroup=trace-service},1651946994,106853
{consumergroup=trace-service},1651946999,106853
{consumergroup=trace-service},1651947004,36505
{consumergroup=trace-service},1651947009,36505
{consumergroup=trace-service},1651947014,36505
{consumergroup=trace-service},1651947019,64186
{consumergroup=trace-service},1651947024,64186
{consumergroup=trace-service},1651947029,64186
{consumergroup=trace-service},1651947034,38519
{consumergroup=trace-service},1651947039,38519
{consumergroup=trace-service},1651947044,38519
{consumergroup=trace-service},1651947049,97926
{consumergroup=trace-service},1651947054,97926
{consumergroup=trace-service},1651947059,97926
{consumergroup=trace-service},1651947064,38899
{consumergroup=trace-service},1651947069,38899
{consumergroup=trace-service},1651947074,38899
{consumergroup=trace-service},1651947079,96295
{consumergroup=trace-service},1651947084,96295
{consumergroup=trace-service},1651947089,96295
{consumergroup=trace-service},1651947094,34211
{consumergroup=trace-service},1651947099,34211
{consumergroup=trace-service},1651947104,34211
{consumergroup=trace-service},1651947109,60895
{consumergroup=trace-service},1651947114,60895
{consumergroup=trace-service},1651947119,60895
{consumergroup=trace-service},1651947124,37135
{consumergroup=trace-service},1651947129,37135
{consumergroup=trace-service},1651947134,37135
{consumergroup=trace-service},1651947139,85973
{consumergroup=trace-service},1651947144,85973
{consumergroup=trace-service},1651947149,85973
{consumergroup=trace-service},1651947154,31951
{consumergroup=trace-service},1651947159,31951
{consumergroup=trace-service},1651947164,31951
{consumergroup=trace-service},1651947169,80389
{consumergroup=trace-service},1651947174,80389
{consumergroup=trace-service},1651947179,80389
{consumergroup=trace-service},1651947184,33314
{consumergroup=trace-service},1651947189,33314
