labels,timestamp,value
{consumergroup=__strimzi-topic-operator-kstreams},1651883303,22
{consumergroup=__strimzi-topic-operator-kstreams},1651883308,22
{consumergroup=__strimzi-topic-operator-kstreams},1651883313,22
{consumergroup=__strimzi-topic-operator-kstreams},1651883318,0
{consumergroup=__strimzi-topic-operator-kstreams},1651883323,0
{consumergroup=__strimzi-topic-operator-kstreams},1651883328,0
{consumergroup=__strimzi-topic-operator-kstreams},1651883333,0
{consumergroup=__strimzi-topic-operator-kstreams},1651883338,0
{consumergroup=__strimzi-topic-operator-kstreams},1651883343,0
{consumergroup=__strimzi-topic-operator-kstreams},1651883348,0
{consumergroup=__strimzi-topic-operator-kstreams},1651883353,0
{consumergroup=__strimzi-topic-operator-kstreams},1651883358,0
{consumergroup=__strimzi-topic-operator-kstreams},1651883363,0
{consumergroup=__strimzi-topic-operator-kstreams},1651883368,0
{consumergroup=__strimzi-topic-operator-kstreams},1651883373,0
{consumergroup=__strimzi-topic-operator-kstreams},1651883378,0
{consumergroup=__strimzi-topic-operator-kstreams},1651883383,0
{consumergroup=__strimzi-topic-operator-kstreams},1651883388,0
{consumergroup=__strimzi-topic-operator-kstreams},1651883393,0
{consumergroup=__strimzi-topic-operator-kstreams},1651883398,0
{consumergroup=__strimzi-topic-operator-kstreams},1651883403,0
{consumergroup=__strimzi-topic-operator-kstreams},1651883408,0
{consumergroup=__strimzi-topic-operator-kstreams},1651883413,0
{consumergroup=__strimzi-topic-operator-kstreams},1651883418,0
{consumergroup=__strimzi-topic-operator-kstreams},1651883423,0
{consumergroup=__strimzi-topic-operator-kstreams},1651883428,0
{consumergroup=__strimzi-topic-operator-kstreams},1651883433,0
{consumergroup=__strimzi-topic-operator-kstreams},1651883438,0
{consumergroup=__strimzi-topic-operator-kstreams},1651883443,0
{consumergroup=__strimzi-topic-operator-kstreams},1651883448,0
{consumergroup=__strimzi-topic-operator-kstreams},1651883453,0
{consumergroup=__strimzi-topic-operator-kstreams},1651883458,0
{consumergroup=__strimzi-topic-operator-kstreams},1651883463,0
{consumergroup=__strimzi-topic-operator-kstreams},1651883468,0
{consumergroup=__strimzi-topic-operator-kstreams},1651883473,0
{consumergroup=__strimzi-topic-operator-kstreams},1651883478,0
{consumergroup=__strimzi-topic-operator-kstreams},1651883483,0
{consumergroup=__strimzi-topic-operator-kstreams},1651883488,0
{consumergroup=__strimzi-topic-operator-kstreams},1651883493,0
{consumergroup=__strimzi-topic-operator-kstreams},1651883498,0
{consumergroup=__strimzi-topic-operator-kstreams},1651883503,0
{consumergroup=__strimzi-topic-operator-kstreams},1651883508,0
{consumergroup=__strimzi-topic-operator-kstreams},1651883513,0
{consumergroup=__strimzi-topic-operator-kstreams},1651883518,0
{consumergroup=__strimzi-topic-operator-kstreams},1651883523,0
{consumergroup=__strimzi-topic-operator-kstreams},1651883528,0
{consumergroup=__strimzi-topic-operator-kstreams},1651883533,0
{consumergroup=__strimzi-topic-operator-kstreams},1651883538,0
{consumergroup=__strimzi-topic-operator-kstreams},1651883543,0
{consumergroup=__strimzi-topic-operator-kstreams},1651883548,0
{consumergroup=__strimzi-topic-operator-kstreams},1651883553,0
{consumergroup=adapter-service},1651883333,133201
{consumergroup=adapter-service},1651883338,133201
{consumergroup=adapter-service},1651883343,133201
{consumergroup=adapter-service},1651883348,314017
{consumergroup=adapter-service},1651883353,314017
{consumergroup=adapter-service},1651883358,314017
{consumergroup=adapter-service},1651883363,469592
{consumergroup=adapter-service},1651883368,469592
{consumergroup=adapter-service},1651883373,469592
{consumergroup=adapter-service},1651883378,579947
{consumergroup=adapter-service},1651883383,579947
{consumergroup=adapter-service},1651883388,579947
{consumergroup=adapter-service},1651883393,693925
{consumergroup=adapter-service},1651883398,693925
{consumergroup=adapter-service},1651883403,693925
{consumergroup=adapter-service},1651883408,808175
{consumergroup=adapter-service},1651883413,808175
{consumergroup=adapter-service},1651883418,808175
{consumergroup=adapter-service},1651883423,911865
{consumergroup=adapter-service},1651883428,911865
{consumergroup=adapter-service},1651883433,911865
{consumergroup=adapter-service},1651883438,983457
{consumergroup=adapter-service},1651883443,983457
{consumergroup=adapter-service},1651883448,983457
{consumergroup=adapter-service},1651883453,1026817
{consumergroup=adapter-service},1651883458,1026817
{consumergroup=adapter-service},1651883463,1026817
{consumergroup=adapter-service},1651883468,1059798
{consumergroup=adapter-service},1651883473,1059798
{consumergroup=adapter-service},1651883478,1059798
{consumergroup=adapter-service},1651883483,1101072
{consumergroup=adapter-service},1651883488,1101072
{consumergroup=adapter-service},1651883493,1101072
{consumergroup=adapter-service},1651883498,1141832
{consumergroup=adapter-service},1651883503,1141832
{consumergroup=adapter-service},1651883508,1141832
{consumergroup=adapter-service},1651883513,1176734
{consumergroup=adapter-service},1651883518,1176734
{consumergroup=adapter-service},1651883523,1176734
{consumergroup=adapter-service},1651883528,1230968
{consumergroup=adapter-service},1651883533,1230968
{consumergroup=adapter-service},1651883538,1230968
{consumergroup=adapter-service},1651883543,1276106
{consumergroup=adapter-service},1651883548,1276106
{consumergroup=adapter-service},1651883553,1276106
