labels,timestamp,value
{consumergroup=__strimzi-topic-operator-kstreams},1651943439,11
{consumergroup=__strimzi-topic-operator-kstreams},1651943444,11
{consumergroup=__strimzi-topic-operator-kstreams},1651943449,11
{consumergroup=__strimzi-topic-operator-kstreams},1651943454,0
{consumergroup=__strimzi-topic-operator-kstreams},1651943459,0
{consumergroup=__strimzi-topic-operator-kstreams},1651943464,0
{consumergroup=__strimzi-topic-operator-kstreams},1651943469,3
{consumergroup=__strimzi-topic-operator-kstreams},1651943474,3
{consumergroup=__strimzi-topic-operator-kstreams},1651943479,3
{consumergroup=__strimzi-topic-operator-kstreams},1651943484,0
{consumergroup=__strimzi-topic-operator-kstreams},1651943489,0
{consumergroup=__strimzi-topic-operator-kstreams},1651943494,0
{consumergroup=__strimzi-topic-operator-kstreams},1651943499,0
{consumergroup=__strimzi-topic-operator-kstreams},1651943504,0
{consumergroup=__strimzi-topic-operator-kstreams},1651943509,0
{consumergroup=__strimzi-topic-operator-kstreams},1651943514,0
{consumergroup=__strimzi-topic-operator-kstreams},1651943519,0
{consumergroup=__strimzi-topic-operator-kstreams},1651943524,0
{consumergroup=__strimzi-topic-operator-kstreams},1651943529,0
{consumergroup=__strimzi-topic-operator-kstreams},1651943534,0
{consumergroup=__strimzi-topic-operator-kstreams},1651943539,0
{consumergroup=__strimzi-topic-operator-kstreams},1651943544,0
{consumergroup=__strimzi-topic-operator-kstreams},1651943549,0
{consumergroup=__strimzi-topic-operator-kstreams},1651943554,0
{consumergroup=__strimzi-topic-operator-kstreams},1651943559,0
{consumergroup=__strimzi-topic-operator-kstreams},1651943564,0
{consumergroup=__strimzi-topic-operator-kstreams},1651943569,0
{consumergroup=__strimzi-topic-operator-kstreams},1651943574,0
{consumergroup=__strimzi-topic-operator-kstreams},1651943579,0
{consumergroup=__strimzi-topic-operator-kstreams},1651943584,0
{consumergroup=__strimzi-topic-operator-kstreams},1651943589,0
{consumergroup=__strimzi-topic-operator-kstreams},1651943594,0
{consumergroup=__strimzi-topic-operator-kstreams},1651943599,0
{consumergroup=__strimzi-topic-operator-kstreams},1651943604,0
{consumergroup=__strimzi-topic-operator-kstreams},1651943609,0
{consumergroup=__strimzi-topic-operator-kstreams},1651943614,0
{consumergroup=__strimzi-topic-operator-kstreams},1651943619,0
{consumergroup=__strimzi-topic-operator-kstreams},1651943624,0
{consumergroup=__strimzi-topic-operator-kstreams},1651943629,0
{consumergroup=__strimzi-topic-operator-kstreams},1651943634,0
{consumergroup=__strimzi-topic-operator-kstreams},1651943639,0
{consumergroup=__strimzi-topic-operator-kstreams},1651943644,0
{consumergroup=__strimzi-topic-operator-kstreams},1651943649,0
{consumergroup=__strimzi-topic-operator-kstreams},1651943654,0
{consumergroup=__strimzi-topic-operator-kstreams},1651943659,0
{consumergroup=__strimzi-topic-operator-kstreams},1651943664,0
{consumergroup=__strimzi-topic-operator-kstreams},1651943669,0
{consumergroup=__strimzi-topic-operator-kstreams},1651943674,0
{consumergroup=__strimzi-topic-operator-kstreams},1651943679,0
{consumergroup=__strimzi-topic-operator-kstreams},1651943684,0
{consumergroup=__strimzi-topic-operator-kstreams},1651943689,0
{consumergroup=__strimzi-topic-operator-kstreams},1651943694,0
{consumergroup=__strimzi-topic-operator-kstreams},1651943699,0
{consumergroup=__strimzi-topic-operator-kstreams},1651943704,0
{consumergroup=__strimzi-topic-operator-kstreams},1651943709,0
{consumergroup=__strimzi-topic-operator-kstreams},1651943714,0
{consumergroup=__strimzi-topic-operator-kstreams},1651943719,0
{consumergroup=__strimzi-topic-operator-kstreams},1651943724,0
{consumergroup=__strimzi-topic-operator-kstreams},1651943729,0
{consumergroup=__strimzi-topic-operator-kstreams},1651943734,0
{consumergroup=__strimzi-topic-operator-kstreams},1651943739,0
{consumergroup=__strimzi-topic-operator-kstreams},1651943744,0
{consumergroup=__strimzi-topic-operator-kstreams},1651943749,0
{consumergroup=__strimzi-topic-operator-kstreams},1651943754,0
{consumergroup=__strimzi-topic-operator-kstreams},1651943759,0
{consumergroup=__strimzi-topic-operator-kstreams},1651943764,0
{consumergroup=__strimzi-topic-operator-kstreams},1651943769,0
{consumergroup=__strimzi-topic-operator-kstreams},1651943774,0
{consumergroup=__strimzi-topic-operator-kstreams},1651943779,0
{consumergroup=__strimzi-topic-operator-kstreams},1651943784,0
{consumergroup=__strimzi-topic-operator-kstreams},1651943789,0
{consumergroup=__strimzi-topic-operator-kstreams},1651943794,0
{consumergroup=__strimzi-topic-operator-kstreams},1651943799,0
{consumergroup=__strimzi-topic-operator-kstreams},1651943804,0
{consumergroup=__strimzi-topic-operator-kstreams},1651943809,0
{consumergroup=__strimzi-topic-operator-kstreams},1651943814,0
{consumergroup=__strimzi-topic-operator-kstreams},1651943819,0
{consumergroup=__strimzi-topic-operator-kstreams},1651943824,0
{consumergroup=__strimzi-topic-operator-kstreams},1651943829,0
{consumergroup=__strimzi-topic-operator-kstreams},1651943834,0
{consumergroup=__strimzi-topic-operator-kstreams},1651943839,0
{consumergroup=__strimzi-topic-operator-kstreams},1651943844,0
{consumergroup=__strimzi-topic-operator-kstreams},1651943849,0
{consumergroup=__strimzi-topic-operator-kstreams},1651943854,0
{consumergroup=__strimzi-topic-operator-kstreams},1651943859,0
{consumergroup=__strimzi-topic-operator-kstreams},1651943864,0
{consumergroup=__strimzi-topic-operator-kstreams},1651943869,0
{consumergroup=__strimzi-topic-operator-kstreams},1651943874,0
{consumergroup=__strimzi-topic-operator-kstreams},1651943879,0
{consumergroup=__strimzi-topic-operator-kstreams},1651943884,0
{consumergroup=adapter-service},1651943469,0
{consumergroup=adapter-service},1651943474,0
{consumergroup=adapter-service},1651943479,0
{consumergroup=adapter-service},1651943484,34031
{consumergroup=adapter-service},1651943489,34031
{consumergroup=adapter-service},1651943494,34031
{consumergroup=adapter-service},1651943499,12320
{consumergroup=adapter-service},1651943504,12320
{consumergroup=adapter-service},1651943509,12320
{consumergroup=adapter-service},1651943514,4027
{consumergroup=adapter-service},1651943519,4027
{consumergroup=adapter-service},1651943524,4027
{consumergroup=adapter-service},1651943529,4940
{consumergroup=adapter-service},1651943534,4940
{consumergroup=adapter-service},1651943539,4940
{consumergroup=adapter-service},1651943544,13665
{consumergroup=adapter-service},1651943549,13665
{consumergroup=adapter-service},1651943554,13665
{consumergroup=adapter-service},1651943559,1724
{consumergroup=adapter-service},1651943564,1724
{consumergroup=adapter-service},1651943569,1724
{consumergroup=adapter-service},1651943574,13907
{consumergroup=adapter-service},1651943579,13907
{consumergroup=adapter-service},1651943584,13907
{consumergroup=adapter-service},1651943589,11176
{consumergroup=adapter-service},1651943594,11176
{consumergroup=adapter-service},1651943599,11176
{consumergroup=adapter-service},1651943604,15981
{consumergroup=adapter-service},1651943609,15981
{consumergroup=adapter-service},1651943614,15981
{consumergroup=adapter-service},1651943619,12783
{consumergroup=adapter-service},1651943624,12783
{consumergroup=adapter-service},1651943629,12783
{consumergroup=adapter-service},1651943634,15883
{consumergroup=adapter-service},1651943639,15883
{consumergroup=adapter-service},1651943644,15883
{consumergroup=adapter-service},1651943649,11630
{consumergroup=adapter-service},1651943654,11630
{consumergroup=adapter-service},1651943659,11630
{consumergroup=adapter-service},1651943664,14057
{consumergroup=adapter-service},1651943669,14057
{consumergroup=adapter-service},1651943674,14057
{consumergroup=adapter-service},1651943679,11887
{consumergroup=adapter-service},1651943684,11887
{consumergroup=adapter-service},1651943689,11887
{consumergroup=adapter-service},1651943694,13156
{consumergroup=adapter-service},1651943699,13156
{consumergroup=adapter-service},1651943704,13156
{consumergroup=adapter-service},1651943709,13921
{consumergroup=adapter-service},1651943714,13921
{consumergroup=adapter-service},1651943719,13921
{consumergroup=adapter-service},1651943724,12544
{consumergroup=adapter-service},1651943729,12544
{consumergroup=adapter-service},1651943734,12544
{consumergroup=adapter-service},1651943739,16294
{consumergroup=adapter-service},1651943744,16294
{consumergroup=adapter-service},1651943749,16294
{consumergroup=adapter-service},1651943754,11620
{consumergroup=adapter-service},1651943759,11620
{consumergroup=adapter-service},1651943764,11620
{consumergroup=adapter-service},1651943769,15032
{consumergroup=adapter-service},1651943774,15032
{consumergroup=adapter-service},1651943779,15032
{consumergroup=adapter-service},1651943784,10297
{consumergroup=adapter-service},1651943789,10297
{consumergroup=adapter-service},1651943794,10297
{consumergroup=adapter-service},1651943799,14136
{consumergroup=adapter-service},1651943804,14136
{consumergroup=adapter-service},1651943809,14136
{consumergroup=adapter-service},1651943814,9562
{consumergroup=adapter-service},1651943819,9562
{consumergroup=adapter-service},1651943824,9562
{consumergroup=adapter-service},1651943829,14477
{consumergroup=adapter-service},1651943834,14477
{consumergroup=adapter-service},1651943839,14477
{consumergroup=adapter-service},1651943844,8569
{consumergroup=adapter-service},1651943849,8569
{consumergroup=adapter-service},1651943854,8569
{consumergroup=adapter-service},1651943859,12434
{consumergroup=adapter-service},1651943864,12434
{consumergroup=adapter-service},1651943869,12434
{consumergroup=adapter-service},1651943874,8228
{consumergroup=adapter-service},1651943879,8228
{consumergroup=adapter-service},1651943884,8228
{consumergroup=landscape-service},1651943484,307
{consumergroup=landscape-service},1651943489,307
{consumergroup=landscape-service},1651943494,307
{consumergroup=landscape-service},1651943499,13961
{consumergroup=landscape-service},1651943504,13961
{consumergroup=landscape-service},1651943509,13961
{consumergroup=landscape-service},1651943514,8417
{consumergroup=landscape-service},1651943519,8417
{consumergroup=landscape-service},1651943524,8417
{consumergroup=landscape-service},1651943529,11682
{consumergroup=landscape-service},1651943534,11682
{consumergroup=landscape-service},1651943539,11682
{consumergroup=landscape-service},1651943544,5689
{consumergroup=landscape-service},1651943549,5689
{consumergroup=landscape-service},1651943554,5689
{consumergroup=landscape-service},1651943559,10972
{consumergroup=landscape-service},1651943564,10972
{consumergroup=landscape-service},1651943569,10972
{consumergroup=landscape-service},1651943574,5285
{consumergroup=landscape-service},1651943579,5285
{consumergroup=landscape-service},1651943584,5285
{consumergroup=landscape-service},1651943589,10513
{consumergroup=landscape-service},1651943594,10513
{consumergroup=landscape-service},1651943599,10513
{consumergroup=landscape-service},1651943604,5164
{consumergroup=landscape-service},1651943609,5164
{consumergroup=landscape-service},1651943614,5164
{consumergroup=landscape-service},1651943619,9343
{consumergroup=landscape-service},1651943624,9343
{consumergroup=landscape-service},1651943629,9343
{consumergroup=landscape-service},1651943634,5179
{consumergroup=landscape-service},1651943639,5179
{consumergroup=landscape-service},1651943644,5179
{consumergroup=landscape-service},1651943649,8864
{consumergroup=landscape-service},1651943654,8864
{consumergroup=landscape-service},1651943659,8864
{consumergroup=landscape-service},1651943664,4562
{consumergroup=landscape-service},1651943669,4562
{consumergroup=landscape-service},1651943674,4562
{consumergroup=landscape-service},1651943679,8714
{consumergroup=landscape-service},1651943684,8714
{consumergroup=landscape-service},1651943689,8714
{consumergroup=landscape-service},1651943694,4399
{consumergroup=landscape-service},1651943699,4399
{consumergroup=landscape-service},1651943704,4399
{consumergroup=landscape-service},1651943709,9759
{consumergroup=landscape-service},1651943714,9759
{consumergroup=landscape-service},1651943719,9759
{consumergroup=landscape-service},1651943724,5566
{consumergroup=landscape-service},1651943729,5566
{consumergroup=landscape-service},1651943734,5566
{consumergroup=landscape-service},1651943739,8449
{consumergroup=landscape-service},1651943744,8449
{consumergroup=landscape-service},1651943749,8449
{consumergroup=landscape-service},1651943754,4196
{consumergroup=landscape-service},1651943759,4196
{consumergroup=landscape-service},1651943764,4196
{consumergroup=landscape-service},1651943769,8445
{consumergroup=landscape-service},1651943774,8445
{consumergroup=landscape-service},1651943779,8445
{consumergroup=landscape-service},1651943784,3752
{consumergroup=landscape-service},1651943789,3752
{consumergroup=landscape-service},1651943794,3752
{consumergroup=landscape-service},1651943799,7957
{consumergroup=landscape-service},1651943804,7957
{consumergroup=landscape-service},1651943809,7957
{consumergroup=landscape-service},1651943814,3621
{consumergroup=landscape-service},1651943819,3621
{consumergroup=landscape-service},1651943824,3621
{consumergroup=landscape-service},1651943829,8856
{consumergroup=landscape-service},1651943834,8856
{consumergroup=landscape-service},1651943839,8856
{consumergroup=landscape-service},1651943844,3246
{consumergroup=landscape-service},1651943849,3246
{consumergroup=landscape-service},1651943854,3246
{consumergroup=landscape-service},1651943859,7773
{consumergroup=landscape-service},1651943864,7773
{consumergroup=landscape-service},1651943869,7773
{consumergroup=landscape-service},1651943874,4405
{consumergroup=landscape-service},1651943879,4405
{consumergroup=landscape-service},1651943884,4405
{consumergroup=trace-service},1651943484,29747
{consumergroup=trace-service},1651943489,29747
{consumergroup=trace-service},1651943494,29747
{consumergroup=trace-service},1651943499,114635
{consumergroup=trace-service},1651943504,114635
{consumergroup=trace-service},1651943509,114635
{consumergroup=trace-service},1651943514,156342
{consumergroup=trace-service},1651943519,156342
{consumergroup=trace-service},1651943524,156342
{consumergroup=trace-service},1651943529,172295
{consumergroup=trace-service},1651943534,172295
{consumergroup=trace-service},1651943539,172295
{consumergroup=trace-service},1651943544,199708
{consumergroup=trace-service},1651943549,199708
{consumergroup=trace-service},1651943554,199708
{consumergroup=trace-service},1651943559,112278
{consumergroup=trace-service},1651943564,112278
{consumergroup=trace-service},1651943569,112278
{consumergroup=trace-service},1651943574,110095
{consumergroup=trace-service},1651943579,110095
{consumergroup=trace-service},1651943584,110095
{consumergroup=trace-service},1651943589,121372
{consumergroup=trace-service},1651943594,121372
{consumergroup=trace-service},1651943599,121372
{consumergroup=trace-service},1651943604,82029
{consumergroup=trace-service},1651943609,82029
{consumergroup=trace-service},1651943614,82029
{consumergroup=trace-service},1651943619,54020
{consumergroup=trace-service},1651943624,54020
{consumergroup=trace-service},1651943629,54020
{consumergroup=trace-service},1651943634,109593
{consumergroup=trace-service},1651943639,109593
{consumergroup=trace-service},1651943644,109593
{consumergroup=trace-service},1651943649,61762
{consumergroup=trace-service},1651943654,61762
{consumergroup=trace-service},1651943659,61762
{consumergroup=trace-service},1651943664,110601
{consumergroup=trace-service},1651943669,110601
{consumergroup=trace-service},1651943674,110601
{consumergroup=trace-service},1651943679,57076
{consumergroup=trace-service},1651943684,57076
{consumergroup=trace-service},1651943689,57076
{consumergroup=trace-service},1651943694,101262
{consumergroup=trace-service},1651943699,101262
{consumergroup=trace-service},1651943704,101262
{consumergroup=trace-service},1651943709,55032
{consumergroup=trace-service},1651943714,55032
{consumergroup=trace-service},1651943719,55032
{consumergroup=trace-service},1651943724,80004
{consumergroup=trace-service},1651943729,80004
{consumergroup=trace-service},1651943734,80004
{consumergroup=trace-service},1651943739,49494
{consumergroup=trace-service},1651943744,49494
{consumergroup=trace-service},1651943749,49494
{consumergroup=trace-service},1651943754,121770
{consumergroup=trace-service},1651943759,121770
{consumergroup=trace-service},1651943764,121770
{consumergroup=trace-service},1651943769,61659
{consumergroup=trace-service},1651943774,61659
{consumergroup=trace-service},1651943779,61659
{consumergroup=trace-service},1651943784,97874
{consumergroup=trace-service},1651943789,97874
{consumergroup=trace-service},1651943794,97874
{consumergroup=trace-service},1651943799,66622
{consumergroup=trace-service},1651943804,66622
{consumergroup=trace-service},1651943809,66622
{consumergroup=trace-service},1651943814,94736
{consumergroup=trace-service},1651943819,94736
{consumergroup=trace-service},1651943824,94736
{consumergroup=trace-service},1651943829,53913
{consumergroup=trace-service},1651943834,53913
{consumergroup=trace-service},1651943839,53913
{consumergroup=trace-service},1651943844,128489
{consumergroup=trace-service},1651943849,128489
{consumergroup=trace-service},1651943854,128489
{consumergroup=trace-service},1651943859,65321
{consumergroup=trace-service},1651943864,65321
{consumergroup=trace-service},1651943869,65321
{consumergroup=trace-service},1651943874,97527
{consumergroup=trace-service},1651943879,97527
{consumergroup=trace-service},1651943884,97527
