labels,timestamp,value
{job=theodolite-stu200776/combined-trace-podmonitor},1651988717,0
{job=theodolite-stu200776/combined-trace-podmonitor},1651988722,0
{job=theodolite-stu200776/combined-trace-podmonitor},1651988727,0
{job=theodolite-stu200776/combined-trace-podmonitor},1651988732,0
{job=theodolite-stu200776/combined-trace-podmonitor},1651988737,0
{job=theodolite-stu200776/combined-trace-podmonitor},1651988742,0
{job=theodolite-stu200776/combined-trace-podmonitor},1651988747,0
{job=theodolite-stu200776/combined-trace-podmonitor},1651988752,0
{job=theodolite-stu200776/combined-trace-podmonitor},1651988757,0
{job=theodolite-stu200776/combined-trace-podmonitor},1651988762,0
{job=theodolite-stu200776/combined-trace-podmonitor},1651988767,0
{job=theodolite-stu200776/combined-trace-podmonitor},1651988772,0
{job=theodolite-stu200776/combined-trace-podmonitor},1651988777,0
{job=theodolite-stu200776/combined-trace-podmonitor},1651988782,0
{job=theodolite-stu200776/combined-trace-podmonitor},1651988787,0
{job=theodolite-stu200776/combined-trace-podmonitor},1651988792,0
{job=theodolite-stu200776/combined-trace-podmonitor},1651988797,0
{job=theodolite-stu200776/combined-trace-podmonitor},1651988802,0
{job=theodolite-stu200776/combined-trace-podmonitor},1651988807,0
{job=theodolite-stu200776/combined-trace-podmonitor},1651988812,0
{job=theodolite-stu200776/combined-trace-podmonitor},1651988817,0
{job=theodolite-stu200776/combined-trace-podmonitor},1651988822,0
{job=theodolite-stu200776/combined-trace-podmonitor},1651988827,0
{job=theodolite-stu200776/combined-trace-podmonitor},1651988832,0
{job=theodolite-stu200776/combined-trace-podmonitor},1651988837,0
{job=theodolite-stu200776/combined-trace-podmonitor},1651988842,0
{job=theodolite-stu200776/combined-trace-podmonitor},1651988847,0
{job=theodolite-stu200776/combined-trace-podmonitor},1651988852,0
{job=theodolite-stu200776/combined-trace-podmonitor},1651988857,0
{job=theodolite-stu200776/combined-trace-podmonitor},1651988862,0
{job=theodolite-stu200776/combined-trace-podmonitor},1651988867,0
{job=theodolite-stu200776/combined-trace-podmonitor},1651988872,0
{job=theodolite-stu200776/combined-trace-podmonitor},1651988877,0
{job=theodolite-stu200776/combined-trace-podmonitor},1651988882,0
{job=theodolite-stu200776/combined-trace-podmonitor},1651988887,0
{job=theodolite-stu200776/combined-trace-podmonitor},1651988892,0
{job=theodolite-stu200776/combined-trace-podmonitor},1651988897,0
{job=theodolite-stu200776/combined-trace-podmonitor},1651988902,0
{job=theodolite-stu200776/combined-trace-podmonitor},1651988907,0
{job=theodolite-stu200776/combined-trace-podmonitor},1651988912,0
{job=theodolite-stu200776/combined-trace-podmonitor},1651988917,0
{job=theodolite-stu200776/combined-trace-podmonitor},1651988922,0
{job=theodolite-stu200776/combined-trace-podmonitor},1651988927,0
{job=theodolite-stu200776/combined-trace-podmonitor},1651988932,0
{job=theodolite-stu200776/combined-trace-podmonitor},1651988937,0
{job=theodolite-stu200776/combined-trace-podmonitor},1651988942,0
{job=theodolite-stu200776/combined-trace-podmonitor},1651988947,0
{job=theodolite-stu200776/combined-trace-podmonitor},1651988952,0
{job=theodolite-stu200776/combined-trace-podmonitor},1651988957,0
{job=theodolite-stu200776/combined-trace-podmonitor},1651988962,0
{job=theodolite-stu200776/combined-trace-podmonitor},1651988967,0
{job=theodolite-stu200776/combined-trace-podmonitor},1651988972,0
{job=theodolite-stu200776/combined-trace-podmonitor},1651988977,0
{job=theodolite-stu200776/combined-trace-podmonitor},1651988982,0
{job=theodolite-stu200776/combined-trace-podmonitor},1651988987,0
{job=theodolite-stu200776/combined-trace-podmonitor},1651988992,0
{job=theodolite-stu200776/combined-trace-podmonitor},1651988997,0
{job=theodolite-stu200776/combined-trace-podmonitor},1651989002,0
{job=theodolite-stu200776/combined-trace-podmonitor},1651989007,0
{job=theodolite-stu200776/combined-trace-podmonitor},1651989012,0
{job=theodolite-stu200776/combined-trace-podmonitor},1651989017,0
{job=theodolite-stu200776/combined-trace-podmonitor},1651989022,0
{job=theodolite-stu200776/combined-trace-podmonitor},1651989027,0
{job=theodolite-stu200776/combined-trace-podmonitor},1651989032,0
{job=theodolite-stu200776/combined-trace-podmonitor},1651989037,0
{job=theodolite-stu200776/combined-trace-podmonitor},1651989042,0
{job=theodolite-stu200776/combined-trace-podmonitor},1651989047,0
{job=theodolite-stu200776/combined-trace-podmonitor},1651989052,0
{job=theodolite-stu200776/combined-trace-podmonitor},1651989057,0
{job=theodolite-stu200776/combined-trace-podmonitor},1651989062,0
{job=theodolite-stu200776/combined-trace-podmonitor},1651989067,0
{job=theodolite-stu200776/combined-trace-podmonitor},1651989072,0
{job=theodolite-stu200776/combined-trace-podmonitor},1651989077,0
{job=theodolite-stu200776/combined-trace-podmonitor},1651989082,0
{job=theodolite-stu200776/combined-trace-podmonitor},1651989087,0
