labels,timestamp,value
{consumergroup=__strimzi-topic-operator-kstreams},1651882399,0
{consumergroup=__strimzi-topic-operator-kstreams},1651882419,0
{consumergroup=__strimzi-topic-operator-kstreams},1651882424,0
{consumergroup=__strimzi-topic-operator-kstreams},1651882429,0
{consumergroup=__strimzi-topic-operator-kstreams},1651882434,0
{consumergroup=__strimzi-topic-operator-kstreams},1651882439,0
{consumergroup=__strimzi-topic-operator-kstreams},1651882444,0
{consumergroup=__strimzi-topic-operator-kstreams},1651882449,0
{consumergroup=__strimzi-topic-operator-kstreams},1651882454,0
{consumergroup=__strimzi-topic-operator-kstreams},1651882459,0
{consumergroup=__strimzi-topic-operator-kstreams},1651882464,0
{consumergroup=__strimzi-topic-operator-kstreams},1651882469,0
{consumergroup=__strimzi-topic-operator-kstreams},1651882474,0
{consumergroup=__strimzi-topic-operator-kstreams},1651882479,0
{consumergroup=__strimzi-topic-operator-kstreams},1651882484,0
{consumergroup=__strimzi-topic-operator-kstreams},1651882489,0
{consumergroup=__strimzi-topic-operator-kstreams},1651882494,0
{consumergroup=__strimzi-topic-operator-kstreams},1651882499,0
{consumergroup=__strimzi-topic-operator-kstreams},1651882504,0
{consumergroup=__strimzi-topic-operator-kstreams},1651882509,0
{consumergroup=__strimzi-topic-operator-kstreams},1651882514,0
{consumergroup=__strimzi-topic-operator-kstreams},1651882519,0
{consumergroup=__strimzi-topic-operator-kstreams},1651882524,0
{consumergroup=__strimzi-topic-operator-kstreams},1651882529,0
{consumergroup=__strimzi-topic-operator-kstreams},1651882534,0
{consumergroup=__strimzi-topic-operator-kstreams},1651882539,0
{consumergroup=__strimzi-topic-operator-kstreams},1651882544,0
{consumergroup=__strimzi-topic-operator-kstreams},1651882549,0
{consumergroup=__strimzi-topic-operator-kstreams},1651882554,0
{consumergroup=__strimzi-topic-operator-kstreams},1651882559,0
{consumergroup=__strimzi-topic-operator-kstreams},1651882564,0
{consumergroup=__strimzi-topic-operator-kstreams},1651882569,0
{consumergroup=__strimzi-topic-operator-kstreams},1651882574,0
{consumergroup=__strimzi-topic-operator-kstreams},1651882579,0
{consumergroup=__strimzi-topic-operator-kstreams},1651882584,0
{consumergroup=__strimzi-topic-operator-kstreams},1651882589,0
{consumergroup=__strimzi-topic-operator-kstreams},1651882594,0
{consumergroup=__strimzi-topic-operator-kstreams},1651882599,0
{consumergroup=__strimzi-topic-operator-kstreams},1651882604,0
{consumergroup=__strimzi-topic-operator-kstreams},1651882609,0
{consumergroup=__strimzi-topic-operator-kstreams},1651882614,0
{consumergroup=__strimzi-topic-operator-kstreams},1651882619,0
{consumergroup=__strimzi-topic-operator-kstreams},1651882624,0
{consumergroup=__strimzi-topic-operator-kstreams},1651882629,0
{consumergroup=__strimzi-topic-operator-kstreams},1651882634,0
{consumergroup=__strimzi-topic-operator-kstreams},1651882639,0
{consumergroup=__strimzi-topic-operator-kstreams},1651882644,0
{consumergroup=__strimzi-topic-operator-kstreams},1651882649,0
{consumergroup=__strimzi-topic-operator-kstreams},1651882654,0
{consumergroup=__strimzi-topic-operator-kstreams},1651882659,0
{consumergroup=adapter-service},1651882399,0
{consumergroup=adapter-service},1651882434,81848
{consumergroup=adapter-service},1651882439,81848
{consumergroup=adapter-service},1651882444,81848
{consumergroup=adapter-service},1651882449,254436
{consumergroup=adapter-service},1651882454,254436
{consumergroup=adapter-service},1651882459,254436
{consumergroup=adapter-service},1651882464,387930
{consumergroup=adapter-service},1651882469,387930
{consumergroup=adapter-service},1651882474,387930
{consumergroup=adapter-service},1651882479,493405
{consumergroup=adapter-service},1651882484,493405
{consumergroup=adapter-service},1651882489,493405
{consumergroup=adapter-service},1651882494,599818
{consumergroup=adapter-service},1651882499,599818
{consumergroup=adapter-service},1651882504,599818
{consumergroup=adapter-service},1651882509,672010
{consumergroup=adapter-service},1651882514,672010
{consumergroup=adapter-service},1651882519,672010
{consumergroup=adapter-service},1651882524,755843
{consumergroup=adapter-service},1651882529,755843
{consumergroup=adapter-service},1651882534,755843
{consumergroup=adapter-service},1651882539,773516
{consumergroup=adapter-service},1651882544,773516
{consumergroup=adapter-service},1651882549,773516
{consumergroup=adapter-service},1651882554,787927
{consumergroup=adapter-service},1651882559,787927
{consumergroup=adapter-service},1651882564,787927
{consumergroup=adapter-service},1651882569,790076
{consumergroup=adapter-service},1651882574,790076
{consumergroup=adapter-service},1651882579,790076
{consumergroup=adapter-service},1651882584,782335
{consumergroup=adapter-service},1651882589,782335
{consumergroup=adapter-service},1651882594,782335
{consumergroup=adapter-service},1651882599,785855
{consumergroup=adapter-service},1651882604,785855
{consumergroup=adapter-service},1651882609,785855
{consumergroup=adapter-service},1651882614,775645
{consumergroup=adapter-service},1651882619,775645
{consumergroup=adapter-service},1651882624,775645
{consumergroup=adapter-service},1651882629,766642
{consumergroup=adapter-service},1651882634,766642
{consumergroup=adapter-service},1651882639,766642
{consumergroup=adapter-service},1651882644,764514
{consumergroup=adapter-service},1651882649,764514
{consumergroup=adapter-service},1651882654,764514
{consumergroup=adapter-service},1651882659,770856
