labels,timestamp,value
{consumergroup=__strimzi-topic-operator-kstreams},1651968307,5
{consumergroup=__strimzi-topic-operator-kstreams},1651968312,5
{consumergroup=__strimzi-topic-operator-kstreams},1651968317,5
{consumergroup=__strimzi-topic-operator-kstreams},1651968322,8
{consumergroup=__strimzi-topic-operator-kstreams},1651968327,8
{consumergroup=__strimzi-topic-operator-kstreams},1651968332,8
{consumergroup=__strimzi-topic-operator-kstreams},1651968337,0
{consumergroup=__strimzi-topic-operator-kstreams},1651968342,0
{consumergroup=__strimzi-topic-operator-kstreams},1651968347,0
{consumergroup=__strimzi-topic-operator-kstreams},1651968352,0
{consumergroup=__strimzi-topic-operator-kstreams},1651968357,0
{consumergroup=__strimzi-topic-operator-kstreams},1651968362,0
{consumergroup=__strimzi-topic-operator-kstreams},1651968367,0
{consumergroup=__strimzi-topic-operator-kstreams},1651968372,0
{consumergroup=__strimzi-topic-operator-kstreams},1651968377,0
{consumergroup=__strimzi-topic-operator-kstreams},1651968382,0
{consumergroup=__strimzi-topic-operator-kstreams},1651968387,0
{consumergroup=__strimzi-topic-operator-kstreams},1651968392,0
{consumergroup=__strimzi-topic-operator-kstreams},1651968397,0
{consumergroup=__strimzi-topic-operator-kstreams},1651968402,0
{consumergroup=__strimzi-topic-operator-kstreams},1651968407,0
{consumergroup=__strimzi-topic-operator-kstreams},1651968412,0
{consumergroup=__strimzi-topic-operator-kstreams},1651968417,0
{consumergroup=__strimzi-topic-operator-kstreams},1651968422,0
{consumergroup=__strimzi-topic-operator-kstreams},1651968427,0
{consumergroup=__strimzi-topic-operator-kstreams},1651968432,0
{consumergroup=__strimzi-topic-operator-kstreams},1651968437,0
{consumergroup=__strimzi-topic-operator-kstreams},1651968442,0
{consumergroup=__strimzi-topic-operator-kstreams},1651968447,0
{consumergroup=__strimzi-topic-operator-kstreams},1651968452,0
{consumergroup=__strimzi-topic-operator-kstreams},1651968457,0
{consumergroup=__strimzi-topic-operator-kstreams},1651968462,0
{consumergroup=__strimzi-topic-operator-kstreams},1651968467,0
{consumergroup=__strimzi-topic-operator-kstreams},1651968472,0
{consumergroup=__strimzi-topic-operator-kstreams},1651968477,0
{consumergroup=__strimzi-topic-operator-kstreams},1651968482,0
{consumergroup=__strimzi-topic-operator-kstreams},1651968487,0
{consumergroup=__strimzi-topic-operator-kstreams},1651968492,0
{consumergroup=__strimzi-topic-operator-kstreams},1651968497,0
{consumergroup=__strimzi-topic-operator-kstreams},1651968502,0
{consumergroup=__strimzi-topic-operator-kstreams},1651968507,0
{consumergroup=__strimzi-topic-operator-kstreams},1651968512,0
{consumergroup=__strimzi-topic-operator-kstreams},1651968517,0
{consumergroup=__strimzi-topic-operator-kstreams},1651968522,0
{consumergroup=__strimzi-topic-operator-kstreams},1651968527,0
{consumergroup=__strimzi-topic-operator-kstreams},1651968532,0
{consumergroup=__strimzi-topic-operator-kstreams},1651968537,0
{consumergroup=__strimzi-topic-operator-kstreams},1651968542,0
{consumergroup=__strimzi-topic-operator-kstreams},1651968547,0
{consumergroup=__strimzi-topic-operator-kstreams},1651968552,0
{consumergroup=__strimzi-topic-operator-kstreams},1651968557,0
{consumergroup=__strimzi-topic-operator-kstreams},1651968562,0
{consumergroup=__strimzi-topic-operator-kstreams},1651968567,0
{consumergroup=__strimzi-topic-operator-kstreams},1651968572,0
{consumergroup=__strimzi-topic-operator-kstreams},1651968577,0
{consumergroup=__strimzi-topic-operator-kstreams},1651968582,0
{consumergroup=__strimzi-topic-operator-kstreams},1651968587,0
{consumergroup=__strimzi-topic-operator-kstreams},1651968592,0
{consumergroup=__strimzi-topic-operator-kstreams},1651968597,0
{consumergroup=__strimzi-topic-operator-kstreams},1651968602,0
{consumergroup=__strimzi-topic-operator-kstreams},1651968607,0
{consumergroup=__strimzi-topic-operator-kstreams},1651968612,0
{consumergroup=__strimzi-topic-operator-kstreams},1651968617,0
{consumergroup=__strimzi-topic-operator-kstreams},1651968622,0
{consumergroup=__strimzi-topic-operator-kstreams},1651968627,0
{consumergroup=__strimzi-topic-operator-kstreams},1651968632,0
{consumergroup=__strimzi-topic-operator-kstreams},1651968637,0
{consumergroup=__strimzi-topic-operator-kstreams},1651968642,0
{consumergroup=__strimzi-topic-operator-kstreams},1651968647,0
{consumergroup=__strimzi-topic-operator-kstreams},1651968652,0
{consumergroup=__strimzi-topic-operator-kstreams},1651968657,0
{consumergroup=__strimzi-topic-operator-kstreams},1651968662,0
{consumergroup=__strimzi-topic-operator-kstreams},1651968667,0
{consumergroup=__strimzi-topic-operator-kstreams},1651968672,0
{consumergroup=__strimzi-topic-operator-kstreams},1651968677,0
{consumergroup=__strimzi-topic-operator-kstreams},1651968682,0
{consumergroup=__strimzi-topic-operator-kstreams},1651968687,0
{consumergroup=__strimzi-topic-operator-kstreams},1651968692,0
{consumergroup=__strimzi-topic-operator-kstreams},1651968697,0
{consumergroup=__strimzi-topic-operator-kstreams},1651968702,0
{consumergroup=__strimzi-topic-operator-kstreams},1651968707,0
{consumergroup=__strimzi-topic-operator-kstreams},1651968712,0
{consumergroup=__strimzi-topic-operator-kstreams},1651968717,0
{consumergroup=__strimzi-topic-operator-kstreams},1651968722,0
{consumergroup=__strimzi-topic-operator-kstreams},1651968727,0
{consumergroup=__strimzi-topic-operator-kstreams},1651968732,0
{consumergroup=__strimzi-topic-operator-kstreams},1651968737,0
{consumergroup=__strimzi-topic-operator-kstreams},1651968742,0
{consumergroup=__strimzi-topic-operator-kstreams},1651968747,0
{consumergroup=__strimzi-topic-operator-kstreams},1651968752,0
{consumergroup=adapter-service},1651968337,0
{consumergroup=adapter-service},1651968342,0
{consumergroup=adapter-service},1651968347,0
{consumergroup=adapter-service},1651968352,5647
{consumergroup=adapter-service},1651968357,5647
{consumergroup=adapter-service},1651968362,5647
{consumergroup=adapter-service},1651968367,2632
{consumergroup=adapter-service},1651968372,2632
{consumergroup=adapter-service},1651968377,2632
{consumergroup=adapter-service},1651968382,3696
{consumergroup=adapter-service},1651968387,3696
{consumergroup=adapter-service},1651968392,3696
{consumergroup=adapter-service},1651968397,2385
{consumergroup=adapter-service},1651968402,2385
{consumergroup=adapter-service},1651968407,2385
{consumergroup=adapter-service},1651968412,3886
{consumergroup=adapter-service},1651968417,3886
{consumergroup=adapter-service},1651968422,3886
{consumergroup=adapter-service},1651968427,2185
{consumergroup=adapter-service},1651968432,2185
{consumergroup=adapter-service},1651968437,2185
{consumergroup=adapter-service},1651968442,3446
{consumergroup=adapter-service},1651968447,3446
{consumergroup=adapter-service},1651968452,3446
{consumergroup=adapter-service},1651968457,1955
{consumergroup=adapter-service},1651968462,1955
{consumergroup=adapter-service},1651968467,1955
{consumergroup=adapter-service},1651968472,3091
{consumergroup=adapter-service},1651968477,3091
{consumergroup=adapter-service},1651968482,3091
{consumergroup=adapter-service},1651968487,2093
{consumergroup=adapter-service},1651968492,2093
{consumergroup=adapter-service},1651968497,2093
{consumergroup=adapter-service},1651968502,3221
{consumergroup=adapter-service},1651968507,3221
{consumergroup=adapter-service},1651968512,3221
{consumergroup=adapter-service},1651968517,1611
{consumergroup=adapter-service},1651968522,1611
{consumergroup=adapter-service},1651968527,1611
{consumergroup=adapter-service},1651968532,2653
{consumergroup=adapter-service},1651968537,2653
{consumergroup=adapter-service},1651968542,2653
{consumergroup=adapter-service},1651968547,1644
{consumergroup=adapter-service},1651968552,1644
{consumergroup=adapter-service},1651968557,1644
{consumergroup=adapter-service},1651968562,2508
{consumergroup=adapter-service},1651968567,2508
{consumergroup=adapter-service},1651968572,2508
{consumergroup=adapter-service},1651968577,1154
{consumergroup=adapter-service},1651968582,1154
{consumergroup=adapter-service},1651968587,1154
{consumergroup=adapter-service},1651968592,2608
{consumergroup=adapter-service},1651968597,2608
{consumergroup=adapter-service},1651968602,2608
{consumergroup=adapter-service},1651968607,1282
{consumergroup=adapter-service},1651968612,1282
{consumergroup=adapter-service},1651968617,1282
{consumergroup=adapter-service},1651968622,2357
{consumergroup=adapter-service},1651968627,2357
{consumergroup=adapter-service},1651968632,2357
{consumergroup=adapter-service},1651968637,659
{consumergroup=adapter-service},1651968642,659
{consumergroup=adapter-service},1651968647,659
{consumergroup=adapter-service},1651968652,1879
{consumergroup=adapter-service},1651968657,1879
{consumergroup=adapter-service},1651968662,1879
{consumergroup=adapter-service},1651968667,463
{consumergroup=adapter-service},1651968672,463
{consumergroup=adapter-service},1651968677,463
{consumergroup=adapter-service},1651968682,1663
{consumergroup=adapter-service},1651968687,1663
{consumergroup=adapter-service},1651968692,1663
{consumergroup=adapter-service},1651968697,285
{consumergroup=adapter-service},1651968702,285
{consumergroup=adapter-service},1651968707,285
{consumergroup=adapter-service},1651968712,1388
{consumergroup=adapter-service},1651968717,1388
{consumergroup=adapter-service},1651968722,1388
{consumergroup=adapter-service},1651968727,100
{consumergroup=adapter-service},1651968732,100
{consumergroup=adapter-service},1651968737,100
{consumergroup=adapter-service},1651968742,2354
{consumergroup=adapter-service},1651968747,2354
{consumergroup=adapter-service},1651968752,2354
{consumergroup=landscape-service},1651968352,103
{consumergroup=landscape-service},1651968357,103
{consumergroup=landscape-service},1651968362,103
{consumergroup=landscape-service},1651968367,748
{consumergroup=landscape-service},1651968372,748
{consumergroup=landscape-service},1651968377,748
{consumergroup=landscape-service},1651968382,2120
{consumergroup=landscape-service},1651968387,2120
{consumergroup=landscape-service},1651968392,2120
{consumergroup=landscape-service},1651968397,572
{consumergroup=landscape-service},1651968402,572
{consumergroup=landscape-service},1651968407,572
{consumergroup=landscape-service},1651968412,1793
{consumergroup=landscape-service},1651968417,1793
{consumergroup=landscape-service},1651968422,1793
{consumergroup=landscape-service},1651968427,527
{consumergroup=landscape-service},1651968432,527
{consumergroup=landscape-service},1651968437,527
{consumergroup=landscape-service},1651968442,2151
{consumergroup=landscape-service},1651968447,2151
{consumergroup=landscape-service},1651968452,2151
{consumergroup=landscape-service},1651968457,474
{consumergroup=landscape-service},1651968462,474
{consumergroup=landscape-service},1651968467,474
{consumergroup=landscape-service},1651968472,1666
{consumergroup=landscape-service},1651968477,1666
{consumergroup=landscape-service},1651968482,1666
{consumergroup=landscape-service},1651968487,687
{consumergroup=landscape-service},1651968492,687
{consumergroup=landscape-service},1651968497,687
{consumergroup=landscape-service},1651968502,1583
{consumergroup=landscape-service},1651968507,1583
{consumergroup=landscape-service},1651968512,1583
{consumergroup=landscape-service},1651968517,645
{consumergroup=landscape-service},1651968522,645
{consumergroup=landscape-service},1651968527,645
{consumergroup=landscape-service},1651968532,1518
{consumergroup=landscape-service},1651968537,1518
{consumergroup=landscape-service},1651968542,1518
{consumergroup=landscape-service},1651968547,250
{consumergroup=landscape-service},1651968552,250
{consumergroup=landscape-service},1651968557,250
{consumergroup=landscape-service},1651968562,1817
{consumergroup=landscape-service},1651968567,1817
{consumergroup=landscape-service},1651968572,1817
{consumergroup=landscape-service},1651968577,481
{consumergroup=landscape-service},1651968582,481
{consumergroup=landscape-service},1651968587,481
{consumergroup=landscape-service},1651968592,1389
{consumergroup=landscape-service},1651968597,1389
{consumergroup=landscape-service},1651968602,1389
{consumergroup=landscape-service},1651968607,466
{consumergroup=landscape-service},1651968612,466
{consumergroup=landscape-service},1651968617,466
{consumergroup=landscape-service},1651968622,1418
{consumergroup=landscape-service},1651968627,1418
{consumergroup=landscape-service},1651968632,1418
{consumergroup=landscape-service},1651968637,184
{consumergroup=landscape-service},1651968642,184
{consumergroup=landscape-service},1651968647,184
{consumergroup=landscape-service},1651968652,1535
{consumergroup=landscape-service},1651968657,1535
{consumergroup=landscape-service},1651968662,1535
{consumergroup=landscape-service},1651968667,160
{consumergroup=landscape-service},1651968672,160
{consumergroup=landscape-service},1651968677,160
{consumergroup=landscape-service},1651968682,1259
{consumergroup=landscape-service},1651968687,1259
{consumergroup=landscape-service},1651968692,1259
{consumergroup=landscape-service},1651968697,117
{consumergroup=landscape-service},1651968702,117
{consumergroup=landscape-service},1651968707,117
{consumergroup=landscape-service},1651968712,1057
{consumergroup=landscape-service},1651968717,1057
{consumergroup=landscape-service},1651968722,1057
{consumergroup=landscape-service},1651968727,1924
{consumergroup=landscape-service},1651968732,1924
{consumergroup=landscape-service},1651968737,1924
{consumergroup=landscape-service},1651968742,2186
{consumergroup=landscape-service},1651968747,2186
{consumergroup=landscape-service},1651968752,2186
{consumergroup=landscape-token-events-consumer},1651968352,0
{consumergroup=landscape-token-events-consumer},1651968357,0
{consumergroup=landscape-token-events-consumer},1651968362,0
{consumergroup=landscape-token-events-consumer},1651968367,0
{consumergroup=landscape-token-events-consumer},1651968372,0
{consumergroup=landscape-token-events-consumer},1651968377,0
{consumergroup=landscape-token-events-consumer},1651968382,0
{consumergroup=landscape-token-events-consumer},1651968387,0
{consumergroup=landscape-token-events-consumer},1651968392,0
{consumergroup=landscape-token-events-consumer},1651968397,0
{consumergroup=landscape-token-events-consumer},1651968402,0
{consumergroup=landscape-token-events-consumer},1651968407,0
{consumergroup=landscape-token-events-consumer},1651968412,0
{consumergroup=landscape-token-events-consumer},1651968417,0
{consumergroup=landscape-token-events-consumer},1651968422,0
{consumergroup=landscape-token-events-consumer},1651968427,0
{consumergroup=landscape-token-events-consumer},1651968432,0
{consumergroup=landscape-token-events-consumer},1651968437,0
{consumergroup=landscape-token-events-consumer},1651968442,0
{consumergroup=landscape-token-events-consumer},1651968447,0
{consumergroup=landscape-token-events-consumer},1651968452,0
{consumergroup=landscape-token-events-consumer},1651968457,0
{consumergroup=landscape-token-events-consumer},1651968462,0
{consumergroup=landscape-token-events-consumer},1651968467,0
{consumergroup=landscape-token-events-consumer},1651968472,0
{consumergroup=landscape-token-events-consumer},1651968477,0
{consumergroup=landscape-token-events-consumer},1651968482,0
{consumergroup=landscape-token-events-consumer},1651968487,0
{consumergroup=landscape-token-events-consumer},1651968492,0
{consumergroup=landscape-token-events-consumer},1651968497,0
{consumergroup=landscape-token-events-consumer},1651968502,0
{consumergroup=landscape-token-events-consumer},1651968507,0
{consumergroup=landscape-token-events-consumer},1651968512,0
{consumergroup=landscape-token-events-consumer},1651968517,0
{consumergroup=landscape-token-events-consumer},1651968522,0
{consumergroup=landscape-token-events-consumer},1651968527,0
{consumergroup=landscape-token-events-consumer},1651968532,0
{consumergroup=landscape-token-events-consumer},1651968537,0
{consumergroup=landscape-token-events-consumer},1651968542,0
{consumergroup=landscape-token-events-consumer},1651968547,0
{consumergroup=landscape-token-events-consumer},1651968552,0
{consumergroup=landscape-token-events-consumer},1651968557,0
{consumergroup=landscape-token-events-consumer},1651968562,0
{consumergroup=landscape-token-events-consumer},1651968567,0
{consumergroup=landscape-token-events-consumer},1651968572,0
{consumergroup=landscape-token-events-consumer},1651968577,0
{consumergroup=landscape-token-events-consumer},1651968582,0
{consumergroup=landscape-token-events-consumer},1651968587,0
{consumergroup=landscape-token-events-consumer},1651968592,0
{consumergroup=landscape-token-events-consumer},1651968597,0
{consumergroup=landscape-token-events-consumer},1651968602,0
{consumergroup=landscape-token-events-consumer},1651968607,0
{consumergroup=landscape-token-events-consumer},1651968612,0
{consumergroup=landscape-token-events-consumer},1651968617,0
{consumergroup=landscape-token-events-consumer},1651968622,0
{consumergroup=landscape-token-events-consumer},1651968627,0
{consumergroup=landscape-token-events-consumer},1651968632,0
{consumergroup=landscape-token-events-consumer},1651968637,0
{consumergroup=landscape-token-events-consumer},1651968642,0
{consumergroup=landscape-token-events-consumer},1651968647,0
{consumergroup=landscape-token-events-consumer},1651968652,0
{consumergroup=landscape-token-events-consumer},1651968657,0
{consumergroup=landscape-token-events-consumer},1651968662,0
{consumergroup=landscape-token-events-consumer},1651968667,0
{consumergroup=landscape-token-events-consumer},1651968672,0
{consumergroup=landscape-token-events-consumer},1651968677,0
{consumergroup=landscape-token-events-consumer},1651968682,0
{consumergroup=landscape-token-events-consumer},1651968687,0
{consumergroup=landscape-token-events-consumer},1651968692,0
{consumergroup=landscape-token-events-consumer},1651968697,0
{consumergroup=landscape-token-events-consumer},1651968702,0
{consumergroup=landscape-token-events-consumer},1651968707,0
{consumergroup=landscape-token-events-consumer},1651968712,0
{consumergroup=landscape-token-events-consumer},1651968717,0
{consumergroup=landscape-token-events-consumer},1651968722,0
{consumergroup=landscape-token-events-consumer},1651968727,0
{consumergroup=landscape-token-events-consumer},1651968732,0
{consumergroup=landscape-token-events-consumer},1651968737,0
{consumergroup=landscape-token-events-consumer},1651968742,0
{consumergroup=landscape-token-events-consumer},1651968747,0
{consumergroup=landscape-token-events-consumer},1651968752,0
{consumergroup=trace-service},1651968352,13152
{consumergroup=trace-service},1651968357,13152
{consumergroup=trace-service},1651968362,13152
{consumergroup=trace-service},1651968367,10227
{consumergroup=trace-service},1651968372,10227
{consumergroup=trace-service},1651968377,10227
{consumergroup=trace-service},1651968382,31745
{consumergroup=trace-service},1651968387,31745
{consumergroup=trace-service},1651968392,31745
{consumergroup=trace-service},1651968397,10079
{consumergroup=trace-service},1651968402,10079
{consumergroup=trace-service},1651968407,10079
{consumergroup=trace-service},1651968412,8750
{consumergroup=trace-service},1651968417,8750
{consumergroup=trace-service},1651968422,8750
{consumergroup=trace-service},1651968427,4954
{consumergroup=trace-service},1651968432,4954
{consumergroup=trace-service},1651968437,4954
{consumergroup=trace-service},1651968442,8298
{consumergroup=trace-service},1651968447,8298
{consumergroup=trace-service},1651968452,8298
{consumergroup=trace-service},1651968457,5441
{consumergroup=trace-service},1651968462,5441
{consumergroup=trace-service},1651968467,5441
{consumergroup=trace-service},1651968472,7586
{consumergroup=trace-service},1651968477,7586
{consumergroup=trace-service},1651968482,7586
{consumergroup=trace-service},1651968487,4201
{consumergroup=trace-service},1651968492,4201
{consumergroup=trace-service},1651968497,4201
{consumergroup=trace-service},1651968502,9120
{consumergroup=trace-service},1651968507,9120
{consumergroup=trace-service},1651968512,9120
{consumergroup=trace-service},1651968517,5308
{consumergroup=trace-service},1651968522,5308
{consumergroup=trace-service},1651968527,5308
{consumergroup=trace-service},1651968532,9394
{consumergroup=trace-service},1651968537,9394
{consumergroup=trace-service},1651968542,9394
{consumergroup=trace-service},1651968547,4828
{consumergroup=trace-service},1651968552,4828
{consumergroup=trace-service},1651968557,4828
{consumergroup=trace-service},1651968562,6510
{consumergroup=trace-service},1651968567,6510
{consumergroup=trace-service},1651968572,6510
{consumergroup=trace-service},1651968577,3146
{consumergroup=trace-service},1651968582,3146
{consumergroup=trace-service},1651968587,3146
{consumergroup=trace-service},1651968592,8152
{consumergroup=trace-service},1651968597,8152
{consumergroup=trace-service},1651968602,8152
{consumergroup=trace-service},1651968607,5421
{consumergroup=trace-service},1651968612,5421
{consumergroup=trace-service},1651968617,5421
{consumergroup=trace-service},1651968622,8276
{consumergroup=trace-service},1651968627,8276
{consumergroup=trace-service},1651968632,8276
{consumergroup=trace-service},1651968637,4737
{consumergroup=trace-service},1651968642,4737
{consumergroup=trace-service},1651968647,4737
{consumergroup=trace-service},1651968652,8767
{consumergroup=trace-service},1651968657,8767
{consumergroup=trace-service},1651968662,8767
{consumergroup=trace-service},1651968667,6245
{consumergroup=trace-service},1651968672,6245
{consumergroup=trace-service},1651968677,6245
{consumergroup=trace-service},1651968682,8372
{consumergroup=trace-service},1651968687,8372
{consumergroup=trace-service},1651968692,8372
{consumergroup=trace-service},1651968697,5682
{consumergroup=trace-service},1651968702,5682
{consumergroup=trace-service},1651968707,5682
{consumergroup=trace-service},1651968712,4915
{consumergroup=trace-service},1651968717,4915
{consumergroup=trace-service},1651968722,4915
{consumergroup=trace-service},1651968727,9034
{consumergroup=trace-service},1651968732,9034
{consumergroup=trace-service},1651968737,9034
{consumergroup=trace-service},1651968742,7372
{consumergroup=trace-service},1651968747,7372
{consumergroup=trace-service},1651968752,7372
{consumergroup=trace-token-events-consumer},1651968337,0
{consumergroup=trace-token-events-consumer},1651968342,0
{consumergroup=trace-token-events-consumer},1651968347,0
{consumergroup=trace-token-events-consumer},1651968352,0
{consumergroup=trace-token-events-consumer},1651968357,0
{consumergroup=trace-token-events-consumer},1651968362,0
{consumergroup=trace-token-events-consumer},1651968367,0
{consumergroup=trace-token-events-consumer},1651968372,0
{consumergroup=trace-token-events-consumer},1651968377,0
{consumergroup=trace-token-events-consumer},1651968382,0
{consumergroup=trace-token-events-consumer},1651968387,0
{consumergroup=trace-token-events-consumer},1651968392,0
{consumergroup=trace-token-events-consumer},1651968397,0
{consumergroup=trace-token-events-consumer},1651968402,0
{consumergroup=trace-token-events-consumer},1651968407,0
{consumergroup=trace-token-events-consumer},1651968412,0
{consumergroup=trace-token-events-consumer},1651968417,0
{consumergroup=trace-token-events-consumer},1651968422,0
{consumergroup=trace-token-events-consumer},1651968427,0
{consumergroup=trace-token-events-consumer},1651968432,0
{consumergroup=trace-token-events-consumer},1651968437,0
{consumergroup=trace-token-events-consumer},1651968442,0
{consumergroup=trace-token-events-consumer},1651968447,0
{consumergroup=trace-token-events-consumer},1651968452,0
{consumergroup=trace-token-events-consumer},1651968457,0
{consumergroup=trace-token-events-consumer},1651968462,0
{consumergroup=trace-token-events-consumer},1651968467,0
{consumergroup=trace-token-events-consumer},1651968472,0
{consumergroup=trace-token-events-consumer},1651968477,0
{consumergroup=trace-token-events-consumer},1651968482,0
{consumergroup=trace-token-events-consumer},1651968487,0
{consumergroup=trace-token-events-consumer},1651968492,0
{consumergroup=trace-token-events-consumer},1651968497,0
{consumergroup=trace-token-events-consumer},1651968502,0
{consumergroup=trace-token-events-consumer},1651968507,0
{consumergroup=trace-token-events-consumer},1651968512,0
{consumergroup=trace-token-events-consumer},1651968517,0
{consumergroup=trace-token-events-consumer},1651968522,0
{consumergroup=trace-token-events-consumer},1651968527,0
{consumergroup=trace-token-events-consumer},1651968532,0
{consumergroup=trace-token-events-consumer},1651968537,0
{consumergroup=trace-token-events-consumer},1651968542,0
{consumergroup=trace-token-events-consumer},1651968547,0
{consumergroup=trace-token-events-consumer},1651968552,0
{consumergroup=trace-token-events-consumer},1651968557,0
{consumergroup=trace-token-events-consumer},1651968562,0
{consumergroup=trace-token-events-consumer},1651968567,0
{consumergroup=trace-token-events-consumer},1651968572,0
{consumergroup=trace-token-events-consumer},1651968577,0
{consumergroup=trace-token-events-consumer},1651968582,0
{consumergroup=trace-token-events-consumer},1651968587,0
{consumergroup=trace-token-events-consumer},1651968592,0
{consumergroup=trace-token-events-consumer},1651968597,0
{consumergroup=trace-token-events-consumer},1651968602,0
{consumergroup=trace-token-events-consumer},1651968607,0
{consumergroup=trace-token-events-consumer},1651968612,0
{consumergroup=trace-token-events-consumer},1651968617,0
{consumergroup=trace-token-events-consumer},1651968622,0
{consumergroup=trace-token-events-consumer},1651968627,0
{consumergroup=trace-token-events-consumer},1651968632,0
{consumergroup=trace-token-events-consumer},1651968637,0
{consumergroup=trace-token-events-consumer},1651968642,0
{consumergroup=trace-token-events-consumer},1651968647,0
{consumergroup=trace-token-events-consumer},1651968652,0
{consumergroup=trace-token-events-consumer},1651968657,0
{consumergroup=trace-token-events-consumer},1651968662,0
{consumergroup=trace-token-events-consumer},1651968667,0
{consumergroup=trace-token-events-consumer},1651968672,0
{consumergroup=trace-token-events-consumer},1651968677,0
{consumergroup=trace-token-events-consumer},1651968682,0
{consumergroup=trace-token-events-consumer},1651968687,0
{consumergroup=trace-token-events-consumer},1651968692,0
{consumergroup=trace-token-events-consumer},1651968697,0
{consumergroup=trace-token-events-consumer},1651968702,0
{consumergroup=trace-token-events-consumer},1651968707,0
{consumergroup=trace-token-events-consumer},1651968712,0
{consumergroup=trace-token-events-consumer},1651968717,0
{consumergroup=trace-token-events-consumer},1651968722,0
{consumergroup=trace-token-events-consumer},1651968727,0
{consumergroup=trace-token-events-consumer},1651968732,0
{consumergroup=trace-token-events-consumer},1651968737,0
{consumergroup=trace-token-events-consumer},1651968742,0
{consumergroup=trace-token-events-consumer},1651968747,0
{consumergroup=trace-token-events-consumer},1651968752,0
