labels,timestamp,value
{consumergroup=__strimzi-topic-operator-kstreams},1651972710,11
{consumergroup=__strimzi-topic-operator-kstreams},1651972715,11
{consumergroup=__strimzi-topic-operator-kstreams},1651972720,11
{consumergroup=__strimzi-topic-operator-kstreams},1651972725,3
{consumergroup=__strimzi-topic-operator-kstreams},1651972730,3
{consumergroup=__strimzi-topic-operator-kstreams},1651972735,3
{consumergroup=__strimzi-topic-operator-kstreams},1651972740,3
{consumergroup=__strimzi-topic-operator-kstreams},1651972745,3
{consumergroup=__strimzi-topic-operator-kstreams},1651972750,3
{consumergroup=__strimzi-topic-operator-kstreams},1651972755,0
{consumergroup=__strimzi-topic-operator-kstreams},1651972760,0
{consumergroup=__strimzi-topic-operator-kstreams},1651972765,0
{consumergroup=__strimzi-topic-operator-kstreams},1651972770,0
{consumergroup=__strimzi-topic-operator-kstreams},1651972775,0
{consumergroup=__strimzi-topic-operator-kstreams},1651972780,0
{consumergroup=__strimzi-topic-operator-kstreams},1651972785,0
{consumergroup=__strimzi-topic-operator-kstreams},1651972790,0
{consumergroup=__strimzi-topic-operator-kstreams},1651972795,0
{consumergroup=__strimzi-topic-operator-kstreams},1651972800,0
{consumergroup=__strimzi-topic-operator-kstreams},1651972805,0
{consumergroup=__strimzi-topic-operator-kstreams},1651972810,0
{consumergroup=__strimzi-topic-operator-kstreams},1651972815,0
{consumergroup=__strimzi-topic-operator-kstreams},1651972820,0
{consumergroup=__strimzi-topic-operator-kstreams},1651972825,0
{consumergroup=__strimzi-topic-operator-kstreams},1651972830,0
{consumergroup=__strimzi-topic-operator-kstreams},1651972835,0
{consumergroup=__strimzi-topic-operator-kstreams},1651972840,0
{consumergroup=__strimzi-topic-operator-kstreams},1651972845,0
{consumergroup=__strimzi-topic-operator-kstreams},1651972850,0
{consumergroup=__strimzi-topic-operator-kstreams},1651972855,0
{consumergroup=__strimzi-topic-operator-kstreams},1651972860,0
{consumergroup=__strimzi-topic-operator-kstreams},1651972865,0
{consumergroup=__strimzi-topic-operator-kstreams},1651972870,0
{consumergroup=__strimzi-topic-operator-kstreams},1651972875,0
{consumergroup=__strimzi-topic-operator-kstreams},1651972880,0
{consumergroup=__strimzi-topic-operator-kstreams},1651972885,0
{consumergroup=__strimzi-topic-operator-kstreams},1651972890,0
{consumergroup=__strimzi-topic-operator-kstreams},1651972895,0
{consumergroup=__strimzi-topic-operator-kstreams},1651972900,0
{consumergroup=__strimzi-topic-operator-kstreams},1651972905,0
{consumergroup=__strimzi-topic-operator-kstreams},1651972910,0
{consumergroup=__strimzi-topic-operator-kstreams},1651972915,0
{consumergroup=__strimzi-topic-operator-kstreams},1651972920,0
{consumergroup=__strimzi-topic-operator-kstreams},1651972925,0
{consumergroup=__strimzi-topic-operator-kstreams},1651972930,0
{consumergroup=__strimzi-topic-operator-kstreams},1651972935,0
{consumergroup=__strimzi-topic-operator-kstreams},1651972940,0
{consumergroup=__strimzi-topic-operator-kstreams},1651972945,0
{consumergroup=__strimzi-topic-operator-kstreams},1651972950,0
{consumergroup=__strimzi-topic-operator-kstreams},1651972955,0
{consumergroup=__strimzi-topic-operator-kstreams},1651972960,0
{consumergroup=__strimzi-topic-operator-kstreams},1651972965,0
{consumergroup=__strimzi-topic-operator-kstreams},1651972970,0
{consumergroup=__strimzi-topic-operator-kstreams},1651972975,0
{consumergroup=__strimzi-topic-operator-kstreams},1651972980,0
{consumergroup=__strimzi-topic-operator-kstreams},1651972985,0
{consumergroup=__strimzi-topic-operator-kstreams},1651972990,0
{consumergroup=__strimzi-topic-operator-kstreams},1651972995,0
{consumergroup=__strimzi-topic-operator-kstreams},1651973000,0
{consumergroup=__strimzi-topic-operator-kstreams},1651973005,0
{consumergroup=__strimzi-topic-operator-kstreams},1651973010,0
{consumergroup=__strimzi-topic-operator-kstreams},1651973015,0
{consumergroup=__strimzi-topic-operator-kstreams},1651973020,0
{consumergroup=__strimzi-topic-operator-kstreams},1651973025,0
{consumergroup=__strimzi-topic-operator-kstreams},1651973030,0
{consumergroup=__strimzi-topic-operator-kstreams},1651973035,0
{consumergroup=__strimzi-topic-operator-kstreams},1651973040,0
{consumergroup=__strimzi-topic-operator-kstreams},1651973045,0
{consumergroup=__strimzi-topic-operator-kstreams},1651973050,0
{consumergroup=__strimzi-topic-operator-kstreams},1651973055,0
{consumergroup=__strimzi-topic-operator-kstreams},1651973060,0
{consumergroup=__strimzi-topic-operator-kstreams},1651973065,0
{consumergroup=__strimzi-topic-operator-kstreams},1651973070,0
{consumergroup=__strimzi-topic-operator-kstreams},1651973075,0
{consumergroup=__strimzi-topic-operator-kstreams},1651973080,0
{consumergroup=__strimzi-topic-operator-kstreams},1651973085,0
{consumergroup=__strimzi-topic-operator-kstreams},1651973090,0
{consumergroup=__strimzi-topic-operator-kstreams},1651973095,0
{consumergroup=__strimzi-topic-operator-kstreams},1651973100,0
{consumergroup=__strimzi-topic-operator-kstreams},1651973105,0
{consumergroup=__strimzi-topic-operator-kstreams},1651973110,0
{consumergroup=__strimzi-topic-operator-kstreams},1651973115,0
{consumergroup=__strimzi-topic-operator-kstreams},1651973120,0
{consumergroup=__strimzi-topic-operator-kstreams},1651973125,0
{consumergroup=__strimzi-topic-operator-kstreams},1651973130,0
{consumergroup=__strimzi-topic-operator-kstreams},1651973135,0
{consumergroup=__strimzi-topic-operator-kstreams},1651973140,0
{consumergroup=__strimzi-topic-operator-kstreams},1651973145,0
{consumergroup=__strimzi-topic-operator-kstreams},1651973150,0
{consumergroup=__strimzi-topic-operator-kstreams},1651973155,0
{consumergroup=adapter-service},1651972740,0
{consumergroup=adapter-service},1651972745,0
{consumergroup=adapter-service},1651972750,0
{consumergroup=adapter-service},1651972755,5502
{consumergroup=adapter-service},1651972760,5502
{consumergroup=adapter-service},1651972765,5502
{consumergroup=adapter-service},1651972770,3654
{consumergroup=adapter-service},1651972775,3654
{consumergroup=adapter-service},1651972780,3654
{consumergroup=adapter-service},1651972785,5670
{consumergroup=adapter-service},1651972790,5670
{consumergroup=adapter-service},1651972795,5670
{consumergroup=adapter-service},1651972800,3350
{consumergroup=adapter-service},1651972805,3350
{consumergroup=adapter-service},1651972810,3350
{consumergroup=adapter-service},1651972815,5363
{consumergroup=adapter-service},1651972820,5363
{consumergroup=adapter-service},1651972825,5363
{consumergroup=adapter-service},1651972830,3041
{consumergroup=adapter-service},1651972835,3041
{consumergroup=adapter-service},1651972840,3041
{consumergroup=adapter-service},1651972845,4548
{consumergroup=adapter-service},1651972850,4548
{consumergroup=adapter-service},1651972855,4548
{consumergroup=adapter-service},1651972860,3040
{consumergroup=adapter-service},1651972865,3040
{consumergroup=adapter-service},1651972870,3040
{consumergroup=adapter-service},1651972875,4349
{consumergroup=adapter-service},1651972880,4349
{consumergroup=adapter-service},1651972885,4349
{consumergroup=adapter-service},1651972890,2554
{consumergroup=adapter-service},1651972895,2554
{consumergroup=adapter-service},1651972900,2554
{consumergroup=adapter-service},1651972905,4064
{consumergroup=adapter-service},1651972910,4064
{consumergroup=adapter-service},1651972915,4064
{consumergroup=adapter-service},1651972920,3878
{consumergroup=adapter-service},1651972925,3878
{consumergroup=adapter-service},1651972930,3878
{consumergroup=adapter-service},1651972935,3848
{consumergroup=adapter-service},1651972940,3848
{consumergroup=adapter-service},1651972945,3848
{consumergroup=adapter-service},1651972950,2045
{consumergroup=adapter-service},1651972955,2045
{consumergroup=adapter-service},1651972960,2045
{consumergroup=adapter-service},1651972965,3488
{consumergroup=adapter-service},1651972970,3488
{consumergroup=adapter-service},1651972975,3488
{consumergroup=adapter-service},1651972980,3334
{consumergroup=adapter-service},1651972985,3334
{consumergroup=adapter-service},1651972990,3334
{consumergroup=adapter-service},1651972995,3189
{consumergroup=adapter-service},1651973000,3189
{consumergroup=adapter-service},1651973005,3189
{consumergroup=adapter-service},1651973010,1903
{consumergroup=adapter-service},1651973015,1903
{consumergroup=adapter-service},1651973020,1903
{consumergroup=adapter-service},1651973025,2916
{consumergroup=adapter-service},1651973030,2916
{consumergroup=adapter-service},1651973035,2916
{consumergroup=adapter-service},1651973040,2698
{consumergroup=adapter-service},1651973045,2698
{consumergroup=adapter-service},1651973050,2698
{consumergroup=adapter-service},1651973055,2589
{consumergroup=adapter-service},1651973060,2589
{consumergroup=adapter-service},1651973065,2589
{consumergroup=adapter-service},1651973070,872
{consumergroup=adapter-service},1651973075,872
{consumergroup=adapter-service},1651973080,872
{consumergroup=adapter-service},1651973085,2313
{consumergroup=adapter-service},1651973090,2313
{consumergroup=adapter-service},1651973095,2313
{consumergroup=adapter-service},1651973100,1078
{consumergroup=adapter-service},1651973105,1078
{consumergroup=adapter-service},1651973110,1078
{consumergroup=adapter-service},1651973115,2606
{consumergroup=adapter-service},1651973120,2606
{consumergroup=adapter-service},1651973125,2606
{consumergroup=adapter-service},1651973130,326
{consumergroup=adapter-service},1651973135,326
{consumergroup=adapter-service},1651973140,326
{consumergroup=adapter-service},1651973145,1793
{consumergroup=adapter-service},1651973150,1793
{consumergroup=adapter-service},1651973155,1793
{consumergroup=landscape-service},1651972755,4463
{consumergroup=landscape-service},1651972760,4463
{consumergroup=landscape-service},1651972765,4463
{consumergroup=landscape-service},1651972770,2635
{consumergroup=landscape-service},1651972775,2635
{consumergroup=landscape-service},1651972780,2635
{consumergroup=landscape-service},1651972785,4744
{consumergroup=landscape-service},1651972790,4744
{consumergroup=landscape-service},1651972795,4744
{consumergroup=landscape-service},1651972800,2645
{consumergroup=landscape-service},1651972805,2645
{consumergroup=landscape-service},1651972810,2645
{consumergroup=landscape-service},1651972815,4223
{consumergroup=landscape-service},1651972820,4223
{consumergroup=landscape-service},1651972825,4223
{consumergroup=landscape-service},1651972830,2380
{consumergroup=landscape-service},1651972835,2380
{consumergroup=landscape-service},1651972840,2380
{consumergroup=landscape-service},1651972845,3951
{consumergroup=landscape-service},1651972850,3951
{consumergroup=landscape-service},1651972855,3951
{consumergroup=landscape-service},1651972860,2810
{consumergroup=landscape-service},1651972865,2810
{consumergroup=landscape-service},1651972870,2810
{consumergroup=landscape-service},1651972875,3949
{consumergroup=landscape-service},1651972880,3949
{consumergroup=landscape-service},1651972885,3949
{consumergroup=landscape-service},1651972890,2695
{consumergroup=landscape-service},1651972895,2695
{consumergroup=landscape-service},1651972900,2695
{consumergroup=landscape-service},1651972905,4299
{consumergroup=landscape-service},1651972910,4299
{consumergroup=landscape-service},1651972915,4299
{consumergroup=landscape-service},1651972920,3749
{consumergroup=landscape-service},1651972925,3749
{consumergroup=landscape-service},1651972930,3749
{consumergroup=landscape-service},1651972935,3829
{consumergroup=landscape-service},1651972940,3829
{consumergroup=landscape-service},1651972945,3829
{consumergroup=landscape-service},1651972950,2116
{consumergroup=landscape-service},1651972955,2116
{consumergroup=landscape-service},1651972960,2116
{consumergroup=landscape-service},1651972965,4042
{consumergroup=landscape-service},1651972970,4042
{consumergroup=landscape-service},1651972975,4042
{consumergroup=landscape-service},1651972980,3450
{consumergroup=landscape-service},1651972985,3450
{consumergroup=landscape-service},1651972990,3450
{consumergroup=landscape-service},1651972995,3893
{consumergroup=landscape-service},1651973000,3893
{consumergroup=landscape-service},1651973005,3893
{consumergroup=landscape-service},1651973010,1750
{consumergroup=landscape-service},1651973015,1750
{consumergroup=landscape-service},1651973020,1750
{consumergroup=landscape-service},1651973025,3698
{consumergroup=landscape-service},1651973030,3698
{consumergroup=landscape-service},1651973035,3698
{consumergroup=landscape-service},1651973040,3088
{consumergroup=landscape-service},1651973045,3088
{consumergroup=landscape-service},1651973050,3088
{consumergroup=landscape-service},1651973055,3107
{consumergroup=landscape-service},1651973060,3107
{consumergroup=landscape-service},1651973065,3107
{consumergroup=landscape-service},1651973070,1931
{consumergroup=landscape-service},1651973075,1931
{consumergroup=landscape-service},1651973080,1931
{consumergroup=landscape-service},1651973085,3389
{consumergroup=landscape-service},1651973090,3389
{consumergroup=landscape-service},1651973095,3389
{consumergroup=landscape-service},1651973100,1865
{consumergroup=landscape-service},1651973105,1865
{consumergroup=landscape-service},1651973110,1865
{consumergroup=landscape-service},1651973115,3086
{consumergroup=landscape-service},1651973120,3086
{consumergroup=landscape-service},1651973125,3086
{consumergroup=landscape-service},1651973130,1307
{consumergroup=landscape-service},1651973135,1307
{consumergroup=landscape-service},1651973140,1307
{consumergroup=landscape-service},1651973145,2970
{consumergroup=landscape-service},1651973150,2970
{consumergroup=landscape-service},1651973155,2970
{consumergroup=landscape-token-events-consumer},1651972740,0
{consumergroup=landscape-token-events-consumer},1651972745,0
{consumergroup=landscape-token-events-consumer},1651972750,0
{consumergroup=landscape-token-events-consumer},1651972755,0
{consumergroup=landscape-token-events-consumer},1651972760,0
{consumergroup=landscape-token-events-consumer},1651972765,0
{consumergroup=landscape-token-events-consumer},1651972770,0
{consumergroup=landscape-token-events-consumer},1651972775,0
{consumergroup=landscape-token-events-consumer},1651972780,0
{consumergroup=landscape-token-events-consumer},1651972785,0
{consumergroup=landscape-token-events-consumer},1651972790,0
{consumergroup=landscape-token-events-consumer},1651972795,0
{consumergroup=landscape-token-events-consumer},1651972800,0
{consumergroup=landscape-token-events-consumer},1651972805,0
{consumergroup=landscape-token-events-consumer},1651972810,0
{consumergroup=landscape-token-events-consumer},1651972815,0
{consumergroup=landscape-token-events-consumer},1651972820,0
{consumergroup=landscape-token-events-consumer},1651972825,0
{consumergroup=landscape-token-events-consumer},1651972830,0
{consumergroup=landscape-token-events-consumer},1651972835,0
{consumergroup=landscape-token-events-consumer},1651972840,0
{consumergroup=landscape-token-events-consumer},1651972845,0
{consumergroup=landscape-token-events-consumer},1651972850,0
{consumergroup=landscape-token-events-consumer},1651972855,0
{consumergroup=landscape-token-events-consumer},1651972860,0
{consumergroup=landscape-token-events-consumer},1651972865,0
{consumergroup=landscape-token-events-consumer},1651972870,0
{consumergroup=landscape-token-events-consumer},1651972875,0
{consumergroup=landscape-token-events-consumer},1651972880,0
{consumergroup=landscape-token-events-consumer},1651972885,0
{consumergroup=landscape-token-events-consumer},1651972890,0
{consumergroup=landscape-token-events-consumer},1651972895,0
{consumergroup=landscape-token-events-consumer},1651972900,0
{consumergroup=landscape-token-events-consumer},1651972905,0
{consumergroup=landscape-token-events-consumer},1651972910,0
{consumergroup=landscape-token-events-consumer},1651972915,0
{consumergroup=landscape-token-events-consumer},1651972920,0
{consumergroup=landscape-token-events-consumer},1651972925,0
{consumergroup=landscape-token-events-consumer},1651972930,0
{consumergroup=landscape-token-events-consumer},1651972935,0
{consumergroup=landscape-token-events-consumer},1651972940,0
{consumergroup=landscape-token-events-consumer},1651972945,0
{consumergroup=landscape-token-events-consumer},1651972950,0
{consumergroup=landscape-token-events-consumer},1651972955,0
{consumergroup=landscape-token-events-consumer},1651972960,0
{consumergroup=landscape-token-events-consumer},1651972965,0
{consumergroup=landscape-token-events-consumer},1651972970,0
{consumergroup=landscape-token-events-consumer},1651972975,0
{consumergroup=landscape-token-events-consumer},1651972980,0
{consumergroup=landscape-token-events-consumer},1651972985,0
{consumergroup=landscape-token-events-consumer},1651972990,0
{consumergroup=landscape-token-events-consumer},1651972995,0
{consumergroup=landscape-token-events-consumer},1651973000,0
{consumergroup=landscape-token-events-consumer},1651973005,0
{consumergroup=landscape-token-events-consumer},1651973010,0
{consumergroup=landscape-token-events-consumer},1651973015,0
{consumergroup=landscape-token-events-consumer},1651973020,0
{consumergroup=landscape-token-events-consumer},1651973025,0
{consumergroup=landscape-token-events-consumer},1651973030,0
{consumergroup=landscape-token-events-consumer},1651973035,0
{consumergroup=landscape-token-events-consumer},1651973040,0
{consumergroup=landscape-token-events-consumer},1651973045,0
{consumergroup=landscape-token-events-consumer},1651973050,0
{consumergroup=landscape-token-events-consumer},1651973055,0
{consumergroup=landscape-token-events-consumer},1651973060,0
{consumergroup=landscape-token-events-consumer},1651973065,0
{consumergroup=landscape-token-events-consumer},1651973070,0
{consumergroup=landscape-token-events-consumer},1651973075,0
{consumergroup=landscape-token-events-consumer},1651973080,0
{consumergroup=landscape-token-events-consumer},1651973085,0
{consumergroup=landscape-token-events-consumer},1651973090,0
{consumergroup=landscape-token-events-consumer},1651973095,0
{consumergroup=landscape-token-events-consumer},1651973100,0
{consumergroup=landscape-token-events-consumer},1651973105,0
{consumergroup=landscape-token-events-consumer},1651973110,0
{consumergroup=landscape-token-events-consumer},1651973115,0
{consumergroup=landscape-token-events-consumer},1651973120,0
{consumergroup=landscape-token-events-consumer},1651973125,0
{consumergroup=landscape-token-events-consumer},1651973130,0
{consumergroup=landscape-token-events-consumer},1651973135,0
{consumergroup=landscape-token-events-consumer},1651973140,0
{consumergroup=landscape-token-events-consumer},1651973145,0
{consumergroup=landscape-token-events-consumer},1651973150,0
{consumergroup=landscape-token-events-consumer},1651973155,0
{consumergroup=trace-service},1651972755,11950
{consumergroup=trace-service},1651972760,11950
{consumergroup=trace-service},1651972765,11950
{consumergroup=trace-service},1651972770,14982
{consumergroup=trace-service},1651972775,14982
{consumergroup=trace-service},1651972780,14982
{consumergroup=trace-service},1651972785,29617
{consumergroup=trace-service},1651972790,29617
{consumergroup=trace-service},1651972795,29617
{consumergroup=trace-service},1651972800,8972
{consumergroup=trace-service},1651972805,8972
{consumergroup=trace-service},1651972810,8972
{consumergroup=trace-service},1651972815,14097
{consumergroup=trace-service},1651972820,14097
{consumergroup=trace-service},1651972825,14097
{consumergroup=trace-service},1651972830,8780
{consumergroup=trace-service},1651972835,8780
{consumergroup=trace-service},1651972840,8780
{consumergroup=trace-service},1651972845,26582
{consumergroup=trace-service},1651972850,26582
{consumergroup=trace-service},1651972855,26582
{consumergroup=trace-service},1651972860,5499
{consumergroup=trace-service},1651972865,5499
{consumergroup=trace-service},1651972870,5499
{consumergroup=trace-service},1651972875,3512
{consumergroup=trace-service},1651972880,3512
{consumergroup=trace-service},1651972885,3512
{consumergroup=trace-service},1651972890,7305
{consumergroup=trace-service},1651972895,7305
{consumergroup=trace-service},1651972900,7305
{consumergroup=trace-service},1651972905,24404
{consumergroup=trace-service},1651972910,24404
{consumergroup=trace-service},1651972915,24404
{consumergroup=trace-service},1651972920,10955
{consumergroup=trace-service},1651972925,10955
{consumergroup=trace-service},1651972930,10955
{consumergroup=trace-service},1651972935,7470
{consumergroup=trace-service},1651972940,7470
{consumergroup=trace-service},1651972945,7470
{consumergroup=trace-service},1651972950,9251
{consumergroup=trace-service},1651972955,9251
{consumergroup=trace-service},1651972960,9251
{consumergroup=trace-service},1651972965,11590
{consumergroup=trace-service},1651972970,11590
{consumergroup=trace-service},1651972975,11590
{consumergroup=trace-service},1651972980,9386
{consumergroup=trace-service},1651972985,9386
{consumergroup=trace-service},1651972990,9386
{consumergroup=trace-service},1651972995,13856
{consumergroup=trace-service},1651973000,13856
{consumergroup=trace-service},1651973005,13856
{consumergroup=trace-service},1651973010,10757
{consumergroup=trace-service},1651973015,10757
{consumergroup=trace-service},1651973020,10757
{consumergroup=trace-service},1651973025,21497
{consumergroup=trace-service},1651973030,21497
{consumergroup=trace-service},1651973035,21497
{consumergroup=trace-service},1651973040,7922
{consumergroup=trace-service},1651973045,7922
{consumergroup=trace-service},1651973050,7922
{consumergroup=trace-service},1651973055,14460
{consumergroup=trace-service},1651973060,14460
{consumergroup=trace-service},1651973065,14460
{consumergroup=trace-service},1651973070,9120
{consumergroup=trace-service},1651973075,9120
{consumergroup=trace-service},1651973080,9120
{consumergroup=trace-service},1651973085,8714
{consumergroup=trace-service},1651973090,8714
{consumergroup=trace-service},1651973095,8714
{consumergroup=trace-service},1651973100,8803
{consumergroup=trace-service},1651973105,8803
{consumergroup=trace-service},1651973110,8803
{consumergroup=trace-service},1651973115,4619
{consumergroup=trace-service},1651973120,4619
{consumergroup=trace-service},1651973125,4619
{consumergroup=trace-service},1651973130,9715
{consumergroup=trace-service},1651973135,9715
{consumergroup=trace-service},1651973140,9715
{consumergroup=trace-service},1651973145,7289
{consumergroup=trace-service},1651973150,7289
{consumergroup=trace-service},1651973155,7289
{consumergroup=trace-token-events-consumer},1651972740,0
{consumergroup=trace-token-events-consumer},1651972745,0
{consumergroup=trace-token-events-consumer},1651972750,0
{consumergroup=trace-token-events-consumer},1651972755,0
{consumergroup=trace-token-events-consumer},1651972760,0
{consumergroup=trace-token-events-consumer},1651972765,0
{consumergroup=trace-token-events-consumer},1651972770,0
{consumergroup=trace-token-events-consumer},1651972775,0
{consumergroup=trace-token-events-consumer},1651972780,0
{consumergroup=trace-token-events-consumer},1651972785,0
{consumergroup=trace-token-events-consumer},1651972790,0
{consumergroup=trace-token-events-consumer},1651972795,0
{consumergroup=trace-token-events-consumer},1651972800,0
{consumergroup=trace-token-events-consumer},1651972805,0
{consumergroup=trace-token-events-consumer},1651972810,0
{consumergroup=trace-token-events-consumer},1651972815,0
{consumergroup=trace-token-events-consumer},1651972820,0
{consumergroup=trace-token-events-consumer},1651972825,0
{consumergroup=trace-token-events-consumer},1651972830,0
{consumergroup=trace-token-events-consumer},1651972835,0
{consumergroup=trace-token-events-consumer},1651972840,0
{consumergroup=trace-token-events-consumer},1651972845,0
{consumergroup=trace-token-events-consumer},1651972850,0
{consumergroup=trace-token-events-consumer},1651972855,0
{consumergroup=trace-token-events-consumer},1651972860,0
{consumergroup=trace-token-events-consumer},1651972865,0
{consumergroup=trace-token-events-consumer},1651972870,0
{consumergroup=trace-token-events-consumer},1651972875,0
{consumergroup=trace-token-events-consumer},1651972880,0
{consumergroup=trace-token-events-consumer},1651972885,0
{consumergroup=trace-token-events-consumer},1651972890,0
{consumergroup=trace-token-events-consumer},1651972895,0
{consumergroup=trace-token-events-consumer},1651972900,0
{consumergroup=trace-token-events-consumer},1651972905,0
{consumergroup=trace-token-events-consumer},1651972910,0
{consumergroup=trace-token-events-consumer},1651972915,0
{consumergroup=trace-token-events-consumer},1651972920,0
{consumergroup=trace-token-events-consumer},1651972925,0
{consumergroup=trace-token-events-consumer},1651972930,0
{consumergroup=trace-token-events-consumer},1651972935,0
{consumergroup=trace-token-events-consumer},1651972940,0
{consumergroup=trace-token-events-consumer},1651972945,0
{consumergroup=trace-token-events-consumer},1651972950,0
{consumergroup=trace-token-events-consumer},1651972955,0
{consumergroup=trace-token-events-consumer},1651972960,0
{consumergroup=trace-token-events-consumer},1651972965,0
{consumergroup=trace-token-events-consumer},1651972970,0
{consumergroup=trace-token-events-consumer},1651972975,0
{consumergroup=trace-token-events-consumer},1651972980,0
{consumergroup=trace-token-events-consumer},1651972985,0
{consumergroup=trace-token-events-consumer},1651972990,0
{consumergroup=trace-token-events-consumer},1651972995,0
{consumergroup=trace-token-events-consumer},1651973000,0
{consumergroup=trace-token-events-consumer},1651973005,0
{consumergroup=trace-token-events-consumer},1651973010,0
{consumergroup=trace-token-events-consumer},1651973015,0
{consumergroup=trace-token-events-consumer},1651973020,0
{consumergroup=trace-token-events-consumer},1651973025,0
{consumergroup=trace-token-events-consumer},1651973030,0
{consumergroup=trace-token-events-consumer},1651973035,0
{consumergroup=trace-token-events-consumer},1651973040,0
{consumergroup=trace-token-events-consumer},1651973045,0
{consumergroup=trace-token-events-consumer},1651973050,0
{consumergroup=trace-token-events-consumer},1651973055,0
{consumergroup=trace-token-events-consumer},1651973060,0
{consumergroup=trace-token-events-consumer},1651973065,0
{consumergroup=trace-token-events-consumer},1651973070,0
{consumergroup=trace-token-events-consumer},1651973075,0
{consumergroup=trace-token-events-consumer},1651973080,0
{consumergroup=trace-token-events-consumer},1651973085,0
{consumergroup=trace-token-events-consumer},1651973090,0
{consumergroup=trace-token-events-consumer},1651973095,0
{consumergroup=trace-token-events-consumer},1651973100,0
{consumergroup=trace-token-events-consumer},1651973105,0
{consumergroup=trace-token-events-consumer},1651973110,0
{consumergroup=trace-token-events-consumer},1651973115,0
{consumergroup=trace-token-events-consumer},1651973120,0
{consumergroup=trace-token-events-consumer},1651973125,0
{consumergroup=trace-token-events-consumer},1651973130,0
{consumergroup=trace-token-events-consumer},1651973135,0
{consumergroup=trace-token-events-consumer},1651973140,0
{consumergroup=trace-token-events-consumer},1651973145,0
{consumergroup=trace-token-events-consumer},1651973150,0
{consumergroup=trace-token-events-consumer},1651973155,0
