labels,timestamp,value
{consumergroup=__strimzi-topic-operator-kstreams},1651884212,0
{consumergroup=__strimzi-topic-operator-kstreams},1651884217,0
{consumergroup=__strimzi-topic-operator-kstreams},1651884222,0
{consumergroup=__strimzi-topic-operator-kstreams},1651884227,8
{consumergroup=__strimzi-topic-operator-kstreams},1651884232,8
{consumergroup=__strimzi-topic-operator-kstreams},1651884237,8
{consumergroup=__strimzi-topic-operator-kstreams},1651884242,8
{consumergroup=__strimzi-topic-operator-kstreams},1651884247,8
{consumergroup=__strimzi-topic-operator-kstreams},1651884252,8
{consumergroup=__strimzi-topic-operator-kstreams},1651884257,0
{consumergroup=__strimzi-topic-operator-kstreams},1651884262,0
{consumergroup=__strimzi-topic-operator-kstreams},1651884267,0
{consumergroup=__strimzi-topic-operator-kstreams},1651884272,0
{consumergroup=__strimzi-topic-operator-kstreams},1651884277,0
{consumergroup=__strimzi-topic-operator-kstreams},1651884282,0
{consumergroup=__strimzi-topic-operator-kstreams},1651884287,0
{consumergroup=__strimzi-topic-operator-kstreams},1651884292,0
{consumergroup=__strimzi-topic-operator-kstreams},1651884297,0
{consumergroup=__strimzi-topic-operator-kstreams},1651884302,0
{consumergroup=__strimzi-topic-operator-kstreams},1651884307,0
{consumergroup=__strimzi-topic-operator-kstreams},1651884312,0
{consumergroup=__strimzi-topic-operator-kstreams},1651884317,0
{consumergroup=__strimzi-topic-operator-kstreams},1651884322,0
{consumergroup=__strimzi-topic-operator-kstreams},1651884327,0
{consumergroup=__strimzi-topic-operator-kstreams},1651884332,0
{consumergroup=__strimzi-topic-operator-kstreams},1651884337,0
{consumergroup=__strimzi-topic-operator-kstreams},1651884342,0
{consumergroup=__strimzi-topic-operator-kstreams},1651884347,0
{consumergroup=__strimzi-topic-operator-kstreams},1651884352,0
{consumergroup=__strimzi-topic-operator-kstreams},1651884357,0
{consumergroup=__strimzi-topic-operator-kstreams},1651884362,0
{consumergroup=__strimzi-topic-operator-kstreams},1651884367,0
{consumergroup=__strimzi-topic-operator-kstreams},1651884372,0
{consumergroup=__strimzi-topic-operator-kstreams},1651884377,0
{consumergroup=__strimzi-topic-operator-kstreams},1651884382,0
{consumergroup=__strimzi-topic-operator-kstreams},1651884387,0
{consumergroup=__strimzi-topic-operator-kstreams},1651884392,0
{consumergroup=__strimzi-topic-operator-kstreams},1651884397,0
{consumergroup=__strimzi-topic-operator-kstreams},1651884402,0
{consumergroup=__strimzi-topic-operator-kstreams},1651884407,0
{consumergroup=__strimzi-topic-operator-kstreams},1651884412,0
{consumergroup=__strimzi-topic-operator-kstreams},1651884417,0
{consumergroup=__strimzi-topic-operator-kstreams},1651884422,0
{consumergroup=__strimzi-topic-operator-kstreams},1651884427,0
{consumergroup=__strimzi-topic-operator-kstreams},1651884432,0
{consumergroup=__strimzi-topic-operator-kstreams},1651884437,0
{consumergroup=__strimzi-topic-operator-kstreams},1651884442,0
{consumergroup=__strimzi-topic-operator-kstreams},1651884447,0
{consumergroup=__strimzi-topic-operator-kstreams},1651884452,0
{consumergroup=__strimzi-topic-operator-kstreams},1651884457,0
{consumergroup=__strimzi-topic-operator-kstreams},1651884462,0
{consumergroup=__strimzi-topic-operator-kstreams},1651884467,0
{consumergroup=__strimzi-topic-operator-kstreams},1651884472,0
{consumergroup=adapter-service},1651884257,261766
{consumergroup=adapter-service},1651884262,261766
{consumergroup=adapter-service},1651884267,261766
{consumergroup=adapter-service},1651884272,444131
{consumergroup=adapter-service},1651884277,444131
{consumergroup=adapter-service},1651884282,444131
{consumergroup=adapter-service},1651884287,601236
{consumergroup=adapter-service},1651884292,601236
{consumergroup=adapter-service},1651884297,601236
{consumergroup=adapter-service},1651884302,713191
{consumergroup=adapter-service},1651884307,713191
{consumergroup=adapter-service},1651884312,713191
{consumergroup=adapter-service},1651884317,819307
{consumergroup=adapter-service},1651884322,819307
{consumergroup=adapter-service},1651884327,819307
{consumergroup=adapter-service},1651884332,880571
{consumergroup=adapter-service},1651884337,880571
{consumergroup=adapter-service},1651884342,880571
{consumergroup=adapter-service},1651884347,925060
{consumergroup=adapter-service},1651884352,925060
{consumergroup=adapter-service},1651884357,925060
{consumergroup=adapter-service},1651884362,957482
{consumergroup=adapter-service},1651884367,957482
{consumergroup=adapter-service},1651884372,957482
{consumergroup=adapter-service},1651884377,944229
{consumergroup=adapter-service},1651884382,944229
{consumergroup=adapter-service},1651884387,944229
{consumergroup=adapter-service},1651884392,932111
{consumergroup=adapter-service},1651884397,932111
{consumergroup=adapter-service},1651884402,932111
{consumergroup=adapter-service},1651884407,934494
{consumergroup=adapter-service},1651884412,934494
{consumergroup=adapter-service},1651884417,934494
{consumergroup=adapter-service},1651884422,912728
{consumergroup=adapter-service},1651884427,912728
{consumergroup=adapter-service},1651884432,912728
{consumergroup=adapter-service},1651884437,889056
{consumergroup=adapter-service},1651884442,889056
{consumergroup=adapter-service},1651884447,889056
{consumergroup=adapter-service},1651884452,873431
{consumergroup=adapter-service},1651884457,873431
{consumergroup=adapter-service},1651884462,873431
{consumergroup=adapter-service},1651884467,861388
{consumergroup=adapter-service},1651884472,861388
