labels,timestamp,value
{job=theodolite-stu200776/combined-trace-podmonitor},1651990364,0
{job=theodolite-stu200776/combined-trace-podmonitor},1651990369,0
{job=theodolite-stu200776/combined-trace-podmonitor},1651990374,0
{job=theodolite-stu200776/combined-trace-podmonitor},1651990379,0
{job=theodolite-stu200776/combined-trace-podmonitor},1651990384,58.54776076162637
{job=theodolite-stu200776/combined-trace-podmonitor},1651990389,60.77157719223486
{job=theodolite-stu200776/combined-trace-podmonitor},1651990394,643.0549789486975
{job=theodolite-stu200776/combined-trace-podmonitor},1651990399,725.6007978016428
{job=theodolite-stu200776/combined-trace-podmonitor},1651990404,692.6120373571016
{job=theodolite-stu200776/combined-trace-podmonitor},1651990409,675.3278060748698
{job=theodolite-stu200776/combined-trace-podmonitor},1651990414,560.1510758189495
{job=theodolite-stu200776/combined-trace-podmonitor},1651990419,548.6825408873923
{job=theodolite-stu200776/combined-trace-podmonitor},1651990424,153.9524850801623
{job=theodolite-stu200776/combined-trace-podmonitor},1651990429,186.30600792660982
{job=theodolite-stu200776/combined-trace-podmonitor},1651990434,197.09461139848491
{job=theodolite-stu200776/combined-trace-podmonitor},1651990439,177.65367986228273
{job=theodolite-stu200776/combined-trace-podmonitor},1651990444,154.87866165155825
{job=theodolite-stu200776/combined-trace-podmonitor},1651990449,142.6902523002816
{job=theodolite-stu200776/combined-trace-podmonitor},1651990454,127.80255406017942
{job=theodolite-stu200776/combined-trace-podmonitor},1651990459,71.0615030314459
{job=theodolite-stu200776/combined-trace-podmonitor},1651990464,0
{job=theodolite-stu200776/combined-trace-podmonitor},1651990469,0
{job=theodolite-stu200776/combined-trace-podmonitor},1651990474,0
{job=theodolite-stu200776/combined-trace-podmonitor},1651990479,0
{job=theodolite-stu200776/combined-trace-podmonitor},1651990484,0
{job=theodolite-stu200776/combined-trace-podmonitor},1651990489,0
{job=theodolite-stu200776/combined-trace-podmonitor},1651990494,0
{job=theodolite-stu200776/combined-trace-podmonitor},1651990499,0
{job=theodolite-stu200776/combined-trace-podmonitor},1651990504,0
{job=theodolite-stu200776/combined-trace-podmonitor},1651990509,0
{job=theodolite-stu200776/combined-trace-podmonitor},1651990514,0
{job=theodolite-stu200776/combined-trace-podmonitor},1651990519,0
{job=theodolite-stu200776/combined-trace-podmonitor},1651990524,0
{job=theodolite-stu200776/combined-trace-podmonitor},1651990529,0
{job=theodolite-stu200776/combined-trace-podmonitor},1651990534,0
{job=theodolite-stu200776/combined-trace-podmonitor},1651990539,0
{job=theodolite-stu200776/combined-trace-podmonitor},1651990544,0
{job=theodolite-stu200776/combined-trace-podmonitor},1651990549,0
{job=theodolite-stu200776/combined-trace-podmonitor},1651990554,0
{job=theodolite-stu200776/combined-trace-podmonitor},1651990559,0
{job=theodolite-stu200776/combined-trace-podmonitor},1651990564,0
{job=theodolite-stu200776/combined-trace-podmonitor},1651990569,0
{job=theodolite-stu200776/combined-trace-podmonitor},1651990574,0
{job=theodolite-stu200776/combined-trace-podmonitor},1651990579,0
{job=theodolite-stu200776/combined-trace-podmonitor},1651990584,0
{job=theodolite-stu200776/combined-trace-podmonitor},1651990589,0
{job=theodolite-stu200776/combined-trace-podmonitor},1651990594,0
{job=theodolite-stu200776/combined-trace-podmonitor},1651990599,0
{job=theodolite-stu200776/combined-trace-podmonitor},1651990604,0
{job=theodolite-stu200776/combined-trace-podmonitor},1651990609,0
{job=theodolite-stu200776/combined-trace-podmonitor},1651990614,0
{job=theodolite-stu200776/combined-trace-podmonitor},1651990619,0
{job=theodolite-stu200776/combined-trace-podmonitor},1651990624,0
{job=theodolite-stu200776/combined-trace-podmonitor},1651990629,0
{job=theodolite-stu200776/combined-trace-podmonitor},1651990634,0
{job=theodolite-stu200776/combined-trace-podmonitor},1651990639,0
{job=theodolite-stu200776/combined-trace-podmonitor},1651990644,0
{job=theodolite-stu200776/combined-trace-podmonitor},1651990649,0
{job=theodolite-stu200776/combined-trace-podmonitor},1651990654,0
{job=theodolite-stu200776/combined-trace-podmonitor},1651990659,0
{job=theodolite-stu200776/combined-trace-podmonitor},1651990664,0
{job=theodolite-stu200776/combined-trace-podmonitor},1651990669,0
{job=theodolite-stu200776/combined-trace-podmonitor},1651990674,0
{job=theodolite-stu200776/combined-trace-podmonitor},1651990679,0
{job=theodolite-stu200776/combined-trace-podmonitor},1651990684,0
{job=theodolite-stu200776/combined-trace-podmonitor},1651990689,0
{job=theodolite-stu200776/combined-trace-podmonitor},1651990694,0
{job=theodolite-stu200776/combined-trace-podmonitor},1651990699,0
{job=theodolite-stu200776/combined-trace-podmonitor},1651990704,0
{job=theodolite-stu200776/combined-trace-podmonitor},1651990709,0
{job=theodolite-stu200776/combined-trace-podmonitor},1651990714,0
{job=theodolite-stu200776/combined-trace-podmonitor},1651990719,0
{job=theodolite-stu200776/combined-trace-podmonitor},1651990724,0
{job=theodolite-stu200776/combined-trace-podmonitor},1651990729,0
{job=theodolite-stu200776/combined-trace-podmonitor},1651990734,0
