labels,timestamp,value
{job=theodolite-stu200776/combined-trace-podmonitor},1651944622,0.2660800351397799
{job=theodolite-stu200776/combined-trace-podmonitor},1651944627,1.1771081122879865
{job=theodolite-stu200776/combined-trace-podmonitor},1651944632,1.534497480296295
{job=theodolite-stu200776/combined-trace-podmonitor},1651944637,2.094496905117102
{job=theodolite-stu200776/combined-trace-podmonitor},1651944642,2.4435864977066117
{job=theodolite-stu200776/combined-trace-podmonitor},1651944647,2.2562571424730047
{job=theodolite-stu200776/combined-trace-podmonitor},1651944652,28.395574039274273
{job=theodolite-stu200776/combined-trace-podmonitor},1651944657,545.0129287272354
{job=theodolite-stu200776/combined-trace-podmonitor},1651944662,1232.8335286674082
{job=theodolite-stu200776/combined-trace-podmonitor},1651944667,1780.6590255189515
{job=theodolite-stu200776/combined-trace-podmonitor},1651944672,2094.6373049801937
{job=theodolite-stu200776/combined-trace-podmonitor},1651944677,2227.2286097230244
{job=theodolite-stu200776/combined-trace-podmonitor},1651944682,2144.045066199476
{job=theodolite-stu200776/combined-trace-podmonitor},1651944687,2519.564548018285
{job=theodolite-stu200776/combined-trace-podmonitor},1651944692,2774.8188715042265
{job=theodolite-stu200776/combined-trace-podmonitor},1651944697,2667.984564689124
{job=theodolite-stu200776/combined-trace-podmonitor},1651944702,2436.655656295162
{job=theodolite-stu200776/combined-trace-podmonitor},1651944707,2158.5862335356755
{job=theodolite-stu200776/combined-trace-podmonitor},1651944712,1930.2860049461353
{job=theodolite-stu200776/combined-trace-podmonitor},1651944717,1120.3626644278881
{job=theodolite-stu200776/combined-trace-podmonitor},1651944722,427.1790313127207
{job=theodolite-stu200776/combined-trace-podmonitor},1651944727,90.76475131131615
{job=theodolite-stu200776/combined-trace-podmonitor},1651944732,66.8883442066578
{job=theodolite-stu200776/combined-trace-podmonitor},1651944737,45.03346093631567
{job=theodolite-stu200776/combined-trace-podmonitor},1651944742,40.49775768467039
{job=theodolite-stu200776/combined-trace-podmonitor},1651944747,28.436142540611502
{job=theodolite-stu200776/combined-trace-podmonitor},1651944752,13.91960797113126
{job=theodolite-stu200776/combined-trace-podmonitor},1651944757,44.33829788486443
{job=theodolite-stu200776/combined-trace-podmonitor},1651944762,67.02904872065159
{job=theodolite-stu200776/combined-trace-podmonitor},1651944767,59.04678786725321
{job=theodolite-stu200776/combined-trace-podmonitor},1651944772,53.274545890413236
{job=theodolite-stu200776/combined-trace-podmonitor},1651944777,49.13528964417096
{job=theodolite-stu200776/combined-trace-podmonitor},1651944782,45.35497969638577
{job=theodolite-stu200776/combined-trace-podmonitor},1651944787,48.82185378450704
{job=theodolite-stu200776/combined-trace-podmonitor},1651944792,45.505503366193345
{job=theodolite-stu200776/combined-trace-podmonitor},1651944797,38.26510973388335
{job=theodolite-stu200776/combined-trace-podmonitor},1651944802,34.95692439262944
{job=theodolite-stu200776/combined-trace-podmonitor},1651944807,28.796708107932126
{job=theodolite-stu200776/combined-trace-podmonitor},1651944812,26.780085620574827
{job=theodolite-stu200776/combined-trace-podmonitor},1651944817,9.737160896128522
{job=theodolite-stu200776/combined-trace-podmonitor},1651944822,0
{job=theodolite-stu200776/combined-trace-podmonitor},1651944827,0
{job=theodolite-stu200776/combined-trace-podmonitor},1651944832,0
{job=theodolite-stu200776/combined-trace-podmonitor},1651944837,0
{job=theodolite-stu200776/combined-trace-podmonitor},1651944842,0
{job=theodolite-stu200776/combined-trace-podmonitor},1651944847,0
{job=theodolite-stu200776/combined-trace-podmonitor},1651944852,0
{job=theodolite-stu200776/combined-trace-podmonitor},1651944857,0
{job=theodolite-stu200776/combined-trace-podmonitor},1651944862,0
{job=theodolite-stu200776/combined-trace-podmonitor},1651944867,0
{job=theodolite-stu200776/combined-trace-podmonitor},1651944872,0
{job=theodolite-stu200776/combined-trace-podmonitor},1651944877,0
{job=theodolite-stu200776/combined-trace-podmonitor},1651944882,0
{job=theodolite-stu200776/combined-trace-podmonitor},1651944887,0
{job=theodolite-stu200776/combined-trace-podmonitor},1651944892,0
{job=theodolite-stu200776/combined-trace-podmonitor},1651944897,0
{job=theodolite-stu200776/combined-trace-podmonitor},1651944902,0
{job=theodolite-stu200776/combined-trace-podmonitor},1651944907,0
{job=theodolite-stu200776/combined-trace-podmonitor},1651944912,0
{job=theodolite-stu200776/combined-trace-podmonitor},1651944917,0
{job=theodolite-stu200776/combined-trace-podmonitor},1651944922,0
{job=theodolite-stu200776/combined-trace-podmonitor},1651944927,0
{job=theodolite-stu200776/combined-trace-podmonitor},1651944932,0
{job=theodolite-stu200776/combined-trace-podmonitor},1651944937,0
{job=theodolite-stu200776/combined-trace-podmonitor},1651944942,0
{job=theodolite-stu200776/combined-trace-podmonitor},1651944947,0
{job=theodolite-stu200776/combined-trace-podmonitor},1651944952,0
{job=theodolite-stu200776/combined-trace-podmonitor},1651944957,0
{job=theodolite-stu200776/combined-trace-podmonitor},1651944962,0
{job=theodolite-stu200776/combined-trace-podmonitor},1651944967,0
{job=theodolite-stu200776/combined-trace-podmonitor},1651944972,0
{job=theodolite-stu200776/combined-trace-podmonitor},1651944977,0
{job=theodolite-stu200776/combined-trace-podmonitor},1651944982,0
{job=theodolite-stu200776/combined-trace-podmonitor},1651944987,0
