labels,timestamp,value
{consumergroup=__strimzi-topic-operator-kstreams},1651995840,9
{consumergroup=__strimzi-topic-operator-kstreams},1651995845,9
{consumergroup=__strimzi-topic-operator-kstreams},1651995850,9
{consumergroup=__strimzi-topic-operator-kstreams},1651995855,0
{consumergroup=__strimzi-topic-operator-kstreams},1651995860,0
{consumergroup=__strimzi-topic-operator-kstreams},1651995865,0
{consumergroup=__strimzi-topic-operator-kstreams},1651995870,3
{consumergroup=__strimzi-topic-operator-kstreams},1651995875,3
{consumergroup=__strimzi-topic-operator-kstreams},1651995880,3
{consumergroup=__strimzi-topic-operator-kstreams},1651995885,0
{consumergroup=__strimzi-topic-operator-kstreams},1651995890,0
{consumergroup=__strimzi-topic-operator-kstreams},1651995895,0
{consumergroup=__strimzi-topic-operator-kstreams},1651995900,0
{consumergroup=__strimzi-topic-operator-kstreams},1651995905,0
{consumergroup=__strimzi-topic-operator-kstreams},1651995910,0
{consumergroup=__strimzi-topic-operator-kstreams},1651995915,0
{consumergroup=__strimzi-topic-operator-kstreams},1651995920,0
{consumergroup=__strimzi-topic-operator-kstreams},1651995925,0
{consumergroup=__strimzi-topic-operator-kstreams},1651995930,0
{consumergroup=__strimzi-topic-operator-kstreams},1651995935,0
{consumergroup=__strimzi-topic-operator-kstreams},1651995940,0
{consumergroup=__strimzi-topic-operator-kstreams},1651995945,0
{consumergroup=__strimzi-topic-operator-kstreams},1651995950,0
{consumergroup=__strimzi-topic-operator-kstreams},1651995955,0
{consumergroup=__strimzi-topic-operator-kstreams},1651995960,0
{consumergroup=__strimzi-topic-operator-kstreams},1651995965,0
{consumergroup=__strimzi-topic-operator-kstreams},1651995970,0
{consumergroup=__strimzi-topic-operator-kstreams},1651995975,0
{consumergroup=__strimzi-topic-operator-kstreams},1651995980,0
{consumergroup=__strimzi-topic-operator-kstreams},1651995985,0
{consumergroup=__strimzi-topic-operator-kstreams},1651995990,0
{consumergroup=__strimzi-topic-operator-kstreams},1651995995,0
{consumergroup=__strimzi-topic-operator-kstreams},1651996000,0
{consumergroup=__strimzi-topic-operator-kstreams},1651996005,0
{consumergroup=__strimzi-topic-operator-kstreams},1651996010,0
{consumergroup=__strimzi-topic-operator-kstreams},1651996015,0
{consumergroup=__strimzi-topic-operator-kstreams},1651996020,0
{consumergroup=__strimzi-topic-operator-kstreams},1651996025,0
{consumergroup=__strimzi-topic-operator-kstreams},1651996030,0
{consumergroup=__strimzi-topic-operator-kstreams},1651996035,0
{consumergroup=__strimzi-topic-operator-kstreams},1651996040,0
{consumergroup=__strimzi-topic-operator-kstreams},1651996045,0
{consumergroup=__strimzi-topic-operator-kstreams},1651996050,0
{consumergroup=__strimzi-topic-operator-kstreams},1651996055,0
{consumergroup=__strimzi-topic-operator-kstreams},1651996060,0
{consumergroup=__strimzi-topic-operator-kstreams},1651996065,0
{consumergroup=__strimzi-topic-operator-kstreams},1651996070,0
{consumergroup=__strimzi-topic-operator-kstreams},1651996075,0
{consumergroup=__strimzi-topic-operator-kstreams},1651996080,0
{consumergroup=__strimzi-topic-operator-kstreams},1651996085,0
{consumergroup=__strimzi-topic-operator-kstreams},1651996090,0
{consumergroup=__strimzi-topic-operator-kstreams},1651996095,0
{consumergroup=__strimzi-topic-operator-kstreams},1651996100,0
{consumergroup=__strimzi-topic-operator-kstreams},1651996105,0
{consumergroup=__strimzi-topic-operator-kstreams},1651996110,0
{consumergroup=__strimzi-topic-operator-kstreams},1651996115,0
{consumergroup=__strimzi-topic-operator-kstreams},1651996120,0
{consumergroup=__strimzi-topic-operator-kstreams},1651996125,0
{consumergroup=__strimzi-topic-operator-kstreams},1651996130,0
{consumergroup=__strimzi-topic-operator-kstreams},1651996135,0
{consumergroup=__strimzi-topic-operator-kstreams},1651996140,0
{consumergroup=__strimzi-topic-operator-kstreams},1651996145,0
{consumergroup=__strimzi-topic-operator-kstreams},1651996150,0
{consumergroup=__strimzi-topic-operator-kstreams},1651996155,0
{consumergroup=__strimzi-topic-operator-kstreams},1651996160,0
{consumergroup=__strimzi-topic-operator-kstreams},1651996165,0
{consumergroup=__strimzi-topic-operator-kstreams},1651996170,0
{consumergroup=__strimzi-topic-operator-kstreams},1651996175,0
{consumergroup=__strimzi-topic-operator-kstreams},1651996180,0
{consumergroup=__strimzi-topic-operator-kstreams},1651996185,0
{consumergroup=__strimzi-topic-operator-kstreams},1651996190,0
{consumergroup=__strimzi-topic-operator-kstreams},1651996195,0
{consumergroup=__strimzi-topic-operator-kstreams},1651996200,0
{consumergroup=__strimzi-topic-operator-kstreams},1651996205,0
{consumergroup=__strimzi-topic-operator-kstreams},1651996210,0
{consumergroup=__strimzi-topic-operator-kstreams},1651996215,0
{consumergroup=__strimzi-topic-operator-kstreams},1651996220,0
{consumergroup=__strimzi-topic-operator-kstreams},1651996225,0
{consumergroup=__strimzi-topic-operator-kstreams},1651996230,0
{consumergroup=__strimzi-topic-operator-kstreams},1651996235,0
{consumergroup=__strimzi-topic-operator-kstreams},1651996240,0
{consumergroup=__strimzi-topic-operator-kstreams},1651996245,0
{consumergroup=__strimzi-topic-operator-kstreams},1651996250,0
{consumergroup=__strimzi-topic-operator-kstreams},1651996255,0
{consumergroup=__strimzi-topic-operator-kstreams},1651996260,0
{consumergroup=__strimzi-topic-operator-kstreams},1651996265,0
{consumergroup=__strimzi-topic-operator-kstreams},1651996270,0
{consumergroup=__strimzi-topic-operator-kstreams},1651996275,0
{consumergroup=__strimzi-topic-operator-kstreams},1651996280,0
{consumergroup=__strimzi-topic-operator-kstreams},1651996285,0
{consumergroup=__strimzi-topic-operator-kstreams},1651996290,0
{consumergroup=adapter-service},1651995870,0
{consumergroup=adapter-service},1651995875,0
{consumergroup=adapter-service},1651995880,0
{consumergroup=adapter-service},1651995885,92
{consumergroup=adapter-service},1651995890,92
{consumergroup=adapter-service},1651995895,92
{consumergroup=adapter-service},1651995900,15001
{consumergroup=adapter-service},1651995905,15001
{consumergroup=adapter-service},1651995910,15001
{consumergroup=adapter-service},1651995915,14701
{consumergroup=adapter-service},1651995920,14701
{consumergroup=adapter-service},1651995925,14701
{consumergroup=adapter-service},1651995930,15123
{consumergroup=adapter-service},1651995935,15123
{consumergroup=adapter-service},1651995940,15123
{consumergroup=adapter-service},1651995945,13620
{consumergroup=adapter-service},1651995950,13620
{consumergroup=adapter-service},1651995955,13620
{consumergroup=adapter-service},1651995960,13548
{consumergroup=adapter-service},1651995965,13548
{consumergroup=adapter-service},1651995970,13548
{consumergroup=adapter-service},1651995975,14073
{consumergroup=adapter-service},1651995980,14073
{consumergroup=adapter-service},1651995985,14073
{consumergroup=adapter-service},1651995990,16190
{consumergroup=adapter-service},1651995995,16190
{consumergroup=adapter-service},1651996000,16190
{consumergroup=adapter-service},1651996005,12610
{consumergroup=adapter-service},1651996010,12610
{consumergroup=adapter-service},1651996015,12610
{consumergroup=adapter-service},1651996020,12100
{consumergroup=adapter-service},1651996025,12100
{consumergroup=adapter-service},1651996030,12100
{consumergroup=adapter-service},1651996035,11635
{consumergroup=adapter-service},1651996040,11635
{consumergroup=adapter-service},1651996045,11635
{consumergroup=adapter-service},1651996050,11361
{consumergroup=adapter-service},1651996055,11361
{consumergroup=adapter-service},1651996060,11361
{consumergroup=adapter-service},1651996065,11022
{consumergroup=adapter-service},1651996070,11022
{consumergroup=adapter-service},1651996075,11022
{consumergroup=adapter-service},1651996080,10892
{consumergroup=adapter-service},1651996085,10892
{consumergroup=adapter-service},1651996090,10892
{consumergroup=adapter-service},1651996095,11305
{consumergroup=adapter-service},1651996100,11305
{consumergroup=adapter-service},1651996105,11305
{consumergroup=adapter-service},1651996110,9914
{consumergroup=adapter-service},1651996115,9914
{consumergroup=adapter-service},1651996120,9914
{consumergroup=adapter-service},1651996125,9632
{consumergroup=adapter-service},1651996130,9632
{consumergroup=adapter-service},1651996135,9632
{consumergroup=adapter-service},1651996140,10364
{consumergroup=adapter-service},1651996145,10364
{consumergroup=adapter-service},1651996150,10364
{consumergroup=adapter-service},1651996155,10134
{consumergroup=adapter-service},1651996160,10134
{consumergroup=adapter-service},1651996165,10134
{consumergroup=adapter-service},1651996170,8745
{consumergroup=adapter-service},1651996175,8745
{consumergroup=adapter-service},1651996180,8745
{consumergroup=adapter-service},1651996185,8762
{consumergroup=adapter-service},1651996190,8762
{consumergroup=adapter-service},1651996195,8762
{consumergroup=adapter-service},1651996200,9149
{consumergroup=adapter-service},1651996205,9149
{consumergroup=adapter-service},1651996210,9149
{consumergroup=adapter-service},1651996215,8549
{consumergroup=adapter-service},1651996220,8549
{consumergroup=adapter-service},1651996225,8549
{consumergroup=adapter-service},1651996230,7356
{consumergroup=adapter-service},1651996235,7356
{consumergroup=adapter-service},1651996240,7356
{consumergroup=adapter-service},1651996245,7265
{consumergroup=adapter-service},1651996250,7265
{consumergroup=adapter-service},1651996255,7265
{consumergroup=adapter-service},1651996260,7057
{consumergroup=adapter-service},1651996265,7057
{consumergroup=adapter-service},1651996270,7057
{consumergroup=adapter-service},1651996275,7508
{consumergroup=adapter-service},1651996280,7508
{consumergroup=adapter-service},1651996285,7508
{consumergroup=adapter-service},1651996290,6157
{consumergroup=landscape-service},1651995885,348
{consumergroup=landscape-service},1651995890,348
{consumergroup=landscape-service},1651995895,348
{consumergroup=landscape-service},1651995900,11171
{consumergroup=landscape-service},1651995905,11171
{consumergroup=landscape-service},1651995910,11171
{consumergroup=landscape-service},1651995915,10159
{consumergroup=landscape-service},1651995920,10159
{consumergroup=landscape-service},1651995925,10159
{consumergroup=landscape-service},1651995930,10205
{consumergroup=landscape-service},1651995935,10205
{consumergroup=landscape-service},1651995940,10205
{consumergroup=landscape-service},1651995945,10694
{consumergroup=landscape-service},1651995950,10694
{consumergroup=landscape-service},1651995955,10694
{consumergroup=landscape-service},1651995960,10780
{consumergroup=landscape-service},1651995965,10780
{consumergroup=landscape-service},1651995970,10780
{consumergroup=landscape-service},1651995975,9379
{consumergroup=landscape-service},1651995980,9379
{consumergroup=landscape-service},1651995985,9379
{consumergroup=landscape-service},1651995990,13011
{consumergroup=landscape-service},1651995995,13011
{consumergroup=landscape-service},1651996000,13011
{consumergroup=landscape-service},1651996005,10438
{consumergroup=landscape-service},1651996010,10438
{consumergroup=landscape-service},1651996015,10438
{consumergroup=landscape-service},1651996020,9244
{consumergroup=landscape-service},1651996025,9244
{consumergroup=landscape-service},1651996030,9244
{consumergroup=landscape-service},1651996035,9947
{consumergroup=landscape-service},1651996040,9947
{consumergroup=landscape-service},1651996045,9947
{consumergroup=landscape-service},1651996050,10055
{consumergroup=landscape-service},1651996055,10055
{consumergroup=landscape-service},1651996060,10055
{consumergroup=landscape-service},1651996065,9108
{consumergroup=landscape-service},1651996070,9108
{consumergroup=landscape-service},1651996075,9108
{consumergroup=landscape-service},1651996080,9779
{consumergroup=landscape-service},1651996085,9779
{consumergroup=landscape-service},1651996090,9779
{consumergroup=landscape-service},1651996095,9472
{consumergroup=landscape-service},1651996100,9472
{consumergroup=landscape-service},1651996105,9472
{consumergroup=landscape-service},1651996110,8424
{consumergroup=landscape-service},1651996115,8424
{consumergroup=landscape-service},1651996120,8424
{consumergroup=landscape-service},1651996125,8377
{consumergroup=landscape-service},1651996130,8377
{consumergroup=landscape-service},1651996135,8377
{consumergroup=landscape-service},1651996140,8166
{consumergroup=landscape-service},1651996145,8166
{consumergroup=landscape-service},1651996150,8166
{consumergroup=landscape-service},1651996155,9202
{consumergroup=landscape-service},1651996160,9202
{consumergroup=landscape-service},1651996165,9202
{consumergroup=landscape-service},1651996170,8360
{consumergroup=landscape-service},1651996175,8360
{consumergroup=landscape-service},1651996180,8360
{consumergroup=landscape-service},1651996185,8769
{consumergroup=landscape-service},1651996190,8769
{consumergroup=landscape-service},1651996195,8769
{consumergroup=landscape-service},1651996200,7801
{consumergroup=landscape-service},1651996205,7801
{consumergroup=landscape-service},1651996210,7801
{consumergroup=landscape-service},1651996215,7238
{consumergroup=landscape-service},1651996220,7238
{consumergroup=landscape-service},1651996225,7238
{consumergroup=landscape-service},1651996230,7067
{consumergroup=landscape-service},1651996235,7067
{consumergroup=landscape-service},1651996240,7067
{consumergroup=landscape-service},1651996245,7850
{consumergroup=landscape-service},1651996250,7850
{consumergroup=landscape-service},1651996255,7850
{consumergroup=landscape-service},1651996260,8176
{consumergroup=landscape-service},1651996265,8176
{consumergroup=landscape-service},1651996270,8176
{consumergroup=landscape-service},1651996275,6624
{consumergroup=landscape-service},1651996280,6624
{consumergroup=landscape-service},1651996285,6624
{consumergroup=landscape-service},1651996290,7455
{consumergroup=landscape-token-events-consumer},1651995870,0
{consumergroup=landscape-token-events-consumer},1651995875,0
{consumergroup=landscape-token-events-consumer},1651995880,0
{consumergroup=landscape-token-events-consumer},1651995885,0
{consumergroup=landscape-token-events-consumer},1651995890,0
{consumergroup=landscape-token-events-consumer},1651995895,0
{consumergroup=landscape-token-events-consumer},1651995900,0
{consumergroup=landscape-token-events-consumer},1651995905,0
{consumergroup=landscape-token-events-consumer},1651995910,0
{consumergroup=landscape-token-events-consumer},1651995915,0
{consumergroup=landscape-token-events-consumer},1651995920,0
{consumergroup=landscape-token-events-consumer},1651995925,0
{consumergroup=landscape-token-events-consumer},1651995930,0
{consumergroup=landscape-token-events-consumer},1651995935,0
{consumergroup=landscape-token-events-consumer},1651995940,0
{consumergroup=landscape-token-events-consumer},1651995945,0
{consumergroup=landscape-token-events-consumer},1651995950,0
{consumergroup=landscape-token-events-consumer},1651995955,0
{consumergroup=landscape-token-events-consumer},1651995960,0
{consumergroup=landscape-token-events-consumer},1651995965,0
{consumergroup=landscape-token-events-consumer},1651995970,0
{consumergroup=landscape-token-events-consumer},1651995975,0
{consumergroup=landscape-token-events-consumer},1651995980,0
{consumergroup=landscape-token-events-consumer},1651995985,0
{consumergroup=landscape-token-events-consumer},1651995990,0
{consumergroup=landscape-token-events-consumer},1651995995,0
{consumergroup=landscape-token-events-consumer},1651996000,0
{consumergroup=landscape-token-events-consumer},1651996005,0
{consumergroup=landscape-token-events-consumer},1651996010,0
{consumergroup=landscape-token-events-consumer},1651996015,0
{consumergroup=landscape-token-events-consumer},1651996020,0
{consumergroup=landscape-token-events-consumer},1651996025,0
{consumergroup=landscape-token-events-consumer},1651996030,0
{consumergroup=landscape-token-events-consumer},1651996035,0
{consumergroup=landscape-token-events-consumer},1651996040,0
{consumergroup=landscape-token-events-consumer},1651996045,0
{consumergroup=landscape-token-events-consumer},1651996050,0
{consumergroup=landscape-token-events-consumer},1651996055,0
{consumergroup=landscape-token-events-consumer},1651996060,0
{consumergroup=landscape-token-events-consumer},1651996065,0
{consumergroup=landscape-token-events-consumer},1651996070,0
{consumergroup=landscape-token-events-consumer},1651996075,0
{consumergroup=landscape-token-events-consumer},1651996080,0
{consumergroup=landscape-token-events-consumer},1651996085,0
{consumergroup=landscape-token-events-consumer},1651996090,0
{consumergroup=landscape-token-events-consumer},1651996095,0
{consumergroup=landscape-token-events-consumer},1651996100,0
{consumergroup=landscape-token-events-consumer},1651996105,0
{consumergroup=landscape-token-events-consumer},1651996110,0
{consumergroup=landscape-token-events-consumer},1651996115,0
{consumergroup=landscape-token-events-consumer},1651996120,0
{consumergroup=landscape-token-events-consumer},1651996125,0
{consumergroup=landscape-token-events-consumer},1651996130,0
{consumergroup=landscape-token-events-consumer},1651996135,0
{consumergroup=landscape-token-events-consumer},1651996140,0
{consumergroup=landscape-token-events-consumer},1651996145,0
{consumergroup=landscape-token-events-consumer},1651996150,0
{consumergroup=landscape-token-events-consumer},1651996155,0
{consumergroup=landscape-token-events-consumer},1651996160,0
{consumergroup=landscape-token-events-consumer},1651996165,0
{consumergroup=landscape-token-events-consumer},1651996170,0
{consumergroup=landscape-token-events-consumer},1651996175,0
{consumergroup=landscape-token-events-consumer},1651996180,0
{consumergroup=landscape-token-events-consumer},1651996185,0
{consumergroup=landscape-token-events-consumer},1651996190,0
{consumergroup=landscape-token-events-consumer},1651996195,0
{consumergroup=landscape-token-events-consumer},1651996200,0
{consumergroup=landscape-token-events-consumer},1651996205,0
{consumergroup=landscape-token-events-consumer},1651996210,0
{consumergroup=landscape-token-events-consumer},1651996215,0
{consumergroup=landscape-token-events-consumer},1651996220,0
{consumergroup=landscape-token-events-consumer},1651996225,0
{consumergroup=landscape-token-events-consumer},1651996230,0
{consumergroup=landscape-token-events-consumer},1651996235,0
{consumergroup=landscape-token-events-consumer},1651996240,0
{consumergroup=landscape-token-events-consumer},1651996245,0
{consumergroup=landscape-token-events-consumer},1651996250,0
{consumergroup=landscape-token-events-consumer},1651996255,0
{consumergroup=landscape-token-events-consumer},1651996260,0
{consumergroup=landscape-token-events-consumer},1651996265,0
{consumergroup=landscape-token-events-consumer},1651996270,0
{consumergroup=landscape-token-events-consumer},1651996275,0
{consumergroup=landscape-token-events-consumer},1651996280,0
{consumergroup=landscape-token-events-consumer},1651996285,0
{consumergroup=landscape-token-events-consumer},1651996290,0
{consumergroup=trace-service},1651995885,24624
{consumergroup=trace-service},1651995890,24624
{consumergroup=trace-service},1651995895,24624
{consumergroup=trace-service},1651995900,27050
{consumergroup=trace-service},1651995905,27050
{consumergroup=trace-service},1651995910,27050
{consumergroup=trace-service},1651995915,76459
{consumergroup=trace-service},1651995920,76459
{consumergroup=trace-service},1651995925,76459
{consumergroup=trace-service},1651995930,80599
{consumergroup=trace-service},1651995935,80599
{consumergroup=trace-service},1651995940,80599
{consumergroup=trace-service},1651995945,63983
{consumergroup=trace-service},1651995950,63983
{consumergroup=trace-service},1651995955,63983
{consumergroup=trace-service},1651995960,26349
{consumergroup=trace-service},1651995965,26349
{consumergroup=trace-service},1651995970,26349
{consumergroup=trace-service},1651995975,61058
{consumergroup=trace-service},1651995980,61058
{consumergroup=trace-service},1651995985,61058
{consumergroup=trace-service},1651995990,24963
{consumergroup=trace-service},1651995995,24963
{consumergroup=trace-service},1651996000,24963
{consumergroup=trace-service},1651996005,58040
{consumergroup=trace-service},1651996010,58040
{consumergroup=trace-service},1651996015,58040
{consumergroup=trace-service},1651996020,139575
{consumergroup=trace-service},1651996025,139575
{consumergroup=trace-service},1651996030,139575
{consumergroup=trace-service},1651996035,68078
{consumergroup=trace-service},1651996040,68078
{consumergroup=trace-service},1651996045,68078
{consumergroup=trace-service},1651996050,24929
{consumergroup=trace-service},1651996055,24929
{consumergroup=trace-service},1651996060,24929
{consumergroup=trace-service},1651996065,58012
{consumergroup=trace-service},1651996070,58012
{consumergroup=trace-service},1651996075,58012
{consumergroup=trace-service},1651996080,22492
{consumergroup=trace-service},1651996085,22492
{consumergroup=trace-service},1651996090,22492
{consumergroup=trace-service},1651996095,56253
{consumergroup=trace-service},1651996100,56253
{consumergroup=trace-service},1651996105,56253
{consumergroup=trace-service},1651996110,29471
{consumergroup=trace-service},1651996115,29471
{consumergroup=trace-service},1651996120,29471
{consumergroup=trace-service},1651996125,60521
{consumergroup=trace-service},1651996130,60521
{consumergroup=trace-service},1651996135,60521
{consumergroup=trace-service},1651996140,34849
{consumergroup=trace-service},1651996145,34849
{consumergroup=trace-service},1651996150,34849
{consumergroup=trace-service},1651996155,60699
{consumergroup=trace-service},1651996160,60699
{consumergroup=trace-service},1651996165,60699
{consumergroup=trace-service},1651996170,109517
{consumergroup=trace-service},1651996175,109517
{consumergroup=trace-service},1651996180,109517
{consumergroup=trace-service},1651996185,58288
{consumergroup=trace-service},1651996190,58288
{consumergroup=trace-service},1651996195,58288
{consumergroup=trace-service},1651996200,26979
{consumergroup=trace-service},1651996205,26979
{consumergroup=trace-service},1651996210,26979
{consumergroup=trace-service},1651996215,70218
{consumergroup=trace-service},1651996220,70218
{consumergroup=trace-service},1651996225,70218
{consumergroup=trace-service},1651996230,25284
{consumergroup=trace-service},1651996235,25284
{consumergroup=trace-service},1651996240,25284
{consumergroup=trace-service},1651996245,56415
{consumergroup=trace-service},1651996250,56415
{consumergroup=trace-service},1651996255,56415
{consumergroup=trace-service},1651996260,25743
{consumergroup=trace-service},1651996265,25743
{consumergroup=trace-service},1651996270,25743
{consumergroup=trace-service},1651996275,64453
{consumergroup=trace-service},1651996280,64453
{consumergroup=trace-service},1651996285,64453
{consumergroup=trace-service},1651996290,27807
{consumergroup=trace-token-events-consumer},1651995870,0
{consumergroup=trace-token-events-consumer},1651995875,0
{consumergroup=trace-token-events-consumer},1651995880,0
{consumergroup=trace-token-events-consumer},1651995885,0
{consumergroup=trace-token-events-consumer},1651995890,0
{consumergroup=trace-token-events-consumer},1651995895,0
{consumergroup=trace-token-events-consumer},1651995900,0
{consumergroup=trace-token-events-consumer},1651995905,0
{consumergroup=trace-token-events-consumer},1651995910,0
{consumergroup=trace-token-events-consumer},1651995915,0
{consumergroup=trace-token-events-consumer},1651995920,0
{consumergroup=trace-token-events-consumer},1651995925,0
{consumergroup=trace-token-events-consumer},1651995930,0
{consumergroup=trace-token-events-consumer},1651995935,0
{consumergroup=trace-token-events-consumer},1651995940,0
{consumergroup=trace-token-events-consumer},1651995945,0
{consumergroup=trace-token-events-consumer},1651995950,0
{consumergroup=trace-token-events-consumer},1651995955,0
{consumergroup=trace-token-events-consumer},1651995960,0
{consumergroup=trace-token-events-consumer},1651995965,0
{consumergroup=trace-token-events-consumer},1651995970,0
{consumergroup=trace-token-events-consumer},1651995975,0
{consumergroup=trace-token-events-consumer},1651995980,0
{consumergroup=trace-token-events-consumer},1651995985,0
{consumergroup=trace-token-events-consumer},1651995990,0
{consumergroup=trace-token-events-consumer},1651995995,0
{consumergroup=trace-token-events-consumer},1651996000,0
{consumergroup=trace-token-events-consumer},1651996005,0
{consumergroup=trace-token-events-consumer},1651996010,0
{consumergroup=trace-token-events-consumer},1651996015,0
{consumergroup=trace-token-events-consumer},1651996020,0
{consumergroup=trace-token-events-consumer},1651996025,0
{consumergroup=trace-token-events-consumer},1651996030,0
{consumergroup=trace-token-events-consumer},1651996035,0
{consumergroup=trace-token-events-consumer},1651996040,0
{consumergroup=trace-token-events-consumer},1651996045,0
{consumergroup=trace-token-events-consumer},1651996050,0
{consumergroup=trace-token-events-consumer},1651996055,0
{consumergroup=trace-token-events-consumer},1651996060,0
{consumergroup=trace-token-events-consumer},1651996065,0
{consumergroup=trace-token-events-consumer},1651996070,0
{consumergroup=trace-token-events-consumer},1651996075,0
{consumergroup=trace-token-events-consumer},1651996080,0
{consumergroup=trace-token-events-consumer},1651996085,0
{consumergroup=trace-token-events-consumer},1651996090,0
{consumergroup=trace-token-events-consumer},1651996095,0
{consumergroup=trace-token-events-consumer},1651996100,0
{consumergroup=trace-token-events-consumer},1651996105,0
{consumergroup=trace-token-events-consumer},1651996110,0
{consumergroup=trace-token-events-consumer},1651996115,0
{consumergroup=trace-token-events-consumer},1651996120,0
{consumergroup=trace-token-events-consumer},1651996125,0
{consumergroup=trace-token-events-consumer},1651996130,0
{consumergroup=trace-token-events-consumer},1651996135,0
{consumergroup=trace-token-events-consumer},1651996140,0
{consumergroup=trace-token-events-consumer},1651996145,0
{consumergroup=trace-token-events-consumer},1651996150,0
{consumergroup=trace-token-events-consumer},1651996155,0
{consumergroup=trace-token-events-consumer},1651996160,0
{consumergroup=trace-token-events-consumer},1651996165,0
{consumergroup=trace-token-events-consumer},1651996170,0
{consumergroup=trace-token-events-consumer},1651996175,0
{consumergroup=trace-token-events-consumer},1651996180,0
{consumergroup=trace-token-events-consumer},1651996185,0
{consumergroup=trace-token-events-consumer},1651996190,0
{consumergroup=trace-token-events-consumer},1651996195,0
{consumergroup=trace-token-events-consumer},1651996200,0
{consumergroup=trace-token-events-consumer},1651996205,0
{consumergroup=trace-token-events-consumer},1651996210,0
{consumergroup=trace-token-events-consumer},1651996215,0
{consumergroup=trace-token-events-consumer},1651996220,0
{consumergroup=trace-token-events-consumer},1651996225,0
{consumergroup=trace-token-events-consumer},1651996230,0
{consumergroup=trace-token-events-consumer},1651996235,0
{consumergroup=trace-token-events-consumer},1651996240,0
{consumergroup=trace-token-events-consumer},1651996245,0
{consumergroup=trace-token-events-consumer},1651996250,0
{consumergroup=trace-token-events-consumer},1651996255,0
{consumergroup=trace-token-events-consumer},1651996260,0
{consumergroup=trace-token-events-consumer},1651996265,0
{consumergroup=trace-token-events-consumer},1651996270,0
{consumergroup=trace-token-events-consumer},1651996275,0
{consumergroup=trace-token-events-consumer},1651996280,0
{consumergroup=trace-token-events-consumer},1651996285,0
{consumergroup=trace-token-events-consumer},1651996290,0
