labels,timestamp,value
{consumergroup=__strimzi-topic-operator-kstreams},1652348401,3
{consumergroup=__strimzi-topic-operator-kstreams},1652348406,3
{consumergroup=__strimzi-topic-operator-kstreams},1652348411,3
{consumergroup=__strimzi-topic-operator-kstreams},1652348416,3
{consumergroup=__strimzi-topic-operator-kstreams},1652348421,3
{consumergroup=__strimzi-topic-operator-kstreams},1652348426,3
{consumergroup=__strimzi-topic-operator-kstreams},1652348431,0
{consumergroup=__strimzi-topic-operator-kstreams},1652348436,0
{consumergroup=__strimzi-topic-operator-kstreams},1652348441,0
{consumergroup=__strimzi-topic-operator-kstreams},1652348446,0
{consumergroup=__strimzi-topic-operator-kstreams},1652348451,0
{consumergroup=__strimzi-topic-operator-kstreams},1652348456,0
{consumergroup=__strimzi-topic-operator-kstreams},1652348461,0
{consumergroup=__strimzi-topic-operator-kstreams},1652348466,0
{consumergroup=__strimzi-topic-operator-kstreams},1652348471,0
{consumergroup=__strimzi-topic-operator-kstreams},1652348476,0
{consumergroup=__strimzi-topic-operator-kstreams},1652348481,0
{consumergroup=__strimzi-topic-operator-kstreams},1652348486,0
{consumergroup=__strimzi-topic-operator-kstreams},1652348491,0
{consumergroup=__strimzi-topic-operator-kstreams},1652348496,0
{consumergroup=__strimzi-topic-operator-kstreams},1652348501,0
{consumergroup=__strimzi-topic-operator-kstreams},1652348506,0
{consumergroup=__strimzi-topic-operator-kstreams},1652348511,0
{consumergroup=__strimzi-topic-operator-kstreams},1652348516,0
{consumergroup=__strimzi-topic-operator-kstreams},1652348521,0
{consumergroup=__strimzi-topic-operator-kstreams},1652348526,0
{consumergroup=__strimzi-topic-operator-kstreams},1652348531,0
{consumergroup=__strimzi-topic-operator-kstreams},1652348536,0
{consumergroup=__strimzi-topic-operator-kstreams},1652348541,0
{consumergroup=__strimzi-topic-operator-kstreams},1652348546,0
{consumergroup=__strimzi-topic-operator-kstreams},1652348551,2
{consumergroup=__strimzi-topic-operator-kstreams},1652348556,2
{consumergroup=__strimzi-topic-operator-kstreams},1652348561,2
{consumergroup=__strimzi-topic-operator-kstreams},1652348566,2
{consumergroup=__strimzi-topic-operator-kstreams},1652348571,2
{consumergroup=__strimzi-topic-operator-kstreams},1652348576,2
{consumergroup=__strimzi-topic-operator-kstreams},1652348581,0
{consumergroup=__strimzi-topic-operator-kstreams},1652348586,0
{consumergroup=__strimzi-topic-operator-kstreams},1652348591,0
{consumergroup=__strimzi-topic-operator-kstreams},1652348596,0
{consumergroup=__strimzi-topic-operator-kstreams},1652348601,0
{consumergroup=__strimzi-topic-operator-kstreams},1652348606,0
{consumergroup=__strimzi-topic-operator-kstreams},1652348611,0
{consumergroup=__strimzi-topic-operator-kstreams},1652348616,0
{consumergroup=__strimzi-topic-operator-kstreams},1652348621,0
{consumergroup=__strimzi-topic-operator-kstreams},1652348626,0
{consumergroup=__strimzi-topic-operator-kstreams},1652348631,0
{consumergroup=__strimzi-topic-operator-kstreams},1652348636,0
{consumergroup=__strimzi-topic-operator-kstreams},1652348641,0
{consumergroup=__strimzi-topic-operator-kstreams},1652348646,0
{consumergroup=__strimzi-topic-operator-kstreams},1652348651,0
{consumergroup=__strimzi-topic-operator-kstreams},1652348656,0
{consumergroup=__strimzi-topic-operator-kstreams},1652348661,0
{consumergroup=__strimzi-topic-operator-kstreams},1652348666,0
{consumergroup=__strimzi-topic-operator-kstreams},1652348671,0
{consumergroup=__strimzi-topic-operator-kstreams},1652348676,0
{consumergroup=__strimzi-topic-operator-kstreams},1652348681,0
{consumergroup=__strimzi-topic-operator-kstreams},1652348686,0
{consumergroup=__strimzi-topic-operator-kstreams},1652348691,0
{consumergroup=__strimzi-topic-operator-kstreams},1652348696,0
{consumergroup=__strimzi-topic-operator-kstreams},1652348701,0
{consumergroup=__strimzi-topic-operator-kstreams},1652348706,0
{consumergroup=__strimzi-topic-operator-kstreams},1652348711,0
{consumergroup=__strimzi-topic-operator-kstreams},1652348716,0
{consumergroup=__strimzi-topic-operator-kstreams},1652348721,0
{consumergroup=__strimzi-topic-operator-kstreams},1652348726,0
{consumergroup=__strimzi-topic-operator-kstreams},1652348731,0
{consumergroup=__strimzi-topic-operator-kstreams},1652348736,0
{consumergroup=__strimzi-topic-operator-kstreams},1652348741,0
{consumergroup=__strimzi-topic-operator-kstreams},1652348746,0
{consumergroup=__strimzi-topic-operator-kstreams},1652348751,0
{consumergroup=__strimzi-topic-operator-kstreams},1652348756,0
{consumergroup=__strimzi-topic-operator-kstreams},1652348761,0
{consumergroup=__strimzi-topic-operator-kstreams},1652348766,0
{consumergroup=__strimzi-topic-operator-kstreams},1652348771,0
{consumergroup=__strimzi-topic-operator-kstreams},1652348776,0
{consumergroup=__strimzi-topic-operator-kstreams},1652348781,0
{consumergroup=__strimzi-topic-operator-kstreams},1652348786,0
{consumergroup=__strimzi-topic-operator-kstreams},1652348791,0
{consumergroup=__strimzi-topic-operator-kstreams},1652348796,0
{consumergroup=__strimzi-topic-operator-kstreams},1652348801,0
{consumergroup=__strimzi-topic-operator-kstreams},1652348806,0
{consumergroup=__strimzi-topic-operator-kstreams},1652348811,0
{consumergroup=__strimzi-topic-operator-kstreams},1652348816,0
{consumergroup=__strimzi-topic-operator-kstreams},1652348821,0
{consumergroup=__strimzi-topic-operator-kstreams},1652348826,0
{consumergroup=__strimzi-topic-operator-kstreams},1652348831,0
{consumergroup=__strimzi-topic-operator-kstreams},1652348836,0
{consumergroup=__strimzi-topic-operator-kstreams},1652348841,0
{consumergroup=adapter-service},1652348671,1463
{consumergroup=adapter-service},1652348676,1463
{consumergroup=adapter-service},1652348681,1463
{consumergroup=adapter-service},1652348686,2754
{consumergroup=adapter-service},1652348691,2754
{consumergroup=adapter-service},1652348696,2754
{consumergroup=adapter-service},1652348701,3020
{consumergroup=adapter-service},1652348706,3020
{consumergroup=adapter-service},1652348711,3020
{consumergroup=adapter-service},1652348716,4724
{consumergroup=adapter-service},1652348721,4724
{consumergroup=adapter-service},1652348726,4724
{consumergroup=adapter-service},1652348731,5440
{consumergroup=adapter-service},1652348736,5440
{consumergroup=adapter-service},1652348741,5440
{consumergroup=adapter-service},1652348746,6253
{consumergroup=adapter-service},1652348751,6253
{consumergroup=adapter-service},1652348756,6253
{consumergroup=adapter-service},1652348761,7000
{consumergroup=adapter-service},1652348766,7000
{consumergroup=adapter-service},1652348771,7000
{consumergroup=adapter-service},1652348776,17428
{consumergroup=adapter-service},1652348781,17428
{consumergroup=adapter-service},1652348786,17428
{consumergroup=adapter-service},1652348791,23446
{consumergroup=adapter-service},1652348796,23446
{consumergroup=adapter-service},1652348801,23446
{consumergroup=adapter-service},1652348806,25686
{consumergroup=adapter-service},1652348811,25686
{consumergroup=adapter-service},1652348816,25686
{consumergroup=adapter-service},1652348821,27767
{consumergroup=adapter-service},1652348826,27767
{consumergroup=adapter-service},1652348831,27767
{consumergroup=adapter-service},1652348836,30161
{consumergroup=adapter-service},1652348841,30161
{consumergroup=trace-service},1652348716,1
{consumergroup=trace-service},1652348721,1
{consumergroup=trace-service},1652348726,1
{consumergroup=trace-service},1652348731,141
{consumergroup=trace-service},1652348736,141
{consumergroup=trace-service},1652348741,141
{consumergroup=trace-service},1652348746,798
{consumergroup=trace-service},1652348751,798
{consumergroup=trace-service},1652348756,798
{consumergroup=trace-service},1652348761,2428
{consumergroup=trace-service},1652348766,2428
{consumergroup=trace-service},1652348771,2428
{consumergroup=trace-service},1652348776,4961
{consumergroup=trace-service},1652348781,4961
{consumergroup=trace-service},1652348786,4961
{consumergroup=trace-service},1652348791,6551
{consumergroup=trace-service},1652348796,6551
{consumergroup=trace-service},1652348801,6551
{consumergroup=trace-service},1652348806,8436
{consumergroup=trace-service},1652348811,8436
{consumergroup=trace-service},1652348816,8436
{consumergroup=trace-service},1652348821,11872
{consumergroup=trace-service},1652348826,11872
{consumergroup=trace-service},1652348831,11872
{consumergroup=trace-service},1652348836,14775
{consumergroup=trace-service},1652348841,14775
