labels,timestamp,value
{job=theodolite-stu200776/combined-trace-podmonitor},1651989814,2.223780496842292
{job=theodolite-stu200776/combined-trace-podmonitor},1651989819,8.381116306274519
{job=theodolite-stu200776/combined-trace-podmonitor},1651989824,12.671276211376048
{job=theodolite-stu200776/combined-trace-podmonitor},1651989829,11.275253302230674
{job=theodolite-stu200776/combined-trace-podmonitor},1651989834,9.940356266530564
{job=theodolite-stu200776/combined-trace-podmonitor},1651989839,9.05929657583013
{job=theodolite-stu200776/combined-trace-podmonitor},1651989844,7.020250852126993
{job=theodolite-stu200776/combined-trace-podmonitor},1651989849,3.139997642540584
{job=theodolite-stu200776/combined-trace-podmonitor},1651989854,0
{job=theodolite-stu200776/combined-trace-podmonitor},1651989859,0
{job=theodolite-stu200776/combined-trace-podmonitor},1651989864,0
{job=theodolite-stu200776/combined-trace-podmonitor},1651989869,0
{job=theodolite-stu200776/combined-trace-podmonitor},1651989874,0
{job=theodolite-stu200776/combined-trace-podmonitor},1651989879,0
{job=theodolite-stu200776/combined-trace-podmonitor},1651989884,0
{job=theodolite-stu200776/combined-trace-podmonitor},1651989889,0
{job=theodolite-stu200776/combined-trace-podmonitor},1651989894,0
{job=theodolite-stu200776/combined-trace-podmonitor},1651989899,0
{job=theodolite-stu200776/combined-trace-podmonitor},1651989904,0
{job=theodolite-stu200776/combined-trace-podmonitor},1651989909,0
{job=theodolite-stu200776/combined-trace-podmonitor},1651989914,0
{job=theodolite-stu200776/combined-trace-podmonitor},1651989919,0
{job=theodolite-stu200776/combined-trace-podmonitor},1651989924,0
{job=theodolite-stu200776/combined-trace-podmonitor},1651989929,0
{job=theodolite-stu200776/combined-trace-podmonitor},1651989934,0
{job=theodolite-stu200776/combined-trace-podmonitor},1651989939,0
{job=theodolite-stu200776/combined-trace-podmonitor},1651989944,0
{job=theodolite-stu200776/combined-trace-podmonitor},1651989949,0
{job=theodolite-stu200776/combined-trace-podmonitor},1651989954,0
{job=theodolite-stu200776/combined-trace-podmonitor},1651989959,0
{job=theodolite-stu200776/combined-trace-podmonitor},1651989964,0
{job=theodolite-stu200776/combined-trace-podmonitor},1651989969,0
{job=theodolite-stu200776/combined-trace-podmonitor},1651989974,0
{job=theodolite-stu200776/combined-trace-podmonitor},1651989979,0
{job=theodolite-stu200776/combined-trace-podmonitor},1651989984,0
{job=theodolite-stu200776/combined-trace-podmonitor},1651989989,0
{job=theodolite-stu200776/combined-trace-podmonitor},1651989994,0
{job=theodolite-stu200776/combined-trace-podmonitor},1651989999,0
{job=theodolite-stu200776/combined-trace-podmonitor},1651990004,0
{job=theodolite-stu200776/combined-trace-podmonitor},1651990009,0
{job=theodolite-stu200776/combined-trace-podmonitor},1651990014,0
{job=theodolite-stu200776/combined-trace-podmonitor},1651990019,0
{job=theodolite-stu200776/combined-trace-podmonitor},1651990024,0
{job=theodolite-stu200776/combined-trace-podmonitor},1651990029,0
{job=theodolite-stu200776/combined-trace-podmonitor},1651990034,0
{job=theodolite-stu200776/combined-trace-podmonitor},1651990039,0
{job=theodolite-stu200776/combined-trace-podmonitor},1651990044,0
{job=theodolite-stu200776/combined-trace-podmonitor},1651990049,0
{job=theodolite-stu200776/combined-trace-podmonitor},1651990054,0
{job=theodolite-stu200776/combined-trace-podmonitor},1651990059,0
{job=theodolite-stu200776/combined-trace-podmonitor},1651990064,0
{job=theodolite-stu200776/combined-trace-podmonitor},1651990069,0
{job=theodolite-stu200776/combined-trace-podmonitor},1651990074,0
{job=theodolite-stu200776/combined-trace-podmonitor},1651990079,0
{job=theodolite-stu200776/combined-trace-podmonitor},1651990084,0
{job=theodolite-stu200776/combined-trace-podmonitor},1651990089,0
{job=theodolite-stu200776/combined-trace-podmonitor},1651990094,0
{job=theodolite-stu200776/combined-trace-podmonitor},1651990099,0
{job=theodolite-stu200776/combined-trace-podmonitor},1651990104,0
{job=theodolite-stu200776/combined-trace-podmonitor},1651990109,0
{job=theodolite-stu200776/combined-trace-podmonitor},1651990114,0
{job=theodolite-stu200776/combined-trace-podmonitor},1651990119,0
{job=theodolite-stu200776/combined-trace-podmonitor},1651990124,0
{job=theodolite-stu200776/combined-trace-podmonitor},1651990129,0
{job=theodolite-stu200776/combined-trace-podmonitor},1651990134,0
{job=theodolite-stu200776/combined-trace-podmonitor},1651990139,0
{job=theodolite-stu200776/combined-trace-podmonitor},1651990144,0
{job=theodolite-stu200776/combined-trace-podmonitor},1651990149,0
{job=theodolite-stu200776/combined-trace-podmonitor},1651990154,0
{job=theodolite-stu200776/combined-trace-podmonitor},1651990159,0
{job=theodolite-stu200776/combined-trace-podmonitor},1651990164,0
{job=theodolite-stu200776/combined-trace-podmonitor},1651990169,0
{job=theodolite-stu200776/combined-trace-podmonitor},1651990174,0
{job=theodolite-stu200776/combined-trace-podmonitor},1651990179,0
{job=theodolite-stu200776/combined-trace-podmonitor},1651990184,0
{job=theodolite-stu200776/combined-trace-podmonitor},1651990189,0
