labels,timestamp,value
{consumergroup=__strimzi-topic-operator-kstreams},1651884530,10
{consumergroup=__strimzi-topic-operator-kstreams},1651884535,10
{consumergroup=__strimzi-topic-operator-kstreams},1651884540,10
{consumergroup=__strimzi-topic-operator-kstreams},1651884545,10
{consumergroup=__strimzi-topic-operator-kstreams},1651884550,10
{consumergroup=__strimzi-topic-operator-kstreams},1651884555,10
{consumergroup=__strimzi-topic-operator-kstreams},1651884560,0
{consumergroup=__strimzi-topic-operator-kstreams},1651884565,0
{consumergroup=__strimzi-topic-operator-kstreams},1651884570,0
{consumergroup=__strimzi-topic-operator-kstreams},1651884575,0
{consumergroup=__strimzi-topic-operator-kstreams},1651884580,0
{consumergroup=__strimzi-topic-operator-kstreams},1651884585,0
{consumergroup=__strimzi-topic-operator-kstreams},1651884590,0
{consumergroup=__strimzi-topic-operator-kstreams},1651884595,0
{consumergroup=__strimzi-topic-operator-kstreams},1651884600,0
{consumergroup=__strimzi-topic-operator-kstreams},1651884605,0
{consumergroup=__strimzi-topic-operator-kstreams},1651884610,0
{consumergroup=__strimzi-topic-operator-kstreams},1651884615,0
{consumergroup=__strimzi-topic-operator-kstreams},1651884620,0
{consumergroup=__strimzi-topic-operator-kstreams},1651884625,0
{consumergroup=__strimzi-topic-operator-kstreams},1651884630,0
{consumergroup=__strimzi-topic-operator-kstreams},1651884635,0
{consumergroup=__strimzi-topic-operator-kstreams},1651884640,0
{consumergroup=__strimzi-topic-operator-kstreams},1651884645,0
{consumergroup=__strimzi-topic-operator-kstreams},1651884650,0
{consumergroup=__strimzi-topic-operator-kstreams},1651884655,0
{consumergroup=__strimzi-topic-operator-kstreams},1651884660,0
{consumergroup=__strimzi-topic-operator-kstreams},1651884665,0
{consumergroup=__strimzi-topic-operator-kstreams},1651884670,0
{consumergroup=__strimzi-topic-operator-kstreams},1651884675,0
{consumergroup=__strimzi-topic-operator-kstreams},1651884680,0
{consumergroup=__strimzi-topic-operator-kstreams},1651884685,0
{consumergroup=__strimzi-topic-operator-kstreams},1651884690,0
{consumergroup=__strimzi-topic-operator-kstreams},1651884695,0
{consumergroup=__strimzi-topic-operator-kstreams},1651884700,0
{consumergroup=__strimzi-topic-operator-kstreams},1651884705,0
{consumergroup=__strimzi-topic-operator-kstreams},1651884710,0
{consumergroup=__strimzi-topic-operator-kstreams},1651884715,0
{consumergroup=__strimzi-topic-operator-kstreams},1651884720,0
{consumergroup=__strimzi-topic-operator-kstreams},1651884725,0
{consumergroup=__strimzi-topic-operator-kstreams},1651884730,0
{consumergroup=__strimzi-topic-operator-kstreams},1651884735,0
{consumergroup=__strimzi-topic-operator-kstreams},1651884740,0
{consumergroup=__strimzi-topic-operator-kstreams},1651884745,0
{consumergroup=__strimzi-topic-operator-kstreams},1651884750,0
{consumergroup=__strimzi-topic-operator-kstreams},1651884755,0
{consumergroup=__strimzi-topic-operator-kstreams},1651884760,0
{consumergroup=__strimzi-topic-operator-kstreams},1651884765,0
{consumergroup=__strimzi-topic-operator-kstreams},1651884770,0
{consumergroup=__strimzi-topic-operator-kstreams},1651884775,0
{consumergroup=__strimzi-topic-operator-kstreams},1651884780,0
{consumergroup=adapter-service},1651884560,148553
{consumergroup=adapter-service},1651884565,148553
{consumergroup=adapter-service},1651884570,148553
{consumergroup=adapter-service},1651884575,351125
{consumergroup=adapter-service},1651884580,351125
{consumergroup=adapter-service},1651884585,351125
{consumergroup=adapter-service},1651884590,536079
{consumergroup=adapter-service},1651884595,536079
{consumergroup=adapter-service},1651884600,536079
{consumergroup=adapter-service},1651884605,675101
{consumergroup=adapter-service},1651884610,675101
{consumergroup=adapter-service},1651884615,675101
{consumergroup=adapter-service},1651884620,817295
{consumergroup=adapter-service},1651884625,817295
{consumergroup=adapter-service},1651884630,817295
{consumergroup=adapter-service},1651884635,937907
{consumergroup=adapter-service},1651884640,937907
{consumergroup=adapter-service},1651884645,937907
{consumergroup=adapter-service},1651884650,1028637
{consumergroup=adapter-service},1651884655,1028637
{consumergroup=adapter-service},1651884660,1028637
{consumergroup=adapter-service},1651884665,1056683
{consumergroup=adapter-service},1651884670,1056683
{consumergroup=adapter-service},1651884675,1056683
{consumergroup=adapter-service},1651884680,1083018
{consumergroup=adapter-service},1651884685,1083018
{consumergroup=adapter-service},1651884690,1083018
{consumergroup=adapter-service},1651884695,1106341
{consumergroup=adapter-service},1651884700,1106341
{consumergroup=adapter-service},1651884705,1106341
{consumergroup=adapter-service},1651884710,1111247
{consumergroup=adapter-service},1651884715,1111247
{consumergroup=adapter-service},1651884720,1111247
{consumergroup=adapter-service},1651884725,1145938
{consumergroup=adapter-service},1651884730,1145938
{consumergroup=adapter-service},1651884735,1145938
{consumergroup=adapter-service},1651884740,1145738
{consumergroup=adapter-service},1651884745,1145738
{consumergroup=adapter-service},1651884750,1145738
{consumergroup=adapter-service},1651884755,1155975
{consumergroup=adapter-service},1651884760,1155975
{consumergroup=adapter-service},1651884765,1155975
{consumergroup=adapter-service},1651884770,1167428
{consumergroup=adapter-service},1651884775,1167428
{consumergroup=adapter-service},1651884780,1167428
