labels,timestamp,value
{job=theodolite-stu200776/combined-trace-podmonitor},1651963925,0
{job=theodolite-stu200776/combined-trace-podmonitor},1651963930,0
{job=theodolite-stu200776/combined-trace-podmonitor},1651963935,0
{job=theodolite-stu200776/combined-trace-podmonitor},1651963940,0
{job=theodolite-stu200776/combined-trace-podmonitor},1651963945,0
{job=theodolite-stu200776/combined-trace-podmonitor},1651963950,0
{job=theodolite-stu200776/combined-trace-podmonitor},1651963955,0
{job=theodolite-stu200776/combined-trace-podmonitor},1651963960,0
{job=theodolite-stu200776/combined-trace-podmonitor},1651963965,0
{job=theodolite-stu200776/combined-trace-podmonitor},1651963970,0
{job=theodolite-stu200776/combined-trace-podmonitor},1651963975,0
{job=theodolite-stu200776/combined-trace-podmonitor},1651963980,0
{job=theodolite-stu200776/combined-trace-podmonitor},1651963985,0
{job=theodolite-stu200776/combined-trace-podmonitor},1651963990,0
{job=theodolite-stu200776/combined-trace-podmonitor},1651963995,0
{job=theodolite-stu200776/combined-trace-podmonitor},1651964000,0
{job=theodolite-stu200776/combined-trace-podmonitor},1651964005,0
{job=theodolite-stu200776/combined-trace-podmonitor},1651964010,0
{job=theodolite-stu200776/combined-trace-podmonitor},1651964015,0
{job=theodolite-stu200776/combined-trace-podmonitor},1651964020,0
{job=theodolite-stu200776/combined-trace-podmonitor},1651964025,0
{job=theodolite-stu200776/combined-trace-podmonitor},1651964030,0
{job=theodolite-stu200776/combined-trace-podmonitor},1651964035,0
{job=theodolite-stu200776/combined-trace-podmonitor},1651964040,0
{job=theodolite-stu200776/combined-trace-podmonitor},1651964045,18.311784243742732
{job=theodolite-stu200776/combined-trace-podmonitor},1651964050,61.731722599993006
{job=theodolite-stu200776/combined-trace-podmonitor},1651964055,66.10865167310801
{job=theodolite-stu200776/combined-trace-podmonitor},1651964060,64.45676444131875
{job=theodolite-stu200776/combined-trace-podmonitor},1651964065,59.975322495878025
{job=theodolite-stu200776/combined-trace-podmonitor},1651964070,52.50693967770397
{job=theodolite-stu200776/combined-trace-podmonitor},1651964075,58.47644044064766
{job=theodolite-stu200776/combined-trace-podmonitor},1651964080,77.57204435076414
{job=theodolite-stu200776/combined-trace-podmonitor},1651964085,76.08467164605582
{job=theodolite-stu200776/combined-trace-podmonitor},1651964090,64.45564916589392
{job=theodolite-stu200776/combined-trace-podmonitor},1651964095,59.973803417108236
{job=theodolite-stu200776/combined-trace-podmonitor},1651964100,52.507902431308
{job=theodolite-stu200776/combined-trace-podmonitor},1651964105,115.16754798075887
{job=theodolite-stu200776/combined-trace-podmonitor},1651964110,258.9014368665221
{job=theodolite-stu200776/combined-trace-podmonitor},1651964115,270.15598509115813
{job=theodolite-stu200776/combined-trace-podmonitor},1651964120,255.2416483165608
{job=theodolite-stu200776/combined-trace-podmonitor},1651964125,238.1946860444678
{job=theodolite-stu200776/combined-trace-podmonitor},1651964130,209.91953706021516
{job=theodolite-stu200776/combined-trace-podmonitor},1651964135,237.1479393571949
{job=theodolite-stu200776/combined-trace-podmonitor},1651964140,312.4667806026516
{job=theodolite-stu200776/combined-trace-podmonitor},1651964145,303.78723665681196
{job=theodolite-stu200776/combined-trace-podmonitor},1651964150,257.9027636860034
{job=theodolite-stu200776/combined-trace-podmonitor},1651964155,239.3423185078068
{job=theodolite-stu200776/combined-trace-podmonitor},1651964160,209.9090159180246
{job=theodolite-stu200776/combined-trace-podmonitor},1651964165,156.58805075804318
{job=theodolite-stu200776/combined-trace-podmonitor},1651964170,21.742233195822656
{job=theodolite-stu200776/combined-trace-podmonitor},1651964175,0
{job=theodolite-stu200776/combined-trace-podmonitor},1651964180,0
{job=theodolite-stu200776/combined-trace-podmonitor},1651964185,0
{job=theodolite-stu200776/combined-trace-podmonitor},1651964190,0
{job=theodolite-stu200776/combined-trace-podmonitor},1651964195,0
{job=theodolite-stu200776/combined-trace-podmonitor},1651964200,0
{job=theodolite-stu200776/combined-trace-podmonitor},1651964205,0
{job=theodolite-stu200776/combined-trace-podmonitor},1651964210,0
{job=theodolite-stu200776/combined-trace-podmonitor},1651964215,0
{job=theodolite-stu200776/combined-trace-podmonitor},1651964220,0
{job=theodolite-stu200776/combined-trace-podmonitor},1651964225,0
{job=theodolite-stu200776/combined-trace-podmonitor},1651964230,0
{job=theodolite-stu200776/combined-trace-podmonitor},1651964235,0
{job=theodolite-stu200776/combined-trace-podmonitor},1651964240,0
{job=theodolite-stu200776/combined-trace-podmonitor},1651964245,0
{job=theodolite-stu200776/combined-trace-podmonitor},1651964250,0
{job=theodolite-stu200776/combined-trace-podmonitor},1651964255,0
{job=theodolite-stu200776/combined-trace-podmonitor},1651964260,0
{job=theodolite-stu200776/combined-trace-podmonitor},1651964265,0
{job=theodolite-stu200776/combined-trace-podmonitor},1651964270,0
{job=theodolite-stu200776/combined-trace-podmonitor},1651964275,0
{job=theodolite-stu200776/combined-trace-podmonitor},1651964280,0
{job=theodolite-stu200776/combined-trace-podmonitor},1651964285,0
{job=theodolite-stu200776/combined-trace-podmonitor},1651964290,0
{job=theodolite-stu200776/combined-trace-podmonitor},1651964295,0
{job=theodolite-stu200776/combined-trace-podmonitor},1651964300,0
{job=theodolite-stu200776/combined-trace-podmonitor},1651964305,0
