labels,timestamp,value
{consumergroup=__strimzi-topic-operator-kstreams},1652273553,3
{consumergroup=__strimzi-topic-operator-kstreams},1652273558,3
{consumergroup=__strimzi-topic-operator-kstreams},1652273563,3
{consumergroup=__strimzi-topic-operator-kstreams},1652273568,0
{consumergroup=__strimzi-topic-operator-kstreams},1652273573,0
{consumergroup=__strimzi-topic-operator-kstreams},1652273578,0
{consumergroup=__strimzi-topic-operator-kstreams},1652273583,0
{consumergroup=__strimzi-topic-operator-kstreams},1652273588,0
{consumergroup=__strimzi-topic-operator-kstreams},1652273593,0
{consumergroup=__strimzi-topic-operator-kstreams},1652273598,0
{consumergroup=__strimzi-topic-operator-kstreams},1652273603,0
{consumergroup=__strimzi-topic-operator-kstreams},1652273608,0
{consumergroup=__strimzi-topic-operator-kstreams},1652273613,0
{consumergroup=__strimzi-topic-operator-kstreams},1652273618,0
{consumergroup=__strimzi-topic-operator-kstreams},1652273623,0
{consumergroup=__strimzi-topic-operator-kstreams},1652273628,0
{consumergroup=__strimzi-topic-operator-kstreams},1652273633,0
{consumergroup=__strimzi-topic-operator-kstreams},1652273638,0
{consumergroup=__strimzi-topic-operator-kstreams},1652273643,0
{consumergroup=__strimzi-topic-operator-kstreams},1652273648,0
{consumergroup=__strimzi-topic-operator-kstreams},1652273653,0
{consumergroup=__strimzi-topic-operator-kstreams},1652273658,0
{consumergroup=__strimzi-topic-operator-kstreams},1652273663,0
{consumergroup=__strimzi-topic-operator-kstreams},1652273668,0
{consumergroup=__strimzi-topic-operator-kstreams},1652273673,0
{consumergroup=__strimzi-topic-operator-kstreams},1652273678,0
{consumergroup=__strimzi-topic-operator-kstreams},1652273683,0
{consumergroup=__strimzi-topic-operator-kstreams},1652273688,0
{consumergroup=__strimzi-topic-operator-kstreams},1652273693,0
{consumergroup=__strimzi-topic-operator-kstreams},1652273698,0
{consumergroup=__strimzi-topic-operator-kstreams},1652273703,0
{consumergroup=__strimzi-topic-operator-kstreams},1652273708,0
{consumergroup=__strimzi-topic-operator-kstreams},1652273713,0
{consumergroup=__strimzi-topic-operator-kstreams},1652273718,0
{consumergroup=__strimzi-topic-operator-kstreams},1652273723,0
{consumergroup=__strimzi-topic-operator-kstreams},1652273728,0
{consumergroup=__strimzi-topic-operator-kstreams},1652273733,0
{consumergroup=__strimzi-topic-operator-kstreams},1652273738,0
{consumergroup=__strimzi-topic-operator-kstreams},1652273743,0
{consumergroup=__strimzi-topic-operator-kstreams},1652273748,0
{consumergroup=__strimzi-topic-operator-kstreams},1652273753,0
{consumergroup=__strimzi-topic-operator-kstreams},1652273758,0
{consumergroup=__strimzi-topic-operator-kstreams},1652273763,0
{consumergroup=__strimzi-topic-operator-kstreams},1652273768,0
{consumergroup=__strimzi-topic-operator-kstreams},1652273773,0
{consumergroup=__strimzi-topic-operator-kstreams},1652273778,0
{consumergroup=__strimzi-topic-operator-kstreams},1652273783,0
{consumergroup=__strimzi-topic-operator-kstreams},1652273788,0
{consumergroup=__strimzi-topic-operator-kstreams},1652273793,0
{consumergroup=__strimzi-topic-operator-kstreams},1652273798,0
{consumergroup=__strimzi-topic-operator-kstreams},1652273803,0
{consumergroup=__strimzi-topic-operator-kstreams},1652273808,0
{consumergroup=__strimzi-topic-operator-kstreams},1652273813,0
{consumergroup=__strimzi-topic-operator-kstreams},1652273818,0
{consumergroup=__strimzi-topic-operator-kstreams},1652273823,0
{consumergroup=__strimzi-topic-operator-kstreams},1652273828,0
{consumergroup=__strimzi-topic-operator-kstreams},1652273833,0
{consumergroup=__strimzi-topic-operator-kstreams},1652273838,0
{consumergroup=__strimzi-topic-operator-kstreams},1652273843,0
{consumergroup=__strimzi-topic-operator-kstreams},1652273848,0
{consumergroup=__strimzi-topic-operator-kstreams},1652273853,0
{consumergroup=__strimzi-topic-operator-kstreams},1652273858,0
{consumergroup=__strimzi-topic-operator-kstreams},1652273863,0
{consumergroup=__strimzi-topic-operator-kstreams},1652273868,1
{consumergroup=__strimzi-topic-operator-kstreams},1652273873,1
{consumergroup=__strimzi-topic-operator-kstreams},1652273878,1
{consumergroup=__strimzi-topic-operator-kstreams},1652273883,3
{consumergroup=__strimzi-topic-operator-kstreams},1652273888,3
{consumergroup=__strimzi-topic-operator-kstreams},1652273893,3
{consumergroup=__strimzi-topic-operator-kstreams},1652273898,0
{consumergroup=__strimzi-topic-operator-kstreams},1652273903,0
{consumergroup=__strimzi-topic-operator-kstreams},1652273908,0
{consumergroup=__strimzi-topic-operator-kstreams},1652273913,0
{consumergroup=__strimzi-topic-operator-kstreams},1652273918,0
{consumergroup=__strimzi-topic-operator-kstreams},1652273923,0
{consumergroup=__strimzi-topic-operator-kstreams},1652273928,0
{consumergroup=__strimzi-topic-operator-kstreams},1652273933,0
{consumergroup=__strimzi-topic-operator-kstreams},1652273938,0
{consumergroup=__strimzi-topic-operator-kstreams},1652273943,0
{consumergroup=__strimzi-topic-operator-kstreams},1652273948,0
{consumergroup=__strimzi-topic-operator-kstreams},1652273953,0
{consumergroup=__strimzi-topic-operator-kstreams},1652273958,0
{consumergroup=__strimzi-topic-operator-kstreams},1652273963,0
{consumergroup=__strimzi-topic-operator-kstreams},1652273968,0
{consumergroup=__strimzi-topic-operator-kstreams},1652273973,0
{consumergroup=__strimzi-topic-operator-kstreams},1652273978,0
{consumergroup=__strimzi-topic-operator-kstreams},1652273983,0
{consumergroup=__strimzi-topic-operator-kstreams},1652273988,0
{consumergroup=__strimzi-topic-operator-kstreams},1652273993,0
{consumergroup=__strimzi-topic-operator-kstreams},1652273998,0
{consumergroup=adapter-service},1652273898,9314
{consumergroup=adapter-service},1652273903,9314
{consumergroup=adapter-service},1652273908,9314
{consumergroup=adapter-service},1652273913,9034
{consumergroup=adapter-service},1652273918,9034
{consumergroup=adapter-service},1652273923,9034
{consumergroup=adapter-service},1652273928,16510
{consumergroup=adapter-service},1652273933,16510
{consumergroup=adapter-service},1652273938,16510
{consumergroup=adapter-service},1652273943,11158
{consumergroup=adapter-service},1652273948,11158
{consumergroup=adapter-service},1652273953,11158
{consumergroup=adapter-service},1652273958,5476
{consumergroup=adapter-service},1652273963,5476
{consumergroup=adapter-service},1652273968,5476
{consumergroup=adapter-service},1652273973,5623
{consumergroup=adapter-service},1652273978,5623
{consumergroup=adapter-service},1652273983,5623
{consumergroup=adapter-service},1652273988,6922
{consumergroup=adapter-service},1652273993,6922
{consumergroup=adapter-service},1652273998,6922
