labels,timestamp,value
{consumergroup=__strimzi-topic-operator-kstreams},1651890283,11
{consumergroup=__strimzi-topic-operator-kstreams},1651890288,11
{consumergroup=__strimzi-topic-operator-kstreams},1651890293,11
{consumergroup=__strimzi-topic-operator-kstreams},1651890298,0
{consumergroup=__strimzi-topic-operator-kstreams},1651890303,0
{consumergroup=__strimzi-topic-operator-kstreams},1651890308,0
{consumergroup=__strimzi-topic-operator-kstreams},1651890313,0
{consumergroup=__strimzi-topic-operator-kstreams},1651890318,0
{consumergroup=__strimzi-topic-operator-kstreams},1651890323,0
{consumergroup=__strimzi-topic-operator-kstreams},1651890328,0
{consumergroup=__strimzi-topic-operator-kstreams},1651890333,0
{consumergroup=__strimzi-topic-operator-kstreams},1651890338,0
{consumergroup=__strimzi-topic-operator-kstreams},1651890343,0
{consumergroup=__strimzi-topic-operator-kstreams},1651890348,0
{consumergroup=__strimzi-topic-operator-kstreams},1651890353,0
{consumergroup=__strimzi-topic-operator-kstreams},1651890358,0
{consumergroup=__strimzi-topic-operator-kstreams},1651890363,0
{consumergroup=__strimzi-topic-operator-kstreams},1651890368,0
{consumergroup=__strimzi-topic-operator-kstreams},1651890373,0
{consumergroup=__strimzi-topic-operator-kstreams},1651890378,0
{consumergroup=__strimzi-topic-operator-kstreams},1651890383,0
{consumergroup=__strimzi-topic-operator-kstreams},1651890388,0
{consumergroup=__strimzi-topic-operator-kstreams},1651890393,0
{consumergroup=__strimzi-topic-operator-kstreams},1651890398,0
{consumergroup=__strimzi-topic-operator-kstreams},1651890403,0
{consumergroup=__strimzi-topic-operator-kstreams},1651890408,0
{consumergroup=__strimzi-topic-operator-kstreams},1651890413,0
{consumergroup=__strimzi-topic-operator-kstreams},1651890418,0
{consumergroup=__strimzi-topic-operator-kstreams},1651890423,0
{consumergroup=__strimzi-topic-operator-kstreams},1651890428,0
{consumergroup=__strimzi-topic-operator-kstreams},1651890433,0
{consumergroup=__strimzi-topic-operator-kstreams},1651890438,0
{consumergroup=__strimzi-topic-operator-kstreams},1651890443,0
{consumergroup=__strimzi-topic-operator-kstreams},1651890448,0
{consumergroup=__strimzi-topic-operator-kstreams},1651890453,0
{consumergroup=__strimzi-topic-operator-kstreams},1651890458,0
{consumergroup=__strimzi-topic-operator-kstreams},1651890463,0
{consumergroup=__strimzi-topic-operator-kstreams},1651890468,0
{consumergroup=__strimzi-topic-operator-kstreams},1651890473,0
{consumergroup=__strimzi-topic-operator-kstreams},1651890478,0
{consumergroup=__strimzi-topic-operator-kstreams},1651890483,0
{consumergroup=__strimzi-topic-operator-kstreams},1651890488,0
{consumergroup=__strimzi-topic-operator-kstreams},1651890493,0
{consumergroup=__strimzi-topic-operator-kstreams},1651890498,0
{consumergroup=__strimzi-topic-operator-kstreams},1651890503,0
{consumergroup=__strimzi-topic-operator-kstreams},1651890508,0
{consumergroup=__strimzi-topic-operator-kstreams},1651890513,0
{consumergroup=__strimzi-topic-operator-kstreams},1651890518,0
{consumergroup=__strimzi-topic-operator-kstreams},1651890523,0
{consumergroup=__strimzi-topic-operator-kstreams},1651890528,0
{consumergroup=adapter-service},1651890313,371996
{consumergroup=adapter-service},1651890318,371996
{consumergroup=adapter-service},1651890323,371996
{consumergroup=adapter-service},1651890328,747466
{consumergroup=adapter-service},1651890333,747466
{consumergroup=adapter-service},1651890338,747466
{consumergroup=adapter-service},1651890343,716028
{consumergroup=adapter-service},1651890348,716028
{consumergroup=adapter-service},1651890353,716028
{consumergroup=adapter-service},1651890358,756611
{consumergroup=adapter-service},1651890363,756611
{consumergroup=adapter-service},1651890368,756611
{consumergroup=adapter-service},1651890373,848718
{consumergroup=adapter-service},1651890378,848718
{consumergroup=adapter-service},1651890383,848718
{consumergroup=adapter-service},1651890388,847512
{consumergroup=adapter-service},1651890393,847512
{consumergroup=adapter-service},1651890398,847512
{consumergroup=adapter-service},1651890403,858186
{consumergroup=adapter-service},1651890408,858186
{consumergroup=adapter-service},1651890413,858186
{consumergroup=adapter-service},1651890418,939742
{consumergroup=adapter-service},1651890423,939742
{consumergroup=adapter-service},1651890428,939742
{consumergroup=adapter-service},1651890433,928106
{consumergroup=adapter-service},1651890438,928106
{consumergroup=adapter-service},1651890443,928106
{consumergroup=adapter-service},1651890448,904950
{consumergroup=adapter-service},1651890453,904950
{consumergroup=adapter-service},1651890458,904950
{consumergroup=adapter-service},1651890463,894152
{consumergroup=adapter-service},1651890468,894152
{consumergroup=adapter-service},1651890473,894152
{consumergroup=adapter-service},1651890478,864259
{consumergroup=adapter-service},1651890483,864259
{consumergroup=adapter-service},1651890488,864259
{consumergroup=adapter-service},1651890493,833206
{consumergroup=adapter-service},1651890498,833206
{consumergroup=adapter-service},1651890503,833206
{consumergroup=adapter-service},1651890508,822675
{consumergroup=adapter-service},1651890513,822675
{consumergroup=adapter-service},1651890518,822675
{consumergroup=adapter-service},1651890523,794246
{consumergroup=adapter-service},1651890528,794246
