labels,timestamp,value
{consumergroup=__strimzi-topic-operator-kstreams},1651957238,1
{consumergroup=__strimzi-topic-operator-kstreams},1651957243,1
{consumergroup=__strimzi-topic-operator-kstreams},1651957248,1
{consumergroup=__strimzi-topic-operator-kstreams},1651957253,11
{consumergroup=__strimzi-topic-operator-kstreams},1651957258,11
{consumergroup=__strimzi-topic-operator-kstreams},1651957263,11
{consumergroup=__strimzi-topic-operator-kstreams},1651957268,0
{consumergroup=__strimzi-topic-operator-kstreams},1651957273,0
{consumergroup=__strimzi-topic-operator-kstreams},1651957278,0
{consumergroup=__strimzi-topic-operator-kstreams},1651957283,0
{consumergroup=__strimzi-topic-operator-kstreams},1651957288,0
{consumergroup=__strimzi-topic-operator-kstreams},1651957293,0
{consumergroup=__strimzi-topic-operator-kstreams},1651957298,0
{consumergroup=__strimzi-topic-operator-kstreams},1651957303,0
{consumergroup=__strimzi-topic-operator-kstreams},1651957308,0
{consumergroup=__strimzi-topic-operator-kstreams},1651957313,0
{consumergroup=__strimzi-topic-operator-kstreams},1651957318,0
{consumergroup=__strimzi-topic-operator-kstreams},1651957323,0
{consumergroup=__strimzi-topic-operator-kstreams},1651957328,0
{consumergroup=__strimzi-topic-operator-kstreams},1651957333,0
{consumergroup=__strimzi-topic-operator-kstreams},1651957338,0
{consumergroup=__strimzi-topic-operator-kstreams},1651957343,0
{consumergroup=__strimzi-topic-operator-kstreams},1651957348,0
{consumergroup=__strimzi-topic-operator-kstreams},1651957353,0
{consumergroup=__strimzi-topic-operator-kstreams},1651957358,0
{consumergroup=__strimzi-topic-operator-kstreams},1651957363,0
{consumergroup=__strimzi-topic-operator-kstreams},1651957368,0
{consumergroup=__strimzi-topic-operator-kstreams},1651957373,1
{consumergroup=__strimzi-topic-operator-kstreams},1651957378,1
{consumergroup=__strimzi-topic-operator-kstreams},1651957383,1
{consumergroup=__strimzi-topic-operator-kstreams},1651957388,0
{consumergroup=__strimzi-topic-operator-kstreams},1651957393,0
{consumergroup=__strimzi-topic-operator-kstreams},1651957398,0
{consumergroup=__strimzi-topic-operator-kstreams},1651957403,0
{consumergroup=__strimzi-topic-operator-kstreams},1651957408,0
{consumergroup=__strimzi-topic-operator-kstreams},1651957413,0
{consumergroup=__strimzi-topic-operator-kstreams},1651957418,0
{consumergroup=__strimzi-topic-operator-kstreams},1651957423,0
{consumergroup=__strimzi-topic-operator-kstreams},1651957428,0
{consumergroup=__strimzi-topic-operator-kstreams},1651957433,0
{consumergroup=__strimzi-topic-operator-kstreams},1651957438,0
{consumergroup=__strimzi-topic-operator-kstreams},1651957443,0
{consumergroup=__strimzi-topic-operator-kstreams},1651957448,0
{consumergroup=__strimzi-topic-operator-kstreams},1651957453,0
{consumergroup=__strimzi-topic-operator-kstreams},1651957458,0
{consumergroup=__strimzi-topic-operator-kstreams},1651957463,0
{consumergroup=__strimzi-topic-operator-kstreams},1651957468,0
{consumergroup=__strimzi-topic-operator-kstreams},1651957473,0
{consumergroup=__strimzi-topic-operator-kstreams},1651957478,0
{consumergroup=__strimzi-topic-operator-kstreams},1651957483,0
{consumergroup=__strimzi-topic-operator-kstreams},1651957488,0
{consumergroup=__strimzi-topic-operator-kstreams},1651957493,0
{consumergroup=__strimzi-topic-operator-kstreams},1651957498,0
{consumergroup=__strimzi-topic-operator-kstreams},1651957503,0
{consumergroup=__strimzi-topic-operator-kstreams},1651957508,0
{consumergroup=__strimzi-topic-operator-kstreams},1651957513,0
{consumergroup=__strimzi-topic-operator-kstreams},1651957518,0
{consumergroup=__strimzi-topic-operator-kstreams},1651957523,0
{consumergroup=__strimzi-topic-operator-kstreams},1651957528,0
{consumergroup=__strimzi-topic-operator-kstreams},1651957533,0
{consumergroup=__strimzi-topic-operator-kstreams},1651957538,0
{consumergroup=__strimzi-topic-operator-kstreams},1651957543,0
{consumergroup=__strimzi-topic-operator-kstreams},1651957548,0
{consumergroup=__strimzi-topic-operator-kstreams},1651957553,0
{consumergroup=__strimzi-topic-operator-kstreams},1651957558,0
{consumergroup=__strimzi-topic-operator-kstreams},1651957563,0
{consumergroup=__strimzi-topic-operator-kstreams},1651957568,0
{consumergroup=__strimzi-topic-operator-kstreams},1651957573,0
{consumergroup=__strimzi-topic-operator-kstreams},1651957578,0
{consumergroup=__strimzi-topic-operator-kstreams},1651957583,0
{consumergroup=__strimzi-topic-operator-kstreams},1651957588,0
{consumergroup=__strimzi-topic-operator-kstreams},1651957593,0
{consumergroup=__strimzi-topic-operator-kstreams},1651957598,0
{consumergroup=__strimzi-topic-operator-kstreams},1651957603,0
{consumergroup=__strimzi-topic-operator-kstreams},1651957608,0
{consumergroup=__strimzi-topic-operator-kstreams},1651957613,0
{consumergroup=__strimzi-topic-operator-kstreams},1651957618,0
{consumergroup=__strimzi-topic-operator-kstreams},1651957623,0
{consumergroup=__strimzi-topic-operator-kstreams},1651957628,0
{consumergroup=__strimzi-topic-operator-kstreams},1651957633,0
{consumergroup=__strimzi-topic-operator-kstreams},1651957638,0
{consumergroup=__strimzi-topic-operator-kstreams},1651957643,0
{consumergroup=__strimzi-topic-operator-kstreams},1651957648,0
{consumergroup=__strimzi-topic-operator-kstreams},1651957653,0
{consumergroup=__strimzi-topic-operator-kstreams},1651957658,0
{consumergroup=__strimzi-topic-operator-kstreams},1651957663,0
{consumergroup=__strimzi-topic-operator-kstreams},1651957668,0
{consumergroup=__strimzi-topic-operator-kstreams},1651957673,0
{consumergroup=__strimzi-topic-operator-kstreams},1651957678,0
{consumergroup=__strimzi-topic-operator-kstreams},1651957683,0
{consumergroup=__strimzi-topic-operator-kstreams},1651957688,0
{consumergroup=adapter-service},1651957268,0
{consumergroup=adapter-service},1651957273,0
{consumergroup=adapter-service},1651957278,0
{consumergroup=adapter-service},1651957283,6803
{consumergroup=adapter-service},1651957288,6803
{consumergroup=adapter-service},1651957293,6803
{consumergroup=adapter-service},1651957298,2930
{consumergroup=adapter-service},1651957303,2930
{consumergroup=adapter-service},1651957308,2930
{consumergroup=adapter-service},1651957313,9925
{consumergroup=adapter-service},1651957318,9925
{consumergroup=adapter-service},1651957323,9925
{consumergroup=adapter-service},1651957328,5610
{consumergroup=adapter-service},1651957333,5610
{consumergroup=adapter-service},1651957338,5610
{consumergroup=adapter-service},1651957343,5506
{consumergroup=adapter-service},1651957348,5506
{consumergroup=adapter-service},1651957353,5506
{consumergroup=adapter-service},1651957358,5872
{consumergroup=adapter-service},1651957363,5872
{consumergroup=adapter-service},1651957368,5872
{consumergroup=adapter-service},1651957373,8076
{consumergroup=adapter-service},1651957378,8076
{consumergroup=adapter-service},1651957383,8076
{consumergroup=adapter-service},1651957388,4622
{consumergroup=adapter-service},1651957393,4622
{consumergroup=adapter-service},1651957398,4622
{consumergroup=adapter-service},1651957403,4825
{consumergroup=adapter-service},1651957408,4825
{consumergroup=adapter-service},1651957413,4825
{consumergroup=adapter-service},1651957418,4313
{consumergroup=adapter-service},1651957423,4313
{consumergroup=adapter-service},1651957428,4313
{consumergroup=adapter-service},1651957433,4265
{consumergroup=adapter-service},1651957438,4265
{consumergroup=adapter-service},1651957443,4265
{consumergroup=adapter-service},1651957448,608
{consumergroup=adapter-service},1651957453,608
{consumergroup=adapter-service},1651957458,608
{consumergroup=adapter-service},1651957463,3497
{consumergroup=adapter-service},1651957468,3497
{consumergroup=adapter-service},1651957473,3497
{consumergroup=adapter-service},1651957478,3106
{consumergroup=adapter-service},1651957483,3106
{consumergroup=adapter-service},1651957488,3106
{consumergroup=adapter-service},1651957493,3126
{consumergroup=adapter-service},1651957498,3126
{consumergroup=adapter-service},1651957503,3126
{consumergroup=adapter-service},1651957508,777
{consumergroup=adapter-service},1651957513,777
{consumergroup=adapter-service},1651957518,777
{consumergroup=adapter-service},1651957523,2879
{consumergroup=adapter-service},1651957528,2879
{consumergroup=adapter-service},1651957533,2879
{consumergroup=adapter-service},1651957538,3032
{consumergroup=adapter-service},1651957543,3032
{consumergroup=adapter-service},1651957548,3032
{consumergroup=adapter-service},1651957553,2049
{consumergroup=adapter-service},1651957558,2049
{consumergroup=adapter-service},1651957563,2049
{consumergroup=adapter-service},1651957568,12220
{consumergroup=adapter-service},1651957573,12220
{consumergroup=adapter-service},1651957578,12220
{consumergroup=adapter-service},1651957583,1533
{consumergroup=adapter-service},1651957588,1533
{consumergroup=adapter-service},1651957593,1533
{consumergroup=adapter-service},1651957598,14364
{consumergroup=adapter-service},1651957603,14364
{consumergroup=adapter-service},1651957608,14364
{consumergroup=adapter-service},1651957613,1133
{consumergroup=adapter-service},1651957618,1133
{consumergroup=adapter-service},1651957623,1133
{consumergroup=adapter-service},1651957628,13762
{consumergroup=adapter-service},1651957633,13762
{consumergroup=adapter-service},1651957638,13762
{consumergroup=adapter-service},1651957643,627
{consumergroup=adapter-service},1651957648,627
{consumergroup=adapter-service},1651957653,627
{consumergroup=adapter-service},1651957658,13285
{consumergroup=adapter-service},1651957663,13285
{consumergroup=adapter-service},1651957668,13285
{consumergroup=adapter-service},1651957673,3113
{consumergroup=adapter-service},1651957678,3113
{consumergroup=adapter-service},1651957683,3113
{consumergroup=adapter-service},1651957688,13405
{consumergroup=landscape-service},1651957298,11605
{consumergroup=landscape-service},1651957303,11605
{consumergroup=landscape-service},1651957308,11605
{consumergroup=landscape-service},1651957313,1748
{consumergroup=landscape-service},1651957318,1748
{consumergroup=landscape-service},1651957323,1748
{consumergroup=landscape-service},1651957328,13849
{consumergroup=landscape-service},1651957333,13849
{consumergroup=landscape-service},1651957338,13849
{consumergroup=landscape-service},1651957343,13695
{consumergroup=landscape-service},1651957348,13695
{consumergroup=landscape-service},1651957353,13695
{consumergroup=landscape-service},1651957358,14237
{consumergroup=landscape-service},1651957363,14237
{consumergroup=landscape-service},1651957368,14237
{consumergroup=landscape-service},1651957373,519
{consumergroup=landscape-service},1651957378,519
{consumergroup=landscape-service},1651957383,519
{consumergroup=landscape-service},1651957388,14037
{consumergroup=landscape-service},1651957393,14037
{consumergroup=landscape-service},1651957398,14037
{consumergroup=landscape-service},1651957403,13624
{consumergroup=landscape-service},1651957408,13624
{consumergroup=landscape-service},1651957413,13624
{consumergroup=landscape-service},1651957418,13216
{consumergroup=landscape-service},1651957423,13216
{consumergroup=landscape-service},1651957428,13216
{consumergroup=landscape-service},1651957433,13319
{consumergroup=landscape-service},1651957438,13319
{consumergroup=landscape-service},1651957443,13319
{consumergroup=landscape-service},1651957448,9839
{consumergroup=landscape-service},1651957453,9839
{consumergroup=landscape-service},1651957458,9839
{consumergroup=landscape-service},1651957463,13717
{consumergroup=landscape-service},1651957468,13717
{consumergroup=landscape-service},1651957473,13717
{consumergroup=landscape-service},1651957478,13488
{consumergroup=landscape-service},1651957483,13488
{consumergroup=landscape-service},1651957488,13488
{consumergroup=landscape-service},1651957493,13672
{consumergroup=landscape-service},1651957498,13672
{consumergroup=landscape-service},1651957503,13672
{consumergroup=landscape-service},1651957508,9966
{consumergroup=landscape-service},1651957513,9966
{consumergroup=landscape-service},1651957518,9966
{consumergroup=landscape-service},1651957523,13631
{consumergroup=landscape-service},1651957528,13631
{consumergroup=landscape-service},1651957533,13631
{consumergroup=landscape-service},1651957538,13299
{consumergroup=landscape-service},1651957543,13299
{consumergroup=landscape-service},1651957548,13299
{consumergroup=landscape-service},1651957553,12525
{consumergroup=landscape-service},1651957558,12525
{consumergroup=landscape-service},1651957563,12525
{consumergroup=landscape-service},1651957568,9373
{consumergroup=landscape-service},1651957573,9373
{consumergroup=landscape-service},1651957578,9373
{consumergroup=landscape-service},1651957583,12500
{consumergroup=landscape-service},1651957588,12500
{consumergroup=landscape-service},1651957593,12500
{consumergroup=landscape-service},1651957598,9267
{consumergroup=landscape-service},1651957603,9267
{consumergroup=landscape-service},1651957608,9267
{consumergroup=landscape-service},1651957613,12299
{consumergroup=landscape-service},1651957618,12299
{consumergroup=landscape-service},1651957623,12299
{consumergroup=landscape-service},1651957628,8998
{consumergroup=landscape-service},1651957633,8998
{consumergroup=landscape-service},1651957638,8998
{consumergroup=landscape-service},1651957643,12247
{consumergroup=landscape-service},1651957648,12247
{consumergroup=landscape-service},1651957653,12247
{consumergroup=landscape-service},1651957658,9621
{consumergroup=landscape-service},1651957663,9621
{consumergroup=landscape-service},1651957668,9621
{consumergroup=landscape-service},1651957673,52
{consumergroup=landscape-service},1651957678,52
{consumergroup=landscape-service},1651957683,52
{consumergroup=landscape-service},1651957688,8533
{consumergroup=landscape-token-events-consumer},1651957268,0
{consumergroup=landscape-token-events-consumer},1651957273,0
{consumergroup=landscape-token-events-consumer},1651957278,0
{consumergroup=landscape-token-events-consumer},1651957283,0
{consumergroup=landscape-token-events-consumer},1651957288,0
{consumergroup=landscape-token-events-consumer},1651957293,0
{consumergroup=landscape-token-events-consumer},1651957298,0
{consumergroup=landscape-token-events-consumer},1651957303,0
{consumergroup=landscape-token-events-consumer},1651957308,0
{consumergroup=landscape-token-events-consumer},1651957313,0
{consumergroup=landscape-token-events-consumer},1651957318,0
{consumergroup=landscape-token-events-consumer},1651957323,0
{consumergroup=landscape-token-events-consumer},1651957328,0
{consumergroup=landscape-token-events-consumer},1651957333,0
{consumergroup=landscape-token-events-consumer},1651957338,0
{consumergroup=landscape-token-events-consumer},1651957343,0
{consumergroup=landscape-token-events-consumer},1651957348,0
{consumergroup=landscape-token-events-consumer},1651957353,0
{consumergroup=landscape-token-events-consumer},1651957358,0
{consumergroup=landscape-token-events-consumer},1651957363,0
{consumergroup=landscape-token-events-consumer},1651957368,0
{consumergroup=landscape-token-events-consumer},1651957373,0
{consumergroup=landscape-token-events-consumer},1651957378,0
{consumergroup=landscape-token-events-consumer},1651957383,0
{consumergroup=landscape-token-events-consumer},1651957388,0
{consumergroup=landscape-token-events-consumer},1651957393,0
{consumergroup=landscape-token-events-consumer},1651957398,0
{consumergroup=landscape-token-events-consumer},1651957403,0
{consumergroup=landscape-token-events-consumer},1651957408,0
{consumergroup=landscape-token-events-consumer},1651957413,0
{consumergroup=landscape-token-events-consumer},1651957418,0
{consumergroup=landscape-token-events-consumer},1651957423,0
{consumergroup=landscape-token-events-consumer},1651957428,0
{consumergroup=landscape-token-events-consumer},1651957433,0
{consumergroup=landscape-token-events-consumer},1651957438,0
{consumergroup=landscape-token-events-consumer},1651957443,0
{consumergroup=landscape-token-events-consumer},1651957448,0
{consumergroup=landscape-token-events-consumer},1651957453,0
{consumergroup=landscape-token-events-consumer},1651957458,0
{consumergroup=landscape-token-events-consumer},1651957463,0
{consumergroup=landscape-token-events-consumer},1651957468,0
{consumergroup=landscape-token-events-consumer},1651957473,0
{consumergroup=landscape-token-events-consumer},1651957478,0
{consumergroup=landscape-token-events-consumer},1651957483,0
{consumergroup=landscape-token-events-consumer},1651957488,0
{consumergroup=landscape-token-events-consumer},1651957493,0
{consumergroup=landscape-token-events-consumer},1651957498,0
{consumergroup=landscape-token-events-consumer},1651957503,0
{consumergroup=landscape-token-events-consumer},1651957508,0
{consumergroup=landscape-token-events-consumer},1651957513,0
{consumergroup=landscape-token-events-consumer},1651957518,0
{consumergroup=landscape-token-events-consumer},1651957523,0
{consumergroup=landscape-token-events-consumer},1651957528,0
{consumergroup=landscape-token-events-consumer},1651957533,0
{consumergroup=landscape-token-events-consumer},1651957538,0
{consumergroup=landscape-token-events-consumer},1651957543,0
{consumergroup=landscape-token-events-consumer},1651957548,0
{consumergroup=landscape-token-events-consumer},1651957553,0
{consumergroup=landscape-token-events-consumer},1651957558,0
{consumergroup=landscape-token-events-consumer},1651957563,0
{consumergroup=landscape-token-events-consumer},1651957568,0
{consumergroup=landscape-token-events-consumer},1651957573,0
{consumergroup=landscape-token-events-consumer},1651957578,0
{consumergroup=landscape-token-events-consumer},1651957583,0
{consumergroup=landscape-token-events-consumer},1651957588,0
{consumergroup=landscape-token-events-consumer},1651957593,0
{consumergroup=landscape-token-events-consumer},1651957598,0
{consumergroup=landscape-token-events-consumer},1651957603,0
{consumergroup=landscape-token-events-consumer},1651957608,0
{consumergroup=landscape-token-events-consumer},1651957613,0
{consumergroup=landscape-token-events-consumer},1651957618,0
{consumergroup=landscape-token-events-consumer},1651957623,0
{consumergroup=landscape-token-events-consumer},1651957628,0
{consumergroup=landscape-token-events-consumer},1651957633,0
{consumergroup=landscape-token-events-consumer},1651957638,0
{consumergroup=landscape-token-events-consumer},1651957643,0
{consumergroup=landscape-token-events-consumer},1651957648,0
{consumergroup=landscape-token-events-consumer},1651957653,0
{consumergroup=landscape-token-events-consumer},1651957658,0
{consumergroup=landscape-token-events-consumer},1651957663,0
{consumergroup=landscape-token-events-consumer},1651957668,0
{consumergroup=landscape-token-events-consumer},1651957673,0
{consumergroup=landscape-token-events-consumer},1651957678,0
{consumergroup=landscape-token-events-consumer},1651957683,0
{consumergroup=landscape-token-events-consumer},1651957688,0
{consumergroup=trace-service},1651957283,9577
{consumergroup=trace-service},1651957288,9577
{consumergroup=trace-service},1651957293,9577
{consumergroup=trace-service},1651957298,29762
{consumergroup=trace-service},1651957303,29762
{consumergroup=trace-service},1651957308,29762
{consumergroup=trace-service},1651957313,25212
{consumergroup=trace-service},1651957318,25212
{consumergroup=trace-service},1651957323,25212
{consumergroup=trace-service},1651957328,35893
{consumergroup=trace-service},1651957333,35893
{consumergroup=trace-service},1651957338,35893
{consumergroup=trace-service},1651957343,91038
{consumergroup=trace-service},1651957348,91038
{consumergroup=trace-service},1651957353,91038
{consumergroup=trace-service},1651957358,35681
{consumergroup=trace-service},1651957363,35681
{consumergroup=trace-service},1651957368,35681
{consumergroup=trace-service},1651957373,105346
{consumergroup=trace-service},1651957378,105346
{consumergroup=trace-service},1651957383,105346
{consumergroup=trace-service},1651957388,35402
{consumergroup=trace-service},1651957393,35402
{consumergroup=trace-service},1651957398,35402
{consumergroup=trace-service},1651957403,82746
{consumergroup=trace-service},1651957408,82746
{consumergroup=trace-service},1651957413,82746
{consumergroup=trace-service},1651957418,33652
{consumergroup=trace-service},1651957423,33652
{consumergroup=trace-service},1651957428,33652
{consumergroup=trace-service},1651957433,108942
{consumergroup=trace-service},1651957438,108942
{consumergroup=trace-service},1651957443,108942
{consumergroup=trace-service},1651957448,31479
{consumergroup=trace-service},1651957453,31479
{consumergroup=trace-service},1651957458,31479
{consumergroup=trace-service},1651957463,94629
{consumergroup=trace-service},1651957468,94629
{consumergroup=trace-service},1651957473,94629
{consumergroup=trace-service},1651957478,35841
{consumergroup=trace-service},1651957483,35841
{consumergroup=trace-service},1651957488,35841
{consumergroup=trace-service},1651957493,73819
{consumergroup=trace-service},1651957498,73819
{consumergroup=trace-service},1651957503,73819
{consumergroup=trace-service},1651957508,30915
{consumergroup=trace-service},1651957513,30915
{consumergroup=trace-service},1651957518,30915
{consumergroup=trace-service},1651957523,100844
{consumergroup=trace-service},1651957528,100844
{consumergroup=trace-service},1651957533,100844
{consumergroup=trace-service},1651957538,31462
{consumergroup=trace-service},1651957543,31462
{consumergroup=trace-service},1651957548,31462
{consumergroup=trace-service},1651957553,81025
{consumergroup=trace-service},1651957558,81025
{consumergroup=trace-service},1651957563,81025
{consumergroup=trace-service},1651957568,31473
{consumergroup=trace-service},1651957573,31473
{consumergroup=trace-service},1651957578,31473
{consumergroup=trace-service},1651957583,100640
{consumergroup=trace-service},1651957588,100640
{consumergroup=trace-service},1651957593,100640
{consumergroup=trace-service},1651957598,31146
{consumergroup=trace-service},1651957603,31146
{consumergroup=trace-service},1651957608,31146
{consumergroup=trace-service},1651957613,84610
{consumergroup=trace-service},1651957618,84610
{consumergroup=trace-service},1651957623,84610
{consumergroup=trace-service},1651957628,32714
{consumergroup=trace-service},1651957633,32714
{consumergroup=trace-service},1651957638,32714
{consumergroup=trace-service},1651957643,100600
{consumergroup=trace-service},1651957648,100600
{consumergroup=trace-service},1651957653,100600
{consumergroup=trace-service},1651957658,30676
{consumergroup=trace-service},1651957663,30676
{consumergroup=trace-service},1651957668,30676
{consumergroup=trace-service},1651957673,74427
{consumergroup=trace-service},1651957678,74427
{consumergroup=trace-service},1651957683,74427
{consumergroup=trace-service},1651957688,32802
{consumergroup=trace-token-events-consumer},1651957268,0
{consumergroup=trace-token-events-consumer},1651957273,0
{consumergroup=trace-token-events-consumer},1651957278,0
{consumergroup=trace-token-events-consumer},1651957283,0
{consumergroup=trace-token-events-consumer},1651957288,0
{consumergroup=trace-token-events-consumer},1651957293,0
{consumergroup=trace-token-events-consumer},1651957298,0
{consumergroup=trace-token-events-consumer},1651957303,0
{consumergroup=trace-token-events-consumer},1651957308,0
{consumergroup=trace-token-events-consumer},1651957313,0
{consumergroup=trace-token-events-consumer},1651957318,0
{consumergroup=trace-token-events-consumer},1651957323,0
{consumergroup=trace-token-events-consumer},1651957328,0
{consumergroup=trace-token-events-consumer},1651957333,0
{consumergroup=trace-token-events-consumer},1651957338,0
{consumergroup=trace-token-events-consumer},1651957343,0
{consumergroup=trace-token-events-consumer},1651957348,0
{consumergroup=trace-token-events-consumer},1651957353,0
{consumergroup=trace-token-events-consumer},1651957358,0
{consumergroup=trace-token-events-consumer},1651957363,0
{consumergroup=trace-token-events-consumer},1651957368,0
{consumergroup=trace-token-events-consumer},1651957373,0
{consumergroup=trace-token-events-consumer},1651957378,0
{consumergroup=trace-token-events-consumer},1651957383,0
{consumergroup=trace-token-events-consumer},1651957388,0
{consumergroup=trace-token-events-consumer},1651957393,0
{consumergroup=trace-token-events-consumer},1651957398,0
{consumergroup=trace-token-events-consumer},1651957403,0
{consumergroup=trace-token-events-consumer},1651957408,0
{consumergroup=trace-token-events-consumer},1651957413,0
{consumergroup=trace-token-events-consumer},1651957418,0
{consumergroup=trace-token-events-consumer},1651957423,0
{consumergroup=trace-token-events-consumer},1651957428,0
{consumergroup=trace-token-events-consumer},1651957433,0
{consumergroup=trace-token-events-consumer},1651957438,0
{consumergroup=trace-token-events-consumer},1651957443,0
{consumergroup=trace-token-events-consumer},1651957448,0
{consumergroup=trace-token-events-consumer},1651957453,0
{consumergroup=trace-token-events-consumer},1651957458,0
{consumergroup=trace-token-events-consumer},1651957463,0
{consumergroup=trace-token-events-consumer},1651957468,0
{consumergroup=trace-token-events-consumer},1651957473,0
{consumergroup=trace-token-events-consumer},1651957478,0
{consumergroup=trace-token-events-consumer},1651957483,0
{consumergroup=trace-token-events-consumer},1651957488,0
{consumergroup=trace-token-events-consumer},1651957493,0
{consumergroup=trace-token-events-consumer},1651957498,0
{consumergroup=trace-token-events-consumer},1651957503,0
{consumergroup=trace-token-events-consumer},1651957508,0
{consumergroup=trace-token-events-consumer},1651957513,0
{consumergroup=trace-token-events-consumer},1651957518,0
{consumergroup=trace-token-events-consumer},1651957523,0
{consumergroup=trace-token-events-consumer},1651957528,0
{consumergroup=trace-token-events-consumer},1651957533,0
{consumergroup=trace-token-events-consumer},1651957538,0
{consumergroup=trace-token-events-consumer},1651957543,0
{consumergroup=trace-token-events-consumer},1651957548,0
{consumergroup=trace-token-events-consumer},1651957553,0
{consumergroup=trace-token-events-consumer},1651957558,0
{consumergroup=trace-token-events-consumer},1651957563,0
{consumergroup=trace-token-events-consumer},1651957568,0
{consumergroup=trace-token-events-consumer},1651957573,0
{consumergroup=trace-token-events-consumer},1651957578,0
{consumergroup=trace-token-events-consumer},1651957583,0
{consumergroup=trace-token-events-consumer},1651957588,0
{consumergroup=trace-token-events-consumer},1651957593,0
{consumergroup=trace-token-events-consumer},1651957598,0
{consumergroup=trace-token-events-consumer},1651957603,0
{consumergroup=trace-token-events-consumer},1651957608,0
{consumergroup=trace-token-events-consumer},1651957613,0
{consumergroup=trace-token-events-consumer},1651957618,0
{consumergroup=trace-token-events-consumer},1651957623,0
{consumergroup=trace-token-events-consumer},1651957628,0
{consumergroup=trace-token-events-consumer},1651957633,0
{consumergroup=trace-token-events-consumer},1651957638,0
{consumergroup=trace-token-events-consumer},1651957643,0
{consumergroup=trace-token-events-consumer},1651957648,0
{consumergroup=trace-token-events-consumer},1651957653,0
{consumergroup=trace-token-events-consumer},1651957658,0
{consumergroup=trace-token-events-consumer},1651957663,0
{consumergroup=trace-token-events-consumer},1651957668,0
{consumergroup=trace-token-events-consumer},1651957673,0
{consumergroup=trace-token-events-consumer},1651957678,0
{consumergroup=trace-token-events-consumer},1651957683,0
{consumergroup=trace-token-events-consumer},1651957688,0
