labels,timestamp,value
{job=theodolite-stu200776/combined-trace-podmonitor},1652345595,0
{job=theodolite-stu200776/combined-trace-podmonitor},1652345600,0
{job=theodolite-stu200776/combined-trace-podmonitor},1652345605,0
{job=theodolite-stu200776/combined-trace-podmonitor},1652345610,0
{job=theodolite-stu200776/combined-trace-podmonitor},1652345615,0
{job=theodolite-stu200776/combined-trace-podmonitor},1652345620,0
{job=theodolite-stu200776/combined-trace-podmonitor},1652345625,0
{job=theodolite-stu200776/combined-trace-podmonitor},1652345630,0
{job=theodolite-stu200776/combined-trace-podmonitor},1652345635,0
{job=theodolite-stu200776/combined-trace-podmonitor},1652345640,0
{job=theodolite-stu200776/combined-trace-podmonitor},1652345645,0
{job=theodolite-stu200776/combined-trace-podmonitor},1652345650,0
{job=theodolite-stu200776/combined-trace-podmonitor},1652345655,0
{job=theodolite-stu200776/combined-trace-podmonitor},1652345660,0
{job=theodolite-stu200776/combined-trace-podmonitor},1652345665,0
{job=theodolite-stu200776/combined-trace-podmonitor},1652345670,0.04882469638173559
{job=theodolite-stu200776/combined-trace-podmonitor},1652345675,0.3167254402834517
{job=theodolite-stu200776/combined-trace-podmonitor},1652345680,0.7443152556282112
{job=theodolite-stu200776/combined-trace-podmonitor},1652345685,0.9863104259748862
{job=theodolite-stu200776/combined-trace-podmonitor},1652345690,1.3156129578678781
{job=theodolite-stu200776/combined-trace-podmonitor},1652345695,1.204788630583498
{job=theodolite-stu200776/combined-trace-podmonitor},1652345700,1.8621391963750256
{job=theodolite-stu200776/combined-trace-podmonitor},1652345705,1.8994768436227756
{job=theodolite-stu200776/combined-trace-podmonitor},1652345710,2.78375937445672
{job=theodolite-stu200776/combined-trace-podmonitor},1652345715,2.7945536403332008
{job=theodolite-stu200776/combined-trace-podmonitor},1652345720,3.8778332206485113
{job=theodolite-stu200776/combined-trace-podmonitor},1652345725,4.533952725325166
{job=theodolite-stu200776/combined-trace-podmonitor},1652345730,3.8294781787444823
{job=theodolite-stu200776/combined-trace-podmonitor},1652345735,3.6925336876604296
{job=theodolite-stu200776/combined-trace-podmonitor},1652345740,2.4971786902200197
{job=theodolite-stu200776/combined-trace-podmonitor},1652345745,2.2636732026085453
{job=theodolite-stu200776/combined-trace-podmonitor},1652345750,1.8868666374441738
{job=theodolite-stu200776/combined-trace-podmonitor},1652345755,2.424826446318303
{job=theodolite-stu200776/combined-trace-podmonitor},1652345760,2.188855432129363
{job=theodolite-stu200776/combined-trace-podmonitor},1652345765,1.9295161386886377
{job=theodolite-stu200776/combined-trace-podmonitor},1652345770,1.4878278463748742
{job=theodolite-stu200776/combined-trace-podmonitor},1652345775,1.2995096301506621
{job=theodolite-stu200776/combined-trace-podmonitor},1652345780,0.8231753252785611
{job=theodolite-stu200776/combined-trace-podmonitor},1652345785,0
{job=theodolite-stu200776/combined-trace-podmonitor},1652345790,0
{job=theodolite-stu200776/combined-trace-podmonitor},1652345795,0
{job=theodolite-stu200776/combined-trace-podmonitor},1652345800,0
{job=theodolite-stu200776/combined-trace-podmonitor},1652345805,0
{job=theodolite-stu200776/combined-trace-podmonitor},1652345810,0
{job=theodolite-stu200776/combined-trace-podmonitor},1652345815,0
{job=theodolite-stu200776/combined-trace-podmonitor},1652345820,0
{job=theodolite-stu200776/combined-trace-podmonitor},1652345825,0
{job=theodolite-stu200776/combined-trace-podmonitor},1652345830,0
