labels,timestamp,value
{job=theodolite-stu200776/combined-trace-podmonitor},1651956905,0
{job=theodolite-stu200776/combined-trace-podmonitor},1651956910,0
{job=theodolite-stu200776/combined-trace-podmonitor},1651956915,0
{job=theodolite-stu200776/combined-trace-podmonitor},1651956920,0
{job=theodolite-stu200776/combined-trace-podmonitor},1651956925,0
{job=theodolite-stu200776/combined-trace-podmonitor},1651956930,0
{job=theodolite-stu200776/combined-trace-podmonitor},1651956935,0
{job=theodolite-stu200776/combined-trace-podmonitor},1651956940,0
{job=theodolite-stu200776/combined-trace-podmonitor},1651956945,0
{job=theodolite-stu200776/combined-trace-podmonitor},1651956950,0
{job=theodolite-stu200776/combined-trace-podmonitor},1651956955,0
{job=theodolite-stu200776/combined-trace-podmonitor},1651956960,0
{job=theodolite-stu200776/combined-trace-podmonitor},1651956965,0
{job=theodolite-stu200776/combined-trace-podmonitor},1651956970,0
{job=theodolite-stu200776/combined-trace-podmonitor},1651956975,0
{job=theodolite-stu200776/combined-trace-podmonitor},1651956980,0
{job=theodolite-stu200776/combined-trace-podmonitor},1651956985,0
{job=theodolite-stu200776/combined-trace-podmonitor},1651956990,0
{job=theodolite-stu200776/combined-trace-podmonitor},1651956995,0
{job=theodolite-stu200776/combined-trace-podmonitor},1651957000,0
{job=theodolite-stu200776/combined-trace-podmonitor},1651957005,0
{job=theodolite-stu200776/combined-trace-podmonitor},1651957010,0
{job=theodolite-stu200776/combined-trace-podmonitor},1651957015,0
{job=theodolite-stu200776/combined-trace-podmonitor},1651957020,0
{job=theodolite-stu200776/combined-trace-podmonitor},1651957025,0
{job=theodolite-stu200776/combined-trace-podmonitor},1651957030,0
{job=theodolite-stu200776/combined-trace-podmonitor},1651957035,0
{job=theodolite-stu200776/combined-trace-podmonitor},1651957040,0
{job=theodolite-stu200776/combined-trace-podmonitor},1651957045,0
{job=theodolite-stu200776/combined-trace-podmonitor},1651957050,0
{job=theodolite-stu200776/combined-trace-podmonitor},1651957055,0
{job=theodolite-stu200776/combined-trace-podmonitor},1651957060,0
{job=theodolite-stu200776/combined-trace-podmonitor},1651957065,0
{job=theodolite-stu200776/combined-trace-podmonitor},1651957070,0
{job=theodolite-stu200776/combined-trace-podmonitor},1651957075,0
{job=theodolite-stu200776/combined-trace-podmonitor},1651957080,0
{job=theodolite-stu200776/combined-trace-podmonitor},1651957085,0
{job=theodolite-stu200776/combined-trace-podmonitor},1651957090,0
{job=theodolite-stu200776/combined-trace-podmonitor},1651957095,0
{job=theodolite-stu200776/combined-trace-podmonitor},1651957100,0
{job=theodolite-stu200776/combined-trace-podmonitor},1651957105,0
{job=theodolite-stu200776/combined-trace-podmonitor},1651957110,0
{job=theodolite-stu200776/combined-trace-podmonitor},1651957115,0
{job=theodolite-stu200776/combined-trace-podmonitor},1651957120,0
{job=theodolite-stu200776/combined-trace-podmonitor},1651957125,0
{job=theodolite-stu200776/combined-trace-podmonitor},1651957130,0
{job=theodolite-stu200776/combined-trace-podmonitor},1651957135,0
