labels,timestamp,value
{job=theodolite-stu200776/combined-trace-podmonitor},1651950784,0
{job=theodolite-stu200776/combined-trace-podmonitor},1651950789,0
{job=theodolite-stu200776/combined-trace-podmonitor},1651950794,0
{job=theodolite-stu200776/combined-trace-podmonitor},1651950799,0
{job=theodolite-stu200776/combined-trace-podmonitor},1651950804,0
{job=theodolite-stu200776/combined-trace-podmonitor},1651950809,0
{job=theodolite-stu200776/combined-trace-podmonitor},1651950814,0
{job=theodolite-stu200776/combined-trace-podmonitor},1651950819,0
{job=theodolite-stu200776/combined-trace-podmonitor},1651950824,0
{job=theodolite-stu200776/combined-trace-podmonitor},1651950829,0
{job=theodolite-stu200776/combined-trace-podmonitor},1651950834,0
{job=theodolite-stu200776/combined-trace-podmonitor},1651950839,0
{job=theodolite-stu200776/combined-trace-podmonitor},1651950844,0
{job=theodolite-stu200776/combined-trace-podmonitor},1651950849,0
{job=theodolite-stu200776/combined-trace-podmonitor},1651950854,0
{job=theodolite-stu200776/combined-trace-podmonitor},1651950859,0
{job=theodolite-stu200776/combined-trace-podmonitor},1651950864,0
{job=theodolite-stu200776/combined-trace-podmonitor},1651950869,0
{job=theodolite-stu200776/combined-trace-podmonitor},1651950874,0
{job=theodolite-stu200776/combined-trace-podmonitor},1651950879,0
{job=theodolite-stu200776/combined-trace-podmonitor},1651950884,0
{job=theodolite-stu200776/combined-trace-podmonitor},1651950889,0
{job=theodolite-stu200776/combined-trace-podmonitor},1651950894,0
{job=theodolite-stu200776/combined-trace-podmonitor},1651950899,0
{job=theodolite-stu200776/combined-trace-podmonitor},1651950904,0
{job=theodolite-stu200776/combined-trace-podmonitor},1651950909,0
{job=theodolite-stu200776/combined-trace-podmonitor},1651950914,0
{job=theodolite-stu200776/combined-trace-podmonitor},1651950919,0
{job=theodolite-stu200776/combined-trace-podmonitor},1651950924,0
{job=theodolite-stu200776/combined-trace-podmonitor},1651950929,0
{job=theodolite-stu200776/combined-trace-podmonitor},1651950934,0
{job=theodolite-stu200776/combined-trace-podmonitor},1651950939,0
{job=theodolite-stu200776/combined-trace-podmonitor},1651950944,0
{job=theodolite-stu200776/combined-trace-podmonitor},1651950949,0
{job=theodolite-stu200776/combined-trace-podmonitor},1651950954,0
{job=theodolite-stu200776/combined-trace-podmonitor},1651950959,0
{job=theodolite-stu200776/combined-trace-podmonitor},1651950964,0
{job=theodolite-stu200776/combined-trace-podmonitor},1651950969,0
{job=theodolite-stu200776/combined-trace-podmonitor},1651950974,0
{job=theodolite-stu200776/combined-trace-podmonitor},1651950979,0
{job=theodolite-stu200776/combined-trace-podmonitor},1651950984,0
{job=theodolite-stu200776/combined-trace-podmonitor},1651950989,0
{job=theodolite-stu200776/combined-trace-podmonitor},1651950994,0
{job=theodolite-stu200776/combined-trace-podmonitor},1651950999,0
{job=theodolite-stu200776/combined-trace-podmonitor},1651951004,0
{job=theodolite-stu200776/combined-trace-podmonitor},1651951009,0
{job=theodolite-stu200776/combined-trace-podmonitor},1651951014,0
{job=theodolite-stu200776/combined-trace-podmonitor},1651951019,0
{job=theodolite-stu200776/combined-trace-podmonitor},1651951024,0
{job=theodolite-stu200776/combined-trace-podmonitor},1651951029,0
{job=theodolite-stu200776/combined-trace-podmonitor},1651951034,0
{job=theodolite-stu200776/combined-trace-podmonitor},1651951039,0
{job=theodolite-stu200776/combined-trace-podmonitor},1651951044,0
