labels,timestamp,value
{consumergroup=__strimzi-topic-operator-kstreams},1651876089,0
{consumergroup=__strimzi-topic-operator-kstreams},1651876094,0
{consumergroup=__strimzi-topic-operator-kstreams},1651876099,0
{consumergroup=__strimzi-topic-operator-kstreams},1651876104,12
{consumergroup=__strimzi-topic-operator-kstreams},1651876109,12
{consumergroup=__strimzi-topic-operator-kstreams},1651876114,12
{consumergroup=__strimzi-topic-operator-kstreams},1651876119,0
{consumergroup=__strimzi-topic-operator-kstreams},1651876124,0
{consumergroup=__strimzi-topic-operator-kstreams},1651876129,0
{consumergroup=__strimzi-topic-operator-kstreams},1651876134,0
{consumergroup=__strimzi-topic-operator-kstreams},1651876139,0
{consumergroup=__strimzi-topic-operator-kstreams},1651876144,0
{consumergroup=__strimzi-topic-operator-kstreams},1651876149,0
{consumergroup=__strimzi-topic-operator-kstreams},1651876154,0
{consumergroup=__strimzi-topic-operator-kstreams},1651876159,0
{consumergroup=__strimzi-topic-operator-kstreams},1651876164,0
{consumergroup=__strimzi-topic-operator-kstreams},1651876169,0
{consumergroup=__strimzi-topic-operator-kstreams},1651876174,0
{consumergroup=__strimzi-topic-operator-kstreams},1651876179,0
{consumergroup=__strimzi-topic-operator-kstreams},1651876184,0
{consumergroup=__strimzi-topic-operator-kstreams},1651876189,0
{consumergroup=__strimzi-topic-operator-kstreams},1651876194,0
{consumergroup=__strimzi-topic-operator-kstreams},1651876199,0
{consumergroup=__strimzi-topic-operator-kstreams},1651876204,0
{consumergroup=__strimzi-topic-operator-kstreams},1651876209,0
{consumergroup=__strimzi-topic-operator-kstreams},1651876214,0
{consumergroup=__strimzi-topic-operator-kstreams},1651876219,0
{consumergroup=__strimzi-topic-operator-kstreams},1651876224,0
{consumergroup=__strimzi-topic-operator-kstreams},1651876229,0
{consumergroup=__strimzi-topic-operator-kstreams},1651876234,0
{consumergroup=__strimzi-topic-operator-kstreams},1651876239,0
{consumergroup=__strimzi-topic-operator-kstreams},1651876244,0
{consumergroup=__strimzi-topic-operator-kstreams},1651876249,0
{consumergroup=__strimzi-topic-operator-kstreams},1651876254,0
{consumergroup=__strimzi-topic-operator-kstreams},1651876259,0
{consumergroup=__strimzi-topic-operator-kstreams},1651876264,0
{consumergroup=__strimzi-topic-operator-kstreams},1651876269,0
{consumergroup=__strimzi-topic-operator-kstreams},1651876274,0
{consumergroup=__strimzi-topic-operator-kstreams},1651876279,0
{consumergroup=__strimzi-topic-operator-kstreams},1651876284,0
{consumergroup=__strimzi-topic-operator-kstreams},1651876289,0
{consumergroup=__strimzi-topic-operator-kstreams},1651876294,0
{consumergroup=__strimzi-topic-operator-kstreams},1651876299,0
{consumergroup=__strimzi-topic-operator-kstreams},1651876304,0
{consumergroup=__strimzi-topic-operator-kstreams},1651876309,0
{consumergroup=__strimzi-topic-operator-kstreams},1651876314,0
{consumergroup=__strimzi-topic-operator-kstreams},1651876319,0
{consumergroup=__strimzi-topic-operator-kstreams},1651876324,0
{consumergroup=__strimzi-topic-operator-kstreams},1651876329,0
{consumergroup=__strimzi-topic-operator-kstreams},1651876334,0
{consumergroup=__strimzi-topic-operator-kstreams},1651876339,0
{consumergroup=__strimzi-topic-operator-kstreams},1651876344,0
{consumergroup=__strimzi-topic-operator-kstreams},1651876349,0
{consumergroup=adapter-service},1651876119,0
{consumergroup=adapter-service},1651876124,0
{consumergroup=adapter-service},1651876129,0
{consumergroup=adapter-service},1651876134,350365
{consumergroup=adapter-service},1651876139,350365
{consumergroup=adapter-service},1651876144,350365
{consumergroup=adapter-service},1651876149,569181
{consumergroup=adapter-service},1651876154,569181
{consumergroup=adapter-service},1651876159,569181
{consumergroup=adapter-service},1651876164,733402
{consumergroup=adapter-service},1651876169,733402
{consumergroup=adapter-service},1651876174,733402
{consumergroup=adapter-service},1651876179,860456
{consumergroup=adapter-service},1651876184,860456
{consumergroup=adapter-service},1651876189,860456
{consumergroup=adapter-service},1651876194,974552
{consumergroup=adapter-service},1651876199,974552
{consumergroup=adapter-service},1651876204,974552
{consumergroup=adapter-service},1651876209,1049127
{consumergroup=adapter-service},1651876214,1049127
{consumergroup=adapter-service},1651876219,1049127
{consumergroup=adapter-service},1651876224,1078398
{consumergroup=adapter-service},1651876229,1078398
{consumergroup=adapter-service},1651876234,1078398
{consumergroup=adapter-service},1651876239,1085320
{consumergroup=adapter-service},1651876244,1085320
{consumergroup=adapter-service},1651876249,1085320
{consumergroup=adapter-service},1651876254,1060969
{consumergroup=adapter-service},1651876259,1060969
{consumergroup=adapter-service},1651876264,1060969
{consumergroup=adapter-service},1651876269,1085388
{consumergroup=adapter-service},1651876274,1085388
{consumergroup=adapter-service},1651876279,1085388
{consumergroup=adapter-service},1651876284,1079603
{consumergroup=adapter-service},1651876289,1079603
{consumergroup=adapter-service},1651876294,1079603
{consumergroup=adapter-service},1651876299,1074233
{consumergroup=adapter-service},1651876304,1074233
{consumergroup=adapter-service},1651876309,1074233
{consumergroup=adapter-service},1651876314,1081399
{consumergroup=adapter-service},1651876319,1081399
{consumergroup=adapter-service},1651876324,1081399
{consumergroup=adapter-service},1651876329,1089779
{consumergroup=adapter-service},1651876334,1089779
{consumergroup=adapter-service},1651876339,1089779
{consumergroup=adapter-service},1651876344,1074178
{consumergroup=adapter-service},1651876349,1074178
