labels,timestamp,value
{job=theodolite-stu200776/combined-trace-podmonitor},1651946829,42.20387453360423
{job=theodolite-stu200776/combined-trace-podmonitor},1651946834,302.7259779521861
{job=theodolite-stu200776/combined-trace-podmonitor},1651946839,766.0233133973038
{job=theodolite-stu200776/combined-trace-podmonitor},1651946844,1072.6457230131011
{job=theodolite-stu200776/combined-trace-podmonitor},1651946849,1010.9281266801366
{job=theodolite-stu200776/combined-trace-podmonitor},1651946854,1051.3712278800554
{job=theodolite-stu200776/combined-trace-podmonitor},1651946859,1188.4228002189382
{job=theodolite-stu200776/combined-trace-podmonitor},1651946864,1568.4866410232237
{job=theodolite-stu200776/combined-trace-podmonitor},1651946869,1887.935875559964
{job=theodolite-stu200776/combined-trace-podmonitor},1651946874,1757.1587149511677
{job=theodolite-stu200776/combined-trace-podmonitor},1651946879,1547.7050797521258
{job=theodolite-stu200776/combined-trace-podmonitor},1651946884,1355.2589962430702
{job=theodolite-stu200776/combined-trace-podmonitor},1651946889,1209.3461707360234
{job=theodolite-stu200776/combined-trace-podmonitor},1651946894,823.1755703805201
{job=theodolite-stu200776/combined-trace-podmonitor},1651946899,397.591866567108
{job=theodolite-stu200776/combined-trace-podmonitor},1651946904,363.42508656275055
{job=theodolite-stu200776/combined-trace-podmonitor},1651946909,345.12907237979636
{job=theodolite-stu200776/combined-trace-podmonitor},1651946914,263.3100283201879
{job=theodolite-stu200776/combined-trace-podmonitor},1651946919,217.3199484726199
{job=theodolite-stu200776/combined-trace-podmonitor},1651946924,125.65027789429864
{job=theodolite-stu200776/combined-trace-podmonitor},1651946929,81.151884098347
{job=theodolite-stu200776/combined-trace-podmonitor},1651946934,10.794016769086303
{job=theodolite-stu200776/combined-trace-podmonitor},1651946939,0.5795152303944118
{job=theodolite-stu200776/combined-trace-podmonitor},1651946944,0.5055612342831558
{job=theodolite-stu200776/combined-trace-podmonitor},1651946949,0.1702945975681785
{job=theodolite-stu200776/combined-trace-podmonitor},1651946954,0
{job=theodolite-stu200776/combined-trace-podmonitor},1651946959,0
{job=theodolite-stu200776/combined-trace-podmonitor},1651946964,0
{job=theodolite-stu200776/combined-trace-podmonitor},1651946969,0
{job=theodolite-stu200776/combined-trace-podmonitor},1651946974,0
{job=theodolite-stu200776/combined-trace-podmonitor},1651946979,0
{job=theodolite-stu200776/combined-trace-podmonitor},1651946984,0
{job=theodolite-stu200776/combined-trace-podmonitor},1651946989,0
{job=theodolite-stu200776/combined-trace-podmonitor},1651946994,0
{job=theodolite-stu200776/combined-trace-podmonitor},1651946999,0
{job=theodolite-stu200776/combined-trace-podmonitor},1651947004,0
{job=theodolite-stu200776/combined-trace-podmonitor},1651947009,0
{job=theodolite-stu200776/combined-trace-podmonitor},1651947014,0
{job=theodolite-stu200776/combined-trace-podmonitor},1651947019,0
{job=theodolite-stu200776/combined-trace-podmonitor},1651947024,0
{job=theodolite-stu200776/combined-trace-podmonitor},1651947029,0
{job=theodolite-stu200776/combined-trace-podmonitor},1651947034,0
{job=theodolite-stu200776/combined-trace-podmonitor},1651947039,0
{job=theodolite-stu200776/combined-trace-podmonitor},1651947044,0
{job=theodolite-stu200776/combined-trace-podmonitor},1651947049,0
{job=theodolite-stu200776/combined-trace-podmonitor},1651947054,0
{job=theodolite-stu200776/combined-trace-podmonitor},1651947059,0
{job=theodolite-stu200776/combined-trace-podmonitor},1651947064,0
{job=theodolite-stu200776/combined-trace-podmonitor},1651947069,0
{job=theodolite-stu200776/combined-trace-podmonitor},1651947074,0
{job=theodolite-stu200776/combined-trace-podmonitor},1651947079,0
{job=theodolite-stu200776/combined-trace-podmonitor},1651947084,0
{job=theodolite-stu200776/combined-trace-podmonitor},1651947089,0
{job=theodolite-stu200776/combined-trace-podmonitor},1651947094,0
{job=theodolite-stu200776/combined-trace-podmonitor},1651947099,0
{job=theodolite-stu200776/combined-trace-podmonitor},1651947104,0
{job=theodolite-stu200776/combined-trace-podmonitor},1651947109,0
{job=theodolite-stu200776/combined-trace-podmonitor},1651947114,0
{job=theodolite-stu200776/combined-trace-podmonitor},1651947119,0
{job=theodolite-stu200776/combined-trace-podmonitor},1651947124,0
{job=theodolite-stu200776/combined-trace-podmonitor},1651947129,0
{job=theodolite-stu200776/combined-trace-podmonitor},1651947134,0
{job=theodolite-stu200776/combined-trace-podmonitor},1651947139,0
{job=theodolite-stu200776/combined-trace-podmonitor},1651947144,0
{job=theodolite-stu200776/combined-trace-podmonitor},1651947149,0
{job=theodolite-stu200776/combined-trace-podmonitor},1651947154,0
{job=theodolite-stu200776/combined-trace-podmonitor},1651947159,0
{job=theodolite-stu200776/combined-trace-podmonitor},1651947164,0
{job=theodolite-stu200776/combined-trace-podmonitor},1651947169,0
{job=theodolite-stu200776/combined-trace-podmonitor},1651947174,0
{job=theodolite-stu200776/combined-trace-podmonitor},1651947179,0
{job=theodolite-stu200776/combined-trace-podmonitor},1651947184,0
{job=theodolite-stu200776/combined-trace-podmonitor},1651947189,0
