labels,timestamp,value
{consumergroup=__strimzi-topic-operator-kstreams},1651983122,3
{consumergroup=__strimzi-topic-operator-kstreams},1651983127,3
{consumergroup=__strimzi-topic-operator-kstreams},1651983132,3
{consumergroup=__strimzi-topic-operator-kstreams},1651983137,0
{consumergroup=__strimzi-topic-operator-kstreams},1651983142,0
{consumergroup=__strimzi-topic-operator-kstreams},1651983147,0
{consumergroup=__strimzi-topic-operator-kstreams},1651983152,3
{consumergroup=__strimzi-topic-operator-kstreams},1651983157,3
{consumergroup=__strimzi-topic-operator-kstreams},1651983162,3
{consumergroup=__strimzi-topic-operator-kstreams},1651983167,0
{consumergroup=__strimzi-topic-operator-kstreams},1651983172,0
{consumergroup=__strimzi-topic-operator-kstreams},1651983177,0
{consumergroup=__strimzi-topic-operator-kstreams},1651983182,0
{consumergroup=__strimzi-topic-operator-kstreams},1651983187,0
{consumergroup=__strimzi-topic-operator-kstreams},1651983192,0
{consumergroup=__strimzi-topic-operator-kstreams},1651983197,0
{consumergroup=__strimzi-topic-operator-kstreams},1651983202,0
{consumergroup=__strimzi-topic-operator-kstreams},1651983207,0
{consumergroup=__strimzi-topic-operator-kstreams},1651983212,0
{consumergroup=__strimzi-topic-operator-kstreams},1651983217,0
{consumergroup=__strimzi-topic-operator-kstreams},1651983222,0
{consumergroup=__strimzi-topic-operator-kstreams},1651983227,0
{consumergroup=__strimzi-topic-operator-kstreams},1651983232,0
{consumergroup=__strimzi-topic-operator-kstreams},1651983237,0
{consumergroup=__strimzi-topic-operator-kstreams},1651983242,0
{consumergroup=__strimzi-topic-operator-kstreams},1651983247,0
{consumergroup=__strimzi-topic-operator-kstreams},1651983252,0
{consumergroup=__strimzi-topic-operator-kstreams},1651983257,0
{consumergroup=__strimzi-topic-operator-kstreams},1651983262,0
{consumergroup=__strimzi-topic-operator-kstreams},1651983267,0
{consumergroup=__strimzi-topic-operator-kstreams},1651983272,0
{consumergroup=__strimzi-topic-operator-kstreams},1651983277,0
{consumergroup=__strimzi-topic-operator-kstreams},1651983282,0
{consumergroup=__strimzi-topic-operator-kstreams},1651983287,0
{consumergroup=__strimzi-topic-operator-kstreams},1651983292,0
{consumergroup=__strimzi-topic-operator-kstreams},1651983297,0
{consumergroup=__strimzi-topic-operator-kstreams},1651983302,0
{consumergroup=__strimzi-topic-operator-kstreams},1651983307,0
{consumergroup=__strimzi-topic-operator-kstreams},1651983312,0
{consumergroup=__strimzi-topic-operator-kstreams},1651983317,0
{consumergroup=__strimzi-topic-operator-kstreams},1651983322,0
{consumergroup=__strimzi-topic-operator-kstreams},1651983327,0
{consumergroup=__strimzi-topic-operator-kstreams},1651983332,0
{consumergroup=__strimzi-topic-operator-kstreams},1651983337,0
{consumergroup=__strimzi-topic-operator-kstreams},1651983342,0
{consumergroup=__strimzi-topic-operator-kstreams},1651983347,0
{consumergroup=__strimzi-topic-operator-kstreams},1651983352,0
{consumergroup=__strimzi-topic-operator-kstreams},1651983357,0
{consumergroup=__strimzi-topic-operator-kstreams},1651983362,0
{consumergroup=__strimzi-topic-operator-kstreams},1651983367,0
{consumergroup=__strimzi-topic-operator-kstreams},1651983372,0
{consumergroup=__strimzi-topic-operator-kstreams},1651983377,0
{consumergroup=__strimzi-topic-operator-kstreams},1651983382,0
{consumergroup=__strimzi-topic-operator-kstreams},1651983387,0
{consumergroup=__strimzi-topic-operator-kstreams},1651983392,0
{consumergroup=__strimzi-topic-operator-kstreams},1651983397,0
{consumergroup=__strimzi-topic-operator-kstreams},1651983402,0
{consumergroup=__strimzi-topic-operator-kstreams},1651983407,0
{consumergroup=__strimzi-topic-operator-kstreams},1651983412,0
{consumergroup=__strimzi-topic-operator-kstreams},1651983417,0
{consumergroup=__strimzi-topic-operator-kstreams},1651983422,0
{consumergroup=__strimzi-topic-operator-kstreams},1651983427,0
{consumergroup=__strimzi-topic-operator-kstreams},1651983432,0
{consumergroup=__strimzi-topic-operator-kstreams},1651983437,0
{consumergroup=__strimzi-topic-operator-kstreams},1651983442,0
{consumergroup=__strimzi-topic-operator-kstreams},1651983447,0
{consumergroup=__strimzi-topic-operator-kstreams},1651983452,0
{consumergroup=__strimzi-topic-operator-kstreams},1651983457,0
{consumergroup=__strimzi-topic-operator-kstreams},1651983462,0
{consumergroup=__strimzi-topic-operator-kstreams},1651983467,0
{consumergroup=__strimzi-topic-operator-kstreams},1651983472,0
{consumergroup=__strimzi-topic-operator-kstreams},1651983477,0
{consumergroup=__strimzi-topic-operator-kstreams},1651983482,0
{consumergroup=__strimzi-topic-operator-kstreams},1651983487,0
{consumergroup=__strimzi-topic-operator-kstreams},1651983492,0
{consumergroup=__strimzi-topic-operator-kstreams},1651983497,0
{consumergroup=__strimzi-topic-operator-kstreams},1651983502,0
{consumergroup=__strimzi-topic-operator-kstreams},1651983507,0
{consumergroup=__strimzi-topic-operator-kstreams},1651983512,0
{consumergroup=__strimzi-topic-operator-kstreams},1651983517,0
{consumergroup=__strimzi-topic-operator-kstreams},1651983522,0
{consumergroup=__strimzi-topic-operator-kstreams},1651983527,0
{consumergroup=__strimzi-topic-operator-kstreams},1651983532,0
{consumergroup=__strimzi-topic-operator-kstreams},1651983537,0
{consumergroup=__strimzi-topic-operator-kstreams},1651983542,0
{consumergroup=__strimzi-topic-operator-kstreams},1651983547,0
{consumergroup=__strimzi-topic-operator-kstreams},1651983552,0
{consumergroup=__strimzi-topic-operator-kstreams},1651983557,0
{consumergroup=__strimzi-topic-operator-kstreams},1651983562,0
{consumergroup=__strimzi-topic-operator-kstreams},1651983567,0
{consumergroup=__strimzi-topic-operator-kstreams},1651983572,0
{consumergroup=adapter-service},1651983152,0
{consumergroup=adapter-service},1651983157,0
{consumergroup=adapter-service},1651983162,0
{consumergroup=adapter-service},1651983167,874
{consumergroup=adapter-service},1651983172,874
{consumergroup=adapter-service},1651983177,874
{consumergroup=adapter-service},1651983182,11557
{consumergroup=adapter-service},1651983187,11557
{consumergroup=adapter-service},1651983192,11557
{consumergroup=adapter-service},1651983197,9801
{consumergroup=adapter-service},1651983202,9801
{consumergroup=adapter-service},1651983207,9801
{consumergroup=adapter-service},1651983212,12579
{consumergroup=adapter-service},1651983217,12579
{consumergroup=adapter-service},1651983222,12579
{consumergroup=adapter-service},1651983227,9934
{consumergroup=adapter-service},1651983232,9934
{consumergroup=adapter-service},1651983237,9934
{consumergroup=adapter-service},1651983242,11821
{consumergroup=adapter-service},1651983247,11821
{consumergroup=adapter-service},1651983252,11821
{consumergroup=adapter-service},1651983257,8493
{consumergroup=adapter-service},1651983262,8493
{consumergroup=adapter-service},1651983267,8493
{consumergroup=adapter-service},1651983272,11305
{consumergroup=adapter-service},1651983277,11305
{consumergroup=adapter-service},1651983282,11305
{consumergroup=adapter-service},1651983287,8010
{consumergroup=adapter-service},1651983292,8010
{consumergroup=adapter-service},1651983297,8010
{consumergroup=adapter-service},1651983302,11294
{consumergroup=adapter-service},1651983307,11294
{consumergroup=adapter-service},1651983312,11294
{consumergroup=adapter-service},1651983317,7583
{consumergroup=adapter-service},1651983322,7583
{consumergroup=adapter-service},1651983327,7583
{consumergroup=adapter-service},1651983332,10732
{consumergroup=adapter-service},1651983337,10732
{consumergroup=adapter-service},1651983342,10732
{consumergroup=adapter-service},1651983347,7979
{consumergroup=adapter-service},1651983352,7979
{consumergroup=adapter-service},1651983357,7979
{consumergroup=adapter-service},1651983362,10098
{consumergroup=adapter-service},1651983367,10098
{consumergroup=adapter-service},1651983372,10098
{consumergroup=adapter-service},1651983377,6588
{consumergroup=adapter-service},1651983382,6588
{consumergroup=adapter-service},1651983387,6588
{consumergroup=adapter-service},1651983392,9430
{consumergroup=adapter-service},1651983397,9430
{consumergroup=adapter-service},1651983402,9430
{consumergroup=adapter-service},1651983407,6149
{consumergroup=adapter-service},1651983412,6149
{consumergroup=adapter-service},1651983417,6149
{consumergroup=adapter-service},1651983422,8998
{consumergroup=adapter-service},1651983427,8998
{consumergroup=adapter-service},1651983432,8998
{consumergroup=adapter-service},1651983437,6591
{consumergroup=adapter-service},1651983442,6591
{consumergroup=adapter-service},1651983447,6591
{consumergroup=adapter-service},1651983452,8376
{consumergroup=adapter-service},1651983457,8376
{consumergroup=adapter-service},1651983462,8376
{consumergroup=adapter-service},1651983467,5185
{consumergroup=adapter-service},1651983472,5185
{consumergroup=adapter-service},1651983477,5185
{consumergroup=adapter-service},1651983482,8004
{consumergroup=adapter-service},1651983487,8004
{consumergroup=adapter-service},1651983492,8004
{consumergroup=adapter-service},1651983497,4809
{consumergroup=adapter-service},1651983502,4809
{consumergroup=adapter-service},1651983507,4809
{consumergroup=adapter-service},1651983512,7599
{consumergroup=adapter-service},1651983517,7599
{consumergroup=adapter-service},1651983522,7599
{consumergroup=adapter-service},1651983527,7181
{consumergroup=adapter-service},1651983532,7181
{consumergroup=adapter-service},1651983537,7181
{consumergroup=adapter-service},1651983542,7153
{consumergroup=adapter-service},1651983547,7153
{consumergroup=adapter-service},1651983552,7153
{consumergroup=adapter-service},1651983557,3786
{consumergroup=adapter-service},1651983562,3786
{consumergroup=adapter-service},1651983567,3786
{consumergroup=adapter-service},1651983572,6567
{consumergroup=landscape-service},1651983182,8710
{consumergroup=landscape-service},1651983187,8710
{consumergroup=landscape-service},1651983192,8710
{consumergroup=landscape-service},1651983197,5223
{consumergroup=landscape-service},1651983202,5223
{consumergroup=landscape-service},1651983207,5223
{consumergroup=landscape-service},1651983212,8907
{consumergroup=landscape-service},1651983217,8907
{consumergroup=landscape-service},1651983222,8907
{consumergroup=landscape-service},1651983227,5708
{consumergroup=landscape-service},1651983232,5708
{consumergroup=landscape-service},1651983237,5708
{consumergroup=landscape-service},1651983242,8492
{consumergroup=landscape-service},1651983247,8492
{consumergroup=landscape-service},1651983252,8492
{consumergroup=landscape-service},1651983257,5419
{consumergroup=landscape-service},1651983262,5419
{consumergroup=landscape-service},1651983267,5419
{consumergroup=landscape-service},1651983272,7582
{consumergroup=landscape-service},1651983277,7582
{consumergroup=landscape-service},1651983282,7582
{consumergroup=landscape-service},1651983287,4391
{consumergroup=landscape-service},1651983292,4391
{consumergroup=landscape-service},1651983297,4391
{consumergroup=landscape-service},1651983302,7311
{consumergroup=landscape-service},1651983307,7311
{consumergroup=landscape-service},1651983312,7311
{consumergroup=landscape-service},1651983317,4229
{consumergroup=landscape-service},1651983322,4229
{consumergroup=landscape-service},1651983327,4229
{consumergroup=landscape-service},1651983332,7255
{consumergroup=landscape-service},1651983337,7255
{consumergroup=landscape-service},1651983342,7255
{consumergroup=landscape-service},1651983347,4026
{consumergroup=landscape-service},1651983352,4026
{consumergroup=landscape-service},1651983357,4026
{consumergroup=landscape-service},1651983362,6948
{consumergroup=landscape-service},1651983367,6948
{consumergroup=landscape-service},1651983372,6948
{consumergroup=landscape-service},1651983377,3712
{consumergroup=landscape-service},1651983382,3712
{consumergroup=landscape-service},1651983387,3712
{consumergroup=landscape-service},1651983392,6761
{consumergroup=landscape-service},1651983397,6761
{consumergroup=landscape-service},1651983402,6761
{consumergroup=landscape-service},1651983407,3507
{consumergroup=landscape-service},1651983412,3507
{consumergroup=landscape-service},1651983417,3507
{consumergroup=landscape-service},1651983422,6674
{consumergroup=landscape-service},1651983427,6674
{consumergroup=landscape-service},1651983432,6674
{consumergroup=landscape-service},1651983437,3343
{consumergroup=landscape-service},1651983442,3343
{consumergroup=landscape-service},1651983447,3343
{consumergroup=landscape-service},1651983452,6954
{consumergroup=landscape-service},1651983457,6954
{consumergroup=landscape-service},1651983462,6954
{consumergroup=landscape-service},1651983467,3253
{consumergroup=landscape-service},1651983472,3253
{consumergroup=landscape-service},1651983477,3253
{consumergroup=landscape-service},1651983482,6145
{consumergroup=landscape-service},1651983487,6145
{consumergroup=landscape-service},1651983492,6145
{consumergroup=landscape-service},1651983497,3871
{consumergroup=landscape-service},1651983502,3871
{consumergroup=landscape-service},1651983507,3871
{consumergroup=landscape-service},1651983512,6309
{consumergroup=landscape-service},1651983517,6309
{consumergroup=landscape-service},1651983522,6309
{consumergroup=landscape-service},1651983527,5975
{consumergroup=landscape-service},1651983532,5975
{consumergroup=landscape-service},1651983537,5975
{consumergroup=landscape-service},1651983542,6546
{consumergroup=landscape-service},1651983547,6546
{consumergroup=landscape-service},1651983552,6546
{consumergroup=landscape-service},1651983557,2724
{consumergroup=landscape-service},1651983562,2724
{consumergroup=landscape-service},1651983567,2724
{consumergroup=landscape-service},1651983572,5673
{consumergroup=landscape-token-events-consumer},1651983167,0
{consumergroup=landscape-token-events-consumer},1651983172,0
{consumergroup=landscape-token-events-consumer},1651983177,0
{consumergroup=landscape-token-events-consumer},1651983182,0
{consumergroup=landscape-token-events-consumer},1651983187,0
{consumergroup=landscape-token-events-consumer},1651983192,0
{consumergroup=landscape-token-events-consumer},1651983197,0
{consumergroup=landscape-token-events-consumer},1651983202,0
{consumergroup=landscape-token-events-consumer},1651983207,0
{consumergroup=landscape-token-events-consumer},1651983212,0
{consumergroup=landscape-token-events-consumer},1651983217,0
{consumergroup=landscape-token-events-consumer},1651983222,0
{consumergroup=landscape-token-events-consumer},1651983227,0
{consumergroup=landscape-token-events-consumer},1651983232,0
{consumergroup=landscape-token-events-consumer},1651983237,0
{consumergroup=landscape-token-events-consumer},1651983242,0
{consumergroup=landscape-token-events-consumer},1651983247,0
{consumergroup=landscape-token-events-consumer},1651983252,0
{consumergroup=landscape-token-events-consumer},1651983257,0
{consumergroup=landscape-token-events-consumer},1651983262,0
{consumergroup=landscape-token-events-consumer},1651983267,0
{consumergroup=landscape-token-events-consumer},1651983272,0
{consumergroup=landscape-token-events-consumer},1651983277,0
{consumergroup=landscape-token-events-consumer},1651983282,0
{consumergroup=landscape-token-events-consumer},1651983287,0
{consumergroup=landscape-token-events-consumer},1651983292,0
{consumergroup=landscape-token-events-consumer},1651983297,0
{consumergroup=landscape-token-events-consumer},1651983302,0
{consumergroup=landscape-token-events-consumer},1651983307,0
{consumergroup=landscape-token-events-consumer},1651983312,0
{consumergroup=landscape-token-events-consumer},1651983317,0
{consumergroup=landscape-token-events-consumer},1651983322,0
{consumergroup=landscape-token-events-consumer},1651983327,0
{consumergroup=landscape-token-events-consumer},1651983332,0
{consumergroup=landscape-token-events-consumer},1651983337,0
{consumergroup=landscape-token-events-consumer},1651983342,0
{consumergroup=landscape-token-events-consumer},1651983347,0
{consumergroup=landscape-token-events-consumer},1651983352,0
{consumergroup=landscape-token-events-consumer},1651983357,0
{consumergroup=landscape-token-events-consumer},1651983362,0
{consumergroup=landscape-token-events-consumer},1651983367,0
{consumergroup=landscape-token-events-consumer},1651983372,0
{consumergroup=landscape-token-events-consumer},1651983377,0
{consumergroup=landscape-token-events-consumer},1651983382,0
{consumergroup=landscape-token-events-consumer},1651983387,0
{consumergroup=landscape-token-events-consumer},1651983392,0
{consumergroup=landscape-token-events-consumer},1651983397,0
{consumergroup=landscape-token-events-consumer},1651983402,0
{consumergroup=landscape-token-events-consumer},1651983407,0
{consumergroup=landscape-token-events-consumer},1651983412,0
{consumergroup=landscape-token-events-consumer},1651983417,0
{consumergroup=landscape-token-events-consumer},1651983422,0
{consumergroup=landscape-token-events-consumer},1651983427,0
{consumergroup=landscape-token-events-consumer},1651983432,0
{consumergroup=landscape-token-events-consumer},1651983437,0
{consumergroup=landscape-token-events-consumer},1651983442,0
{consumergroup=landscape-token-events-consumer},1651983447,0
{consumergroup=landscape-token-events-consumer},1651983452,0
{consumergroup=landscape-token-events-consumer},1651983457,0
{consumergroup=landscape-token-events-consumer},1651983462,0
{consumergroup=landscape-token-events-consumer},1651983467,0
{consumergroup=landscape-token-events-consumer},1651983472,0
{consumergroup=landscape-token-events-consumer},1651983477,0
{consumergroup=landscape-token-events-consumer},1651983482,0
{consumergroup=landscape-token-events-consumer},1651983487,0
{consumergroup=landscape-token-events-consumer},1651983492,0
{consumergroup=landscape-token-events-consumer},1651983497,0
{consumergroup=landscape-token-events-consumer},1651983502,0
{consumergroup=landscape-token-events-consumer},1651983507,0
{consumergroup=landscape-token-events-consumer},1651983512,0
{consumergroup=landscape-token-events-consumer},1651983517,0
{consumergroup=landscape-token-events-consumer},1651983522,0
{consumergroup=landscape-token-events-consumer},1651983527,0
{consumergroup=landscape-token-events-consumer},1651983532,0
{consumergroup=landscape-token-events-consumer},1651983537,0
{consumergroup=landscape-token-events-consumer},1651983542,0
{consumergroup=landscape-token-events-consumer},1651983547,0
{consumergroup=landscape-token-events-consumer},1651983552,0
{consumergroup=landscape-token-events-consumer},1651983557,0
{consumergroup=landscape-token-events-consumer},1651983562,0
{consumergroup=landscape-token-events-consumer},1651983567,0
{consumergroup=landscape-token-events-consumer},1651983572,0
{consumergroup=trace-service},1651983167,466
{consumergroup=trace-service},1651983172,466
{consumergroup=trace-service},1651983177,466
{consumergroup=trace-service},1651983182,20728
{consumergroup=trace-service},1651983187,20728
{consumergroup=trace-service},1651983192,20728
{consumergroup=trace-service},1651983197,56792
{consumergroup=trace-service},1651983202,56792
{consumergroup=trace-service},1651983207,56792
{consumergroup=trace-service},1651983212,88615
{consumergroup=trace-service},1651983217,88615
{consumergroup=trace-service},1651983222,88615
{consumergroup=trace-service},1651983227,42302
{consumergroup=trace-service},1651983232,42302
{consumergroup=trace-service},1651983237,42302
{consumergroup=trace-service},1651983242,18428
{consumergroup=trace-service},1651983247,18428
{consumergroup=trace-service},1651983252,18428
{consumergroup=trace-service},1651983257,37803
{consumergroup=trace-service},1651983262,37803
{consumergroup=trace-service},1651983267,37803
{consumergroup=trace-service},1651983272,19140
{consumergroup=trace-service},1651983277,19140
{consumergroup=trace-service},1651983282,19140
{consumergroup=trace-service},1651983287,48670
{consumergroup=trace-service},1651983292,48670
{consumergroup=trace-service},1651983297,48670
{consumergroup=trace-service},1651983302,14689
{consumergroup=trace-service},1651983307,14689
{consumergroup=trace-service},1651983312,14689
{consumergroup=trace-service},1651983317,52066
{consumergroup=trace-service},1651983322,52066
{consumergroup=trace-service},1651983327,52066
{consumergroup=trace-service},1651983332,9101
{consumergroup=trace-service},1651983337,9101
{consumergroup=trace-service},1651983342,9101
{consumergroup=trace-service},1651983347,37448
{consumergroup=trace-service},1651983352,37448
{consumergroup=trace-service},1651983357,37448
{consumergroup=trace-service},1651983362,13741
{consumergroup=trace-service},1651983367,13741
{consumergroup=trace-service},1651983372,13741
{consumergroup=trace-service},1651983377,46770
{consumergroup=trace-service},1651983382,46770
{consumergroup=trace-service},1651983387,46770
{consumergroup=trace-service},1651983392,17025
{consumergroup=trace-service},1651983397,17025
{consumergroup=trace-service},1651983402,17025
{consumergroup=trace-service},1651983407,44920
{consumergroup=trace-service},1651983412,44920
{consumergroup=trace-service},1651983417,44920
{consumergroup=trace-service},1651983422,18587
{consumergroup=trace-service},1651983427,18587
{consumergroup=trace-service},1651983432,18587
{consumergroup=trace-service},1651983437,46564
{consumergroup=trace-service},1651983442,46564
{consumergroup=trace-service},1651983447,46564
{consumergroup=trace-service},1651983452,96784
{consumergroup=trace-service},1651983457,96784
{consumergroup=trace-service},1651983462,96784
{consumergroup=trace-service},1651983467,36770
{consumergroup=trace-service},1651983472,36770
{consumergroup=trace-service},1651983477,36770
{consumergroup=trace-service},1651983482,18475
{consumergroup=trace-service},1651983487,18475
{consumergroup=trace-service},1651983492,18475
{consumergroup=trace-service},1651983497,52172
{consumergroup=trace-service},1651983502,52172
{consumergroup=trace-service},1651983507,52172
{consumergroup=trace-service},1651983512,12998
{consumergroup=trace-service},1651983517,12998
{consumergroup=trace-service},1651983522,12998
{consumergroup=trace-service},1651983527,49986
{consumergroup=trace-service},1651983532,49986
{consumergroup=trace-service},1651983537,49986
{consumergroup=trace-service},1651983542,8853
{consumergroup=trace-service},1651983547,8853
{consumergroup=trace-service},1651983552,8853
{consumergroup=trace-service},1651983557,39210
{consumergroup=trace-service},1651983562,39210
{consumergroup=trace-service},1651983567,39210
{consumergroup=trace-service},1651983572,8398
{consumergroup=trace-token-events-consumer},1651983167,0
{consumergroup=trace-token-events-consumer},1651983172,0
{consumergroup=trace-token-events-consumer},1651983177,0
{consumergroup=trace-token-events-consumer},1651983182,0
{consumergroup=trace-token-events-consumer},1651983187,0
{consumergroup=trace-token-events-consumer},1651983192,0
{consumergroup=trace-token-events-consumer},1651983197,0
{consumergroup=trace-token-events-consumer},1651983202,0
{consumergroup=trace-token-events-consumer},1651983207,0
{consumergroup=trace-token-events-consumer},1651983212,0
{consumergroup=trace-token-events-consumer},1651983217,0
{consumergroup=trace-token-events-consumer},1651983222,0
{consumergroup=trace-token-events-consumer},1651983227,0
{consumergroup=trace-token-events-consumer},1651983232,0
{consumergroup=trace-token-events-consumer},1651983237,0
{consumergroup=trace-token-events-consumer},1651983242,0
{consumergroup=trace-token-events-consumer},1651983247,0
{consumergroup=trace-token-events-consumer},1651983252,0
{consumergroup=trace-token-events-consumer},1651983257,0
{consumergroup=trace-token-events-consumer},1651983262,0
{consumergroup=trace-token-events-consumer},1651983267,0
{consumergroup=trace-token-events-consumer},1651983272,0
{consumergroup=trace-token-events-consumer},1651983277,0
{consumergroup=trace-token-events-consumer},1651983282,0
{consumergroup=trace-token-events-consumer},1651983287,0
{consumergroup=trace-token-events-consumer},1651983292,0
{consumergroup=trace-token-events-consumer},1651983297,0
{consumergroup=trace-token-events-consumer},1651983302,0
{consumergroup=trace-token-events-consumer},1651983307,0
{consumergroup=trace-token-events-consumer},1651983312,0
{consumergroup=trace-token-events-consumer},1651983317,0
{consumergroup=trace-token-events-consumer},1651983322,0
{consumergroup=trace-token-events-consumer},1651983327,0
{consumergroup=trace-token-events-consumer},1651983332,0
{consumergroup=trace-token-events-consumer},1651983337,0
{consumergroup=trace-token-events-consumer},1651983342,0
{consumergroup=trace-token-events-consumer},1651983347,0
{consumergroup=trace-token-events-consumer},1651983352,0
{consumergroup=trace-token-events-consumer},1651983357,0
{consumergroup=trace-token-events-consumer},1651983362,0
{consumergroup=trace-token-events-consumer},1651983367,0
{consumergroup=trace-token-events-consumer},1651983372,0
{consumergroup=trace-token-events-consumer},1651983377,0
{consumergroup=trace-token-events-consumer},1651983382,0
{consumergroup=trace-token-events-consumer},1651983387,0
{consumergroup=trace-token-events-consumer},1651983392,0
{consumergroup=trace-token-events-consumer},1651983397,0
{consumergroup=trace-token-events-consumer},1651983402,0
{consumergroup=trace-token-events-consumer},1651983407,0
{consumergroup=trace-token-events-consumer},1651983412,0
{consumergroup=trace-token-events-consumer},1651983417,0
{consumergroup=trace-token-events-consumer},1651983422,0
{consumergroup=trace-token-events-consumer},1651983427,0
{consumergroup=trace-token-events-consumer},1651983432,0
{consumergroup=trace-token-events-consumer},1651983437,0
{consumergroup=trace-token-events-consumer},1651983442,0
{consumergroup=trace-token-events-consumer},1651983447,0
{consumergroup=trace-token-events-consumer},1651983452,0
{consumergroup=trace-token-events-consumer},1651983457,0
{consumergroup=trace-token-events-consumer},1651983462,0
{consumergroup=trace-token-events-consumer},1651983467,0
{consumergroup=trace-token-events-consumer},1651983472,0
{consumergroup=trace-token-events-consumer},1651983477,0
{consumergroup=trace-token-events-consumer},1651983482,0
{consumergroup=trace-token-events-consumer},1651983487,0
{consumergroup=trace-token-events-consumer},1651983492,0
{consumergroup=trace-token-events-consumer},1651983497,0
{consumergroup=trace-token-events-consumer},1651983502,0
{consumergroup=trace-token-events-consumer},1651983507,0
{consumergroup=trace-token-events-consumer},1651983512,0
{consumergroup=trace-token-events-consumer},1651983517,0
{consumergroup=trace-token-events-consumer},1651983522,0
{consumergroup=trace-token-events-consumer},1651983527,0
{consumergroup=trace-token-events-consumer},1651983532,0
{consumergroup=trace-token-events-consumer},1651983537,0
{consumergroup=trace-token-events-consumer},1651983542,0
{consumergroup=trace-token-events-consumer},1651983547,0
{consumergroup=trace-token-events-consumer},1651983552,0
{consumergroup=trace-token-events-consumer},1651983557,0
{consumergroup=trace-token-events-consumer},1651983562,0
{consumergroup=trace-token-events-consumer},1651983567,0
{consumergroup=trace-token-events-consumer},1651983572,0
