labels,timestamp,value
{consumergroup=__strimzi-topic-operator-kstreams},1651956135,9
{consumergroup=__strimzi-topic-operator-kstreams},1651956140,9
{consumergroup=__strimzi-topic-operator-kstreams},1651956145,9
{consumergroup=__strimzi-topic-operator-kstreams},1651956150,3
{consumergroup=__strimzi-topic-operator-kstreams},1651956155,3
{consumergroup=__strimzi-topic-operator-kstreams},1651956160,3
{consumergroup=__strimzi-topic-operator-kstreams},1651956165,3
{consumergroup=__strimzi-topic-operator-kstreams},1651956170,3
{consumergroup=__strimzi-topic-operator-kstreams},1651956175,3
{consumergroup=__strimzi-topic-operator-kstreams},1651956180,0
{consumergroup=__strimzi-topic-operator-kstreams},1651956185,0
{consumergroup=__strimzi-topic-operator-kstreams},1651956190,0
{consumergroup=__strimzi-topic-operator-kstreams},1651956195,0
{consumergroup=__strimzi-topic-operator-kstreams},1651956200,0
{consumergroup=__strimzi-topic-operator-kstreams},1651956205,0
{consumergroup=__strimzi-topic-operator-kstreams},1651956210,0
{consumergroup=__strimzi-topic-operator-kstreams},1651956215,0
{consumergroup=__strimzi-topic-operator-kstreams},1651956220,0
{consumergroup=__strimzi-topic-operator-kstreams},1651956225,0
{consumergroup=__strimzi-topic-operator-kstreams},1651956230,0
{consumergroup=__strimzi-topic-operator-kstreams},1651956235,0
{consumergroup=__strimzi-topic-operator-kstreams},1651956240,0
{consumergroup=__strimzi-topic-operator-kstreams},1651956245,0
{consumergroup=__strimzi-topic-operator-kstreams},1651956250,0
{consumergroup=__strimzi-topic-operator-kstreams},1651956255,0
{consumergroup=__strimzi-topic-operator-kstreams},1651956260,0
{consumergroup=__strimzi-topic-operator-kstreams},1651956265,0
{consumergroup=__strimzi-topic-operator-kstreams},1651956270,0
{consumergroup=__strimzi-topic-operator-kstreams},1651956275,0
{consumergroup=__strimzi-topic-operator-kstreams},1651956280,0
{consumergroup=__strimzi-topic-operator-kstreams},1651956285,0
{consumergroup=__strimzi-topic-operator-kstreams},1651956290,0
{consumergroup=__strimzi-topic-operator-kstreams},1651956295,0
{consumergroup=__strimzi-topic-operator-kstreams},1651956300,0
{consumergroup=__strimzi-topic-operator-kstreams},1651956305,0
{consumergroup=__strimzi-topic-operator-kstreams},1651956310,0
{consumergroup=__strimzi-topic-operator-kstreams},1651956315,0
{consumergroup=__strimzi-topic-operator-kstreams},1651956320,0
{consumergroup=__strimzi-topic-operator-kstreams},1651956325,0
{consumergroup=__strimzi-topic-operator-kstreams},1651956330,0
{consumergroup=__strimzi-topic-operator-kstreams},1651956335,0
{consumergroup=__strimzi-topic-operator-kstreams},1651956340,0
{consumergroup=__strimzi-topic-operator-kstreams},1651956345,0
{consumergroup=__strimzi-topic-operator-kstreams},1651956350,0
{consumergroup=__strimzi-topic-operator-kstreams},1651956355,0
{consumergroup=__strimzi-topic-operator-kstreams},1651956360,0
{consumergroup=__strimzi-topic-operator-kstreams},1651956365,0
{consumergroup=__strimzi-topic-operator-kstreams},1651956370,0
{consumergroup=__strimzi-topic-operator-kstreams},1651956375,0
{consumergroup=__strimzi-topic-operator-kstreams},1651956380,0
{consumergroup=__strimzi-topic-operator-kstreams},1651956385,0
{consumergroup=__strimzi-topic-operator-kstreams},1651956390,0
{consumergroup=__strimzi-topic-operator-kstreams},1651956395,0
{consumergroup=__strimzi-topic-operator-kstreams},1651956400,0
{consumergroup=__strimzi-topic-operator-kstreams},1651956405,0
{consumergroup=__strimzi-topic-operator-kstreams},1651956410,0
{consumergroup=__strimzi-topic-operator-kstreams},1651956415,0
{consumergroup=__strimzi-topic-operator-kstreams},1651956420,0
{consumergroup=__strimzi-topic-operator-kstreams},1651956425,0
{consumergroup=__strimzi-topic-operator-kstreams},1651956430,0
{consumergroup=__strimzi-topic-operator-kstreams},1651956435,0
{consumergroup=__strimzi-topic-operator-kstreams},1651956440,0
{consumergroup=__strimzi-topic-operator-kstreams},1651956445,0
{consumergroup=__strimzi-topic-operator-kstreams},1651956450,0
{consumergroup=__strimzi-topic-operator-kstreams},1651956455,0
{consumergroup=__strimzi-topic-operator-kstreams},1651956460,0
{consumergroup=__strimzi-topic-operator-kstreams},1651956465,0
{consumergroup=__strimzi-topic-operator-kstreams},1651956470,0
{consumergroup=__strimzi-topic-operator-kstreams},1651956475,0
{consumergroup=__strimzi-topic-operator-kstreams},1651956480,0
{consumergroup=__strimzi-topic-operator-kstreams},1651956485,0
{consumergroup=__strimzi-topic-operator-kstreams},1651956490,0
{consumergroup=__strimzi-topic-operator-kstreams},1651956495,0
{consumergroup=__strimzi-topic-operator-kstreams},1651956500,0
{consumergroup=__strimzi-topic-operator-kstreams},1651956505,0
{consumergroup=__strimzi-topic-operator-kstreams},1651956510,0
{consumergroup=__strimzi-topic-operator-kstreams},1651956515,0
{consumergroup=__strimzi-topic-operator-kstreams},1651956520,0
{consumergroup=__strimzi-topic-operator-kstreams},1651956525,0
{consumergroup=__strimzi-topic-operator-kstreams},1651956530,0
{consumergroup=__strimzi-topic-operator-kstreams},1651956535,0
{consumergroup=__strimzi-topic-operator-kstreams},1651956540,0
{consumergroup=__strimzi-topic-operator-kstreams},1651956545,0
{consumergroup=__strimzi-topic-operator-kstreams},1651956550,0
{consumergroup=__strimzi-topic-operator-kstreams},1651956555,0
{consumergroup=__strimzi-topic-operator-kstreams},1651956560,0
{consumergroup=__strimzi-topic-operator-kstreams},1651956565,0
{consumergroup=__strimzi-topic-operator-kstreams},1651956570,0
{consumergroup=__strimzi-topic-operator-kstreams},1651956575,0
{consumergroup=__strimzi-topic-operator-kstreams},1651956580,0
{consumergroup=__strimzi-topic-operator-kstreams},1651956585,0
{consumergroup=adapter-service},1651956165,0
{consumergroup=adapter-service},1651956170,0
{consumergroup=adapter-service},1651956175,0
{consumergroup=adapter-service},1651956180,5462
{consumergroup=adapter-service},1651956185,5462
{consumergroup=adapter-service},1651956190,5462
{consumergroup=adapter-service},1651956195,9309
{consumergroup=adapter-service},1651956200,9309
{consumergroup=adapter-service},1651956205,9309
{consumergroup=adapter-service},1651956210,8622
{consumergroup=adapter-service},1651956215,8622
{consumergroup=adapter-service},1651956220,8622
{consumergroup=adapter-service},1651956225,12387
{consumergroup=adapter-service},1651956230,12387
{consumergroup=adapter-service},1651956235,12387
{consumergroup=adapter-service},1651956240,4554
{consumergroup=adapter-service},1651956245,4554
{consumergroup=adapter-service},1651956250,4554
{consumergroup=adapter-service},1651956255,7489
{consumergroup=adapter-service},1651956260,7489
{consumergroup=adapter-service},1651956265,7489
{consumergroup=adapter-service},1651956270,3014
{consumergroup=adapter-service},1651956275,3014
{consumergroup=adapter-service},1651956280,3014
{consumergroup=adapter-service},1651956285,7056
{consumergroup=adapter-service},1651956290,7056
{consumergroup=adapter-service},1651956295,7056
{consumergroup=adapter-service},1651956300,2275
{consumergroup=adapter-service},1651956305,2275
{consumergroup=adapter-service},1651956310,2275
{consumergroup=adapter-service},1651956315,6138
{consumergroup=adapter-service},1651956320,6138
{consumergroup=adapter-service},1651956325,6138
{consumergroup=adapter-service},1651956330,1633
{consumergroup=adapter-service},1651956335,1633
{consumergroup=adapter-service},1651956340,1633
{consumergroup=adapter-service},1651956345,5995
{consumergroup=adapter-service},1651956350,5995
{consumergroup=adapter-service},1651956355,5995
{consumergroup=adapter-service},1651956360,938
{consumergroup=adapter-service},1651956365,938
{consumergroup=adapter-service},1651956370,938
{consumergroup=adapter-service},1651956375,5018
{consumergroup=adapter-service},1651956380,5018
{consumergroup=adapter-service},1651956385,5018
{consumergroup=adapter-service},1651956390,752
{consumergroup=adapter-service},1651956395,752
{consumergroup=adapter-service},1651956400,752
{consumergroup=adapter-service},1651956405,4382
{consumergroup=adapter-service},1651956410,4382
{consumergroup=adapter-service},1651956415,4382
{consumergroup=adapter-service},1651956420,3517
{consumergroup=adapter-service},1651956425,3517
{consumergroup=adapter-service},1651956430,3517
{consumergroup=adapter-service},1651956435,4838
{consumergroup=adapter-service},1651956440,4838
{consumergroup=adapter-service},1651956445,4838
{consumergroup=adapter-service},1651956450,3846
{consumergroup=adapter-service},1651956455,3846
{consumergroup=adapter-service},1651956460,3846
{consumergroup=adapter-service},1651956465,2973
{consumergroup=adapter-service},1651956470,2973
{consumergroup=adapter-service},1651956475,2973
{consumergroup=adapter-service},1651956480,3366
{consumergroup=adapter-service},1651956485,3366
{consumergroup=adapter-service},1651956490,3366
{consumergroup=adapter-service},1651956495,2376
{consumergroup=adapter-service},1651956500,2376
{consumergroup=adapter-service},1651956505,2376
{consumergroup=adapter-service},1651956510,16569
{consumergroup=adapter-service},1651956515,16569
{consumergroup=adapter-service},1651956520,16569
{consumergroup=adapter-service},1651956525,1785
{consumergroup=adapter-service},1651956530,1785
{consumergroup=adapter-service},1651956535,1785
{consumergroup=adapter-service},1651956540,20382
{consumergroup=adapter-service},1651956545,20382
{consumergroup=adapter-service},1651956550,20382
{consumergroup=adapter-service},1651956555,1293
{consumergroup=adapter-service},1651956560,1293
{consumergroup=adapter-service},1651956565,1293
{consumergroup=adapter-service},1651956570,19694
{consumergroup=adapter-service},1651956575,19694
{consumergroup=adapter-service},1651956580,19694
{consumergroup=adapter-service},1651956585,18891
{consumergroup=landscape-service},1651956180,8136
{consumergroup=landscape-service},1651956185,8136
{consumergroup=landscape-service},1651956190,8136
{consumergroup=landscape-service},1651956195,13697
{consumergroup=landscape-service},1651956200,13697
{consumergroup=landscape-service},1651956205,13697
{consumergroup=landscape-service},1651956210,13361
{consumergroup=landscape-service},1651956215,13361
{consumergroup=landscape-service},1651956220,13361
{consumergroup=landscape-service},1651956225,18869
{consumergroup=landscape-service},1651956230,18869
{consumergroup=landscape-service},1651956235,18869
{consumergroup=landscape-service},1651956240,8944
{consumergroup=landscape-service},1651956245,8944
{consumergroup=landscape-service},1651956250,8944
{consumergroup=landscape-service},1651956255,14303
{consumergroup=landscape-service},1651956260,14303
{consumergroup=landscape-service},1651956265,14303
{consumergroup=landscape-service},1651956270,8722
{consumergroup=landscape-service},1651956275,8722
{consumergroup=landscape-service},1651956280,8722
{consumergroup=landscape-service},1651956285,14394
{consumergroup=landscape-service},1651956290,14394
{consumergroup=landscape-service},1651956295,14394
{consumergroup=landscape-service},1651956300,9733
{consumergroup=landscape-service},1651956305,9733
{consumergroup=landscape-service},1651956310,9733
{consumergroup=landscape-service},1651956315,13906
{consumergroup=landscape-service},1651956320,13906
{consumergroup=landscape-service},1651956325,13906
{consumergroup=landscape-service},1651956330,8399
{consumergroup=landscape-service},1651956335,8399
{consumergroup=landscape-service},1651956340,8399
{consumergroup=landscape-service},1651956345,12792
{consumergroup=landscape-service},1651956350,12792
{consumergroup=landscape-service},1651956355,12792
{consumergroup=landscape-service},1651956360,8080
{consumergroup=landscape-service},1651956365,8080
{consumergroup=landscape-service},1651956370,8080
{consumergroup=landscape-service},1651956375,12388
{consumergroup=landscape-service},1651956380,12388
{consumergroup=landscape-service},1651956385,12388
{consumergroup=landscape-service},1651956390,7964
{consumergroup=landscape-service},1651956395,7964
{consumergroup=landscape-service},1651956400,7964
{consumergroup=landscape-service},1651956405,12330
{consumergroup=landscape-service},1651956410,12330
{consumergroup=landscape-service},1651956415,12330
{consumergroup=landscape-service},1651956420,7773
{consumergroup=landscape-service},1651956425,7773
{consumergroup=landscape-service},1651956430,7773
{consumergroup=landscape-service},1651956435,12359
{consumergroup=landscape-service},1651956440,12359
{consumergroup=landscape-service},1651956445,12359
{consumergroup=landscape-service},1651956450,7700
{consumergroup=landscape-service},1651956455,7700
{consumergroup=landscape-service},1651956460,7700
{consumergroup=landscape-service},1651956465,11844
{consumergroup=landscape-service},1651956470,11844
{consumergroup=landscape-service},1651956475,11844
{consumergroup=landscape-service},1651956480,7463
{consumergroup=landscape-service},1651956485,7463
{consumergroup=landscape-service},1651956490,7463
{consumergroup=landscape-service},1651956495,11632
{consumergroup=landscape-service},1651956500,11632
{consumergroup=landscape-service},1651956505,11632
{consumergroup=landscape-service},1651956510,7398
{consumergroup=landscape-service},1651956515,7398
{consumergroup=landscape-service},1651956520,7398
{consumergroup=landscape-service},1651956525,12579
{consumergroup=landscape-service},1651956530,12579
{consumergroup=landscape-service},1651956535,12579
{consumergroup=landscape-service},1651956540,7162
{consumergroup=landscape-service},1651956545,7162
{consumergroup=landscape-service},1651956550,7162
{consumergroup=landscape-service},1651956555,11304
{consumergroup=landscape-service},1651956560,11304
{consumergroup=landscape-service},1651956565,11304
{consumergroup=landscape-service},1651956570,6734
{consumergroup=landscape-service},1651956575,6734
{consumergroup=landscape-service},1651956580,6734
{consumergroup=landscape-service},1651956585,7064
{consumergroup=landscape-token-events-consumer},1651956165,0
{consumergroup=landscape-token-events-consumer},1651956170,0
{consumergroup=landscape-token-events-consumer},1651956175,0
{consumergroup=landscape-token-events-consumer},1651956180,0
{consumergroup=landscape-token-events-consumer},1651956185,0
{consumergroup=landscape-token-events-consumer},1651956190,0
{consumergroup=landscape-token-events-consumer},1651956195,0
{consumergroup=landscape-token-events-consumer},1651956200,0
{consumergroup=landscape-token-events-consumer},1651956205,0
{consumergroup=landscape-token-events-consumer},1651956210,0
{consumergroup=landscape-token-events-consumer},1651956215,0
{consumergroup=landscape-token-events-consumer},1651956220,0
{consumergroup=landscape-token-events-consumer},1651956225,0
{consumergroup=landscape-token-events-consumer},1651956230,0
{consumergroup=landscape-token-events-consumer},1651956235,0
{consumergroup=landscape-token-events-consumer},1651956240,0
{consumergroup=landscape-token-events-consumer},1651956245,0
{consumergroup=landscape-token-events-consumer},1651956250,0
{consumergroup=landscape-token-events-consumer},1651956255,0
{consumergroup=landscape-token-events-consumer},1651956260,0
{consumergroup=landscape-token-events-consumer},1651956265,0
{consumergroup=landscape-token-events-consumer},1651956270,0
{consumergroup=landscape-token-events-consumer},1651956275,0
{consumergroup=landscape-token-events-consumer},1651956280,0
{consumergroup=landscape-token-events-consumer},1651956285,0
{consumergroup=landscape-token-events-consumer},1651956290,0
{consumergroup=landscape-token-events-consumer},1651956295,0
{consumergroup=landscape-token-events-consumer},1651956300,0
{consumergroup=landscape-token-events-consumer},1651956305,0
{consumergroup=landscape-token-events-consumer},1651956310,0
{consumergroup=landscape-token-events-consumer},1651956315,0
{consumergroup=landscape-token-events-consumer},1651956320,0
{consumergroup=landscape-token-events-consumer},1651956325,0
{consumergroup=landscape-token-events-consumer},1651956330,0
{consumergroup=landscape-token-events-consumer},1651956335,0
{consumergroup=landscape-token-events-consumer},1651956340,0
{consumergroup=landscape-token-events-consumer},1651956345,0
{consumergroup=landscape-token-events-consumer},1651956350,0
{consumergroup=landscape-token-events-consumer},1651956355,0
{consumergroup=landscape-token-events-consumer},1651956360,0
{consumergroup=landscape-token-events-consumer},1651956365,0
{consumergroup=landscape-token-events-consumer},1651956370,0
{consumergroup=landscape-token-events-consumer},1651956375,0
{consumergroup=landscape-token-events-consumer},1651956380,0
{consumergroup=landscape-token-events-consumer},1651956385,0
{consumergroup=landscape-token-events-consumer},1651956390,0
{consumergroup=landscape-token-events-consumer},1651956395,0
{consumergroup=landscape-token-events-consumer},1651956400,0
{consumergroup=landscape-token-events-consumer},1651956405,0
{consumergroup=landscape-token-events-consumer},1651956410,0
{consumergroup=landscape-token-events-consumer},1651956415,0
{consumergroup=landscape-token-events-consumer},1651956420,0
{consumergroup=landscape-token-events-consumer},1651956425,0
{consumergroup=landscape-token-events-consumer},1651956430,0
{consumergroup=landscape-token-events-consumer},1651956435,0
{consumergroup=landscape-token-events-consumer},1651956440,0
{consumergroup=landscape-token-events-consumer},1651956445,0
{consumergroup=landscape-token-events-consumer},1651956450,0
{consumergroup=landscape-token-events-consumer},1651956455,0
{consumergroup=landscape-token-events-consumer},1651956460,0
{consumergroup=landscape-token-events-consumer},1651956465,0
{consumergroup=landscape-token-events-consumer},1651956470,0
{consumergroup=landscape-token-events-consumer},1651956475,0
{consumergroup=landscape-token-events-consumer},1651956480,0
{consumergroup=landscape-token-events-consumer},1651956485,0
{consumergroup=landscape-token-events-consumer},1651956490,0
{consumergroup=landscape-token-events-consumer},1651956495,0
{consumergroup=landscape-token-events-consumer},1651956500,0
{consumergroup=landscape-token-events-consumer},1651956505,0
{consumergroup=landscape-token-events-consumer},1651956510,0
{consumergroup=landscape-token-events-consumer},1651956515,0
{consumergroup=landscape-token-events-consumer},1651956520,0
{consumergroup=landscape-token-events-consumer},1651956525,0
{consumergroup=landscape-token-events-consumer},1651956530,0
{consumergroup=landscape-token-events-consumer},1651956535,0
{consumergroup=landscape-token-events-consumer},1651956540,0
{consumergroup=landscape-token-events-consumer},1651956545,0
{consumergroup=landscape-token-events-consumer},1651956550,0
{consumergroup=landscape-token-events-consumer},1651956555,0
{consumergroup=landscape-token-events-consumer},1651956560,0
{consumergroup=landscape-token-events-consumer},1651956565,0
{consumergroup=landscape-token-events-consumer},1651956570,0
{consumergroup=landscape-token-events-consumer},1651956575,0
{consumergroup=landscape-token-events-consumer},1651956580,0
{consumergroup=landscape-token-events-consumer},1651956585,0
{consumergroup=trace-service},1651956180,4297
{consumergroup=trace-service},1651956185,4297
{consumergroup=trace-service},1651956190,4297
{consumergroup=trace-service},1651956195,74450
{consumergroup=trace-service},1651956200,74450
{consumergroup=trace-service},1651956205,74450
{consumergroup=trace-service},1651956210,40603
{consumergroup=trace-service},1651956215,40603
{consumergroup=trace-service},1651956220,40603
{consumergroup=trace-service},1651956225,76643
{consumergroup=trace-service},1651956230,76643
{consumergroup=trace-service},1651956235,76643
{consumergroup=trace-service},1651956240,19654
{consumergroup=trace-service},1651956245,19654
{consumergroup=trace-service},1651956250,19654
{consumergroup=trace-service},1651956255,67841
{consumergroup=trace-service},1651956260,67841
{consumergroup=trace-service},1651956265,67841
{consumergroup=trace-service},1651956270,29045
{consumergroup=trace-service},1651956275,29045
{consumergroup=trace-service},1651956280,29045
{consumergroup=trace-service},1651956285,70195
{consumergroup=trace-service},1651956290,70195
{consumergroup=trace-service},1651956295,70195
{consumergroup=trace-service},1651956300,142347
{consumergroup=trace-service},1651956305,142347
{consumergroup=trace-service},1651956310,142347
{consumergroup=trace-service},1651956315,73038
{consumergroup=trace-service},1651956320,73038
{consumergroup=trace-service},1651956325,73038
{consumergroup=trace-service},1651956330,17805
{consumergroup=trace-service},1651956335,17805
{consumergroup=trace-service},1651956340,17805
{consumergroup=trace-service},1651956345,66540
{consumergroup=trace-service},1651956350,66540
{consumergroup=trace-service},1651956355,66540
{consumergroup=trace-service},1651956360,35801
{consumergroup=trace-service},1651956365,35801
{consumergroup=trace-service},1651956370,35801
{consumergroup=trace-service},1651956375,68847
{consumergroup=trace-service},1651956380,68847
{consumergroup=trace-service},1651956385,68847
{consumergroup=trace-service},1651956390,29271
{consumergroup=trace-service},1651956395,29271
{consumergroup=trace-service},1651956400,29271
{consumergroup=trace-service},1651956405,65337
{consumergroup=trace-service},1651956410,65337
{consumergroup=trace-service},1651956415,65337
{consumergroup=trace-service},1651956420,30277
{consumergroup=trace-service},1651956425,30277
{consumergroup=trace-service},1651956430,30277
{consumergroup=trace-service},1651956435,65620
{consumergroup=trace-service},1651956440,65620
{consumergroup=trace-service},1651956445,65620
{consumergroup=trace-service},1651956450,90314
{consumergroup=trace-service},1651956455,90314
{consumergroup=trace-service},1651956460,90314
{consumergroup=trace-service},1651956465,114973
{consumergroup=trace-service},1651956470,114973
{consumergroup=trace-service},1651956475,114973
{consumergroup=trace-service},1651956480,30683
{consumergroup=trace-service},1651956485,30683
{consumergroup=trace-service},1651956490,30683
{consumergroup=trace-service},1651956495,76008
{consumergroup=trace-service},1651956500,76008
{consumergroup=trace-service},1651956505,76008
{consumergroup=trace-service},1651956510,80222
{consumergroup=trace-service},1651956515,80222
{consumergroup=trace-service},1651956520,80222
{consumergroup=trace-service},1651956525,71923
{consumergroup=trace-service},1651956530,71923
{consumergroup=trace-service},1651956535,71923
{consumergroup=trace-service},1651956540,19187
{consumergroup=trace-service},1651956545,19187
{consumergroup=trace-service},1651956550,19187
{consumergroup=trace-service},1651956555,67201
{consumergroup=trace-service},1651956560,67201
{consumergroup=trace-service},1651956565,67201
{consumergroup=trace-service},1651956570,60245
{consumergroup=trace-service},1651956575,60245
{consumergroup=trace-service},1651956580,60245
{consumergroup=trace-service},1651956585,65353
{consumergroup=trace-token-events-consumer},1651956165,0
{consumergroup=trace-token-events-consumer},1651956170,0
{consumergroup=trace-token-events-consumer},1651956175,0
{consumergroup=trace-token-events-consumer},1651956180,0
{consumergroup=trace-token-events-consumer},1651956185,0
{consumergroup=trace-token-events-consumer},1651956190,0
{consumergroup=trace-token-events-consumer},1651956195,0
{consumergroup=trace-token-events-consumer},1651956200,0
{consumergroup=trace-token-events-consumer},1651956205,0
{consumergroup=trace-token-events-consumer},1651956210,0
{consumergroup=trace-token-events-consumer},1651956215,0
{consumergroup=trace-token-events-consumer},1651956220,0
{consumergroup=trace-token-events-consumer},1651956225,0
{consumergroup=trace-token-events-consumer},1651956230,0
{consumergroup=trace-token-events-consumer},1651956235,0
{consumergroup=trace-token-events-consumer},1651956240,0
{consumergroup=trace-token-events-consumer},1651956245,0
{consumergroup=trace-token-events-consumer},1651956250,0
{consumergroup=trace-token-events-consumer},1651956255,0
{consumergroup=trace-token-events-consumer},1651956260,0
{consumergroup=trace-token-events-consumer},1651956265,0
{consumergroup=trace-token-events-consumer},1651956270,0
{consumergroup=trace-token-events-consumer},1651956275,0
{consumergroup=trace-token-events-consumer},1651956280,0
{consumergroup=trace-token-events-consumer},1651956285,0
{consumergroup=trace-token-events-consumer},1651956290,0
{consumergroup=trace-token-events-consumer},1651956295,0
{consumergroup=trace-token-events-consumer},1651956300,0
{consumergroup=trace-token-events-consumer},1651956305,0
{consumergroup=trace-token-events-consumer},1651956310,0
{consumergroup=trace-token-events-consumer},1651956315,0
{consumergroup=trace-token-events-consumer},1651956320,0
{consumergroup=trace-token-events-consumer},1651956325,0
{consumergroup=trace-token-events-consumer},1651956330,0
{consumergroup=trace-token-events-consumer},1651956335,0
{consumergroup=trace-token-events-consumer},1651956340,0
{consumergroup=trace-token-events-consumer},1651956345,0
{consumergroup=trace-token-events-consumer},1651956350,0
{consumergroup=trace-token-events-consumer},1651956355,0
{consumergroup=trace-token-events-consumer},1651956360,0
{consumergroup=trace-token-events-consumer},1651956365,0
{consumergroup=trace-token-events-consumer},1651956370,0
{consumergroup=trace-token-events-consumer},1651956375,0
{consumergroup=trace-token-events-consumer},1651956380,0
{consumergroup=trace-token-events-consumer},1651956385,0
{consumergroup=trace-token-events-consumer},1651956390,0
{consumergroup=trace-token-events-consumer},1651956395,0
{consumergroup=trace-token-events-consumer},1651956400,0
{consumergroup=trace-token-events-consumer},1651956405,0
{consumergroup=trace-token-events-consumer},1651956410,0
{consumergroup=trace-token-events-consumer},1651956415,0
{consumergroup=trace-token-events-consumer},1651956420,0
{consumergroup=trace-token-events-consumer},1651956425,0
{consumergroup=trace-token-events-consumer},1651956430,0
{consumergroup=trace-token-events-consumer},1651956435,0
{consumergroup=trace-token-events-consumer},1651956440,0
{consumergroup=trace-token-events-consumer},1651956445,0
{consumergroup=trace-token-events-consumer},1651956450,0
{consumergroup=trace-token-events-consumer},1651956455,0
{consumergroup=trace-token-events-consumer},1651956460,0
{consumergroup=trace-token-events-consumer},1651956465,0
{consumergroup=trace-token-events-consumer},1651956470,0
{consumergroup=trace-token-events-consumer},1651956475,0
{consumergroup=trace-token-events-consumer},1651956480,0
{consumergroup=trace-token-events-consumer},1651956485,0
{consumergroup=trace-token-events-consumer},1651956490,0
{consumergroup=trace-token-events-consumer},1651956495,0
{consumergroup=trace-token-events-consumer},1651956500,0
{consumergroup=trace-token-events-consumer},1651956505,0
{consumergroup=trace-token-events-consumer},1651956510,0
{consumergroup=trace-token-events-consumer},1651956515,0
{consumergroup=trace-token-events-consumer},1651956520,0
{consumergroup=trace-token-events-consumer},1651956525,0
{consumergroup=trace-token-events-consumer},1651956530,0
{consumergroup=trace-token-events-consumer},1651956535,0
{consumergroup=trace-token-events-consumer},1651956540,0
{consumergroup=trace-token-events-consumer},1651956545,0
{consumergroup=trace-token-events-consumer},1651956550,0
{consumergroup=trace-token-events-consumer},1651956555,0
{consumergroup=trace-token-events-consumer},1651956560,0
{consumergroup=trace-token-events-consumer},1651956565,0
{consumergroup=trace-token-events-consumer},1651956570,0
{consumergroup=trace-token-events-consumer},1651956575,0
{consumergroup=trace-token-events-consumer},1651956580,0
{consumergroup=trace-token-events-consumer},1651956585,0
