labels,timestamp,value
{consumergroup=__strimzi-topic-operator-kstreams},1651988089,11
{consumergroup=__strimzi-topic-operator-kstreams},1651988094,11
{consumergroup=__strimzi-topic-operator-kstreams},1651988099,11
{consumergroup=__strimzi-topic-operator-kstreams},1651988104,0
{consumergroup=__strimzi-topic-operator-kstreams},1651988109,0
{consumergroup=__strimzi-topic-operator-kstreams},1651988114,0
{consumergroup=__strimzi-topic-operator-kstreams},1651988119,3
{consumergroup=__strimzi-topic-operator-kstreams},1651988124,3
{consumergroup=__strimzi-topic-operator-kstreams},1651988129,3
{consumergroup=__strimzi-topic-operator-kstreams},1651988134,0
{consumergroup=__strimzi-topic-operator-kstreams},1651988139,0
{consumergroup=__strimzi-topic-operator-kstreams},1651988144,0
{consumergroup=__strimzi-topic-operator-kstreams},1651988149,0
{consumergroup=__strimzi-topic-operator-kstreams},1651988154,0
{consumergroup=__strimzi-topic-operator-kstreams},1651988159,0
{consumergroup=__strimzi-topic-operator-kstreams},1651988164,0
{consumergroup=__strimzi-topic-operator-kstreams},1651988169,0
{consumergroup=__strimzi-topic-operator-kstreams},1651988174,0
{consumergroup=__strimzi-topic-operator-kstreams},1651988179,0
{consumergroup=__strimzi-topic-operator-kstreams},1651988184,0
{consumergroup=__strimzi-topic-operator-kstreams},1651988189,0
{consumergroup=__strimzi-topic-operator-kstreams},1651988194,0
{consumergroup=__strimzi-topic-operator-kstreams},1651988199,0
{consumergroup=__strimzi-topic-operator-kstreams},1651988204,0
{consumergroup=__strimzi-topic-operator-kstreams},1651988209,0
{consumergroup=__strimzi-topic-operator-kstreams},1651988214,0
{consumergroup=__strimzi-topic-operator-kstreams},1651988219,0
{consumergroup=__strimzi-topic-operator-kstreams},1651988224,0
{consumergroup=__strimzi-topic-operator-kstreams},1651988229,0
{consumergroup=__strimzi-topic-operator-kstreams},1651988234,0
{consumergroup=__strimzi-topic-operator-kstreams},1651988239,0
{consumergroup=__strimzi-topic-operator-kstreams},1651988244,0
{consumergroup=__strimzi-topic-operator-kstreams},1651988249,0
{consumergroup=__strimzi-topic-operator-kstreams},1651988254,0
{consumergroup=__strimzi-topic-operator-kstreams},1651988259,0
{consumergroup=__strimzi-topic-operator-kstreams},1651988264,0
{consumergroup=__strimzi-topic-operator-kstreams},1651988269,0
{consumergroup=__strimzi-topic-operator-kstreams},1651988274,0
{consumergroup=__strimzi-topic-operator-kstreams},1651988279,0
{consumergroup=__strimzi-topic-operator-kstreams},1651988284,0
{consumergroup=__strimzi-topic-operator-kstreams},1651988289,0
{consumergroup=__strimzi-topic-operator-kstreams},1651988294,0
{consumergroup=__strimzi-topic-operator-kstreams},1651988299,0
{consumergroup=__strimzi-topic-operator-kstreams},1651988304,0
{consumergroup=__strimzi-topic-operator-kstreams},1651988309,0
{consumergroup=__strimzi-topic-operator-kstreams},1651988314,0
{consumergroup=__strimzi-topic-operator-kstreams},1651988319,0
{consumergroup=__strimzi-topic-operator-kstreams},1651988324,0
{consumergroup=__strimzi-topic-operator-kstreams},1651988329,0
{consumergroup=__strimzi-topic-operator-kstreams},1651988334,0
{consumergroup=__strimzi-topic-operator-kstreams},1651988339,0
{consumergroup=__strimzi-topic-operator-kstreams},1651988344,0
{consumergroup=__strimzi-topic-operator-kstreams},1651988349,0
{consumergroup=__strimzi-topic-operator-kstreams},1651988354,0
{consumergroup=__strimzi-topic-operator-kstreams},1651988359,0
{consumergroup=__strimzi-topic-operator-kstreams},1651988364,0
{consumergroup=__strimzi-topic-operator-kstreams},1651988369,0
{consumergroup=__strimzi-topic-operator-kstreams},1651988374,0
{consumergroup=__strimzi-topic-operator-kstreams},1651988379,0
{consumergroup=__strimzi-topic-operator-kstreams},1651988384,0
{consumergroup=__strimzi-topic-operator-kstreams},1651988389,0
{consumergroup=__strimzi-topic-operator-kstreams},1651988394,0
{consumergroup=__strimzi-topic-operator-kstreams},1651988399,0
{consumergroup=__strimzi-topic-operator-kstreams},1651988404,0
{consumergroup=__strimzi-topic-operator-kstreams},1651988409,0
{consumergroup=__strimzi-topic-operator-kstreams},1651988414,0
{consumergroup=__strimzi-topic-operator-kstreams},1651988419,0
{consumergroup=__strimzi-topic-operator-kstreams},1651988424,0
{consumergroup=__strimzi-topic-operator-kstreams},1651988429,0
{consumergroup=__strimzi-topic-operator-kstreams},1651988434,0
{consumergroup=__strimzi-topic-operator-kstreams},1651988439,0
{consumergroup=__strimzi-topic-operator-kstreams},1651988444,0
{consumergroup=__strimzi-topic-operator-kstreams},1651988449,0
{consumergroup=__strimzi-topic-operator-kstreams},1651988454,0
{consumergroup=__strimzi-topic-operator-kstreams},1651988459,0
{consumergroup=__strimzi-topic-operator-kstreams},1651988464,0
{consumergroup=__strimzi-topic-operator-kstreams},1651988469,0
{consumergroup=__strimzi-topic-operator-kstreams},1651988474,0
{consumergroup=__strimzi-topic-operator-kstreams},1651988479,0
{consumergroup=__strimzi-topic-operator-kstreams},1651988484,0
{consumergroup=__strimzi-topic-operator-kstreams},1651988489,0
{consumergroup=__strimzi-topic-operator-kstreams},1651988494,0
{consumergroup=__strimzi-topic-operator-kstreams},1651988499,0
{consumergroup=__strimzi-topic-operator-kstreams},1651988504,0
{consumergroup=__strimzi-topic-operator-kstreams},1651988509,0
{consumergroup=__strimzi-topic-operator-kstreams},1651988514,0
{consumergroup=__strimzi-topic-operator-kstreams},1651988519,0
{consumergroup=__strimzi-topic-operator-kstreams},1651988524,0
{consumergroup=__strimzi-topic-operator-kstreams},1651988529,0
{consumergroup=__strimzi-topic-operator-kstreams},1651988534,0
{consumergroup=adapter-service},1651988119,0
{consumergroup=adapter-service},1651988124,0
{consumergroup=adapter-service},1651988129,0
{consumergroup=adapter-service},1651988134,1151
{consumergroup=adapter-service},1651988139,1151
{consumergroup=adapter-service},1651988144,1151
{consumergroup=adapter-service},1651988149,11485
{consumergroup=adapter-service},1651988154,11485
{consumergroup=adapter-service},1651988159,11485
{consumergroup=adapter-service},1651988164,14694
{consumergroup=adapter-service},1651988169,14694
{consumergroup=adapter-service},1651988174,14694
{consumergroup=adapter-service},1651988179,11158
{consumergroup=adapter-service},1651988184,11158
{consumergroup=adapter-service},1651988189,11158
{consumergroup=adapter-service},1651988194,13323
{consumergroup=adapter-service},1651988199,13323
{consumergroup=adapter-service},1651988204,13323
{consumergroup=adapter-service},1651988209,10541
{consumergroup=adapter-service},1651988214,10541
{consumergroup=adapter-service},1651988219,10541
{consumergroup=adapter-service},1651988224,12850
{consumergroup=adapter-service},1651988229,12850
{consumergroup=adapter-service},1651988234,12850
{consumergroup=adapter-service},1651988239,8980
{consumergroup=adapter-service},1651988244,8980
{consumergroup=adapter-service},1651988249,8980
{consumergroup=adapter-service},1651988254,12393
{consumergroup=adapter-service},1651988259,12393
{consumergroup=adapter-service},1651988264,12393
{consumergroup=adapter-service},1651988269,12133
{consumergroup=adapter-service},1651988274,12133
{consumergroup=adapter-service},1651988279,12133
{consumergroup=adapter-service},1651988284,12770
{consumergroup=adapter-service},1651988289,12770
{consumergroup=adapter-service},1651988294,12770
{consumergroup=adapter-service},1651988299,11191
{consumergroup=adapter-service},1651988304,11191
{consumergroup=adapter-service},1651988309,11191
{consumergroup=adapter-service},1651988314,12003
{consumergroup=adapter-service},1651988319,12003
{consumergroup=adapter-service},1651988324,12003
{consumergroup=adapter-service},1651988329,7369
{consumergroup=adapter-service},1651988334,7369
{consumergroup=adapter-service},1651988339,7369
{consumergroup=adapter-service},1651988344,10510
{consumergroup=adapter-service},1651988349,10510
{consumergroup=adapter-service},1651988354,10510
{consumergroup=adapter-service},1651988359,7670
{consumergroup=adapter-service},1651988364,7670
{consumergroup=adapter-service},1651988369,7670
{consumergroup=adapter-service},1651988374,9900
{consumergroup=adapter-service},1651988379,9900
{consumergroup=adapter-service},1651988384,9900
{consumergroup=adapter-service},1651988389,9364
{consumergroup=adapter-service},1651988394,9364
{consumergroup=adapter-service},1651988399,9364
{consumergroup=adapter-service},1651988404,9206
{consumergroup=adapter-service},1651988409,9206
{consumergroup=adapter-service},1651988414,9206
{consumergroup=adapter-service},1651988419,6382
{consumergroup=adapter-service},1651988424,6382
{consumergroup=adapter-service},1651988429,6382
{consumergroup=adapter-service},1651988434,8646
{consumergroup=adapter-service},1651988439,8646
{consumergroup=adapter-service},1651988444,8646
{consumergroup=adapter-service},1651988449,8275
{consumergroup=adapter-service},1651988454,8275
{consumergroup=adapter-service},1651988459,8275
{consumergroup=adapter-service},1651988464,8940
{consumergroup=adapter-service},1651988469,8940
{consumergroup=adapter-service},1651988474,8940
{consumergroup=adapter-service},1651988479,4064
{consumergroup=adapter-service},1651988484,4064
{consumergroup=adapter-service},1651988489,4064
{consumergroup=adapter-service},1651988494,7738
{consumergroup=adapter-service},1651988499,7738
{consumergroup=adapter-service},1651988504,7738
{consumergroup=adapter-service},1651988509,3463
{consumergroup=adapter-service},1651988514,3463
{consumergroup=adapter-service},1651988519,3463
{consumergroup=adapter-service},1651988524,6813
{consumergroup=adapter-service},1651988529,6813
{consumergroup=adapter-service},1651988534,6813
{consumergroup=landscape-service},1651988134,274
{consumergroup=landscape-service},1651988139,274
{consumergroup=landscape-service},1651988144,274
{consumergroup=landscape-service},1651988149,7835
{consumergroup=landscape-service},1651988154,7835
{consumergroup=landscape-service},1651988159,7835
{consumergroup=landscape-service},1651988164,10433
{consumergroup=landscape-service},1651988169,10433
{consumergroup=landscape-service},1651988174,10433
{consumergroup=landscape-service},1651988179,6281
{consumergroup=landscape-service},1651988184,6281
{consumergroup=landscape-service},1651988189,6281
{consumergroup=landscape-service},1651988194,9939
{consumergroup=landscape-service},1651988199,9939
{consumergroup=landscape-service},1651988204,9939
{consumergroup=landscape-service},1651988209,7136
{consumergroup=landscape-service},1651988214,7136
{consumergroup=landscape-service},1651988219,7136
{consumergroup=landscape-service},1651988224,9684
{consumergroup=landscape-service},1651988229,9684
{consumergroup=landscape-service},1651988234,9684
{consumergroup=landscape-service},1651988239,5911
{consumergroup=landscape-service},1651988244,5911
{consumergroup=landscape-service},1651988249,5911
{consumergroup=landscape-service},1651988254,9483
{consumergroup=landscape-service},1651988259,9483
{consumergroup=landscape-service},1651988264,9483
{consumergroup=landscape-service},1651988269,9604
{consumergroup=landscape-service},1651988274,9604
{consumergroup=landscape-service},1651988279,9604
{consumergroup=landscape-service},1651988284,10334
{consumergroup=landscape-service},1651988289,10334
{consumergroup=landscape-service},1651988294,10334
{consumergroup=landscape-service},1651988299,9021
{consumergroup=landscape-service},1651988304,9021
{consumergroup=landscape-service},1651988309,9021
{consumergroup=landscape-service},1651988314,9958
{consumergroup=landscape-service},1651988319,9958
{consumergroup=landscape-service},1651988324,9958
{consumergroup=landscape-service},1651988329,5474
{consumergroup=landscape-service},1651988334,5474
{consumergroup=landscape-service},1651988339,5474
{consumergroup=landscape-service},1651988344,9792
{consumergroup=landscape-service},1651988349,9792
{consumergroup=landscape-service},1651988354,9792
{consumergroup=landscape-service},1651988359,5283
{consumergroup=landscape-service},1651988364,5283
{consumergroup=landscape-service},1651988369,5283
{consumergroup=landscape-service},1651988374,8769
{consumergroup=landscape-service},1651988379,8769
{consumergroup=landscape-service},1651988384,8769
{consumergroup=landscape-service},1651988389,8312
{consumergroup=landscape-service},1651988394,8312
{consumergroup=landscape-service},1651988399,8312
{consumergroup=landscape-service},1651988404,8577
{consumergroup=landscape-service},1651988409,8577
{consumergroup=landscape-service},1651988414,8577
{consumergroup=landscape-service},1651988419,4982
{consumergroup=landscape-service},1651988424,4982
{consumergroup=landscape-service},1651988429,4982
{consumergroup=landscape-service},1651988434,9376
{consumergroup=landscape-service},1651988439,9376
{consumergroup=landscape-service},1651988444,9376
{consumergroup=landscape-service},1651988449,8718
{consumergroup=landscape-service},1651988454,8718
{consumergroup=landscape-service},1651988459,8718
{consumergroup=landscape-service},1651988464,8349
{consumergroup=landscape-service},1651988469,8349
{consumergroup=landscape-service},1651988474,8349
{consumergroup=landscape-service},1651988479,4459
{consumergroup=landscape-service},1651988484,4459
{consumergroup=landscape-service},1651988489,4459
{consumergroup=landscape-service},1651988494,8127
{consumergroup=landscape-service},1651988499,8127
{consumergroup=landscape-service},1651988504,8127
{consumergroup=landscape-service},1651988509,4519
{consumergroup=landscape-service},1651988514,4519
{consumergroup=landscape-service},1651988519,4519
{consumergroup=landscape-service},1651988524,8188
{consumergroup=landscape-service},1651988529,8188
{consumergroup=landscape-service},1651988534,8188
{consumergroup=landscape-token-events-consumer},1651988119,0
{consumergroup=landscape-token-events-consumer},1651988124,0
{consumergroup=landscape-token-events-consumer},1651988129,0
{consumergroup=landscape-token-events-consumer},1651988134,0
{consumergroup=landscape-token-events-consumer},1651988139,0
{consumergroup=landscape-token-events-consumer},1651988144,0
{consumergroup=landscape-token-events-consumer},1651988149,0
{consumergroup=landscape-token-events-consumer},1651988154,0
{consumergroup=landscape-token-events-consumer},1651988159,0
{consumergroup=landscape-token-events-consumer},1651988164,0
{consumergroup=landscape-token-events-consumer},1651988169,0
{consumergroup=landscape-token-events-consumer},1651988174,0
{consumergroup=landscape-token-events-consumer},1651988179,0
{consumergroup=landscape-token-events-consumer},1651988184,0
{consumergroup=landscape-token-events-consumer},1651988189,0
{consumergroup=landscape-token-events-consumer},1651988194,0
{consumergroup=landscape-token-events-consumer},1651988199,0
{consumergroup=landscape-token-events-consumer},1651988204,0
{consumergroup=landscape-token-events-consumer},1651988209,0
{consumergroup=landscape-token-events-consumer},1651988214,0
{consumergroup=landscape-token-events-consumer},1651988219,0
{consumergroup=landscape-token-events-consumer},1651988224,0
{consumergroup=landscape-token-events-consumer},1651988229,0
{consumergroup=landscape-token-events-consumer},1651988234,0
{consumergroup=landscape-token-events-consumer},1651988239,0
{consumergroup=landscape-token-events-consumer},1651988244,0
{consumergroup=landscape-token-events-consumer},1651988249,0
{consumergroup=landscape-token-events-consumer},1651988254,0
{consumergroup=landscape-token-events-consumer},1651988259,0
{consumergroup=landscape-token-events-consumer},1651988264,0
{consumergroup=landscape-token-events-consumer},1651988269,0
{consumergroup=landscape-token-events-consumer},1651988274,0
{consumergroup=landscape-token-events-consumer},1651988279,0
{consumergroup=landscape-token-events-consumer},1651988284,0
{consumergroup=landscape-token-events-consumer},1651988289,0
{consumergroup=landscape-token-events-consumer},1651988294,0
{consumergroup=landscape-token-events-consumer},1651988299,0
{consumergroup=landscape-token-events-consumer},1651988304,0
{consumergroup=landscape-token-events-consumer},1651988309,0
{consumergroup=landscape-token-events-consumer},1651988314,0
{consumergroup=landscape-token-events-consumer},1651988319,0
{consumergroup=landscape-token-events-consumer},1651988324,0
{consumergroup=landscape-token-events-consumer},1651988329,0
{consumergroup=landscape-token-events-consumer},1651988334,0
{consumergroup=landscape-token-events-consumer},1651988339,0
{consumergroup=landscape-token-events-consumer},1651988344,0
{consumergroup=landscape-token-events-consumer},1651988349,0
{consumergroup=landscape-token-events-consumer},1651988354,0
{consumergroup=landscape-token-events-consumer},1651988359,0
{consumergroup=landscape-token-events-consumer},1651988364,0
{consumergroup=landscape-token-events-consumer},1651988369,0
{consumergroup=landscape-token-events-consumer},1651988374,0
{consumergroup=landscape-token-events-consumer},1651988379,0
{consumergroup=landscape-token-events-consumer},1651988384,0
{consumergroup=landscape-token-events-consumer},1651988389,0
{consumergroup=landscape-token-events-consumer},1651988394,0
{consumergroup=landscape-token-events-consumer},1651988399,0
{consumergroup=landscape-token-events-consumer},1651988404,0
{consumergroup=landscape-token-events-consumer},1651988409,0
{consumergroup=landscape-token-events-consumer},1651988414,0
{consumergroup=landscape-token-events-consumer},1651988419,0
{consumergroup=landscape-token-events-consumer},1651988424,0
{consumergroup=landscape-token-events-consumer},1651988429,0
{consumergroup=landscape-token-events-consumer},1651988434,0
{consumergroup=landscape-token-events-consumer},1651988439,0
{consumergroup=landscape-token-events-consumer},1651988444,0
{consumergroup=landscape-token-events-consumer},1651988449,0
{consumergroup=landscape-token-events-consumer},1651988454,0
{consumergroup=landscape-token-events-consumer},1651988459,0
{consumergroup=landscape-token-events-consumer},1651988464,0
{consumergroup=landscape-token-events-consumer},1651988469,0
{consumergroup=landscape-token-events-consumer},1651988474,0
{consumergroup=landscape-token-events-consumer},1651988479,0
{consumergroup=landscape-token-events-consumer},1651988484,0
{consumergroup=landscape-token-events-consumer},1651988489,0
{consumergroup=landscape-token-events-consumer},1651988494,0
{consumergroup=landscape-token-events-consumer},1651988499,0
{consumergroup=landscape-token-events-consumer},1651988504,0
{consumergroup=landscape-token-events-consumer},1651988509,0
{consumergroup=landscape-token-events-consumer},1651988514,0
{consumergroup=landscape-token-events-consumer},1651988519,0
{consumergroup=landscape-token-events-consumer},1651988524,0
{consumergroup=landscape-token-events-consumer},1651988529,0
{consumergroup=landscape-token-events-consumer},1651988534,0
{consumergroup=trace-service},1651988134,15767
{consumergroup=trace-service},1651988139,15767
{consumergroup=trace-service},1651988144,15767
{consumergroup=trace-service},1651988149,73497
{consumergroup=trace-service},1651988154,73497
{consumergroup=trace-service},1651988159,73497
{consumergroup=trace-service},1651988164,42985
{consumergroup=trace-service},1651988169,42985
{consumergroup=trace-service},1651988174,42985
{consumergroup=trace-service},1651988179,57545
{consumergroup=trace-service},1651988184,57545
{consumergroup=trace-service},1651988189,57545
{consumergroup=trace-service},1651988194,22179
{consumergroup=trace-service},1651988199,22179
{consumergroup=trace-service},1651988204,22179
{consumergroup=trace-service},1651988209,58505
{consumergroup=trace-service},1651988214,58505
{consumergroup=trace-service},1651988219,58505
{consumergroup=trace-service},1651988224,20739
{consumergroup=trace-service},1651988229,20739
{consumergroup=trace-service},1651988234,20739
{consumergroup=trace-service},1651988239,57237
{consumergroup=trace-service},1651988244,57237
{consumergroup=trace-service},1651988249,57237
{consumergroup=trace-service},1651988254,19678
{consumergroup=trace-service},1651988259,19678
{consumergroup=trace-service},1651988264,19678
{consumergroup=trace-service},1651988269,62259
{consumergroup=trace-service},1651988274,62259
{consumergroup=trace-service},1651988279,62259
{consumergroup=trace-service},1651988284,50788
{consumergroup=trace-service},1651988289,50788
{consumergroup=trace-service},1651988294,50788
{consumergroup=trace-service},1651988299,72024
{consumergroup=trace-service},1651988304,72024
{consumergroup=trace-service},1651988309,72024
{consumergroup=trace-service},1651988314,19739
{consumergroup=trace-service},1651988319,19739
{consumergroup=trace-service},1651988324,19739
{consumergroup=trace-service},1651988329,46828
{consumergroup=trace-service},1651988334,46828
{consumergroup=trace-service},1651988339,46828
{consumergroup=trace-service},1651988344,24342
{consumergroup=trace-service},1651988349,24342
{consumergroup=trace-service},1651988354,24342
{consumergroup=trace-service},1651988359,61882
{consumergroup=trace-service},1651988364,61882
{consumergroup=trace-service},1651988369,61882
{consumergroup=trace-service},1651988374,117644
{consumergroup=trace-service},1651988379,117644
{consumergroup=trace-service},1651988384,117644
{consumergroup=trace-service},1651988389,65701
{consumergroup=trace-service},1651988394,65701
{consumergroup=trace-service},1651988399,65701
{consumergroup=trace-service},1651988404,17363
{consumergroup=trace-service},1651988409,17363
{consumergroup=trace-service},1651988414,17363
{consumergroup=trace-service},1651988419,61305
{consumergroup=trace-service},1651988424,61305
{consumergroup=trace-service},1651988429,61305
{consumergroup=trace-service},1651988434,17751
{consumergroup=trace-service},1651988439,17751
{consumergroup=trace-service},1651988444,17751
{consumergroup=trace-service},1651988449,61493
{consumergroup=trace-service},1651988454,61493
{consumergroup=trace-service},1651988459,61493
{consumergroup=trace-service},1651988464,21463
{consumergroup=trace-service},1651988469,21463
{consumergroup=trace-service},1651988474,21463
{consumergroup=trace-service},1651988479,62923
{consumergroup=trace-service},1651988484,62923
{consumergroup=trace-service},1651988489,62923
{consumergroup=trace-service},1651988494,19962
{consumergroup=trace-service},1651988499,19962
{consumergroup=trace-service},1651988504,19962
{consumergroup=trace-service},1651988509,50138
{consumergroup=trace-service},1651988514,50138
{consumergroup=trace-service},1651988519,50138
{consumergroup=trace-service},1651988524,24452
{consumergroup=trace-service},1651988529,24452
{consumergroup=trace-service},1651988534,24452
{consumergroup=trace-token-events-consumer},1651988119,0
{consumergroup=trace-token-events-consumer},1651988124,0
{consumergroup=trace-token-events-consumer},1651988129,0
{consumergroup=trace-token-events-consumer},1651988134,0
{consumergroup=trace-token-events-consumer},1651988139,0
{consumergroup=trace-token-events-consumer},1651988144,0
{consumergroup=trace-token-events-consumer},1651988149,0
{consumergroup=trace-token-events-consumer},1651988154,0
{consumergroup=trace-token-events-consumer},1651988159,0
{consumergroup=trace-token-events-consumer},1651988164,0
{consumergroup=trace-token-events-consumer},1651988169,0
{consumergroup=trace-token-events-consumer},1651988174,0
{consumergroup=trace-token-events-consumer},1651988179,0
{consumergroup=trace-token-events-consumer},1651988184,0
{consumergroup=trace-token-events-consumer},1651988189,0
{consumergroup=trace-token-events-consumer},1651988194,0
{consumergroup=trace-token-events-consumer},1651988199,0
{consumergroup=trace-token-events-consumer},1651988204,0
{consumergroup=trace-token-events-consumer},1651988209,0
{consumergroup=trace-token-events-consumer},1651988214,0
{consumergroup=trace-token-events-consumer},1651988219,0
{consumergroup=trace-token-events-consumer},1651988224,0
{consumergroup=trace-token-events-consumer},1651988229,0
{consumergroup=trace-token-events-consumer},1651988234,0
{consumergroup=trace-token-events-consumer},1651988239,0
{consumergroup=trace-token-events-consumer},1651988244,0
{consumergroup=trace-token-events-consumer},1651988249,0
{consumergroup=trace-token-events-consumer},1651988254,0
{consumergroup=trace-token-events-consumer},1651988259,0
{consumergroup=trace-token-events-consumer},1651988264,0
{consumergroup=trace-token-events-consumer},1651988269,0
{consumergroup=trace-token-events-consumer},1651988274,0
{consumergroup=trace-token-events-consumer},1651988279,0
{consumergroup=trace-token-events-consumer},1651988284,0
{consumergroup=trace-token-events-consumer},1651988289,0
{consumergroup=trace-token-events-consumer},1651988294,0
{consumergroup=trace-token-events-consumer},1651988299,0
{consumergroup=trace-token-events-consumer},1651988304,0
{consumergroup=trace-token-events-consumer},1651988309,0
{consumergroup=trace-token-events-consumer},1651988314,0
{consumergroup=trace-token-events-consumer},1651988319,0
{consumergroup=trace-token-events-consumer},1651988324,0
{consumergroup=trace-token-events-consumer},1651988329,0
{consumergroup=trace-token-events-consumer},1651988334,0
{consumergroup=trace-token-events-consumer},1651988339,0
{consumergroup=trace-token-events-consumer},1651988344,0
{consumergroup=trace-token-events-consumer},1651988349,0
{consumergroup=trace-token-events-consumer},1651988354,0
{consumergroup=trace-token-events-consumer},1651988359,0
{consumergroup=trace-token-events-consumer},1651988364,0
{consumergroup=trace-token-events-consumer},1651988369,0
{consumergroup=trace-token-events-consumer},1651988374,0
{consumergroup=trace-token-events-consumer},1651988379,0
{consumergroup=trace-token-events-consumer},1651988384,0
{consumergroup=trace-token-events-consumer},1651988389,0
{consumergroup=trace-token-events-consumer},1651988394,0
{consumergroup=trace-token-events-consumer},1651988399,0
{consumergroup=trace-token-events-consumer},1651988404,0
{consumergroup=trace-token-events-consumer},1651988409,0
{consumergroup=trace-token-events-consumer},1651988414,0
{consumergroup=trace-token-events-consumer},1651988419,0
{consumergroup=trace-token-events-consumer},1651988424,0
{consumergroup=trace-token-events-consumer},1651988429,0
{consumergroup=trace-token-events-consumer},1651988434,0
{consumergroup=trace-token-events-consumer},1651988439,0
{consumergroup=trace-token-events-consumer},1651988444,0
{consumergroup=trace-token-events-consumer},1651988449,0
{consumergroup=trace-token-events-consumer},1651988454,0
{consumergroup=trace-token-events-consumer},1651988459,0
{consumergroup=trace-token-events-consumer},1651988464,0
{consumergroup=trace-token-events-consumer},1651988469,0
{consumergroup=trace-token-events-consumer},1651988474,0
{consumergroup=trace-token-events-consumer},1651988479,0
{consumergroup=trace-token-events-consumer},1651988484,0
{consumergroup=trace-token-events-consumer},1651988489,0
{consumergroup=trace-token-events-consumer},1651988494,0
{consumergroup=trace-token-events-consumer},1651988499,0
{consumergroup=trace-token-events-consumer},1651988504,0
{consumergroup=trace-token-events-consumer},1651988509,0
{consumergroup=trace-token-events-consumer},1651988514,0
{consumergroup=trace-token-events-consumer},1651988519,0
{consumergroup=trace-token-events-consumer},1651988524,0
{consumergroup=trace-token-events-consumer},1651988529,0
{consumergroup=trace-token-events-consumer},1651988534,0
