labels,timestamp,value
{consumergroup=__strimzi-topic-operator-kstreams},1651966067,11
{consumergroup=__strimzi-topic-operator-kstreams},1651966072,11
{consumergroup=__strimzi-topic-operator-kstreams},1651966077,11
{consumergroup=__strimzi-topic-operator-kstreams},1651966082,0
{consumergroup=__strimzi-topic-operator-kstreams},1651966087,0
{consumergroup=__strimzi-topic-operator-kstreams},1651966092,0
{consumergroup=__strimzi-topic-operator-kstreams},1651966097,3
{consumergroup=__strimzi-topic-operator-kstreams},1651966102,3
{consumergroup=__strimzi-topic-operator-kstreams},1651966107,3
{consumergroup=__strimzi-topic-operator-kstreams},1651966112,0
{consumergroup=__strimzi-topic-operator-kstreams},1651966117,0
{consumergroup=__strimzi-topic-operator-kstreams},1651966122,0
{consumergroup=__strimzi-topic-operator-kstreams},1651966127,0
{consumergroup=__strimzi-topic-operator-kstreams},1651966132,0
{consumergroup=__strimzi-topic-operator-kstreams},1651966137,0
{consumergroup=__strimzi-topic-operator-kstreams},1651966142,0
{consumergroup=__strimzi-topic-operator-kstreams},1651966147,0
{consumergroup=__strimzi-topic-operator-kstreams},1651966152,0
{consumergroup=__strimzi-topic-operator-kstreams},1651966157,0
{consumergroup=__strimzi-topic-operator-kstreams},1651966162,0
{consumergroup=__strimzi-topic-operator-kstreams},1651966167,0
{consumergroup=__strimzi-topic-operator-kstreams},1651966172,0
{consumergroup=__strimzi-topic-operator-kstreams},1651966177,0
{consumergroup=__strimzi-topic-operator-kstreams},1651966182,0
{consumergroup=__strimzi-topic-operator-kstreams},1651966187,0
{consumergroup=__strimzi-topic-operator-kstreams},1651966192,0
{consumergroup=__strimzi-topic-operator-kstreams},1651966197,0
{consumergroup=__strimzi-topic-operator-kstreams},1651966202,0
{consumergroup=__strimzi-topic-operator-kstreams},1651966207,0
{consumergroup=__strimzi-topic-operator-kstreams},1651966212,0
{consumergroup=__strimzi-topic-operator-kstreams},1651966217,0
{consumergroup=__strimzi-topic-operator-kstreams},1651966222,0
{consumergroup=__strimzi-topic-operator-kstreams},1651966227,0
{consumergroup=__strimzi-topic-operator-kstreams},1651966232,0
{consumergroup=__strimzi-topic-operator-kstreams},1651966237,0
{consumergroup=__strimzi-topic-operator-kstreams},1651966242,0
{consumergroup=__strimzi-topic-operator-kstreams},1651966247,0
{consumergroup=__strimzi-topic-operator-kstreams},1651966252,0
{consumergroup=__strimzi-topic-operator-kstreams},1651966257,0
{consumergroup=__strimzi-topic-operator-kstreams},1651966262,0
{consumergroup=__strimzi-topic-operator-kstreams},1651966267,0
{consumergroup=__strimzi-topic-operator-kstreams},1651966272,0
{consumergroup=__strimzi-topic-operator-kstreams},1651966277,0
{consumergroup=__strimzi-topic-operator-kstreams},1651966282,0
{consumergroup=__strimzi-topic-operator-kstreams},1651966287,0
{consumergroup=__strimzi-topic-operator-kstreams},1651966292,0
{consumergroup=__strimzi-topic-operator-kstreams},1651966297,0
{consumergroup=__strimzi-topic-operator-kstreams},1651966302,0
{consumergroup=__strimzi-topic-operator-kstreams},1651966307,0
{consumergroup=__strimzi-topic-operator-kstreams},1651966312,0
{consumergroup=__strimzi-topic-operator-kstreams},1651966317,0
{consumergroup=__strimzi-topic-operator-kstreams},1651966322,0
{consumergroup=__strimzi-topic-operator-kstreams},1651966327,0
{consumergroup=__strimzi-topic-operator-kstreams},1651966332,0
{consumergroup=__strimzi-topic-operator-kstreams},1651966337,0
{consumergroup=__strimzi-topic-operator-kstreams},1651966342,0
{consumergroup=__strimzi-topic-operator-kstreams},1651966347,0
{consumergroup=__strimzi-topic-operator-kstreams},1651966352,0
{consumergroup=__strimzi-topic-operator-kstreams},1651966357,0
{consumergroup=__strimzi-topic-operator-kstreams},1651966362,0
{consumergroup=__strimzi-topic-operator-kstreams},1651966367,0
{consumergroup=__strimzi-topic-operator-kstreams},1651966372,0
{consumergroup=__strimzi-topic-operator-kstreams},1651966377,0
{consumergroup=__strimzi-topic-operator-kstreams},1651966382,0
{consumergroup=__strimzi-topic-operator-kstreams},1651966387,0
{consumergroup=__strimzi-topic-operator-kstreams},1651966392,0
{consumergroup=__strimzi-topic-operator-kstreams},1651966397,0
{consumergroup=__strimzi-topic-operator-kstreams},1651966402,0
{consumergroup=__strimzi-topic-operator-kstreams},1651966407,0
{consumergroup=__strimzi-topic-operator-kstreams},1651966412,0
{consumergroup=__strimzi-topic-operator-kstreams},1651966417,0
{consumergroup=__strimzi-topic-operator-kstreams},1651966422,0
{consumergroup=__strimzi-topic-operator-kstreams},1651966427,0
{consumergroup=__strimzi-topic-operator-kstreams},1651966432,0
{consumergroup=__strimzi-topic-operator-kstreams},1651966437,0
{consumergroup=__strimzi-topic-operator-kstreams},1651966442,0
{consumergroup=__strimzi-topic-operator-kstreams},1651966447,0
{consumergroup=__strimzi-topic-operator-kstreams},1651966452,0
{consumergroup=__strimzi-topic-operator-kstreams},1651966457,0
{consumergroup=__strimzi-topic-operator-kstreams},1651966462,0
{consumergroup=__strimzi-topic-operator-kstreams},1651966467,0
{consumergroup=__strimzi-topic-operator-kstreams},1651966472,0
{consumergroup=__strimzi-topic-operator-kstreams},1651966477,0
{consumergroup=__strimzi-topic-operator-kstreams},1651966482,0
{consumergroup=__strimzi-topic-operator-kstreams},1651966487,0
{consumergroup=__strimzi-topic-operator-kstreams},1651966492,0
{consumergroup=__strimzi-topic-operator-kstreams},1651966497,0
{consumergroup=__strimzi-topic-operator-kstreams},1651966502,0
{consumergroup=__strimzi-topic-operator-kstreams},1651966507,0
{consumergroup=__strimzi-topic-operator-kstreams},1651966512,0
{consumergroup=adapter-service},1651966097,0
{consumergroup=adapter-service},1651966102,0
{consumergroup=adapter-service},1651966107,0
{consumergroup=adapter-service},1651966112,18442
{consumergroup=adapter-service},1651966117,18442
{consumergroup=adapter-service},1651966122,18442
{consumergroup=adapter-service},1651966127,15309
{consumergroup=adapter-service},1651966132,15309
{consumergroup=adapter-service},1651966137,15309
{consumergroup=adapter-service},1651966142,9889
{consumergroup=adapter-service},1651966147,9889
{consumergroup=adapter-service},1651966152,9889
{consumergroup=adapter-service},1651966157,13925
{consumergroup=adapter-service},1651966162,13925
{consumergroup=adapter-service},1651966167,13925
{consumergroup=adapter-service},1651966172,7747
{consumergroup=adapter-service},1651966177,7747
{consumergroup=adapter-service},1651966182,7747
{consumergroup=adapter-service},1651966187,11356
{consumergroup=adapter-service},1651966192,11356
{consumergroup=adapter-service},1651966197,11356
{consumergroup=adapter-service},1651966202,11823
{consumergroup=adapter-service},1651966207,11823
{consumergroup=adapter-service},1651966212,11823
{consumergroup=adapter-service},1651966217,10631
{consumergroup=adapter-service},1651966222,10631
{consumergroup=adapter-service},1651966227,10631
{consumergroup=adapter-service},1651966232,6180
{consumergroup=adapter-service},1651966237,6180
{consumergroup=adapter-service},1651966242,6180
{consumergroup=adapter-service},1651966247,11316
{consumergroup=adapter-service},1651966252,11316
{consumergroup=adapter-service},1651966257,11316
{consumergroup=adapter-service},1651966262,9421
{consumergroup=adapter-service},1651966267,9421
{consumergroup=adapter-service},1651966272,9421
{consumergroup=adapter-service},1651966277,9596
{consumergroup=adapter-service},1651966282,9596
{consumergroup=adapter-service},1651966287,9596
{consumergroup=adapter-service},1651966292,6108
{consumergroup=adapter-service},1651966297,6108
{consumergroup=adapter-service},1651966302,6108
{consumergroup=adapter-service},1651966307,8802
{consumergroup=adapter-service},1651966312,8802
{consumergroup=adapter-service},1651966317,8802
{consumergroup=adapter-service},1651966322,4385
{consumergroup=adapter-service},1651966327,4385
{consumergroup=adapter-service},1651966332,4385
{consumergroup=adapter-service},1651966337,9230
{consumergroup=adapter-service},1651966342,9230
{consumergroup=adapter-service},1651966347,9230
{consumergroup=adapter-service},1651966352,3785
{consumergroup=adapter-service},1651966357,3785
{consumergroup=adapter-service},1651966362,3785
{consumergroup=adapter-service},1651966367,7317
{consumergroup=adapter-service},1651966372,7317
{consumergroup=adapter-service},1651966377,7317
{consumergroup=adapter-service},1651966382,3931
{consumergroup=adapter-service},1651966387,3931
{consumergroup=adapter-service},1651966392,3931
{consumergroup=adapter-service},1651966397,6890
{consumergroup=adapter-service},1651966402,6890
{consumergroup=adapter-service},1651966407,6890
{consumergroup=adapter-service},1651966412,3392
{consumergroup=adapter-service},1651966417,3392
{consumergroup=adapter-service},1651966422,3392
{consumergroup=adapter-service},1651966427,7063
{consumergroup=adapter-service},1651966432,7063
{consumergroup=adapter-service},1651966437,7063
{consumergroup=adapter-service},1651966442,6601
{consumergroup=adapter-service},1651966447,6601
{consumergroup=adapter-service},1651966452,6601
{consumergroup=adapter-service},1651966457,5518
{consumergroup=adapter-service},1651966462,5518
{consumergroup=adapter-service},1651966467,5518
{consumergroup=adapter-service},1651966472,1266
{consumergroup=adapter-service},1651966477,1266
{consumergroup=adapter-service},1651966482,1266
{consumergroup=adapter-service},1651966487,5142
{consumergroup=adapter-service},1651966492,5142
{consumergroup=adapter-service},1651966497,5142
{consumergroup=adapter-service},1651966502,4475
{consumergroup=adapter-service},1651966507,4475
{consumergroup=adapter-service},1651966512,4475
{consumergroup=landscape-service},1651966112,1718
{consumergroup=landscape-service},1651966117,1718
{consumergroup=landscape-service},1651966122,1718
{consumergroup=landscape-service},1651966127,2079
{consumergroup=landscape-service},1651966132,2079
{consumergroup=landscape-service},1651966137,2079
{consumergroup=landscape-service},1651966142,10842
{consumergroup=landscape-service},1651966147,10842
{consumergroup=landscape-service},1651966152,10842
{consumergroup=landscape-service},1651966157,7996
{consumergroup=landscape-service},1651966162,7996
{consumergroup=landscape-service},1651966167,7996
{consumergroup=landscape-service},1651966172,11402
{consumergroup=landscape-service},1651966177,11402
{consumergroup=landscape-service},1651966182,11402
{consumergroup=landscape-service},1651966187,7466
{consumergroup=landscape-service},1651966192,7466
{consumergroup=landscape-service},1651966197,7466
{consumergroup=landscape-service},1651966202,8265
{consumergroup=landscape-service},1651966207,8265
{consumergroup=landscape-service},1651966212,8265
{consumergroup=landscape-service},1651966217,7267
{consumergroup=landscape-service},1651966222,7267
{consumergroup=landscape-service},1651966227,7267
{consumergroup=landscape-service},1651966232,10820
{consumergroup=landscape-service},1651966237,10820
{consumergroup=landscape-service},1651966242,10820
{consumergroup=landscape-service},1651966247,7277
{consumergroup=landscape-service},1651966252,7277
{consumergroup=landscape-service},1651966257,7277
{consumergroup=landscape-service},1651966262,7328
{consumergroup=landscape-service},1651966267,7328
{consumergroup=landscape-service},1651966272,7328
{consumergroup=landscape-service},1651966277,7143
{consumergroup=landscape-service},1651966282,7143
{consumergroup=landscape-service},1651966287,7143
{consumergroup=landscape-service},1651966292,9483
{consumergroup=landscape-service},1651966297,9483
{consumergroup=landscape-service},1651966302,9483
{consumergroup=landscape-service},1651966307,7964
{consumergroup=landscape-service},1651966312,7964
{consumergroup=landscape-service},1651966317,7964
{consumergroup=landscape-service},1651966322,10422
{consumergroup=landscape-service},1651966327,10422
{consumergroup=landscape-service},1651966332,10422
{consumergroup=landscape-service},1651966337,7865
{consumergroup=landscape-service},1651966342,7865
{consumergroup=landscape-service},1651966347,7865
{consumergroup=landscape-service},1651966352,9352
{consumergroup=landscape-service},1651966357,9352
{consumergroup=landscape-service},1651966362,9352
{consumergroup=landscape-service},1651966367,6950
{consumergroup=landscape-service},1651966372,6950
{consumergroup=landscape-service},1651966377,6950
{consumergroup=landscape-service},1651966382,9325
{consumergroup=landscape-service},1651966387,9325
{consumergroup=landscape-service},1651966392,9325
{consumergroup=landscape-service},1651966397,6912
{consumergroup=landscape-service},1651966402,6912
{consumergroup=landscape-service},1651966407,6912
{consumergroup=landscape-service},1651966412,9114
{consumergroup=landscape-service},1651966417,9114
{consumergroup=landscape-service},1651966422,9114
{consumergroup=landscape-service},1651966427,12857
{consumergroup=landscape-service},1651966432,12857
{consumergroup=landscape-service},1651966437,12857
{consumergroup=landscape-service},1651966442,12515
{consumergroup=landscape-service},1651966447,12515
{consumergroup=landscape-service},1651966452,12515
{consumergroup=landscape-service},1651966457,12754
{consumergroup=landscape-service},1651966462,12754
{consumergroup=landscape-service},1651966467,12754
{consumergroup=landscape-service},1651966472,8799
{consumergroup=landscape-service},1651966477,8799
{consumergroup=landscape-service},1651966482,8799
{consumergroup=landscape-service},1651966487,13564
{consumergroup=landscape-service},1651966492,13564
{consumergroup=landscape-service},1651966497,13564
{consumergroup=landscape-service},1651966502,12482
{consumergroup=landscape-service},1651966507,12482
{consumergroup=landscape-service},1651966512,12482
{consumergroup=landscape-token-events-consumer},1651966097,0
{consumergroup=landscape-token-events-consumer},1651966102,0
{consumergroup=landscape-token-events-consumer},1651966107,0
{consumergroup=landscape-token-events-consumer},1651966112,0
{consumergroup=landscape-token-events-consumer},1651966117,0
{consumergroup=landscape-token-events-consumer},1651966122,0
{consumergroup=landscape-token-events-consumer},1651966127,0
{consumergroup=landscape-token-events-consumer},1651966132,0
{consumergroup=landscape-token-events-consumer},1651966137,0
{consumergroup=landscape-token-events-consumer},1651966142,0
{consumergroup=landscape-token-events-consumer},1651966147,0
{consumergroup=landscape-token-events-consumer},1651966152,0
{consumergroup=landscape-token-events-consumer},1651966157,0
{consumergroup=landscape-token-events-consumer},1651966162,0
{consumergroup=landscape-token-events-consumer},1651966167,0
{consumergroup=landscape-token-events-consumer},1651966172,0
{consumergroup=landscape-token-events-consumer},1651966177,0
{consumergroup=landscape-token-events-consumer},1651966182,0
{consumergroup=landscape-token-events-consumer},1651966187,0
{consumergroup=landscape-token-events-consumer},1651966192,0
{consumergroup=landscape-token-events-consumer},1651966197,0
{consumergroup=landscape-token-events-consumer},1651966202,0
{consumergroup=landscape-token-events-consumer},1651966207,0
{consumergroup=landscape-token-events-consumer},1651966212,0
{consumergroup=landscape-token-events-consumer},1651966217,0
{consumergroup=landscape-token-events-consumer},1651966222,0
{consumergroup=landscape-token-events-consumer},1651966227,0
{consumergroup=landscape-token-events-consumer},1651966232,0
{consumergroup=landscape-token-events-consumer},1651966237,0
{consumergroup=landscape-token-events-consumer},1651966242,0
{consumergroup=landscape-token-events-consumer},1651966247,0
{consumergroup=landscape-token-events-consumer},1651966252,0
{consumergroup=landscape-token-events-consumer},1651966257,0
{consumergroup=landscape-token-events-consumer},1651966262,0
{consumergroup=landscape-token-events-consumer},1651966267,0
{consumergroup=landscape-token-events-consumer},1651966272,0
{consumergroup=landscape-token-events-consumer},1651966277,0
{consumergroup=landscape-token-events-consumer},1651966282,0
{consumergroup=landscape-token-events-consumer},1651966287,0
{consumergroup=landscape-token-events-consumer},1651966292,0
{consumergroup=landscape-token-events-consumer},1651966297,0
{consumergroup=landscape-token-events-consumer},1651966302,0
{consumergroup=landscape-token-events-consumer},1651966307,0
{consumergroup=landscape-token-events-consumer},1651966312,0
{consumergroup=landscape-token-events-consumer},1651966317,0
{consumergroup=landscape-token-events-consumer},1651966322,0
{consumergroup=landscape-token-events-consumer},1651966327,0
{consumergroup=landscape-token-events-consumer},1651966332,0
{consumergroup=landscape-token-events-consumer},1651966337,0
{consumergroup=landscape-token-events-consumer},1651966342,0
{consumergroup=landscape-token-events-consumer},1651966347,0
{consumergroup=landscape-token-events-consumer},1651966352,0
{consumergroup=landscape-token-events-consumer},1651966357,0
{consumergroup=landscape-token-events-consumer},1651966362,0
{consumergroup=landscape-token-events-consumer},1651966367,0
{consumergroup=landscape-token-events-consumer},1651966372,0
{consumergroup=landscape-token-events-consumer},1651966377,0
{consumergroup=landscape-token-events-consumer},1651966382,0
{consumergroup=landscape-token-events-consumer},1651966387,0
{consumergroup=landscape-token-events-consumer},1651966392,0
{consumergroup=landscape-token-events-consumer},1651966397,0
{consumergroup=landscape-token-events-consumer},1651966402,0
{consumergroup=landscape-token-events-consumer},1651966407,0
{consumergroup=landscape-token-events-consumer},1651966412,0
{consumergroup=landscape-token-events-consumer},1651966417,0
{consumergroup=landscape-token-events-consumer},1651966422,0
{consumergroup=landscape-token-events-consumer},1651966427,0
{consumergroup=landscape-token-events-consumer},1651966432,0
{consumergroup=landscape-token-events-consumer},1651966437,0
{consumergroup=landscape-token-events-consumer},1651966442,0
{consumergroup=landscape-token-events-consumer},1651966447,0
{consumergroup=landscape-token-events-consumer},1651966452,0
{consumergroup=landscape-token-events-consumer},1651966457,0
{consumergroup=landscape-token-events-consumer},1651966462,0
{consumergroup=landscape-token-events-consumer},1651966467,0
{consumergroup=landscape-token-events-consumer},1651966472,0
{consumergroup=landscape-token-events-consumer},1651966477,0
{consumergroup=landscape-token-events-consumer},1651966482,0
{consumergroup=landscape-token-events-consumer},1651966487,0
{consumergroup=landscape-token-events-consumer},1651966492,0
{consumergroup=landscape-token-events-consumer},1651966497,0
{consumergroup=landscape-token-events-consumer},1651966502,0
{consumergroup=landscape-token-events-consumer},1651966507,0
{consumergroup=landscape-token-events-consumer},1651966512,0
{consumergroup=trace-service},1651966112,37056
{consumergroup=trace-service},1651966117,37056
{consumergroup=trace-service},1651966122,37056
{consumergroup=trace-service},1651966127,108742
{consumergroup=trace-service},1651966132,108742
{consumergroup=trace-service},1651966137,108742
{consumergroup=trace-service},1651966142,149444
{consumergroup=trace-service},1651966147,149444
{consumergroup=trace-service},1651966152,149444
{consumergroup=trace-service},1651966157,82707
{consumergroup=trace-service},1651966162,82707
{consumergroup=trace-service},1651966167,82707
{consumergroup=trace-service},1651966172,129452
{consumergroup=trace-service},1651966177,129452
{consumergroup=trace-service},1651966182,129452
{consumergroup=trace-service},1651966187,87433
{consumergroup=trace-service},1651966192,87433
{consumergroup=trace-service},1651966197,87433
{consumergroup=trace-service},1651966202,24509
{consumergroup=trace-service},1651966207,24509
{consumergroup=trace-service},1651966212,24509
{consumergroup=trace-service},1651966217,71605
{consumergroup=trace-service},1651966222,71605
{consumergroup=trace-service},1651966227,71605
{consumergroup=trace-service},1651966232,16097
{consumergroup=trace-service},1651966237,16097
{consumergroup=trace-service},1651966242,16097
{consumergroup=trace-service},1651966247,64349
{consumergroup=trace-service},1651966252,64349
{consumergroup=trace-service},1651966257,64349
{consumergroup=trace-service},1651966262,177899
{consumergroup=trace-service},1651966267,177899
{consumergroup=trace-service},1651966272,177899
{consumergroup=trace-service},1651966277,86542
{consumergroup=trace-service},1651966282,86542
{consumergroup=trace-service},1651966287,86542
{consumergroup=trace-service},1651966292,9636
{consumergroup=trace-service},1651966297,9636
{consumergroup=trace-service},1651966302,9636
{consumergroup=trace-service},1651966307,62637
{consumergroup=trace-service},1651966312,62637
{consumergroup=trace-service},1651966317,62637
{consumergroup=trace-service},1651966322,38574
{consumergroup=trace-service},1651966327,38574
{consumergroup=trace-service},1651966332,38574
{consumergroup=trace-service},1651966337,63366
{consumergroup=trace-service},1651966342,63366
{consumergroup=trace-service},1651966347,63366
{consumergroup=trace-service},1651966352,21317
{consumergroup=trace-service},1651966357,21317
{consumergroup=trace-service},1651966362,21317
{consumergroup=trace-service},1651966367,60947
{consumergroup=trace-service},1651966372,60947
{consumergroup=trace-service},1651966377,60947
{consumergroup=trace-service},1651966382,32815
{consumergroup=trace-service},1651966387,32815
{consumergroup=trace-service},1651966392,32815
{consumergroup=trace-service},1651966397,57958
{consumergroup=trace-service},1651966402,57958
{consumergroup=trace-service},1651966407,57958
{consumergroup=trace-service},1651966412,32066
{consumergroup=trace-service},1651966417,32066
{consumergroup=trace-service},1651966422,32066
{consumergroup=trace-service},1651966427,79998
{consumergroup=trace-service},1651966432,79998
{consumergroup=trace-service},1651966437,79998
{consumergroup=trace-service},1651966442,18027
{consumergroup=trace-service},1651966447,18027
{consumergroup=trace-service},1651966452,18027
{consumergroup=trace-service},1651966457,71761
{consumergroup=trace-service},1651966462,71761
{consumergroup=trace-service},1651966467,71761
{consumergroup=trace-service},1651966472,101494
{consumergroup=trace-service},1651966477,101494
{consumergroup=trace-service},1651966482,101494
{consumergroup=trace-service},1651966487,71502
{consumergroup=trace-service},1651966492,71502
{consumergroup=trace-service},1651966497,71502
{consumergroup=trace-service},1651966502,33384
{consumergroup=trace-service},1651966507,33384
{consumergroup=trace-service},1651966512,33384
{consumergroup=trace-token-events-consumer},1651966097,0
{consumergroup=trace-token-events-consumer},1651966102,0
{consumergroup=trace-token-events-consumer},1651966107,0
{consumergroup=trace-token-events-consumer},1651966112,0
{consumergroup=trace-token-events-consumer},1651966117,0
{consumergroup=trace-token-events-consumer},1651966122,0
{consumergroup=trace-token-events-consumer},1651966127,0
{consumergroup=trace-token-events-consumer},1651966132,0
{consumergroup=trace-token-events-consumer},1651966137,0
{consumergroup=trace-token-events-consumer},1651966142,0
{consumergroup=trace-token-events-consumer},1651966147,0
{consumergroup=trace-token-events-consumer},1651966152,0
{consumergroup=trace-token-events-consumer},1651966157,0
{consumergroup=trace-token-events-consumer},1651966162,0
{consumergroup=trace-token-events-consumer},1651966167,0
{consumergroup=trace-token-events-consumer},1651966172,0
{consumergroup=trace-token-events-consumer},1651966177,0
{consumergroup=trace-token-events-consumer},1651966182,0
{consumergroup=trace-token-events-consumer},1651966187,0
{consumergroup=trace-token-events-consumer},1651966192,0
{consumergroup=trace-token-events-consumer},1651966197,0
{consumergroup=trace-token-events-consumer},1651966202,0
{consumergroup=trace-token-events-consumer},1651966207,0
{consumergroup=trace-token-events-consumer},1651966212,0
{consumergroup=trace-token-events-consumer},1651966217,0
{consumergroup=trace-token-events-consumer},1651966222,0
{consumergroup=trace-token-events-consumer},1651966227,0
{consumergroup=trace-token-events-consumer},1651966232,0
{consumergroup=trace-token-events-consumer},1651966237,0
{consumergroup=trace-token-events-consumer},1651966242,0
{consumergroup=trace-token-events-consumer},1651966247,0
{consumergroup=trace-token-events-consumer},1651966252,0
{consumergroup=trace-token-events-consumer},1651966257,0
{consumergroup=trace-token-events-consumer},1651966262,0
{consumergroup=trace-token-events-consumer},1651966267,0
{consumergroup=trace-token-events-consumer},1651966272,0
{consumergroup=trace-token-events-consumer},1651966277,0
{consumergroup=trace-token-events-consumer},1651966282,0
{consumergroup=trace-token-events-consumer},1651966287,0
{consumergroup=trace-token-events-consumer},1651966292,0
{consumergroup=trace-token-events-consumer},1651966297,0
{consumergroup=trace-token-events-consumer},1651966302,0
{consumergroup=trace-token-events-consumer},1651966307,0
{consumergroup=trace-token-events-consumer},1651966312,0
{consumergroup=trace-token-events-consumer},1651966317,0
{consumergroup=trace-token-events-consumer},1651966322,0
{consumergroup=trace-token-events-consumer},1651966327,0
{consumergroup=trace-token-events-consumer},1651966332,0
{consumergroup=trace-token-events-consumer},1651966337,0
{consumergroup=trace-token-events-consumer},1651966342,0
{consumergroup=trace-token-events-consumer},1651966347,0
{consumergroup=trace-token-events-consumer},1651966352,0
{consumergroup=trace-token-events-consumer},1651966357,0
{consumergroup=trace-token-events-consumer},1651966362,0
{consumergroup=trace-token-events-consumer},1651966367,0
{consumergroup=trace-token-events-consumer},1651966372,0
{consumergroup=trace-token-events-consumer},1651966377,0
{consumergroup=trace-token-events-consumer},1651966382,0
{consumergroup=trace-token-events-consumer},1651966387,0
{consumergroup=trace-token-events-consumer},1651966392,0
{consumergroup=trace-token-events-consumer},1651966397,0
{consumergroup=trace-token-events-consumer},1651966402,0
{consumergroup=trace-token-events-consumer},1651966407,0
{consumergroup=trace-token-events-consumer},1651966412,0
{consumergroup=trace-token-events-consumer},1651966417,0
{consumergroup=trace-token-events-consumer},1651966422,0
{consumergroup=trace-token-events-consumer},1651966427,0
{consumergroup=trace-token-events-consumer},1651966432,0
{consumergroup=trace-token-events-consumer},1651966437,0
{consumergroup=trace-token-events-consumer},1651966442,0
{consumergroup=trace-token-events-consumer},1651966447,0
{consumergroup=trace-token-events-consumer},1651966452,0
{consumergroup=trace-token-events-consumer},1651966457,0
{consumergroup=trace-token-events-consumer},1651966462,0
{consumergroup=trace-token-events-consumer},1651966467,0
{consumergroup=trace-token-events-consumer},1651966472,0
{consumergroup=trace-token-events-consumer},1651966477,0
{consumergroup=trace-token-events-consumer},1651966482,0
{consumergroup=trace-token-events-consumer},1651966487,0
{consumergroup=trace-token-events-consumer},1651966492,0
{consumergroup=trace-token-events-consumer},1651966497,0
{consumergroup=trace-token-events-consumer},1651966502,0
{consumergroup=trace-token-events-consumer},1651966507,0
{consumergroup=trace-token-events-consumer},1651966512,0
