labels,timestamp,value
{consumergroup=__strimzi-topic-operator-kstreams},1651981484,1
{consumergroup=__strimzi-topic-operator-kstreams},1651981489,1
{consumergroup=__strimzi-topic-operator-kstreams},1651981494,1
{consumergroup=__strimzi-topic-operator-kstreams},1651981499,9
{consumergroup=__strimzi-topic-operator-kstreams},1651981504,9
{consumergroup=__strimzi-topic-operator-kstreams},1651981509,9
{consumergroup=__strimzi-topic-operator-kstreams},1651981514,3
{consumergroup=__strimzi-topic-operator-kstreams},1651981519,3
{consumergroup=__strimzi-topic-operator-kstreams},1651981524,3
{consumergroup=__strimzi-topic-operator-kstreams},1651981529,3
{consumergroup=__strimzi-topic-operator-kstreams},1651981534,3
{consumergroup=__strimzi-topic-operator-kstreams},1651981539,3
{consumergroup=__strimzi-topic-operator-kstreams},1651981544,0
{consumergroup=__strimzi-topic-operator-kstreams},1651981549,0
{consumergroup=__strimzi-topic-operator-kstreams},1651981554,0
{consumergroup=__strimzi-topic-operator-kstreams},1651981559,0
{consumergroup=__strimzi-topic-operator-kstreams},1651981564,0
{consumergroup=__strimzi-topic-operator-kstreams},1651981569,0
{consumergroup=__strimzi-topic-operator-kstreams},1651981574,0
{consumergroup=__strimzi-topic-operator-kstreams},1651981579,0
{consumergroup=__strimzi-topic-operator-kstreams},1651981584,0
{consumergroup=__strimzi-topic-operator-kstreams},1651981589,0
{consumergroup=__strimzi-topic-operator-kstreams},1651981594,0
{consumergroup=__strimzi-topic-operator-kstreams},1651981599,0
{consumergroup=__strimzi-topic-operator-kstreams},1651981604,0
{consumergroup=__strimzi-topic-operator-kstreams},1651981609,0
{consumergroup=__strimzi-topic-operator-kstreams},1651981614,0
{consumergroup=__strimzi-topic-operator-kstreams},1651981619,0
{consumergroup=__strimzi-topic-operator-kstreams},1651981624,0
{consumergroup=__strimzi-topic-operator-kstreams},1651981629,0
{consumergroup=__strimzi-topic-operator-kstreams},1651981634,0
{consumergroup=__strimzi-topic-operator-kstreams},1651981639,0
{consumergroup=__strimzi-topic-operator-kstreams},1651981644,0
{consumergroup=__strimzi-topic-operator-kstreams},1651981649,0
{consumergroup=__strimzi-topic-operator-kstreams},1651981654,0
{consumergroup=__strimzi-topic-operator-kstreams},1651981659,0
{consumergroup=__strimzi-topic-operator-kstreams},1651981664,0
{consumergroup=__strimzi-topic-operator-kstreams},1651981669,0
{consumergroup=__strimzi-topic-operator-kstreams},1651981674,0
{consumergroup=__strimzi-topic-operator-kstreams},1651981679,0
{consumergroup=__strimzi-topic-operator-kstreams},1651981684,0
{consumergroup=__strimzi-topic-operator-kstreams},1651981689,0
{consumergroup=__strimzi-topic-operator-kstreams},1651981694,0
{consumergroup=__strimzi-topic-operator-kstreams},1651981699,0
{consumergroup=__strimzi-topic-operator-kstreams},1651981704,0
{consumergroup=__strimzi-topic-operator-kstreams},1651981709,0
{consumergroup=__strimzi-topic-operator-kstreams},1651981714,0
{consumergroup=__strimzi-topic-operator-kstreams},1651981719,0
{consumergroup=__strimzi-topic-operator-kstreams},1651981724,0
{consumergroup=__strimzi-topic-operator-kstreams},1651981729,0
{consumergroup=__strimzi-topic-operator-kstreams},1651981734,0
{consumergroup=__strimzi-topic-operator-kstreams},1651981739,0
{consumergroup=__strimzi-topic-operator-kstreams},1651981744,0
{consumergroup=__strimzi-topic-operator-kstreams},1651981749,0
{consumergroup=__strimzi-topic-operator-kstreams},1651981754,0
{consumergroup=__strimzi-topic-operator-kstreams},1651981759,0
{consumergroup=__strimzi-topic-operator-kstreams},1651981764,0
{consumergroup=__strimzi-topic-operator-kstreams},1651981769,0
{consumergroup=__strimzi-topic-operator-kstreams},1651981774,0
{consumergroup=__strimzi-topic-operator-kstreams},1651981779,0
{consumergroup=__strimzi-topic-operator-kstreams},1651981784,0
{consumergroup=__strimzi-topic-operator-kstreams},1651981789,0
{consumergroup=__strimzi-topic-operator-kstreams},1651981794,0
{consumergroup=__strimzi-topic-operator-kstreams},1651981799,0
{consumergroup=__strimzi-topic-operator-kstreams},1651981804,0
{consumergroup=__strimzi-topic-operator-kstreams},1651981809,0
{consumergroup=__strimzi-topic-operator-kstreams},1651981814,0
{consumergroup=__strimzi-topic-operator-kstreams},1651981819,0
{consumergroup=__strimzi-topic-operator-kstreams},1651981824,0
{consumergroup=__strimzi-topic-operator-kstreams},1651981829,0
{consumergroup=__strimzi-topic-operator-kstreams},1651981834,0
{consumergroup=__strimzi-topic-operator-kstreams},1651981839,0
{consumergroup=__strimzi-topic-operator-kstreams},1651981844,0
{consumergroup=__strimzi-topic-operator-kstreams},1651981849,0
{consumergroup=__strimzi-topic-operator-kstreams},1651981854,0
{consumergroup=__strimzi-topic-operator-kstreams},1651981859,0
{consumergroup=__strimzi-topic-operator-kstreams},1651981864,0
{consumergroup=__strimzi-topic-operator-kstreams},1651981869,0
{consumergroup=__strimzi-topic-operator-kstreams},1651981874,0
{consumergroup=__strimzi-topic-operator-kstreams},1651981879,0
{consumergroup=__strimzi-topic-operator-kstreams},1651981884,0
{consumergroup=__strimzi-topic-operator-kstreams},1651981889,0
{consumergroup=__strimzi-topic-operator-kstreams},1651981894,0
{consumergroup=__strimzi-topic-operator-kstreams},1651981899,0
{consumergroup=__strimzi-topic-operator-kstreams},1651981904,0
{consumergroup=__strimzi-topic-operator-kstreams},1651981909,0
{consumergroup=__strimzi-topic-operator-kstreams},1651981914,0
{consumergroup=__strimzi-topic-operator-kstreams},1651981919,0
{consumergroup=__strimzi-topic-operator-kstreams},1651981924,0
{consumergroup=__strimzi-topic-operator-kstreams},1651981929,0
{consumergroup=__strimzi-topic-operator-kstreams},1651981934,0
{consumergroup=adapter-service},1651981514,0
{consumergroup=adapter-service},1651981519,0
{consumergroup=adapter-service},1651981524,0
{consumergroup=adapter-service},1651981529,6752
{consumergroup=adapter-service},1651981534,6752
{consumergroup=adapter-service},1651981539,6752
{consumergroup=adapter-service},1651981544,546
{consumergroup=adapter-service},1651981549,546
{consumergroup=adapter-service},1651981554,546
{consumergroup=adapter-service},1651981559,330
{consumergroup=adapter-service},1651981564,330
{consumergroup=adapter-service},1651981569,330
{consumergroup=adapter-service},1651981574,10847
{consumergroup=adapter-service},1651981579,10847
{consumergroup=adapter-service},1651981584,10847
{consumergroup=adapter-service},1651981589,2137
{consumergroup=adapter-service},1651981594,2137
{consumergroup=adapter-service},1651981599,2137
{consumergroup=adapter-service},1651981604,10393
{consumergroup=adapter-service},1651981609,10393
{consumergroup=adapter-service},1651981614,10393
{consumergroup=adapter-service},1651981619,4140
{consumergroup=adapter-service},1651981624,4140
{consumergroup=adapter-service},1651981629,4140
{consumergroup=adapter-service},1651981634,10655
{consumergroup=adapter-service},1651981639,10655
{consumergroup=adapter-service},1651981644,10655
{consumergroup=adapter-service},1651981649,6208
{consumergroup=adapter-service},1651981654,6208
{consumergroup=adapter-service},1651981659,6208
{consumergroup=adapter-service},1651981664,12362
{consumergroup=adapter-service},1651981669,12362
{consumergroup=adapter-service},1651981674,12362
{consumergroup=adapter-service},1651981679,12181
{consumergroup=adapter-service},1651981684,12181
{consumergroup=adapter-service},1651981689,12181
{consumergroup=adapter-service},1651981694,9345
{consumergroup=adapter-service},1651981699,9345
{consumergroup=adapter-service},1651981704,9345
{consumergroup=adapter-service},1651981709,11680
{consumergroup=adapter-service},1651981714,11680
{consumergroup=adapter-service},1651981719,11680
{consumergroup=adapter-service},1651981724,11257
{consumergroup=adapter-service},1651981729,11257
{consumergroup=adapter-service},1651981734,11257
{consumergroup=adapter-service},1651981739,11209
{consumergroup=adapter-service},1651981744,11209
{consumergroup=adapter-service},1651981749,11209
{consumergroup=adapter-service},1651981754,8190
{consumergroup=adapter-service},1651981759,8190
{consumergroup=adapter-service},1651981764,8190
{consumergroup=adapter-service},1651981769,11364
{consumergroup=adapter-service},1651981774,11364
{consumergroup=adapter-service},1651981779,11364
{consumergroup=adapter-service},1651981784,7778
{consumergroup=adapter-service},1651981789,7778
{consumergroup=adapter-service},1651981794,7778
{consumergroup=adapter-service},1651981799,11162
{consumergroup=adapter-service},1651981804,11162
{consumergroup=adapter-service},1651981809,11162
{consumergroup=adapter-service},1651981814,10040
{consumergroup=adapter-service},1651981819,10040
{consumergroup=adapter-service},1651981824,10040
{consumergroup=adapter-service},1651981829,9816
{consumergroup=adapter-service},1651981834,9816
{consumergroup=adapter-service},1651981839,9816
{consumergroup=adapter-service},1651981844,6938
{consumergroup=adapter-service},1651981849,6938
{consumergroup=adapter-service},1651981854,6938
{consumergroup=adapter-service},1651981859,9340
{consumergroup=adapter-service},1651981864,9340
{consumergroup=adapter-service},1651981869,9340
{consumergroup=adapter-service},1651981874,6331
{consumergroup=adapter-service},1651981879,6331
{consumergroup=adapter-service},1651981884,6331
{consumergroup=adapter-service},1651981889,8697
{consumergroup=adapter-service},1651981894,8697
{consumergroup=adapter-service},1651981899,8697
{consumergroup=adapter-service},1651981904,8562
{consumergroup=adapter-service},1651981909,8562
{consumergroup=adapter-service},1651981914,8562
{consumergroup=adapter-service},1651981919,9126
{consumergroup=adapter-service},1651981924,9126
{consumergroup=adapter-service},1651981929,9126
{consumergroup=adapter-service},1651981934,5447
{consumergroup=landscape-service},1651981544,9099
{consumergroup=landscape-service},1651981549,9099
{consumergroup=landscape-service},1651981554,9099
{consumergroup=landscape-service},1651981559,9727
{consumergroup=landscape-service},1651981564,9727
{consumergroup=landscape-service},1651981569,9727
{consumergroup=landscape-service},1651981574,5973
{consumergroup=landscape-service},1651981579,5973
{consumergroup=landscape-service},1651981584,5973
{consumergroup=landscape-service},1651981589,8696
{consumergroup=landscape-service},1651981594,8696
{consumergroup=landscape-service},1651981599,8696
{consumergroup=landscape-service},1651981604,6623
{consumergroup=landscape-service},1651981609,6623
{consumergroup=landscape-service},1651981614,6623
{consumergroup=landscape-service},1651981619,8707
{consumergroup=landscape-service},1651981624,8707
{consumergroup=landscape-service},1651981629,8707
{consumergroup=landscape-service},1651981634,5744
{consumergroup=landscape-service},1651981639,5744
{consumergroup=landscape-service},1651981644,5744
{consumergroup=landscape-service},1651981649,9406
{consumergroup=landscape-service},1651981654,9406
{consumergroup=landscape-service},1651981659,9406
{consumergroup=landscape-service},1651981664,8295
{consumergroup=landscape-service},1651981669,8295
{consumergroup=landscape-service},1651981674,8295
{consumergroup=landscape-service},1651981679,8323
{consumergroup=landscape-service},1651981684,8323
{consumergroup=landscape-service},1651981689,8323
{consumergroup=landscape-service},1651981694,5411
{consumergroup=landscape-service},1651981699,5411
{consumergroup=landscape-service},1651981704,5411
{consumergroup=landscape-service},1651981709,8975
{consumergroup=landscape-service},1651981714,8975
{consumergroup=landscape-service},1651981719,8975
{consumergroup=landscape-service},1651981724,8024
{consumergroup=landscape-service},1651981729,8024
{consumergroup=landscape-service},1651981734,8024
{consumergroup=landscape-service},1651981739,8301
{consumergroup=landscape-service},1651981744,8301
{consumergroup=landscape-service},1651981749,8301
{consumergroup=landscape-service},1651981754,6026
{consumergroup=landscape-service},1651981759,6026
{consumergroup=landscape-service},1651981764,6026
{consumergroup=landscape-service},1651981769,7891
{consumergroup=landscape-service},1651981774,7891
{consumergroup=landscape-service},1651981779,7891
{consumergroup=landscape-service},1651981784,5093
{consumergroup=landscape-service},1651981789,5093
{consumergroup=landscape-service},1651981794,5093
{consumergroup=landscape-service},1651981799,7922
{consumergroup=landscape-service},1651981804,7922
{consumergroup=landscape-service},1651981809,7922
{consumergroup=landscape-service},1651981814,7610
{consumergroup=landscape-service},1651981819,7610
{consumergroup=landscape-service},1651981824,7610
{consumergroup=landscape-service},1651981829,7669
{consumergroup=landscape-service},1651981834,7669
{consumergroup=landscape-service},1651981839,7669
{consumergroup=landscape-service},1651981844,4781
{consumergroup=landscape-service},1651981849,4781
{consumergroup=landscape-service},1651981854,4781
{consumergroup=landscape-service},1651981859,7563
{consumergroup=landscape-service},1651981864,7563
{consumergroup=landscape-service},1651981869,7563
{consumergroup=landscape-service},1651981874,4657
{consumergroup=landscape-service},1651981879,4657
{consumergroup=landscape-service},1651981884,4657
{consumergroup=landscape-service},1651981889,8068
{consumergroup=landscape-service},1651981894,8068
{consumergroup=landscape-service},1651981899,8068
{consumergroup=landscape-service},1651981904,8022
{consumergroup=landscape-service},1651981909,8022
{consumergroup=landscape-service},1651981914,8022
{consumergroup=landscape-service},1651981919,8026
{consumergroup=landscape-service},1651981924,8026
{consumergroup=landscape-service},1651981929,8026
{consumergroup=landscape-service},1651981934,4282
{consumergroup=landscape-token-events-consumer},1651981529,0
{consumergroup=landscape-token-events-consumer},1651981534,0
{consumergroup=landscape-token-events-consumer},1651981539,0
{consumergroup=landscape-token-events-consumer},1651981544,0
{consumergroup=landscape-token-events-consumer},1651981549,0
{consumergroup=landscape-token-events-consumer},1651981554,0
{consumergroup=landscape-token-events-consumer},1651981559,0
{consumergroup=landscape-token-events-consumer},1651981564,0
{consumergroup=landscape-token-events-consumer},1651981569,0
{consumergroup=landscape-token-events-consumer},1651981574,0
{consumergroup=landscape-token-events-consumer},1651981579,0
{consumergroup=landscape-token-events-consumer},1651981584,0
{consumergroup=landscape-token-events-consumer},1651981589,0
{consumergroup=landscape-token-events-consumer},1651981594,0
{consumergroup=landscape-token-events-consumer},1651981599,0
{consumergroup=landscape-token-events-consumer},1651981604,0
{consumergroup=landscape-token-events-consumer},1651981609,0
{consumergroup=landscape-token-events-consumer},1651981614,0
{consumergroup=landscape-token-events-consumer},1651981619,0
{consumergroup=landscape-token-events-consumer},1651981624,0
{consumergroup=landscape-token-events-consumer},1651981629,0
{consumergroup=landscape-token-events-consumer},1651981634,0
{consumergroup=landscape-token-events-consumer},1651981639,0
{consumergroup=landscape-token-events-consumer},1651981644,0
{consumergroup=landscape-token-events-consumer},1651981649,0
{consumergroup=landscape-token-events-consumer},1651981654,0
{consumergroup=landscape-token-events-consumer},1651981659,0
{consumergroup=landscape-token-events-consumer},1651981664,0
{consumergroup=landscape-token-events-consumer},1651981669,0
{consumergroup=landscape-token-events-consumer},1651981674,0
{consumergroup=landscape-token-events-consumer},1651981679,0
{consumergroup=landscape-token-events-consumer},1651981684,0
{consumergroup=landscape-token-events-consumer},1651981689,0
{consumergroup=landscape-token-events-consumer},1651981694,0
{consumergroup=landscape-token-events-consumer},1651981699,0
{consumergroup=landscape-token-events-consumer},1651981704,0
{consumergroup=landscape-token-events-consumer},1651981709,0
{consumergroup=landscape-token-events-consumer},1651981714,0
{consumergroup=landscape-token-events-consumer},1651981719,0
{consumergroup=landscape-token-events-consumer},1651981724,0
{consumergroup=landscape-token-events-consumer},1651981729,0
{consumergroup=landscape-token-events-consumer},1651981734,0
{consumergroup=landscape-token-events-consumer},1651981739,0
{consumergroup=landscape-token-events-consumer},1651981744,0
{consumergroup=landscape-token-events-consumer},1651981749,0
{consumergroup=landscape-token-events-consumer},1651981754,0
{consumergroup=landscape-token-events-consumer},1651981759,0
{consumergroup=landscape-token-events-consumer},1651981764,0
{consumergroup=landscape-token-events-consumer},1651981769,0
{consumergroup=landscape-token-events-consumer},1651981774,0
{consumergroup=landscape-token-events-consumer},1651981779,0
{consumergroup=landscape-token-events-consumer},1651981784,0
{consumergroup=landscape-token-events-consumer},1651981789,0
{consumergroup=landscape-token-events-consumer},1651981794,0
{consumergroup=landscape-token-events-consumer},1651981799,0
{consumergroup=landscape-token-events-consumer},1651981804,0
{consumergroup=landscape-token-events-consumer},1651981809,0
{consumergroup=landscape-token-events-consumer},1651981814,0
{consumergroup=landscape-token-events-consumer},1651981819,0
{consumergroup=landscape-token-events-consumer},1651981824,0
{consumergroup=landscape-token-events-consumer},1651981829,0
{consumergroup=landscape-token-events-consumer},1651981834,0
{consumergroup=landscape-token-events-consumer},1651981839,0
{consumergroup=landscape-token-events-consumer},1651981844,0
{consumergroup=landscape-token-events-consumer},1651981849,0
{consumergroup=landscape-token-events-consumer},1651981854,0
{consumergroup=landscape-token-events-consumer},1651981859,0
{consumergroup=landscape-token-events-consumer},1651981864,0
{consumergroup=landscape-token-events-consumer},1651981869,0
{consumergroup=landscape-token-events-consumer},1651981874,0
{consumergroup=landscape-token-events-consumer},1651981879,0
{consumergroup=landscape-token-events-consumer},1651981884,0
{consumergroup=landscape-token-events-consumer},1651981889,0
{consumergroup=landscape-token-events-consumer},1651981894,0
{consumergroup=landscape-token-events-consumer},1651981899,0
{consumergroup=landscape-token-events-consumer},1651981904,0
{consumergroup=landscape-token-events-consumer},1651981909,0
{consumergroup=landscape-token-events-consumer},1651981914,0
{consumergroup=landscape-token-events-consumer},1651981919,0
{consumergroup=landscape-token-events-consumer},1651981924,0
{consumergroup=landscape-token-events-consumer},1651981929,0
{consumergroup=landscape-token-events-consumer},1651981934,0
{consumergroup=trace-service},1651981529,1030
{consumergroup=trace-service},1651981534,1030
{consumergroup=trace-service},1651981539,1030
{consumergroup=trace-service},1651981544,55150
{consumergroup=trace-service},1651981549,55150
{consumergroup=trace-service},1651981554,55150
{consumergroup=trace-service},1651981559,18116
{consumergroup=trace-service},1651981564,18116
{consumergroup=trace-service},1651981569,18116
{consumergroup=trace-service},1651981574,37254
{consumergroup=trace-service},1651981579,37254
{consumergroup=trace-service},1651981584,37254
{consumergroup=trace-service},1651981589,18823
{consumergroup=trace-service},1651981594,18823
{consumergroup=trace-service},1651981599,18823
{consumergroup=trace-service},1651981604,28433
{consumergroup=trace-service},1651981609,28433
{consumergroup=trace-service},1651981614,28433
{consumergroup=trace-service},1651981619,15248
{consumergroup=trace-service},1651981624,15248
{consumergroup=trace-service},1651981629,15248
{consumergroup=trace-service},1651981634,28697
{consumergroup=trace-service},1651981639,28697
{consumergroup=trace-service},1651981644,28697
{consumergroup=trace-service},1651981649,9908
{consumergroup=trace-service},1651981654,9908
{consumergroup=trace-service},1651981659,9908
{consumergroup=trace-service},1651981664,40235
{consumergroup=trace-service},1651981669,40235
{consumergroup=trace-service},1651981674,40235
{consumergroup=trace-service},1651981679,10501
{consumergroup=trace-service},1651981684,10501
{consumergroup=trace-service},1651981689,10501
{consumergroup=trace-service},1651981694,37211
{consumergroup=trace-service},1651981699,37211
{consumergroup=trace-service},1651981704,37211
{consumergroup=trace-service},1651981709,14838
{consumergroup=trace-service},1651981714,14838
{consumergroup=trace-service},1651981719,14838
{consumergroup=trace-service},1651981724,28177
{consumergroup=trace-service},1651981729,28177
{consumergroup=trace-service},1651981734,28177
{consumergroup=trace-service},1651981739,12655
{consumergroup=trace-service},1651981744,12655
{consumergroup=trace-service},1651981749,12655
{consumergroup=trace-service},1651981754,31991
{consumergroup=trace-service},1651981759,31991
{consumergroup=trace-service},1651981764,31991
{consumergroup=trace-service},1651981769,17756
{consumergroup=trace-service},1651981774,17756
{consumergroup=trace-service},1651981779,17756
{consumergroup=trace-service},1651981784,32037
{consumergroup=trace-service},1651981789,32037
{consumergroup=trace-service},1651981794,32037
{consumergroup=trace-service},1651981799,22126
{consumergroup=trace-service},1651981804,22126
{consumergroup=trace-service},1651981809,22126
{consumergroup=trace-service},1651981814,31780
{consumergroup=trace-service},1651981819,31780
{consumergroup=trace-service},1651981824,31780
{consumergroup=trace-service},1651981829,20782
{consumergroup=trace-service},1651981834,20782
{consumergroup=trace-service},1651981839,20782
{consumergroup=trace-service},1651981844,33902
{consumergroup=trace-service},1651981849,33902
{consumergroup=trace-service},1651981854,33902
{consumergroup=trace-service},1651981859,15957
{consumergroup=trace-service},1651981864,15957
{consumergroup=trace-service},1651981869,15957
{consumergroup=trace-service},1651981874,29912
{consumergroup=trace-service},1651981879,29912
{consumergroup=trace-service},1651981884,29912
{consumergroup=trace-service},1651981889,18246
{consumergroup=trace-service},1651981894,18246
{consumergroup=trace-service},1651981899,18246
{consumergroup=trace-service},1651981904,33022
{consumergroup=trace-service},1651981909,33022
{consumergroup=trace-service},1651981914,33022
{consumergroup=trace-service},1651981919,20225
{consumergroup=trace-service},1651981924,20225
{consumergroup=trace-service},1651981929,20225
{consumergroup=trace-service},1651981934,31553
{consumergroup=trace-token-events-consumer},1651981529,0
{consumergroup=trace-token-events-consumer},1651981534,0
{consumergroup=trace-token-events-consumer},1651981539,0
{consumergroup=trace-token-events-consumer},1651981544,0
{consumergroup=trace-token-events-consumer},1651981549,0
{consumergroup=trace-token-events-consumer},1651981554,0
{consumergroup=trace-token-events-consumer},1651981559,0
{consumergroup=trace-token-events-consumer},1651981564,0
{consumergroup=trace-token-events-consumer},1651981569,0
{consumergroup=trace-token-events-consumer},1651981574,0
{consumergroup=trace-token-events-consumer},1651981579,0
{consumergroup=trace-token-events-consumer},1651981584,0
{consumergroup=trace-token-events-consumer},1651981589,0
{consumergroup=trace-token-events-consumer},1651981594,0
{consumergroup=trace-token-events-consumer},1651981599,0
{consumergroup=trace-token-events-consumer},1651981604,0
{consumergroup=trace-token-events-consumer},1651981609,0
{consumergroup=trace-token-events-consumer},1651981614,0
{consumergroup=trace-token-events-consumer},1651981619,0
{consumergroup=trace-token-events-consumer},1651981624,0
{consumergroup=trace-token-events-consumer},1651981629,0
{consumergroup=trace-token-events-consumer},1651981634,0
{consumergroup=trace-token-events-consumer},1651981639,0
{consumergroup=trace-token-events-consumer},1651981644,0
{consumergroup=trace-token-events-consumer},1651981649,0
{consumergroup=trace-token-events-consumer},1651981654,0
{consumergroup=trace-token-events-consumer},1651981659,0
{consumergroup=trace-token-events-consumer},1651981664,0
{consumergroup=trace-token-events-consumer},1651981669,0
{consumergroup=trace-token-events-consumer},1651981674,0
{consumergroup=trace-token-events-consumer},1651981679,0
{consumergroup=trace-token-events-consumer},1651981684,0
{consumergroup=trace-token-events-consumer},1651981689,0
{consumergroup=trace-token-events-consumer},1651981694,0
{consumergroup=trace-token-events-consumer},1651981699,0
{consumergroup=trace-token-events-consumer},1651981704,0
{consumergroup=trace-token-events-consumer},1651981709,0
{consumergroup=trace-token-events-consumer},1651981714,0
{consumergroup=trace-token-events-consumer},1651981719,0
{consumergroup=trace-token-events-consumer},1651981724,0
{consumergroup=trace-token-events-consumer},1651981729,0
{consumergroup=trace-token-events-consumer},1651981734,0
{consumergroup=trace-token-events-consumer},1651981739,0
{consumergroup=trace-token-events-consumer},1651981744,0
{consumergroup=trace-token-events-consumer},1651981749,0
{consumergroup=trace-token-events-consumer},1651981754,0
{consumergroup=trace-token-events-consumer},1651981759,0
{consumergroup=trace-token-events-consumer},1651981764,0
{consumergroup=trace-token-events-consumer},1651981769,0
{consumergroup=trace-token-events-consumer},1651981774,0
{consumergroup=trace-token-events-consumer},1651981779,0
{consumergroup=trace-token-events-consumer},1651981784,0
{consumergroup=trace-token-events-consumer},1651981789,0
{consumergroup=trace-token-events-consumer},1651981794,0
{consumergroup=trace-token-events-consumer},1651981799,0
{consumergroup=trace-token-events-consumer},1651981804,0
{consumergroup=trace-token-events-consumer},1651981809,0
{consumergroup=trace-token-events-consumer},1651981814,0
{consumergroup=trace-token-events-consumer},1651981819,0
{consumergroup=trace-token-events-consumer},1651981824,0
{consumergroup=trace-token-events-consumer},1651981829,0
{consumergroup=trace-token-events-consumer},1651981834,0
{consumergroup=trace-token-events-consumer},1651981839,0
{consumergroup=trace-token-events-consumer},1651981844,0
{consumergroup=trace-token-events-consumer},1651981849,0
{consumergroup=trace-token-events-consumer},1651981854,0
{consumergroup=trace-token-events-consumer},1651981859,0
{consumergroup=trace-token-events-consumer},1651981864,0
{consumergroup=trace-token-events-consumer},1651981869,0
{consumergroup=trace-token-events-consumer},1651981874,0
{consumergroup=trace-token-events-consumer},1651981879,0
{consumergroup=trace-token-events-consumer},1651981884,0
{consumergroup=trace-token-events-consumer},1651981889,0
{consumergroup=trace-token-events-consumer},1651981894,0
{consumergroup=trace-token-events-consumer},1651981899,0
{consumergroup=trace-token-events-consumer},1651981904,0
{consumergroup=trace-token-events-consumer},1651981909,0
{consumergroup=trace-token-events-consumer},1651981914,0
{consumergroup=trace-token-events-consumer},1651981919,0
{consumergroup=trace-token-events-consumer},1651981924,0
{consumergroup=trace-token-events-consumer},1651981929,0
{consumergroup=trace-token-events-consumer},1651981934,0
