labels,timestamp,value
{job=theodolite-stu200776/combined-trace-podmonitor},1652344990,0
{job=theodolite-stu200776/combined-trace-podmonitor},1652344995,0
{job=theodolite-stu200776/combined-trace-podmonitor},1652345000,0
{job=theodolite-stu200776/combined-trace-podmonitor},1652345005,0
{job=theodolite-stu200776/combined-trace-podmonitor},1652345010,0
{job=theodolite-stu200776/combined-trace-podmonitor},1652345015,0
{job=theodolite-stu200776/combined-trace-podmonitor},1652345020,0
{job=theodolite-stu200776/combined-trace-podmonitor},1652345025,0
{job=theodolite-stu200776/combined-trace-podmonitor},1652345030,0
{job=theodolite-stu200776/combined-trace-podmonitor},1652345035,0
{job=theodolite-stu200776/combined-trace-podmonitor},1652345040,0
{job=theodolite-stu200776/combined-trace-podmonitor},1652345045,0
{job=theodolite-stu200776/combined-trace-podmonitor},1652345050,0
{job=theodolite-stu200776/combined-trace-podmonitor},1652345055,0
{job=theodolite-stu200776/combined-trace-podmonitor},1652345060,0
{job=theodolite-stu200776/combined-trace-podmonitor},1652345065,0
{job=theodolite-stu200776/combined-trace-podmonitor},1652345070,0
{job=theodolite-stu200776/combined-trace-podmonitor},1652345075,0
{job=theodolite-stu200776/combined-trace-podmonitor},1652345080,0
{job=theodolite-stu200776/combined-trace-podmonitor},1652345085,0
{job=theodolite-stu200776/combined-trace-podmonitor},1652345090,0
{job=theodolite-stu200776/combined-trace-podmonitor},1652345095,0
{job=theodolite-stu200776/combined-trace-podmonitor},1652345100,0
{job=theodolite-stu200776/combined-trace-podmonitor},1652345105,0
{job=theodolite-stu200776/combined-trace-podmonitor},1652345110,0
{job=theodolite-stu200776/combined-trace-podmonitor},1652345115,0
{job=theodolite-stu200776/combined-trace-podmonitor},1652345120,0.01996007984031936
{job=theodolite-stu200776/combined-trace-podmonitor},1652345125,0.01996007984031936
{job=theodolite-stu200776/combined-trace-podmonitor},1652345130,0.022726756210086137
{job=theodolite-stu200776/combined-trace-podmonitor},1652345135,0.022726756210086137
{job=theodolite-stu200776/combined-trace-podmonitor},1652345140,0.01838302878782308
{job=theodolite-stu200776/combined-trace-podmonitor},1652345145,0.14933092282801022
{job=theodolite-stu200776/combined-trace-podmonitor},1652345150,0.2650193504770752
{job=theodolite-stu200776/combined-trace-podmonitor},1652345155,0.6385260782873298
{job=theodolite-stu200776/combined-trace-podmonitor},1652345160,1.1901679651470765
{job=theodolite-stu200776/combined-trace-podmonitor},1652345165,1.1533983689183682
{job=theodolite-stu200776/combined-trace-podmonitor},1652345170,1.4284296855194396
{job=theodolite-stu200776/combined-trace-podmonitor},1652345175,1.4038440683652695
{job=theodolite-stu200776/combined-trace-podmonitor},1652345180,1.3835933811266485
{job=theodolite-stu200776/combined-trace-podmonitor},1652345185,1.5430475399370545
{job=theodolite-stu200776/combined-trace-podmonitor},1652345190,1.1232408494128134
{job=theodolite-stu200776/combined-trace-podmonitor},1652345195,1.0533022198764874
{job=theodolite-stu200776/combined-trace-podmonitor},1652345200,0.8148310077412844
{job=theodolite-stu200776/combined-trace-podmonitor},1652345205,0.660710001095143
{job=theodolite-stu200776/combined-trace-podmonitor},1652345210,0.5775961471806832
{job=theodolite-stu200776/combined-trace-podmonitor},1652345215,0.5164222506412798
{job=theodolite-stu200776/combined-trace-podmonitor},1652345220,0.47975112284844085
