labels,timestamp,value
{consumergroup=__strimzi-topic-operator-kstreams},1651951148,11
{consumergroup=__strimzi-topic-operator-kstreams},1651951153,11
{consumergroup=__strimzi-topic-operator-kstreams},1651951158,11
{consumergroup=__strimzi-topic-operator-kstreams},1651951163,3
{consumergroup=__strimzi-topic-operator-kstreams},1651951168,3
{consumergroup=__strimzi-topic-operator-kstreams},1651951173,3
{consumergroup=__strimzi-topic-operator-kstreams},1651951178,3
{consumergroup=__strimzi-topic-operator-kstreams},1651951183,3
{consumergroup=__strimzi-topic-operator-kstreams},1651951188,3
{consumergroup=__strimzi-topic-operator-kstreams},1651951193,0
{consumergroup=__strimzi-topic-operator-kstreams},1651951198,0
{consumergroup=__strimzi-topic-operator-kstreams},1651951203,0
{consumergroup=__strimzi-topic-operator-kstreams},1651951208,0
{consumergroup=__strimzi-topic-operator-kstreams},1651951213,0
{consumergroup=__strimzi-topic-operator-kstreams},1651951218,0
{consumergroup=__strimzi-topic-operator-kstreams},1651951223,0
{consumergroup=__strimzi-topic-operator-kstreams},1651951228,0
{consumergroup=__strimzi-topic-operator-kstreams},1651951233,0
{consumergroup=__strimzi-topic-operator-kstreams},1651951238,0
{consumergroup=__strimzi-topic-operator-kstreams},1651951243,0
{consumergroup=__strimzi-topic-operator-kstreams},1651951248,0
{consumergroup=__strimzi-topic-operator-kstreams},1651951253,0
{consumergroup=__strimzi-topic-operator-kstreams},1651951258,0
{consumergroup=__strimzi-topic-operator-kstreams},1651951263,0
{consumergroup=__strimzi-topic-operator-kstreams},1651951268,0
{consumergroup=__strimzi-topic-operator-kstreams},1651951273,0
{consumergroup=__strimzi-topic-operator-kstreams},1651951278,0
{consumergroup=__strimzi-topic-operator-kstreams},1651951283,0
{consumergroup=__strimzi-topic-operator-kstreams},1651951288,0
{consumergroup=__strimzi-topic-operator-kstreams},1651951293,0
{consumergroup=__strimzi-topic-operator-kstreams},1651951298,0
{consumergroup=__strimzi-topic-operator-kstreams},1651951303,0
{consumergroup=__strimzi-topic-operator-kstreams},1651951308,0
{consumergroup=__strimzi-topic-operator-kstreams},1651951313,0
{consumergroup=__strimzi-topic-operator-kstreams},1651951318,0
{consumergroup=__strimzi-topic-operator-kstreams},1651951323,0
{consumergroup=__strimzi-topic-operator-kstreams},1651951328,0
{consumergroup=__strimzi-topic-operator-kstreams},1651951333,0
{consumergroup=__strimzi-topic-operator-kstreams},1651951338,0
{consumergroup=__strimzi-topic-operator-kstreams},1651951343,0
{consumergroup=__strimzi-topic-operator-kstreams},1651951348,0
{consumergroup=__strimzi-topic-operator-kstreams},1651951353,0
{consumergroup=__strimzi-topic-operator-kstreams},1651951358,0
{consumergroup=__strimzi-topic-operator-kstreams},1651951363,0
{consumergroup=__strimzi-topic-operator-kstreams},1651951368,0
{consumergroup=__strimzi-topic-operator-kstreams},1651951373,0
{consumergroup=__strimzi-topic-operator-kstreams},1651951378,0
{consumergroup=__strimzi-topic-operator-kstreams},1651951383,0
{consumergroup=__strimzi-topic-operator-kstreams},1651951388,0
{consumergroup=__strimzi-topic-operator-kstreams},1651951393,0
{consumergroup=__strimzi-topic-operator-kstreams},1651951398,0
{consumergroup=__strimzi-topic-operator-kstreams},1651951403,0
{consumergroup=__strimzi-topic-operator-kstreams},1651951408,0
{consumergroup=__strimzi-topic-operator-kstreams},1651951413,0
{consumergroup=__strimzi-topic-operator-kstreams},1651951418,0
{consumergroup=__strimzi-topic-operator-kstreams},1651951423,0
{consumergroup=__strimzi-topic-operator-kstreams},1651951428,0
{consumergroup=__strimzi-topic-operator-kstreams},1651951433,0
{consumergroup=__strimzi-topic-operator-kstreams},1651951438,0
{consumergroup=__strimzi-topic-operator-kstreams},1651951443,0
{consumergroup=__strimzi-topic-operator-kstreams},1651951448,0
{consumergroup=__strimzi-topic-operator-kstreams},1651951453,0
{consumergroup=__strimzi-topic-operator-kstreams},1651951458,0
{consumergroup=__strimzi-topic-operator-kstreams},1651951463,0
{consumergroup=__strimzi-topic-operator-kstreams},1651951468,0
{consumergroup=__strimzi-topic-operator-kstreams},1651951473,0
{consumergroup=__strimzi-topic-operator-kstreams},1651951478,0
{consumergroup=__strimzi-topic-operator-kstreams},1651951483,0
{consumergroup=__strimzi-topic-operator-kstreams},1651951488,0
{consumergroup=__strimzi-topic-operator-kstreams},1651951493,0
{consumergroup=__strimzi-topic-operator-kstreams},1651951498,0
{consumergroup=__strimzi-topic-operator-kstreams},1651951503,0
{consumergroup=__strimzi-topic-operator-kstreams},1651951508,0
{consumergroup=__strimzi-topic-operator-kstreams},1651951513,0
{consumergroup=__strimzi-topic-operator-kstreams},1651951518,0
{consumergroup=__strimzi-topic-operator-kstreams},1651951523,0
{consumergroup=__strimzi-topic-operator-kstreams},1651951528,0
{consumergroup=__strimzi-topic-operator-kstreams},1651951533,0
{consumergroup=__strimzi-topic-operator-kstreams},1651951538,0
{consumergroup=__strimzi-topic-operator-kstreams},1651951543,0
{consumergroup=__strimzi-topic-operator-kstreams},1651951548,0
{consumergroup=__strimzi-topic-operator-kstreams},1651951553,0
{consumergroup=__strimzi-topic-operator-kstreams},1651951558,0
{consumergroup=__strimzi-topic-operator-kstreams},1651951563,0
{consumergroup=__strimzi-topic-operator-kstreams},1651951568,0
{consumergroup=__strimzi-topic-operator-kstreams},1651951573,0
{consumergroup=__strimzi-topic-operator-kstreams},1651951578,0
{consumergroup=__strimzi-topic-operator-kstreams},1651951583,0
{consumergroup=__strimzi-topic-operator-kstreams},1651951588,0
{consumergroup=adapter-service},1651951178,0
{consumergroup=adapter-service},1651951183,0
{consumergroup=adapter-service},1651951188,0
{consumergroup=adapter-service},1651951193,14114
{consumergroup=adapter-service},1651951198,14114
{consumergroup=adapter-service},1651951203,14114
{consumergroup=adapter-service},1651951208,9533
{consumergroup=adapter-service},1651951213,9533
{consumergroup=adapter-service},1651951218,9533
{consumergroup=adapter-service},1651951223,14378
{consumergroup=adapter-service},1651951228,14378
{consumergroup=adapter-service},1651951233,14378
{consumergroup=adapter-service},1651951238,9002
{consumergroup=adapter-service},1651951243,9002
{consumergroup=adapter-service},1651951248,9002
{consumergroup=adapter-service},1651951253,13793
{consumergroup=adapter-service},1651951258,13793
{consumergroup=adapter-service},1651951263,13793
{consumergroup=adapter-service},1651951268,8194
{consumergroup=adapter-service},1651951273,8194
{consumergroup=adapter-service},1651951278,8194
{consumergroup=adapter-service},1651951283,12050
{consumergroup=adapter-service},1651951288,12050
{consumergroup=adapter-service},1651951293,12050
{consumergroup=adapter-service},1651951298,7484
{consumergroup=adapter-service},1651951303,7484
{consumergroup=adapter-service},1651951308,7484
{consumergroup=adapter-service},1651951313,11728
{consumergroup=adapter-service},1651951318,11728
{consumergroup=adapter-service},1651951323,11728
{consumergroup=adapter-service},1651951328,6994
{consumergroup=adapter-service},1651951333,6994
{consumergroup=adapter-service},1651951338,6994
{consumergroup=adapter-service},1651951343,11092
{consumergroup=adapter-service},1651951348,11092
{consumergroup=adapter-service},1651951353,11092
{consumergroup=adapter-service},1651951358,6180
{consumergroup=adapter-service},1651951363,6180
{consumergroup=adapter-service},1651951368,6180
{consumergroup=adapter-service},1651951373,10373
{consumergroup=adapter-service},1651951378,10373
{consumergroup=adapter-service},1651951383,10373
{consumergroup=adapter-service},1651951388,5567
{consumergroup=adapter-service},1651951393,5567
{consumergroup=adapter-service},1651951398,5567
{consumergroup=adapter-service},1651951403,9726
{consumergroup=adapter-service},1651951408,9726
{consumergroup=adapter-service},1651951413,9726
{consumergroup=adapter-service},1651951418,5297
{consumergroup=adapter-service},1651951423,5297
{consumergroup=adapter-service},1651951428,5297
{consumergroup=adapter-service},1651951433,9040
{consumergroup=adapter-service},1651951438,9040
{consumergroup=adapter-service},1651951443,9040
{consumergroup=adapter-service},1651951448,5502
{consumergroup=adapter-service},1651951453,5502
{consumergroup=adapter-service},1651951458,5502
{consumergroup=adapter-service},1651951463,8342
{consumergroup=adapter-service},1651951468,8342
{consumergroup=adapter-service},1651951473,8342
{consumergroup=adapter-service},1651951478,3690
{consumergroup=adapter-service},1651951483,3690
{consumergroup=adapter-service},1651951488,3690
{consumergroup=adapter-service},1651951493,8828
{consumergroup=adapter-service},1651951498,8828
{consumergroup=adapter-service},1651951503,8828
{consumergroup=adapter-service},1651951508,3384
{consumergroup=adapter-service},1651951513,3384
{consumergroup=adapter-service},1651951518,3384
{consumergroup=adapter-service},1651951523,7303
{consumergroup=adapter-service},1651951528,7303
{consumergroup=adapter-service},1651951533,7303
{consumergroup=adapter-service},1651951538,2543
{consumergroup=adapter-service},1651951543,2543
{consumergroup=adapter-service},1651951548,2543
{consumergroup=adapter-service},1651951553,6510
{consumergroup=adapter-service},1651951558,6510
{consumergroup=adapter-service},1651951563,6510
{consumergroup=adapter-service},1651951568,2433
{consumergroup=adapter-service},1651951573,2433
{consumergroup=adapter-service},1651951578,2433
{consumergroup=adapter-service},1651951583,6060
{consumergroup=adapter-service},1651951588,6060
{consumergroup=landscape-service},1651951193,18483
{consumergroup=landscape-service},1651951198,18483
{consumergroup=landscape-service},1651951203,18483
{consumergroup=landscape-service},1651951208,13980
{consumergroup=landscape-service},1651951213,13980
{consumergroup=landscape-service},1651951218,13980
{consumergroup=landscape-service},1651951223,17034
{consumergroup=landscape-service},1651951228,17034
{consumergroup=landscape-service},1651951233,17034
{consumergroup=landscape-service},1651951238,12625
{consumergroup=landscape-service},1651951243,12625
{consumergroup=landscape-service},1651951248,12625
{consumergroup=landscape-service},1651951253,16745
{consumergroup=landscape-service},1651951258,16745
{consumergroup=landscape-service},1651951263,16745
{consumergroup=landscape-service},1651951268,12361
{consumergroup=landscape-service},1651951273,12361
{consumergroup=landscape-service},1651951278,12361
{consumergroup=landscape-service},1651951283,16512
{consumergroup=landscape-service},1651951288,16512
{consumergroup=landscape-service},1651951293,16512
{consumergroup=landscape-service},1651951298,13242
{consumergroup=landscape-service},1651951303,13242
{consumergroup=landscape-service},1651951308,13242
{consumergroup=landscape-service},1651951313,16277
{consumergroup=landscape-service},1651951318,16277
{consumergroup=landscape-service},1651951323,16277
{consumergroup=landscape-service},1651951328,12021
{consumergroup=landscape-service},1651951333,12021
{consumergroup=landscape-service},1651951338,12021
{consumergroup=landscape-service},1651951343,17438
{consumergroup=landscape-service},1651951348,17438
{consumergroup=landscape-service},1651951353,17438
{consumergroup=landscape-service},1651951358,11641
{consumergroup=landscape-service},1651951363,11641
{consumergroup=landscape-service},1651951368,11641
{consumergroup=landscape-service},1651951373,17276
{consumergroup=landscape-service},1651951378,17276
{consumergroup=landscape-service},1651951383,17276
{consumergroup=landscape-service},1651951388,11505
{consumergroup=landscape-service},1651951393,11505
{consumergroup=landscape-service},1651951398,11505
{consumergroup=landscape-service},1651951403,15895
{consumergroup=landscape-service},1651951408,15895
{consumergroup=landscape-service},1651951413,15895
{consumergroup=landscape-service},1651951418,12738
{consumergroup=landscape-service},1651951423,12738
{consumergroup=landscape-service},1651951428,12738
{consumergroup=landscape-service},1651951433,16687
{consumergroup=landscape-service},1651951438,16687
{consumergroup=landscape-service},1651951443,16687
{consumergroup=landscape-service},1651951448,11280
{consumergroup=landscape-service},1651951453,11280
{consumergroup=landscape-service},1651951458,11280
{consumergroup=landscape-service},1651951463,16413
{consumergroup=landscape-service},1651951468,16413
{consumergroup=landscape-service},1651951473,16413
{consumergroup=landscape-service},1651951478,12057
{consumergroup=landscape-service},1651951483,12057
{consumergroup=landscape-service},1651951488,12057
{consumergroup=landscape-service},1651951493,16345
{consumergroup=landscape-service},1651951498,16345
{consumergroup=landscape-service},1651951503,16345
{consumergroup=landscape-service},1651951508,12003
{consumergroup=landscape-service},1651951513,12003
{consumergroup=landscape-service},1651951518,12003
{consumergroup=landscape-service},1651951523,16291
{consumergroup=landscape-service},1651951528,16291
{consumergroup=landscape-service},1651951533,16291
{consumergroup=landscape-service},1651951538,10669
{consumergroup=landscape-service},1651951543,10669
{consumergroup=landscape-service},1651951548,10669
{consumergroup=landscape-service},1651951553,14817
{consumergroup=landscape-service},1651951558,14817
{consumergroup=landscape-service},1651951563,14817
{consumergroup=landscape-service},1651951568,10516
{consumergroup=landscape-service},1651951573,10516
{consumergroup=landscape-service},1651951578,10516
{consumergroup=landscape-service},1651951583,15879
{consumergroup=landscape-service},1651951588,15879
{consumergroup=landscape-token-events-consumer},1651951178,0
{consumergroup=landscape-token-events-consumer},1651951183,0
{consumergroup=landscape-token-events-consumer},1651951188,0
{consumergroup=landscape-token-events-consumer},1651951193,0
{consumergroup=landscape-token-events-consumer},1651951198,0
{consumergroup=landscape-token-events-consumer},1651951203,0
{consumergroup=landscape-token-events-consumer},1651951208,0
{consumergroup=landscape-token-events-consumer},1651951213,0
{consumergroup=landscape-token-events-consumer},1651951218,0
{consumergroup=landscape-token-events-consumer},1651951223,0
{consumergroup=landscape-token-events-consumer},1651951228,0
{consumergroup=landscape-token-events-consumer},1651951233,0
{consumergroup=landscape-token-events-consumer},1651951238,0
{consumergroup=landscape-token-events-consumer},1651951243,0
{consumergroup=landscape-token-events-consumer},1651951248,0
{consumergroup=landscape-token-events-consumer},1651951253,0
{consumergroup=landscape-token-events-consumer},1651951258,0
{consumergroup=landscape-token-events-consumer},1651951263,0
{consumergroup=landscape-token-events-consumer},1651951268,0
{consumergroup=landscape-token-events-consumer},1651951273,0
{consumergroup=landscape-token-events-consumer},1651951278,0
{consumergroup=landscape-token-events-consumer},1651951283,0
{consumergroup=landscape-token-events-consumer},1651951288,0
{consumergroup=landscape-token-events-consumer},1651951293,0
{consumergroup=landscape-token-events-consumer},1651951298,0
{consumergroup=landscape-token-events-consumer},1651951303,0
{consumergroup=landscape-token-events-consumer},1651951308,0
{consumergroup=landscape-token-events-consumer},1651951313,0
{consumergroup=landscape-token-events-consumer},1651951318,0
{consumergroup=landscape-token-events-consumer},1651951323,0
{consumergroup=landscape-token-events-consumer},1651951328,0
{consumergroup=landscape-token-events-consumer},1651951333,0
{consumergroup=landscape-token-events-consumer},1651951338,0
{consumergroup=landscape-token-events-consumer},1651951343,0
{consumergroup=landscape-token-events-consumer},1651951348,0
{consumergroup=landscape-token-events-consumer},1651951353,0
{consumergroup=landscape-token-events-consumer},1651951358,0
{consumergroup=landscape-token-events-consumer},1651951363,0
{consumergroup=landscape-token-events-consumer},1651951368,0
{consumergroup=landscape-token-events-consumer},1651951373,0
{consumergroup=landscape-token-events-consumer},1651951378,0
{consumergroup=landscape-token-events-consumer},1651951383,0
{consumergroup=landscape-token-events-consumer},1651951388,0
{consumergroup=landscape-token-events-consumer},1651951393,0
{consumergroup=landscape-token-events-consumer},1651951398,0
{consumergroup=landscape-token-events-consumer},1651951403,0
{consumergroup=landscape-token-events-consumer},1651951408,0
{consumergroup=landscape-token-events-consumer},1651951413,0
{consumergroup=landscape-token-events-consumer},1651951418,0
{consumergroup=landscape-token-events-consumer},1651951423,0
{consumergroup=landscape-token-events-consumer},1651951428,0
{consumergroup=landscape-token-events-consumer},1651951433,0
{consumergroup=landscape-token-events-consumer},1651951438,0
{consumergroup=landscape-token-events-consumer},1651951443,0
{consumergroup=landscape-token-events-consumer},1651951448,0
{consumergroup=landscape-token-events-consumer},1651951453,0
{consumergroup=landscape-token-events-consumer},1651951458,0
{consumergroup=landscape-token-events-consumer},1651951463,0
{consumergroup=landscape-token-events-consumer},1651951468,0
{consumergroup=landscape-token-events-consumer},1651951473,0
{consumergroup=landscape-token-events-consumer},1651951478,0
{consumergroup=landscape-token-events-consumer},1651951483,0
{consumergroup=landscape-token-events-consumer},1651951488,0
{consumergroup=landscape-token-events-consumer},1651951493,0
{consumergroup=landscape-token-events-consumer},1651951498,0
{consumergroup=landscape-token-events-consumer},1651951503,0
{consumergroup=landscape-token-events-consumer},1651951508,0
{consumergroup=landscape-token-events-consumer},1651951513,0
{consumergroup=landscape-token-events-consumer},1651951518,0
{consumergroup=landscape-token-events-consumer},1651951523,0
{consumergroup=landscape-token-events-consumer},1651951528,0
{consumergroup=landscape-token-events-consumer},1651951533,0
{consumergroup=landscape-token-events-consumer},1651951538,0
{consumergroup=landscape-token-events-consumer},1651951543,0
{consumergroup=landscape-token-events-consumer},1651951548,0
{consumergroup=landscape-token-events-consumer},1651951553,0
{consumergroup=landscape-token-events-consumer},1651951558,0
{consumergroup=landscape-token-events-consumer},1651951563,0
{consumergroup=landscape-token-events-consumer},1651951568,0
{consumergroup=landscape-token-events-consumer},1651951573,0
{consumergroup=landscape-token-events-consumer},1651951578,0
{consumergroup=landscape-token-events-consumer},1651951583,0
{consumergroup=landscape-token-events-consumer},1651951588,0
{consumergroup=trace-service},1651951193,26316
{consumergroup=trace-service},1651951198,26316
{consumergroup=trace-service},1651951203,26316
{consumergroup=trace-service},1651951208,37644
{consumergroup=trace-service},1651951213,37644
{consumergroup=trace-service},1651951218,37644
{consumergroup=trace-service},1651951223,94310
{consumergroup=trace-service},1651951228,94310
{consumergroup=trace-service},1651951233,94310
{consumergroup=trace-service},1651951238,30887
{consumergroup=trace-service},1651951243,30887
{consumergroup=trace-service},1651951248,30887
{consumergroup=trace-service},1651951253,81499
{consumergroup=trace-service},1651951258,81499
{consumergroup=trace-service},1651951263,81499
{consumergroup=trace-service},1651951268,45079
{consumergroup=trace-service},1651951273,45079
{consumergroup=trace-service},1651951278,45079
{consumergroup=trace-service},1651951283,113824
{consumergroup=trace-service},1651951288,113824
{consumergroup=trace-service},1651951293,113824
{consumergroup=trace-service},1651951298,33804
{consumergroup=trace-service},1651951303,33804
{consumergroup=trace-service},1651951308,33804
{consumergroup=trace-service},1651951313,88350
{consumergroup=trace-service},1651951318,88350
{consumergroup=trace-service},1651951323,88350
{consumergroup=trace-service},1651951328,170522
{consumergroup=trace-service},1651951333,170522
{consumergroup=trace-service},1651951338,170522
{consumergroup=trace-service},1651951343,97076
{consumergroup=trace-service},1651951348,97076
{consumergroup=trace-service},1651951353,97076
{consumergroup=trace-service},1651951358,31665
{consumergroup=trace-service},1651951363,31665
{consumergroup=trace-service},1651951368,31665
{consumergroup=trace-service},1651951373,95054
{consumergroup=trace-service},1651951378,95054
{consumergroup=trace-service},1651951383,95054
{consumergroup=trace-service},1651951388,89955
{consumergroup=trace-service},1651951393,89955
{consumergroup=trace-service},1651951398,89955
{consumergroup=trace-service},1651951403,125573
{consumergroup=trace-service},1651951408,125573
{consumergroup=trace-service},1651951413,125573
{consumergroup=trace-service},1651951418,38440
{consumergroup=trace-service},1651951423,38440
{consumergroup=trace-service},1651951428,38440
{consumergroup=trace-service},1651951433,93343
{consumergroup=trace-service},1651951438,93343
{consumergroup=trace-service},1651951443,93343
{consumergroup=trace-service},1651951448,38688
{consumergroup=trace-service},1651951453,38688
{consumergroup=trace-service},1651951458,38688
{consumergroup=trace-service},1651951463,75665
{consumergroup=trace-service},1651951468,75665
{consumergroup=trace-service},1651951473,75665
{consumergroup=trace-service},1651951478,43962
{consumergroup=trace-service},1651951483,43962
{consumergroup=trace-service},1651951488,43962
{consumergroup=trace-service},1651951493,131475
{consumergroup=trace-service},1651951498,131475
{consumergroup=trace-service},1651951503,131475
{consumergroup=trace-service},1651951508,38637
{consumergroup=trace-service},1651951513,38637
{consumergroup=trace-service},1651951518,38637
{consumergroup=trace-service},1651951523,102025
{consumergroup=trace-service},1651951528,102025
{consumergroup=trace-service},1651951533,102025
{consumergroup=trace-service},1651951538,42954
{consumergroup=trace-service},1651951543,42954
{consumergroup=trace-service},1651951548,42954
{consumergroup=trace-service},1651951553,132134
{consumergroup=trace-service},1651951558,132134
{consumergroup=trace-service},1651951563,132134
{consumergroup=trace-service},1651951568,37202
{consumergroup=trace-service},1651951573,37202
{consumergroup=trace-service},1651951578,37202
{consumergroup=trace-service},1651951583,82052
{consumergroup=trace-service},1651951588,82052
{consumergroup=trace-token-events-consumer},1651951178,0
{consumergroup=trace-token-events-consumer},1651951183,0
{consumergroup=trace-token-events-consumer},1651951188,0
{consumergroup=trace-token-events-consumer},1651951193,0
{consumergroup=trace-token-events-consumer},1651951198,0
{consumergroup=trace-token-events-consumer},1651951203,0
{consumergroup=trace-token-events-consumer},1651951208,0
{consumergroup=trace-token-events-consumer},1651951213,0
{consumergroup=trace-token-events-consumer},1651951218,0
{consumergroup=trace-token-events-consumer},1651951223,0
{consumergroup=trace-token-events-consumer},1651951228,0
{consumergroup=trace-token-events-consumer},1651951233,0
{consumergroup=trace-token-events-consumer},1651951238,0
{consumergroup=trace-token-events-consumer},1651951243,0
{consumergroup=trace-token-events-consumer},1651951248,0
{consumergroup=trace-token-events-consumer},1651951253,0
{consumergroup=trace-token-events-consumer},1651951258,0
{consumergroup=trace-token-events-consumer},1651951263,0
{consumergroup=trace-token-events-consumer},1651951268,0
{consumergroup=trace-token-events-consumer},1651951273,0
{consumergroup=trace-token-events-consumer},1651951278,0
{consumergroup=trace-token-events-consumer},1651951283,0
{consumergroup=trace-token-events-consumer},1651951288,0
{consumergroup=trace-token-events-consumer},1651951293,0
{consumergroup=trace-token-events-consumer},1651951298,0
{consumergroup=trace-token-events-consumer},1651951303,0
{consumergroup=trace-token-events-consumer},1651951308,0
{consumergroup=trace-token-events-consumer},1651951313,0
{consumergroup=trace-token-events-consumer},1651951318,0
{consumergroup=trace-token-events-consumer},1651951323,0
{consumergroup=trace-token-events-consumer},1651951328,0
{consumergroup=trace-token-events-consumer},1651951333,0
{consumergroup=trace-token-events-consumer},1651951338,0
{consumergroup=trace-token-events-consumer},1651951343,0
{consumergroup=trace-token-events-consumer},1651951348,0
{consumergroup=trace-token-events-consumer},1651951353,0
{consumergroup=trace-token-events-consumer},1651951358,0
{consumergroup=trace-token-events-consumer},1651951363,0
{consumergroup=trace-token-events-consumer},1651951368,0
{consumergroup=trace-token-events-consumer},1651951373,0
{consumergroup=trace-token-events-consumer},1651951378,0
{consumergroup=trace-token-events-consumer},1651951383,0
{consumergroup=trace-token-events-consumer},1651951388,0
{consumergroup=trace-token-events-consumer},1651951393,0
{consumergroup=trace-token-events-consumer},1651951398,0
{consumergroup=trace-token-events-consumer},1651951403,0
{consumergroup=trace-token-events-consumer},1651951408,0
{consumergroup=trace-token-events-consumer},1651951413,0
{consumergroup=trace-token-events-consumer},1651951418,0
{consumergroup=trace-token-events-consumer},1651951423,0
{consumergroup=trace-token-events-consumer},1651951428,0
{consumergroup=trace-token-events-consumer},1651951433,0
{consumergroup=trace-token-events-consumer},1651951438,0
{consumergroup=trace-token-events-consumer},1651951443,0
{consumergroup=trace-token-events-consumer},1651951448,0
{consumergroup=trace-token-events-consumer},1651951453,0
{consumergroup=trace-token-events-consumer},1651951458,0
{consumergroup=trace-token-events-consumer},1651951463,0
{consumergroup=trace-token-events-consumer},1651951468,0
{consumergroup=trace-token-events-consumer},1651951473,0
{consumergroup=trace-token-events-consumer},1651951478,0
{consumergroup=trace-token-events-consumer},1651951483,0
{consumergroup=trace-token-events-consumer},1651951488,0
{consumergroup=trace-token-events-consumer},1651951493,0
{consumergroup=trace-token-events-consumer},1651951498,0
{consumergroup=trace-token-events-consumer},1651951503,0
{consumergroup=trace-token-events-consumer},1651951508,0
{consumergroup=trace-token-events-consumer},1651951513,0
{consumergroup=trace-token-events-consumer},1651951518,0
{consumergroup=trace-token-events-consumer},1651951523,0
{consumergroup=trace-token-events-consumer},1651951528,0
{consumergroup=trace-token-events-consumer},1651951533,0
{consumergroup=trace-token-events-consumer},1651951538,0
{consumergroup=trace-token-events-consumer},1651951543,0
{consumergroup=trace-token-events-consumer},1651951548,0
{consumergroup=trace-token-events-consumer},1651951553,0
{consumergroup=trace-token-events-consumer},1651951558,0
{consumergroup=trace-token-events-consumer},1651951563,0
{consumergroup=trace-token-events-consumer},1651951568,0
{consumergroup=trace-token-events-consumer},1651951573,0
{consumergroup=trace-token-events-consumer},1651951578,0
{consumergroup=trace-token-events-consumer},1651951583,0
{consumergroup=trace-token-events-consumer},1651951588,0
