labels,timestamp,value
{consumergroup=__strimzi-topic-operator-kstreams},1651957792,11
{consumergroup=__strimzi-topic-operator-kstreams},1651957797,11
{consumergroup=__strimzi-topic-operator-kstreams},1651957802,11
{consumergroup=__strimzi-topic-operator-kstreams},1651957807,0
{consumergroup=__strimzi-topic-operator-kstreams},1651957812,0
{consumergroup=__strimzi-topic-operator-kstreams},1651957817,0
{consumergroup=__strimzi-topic-operator-kstreams},1651957822,2
{consumergroup=__strimzi-topic-operator-kstreams},1651957827,2
{consumergroup=__strimzi-topic-operator-kstreams},1651957832,2
{consumergroup=__strimzi-topic-operator-kstreams},1651957837,0
{consumergroup=__strimzi-topic-operator-kstreams},1651957842,0
{consumergroup=__strimzi-topic-operator-kstreams},1651957847,0
{consumergroup=__strimzi-topic-operator-kstreams},1651957852,1
{consumergroup=__strimzi-topic-operator-kstreams},1651957857,1
{consumergroup=__strimzi-topic-operator-kstreams},1651957862,1
{consumergroup=__strimzi-topic-operator-kstreams},1651957867,0
{consumergroup=__strimzi-topic-operator-kstreams},1651957872,0
{consumergroup=__strimzi-topic-operator-kstreams},1651957877,0
{consumergroup=__strimzi-topic-operator-kstreams},1651957882,0
{consumergroup=__strimzi-topic-operator-kstreams},1651957887,0
{consumergroup=__strimzi-topic-operator-kstreams},1651957892,0
{consumergroup=__strimzi-topic-operator-kstreams},1651957897,0
{consumergroup=__strimzi-topic-operator-kstreams},1651957902,0
{consumergroup=__strimzi-topic-operator-kstreams},1651957907,0
{consumergroup=__strimzi-topic-operator-kstreams},1651957912,0
{consumergroup=__strimzi-topic-operator-kstreams},1651957917,0
{consumergroup=__strimzi-topic-operator-kstreams},1651957922,0
{consumergroup=__strimzi-topic-operator-kstreams},1651957927,0
{consumergroup=__strimzi-topic-operator-kstreams},1651957932,0
{consumergroup=__strimzi-topic-operator-kstreams},1651957937,0
{consumergroup=__strimzi-topic-operator-kstreams},1651957942,0
{consumergroup=__strimzi-topic-operator-kstreams},1651957947,0
{consumergroup=__strimzi-topic-operator-kstreams},1651957952,0
{consumergroup=__strimzi-topic-operator-kstreams},1651957957,0
{consumergroup=__strimzi-topic-operator-kstreams},1651957962,0
{consumergroup=__strimzi-topic-operator-kstreams},1651957967,0
{consumergroup=__strimzi-topic-operator-kstreams},1651957972,0
{consumergroup=__strimzi-topic-operator-kstreams},1651957977,0
{consumergroup=__strimzi-topic-operator-kstreams},1651957982,0
{consumergroup=__strimzi-topic-operator-kstreams},1651957987,0
{consumergroup=__strimzi-topic-operator-kstreams},1651957992,0
{consumergroup=__strimzi-topic-operator-kstreams},1651957997,0
{consumergroup=__strimzi-topic-operator-kstreams},1651958002,0
{consumergroup=__strimzi-topic-operator-kstreams},1651958007,0
{consumergroup=__strimzi-topic-operator-kstreams},1651958012,0
{consumergroup=__strimzi-topic-operator-kstreams},1651958017,0
{consumergroup=__strimzi-topic-operator-kstreams},1651958022,0
{consumergroup=__strimzi-topic-operator-kstreams},1651958027,0
{consumergroup=__strimzi-topic-operator-kstreams},1651958032,0
{consumergroup=__strimzi-topic-operator-kstreams},1651958037,0
{consumergroup=__strimzi-topic-operator-kstreams},1651958042,0
{consumergroup=__strimzi-topic-operator-kstreams},1651958047,0
{consumergroup=__strimzi-topic-operator-kstreams},1651958052,0
{consumergroup=__strimzi-topic-operator-kstreams},1651958057,0
{consumergroup=__strimzi-topic-operator-kstreams},1651958062,0
{consumergroup=__strimzi-topic-operator-kstreams},1651958067,0
{consumergroup=__strimzi-topic-operator-kstreams},1651958072,0
{consumergroup=__strimzi-topic-operator-kstreams},1651958077,0
{consumergroup=__strimzi-topic-operator-kstreams},1651958082,0
{consumergroup=__strimzi-topic-operator-kstreams},1651958087,0
{consumergroup=__strimzi-topic-operator-kstreams},1651958092,0
{consumergroup=__strimzi-topic-operator-kstreams},1651958097,0
{consumergroup=__strimzi-topic-operator-kstreams},1651958102,0
{consumergroup=__strimzi-topic-operator-kstreams},1651958107,0
{consumergroup=__strimzi-topic-operator-kstreams},1651958112,0
{consumergroup=__strimzi-topic-operator-kstreams},1651958117,0
{consumergroup=__strimzi-topic-operator-kstreams},1651958122,0
{consumergroup=__strimzi-topic-operator-kstreams},1651958127,0
{consumergroup=__strimzi-topic-operator-kstreams},1651958132,0
{consumergroup=__strimzi-topic-operator-kstreams},1651958137,0
{consumergroup=__strimzi-topic-operator-kstreams},1651958142,0
{consumergroup=__strimzi-topic-operator-kstreams},1651958147,0
{consumergroup=__strimzi-topic-operator-kstreams},1651958152,0
{consumergroup=__strimzi-topic-operator-kstreams},1651958157,0
{consumergroup=__strimzi-topic-operator-kstreams},1651958162,0
{consumergroup=__strimzi-topic-operator-kstreams},1651958167,0
{consumergroup=__strimzi-topic-operator-kstreams},1651958172,0
{consumergroup=__strimzi-topic-operator-kstreams},1651958177,0
{consumergroup=__strimzi-topic-operator-kstreams},1651958182,0
{consumergroup=__strimzi-topic-operator-kstreams},1651958187,0
{consumergroup=__strimzi-topic-operator-kstreams},1651958192,0
{consumergroup=__strimzi-topic-operator-kstreams},1651958197,0
{consumergroup=__strimzi-topic-operator-kstreams},1651958202,0
{consumergroup=__strimzi-topic-operator-kstreams},1651958207,0
{consumergroup=__strimzi-topic-operator-kstreams},1651958212,0
{consumergroup=__strimzi-topic-operator-kstreams},1651958217,0
{consumergroup=__strimzi-topic-operator-kstreams},1651958222,0
{consumergroup=__strimzi-topic-operator-kstreams},1651958227,0
{consumergroup=__strimzi-topic-operator-kstreams},1651958232,0
{consumergroup=adapter-service},1651957837,7581
{consumergroup=adapter-service},1651957842,7581
{consumergroup=adapter-service},1651957847,7581
{consumergroup=adapter-service},1651957852,12045
{consumergroup=adapter-service},1651957857,12045
{consumergroup=adapter-service},1651957862,12045
{consumergroup=adapter-service},1651957867,7249
{consumergroup=adapter-service},1651957872,7249
{consumergroup=adapter-service},1651957877,7249
{consumergroup=adapter-service},1651957882,11487
{consumergroup=adapter-service},1651957887,11487
{consumergroup=adapter-service},1651957892,11487
{consumergroup=adapter-service},1651957897,6829
{consumergroup=adapter-service},1651957902,6829
{consumergroup=adapter-service},1651957907,6829
{consumergroup=adapter-service},1651957912,11979
{consumergroup=adapter-service},1651957917,11979
{consumergroup=adapter-service},1651957922,11979
{consumergroup=adapter-service},1651957927,6352
{consumergroup=adapter-service},1651957932,6352
{consumergroup=adapter-service},1651957937,6352
{consumergroup=adapter-service},1651957942,10598
{consumergroup=adapter-service},1651957947,10598
{consumergroup=adapter-service},1651957952,10598
{consumergroup=adapter-service},1651957957,6595
{consumergroup=adapter-service},1651957962,6595
{consumergroup=adapter-service},1651957967,6595
{consumergroup=adapter-service},1651957972,10178
{consumergroup=adapter-service},1651957977,10178
{consumergroup=adapter-service},1651957982,10178
{consumergroup=adapter-service},1651957987,5228
{consumergroup=adapter-service},1651957992,5228
{consumergroup=adapter-service},1651957997,5228
{consumergroup=adapter-service},1651958002,9973
{consumergroup=adapter-service},1651958007,9973
{consumergroup=adapter-service},1651958012,9973
{consumergroup=adapter-service},1651958017,4805
{consumergroup=adapter-service},1651958022,4805
{consumergroup=adapter-service},1651958027,4805
{consumergroup=adapter-service},1651958032,9253
{consumergroup=adapter-service},1651958037,9253
{consumergroup=adapter-service},1651958042,9253
{consumergroup=adapter-service},1651958047,4422
{consumergroup=adapter-service},1651958052,4422
{consumergroup=adapter-service},1651958057,4422
{consumergroup=adapter-service},1651958062,8905
{consumergroup=adapter-service},1651958067,8905
{consumergroup=adapter-service},1651958072,8905
{consumergroup=adapter-service},1651958077,4105
{consumergroup=adapter-service},1651958082,4105
{consumergroup=adapter-service},1651958087,4105
{consumergroup=adapter-service},1651958092,8313
{consumergroup=adapter-service},1651958097,8313
{consumergroup=adapter-service},1651958102,8313
{consumergroup=adapter-service},1651958107,7145
{consumergroup=adapter-service},1651958112,7145
{consumergroup=adapter-service},1651958117,7145
{consumergroup=adapter-service},1651958122,8918
{consumergroup=adapter-service},1651958127,8918
{consumergroup=adapter-service},1651958132,8918
{consumergroup=adapter-service},1651958137,5698
{consumergroup=adapter-service},1651958142,5698
{consumergroup=adapter-service},1651958147,5698
{consumergroup=adapter-service},1651958152,7497
{consumergroup=adapter-service},1651958157,7497
{consumergroup=adapter-service},1651958162,7497
{consumergroup=adapter-service},1651958167,5185
{consumergroup=adapter-service},1651958172,5185
{consumergroup=adapter-service},1651958177,5185
{consumergroup=adapter-service},1651958182,6913
{consumergroup=adapter-service},1651958187,6913
{consumergroup=adapter-service},1651958192,6913
{consumergroup=adapter-service},1651958197,4845
{consumergroup=adapter-service},1651958202,4845
{consumergroup=adapter-service},1651958207,4845
{consumergroup=adapter-service},1651958212,6471
{consumergroup=adapter-service},1651958217,6471
{consumergroup=adapter-service},1651958222,6471
{consumergroup=adapter-service},1651958227,5356
{consumergroup=adapter-service},1651958232,5356
{consumergroup=landscape-service},1651957837,1678
{consumergroup=landscape-service},1651957842,1678
{consumergroup=landscape-service},1651957847,1678
{consumergroup=landscape-service},1651957852,6281
{consumergroup=landscape-service},1651957857,6281
{consumergroup=landscape-service},1651957862,6281
{consumergroup=landscape-service},1651957867,2374
{consumergroup=landscape-service},1651957872,2374
{consumergroup=landscape-service},1651957877,2374
{consumergroup=landscape-service},1651957882,6054
{consumergroup=landscape-service},1651957887,6054
{consumergroup=landscape-service},1651957892,6054
{consumergroup=landscape-service},1651957897,1794
{consumergroup=landscape-service},1651957902,1794
{consumergroup=landscape-service},1651957907,1794
{consumergroup=landscape-service},1651957912,5949
{consumergroup=landscape-service},1651957917,5949
{consumergroup=landscape-service},1651957922,5949
{consumergroup=landscape-service},1651957927,2235
{consumergroup=landscape-service},1651957932,2235
{consumergroup=landscape-service},1651957937,2235
{consumergroup=landscape-service},1651957942,6578
{consumergroup=landscape-service},1651957947,6578
{consumergroup=landscape-service},1651957952,6578
{consumergroup=landscape-service},1651957957,1119
{consumergroup=landscape-service},1651957962,1119
{consumergroup=landscape-service},1651957967,1119
{consumergroup=landscape-service},1651957972,5664
{consumergroup=landscape-service},1651957977,5664
{consumergroup=landscape-service},1651957982,5664
{consumergroup=landscape-service},1651957987,951
{consumergroup=landscape-service},1651957992,951
{consumergroup=landscape-service},1651957997,951
{consumergroup=landscape-service},1651958002,5909
{consumergroup=landscape-service},1651958007,5909
{consumergroup=landscape-service},1651958012,5909
{consumergroup=landscape-service},1651958017,1527
{consumergroup=landscape-service},1651958022,1527
{consumergroup=landscape-service},1651958027,1527
{consumergroup=landscape-service},1651958032,6154
{consumergroup=landscape-service},1651958037,6154
{consumergroup=landscape-service},1651958042,6154
{consumergroup=landscape-service},1651958047,663
{consumergroup=landscape-service},1651958052,663
{consumergroup=landscape-service},1651958057,663
{consumergroup=landscape-service},1651958062,5141
{consumergroup=landscape-service},1651958067,5141
{consumergroup=landscape-service},1651958072,5141
{consumergroup=landscape-service},1651958077,566
{consumergroup=landscape-service},1651958082,566
{consumergroup=landscape-service},1651958087,566
{consumergroup=landscape-service},1651958092,5816
{consumergroup=landscape-service},1651958097,5816
{consumergroup=landscape-service},1651958102,5816
{consumergroup=landscape-service},1651958107,536
{consumergroup=landscape-service},1651958112,536
{consumergroup=landscape-service},1651958117,536
{consumergroup=landscape-service},1651958122,5092
{consumergroup=landscape-service},1651958127,5092
{consumergroup=landscape-service},1651958132,5092
{consumergroup=landscape-service},1651958137,332
{consumergroup=landscape-service},1651958142,332
{consumergroup=landscape-service},1651958147,332
{consumergroup=landscape-service},1651958152,4906
{consumergroup=landscape-service},1651958157,4906
{consumergroup=landscape-service},1651958162,4906
{consumergroup=landscape-service},1651958167,722
{consumergroup=landscape-service},1651958172,722
{consumergroup=landscape-service},1651958177,722
{consumergroup=landscape-service},1651958182,4727
{consumergroup=landscape-service},1651958187,4727
{consumergroup=landscape-service},1651958192,4727
{consumergroup=landscape-service},1651958197,738
{consumergroup=landscape-service},1651958202,738
{consumergroup=landscape-service},1651958207,738
{consumergroup=landscape-service},1651958212,4451
{consumergroup=landscape-service},1651958217,4451
{consumergroup=landscape-service},1651958222,4451
{consumergroup=landscape-service},1651958227,186
{consumergroup=landscape-service},1651958232,186
{consumergroup=landscape-token-events-consumer},1651957837,0
{consumergroup=landscape-token-events-consumer},1651957842,0
{consumergroup=landscape-token-events-consumer},1651957847,0
{consumergroup=landscape-token-events-consumer},1651957852,0
{consumergroup=landscape-token-events-consumer},1651957857,0
{consumergroup=landscape-token-events-consumer},1651957862,0
{consumergroup=landscape-token-events-consumer},1651957867,0
{consumergroup=landscape-token-events-consumer},1651957872,0
{consumergroup=landscape-token-events-consumer},1651957877,0
{consumergroup=landscape-token-events-consumer},1651957882,0
{consumergroup=landscape-token-events-consumer},1651957887,0
{consumergroup=landscape-token-events-consumer},1651957892,0
{consumergroup=landscape-token-events-consumer},1651957897,0
{consumergroup=landscape-token-events-consumer},1651957902,0
{consumergroup=landscape-token-events-consumer},1651957907,0
{consumergroup=landscape-token-events-consumer},1651957912,0
{consumergroup=landscape-token-events-consumer},1651957917,0
{consumergroup=landscape-token-events-consumer},1651957922,0
{consumergroup=landscape-token-events-consumer},1651957927,0
{consumergroup=landscape-token-events-consumer},1651957932,0
{consumergroup=landscape-token-events-consumer},1651957937,0
{consumergroup=landscape-token-events-consumer},1651957942,0
{consumergroup=landscape-token-events-consumer},1651957947,0
{consumergroup=landscape-token-events-consumer},1651957952,0
{consumergroup=landscape-token-events-consumer},1651957957,0
{consumergroup=landscape-token-events-consumer},1651957962,0
{consumergroup=landscape-token-events-consumer},1651957967,0
{consumergroup=landscape-token-events-consumer},1651957972,0
{consumergroup=landscape-token-events-consumer},1651957977,0
{consumergroup=landscape-token-events-consumer},1651957982,0
{consumergroup=landscape-token-events-consumer},1651957987,0
{consumergroup=landscape-token-events-consumer},1651957992,0
{consumergroup=landscape-token-events-consumer},1651957997,0
{consumergroup=landscape-token-events-consumer},1651958002,0
{consumergroup=landscape-token-events-consumer},1651958007,0
{consumergroup=landscape-token-events-consumer},1651958012,0
{consumergroup=landscape-token-events-consumer},1651958017,0
{consumergroup=landscape-token-events-consumer},1651958022,0
{consumergroup=landscape-token-events-consumer},1651958027,0
{consumergroup=landscape-token-events-consumer},1651958032,0
{consumergroup=landscape-token-events-consumer},1651958037,0
{consumergroup=landscape-token-events-consumer},1651958042,0
{consumergroup=landscape-token-events-consumer},1651958047,0
{consumergroup=landscape-token-events-consumer},1651958052,0
{consumergroup=landscape-token-events-consumer},1651958057,0
{consumergroup=landscape-token-events-consumer},1651958062,0
{consumergroup=landscape-token-events-consumer},1651958067,0
{consumergroup=landscape-token-events-consumer},1651958072,0
{consumergroup=landscape-token-events-consumer},1651958077,0
{consumergroup=landscape-token-events-consumer},1651958082,0
{consumergroup=landscape-token-events-consumer},1651958087,0
{consumergroup=landscape-token-events-consumer},1651958092,0
{consumergroup=landscape-token-events-consumer},1651958097,0
{consumergroup=landscape-token-events-consumer},1651958102,0
{consumergroup=landscape-token-events-consumer},1651958107,0
{consumergroup=landscape-token-events-consumer},1651958112,0
{consumergroup=landscape-token-events-consumer},1651958117,0
{consumergroup=landscape-token-events-consumer},1651958122,0
{consumergroup=landscape-token-events-consumer},1651958127,0
{consumergroup=landscape-token-events-consumer},1651958132,0
{consumergroup=landscape-token-events-consumer},1651958137,0
{consumergroup=landscape-token-events-consumer},1651958142,0
{consumergroup=landscape-token-events-consumer},1651958147,0
{consumergroup=landscape-token-events-consumer},1651958152,0
{consumergroup=landscape-token-events-consumer},1651958157,0
{consumergroup=landscape-token-events-consumer},1651958162,0
{consumergroup=landscape-token-events-consumer},1651958167,0
{consumergroup=landscape-token-events-consumer},1651958172,0
{consumergroup=landscape-token-events-consumer},1651958177,0
{consumergroup=landscape-token-events-consumer},1651958182,0
{consumergroup=landscape-token-events-consumer},1651958187,0
{consumergroup=landscape-token-events-consumer},1651958192,0
{consumergroup=landscape-token-events-consumer},1651958197,0
{consumergroup=landscape-token-events-consumer},1651958202,0
{consumergroup=landscape-token-events-consumer},1651958207,0
{consumergroup=landscape-token-events-consumer},1651958212,0
{consumergroup=landscape-token-events-consumer},1651958217,0
{consumergroup=landscape-token-events-consumer},1651958222,0
{consumergroup=landscape-token-events-consumer},1651958227,0
{consumergroup=landscape-token-events-consumer},1651958232,0
{consumergroup=trace-service},1651957837,38718
{consumergroup=trace-service},1651957842,38718
{consumergroup=trace-service},1651957847,38718
{consumergroup=trace-service},1651957852,17871
{consumergroup=trace-service},1651957857,17871
{consumergroup=trace-service},1651957862,17871
{consumergroup=trace-service},1651957867,31386
{consumergroup=trace-service},1651957872,31386
{consumergroup=trace-service},1651957877,31386
{consumergroup=trace-service},1651957882,63162
{consumergroup=trace-service},1651957887,63162
{consumergroup=trace-service},1651957892,63162
{consumergroup=trace-service},1651957897,35750
{consumergroup=trace-service},1651957902,35750
{consumergroup=trace-service},1651957907,35750
{consumergroup=trace-service},1651957912,15231
{consumergroup=trace-service},1651957917,15231
{consumergroup=trace-service},1651957922,15231
{consumergroup=trace-service},1651957927,30641
{consumergroup=trace-service},1651957932,30641
{consumergroup=trace-service},1651957937,30641
{consumergroup=trace-service},1651957942,11414
{consumergroup=trace-service},1651957947,11414
{consumergroup=trace-service},1651957952,11414
{consumergroup=trace-service},1651957957,31018
{consumergroup=trace-service},1651957962,31018
{consumergroup=trace-service},1651957967,31018
{consumergroup=trace-service},1651957972,67390
{consumergroup=trace-service},1651957977,67390
{consumergroup=trace-service},1651957982,67390
{consumergroup=trace-service},1651957987,30275
{consumergroup=trace-service},1651957992,30275
{consumergroup=trace-service},1651957997,30275
{consumergroup=trace-service},1651958002,15126
{consumergroup=trace-service},1651958007,15126
{consumergroup=trace-service},1651958012,15126
{consumergroup=trace-service},1651958017,32698
{consumergroup=trace-service},1651958022,32698
{consumergroup=trace-service},1651958027,32698
{consumergroup=trace-service},1651958032,21576
{consumergroup=trace-service},1651958037,21576
{consumergroup=trace-service},1651958042,21576
{consumergroup=trace-service},1651958047,31698
{consumergroup=trace-service},1651958052,31698
{consumergroup=trace-service},1651958057,31698
{consumergroup=trace-service},1651958062,62059
{consumergroup=trace-service},1651958067,62059
{consumergroup=trace-service},1651958072,62059
{consumergroup=trace-service},1651958077,31568
{consumergroup=trace-service},1651958082,31568
{consumergroup=trace-service},1651958087,31568
{consumergroup=trace-service},1651958092,13541
{consumergroup=trace-service},1651958097,13541
{consumergroup=trace-service},1651958102,13541
{consumergroup=trace-service},1651958107,29637
{consumergroup=trace-service},1651958112,29637
{consumergroup=trace-service},1651958117,29637
{consumergroup=trace-service},1651958122,43548
{consumergroup=trace-service},1651958127,43548
{consumergroup=trace-service},1651958132,43548
{consumergroup=trace-service},1651958137,34429
{consumergroup=trace-service},1651958142,34429
{consumergroup=trace-service},1651958147,34429
{consumergroup=trace-service},1651958152,21864
{consumergroup=trace-service},1651958157,21864
{consumergroup=trace-service},1651958162,21864
{consumergroup=trace-service},1651958167,31955
{consumergroup=trace-service},1651958172,31955
{consumergroup=trace-service},1651958177,31955
{consumergroup=trace-service},1651958182,44766
{consumergroup=trace-service},1651958187,44766
{consumergroup=trace-service},1651958192,44766
{consumergroup=trace-service},1651958197,31860
{consumergroup=trace-service},1651958202,31860
{consumergroup=trace-service},1651958207,31860
{consumergroup=trace-service},1651958212,10727
{consumergroup=trace-service},1651958217,10727
{consumergroup=trace-service},1651958222,10727
{consumergroup=trace-service},1651958227,30707
{consumergroup=trace-service},1651958232,30707
{consumergroup=trace-token-events-consumer},1651957837,0
{consumergroup=trace-token-events-consumer},1651957842,0
{consumergroup=trace-token-events-consumer},1651957847,0
{consumergroup=trace-token-events-consumer},1651957852,0
{consumergroup=trace-token-events-consumer},1651957857,0
{consumergroup=trace-token-events-consumer},1651957862,0
{consumergroup=trace-token-events-consumer},1651957867,0
{consumergroup=trace-token-events-consumer},1651957872,0
{consumergroup=trace-token-events-consumer},1651957877,0
{consumergroup=trace-token-events-consumer},1651957882,0
{consumergroup=trace-token-events-consumer},1651957887,0
{consumergroup=trace-token-events-consumer},1651957892,0
{consumergroup=trace-token-events-consumer},1651957897,0
{consumergroup=trace-token-events-consumer},1651957902,0
{consumergroup=trace-token-events-consumer},1651957907,0
{consumergroup=trace-token-events-consumer},1651957912,0
{consumergroup=trace-token-events-consumer},1651957917,0
{consumergroup=trace-token-events-consumer},1651957922,0
{consumergroup=trace-token-events-consumer},1651957927,0
{consumergroup=trace-token-events-consumer},1651957932,0
{consumergroup=trace-token-events-consumer},1651957937,0
{consumergroup=trace-token-events-consumer},1651957942,0
{consumergroup=trace-token-events-consumer},1651957947,0
{consumergroup=trace-token-events-consumer},1651957952,0
{consumergroup=trace-token-events-consumer},1651957957,0
{consumergroup=trace-token-events-consumer},1651957962,0
{consumergroup=trace-token-events-consumer},1651957967,0
{consumergroup=trace-token-events-consumer},1651957972,0
{consumergroup=trace-token-events-consumer},1651957977,0
{consumergroup=trace-token-events-consumer},1651957982,0
{consumergroup=trace-token-events-consumer},1651957987,0
{consumergroup=trace-token-events-consumer},1651957992,0
{consumergroup=trace-token-events-consumer},1651957997,0
{consumergroup=trace-token-events-consumer},1651958002,0
{consumergroup=trace-token-events-consumer},1651958007,0
{consumergroup=trace-token-events-consumer},1651958012,0
{consumergroup=trace-token-events-consumer},1651958017,0
{consumergroup=trace-token-events-consumer},1651958022,0
{consumergroup=trace-token-events-consumer},1651958027,0
{consumergroup=trace-token-events-consumer},1651958032,0
{consumergroup=trace-token-events-consumer},1651958037,0
{consumergroup=trace-token-events-consumer},1651958042,0
{consumergroup=trace-token-events-consumer},1651958047,0
{consumergroup=trace-token-events-consumer},1651958052,0
{consumergroup=trace-token-events-consumer},1651958057,0
{consumergroup=trace-token-events-consumer},1651958062,0
{consumergroup=trace-token-events-consumer},1651958067,0
{consumergroup=trace-token-events-consumer},1651958072,0
{consumergroup=trace-token-events-consumer},1651958077,0
{consumergroup=trace-token-events-consumer},1651958082,0
{consumergroup=trace-token-events-consumer},1651958087,0
{consumergroup=trace-token-events-consumer},1651958092,0
{consumergroup=trace-token-events-consumer},1651958097,0
{consumergroup=trace-token-events-consumer},1651958102,0
{consumergroup=trace-token-events-consumer},1651958107,0
{consumergroup=trace-token-events-consumer},1651958112,0
{consumergroup=trace-token-events-consumer},1651958117,0
{consumergroup=trace-token-events-consumer},1651958122,0
{consumergroup=trace-token-events-consumer},1651958127,0
{consumergroup=trace-token-events-consumer},1651958132,0
{consumergroup=trace-token-events-consumer},1651958137,0
{consumergroup=trace-token-events-consumer},1651958142,0
{consumergroup=trace-token-events-consumer},1651958147,0
{consumergroup=trace-token-events-consumer},1651958152,0
{consumergroup=trace-token-events-consumer},1651958157,0
{consumergroup=trace-token-events-consumer},1651958162,0
{consumergroup=trace-token-events-consumer},1651958167,0
{consumergroup=trace-token-events-consumer},1651958172,0
{consumergroup=trace-token-events-consumer},1651958177,0
{consumergroup=trace-token-events-consumer},1651958182,0
{consumergroup=trace-token-events-consumer},1651958187,0
{consumergroup=trace-token-events-consumer},1651958192,0
{consumergroup=trace-token-events-consumer},1651958197,0
{consumergroup=trace-token-events-consumer},1651958202,0
{consumergroup=trace-token-events-consumer},1651958207,0
{consumergroup=trace-token-events-consumer},1651958212,0
{consumergroup=trace-token-events-consumer},1651958217,0
{consumergroup=trace-token-events-consumer},1651958222,0
{consumergroup=trace-token-events-consumer},1651958227,0
{consumergroup=trace-token-events-consumer},1651958232,0
