labels,timestamp,value
{consumergroup=__strimzi-topic-operator-kstreams},1651982036,11
{consumergroup=__strimzi-topic-operator-kstreams},1651982041,11
{consumergroup=__strimzi-topic-operator-kstreams},1651982046,11
{consumergroup=__strimzi-topic-operator-kstreams},1651982051,0
{consumergroup=__strimzi-topic-operator-kstreams},1651982056,0
{consumergroup=__strimzi-topic-operator-kstreams},1651982061,0
{consumergroup=__strimzi-topic-operator-kstreams},1651982066,2
{consumergroup=__strimzi-topic-operator-kstreams},1651982071,2
{consumergroup=__strimzi-topic-operator-kstreams},1651982076,2
{consumergroup=__strimzi-topic-operator-kstreams},1651982081,0
{consumergroup=__strimzi-topic-operator-kstreams},1651982086,0
{consumergroup=__strimzi-topic-operator-kstreams},1651982091,0
{consumergroup=__strimzi-topic-operator-kstreams},1651982096,0
{consumergroup=__strimzi-topic-operator-kstreams},1651982101,0
{consumergroup=__strimzi-topic-operator-kstreams},1651982106,0
{consumergroup=__strimzi-topic-operator-kstreams},1651982111,0
{consumergroup=__strimzi-topic-operator-kstreams},1651982116,0
{consumergroup=__strimzi-topic-operator-kstreams},1651982121,0
{consumergroup=__strimzi-topic-operator-kstreams},1651982126,0
{consumergroup=__strimzi-topic-operator-kstreams},1651982131,0
{consumergroup=__strimzi-topic-operator-kstreams},1651982136,0
{consumergroup=__strimzi-topic-operator-kstreams},1651982141,0
{consumergroup=__strimzi-topic-operator-kstreams},1651982146,0
{consumergroup=__strimzi-topic-operator-kstreams},1651982151,0
{consumergroup=__strimzi-topic-operator-kstreams},1651982156,1
{consumergroup=__strimzi-topic-operator-kstreams},1651982161,1
{consumergroup=__strimzi-topic-operator-kstreams},1651982166,1
{consumergroup=__strimzi-topic-operator-kstreams},1651982171,0
{consumergroup=__strimzi-topic-operator-kstreams},1651982176,0
{consumergroup=__strimzi-topic-operator-kstreams},1651982181,0
{consumergroup=__strimzi-topic-operator-kstreams},1651982186,0
{consumergroup=__strimzi-topic-operator-kstreams},1651982191,0
{consumergroup=__strimzi-topic-operator-kstreams},1651982196,0
{consumergroup=__strimzi-topic-operator-kstreams},1651982201,0
{consumergroup=__strimzi-topic-operator-kstreams},1651982206,0
{consumergroup=__strimzi-topic-operator-kstreams},1651982211,0
{consumergroup=__strimzi-topic-operator-kstreams},1651982216,0
{consumergroup=__strimzi-topic-operator-kstreams},1651982221,0
{consumergroup=__strimzi-topic-operator-kstreams},1651982226,0
{consumergroup=__strimzi-topic-operator-kstreams},1651982231,0
{consumergroup=__strimzi-topic-operator-kstreams},1651982236,0
{consumergroup=__strimzi-topic-operator-kstreams},1651982241,0
{consumergroup=__strimzi-topic-operator-kstreams},1651982246,0
{consumergroup=__strimzi-topic-operator-kstreams},1651982251,0
{consumergroup=__strimzi-topic-operator-kstreams},1651982256,0
{consumergroup=__strimzi-topic-operator-kstreams},1651982261,0
{consumergroup=__strimzi-topic-operator-kstreams},1651982266,0
{consumergroup=__strimzi-topic-operator-kstreams},1651982271,0
{consumergroup=__strimzi-topic-operator-kstreams},1651982276,0
{consumergroup=__strimzi-topic-operator-kstreams},1651982281,0
{consumergroup=__strimzi-topic-operator-kstreams},1651982286,0
{consumergroup=__strimzi-topic-operator-kstreams},1651982291,0
{consumergroup=__strimzi-topic-operator-kstreams},1651982296,0
{consumergroup=__strimzi-topic-operator-kstreams},1651982301,0
{consumergroup=__strimzi-topic-operator-kstreams},1651982306,0
{consumergroup=__strimzi-topic-operator-kstreams},1651982311,0
{consumergroup=__strimzi-topic-operator-kstreams},1651982316,0
{consumergroup=__strimzi-topic-operator-kstreams},1651982321,0
{consumergroup=__strimzi-topic-operator-kstreams},1651982326,0
{consumergroup=__strimzi-topic-operator-kstreams},1651982331,0
{consumergroup=__strimzi-topic-operator-kstreams},1651982336,0
{consumergroup=__strimzi-topic-operator-kstreams},1651982341,0
{consumergroup=__strimzi-topic-operator-kstreams},1651982346,0
{consumergroup=__strimzi-topic-operator-kstreams},1651982351,0
{consumergroup=__strimzi-topic-operator-kstreams},1651982356,0
{consumergroup=__strimzi-topic-operator-kstreams},1651982361,0
{consumergroup=__strimzi-topic-operator-kstreams},1651982366,0
{consumergroup=__strimzi-topic-operator-kstreams},1651982371,0
{consumergroup=__strimzi-topic-operator-kstreams},1651982376,0
{consumergroup=__strimzi-topic-operator-kstreams},1651982381,0
{consumergroup=__strimzi-topic-operator-kstreams},1651982386,0
{consumergroup=__strimzi-topic-operator-kstreams},1651982391,0
{consumergroup=__strimzi-topic-operator-kstreams},1651982396,0
{consumergroup=__strimzi-topic-operator-kstreams},1651982401,0
{consumergroup=__strimzi-topic-operator-kstreams},1651982406,0
{consumergroup=__strimzi-topic-operator-kstreams},1651982411,0
{consumergroup=__strimzi-topic-operator-kstreams},1651982416,0
{consumergroup=__strimzi-topic-operator-kstreams},1651982421,0
{consumergroup=__strimzi-topic-operator-kstreams},1651982426,0
{consumergroup=__strimzi-topic-operator-kstreams},1651982431,0
{consumergroup=__strimzi-topic-operator-kstreams},1651982436,0
{consumergroup=__strimzi-topic-operator-kstreams},1651982441,0
{consumergroup=__strimzi-topic-operator-kstreams},1651982446,0
{consumergroup=__strimzi-topic-operator-kstreams},1651982451,0
{consumergroup=__strimzi-topic-operator-kstreams},1651982456,0
{consumergroup=__strimzi-topic-operator-kstreams},1651982461,0
{consumergroup=__strimzi-topic-operator-kstreams},1651982466,0
{consumergroup=__strimzi-topic-operator-kstreams},1651982471,0
{consumergroup=__strimzi-topic-operator-kstreams},1651982476,0
{consumergroup=__strimzi-topic-operator-kstreams},1651982481,0
{consumergroup=adapter-service},1651982066,0
{consumergroup=adapter-service},1651982071,0
{consumergroup=adapter-service},1651982076,0
{consumergroup=adapter-service},1651982081,11995
{consumergroup=adapter-service},1651982086,11995
{consumergroup=adapter-service},1651982091,11995
{consumergroup=adapter-service},1651982096,1053
{consumergroup=adapter-service},1651982101,1053
{consumergroup=adapter-service},1651982106,1053
{consumergroup=adapter-service},1651982111,11893
{consumergroup=adapter-service},1651982116,11893
{consumergroup=adapter-service},1651982121,11893
{consumergroup=adapter-service},1651982126,993
{consumergroup=adapter-service},1651982131,993
{consumergroup=adapter-service},1651982136,993
{consumergroup=adapter-service},1651982141,11333
{consumergroup=adapter-service},1651982146,11333
{consumergroup=adapter-service},1651982151,11333
{consumergroup=adapter-service},1651982156,165
{consumergroup=adapter-service},1651982161,165
{consumergroup=adapter-service},1651982166,165
{consumergroup=adapter-service},1651982171,11357
{consumergroup=adapter-service},1651982176,11357
{consumergroup=adapter-service},1651982181,11357
{consumergroup=adapter-service},1651982186,2115
{consumergroup=adapter-service},1651982191,2115
{consumergroup=adapter-service},1651982196,2115
{consumergroup=adapter-service},1651982201,10183
{consumergroup=adapter-service},1651982206,10183
{consumergroup=adapter-service},1651982211,10183
{consumergroup=adapter-service},1651982216,6660
{consumergroup=adapter-service},1651982221,6660
{consumergroup=adapter-service},1651982226,6660
{consumergroup=adapter-service},1651982231,9714
{consumergroup=adapter-service},1651982236,9714
{consumergroup=adapter-service},1651982241,9714
{consumergroup=adapter-service},1651982246,12603
{consumergroup=adapter-service},1651982251,12603
{consumergroup=adapter-service},1651982256,12603
{consumergroup=adapter-service},1651982261,9289
{consumergroup=adapter-service},1651982266,9289
{consumergroup=adapter-service},1651982271,9289
{consumergroup=adapter-service},1651982276,11973
{consumergroup=adapter-service},1651982281,11973
{consumergroup=adapter-service},1651982286,11973
{consumergroup=adapter-service},1651982291,8790
{consumergroup=adapter-service},1651982296,8790
{consumergroup=adapter-service},1651982301,8790
{consumergroup=adapter-service},1651982306,11492
{consumergroup=adapter-service},1651982311,11492
{consumergroup=adapter-service},1651982316,11492
{consumergroup=adapter-service},1651982321,8287
{consumergroup=adapter-service},1651982326,8287
{consumergroup=adapter-service},1651982331,8287
{consumergroup=adapter-service},1651982336,11126
{consumergroup=adapter-service},1651982341,11126
{consumergroup=adapter-service},1651982346,11126
{consumergroup=adapter-service},1651982351,8131
{consumergroup=adapter-service},1651982356,8131
{consumergroup=adapter-service},1651982361,8131
{consumergroup=adapter-service},1651982366,10486
{consumergroup=adapter-service},1651982371,10486
{consumergroup=adapter-service},1651982376,10486
{consumergroup=adapter-service},1651982381,7333
{consumergroup=adapter-service},1651982386,7333
{consumergroup=adapter-service},1651982391,7333
{consumergroup=adapter-service},1651982396,10016
{consumergroup=adapter-service},1651982401,10016
{consumergroup=adapter-service},1651982406,10016
{consumergroup=adapter-service},1651982411,6752
{consumergroup=adapter-service},1651982416,6752
{consumergroup=adapter-service},1651982421,6752
{consumergroup=adapter-service},1651982426,9577
{consumergroup=adapter-service},1651982431,9577
{consumergroup=adapter-service},1651982436,9577
{consumergroup=adapter-service},1651982441,6341
{consumergroup=adapter-service},1651982446,6341
{consumergroup=adapter-service},1651982451,6341
{consumergroup=adapter-service},1651982456,9116
{consumergroup=adapter-service},1651982461,9116
{consumergroup=adapter-service},1651982466,9116
{consumergroup=adapter-service},1651982471,5986
{consumergroup=adapter-service},1651982476,5986
{consumergroup=adapter-service},1651982481,5986
{consumergroup=landscape-service},1651982081,262
{consumergroup=landscape-service},1651982086,262
{consumergroup=landscape-service},1651982091,262
{consumergroup=landscape-service},1651982096,7880
{consumergroup=landscape-service},1651982101,7880
{consumergroup=landscape-service},1651982106,7880
{consumergroup=landscape-service},1651982111,8847
{consumergroup=landscape-service},1651982116,8847
{consumergroup=landscape-service},1651982121,8847
{consumergroup=landscape-service},1651982126,11407
{consumergroup=landscape-service},1651982131,11407
{consumergroup=landscape-service},1651982136,11407
{consumergroup=landscape-service},1651982141,8535
{consumergroup=landscape-service},1651982146,8535
{consumergroup=landscape-service},1651982151,8535
{consumergroup=landscape-service},1651982156,12131
{consumergroup=landscape-service},1651982161,12131
{consumergroup=landscape-service},1651982166,12131
{consumergroup=landscape-service},1651982171,8972
{consumergroup=landscape-service},1651982176,8972
{consumergroup=landscape-service},1651982181,8972
{consumergroup=landscape-service},1651982186,11156
{consumergroup=landscape-service},1651982191,11156
{consumergroup=landscape-service},1651982196,11156
{consumergroup=landscape-service},1651982201,8233
{consumergroup=landscape-service},1651982206,8233
{consumergroup=landscape-service},1651982211,8233
{consumergroup=landscape-service},1651982216,10970
{consumergroup=landscape-service},1651982221,10970
{consumergroup=landscape-service},1651982226,10970
{consumergroup=landscape-service},1651982231,8060
{consumergroup=landscape-service},1651982236,8060
{consumergroup=landscape-service},1651982241,8060
{consumergroup=landscape-service},1651982246,10903
{consumergroup=landscape-service},1651982251,10903
{consumergroup=landscape-service},1651982256,10903
{consumergroup=landscape-service},1651982261,7964
{consumergroup=landscape-service},1651982266,7964
{consumergroup=landscape-service},1651982271,7964
{consumergroup=landscape-service},1651982276,11421
{consumergroup=landscape-service},1651982281,11421
{consumergroup=landscape-service},1651982286,11421
{consumergroup=landscape-service},1651982291,8303
{consumergroup=landscape-service},1651982296,8303
{consumergroup=landscape-service},1651982301,8303
{consumergroup=landscape-service},1651982306,11294
{consumergroup=landscape-service},1651982311,11294
{consumergroup=landscape-service},1651982316,11294
{consumergroup=landscape-service},1651982321,8239
{consumergroup=landscape-service},1651982326,8239
{consumergroup=landscape-service},1651982331,8239
{consumergroup=landscape-service},1651982336,10297
{consumergroup=landscape-service},1651982341,10297
{consumergroup=landscape-service},1651982346,10297
{consumergroup=landscape-service},1651982351,7428
{consumergroup=landscape-service},1651982356,7428
{consumergroup=landscape-service},1651982361,7428
{consumergroup=landscape-service},1651982366,10494
{consumergroup=landscape-service},1651982371,10494
{consumergroup=landscape-service},1651982376,10494
{consumergroup=landscape-service},1651982381,7231
{consumergroup=landscape-service},1651982386,7231
{consumergroup=landscape-service},1651982391,7231
{consumergroup=landscape-service},1651982396,10122
{consumergroup=landscape-service},1651982401,10122
{consumergroup=landscape-service},1651982406,10122
{consumergroup=landscape-service},1651982411,7074
{consumergroup=landscape-service},1651982416,7074
{consumergroup=landscape-service},1651982421,7074
{consumergroup=landscape-service},1651982426,10685
{consumergroup=landscape-service},1651982431,10685
{consumergroup=landscape-service},1651982436,10685
{consumergroup=landscape-service},1651982441,7667
{consumergroup=landscape-service},1651982446,7667
{consumergroup=landscape-service},1651982451,7667
{consumergroup=landscape-service},1651982456,9792
{consumergroup=landscape-service},1651982461,9792
{consumergroup=landscape-service},1651982466,9792
{consumergroup=landscape-service},1651982471,6896
{consumergroup=landscape-service},1651982476,6896
{consumergroup=landscape-service},1651982481,6896
{consumergroup=landscape-token-events-consumer},1651982066,0
{consumergroup=landscape-token-events-consumer},1651982071,0
{consumergroup=landscape-token-events-consumer},1651982076,0
{consumergroup=landscape-token-events-consumer},1651982081,0
{consumergroup=landscape-token-events-consumer},1651982086,0
{consumergroup=landscape-token-events-consumer},1651982091,0
{consumergroup=landscape-token-events-consumer},1651982096,0
{consumergroup=landscape-token-events-consumer},1651982101,0
{consumergroup=landscape-token-events-consumer},1651982106,0
{consumergroup=landscape-token-events-consumer},1651982111,0
{consumergroup=landscape-token-events-consumer},1651982116,0
{consumergroup=landscape-token-events-consumer},1651982121,0
{consumergroup=landscape-token-events-consumer},1651982126,0
{consumergroup=landscape-token-events-consumer},1651982131,0
{consumergroup=landscape-token-events-consumer},1651982136,0
{consumergroup=landscape-token-events-consumer},1651982141,0
{consumergroup=landscape-token-events-consumer},1651982146,0
{consumergroup=landscape-token-events-consumer},1651982151,0
{consumergroup=landscape-token-events-consumer},1651982156,0
{consumergroup=landscape-token-events-consumer},1651982161,0
{consumergroup=landscape-token-events-consumer},1651982166,0
{consumergroup=landscape-token-events-consumer},1651982171,0
{consumergroup=landscape-token-events-consumer},1651982176,0
{consumergroup=landscape-token-events-consumer},1651982181,0
{consumergroup=landscape-token-events-consumer},1651982186,0
{consumergroup=landscape-token-events-consumer},1651982191,0
{consumergroup=landscape-token-events-consumer},1651982196,0
{consumergroup=landscape-token-events-consumer},1651982201,0
{consumergroup=landscape-token-events-consumer},1651982206,0
{consumergroup=landscape-token-events-consumer},1651982211,0
{consumergroup=landscape-token-events-consumer},1651982216,0
{consumergroup=landscape-token-events-consumer},1651982221,0
{consumergroup=landscape-token-events-consumer},1651982226,0
{consumergroup=landscape-token-events-consumer},1651982231,0
{consumergroup=landscape-token-events-consumer},1651982236,0
{consumergroup=landscape-token-events-consumer},1651982241,0
{consumergroup=landscape-token-events-consumer},1651982246,0
{consumergroup=landscape-token-events-consumer},1651982251,0
{consumergroup=landscape-token-events-consumer},1651982256,0
{consumergroup=landscape-token-events-consumer},1651982261,0
{consumergroup=landscape-token-events-consumer},1651982266,0
{consumergroup=landscape-token-events-consumer},1651982271,0
{consumergroup=landscape-token-events-consumer},1651982276,0
{consumergroup=landscape-token-events-consumer},1651982281,0
{consumergroup=landscape-token-events-consumer},1651982286,0
{consumergroup=landscape-token-events-consumer},1651982291,0
{consumergroup=landscape-token-events-consumer},1651982296,0
{consumergroup=landscape-token-events-consumer},1651982301,0
{consumergroup=landscape-token-events-consumer},1651982306,0
{consumergroup=landscape-token-events-consumer},1651982311,0
{consumergroup=landscape-token-events-consumer},1651982316,0
{consumergroup=landscape-token-events-consumer},1651982321,0
{consumergroup=landscape-token-events-consumer},1651982326,0
{consumergroup=landscape-token-events-consumer},1651982331,0
{consumergroup=landscape-token-events-consumer},1651982336,0
{consumergroup=landscape-token-events-consumer},1651982341,0
{consumergroup=landscape-token-events-consumer},1651982346,0
{consumergroup=landscape-token-events-consumer},1651982351,0
{consumergroup=landscape-token-events-consumer},1651982356,0
{consumergroup=landscape-token-events-consumer},1651982361,0
{consumergroup=landscape-token-events-consumer},1651982366,0
{consumergroup=landscape-token-events-consumer},1651982371,0
{consumergroup=landscape-token-events-consumer},1651982376,0
{consumergroup=landscape-token-events-consumer},1651982381,0
{consumergroup=landscape-token-events-consumer},1651982386,0
{consumergroup=landscape-token-events-consumer},1651982391,0
{consumergroup=landscape-token-events-consumer},1651982396,0
{consumergroup=landscape-token-events-consumer},1651982401,0
{consumergroup=landscape-token-events-consumer},1651982406,0
{consumergroup=landscape-token-events-consumer},1651982411,0
{consumergroup=landscape-token-events-consumer},1651982416,0
{consumergroup=landscape-token-events-consumer},1651982421,0
{consumergroup=landscape-token-events-consumer},1651982426,0
{consumergroup=landscape-token-events-consumer},1651982431,0
{consumergroup=landscape-token-events-consumer},1651982436,0
{consumergroup=landscape-token-events-consumer},1651982441,0
{consumergroup=landscape-token-events-consumer},1651982446,0
{consumergroup=landscape-token-events-consumer},1651982451,0
{consumergroup=landscape-token-events-consumer},1651982456,0
{consumergroup=landscape-token-events-consumer},1651982461,0
{consumergroup=landscape-token-events-consumer},1651982466,0
{consumergroup=landscape-token-events-consumer},1651982471,0
{consumergroup=landscape-token-events-consumer},1651982476,0
{consumergroup=landscape-token-events-consumer},1651982481,0
{consumergroup=trace-service},1651982081,8720
{consumergroup=trace-service},1651982086,8720
{consumergroup=trace-service},1651982091,8720
{consumergroup=trace-service},1651982096,17647
{consumergroup=trace-service},1651982101,17647
{consumergroup=trace-service},1651982106,17647
{consumergroup=trace-service},1651982111,45329
{consumergroup=trace-service},1651982116,45329
{consumergroup=trace-service},1651982121,45329
{consumergroup=trace-service},1651982126,69471
{consumergroup=trace-service},1651982131,69471
{consumergroup=trace-service},1651982136,69471
{consumergroup=trace-service},1651982141,110080
{consumergroup=trace-service},1651982146,110080
{consumergroup=trace-service},1651982151,110080
{consumergroup=trace-service},1651982156,19166
{consumergroup=trace-service},1651982161,19166
{consumergroup=trace-service},1651982166,19166
{consumergroup=trace-service},1651982171,28777
{consumergroup=trace-service},1651982176,28777
{consumergroup=trace-service},1651982181,28777
{consumergroup=trace-service},1651982186,16419
{consumergroup=trace-service},1651982191,16419
{consumergroup=trace-service},1651982196,16419
{consumergroup=trace-service},1651982201,27800
{consumergroup=trace-service},1651982206,27800
{consumergroup=trace-service},1651982211,27800
{consumergroup=trace-service},1651982216,15491
{consumergroup=trace-service},1651982221,15491
{consumergroup=trace-service},1651982226,15491
{consumergroup=trace-service},1651982231,26303
{consumergroup=trace-service},1651982236,26303
{consumergroup=trace-service},1651982241,26303
{consumergroup=trace-service},1651982246,10636
{consumergroup=trace-service},1651982251,10636
{consumergroup=trace-service},1651982256,10636
{consumergroup=trace-service},1651982261,28379
{consumergroup=trace-service},1651982266,28379
{consumergroup=trace-service},1651982271,28379
{consumergroup=trace-service},1651982276,13513
{consumergroup=trace-service},1651982281,13513
{consumergroup=trace-service},1651982286,13513
{consumergroup=trace-service},1651982291,29595
{consumergroup=trace-service},1651982296,29595
{consumergroup=trace-service},1651982301,29595
{consumergroup=trace-service},1651982306,18534
{consumergroup=trace-service},1651982311,18534
{consumergroup=trace-service},1651982316,18534
{consumergroup=trace-service},1651982321,26717
{consumergroup=trace-service},1651982326,26717
{consumergroup=trace-service},1651982331,26717
{consumergroup=trace-service},1651982336,12213
{consumergroup=trace-service},1651982341,12213
{consumergroup=trace-service},1651982346,12213
{consumergroup=trace-service},1651982351,33820
{consumergroup=trace-service},1651982356,33820
{consumergroup=trace-service},1651982361,33820
{consumergroup=trace-service},1651982366,91024
{consumergroup=trace-service},1651982371,91024
{consumergroup=trace-service},1651982376,91024
{consumergroup=trace-service},1651982381,31204
{consumergroup=trace-service},1651982386,31204
{consumergroup=trace-service},1651982391,31204
{consumergroup=trace-service},1651982396,10373
{consumergroup=trace-service},1651982401,10373
{consumergroup=trace-service},1651982406,10373
{consumergroup=trace-service},1651982411,30190
{consumergroup=trace-service},1651982416,30190
{consumergroup=trace-service},1651982421,30190
{consumergroup=trace-service},1651982426,13949
{consumergroup=trace-service},1651982431,13949
{consumergroup=trace-service},1651982436,13949
{consumergroup=trace-service},1651982441,29384
{consumergroup=trace-service},1651982446,29384
{consumergroup=trace-service},1651982451,29384
{consumergroup=trace-service},1651982456,18584
{consumergroup=trace-service},1651982461,18584
{consumergroup=trace-service},1651982466,18584
{consumergroup=trace-service},1651982471,27193
{consumergroup=trace-service},1651982476,27193
{consumergroup=trace-service},1651982481,27193
{consumergroup=trace-token-events-consumer},1651982066,0
{consumergroup=trace-token-events-consumer},1651982071,0
{consumergroup=trace-token-events-consumer},1651982076,0
{consumergroup=trace-token-events-consumer},1651982081,0
{consumergroup=trace-token-events-consumer},1651982086,0
{consumergroup=trace-token-events-consumer},1651982091,0
{consumergroup=trace-token-events-consumer},1651982096,0
{consumergroup=trace-token-events-consumer},1651982101,0
{consumergroup=trace-token-events-consumer},1651982106,0
{consumergroup=trace-token-events-consumer},1651982111,0
{consumergroup=trace-token-events-consumer},1651982116,0
{consumergroup=trace-token-events-consumer},1651982121,0
{consumergroup=trace-token-events-consumer},1651982126,0
{consumergroup=trace-token-events-consumer},1651982131,0
{consumergroup=trace-token-events-consumer},1651982136,0
{consumergroup=trace-token-events-consumer},1651982141,0
{consumergroup=trace-token-events-consumer},1651982146,0
{consumergroup=trace-token-events-consumer},1651982151,0
{consumergroup=trace-token-events-consumer},1651982156,0
{consumergroup=trace-token-events-consumer},1651982161,0
{consumergroup=trace-token-events-consumer},1651982166,0
{consumergroup=trace-token-events-consumer},1651982171,0
{consumergroup=trace-token-events-consumer},1651982176,0
{consumergroup=trace-token-events-consumer},1651982181,0
{consumergroup=trace-token-events-consumer},1651982186,0
{consumergroup=trace-token-events-consumer},1651982191,0
{consumergroup=trace-token-events-consumer},1651982196,0
{consumergroup=trace-token-events-consumer},1651982201,0
{consumergroup=trace-token-events-consumer},1651982206,0
{consumergroup=trace-token-events-consumer},1651982211,0
{consumergroup=trace-token-events-consumer},1651982216,0
{consumergroup=trace-token-events-consumer},1651982221,0
{consumergroup=trace-token-events-consumer},1651982226,0
{consumergroup=trace-token-events-consumer},1651982231,0
{consumergroup=trace-token-events-consumer},1651982236,0
{consumergroup=trace-token-events-consumer},1651982241,0
{consumergroup=trace-token-events-consumer},1651982246,0
{consumergroup=trace-token-events-consumer},1651982251,0
{consumergroup=trace-token-events-consumer},1651982256,0
{consumergroup=trace-token-events-consumer},1651982261,0
{consumergroup=trace-token-events-consumer},1651982266,0
{consumergroup=trace-token-events-consumer},1651982271,0
{consumergroup=trace-token-events-consumer},1651982276,0
{consumergroup=trace-token-events-consumer},1651982281,0
{consumergroup=trace-token-events-consumer},1651982286,0
{consumergroup=trace-token-events-consumer},1651982291,0
{consumergroup=trace-token-events-consumer},1651982296,0
{consumergroup=trace-token-events-consumer},1651982301,0
{consumergroup=trace-token-events-consumer},1651982306,0
{consumergroup=trace-token-events-consumer},1651982311,0
{consumergroup=trace-token-events-consumer},1651982316,0
{consumergroup=trace-token-events-consumer},1651982321,0
{consumergroup=trace-token-events-consumer},1651982326,0
{consumergroup=trace-token-events-consumer},1651982331,0
{consumergroup=trace-token-events-consumer},1651982336,0
{consumergroup=trace-token-events-consumer},1651982341,0
{consumergroup=trace-token-events-consumer},1651982346,0
{consumergroup=trace-token-events-consumer},1651982351,0
{consumergroup=trace-token-events-consumer},1651982356,0
{consumergroup=trace-token-events-consumer},1651982361,0
{consumergroup=trace-token-events-consumer},1651982366,0
{consumergroup=trace-token-events-consumer},1651982371,0
{consumergroup=trace-token-events-consumer},1651982376,0
{consumergroup=trace-token-events-consumer},1651982381,0
{consumergroup=trace-token-events-consumer},1651982386,0
{consumergroup=trace-token-events-consumer},1651982391,0
{consumergroup=trace-token-events-consumer},1651982396,0
{consumergroup=trace-token-events-consumer},1651982401,0
{consumergroup=trace-token-events-consumer},1651982406,0
{consumergroup=trace-token-events-consumer},1651982411,0
{consumergroup=trace-token-events-consumer},1651982416,0
{consumergroup=trace-token-events-consumer},1651982421,0
{consumergroup=trace-token-events-consumer},1651982426,0
{consumergroup=trace-token-events-consumer},1651982431,0
{consumergroup=trace-token-events-consumer},1651982436,0
{consumergroup=trace-token-events-consumer},1651982441,0
{consumergroup=trace-token-events-consumer},1651982446,0
{consumergroup=trace-token-events-consumer},1651982451,0
{consumergroup=trace-token-events-consumer},1651982456,0
{consumergroup=trace-token-events-consumer},1651982461,0
{consumergroup=trace-token-events-consumer},1651982466,0
{consumergroup=trace-token-events-consumer},1651982471,0
{consumergroup=trace-token-events-consumer},1651982476,0
{consumergroup=trace-token-events-consumer},1651982481,0
