labels,timestamp,value
{consumergroup=__strimzi-topic-operator-kstreams},1651878484,15
{consumergroup=__strimzi-topic-operator-kstreams},1651878489,15
{consumergroup=__strimzi-topic-operator-kstreams},1651878494,15
{consumergroup=__strimzi-topic-operator-kstreams},1651878499,18
{consumergroup=__strimzi-topic-operator-kstreams},1651878504,18
{consumergroup=__strimzi-topic-operator-kstreams},1651878509,18
{consumergroup=__strimzi-topic-operator-kstreams},1651878514,0
{consumergroup=__strimzi-topic-operator-kstreams},1651878519,0
{consumergroup=__strimzi-topic-operator-kstreams},1651878524,0
{consumergroup=__strimzi-topic-operator-kstreams},1651878529,0
{consumergroup=__strimzi-topic-operator-kstreams},1651878534,0
{consumergroup=__strimzi-topic-operator-kstreams},1651878539,0
{consumergroup=__strimzi-topic-operator-kstreams},1651878544,0
{consumergroup=__strimzi-topic-operator-kstreams},1651878549,0
{consumergroup=__strimzi-topic-operator-kstreams},1651878554,0
{consumergroup=__strimzi-topic-operator-kstreams},1651878559,0
{consumergroup=__strimzi-topic-operator-kstreams},1651878564,0
{consumergroup=__strimzi-topic-operator-kstreams},1651878569,0
{consumergroup=__strimzi-topic-operator-kstreams},1651878574,0
{consumergroup=__strimzi-topic-operator-kstreams},1651878579,0
{consumergroup=__strimzi-topic-operator-kstreams},1651878584,0
{consumergroup=__strimzi-topic-operator-kstreams},1651878589,0
{consumergroup=__strimzi-topic-operator-kstreams},1651878594,0
{consumergroup=__strimzi-topic-operator-kstreams},1651878599,0
{consumergroup=__strimzi-topic-operator-kstreams},1651878604,0
{consumergroup=__strimzi-topic-operator-kstreams},1651878609,0
{consumergroup=__strimzi-topic-operator-kstreams},1651878614,0
{consumergroup=__strimzi-topic-operator-kstreams},1651878619,0
{consumergroup=__strimzi-topic-operator-kstreams},1651878624,0
{consumergroup=__strimzi-topic-operator-kstreams},1651878629,0
{consumergroup=__strimzi-topic-operator-kstreams},1651878634,0
{consumergroup=__strimzi-topic-operator-kstreams},1651878639,0
{consumergroup=__strimzi-topic-operator-kstreams},1651878644,0
{consumergroup=__strimzi-topic-operator-kstreams},1651878649,0
{consumergroup=__strimzi-topic-operator-kstreams},1651878654,0
{consumergroup=__strimzi-topic-operator-kstreams},1651878659,0
{consumergroup=__strimzi-topic-operator-kstreams},1651878664,0
{consumergroup=__strimzi-topic-operator-kstreams},1651878669,0
{consumergroup=__strimzi-topic-operator-kstreams},1651878674,0
{consumergroup=__strimzi-topic-operator-kstreams},1651878679,0
{consumergroup=__strimzi-topic-operator-kstreams},1651878684,0
{consumergroup=__strimzi-topic-operator-kstreams},1651878689,0
{consumergroup=__strimzi-topic-operator-kstreams},1651878694,0
{consumergroup=__strimzi-topic-operator-kstreams},1651878699,0
{consumergroup=__strimzi-topic-operator-kstreams},1651878704,0
{consumergroup=__strimzi-topic-operator-kstreams},1651878709,0
{consumergroup=__strimzi-topic-operator-kstreams},1651878714,0
{consumergroup=__strimzi-topic-operator-kstreams},1651878719,0
{consumergroup=__strimzi-topic-operator-kstreams},1651878724,0
{consumergroup=__strimzi-topic-operator-kstreams},1651878729,0
{consumergroup=__strimzi-topic-operator-kstreams},1651878734,0
{consumergroup=adapter-service},1651878514,149467
{consumergroup=adapter-service},1651878519,149467
{consumergroup=adapter-service},1651878524,149467
{consumergroup=adapter-service},1651878529,451341
{consumergroup=adapter-service},1651878534,451341
{consumergroup=adapter-service},1651878539,451341
{consumergroup=adapter-service},1651878544,635045
{consumergroup=adapter-service},1651878549,635045
{consumergroup=adapter-service},1651878554,635045
{consumergroup=adapter-service},1651878559,792321
{consumergroup=adapter-service},1651878564,792321
{consumergroup=adapter-service},1651878569,792321
{consumergroup=adapter-service},1651878574,933440
{consumergroup=adapter-service},1651878579,933440
{consumergroup=adapter-service},1651878584,933440
{consumergroup=adapter-service},1651878589,1028137
{consumergroup=adapter-service},1651878594,1028137
{consumergroup=adapter-service},1651878599,1028137
{consumergroup=adapter-service},1651878604,1068320
{consumergroup=adapter-service},1651878609,1068320
{consumergroup=adapter-service},1651878614,1068320
{consumergroup=adapter-service},1651878619,1120241
{consumergroup=adapter-service},1651878624,1120241
{consumergroup=adapter-service},1651878629,1120241
{consumergroup=adapter-service},1651878634,1160965
{consumergroup=adapter-service},1651878639,1160965
{consumergroup=adapter-service},1651878644,1160965
{consumergroup=adapter-service},1651878649,1164245
{consumergroup=adapter-service},1651878654,1164245
{consumergroup=adapter-service},1651878659,1164245
{consumergroup=adapter-service},1651878664,1175595
{consumergroup=adapter-service},1651878669,1175595
{consumergroup=adapter-service},1651878674,1175595
{consumergroup=adapter-service},1651878679,1186354
{consumergroup=adapter-service},1651878684,1186354
{consumergroup=adapter-service},1651878689,1186354
{consumergroup=adapter-service},1651878694,1208160
{consumergroup=adapter-service},1651878699,1208160
{consumergroup=adapter-service},1651878704,1208160
{consumergroup=adapter-service},1651878709,1202988
{consumergroup=adapter-service},1651878714,1202988
{consumergroup=adapter-service},1651878719,1202988
{consumergroup=adapter-service},1651878724,1223054
{consumergroup=adapter-service},1651878729,1223054
{consumergroup=adapter-service},1651878734,1223054
