labels,timestamp,value
{consumergroup=__strimzi-topic-operator-kstreams},1651984225,11
{consumergroup=__strimzi-topic-operator-kstreams},1651984230,11
{consumergroup=__strimzi-topic-operator-kstreams},1651984235,11
{consumergroup=__strimzi-topic-operator-kstreams},1651984240,0
{consumergroup=__strimzi-topic-operator-kstreams},1651984245,0
{consumergroup=__strimzi-topic-operator-kstreams},1651984250,0
{consumergroup=__strimzi-topic-operator-kstreams},1651984255,3
{consumergroup=__strimzi-topic-operator-kstreams},1651984260,3
{consumergroup=__strimzi-topic-operator-kstreams},1651984265,3
{consumergroup=__strimzi-topic-operator-kstreams},1651984270,0
{consumergroup=__strimzi-topic-operator-kstreams},1651984275,0
{consumergroup=__strimzi-topic-operator-kstreams},1651984280,0
{consumergroup=__strimzi-topic-operator-kstreams},1651984285,0
{consumergroup=__strimzi-topic-operator-kstreams},1651984290,0
{consumergroup=__strimzi-topic-operator-kstreams},1651984295,0
{consumergroup=__strimzi-topic-operator-kstreams},1651984300,0
{consumergroup=__strimzi-topic-operator-kstreams},1651984305,0
{consumergroup=__strimzi-topic-operator-kstreams},1651984310,0
{consumergroup=__strimzi-topic-operator-kstreams},1651984315,0
{consumergroup=__strimzi-topic-operator-kstreams},1651984320,0
{consumergroup=__strimzi-topic-operator-kstreams},1651984325,0
{consumergroup=__strimzi-topic-operator-kstreams},1651984330,0
{consumergroup=__strimzi-topic-operator-kstreams},1651984335,0
{consumergroup=__strimzi-topic-operator-kstreams},1651984340,0
{consumergroup=__strimzi-topic-operator-kstreams},1651984345,0
{consumergroup=__strimzi-topic-operator-kstreams},1651984350,0
{consumergroup=__strimzi-topic-operator-kstreams},1651984355,0
{consumergroup=__strimzi-topic-operator-kstreams},1651984360,0
{consumergroup=__strimzi-topic-operator-kstreams},1651984365,0
{consumergroup=__strimzi-topic-operator-kstreams},1651984370,0
{consumergroup=__strimzi-topic-operator-kstreams},1651984375,0
{consumergroup=__strimzi-topic-operator-kstreams},1651984380,0
{consumergroup=__strimzi-topic-operator-kstreams},1651984385,0
{consumergroup=__strimzi-topic-operator-kstreams},1651984390,0
{consumergroup=__strimzi-topic-operator-kstreams},1651984395,0
{consumergroup=__strimzi-topic-operator-kstreams},1651984400,0
{consumergroup=__strimzi-topic-operator-kstreams},1651984405,0
{consumergroup=__strimzi-topic-operator-kstreams},1651984410,0
{consumergroup=__strimzi-topic-operator-kstreams},1651984415,0
{consumergroup=__strimzi-topic-operator-kstreams},1651984420,0
{consumergroup=__strimzi-topic-operator-kstreams},1651984425,0
{consumergroup=__strimzi-topic-operator-kstreams},1651984430,0
{consumergroup=__strimzi-topic-operator-kstreams},1651984435,0
{consumergroup=__strimzi-topic-operator-kstreams},1651984440,0
{consumergroup=__strimzi-topic-operator-kstreams},1651984445,0
{consumergroup=__strimzi-topic-operator-kstreams},1651984450,0
{consumergroup=__strimzi-topic-operator-kstreams},1651984455,0
{consumergroup=__strimzi-topic-operator-kstreams},1651984460,0
{consumergroup=__strimzi-topic-operator-kstreams},1651984465,0
{consumergroup=__strimzi-topic-operator-kstreams},1651984470,0
{consumergroup=__strimzi-topic-operator-kstreams},1651984475,0
{consumergroup=__strimzi-topic-operator-kstreams},1651984480,0
{consumergroup=__strimzi-topic-operator-kstreams},1651984485,0
{consumergroup=__strimzi-topic-operator-kstreams},1651984490,0
{consumergroup=__strimzi-topic-operator-kstreams},1651984495,0
{consumergroup=__strimzi-topic-operator-kstreams},1651984500,0
{consumergroup=__strimzi-topic-operator-kstreams},1651984505,0
{consumergroup=__strimzi-topic-operator-kstreams},1651984510,0
{consumergroup=__strimzi-topic-operator-kstreams},1651984515,0
{consumergroup=__strimzi-topic-operator-kstreams},1651984520,0
{consumergroup=__strimzi-topic-operator-kstreams},1651984525,0
{consumergroup=__strimzi-topic-operator-kstreams},1651984530,0
{consumergroup=__strimzi-topic-operator-kstreams},1651984535,0
{consumergroup=__strimzi-topic-operator-kstreams},1651984540,0
{consumergroup=__strimzi-topic-operator-kstreams},1651984545,0
{consumergroup=__strimzi-topic-operator-kstreams},1651984550,0
{consumergroup=__strimzi-topic-operator-kstreams},1651984555,0
{consumergroup=__strimzi-topic-operator-kstreams},1651984560,0
{consumergroup=__strimzi-topic-operator-kstreams},1651984565,0
{consumergroup=__strimzi-topic-operator-kstreams},1651984570,0
{consumergroup=__strimzi-topic-operator-kstreams},1651984575,0
{consumergroup=__strimzi-topic-operator-kstreams},1651984580,0
{consumergroup=__strimzi-topic-operator-kstreams},1651984585,0
{consumergroup=__strimzi-topic-operator-kstreams},1651984590,0
{consumergroup=__strimzi-topic-operator-kstreams},1651984595,0
{consumergroup=__strimzi-topic-operator-kstreams},1651984600,0
{consumergroup=__strimzi-topic-operator-kstreams},1651984605,0
{consumergroup=__strimzi-topic-operator-kstreams},1651984610,0
{consumergroup=__strimzi-topic-operator-kstreams},1651984615,0
{consumergroup=__strimzi-topic-operator-kstreams},1651984620,0
{consumergroup=__strimzi-topic-operator-kstreams},1651984625,0
{consumergroup=__strimzi-topic-operator-kstreams},1651984630,0
{consumergroup=__strimzi-topic-operator-kstreams},1651984635,0
{consumergroup=__strimzi-topic-operator-kstreams},1651984640,0
{consumergroup=__strimzi-topic-operator-kstreams},1651984645,0
{consumergroup=__strimzi-topic-operator-kstreams},1651984650,0
{consumergroup=__strimzi-topic-operator-kstreams},1651984655,0
{consumergroup=__strimzi-topic-operator-kstreams},1651984660,0
{consumergroup=__strimzi-topic-operator-kstreams},1651984665,0
{consumergroup=__strimzi-topic-operator-kstreams},1651984670,0
{consumergroup=__strimzi-topic-operator-kstreams},1651984675,0
{consumergroup=adapter-service},1651984255,0
{consumergroup=adapter-service},1651984260,0
{consumergroup=adapter-service},1651984265,0
{consumergroup=adapter-service},1651984270,465
{consumergroup=adapter-service},1651984275,465
{consumergroup=adapter-service},1651984280,465
{consumergroup=adapter-service},1651984285,11796
{consumergroup=adapter-service},1651984290,11796
{consumergroup=adapter-service},1651984295,11796
{consumergroup=adapter-service},1651984300,11228
{consumergroup=adapter-service},1651984305,11228
{consumergroup=adapter-service},1651984310,11228
{consumergroup=adapter-service},1651984315,11223
{consumergroup=adapter-service},1651984320,11223
{consumergroup=adapter-service},1651984325,11223
{consumergroup=adapter-service},1651984330,10328
{consumergroup=adapter-service},1651984335,10328
{consumergroup=adapter-service},1651984340,10328
{consumergroup=adapter-service},1651984345,10064
{consumergroup=adapter-service},1651984350,10064
{consumergroup=adapter-service},1651984355,10064
{consumergroup=adapter-service},1651984360,9855
{consumergroup=adapter-service},1651984365,9855
{consumergroup=adapter-service},1651984370,9855
{consumergroup=adapter-service},1651984375,9691
{consumergroup=adapter-service},1651984380,9691
{consumergroup=adapter-service},1651984385,9691
{consumergroup=adapter-service},1651984390,10059
{consumergroup=adapter-service},1651984395,10059
{consumergroup=adapter-service},1651984400,10059
{consumergroup=adapter-service},1651984405,9174
{consumergroup=adapter-service},1651984410,9174
{consumergroup=adapter-service},1651984415,9174
{consumergroup=adapter-service},1651984420,8953
{consumergroup=adapter-service},1651984425,8953
{consumergroup=adapter-service},1651984430,8953
{consumergroup=adapter-service},1651984435,9304
{consumergroup=adapter-service},1651984440,9304
{consumergroup=adapter-service},1651984445,9304
{consumergroup=adapter-service},1651984450,8232
{consumergroup=adapter-service},1651984455,8232
{consumergroup=adapter-service},1651984460,8232
{consumergroup=adapter-service},1651984465,8179
{consumergroup=adapter-service},1651984470,8179
{consumergroup=adapter-service},1651984475,8179
{consumergroup=adapter-service},1651984480,7730
{consumergroup=adapter-service},1651984485,7730
{consumergroup=adapter-service},1651984490,7730
{consumergroup=adapter-service},1651984495,7686
{consumergroup=adapter-service},1651984500,7686
{consumergroup=adapter-service},1651984505,7686
{consumergroup=adapter-service},1651984510,7732
{consumergroup=adapter-service},1651984515,7732
{consumergroup=adapter-service},1651984520,7732
{consumergroup=adapter-service},1651984525,7047
{consumergroup=adapter-service},1651984530,7047
{consumergroup=adapter-service},1651984535,7047
{consumergroup=adapter-service},1651984540,6696
{consumergroup=adapter-service},1651984545,6696
{consumergroup=adapter-service},1651984550,6696
{consumergroup=adapter-service},1651984555,9447
{consumergroup=adapter-service},1651984560,9447
{consumergroup=adapter-service},1651984565,9447
{consumergroup=adapter-service},1651984570,6345
{consumergroup=adapter-service},1651984575,6345
{consumergroup=adapter-service},1651984580,6345
{consumergroup=adapter-service},1651984585,6838
{consumergroup=adapter-service},1651984590,6838
{consumergroup=adapter-service},1651984595,6838
{consumergroup=adapter-service},1651984600,6489
{consumergroup=adapter-service},1651984605,6489
{consumergroup=adapter-service},1651984610,6489
{consumergroup=adapter-service},1651984615,8315
{consumergroup=adapter-service},1651984620,8315
{consumergroup=adapter-service},1651984625,8315
{consumergroup=adapter-service},1651984630,6110
{consumergroup=adapter-service},1651984635,6110
{consumergroup=adapter-service},1651984640,6110
{consumergroup=adapter-service},1651984645,5124
{consumergroup=adapter-service},1651984650,5124
{consumergroup=adapter-service},1651984655,5124
{consumergroup=adapter-service},1651984660,5655
{consumergroup=adapter-service},1651984665,5655
{consumergroup=adapter-service},1651984670,5655
{consumergroup=adapter-service},1651984675,5300
{consumergroup=landscape-service},1651984270,333
{consumergroup=landscape-service},1651984275,333
{consumergroup=landscape-service},1651984280,333
{consumergroup=landscape-service},1651984285,5674
{consumergroup=landscape-service},1651984290,5674
{consumergroup=landscape-service},1651984295,5674
{consumergroup=landscape-service},1651984300,5266
{consumergroup=landscape-service},1651984305,5266
{consumergroup=landscape-service},1651984310,5266
{consumergroup=landscape-service},1651984315,5219
{consumergroup=landscape-service},1651984320,5219
{consumergroup=landscape-service},1651984325,5219
{consumergroup=landscape-service},1651984330,5858
{consumergroup=landscape-service},1651984335,5858
{consumergroup=landscape-service},1651984340,5858
{consumergroup=landscape-service},1651984345,5841
{consumergroup=landscape-service},1651984350,5841
{consumergroup=landscape-service},1651984355,5841
{consumergroup=landscape-service},1651984360,5710
{consumergroup=landscape-service},1651984365,5710
{consumergroup=landscape-service},1651984370,5710
{consumergroup=landscape-service},1651984375,5528
{consumergroup=landscape-service},1651984380,5528
{consumergroup=landscape-service},1651984385,5528
{consumergroup=landscape-service},1651984390,4530
{consumergroup=landscape-service},1651984395,4530
{consumergroup=landscape-service},1651984400,4530
{consumergroup=landscape-service},1651984405,4886
{consumergroup=landscape-service},1651984410,4886
{consumergroup=landscape-service},1651984415,4886
{consumergroup=landscape-service},1651984420,5320
{consumergroup=landscape-service},1651984425,5320
{consumergroup=landscape-service},1651984430,5320
{consumergroup=landscape-service},1651984435,4458
{consumergroup=landscape-service},1651984440,4458
{consumergroup=landscape-service},1651984445,4458
{consumergroup=landscape-service},1651984450,5158
{consumergroup=landscape-service},1651984455,5158
{consumergroup=landscape-service},1651984460,5158
{consumergroup=landscape-service},1651984465,4405
{consumergroup=landscape-service},1651984470,4405
{consumergroup=landscape-service},1651984475,4405
{consumergroup=landscape-service},1651984480,4238
{consumergroup=landscape-service},1651984485,4238
{consumergroup=landscape-service},1651984490,4238
{consumergroup=landscape-service},1651984495,4273
{consumergroup=landscape-service},1651984500,4273
{consumergroup=landscape-service},1651984505,4273
{consumergroup=landscape-service},1651984510,4917
{consumergroup=landscape-service},1651984515,4917
{consumergroup=landscape-service},1651984520,4917
{consumergroup=landscape-service},1651984525,4079
{consumergroup=landscape-service},1651984530,4079
{consumergroup=landscape-service},1651984535,4079
{consumergroup=landscape-service},1651984540,3837
{consumergroup=landscape-service},1651984545,3837
{consumergroup=landscape-service},1651984550,3837
{consumergroup=landscape-service},1651984555,6753
{consumergroup=landscape-service},1651984560,6753
{consumergroup=landscape-service},1651984565,6753
{consumergroup=landscape-service},1651984570,3823
{consumergroup=landscape-service},1651984575,3823
{consumergroup=landscape-service},1651984580,3823
{consumergroup=landscape-service},1651984585,3846
{consumergroup=landscape-service},1651984590,3846
{consumergroup=landscape-service},1651984595,3846
{consumergroup=landscape-service},1651984600,3539
{consumergroup=landscape-service},1651984605,3539
{consumergroup=landscape-service},1651984610,3539
{consumergroup=landscape-service},1651984615,6371
{consumergroup=landscape-service},1651984620,6371
{consumergroup=landscape-service},1651984625,6371
{consumergroup=landscape-service},1651984630,4215
{consumergroup=landscape-service},1651984635,4215
{consumergroup=landscape-service},1651984640,4215
{consumergroup=landscape-service},1651984645,3470
{consumergroup=landscape-service},1651984650,3470
{consumergroup=landscape-service},1651984655,3470
{consumergroup=landscape-service},1651984660,4239
{consumergroup=landscape-service},1651984665,4239
{consumergroup=landscape-service},1651984670,4239
{consumergroup=landscape-service},1651984675,3986
{consumergroup=landscape-token-events-consumer},1651984255,0
{consumergroup=landscape-token-events-consumer},1651984260,0
{consumergroup=landscape-token-events-consumer},1651984265,0
{consumergroup=landscape-token-events-consumer},1651984270,0
{consumergroup=landscape-token-events-consumer},1651984275,0
{consumergroup=landscape-token-events-consumer},1651984280,0
{consumergroup=landscape-token-events-consumer},1651984285,0
{consumergroup=landscape-token-events-consumer},1651984290,0
{consumergroup=landscape-token-events-consumer},1651984295,0
{consumergroup=landscape-token-events-consumer},1651984300,0
{consumergroup=landscape-token-events-consumer},1651984305,0
{consumergroup=landscape-token-events-consumer},1651984310,0
{consumergroup=landscape-token-events-consumer},1651984315,0
{consumergroup=landscape-token-events-consumer},1651984320,0
{consumergroup=landscape-token-events-consumer},1651984325,0
{consumergroup=landscape-token-events-consumer},1651984330,0
{consumergroup=landscape-token-events-consumer},1651984335,0
{consumergroup=landscape-token-events-consumer},1651984340,0
{consumergroup=landscape-token-events-consumer},1651984345,0
{consumergroup=landscape-token-events-consumer},1651984350,0
{consumergroup=landscape-token-events-consumer},1651984355,0
{consumergroup=landscape-token-events-consumer},1651984360,0
{consumergroup=landscape-token-events-consumer},1651984365,0
{consumergroup=landscape-token-events-consumer},1651984370,0
{consumergroup=landscape-token-events-consumer},1651984375,0
{consumergroup=landscape-token-events-consumer},1651984380,0
{consumergroup=landscape-token-events-consumer},1651984385,0
{consumergroup=landscape-token-events-consumer},1651984390,0
{consumergroup=landscape-token-events-consumer},1651984395,0
{consumergroup=landscape-token-events-consumer},1651984400,0
{consumergroup=landscape-token-events-consumer},1651984405,0
{consumergroup=landscape-token-events-consumer},1651984410,0
{consumergroup=landscape-token-events-consumer},1651984415,0
{consumergroup=landscape-token-events-consumer},1651984420,0
{consumergroup=landscape-token-events-consumer},1651984425,0
{consumergroup=landscape-token-events-consumer},1651984430,0
{consumergroup=landscape-token-events-consumer},1651984435,0
{consumergroup=landscape-token-events-consumer},1651984440,0
{consumergroup=landscape-token-events-consumer},1651984445,0
{consumergroup=landscape-token-events-consumer},1651984450,0
{consumergroup=landscape-token-events-consumer},1651984455,0
{consumergroup=landscape-token-events-consumer},1651984460,0
{consumergroup=landscape-token-events-consumer},1651984465,0
{consumergroup=landscape-token-events-consumer},1651984470,0
{consumergroup=landscape-token-events-consumer},1651984475,0
{consumergroup=landscape-token-events-consumer},1651984480,0
{consumergroup=landscape-token-events-consumer},1651984485,0
{consumergroup=landscape-token-events-consumer},1651984490,0
{consumergroup=landscape-token-events-consumer},1651984495,0
{consumergroup=landscape-token-events-consumer},1651984500,0
{consumergroup=landscape-token-events-consumer},1651984505,0
{consumergroup=landscape-token-events-consumer},1651984510,0
{consumergroup=landscape-token-events-consumer},1651984515,0
{consumergroup=landscape-token-events-consumer},1651984520,0
{consumergroup=landscape-token-events-consumer},1651984525,0
{consumergroup=landscape-token-events-consumer},1651984530,0
{consumergroup=landscape-token-events-consumer},1651984535,0
{consumergroup=landscape-token-events-consumer},1651984540,0
{consumergroup=landscape-token-events-consumer},1651984545,0
{consumergroup=landscape-token-events-consumer},1651984550,0
{consumergroup=landscape-token-events-consumer},1651984555,0
{consumergroup=landscape-token-events-consumer},1651984560,0
{consumergroup=landscape-token-events-consumer},1651984565,0
{consumergroup=landscape-token-events-consumer},1651984570,0
{consumergroup=landscape-token-events-consumer},1651984575,0
{consumergroup=landscape-token-events-consumer},1651984580,0
{consumergroup=landscape-token-events-consumer},1651984585,0
{consumergroup=landscape-token-events-consumer},1651984590,0
{consumergroup=landscape-token-events-consumer},1651984595,0
{consumergroup=landscape-token-events-consumer},1651984600,0
{consumergroup=landscape-token-events-consumer},1651984605,0
{consumergroup=landscape-token-events-consumer},1651984610,0
{consumergroup=landscape-token-events-consumer},1651984615,0
{consumergroup=landscape-token-events-consumer},1651984620,0
{consumergroup=landscape-token-events-consumer},1651984625,0
{consumergroup=landscape-token-events-consumer},1651984630,0
{consumergroup=landscape-token-events-consumer},1651984635,0
{consumergroup=landscape-token-events-consumer},1651984640,0
{consumergroup=landscape-token-events-consumer},1651984645,0
{consumergroup=landscape-token-events-consumer},1651984650,0
{consumergroup=landscape-token-events-consumer},1651984655,0
{consumergroup=landscape-token-events-consumer},1651984660,0
{consumergroup=landscape-token-events-consumer},1651984665,0
{consumergroup=landscape-token-events-consumer},1651984670,0
{consumergroup=landscape-token-events-consumer},1651984675,0
{consumergroup=trace-service},1651984270,8221
{consumergroup=trace-service},1651984275,8221
{consumergroup=trace-service},1651984280,8221
{consumergroup=trace-service},1651984285,13543
{consumergroup=trace-service},1651984290,13543
{consumergroup=trace-service},1651984295,13543
{consumergroup=trace-service},1651984300,50527
{consumergroup=trace-service},1651984305,50527
{consumergroup=trace-service},1651984310,50527
{consumergroup=trace-service},1651984315,75690
{consumergroup=trace-service},1651984320,75690
{consumergroup=trace-service},1651984325,75690
{consumergroup=trace-service},1651984330,73191
{consumergroup=trace-service},1651984335,73191
{consumergroup=trace-service},1651984340,73191
{consumergroup=trace-service},1651984345,22943
{consumergroup=trace-service},1651984350,22943
{consumergroup=trace-service},1651984355,22943
{consumergroup=trace-service},1651984360,32788
{consumergroup=trace-service},1651984365,32788
{consumergroup=trace-service},1651984370,32788
{consumergroup=trace-service},1651984375,11816
{consumergroup=trace-service},1651984380,11816
{consumergroup=trace-service},1651984385,11816
{consumergroup=trace-service},1651984390,36034
{consumergroup=trace-service},1651984395,36034
{consumergroup=trace-service},1651984400,36034
{consumergroup=trace-service},1651984405,20369
{consumergroup=trace-service},1651984410,20369
{consumergroup=trace-service},1651984415,20369
{consumergroup=trace-service},1651984420,37068
{consumergroup=trace-service},1651984425,37068
{consumergroup=trace-service},1651984430,37068
{consumergroup=trace-service},1651984435,12490
{consumergroup=trace-service},1651984440,12490
{consumergroup=trace-service},1651984445,12490
{consumergroup=trace-service},1651984450,31519
{consumergroup=trace-service},1651984455,31519
{consumergroup=trace-service},1651984460,31519
{consumergroup=trace-service},1651984465,18676
{consumergroup=trace-service},1651984470,18676
{consumergroup=trace-service},1651984475,18676
{consumergroup=trace-service},1651984480,45555
{consumergroup=trace-service},1651984485,45555
{consumergroup=trace-service},1651984490,45555
{consumergroup=trace-service},1651984495,11920
{consumergroup=trace-service},1651984500,11920
{consumergroup=trace-service},1651984505,11920
{consumergroup=trace-service},1651984510,34583
{consumergroup=trace-service},1651984515,34583
{consumergroup=trace-service},1651984520,34583
{consumergroup=trace-service},1651984525,32610
{consumergroup=trace-service},1651984530,32610
{consumergroup=trace-service},1651984535,32610
{consumergroup=trace-service},1651984540,38656
{consumergroup=trace-service},1651984545,38656
{consumergroup=trace-service},1651984550,38656
{consumergroup=trace-service},1651984555,11403
{consumergroup=trace-service},1651984560,11403
{consumergroup=trace-service},1651984565,11403
{consumergroup=trace-service},1651984570,35596
{consumergroup=trace-service},1651984575,35596
{consumergroup=trace-service},1651984580,35596
{consumergroup=trace-service},1651984585,9067
{consumergroup=trace-service},1651984590,9067
{consumergroup=trace-service},1651984595,9067
{consumergroup=trace-service},1651984600,30231
{consumergroup=trace-service},1651984605,30231
{consumergroup=trace-service},1651984610,30231
{consumergroup=trace-service},1651984615,14081
{consumergroup=trace-service},1651984620,14081
{consumergroup=trace-service},1651984625,14081
{consumergroup=trace-service},1651984630,37793
{consumergroup=trace-service},1651984635,37793
{consumergroup=trace-service},1651984640,37793
{consumergroup=trace-service},1651984645,20597
{consumergroup=trace-service},1651984650,20597
{consumergroup=trace-service},1651984655,20597
{consumergroup=trace-service},1651984660,32889
{consumergroup=trace-service},1651984665,32889
{consumergroup=trace-service},1651984670,32889
{consumergroup=trace-service},1651984675,14379
{consumergroup=trace-token-events-consumer},1651984255,0
{consumergroup=trace-token-events-consumer},1651984260,0
{consumergroup=trace-token-events-consumer},1651984265,0
{consumergroup=trace-token-events-consumer},1651984270,0
{consumergroup=trace-token-events-consumer},1651984275,0
{consumergroup=trace-token-events-consumer},1651984280,0
{consumergroup=trace-token-events-consumer},1651984285,0
{consumergroup=trace-token-events-consumer},1651984290,0
{consumergroup=trace-token-events-consumer},1651984295,0
{consumergroup=trace-token-events-consumer},1651984300,0
{consumergroup=trace-token-events-consumer},1651984305,0
{consumergroup=trace-token-events-consumer},1651984310,0
{consumergroup=trace-token-events-consumer},1651984315,0
{consumergroup=trace-token-events-consumer},1651984320,0
{consumergroup=trace-token-events-consumer},1651984325,0
{consumergroup=trace-token-events-consumer},1651984330,0
{consumergroup=trace-token-events-consumer},1651984335,0
{consumergroup=trace-token-events-consumer},1651984340,0
{consumergroup=trace-token-events-consumer},1651984345,0
{consumergroup=trace-token-events-consumer},1651984350,0
{consumergroup=trace-token-events-consumer},1651984355,0
{consumergroup=trace-token-events-consumer},1651984360,0
{consumergroup=trace-token-events-consumer},1651984365,0
{consumergroup=trace-token-events-consumer},1651984370,0
{consumergroup=trace-token-events-consumer},1651984375,0
{consumergroup=trace-token-events-consumer},1651984380,0
{consumergroup=trace-token-events-consumer},1651984385,0
{consumergroup=trace-token-events-consumer},1651984390,0
{consumergroup=trace-token-events-consumer},1651984395,0
{consumergroup=trace-token-events-consumer},1651984400,0
{consumergroup=trace-token-events-consumer},1651984405,0
{consumergroup=trace-token-events-consumer},1651984410,0
{consumergroup=trace-token-events-consumer},1651984415,0
{consumergroup=trace-token-events-consumer},1651984420,0
{consumergroup=trace-token-events-consumer},1651984425,0
{consumergroup=trace-token-events-consumer},1651984430,0
{consumergroup=trace-token-events-consumer},1651984435,0
{consumergroup=trace-token-events-consumer},1651984440,0
{consumergroup=trace-token-events-consumer},1651984445,0
{consumergroup=trace-token-events-consumer},1651984450,0
{consumergroup=trace-token-events-consumer},1651984455,0
{consumergroup=trace-token-events-consumer},1651984460,0
{consumergroup=trace-token-events-consumer},1651984465,0
{consumergroup=trace-token-events-consumer},1651984470,0
{consumergroup=trace-token-events-consumer},1651984475,0
{consumergroup=trace-token-events-consumer},1651984480,0
{consumergroup=trace-token-events-consumer},1651984485,0
{consumergroup=trace-token-events-consumer},1651984490,0
{consumergroup=trace-token-events-consumer},1651984495,0
{consumergroup=trace-token-events-consumer},1651984500,0
{consumergroup=trace-token-events-consumer},1651984505,0
{consumergroup=trace-token-events-consumer},1651984510,0
{consumergroup=trace-token-events-consumer},1651984515,0
{consumergroup=trace-token-events-consumer},1651984520,0
{consumergroup=trace-token-events-consumer},1651984525,0
{consumergroup=trace-token-events-consumer},1651984530,0
{consumergroup=trace-token-events-consumer},1651984535,0
{consumergroup=trace-token-events-consumer},1651984540,0
{consumergroup=trace-token-events-consumer},1651984545,0
{consumergroup=trace-token-events-consumer},1651984550,0
{consumergroup=trace-token-events-consumer},1651984555,0
{consumergroup=trace-token-events-consumer},1651984560,0
{consumergroup=trace-token-events-consumer},1651984565,0
{consumergroup=trace-token-events-consumer},1651984570,0
{consumergroup=trace-token-events-consumer},1651984575,0
{consumergroup=trace-token-events-consumer},1651984580,0
{consumergroup=trace-token-events-consumer},1651984585,0
{consumergroup=trace-token-events-consumer},1651984590,0
{consumergroup=trace-token-events-consumer},1651984595,0
{consumergroup=trace-token-events-consumer},1651984600,0
{consumergroup=trace-token-events-consumer},1651984605,0
{consumergroup=trace-token-events-consumer},1651984610,0
{consumergroup=trace-token-events-consumer},1651984615,0
{consumergroup=trace-token-events-consumer},1651984620,0
{consumergroup=trace-token-events-consumer},1651984625,0
{consumergroup=trace-token-events-consumer},1651984630,0
{consumergroup=trace-token-events-consumer},1651984635,0
{consumergroup=trace-token-events-consumer},1651984640,0
{consumergroup=trace-token-events-consumer},1651984645,0
{consumergroup=trace-token-events-consumer},1651984650,0
{consumergroup=trace-token-events-consumer},1651984655,0
{consumergroup=trace-token-events-consumer},1651984660,0
{consumergroup=trace-token-events-consumer},1651984665,0
{consumergroup=trace-token-events-consumer},1651984670,0
{consumergroup=trace-token-events-consumer},1651984675,0
