labels,timestamp,value
{consumergroup=__strimzi-topic-operator-kstreams},1651993046,11
{consumergroup=__strimzi-topic-operator-kstreams},1651993051,11
{consumergroup=__strimzi-topic-operator-kstreams},1651993056,11
{consumergroup=__strimzi-topic-operator-kstreams},1651993061,0
{consumergroup=__strimzi-topic-operator-kstreams},1651993066,0
{consumergroup=__strimzi-topic-operator-kstreams},1651993071,0
{consumergroup=__strimzi-topic-operator-kstreams},1651993076,3
{consumergroup=__strimzi-topic-operator-kstreams},1651993081,3
{consumergroup=__strimzi-topic-operator-kstreams},1651993086,3
{consumergroup=__strimzi-topic-operator-kstreams},1651993091,0
{consumergroup=__strimzi-topic-operator-kstreams},1651993096,0
{consumergroup=__strimzi-topic-operator-kstreams},1651993101,0
{consumergroup=__strimzi-topic-operator-kstreams},1651993106,0
{consumergroup=__strimzi-topic-operator-kstreams},1651993111,0
{consumergroup=__strimzi-topic-operator-kstreams},1651993116,0
{consumergroup=__strimzi-topic-operator-kstreams},1651993121,0
{consumergroup=__strimzi-topic-operator-kstreams},1651993126,0
{consumergroup=__strimzi-topic-operator-kstreams},1651993131,0
{consumergroup=__strimzi-topic-operator-kstreams},1651993136,0
{consumergroup=__strimzi-topic-operator-kstreams},1651993141,0
{consumergroup=__strimzi-topic-operator-kstreams},1651993146,0
{consumergroup=__strimzi-topic-operator-kstreams},1651993151,0
{consumergroup=__strimzi-topic-operator-kstreams},1651993156,0
{consumergroup=__strimzi-topic-operator-kstreams},1651993161,0
{consumergroup=__strimzi-topic-operator-kstreams},1651993166,0
{consumergroup=__strimzi-topic-operator-kstreams},1651993171,0
{consumergroup=__strimzi-topic-operator-kstreams},1651993176,0
{consumergroup=__strimzi-topic-operator-kstreams},1651993181,0
{consumergroup=__strimzi-topic-operator-kstreams},1651993186,0
{consumergroup=__strimzi-topic-operator-kstreams},1651993191,0
{consumergroup=__strimzi-topic-operator-kstreams},1651993196,0
{consumergroup=__strimzi-topic-operator-kstreams},1651993201,0
{consumergroup=__strimzi-topic-operator-kstreams},1651993206,0
{consumergroup=__strimzi-topic-operator-kstreams},1651993211,0
{consumergroup=__strimzi-topic-operator-kstreams},1651993216,0
{consumergroup=__strimzi-topic-operator-kstreams},1651993221,0
{consumergroup=__strimzi-topic-operator-kstreams},1651993226,0
{consumergroup=__strimzi-topic-operator-kstreams},1651993231,0
{consumergroup=__strimzi-topic-operator-kstreams},1651993236,0
{consumergroup=__strimzi-topic-operator-kstreams},1651993241,0
{consumergroup=__strimzi-topic-operator-kstreams},1651993246,0
{consumergroup=__strimzi-topic-operator-kstreams},1651993251,0
{consumergroup=__strimzi-topic-operator-kstreams},1651993256,0
{consumergroup=__strimzi-topic-operator-kstreams},1651993261,0
{consumergroup=__strimzi-topic-operator-kstreams},1651993266,0
{consumergroup=__strimzi-topic-operator-kstreams},1651993271,0
{consumergroup=__strimzi-topic-operator-kstreams},1651993276,0
{consumergroup=__strimzi-topic-operator-kstreams},1651993281,0
{consumergroup=__strimzi-topic-operator-kstreams},1651993286,0
{consumergroup=__strimzi-topic-operator-kstreams},1651993291,0
{consumergroup=__strimzi-topic-operator-kstreams},1651993296,0
{consumergroup=__strimzi-topic-operator-kstreams},1651993301,0
{consumergroup=__strimzi-topic-operator-kstreams},1651993306,0
{consumergroup=__strimzi-topic-operator-kstreams},1651993311,0
{consumergroup=__strimzi-topic-operator-kstreams},1651993316,0
{consumergroup=__strimzi-topic-operator-kstreams},1651993321,0
{consumergroup=__strimzi-topic-operator-kstreams},1651993326,0
{consumergroup=__strimzi-topic-operator-kstreams},1651993331,0
{consumergroup=__strimzi-topic-operator-kstreams},1651993336,0
{consumergroup=__strimzi-topic-operator-kstreams},1651993341,0
{consumergroup=__strimzi-topic-operator-kstreams},1651993346,0
{consumergroup=__strimzi-topic-operator-kstreams},1651993351,0
{consumergroup=__strimzi-topic-operator-kstreams},1651993356,0
{consumergroup=__strimzi-topic-operator-kstreams},1651993361,0
{consumergroup=__strimzi-topic-operator-kstreams},1651993366,0
{consumergroup=__strimzi-topic-operator-kstreams},1651993371,0
{consumergroup=__strimzi-topic-operator-kstreams},1651993376,0
{consumergroup=__strimzi-topic-operator-kstreams},1651993381,0
{consumergroup=__strimzi-topic-operator-kstreams},1651993386,0
{consumergroup=__strimzi-topic-operator-kstreams},1651993391,0
{consumergroup=__strimzi-topic-operator-kstreams},1651993396,0
{consumergroup=__strimzi-topic-operator-kstreams},1651993401,0
{consumergroup=__strimzi-topic-operator-kstreams},1651993406,0
{consumergroup=__strimzi-topic-operator-kstreams},1651993411,0
{consumergroup=__strimzi-topic-operator-kstreams},1651993416,0
{consumergroup=__strimzi-topic-operator-kstreams},1651993421,0
{consumergroup=__strimzi-topic-operator-kstreams},1651993426,0
{consumergroup=__strimzi-topic-operator-kstreams},1651993431,0
{consumergroup=__strimzi-topic-operator-kstreams},1651993436,0
{consumergroup=__strimzi-topic-operator-kstreams},1651993441,0
{consumergroup=__strimzi-topic-operator-kstreams},1651993446,0
{consumergroup=__strimzi-topic-operator-kstreams},1651993451,0
{consumergroup=__strimzi-topic-operator-kstreams},1651993456,0
{consumergroup=__strimzi-topic-operator-kstreams},1651993461,0
{consumergroup=__strimzi-topic-operator-kstreams},1651993466,0
{consumergroup=__strimzi-topic-operator-kstreams},1651993471,0
{consumergroup=__strimzi-topic-operator-kstreams},1651993476,0
{consumergroup=__strimzi-topic-operator-kstreams},1651993481,0
{consumergroup=__strimzi-topic-operator-kstreams},1651993486,0
{consumergroup=__strimzi-topic-operator-kstreams},1651993491,0
{consumergroup=adapter-service},1651993076,0
{consumergroup=adapter-service},1651993081,0
{consumergroup=adapter-service},1651993086,0
{consumergroup=adapter-service},1651993091,5750
{consumergroup=adapter-service},1651993096,5750
{consumergroup=adapter-service},1651993101,5750
{consumergroup=adapter-service},1651993106,9280
{consumergroup=adapter-service},1651993111,9280
{consumergroup=adapter-service},1651993116,9280
{consumergroup=adapter-service},1651993121,4452
{consumergroup=adapter-service},1651993126,4452
{consumergroup=adapter-service},1651993131,4452
{consumergroup=adapter-service},1651993136,7986
{consumergroup=adapter-service},1651993141,7986
{consumergroup=adapter-service},1651993146,7986
{consumergroup=adapter-service},1651993151,7684
{consumergroup=adapter-service},1651993156,7684
{consumergroup=adapter-service},1651993161,7684
{consumergroup=adapter-service},1651993166,7723
{consumergroup=adapter-service},1651993171,7723
{consumergroup=adapter-service},1651993176,7723
{consumergroup=adapter-service},1651993181,7039
{consumergroup=adapter-service},1651993186,7039
{consumergroup=adapter-service},1651993191,7039
{consumergroup=adapter-service},1651993196,7932
{consumergroup=adapter-service},1651993201,7932
{consumergroup=adapter-service},1651993206,7932
{consumergroup=adapter-service},1651993211,6337
{consumergroup=adapter-service},1651993216,6337
{consumergroup=adapter-service},1651993221,6337
{consumergroup=adapter-service},1651993226,6018
{consumergroup=adapter-service},1651993231,6018
{consumergroup=adapter-service},1651993236,6018
{consumergroup=adapter-service},1651993241,2604
{consumergroup=adapter-service},1651993246,2604
{consumergroup=adapter-service},1651993251,2604
{consumergroup=adapter-service},1651993256,5425
{consumergroup=adapter-service},1651993261,5425
{consumergroup=adapter-service},1651993266,5425
{consumergroup=adapter-service},1651993271,1232
{consumergroup=adapter-service},1651993276,1232
{consumergroup=adapter-service},1651993281,1232
{consumergroup=adapter-service},1651993286,4790
{consumergroup=adapter-service},1651993291,4790
{consumergroup=adapter-service},1651993296,4790
{consumergroup=adapter-service},1651993301,322
{consumergroup=adapter-service},1651993306,322
{consumergroup=adapter-service},1651993311,322
{consumergroup=adapter-service},1651993316,4335
{consumergroup=adapter-service},1651993321,4335
{consumergroup=adapter-service},1651993326,4335
{consumergroup=adapter-service},1651993331,90
{consumergroup=adapter-service},1651993336,90
{consumergroup=adapter-service},1651993341,90
{consumergroup=adapter-service},1651993346,3465
{consumergroup=adapter-service},1651993351,3465
{consumergroup=adapter-service},1651993356,3465
{consumergroup=adapter-service},1651993361,3189
{consumergroup=adapter-service},1651993366,3189
{consumergroup=adapter-service},1651993371,3189
{consumergroup=adapter-service},1651993376,3526
{consumergroup=adapter-service},1651993381,3526
{consumergroup=adapter-service},1651993386,3526
{consumergroup=adapter-service},1651993391,12563
{consumergroup=adapter-service},1651993396,12563
{consumergroup=adapter-service},1651993401,12563
{consumergroup=adapter-service},1651993406,3237
{consumergroup=adapter-service},1651993411,3237
{consumergroup=adapter-service},1651993416,3237
{consumergroup=adapter-service},1651993421,1597
{consumergroup=adapter-service},1651993426,1597
{consumergroup=adapter-service},1651993431,1597
{consumergroup=adapter-service},1651993436,1366
{consumergroup=adapter-service},1651993441,1366
{consumergroup=adapter-service},1651993446,1366
{consumergroup=adapter-service},1651993451,2067
{consumergroup=adapter-service},1651993456,2067
{consumergroup=adapter-service},1651993461,2067
{consumergroup=adapter-service},1651993466,1750
{consumergroup=adapter-service},1651993471,1750
{consumergroup=adapter-service},1651993476,1750
{consumergroup=adapter-service},1651993481,329
{consumergroup=adapter-service},1651993486,329
{consumergroup=adapter-service},1651993491,329
{consumergroup=landscape-service},1651993091,12559
{consumergroup=landscape-service},1651993096,12559
{consumergroup=landscape-service},1651993101,12559
{consumergroup=landscape-service},1651993106,15780
{consumergroup=landscape-service},1651993111,15780
{consumergroup=landscape-service},1651993116,15780
{consumergroup=landscape-service},1651993121,11245
{consumergroup=landscape-service},1651993126,11245
{consumergroup=landscape-service},1651993131,11245
{consumergroup=landscape-service},1651993136,15040
{consumergroup=landscape-service},1651993141,15040
{consumergroup=landscape-service},1651993146,15040
{consumergroup=landscape-service},1651993151,15150
{consumergroup=landscape-service},1651993156,15150
{consumergroup=landscape-service},1651993161,15150
{consumergroup=landscape-service},1651993166,15056
{consumergroup=landscape-service},1651993171,15056
{consumergroup=landscape-service},1651993176,15056
{consumergroup=landscape-service},1651993181,14919
{consumergroup=landscape-service},1651993186,14919
{consumergroup=landscape-service},1651993191,14919
{consumergroup=landscape-service},1651993196,14863
{consumergroup=landscape-service},1651993201,14863
{consumergroup=landscape-service},1651993206,14863
{consumergroup=landscape-service},1651993211,14699
{consumergroup=landscape-service},1651993216,14699
{consumergroup=landscape-service},1651993221,14699
{consumergroup=landscape-service},1651993226,14667
{consumergroup=landscape-service},1651993231,14667
{consumergroup=landscape-service},1651993236,14667
{consumergroup=landscape-service},1651993241,10495
{consumergroup=landscape-service},1651993246,10495
{consumergroup=landscape-service},1651993251,10495
{consumergroup=landscape-service},1651993256,14569
{consumergroup=landscape-service},1651993261,14569
{consumergroup=landscape-service},1651993266,14569
{consumergroup=landscape-service},1651993271,10507
{consumergroup=landscape-service},1651993276,10507
{consumergroup=landscape-service},1651993281,10507
{consumergroup=landscape-service},1651993286,14407
{consumergroup=landscape-service},1651993291,14407
{consumergroup=landscape-service},1651993296,14407
{consumergroup=landscape-service},1651993301,9946
{consumergroup=landscape-service},1651993306,9946
{consumergroup=landscape-service},1651993311,9946
{consumergroup=landscape-service},1651993316,14408
{consumergroup=landscape-service},1651993321,14408
{consumergroup=landscape-service},1651993326,14408
{consumergroup=landscape-service},1651993331,11077
{consumergroup=landscape-service},1651993336,11077
{consumergroup=landscape-service},1651993341,11077
{consumergroup=landscape-service},1651993346,15021
{consumergroup=landscape-service},1651993351,15021
{consumergroup=landscape-service},1651993356,15021
{consumergroup=landscape-service},1651993361,10653
{consumergroup=landscape-service},1651993366,10653
{consumergroup=landscape-service},1651993371,10653
{consumergroup=landscape-service},1651993376,14790
{consumergroup=landscape-service},1651993381,14790
{consumergroup=landscape-service},1651993386,14790
{consumergroup=landscape-service},1651993391,9479
{consumergroup=landscape-service},1651993396,9479
{consumergroup=landscape-service},1651993401,9479
{consumergroup=landscape-service},1651993406,14799
{consumergroup=landscape-service},1651993411,14799
{consumergroup=landscape-service},1651993416,14799
{consumergroup=landscape-service},1651993421,13538
{consumergroup=landscape-service},1651993426,13538
{consumergroup=landscape-service},1651993431,13538
{consumergroup=landscape-service},1651993436,13549
{consumergroup=landscape-service},1651993441,13549
{consumergroup=landscape-service},1651993446,13549
{consumergroup=landscape-service},1651993451,13361
{consumergroup=landscape-service},1651993456,13361
{consumergroup=landscape-service},1651993461,13361
{consumergroup=landscape-service},1651993466,13494
{consumergroup=landscape-service},1651993471,13494
{consumergroup=landscape-service},1651993476,13494
{consumergroup=landscape-service},1651993481,13013
{consumergroup=landscape-service},1651993486,13013
{consumergroup=landscape-service},1651993491,13013
{consumergroup=landscape-token-events-consumer},1651993076,0
{consumergroup=landscape-token-events-consumer},1651993081,0
{consumergroup=landscape-token-events-consumer},1651993086,0
{consumergroup=landscape-token-events-consumer},1651993091,0
{consumergroup=landscape-token-events-consumer},1651993096,0
{consumergroup=landscape-token-events-consumer},1651993101,0
{consumergroup=landscape-token-events-consumer},1651993106,0
{consumergroup=landscape-token-events-consumer},1651993111,0
{consumergroup=landscape-token-events-consumer},1651993116,0
{consumergroup=landscape-token-events-consumer},1651993121,0
{consumergroup=landscape-token-events-consumer},1651993126,0
{consumergroup=landscape-token-events-consumer},1651993131,0
{consumergroup=landscape-token-events-consumer},1651993136,0
{consumergroup=landscape-token-events-consumer},1651993141,0
{consumergroup=landscape-token-events-consumer},1651993146,0
{consumergroup=landscape-token-events-consumer},1651993151,0
{consumergroup=landscape-token-events-consumer},1651993156,0
{consumergroup=landscape-token-events-consumer},1651993161,0
{consumergroup=landscape-token-events-consumer},1651993166,0
{consumergroup=landscape-token-events-consumer},1651993171,0
{consumergroup=landscape-token-events-consumer},1651993176,0
{consumergroup=landscape-token-events-consumer},1651993181,0
{consumergroup=landscape-token-events-consumer},1651993186,0
{consumergroup=landscape-token-events-consumer},1651993191,0
{consumergroup=landscape-token-events-consumer},1651993196,0
{consumergroup=landscape-token-events-consumer},1651993201,0
{consumergroup=landscape-token-events-consumer},1651993206,0
{consumergroup=landscape-token-events-consumer},1651993211,0
{consumergroup=landscape-token-events-consumer},1651993216,0
{consumergroup=landscape-token-events-consumer},1651993221,0
{consumergroup=landscape-token-events-consumer},1651993226,0
{consumergroup=landscape-token-events-consumer},1651993231,0
{consumergroup=landscape-token-events-consumer},1651993236,0
{consumergroup=landscape-token-events-consumer},1651993241,0
{consumergroup=landscape-token-events-consumer},1651993246,0
{consumergroup=landscape-token-events-consumer},1651993251,0
{consumergroup=landscape-token-events-consumer},1651993256,0
{consumergroup=landscape-token-events-consumer},1651993261,0
{consumergroup=landscape-token-events-consumer},1651993266,0
{consumergroup=landscape-token-events-consumer},1651993271,0
{consumergroup=landscape-token-events-consumer},1651993276,0
{consumergroup=landscape-token-events-consumer},1651993281,0
{consumergroup=landscape-token-events-consumer},1651993286,0
{consumergroup=landscape-token-events-consumer},1651993291,0
{consumergroup=landscape-token-events-consumer},1651993296,0
{consumergroup=landscape-token-events-consumer},1651993301,0
{consumergroup=landscape-token-events-consumer},1651993306,0
{consumergroup=landscape-token-events-consumer},1651993311,0
{consumergroup=landscape-token-events-consumer},1651993316,0
{consumergroup=landscape-token-events-consumer},1651993321,0
{consumergroup=landscape-token-events-consumer},1651993326,0
{consumergroup=landscape-token-events-consumer},1651993331,0
{consumergroup=landscape-token-events-consumer},1651993336,0
{consumergroup=landscape-token-events-consumer},1651993341,0
{consumergroup=landscape-token-events-consumer},1651993346,0
{consumergroup=landscape-token-events-consumer},1651993351,0
{consumergroup=landscape-token-events-consumer},1651993356,0
{consumergroup=landscape-token-events-consumer},1651993361,0
{consumergroup=landscape-token-events-consumer},1651993366,0
{consumergroup=landscape-token-events-consumer},1651993371,0
{consumergroup=landscape-token-events-consumer},1651993376,0
{consumergroup=landscape-token-events-consumer},1651993381,0
{consumergroup=landscape-token-events-consumer},1651993386,0
{consumergroup=landscape-token-events-consumer},1651993391,0
{consumergroup=landscape-token-events-consumer},1651993396,0
{consumergroup=landscape-token-events-consumer},1651993401,0
{consumergroup=landscape-token-events-consumer},1651993406,0
{consumergroup=landscape-token-events-consumer},1651993411,0
{consumergroup=landscape-token-events-consumer},1651993416,0
{consumergroup=landscape-token-events-consumer},1651993421,0
{consumergroup=landscape-token-events-consumer},1651993426,0
{consumergroup=landscape-token-events-consumer},1651993431,0
{consumergroup=landscape-token-events-consumer},1651993436,0
{consumergroup=landscape-token-events-consumer},1651993441,0
{consumergroup=landscape-token-events-consumer},1651993446,0
{consumergroup=landscape-token-events-consumer},1651993451,0
{consumergroup=landscape-token-events-consumer},1651993456,0
{consumergroup=landscape-token-events-consumer},1651993461,0
{consumergroup=landscape-token-events-consumer},1651993466,0
{consumergroup=landscape-token-events-consumer},1651993471,0
{consumergroup=landscape-token-events-consumer},1651993476,0
{consumergroup=landscape-token-events-consumer},1651993481,0
{consumergroup=landscape-token-events-consumer},1651993486,0
{consumergroup=landscape-token-events-consumer},1651993491,0
{consumergroup=trace-service},1651993091,45023
{consumergroup=trace-service},1651993096,45023
{consumergroup=trace-service},1651993101,45023
{consumergroup=trace-service},1651993106,7990
{consumergroup=trace-service},1651993111,7990
{consumergroup=trace-service},1651993116,7990
{consumergroup=trace-service},1651993121,62616
{consumergroup=trace-service},1651993126,62616
{consumergroup=trace-service},1651993131,62616
{consumergroup=trace-service},1651993136,94604
{consumergroup=trace-service},1651993141,94604
{consumergroup=trace-service},1651993146,94604
{consumergroup=trace-service},1651993151,159673
{consumergroup=trace-service},1651993156,159673
{consumergroup=trace-service},1651993161,159673
{consumergroup=trace-service},1651993166,29624
{consumergroup=trace-service},1651993171,29624
{consumergroup=trace-service},1651993176,29624
{consumergroup=trace-service},1651993181,51678
{consumergroup=trace-service},1651993186,51678
{consumergroup=trace-service},1651993191,51678
{consumergroup=trace-service},1651993196,56677
{consumergroup=trace-service},1651993201,56677
{consumergroup=trace-service},1651993206,56677
{consumergroup=trace-service},1651993211,55244
{consumergroup=trace-service},1651993216,55244
{consumergroup=trace-service},1651993221,55244
{consumergroup=trace-service},1651993226,125332
{consumergroup=trace-service},1651993231,125332
{consumergroup=trace-service},1651993236,125332
{consumergroup=trace-service},1651993241,137563
{consumergroup=trace-service},1651993246,137563
{consumergroup=trace-service},1651993251,137563
{consumergroup=trace-service},1651993256,58050
{consumergroup=trace-service},1651993261,58050
{consumergroup=trace-service},1651993266,58050
{consumergroup=trace-service},1651993271,48137
{consumergroup=trace-service},1651993276,48137
{consumergroup=trace-service},1651993281,48137
{consumergroup=trace-service},1651993286,105586
{consumergroup=trace-service},1651993291,105586
{consumergroup=trace-service},1651993296,105586
{consumergroup=trace-service},1651993301,67478
{consumergroup=trace-service},1651993306,67478
{consumergroup=trace-service},1651993311,67478
{consumergroup=trace-service},1651993316,48430
{consumergroup=trace-service},1651993321,48430
{consumergroup=trace-service},1651993326,48430
{consumergroup=trace-service},1651993331,49953
{consumergroup=trace-service},1651993336,49953
{consumergroup=trace-service},1651993341,49953
{consumergroup=trace-service},1651993346,42910
{consumergroup=trace-service},1651993351,42910
{consumergroup=trace-service},1651993356,42910
{consumergroup=trace-service},1651993361,49299
{consumergroup=trace-service},1651993366,49299
{consumergroup=trace-service},1651993371,49299
{consumergroup=trace-service},1651993376,151780
{consumergroup=trace-service},1651993381,151780
{consumergroup=trace-service},1651993386,151780
{consumergroup=trace-service},1651993391,53933
{consumergroup=trace-service},1651993396,53933
{consumergroup=trace-service},1651993401,53933
{consumergroup=trace-service},1651993406,106571
{consumergroup=trace-service},1651993411,106571
{consumergroup=trace-service},1651993416,106571
{consumergroup=trace-service},1651993421,53418
{consumergroup=trace-service},1651993426,53418
{consumergroup=trace-service},1651993431,53418
{consumergroup=trace-service},1651993436,90816
{consumergroup=trace-service},1651993441,90816
{consumergroup=trace-service},1651993446,90816
{consumergroup=trace-service},1651993451,51947
{consumergroup=trace-service},1651993456,51947
{consumergroup=trace-service},1651993461,51947
{consumergroup=trace-service},1651993466,24599
{consumergroup=trace-service},1651993471,24599
{consumergroup=trace-service},1651993476,24599
{consumergroup=trace-service},1651993481,49172
{consumergroup=trace-service},1651993486,49172
{consumergroup=trace-service},1651993491,49172
{consumergroup=trace-token-events-consumer},1651993076,0
{consumergroup=trace-token-events-consumer},1651993081,0
{consumergroup=trace-token-events-consumer},1651993086,0
{consumergroup=trace-token-events-consumer},1651993091,0
{consumergroup=trace-token-events-consumer},1651993096,0
{consumergroup=trace-token-events-consumer},1651993101,0
{consumergroup=trace-token-events-consumer},1651993106,0
{consumergroup=trace-token-events-consumer},1651993111,0
{consumergroup=trace-token-events-consumer},1651993116,0
{consumergroup=trace-token-events-consumer},1651993121,0
{consumergroup=trace-token-events-consumer},1651993126,0
{consumergroup=trace-token-events-consumer},1651993131,0
{consumergroup=trace-token-events-consumer},1651993136,0
{consumergroup=trace-token-events-consumer},1651993141,0
{consumergroup=trace-token-events-consumer},1651993146,0
{consumergroup=trace-token-events-consumer},1651993151,0
{consumergroup=trace-token-events-consumer},1651993156,0
{consumergroup=trace-token-events-consumer},1651993161,0
{consumergroup=trace-token-events-consumer},1651993166,0
{consumergroup=trace-token-events-consumer},1651993171,0
{consumergroup=trace-token-events-consumer},1651993176,0
{consumergroup=trace-token-events-consumer},1651993181,0
{consumergroup=trace-token-events-consumer},1651993186,0
{consumergroup=trace-token-events-consumer},1651993191,0
{consumergroup=trace-token-events-consumer},1651993196,0
{consumergroup=trace-token-events-consumer},1651993201,0
{consumergroup=trace-token-events-consumer},1651993206,0
{consumergroup=trace-token-events-consumer},1651993211,0
{consumergroup=trace-token-events-consumer},1651993216,0
{consumergroup=trace-token-events-consumer},1651993221,0
{consumergroup=trace-token-events-consumer},1651993226,0
{consumergroup=trace-token-events-consumer},1651993231,0
{consumergroup=trace-token-events-consumer},1651993236,0
{consumergroup=trace-token-events-consumer},1651993241,0
{consumergroup=trace-token-events-consumer},1651993246,0
{consumergroup=trace-token-events-consumer},1651993251,0
{consumergroup=trace-token-events-consumer},1651993256,0
{consumergroup=trace-token-events-consumer},1651993261,0
{consumergroup=trace-token-events-consumer},1651993266,0
{consumergroup=trace-token-events-consumer},1651993271,0
{consumergroup=trace-token-events-consumer},1651993276,0
{consumergroup=trace-token-events-consumer},1651993281,0
{consumergroup=trace-token-events-consumer},1651993286,0
{consumergroup=trace-token-events-consumer},1651993291,0
{consumergroup=trace-token-events-consumer},1651993296,0
{consumergroup=trace-token-events-consumer},1651993301,0
{consumergroup=trace-token-events-consumer},1651993306,0
{consumergroup=trace-token-events-consumer},1651993311,0
{consumergroup=trace-token-events-consumer},1651993316,0
{consumergroup=trace-token-events-consumer},1651993321,0
{consumergroup=trace-token-events-consumer},1651993326,0
{consumergroup=trace-token-events-consumer},1651993331,0
{consumergroup=trace-token-events-consumer},1651993336,0
{consumergroup=trace-token-events-consumer},1651993341,0
{consumergroup=trace-token-events-consumer},1651993346,0
{consumergroup=trace-token-events-consumer},1651993351,0
{consumergroup=trace-token-events-consumer},1651993356,0
{consumergroup=trace-token-events-consumer},1651993361,0
{consumergroup=trace-token-events-consumer},1651993366,0
{consumergroup=trace-token-events-consumer},1651993371,0
{consumergroup=trace-token-events-consumer},1651993376,0
{consumergroup=trace-token-events-consumer},1651993381,0
{consumergroup=trace-token-events-consumer},1651993386,0
{consumergroup=trace-token-events-consumer},1651993391,0
{consumergroup=trace-token-events-consumer},1651993396,0
{consumergroup=trace-token-events-consumer},1651993401,0
{consumergroup=trace-token-events-consumer},1651993406,0
{consumergroup=trace-token-events-consumer},1651993411,0
{consumergroup=trace-token-events-consumer},1651993416,0
{consumergroup=trace-token-events-consumer},1651993421,0
{consumergroup=trace-token-events-consumer},1651993426,0
{consumergroup=trace-token-events-consumer},1651993431,0
{consumergroup=trace-token-events-consumer},1651993436,0
{consumergroup=trace-token-events-consumer},1651993441,0
{consumergroup=trace-token-events-consumer},1651993446,0
{consumergroup=trace-token-events-consumer},1651993451,0
{consumergroup=trace-token-events-consumer},1651993456,0
{consumergroup=trace-token-events-consumer},1651993461,0
{consumergroup=trace-token-events-consumer},1651993466,0
{consumergroup=trace-token-events-consumer},1651993471,0
{consumergroup=trace-token-events-consumer},1651993476,0
{consumergroup=trace-token-events-consumer},1651993481,0
{consumergroup=trace-token-events-consumer},1651993486,0
{consumergroup=trace-token-events-consumer},1651993491,0
