labels,timestamp,value
{job=theodolite-stu200776/combined-trace-podmonitor},1651987056,5.595961942852587
{job=theodolite-stu200776/combined-trace-podmonitor},1651987061,28.030682115521657
{job=theodolite-stu200776/combined-trace-podmonitor},1651987066,38.362638009722325
{job=theodolite-stu200776/combined-trace-podmonitor},1651987071,33.46957811160874
{job=theodolite-stu200776/combined-trace-podmonitor},1651987076,30.30095802370427
{job=theodolite-stu200776/combined-trace-podmonitor},1651987081,27.165111866781995
{job=theodolite-stu200776/combined-trace-podmonitor},1651987086,18.758636627193596
{job=theodolite-stu200776/combined-trace-podmonitor},1651987091,4.352822509560396
{job=theodolite-stu200776/combined-trace-podmonitor},1651987096,0
{job=theodolite-stu200776/combined-trace-podmonitor},1651987101,0
{job=theodolite-stu200776/combined-trace-podmonitor},1651987106,0
{job=theodolite-stu200776/combined-trace-podmonitor},1651987111,0
{job=theodolite-stu200776/combined-trace-podmonitor},1651987116,0
{job=theodolite-stu200776/combined-trace-podmonitor},1651987121,0
{job=theodolite-stu200776/combined-trace-podmonitor},1651987126,0
{job=theodolite-stu200776/combined-trace-podmonitor},1651987131,0
{job=theodolite-stu200776/combined-trace-podmonitor},1651987136,0
{job=theodolite-stu200776/combined-trace-podmonitor},1651987141,0
{job=theodolite-stu200776/combined-trace-podmonitor},1651987146,0
{job=theodolite-stu200776/combined-trace-podmonitor},1651987151,0
{job=theodolite-stu200776/combined-trace-podmonitor},1651987156,0
{job=theodolite-stu200776/combined-trace-podmonitor},1651987161,0
{job=theodolite-stu200776/combined-trace-podmonitor},1651987166,0
{job=theodolite-stu200776/combined-trace-podmonitor},1651987171,0
{job=theodolite-stu200776/combined-trace-podmonitor},1651987176,0
{job=theodolite-stu200776/combined-trace-podmonitor},1651987181,0
{job=theodolite-stu200776/combined-trace-podmonitor},1651987186,0
{job=theodolite-stu200776/combined-trace-podmonitor},1651987191,0
{job=theodolite-stu200776/combined-trace-podmonitor},1651987196,0
{job=theodolite-stu200776/combined-trace-podmonitor},1651987201,0
{job=theodolite-stu200776/combined-trace-podmonitor},1651987206,0
{job=theodolite-stu200776/combined-trace-podmonitor},1651987211,0
{job=theodolite-stu200776/combined-trace-podmonitor},1651987216,0
{job=theodolite-stu200776/combined-trace-podmonitor},1651987221,0
{job=theodolite-stu200776/combined-trace-podmonitor},1651987226,0
{job=theodolite-stu200776/combined-trace-podmonitor},1651987231,0
{job=theodolite-stu200776/combined-trace-podmonitor},1651987236,0
{job=theodolite-stu200776/combined-trace-podmonitor},1651987241,0
{job=theodolite-stu200776/combined-trace-podmonitor},1651987246,0
{job=theodolite-stu200776/combined-trace-podmonitor},1651987251,0
{job=theodolite-stu200776/combined-trace-podmonitor},1651987256,0
{job=theodolite-stu200776/combined-trace-podmonitor},1651987261,0
{job=theodolite-stu200776/combined-trace-podmonitor},1651987266,0
{job=theodolite-stu200776/combined-trace-podmonitor},1651987271,0
{job=theodolite-stu200776/combined-trace-podmonitor},1651987276,0
{job=theodolite-stu200776/combined-trace-podmonitor},1651987281,0
{job=theodolite-stu200776/combined-trace-podmonitor},1651987286,0
{job=theodolite-stu200776/combined-trace-podmonitor},1651987291,0
{job=theodolite-stu200776/combined-trace-podmonitor},1651987296,0
{job=theodolite-stu200776/combined-trace-podmonitor},1651987301,0
{job=theodolite-stu200776/combined-trace-podmonitor},1651987306,0
{job=theodolite-stu200776/combined-trace-podmonitor},1651987311,0
{job=theodolite-stu200776/combined-trace-podmonitor},1651987316,0
{job=theodolite-stu200776/combined-trace-podmonitor},1651987321,0
{job=theodolite-stu200776/combined-trace-podmonitor},1651987326,0
{job=theodolite-stu200776/combined-trace-podmonitor},1651987331,0
{job=theodolite-stu200776/combined-trace-podmonitor},1651987336,0
{job=theodolite-stu200776/combined-trace-podmonitor},1651987341,0
{job=theodolite-stu200776/combined-trace-podmonitor},1651987346,0
{job=theodolite-stu200776/combined-trace-podmonitor},1651987351,0
{job=theodolite-stu200776/combined-trace-podmonitor},1651987356,0
{job=theodolite-stu200776/combined-trace-podmonitor},1651987361,0
{job=theodolite-stu200776/combined-trace-podmonitor},1651987366,0
{job=theodolite-stu200776/combined-trace-podmonitor},1651987371,0
{job=theodolite-stu200776/combined-trace-podmonitor},1651987376,0
{job=theodolite-stu200776/combined-trace-podmonitor},1651987381,0
{job=theodolite-stu200776/combined-trace-podmonitor},1651987386,0
{job=theodolite-stu200776/combined-trace-podmonitor},1651987391,0
{job=theodolite-stu200776/combined-trace-podmonitor},1651987396,0
{job=theodolite-stu200776/combined-trace-podmonitor},1651987401,0
{job=theodolite-stu200776/combined-trace-podmonitor},1651987406,0
{job=theodolite-stu200776/combined-trace-podmonitor},1651987411,0
{job=theodolite-stu200776/combined-trace-podmonitor},1651987416,0
{job=theodolite-stu200776/combined-trace-podmonitor},1651987421,0
{job=theodolite-stu200776/combined-trace-podmonitor},1651987426,0
{job=theodolite-stu200776/combined-trace-podmonitor},1651987431,0
