labels,timestamp,value
{consumergroup=__strimzi-topic-operator-kstreams},1651888772,10
{consumergroup=__strimzi-topic-operator-kstreams},1651888777,10
{consumergroup=__strimzi-topic-operator-kstreams},1651888782,10
{consumergroup=__strimzi-topic-operator-kstreams},1651888787,0
{consumergroup=__strimzi-topic-operator-kstreams},1651888792,0
{consumergroup=__strimzi-topic-operator-kstreams},1651888797,0
{consumergroup=__strimzi-topic-operator-kstreams},1651888802,0
{consumergroup=__strimzi-topic-operator-kstreams},1651888807,0
{consumergroup=__strimzi-topic-operator-kstreams},1651888812,0
{consumergroup=__strimzi-topic-operator-kstreams},1651888817,0
{consumergroup=__strimzi-topic-operator-kstreams},1651888822,0
{consumergroup=__strimzi-topic-operator-kstreams},1651888827,0
{consumergroup=__strimzi-topic-operator-kstreams},1651888832,0
{consumergroup=__strimzi-topic-operator-kstreams},1651888837,0
{consumergroup=__strimzi-topic-operator-kstreams},1651888842,0
{consumergroup=__strimzi-topic-operator-kstreams},1651888847,0
{consumergroup=__strimzi-topic-operator-kstreams},1651888852,0
{consumergroup=__strimzi-topic-operator-kstreams},1651888857,0
{consumergroup=__strimzi-topic-operator-kstreams},1651888862,0
{consumergroup=__strimzi-topic-operator-kstreams},1651888867,0
{consumergroup=__strimzi-topic-operator-kstreams},1651888872,0
{consumergroup=__strimzi-topic-operator-kstreams},1651888877,0
{consumergroup=__strimzi-topic-operator-kstreams},1651888882,0
{consumergroup=__strimzi-topic-operator-kstreams},1651888887,0
{consumergroup=__strimzi-topic-operator-kstreams},1651888892,0
{consumergroup=__strimzi-topic-operator-kstreams},1651888897,0
{consumergroup=__strimzi-topic-operator-kstreams},1651888902,0
{consumergroup=__strimzi-topic-operator-kstreams},1651888907,0
{consumergroup=__strimzi-topic-operator-kstreams},1651888912,0
{consumergroup=__strimzi-topic-operator-kstreams},1651888917,0
{consumergroup=__strimzi-topic-operator-kstreams},1651888922,0
{consumergroup=__strimzi-topic-operator-kstreams},1651888927,0
{consumergroup=__strimzi-topic-operator-kstreams},1651888932,0
{consumergroup=__strimzi-topic-operator-kstreams},1651888937,0
{consumergroup=__strimzi-topic-operator-kstreams},1651888942,0
{consumergroup=__strimzi-topic-operator-kstreams},1651888947,0
{consumergroup=__strimzi-topic-operator-kstreams},1651888952,0
{consumergroup=__strimzi-topic-operator-kstreams},1651888957,0
{consumergroup=__strimzi-topic-operator-kstreams},1651888962,0
{consumergroup=__strimzi-topic-operator-kstreams},1651888967,0
{consumergroup=__strimzi-topic-operator-kstreams},1651888972,0
{consumergroup=__strimzi-topic-operator-kstreams},1651888977,0
{consumergroup=__strimzi-topic-operator-kstreams},1651888982,0
{consumergroup=__strimzi-topic-operator-kstreams},1651888987,0
{consumergroup=__strimzi-topic-operator-kstreams},1651888992,0
{consumergroup=__strimzi-topic-operator-kstreams},1651888997,0
{consumergroup=__strimzi-topic-operator-kstreams},1651889002,0
{consumergroup=__strimzi-topic-operator-kstreams},1651889007,0
{consumergroup=__strimzi-topic-operator-kstreams},1651889012,0
{consumergroup=__strimzi-topic-operator-kstreams},1651889017,0
{consumergroup=__strimzi-topic-operator-kstreams},1651889022,0
{consumergroup=adapter-service},1651888802,105975
{consumergroup=adapter-service},1651888807,105975
{consumergroup=adapter-service},1651888812,105975
{consumergroup=adapter-service},1651888817,435189
{consumergroup=adapter-service},1651888822,435189
{consumergroup=adapter-service},1651888827,435189
{consumergroup=adapter-service},1651888832,550586
{consumergroup=adapter-service},1651888837,550586
{consumergroup=adapter-service},1651888842,550586
{consumergroup=adapter-service},1651888847,660678
{consumergroup=adapter-service},1651888852,660678
{consumergroup=adapter-service},1651888857,660678
{consumergroup=adapter-service},1651888862,779730
{consumergroup=adapter-service},1651888867,779730
{consumergroup=adapter-service},1651888872,779730
{consumergroup=adapter-service},1651888877,829256
{consumergroup=adapter-service},1651888882,829256
{consumergroup=adapter-service},1651888887,829256
{consumergroup=adapter-service},1651888892,850228
{consumergroup=adapter-service},1651888897,850228
{consumergroup=adapter-service},1651888902,850228
{consumergroup=adapter-service},1651888907,850745
{consumergroup=adapter-service},1651888912,850745
{consumergroup=adapter-service},1651888917,850745
{consumergroup=adapter-service},1651888922,865041
{consumergroup=adapter-service},1651888927,865041
{consumergroup=adapter-service},1651888932,865041
{consumergroup=adapter-service},1651888937,861478
{consumergroup=adapter-service},1651888942,861478
{consumergroup=adapter-service},1651888947,861478
{consumergroup=adapter-service},1651888952,871032
{consumergroup=adapter-service},1651888957,871032
{consumergroup=adapter-service},1651888962,871032
{consumergroup=adapter-service},1651888967,867140
{consumergroup=adapter-service},1651888972,867140
{consumergroup=adapter-service},1651888977,867140
{consumergroup=adapter-service},1651888982,848042
{consumergroup=adapter-service},1651888987,848042
{consumergroup=adapter-service},1651888992,848042
{consumergroup=adapter-service},1651888997,839424
{consumergroup=adapter-service},1651889002,839424
{consumergroup=adapter-service},1651889007,839424
{consumergroup=adapter-service},1651889012,826648
{consumergroup=adapter-service},1651889017,826648
{consumergroup=adapter-service},1651889022,826648
