labels,timestamp,value
{job=theodolite-stu200776/combined-trace-podmonitor},1651954548,0
{job=theodolite-stu200776/combined-trace-podmonitor},1651954553,0
{job=theodolite-stu200776/combined-trace-podmonitor},1651954558,0
{job=theodolite-stu200776/combined-trace-podmonitor},1651954563,0
{job=theodolite-stu200776/combined-trace-podmonitor},1651954568,0
{job=theodolite-stu200776/combined-trace-podmonitor},1651954573,0
{job=theodolite-stu200776/combined-trace-podmonitor},1651954578,0
{job=theodolite-stu200776/combined-trace-podmonitor},1651954583,0
{job=theodolite-stu200776/combined-trace-podmonitor},1651954588,0
{job=theodolite-stu200776/combined-trace-podmonitor},1651954593,0
{job=theodolite-stu200776/combined-trace-podmonitor},1651954598,0
{job=theodolite-stu200776/combined-trace-podmonitor},1651954603,0
{job=theodolite-stu200776/combined-trace-podmonitor},1651954608,0
{job=theodolite-stu200776/combined-trace-podmonitor},1651954613,0
{job=theodolite-stu200776/combined-trace-podmonitor},1651954618,0
{job=theodolite-stu200776/combined-trace-podmonitor},1651954623,0
{job=theodolite-stu200776/combined-trace-podmonitor},1651954628,0
{job=theodolite-stu200776/combined-trace-podmonitor},1651954633,0
{job=theodolite-stu200776/combined-trace-podmonitor},1651954638,0
{job=theodolite-stu200776/combined-trace-podmonitor},1651954643,0
{job=theodolite-stu200776/combined-trace-podmonitor},1651954648,0
{job=theodolite-stu200776/combined-trace-podmonitor},1651954653,0
{job=theodolite-stu200776/combined-trace-podmonitor},1651954658,0
{job=theodolite-stu200776/combined-trace-podmonitor},1651954663,0
{job=theodolite-stu200776/combined-trace-podmonitor},1651954668,0
{job=theodolite-stu200776/combined-trace-podmonitor},1651954673,0
{job=theodolite-stu200776/combined-trace-podmonitor},1651954678,0
{job=theodolite-stu200776/combined-trace-podmonitor},1651954683,0
{job=theodolite-stu200776/combined-trace-podmonitor},1651954688,0
{job=theodolite-stu200776/combined-trace-podmonitor},1651954693,0
{job=theodolite-stu200776/combined-trace-podmonitor},1651954698,0
{job=theodolite-stu200776/combined-trace-podmonitor},1651954703,0
{job=theodolite-stu200776/combined-trace-podmonitor},1651954708,0
{job=theodolite-stu200776/combined-trace-podmonitor},1651954713,0
{job=theodolite-stu200776/combined-trace-podmonitor},1651954718,265.3550525683807
{job=theodolite-stu200776/combined-trace-podmonitor},1651954723,1345.9319247446117
{job=theodolite-stu200776/combined-trace-podmonitor},1651954728,1836.0359584309067
{job=theodolite-stu200776/combined-trace-podmonitor},1651954733,1632.455050156184
{job=theodolite-stu200776/combined-trace-podmonitor},1651954738,1619.6357171692875
{job=theodolite-stu200776/combined-trace-podmonitor},1651954743,1555.6677339758658
{job=theodolite-stu200776/combined-trace-podmonitor},1651954748,1681.1984283176173
{job=theodolite-stu200776/combined-trace-podmonitor},1651954753,2151.99624442042
{job=theodolite-stu200776/combined-trace-podmonitor},1651954758,2210.0500424005772
{job=theodolite-stu200776/combined-trace-podmonitor},1651954763,1934.1009503692906
{job=theodolite-stu200776/combined-trace-podmonitor},1651954768,1751.468634087868
{job=theodolite-stu200776/combined-trace-podmonitor},1651954773,1573.134112089065
{job=theodolite-stu200776/combined-trace-podmonitor},1651954778,1185.6329696466694
{job=theodolite-stu200776/combined-trace-podmonitor},1651954783,356.09078686586844
{job=theodolite-stu200776/combined-trace-podmonitor},1651954788,0
{job=theodolite-stu200776/combined-trace-podmonitor},1651954793,0
{job=theodolite-stu200776/combined-trace-podmonitor},1651954798,0
{job=theodolite-stu200776/combined-trace-podmonitor},1651954803,0
{job=theodolite-stu200776/combined-trace-podmonitor},1651954808,0
{job=theodolite-stu200776/combined-trace-podmonitor},1651954813,0
{job=theodolite-stu200776/combined-trace-podmonitor},1651954818,0
{job=theodolite-stu200776/combined-trace-podmonitor},1651954823,0
{job=theodolite-stu200776/combined-trace-podmonitor},1651954828,0
{job=theodolite-stu200776/combined-trace-podmonitor},1651954833,0
{job=theodolite-stu200776/combined-trace-podmonitor},1651954838,0
{job=theodolite-stu200776/combined-trace-podmonitor},1651954843,0
{job=theodolite-stu200776/combined-trace-podmonitor},1651954848,0
{job=theodolite-stu200776/combined-trace-podmonitor},1651954853,0
{job=theodolite-stu200776/combined-trace-podmonitor},1651954858,0
{job=theodolite-stu200776/combined-trace-podmonitor},1651954863,0
{job=theodolite-stu200776/combined-trace-podmonitor},1651954868,0
{job=theodolite-stu200776/combined-trace-podmonitor},1651954873,0
{job=theodolite-stu200776/combined-trace-podmonitor},1651954878,0
{job=theodolite-stu200776/combined-trace-podmonitor},1651954883,0
{job=theodolite-stu200776/combined-trace-podmonitor},1651954888,0
{job=theodolite-stu200776/combined-trace-podmonitor},1651954893,0
{job=theodolite-stu200776/combined-trace-podmonitor},1651954898,0
{job=theodolite-stu200776/combined-trace-podmonitor},1651954903,0
{job=theodolite-stu200776/combined-trace-podmonitor},1651954908,0
{job=theodolite-stu200776/combined-trace-podmonitor},1651954913,0
{job=theodolite-stu200776/combined-trace-podmonitor},1651954918,0
{job=theodolite-stu200776/combined-trace-podmonitor},1651954923,0
