labels,timestamp,value
{job=theodolite-stu200776/combined-trace-podmonitor},1651955654,0
{job=theodolite-stu200776/combined-trace-podmonitor},1651955659,0
{job=theodolite-stu200776/combined-trace-podmonitor},1651955664,0
{job=theodolite-stu200776/combined-trace-podmonitor},1651955669,0
{job=theodolite-stu200776/combined-trace-podmonitor},1651955674,0
{job=theodolite-stu200776/combined-trace-podmonitor},1651955679,0
{job=theodolite-stu200776/combined-trace-podmonitor},1651955684,0
{job=theodolite-stu200776/combined-trace-podmonitor},1651955689,0
{job=theodolite-stu200776/combined-trace-podmonitor},1651955694,0
{job=theodolite-stu200776/combined-trace-podmonitor},1651955699,0
{job=theodolite-stu200776/combined-trace-podmonitor},1651955704,0
{job=theodolite-stu200776/combined-trace-podmonitor},1651955709,0
{job=theodolite-stu200776/combined-trace-podmonitor},1651955714,0
{job=theodolite-stu200776/combined-trace-podmonitor},1651955719,0
{job=theodolite-stu200776/combined-trace-podmonitor},1651955724,0
{job=theodolite-stu200776/combined-trace-podmonitor},1651955729,0
{job=theodolite-stu200776/combined-trace-podmonitor},1651955734,0
{job=theodolite-stu200776/combined-trace-podmonitor},1651955739,0
{job=theodolite-stu200776/combined-trace-podmonitor},1651955744,0
{job=theodolite-stu200776/combined-trace-podmonitor},1651955749,0
{job=theodolite-stu200776/combined-trace-podmonitor},1651955754,0
{job=theodolite-stu200776/combined-trace-podmonitor},1651955759,0
{job=theodolite-stu200776/combined-trace-podmonitor},1651955764,0
{job=theodolite-stu200776/combined-trace-podmonitor},1651955769,0
{job=theodolite-stu200776/combined-trace-podmonitor},1651955774,0
{job=theodolite-stu200776/combined-trace-podmonitor},1651955779,0
{job=theodolite-stu200776/combined-trace-podmonitor},1651955784,0
{job=theodolite-stu200776/combined-trace-podmonitor},1651955789,0
{job=theodolite-stu200776/combined-trace-podmonitor},1651955794,0
{job=theodolite-stu200776/combined-trace-podmonitor},1651955799,0
{job=theodolite-stu200776/combined-trace-podmonitor},1651955804,0
{job=theodolite-stu200776/combined-trace-podmonitor},1651955809,0
{job=theodolite-stu200776/combined-trace-podmonitor},1651955814,0
{job=theodolite-stu200776/combined-trace-podmonitor},1651955819,0
{job=theodolite-stu200776/combined-trace-podmonitor},1651955824,1.0832699567033435
{job=theodolite-stu200776/combined-trace-podmonitor},1651955829,1.8682769072798326
{job=theodolite-stu200776/combined-trace-podmonitor},1651955834,2.8350621045485993
{job=theodolite-stu200776/combined-trace-podmonitor},1651955839,2.700075321401589
{job=theodolite-stu200776/combined-trace-podmonitor},1651955844,2.330692532093985
{job=theodolite-stu200776/combined-trace-podmonitor},1651955849,2.561275997149218
{job=theodolite-stu200776/combined-trace-podmonitor},1651955854,1.9359370258959125
{job=theodolite-stu200776/combined-trace-podmonitor},1651955859,2.4165486494885142
{job=theodolite-stu200776/combined-trace-podmonitor},1651955864,2.6862142465109238
{job=theodolite-stu200776/combined-trace-podmonitor},1651955869,2.3870790752877373
{job=theodolite-stu200776/combined-trace-podmonitor},1651955874,2.1179598406061557
{job=theodolite-stu200776/combined-trace-podmonitor},1651955879,2.040805510499887
{job=theodolite-stu200776/combined-trace-podmonitor},1651955884,1.76428911136606
{job=theodolite-stu200776/combined-trace-podmonitor},1651955889,0.9854199993542878
{job=theodolite-stu200776/combined-trace-podmonitor},1651955894,0.20605664273608512
{job=theodolite-stu200776/combined-trace-podmonitor},1651955899,0.17084276265839735
{job=theodolite-stu200776/combined-trace-podmonitor},1651955904,0.17084276265839735
{job=theodolite-stu200776/combined-trace-podmonitor},1651955909,0
{job=theodolite-stu200776/combined-trace-podmonitor},1651955914,0
{job=theodolite-stu200776/combined-trace-podmonitor},1651955919,0
{job=theodolite-stu200776/combined-trace-podmonitor},1651955924,0
{job=theodolite-stu200776/combined-trace-podmonitor},1651955929,0
{job=theodolite-stu200776/combined-trace-podmonitor},1651955934,0
{job=theodolite-stu200776/combined-trace-podmonitor},1651955939,0
{job=theodolite-stu200776/combined-trace-podmonitor},1651955944,0
{job=theodolite-stu200776/combined-trace-podmonitor},1651955949,0
{job=theodolite-stu200776/combined-trace-podmonitor},1651955954,0
{job=theodolite-stu200776/combined-trace-podmonitor},1651955959,0
{job=theodolite-stu200776/combined-trace-podmonitor},1651955964,0
{job=theodolite-stu200776/combined-trace-podmonitor},1651955969,0
{job=theodolite-stu200776/combined-trace-podmonitor},1651955974,0
{job=theodolite-stu200776/combined-trace-podmonitor},1651955979,0
{job=theodolite-stu200776/combined-trace-podmonitor},1651955984,0
{job=theodolite-stu200776/combined-trace-podmonitor},1651955989,0
{job=theodolite-stu200776/combined-trace-podmonitor},1651955994,0
{job=theodolite-stu200776/combined-trace-podmonitor},1651955999,0
{job=theodolite-stu200776/combined-trace-podmonitor},1651956004,0
{job=theodolite-stu200776/combined-trace-podmonitor},1651956009,0
{job=theodolite-stu200776/combined-trace-podmonitor},1651956014,0
{job=theodolite-stu200776/combined-trace-podmonitor},1651956019,0
{job=theodolite-stu200776/combined-trace-podmonitor},1651956024,0
{job=theodolite-stu200776/combined-trace-podmonitor},1651956029,0
{job=theodolite-stu200776/combined-trace-podmonitor},1651956034,0
