labels,timestamp,value
{job=theodolite-stu200776/combined-trace-podmonitor},1652001553,0
{job=theodolite-stu200776/combined-trace-podmonitor},1652001558,0
{job=theodolite-stu200776/combined-trace-podmonitor},1652001563,0
{job=theodolite-stu200776/combined-trace-podmonitor},1652001568,0
{job=theodolite-stu200776/combined-trace-podmonitor},1652001573,0
{job=theodolite-stu200776/combined-trace-podmonitor},1652001578,0
{job=theodolite-stu200776/combined-trace-podmonitor},1652001583,0
{job=theodolite-stu200776/combined-trace-podmonitor},1652001588,0
{job=theodolite-stu200776/combined-trace-podmonitor},1652001593,0
{job=theodolite-stu200776/combined-trace-podmonitor},1652001598,0
{job=theodolite-stu200776/combined-trace-podmonitor},1652001603,0
{job=theodolite-stu200776/combined-trace-podmonitor},1652001608,0
{job=theodolite-stu200776/combined-trace-podmonitor},1652001613,0
{job=theodolite-stu200776/combined-trace-podmonitor},1652001618,0
{job=theodolite-stu200776/combined-trace-podmonitor},1652001623,0
{job=theodolite-stu200776/combined-trace-podmonitor},1652001628,0
{job=theodolite-stu200776/combined-trace-podmonitor},1652001633,0
{job=theodolite-stu200776/combined-trace-podmonitor},1652001638,0
{job=theodolite-stu200776/combined-trace-podmonitor},1652001643,0
{job=theodolite-stu200776/combined-trace-podmonitor},1652001648,0
{job=theodolite-stu200776/combined-trace-podmonitor},1652001653,0
{job=theodolite-stu200776/combined-trace-podmonitor},1652001658,0
{job=theodolite-stu200776/combined-trace-podmonitor},1652001663,0
{job=theodolite-stu200776/combined-trace-podmonitor},1652001668,0
{job=theodolite-stu200776/combined-trace-podmonitor},1652001673,0
{job=theodolite-stu200776/combined-trace-podmonitor},1652001678,0
{job=theodolite-stu200776/combined-trace-podmonitor},1652001683,0
{job=theodolite-stu200776/combined-trace-podmonitor},1652001688,0
{job=theodolite-stu200776/combined-trace-podmonitor},1652001693,0
{job=theodolite-stu200776/combined-trace-podmonitor},1652001698,0
{job=theodolite-stu200776/combined-trace-podmonitor},1652001703,0
{job=theodolite-stu200776/combined-trace-podmonitor},1652001708,0
{job=theodolite-stu200776/combined-trace-podmonitor},1652001713,0
{job=theodolite-stu200776/combined-trace-podmonitor},1652001718,0
{job=theodolite-stu200776/combined-trace-podmonitor},1652001723,0
{job=theodolite-stu200776/combined-trace-podmonitor},1652001728,0
{job=theodolite-stu200776/combined-trace-podmonitor},1652001733,0
{job=theodolite-stu200776/combined-trace-podmonitor},1652001738,0
{job=theodolite-stu200776/combined-trace-podmonitor},1652001743,0
{job=theodolite-stu200776/combined-trace-podmonitor},1652001748,0
{job=theodolite-stu200776/combined-trace-podmonitor},1652001753,0
{job=theodolite-stu200776/combined-trace-podmonitor},1652001758,0
{job=theodolite-stu200776/combined-trace-podmonitor},1652001763,0
{job=theodolite-stu200776/combined-trace-podmonitor},1652001768,0
{job=theodolite-stu200776/combined-trace-podmonitor},1652001773,0
{job=theodolite-stu200776/combined-trace-podmonitor},1652001778,0
{job=theodolite-stu200776/combined-trace-podmonitor},1652001783,0
{job=theodolite-stu200776/combined-trace-podmonitor},1652001788,0
{job=theodolite-stu200776/combined-trace-podmonitor},1652001793,0
{job=theodolite-stu200776/combined-trace-podmonitor},1652001798,0
{job=theodolite-stu200776/combined-trace-podmonitor},1652001803,0
{job=theodolite-stu200776/combined-trace-podmonitor},1652001808,0
