labels,timestamp,value
{consumergroup=__strimzi-topic-operator-kstreams},1652009646,11
{consumergroup=__strimzi-topic-operator-kstreams},1652009651,11
{consumergroup=__strimzi-topic-operator-kstreams},1652009656,11
{consumergroup=__strimzi-topic-operator-kstreams},1652009661,0
{consumergroup=__strimzi-topic-operator-kstreams},1652009666,0
{consumergroup=__strimzi-topic-operator-kstreams},1652009671,0
{consumergroup=__strimzi-topic-operator-kstreams},1652009676,0
{consumergroup=__strimzi-topic-operator-kstreams},1652009681,0
{consumergroup=__strimzi-topic-operator-kstreams},1652009686,0
{consumergroup=__strimzi-topic-operator-kstreams},1652009691,0
{consumergroup=__strimzi-topic-operator-kstreams},1652009696,0
{consumergroup=__strimzi-topic-operator-kstreams},1652009701,0
{consumergroup=__strimzi-topic-operator-kstreams},1652009706,0
{consumergroup=__strimzi-topic-operator-kstreams},1652009711,0
{consumergroup=__strimzi-topic-operator-kstreams},1652009716,0
{consumergroup=__strimzi-topic-operator-kstreams},1652009721,0
{consumergroup=__strimzi-topic-operator-kstreams},1652009726,0
{consumergroup=__strimzi-topic-operator-kstreams},1652009731,0
{consumergroup=__strimzi-topic-operator-kstreams},1652009736,0
{consumergroup=__strimzi-topic-operator-kstreams},1652009741,0
{consumergroup=__strimzi-topic-operator-kstreams},1652009746,0
{consumergroup=__strimzi-topic-operator-kstreams},1652009751,0
{consumergroup=__strimzi-topic-operator-kstreams},1652009756,0
{consumergroup=__strimzi-topic-operator-kstreams},1652009761,0
{consumergroup=__strimzi-topic-operator-kstreams},1652009766,0
{consumergroup=__strimzi-topic-operator-kstreams},1652009771,0
{consumergroup=__strimzi-topic-operator-kstreams},1652009776,0
{consumergroup=__strimzi-topic-operator-kstreams},1652009781,0
{consumergroup=__strimzi-topic-operator-kstreams},1652009786,0
{consumergroup=__strimzi-topic-operator-kstreams},1652009791,0
{consumergroup=__strimzi-topic-operator-kstreams},1652009796,0
{consumergroup=__strimzi-topic-operator-kstreams},1652009801,0
{consumergroup=__strimzi-topic-operator-kstreams},1652009806,0
{consumergroup=__strimzi-topic-operator-kstreams},1652009811,0
{consumergroup=__strimzi-topic-operator-kstreams},1652009816,0
{consumergroup=__strimzi-topic-operator-kstreams},1652009821,0
{consumergroup=__strimzi-topic-operator-kstreams},1652009826,0
{consumergroup=__strimzi-topic-operator-kstreams},1652009831,0
{consumergroup=__strimzi-topic-operator-kstreams},1652009836,0
{consumergroup=__strimzi-topic-operator-kstreams},1652009841,0
{consumergroup=__strimzi-topic-operator-kstreams},1652009846,0
{consumergroup=__strimzi-topic-operator-kstreams},1652009851,0
{consumergroup=__strimzi-topic-operator-kstreams},1652009856,0
{consumergroup=__strimzi-topic-operator-kstreams},1652009861,0
{consumergroup=__strimzi-topic-operator-kstreams},1652009866,0
{consumergroup=__strimzi-topic-operator-kstreams},1652009871,0
{consumergroup=__strimzi-topic-operator-kstreams},1652009876,0
{consumergroup=__strimzi-topic-operator-kstreams},1652009881,0
{consumergroup=__strimzi-topic-operator-kstreams},1652009886,0
{consumergroup=__strimzi-topic-operator-kstreams},1652009891,0
{consumergroup=__strimzi-topic-operator-kstreams},1652009896,0
{consumergroup=__strimzi-topic-operator-kstreams},1652009901,0
{consumergroup=__strimzi-topic-operator-kstreams},1652009906,0
{consumergroup=__strimzi-topic-operator-kstreams},1652009911,0
{consumergroup=__strimzi-topic-operator-kstreams},1652009916,0
{consumergroup=__strimzi-topic-operator-kstreams},1652009921,0
{consumergroup=__strimzi-topic-operator-kstreams},1652009926,0
{consumergroup=__strimzi-topic-operator-kstreams},1652009931,0
{consumergroup=__strimzi-topic-operator-kstreams},1652009936,0
{consumergroup=__strimzi-topic-operator-kstreams},1652009941,0
{consumergroup=__strimzi-topic-operator-kstreams},1652009946,0
{consumergroup=__strimzi-topic-operator-kstreams},1652009951,0
{consumergroup=__strimzi-topic-operator-kstreams},1652009956,0
{consumergroup=__strimzi-topic-operator-kstreams},1652009961,0
{consumergroup=__strimzi-topic-operator-kstreams},1652009966,0
{consumergroup=__strimzi-topic-operator-kstreams},1652009971,0
{consumergroup=__strimzi-topic-operator-kstreams},1652009976,0
{consumergroup=__strimzi-topic-operator-kstreams},1652009981,0
{consumergroup=__strimzi-topic-operator-kstreams},1652009986,0
{consumergroup=__strimzi-topic-operator-kstreams},1652009991,0
{consumergroup=__strimzi-topic-operator-kstreams},1652009996,0
{consumergroup=__strimzi-topic-operator-kstreams},1652010001,0
{consumergroup=__strimzi-topic-operator-kstreams},1652010006,0
{consumergroup=__strimzi-topic-operator-kstreams},1652010011,0
{consumergroup=__strimzi-topic-operator-kstreams},1652010016,0
{consumergroup=__strimzi-topic-operator-kstreams},1652010021,0
{consumergroup=__strimzi-topic-operator-kstreams},1652010026,0
{consumergroup=__strimzi-topic-operator-kstreams},1652010031,0
{consumergroup=__strimzi-topic-operator-kstreams},1652010036,0
{consumergroup=__strimzi-topic-operator-kstreams},1652010041,0
{consumergroup=__strimzi-topic-operator-kstreams},1652010046,0
{consumergroup=__strimzi-topic-operator-kstreams},1652010051,0
{consumergroup=__strimzi-topic-operator-kstreams},1652010056,0
{consumergroup=__strimzi-topic-operator-kstreams},1652010061,0
{consumergroup=__strimzi-topic-operator-kstreams},1652010066,0
{consumergroup=__strimzi-topic-operator-kstreams},1652010071,0
{consumergroup=__strimzi-topic-operator-kstreams},1652010076,0
{consumergroup=__strimzi-topic-operator-kstreams},1652010081,0
{consumergroup=__strimzi-topic-operator-kstreams},1652010086,0
{consumergroup=__strimzi-topic-operator-kstreams},1652010091,0
{consumergroup=adapter-service},1652009676,0
{consumergroup=adapter-service},1652009681,0
{consumergroup=adapter-service},1652009686,0
{consumergroup=adapter-service},1652009691,5306
{consumergroup=adapter-service},1652009696,5306
{consumergroup=adapter-service},1652009701,5306
{consumergroup=adapter-service},1652009706,16439
{consumergroup=adapter-service},1652009711,16439
{consumergroup=adapter-service},1652009716,16439
{consumergroup=adapter-service},1652009721,130
{consumergroup=adapter-service},1652009726,130
{consumergroup=adapter-service},1652009731,130
{consumergroup=adapter-service},1652009736,41
{consumergroup=adapter-service},1652009741,41
{consumergroup=adapter-service},1652009746,41
{consumergroup=adapter-service},1652009751,86
{consumergroup=adapter-service},1652009756,86
{consumergroup=adapter-service},1652009761,86
{consumergroup=adapter-service},1652009766,2976
{consumergroup=adapter-service},1652009771,2976
{consumergroup=adapter-service},1652009776,2976
{consumergroup=adapter-service},1652009781,0
{consumergroup=adapter-service},1652009786,0
{consumergroup=adapter-service},1652009791,0
{consumergroup=adapter-service},1652009796,6206
{consumergroup=adapter-service},1652009801,6206
{consumergroup=adapter-service},1652009806,6206
{consumergroup=adapter-service},1652009811,15082
{consumergroup=adapter-service},1652009816,15082
{consumergroup=adapter-service},1652009821,15082
{consumergroup=adapter-service},1652009826,17965
{consumergroup=adapter-service},1652009831,17965
{consumergroup=adapter-service},1652009836,17965
{consumergroup=adapter-service},1652009841,17693
{consumergroup=adapter-service},1652009846,17693
{consumergroup=adapter-service},1652009851,17693
{consumergroup=adapter-service},1652009856,17258
{consumergroup=adapter-service},1652009861,17258
{consumergroup=adapter-service},1652009866,17258
{consumergroup=adapter-service},1652009871,18154
{consumergroup=adapter-service},1652009876,18154
{consumergroup=adapter-service},1652009881,18154
{consumergroup=adapter-service},1652009886,17467
{consumergroup=adapter-service},1652009891,17467
{consumergroup=adapter-service},1652009896,17467
{consumergroup=adapter-service},1652009901,16660
{consumergroup=adapter-service},1652009906,16660
{consumergroup=adapter-service},1652009911,16660
{consumergroup=adapter-service},1652009916,16105
{consumergroup=adapter-service},1652009921,16105
{consumergroup=adapter-service},1652009926,16105
{consumergroup=adapter-service},1652009931,15883
{consumergroup=adapter-service},1652009936,15883
{consumergroup=adapter-service},1652009941,15883
{consumergroup=adapter-service},1652009946,15562
{consumergroup=adapter-service},1652009951,15562
{consumergroup=adapter-service},1652009956,15562
{consumergroup=adapter-service},1652009961,15382
{consumergroup=adapter-service},1652009966,15382
{consumergroup=adapter-service},1652009971,15382
{consumergroup=adapter-service},1652009976,15283
{consumergroup=adapter-service},1652009981,15283
{consumergroup=adapter-service},1652009986,15283
{consumergroup=adapter-service},1652009991,15682
{consumergroup=adapter-service},1652009996,15682
{consumergroup=adapter-service},1652010001,15682
{consumergroup=adapter-service},1652010006,14380
{consumergroup=adapter-service},1652010011,14380
{consumergroup=adapter-service},1652010016,14380
{consumergroup=adapter-service},1652010021,14162
{consumergroup=adapter-service},1652010026,14162
{consumergroup=adapter-service},1652010031,14162
{consumergroup=adapter-service},1652010036,13688
{consumergroup=adapter-service},1652010041,13688
{consumergroup=adapter-service},1652010046,13688
{consumergroup=adapter-service},1652010051,14005
{consumergroup=adapter-service},1652010056,14005
{consumergroup=adapter-service},1652010061,14005
{consumergroup=adapter-service},1652010066,13249
{consumergroup=adapter-service},1652010071,13249
{consumergroup=adapter-service},1652010076,13249
{consumergroup=adapter-service},1652010081,13459
{consumergroup=adapter-service},1652010086,13459
{consumergroup=adapter-service},1652010091,13459
{consumergroup=landscape-service},1652009691,7748
{consumergroup=landscape-service},1652009696,7748
{consumergroup=landscape-service},1652009701,7748
{consumergroup=landscape-service},1652009706,272
{consumergroup=landscape-service},1652009711,272
{consumergroup=landscape-service},1652009716,272
{consumergroup=landscape-service},1652009721,3682
{consumergroup=landscape-service},1652009726,3682
{consumergroup=landscape-service},1652009731,3682
{consumergroup=landscape-service},1652009736,4617
{consumergroup=landscape-service},1652009741,4617
{consumergroup=landscape-service},1652009746,4617
{consumergroup=landscape-service},1652009751,3882
{consumergroup=landscape-service},1652009756,3882
{consumergroup=landscape-service},1652009761,3882
{consumergroup=landscape-service},1652009766,7455
{consumergroup=landscape-service},1652009771,7455
{consumergroup=landscape-service},1652009776,7455
{consumergroup=landscape-service},1652009781,4305
{consumergroup=landscape-service},1652009786,4305
{consumergroup=landscape-service},1652009791,4305
{consumergroup=landscape-service},1652009796,3160
{consumergroup=landscape-service},1652009801,3160
{consumergroup=landscape-service},1652009806,3160
{consumergroup=landscape-service},1652009811,4078
{consumergroup=landscape-service},1652009816,4078
{consumergroup=landscape-service},1652009821,4078
{consumergroup=landscape-service},1652009826,2966
{consumergroup=landscape-service},1652009831,2966
{consumergroup=landscape-service},1652009836,2966
{consumergroup=landscape-service},1652009841,3908
{consumergroup=landscape-service},1652009846,3908
{consumergroup=landscape-service},1652009851,3908
{consumergroup=landscape-service},1652009856,3598
{consumergroup=landscape-service},1652009861,3598
{consumergroup=landscape-service},1652009866,3598
{consumergroup=landscape-service},1652009871,2792
{consumergroup=landscape-service},1652009876,2792
{consumergroup=landscape-service},1652009881,2792
{consumergroup=landscape-service},1652009886,2633
{consumergroup=landscape-service},1652009891,2633
{consumergroup=landscape-service},1652009896,2633
{consumergroup=landscape-service},1652009901,2759
{consumergroup=landscape-service},1652009906,2759
{consumergroup=landscape-service},1652009911,2759
{consumergroup=landscape-service},1652009916,3294
{consumergroup=landscape-service},1652009921,3294
{consumergroup=landscape-service},1652009926,3294
{consumergroup=landscape-service},1652009931,2400
{consumergroup=landscape-service},1652009936,2400
{consumergroup=landscape-service},1652009941,2400
{consumergroup=landscape-service},1652009946,2226
{consumergroup=landscape-service},1652009951,2226
{consumergroup=landscape-service},1652009956,2226
{consumergroup=landscape-service},1652009961,2318
{consumergroup=landscape-service},1652009966,2318
{consumergroup=landscape-service},1652009971,2318
{consumergroup=landscape-service},1652009976,2196
{consumergroup=landscape-service},1652009981,2196
{consumergroup=landscape-service},1652009986,2196
{consumergroup=landscape-service},1652009991,2286
{consumergroup=landscape-service},1652009996,2286
{consumergroup=landscape-service},1652010001,2286
{consumergroup=landscape-service},1652010006,2204
{consumergroup=landscape-service},1652010011,2204
{consumergroup=landscape-service},1652010016,2204
{consumergroup=landscape-service},1652010021,2849
{consumergroup=landscape-service},1652010026,2849
{consumergroup=landscape-service},1652010031,2849
{consumergroup=landscape-service},1652010036,1709
{consumergroup=landscape-service},1652010041,1709
{consumergroup=landscape-service},1652010046,1709
{consumergroup=landscape-service},1652010051,2925
{consumergroup=landscape-service},1652010056,2925
{consumergroup=landscape-service},1652010061,2925
{consumergroup=landscape-service},1652010066,1603
{consumergroup=landscape-service},1652010071,1603
{consumergroup=landscape-service},1652010076,1603
{consumergroup=landscape-service},1652010081,2528
{consumergroup=landscape-service},1652010086,2528
{consumergroup=landscape-service},1652010091,2528
{consumergroup=landscape-token-events-consumer},1652009676,0
{consumergroup=landscape-token-events-consumer},1652009681,0
{consumergroup=landscape-token-events-consumer},1652009686,0
{consumergroup=landscape-token-events-consumer},1652009691,0
{consumergroup=landscape-token-events-consumer},1652009696,0
{consumergroup=landscape-token-events-consumer},1652009701,0
{consumergroup=landscape-token-events-consumer},1652009706,0
{consumergroup=landscape-token-events-consumer},1652009711,0
{consumergroup=landscape-token-events-consumer},1652009716,0
{consumergroup=landscape-token-events-consumer},1652009721,0
{consumergroup=landscape-token-events-consumer},1652009726,0
{consumergroup=landscape-token-events-consumer},1652009731,0
{consumergroup=landscape-token-events-consumer},1652009736,0
{consumergroup=landscape-token-events-consumer},1652009741,0
{consumergroup=landscape-token-events-consumer},1652009746,0
{consumergroup=landscape-token-events-consumer},1652009751,0
{consumergroup=landscape-token-events-consumer},1652009756,0
{consumergroup=landscape-token-events-consumer},1652009761,0
{consumergroup=landscape-token-events-consumer},1652009766,0
{consumergroup=landscape-token-events-consumer},1652009771,0
{consumergroup=landscape-token-events-consumer},1652009776,0
{consumergroup=landscape-token-events-consumer},1652009781,0
{consumergroup=landscape-token-events-consumer},1652009786,0
{consumergroup=landscape-token-events-consumer},1652009791,0
{consumergroup=landscape-token-events-consumer},1652009796,0
{consumergroup=landscape-token-events-consumer},1652009801,0
{consumergroup=landscape-token-events-consumer},1652009806,0
{consumergroup=landscape-token-events-consumer},1652009811,0
{consumergroup=landscape-token-events-consumer},1652009816,0
{consumergroup=landscape-token-events-consumer},1652009821,0
{consumergroup=landscape-token-events-consumer},1652009826,0
{consumergroup=landscape-token-events-consumer},1652009831,0
{consumergroup=landscape-token-events-consumer},1652009836,0
{consumergroup=landscape-token-events-consumer},1652009841,0
{consumergroup=landscape-token-events-consumer},1652009846,0
{consumergroup=landscape-token-events-consumer},1652009851,0
{consumergroup=landscape-token-events-consumer},1652009856,0
{consumergroup=landscape-token-events-consumer},1652009861,0
{consumergroup=landscape-token-events-consumer},1652009866,0
{consumergroup=landscape-token-events-consumer},1652009871,0
{consumergroup=landscape-token-events-consumer},1652009876,0
{consumergroup=landscape-token-events-consumer},1652009881,0
{consumergroup=landscape-token-events-consumer},1652009886,0
{consumergroup=landscape-token-events-consumer},1652009891,0
{consumergroup=landscape-token-events-consumer},1652009896,0
{consumergroup=landscape-token-events-consumer},1652009901,0
{consumergroup=landscape-token-events-consumer},1652009906,0
{consumergroup=landscape-token-events-consumer},1652009911,0
{consumergroup=landscape-token-events-consumer},1652009916,0
{consumergroup=landscape-token-events-consumer},1652009921,0
{consumergroup=landscape-token-events-consumer},1652009926,0
{consumergroup=landscape-token-events-consumer},1652009931,0
{consumergroup=landscape-token-events-consumer},1652009936,0
{consumergroup=landscape-token-events-consumer},1652009941,0
{consumergroup=landscape-token-events-consumer},1652009946,0
{consumergroup=landscape-token-events-consumer},1652009951,0
{consumergroup=landscape-token-events-consumer},1652009956,0
{consumergroup=landscape-token-events-consumer},1652009961,0
{consumergroup=landscape-token-events-consumer},1652009966,0
{consumergroup=landscape-token-events-consumer},1652009971,0
{consumergroup=landscape-token-events-consumer},1652009976,0
{consumergroup=landscape-token-events-consumer},1652009981,0
{consumergroup=landscape-token-events-consumer},1652009986,0
{consumergroup=landscape-token-events-consumer},1652009991,0
{consumergroup=landscape-token-events-consumer},1652009996,0
{consumergroup=landscape-token-events-consumer},1652010001,0
{consumergroup=landscape-token-events-consumer},1652010006,0
{consumergroup=landscape-token-events-consumer},1652010011,0
{consumergroup=landscape-token-events-consumer},1652010016,0
{consumergroup=landscape-token-events-consumer},1652010021,0
{consumergroup=landscape-token-events-consumer},1652010026,0
{consumergroup=landscape-token-events-consumer},1652010031,0
{consumergroup=landscape-token-events-consumer},1652010036,0
{consumergroup=landscape-token-events-consumer},1652010041,0
{consumergroup=landscape-token-events-consumer},1652010046,0
{consumergroup=landscape-token-events-consumer},1652010051,0
{consumergroup=landscape-token-events-consumer},1652010056,0
{consumergroup=landscape-token-events-consumer},1652010061,0
{consumergroup=landscape-token-events-consumer},1652010066,0
{consumergroup=landscape-token-events-consumer},1652010071,0
{consumergroup=landscape-token-events-consumer},1652010076,0
{consumergroup=landscape-token-events-consumer},1652010081,0
{consumergroup=landscape-token-events-consumer},1652010086,0
{consumergroup=landscape-token-events-consumer},1652010091,0
{consumergroup=trace-service},1652009691,36045
{consumergroup=trace-service},1652009696,36045
{consumergroup=trace-service},1652009701,36045
{consumergroup=trace-service},1652009706,42606
{consumergroup=trace-service},1652009711,42606
{consumergroup=trace-service},1652009716,42606
{consumergroup=trace-service},1652009721,43379
{consumergroup=trace-service},1652009726,43379
{consumergroup=trace-service},1652009731,43379
{consumergroup=trace-service},1652009736,33907
{consumergroup=trace-service},1652009741,33907
{consumergroup=trace-service},1652009746,33907
{consumergroup=trace-service},1652009751,75864
{consumergroup=trace-service},1652009756,75864
{consumergroup=trace-service},1652009761,75864
{consumergroup=trace-service},1652009766,41904
{consumergroup=trace-service},1652009771,41904
{consumergroup=trace-service},1652009776,41904
{consumergroup=trace-service},1652009781,118287
{consumergroup=trace-service},1652009786,118287
{consumergroup=trace-service},1652009791,118287
{consumergroup=trace-service},1652009796,31110
{consumergroup=trace-service},1652009801,31110
{consumergroup=trace-service},1652009806,31110
{consumergroup=trace-service},1652009811,64234
{consumergroup=trace-service},1652009816,64234
{consumergroup=trace-service},1652009821,64234
{consumergroup=trace-service},1652009826,37848
{consumergroup=trace-service},1652009831,37848
{consumergroup=trace-service},1652009836,37848
{consumergroup=trace-service},1652009841,108385
{consumergroup=trace-service},1652009846,108385
{consumergroup=trace-service},1652009851,108385
{consumergroup=trace-service},1652009856,33854
{consumergroup=trace-service},1652009861,33854
{consumergroup=trace-service},1652009866,33854
{consumergroup=trace-service},1652009871,90477
{consumergroup=trace-service},1652009876,90477
{consumergroup=trace-service},1652009881,90477
{consumergroup=trace-service},1652009886,32241
{consumergroup=trace-service},1652009891,32241
{consumergroup=trace-service},1652009896,32241
{consumergroup=trace-service},1652009901,74940
{consumergroup=trace-service},1652009906,74940
{consumergroup=trace-service},1652009911,74940
{consumergroup=trace-service},1652009916,208702
{consumergroup=trace-service},1652009921,208702
{consumergroup=trace-service},1652009926,208702
{consumergroup=trace-service},1652009931,97418
{consumergroup=trace-service},1652009936,97418
{consumergroup=trace-service},1652009941,97418
{consumergroup=trace-service},1652009946,34827
{consumergroup=trace-service},1652009951,34827
{consumergroup=trace-service},1652009956,34827
{consumergroup=trace-service},1652009961,105391
{consumergroup=trace-service},1652009966,105391
{consumergroup=trace-service},1652009971,105391
{consumergroup=trace-service},1652009976,32551
{consumergroup=trace-service},1652009981,32551
{consumergroup=trace-service},1652009986,32551
{consumergroup=trace-service},1652009991,102251
{consumergroup=trace-service},1652009996,102251
{consumergroup=trace-service},1652010001,102251
{consumergroup=trace-service},1652010006,32388
{consumergroup=trace-service},1652010011,32388
{consumergroup=trace-service},1652010016,32388
{consumergroup=trace-service},1652010021,54266
{consumergroup=trace-service},1652010026,54266
{consumergroup=trace-service},1652010031,54266
{consumergroup=trace-service},1652010036,31227
{consumergroup=trace-service},1652010041,31227
{consumergroup=trace-service},1652010046,31227
{consumergroup=trace-service},1652010051,74755
{consumergroup=trace-service},1652010056,74755
{consumergroup=trace-service},1652010061,74755
{consumergroup=trace-service},1652010066,38669
{consumergroup=trace-service},1652010071,38669
{consumergroup=trace-service},1652010076,38669
{consumergroup=trace-service},1652010081,104169
{consumergroup=trace-service},1652010086,104169
{consumergroup=trace-service},1652010091,104169
{consumergroup=trace-token-events-consumer},1652009676,0
{consumergroup=trace-token-events-consumer},1652009681,0
{consumergroup=trace-token-events-consumer},1652009686,0
{consumergroup=trace-token-events-consumer},1652009691,0
{consumergroup=trace-token-events-consumer},1652009696,0
{consumergroup=trace-token-events-consumer},1652009701,0
{consumergroup=trace-token-events-consumer},1652009706,0
{consumergroup=trace-token-events-consumer},1652009711,0
{consumergroup=trace-token-events-consumer},1652009716,0
{consumergroup=trace-token-events-consumer},1652009721,0
{consumergroup=trace-token-events-consumer},1652009726,0
{consumergroup=trace-token-events-consumer},1652009731,0
{consumergroup=trace-token-events-consumer},1652009736,0
{consumergroup=trace-token-events-consumer},1652009741,0
{consumergroup=trace-token-events-consumer},1652009746,0
{consumergroup=trace-token-events-consumer},1652009751,0
{consumergroup=trace-token-events-consumer},1652009756,0
{consumergroup=trace-token-events-consumer},1652009761,0
{consumergroup=trace-token-events-consumer},1652009766,0
{consumergroup=trace-token-events-consumer},1652009771,0
{consumergroup=trace-token-events-consumer},1652009776,0
{consumergroup=trace-token-events-consumer},1652009781,0
{consumergroup=trace-token-events-consumer},1652009786,0
{consumergroup=trace-token-events-consumer},1652009791,0
{consumergroup=trace-token-events-consumer},1652009796,0
{consumergroup=trace-token-events-consumer},1652009801,0
{consumergroup=trace-token-events-consumer},1652009806,0
{consumergroup=trace-token-events-consumer},1652009811,0
{consumergroup=trace-token-events-consumer},1652009816,0
{consumergroup=trace-token-events-consumer},1652009821,0
{consumergroup=trace-token-events-consumer},1652009826,0
{consumergroup=trace-token-events-consumer},1652009831,0
{consumergroup=trace-token-events-consumer},1652009836,0
{consumergroup=trace-token-events-consumer},1652009841,0
{consumergroup=trace-token-events-consumer},1652009846,0
{consumergroup=trace-token-events-consumer},1652009851,0
{consumergroup=trace-token-events-consumer},1652009856,0
{consumergroup=trace-token-events-consumer},1652009861,0
{consumergroup=trace-token-events-consumer},1652009866,0
{consumergroup=trace-token-events-consumer},1652009871,0
{consumergroup=trace-token-events-consumer},1652009876,0
{consumergroup=trace-token-events-consumer},1652009881,0
{consumergroup=trace-token-events-consumer},1652009886,0
{consumergroup=trace-token-events-consumer},1652009891,0
{consumergroup=trace-token-events-consumer},1652009896,0
{consumergroup=trace-token-events-consumer},1652009901,0
{consumergroup=trace-token-events-consumer},1652009906,0
{consumergroup=trace-token-events-consumer},1652009911,0
{consumergroup=trace-token-events-consumer},1652009916,0
{consumergroup=trace-token-events-consumer},1652009921,0
{consumergroup=trace-token-events-consumer},1652009926,0
{consumergroup=trace-token-events-consumer},1652009931,0
{consumergroup=trace-token-events-consumer},1652009936,0
{consumergroup=trace-token-events-consumer},1652009941,0
{consumergroup=trace-token-events-consumer},1652009946,0
{consumergroup=trace-token-events-consumer},1652009951,0
{consumergroup=trace-token-events-consumer},1652009956,0
{consumergroup=trace-token-events-consumer},1652009961,0
{consumergroup=trace-token-events-consumer},1652009966,0
{consumergroup=trace-token-events-consumer},1652009971,0
{consumergroup=trace-token-events-consumer},1652009976,0
{consumergroup=trace-token-events-consumer},1652009981,0
{consumergroup=trace-token-events-consumer},1652009986,0
{consumergroup=trace-token-events-consumer},1652009991,0
{consumergroup=trace-token-events-consumer},1652009996,0
{consumergroup=trace-token-events-consumer},1652010001,0
{consumergroup=trace-token-events-consumer},1652010006,0
{consumergroup=trace-token-events-consumer},1652010011,0
{consumergroup=trace-token-events-consumer},1652010016,0
{consumergroup=trace-token-events-consumer},1652010021,0
{consumergroup=trace-token-events-consumer},1652010026,0
{consumergroup=trace-token-events-consumer},1652010031,0
{consumergroup=trace-token-events-consumer},1652010036,0
{consumergroup=trace-token-events-consumer},1652010041,0
{consumergroup=trace-token-events-consumer},1652010046,0
{consumergroup=trace-token-events-consumer},1652010051,0
{consumergroup=trace-token-events-consumer},1652010056,0
{consumergroup=trace-token-events-consumer},1652010061,0
{consumergroup=trace-token-events-consumer},1652010066,0
{consumergroup=trace-token-events-consumer},1652010071,0
{consumergroup=trace-token-events-consumer},1652010076,0
{consumergroup=trace-token-events-consumer},1652010081,0
{consumergroup=trace-token-events-consumer},1652010086,0
{consumergroup=trace-token-events-consumer},1652010091,0
