labels,timestamp,value
{consumergroup=__strimzi-topic-operator-kstreams},1651954468,0
{consumergroup=__strimzi-topic-operator-kstreams},1651954473,6
{consumergroup=__strimzi-topic-operator-kstreams},1651954478,6
{consumergroup=__strimzi-topic-operator-kstreams},1651954483,6
{consumergroup=__strimzi-topic-operator-kstreams},1651954488,11
{consumergroup=__strimzi-topic-operator-kstreams},1651954493,11
{consumergroup=__strimzi-topic-operator-kstreams},1651954498,11
{consumergroup=__strimzi-topic-operator-kstreams},1651954503,0
{consumergroup=__strimzi-topic-operator-kstreams},1651954508,0
{consumergroup=__strimzi-topic-operator-kstreams},1651954513,0
{consumergroup=__strimzi-topic-operator-kstreams},1651954518,0
{consumergroup=__strimzi-topic-operator-kstreams},1651954523,0
{consumergroup=__strimzi-topic-operator-kstreams},1651954528,0
{consumergroup=__strimzi-topic-operator-kstreams},1651954533,0
{consumergroup=__strimzi-topic-operator-kstreams},1651954538,0
{consumergroup=__strimzi-topic-operator-kstreams},1651954543,0
{consumergroup=__strimzi-topic-operator-kstreams},1651954548,0
{consumergroup=__strimzi-topic-operator-kstreams},1651954553,0
{consumergroup=__strimzi-topic-operator-kstreams},1651954558,0
{consumergroup=__strimzi-topic-operator-kstreams},1651954563,0
{consumergroup=__strimzi-topic-operator-kstreams},1651954568,0
{consumergroup=__strimzi-topic-operator-kstreams},1651954573,0
{consumergroup=__strimzi-topic-operator-kstreams},1651954578,0
{consumergroup=__strimzi-topic-operator-kstreams},1651954583,0
{consumergroup=__strimzi-topic-operator-kstreams},1651954588,0
{consumergroup=__strimzi-topic-operator-kstreams},1651954593,0
{consumergroup=__strimzi-topic-operator-kstreams},1651954598,0
{consumergroup=__strimzi-topic-operator-kstreams},1651954603,0
{consumergroup=__strimzi-topic-operator-kstreams},1651954608,0
{consumergroup=__strimzi-topic-operator-kstreams},1651954613,0
{consumergroup=__strimzi-topic-operator-kstreams},1651954618,0
{consumergroup=__strimzi-topic-operator-kstreams},1651954623,0
{consumergroup=__strimzi-topic-operator-kstreams},1651954628,0
{consumergroup=__strimzi-topic-operator-kstreams},1651954633,0
{consumergroup=__strimzi-topic-operator-kstreams},1651954638,0
{consumergroup=__strimzi-topic-operator-kstreams},1651954643,0
{consumergroup=__strimzi-topic-operator-kstreams},1651954648,0
{consumergroup=__strimzi-topic-operator-kstreams},1651954653,0
{consumergroup=__strimzi-topic-operator-kstreams},1651954658,0
{consumergroup=__strimzi-topic-operator-kstreams},1651954663,0
{consumergroup=__strimzi-topic-operator-kstreams},1651954668,0
{consumergroup=__strimzi-topic-operator-kstreams},1651954673,0
{consumergroup=__strimzi-topic-operator-kstreams},1651954678,0
{consumergroup=__strimzi-topic-operator-kstreams},1651954683,0
{consumergroup=__strimzi-topic-operator-kstreams},1651954688,0
{consumergroup=__strimzi-topic-operator-kstreams},1651954693,0
{consumergroup=__strimzi-topic-operator-kstreams},1651954698,0
{consumergroup=__strimzi-topic-operator-kstreams},1651954703,0
{consumergroup=__strimzi-topic-operator-kstreams},1651954708,0
{consumergroup=__strimzi-topic-operator-kstreams},1651954713,0
{consumergroup=__strimzi-topic-operator-kstreams},1651954718,0
{consumergroup=__strimzi-topic-operator-kstreams},1651954723,0
{consumergroup=__strimzi-topic-operator-kstreams},1651954728,0
{consumergroup=__strimzi-topic-operator-kstreams},1651954733,0
{consumergroup=__strimzi-topic-operator-kstreams},1651954738,0
{consumergroup=__strimzi-topic-operator-kstreams},1651954743,0
{consumergroup=__strimzi-topic-operator-kstreams},1651954748,0
{consumergroup=__strimzi-topic-operator-kstreams},1651954753,0
{consumergroup=__strimzi-topic-operator-kstreams},1651954758,0
{consumergroup=__strimzi-topic-operator-kstreams},1651954763,0
{consumergroup=__strimzi-topic-operator-kstreams},1651954768,0
{consumergroup=__strimzi-topic-operator-kstreams},1651954773,0
{consumergroup=__strimzi-topic-operator-kstreams},1651954778,0
{consumergroup=__strimzi-topic-operator-kstreams},1651954783,0
{consumergroup=__strimzi-topic-operator-kstreams},1651954788,0
{consumergroup=__strimzi-topic-operator-kstreams},1651954793,0
{consumergroup=__strimzi-topic-operator-kstreams},1651954798,0
{consumergroup=__strimzi-topic-operator-kstreams},1651954803,0
{consumergroup=__strimzi-topic-operator-kstreams},1651954808,0
{consumergroup=__strimzi-topic-operator-kstreams},1651954813,0
{consumergroup=__strimzi-topic-operator-kstreams},1651954818,0
{consumergroup=__strimzi-topic-operator-kstreams},1651954823,0
{consumergroup=__strimzi-topic-operator-kstreams},1651954828,0
{consumergroup=__strimzi-topic-operator-kstreams},1651954833,0
{consumergroup=__strimzi-topic-operator-kstreams},1651954838,0
{consumergroup=__strimzi-topic-operator-kstreams},1651954843,0
{consumergroup=__strimzi-topic-operator-kstreams},1651954848,0
{consumergroup=__strimzi-topic-operator-kstreams},1651954853,0
{consumergroup=__strimzi-topic-operator-kstreams},1651954858,0
{consumergroup=__strimzi-topic-operator-kstreams},1651954863,0
{consumergroup=__strimzi-topic-operator-kstreams},1651954868,0
{consumergroup=__strimzi-topic-operator-kstreams},1651954873,0
{consumergroup=__strimzi-topic-operator-kstreams},1651954878,0
{consumergroup=__strimzi-topic-operator-kstreams},1651954883,0
{consumergroup=__strimzi-topic-operator-kstreams},1651954888,0
{consumergroup=__strimzi-topic-operator-kstreams},1651954893,0
{consumergroup=__strimzi-topic-operator-kstreams},1651954898,0
{consumergroup=__strimzi-topic-operator-kstreams},1651954903,0
{consumergroup=__strimzi-topic-operator-kstreams},1651954908,0
{consumergroup=__strimzi-topic-operator-kstreams},1651954913,0
{consumergroup=__strimzi-topic-operator-kstreams},1651954918,0
{consumergroup=__strimzi-topic-operator-kstreams},1651954923,0
{consumergroup=adapter-service},1651954503,0
{consumergroup=adapter-service},1651954508,0
{consumergroup=adapter-service},1651954513,0
{consumergroup=adapter-service},1651954518,7986
{consumergroup=adapter-service},1651954523,7986
{consumergroup=adapter-service},1651954528,7986
{consumergroup=adapter-service},1651954533,7723
{consumergroup=adapter-service},1651954538,7723
{consumergroup=adapter-service},1651954543,7723
{consumergroup=adapter-service},1651954548,1494
{consumergroup=adapter-service},1651954553,1494
{consumergroup=adapter-service},1651954558,1494
{consumergroup=adapter-service},1651954563,5921
{consumergroup=adapter-service},1651954568,5921
{consumergroup=adapter-service},1651954573,5921
{consumergroup=adapter-service},1651954578,697
{consumergroup=adapter-service},1651954583,697
{consumergroup=adapter-service},1651954588,697
{consumergroup=adapter-service},1651954593,5548
{consumergroup=adapter-service},1651954598,5548
{consumergroup=adapter-service},1651954603,5548
{consumergroup=adapter-service},1651954608,4570
{consumergroup=adapter-service},1651954613,4570
{consumergroup=adapter-service},1651954618,4570
{consumergroup=adapter-service},1651954623,4194
{consumergroup=adapter-service},1651954628,4194
{consumergroup=adapter-service},1651954633,4194
{consumergroup=adapter-service},1651954638,31
{consumergroup=adapter-service},1651954643,31
{consumergroup=adapter-service},1651954648,31
{consumergroup=adapter-service},1651954653,4914
{consumergroup=adapter-service},1651954658,4914
{consumergroup=adapter-service},1651954663,4914
{consumergroup=adapter-service},1651954668,7157
{consumergroup=adapter-service},1651954673,7157
{consumergroup=adapter-service},1651954678,7157
{consumergroup=adapter-service},1651954683,7343
{consumergroup=adapter-service},1651954688,7343
{consumergroup=adapter-service},1651954693,7343
{consumergroup=adapter-service},1651954698,13778
{consumergroup=adapter-service},1651954703,13778
{consumergroup=adapter-service},1651954708,13778
{consumergroup=adapter-service},1651954713,2264
{consumergroup=adapter-service},1651954718,2264
{consumergroup=adapter-service},1651954723,2264
{consumergroup=adapter-service},1651954728,1798
{consumergroup=adapter-service},1651954733,1798
{consumergroup=adapter-service},1651954738,1798
{consumergroup=adapter-service},1651954743,1573
{consumergroup=adapter-service},1651954748,1573
{consumergroup=adapter-service},1651954753,1573
{consumergroup=adapter-service},1651954758,1118
{consumergroup=adapter-service},1651954763,1118
{consumergroup=adapter-service},1651954768,1118
{consumergroup=adapter-service},1651954773,1221
{consumergroup=adapter-service},1651954778,1221
{consumergroup=adapter-service},1651954783,1221
{consumergroup=adapter-service},1651954788,476
{consumergroup=adapter-service},1651954793,476
{consumergroup=adapter-service},1651954798,476
{consumergroup=adapter-service},1651954803,1401
{consumergroup=adapter-service},1651954808,1401
{consumergroup=adapter-service},1651954813,1401
{consumergroup=adapter-service},1651954818,133
{consumergroup=adapter-service},1651954823,133
{consumergroup=adapter-service},1651954828,133
{consumergroup=adapter-service},1651954833,708
{consumergroup=adapter-service},1651954838,708
{consumergroup=adapter-service},1651954843,708
{consumergroup=adapter-service},1651954848,17774
{consumergroup=adapter-service},1651954853,17774
{consumergroup=adapter-service},1651954858,17774
{consumergroup=adapter-service},1651954863,376
{consumergroup=adapter-service},1651954868,376
{consumergroup=adapter-service},1651954873,376
{consumergroup=adapter-service},1651954878,10313
{consumergroup=adapter-service},1651954883,10313
{consumergroup=adapter-service},1651954888,10313
{consumergroup=adapter-service},1651954893,10413
{consumergroup=adapter-service},1651954898,10413
{consumergroup=adapter-service},1651954903,10413
{consumergroup=adapter-service},1651954908,16381
{consumergroup=adapter-service},1651954913,16381
{consumergroup=adapter-service},1651954918,16381
{consumergroup=adapter-service},1651954923,21688
{consumergroup=landscape-service},1651954518,15562
{consumergroup=landscape-service},1651954523,15562
{consumergroup=landscape-service},1651954528,15562
{consumergroup=landscape-service},1651954533,11153
{consumergroup=landscape-service},1651954538,11153
{consumergroup=landscape-service},1651954543,11153
{consumergroup=landscape-service},1651954548,7582
{consumergroup=landscape-service},1651954553,7582
{consumergroup=landscape-service},1651954558,7582
{consumergroup=landscape-service},1651954563,12298
{consumergroup=landscape-service},1651954568,12298
{consumergroup=landscape-service},1651954573,12298
{consumergroup=landscape-service},1651954578,7117
{consumergroup=landscape-service},1651954583,7117
{consumergroup=landscape-service},1651954588,7117
{consumergroup=landscape-service},1651954593,10769
{consumergroup=landscape-service},1651954598,10769
{consumergroup=landscape-service},1651954603,10769
{consumergroup=landscape-service},1651954608,10638
{consumergroup=landscape-service},1651954613,10638
{consumergroup=landscape-service},1651954618,10638
{consumergroup=landscape-service},1651954623,10295
{consumergroup=landscape-service},1651954628,10295
{consumergroup=landscape-service},1651954633,10295
{consumergroup=landscape-service},1651954638,6821
{consumergroup=landscape-service},1651954643,6821
{consumergroup=landscape-service},1651954648,6821
{consumergroup=landscape-service},1651954653,11365
{consumergroup=landscape-service},1651954658,11365
{consumergroup=landscape-service},1651954663,11365
{consumergroup=landscape-service},1651954668,5393
{consumergroup=landscape-service},1651954673,5393
{consumergroup=landscape-service},1651954678,5393
{consumergroup=landscape-service},1651954683,15702
{consumergroup=landscape-service},1651954688,15702
{consumergroup=landscape-service},1651954693,15702
{consumergroup=landscape-service},1651954698,6523
{consumergroup=landscape-service},1651954703,6523
{consumergroup=landscape-service},1651954708,6523
{consumergroup=landscape-service},1651954713,9749
{consumergroup=landscape-service},1651954718,9749
{consumergroup=landscape-service},1651954723,9749
{consumergroup=landscape-service},1651954728,9561
{consumergroup=landscape-service},1651954733,9561
{consumergroup=landscape-service},1651954738,9561
{consumergroup=landscape-service},1651954743,9471
{consumergroup=landscape-service},1651954748,9471
{consumergroup=landscape-service},1651954753,9471
{consumergroup=landscape-service},1651954758,10279
{consumergroup=landscape-service},1651954763,10279
{consumergroup=landscape-service},1651954768,10279
{consumergroup=landscape-service},1651954773,9460
{consumergroup=landscape-service},1651954778,9460
{consumergroup=landscape-service},1651954783,9460
{consumergroup=landscape-service},1651954788,9125
{consumergroup=landscape-service},1651954793,9125
{consumergroup=landscape-service},1651954798,9125
{consumergroup=landscape-service},1651954803,9317
{consumergroup=landscape-service},1651954808,9317
{consumergroup=landscape-service},1651954813,9317
{consumergroup=landscape-service},1651954818,8845
{consumergroup=landscape-service},1651954823,8845
{consumergroup=landscape-service},1651954828,8845
{consumergroup=landscape-service},1651954833,8999
{consumergroup=landscape-service},1651954838,8999
{consumergroup=landscape-service},1651954843,8999
{consumergroup=landscape-service},1651954848,4289
{consumergroup=landscape-service},1651954853,4289
{consumergroup=landscape-service},1651954858,4289
{consumergroup=landscape-service},1651954863,8949
{consumergroup=landscape-service},1651954868,8949
{consumergroup=landscape-service},1651954873,8949
{consumergroup=landscape-service},1651954878,8635
{consumergroup=landscape-service},1651954883,8635
{consumergroup=landscape-service},1651954888,8635
{consumergroup=landscape-service},1651954893,8740
{consumergroup=landscape-service},1651954898,8740
{consumergroup=landscape-service},1651954903,8740
{consumergroup=landscape-service},1651954908,4003
{consumergroup=landscape-service},1651954913,4003
{consumergroup=landscape-service},1651954918,4003
{consumergroup=landscape-service},1651954923,8627
{consumergroup=landscape-token-events-consumer},1651954503,0
{consumergroup=landscape-token-events-consumer},1651954508,0
{consumergroup=landscape-token-events-consumer},1651954513,0
{consumergroup=landscape-token-events-consumer},1651954518,0
{consumergroup=landscape-token-events-consumer},1651954523,0
{consumergroup=landscape-token-events-consumer},1651954528,0
{consumergroup=landscape-token-events-consumer},1651954533,0
{consumergroup=landscape-token-events-consumer},1651954538,0
{consumergroup=landscape-token-events-consumer},1651954543,0
{consumergroup=landscape-token-events-consumer},1651954548,0
{consumergroup=landscape-token-events-consumer},1651954553,0
{consumergroup=landscape-token-events-consumer},1651954558,0
{consumergroup=landscape-token-events-consumer},1651954563,0
{consumergroup=landscape-token-events-consumer},1651954568,0
{consumergroup=landscape-token-events-consumer},1651954573,0
{consumergroup=landscape-token-events-consumer},1651954578,0
{consumergroup=landscape-token-events-consumer},1651954583,0
{consumergroup=landscape-token-events-consumer},1651954588,0
{consumergroup=landscape-token-events-consumer},1651954593,0
{consumergroup=landscape-token-events-consumer},1651954598,0
{consumergroup=landscape-token-events-consumer},1651954603,0
{consumergroup=landscape-token-events-consumer},1651954608,0
{consumergroup=landscape-token-events-consumer},1651954613,0
{consumergroup=landscape-token-events-consumer},1651954618,0
{consumergroup=landscape-token-events-consumer},1651954623,0
{consumergroup=landscape-token-events-consumer},1651954628,0
{consumergroup=landscape-token-events-consumer},1651954633,0
{consumergroup=landscape-token-events-consumer},1651954638,0
{consumergroup=landscape-token-events-consumer},1651954643,0
{consumergroup=landscape-token-events-consumer},1651954648,0
{consumergroup=landscape-token-events-consumer},1651954653,0
{consumergroup=landscape-token-events-consumer},1651954658,0
{consumergroup=landscape-token-events-consumer},1651954663,0
{consumergroup=landscape-token-events-consumer},1651954668,0
{consumergroup=landscape-token-events-consumer},1651954673,0
{consumergroup=landscape-token-events-consumer},1651954678,0
{consumergroup=landscape-token-events-consumer},1651954683,0
{consumergroup=landscape-token-events-consumer},1651954688,0
{consumergroup=landscape-token-events-consumer},1651954693,0
{consumergroup=landscape-token-events-consumer},1651954698,0
{consumergroup=landscape-token-events-consumer},1651954703,0
{consumergroup=landscape-token-events-consumer},1651954708,0
{consumergroup=landscape-token-events-consumer},1651954713,0
{consumergroup=landscape-token-events-consumer},1651954718,0
{consumergroup=landscape-token-events-consumer},1651954723,0
{consumergroup=landscape-token-events-consumer},1651954728,0
{consumergroup=landscape-token-events-consumer},1651954733,0
{consumergroup=landscape-token-events-consumer},1651954738,0
{consumergroup=landscape-token-events-consumer},1651954743,0
{consumergroup=landscape-token-events-consumer},1651954748,0
{consumergroup=landscape-token-events-consumer},1651954753,0
{consumergroup=landscape-token-events-consumer},1651954758,0
{consumergroup=landscape-token-events-consumer},1651954763,0
{consumergroup=landscape-token-events-consumer},1651954768,0
{consumergroup=landscape-token-events-consumer},1651954773,0
{consumergroup=landscape-token-events-consumer},1651954778,0
{consumergroup=landscape-token-events-consumer},1651954783,0
{consumergroup=landscape-token-events-consumer},1651954788,0
{consumergroup=landscape-token-events-consumer},1651954793,0
{consumergroup=landscape-token-events-consumer},1651954798,0
{consumergroup=landscape-token-events-consumer},1651954803,0
{consumergroup=landscape-token-events-consumer},1651954808,0
{consumergroup=landscape-token-events-consumer},1651954813,0
{consumergroup=landscape-token-events-consumer},1651954818,0
{consumergroup=landscape-token-events-consumer},1651954823,0
{consumergroup=landscape-token-events-consumer},1651954828,0
{consumergroup=landscape-token-events-consumer},1651954833,0
{consumergroup=landscape-token-events-consumer},1651954838,0
{consumergroup=landscape-token-events-consumer},1651954843,0
{consumergroup=landscape-token-events-consumer},1651954848,0
{consumergroup=landscape-token-events-consumer},1651954853,0
{consumergroup=landscape-token-events-consumer},1651954858,0
{consumergroup=landscape-token-events-consumer},1651954863,0
{consumergroup=landscape-token-events-consumer},1651954868,0
{consumergroup=landscape-token-events-consumer},1651954873,0
{consumergroup=landscape-token-events-consumer},1651954878,0
{consumergroup=landscape-token-events-consumer},1651954883,0
{consumergroup=landscape-token-events-consumer},1651954888,0
{consumergroup=landscape-token-events-consumer},1651954893,0
{consumergroup=landscape-token-events-consumer},1651954898,0
{consumergroup=landscape-token-events-consumer},1651954903,0
{consumergroup=landscape-token-events-consumer},1651954908,0
{consumergroup=landscape-token-events-consumer},1651954913,0
{consumergroup=landscape-token-events-consumer},1651954918,0
{consumergroup=landscape-token-events-consumer},1651954923,0
{consumergroup=trace-service},1651954468,0
{consumergroup=trace-service},1651954518,30217
{consumergroup=trace-service},1651954523,30217
{consumergroup=trace-service},1651954528,30217
{consumergroup=trace-service},1651954533,55553
{consumergroup=trace-service},1651954538,55553
{consumergroup=trace-service},1651954543,55553
{consumergroup=trace-service},1651954548,85260
{consumergroup=trace-service},1651954553,85260
{consumergroup=trace-service},1651954558,85260
{consumergroup=trace-service},1651954563,39234
{consumergroup=trace-service},1651954568,39234
{consumergroup=trace-service},1651954573,39234
{consumergroup=trace-service},1651954578,73018
{consumergroup=trace-service},1651954583,73018
{consumergroup=trace-service},1651954588,73018
{consumergroup=trace-service},1651954593,47120
{consumergroup=trace-service},1651954598,47120
{consumergroup=trace-service},1651954603,47120
{consumergroup=trace-service},1651954608,83553
{consumergroup=trace-service},1651954613,83553
{consumergroup=trace-service},1651954618,83553
{consumergroup=trace-service},1651954623,42296
{consumergroup=trace-service},1651954628,42296
{consumergroup=trace-service},1651954633,42296
{consumergroup=trace-service},1651954638,83199
{consumergroup=trace-service},1651954643,83199
{consumergroup=trace-service},1651954648,83199
{consumergroup=trace-service},1651954653,210875
{consumergroup=trace-service},1651954658,210875
{consumergroup=trace-service},1651954663,210875
{consumergroup=trace-service},1651954668,124649
{consumergroup=trace-service},1651954673,124649
{consumergroup=trace-service},1651954678,124649
{consumergroup=trace-service},1651954683,51609
{consumergroup=trace-service},1651954688,51609
{consumergroup=trace-service},1651954693,51609
{consumergroup=trace-service},1651954698,90285
{consumergroup=trace-service},1651954703,90285
{consumergroup=trace-service},1651954708,90285
{consumergroup=trace-service},1651954713,218994
{consumergroup=trace-service},1651954718,218994
{consumergroup=trace-service},1651954723,218994
{consumergroup=trace-service},1651954728,15433
{consumergroup=trace-service},1651954733,15433
{consumergroup=trace-service},1651954738,15433
{consumergroup=trace-service},1651954743,43200
{consumergroup=trace-service},1651954748,43200
{consumergroup=trace-service},1651954753,43200
{consumergroup=trace-service},1651954758,78192
{consumergroup=trace-service},1651954763,78192
{consumergroup=trace-service},1651954768,78192
{consumergroup=trace-service},1651954773,45557
{consumergroup=trace-service},1651954778,45557
{consumergroup=trace-service},1651954783,45557
{consumergroup=trace-service},1651954788,103329
{consumergroup=trace-service},1651954793,103329
{consumergroup=trace-service},1651954798,103329
{consumergroup=trace-service},1651954803,68551
{consumergroup=trace-service},1651954808,68551
{consumergroup=trace-service},1651954813,68551
{consumergroup=trace-service},1651954818,96996
{consumergroup=trace-service},1651954823,96996
{consumergroup=trace-service},1651954828,96996
{consumergroup=trace-service},1651954833,48605
{consumergroup=trace-service},1651954838,48605
{consumergroup=trace-service},1651954843,48605
{consumergroup=trace-service},1651954848,80670
{consumergroup=trace-service},1651954853,80670
{consumergroup=trace-service},1651954858,80670
{consumergroup=trace-service},1651954863,46043
{consumergroup=trace-service},1651954868,46043
{consumergroup=trace-service},1651954873,46043
{consumergroup=trace-service},1651954878,87927
{consumergroup=trace-service},1651954883,87927
{consumergroup=trace-service},1651954888,87927
{consumergroup=trace-service},1651954893,45052
{consumergroup=trace-service},1651954898,45052
{consumergroup=trace-service},1651954903,45052
{consumergroup=trace-service},1651954908,85366
{consumergroup=trace-service},1651954913,85366
{consumergroup=trace-service},1651954918,85366
{consumergroup=trace-service},1651954923,128713
{consumergroup=trace-token-events-consumer},1651954503,0
{consumergroup=trace-token-events-consumer},1651954508,0
{consumergroup=trace-token-events-consumer},1651954513,0
{consumergroup=trace-token-events-consumer},1651954518,0
{consumergroup=trace-token-events-consumer},1651954523,0
{consumergroup=trace-token-events-consumer},1651954528,0
{consumergroup=trace-token-events-consumer},1651954533,0
{consumergroup=trace-token-events-consumer},1651954538,0
{consumergroup=trace-token-events-consumer},1651954543,0
{consumergroup=trace-token-events-consumer},1651954548,0
{consumergroup=trace-token-events-consumer},1651954553,0
{consumergroup=trace-token-events-consumer},1651954558,0
{consumergroup=trace-token-events-consumer},1651954563,0
{consumergroup=trace-token-events-consumer},1651954568,0
{consumergroup=trace-token-events-consumer},1651954573,0
{consumergroup=trace-token-events-consumer},1651954578,0
{consumergroup=trace-token-events-consumer},1651954583,0
{consumergroup=trace-token-events-consumer},1651954588,0
{consumergroup=trace-token-events-consumer},1651954593,0
{consumergroup=trace-token-events-consumer},1651954598,0
{consumergroup=trace-token-events-consumer},1651954603,0
{consumergroup=trace-token-events-consumer},1651954608,0
{consumergroup=trace-token-events-consumer},1651954613,0
{consumergroup=trace-token-events-consumer},1651954618,0
{consumergroup=trace-token-events-consumer},1651954623,0
{consumergroup=trace-token-events-consumer},1651954628,0
{consumergroup=trace-token-events-consumer},1651954633,0
{consumergroup=trace-token-events-consumer},1651954638,0
{consumergroup=trace-token-events-consumer},1651954643,0
{consumergroup=trace-token-events-consumer},1651954648,0
{consumergroup=trace-token-events-consumer},1651954653,0
{consumergroup=trace-token-events-consumer},1651954658,0
{consumergroup=trace-token-events-consumer},1651954663,0
{consumergroup=trace-token-events-consumer},1651954668,0
{consumergroup=trace-token-events-consumer},1651954673,0
{consumergroup=trace-token-events-consumer},1651954678,0
{consumergroup=trace-token-events-consumer},1651954683,0
{consumergroup=trace-token-events-consumer},1651954688,0
{consumergroup=trace-token-events-consumer},1651954693,0
{consumergroup=trace-token-events-consumer},1651954698,0
{consumergroup=trace-token-events-consumer},1651954703,0
{consumergroup=trace-token-events-consumer},1651954708,0
{consumergroup=trace-token-events-consumer},1651954713,0
{consumergroup=trace-token-events-consumer},1651954718,0
{consumergroup=trace-token-events-consumer},1651954723,0
{consumergroup=trace-token-events-consumer},1651954728,0
{consumergroup=trace-token-events-consumer},1651954733,0
{consumergroup=trace-token-events-consumer},1651954738,0
{consumergroup=trace-token-events-consumer},1651954743,0
{consumergroup=trace-token-events-consumer},1651954748,0
{consumergroup=trace-token-events-consumer},1651954753,0
{consumergroup=trace-token-events-consumer},1651954758,0
{consumergroup=trace-token-events-consumer},1651954763,0
{consumergroup=trace-token-events-consumer},1651954768,0
{consumergroup=trace-token-events-consumer},1651954773,0
{consumergroup=trace-token-events-consumer},1651954778,0
{consumergroup=trace-token-events-consumer},1651954783,0
{consumergroup=trace-token-events-consumer},1651954788,0
{consumergroup=trace-token-events-consumer},1651954793,0
{consumergroup=trace-token-events-consumer},1651954798,0
{consumergroup=trace-token-events-consumer},1651954803,0
{consumergroup=trace-token-events-consumer},1651954808,0
{consumergroup=trace-token-events-consumer},1651954813,0
{consumergroup=trace-token-events-consumer},1651954818,0
{consumergroup=trace-token-events-consumer},1651954823,0
{consumergroup=trace-token-events-consumer},1651954828,0
{consumergroup=trace-token-events-consumer},1651954833,0
{consumergroup=trace-token-events-consumer},1651954838,0
{consumergroup=trace-token-events-consumer},1651954843,0
{consumergroup=trace-token-events-consumer},1651954848,0
{consumergroup=trace-token-events-consumer},1651954853,0
{consumergroup=trace-token-events-consumer},1651954858,0
{consumergroup=trace-token-events-consumer},1651954863,0
{consumergroup=trace-token-events-consumer},1651954868,0
{consumergroup=trace-token-events-consumer},1651954873,0
{consumergroup=trace-token-events-consumer},1651954878,0
{consumergroup=trace-token-events-consumer},1651954883,0
{consumergroup=trace-token-events-consumer},1651954888,0
{consumergroup=trace-token-events-consumer},1651954893,0
{consumergroup=trace-token-events-consumer},1651954898,0
{consumergroup=trace-token-events-consumer},1651954903,0
{consumergroup=trace-token-events-consumer},1651954908,0
{consumergroup=trace-token-events-consumer},1651954913,0
{consumergroup=trace-token-events-consumer},1651954918,0
{consumergroup=trace-token-events-consumer},1651954923,0
