labels,timestamp,value
{job=theodolite-stu200776/combined-trace-podmonitor},1651965593,0.04014223253494212
{job=theodolite-stu200776/combined-trace-podmonitor},1651965598,0.07708821982810074
{job=theodolite-stu200776/combined-trace-podmonitor},1651965603,1.8679209519707265
{job=theodolite-stu200776/combined-trace-podmonitor},1651965608,169.40753186861664
{job=theodolite-stu200776/combined-trace-podmonitor},1651965613,1187.1834111245942
{job=theodolite-stu200776/combined-trace-podmonitor},1651965618,1313.3370564337463
{job=theodolite-stu200776/combined-trace-podmonitor},1651965623,1437.120259498414
{job=theodolite-stu200776/combined-trace-podmonitor},1651965628,1596.3686485342357
{job=theodolite-stu200776/combined-trace-podmonitor},1651965633,1822.8654905800915
{job=theodolite-stu200776/combined-trace-podmonitor},1651965638,1726.9191532646016
{job=theodolite-stu200776/combined-trace-podmonitor},1651965643,1463.9971327554201
{job=theodolite-stu200776/combined-trace-podmonitor},1651965648,1401.9589888347996
{job=theodolite-stu200776/combined-trace-podmonitor},1651965653,977.36675015504
{job=theodolite-stu200776/combined-trace-podmonitor},1651965658,694.1209011716535
{job=theodolite-stu200776/combined-trace-podmonitor},1651965663,32.556289196671045
{job=theodolite-stu200776/combined-trace-podmonitor},1651965668,25.881073040167923
{job=theodolite-stu200776/combined-trace-podmonitor},1651965673,5.073044872912381
{job=theodolite-stu200776/combined-trace-podmonitor},1651965678,0
{job=theodolite-stu200776/combined-trace-podmonitor},1651965683,0
{job=theodolite-stu200776/combined-trace-podmonitor},1651965688,0
{job=theodolite-stu200776/combined-trace-podmonitor},1651965693,0
{job=theodolite-stu200776/combined-trace-podmonitor},1651965698,0
{job=theodolite-stu200776/combined-trace-podmonitor},1651965703,0
{job=theodolite-stu200776/combined-trace-podmonitor},1651965708,0
{job=theodolite-stu200776/combined-trace-podmonitor},1651965713,0
{job=theodolite-stu200776/combined-trace-podmonitor},1651965718,0
{job=theodolite-stu200776/combined-trace-podmonitor},1651965723,0
{job=theodolite-stu200776/combined-trace-podmonitor},1651965728,0
{job=theodolite-stu200776/combined-trace-podmonitor},1651965733,0
{job=theodolite-stu200776/combined-trace-podmonitor},1651965738,0
{job=theodolite-stu200776/combined-trace-podmonitor},1651965743,0
{job=theodolite-stu200776/combined-trace-podmonitor},1651965748,0
{job=theodolite-stu200776/combined-trace-podmonitor},1651965753,0
{job=theodolite-stu200776/combined-trace-podmonitor},1651965758,0
{job=theodolite-stu200776/combined-trace-podmonitor},1651965763,0
{job=theodolite-stu200776/combined-trace-podmonitor},1651965768,0
{job=theodolite-stu200776/combined-trace-podmonitor},1651965773,0
{job=theodolite-stu200776/combined-trace-podmonitor},1651965778,0
{job=theodolite-stu200776/combined-trace-podmonitor},1651965783,0
{job=theodolite-stu200776/combined-trace-podmonitor},1651965788,0
{job=theodolite-stu200776/combined-trace-podmonitor},1651965793,0
{job=theodolite-stu200776/combined-trace-podmonitor},1651965798,0
{job=theodolite-stu200776/combined-trace-podmonitor},1651965803,0
{job=theodolite-stu200776/combined-trace-podmonitor},1651965808,0
{job=theodolite-stu200776/combined-trace-podmonitor},1651965813,0
{job=theodolite-stu200776/combined-trace-podmonitor},1651965818,0
{job=theodolite-stu200776/combined-trace-podmonitor},1651965823,0
{job=theodolite-stu200776/combined-trace-podmonitor},1651965828,0
{job=theodolite-stu200776/combined-trace-podmonitor},1651965833,0
{job=theodolite-stu200776/combined-trace-podmonitor},1651965838,0
{job=theodolite-stu200776/combined-trace-podmonitor},1651965843,0
{job=theodolite-stu200776/combined-trace-podmonitor},1651965848,0
{job=theodolite-stu200776/combined-trace-podmonitor},1651965853,0
{job=theodolite-stu200776/combined-trace-podmonitor},1651965858,0
{job=theodolite-stu200776/combined-trace-podmonitor},1651965863,0
{job=theodolite-stu200776/combined-trace-podmonitor},1651965868,0
{job=theodolite-stu200776/combined-trace-podmonitor},1651965873,0
{job=theodolite-stu200776/combined-trace-podmonitor},1651965878,0
{job=theodolite-stu200776/combined-trace-podmonitor},1651965883,0
{job=theodolite-stu200776/combined-trace-podmonitor},1651965888,0
{job=theodolite-stu200776/combined-trace-podmonitor},1651965893,0
{job=theodolite-stu200776/combined-trace-podmonitor},1651965898,0
{job=theodolite-stu200776/combined-trace-podmonitor},1651965903,0
{job=theodolite-stu200776/combined-trace-podmonitor},1651965908,0
{job=theodolite-stu200776/combined-trace-podmonitor},1651965913,0
{job=theodolite-stu200776/combined-trace-podmonitor},1651965918,0
{job=theodolite-stu200776/combined-trace-podmonitor},1651965923,0
{job=theodolite-stu200776/combined-trace-podmonitor},1651965928,0
{job=theodolite-stu200776/combined-trace-podmonitor},1651965933,0
{job=theodolite-stu200776/combined-trace-podmonitor},1651965938,0
{job=theodolite-stu200776/combined-trace-podmonitor},1651965943,0
{job=theodolite-stu200776/combined-trace-podmonitor},1651965948,0
{job=theodolite-stu200776/combined-trace-podmonitor},1651965953,0
{job=theodolite-stu200776/combined-trace-podmonitor},1651965958,0
{job=theodolite-stu200776/combined-trace-podmonitor},1651965963,0
