labels,timestamp,value
{consumergroup=__strimzi-topic-operator-kstreams},1651886024,0
{consumergroup=__strimzi-topic-operator-kstreams},1651886029,5
{consumergroup=__strimzi-topic-operator-kstreams},1651886034,5
{consumergroup=__strimzi-topic-operator-kstreams},1651886039,5
{consumergroup=__strimzi-topic-operator-kstreams},1651886044,21
{consumergroup=__strimzi-topic-operator-kstreams},1651886049,21
{consumergroup=__strimzi-topic-operator-kstreams},1651886054,21
{consumergroup=__strimzi-topic-operator-kstreams},1651886059,0
{consumergroup=__strimzi-topic-operator-kstreams},1651886064,0
{consumergroup=__strimzi-topic-operator-kstreams},1651886069,0
{consumergroup=__strimzi-topic-operator-kstreams},1651886074,0
{consumergroup=__strimzi-topic-operator-kstreams},1651886079,0
{consumergroup=__strimzi-topic-operator-kstreams},1651886084,0
{consumergroup=__strimzi-topic-operator-kstreams},1651886089,0
{consumergroup=__strimzi-topic-operator-kstreams},1651886094,0
{consumergroup=__strimzi-topic-operator-kstreams},1651886099,0
{consumergroup=__strimzi-topic-operator-kstreams},1651886104,0
{consumergroup=__strimzi-topic-operator-kstreams},1651886109,0
{consumergroup=__strimzi-topic-operator-kstreams},1651886114,0
{consumergroup=__strimzi-topic-operator-kstreams},1651886119,0
{consumergroup=__strimzi-topic-operator-kstreams},1651886124,0
{consumergroup=__strimzi-topic-operator-kstreams},1651886129,0
{consumergroup=__strimzi-topic-operator-kstreams},1651886134,0
{consumergroup=__strimzi-topic-operator-kstreams},1651886139,0
{consumergroup=__strimzi-topic-operator-kstreams},1651886144,0
{consumergroup=__strimzi-topic-operator-kstreams},1651886149,0
{consumergroup=__strimzi-topic-operator-kstreams},1651886154,0
{consumergroup=__strimzi-topic-operator-kstreams},1651886159,0
{consumergroup=__strimzi-topic-operator-kstreams},1651886164,0
{consumergroup=__strimzi-topic-operator-kstreams},1651886169,0
{consumergroup=__strimzi-topic-operator-kstreams},1651886174,0
{consumergroup=__strimzi-topic-operator-kstreams},1651886179,0
{consumergroup=__strimzi-topic-operator-kstreams},1651886184,0
{consumergroup=__strimzi-topic-operator-kstreams},1651886189,0
{consumergroup=__strimzi-topic-operator-kstreams},1651886194,0
{consumergroup=__strimzi-topic-operator-kstreams},1651886199,0
{consumergroup=__strimzi-topic-operator-kstreams},1651886204,0
{consumergroup=__strimzi-topic-operator-kstreams},1651886209,0
{consumergroup=__strimzi-topic-operator-kstreams},1651886214,0
{consumergroup=__strimzi-topic-operator-kstreams},1651886219,0
{consumergroup=__strimzi-topic-operator-kstreams},1651886224,0
{consumergroup=__strimzi-topic-operator-kstreams},1651886229,0
{consumergroup=__strimzi-topic-operator-kstreams},1651886234,0
{consumergroup=__strimzi-topic-operator-kstreams},1651886239,0
{consumergroup=__strimzi-topic-operator-kstreams},1651886244,0
{consumergroup=__strimzi-topic-operator-kstreams},1651886249,0
{consumergroup=__strimzi-topic-operator-kstreams},1651886254,0
{consumergroup=__strimzi-topic-operator-kstreams},1651886259,0
{consumergroup=__strimzi-topic-operator-kstreams},1651886264,0
{consumergroup=__strimzi-topic-operator-kstreams},1651886269,0
{consumergroup=__strimzi-topic-operator-kstreams},1651886274,0
{consumergroup=__strimzi-topic-operator-kstreams},1651886279,0
{consumergroup=__strimzi-topic-operator-kstreams},1651886284,0
{consumergroup=adapter-service},1651886024,1299354
{consumergroup=adapter-service},1651886059,376
{consumergroup=adapter-service},1651886064,376
{consumergroup=adapter-service},1651886069,376
{consumergroup=adapter-service},1651886074,324760
{consumergroup=adapter-service},1651886079,324760
{consumergroup=adapter-service},1651886084,324760
{consumergroup=adapter-service},1651886089,532360
{consumergroup=adapter-service},1651886094,532360
{consumergroup=adapter-service},1651886099,532360
{consumergroup=adapter-service},1651886104,704995
{consumergroup=adapter-service},1651886109,704995
{consumergroup=adapter-service},1651886114,704995
{consumergroup=adapter-service},1651886119,851685
{consumergroup=adapter-service},1651886124,851685
{consumergroup=adapter-service},1651886129,851685
{consumergroup=adapter-service},1651886134,952342
{consumergroup=adapter-service},1651886139,952342
{consumergroup=adapter-service},1651886144,952342
{consumergroup=adapter-service},1651886149,1041973
{consumergroup=adapter-service},1651886154,1041973
{consumergroup=adapter-service},1651886159,1041973
{consumergroup=adapter-service},1651886164,1104954
{consumergroup=adapter-service},1651886169,1104954
{consumergroup=adapter-service},1651886174,1104954
{consumergroup=adapter-service},1651886179,1153147
{consumergroup=adapter-service},1651886184,1153147
{consumergroup=adapter-service},1651886189,1153147
{consumergroup=adapter-service},1651886194,1183333
{consumergroup=adapter-service},1651886199,1183333
{consumergroup=adapter-service},1651886204,1183333
{consumergroup=adapter-service},1651886209,1247751
{consumergroup=adapter-service},1651886214,1247751
{consumergroup=adapter-service},1651886219,1247751
{consumergroup=adapter-service},1651886224,1293654
{consumergroup=adapter-service},1651886229,1293654
{consumergroup=adapter-service},1651886234,1293654
{consumergroup=adapter-service},1651886239,1326782
{consumergroup=adapter-service},1651886244,1326782
{consumergroup=adapter-service},1651886249,1326782
{consumergroup=adapter-service},1651886254,1377402
{consumergroup=adapter-service},1651886259,1377402
{consumergroup=adapter-service},1651886264,1377402
{consumergroup=adapter-service},1651886269,1404137
{consumergroup=adapter-service},1651886274,1404137
{consumergroup=adapter-service},1651886279,1404137
{consumergroup=adapter-service},1651886284,1478420
