labels,timestamp,value
{job=theodolite-stu200776/combined-trace-podmonitor},1652000881,0.05260368249655112
{job=theodolite-stu200776/combined-trace-podmonitor},1652000886,0.08619879990991909
{job=theodolite-stu200776/combined-trace-podmonitor},1652000891,0.1445340544481747
{job=theodolite-stu200776/combined-trace-podmonitor},1652000896,0.16153541833007665
{job=theodolite-stu200776/combined-trace-podmonitor},1652000901,0.13740607761237827
{job=theodolite-stu200776/combined-trace-podmonitor},1652000906,0.12718634977514864
{job=theodolite-stu200776/combined-trace-podmonitor},1652000911,0.11168676945960904
{job=theodolite-stu200776/combined-trace-podmonitor},1652000916,0.10490682644924804
{job=theodolite-stu200776/combined-trace-podmonitor},1652000921,0.03359681044767926
{job=theodolite-stu200776/combined-trace-podmonitor},1652000926,0
{job=theodolite-stu200776/combined-trace-podmonitor},1652000931,0
{job=theodolite-stu200776/combined-trace-podmonitor},1652000936,0
{job=theodolite-stu200776/combined-trace-podmonitor},1652000941,0
{job=theodolite-stu200776/combined-trace-podmonitor},1652000946,0
{job=theodolite-stu200776/combined-trace-podmonitor},1652000951,0
{job=theodolite-stu200776/combined-trace-podmonitor},1652000956,0
{job=theodolite-stu200776/combined-trace-podmonitor},1652000961,0
{job=theodolite-stu200776/combined-trace-podmonitor},1652000966,0
{job=theodolite-stu200776/combined-trace-podmonitor},1652000971,0
{job=theodolite-stu200776/combined-trace-podmonitor},1652000976,0
{job=theodolite-stu200776/combined-trace-podmonitor},1652000981,0
{job=theodolite-stu200776/combined-trace-podmonitor},1652000986,0
{job=theodolite-stu200776/combined-trace-podmonitor},1652000991,0
{job=theodolite-stu200776/combined-trace-podmonitor},1652000996,0
{job=theodolite-stu200776/combined-trace-podmonitor},1652001001,0
{job=theodolite-stu200776/combined-trace-podmonitor},1652001006,0
{job=theodolite-stu200776/combined-trace-podmonitor},1652001011,0
{job=theodolite-stu200776/combined-trace-podmonitor},1652001016,0
{job=theodolite-stu200776/combined-trace-podmonitor},1652001021,0
{job=theodolite-stu200776/combined-trace-podmonitor},1652001026,0
{job=theodolite-stu200776/combined-trace-podmonitor},1652001031,0
{job=theodolite-stu200776/combined-trace-podmonitor},1652001036,0
{job=theodolite-stu200776/combined-trace-podmonitor},1652001041,0
{job=theodolite-stu200776/combined-trace-podmonitor},1652001046,0
{job=theodolite-stu200776/combined-trace-podmonitor},1652001051,0
{job=theodolite-stu200776/combined-trace-podmonitor},1652001056,0
{job=theodolite-stu200776/combined-trace-podmonitor},1652001061,0
{job=theodolite-stu200776/combined-trace-podmonitor},1652001066,0
{job=theodolite-stu200776/combined-trace-podmonitor},1652001071,0
{job=theodolite-stu200776/combined-trace-podmonitor},1652001076,0
{job=theodolite-stu200776/combined-trace-podmonitor},1652001081,0
{job=theodolite-stu200776/combined-trace-podmonitor},1652001086,0
{job=theodolite-stu200776/combined-trace-podmonitor},1652001091,0
{job=theodolite-stu200776/combined-trace-podmonitor},1652001096,0
{job=theodolite-stu200776/combined-trace-podmonitor},1652001101,0
{job=theodolite-stu200776/combined-trace-podmonitor},1652001106,0
{job=theodolite-stu200776/combined-trace-podmonitor},1652001111,0
{job=theodolite-stu200776/combined-trace-podmonitor},1652001116,0
{job=theodolite-stu200776/combined-trace-podmonitor},1652001121,0
{job=theodolite-stu200776/combined-trace-podmonitor},1652001126,0
{job=theodolite-stu200776/combined-trace-podmonitor},1652001131,0
{job=theodolite-stu200776/combined-trace-podmonitor},1652001136,0
{job=theodolite-stu200776/combined-trace-podmonitor},1652001141,0
{job=theodolite-stu200776/combined-trace-podmonitor},1652001146,0
{job=theodolite-stu200776/combined-trace-podmonitor},1652001151,0
{job=theodolite-stu200776/combined-trace-podmonitor},1652001156,0
{job=theodolite-stu200776/combined-trace-podmonitor},1652001161,0
{job=theodolite-stu200776/combined-trace-podmonitor},1652001166,0
{job=theodolite-stu200776/combined-trace-podmonitor},1652001171,0
{job=theodolite-stu200776/combined-trace-podmonitor},1652001176,0
{job=theodolite-stu200776/combined-trace-podmonitor},1652001181,0
{job=theodolite-stu200776/combined-trace-podmonitor},1652001186,0
{job=theodolite-stu200776/combined-trace-podmonitor},1652001191,0
{job=theodolite-stu200776/combined-trace-podmonitor},1652001196,0
{job=theodolite-stu200776/combined-trace-podmonitor},1652001201,0
{job=theodolite-stu200776/combined-trace-podmonitor},1652001206,0
{job=theodolite-stu200776/combined-trace-podmonitor},1652001211,0
{job=theodolite-stu200776/combined-trace-podmonitor},1652001216,0
{job=theodolite-stu200776/combined-trace-podmonitor},1652001221,0
{job=theodolite-stu200776/combined-trace-podmonitor},1652001226,0
{job=theodolite-stu200776/combined-trace-podmonitor},1652001231,0
{job=theodolite-stu200776/combined-trace-podmonitor},1652001236,0
{job=theodolite-stu200776/combined-trace-podmonitor},1652001241,0
{job=theodolite-stu200776/combined-trace-podmonitor},1652001246,0
{job=theodolite-stu200776/combined-trace-podmonitor},1652001251,0
{job=theodolite-stu200776/combined-trace-podmonitor},1652001256,0
