labels,timestamp,value
{consumergroup=__strimzi-topic-operator-kstreams},1652349615,11
{consumergroup=__strimzi-topic-operator-kstreams},1652349620,11
{consumergroup=__strimzi-topic-operator-kstreams},1652349625,11
{consumergroup=__strimzi-topic-operator-kstreams},1652349630,0
{consumergroup=__strimzi-topic-operator-kstreams},1652349635,0
{consumergroup=__strimzi-topic-operator-kstreams},1652349640,0
{consumergroup=__strimzi-topic-operator-kstreams},1652349645,0
{consumergroup=__strimzi-topic-operator-kstreams},1652349650,0
{consumergroup=__strimzi-topic-operator-kstreams},1652349655,0
{consumergroup=__strimzi-topic-operator-kstreams},1652349660,0
{consumergroup=__strimzi-topic-operator-kstreams},1652349665,0
{consumergroup=__strimzi-topic-operator-kstreams},1652349670,0
{consumergroup=__strimzi-topic-operator-kstreams},1652349675,0
{consumergroup=__strimzi-topic-operator-kstreams},1652349680,0
{consumergroup=__strimzi-topic-operator-kstreams},1652349685,0
{consumergroup=__strimzi-topic-operator-kstreams},1652349690,0
{consumergroup=__strimzi-topic-operator-kstreams},1652349695,0
{consumergroup=__strimzi-topic-operator-kstreams},1652349700,0
{consumergroup=__strimzi-topic-operator-kstreams},1652349705,0
{consumergroup=__strimzi-topic-operator-kstreams},1652349710,0
{consumergroup=__strimzi-topic-operator-kstreams},1652349715,0
{consumergroup=__strimzi-topic-operator-kstreams},1652349720,0
{consumergroup=__strimzi-topic-operator-kstreams},1652349725,0
{consumergroup=__strimzi-topic-operator-kstreams},1652349730,0
{consumergroup=__strimzi-topic-operator-kstreams},1652349735,0
{consumergroup=__strimzi-topic-operator-kstreams},1652349740,0
{consumergroup=__strimzi-topic-operator-kstreams},1652349745,0
{consumergroup=__strimzi-topic-operator-kstreams},1652349750,0
{consumergroup=__strimzi-topic-operator-kstreams},1652349755,0
{consumergroup=__strimzi-topic-operator-kstreams},1652349760,0
{consumergroup=__strimzi-topic-operator-kstreams},1652349765,0
{consumergroup=__strimzi-topic-operator-kstreams},1652349770,0
{consumergroup=__strimzi-topic-operator-kstreams},1652349775,0
{consumergroup=__strimzi-topic-operator-kstreams},1652349780,0
{consumergroup=__strimzi-topic-operator-kstreams},1652349785,0
{consumergroup=__strimzi-topic-operator-kstreams},1652349790,0
{consumergroup=__strimzi-topic-operator-kstreams},1652349795,0
{consumergroup=__strimzi-topic-operator-kstreams},1652349800,0
{consumergroup=__strimzi-topic-operator-kstreams},1652349805,0
{consumergroup=__strimzi-topic-operator-kstreams},1652349810,0
{consumergroup=__strimzi-topic-operator-kstreams},1652349815,0
{consumergroup=__strimzi-topic-operator-kstreams},1652349820,0
{consumergroup=__strimzi-topic-operator-kstreams},1652349825,0
{consumergroup=__strimzi-topic-operator-kstreams},1652349830,0
{consumergroup=__strimzi-topic-operator-kstreams},1652349835,0
{consumergroup=__strimzi-topic-operator-kstreams},1652349840,0
{consumergroup=__strimzi-topic-operator-kstreams},1652349845,0
{consumergroup=__strimzi-topic-operator-kstreams},1652349850,0
{consumergroup=__strimzi-topic-operator-kstreams},1652349855,0
{consumergroup=__strimzi-topic-operator-kstreams},1652349860,0
{consumergroup=__strimzi-topic-operator-kstreams},1652349865,0
{consumergroup=__strimzi-topic-operator-kstreams},1652349870,0
{consumergroup=__strimzi-topic-operator-kstreams},1652349875,0
{consumergroup=__strimzi-topic-operator-kstreams},1652349880,0
{consumergroup=__strimzi-topic-operator-kstreams},1652349885,0
{consumergroup=__strimzi-topic-operator-kstreams},1652349890,0
{consumergroup=__strimzi-topic-operator-kstreams},1652349895,0
{consumergroup=__strimzi-topic-operator-kstreams},1652349900,0
{consumergroup=__strimzi-topic-operator-kstreams},1652349905,0
{consumergroup=__strimzi-topic-operator-kstreams},1652349910,0
{consumergroup=__strimzi-topic-operator-kstreams},1652349915,0
{consumergroup=__strimzi-topic-operator-kstreams},1652349920,0
{consumergroup=__strimzi-topic-operator-kstreams},1652349925,0
{consumergroup=__strimzi-topic-operator-kstreams},1652349930,0
{consumergroup=__strimzi-topic-operator-kstreams},1652349935,0
{consumergroup=__strimzi-topic-operator-kstreams},1652349940,0
{consumergroup=__strimzi-topic-operator-kstreams},1652349945,0
{consumergroup=__strimzi-topic-operator-kstreams},1652349950,0
{consumergroup=__strimzi-topic-operator-kstreams},1652349955,0
{consumergroup=__strimzi-topic-operator-kstreams},1652349960,0
{consumergroup=__strimzi-topic-operator-kstreams},1652349965,0
{consumergroup=__strimzi-topic-operator-kstreams},1652349970,0
{consumergroup=__strimzi-topic-operator-kstreams},1652349975,0
{consumergroup=__strimzi-topic-operator-kstreams},1652349980,0
{consumergroup=__strimzi-topic-operator-kstreams},1652349985,0
{consumergroup=__strimzi-topic-operator-kstreams},1652349990,0
{consumergroup=__strimzi-topic-operator-kstreams},1652349995,0
{consumergroup=__strimzi-topic-operator-kstreams},1652350000,0
{consumergroup=__strimzi-topic-operator-kstreams},1652350005,0
{consumergroup=__strimzi-topic-operator-kstreams},1652350010,0
{consumergroup=__strimzi-topic-operator-kstreams},1652350015,0
{consumergroup=__strimzi-topic-operator-kstreams},1652350020,0
{consumergroup=__strimzi-topic-operator-kstreams},1652350025,0
{consumergroup=__strimzi-topic-operator-kstreams},1652350030,0
{consumergroup=__strimzi-topic-operator-kstreams},1652350035,0
{consumergroup=__strimzi-topic-operator-kstreams},1652350040,0
{consumergroup=__strimzi-topic-operator-kstreams},1652350045,0
{consumergroup=__strimzi-topic-operator-kstreams},1652350050,0
{consumergroup=__strimzi-topic-operator-kstreams},1652350055,0
{consumergroup=__strimzi-topic-operator-kstreams},1652350060,0
{consumergroup=adapter-service},1652349870,890
{consumergroup=adapter-service},1652349875,890
{consumergroup=adapter-service},1652349880,890
{consumergroup=adapter-service},1652349885,7389
{consumergroup=adapter-service},1652349890,7389
{consumergroup=adapter-service},1652349895,7389
{consumergroup=adapter-service},1652349900,8335
{consumergroup=adapter-service},1652349905,8335
{consumergroup=adapter-service},1652349910,8335
{consumergroup=adapter-service},1652349915,8651
{consumergroup=adapter-service},1652349920,8651
{consumergroup=adapter-service},1652349925,8651
{consumergroup=adapter-service},1652349930,8938
{consumergroup=adapter-service},1652349935,8938
{consumergroup=adapter-service},1652349940,8938
{consumergroup=adapter-service},1652349945,9835
{consumergroup=adapter-service},1652349950,9835
{consumergroup=adapter-service},1652349955,9835
{consumergroup=adapter-service},1652349960,10616
{consumergroup=adapter-service},1652349965,10616
{consumergroup=adapter-service},1652349970,10616
{consumergroup=adapter-service},1652349975,20582
{consumergroup=adapter-service},1652349980,20582
{consumergroup=adapter-service},1652349985,20582
{consumergroup=adapter-service},1652349990,22621
{consumergroup=adapter-service},1652349995,22621
{consumergroup=adapter-service},1652350000,22621
{consumergroup=adapter-service},1652350005,29974
{consumergroup=adapter-service},1652350010,29974
{consumergroup=adapter-service},1652350015,29974
{consumergroup=adapter-service},1652350020,49802
{consumergroup=adapter-service},1652350025,49802
{consumergroup=adapter-service},1652350030,49802
{consumergroup=adapter-service},1652350035,62137
{consumergroup=adapter-service},1652350040,62137
{consumergroup=adapter-service},1652350045,62137
{consumergroup=adapter-service},1652350050,74318
{consumergroup=adapter-service},1652350055,74318
{consumergroup=adapter-service},1652350060,74318
{consumergroup=trace-service},1652349915,173
{consumergroup=trace-service},1652349920,173
{consumergroup=trace-service},1652349925,173
{consumergroup=trace-service},1652349930,1273
{consumergroup=trace-service},1652349935,1273
{consumergroup=trace-service},1652349940,1273
{consumergroup=trace-service},1652349945,3580
{consumergroup=trace-service},1652349950,3580
{consumergroup=trace-service},1652349955,3580
{consumergroup=trace-service},1652349960,6514
{consumergroup=trace-service},1652349965,6514
{consumergroup=trace-service},1652349970,6514
{consumergroup=trace-service},1652349975,10340
{consumergroup=trace-service},1652349980,10340
{consumergroup=trace-service},1652349985,10340
{consumergroup=trace-service},1652349990,14637
{consumergroup=trace-service},1652349995,14637
{consumergroup=trace-service},1652350000,14637
{consumergroup=trace-service},1652350005,20051
{consumergroup=trace-service},1652350010,20051
{consumergroup=trace-service},1652350015,20051
{consumergroup=trace-service},1652350020,23827
{consumergroup=trace-service},1652350025,23827
{consumergroup=trace-service},1652350030,23827
{consumergroup=trace-service},1652350035,33682
{consumergroup=trace-service},1652350040,33682
{consumergroup=trace-service},1652350045,33682
{consumergroup=trace-service},1652350050,43783
{consumergroup=trace-service},1652350055,43783
{consumergroup=trace-service},1652350060,43783
