labels,timestamp,value
{consumergroup=__strimzi-topic-operator-kstreams},1651985333,8
{consumergroup=__strimzi-topic-operator-kstreams},1651985338,8
{consumergroup=__strimzi-topic-operator-kstreams},1651985343,8
{consumergroup=__strimzi-topic-operator-kstreams},1651985348,10
{consumergroup=__strimzi-topic-operator-kstreams},1651985353,10
{consumergroup=__strimzi-topic-operator-kstreams},1651985358,10
{consumergroup=__strimzi-topic-operator-kstreams},1651985363,0
{consumergroup=__strimzi-topic-operator-kstreams},1651985368,0
{consumergroup=__strimzi-topic-operator-kstreams},1651985373,0
{consumergroup=__strimzi-topic-operator-kstreams},1651985378,0
{consumergroup=__strimzi-topic-operator-kstreams},1651985383,0
{consumergroup=__strimzi-topic-operator-kstreams},1651985388,0
{consumergroup=__strimzi-topic-operator-kstreams},1651985393,1
{consumergroup=__strimzi-topic-operator-kstreams},1651985398,1
{consumergroup=__strimzi-topic-operator-kstreams},1651985403,1
{consumergroup=__strimzi-topic-operator-kstreams},1651985408,1
{consumergroup=__strimzi-topic-operator-kstreams},1651985413,1
{consumergroup=__strimzi-topic-operator-kstreams},1651985418,1
{consumergroup=__strimzi-topic-operator-kstreams},1651985423,0
{consumergroup=__strimzi-topic-operator-kstreams},1651985428,0
{consumergroup=__strimzi-topic-operator-kstreams},1651985433,0
{consumergroup=__strimzi-topic-operator-kstreams},1651985438,0
{consumergroup=__strimzi-topic-operator-kstreams},1651985443,0
{consumergroup=__strimzi-topic-operator-kstreams},1651985448,0
{consumergroup=__strimzi-topic-operator-kstreams},1651985453,0
{consumergroup=__strimzi-topic-operator-kstreams},1651985458,0
{consumergroup=__strimzi-topic-operator-kstreams},1651985463,0
{consumergroup=__strimzi-topic-operator-kstreams},1651985468,0
{consumergroup=__strimzi-topic-operator-kstreams},1651985473,0
{consumergroup=__strimzi-topic-operator-kstreams},1651985478,0
{consumergroup=__strimzi-topic-operator-kstreams},1651985483,0
{consumergroup=__strimzi-topic-operator-kstreams},1651985488,0
{consumergroup=__strimzi-topic-operator-kstreams},1651985493,0
{consumergroup=__strimzi-topic-operator-kstreams},1651985498,0
{consumergroup=__strimzi-topic-operator-kstreams},1651985503,0
{consumergroup=__strimzi-topic-operator-kstreams},1651985508,0
{consumergroup=__strimzi-topic-operator-kstreams},1651985513,0
{consumergroup=__strimzi-topic-operator-kstreams},1651985518,0
{consumergroup=__strimzi-topic-operator-kstreams},1651985523,0
{consumergroup=__strimzi-topic-operator-kstreams},1651985528,0
{consumergroup=__strimzi-topic-operator-kstreams},1651985533,0
{consumergroup=__strimzi-topic-operator-kstreams},1651985538,0
{consumergroup=__strimzi-topic-operator-kstreams},1651985543,0
{consumergroup=__strimzi-topic-operator-kstreams},1651985548,0
{consumergroup=__strimzi-topic-operator-kstreams},1651985553,0
{consumergroup=__strimzi-topic-operator-kstreams},1651985558,0
{consumergroup=__strimzi-topic-operator-kstreams},1651985563,0
{consumergroup=__strimzi-topic-operator-kstreams},1651985568,0
{consumergroup=__strimzi-topic-operator-kstreams},1651985573,0
{consumergroup=__strimzi-topic-operator-kstreams},1651985578,0
{consumergroup=__strimzi-topic-operator-kstreams},1651985583,0
{consumergroup=__strimzi-topic-operator-kstreams},1651985588,0
{consumergroup=__strimzi-topic-operator-kstreams},1651985593,0
{consumergroup=__strimzi-topic-operator-kstreams},1651985598,0
{consumergroup=__strimzi-topic-operator-kstreams},1651985603,0
{consumergroup=__strimzi-topic-operator-kstreams},1651985608,0
{consumergroup=__strimzi-topic-operator-kstreams},1651985613,0
{consumergroup=__strimzi-topic-operator-kstreams},1651985618,0
{consumergroup=__strimzi-topic-operator-kstreams},1651985623,0
{consumergroup=__strimzi-topic-operator-kstreams},1651985628,0
{consumergroup=__strimzi-topic-operator-kstreams},1651985633,0
{consumergroup=__strimzi-topic-operator-kstreams},1651985638,0
{consumergroup=__strimzi-topic-operator-kstreams},1651985643,0
{consumergroup=__strimzi-topic-operator-kstreams},1651985648,0
{consumergroup=__strimzi-topic-operator-kstreams},1651985653,0
{consumergroup=__strimzi-topic-operator-kstreams},1651985658,0
{consumergroup=__strimzi-topic-operator-kstreams},1651985663,0
{consumergroup=__strimzi-topic-operator-kstreams},1651985668,0
{consumergroup=__strimzi-topic-operator-kstreams},1651985673,0
{consumergroup=__strimzi-topic-operator-kstreams},1651985678,0
{consumergroup=__strimzi-topic-operator-kstreams},1651985683,0
{consumergroup=__strimzi-topic-operator-kstreams},1651985688,0
{consumergroup=__strimzi-topic-operator-kstreams},1651985693,0
{consumergroup=__strimzi-topic-operator-kstreams},1651985698,0
{consumergroup=__strimzi-topic-operator-kstreams},1651985703,0
{consumergroup=__strimzi-topic-operator-kstreams},1651985708,0
{consumergroup=__strimzi-topic-operator-kstreams},1651985713,0
{consumergroup=__strimzi-topic-operator-kstreams},1651985718,0
{consumergroup=__strimzi-topic-operator-kstreams},1651985723,0
{consumergroup=__strimzi-topic-operator-kstreams},1651985728,0
{consumergroup=__strimzi-topic-operator-kstreams},1651985733,0
{consumergroup=__strimzi-topic-operator-kstreams},1651985738,0
{consumergroup=__strimzi-topic-operator-kstreams},1651985743,0
{consumergroup=__strimzi-topic-operator-kstreams},1651985748,0
{consumergroup=__strimzi-topic-operator-kstreams},1651985753,0
{consumergroup=__strimzi-topic-operator-kstreams},1651985758,0
{consumergroup=__strimzi-topic-operator-kstreams},1651985763,0
{consumergroup=__strimzi-topic-operator-kstreams},1651985768,0
{consumergroup=__strimzi-topic-operator-kstreams},1651985773,0
{consumergroup=adapter-service},1651985363,0
{consumergroup=adapter-service},1651985368,0
{consumergroup=adapter-service},1651985373,0
{consumergroup=adapter-service},1651985378,3347
{consumergroup=adapter-service},1651985383,3347
{consumergroup=adapter-service},1651985388,3347
{consumergroup=adapter-service},1651985393,3200
{consumergroup=adapter-service},1651985398,3200
{consumergroup=adapter-service},1651985403,3200
{consumergroup=adapter-service},1651985408,1955
{consumergroup=adapter-service},1651985413,1955
{consumergroup=adapter-service},1651985418,1955
{consumergroup=adapter-service},1651985423,1246
{consumergroup=adapter-service},1651985428,1246
{consumergroup=adapter-service},1651985433,1246
{consumergroup=adapter-service},1651985438,1918
{consumergroup=adapter-service},1651985443,1918
{consumergroup=adapter-service},1651985448,1918
{consumergroup=adapter-service},1651985453,924
{consumergroup=adapter-service},1651985458,924
{consumergroup=adapter-service},1651985463,924
{consumergroup=adapter-service},1651985468,812
{consumergroup=adapter-service},1651985473,812
{consumergroup=adapter-service},1651985478,812
{consumergroup=adapter-service},1651985483,1079
{consumergroup=adapter-service},1651985488,1079
{consumergroup=adapter-service},1651985493,1079
{consumergroup=adapter-service},1651985498,281
{consumergroup=adapter-service},1651985503,281
{consumergroup=adapter-service},1651985508,281
{consumergroup=adapter-service},1651985513,185
{consumergroup=adapter-service},1651985518,185
{consumergroup=adapter-service},1651985523,185
{consumergroup=adapter-service},1651985528,5083
{consumergroup=adapter-service},1651985533,5083
{consumergroup=adapter-service},1651985538,5083
{consumergroup=adapter-service},1651985543,5289
{consumergroup=adapter-service},1651985548,5289
{consumergroup=adapter-service},1651985553,5289
{consumergroup=adapter-service},1651985558,7800
{consumergroup=adapter-service},1651985563,7800
{consumergroup=adapter-service},1651985568,7800
{consumergroup=adapter-service},1651985573,9789
{consumergroup=adapter-service},1651985578,9789
{consumergroup=adapter-service},1651985583,9789
{consumergroup=adapter-service},1651985588,9834
{consumergroup=adapter-service},1651985593,9834
{consumergroup=adapter-service},1651985598,9834
{consumergroup=adapter-service},1651985603,12296
{consumergroup=adapter-service},1651985608,12296
{consumergroup=adapter-service},1651985613,12296
{consumergroup=adapter-service},1651985618,11390
{consumergroup=adapter-service},1651985623,11390
{consumergroup=adapter-service},1651985628,11390
{consumergroup=adapter-service},1651985633,13434
{consumergroup=adapter-service},1651985638,13434
{consumergroup=adapter-service},1651985643,13434
{consumergroup=adapter-service},1651985648,13342
{consumergroup=adapter-service},1651985653,13342
{consumergroup=adapter-service},1651985658,13342
{consumergroup=adapter-service},1651985663,12903
{consumergroup=adapter-service},1651985668,12903
{consumergroup=adapter-service},1651985673,12903
{consumergroup=adapter-service},1651985678,13677
{consumergroup=adapter-service},1651985683,13677
{consumergroup=adapter-service},1651985688,13677
{consumergroup=adapter-service},1651985693,12380
{consumergroup=adapter-service},1651985698,12380
{consumergroup=adapter-service},1651985703,12380
{consumergroup=adapter-service},1651985708,12256
{consumergroup=adapter-service},1651985713,12256
{consumergroup=adapter-service},1651985718,12256
{consumergroup=adapter-service},1651985723,12067
{consumergroup=adapter-service},1651985728,12067
{consumergroup=adapter-service},1651985733,12067
{consumergroup=adapter-service},1651985738,11639
{consumergroup=adapter-service},1651985743,11639
{consumergroup=adapter-service},1651985748,11639
{consumergroup=adapter-service},1651985753,11209
{consumergroup=adapter-service},1651985758,11209
{consumergroup=adapter-service},1651985763,11209
{consumergroup=adapter-service},1651985768,11905
{consumergroup=adapter-service},1651985773,11905
{consumergroup=landscape-service},1651985378,5466
{consumergroup=landscape-service},1651985383,5466
{consumergroup=landscape-service},1651985388,5466
{consumergroup=landscape-service},1651985393,9498
{consumergroup=landscape-service},1651985398,9498
{consumergroup=landscape-service},1651985403,9498
{consumergroup=landscape-service},1651985408,9226
{consumergroup=landscape-service},1651985413,9226
{consumergroup=landscape-service},1651985418,9226
{consumergroup=landscape-service},1651985423,9753
{consumergroup=landscape-service},1651985428,9753
{consumergroup=landscape-service},1651985433,9753
{consumergroup=landscape-service},1651985438,9009
{consumergroup=landscape-service},1651985443,9009
{consumergroup=landscape-service},1651985448,9009
{consumergroup=landscape-service},1651985453,8997
{consumergroup=landscape-service},1651985458,8997
{consumergroup=landscape-service},1651985463,8997
{consumergroup=landscape-service},1651985468,9893
{consumergroup=landscape-service},1651985473,9893
{consumergroup=landscape-service},1651985478,9893
{consumergroup=landscape-service},1651985483,8917
{consumergroup=landscape-service},1651985488,8917
{consumergroup=landscape-service},1651985493,8917
{consumergroup=landscape-service},1651985498,9301
{consumergroup=landscape-service},1651985503,9301
{consumergroup=landscape-service},1651985508,9301
{consumergroup=landscape-service},1651985513,9360
{consumergroup=landscape-service},1651985518,9360
{consumergroup=landscape-service},1651985523,9360
{consumergroup=landscape-service},1651985528,8869
{consumergroup=landscape-service},1651985533,8869
{consumergroup=landscape-service},1651985538,8869
{consumergroup=landscape-service},1651985543,8673
{consumergroup=landscape-service},1651985548,8673
{consumergroup=landscape-service},1651985553,8673
{consumergroup=landscape-service},1651985558,8640
{consumergroup=landscape-service},1651985563,8640
{consumergroup=landscape-service},1651985568,8640
{consumergroup=landscape-service},1651985573,9092
{consumergroup=landscape-service},1651985578,9092
{consumergroup=landscape-service},1651985583,9092
{consumergroup=landscape-service},1651985588,8630
{consumergroup=landscape-service},1651985593,8630
{consumergroup=landscape-service},1651985598,8630
{consumergroup=landscape-service},1651985603,13259
{consumergroup=landscape-service},1651985608,13259
{consumergroup=landscape-service},1651985613,13259
{consumergroup=landscape-service},1651985618,14103
{consumergroup=landscape-service},1651985623,14103
{consumergroup=landscape-service},1651985628,14103
{consumergroup=landscape-service},1651985633,13005
{consumergroup=landscape-service},1651985638,13005
{consumergroup=landscape-service},1651985643,13005
{consumergroup=landscape-service},1651985648,9857
{consumergroup=landscape-service},1651985653,9857
{consumergroup=landscape-service},1651985658,9857
{consumergroup=landscape-service},1651985663,10386
{consumergroup=landscape-service},1651985668,10386
{consumergroup=landscape-service},1651985673,10386
{consumergroup=landscape-service},1651985678,9540
{consumergroup=landscape-service},1651985683,9540
{consumergroup=landscape-service},1651985688,9540
{consumergroup=landscape-service},1651985693,9415
{consumergroup=landscape-service},1651985698,9415
{consumergroup=landscape-service},1651985703,9415
{consumergroup=landscape-service},1651985708,10275
{consumergroup=landscape-service},1651985713,10275
{consumergroup=landscape-service},1651985718,10275
{consumergroup=landscape-service},1651985723,10076
{consumergroup=landscape-service},1651985728,10076
{consumergroup=landscape-service},1651985733,10076
{consumergroup=landscape-service},1651985738,9305
{consumergroup=landscape-service},1651985743,9305
{consumergroup=landscape-service},1651985748,9305
{consumergroup=landscape-service},1651985753,9036
{consumergroup=landscape-service},1651985758,9036
{consumergroup=landscape-service},1651985763,9036
{consumergroup=landscape-service},1651985768,9173
{consumergroup=landscape-service},1651985773,9173
{consumergroup=landscape-token-events-consumer},1651985363,0
{consumergroup=landscape-token-events-consumer},1651985368,0
{consumergroup=landscape-token-events-consumer},1651985373,0
{consumergroup=landscape-token-events-consumer},1651985378,0
{consumergroup=landscape-token-events-consumer},1651985383,0
{consumergroup=landscape-token-events-consumer},1651985388,0
{consumergroup=landscape-token-events-consumer},1651985393,0
{consumergroup=landscape-token-events-consumer},1651985398,0
{consumergroup=landscape-token-events-consumer},1651985403,0
{consumergroup=landscape-token-events-consumer},1651985408,0
{consumergroup=landscape-token-events-consumer},1651985413,0
{consumergroup=landscape-token-events-consumer},1651985418,0
{consumergroup=landscape-token-events-consumer},1651985423,0
{consumergroup=landscape-token-events-consumer},1651985428,0
{consumergroup=landscape-token-events-consumer},1651985433,0
{consumergroup=landscape-token-events-consumer},1651985438,0
{consumergroup=landscape-token-events-consumer},1651985443,0
{consumergroup=landscape-token-events-consumer},1651985448,0
{consumergroup=landscape-token-events-consumer},1651985453,0
{consumergroup=landscape-token-events-consumer},1651985458,0
{consumergroup=landscape-token-events-consumer},1651985463,0
{consumergroup=landscape-token-events-consumer},1651985468,0
{consumergroup=landscape-token-events-consumer},1651985473,0
{consumergroup=landscape-token-events-consumer},1651985478,0
{consumergroup=landscape-token-events-consumer},1651985483,0
{consumergroup=landscape-token-events-consumer},1651985488,0
{consumergroup=landscape-token-events-consumer},1651985493,0
{consumergroup=landscape-token-events-consumer},1651985498,0
{consumergroup=landscape-token-events-consumer},1651985503,0
{consumergroup=landscape-token-events-consumer},1651985508,0
{consumergroup=landscape-token-events-consumer},1651985513,0
{consumergroup=landscape-token-events-consumer},1651985518,0
{consumergroup=landscape-token-events-consumer},1651985523,0
{consumergroup=landscape-token-events-consumer},1651985528,0
{consumergroup=landscape-token-events-consumer},1651985533,0
{consumergroup=landscape-token-events-consumer},1651985538,0
{consumergroup=landscape-token-events-consumer},1651985543,0
{consumergroup=landscape-token-events-consumer},1651985548,0
{consumergroup=landscape-token-events-consumer},1651985553,0
{consumergroup=landscape-token-events-consumer},1651985558,0
{consumergroup=landscape-token-events-consumer},1651985563,0
{consumergroup=landscape-token-events-consumer},1651985568,0
{consumergroup=landscape-token-events-consumer},1651985573,0
{consumergroup=landscape-token-events-consumer},1651985578,0
{consumergroup=landscape-token-events-consumer},1651985583,0
{consumergroup=landscape-token-events-consumer},1651985588,0
{consumergroup=landscape-token-events-consumer},1651985593,0
{consumergroup=landscape-token-events-consumer},1651985598,0
{consumergroup=landscape-token-events-consumer},1651985603,0
{consumergroup=landscape-token-events-consumer},1651985608,0
{consumergroup=landscape-token-events-consumer},1651985613,0
{consumergroup=landscape-token-events-consumer},1651985618,0
{consumergroup=landscape-token-events-consumer},1651985623,0
{consumergroup=landscape-token-events-consumer},1651985628,0
{consumergroup=landscape-token-events-consumer},1651985633,0
{consumergroup=landscape-token-events-consumer},1651985638,0
{consumergroup=landscape-token-events-consumer},1651985643,0
{consumergroup=landscape-token-events-consumer},1651985648,0
{consumergroup=landscape-token-events-consumer},1651985653,0
{consumergroup=landscape-token-events-consumer},1651985658,0
{consumergroup=landscape-token-events-consumer},1651985663,0
{consumergroup=landscape-token-events-consumer},1651985668,0
{consumergroup=landscape-token-events-consumer},1651985673,0
{consumergroup=landscape-token-events-consumer},1651985678,0
{consumergroup=landscape-token-events-consumer},1651985683,0
{consumergroup=landscape-token-events-consumer},1651985688,0
{consumergroup=landscape-token-events-consumer},1651985693,0
{consumergroup=landscape-token-events-consumer},1651985698,0
{consumergroup=landscape-token-events-consumer},1651985703,0
{consumergroup=landscape-token-events-consumer},1651985708,0
{consumergroup=landscape-token-events-consumer},1651985713,0
{consumergroup=landscape-token-events-consumer},1651985718,0
{consumergroup=landscape-token-events-consumer},1651985723,0
{consumergroup=landscape-token-events-consumer},1651985728,0
{consumergroup=landscape-token-events-consumer},1651985733,0
{consumergroup=landscape-token-events-consumer},1651985738,0
{consumergroup=landscape-token-events-consumer},1651985743,0
{consumergroup=landscape-token-events-consumer},1651985748,0
{consumergroup=landscape-token-events-consumer},1651985753,0
{consumergroup=landscape-token-events-consumer},1651985758,0
{consumergroup=landscape-token-events-consumer},1651985763,0
{consumergroup=landscape-token-events-consumer},1651985768,0
{consumergroup=landscape-token-events-consumer},1651985773,0
{consumergroup=trace-service},1651985378,49019
{consumergroup=trace-service},1651985383,49019
{consumergroup=trace-service},1651985388,49019
{consumergroup=trace-service},1651985393,93129
{consumergroup=trace-service},1651985398,93129
{consumergroup=trace-service},1651985403,93129
{consumergroup=trace-service},1651985408,41794
{consumergroup=trace-service},1651985413,41794
{consumergroup=trace-service},1651985418,41794
{consumergroup=trace-service},1651985423,77200
{consumergroup=trace-service},1651985428,77200
{consumergroup=trace-service},1651985433,77200
{consumergroup=trace-service},1651985438,33431
{consumergroup=trace-service},1651985443,33431
{consumergroup=trace-service},1651985448,33431
{consumergroup=trace-service},1651985453,71969
{consumergroup=trace-service},1651985458,71969
{consumergroup=trace-service},1651985463,71969
{consumergroup=trace-service},1651985468,32431
{consumergroup=trace-service},1651985473,32431
{consumergroup=trace-service},1651985478,32431
{consumergroup=trace-service},1651985483,63905
{consumergroup=trace-service},1651985488,63905
{consumergroup=trace-service},1651985493,63905
{consumergroup=trace-service},1651985498,32328
{consumergroup=trace-service},1651985503,32328
{consumergroup=trace-service},1651985508,32328
{consumergroup=trace-service},1651985513,37925
{consumergroup=trace-service},1651985518,37925
{consumergroup=trace-service},1651985523,37925
{consumergroup=trace-service},1651985528,32177
{consumergroup=trace-service},1651985533,32177
{consumergroup=trace-service},1651985538,32177
{consumergroup=trace-service},1651985543,49457
{consumergroup=trace-service},1651985548,49457
{consumergroup=trace-service},1651985553,49457
{consumergroup=trace-service},1651985558,33311
{consumergroup=trace-service},1651985563,33311
{consumergroup=trace-service},1651985568,33311
{consumergroup=trace-service},1651985573,19369
{consumergroup=trace-service},1651985578,19369
{consumergroup=trace-service},1651985583,19369
{consumergroup=trace-service},1651985588,31425
{consumergroup=trace-service},1651985593,31425
{consumergroup=trace-service},1651985598,31425
{consumergroup=trace-service},1651985603,74806
{consumergroup=trace-service},1651985608,74806
{consumergroup=trace-service},1651985613,74806
{consumergroup=trace-service},1651985618,33061
{consumergroup=trace-service},1651985623,33061
{consumergroup=trace-service},1651985628,33061
{consumergroup=trace-service},1651985633,13410
{consumergroup=trace-service},1651985638,13410
{consumergroup=trace-service},1651985643,13410
{consumergroup=trace-service},1651985648,31646
{consumergroup=trace-service},1651985653,31646
{consumergroup=trace-service},1651985658,31646
{consumergroup=trace-service},1651985663,13314
{consumergroup=trace-service},1651985668,13314
{consumergroup=trace-service},1651985673,13314
{consumergroup=trace-service},1651985678,33406
{consumergroup=trace-service},1651985683,33406
{consumergroup=trace-service},1651985688,33406
{consumergroup=trace-service},1651985693,96238
{consumergroup=trace-service},1651985698,96238
{consumergroup=trace-service},1651985703,96238
{consumergroup=trace-service},1651985708,32680
{consumergroup=trace-service},1651985713,32680
{consumergroup=trace-service},1651985718,32680
{consumergroup=trace-service},1651985723,58765
{consumergroup=trace-service},1651985728,58765
{consumergroup=trace-service},1651985733,58765
{consumergroup=trace-service},1651985738,31979
{consumergroup=trace-service},1651985743,31979
{consumergroup=trace-service},1651985748,31979
{consumergroup=trace-service},1651985753,29132
{consumergroup=trace-service},1651985758,29132
{consumergroup=trace-service},1651985763,29132
{consumergroup=trace-service},1651985768,31804
{consumergroup=trace-service},1651985773,31804
{consumergroup=trace-token-events-consumer},1651985363,0
{consumergroup=trace-token-events-consumer},1651985368,0
{consumergroup=trace-token-events-consumer},1651985373,0
{consumergroup=trace-token-events-consumer},1651985378,0
{consumergroup=trace-token-events-consumer},1651985383,0
{consumergroup=trace-token-events-consumer},1651985388,0
{consumergroup=trace-token-events-consumer},1651985393,0
{consumergroup=trace-token-events-consumer},1651985398,0
{consumergroup=trace-token-events-consumer},1651985403,0
{consumergroup=trace-token-events-consumer},1651985408,0
{consumergroup=trace-token-events-consumer},1651985413,0
{consumergroup=trace-token-events-consumer},1651985418,0
{consumergroup=trace-token-events-consumer},1651985423,0
{consumergroup=trace-token-events-consumer},1651985428,0
{consumergroup=trace-token-events-consumer},1651985433,0
{consumergroup=trace-token-events-consumer},1651985438,0
{consumergroup=trace-token-events-consumer},1651985443,0
{consumergroup=trace-token-events-consumer},1651985448,0
{consumergroup=trace-token-events-consumer},1651985453,0
{consumergroup=trace-token-events-consumer},1651985458,0
{consumergroup=trace-token-events-consumer},1651985463,0
{consumergroup=trace-token-events-consumer},1651985468,0
{consumergroup=trace-token-events-consumer},1651985473,0
{consumergroup=trace-token-events-consumer},1651985478,0
{consumergroup=trace-token-events-consumer},1651985483,0
{consumergroup=trace-token-events-consumer},1651985488,0
{consumergroup=trace-token-events-consumer},1651985493,0
{consumergroup=trace-token-events-consumer},1651985498,0
{consumergroup=trace-token-events-consumer},1651985503,0
{consumergroup=trace-token-events-consumer},1651985508,0
{consumergroup=trace-token-events-consumer},1651985513,0
{consumergroup=trace-token-events-consumer},1651985518,0
{consumergroup=trace-token-events-consumer},1651985523,0
{consumergroup=trace-token-events-consumer},1651985528,0
{consumergroup=trace-token-events-consumer},1651985533,0
{consumergroup=trace-token-events-consumer},1651985538,0
{consumergroup=trace-token-events-consumer},1651985543,0
{consumergroup=trace-token-events-consumer},1651985548,0
{consumergroup=trace-token-events-consumer},1651985553,0
{consumergroup=trace-token-events-consumer},1651985558,0
{consumergroup=trace-token-events-consumer},1651985563,0
{consumergroup=trace-token-events-consumer},1651985568,0
{consumergroup=trace-token-events-consumer},1651985573,0
{consumergroup=trace-token-events-consumer},1651985578,0
{consumergroup=trace-token-events-consumer},1651985583,0
{consumergroup=trace-token-events-consumer},1651985588,0
{consumergroup=trace-token-events-consumer},1651985593,0
{consumergroup=trace-token-events-consumer},1651985598,0
{consumergroup=trace-token-events-consumer},1651985603,0
{consumergroup=trace-token-events-consumer},1651985608,0
{consumergroup=trace-token-events-consumer},1651985613,0
{consumergroup=trace-token-events-consumer},1651985618,0
{consumergroup=trace-token-events-consumer},1651985623,0
{consumergroup=trace-token-events-consumer},1651985628,0
{consumergroup=trace-token-events-consumer},1651985633,0
{consumergroup=trace-token-events-consumer},1651985638,0
{consumergroup=trace-token-events-consumer},1651985643,0
{consumergroup=trace-token-events-consumer},1651985648,0
{consumergroup=trace-token-events-consumer},1651985653,0
{consumergroup=trace-token-events-consumer},1651985658,0
{consumergroup=trace-token-events-consumer},1651985663,0
{consumergroup=trace-token-events-consumer},1651985668,0
{consumergroup=trace-token-events-consumer},1651985673,0
{consumergroup=trace-token-events-consumer},1651985678,0
{consumergroup=trace-token-events-consumer},1651985683,0
{consumergroup=trace-token-events-consumer},1651985688,0
{consumergroup=trace-token-events-consumer},1651985693,0
{consumergroup=trace-token-events-consumer},1651985698,0
{consumergroup=trace-token-events-consumer},1651985703,0
{consumergroup=trace-token-events-consumer},1651985708,0
{consumergroup=trace-token-events-consumer},1651985713,0
{consumergroup=trace-token-events-consumer},1651985718,0
{consumergroup=trace-token-events-consumer},1651985723,0
{consumergroup=trace-token-events-consumer},1651985728,0
{consumergroup=trace-token-events-consumer},1651985733,0
{consumergroup=trace-token-events-consumer},1651985738,0
{consumergroup=trace-token-events-consumer},1651985743,0
{consumergroup=trace-token-events-consumer},1651985748,0
{consumergroup=trace-token-events-consumer},1651985753,0
{consumergroup=trace-token-events-consumer},1651985758,0
{consumergroup=trace-token-events-consumer},1651985763,0
{consumergroup=trace-token-events-consumer},1651985768,0
{consumergroup=trace-token-events-consumer},1651985773,0
