labels,timestamp,value
{job=theodolite-stu200776/combined-trace-podmonitor},1651957867,0
{job=theodolite-stu200776/combined-trace-podmonitor},1651957872,0
{job=theodolite-stu200776/combined-trace-podmonitor},1651957877,0
{job=theodolite-stu200776/combined-trace-podmonitor},1651957882,0
{job=theodolite-stu200776/combined-trace-podmonitor},1651957887,0
{job=theodolite-stu200776/combined-trace-podmonitor},1651957892,0
{job=theodolite-stu200776/combined-trace-podmonitor},1651957897,0
{job=theodolite-stu200776/combined-trace-podmonitor},1651957902,0
{job=theodolite-stu200776/combined-trace-podmonitor},1651957907,0
{job=theodolite-stu200776/combined-trace-podmonitor},1651957912,0
{job=theodolite-stu200776/combined-trace-podmonitor},1651957917,0
{job=theodolite-stu200776/combined-trace-podmonitor},1651957922,0
{job=theodolite-stu200776/combined-trace-podmonitor},1651957927,0
{job=theodolite-stu200776/combined-trace-podmonitor},1651957932,0
{job=theodolite-stu200776/combined-trace-podmonitor},1651957937,0
{job=theodolite-stu200776/combined-trace-podmonitor},1651957942,0
{job=theodolite-stu200776/combined-trace-podmonitor},1651957947,0
{job=theodolite-stu200776/combined-trace-podmonitor},1651957952,0
{job=theodolite-stu200776/combined-trace-podmonitor},1651957957,0
{job=theodolite-stu200776/combined-trace-podmonitor},1651957962,0
{job=theodolite-stu200776/combined-trace-podmonitor},1651957967,0
{job=theodolite-stu200776/combined-trace-podmonitor},1651957972,0
{job=theodolite-stu200776/combined-trace-podmonitor},1651957977,0
{job=theodolite-stu200776/combined-trace-podmonitor},1651957982,0
{job=theodolite-stu200776/combined-trace-podmonitor},1651957987,0
{job=theodolite-stu200776/combined-trace-podmonitor},1651957992,0
{job=theodolite-stu200776/combined-trace-podmonitor},1651957997,0
{job=theodolite-stu200776/combined-trace-podmonitor},1651958002,0
{job=theodolite-stu200776/combined-trace-podmonitor},1651958007,0
{job=theodolite-stu200776/combined-trace-podmonitor},1651958012,0
{job=theodolite-stu200776/combined-trace-podmonitor},1651958017,0
{job=theodolite-stu200776/combined-trace-podmonitor},1651958022,0
{job=theodolite-stu200776/combined-trace-podmonitor},1651958027,0
{job=theodolite-stu200776/combined-trace-podmonitor},1651958032,0
{job=theodolite-stu200776/combined-trace-podmonitor},1651958037,0
{job=theodolite-stu200776/combined-trace-podmonitor},1651958042,0
{job=theodolite-stu200776/combined-trace-podmonitor},1651958047,0
{job=theodolite-stu200776/combined-trace-podmonitor},1651958052,0
{job=theodolite-stu200776/combined-trace-podmonitor},1651958057,0
{job=theodolite-stu200776/combined-trace-podmonitor},1651958062,0
{job=theodolite-stu200776/combined-trace-podmonitor},1651958067,0
{job=theodolite-stu200776/combined-trace-podmonitor},1651958072,0
{job=theodolite-stu200776/combined-trace-podmonitor},1651958077,0
{job=theodolite-stu200776/combined-trace-podmonitor},1651958082,0
{job=theodolite-stu200776/combined-trace-podmonitor},1651958087,0
{job=theodolite-stu200776/combined-trace-podmonitor},1651958092,0
{job=theodolite-stu200776/combined-trace-podmonitor},1651958097,0
{job=theodolite-stu200776/combined-trace-podmonitor},1651958102,0
{job=theodolite-stu200776/combined-trace-podmonitor},1651958107,0
{job=theodolite-stu200776/combined-trace-podmonitor},1651958112,0
{job=theodolite-stu200776/combined-trace-podmonitor},1651958117,0
{job=theodolite-stu200776/combined-trace-podmonitor},1651958122,0
{job=theodolite-stu200776/combined-trace-podmonitor},1651958127,0
{job=theodolite-stu200776/combined-trace-podmonitor},1651958132,0
{job=theodolite-stu200776/combined-trace-podmonitor},1651958137,0
{job=theodolite-stu200776/combined-trace-podmonitor},1651958142,0
{job=theodolite-stu200776/combined-trace-podmonitor},1651958147,0
{job=theodolite-stu200776/combined-trace-podmonitor},1651958152,0
{job=theodolite-stu200776/combined-trace-podmonitor},1651958157,0
{job=theodolite-stu200776/combined-trace-podmonitor},1651958162,0
{job=theodolite-stu200776/combined-trace-podmonitor},1651958167,0
{job=theodolite-stu200776/combined-trace-podmonitor},1651958172,0
{job=theodolite-stu200776/combined-trace-podmonitor},1651958177,0
{job=theodolite-stu200776/combined-trace-podmonitor},1651958182,0
{job=theodolite-stu200776/combined-trace-podmonitor},1651958187,0
{job=theodolite-stu200776/combined-trace-podmonitor},1651958192,0
{job=theodolite-stu200776/combined-trace-podmonitor},1651958197,0
{job=theodolite-stu200776/combined-trace-podmonitor},1651958202,0
{job=theodolite-stu200776/combined-trace-podmonitor},1651958207,0
{job=theodolite-stu200776/combined-trace-podmonitor},1651958212,0
{job=theodolite-stu200776/combined-trace-podmonitor},1651958217,0
{job=theodolite-stu200776/combined-trace-podmonitor},1651958222,0
{job=theodolite-stu200776/combined-trace-podmonitor},1651958227,0
{job=theodolite-stu200776/combined-trace-podmonitor},1651958232,0
