labels,timestamp,value
{job=theodolite-stu200776/combined-trace-podmonitor},1652014650,0
{job=theodolite-stu200776/combined-trace-podmonitor},1652014655,0
{job=theodolite-stu200776/combined-trace-podmonitor},1652014660,0
{job=theodolite-stu200776/combined-trace-podmonitor},1652014665,0
{job=theodolite-stu200776/combined-trace-podmonitor},1652014670,0
{job=theodolite-stu200776/combined-trace-podmonitor},1652014675,0
{job=theodolite-stu200776/combined-trace-podmonitor},1652014680,0
{job=theodolite-stu200776/combined-trace-podmonitor},1652014685,0
{job=theodolite-stu200776/combined-trace-podmonitor},1652014690,0
{job=theodolite-stu200776/combined-trace-podmonitor},1652014695,0
{job=theodolite-stu200776/combined-trace-podmonitor},1652014700,0
{job=theodolite-stu200776/combined-trace-podmonitor},1652014705,0
{job=theodolite-stu200776/combined-trace-podmonitor},1652014710,0
{job=theodolite-stu200776/combined-trace-podmonitor},1652014715,0
{job=theodolite-stu200776/combined-trace-podmonitor},1652014720,0
{job=theodolite-stu200776/combined-trace-podmonitor},1652014725,0
{job=theodolite-stu200776/combined-trace-podmonitor},1652014730,0
{job=theodolite-stu200776/combined-trace-podmonitor},1652014735,0
{job=theodolite-stu200776/combined-trace-podmonitor},1652014740,0
{job=theodolite-stu200776/combined-trace-podmonitor},1652014745,0
{job=theodolite-stu200776/combined-trace-podmonitor},1652014750,0
{job=theodolite-stu200776/combined-trace-podmonitor},1652014755,0
{job=theodolite-stu200776/combined-trace-podmonitor},1652014760,0
{job=theodolite-stu200776/combined-trace-podmonitor},1652014765,0
{job=theodolite-stu200776/combined-trace-podmonitor},1652014770,0
{job=theodolite-stu200776/combined-trace-podmonitor},1652014775,0
{job=theodolite-stu200776/combined-trace-podmonitor},1652014780,0
{job=theodolite-stu200776/combined-trace-podmonitor},1652014785,0
{job=theodolite-stu200776/combined-trace-podmonitor},1652014790,0
{job=theodolite-stu200776/combined-trace-podmonitor},1652014795,0
{job=theodolite-stu200776/combined-trace-podmonitor},1652014800,0
{job=theodolite-stu200776/combined-trace-podmonitor},1652014805,0
{job=theodolite-stu200776/combined-trace-podmonitor},1652014810,0
{job=theodolite-stu200776/combined-trace-podmonitor},1652014815,0
{job=theodolite-stu200776/combined-trace-podmonitor},1652014820,0
{job=theodolite-stu200776/combined-trace-podmonitor},1652014825,0
{job=theodolite-stu200776/combined-trace-podmonitor},1652014830,0
{job=theodolite-stu200776/combined-trace-podmonitor},1652014835,0
{job=theodolite-stu200776/combined-trace-podmonitor},1652014840,0
{job=theodolite-stu200776/combined-trace-podmonitor},1652014845,0
{job=theodolite-stu200776/combined-trace-podmonitor},1652014850,0
{job=theodolite-stu200776/combined-trace-podmonitor},1652014855,0
{job=theodolite-stu200776/combined-trace-podmonitor},1652014860,0
{job=theodolite-stu200776/combined-trace-podmonitor},1652014865,0
{job=theodolite-stu200776/combined-trace-podmonitor},1652014870,0
{job=theodolite-stu200776/combined-trace-podmonitor},1652014875,0
{job=theodolite-stu200776/combined-trace-podmonitor},1652014880,0
{job=theodolite-stu200776/combined-trace-podmonitor},1652014885,0
{job=theodolite-stu200776/combined-trace-podmonitor},1652014890,0
{job=theodolite-stu200776/combined-trace-podmonitor},1652014895,0
{job=theodolite-stu200776/combined-trace-podmonitor},1652014900,0
{job=theodolite-stu200776/combined-trace-podmonitor},1652014905,0
{job=theodolite-stu200776/combined-trace-podmonitor},1652014910,0
{job=theodolite-stu200776/combined-trace-podmonitor},1652014915,0
{job=theodolite-stu200776/combined-trace-podmonitor},1652014920,0
{job=theodolite-stu200776/combined-trace-podmonitor},1652014925,0
{job=theodolite-stu200776/combined-trace-podmonitor},1652014930,0
{job=theodolite-stu200776/combined-trace-podmonitor},1652014935,0
{job=theodolite-stu200776/combined-trace-podmonitor},1652014940,0
{job=theodolite-stu200776/combined-trace-podmonitor},1652014945,0
{job=theodolite-stu200776/combined-trace-podmonitor},1652014950,0
{job=theodolite-stu200776/combined-trace-podmonitor},1652014955,0
{job=theodolite-stu200776/combined-trace-podmonitor},1652014960,0
{job=theodolite-stu200776/combined-trace-podmonitor},1652014965,0
{job=theodolite-stu200776/combined-trace-podmonitor},1652014970,0
{job=theodolite-stu200776/combined-trace-podmonitor},1652014975,0
{job=theodolite-stu200776/combined-trace-podmonitor},1652014980,0
{job=theodolite-stu200776/combined-trace-podmonitor},1652014985,0
{job=theodolite-stu200776/combined-trace-podmonitor},1652014990,0
{job=theodolite-stu200776/combined-trace-podmonitor},1652014995,0
{job=theodolite-stu200776/combined-trace-podmonitor},1652015000,0
{job=theodolite-stu200776/combined-trace-podmonitor},1652015005,0
{job=theodolite-stu200776/combined-trace-podmonitor},1652015010,0
{job=theodolite-stu200776/combined-trace-podmonitor},1652015015,0
{job=theodolite-stu200776/combined-trace-podmonitor},1652015020,0
{job=theodolite-stu200776/combined-trace-podmonitor},1652015025,0
{job=theodolite-stu200776/combined-trace-podmonitor},1652015030,0
