labels,timestamp,value
{consumergroup=__strimzi-topic-operator-kstreams},1652343574,0
{consumergroup=__strimzi-topic-operator-kstreams},1652343579,0
{consumergroup=__strimzi-topic-operator-kstreams},1652343584,0
{consumergroup=__strimzi-topic-operator-kstreams},1652343589,0
{consumergroup=__strimzi-topic-operator-kstreams},1652343594,8
{consumergroup=__strimzi-topic-operator-kstreams},1652343599,8
{consumergroup=__strimzi-topic-operator-kstreams},1652343604,8
{consumergroup=__strimzi-topic-operator-kstreams},1652343609,8
{consumergroup=__strimzi-topic-operator-kstreams},1652343614,8
{consumergroup=__strimzi-topic-operator-kstreams},1652343619,8
{consumergroup=__strimzi-topic-operator-kstreams},1652343624,0
{consumergroup=__strimzi-topic-operator-kstreams},1652343629,0
{consumergroup=__strimzi-topic-operator-kstreams},1652343634,0
{consumergroup=__strimzi-topic-operator-kstreams},1652343639,0
{consumergroup=__strimzi-topic-operator-kstreams},1652343644,0
{consumergroup=__strimzi-topic-operator-kstreams},1652343649,0
{consumergroup=__strimzi-topic-operator-kstreams},1652343654,0
{consumergroup=__strimzi-topic-operator-kstreams},1652343659,0
{consumergroup=__strimzi-topic-operator-kstreams},1652343664,0
{consumergroup=__strimzi-topic-operator-kstreams},1652343669,0
{consumergroup=__strimzi-topic-operator-kstreams},1652343674,0
{consumergroup=__strimzi-topic-operator-kstreams},1652343679,0
{consumergroup=__strimzi-topic-operator-kstreams},1652343684,0
{consumergroup=__strimzi-topic-operator-kstreams},1652343689,0
{consumergroup=__strimzi-topic-operator-kstreams},1652343694,0
{consumergroup=__strimzi-topic-operator-kstreams},1652343699,0
{consumergroup=__strimzi-topic-operator-kstreams},1652343704,0
{consumergroup=__strimzi-topic-operator-kstreams},1652343709,0
{consumergroup=__strimzi-topic-operator-kstreams},1652343714,0
{consumergroup=__strimzi-topic-operator-kstreams},1652343719,0
{consumergroup=__strimzi-topic-operator-kstreams},1652343724,0
{consumergroup=__strimzi-topic-operator-kstreams},1652343729,0
{consumergroup=__strimzi-topic-operator-kstreams},1652343734,0
{consumergroup=__strimzi-topic-operator-kstreams},1652343739,0
{consumergroup=__strimzi-topic-operator-kstreams},1652343744,0
{consumergroup=__strimzi-topic-operator-kstreams},1652343749,0
{consumergroup=__strimzi-topic-operator-kstreams},1652343754,0
{consumergroup=__strimzi-topic-operator-kstreams},1652343759,3
{consumergroup=__strimzi-topic-operator-kstreams},1652343764,3
{consumergroup=__strimzi-topic-operator-kstreams},1652343769,3
{consumergroup=__strimzi-topic-operator-kstreams},1652343774,0
{consumergroup=__strimzi-topic-operator-kstreams},1652343779,0
{consumergroup=__strimzi-topic-operator-kstreams},1652343784,0
{consumergroup=__strimzi-topic-operator-kstreams},1652343789,0
{consumergroup=__strimzi-topic-operator-kstreams},1652343794,0
{consumergroup=__strimzi-topic-operator-kstreams},1652343799,0
{consumergroup=__strimzi-topic-operator-kstreams},1652343804,0
{consumergroup=__strimzi-topic-operator-kstreams},1652343809,0
{consumergroup=__strimzi-topic-operator-kstreams},1652343814,0
{consumergroup=__strimzi-topic-operator-kstreams},1652343819,0
{consumergroup=__strimzi-topic-operator-kstreams},1652343824,0
{consumergroup=__strimzi-topic-operator-kstreams},1652343829,0
{consumergroup=__strimzi-topic-operator-kstreams},1652343834,0
{consumergroup=__strimzi-topic-operator-kstreams},1652343839,0
{consumergroup=__strimzi-topic-operator-kstreams},1652343844,0
{consumergroup=__strimzi-topic-operator-kstreams},1652343849,0
{consumergroup=__strimzi-topic-operator-kstreams},1652343854,0
{consumergroup=__strimzi-topic-operator-kstreams},1652343859,0
{consumergroup=__strimzi-topic-operator-kstreams},1652343864,0
{consumergroup=__strimzi-topic-operator-kstreams},1652343869,0
{consumergroup=__strimzi-topic-operator-kstreams},1652343874,0
{consumergroup=__strimzi-topic-operator-kstreams},1652343879,0
{consumergroup=__strimzi-topic-operator-kstreams},1652343884,0
{consumergroup=__strimzi-topic-operator-kstreams},1652343889,0
{consumergroup=__strimzi-topic-operator-kstreams},1652343894,0
{consumergroup=__strimzi-topic-operator-kstreams},1652343899,0
{consumergroup=__strimzi-topic-operator-kstreams},1652343904,0
{consumergroup=__strimzi-topic-operator-kstreams},1652343909,0
{consumergroup=__strimzi-topic-operator-kstreams},1652343914,0
{consumergroup=__strimzi-topic-operator-kstreams},1652343919,0
{consumergroup=__strimzi-topic-operator-kstreams},1652343924,0
{consumergroup=__strimzi-topic-operator-kstreams},1652343929,0
{consumergroup=__strimzi-topic-operator-kstreams},1652343934,0
{consumergroup=__strimzi-topic-operator-kstreams},1652343939,0
{consumergroup=__strimzi-topic-operator-kstreams},1652343944,0
{consumergroup=__strimzi-topic-operator-kstreams},1652343949,0
{consumergroup=__strimzi-topic-operator-kstreams},1652343954,0
{consumergroup=__strimzi-topic-operator-kstreams},1652343959,0
{consumergroup=__strimzi-topic-operator-kstreams},1652343964,0
{consumergroup=__strimzi-topic-operator-kstreams},1652343969,0
{consumergroup=__strimzi-topic-operator-kstreams},1652343974,0
{consumergroup=__strimzi-topic-operator-kstreams},1652343979,0
{consumergroup=__strimzi-topic-operator-kstreams},1652343984,0
{consumergroup=__strimzi-topic-operator-kstreams},1652343989,0
{consumergroup=__strimzi-topic-operator-kstreams},1652343994,0
{consumergroup=__strimzi-topic-operator-kstreams},1652343999,0
{consumergroup=__strimzi-topic-operator-kstreams},1652344004,0
{consumergroup=__strimzi-topic-operator-kstreams},1652344009,0
{consumergroup=__strimzi-topic-operator-kstreams},1652344014,0
{consumergroup=__strimzi-topic-operator-kstreams},1652344019,0
{consumergroup=__strimzi-topic-operator-kstreams},1652344024,0
{consumergroup=__strimzi-topic-operator-kstreams},1652344029,0
{consumergroup=adapter-service},1652343774,4730
{consumergroup=adapter-service},1652343779,4730
{consumergroup=adapter-service},1652343784,4730
{consumergroup=adapter-service},1652343789,12918
{consumergroup=adapter-service},1652343794,12918
{consumergroup=adapter-service},1652343799,12918
{consumergroup=adapter-service},1652343804,52048
{consumergroup=adapter-service},1652343809,52048
{consumergroup=adapter-service},1652343814,52048
{consumergroup=adapter-service},1652343819,87387
{consumergroup=adapter-service},1652343824,87387
{consumergroup=adapter-service},1652343829,87387
{consumergroup=adapter-service},1652343834,163860
{consumergroup=adapter-service},1652343839,163860
{consumergroup=adapter-service},1652343844,163860
{consumergroup=adapter-service},1652343849,198367
{consumergroup=adapter-service},1652343854,198367
{consumergroup=adapter-service},1652343859,198367
{consumergroup=adapter-service},1652343864,241015
{consumergroup=adapter-service},1652343869,241015
{consumergroup=adapter-service},1652343874,241015
{consumergroup=adapter-service},1652343879,273937
{consumergroup=adapter-service},1652343884,273937
{consumergroup=adapter-service},1652343889,273937
{consumergroup=adapter-service},1652343894,316246
{consumergroup=adapter-service},1652343899,316246
{consumergroup=adapter-service},1652343904,316246
{consumergroup=adapter-service},1652343909,352949
{consumergroup=adapter-service},1652343914,352949
{consumergroup=adapter-service},1652343919,352949
{consumergroup=adapter-service},1652343924,398906
{consumergroup=adapter-service},1652343929,398906
{consumergroup=adapter-service},1652343934,398906
{consumergroup=adapter-service},1652343939,439886
{consumergroup=adapter-service},1652343944,439886
{consumergroup=adapter-service},1652343949,439886
{consumergroup=adapter-service},1652343954,475964
{consumergroup=adapter-service},1652343959,475964
{consumergroup=adapter-service},1652343964,475964
{consumergroup=adapter-service},1652343969,514289
{consumergroup=adapter-service},1652343974,514289
{consumergroup=adapter-service},1652343979,514289
{consumergroup=adapter-service},1652343984,556655
{consumergroup=adapter-service},1652343989,556655
{consumergroup=adapter-service},1652343994,556655
{consumergroup=adapter-service},1652343999,594815
{consumergroup=adapter-service},1652344004,594815
{consumergroup=adapter-service},1652344009,594815
{consumergroup=adapter-service},1652344014,633087
{consumergroup=adapter-service},1652344019,633087
{consumergroup=adapter-service},1652344024,633087
{consumergroup=adapter-service},1652344029,652894
{consumergroup=trace-service},1652343864,27
{consumergroup=trace-service},1652343869,27
{consumergroup=trace-service},1652343874,27
{consumergroup=trace-service},1652343879,363
{consumergroup=trace-service},1652343884,363
{consumergroup=trace-service},1652343889,363
{consumergroup=trace-service},1652343894,2490
{consumergroup=trace-service},1652343899,2490
{consumergroup=trace-service},1652343904,2490
{consumergroup=trace-service},1652343909,6620
{consumergroup=trace-service},1652343914,6620
{consumergroup=trace-service},1652343919,6620
{consumergroup=trace-service},1652343924,13453
{consumergroup=trace-service},1652343929,13453
{consumergroup=trace-service},1652343934,13453
{consumergroup=trace-service},1652343939,19924
{consumergroup=trace-service},1652343944,19924
{consumergroup=trace-service},1652343949,19924
{consumergroup=trace-service},1652343954,28307
{consumergroup=trace-service},1652343959,28307
{consumergroup=trace-service},1652343964,28307
{consumergroup=trace-service},1652343969,36360
{consumergroup=trace-service},1652343974,36360
{consumergroup=trace-service},1652343979,36360
{consumergroup=trace-service},1652343984,47105
{consumergroup=trace-service},1652343989,47105
{consumergroup=trace-service},1652343994,47105
{consumergroup=trace-service},1652343999,58517
{consumergroup=trace-service},1652344004,58517
{consumergroup=trace-service},1652344009,58517
{consumergroup=trace-service},1652344014,79869
{consumergroup=trace-service},1652344019,79869
{consumergroup=trace-service},1652344024,79869
{consumergroup=trace-service},1652344029,93871
