labels,timestamp,value
{consumergroup=__strimzi-topic-operator-kstreams},1651968864,11
{consumergroup=__strimzi-topic-operator-kstreams},1651968869,11
{consumergroup=__strimzi-topic-operator-kstreams},1651968874,11
{consumergroup=__strimzi-topic-operator-kstreams},1651968879,3
{consumergroup=__strimzi-topic-operator-kstreams},1651968884,3
{consumergroup=__strimzi-topic-operator-kstreams},1651968889,3
{consumergroup=__strimzi-topic-operator-kstreams},1651968894,3
{consumergroup=__strimzi-topic-operator-kstreams},1651968899,3
{consumergroup=__strimzi-topic-operator-kstreams},1651968904,3
{consumergroup=__strimzi-topic-operator-kstreams},1651968909,0
{consumergroup=__strimzi-topic-operator-kstreams},1651968914,0
{consumergroup=__strimzi-topic-operator-kstreams},1651968919,0
{consumergroup=__strimzi-topic-operator-kstreams},1651968924,0
{consumergroup=__strimzi-topic-operator-kstreams},1651968929,0
{consumergroup=__strimzi-topic-operator-kstreams},1651968934,0
{consumergroup=__strimzi-topic-operator-kstreams},1651968939,0
{consumergroup=__strimzi-topic-operator-kstreams},1651968944,0
{consumergroup=__strimzi-topic-operator-kstreams},1651968949,0
{consumergroup=__strimzi-topic-operator-kstreams},1651968954,0
{consumergroup=__strimzi-topic-operator-kstreams},1651968959,0
{consumergroup=__strimzi-topic-operator-kstreams},1651968964,0
{consumergroup=__strimzi-topic-operator-kstreams},1651968969,0
{consumergroup=__strimzi-topic-operator-kstreams},1651968974,0
{consumergroup=__strimzi-topic-operator-kstreams},1651968979,0
{consumergroup=__strimzi-topic-operator-kstreams},1651968984,0
{consumergroup=__strimzi-topic-operator-kstreams},1651968989,0
{consumergroup=__strimzi-topic-operator-kstreams},1651968994,0
{consumergroup=__strimzi-topic-operator-kstreams},1651968999,0
{consumergroup=__strimzi-topic-operator-kstreams},1651969004,0
{consumergroup=__strimzi-topic-operator-kstreams},1651969009,0
{consumergroup=__strimzi-topic-operator-kstreams},1651969014,0
{consumergroup=__strimzi-topic-operator-kstreams},1651969019,0
{consumergroup=__strimzi-topic-operator-kstreams},1651969024,0
{consumergroup=__strimzi-topic-operator-kstreams},1651969029,0
{consumergroup=__strimzi-topic-operator-kstreams},1651969034,0
{consumergroup=__strimzi-topic-operator-kstreams},1651969039,0
{consumergroup=__strimzi-topic-operator-kstreams},1651969044,0
{consumergroup=__strimzi-topic-operator-kstreams},1651969049,0
{consumergroup=__strimzi-topic-operator-kstreams},1651969054,0
{consumergroup=__strimzi-topic-operator-kstreams},1651969059,0
{consumergroup=__strimzi-topic-operator-kstreams},1651969064,0
{consumergroup=__strimzi-topic-operator-kstreams},1651969069,0
{consumergroup=__strimzi-topic-operator-kstreams},1651969074,0
{consumergroup=__strimzi-topic-operator-kstreams},1651969079,0
{consumergroup=__strimzi-topic-operator-kstreams},1651969084,0
{consumergroup=__strimzi-topic-operator-kstreams},1651969089,0
{consumergroup=__strimzi-topic-operator-kstreams},1651969094,0
{consumergroup=__strimzi-topic-operator-kstreams},1651969099,0
{consumergroup=__strimzi-topic-operator-kstreams},1651969104,0
{consumergroup=__strimzi-topic-operator-kstreams},1651969109,0
{consumergroup=__strimzi-topic-operator-kstreams},1651969114,0
{consumergroup=__strimzi-topic-operator-kstreams},1651969119,0
{consumergroup=__strimzi-topic-operator-kstreams},1651969124,0
{consumergroup=__strimzi-topic-operator-kstreams},1651969129,0
{consumergroup=__strimzi-topic-operator-kstreams},1651969134,0
{consumergroup=__strimzi-topic-operator-kstreams},1651969139,0
{consumergroup=__strimzi-topic-operator-kstreams},1651969144,0
{consumergroup=__strimzi-topic-operator-kstreams},1651969149,0
{consumergroup=__strimzi-topic-operator-kstreams},1651969154,0
{consumergroup=__strimzi-topic-operator-kstreams},1651969159,0
{consumergroup=__strimzi-topic-operator-kstreams},1651969164,0
{consumergroup=__strimzi-topic-operator-kstreams},1651969169,0
{consumergroup=__strimzi-topic-operator-kstreams},1651969174,0
{consumergroup=__strimzi-topic-operator-kstreams},1651969179,0
{consumergroup=__strimzi-topic-operator-kstreams},1651969184,0
{consumergroup=__strimzi-topic-operator-kstreams},1651969189,0
{consumergroup=__strimzi-topic-operator-kstreams},1651969194,0
{consumergroup=__strimzi-topic-operator-kstreams},1651969199,0
{consumergroup=__strimzi-topic-operator-kstreams},1651969204,0
{consumergroup=__strimzi-topic-operator-kstreams},1651969209,0
{consumergroup=__strimzi-topic-operator-kstreams},1651969214,0
{consumergroup=__strimzi-topic-operator-kstreams},1651969219,0
{consumergroup=__strimzi-topic-operator-kstreams},1651969224,0
{consumergroup=__strimzi-topic-operator-kstreams},1651969229,0
{consumergroup=__strimzi-topic-operator-kstreams},1651969234,0
{consumergroup=__strimzi-topic-operator-kstreams},1651969239,0
{consumergroup=__strimzi-topic-operator-kstreams},1651969244,0
{consumergroup=__strimzi-topic-operator-kstreams},1651969249,0
{consumergroup=__strimzi-topic-operator-kstreams},1651969254,0
{consumergroup=__strimzi-topic-operator-kstreams},1651969259,0
{consumergroup=__strimzi-topic-operator-kstreams},1651969264,0
{consumergroup=__strimzi-topic-operator-kstreams},1651969269,0
{consumergroup=__strimzi-topic-operator-kstreams},1651969274,0
{consumergroup=__strimzi-topic-operator-kstreams},1651969279,0
{consumergroup=__strimzi-topic-operator-kstreams},1651969284,0
{consumergroup=__strimzi-topic-operator-kstreams},1651969289,0
{consumergroup=__strimzi-topic-operator-kstreams},1651969294,0
{consumergroup=__strimzi-topic-operator-kstreams},1651969299,0
{consumergroup=__strimzi-topic-operator-kstreams},1651969304,0
{consumergroup=adapter-service},1651968894,0
{consumergroup=adapter-service},1651968899,0
{consumergroup=adapter-service},1651968904,0
{consumergroup=adapter-service},1651968909,1764
{consumergroup=adapter-service},1651968914,1764
{consumergroup=adapter-service},1651968919,1764
{consumergroup=adapter-service},1651968924,405
{consumergroup=adapter-service},1651968929,405
{consumergroup=adapter-service},1651968934,405
{consumergroup=adapter-service},1651968939,1576
{consumergroup=adapter-service},1651968944,1576
{consumergroup=adapter-service},1651968949,1576
{consumergroup=adapter-service},1651968954,193
{consumergroup=adapter-service},1651968959,193
{consumergroup=adapter-service},1651968964,193
{consumergroup=adapter-service},1651968969,1577
{consumergroup=adapter-service},1651968974,1577
{consumergroup=adapter-service},1651968979,1577
{consumergroup=adapter-service},1651968984,80
{consumergroup=adapter-service},1651968989,80
{consumergroup=adapter-service},1651968994,80
{consumergroup=adapter-service},1651968999,1148
{consumergroup=adapter-service},1651969004,1148
{consumergroup=adapter-service},1651969009,1148
{consumergroup=adapter-service},1651969014,155
{consumergroup=adapter-service},1651969019,155
{consumergroup=adapter-service},1651969024,155
{consumergroup=adapter-service},1651969029,870
{consumergroup=adapter-service},1651969034,870
{consumergroup=adapter-service},1651969039,870
{consumergroup=adapter-service},1651969044,3617
{consumergroup=adapter-service},1651969049,3617
{consumergroup=adapter-service},1651969054,3617
{consumergroup=adapter-service},1651969059,681
{consumergroup=adapter-service},1651969064,681
{consumergroup=adapter-service},1651969069,681
{consumergroup=adapter-service},1651969074,3545
{consumergroup=adapter-service},1651969079,3545
{consumergroup=adapter-service},1651969084,3545
{consumergroup=adapter-service},1651969089,1699
{consumergroup=adapter-service},1651969094,1699
{consumergroup=adapter-service},1651969099,1699
{consumergroup=adapter-service},1651969104,5202
{consumergroup=adapter-service},1651969109,5202
{consumergroup=adapter-service},1651969114,5202
{consumergroup=adapter-service},1651969119,309
{consumergroup=adapter-service},1651969124,309
{consumergroup=adapter-service},1651969129,309
{consumergroup=adapter-service},1651969134,5086
{consumergroup=adapter-service},1651969139,5086
{consumergroup=adapter-service},1651969144,5086
{consumergroup=adapter-service},1651969149,373
{consumergroup=adapter-service},1651969154,373
{consumergroup=adapter-service},1651969159,373
{consumergroup=adapter-service},1651969164,4803
{consumergroup=adapter-service},1651969169,4803
{consumergroup=adapter-service},1651969174,4803
{consumergroup=adapter-service},1651969179,32
{consumergroup=adapter-service},1651969184,32
{consumergroup=adapter-service},1651969189,32
{consumergroup=adapter-service},1651969194,4532
{consumergroup=adapter-service},1651969199,4532
{consumergroup=adapter-service},1651969204,4532
{consumergroup=adapter-service},1651969209,2025
{consumergroup=adapter-service},1651969214,2025
{consumergroup=adapter-service},1651969219,2025
{consumergroup=adapter-service},1651969224,4348
{consumergroup=adapter-service},1651969229,4348
{consumergroup=adapter-service},1651969234,4348
{consumergroup=adapter-service},1651969239,4494
{consumergroup=adapter-service},1651969244,4494
{consumergroup=adapter-service},1651969249,4494
{consumergroup=adapter-service},1651969254,4152
{consumergroup=adapter-service},1651969259,4152
{consumergroup=adapter-service},1651969264,4152
{consumergroup=adapter-service},1651969269,5236
{consumergroup=adapter-service},1651969274,5236
{consumergroup=adapter-service},1651969279,5236
{consumergroup=adapter-service},1651969284,3941
{consumergroup=adapter-service},1651969289,3941
{consumergroup=adapter-service},1651969294,3941
{consumergroup=adapter-service},1651969299,5024
{consumergroup=adapter-service},1651969304,5024
{consumergroup=landscape-service},1651968909,3242
{consumergroup=landscape-service},1651968914,3242
{consumergroup=landscape-service},1651968919,3242
{consumergroup=landscape-service},1651968924,3876
{consumergroup=landscape-service},1651968929,3876
{consumergroup=landscape-service},1651968934,3876
{consumergroup=landscape-service},1651968939,3345
{consumergroup=landscape-service},1651968944,3345
{consumergroup=landscape-service},1651968949,3345
{consumergroup=landscape-service},1651968954,4079
{consumergroup=landscape-service},1651968959,4079
{consumergroup=landscape-service},1651968964,4079
{consumergroup=landscape-service},1651968969,3076
{consumergroup=landscape-service},1651968974,3076
{consumergroup=landscape-service},1651968979,3076
{consumergroup=landscape-service},1651968984,3725
{consumergroup=landscape-service},1651968989,3725
{consumergroup=landscape-service},1651968994,3725
{consumergroup=landscape-service},1651968999,3057
{consumergroup=landscape-service},1651969004,3057
{consumergroup=landscape-service},1651969009,3057
{consumergroup=landscape-service},1651969014,3702
{consumergroup=landscape-service},1651969019,3702
{consumergroup=landscape-service},1651969024,3702
{consumergroup=landscape-service},1651969029,5095
{consumergroup=landscape-service},1651969034,5095
{consumergroup=landscape-service},1651969039,5095
{consumergroup=landscape-service},1651969044,3520
{consumergroup=landscape-service},1651969049,3520
{consumergroup=landscape-service},1651969054,3520
{consumergroup=landscape-service},1651969059,4716
{consumergroup=landscape-service},1651969064,4716
{consumergroup=landscape-service},1651969069,4716
{consumergroup=landscape-service},1651969074,3471
{consumergroup=landscape-service},1651969079,3471
{consumergroup=landscape-service},1651969084,3471
{consumergroup=landscape-service},1651969089,2184
{consumergroup=landscape-service},1651969094,2184
{consumergroup=landscape-service},1651969099,2184
{consumergroup=landscape-service},1651969104,3481
{consumergroup=landscape-service},1651969109,3481
{consumergroup=landscape-service},1651969114,3481
{consumergroup=landscape-service},1651969119,5017
{consumergroup=landscape-service},1651969124,5017
{consumergroup=landscape-service},1651969129,5017
{consumergroup=landscape-service},1651969134,3354
{consumergroup=landscape-service},1651969139,3354
{consumergroup=landscape-service},1651969144,3354
{consumergroup=landscape-service},1651969149,4584
{consumergroup=landscape-service},1651969154,4584
{consumergroup=landscape-service},1651969159,4584
{consumergroup=landscape-service},1651969164,3327
{consumergroup=landscape-service},1651969169,3327
{consumergroup=landscape-service},1651969174,3327
{consumergroup=landscape-service},1651969179,4521
{consumergroup=landscape-service},1651969184,4521
{consumergroup=landscape-service},1651969189,4521
{consumergroup=landscape-service},1651969194,3608
{consumergroup=landscape-service},1651969199,3608
{consumergroup=landscape-service},1651969204,3608
{consumergroup=landscape-service},1651969209,4412
{consumergroup=landscape-service},1651969214,4412
{consumergroup=landscape-service},1651969219,4412
{consumergroup=landscape-service},1651969224,3176
{consumergroup=landscape-service},1651969229,3176
{consumergroup=landscape-service},1651969234,3176
{consumergroup=landscape-service},1651969239,4358
{consumergroup=landscape-service},1651969244,4358
{consumergroup=landscape-service},1651969249,4358
{consumergroup=landscape-service},1651969254,3059
{consumergroup=landscape-service},1651969259,3059
{consumergroup=landscape-service},1651969264,3059
{consumergroup=landscape-service},1651969269,4281
{consumergroup=landscape-service},1651969274,4281
{consumergroup=landscape-service},1651969279,4281
{consumergroup=landscape-service},1651969284,3467
{consumergroup=landscape-service},1651969289,3467
{consumergroup=landscape-service},1651969294,3467
{consumergroup=landscape-service},1651969299,4159
{consumergroup=landscape-service},1651969304,4159
{consumergroup=landscape-token-events-consumer},1651968894,0
{consumergroup=landscape-token-events-consumer},1651968899,0
{consumergroup=landscape-token-events-consumer},1651968904,0
{consumergroup=landscape-token-events-consumer},1651968909,0
{consumergroup=landscape-token-events-consumer},1651968914,0
{consumergroup=landscape-token-events-consumer},1651968919,0
{consumergroup=landscape-token-events-consumer},1651968924,0
{consumergroup=landscape-token-events-consumer},1651968929,0
{consumergroup=landscape-token-events-consumer},1651968934,0
{consumergroup=landscape-token-events-consumer},1651968939,0
{consumergroup=landscape-token-events-consumer},1651968944,0
{consumergroup=landscape-token-events-consumer},1651968949,0
{consumergroup=landscape-token-events-consumer},1651968954,0
{consumergroup=landscape-token-events-consumer},1651968959,0
{consumergroup=landscape-token-events-consumer},1651968964,0
{consumergroup=landscape-token-events-consumer},1651968969,0
{consumergroup=landscape-token-events-consumer},1651968974,0
{consumergroup=landscape-token-events-consumer},1651968979,0
{consumergroup=landscape-token-events-consumer},1651968984,0
{consumergroup=landscape-token-events-consumer},1651968989,0
{consumergroup=landscape-token-events-consumer},1651968994,0
{consumergroup=landscape-token-events-consumer},1651968999,0
{consumergroup=landscape-token-events-consumer},1651969004,0
{consumergroup=landscape-token-events-consumer},1651969009,0
{consumergroup=landscape-token-events-consumer},1651969014,0
{consumergroup=landscape-token-events-consumer},1651969019,0
{consumergroup=landscape-token-events-consumer},1651969024,0
{consumergroup=landscape-token-events-consumer},1651969029,0
{consumergroup=landscape-token-events-consumer},1651969034,0
{consumergroup=landscape-token-events-consumer},1651969039,0
{consumergroup=landscape-token-events-consumer},1651969044,0
{consumergroup=landscape-token-events-consumer},1651969049,0
{consumergroup=landscape-token-events-consumer},1651969054,0
{consumergroup=landscape-token-events-consumer},1651969059,0
{consumergroup=landscape-token-events-consumer},1651969064,0
{consumergroup=landscape-token-events-consumer},1651969069,0
{consumergroup=landscape-token-events-consumer},1651969074,0
{consumergroup=landscape-token-events-consumer},1651969079,0
{consumergroup=landscape-token-events-consumer},1651969084,0
{consumergroup=landscape-token-events-consumer},1651969089,0
{consumergroup=landscape-token-events-consumer},1651969094,0
{consumergroup=landscape-token-events-consumer},1651969099,0
{consumergroup=landscape-token-events-consumer},1651969104,0
{consumergroup=landscape-token-events-consumer},1651969109,0
{consumergroup=landscape-token-events-consumer},1651969114,0
{consumergroup=landscape-token-events-consumer},1651969119,0
{consumergroup=landscape-token-events-consumer},1651969124,0
{consumergroup=landscape-token-events-consumer},1651969129,0
{consumergroup=landscape-token-events-consumer},1651969134,0
{consumergroup=landscape-token-events-consumer},1651969139,0
{consumergroup=landscape-token-events-consumer},1651969144,0
{consumergroup=landscape-token-events-consumer},1651969149,0
{consumergroup=landscape-token-events-consumer},1651969154,0
{consumergroup=landscape-token-events-consumer},1651969159,0
{consumergroup=landscape-token-events-consumer},1651969164,0
{consumergroup=landscape-token-events-consumer},1651969169,0
{consumergroup=landscape-token-events-consumer},1651969174,0
{consumergroup=landscape-token-events-consumer},1651969179,0
{consumergroup=landscape-token-events-consumer},1651969184,0
{consumergroup=landscape-token-events-consumer},1651969189,0
{consumergroup=landscape-token-events-consumer},1651969194,0
{consumergroup=landscape-token-events-consumer},1651969199,0
{consumergroup=landscape-token-events-consumer},1651969204,0
{consumergroup=landscape-token-events-consumer},1651969209,0
{consumergroup=landscape-token-events-consumer},1651969214,0
{consumergroup=landscape-token-events-consumer},1651969219,0
{consumergroup=landscape-token-events-consumer},1651969224,0
{consumergroup=landscape-token-events-consumer},1651969229,0
{consumergroup=landscape-token-events-consumer},1651969234,0
{consumergroup=landscape-token-events-consumer},1651969239,0
{consumergroup=landscape-token-events-consumer},1651969244,0
{consumergroup=landscape-token-events-consumer},1651969249,0
{consumergroup=landscape-token-events-consumer},1651969254,0
{consumergroup=landscape-token-events-consumer},1651969259,0
{consumergroup=landscape-token-events-consumer},1651969264,0
{consumergroup=landscape-token-events-consumer},1651969269,0
{consumergroup=landscape-token-events-consumer},1651969274,0
{consumergroup=landscape-token-events-consumer},1651969279,0
{consumergroup=landscape-token-events-consumer},1651969284,0
{consumergroup=landscape-token-events-consumer},1651969289,0
{consumergroup=landscape-token-events-consumer},1651969294,0
{consumergroup=landscape-token-events-consumer},1651969299,0
{consumergroup=landscape-token-events-consumer},1651969304,0
{consumergroup=trace-service},1651968909,18278
{consumergroup=trace-service},1651968914,18278
{consumergroup=trace-service},1651968919,18278
{consumergroup=trace-service},1651968924,19093
{consumergroup=trace-service},1651968929,19093
{consumergroup=trace-service},1651968934,19093
{consumergroup=trace-service},1651968939,11514
{consumergroup=trace-service},1651968944,11514
{consumergroup=trace-service},1651968949,11514
{consumergroup=trace-service},1651968954,4788
{consumergroup=trace-service},1651968959,4788
{consumergroup=trace-service},1651968964,4788
{consumergroup=trace-service},1651968969,11831
{consumergroup=trace-service},1651968974,11831
{consumergroup=trace-service},1651968979,11831
{consumergroup=trace-service},1651968984,9533
{consumergroup=trace-service},1651968989,9533
{consumergroup=trace-service},1651968994,9533
{consumergroup=trace-service},1651968999,10559
{consumergroup=trace-service},1651969004,10559
{consumergroup=trace-service},1651969009,10559
{consumergroup=trace-service},1651969014,7648
{consumergroup=trace-service},1651969019,7648
{consumergroup=trace-service},1651969024,7648
{consumergroup=trace-service},1651969029,8836
{consumergroup=trace-service},1651969034,8836
{consumergroup=trace-service},1651969039,8836
{consumergroup=trace-service},1651969044,3971
{consumergroup=trace-service},1651969049,3971
{consumergroup=trace-service},1651969054,3971
{consumergroup=trace-service},1651969059,9030
{consumergroup=trace-service},1651969064,9030
{consumergroup=trace-service},1651969069,9030
{consumergroup=trace-service},1651969074,5732
{consumergroup=trace-service},1651969079,5732
{consumergroup=trace-service},1651969084,5732
{consumergroup=trace-service},1651969089,9323
{consumergroup=trace-service},1651969094,9323
{consumergroup=trace-service},1651969099,9323
{consumergroup=trace-service},1651969104,4384
{consumergroup=trace-service},1651969109,4384
{consumergroup=trace-service},1651969114,4384
{consumergroup=trace-service},1651969119,9763
{consumergroup=trace-service},1651969124,9763
{consumergroup=trace-service},1651969129,9763
{consumergroup=trace-service},1651969134,3618
{consumergroup=trace-service},1651969139,3618
{consumergroup=trace-service},1651969144,3618
{consumergroup=trace-service},1651969149,9346
{consumergroup=trace-service},1651969154,9346
{consumergroup=trace-service},1651969159,9346
{consumergroup=trace-service},1651969164,2819
{consumergroup=trace-service},1651969169,2819
{consumergroup=trace-service},1651969174,2819
{consumergroup=trace-service},1651969179,8792
{consumergroup=trace-service},1651969184,8792
{consumergroup=trace-service},1651969189,8792
{consumergroup=trace-service},1651969194,3467
{consumergroup=trace-service},1651969199,3467
{consumergroup=trace-service},1651969204,3467
{consumergroup=trace-service},1651969209,9985
{consumergroup=trace-service},1651969214,9985
{consumergroup=trace-service},1651969219,9985
{consumergroup=trace-service},1651969224,4603
{consumergroup=trace-service},1651969229,4603
{consumergroup=trace-service},1651969234,4603
{consumergroup=trace-service},1651969239,9765
{consumergroup=trace-service},1651969244,9765
{consumergroup=trace-service},1651969249,9765
{consumergroup=trace-service},1651969254,2591
{consumergroup=trace-service},1651969259,2591
{consumergroup=trace-service},1651969264,2591
{consumergroup=trace-service},1651969269,9140
{consumergroup=trace-service},1651969274,9140
{consumergroup=trace-service},1651969279,9140
{consumergroup=trace-service},1651969284,4047
{consumergroup=trace-service},1651969289,4047
{consumergroup=trace-service},1651969294,4047
{consumergroup=trace-service},1651969299,9761
{consumergroup=trace-service},1651969304,9761
{consumergroup=trace-token-events-consumer},1651968894,0
{consumergroup=trace-token-events-consumer},1651968899,0
{consumergroup=trace-token-events-consumer},1651968904,0
{consumergroup=trace-token-events-consumer},1651968909,0
{consumergroup=trace-token-events-consumer},1651968914,0
{consumergroup=trace-token-events-consumer},1651968919,0
{consumergroup=trace-token-events-consumer},1651968924,0
{consumergroup=trace-token-events-consumer},1651968929,0
{consumergroup=trace-token-events-consumer},1651968934,0
{consumergroup=trace-token-events-consumer},1651968939,0
{consumergroup=trace-token-events-consumer},1651968944,0
{consumergroup=trace-token-events-consumer},1651968949,0
{consumergroup=trace-token-events-consumer},1651968954,0
{consumergroup=trace-token-events-consumer},1651968959,0
{consumergroup=trace-token-events-consumer},1651968964,0
{consumergroup=trace-token-events-consumer},1651968969,0
{consumergroup=trace-token-events-consumer},1651968974,0
{consumergroup=trace-token-events-consumer},1651968979,0
{consumergroup=trace-token-events-consumer},1651968984,0
{consumergroup=trace-token-events-consumer},1651968989,0
{consumergroup=trace-token-events-consumer},1651968994,0
{consumergroup=trace-token-events-consumer},1651968999,0
{consumergroup=trace-token-events-consumer},1651969004,0
{consumergroup=trace-token-events-consumer},1651969009,0
{consumergroup=trace-token-events-consumer},1651969014,0
{consumergroup=trace-token-events-consumer},1651969019,0
{consumergroup=trace-token-events-consumer},1651969024,0
{consumergroup=trace-token-events-consumer},1651969029,0
{consumergroup=trace-token-events-consumer},1651969034,0
{consumergroup=trace-token-events-consumer},1651969039,0
{consumergroup=trace-token-events-consumer},1651969044,0
{consumergroup=trace-token-events-consumer},1651969049,0
{consumergroup=trace-token-events-consumer},1651969054,0
{consumergroup=trace-token-events-consumer},1651969059,0
{consumergroup=trace-token-events-consumer},1651969064,0
{consumergroup=trace-token-events-consumer},1651969069,0
{consumergroup=trace-token-events-consumer},1651969074,0
{consumergroup=trace-token-events-consumer},1651969079,0
{consumergroup=trace-token-events-consumer},1651969084,0
{consumergroup=trace-token-events-consumer},1651969089,0
{consumergroup=trace-token-events-consumer},1651969094,0
{consumergroup=trace-token-events-consumer},1651969099,0
{consumergroup=trace-token-events-consumer},1651969104,0
{consumergroup=trace-token-events-consumer},1651969109,0
{consumergroup=trace-token-events-consumer},1651969114,0
{consumergroup=trace-token-events-consumer},1651969119,0
{consumergroup=trace-token-events-consumer},1651969124,0
{consumergroup=trace-token-events-consumer},1651969129,0
{consumergroup=trace-token-events-consumer},1651969134,0
{consumergroup=trace-token-events-consumer},1651969139,0
{consumergroup=trace-token-events-consumer},1651969144,0
{consumergroup=trace-token-events-consumer},1651969149,0
{consumergroup=trace-token-events-consumer},1651969154,0
{consumergroup=trace-token-events-consumer},1651969159,0
{consumergroup=trace-token-events-consumer},1651969164,0
{consumergroup=trace-token-events-consumer},1651969169,0
{consumergroup=trace-token-events-consumer},1651969174,0
{consumergroup=trace-token-events-consumer},1651969179,0
{consumergroup=trace-token-events-consumer},1651969184,0
{consumergroup=trace-token-events-consumer},1651969189,0
{consumergroup=trace-token-events-consumer},1651969194,0
{consumergroup=trace-token-events-consumer},1651969199,0
{consumergroup=trace-token-events-consumer},1651969204,0
{consumergroup=trace-token-events-consumer},1651969209,0
{consumergroup=trace-token-events-consumer},1651969214,0
{consumergroup=trace-token-events-consumer},1651969219,0
{consumergroup=trace-token-events-consumer},1651969224,0
{consumergroup=trace-token-events-consumer},1651969229,0
{consumergroup=trace-token-events-consumer},1651969234,0
{consumergroup=trace-token-events-consumer},1651969239,0
{consumergroup=trace-token-events-consumer},1651969244,0
{consumergroup=trace-token-events-consumer},1651969249,0
{consumergroup=trace-token-events-consumer},1651969254,0
{consumergroup=trace-token-events-consumer},1651969259,0
{consumergroup=trace-token-events-consumer},1651969264,0
{consumergroup=trace-token-events-consumer},1651969269,0
{consumergroup=trace-token-events-consumer},1651969274,0
{consumergroup=trace-token-events-consumer},1651969279,0
{consumergroup=trace-token-events-consumer},1651969284,0
{consumergroup=trace-token-events-consumer},1651969289,0
{consumergroup=trace-token-events-consumer},1651969294,0
{consumergroup=trace-token-events-consumer},1651969299,0
{consumergroup=trace-token-events-consumer},1651969304,0
