labels,timestamp,value
{consumergroup=__strimzi-topic-operator-kstreams},1651889061,3
{consumergroup=__strimzi-topic-operator-kstreams},1651889066,3
{consumergroup=__strimzi-topic-operator-kstreams},1651889071,3
{consumergroup=__strimzi-topic-operator-kstreams},1651889076,16
{consumergroup=__strimzi-topic-operator-kstreams},1651889081,16
{consumergroup=__strimzi-topic-operator-kstreams},1651889086,16
{consumergroup=__strimzi-topic-operator-kstreams},1651889091,0
{consumergroup=__strimzi-topic-operator-kstreams},1651889096,0
{consumergroup=__strimzi-topic-operator-kstreams},1651889101,0
{consumergroup=__strimzi-topic-operator-kstreams},1651889106,0
{consumergroup=__strimzi-topic-operator-kstreams},1651889111,0
{consumergroup=__strimzi-topic-operator-kstreams},1651889116,0
{consumergroup=__strimzi-topic-operator-kstreams},1651889121,0
{consumergroup=__strimzi-topic-operator-kstreams},1651889126,0
{consumergroup=__strimzi-topic-operator-kstreams},1651889131,0
{consumergroup=__strimzi-topic-operator-kstreams},1651889136,0
{consumergroup=__strimzi-topic-operator-kstreams},1651889141,0
{consumergroup=__strimzi-topic-operator-kstreams},1651889146,0
{consumergroup=__strimzi-topic-operator-kstreams},1651889151,0
{consumergroup=__strimzi-topic-operator-kstreams},1651889156,0
{consumergroup=__strimzi-topic-operator-kstreams},1651889161,0
{consumergroup=__strimzi-topic-operator-kstreams},1651889166,0
{consumergroup=__strimzi-topic-operator-kstreams},1651889171,0
{consumergroup=__strimzi-topic-operator-kstreams},1651889176,0
{consumergroup=__strimzi-topic-operator-kstreams},1651889181,0
{consumergroup=__strimzi-topic-operator-kstreams},1651889186,0
{consumergroup=__strimzi-topic-operator-kstreams},1651889191,0
{consumergroup=__strimzi-topic-operator-kstreams},1651889196,0
{consumergroup=__strimzi-topic-operator-kstreams},1651889201,0
{consumergroup=__strimzi-topic-operator-kstreams},1651889206,0
{consumergroup=__strimzi-topic-operator-kstreams},1651889211,0
{consumergroup=__strimzi-topic-operator-kstreams},1651889216,0
{consumergroup=__strimzi-topic-operator-kstreams},1651889221,0
{consumergroup=__strimzi-topic-operator-kstreams},1651889226,0
{consumergroup=__strimzi-topic-operator-kstreams},1651889231,0
{consumergroup=__strimzi-topic-operator-kstreams},1651889236,0
{consumergroup=__strimzi-topic-operator-kstreams},1651889241,0
{consumergroup=__strimzi-topic-operator-kstreams},1651889246,0
{consumergroup=__strimzi-topic-operator-kstreams},1651889251,0
{consumergroup=__strimzi-topic-operator-kstreams},1651889256,0
{consumergroup=__strimzi-topic-operator-kstreams},1651889261,0
{consumergroup=__strimzi-topic-operator-kstreams},1651889266,0
{consumergroup=__strimzi-topic-operator-kstreams},1651889271,0
{consumergroup=__strimzi-topic-operator-kstreams},1651889276,0
{consumergroup=__strimzi-topic-operator-kstreams},1651889281,0
{consumergroup=__strimzi-topic-operator-kstreams},1651889286,0
{consumergroup=__strimzi-topic-operator-kstreams},1651889291,0
{consumergroup=__strimzi-topic-operator-kstreams},1651889296,0
{consumergroup=__strimzi-topic-operator-kstreams},1651889301,0
{consumergroup=__strimzi-topic-operator-kstreams},1651889306,0
{consumergroup=__strimzi-topic-operator-kstreams},1651889311,0
{consumergroup=__strimzi-topic-operator-kstreams},1651889316,0
{consumergroup=adapter-service},1651889091,130765
{consumergroup=adapter-service},1651889096,130765
{consumergroup=adapter-service},1651889101,130765
{consumergroup=adapter-service},1651889106,369472
{consumergroup=adapter-service},1651889111,369472
{consumergroup=adapter-service},1651889116,369472
{consumergroup=adapter-service},1651889121,548124
{consumergroup=adapter-service},1651889126,548124
{consumergroup=adapter-service},1651889131,548124
{consumergroup=adapter-service},1651889136,651098
{consumergroup=adapter-service},1651889141,651098
{consumergroup=adapter-service},1651889146,651098
{consumergroup=adapter-service},1651889151,772063
{consumergroup=adapter-service},1651889156,772063
{consumergroup=adapter-service},1651889161,772063
{consumergroup=adapter-service},1651889166,820628
{consumergroup=adapter-service},1651889171,820628
{consumergroup=adapter-service},1651889176,820628
{consumergroup=adapter-service},1651889181,904128
{consumergroup=adapter-service},1651889186,904128
{consumergroup=adapter-service},1651889191,904128
{consumergroup=adapter-service},1651889196,930837
{consumergroup=adapter-service},1651889201,930837
{consumergroup=adapter-service},1651889206,930837
{consumergroup=adapter-service},1651889211,997212
{consumergroup=adapter-service},1651889216,997212
{consumergroup=adapter-service},1651889221,997212
{consumergroup=adapter-service},1651889226,1044755
{consumergroup=adapter-service},1651889231,1044755
{consumergroup=adapter-service},1651889236,1044755
{consumergroup=adapter-service},1651889241,1106854
{consumergroup=adapter-service},1651889246,1106854
{consumergroup=adapter-service},1651889251,1106854
{consumergroup=adapter-service},1651889256,1122486
{consumergroup=adapter-service},1651889261,1122486
{consumergroup=adapter-service},1651889266,1122486
{consumergroup=adapter-service},1651889271,1176193
{consumergroup=adapter-service},1651889276,1176193
{consumergroup=adapter-service},1651889281,1176193
{consumergroup=adapter-service},1651889286,1231012
{consumergroup=adapter-service},1651889291,1231012
{consumergroup=adapter-service},1651889296,1231012
{consumergroup=adapter-service},1651889301,1283145
{consumergroup=adapter-service},1651889306,1283145
{consumergroup=adapter-service},1651889311,1283145
{consumergroup=adapter-service},1651889316,1304471
