labels,timestamp,value
{consumergroup=__strimzi-topic-operator-kstreams},1652345981,9
{consumergroup=__strimzi-topic-operator-kstreams},1652345986,9
{consumergroup=__strimzi-topic-operator-kstreams},1652345991,9
{consumergroup=__strimzi-topic-operator-kstreams},1652345996,0
{consumergroup=__strimzi-topic-operator-kstreams},1652346001,0
{consumergroup=__strimzi-topic-operator-kstreams},1652346006,0
{consumergroup=__strimzi-topic-operator-kstreams},1652346011,0
{consumergroup=__strimzi-topic-operator-kstreams},1652346016,0
{consumergroup=__strimzi-topic-operator-kstreams},1652346021,0
{consumergroup=__strimzi-topic-operator-kstreams},1652346026,0
{consumergroup=__strimzi-topic-operator-kstreams},1652346031,0
{consumergroup=__strimzi-topic-operator-kstreams},1652346036,0
{consumergroup=__strimzi-topic-operator-kstreams},1652346041,0
{consumergroup=__strimzi-topic-operator-kstreams},1652346046,0
{consumergroup=__strimzi-topic-operator-kstreams},1652346051,0
{consumergroup=__strimzi-topic-operator-kstreams},1652346056,0
{consumergroup=__strimzi-topic-operator-kstreams},1652346061,0
{consumergroup=__strimzi-topic-operator-kstreams},1652346066,0
{consumergroup=__strimzi-topic-operator-kstreams},1652346071,0
{consumergroup=__strimzi-topic-operator-kstreams},1652346076,0
{consumergroup=__strimzi-topic-operator-kstreams},1652346081,0
{consumergroup=__strimzi-topic-operator-kstreams},1652346086,0
{consumergroup=__strimzi-topic-operator-kstreams},1652346091,0
{consumergroup=__strimzi-topic-operator-kstreams},1652346096,0
{consumergroup=__strimzi-topic-operator-kstreams},1652346101,0
{consumergroup=__strimzi-topic-operator-kstreams},1652346106,0
{consumergroup=__strimzi-topic-operator-kstreams},1652346111,0
{consumergroup=__strimzi-topic-operator-kstreams},1652346116,0
{consumergroup=__strimzi-topic-operator-kstreams},1652346121,0
{consumergroup=__strimzi-topic-operator-kstreams},1652346126,0
{consumergroup=__strimzi-topic-operator-kstreams},1652346131,0
{consumergroup=__strimzi-topic-operator-kstreams},1652346136,0
{consumergroup=__strimzi-topic-operator-kstreams},1652346141,0
{consumergroup=__strimzi-topic-operator-kstreams},1652346146,1
{consumergroup=__strimzi-topic-operator-kstreams},1652346151,1
{consumergroup=__strimzi-topic-operator-kstreams},1652346156,1
{consumergroup=__strimzi-topic-operator-kstreams},1652346161,3
{consumergroup=__strimzi-topic-operator-kstreams},1652346166,3
{consumergroup=__strimzi-topic-operator-kstreams},1652346171,3
{consumergroup=__strimzi-topic-operator-kstreams},1652346176,0
{consumergroup=__strimzi-topic-operator-kstreams},1652346181,0
{consumergroup=__strimzi-topic-operator-kstreams},1652346186,0
{consumergroup=__strimzi-topic-operator-kstreams},1652346191,0
{consumergroup=__strimzi-topic-operator-kstreams},1652346196,0
{consumergroup=__strimzi-topic-operator-kstreams},1652346201,0
{consumergroup=__strimzi-topic-operator-kstreams},1652346206,0
{consumergroup=__strimzi-topic-operator-kstreams},1652346211,0
{consumergroup=__strimzi-topic-operator-kstreams},1652346216,0
{consumergroup=__strimzi-topic-operator-kstreams},1652346221,0
{consumergroup=__strimzi-topic-operator-kstreams},1652346226,0
{consumergroup=__strimzi-topic-operator-kstreams},1652346231,0
{consumergroup=__strimzi-topic-operator-kstreams},1652346236,0
{consumergroup=__strimzi-topic-operator-kstreams},1652346241,0
{consumergroup=__strimzi-topic-operator-kstreams},1652346246,0
{consumergroup=__strimzi-topic-operator-kstreams},1652346251,0
{consumergroup=__strimzi-topic-operator-kstreams},1652346256,0
{consumergroup=__strimzi-topic-operator-kstreams},1652346261,0
{consumergroup=__strimzi-topic-operator-kstreams},1652346266,0
{consumergroup=__strimzi-topic-operator-kstreams},1652346271,0
{consumergroup=__strimzi-topic-operator-kstreams},1652346276,0
{consumergroup=__strimzi-topic-operator-kstreams},1652346281,0
{consumergroup=__strimzi-topic-operator-kstreams},1652346286,0
{consumergroup=__strimzi-topic-operator-kstreams},1652346291,0
{consumergroup=__strimzi-topic-operator-kstreams},1652346296,0
{consumergroup=__strimzi-topic-operator-kstreams},1652346301,0
{consumergroup=__strimzi-topic-operator-kstreams},1652346306,0
{consumergroup=__strimzi-topic-operator-kstreams},1652346311,0
{consumergroup=__strimzi-topic-operator-kstreams},1652346316,0
{consumergroup=__strimzi-topic-operator-kstreams},1652346321,0
{consumergroup=__strimzi-topic-operator-kstreams},1652346326,0
{consumergroup=__strimzi-topic-operator-kstreams},1652346331,0
{consumergroup=__strimzi-topic-operator-kstreams},1652346336,0
{consumergroup=__strimzi-topic-operator-kstreams},1652346341,0
{consumergroup=__strimzi-topic-operator-kstreams},1652346346,0
{consumergroup=__strimzi-topic-operator-kstreams},1652346351,0
{consumergroup=__strimzi-topic-operator-kstreams},1652346356,0
{consumergroup=__strimzi-topic-operator-kstreams},1652346361,0
{consumergroup=__strimzi-topic-operator-kstreams},1652346366,0
{consumergroup=__strimzi-topic-operator-kstreams},1652346371,0
{consumergroup=__strimzi-topic-operator-kstreams},1652346376,0
{consumergroup=__strimzi-topic-operator-kstreams},1652346381,0
{consumergroup=__strimzi-topic-operator-kstreams},1652346386,0
{consumergroup=__strimzi-topic-operator-kstreams},1652346391,0
{consumergroup=__strimzi-topic-operator-kstreams},1652346396,0
{consumergroup=__strimzi-topic-operator-kstreams},1652346401,0
{consumergroup=__strimzi-topic-operator-kstreams},1652346406,0
{consumergroup=__strimzi-topic-operator-kstreams},1652346411,0
{consumergroup=__strimzi-topic-operator-kstreams},1652346416,0
{consumergroup=__strimzi-topic-operator-kstreams},1652346421,0
{consumergroup=__strimzi-topic-operator-kstreams},1652346426,0
{consumergroup=__strimzi-topic-operator-kstreams},1652346431,0
{consumergroup=adapter-service},1652346176,145251
{consumergroup=adapter-service},1652346181,145251
{consumergroup=adapter-service},1652346186,145251
{consumergroup=adapter-service},1652346191,311160
{consumergroup=adapter-service},1652346196,311160
{consumergroup=adapter-service},1652346201,311160
{consumergroup=adapter-service},1652346206,326446
{consumergroup=adapter-service},1652346211,326446
{consumergroup=adapter-service},1652346216,326446
{consumergroup=adapter-service},1652346221,346994
{consumergroup=adapter-service},1652346226,346994
{consumergroup=adapter-service},1652346231,346994
{consumergroup=adapter-service},1652346236,376999
{consumergroup=adapter-service},1652346241,376999
{consumergroup=adapter-service},1652346246,376999
{consumergroup=adapter-service},1652346251,402073
{consumergroup=adapter-service},1652346256,402073
{consumergroup=adapter-service},1652346261,402073
{consumergroup=adapter-service},1652346266,427768
{consumergroup=adapter-service},1652346271,427768
{consumergroup=adapter-service},1652346276,427768
{consumergroup=adapter-service},1652346281,447458
{consumergroup=adapter-service},1652346286,447458
{consumergroup=adapter-service},1652346291,447458
{consumergroup=adapter-service},1652346296,468253
{consumergroup=adapter-service},1652346301,468253
{consumergroup=adapter-service},1652346306,468253
{consumergroup=adapter-service},1652346311,483771
{consumergroup=adapter-service},1652346316,483771
{consumergroup=adapter-service},1652346321,483771
{consumergroup=adapter-service},1652346326,500999
{consumergroup=adapter-service},1652346331,500999
{consumergroup=adapter-service},1652346336,500999
{consumergroup=adapter-service},1652346341,514549
{consumergroup=adapter-service},1652346346,514549
{consumergroup=adapter-service},1652346351,514549
{consumergroup=adapter-service},1652346356,531912
{consumergroup=adapter-service},1652346361,531912
{consumergroup=adapter-service},1652346366,531912
{consumergroup=adapter-service},1652346371,544590
{consumergroup=adapter-service},1652346376,544590
{consumergroup=adapter-service},1652346381,544590
{consumergroup=adapter-service},1652346386,559132
{consumergroup=adapter-service},1652346391,559132
{consumergroup=adapter-service},1652346396,559132
{consumergroup=adapter-service},1652346401,577077
{consumergroup=adapter-service},1652346406,577077
{consumergroup=adapter-service},1652346411,577077
{consumergroup=adapter-service},1652346416,591539
{consumergroup=adapter-service},1652346421,591539
{consumergroup=adapter-service},1652346426,591539
{consumergroup=adapter-service},1652346431,601909
{consumergroup=trace-service},1652346221,18
{consumergroup=trace-service},1652346226,18
{consumergroup=trace-service},1652346231,18
{consumergroup=trace-service},1652346236,1264
{consumergroup=trace-service},1652346241,1264
{consumergroup=trace-service},1652346246,1264
{consumergroup=trace-service},1652346251,3944
{consumergroup=trace-service},1652346256,3944
{consumergroup=trace-service},1652346261,3944
{consumergroup=trace-service},1652346266,10380
{consumergroup=trace-service},1652346271,10380
{consumergroup=trace-service},1652346276,10380
{consumergroup=trace-service},1652346281,17032
{consumergroup=trace-service},1652346286,17032
{consumergroup=trace-service},1652346291,17032
{consumergroup=trace-service},1652346296,27407
{consumergroup=trace-service},1652346301,27407
{consumergroup=trace-service},1652346306,27407
{consumergroup=trace-service},1652346311,37136
{consumergroup=trace-service},1652346316,37136
{consumergroup=trace-service},1652346321,37136
{consumergroup=trace-service},1652346326,48471
{consumergroup=trace-service},1652346331,48471
{consumergroup=trace-service},1652346336,48471
{consumergroup=trace-service},1652346341,59219
{consumergroup=trace-service},1652346346,59219
{consumergroup=trace-service},1652346351,59219
{consumergroup=trace-service},1652346356,71667
{consumergroup=trace-service},1652346361,71667
{consumergroup=trace-service},1652346366,71667
{consumergroup=trace-service},1652346371,89721
{consumergroup=trace-service},1652346376,89721
{consumergroup=trace-service},1652346381,89721
{consumergroup=trace-service},1652346386,114105
{consumergroup=trace-service},1652346391,114105
{consumergroup=trace-service},1652346396,114105
{consumergroup=trace-service},1652346401,128188
{consumergroup=trace-service},1652346406,128188
{consumergroup=trace-service},1652346411,128188
{consumergroup=trace-service},1652346416,153286
{consumergroup=trace-service},1652346421,153286
{consumergroup=trace-service},1652346426,153286
{consumergroup=trace-service},1652346431,182187
