labels,timestamp,value
{job=theodolite-stu200776/combined-trace-podmonitor},1652343809,0
{job=theodolite-stu200776/combined-trace-podmonitor},1652343814,0
{job=theodolite-stu200776/combined-trace-podmonitor},1652343819,0
{job=theodolite-stu200776/combined-trace-podmonitor},1652343824,0
{job=theodolite-stu200776/combined-trace-podmonitor},1652343829,0
{job=theodolite-stu200776/combined-trace-podmonitor},1652343834,0
{job=theodolite-stu200776/combined-trace-podmonitor},1652343839,0
{job=theodolite-stu200776/combined-trace-podmonitor},1652343844,0
{job=theodolite-stu200776/combined-trace-podmonitor},1652343849,0
{job=theodolite-stu200776/combined-trace-podmonitor},1652343854,0
{job=theodolite-stu200776/combined-trace-podmonitor},1652343859,0
{job=theodolite-stu200776/combined-trace-podmonitor},1652343864,0
{job=theodolite-stu200776/combined-trace-podmonitor},1652343869,0.021140308225693932
{job=theodolite-stu200776/combined-trace-podmonitor},1652343874,0.021140308225693932
{job=theodolite-stu200776/combined-trace-podmonitor},1652343879,0.07028436227573315
{job=theodolite-stu200776/combined-trace-podmonitor},1652343884,0.2552773171673378
{job=theodolite-stu200776/combined-trace-podmonitor},1652343889,0.31366535291203124
{job=theodolite-stu200776/combined-trace-podmonitor},1652343894,0.27528020909209366
{job=theodolite-stu200776/combined-trace-podmonitor},1652343899,0.9307339752108786
{job=theodolite-stu200776/combined-trace-podmonitor},1652343904,0.9200546217597991
{job=theodolite-stu200776/combined-trace-podmonitor},1652343909,0.8438607910082134
{job=theodolite-stu200776/combined-trace-podmonitor},1652343914,0.8924275733359632
{job=theodolite-stu200776/combined-trace-podmonitor},1652343919,0.9027312031328676
{job=theodolite-stu200776/combined-trace-podmonitor},1652343924,0.8621271541607307
{job=theodolite-stu200776/combined-trace-podmonitor},1652343929,0.8537603739161327
{job=theodolite-stu200776/combined-trace-podmonitor},1652343934,0.8131246598570125
{job=theodolite-stu200776/combined-trace-podmonitor},1652343939,0.48746227705331135
{job=theodolite-stu200776/combined-trace-podmonitor},1652343944,0.3842068001362307
{job=theodolite-stu200776/combined-trace-podmonitor},1652343949,0.22456545513019868
{job=theodolite-stu200776/combined-trace-podmonitor},1652343954,0.22456545513019868
{job=theodolite-stu200776/combined-trace-podmonitor},1652343959,0.5753065365616459
{job=theodolite-stu200776/combined-trace-podmonitor},1652343964,0.5753065365616459
{job=theodolite-stu200776/combined-trace-podmonitor},1652343969,0.472844685402267
{job=theodolite-stu200776/combined-trace-podmonitor},1652343974,0.472844685402267
{job=theodolite-stu200776/combined-trace-podmonitor},1652343979,0.45058252226456785
{job=theodolite-stu200776/combined-trace-podmonitor},1652343984,0.45058252226456785
{job=theodolite-stu200776/combined-trace-podmonitor},1652343989,0.5532573520001435
{job=theodolite-stu200776/combined-trace-podmonitor},1652343994,0.5532573520001435
{job=theodolite-stu200776/combined-trace-podmonitor},1652343999,0.45146041511982904
{job=theodolite-stu200776/combined-trace-podmonitor},1652344004,0.45146041511982904
{job=theodolite-stu200776/combined-trace-podmonitor},1652344009,0.0181775216766946
{job=theodolite-stu200776/combined-trace-podmonitor},1652344014,0.0181775216766946
{job=theodolite-stu200776/combined-trace-podmonitor},1652344019,0.15703207755839643
{job=theodolite-stu200776/combined-trace-podmonitor},1652344024,0.15703207755839643
{job=theodolite-stu200776/combined-trace-podmonitor},1652344029,0.14407453596357334
