labels,timestamp,value
{consumergroup=__strimzi-topic-operator-kstreams},1651877598,0
{consumergroup=__strimzi-topic-operator-kstreams},1651877603,0
{consumergroup=__strimzi-topic-operator-kstreams},1651877608,0
{consumergroup=__strimzi-topic-operator-kstreams},1651877613,0
{consumergroup=__strimzi-topic-operator-kstreams},1651877618,0
{consumergroup=__strimzi-topic-operator-kstreams},1651877623,0
{consumergroup=__strimzi-topic-operator-kstreams},1651877628,0
{consumergroup=__strimzi-topic-operator-kstreams},1651877633,0
{consumergroup=__strimzi-topic-operator-kstreams},1651877638,0
{consumergroup=__strimzi-topic-operator-kstreams},1651877643,0
{consumergroup=__strimzi-topic-operator-kstreams},1651877648,0
{consumergroup=__strimzi-topic-operator-kstreams},1651877653,0
{consumergroup=__strimzi-topic-operator-kstreams},1651877658,0
{consumergroup=__strimzi-topic-operator-kstreams},1651877663,0
{consumergroup=__strimzi-topic-operator-kstreams},1651877668,0
{consumergroup=__strimzi-topic-operator-kstreams},1651877673,0
{consumergroup=__strimzi-topic-operator-kstreams},1651877678,0
{consumergroup=__strimzi-topic-operator-kstreams},1651877683,0
{consumergroup=__strimzi-topic-operator-kstreams},1651877688,0
{consumergroup=__strimzi-topic-operator-kstreams},1651877693,0
{consumergroup=__strimzi-topic-operator-kstreams},1651877698,0
{consumergroup=__strimzi-topic-operator-kstreams},1651877703,0
{consumergroup=__strimzi-topic-operator-kstreams},1651877708,0
{consumergroup=__strimzi-topic-operator-kstreams},1651877713,0
{consumergroup=__strimzi-topic-operator-kstreams},1651877718,0
{consumergroup=__strimzi-topic-operator-kstreams},1651877723,0
{consumergroup=__strimzi-topic-operator-kstreams},1651877728,0
{consumergroup=__strimzi-topic-operator-kstreams},1651877733,0
{consumergroup=__strimzi-topic-operator-kstreams},1651877738,0
{consumergroup=__strimzi-topic-operator-kstreams},1651877743,0
{consumergroup=__strimzi-topic-operator-kstreams},1651877748,0
{consumergroup=__strimzi-topic-operator-kstreams},1651877753,0
{consumergroup=__strimzi-topic-operator-kstreams},1651877758,0
{consumergroup=__strimzi-topic-operator-kstreams},1651877763,0
{consumergroup=__strimzi-topic-operator-kstreams},1651877768,0
{consumergroup=__strimzi-topic-operator-kstreams},1651877773,0
{consumergroup=__strimzi-topic-operator-kstreams},1651877778,0
{consumergroup=__strimzi-topic-operator-kstreams},1651877783,0
{consumergroup=__strimzi-topic-operator-kstreams},1651877788,0
{consumergroup=__strimzi-topic-operator-kstreams},1651877793,0
{consumergroup=__strimzi-topic-operator-kstreams},1651877798,0
{consumergroup=__strimzi-topic-operator-kstreams},1651877803,0
{consumergroup=__strimzi-topic-operator-kstreams},1651877808,0
{consumergroup=__strimzi-topic-operator-kstreams},1651877813,0
{consumergroup=__strimzi-topic-operator-kstreams},1651877818,0
{consumergroup=__strimzi-topic-operator-kstreams},1651877823,0
{consumergroup=__strimzi-topic-operator-kstreams},1651877828,0
{consumergroup=__strimzi-topic-operator-kstreams},1651877833,0
{consumergroup=__strimzi-topic-operator-kstreams},1651877838,0
{consumergroup=__strimzi-topic-operator-kstreams},1651877843,0
{consumergroup=__strimzi-topic-operator-kstreams},1651877848,0
{consumergroup=adapter-service},1651877628,239977
{consumergroup=adapter-service},1651877633,239977
{consumergroup=adapter-service},1651877638,239977
{consumergroup=adapter-service},1651877643,571765
{consumergroup=adapter-service},1651877648,571765
{consumergroup=adapter-service},1651877653,571765
{consumergroup=adapter-service},1651877658,720871
{consumergroup=adapter-service},1651877663,720871
{consumergroup=adapter-service},1651877668,720871
{consumergroup=adapter-service},1651877673,879199
{consumergroup=adapter-service},1651877678,879199
{consumergroup=adapter-service},1651877683,879199
{consumergroup=adapter-service},1651877688,1003754
{consumergroup=adapter-service},1651877693,1003754
{consumergroup=adapter-service},1651877698,1003754
{consumergroup=adapter-service},1651877703,1066287
{consumergroup=adapter-service},1651877708,1066287
{consumergroup=adapter-service},1651877713,1066287
{consumergroup=adapter-service},1651877718,1088243
{consumergroup=adapter-service},1651877723,1088243
{consumergroup=adapter-service},1651877728,1088243
{consumergroup=adapter-service},1651877733,1130265
{consumergroup=adapter-service},1651877738,1130265
{consumergroup=adapter-service},1651877743,1130265
{consumergroup=adapter-service},1651877748,1109241
{consumergroup=adapter-service},1651877753,1109241
{consumergroup=adapter-service},1651877758,1109241
{consumergroup=adapter-service},1651877763,1087339
{consumergroup=adapter-service},1651877768,1087339
{consumergroup=adapter-service},1651877773,1087339
{consumergroup=adapter-service},1651877778,1075104
{consumergroup=adapter-service},1651877783,1075104
{consumergroup=adapter-service},1651877788,1075104
{consumergroup=adapter-service},1651877793,1019013
{consumergroup=adapter-service},1651877798,1019013
{consumergroup=adapter-service},1651877803,1019013
{consumergroup=adapter-service},1651877808,1027311
{consumergroup=adapter-service},1651877813,1027311
{consumergroup=adapter-service},1651877818,1027311
{consumergroup=adapter-service},1651877823,998662
{consumergroup=adapter-service},1651877828,998662
{consumergroup=adapter-service},1651877833,998662
{consumergroup=adapter-service},1651877838,980321
{consumergroup=adapter-service},1651877843,980321
{consumergroup=adapter-service},1651877848,980321
