labels,timestamp,value
{consumergroup=__strimzi-topic-operator-kstreams},1652355237,11
{consumergroup=__strimzi-topic-operator-kstreams},1652355242,11
{consumergroup=__strimzi-topic-operator-kstreams},1652355247,11
{consumergroup=__strimzi-topic-operator-kstreams},1652355252,0
{consumergroup=__strimzi-topic-operator-kstreams},1652355257,0
{consumergroup=__strimzi-topic-operator-kstreams},1652355262,0
{consumergroup=__strimzi-topic-operator-kstreams},1652355267,0
{consumergroup=__strimzi-topic-operator-kstreams},1652355272,0
{consumergroup=__strimzi-topic-operator-kstreams},1652355277,0
{consumergroup=__strimzi-topic-operator-kstreams},1652355282,0
{consumergroup=__strimzi-topic-operator-kstreams},1652355287,0
{consumergroup=__strimzi-topic-operator-kstreams},1652355292,0
{consumergroup=__strimzi-topic-operator-kstreams},1652355297,0
{consumergroup=__strimzi-topic-operator-kstreams},1652355302,0
{consumergroup=__strimzi-topic-operator-kstreams},1652355307,0
{consumergroup=__strimzi-topic-operator-kstreams},1652355312,0
{consumergroup=__strimzi-topic-operator-kstreams},1652355317,0
{consumergroup=__strimzi-topic-operator-kstreams},1652355322,0
{consumergroup=__strimzi-topic-operator-kstreams},1652355327,0
{consumergroup=__strimzi-topic-operator-kstreams},1652355332,0
{consumergroup=__strimzi-topic-operator-kstreams},1652355337,0
{consumergroup=__strimzi-topic-operator-kstreams},1652355342,0
{consumergroup=__strimzi-topic-operator-kstreams},1652355347,0
{consumergroup=__strimzi-topic-operator-kstreams},1652355352,0
{consumergroup=__strimzi-topic-operator-kstreams},1652355357,0
{consumergroup=__strimzi-topic-operator-kstreams},1652355362,0
{consumergroup=__strimzi-topic-operator-kstreams},1652355367,0
{consumergroup=__strimzi-topic-operator-kstreams},1652355372,0
{consumergroup=__strimzi-topic-operator-kstreams},1652355377,0
{consumergroup=__strimzi-topic-operator-kstreams},1652355382,0
{consumergroup=__strimzi-topic-operator-kstreams},1652355387,0
{consumergroup=__strimzi-topic-operator-kstreams},1652355392,0
{consumergroup=__strimzi-topic-operator-kstreams},1652355397,0
{consumergroup=__strimzi-topic-operator-kstreams},1652355402,0
{consumergroup=__strimzi-topic-operator-kstreams},1652355407,0
{consumergroup=__strimzi-topic-operator-kstreams},1652355412,0
{consumergroup=__strimzi-topic-operator-kstreams},1652355417,0
{consumergroup=__strimzi-topic-operator-kstreams},1652355422,0
{consumergroup=__strimzi-topic-operator-kstreams},1652355427,0
{consumergroup=__strimzi-topic-operator-kstreams},1652355432,0
{consumergroup=__strimzi-topic-operator-kstreams},1652355437,0
{consumergroup=__strimzi-topic-operator-kstreams},1652355442,0
{consumergroup=__strimzi-topic-operator-kstreams},1652355447,0
{consumergroup=__strimzi-topic-operator-kstreams},1652355452,0
{consumergroup=__strimzi-topic-operator-kstreams},1652355457,0
{consumergroup=__strimzi-topic-operator-kstreams},1652355462,0
{consumergroup=__strimzi-topic-operator-kstreams},1652355467,0
{consumergroup=__strimzi-topic-operator-kstreams},1652355472,0
{consumergroup=__strimzi-topic-operator-kstreams},1652355477,0
{consumergroup=__strimzi-topic-operator-kstreams},1652355482,0
{consumergroup=__strimzi-topic-operator-kstreams},1652355487,0
{consumergroup=__strimzi-topic-operator-kstreams},1652355492,0
{consumergroup=__strimzi-topic-operator-kstreams},1652355497,0
{consumergroup=__strimzi-topic-operator-kstreams},1652355502,0
{consumergroup=__strimzi-topic-operator-kstreams},1652355507,0
{consumergroup=__strimzi-topic-operator-kstreams},1652355512,0
{consumergroup=__strimzi-topic-operator-kstreams},1652355517,0
{consumergroup=__strimzi-topic-operator-kstreams},1652355522,0
{consumergroup=__strimzi-topic-operator-kstreams},1652355527,0
{consumergroup=__strimzi-topic-operator-kstreams},1652355532,0
{consumergroup=__strimzi-topic-operator-kstreams},1652355537,0
{consumergroup=__strimzi-topic-operator-kstreams},1652355542,0
{consumergroup=__strimzi-topic-operator-kstreams},1652355547,0
{consumergroup=__strimzi-topic-operator-kstreams},1652355552,0
{consumergroup=__strimzi-topic-operator-kstreams},1652355557,0
{consumergroup=__strimzi-topic-operator-kstreams},1652355562,0
{consumergroup=__strimzi-topic-operator-kstreams},1652355567,0
{consumergroup=__strimzi-topic-operator-kstreams},1652355572,0
{consumergroup=__strimzi-topic-operator-kstreams},1652355577,0
{consumergroup=__strimzi-topic-operator-kstreams},1652355582,0
{consumergroup=__strimzi-topic-operator-kstreams},1652355587,0
{consumergroup=__strimzi-topic-operator-kstreams},1652355592,0
{consumergroup=__strimzi-topic-operator-kstreams},1652355597,0
{consumergroup=__strimzi-topic-operator-kstreams},1652355602,0
{consumergroup=__strimzi-topic-operator-kstreams},1652355607,0
{consumergroup=__strimzi-topic-operator-kstreams},1652355612,0
{consumergroup=__strimzi-topic-operator-kstreams},1652355617,0
{consumergroup=__strimzi-topic-operator-kstreams},1652355622,0
{consumergroup=__strimzi-topic-operator-kstreams},1652355627,0
{consumergroup=__strimzi-topic-operator-kstreams},1652355632,0
{consumergroup=__strimzi-topic-operator-kstreams},1652355637,0
{consumergroup=__strimzi-topic-operator-kstreams},1652355642,0
{consumergroup=__strimzi-topic-operator-kstreams},1652355647,0
{consumergroup=__strimzi-topic-operator-kstreams},1652355652,0
{consumergroup=__strimzi-topic-operator-kstreams},1652355657,0
{consumergroup=__strimzi-topic-operator-kstreams},1652355662,0
{consumergroup=__strimzi-topic-operator-kstreams},1652355667,0
{consumergroup=__strimzi-topic-operator-kstreams},1652355672,0
{consumergroup=__strimzi-topic-operator-kstreams},1652355677,0
{consumergroup=__strimzi-topic-operator-kstreams},1652355682,0
{consumergroup=adapter-service},1652355297,1702
{consumergroup=adapter-service},1652355302,1702
{consumergroup=adapter-service},1652355307,1702
{consumergroup=adapter-service},1652355312,3220
{consumergroup=adapter-service},1652355317,3220
{consumergroup=adapter-service},1652355322,3220
{consumergroup=adapter-service},1652355327,1201
{consumergroup=adapter-service},1652355332,1201
{consumergroup=adapter-service},1652355337,1201
{consumergroup=adapter-service},1652355342,405
{consumergroup=adapter-service},1652355347,405
{consumergroup=adapter-service},1652355352,405
{consumergroup=adapter-service},1652355357,346
{consumergroup=adapter-service},1652355362,346
{consumergroup=adapter-service},1652355367,346
{consumergroup=adapter-service},1652355372,566
{consumergroup=adapter-service},1652355377,566
{consumergroup=adapter-service},1652355382,566
{consumergroup=adapter-service},1652355387,413
{consumergroup=adapter-service},1652355392,413
{consumergroup=adapter-service},1652355397,413
{consumergroup=adapter-service},1652355402,764
{consumergroup=adapter-service},1652355407,764
{consumergroup=adapter-service},1652355412,764
{consumergroup=adapter-service},1652355417,736
{consumergroup=adapter-service},1652355422,736
{consumergroup=adapter-service},1652355427,736
{consumergroup=adapter-service},1652355432,715
{consumergroup=adapter-service},1652355437,715
{consumergroup=adapter-service},1652355442,715
{consumergroup=adapter-service},1652355447,780
{consumergroup=adapter-service},1652355452,780
{consumergroup=adapter-service},1652355457,780
{consumergroup=adapter-service},1652355462,549
{consumergroup=adapter-service},1652355467,549
{consumergroup=adapter-service},1652355472,549
{consumergroup=adapter-service},1652355477,695
{consumergroup=adapter-service},1652355482,695
{consumergroup=adapter-service},1652355487,695
{consumergroup=adapter-service},1652355492,433
{consumergroup=adapter-service},1652355497,433
{consumergroup=adapter-service},1652355502,433
{consumergroup=adapter-service},1652355507,657
{consumergroup=adapter-service},1652355512,657
{consumergroup=adapter-service},1652355517,657
{consumergroup=adapter-service},1652355522,366
{consumergroup=adapter-service},1652355527,366
{consumergroup=adapter-service},1652355532,366
{consumergroup=adapter-service},1652355537,721
{consumergroup=adapter-service},1652355542,721
{consumergroup=adapter-service},1652355547,721
{consumergroup=adapter-service},1652355552,478
{consumergroup=adapter-service},1652355557,478
{consumergroup=adapter-service},1652355562,478
{consumergroup=adapter-service},1652355567,483
{consumergroup=adapter-service},1652355572,483
{consumergroup=adapter-service},1652355577,483
{consumergroup=adapter-service},1652355582,160
{consumergroup=adapter-service},1652355587,160
{consumergroup=adapter-service},1652355592,160
{consumergroup=adapter-service},1652355597,302
{consumergroup=adapter-service},1652355602,302
{consumergroup=adapter-service},1652355607,302
{consumergroup=adapter-service},1652355612,460
{consumergroup=adapter-service},1652355617,460
{consumergroup=adapter-service},1652355622,460
{consumergroup=adapter-service},1652355627,376
{consumergroup=adapter-service},1652355632,376
{consumergroup=adapter-service},1652355637,376
{consumergroup=adapter-service},1652355642,323
{consumergroup=adapter-service},1652355647,323
{consumergroup=adapter-service},1652355652,323
{consumergroup=adapter-service},1652355657,269
{consumergroup=adapter-service},1652355662,269
{consumergroup=adapter-service},1652355667,269
{consumergroup=adapter-service},1652355672,358
{consumergroup=adapter-service},1652355677,358
{consumergroup=adapter-service},1652355682,358
{consumergroup=landscape-service},1652355372,9000
{consumergroup=landscape-service},1652355377,9000
{consumergroup=landscape-service},1652355382,9000
{consumergroup=landscape-service},1652355387,534
{consumergroup=landscape-service},1652355392,534
{consumergroup=landscape-service},1652355397,534
{consumergroup=landscape-service},1652355402,390
{consumergroup=landscape-service},1652355407,390
{consumergroup=landscape-service},1652355412,390
{consumergroup=landscape-service},1652355417,346
{consumergroup=landscape-service},1652355422,346
{consumergroup=landscape-service},1652355427,346
{consumergroup=landscape-service},1652355432,276
{consumergroup=landscape-service},1652355437,276
{consumergroup=landscape-service},1652355442,276
{consumergroup=landscape-service},1652355447,266
{consumergroup=landscape-service},1652355452,266
{consumergroup=landscape-service},1652355457,266
{consumergroup=landscape-service},1652355462,323
{consumergroup=landscape-service},1652355467,323
{consumergroup=landscape-service},1652355472,323
{consumergroup=landscape-service},1652355477,485
{consumergroup=landscape-service},1652355482,485
{consumergroup=landscape-service},1652355487,485
{consumergroup=landscape-service},1652355492,264
{consumergroup=landscape-service},1652355497,264
{consumergroup=landscape-service},1652355502,264
{consumergroup=landscape-service},1652355507,434
{consumergroup=landscape-service},1652355512,434
{consumergroup=landscape-service},1652355517,434
{consumergroup=landscape-service},1652355522,539
{consumergroup=landscape-service},1652355527,539
{consumergroup=landscape-service},1652355532,539
{consumergroup=landscape-service},1652355537,308
{consumergroup=landscape-service},1652355542,308
{consumergroup=landscape-service},1652355547,308
{consumergroup=landscape-service},1652355552,382
{consumergroup=landscape-service},1652355557,382
{consumergroup=landscape-service},1652355562,382
{consumergroup=landscape-service},1652355567,349
{consumergroup=landscape-service},1652355572,349
{consumergroup=landscape-service},1652355577,349
{consumergroup=landscape-service},1652355582,471
{consumergroup=landscape-service},1652355587,471
{consumergroup=landscape-service},1652355592,471
{consumergroup=landscape-service},1652355597,312
{consumergroup=landscape-service},1652355602,312
{consumergroup=landscape-service},1652355607,312
{consumergroup=landscape-service},1652355612,284
{consumergroup=landscape-service},1652355617,284
{consumergroup=landscape-service},1652355622,284
{consumergroup=landscape-service},1652355627,594
{consumergroup=landscape-service},1652355632,594
{consumergroup=landscape-service},1652355637,594
{consumergroup=landscape-service},1652355642,552
{consumergroup=landscape-service},1652355647,552
{consumergroup=landscape-service},1652355652,552
{consumergroup=landscape-service},1652355657,560
{consumergroup=landscape-service},1652355662,560
{consumergroup=landscape-service},1652355667,560
{consumergroup=landscape-service},1652355672,632
{consumergroup=landscape-service},1652355677,632
{consumergroup=landscape-service},1652355682,632
{consumergroup=trace-service},1652355297,136
{consumergroup=trace-service},1652355302,136
{consumergroup=trace-service},1652355307,136
{consumergroup=trace-service},1652355312,310
{consumergroup=trace-service},1652355317,310
{consumergroup=trace-service},1652355322,310
{consumergroup=trace-service},1652355327,746
{consumergroup=trace-service},1652355332,746
{consumergroup=trace-service},1652355337,746
{consumergroup=trace-service},1652355342,2169
{consumergroup=trace-service},1652355347,2169
{consumergroup=trace-service},1652355352,2169
{consumergroup=trace-service},1652355357,7850
{consumergroup=trace-service},1652355362,7850
{consumergroup=trace-service},1652355367,7850
{consumergroup=trace-service},1652355372,8729
{consumergroup=trace-service},1652355377,8729
{consumergroup=trace-service},1652355382,8729
{consumergroup=trace-service},1652355387,6092
{consumergroup=trace-service},1652355392,6092
{consumergroup=trace-service},1652355397,6092
{consumergroup=trace-service},1652355402,7592
{consumergroup=trace-service},1652355407,7592
{consumergroup=trace-service},1652355412,7592
{consumergroup=trace-service},1652355417,5900
{consumergroup=trace-service},1652355422,5900
{consumergroup=trace-service},1652355427,5900
{consumergroup=trace-service},1652355432,5888
{consumergroup=trace-service},1652355437,5888
{consumergroup=trace-service},1652355442,5888
{consumergroup=trace-service},1652355447,5398
{consumergroup=trace-service},1652355452,5398
{consumergroup=trace-service},1652355457,5398
{consumergroup=trace-service},1652355462,4747
{consumergroup=trace-service},1652355467,4747
{consumergroup=trace-service},1652355472,4747
{consumergroup=trace-service},1652355477,3302
{consumergroup=trace-service},1652355482,3302
{consumergroup=trace-service},1652355487,3302
{consumergroup=trace-service},1652355492,3836
{consumergroup=trace-service},1652355497,3836
{consumergroup=trace-service},1652355502,3836
{consumergroup=trace-service},1652355507,1362
{consumergroup=trace-service},1652355512,1362
{consumergroup=trace-service},1652355517,1362
{consumergroup=trace-service},1652355522,2137
{consumergroup=trace-service},1652355527,2137
{consumergroup=trace-service},1652355532,2137
{consumergroup=trace-service},1652355537,1135
{consumergroup=trace-service},1652355542,1135
{consumergroup=trace-service},1652355547,1135
{consumergroup=trace-service},1652355552,1862
{consumergroup=trace-service},1652355557,1862
{consumergroup=trace-service},1652355562,1862
{consumergroup=trace-service},1652355567,1144
{consumergroup=trace-service},1652355572,1144
{consumergroup=trace-service},1652355577,1144
{consumergroup=trace-service},1652355582,2567
{consumergroup=trace-service},1652355587,2567
{consumergroup=trace-service},1652355592,2567
{consumergroup=trace-service},1652355597,897
{consumergroup=trace-service},1652355602,897
{consumergroup=trace-service},1652355607,897
{consumergroup=trace-service},1652355612,2210
{consumergroup=trace-service},1652355617,2210
{consumergroup=trace-service},1652355622,2210
{consumergroup=trace-service},1652355627,1160
{consumergroup=trace-service},1652355632,1160
{consumergroup=trace-service},1652355637,1160
{consumergroup=trace-service},1652355642,2000
{consumergroup=trace-service},1652355647,2000
{consumergroup=trace-service},1652355652,2000
{consumergroup=trace-service},1652355657,1194
{consumergroup=trace-service},1652355662,1194
{consumergroup=trace-service},1652355667,1194
{consumergroup=trace-service},1652355672,1960
{consumergroup=trace-service},1652355677,1960
{consumergroup=trace-service},1652355682,1960
