labels,timestamp,value
{job=theodolite-stu200776/combined-trace-podmonitor},1652355337,1.9513994897238731
{job=theodolite-stu200776/combined-trace-podmonitor},1652355342,4.738018308731691
{job=theodolite-stu200776/combined-trace-podmonitor},1652355347,9.74884513241639
{job=theodolite-stu200776/combined-trace-podmonitor},1652355352,15.089330049664001
{job=theodolite-stu200776/combined-trace-podmonitor},1652355357,18.662545628125805
{job=theodolite-stu200776/combined-trace-podmonitor},1652355362,19.511170271179527
{job=theodolite-stu200776/combined-trace-podmonitor},1652355367,31.48049195132104
{job=theodolite-stu200776/combined-trace-podmonitor},1652355372,51.4070550940069
{job=theodolite-stu200776/combined-trace-podmonitor},1652355377,54.3011392464076
{job=theodolite-stu200776/combined-trace-podmonitor},1652355382,52.63692599053049
{job=theodolite-stu200776/combined-trace-podmonitor},1652355387,48.43689618693309
{job=theodolite-stu200776/combined-trace-podmonitor},1652355392,45.583387101694605
{job=theodolite-stu200776/combined-trace-podmonitor},1652355397,51.72530580943748
{job=theodolite-stu200776/combined-trace-podmonitor},1652355402,54.891521325323275
{job=theodolite-stu200776/combined-trace-podmonitor},1652355407,46.83941624408075
{job=theodolite-stu200776/combined-trace-podmonitor},1652355412,42.60455176607571
{job=theodolite-stu200776/combined-trace-podmonitor},1652355417,46.96727830410863
{job=theodolite-stu200776/combined-trace-podmonitor},1652355422,51.80809395720024
{job=theodolite-stu200776/combined-trace-podmonitor},1652355427,48.06616989661776
{job=theodolite-stu200776/combined-trace-podmonitor},1652355432,34.71088690165469
{job=theodolite-stu200776/combined-trace-podmonitor},1652355437,30.235947010290026
{job=theodolite-stu200776/combined-trace-podmonitor},1652355442,31.520140941740312
{job=theodolite-stu200776/combined-trace-podmonitor},1652355447,43.905046145011156
{job=theodolite-stu200776/combined-trace-podmonitor},1652355452,61.05729450300286
{job=theodolite-stu200776/combined-trace-podmonitor},1652355457,51.66664250805993
{job=theodolite-stu200776/combined-trace-podmonitor},1652355462,44.199945191809924
{job=theodolite-stu200776/combined-trace-podmonitor},1652355467,44.80965694821447
{job=theodolite-stu200776/combined-trace-podmonitor},1652355472,54.214646371219004
{job=theodolite-stu200776/combined-trace-podmonitor},1652355477,65.82014444401271
{job=theodolite-stu200776/combined-trace-podmonitor},1652355482,64.98609976024338
{job=theodolite-stu200776/combined-trace-podmonitor},1652355487,58.190807140431595
{job=theodolite-stu200776/combined-trace-podmonitor},1652355492,50.91749930285142
{job=theodolite-stu200776/combined-trace-podmonitor},1652355497,46.76673029952782
{job=theodolite-stu200776/combined-trace-podmonitor},1652355502,40.07057053717902
{job=theodolite-stu200776/combined-trace-podmonitor},1652355507,24.57182602494054
{job=theodolite-stu200776/combined-trace-podmonitor},1652355512,8.945439683673102
{job=theodolite-stu200776/combined-trace-podmonitor},1652355517,7.778682995812762
{job=theodolite-stu200776/combined-trace-podmonitor},1652355522,6.842863097212627
{job=theodolite-stu200776/combined-trace-podmonitor},1652355527,6.042383146728913
{job=theodolite-stu200776/combined-trace-podmonitor},1652355532,5.766094269598823
{job=theodolite-stu200776/combined-trace-podmonitor},1652355537,7.025166834658061
{job=theodolite-stu200776/combined-trace-podmonitor},1652355542,7.364688120270322
{job=theodolite-stu200776/combined-trace-podmonitor},1652355547,6.591495401160293
{job=theodolite-stu200776/combined-trace-podmonitor},1652355552,5.813735677253808
{job=theodolite-stu200776/combined-trace-podmonitor},1652355557,5.3289734082918265
{job=theodolite-stu200776/combined-trace-podmonitor},1652355562,3.7254866554365504
{job=theodolite-stu200776/combined-trace-podmonitor},1652355567,1.492454681239705
{job=theodolite-stu200776/combined-trace-podmonitor},1652355572,0
{job=theodolite-stu200776/combined-trace-podmonitor},1652355577,0
{job=theodolite-stu200776/combined-trace-podmonitor},1652355582,0
{job=theodolite-stu200776/combined-trace-podmonitor},1652355587,0
{job=theodolite-stu200776/combined-trace-podmonitor},1652355592,0
{job=theodolite-stu200776/combined-trace-podmonitor},1652355597,0
{job=theodolite-stu200776/combined-trace-podmonitor},1652355602,0
{job=theodolite-stu200776/combined-trace-podmonitor},1652355607,0
{job=theodolite-stu200776/combined-trace-podmonitor},1652355612,0
{job=theodolite-stu200776/combined-trace-podmonitor},1652355617,0
{job=theodolite-stu200776/combined-trace-podmonitor},1652355622,0
{job=theodolite-stu200776/combined-trace-podmonitor},1652355627,0
{job=theodolite-stu200776/combined-trace-podmonitor},1652355632,0
{job=theodolite-stu200776/combined-trace-podmonitor},1652355637,0
{job=theodolite-stu200776/combined-trace-podmonitor},1652355642,0
{job=theodolite-stu200776/combined-trace-podmonitor},1652355647,0
{job=theodolite-stu200776/combined-trace-podmonitor},1652355652,0
{job=theodolite-stu200776/combined-trace-podmonitor},1652355657,0
{job=theodolite-stu200776/combined-trace-podmonitor},1652355662,0
{job=theodolite-stu200776/combined-trace-podmonitor},1652355667,0
{job=theodolite-stu200776/combined-trace-podmonitor},1652355672,0
{job=theodolite-stu200776/combined-trace-podmonitor},1652355677,0
{job=theodolite-stu200776/combined-trace-podmonitor},1652355682,0
