labels,timestamp,value
{consumergroup=__strimzi-topic-operator-kstreams},1651461357,8
{consumergroup=__strimzi-topic-operator-kstreams},1651461362,8
{consumergroup=__strimzi-topic-operator-kstreams},1651461367,8
{consumergroup=__strimzi-topic-operator-kstreams},1651461372,10
{consumergroup=__strimzi-topic-operator-kstreams},1651461377,10
{consumergroup=__strimzi-topic-operator-kstreams},1651461382,10
{consumergroup=__strimzi-topic-operator-kstreams},1651461387,0
{consumergroup=__strimzi-topic-operator-kstreams},1651461392,0
{consumergroup=__strimzi-topic-operator-kstreams},1651461397,0
{consumergroup=__strimzi-topic-operator-kstreams},1651461402,0
{consumergroup=__strimzi-topic-operator-kstreams},1651461407,0
{consumergroup=__strimzi-topic-operator-kstreams},1651461412,0
{consumergroup=__strimzi-topic-operator-kstreams},1651461417,0
{consumergroup=__strimzi-topic-operator-kstreams},1651461422,0
{consumergroup=__strimzi-topic-operator-kstreams},1651461427,0
{consumergroup=__strimzi-topic-operator-kstreams},1651461432,0
{consumergroup=__strimzi-topic-operator-kstreams},1651461437,0
{consumergroup=__strimzi-topic-operator-kstreams},1651461442,0
{consumergroup=__strimzi-topic-operator-kstreams},1651461447,0
{consumergroup=__strimzi-topic-operator-kstreams},1651461452,0
{consumergroup=__strimzi-topic-operator-kstreams},1651461457,0
{consumergroup=__strimzi-topic-operator-kstreams},1651461462,0
{consumergroup=__strimzi-topic-operator-kstreams},1651461467,0
{consumergroup=__strimzi-topic-operator-kstreams},1651461472,0
{consumergroup=__strimzi-topic-operator-kstreams},1651461477,0
{consumergroup=__strimzi-topic-operator-kstreams},1651461482,0
{consumergroup=__strimzi-topic-operator-kstreams},1651461487,0
{consumergroup=__strimzi-topic-operator-kstreams},1651461492,0
{consumergroup=__strimzi-topic-operator-kstreams},1651461497,0
{consumergroup=__strimzi-topic-operator-kstreams},1651461502,0
{consumergroup=__strimzi-topic-operator-kstreams},1651461507,0
{consumergroup=__strimzi-topic-operator-kstreams},1651461512,0
{consumergroup=__strimzi-topic-operator-kstreams},1651461517,0
{consumergroup=__strimzi-topic-operator-kstreams},1651461522,0
{consumergroup=__strimzi-topic-operator-kstreams},1651461527,0
{consumergroup=__strimzi-topic-operator-kstreams},1651461532,0
{consumergroup=__strimzi-topic-operator-kstreams},1651461537,0
{consumergroup=__strimzi-topic-operator-kstreams},1651461542,0
{consumergroup=__strimzi-topic-operator-kstreams},1651461547,0
{consumergroup=__strimzi-topic-operator-kstreams},1651461552,0
{consumergroup=__strimzi-topic-operator-kstreams},1651461557,0
{consumergroup=__strimzi-topic-operator-kstreams},1651461562,0
{consumergroup=__strimzi-topic-operator-kstreams},1651461567,0
{consumergroup=__strimzi-topic-operator-kstreams},1651461572,0
{consumergroup=__strimzi-topic-operator-kstreams},1651461577,0
{consumergroup=__strimzi-topic-operator-kstreams},1651461582,0
{consumergroup=__strimzi-topic-operator-kstreams},1651461587,0
{consumergroup=__strimzi-topic-operator-kstreams},1651461592,0
{consumergroup=__strimzi-topic-operator-kstreams},1651461597,0
{consumergroup=__strimzi-topic-operator-kstreams},1651461602,0
{consumergroup=__strimzi-topic-operator-kstreams},1651461607,0
{consumergroup=__strimzi-topic-operator-kstreams},1651461612,0
{consumergroup=__strimzi-topic-operator-kstreams},1651461617,0
{consumergroup=__strimzi-topic-operator-kstreams},1651461622,0
{consumergroup=__strimzi-topic-operator-kstreams},1651461627,0
{consumergroup=__strimzi-topic-operator-kstreams},1651461632,0
{consumergroup=__strimzi-topic-operator-kstreams},1651461637,0
{consumergroup=__strimzi-topic-operator-kstreams},1651461642,0
{consumergroup=__strimzi-topic-operator-kstreams},1651461647,0
{consumergroup=__strimzi-topic-operator-kstreams},1651461652,0
{consumergroup=__strimzi-topic-operator-kstreams},1651461657,0
{consumergroup=__strimzi-topic-operator-kstreams},1651461662,0
{consumergroup=__strimzi-topic-operator-kstreams},1651461667,0
{consumergroup=__strimzi-topic-operator-kstreams},1651461672,0
{consumergroup=__strimzi-topic-operator-kstreams},1651461677,0
{consumergroup=__strimzi-topic-operator-kstreams},1651461682,0
{consumergroup=__strimzi-topic-operator-kstreams},1651461687,0
{consumergroup=__strimzi-topic-operator-kstreams},1651461692,0
{consumergroup=__strimzi-topic-operator-kstreams},1651461697,0
{consumergroup=__strimzi-topic-operator-kstreams},1651461702,0
{consumergroup=__strimzi-topic-operator-kstreams},1651461707,0
{consumergroup=__strimzi-topic-operator-kstreams},1651461712,0
{consumergroup=__strimzi-topic-operator-kstreams},1651461717,0
{consumergroup=__strimzi-topic-operator-kstreams},1651461722,0
{consumergroup=__strimzi-topic-operator-kstreams},1651461727,0
{consumergroup=__strimzi-topic-operator-kstreams},1651461732,0
{consumergroup=__strimzi-topic-operator-kstreams},1651461737,0
{consumergroup=__strimzi-topic-operator-kstreams},1651461742,0
{consumergroup=__strimzi-topic-operator-kstreams},1651461747,0
{consumergroup=__strimzi-topic-operator-kstreams},1651461752,0
{consumergroup=__strimzi-topic-operator-kstreams},1651461757,0
{consumergroup=__strimzi-topic-operator-kstreams},1651461762,0
{consumergroup=__strimzi-topic-operator-kstreams},1651461767,0
{consumergroup=__strimzi-topic-operator-kstreams},1651461772,0
{consumergroup=__strimzi-topic-operator-kstreams},1651461777,0
{consumergroup=__strimzi-topic-operator-kstreams},1651461782,0
{consumergroup=__strimzi-topic-operator-kstreams},1651461787,0
{consumergroup=__strimzi-topic-operator-kstreams},1651461792,0
{consumergroup=__strimzi-topic-operator-kstreams},1651461797,0
{consumergroup=trace-service},1651461402,2722
{consumergroup=trace-service},1651461407,2722
{consumergroup=trace-service},1651461412,2722
{consumergroup=trace-service},1651461417,27495
{consumergroup=trace-service},1651461422,27495
{consumergroup=trace-service},1651461427,27495
{consumergroup=trace-service},1651461432,52729
{consumergroup=trace-service},1651461437,52729
{consumergroup=trace-service},1651461442,52729
{consumergroup=trace-service},1651461447,29935
{consumergroup=trace-service},1651461452,29935
{consumergroup=trace-service},1651461457,29935
{consumergroup=trace-service},1651461462,36286
{consumergroup=trace-service},1651461467,36286
{consumergroup=trace-service},1651461472,36286
{consumergroup=trace-service},1651461477,17968
{consumergroup=trace-service},1651461482,17968
{consumergroup=trace-service},1651461487,17968
{consumergroup=trace-service},1651461492,34141
{consumergroup=trace-service},1651461497,34141
{consumergroup=trace-service},1651461502,34141
{consumergroup=trace-service},1651461507,24629
{consumergroup=trace-service},1651461512,24629
{consumergroup=trace-service},1651461517,24629
{consumergroup=trace-service},1651461522,34353
{consumergroup=trace-service},1651461527,34353
{consumergroup=trace-service},1651461532,34353
{consumergroup=trace-service},1651461537,20948
{consumergroup=trace-service},1651461542,20948
{consumergroup=trace-service},1651461547,20948
{consumergroup=trace-service},1651461552,37358
{consumergroup=trace-service},1651461557,37358
{consumergroup=trace-service},1651461562,37358
{consumergroup=trace-service},1651461567,82747
{consumergroup=trace-service},1651461572,82747
{consumergroup=trace-service},1651461577,82747
{consumergroup=trace-service},1651461582,37667
{consumergroup=trace-service},1651461587,37667
{consumergroup=trace-service},1651461592,37667
{consumergroup=trace-service},1651461597,25283
{consumergroup=trace-service},1651461602,25283
{consumergroup=trace-service},1651461607,25283
{consumergroup=trace-service},1651461612,37103
{consumergroup=trace-service},1651461617,37103
{consumergroup=trace-service},1651461622,37103
{consumergroup=trace-service},1651461627,15057
{consumergroup=trace-service},1651461632,15057
{consumergroup=trace-service},1651461637,15057
{consumergroup=trace-service},1651461642,42928
{consumergroup=trace-service},1651461647,42928
{consumergroup=trace-service},1651461652,42928
{consumergroup=trace-service},1651461657,20751
{consumergroup=trace-service},1651461662,20751
{consumergroup=trace-service},1651461667,20751
{consumergroup=trace-service},1651461672,35991
{consumergroup=trace-service},1651461677,35991
{consumergroup=trace-service},1651461682,35991
{consumergroup=trace-service},1651461687,17228
{consumergroup=trace-service},1651461692,17228
{consumergroup=trace-service},1651461697,17228
{consumergroup=trace-service},1651461702,37571
{consumergroup=trace-service},1651461707,37571
{consumergroup=trace-service},1651461712,37571
{consumergroup=trace-service},1651461717,18557
{consumergroup=trace-service},1651461722,18557
{consumergroup=trace-service},1651461727,18557
{consumergroup=trace-service},1651461732,41995
{consumergroup=trace-service},1651461737,41995
{consumergroup=trace-service},1651461742,41995
{consumergroup=trace-service},1651461747,49826
{consumergroup=trace-service},1651461752,49826
{consumergroup=trace-service},1651461757,49826
{consumergroup=trace-service},1651461762,39459
{consumergroup=trace-service},1651461767,39459
{consumergroup=trace-service},1651461772,39459
{consumergroup=trace-service},1651461777,22162
{consumergroup=trace-service},1651461782,22162
{consumergroup=trace-service},1651461787,22162
{consumergroup=trace-service},1651461792,36226
{consumergroup=trace-service},1651461797,36226
{consumergroup=trace-token-events-consumer},1651461387,0
{consumergroup=trace-token-events-consumer},1651461392,0
{consumergroup=trace-token-events-consumer},1651461397,0
{consumergroup=trace-token-events-consumer},1651461402,0
{consumergroup=trace-token-events-consumer},1651461407,0
{consumergroup=trace-token-events-consumer},1651461412,0
{consumergroup=trace-token-events-consumer},1651461417,0
{consumergroup=trace-token-events-consumer},1651461422,0
{consumergroup=trace-token-events-consumer},1651461427,0
{consumergroup=trace-token-events-consumer},1651461432,0
{consumergroup=trace-token-events-consumer},1651461437,0
{consumergroup=trace-token-events-consumer},1651461442,0
{consumergroup=trace-token-events-consumer},1651461447,0
{consumergroup=trace-token-events-consumer},1651461452,0
{consumergroup=trace-token-events-consumer},1651461457,0
{consumergroup=trace-token-events-consumer},1651461462,0
{consumergroup=trace-token-events-consumer},1651461467,0
{consumergroup=trace-token-events-consumer},1651461472,0
{consumergroup=trace-token-events-consumer},1651461477,0
{consumergroup=trace-token-events-consumer},1651461482,0
{consumergroup=trace-token-events-consumer},1651461487,0
{consumergroup=trace-token-events-consumer},1651461492,0
{consumergroup=trace-token-events-consumer},1651461497,0
{consumergroup=trace-token-events-consumer},1651461502,0
{consumergroup=trace-token-events-consumer},1651461507,0
{consumergroup=trace-token-events-consumer},1651461512,0
{consumergroup=trace-token-events-consumer},1651461517,0
{consumergroup=trace-token-events-consumer},1651461522,0
{consumergroup=trace-token-events-consumer},1651461527,0
{consumergroup=trace-token-events-consumer},1651461532,0
{consumergroup=trace-token-events-consumer},1651461537,0
{consumergroup=trace-token-events-consumer},1651461542,0
{consumergroup=trace-token-events-consumer},1651461547,0
{consumergroup=trace-token-events-consumer},1651461552,0
{consumergroup=trace-token-events-consumer},1651461557,0
{consumergroup=trace-token-events-consumer},1651461562,0
{consumergroup=trace-token-events-consumer},1651461567,0
{consumergroup=trace-token-events-consumer},1651461572,0
{consumergroup=trace-token-events-consumer},1651461577,0
{consumergroup=trace-token-events-consumer},1651461582,0
{consumergroup=trace-token-events-consumer},1651461587,0
{consumergroup=trace-token-events-consumer},1651461592,0
{consumergroup=trace-token-events-consumer},1651461597,0
{consumergroup=trace-token-events-consumer},1651461602,0
{consumergroup=trace-token-events-consumer},1651461607,0
{consumergroup=trace-token-events-consumer},1651461612,0
{consumergroup=trace-token-events-consumer},1651461617,0
{consumergroup=trace-token-events-consumer},1651461622,0
{consumergroup=trace-token-events-consumer},1651461627,0
{consumergroup=trace-token-events-consumer},1651461632,0
{consumergroup=trace-token-events-consumer},1651461637,0
{consumergroup=trace-token-events-consumer},1651461642,0
{consumergroup=trace-token-events-consumer},1651461647,0
{consumergroup=trace-token-events-consumer},1651461652,0
{consumergroup=trace-token-events-consumer},1651461657,0
{consumergroup=trace-token-events-consumer},1651461662,0
{consumergroup=trace-token-events-consumer},1651461667,0
{consumergroup=trace-token-events-consumer},1651461672,0
{consumergroup=trace-token-events-consumer},1651461677,0
{consumergroup=trace-token-events-consumer},1651461682,0
{consumergroup=trace-token-events-consumer},1651461687,0
{consumergroup=trace-token-events-consumer},1651461692,0
{consumergroup=trace-token-events-consumer},1651461697,0
{consumergroup=trace-token-events-consumer},1651461702,0
{consumergroup=trace-token-events-consumer},1651461707,0
{consumergroup=trace-token-events-consumer},1651461712,0
{consumergroup=trace-token-events-consumer},1651461717,0
{consumergroup=trace-token-events-consumer},1651461722,0
{consumergroup=trace-token-events-consumer},1651461727,0
{consumergroup=trace-token-events-consumer},1651461732,0
{consumergroup=trace-token-events-consumer},1651461737,0
{consumergroup=trace-token-events-consumer},1651461742,0
{consumergroup=trace-token-events-consumer},1651461747,0
{consumergroup=trace-token-events-consumer},1651461752,0
{consumergroup=trace-token-events-consumer},1651461757,0
{consumergroup=trace-token-events-consumer},1651461762,0
{consumergroup=trace-token-events-consumer},1651461767,0
{consumergroup=trace-token-events-consumer},1651461772,0
{consumergroup=trace-token-events-consumer},1651461777,0
{consumergroup=trace-token-events-consumer},1651461782,0
{consumergroup=trace-token-events-consumer},1651461787,0
{consumergroup=trace-token-events-consumer},1651461792,0
{consumergroup=trace-token-events-consumer},1651461797,0
