labels,timestamp,value
{job=theodolite-stu200776/trace-isolated-podmonitor},1651469209,0
{job=theodolite-stu200776/trace-isolated-podmonitor},1651469214,0
{job=theodolite-stu200776/trace-isolated-podmonitor},1651469219,0
{job=theodolite-stu200776/trace-isolated-podmonitor},1651469224,0
{job=theodolite-stu200776/trace-isolated-podmonitor},1651469229,0
{job=theodolite-stu200776/trace-isolated-podmonitor},1651469234,0
{job=theodolite-stu200776/trace-isolated-podmonitor},1651469239,0
{job=theodolite-stu200776/trace-isolated-podmonitor},1651469244,0
{job=theodolite-stu200776/trace-isolated-podmonitor},1651469249,0
{job=theodolite-stu200776/trace-isolated-podmonitor},1651469254,0.7549258914416569
{job=theodolite-stu200776/trace-isolated-podmonitor},1651469259,558.3036113865088
{job=theodolite-stu200776/trace-isolated-podmonitor},1651469264,1064.9965576885297
{job=theodolite-stu200776/trace-isolated-podmonitor},1651469269,964.3450123944698
{job=theodolite-stu200776/trace-isolated-podmonitor},1651469274,879.3823914373174
{job=theodolite-stu200776/trace-isolated-podmonitor},1651469279,878.2998170569501
{job=theodolite-stu200776/trace-isolated-podmonitor},1651469284,937.1815670367888
{job=theodolite-stu200776/trace-isolated-podmonitor},1651469289,1248.2576205843732
{job=theodolite-stu200776/trace-isolated-podmonitor},1651469294,1428.9770559829617
{job=theodolite-stu200776/trace-isolated-podmonitor},1651469299,1251.7196758055984
{job=theodolite-stu200776/trace-isolated-podmonitor},1651469304,1114.0122601373978
{job=theodolite-stu200776/trace-isolated-podmonitor},1651469309,1003.3564361998395
{job=theodolite-stu200776/trace-isolated-podmonitor},1651469314,903.0359339441624
{job=theodolite-stu200776/trace-isolated-podmonitor},1651469319,424.05851869085785
{job=theodolite-stu200776/trace-isolated-podmonitor},1651469324,0
{job=theodolite-stu200776/trace-isolated-podmonitor},1651469329,0
{job=theodolite-stu200776/trace-isolated-podmonitor},1651469334,0
{job=theodolite-stu200776/trace-isolated-podmonitor},1651469339,0
{job=theodolite-stu200776/trace-isolated-podmonitor},1651469344,0
{job=theodolite-stu200776/trace-isolated-podmonitor},1651469349,0
{job=theodolite-stu200776/trace-isolated-podmonitor},1651469354,0
{job=theodolite-stu200776/trace-isolated-podmonitor},1651469359,0
{job=theodolite-stu200776/trace-isolated-podmonitor},1651469364,0
{job=theodolite-stu200776/trace-isolated-podmonitor},1651469369,0
{job=theodolite-stu200776/trace-isolated-podmonitor},1651469374,0
{job=theodolite-stu200776/trace-isolated-podmonitor},1651469379,0
{job=theodolite-stu200776/trace-isolated-podmonitor},1651469384,0
{job=theodolite-stu200776/trace-isolated-podmonitor},1651469389,0
{job=theodolite-stu200776/trace-isolated-podmonitor},1651469394,0
{job=theodolite-stu200776/trace-isolated-podmonitor},1651469399,0
{job=theodolite-stu200776/trace-isolated-podmonitor},1651469404,0
{job=theodolite-stu200776/trace-isolated-podmonitor},1651469409,52.09670451452119
{job=theodolite-stu200776/trace-isolated-podmonitor},1651469414,411.0795543259619
{job=theodolite-stu200776/trace-isolated-podmonitor},1651469419,1356.8606605859445
{job=theodolite-stu200776/trace-isolated-podmonitor},1651469424,1829.929031671575
{job=theodolite-stu200776/trace-isolated-podmonitor},1651469429,1696.062707759669
{job=theodolite-stu200776/trace-isolated-podmonitor},1651469434,1716.0033674020144
{job=theodolite-stu200776/trace-isolated-podmonitor},1651469439,1546.3066702939152
{job=theodolite-stu200776/trace-isolated-podmonitor},1651469444,1402.4411940260618
{job=theodolite-stu200776/trace-isolated-podmonitor},1651469449,1162.0111300259916
{job=theodolite-stu200776/trace-isolated-podmonitor},1651469454,946.4837933782646
{job=theodolite-stu200776/trace-isolated-podmonitor},1651469459,743.7817006193834
{job=theodolite-stu200776/trace-isolated-podmonitor},1651469464,424.5241558178595
{job=theodolite-stu200776/trace-isolated-podmonitor},1651469469,379.91268176549346
