labels,timestamp,value
{job=theodolite-stu200776/trace-isolated-podmonitor},1651468578,0
{job=theodolite-stu200776/trace-isolated-podmonitor},1651468583,0
{job=theodolite-stu200776/trace-isolated-podmonitor},1651468588,0
{job=theodolite-stu200776/trace-isolated-podmonitor},1651468593,0
{job=theodolite-stu200776/trace-isolated-podmonitor},1651468598,0
{job=theodolite-stu200776/trace-isolated-podmonitor},1651468603,0
{job=theodolite-stu200776/trace-isolated-podmonitor},1651468608,0
{job=theodolite-stu200776/trace-isolated-podmonitor},1651468613,0
{job=theodolite-stu200776/trace-isolated-podmonitor},1651468618,0
{job=theodolite-stu200776/trace-isolated-podmonitor},1651468623,0
{job=theodolite-stu200776/trace-isolated-podmonitor},1651468628,0
{job=theodolite-stu200776/trace-isolated-podmonitor},1651468633,0
{job=theodolite-stu200776/trace-isolated-podmonitor},1651468638,0
{job=theodolite-stu200776/trace-isolated-podmonitor},1651468643,0
{job=theodolite-stu200776/trace-isolated-podmonitor},1651468648,0
{job=theodolite-stu200776/trace-isolated-podmonitor},1651468653,0
{job=theodolite-stu200776/trace-isolated-podmonitor},1651468658,0
{job=theodolite-stu200776/trace-isolated-podmonitor},1651468663,0
{job=theodolite-stu200776/trace-isolated-podmonitor},1651468668,0
{job=theodolite-stu200776/trace-isolated-podmonitor},1651468673,0
{job=theodolite-stu200776/trace-isolated-podmonitor},1651468678,0
{job=theodolite-stu200776/trace-isolated-podmonitor},1651468683,0
{job=theodolite-stu200776/trace-isolated-podmonitor},1651468688,0
{job=theodolite-stu200776/trace-isolated-podmonitor},1651468693,0
{job=theodolite-stu200776/trace-isolated-podmonitor},1651468698,0
{job=theodolite-stu200776/trace-isolated-podmonitor},1651468703,0
{job=theodolite-stu200776/trace-isolated-podmonitor},1651468708,0
{job=theodolite-stu200776/trace-isolated-podmonitor},1651468713,0
{job=theodolite-stu200776/trace-isolated-podmonitor},1651468718,0
{job=theodolite-stu200776/trace-isolated-podmonitor},1651468723,0
{job=theodolite-stu200776/trace-isolated-podmonitor},1651468728,0
{job=theodolite-stu200776/trace-isolated-podmonitor},1651468733,0
{job=theodolite-stu200776/trace-isolated-podmonitor},1651468738,0
{job=theodolite-stu200776/trace-isolated-podmonitor},1651468743,0
{job=theodolite-stu200776/trace-isolated-podmonitor},1651468748,0
{job=theodolite-stu200776/trace-isolated-podmonitor},1651468753,0
{job=theodolite-stu200776/trace-isolated-podmonitor},1651468758,0
{job=theodolite-stu200776/trace-isolated-podmonitor},1651468763,0
{job=theodolite-stu200776/trace-isolated-podmonitor},1651468768,0
{job=theodolite-stu200776/trace-isolated-podmonitor},1651468773,0
{job=theodolite-stu200776/trace-isolated-podmonitor},1651468778,0
{job=theodolite-stu200776/trace-isolated-podmonitor},1651468783,0
{job=theodolite-stu200776/trace-isolated-podmonitor},1651468788,0
{job=theodolite-stu200776/trace-isolated-podmonitor},1651468793,0
{job=theodolite-stu200776/trace-isolated-podmonitor},1651468798,0
{job=theodolite-stu200776/trace-isolated-podmonitor},1651468803,0
{job=theodolite-stu200776/trace-isolated-podmonitor},1651468808,0
{job=theodolite-stu200776/trace-isolated-podmonitor},1651468813,0
{job=theodolite-stu200776/trace-isolated-podmonitor},1651468818,0
{job=theodolite-stu200776/trace-isolated-podmonitor},1651468823,0
{job=theodolite-stu200776/trace-isolated-podmonitor},1651468828,0
{job=theodolite-stu200776/trace-isolated-podmonitor},1651468833,0
{job=theodolite-stu200776/trace-isolated-podmonitor},1651468838,0
{job=theodolite-stu200776/trace-isolated-podmonitor},1651468843,0
{job=theodolite-stu200776/trace-isolated-podmonitor},1651468848,0
{job=theodolite-stu200776/trace-isolated-podmonitor},1651468853,0
{job=theodolite-stu200776/trace-isolated-podmonitor},1651468858,0
{job=theodolite-stu200776/trace-isolated-podmonitor},1651468863,0
{job=theodolite-stu200776/trace-isolated-podmonitor},1651468868,0
{job=theodolite-stu200776/trace-isolated-podmonitor},1651468873,0
{job=theodolite-stu200776/trace-isolated-podmonitor},1651468878,0
{job=theodolite-stu200776/trace-isolated-podmonitor},1651468883,0
{job=theodolite-stu200776/trace-isolated-podmonitor},1651468888,0
{job=theodolite-stu200776/trace-isolated-podmonitor},1651468893,0
{job=theodolite-stu200776/trace-isolated-podmonitor},1651468898,0
{job=theodolite-stu200776/trace-isolated-podmonitor},1651468903,0
{job=theodolite-stu200776/trace-isolated-podmonitor},1651468908,0
{job=theodolite-stu200776/trace-isolated-podmonitor},1651468913,0
{job=theodolite-stu200776/trace-isolated-podmonitor},1651468918,0
{job=theodolite-stu200776/trace-isolated-podmonitor},1651468923,0
{job=theodolite-stu200776/trace-isolated-podmonitor},1651468928,0
{job=theodolite-stu200776/trace-isolated-podmonitor},1651468933,0
{job=theodolite-stu200776/trace-isolated-podmonitor},1651468938,0
{job=theodolite-stu200776/trace-isolated-podmonitor},1651468943,0
{job=theodolite-stu200776/trace-isolated-podmonitor},1651468948,0
{job=theodolite-stu200776/trace-isolated-podmonitor},1651468953,0
