labels,timestamp,value
{job=theodolite-stu200776/trace-isolated-podmonitor},1651472204,0
{job=theodolite-stu200776/trace-isolated-podmonitor},1651472209,0
{job=theodolite-stu200776/trace-isolated-podmonitor},1651472214,0
{job=theodolite-stu200776/trace-isolated-podmonitor},1651472219,0
{job=theodolite-stu200776/trace-isolated-podmonitor},1651472224,0
{job=theodolite-stu200776/trace-isolated-podmonitor},1651472229,0
{job=theodolite-stu200776/trace-isolated-podmonitor},1651472234,0
{job=theodolite-stu200776/trace-isolated-podmonitor},1651472239,0
{job=theodolite-stu200776/trace-isolated-podmonitor},1651472244,0
{job=theodolite-stu200776/trace-isolated-podmonitor},1651472249,0
{job=theodolite-stu200776/trace-isolated-podmonitor},1651472254,0
{job=theodolite-stu200776/trace-isolated-podmonitor},1651472259,0
{job=theodolite-stu200776/trace-isolated-podmonitor},1651472264,0
{job=theodolite-stu200776/trace-isolated-podmonitor},1651472269,0
{job=theodolite-stu200776/trace-isolated-podmonitor},1651472274,0
{job=theodolite-stu200776/trace-isolated-podmonitor},1651472279,0
{job=theodolite-stu200776/trace-isolated-podmonitor},1651472284,0
{job=theodolite-stu200776/trace-isolated-podmonitor},1651472289,0
{job=theodolite-stu200776/trace-isolated-podmonitor},1651472294,0
{job=theodolite-stu200776/trace-isolated-podmonitor},1651472299,0
{job=theodolite-stu200776/trace-isolated-podmonitor},1651472304,0
{job=theodolite-stu200776/trace-isolated-podmonitor},1651472309,0
{job=theodolite-stu200776/trace-isolated-podmonitor},1651472314,0
{job=theodolite-stu200776/trace-isolated-podmonitor},1651472319,0
{job=theodolite-stu200776/trace-isolated-podmonitor},1651472324,0
{job=theodolite-stu200776/trace-isolated-podmonitor},1651472329,0
{job=theodolite-stu200776/trace-isolated-podmonitor},1651472334,0
{job=theodolite-stu200776/trace-isolated-podmonitor},1651472339,0
{job=theodolite-stu200776/trace-isolated-podmonitor},1651472344,0
{job=theodolite-stu200776/trace-isolated-podmonitor},1651472349,0
{job=theodolite-stu200776/trace-isolated-podmonitor},1651472354,0
{job=theodolite-stu200776/trace-isolated-podmonitor},1651472359,0
{job=theodolite-stu200776/trace-isolated-podmonitor},1651472364,0
{job=theodolite-stu200776/trace-isolated-podmonitor},1651472369,0
{job=theodolite-stu200776/trace-isolated-podmonitor},1651472374,0
{job=theodolite-stu200776/trace-isolated-podmonitor},1651472379,0
{job=theodolite-stu200776/trace-isolated-podmonitor},1651472384,0
{job=theodolite-stu200776/trace-isolated-podmonitor},1651472389,0
{job=theodolite-stu200776/trace-isolated-podmonitor},1651472394,0
{job=theodolite-stu200776/trace-isolated-podmonitor},1651472399,0
{job=theodolite-stu200776/trace-isolated-podmonitor},1651472404,0
{job=theodolite-stu200776/trace-isolated-podmonitor},1651472409,0
{job=theodolite-stu200776/trace-isolated-podmonitor},1651472414,0
{job=theodolite-stu200776/trace-isolated-podmonitor},1651472419,0
{job=theodolite-stu200776/trace-isolated-podmonitor},1651472424,0
{job=theodolite-stu200776/trace-isolated-podmonitor},1651472429,0
{job=theodolite-stu200776/trace-isolated-podmonitor},1651472434,0
{job=theodolite-stu200776/trace-isolated-podmonitor},1651472439,0
{job=theodolite-stu200776/trace-isolated-podmonitor},1651472444,0
{job=theodolite-stu200776/trace-isolated-podmonitor},1651472449,0
{job=theodolite-stu200776/trace-isolated-podmonitor},1651472454,0
{job=theodolite-stu200776/trace-isolated-podmonitor},1651472459,0
{job=theodolite-stu200776/trace-isolated-podmonitor},1651472464,0
{job=theodolite-stu200776/trace-isolated-podmonitor},1651472469,0
{job=theodolite-stu200776/trace-isolated-podmonitor},1651472474,0
{job=theodolite-stu200776/trace-isolated-podmonitor},1651472479,0
{job=theodolite-stu200776/trace-isolated-podmonitor},1651472484,0
{job=theodolite-stu200776/trace-isolated-podmonitor},1651472489,0
{job=theodolite-stu200776/trace-isolated-podmonitor},1651472494,0
{job=theodolite-stu200776/trace-isolated-podmonitor},1651472499,0
{job=theodolite-stu200776/trace-isolated-podmonitor},1651472504,0
{job=theodolite-stu200776/trace-isolated-podmonitor},1651472509,0
{job=theodolite-stu200776/trace-isolated-podmonitor},1651472514,0
{job=theodolite-stu200776/trace-isolated-podmonitor},1651472519,0
{job=theodolite-stu200776/trace-isolated-podmonitor},1651472524,0
{job=theodolite-stu200776/trace-isolated-podmonitor},1651472529,0
{job=theodolite-stu200776/trace-isolated-podmonitor},1651472534,0
{job=theodolite-stu200776/trace-isolated-podmonitor},1651472539,0
{job=theodolite-stu200776/trace-isolated-podmonitor},1651472544,0
{job=theodolite-stu200776/trace-isolated-podmonitor},1651472549,0
{job=theodolite-stu200776/trace-isolated-podmonitor},1651472554,0
{job=theodolite-stu200776/trace-isolated-podmonitor},1651472559,0
{job=theodolite-stu200776/trace-isolated-podmonitor},1651472564,0
{job=theodolite-stu200776/trace-isolated-podmonitor},1651472569,0
{job=theodolite-stu200776/trace-isolated-podmonitor},1651472574,0
