labels,timestamp,value
{consumergroup=__strimzi-topic-operator-kstreams},1651470062,11
{consumergroup=__strimzi-topic-operator-kstreams},1651470067,11
{consumergroup=__strimzi-topic-operator-kstreams},1651470072,11
{consumergroup=__strimzi-topic-operator-kstreams},1651470077,0
{consumergroup=__strimzi-topic-operator-kstreams},1651470082,0
{consumergroup=__strimzi-topic-operator-kstreams},1651470087,0
{consumergroup=__strimzi-topic-operator-kstreams},1651470092,3
{consumergroup=__strimzi-topic-operator-kstreams},1651470097,3
{consumergroup=__strimzi-topic-operator-kstreams},1651470102,3
{consumergroup=__strimzi-topic-operator-kstreams},1651470107,0
{consumergroup=__strimzi-topic-operator-kstreams},1651470112,0
{consumergroup=__strimzi-topic-operator-kstreams},1651470117,0
{consumergroup=__strimzi-topic-operator-kstreams},1651470122,0
{consumergroup=__strimzi-topic-operator-kstreams},1651470127,0
{consumergroup=__strimzi-topic-operator-kstreams},1651470132,0
{consumergroup=__strimzi-topic-operator-kstreams},1651470137,0
{consumergroup=__strimzi-topic-operator-kstreams},1651470142,0
{consumergroup=__strimzi-topic-operator-kstreams},1651470147,0
{consumergroup=__strimzi-topic-operator-kstreams},1651470152,0
{consumergroup=__strimzi-topic-operator-kstreams},1651470157,0
{consumergroup=__strimzi-topic-operator-kstreams},1651470162,0
{consumergroup=__strimzi-topic-operator-kstreams},1651470167,0
{consumergroup=__strimzi-topic-operator-kstreams},1651470172,0
{consumergroup=__strimzi-topic-operator-kstreams},1651470177,0
{consumergroup=__strimzi-topic-operator-kstreams},1651470182,0
{consumergroup=__strimzi-topic-operator-kstreams},1651470187,0
{consumergroup=__strimzi-topic-operator-kstreams},1651470192,0
{consumergroup=__strimzi-topic-operator-kstreams},1651470197,0
{consumergroup=__strimzi-topic-operator-kstreams},1651470202,0
{consumergroup=__strimzi-topic-operator-kstreams},1651470207,0
{consumergroup=__strimzi-topic-operator-kstreams},1651470212,0
{consumergroup=__strimzi-topic-operator-kstreams},1651470217,0
{consumergroup=__strimzi-topic-operator-kstreams},1651470222,0
{consumergroup=__strimzi-topic-operator-kstreams},1651470227,0
{consumergroup=__strimzi-topic-operator-kstreams},1651470232,0
{consumergroup=__strimzi-topic-operator-kstreams},1651470237,0
{consumergroup=__strimzi-topic-operator-kstreams},1651470242,0
{consumergroup=__strimzi-topic-operator-kstreams},1651470247,0
{consumergroup=__strimzi-topic-operator-kstreams},1651470252,0
{consumergroup=__strimzi-topic-operator-kstreams},1651470257,0
{consumergroup=__strimzi-topic-operator-kstreams},1651470262,0
{consumergroup=__strimzi-topic-operator-kstreams},1651470267,0
{consumergroup=__strimzi-topic-operator-kstreams},1651470272,0
{consumergroup=__strimzi-topic-operator-kstreams},1651470277,0
{consumergroup=__strimzi-topic-operator-kstreams},1651470282,0
{consumergroup=__strimzi-topic-operator-kstreams},1651470287,0
{consumergroup=__strimzi-topic-operator-kstreams},1651470292,0
{consumergroup=__strimzi-topic-operator-kstreams},1651470297,0
{consumergroup=__strimzi-topic-operator-kstreams},1651470302,0
{consumergroup=__strimzi-topic-operator-kstreams},1651470307,0
{consumergroup=__strimzi-topic-operator-kstreams},1651470312,0
{consumergroup=__strimzi-topic-operator-kstreams},1651470317,0
{consumergroup=__strimzi-topic-operator-kstreams},1651470322,0
{consumergroup=__strimzi-topic-operator-kstreams},1651470327,0
{consumergroup=__strimzi-topic-operator-kstreams},1651470332,0
{consumergroup=__strimzi-topic-operator-kstreams},1651470337,0
{consumergroup=__strimzi-topic-operator-kstreams},1651470342,0
{consumergroup=__strimzi-topic-operator-kstreams},1651470347,0
{consumergroup=__strimzi-topic-operator-kstreams},1651470352,0
{consumergroup=__strimzi-topic-operator-kstreams},1651470357,0
{consumergroup=__strimzi-topic-operator-kstreams},1651470362,0
{consumergroup=__strimzi-topic-operator-kstreams},1651470367,0
{consumergroup=__strimzi-topic-operator-kstreams},1651470372,0
{consumergroup=__strimzi-topic-operator-kstreams},1651470377,0
{consumergroup=__strimzi-topic-operator-kstreams},1651470382,0
{consumergroup=__strimzi-topic-operator-kstreams},1651470387,0
{consumergroup=__strimzi-topic-operator-kstreams},1651470392,0
{consumergroup=__strimzi-topic-operator-kstreams},1651470397,0
{consumergroup=__strimzi-topic-operator-kstreams},1651470402,0
{consumergroup=__strimzi-topic-operator-kstreams},1651470407,0
{consumergroup=__strimzi-topic-operator-kstreams},1651470412,0
{consumergroup=__strimzi-topic-operator-kstreams},1651470417,0
{consumergroup=__strimzi-topic-operator-kstreams},1651470422,0
{consumergroup=__strimzi-topic-operator-kstreams},1651470427,0
{consumergroup=__strimzi-topic-operator-kstreams},1651470432,0
{consumergroup=__strimzi-topic-operator-kstreams},1651470437,0
{consumergroup=__strimzi-topic-operator-kstreams},1651470442,0
{consumergroup=__strimzi-topic-operator-kstreams},1651470447,0
{consumergroup=__strimzi-topic-operator-kstreams},1651470452,0
{consumergroup=__strimzi-topic-operator-kstreams},1651470457,0
{consumergroup=__strimzi-topic-operator-kstreams},1651470462,0
{consumergroup=__strimzi-topic-operator-kstreams},1651470467,0
{consumergroup=__strimzi-topic-operator-kstreams},1651470472,0
{consumergroup=__strimzi-topic-operator-kstreams},1651470477,0
{consumergroup=__strimzi-topic-operator-kstreams},1651470482,0
{consumergroup=__strimzi-topic-operator-kstreams},1651470487,0
{consumergroup=__strimzi-topic-operator-kstreams},1651470492,0
{consumergroup=__strimzi-topic-operator-kstreams},1651470497,0
{consumergroup=__strimzi-topic-operator-kstreams},1651470502,0
{consumergroup=__strimzi-topic-operator-kstreams},1651470507,0
{consumergroup=trace-service},1651470107,13714
{consumergroup=trace-service},1651470112,13714
{consumergroup=trace-service},1651470117,13714
{consumergroup=trace-service},1651470122,34459
{consumergroup=trace-service},1651470127,34459
{consumergroup=trace-service},1651470132,34459
{consumergroup=trace-service},1651470137,91913
{consumergroup=trace-service},1651470142,91913
{consumergroup=trace-service},1651470147,91913
{consumergroup=trace-service},1651470152,27795
{consumergroup=trace-service},1651470157,27795
{consumergroup=trace-service},1651470162,27795
{consumergroup=trace-service},1651470167,91979
{consumergroup=trace-service},1651470172,91979
{consumergroup=trace-service},1651470177,91979
{consumergroup=trace-service},1651470182,32722
{consumergroup=trace-service},1651470187,32722
{consumergroup=trace-service},1651470192,32722
{consumergroup=trace-service},1651470197,85475
{consumergroup=trace-service},1651470202,85475
{consumergroup=trace-service},1651470207,85475
{consumergroup=trace-service},1651470212,27698
{consumergroup=trace-service},1651470217,27698
{consumergroup=trace-service},1651470222,27698
{consumergroup=trace-service},1651470227,84529
{consumergroup=trace-service},1651470232,84529
{consumergroup=trace-service},1651470237,84529
{consumergroup=trace-service},1651470242,200694
{consumergroup=trace-service},1651470247,200694
{consumergroup=trace-service},1651470252,200694
{consumergroup=trace-service},1651470257,88308
{consumergroup=trace-service},1651470262,88308
{consumergroup=trace-service},1651470267,88308
{consumergroup=trace-service},1651470272,36354
{consumergroup=trace-service},1651470277,36354
{consumergroup=trace-service},1651470282,36354
{consumergroup=trace-service},1651470287,83343
{consumergroup=trace-service},1651470292,83343
{consumergroup=trace-service},1651470297,83343
{consumergroup=trace-service},1651470302,27281
{consumergroup=trace-service},1651470307,27281
{consumergroup=trace-service},1651470312,27281
{consumergroup=trace-service},1651470317,81237
{consumergroup=trace-service},1651470322,81237
{consumergroup=trace-service},1651470327,81237
{consumergroup=trace-service},1651470332,26174
{consumergroup=trace-service},1651470337,26174
{consumergroup=trace-service},1651470342,26174
{consumergroup=trace-service},1651470347,80979
{consumergroup=trace-service},1651470352,80979
{consumergroup=trace-service},1651470357,80979
{consumergroup=trace-service},1651470362,28630
{consumergroup=trace-service},1651470367,28630
{consumergroup=trace-service},1651470372,28630
{consumergroup=trace-service},1651470377,84190
{consumergroup=trace-service},1651470382,84190
{consumergroup=trace-service},1651470387,84190
{consumergroup=trace-service},1651470392,114532
{consumergroup=trace-service},1651470397,114532
{consumergroup=trace-service},1651470402,114532
{consumergroup=trace-service},1651470407,102107
{consumergroup=trace-service},1651470412,102107
{consumergroup=trace-service},1651470417,102107
{consumergroup=trace-service},1651470422,25955
{consumergroup=trace-service},1651470427,25955
{consumergroup=trace-service},1651470432,25955
{consumergroup=trace-service},1651470437,78388
{consumergroup=trace-service},1651470442,78388
{consumergroup=trace-service},1651470447,78388
{consumergroup=trace-service},1651470452,180044
{consumergroup=trace-service},1651470457,180044
{consumergroup=trace-service},1651470462,180044
{consumergroup=trace-service},1651470467,122253
{consumergroup=trace-service},1651470472,122253
{consumergroup=trace-service},1651470477,122253
{consumergroup=trace-service},1651470482,23416
{consumergroup=trace-service},1651470487,23416
{consumergroup=trace-service},1651470492,23416
{consumergroup=trace-service},1651470497,81930
{consumergroup=trace-service},1651470502,81930
{consumergroup=trace-service},1651470507,81930
{consumergroup=trace-token-events-consumer},1651470092,0
{consumergroup=trace-token-events-consumer},1651470097,0
{consumergroup=trace-token-events-consumer},1651470102,0
{consumergroup=trace-token-events-consumer},1651470107,0
{consumergroup=trace-token-events-consumer},1651470112,0
{consumergroup=trace-token-events-consumer},1651470117,0
{consumergroup=trace-token-events-consumer},1651470122,0
{consumergroup=trace-token-events-consumer},1651470127,0
{consumergroup=trace-token-events-consumer},1651470132,0
{consumergroup=trace-token-events-consumer},1651470137,0
{consumergroup=trace-token-events-consumer},1651470142,0
{consumergroup=trace-token-events-consumer},1651470147,0
{consumergroup=trace-token-events-consumer},1651470152,0
{consumergroup=trace-token-events-consumer},1651470157,0
{consumergroup=trace-token-events-consumer},1651470162,0
{consumergroup=trace-token-events-consumer},1651470167,0
{consumergroup=trace-token-events-consumer},1651470172,0
{consumergroup=trace-token-events-consumer},1651470177,0
{consumergroup=trace-token-events-consumer},1651470182,0
{consumergroup=trace-token-events-consumer},1651470187,0
{consumergroup=trace-token-events-consumer},1651470192,0
{consumergroup=trace-token-events-consumer},1651470197,0
{consumergroup=trace-token-events-consumer},1651470202,0
{consumergroup=trace-token-events-consumer},1651470207,0
{consumergroup=trace-token-events-consumer},1651470212,0
{consumergroup=trace-token-events-consumer},1651470217,0
{consumergroup=trace-token-events-consumer},1651470222,0
{consumergroup=trace-token-events-consumer},1651470227,0
{consumergroup=trace-token-events-consumer},1651470232,0
{consumergroup=trace-token-events-consumer},1651470237,0
{consumergroup=trace-token-events-consumer},1651470242,0
{consumergroup=trace-token-events-consumer},1651470247,0
{consumergroup=trace-token-events-consumer},1651470252,0
{consumergroup=trace-token-events-consumer},1651470257,0
{consumergroup=trace-token-events-consumer},1651470262,0
{consumergroup=trace-token-events-consumer},1651470267,0
{consumergroup=trace-token-events-consumer},1651470272,0
{consumergroup=trace-token-events-consumer},1651470277,0
{consumergroup=trace-token-events-consumer},1651470282,0
{consumergroup=trace-token-events-consumer},1651470287,0
{consumergroup=trace-token-events-consumer},1651470292,0
{consumergroup=trace-token-events-consumer},1651470297,0
{consumergroup=trace-token-events-consumer},1651470302,0
{consumergroup=trace-token-events-consumer},1651470307,0
{consumergroup=trace-token-events-consumer},1651470312,0
{consumergroup=trace-token-events-consumer},1651470317,0
{consumergroup=trace-token-events-consumer},1651470322,0
{consumergroup=trace-token-events-consumer},1651470327,0
{consumergroup=trace-token-events-consumer},1651470332,0
{consumergroup=trace-token-events-consumer},1651470337,0
{consumergroup=trace-token-events-consumer},1651470342,0
{consumergroup=trace-token-events-consumer},1651470347,0
{consumergroup=trace-token-events-consumer},1651470352,0
{consumergroup=trace-token-events-consumer},1651470357,0
{consumergroup=trace-token-events-consumer},1651470362,0
{consumergroup=trace-token-events-consumer},1651470367,0
{consumergroup=trace-token-events-consumer},1651470372,0
{consumergroup=trace-token-events-consumer},1651470377,0
{consumergroup=trace-token-events-consumer},1651470382,0
{consumergroup=trace-token-events-consumer},1651470387,0
{consumergroup=trace-token-events-consumer},1651470392,0
{consumergroup=trace-token-events-consumer},1651470397,0
{consumergroup=trace-token-events-consumer},1651470402,0
{consumergroup=trace-token-events-consumer},1651470407,0
{consumergroup=trace-token-events-consumer},1651470412,0
{consumergroup=trace-token-events-consumer},1651470417,0
{consumergroup=trace-token-events-consumer},1651470422,0
{consumergroup=trace-token-events-consumer},1651470427,0
{consumergroup=trace-token-events-consumer},1651470432,0
{consumergroup=trace-token-events-consumer},1651470437,0
{consumergroup=trace-token-events-consumer},1651470442,0
{consumergroup=trace-token-events-consumer},1651470447,0
{consumergroup=trace-token-events-consumer},1651470452,0
{consumergroup=trace-token-events-consumer},1651470457,0
{consumergroup=trace-token-events-consumer},1651470462,0
{consumergroup=trace-token-events-consumer},1651470467,0
{consumergroup=trace-token-events-consumer},1651470472,0
{consumergroup=trace-token-events-consumer},1651470477,0
{consumergroup=trace-token-events-consumer},1651470482,0
{consumergroup=trace-token-events-consumer},1651470487,0
{consumergroup=trace-token-events-consumer},1651470492,0
{consumergroup=trace-token-events-consumer},1651470497,0
{consumergroup=trace-token-events-consumer},1651470502,0
{consumergroup=trace-token-events-consumer},1651470507,0
