labels,timestamp,value
{consumergroup=__strimzi-topic-operator-kstreams},1651462356,9
{consumergroup=__strimzi-topic-operator-kstreams},1651462361,9
{consumergroup=__strimzi-topic-operator-kstreams},1651462366,9
{consumergroup=__strimzi-topic-operator-kstreams},1651462371,11
{consumergroup=__strimzi-topic-operator-kstreams},1651462376,11
{consumergroup=__strimzi-topic-operator-kstreams},1651462381,11
{consumergroup=__strimzi-topic-operator-kstreams},1651462386,0
{consumergroup=__strimzi-topic-operator-kstreams},1651462391,0
{consumergroup=__strimzi-topic-operator-kstreams},1651462396,0
{consumergroup=__strimzi-topic-operator-kstreams},1651462401,0
{consumergroup=__strimzi-topic-operator-kstreams},1651462406,0
{consumergroup=__strimzi-topic-operator-kstreams},1651462411,0
{consumergroup=__strimzi-topic-operator-kstreams},1651462416,0
{consumergroup=__strimzi-topic-operator-kstreams},1651462421,0
{consumergroup=__strimzi-topic-operator-kstreams},1651462426,0
{consumergroup=__strimzi-topic-operator-kstreams},1651462431,1
{consumergroup=__strimzi-topic-operator-kstreams},1651462436,1
{consumergroup=__strimzi-topic-operator-kstreams},1651462441,1
{consumergroup=__strimzi-topic-operator-kstreams},1651462446,0
{consumergroup=__strimzi-topic-operator-kstreams},1651462451,0
{consumergroup=__strimzi-topic-operator-kstreams},1651462456,0
{consumergroup=__strimzi-topic-operator-kstreams},1651462461,0
{consumergroup=__strimzi-topic-operator-kstreams},1651462466,0
{consumergroup=__strimzi-topic-operator-kstreams},1651462471,0
{consumergroup=__strimzi-topic-operator-kstreams},1651462476,0
{consumergroup=__strimzi-topic-operator-kstreams},1651462481,0
{consumergroup=__strimzi-topic-operator-kstreams},1651462486,0
{consumergroup=__strimzi-topic-operator-kstreams},1651462491,0
{consumergroup=__strimzi-topic-operator-kstreams},1651462496,0
{consumergroup=__strimzi-topic-operator-kstreams},1651462501,0
{consumergroup=__strimzi-topic-operator-kstreams},1651462506,0
{consumergroup=__strimzi-topic-operator-kstreams},1651462511,0
{consumergroup=__strimzi-topic-operator-kstreams},1651462516,0
{consumergroup=__strimzi-topic-operator-kstreams},1651462521,0
{consumergroup=__strimzi-topic-operator-kstreams},1651462526,0
{consumergroup=__strimzi-topic-operator-kstreams},1651462531,0
{consumergroup=__strimzi-topic-operator-kstreams},1651462536,0
{consumergroup=__strimzi-topic-operator-kstreams},1651462541,0
{consumergroup=__strimzi-topic-operator-kstreams},1651462546,0
{consumergroup=__strimzi-topic-operator-kstreams},1651462551,0
{consumergroup=__strimzi-topic-operator-kstreams},1651462556,0
{consumergroup=__strimzi-topic-operator-kstreams},1651462561,0
{consumergroup=__strimzi-topic-operator-kstreams},1651462566,0
{consumergroup=__strimzi-topic-operator-kstreams},1651462571,0
{consumergroup=__strimzi-topic-operator-kstreams},1651462576,0
{consumergroup=__strimzi-topic-operator-kstreams},1651462581,0
{consumergroup=__strimzi-topic-operator-kstreams},1651462586,0
{consumergroup=__strimzi-topic-operator-kstreams},1651462591,0
{consumergroup=__strimzi-topic-operator-kstreams},1651462596,0
{consumergroup=__strimzi-topic-operator-kstreams},1651462601,0
{consumergroup=__strimzi-topic-operator-kstreams},1651462606,0
{consumergroup=__strimzi-topic-operator-kstreams},1651462611,0
{consumergroup=__strimzi-topic-operator-kstreams},1651462616,0
{consumergroup=__strimzi-topic-operator-kstreams},1651462621,0
{consumergroup=__strimzi-topic-operator-kstreams},1651462626,0
{consumergroup=__strimzi-topic-operator-kstreams},1651462631,0
{consumergroup=__strimzi-topic-operator-kstreams},1651462636,0
{consumergroup=__strimzi-topic-operator-kstreams},1651462641,0
{consumergroup=__strimzi-topic-operator-kstreams},1651462646,0
{consumergroup=__strimzi-topic-operator-kstreams},1651462651,0
{consumergroup=__strimzi-topic-operator-kstreams},1651462656,0
{consumergroup=__strimzi-topic-operator-kstreams},1651462661,0
{consumergroup=__strimzi-topic-operator-kstreams},1651462666,0
{consumergroup=__strimzi-topic-operator-kstreams},1651462671,0
{consumergroup=__strimzi-topic-operator-kstreams},1651462676,0
{consumergroup=__strimzi-topic-operator-kstreams},1651462681,0
{consumergroup=__strimzi-topic-operator-kstreams},1651462686,0
{consumergroup=__strimzi-topic-operator-kstreams},1651462691,0
{consumergroup=__strimzi-topic-operator-kstreams},1651462696,0
{consumergroup=__strimzi-topic-operator-kstreams},1651462701,0
{consumergroup=__strimzi-topic-operator-kstreams},1651462706,0
{consumergroup=__strimzi-topic-operator-kstreams},1651462711,0
{consumergroup=__strimzi-topic-operator-kstreams},1651462716,0
{consumergroup=__strimzi-topic-operator-kstreams},1651462721,0
{consumergroup=__strimzi-topic-operator-kstreams},1651462726,0
{consumergroup=__strimzi-topic-operator-kstreams},1651462731,0
{consumergroup=__strimzi-topic-operator-kstreams},1651462736,0
{consumergroup=__strimzi-topic-operator-kstreams},1651462741,0
{consumergroup=__strimzi-topic-operator-kstreams},1651462746,0
{consumergroup=__strimzi-topic-operator-kstreams},1651462751,0
{consumergroup=__strimzi-topic-operator-kstreams},1651462756,0
{consumergroup=__strimzi-topic-operator-kstreams},1651462761,0
{consumergroup=__strimzi-topic-operator-kstreams},1651462766,0
{consumergroup=__strimzi-topic-operator-kstreams},1651462771,0
{consumergroup=__strimzi-topic-operator-kstreams},1651462776,0
{consumergroup=__strimzi-topic-operator-kstreams},1651462781,0
{consumergroup=__strimzi-topic-operator-kstreams},1651462786,0
{consumergroup=__strimzi-topic-operator-kstreams},1651462791,0
{consumergroup=__strimzi-topic-operator-kstreams},1651462796,0
{consumergroup=trace-service},1651462401,13259
{consumergroup=trace-service},1651462406,13259
{consumergroup=trace-service},1651462411,13259
{consumergroup=trace-service},1651462416,57181
{consumergroup=trace-service},1651462421,57181
{consumergroup=trace-service},1651462426,57181
{consumergroup=trace-service},1651462431,96163
{consumergroup=trace-service},1651462436,96163
{consumergroup=trace-service},1651462441,96163
{consumergroup=trace-service},1651462446,200888
{consumergroup=trace-service},1651462451,200888
{consumergroup=trace-service},1651462456,200888
{consumergroup=trace-service},1651462461,98362
{consumergroup=trace-service},1651462466,98362
{consumergroup=trace-service},1651462471,98362
{consumergroup=trace-service},1651462476,45946
{consumergroup=trace-service},1651462481,45946
{consumergroup=trace-service},1651462486,45946
{consumergroup=trace-service},1651462491,104846
{consumergroup=trace-service},1651462496,104846
{consumergroup=trace-service},1651462501,104846
{consumergroup=trace-service},1651462506,46293
{consumergroup=trace-service},1651462511,46293
{consumergroup=trace-service},1651462516,46293
{consumergroup=trace-service},1651462521,88664
{consumergroup=trace-service},1651462526,88664
{consumergroup=trace-service},1651462531,88664
{consumergroup=trace-service},1651462536,44904
{consumergroup=trace-service},1651462541,44904
{consumergroup=trace-service},1651462546,44904
{consumergroup=trace-service},1651462551,88628
{consumergroup=trace-service},1651462556,88628
{consumergroup=trace-service},1651462561,88628
{consumergroup=trace-service},1651462566,46702
{consumergroup=trace-service},1651462571,46702
{consumergroup=trace-service},1651462576,46702
{consumergroup=trace-service},1651462581,91440
{consumergroup=trace-service},1651462586,91440
{consumergroup=trace-service},1651462591,91440
{consumergroup=trace-service},1651462596,79434
{consumergroup=trace-service},1651462601,79434
{consumergroup=trace-service},1651462606,79434
{consumergroup=trace-service},1651462611,119700
{consumergroup=trace-service},1651462616,119700
{consumergroup=trace-service},1651462621,119700
{consumergroup=trace-service},1651462626,57620
{consumergroup=trace-service},1651462631,57620
{consumergroup=trace-service},1651462636,57620
{consumergroup=trace-service},1651462641,94649
{consumergroup=trace-service},1651462646,94649
{consumergroup=trace-service},1651462651,94649
{consumergroup=trace-service},1651462656,54373
{consumergroup=trace-service},1651462661,54373
{consumergroup=trace-service},1651462666,54373
{consumergroup=trace-service},1651462671,89758
{consumergroup=trace-service},1651462676,89758
{consumergroup=trace-service},1651462681,89758
{consumergroup=trace-service},1651462686,146882
{consumergroup=trace-service},1651462691,146882
{consumergroup=trace-service},1651462696,146882
{consumergroup=trace-service},1651462701,123441
{consumergroup=trace-service},1651462706,123441
{consumergroup=trace-service},1651462711,123441
{consumergroup=trace-service},1651462716,249229
{consumergroup=trace-service},1651462721,249229
{consumergroup=trace-service},1651462726,249229
{consumergroup=trace-service},1651462731,151623
{consumergroup=trace-service},1651462736,151623
{consumergroup=trace-service},1651462741,151623
{consumergroup=trace-service},1651462746,52946
{consumergroup=trace-service},1651462751,52946
{consumergroup=trace-service},1651462756,52946
{consumergroup=trace-service},1651462761,96650
{consumergroup=trace-service},1651462766,96650
{consumergroup=trace-service},1651462771,96650
{consumergroup=trace-service},1651462776,237420
{consumergroup=trace-service},1651462781,237420
{consumergroup=trace-service},1651462786,237420
{consumergroup=trace-service},1651462791,149876
{consumergroup=trace-service},1651462796,149876
{consumergroup=trace-token-events-consumer},1651462386,0
{consumergroup=trace-token-events-consumer},1651462391,0
{consumergroup=trace-token-events-consumer},1651462396,0
{consumergroup=trace-token-events-consumer},1651462401,0
{consumergroup=trace-token-events-consumer},1651462406,0
{consumergroup=trace-token-events-consumer},1651462411,0
{consumergroup=trace-token-events-consumer},1651462416,0
{consumergroup=trace-token-events-consumer},1651462421,0
{consumergroup=trace-token-events-consumer},1651462426,0
{consumergroup=trace-token-events-consumer},1651462431,0
{consumergroup=trace-token-events-consumer},1651462436,0
{consumergroup=trace-token-events-consumer},1651462441,0
{consumergroup=trace-token-events-consumer},1651462446,0
{consumergroup=trace-token-events-consumer},1651462451,0
{consumergroup=trace-token-events-consumer},1651462456,0
{consumergroup=trace-token-events-consumer},1651462461,0
{consumergroup=trace-token-events-consumer},1651462466,0
{consumergroup=trace-token-events-consumer},1651462471,0
{consumergroup=trace-token-events-consumer},1651462476,0
{consumergroup=trace-token-events-consumer},1651462481,0
{consumergroup=trace-token-events-consumer},1651462486,0
{consumergroup=trace-token-events-consumer},1651462491,0
{consumergroup=trace-token-events-consumer},1651462496,0
{consumergroup=trace-token-events-consumer},1651462501,0
{consumergroup=trace-token-events-consumer},1651462506,0
{consumergroup=trace-token-events-consumer},1651462511,0
{consumergroup=trace-token-events-consumer},1651462516,0
{consumergroup=trace-token-events-consumer},1651462521,0
{consumergroup=trace-token-events-consumer},1651462526,0
{consumergroup=trace-token-events-consumer},1651462531,0
{consumergroup=trace-token-events-consumer},1651462536,0
{consumergroup=trace-token-events-consumer},1651462541,0
{consumergroup=trace-token-events-consumer},1651462546,0
{consumergroup=trace-token-events-consumer},1651462551,0
{consumergroup=trace-token-events-consumer},1651462556,0
{consumergroup=trace-token-events-consumer},1651462561,0
{consumergroup=trace-token-events-consumer},1651462566,0
{consumergroup=trace-token-events-consumer},1651462571,0
{consumergroup=trace-token-events-consumer},1651462576,0
{consumergroup=trace-token-events-consumer},1651462581,0
{consumergroup=trace-token-events-consumer},1651462586,0
{consumergroup=trace-token-events-consumer},1651462591,0
{consumergroup=trace-token-events-consumer},1651462596,0
{consumergroup=trace-token-events-consumer},1651462601,0
{consumergroup=trace-token-events-consumer},1651462606,0
{consumergroup=trace-token-events-consumer},1651462611,0
{consumergroup=trace-token-events-consumer},1651462616,0
{consumergroup=trace-token-events-consumer},1651462621,0
{consumergroup=trace-token-events-consumer},1651462626,0
{consumergroup=trace-token-events-consumer},1651462631,0
{consumergroup=trace-token-events-consumer},1651462636,0
{consumergroup=trace-token-events-consumer},1651462641,0
{consumergroup=trace-token-events-consumer},1651462646,0
{consumergroup=trace-token-events-consumer},1651462651,0
{consumergroup=trace-token-events-consumer},1651462656,0
{consumergroup=trace-token-events-consumer},1651462661,0
{consumergroup=trace-token-events-consumer},1651462666,0
{consumergroup=trace-token-events-consumer},1651462671,0
{consumergroup=trace-token-events-consumer},1651462676,0
{consumergroup=trace-token-events-consumer},1651462681,0
{consumergroup=trace-token-events-consumer},1651462686,0
{consumergroup=trace-token-events-consumer},1651462691,0
{consumergroup=trace-token-events-consumer},1651462696,0
{consumergroup=trace-token-events-consumer},1651462701,0
{consumergroup=trace-token-events-consumer},1651462706,0
{consumergroup=trace-token-events-consumer},1651462711,0
{consumergroup=trace-token-events-consumer},1651462716,0
{consumergroup=trace-token-events-consumer},1651462721,0
{consumergroup=trace-token-events-consumer},1651462726,0
{consumergroup=trace-token-events-consumer},1651462731,0
{consumergroup=trace-token-events-consumer},1651462736,0
{consumergroup=trace-token-events-consumer},1651462741,0
{consumergroup=trace-token-events-consumer},1651462746,0
{consumergroup=trace-token-events-consumer},1651462751,0
{consumergroup=trace-token-events-consumer},1651462756,0
{consumergroup=trace-token-events-consumer},1651462761,0
{consumergroup=trace-token-events-consumer},1651462766,0
{consumergroup=trace-token-events-consumer},1651462771,0
{consumergroup=trace-token-events-consumer},1651462776,0
{consumergroup=trace-token-events-consumer},1651462781,0
{consumergroup=trace-token-events-consumer},1651462786,0
{consumergroup=trace-token-events-consumer},1651462791,0
{consumergroup=trace-token-events-consumer},1651462796,0
