labels,timestamp,value
{consumergroup=__strimzi-topic-operator-kstreams},1651471099,0
{consumergroup=__strimzi-topic-operator-kstreams},1651471104,0
{consumergroup=__strimzi-topic-operator-kstreams},1651471109,0
{consumergroup=__strimzi-topic-operator-kstreams},1651471114,3
{consumergroup=__strimzi-topic-operator-kstreams},1651471119,3
{consumergroup=__strimzi-topic-operator-kstreams},1651471124,3
{consumergroup=__strimzi-topic-operator-kstreams},1651471129,0
{consumergroup=__strimzi-topic-operator-kstreams},1651471134,0
{consumergroup=__strimzi-topic-operator-kstreams},1651471139,0
{consumergroup=__strimzi-topic-operator-kstreams},1651471144,0
{consumergroup=__strimzi-topic-operator-kstreams},1651471149,0
{consumergroup=__strimzi-topic-operator-kstreams},1651471154,0
{consumergroup=__strimzi-topic-operator-kstreams},1651471159,0
{consumergroup=__strimzi-topic-operator-kstreams},1651471164,0
{consumergroup=__strimzi-topic-operator-kstreams},1651471169,0
{consumergroup=__strimzi-topic-operator-kstreams},1651471174,0
{consumergroup=__strimzi-topic-operator-kstreams},1651471179,0
{consumergroup=__strimzi-topic-operator-kstreams},1651471184,0
{consumergroup=__strimzi-topic-operator-kstreams},1651471189,0
{consumergroup=__strimzi-topic-operator-kstreams},1651471194,0
{consumergroup=__strimzi-topic-operator-kstreams},1651471199,0
{consumergroup=__strimzi-topic-operator-kstreams},1651471204,0
{consumergroup=__strimzi-topic-operator-kstreams},1651471209,0
{consumergroup=__strimzi-topic-operator-kstreams},1651471214,0
{consumergroup=__strimzi-topic-operator-kstreams},1651471219,0
{consumergroup=__strimzi-topic-operator-kstreams},1651471224,0
{consumergroup=__strimzi-topic-operator-kstreams},1651471229,0
{consumergroup=__strimzi-topic-operator-kstreams},1651471234,0
{consumergroup=__strimzi-topic-operator-kstreams},1651471239,0
{consumergroup=__strimzi-topic-operator-kstreams},1651471244,0
{consumergroup=__strimzi-topic-operator-kstreams},1651471249,0
{consumergroup=__strimzi-topic-operator-kstreams},1651471254,0
{consumergroup=__strimzi-topic-operator-kstreams},1651471259,0
{consumergroup=__strimzi-topic-operator-kstreams},1651471264,0
{consumergroup=__strimzi-topic-operator-kstreams},1651471269,0
{consumergroup=__strimzi-topic-operator-kstreams},1651471274,0
{consumergroup=__strimzi-topic-operator-kstreams},1651471279,0
{consumergroup=__strimzi-topic-operator-kstreams},1651471284,0
{consumergroup=__strimzi-topic-operator-kstreams},1651471289,0
{consumergroup=__strimzi-topic-operator-kstreams},1651471294,0
{consumergroup=__strimzi-topic-operator-kstreams},1651471299,0
{consumergroup=__strimzi-topic-operator-kstreams},1651471304,0
{consumergroup=__strimzi-topic-operator-kstreams},1651471309,0
{consumergroup=__strimzi-topic-operator-kstreams},1651471314,0
{consumergroup=__strimzi-topic-operator-kstreams},1651471319,0
{consumergroup=__strimzi-topic-operator-kstreams},1651471324,0
{consumergroup=__strimzi-topic-operator-kstreams},1651471329,0
{consumergroup=__strimzi-topic-operator-kstreams},1651471334,0
{consumergroup=__strimzi-topic-operator-kstreams},1651471339,0
{consumergroup=__strimzi-topic-operator-kstreams},1651471344,0
{consumergroup=__strimzi-topic-operator-kstreams},1651471349,0
{consumergroup=__strimzi-topic-operator-kstreams},1651471354,0
{consumergroup=__strimzi-topic-operator-kstreams},1651471359,0
{consumergroup=__strimzi-topic-operator-kstreams},1651471364,0
{consumergroup=__strimzi-topic-operator-kstreams},1651471369,0
{consumergroup=__strimzi-topic-operator-kstreams},1651471374,0
{consumergroup=__strimzi-topic-operator-kstreams},1651471379,0
{consumergroup=__strimzi-topic-operator-kstreams},1651471384,0
{consumergroup=__strimzi-topic-operator-kstreams},1651471389,0
{consumergroup=__strimzi-topic-operator-kstreams},1651471394,0
{consumergroup=__strimzi-topic-operator-kstreams},1651471399,0
{consumergroup=__strimzi-topic-operator-kstreams},1651471404,0
{consumergroup=__strimzi-topic-operator-kstreams},1651471409,0
{consumergroup=__strimzi-topic-operator-kstreams},1651471414,0
{consumergroup=__strimzi-topic-operator-kstreams},1651471419,0
{consumergroup=__strimzi-topic-operator-kstreams},1651471424,0
{consumergroup=__strimzi-topic-operator-kstreams},1651471429,0
{consumergroup=__strimzi-topic-operator-kstreams},1651471434,0
{consumergroup=__strimzi-topic-operator-kstreams},1651471439,0
{consumergroup=__strimzi-topic-operator-kstreams},1651471444,0
{consumergroup=__strimzi-topic-operator-kstreams},1651471449,0
{consumergroup=__strimzi-topic-operator-kstreams},1651471454,0
{consumergroup=__strimzi-topic-operator-kstreams},1651471459,0
{consumergroup=__strimzi-topic-operator-kstreams},1651471464,0
{consumergroup=__strimzi-topic-operator-kstreams},1651471469,0
{consumergroup=__strimzi-topic-operator-kstreams},1651471474,0
{consumergroup=__strimzi-topic-operator-kstreams},1651471479,0
{consumergroup=__strimzi-topic-operator-kstreams},1651471484,0
{consumergroup=__strimzi-topic-operator-kstreams},1651471489,0
{consumergroup=__strimzi-topic-operator-kstreams},1651471494,0
{consumergroup=__strimzi-topic-operator-kstreams},1651471499,0
{consumergroup=__strimzi-topic-operator-kstreams},1651471504,0
{consumergroup=__strimzi-topic-operator-kstreams},1651471509,0
{consumergroup=__strimzi-topic-operator-kstreams},1651471514,0
{consumergroup=__strimzi-topic-operator-kstreams},1651471519,0
{consumergroup=__strimzi-topic-operator-kstreams},1651471524,0
{consumergroup=__strimzi-topic-operator-kstreams},1651471529,0
{consumergroup=__strimzi-topic-operator-kstreams},1651471534,0
{consumergroup=__strimzi-topic-operator-kstreams},1651471539,0
{consumergroup=trace-service},1651471144,43790
{consumergroup=trace-service},1651471149,43790
{consumergroup=trace-service},1651471154,43790
{consumergroup=trace-service},1651471159,46620
{consumergroup=trace-service},1651471164,46620
{consumergroup=trace-service},1651471169,46620
{consumergroup=trace-service},1651471174,29876
{consumergroup=trace-service},1651471179,29876
{consumergroup=trace-service},1651471184,29876
{consumergroup=trace-service},1651471189,71606
{consumergroup=trace-service},1651471194,71606
{consumergroup=trace-service},1651471199,71606
{consumergroup=trace-service},1651471204,31757
{consumergroup=trace-service},1651471209,31757
{consumergroup=trace-service},1651471214,31757
{consumergroup=trace-service},1651471219,72026
{consumergroup=trace-service},1651471224,72026
{consumergroup=trace-service},1651471229,72026
{consumergroup=trace-service},1651471234,36290
{consumergroup=trace-service},1651471239,36290
{consumergroup=trace-service},1651471244,36290
{consumergroup=trace-service},1651471249,76945
{consumergroup=trace-service},1651471254,76945
{consumergroup=trace-service},1651471259,76945
{consumergroup=trace-service},1651471264,37935
{consumergroup=trace-service},1651471269,37935
{consumergroup=trace-service},1651471274,37935
{consumergroup=trace-service},1651471279,84161
{consumergroup=trace-service},1651471284,84161
{consumergroup=trace-service},1651471289,84161
{consumergroup=trace-service},1651471294,34551
{consumergroup=trace-service},1651471299,34551
{consumergroup=trace-service},1651471304,34551
{consumergroup=trace-service},1651471309,76467
{consumergroup=trace-service},1651471314,76467
{consumergroup=trace-service},1651471319,76467
{consumergroup=trace-service},1651471324,32659
{consumergroup=trace-service},1651471329,32659
{consumergroup=trace-service},1651471334,32659
{consumergroup=trace-service},1651471339,79674
{consumergroup=trace-service},1651471344,79674
{consumergroup=trace-service},1651471349,79674
{consumergroup=trace-service},1651471354,198754
{consumergroup=trace-service},1651471359,198754
{consumergroup=trace-service},1651471364,198754
{consumergroup=trace-service},1651471369,124799
{consumergroup=trace-service},1651471374,124799
{consumergroup=trace-service},1651471379,124799
{consumergroup=trace-service},1651471384,34740
{consumergroup=trace-service},1651471389,34740
{consumergroup=trace-service},1651471394,34740
{consumergroup=trace-service},1651471399,79643
{consumergroup=trace-service},1651471404,79643
{consumergroup=trace-service},1651471409,79643
{consumergroup=trace-service},1651471414,35900
{consumergroup=trace-service},1651471419,35900
{consumergroup=trace-service},1651471424,35900
{consumergroup=trace-service},1651471429,79984
{consumergroup=trace-service},1651471434,79984
{consumergroup=trace-service},1651471439,79984
{consumergroup=trace-service},1651471444,36685
{consumergroup=trace-service},1651471449,36685
{consumergroup=trace-service},1651471454,36685
{consumergroup=trace-service},1651471459,75812
{consumergroup=trace-service},1651471464,75812
{consumergroup=trace-service},1651471469,75812
{consumergroup=trace-service},1651471474,32748
{consumergroup=trace-service},1651471479,32748
{consumergroup=trace-service},1651471484,32748
{consumergroup=trace-service},1651471489,80110
{consumergroup=trace-service},1651471494,80110
{consumergroup=trace-service},1651471499,80110
{consumergroup=trace-service},1651471504,103464
{consumergroup=trace-service},1651471509,103464
{consumergroup=trace-service},1651471514,103464
{consumergroup=trace-service},1651471519,86339
{consumergroup=trace-service},1651471524,86339
{consumergroup=trace-service},1651471529,86339
{consumergroup=trace-service},1651471534,37353
{consumergroup=trace-service},1651471539,37353
{consumergroup=trace-token-events-consumer},1651471129,0
{consumergroup=trace-token-events-consumer},1651471134,0
{consumergroup=trace-token-events-consumer},1651471139,0
{consumergroup=trace-token-events-consumer},1651471144,0
{consumergroup=trace-token-events-consumer},1651471149,0
{consumergroup=trace-token-events-consumer},1651471154,0
{consumergroup=trace-token-events-consumer},1651471159,0
{consumergroup=trace-token-events-consumer},1651471164,0
{consumergroup=trace-token-events-consumer},1651471169,0
{consumergroup=trace-token-events-consumer},1651471174,0
{consumergroup=trace-token-events-consumer},1651471179,0
{consumergroup=trace-token-events-consumer},1651471184,0
{consumergroup=trace-token-events-consumer},1651471189,0
{consumergroup=trace-token-events-consumer},1651471194,0
{consumergroup=trace-token-events-consumer},1651471199,0
{consumergroup=trace-token-events-consumer},1651471204,0
{consumergroup=trace-token-events-consumer},1651471209,0
{consumergroup=trace-token-events-consumer},1651471214,0
{consumergroup=trace-token-events-consumer},1651471219,0
{consumergroup=trace-token-events-consumer},1651471224,0
{consumergroup=trace-token-events-consumer},1651471229,0
{consumergroup=trace-token-events-consumer},1651471234,0
{consumergroup=trace-token-events-consumer},1651471239,0
{consumergroup=trace-token-events-consumer},1651471244,0
{consumergroup=trace-token-events-consumer},1651471249,0
{consumergroup=trace-token-events-consumer},1651471254,0
{consumergroup=trace-token-events-consumer},1651471259,0
{consumergroup=trace-token-events-consumer},1651471264,0
{consumergroup=trace-token-events-consumer},1651471269,0
{consumergroup=trace-token-events-consumer},1651471274,0
{consumergroup=trace-token-events-consumer},1651471279,0
{consumergroup=trace-token-events-consumer},1651471284,0
{consumergroup=trace-token-events-consumer},1651471289,0
{consumergroup=trace-token-events-consumer},1651471294,0
{consumergroup=trace-token-events-consumer},1651471299,0
{consumergroup=trace-token-events-consumer},1651471304,0
{consumergroup=trace-token-events-consumer},1651471309,0
{consumergroup=trace-token-events-consumer},1651471314,0
{consumergroup=trace-token-events-consumer},1651471319,0
{consumergroup=trace-token-events-consumer},1651471324,0
{consumergroup=trace-token-events-consumer},1651471329,0
{consumergroup=trace-token-events-consumer},1651471334,0
{consumergroup=trace-token-events-consumer},1651471339,0
{consumergroup=trace-token-events-consumer},1651471344,0
{consumergroup=trace-token-events-consumer},1651471349,0
{consumergroup=trace-token-events-consumer},1651471354,0
{consumergroup=trace-token-events-consumer},1651471359,0
{consumergroup=trace-token-events-consumer},1651471364,0
{consumergroup=trace-token-events-consumer},1651471369,0
{consumergroup=trace-token-events-consumer},1651471374,0
{consumergroup=trace-token-events-consumer},1651471379,0
{consumergroup=trace-token-events-consumer},1651471384,0
{consumergroup=trace-token-events-consumer},1651471389,0
{consumergroup=trace-token-events-consumer},1651471394,0
{consumergroup=trace-token-events-consumer},1651471399,0
{consumergroup=trace-token-events-consumer},1651471404,0
{consumergroup=trace-token-events-consumer},1651471409,0
{consumergroup=trace-token-events-consumer},1651471414,0
{consumergroup=trace-token-events-consumer},1651471419,0
{consumergroup=trace-token-events-consumer},1651471424,0
{consumergroup=trace-token-events-consumer},1651471429,0
{consumergroup=trace-token-events-consumer},1651471434,0
{consumergroup=trace-token-events-consumer},1651471439,0
{consumergroup=trace-token-events-consumer},1651471444,0
{consumergroup=trace-token-events-consumer},1651471449,0
{consumergroup=trace-token-events-consumer},1651471454,0
{consumergroup=trace-token-events-consumer},1651471459,0
{consumergroup=trace-token-events-consumer},1651471464,0
{consumergroup=trace-token-events-consumer},1651471469,0
{consumergroup=trace-token-events-consumer},1651471474,0
{consumergroup=trace-token-events-consumer},1651471479,0
{consumergroup=trace-token-events-consumer},1651471484,0
{consumergroup=trace-token-events-consumer},1651471489,0
{consumergroup=trace-token-events-consumer},1651471494,0
{consumergroup=trace-token-events-consumer},1651471499,0
{consumergroup=trace-token-events-consumer},1651471504,0
{consumergroup=trace-token-events-consumer},1651471509,0
{consumergroup=trace-token-events-consumer},1651471514,0
{consumergroup=trace-token-events-consumer},1651471519,0
{consumergroup=trace-token-events-consumer},1651471524,0
{consumergroup=trace-token-events-consumer},1651471529,0
{consumergroup=trace-token-events-consumer},1651471534,0
{consumergroup=trace-token-events-consumer},1651471539,0
