labels,timestamp,value
{job=theodolite-stu200776/trace-isolated-podmonitor},1651458848,0
{job=theodolite-stu200776/trace-isolated-podmonitor},1651458853,0
{job=theodolite-stu200776/trace-isolated-podmonitor},1651458858,0
{job=theodolite-stu200776/trace-isolated-podmonitor},1651458863,0
{job=theodolite-stu200776/trace-isolated-podmonitor},1651458868,0
{job=theodolite-stu200776/trace-isolated-podmonitor},1651458873,6.836063429672144
{job=theodolite-stu200776/trace-isolated-podmonitor},1651458878,39.007104422356754
{job=theodolite-stu200776/trace-isolated-podmonitor},1651458883,65.04051816786152
{job=theodolite-stu200776/trace-isolated-podmonitor},1651458888,57.86804725880543
{job=theodolite-stu200776/trace-isolated-podmonitor},1651458893,50.66213036143892
{job=theodolite-stu200776/trace-isolated-podmonitor},1651458898,45.83208910240019
{job=theodolite-stu200776/trace-isolated-podmonitor},1651458903,41.23645572287426
{job=theodolite-stu200776/trace-isolated-podmonitor},1651458908,21.784854497967917
{job=theodolite-stu200776/trace-isolated-podmonitor},1651458913,0.716927599683415
{job=theodolite-stu200776/trace-isolated-podmonitor},1651458918,0
{job=theodolite-stu200776/trace-isolated-podmonitor},1651458923,0
{job=theodolite-stu200776/trace-isolated-podmonitor},1651458928,0
{job=theodolite-stu200776/trace-isolated-podmonitor},1651458933,0
{job=theodolite-stu200776/trace-isolated-podmonitor},1651458938,0
{job=theodolite-stu200776/trace-isolated-podmonitor},1651458943,0
{job=theodolite-stu200776/trace-isolated-podmonitor},1651458948,0
{job=theodolite-stu200776/trace-isolated-podmonitor},1651458953,0
{job=theodolite-stu200776/trace-isolated-podmonitor},1651458958,0
{job=theodolite-stu200776/trace-isolated-podmonitor},1651458963,0
{job=theodolite-stu200776/trace-isolated-podmonitor},1651458968,0
{job=theodolite-stu200776/trace-isolated-podmonitor},1651458973,0
{job=theodolite-stu200776/trace-isolated-podmonitor},1651458978,0
{job=theodolite-stu200776/trace-isolated-podmonitor},1651458983,0
{job=theodolite-stu200776/trace-isolated-podmonitor},1651458988,0
{job=theodolite-stu200776/trace-isolated-podmonitor},1651458993,0
{job=theodolite-stu200776/trace-isolated-podmonitor},1651458998,0
{job=theodolite-stu200776/trace-isolated-podmonitor},1651459003,0
{job=theodolite-stu200776/trace-isolated-podmonitor},1651459008,0
{job=theodolite-stu200776/trace-isolated-podmonitor},1651459013,0
{job=theodolite-stu200776/trace-isolated-podmonitor},1651459018,0
{job=theodolite-stu200776/trace-isolated-podmonitor},1651459023,0
{job=theodolite-stu200776/trace-isolated-podmonitor},1651459028,0
{job=theodolite-stu200776/trace-isolated-podmonitor},1651459033,0
{job=theodolite-stu200776/trace-isolated-podmonitor},1651459038,0
{job=theodolite-stu200776/trace-isolated-podmonitor},1651459043,0
{job=theodolite-stu200776/trace-isolated-podmonitor},1651459048,0
{job=theodolite-stu200776/trace-isolated-podmonitor},1651459053,0
{job=theodolite-stu200776/trace-isolated-podmonitor},1651459058,0
{job=theodolite-stu200776/trace-isolated-podmonitor},1651459063,0
{job=theodolite-stu200776/trace-isolated-podmonitor},1651459068,0
{job=theodolite-stu200776/trace-isolated-podmonitor},1651459073,0
{job=theodolite-stu200776/trace-isolated-podmonitor},1651459078,0
{job=theodolite-stu200776/trace-isolated-podmonitor},1651459083,0
{job=theodolite-stu200776/trace-isolated-podmonitor},1651459088,0
{job=theodolite-stu200776/trace-isolated-podmonitor},1651459093,0
{job=theodolite-stu200776/trace-isolated-podmonitor},1651459098,0
{job=theodolite-stu200776/trace-isolated-podmonitor},1651459103,0
{job=theodolite-stu200776/trace-isolated-podmonitor},1651459108,0
{job=theodolite-stu200776/trace-isolated-podmonitor},1651459113,0
{job=theodolite-stu200776/trace-isolated-podmonitor},1651459118,0
{job=theodolite-stu200776/trace-isolated-podmonitor},1651459123,0
{job=theodolite-stu200776/trace-isolated-podmonitor},1651459128,0
{job=theodolite-stu200776/trace-isolated-podmonitor},1651459133,0
{job=theodolite-stu200776/trace-isolated-podmonitor},1651459138,0
{job=theodolite-stu200776/trace-isolated-podmonitor},1651459143,0
{job=theodolite-stu200776/trace-isolated-podmonitor},1651459148,0
{job=theodolite-stu200776/trace-isolated-podmonitor},1651459153,0
{job=theodolite-stu200776/trace-isolated-podmonitor},1651459158,0
{job=theodolite-stu200776/trace-isolated-podmonitor},1651459163,0
{job=theodolite-stu200776/trace-isolated-podmonitor},1651459168,0
{job=theodolite-stu200776/trace-isolated-podmonitor},1651459173,0
{job=theodolite-stu200776/trace-isolated-podmonitor},1651459178,0
{job=theodolite-stu200776/trace-isolated-podmonitor},1651459183,0
{job=theodolite-stu200776/trace-isolated-podmonitor},1651459188,0
{job=theodolite-stu200776/trace-isolated-podmonitor},1651459193,0
{job=theodolite-stu200776/trace-isolated-podmonitor},1651459198,0
{job=theodolite-stu200776/trace-isolated-podmonitor},1651459203,0
{job=theodolite-stu200776/trace-isolated-podmonitor},1651459208,0
{job=theodolite-stu200776/trace-isolated-podmonitor},1651459213,0
{job=theodolite-stu200776/trace-isolated-podmonitor},1651459218,0
