labels,timestamp,value
{job=theodolite-stu200776/trace-isolated-podmonitor},1651460902,0
{job=theodolite-stu200776/trace-isolated-podmonitor},1651460907,0
{job=theodolite-stu200776/trace-isolated-podmonitor},1651460912,0
{job=theodolite-stu200776/trace-isolated-podmonitor},1651460917,0.27330156385415316
{job=theodolite-stu200776/trace-isolated-podmonitor},1651460922,1.7584639923392444
{job=theodolite-stu200776/trace-isolated-podmonitor},1651460927,1.7077888151768608
{job=theodolite-stu200776/trace-isolated-podmonitor},1651460932,2.6219591103141595
{job=theodolite-stu200776/trace-isolated-podmonitor},1651460937,2.753260031491085
{job=theodolite-stu200776/trace-isolated-podmonitor},1651460942,2.1885592962479534
{job=theodolite-stu200776/trace-isolated-podmonitor},1651460947,2.1079335522334115
{job=theodolite-stu200776/trace-isolated-podmonitor},1651460952,1.7585578914226319
{job=theodolite-stu200776/trace-isolated-podmonitor},1651460957,1.7078951070130002
{job=theodolite-stu200776/trace-isolated-podmonitor},1651460962,0.22263877944452135
{job=theodolite-stu200776/trace-isolated-podmonitor},1651460967,0
{job=theodolite-stu200776/trace-isolated-podmonitor},1651460972,0
{job=theodolite-stu200776/trace-isolated-podmonitor},1651460977,0
{job=theodolite-stu200776/trace-isolated-podmonitor},1651460982,0
{job=theodolite-stu200776/trace-isolated-podmonitor},1651460987,0
{job=theodolite-stu200776/trace-isolated-podmonitor},1651460992,0
{job=theodolite-stu200776/trace-isolated-podmonitor},1651460997,0
{job=theodolite-stu200776/trace-isolated-podmonitor},1651461002,0
{job=theodolite-stu200776/trace-isolated-podmonitor},1651461007,0
{job=theodolite-stu200776/trace-isolated-podmonitor},1651461012,0
{job=theodolite-stu200776/trace-isolated-podmonitor},1651461017,0
{job=theodolite-stu200776/trace-isolated-podmonitor},1651461022,0
{job=theodolite-stu200776/trace-isolated-podmonitor},1651461027,0
{job=theodolite-stu200776/trace-isolated-podmonitor},1651461032,0
{job=theodolite-stu200776/trace-isolated-podmonitor},1651461037,0
{job=theodolite-stu200776/trace-isolated-podmonitor},1651461042,0
{job=theodolite-stu200776/trace-isolated-podmonitor},1651461047,0
{job=theodolite-stu200776/trace-isolated-podmonitor},1651461052,0
{job=theodolite-stu200776/trace-isolated-podmonitor},1651461057,0
{job=theodolite-stu200776/trace-isolated-podmonitor},1651461062,0
{job=theodolite-stu200776/trace-isolated-podmonitor},1651461067,0
{job=theodolite-stu200776/trace-isolated-podmonitor},1651461072,410.7550288754595
{job=theodolite-stu200776/trace-isolated-podmonitor},1651461077,549.4119617221018
{job=theodolite-stu200776/trace-isolated-podmonitor},1651461082,667.524888206885
{job=theodolite-stu200776/trace-isolated-podmonitor},1651461087,639.7879553602422
{job=theodolite-stu200776/trace-isolated-podmonitor},1651461092,629.3897763297743
{job=theodolite-stu200776/trace-isolated-podmonitor},1651461097,610.9061908769262
{job=theodolite-stu200776/trace-isolated-podmonitor},1651461102,745.0571102896151
{job=theodolite-stu200776/trace-isolated-podmonitor},1651461107,799.3342162335757
{job=theodolite-stu200776/trace-isolated-podmonitor},1651461112,806.3284326023455
{job=theodolite-stu200776/trace-isolated-podmonitor},1651461117,775.6459146492343
{job=theodolite-stu200776/trace-isolated-podmonitor},1651461122,646.1115553700464
{job=theodolite-stu200776/trace-isolated-podmonitor},1651461127,626.0162144845184
{job=theodolite-stu200776/trace-isolated-podmonitor},1651461132,289.7170911802864
{job=theodolite-stu200776/trace-isolated-podmonitor},1651461137,193.78142952781334
{job=theodolite-stu200776/trace-isolated-podmonitor},1651461142,0
{job=theodolite-stu200776/trace-isolated-podmonitor},1651461147,0
{job=theodolite-stu200776/trace-isolated-podmonitor},1651461152,0
{job=theodolite-stu200776/trace-isolated-podmonitor},1651461157,0
{job=theodolite-stu200776/trace-isolated-podmonitor},1651461162,873.0926901344893
{job=theodolite-stu200776/trace-isolated-podmonitor},1651461167,1019.4666755004242
{job=theodolite-stu200776/trace-isolated-podmonitor},1651461172,1235.4252132370787
{job=theodolite-stu200776/trace-isolated-podmonitor},1651461177,1308.5134429850978
{job=theodolite-stu200776/trace-isolated-podmonitor},1651461182,1180.5676737629913
{job=theodolite-stu200776/trace-isolated-podmonitor},1651461187,1136.741945919292
{job=theodolite-stu200776/trace-isolated-podmonitor},1651461192,676.1065532462727
{job=theodolite-stu200776/trace-isolated-podmonitor},1651461197,500.4700659760179
{job=theodolite-stu200776/trace-isolated-podmonitor},1651461202,148.89472204470678
{job=theodolite-stu200776/trace-isolated-podmonitor},1651461207,148.89472204470678
{job=theodolite-stu200776/trace-isolated-podmonitor},1651461212,0
{job=theodolite-stu200776/trace-isolated-podmonitor},1651461217,0
{job=theodolite-stu200776/trace-isolated-podmonitor},1651461222,0
{job=theodolite-stu200776/trace-isolated-podmonitor},1651461227,0
{job=theodolite-stu200776/trace-isolated-podmonitor},1651461232,0
{job=theodolite-stu200776/trace-isolated-podmonitor},1651461237,0
{job=theodolite-stu200776/trace-isolated-podmonitor},1651461242,0
{job=theodolite-stu200776/trace-isolated-podmonitor},1651461247,0
{job=theodolite-stu200776/trace-isolated-podmonitor},1651461252,0
{job=theodolite-stu200776/trace-isolated-podmonitor},1651461257,0
{job=theodolite-stu200776/trace-isolated-podmonitor},1651461262,0
{job=theodolite-stu200776/trace-isolated-podmonitor},1651461267,0
{job=theodolite-stu200776/trace-isolated-podmonitor},1651461272,0
