labels,timestamp,value
{consumergroup=__strimzi-topic-operator-kstreams},1651465422,8
{consumergroup=__strimzi-topic-operator-kstreams},1651465427,8
{consumergroup=__strimzi-topic-operator-kstreams},1651465432,8
{consumergroup=__strimzi-topic-operator-kstreams},1651465437,11
{consumergroup=__strimzi-topic-operator-kstreams},1651465442,11
{consumergroup=__strimzi-topic-operator-kstreams},1651465447,11
{consumergroup=__strimzi-topic-operator-kstreams},1651465452,0
{consumergroup=__strimzi-topic-operator-kstreams},1651465457,0
{consumergroup=__strimzi-topic-operator-kstreams},1651465462,0
{consumergroup=__strimzi-topic-operator-kstreams},1651465467,0
{consumergroup=__strimzi-topic-operator-kstreams},1651465472,0
{consumergroup=__strimzi-topic-operator-kstreams},1651465477,0
{consumergroup=__strimzi-topic-operator-kstreams},1651465482,0
{consumergroup=__strimzi-topic-operator-kstreams},1651465487,0
{consumergroup=__strimzi-topic-operator-kstreams},1651465492,0
{consumergroup=__strimzi-topic-operator-kstreams},1651465497,0
{consumergroup=__strimzi-topic-operator-kstreams},1651465502,0
{consumergroup=__strimzi-topic-operator-kstreams},1651465507,0
{consumergroup=__strimzi-topic-operator-kstreams},1651465512,0
{consumergroup=__strimzi-topic-operator-kstreams},1651465517,0
{consumergroup=__strimzi-topic-operator-kstreams},1651465522,0
{consumergroup=__strimzi-topic-operator-kstreams},1651465527,0
{consumergroup=__strimzi-topic-operator-kstreams},1651465532,0
{consumergroup=__strimzi-topic-operator-kstreams},1651465537,0
{consumergroup=__strimzi-topic-operator-kstreams},1651465542,0
{consumergroup=__strimzi-topic-operator-kstreams},1651465547,0
{consumergroup=__strimzi-topic-operator-kstreams},1651465552,0
{consumergroup=__strimzi-topic-operator-kstreams},1651465557,0
{consumergroup=__strimzi-topic-operator-kstreams},1651465562,0
{consumergroup=__strimzi-topic-operator-kstreams},1651465567,0
{consumergroup=__strimzi-topic-operator-kstreams},1651465572,0
{consumergroup=__strimzi-topic-operator-kstreams},1651465577,0
{consumergroup=__strimzi-topic-operator-kstreams},1651465582,0
{consumergroup=__strimzi-topic-operator-kstreams},1651465587,0
{consumergroup=__strimzi-topic-operator-kstreams},1651465592,0
{consumergroup=__strimzi-topic-operator-kstreams},1651465597,0
{consumergroup=__strimzi-topic-operator-kstreams},1651465602,0
{consumergroup=__strimzi-topic-operator-kstreams},1651465607,0
{consumergroup=__strimzi-topic-operator-kstreams},1651465612,0
{consumergroup=__strimzi-topic-operator-kstreams},1651465617,0
{consumergroup=__strimzi-topic-operator-kstreams},1651465622,0
{consumergroup=__strimzi-topic-operator-kstreams},1651465627,0
{consumergroup=__strimzi-topic-operator-kstreams},1651465632,0
{consumergroup=__strimzi-topic-operator-kstreams},1651465637,0
{consumergroup=__strimzi-topic-operator-kstreams},1651465642,0
{consumergroup=__strimzi-topic-operator-kstreams},1651465647,0
{consumergroup=__strimzi-topic-operator-kstreams},1651465652,0
{consumergroup=__strimzi-topic-operator-kstreams},1651465657,0
{consumergroup=__strimzi-topic-operator-kstreams},1651465662,0
{consumergroup=__strimzi-topic-operator-kstreams},1651465667,0
{consumergroup=__strimzi-topic-operator-kstreams},1651465672,0
{consumergroup=__strimzi-topic-operator-kstreams},1651465677,0
{consumergroup=__strimzi-topic-operator-kstreams},1651465682,0
{consumergroup=__strimzi-topic-operator-kstreams},1651465687,0
{consumergroup=__strimzi-topic-operator-kstreams},1651465692,0
{consumergroup=__strimzi-topic-operator-kstreams},1651465697,0
{consumergroup=__strimzi-topic-operator-kstreams},1651465702,0
{consumergroup=__strimzi-topic-operator-kstreams},1651465707,0
{consumergroup=__strimzi-topic-operator-kstreams},1651465712,0
{consumergroup=__strimzi-topic-operator-kstreams},1651465717,0
{consumergroup=__strimzi-topic-operator-kstreams},1651465722,0
{consumergroup=__strimzi-topic-operator-kstreams},1651465727,0
{consumergroup=__strimzi-topic-operator-kstreams},1651465732,0
{consumergroup=__strimzi-topic-operator-kstreams},1651465737,0
{consumergroup=__strimzi-topic-operator-kstreams},1651465742,0
{consumergroup=__strimzi-topic-operator-kstreams},1651465747,0
{consumergroup=__strimzi-topic-operator-kstreams},1651465752,0
{consumergroup=__strimzi-topic-operator-kstreams},1651465757,0
{consumergroup=__strimzi-topic-operator-kstreams},1651465762,0
{consumergroup=__strimzi-topic-operator-kstreams},1651465767,0
{consumergroup=__strimzi-topic-operator-kstreams},1651465772,0
{consumergroup=__strimzi-topic-operator-kstreams},1651465777,0
{consumergroup=__strimzi-topic-operator-kstreams},1651465782,0
{consumergroup=__strimzi-topic-operator-kstreams},1651465787,0
{consumergroup=__strimzi-topic-operator-kstreams},1651465792,0
{consumergroup=__strimzi-topic-operator-kstreams},1651465797,0
{consumergroup=__strimzi-topic-operator-kstreams},1651465802,0
{consumergroup=__strimzi-topic-operator-kstreams},1651465807,0
{consumergroup=__strimzi-topic-operator-kstreams},1651465812,0
{consumergroup=__strimzi-topic-operator-kstreams},1651465817,0
{consumergroup=__strimzi-topic-operator-kstreams},1651465822,0
{consumergroup=__strimzi-topic-operator-kstreams},1651465827,0
{consumergroup=__strimzi-topic-operator-kstreams},1651465832,0
{consumergroup=__strimzi-topic-operator-kstreams},1651465837,0
{consumergroup=__strimzi-topic-operator-kstreams},1651465842,0
{consumergroup=__strimzi-topic-operator-kstreams},1651465847,0
{consumergroup=__strimzi-topic-operator-kstreams},1651465852,0
{consumergroup=__strimzi-topic-operator-kstreams},1651465857,0
{consumergroup=trace-service},1651465467,16699
{consumergroup=trace-service},1651465472,16699
{consumergroup=trace-service},1651465477,16699
{consumergroup=trace-service},1651465482,48261
{consumergroup=trace-service},1651465487,48261
{consumergroup=trace-service},1651465492,48261
{consumergroup=trace-service},1651465497,21150
{consumergroup=trace-service},1651465502,21150
{consumergroup=trace-service},1651465507,21150
{consumergroup=trace-service},1651465512,36862
{consumergroup=trace-service},1651465517,36862
{consumergroup=trace-service},1651465522,36862
{consumergroup=trace-service},1651465527,22585
{consumergroup=trace-service},1651465532,22585
{consumergroup=trace-service},1651465537,22585
{consumergroup=trace-service},1651465542,37129
{consumergroup=trace-service},1651465547,37129
{consumergroup=trace-service},1651465552,37129
{consumergroup=trace-service},1651465557,10358
{consumergroup=trace-service},1651465562,10358
{consumergroup=trace-service},1651465567,10358
{consumergroup=trace-service},1651465572,39644
{consumergroup=trace-service},1651465577,39644
{consumergroup=trace-service},1651465582,39644
{consumergroup=trace-service},1651465587,16857
{consumergroup=trace-service},1651465592,16857
{consumergroup=trace-service},1651465597,16857
{consumergroup=trace-service},1651465602,36311
{consumergroup=trace-service},1651465607,36311
{consumergroup=trace-service},1651465612,36311
{consumergroup=trace-service},1651465617,5623
{consumergroup=trace-service},1651465622,5623
{consumergroup=trace-service},1651465627,5623
{consumergroup=trace-service},1651465632,34654
{consumergroup=trace-service},1651465637,34654
{consumergroup=trace-service},1651465642,34654
{consumergroup=trace-service},1651465647,19986
{consumergroup=trace-service},1651465652,19986
{consumergroup=trace-service},1651465657,19986
{consumergroup=trace-service},1651465662,38891
{consumergroup=trace-service},1651465667,38891
{consumergroup=trace-service},1651465672,38891
{consumergroup=trace-service},1651465677,23299
{consumergroup=trace-service},1651465682,23299
{consumergroup=trace-service},1651465687,23299
{consumergroup=trace-service},1651465692,41325
{consumergroup=trace-service},1651465697,41325
{consumergroup=trace-service},1651465702,41325
{consumergroup=trace-service},1651465707,130111
{consumergroup=trace-service},1651465712,130111
{consumergroup=trace-service},1651465717,130111
{consumergroup=trace-service},1651465722,34979
{consumergroup=trace-service},1651465727,34979
{consumergroup=trace-service},1651465732,34979
{consumergroup=trace-service},1651465737,11931
{consumergroup=trace-service},1651465742,11931
{consumergroup=trace-service},1651465747,11931
{consumergroup=trace-service},1651465752,33335
{consumergroup=trace-service},1651465757,33335
{consumergroup=trace-service},1651465762,33335
{consumergroup=trace-service},1651465767,13612
{consumergroup=trace-service},1651465772,13612
{consumergroup=trace-service},1651465777,13612
{consumergroup=trace-service},1651465782,34145
{consumergroup=trace-service},1651465787,34145
{consumergroup=trace-service},1651465792,34145
{consumergroup=trace-service},1651465797,10626
{consumergroup=trace-service},1651465802,10626
{consumergroup=trace-service},1651465807,10626
{consumergroup=trace-service},1651465812,32152
{consumergroup=trace-service},1651465817,32152
{consumergroup=trace-service},1651465822,32152
{consumergroup=trace-service},1651465827,10151
{consumergroup=trace-service},1651465832,10151
{consumergroup=trace-service},1651465837,10151
{consumergroup=trace-service},1651465842,32896
{consumergroup=trace-service},1651465847,32896
{consumergroup=trace-service},1651465852,32896
{consumergroup=trace-service},1651465857,21820
{consumergroup=trace-token-events-consumer},1651465437,0
{consumergroup=trace-token-events-consumer},1651465442,0
{consumergroup=trace-token-events-consumer},1651465447,0
{consumergroup=trace-token-events-consumer},1651465452,0
{consumergroup=trace-token-events-consumer},1651465457,0
{consumergroup=trace-token-events-consumer},1651465462,0
{consumergroup=trace-token-events-consumer},1651465467,0
{consumergroup=trace-token-events-consumer},1651465472,0
{consumergroup=trace-token-events-consumer},1651465477,0
{consumergroup=trace-token-events-consumer},1651465482,0
{consumergroup=trace-token-events-consumer},1651465487,0
{consumergroup=trace-token-events-consumer},1651465492,0
{consumergroup=trace-token-events-consumer},1651465497,0
{consumergroup=trace-token-events-consumer},1651465502,0
{consumergroup=trace-token-events-consumer},1651465507,0
{consumergroup=trace-token-events-consumer},1651465512,0
{consumergroup=trace-token-events-consumer},1651465517,0
{consumergroup=trace-token-events-consumer},1651465522,0
{consumergroup=trace-token-events-consumer},1651465527,0
{consumergroup=trace-token-events-consumer},1651465532,0
{consumergroup=trace-token-events-consumer},1651465537,0
{consumergroup=trace-token-events-consumer},1651465542,0
{consumergroup=trace-token-events-consumer},1651465547,0
{consumergroup=trace-token-events-consumer},1651465552,0
{consumergroup=trace-token-events-consumer},1651465557,0
{consumergroup=trace-token-events-consumer},1651465562,0
{consumergroup=trace-token-events-consumer},1651465567,0
{consumergroup=trace-token-events-consumer},1651465572,0
{consumergroup=trace-token-events-consumer},1651465577,0
{consumergroup=trace-token-events-consumer},1651465582,0
{consumergroup=trace-token-events-consumer},1651465587,0
{consumergroup=trace-token-events-consumer},1651465592,0
{consumergroup=trace-token-events-consumer},1651465597,0
{consumergroup=trace-token-events-consumer},1651465602,0
{consumergroup=trace-token-events-consumer},1651465607,0
{consumergroup=trace-token-events-consumer},1651465612,0
{consumergroup=trace-token-events-consumer},1651465617,0
{consumergroup=trace-token-events-consumer},1651465622,0
{consumergroup=trace-token-events-consumer},1651465627,0
{consumergroup=trace-token-events-consumer},1651465632,0
{consumergroup=trace-token-events-consumer},1651465637,0
{consumergroup=trace-token-events-consumer},1651465642,0
{consumergroup=trace-token-events-consumer},1651465647,0
{consumergroup=trace-token-events-consumer},1651465652,0
{consumergroup=trace-token-events-consumer},1651465657,0
{consumergroup=trace-token-events-consumer},1651465662,0
{consumergroup=trace-token-events-consumer},1651465667,0
{consumergroup=trace-token-events-consumer},1651465672,0
{consumergroup=trace-token-events-consumer},1651465677,0
{consumergroup=trace-token-events-consumer},1651465682,0
{consumergroup=trace-token-events-consumer},1651465687,0
{consumergroup=trace-token-events-consumer},1651465692,0
{consumergroup=trace-token-events-consumer},1651465697,0
{consumergroup=trace-token-events-consumer},1651465702,0
{consumergroup=trace-token-events-consumer},1651465707,0
{consumergroup=trace-token-events-consumer},1651465712,0
{consumergroup=trace-token-events-consumer},1651465717,0
{consumergroup=trace-token-events-consumer},1651465722,0
{consumergroup=trace-token-events-consumer},1651465727,0
{consumergroup=trace-token-events-consumer},1651465732,0
{consumergroup=trace-token-events-consumer},1651465737,0
{consumergroup=trace-token-events-consumer},1651465742,0
{consumergroup=trace-token-events-consumer},1651465747,0
{consumergroup=trace-token-events-consumer},1651465752,0
{consumergroup=trace-token-events-consumer},1651465757,0
{consumergroup=trace-token-events-consumer},1651465762,0
{consumergroup=trace-token-events-consumer},1651465767,0
{consumergroup=trace-token-events-consumer},1651465772,0
{consumergroup=trace-token-events-consumer},1651465777,0
{consumergroup=trace-token-events-consumer},1651465782,0
{consumergroup=trace-token-events-consumer},1651465787,0
{consumergroup=trace-token-events-consumer},1651465792,0
{consumergroup=trace-token-events-consumer},1651465797,0
{consumergroup=trace-token-events-consumer},1651465802,0
{consumergroup=trace-token-events-consumer},1651465807,0
{consumergroup=trace-token-events-consumer},1651465812,0
{consumergroup=trace-token-events-consumer},1651465817,0
{consumergroup=trace-token-events-consumer},1651465822,0
{consumergroup=trace-token-events-consumer},1651465827,0
{consumergroup=trace-token-events-consumer},1651465832,0
{consumergroup=trace-token-events-consumer},1651465837,0
{consumergroup=trace-token-events-consumer},1651465842,0
{consumergroup=trace-token-events-consumer},1651465847,0
{consumergroup=trace-token-events-consumer},1651465852,0
{consumergroup=trace-token-events-consumer},1651465857,0
