labels,timestamp,value
{job=theodolite-stu200776/trace-isolated-podmonitor},1651475251,0
{job=theodolite-stu200776/trace-isolated-podmonitor},1651475256,0
{job=theodolite-stu200776/trace-isolated-podmonitor},1651475261,0
{job=theodolite-stu200776/trace-isolated-podmonitor},1651475266,0
{job=theodolite-stu200776/trace-isolated-podmonitor},1651475271,0
{job=theodolite-stu200776/trace-isolated-podmonitor},1651475276,0
{job=theodolite-stu200776/trace-isolated-podmonitor},1651475281,0
{job=theodolite-stu200776/trace-isolated-podmonitor},1651475286,0
{job=theodolite-stu200776/trace-isolated-podmonitor},1651475291,0
{job=theodolite-stu200776/trace-isolated-podmonitor},1651475296,0
{job=theodolite-stu200776/trace-isolated-podmonitor},1651475301,0
{job=theodolite-stu200776/trace-isolated-podmonitor},1651475306,0
{job=theodolite-stu200776/trace-isolated-podmonitor},1651475311,0
{job=theodolite-stu200776/trace-isolated-podmonitor},1651475316,0
{job=theodolite-stu200776/trace-isolated-podmonitor},1651475321,0
{job=theodolite-stu200776/trace-isolated-podmonitor},1651475326,0
{job=theodolite-stu200776/trace-isolated-podmonitor},1651475331,0
{job=theodolite-stu200776/trace-isolated-podmonitor},1651475336,0
{job=theodolite-stu200776/trace-isolated-podmonitor},1651475341,0
{job=theodolite-stu200776/trace-isolated-podmonitor},1651475346,0
{job=theodolite-stu200776/trace-isolated-podmonitor},1651475351,0
{job=theodolite-stu200776/trace-isolated-podmonitor},1651475356,0
{job=theodolite-stu200776/trace-isolated-podmonitor},1651475361,0
{job=theodolite-stu200776/trace-isolated-podmonitor},1651475366,0
{job=theodolite-stu200776/trace-isolated-podmonitor},1651475371,0
{job=theodolite-stu200776/trace-isolated-podmonitor},1651475376,0
{job=theodolite-stu200776/trace-isolated-podmonitor},1651475381,0
{job=theodolite-stu200776/trace-isolated-podmonitor},1651475386,0
{job=theodolite-stu200776/trace-isolated-podmonitor},1651475391,0
{job=theodolite-stu200776/trace-isolated-podmonitor},1651475396,0
{job=theodolite-stu200776/trace-isolated-podmonitor},1651475401,0
{job=theodolite-stu200776/trace-isolated-podmonitor},1651475406,0
{job=theodolite-stu200776/trace-isolated-podmonitor},1651475411,0
{job=theodolite-stu200776/trace-isolated-podmonitor},1651475416,0
{job=theodolite-stu200776/trace-isolated-podmonitor},1651475421,0
{job=theodolite-stu200776/trace-isolated-podmonitor},1651475426,0
{job=theodolite-stu200776/trace-isolated-podmonitor},1651475431,0
{job=theodolite-stu200776/trace-isolated-podmonitor},1651475436,42.24431331075582
{job=theodolite-stu200776/trace-isolated-podmonitor},1651475441,766.9621351931413
{job=theodolite-stu200776/trace-isolated-podmonitor},1651475446,1329.0736590742536
{job=theodolite-stu200776/trace-isolated-podmonitor},1651475451,1553.083028602731
{job=theodolite-stu200776/trace-isolated-podmonitor},1651475456,1442.657599506999
{job=theodolite-stu200776/trace-isolated-podmonitor},1651475461,1308.1993258852883
{job=theodolite-stu200776/trace-isolated-podmonitor},1651475466,1363.7027096931452
{job=theodolite-stu200776/trace-isolated-podmonitor},1651475471,1758.3489751775933
{job=theodolite-stu200776/trace-isolated-podmonitor},1651475476,1827.955155411629
{job=theodolite-stu200776/trace-isolated-podmonitor},1651475481,1567.7827054045247
{job=theodolite-stu200776/trace-isolated-podmonitor},1651475486,1442.6729019719292
{job=theodolite-stu200776/trace-isolated-podmonitor},1651475491,1227.1448056471017
{job=theodolite-stu200776/trace-isolated-podmonitor},1651475496,992.187400911589
{job=theodolite-stu200776/trace-isolated-podmonitor},1651475501,276.6356159524458
{job=theodolite-stu200776/trace-isolated-podmonitor},1651475506,17.66285198252485
{job=theodolite-stu200776/trace-isolated-podmonitor},1651475511,0
{job=theodolite-stu200776/trace-isolated-podmonitor},1651475516,0
{job=theodolite-stu200776/trace-isolated-podmonitor},1651475521,0
{job=theodolite-stu200776/trace-isolated-podmonitor},1651475526,182.0819617065768
{job=theodolite-stu200776/trace-isolated-podmonitor},1651475531,469.4380745443453
{job=theodolite-stu200776/trace-isolated-podmonitor},1651475536,480.3376122591263
{job=theodolite-stu200776/trace-isolated-podmonitor},1651475541,491.16575034696393
{job=theodolite-stu200776/trace-isolated-podmonitor},1651475546,466.93170481329884
{job=theodolite-stu200776/trace-isolated-podmonitor},1651475551,411.67868019627235
{job=theodolite-stu200776/trace-isolated-podmonitor},1651475556,341.17367704187075
{job=theodolite-stu200776/trace-isolated-podmonitor},1651475561,271.00164825972627
{job=theodolite-stu200776/trace-isolated-podmonitor},1651475566,210.7144345139665
{job=theodolite-stu200776/trace-isolated-podmonitor},1651475571,56.75935723969962
{job=theodolite-stu200776/trace-isolated-podmonitor},1651475576,21.645617694464683
{job=theodolite-stu200776/trace-isolated-podmonitor},1651475581,13.57109933876255
{job=theodolite-stu200776/trace-isolated-podmonitor},1651475586,12.981333793415102
{job=theodolite-stu200776/trace-isolated-podmonitor},1651475591,2.2517318969491287
{job=theodolite-stu200776/trace-isolated-podmonitor},1651475596,1.8237922817336338
{job=theodolite-stu200776/trace-isolated-podmonitor},1651475601,1.8237922817336338
{job=theodolite-stu200776/trace-isolated-podmonitor},1651475606,0.10023306210493817
{job=theodolite-stu200776/trace-isolated-podmonitor},1651475611,0.10023306210493817
{job=theodolite-stu200776/trace-isolated-podmonitor},1651475616,169.950013896695
{job=theodolite-stu200776/trace-isolated-podmonitor},1651475621,459.32109177971415
