labels,timestamp,value
{consumergroup=__strimzi-topic-operator-kstreams},1651471617,8
{consumergroup=__strimzi-topic-operator-kstreams},1651471622,8
{consumergroup=__strimzi-topic-operator-kstreams},1651471627,8
{consumergroup=__strimzi-topic-operator-kstreams},1651471632,8
{consumergroup=__strimzi-topic-operator-kstreams},1651471637,8
{consumergroup=__strimzi-topic-operator-kstreams},1651471642,8
{consumergroup=__strimzi-topic-operator-kstreams},1651471647,0
{consumergroup=__strimzi-topic-operator-kstreams},1651471652,0
{consumergroup=__strimzi-topic-operator-kstreams},1651471657,0
{consumergroup=__strimzi-topic-operator-kstreams},1651471662,0
{consumergroup=__strimzi-topic-operator-kstreams},1651471667,0
{consumergroup=__strimzi-topic-operator-kstreams},1651471672,0
{consumergroup=__strimzi-topic-operator-kstreams},1651471677,0
{consumergroup=__strimzi-topic-operator-kstreams},1651471682,0
{consumergroup=__strimzi-topic-operator-kstreams},1651471687,0
{consumergroup=__strimzi-topic-operator-kstreams},1651471692,0
{consumergroup=__strimzi-topic-operator-kstreams},1651471697,0
{consumergroup=__strimzi-topic-operator-kstreams},1651471702,0
{consumergroup=__strimzi-topic-operator-kstreams},1651471707,0
{consumergroup=__strimzi-topic-operator-kstreams},1651471712,0
{consumergroup=__strimzi-topic-operator-kstreams},1651471717,0
{consumergroup=__strimzi-topic-operator-kstreams},1651471722,0
{consumergroup=__strimzi-topic-operator-kstreams},1651471727,0
{consumergroup=__strimzi-topic-operator-kstreams},1651471732,0
{consumergroup=__strimzi-topic-operator-kstreams},1651471737,0
{consumergroup=__strimzi-topic-operator-kstreams},1651471742,0
{consumergroup=__strimzi-topic-operator-kstreams},1651471747,0
{consumergroup=__strimzi-topic-operator-kstreams},1651471752,0
{consumergroup=__strimzi-topic-operator-kstreams},1651471757,0
{consumergroup=__strimzi-topic-operator-kstreams},1651471762,0
{consumergroup=__strimzi-topic-operator-kstreams},1651471767,0
{consumergroup=__strimzi-topic-operator-kstreams},1651471772,0
{consumergroup=__strimzi-topic-operator-kstreams},1651471777,0
{consumergroup=__strimzi-topic-operator-kstreams},1651471782,0
{consumergroup=__strimzi-topic-operator-kstreams},1651471787,0
{consumergroup=__strimzi-topic-operator-kstreams},1651471792,0
{consumergroup=__strimzi-topic-operator-kstreams},1651471797,0
{consumergroup=__strimzi-topic-operator-kstreams},1651471802,0
{consumergroup=__strimzi-topic-operator-kstreams},1651471807,0
{consumergroup=__strimzi-topic-operator-kstreams},1651471812,0
{consumergroup=__strimzi-topic-operator-kstreams},1651471817,0
{consumergroup=__strimzi-topic-operator-kstreams},1651471822,0
{consumergroup=__strimzi-topic-operator-kstreams},1651471827,0
{consumergroup=__strimzi-topic-operator-kstreams},1651471832,0
{consumergroup=__strimzi-topic-operator-kstreams},1651471837,0
{consumergroup=__strimzi-topic-operator-kstreams},1651471842,0
{consumergroup=__strimzi-topic-operator-kstreams},1651471847,0
{consumergroup=__strimzi-topic-operator-kstreams},1651471852,0
{consumergroup=__strimzi-topic-operator-kstreams},1651471857,0
{consumergroup=__strimzi-topic-operator-kstreams},1651471862,0
{consumergroup=__strimzi-topic-operator-kstreams},1651471867,0
{consumergroup=__strimzi-topic-operator-kstreams},1651471872,0
{consumergroup=__strimzi-topic-operator-kstreams},1651471877,0
{consumergroup=__strimzi-topic-operator-kstreams},1651471882,0
{consumergroup=__strimzi-topic-operator-kstreams},1651471887,0
{consumergroup=__strimzi-topic-operator-kstreams},1651471892,0
{consumergroup=__strimzi-topic-operator-kstreams},1651471897,0
{consumergroup=__strimzi-topic-operator-kstreams},1651471902,0
{consumergroup=__strimzi-topic-operator-kstreams},1651471907,0
{consumergroup=__strimzi-topic-operator-kstreams},1651471912,0
{consumergroup=__strimzi-topic-operator-kstreams},1651471917,0
{consumergroup=__strimzi-topic-operator-kstreams},1651471922,0
{consumergroup=__strimzi-topic-operator-kstreams},1651471927,0
{consumergroup=__strimzi-topic-operator-kstreams},1651471932,0
{consumergroup=__strimzi-topic-operator-kstreams},1651471937,0
{consumergroup=__strimzi-topic-operator-kstreams},1651471942,0
{consumergroup=__strimzi-topic-operator-kstreams},1651471947,0
{consumergroup=__strimzi-topic-operator-kstreams},1651471952,0
{consumergroup=__strimzi-topic-operator-kstreams},1651471957,0
{consumergroup=__strimzi-topic-operator-kstreams},1651471962,0
{consumergroup=__strimzi-topic-operator-kstreams},1651471967,0
{consumergroup=__strimzi-topic-operator-kstreams},1651471972,0
{consumergroup=__strimzi-topic-operator-kstreams},1651471977,0
{consumergroup=__strimzi-topic-operator-kstreams},1651471982,0
{consumergroup=__strimzi-topic-operator-kstreams},1651471987,0
{consumergroup=__strimzi-topic-operator-kstreams},1651471992,0
{consumergroup=__strimzi-topic-operator-kstreams},1651471997,0
{consumergroup=__strimzi-topic-operator-kstreams},1651472002,0
{consumergroup=__strimzi-topic-operator-kstreams},1651472007,0
{consumergroup=__strimzi-topic-operator-kstreams},1651472012,0
{consumergroup=__strimzi-topic-operator-kstreams},1651472017,0
{consumergroup=__strimzi-topic-operator-kstreams},1651472022,0
{consumergroup=__strimzi-topic-operator-kstreams},1651472027,0
{consumergroup=__strimzi-topic-operator-kstreams},1651472032,0
{consumergroup=__strimzi-topic-operator-kstreams},1651472037,0
{consumergroup=__strimzi-topic-operator-kstreams},1651472042,0
{consumergroup=__strimzi-topic-operator-kstreams},1651472047,0
{consumergroup=__strimzi-topic-operator-kstreams},1651472052,0
{consumergroup=__strimzi-topic-operator-kstreams},1651472057,0
{consumergroup=trace-service},1651471662,25915
{consumergroup=trace-service},1651471667,25915
{consumergroup=trace-service},1651471672,25915
{consumergroup=trace-service},1651471677,17264
{consumergroup=trace-service},1651471682,17264
{consumergroup=trace-service},1651471687,17264
{consumergroup=trace-service},1651471692,57551
{consumergroup=trace-service},1651471697,57551
{consumergroup=trace-service},1651471702,57551
{consumergroup=trace-service},1651471707,125256
{consumergroup=trace-service},1651471712,125256
{consumergroup=trace-service},1651471717,125256
{consumergroup=trace-service},1651471722,57660
{consumergroup=trace-service},1651471727,57660
{consumergroup=trace-service},1651471732,57660
{consumergroup=trace-service},1651471737,20739
{consumergroup=trace-service},1651471742,20739
{consumergroup=trace-service},1651471747,20739
{consumergroup=trace-service},1651471752,44261
{consumergroup=trace-service},1651471757,44261
{consumergroup=trace-service},1651471762,44261
{consumergroup=trace-service},1651471767,21347
{consumergroup=trace-service},1651471772,21347
{consumergroup=trace-service},1651471777,21347
{consumergroup=trace-service},1651471782,48037
{consumergroup=trace-service},1651471787,48037
{consumergroup=trace-service},1651471792,48037
{consumergroup=trace-service},1651471797,93828
{consumergroup=trace-service},1651471802,93828
{consumergroup=trace-service},1651471807,93828
{consumergroup=trace-service},1651471812,100416
{consumergroup=trace-service},1651471817,100416
{consumergroup=trace-service},1651471822,100416
{consumergroup=trace-service},1651471827,8938
{consumergroup=trace-service},1651471832,8938
{consumergroup=trace-service},1651471837,8938
{consumergroup=trace-service},1651471842,42259
{consumergroup=trace-service},1651471847,42259
{consumergroup=trace-service},1651471852,42259
{consumergroup=trace-service},1651471857,73124
{consumergroup=trace-service},1651471862,73124
{consumergroup=trace-service},1651471867,73124
{consumergroup=trace-service},1651471872,42921
{consumergroup=trace-service},1651471877,42921
{consumergroup=trace-service},1651471882,42921
{consumergroup=trace-service},1651471887,14740
{consumergroup=trace-service},1651471892,14740
{consumergroup=trace-service},1651471897,14740
{consumergroup=trace-service},1651471902,42043
{consumergroup=trace-service},1651471907,42043
{consumergroup=trace-service},1651471912,42043
{consumergroup=trace-service},1651471917,14481
{consumergroup=trace-service},1651471922,14481
{consumergroup=trace-service},1651471927,14481
{consumergroup=trace-service},1651471932,46419
{consumergroup=trace-service},1651471937,46419
{consumergroup=trace-service},1651471942,46419
{consumergroup=trace-service},1651471947,117192
{consumergroup=trace-service},1651471952,117192
{consumergroup=trace-service},1651471957,117192
{consumergroup=trace-service},1651471962,47834
{consumergroup=trace-service},1651471967,47834
{consumergroup=trace-service},1651471972,47834
{consumergroup=trace-service},1651471977,130162
{consumergroup=trace-service},1651471982,130162
{consumergroup=trace-service},1651471987,130162
{consumergroup=trace-service},1651471992,51205
{consumergroup=trace-service},1651471997,51205
{consumergroup=trace-service},1651472002,51205
{consumergroup=trace-service},1651472007,165647
{consumergroup=trace-service},1651472012,165647
{consumergroup=trace-service},1651472017,165647
{consumergroup=trace-service},1651472022,52565
{consumergroup=trace-service},1651472027,52565
{consumergroup=trace-service},1651472032,52565
{consumergroup=trace-service},1651472037,126773
{consumergroup=trace-service},1651472042,126773
{consumergroup=trace-service},1651472047,126773
{consumergroup=trace-service},1651472052,40156
{consumergroup=trace-service},1651472057,40156
{consumergroup=trace-token-events-consumer},1651471647,0
{consumergroup=trace-token-events-consumer},1651471652,0
{consumergroup=trace-token-events-consumer},1651471657,0
{consumergroup=trace-token-events-consumer},1651471662,0
{consumergroup=trace-token-events-consumer},1651471667,0
{consumergroup=trace-token-events-consumer},1651471672,0
{consumergroup=trace-token-events-consumer},1651471677,0
{consumergroup=trace-token-events-consumer},1651471682,0
{consumergroup=trace-token-events-consumer},1651471687,0
{consumergroup=trace-token-events-consumer},1651471692,0
{consumergroup=trace-token-events-consumer},1651471697,0
{consumergroup=trace-token-events-consumer},1651471702,0
{consumergroup=trace-token-events-consumer},1651471707,0
{consumergroup=trace-token-events-consumer},1651471712,0
{consumergroup=trace-token-events-consumer},1651471717,0
{consumergroup=trace-token-events-consumer},1651471722,0
{consumergroup=trace-token-events-consumer},1651471727,0
{consumergroup=trace-token-events-consumer},1651471732,0
{consumergroup=trace-token-events-consumer},1651471737,0
{consumergroup=trace-token-events-consumer},1651471742,0
{consumergroup=trace-token-events-consumer},1651471747,0
{consumergroup=trace-token-events-consumer},1651471752,0
{consumergroup=trace-token-events-consumer},1651471757,0
{consumergroup=trace-token-events-consumer},1651471762,0
{consumergroup=trace-token-events-consumer},1651471767,0
{consumergroup=trace-token-events-consumer},1651471772,0
{consumergroup=trace-token-events-consumer},1651471777,0
{consumergroup=trace-token-events-consumer},1651471782,0
{consumergroup=trace-token-events-consumer},1651471787,0
{consumergroup=trace-token-events-consumer},1651471792,0
{consumergroup=trace-token-events-consumer},1651471797,0
{consumergroup=trace-token-events-consumer},1651471802,0
{consumergroup=trace-token-events-consumer},1651471807,0
{consumergroup=trace-token-events-consumer},1651471812,0
{consumergroup=trace-token-events-consumer},1651471817,0
{consumergroup=trace-token-events-consumer},1651471822,0
{consumergroup=trace-token-events-consumer},1651471827,0
{consumergroup=trace-token-events-consumer},1651471832,0
{consumergroup=trace-token-events-consumer},1651471837,0
{consumergroup=trace-token-events-consumer},1651471842,0
{consumergroup=trace-token-events-consumer},1651471847,0
{consumergroup=trace-token-events-consumer},1651471852,0
{consumergroup=trace-token-events-consumer},1651471857,0
{consumergroup=trace-token-events-consumer},1651471862,0
{consumergroup=trace-token-events-consumer},1651471867,0
{consumergroup=trace-token-events-consumer},1651471872,0
{consumergroup=trace-token-events-consumer},1651471877,0
{consumergroup=trace-token-events-consumer},1651471882,0
{consumergroup=trace-token-events-consumer},1651471887,0
{consumergroup=trace-token-events-consumer},1651471892,0
{consumergroup=trace-token-events-consumer},1651471897,0
{consumergroup=trace-token-events-consumer},1651471902,0
{consumergroup=trace-token-events-consumer},1651471907,0
{consumergroup=trace-token-events-consumer},1651471912,0
{consumergroup=trace-token-events-consumer},1651471917,0
{consumergroup=trace-token-events-consumer},1651471922,0
{consumergroup=trace-token-events-consumer},1651471927,0
{consumergroup=trace-token-events-consumer},1651471932,0
{consumergroup=trace-token-events-consumer},1651471937,0
{consumergroup=trace-token-events-consumer},1651471942,0
{consumergroup=trace-token-events-consumer},1651471947,0
{consumergroup=trace-token-events-consumer},1651471952,0
{consumergroup=trace-token-events-consumer},1651471957,0
{consumergroup=trace-token-events-consumer},1651471962,0
{consumergroup=trace-token-events-consumer},1651471967,0
{consumergroup=trace-token-events-consumer},1651471972,0
{consumergroup=trace-token-events-consumer},1651471977,0
{consumergroup=trace-token-events-consumer},1651471982,0
{consumergroup=trace-token-events-consumer},1651471987,0
{consumergroup=trace-token-events-consumer},1651471992,0
{consumergroup=trace-token-events-consumer},1651471997,0
{consumergroup=trace-token-events-consumer},1651472002,0
{consumergroup=trace-token-events-consumer},1651472007,0
{consumergroup=trace-token-events-consumer},1651472012,0
{consumergroup=trace-token-events-consumer},1651472017,0
{consumergroup=trace-token-events-consumer},1651472022,0
{consumergroup=trace-token-events-consumer},1651472027,0
{consumergroup=trace-token-events-consumer},1651472032,0
{consumergroup=trace-token-events-consumer},1651472037,0
{consumergroup=trace-token-events-consumer},1651472042,0
{consumergroup=trace-token-events-consumer},1651472047,0
{consumergroup=trace-token-events-consumer},1651472052,0
{consumergroup=trace-token-events-consumer},1651472057,0
