labels,timestamp,value
{job=theodolite-stu200776/trace-isolated-podmonitor},1651477324,0
{job=theodolite-stu200776/trace-isolated-podmonitor},1651477329,0
{job=theodolite-stu200776/trace-isolated-podmonitor},1651477334,0
{job=theodolite-stu200776/trace-isolated-podmonitor},1651477339,0
{job=theodolite-stu200776/trace-isolated-podmonitor},1651477344,0
{job=theodolite-stu200776/trace-isolated-podmonitor},1651477349,0
{job=theodolite-stu200776/trace-isolated-podmonitor},1651477354,0
{job=theodolite-stu200776/trace-isolated-podmonitor},1651477359,0
{job=theodolite-stu200776/trace-isolated-podmonitor},1651477364,0
{job=theodolite-stu200776/trace-isolated-podmonitor},1651477369,0
{job=theodolite-stu200776/trace-isolated-podmonitor},1651477374,0
{job=theodolite-stu200776/trace-isolated-podmonitor},1651477379,0
{job=theodolite-stu200776/trace-isolated-podmonitor},1651477384,0
{job=theodolite-stu200776/trace-isolated-podmonitor},1651477389,0
{job=theodolite-stu200776/trace-isolated-podmonitor},1651477394,0
{job=theodolite-stu200776/trace-isolated-podmonitor},1651477399,0
{job=theodolite-stu200776/trace-isolated-podmonitor},1651477404,0
{job=theodolite-stu200776/trace-isolated-podmonitor},1651477409,0
{job=theodolite-stu200776/trace-isolated-podmonitor},1651477414,0
{job=theodolite-stu200776/trace-isolated-podmonitor},1651477419,0
{job=theodolite-stu200776/trace-isolated-podmonitor},1651477424,0
{job=theodolite-stu200776/trace-isolated-podmonitor},1651477429,0
{job=theodolite-stu200776/trace-isolated-podmonitor},1651477434,0
{job=theodolite-stu200776/trace-isolated-podmonitor},1651477439,0
{job=theodolite-stu200776/trace-isolated-podmonitor},1651477444,0
{job=theodolite-stu200776/trace-isolated-podmonitor},1651477449,0
{job=theodolite-stu200776/trace-isolated-podmonitor},1651477454,0
{job=theodolite-stu200776/trace-isolated-podmonitor},1651477459,0
{job=theodolite-stu200776/trace-isolated-podmonitor},1651477464,0
{job=theodolite-stu200776/trace-isolated-podmonitor},1651477469,0
{job=theodolite-stu200776/trace-isolated-podmonitor},1651477474,0
{job=theodolite-stu200776/trace-isolated-podmonitor},1651477479,0
{job=theodolite-stu200776/trace-isolated-podmonitor},1651477484,0
{job=theodolite-stu200776/trace-isolated-podmonitor},1651477489,0
{job=theodolite-stu200776/trace-isolated-podmonitor},1651477494,0
{job=theodolite-stu200776/trace-isolated-podmonitor},1651477499,0
{job=theodolite-stu200776/trace-isolated-podmonitor},1651477504,49.10410266991298
{job=theodolite-stu200776/trace-isolated-podmonitor},1651477509,407.7592698424118
{job=theodolite-stu200776/trace-isolated-podmonitor},1651477514,810.6387212809103
{job=theodolite-stu200776/trace-isolated-podmonitor},1651477519,862.0710187060607
{job=theodolite-stu200776/trace-isolated-podmonitor},1651477524,837.8901802535541
{job=theodolite-stu200776/trace-isolated-podmonitor},1651477529,778.8958780655962
{job=theodolite-stu200776/trace-isolated-podmonitor},1651477534,768.0951755451724
{job=theodolite-stu200776/trace-isolated-podmonitor},1651477539,977.8302118531919
{job=theodolite-stu200776/trace-isolated-podmonitor},1651477544,1111.9710920764048
{job=theodolite-stu200776/trace-isolated-podmonitor},1651477549,982.9461285261913
{job=theodolite-stu200776/trace-isolated-podmonitor},1651477554,870.1155366916944
{job=theodolite-stu200776/trace-isolated-podmonitor},1651477559,789.3897563910195
{job=theodolite-stu200776/trace-isolated-podmonitor},1651477564,659.8399645378486
{job=theodolite-stu200776/trace-isolated-podmonitor},1651477569,308.76250967102595
{job=theodolite-stu200776/trace-isolated-podmonitor},1651477574,0
{job=theodolite-stu200776/trace-isolated-podmonitor},1651477579,0
{job=theodolite-stu200776/trace-isolated-podmonitor},1651477584,0
{job=theodolite-stu200776/trace-isolated-podmonitor},1651477589,0
{job=theodolite-stu200776/trace-isolated-podmonitor},1651477594,0
{job=theodolite-stu200776/trace-isolated-podmonitor},1651477599,0
{job=theodolite-stu200776/trace-isolated-podmonitor},1651477604,0
{job=theodolite-stu200776/trace-isolated-podmonitor},1651477609,0
{job=theodolite-stu200776/trace-isolated-podmonitor},1651477614,0
{job=theodolite-stu200776/trace-isolated-podmonitor},1651477619,0
{job=theodolite-stu200776/trace-isolated-podmonitor},1651477624,0
{job=theodolite-stu200776/trace-isolated-podmonitor},1651477629,0
{job=theodolite-stu200776/trace-isolated-podmonitor},1651477634,0
{job=theodolite-stu200776/trace-isolated-podmonitor},1651477639,0
{job=theodolite-stu200776/trace-isolated-podmonitor},1651477644,0
{job=theodolite-stu200776/trace-isolated-podmonitor},1651477649,0
{job=theodolite-stu200776/trace-isolated-podmonitor},1651477654,0
{job=theodolite-stu200776/trace-isolated-podmonitor},1651477659,0
{job=theodolite-stu200776/trace-isolated-podmonitor},1651477664,0
{job=theodolite-stu200776/trace-isolated-podmonitor},1651477669,0
{job=theodolite-stu200776/trace-isolated-podmonitor},1651477674,0
{job=theodolite-stu200776/trace-isolated-podmonitor},1651477679,0
{job=theodolite-stu200776/trace-isolated-podmonitor},1651477684,45.86505684118178
{job=theodolite-stu200776/trace-isolated-podmonitor},1651477689,328.6493449525404
{job=theodolite-stu200776/trace-isolated-podmonitor},1651477694,624.9492200415658
