labels,timestamp,value
{job=theodolite-stu200776/trace-isolated-podmonitor},1651471682,0
{job=theodolite-stu200776/trace-isolated-podmonitor},1651471687,0
{job=theodolite-stu200776/trace-isolated-podmonitor},1651471692,0
{job=theodolite-stu200776/trace-isolated-podmonitor},1651471697,0
{job=theodolite-stu200776/trace-isolated-podmonitor},1651471702,0
{job=theodolite-stu200776/trace-isolated-podmonitor},1651471707,0
{job=theodolite-stu200776/trace-isolated-podmonitor},1651471712,0
{job=theodolite-stu200776/trace-isolated-podmonitor},1651471717,0
{job=theodolite-stu200776/trace-isolated-podmonitor},1651471722,0
{job=theodolite-stu200776/trace-isolated-podmonitor},1651471727,0
{job=theodolite-stu200776/trace-isolated-podmonitor},1651471732,0
{job=theodolite-stu200776/trace-isolated-podmonitor},1651471737,0
{job=theodolite-stu200776/trace-isolated-podmonitor},1651471742,0
{job=theodolite-stu200776/trace-isolated-podmonitor},1651471747,0
{job=theodolite-stu200776/trace-isolated-podmonitor},1651471752,0
{job=theodolite-stu200776/trace-isolated-podmonitor},1651471757,0
{job=theodolite-stu200776/trace-isolated-podmonitor},1651471762,0
{job=theodolite-stu200776/trace-isolated-podmonitor},1651471767,0
{job=theodolite-stu200776/trace-isolated-podmonitor},1651471772,0
{job=theodolite-stu200776/trace-isolated-podmonitor},1651471777,0
{job=theodolite-stu200776/trace-isolated-podmonitor},1651471782,0
{job=theodolite-stu200776/trace-isolated-podmonitor},1651471787,0
{job=theodolite-stu200776/trace-isolated-podmonitor},1651471792,0
{job=theodolite-stu200776/trace-isolated-podmonitor},1651471797,0
{job=theodolite-stu200776/trace-isolated-podmonitor},1651471802,0
{job=theodolite-stu200776/trace-isolated-podmonitor},1651471807,0
{job=theodolite-stu200776/trace-isolated-podmonitor},1651471812,0
{job=theodolite-stu200776/trace-isolated-podmonitor},1651471817,0
{job=theodolite-stu200776/trace-isolated-podmonitor},1651471822,0
{job=theodolite-stu200776/trace-isolated-podmonitor},1651471827,0
{job=theodolite-stu200776/trace-isolated-podmonitor},1651471832,0
{job=theodolite-stu200776/trace-isolated-podmonitor},1651471837,0
{job=theodolite-stu200776/trace-isolated-podmonitor},1651471842,0
{job=theodolite-stu200776/trace-isolated-podmonitor},1651471847,0
{job=theodolite-stu200776/trace-isolated-podmonitor},1651471852,0
{job=theodolite-stu200776/trace-isolated-podmonitor},1651471857,0
{job=theodolite-stu200776/trace-isolated-podmonitor},1651471862,0
{job=theodolite-stu200776/trace-isolated-podmonitor},1651471867,0
{job=theodolite-stu200776/trace-isolated-podmonitor},1651471872,0
{job=theodolite-stu200776/trace-isolated-podmonitor},1651471877,0
{job=theodolite-stu200776/trace-isolated-podmonitor},1651471882,0
{job=theodolite-stu200776/trace-isolated-podmonitor},1651471887,0
{job=theodolite-stu200776/trace-isolated-podmonitor},1651471892,0
{job=theodolite-stu200776/trace-isolated-podmonitor},1651471897,0
{job=theodolite-stu200776/trace-isolated-podmonitor},1651471902,0
{job=theodolite-stu200776/trace-isolated-podmonitor},1651471907,0
{job=theodolite-stu200776/trace-isolated-podmonitor},1651471912,0
{job=theodolite-stu200776/trace-isolated-podmonitor},1651471917,0
{job=theodolite-stu200776/trace-isolated-podmonitor},1651471922,0
{job=theodolite-stu200776/trace-isolated-podmonitor},1651471927,0
{job=theodolite-stu200776/trace-isolated-podmonitor},1651471932,0
{job=theodolite-stu200776/trace-isolated-podmonitor},1651471937,0
{job=theodolite-stu200776/trace-isolated-podmonitor},1651471942,0
{job=theodolite-stu200776/trace-isolated-podmonitor},1651471947,0
{job=theodolite-stu200776/trace-isolated-podmonitor},1651471952,0
{job=theodolite-stu200776/trace-isolated-podmonitor},1651471957,0
{job=theodolite-stu200776/trace-isolated-podmonitor},1651471962,0
{job=theodolite-stu200776/trace-isolated-podmonitor},1651471967,0
{job=theodolite-stu200776/trace-isolated-podmonitor},1651471972,0
{job=theodolite-stu200776/trace-isolated-podmonitor},1651471977,0
{job=theodolite-stu200776/trace-isolated-podmonitor},1651471982,0
{job=theodolite-stu200776/trace-isolated-podmonitor},1651471987,0
{job=theodolite-stu200776/trace-isolated-podmonitor},1651471992,0
{job=theodolite-stu200776/trace-isolated-podmonitor},1651471997,0
{job=theodolite-stu200776/trace-isolated-podmonitor},1651472002,0
{job=theodolite-stu200776/trace-isolated-podmonitor},1651472007,0
{job=theodolite-stu200776/trace-isolated-podmonitor},1651472012,0
{job=theodolite-stu200776/trace-isolated-podmonitor},1651472017,0
{job=theodolite-stu200776/trace-isolated-podmonitor},1651472022,0
{job=theodolite-stu200776/trace-isolated-podmonitor},1651472027,0
{job=theodolite-stu200776/trace-isolated-podmonitor},1651472032,0
{job=theodolite-stu200776/trace-isolated-podmonitor},1651472037,0
{job=theodolite-stu200776/trace-isolated-podmonitor},1651472042,0
{job=theodolite-stu200776/trace-isolated-podmonitor},1651472047,0
{job=theodolite-stu200776/trace-isolated-podmonitor},1651472052,0
{job=theodolite-stu200776/trace-isolated-podmonitor},1651472057,0
