labels,timestamp,value
{consumergroup=__strimzi-topic-operator-kstreams},1651475693,11
{consumergroup=__strimzi-topic-operator-kstreams},1651475698,11
{consumergroup=__strimzi-topic-operator-kstreams},1651475703,11
{consumergroup=__strimzi-topic-operator-kstreams},1651475708,0
{consumergroup=__strimzi-topic-operator-kstreams},1651475713,0
{consumergroup=__strimzi-topic-operator-kstreams},1651475718,0
{consumergroup=__strimzi-topic-operator-kstreams},1651475723,3
{consumergroup=__strimzi-topic-operator-kstreams},1651475728,3
{consumergroup=__strimzi-topic-operator-kstreams},1651475733,3
{consumergroup=__strimzi-topic-operator-kstreams},1651475738,0
{consumergroup=__strimzi-topic-operator-kstreams},1651475743,0
{consumergroup=__strimzi-topic-operator-kstreams},1651475748,0
{consumergroup=__strimzi-topic-operator-kstreams},1651475753,0
{consumergroup=__strimzi-topic-operator-kstreams},1651475758,0
{consumergroup=__strimzi-topic-operator-kstreams},1651475763,0
{consumergroup=__strimzi-topic-operator-kstreams},1651475768,0
{consumergroup=__strimzi-topic-operator-kstreams},1651475773,0
{consumergroup=__strimzi-topic-operator-kstreams},1651475778,0
{consumergroup=__strimzi-topic-operator-kstreams},1651475783,0
{consumergroup=__strimzi-topic-operator-kstreams},1651475788,0
{consumergroup=__strimzi-topic-operator-kstreams},1651475793,0
{consumergroup=__strimzi-topic-operator-kstreams},1651475798,0
{consumergroup=__strimzi-topic-operator-kstreams},1651475803,0
{consumergroup=__strimzi-topic-operator-kstreams},1651475808,0
{consumergroup=__strimzi-topic-operator-kstreams},1651475813,0
{consumergroup=__strimzi-topic-operator-kstreams},1651475818,0
{consumergroup=__strimzi-topic-operator-kstreams},1651475823,0
{consumergroup=__strimzi-topic-operator-kstreams},1651475828,0
{consumergroup=__strimzi-topic-operator-kstreams},1651475833,0
{consumergroup=__strimzi-topic-operator-kstreams},1651475838,0
{consumergroup=__strimzi-topic-operator-kstreams},1651475843,0
{consumergroup=__strimzi-topic-operator-kstreams},1651475848,0
{consumergroup=__strimzi-topic-operator-kstreams},1651475853,0
{consumergroup=__strimzi-topic-operator-kstreams},1651475858,0
{consumergroup=__strimzi-topic-operator-kstreams},1651475863,0
{consumergroup=__strimzi-topic-operator-kstreams},1651475868,0
{consumergroup=__strimzi-topic-operator-kstreams},1651475873,0
{consumergroup=__strimzi-topic-operator-kstreams},1651475878,0
{consumergroup=__strimzi-topic-operator-kstreams},1651475883,0
{consumergroup=__strimzi-topic-operator-kstreams},1651475888,0
{consumergroup=__strimzi-topic-operator-kstreams},1651475893,0
{consumergroup=__strimzi-topic-operator-kstreams},1651475898,0
{consumergroup=__strimzi-topic-operator-kstreams},1651475903,0
{consumergroup=__strimzi-topic-operator-kstreams},1651475908,0
{consumergroup=__strimzi-topic-operator-kstreams},1651475913,0
{consumergroup=__strimzi-topic-operator-kstreams},1651475918,0
{consumergroup=__strimzi-topic-operator-kstreams},1651475923,0
{consumergroup=__strimzi-topic-operator-kstreams},1651475928,0
{consumergroup=__strimzi-topic-operator-kstreams},1651475933,0
{consumergroup=__strimzi-topic-operator-kstreams},1651475938,0
{consumergroup=__strimzi-topic-operator-kstreams},1651475943,0
{consumergroup=__strimzi-topic-operator-kstreams},1651475948,0
{consumergroup=__strimzi-topic-operator-kstreams},1651475953,0
{consumergroup=__strimzi-topic-operator-kstreams},1651475958,0
{consumergroup=__strimzi-topic-operator-kstreams},1651475963,0
{consumergroup=__strimzi-topic-operator-kstreams},1651475968,0
{consumergroup=__strimzi-topic-operator-kstreams},1651475973,0
{consumergroup=__strimzi-topic-operator-kstreams},1651475978,0
{consumergroup=__strimzi-topic-operator-kstreams},1651475983,0
{consumergroup=__strimzi-topic-operator-kstreams},1651475988,0
{consumergroup=__strimzi-topic-operator-kstreams},1651475993,0
{consumergroup=__strimzi-topic-operator-kstreams},1651475998,0
{consumergroup=__strimzi-topic-operator-kstreams},1651476003,0
{consumergroup=__strimzi-topic-operator-kstreams},1651476008,0
{consumergroup=__strimzi-topic-operator-kstreams},1651476013,0
{consumergroup=__strimzi-topic-operator-kstreams},1651476018,0
{consumergroup=__strimzi-topic-operator-kstreams},1651476023,0
{consumergroup=__strimzi-topic-operator-kstreams},1651476028,0
{consumergroup=__strimzi-topic-operator-kstreams},1651476033,0
{consumergroup=__strimzi-topic-operator-kstreams},1651476038,0
{consumergroup=__strimzi-topic-operator-kstreams},1651476043,0
{consumergroup=__strimzi-topic-operator-kstreams},1651476048,0
{consumergroup=__strimzi-topic-operator-kstreams},1651476053,0
{consumergroup=__strimzi-topic-operator-kstreams},1651476058,0
{consumergroup=__strimzi-topic-operator-kstreams},1651476063,0
{consumergroup=__strimzi-topic-operator-kstreams},1651476068,0
{consumergroup=__strimzi-topic-operator-kstreams},1651476073,0
{consumergroup=__strimzi-topic-operator-kstreams},1651476078,0
{consumergroup=__strimzi-topic-operator-kstreams},1651476083,0
{consumergroup=__strimzi-topic-operator-kstreams},1651476088,0
{consumergroup=__strimzi-topic-operator-kstreams},1651476093,0
{consumergroup=__strimzi-topic-operator-kstreams},1651476098,0
{consumergroup=__strimzi-topic-operator-kstreams},1651476103,0
{consumergroup=__strimzi-topic-operator-kstreams},1651476108,0
{consumergroup=__strimzi-topic-operator-kstreams},1651476113,0
{consumergroup=__strimzi-topic-operator-kstreams},1651476118,0
{consumergroup=__strimzi-topic-operator-kstreams},1651476123,0
{consumergroup=__strimzi-topic-operator-kstreams},1651476128,0
{consumergroup=__strimzi-topic-operator-kstreams},1651476133,0
{consumergroup=__strimzi-topic-operator-kstreams},1651476138,0
{consumergroup=trace-service},1651475738,3699
{consumergroup=trace-service},1651475743,3699
{consumergroup=trace-service},1651475748,3699
{consumergroup=trace-service},1651475753,26972
{consumergroup=trace-service},1651475758,26972
{consumergroup=trace-service},1651475763,26972
{consumergroup=trace-service},1651475768,47782
{consumergroup=trace-service},1651475773,47782
{consumergroup=trace-service},1651475778,47782
{consumergroup=trace-service},1651475783,87293
{consumergroup=trace-service},1651475788,87293
{consumergroup=trace-service},1651475793,87293
{consumergroup=trace-service},1651475798,185119
{consumergroup=trace-service},1651475803,185119
{consumergroup=trace-service},1651475808,185119
{consumergroup=trace-service},1651475813,88259
{consumergroup=trace-service},1651475818,88259
{consumergroup=trace-service},1651475823,88259
{consumergroup=trace-service},1651475828,42921
{consumergroup=trace-service},1651475833,42921
{consumergroup=trace-service},1651475838,42921
{consumergroup=trace-service},1651475843,109438
{consumergroup=trace-service},1651475848,109438
{consumergroup=trace-service},1651475853,109438
{consumergroup=trace-service},1651475858,37952
{consumergroup=trace-service},1651475863,37952
{consumergroup=trace-service},1651475868,37952
{consumergroup=trace-service},1651475873,90851
{consumergroup=trace-service},1651475878,90851
{consumergroup=trace-service},1651475883,90851
{consumergroup=trace-service},1651475888,42362
{consumergroup=trace-service},1651475893,42362
{consumergroup=trace-service},1651475898,42362
{consumergroup=trace-service},1651475903,123924
{consumergroup=trace-service},1651475908,123924
{consumergroup=trace-service},1651475913,123924
{consumergroup=trace-service},1651475918,40041
{consumergroup=trace-service},1651475923,40041
{consumergroup=trace-service},1651475928,40041
{consumergroup=trace-service},1651475933,114226
{consumergroup=trace-service},1651475938,114226
{consumergroup=trace-service},1651475943,114226
{consumergroup=trace-service},1651475948,45267
{consumergroup=trace-service},1651475953,45267
{consumergroup=trace-service},1651475958,45267
{consumergroup=trace-service},1651475963,95326
{consumergroup=trace-service},1651475968,95326
{consumergroup=trace-service},1651475973,95326
{consumergroup=trace-service},1651475978,141847
{consumergroup=trace-service},1651475983,141847
{consumergroup=trace-service},1651475988,141847
{consumergroup=trace-service},1651475993,128993
{consumergroup=trace-service},1651475998,128993
{consumergroup=trace-service},1651476003,128993
{consumergroup=trace-service},1651476008,36569
{consumergroup=trace-service},1651476013,36569
{consumergroup=trace-service},1651476018,36569
{consumergroup=trace-service},1651476023,91717
{consumergroup=trace-service},1651476028,91717
{consumergroup=trace-service},1651476033,91717
{consumergroup=trace-service},1651476038,40323
{consumergroup=trace-service},1651476043,40323
{consumergroup=trace-service},1651476048,40323
{consumergroup=trace-service},1651476053,112217
{consumergroup=trace-service},1651476058,112217
{consumergroup=trace-service},1651476063,112217
{consumergroup=trace-service},1651476068,46463
{consumergroup=trace-service},1651476073,46463
{consumergroup=trace-service},1651476078,46463
{consumergroup=trace-service},1651476083,148690
{consumergroup=trace-service},1651476088,148690
{consumergroup=trace-service},1651476093,148690
{consumergroup=trace-service},1651476098,37928
{consumergroup=trace-service},1651476103,37928
{consumergroup=trace-service},1651476108,37928
{consumergroup=trace-service},1651476113,77802
{consumergroup=trace-service},1651476118,77802
{consumergroup=trace-service},1651476123,77802
{consumergroup=trace-service},1651476128,72263
{consumergroup=trace-service},1651476133,72263
{consumergroup=trace-service},1651476138,72263
{consumergroup=trace-token-events-consumer},1651475723,0
{consumergroup=trace-token-events-consumer},1651475728,0
{consumergroup=trace-token-events-consumer},1651475733,0
{consumergroup=trace-token-events-consumer},1651475738,0
{consumergroup=trace-token-events-consumer},1651475743,0
{consumergroup=trace-token-events-consumer},1651475748,0
{consumergroup=trace-token-events-consumer},1651475753,0
{consumergroup=trace-token-events-consumer},1651475758,0
{consumergroup=trace-token-events-consumer},1651475763,0
{consumergroup=trace-token-events-consumer},1651475768,0
{consumergroup=trace-token-events-consumer},1651475773,0
{consumergroup=trace-token-events-consumer},1651475778,0
{consumergroup=trace-token-events-consumer},1651475783,0
{consumergroup=trace-token-events-consumer},1651475788,0
{consumergroup=trace-token-events-consumer},1651475793,0
{consumergroup=trace-token-events-consumer},1651475798,0
{consumergroup=trace-token-events-consumer},1651475803,0
{consumergroup=trace-token-events-consumer},1651475808,0
{consumergroup=trace-token-events-consumer},1651475813,0
{consumergroup=trace-token-events-consumer},1651475818,0
{consumergroup=trace-token-events-consumer},1651475823,0
{consumergroup=trace-token-events-consumer},1651475828,0
{consumergroup=trace-token-events-consumer},1651475833,0
{consumergroup=trace-token-events-consumer},1651475838,0
{consumergroup=trace-token-events-consumer},1651475843,0
{consumergroup=trace-token-events-consumer},1651475848,0
{consumergroup=trace-token-events-consumer},1651475853,0
{consumergroup=trace-token-events-consumer},1651475858,0
{consumergroup=trace-token-events-consumer},1651475863,0
{consumergroup=trace-token-events-consumer},1651475868,0
{consumergroup=trace-token-events-consumer},1651475873,0
{consumergroup=trace-token-events-consumer},1651475878,0
{consumergroup=trace-token-events-consumer},1651475883,0
{consumergroup=trace-token-events-consumer},1651475888,0
{consumergroup=trace-token-events-consumer},1651475893,0
{consumergroup=trace-token-events-consumer},1651475898,0
{consumergroup=trace-token-events-consumer},1651475903,0
{consumergroup=trace-token-events-consumer},1651475908,0
{consumergroup=trace-token-events-consumer},1651475913,0
{consumergroup=trace-token-events-consumer},1651475918,0
{consumergroup=trace-token-events-consumer},1651475923,0
{consumergroup=trace-token-events-consumer},1651475928,0
{consumergroup=trace-token-events-consumer},1651475933,0
{consumergroup=trace-token-events-consumer},1651475938,0
{consumergroup=trace-token-events-consumer},1651475943,0
{consumergroup=trace-token-events-consumer},1651475948,0
{consumergroup=trace-token-events-consumer},1651475953,0
{consumergroup=trace-token-events-consumer},1651475958,0
{consumergroup=trace-token-events-consumer},1651475963,0
{consumergroup=trace-token-events-consumer},1651475968,0
{consumergroup=trace-token-events-consumer},1651475973,0
{consumergroup=trace-token-events-consumer},1651475978,0
{consumergroup=trace-token-events-consumer},1651475983,0
{consumergroup=trace-token-events-consumer},1651475988,0
{consumergroup=trace-token-events-consumer},1651475993,0
{consumergroup=trace-token-events-consumer},1651475998,0
{consumergroup=trace-token-events-consumer},1651476003,0
{consumergroup=trace-token-events-consumer},1651476008,0
{consumergroup=trace-token-events-consumer},1651476013,0
{consumergroup=trace-token-events-consumer},1651476018,0
{consumergroup=trace-token-events-consumer},1651476023,0
{consumergroup=trace-token-events-consumer},1651476028,0
{consumergroup=trace-token-events-consumer},1651476033,0
{consumergroup=trace-token-events-consumer},1651476038,0
{consumergroup=trace-token-events-consumer},1651476043,0
{consumergroup=trace-token-events-consumer},1651476048,0
{consumergroup=trace-token-events-consumer},1651476053,0
{consumergroup=trace-token-events-consumer},1651476058,0
{consumergroup=trace-token-events-consumer},1651476063,0
{consumergroup=trace-token-events-consumer},1651476068,0
{consumergroup=trace-token-events-consumer},1651476073,0
{consumergroup=trace-token-events-consumer},1651476078,0
{consumergroup=trace-token-events-consumer},1651476083,0
{consumergroup=trace-token-events-consumer},1651476088,0
{consumergroup=trace-token-events-consumer},1651476093,0
{consumergroup=trace-token-events-consumer},1651476098,0
{consumergroup=trace-token-events-consumer},1651476103,0
{consumergroup=trace-token-events-consumer},1651476108,0
{consumergroup=trace-token-events-consumer},1651476113,0
{consumergroup=trace-token-events-consumer},1651476118,0
{consumergroup=trace-token-events-consumer},1651476123,0
{consumergroup=trace-token-events-consumer},1651476128,0
{consumergroup=trace-token-events-consumer},1651476133,0
{consumergroup=trace-token-events-consumer},1651476138,0
