labels,timestamp,value
{job=theodolite-stu200776/trace-isolated-podmonitor},1651464478,0
{job=theodolite-stu200776/trace-isolated-podmonitor},1651464483,0
{job=theodolite-stu200776/trace-isolated-podmonitor},1651464488,0
{job=theodolite-stu200776/trace-isolated-podmonitor},1651464493,0
{job=theodolite-stu200776/trace-isolated-podmonitor},1651464498,0
{job=theodolite-stu200776/trace-isolated-podmonitor},1651464503,0
{job=theodolite-stu200776/trace-isolated-podmonitor},1651464508,0
{job=theodolite-stu200776/trace-isolated-podmonitor},1651464513,0
{job=theodolite-stu200776/trace-isolated-podmonitor},1651464518,0
{job=theodolite-stu200776/trace-isolated-podmonitor},1651464523,0
{job=theodolite-stu200776/trace-isolated-podmonitor},1651464528,0
{job=theodolite-stu200776/trace-isolated-podmonitor},1651464533,0
{job=theodolite-stu200776/trace-isolated-podmonitor},1651464538,0
{job=theodolite-stu200776/trace-isolated-podmonitor},1651464543,0
{job=theodolite-stu200776/trace-isolated-podmonitor},1651464548,0
{job=theodolite-stu200776/trace-isolated-podmonitor},1651464553,0
{job=theodolite-stu200776/trace-isolated-podmonitor},1651464558,0
{job=theodolite-stu200776/trace-isolated-podmonitor},1651464563,0
{job=theodolite-stu200776/trace-isolated-podmonitor},1651464568,0
{job=theodolite-stu200776/trace-isolated-podmonitor},1651464573,0
{job=theodolite-stu200776/trace-isolated-podmonitor},1651464578,0
{job=theodolite-stu200776/trace-isolated-podmonitor},1651464583,0
{job=theodolite-stu200776/trace-isolated-podmonitor},1651464588,0
{job=theodolite-stu200776/trace-isolated-podmonitor},1651464593,0
{job=theodolite-stu200776/trace-isolated-podmonitor},1651464598,0
{job=theodolite-stu200776/trace-isolated-podmonitor},1651464603,0
{job=theodolite-stu200776/trace-isolated-podmonitor},1651464608,0
{job=theodolite-stu200776/trace-isolated-podmonitor},1651464613,0
{job=theodolite-stu200776/trace-isolated-podmonitor},1651464618,0
{job=theodolite-stu200776/trace-isolated-podmonitor},1651464623,0
{job=theodolite-stu200776/trace-isolated-podmonitor},1651464628,0
{job=theodolite-stu200776/trace-isolated-podmonitor},1651464633,0
{job=theodolite-stu200776/trace-isolated-podmonitor},1651464638,0
{job=theodolite-stu200776/trace-isolated-podmonitor},1651464643,0
{job=theodolite-stu200776/trace-isolated-podmonitor},1651464648,0
{job=theodolite-stu200776/trace-isolated-podmonitor},1651464653,0
{job=theodolite-stu200776/trace-isolated-podmonitor},1651464658,0
{job=theodolite-stu200776/trace-isolated-podmonitor},1651464663,0
{job=theodolite-stu200776/trace-isolated-podmonitor},1651464668,0
{job=theodolite-stu200776/trace-isolated-podmonitor},1651464673,0
{job=theodolite-stu200776/trace-isolated-podmonitor},1651464678,0
{job=theodolite-stu200776/trace-isolated-podmonitor},1651464683,0
{job=theodolite-stu200776/trace-isolated-podmonitor},1651464688,0
{job=theodolite-stu200776/trace-isolated-podmonitor},1651464693,0
{job=theodolite-stu200776/trace-isolated-podmonitor},1651464698,0
{job=theodolite-stu200776/trace-isolated-podmonitor},1651464703,0
{job=theodolite-stu200776/trace-isolated-podmonitor},1651464708,0
{job=theodolite-stu200776/trace-isolated-podmonitor},1651464713,0
{job=theodolite-stu200776/trace-isolated-podmonitor},1651464718,0
{job=theodolite-stu200776/trace-isolated-podmonitor},1651464723,0
{job=theodolite-stu200776/trace-isolated-podmonitor},1651464728,0
{job=theodolite-stu200776/trace-isolated-podmonitor},1651464733,0
{job=theodolite-stu200776/trace-isolated-podmonitor},1651464738,0
{job=theodolite-stu200776/trace-isolated-podmonitor},1651464743,0
{job=theodolite-stu200776/trace-isolated-podmonitor},1651464748,0
{job=theodolite-stu200776/trace-isolated-podmonitor},1651464753,0
{job=theodolite-stu200776/trace-isolated-podmonitor},1651464758,0
{job=theodolite-stu200776/trace-isolated-podmonitor},1651464763,0
{job=theodolite-stu200776/trace-isolated-podmonitor},1651464768,0
{job=theodolite-stu200776/trace-isolated-podmonitor},1651464773,0
{job=theodolite-stu200776/trace-isolated-podmonitor},1651464778,0
{job=theodolite-stu200776/trace-isolated-podmonitor},1651464783,0
{job=theodolite-stu200776/trace-isolated-podmonitor},1651464788,0
{job=theodolite-stu200776/trace-isolated-podmonitor},1651464793,0
{job=theodolite-stu200776/trace-isolated-podmonitor},1651464798,0
{job=theodolite-stu200776/trace-isolated-podmonitor},1651464803,0
{job=theodolite-stu200776/trace-isolated-podmonitor},1651464808,0
{job=theodolite-stu200776/trace-isolated-podmonitor},1651464813,0
{job=theodolite-stu200776/trace-isolated-podmonitor},1651464818,0
{job=theodolite-stu200776/trace-isolated-podmonitor},1651464823,0
{job=theodolite-stu200776/trace-isolated-podmonitor},1651464828,0
{job=theodolite-stu200776/trace-isolated-podmonitor},1651464833,0
{job=theodolite-stu200776/trace-isolated-podmonitor},1651464838,0
{job=theodolite-stu200776/trace-isolated-podmonitor},1651464843,0
{job=theodolite-stu200776/trace-isolated-podmonitor},1651464848,0
{job=theodolite-stu200776/trace-isolated-podmonitor},1651464853,0
