labels,timestamp,value
{consumergroup=__strimzi-topic-operator-kstreams},1651475181,11
{consumergroup=__strimzi-topic-operator-kstreams},1651475186,11
{consumergroup=__strimzi-topic-operator-kstreams},1651475191,11
{consumergroup=__strimzi-topic-operator-kstreams},1651475196,0
{consumergroup=__strimzi-topic-operator-kstreams},1651475201,0
{consumergroup=__strimzi-topic-operator-kstreams},1651475206,0
{consumergroup=__strimzi-topic-operator-kstreams},1651475211,3
{consumergroup=__strimzi-topic-operator-kstreams},1651475216,3
{consumergroup=__strimzi-topic-operator-kstreams},1651475221,3
{consumergroup=__strimzi-topic-operator-kstreams},1651475226,0
{consumergroup=__strimzi-topic-operator-kstreams},1651475231,0
{consumergroup=__strimzi-topic-operator-kstreams},1651475236,0
{consumergroup=__strimzi-topic-operator-kstreams},1651475241,0
{consumergroup=__strimzi-topic-operator-kstreams},1651475246,0
{consumergroup=__strimzi-topic-operator-kstreams},1651475251,0
{consumergroup=__strimzi-topic-operator-kstreams},1651475256,0
{consumergroup=__strimzi-topic-operator-kstreams},1651475261,0
{consumergroup=__strimzi-topic-operator-kstreams},1651475266,0
{consumergroup=__strimzi-topic-operator-kstreams},1651475271,0
{consumergroup=__strimzi-topic-operator-kstreams},1651475276,0
{consumergroup=__strimzi-topic-operator-kstreams},1651475281,0
{consumergroup=__strimzi-topic-operator-kstreams},1651475286,0
{consumergroup=__strimzi-topic-operator-kstreams},1651475291,0
{consumergroup=__strimzi-topic-operator-kstreams},1651475296,0
{consumergroup=__strimzi-topic-operator-kstreams},1651475301,0
{consumergroup=__strimzi-topic-operator-kstreams},1651475306,0
{consumergroup=__strimzi-topic-operator-kstreams},1651475311,0
{consumergroup=__strimzi-topic-operator-kstreams},1651475316,0
{consumergroup=__strimzi-topic-operator-kstreams},1651475321,0
{consumergroup=__strimzi-topic-operator-kstreams},1651475326,0
{consumergroup=__strimzi-topic-operator-kstreams},1651475331,0
{consumergroup=__strimzi-topic-operator-kstreams},1651475336,0
{consumergroup=__strimzi-topic-operator-kstreams},1651475341,0
{consumergroup=__strimzi-topic-operator-kstreams},1651475346,0
{consumergroup=__strimzi-topic-operator-kstreams},1651475351,0
{consumergroup=__strimzi-topic-operator-kstreams},1651475356,0
{consumergroup=__strimzi-topic-operator-kstreams},1651475361,0
{consumergroup=__strimzi-topic-operator-kstreams},1651475366,0
{consumergroup=__strimzi-topic-operator-kstreams},1651475371,0
{consumergroup=__strimzi-topic-operator-kstreams},1651475376,0
{consumergroup=__strimzi-topic-operator-kstreams},1651475381,0
{consumergroup=__strimzi-topic-operator-kstreams},1651475386,0
{consumergroup=__strimzi-topic-operator-kstreams},1651475391,0
{consumergroup=__strimzi-topic-operator-kstreams},1651475396,0
{consumergroup=__strimzi-topic-operator-kstreams},1651475401,0
{consumergroup=__strimzi-topic-operator-kstreams},1651475406,0
{consumergroup=__strimzi-topic-operator-kstreams},1651475411,0
{consumergroup=__strimzi-topic-operator-kstreams},1651475416,0
{consumergroup=__strimzi-topic-operator-kstreams},1651475421,0
{consumergroup=__strimzi-topic-operator-kstreams},1651475426,0
{consumergroup=__strimzi-topic-operator-kstreams},1651475431,0
{consumergroup=__strimzi-topic-operator-kstreams},1651475436,0
{consumergroup=__strimzi-topic-operator-kstreams},1651475441,0
{consumergroup=__strimzi-topic-operator-kstreams},1651475446,0
{consumergroup=__strimzi-topic-operator-kstreams},1651475451,0
{consumergroup=__strimzi-topic-operator-kstreams},1651475456,0
{consumergroup=__strimzi-topic-operator-kstreams},1651475461,0
{consumergroup=__strimzi-topic-operator-kstreams},1651475466,0
{consumergroup=__strimzi-topic-operator-kstreams},1651475471,0
{consumergroup=__strimzi-topic-operator-kstreams},1651475476,0
{consumergroup=__strimzi-topic-operator-kstreams},1651475481,0
{consumergroup=__strimzi-topic-operator-kstreams},1651475486,0
{consumergroup=__strimzi-topic-operator-kstreams},1651475491,0
{consumergroup=__strimzi-topic-operator-kstreams},1651475496,0
{consumergroup=__strimzi-topic-operator-kstreams},1651475501,0
{consumergroup=__strimzi-topic-operator-kstreams},1651475506,0
{consumergroup=__strimzi-topic-operator-kstreams},1651475511,0
{consumergroup=__strimzi-topic-operator-kstreams},1651475516,0
{consumergroup=__strimzi-topic-operator-kstreams},1651475521,0
{consumergroup=__strimzi-topic-operator-kstreams},1651475526,0
{consumergroup=__strimzi-topic-operator-kstreams},1651475531,0
{consumergroup=__strimzi-topic-operator-kstreams},1651475536,0
{consumergroup=__strimzi-topic-operator-kstreams},1651475541,0
{consumergroup=__strimzi-topic-operator-kstreams},1651475546,0
{consumergroup=__strimzi-topic-operator-kstreams},1651475551,0
{consumergroup=__strimzi-topic-operator-kstreams},1651475556,0
{consumergroup=__strimzi-topic-operator-kstreams},1651475561,0
{consumergroup=__strimzi-topic-operator-kstreams},1651475566,0
{consumergroup=__strimzi-topic-operator-kstreams},1651475571,0
{consumergroup=__strimzi-topic-operator-kstreams},1651475576,0
{consumergroup=__strimzi-topic-operator-kstreams},1651475581,0
{consumergroup=__strimzi-topic-operator-kstreams},1651475586,0
{consumergroup=__strimzi-topic-operator-kstreams},1651475591,0
{consumergroup=__strimzi-topic-operator-kstreams},1651475596,0
{consumergroup=__strimzi-topic-operator-kstreams},1651475601,0
{consumergroup=__strimzi-topic-operator-kstreams},1651475606,0
{consumergroup=__strimzi-topic-operator-kstreams},1651475611,0
{consumergroup=__strimzi-topic-operator-kstreams},1651475616,0
{consumergroup=__strimzi-topic-operator-kstreams},1651475621,0
{consumergroup=trace-service},1651475226,30539
{consumergroup=trace-service},1651475231,30539
{consumergroup=trace-service},1651475236,30539
{consumergroup=trace-service},1651475241,107172
{consumergroup=trace-service},1651475246,107172
{consumergroup=trace-service},1651475251,107172
{consumergroup=trace-service},1651475256,46468
{consumergroup=trace-service},1651475261,46468
{consumergroup=trace-service},1651475266,46468
{consumergroup=trace-service},1651475271,84653
{consumergroup=trace-service},1651475276,84653
{consumergroup=trace-service},1651475281,84653
{consumergroup=trace-service},1651475286,42566
{consumergroup=trace-service},1651475291,42566
{consumergroup=trace-service},1651475296,42566
{consumergroup=trace-service},1651475301,78281
{consumergroup=trace-service},1651475306,78281
{consumergroup=trace-service},1651475311,78281
{consumergroup=trace-service},1651475316,39825
{consumergroup=trace-service},1651475321,39825
{consumergroup=trace-service},1651475326,39825
{consumergroup=trace-service},1651475331,84155
{consumergroup=trace-service},1651475336,84155
{consumergroup=trace-service},1651475341,84155
{consumergroup=trace-service},1651475346,37879
{consumergroup=trace-service},1651475351,37879
{consumergroup=trace-service},1651475356,37879
{consumergroup=trace-service},1651475361,78443
{consumergroup=trace-service},1651475366,78443
{consumergroup=trace-service},1651475371,78443
{consumergroup=trace-service},1651475376,30543
{consumergroup=trace-service},1651475381,30543
{consumergroup=trace-service},1651475386,30543
{consumergroup=trace-service},1651475391,76187
{consumergroup=trace-service},1651475396,76187
{consumergroup=trace-service},1651475401,76187
{consumergroup=trace-service},1651475406,38509
{consumergroup=trace-service},1651475411,38509
{consumergroup=trace-service},1651475416,38509
{consumergroup=trace-service},1651475421,82214
{consumergroup=trace-service},1651475426,82214
{consumergroup=trace-service},1651475431,82214
{consumergroup=trace-service},1651475436,174148
{consumergroup=trace-service},1651475441,174148
{consumergroup=trace-service},1651475446,174148
{consumergroup=trace-service},1651475451,52024
{consumergroup=trace-service},1651475456,52024
{consumergroup=trace-service},1651475461,52024
{consumergroup=trace-service},1651475466,38704
{consumergroup=trace-service},1651475471,38704
{consumergroup=trace-service},1651475476,38704
{consumergroup=trace-service},1651475481,78670
{consumergroup=trace-service},1651475486,78670
{consumergroup=trace-service},1651475491,78670
{consumergroup=trace-service},1651475496,37946
{consumergroup=trace-service},1651475501,37946
{consumergroup=trace-service},1651475506,37946
{consumergroup=trace-service},1651475511,85244
{consumergroup=trace-service},1651475516,85244
{consumergroup=trace-service},1651475521,85244
{consumergroup=trace-service},1651475526,229960
{consumergroup=trace-service},1651475531,229960
{consumergroup=trace-service},1651475536,229960
{consumergroup=trace-service},1651475541,175349
{consumergroup=trace-service},1651475546,175349
{consumergroup=trace-service},1651475551,175349
{consumergroup=trace-service},1651475556,176747
{consumergroup=trace-service},1651475561,176747
{consumergroup=trace-service},1651475566,176747
{consumergroup=trace-service},1651475571,114405
{consumergroup=trace-service},1651475576,114405
{consumergroup=trace-service},1651475581,114405
{consumergroup=trace-service},1651475586,32283
{consumergroup=trace-service},1651475591,32283
{consumergroup=trace-service},1651475596,32283
{consumergroup=trace-service},1651475601,81499
{consumergroup=trace-service},1651475606,81499
{consumergroup=trace-service},1651475611,81499
{consumergroup=trace-service},1651475616,217393
{consumergroup=trace-service},1651475621,217393
{consumergroup=trace-token-events-consumer},1651475211,0
{consumergroup=trace-token-events-consumer},1651475216,0
{consumergroup=trace-token-events-consumer},1651475221,0
{consumergroup=trace-token-events-consumer},1651475226,0
{consumergroup=trace-token-events-consumer},1651475231,0
{consumergroup=trace-token-events-consumer},1651475236,0
{consumergroup=trace-token-events-consumer},1651475241,0
{consumergroup=trace-token-events-consumer},1651475246,0
{consumergroup=trace-token-events-consumer},1651475251,0
{consumergroup=trace-token-events-consumer},1651475256,0
{consumergroup=trace-token-events-consumer},1651475261,0
{consumergroup=trace-token-events-consumer},1651475266,0
{consumergroup=trace-token-events-consumer},1651475271,0
{consumergroup=trace-token-events-consumer},1651475276,0
{consumergroup=trace-token-events-consumer},1651475281,0
{consumergroup=trace-token-events-consumer},1651475286,0
{consumergroup=trace-token-events-consumer},1651475291,0
{consumergroup=trace-token-events-consumer},1651475296,0
{consumergroup=trace-token-events-consumer},1651475301,0
{consumergroup=trace-token-events-consumer},1651475306,0
{consumergroup=trace-token-events-consumer},1651475311,0
{consumergroup=trace-token-events-consumer},1651475316,0
{consumergroup=trace-token-events-consumer},1651475321,0
{consumergroup=trace-token-events-consumer},1651475326,0
{consumergroup=trace-token-events-consumer},1651475331,0
{consumergroup=trace-token-events-consumer},1651475336,0
{consumergroup=trace-token-events-consumer},1651475341,0
{consumergroup=trace-token-events-consumer},1651475346,0
{consumergroup=trace-token-events-consumer},1651475351,0
{consumergroup=trace-token-events-consumer},1651475356,0
{consumergroup=trace-token-events-consumer},1651475361,0
{consumergroup=trace-token-events-consumer},1651475366,0
{consumergroup=trace-token-events-consumer},1651475371,0
{consumergroup=trace-token-events-consumer},1651475376,0
{consumergroup=trace-token-events-consumer},1651475381,0
{consumergroup=trace-token-events-consumer},1651475386,0
{consumergroup=trace-token-events-consumer},1651475391,0
{consumergroup=trace-token-events-consumer},1651475396,0
{consumergroup=trace-token-events-consumer},1651475401,0
{consumergroup=trace-token-events-consumer},1651475406,0
{consumergroup=trace-token-events-consumer},1651475411,0
{consumergroup=trace-token-events-consumer},1651475416,0
{consumergroup=trace-token-events-consumer},1651475421,0
{consumergroup=trace-token-events-consumer},1651475426,0
{consumergroup=trace-token-events-consumer},1651475431,0
{consumergroup=trace-token-events-consumer},1651475436,0
{consumergroup=trace-token-events-consumer},1651475441,0
{consumergroup=trace-token-events-consumer},1651475446,0
{consumergroup=trace-token-events-consumer},1651475451,0
{consumergroup=trace-token-events-consumer},1651475456,0
{consumergroup=trace-token-events-consumer},1651475461,0
{consumergroup=trace-token-events-consumer},1651475466,0
{consumergroup=trace-token-events-consumer},1651475471,0
{consumergroup=trace-token-events-consumer},1651475476,0
{consumergroup=trace-token-events-consumer},1651475481,0
{consumergroup=trace-token-events-consumer},1651475486,0
{consumergroup=trace-token-events-consumer},1651475491,0
{consumergroup=trace-token-events-consumer},1651475496,0
{consumergroup=trace-token-events-consumer},1651475501,0
{consumergroup=trace-token-events-consumer},1651475506,0
{consumergroup=trace-token-events-consumer},1651475511,0
{consumergroup=trace-token-events-consumer},1651475516,0
{consumergroup=trace-token-events-consumer},1651475521,0
{consumergroup=trace-token-events-consumer},1651475526,0
{consumergroup=trace-token-events-consumer},1651475531,0
{consumergroup=trace-token-events-consumer},1651475536,0
{consumergroup=trace-token-events-consumer},1651475541,0
{consumergroup=trace-token-events-consumer},1651475546,0
{consumergroup=trace-token-events-consumer},1651475551,0
{consumergroup=trace-token-events-consumer},1651475556,0
{consumergroup=trace-token-events-consumer},1651475561,0
{consumergroup=trace-token-events-consumer},1651475566,0
{consumergroup=trace-token-events-consumer},1651475571,0
{consumergroup=trace-token-events-consumer},1651475576,0
{consumergroup=trace-token-events-consumer},1651475581,0
{consumergroup=trace-token-events-consumer},1651475586,0
{consumergroup=trace-token-events-consumer},1651475591,0
{consumergroup=trace-token-events-consumer},1651475596,0
{consumergroup=trace-token-events-consumer},1651475601,0
{consumergroup=trace-token-events-consumer},1651475606,0
{consumergroup=trace-token-events-consumer},1651475611,0
{consumergroup=trace-token-events-consumer},1651475616,0
{consumergroup=trace-token-events-consumer},1651475621,0
