labels,timestamp,value
{job=theodolite-stu200776/trace-isolated-podmonitor},1651467033,0
{job=theodolite-stu200776/trace-isolated-podmonitor},1651467038,0
{job=theodolite-stu200776/trace-isolated-podmonitor},1651467043,0
{job=theodolite-stu200776/trace-isolated-podmonitor},1651467048,0
{job=theodolite-stu200776/trace-isolated-podmonitor},1651467053,0
{job=theodolite-stu200776/trace-isolated-podmonitor},1651467058,0
{job=theodolite-stu200776/trace-isolated-podmonitor},1651467063,0
{job=theodolite-stu200776/trace-isolated-podmonitor},1651467068,0
{job=theodolite-stu200776/trace-isolated-podmonitor},1651467073,0
{job=theodolite-stu200776/trace-isolated-podmonitor},1651467078,0
{job=theodolite-stu200776/trace-isolated-podmonitor},1651467083,0
{job=theodolite-stu200776/trace-isolated-podmonitor},1651467088,0
{job=theodolite-stu200776/trace-isolated-podmonitor},1651467093,0
{job=theodolite-stu200776/trace-isolated-podmonitor},1651467098,0
{job=theodolite-stu200776/trace-isolated-podmonitor},1651467103,0
{job=theodolite-stu200776/trace-isolated-podmonitor},1651467108,0
{job=theodolite-stu200776/trace-isolated-podmonitor},1651467113,0
{job=theodolite-stu200776/trace-isolated-podmonitor},1651467118,0
{job=theodolite-stu200776/trace-isolated-podmonitor},1651467123,0
{job=theodolite-stu200776/trace-isolated-podmonitor},1651467128,0
{job=theodolite-stu200776/trace-isolated-podmonitor},1651467133,0
{job=theodolite-stu200776/trace-isolated-podmonitor},1651467138,0
{job=theodolite-stu200776/trace-isolated-podmonitor},1651467143,0
{job=theodolite-stu200776/trace-isolated-podmonitor},1651467148,0
{job=theodolite-stu200776/trace-isolated-podmonitor},1651467153,0
{job=theodolite-stu200776/trace-isolated-podmonitor},1651467158,0
{job=theodolite-stu200776/trace-isolated-podmonitor},1651467163,0
{job=theodolite-stu200776/trace-isolated-podmonitor},1651467168,0
{job=theodolite-stu200776/trace-isolated-podmonitor},1651467173,0
{job=theodolite-stu200776/trace-isolated-podmonitor},1651467178,0
{job=theodolite-stu200776/trace-isolated-podmonitor},1651467183,0
{job=theodolite-stu200776/trace-isolated-podmonitor},1651467188,0
{job=theodolite-stu200776/trace-isolated-podmonitor},1651467193,0
{job=theodolite-stu200776/trace-isolated-podmonitor},1651467198,0
{job=theodolite-stu200776/trace-isolated-podmonitor},1651467203,0
{job=theodolite-stu200776/trace-isolated-podmonitor},1651467208,0
{job=theodolite-stu200776/trace-isolated-podmonitor},1651467213,0
{job=theodolite-stu200776/trace-isolated-podmonitor},1651467218,0
{job=theodolite-stu200776/trace-isolated-podmonitor},1651467223,0
{job=theodolite-stu200776/trace-isolated-podmonitor},1651467228,0
{job=theodolite-stu200776/trace-isolated-podmonitor},1651467233,0
{job=theodolite-stu200776/trace-isolated-podmonitor},1651467238,0
{job=theodolite-stu200776/trace-isolated-podmonitor},1651467243,0
{job=theodolite-stu200776/trace-isolated-podmonitor},1651467248,0
{job=theodolite-stu200776/trace-isolated-podmonitor},1651467253,0
{job=theodolite-stu200776/trace-isolated-podmonitor},1651467258,0
{job=theodolite-stu200776/trace-isolated-podmonitor},1651467263,0
{job=theodolite-stu200776/trace-isolated-podmonitor},1651467268,0
{job=theodolite-stu200776/trace-isolated-podmonitor},1651467273,0
{job=theodolite-stu200776/trace-isolated-podmonitor},1651467278,0
{job=theodolite-stu200776/trace-isolated-podmonitor},1651467283,0
{job=theodolite-stu200776/trace-isolated-podmonitor},1651467288,0
{job=theodolite-stu200776/trace-isolated-podmonitor},1651467293,0
{job=theodolite-stu200776/trace-isolated-podmonitor},1651467298,0
{job=theodolite-stu200776/trace-isolated-podmonitor},1651467303,0
{job=theodolite-stu200776/trace-isolated-podmonitor},1651467308,0
{job=theodolite-stu200776/trace-isolated-podmonitor},1651467313,0
{job=theodolite-stu200776/trace-isolated-podmonitor},1651467318,0
{job=theodolite-stu200776/trace-isolated-podmonitor},1651467323,0
{job=theodolite-stu200776/trace-isolated-podmonitor},1651467328,0
{job=theodolite-stu200776/trace-isolated-podmonitor},1651467333,12.937405727434665
{job=theodolite-stu200776/trace-isolated-podmonitor},1651467338,138.68635332096005
{job=theodolite-stu200776/trace-isolated-podmonitor},1651467343,201.1600836927375
{job=theodolite-stu200776/trace-isolated-podmonitor},1651467348,184.0891119433469
{job=theodolite-stu200776/trace-isolated-podmonitor},1651467353,174.38026932839927
{job=theodolite-stu200776/trace-isolated-podmonitor},1651467358,163.8360973719445
{job=theodolite-stu200776/trace-isolated-podmonitor},1651467363,155.11947974402472
{job=theodolite-stu200776/trace-isolated-podmonitor},1651467368,188.9090632945735
{job=theodolite-stu200776/trace-isolated-podmonitor},1651467373,208.16913864761852
{job=theodolite-stu200776/trace-isolated-podmonitor},1651467378,157.00393213860465
{job=theodolite-stu200776/trace-isolated-podmonitor},1651467383,141.47522026846414
{job=theodolite-stu200776/trace-isolated-podmonitor},1651467388,126.3812317418504
{job=theodolite-stu200776/trace-isolated-podmonitor},1651467393,109.52532132386293
{job=theodolite-stu200776/trace-isolated-podmonitor},1651467398,732.5074680191286
{job=theodolite-stu200776/trace-isolated-podmonitor},1651467403,1422.8907919180294
