labels,timestamp,value
{job=theodolite-stu200776/trace-isolated-podmonitor},1651463453,0
{job=theodolite-stu200776/trace-isolated-podmonitor},1651463458,0
{job=theodolite-stu200776/trace-isolated-podmonitor},1651463463,0
{job=theodolite-stu200776/trace-isolated-podmonitor},1651463468,0
{job=theodolite-stu200776/trace-isolated-podmonitor},1651463473,0
{job=theodolite-stu200776/trace-isolated-podmonitor},1651463478,0
{job=theodolite-stu200776/trace-isolated-podmonitor},1651463483,0
{job=theodolite-stu200776/trace-isolated-podmonitor},1651463488,0
{job=theodolite-stu200776/trace-isolated-podmonitor},1651463493,0
{job=theodolite-stu200776/trace-isolated-podmonitor},1651463498,0
{job=theodolite-stu200776/trace-isolated-podmonitor},1651463503,0
{job=theodolite-stu200776/trace-isolated-podmonitor},1651463508,0
{job=theodolite-stu200776/trace-isolated-podmonitor},1651463513,0
{job=theodolite-stu200776/trace-isolated-podmonitor},1651463518,0
{job=theodolite-stu200776/trace-isolated-podmonitor},1651463523,0
{job=theodolite-stu200776/trace-isolated-podmonitor},1651463528,0
{job=theodolite-stu200776/trace-isolated-podmonitor},1651463533,0
{job=theodolite-stu200776/trace-isolated-podmonitor},1651463538,0
{job=theodolite-stu200776/trace-isolated-podmonitor},1651463543,0
{job=theodolite-stu200776/trace-isolated-podmonitor},1651463548,0
{job=theodolite-stu200776/trace-isolated-podmonitor},1651463553,0
{job=theodolite-stu200776/trace-isolated-podmonitor},1651463558,0
{job=theodolite-stu200776/trace-isolated-podmonitor},1651463563,0
{job=theodolite-stu200776/trace-isolated-podmonitor},1651463568,0
{job=theodolite-stu200776/trace-isolated-podmonitor},1651463573,0
{job=theodolite-stu200776/trace-isolated-podmonitor},1651463578,0
{job=theodolite-stu200776/trace-isolated-podmonitor},1651463583,0
{job=theodolite-stu200776/trace-isolated-podmonitor},1651463588,0
{job=theodolite-stu200776/trace-isolated-podmonitor},1651463593,0
{job=theodolite-stu200776/trace-isolated-podmonitor},1651463598,0
{job=theodolite-stu200776/trace-isolated-podmonitor},1651463603,0
{job=theodolite-stu200776/trace-isolated-podmonitor},1651463608,0
{job=theodolite-stu200776/trace-isolated-podmonitor},1651463613,0
{job=theodolite-stu200776/trace-isolated-podmonitor},1651463618,0
{job=theodolite-stu200776/trace-isolated-podmonitor},1651463623,0
{job=theodolite-stu200776/trace-isolated-podmonitor},1651463628,0
{job=theodolite-stu200776/trace-isolated-podmonitor},1651463633,0
{job=theodolite-stu200776/trace-isolated-podmonitor},1651463638,0
{job=theodolite-stu200776/trace-isolated-podmonitor},1651463643,0
{job=theodolite-stu200776/trace-isolated-podmonitor},1651463648,0
{job=theodolite-stu200776/trace-isolated-podmonitor},1651463653,0
{job=theodolite-stu200776/trace-isolated-podmonitor},1651463658,0
{job=theodolite-stu200776/trace-isolated-podmonitor},1651463663,0
{job=theodolite-stu200776/trace-isolated-podmonitor},1651463668,0
{job=theodolite-stu200776/trace-isolated-podmonitor},1651463673,0
{job=theodolite-stu200776/trace-isolated-podmonitor},1651463678,0
{job=theodolite-stu200776/trace-isolated-podmonitor},1651463683,0
{job=theodolite-stu200776/trace-isolated-podmonitor},1651463688,0
{job=theodolite-stu200776/trace-isolated-podmonitor},1651463693,0
{job=theodolite-stu200776/trace-isolated-podmonitor},1651463698,0
{job=theodolite-stu200776/trace-isolated-podmonitor},1651463703,0
{job=theodolite-stu200776/trace-isolated-podmonitor},1651463708,0
{job=theodolite-stu200776/trace-isolated-podmonitor},1651463713,0
{job=theodolite-stu200776/trace-isolated-podmonitor},1651463718,0
{job=theodolite-stu200776/trace-isolated-podmonitor},1651463723,0
{job=theodolite-stu200776/trace-isolated-podmonitor},1651463728,0
{job=theodolite-stu200776/trace-isolated-podmonitor},1651463733,0
{job=theodolite-stu200776/trace-isolated-podmonitor},1651463738,0
{job=theodolite-stu200776/trace-isolated-podmonitor},1651463743,0
{job=theodolite-stu200776/trace-isolated-podmonitor},1651463748,0
{job=theodolite-stu200776/trace-isolated-podmonitor},1651463753,0
{job=theodolite-stu200776/trace-isolated-podmonitor},1651463758,0
{job=theodolite-stu200776/trace-isolated-podmonitor},1651463763,0
{job=theodolite-stu200776/trace-isolated-podmonitor},1651463768,0
{job=theodolite-stu200776/trace-isolated-podmonitor},1651463773,0
{job=theodolite-stu200776/trace-isolated-podmonitor},1651463778,0
{job=theodolite-stu200776/trace-isolated-podmonitor},1651463783,0
{job=theodolite-stu200776/trace-isolated-podmonitor},1651463788,0
{job=theodolite-stu200776/trace-isolated-podmonitor},1651463793,0
{job=theodolite-stu200776/trace-isolated-podmonitor},1651463798,0
{job=theodolite-stu200776/trace-isolated-podmonitor},1651463803,0
{job=theodolite-stu200776/trace-isolated-podmonitor},1651463808,0
{job=theodolite-stu200776/trace-isolated-podmonitor},1651463813,0
{job=theodolite-stu200776/trace-isolated-podmonitor},1651463818,0
{job=theodolite-stu200776/trace-isolated-podmonitor},1651463823,0
{job=theodolite-stu200776/trace-isolated-podmonitor},1651463828,0
