labels,timestamp,value
{consumergroup=__strimzi-topic-operator-kstreams},1651866482,4
{consumergroup=__strimzi-topic-operator-kstreams},1651866487,15
{consumergroup=__strimzi-topic-operator-kstreams},1651866492,11
{consumergroup=__strimzi-topic-operator-kstreams},1651866497,11
{consumergroup=__strimzi-topic-operator-kstreams},1651866502,0
{consumergroup=__strimzi-topic-operator-kstreams},1651866507,0
{consumergroup=__strimzi-topic-operator-kstreams},1651866512,0
{consumergroup=__strimzi-topic-operator-kstreams},1651866517,0
{consumergroup=__strimzi-topic-operator-kstreams},1651866522,0
{consumergroup=__strimzi-topic-operator-kstreams},1651866527,0
{consumergroup=__strimzi-topic-operator-kstreams},1651866532,0
{consumergroup=__strimzi-topic-operator-kstreams},1651866537,0
{consumergroup=__strimzi-topic-operator-kstreams},1651866542,0
{consumergroup=__strimzi-topic-operator-kstreams},1651866547,0
{consumergroup=__strimzi-topic-operator-kstreams},1651866552,0
{consumergroup=__strimzi-topic-operator-kstreams},1651866557,0
{consumergroup=__strimzi-topic-operator-kstreams},1651866562,0
{consumergroup=__strimzi-topic-operator-kstreams},1651866567,0
{consumergroup=__strimzi-topic-operator-kstreams},1651866572,0
{consumergroup=__strimzi-topic-operator-kstreams},1651866577,0
{consumergroup=__strimzi-topic-operator-kstreams},1651866582,0
{consumergroup=__strimzi-topic-operator-kstreams},1651866587,0
{consumergroup=__strimzi-topic-operator-kstreams},1651866592,0
{consumergroup=__strimzi-topic-operator-kstreams},1651866597,0
{consumergroup=__strimzi-topic-operator-kstreams},1651866602,0
{consumergroup=__strimzi-topic-operator-kstreams},1651866607,0
{consumergroup=__strimzi-topic-operator-kstreams},1651866612,0
{consumergroup=__strimzi-topic-operator-kstreams},1651866617,0
{consumergroup=__strimzi-topic-operator-kstreams},1651866622,0
{consumergroup=__strimzi-topic-operator-kstreams},1651866627,0
{consumergroup=__strimzi-topic-operator-kstreams},1651866632,0
{consumergroup=__strimzi-topic-operator-kstreams},1651866637,0
{consumergroup=__strimzi-topic-operator-kstreams},1651866642,0
{consumergroup=__strimzi-topic-operator-kstreams},1651866647,0
{consumergroup=__strimzi-topic-operator-kstreams},1651866652,0
{consumergroup=__strimzi-topic-operator-kstreams},1651866657,0
{consumergroup=__strimzi-topic-operator-kstreams},1651866662,0
{consumergroup=__strimzi-topic-operator-kstreams},1651866667,0
{consumergroup=__strimzi-topic-operator-kstreams},1651866672,0
{consumergroup=__strimzi-topic-operator-kstreams},1651866677,0
{consumergroup=__strimzi-topic-operator-kstreams},1651866682,0
{consumergroup=__strimzi-topic-operator-kstreams},1651866687,0
{consumergroup=__strimzi-topic-operator-kstreams},1651866692,0
{consumergroup=__strimzi-topic-operator-kstreams},1651866697,0
{consumergroup=__strimzi-topic-operator-kstreams},1651866702,0
{consumergroup=__strimzi-topic-operator-kstreams},1651866707,0
{consumergroup=__strimzi-topic-operator-kstreams},1651866712,0
{consumergroup=__strimzi-topic-operator-kstreams},1651866717,0
{consumergroup=__strimzi-topic-operator-kstreams},1651866722,0
{consumergroup=__strimzi-topic-operator-kstreams},1651866727,0
{consumergroup=__strimzi-topic-operator-kstreams},1651866732,0
{consumergroup=__strimzi-topic-operator-kstreams},1651866737,0
{consumergroup=__strimzi-topic-operator-kstreams},1651866742,0
{consumergroup=adapter-service},1651866482,0
{consumergroup=adapter-service},1651866487,0
{consumergroup=adapter-service},1651866517,19714
{consumergroup=adapter-service},1651866522,19714
{consumergroup=adapter-service},1651866527,19714
{consumergroup=adapter-service},1651866532,2035253
{consumergroup=adapter-service},1651866537,2035253
{consumergroup=adapter-service},1651866542,2035253
{consumergroup=adapter-service},1651866547,3204325
{consumergroup=adapter-service},1651866552,3204325
{consumergroup=adapter-service},1651866557,3204325
{consumergroup=adapter-service},1651866562,3977648
{consumergroup=adapter-service},1651866567,3977648
{consumergroup=adapter-service},1651866572,3977648
{consumergroup=adapter-service},1651866577,4090598
{consumergroup=adapter-service},1651866582,4090598
{consumergroup=adapter-service},1651866587,4090598
{consumergroup=adapter-service},1651866592,4144284
{consumergroup=adapter-service},1651866597,4144284
{consumergroup=adapter-service},1651866602,4144284
{consumergroup=adapter-service},1651866607,4249354
{consumergroup=adapter-service},1651866612,4249354
{consumergroup=adapter-service},1651866617,4249354
{consumergroup=adapter-service},1651866622,4147481
{consumergroup=adapter-service},1651866627,4147481
{consumergroup=adapter-service},1651866632,4147481
{consumergroup=adapter-service},1651866637,4975709
{consumergroup=adapter-service},1651866642,4975709
{consumergroup=adapter-service},1651866647,4975709
{consumergroup=adapter-service},1651866652,4638396
{consumergroup=adapter-service},1651866657,4638396
{consumergroup=adapter-service},1651866662,4638396
{consumergroup=adapter-service},1651866667,4296797
{consumergroup=adapter-service},1651866672,4296797
{consumergroup=adapter-service},1651866677,4296797
{consumergroup=adapter-service},1651866682,4302868
{consumergroup=adapter-service},1651866687,4302868
{consumergroup=adapter-service},1651866692,4302868
{consumergroup=adapter-service},1651866697,4136578
{consumergroup=adapter-service},1651866702,4136578
{consumergroup=adapter-service},1651866707,4136578
{consumergroup=adapter-service},1651866712,3982563
{consumergroup=adapter-service},1651866717,3982563
{consumergroup=adapter-service},1651866722,3982563
{consumergroup=adapter-service},1651866727,3940488
{consumergroup=adapter-service},1651866732,3940488
{consumergroup=adapter-service},1651866737,3940488
{consumergroup=adapter-service},1651866742,4076072
