labels,timestamp,value
{consumergroup=__strimzi-topic-operator-kstreams},1651856522,8
{consumergroup=__strimzi-topic-operator-kstreams},1651856527,8
{consumergroup=__strimzi-topic-operator-kstreams},1651856532,8
{consumergroup=__strimzi-topic-operator-kstreams},1651856537,0
{consumergroup=__strimzi-topic-operator-kstreams},1651856542,0
{consumergroup=__strimzi-topic-operator-kstreams},1651856547,0
{consumergroup=__strimzi-topic-operator-kstreams},1651856552,0
{consumergroup=__strimzi-topic-operator-kstreams},1651856557,0
{consumergroup=__strimzi-topic-operator-kstreams},1651856562,0
{consumergroup=__strimzi-topic-operator-kstreams},1651856567,0
{consumergroup=__strimzi-topic-operator-kstreams},1651856572,0
{consumergroup=__strimzi-topic-operator-kstreams},1651856577,0
{consumergroup=__strimzi-topic-operator-kstreams},1651856582,0
{consumergroup=__strimzi-topic-operator-kstreams},1651856587,0
{consumergroup=__strimzi-topic-operator-kstreams},1651856592,0
{consumergroup=__strimzi-topic-operator-kstreams},1651856597,0
{consumergroup=__strimzi-topic-operator-kstreams},1651856602,0
{consumergroup=__strimzi-topic-operator-kstreams},1651856607,0
{consumergroup=__strimzi-topic-operator-kstreams},1651856612,0
{consumergroup=__strimzi-topic-operator-kstreams},1651856617,0
{consumergroup=__strimzi-topic-operator-kstreams},1651856622,0
{consumergroup=__strimzi-topic-operator-kstreams},1651856627,0
{consumergroup=__strimzi-topic-operator-kstreams},1651856632,0
{consumergroup=__strimzi-topic-operator-kstreams},1651856637,0
{consumergroup=__strimzi-topic-operator-kstreams},1651856642,0
{consumergroup=__strimzi-topic-operator-kstreams},1651856647,0
{consumergroup=__strimzi-topic-operator-kstreams},1651856652,0
{consumergroup=__strimzi-topic-operator-kstreams},1651856657,0
{consumergroup=__strimzi-topic-operator-kstreams},1651856662,0
{consumergroup=__strimzi-topic-operator-kstreams},1651856667,0
{consumergroup=__strimzi-topic-operator-kstreams},1651856672,0
{consumergroup=__strimzi-topic-operator-kstreams},1651856677,0
{consumergroup=__strimzi-topic-operator-kstreams},1651856682,0
{consumergroup=__strimzi-topic-operator-kstreams},1651856687,0
{consumergroup=__strimzi-topic-operator-kstreams},1651856692,0
{consumergroup=__strimzi-topic-operator-kstreams},1651856697,0
{consumergroup=__strimzi-topic-operator-kstreams},1651856702,0
{consumergroup=__strimzi-topic-operator-kstreams},1651856707,0
{consumergroup=__strimzi-topic-operator-kstreams},1651856712,0
{consumergroup=__strimzi-topic-operator-kstreams},1651856717,0
{consumergroup=__strimzi-topic-operator-kstreams},1651856722,0
{consumergroup=__strimzi-topic-operator-kstreams},1651856727,0
{consumergroup=__strimzi-topic-operator-kstreams},1651856732,0
{consumergroup=__strimzi-topic-operator-kstreams},1651856737,0
{consumergroup=__strimzi-topic-operator-kstreams},1651856742,0
{consumergroup=__strimzi-topic-operator-kstreams},1651856747,0
{consumergroup=__strimzi-topic-operator-kstreams},1651856752,0
{consumergroup=__strimzi-topic-operator-kstreams},1651856757,0
{consumergroup=__strimzi-topic-operator-kstreams},1651856762,0
{consumergroup=__strimzi-topic-operator-kstreams},1651856767,0
{consumergroup=adapter-service},1651856552,1217712
{consumergroup=adapter-service},1651856557,1217712
{consumergroup=adapter-service},1651856562,1217712
{consumergroup=adapter-service},1651856567,751168
{consumergroup=adapter-service},1651856572,751168
{consumergroup=adapter-service},1651856577,751168
{consumergroup=adapter-service},1651856582,1360571
{consumergroup=adapter-service},1651856587,1360571
{consumergroup=adapter-service},1651856592,1360571
{consumergroup=adapter-service},1651856597,1102999
{consumergroup=adapter-service},1651856602,1102999
{consumergroup=adapter-service},1651856607,1102999
{consumergroup=adapter-service},1651856612,899930
{consumergroup=adapter-service},1651856617,899930
{consumergroup=adapter-service},1651856622,899930
{consumergroup=adapter-service},1651856627,944964
{consumergroup=adapter-service},1651856632,944964
{consumergroup=adapter-service},1651856637,944964
{consumergroup=adapter-service},1651856642,620227
{consumergroup=adapter-service},1651856647,620227
{consumergroup=adapter-service},1651856652,620227
{consumergroup=adapter-service},1651856657,542071
{consumergroup=adapter-service},1651856662,542071
{consumergroup=adapter-service},1651856667,542071
{consumergroup=adapter-service},1651856672,414560
{consumergroup=adapter-service},1651856677,414560
{consumergroup=adapter-service},1651856682,414560
{consumergroup=adapter-service},1651856687,266006
{consumergroup=adapter-service},1651856692,266006
{consumergroup=adapter-service},1651856697,266006
{consumergroup=adapter-service},1651856702,207126
{consumergroup=adapter-service},1651856707,207126
{consumergroup=adapter-service},1651856712,207126
{consumergroup=adapter-service},1651856717,455369
{consumergroup=adapter-service},1651856722,455369
{consumergroup=adapter-service},1651856727,455369
{consumergroup=adapter-service},1651856732,308806
{consumergroup=adapter-service},1651856737,308806
{consumergroup=adapter-service},1651856742,308806
{consumergroup=adapter-service},1651856747,550311
{consumergroup=adapter-service},1651856752,550311
{consumergroup=adapter-service},1651856757,550311
{consumergroup=adapter-service},1651856762,167525
{consumergroup=adapter-service},1651856767,167525
