labels,timestamp,value
{consumergroup=__strimzi-topic-operator-kstreams},1651851082,15
{consumergroup=__strimzi-topic-operator-kstreams},1651851087,15
{consumergroup=__strimzi-topic-operator-kstreams},1651851092,15
{consumergroup=__strimzi-topic-operator-kstreams},1651851097,0
{consumergroup=__strimzi-topic-operator-kstreams},1651851102,0
{consumergroup=__strimzi-topic-operator-kstreams},1651851107,0
{consumergroup=__strimzi-topic-operator-kstreams},1651851112,0
{consumergroup=__strimzi-topic-operator-kstreams},1651851117,0
{consumergroup=__strimzi-topic-operator-kstreams},1651851122,0
{consumergroup=__strimzi-topic-operator-kstreams},1651851127,0
{consumergroup=__strimzi-topic-operator-kstreams},1651851132,0
{consumergroup=__strimzi-topic-operator-kstreams},1651851137,0
{consumergroup=__strimzi-topic-operator-kstreams},1651851142,0
{consumergroup=__strimzi-topic-operator-kstreams},1651851147,0
{consumergroup=__strimzi-topic-operator-kstreams},1651851152,0
{consumergroup=__strimzi-topic-operator-kstreams},1651851157,0
{consumergroup=__strimzi-topic-operator-kstreams},1651851162,0
{consumergroup=__strimzi-topic-operator-kstreams},1651851167,0
{consumergroup=__strimzi-topic-operator-kstreams},1651851172,0
{consumergroup=__strimzi-topic-operator-kstreams},1651851177,0
{consumergroup=__strimzi-topic-operator-kstreams},1651851182,0
{consumergroup=__strimzi-topic-operator-kstreams},1651851187,0
{consumergroup=__strimzi-topic-operator-kstreams},1651851192,0
{consumergroup=__strimzi-topic-operator-kstreams},1651851197,0
{consumergroup=__strimzi-topic-operator-kstreams},1651851202,0
{consumergroup=__strimzi-topic-operator-kstreams},1651851207,0
{consumergroup=__strimzi-topic-operator-kstreams},1651851212,0
{consumergroup=__strimzi-topic-operator-kstreams},1651851217,0
{consumergroup=__strimzi-topic-operator-kstreams},1651851222,0
{consumergroup=__strimzi-topic-operator-kstreams},1651851227,0
{consumergroup=__strimzi-topic-operator-kstreams},1651851232,0
{consumergroup=__strimzi-topic-operator-kstreams},1651851237,0
{consumergroup=__strimzi-topic-operator-kstreams},1651851242,0
{consumergroup=__strimzi-topic-operator-kstreams},1651851247,0
{consumergroup=__strimzi-topic-operator-kstreams},1651851252,0
{consumergroup=__strimzi-topic-operator-kstreams},1651851257,0
{consumergroup=__strimzi-topic-operator-kstreams},1651851262,0
{consumergroup=__strimzi-topic-operator-kstreams},1651851267,0
{consumergroup=__strimzi-topic-operator-kstreams},1651851272,0
{consumergroup=__strimzi-topic-operator-kstreams},1651851277,0
{consumergroup=__strimzi-topic-operator-kstreams},1651851282,0
{consumergroup=__strimzi-topic-operator-kstreams},1651851287,0
{consumergroup=__strimzi-topic-operator-kstreams},1651851292,0
{consumergroup=__strimzi-topic-operator-kstreams},1651851297,0
{consumergroup=__strimzi-topic-operator-kstreams},1651851302,0
{consumergroup=__strimzi-topic-operator-kstreams},1651851307,0
{consumergroup=__strimzi-topic-operator-kstreams},1651851312,0
{consumergroup=__strimzi-topic-operator-kstreams},1651851317,0
{consumergroup=adapter-service},1651851112,291154
{consumergroup=adapter-service},1651851117,291154
{consumergroup=adapter-service},1651851122,291154
{consumergroup=adapter-service},1651851127,1235344
{consumergroup=adapter-service},1651851132,1235344
{consumergroup=adapter-service},1651851137,1235344
{consumergroup=adapter-service},1651851142,424778
{consumergroup=adapter-service},1651851147,424778
{consumergroup=adapter-service},1651851152,424778
{consumergroup=adapter-service},1651851157,631573
{consumergroup=adapter-service},1651851162,631573
{consumergroup=adapter-service},1651851167,631573
{consumergroup=adapter-service},1651851172,462174
{consumergroup=adapter-service},1651851177,462174
{consumergroup=adapter-service},1651851182,462174
{consumergroup=adapter-service},1651851187,321178
{consumergroup=adapter-service},1651851192,321178
{consumergroup=adapter-service},1651851197,321178
{consumergroup=adapter-service},1651851202,531854
{consumergroup=adapter-service},1651851207,531854
{consumergroup=adapter-service},1651851212,531854
{consumergroup=adapter-service},1651851217,281993
{consumergroup=adapter-service},1651851222,281993
{consumergroup=adapter-service},1651851227,281993
{consumergroup=adapter-service},1651851232,388722
{consumergroup=adapter-service},1651851237,388722
{consumergroup=adapter-service},1651851242,388722
{consumergroup=adapter-service},1651851247,222587
{consumergroup=adapter-service},1651851252,222587
{consumergroup=adapter-service},1651851257,222587
{consumergroup=adapter-service},1651851262,381185
{consumergroup=adapter-service},1651851267,381185
{consumergroup=adapter-service},1651851272,381185
{consumergroup=adapter-service},1651851277,204243
{consumergroup=adapter-service},1651851282,204243
{consumergroup=adapter-service},1651851287,204243
{consumergroup=adapter-service},1651851292,218907
{consumergroup=adapter-service},1651851297,218907
{consumergroup=adapter-service},1651851302,218907
{consumergroup=adapter-service},1651851307,136677
{consumergroup=adapter-service},1651851312,136677
{consumergroup=adapter-service},1651851317,136677
