labels,timestamp,value
{consumergroup=__strimzi-topic-operator-kstreams},1651865283,21
{consumergroup=__strimzi-topic-operator-kstreams},1651865288,21
{consumergroup=__strimzi-topic-operator-kstreams},1651865293,21
{consumergroup=__strimzi-topic-operator-kstreams},1651865298,0
{consumergroup=__strimzi-topic-operator-kstreams},1651865303,0
{consumergroup=__strimzi-topic-operator-kstreams},1651865308,0
{consumergroup=__strimzi-topic-operator-kstreams},1651865313,0
{consumergroup=__strimzi-topic-operator-kstreams},1651865318,0
{consumergroup=__strimzi-topic-operator-kstreams},1651865323,0
{consumergroup=__strimzi-topic-operator-kstreams},1651865328,0
{consumergroup=__strimzi-topic-operator-kstreams},1651865333,0
{consumergroup=__strimzi-topic-operator-kstreams},1651865338,0
{consumergroup=__strimzi-topic-operator-kstreams},1651865343,0
{consumergroup=__strimzi-topic-operator-kstreams},1651865348,0
{consumergroup=__strimzi-topic-operator-kstreams},1651865353,0
{consumergroup=__strimzi-topic-operator-kstreams},1651865358,0
{consumergroup=__strimzi-topic-operator-kstreams},1651865363,0
{consumergroup=__strimzi-topic-operator-kstreams},1651865368,0
{consumergroup=__strimzi-topic-operator-kstreams},1651865373,0
{consumergroup=__strimzi-topic-operator-kstreams},1651865378,0
{consumergroup=__strimzi-topic-operator-kstreams},1651865383,0
{consumergroup=__strimzi-topic-operator-kstreams},1651865388,0
{consumergroup=__strimzi-topic-operator-kstreams},1651865393,0
{consumergroup=__strimzi-topic-operator-kstreams},1651865398,0
{consumergroup=__strimzi-topic-operator-kstreams},1651865403,0
{consumergroup=__strimzi-topic-operator-kstreams},1651865408,0
{consumergroup=__strimzi-topic-operator-kstreams},1651865413,0
{consumergroup=__strimzi-topic-operator-kstreams},1651865418,0
{consumergroup=__strimzi-topic-operator-kstreams},1651865423,0
{consumergroup=__strimzi-topic-operator-kstreams},1651865428,0
{consumergroup=__strimzi-topic-operator-kstreams},1651865433,0
{consumergroup=__strimzi-topic-operator-kstreams},1651865438,0
{consumergroup=__strimzi-topic-operator-kstreams},1651865443,0
{consumergroup=__strimzi-topic-operator-kstreams},1651865448,0
{consumergroup=__strimzi-topic-operator-kstreams},1651865453,0
{consumergroup=__strimzi-topic-operator-kstreams},1651865458,0
{consumergroup=__strimzi-topic-operator-kstreams},1651865463,0
{consumergroup=__strimzi-topic-operator-kstreams},1651865468,0
{consumergroup=__strimzi-topic-operator-kstreams},1651865473,0
{consumergroup=__strimzi-topic-operator-kstreams},1651865478,0
{consumergroup=__strimzi-topic-operator-kstreams},1651865483,0
{consumergroup=__strimzi-topic-operator-kstreams},1651865488,0
{consumergroup=__strimzi-topic-operator-kstreams},1651865493,0
{consumergroup=__strimzi-topic-operator-kstreams},1651865498,0
{consumergroup=__strimzi-topic-operator-kstreams},1651865503,0
{consumergroup=__strimzi-topic-operator-kstreams},1651865508,0
{consumergroup=__strimzi-topic-operator-kstreams},1651865513,0
{consumergroup=__strimzi-topic-operator-kstreams},1651865518,0
{consumergroup=__strimzi-topic-operator-kstreams},1651865523,0
{consumergroup=__strimzi-topic-operator-kstreams},1651865528,0
{consumergroup=adapter-service},1651865313,1420574
{consumergroup=adapter-service},1651865318,1420574
{consumergroup=adapter-service},1651865323,1420574
{consumergroup=adapter-service},1651865328,2943323
{consumergroup=adapter-service},1651865333,2943323
{consumergroup=adapter-service},1651865338,2943323
{consumergroup=adapter-service},1651865343,3820416
{consumergroup=adapter-service},1651865348,3820416
{consumergroup=adapter-service},1651865353,3820416
{consumergroup=adapter-service},1651865358,4730321
{consumergroup=adapter-service},1651865363,4730321
{consumergroup=adapter-service},1651865368,4730321
{consumergroup=adapter-service},1651865373,5062452
{consumergroup=adapter-service},1651865378,5062452
{consumergroup=adapter-service},1651865383,5062452
{consumergroup=adapter-service},1651865388,5212615
{consumergroup=adapter-service},1651865393,5212615
{consumergroup=adapter-service},1651865398,5212615
{consumergroup=adapter-service},1651865403,5035087
{consumergroup=adapter-service},1651865408,5035087
{consumergroup=adapter-service},1651865413,5035087
{consumergroup=adapter-service},1651865418,4768833
{consumergroup=adapter-service},1651865423,4768833
{consumergroup=adapter-service},1651865428,4768833
{consumergroup=adapter-service},1651865433,4602554
{consumergroup=adapter-service},1651865438,4602554
{consumergroup=adapter-service},1651865443,4602554
{consumergroup=adapter-service},1651865448,4319298
{consumergroup=adapter-service},1651865453,4319298
{consumergroup=adapter-service},1651865458,4319298
{consumergroup=adapter-service},1651865463,4314990
{consumergroup=adapter-service},1651865468,4314990
{consumergroup=adapter-service},1651865473,4314990
{consumergroup=adapter-service},1651865478,3898334
{consumergroup=adapter-service},1651865483,3898334
{consumergroup=adapter-service},1651865488,3898334
{consumergroup=adapter-service},1651865493,3918723
{consumergroup=adapter-service},1651865498,3918723
{consumergroup=adapter-service},1651865503,3918723
{consumergroup=adapter-service},1651865508,3532060
{consumergroup=adapter-service},1651865513,3532060
{consumergroup=adapter-service},1651865518,3532060
{consumergroup=adapter-service},1651865523,3517200
{consumergroup=adapter-service},1651865528,3517200
