labels,timestamp,value
{consumergroup=__strimzi-topic-operator-kstreams},1651862833,17
{consumergroup=__strimzi-topic-operator-kstreams},1651862838,17
{consumergroup=__strimzi-topic-operator-kstreams},1651862843,17
{consumergroup=__strimzi-topic-operator-kstreams},1651862848,17
{consumergroup=__strimzi-topic-operator-kstreams},1651862853,17
{consumergroup=__strimzi-topic-operator-kstreams},1651862858,17
{consumergroup=__strimzi-topic-operator-kstreams},1651862863,0
{consumergroup=__strimzi-topic-operator-kstreams},1651862868,0
{consumergroup=__strimzi-topic-operator-kstreams},1651862873,0
{consumergroup=__strimzi-topic-operator-kstreams},1651862878,0
{consumergroup=__strimzi-topic-operator-kstreams},1651862883,0
{consumergroup=__strimzi-topic-operator-kstreams},1651862888,0
{consumergroup=__strimzi-topic-operator-kstreams},1651862893,0
{consumergroup=__strimzi-topic-operator-kstreams},1651862898,0
{consumergroup=__strimzi-topic-operator-kstreams},1651862903,0
{consumergroup=__strimzi-topic-operator-kstreams},1651862908,0
{consumergroup=__strimzi-topic-operator-kstreams},1651862913,0
{consumergroup=__strimzi-topic-operator-kstreams},1651862918,0
{consumergroup=__strimzi-topic-operator-kstreams},1651862923,0
{consumergroup=__strimzi-topic-operator-kstreams},1651862928,0
{consumergroup=__strimzi-topic-operator-kstreams},1651862933,0
{consumergroup=__strimzi-topic-operator-kstreams},1651862938,0
{consumergroup=__strimzi-topic-operator-kstreams},1651862943,0
{consumergroup=__strimzi-topic-operator-kstreams},1651862948,0
{consumergroup=__strimzi-topic-operator-kstreams},1651862953,0
{consumergroup=__strimzi-topic-operator-kstreams},1651862958,0
{consumergroup=__strimzi-topic-operator-kstreams},1651862963,0
{consumergroup=__strimzi-topic-operator-kstreams},1651862968,0
{consumergroup=__strimzi-topic-operator-kstreams},1651862973,0
{consumergroup=__strimzi-topic-operator-kstreams},1651862978,0
{consumergroup=__strimzi-topic-operator-kstreams},1651862983,0
{consumergroup=__strimzi-topic-operator-kstreams},1651862988,0
{consumergroup=__strimzi-topic-operator-kstreams},1651862993,0
{consumergroup=__strimzi-topic-operator-kstreams},1651862998,0
{consumergroup=__strimzi-topic-operator-kstreams},1651863003,0
{consumergroup=__strimzi-topic-operator-kstreams},1651863008,0
{consumergroup=__strimzi-topic-operator-kstreams},1651863013,0
{consumergroup=__strimzi-topic-operator-kstreams},1651863018,0
{consumergroup=__strimzi-topic-operator-kstreams},1651863023,0
{consumergroup=__strimzi-topic-operator-kstreams},1651863028,0
{consumergroup=__strimzi-topic-operator-kstreams},1651863033,0
{consumergroup=__strimzi-topic-operator-kstreams},1651863038,0
{consumergroup=__strimzi-topic-operator-kstreams},1651863043,0
{consumergroup=__strimzi-topic-operator-kstreams},1651863048,0
{consumergroup=__strimzi-topic-operator-kstreams},1651863053,0
{consumergroup=__strimzi-topic-operator-kstreams},1651863058,0
{consumergroup=__strimzi-topic-operator-kstreams},1651863063,0
{consumergroup=__strimzi-topic-operator-kstreams},1651863068,0
{consumergroup=__strimzi-topic-operator-kstreams},1651863073,0
{consumergroup=__strimzi-topic-operator-kstreams},1651863078,0
{consumergroup=__strimzi-topic-operator-kstreams},1651863083,0
{consumergroup=adapter-service},1651862863,1485059
{consumergroup=adapter-service},1651862868,1485059
{consumergroup=adapter-service},1651862873,1485059
{consumergroup=adapter-service},1651862878,2668597
{consumergroup=adapter-service},1651862883,2668597
{consumergroup=adapter-service},1651862888,2668597
{consumergroup=adapter-service},1651862893,4037743
{consumergroup=adapter-service},1651862898,4037743
{consumergroup=adapter-service},1651862903,4037743
{consumergroup=adapter-service},1651862908,5194223
{consumergroup=adapter-service},1651862913,5194223
{consumergroup=adapter-service},1651862918,5194223
{consumergroup=adapter-service},1651862923,5471419
{consumergroup=adapter-service},1651862928,5471419
{consumergroup=adapter-service},1651862933,5471419
{consumergroup=adapter-service},1651862938,5917071
{consumergroup=adapter-service},1651862943,5917071
{consumergroup=adapter-service},1651862948,5917071
{consumergroup=adapter-service},1651862953,6002961
{consumergroup=adapter-service},1651862958,6002961
{consumergroup=adapter-service},1651862963,6002961
{consumergroup=adapter-service},1651862968,6073457
{consumergroup=adapter-service},1651862973,6073457
{consumergroup=adapter-service},1651862978,6073457
{consumergroup=adapter-service},1651862983,6191969
{consumergroup=adapter-service},1651862988,6191969
{consumergroup=adapter-service},1651862993,6191969
{consumergroup=adapter-service},1651862998,6276497
{consumergroup=adapter-service},1651863003,6276497
{consumergroup=adapter-service},1651863008,6276497
{consumergroup=adapter-service},1651863013,6229822
{consumergroup=adapter-service},1651863018,6229822
{consumergroup=adapter-service},1651863023,6229822
{consumergroup=adapter-service},1651863028,6334801
{consumergroup=adapter-service},1651863033,6334801
{consumergroup=adapter-service},1651863038,6334801
{consumergroup=adapter-service},1651863043,6157747
{consumergroup=adapter-service},1651863048,6157747
{consumergroup=adapter-service},1651863053,6157747
{consumergroup=adapter-service},1651863058,6146342
{consumergroup=adapter-service},1651863063,6146342
{consumergroup=adapter-service},1651863068,6146342
{consumergroup=adapter-service},1651863073,6150495
{consumergroup=adapter-service},1651863078,6150495
{consumergroup=adapter-service},1651863083,6150495
