labels,timestamp,value
{consumergroup=__strimzi-topic-operator-kstreams},1651853475,0
{consumergroup=__strimzi-topic-operator-kstreams},1651853480,0
{consumergroup=__strimzi-topic-operator-kstreams},1651853485,0
{consumergroup=__strimzi-topic-operator-kstreams},1651853490,10
{consumergroup=__strimzi-topic-operator-kstreams},1651853495,10
{consumergroup=__strimzi-topic-operator-kstreams},1651853500,10
{consumergroup=__strimzi-topic-operator-kstreams},1651853505,0
{consumergroup=__strimzi-topic-operator-kstreams},1651853510,0
{consumergroup=__strimzi-topic-operator-kstreams},1651853515,0
{consumergroup=__strimzi-topic-operator-kstreams},1651853520,0
{consumergroup=__strimzi-topic-operator-kstreams},1651853525,0
{consumergroup=__strimzi-topic-operator-kstreams},1651853530,0
{consumergroup=__strimzi-topic-operator-kstreams},1651853535,0
{consumergroup=__strimzi-topic-operator-kstreams},1651853540,0
{consumergroup=__strimzi-topic-operator-kstreams},1651853545,0
{consumergroup=__strimzi-topic-operator-kstreams},1651853550,0
{consumergroup=__strimzi-topic-operator-kstreams},1651853555,0
{consumergroup=__strimzi-topic-operator-kstreams},1651853560,0
{consumergroup=__strimzi-topic-operator-kstreams},1651853565,0
{consumergroup=__strimzi-topic-operator-kstreams},1651853570,0
{consumergroup=__strimzi-topic-operator-kstreams},1651853575,0
{consumergroup=__strimzi-topic-operator-kstreams},1651853580,0
{consumergroup=__strimzi-topic-operator-kstreams},1651853585,0
{consumergroup=__strimzi-topic-operator-kstreams},1651853590,0
{consumergroup=__strimzi-topic-operator-kstreams},1651853595,0
{consumergroup=__strimzi-topic-operator-kstreams},1651853600,0
{consumergroup=__strimzi-topic-operator-kstreams},1651853605,0
{consumergroup=__strimzi-topic-operator-kstreams},1651853610,0
{consumergroup=__strimzi-topic-operator-kstreams},1651853615,0
{consumergroup=__strimzi-topic-operator-kstreams},1651853620,0
{consumergroup=__strimzi-topic-operator-kstreams},1651853625,0
{consumergroup=__strimzi-topic-operator-kstreams},1651853630,0
{consumergroup=__strimzi-topic-operator-kstreams},1651853635,0
{consumergroup=__strimzi-topic-operator-kstreams},1651853640,0
{consumergroup=__strimzi-topic-operator-kstreams},1651853645,0
{consumergroup=__strimzi-topic-operator-kstreams},1651853650,0
{consumergroup=__strimzi-topic-operator-kstreams},1651853655,0
{consumergroup=__strimzi-topic-operator-kstreams},1651853660,0
{consumergroup=__strimzi-topic-operator-kstreams},1651853665,0
{consumergroup=__strimzi-topic-operator-kstreams},1651853670,0
{consumergroup=__strimzi-topic-operator-kstreams},1651853675,0
{consumergroup=__strimzi-topic-operator-kstreams},1651853680,0
{consumergroup=__strimzi-topic-operator-kstreams},1651853685,0
{consumergroup=__strimzi-topic-operator-kstreams},1651853690,0
{consumergroup=__strimzi-topic-operator-kstreams},1651853695,0
{consumergroup=__strimzi-topic-operator-kstreams},1651853700,0
{consumergroup=__strimzi-topic-operator-kstreams},1651853705,0
{consumergroup=__strimzi-topic-operator-kstreams},1651853710,0
{consumergroup=__strimzi-topic-operator-kstreams},1651853715,0
{consumergroup=__strimzi-topic-operator-kstreams},1651853720,0
{consumergroup=__strimzi-topic-operator-kstreams},1651853725,0
{consumergroup=__strimzi-topic-operator-kstreams},1651853730,0
{consumergroup=adapter-service},1651853520,1588543
{consumergroup=adapter-service},1651853525,1588543
{consumergroup=adapter-service},1651853530,1588543
{consumergroup=adapter-service},1651853535,2999643
{consumergroup=adapter-service},1651853540,2999643
{consumergroup=adapter-service},1651853545,2999643
{consumergroup=adapter-service},1651853550,3832917
{consumergroup=adapter-service},1651853555,3832917
{consumergroup=adapter-service},1651853560,3832917
{consumergroup=adapter-service},1651853565,4551420
{consumergroup=adapter-service},1651853570,4551420
{consumergroup=adapter-service},1651853575,4551420
{consumergroup=adapter-service},1651853580,4901690
{consumergroup=adapter-service},1651853585,4901690
{consumergroup=adapter-service},1651853590,4901690
{consumergroup=adapter-service},1651853595,5527860
{consumergroup=adapter-service},1651853600,5527860
{consumergroup=adapter-service},1651853605,5527860
{consumergroup=adapter-service},1651853610,5776230
{consumergroup=adapter-service},1651853615,5776230
{consumergroup=adapter-service},1651853620,5776230
{consumergroup=adapter-service},1651853625,6398285
{consumergroup=adapter-service},1651853630,6398285
{consumergroup=adapter-service},1651853635,6398285
{consumergroup=adapter-service},1651853640,6710485
{consumergroup=adapter-service},1651853645,6710485
{consumergroup=adapter-service},1651853650,6710485
{consumergroup=adapter-service},1651853655,6973134
{consumergroup=adapter-service},1651853660,6973134
{consumergroup=adapter-service},1651853665,6973134
{consumergroup=adapter-service},1651853670,7408370
{consumergroup=adapter-service},1651853675,7408370
{consumergroup=adapter-service},1651853680,7408370
{consumergroup=adapter-service},1651853685,8010178
{consumergroup=adapter-service},1651853690,8010178
{consumergroup=adapter-service},1651853695,8010178
{consumergroup=adapter-service},1651853700,8287299
{consumergroup=adapter-service},1651853705,8287299
{consumergroup=adapter-service},1651853710,8287299
{consumergroup=adapter-service},1651853715,8676263
{consumergroup=adapter-service},1651853720,8676263
{consumergroup=adapter-service},1651853725,8676263
{consumergroup=adapter-service},1651853730,9178550
