labels,timestamp,value
{consumergroup=__strimzi-topic-operator-kstreams},1651862232,3
{consumergroup=__strimzi-topic-operator-kstreams},1651862237,3
{consumergroup=__strimzi-topic-operator-kstreams},1651862242,3
{consumergroup=__strimzi-topic-operator-kstreams},1651862247,14
{consumergroup=__strimzi-topic-operator-kstreams},1651862252,14
{consumergroup=__strimzi-topic-operator-kstreams},1651862257,14
{consumergroup=__strimzi-topic-operator-kstreams},1651862262,0
{consumergroup=__strimzi-topic-operator-kstreams},1651862267,0
{consumergroup=__strimzi-topic-operator-kstreams},1651862272,0
{consumergroup=__strimzi-topic-operator-kstreams},1651862277,0
{consumergroup=__strimzi-topic-operator-kstreams},1651862282,0
{consumergroup=__strimzi-topic-operator-kstreams},1651862287,0
{consumergroup=__strimzi-topic-operator-kstreams},1651862292,0
{consumergroup=__strimzi-topic-operator-kstreams},1651862297,0
{consumergroup=__strimzi-topic-operator-kstreams},1651862302,0
{consumergroup=__strimzi-topic-operator-kstreams},1651862307,0
{consumergroup=__strimzi-topic-operator-kstreams},1651862312,0
{consumergroup=__strimzi-topic-operator-kstreams},1651862317,0
{consumergroup=__strimzi-topic-operator-kstreams},1651862322,0
{consumergroup=__strimzi-topic-operator-kstreams},1651862327,0
{consumergroup=__strimzi-topic-operator-kstreams},1651862332,0
{consumergroup=__strimzi-topic-operator-kstreams},1651862337,0
{consumergroup=__strimzi-topic-operator-kstreams},1651862342,0
{consumergroup=__strimzi-topic-operator-kstreams},1651862347,0
{consumergroup=__strimzi-topic-operator-kstreams},1651862352,0
{consumergroup=__strimzi-topic-operator-kstreams},1651862357,0
{consumergroup=__strimzi-topic-operator-kstreams},1651862362,0
{consumergroup=__strimzi-topic-operator-kstreams},1651862367,0
{consumergroup=__strimzi-topic-operator-kstreams},1651862372,0
{consumergroup=__strimzi-topic-operator-kstreams},1651862377,0
{consumergroup=__strimzi-topic-operator-kstreams},1651862382,0
{consumergroup=__strimzi-topic-operator-kstreams},1651862387,0
{consumergroup=__strimzi-topic-operator-kstreams},1651862392,0
{consumergroup=__strimzi-topic-operator-kstreams},1651862397,0
{consumergroup=__strimzi-topic-operator-kstreams},1651862402,0
{consumergroup=__strimzi-topic-operator-kstreams},1651862407,0
{consumergroup=__strimzi-topic-operator-kstreams},1651862412,0
{consumergroup=__strimzi-topic-operator-kstreams},1651862417,0
{consumergroup=__strimzi-topic-operator-kstreams},1651862422,0
{consumergroup=__strimzi-topic-operator-kstreams},1651862427,0
{consumergroup=__strimzi-topic-operator-kstreams},1651862432,0
{consumergroup=__strimzi-topic-operator-kstreams},1651862437,0
{consumergroup=__strimzi-topic-operator-kstreams},1651862442,0
{consumergroup=__strimzi-topic-operator-kstreams},1651862447,0
{consumergroup=__strimzi-topic-operator-kstreams},1651862452,0
{consumergroup=__strimzi-topic-operator-kstreams},1651862457,0
{consumergroup=__strimzi-topic-operator-kstreams},1651862462,0
{consumergroup=__strimzi-topic-operator-kstreams},1651862467,0
{consumergroup=__strimzi-topic-operator-kstreams},1651862472,0
{consumergroup=__strimzi-topic-operator-kstreams},1651862477,0
{consumergroup=__strimzi-topic-operator-kstreams},1651862482,0
{consumergroup=__strimzi-topic-operator-kstreams},1651862487,0
{consumergroup=adapter-service},1651862262,156185
{consumergroup=adapter-service},1651862267,156185
{consumergroup=adapter-service},1651862272,156185
{consumergroup=adapter-service},1651862277,1978752
{consumergroup=adapter-service},1651862282,1978752
{consumergroup=adapter-service},1651862287,1978752
{consumergroup=adapter-service},1651862292,3370751
{consumergroup=adapter-service},1651862297,3370751
{consumergroup=adapter-service},1651862302,3370751
{consumergroup=adapter-service},1651862307,4333726
{consumergroup=adapter-service},1651862312,4333726
{consumergroup=adapter-service},1651862317,4333726
{consumergroup=adapter-service},1651862322,5426555
{consumergroup=adapter-service},1651862327,5426555
{consumergroup=adapter-service},1651862332,5426555
{consumergroup=adapter-service},1651862337,5996714
{consumergroup=adapter-service},1651862342,5996714
{consumergroup=adapter-service},1651862347,5996714
{consumergroup=adapter-service},1651862352,6531377
{consumergroup=adapter-service},1651862357,6531377
{consumergroup=adapter-service},1651862362,6531377
{consumergroup=adapter-service},1651862367,6875370
{consumergroup=adapter-service},1651862372,6875370
{consumergroup=adapter-service},1651862377,6875370
{consumergroup=adapter-service},1651862382,7214291
{consumergroup=adapter-service},1651862387,7214291
{consumergroup=adapter-service},1651862392,7214291
{consumergroup=adapter-service},1651862397,7577703
{consumergroup=adapter-service},1651862402,7577703
{consumergroup=adapter-service},1651862407,7577703
{consumergroup=adapter-service},1651862412,7825435
{consumergroup=adapter-service},1651862417,7825435
{consumergroup=adapter-service},1651862422,7825435
{consumergroup=adapter-service},1651862427,8070330
{consumergroup=adapter-service},1651862432,8070330
{consumergroup=adapter-service},1651862437,8070330
{consumergroup=adapter-service},1651862442,8490044
{consumergroup=adapter-service},1651862447,8490044
{consumergroup=adapter-service},1651862452,8490044
{consumergroup=adapter-service},1651862457,8885040
{consumergroup=adapter-service},1651862462,8885040
{consumergroup=adapter-service},1651862467,8885040
{consumergroup=adapter-service},1651862472,9390512
{consumergroup=adapter-service},1651862477,9390512
{consumergroup=adapter-service},1651862482,9390512
{consumergroup=adapter-service},1651862487,9557822
