labels,timestamp,value
{consumergroup=__strimzi-topic-operator-kstreams},1651867073,0
{consumergroup=__strimzi-topic-operator-kstreams},1651867083,16
{consumergroup=__strimzi-topic-operator-kstreams},1651867088,16
{consumergroup=__strimzi-topic-operator-kstreams},1651867093,16
{consumergroup=__strimzi-topic-operator-kstreams},1651867098,0
{consumergroup=__strimzi-topic-operator-kstreams},1651867103,0
{consumergroup=__strimzi-topic-operator-kstreams},1651867108,0
{consumergroup=__strimzi-topic-operator-kstreams},1651867113,0
{consumergroup=__strimzi-topic-operator-kstreams},1651867118,0
{consumergroup=__strimzi-topic-operator-kstreams},1651867123,0
{consumergroup=__strimzi-topic-operator-kstreams},1651867128,0
{consumergroup=__strimzi-topic-operator-kstreams},1651867133,0
{consumergroup=__strimzi-topic-operator-kstreams},1651867138,0
{consumergroup=__strimzi-topic-operator-kstreams},1651867143,0
{consumergroup=__strimzi-topic-operator-kstreams},1651867148,0
{consumergroup=__strimzi-topic-operator-kstreams},1651867153,0
{consumergroup=__strimzi-topic-operator-kstreams},1651867158,0
{consumergroup=__strimzi-topic-operator-kstreams},1651867163,0
{consumergroup=__strimzi-topic-operator-kstreams},1651867168,0
{consumergroup=__strimzi-topic-operator-kstreams},1651867173,0
{consumergroup=__strimzi-topic-operator-kstreams},1651867178,0
{consumergroup=__strimzi-topic-operator-kstreams},1651867183,0
{consumergroup=__strimzi-topic-operator-kstreams},1651867188,0
{consumergroup=__strimzi-topic-operator-kstreams},1651867193,0
{consumergroup=__strimzi-topic-operator-kstreams},1651867198,0
{consumergroup=__strimzi-topic-operator-kstreams},1651867203,0
{consumergroup=__strimzi-topic-operator-kstreams},1651867208,0
{consumergroup=__strimzi-topic-operator-kstreams},1651867213,0
{consumergroup=__strimzi-topic-operator-kstreams},1651867218,0
{consumergroup=__strimzi-topic-operator-kstreams},1651867223,0
{consumergroup=__strimzi-topic-operator-kstreams},1651867228,0
{consumergroup=__strimzi-topic-operator-kstreams},1651867233,0
{consumergroup=__strimzi-topic-operator-kstreams},1651867238,0
{consumergroup=__strimzi-topic-operator-kstreams},1651867243,0
{consumergroup=__strimzi-topic-operator-kstreams},1651867248,0
{consumergroup=__strimzi-topic-operator-kstreams},1651867253,0
{consumergroup=__strimzi-topic-operator-kstreams},1651867258,0
{consumergroup=__strimzi-topic-operator-kstreams},1651867263,0
{consumergroup=__strimzi-topic-operator-kstreams},1651867268,0
{consumergroup=__strimzi-topic-operator-kstreams},1651867273,0
{consumergroup=__strimzi-topic-operator-kstreams},1651867278,0
{consumergroup=__strimzi-topic-operator-kstreams},1651867283,0
{consumergroup=__strimzi-topic-operator-kstreams},1651867288,0
{consumergroup=__strimzi-topic-operator-kstreams},1651867293,0
{consumergroup=__strimzi-topic-operator-kstreams},1651867298,0
{consumergroup=__strimzi-topic-operator-kstreams},1651867303,0
{consumergroup=__strimzi-topic-operator-kstreams},1651867308,0
{consumergroup=__strimzi-topic-operator-kstreams},1651867313,0
{consumergroup=__strimzi-topic-operator-kstreams},1651867318,0
{consumergroup=__strimzi-topic-operator-kstreams},1651867323,0
{consumergroup=__strimzi-topic-operator-kstreams},1651867328,0
{consumergroup=__strimzi-topic-operator-kstreams},1651867333,0
{consumergroup=adapter-service},1651867073,2657472
{consumergroup=adapter-service},1651867113,280062
{consumergroup=adapter-service},1651867118,280062
{consumergroup=adapter-service},1651867123,280062
{consumergroup=adapter-service},1651867128,2341432
{consumergroup=adapter-service},1651867133,2341432
{consumergroup=adapter-service},1651867138,2341432
{consumergroup=adapter-service},1651867143,3388015
{consumergroup=adapter-service},1651867148,3388015
{consumergroup=adapter-service},1651867153,3388015
{consumergroup=adapter-service},1651867158,4250754
{consumergroup=adapter-service},1651867163,4250754
{consumergroup=adapter-service},1651867168,4250754
{consumergroup=adapter-service},1651867173,5004131
{consumergroup=adapter-service},1651867178,5004131
{consumergroup=adapter-service},1651867183,5004131
{consumergroup=adapter-service},1651867188,5383786
{consumergroup=adapter-service},1651867193,5383786
{consumergroup=adapter-service},1651867198,5383786
{consumergroup=adapter-service},1651867203,5786140
{consumergroup=adapter-service},1651867208,5786140
{consumergroup=adapter-service},1651867213,5786140
{consumergroup=adapter-service},1651867218,6021116
{consumergroup=adapter-service},1651867223,6021116
{consumergroup=adapter-service},1651867228,6021116
{consumergroup=adapter-service},1651867233,6392437
{consumergroup=adapter-service},1651867238,6392437
{consumergroup=adapter-service},1651867243,6392437
{consumergroup=adapter-service},1651867248,6468625
{consumergroup=adapter-service},1651867253,6468625
{consumergroup=adapter-service},1651867258,6468625
{consumergroup=adapter-service},1651867263,6804235
{consumergroup=adapter-service},1651867268,6804235
{consumergroup=adapter-service},1651867273,6804235
{consumergroup=adapter-service},1651867278,6867256
{consumergroup=adapter-service},1651867283,6867256
{consumergroup=adapter-service},1651867288,6867256
{consumergroup=adapter-service},1651867293,7555805
{consumergroup=adapter-service},1651867298,7555805
{consumergroup=adapter-service},1651867303,7555805
{consumergroup=adapter-service},1651867308,7351983
{consumergroup=adapter-service},1651867313,7351983
{consumergroup=adapter-service},1651867318,7351983
{consumergroup=adapter-service},1651867323,6798317
{consumergroup=adapter-service},1651867328,6798317
{consumergroup=adapter-service},1651867333,6798317
