labels,timestamp,value
{consumergroup=__strimzi-topic-operator-kstreams},1651868916,9
{consumergroup=__strimzi-topic-operator-kstreams},1651868921,9
{consumergroup=__strimzi-topic-operator-kstreams},1651868926,9
{consumergroup=__strimzi-topic-operator-kstreams},1651868931,0
{consumergroup=__strimzi-topic-operator-kstreams},1651868936,0
{consumergroup=__strimzi-topic-operator-kstreams},1651868941,0
{consumergroup=__strimzi-topic-operator-kstreams},1651868946,0
{consumergroup=__strimzi-topic-operator-kstreams},1651868951,0
{consumergroup=__strimzi-topic-operator-kstreams},1651868956,0
{consumergroup=__strimzi-topic-operator-kstreams},1651868961,0
{consumergroup=__strimzi-topic-operator-kstreams},1651868966,0
{consumergroup=__strimzi-topic-operator-kstreams},1651868971,0
{consumergroup=__strimzi-topic-operator-kstreams},1651868976,0
{consumergroup=__strimzi-topic-operator-kstreams},1651868981,0
{consumergroup=__strimzi-topic-operator-kstreams},1651868986,0
{consumergroup=__strimzi-topic-operator-kstreams},1651868991,0
{consumergroup=__strimzi-topic-operator-kstreams},1651868996,0
{consumergroup=__strimzi-topic-operator-kstreams},1651869001,0
{consumergroup=__strimzi-topic-operator-kstreams},1651869006,0
{consumergroup=__strimzi-topic-operator-kstreams},1651869011,0
{consumergroup=__strimzi-topic-operator-kstreams},1651869016,0
{consumergroup=__strimzi-topic-operator-kstreams},1651869021,0
{consumergroup=__strimzi-topic-operator-kstreams},1651869026,0
{consumergroup=__strimzi-topic-operator-kstreams},1651869031,0
{consumergroup=__strimzi-topic-operator-kstreams},1651869036,0
{consumergroup=__strimzi-topic-operator-kstreams},1651869041,0
{consumergroup=__strimzi-topic-operator-kstreams},1651869046,0
{consumergroup=__strimzi-topic-operator-kstreams},1651869051,0
{consumergroup=__strimzi-topic-operator-kstreams},1651869056,0
{consumergroup=__strimzi-topic-operator-kstreams},1651869061,0
{consumergroup=__strimzi-topic-operator-kstreams},1651869066,0
{consumergroup=__strimzi-topic-operator-kstreams},1651869071,0
{consumergroup=__strimzi-topic-operator-kstreams},1651869076,0
{consumergroup=__strimzi-topic-operator-kstreams},1651869081,0
{consumergroup=__strimzi-topic-operator-kstreams},1651869086,0
{consumergroup=__strimzi-topic-operator-kstreams},1651869091,0
{consumergroup=__strimzi-topic-operator-kstreams},1651869096,0
{consumergroup=__strimzi-topic-operator-kstreams},1651869101,0
{consumergroup=__strimzi-topic-operator-kstreams},1651869106,0
{consumergroup=__strimzi-topic-operator-kstreams},1651869111,0
{consumergroup=__strimzi-topic-operator-kstreams},1651869116,0
{consumergroup=__strimzi-topic-operator-kstreams},1651869121,0
{consumergroup=__strimzi-topic-operator-kstreams},1651869126,0
{consumergroup=__strimzi-topic-operator-kstreams},1651869131,0
{consumergroup=__strimzi-topic-operator-kstreams},1651869136,0
{consumergroup=__strimzi-topic-operator-kstreams},1651869141,0
{consumergroup=__strimzi-topic-operator-kstreams},1651869146,0
{consumergroup=__strimzi-topic-operator-kstreams},1651869151,0
{consumergroup=__strimzi-topic-operator-kstreams},1651869156,0
{consumergroup=__strimzi-topic-operator-kstreams},1651869161,0
{consumergroup=__strimzi-topic-operator-kstreams},1651869166,0
{consumergroup=__strimzi-topic-operator-kstreams},1651869171,0
{consumergroup=adapter-service},1651868946,12743
{consumergroup=adapter-service},1651868951,12743
{consumergroup=adapter-service},1651868956,12743
{consumergroup=adapter-service},1651868961,2521382
{consumergroup=adapter-service},1651868966,2521382
{consumergroup=adapter-service},1651868971,2521382
{consumergroup=adapter-service},1651868976,3121501
{consumergroup=adapter-service},1651868981,3121501
{consumergroup=adapter-service},1651868986,3121501
{consumergroup=adapter-service},1651868991,3670071
{consumergroup=adapter-service},1651868996,3670071
{consumergroup=adapter-service},1651869001,3670071
{consumergroup=adapter-service},1651869006,3951260
{consumergroup=adapter-service},1651869011,3951260
{consumergroup=adapter-service},1651869016,3951260
{consumergroup=adapter-service},1651869021,3955466
{consumergroup=adapter-service},1651869026,3955466
{consumergroup=adapter-service},1651869031,3955466
{consumergroup=adapter-service},1651869036,4371724
{consumergroup=adapter-service},1651869041,4371724
{consumergroup=adapter-service},1651869046,4371724
{consumergroup=adapter-service},1651869051,4684098
{consumergroup=adapter-service},1651869056,4684098
{consumergroup=adapter-service},1651869061,4684098
{consumergroup=adapter-service},1651869066,4723875
{consumergroup=adapter-service},1651869071,4723875
{consumergroup=adapter-service},1651869076,4723875
{consumergroup=adapter-service},1651869081,4744807
{consumergroup=adapter-service},1651869086,4744807
{consumergroup=adapter-service},1651869091,4744807
{consumergroup=adapter-service},1651869096,4930521
{consumergroup=adapter-service},1651869101,4930521
{consumergroup=adapter-service},1651869106,4930521
{consumergroup=adapter-service},1651869111,4614604
{consumergroup=adapter-service},1651869116,4614604
{consumergroup=adapter-service},1651869121,4614604
{consumergroup=adapter-service},1651869126,4967238
{consumergroup=adapter-service},1651869131,4967238
{consumergroup=adapter-service},1651869136,4967238
{consumergroup=adapter-service},1651869141,5164257
{consumergroup=adapter-service},1651869146,5164257
{consumergroup=adapter-service},1651869151,5164257
{consumergroup=adapter-service},1651869156,5462172
{consumergroup=adapter-service},1651869161,5462172
{consumergroup=adapter-service},1651869166,5462172
{consumergroup=adapter-service},1651869171,5428107
