labels,timestamp,value
{consumergroup=__strimzi-topic-operator-kstreams},1651863756,21
{consumergroup=__strimzi-topic-operator-kstreams},1651863761,21
{consumergroup=__strimzi-topic-operator-kstreams},1651863766,21
{consumergroup=__strimzi-topic-operator-kstreams},1651863771,0
{consumergroup=__strimzi-topic-operator-kstreams},1651863776,0
{consumergroup=__strimzi-topic-operator-kstreams},1651863781,0
{consumergroup=__strimzi-topic-operator-kstreams},1651863786,0
{consumergroup=__strimzi-topic-operator-kstreams},1651863791,0
{consumergroup=__strimzi-topic-operator-kstreams},1651863796,0
{consumergroup=__strimzi-topic-operator-kstreams},1651863801,0
{consumergroup=__strimzi-topic-operator-kstreams},1651863806,0
{consumergroup=__strimzi-topic-operator-kstreams},1651863811,0
{consumergroup=__strimzi-topic-operator-kstreams},1651863816,0
{consumergroup=__strimzi-topic-operator-kstreams},1651863821,0
{consumergroup=__strimzi-topic-operator-kstreams},1651863826,0
{consumergroup=__strimzi-topic-operator-kstreams},1651863831,0
{consumergroup=__strimzi-topic-operator-kstreams},1651863836,0
{consumergroup=__strimzi-topic-operator-kstreams},1651863841,0
{consumergroup=__strimzi-topic-operator-kstreams},1651863846,0
{consumergroup=__strimzi-topic-operator-kstreams},1651863851,0
{consumergroup=__strimzi-topic-operator-kstreams},1651863856,0
{consumergroup=__strimzi-topic-operator-kstreams},1651863861,0
{consumergroup=__strimzi-topic-operator-kstreams},1651863866,0
{consumergroup=__strimzi-topic-operator-kstreams},1651863871,0
{consumergroup=__strimzi-topic-operator-kstreams},1651863876,0
{consumergroup=__strimzi-topic-operator-kstreams},1651863881,0
{consumergroup=__strimzi-topic-operator-kstreams},1651863886,0
{consumergroup=__strimzi-topic-operator-kstreams},1651863891,0
{consumergroup=__strimzi-topic-operator-kstreams},1651863896,0
{consumergroup=__strimzi-topic-operator-kstreams},1651863901,0
{consumergroup=__strimzi-topic-operator-kstreams},1651863906,0
{consumergroup=__strimzi-topic-operator-kstreams},1651863911,0
{consumergroup=__strimzi-topic-operator-kstreams},1651863916,0
{consumergroup=__strimzi-topic-operator-kstreams},1651863921,0
{consumergroup=__strimzi-topic-operator-kstreams},1651863926,0
{consumergroup=__strimzi-topic-operator-kstreams},1651863931,0
{consumergroup=__strimzi-topic-operator-kstreams},1651863936,0
{consumergroup=__strimzi-topic-operator-kstreams},1651863941,0
{consumergroup=__strimzi-topic-operator-kstreams},1651863946,0
{consumergroup=__strimzi-topic-operator-kstreams},1651863951,0
{consumergroup=__strimzi-topic-operator-kstreams},1651863956,0
{consumergroup=__strimzi-topic-operator-kstreams},1651863961,0
{consumergroup=__strimzi-topic-operator-kstreams},1651863966,0
{consumergroup=__strimzi-topic-operator-kstreams},1651863971,0
{consumergroup=__strimzi-topic-operator-kstreams},1651863976,0
{consumergroup=__strimzi-topic-operator-kstreams},1651863981,0
{consumergroup=__strimzi-topic-operator-kstreams},1651863986,0
{consumergroup=__strimzi-topic-operator-kstreams},1651863991,0
{consumergroup=__strimzi-topic-operator-kstreams},1651863996,0
{consumergroup=adapter-service},1651863771,3262
{consumergroup=adapter-service},1651863776,3262
{consumergroup=adapter-service},1651863781,3262
{consumergroup=adapter-service},1651863786,1926535
{consumergroup=adapter-service},1651863791,1926535
{consumergroup=adapter-service},1651863796,1926535
{consumergroup=adapter-service},1651863801,3237154
{consumergroup=adapter-service},1651863806,3237154
{consumergroup=adapter-service},1651863811,3237154
{consumergroup=adapter-service},1651863816,4025286
{consumergroup=adapter-service},1651863821,4025286
{consumergroup=adapter-service},1651863826,4025286
{consumergroup=adapter-service},1651863831,4880272
{consumergroup=adapter-service},1651863836,4880272
{consumergroup=adapter-service},1651863841,4880272
{consumergroup=adapter-service},1651863846,5047778
{consumergroup=adapter-service},1651863851,5047778
{consumergroup=adapter-service},1651863856,5047778
{consumergroup=adapter-service},1651863861,5061498
{consumergroup=adapter-service},1651863866,5061498
{consumergroup=adapter-service},1651863871,5061498
{consumergroup=adapter-service},1651863876,5019802
{consumergroup=adapter-service},1651863881,5019802
{consumergroup=adapter-service},1651863886,5019802
{consumergroup=adapter-service},1651863891,4918325
{consumergroup=adapter-service},1651863896,4918325
{consumergroup=adapter-service},1651863901,4918325
{consumergroup=adapter-service},1651863906,4730336
{consumergroup=adapter-service},1651863911,4730336
{consumergroup=adapter-service},1651863916,4730336
{consumergroup=adapter-service},1651863921,4580325
{consumergroup=adapter-service},1651863926,4580325
{consumergroup=adapter-service},1651863931,4580325
{consumergroup=adapter-service},1651863936,4394791
{consumergroup=adapter-service},1651863941,4394791
{consumergroup=adapter-service},1651863946,4394791
{consumergroup=adapter-service},1651863951,4266499
{consumergroup=adapter-service},1651863956,4266499
{consumergroup=adapter-service},1651863961,4266499
{consumergroup=adapter-service},1651863966,3955502
{consumergroup=adapter-service},1651863971,3955502
{consumergroup=adapter-service},1651863976,3955502
{consumergroup=adapter-service},1651863981,3926400
{consumergroup=adapter-service},1651863986,3926400
{consumergroup=adapter-service},1651863991,3926400
{consumergroup=adapter-service},1651863996,3696057
