labels,timestamp,value
{consumergroup=__strimzi-topic-operator-kstreams},1651858953,0
{consumergroup=__strimzi-topic-operator-kstreams},1651858958,0
{consumergroup=__strimzi-topic-operator-kstreams},1651858963,0
{consumergroup=__strimzi-topic-operator-kstreams},1651858968,0
{consumergroup=__strimzi-topic-operator-kstreams},1651858973,0
{consumergroup=__strimzi-topic-operator-kstreams},1651858978,0
{consumergroup=__strimzi-topic-operator-kstreams},1651858983,0
{consumergroup=__strimzi-topic-operator-kstreams},1651858988,0
{consumergroup=__strimzi-topic-operator-kstreams},1651858993,0
{consumergroup=__strimzi-topic-operator-kstreams},1651858998,0
{consumergroup=__strimzi-topic-operator-kstreams},1651859003,0
{consumergroup=__strimzi-topic-operator-kstreams},1651859008,0
{consumergroup=__strimzi-topic-operator-kstreams},1651859013,0
{consumergroup=__strimzi-topic-operator-kstreams},1651859018,0
{consumergroup=__strimzi-topic-operator-kstreams},1651859023,0
{consumergroup=__strimzi-topic-operator-kstreams},1651859028,0
{consumergroup=__strimzi-topic-operator-kstreams},1651859033,0
{consumergroup=__strimzi-topic-operator-kstreams},1651859038,0
{consumergroup=__strimzi-topic-operator-kstreams},1651859043,0
{consumergroup=__strimzi-topic-operator-kstreams},1651859048,0
{consumergroup=__strimzi-topic-operator-kstreams},1651859053,0
{consumergroup=__strimzi-topic-operator-kstreams},1651859058,0
{consumergroup=__strimzi-topic-operator-kstreams},1651859063,0
{consumergroup=__strimzi-topic-operator-kstreams},1651859068,0
{consumergroup=__strimzi-topic-operator-kstreams},1651859073,0
{consumergroup=__strimzi-topic-operator-kstreams},1651859078,0
{consumergroup=__strimzi-topic-operator-kstreams},1651859083,0
{consumergroup=__strimzi-topic-operator-kstreams},1651859088,0
{consumergroup=__strimzi-topic-operator-kstreams},1651859093,0
{consumergroup=__strimzi-topic-operator-kstreams},1651859098,0
{consumergroup=__strimzi-topic-operator-kstreams},1651859103,0
{consumergroup=__strimzi-topic-operator-kstreams},1651859108,0
{consumergroup=__strimzi-topic-operator-kstreams},1651859113,0
{consumergroup=__strimzi-topic-operator-kstreams},1651859118,0
{consumergroup=__strimzi-topic-operator-kstreams},1651859123,0
{consumergroup=__strimzi-topic-operator-kstreams},1651859128,0
{consumergroup=__strimzi-topic-operator-kstreams},1651859133,0
{consumergroup=__strimzi-topic-operator-kstreams},1651859138,0
{consumergroup=__strimzi-topic-operator-kstreams},1651859143,0
{consumergroup=__strimzi-topic-operator-kstreams},1651859148,0
{consumergroup=__strimzi-topic-operator-kstreams},1651859153,0
{consumergroup=__strimzi-topic-operator-kstreams},1651859158,0
{consumergroup=__strimzi-topic-operator-kstreams},1651859163,0
{consumergroup=__strimzi-topic-operator-kstreams},1651859168,0
{consumergroup=__strimzi-topic-operator-kstreams},1651859173,0
{consumergroup=__strimzi-topic-operator-kstreams},1651859178,0
{consumergroup=__strimzi-topic-operator-kstreams},1651859183,0
{consumergroup=__strimzi-topic-operator-kstreams},1651859188,0
{consumergroup=__strimzi-topic-operator-kstreams},1651859193,0
{consumergroup=__strimzi-topic-operator-kstreams},1651859198,0
{consumergroup=adapter-service},1651858983,1323841
{consumergroup=adapter-service},1651858988,1323841
{consumergroup=adapter-service},1651858993,1323841
{consumergroup=adapter-service},1651858998,4257614
{consumergroup=adapter-service},1651859003,4257614
{consumergroup=adapter-service},1651859008,4257614
{consumergroup=adapter-service},1651859013,4275745
{consumergroup=adapter-service},1651859018,4275745
{consumergroup=adapter-service},1651859023,4275745
{consumergroup=adapter-service},1651859028,4731477
{consumergroup=adapter-service},1651859033,4731477
{consumergroup=adapter-service},1651859038,4731477
{consumergroup=adapter-service},1651859043,5015034
{consumergroup=adapter-service},1651859048,5015034
{consumergroup=adapter-service},1651859053,5015034
{consumergroup=adapter-service},1651859058,4684961
{consumergroup=adapter-service},1651859063,4684961
{consumergroup=adapter-service},1651859068,4684961
{consumergroup=adapter-service},1651859073,4635312
{consumergroup=adapter-service},1651859078,4635312
{consumergroup=adapter-service},1651859083,4635312
{consumergroup=adapter-service},1651859088,5152414
{consumergroup=adapter-service},1651859093,5152414
{consumergroup=adapter-service},1651859098,5152414
{consumergroup=adapter-service},1651859103,5521089
{consumergroup=adapter-service},1651859108,5521089
{consumergroup=adapter-service},1651859113,5521089
{consumergroup=adapter-service},1651859118,5862549
{consumergroup=adapter-service},1651859123,5862549
{consumergroup=adapter-service},1651859128,5862549
{consumergroup=adapter-service},1651859133,5986294
{consumergroup=adapter-service},1651859138,5986294
{consumergroup=adapter-service},1651859143,5986294
{consumergroup=adapter-service},1651859148,6389429
{consumergroup=adapter-service},1651859153,6389429
{consumergroup=adapter-service},1651859158,6389429
{consumergroup=adapter-service},1651859163,6493118
{consumergroup=adapter-service},1651859168,6493118
{consumergroup=adapter-service},1651859173,6493118
{consumergroup=adapter-service},1651859178,6901601
{consumergroup=adapter-service},1651859183,6901601
{consumergroup=adapter-service},1651859188,6901601
{consumergroup=adapter-service},1651859193,7194718
{consumergroup=adapter-service},1651859198,7194718
