labels,timestamp,value
{consumergroup=__strimzi-topic-operator-kstreams},1651854397,16
{consumergroup=__strimzi-topic-operator-kstreams},1651854402,16
{consumergroup=__strimzi-topic-operator-kstreams},1651854407,16
{consumergroup=__strimzi-topic-operator-kstreams},1651854412,0
{consumergroup=__strimzi-topic-operator-kstreams},1651854417,0
{consumergroup=__strimzi-topic-operator-kstreams},1651854422,0
{consumergroup=__strimzi-topic-operator-kstreams},1651854427,0
{consumergroup=__strimzi-topic-operator-kstreams},1651854432,0
{consumergroup=__strimzi-topic-operator-kstreams},1651854437,0
{consumergroup=__strimzi-topic-operator-kstreams},1651854442,0
{consumergroup=__strimzi-topic-operator-kstreams},1651854447,0
{consumergroup=__strimzi-topic-operator-kstreams},1651854452,0
{consumergroup=__strimzi-topic-operator-kstreams},1651854457,0
{consumergroup=__strimzi-topic-operator-kstreams},1651854462,0
{consumergroup=__strimzi-topic-operator-kstreams},1651854467,0
{consumergroup=__strimzi-topic-operator-kstreams},1651854472,0
{consumergroup=__strimzi-topic-operator-kstreams},1651854477,0
{consumergroup=__strimzi-topic-operator-kstreams},1651854482,0
{consumergroup=__strimzi-topic-operator-kstreams},1651854487,0
{consumergroup=__strimzi-topic-operator-kstreams},1651854492,0
{consumergroup=__strimzi-topic-operator-kstreams},1651854497,0
{consumergroup=__strimzi-topic-operator-kstreams},1651854502,0
{consumergroup=__strimzi-topic-operator-kstreams},1651854507,0
{consumergroup=__strimzi-topic-operator-kstreams},1651854512,0
{consumergroup=__strimzi-topic-operator-kstreams},1651854517,0
{consumergroup=__strimzi-topic-operator-kstreams},1651854522,0
{consumergroup=__strimzi-topic-operator-kstreams},1651854527,0
{consumergroup=__strimzi-topic-operator-kstreams},1651854532,0
{consumergroup=__strimzi-topic-operator-kstreams},1651854537,0
{consumergroup=__strimzi-topic-operator-kstreams},1651854542,0
{consumergroup=__strimzi-topic-operator-kstreams},1651854547,0
{consumergroup=__strimzi-topic-operator-kstreams},1651854552,0
{consumergroup=__strimzi-topic-operator-kstreams},1651854557,0
{consumergroup=__strimzi-topic-operator-kstreams},1651854562,0
{consumergroup=__strimzi-topic-operator-kstreams},1651854567,0
{consumergroup=__strimzi-topic-operator-kstreams},1651854572,0
{consumergroup=__strimzi-topic-operator-kstreams},1651854577,0
{consumergroup=__strimzi-topic-operator-kstreams},1651854582,0
{consumergroup=__strimzi-topic-operator-kstreams},1651854587,0
{consumergroup=__strimzi-topic-operator-kstreams},1651854592,0
{consumergroup=__strimzi-topic-operator-kstreams},1651854597,0
{consumergroup=__strimzi-topic-operator-kstreams},1651854602,0
{consumergroup=__strimzi-topic-operator-kstreams},1651854607,0
{consumergroup=__strimzi-topic-operator-kstreams},1651854612,0
{consumergroup=__strimzi-topic-operator-kstreams},1651854617,0
{consumergroup=__strimzi-topic-operator-kstreams},1651854622,0
{consumergroup=__strimzi-topic-operator-kstreams},1651854627,0
{consumergroup=__strimzi-topic-operator-kstreams},1651854632,0
{consumergroup=__strimzi-topic-operator-kstreams},1651854637,0
{consumergroup=__strimzi-topic-operator-kstreams},1651854642,0
{consumergroup=__strimzi-topic-operator-kstreams},1651854647,0
{consumergroup=__strimzi-topic-operator-kstreams},1651854652,0
{consumergroup=adapter-service},1651854427,318798
{consumergroup=adapter-service},1651854432,318798
{consumergroup=adapter-service},1651854437,318798
{consumergroup=adapter-service},1651854442,1958290
{consumergroup=adapter-service},1651854447,1958290
{consumergroup=adapter-service},1651854452,1958290
{consumergroup=adapter-service},1651854457,3307346
{consumergroup=adapter-service},1651854462,3307346
{consumergroup=adapter-service},1651854467,3307346
{consumergroup=adapter-service},1651854472,3910341
{consumergroup=adapter-service},1651854477,3910341
{consumergroup=adapter-service},1651854482,3910341
{consumergroup=adapter-service},1651854487,4620918
{consumergroup=adapter-service},1651854492,4620918
{consumergroup=adapter-service},1651854497,4620918
{consumergroup=adapter-service},1651854502,4463639
{consumergroup=adapter-service},1651854507,4463639
{consumergroup=adapter-service},1651854512,4463639
{consumergroup=adapter-service},1651854517,4521997
{consumergroup=adapter-service},1651854522,4521997
{consumergroup=adapter-service},1651854527,4521997
{consumergroup=adapter-service},1651854532,4114543
{consumergroup=adapter-service},1651854537,4114543
{consumergroup=adapter-service},1651854542,4114543
{consumergroup=adapter-service},1651854547,4297628
{consumergroup=adapter-service},1651854552,4297628
{consumergroup=adapter-service},1651854557,4297628
{consumergroup=adapter-service},1651854562,4322660
{consumergroup=adapter-service},1651854567,4322660
{consumergroup=adapter-service},1651854572,4322660
{consumergroup=adapter-service},1651854577,3789376
{consumergroup=adapter-service},1651854582,3789376
{consumergroup=adapter-service},1651854587,3789376
{consumergroup=adapter-service},1651854592,3667880
{consumergroup=adapter-service},1651854597,3667880
{consumergroup=adapter-service},1651854602,3667880
{consumergroup=adapter-service},1651854607,3385018
{consumergroup=adapter-service},1651854612,3385018
{consumergroup=adapter-service},1651854617,3385018
{consumergroup=adapter-service},1651854622,3109514
{consumergroup=adapter-service},1651854627,3109514
{consumergroup=adapter-service},1651854632,3109514
{consumergroup=adapter-service},1651854637,3033052
{consumergroup=adapter-service},1651854642,3033052
{consumergroup=adapter-service},1651854647,3033052
{consumergroup=adapter-service},1651854652,2730762
