labels,timestamp,value
{consumergroup=__strimzi-topic-operator-kstreams},1651860735,16
{consumergroup=__strimzi-topic-operator-kstreams},1651860740,16
{consumergroup=__strimzi-topic-operator-kstreams},1651860745,16
{consumergroup=__strimzi-topic-operator-kstreams},1651860750,19
{consumergroup=__strimzi-topic-operator-kstreams},1651860755,19
{consumergroup=__strimzi-topic-operator-kstreams},1651860760,19
{consumergroup=__strimzi-topic-operator-kstreams},1651860765,0
{consumergroup=__strimzi-topic-operator-kstreams},1651860770,0
{consumergroup=__strimzi-topic-operator-kstreams},1651860775,0
{consumergroup=__strimzi-topic-operator-kstreams},1651860780,0
{consumergroup=__strimzi-topic-operator-kstreams},1651860785,0
{consumergroup=__strimzi-topic-operator-kstreams},1651860790,0
{consumergroup=__strimzi-topic-operator-kstreams},1651860795,0
{consumergroup=__strimzi-topic-operator-kstreams},1651860800,0
{consumergroup=__strimzi-topic-operator-kstreams},1651860805,0
{consumergroup=__strimzi-topic-operator-kstreams},1651860810,0
{consumergroup=__strimzi-topic-operator-kstreams},1651860815,0
{consumergroup=__strimzi-topic-operator-kstreams},1651860820,0
{consumergroup=__strimzi-topic-operator-kstreams},1651860825,0
{consumergroup=__strimzi-topic-operator-kstreams},1651860830,0
{consumergroup=__strimzi-topic-operator-kstreams},1651860835,0
{consumergroup=__strimzi-topic-operator-kstreams},1651860840,0
{consumergroup=__strimzi-topic-operator-kstreams},1651860845,0
{consumergroup=__strimzi-topic-operator-kstreams},1651860850,0
{consumergroup=__strimzi-topic-operator-kstreams},1651860855,0
{consumergroup=__strimzi-topic-operator-kstreams},1651860860,0
{consumergroup=__strimzi-topic-operator-kstreams},1651860865,0
{consumergroup=__strimzi-topic-operator-kstreams},1651860870,0
{consumergroup=__strimzi-topic-operator-kstreams},1651860875,0
{consumergroup=__strimzi-topic-operator-kstreams},1651860880,0
{consumergroup=__strimzi-topic-operator-kstreams},1651860885,0
{consumergroup=__strimzi-topic-operator-kstreams},1651860890,0
{consumergroup=__strimzi-topic-operator-kstreams},1651860895,0
{consumergroup=__strimzi-topic-operator-kstreams},1651860900,0
{consumergroup=__strimzi-topic-operator-kstreams},1651860905,0
{consumergroup=__strimzi-topic-operator-kstreams},1651860910,0
{consumergroup=__strimzi-topic-operator-kstreams},1651860915,0
{consumergroup=__strimzi-topic-operator-kstreams},1651860920,0
{consumergroup=__strimzi-topic-operator-kstreams},1651860925,0
{consumergroup=__strimzi-topic-operator-kstreams},1651860930,0
{consumergroup=__strimzi-topic-operator-kstreams},1651860935,0
{consumergroup=__strimzi-topic-operator-kstreams},1651860940,0
{consumergroup=__strimzi-topic-operator-kstreams},1651860945,0
{consumergroup=__strimzi-topic-operator-kstreams},1651860950,0
{consumergroup=__strimzi-topic-operator-kstreams},1651860955,0
{consumergroup=__strimzi-topic-operator-kstreams},1651860960,0
{consumergroup=__strimzi-topic-operator-kstreams},1651860965,0
{consumergroup=__strimzi-topic-operator-kstreams},1651860970,0
{consumergroup=__strimzi-topic-operator-kstreams},1651860975,0
{consumergroup=__strimzi-topic-operator-kstreams},1651860980,0
{consumergroup=__strimzi-topic-operator-kstreams},1651860985,0
{consumergroup=adapter-service},1651860765,741418
{consumergroup=adapter-service},1651860770,741418
{consumergroup=adapter-service},1651860775,741418
{consumergroup=adapter-service},1651860780,2214107
{consumergroup=adapter-service},1651860785,2214107
{consumergroup=adapter-service},1651860790,2214107
{consumergroup=adapter-service},1651860795,3362180
{consumergroup=adapter-service},1651860800,3362180
{consumergroup=adapter-service},1651860805,3362180
{consumergroup=adapter-service},1651860810,4127686
{consumergroup=adapter-service},1651860815,4127686
{consumergroup=adapter-service},1651860820,4127686
{consumergroup=adapter-service},1651860825,4908646
{consumergroup=adapter-service},1651860830,4908646
{consumergroup=adapter-service},1651860835,4908646
{consumergroup=adapter-service},1651860840,5109066
{consumergroup=adapter-service},1651860845,5109066
{consumergroup=adapter-service},1651860850,5109066
{consumergroup=adapter-service},1651860855,5316854
{consumergroup=adapter-service},1651860860,5316854
{consumergroup=adapter-service},1651860865,5316854
{consumergroup=adapter-service},1651860870,5482946
{consumergroup=adapter-service},1651860875,5482946
{consumergroup=adapter-service},1651860880,5482946
{consumergroup=adapter-service},1651860885,5394430
{consumergroup=adapter-service},1651860890,5394430
{consumergroup=adapter-service},1651860895,5394430
{consumergroup=adapter-service},1651860900,5354420
{consumergroup=adapter-service},1651860905,5354420
{consumergroup=adapter-service},1651860910,5354420
{consumergroup=adapter-service},1651860915,5213403
{consumergroup=adapter-service},1651860920,5213403
{consumergroup=adapter-service},1651860925,5213403
{consumergroup=adapter-service},1651860930,5000233
{consumergroup=adapter-service},1651860935,5000233
{consumergroup=adapter-service},1651860940,5000233
{consumergroup=adapter-service},1651860945,5118579
{consumergroup=adapter-service},1651860950,5118579
{consumergroup=adapter-service},1651860955,5118579
{consumergroup=adapter-service},1651860960,4999454
{consumergroup=adapter-service},1651860965,4999454
{consumergroup=adapter-service},1651860970,4999454
{consumergroup=adapter-service},1651860975,4981795
{consumergroup=adapter-service},1651860980,4981795
{consumergroup=adapter-service},1651860985,4981795
