labels,timestamp,value
{consumergroup=__strimzi-topic-operator-kstreams},1651860142,12
{consumergroup=__strimzi-topic-operator-kstreams},1651860147,12
{consumergroup=__strimzi-topic-operator-kstreams},1651860152,12
{consumergroup=__strimzi-topic-operator-kstreams},1651860157,0
{consumergroup=__strimzi-topic-operator-kstreams},1651860162,0
{consumergroup=__strimzi-topic-operator-kstreams},1651860167,0
{consumergroup=__strimzi-topic-operator-kstreams},1651860172,0
{consumergroup=__strimzi-topic-operator-kstreams},1651860177,0
{consumergroup=__strimzi-topic-operator-kstreams},1651860182,0
{consumergroup=__strimzi-topic-operator-kstreams},1651860187,0
{consumergroup=__strimzi-topic-operator-kstreams},1651860192,0
{consumergroup=__strimzi-topic-operator-kstreams},1651860197,0
{consumergroup=__strimzi-topic-operator-kstreams},1651860202,0
{consumergroup=__strimzi-topic-operator-kstreams},1651860207,0
{consumergroup=__strimzi-topic-operator-kstreams},1651860212,0
{consumergroup=__strimzi-topic-operator-kstreams},1651860217,0
{consumergroup=__strimzi-topic-operator-kstreams},1651860222,0
{consumergroup=__strimzi-topic-operator-kstreams},1651860227,0
{consumergroup=__strimzi-topic-operator-kstreams},1651860232,0
{consumergroup=__strimzi-topic-operator-kstreams},1651860237,0
{consumergroup=__strimzi-topic-operator-kstreams},1651860242,0
{consumergroup=__strimzi-topic-operator-kstreams},1651860247,0
{consumergroup=__strimzi-topic-operator-kstreams},1651860252,0
{consumergroup=__strimzi-topic-operator-kstreams},1651860257,0
{consumergroup=__strimzi-topic-operator-kstreams},1651860262,0
{consumergroup=__strimzi-topic-operator-kstreams},1651860267,0
{consumergroup=__strimzi-topic-operator-kstreams},1651860272,0
{consumergroup=__strimzi-topic-operator-kstreams},1651860277,0
{consumergroup=__strimzi-topic-operator-kstreams},1651860282,0
{consumergroup=__strimzi-topic-operator-kstreams},1651860287,0
{consumergroup=__strimzi-topic-operator-kstreams},1651860292,0
{consumergroup=__strimzi-topic-operator-kstreams},1651860297,0
{consumergroup=__strimzi-topic-operator-kstreams},1651860302,0
{consumergroup=__strimzi-topic-operator-kstreams},1651860307,0
{consumergroup=__strimzi-topic-operator-kstreams},1651860312,0
{consumergroup=__strimzi-topic-operator-kstreams},1651860317,0
{consumergroup=__strimzi-topic-operator-kstreams},1651860322,0
{consumergroup=__strimzi-topic-operator-kstreams},1651860327,0
{consumergroup=__strimzi-topic-operator-kstreams},1651860332,0
{consumergroup=__strimzi-topic-operator-kstreams},1651860337,0
{consumergroup=__strimzi-topic-operator-kstreams},1651860342,0
{consumergroup=__strimzi-topic-operator-kstreams},1651860347,0
{consumergroup=__strimzi-topic-operator-kstreams},1651860352,0
{consumergroup=__strimzi-topic-operator-kstreams},1651860357,0
{consumergroup=__strimzi-topic-operator-kstreams},1651860362,0
{consumergroup=__strimzi-topic-operator-kstreams},1651860367,0
{consumergroup=__strimzi-topic-operator-kstreams},1651860372,0
{consumergroup=__strimzi-topic-operator-kstreams},1651860377,0
{consumergroup=__strimzi-topic-operator-kstreams},1651860382,0
{consumergroup=__strimzi-topic-operator-kstreams},1651860387,0
{consumergroup=__strimzi-topic-operator-kstreams},1651860392,0
{consumergroup=adapter-service},1651860172,570544
{consumergroup=adapter-service},1651860177,570544
{consumergroup=adapter-service},1651860182,570544
{consumergroup=adapter-service},1651860187,1974576
{consumergroup=adapter-service},1651860192,1974576
{consumergroup=adapter-service},1651860197,1974576
{consumergroup=adapter-service},1651860202,3043803
{consumergroup=adapter-service},1651860207,3043803
{consumergroup=adapter-service},1651860212,3043803
{consumergroup=adapter-service},1651860217,3659459
{consumergroup=adapter-service},1651860222,3659459
{consumergroup=adapter-service},1651860227,3659459
{consumergroup=adapter-service},1651860232,4294641
{consumergroup=adapter-service},1651860237,4294641
{consumergroup=adapter-service},1651860242,4294641
{consumergroup=adapter-service},1651860247,4388861
{consumergroup=adapter-service},1651860252,4388861
{consumergroup=adapter-service},1651860257,4388861
{consumergroup=adapter-service},1651860262,4472809
{consumergroup=adapter-service},1651860267,4472809
{consumergroup=adapter-service},1651860272,4472809
{consumergroup=adapter-service},1651860277,4284401
{consumergroup=adapter-service},1651860282,4284401
{consumergroup=adapter-service},1651860287,4284401
{consumergroup=adapter-service},1651860292,4188585
{consumergroup=adapter-service},1651860297,4188585
{consumergroup=adapter-service},1651860302,4188585
{consumergroup=adapter-service},1651860307,4293236
{consumergroup=adapter-service},1651860312,4293236
{consumergroup=adapter-service},1651860317,4293236
{consumergroup=adapter-service},1651860322,3998932
{consumergroup=adapter-service},1651860327,3998932
{consumergroup=adapter-service},1651860332,3998932
{consumergroup=adapter-service},1651860337,3774689
{consumergroup=adapter-service},1651860342,3774689
{consumergroup=adapter-service},1651860347,3774689
{consumergroup=adapter-service},1651860352,3442528
{consumergroup=adapter-service},1651860357,3442528
{consumergroup=adapter-service},1651860362,3442528
{consumergroup=adapter-service},1651860367,3219382
{consumergroup=adapter-service},1651860372,3219382
{consumergroup=adapter-service},1651860377,3219382
{consumergroup=adapter-service},1651860382,2973894
{consumergroup=adapter-service},1651860387,2973894
{consumergroup=adapter-service},1651860392,2973894
