labels,timestamp,value
{consumergroup=__strimzi-topic-operator-kstreams},1651856833,14
{consumergroup=__strimzi-topic-operator-kstreams},1651856838,14
{consumergroup=__strimzi-topic-operator-kstreams},1651856843,14
{consumergroup=__strimzi-topic-operator-kstreams},1651856848,0
{consumergroup=__strimzi-topic-operator-kstreams},1651856853,0
{consumergroup=__strimzi-topic-operator-kstreams},1651856858,0
{consumergroup=__strimzi-topic-operator-kstreams},1651856863,0
{consumergroup=__strimzi-topic-operator-kstreams},1651856868,0
{consumergroup=__strimzi-topic-operator-kstreams},1651856873,0
{consumergroup=__strimzi-topic-operator-kstreams},1651856878,0
{consumergroup=__strimzi-topic-operator-kstreams},1651856883,0
{consumergroup=__strimzi-topic-operator-kstreams},1651856888,0
{consumergroup=__strimzi-topic-operator-kstreams},1651856893,0
{consumergroup=__strimzi-topic-operator-kstreams},1651856898,0
{consumergroup=__strimzi-topic-operator-kstreams},1651856903,0
{consumergroup=__strimzi-topic-operator-kstreams},1651856908,0
{consumergroup=__strimzi-topic-operator-kstreams},1651856913,0
{consumergroup=__strimzi-topic-operator-kstreams},1651856918,0
{consumergroup=__strimzi-topic-operator-kstreams},1651856923,0
{consumergroup=__strimzi-topic-operator-kstreams},1651856928,0
{consumergroup=__strimzi-topic-operator-kstreams},1651856933,0
{consumergroup=__strimzi-topic-operator-kstreams},1651856938,0
{consumergroup=__strimzi-topic-operator-kstreams},1651856943,0
{consumergroup=__strimzi-topic-operator-kstreams},1651856948,0
{consumergroup=__strimzi-topic-operator-kstreams},1651856953,0
{consumergroup=__strimzi-topic-operator-kstreams},1651856958,0
{consumergroup=__strimzi-topic-operator-kstreams},1651856963,0
{consumergroup=__strimzi-topic-operator-kstreams},1651856968,0
{consumergroup=__strimzi-topic-operator-kstreams},1651856973,0
{consumergroup=__strimzi-topic-operator-kstreams},1651856978,0
{consumergroup=__strimzi-topic-operator-kstreams},1651856983,0
{consumergroup=__strimzi-topic-operator-kstreams},1651856988,0
{consumergroup=__strimzi-topic-operator-kstreams},1651856993,0
{consumergroup=__strimzi-topic-operator-kstreams},1651856998,0
{consumergroup=__strimzi-topic-operator-kstreams},1651857003,0
{consumergroup=__strimzi-topic-operator-kstreams},1651857008,0
{consumergroup=__strimzi-topic-operator-kstreams},1651857013,0
{consumergroup=__strimzi-topic-operator-kstreams},1651857018,0
{consumergroup=__strimzi-topic-operator-kstreams},1651857023,0
{consumergroup=__strimzi-topic-operator-kstreams},1651857028,0
{consumergroup=__strimzi-topic-operator-kstreams},1651857033,0
{consumergroup=__strimzi-topic-operator-kstreams},1651857038,0
{consumergroup=__strimzi-topic-operator-kstreams},1651857043,0
{consumergroup=__strimzi-topic-operator-kstreams},1651857048,0
{consumergroup=__strimzi-topic-operator-kstreams},1651857053,0
{consumergroup=__strimzi-topic-operator-kstreams},1651857058,0
{consumergroup=__strimzi-topic-operator-kstreams},1651857063,0
{consumergroup=__strimzi-topic-operator-kstreams},1651857068,0
{consumergroup=__strimzi-topic-operator-kstreams},1651857073,0
{consumergroup=__strimzi-topic-operator-kstreams},1651857078,0
{consumergroup=__strimzi-topic-operator-kstreams},1651857083,0
{consumergroup=adapter-service},1651856863,1046219
{consumergroup=adapter-service},1651856868,1046219
{consumergroup=adapter-service},1651856873,1046219
{consumergroup=adapter-service},1651856878,1298337
{consumergroup=adapter-service},1651856883,1298337
{consumergroup=adapter-service},1651856888,1298337
{consumergroup=adapter-service},1651856893,1371670
{consumergroup=adapter-service},1651856898,1371670
{consumergroup=adapter-service},1651856903,1371670
{consumergroup=adapter-service},1651856908,1074880
{consumergroup=adapter-service},1651856913,1074880
{consumergroup=adapter-service},1651856918,1074880
{consumergroup=adapter-service},1651856923,910623
{consumergroup=adapter-service},1651856928,910623
{consumergroup=adapter-service},1651856933,910623
{consumergroup=adapter-service},1651856938,819661
{consumergroup=adapter-service},1651856943,819661
{consumergroup=adapter-service},1651856948,819661
{consumergroup=adapter-service},1651856953,582269
{consumergroup=adapter-service},1651856958,582269
{consumergroup=adapter-service},1651856963,582269
{consumergroup=adapter-service},1651856968,251526
{consumergroup=adapter-service},1651856973,251526
{consumergroup=adapter-service},1651856978,251526
{consumergroup=adapter-service},1651856983,185173
{consumergroup=adapter-service},1651856988,185173
{consumergroup=adapter-service},1651856993,185173
{consumergroup=adapter-service},1651856998,337447
{consumergroup=adapter-service},1651857003,337447
{consumergroup=adapter-service},1651857008,337447
{consumergroup=adapter-service},1651857013,160423
{consumergroup=adapter-service},1651857018,160423
{consumergroup=adapter-service},1651857023,160423
{consumergroup=adapter-service},1651857028,141788
{consumergroup=adapter-service},1651857033,141788
{consumergroup=adapter-service},1651857038,141788
{consumergroup=adapter-service},1651857043,117192
{consumergroup=adapter-service},1651857048,117192
{consumergroup=adapter-service},1651857053,117192
{consumergroup=adapter-service},1651857058,136884
{consumergroup=adapter-service},1651857063,136884
{consumergroup=adapter-service},1651857068,136884
{consumergroup=adapter-service},1651857073,128604
{consumergroup=adapter-service},1651857078,128604
{consumergroup=adapter-service},1651857083,128604
