labels,timestamp,value
{consumergroup=__strimzi-topic-operator-kstreams},1651861927,2
{consumergroup=__strimzi-topic-operator-kstreams},1651861932,2
{consumergroup=__strimzi-topic-operator-kstreams},1651861937,2
{consumergroup=__strimzi-topic-operator-kstreams},1651861942,16
{consumergroup=__strimzi-topic-operator-kstreams},1651861947,16
{consumergroup=__strimzi-topic-operator-kstreams},1651861952,16
{consumergroup=__strimzi-topic-operator-kstreams},1651861957,0
{consumergroup=__strimzi-topic-operator-kstreams},1651861962,0
{consumergroup=__strimzi-topic-operator-kstreams},1651861967,0
{consumergroup=__strimzi-topic-operator-kstreams},1651861972,0
{consumergroup=__strimzi-topic-operator-kstreams},1651861977,0
{consumergroup=__strimzi-topic-operator-kstreams},1651861982,0
{consumergroup=__strimzi-topic-operator-kstreams},1651861987,0
{consumergroup=__strimzi-topic-operator-kstreams},1651861992,0
{consumergroup=__strimzi-topic-operator-kstreams},1651861997,0
{consumergroup=__strimzi-topic-operator-kstreams},1651862002,0
{consumergroup=__strimzi-topic-operator-kstreams},1651862007,0
{consumergroup=__strimzi-topic-operator-kstreams},1651862012,0
{consumergroup=__strimzi-topic-operator-kstreams},1651862017,0
{consumergroup=__strimzi-topic-operator-kstreams},1651862022,0
{consumergroup=__strimzi-topic-operator-kstreams},1651862027,0
{consumergroup=__strimzi-topic-operator-kstreams},1651862032,0
{consumergroup=__strimzi-topic-operator-kstreams},1651862037,0
{consumergroup=__strimzi-topic-operator-kstreams},1651862042,0
{consumergroup=__strimzi-topic-operator-kstreams},1651862047,0
{consumergroup=__strimzi-topic-operator-kstreams},1651862052,0
{consumergroup=__strimzi-topic-operator-kstreams},1651862057,0
{consumergroup=__strimzi-topic-operator-kstreams},1651862062,0
{consumergroup=__strimzi-topic-operator-kstreams},1651862067,0
{consumergroup=__strimzi-topic-operator-kstreams},1651862072,0
{consumergroup=__strimzi-topic-operator-kstreams},1651862077,0
{consumergroup=__strimzi-topic-operator-kstreams},1651862082,0
{consumergroup=__strimzi-topic-operator-kstreams},1651862087,0
{consumergroup=__strimzi-topic-operator-kstreams},1651862092,0
{consumergroup=__strimzi-topic-operator-kstreams},1651862097,0
{consumergroup=__strimzi-topic-operator-kstreams},1651862102,0
{consumergroup=__strimzi-topic-operator-kstreams},1651862107,0
{consumergroup=__strimzi-topic-operator-kstreams},1651862112,0
{consumergroup=__strimzi-topic-operator-kstreams},1651862117,0
{consumergroup=__strimzi-topic-operator-kstreams},1651862122,0
{consumergroup=__strimzi-topic-operator-kstreams},1651862127,0
{consumergroup=__strimzi-topic-operator-kstreams},1651862132,0
{consumergroup=__strimzi-topic-operator-kstreams},1651862137,0
{consumergroup=__strimzi-topic-operator-kstreams},1651862142,0
{consumergroup=__strimzi-topic-operator-kstreams},1651862147,0
{consumergroup=__strimzi-topic-operator-kstreams},1651862152,0
{consumergroup=__strimzi-topic-operator-kstreams},1651862157,0
{consumergroup=__strimzi-topic-operator-kstreams},1651862162,0
{consumergroup=__strimzi-topic-operator-kstreams},1651862167,0
{consumergroup=__strimzi-topic-operator-kstreams},1651862172,0
{consumergroup=__strimzi-topic-operator-kstreams},1651862177,0
{consumergroup=__strimzi-topic-operator-kstreams},1651862182,0
{consumergroup=adapter-service},1651861957,340368
{consumergroup=adapter-service},1651861962,340368
{consumergroup=adapter-service},1651861967,340368
{consumergroup=adapter-service},1651861972,2162730
{consumergroup=adapter-service},1651861977,2162730
{consumergroup=adapter-service},1651861982,2162730
{consumergroup=adapter-service},1651861987,3116430
{consumergroup=adapter-service},1651861992,3116430
{consumergroup=adapter-service},1651861997,3116430
{consumergroup=adapter-service},1651862002,4194215
{consumergroup=adapter-service},1651862007,4194215
{consumergroup=adapter-service},1651862012,4194215
{consumergroup=adapter-service},1651862017,4915981
{consumergroup=adapter-service},1651862022,4915981
{consumergroup=adapter-service},1651862027,4915981
{consumergroup=adapter-service},1651862032,5262636
{consumergroup=adapter-service},1651862037,5262636
{consumergroup=adapter-service},1651862042,5262636
{consumergroup=adapter-service},1651862047,5801468
{consumergroup=adapter-service},1651862052,5801468
{consumergroup=adapter-service},1651862057,5801468
{consumergroup=adapter-service},1651862062,5680416
{consumergroup=adapter-service},1651862067,5680416
{consumergroup=adapter-service},1651862072,5680416
{consumergroup=adapter-service},1651862077,5790297
{consumergroup=adapter-service},1651862082,5790297
{consumergroup=adapter-service},1651862087,5790297
{consumergroup=adapter-service},1651862092,5835179
{consumergroup=adapter-service},1651862097,5835179
{consumergroup=adapter-service},1651862102,5835179
{consumergroup=adapter-service},1651862107,5680414
{consumergroup=adapter-service},1651862112,5680414
{consumergroup=adapter-service},1651862117,5680414
{consumergroup=adapter-service},1651862122,5629896
{consumergroup=adapter-service},1651862127,5629896
{consumergroup=adapter-service},1651862132,5629896
{consumergroup=adapter-service},1651862137,5636974
{consumergroup=adapter-service},1651862142,5636974
{consumergroup=adapter-service},1651862147,5636974
{consumergroup=adapter-service},1651862152,5638003
{consumergroup=adapter-service},1651862157,5638003
{consumergroup=adapter-service},1651862162,5638003
{consumergroup=adapter-service},1651862167,5538617
{consumergroup=adapter-service},1651862172,5538617
{consumergroup=adapter-service},1651862177,5538617
{consumergroup=adapter-service},1651862182,5569259
