labels,timestamp,value
{consumergroup=__strimzi-topic-operator-kstreams},1651854091,13
{consumergroup=__strimzi-topic-operator-kstreams},1651854096,13
{consumergroup=__strimzi-topic-operator-kstreams},1651854101,13
{consumergroup=__strimzi-topic-operator-kstreams},1651854106,0
{consumergroup=__strimzi-topic-operator-kstreams},1651854111,0
{consumergroup=__strimzi-topic-operator-kstreams},1651854116,0
{consumergroup=__strimzi-topic-operator-kstreams},1651854121,0
{consumergroup=__strimzi-topic-operator-kstreams},1651854126,0
{consumergroup=__strimzi-topic-operator-kstreams},1651854131,0
{consumergroup=__strimzi-topic-operator-kstreams},1651854136,0
{consumergroup=__strimzi-topic-operator-kstreams},1651854141,0
{consumergroup=__strimzi-topic-operator-kstreams},1651854146,0
{consumergroup=__strimzi-topic-operator-kstreams},1651854151,0
{consumergroup=__strimzi-topic-operator-kstreams},1651854156,0
{consumergroup=__strimzi-topic-operator-kstreams},1651854161,0
{consumergroup=__strimzi-topic-operator-kstreams},1651854166,0
{consumergroup=__strimzi-topic-operator-kstreams},1651854171,0
{consumergroup=__strimzi-topic-operator-kstreams},1651854176,0
{consumergroup=__strimzi-topic-operator-kstreams},1651854181,0
{consumergroup=__strimzi-topic-operator-kstreams},1651854186,0
{consumergroup=__strimzi-topic-operator-kstreams},1651854191,0
{consumergroup=__strimzi-topic-operator-kstreams},1651854196,0
{consumergroup=__strimzi-topic-operator-kstreams},1651854201,0
{consumergroup=__strimzi-topic-operator-kstreams},1651854206,0
{consumergroup=__strimzi-topic-operator-kstreams},1651854211,0
{consumergroup=__strimzi-topic-operator-kstreams},1651854216,0
{consumergroup=__strimzi-topic-operator-kstreams},1651854221,0
{consumergroup=__strimzi-topic-operator-kstreams},1651854226,0
{consumergroup=__strimzi-topic-operator-kstreams},1651854231,0
{consumergroup=__strimzi-topic-operator-kstreams},1651854236,0
{consumergroup=__strimzi-topic-operator-kstreams},1651854241,0
{consumergroup=__strimzi-topic-operator-kstreams},1651854246,0
{consumergroup=__strimzi-topic-operator-kstreams},1651854251,0
{consumergroup=__strimzi-topic-operator-kstreams},1651854256,0
{consumergroup=__strimzi-topic-operator-kstreams},1651854261,0
{consumergroup=__strimzi-topic-operator-kstreams},1651854266,0
{consumergroup=__strimzi-topic-operator-kstreams},1651854271,0
{consumergroup=__strimzi-topic-operator-kstreams},1651854276,0
{consumergroup=__strimzi-topic-operator-kstreams},1651854281,0
{consumergroup=__strimzi-topic-operator-kstreams},1651854286,0
{consumergroup=__strimzi-topic-operator-kstreams},1651854291,0
{consumergroup=__strimzi-topic-operator-kstreams},1651854296,0
{consumergroup=__strimzi-topic-operator-kstreams},1651854301,0
{consumergroup=__strimzi-topic-operator-kstreams},1651854306,0
{consumergroup=__strimzi-topic-operator-kstreams},1651854311,0
{consumergroup=__strimzi-topic-operator-kstreams},1651854316,0
{consumergroup=__strimzi-topic-operator-kstreams},1651854321,0
{consumergroup=__strimzi-topic-operator-kstreams},1651854326,0
{consumergroup=__strimzi-topic-operator-kstreams},1651854331,0
{consumergroup=__strimzi-topic-operator-kstreams},1651854336,0
{consumergroup=__strimzi-topic-operator-kstreams},1651854341,0
{consumergroup=__strimzi-topic-operator-kstreams},1651854346,0
{consumergroup=adapter-service},1651854121,153698
{consumergroup=adapter-service},1651854126,153698
{consumergroup=adapter-service},1651854131,153698
{consumergroup=adapter-service},1651854136,2098208
{consumergroup=adapter-service},1651854141,2098208
{consumergroup=adapter-service},1651854146,2098208
{consumergroup=adapter-service},1651854151,3103779
{consumergroup=adapter-service},1651854156,3103779
{consumergroup=adapter-service},1651854161,3103779
{consumergroup=adapter-service},1651854166,3940558
{consumergroup=adapter-service},1651854171,3940558
{consumergroup=adapter-service},1651854176,3940558
{consumergroup=adapter-service},1651854181,4597902
{consumergroup=adapter-service},1651854186,4597902
{consumergroup=adapter-service},1651854191,4597902
{consumergroup=adapter-service},1651854196,4899742
{consumergroup=adapter-service},1651854201,4899742
{consumergroup=adapter-service},1651854206,4899742
{consumergroup=adapter-service},1651854211,4688503
{consumergroup=adapter-service},1651854216,4688503
{consumergroup=adapter-service},1651854221,4688503
{consumergroup=adapter-service},1651854226,4558407
{consumergroup=adapter-service},1651854231,4558407
{consumergroup=adapter-service},1651854236,4558407
{consumergroup=adapter-service},1651854241,4604913
{consumergroup=adapter-service},1651854246,4604913
{consumergroup=adapter-service},1651854251,4604913
{consumergroup=adapter-service},1651854256,4738044
{consumergroup=adapter-service},1651854261,4738044
{consumergroup=adapter-service},1651854266,4738044
{consumergroup=adapter-service},1651854271,4593091
{consumergroup=adapter-service},1651854276,4593091
{consumergroup=adapter-service},1651854281,4593091
{consumergroup=adapter-service},1651854286,4200144
{consumergroup=adapter-service},1651854291,4200144
{consumergroup=adapter-service},1651854296,4200144
{consumergroup=adapter-service},1651854301,4325334
{consumergroup=adapter-service},1651854306,4325334
{consumergroup=adapter-service},1651854311,4325334
{consumergroup=adapter-service},1651854316,4719597
{consumergroup=adapter-service},1651854321,4719597
{consumergroup=adapter-service},1651854326,4719597
{consumergroup=adapter-service},1651854331,4198283
{consumergroup=adapter-service},1651854336,4198283
{consumergroup=adapter-service},1651854341,4198283
{consumergroup=adapter-service},1651854346,3909651
