labels,timestamp,value
{consumergroup=__strimzi-topic-operator-kstreams},1651106685,0
{consumergroup=__strimzi-topic-operator-kstreams},1651106690,0
{consumergroup=__strimzi-topic-operator-kstreams},1651106695,0
{consumergroup=__strimzi-topic-operator-kstreams},1651106700,0
{consumergroup=__strimzi-topic-operator-kstreams},1651106705,0
{consumergroup=__strimzi-topic-operator-kstreams},1651106710,0
{consumergroup=__strimzi-topic-operator-kstreams},1651106715,0
{consumergroup=__strimzi-topic-operator-kstreams},1651106720,0
{consumergroup=__strimzi-topic-operator-kstreams},1651106725,0
{consumergroup=__strimzi-topic-operator-kstreams},1651106730,0
{consumergroup=__strimzi-topic-operator-kstreams},1651106735,0
{consumergroup=__strimzi-topic-operator-kstreams},1651106740,0
{consumergroup=__strimzi-topic-operator-kstreams},1651106745,0
{consumergroup=__strimzi-topic-operator-kstreams},1651106750,0
{consumergroup=__strimzi-topic-operator-kstreams},1651106755,0
{consumergroup=__strimzi-topic-operator-kstreams},1651106760,0
{consumergroup=__strimzi-topic-operator-kstreams},1651106765,0
{consumergroup=__strimzi-topic-operator-kstreams},1651106770,0
{consumergroup=__strimzi-topic-operator-kstreams},1651106775,0
{consumergroup=__strimzi-topic-operator-kstreams},1651106780,0
{consumergroup=__strimzi-topic-operator-kstreams},1651106785,0
{consumergroup=__strimzi-topic-operator-kstreams},1651106790,0
{consumergroup=__strimzi-topic-operator-kstreams},1651106795,0
{consumergroup=__strimzi-topic-operator-kstreams},1651106800,0
{consumergroup=__strimzi-topic-operator-kstreams},1651106805,0
{consumergroup=__strimzi-topic-operator-kstreams},1651106810,0
{consumergroup=__strimzi-topic-operator-kstreams},1651106815,0
{consumergroup=__strimzi-topic-operator-kstreams},1651106820,0
{consumergroup=__strimzi-topic-operator-kstreams},1651106825,0
{consumergroup=__strimzi-topic-operator-kstreams},1651106830,0
{consumergroup=__strimzi-topic-operator-kstreams},1651106835,0
{consumergroup=__strimzi-topic-operator-kstreams},1651106840,0
{consumergroup=__strimzi-topic-operator-kstreams},1651106845,0
{consumergroup=__strimzi-topic-operator-kstreams},1651106850,0
{consumergroup=__strimzi-topic-operator-kstreams},1651106855,0
{consumergroup=__strimzi-topic-operator-kstreams},1651106860,0
{consumergroup=__strimzi-topic-operator-kstreams},1651106865,0
{consumergroup=__strimzi-topic-operator-kstreams},1651106870,0
{consumergroup=__strimzi-topic-operator-kstreams},1651106875,0
{consumergroup=__strimzi-topic-operator-kstreams},1651106880,0
{consumergroup=__strimzi-topic-operator-kstreams},1651106885,0
{consumergroup=__strimzi-topic-operator-kstreams},1651106890,0
{consumergroup=__strimzi-topic-operator-kstreams},1651106895,0
{consumergroup=__strimzi-topic-operator-kstreams},1651106900,0
{consumergroup=__strimzi-topic-operator-kstreams},1651106905,0
{consumergroup=__strimzi-topic-operator-kstreams},1651106910,0
{consumergroup=__strimzi-topic-operator-kstreams},1651106915,0
{consumergroup=__strimzi-topic-operator-kstreams},1651106920,0
{consumergroup=__strimzi-topic-operator-kstreams},1651106925,0
{consumergroup=__strimzi-topic-operator-kstreams},1651106930,0
{consumergroup=__strimzi-topic-operator-kstreams},1651106935,0
{consumergroup=__strimzi-topic-operator-kstreams},1651106940,0
{consumergroup=__strimzi-topic-operator-kstreams},1651106945,0
{consumergroup=__strimzi-topic-operator-kstreams},1651106950,0
{consumergroup=__strimzi-topic-operator-kstreams},1651106955,0
{consumergroup=__strimzi-topic-operator-kstreams},1651106960,0
{consumergroup=__strimzi-topic-operator-kstreams},1651106965,0
{consumergroup=__strimzi-topic-operator-kstreams},1651106970,0
{consumergroup=__strimzi-topic-operator-kstreams},1651106975,0
{consumergroup=__strimzi-topic-operator-kstreams},1651106980,0
{consumergroup=__strimzi-topic-operator-kstreams},1651106985,0
{consumergroup=landscape-service},1651106715,318276
{consumergroup=landscape-service},1651106720,318276
{consumergroup=landscape-service},1651106725,318276
{consumergroup=landscape-service},1651106730,2124004
{consumergroup=landscape-service},1651106735,2124004
{consumergroup=landscape-service},1651106740,2124004
{consumergroup=landscape-service},1651106745,3063158
{consumergroup=landscape-service},1651106750,3063158
{consumergroup=landscape-service},1651106755,3063158
{consumergroup=landscape-service},1651106760,3563952
{consumergroup=landscape-service},1651106765,3563952
{consumergroup=landscape-service},1651106770,3563952
{consumergroup=landscape-service},1651106775,4077685
{consumergroup=landscape-service},1651106780,4077685
{consumergroup=landscape-service},1651106785,4077685
{consumergroup=landscape-service},1651106790,4176567
{consumergroup=landscape-service},1651106795,4176567
{consumergroup=landscape-service},1651106800,4176567
{consumergroup=landscape-service},1651106805,4449801
{consumergroup=landscape-service},1651106810,4449801
{consumergroup=landscape-service},1651106815,4449801
{consumergroup=landscape-service},1651106820,4475345
{consumergroup=landscape-service},1651106825,4475345
{consumergroup=landscape-service},1651106830,4475345
{consumergroup=landscape-service},1651106835,4753471
{consumergroup=landscape-service},1651106840,4753471
{consumergroup=landscape-service},1651106845,4753471
{consumergroup=landscape-service},1651106850,4799169
{consumergroup=landscape-service},1651106855,4799169
{consumergroup=landscape-service},1651106860,4799169
{consumergroup=landscape-service},1651106865,5159394
{consumergroup=landscape-service},1651106870,5159394
{consumergroup=landscape-service},1651106875,5159394
{consumergroup=landscape-service},1651106880,5058939
{consumergroup=landscape-service},1651106885,5058939
{consumergroup=landscape-service},1651106890,5058939
{consumergroup=landscape-service},1651106895,5281858
{consumergroup=landscape-service},1651106900,5281858
{consumergroup=landscape-service},1651106905,5281858
{consumergroup=landscape-service},1651106910,5440430
{consumergroup=landscape-service},1651106915,5440430
{consumergroup=landscape-service},1651106920,5440430
{consumergroup=landscape-service},1651106925,5490855
{consumergroup=landscape-service},1651106930,5490855
{consumergroup=landscape-service},1651106935,5490855
{consumergroup=landscape-service},1651106940,5738800
{consumergroup=landscape-service},1651106945,5738800
{consumergroup=landscape-service},1651106950,5738800
{consumergroup=landscape-service},1651106955,5672955
{consumergroup=landscape-service},1651106960,5672955
{consumergroup=landscape-service},1651106965,5672955
{consumergroup=landscape-service},1651106970,6071323
{consumergroup=landscape-service},1651106975,6071323
{consumergroup=landscape-service},1651106980,6071323
{consumergroup=landscape-service},1651106985,5926605
{consumergroup=landscape-token-events-consumer},1651106715,0
{consumergroup=landscape-token-events-consumer},1651106720,0
{consumergroup=landscape-token-events-consumer},1651106725,0
{consumergroup=landscape-token-events-consumer},1651106730,0
{consumergroup=landscape-token-events-consumer},1651106735,0
{consumergroup=landscape-token-events-consumer},1651106740,0
{consumergroup=landscape-token-events-consumer},1651106745,0
{consumergroup=landscape-token-events-consumer},1651106750,0
{consumergroup=landscape-token-events-consumer},1651106755,0
{consumergroup=landscape-token-events-consumer},1651106760,0
{consumergroup=landscape-token-events-consumer},1651106765,0
{consumergroup=landscape-token-events-consumer},1651106770,0
{consumergroup=landscape-token-events-consumer},1651106775,0
{consumergroup=landscape-token-events-consumer},1651106780,0
{consumergroup=landscape-token-events-consumer},1651106785,0
{consumergroup=landscape-token-events-consumer},1651106790,0
{consumergroup=landscape-token-events-consumer},1651106795,0
{consumergroup=landscape-token-events-consumer},1651106800,0
{consumergroup=landscape-token-events-consumer},1651106805,0
{consumergroup=landscape-token-events-consumer},1651106810,0
{consumergroup=landscape-token-events-consumer},1651106815,0
{consumergroup=landscape-token-events-consumer},1651106820,0
{consumergroup=landscape-token-events-consumer},1651106825,0
{consumergroup=landscape-token-events-consumer},1651106830,0
{consumergroup=landscape-token-events-consumer},1651106835,0
{consumergroup=landscape-token-events-consumer},1651106840,0
{consumergroup=landscape-token-events-consumer},1651106845,0
{consumergroup=landscape-token-events-consumer},1651106850,0
{consumergroup=landscape-token-events-consumer},1651106855,0
{consumergroup=landscape-token-events-consumer},1651106860,0
{consumergroup=landscape-token-events-consumer},1651106865,0
{consumergroup=landscape-token-events-consumer},1651106870,0
{consumergroup=landscape-token-events-consumer},1651106875,0
{consumergroup=landscape-token-events-consumer},1651106880,0
{consumergroup=landscape-token-events-consumer},1651106885,0
{consumergroup=landscape-token-events-consumer},1651106890,0
{consumergroup=landscape-token-events-consumer},1651106895,0
{consumergroup=landscape-token-events-consumer},1651106900,0
{consumergroup=landscape-token-events-consumer},1651106905,0
{consumergroup=landscape-token-events-consumer},1651106910,0
{consumergroup=landscape-token-events-consumer},1651106915,0
{consumergroup=landscape-token-events-consumer},1651106920,0
{consumergroup=landscape-token-events-consumer},1651106925,0
{consumergroup=landscape-token-events-consumer},1651106930,0
{consumergroup=landscape-token-events-consumer},1651106935,0
{consumergroup=landscape-token-events-consumer},1651106940,0
{consumergroup=landscape-token-events-consumer},1651106945,0
{consumergroup=landscape-token-events-consumer},1651106950,0
{consumergroup=landscape-token-events-consumer},1651106955,0
{consumergroup=landscape-token-events-consumer},1651106960,0
{consumergroup=landscape-token-events-consumer},1651106965,0
{consumergroup=landscape-token-events-consumer},1651106970,0
{consumergroup=landscape-token-events-consumer},1651106975,0
{consumergroup=landscape-token-events-consumer},1651106980,0
{consumergroup=landscape-token-events-consumer},1651106985,0
