labels,timestamp,value
{consumergroup=__strimzi-topic-operator-kstreams},1651103326,8
{consumergroup=__strimzi-topic-operator-kstreams},1651103331,8
{consumergroup=__strimzi-topic-operator-kstreams},1651103336,8
{consumergroup=__strimzi-topic-operator-kstreams},1651103341,0
{consumergroup=__strimzi-topic-operator-kstreams},1651103346,0
{consumergroup=__strimzi-topic-operator-kstreams},1651103351,0
{consumergroup=__strimzi-topic-operator-kstreams},1651103356,0
{consumergroup=__strimzi-topic-operator-kstreams},1651103361,0
{consumergroup=__strimzi-topic-operator-kstreams},1651103366,0
{consumergroup=__strimzi-topic-operator-kstreams},1651103371,0
{consumergroup=__strimzi-topic-operator-kstreams},1651103376,0
{consumergroup=__strimzi-topic-operator-kstreams},1651103381,0
{consumergroup=__strimzi-topic-operator-kstreams},1651103386,0
{consumergroup=__strimzi-topic-operator-kstreams},1651103391,0
{consumergroup=__strimzi-topic-operator-kstreams},1651103396,0
{consumergroup=__strimzi-topic-operator-kstreams},1651103401,0
{consumergroup=__strimzi-topic-operator-kstreams},1651103406,0
{consumergroup=__strimzi-topic-operator-kstreams},1651103411,0
{consumergroup=__strimzi-topic-operator-kstreams},1651103416,0
{consumergroup=__strimzi-topic-operator-kstreams},1651103421,0
{consumergroup=__strimzi-topic-operator-kstreams},1651103426,0
{consumergroup=__strimzi-topic-operator-kstreams},1651103431,0
{consumergroup=__strimzi-topic-operator-kstreams},1651103436,0
{consumergroup=__strimzi-topic-operator-kstreams},1651103441,0
{consumergroup=__strimzi-topic-operator-kstreams},1651103446,0
{consumergroup=__strimzi-topic-operator-kstreams},1651103451,0
{consumergroup=__strimzi-topic-operator-kstreams},1651103456,0
{consumergroup=__strimzi-topic-operator-kstreams},1651103461,0
{consumergroup=__strimzi-topic-operator-kstreams},1651103466,0
{consumergroup=__strimzi-topic-operator-kstreams},1651103471,0
{consumergroup=__strimzi-topic-operator-kstreams},1651103476,0
{consumergroup=__strimzi-topic-operator-kstreams},1651103481,0
{consumergroup=__strimzi-topic-operator-kstreams},1651103486,0
{consumergroup=__strimzi-topic-operator-kstreams},1651103491,0
{consumergroup=__strimzi-topic-operator-kstreams},1651103496,0
{consumergroup=__strimzi-topic-operator-kstreams},1651103501,0
{consumergroup=__strimzi-topic-operator-kstreams},1651103506,0
{consumergroup=__strimzi-topic-operator-kstreams},1651103511,0
{consumergroup=__strimzi-topic-operator-kstreams},1651103516,0
{consumergroup=__strimzi-topic-operator-kstreams},1651103521,0
{consumergroup=__strimzi-topic-operator-kstreams},1651103526,0
{consumergroup=__strimzi-topic-operator-kstreams},1651103531,0
{consumergroup=__strimzi-topic-operator-kstreams},1651103536,0
{consumergroup=__strimzi-topic-operator-kstreams},1651103541,0
{consumergroup=__strimzi-topic-operator-kstreams},1651103546,0
{consumergroup=__strimzi-topic-operator-kstreams},1651103551,0
{consumergroup=__strimzi-topic-operator-kstreams},1651103556,0
{consumergroup=__strimzi-topic-operator-kstreams},1651103561,0
{consumergroup=__strimzi-topic-operator-kstreams},1651103566,0
{consumergroup=__strimzi-topic-operator-kstreams},1651103571,0
{consumergroup=__strimzi-topic-operator-kstreams},1651103576,0
{consumergroup=__strimzi-topic-operator-kstreams},1651103581,0
{consumergroup=__strimzi-topic-operator-kstreams},1651103586,0
{consumergroup=__strimzi-topic-operator-kstreams},1651103591,0
{consumergroup=__strimzi-topic-operator-kstreams},1651103596,0
{consumergroup=__strimzi-topic-operator-kstreams},1651103601,0
{consumergroup=__strimzi-topic-operator-kstreams},1651103606,0
{consumergroup=__strimzi-topic-operator-kstreams},1651103611,0
{consumergroup=__strimzi-topic-operator-kstreams},1651103616,0
{consumergroup=__strimzi-topic-operator-kstreams},1651103621,0
{consumergroup=__strimzi-topic-operator-kstreams},1651103626,0
{consumergroup=__strimzi-topic-operator-kstreams},1651103631,0
{consumergroup=landscape-service},1651103356,892917
{consumergroup=landscape-service},1651103361,892917
{consumergroup=landscape-service},1651103366,892917
{consumergroup=landscape-service},1651103371,7173310
{consumergroup=landscape-service},1651103376,7173310
{consumergroup=landscape-service},1651103381,7173310
{consumergroup=landscape-service},1651103386,10695111
{consumergroup=landscape-service},1651103391,10695111
{consumergroup=landscape-service},1651103396,10695111
{consumergroup=landscape-service},1651103401,12687223
{consumergroup=landscape-service},1651103406,12687223
{consumergroup=landscape-service},1651103411,12687223
{consumergroup=landscape-service},1651103416,13940289
{consumergroup=landscape-service},1651103421,13940289
{consumergroup=landscape-service},1651103426,13940289
{consumergroup=landscape-service},1651103431,14895824
{consumergroup=landscape-service},1651103436,14895824
{consumergroup=landscape-service},1651103441,14895824
{consumergroup=landscape-service},1651103446,15439019
{consumergroup=landscape-service},1651103451,15439019
{consumergroup=landscape-service},1651103456,15439019
{consumergroup=landscape-service},1651103461,16074199
{consumergroup=landscape-service},1651103466,16074199
{consumergroup=landscape-service},1651103471,16074199
{consumergroup=landscape-service},1651103476,16761718
{consumergroup=landscape-service},1651103481,16761718
{consumergroup=landscape-service},1651103486,16761718
{consumergroup=landscape-service},1651103491,17362710
{consumergroup=landscape-service},1651103496,17362710
{consumergroup=landscape-service},1651103501,17362710
{consumergroup=landscape-service},1651103506,18217725
{consumergroup=landscape-service},1651103511,18217725
{consumergroup=landscape-service},1651103516,18217725
{consumergroup=landscape-service},1651103521,18738552
{consumergroup=landscape-service},1651103526,18738552
{consumergroup=landscape-service},1651103531,18738552
{consumergroup=landscape-service},1651103536,19137472
{consumergroup=landscape-service},1651103541,19137472
{consumergroup=landscape-service},1651103546,19137472
{consumergroup=landscape-service},1651103551,19387999
{consumergroup=landscape-service},1651103556,19387999
{consumergroup=landscape-service},1651103561,19387999
{consumergroup=landscape-service},1651103566,19643036
{consumergroup=landscape-service},1651103571,19643036
{consumergroup=landscape-service},1651103576,19643036
{consumergroup=landscape-service},1651103581,19879903
{consumergroup=landscape-service},1651103586,19879903
{consumergroup=landscape-service},1651103591,19879903
{consumergroup=landscape-service},1651103596,20172263
{consumergroup=landscape-service},1651103601,20172263
{consumergroup=landscape-service},1651103606,20172263
{consumergroup=landscape-service},1651103611,20498724
{consumergroup=landscape-service},1651103616,20498724
{consumergroup=landscape-service},1651103621,20498724
{consumergroup=landscape-service},1651103626,20472626
{consumergroup=landscape-service},1651103631,20472626
