labels,timestamp,value
{consumergroup=__strimzi-topic-operator-kstreams},1651099995,8
{consumergroup=__strimzi-topic-operator-kstreams},1651100000,8
{consumergroup=__strimzi-topic-operator-kstreams},1651100005,8
{consumergroup=__strimzi-topic-operator-kstreams},1651100010,0
{consumergroup=__strimzi-topic-operator-kstreams},1651100015,0
{consumergroup=__strimzi-topic-operator-kstreams},1651100020,0
{consumergroup=__strimzi-topic-operator-kstreams},1651100025,0
{consumergroup=__strimzi-topic-operator-kstreams},1651100030,0
{consumergroup=__strimzi-topic-operator-kstreams},1651100035,0
{consumergroup=__strimzi-topic-operator-kstreams},1651100040,0
{consumergroup=__strimzi-topic-operator-kstreams},1651100045,0
{consumergroup=__strimzi-topic-operator-kstreams},1651100050,0
{consumergroup=__strimzi-topic-operator-kstreams},1651100055,0
{consumergroup=__strimzi-topic-operator-kstreams},1651100060,0
{consumergroup=__strimzi-topic-operator-kstreams},1651100065,0
{consumergroup=__strimzi-topic-operator-kstreams},1651100070,0
{consumergroup=__strimzi-topic-operator-kstreams},1651100075,0
{consumergroup=__strimzi-topic-operator-kstreams},1651100080,0
{consumergroup=__strimzi-topic-operator-kstreams},1651100085,0
{consumergroup=__strimzi-topic-operator-kstreams},1651100090,0
{consumergroup=__strimzi-topic-operator-kstreams},1651100095,0
{consumergroup=__strimzi-topic-operator-kstreams},1651100100,0
{consumergroup=__strimzi-topic-operator-kstreams},1651100105,0
{consumergroup=__strimzi-topic-operator-kstreams},1651100110,0
{consumergroup=__strimzi-topic-operator-kstreams},1651100115,0
{consumergroup=__strimzi-topic-operator-kstreams},1651100120,0
{consumergroup=__strimzi-topic-operator-kstreams},1651100125,0
{consumergroup=__strimzi-topic-operator-kstreams},1651100130,0
{consumergroup=__strimzi-topic-operator-kstreams},1651100135,0
{consumergroup=__strimzi-topic-operator-kstreams},1651100140,0
{consumergroup=__strimzi-topic-operator-kstreams},1651100145,0
{consumergroup=__strimzi-topic-operator-kstreams},1651100150,0
{consumergroup=__strimzi-topic-operator-kstreams},1651100155,0
{consumergroup=__strimzi-topic-operator-kstreams},1651100160,0
{consumergroup=__strimzi-topic-operator-kstreams},1651100165,0
{consumergroup=__strimzi-topic-operator-kstreams},1651100170,0
{consumergroup=__strimzi-topic-operator-kstreams},1651100175,0
{consumergroup=__strimzi-topic-operator-kstreams},1651100180,0
{consumergroup=__strimzi-topic-operator-kstreams},1651100185,0
{consumergroup=__strimzi-topic-operator-kstreams},1651100190,0
{consumergroup=__strimzi-topic-operator-kstreams},1651100195,0
{consumergroup=__strimzi-topic-operator-kstreams},1651100200,0
{consumergroup=__strimzi-topic-operator-kstreams},1651100205,0
{consumergroup=__strimzi-topic-operator-kstreams},1651100210,0
{consumergroup=__strimzi-topic-operator-kstreams},1651100215,0
{consumergroup=__strimzi-topic-operator-kstreams},1651100220,0
{consumergroup=__strimzi-topic-operator-kstreams},1651100225,0
{consumergroup=__strimzi-topic-operator-kstreams},1651100230,0
{consumergroup=__strimzi-topic-operator-kstreams},1651100235,0
{consumergroup=__strimzi-topic-operator-kstreams},1651100240,0
{consumergroup=__strimzi-topic-operator-kstreams},1651100245,0
{consumergroup=__strimzi-topic-operator-kstreams},1651100250,0
{consumergroup=__strimzi-topic-operator-kstreams},1651100255,0
{consumergroup=__strimzi-topic-operator-kstreams},1651100260,0
{consumergroup=__strimzi-topic-operator-kstreams},1651100265,0
{consumergroup=__strimzi-topic-operator-kstreams},1651100270,0
{consumergroup=__strimzi-topic-operator-kstreams},1651100275,0
{consumergroup=__strimzi-topic-operator-kstreams},1651100280,0
{consumergroup=__strimzi-topic-operator-kstreams},1651100285,0
{consumergroup=__strimzi-topic-operator-kstreams},1651100290,0
{consumergroup=__strimzi-topic-operator-kstreams},1651100295,0
{consumergroup=__strimzi-topic-operator-kstreams},1651100300,0
{consumergroup=__strimzi-topic-operator-kstreams},1651100305,0
{consumergroup=landscape-service},1651100025,24389
{consumergroup=landscape-service},1651100030,24389
{consumergroup=landscape-service},1651100035,24389
{consumergroup=landscape-service},1651100040,6895488
{consumergroup=landscape-service},1651100045,6895488
{consumergroup=landscape-service},1651100050,6895488
{consumergroup=landscape-service},1651100055,11003640
{consumergroup=landscape-service},1651100060,11003640
{consumergroup=landscape-service},1651100065,11003640
{consumergroup=landscape-service},1651100070,13448321
{consumergroup=landscape-service},1651100075,13448321
{consumergroup=landscape-service},1651100080,13448321
{consumergroup=landscape-service},1651100085,15056565
{consumergroup=landscape-service},1651100090,15056565
{consumergroup=landscape-service},1651100095,15056565
{consumergroup=landscape-service},1651100100,16027415
{consumergroup=landscape-service},1651100105,16027415
{consumergroup=landscape-service},1651100110,16027415
{consumergroup=landscape-service},1651100115,17403406
{consumergroup=landscape-service},1651100120,17403406
{consumergroup=landscape-service},1651100125,17403406
{consumergroup=landscape-service},1651100130,17215135
{consumergroup=landscape-service},1651100135,17215135
{consumergroup=landscape-service},1651100140,17215135
{consumergroup=landscape-service},1651100145,18070111
{consumergroup=landscape-service},1651100150,18070111
{consumergroup=landscape-service},1651100155,18070111
{consumergroup=landscape-service},1651100160,18408784
{consumergroup=landscape-service},1651100165,18408784
{consumergroup=landscape-service},1651100170,18408784
{consumergroup=landscape-service},1651100175,17382128
{consumergroup=landscape-service},1651100180,17382128
{consumergroup=landscape-service},1651100185,17382128
{consumergroup=landscape-service},1651100190,18589793
{consumergroup=landscape-service},1651100195,18589793
{consumergroup=landscape-service},1651100200,18589793
{consumergroup=landscape-service},1651100205,18238931
{consumergroup=landscape-service},1651100210,18238931
{consumergroup=landscape-service},1651100215,18238931
{consumergroup=landscape-service},1651100220,18647816
{consumergroup=landscape-service},1651100225,18647816
{consumergroup=landscape-service},1651100230,18647816
{consumergroup=landscape-service},1651100235,18452510
{consumergroup=landscape-service},1651100240,18452510
{consumergroup=landscape-service},1651100245,18452510
{consumergroup=landscape-service},1651100250,18376912
{consumergroup=landscape-service},1651100255,18376912
{consumergroup=landscape-service},1651100260,18376912
{consumergroup=landscape-service},1651100265,18272909
{consumergroup=landscape-service},1651100270,18272909
{consumergroup=landscape-service},1651100275,18272909
{consumergroup=landscape-service},1651100280,18261681
{consumergroup=landscape-service},1651100285,18261681
{consumergroup=landscape-service},1651100290,18261681
{consumergroup=landscape-service},1651100295,18107045
{consumergroup=landscape-service},1651100300,18107045
{consumergroup=landscape-service},1651100305,18107045
