labels,timestamp,value
{consumergroup=__strimzi-topic-operator-kstreams},1651115972,2
{consumergroup=__strimzi-topic-operator-kstreams},1651115977,2
{consumergroup=__strimzi-topic-operator-kstreams},1651115982,2
{consumergroup=__strimzi-topic-operator-kstreams},1651115987,5
{consumergroup=__strimzi-topic-operator-kstreams},1651115992,5
{consumergroup=__strimzi-topic-operator-kstreams},1651115997,5
{consumergroup=__strimzi-topic-operator-kstreams},1651116002,5
{consumergroup=__strimzi-topic-operator-kstreams},1651116007,5
{consumergroup=__strimzi-topic-operator-kstreams},1651116012,5
{consumergroup=__strimzi-topic-operator-kstreams},1651116017,0
{consumergroup=__strimzi-topic-operator-kstreams},1651116022,0
{consumergroup=__strimzi-topic-operator-kstreams},1651116027,0
{consumergroup=__strimzi-topic-operator-kstreams},1651116032,0
{consumergroup=__strimzi-topic-operator-kstreams},1651116037,0
{consumergroup=__strimzi-topic-operator-kstreams},1651116042,0
{consumergroup=__strimzi-topic-operator-kstreams},1651116047,0
{consumergroup=__strimzi-topic-operator-kstreams},1651116052,0
{consumergroup=__strimzi-topic-operator-kstreams},1651116057,0
{consumergroup=__strimzi-topic-operator-kstreams},1651116062,0
{consumergroup=__strimzi-topic-operator-kstreams},1651116067,0
{consumergroup=__strimzi-topic-operator-kstreams},1651116072,0
{consumergroup=__strimzi-topic-operator-kstreams},1651116077,0
{consumergroup=__strimzi-topic-operator-kstreams},1651116082,0
{consumergroup=__strimzi-topic-operator-kstreams},1651116087,0
{consumergroup=__strimzi-topic-operator-kstreams},1651116092,0
{consumergroup=__strimzi-topic-operator-kstreams},1651116097,0
{consumergroup=__strimzi-topic-operator-kstreams},1651116102,0
{consumergroup=__strimzi-topic-operator-kstreams},1651116107,0
{consumergroup=__strimzi-topic-operator-kstreams},1651116112,0
{consumergroup=__strimzi-topic-operator-kstreams},1651116117,0
{consumergroup=__strimzi-topic-operator-kstreams},1651116122,0
{consumergroup=__strimzi-topic-operator-kstreams},1651116127,0
{consumergroup=__strimzi-topic-operator-kstreams},1651116132,0
{consumergroup=__strimzi-topic-operator-kstreams},1651116137,0
{consumergroup=__strimzi-topic-operator-kstreams},1651116142,0
{consumergroup=__strimzi-topic-operator-kstreams},1651116147,0
{consumergroup=__strimzi-topic-operator-kstreams},1651116152,0
{consumergroup=__strimzi-topic-operator-kstreams},1651116157,0
{consumergroup=__strimzi-topic-operator-kstreams},1651116162,0
{consumergroup=__strimzi-topic-operator-kstreams},1651116167,0
{consumergroup=__strimzi-topic-operator-kstreams},1651116172,0
{consumergroup=__strimzi-topic-operator-kstreams},1651116177,0
{consumergroup=__strimzi-topic-operator-kstreams},1651116182,0
{consumergroup=__strimzi-topic-operator-kstreams},1651116187,0
{consumergroup=__strimzi-topic-operator-kstreams},1651116192,0
{consumergroup=__strimzi-topic-operator-kstreams},1651116197,0
{consumergroup=__strimzi-topic-operator-kstreams},1651116202,0
{consumergroup=__strimzi-topic-operator-kstreams},1651116207,0
{consumergroup=__strimzi-topic-operator-kstreams},1651116212,0
{consumergroup=__strimzi-topic-operator-kstreams},1651116217,0
{consumergroup=__strimzi-topic-operator-kstreams},1651116222,0
{consumergroup=__strimzi-topic-operator-kstreams},1651116227,0
{consumergroup=__strimzi-topic-operator-kstreams},1651116232,0
{consumergroup=__strimzi-topic-operator-kstreams},1651116237,0
{consumergroup=__strimzi-topic-operator-kstreams},1651116242,0
{consumergroup=__strimzi-topic-operator-kstreams},1651116247,0
{consumergroup=__strimzi-topic-operator-kstreams},1651116252,0
{consumergroup=__strimzi-topic-operator-kstreams},1651116257,0
{consumergroup=__strimzi-topic-operator-kstreams},1651116262,0
{consumergroup=__strimzi-topic-operator-kstreams},1651116267,0
{consumergroup=__strimzi-topic-operator-kstreams},1651116272,0
{consumergroup=__strimzi-topic-operator-kstreams},1651116277,0
{consumergroup=__strimzi-topic-operator-kstreams},1651116282,0
{consumergroup=__strimzi-topic-operator-kstreams},1651116287,0
{consumergroup=landscape-service},1651116017,2093343
{consumergroup=landscape-service},1651116022,2093343
{consumergroup=landscape-service},1651116027,2093343
{consumergroup=landscape-service},1651116032,6101488
{consumergroup=landscape-service},1651116037,6101488
{consumergroup=landscape-service},1651116042,6101488
{consumergroup=landscape-service},1651116047,7905097
{consumergroup=landscape-service},1651116052,7905097
{consumergroup=landscape-service},1651116057,7905097
{consumergroup=landscape-service},1651116062,8927907
{consumergroup=landscape-service},1651116067,8927907
{consumergroup=landscape-service},1651116072,8927907
{consumergroup=landscape-service},1651116077,9872744
{consumergroup=landscape-service},1651116082,9872744
{consumergroup=landscape-service},1651116087,9872744
{consumergroup=landscape-service},1651116092,10687009
{consumergroup=landscape-service},1651116097,10687009
{consumergroup=landscape-service},1651116102,10687009
{consumergroup=landscape-service},1651116107,10836878
{consumergroup=landscape-service},1651116112,10836878
{consumergroup=landscape-service},1651116117,10836878
{consumergroup=landscape-service},1651116122,11516759
{consumergroup=landscape-service},1651116127,11516759
{consumergroup=landscape-service},1651116132,11516759
{consumergroup=landscape-service},1651116137,11661516
{consumergroup=landscape-service},1651116142,11661516
{consumergroup=landscape-service},1651116147,11661516
{consumergroup=landscape-service},1651116152,12370618
{consumergroup=landscape-service},1651116157,12370618
{consumergroup=landscape-service},1651116162,12370618
{consumergroup=landscape-service},1651116167,12352245
{consumergroup=landscape-service},1651116172,12352245
{consumergroup=landscape-service},1651116177,12352245
{consumergroup=landscape-service},1651116182,12782971
{consumergroup=landscape-service},1651116187,12782971
{consumergroup=landscape-service},1651116192,12782971
{consumergroup=landscape-service},1651116197,12616907
{consumergroup=landscape-service},1651116202,12616907
{consumergroup=landscape-service},1651116207,12616907
{consumergroup=landscape-service},1651116212,13082291
{consumergroup=landscape-service},1651116217,13082291
{consumergroup=landscape-service},1651116222,13082291
{consumergroup=landscape-service},1651116227,12949622
{consumergroup=landscape-service},1651116232,12949622
{consumergroup=landscape-service},1651116237,12949622
{consumergroup=landscape-service},1651116242,13352836
{consumergroup=landscape-service},1651116247,13352836
{consumergroup=landscape-service},1651116252,13352836
{consumergroup=landscape-service},1651116257,13545362
{consumergroup=landscape-service},1651116262,13545362
{consumergroup=landscape-service},1651116267,13545362
{consumergroup=landscape-service},1651116272,13391740
{consumergroup=landscape-service},1651116277,13391740
{consumergroup=landscape-service},1651116282,13391740
{consumergroup=landscape-service},1651116287,14092323
