labels,timestamp,value
{consumergroup=__strimzi-topic-operator-kstreams},1651088027,10
{consumergroup=__strimzi-topic-operator-kstreams},1651088032,10
{consumergroup=__strimzi-topic-operator-kstreams},1651088037,10
{consumergroup=__strimzi-topic-operator-kstreams},1651088042,0
{consumergroup=__strimzi-topic-operator-kstreams},1651088047,0
{consumergroup=__strimzi-topic-operator-kstreams},1651088052,0
{consumergroup=__strimzi-topic-operator-kstreams},1651088057,0
{consumergroup=__strimzi-topic-operator-kstreams},1651088062,0
{consumergroup=__strimzi-topic-operator-kstreams},1651088067,0
{consumergroup=__strimzi-topic-operator-kstreams},1651088072,0
{consumergroup=__strimzi-topic-operator-kstreams},1651088077,0
{consumergroup=__strimzi-topic-operator-kstreams},1651088082,0
{consumergroup=__strimzi-topic-operator-kstreams},1651088087,0
{consumergroup=__strimzi-topic-operator-kstreams},1651088092,0
{consumergroup=__strimzi-topic-operator-kstreams},1651088097,0
{consumergroup=__strimzi-topic-operator-kstreams},1651088102,0
{consumergroup=__strimzi-topic-operator-kstreams},1651088107,0
{consumergroup=__strimzi-topic-operator-kstreams},1651088112,0
{consumergroup=__strimzi-topic-operator-kstreams},1651088117,0
{consumergroup=__strimzi-topic-operator-kstreams},1651088122,0
{consumergroup=__strimzi-topic-operator-kstreams},1651088127,0
{consumergroup=__strimzi-topic-operator-kstreams},1651088132,0
{consumergroup=__strimzi-topic-operator-kstreams},1651088137,0
{consumergroup=__strimzi-topic-operator-kstreams},1651088142,0
{consumergroup=__strimzi-topic-operator-kstreams},1651088147,0
{consumergroup=__strimzi-topic-operator-kstreams},1651088152,0
{consumergroup=__strimzi-topic-operator-kstreams},1651088157,0
{consumergroup=__strimzi-topic-operator-kstreams},1651088162,0
{consumergroup=__strimzi-topic-operator-kstreams},1651088167,0
{consumergroup=__strimzi-topic-operator-kstreams},1651088172,0
{consumergroup=__strimzi-topic-operator-kstreams},1651088177,0
{consumergroup=__strimzi-topic-operator-kstreams},1651088182,0
{consumergroup=__strimzi-topic-operator-kstreams},1651088187,0
{consumergroup=__strimzi-topic-operator-kstreams},1651088192,0
{consumergroup=__strimzi-topic-operator-kstreams},1651088197,0
{consumergroup=__strimzi-topic-operator-kstreams},1651088202,0
{consumergroup=__strimzi-topic-operator-kstreams},1651088207,0
{consumergroup=__strimzi-topic-operator-kstreams},1651088212,0
{consumergroup=__strimzi-topic-operator-kstreams},1651088217,0
{consumergroup=__strimzi-topic-operator-kstreams},1651088222,0
{consumergroup=__strimzi-topic-operator-kstreams},1651088227,0
{consumergroup=__strimzi-topic-operator-kstreams},1651088232,0
{consumergroup=__strimzi-topic-operator-kstreams},1651088237,0
{consumergroup=__strimzi-topic-operator-kstreams},1651088242,0
{consumergroup=__strimzi-topic-operator-kstreams},1651088247,0
{consumergroup=__strimzi-topic-operator-kstreams},1651088252,0
{consumergroup=__strimzi-topic-operator-kstreams},1651088257,0
{consumergroup=__strimzi-topic-operator-kstreams},1651088262,0
{consumergroup=__strimzi-topic-operator-kstreams},1651088267,0
{consumergroup=__strimzi-topic-operator-kstreams},1651088272,0
{consumergroup=__strimzi-topic-operator-kstreams},1651088277,0
{consumergroup=__strimzi-topic-operator-kstreams},1651088282,0
{consumergroup=__strimzi-topic-operator-kstreams},1651088287,0
{consumergroup=__strimzi-topic-operator-kstreams},1651088292,0
{consumergroup=__strimzi-topic-operator-kstreams},1651088297,0
{consumergroup=__strimzi-topic-operator-kstreams},1651088302,0
{consumergroup=__strimzi-topic-operator-kstreams},1651088307,0
{consumergroup=__strimzi-topic-operator-kstreams},1651088312,0
{consumergroup=__strimzi-topic-operator-kstreams},1651088317,0
{consumergroup=__strimzi-topic-operator-kstreams},1651088322,0
{consumergroup=__strimzi-topic-operator-kstreams},1651088327,0
{consumergroup=__strimzi-topic-operator-kstreams},1651088332,0
{consumergroup=__strimzi-topic-operator-kstreams},1651088337,0
{consumergroup=landscape-service},1651088072,283836
{consumergroup=landscape-service},1651088077,283836
{consumergroup=landscape-service},1651088082,283836
{consumergroup=landscape-service},1651088087,1428701
{consumergroup=landscape-service},1651088092,1428701
{consumergroup=landscape-service},1651088097,1428701
{consumergroup=landscape-service},1651088102,1970640
{consumergroup=landscape-service},1651088107,1970640
{consumergroup=landscape-service},1651088112,1970640
{consumergroup=landscape-service},1651088117,2386496
{consumergroup=landscape-service},1651088122,2386496
{consumergroup=landscape-service},1651088127,2386496
{consumergroup=landscape-service},1651088132,2654483
{consumergroup=landscape-service},1651088137,2654483
{consumergroup=landscape-service},1651088142,2654483
{consumergroup=landscape-service},1651088147,2819159
{consumergroup=landscape-service},1651088152,2819159
{consumergroup=landscape-service},1651088157,2819159
{consumergroup=landscape-service},1651088162,2919601
{consumergroup=landscape-service},1651088167,2919601
{consumergroup=landscape-service},1651088172,2919601
{consumergroup=landscape-service},1651088177,3140285
{consumergroup=landscape-service},1651088182,3140285
{consumergroup=landscape-service},1651088187,3140285
{consumergroup=landscape-service},1651088192,3121577
{consumergroup=landscape-service},1651088197,3121577
{consumergroup=landscape-service},1651088202,3121577
{consumergroup=landscape-service},1651088207,3327961
{consumergroup=landscape-service},1651088212,3327961
{consumergroup=landscape-service},1651088217,3327961
{consumergroup=landscape-service},1651088222,3363546
{consumergroup=landscape-service},1651088227,3363546
{consumergroup=landscape-service},1651088232,3363546
{consumergroup=landscape-service},1651088237,3565617
{consumergroup=landscape-service},1651088242,3565617
{consumergroup=landscape-service},1651088247,3565617
{consumergroup=landscape-service},1651088252,3598535
{consumergroup=landscape-service},1651088257,3598535
{consumergroup=landscape-service},1651088262,3598535
{consumergroup=landscape-service},1651088267,3709594
{consumergroup=landscape-service},1651088272,3709594
{consumergroup=landscape-service},1651088277,3709594
{consumergroup=landscape-service},1651088282,3719166
{consumergroup=landscape-service},1651088287,3719166
{consumergroup=landscape-service},1651088292,3719166
{consumergroup=landscape-service},1651088297,3813474
{consumergroup=landscape-service},1651088302,3813474
{consumergroup=landscape-service},1651088307,3813474
{consumergroup=landscape-service},1651088312,3842029
{consumergroup=landscape-service},1651088317,3842029
{consumergroup=landscape-service},1651088322,3842029
{consumergroup=landscape-service},1651088327,3930064
{consumergroup=landscape-service},1651088332,3930064
{consumergroup=landscape-service},1651088337,3930064
