labels,timestamp,value
{consumergroup=__strimzi-topic-operator-kstreams},1651090218,2
{consumergroup=__strimzi-topic-operator-kstreams},1651090223,2
{consumergroup=__strimzi-topic-operator-kstreams},1651090228,2
{consumergroup=__strimzi-topic-operator-kstreams},1651090233,5
{consumergroup=__strimzi-topic-operator-kstreams},1651090238,5
{consumergroup=__strimzi-topic-operator-kstreams},1651090243,5
{consumergroup=__strimzi-topic-operator-kstreams},1651090248,5
{consumergroup=__strimzi-topic-operator-kstreams},1651090253,5
{consumergroup=__strimzi-topic-operator-kstreams},1651090258,5
{consumergroup=__strimzi-topic-operator-kstreams},1651090263,0
{consumergroup=__strimzi-topic-operator-kstreams},1651090268,0
{consumergroup=__strimzi-topic-operator-kstreams},1651090273,0
{consumergroup=__strimzi-topic-operator-kstreams},1651090278,0
{consumergroup=__strimzi-topic-operator-kstreams},1651090283,0
{consumergroup=__strimzi-topic-operator-kstreams},1651090288,0
{consumergroup=__strimzi-topic-operator-kstreams},1651090293,0
{consumergroup=__strimzi-topic-operator-kstreams},1651090298,0
{consumergroup=__strimzi-topic-operator-kstreams},1651090303,0
{consumergroup=__strimzi-topic-operator-kstreams},1651090308,0
{consumergroup=__strimzi-topic-operator-kstreams},1651090313,0
{consumergroup=__strimzi-topic-operator-kstreams},1651090318,0
{consumergroup=__strimzi-topic-operator-kstreams},1651090323,0
{consumergroup=__strimzi-topic-operator-kstreams},1651090328,0
{consumergroup=__strimzi-topic-operator-kstreams},1651090333,0
{consumergroup=__strimzi-topic-operator-kstreams},1651090338,0
{consumergroup=__strimzi-topic-operator-kstreams},1651090343,0
{consumergroup=__strimzi-topic-operator-kstreams},1651090348,0
{consumergroup=__strimzi-topic-operator-kstreams},1651090353,0
{consumergroup=__strimzi-topic-operator-kstreams},1651090358,0
{consumergroup=__strimzi-topic-operator-kstreams},1651090363,0
{consumergroup=__strimzi-topic-operator-kstreams},1651090368,0
{consumergroup=__strimzi-topic-operator-kstreams},1651090373,0
{consumergroup=__strimzi-topic-operator-kstreams},1651090378,0
{consumergroup=__strimzi-topic-operator-kstreams},1651090383,0
{consumergroup=__strimzi-topic-operator-kstreams},1651090388,0
{consumergroup=__strimzi-topic-operator-kstreams},1651090393,0
{consumergroup=__strimzi-topic-operator-kstreams},1651090398,0
{consumergroup=__strimzi-topic-operator-kstreams},1651090403,0
{consumergroup=__strimzi-topic-operator-kstreams},1651090408,0
{consumergroup=__strimzi-topic-operator-kstreams},1651090413,0
{consumergroup=__strimzi-topic-operator-kstreams},1651090418,0
{consumergroup=__strimzi-topic-operator-kstreams},1651090423,0
{consumergroup=__strimzi-topic-operator-kstreams},1651090428,0
{consumergroup=__strimzi-topic-operator-kstreams},1651090433,0
{consumergroup=__strimzi-topic-operator-kstreams},1651090438,0
{consumergroup=__strimzi-topic-operator-kstreams},1651090443,0
{consumergroup=__strimzi-topic-operator-kstreams},1651090448,0
{consumergroup=__strimzi-topic-operator-kstreams},1651090453,0
{consumergroup=__strimzi-topic-operator-kstreams},1651090458,0
{consumergroup=__strimzi-topic-operator-kstreams},1651090463,0
{consumergroup=__strimzi-topic-operator-kstreams},1651090468,0
{consumergroup=__strimzi-topic-operator-kstreams},1651090473,0
{consumergroup=__strimzi-topic-operator-kstreams},1651090478,0
{consumergroup=__strimzi-topic-operator-kstreams},1651090483,0
{consumergroup=__strimzi-topic-operator-kstreams},1651090488,0
{consumergroup=__strimzi-topic-operator-kstreams},1651090493,0
{consumergroup=__strimzi-topic-operator-kstreams},1651090498,0
{consumergroup=__strimzi-topic-operator-kstreams},1651090503,0
{consumergroup=__strimzi-topic-operator-kstreams},1651090508,0
{consumergroup=__strimzi-topic-operator-kstreams},1651090513,0
{consumergroup=__strimzi-topic-operator-kstreams},1651090518,0
{consumergroup=__strimzi-topic-operator-kstreams},1651090523,0
{consumergroup=__strimzi-topic-operator-kstreams},1651090528,0
{consumergroup=__strimzi-topic-operator-kstreams},1651090533,0
{consumergroup=__strimzi-topic-operator-kstreams},1651090538,0
{consumergroup=landscape-service},1651090263,85459
{consumergroup=landscape-service},1651090268,85459
{consumergroup=landscape-service},1651090273,85459
{consumergroup=landscape-service},1651090278,995397
{consumergroup=landscape-service},1651090283,995397
{consumergroup=landscape-service},1651090288,995397
{consumergroup=landscape-service},1651090293,1582359
{consumergroup=landscape-service},1651090298,1582359
{consumergroup=landscape-service},1651090303,1582359
{consumergroup=landscape-service},1651090308,1964842
{consumergroup=landscape-service},1651090313,1964842
{consumergroup=landscape-service},1651090318,1964842
{consumergroup=landscape-service},1651090323,2234368
{consumergroup=landscape-service},1651090328,2234368
{consumergroup=landscape-service},1651090333,2234368
{consumergroup=landscape-service},1651090338,2348265
{consumergroup=landscape-service},1651090343,2348265
{consumergroup=landscape-service},1651090348,2348265
{consumergroup=landscape-service},1651090353,2396056
{consumergroup=landscape-service},1651090358,2396056
{consumergroup=landscape-service},1651090363,2396056
{consumergroup=landscape-service},1651090368,2433901
{consumergroup=landscape-service},1651090373,2433901
{consumergroup=landscape-service},1651090378,2433901
{consumergroup=landscape-service},1651090383,2485930
{consumergroup=landscape-service},1651090388,2485930
{consumergroup=landscape-service},1651090393,2485930
{consumergroup=landscape-service},1651090398,2493615
{consumergroup=landscape-service},1651090403,2493615
{consumergroup=landscape-service},1651090408,2493615
{consumergroup=landscape-service},1651090413,2545527
{consumergroup=landscape-service},1651090418,2545527
{consumergroup=landscape-service},1651090423,2545527
{consumergroup=landscape-service},1651090428,2555734
{consumergroup=landscape-service},1651090433,2555734
{consumergroup=landscape-service},1651090438,2555734
{consumergroup=landscape-service},1651090443,2641974
{consumergroup=landscape-service},1651090448,2641974
{consumergroup=landscape-service},1651090453,2641974
{consumergroup=landscape-service},1651090458,2671080
{consumergroup=landscape-service},1651090463,2671080
{consumergroup=landscape-service},1651090468,2671080
{consumergroup=landscape-service},1651090473,2693215
{consumergroup=landscape-service},1651090478,2693215
{consumergroup=landscape-service},1651090483,2693215
{consumergroup=landscape-service},1651090488,2697697
{consumergroup=landscape-service},1651090493,2697697
{consumergroup=landscape-service},1651090498,2697697
{consumergroup=landscape-service},1651090503,2668364
{consumergroup=landscape-service},1651090508,2668364
{consumergroup=landscape-service},1651090513,2668364
{consumergroup=landscape-service},1651090518,2656922
{consumergroup=landscape-service},1651090523,2656922
{consumergroup=landscape-service},1651090528,2656922
{consumergroup=landscape-service},1651090533,2651096
{consumergroup=landscape-service},1651090538,2651096
