labels,timestamp,value
{consumergroup=__strimzi-topic-operator-kstreams},1651104444,10
{consumergroup=__strimzi-topic-operator-kstreams},1651104449,10
{consumergroup=__strimzi-topic-operator-kstreams},1651104454,10
{consumergroup=__strimzi-topic-operator-kstreams},1651104459,0
{consumergroup=__strimzi-topic-operator-kstreams},1651104464,0
{consumergroup=__strimzi-topic-operator-kstreams},1651104469,0
{consumergroup=__strimzi-topic-operator-kstreams},1651104474,0
{consumergroup=__strimzi-topic-operator-kstreams},1651104479,0
{consumergroup=__strimzi-topic-operator-kstreams},1651104484,0
{consumergroup=__strimzi-topic-operator-kstreams},1651104489,0
{consumergroup=__strimzi-topic-operator-kstreams},1651104494,0
{consumergroup=__strimzi-topic-operator-kstreams},1651104499,0
{consumergroup=__strimzi-topic-operator-kstreams},1651104504,0
{consumergroup=__strimzi-topic-operator-kstreams},1651104509,0
{consumergroup=__strimzi-topic-operator-kstreams},1651104514,0
{consumergroup=__strimzi-topic-operator-kstreams},1651104519,0
{consumergroup=__strimzi-topic-operator-kstreams},1651104524,0
{consumergroup=__strimzi-topic-operator-kstreams},1651104529,0
{consumergroup=__strimzi-topic-operator-kstreams},1651104534,0
{consumergroup=__strimzi-topic-operator-kstreams},1651104539,0
{consumergroup=__strimzi-topic-operator-kstreams},1651104544,0
{consumergroup=__strimzi-topic-operator-kstreams},1651104549,0
{consumergroup=__strimzi-topic-operator-kstreams},1651104554,0
{consumergroup=__strimzi-topic-operator-kstreams},1651104559,0
{consumergroup=__strimzi-topic-operator-kstreams},1651104564,0
{consumergroup=__strimzi-topic-operator-kstreams},1651104569,0
{consumergroup=__strimzi-topic-operator-kstreams},1651104574,0
{consumergroup=__strimzi-topic-operator-kstreams},1651104579,0
{consumergroup=__strimzi-topic-operator-kstreams},1651104584,0
{consumergroup=__strimzi-topic-operator-kstreams},1651104589,0
{consumergroup=__strimzi-topic-operator-kstreams},1651104594,0
{consumergroup=__strimzi-topic-operator-kstreams},1651104599,0
{consumergroup=__strimzi-topic-operator-kstreams},1651104604,0
{consumergroup=__strimzi-topic-operator-kstreams},1651104609,0
{consumergroup=__strimzi-topic-operator-kstreams},1651104614,0
{consumergroup=__strimzi-topic-operator-kstreams},1651104619,0
{consumergroup=__strimzi-topic-operator-kstreams},1651104624,0
{consumergroup=__strimzi-topic-operator-kstreams},1651104629,0
{consumergroup=__strimzi-topic-operator-kstreams},1651104634,0
{consumergroup=__strimzi-topic-operator-kstreams},1651104639,0
{consumergroup=__strimzi-topic-operator-kstreams},1651104644,0
{consumergroup=__strimzi-topic-operator-kstreams},1651104649,0
{consumergroup=__strimzi-topic-operator-kstreams},1651104654,0
{consumergroup=__strimzi-topic-operator-kstreams},1651104659,0
{consumergroup=__strimzi-topic-operator-kstreams},1651104664,0
{consumergroup=__strimzi-topic-operator-kstreams},1651104669,0
{consumergroup=__strimzi-topic-operator-kstreams},1651104674,0
{consumergroup=__strimzi-topic-operator-kstreams},1651104679,0
{consumergroup=__strimzi-topic-operator-kstreams},1651104684,0
{consumergroup=__strimzi-topic-operator-kstreams},1651104689,0
{consumergroup=__strimzi-topic-operator-kstreams},1651104694,0
{consumergroup=__strimzi-topic-operator-kstreams},1651104699,0
{consumergroup=__strimzi-topic-operator-kstreams},1651104704,0
{consumergroup=__strimzi-topic-operator-kstreams},1651104709,0
{consumergroup=__strimzi-topic-operator-kstreams},1651104714,0
{consumergroup=__strimzi-topic-operator-kstreams},1651104719,0
{consumergroup=__strimzi-topic-operator-kstreams},1651104724,0
{consumergroup=__strimzi-topic-operator-kstreams},1651104729,0
{consumergroup=__strimzi-topic-operator-kstreams},1651104734,0
{consumergroup=__strimzi-topic-operator-kstreams},1651104739,0
{consumergroup=__strimzi-topic-operator-kstreams},1651104744,0
{consumergroup=__strimzi-topic-operator-kstreams},1651104749,0
{consumergroup=__strimzi-topic-operator-kstreams},1651104754,0
{consumergroup=landscape-service},1651104474,5644
{consumergroup=landscape-service},1651104479,5644
{consumergroup=landscape-service},1651104484,5644
{consumergroup=landscape-service},1651104489,1279319
{consumergroup=landscape-service},1651104494,1279319
{consumergroup=landscape-service},1651104499,1279319
{consumergroup=landscape-service},1651104504,2046340
{consumergroup=landscape-service},1651104509,2046340
{consumergroup=landscape-service},1651104514,2046340
{consumergroup=landscape-service},1651104519,2437047
{consumergroup=landscape-service},1651104524,2437047
{consumergroup=landscape-service},1651104529,2437047
{consumergroup=landscape-service},1651104534,2580992
{consumergroup=landscape-service},1651104539,2580992
{consumergroup=landscape-service},1651104544,2580992
{consumergroup=landscape-service},1651104549,2623899
{consumergroup=landscape-service},1651104554,2623899
{consumergroup=landscape-service},1651104559,2623899
{consumergroup=landscape-service},1651104564,2608275
{consumergroup=landscape-service},1651104569,2608275
{consumergroup=landscape-service},1651104574,2608275
{consumergroup=landscape-service},1651104579,2524961
{consumergroup=landscape-service},1651104584,2524961
{consumergroup=landscape-service},1651104589,2524961
{consumergroup=landscape-service},1651104594,2442007
{consumergroup=landscape-service},1651104599,2442007
{consumergroup=landscape-service},1651104604,2442007
{consumergroup=landscape-service},1651104609,2386543
{consumergroup=landscape-service},1651104614,2386543
{consumergroup=landscape-service},1651104619,2386543
{consumergroup=landscape-service},1651104624,2252949
{consumergroup=landscape-service},1651104629,2252949
{consumergroup=landscape-service},1651104634,2252949
{consumergroup=landscape-service},1651104639,2166024
{consumergroup=landscape-service},1651104644,2166024
{consumergroup=landscape-service},1651104649,2166024
{consumergroup=landscape-service},1651104654,2088349
{consumergroup=landscape-service},1651104659,2088349
{consumergroup=landscape-service},1651104664,2088349
{consumergroup=landscape-service},1651104669,1975832
{consumergroup=landscape-service},1651104674,1975832
{consumergroup=landscape-service},1651104679,1975832
{consumergroup=landscape-service},1651104684,1797975
{consumergroup=landscape-service},1651104689,1797975
{consumergroup=landscape-service},1651104694,1797975
{consumergroup=landscape-service},1651104699,1588270
{consumergroup=landscape-service},1651104704,1588270
{consumergroup=landscape-service},1651104709,1588270
{consumergroup=landscape-service},1651104714,1347171
{consumergroup=landscape-service},1651104719,1347171
{consumergroup=landscape-service},1651104724,1347171
{consumergroup=landscape-service},1651104729,1112732
{consumergroup=landscape-service},1651104734,1112732
{consumergroup=landscape-service},1651104739,1112732
{consumergroup=landscape-service},1651104744,927897
{consumergroup=landscape-service},1651104749,927897
{consumergroup=landscape-service},1651104754,927897
