labels,timestamp,value
{consumergroup=__strimzi-topic-operator-kstreams},1651110012,8
{consumergroup=__strimzi-topic-operator-kstreams},1651110017,8
{consumergroup=__strimzi-topic-operator-kstreams},1651110022,8
{consumergroup=__strimzi-topic-operator-kstreams},1651110027,0
{consumergroup=__strimzi-topic-operator-kstreams},1651110032,0
{consumergroup=__strimzi-topic-operator-kstreams},1651110037,0
{consumergroup=__strimzi-topic-operator-kstreams},1651110042,0
{consumergroup=__strimzi-topic-operator-kstreams},1651110047,0
{consumergroup=__strimzi-topic-operator-kstreams},1651110052,0
{consumergroup=__strimzi-topic-operator-kstreams},1651110057,0
{consumergroup=__strimzi-topic-operator-kstreams},1651110062,0
{consumergroup=__strimzi-topic-operator-kstreams},1651110067,0
{consumergroup=__strimzi-topic-operator-kstreams},1651110072,0
{consumergroup=__strimzi-topic-operator-kstreams},1651110077,0
{consumergroup=__strimzi-topic-operator-kstreams},1651110082,0
{consumergroup=__strimzi-topic-operator-kstreams},1651110087,0
{consumergroup=__strimzi-topic-operator-kstreams},1651110092,0
{consumergroup=__strimzi-topic-operator-kstreams},1651110097,0
{consumergroup=__strimzi-topic-operator-kstreams},1651110102,0
{consumergroup=__strimzi-topic-operator-kstreams},1651110107,0
{consumergroup=__strimzi-topic-operator-kstreams},1651110112,0
{consumergroup=__strimzi-topic-operator-kstreams},1651110117,0
{consumergroup=__strimzi-topic-operator-kstreams},1651110122,0
{consumergroup=__strimzi-topic-operator-kstreams},1651110127,0
{consumergroup=__strimzi-topic-operator-kstreams},1651110132,0
{consumergroup=__strimzi-topic-operator-kstreams},1651110137,0
{consumergroup=__strimzi-topic-operator-kstreams},1651110142,0
{consumergroup=__strimzi-topic-operator-kstreams},1651110147,0
{consumergroup=__strimzi-topic-operator-kstreams},1651110152,0
{consumergroup=__strimzi-topic-operator-kstreams},1651110157,0
{consumergroup=__strimzi-topic-operator-kstreams},1651110162,0
{consumergroup=__strimzi-topic-operator-kstreams},1651110167,0
{consumergroup=__strimzi-topic-operator-kstreams},1651110172,0
{consumergroup=__strimzi-topic-operator-kstreams},1651110177,0
{consumergroup=__strimzi-topic-operator-kstreams},1651110182,0
{consumergroup=__strimzi-topic-operator-kstreams},1651110187,0
{consumergroup=__strimzi-topic-operator-kstreams},1651110192,0
{consumergroup=__strimzi-topic-operator-kstreams},1651110197,0
{consumergroup=__strimzi-topic-operator-kstreams},1651110202,0
{consumergroup=__strimzi-topic-operator-kstreams},1651110207,0
{consumergroup=__strimzi-topic-operator-kstreams},1651110212,0
{consumergroup=__strimzi-topic-operator-kstreams},1651110217,0
{consumergroup=__strimzi-topic-operator-kstreams},1651110222,0
{consumergroup=__strimzi-topic-operator-kstreams},1651110227,0
{consumergroup=__strimzi-topic-operator-kstreams},1651110232,0
{consumergroup=__strimzi-topic-operator-kstreams},1651110237,0
{consumergroup=__strimzi-topic-operator-kstreams},1651110242,0
{consumergroup=__strimzi-topic-operator-kstreams},1651110247,0
{consumergroup=__strimzi-topic-operator-kstreams},1651110252,0
{consumergroup=__strimzi-topic-operator-kstreams},1651110257,0
{consumergroup=__strimzi-topic-operator-kstreams},1651110262,0
{consumergroup=__strimzi-topic-operator-kstreams},1651110267,0
{consumergroup=__strimzi-topic-operator-kstreams},1651110272,0
{consumergroup=__strimzi-topic-operator-kstreams},1651110277,0
{consumergroup=__strimzi-topic-operator-kstreams},1651110282,0
{consumergroup=__strimzi-topic-operator-kstreams},1651110287,0
{consumergroup=__strimzi-topic-operator-kstreams},1651110292,0
{consumergroup=__strimzi-topic-operator-kstreams},1651110297,0
{consumergroup=__strimzi-topic-operator-kstreams},1651110302,0
{consumergroup=__strimzi-topic-operator-kstreams},1651110307,0
{consumergroup=__strimzi-topic-operator-kstreams},1651110312,0
{consumergroup=__strimzi-topic-operator-kstreams},1651110317,0
{consumergroup=landscape-service},1651110042,77935
{consumergroup=landscape-service},1651110047,77935
{consumergroup=landscape-service},1651110052,77935
{consumergroup=landscape-service},1651110057,3194078
{consumergroup=landscape-service},1651110062,3194078
{consumergroup=landscape-service},1651110067,3194078
{consumergroup=landscape-service},1651110072,4593121
{consumergroup=landscape-service},1651110077,4593121
{consumergroup=landscape-service},1651110082,4593121
{consumergroup=landscape-service},1651110087,5410643
{consumergroup=landscape-service},1651110092,5410643
{consumergroup=landscape-service},1651110097,5410643
{consumergroup=landscape-service},1651110102,6004222
{consumergroup=landscape-service},1651110107,6004222
{consumergroup=landscape-service},1651110112,6004222
{consumergroup=landscape-service},1651110117,6345626
{consumergroup=landscape-service},1651110122,6345626
{consumergroup=landscape-service},1651110127,6345626
{consumergroup=landscape-service},1651110132,6673910
{consumergroup=landscape-service},1651110137,6673910
{consumergroup=landscape-service},1651110142,6673910
{consumergroup=landscape-service},1651110147,6881038
{consumergroup=landscape-service},1651110152,6881038
{consumergroup=landscape-service},1651110157,6881038
{consumergroup=landscape-service},1651110162,7295678
{consumergroup=landscape-service},1651110167,7295678
{consumergroup=landscape-service},1651110172,7295678
{consumergroup=landscape-service},1651110177,7412629
{consumergroup=landscape-service},1651110182,7412629
{consumergroup=landscape-service},1651110187,7412629
{consumergroup=landscape-service},1651110192,7738013
{consumergroup=landscape-service},1651110197,7738013
{consumergroup=landscape-service},1651110202,7738013
{consumergroup=landscape-service},1651110207,7851011
{consumergroup=landscape-service},1651110212,7851011
{consumergroup=landscape-service},1651110217,7851011
{consumergroup=landscape-service},1651110222,8082429
{consumergroup=landscape-service},1651110227,8082429
{consumergroup=landscape-service},1651110232,8082429
{consumergroup=landscape-service},1651110237,8232457
{consumergroup=landscape-service},1651110242,8232457
{consumergroup=landscape-service},1651110247,8232457
{consumergroup=landscape-service},1651110252,8510814
{consumergroup=landscape-service},1651110257,8510814
{consumergroup=landscape-service},1651110262,8510814
{consumergroup=landscape-service},1651110267,8513008
{consumergroup=landscape-service},1651110272,8513008
{consumergroup=landscape-service},1651110277,8513008
{consumergroup=landscape-service},1651110282,8699764
{consumergroup=landscape-service},1651110287,8699764
{consumergroup=landscape-service},1651110292,8699764
{consumergroup=landscape-service},1651110297,8781530
{consumergroup=landscape-service},1651110302,8781530
{consumergroup=landscape-service},1651110307,8781530
{consumergroup=landscape-service},1651110312,8989732
{consumergroup=landscape-service},1651110317,8989732
