labels,timestamp,value
{consumergroup=__strimzi-topic-operator-kstreams},1651089138,0
{consumergroup=__strimzi-topic-operator-kstreams},1651089143,0
{consumergroup=__strimzi-topic-operator-kstreams},1651089148,0
{consumergroup=__strimzi-topic-operator-kstreams},1651089153,0
{consumergroup=__strimzi-topic-operator-kstreams},1651089158,0
{consumergroup=__strimzi-topic-operator-kstreams},1651089163,0
{consumergroup=__strimzi-topic-operator-kstreams},1651089168,0
{consumergroup=__strimzi-topic-operator-kstreams},1651089173,0
{consumergroup=__strimzi-topic-operator-kstreams},1651089178,0
{consumergroup=__strimzi-topic-operator-kstreams},1651089183,0
{consumergroup=__strimzi-topic-operator-kstreams},1651089188,0
{consumergroup=__strimzi-topic-operator-kstreams},1651089193,0
{consumergroup=__strimzi-topic-operator-kstreams},1651089198,0
{consumergroup=__strimzi-topic-operator-kstreams},1651089203,0
{consumergroup=__strimzi-topic-operator-kstreams},1651089208,0
{consumergroup=__strimzi-topic-operator-kstreams},1651089213,0
{consumergroup=__strimzi-topic-operator-kstreams},1651089218,0
{consumergroup=__strimzi-topic-operator-kstreams},1651089223,0
{consumergroup=__strimzi-topic-operator-kstreams},1651089228,0
{consumergroup=__strimzi-topic-operator-kstreams},1651089233,0
{consumergroup=__strimzi-topic-operator-kstreams},1651089238,0
{consumergroup=__strimzi-topic-operator-kstreams},1651089243,0
{consumergroup=__strimzi-topic-operator-kstreams},1651089248,0
{consumergroup=__strimzi-topic-operator-kstreams},1651089253,0
{consumergroup=__strimzi-topic-operator-kstreams},1651089258,0
{consumergroup=__strimzi-topic-operator-kstreams},1651089263,0
{consumergroup=__strimzi-topic-operator-kstreams},1651089268,0
{consumergroup=__strimzi-topic-operator-kstreams},1651089273,0
{consumergroup=__strimzi-topic-operator-kstreams},1651089278,0
{consumergroup=__strimzi-topic-operator-kstreams},1651089283,0
{consumergroup=__strimzi-topic-operator-kstreams},1651089288,0
{consumergroup=__strimzi-topic-operator-kstreams},1651089293,0
{consumergroup=__strimzi-topic-operator-kstreams},1651089298,0
{consumergroup=__strimzi-topic-operator-kstreams},1651089303,0
{consumergroup=__strimzi-topic-operator-kstreams},1651089308,0
{consumergroup=__strimzi-topic-operator-kstreams},1651089313,0
{consumergroup=__strimzi-topic-operator-kstreams},1651089318,0
{consumergroup=__strimzi-topic-operator-kstreams},1651089323,0
{consumergroup=__strimzi-topic-operator-kstreams},1651089328,0
{consumergroup=__strimzi-topic-operator-kstreams},1651089333,0
{consumergroup=__strimzi-topic-operator-kstreams},1651089338,0
{consumergroup=__strimzi-topic-operator-kstreams},1651089343,0
{consumergroup=__strimzi-topic-operator-kstreams},1651089348,0
{consumergroup=__strimzi-topic-operator-kstreams},1651089353,0
{consumergroup=__strimzi-topic-operator-kstreams},1651089358,0
{consumergroup=__strimzi-topic-operator-kstreams},1651089363,0
{consumergroup=__strimzi-topic-operator-kstreams},1651089368,0
{consumergroup=__strimzi-topic-operator-kstreams},1651089373,0
{consumergroup=__strimzi-topic-operator-kstreams},1651089378,0
{consumergroup=__strimzi-topic-operator-kstreams},1651089383,0
{consumergroup=__strimzi-topic-operator-kstreams},1651089388,0
{consumergroup=__strimzi-topic-operator-kstreams},1651089393,0
{consumergroup=__strimzi-topic-operator-kstreams},1651089398,0
{consumergroup=__strimzi-topic-operator-kstreams},1651089403,0
{consumergroup=__strimzi-topic-operator-kstreams},1651089408,0
{consumergroup=__strimzi-topic-operator-kstreams},1651089413,0
{consumergroup=__strimzi-topic-operator-kstreams},1651089418,0
{consumergroup=__strimzi-topic-operator-kstreams},1651089423,0
{consumergroup=__strimzi-topic-operator-kstreams},1651089428,0
{consumergroup=__strimzi-topic-operator-kstreams},1651089433,0
{consumergroup=__strimzi-topic-operator-kstreams},1651089438,0
{consumergroup=__strimzi-topic-operator-kstreams},1651089443,0
{consumergroup=__strimzi-topic-operator-kstreams},1651089448,0
{consumergroup=landscape-service},1651089168,3204
{consumergroup=landscape-service},1651089173,3204
{consumergroup=landscape-service},1651089178,3204
{consumergroup=landscape-service},1651089183,518234
{consumergroup=landscape-service},1651089188,518234
{consumergroup=landscape-service},1651089193,518234
{consumergroup=landscape-service},1651089198,1080016
{consumergroup=landscape-service},1651089203,1080016
{consumergroup=landscape-service},1651089208,1080016
{consumergroup=landscape-service},1651089213,1338186
{consumergroup=landscape-service},1651089218,1338186
{consumergroup=landscape-service},1651089223,1338186
{consumergroup=landscape-service},1651089228,1523738
{consumergroup=landscape-service},1651089233,1523738
{consumergroup=landscape-service},1651089238,1523738
{consumergroup=landscape-service},1651089243,1578628
{consumergroup=landscape-service},1651089248,1578628
{consumergroup=landscape-service},1651089253,1578628
{consumergroup=landscape-service},1651089258,1578057
{consumergroup=landscape-service},1651089263,1578057
{consumergroup=landscape-service},1651089268,1578057
{consumergroup=landscape-service},1651089273,1487349
{consumergroup=landscape-service},1651089278,1487349
{consumergroup=landscape-service},1651089283,1487349
{consumergroup=landscape-service},1651089288,1423714
{consumergroup=landscape-service},1651089293,1423714
{consumergroup=landscape-service},1651089298,1423714
{consumergroup=landscape-service},1651089303,1363440
{consumergroup=landscape-service},1651089308,1363440
{consumergroup=landscape-service},1651089313,1363440
{consumergroup=landscape-service},1651089318,1302460
{consumergroup=landscape-service},1651089323,1302460
{consumergroup=landscape-service},1651089328,1302460
{consumergroup=landscape-service},1651089333,1205018
{consumergroup=landscape-service},1651089338,1205018
{consumergroup=landscape-service},1651089343,1205018
{consumergroup=landscape-service},1651089348,1125401
{consumergroup=landscape-service},1651089353,1125401
{consumergroup=landscape-service},1651089358,1125401
{consumergroup=landscape-service},1651089363,1106623
{consumergroup=landscape-service},1651089368,1106623
{consumergroup=landscape-service},1651089373,1106623
{consumergroup=landscape-service},1651089378,1008552
{consumergroup=landscape-service},1651089383,1008552
{consumergroup=landscape-service},1651089388,1008552
{consumergroup=landscape-service},1651089393,880482
{consumergroup=landscape-service},1651089398,880482
{consumergroup=landscape-service},1651089403,880482
{consumergroup=landscape-service},1651089408,782988
{consumergroup=landscape-service},1651089413,782988
{consumergroup=landscape-service},1651089418,782988
{consumergroup=landscape-service},1651089423,722110
{consumergroup=landscape-service},1651089428,722110
{consumergroup=landscape-service},1651089433,722110
{consumergroup=landscape-service},1651089438,608863
{consumergroup=landscape-service},1651089443,608863
{consumergroup=landscape-service},1651089448,608863
