labels,timestamp,value
{consumergroup=__strimzi-topic-operator-kstreams},1651094316,0
{consumergroup=__strimzi-topic-operator-kstreams},1651094321,0
{consumergroup=__strimzi-topic-operator-kstreams},1651094326,0
{consumergroup=__strimzi-topic-operator-kstreams},1651094331,0
{consumergroup=__strimzi-topic-operator-kstreams},1651094336,0
{consumergroup=__strimzi-topic-operator-kstreams},1651094341,0
{consumergroup=__strimzi-topic-operator-kstreams},1651094346,0
{consumergroup=__strimzi-topic-operator-kstreams},1651094351,0
{consumergroup=__strimzi-topic-operator-kstreams},1651094356,0
{consumergroup=__strimzi-topic-operator-kstreams},1651094361,0
{consumergroup=__strimzi-topic-operator-kstreams},1651094366,0
{consumergroup=__strimzi-topic-operator-kstreams},1651094371,0
{consumergroup=__strimzi-topic-operator-kstreams},1651094376,0
{consumergroup=__strimzi-topic-operator-kstreams},1651094381,0
{consumergroup=__strimzi-topic-operator-kstreams},1651094386,0
{consumergroup=__strimzi-topic-operator-kstreams},1651094391,0
{consumergroup=__strimzi-topic-operator-kstreams},1651094396,0
{consumergroup=__strimzi-topic-operator-kstreams},1651094401,0
{consumergroup=__strimzi-topic-operator-kstreams},1651094406,0
{consumergroup=__strimzi-topic-operator-kstreams},1651094411,0
{consumergroup=__strimzi-topic-operator-kstreams},1651094416,0
{consumergroup=__strimzi-topic-operator-kstreams},1651094421,0
{consumergroup=__strimzi-topic-operator-kstreams},1651094426,0
{consumergroup=__strimzi-topic-operator-kstreams},1651094431,0
{consumergroup=__strimzi-topic-operator-kstreams},1651094436,0
{consumergroup=__strimzi-topic-operator-kstreams},1651094441,0
{consumergroup=__strimzi-topic-operator-kstreams},1651094446,0
{consumergroup=__strimzi-topic-operator-kstreams},1651094451,0
{consumergroup=__strimzi-topic-operator-kstreams},1651094456,0
{consumergroup=__strimzi-topic-operator-kstreams},1651094461,0
{consumergroup=__strimzi-topic-operator-kstreams},1651094466,0
{consumergroup=__strimzi-topic-operator-kstreams},1651094471,0
{consumergroup=__strimzi-topic-operator-kstreams},1651094476,0
{consumergroup=__strimzi-topic-operator-kstreams},1651094481,0
{consumergroup=__strimzi-topic-operator-kstreams},1651094486,0
{consumergroup=__strimzi-topic-operator-kstreams},1651094491,0
{consumergroup=__strimzi-topic-operator-kstreams},1651094496,0
{consumergroup=__strimzi-topic-operator-kstreams},1651094501,0
{consumergroup=__strimzi-topic-operator-kstreams},1651094506,0
{consumergroup=__strimzi-topic-operator-kstreams},1651094511,0
{consumergroup=__strimzi-topic-operator-kstreams},1651094516,0
{consumergroup=__strimzi-topic-operator-kstreams},1651094521,0
{consumergroup=__strimzi-topic-operator-kstreams},1651094526,0
{consumergroup=__strimzi-topic-operator-kstreams},1651094531,0
{consumergroup=__strimzi-topic-operator-kstreams},1651094536,0
{consumergroup=__strimzi-topic-operator-kstreams},1651094541,0
{consumergroup=__strimzi-topic-operator-kstreams},1651094546,0
{consumergroup=__strimzi-topic-operator-kstreams},1651094551,0
{consumergroup=__strimzi-topic-operator-kstreams},1651094556,0
{consumergroup=__strimzi-topic-operator-kstreams},1651094561,0
{consumergroup=__strimzi-topic-operator-kstreams},1651094566,0
{consumergroup=__strimzi-topic-operator-kstreams},1651094571,0
{consumergroup=__strimzi-topic-operator-kstreams},1651094576,0
{consumergroup=__strimzi-topic-operator-kstreams},1651094581,0
{consumergroup=__strimzi-topic-operator-kstreams},1651094586,0
{consumergroup=__strimzi-topic-operator-kstreams},1651094591,0
{consumergroup=__strimzi-topic-operator-kstreams},1651094596,0
{consumergroup=__strimzi-topic-operator-kstreams},1651094601,0
{consumergroup=__strimzi-topic-operator-kstreams},1651094606,0
{consumergroup=__strimzi-topic-operator-kstreams},1651094611,0
{consumergroup=__strimzi-topic-operator-kstreams},1651094616,0
{consumergroup=__strimzi-topic-operator-kstreams},1651094621,0
{consumergroup=__strimzi-topic-operator-kstreams},1651094626,0
{consumergroup=landscape-service},1651094346,18609
{consumergroup=landscape-service},1651094351,18609
{consumergroup=landscape-service},1651094356,18609
{consumergroup=landscape-service},1651094361,2712735
{consumergroup=landscape-service},1651094366,2712735
{consumergroup=landscape-service},1651094371,2712735
{consumergroup=landscape-service},1651094376,4127454
{consumergroup=landscape-service},1651094381,4127454
{consumergroup=landscape-service},1651094386,4127454
{consumergroup=landscape-service},1651094391,4340830
{consumergroup=landscape-service},1651094396,4340830
{consumergroup=landscape-service},1651094401,4340830
{consumergroup=landscape-service},1651094406,4408508
{consumergroup=landscape-service},1651094411,4408508
{consumergroup=landscape-service},1651094416,4408508
{consumergroup=landscape-service},1651094421,4683658
{consumergroup=landscape-service},1651094426,4683658
{consumergroup=landscape-service},1651094431,4683658
{consumergroup=landscape-service},1651094436,4295858
{consumergroup=landscape-service},1651094441,4295858
{consumergroup=landscape-service},1651094446,4295858
{consumergroup=landscape-service},1651094451,4063526
{consumergroup=landscape-service},1651094456,4063526
{consumergroup=landscape-service},1651094461,4063526
{consumergroup=landscape-service},1651094466,3746021
{consumergroup=landscape-service},1651094471,3746021
{consumergroup=landscape-service},1651094476,3746021
{consumergroup=landscape-service},1651094481,3491098
{consumergroup=landscape-service},1651094486,3491098
{consumergroup=landscape-service},1651094491,3491098
{consumergroup=landscape-service},1651094496,3242037
{consumergroup=landscape-service},1651094501,3242037
{consumergroup=landscape-service},1651094506,3242037
{consumergroup=landscape-service},1651094511,3131086
{consumergroup=landscape-service},1651094516,3131086
{consumergroup=landscape-service},1651094521,3131086
{consumergroup=landscape-service},1651094526,2759653
{consumergroup=landscape-service},1651094531,2759653
{consumergroup=landscape-service},1651094536,2759653
{consumergroup=landscape-service},1651094541,2579243
{consumergroup=landscape-service},1651094546,2579243
{consumergroup=landscape-service},1651094551,2579243
{consumergroup=landscape-service},1651094556,2322636
{consumergroup=landscape-service},1651094561,2322636
{consumergroup=landscape-service},1651094566,2322636
{consumergroup=landscape-service},1651094571,2101177
{consumergroup=landscape-service},1651094576,2101177
{consumergroup=landscape-service},1651094581,2101177
{consumergroup=landscape-service},1651094586,1727483
{consumergroup=landscape-service},1651094591,1727483
{consumergroup=landscape-service},1651094596,1727483
{consumergroup=landscape-service},1651094601,1458578
{consumergroup=landscape-service},1651094606,1458578
{consumergroup=landscape-service},1651094611,1458578
{consumergroup=landscape-service},1651094616,1164262
{consumergroup=landscape-service},1651094621,1164262
{consumergroup=landscape-service},1651094626,1164262
