labels,timestamp,value
{consumergroup=__strimzi-topic-operator-kstreams},1651105175,0
{consumergroup=__strimzi-topic-operator-kstreams},1651105180,0
{consumergroup=__strimzi-topic-operator-kstreams},1651105185,0
{consumergroup=__strimzi-topic-operator-kstreams},1651105190,0
{consumergroup=__strimzi-topic-operator-kstreams},1651105195,0
{consumergroup=__strimzi-topic-operator-kstreams},1651105200,0
{consumergroup=__strimzi-topic-operator-kstreams},1651105205,0
{consumergroup=__strimzi-topic-operator-kstreams},1651105210,0
{consumergroup=__strimzi-topic-operator-kstreams},1651105215,0
{consumergroup=__strimzi-topic-operator-kstreams},1651105220,0
{consumergroup=__strimzi-topic-operator-kstreams},1651105225,0
{consumergroup=__strimzi-topic-operator-kstreams},1651105230,0
{consumergroup=__strimzi-topic-operator-kstreams},1651105235,0
{consumergroup=__strimzi-topic-operator-kstreams},1651105240,0
{consumergroup=__strimzi-topic-operator-kstreams},1651105245,0
{consumergroup=__strimzi-topic-operator-kstreams},1651105250,0
{consumergroup=__strimzi-topic-operator-kstreams},1651105255,0
{consumergroup=__strimzi-topic-operator-kstreams},1651105260,0
{consumergroup=__strimzi-topic-operator-kstreams},1651105265,0
{consumergroup=__strimzi-topic-operator-kstreams},1651105270,0
{consumergroup=__strimzi-topic-operator-kstreams},1651105275,0
{consumergroup=__strimzi-topic-operator-kstreams},1651105280,0
{consumergroup=__strimzi-topic-operator-kstreams},1651105285,0
{consumergroup=__strimzi-topic-operator-kstreams},1651105290,0
{consumergroup=__strimzi-topic-operator-kstreams},1651105295,0
{consumergroup=__strimzi-topic-operator-kstreams},1651105300,0
{consumergroup=__strimzi-topic-operator-kstreams},1651105305,0
{consumergroup=__strimzi-topic-operator-kstreams},1651105310,0
{consumergroup=__strimzi-topic-operator-kstreams},1651105315,0
{consumergroup=__strimzi-topic-operator-kstreams},1651105320,0
{consumergroup=__strimzi-topic-operator-kstreams},1651105325,0
{consumergroup=__strimzi-topic-operator-kstreams},1651105330,0
{consumergroup=__strimzi-topic-operator-kstreams},1651105335,0
{consumergroup=__strimzi-topic-operator-kstreams},1651105340,0
{consumergroup=__strimzi-topic-operator-kstreams},1651105345,0
{consumergroup=__strimzi-topic-operator-kstreams},1651105350,0
{consumergroup=__strimzi-topic-operator-kstreams},1651105355,0
{consumergroup=__strimzi-topic-operator-kstreams},1651105360,0
{consumergroup=__strimzi-topic-operator-kstreams},1651105365,0
{consumergroup=__strimzi-topic-operator-kstreams},1651105370,0
{consumergroup=__strimzi-topic-operator-kstreams},1651105375,0
{consumergroup=__strimzi-topic-operator-kstreams},1651105380,0
{consumergroup=__strimzi-topic-operator-kstreams},1651105385,0
{consumergroup=__strimzi-topic-operator-kstreams},1651105390,0
{consumergroup=__strimzi-topic-operator-kstreams},1651105395,0
{consumergroup=__strimzi-topic-operator-kstreams},1651105400,0
{consumergroup=__strimzi-topic-operator-kstreams},1651105405,0
{consumergroup=__strimzi-topic-operator-kstreams},1651105410,0
{consumergroup=__strimzi-topic-operator-kstreams},1651105415,0
{consumergroup=__strimzi-topic-operator-kstreams},1651105420,0
{consumergroup=__strimzi-topic-operator-kstreams},1651105425,0
{consumergroup=__strimzi-topic-operator-kstreams},1651105430,0
{consumergroup=__strimzi-topic-operator-kstreams},1651105435,0
{consumergroup=__strimzi-topic-operator-kstreams},1651105440,0
{consumergroup=__strimzi-topic-operator-kstreams},1651105445,0
{consumergroup=__strimzi-topic-operator-kstreams},1651105450,0
{consumergroup=__strimzi-topic-operator-kstreams},1651105455,0
{consumergroup=__strimzi-topic-operator-kstreams},1651105460,0
{consumergroup=__strimzi-topic-operator-kstreams},1651105465,0
{consumergroup=__strimzi-topic-operator-kstreams},1651105470,0
{consumergroup=__strimzi-topic-operator-kstreams},1651105475,0
{consumergroup=__strimzi-topic-operator-kstreams},1651105480,0
{consumergroup=landscape-service},1651105205,180365
{consumergroup=landscape-service},1651105210,180365
{consumergroup=landscape-service},1651105215,180365
{consumergroup=landscape-service},1651105220,1798414
{consumergroup=landscape-service},1651105225,1798414
{consumergroup=landscape-service},1651105230,1798414
{consumergroup=landscape-service},1651105235,2466061
{consumergroup=landscape-service},1651105240,2466061
{consumergroup=landscape-service},1651105245,2466061
{consumergroup=landscape-service},1651105250,2873063
{consumergroup=landscape-service},1651105255,2873063
{consumergroup=landscape-service},1651105260,2873063
{consumergroup=landscape-service},1651105265,3154898
{consumergroup=landscape-service},1651105270,3154898
{consumergroup=landscape-service},1651105275,3154898
{consumergroup=landscape-service},1651105280,3226882
{consumergroup=landscape-service},1651105285,3226882
{consumergroup=landscape-service},1651105290,3226882
{consumergroup=landscape-service},1651105295,3358911
{consumergroup=landscape-service},1651105300,3358911
{consumergroup=landscape-service},1651105305,3358911
{consumergroup=landscape-service},1651105310,3322894
{consumergroup=landscape-service},1651105315,3322894
{consumergroup=landscape-service},1651105320,3322894
{consumergroup=landscape-service},1651105325,3373667
{consumergroup=landscape-service},1651105330,3373667
{consumergroup=landscape-service},1651105335,3373667
{consumergroup=landscape-service},1651105340,3398668
{consumergroup=landscape-service},1651105345,3398668
{consumergroup=landscape-service},1651105350,3398668
{consumergroup=landscape-service},1651105355,3302876
{consumergroup=landscape-service},1651105360,3302876
{consumergroup=landscape-service},1651105365,3302876
{consumergroup=landscape-service},1651105370,3395521
{consumergroup=landscape-service},1651105375,3395521
{consumergroup=landscape-service},1651105380,3395521
{consumergroup=landscape-service},1651105385,3327051
{consumergroup=landscape-service},1651105390,3327051
{consumergroup=landscape-service},1651105395,3327051
{consumergroup=landscape-service},1651105400,3288218
{consumergroup=landscape-service},1651105405,3288218
{consumergroup=landscape-service},1651105410,3288218
{consumergroup=landscape-service},1651105415,3191450
{consumergroup=landscape-service},1651105420,3191450
{consumergroup=landscape-service},1651105425,3191450
{consumergroup=landscape-service},1651105430,3145689
{consumergroup=landscape-service},1651105435,3145689
{consumergroup=landscape-service},1651105440,3145689
{consumergroup=landscape-service},1651105445,3024184
{consumergroup=landscape-service},1651105450,3024184
{consumergroup=landscape-service},1651105455,3024184
{consumergroup=landscape-service},1651105460,2930587
{consumergroup=landscape-service},1651105465,2930587
{consumergroup=landscape-service},1651105470,2930587
{consumergroup=landscape-service},1651105475,2826661
{consumergroup=landscape-service},1651105480,2826661
