labels,timestamp,value
{consumergroup=__strimzi-topic-operator-kstreams},1651107786,10
{consumergroup=__strimzi-topic-operator-kstreams},1651107791,10
{consumergroup=__strimzi-topic-operator-kstreams},1651107796,10
{consumergroup=__strimzi-topic-operator-kstreams},1651107801,0
{consumergroup=__strimzi-topic-operator-kstreams},1651107806,0
{consumergroup=__strimzi-topic-operator-kstreams},1651107811,0
{consumergroup=__strimzi-topic-operator-kstreams},1651107816,0
{consumergroup=__strimzi-topic-operator-kstreams},1651107821,0
{consumergroup=__strimzi-topic-operator-kstreams},1651107826,0
{consumergroup=__strimzi-topic-operator-kstreams},1651107831,0
{consumergroup=__strimzi-topic-operator-kstreams},1651107836,0
{consumergroup=__strimzi-topic-operator-kstreams},1651107841,0
{consumergroup=__strimzi-topic-operator-kstreams},1651107846,0
{consumergroup=__strimzi-topic-operator-kstreams},1651107851,0
{consumergroup=__strimzi-topic-operator-kstreams},1651107856,0
{consumergroup=__strimzi-topic-operator-kstreams},1651107861,0
{consumergroup=__strimzi-topic-operator-kstreams},1651107866,0
{consumergroup=__strimzi-topic-operator-kstreams},1651107871,0
{consumergroup=__strimzi-topic-operator-kstreams},1651107876,0
{consumergroup=__strimzi-topic-operator-kstreams},1651107881,0
{consumergroup=__strimzi-topic-operator-kstreams},1651107886,0
{consumergroup=__strimzi-topic-operator-kstreams},1651107891,0
{consumergroup=__strimzi-topic-operator-kstreams},1651107896,0
{consumergroup=__strimzi-topic-operator-kstreams},1651107901,0
{consumergroup=__strimzi-topic-operator-kstreams},1651107906,0
{consumergroup=__strimzi-topic-operator-kstreams},1651107911,0
{consumergroup=__strimzi-topic-operator-kstreams},1651107916,0
{consumergroup=__strimzi-topic-operator-kstreams},1651107921,0
{consumergroup=__strimzi-topic-operator-kstreams},1651107926,0
{consumergroup=__strimzi-topic-operator-kstreams},1651107931,0
{consumergroup=__strimzi-topic-operator-kstreams},1651107936,0
{consumergroup=__strimzi-topic-operator-kstreams},1651107941,0
{consumergroup=__strimzi-topic-operator-kstreams},1651107946,0
{consumergroup=__strimzi-topic-operator-kstreams},1651107951,0
{consumergroup=__strimzi-topic-operator-kstreams},1651107956,0
{consumergroup=__strimzi-topic-operator-kstreams},1651107961,0
{consumergroup=__strimzi-topic-operator-kstreams},1651107966,0
{consumergroup=__strimzi-topic-operator-kstreams},1651107971,0
{consumergroup=__strimzi-topic-operator-kstreams},1651107976,0
{consumergroup=__strimzi-topic-operator-kstreams},1651107981,0
{consumergroup=__strimzi-topic-operator-kstreams},1651107986,0
{consumergroup=__strimzi-topic-operator-kstreams},1651107991,0
{consumergroup=__strimzi-topic-operator-kstreams},1651107996,0
{consumergroup=__strimzi-topic-operator-kstreams},1651108001,0
{consumergroup=__strimzi-topic-operator-kstreams},1651108006,0
{consumergroup=__strimzi-topic-operator-kstreams},1651108011,0
{consumergroup=__strimzi-topic-operator-kstreams},1651108016,0
{consumergroup=__strimzi-topic-operator-kstreams},1651108021,0
{consumergroup=__strimzi-topic-operator-kstreams},1651108026,0
{consumergroup=__strimzi-topic-operator-kstreams},1651108031,0
{consumergroup=__strimzi-topic-operator-kstreams},1651108036,0
{consumergroup=__strimzi-topic-operator-kstreams},1651108041,0
{consumergroup=__strimzi-topic-operator-kstreams},1651108046,0
{consumergroup=__strimzi-topic-operator-kstreams},1651108051,0
{consumergroup=__strimzi-topic-operator-kstreams},1651108056,0
{consumergroup=__strimzi-topic-operator-kstreams},1651108061,0
{consumergroup=__strimzi-topic-operator-kstreams},1651108066,0
{consumergroup=__strimzi-topic-operator-kstreams},1651108071,0
{consumergroup=__strimzi-topic-operator-kstreams},1651108076,0
{consumergroup=__strimzi-topic-operator-kstreams},1651108081,0
{consumergroup=__strimzi-topic-operator-kstreams},1651108086,0
{consumergroup=__strimzi-topic-operator-kstreams},1651108091,0
{consumergroup=__strimzi-topic-operator-kstreams},1651108096,0
{consumergroup=__strimzi-topic-operator-kstreams},1651108101,0
{consumergroup=landscape-service},1651107831,1338202
{consumergroup=landscape-service},1651107836,1338202
{consumergroup=landscape-service},1651107841,1338202
{consumergroup=landscape-service},1651107846,2692451
{consumergroup=landscape-service},1651107851,2692451
{consumergroup=landscape-service},1651107856,2692451
{consumergroup=landscape-service},1651107861,3511777
{consumergroup=landscape-service},1651107866,3511777
{consumergroup=landscape-service},1651107871,3511777
{consumergroup=landscape-service},1651107876,3987033
{consumergroup=landscape-service},1651107881,3987033
{consumergroup=landscape-service},1651107886,3987033
{consumergroup=landscape-service},1651107891,4288233
{consumergroup=landscape-service},1651107896,4288233
{consumergroup=landscape-service},1651107901,4288233
{consumergroup=landscape-service},1651107906,4411214
{consumergroup=landscape-service},1651107911,4411214
{consumergroup=landscape-service},1651107916,4411214
{consumergroup=landscape-service},1651107921,4516197
{consumergroup=landscape-service},1651107926,4516197
{consumergroup=landscape-service},1651107931,4516197
{consumergroup=landscape-service},1651107936,4572826
{consumergroup=landscape-service},1651107941,4572826
{consumergroup=landscape-service},1651107946,4572826
{consumergroup=landscape-service},1651107951,4680335
{consumergroup=landscape-service},1651107956,4680335
{consumergroup=landscape-service},1651107961,4680335
{consumergroup=landscape-service},1651107966,4805127
{consumergroup=landscape-service},1651107971,4805127
{consumergroup=landscape-service},1651107976,4805127
{consumergroup=landscape-service},1651107981,4820891
{consumergroup=landscape-service},1651107986,4820891
{consumergroup=landscape-service},1651107991,4820891
{consumergroup=landscape-service},1651107996,4878250
{consumergroup=landscape-service},1651108001,4878250
{consumergroup=landscape-service},1651108006,4878250
{consumergroup=landscape-service},1651108011,5029291
{consumergroup=landscape-service},1651108016,5029291
{consumergroup=landscape-service},1651108021,5029291
{consumergroup=landscape-service},1651108026,4993134
{consumergroup=landscape-service},1651108031,4993134
{consumergroup=landscape-service},1651108036,4993134
{consumergroup=landscape-service},1651108041,5137181
{consumergroup=landscape-service},1651108046,5137181
{consumergroup=landscape-service},1651108051,5137181
{consumergroup=landscape-service},1651108056,5238407
{consumergroup=landscape-service},1651108061,5238407
{consumergroup=landscape-service},1651108066,5238407
{consumergroup=landscape-service},1651108071,5266927
{consumergroup=landscape-service},1651108076,5266927
{consumergroup=landscape-service},1651108081,5266927
{consumergroup=landscape-service},1651108086,5166495
{consumergroup=landscape-service},1651108091,5166495
{consumergroup=landscape-service},1651108096,5166495
{consumergroup=landscape-service},1651108101,5414697
