labels,timestamp,value
{consumergroup=__strimzi-topic-operator-kstreams},1651100736,8
{consumergroup=__strimzi-topic-operator-kstreams},1651100741,8
{consumergroup=__strimzi-topic-operator-kstreams},1651100746,8
{consumergroup=__strimzi-topic-operator-kstreams},1651100751,0
{consumergroup=__strimzi-topic-operator-kstreams},1651100756,0
{consumergroup=__strimzi-topic-operator-kstreams},1651100761,0
{consumergroup=__strimzi-topic-operator-kstreams},1651100766,0
{consumergroup=__strimzi-topic-operator-kstreams},1651100771,0
{consumergroup=__strimzi-topic-operator-kstreams},1651100776,0
{consumergroup=__strimzi-topic-operator-kstreams},1651100781,0
{consumergroup=__strimzi-topic-operator-kstreams},1651100786,0
{consumergroup=__strimzi-topic-operator-kstreams},1651100791,0
{consumergroup=__strimzi-topic-operator-kstreams},1651100796,0
{consumergroup=__strimzi-topic-operator-kstreams},1651100801,0
{consumergroup=__strimzi-topic-operator-kstreams},1651100806,0
{consumergroup=__strimzi-topic-operator-kstreams},1651100811,0
{consumergroup=__strimzi-topic-operator-kstreams},1651100816,0
{consumergroup=__strimzi-topic-operator-kstreams},1651100821,0
{consumergroup=__strimzi-topic-operator-kstreams},1651100826,0
{consumergroup=__strimzi-topic-operator-kstreams},1651100831,0
{consumergroup=__strimzi-topic-operator-kstreams},1651100836,0
{consumergroup=__strimzi-topic-operator-kstreams},1651100841,0
{consumergroup=__strimzi-topic-operator-kstreams},1651100846,0
{consumergroup=__strimzi-topic-operator-kstreams},1651100851,0
{consumergroup=__strimzi-topic-operator-kstreams},1651100856,0
{consumergroup=__strimzi-topic-operator-kstreams},1651100861,0
{consumergroup=__strimzi-topic-operator-kstreams},1651100866,0
{consumergroup=__strimzi-topic-operator-kstreams},1651100871,0
{consumergroup=__strimzi-topic-operator-kstreams},1651100876,0
{consumergroup=__strimzi-topic-operator-kstreams},1651100881,0
{consumergroup=__strimzi-topic-operator-kstreams},1651100886,0
{consumergroup=__strimzi-topic-operator-kstreams},1651100891,0
{consumergroup=__strimzi-topic-operator-kstreams},1651100896,0
{consumergroup=__strimzi-topic-operator-kstreams},1651100901,0
{consumergroup=__strimzi-topic-operator-kstreams},1651100906,0
{consumergroup=__strimzi-topic-operator-kstreams},1651100911,0
{consumergroup=__strimzi-topic-operator-kstreams},1651100916,0
{consumergroup=__strimzi-topic-operator-kstreams},1651100921,0
{consumergroup=__strimzi-topic-operator-kstreams},1651100926,0
{consumergroup=__strimzi-topic-operator-kstreams},1651100931,0
{consumergroup=__strimzi-topic-operator-kstreams},1651100936,0
{consumergroup=__strimzi-topic-operator-kstreams},1651100941,0
{consumergroup=__strimzi-topic-operator-kstreams},1651100946,0
{consumergroup=__strimzi-topic-operator-kstreams},1651100951,0
{consumergroup=__strimzi-topic-operator-kstreams},1651100956,0
{consumergroup=__strimzi-topic-operator-kstreams},1651100961,0
{consumergroup=__strimzi-topic-operator-kstreams},1651100966,0
{consumergroup=__strimzi-topic-operator-kstreams},1651100971,0
{consumergroup=__strimzi-topic-operator-kstreams},1651100976,0
{consumergroup=__strimzi-topic-operator-kstreams},1651100981,0
{consumergroup=__strimzi-topic-operator-kstreams},1651100986,0
{consumergroup=__strimzi-topic-operator-kstreams},1651100991,0
{consumergroup=__strimzi-topic-operator-kstreams},1651100996,0
{consumergroup=__strimzi-topic-operator-kstreams},1651101001,0
{consumergroup=__strimzi-topic-operator-kstreams},1651101006,0
{consumergroup=__strimzi-topic-operator-kstreams},1651101011,0
{consumergroup=__strimzi-topic-operator-kstreams},1651101016,0
{consumergroup=__strimzi-topic-operator-kstreams},1651101021,0
{consumergroup=__strimzi-topic-operator-kstreams},1651101026,0
{consumergroup=__strimzi-topic-operator-kstreams},1651101031,0
{consumergroup=__strimzi-topic-operator-kstreams},1651101036,0
{consumergroup=__strimzi-topic-operator-kstreams},1651101041,0
{consumergroup=__strimzi-topic-operator-kstreams},1651101046,0
{consumergroup=landscape-service},1651100781,5245204
{consumergroup=landscape-service},1651100786,5245204
{consumergroup=landscape-service},1651100791,5245204
{consumergroup=landscape-service},1651100796,9179095
{consumergroup=landscape-service},1651100801,9179095
{consumergroup=landscape-service},1651100806,9179095
{consumergroup=landscape-service},1651100811,11173629
{consumergroup=landscape-service},1651100816,11173629
{consumergroup=landscape-service},1651100821,11173629
{consumergroup=landscape-service},1651100826,12819505
{consumergroup=landscape-service},1651100831,12819505
{consumergroup=landscape-service},1651100836,12819505
{consumergroup=landscape-service},1651100841,14167206
{consumergroup=landscape-service},1651100846,14167206
{consumergroup=landscape-service},1651100851,14167206
{consumergroup=landscape-service},1651100856,15074769
{consumergroup=landscape-service},1651100861,15074769
{consumergroup=landscape-service},1651100866,15074769
{consumergroup=landscape-service},1651100871,16467186
{consumergroup=landscape-service},1651100876,16467186
{consumergroup=landscape-service},1651100881,16467186
{consumergroup=landscape-service},1651100886,16550659
{consumergroup=landscape-service},1651100891,16550659
{consumergroup=landscape-service},1651100896,16550659
{consumergroup=landscape-service},1651100901,17189173
{consumergroup=landscape-service},1651100906,17189173
{consumergroup=landscape-service},1651100911,17189173
{consumergroup=landscape-service},1651100916,17522899
{consumergroup=landscape-service},1651100921,17522899
{consumergroup=landscape-service},1651100926,17522899
{consumergroup=landscape-service},1651100931,18089556
{consumergroup=landscape-service},1651100936,18089556
{consumergroup=landscape-service},1651100941,18089556
{consumergroup=landscape-service},1651100946,18446200
{consumergroup=landscape-service},1651100951,18446200
{consumergroup=landscape-service},1651100956,18446200
{consumergroup=landscape-service},1651100961,19541424
{consumergroup=landscape-service},1651100966,19541424
{consumergroup=landscape-service},1651100971,19541424
{consumergroup=landscape-service},1651100976,19468395
{consumergroup=landscape-service},1651100981,19468395
{consumergroup=landscape-service},1651100986,19468395
{consumergroup=landscape-service},1651100991,20055061
{consumergroup=landscape-service},1651100996,20055061
{consumergroup=landscape-service},1651101001,20055061
{consumergroup=landscape-service},1651101006,19570585
{consumergroup=landscape-service},1651101011,19570585
{consumergroup=landscape-service},1651101016,19570585
{consumergroup=landscape-service},1651101021,20326786
{consumergroup=landscape-service},1651101026,20326786
{consumergroup=landscape-service},1651101031,20326786
{consumergroup=landscape-service},1651101036,20871563
{consumergroup=landscape-service},1651101041,20871563
{consumergroup=landscape-service},1651101046,20871563
{consumergroup=landscape-token-events-consumer},1651100781,0
{consumergroup=landscape-token-events-consumer},1651100786,0
{consumergroup=landscape-token-events-consumer},1651100791,0
{consumergroup=landscape-token-events-consumer},1651100796,0
{consumergroup=landscape-token-events-consumer},1651100801,0
{consumergroup=landscape-token-events-consumer},1651100806,0
{consumergroup=landscape-token-events-consumer},1651100811,0
{consumergroup=landscape-token-events-consumer},1651100816,0
{consumergroup=landscape-token-events-consumer},1651100821,0
{consumergroup=landscape-token-events-consumer},1651100826,0
{consumergroup=landscape-token-events-consumer},1651100831,0
{consumergroup=landscape-token-events-consumer},1651100836,0
{consumergroup=landscape-token-events-consumer},1651100841,0
{consumergroup=landscape-token-events-consumer},1651100846,0
{consumergroup=landscape-token-events-consumer},1651100851,0
{consumergroup=landscape-token-events-consumer},1651100856,0
{consumergroup=landscape-token-events-consumer},1651100861,0
{consumergroup=landscape-token-events-consumer},1651100866,0
{consumergroup=landscape-token-events-consumer},1651100871,0
{consumergroup=landscape-token-events-consumer},1651100876,0
{consumergroup=landscape-token-events-consumer},1651100881,0
{consumergroup=landscape-token-events-consumer},1651100886,0
{consumergroup=landscape-token-events-consumer},1651100891,0
{consumergroup=landscape-token-events-consumer},1651100896,0
{consumergroup=landscape-token-events-consumer},1651100901,0
{consumergroup=landscape-token-events-consumer},1651100906,0
{consumergroup=landscape-token-events-consumer},1651100911,0
{consumergroup=landscape-token-events-consumer},1651100916,0
{consumergroup=landscape-token-events-consumer},1651100921,0
{consumergroup=landscape-token-events-consumer},1651100926,0
{consumergroup=landscape-token-events-consumer},1651100931,0
{consumergroup=landscape-token-events-consumer},1651100936,0
{consumergroup=landscape-token-events-consumer},1651100941,0
{consumergroup=landscape-token-events-consumer},1651100946,0
{consumergroup=landscape-token-events-consumer},1651100951,0
{consumergroup=landscape-token-events-consumer},1651100956,0
{consumergroup=landscape-token-events-consumer},1651100961,0
{consumergroup=landscape-token-events-consumer},1651100966,0
{consumergroup=landscape-token-events-consumer},1651100971,0
{consumergroup=landscape-token-events-consumer},1651100976,0
{consumergroup=landscape-token-events-consumer},1651100981,0
{consumergroup=landscape-token-events-consumer},1651100986,0
{consumergroup=landscape-token-events-consumer},1651100991,0
{consumergroup=landscape-token-events-consumer},1651100996,0
{consumergroup=landscape-token-events-consumer},1651101001,0
{consumergroup=landscape-token-events-consumer},1651101006,0
{consumergroup=landscape-token-events-consumer},1651101011,0
{consumergroup=landscape-token-events-consumer},1651101016,0
{consumergroup=landscape-token-events-consumer},1651101021,0
{consumergroup=landscape-token-events-consumer},1651101026,0
{consumergroup=landscape-token-events-consumer},1651101031,0
{consumergroup=landscape-token-events-consumer},1651101036,0
{consumergroup=landscape-token-events-consumer},1651101041,0
{consumergroup=landscape-token-events-consumer},1651101046,0
