labels,timestamp,value
{consumergroup=__strimzi-topic-operator-kstreams},1651089505,0
{consumergroup=__strimzi-topic-operator-kstreams},1651089510,0
{consumergroup=__strimzi-topic-operator-kstreams},1651089515,0
{consumergroup=__strimzi-topic-operator-kstreams},1651089520,0
{consumergroup=__strimzi-topic-operator-kstreams},1651089525,0
{consumergroup=__strimzi-topic-operator-kstreams},1651089530,0
{consumergroup=__strimzi-topic-operator-kstreams},1651089535,0
{consumergroup=__strimzi-topic-operator-kstreams},1651089540,0
{consumergroup=__strimzi-topic-operator-kstreams},1651089545,0
{consumergroup=__strimzi-topic-operator-kstreams},1651089550,0
{consumergroup=__strimzi-topic-operator-kstreams},1651089555,0
{consumergroup=__strimzi-topic-operator-kstreams},1651089560,0
{consumergroup=__strimzi-topic-operator-kstreams},1651089565,0
{consumergroup=__strimzi-topic-operator-kstreams},1651089570,0
{consumergroup=__strimzi-topic-operator-kstreams},1651089575,0
{consumergroup=__strimzi-topic-operator-kstreams},1651089580,0
{consumergroup=__strimzi-topic-operator-kstreams},1651089585,0
{consumergroup=__strimzi-topic-operator-kstreams},1651089590,0
{consumergroup=__strimzi-topic-operator-kstreams},1651089595,0
{consumergroup=__strimzi-topic-operator-kstreams},1651089600,0
{consumergroup=__strimzi-topic-operator-kstreams},1651089605,0
{consumergroup=__strimzi-topic-operator-kstreams},1651089610,0
{consumergroup=__strimzi-topic-operator-kstreams},1651089615,0
{consumergroup=__strimzi-topic-operator-kstreams},1651089620,0
{consumergroup=__strimzi-topic-operator-kstreams},1651089625,0
{consumergroup=__strimzi-topic-operator-kstreams},1651089630,0
{consumergroup=__strimzi-topic-operator-kstreams},1651089635,0
{consumergroup=__strimzi-topic-operator-kstreams},1651089640,0
{consumergroup=__strimzi-topic-operator-kstreams},1651089645,0
{consumergroup=__strimzi-topic-operator-kstreams},1651089650,0
{consumergroup=__strimzi-topic-operator-kstreams},1651089655,0
{consumergroup=__strimzi-topic-operator-kstreams},1651089660,0
{consumergroup=__strimzi-topic-operator-kstreams},1651089665,0
{consumergroup=__strimzi-topic-operator-kstreams},1651089670,0
{consumergroup=__strimzi-topic-operator-kstreams},1651089675,0
{consumergroup=__strimzi-topic-operator-kstreams},1651089680,0
{consumergroup=__strimzi-topic-operator-kstreams},1651089685,0
{consumergroup=__strimzi-topic-operator-kstreams},1651089690,0
{consumergroup=__strimzi-topic-operator-kstreams},1651089695,0
{consumergroup=__strimzi-topic-operator-kstreams},1651089700,0
{consumergroup=__strimzi-topic-operator-kstreams},1651089705,0
{consumergroup=__strimzi-topic-operator-kstreams},1651089710,0
{consumergroup=__strimzi-topic-operator-kstreams},1651089715,0
{consumergroup=__strimzi-topic-operator-kstreams},1651089720,0
{consumergroup=__strimzi-topic-operator-kstreams},1651089725,0
{consumergroup=__strimzi-topic-operator-kstreams},1651089730,0
{consumergroup=__strimzi-topic-operator-kstreams},1651089735,0
{consumergroup=__strimzi-topic-operator-kstreams},1651089740,0
{consumergroup=__strimzi-topic-operator-kstreams},1651089745,0
{consumergroup=__strimzi-topic-operator-kstreams},1651089750,0
{consumergroup=__strimzi-topic-operator-kstreams},1651089755,0
{consumergroup=__strimzi-topic-operator-kstreams},1651089760,0
{consumergroup=__strimzi-topic-operator-kstreams},1651089765,0
{consumergroup=__strimzi-topic-operator-kstreams},1651089770,0
{consumergroup=__strimzi-topic-operator-kstreams},1651089775,0
{consumergroup=__strimzi-topic-operator-kstreams},1651089780,0
{consumergroup=__strimzi-topic-operator-kstreams},1651089785,0
{consumergroup=__strimzi-topic-operator-kstreams},1651089790,0
{consumergroup=__strimzi-topic-operator-kstreams},1651089795,0
{consumergroup=__strimzi-topic-operator-kstreams},1651089800,0
{consumergroup=__strimzi-topic-operator-kstreams},1651089805,0
{consumergroup=__strimzi-topic-operator-kstreams},1651089810,0
{consumergroup=__strimzi-topic-operator-kstreams},1651089815,0
{consumergroup=landscape-service},1651089535,349953
{consumergroup=landscape-service},1651089540,349953
{consumergroup=landscape-service},1651089545,349953
{consumergroup=landscape-service},1651089550,892999
{consumergroup=landscape-service},1651089555,892999
{consumergroup=landscape-service},1651089560,892999
{consumergroup=landscape-service},1651089565,1265840
{consumergroup=landscape-service},1651089570,1265840
{consumergroup=landscape-service},1651089575,1265840
{consumergroup=landscape-service},1651089580,1528626
{consumergroup=landscape-service},1651089585,1528626
{consumergroup=landscape-service},1651089590,1528626
{consumergroup=landscape-service},1651089595,1779304
{consumergroup=landscape-service},1651089600,1779304
{consumergroup=landscape-service},1651089605,1779304
{consumergroup=landscape-service},1651089610,1808300
{consumergroup=landscape-service},1651089615,1808300
{consumergroup=landscape-service},1651089620,1808300
{consumergroup=landscape-service},1651089625,1864356
{consumergroup=landscape-service},1651089630,1864356
{consumergroup=landscape-service},1651089635,1864356
{consumergroup=landscape-service},1651089640,1813266
{consumergroup=landscape-service},1651089645,1813266
{consumergroup=landscape-service},1651089650,1813266
{consumergroup=landscape-service},1651089655,1772995
{consumergroup=landscape-service},1651089660,1772995
{consumergroup=landscape-service},1651089665,1772995
{consumergroup=landscape-service},1651089670,1638420
{consumergroup=landscape-service},1651089675,1638420
{consumergroup=landscape-service},1651089680,1638420
{consumergroup=landscape-service},1651089685,1603235
{consumergroup=landscape-service},1651089690,1603235
{consumergroup=landscape-service},1651089695,1603235
{consumergroup=landscape-service},1651089700,1485822
{consumergroup=landscape-service},1651089705,1485822
{consumergroup=landscape-service},1651089710,1485822
{consumergroup=landscape-service},1651089715,1439601
{consumergroup=landscape-service},1651089720,1439601
{consumergroup=landscape-service},1651089725,1439601
{consumergroup=landscape-service},1651089730,1388335
{consumergroup=landscape-service},1651089735,1388335
{consumergroup=landscape-service},1651089740,1388335
{consumergroup=landscape-service},1651089745,1240173
{consumergroup=landscape-service},1651089750,1240173
{consumergroup=landscape-service},1651089755,1240173
{consumergroup=landscape-service},1651089760,1180668
{consumergroup=landscape-service},1651089765,1180668
{consumergroup=landscape-service},1651089770,1180668
{consumergroup=landscape-service},1651089775,1029857
{consumergroup=landscape-service},1651089780,1029857
{consumergroup=landscape-service},1651089785,1029857
{consumergroup=landscape-service},1651089790,980583
{consumergroup=landscape-service},1651089795,980583
{consumergroup=landscape-service},1651089800,980583
{consumergroup=landscape-service},1651089805,858367
{consumergroup=landscape-service},1651089810,858367
{consumergroup=landscape-service},1651089815,858367
