labels,timestamp,value
{consumergroup=__strimzi-topic-operator-kstreams},1651117518,8
{consumergroup=__strimzi-topic-operator-kstreams},1651117523,8
{consumergroup=__strimzi-topic-operator-kstreams},1651117528,8
{consumergroup=__strimzi-topic-operator-kstreams},1651117533,8
{consumergroup=__strimzi-topic-operator-kstreams},1651117538,8
{consumergroup=__strimzi-topic-operator-kstreams},1651117543,8
{consumergroup=__strimzi-topic-operator-kstreams},1651117548,0
{consumergroup=__strimzi-topic-operator-kstreams},1651117553,0
{consumergroup=__strimzi-topic-operator-kstreams},1651117558,0
{consumergroup=__strimzi-topic-operator-kstreams},1651117563,0
{consumergroup=__strimzi-topic-operator-kstreams},1651117568,0
{consumergroup=__strimzi-topic-operator-kstreams},1651117573,0
{consumergroup=__strimzi-topic-operator-kstreams},1651117578,0
{consumergroup=__strimzi-topic-operator-kstreams},1651117583,0
{consumergroup=__strimzi-topic-operator-kstreams},1651117588,0
{consumergroup=__strimzi-topic-operator-kstreams},1651117593,0
{consumergroup=__strimzi-topic-operator-kstreams},1651117598,0
{consumergroup=__strimzi-topic-operator-kstreams},1651117603,0
{consumergroup=__strimzi-topic-operator-kstreams},1651117608,0
{consumergroup=__strimzi-topic-operator-kstreams},1651117613,0
{consumergroup=__strimzi-topic-operator-kstreams},1651117618,0
{consumergroup=__strimzi-topic-operator-kstreams},1651117623,0
{consumergroup=__strimzi-topic-operator-kstreams},1651117628,0
{consumergroup=__strimzi-topic-operator-kstreams},1651117633,0
{consumergroup=__strimzi-topic-operator-kstreams},1651117638,0
{consumergroup=__strimzi-topic-operator-kstreams},1651117643,0
{consumergroup=__strimzi-topic-operator-kstreams},1651117648,0
{consumergroup=__strimzi-topic-operator-kstreams},1651117653,0
{consumergroup=__strimzi-topic-operator-kstreams},1651117658,0
{consumergroup=__strimzi-topic-operator-kstreams},1651117663,0
{consumergroup=__strimzi-topic-operator-kstreams},1651117668,0
{consumergroup=__strimzi-topic-operator-kstreams},1651117673,0
{consumergroup=__strimzi-topic-operator-kstreams},1651117678,0
{consumergroup=__strimzi-topic-operator-kstreams},1651117683,0
{consumergroup=__strimzi-topic-operator-kstreams},1651117688,0
{consumergroup=__strimzi-topic-operator-kstreams},1651117693,0
{consumergroup=__strimzi-topic-operator-kstreams},1651117698,0
{consumergroup=__strimzi-topic-operator-kstreams},1651117703,0
{consumergroup=__strimzi-topic-operator-kstreams},1651117708,0
{consumergroup=__strimzi-topic-operator-kstreams},1651117713,0
{consumergroup=__strimzi-topic-operator-kstreams},1651117718,0
{consumergroup=__strimzi-topic-operator-kstreams},1651117723,0
{consumergroup=__strimzi-topic-operator-kstreams},1651117728,0
{consumergroup=__strimzi-topic-operator-kstreams},1651117733,0
{consumergroup=__strimzi-topic-operator-kstreams},1651117738,0
{consumergroup=__strimzi-topic-operator-kstreams},1651117743,0
{consumergroup=__strimzi-topic-operator-kstreams},1651117748,0
{consumergroup=__strimzi-topic-operator-kstreams},1651117753,0
{consumergroup=__strimzi-topic-operator-kstreams},1651117758,0
{consumergroup=__strimzi-topic-operator-kstreams},1651117763,0
{consumergroup=__strimzi-topic-operator-kstreams},1651117768,0
{consumergroup=__strimzi-topic-operator-kstreams},1651117773,0
{consumergroup=__strimzi-topic-operator-kstreams},1651117778,0
{consumergroup=__strimzi-topic-operator-kstreams},1651117783,0
{consumergroup=__strimzi-topic-operator-kstreams},1651117788,0
{consumergroup=__strimzi-topic-operator-kstreams},1651117793,0
{consumergroup=__strimzi-topic-operator-kstreams},1651117798,0
{consumergroup=__strimzi-topic-operator-kstreams},1651117803,0
{consumergroup=__strimzi-topic-operator-kstreams},1651117808,0
{consumergroup=__strimzi-topic-operator-kstreams},1651117813,0
{consumergroup=__strimzi-topic-operator-kstreams},1651117818,0
{consumergroup=__strimzi-topic-operator-kstreams},1651117823,0
{consumergroup=__strimzi-topic-operator-kstreams},1651117828,0
{consumergroup=landscape-service},1651117548,9575
{consumergroup=landscape-service},1651117553,9575
{consumergroup=landscape-service},1651117558,9575
{consumergroup=landscape-service},1651117563,5042511
{consumergroup=landscape-service},1651117568,5042511
{consumergroup=landscape-service},1651117573,5042511
{consumergroup=landscape-service},1651117578,7878026
{consumergroup=landscape-service},1651117583,7878026
{consumergroup=landscape-service},1651117588,7878026
{consumergroup=landscape-service},1651117593,9151905
{consumergroup=landscape-service},1651117598,9151905
{consumergroup=landscape-service},1651117603,9151905
{consumergroup=landscape-service},1651117608,10947169
{consumergroup=landscape-service},1651117613,10947169
{consumergroup=landscape-service},1651117618,10947169
{consumergroup=landscape-service},1651117623,10889100
{consumergroup=landscape-service},1651117628,10889100
{consumergroup=landscape-service},1651117633,10889100
{consumergroup=landscape-service},1651117638,12166378
{consumergroup=landscape-service},1651117643,12166378
{consumergroup=landscape-service},1651117648,12166378
{consumergroup=landscape-service},1651117653,12227882
{consumergroup=landscape-service},1651117658,12227882
{consumergroup=landscape-service},1651117663,12227882
{consumergroup=landscape-service},1651117668,12967733
{consumergroup=landscape-service},1651117673,12967733
{consumergroup=landscape-service},1651117678,12967733
{consumergroup=landscape-service},1651117683,12848703
{consumergroup=landscape-service},1651117688,12848703
{consumergroup=landscape-service},1651117693,12848703
{consumergroup=landscape-service},1651117698,13778449
{consumergroup=landscape-service},1651117703,13778449
{consumergroup=landscape-service},1651117708,13778449
{consumergroup=landscape-service},1651117713,13996526
{consumergroup=landscape-service},1651117718,13996526
{consumergroup=landscape-service},1651117723,13996526
{consumergroup=landscape-service},1651117728,14101972
{consumergroup=landscape-service},1651117733,14101972
{consumergroup=landscape-service},1651117738,14101972
{consumergroup=landscape-service},1651117743,14360793
{consumergroup=landscape-service},1651117748,14360793
{consumergroup=landscape-service},1651117753,14360793
{consumergroup=landscape-service},1651117758,14203696
{consumergroup=landscape-service},1651117763,14203696
{consumergroup=landscape-service},1651117768,14203696
{consumergroup=landscape-service},1651117773,14549361
{consumergroup=landscape-service},1651117778,14549361
{consumergroup=landscape-service},1651117783,14549361
{consumergroup=landscape-service},1651117788,14285592
{consumergroup=landscape-service},1651117793,14285592
{consumergroup=landscape-service},1651117798,14285592
{consumergroup=landscape-service},1651117803,14685119
{consumergroup=landscape-service},1651117808,14685119
{consumergroup=landscape-service},1651117813,14685119
{consumergroup=landscape-service},1651117818,14367867
{consumergroup=landscape-service},1651117823,14367867
{consumergroup=landscape-service},1651117828,14367867
