labels,timestamp,value
{consumergroup=__strimzi-topic-operator-kstreams},1651974890,1
{consumergroup=__strimzi-topic-operator-kstreams},1651974895,1
{consumergroup=__strimzi-topic-operator-kstreams},1651974900,1
{consumergroup=__strimzi-topic-operator-kstreams},1651974905,9
{consumergroup=__strimzi-topic-operator-kstreams},1651974910,9
{consumergroup=__strimzi-topic-operator-kstreams},1651974915,9
{consumergroup=__strimzi-topic-operator-kstreams},1651974920,3
{consumergroup=__strimzi-topic-operator-kstreams},1651974925,3
{consumergroup=__strimzi-topic-operator-kstreams},1651974930,3
{consumergroup=__strimzi-topic-operator-kstreams},1651974935,3
{consumergroup=__strimzi-topic-operator-kstreams},1651974940,3
{consumergroup=__strimzi-topic-operator-kstreams},1651974945,3
{consumergroup=__strimzi-topic-operator-kstreams},1651974950,0
{consumergroup=__strimzi-topic-operator-kstreams},1651974955,0
{consumergroup=__strimzi-topic-operator-kstreams},1651974960,0
{consumergroup=__strimzi-topic-operator-kstreams},1651974965,0
{consumergroup=__strimzi-topic-operator-kstreams},1651974970,0
{consumergroup=__strimzi-topic-operator-kstreams},1651974975,0
{consumergroup=__strimzi-topic-operator-kstreams},1651974980,0
{consumergroup=__strimzi-topic-operator-kstreams},1651974985,0
{consumergroup=__strimzi-topic-operator-kstreams},1651974990,0
{consumergroup=__strimzi-topic-operator-kstreams},1651974995,0
{consumergroup=__strimzi-topic-operator-kstreams},1651975000,0
{consumergroup=__strimzi-topic-operator-kstreams},1651975005,0
{consumergroup=__strimzi-topic-operator-kstreams},1651975010,0
{consumergroup=__strimzi-topic-operator-kstreams},1651975015,0
{consumergroup=__strimzi-topic-operator-kstreams},1651975020,0
{consumergroup=__strimzi-topic-operator-kstreams},1651975025,0
{consumergroup=__strimzi-topic-operator-kstreams},1651975030,0
{consumergroup=__strimzi-topic-operator-kstreams},1651975035,0
{consumergroup=__strimzi-topic-operator-kstreams},1651975040,0
{consumergroup=__strimzi-topic-operator-kstreams},1651975045,0
{consumergroup=__strimzi-topic-operator-kstreams},1651975050,0
{consumergroup=__strimzi-topic-operator-kstreams},1651975055,0
{consumergroup=__strimzi-topic-operator-kstreams},1651975060,0
{consumergroup=__strimzi-topic-operator-kstreams},1651975065,0
{consumergroup=__strimzi-topic-operator-kstreams},1651975070,0
{consumergroup=__strimzi-topic-operator-kstreams},1651975075,0
{consumergroup=__strimzi-topic-operator-kstreams},1651975080,0
{consumergroup=__strimzi-topic-operator-kstreams},1651975085,0
{consumergroup=__strimzi-topic-operator-kstreams},1651975090,0
{consumergroup=__strimzi-topic-operator-kstreams},1651975095,0
{consumergroup=__strimzi-topic-operator-kstreams},1651975100,0
{consumergroup=__strimzi-topic-operator-kstreams},1651975105,0
{consumergroup=__strimzi-topic-operator-kstreams},1651975110,0
{consumergroup=__strimzi-topic-operator-kstreams},1651975115,0
{consumergroup=__strimzi-topic-operator-kstreams},1651975120,0
{consumergroup=__strimzi-topic-operator-kstreams},1651975125,0
{consumergroup=__strimzi-topic-operator-kstreams},1651975130,0
{consumergroup=__strimzi-topic-operator-kstreams},1651975135,0
{consumergroup=__strimzi-topic-operator-kstreams},1651975140,0
{consumergroup=__strimzi-topic-operator-kstreams},1651975145,0
{consumergroup=__strimzi-topic-operator-kstreams},1651975150,0
{consumergroup=__strimzi-topic-operator-kstreams},1651975155,0
{consumergroup=__strimzi-topic-operator-kstreams},1651975160,0
{consumergroup=__strimzi-topic-operator-kstreams},1651975165,0
{consumergroup=__strimzi-topic-operator-kstreams},1651975170,0
{consumergroup=__strimzi-topic-operator-kstreams},1651975175,0
{consumergroup=__strimzi-topic-operator-kstreams},1651975180,0
{consumergroup=__strimzi-topic-operator-kstreams},1651975185,0
{consumergroup=__strimzi-topic-operator-kstreams},1651975190,0
{consumergroup=__strimzi-topic-operator-kstreams},1651975195,0
{consumergroup=__strimzi-topic-operator-kstreams},1651975200,0
{consumergroup=__strimzi-topic-operator-kstreams},1651975205,0
{consumergroup=__strimzi-topic-operator-kstreams},1651975210,0
{consumergroup=__strimzi-topic-operator-kstreams},1651975215,0
{consumergroup=__strimzi-topic-operator-kstreams},1651975220,0
{consumergroup=__strimzi-topic-operator-kstreams},1651975225,0
{consumergroup=__strimzi-topic-operator-kstreams},1651975230,0
{consumergroup=__strimzi-topic-operator-kstreams},1651975235,0
{consumergroup=__strimzi-topic-operator-kstreams},1651975240,0
{consumergroup=__strimzi-topic-operator-kstreams},1651975245,0
{consumergroup=__strimzi-topic-operator-kstreams},1651975250,0
{consumergroup=__strimzi-topic-operator-kstreams},1651975255,0
{consumergroup=__strimzi-topic-operator-kstreams},1651975260,0
{consumergroup=__strimzi-topic-operator-kstreams},1651975265,0
{consumergroup=__strimzi-topic-operator-kstreams},1651975270,0
{consumergroup=__strimzi-topic-operator-kstreams},1651975275,0
{consumergroup=__strimzi-topic-operator-kstreams},1651975280,0
{consumergroup=__strimzi-topic-operator-kstreams},1651975285,0
{consumergroup=__strimzi-topic-operator-kstreams},1651975290,0
{consumergroup=__strimzi-topic-operator-kstreams},1651975295,0
{consumergroup=__strimzi-topic-operator-kstreams},1651975300,0
{consumergroup=__strimzi-topic-operator-kstreams},1651975305,0
{consumergroup=__strimzi-topic-operator-kstreams},1651975310,0
{consumergroup=__strimzi-topic-operator-kstreams},1651975315,0
{consumergroup=__strimzi-topic-operator-kstreams},1651975320,0
{consumergroup=__strimzi-topic-operator-kstreams},1651975325,0
{consumergroup=__strimzi-topic-operator-kstreams},1651975330,0
{consumergroup=__strimzi-topic-operator-kstreams},1651975335,0
{consumergroup=__strimzi-topic-operator-kstreams},1651975340,0
{consumergroup=__strimzi-topic-operator-kstreams},1651975345,0
{consumergroup=adapter-service},1651974935,0
{consumergroup=adapter-service},1651974940,0
{consumergroup=adapter-service},1651974945,0
{consumergroup=adapter-service},1651974950,2426
{consumergroup=adapter-service},1651974955,2426
{consumergroup=adapter-service},1651974960,2426
{consumergroup=adapter-service},1651974965,1342
{consumergroup=adapter-service},1651974970,1342
{consumergroup=adapter-service},1651974975,1342
{consumergroup=adapter-service},1651974980,1773
{consumergroup=adapter-service},1651974985,1773
{consumergroup=adapter-service},1651974990,1773
{consumergroup=adapter-service},1651974995,819
{consumergroup=adapter-service},1651975000,819
{consumergroup=adapter-service},1651975005,819
{consumergroup=adapter-service},1651975010,1572
{consumergroup=adapter-service},1651975015,1572
{consumergroup=adapter-service},1651975020,1572
{consumergroup=adapter-service},1651975025,511
{consumergroup=adapter-service},1651975030,511
{consumergroup=adapter-service},1651975035,511
{consumergroup=adapter-service},1651975040,1173
{consumergroup=adapter-service},1651975045,1173
{consumergroup=adapter-service},1651975050,1173
{consumergroup=adapter-service},1651975055,145
{consumergroup=adapter-service},1651975060,145
{consumergroup=adapter-service},1651975065,145
{consumergroup=adapter-service},1651975070,2633
{consumergroup=adapter-service},1651975075,2633
{consumergroup=adapter-service},1651975080,2633
{consumergroup=adapter-service},1651975085,46
{consumergroup=adapter-service},1651975090,46
{consumergroup=adapter-service},1651975095,46
{consumergroup=adapter-service},1651975100,473
{consumergroup=adapter-service},1651975105,473
{consumergroup=adapter-service},1651975110,473
{consumergroup=adapter-service},1651975115,3110
{consumergroup=adapter-service},1651975120,3110
{consumergroup=adapter-service},1651975125,3110
{consumergroup=adapter-service},1651975130,552
{consumergroup=adapter-service},1651975135,552
{consumergroup=adapter-service},1651975140,552
{consumergroup=adapter-service},1651975145,7438
{consumergroup=adapter-service},1651975150,7438
{consumergroup=adapter-service},1651975155,7438
{consumergroup=adapter-service},1651975160,307
{consumergroup=adapter-service},1651975165,307
{consumergroup=adapter-service},1651975170,307
{consumergroup=adapter-service},1651975175,7328
{consumergroup=adapter-service},1651975180,7328
{consumergroup=adapter-service},1651975185,7328
{consumergroup=adapter-service},1651975190,2988
{consumergroup=adapter-service},1651975195,2988
{consumergroup=adapter-service},1651975200,2988
{consumergroup=adapter-service},1651975205,8265
{consumergroup=adapter-service},1651975210,8265
{consumergroup=adapter-service},1651975215,8265
{consumergroup=adapter-service},1651975220,4263
{consumergroup=adapter-service},1651975225,4263
{consumergroup=adapter-service},1651975230,4263
{consumergroup=adapter-service},1651975235,8517
{consumergroup=adapter-service},1651975240,8517
{consumergroup=adapter-service},1651975245,8517
{consumergroup=adapter-service},1651975250,7161
{consumergroup=adapter-service},1651975255,7161
{consumergroup=adapter-service},1651975260,7161
{consumergroup=adapter-service},1651975265,7723
{consumergroup=adapter-service},1651975270,7723
{consumergroup=adapter-service},1651975275,7723
{consumergroup=adapter-service},1651975280,8382
{consumergroup=adapter-service},1651975285,8382
{consumergroup=adapter-service},1651975290,8382
{consumergroup=adapter-service},1651975295,7357
{consumergroup=adapter-service},1651975300,7357
{consumergroup=adapter-service},1651975305,7357
{consumergroup=adapter-service},1651975310,8112
{consumergroup=adapter-service},1651975315,8112
{consumergroup=adapter-service},1651975320,8112
{consumergroup=adapter-service},1651975325,7742
{consumergroup=adapter-service},1651975330,7742
{consumergroup=adapter-service},1651975335,7742
{consumergroup=adapter-service},1651975340,7642
{consumergroup=adapter-service},1651975345,7642
{consumergroup=landscape-service},1651974950,5676
{consumergroup=landscape-service},1651974955,5676
{consumergroup=landscape-service},1651974960,5676
{consumergroup=landscape-service},1651974965,8090
{consumergroup=landscape-service},1651974970,8090
{consumergroup=landscape-service},1651974975,8090
{consumergroup=landscape-service},1651974980,5844
{consumergroup=landscape-service},1651974985,5844
{consumergroup=landscape-service},1651974990,5844
{consumergroup=landscape-service},1651974995,7800
{consumergroup=landscape-service},1651975000,7800
{consumergroup=landscape-service},1651975005,7800
{consumergroup=landscape-service},1651975010,9076
{consumergroup=landscape-service},1651975015,9076
{consumergroup=landscape-service},1651975020,9076
{consumergroup=landscape-service},1651975025,8078
{consumergroup=landscape-service},1651975030,8078
{consumergroup=landscape-service},1651975035,8078
{consumergroup=landscape-service},1651975040,8500
{consumergroup=landscape-service},1651975045,8500
{consumergroup=landscape-service},1651975050,8500
{consumergroup=landscape-service},1651975055,7434
{consumergroup=landscape-service},1651975060,7434
{consumergroup=landscape-service},1651975065,7434
{consumergroup=landscape-service},1651975070,701
{consumergroup=landscape-service},1651975075,701
{consumergroup=landscape-service},1651975080,701
{consumergroup=landscape-service},1651975085,7896
{consumergroup=landscape-service},1651975090,7896
{consumergroup=landscape-service},1651975095,7896
{consumergroup=landscape-service},1651975100,8860
{consumergroup=landscape-service},1651975105,8860
{consumergroup=landscape-service},1651975110,8860
{consumergroup=landscape-service},1651975115,7854
{consumergroup=landscape-service},1651975120,7854
{consumergroup=landscape-service},1651975125,7854
{consumergroup=landscape-service},1651975130,8096
{consumergroup=landscape-service},1651975135,8096
{consumergroup=landscape-service},1651975140,8096
{consumergroup=landscape-service},1651975145,7344
{consumergroup=landscape-service},1651975150,7344
{consumergroup=landscape-service},1651975155,7344
{consumergroup=landscape-service},1651975160,8550
{consumergroup=landscape-service},1651975165,8550
{consumergroup=landscape-service},1651975170,8550
{consumergroup=landscape-service},1651975175,7587
{consumergroup=landscape-service},1651975180,7587
{consumergroup=landscape-service},1651975185,7587
{consumergroup=landscape-service},1651975190,7883
{consumergroup=landscape-service},1651975195,7883
{consumergroup=landscape-service},1651975200,7883
{consumergroup=landscape-service},1651975205,6915
{consumergroup=landscape-service},1651975210,6915
{consumergroup=landscape-service},1651975215,6915
{consumergroup=landscape-service},1651975220,7731
{consumergroup=landscape-service},1651975225,7731
{consumergroup=landscape-service},1651975230,7731
{consumergroup=landscape-service},1651975235,6817
{consumergroup=landscape-service},1651975240,6817
{consumergroup=landscape-service},1651975245,6817
{consumergroup=landscape-service},1651975250,7696
{consumergroup=landscape-service},1651975255,7696
{consumergroup=landscape-service},1651975260,7696
{consumergroup=landscape-service},1651975265,6799
{consumergroup=landscape-service},1651975270,6799
{consumergroup=landscape-service},1651975275,6799
{consumergroup=landscape-service},1651975280,8054
{consumergroup=landscape-service},1651975285,8054
{consumergroup=landscape-service},1651975290,8054
{consumergroup=landscape-service},1651975295,6675
{consumergroup=landscape-service},1651975300,6675
{consumergroup=landscape-service},1651975305,6675
{consumergroup=landscape-service},1651975310,7515
{consumergroup=landscape-service},1651975315,7515
{consumergroup=landscape-service},1651975320,7515
{consumergroup=landscape-service},1651975325,8449
{consumergroup=landscape-service},1651975330,8449
{consumergroup=landscape-service},1651975335,8449
{consumergroup=landscape-service},1651975340,7940
{consumergroup=landscape-service},1651975345,7940
{consumergroup=landscape-token-events-consumer},1651974935,0
{consumergroup=landscape-token-events-consumer},1651974940,0
{consumergroup=landscape-token-events-consumer},1651974945,0
{consumergroup=landscape-token-events-consumer},1651974950,0
{consumergroup=landscape-token-events-consumer},1651974955,0
{consumergroup=landscape-token-events-consumer},1651974960,0
{consumergroup=landscape-token-events-consumer},1651974965,0
{consumergroup=landscape-token-events-consumer},1651974970,0
{consumergroup=landscape-token-events-consumer},1651974975,0
{consumergroup=landscape-token-events-consumer},1651974980,0
{consumergroup=landscape-token-events-consumer},1651974985,0
{consumergroup=landscape-token-events-consumer},1651974990,0
{consumergroup=landscape-token-events-consumer},1651974995,0
{consumergroup=landscape-token-events-consumer},1651975000,0
{consumergroup=landscape-token-events-consumer},1651975005,0
{consumergroup=landscape-token-events-consumer},1651975010,0
{consumergroup=landscape-token-events-consumer},1651975015,0
{consumergroup=landscape-token-events-consumer},1651975020,0
{consumergroup=landscape-token-events-consumer},1651975025,0
{consumergroup=landscape-token-events-consumer},1651975030,0
{consumergroup=landscape-token-events-consumer},1651975035,0
{consumergroup=landscape-token-events-consumer},1651975040,0
{consumergroup=landscape-token-events-consumer},1651975045,0
{consumergroup=landscape-token-events-consumer},1651975050,0
{consumergroup=landscape-token-events-consumer},1651975055,0
{consumergroup=landscape-token-events-consumer},1651975060,0
{consumergroup=landscape-token-events-consumer},1651975065,0
{consumergroup=landscape-token-events-consumer},1651975070,0
{consumergroup=landscape-token-events-consumer},1651975075,0
{consumergroup=landscape-token-events-consumer},1651975080,0
{consumergroup=landscape-token-events-consumer},1651975085,0
{consumergroup=landscape-token-events-consumer},1651975090,0
{consumergroup=landscape-token-events-consumer},1651975095,0
{consumergroup=landscape-token-events-consumer},1651975100,0
{consumergroup=landscape-token-events-consumer},1651975105,0
{consumergroup=landscape-token-events-consumer},1651975110,0
{consumergroup=landscape-token-events-consumer},1651975115,0
{consumergroup=landscape-token-events-consumer},1651975120,0
{consumergroup=landscape-token-events-consumer},1651975125,0
{consumergroup=landscape-token-events-consumer},1651975130,0
{consumergroup=landscape-token-events-consumer},1651975135,0
{consumergroup=landscape-token-events-consumer},1651975140,0
{consumergroup=landscape-token-events-consumer},1651975145,0
{consumergroup=landscape-token-events-consumer},1651975150,0
{consumergroup=landscape-token-events-consumer},1651975155,0
{consumergroup=landscape-token-events-consumer},1651975160,0
{consumergroup=landscape-token-events-consumer},1651975165,0
{consumergroup=landscape-token-events-consumer},1651975170,0
{consumergroup=landscape-token-events-consumer},1651975175,0
{consumergroup=landscape-token-events-consumer},1651975180,0
{consumergroup=landscape-token-events-consumer},1651975185,0
{consumergroup=landscape-token-events-consumer},1651975190,0
{consumergroup=landscape-token-events-consumer},1651975195,0
{consumergroup=landscape-token-events-consumer},1651975200,0
{consumergroup=landscape-token-events-consumer},1651975205,0
{consumergroup=landscape-token-events-consumer},1651975210,0
{consumergroup=landscape-token-events-consumer},1651975215,0
{consumergroup=landscape-token-events-consumer},1651975220,0
{consumergroup=landscape-token-events-consumer},1651975225,0
{consumergroup=landscape-token-events-consumer},1651975230,0
{consumergroup=landscape-token-events-consumer},1651975235,0
{consumergroup=landscape-token-events-consumer},1651975240,0
{consumergroup=landscape-token-events-consumer},1651975245,0
{consumergroup=landscape-token-events-consumer},1651975250,0
{consumergroup=landscape-token-events-consumer},1651975255,0
{consumergroup=landscape-token-events-consumer},1651975260,0
{consumergroup=landscape-token-events-consumer},1651975265,0
{consumergroup=landscape-token-events-consumer},1651975270,0
{consumergroup=landscape-token-events-consumer},1651975275,0
{consumergroup=landscape-token-events-consumer},1651975280,0
{consumergroup=landscape-token-events-consumer},1651975285,0
{consumergroup=landscape-token-events-consumer},1651975290,0
{consumergroup=landscape-token-events-consumer},1651975295,0
{consumergroup=landscape-token-events-consumer},1651975300,0
{consumergroup=landscape-token-events-consumer},1651975305,0
{consumergroup=landscape-token-events-consumer},1651975310,0
{consumergroup=landscape-token-events-consumer},1651975315,0
{consumergroup=landscape-token-events-consumer},1651975320,0
{consumergroup=landscape-token-events-consumer},1651975325,0
{consumergroup=landscape-token-events-consumer},1651975330,0
{consumergroup=landscape-token-events-consumer},1651975335,0
{consumergroup=landscape-token-events-consumer},1651975340,0
{consumergroup=landscape-token-events-consumer},1651975345,0
{consumergroup=trace-service},1651974950,15424
{consumergroup=trace-service},1651974955,15424
{consumergroup=trace-service},1651974960,15424
{consumergroup=trace-service},1651974965,17511
{consumergroup=trace-service},1651974970,17511
{consumergroup=trace-service},1651974975,17511
{consumergroup=trace-service},1651974980,38944
{consumergroup=trace-service},1651974985,38944
{consumergroup=trace-service},1651974990,38944
{consumergroup=trace-service},1651974995,21228
{consumergroup=trace-service},1651975000,21228
{consumergroup=trace-service},1651975005,21228
{consumergroup=trace-service},1651975010,8872
{consumergroup=trace-service},1651975015,8872
{consumergroup=trace-service},1651975020,8872
{consumergroup=trace-service},1651975025,17864
{consumergroup=trace-service},1651975030,17864
{consumergroup=trace-service},1651975035,17864
{consumergroup=trace-service},1651975040,12264
{consumergroup=trace-service},1651975045,12264
{consumergroup=trace-service},1651975050,12264
{consumergroup=trace-service},1651975055,14018
{consumergroup=trace-service},1651975060,14018
{consumergroup=trace-service},1651975065,14018
{consumergroup=trace-service},1651975070,7692
{consumergroup=trace-service},1651975075,7692
{consumergroup=trace-service},1651975080,7692
{consumergroup=trace-service},1651975085,17261
{consumergroup=trace-service},1651975090,17261
{consumergroup=trace-service},1651975095,17261
{consumergroup=trace-service},1651975100,10832
{consumergroup=trace-service},1651975105,10832
{consumergroup=trace-service},1651975110,10832
{consumergroup=trace-service},1651975115,17540
{consumergroup=trace-service},1651975120,17540
{consumergroup=trace-service},1651975125,17540
{consumergroup=trace-service},1651975130,14111
{consumergroup=trace-service},1651975135,14111
{consumergroup=trace-service},1651975140,14111
{consumergroup=trace-service},1651975145,13017
{consumergroup=trace-service},1651975150,13017
{consumergroup=trace-service},1651975155,13017
{consumergroup=trace-service},1651975160,8178
{consumergroup=trace-service},1651975165,8178
{consumergroup=trace-service},1651975170,8178
{consumergroup=trace-service},1651975175,17641
{consumergroup=trace-service},1651975180,17641
{consumergroup=trace-service},1651975185,17641
{consumergroup=trace-service},1651975190,14029
{consumergroup=trace-service},1651975195,14029
{consumergroup=trace-service},1651975200,14029
{consumergroup=trace-service},1651975205,11779
{consumergroup=trace-service},1651975210,11779
{consumergroup=trace-service},1651975215,11779
{consumergroup=trace-service},1651975220,12370
{consumergroup=trace-service},1651975225,12370
{consumergroup=trace-service},1651975230,12370
{consumergroup=trace-service},1651975235,16420
{consumergroup=trace-service},1651975240,16420
{consumergroup=trace-service},1651975245,16420
{consumergroup=trace-service},1651975250,14925
{consumergroup=trace-service},1651975255,14925
{consumergroup=trace-service},1651975260,14925
{consumergroup=trace-service},1651975265,14228
{consumergroup=trace-service},1651975270,14228
{consumergroup=trace-service},1651975275,14228
{consumergroup=trace-service},1651975280,6319
{consumergroup=trace-service},1651975285,6319
{consumergroup=trace-service},1651975290,6319
{consumergroup=trace-service},1651975295,17542
{consumergroup=trace-service},1651975300,17542
{consumergroup=trace-service},1651975305,17542
{consumergroup=trace-service},1651975310,5142
{consumergroup=trace-service},1651975315,5142
{consumergroup=trace-service},1651975320,5142
{consumergroup=trace-service},1651975325,18347
{consumergroup=trace-service},1651975330,18347
{consumergroup=trace-service},1651975335,18347
{consumergroup=trace-service},1651975340,14089
{consumergroup=trace-service},1651975345,14089
{consumergroup=trace-token-events-consumer},1651974935,0
{consumergroup=trace-token-events-consumer},1651974940,0
{consumergroup=trace-token-events-consumer},1651974945,0
{consumergroup=trace-token-events-consumer},1651974950,0
{consumergroup=trace-token-events-consumer},1651974955,0
{consumergroup=trace-token-events-consumer},1651974960,0
{consumergroup=trace-token-events-consumer},1651974965,0
{consumergroup=trace-token-events-consumer},1651974970,0
{consumergroup=trace-token-events-consumer},1651974975,0
{consumergroup=trace-token-events-consumer},1651974980,0
{consumergroup=trace-token-events-consumer},1651974985,0
{consumergroup=trace-token-events-consumer},1651974990,0
{consumergroup=trace-token-events-consumer},1651974995,0
{consumergroup=trace-token-events-consumer},1651975000,0
{consumergroup=trace-token-events-consumer},1651975005,0
{consumergroup=trace-token-events-consumer},1651975010,0
{consumergroup=trace-token-events-consumer},1651975015,0
{consumergroup=trace-token-events-consumer},1651975020,0
{consumergroup=trace-token-events-consumer},1651975025,0
{consumergroup=trace-token-events-consumer},1651975030,0
{consumergroup=trace-token-events-consumer},1651975035,0
{consumergroup=trace-token-events-consumer},1651975040,0
{consumergroup=trace-token-events-consumer},1651975045,0
{consumergroup=trace-token-events-consumer},1651975050,0
{consumergroup=trace-token-events-consumer},1651975055,0
{consumergroup=trace-token-events-consumer},1651975060,0
{consumergroup=trace-token-events-consumer},1651975065,0
{consumergroup=trace-token-events-consumer},1651975070,0
{consumergroup=trace-token-events-consumer},1651975075,0
{consumergroup=trace-token-events-consumer},1651975080,0
{consumergroup=trace-token-events-consumer},1651975085,0
{consumergroup=trace-token-events-consumer},1651975090,0
{consumergroup=trace-token-events-consumer},1651975095,0
{consumergroup=trace-token-events-consumer},1651975100,0
{consumergroup=trace-token-events-consumer},1651975105,0
{consumergroup=trace-token-events-consumer},1651975110,0
{consumergroup=trace-token-events-consumer},1651975115,0
{consumergroup=trace-token-events-consumer},1651975120,0
{consumergroup=trace-token-events-consumer},1651975125,0
{consumergroup=trace-token-events-consumer},1651975130,0
{consumergroup=trace-token-events-consumer},1651975135,0
{consumergroup=trace-token-events-consumer},1651975140,0
{consumergroup=trace-token-events-consumer},1651975145,0
{consumergroup=trace-token-events-consumer},1651975150,0
{consumergroup=trace-token-events-consumer},1651975155,0
{consumergroup=trace-token-events-consumer},1651975160,0
{consumergroup=trace-token-events-consumer},1651975165,0
{consumergroup=trace-token-events-consumer},1651975170,0
{consumergroup=trace-token-events-consumer},1651975175,0
{consumergroup=trace-token-events-consumer},1651975180,0
{consumergroup=trace-token-events-consumer},1651975185,0
{consumergroup=trace-token-events-consumer},1651975190,0
{consumergroup=trace-token-events-consumer},1651975195,0
{consumergroup=trace-token-events-consumer},1651975200,0
{consumergroup=trace-token-events-consumer},1651975205,0
{consumergroup=trace-token-events-consumer},1651975210,0
{consumergroup=trace-token-events-consumer},1651975215,0
{consumergroup=trace-token-events-consumer},1651975220,0
{consumergroup=trace-token-events-consumer},1651975225,0
{consumergroup=trace-token-events-consumer},1651975230,0
{consumergroup=trace-token-events-consumer},1651975235,0
{consumergroup=trace-token-events-consumer},1651975240,0
{consumergroup=trace-token-events-consumer},1651975245,0
{consumergroup=trace-token-events-consumer},1651975250,0
{consumergroup=trace-token-events-consumer},1651975255,0
{consumergroup=trace-token-events-consumer},1651975260,0
{consumergroup=trace-token-events-consumer},1651975265,0
{consumergroup=trace-token-events-consumer},1651975270,0
{consumergroup=trace-token-events-consumer},1651975275,0
{consumergroup=trace-token-events-consumer},1651975280,0
{consumergroup=trace-token-events-consumer},1651975285,0
{consumergroup=trace-token-events-consumer},1651975290,0
{consumergroup=trace-token-events-consumer},1651975295,0
{consumergroup=trace-token-events-consumer},1651975300,0
{consumergroup=trace-token-events-consumer},1651975305,0
{consumergroup=trace-token-events-consumer},1651975310,0
{consumergroup=trace-token-events-consumer},1651975315,0
{consumergroup=trace-token-events-consumer},1651975320,0
{consumergroup=trace-token-events-consumer},1651975325,0
{consumergroup=trace-token-events-consumer},1651975330,0
{consumergroup=trace-token-events-consumer},1651975335,0
{consumergroup=trace-token-events-consumer},1651975340,0
{consumergroup=trace-token-events-consumer},1651975345,0
