labels,timestamp,value
{job=theodolite-stu200776/combined-trace-podmonitor},1651977732,0
{job=theodolite-stu200776/combined-trace-podmonitor},1651977737,0
{job=theodolite-stu200776/combined-trace-podmonitor},1651977742,0
{job=theodolite-stu200776/combined-trace-podmonitor},1651977747,0
{job=theodolite-stu200776/combined-trace-podmonitor},1651977752,0
{job=theodolite-stu200776/combined-trace-podmonitor},1651977757,0
{job=theodolite-stu200776/combined-trace-podmonitor},1651977762,0
{job=theodolite-stu200776/combined-trace-podmonitor},1651977767,0
{job=theodolite-stu200776/combined-trace-podmonitor},1651977772,0
{job=theodolite-stu200776/combined-trace-podmonitor},1651977777,0
{job=theodolite-stu200776/combined-trace-podmonitor},1651977782,0
{job=theodolite-stu200776/combined-trace-podmonitor},1651977787,0
{job=theodolite-stu200776/combined-trace-podmonitor},1651977792,0
{job=theodolite-stu200776/combined-trace-podmonitor},1651977797,0
{job=theodolite-stu200776/combined-trace-podmonitor},1651977802,0
{job=theodolite-stu200776/combined-trace-podmonitor},1651977807,0
{job=theodolite-stu200776/combined-trace-podmonitor},1651977812,0
{job=theodolite-stu200776/combined-trace-podmonitor},1651977817,0
{job=theodolite-stu200776/combined-trace-podmonitor},1651977822,0
{job=theodolite-stu200776/combined-trace-podmonitor},1651977827,0
{job=theodolite-stu200776/combined-trace-podmonitor},1651977832,0
{job=theodolite-stu200776/combined-trace-podmonitor},1651977837,0
{job=theodolite-stu200776/combined-trace-podmonitor},1651977842,0
{job=theodolite-stu200776/combined-trace-podmonitor},1651977847,0
{job=theodolite-stu200776/combined-trace-podmonitor},1651977852,0
{job=theodolite-stu200776/combined-trace-podmonitor},1651977857,0
{job=theodolite-stu200776/combined-trace-podmonitor},1651977862,0
{job=theodolite-stu200776/combined-trace-podmonitor},1651977867,0
{job=theodolite-stu200776/combined-trace-podmonitor},1651977872,0
{job=theodolite-stu200776/combined-trace-podmonitor},1651977877,0
{job=theodolite-stu200776/combined-trace-podmonitor},1651977882,0
{job=theodolite-stu200776/combined-trace-podmonitor},1651977887,0
{job=theodolite-stu200776/combined-trace-podmonitor},1651977892,0
{job=theodolite-stu200776/combined-trace-podmonitor},1651977897,0
{job=theodolite-stu200776/combined-trace-podmonitor},1651977902,0
{job=theodolite-stu200776/combined-trace-podmonitor},1651977907,0
{job=theodolite-stu200776/combined-trace-podmonitor},1651977912,0
{job=theodolite-stu200776/combined-trace-podmonitor},1651977917,0
{job=theodolite-stu200776/combined-trace-podmonitor},1651977922,0
{job=theodolite-stu200776/combined-trace-podmonitor},1651977927,0
{job=theodolite-stu200776/combined-trace-podmonitor},1651977932,0
{job=theodolite-stu200776/combined-trace-podmonitor},1651977937,0
{job=theodolite-stu200776/combined-trace-podmonitor},1651977942,0
{job=theodolite-stu200776/combined-trace-podmonitor},1651977947,0
{job=theodolite-stu200776/combined-trace-podmonitor},1651977952,0
{job=theodolite-stu200776/combined-trace-podmonitor},1651977957,0
{job=theodolite-stu200776/combined-trace-podmonitor},1651977962,0
{job=theodolite-stu200776/combined-trace-podmonitor},1651977967,0
{job=theodolite-stu200776/combined-trace-podmonitor},1651977972,0
{job=theodolite-stu200776/combined-trace-podmonitor},1651977977,0
{job=theodolite-stu200776/combined-trace-podmonitor},1651977982,0
{job=theodolite-stu200776/combined-trace-podmonitor},1651977987,0
{job=theodolite-stu200776/combined-trace-podmonitor},1651977992,0
{job=theodolite-stu200776/combined-trace-podmonitor},1651977997,0
{job=theodolite-stu200776/combined-trace-podmonitor},1651978002,0
{job=theodolite-stu200776/combined-trace-podmonitor},1651978007,0
{job=theodolite-stu200776/combined-trace-podmonitor},1651978012,0
{job=theodolite-stu200776/combined-trace-podmonitor},1651978017,0
{job=theodolite-stu200776/combined-trace-podmonitor},1651978022,0
{job=theodolite-stu200776/combined-trace-podmonitor},1651978027,0
{job=theodolite-stu200776/combined-trace-podmonitor},1651978032,0
{job=theodolite-stu200776/combined-trace-podmonitor},1651978037,0
{job=theodolite-stu200776/combined-trace-podmonitor},1651978042,0
{job=theodolite-stu200776/combined-trace-podmonitor},1651978047,0
{job=theodolite-stu200776/combined-trace-podmonitor},1651978052,0
{job=theodolite-stu200776/combined-trace-podmonitor},1651978057,0
{job=theodolite-stu200776/combined-trace-podmonitor},1651978062,0
{job=theodolite-stu200776/combined-trace-podmonitor},1651978067,0
{job=theodolite-stu200776/combined-trace-podmonitor},1651978072,0
{job=theodolite-stu200776/combined-trace-podmonitor},1651978077,0
{job=theodolite-stu200776/combined-trace-podmonitor},1651978082,0
{job=theodolite-stu200776/combined-trace-podmonitor},1651978087,0
{job=theodolite-stu200776/combined-trace-podmonitor},1651978092,0
{job=theodolite-stu200776/combined-trace-podmonitor},1651978097,0
{job=theodolite-stu200776/combined-trace-podmonitor},1651978102,0
{job=theodolite-stu200776/combined-trace-podmonitor},1651978107,0
