labels,timestamp,value
{consumergroup=__strimzi-topic-operator-kstreams},1651988647,8
{consumergroup=__strimzi-topic-operator-kstreams},1651988652,8
{consumergroup=__strimzi-topic-operator-kstreams},1651988657,8
{consumergroup=__strimzi-topic-operator-kstreams},1651988662,0
{consumergroup=__strimzi-topic-operator-kstreams},1651988667,0
{consumergroup=__strimzi-topic-operator-kstreams},1651988672,0
{consumergroup=__strimzi-topic-operator-kstreams},1651988677,0
{consumergroup=__strimzi-topic-operator-kstreams},1651988682,0
{consumergroup=__strimzi-topic-operator-kstreams},1651988687,0
{consumergroup=__strimzi-topic-operator-kstreams},1651988692,0
{consumergroup=__strimzi-topic-operator-kstreams},1651988697,0
{consumergroup=__strimzi-topic-operator-kstreams},1651988702,0
{consumergroup=__strimzi-topic-operator-kstreams},1651988707,0
{consumergroup=__strimzi-topic-operator-kstreams},1651988712,0
{consumergroup=__strimzi-topic-operator-kstreams},1651988717,0
{consumergroup=__strimzi-topic-operator-kstreams},1651988722,0
{consumergroup=__strimzi-topic-operator-kstreams},1651988727,0
{consumergroup=__strimzi-topic-operator-kstreams},1651988732,0
{consumergroup=__strimzi-topic-operator-kstreams},1651988737,0
{consumergroup=__strimzi-topic-operator-kstreams},1651988742,0
{consumergroup=__strimzi-topic-operator-kstreams},1651988747,0
{consumergroup=__strimzi-topic-operator-kstreams},1651988752,0
{consumergroup=__strimzi-topic-operator-kstreams},1651988757,0
{consumergroup=__strimzi-topic-operator-kstreams},1651988762,0
{consumergroup=__strimzi-topic-operator-kstreams},1651988767,0
{consumergroup=__strimzi-topic-operator-kstreams},1651988772,0
{consumergroup=__strimzi-topic-operator-kstreams},1651988777,0
{consumergroup=__strimzi-topic-operator-kstreams},1651988782,0
{consumergroup=__strimzi-topic-operator-kstreams},1651988787,0
{consumergroup=__strimzi-topic-operator-kstreams},1651988792,0
{consumergroup=__strimzi-topic-operator-kstreams},1651988797,0
{consumergroup=__strimzi-topic-operator-kstreams},1651988802,0
{consumergroup=__strimzi-topic-operator-kstreams},1651988807,0
{consumergroup=__strimzi-topic-operator-kstreams},1651988812,0
{consumergroup=__strimzi-topic-operator-kstreams},1651988817,0
{consumergroup=__strimzi-topic-operator-kstreams},1651988822,0
{consumergroup=__strimzi-topic-operator-kstreams},1651988827,0
{consumergroup=__strimzi-topic-operator-kstreams},1651988832,0
{consumergroup=__strimzi-topic-operator-kstreams},1651988837,0
{consumergroup=__strimzi-topic-operator-kstreams},1651988842,0
{consumergroup=__strimzi-topic-operator-kstreams},1651988847,0
{consumergroup=__strimzi-topic-operator-kstreams},1651988852,0
{consumergroup=__strimzi-topic-operator-kstreams},1651988857,0
{consumergroup=__strimzi-topic-operator-kstreams},1651988862,0
{consumergroup=__strimzi-topic-operator-kstreams},1651988867,0
{consumergroup=__strimzi-topic-operator-kstreams},1651988872,0
{consumergroup=__strimzi-topic-operator-kstreams},1651988877,0
{consumergroup=__strimzi-topic-operator-kstreams},1651988882,0
{consumergroup=__strimzi-topic-operator-kstreams},1651988887,0
{consumergroup=__strimzi-topic-operator-kstreams},1651988892,0
{consumergroup=__strimzi-topic-operator-kstreams},1651988897,0
{consumergroup=__strimzi-topic-operator-kstreams},1651988902,0
{consumergroup=__strimzi-topic-operator-kstreams},1651988907,0
{consumergroup=__strimzi-topic-operator-kstreams},1651988912,0
{consumergroup=__strimzi-topic-operator-kstreams},1651988917,0
{consumergroup=__strimzi-topic-operator-kstreams},1651988922,0
{consumergroup=__strimzi-topic-operator-kstreams},1651988927,0
{consumergroup=__strimzi-topic-operator-kstreams},1651988932,0
{consumergroup=__strimzi-topic-operator-kstreams},1651988937,0
{consumergroup=__strimzi-topic-operator-kstreams},1651988942,0
{consumergroup=__strimzi-topic-operator-kstreams},1651988947,0
{consumergroup=__strimzi-topic-operator-kstreams},1651988952,0
{consumergroup=__strimzi-topic-operator-kstreams},1651988957,0
{consumergroup=__strimzi-topic-operator-kstreams},1651988962,0
{consumergroup=__strimzi-topic-operator-kstreams},1651988967,0
{consumergroup=__strimzi-topic-operator-kstreams},1651988972,0
{consumergroup=__strimzi-topic-operator-kstreams},1651988977,0
{consumergroup=__strimzi-topic-operator-kstreams},1651988982,0
{consumergroup=__strimzi-topic-operator-kstreams},1651988987,0
{consumergroup=__strimzi-topic-operator-kstreams},1651988992,0
{consumergroup=__strimzi-topic-operator-kstreams},1651988997,0
{consumergroup=__strimzi-topic-operator-kstreams},1651989002,0
{consumergroup=__strimzi-topic-operator-kstreams},1651989007,0
{consumergroup=__strimzi-topic-operator-kstreams},1651989012,0
{consumergroup=__strimzi-topic-operator-kstreams},1651989017,0
{consumergroup=__strimzi-topic-operator-kstreams},1651989022,0
{consumergroup=__strimzi-topic-operator-kstreams},1651989027,0
{consumergroup=__strimzi-topic-operator-kstreams},1651989032,0
{consumergroup=__strimzi-topic-operator-kstreams},1651989037,0
{consumergroup=__strimzi-topic-operator-kstreams},1651989042,0
{consumergroup=__strimzi-topic-operator-kstreams},1651989047,0
{consumergroup=__strimzi-topic-operator-kstreams},1651989052,0
{consumergroup=__strimzi-topic-operator-kstreams},1651989057,0
{consumergroup=__strimzi-topic-operator-kstreams},1651989062,0
{consumergroup=__strimzi-topic-operator-kstreams},1651989067,0
{consumergroup=__strimzi-topic-operator-kstreams},1651989072,0
{consumergroup=__strimzi-topic-operator-kstreams},1651989077,0
{consumergroup=__strimzi-topic-operator-kstreams},1651989082,0
{consumergroup=__strimzi-topic-operator-kstreams},1651989087,0
{consumergroup=adapter-service},1651988677,0
{consumergroup=adapter-service},1651988682,0
{consumergroup=adapter-service},1651988687,0
{consumergroup=adapter-service},1651988692,9765
{consumergroup=adapter-service},1651988697,9765
{consumergroup=adapter-service},1651988702,9765
{consumergroup=adapter-service},1651988707,5388
{consumergroup=adapter-service},1651988712,5388
{consumergroup=adapter-service},1651988717,5388
{consumergroup=adapter-service},1651988722,9397
{consumergroup=adapter-service},1651988727,9397
{consumergroup=adapter-service},1651988732,9397
{consumergroup=adapter-service},1651988737,5288
{consumergroup=adapter-service},1651988742,5288
{consumergroup=adapter-service},1651988747,5288
{consumergroup=adapter-service},1651988752,7611
{consumergroup=adapter-service},1651988757,7611
{consumergroup=adapter-service},1651988762,7611
{consumergroup=adapter-service},1651988767,3757
{consumergroup=adapter-service},1651988772,3757
{consumergroup=adapter-service},1651988777,3757
{consumergroup=adapter-service},1651988782,7004
{consumergroup=adapter-service},1651988787,7004
{consumergroup=adapter-service},1651988792,7004
{consumergroup=adapter-service},1651988797,3050
{consumergroup=adapter-service},1651988802,3050
{consumergroup=adapter-service},1651988807,3050
{consumergroup=adapter-service},1651988812,7488
{consumergroup=adapter-service},1651988817,7488
{consumergroup=adapter-service},1651988822,7488
{consumergroup=adapter-service},1651988827,2581
{consumergroup=adapter-service},1651988832,2581
{consumergroup=adapter-service},1651988837,2581
{consumergroup=adapter-service},1651988842,6907
{consumergroup=adapter-service},1651988847,6907
{consumergroup=adapter-service},1651988852,6907
{consumergroup=adapter-service},1651988857,2770
{consumergroup=adapter-service},1651988862,2770
{consumergroup=adapter-service},1651988867,2770
{consumergroup=adapter-service},1651988872,6110
{consumergroup=adapter-service},1651988877,6110
{consumergroup=adapter-service},1651988882,6110
{consumergroup=adapter-service},1651988887,1643
{consumergroup=adapter-service},1651988892,1643
{consumergroup=adapter-service},1651988897,1643
{consumergroup=adapter-service},1651988902,4749
{consumergroup=adapter-service},1651988907,4749
{consumergroup=adapter-service},1651988912,4749
{consumergroup=adapter-service},1651988917,1846
{consumergroup=adapter-service},1651988922,1846
{consumergroup=adapter-service},1651988927,1846
{consumergroup=adapter-service},1651988932,4552
{consumergroup=adapter-service},1651988937,4552
{consumergroup=adapter-service},1651988942,4552
{consumergroup=adapter-service},1651988947,542
{consumergroup=adapter-service},1651988952,542
{consumergroup=adapter-service},1651988957,542
{consumergroup=adapter-service},1651988962,3650
{consumergroup=adapter-service},1651988967,3650
{consumergroup=adapter-service},1651988972,3650
{consumergroup=adapter-service},1651988977,3083
{consumergroup=adapter-service},1651988982,3083
{consumergroup=adapter-service},1651988987,3083
{consumergroup=adapter-service},1651988992,3018
{consumergroup=adapter-service},1651988997,3018
{consumergroup=adapter-service},1651989002,3018
{consumergroup=adapter-service},1651989007,8332
{consumergroup=adapter-service},1651989012,8332
{consumergroup=adapter-service},1651989017,8332
{consumergroup=adapter-service},1651989022,2803
{consumergroup=adapter-service},1651989027,2803
{consumergroup=adapter-service},1651989032,2803
{consumergroup=adapter-service},1651989037,10640
{consumergroup=adapter-service},1651989042,10640
{consumergroup=adapter-service},1651989047,10640
{consumergroup=adapter-service},1651989052,1919
{consumergroup=adapter-service},1651989057,1919
{consumergroup=adapter-service},1651989062,1919
{consumergroup=adapter-service},1651989067,10250
{consumergroup=adapter-service},1651989072,10250
{consumergroup=adapter-service},1651989077,10250
{consumergroup=adapter-service},1651989082,1443
{consumergroup=adapter-service},1651989087,1443
{consumergroup=landscape-service},1651988692,5717
{consumergroup=landscape-service},1651988697,5717
{consumergroup=landscape-service},1651988702,5717
{consumergroup=landscape-service},1651988707,1025
{consumergroup=landscape-service},1651988712,1025
{consumergroup=landscape-service},1651988717,1025
{consumergroup=landscape-service},1651988722,5203
{consumergroup=landscape-service},1651988727,5203
{consumergroup=landscape-service},1651988732,5203
{consumergroup=landscape-service},1651988737,935
{consumergroup=landscape-service},1651988742,935
{consumergroup=landscape-service},1651988747,935
{consumergroup=landscape-service},1651988752,5031
{consumergroup=landscape-service},1651988757,5031
{consumergroup=landscape-service},1651988762,5031
{consumergroup=landscape-service},1651988767,945
{consumergroup=landscape-service},1651988772,945
{consumergroup=landscape-service},1651988777,945
{consumergroup=landscape-service},1651988782,3889
{consumergroup=landscape-service},1651988787,3889
{consumergroup=landscape-service},1651988792,3889
{consumergroup=landscape-service},1651988797,803
{consumergroup=landscape-service},1651988802,803
{consumergroup=landscape-service},1651988807,803
{consumergroup=landscape-service},1651988812,4022
{consumergroup=landscape-service},1651988817,4022
{consumergroup=landscape-service},1651988822,4022
{consumergroup=landscape-service},1651988827,783
{consumergroup=landscape-service},1651988832,783
{consumergroup=landscape-service},1651988837,783
{consumergroup=landscape-service},1651988842,3543
{consumergroup=landscape-service},1651988847,3543
{consumergroup=landscape-service},1651988852,3543
{consumergroup=landscape-service},1651988857,6933
{consumergroup=landscape-service},1651988862,6933
{consumergroup=landscape-service},1651988867,6933
{consumergroup=landscape-service},1651988872,4145
{consumergroup=landscape-service},1651988877,4145
{consumergroup=landscape-service},1651988882,4145
{consumergroup=landscape-service},1651988887,12519
{consumergroup=landscape-service},1651988892,12519
{consumergroup=landscape-service},1651988897,12519
{consumergroup=landscape-service},1651988902,3213
{consumergroup=landscape-service},1651988907,3213
{consumergroup=landscape-service},1651988912,3213
{consumergroup=landscape-service},1651988917,12434
{consumergroup=landscape-service},1651988922,12434
{consumergroup=landscape-service},1651988927,12434
{consumergroup=landscape-service},1651988932,2947
{consumergroup=landscape-service},1651988937,2947
{consumergroup=landscape-service},1651988942,2947
{consumergroup=landscape-service},1651988947,11332
{consumergroup=landscape-service},1651988952,11332
{consumergroup=landscape-service},1651988957,11332
{consumergroup=landscape-service},1651988962,3170
{consumergroup=landscape-service},1651988967,3170
{consumergroup=landscape-service},1651988972,3170
{consumergroup=landscape-service},1651988977,11959
{consumergroup=landscape-service},1651988982,11959
{consumergroup=landscape-service},1651988987,11959
{consumergroup=landscape-service},1651988992,2808
{consumergroup=landscape-service},1651988997,2808
{consumergroup=landscape-service},1651989002,2808
{consumergroup=landscape-service},1651989007,10971
{consumergroup=landscape-service},1651989012,10971
{consumergroup=landscape-service},1651989017,10971
{consumergroup=landscape-service},1651989022,2678
{consumergroup=landscape-service},1651989027,2678
{consumergroup=landscape-service},1651989032,2678
{consumergroup=landscape-service},1651989037,11830
{consumergroup=landscape-service},1651989042,11830
{consumergroup=landscape-service},1651989047,11830
{consumergroup=landscape-service},1651989052,3379
{consumergroup=landscape-service},1651989057,3379
{consumergroup=landscape-service},1651989062,3379
{consumergroup=landscape-service},1651989067,10740
{consumergroup=landscape-service},1651989072,10740
{consumergroup=landscape-service},1651989077,10740
{consumergroup=landscape-service},1651989082,2206
{consumergroup=landscape-service},1651989087,2206
{consumergroup=landscape-token-events-consumer},1651988677,0
{consumergroup=landscape-token-events-consumer},1651988682,0
{consumergroup=landscape-token-events-consumer},1651988687,0
{consumergroup=landscape-token-events-consumer},1651988692,0
{consumergroup=landscape-token-events-consumer},1651988697,0
{consumergroup=landscape-token-events-consumer},1651988702,0
{consumergroup=landscape-token-events-consumer},1651988707,0
{consumergroup=landscape-token-events-consumer},1651988712,0
{consumergroup=landscape-token-events-consumer},1651988717,0
{consumergroup=landscape-token-events-consumer},1651988722,0
{consumergroup=landscape-token-events-consumer},1651988727,0
{consumergroup=landscape-token-events-consumer},1651988732,0
{consumergroup=landscape-token-events-consumer},1651988737,0
{consumergroup=landscape-token-events-consumer},1651988742,0
{consumergroup=landscape-token-events-consumer},1651988747,0
{consumergroup=landscape-token-events-consumer},1651988752,0
{consumergroup=landscape-token-events-consumer},1651988757,0
{consumergroup=landscape-token-events-consumer},1651988762,0
{consumergroup=landscape-token-events-consumer},1651988767,0
{consumergroup=landscape-token-events-consumer},1651988772,0
{consumergroup=landscape-token-events-consumer},1651988777,0
{consumergroup=landscape-token-events-consumer},1651988782,0
{consumergroup=landscape-token-events-consumer},1651988787,0
{consumergroup=landscape-token-events-consumer},1651988792,0
{consumergroup=landscape-token-events-consumer},1651988797,0
{consumergroup=landscape-token-events-consumer},1651988802,0
{consumergroup=landscape-token-events-consumer},1651988807,0
{consumergroup=landscape-token-events-consumer},1651988812,0
{consumergroup=landscape-token-events-consumer},1651988817,0
{consumergroup=landscape-token-events-consumer},1651988822,0
{consumergroup=landscape-token-events-consumer},1651988827,0
{consumergroup=landscape-token-events-consumer},1651988832,0
{consumergroup=landscape-token-events-consumer},1651988837,0
{consumergroup=landscape-token-events-consumer},1651988842,0
{consumergroup=landscape-token-events-consumer},1651988847,0
{consumergroup=landscape-token-events-consumer},1651988852,0
{consumergroup=landscape-token-events-consumer},1651988857,0
{consumergroup=landscape-token-events-consumer},1651988862,0
{consumergroup=landscape-token-events-consumer},1651988867,0
{consumergroup=landscape-token-events-consumer},1651988872,0
{consumergroup=landscape-token-events-consumer},1651988877,0
{consumergroup=landscape-token-events-consumer},1651988882,0
{consumergroup=landscape-token-events-consumer},1651988887,0
{consumergroup=landscape-token-events-consumer},1651988892,0
{consumergroup=landscape-token-events-consumer},1651988897,0
{consumergroup=landscape-token-events-consumer},1651988902,0
{consumergroup=landscape-token-events-consumer},1651988907,0
{consumergroup=landscape-token-events-consumer},1651988912,0
{consumergroup=landscape-token-events-consumer},1651988917,0
{consumergroup=landscape-token-events-consumer},1651988922,0
{consumergroup=landscape-token-events-consumer},1651988927,0
{consumergroup=landscape-token-events-consumer},1651988932,0
{consumergroup=landscape-token-events-consumer},1651988937,0
{consumergroup=landscape-token-events-consumer},1651988942,0
{consumergroup=landscape-token-events-consumer},1651988947,0
{consumergroup=landscape-token-events-consumer},1651988952,0
{consumergroup=landscape-token-events-consumer},1651988957,0
{consumergroup=landscape-token-events-consumer},1651988962,0
{consumergroup=landscape-token-events-consumer},1651988967,0
{consumergroup=landscape-token-events-consumer},1651988972,0
{consumergroup=landscape-token-events-consumer},1651988977,0
{consumergroup=landscape-token-events-consumer},1651988982,0
{consumergroup=landscape-token-events-consumer},1651988987,0
{consumergroup=landscape-token-events-consumer},1651988992,0
{consumergroup=landscape-token-events-consumer},1651988997,0
{consumergroup=landscape-token-events-consumer},1651989002,0
{consumergroup=landscape-token-events-consumer},1651989007,0
{consumergroup=landscape-token-events-consumer},1651989012,0
{consumergroup=landscape-token-events-consumer},1651989017,0
{consumergroup=landscape-token-events-consumer},1651989022,0
{consumergroup=landscape-token-events-consumer},1651989027,0
{consumergroup=landscape-token-events-consumer},1651989032,0
{consumergroup=landscape-token-events-consumer},1651989037,0
{consumergroup=landscape-token-events-consumer},1651989042,0
{consumergroup=landscape-token-events-consumer},1651989047,0
{consumergroup=landscape-token-events-consumer},1651989052,0
{consumergroup=landscape-token-events-consumer},1651989057,0
{consumergroup=landscape-token-events-consumer},1651989062,0
{consumergroup=landscape-token-events-consumer},1651989067,0
{consumergroup=landscape-token-events-consumer},1651989072,0
{consumergroup=landscape-token-events-consumer},1651989077,0
{consumergroup=landscape-token-events-consumer},1651989082,0
{consumergroup=landscape-token-events-consumer},1651989087,0
{consumergroup=trace-service},1651988692,15222
{consumergroup=trace-service},1651988697,15222
{consumergroup=trace-service},1651988702,15222
{consumergroup=trace-service},1651988707,54562
{consumergroup=trace-service},1651988712,54562
{consumergroup=trace-service},1651988717,54562
{consumergroup=trace-service},1651988722,83770
{consumergroup=trace-service},1651988727,83770
{consumergroup=trace-service},1651988732,83770
{consumergroup=trace-service},1651988737,143195
{consumergroup=trace-service},1651988742,143195
{consumergroup=trace-service},1651988747,143195
{consumergroup=trace-service},1651988752,127031
{consumergroup=trace-service},1651988757,127031
{consumergroup=trace-service},1651988762,127031
{consumergroup=trace-service},1651988767,40429
{consumergroup=trace-service},1651988772,40429
{consumergroup=trace-service},1651988777,40429
{consumergroup=trace-service},1651988782,29669
{consumergroup=trace-service},1651988787,29669
{consumergroup=trace-service},1651988792,29669
{consumergroup=trace-service},1651988797,37701
{consumergroup=trace-service},1651988802,37701
{consumergroup=trace-service},1651988807,37701
{consumergroup=trace-service},1651988812,66802
{consumergroup=trace-service},1651988817,66802
{consumergroup=trace-service},1651988822,66802
{consumergroup=trace-service},1651988827,37606
{consumergroup=trace-service},1651988832,37606
{consumergroup=trace-service},1651988837,37606
{consumergroup=trace-service},1651988842,12673
{consumergroup=trace-service},1651988847,12673
{consumergroup=trace-service},1651988852,12673
{consumergroup=trace-service},1651988857,40569
{consumergroup=trace-service},1651988862,40569
{consumergroup=trace-service},1651988867,40569
{consumergroup=trace-service},1651988872,108103
{consumergroup=trace-service},1651988877,108103
{consumergroup=trace-service},1651988882,108103
{consumergroup=trace-service},1651988887,39125
{consumergroup=trace-service},1651988892,39125
{consumergroup=trace-service},1651988897,39125
{consumergroup=trace-service},1651988902,84598
{consumergroup=trace-service},1651988907,84598
{consumergroup=trace-service},1651988912,84598
{consumergroup=trace-service},1651988917,41382
{consumergroup=trace-service},1651988922,41382
{consumergroup=trace-service},1651988927,41382
{consumergroup=trace-service},1651988932,13994
{consumergroup=trace-service},1651988937,13994
{consumergroup=trace-service},1651988942,13994
{consumergroup=trace-service},1651988947,38403
{consumergroup=trace-service},1651988952,38403
{consumergroup=trace-service},1651988957,38403
{consumergroup=trace-service},1651988962,121621
{consumergroup=trace-service},1651988967,121621
{consumergroup=trace-service},1651988972,121621
{consumergroup=trace-service},1651988977,38424
{consumergroup=trace-service},1651988982,38424
{consumergroup=trace-service},1651988987,38424
{consumergroup=trace-service},1651988992,101539
{consumergroup=trace-service},1651988997,101539
{consumergroup=trace-service},1651989002,101539
{consumergroup=trace-service},1651989007,38034
{consumergroup=trace-service},1651989012,38034
{consumergroup=trace-service},1651989017,38034
{consumergroup=trace-service},1651989022,31545
{consumergroup=trace-service},1651989027,31545
{consumergroup=trace-service},1651989032,31545
{consumergroup=trace-service},1651989037,38033
{consumergroup=trace-service},1651989042,38033
{consumergroup=trace-service},1651989047,38033
{consumergroup=trace-service},1651989052,68916
{consumergroup=trace-service},1651989057,68916
{consumergroup=trace-service},1651989062,68916
{consumergroup=trace-service},1651989067,36716
{consumergroup=trace-service},1651989072,36716
{consumergroup=trace-service},1651989077,36716
{consumergroup=trace-service},1651989082,85939
{consumergroup=trace-service},1651989087,85939
{consumergroup=trace-token-events-consumer},1651988677,0
{consumergroup=trace-token-events-consumer},1651988682,0
{consumergroup=trace-token-events-consumer},1651988687,0
{consumergroup=trace-token-events-consumer},1651988692,0
{consumergroup=trace-token-events-consumer},1651988697,0
{consumergroup=trace-token-events-consumer},1651988702,0
{consumergroup=trace-token-events-consumer},1651988707,0
{consumergroup=trace-token-events-consumer},1651988712,0
{consumergroup=trace-token-events-consumer},1651988717,0
{consumergroup=trace-token-events-consumer},1651988722,0
{consumergroup=trace-token-events-consumer},1651988727,0
{consumergroup=trace-token-events-consumer},1651988732,0
{consumergroup=trace-token-events-consumer},1651988737,0
{consumergroup=trace-token-events-consumer},1651988742,0
{consumergroup=trace-token-events-consumer},1651988747,0
{consumergroup=trace-token-events-consumer},1651988752,0
{consumergroup=trace-token-events-consumer},1651988757,0
{consumergroup=trace-token-events-consumer},1651988762,0
{consumergroup=trace-token-events-consumer},1651988767,0
{consumergroup=trace-token-events-consumer},1651988772,0
{consumergroup=trace-token-events-consumer},1651988777,0
{consumergroup=trace-token-events-consumer},1651988782,0
{consumergroup=trace-token-events-consumer},1651988787,0
{consumergroup=trace-token-events-consumer},1651988792,0
{consumergroup=trace-token-events-consumer},1651988797,0
{consumergroup=trace-token-events-consumer},1651988802,0
{consumergroup=trace-token-events-consumer},1651988807,0
{consumergroup=trace-token-events-consumer},1651988812,0
{consumergroup=trace-token-events-consumer},1651988817,0
{consumergroup=trace-token-events-consumer},1651988822,0
{consumergroup=trace-token-events-consumer},1651988827,0
{consumergroup=trace-token-events-consumer},1651988832,0
{consumergroup=trace-token-events-consumer},1651988837,0
{consumergroup=trace-token-events-consumer},1651988842,0
{consumergroup=trace-token-events-consumer},1651988847,0
{consumergroup=trace-token-events-consumer},1651988852,0
{consumergroup=trace-token-events-consumer},1651988857,0
{consumergroup=trace-token-events-consumer},1651988862,0
{consumergroup=trace-token-events-consumer},1651988867,0
{consumergroup=trace-token-events-consumer},1651988872,0
{consumergroup=trace-token-events-consumer},1651988877,0
{consumergroup=trace-token-events-consumer},1651988882,0
{consumergroup=trace-token-events-consumer},1651988887,0
{consumergroup=trace-token-events-consumer},1651988892,0
{consumergroup=trace-token-events-consumer},1651988897,0
{consumergroup=trace-token-events-consumer},1651988902,0
{consumergroup=trace-token-events-consumer},1651988907,0
{consumergroup=trace-token-events-consumer},1651988912,0
{consumergroup=trace-token-events-consumer},1651988917,0
{consumergroup=trace-token-events-consumer},1651988922,0
{consumergroup=trace-token-events-consumer},1651988927,0
{consumergroup=trace-token-events-consumer},1651988932,0
{consumergroup=trace-token-events-consumer},1651988937,0
{consumergroup=trace-token-events-consumer},1651988942,0
{consumergroup=trace-token-events-consumer},1651988947,0
{consumergroup=trace-token-events-consumer},1651988952,0
{consumergroup=trace-token-events-consumer},1651988957,0
{consumergroup=trace-token-events-consumer},1651988962,0
{consumergroup=trace-token-events-consumer},1651988967,0
{consumergroup=trace-token-events-consumer},1651988972,0
{consumergroup=trace-token-events-consumer},1651988977,0
{consumergroup=trace-token-events-consumer},1651988982,0
{consumergroup=trace-token-events-consumer},1651988987,0
{consumergroup=trace-token-events-consumer},1651988992,0
{consumergroup=trace-token-events-consumer},1651988997,0
{consumergroup=trace-token-events-consumer},1651989002,0
{consumergroup=trace-token-events-consumer},1651989007,0
{consumergroup=trace-token-events-consumer},1651989012,0
{consumergroup=trace-token-events-consumer},1651989017,0
{consumergroup=trace-token-events-consumer},1651989022,0
{consumergroup=trace-token-events-consumer},1651989027,0
{consumergroup=trace-token-events-consumer},1651989032,0
{consumergroup=trace-token-events-consumer},1651989037,0
{consumergroup=trace-token-events-consumer},1651989042,0
{consumergroup=trace-token-events-consumer},1651989047,0
{consumergroup=trace-token-events-consumer},1651989052,0
{consumergroup=trace-token-events-consumer},1651989057,0
{consumergroup=trace-token-events-consumer},1651989062,0
{consumergroup=trace-token-events-consumer},1651989067,0
{consumergroup=trace-token-events-consumer},1651989072,0
{consumergroup=trace-token-events-consumer},1651989077,0
{consumergroup=trace-token-events-consumer},1651989082,0
{consumergroup=trace-token-events-consumer},1651989087,0
