labels,timestamp,value
{job=theodolite-stu200776/combined-trace-podmonitor},1651993271,0
{job=theodolite-stu200776/combined-trace-podmonitor},1651993276,0
{job=theodolite-stu200776/combined-trace-podmonitor},1651993281,0
{job=theodolite-stu200776/combined-trace-podmonitor},1651993286,0
{job=theodolite-stu200776/combined-trace-podmonitor},1651993291,0
{job=theodolite-stu200776/combined-trace-podmonitor},1651993296,0
{job=theodolite-stu200776/combined-trace-podmonitor},1651993301,0
{job=theodolite-stu200776/combined-trace-podmonitor},1651993306,0
{job=theodolite-stu200776/combined-trace-podmonitor},1651993311,0
{job=theodolite-stu200776/combined-trace-podmonitor},1651993316,0
{job=theodolite-stu200776/combined-trace-podmonitor},1651993321,0
{job=theodolite-stu200776/combined-trace-podmonitor},1651993326,0
{job=theodolite-stu200776/combined-trace-podmonitor},1651993331,0
{job=theodolite-stu200776/combined-trace-podmonitor},1651993336,0
{job=theodolite-stu200776/combined-trace-podmonitor},1651993341,0
{job=theodolite-stu200776/combined-trace-podmonitor},1651993346,0
{job=theodolite-stu200776/combined-trace-podmonitor},1651993351,0
{job=theodolite-stu200776/combined-trace-podmonitor},1651993356,0
{job=theodolite-stu200776/combined-trace-podmonitor},1651993361,0
{job=theodolite-stu200776/combined-trace-podmonitor},1651993366,0
{job=theodolite-stu200776/combined-trace-podmonitor},1651993371,0
{job=theodolite-stu200776/combined-trace-podmonitor},1651993376,0
{job=theodolite-stu200776/combined-trace-podmonitor},1651993381,0
{job=theodolite-stu200776/combined-trace-podmonitor},1651993386,0
{job=theodolite-stu200776/combined-trace-podmonitor},1651993391,0
{job=theodolite-stu200776/combined-trace-podmonitor},1651993396,0
{job=theodolite-stu200776/combined-trace-podmonitor},1651993401,0
{job=theodolite-stu200776/combined-trace-podmonitor},1651993406,0
{job=theodolite-stu200776/combined-trace-podmonitor},1651993411,0
{job=theodolite-stu200776/combined-trace-podmonitor},1651993416,0
{job=theodolite-stu200776/combined-trace-podmonitor},1651993421,0
{job=theodolite-stu200776/combined-trace-podmonitor},1651993426,0
{job=theodolite-stu200776/combined-trace-podmonitor},1651993431,0
{job=theodolite-stu200776/combined-trace-podmonitor},1651993436,0
{job=theodolite-stu200776/combined-trace-podmonitor},1651993441,0
{job=theodolite-stu200776/combined-trace-podmonitor},1651993446,0
{job=theodolite-stu200776/combined-trace-podmonitor},1651993451,0
{job=theodolite-stu200776/combined-trace-podmonitor},1651993456,0
{job=theodolite-stu200776/combined-trace-podmonitor},1651993461,0
{job=theodolite-stu200776/combined-trace-podmonitor},1651993466,0
{job=theodolite-stu200776/combined-trace-podmonitor},1651993471,0
{job=theodolite-stu200776/combined-trace-podmonitor},1651993476,0
{job=theodolite-stu200776/combined-trace-podmonitor},1651993481,0
{job=theodolite-stu200776/combined-trace-podmonitor},1651993486,0
{job=theodolite-stu200776/combined-trace-podmonitor},1651993491,0
