labels,timestamp,value
{job=theodolite-stu200776/combined-trace-podmonitor},1652011907,0
{job=theodolite-stu200776/combined-trace-podmonitor},1652011912,0
{job=theodolite-stu200776/combined-trace-podmonitor},1652011917,0
{job=theodolite-stu200776/combined-trace-podmonitor},1652011922,0
{job=theodolite-stu200776/combined-trace-podmonitor},1652011927,0
{job=theodolite-stu200776/combined-trace-podmonitor},1652011932,0
{job=theodolite-stu200776/combined-trace-podmonitor},1652011937,0
{job=theodolite-stu200776/combined-trace-podmonitor},1652011942,0
{job=theodolite-stu200776/combined-trace-podmonitor},1652011947,0
{job=theodolite-stu200776/combined-trace-podmonitor},1652011952,0
{job=theodolite-stu200776/combined-trace-podmonitor},1652011957,0
{job=theodolite-stu200776/combined-trace-podmonitor},1652011962,0
{job=theodolite-stu200776/combined-trace-podmonitor},1652011967,0
{job=theodolite-stu200776/combined-trace-podmonitor},1652011972,0
{job=theodolite-stu200776/combined-trace-podmonitor},1652011977,0
{job=theodolite-stu200776/combined-trace-podmonitor},1652011982,0
{job=theodolite-stu200776/combined-trace-podmonitor},1652011987,0
{job=theodolite-stu200776/combined-trace-podmonitor},1652011992,0
{job=theodolite-stu200776/combined-trace-podmonitor},1652011997,0
{job=theodolite-stu200776/combined-trace-podmonitor},1652012002,0
{job=theodolite-stu200776/combined-trace-podmonitor},1652012007,0
{job=theodolite-stu200776/combined-trace-podmonitor},1652012012,0
{job=theodolite-stu200776/combined-trace-podmonitor},1652012017,0
{job=theodolite-stu200776/combined-trace-podmonitor},1652012022,0
{job=theodolite-stu200776/combined-trace-podmonitor},1652012027,0
{job=theodolite-stu200776/combined-trace-podmonitor},1652012032,0
{job=theodolite-stu200776/combined-trace-podmonitor},1652012037,0
{job=theodolite-stu200776/combined-trace-podmonitor},1652012042,0
{job=theodolite-stu200776/combined-trace-podmonitor},1652012047,0
{job=theodolite-stu200776/combined-trace-podmonitor},1652012052,0
{job=theodolite-stu200776/combined-trace-podmonitor},1652012057,0
{job=theodolite-stu200776/combined-trace-podmonitor},1652012062,0
{job=theodolite-stu200776/combined-trace-podmonitor},1652012067,0
{job=theodolite-stu200776/combined-trace-podmonitor},1652012072,0
{job=theodolite-stu200776/combined-trace-podmonitor},1652012077,0
{job=theodolite-stu200776/combined-trace-podmonitor},1652012082,0
{job=theodolite-stu200776/combined-trace-podmonitor},1652012087,0
{job=theodolite-stu200776/combined-trace-podmonitor},1652012092,0
{job=theodolite-stu200776/combined-trace-podmonitor},1652012097,0
{job=theodolite-stu200776/combined-trace-podmonitor},1652012102,0
{job=theodolite-stu200776/combined-trace-podmonitor},1652012107,0
{job=theodolite-stu200776/combined-trace-podmonitor},1652012112,0
{job=theodolite-stu200776/combined-trace-podmonitor},1652012117,0
{job=theodolite-stu200776/combined-trace-podmonitor},1652012122,0
{job=theodolite-stu200776/combined-trace-podmonitor},1652012127,0
{job=theodolite-stu200776/combined-trace-podmonitor},1652012132,0
{job=theodolite-stu200776/combined-trace-podmonitor},1652012137,0
{job=theodolite-stu200776/combined-trace-podmonitor},1652012142,0
{job=theodolite-stu200776/combined-trace-podmonitor},1652012147,0
{job=theodolite-stu200776/combined-trace-podmonitor},1652012152,0
{job=theodolite-stu200776/combined-trace-podmonitor},1652012157,0
{job=theodolite-stu200776/combined-trace-podmonitor},1652012162,0
{job=theodolite-stu200776/combined-trace-podmonitor},1652012167,0
{job=theodolite-stu200776/combined-trace-podmonitor},1652012172,0
{job=theodolite-stu200776/combined-trace-podmonitor},1652012177,0
{job=theodolite-stu200776/combined-trace-podmonitor},1652012182,0
{job=theodolite-stu200776/combined-trace-podmonitor},1652012187,0
{job=theodolite-stu200776/combined-trace-podmonitor},1652012192,0
{job=theodolite-stu200776/combined-trace-podmonitor},1652012197,0
{job=theodolite-stu200776/combined-trace-podmonitor},1652012202,0
{job=theodolite-stu200776/combined-trace-podmonitor},1652012207,0
{job=theodolite-stu200776/combined-trace-podmonitor},1652012212,0
{job=theodolite-stu200776/combined-trace-podmonitor},1652012217,0
{job=theodolite-stu200776/combined-trace-podmonitor},1652012222,0
{job=theodolite-stu200776/combined-trace-podmonitor},1652012227,0
{job=theodolite-stu200776/combined-trace-podmonitor},1652012232,0
{job=theodolite-stu200776/combined-trace-podmonitor},1652012237,0
{job=theodolite-stu200776/combined-trace-podmonitor},1652012242,0
{job=theodolite-stu200776/combined-trace-podmonitor},1652012247,0
{job=theodolite-stu200776/combined-trace-podmonitor},1652012252,0
{job=theodolite-stu200776/combined-trace-podmonitor},1652012257,0
{job=theodolite-stu200776/combined-trace-podmonitor},1652012262,0
{job=theodolite-stu200776/combined-trace-podmonitor},1652012267,0
{job=theodolite-stu200776/combined-trace-podmonitor},1652012272,0
{job=theodolite-stu200776/combined-trace-podmonitor},1652012277,0
{job=theodolite-stu200776/combined-trace-podmonitor},1652012282,0
