labels,timestamp,value
{consumergroup=__strimzi-topic-operator-kstreams},1652012382,3
{consumergroup=__strimzi-topic-operator-kstreams},1652012387,3
{consumergroup=__strimzi-topic-operator-kstreams},1652012392,3
{consumergroup=__strimzi-topic-operator-kstreams},1652012397,0
{consumergroup=__strimzi-topic-operator-kstreams},1652012402,0
{consumergroup=__strimzi-topic-operator-kstreams},1652012407,0
{consumergroup=__strimzi-topic-operator-kstreams},1652012412,3
{consumergroup=__strimzi-topic-operator-kstreams},1652012417,3
{consumergroup=__strimzi-topic-operator-kstreams},1652012422,3
{consumergroup=__strimzi-topic-operator-kstreams},1652012427,0
{consumergroup=__strimzi-topic-operator-kstreams},1652012432,0
{consumergroup=__strimzi-topic-operator-kstreams},1652012437,0
{consumergroup=__strimzi-topic-operator-kstreams},1652012442,0
{consumergroup=__strimzi-topic-operator-kstreams},1652012447,0
{consumergroup=__strimzi-topic-operator-kstreams},1652012452,0
{consumergroup=__strimzi-topic-operator-kstreams},1652012457,0
{consumergroup=__strimzi-topic-operator-kstreams},1652012462,0
{consumergroup=__strimzi-topic-operator-kstreams},1652012467,0
{consumergroup=__strimzi-topic-operator-kstreams},1652012472,0
{consumergroup=__strimzi-topic-operator-kstreams},1652012477,0
{consumergroup=__strimzi-topic-operator-kstreams},1652012482,0
{consumergroup=__strimzi-topic-operator-kstreams},1652012487,0
{consumergroup=__strimzi-topic-operator-kstreams},1652012492,0
{consumergroup=__strimzi-topic-operator-kstreams},1652012497,0
{consumergroup=__strimzi-topic-operator-kstreams},1652012502,0
{consumergroup=__strimzi-topic-operator-kstreams},1652012507,0
{consumergroup=__strimzi-topic-operator-kstreams},1652012512,0
{consumergroup=__strimzi-topic-operator-kstreams},1652012517,0
{consumergroup=__strimzi-topic-operator-kstreams},1652012522,0
{consumergroup=__strimzi-topic-operator-kstreams},1652012527,0
{consumergroup=__strimzi-topic-operator-kstreams},1652012532,0
{consumergroup=__strimzi-topic-operator-kstreams},1652012537,0
{consumergroup=__strimzi-topic-operator-kstreams},1652012542,0
{consumergroup=__strimzi-topic-operator-kstreams},1652012547,0
{consumergroup=__strimzi-topic-operator-kstreams},1652012552,0
{consumergroup=__strimzi-topic-operator-kstreams},1652012557,0
{consumergroup=__strimzi-topic-operator-kstreams},1652012562,0
{consumergroup=__strimzi-topic-operator-kstreams},1652012567,0
{consumergroup=__strimzi-topic-operator-kstreams},1652012572,0
{consumergroup=__strimzi-topic-operator-kstreams},1652012577,0
{consumergroup=__strimzi-topic-operator-kstreams},1652012582,0
{consumergroup=__strimzi-topic-operator-kstreams},1652012587,0
{consumergroup=__strimzi-topic-operator-kstreams},1652012592,0
{consumergroup=__strimzi-topic-operator-kstreams},1652012597,0
{consumergroup=__strimzi-topic-operator-kstreams},1652012602,0
{consumergroup=__strimzi-topic-operator-kstreams},1652012607,0
{consumergroup=__strimzi-topic-operator-kstreams},1652012612,0
{consumergroup=__strimzi-topic-operator-kstreams},1652012617,0
{consumergroup=__strimzi-topic-operator-kstreams},1652012622,0
{consumergroup=__strimzi-topic-operator-kstreams},1652012627,0
{consumergroup=__strimzi-topic-operator-kstreams},1652012632,0
{consumergroup=__strimzi-topic-operator-kstreams},1652012637,0
{consumergroup=__strimzi-topic-operator-kstreams},1652012642,0
{consumergroup=__strimzi-topic-operator-kstreams},1652012647,0
{consumergroup=__strimzi-topic-operator-kstreams},1652012652,0
{consumergroup=__strimzi-topic-operator-kstreams},1652012657,0
{consumergroup=__strimzi-topic-operator-kstreams},1652012662,0
{consumergroup=__strimzi-topic-operator-kstreams},1652012667,0
{consumergroup=__strimzi-topic-operator-kstreams},1652012672,0
{consumergroup=__strimzi-topic-operator-kstreams},1652012677,0
{consumergroup=__strimzi-topic-operator-kstreams},1652012682,0
{consumergroup=__strimzi-topic-operator-kstreams},1652012687,0
{consumergroup=__strimzi-topic-operator-kstreams},1652012692,0
{consumergroup=__strimzi-topic-operator-kstreams},1652012697,0
{consumergroup=__strimzi-topic-operator-kstreams},1652012702,0
{consumergroup=__strimzi-topic-operator-kstreams},1652012707,0
{consumergroup=__strimzi-topic-operator-kstreams},1652012712,0
{consumergroup=__strimzi-topic-operator-kstreams},1652012717,0
{consumergroup=__strimzi-topic-operator-kstreams},1652012722,0
{consumergroup=__strimzi-topic-operator-kstreams},1652012727,0
{consumergroup=__strimzi-topic-operator-kstreams},1652012732,0
{consumergroup=__strimzi-topic-operator-kstreams},1652012737,0
{consumergroup=__strimzi-topic-operator-kstreams},1652012742,0
{consumergroup=__strimzi-topic-operator-kstreams},1652012747,0
{consumergroup=__strimzi-topic-operator-kstreams},1652012752,0
{consumergroup=__strimzi-topic-operator-kstreams},1652012757,0
{consumergroup=__strimzi-topic-operator-kstreams},1652012762,0
{consumergroup=__strimzi-topic-operator-kstreams},1652012767,0
{consumergroup=__strimzi-topic-operator-kstreams},1652012772,0
{consumergroup=__strimzi-topic-operator-kstreams},1652012777,0
{consumergroup=__strimzi-topic-operator-kstreams},1652012782,0
{consumergroup=__strimzi-topic-operator-kstreams},1652012787,0
{consumergroup=__strimzi-topic-operator-kstreams},1652012792,0
{consumergroup=__strimzi-topic-operator-kstreams},1652012797,0
{consumergroup=__strimzi-topic-operator-kstreams},1652012802,0
{consumergroup=__strimzi-topic-operator-kstreams},1652012807,0
{consumergroup=__strimzi-topic-operator-kstreams},1652012812,0
{consumergroup=__strimzi-topic-operator-kstreams},1652012817,0
{consumergroup=__strimzi-topic-operator-kstreams},1652012822,0
{consumergroup=__strimzi-topic-operator-kstreams},1652012827,0
{consumergroup=adapter-service},1652012412,0
{consumergroup=adapter-service},1652012417,0
{consumergroup=adapter-service},1652012422,0
{consumergroup=adapter-service},1652012427,5672
{consumergroup=adapter-service},1652012432,5672
{consumergroup=adapter-service},1652012437,5672
{consumergroup=adapter-service},1652012442,6090
{consumergroup=adapter-service},1652012447,6090
{consumergroup=adapter-service},1652012452,6090
{consumergroup=adapter-service},1652012457,4462
{consumergroup=adapter-service},1652012462,4462
{consumergroup=adapter-service},1652012467,4462
{consumergroup=adapter-service},1652012472,5327
{consumergroup=adapter-service},1652012477,5327
{consumergroup=adapter-service},1652012482,5327
{consumergroup=adapter-service},1652012487,3848
{consumergroup=adapter-service},1652012492,3848
{consumergroup=adapter-service},1652012497,3848
{consumergroup=adapter-service},1652012502,5227
{consumergroup=adapter-service},1652012507,5227
{consumergroup=adapter-service},1652012512,5227
{consumergroup=adapter-service},1652012517,3512
{consumergroup=adapter-service},1652012522,3512
{consumergroup=adapter-service},1652012527,3512
{consumergroup=adapter-service},1652012532,5211
{consumergroup=adapter-service},1652012537,5211
{consumergroup=adapter-service},1652012542,5211
{consumergroup=adapter-service},1652012547,2682
{consumergroup=adapter-service},1652012552,2682
{consumergroup=adapter-service},1652012557,2682
{consumergroup=adapter-service},1652012562,4748
{consumergroup=adapter-service},1652012567,4748
{consumergroup=adapter-service},1652012572,4748
{consumergroup=adapter-service},1652012577,2055
{consumergroup=adapter-service},1652012582,2055
{consumergroup=adapter-service},1652012587,2055
{consumergroup=adapter-service},1652012592,4340
{consumergroup=adapter-service},1652012597,4340
{consumergroup=adapter-service},1652012602,4340
{consumergroup=adapter-service},1652012607,2468
{consumergroup=adapter-service},1652012612,2468
{consumergroup=adapter-service},1652012617,2468
{consumergroup=adapter-service},1652012622,2786
{consumergroup=adapter-service},1652012627,2786
{consumergroup=adapter-service},1652012632,2786
{consumergroup=adapter-service},1652012637,1275
{consumergroup=adapter-service},1652012642,1275
{consumergroup=adapter-service},1652012647,1275
{consumergroup=adapter-service},1652012652,2173
{consumergroup=adapter-service},1652012657,2173
{consumergroup=adapter-service},1652012662,2173
{consumergroup=adapter-service},1652012667,530
{consumergroup=adapter-service},1652012672,530
{consumergroup=adapter-service},1652012677,530
{consumergroup=adapter-service},1652012682,1533
{consumergroup=adapter-service},1652012687,1533
{consumergroup=adapter-service},1652012692,1533
{consumergroup=adapter-service},1652012697,147
{consumergroup=adapter-service},1652012702,147
{consumergroup=adapter-service},1652012707,147
{consumergroup=adapter-service},1652012712,962
{consumergroup=adapter-service},1652012717,962
{consumergroup=adapter-service},1652012722,962
{consumergroup=adapter-service},1652012727,3081
{consumergroup=adapter-service},1652012732,3081
{consumergroup=adapter-service},1652012737,3081
{consumergroup=adapter-service},1652012742,560
{consumergroup=adapter-service},1652012747,560
{consumergroup=adapter-service},1652012752,560
{consumergroup=adapter-service},1652012757,2967
{consumergroup=adapter-service},1652012762,2967
{consumergroup=adapter-service},1652012767,2967
{consumergroup=adapter-service},1652012772,837
{consumergroup=adapter-service},1652012777,837
{consumergroup=adapter-service},1652012782,837
{consumergroup=adapter-service},1652012787,8650
{consumergroup=adapter-service},1652012792,8650
{consumergroup=adapter-service},1652012797,8650
{consumergroup=adapter-service},1652012802,3445
{consumergroup=adapter-service},1652012807,3445
{consumergroup=adapter-service},1652012812,3445
{consumergroup=adapter-service},1652012817,17202
{consumergroup=adapter-service},1652012822,17202
{consumergroup=adapter-service},1652012827,17202
{consumergroup=landscape-service},1652012427,317
{consumergroup=landscape-service},1652012432,317
{consumergroup=landscape-service},1652012437,317
{consumergroup=landscape-service},1652012442,6836
{consumergroup=landscape-service},1652012447,6836
{consumergroup=landscape-service},1652012452,6836
{consumergroup=landscape-service},1652012457,5376
{consumergroup=landscape-service},1652012462,5376
{consumergroup=landscape-service},1652012467,5376
{consumergroup=landscape-service},1652012472,6424
{consumergroup=landscape-service},1652012477,6424
{consumergroup=landscape-service},1652012482,6424
{consumergroup=landscape-service},1652012487,6095
{consumergroup=landscape-service},1652012492,6095
{consumergroup=landscape-service},1652012497,6095
{consumergroup=landscape-service},1652012502,6483
{consumergroup=landscape-service},1652012507,6483
{consumergroup=landscape-service},1652012512,6483
{consumergroup=landscape-service},1652012517,4981
{consumergroup=landscape-service},1652012522,4981
{consumergroup=landscape-service},1652012527,4981
{consumergroup=landscape-service},1652012532,7076
{consumergroup=landscape-service},1652012537,7076
{consumergroup=landscape-service},1652012542,7076
{consumergroup=landscape-service},1652012547,5020
{consumergroup=landscape-service},1652012552,5020
{consumergroup=landscape-service},1652012557,5020
{consumergroup=landscape-service},1652012562,6039
{consumergroup=landscape-service},1652012567,6039
{consumergroup=landscape-service},1652012572,6039
{consumergroup=landscape-service},1652012577,5424
{consumergroup=landscape-service},1652012582,5424
{consumergroup=landscape-service},1652012587,5424
{consumergroup=landscape-service},1652012592,5868
{consumergroup=landscape-service},1652012597,5868
{consumergroup=landscape-service},1652012602,5868
{consumergroup=landscape-service},1652012607,4317
{consumergroup=landscape-service},1652012612,4317
{consumergroup=landscape-service},1652012617,4317
{consumergroup=landscape-service},1652012622,5582
{consumergroup=landscape-service},1652012627,5582
{consumergroup=landscape-service},1652012632,5582
{consumergroup=landscape-service},1652012637,4267
{consumergroup=landscape-service},1652012642,4267
{consumergroup=landscape-service},1652012647,4267
{consumergroup=landscape-service},1652012652,5541
{consumergroup=landscape-service},1652012657,5541
{consumergroup=landscape-service},1652012662,5541
{consumergroup=landscape-service},1652012667,4932
{consumergroup=landscape-service},1652012672,4932
{consumergroup=landscape-service},1652012677,4932
{consumergroup=landscape-service},1652012682,5190
{consumergroup=landscape-service},1652012687,5190
{consumergroup=landscape-service},1652012692,5190
{consumergroup=landscape-service},1652012697,3832
{consumergroup=landscape-service},1652012702,3832
{consumergroup=landscape-service},1652012707,3832
{consumergroup=landscape-service},1652012712,5563
{consumergroup=landscape-service},1652012717,5563
{consumergroup=landscape-service},1652012722,5563
{consumergroup=landscape-service},1652012727,4520
{consumergroup=landscape-service},1652012732,4520
{consumergroup=landscape-service},1652012737,4520
{consumergroup=landscape-service},1652012742,5063
{consumergroup=landscape-service},1652012747,5063
{consumergroup=landscape-service},1652012752,5063
{consumergroup=landscape-service},1652012757,3719
{consumergroup=landscape-service},1652012762,3719
{consumergroup=landscape-service},1652012767,3719
{consumergroup=landscape-service},1652012772,5767
{consumergroup=landscape-service},1652012777,5767
{consumergroup=landscape-service},1652012782,5767
{consumergroup=landscape-service},1652012787,3670
{consumergroup=landscape-service},1652012792,3670
{consumergroup=landscape-service},1652012797,3670
{consumergroup=landscape-service},1652012802,4615
{consumergroup=landscape-service},1652012807,4615
{consumergroup=landscape-service},1652012812,4615
{consumergroup=landscape-service},1652012817,3424
{consumergroup=landscape-service},1652012822,3424
{consumergroup=landscape-service},1652012827,3424
{consumergroup=landscape-token-events-consumer},1652012412,0
{consumergroup=landscape-token-events-consumer},1652012417,0
{consumergroup=landscape-token-events-consumer},1652012422,0
{consumergroup=landscape-token-events-consumer},1652012427,0
{consumergroup=landscape-token-events-consumer},1652012432,0
{consumergroup=landscape-token-events-consumer},1652012437,0
{consumergroup=landscape-token-events-consumer},1652012442,0
{consumergroup=landscape-token-events-consumer},1652012447,0
{consumergroup=landscape-token-events-consumer},1652012452,0
{consumergroup=landscape-token-events-consumer},1652012457,0
{consumergroup=landscape-token-events-consumer},1652012462,0
{consumergroup=landscape-token-events-consumer},1652012467,0
{consumergroup=landscape-token-events-consumer},1652012472,0
{consumergroup=landscape-token-events-consumer},1652012477,0
{consumergroup=landscape-token-events-consumer},1652012482,0
{consumergroup=landscape-token-events-consumer},1652012487,0
{consumergroup=landscape-token-events-consumer},1652012492,0
{consumergroup=landscape-token-events-consumer},1652012497,0
{consumergroup=landscape-token-events-consumer},1652012502,0
{consumergroup=landscape-token-events-consumer},1652012507,0
{consumergroup=landscape-token-events-consumer},1652012512,0
{consumergroup=landscape-token-events-consumer},1652012517,0
{consumergroup=landscape-token-events-consumer},1652012522,0
{consumergroup=landscape-token-events-consumer},1652012527,0
{consumergroup=landscape-token-events-consumer},1652012532,0
{consumergroup=landscape-token-events-consumer},1652012537,0
{consumergroup=landscape-token-events-consumer},1652012542,0
{consumergroup=landscape-token-events-consumer},1652012547,0
{consumergroup=landscape-token-events-consumer},1652012552,0
{consumergroup=landscape-token-events-consumer},1652012557,0
{consumergroup=landscape-token-events-consumer},1652012562,0
{consumergroup=landscape-token-events-consumer},1652012567,0
{consumergroup=landscape-token-events-consumer},1652012572,0
{consumergroup=landscape-token-events-consumer},1652012577,0
{consumergroup=landscape-token-events-consumer},1652012582,0
{consumergroup=landscape-token-events-consumer},1652012587,0
{consumergroup=landscape-token-events-consumer},1652012592,0
{consumergroup=landscape-token-events-consumer},1652012597,0
{consumergroup=landscape-token-events-consumer},1652012602,0
{consumergroup=landscape-token-events-consumer},1652012607,0
{consumergroup=landscape-token-events-consumer},1652012612,0
{consumergroup=landscape-token-events-consumer},1652012617,0
{consumergroup=landscape-token-events-consumer},1652012622,0
{consumergroup=landscape-token-events-consumer},1652012627,0
{consumergroup=landscape-token-events-consumer},1652012632,0
{consumergroup=landscape-token-events-consumer},1652012637,0
{consumergroup=landscape-token-events-consumer},1652012642,0
{consumergroup=landscape-token-events-consumer},1652012647,0
{consumergroup=landscape-token-events-consumer},1652012652,0
{consumergroup=landscape-token-events-consumer},1652012657,0
{consumergroup=landscape-token-events-consumer},1652012662,0
{consumergroup=landscape-token-events-consumer},1652012667,0
{consumergroup=landscape-token-events-consumer},1652012672,0
{consumergroup=landscape-token-events-consumer},1652012677,0
{consumergroup=landscape-token-events-consumer},1652012682,0
{consumergroup=landscape-token-events-consumer},1652012687,0
{consumergroup=landscape-token-events-consumer},1652012692,0
{consumergroup=landscape-token-events-consumer},1652012697,0
{consumergroup=landscape-token-events-consumer},1652012702,0
{consumergroup=landscape-token-events-consumer},1652012707,0
{consumergroup=landscape-token-events-consumer},1652012712,0
{consumergroup=landscape-token-events-consumer},1652012717,0
{consumergroup=landscape-token-events-consumer},1652012722,0
{consumergroup=landscape-token-events-consumer},1652012727,0
{consumergroup=landscape-token-events-consumer},1652012732,0
{consumergroup=landscape-token-events-consumer},1652012737,0
{consumergroup=landscape-token-events-consumer},1652012742,0
{consumergroup=landscape-token-events-consumer},1652012747,0
{consumergroup=landscape-token-events-consumer},1652012752,0
{consumergroup=landscape-token-events-consumer},1652012757,0
{consumergroup=landscape-token-events-consumer},1652012762,0
{consumergroup=landscape-token-events-consumer},1652012767,0
{consumergroup=landscape-token-events-consumer},1652012772,0
{consumergroup=landscape-token-events-consumer},1652012777,0
{consumergroup=landscape-token-events-consumer},1652012782,0
{consumergroup=landscape-token-events-consumer},1652012787,0
{consumergroup=landscape-token-events-consumer},1652012792,0
{consumergroup=landscape-token-events-consumer},1652012797,0
{consumergroup=landscape-token-events-consumer},1652012802,0
{consumergroup=landscape-token-events-consumer},1652012807,0
{consumergroup=landscape-token-events-consumer},1652012812,0
{consumergroup=landscape-token-events-consumer},1652012817,0
{consumergroup=landscape-token-events-consumer},1652012822,0
{consumergroup=landscape-token-events-consumer},1652012827,0
{consumergroup=trace-service},1652012427,1662
{consumergroup=trace-service},1652012432,1662
{consumergroup=trace-service},1652012437,1662
{consumergroup=trace-service},1652012442,47654
{consumergroup=trace-service},1652012447,47654
{consumergroup=trace-service},1652012452,47654
{consumergroup=trace-service},1652012457,16377
{consumergroup=trace-service},1652012462,16377
{consumergroup=trace-service},1652012467,16377
{consumergroup=trace-service},1652012472,45471
{consumergroup=trace-service},1652012477,45471
{consumergroup=trace-service},1652012482,45471
{consumergroup=trace-service},1652012487,78532
{consumergroup=trace-service},1652012492,78532
{consumergroup=trace-service},1652012497,78532
{consumergroup=trace-service},1652012502,44934
{consumergroup=trace-service},1652012507,44934
{consumergroup=trace-service},1652012512,44934
{consumergroup=trace-service},1652012517,77164
{consumergroup=trace-service},1652012522,77164
{consumergroup=trace-service},1652012527,77164
{consumergroup=trace-service},1652012532,47186
{consumergroup=trace-service},1652012537,47186
{consumergroup=trace-service},1652012542,47186
{consumergroup=trace-service},1652012547,115024
{consumergroup=trace-service},1652012552,115024
{consumergroup=trace-service},1652012557,115024
{consumergroup=trace-service},1652012562,54000
{consumergroup=trace-service},1652012567,54000
{consumergroup=trace-service},1652012572,54000
{consumergroup=trace-service},1652012577,166890
{consumergroup=trace-service},1652012582,166890
{consumergroup=trace-service},1652012587,166890
{consumergroup=trace-service},1652012592,46621
{consumergroup=trace-service},1652012597,46621
{consumergroup=trace-service},1652012602,46621
{consumergroup=trace-service},1652012607,18348
{consumergroup=trace-service},1652012612,18348
{consumergroup=trace-service},1652012617,18348
{consumergroup=trace-service},1652012622,43299
{consumergroup=trace-service},1652012627,43299
{consumergroup=trace-service},1652012632,43299
{consumergroup=trace-service},1652012637,116397
{consumergroup=trace-service},1652012642,116397
{consumergroup=trace-service},1652012647,116397
{consumergroup=trace-service},1652012652,56956
{consumergroup=trace-service},1652012657,56956
{consumergroup=trace-service},1652012662,56956
{consumergroup=trace-service},1652012667,21675
{consumergroup=trace-service},1652012672,21675
{consumergroup=trace-service},1652012677,21675
{consumergroup=trace-service},1652012682,44938
{consumergroup=trace-service},1652012687,44938
{consumergroup=trace-service},1652012692,44938
{consumergroup=trace-service},1652012697,22939
{consumergroup=trace-service},1652012702,22939
{consumergroup=trace-service},1652012707,22939
{consumergroup=trace-service},1652012712,41754
{consumergroup=trace-service},1652012717,41754
{consumergroup=trace-service},1652012722,41754
{consumergroup=trace-service},1652012727,70331
{consumergroup=trace-service},1652012732,70331
{consumergroup=trace-service},1652012737,70331
{consumergroup=trace-service},1652012742,43108
{consumergroup=trace-service},1652012747,43108
{consumergroup=trace-service},1652012752,43108
{consumergroup=trace-service},1652012757,91869
{consumergroup=trace-service},1652012762,91869
{consumergroup=trace-service},1652012767,91869
{consumergroup=trace-service},1652012772,43691
{consumergroup=trace-service},1652012777,43691
{consumergroup=trace-service},1652012782,43691
{consumergroup=trace-service},1652012787,111118
{consumergroup=trace-service},1652012792,111118
{consumergroup=trace-service},1652012797,111118
{consumergroup=trace-service},1652012802,47863
{consumergroup=trace-service},1652012807,47863
{consumergroup=trace-service},1652012812,47863
{consumergroup=trace-service},1652012817,51475
{consumergroup=trace-service},1652012822,51475
{consumergroup=trace-service},1652012827,51475
{consumergroup=trace-token-events-consumer},1652012412,0
{consumergroup=trace-token-events-consumer},1652012417,0
{consumergroup=trace-token-events-consumer},1652012422,0
{consumergroup=trace-token-events-consumer},1652012427,0
{consumergroup=trace-token-events-consumer},1652012432,0
{consumergroup=trace-token-events-consumer},1652012437,0
{consumergroup=trace-token-events-consumer},1652012442,0
{consumergroup=trace-token-events-consumer},1652012447,0
{consumergroup=trace-token-events-consumer},1652012452,0
{consumergroup=trace-token-events-consumer},1652012457,0
{consumergroup=trace-token-events-consumer},1652012462,0
{consumergroup=trace-token-events-consumer},1652012467,0
{consumergroup=trace-token-events-consumer},1652012472,0
{consumergroup=trace-token-events-consumer},1652012477,0
{consumergroup=trace-token-events-consumer},1652012482,0
{consumergroup=trace-token-events-consumer},1652012487,0
{consumergroup=trace-token-events-consumer},1652012492,0
{consumergroup=trace-token-events-consumer},1652012497,0
{consumergroup=trace-token-events-consumer},1652012502,0
{consumergroup=trace-token-events-consumer},1652012507,0
{consumergroup=trace-token-events-consumer},1652012512,0
{consumergroup=trace-token-events-consumer},1652012517,0
{consumergroup=trace-token-events-consumer},1652012522,0
{consumergroup=trace-token-events-consumer},1652012527,0
{consumergroup=trace-token-events-consumer},1652012532,0
{consumergroup=trace-token-events-consumer},1652012537,0
{consumergroup=trace-token-events-consumer},1652012542,0
{consumergroup=trace-token-events-consumer},1652012547,0
{consumergroup=trace-token-events-consumer},1652012552,0
{consumergroup=trace-token-events-consumer},1652012557,0
{consumergroup=trace-token-events-consumer},1652012562,0
{consumergroup=trace-token-events-consumer},1652012567,0
{consumergroup=trace-token-events-consumer},1652012572,0
{consumergroup=trace-token-events-consumer},1652012577,0
{consumergroup=trace-token-events-consumer},1652012582,0
{consumergroup=trace-token-events-consumer},1652012587,0
{consumergroup=trace-token-events-consumer},1652012592,0
{consumergroup=trace-token-events-consumer},1652012597,0
{consumergroup=trace-token-events-consumer},1652012602,0
{consumergroup=trace-token-events-consumer},1652012607,0
{consumergroup=trace-token-events-consumer},1652012612,0
{consumergroup=trace-token-events-consumer},1652012617,0
{consumergroup=trace-token-events-consumer},1652012622,0
{consumergroup=trace-token-events-consumer},1652012627,0
{consumergroup=trace-token-events-consumer},1652012632,0
{consumergroup=trace-token-events-consumer},1652012637,0
{consumergroup=trace-token-events-consumer},1652012642,0
{consumergroup=trace-token-events-consumer},1652012647,0
{consumergroup=trace-token-events-consumer},1652012652,0
{consumergroup=trace-token-events-consumer},1652012657,0
{consumergroup=trace-token-events-consumer},1652012662,0
{consumergroup=trace-token-events-consumer},1652012667,0
{consumergroup=trace-token-events-consumer},1652012672,0
{consumergroup=trace-token-events-consumer},1652012677,0
{consumergroup=trace-token-events-consumer},1652012682,0
{consumergroup=trace-token-events-consumer},1652012687,0
{consumergroup=trace-token-events-consumer},1652012692,0
{consumergroup=trace-token-events-consumer},1652012697,0
{consumergroup=trace-token-events-consumer},1652012702,0
{consumergroup=trace-token-events-consumer},1652012707,0
{consumergroup=trace-token-events-consumer},1652012712,0
{consumergroup=trace-token-events-consumer},1652012717,0
{consumergroup=trace-token-events-consumer},1652012722,0
{consumergroup=trace-token-events-consumer},1652012727,0
{consumergroup=trace-token-events-consumer},1652012732,0
{consumergroup=trace-token-events-consumer},1652012737,0
{consumergroup=trace-token-events-consumer},1652012742,0
{consumergroup=trace-token-events-consumer},1652012747,0
{consumergroup=trace-token-events-consumer},1652012752,0
{consumergroup=trace-token-events-consumer},1652012757,0
{consumergroup=trace-token-events-consumer},1652012762,0
{consumergroup=trace-token-events-consumer},1652012767,0
{consumergroup=trace-token-events-consumer},1652012772,0
{consumergroup=trace-token-events-consumer},1652012777,0
{consumergroup=trace-token-events-consumer},1652012782,0
{consumergroup=trace-token-events-consumer},1652012787,0
{consumergroup=trace-token-events-consumer},1652012792,0
{consumergroup=trace-token-events-consumer},1652012797,0
{consumergroup=trace-token-events-consumer},1652012802,0
{consumergroup=trace-token-events-consumer},1652012807,0
{consumergroup=trace-token-events-consumer},1652012812,0
{consumergroup=trace-token-events-consumer},1652012817,0
{consumergroup=trace-token-events-consumer},1652012822,0
{consumergroup=trace-token-events-consumer},1652012827,0
