labels,timestamp,value
{job=theodolite-stu200776/combined-trace-podmonitor},1652006386,0
{job=theodolite-stu200776/combined-trace-podmonitor},1652006391,0
{job=theodolite-stu200776/combined-trace-podmonitor},1652006396,0
{job=theodolite-stu200776/combined-trace-podmonitor},1652006401,0
{job=theodolite-stu200776/combined-trace-podmonitor},1652006406,0
{job=theodolite-stu200776/combined-trace-podmonitor},1652006411,0
{job=theodolite-stu200776/combined-trace-podmonitor},1652006416,0
{job=theodolite-stu200776/combined-trace-podmonitor},1652006421,0
{job=theodolite-stu200776/combined-trace-podmonitor},1652006426,0
{job=theodolite-stu200776/combined-trace-podmonitor},1652006431,0
{job=theodolite-stu200776/combined-trace-podmonitor},1652006436,0
{job=theodolite-stu200776/combined-trace-podmonitor},1652006441,0
{job=theodolite-stu200776/combined-trace-podmonitor},1652006446,0
{job=theodolite-stu200776/combined-trace-podmonitor},1652006451,0
{job=theodolite-stu200776/combined-trace-podmonitor},1652006456,0
{job=theodolite-stu200776/combined-trace-podmonitor},1652006461,0
{job=theodolite-stu200776/combined-trace-podmonitor},1652006466,0
{job=theodolite-stu200776/combined-trace-podmonitor},1652006471,0
{job=theodolite-stu200776/combined-trace-podmonitor},1652006476,0
{job=theodolite-stu200776/combined-trace-podmonitor},1652006481,0
{job=theodolite-stu200776/combined-trace-podmonitor},1652006486,0
{job=theodolite-stu200776/combined-trace-podmonitor},1652006491,0
{job=theodolite-stu200776/combined-trace-podmonitor},1652006496,0
{job=theodolite-stu200776/combined-trace-podmonitor},1652006501,0
{job=theodolite-stu200776/combined-trace-podmonitor},1652006506,0
{job=theodolite-stu200776/combined-trace-podmonitor},1652006511,0
{job=theodolite-stu200776/combined-trace-podmonitor},1652006516,0
{job=theodolite-stu200776/combined-trace-podmonitor},1652006521,0
{job=theodolite-stu200776/combined-trace-podmonitor},1652006526,0
{job=theodolite-stu200776/combined-trace-podmonitor},1652006531,0
{job=theodolite-stu200776/combined-trace-podmonitor},1652006536,0
{job=theodolite-stu200776/combined-trace-podmonitor},1652006541,0
{job=theodolite-stu200776/combined-trace-podmonitor},1652006546,0
{job=theodolite-stu200776/combined-trace-podmonitor},1652006551,0
{job=theodolite-stu200776/combined-trace-podmonitor},1652006556,0
{job=theodolite-stu200776/combined-trace-podmonitor},1652006561,0
{job=theodolite-stu200776/combined-trace-podmonitor},1652006566,0
{job=theodolite-stu200776/combined-trace-podmonitor},1652006571,0
{job=theodolite-stu200776/combined-trace-podmonitor},1652006576,0
{job=theodolite-stu200776/combined-trace-podmonitor},1652006581,0
{job=theodolite-stu200776/combined-trace-podmonitor},1652006586,0
{job=theodolite-stu200776/combined-trace-podmonitor},1652006591,0
{job=theodolite-stu200776/combined-trace-podmonitor},1652006596,0
{job=theodolite-stu200776/combined-trace-podmonitor},1652006601,0
{job=theodolite-stu200776/combined-trace-podmonitor},1652006606,0
{job=theodolite-stu200776/combined-trace-podmonitor},1652006611,0
{job=theodolite-stu200776/combined-trace-podmonitor},1652006616,0
{job=theodolite-stu200776/combined-trace-podmonitor},1652006621,0
{job=theodolite-stu200776/combined-trace-podmonitor},1652006626,0
{job=theodolite-stu200776/combined-trace-podmonitor},1652006631,0
{job=theodolite-stu200776/combined-trace-podmonitor},1652006636,0
{job=theodolite-stu200776/combined-trace-podmonitor},1652006641,0
{job=theodolite-stu200776/combined-trace-podmonitor},1652006646,0
{job=theodolite-stu200776/combined-trace-podmonitor},1652006651,0
{job=theodolite-stu200776/combined-trace-podmonitor},1652006656,0
{job=theodolite-stu200776/combined-trace-podmonitor},1652006661,0
{job=theodolite-stu200776/combined-trace-podmonitor},1652006666,0
{job=theodolite-stu200776/combined-trace-podmonitor},1652006671,0
{job=theodolite-stu200776/combined-trace-podmonitor},1652006676,0
{job=theodolite-stu200776/combined-trace-podmonitor},1652006681,0
{job=theodolite-stu200776/combined-trace-podmonitor},1652006686,0
{job=theodolite-stu200776/combined-trace-podmonitor},1652006691,0
{job=theodolite-stu200776/combined-trace-podmonitor},1652006696,0
{job=theodolite-stu200776/combined-trace-podmonitor},1652006701,0
{job=theodolite-stu200776/combined-trace-podmonitor},1652006706,0
{job=theodolite-stu200776/combined-trace-podmonitor},1652006711,0
{job=theodolite-stu200776/combined-trace-podmonitor},1652006716,0
{job=theodolite-stu200776/combined-trace-podmonitor},1652006721,0
{job=theodolite-stu200776/combined-trace-podmonitor},1652006726,0
{job=theodolite-stu200776/combined-trace-podmonitor},1652006731,0
{job=theodolite-stu200776/combined-trace-podmonitor},1652006736,0
{job=theodolite-stu200776/combined-trace-podmonitor},1652006741,0
{job=theodolite-stu200776/combined-trace-podmonitor},1652006746,0
{job=theodolite-stu200776/combined-trace-podmonitor},1652006751,0
{job=theodolite-stu200776/combined-trace-podmonitor},1652006756,0
{job=theodolite-stu200776/combined-trace-podmonitor},1652006761,0
