labels,timestamp,value
{job=theodolite-stu200776/combined-trace-podmonitor},1651959065,0
{job=theodolite-stu200776/combined-trace-podmonitor},1651959070,0
{job=theodolite-stu200776/combined-trace-podmonitor},1651959075,0
{job=theodolite-stu200776/combined-trace-podmonitor},1651959080,0
{job=theodolite-stu200776/combined-trace-podmonitor},1651959085,0
{job=theodolite-stu200776/combined-trace-podmonitor},1651959090,0
{job=theodolite-stu200776/combined-trace-podmonitor},1651959095,0
{job=theodolite-stu200776/combined-trace-podmonitor},1651959100,0
{job=theodolite-stu200776/combined-trace-podmonitor},1651959105,0
{job=theodolite-stu200776/combined-trace-podmonitor},1651959110,0
{job=theodolite-stu200776/combined-trace-podmonitor},1651959115,0
{job=theodolite-stu200776/combined-trace-podmonitor},1651959120,0
{job=theodolite-stu200776/combined-trace-podmonitor},1651959125,0
{job=theodolite-stu200776/combined-trace-podmonitor},1651959130,0
{job=theodolite-stu200776/combined-trace-podmonitor},1651959135,0
{job=theodolite-stu200776/combined-trace-podmonitor},1651959140,0
{job=theodolite-stu200776/combined-trace-podmonitor},1651959145,0
{job=theodolite-stu200776/combined-trace-podmonitor},1651959150,0
{job=theodolite-stu200776/combined-trace-podmonitor},1651959155,0
{job=theodolite-stu200776/combined-trace-podmonitor},1651959160,0
{job=theodolite-stu200776/combined-trace-podmonitor},1651959165,0
{job=theodolite-stu200776/combined-trace-podmonitor},1651959170,0
{job=theodolite-stu200776/combined-trace-podmonitor},1651959175,0
{job=theodolite-stu200776/combined-trace-podmonitor},1651959180,0
{job=theodolite-stu200776/combined-trace-podmonitor},1651959185,0
{job=theodolite-stu200776/combined-trace-podmonitor},1651959190,0
{job=theodolite-stu200776/combined-trace-podmonitor},1651959195,0
{job=theodolite-stu200776/combined-trace-podmonitor},1651959200,0
{job=theodolite-stu200776/combined-trace-podmonitor},1651959205,0
{job=theodolite-stu200776/combined-trace-podmonitor},1651959210,0
{job=theodolite-stu200776/combined-trace-podmonitor},1651959215,0
{job=theodolite-stu200776/combined-trace-podmonitor},1651959220,0
{job=theodolite-stu200776/combined-trace-podmonitor},1651959225,0
{job=theodolite-stu200776/combined-trace-podmonitor},1651959230,0
{job=theodolite-stu200776/combined-trace-podmonitor},1651959235,0
{job=theodolite-stu200776/combined-trace-podmonitor},1651959240,0
{job=theodolite-stu200776/combined-trace-podmonitor},1651959245,0
{job=theodolite-stu200776/combined-trace-podmonitor},1651959250,0
{job=theodolite-stu200776/combined-trace-podmonitor},1651959255,0
{job=theodolite-stu200776/combined-trace-podmonitor},1651959260,0
{job=theodolite-stu200776/combined-trace-podmonitor},1651959265,0
{job=theodolite-stu200776/combined-trace-podmonitor},1651959270,0
{job=theodolite-stu200776/combined-trace-podmonitor},1651959275,0
{job=theodolite-stu200776/combined-trace-podmonitor},1651959280,0
{job=theodolite-stu200776/combined-trace-podmonitor},1651959285,0
{job=theodolite-stu200776/combined-trace-podmonitor},1651959290,0
{job=theodolite-stu200776/combined-trace-podmonitor},1651959295,0
{job=theodolite-stu200776/combined-trace-podmonitor},1651959300,0
{job=theodolite-stu200776/combined-trace-podmonitor},1651959305,0
{job=theodolite-stu200776/combined-trace-podmonitor},1651959310,0
{job=theodolite-stu200776/combined-trace-podmonitor},1651959315,0
