labels,timestamp,value
{consumergroup=__strimzi-topic-operator-kstreams},1651959966,0
{consumergroup=__strimzi-topic-operator-kstreams},1651959971,0
{consumergroup=__strimzi-topic-operator-kstreams},1651959976,0
{consumergroup=__strimzi-topic-operator-kstreams},1651959981,3
{consumergroup=__strimzi-topic-operator-kstreams},1651959986,3
{consumergroup=__strimzi-topic-operator-kstreams},1651959991,3
{consumergroup=__strimzi-topic-operator-kstreams},1651959996,0
{consumergroup=__strimzi-topic-operator-kstreams},1651960001,0
{consumergroup=__strimzi-topic-operator-kstreams},1651960006,0
{consumergroup=__strimzi-topic-operator-kstreams},1651960011,0
{consumergroup=__strimzi-topic-operator-kstreams},1651960016,0
{consumergroup=__strimzi-topic-operator-kstreams},1651960021,0
{consumergroup=__strimzi-topic-operator-kstreams},1651960026,0
{consumergroup=__strimzi-topic-operator-kstreams},1651960031,0
{consumergroup=__strimzi-topic-operator-kstreams},1651960036,0
{consumergroup=__strimzi-topic-operator-kstreams},1651960041,0
{consumergroup=__strimzi-topic-operator-kstreams},1651960046,0
{consumergroup=__strimzi-topic-operator-kstreams},1651960051,0
{consumergroup=__strimzi-topic-operator-kstreams},1651960056,0
{consumergroup=__strimzi-topic-operator-kstreams},1651960061,0
{consumergroup=__strimzi-topic-operator-kstreams},1651960066,0
{consumergroup=__strimzi-topic-operator-kstreams},1651960071,0
{consumergroup=__strimzi-topic-operator-kstreams},1651960076,0
{consumergroup=__strimzi-topic-operator-kstreams},1651960081,0
{consumergroup=__strimzi-topic-operator-kstreams},1651960086,0
{consumergroup=__strimzi-topic-operator-kstreams},1651960091,0
{consumergroup=__strimzi-topic-operator-kstreams},1651960096,0
{consumergroup=__strimzi-topic-operator-kstreams},1651960101,0
{consumergroup=__strimzi-topic-operator-kstreams},1651960106,0
{consumergroup=__strimzi-topic-operator-kstreams},1651960111,0
{consumergroup=__strimzi-topic-operator-kstreams},1651960116,0
{consumergroup=__strimzi-topic-operator-kstreams},1651960121,0
{consumergroup=__strimzi-topic-operator-kstreams},1651960126,0
{consumergroup=__strimzi-topic-operator-kstreams},1651960131,0
{consumergroup=__strimzi-topic-operator-kstreams},1651960136,0
{consumergroup=__strimzi-topic-operator-kstreams},1651960141,0
{consumergroup=__strimzi-topic-operator-kstreams},1651960146,0
{consumergroup=__strimzi-topic-operator-kstreams},1651960151,0
{consumergroup=__strimzi-topic-operator-kstreams},1651960156,0
{consumergroup=__strimzi-topic-operator-kstreams},1651960161,0
{consumergroup=__strimzi-topic-operator-kstreams},1651960166,0
{consumergroup=__strimzi-topic-operator-kstreams},1651960171,0
{consumergroup=__strimzi-topic-operator-kstreams},1651960176,0
{consumergroup=__strimzi-topic-operator-kstreams},1651960181,0
{consumergroup=__strimzi-topic-operator-kstreams},1651960186,0
{consumergroup=__strimzi-topic-operator-kstreams},1651960191,0
{consumergroup=__strimzi-topic-operator-kstreams},1651960196,0
{consumergroup=__strimzi-topic-operator-kstreams},1651960201,0
{consumergroup=__strimzi-topic-operator-kstreams},1651960206,0
{consumergroup=__strimzi-topic-operator-kstreams},1651960211,0
{consumergroup=__strimzi-topic-operator-kstreams},1651960216,0
{consumergroup=__strimzi-topic-operator-kstreams},1651960221,0
{consumergroup=__strimzi-topic-operator-kstreams},1651960226,0
{consumergroup=__strimzi-topic-operator-kstreams},1651960231,0
{consumergroup=__strimzi-topic-operator-kstreams},1651960236,0
{consumergroup=__strimzi-topic-operator-kstreams},1651960241,0
{consumergroup=__strimzi-topic-operator-kstreams},1651960246,0
{consumergroup=__strimzi-topic-operator-kstreams},1651960251,0
{consumergroup=__strimzi-topic-operator-kstreams},1651960256,0
{consumergroup=__strimzi-topic-operator-kstreams},1651960261,0
{consumergroup=__strimzi-topic-operator-kstreams},1651960266,0
{consumergroup=__strimzi-topic-operator-kstreams},1651960271,0
{consumergroup=__strimzi-topic-operator-kstreams},1651960276,0
{consumergroup=__strimzi-topic-operator-kstreams},1651960281,0
{consumergroup=__strimzi-topic-operator-kstreams},1651960286,0
{consumergroup=__strimzi-topic-operator-kstreams},1651960291,0
{consumergroup=__strimzi-topic-operator-kstreams},1651960296,0
{consumergroup=__strimzi-topic-operator-kstreams},1651960301,0
{consumergroup=__strimzi-topic-operator-kstreams},1651960306,0
{consumergroup=__strimzi-topic-operator-kstreams},1651960311,0
{consumergroup=__strimzi-topic-operator-kstreams},1651960316,0
{consumergroup=__strimzi-topic-operator-kstreams},1651960321,0
{consumergroup=__strimzi-topic-operator-kstreams},1651960326,0
{consumergroup=__strimzi-topic-operator-kstreams},1651960331,0
{consumergroup=__strimzi-topic-operator-kstreams},1651960336,0
{consumergroup=__strimzi-topic-operator-kstreams},1651960341,0
{consumergroup=__strimzi-topic-operator-kstreams},1651960346,0
{consumergroup=__strimzi-topic-operator-kstreams},1651960351,0
{consumergroup=__strimzi-topic-operator-kstreams},1651960356,0
{consumergroup=__strimzi-topic-operator-kstreams},1651960361,0
{consumergroup=__strimzi-topic-operator-kstreams},1651960366,0
{consumergroup=__strimzi-topic-operator-kstreams},1651960371,0
{consumergroup=__strimzi-topic-operator-kstreams},1651960376,0
{consumergroup=__strimzi-topic-operator-kstreams},1651960381,0
{consumergroup=__strimzi-topic-operator-kstreams},1651960386,0
{consumergroup=__strimzi-topic-operator-kstreams},1651960391,0
{consumergroup=__strimzi-topic-operator-kstreams},1651960396,0
{consumergroup=__strimzi-topic-operator-kstreams},1651960401,0
{consumergroup=__strimzi-topic-operator-kstreams},1651960406,0
{consumergroup=__strimzi-topic-operator-kstreams},1651960411,0
{consumergroup=adapter-service},1651959996,0
{consumergroup=adapter-service},1651960001,0
{consumergroup=adapter-service},1651960006,0
{consumergroup=adapter-service},1651960011,7296
{consumergroup=adapter-service},1651960016,7296
{consumergroup=adapter-service},1651960021,7296
{consumergroup=adapter-service},1651960026,11868
{consumergroup=adapter-service},1651960031,11868
{consumergroup=adapter-service},1651960036,11868
{consumergroup=adapter-service},1651960041,10009
{consumergroup=adapter-service},1651960046,10009
{consumergroup=adapter-service},1651960051,10009
{consumergroup=adapter-service},1651960056,9672
{consumergroup=adapter-service},1651960061,9672
{consumergroup=adapter-service},1651960066,9672
{consumergroup=adapter-service},1651960071,5841
{consumergroup=adapter-service},1651960076,5841
{consumergroup=adapter-service},1651960081,5841
{consumergroup=adapter-service},1651960086,9518
{consumergroup=adapter-service},1651960091,9518
{consumergroup=adapter-service},1651960096,9518
{consumergroup=adapter-service},1651960101,3892
{consumergroup=adapter-service},1651960106,3892
{consumergroup=adapter-service},1651960111,3892
{consumergroup=adapter-service},1651960116,8471
{consumergroup=adapter-service},1651960121,8471
{consumergroup=adapter-service},1651960126,8471
{consumergroup=adapter-service},1651960131,7985
{consumergroup=adapter-service},1651960136,7985
{consumergroup=adapter-service},1651960141,7985
{consumergroup=adapter-service},1651960146,7762
{consumergroup=adapter-service},1651960151,7762
{consumergroup=adapter-service},1651960156,7762
{consumergroup=adapter-service},1651960161,6613
{consumergroup=adapter-service},1651960166,6613
{consumergroup=adapter-service},1651960171,6613
{consumergroup=adapter-service},1651960176,7013
{consumergroup=adapter-service},1651960181,7013
{consumergroup=adapter-service},1651960186,7013
{consumergroup=adapter-service},1651960191,7049
{consumergroup=adapter-service},1651960196,7049
{consumergroup=adapter-service},1651960201,7049
{consumergroup=adapter-service},1651960206,7354
{consumergroup=adapter-service},1651960211,7354
{consumergroup=adapter-service},1651960216,7354
{consumergroup=adapter-service},1651960221,6496
{consumergroup=adapter-service},1651960226,6496
{consumergroup=adapter-service},1651960231,6496
{consumergroup=adapter-service},1651960236,7001
{consumergroup=adapter-service},1651960241,7001
{consumergroup=adapter-service},1651960246,7001
{consumergroup=adapter-service},1651960251,6376
{consumergroup=adapter-service},1651960256,6376
{consumergroup=adapter-service},1651960261,6376
{consumergroup=adapter-service},1651960266,5236
{consumergroup=adapter-service},1651960271,5236
{consumergroup=adapter-service},1651960276,5236
{consumergroup=adapter-service},1651960281,4971
{consumergroup=adapter-service},1651960286,4971
{consumergroup=adapter-service},1651960291,4971
{consumergroup=adapter-service},1651960296,4272
{consumergroup=adapter-service},1651960301,4272
{consumergroup=adapter-service},1651960306,4272
{consumergroup=adapter-service},1651960311,4097
{consumergroup=adapter-service},1651960316,4097
{consumergroup=adapter-service},1651960321,4097
{consumergroup=adapter-service},1651960326,3618
{consumergroup=adapter-service},1651960331,3618
{consumergroup=adapter-service},1651960336,3618
{consumergroup=adapter-service},1651960341,2984
{consumergroup=adapter-service},1651960346,2984
{consumergroup=adapter-service},1651960351,2984
{consumergroup=adapter-service},1651960356,6716
{consumergroup=adapter-service},1651960361,6716
{consumergroup=adapter-service},1651960366,6716
{consumergroup=adapter-service},1651960371,6615
{consumergroup=adapter-service},1651960376,6615
{consumergroup=adapter-service},1651960381,6615
{consumergroup=adapter-service},1651960386,5775
{consumergroup=adapter-service},1651960391,5775
{consumergroup=adapter-service},1651960396,5775
{consumergroup=adapter-service},1651960401,20911
{consumergroup=adapter-service},1651960406,20911
{consumergroup=adapter-service},1651960411,20911
{consumergroup=landscape-service},1651960011,16710
{consumergroup=landscape-service},1651960016,16710
{consumergroup=landscape-service},1651960021,16710
{consumergroup=landscape-service},1651960026,21238
{consumergroup=landscape-service},1651960031,21238
{consumergroup=landscape-service},1651960036,21238
{consumergroup=landscape-service},1651960041,20833
{consumergroup=landscape-service},1651960046,20833
{consumergroup=landscape-service},1651960051,20833
{consumergroup=landscape-service},1651960056,20772
{consumergroup=landscape-service},1651960061,20772
{consumergroup=landscape-service},1651960066,20772
{consumergroup=landscape-service},1651960071,15979
{consumergroup=landscape-service},1651960076,15979
{consumergroup=landscape-service},1651960081,15979
{consumergroup=landscape-service},1651960086,20833
{consumergroup=landscape-service},1651960091,20833
{consumergroup=landscape-service},1651960096,20833
{consumergroup=landscape-service},1651960101,15670
{consumergroup=landscape-service},1651960106,15670
{consumergroup=landscape-service},1651960111,15670
{consumergroup=landscape-service},1651960116,20561
{consumergroup=landscape-service},1651960121,20561
{consumergroup=landscape-service},1651960126,20561
{consumergroup=landscape-service},1651960131,21772
{consumergroup=landscape-service},1651960136,21772
{consumergroup=landscape-service},1651960141,21772
{consumergroup=landscape-service},1651960146,21644
{consumergroup=landscape-service},1651960151,21644
{consumergroup=landscape-service},1651960156,21644
{consumergroup=landscape-service},1651960161,15483
{consumergroup=landscape-service},1651960166,15483
{consumergroup=landscape-service},1651960171,15483
{consumergroup=landscape-service},1651960176,20481
{consumergroup=landscape-service},1651960181,20481
{consumergroup=landscape-service},1651960186,20481
{consumergroup=landscape-service},1651960191,15104
{consumergroup=landscape-service},1651960196,15104
{consumergroup=landscape-service},1651960201,15104
{consumergroup=landscape-service},1651960206,19841
{consumergroup=landscape-service},1651960211,19841
{consumergroup=landscape-service},1651960216,19841
{consumergroup=landscape-service},1651960221,15042
{consumergroup=landscape-service},1651960226,15042
{consumergroup=landscape-service},1651960231,15042
{consumergroup=landscape-service},1651960236,19896
{consumergroup=landscape-service},1651960241,19896
{consumergroup=landscape-service},1651960246,19896
{consumergroup=landscape-service},1651960251,19667
{consumergroup=landscape-service},1651960256,19667
{consumergroup=landscape-service},1651960261,19667
{consumergroup=landscape-service},1651960266,19802
{consumergroup=landscape-service},1651960271,19802
{consumergroup=landscape-service},1651960276,19802
{consumergroup=landscape-service},1651960281,14431
{consumergroup=landscape-service},1651960286,14431
{consumergroup=landscape-service},1651960291,14431
{consumergroup=landscape-service},1651960296,19281
{consumergroup=landscape-service},1651960301,19281
{consumergroup=landscape-service},1651960306,19281
{consumergroup=landscape-service},1651960311,14317
{consumergroup=landscape-service},1651960316,14317
{consumergroup=landscape-service},1651960321,14317
{consumergroup=landscape-service},1651960326,20167
{consumergroup=landscape-service},1651960331,20167
{consumergroup=landscape-service},1651960336,20167
{consumergroup=landscape-service},1651960341,14168
{consumergroup=landscape-service},1651960346,14168
{consumergroup=landscape-service},1651960351,14168
{consumergroup=landscape-service},1651960356,19175
{consumergroup=landscape-service},1651960361,19175
{consumergroup=landscape-service},1651960366,19175
{consumergroup=landscape-service},1651960371,14091
{consumergroup=landscape-service},1651960376,14091
{consumergroup=landscape-service},1651960381,14091
{consumergroup=landscape-service},1651960386,18518
{consumergroup=landscape-service},1651960391,18518
{consumergroup=landscape-service},1651960396,18518
{consumergroup=landscape-service},1651960401,13796
{consumergroup=landscape-service},1651960406,13796
{consumergroup=landscape-service},1651960411,13796
{consumergroup=landscape-token-events-consumer},1651959996,0
{consumergroup=landscape-token-events-consumer},1651960001,0
{consumergroup=landscape-token-events-consumer},1651960006,0
{consumergroup=landscape-token-events-consumer},1651960011,0
{consumergroup=landscape-token-events-consumer},1651960016,0
{consumergroup=landscape-token-events-consumer},1651960021,0
{consumergroup=landscape-token-events-consumer},1651960026,0
{consumergroup=landscape-token-events-consumer},1651960031,0
{consumergroup=landscape-token-events-consumer},1651960036,0
{consumergroup=landscape-token-events-consumer},1651960041,0
{consumergroup=landscape-token-events-consumer},1651960046,0
{consumergroup=landscape-token-events-consumer},1651960051,0
{consumergroup=landscape-token-events-consumer},1651960056,0
{consumergroup=landscape-token-events-consumer},1651960061,0
{consumergroup=landscape-token-events-consumer},1651960066,0
{consumergroup=landscape-token-events-consumer},1651960071,0
{consumergroup=landscape-token-events-consumer},1651960076,0
{consumergroup=landscape-token-events-consumer},1651960081,0
{consumergroup=landscape-token-events-consumer},1651960086,0
{consumergroup=landscape-token-events-consumer},1651960091,0
{consumergroup=landscape-token-events-consumer},1651960096,0
{consumergroup=landscape-token-events-consumer},1651960101,0
{consumergroup=landscape-token-events-consumer},1651960106,0
{consumergroup=landscape-token-events-consumer},1651960111,0
{consumergroup=landscape-token-events-consumer},1651960116,0
{consumergroup=landscape-token-events-consumer},1651960121,0
{consumergroup=landscape-token-events-consumer},1651960126,0
{consumergroup=landscape-token-events-consumer},1651960131,0
{consumergroup=landscape-token-events-consumer},1651960136,0
{consumergroup=landscape-token-events-consumer},1651960141,0
{consumergroup=landscape-token-events-consumer},1651960146,0
{consumergroup=landscape-token-events-consumer},1651960151,0
{consumergroup=landscape-token-events-consumer},1651960156,0
{consumergroup=landscape-token-events-consumer},1651960161,0
{consumergroup=landscape-token-events-consumer},1651960166,0
{consumergroup=landscape-token-events-consumer},1651960171,0
{consumergroup=landscape-token-events-consumer},1651960176,0
{consumergroup=landscape-token-events-consumer},1651960181,0
{consumergroup=landscape-token-events-consumer},1651960186,0
{consumergroup=landscape-token-events-consumer},1651960191,0
{consumergroup=landscape-token-events-consumer},1651960196,0
{consumergroup=landscape-token-events-consumer},1651960201,0
{consumergroup=landscape-token-events-consumer},1651960206,0
{consumergroup=landscape-token-events-consumer},1651960211,0
{consumergroup=landscape-token-events-consumer},1651960216,0
{consumergroup=landscape-token-events-consumer},1651960221,0
{consumergroup=landscape-token-events-consumer},1651960226,0
{consumergroup=landscape-token-events-consumer},1651960231,0
{consumergroup=landscape-token-events-consumer},1651960236,0
{consumergroup=landscape-token-events-consumer},1651960241,0
{consumergroup=landscape-token-events-consumer},1651960246,0
{consumergroup=landscape-token-events-consumer},1651960251,0
{consumergroup=landscape-token-events-consumer},1651960256,0
{consumergroup=landscape-token-events-consumer},1651960261,0
{consumergroup=landscape-token-events-consumer},1651960266,0
{consumergroup=landscape-token-events-consumer},1651960271,0
{consumergroup=landscape-token-events-consumer},1651960276,0
{consumergroup=landscape-token-events-consumer},1651960281,0
{consumergroup=landscape-token-events-consumer},1651960286,0
{consumergroup=landscape-token-events-consumer},1651960291,0
{consumergroup=landscape-token-events-consumer},1651960296,0
{consumergroup=landscape-token-events-consumer},1651960301,0
{consumergroup=landscape-token-events-consumer},1651960306,0
{consumergroup=landscape-token-events-consumer},1651960311,0
{consumergroup=landscape-token-events-consumer},1651960316,0
{consumergroup=landscape-token-events-consumer},1651960321,0
{consumergroup=landscape-token-events-consumer},1651960326,0
{consumergroup=landscape-token-events-consumer},1651960331,0
{consumergroup=landscape-token-events-consumer},1651960336,0
{consumergroup=landscape-token-events-consumer},1651960341,0
{consumergroup=landscape-token-events-consumer},1651960346,0
{consumergroup=landscape-token-events-consumer},1651960351,0
{consumergroup=landscape-token-events-consumer},1651960356,0
{consumergroup=landscape-token-events-consumer},1651960361,0
{consumergroup=landscape-token-events-consumer},1651960366,0
{consumergroup=landscape-token-events-consumer},1651960371,0
{consumergroup=landscape-token-events-consumer},1651960376,0
{consumergroup=landscape-token-events-consumer},1651960381,0
{consumergroup=landscape-token-events-consumer},1651960386,0
{consumergroup=landscape-token-events-consumer},1651960391,0
{consumergroup=landscape-token-events-consumer},1651960396,0
{consumergroup=landscape-token-events-consumer},1651960401,0
{consumergroup=landscape-token-events-consumer},1651960406,0
{consumergroup=landscape-token-events-consumer},1651960411,0
{consumergroup=trace-service},1651960011,6653
{consumergroup=trace-service},1651960016,6653
{consumergroup=trace-service},1651960021,6653
{consumergroup=trace-service},1651960026,50618
{consumergroup=trace-service},1651960031,50618
{consumergroup=trace-service},1651960036,50618
{consumergroup=trace-service},1651960041,137016
{consumergroup=trace-service},1651960046,137016
{consumergroup=trace-service},1651960051,137016
{consumergroup=trace-service},1651960056,49552
{consumergroup=trace-service},1651960061,49552
{consumergroup=trace-service},1651960066,49552
{consumergroup=trace-service},1651960071,78949
{consumergroup=trace-service},1651960076,78949
{consumergroup=trace-service},1651960081,78949
{consumergroup=trace-service},1651960086,57006
{consumergroup=trace-service},1651960091,57006
{consumergroup=trace-service},1651960096,57006
{consumergroup=trace-service},1651960101,90629
{consumergroup=trace-service},1651960106,90629
{consumergroup=trace-service},1651960111,90629
{consumergroup=trace-service},1651960116,48746
{consumergroup=trace-service},1651960121,48746
{consumergroup=trace-service},1651960126,48746
{consumergroup=trace-service},1651960131,114704
{consumergroup=trace-service},1651960136,114704
{consumergroup=trace-service},1651960141,114704
{consumergroup=trace-service},1651960146,52827
{consumergroup=trace-service},1651960151,52827
{consumergroup=trace-service},1651960156,52827
{consumergroup=trace-service},1651960161,91720
{consumergroup=trace-service},1651960166,91720
{consumergroup=trace-service},1651960171,91720
{consumergroup=trace-service},1651960176,52189
{consumergroup=trace-service},1651960181,52189
{consumergroup=trace-service},1651960186,52189
{consumergroup=trace-service},1651960191,96881
{consumergroup=trace-service},1651960196,96881
{consumergroup=trace-service},1651960201,96881
{consumergroup=trace-service},1651960206,54012
{consumergroup=trace-service},1651960211,54012
{consumergroup=trace-service},1651960216,54012
{consumergroup=trace-service},1651960221,119925
{consumergroup=trace-service},1651960226,119925
{consumergroup=trace-service},1651960231,119925
{consumergroup=trace-service},1651960236,53853
{consumergroup=trace-service},1651960241,53853
{consumergroup=trace-service},1651960246,53853
{consumergroup=trace-service},1651960251,102615
{consumergroup=trace-service},1651960256,102615
{consumergroup=trace-service},1651960261,102615
{consumergroup=trace-service},1651960266,150341
{consumergroup=trace-service},1651960271,150341
{consumergroup=trace-service},1651960276,150341
{consumergroup=trace-service},1651960281,115352
{consumergroup=trace-service},1651960286,115352
{consumergroup=trace-service},1651960291,115352
{consumergroup=trace-service},1651960296,52319
{consumergroup=trace-service},1651960301,52319
{consumergroup=trace-service},1651960306,52319
{consumergroup=trace-service},1651960311,84931
{consumergroup=trace-service},1651960316,84931
{consumergroup=trace-service},1651960321,84931
{consumergroup=trace-service},1651960326,67114
{consumergroup=trace-service},1651960331,67114
{consumergroup=trace-service},1651960336,67114
{consumergroup=trace-service},1651960341,97745
{consumergroup=trace-service},1651960346,97745
{consumergroup=trace-service},1651960351,97745
{consumergroup=trace-service},1651960356,55511
{consumergroup=trace-service},1651960361,55511
{consumergroup=trace-service},1651960366,55511
{consumergroup=trace-service},1651960371,91162
{consumergroup=trace-service},1651960376,91162
{consumergroup=trace-service},1651960381,91162
{consumergroup=trace-service},1651960386,95520
{consumergroup=trace-service},1651960391,95520
{consumergroup=trace-service},1651960396,95520
{consumergroup=trace-service},1651960401,109833
{consumergroup=trace-service},1651960406,109833
{consumergroup=trace-service},1651960411,109833
{consumergroup=trace-token-events-consumer},1651959996,0
{consumergroup=trace-token-events-consumer},1651960001,0
{consumergroup=trace-token-events-consumer},1651960006,0
{consumergroup=trace-token-events-consumer},1651960011,0
{consumergroup=trace-token-events-consumer},1651960016,0
{consumergroup=trace-token-events-consumer},1651960021,0
{consumergroup=trace-token-events-consumer},1651960026,0
{consumergroup=trace-token-events-consumer},1651960031,0
{consumergroup=trace-token-events-consumer},1651960036,0
{consumergroup=trace-token-events-consumer},1651960041,0
{consumergroup=trace-token-events-consumer},1651960046,0
{consumergroup=trace-token-events-consumer},1651960051,0
{consumergroup=trace-token-events-consumer},1651960056,0
{consumergroup=trace-token-events-consumer},1651960061,0
{consumergroup=trace-token-events-consumer},1651960066,0
{consumergroup=trace-token-events-consumer},1651960071,0
{consumergroup=trace-token-events-consumer},1651960076,0
{consumergroup=trace-token-events-consumer},1651960081,0
{consumergroup=trace-token-events-consumer},1651960086,0
{consumergroup=trace-token-events-consumer},1651960091,0
{consumergroup=trace-token-events-consumer},1651960096,0
{consumergroup=trace-token-events-consumer},1651960101,0
{consumergroup=trace-token-events-consumer},1651960106,0
{consumergroup=trace-token-events-consumer},1651960111,0
{consumergroup=trace-token-events-consumer},1651960116,0
{consumergroup=trace-token-events-consumer},1651960121,0
{consumergroup=trace-token-events-consumer},1651960126,0
{consumergroup=trace-token-events-consumer},1651960131,0
{consumergroup=trace-token-events-consumer},1651960136,0
{consumergroup=trace-token-events-consumer},1651960141,0
{consumergroup=trace-token-events-consumer},1651960146,0
{consumergroup=trace-token-events-consumer},1651960151,0
{consumergroup=trace-token-events-consumer},1651960156,0
{consumergroup=trace-token-events-consumer},1651960161,0
{consumergroup=trace-token-events-consumer},1651960166,0
{consumergroup=trace-token-events-consumer},1651960171,0
{consumergroup=trace-token-events-consumer},1651960176,0
{consumergroup=trace-token-events-consumer},1651960181,0
{consumergroup=trace-token-events-consumer},1651960186,0
{consumergroup=trace-token-events-consumer},1651960191,0
{consumergroup=trace-token-events-consumer},1651960196,0
{consumergroup=trace-token-events-consumer},1651960201,0
{consumergroup=trace-token-events-consumer},1651960206,0
{consumergroup=trace-token-events-consumer},1651960211,0
{consumergroup=trace-token-events-consumer},1651960216,0
{consumergroup=trace-token-events-consumer},1651960221,0
{consumergroup=trace-token-events-consumer},1651960226,0
{consumergroup=trace-token-events-consumer},1651960231,0
{consumergroup=trace-token-events-consumer},1651960236,0
{consumergroup=trace-token-events-consumer},1651960241,0
{consumergroup=trace-token-events-consumer},1651960246,0
{consumergroup=trace-token-events-consumer},1651960251,0
{consumergroup=trace-token-events-consumer},1651960256,0
{consumergroup=trace-token-events-consumer},1651960261,0
{consumergroup=trace-token-events-consumer},1651960266,0
{consumergroup=trace-token-events-consumer},1651960271,0
{consumergroup=trace-token-events-consumer},1651960276,0
{consumergroup=trace-token-events-consumer},1651960281,0
{consumergroup=trace-token-events-consumer},1651960286,0
{consumergroup=trace-token-events-consumer},1651960291,0
{consumergroup=trace-token-events-consumer},1651960296,0
{consumergroup=trace-token-events-consumer},1651960301,0
{consumergroup=trace-token-events-consumer},1651960306,0
{consumergroup=trace-token-events-consumer},1651960311,0
{consumergroup=trace-token-events-consumer},1651960316,0
{consumergroup=trace-token-events-consumer},1651960321,0
{consumergroup=trace-token-events-consumer},1651960326,0
{consumergroup=trace-token-events-consumer},1651960331,0
{consumergroup=trace-token-events-consumer},1651960336,0
{consumergroup=trace-token-events-consumer},1651960341,0
{consumergroup=trace-token-events-consumer},1651960346,0
{consumergroup=trace-token-events-consumer},1651960351,0
{consumergroup=trace-token-events-consumer},1651960356,0
{consumergroup=trace-token-events-consumer},1651960361,0
{consumergroup=trace-token-events-consumer},1651960366,0
{consumergroup=trace-token-events-consumer},1651960371,0
{consumergroup=trace-token-events-consumer},1651960376,0
{consumergroup=trace-token-events-consumer},1651960381,0
{consumergroup=trace-token-events-consumer},1651960386,0
{consumergroup=trace-token-events-consumer},1651960391,0
{consumergroup=trace-token-events-consumer},1651960396,0
{consumergroup=trace-token-events-consumer},1651960401,0
{consumergroup=trace-token-events-consumer},1651960406,0
{consumergroup=trace-token-events-consumer},1651960411,0
