labels,timestamp,value
{job=theodolite-stu200776/combined-trace-podmonitor},1651998679,0
{job=theodolite-stu200776/combined-trace-podmonitor},1651998684,0
{job=theodolite-stu200776/combined-trace-podmonitor},1651998689,0
{job=theodolite-stu200776/combined-trace-podmonitor},1651998694,0
{job=theodolite-stu200776/combined-trace-podmonitor},1651998699,0
{job=theodolite-stu200776/combined-trace-podmonitor},1651998704,0
{job=theodolite-stu200776/combined-trace-podmonitor},1651998709,0
{job=theodolite-stu200776/combined-trace-podmonitor},1651998714,0
{job=theodolite-stu200776/combined-trace-podmonitor},1651998719,0
{job=theodolite-stu200776/combined-trace-podmonitor},1651998724,0
{job=theodolite-stu200776/combined-trace-podmonitor},1651998729,0
{job=theodolite-stu200776/combined-trace-podmonitor},1651998734,0
{job=theodolite-stu200776/combined-trace-podmonitor},1651998739,0
{job=theodolite-stu200776/combined-trace-podmonitor},1651998744,0
{job=theodolite-stu200776/combined-trace-podmonitor},1651998749,0
{job=theodolite-stu200776/combined-trace-podmonitor},1651998754,0
{job=theodolite-stu200776/combined-trace-podmonitor},1651998759,0
{job=theodolite-stu200776/combined-trace-podmonitor},1651998764,0
{job=theodolite-stu200776/combined-trace-podmonitor},1651998769,0
{job=theodolite-stu200776/combined-trace-podmonitor},1651998774,0
{job=theodolite-stu200776/combined-trace-podmonitor},1651998779,0
{job=theodolite-stu200776/combined-trace-podmonitor},1651998784,0
{job=theodolite-stu200776/combined-trace-podmonitor},1651998789,0
{job=theodolite-stu200776/combined-trace-podmonitor},1651998794,0
{job=theodolite-stu200776/combined-trace-podmonitor},1651998799,0
{job=theodolite-stu200776/combined-trace-podmonitor},1651998804,0
{job=theodolite-stu200776/combined-trace-podmonitor},1651998809,0
{job=theodolite-stu200776/combined-trace-podmonitor},1651998814,0
{job=theodolite-stu200776/combined-trace-podmonitor},1651998819,0
{job=theodolite-stu200776/combined-trace-podmonitor},1651998824,0
{job=theodolite-stu200776/combined-trace-podmonitor},1651998829,0
{job=theodolite-stu200776/combined-trace-podmonitor},1651998834,0
{job=theodolite-stu200776/combined-trace-podmonitor},1651998839,0
{job=theodolite-stu200776/combined-trace-podmonitor},1651998844,0
{job=theodolite-stu200776/combined-trace-podmonitor},1651998849,0
{job=theodolite-stu200776/combined-trace-podmonitor},1651998854,0
{job=theodolite-stu200776/combined-trace-podmonitor},1651998859,0
{job=theodolite-stu200776/combined-trace-podmonitor},1651998864,0
{job=theodolite-stu200776/combined-trace-podmonitor},1651998869,0
{job=theodolite-stu200776/combined-trace-podmonitor},1651998874,0
{job=theodolite-stu200776/combined-trace-podmonitor},1651998879,1299.3876015011933
{job=theodolite-stu200776/combined-trace-podmonitor},1651998884,1467.1209881705274
{job=theodolite-stu200776/combined-trace-podmonitor},1651998889,1435.6493118155681
{job=theodolite-stu200776/combined-trace-podmonitor},1651998894,1402.0959251462343
{job=theodolite-stu200776/combined-trace-podmonitor},1651998899,1157.2761065026266
{job=theodolite-stu200776/combined-trace-podmonitor},1651998904,1134.9146368114652
{job=theodolite-stu200776/combined-trace-podmonitor},1651998909,1645.1024202697658
{job=theodolite-stu200776/combined-trace-podmonitor},1651998914,1700.941826786197
{job=theodolite-stu200776/combined-trace-podmonitor},1651998919,1357.8058477862742
{job=theodolite-stu200776/combined-trace-podmonitor},1651998924,1324.3225439756839
{job=theodolite-stu200776/combined-trace-podmonitor},1651998929,1040.5339063564988
{job=theodolite-stu200776/combined-trace-podmonitor},1651998934,906.3592733418195
{job=theodolite-stu200776/combined-trace-podmonitor},1651998939,0
{job=theodolite-stu200776/combined-trace-podmonitor},1651998944,0
{job=theodolite-stu200776/combined-trace-podmonitor},1651998949,0
{job=theodolite-stu200776/combined-trace-podmonitor},1651998954,0
{job=theodolite-stu200776/combined-trace-podmonitor},1651998959,0
{job=theodolite-stu200776/combined-trace-podmonitor},1651998964,0
{job=theodolite-stu200776/combined-trace-podmonitor},1651998969,0
{job=theodolite-stu200776/combined-trace-podmonitor},1651998974,0
{job=theodolite-stu200776/combined-trace-podmonitor},1651998979,0
{job=theodolite-stu200776/combined-trace-podmonitor},1651998984,0
{job=theodolite-stu200776/combined-trace-podmonitor},1651998989,0
{job=theodolite-stu200776/combined-trace-podmonitor},1651998994,0
{job=theodolite-stu200776/combined-trace-podmonitor},1651998999,0
{job=theodolite-stu200776/combined-trace-podmonitor},1651999004,0
{job=theodolite-stu200776/combined-trace-podmonitor},1651999009,0
{job=theodolite-stu200776/combined-trace-podmonitor},1651999014,0
{job=theodolite-stu200776/combined-trace-podmonitor},1651999019,0
{job=theodolite-stu200776/combined-trace-podmonitor},1651999024,0
{job=theodolite-stu200776/combined-trace-podmonitor},1651999029,0
{job=theodolite-stu200776/combined-trace-podmonitor},1651999034,0
{job=theodolite-stu200776/combined-trace-podmonitor},1651999039,0
{job=theodolite-stu200776/combined-trace-podmonitor},1651999044,0
{job=theodolite-stu200776/combined-trace-podmonitor},1651999049,0
{job=theodolite-stu200776/combined-trace-podmonitor},1651999054,0
{job=theodolite-stu200776/combined-trace-podmonitor},1651999059,0
