labels,timestamp,value
{consumergroup=__strimzi-topic-operator-kstreams},1651950594,3
{consumergroup=__strimzi-topic-operator-kstreams},1651950599,3
{consumergroup=__strimzi-topic-operator-kstreams},1651950604,3
{consumergroup=__strimzi-topic-operator-kstreams},1651950609,11
{consumergroup=__strimzi-topic-operator-kstreams},1651950614,11
{consumergroup=__strimzi-topic-operator-kstreams},1651950619,11
{consumergroup=__strimzi-topic-operator-kstreams},1651950624,3
{consumergroup=__strimzi-topic-operator-kstreams},1651950629,3
{consumergroup=__strimzi-topic-operator-kstreams},1651950634,3
{consumergroup=__strimzi-topic-operator-kstreams},1651950639,3
{consumergroup=__strimzi-topic-operator-kstreams},1651950644,3
{consumergroup=__strimzi-topic-operator-kstreams},1651950649,3
{consumergroup=__strimzi-topic-operator-kstreams},1651950654,0
{consumergroup=__strimzi-topic-operator-kstreams},1651950659,0
{consumergroup=__strimzi-topic-operator-kstreams},1651950664,0
{consumergroup=__strimzi-topic-operator-kstreams},1651950669,0
{consumergroup=__strimzi-topic-operator-kstreams},1651950674,0
{consumergroup=__strimzi-topic-operator-kstreams},1651950679,0
{consumergroup=__strimzi-topic-operator-kstreams},1651950684,0
{consumergroup=__strimzi-topic-operator-kstreams},1651950689,0
{consumergroup=__strimzi-topic-operator-kstreams},1651950694,0
{consumergroup=__strimzi-topic-operator-kstreams},1651950699,0
{consumergroup=__strimzi-topic-operator-kstreams},1651950704,0
{consumergroup=__strimzi-topic-operator-kstreams},1651950709,0
{consumergroup=__strimzi-topic-operator-kstreams},1651950714,0
{consumergroup=__strimzi-topic-operator-kstreams},1651950719,0
{consumergroup=__strimzi-topic-operator-kstreams},1651950724,0
{consumergroup=__strimzi-topic-operator-kstreams},1651950729,0
{consumergroup=__strimzi-topic-operator-kstreams},1651950734,0
{consumergroup=__strimzi-topic-operator-kstreams},1651950739,0
{consumergroup=__strimzi-topic-operator-kstreams},1651950744,0
{consumergroup=__strimzi-topic-operator-kstreams},1651950749,0
{consumergroup=__strimzi-topic-operator-kstreams},1651950754,0
{consumergroup=__strimzi-topic-operator-kstreams},1651950759,0
{consumergroup=__strimzi-topic-operator-kstreams},1651950764,0
{consumergroup=__strimzi-topic-operator-kstreams},1651950769,0
{consumergroup=__strimzi-topic-operator-kstreams},1651950774,0
{consumergroup=__strimzi-topic-operator-kstreams},1651950779,0
{consumergroup=__strimzi-topic-operator-kstreams},1651950784,0
{consumergroup=__strimzi-topic-operator-kstreams},1651950789,0
{consumergroup=__strimzi-topic-operator-kstreams},1651950794,0
{consumergroup=__strimzi-topic-operator-kstreams},1651950799,0
{consumergroup=__strimzi-topic-operator-kstreams},1651950804,0
{consumergroup=__strimzi-topic-operator-kstreams},1651950809,0
{consumergroup=__strimzi-topic-operator-kstreams},1651950814,0
{consumergroup=__strimzi-topic-operator-kstreams},1651950819,0
{consumergroup=__strimzi-topic-operator-kstreams},1651950824,0
{consumergroup=__strimzi-topic-operator-kstreams},1651950829,0
{consumergroup=__strimzi-topic-operator-kstreams},1651950834,0
{consumergroup=__strimzi-topic-operator-kstreams},1651950839,0
{consumergroup=__strimzi-topic-operator-kstreams},1651950844,0
{consumergroup=__strimzi-topic-operator-kstreams},1651950849,0
{consumergroup=__strimzi-topic-operator-kstreams},1651950854,0
{consumergroup=__strimzi-topic-operator-kstreams},1651950859,0
{consumergroup=__strimzi-topic-operator-kstreams},1651950864,0
{consumergroup=__strimzi-topic-operator-kstreams},1651950869,0
{consumergroup=__strimzi-topic-operator-kstreams},1651950874,0
{consumergroup=__strimzi-topic-operator-kstreams},1651950879,0
{consumergroup=__strimzi-topic-operator-kstreams},1651950884,0
{consumergroup=__strimzi-topic-operator-kstreams},1651950889,0
{consumergroup=__strimzi-topic-operator-kstreams},1651950894,0
{consumergroup=__strimzi-topic-operator-kstreams},1651950899,0
{consumergroup=__strimzi-topic-operator-kstreams},1651950904,0
{consumergroup=__strimzi-topic-operator-kstreams},1651950909,0
{consumergroup=__strimzi-topic-operator-kstreams},1651950914,0
{consumergroup=__strimzi-topic-operator-kstreams},1651950919,0
{consumergroup=__strimzi-topic-operator-kstreams},1651950924,0
{consumergroup=__strimzi-topic-operator-kstreams},1651950929,0
{consumergroup=__strimzi-topic-operator-kstreams},1651950934,0
{consumergroup=__strimzi-topic-operator-kstreams},1651950939,0
{consumergroup=__strimzi-topic-operator-kstreams},1651950944,0
{consumergroup=__strimzi-topic-operator-kstreams},1651950949,0
{consumergroup=__strimzi-topic-operator-kstreams},1651950954,0
{consumergroup=__strimzi-topic-operator-kstreams},1651950959,0
{consumergroup=__strimzi-topic-operator-kstreams},1651950964,0
{consumergroup=__strimzi-topic-operator-kstreams},1651950969,0
{consumergroup=__strimzi-topic-operator-kstreams},1651950974,0
{consumergroup=__strimzi-topic-operator-kstreams},1651950979,0
{consumergroup=__strimzi-topic-operator-kstreams},1651950984,0
{consumergroup=__strimzi-topic-operator-kstreams},1651950989,0
{consumergroup=__strimzi-topic-operator-kstreams},1651950994,0
{consumergroup=__strimzi-topic-operator-kstreams},1651950999,0
{consumergroup=__strimzi-topic-operator-kstreams},1651951004,0
{consumergroup=__strimzi-topic-operator-kstreams},1651951009,0
{consumergroup=__strimzi-topic-operator-kstreams},1651951014,0
{consumergroup=__strimzi-topic-operator-kstreams},1651951019,0
{consumergroup=__strimzi-topic-operator-kstreams},1651951024,0
{consumergroup=__strimzi-topic-operator-kstreams},1651951029,0
{consumergroup=__strimzi-topic-operator-kstreams},1651951034,0
{consumergroup=__strimzi-topic-operator-kstreams},1651951039,0
{consumergroup=__strimzi-topic-operator-kstreams},1651951044,0
{consumergroup=adapter-service},1651950624,0
{consumergroup=adapter-service},1651950629,0
{consumergroup=adapter-service},1651950634,0
{consumergroup=adapter-service},1651950639,0
{consumergroup=adapter-service},1651950644,0
{consumergroup=adapter-service},1651950649,0
{consumergroup=adapter-service},1651950654,3200
{consumergroup=adapter-service},1651950659,3200
{consumergroup=adapter-service},1651950664,3200
{consumergroup=adapter-service},1651950669,6643
{consumergroup=adapter-service},1651950674,6643
{consumergroup=adapter-service},1651950679,6643
{consumergroup=adapter-service},1651950684,2420
{consumergroup=adapter-service},1651950689,2420
{consumergroup=adapter-service},1651950694,2420
{consumergroup=adapter-service},1651950699,6206
{consumergroup=adapter-service},1651950704,6206
{consumergroup=adapter-service},1651950709,6206
{consumergroup=adapter-service},1651950714,2301
{consumergroup=adapter-service},1651950719,2301
{consumergroup=adapter-service},1651950724,2301
{consumergroup=adapter-service},1651950729,5601
{consumergroup=adapter-service},1651950734,5601
{consumergroup=adapter-service},1651950739,5601
{consumergroup=adapter-service},1651950744,1779
{consumergroup=adapter-service},1651950749,1779
{consumergroup=adapter-service},1651950754,1779
{consumergroup=adapter-service},1651950759,4663
{consumergroup=adapter-service},1651950764,4663
{consumergroup=adapter-service},1651950769,4663
{consumergroup=adapter-service},1651950774,266
{consumergroup=adapter-service},1651950779,266
{consumergroup=adapter-service},1651950784,266
{consumergroup=adapter-service},1651950789,4177
{consumergroup=adapter-service},1651950794,4177
{consumergroup=adapter-service},1651950799,4177
{consumergroup=adapter-service},1651950804,591
{consumergroup=adapter-service},1651950809,591
{consumergroup=adapter-service},1651950814,591
{consumergroup=adapter-service},1651950819,3538
{consumergroup=adapter-service},1651950824,3538
{consumergroup=adapter-service},1651950829,3538
{consumergroup=adapter-service},1651950834,3440
{consumergroup=adapter-service},1651950839,3440
{consumergroup=adapter-service},1651950844,3440
{consumergroup=adapter-service},1651950849,2965
{consumergroup=adapter-service},1651950854,2965
{consumergroup=adapter-service},1651950859,2965
{consumergroup=adapter-service},1651950864,9658
{consumergroup=adapter-service},1651950869,9658
{consumergroup=adapter-service},1651950874,9658
{consumergroup=adapter-service},1651950879,3290
{consumergroup=adapter-service},1651950884,3290
{consumergroup=adapter-service},1651950889,3290
{consumergroup=adapter-service},1651950894,18834
{consumergroup=adapter-service},1651950899,18834
{consumergroup=adapter-service},1651950904,18834
{consumergroup=adapter-service},1651950909,1674
{consumergroup=adapter-service},1651950914,1674
{consumergroup=adapter-service},1651950919,1674
{consumergroup=adapter-service},1651950924,18376
{consumergroup=adapter-service},1651950929,18376
{consumergroup=adapter-service},1651950934,18376
{consumergroup=adapter-service},1651950939,835
{consumergroup=adapter-service},1651950944,835
{consumergroup=adapter-service},1651950949,835
{consumergroup=adapter-service},1651950954,17442
{consumergroup=adapter-service},1651950959,17442
{consumergroup=adapter-service},1651950964,17442
{consumergroup=adapter-service},1651950969,377
{consumergroup=adapter-service},1651950974,377
{consumergroup=adapter-service},1651950979,377
{consumergroup=adapter-service},1651950984,17032
{consumergroup=adapter-service},1651950989,17032
{consumergroup=adapter-service},1651950994,17032
{consumergroup=adapter-service},1651950999,803
{consumergroup=adapter-service},1651951004,803
{consumergroup=adapter-service},1651951009,803
{consumergroup=adapter-service},1651951014,16426
{consumergroup=adapter-service},1651951019,16426
{consumergroup=adapter-service},1651951024,16426
{consumergroup=adapter-service},1651951029,315
{consumergroup=adapter-service},1651951034,315
{consumergroup=adapter-service},1651951039,315
{consumergroup=adapter-service},1651951044,15838
{consumergroup=landscape-service},1651950654,3921
{consumergroup=landscape-service},1651950659,3921
{consumergroup=landscape-service},1651950664,3921
{consumergroup=landscape-service},1651950669,8056
{consumergroup=landscape-service},1651950674,8056
{consumergroup=landscape-service},1651950679,8056
{consumergroup=landscape-service},1651950684,4550
{consumergroup=landscape-service},1651950689,4550
{consumergroup=landscape-service},1651950694,4550
{consumergroup=landscape-service},1651950699,7851
{consumergroup=landscape-service},1651950704,7851
{consumergroup=landscape-service},1651950709,7851
{consumergroup=landscape-service},1651950714,3506
{consumergroup=landscape-service},1651950719,3506
{consumergroup=landscape-service},1651950724,3506
{consumergroup=landscape-service},1651950729,7519
{consumergroup=landscape-service},1651950734,7519
{consumergroup=landscape-service},1651950739,7519
{consumergroup=landscape-service},1651950744,3471
{consumergroup=landscape-service},1651950749,3471
{consumergroup=landscape-service},1651950754,3471
{consumergroup=landscape-service},1651950759,8359
{consumergroup=landscape-service},1651950764,8359
{consumergroup=landscape-service},1651950769,8359
{consumergroup=landscape-service},1651950774,3316
{consumergroup=landscape-service},1651950779,3316
{consumergroup=landscape-service},1651950784,3316
{consumergroup=landscape-service},1651950789,7246
{consumergroup=landscape-service},1651950794,7246
{consumergroup=landscape-service},1651950799,7246
{consumergroup=landscape-service},1651950804,3182
{consumergroup=landscape-service},1651950809,3182
{consumergroup=landscape-service},1651950814,3182
{consumergroup=landscape-service},1651950819,8109
{consumergroup=landscape-service},1651950824,8109
{consumergroup=landscape-service},1651950829,8109
{consumergroup=landscape-service},1651950834,2687
{consumergroup=landscape-service},1651950839,2687
{consumergroup=landscape-service},1651950844,2687
{consumergroup=landscape-service},1651950849,6954
{consumergroup=landscape-service},1651950854,6954
{consumergroup=landscape-service},1651950859,6954
{consumergroup=landscape-service},1651950864,3629
{consumergroup=landscape-service},1651950869,3629
{consumergroup=landscape-service},1651950874,3629
{consumergroup=landscape-service},1651950879,6716
{consumergroup=landscape-service},1651950884,6716
{consumergroup=landscape-service},1651950889,6716
{consumergroup=landscape-service},1651950894,2282
{consumergroup=landscape-service},1651950899,2282
{consumergroup=landscape-service},1651950904,2282
{consumergroup=landscape-service},1651950909,6717
{consumergroup=landscape-service},1651950914,6717
{consumergroup=landscape-service},1651950919,6717
{consumergroup=landscape-service},1651950924,2107
{consumergroup=landscape-service},1651950929,2107
{consumergroup=landscape-service},1651950934,2107
{consumergroup=landscape-service},1651950939,6324
{consumergroup=landscape-service},1651950944,6324
{consumergroup=landscape-service},1651950949,6324
{consumergroup=landscape-service},1651950954,2923
{consumergroup=landscape-service},1651950959,2923
{consumergroup=landscape-service},1651950964,2923
{consumergroup=landscape-service},1651950969,5969
{consumergroup=landscape-service},1651950974,5969
{consumergroup=landscape-service},1651950979,5969
{consumergroup=landscape-service},1651950984,2884
{consumergroup=landscape-service},1651950989,2884
{consumergroup=landscape-service},1651950994,2884
{consumergroup=landscape-service},1651950999,6370
{consumergroup=landscape-service},1651951004,6370
{consumergroup=landscape-service},1651951009,6370
{consumergroup=landscape-service},1651951014,1489
{consumergroup=landscape-service},1651951019,1489
{consumergroup=landscape-service},1651951024,1489
{consumergroup=landscape-service},1651951029,6761
{consumergroup=landscape-service},1651951034,6761
{consumergroup=landscape-service},1651951039,6761
{consumergroup=landscape-service},1651951044,2444
{consumergroup=landscape-token-events-consumer},1651950639,0
{consumergroup=landscape-token-events-consumer},1651950644,0
{consumergroup=landscape-token-events-consumer},1651950649,0
{consumergroup=landscape-token-events-consumer},1651950654,0
{consumergroup=landscape-token-events-consumer},1651950659,0
{consumergroup=landscape-token-events-consumer},1651950664,0
{consumergroup=landscape-token-events-consumer},1651950669,0
{consumergroup=landscape-token-events-consumer},1651950674,0
{consumergroup=landscape-token-events-consumer},1651950679,0
{consumergroup=landscape-token-events-consumer},1651950684,0
{consumergroup=landscape-token-events-consumer},1651950689,0
{consumergroup=landscape-token-events-consumer},1651950694,0
{consumergroup=landscape-token-events-consumer},1651950699,0
{consumergroup=landscape-token-events-consumer},1651950704,0
{consumergroup=landscape-token-events-consumer},1651950709,0
{consumergroup=landscape-token-events-consumer},1651950714,0
{consumergroup=landscape-token-events-consumer},1651950719,0
{consumergroup=landscape-token-events-consumer},1651950724,0
{consumergroup=landscape-token-events-consumer},1651950729,0
{consumergroup=landscape-token-events-consumer},1651950734,0
{consumergroup=landscape-token-events-consumer},1651950739,0
{consumergroup=landscape-token-events-consumer},1651950744,0
{consumergroup=landscape-token-events-consumer},1651950749,0
{consumergroup=landscape-token-events-consumer},1651950754,0
{consumergroup=landscape-token-events-consumer},1651950759,0
{consumergroup=landscape-token-events-consumer},1651950764,0
{consumergroup=landscape-token-events-consumer},1651950769,0
{consumergroup=landscape-token-events-consumer},1651950774,0
{consumergroup=landscape-token-events-consumer},1651950779,0
{consumergroup=landscape-token-events-consumer},1651950784,0
{consumergroup=landscape-token-events-consumer},1651950789,0
{consumergroup=landscape-token-events-consumer},1651950794,0
{consumergroup=landscape-token-events-consumer},1651950799,0
{consumergroup=landscape-token-events-consumer},1651950804,0
{consumergroup=landscape-token-events-consumer},1651950809,0
{consumergroup=landscape-token-events-consumer},1651950814,0
{consumergroup=landscape-token-events-consumer},1651950819,0
{consumergroup=landscape-token-events-consumer},1651950824,0
{consumergroup=landscape-token-events-consumer},1651950829,0
{consumergroup=landscape-token-events-consumer},1651950834,0
{consumergroup=landscape-token-events-consumer},1651950839,0
{consumergroup=landscape-token-events-consumer},1651950844,0
{consumergroup=landscape-token-events-consumer},1651950849,0
{consumergroup=landscape-token-events-consumer},1651950854,0
{consumergroup=landscape-token-events-consumer},1651950859,0
{consumergroup=landscape-token-events-consumer},1651950864,0
{consumergroup=landscape-token-events-consumer},1651950869,0
{consumergroup=landscape-token-events-consumer},1651950874,0
{consumergroup=landscape-token-events-consumer},1651950879,0
{consumergroup=landscape-token-events-consumer},1651950884,0
{consumergroup=landscape-token-events-consumer},1651950889,0
{consumergroup=landscape-token-events-consumer},1651950894,0
{consumergroup=landscape-token-events-consumer},1651950899,0
{consumergroup=landscape-token-events-consumer},1651950904,0
{consumergroup=landscape-token-events-consumer},1651950909,0
{consumergroup=landscape-token-events-consumer},1651950914,0
{consumergroup=landscape-token-events-consumer},1651950919,0
{consumergroup=landscape-token-events-consumer},1651950924,0
{consumergroup=landscape-token-events-consumer},1651950929,0
{consumergroup=landscape-token-events-consumer},1651950934,0
{consumergroup=landscape-token-events-consumer},1651950939,0
{consumergroup=landscape-token-events-consumer},1651950944,0
{consumergroup=landscape-token-events-consumer},1651950949,0
{consumergroup=landscape-token-events-consumer},1651950954,0
{consumergroup=landscape-token-events-consumer},1651950959,0
{consumergroup=landscape-token-events-consumer},1651950964,0
{consumergroup=landscape-token-events-consumer},1651950969,0
{consumergroup=landscape-token-events-consumer},1651950974,0
{consumergroup=landscape-token-events-consumer},1651950979,0
{consumergroup=landscape-token-events-consumer},1651950984,0
{consumergroup=landscape-token-events-consumer},1651950989,0
{consumergroup=landscape-token-events-consumer},1651950994,0
{consumergroup=landscape-token-events-consumer},1651950999,0
{consumergroup=landscape-token-events-consumer},1651951004,0
{consumergroup=landscape-token-events-consumer},1651951009,0
{consumergroup=landscape-token-events-consumer},1651951014,0
{consumergroup=landscape-token-events-consumer},1651951019,0
{consumergroup=landscape-token-events-consumer},1651951024,0
{consumergroup=landscape-token-events-consumer},1651951029,0
{consumergroup=landscape-token-events-consumer},1651951034,0
{consumergroup=landscape-token-events-consumer},1651951039,0
{consumergroup=landscape-token-events-consumer},1651951044,0
{consumergroup=trace-service},1651950639,49
{consumergroup=trace-service},1651950644,49
{consumergroup=trace-service},1651950649,49
{consumergroup=trace-service},1651950654,18417
{consumergroup=trace-service},1651950659,18417
{consumergroup=trace-service},1651950664,18417
{consumergroup=trace-service},1651950669,51914
{consumergroup=trace-service},1651950674,51914
{consumergroup=trace-service},1651950679,51914
{consumergroup=trace-service},1651950684,77109
{consumergroup=trace-service},1651950689,77109
{consumergroup=trace-service},1651950694,77109
{consumergroup=trace-service},1651950699,48834
{consumergroup=trace-service},1651950704,48834
{consumergroup=trace-service},1651950709,48834
{consumergroup=trace-service},1651950714,76262
{consumergroup=trace-service},1651950719,76262
{consumergroup=trace-service},1651950724,76262
{consumergroup=trace-service},1651950729,45112
{consumergroup=trace-service},1651950734,45112
{consumergroup=trace-service},1651950739,45112
{consumergroup=trace-service},1651950744,131050
{consumergroup=trace-service},1651950749,131050
{consumergroup=trace-service},1651950754,131050
{consumergroup=trace-service},1651950759,44360
{consumergroup=trace-service},1651950764,44360
{consumergroup=trace-service},1651950769,44360
{consumergroup=trace-service},1651950774,79449
{consumergroup=trace-service},1651950779,79449
{consumergroup=trace-service},1651950784,79449
{consumergroup=trace-service},1651950789,139116
{consumergroup=trace-service},1651950794,139116
{consumergroup=trace-service},1651950799,139116
{consumergroup=trace-service},1651950804,85545
{consumergroup=trace-service},1651950809,85545
{consumergroup=trace-service},1651950814,85545
{consumergroup=trace-service},1651950819,47695
{consumergroup=trace-service},1651950824,47695
{consumergroup=trace-service},1651950829,47695
{consumergroup=trace-service},1651950834,78877
{consumergroup=trace-service},1651950839,78877
{consumergroup=trace-service},1651950844,78877
{consumergroup=trace-service},1651950849,155780
{consumergroup=trace-service},1651950854,155780
{consumergroup=trace-service},1651950859,155780
{consumergroup=trace-service},1651950864,95287
{consumergroup=trace-service},1651950869,95287
{consumergroup=trace-service},1651950874,95287
{consumergroup=trace-service},1651950879,42129
{consumergroup=trace-service},1651950884,42129
{consumergroup=trace-service},1651950889,42129
{consumergroup=trace-service},1651950894,94207
{consumergroup=trace-service},1651950899,94207
{consumergroup=trace-service},1651950904,94207
{consumergroup=trace-service},1651950909,46544
{consumergroup=trace-service},1651950914,46544
{consumergroup=trace-service},1651950919,46544
{consumergroup=trace-service},1651950924,73100
{consumergroup=trace-service},1651950929,73100
{consumergroup=trace-service},1651950934,73100
{consumergroup=trace-service},1651950939,46771
{consumergroup=trace-service},1651950944,46771
{consumergroup=trace-service},1651950949,46771
{consumergroup=trace-service},1651950954,80027
{consumergroup=trace-service},1651950959,80027
{consumergroup=trace-service},1651950964,80027
{consumergroup=trace-service},1651950969,44740
{consumergroup=trace-service},1651950974,44740
{consumergroup=trace-service},1651950979,44740
{consumergroup=trace-service},1651950984,76833
{consumergroup=trace-service},1651950989,76833
{consumergroup=trace-service},1651950994,76833
{consumergroup=trace-service},1651950999,67398
{consumergroup=trace-service},1651951004,67398
{consumergroup=trace-service},1651951009,67398
{consumergroup=trace-service},1651951014,98933
{consumergroup=trace-service},1651951019,98933
{consumergroup=trace-service},1651951024,98933
{consumergroup=trace-service},1651951029,42855
{consumergroup=trace-service},1651951034,42855
{consumergroup=trace-service},1651951039,42855
{consumergroup=trace-service},1651951044,75353
{consumergroup=trace-token-events-consumer},1651950624,0
{consumergroup=trace-token-events-consumer},1651950629,0
{consumergroup=trace-token-events-consumer},1651950634,0
{consumergroup=trace-token-events-consumer},1651950639,0
{consumergroup=trace-token-events-consumer},1651950644,0
{consumergroup=trace-token-events-consumer},1651950649,0
{consumergroup=trace-token-events-consumer},1651950654,0
{consumergroup=trace-token-events-consumer},1651950659,0
{consumergroup=trace-token-events-consumer},1651950664,0
{consumergroup=trace-token-events-consumer},1651950669,0
{consumergroup=trace-token-events-consumer},1651950674,0
{consumergroup=trace-token-events-consumer},1651950679,0
{consumergroup=trace-token-events-consumer},1651950684,0
{consumergroup=trace-token-events-consumer},1651950689,0
{consumergroup=trace-token-events-consumer},1651950694,0
{consumergroup=trace-token-events-consumer},1651950699,0
{consumergroup=trace-token-events-consumer},1651950704,0
{consumergroup=trace-token-events-consumer},1651950709,0
{consumergroup=trace-token-events-consumer},1651950714,0
{consumergroup=trace-token-events-consumer},1651950719,0
{consumergroup=trace-token-events-consumer},1651950724,0
{consumergroup=trace-token-events-consumer},1651950729,0
{consumergroup=trace-token-events-consumer},1651950734,0
{consumergroup=trace-token-events-consumer},1651950739,0
{consumergroup=trace-token-events-consumer},1651950744,0
{consumergroup=trace-token-events-consumer},1651950749,0
{consumergroup=trace-token-events-consumer},1651950754,0
{consumergroup=trace-token-events-consumer},1651950759,0
{consumergroup=trace-token-events-consumer},1651950764,0
{consumergroup=trace-token-events-consumer},1651950769,0
{consumergroup=trace-token-events-consumer},1651950774,0
{consumergroup=trace-token-events-consumer},1651950779,0
{consumergroup=trace-token-events-consumer},1651950784,0
{consumergroup=trace-token-events-consumer},1651950789,0
{consumergroup=trace-token-events-consumer},1651950794,0
{consumergroup=trace-token-events-consumer},1651950799,0
{consumergroup=trace-token-events-consumer},1651950804,0
{consumergroup=trace-token-events-consumer},1651950809,0
{consumergroup=trace-token-events-consumer},1651950814,0
{consumergroup=trace-token-events-consumer},1651950819,0
{consumergroup=trace-token-events-consumer},1651950824,0
{consumergroup=trace-token-events-consumer},1651950829,0
{consumergroup=trace-token-events-consumer},1651950834,0
{consumergroup=trace-token-events-consumer},1651950839,0
{consumergroup=trace-token-events-consumer},1651950844,0
{consumergroup=trace-token-events-consumer},1651950849,0
{consumergroup=trace-token-events-consumer},1651950854,0
{consumergroup=trace-token-events-consumer},1651950859,0
{consumergroup=trace-token-events-consumer},1651950864,0
{consumergroup=trace-token-events-consumer},1651950869,0
{consumergroup=trace-token-events-consumer},1651950874,0
{consumergroup=trace-token-events-consumer},1651950879,0
{consumergroup=trace-token-events-consumer},1651950884,0
{consumergroup=trace-token-events-consumer},1651950889,0
{consumergroup=trace-token-events-consumer},1651950894,0
{consumergroup=trace-token-events-consumer},1651950899,0
{consumergroup=trace-token-events-consumer},1651950904,0
{consumergroup=trace-token-events-consumer},1651950909,0
{consumergroup=trace-token-events-consumer},1651950914,0
{consumergroup=trace-token-events-consumer},1651950919,0
{consumergroup=trace-token-events-consumer},1651950924,0
{consumergroup=trace-token-events-consumer},1651950929,0
{consumergroup=trace-token-events-consumer},1651950934,0
{consumergroup=trace-token-events-consumer},1651950939,0
{consumergroup=trace-token-events-consumer},1651950944,0
{consumergroup=trace-token-events-consumer},1651950949,0
{consumergroup=trace-token-events-consumer},1651950954,0
{consumergroup=trace-token-events-consumer},1651950959,0
{consumergroup=trace-token-events-consumer},1651950964,0
{consumergroup=trace-token-events-consumer},1651950969,0
{consumergroup=trace-token-events-consumer},1651950974,0
{consumergroup=trace-token-events-consumer},1651950979,0
{consumergroup=trace-token-events-consumer},1651950984,0
{consumergroup=trace-token-events-consumer},1651950989,0
{consumergroup=trace-token-events-consumer},1651950994,0
{consumergroup=trace-token-events-consumer},1651950999,0
{consumergroup=trace-token-events-consumer},1651951004,0
{consumergroup=trace-token-events-consumer},1651951009,0
{consumergroup=trace-token-events-consumer},1651951014,0
{consumergroup=trace-token-events-consumer},1651951019,0
{consumergroup=trace-token-events-consumer},1651951024,0
{consumergroup=trace-token-events-consumer},1651951029,0
{consumergroup=trace-token-events-consumer},1651951034,0
{consumergroup=trace-token-events-consumer},1651951039,0
{consumergroup=trace-token-events-consumer},1651951044,0
