labels,timestamp,value
{consumergroup=__strimzi-topic-operator-kstreams},1652011290,1
{consumergroup=__strimzi-topic-operator-kstreams},1652011295,1
{consumergroup=__strimzi-topic-operator-kstreams},1652011300,1
{consumergroup=__strimzi-topic-operator-kstreams},1652011305,9
{consumergroup=__strimzi-topic-operator-kstreams},1652011310,9
{consumergroup=__strimzi-topic-operator-kstreams},1652011315,9
{consumergroup=__strimzi-topic-operator-kstreams},1652011320,0
{consumergroup=__strimzi-topic-operator-kstreams},1652011325,0
{consumergroup=__strimzi-topic-operator-kstreams},1652011330,0
{consumergroup=__strimzi-topic-operator-kstreams},1652011335,0
{consumergroup=__strimzi-topic-operator-kstreams},1652011340,0
{consumergroup=__strimzi-topic-operator-kstreams},1652011345,0
{consumergroup=__strimzi-topic-operator-kstreams},1652011350,0
{consumergroup=__strimzi-topic-operator-kstreams},1652011355,0
{consumergroup=__strimzi-topic-operator-kstreams},1652011360,0
{consumergroup=__strimzi-topic-operator-kstreams},1652011365,0
{consumergroup=__strimzi-topic-operator-kstreams},1652011370,0
{consumergroup=__strimzi-topic-operator-kstreams},1652011375,0
{consumergroup=__strimzi-topic-operator-kstreams},1652011380,0
{consumergroup=__strimzi-topic-operator-kstreams},1652011385,0
{consumergroup=__strimzi-topic-operator-kstreams},1652011390,0
{consumergroup=__strimzi-topic-operator-kstreams},1652011395,0
{consumergroup=__strimzi-topic-operator-kstreams},1652011400,0
{consumergroup=__strimzi-topic-operator-kstreams},1652011405,0
{consumergroup=__strimzi-topic-operator-kstreams},1652011410,0
{consumergroup=__strimzi-topic-operator-kstreams},1652011415,0
{consumergroup=__strimzi-topic-operator-kstreams},1652011420,0
{consumergroup=__strimzi-topic-operator-kstreams},1652011425,0
{consumergroup=__strimzi-topic-operator-kstreams},1652011430,0
{consumergroup=__strimzi-topic-operator-kstreams},1652011435,0
{consumergroup=__strimzi-topic-operator-kstreams},1652011440,0
{consumergroup=__strimzi-topic-operator-kstreams},1652011445,0
{consumergroup=__strimzi-topic-operator-kstreams},1652011450,0
{consumergroup=__strimzi-topic-operator-kstreams},1652011455,0
{consumergroup=__strimzi-topic-operator-kstreams},1652011460,0
{consumergroup=__strimzi-topic-operator-kstreams},1652011465,0
{consumergroup=__strimzi-topic-operator-kstreams},1652011470,0
{consumergroup=__strimzi-topic-operator-kstreams},1652011475,0
{consumergroup=__strimzi-topic-operator-kstreams},1652011480,0
{consumergroup=__strimzi-topic-operator-kstreams},1652011485,0
{consumergroup=__strimzi-topic-operator-kstreams},1652011490,0
{consumergroup=__strimzi-topic-operator-kstreams},1652011495,0
{consumergroup=__strimzi-topic-operator-kstreams},1652011500,0
{consumergroup=__strimzi-topic-operator-kstreams},1652011505,0
{consumergroup=__strimzi-topic-operator-kstreams},1652011510,0
{consumergroup=__strimzi-topic-operator-kstreams},1652011515,0
{consumergroup=__strimzi-topic-operator-kstreams},1652011520,0
{consumergroup=__strimzi-topic-operator-kstreams},1652011525,0
{consumergroup=__strimzi-topic-operator-kstreams},1652011530,0
{consumergroup=__strimzi-topic-operator-kstreams},1652011535,0
{consumergroup=__strimzi-topic-operator-kstreams},1652011540,0
{consumergroup=__strimzi-topic-operator-kstreams},1652011545,0
{consumergroup=__strimzi-topic-operator-kstreams},1652011550,0
{consumergroup=__strimzi-topic-operator-kstreams},1652011555,0
{consumergroup=__strimzi-topic-operator-kstreams},1652011560,0
{consumergroup=__strimzi-topic-operator-kstreams},1652011565,0
{consumergroup=__strimzi-topic-operator-kstreams},1652011570,0
{consumergroup=__strimzi-topic-operator-kstreams},1652011575,0
{consumergroup=__strimzi-topic-operator-kstreams},1652011580,0
{consumergroup=__strimzi-topic-operator-kstreams},1652011585,0
{consumergroup=__strimzi-topic-operator-kstreams},1652011590,0
{consumergroup=__strimzi-topic-operator-kstreams},1652011595,0
{consumergroup=__strimzi-topic-operator-kstreams},1652011600,0
{consumergroup=__strimzi-topic-operator-kstreams},1652011605,0
{consumergroup=__strimzi-topic-operator-kstreams},1652011610,0
{consumergroup=__strimzi-topic-operator-kstreams},1652011615,0
{consumergroup=__strimzi-topic-operator-kstreams},1652011620,0
{consumergroup=__strimzi-topic-operator-kstreams},1652011625,0
{consumergroup=__strimzi-topic-operator-kstreams},1652011630,0
{consumergroup=__strimzi-topic-operator-kstreams},1652011635,0
{consumergroup=__strimzi-topic-operator-kstreams},1652011640,0
{consumergroup=__strimzi-topic-operator-kstreams},1652011645,0
{consumergroup=__strimzi-topic-operator-kstreams},1652011650,0
{consumergroup=__strimzi-topic-operator-kstreams},1652011655,0
{consumergroup=__strimzi-topic-operator-kstreams},1652011660,0
{consumergroup=__strimzi-topic-operator-kstreams},1652011665,0
{consumergroup=__strimzi-topic-operator-kstreams},1652011670,0
{consumergroup=__strimzi-topic-operator-kstreams},1652011675,0
{consumergroup=__strimzi-topic-operator-kstreams},1652011680,0
{consumergroup=__strimzi-topic-operator-kstreams},1652011685,0
{consumergroup=__strimzi-topic-operator-kstreams},1652011690,0
{consumergroup=__strimzi-topic-operator-kstreams},1652011695,0
{consumergroup=__strimzi-topic-operator-kstreams},1652011700,0
{consumergroup=__strimzi-topic-operator-kstreams},1652011705,0
{consumergroup=__strimzi-topic-operator-kstreams},1652011710,0
{consumergroup=__strimzi-topic-operator-kstreams},1652011715,0
{consumergroup=__strimzi-topic-operator-kstreams},1652011720,0
{consumergroup=__strimzi-topic-operator-kstreams},1652011725,0
{consumergroup=__strimzi-topic-operator-kstreams},1652011730,0
{consumergroup=__strimzi-topic-operator-kstreams},1652011735,0
{consumergroup=__strimzi-topic-operator-kstreams},1652011740,0
{consumergroup=adapter-service},1652011335,0
{consumergroup=adapter-service},1652011340,0
{consumergroup=adapter-service},1652011345,0
{consumergroup=adapter-service},1652011350,10000
{consumergroup=adapter-service},1652011355,10000
{consumergroup=adapter-service},1652011360,10000
{consumergroup=adapter-service},1652011365,13603
{consumergroup=adapter-service},1652011370,13603
{consumergroup=adapter-service},1652011375,13603
{consumergroup=adapter-service},1652011380,9583
{consumergroup=adapter-service},1652011385,9583
{consumergroup=adapter-service},1652011390,9583
{consumergroup=adapter-service},1652011395,13150
{consumergroup=adapter-service},1652011400,13150
{consumergroup=adapter-service},1652011405,13150
{consumergroup=adapter-service},1652011410,8907
{consumergroup=adapter-service},1652011415,8907
{consumergroup=adapter-service},1652011420,8907
{consumergroup=adapter-service},1652011425,12639
{consumergroup=adapter-service},1652011430,12639
{consumergroup=adapter-service},1652011435,12639
{consumergroup=adapter-service},1652011440,8233
{consumergroup=adapter-service},1652011445,8233
{consumergroup=adapter-service},1652011450,8233
{consumergroup=adapter-service},1652011455,12914
{consumergroup=adapter-service},1652011460,12914
{consumergroup=adapter-service},1652011465,12914
{consumergroup=adapter-service},1652011470,8841
{consumergroup=adapter-service},1652011475,8841
{consumergroup=adapter-service},1652011480,8841
{consumergroup=adapter-service},1652011485,12526
{consumergroup=adapter-service},1652011490,12526
{consumergroup=adapter-service},1652011495,12526
{consumergroup=adapter-service},1652011500,7212
{consumergroup=adapter-service},1652011505,7212
{consumergroup=adapter-service},1652011510,7212
{consumergroup=adapter-service},1652011515,10687
{consumergroup=adapter-service},1652011520,10687
{consumergroup=adapter-service},1652011525,10687
{consumergroup=adapter-service},1652011530,7720
{consumergroup=adapter-service},1652011535,7720
{consumergroup=adapter-service},1652011540,7720
{consumergroup=adapter-service},1652011545,10255
{consumergroup=adapter-service},1652011550,10255
{consumergroup=adapter-service},1652011555,10255
{consumergroup=adapter-service},1652011560,5929
{consumergroup=adapter-service},1652011565,5929
{consumergroup=adapter-service},1652011570,5929
{consumergroup=adapter-service},1652011575,9547
{consumergroup=adapter-service},1652011580,9547
{consumergroup=adapter-service},1652011585,9547
{consumergroup=adapter-service},1652011590,5457
{consumergroup=adapter-service},1652011595,5457
{consumergroup=adapter-service},1652011600,5457
{consumergroup=adapter-service},1652011605,10051
{consumergroup=adapter-service},1652011610,10051
{consumergroup=adapter-service},1652011615,10051
{consumergroup=adapter-service},1652011620,5045
{consumergroup=adapter-service},1652011625,5045
{consumergroup=adapter-service},1652011630,5045
{consumergroup=adapter-service},1652011635,8553
{consumergroup=adapter-service},1652011640,8553
{consumergroup=adapter-service},1652011645,8553
{consumergroup=adapter-service},1652011650,4326
{consumergroup=adapter-service},1652011655,4326
{consumergroup=adapter-service},1652011660,4326
{consumergroup=adapter-service},1652011665,7978
{consumergroup=adapter-service},1652011670,7978
{consumergroup=adapter-service},1652011675,7978
{consumergroup=adapter-service},1652011680,3829
{consumergroup=adapter-service},1652011685,3829
{consumergroup=adapter-service},1652011690,3829
{consumergroup=adapter-service},1652011695,8368
{consumergroup=adapter-service},1652011700,8368
{consumergroup=adapter-service},1652011705,8368
{consumergroup=adapter-service},1652011710,3168
{consumergroup=adapter-service},1652011715,3168
{consumergroup=adapter-service},1652011720,3168
{consumergroup=adapter-service},1652011725,6814
{consumergroup=adapter-service},1652011730,6814
{consumergroup=adapter-service},1652011735,6814
{consumergroup=adapter-service},1652011740,2657
{consumergroup=landscape-service},1652011350,11421
{consumergroup=landscape-service},1652011355,11421
{consumergroup=landscape-service},1652011360,11421
{consumergroup=landscape-service},1652011365,16126
{consumergroup=landscape-service},1652011370,16126
{consumergroup=landscape-service},1652011375,16126
{consumergroup=landscape-service},1652011380,12157
{consumergroup=landscape-service},1652011385,12157
{consumergroup=landscape-service},1652011390,12157
{consumergroup=landscape-service},1652011395,16117
{consumergroup=landscape-service},1652011400,16117
{consumergroup=landscape-service},1652011405,16117
{consumergroup=landscape-service},1652011410,11968
{consumergroup=landscape-service},1652011415,11968
{consumergroup=landscape-service},1652011420,11968
{consumergroup=landscape-service},1652011425,16023
{consumergroup=landscape-service},1652011430,16023
{consumergroup=landscape-service},1652011435,16023
{consumergroup=landscape-service},1652011440,11924
{consumergroup=landscape-service},1652011445,11924
{consumergroup=landscape-service},1652011450,11924
{consumergroup=landscape-service},1652011455,14601
{consumergroup=landscape-service},1652011460,14601
{consumergroup=landscape-service},1652011465,14601
{consumergroup=landscape-service},1652011470,10578
{consumergroup=landscape-service},1652011475,10578
{consumergroup=landscape-service},1652011480,10578
{consumergroup=landscape-service},1652011485,14492
{consumergroup=landscape-service},1652011490,14492
{consumergroup=landscape-service},1652011495,14492
{consumergroup=landscape-service},1652011500,10739
{consumergroup=landscape-service},1652011505,10739
{consumergroup=landscape-service},1652011510,10739
{consumergroup=landscape-service},1652011515,15240
{consumergroup=landscape-service},1652011520,15240
{consumergroup=landscape-service},1652011525,15240
{consumergroup=landscape-service},1652011530,10349
{consumergroup=landscape-service},1652011535,10349
{consumergroup=landscape-service},1652011540,10349
{consumergroup=landscape-service},1652011545,14355
{consumergroup=landscape-service},1652011550,14355
{consumergroup=landscape-service},1652011555,14355
{consumergroup=landscape-service},1652011560,10933
{consumergroup=landscape-service},1652011565,10933
{consumergroup=landscape-service},1652011570,10933
{consumergroup=landscape-service},1652011575,14947
{consumergroup=landscape-service},1652011580,14947
{consumergroup=landscape-service},1652011585,14947
{consumergroup=landscape-service},1652011590,10925
{consumergroup=landscape-service},1652011595,10925
{consumergroup=landscape-service},1652011600,10925
{consumergroup=landscape-service},1652011605,13840
{consumergroup=landscape-service},1652011610,13840
{consumergroup=landscape-service},1652011615,13840
{consumergroup=landscape-service},1652011620,10936
{consumergroup=landscape-service},1652011625,10936
{consumergroup=landscape-service},1652011630,10936
{consumergroup=landscape-service},1652011635,14631
{consumergroup=landscape-service},1652011640,14631
{consumergroup=landscape-service},1652011645,14631
{consumergroup=landscape-service},1652011650,10617
{consumergroup=landscape-service},1652011655,10617
{consumergroup=landscape-service},1652011660,10617
{consumergroup=landscape-service},1652011665,14599
{consumergroup=landscape-service},1652011670,14599
{consumergroup=landscape-service},1652011675,14599
{consumergroup=landscape-service},1652011680,10560
{consumergroup=landscape-service},1652011685,10560
{consumergroup=landscape-service},1652011690,10560
{consumergroup=landscape-service},1652011695,13723
{consumergroup=landscape-service},1652011700,13723
{consumergroup=landscape-service},1652011705,13723
{consumergroup=landscape-service},1652011710,9300
{consumergroup=landscape-service},1652011715,9300
{consumergroup=landscape-service},1652011720,9300
{consumergroup=landscape-service},1652011725,13148
{consumergroup=landscape-service},1652011730,13148
{consumergroup=landscape-service},1652011735,13148
{consumergroup=landscape-service},1652011740,9250
{consumergroup=landscape-token-events-consumer},1652011335,0
{consumergroup=landscape-token-events-consumer},1652011340,0
{consumergroup=landscape-token-events-consumer},1652011345,0
{consumergroup=landscape-token-events-consumer},1652011350,0
{consumergroup=landscape-token-events-consumer},1652011355,0
{consumergroup=landscape-token-events-consumer},1652011360,0
{consumergroup=landscape-token-events-consumer},1652011365,0
{consumergroup=landscape-token-events-consumer},1652011370,0
{consumergroup=landscape-token-events-consumer},1652011375,0
{consumergroup=landscape-token-events-consumer},1652011380,0
{consumergroup=landscape-token-events-consumer},1652011385,0
{consumergroup=landscape-token-events-consumer},1652011390,0
{consumergroup=landscape-token-events-consumer},1652011395,0
{consumergroup=landscape-token-events-consumer},1652011400,0
{consumergroup=landscape-token-events-consumer},1652011405,0
{consumergroup=landscape-token-events-consumer},1652011410,0
{consumergroup=landscape-token-events-consumer},1652011415,0
{consumergroup=landscape-token-events-consumer},1652011420,0
{consumergroup=landscape-token-events-consumer},1652011425,0
{consumergroup=landscape-token-events-consumer},1652011430,0
{consumergroup=landscape-token-events-consumer},1652011435,0
{consumergroup=landscape-token-events-consumer},1652011440,0
{consumergroup=landscape-token-events-consumer},1652011445,0
{consumergroup=landscape-token-events-consumer},1652011450,0
{consumergroup=landscape-token-events-consumer},1652011455,0
{consumergroup=landscape-token-events-consumer},1652011460,0
{consumergroup=landscape-token-events-consumer},1652011465,0
{consumergroup=landscape-token-events-consumer},1652011470,0
{consumergroup=landscape-token-events-consumer},1652011475,0
{consumergroup=landscape-token-events-consumer},1652011480,0
{consumergroup=landscape-token-events-consumer},1652011485,0
{consumergroup=landscape-token-events-consumer},1652011490,0
{consumergroup=landscape-token-events-consumer},1652011495,0
{consumergroup=landscape-token-events-consumer},1652011500,0
{consumergroup=landscape-token-events-consumer},1652011505,0
{consumergroup=landscape-token-events-consumer},1652011510,0
{consumergroup=landscape-token-events-consumer},1652011515,0
{consumergroup=landscape-token-events-consumer},1652011520,0
{consumergroup=landscape-token-events-consumer},1652011525,0
{consumergroup=landscape-token-events-consumer},1652011530,0
{consumergroup=landscape-token-events-consumer},1652011535,0
{consumergroup=landscape-token-events-consumer},1652011540,0
{consumergroup=landscape-token-events-consumer},1652011545,0
{consumergroup=landscape-token-events-consumer},1652011550,0
{consumergroup=landscape-token-events-consumer},1652011555,0
{consumergroup=landscape-token-events-consumer},1652011560,0
{consumergroup=landscape-token-events-consumer},1652011565,0
{consumergroup=landscape-token-events-consumer},1652011570,0
{consumergroup=landscape-token-events-consumer},1652011575,0
{consumergroup=landscape-token-events-consumer},1652011580,0
{consumergroup=landscape-token-events-consumer},1652011585,0
{consumergroup=landscape-token-events-consumer},1652011590,0
{consumergroup=landscape-token-events-consumer},1652011595,0
{consumergroup=landscape-token-events-consumer},1652011600,0
{consumergroup=landscape-token-events-consumer},1652011605,0
{consumergroup=landscape-token-events-consumer},1652011610,0
{consumergroup=landscape-token-events-consumer},1652011615,0
{consumergroup=landscape-token-events-consumer},1652011620,0
{consumergroup=landscape-token-events-consumer},1652011625,0
{consumergroup=landscape-token-events-consumer},1652011630,0
{consumergroup=landscape-token-events-consumer},1652011635,0
{consumergroup=landscape-token-events-consumer},1652011640,0
{consumergroup=landscape-token-events-consumer},1652011645,0
{consumergroup=landscape-token-events-consumer},1652011650,0
{consumergroup=landscape-token-events-consumer},1652011655,0
{consumergroup=landscape-token-events-consumer},1652011660,0
{consumergroup=landscape-token-events-consumer},1652011665,0
{consumergroup=landscape-token-events-consumer},1652011670,0
{consumergroup=landscape-token-events-consumer},1652011675,0
{consumergroup=landscape-token-events-consumer},1652011680,0
{consumergroup=landscape-token-events-consumer},1652011685,0
{consumergroup=landscape-token-events-consumer},1652011690,0
{consumergroup=landscape-token-events-consumer},1652011695,0
{consumergroup=landscape-token-events-consumer},1652011700,0
{consumergroup=landscape-token-events-consumer},1652011705,0
{consumergroup=landscape-token-events-consumer},1652011710,0
{consumergroup=landscape-token-events-consumer},1652011715,0
{consumergroup=landscape-token-events-consumer},1652011720,0
{consumergroup=landscape-token-events-consumer},1652011725,0
{consumergroup=landscape-token-events-consumer},1652011730,0
{consumergroup=landscape-token-events-consumer},1652011735,0
{consumergroup=landscape-token-events-consumer},1652011740,0
{consumergroup=trace-service},1652011350,3911
{consumergroup=trace-service},1652011355,3911
{consumergroup=trace-service},1652011360,3911
{consumergroup=trace-service},1652011365,50378
{consumergroup=trace-service},1652011370,50378
{consumergroup=trace-service},1652011375,50378
{consumergroup=trace-service},1652011380,10823
{consumergroup=trace-service},1652011385,10823
{consumergroup=trace-service},1652011390,10823
{consumergroup=trace-service},1652011395,49101
{consumergroup=trace-service},1652011400,49101
{consumergroup=trace-service},1652011405,49101
{consumergroup=trace-service},1652011410,58528
{consumergroup=trace-service},1652011415,58528
{consumergroup=trace-service},1652011420,58528
{consumergroup=trace-service},1652011425,57508
{consumergroup=trace-service},1652011430,57508
{consumergroup=trace-service},1652011435,57508
{consumergroup=trace-service},1652011440,20842
{consumergroup=trace-service},1652011445,20842
{consumergroup=trace-service},1652011450,20842
{consumergroup=trace-service},1652011455,45928
{consumergroup=trace-service},1652011460,45928
{consumergroup=trace-service},1652011465,45928
{consumergroup=trace-service},1652011470,106155
{consumergroup=trace-service},1652011475,106155
{consumergroup=trace-service},1652011480,106155
{consumergroup=trace-service},1652011485,46595
{consumergroup=trace-service},1652011490,46595
{consumergroup=trace-service},1652011495,46595
{consumergroup=trace-service},1652011500,23096
{consumergroup=trace-service},1652011505,23096
{consumergroup=trace-service},1652011510,23096
{consumergroup=trace-service},1652011515,49564
{consumergroup=trace-service},1652011520,49564
{consumergroup=trace-service},1652011525,49564
{consumergroup=trace-service},1652011530,20331
{consumergroup=trace-service},1652011535,20331
{consumergroup=trace-service},1652011540,20331
{consumergroup=trace-service},1652011545,52037
{consumergroup=trace-service},1652011550,52037
{consumergroup=trace-service},1652011555,52037
{consumergroup=trace-service},1652011560,103567
{consumergroup=trace-service},1652011565,103567
{consumergroup=trace-service},1652011570,103567
{consumergroup=trace-service},1652011575,74320
{consumergroup=trace-service},1652011580,74320
{consumergroup=trace-service},1652011585,74320
{consumergroup=trace-service},1652011590,17116
{consumergroup=trace-service},1652011595,17116
{consumergroup=trace-service},1652011600,17116
{consumergroup=trace-service},1652011605,45556
{consumergroup=trace-service},1652011610,45556
{consumergroup=trace-service},1652011615,45556
{consumergroup=trace-service},1652011620,25792
{consumergroup=trace-service},1652011625,25792
{consumergroup=trace-service},1652011630,25792
{consumergroup=trace-service},1652011635,50026
{consumergroup=trace-service},1652011640,50026
{consumergroup=trace-service},1652011645,50026
{consumergroup=trace-service},1652011650,20473
{consumergroup=trace-service},1652011655,20473
{consumergroup=trace-service},1652011660,20473
{consumergroup=trace-service},1652011665,47274
{consumergroup=trace-service},1652011670,47274
{consumergroup=trace-service},1652011675,47274
{consumergroup=trace-service},1652011680,124488
{consumergroup=trace-service},1652011685,124488
{consumergroup=trace-service},1652011690,124488
{consumergroup=trace-service},1652011695,52232
{consumergroup=trace-service},1652011700,52232
{consumergroup=trace-service},1652011705,52232
{consumergroup=trace-service},1652011710,43730
{consumergroup=trace-service},1652011715,43730
{consumergroup=trace-service},1652011720,43730
{consumergroup=trace-service},1652011725,51572
{consumergroup=trace-service},1652011730,51572
{consumergroup=trace-service},1652011735,51572
{consumergroup=trace-service},1652011740,86534
{consumergroup=trace-token-events-consumer},1652011335,0
{consumergroup=trace-token-events-consumer},1652011340,0
{consumergroup=trace-token-events-consumer},1652011345,0
{consumergroup=trace-token-events-consumer},1652011350,0
{consumergroup=trace-token-events-consumer},1652011355,0
{consumergroup=trace-token-events-consumer},1652011360,0
{consumergroup=trace-token-events-consumer},1652011365,0
{consumergroup=trace-token-events-consumer},1652011370,0
{consumergroup=trace-token-events-consumer},1652011375,0
{consumergroup=trace-token-events-consumer},1652011380,0
{consumergroup=trace-token-events-consumer},1652011385,0
{consumergroup=trace-token-events-consumer},1652011390,0
{consumergroup=trace-token-events-consumer},1652011395,0
{consumergroup=trace-token-events-consumer},1652011400,0
{consumergroup=trace-token-events-consumer},1652011405,0
{consumergroup=trace-token-events-consumer},1652011410,0
{consumergroup=trace-token-events-consumer},1652011415,0
{consumergroup=trace-token-events-consumer},1652011420,0
{consumergroup=trace-token-events-consumer},1652011425,0
{consumergroup=trace-token-events-consumer},1652011430,0
{consumergroup=trace-token-events-consumer},1652011435,0
{consumergroup=trace-token-events-consumer},1652011440,0
{consumergroup=trace-token-events-consumer},1652011445,0
{consumergroup=trace-token-events-consumer},1652011450,0
{consumergroup=trace-token-events-consumer},1652011455,0
{consumergroup=trace-token-events-consumer},1652011460,0
{consumergroup=trace-token-events-consumer},1652011465,0
{consumergroup=trace-token-events-consumer},1652011470,0
{consumergroup=trace-token-events-consumer},1652011475,0
{consumergroup=trace-token-events-consumer},1652011480,0
{consumergroup=trace-token-events-consumer},1652011485,0
{consumergroup=trace-token-events-consumer},1652011490,0
{consumergroup=trace-token-events-consumer},1652011495,0
{consumergroup=trace-token-events-consumer},1652011500,0
{consumergroup=trace-token-events-consumer},1652011505,0
{consumergroup=trace-token-events-consumer},1652011510,0
{consumergroup=trace-token-events-consumer},1652011515,0
{consumergroup=trace-token-events-consumer},1652011520,0
{consumergroup=trace-token-events-consumer},1652011525,0
{consumergroup=trace-token-events-consumer},1652011530,0
{consumergroup=trace-token-events-consumer},1652011535,0
{consumergroup=trace-token-events-consumer},1652011540,0
{consumergroup=trace-token-events-consumer},1652011545,0
{consumergroup=trace-token-events-consumer},1652011550,0
{consumergroup=trace-token-events-consumer},1652011555,0
{consumergroup=trace-token-events-consumer},1652011560,0
{consumergroup=trace-token-events-consumer},1652011565,0
{consumergroup=trace-token-events-consumer},1652011570,0
{consumergroup=trace-token-events-consumer},1652011575,0
{consumergroup=trace-token-events-consumer},1652011580,0
{consumergroup=trace-token-events-consumer},1652011585,0
{consumergroup=trace-token-events-consumer},1652011590,0
{consumergroup=trace-token-events-consumer},1652011595,0
{consumergroup=trace-token-events-consumer},1652011600,0
{consumergroup=trace-token-events-consumer},1652011605,0
{consumergroup=trace-token-events-consumer},1652011610,0
{consumergroup=trace-token-events-consumer},1652011615,0
{consumergroup=trace-token-events-consumer},1652011620,0
{consumergroup=trace-token-events-consumer},1652011625,0
{consumergroup=trace-token-events-consumer},1652011630,0
{consumergroup=trace-token-events-consumer},1652011635,0
{consumergroup=trace-token-events-consumer},1652011640,0
{consumergroup=trace-token-events-consumer},1652011645,0
{consumergroup=trace-token-events-consumer},1652011650,0
{consumergroup=trace-token-events-consumer},1652011655,0
{consumergroup=trace-token-events-consumer},1652011660,0
{consumergroup=trace-token-events-consumer},1652011665,0
{consumergroup=trace-token-events-consumer},1652011670,0
{consumergroup=trace-token-events-consumer},1652011675,0
{consumergroup=trace-token-events-consumer},1652011680,0
{consumergroup=trace-token-events-consumer},1652011685,0
{consumergroup=trace-token-events-consumer},1652011690,0
{consumergroup=trace-token-events-consumer},1652011695,0
{consumergroup=trace-token-events-consumer},1652011700,0
{consumergroup=trace-token-events-consumer},1652011705,0
{consumergroup=trace-token-events-consumer},1652011710,0
{consumergroup=trace-token-events-consumer},1652011715,0
{consumergroup=trace-token-events-consumer},1652011720,0
{consumergroup=trace-token-events-consumer},1652011725,0
{consumergroup=trace-token-events-consumer},1652011730,0
{consumergroup=trace-token-events-consumer},1652011735,0
{consumergroup=trace-token-events-consumer},1652011740,0
