labels,timestamp,value
{consumergroup=__strimzi-topic-operator-kstreams},1651943984,11
{consumergroup=__strimzi-topic-operator-kstreams},1651943989,11
{consumergroup=__strimzi-topic-operator-kstreams},1651943994,11
{consumergroup=__strimzi-topic-operator-kstreams},1651943999,0
{consumergroup=__strimzi-topic-operator-kstreams},1651944004,0
{consumergroup=__strimzi-topic-operator-kstreams},1651944009,0
{consumergroup=__strimzi-topic-operator-kstreams},1651944014,3
{consumergroup=__strimzi-topic-operator-kstreams},1651944019,3
{consumergroup=__strimzi-topic-operator-kstreams},1651944024,3
{consumergroup=__strimzi-topic-operator-kstreams},1651944029,0
{consumergroup=__strimzi-topic-operator-kstreams},1651944034,0
{consumergroup=__strimzi-topic-operator-kstreams},1651944039,0
{consumergroup=__strimzi-topic-operator-kstreams},1651944044,0
{consumergroup=__strimzi-topic-operator-kstreams},1651944049,0
{consumergroup=__strimzi-topic-operator-kstreams},1651944054,0
{consumergroup=__strimzi-topic-operator-kstreams},1651944059,0
{consumergroup=__strimzi-topic-operator-kstreams},1651944064,0
{consumergroup=__strimzi-topic-operator-kstreams},1651944069,0
{consumergroup=__strimzi-topic-operator-kstreams},1651944074,0
{consumergroup=__strimzi-topic-operator-kstreams},1651944079,0
{consumergroup=__strimzi-topic-operator-kstreams},1651944084,0
{consumergroup=__strimzi-topic-operator-kstreams},1651944089,0
{consumergroup=__strimzi-topic-operator-kstreams},1651944094,0
{consumergroup=__strimzi-topic-operator-kstreams},1651944099,0
{consumergroup=__strimzi-topic-operator-kstreams},1651944104,0
{consumergroup=__strimzi-topic-operator-kstreams},1651944109,0
{consumergroup=__strimzi-topic-operator-kstreams},1651944114,0
{consumergroup=__strimzi-topic-operator-kstreams},1651944119,0
{consumergroup=__strimzi-topic-operator-kstreams},1651944124,0
{consumergroup=__strimzi-topic-operator-kstreams},1651944129,0
{consumergroup=__strimzi-topic-operator-kstreams},1651944134,0
{consumergroup=__strimzi-topic-operator-kstreams},1651944139,0
{consumergroup=__strimzi-topic-operator-kstreams},1651944144,0
{consumergroup=__strimzi-topic-operator-kstreams},1651944149,0
{consumergroup=__strimzi-topic-operator-kstreams},1651944154,0
{consumergroup=__strimzi-topic-operator-kstreams},1651944159,0
{consumergroup=__strimzi-topic-operator-kstreams},1651944164,0
{consumergroup=__strimzi-topic-operator-kstreams},1651944169,0
{consumergroup=__strimzi-topic-operator-kstreams},1651944174,0
{consumergroup=__strimzi-topic-operator-kstreams},1651944179,0
{consumergroup=__strimzi-topic-operator-kstreams},1651944184,0
{consumergroup=__strimzi-topic-operator-kstreams},1651944189,0
{consumergroup=__strimzi-topic-operator-kstreams},1651944194,0
{consumergroup=__strimzi-topic-operator-kstreams},1651944199,0
{consumergroup=__strimzi-topic-operator-kstreams},1651944204,0
{consumergroup=__strimzi-topic-operator-kstreams},1651944209,0
{consumergroup=__strimzi-topic-operator-kstreams},1651944214,0
{consumergroup=__strimzi-topic-operator-kstreams},1651944219,0
{consumergroup=__strimzi-topic-operator-kstreams},1651944224,0
{consumergroup=__strimzi-topic-operator-kstreams},1651944229,0
{consumergroup=__strimzi-topic-operator-kstreams},1651944234,0
{consumergroup=__strimzi-topic-operator-kstreams},1651944239,0
{consumergroup=__strimzi-topic-operator-kstreams},1651944244,0
{consumergroup=__strimzi-topic-operator-kstreams},1651944249,0
{consumergroup=__strimzi-topic-operator-kstreams},1651944254,0
{consumergroup=__strimzi-topic-operator-kstreams},1651944259,0
{consumergroup=__strimzi-topic-operator-kstreams},1651944264,0
{consumergroup=__strimzi-topic-operator-kstreams},1651944269,0
{consumergroup=__strimzi-topic-operator-kstreams},1651944274,0
{consumergroup=__strimzi-topic-operator-kstreams},1651944279,0
{consumergroup=__strimzi-topic-operator-kstreams},1651944284,0
{consumergroup=__strimzi-topic-operator-kstreams},1651944289,0
{consumergroup=__strimzi-topic-operator-kstreams},1651944294,0
{consumergroup=__strimzi-topic-operator-kstreams},1651944299,0
{consumergroup=__strimzi-topic-operator-kstreams},1651944304,0
{consumergroup=__strimzi-topic-operator-kstreams},1651944309,0
{consumergroup=__strimzi-topic-operator-kstreams},1651944314,0
{consumergroup=__strimzi-topic-operator-kstreams},1651944319,0
{consumergroup=__strimzi-topic-operator-kstreams},1651944324,0
{consumergroup=__strimzi-topic-operator-kstreams},1651944329,0
{consumergroup=__strimzi-topic-operator-kstreams},1651944334,0
{consumergroup=__strimzi-topic-operator-kstreams},1651944339,0
{consumergroup=__strimzi-topic-operator-kstreams},1651944344,0
{consumergroup=__strimzi-topic-operator-kstreams},1651944349,0
{consumergroup=__strimzi-topic-operator-kstreams},1651944354,0
{consumergroup=__strimzi-topic-operator-kstreams},1651944359,0
{consumergroup=__strimzi-topic-operator-kstreams},1651944364,0
{consumergroup=__strimzi-topic-operator-kstreams},1651944369,0
{consumergroup=__strimzi-topic-operator-kstreams},1651944374,0
{consumergroup=__strimzi-topic-operator-kstreams},1651944379,0
{consumergroup=__strimzi-topic-operator-kstreams},1651944384,0
{consumergroup=__strimzi-topic-operator-kstreams},1651944389,0
{consumergroup=__strimzi-topic-operator-kstreams},1651944394,0
{consumergroup=__strimzi-topic-operator-kstreams},1651944399,0
{consumergroup=__strimzi-topic-operator-kstreams},1651944404,0
{consumergroup=__strimzi-topic-operator-kstreams},1651944409,0
{consumergroup=__strimzi-topic-operator-kstreams},1651944414,0
{consumergroup=__strimzi-topic-operator-kstreams},1651944419,0
{consumergroup=__strimzi-topic-operator-kstreams},1651944424,0
{consumergroup=adapter-service},1651944014,0
{consumergroup=adapter-service},1651944019,0
{consumergroup=adapter-service},1651944024,0
{consumergroup=adapter-service},1651944029,26709
{consumergroup=adapter-service},1651944034,26709
{consumergroup=adapter-service},1651944039,26709
{consumergroup=adapter-service},1651944044,4646
{consumergroup=adapter-service},1651944049,4646
{consumergroup=adapter-service},1651944054,4646
{consumergroup=adapter-service},1651944059,14114
{consumergroup=adapter-service},1651944064,14114
{consumergroup=adapter-service},1651944069,14114
{consumergroup=adapter-service},1651944074,17461
{consumergroup=adapter-service},1651944079,17461
{consumergroup=adapter-service},1651944084,17461
{consumergroup=adapter-service},1651944089,15052
{consumergroup=adapter-service},1651944094,15052
{consumergroup=adapter-service},1651944099,15052
{consumergroup=adapter-service},1651944104,13442
{consumergroup=adapter-service},1651944109,13442
{consumergroup=adapter-service},1651944114,13442
{consumergroup=adapter-service},1651944119,11932
{consumergroup=adapter-service},1651944124,11932
{consumergroup=adapter-service},1651944129,11932
{consumergroup=adapter-service},1651944134,12100
{consumergroup=adapter-service},1651944139,12100
{consumergroup=adapter-service},1651944144,12100
{consumergroup=adapter-service},1651944149,11606
{consumergroup=adapter-service},1651944154,11606
{consumergroup=adapter-service},1651944159,11606
{consumergroup=adapter-service},1651944164,9817
{consumergroup=adapter-service},1651944169,9817
{consumergroup=adapter-service},1651944174,9817
{consumergroup=adapter-service},1651944179,9609
{consumergroup=adapter-service},1651944184,9609
{consumergroup=adapter-service},1651944189,9609
{consumergroup=adapter-service},1651944194,8561
{consumergroup=adapter-service},1651944199,8561
{consumergroup=adapter-service},1651944204,8561
{consumergroup=adapter-service},1651944209,8238
{consumergroup=adapter-service},1651944214,8238
{consumergroup=adapter-service},1651944219,8238
{consumergroup=adapter-service},1651944224,7773
{consumergroup=adapter-service},1651944229,7773
{consumergroup=adapter-service},1651944234,7773
{consumergroup=adapter-service},1651944239,11442
{consumergroup=adapter-service},1651944244,11442
{consumergroup=adapter-service},1651944249,11442
{consumergroup=adapter-service},1651944254,6886
{consumergroup=adapter-service},1651944259,6886
{consumergroup=adapter-service},1651944264,6886
{consumergroup=adapter-service},1651944269,6248
{consumergroup=adapter-service},1651944274,6248
{consumergroup=adapter-service},1651944279,6248
{consumergroup=adapter-service},1651944284,5661
{consumergroup=adapter-service},1651944289,5661
{consumergroup=adapter-service},1651944294,5661
{consumergroup=adapter-service},1651944299,5253
{consumergroup=adapter-service},1651944304,5253
{consumergroup=adapter-service},1651944309,5253
{consumergroup=adapter-service},1651944314,4370
{consumergroup=adapter-service},1651944319,4370
{consumergroup=adapter-service},1651944324,4370
{consumergroup=adapter-service},1651944329,5370
{consumergroup=adapter-service},1651944334,5370
{consumergroup=adapter-service},1651944339,5370
{consumergroup=adapter-service},1651944344,3560
{consumergroup=adapter-service},1651944349,3560
{consumergroup=adapter-service},1651944354,3560
{consumergroup=adapter-service},1651944359,3337
{consumergroup=adapter-service},1651944364,3337
{consumergroup=adapter-service},1651944369,3337
{consumergroup=adapter-service},1651944374,2894
{consumergroup=adapter-service},1651944379,2894
{consumergroup=adapter-service},1651944384,2894
{consumergroup=adapter-service},1651944389,3436
{consumergroup=adapter-service},1651944394,3436
{consumergroup=adapter-service},1651944399,3436
{consumergroup=adapter-service},1651944404,6343
{consumergroup=adapter-service},1651944409,6343
{consumergroup=adapter-service},1651944414,6343
{consumergroup=adapter-service},1651944419,4886
{consumergroup=adapter-service},1651944424,4886
{consumergroup=landscape-service},1651944029,245
{consumergroup=landscape-service},1651944034,245
{consumergroup=landscape-service},1651944039,245
{consumergroup=landscape-service},1651944044,1187
{consumergroup=landscape-service},1651944049,1187
{consumergroup=landscape-service},1651944054,1187
{consumergroup=landscape-service},1651944059,826
{consumergroup=landscape-service},1651944064,826
{consumergroup=landscape-service},1651944069,826
{consumergroup=landscape-service},1651944074,6653
{consumergroup=landscape-service},1651944079,6653
{consumergroup=landscape-service},1651944084,6653
{consumergroup=landscape-service},1651944089,12558
{consumergroup=landscape-service},1651944094,12558
{consumergroup=landscape-service},1651944099,12558
{consumergroup=landscape-service},1651944104,12267
{consumergroup=landscape-service},1651944109,12267
{consumergroup=landscape-service},1651944114,12267
{consumergroup=landscape-service},1651944119,13065
{consumergroup=landscape-service},1651944124,13065
{consumergroup=landscape-service},1651944129,13065
{consumergroup=landscape-service},1651944134,13148
{consumergroup=landscape-service},1651944139,13148
{consumergroup=landscape-service},1651944144,13148
{consumergroup=landscape-service},1651944149,11939
{consumergroup=landscape-service},1651944154,11939
{consumergroup=landscape-service},1651944159,11939
{consumergroup=landscape-service},1651944164,11927
{consumergroup=landscape-service},1651944169,11927
{consumergroup=landscape-service},1651944174,11927
{consumergroup=landscape-service},1651944179,12843
{consumergroup=landscape-service},1651944184,12843
{consumergroup=landscape-service},1651944189,12843
{consumergroup=landscape-service},1651944194,11594
{consumergroup=landscape-service},1651944199,11594
{consumergroup=landscape-service},1651944204,11594
{consumergroup=landscape-service},1651944209,12634
{consumergroup=landscape-service},1651944214,12634
{consumergroup=landscape-service},1651944219,12634
{consumergroup=landscape-service},1651944224,11620
{consumergroup=landscape-service},1651944229,11620
{consumergroup=landscape-service},1651944234,11620
{consumergroup=landscape-service},1651944239,2306
{consumergroup=landscape-service},1651944244,2306
{consumergroup=landscape-service},1651944249,2306
{consumergroup=landscape-service},1651944254,11533
{consumergroup=landscape-service},1651944259,11533
{consumergroup=landscape-service},1651944264,11533
{consumergroup=landscape-service},1651944269,12082
{consumergroup=landscape-service},1651944274,12082
{consumergroup=landscape-service},1651944279,12082
{consumergroup=landscape-service},1651944284,11322
{consumergroup=landscape-service},1651944289,11322
{consumergroup=landscape-service},1651944294,11322
{consumergroup=landscape-service},1651944299,12076
{consumergroup=landscape-service},1651944304,12076
{consumergroup=landscape-service},1651944309,12076
{consumergroup=landscape-service},1651944314,11965
{consumergroup=landscape-service},1651944319,11965
{consumergroup=landscape-service},1651944324,11965
{consumergroup=landscape-service},1651944329,11212
{consumergroup=landscape-service},1651944334,11212
{consumergroup=landscape-service},1651944339,11212
{consumergroup=landscape-service},1651944344,17616
{consumergroup=landscape-service},1651944349,17616
{consumergroup=landscape-service},1651944354,17616
{consumergroup=landscape-service},1651944359,17716
{consumergroup=landscape-service},1651944364,17716
{consumergroup=landscape-service},1651944369,17716
{consumergroup=landscape-service},1651944374,10957
{consumergroup=landscape-service},1651944379,10957
{consumergroup=landscape-service},1651944384,10957
{consumergroup=landscape-service},1651944389,17256
{consumergroup=landscape-service},1651944394,17256
{consumergroup=landscape-service},1651944399,17256
{consumergroup=landscape-service},1651944404,18168
{consumergroup=landscape-service},1651944409,18168
{consumergroup=landscape-service},1651944414,18168
{consumergroup=landscape-service},1651944419,17011
{consumergroup=landscape-service},1651944424,17011
{consumergroup=trace-service},1651944029,11180
{consumergroup=trace-service},1651944034,11180
{consumergroup=trace-service},1651944039,11180
{consumergroup=trace-service},1651944044,138281
{consumergroup=trace-service},1651944049,138281
{consumergroup=trace-service},1651944054,138281
{consumergroup=trace-service},1651944059,157913
{consumergroup=trace-service},1651944064,157913
{consumergroup=trace-service},1651944069,157913
{consumergroup=trace-service},1651944074,233493
{consumergroup=trace-service},1651944079,233493
{consumergroup=trace-service},1651944084,233493
{consumergroup=trace-service},1651944089,143325
{consumergroup=trace-service},1651944094,143325
{consumergroup=trace-service},1651944099,143325
{consumergroup=trace-service},1651944104,85502
{consumergroup=trace-service},1651944109,85502
{consumergroup=trace-service},1651944114,85502
{consumergroup=trace-service},1651944119,121153
{consumergroup=trace-service},1651944124,121153
{consumergroup=trace-service},1651944129,121153
{consumergroup=trace-service},1651944134,104466
{consumergroup=trace-service},1651944139,104466
{consumergroup=trace-service},1651944144,104466
{consumergroup=trace-service},1651944149,76190
{consumergroup=trace-service},1651944154,76190
{consumergroup=trace-service},1651944159,76190
{consumergroup=trace-service},1651944164,55532
{consumergroup=trace-service},1651944169,55532
{consumergroup=trace-service},1651944174,55532
{consumergroup=trace-service},1651944179,114125
{consumergroup=trace-service},1651944184,114125
{consumergroup=trace-service},1651944189,114125
{consumergroup=trace-service},1651944194,89873
{consumergroup=trace-service},1651944199,89873
{consumergroup=trace-service},1651944204,89873
{consumergroup=trace-service},1651944209,54640
{consumergroup=trace-service},1651944214,54640
{consumergroup=trace-service},1651944219,54640
{consumergroup=trace-service},1651944224,55251
{consumergroup=trace-service},1651944229,55251
{consumergroup=trace-service},1651944234,55251
{consumergroup=trace-service},1651944239,70040
{consumergroup=trace-service},1651944244,70040
{consumergroup=trace-service},1651944249,70040
{consumergroup=trace-service},1651944254,55381
{consumergroup=trace-service},1651944259,55381
{consumergroup=trace-service},1651944264,55381
{consumergroup=trace-service},1651944269,118494
{consumergroup=trace-service},1651944274,118494
{consumergroup=trace-service},1651944279,118494
{consumergroup=trace-service},1651944284,57163
{consumergroup=trace-service},1651944289,57163
{consumergroup=trace-service},1651944294,57163
{consumergroup=trace-service},1651944299,40819
{consumergroup=trace-service},1651944304,40819
{consumergroup=trace-service},1651944309,40819
{consumergroup=trace-service},1651944314,54930
{consumergroup=trace-service},1651944319,54930
{consumergroup=trace-service},1651944324,54930
{consumergroup=trace-service},1651944329,100509
{consumergroup=trace-service},1651944334,100509
{consumergroup=trace-service},1651944339,100509
{consumergroup=trace-service},1651944344,59123
{consumergroup=trace-service},1651944349,59123
{consumergroup=trace-service},1651944354,59123
{consumergroup=trace-service},1651944359,103893
{consumergroup=trace-service},1651944364,103893
{consumergroup=trace-service},1651944369,103893
{consumergroup=trace-service},1651944374,54676
{consumergroup=trace-service},1651944379,54676
{consumergroup=trace-service},1651944384,54676
{consumergroup=trace-service},1651944389,130853
{consumergroup=trace-service},1651944394,130853
{consumergroup=trace-service},1651944399,130853
{consumergroup=trace-service},1651944404,60473
{consumergroup=trace-service},1651944409,60473
{consumergroup=trace-service},1651944414,60473
{consumergroup=trace-service},1651944419,137272
{consumergroup=trace-service},1651944424,137272
