labels,timestamp,value
{consumergroup=__strimzi-topic-operator-kstreams},1652008002,3
{consumergroup=__strimzi-topic-operator-kstreams},1652008007,3
{consumergroup=__strimzi-topic-operator-kstreams},1652008012,3
{consumergroup=__strimzi-topic-operator-kstreams},1652008017,8
{consumergroup=__strimzi-topic-operator-kstreams},1652008022,8
{consumergroup=__strimzi-topic-operator-kstreams},1652008027,8
{consumergroup=__strimzi-topic-operator-kstreams},1652008032,10
{consumergroup=__strimzi-topic-operator-kstreams},1652008037,10
{consumergroup=__strimzi-topic-operator-kstreams},1652008042,10
{consumergroup=__strimzi-topic-operator-kstreams},1652008047,0
{consumergroup=__strimzi-topic-operator-kstreams},1652008052,0
{consumergroup=__strimzi-topic-operator-kstreams},1652008057,0
{consumergroup=__strimzi-topic-operator-kstreams},1652008062,0
{consumergroup=__strimzi-topic-operator-kstreams},1652008067,0
{consumergroup=__strimzi-topic-operator-kstreams},1652008072,0
{consumergroup=__strimzi-topic-operator-kstreams},1652008077,0
{consumergroup=__strimzi-topic-operator-kstreams},1652008082,0
{consumergroup=__strimzi-topic-operator-kstreams},1652008087,0
{consumergroup=__strimzi-topic-operator-kstreams},1652008092,0
{consumergroup=__strimzi-topic-operator-kstreams},1652008097,0
{consumergroup=__strimzi-topic-operator-kstreams},1652008102,0
{consumergroup=__strimzi-topic-operator-kstreams},1652008107,0
{consumergroup=__strimzi-topic-operator-kstreams},1652008112,0
{consumergroup=__strimzi-topic-operator-kstreams},1652008117,0
{consumergroup=__strimzi-topic-operator-kstreams},1652008122,1
{consumergroup=__strimzi-topic-operator-kstreams},1652008127,1
{consumergroup=__strimzi-topic-operator-kstreams},1652008132,1
{consumergroup=__strimzi-topic-operator-kstreams},1652008137,0
{consumergroup=__strimzi-topic-operator-kstreams},1652008142,0
{consumergroup=__strimzi-topic-operator-kstreams},1652008147,0
{consumergroup=__strimzi-topic-operator-kstreams},1652008152,0
{consumergroup=__strimzi-topic-operator-kstreams},1652008157,0
{consumergroup=__strimzi-topic-operator-kstreams},1652008162,0
{consumergroup=__strimzi-topic-operator-kstreams},1652008167,0
{consumergroup=__strimzi-topic-operator-kstreams},1652008172,0
{consumergroup=__strimzi-topic-operator-kstreams},1652008177,0
{consumergroup=__strimzi-topic-operator-kstreams},1652008182,0
{consumergroup=__strimzi-topic-operator-kstreams},1652008187,0
{consumergroup=__strimzi-topic-operator-kstreams},1652008192,0
{consumergroup=__strimzi-topic-operator-kstreams},1652008197,0
{consumergroup=__strimzi-topic-operator-kstreams},1652008202,0
{consumergroup=__strimzi-topic-operator-kstreams},1652008207,0
{consumergroup=__strimzi-topic-operator-kstreams},1652008212,0
{consumergroup=__strimzi-topic-operator-kstreams},1652008217,0
{consumergroup=__strimzi-topic-operator-kstreams},1652008222,0
{consumergroup=__strimzi-topic-operator-kstreams},1652008227,0
{consumergroup=__strimzi-topic-operator-kstreams},1652008232,0
{consumergroup=__strimzi-topic-operator-kstreams},1652008237,0
{consumergroup=__strimzi-topic-operator-kstreams},1652008242,0
{consumergroup=__strimzi-topic-operator-kstreams},1652008247,0
{consumergroup=__strimzi-topic-operator-kstreams},1652008252,0
{consumergroup=__strimzi-topic-operator-kstreams},1652008257,0
{consumergroup=__strimzi-topic-operator-kstreams},1652008262,0
{consumergroup=__strimzi-topic-operator-kstreams},1652008267,0
{consumergroup=__strimzi-topic-operator-kstreams},1652008272,0
{consumergroup=__strimzi-topic-operator-kstreams},1652008277,0
{consumergroup=__strimzi-topic-operator-kstreams},1652008282,0
{consumergroup=__strimzi-topic-operator-kstreams},1652008287,0
{consumergroup=__strimzi-topic-operator-kstreams},1652008292,0
{consumergroup=__strimzi-topic-operator-kstreams},1652008297,0
{consumergroup=__strimzi-topic-operator-kstreams},1652008302,0
{consumergroup=__strimzi-topic-operator-kstreams},1652008307,0
{consumergroup=__strimzi-topic-operator-kstreams},1652008312,0
{consumergroup=__strimzi-topic-operator-kstreams},1652008317,0
{consumergroup=__strimzi-topic-operator-kstreams},1652008322,0
{consumergroup=__strimzi-topic-operator-kstreams},1652008327,0
{consumergroup=__strimzi-topic-operator-kstreams},1652008332,0
{consumergroup=__strimzi-topic-operator-kstreams},1652008337,0
{consumergroup=__strimzi-topic-operator-kstreams},1652008342,0
{consumergroup=__strimzi-topic-operator-kstreams},1652008347,0
{consumergroup=__strimzi-topic-operator-kstreams},1652008352,0
{consumergroup=__strimzi-topic-operator-kstreams},1652008357,0
{consumergroup=__strimzi-topic-operator-kstreams},1652008362,0
{consumergroup=__strimzi-topic-operator-kstreams},1652008367,0
{consumergroup=__strimzi-topic-operator-kstreams},1652008372,0
{consumergroup=__strimzi-topic-operator-kstreams},1652008377,0
{consumergroup=__strimzi-topic-operator-kstreams},1652008382,0
{consumergroup=__strimzi-topic-operator-kstreams},1652008387,0
{consumergroup=__strimzi-topic-operator-kstreams},1652008392,0
{consumergroup=__strimzi-topic-operator-kstreams},1652008397,0
{consumergroup=__strimzi-topic-operator-kstreams},1652008402,0
{consumergroup=__strimzi-topic-operator-kstreams},1652008407,0
{consumergroup=__strimzi-topic-operator-kstreams},1652008412,0
{consumergroup=__strimzi-topic-operator-kstreams},1652008417,0
{consumergroup=__strimzi-topic-operator-kstreams},1652008422,0
{consumergroup=__strimzi-topic-operator-kstreams},1652008427,0
{consumergroup=__strimzi-topic-operator-kstreams},1652008432,0
{consumergroup=__strimzi-topic-operator-kstreams},1652008437,0
{consumergroup=__strimzi-topic-operator-kstreams},1652008442,0
{consumergroup=__strimzi-topic-operator-kstreams},1652008447,0
{consumergroup=__strimzi-topic-operator-kstreams},1652008452,0
{consumergroup=adapter-service},1652008047,0
{consumergroup=adapter-service},1652008052,0
{consumergroup=adapter-service},1652008057,0
{consumergroup=adapter-service},1652008062,10521
{consumergroup=adapter-service},1652008067,10521
{consumergroup=adapter-service},1652008072,10521
{consumergroup=adapter-service},1652008077,10412
{consumergroup=adapter-service},1652008082,10412
{consumergroup=adapter-service},1652008087,10412
{consumergroup=adapter-service},1652008092,9244
{consumergroup=adapter-service},1652008097,9244
{consumergroup=adapter-service},1652008102,9244
{consumergroup=adapter-service},1652008107,8862
{consumergroup=adapter-service},1652008112,8862
{consumergroup=adapter-service},1652008117,8862
{consumergroup=adapter-service},1652008122,8487
{consumergroup=adapter-service},1652008127,8487
{consumergroup=adapter-service},1652008132,8487
{consumergroup=adapter-service},1652008137,9306
{consumergroup=adapter-service},1652008142,9306
{consumergroup=adapter-service},1652008147,9306
{consumergroup=adapter-service},1652008152,8823
{consumergroup=adapter-service},1652008157,8823
{consumergroup=adapter-service},1652008162,8823
{consumergroup=adapter-service},1652008167,7674
{consumergroup=adapter-service},1652008172,7674
{consumergroup=adapter-service},1652008177,7674
{consumergroup=adapter-service},1652008182,7452
{consumergroup=adapter-service},1652008187,7452
{consumergroup=adapter-service},1652008192,7452
{consumergroup=adapter-service},1652008197,7119
{consumergroup=adapter-service},1652008202,7119
{consumergroup=adapter-service},1652008207,7119
{consumergroup=adapter-service},1652008212,7300
{consumergroup=adapter-service},1652008217,7300
{consumergroup=adapter-service},1652008222,7300
{consumergroup=adapter-service},1652008227,6828
{consumergroup=adapter-service},1652008232,6828
{consumergroup=adapter-service},1652008237,6828
{consumergroup=adapter-service},1652008242,7293
{consumergroup=adapter-service},1652008247,7293
{consumergroup=adapter-service},1652008252,7293
{consumergroup=adapter-service},1652008257,5973
{consumergroup=adapter-service},1652008262,5973
{consumergroup=adapter-service},1652008267,5973
{consumergroup=adapter-service},1652008272,5856
{consumergroup=adapter-service},1652008277,5856
{consumergroup=adapter-service},1652008282,5856
{consumergroup=adapter-service},1652008287,5537
{consumergroup=adapter-service},1652008292,5537
{consumergroup=adapter-service},1652008297,5537
{consumergroup=adapter-service},1652008302,5297
{consumergroup=adapter-service},1652008307,5297
{consumergroup=adapter-service},1652008312,5297
{consumergroup=adapter-service},1652008317,5675
{consumergroup=adapter-service},1652008322,5675
{consumergroup=adapter-service},1652008327,5675
{consumergroup=adapter-service},1652008332,4474
{consumergroup=adapter-service},1652008337,4474
{consumergroup=adapter-service},1652008342,4474
{consumergroup=adapter-service},1652008347,5326
{consumergroup=adapter-service},1652008352,5326
{consumergroup=adapter-service},1652008357,5326
{consumergroup=adapter-service},1652008362,5022
{consumergroup=adapter-service},1652008367,5022
{consumergroup=adapter-service},1652008372,5022
{consumergroup=adapter-service},1652008377,3852
{consumergroup=adapter-service},1652008382,3852
{consumergroup=adapter-service},1652008387,3852
{consumergroup=adapter-service},1652008392,4586
{consumergroup=adapter-service},1652008397,4586
{consumergroup=adapter-service},1652008402,4586
{consumergroup=adapter-service},1652008407,4396
{consumergroup=adapter-service},1652008412,4396
{consumergroup=adapter-service},1652008417,4396
{consumergroup=adapter-service},1652008422,3004
{consumergroup=adapter-service},1652008427,3004
{consumergroup=adapter-service},1652008432,3004
{consumergroup=adapter-service},1652008437,3856
{consumergroup=adapter-service},1652008442,3856
{consumergroup=adapter-service},1652008447,3856
{consumergroup=adapter-service},1652008452,2382
{consumergroup=landscape-service},1652008062,11585
{consumergroup=landscape-service},1652008067,11585
{consumergroup=landscape-service},1652008072,11585
{consumergroup=landscape-service},1652008077,10442
{consumergroup=landscape-service},1652008082,10442
{consumergroup=landscape-service},1652008087,10442
{consumergroup=landscape-service},1652008092,11577
{consumergroup=landscape-service},1652008097,11577
{consumergroup=landscape-service},1652008102,11577
{consumergroup=landscape-service},1652008107,10465
{consumergroup=landscape-service},1652008112,10465
{consumergroup=landscape-service},1652008117,10465
{consumergroup=landscape-service},1652008122,10067
{consumergroup=landscape-service},1652008127,10067
{consumergroup=landscape-service},1652008132,10067
{consumergroup=landscape-service},1652008137,10911
{consumergroup=landscape-service},1652008142,10911
{consumergroup=landscape-service},1652008147,10911
{consumergroup=landscape-service},1652008152,7407
{consumergroup=landscape-service},1652008157,7407
{consumergroup=landscape-service},1652008162,7407
{consumergroup=landscape-service},1652008167,7371
{consumergroup=landscape-service},1652008172,7371
{consumergroup=landscape-service},1652008177,7371
{consumergroup=landscape-service},1652008182,7266
{consumergroup=landscape-service},1652008187,7266
{consumergroup=landscape-service},1652008192,7266
{consumergroup=landscape-service},1652008197,7325
{consumergroup=landscape-service},1652008202,7325
{consumergroup=landscape-service},1652008207,7325
{consumergroup=landscape-service},1652008212,8048
{consumergroup=landscape-service},1652008217,8048
{consumergroup=landscape-service},1652008222,8048
{consumergroup=landscape-service},1652008227,7291
{consumergroup=landscape-service},1652008232,7291
{consumergroup=landscape-service},1652008237,7291
{consumergroup=landscape-service},1652008242,13931
{consumergroup=landscape-service},1652008247,13931
{consumergroup=landscape-service},1652008252,13931
{consumergroup=landscape-service},1652008257,12846
{consumergroup=landscape-service},1652008262,12846
{consumergroup=landscape-service},1652008267,12846
{consumergroup=landscape-service},1652008272,12863
{consumergroup=landscape-service},1652008277,12863
{consumergroup=landscape-service},1652008282,12863
{consumergroup=landscape-service},1652008287,13007
{consumergroup=landscape-service},1652008292,13007
{consumergroup=landscape-service},1652008297,13007
{consumergroup=landscape-service},1652008302,13804
{consumergroup=landscape-service},1652008307,13804
{consumergroup=landscape-service},1652008312,13804
{consumergroup=landscape-service},1652008317,12373
{consumergroup=landscape-service},1652008322,12373
{consumergroup=landscape-service},1652008327,12373
{consumergroup=landscape-service},1652008332,12351
{consumergroup=landscape-service},1652008337,12351
{consumergroup=landscape-service},1652008342,12351
{consumergroup=landscape-service},1652008347,12443
{consumergroup=landscape-service},1652008352,12443
{consumergroup=landscape-service},1652008357,12443
{consumergroup=landscape-service},1652008362,13245
{consumergroup=landscape-service},1652008367,13245
{consumergroup=landscape-service},1652008372,13245
{consumergroup=landscape-service},1652008377,12281
{consumergroup=landscape-service},1652008382,12281
{consumergroup=landscape-service},1652008387,12281
{consumergroup=landscape-service},1652008392,12254
{consumergroup=landscape-service},1652008397,12254
{consumergroup=landscape-service},1652008402,12254
{consumergroup=landscape-service},1652008407,13019
{consumergroup=landscape-service},1652008412,13019
{consumergroup=landscape-service},1652008417,13019
{consumergroup=landscape-service},1652008422,12126
{consumergroup=landscape-service},1652008427,12126
{consumergroup=landscape-service},1652008432,12126
{consumergroup=landscape-service},1652008437,11982
{consumergroup=landscape-service},1652008442,11982
{consumergroup=landscape-service},1652008447,11982
{consumergroup=landscape-service},1652008452,11742
{consumergroup=landscape-token-events-consumer},1652008047,0
{consumergroup=landscape-token-events-consumer},1652008052,0
{consumergroup=landscape-token-events-consumer},1652008057,0
{consumergroup=landscape-token-events-consumer},1652008062,0
{consumergroup=landscape-token-events-consumer},1652008067,0
{consumergroup=landscape-token-events-consumer},1652008072,0
{consumergroup=landscape-token-events-consumer},1652008077,0
{consumergroup=landscape-token-events-consumer},1652008082,0
{consumergroup=landscape-token-events-consumer},1652008087,0
{consumergroup=landscape-token-events-consumer},1652008092,0
{consumergroup=landscape-token-events-consumer},1652008097,0
{consumergroup=landscape-token-events-consumer},1652008102,0
{consumergroup=landscape-token-events-consumer},1652008107,0
{consumergroup=landscape-token-events-consumer},1652008112,0
{consumergroup=landscape-token-events-consumer},1652008117,0
{consumergroup=landscape-token-events-consumer},1652008122,0
{consumergroup=landscape-token-events-consumer},1652008127,0
{consumergroup=landscape-token-events-consumer},1652008132,0
{consumergroup=landscape-token-events-consumer},1652008137,0
{consumergroup=landscape-token-events-consumer},1652008142,0
{consumergroup=landscape-token-events-consumer},1652008147,0
{consumergroup=landscape-token-events-consumer},1652008152,0
{consumergroup=landscape-token-events-consumer},1652008157,0
{consumergroup=landscape-token-events-consumer},1652008162,0
{consumergroup=landscape-token-events-consumer},1652008167,0
{consumergroup=landscape-token-events-consumer},1652008172,0
{consumergroup=landscape-token-events-consumer},1652008177,0
{consumergroup=landscape-token-events-consumer},1652008182,0
{consumergroup=landscape-token-events-consumer},1652008187,0
{consumergroup=landscape-token-events-consumer},1652008192,0
{consumergroup=landscape-token-events-consumer},1652008197,0
{consumergroup=landscape-token-events-consumer},1652008202,0
{consumergroup=landscape-token-events-consumer},1652008207,0
{consumergroup=landscape-token-events-consumer},1652008212,0
{consumergroup=landscape-token-events-consumer},1652008217,0
{consumergroup=landscape-token-events-consumer},1652008222,0
{consumergroup=landscape-token-events-consumer},1652008227,0
{consumergroup=landscape-token-events-consumer},1652008232,0
{consumergroup=landscape-token-events-consumer},1652008237,0
{consumergroup=landscape-token-events-consumer},1652008242,0
{consumergroup=landscape-token-events-consumer},1652008247,0
{consumergroup=landscape-token-events-consumer},1652008252,0
{consumergroup=landscape-token-events-consumer},1652008257,0
{consumergroup=landscape-token-events-consumer},1652008262,0
{consumergroup=landscape-token-events-consumer},1652008267,0
{consumergroup=landscape-token-events-consumer},1652008272,0
{consumergroup=landscape-token-events-consumer},1652008277,0
{consumergroup=landscape-token-events-consumer},1652008282,0
{consumergroup=landscape-token-events-consumer},1652008287,0
{consumergroup=landscape-token-events-consumer},1652008292,0
{consumergroup=landscape-token-events-consumer},1652008297,0
{consumergroup=landscape-token-events-consumer},1652008302,0
{consumergroup=landscape-token-events-consumer},1652008307,0
{consumergroup=landscape-token-events-consumer},1652008312,0
{consumergroup=landscape-token-events-consumer},1652008317,0
{consumergroup=landscape-token-events-consumer},1652008322,0
{consumergroup=landscape-token-events-consumer},1652008327,0
{consumergroup=landscape-token-events-consumer},1652008332,0
{consumergroup=landscape-token-events-consumer},1652008337,0
{consumergroup=landscape-token-events-consumer},1652008342,0
{consumergroup=landscape-token-events-consumer},1652008347,0
{consumergroup=landscape-token-events-consumer},1652008352,0
{consumergroup=landscape-token-events-consumer},1652008357,0
{consumergroup=landscape-token-events-consumer},1652008362,0
{consumergroup=landscape-token-events-consumer},1652008367,0
{consumergroup=landscape-token-events-consumer},1652008372,0
{consumergroup=landscape-token-events-consumer},1652008377,0
{consumergroup=landscape-token-events-consumer},1652008382,0
{consumergroup=landscape-token-events-consumer},1652008387,0
{consumergroup=landscape-token-events-consumer},1652008392,0
{consumergroup=landscape-token-events-consumer},1652008397,0
{consumergroup=landscape-token-events-consumer},1652008402,0
{consumergroup=landscape-token-events-consumer},1652008407,0
{consumergroup=landscape-token-events-consumer},1652008412,0
{consumergroup=landscape-token-events-consumer},1652008417,0
{consumergroup=landscape-token-events-consumer},1652008422,0
{consumergroup=landscape-token-events-consumer},1652008427,0
{consumergroup=landscape-token-events-consumer},1652008432,0
{consumergroup=landscape-token-events-consumer},1652008437,0
{consumergroup=landscape-token-events-consumer},1652008442,0
{consumergroup=landscape-token-events-consumer},1652008447,0
{consumergroup=landscape-token-events-consumer},1652008452,0
{consumergroup=trace-service},1652008047,37
{consumergroup=trace-service},1652008052,37
{consumergroup=trace-service},1652008057,37
{consumergroup=trace-service},1652008062,47826
{consumergroup=trace-service},1652008067,47826
{consumergroup=trace-service},1652008072,47826
{consumergroup=trace-service},1652008077,25090
{consumergroup=trace-service},1652008082,25090
{consumergroup=trace-service},1652008087,25090
{consumergroup=trace-service},1652008092,47824
{consumergroup=trace-service},1652008097,47824
{consumergroup=trace-service},1652008102,47824
{consumergroup=trace-service},1652008107,27819
{consumergroup=trace-service},1652008112,27819
{consumergroup=trace-service},1652008117,27819
{consumergroup=trace-service},1652008122,47162
{consumergroup=trace-service},1652008127,47162
{consumergroup=trace-service},1652008132,47162
{consumergroup=trace-service},1652008137,17999
{consumergroup=trace-service},1652008142,17999
{consumergroup=trace-service},1652008147,17999
{consumergroup=trace-service},1652008152,49008
{consumergroup=trace-service},1652008157,49008
{consumergroup=trace-service},1652008162,49008
{consumergroup=trace-service},1652008167,20610
{consumergroup=trace-service},1652008172,20610
{consumergroup=trace-service},1652008177,20610
{consumergroup=trace-service},1652008182,51977
{consumergroup=trace-service},1652008187,51977
{consumergroup=trace-service},1652008192,51977
{consumergroup=trace-service},1652008197,86246
{consumergroup=trace-service},1652008202,86246
{consumergroup=trace-service},1652008207,86246
{consumergroup=trace-service},1652008212,47155
{consumergroup=trace-service},1652008217,47155
{consumergroup=trace-service},1652008222,47155
{consumergroup=trace-service},1652008227,19634
{consumergroup=trace-service},1652008232,19634
{consumergroup=trace-service},1652008237,19634
{consumergroup=trace-service},1652008242,45000
{consumergroup=trace-service},1652008247,45000
{consumergroup=trace-service},1652008252,45000
{consumergroup=trace-service},1652008257,54379
{consumergroup=trace-service},1652008262,54379
{consumergroup=trace-service},1652008267,54379
{consumergroup=trace-service},1652008272,46548
{consumergroup=trace-service},1652008277,46548
{consumergroup=trace-service},1652008282,46548
{consumergroup=trace-service},1652008287,14716
{consumergroup=trace-service},1652008292,14716
{consumergroup=trace-service},1652008297,14716
{consumergroup=trace-service},1652008302,44517
{consumergroup=trace-service},1652008307,44517
{consumergroup=trace-service},1652008312,44517
{consumergroup=trace-service},1652008317,20148
{consumergroup=trace-service},1652008322,20148
{consumergroup=trace-service},1652008327,20148
{consumergroup=trace-service},1652008332,49892
{consumergroup=trace-service},1652008337,49892
{consumergroup=trace-service},1652008342,49892
{consumergroup=trace-service},1652008347,71900
{consumergroup=trace-service},1652008352,71900
{consumergroup=trace-service},1652008357,71900
{consumergroup=trace-service},1652008362,48866
{consumergroup=trace-service},1652008367,48866
{consumergroup=trace-service},1652008372,48866
{consumergroup=trace-service},1652008377,19348
{consumergroup=trace-service},1652008382,19348
{consumergroup=trace-service},1652008387,19348
{consumergroup=trace-service},1652008392,44755
{consumergroup=trace-service},1652008397,44755
{consumergroup=trace-service},1652008402,44755
{consumergroup=trace-service},1652008407,22084
{consumergroup=trace-service},1652008412,22084
{consumergroup=trace-service},1652008417,22084
{consumergroup=trace-service},1652008422,45960
{consumergroup=trace-service},1652008427,45960
{consumergroup=trace-service},1652008432,45960
{consumergroup=trace-service},1652008437,20239
{consumergroup=trace-service},1652008442,20239
{consumergroup=trace-service},1652008447,20239
{consumergroup=trace-service},1652008452,46464
{consumergroup=trace-token-events-consumer},1652008047,0
{consumergroup=trace-token-events-consumer},1652008052,0
{consumergroup=trace-token-events-consumer},1652008057,0
{consumergroup=trace-token-events-consumer},1652008062,0
{consumergroup=trace-token-events-consumer},1652008067,0
{consumergroup=trace-token-events-consumer},1652008072,0
{consumergroup=trace-token-events-consumer},1652008077,0
{consumergroup=trace-token-events-consumer},1652008082,0
{consumergroup=trace-token-events-consumer},1652008087,0
{consumergroup=trace-token-events-consumer},1652008092,0
{consumergroup=trace-token-events-consumer},1652008097,0
{consumergroup=trace-token-events-consumer},1652008102,0
{consumergroup=trace-token-events-consumer},1652008107,0
{consumergroup=trace-token-events-consumer},1652008112,0
{consumergroup=trace-token-events-consumer},1652008117,0
{consumergroup=trace-token-events-consumer},1652008122,0
{consumergroup=trace-token-events-consumer},1652008127,0
{consumergroup=trace-token-events-consumer},1652008132,0
{consumergroup=trace-token-events-consumer},1652008137,0
{consumergroup=trace-token-events-consumer},1652008142,0
{consumergroup=trace-token-events-consumer},1652008147,0
{consumergroup=trace-token-events-consumer},1652008152,0
{consumergroup=trace-token-events-consumer},1652008157,0
{consumergroup=trace-token-events-consumer},1652008162,0
{consumergroup=trace-token-events-consumer},1652008167,0
{consumergroup=trace-token-events-consumer},1652008172,0
{consumergroup=trace-token-events-consumer},1652008177,0
{consumergroup=trace-token-events-consumer},1652008182,0
{consumergroup=trace-token-events-consumer},1652008187,0
{consumergroup=trace-token-events-consumer},1652008192,0
{consumergroup=trace-token-events-consumer},1652008197,0
{consumergroup=trace-token-events-consumer},1652008202,0
{consumergroup=trace-token-events-consumer},1652008207,0
{consumergroup=trace-token-events-consumer},1652008212,0
{consumergroup=trace-token-events-consumer},1652008217,0
{consumergroup=trace-token-events-consumer},1652008222,0
{consumergroup=trace-token-events-consumer},1652008227,0
{consumergroup=trace-token-events-consumer},1652008232,0
{consumergroup=trace-token-events-consumer},1652008237,0
{consumergroup=trace-token-events-consumer},1652008242,0
{consumergroup=trace-token-events-consumer},1652008247,0
{consumergroup=trace-token-events-consumer},1652008252,0
{consumergroup=trace-token-events-consumer},1652008257,0
{consumergroup=trace-token-events-consumer},1652008262,0
{consumergroup=trace-token-events-consumer},1652008267,0
{consumergroup=trace-token-events-consumer},1652008272,0
{consumergroup=trace-token-events-consumer},1652008277,0
{consumergroup=trace-token-events-consumer},1652008282,0
{consumergroup=trace-token-events-consumer},1652008287,0
{consumergroup=trace-token-events-consumer},1652008292,0
{consumergroup=trace-token-events-consumer},1652008297,0
{consumergroup=trace-token-events-consumer},1652008302,0
{consumergroup=trace-token-events-consumer},1652008307,0
{consumergroup=trace-token-events-consumer},1652008312,0
{consumergroup=trace-token-events-consumer},1652008317,0
{consumergroup=trace-token-events-consumer},1652008322,0
{consumergroup=trace-token-events-consumer},1652008327,0
{consumergroup=trace-token-events-consumer},1652008332,0
{consumergroup=trace-token-events-consumer},1652008337,0
{consumergroup=trace-token-events-consumer},1652008342,0
{consumergroup=trace-token-events-consumer},1652008347,0
{consumergroup=trace-token-events-consumer},1652008352,0
{consumergroup=trace-token-events-consumer},1652008357,0
{consumergroup=trace-token-events-consumer},1652008362,0
{consumergroup=trace-token-events-consumer},1652008367,0
{consumergroup=trace-token-events-consumer},1652008372,0
{consumergroup=trace-token-events-consumer},1652008377,0
{consumergroup=trace-token-events-consumer},1652008382,0
{consumergroup=trace-token-events-consumer},1652008387,0
{consumergroup=trace-token-events-consumer},1652008392,0
{consumergroup=trace-token-events-consumer},1652008397,0
{consumergroup=trace-token-events-consumer},1652008402,0
{consumergroup=trace-token-events-consumer},1652008407,0
{consumergroup=trace-token-events-consumer},1652008412,0
{consumergroup=trace-token-events-consumer},1652008417,0
{consumergroup=trace-token-events-consumer},1652008422,0
{consumergroup=trace-token-events-consumer},1652008427,0
{consumergroup=trace-token-events-consumer},1652008432,0
{consumergroup=trace-token-events-consumer},1652008437,0
{consumergroup=trace-token-events-consumer},1652008442,0
{consumergroup=trace-token-events-consumer},1652008447,0
{consumergroup=trace-token-events-consumer},1652008452,0
