labels,timestamp,value
{job=theodolite-stu200776/combined-trace-podmonitor},1651999783,0
{job=theodolite-stu200776/combined-trace-podmonitor},1651999788,0
{job=theodolite-stu200776/combined-trace-podmonitor},1651999793,0
{job=theodolite-stu200776/combined-trace-podmonitor},1651999798,0
{job=theodolite-stu200776/combined-trace-podmonitor},1651999803,0
{job=theodolite-stu200776/combined-trace-podmonitor},1651999808,0
{job=theodolite-stu200776/combined-trace-podmonitor},1651999813,0
{job=theodolite-stu200776/combined-trace-podmonitor},1651999818,0
{job=theodolite-stu200776/combined-trace-podmonitor},1651999823,0
{job=theodolite-stu200776/combined-trace-podmonitor},1651999828,0
{job=theodolite-stu200776/combined-trace-podmonitor},1651999833,0
{job=theodolite-stu200776/combined-trace-podmonitor},1651999838,0
{job=theodolite-stu200776/combined-trace-podmonitor},1651999843,0
{job=theodolite-stu200776/combined-trace-podmonitor},1651999848,0
{job=theodolite-stu200776/combined-trace-podmonitor},1651999853,0
{job=theodolite-stu200776/combined-trace-podmonitor},1651999858,0
{job=theodolite-stu200776/combined-trace-podmonitor},1651999863,0
{job=theodolite-stu200776/combined-trace-podmonitor},1651999868,0
{job=theodolite-stu200776/combined-trace-podmonitor},1651999873,0
{job=theodolite-stu200776/combined-trace-podmonitor},1651999878,0
{job=theodolite-stu200776/combined-trace-podmonitor},1651999883,0
{job=theodolite-stu200776/combined-trace-podmonitor},1651999888,0
{job=theodolite-stu200776/combined-trace-podmonitor},1651999893,0
{job=theodolite-stu200776/combined-trace-podmonitor},1651999898,0
{job=theodolite-stu200776/combined-trace-podmonitor},1651999903,0
{job=theodolite-stu200776/combined-trace-podmonitor},1651999908,0
{job=theodolite-stu200776/combined-trace-podmonitor},1651999913,0
{job=theodolite-stu200776/combined-trace-podmonitor},1651999918,0
{job=theodolite-stu200776/combined-trace-podmonitor},1651999923,0
{job=theodolite-stu200776/combined-trace-podmonitor},1651999928,0
{job=theodolite-stu200776/combined-trace-podmonitor},1651999933,0
{job=theodolite-stu200776/combined-trace-podmonitor},1651999938,0
{job=theodolite-stu200776/combined-trace-podmonitor},1651999943,0
{job=theodolite-stu200776/combined-trace-podmonitor},1651999948,0
{job=theodolite-stu200776/combined-trace-podmonitor},1651999953,0
{job=theodolite-stu200776/combined-trace-podmonitor},1651999958,0
{job=theodolite-stu200776/combined-trace-podmonitor},1651999963,0
{job=theodolite-stu200776/combined-trace-podmonitor},1651999968,0
{job=theodolite-stu200776/combined-trace-podmonitor},1651999973,0
{job=theodolite-stu200776/combined-trace-podmonitor},1651999978,0
{job=theodolite-stu200776/combined-trace-podmonitor},1651999983,0
{job=theodolite-stu200776/combined-trace-podmonitor},1651999988,0
{job=theodolite-stu200776/combined-trace-podmonitor},1651999993,0
{job=theodolite-stu200776/combined-trace-podmonitor},1651999998,0
{job=theodolite-stu200776/combined-trace-podmonitor},1652000003,0
{job=theodolite-stu200776/combined-trace-podmonitor},1652000008,0
{job=theodolite-stu200776/combined-trace-podmonitor},1652000013,0
{job=theodolite-stu200776/combined-trace-podmonitor},1652000018,0
{job=theodolite-stu200776/combined-trace-podmonitor},1652000023,0
{job=theodolite-stu200776/combined-trace-podmonitor},1652000028,0
{job=theodolite-stu200776/combined-trace-podmonitor},1652000033,0
{job=theodolite-stu200776/combined-trace-podmonitor},1652000038,0
{job=theodolite-stu200776/combined-trace-podmonitor},1652000043,0
{job=theodolite-stu200776/combined-trace-podmonitor},1652000048,0
{job=theodolite-stu200776/combined-trace-podmonitor},1652000053,0
{job=theodolite-stu200776/combined-trace-podmonitor},1652000058,0
{job=theodolite-stu200776/combined-trace-podmonitor},1652000063,0
{job=theodolite-stu200776/combined-trace-podmonitor},1652000068,0
{job=theodolite-stu200776/combined-trace-podmonitor},1652000073,0
{job=theodolite-stu200776/combined-trace-podmonitor},1652000078,0
{job=theodolite-stu200776/combined-trace-podmonitor},1652000083,0
{job=theodolite-stu200776/combined-trace-podmonitor},1652000088,0
{job=theodolite-stu200776/combined-trace-podmonitor},1652000093,0
{job=theodolite-stu200776/combined-trace-podmonitor},1652000098,0
{job=theodolite-stu200776/combined-trace-podmonitor},1652000103,0
{job=theodolite-stu200776/combined-trace-podmonitor},1652000108,0
{job=theodolite-stu200776/combined-trace-podmonitor},1652000113,0
{job=theodolite-stu200776/combined-trace-podmonitor},1652000118,0
{job=theodolite-stu200776/combined-trace-podmonitor},1652000123,0
{job=theodolite-stu200776/combined-trace-podmonitor},1652000128,0
{job=theodolite-stu200776/combined-trace-podmonitor},1652000133,0
{job=theodolite-stu200776/combined-trace-podmonitor},1652000138,0
{job=theodolite-stu200776/combined-trace-podmonitor},1652000143,0
{job=theodolite-stu200776/combined-trace-podmonitor},1652000148,0
{job=theodolite-stu200776/combined-trace-podmonitor},1652000153,0
{job=theodolite-stu200776/combined-trace-podmonitor},1652000158,0
