labels,timestamp,value
{consumergroup=__strimzi-topic-operator-kstreams},1651953369,3
{consumergroup=__strimzi-topic-operator-kstreams},1651953374,3
{consumergroup=__strimzi-topic-operator-kstreams},1651953379,3
{consumergroup=__strimzi-topic-operator-kstreams},1651953384,0
{consumergroup=__strimzi-topic-operator-kstreams},1651953389,0
{consumergroup=__strimzi-topic-operator-kstreams},1651953394,0
{consumergroup=__strimzi-topic-operator-kstreams},1651953399,3
{consumergroup=__strimzi-topic-operator-kstreams},1651953404,3
{consumergroup=__strimzi-topic-operator-kstreams},1651953409,3
{consumergroup=__strimzi-topic-operator-kstreams},1651953414,0
{consumergroup=__strimzi-topic-operator-kstreams},1651953419,0
{consumergroup=__strimzi-topic-operator-kstreams},1651953424,0
{consumergroup=__strimzi-topic-operator-kstreams},1651953429,0
{consumergroup=__strimzi-topic-operator-kstreams},1651953434,0
{consumergroup=__strimzi-topic-operator-kstreams},1651953439,0
{consumergroup=__strimzi-topic-operator-kstreams},1651953444,0
{consumergroup=__strimzi-topic-operator-kstreams},1651953449,0
{consumergroup=__strimzi-topic-operator-kstreams},1651953454,0
{consumergroup=__strimzi-topic-operator-kstreams},1651953459,0
{consumergroup=__strimzi-topic-operator-kstreams},1651953464,0
{consumergroup=__strimzi-topic-operator-kstreams},1651953469,0
{consumergroup=__strimzi-topic-operator-kstreams},1651953474,0
{consumergroup=__strimzi-topic-operator-kstreams},1651953479,0
{consumergroup=__strimzi-topic-operator-kstreams},1651953484,0
{consumergroup=__strimzi-topic-operator-kstreams},1651953489,0
{consumergroup=__strimzi-topic-operator-kstreams},1651953494,0
{consumergroup=__strimzi-topic-operator-kstreams},1651953499,0
{consumergroup=__strimzi-topic-operator-kstreams},1651953504,0
{consumergroup=__strimzi-topic-operator-kstreams},1651953509,0
{consumergroup=__strimzi-topic-operator-kstreams},1651953514,0
{consumergroup=__strimzi-topic-operator-kstreams},1651953519,0
{consumergroup=__strimzi-topic-operator-kstreams},1651953524,0
{consumergroup=__strimzi-topic-operator-kstreams},1651953529,0
{consumergroup=__strimzi-topic-operator-kstreams},1651953534,0
{consumergroup=__strimzi-topic-operator-kstreams},1651953539,0
{consumergroup=__strimzi-topic-operator-kstreams},1651953544,0
{consumergroup=__strimzi-topic-operator-kstreams},1651953549,0
{consumergroup=__strimzi-topic-operator-kstreams},1651953554,0
{consumergroup=__strimzi-topic-operator-kstreams},1651953559,0
{consumergroup=__strimzi-topic-operator-kstreams},1651953564,0
{consumergroup=__strimzi-topic-operator-kstreams},1651953569,0
{consumergroup=__strimzi-topic-operator-kstreams},1651953574,0
{consumergroup=__strimzi-topic-operator-kstreams},1651953579,0
{consumergroup=__strimzi-topic-operator-kstreams},1651953584,0
{consumergroup=__strimzi-topic-operator-kstreams},1651953589,0
{consumergroup=__strimzi-topic-operator-kstreams},1651953594,0
{consumergroup=__strimzi-topic-operator-kstreams},1651953599,0
{consumergroup=__strimzi-topic-operator-kstreams},1651953604,0
{consumergroup=__strimzi-topic-operator-kstreams},1651953609,0
{consumergroup=__strimzi-topic-operator-kstreams},1651953614,0
{consumergroup=__strimzi-topic-operator-kstreams},1651953619,0
{consumergroup=__strimzi-topic-operator-kstreams},1651953624,0
{consumergroup=__strimzi-topic-operator-kstreams},1651953629,0
{consumergroup=__strimzi-topic-operator-kstreams},1651953634,0
{consumergroup=__strimzi-topic-operator-kstreams},1651953639,0
{consumergroup=__strimzi-topic-operator-kstreams},1651953644,0
{consumergroup=__strimzi-topic-operator-kstreams},1651953649,0
{consumergroup=__strimzi-topic-operator-kstreams},1651953654,0
{consumergroup=__strimzi-topic-operator-kstreams},1651953659,0
{consumergroup=__strimzi-topic-operator-kstreams},1651953664,0
{consumergroup=__strimzi-topic-operator-kstreams},1651953669,0
{consumergroup=__strimzi-topic-operator-kstreams},1651953674,0
{consumergroup=__strimzi-topic-operator-kstreams},1651953679,0
{consumergroup=__strimzi-topic-operator-kstreams},1651953684,0
{consumergroup=__strimzi-topic-operator-kstreams},1651953689,0
{consumergroup=__strimzi-topic-operator-kstreams},1651953694,0
{consumergroup=__strimzi-topic-operator-kstreams},1651953699,0
{consumergroup=__strimzi-topic-operator-kstreams},1651953704,0
{consumergroup=__strimzi-topic-operator-kstreams},1651953709,0
{consumergroup=__strimzi-topic-operator-kstreams},1651953714,0
{consumergroup=__strimzi-topic-operator-kstreams},1651953719,0
{consumergroup=__strimzi-topic-operator-kstreams},1651953724,0
{consumergroup=__strimzi-topic-operator-kstreams},1651953729,0
{consumergroup=__strimzi-topic-operator-kstreams},1651953734,0
{consumergroup=__strimzi-topic-operator-kstreams},1651953739,0
{consumergroup=__strimzi-topic-operator-kstreams},1651953744,0
{consumergroup=__strimzi-topic-operator-kstreams},1651953749,0
{consumergroup=__strimzi-topic-operator-kstreams},1651953754,0
{consumergroup=__strimzi-topic-operator-kstreams},1651953759,0
{consumergroup=__strimzi-topic-operator-kstreams},1651953764,0
{consumergroup=__strimzi-topic-operator-kstreams},1651953769,0
{consumergroup=__strimzi-topic-operator-kstreams},1651953774,0
{consumergroup=__strimzi-topic-operator-kstreams},1651953779,0
{consumergroup=__strimzi-topic-operator-kstreams},1651953784,0
{consumergroup=__strimzi-topic-operator-kstreams},1651953789,0
{consumergroup=__strimzi-topic-operator-kstreams},1651953794,0
{consumergroup=__strimzi-topic-operator-kstreams},1651953799,0
{consumergroup=__strimzi-topic-operator-kstreams},1651953804,0
{consumergroup=__strimzi-topic-operator-kstreams},1651953809,0
{consumergroup=__strimzi-topic-operator-kstreams},1651953814,0
{consumergroup=__strimzi-topic-operator-kstreams},1651953819,0
{consumergroup=adapter-service},1651953399,0
{consumergroup=adapter-service},1651953404,0
{consumergroup=adapter-service},1651953409,0
{consumergroup=adapter-service},1651953414,2496
{consumergroup=adapter-service},1651953419,2496
{consumergroup=adapter-service},1651953424,2496
{consumergroup=adapter-service},1651953429,504
{consumergroup=adapter-service},1651953434,504
{consumergroup=adapter-service},1651953439,504
{consumergroup=adapter-service},1651953444,19867
{consumergroup=adapter-service},1651953449,19867
{consumergroup=adapter-service},1651953454,19867
{consumergroup=adapter-service},1651953459,111
{consumergroup=adapter-service},1651953464,111
{consumergroup=adapter-service},1651953469,111
{consumergroup=adapter-service},1651953474,0
{consumergroup=adapter-service},1651953479,0
{consumergroup=adapter-service},1651953484,0
{consumergroup=adapter-service},1651953489,0
{consumergroup=adapter-service},1651953494,0
{consumergroup=adapter-service},1651953499,0
{consumergroup=adapter-service},1651953504,17191
{consumergroup=adapter-service},1651953509,17191
{consumergroup=adapter-service},1651953514,17191
{consumergroup=adapter-service},1651953519,67
{consumergroup=adapter-service},1651953524,67
{consumergroup=adapter-service},1651953529,67
{consumergroup=adapter-service},1651953534,20844
{consumergroup=adapter-service},1651953539,20844
{consumergroup=adapter-service},1651953544,20844
{consumergroup=adapter-service},1651953549,20815
{consumergroup=adapter-service},1651953554,20815
{consumergroup=adapter-service},1651953559,20815
{consumergroup=adapter-service},1651953564,15826
{consumergroup=adapter-service},1651953569,15826
{consumergroup=adapter-service},1651953574,15826
{consumergroup=adapter-service},1651953579,20500
{consumergroup=adapter-service},1651953584,20500
{consumergroup=adapter-service},1651953589,20500
{consumergroup=adapter-service},1651953594,15374
{consumergroup=adapter-service},1651953599,15374
{consumergroup=adapter-service},1651953604,15374
{consumergroup=adapter-service},1651953609,20680
{consumergroup=adapter-service},1651953614,20680
{consumergroup=adapter-service},1651953619,20680
{consumergroup=adapter-service},1651953624,14482
{consumergroup=adapter-service},1651953629,14482
{consumergroup=adapter-service},1651953634,14482
{consumergroup=adapter-service},1651953639,18838
{consumergroup=adapter-service},1651953644,18838
{consumergroup=adapter-service},1651953649,18838
{consumergroup=adapter-service},1651953654,15072
{consumergroup=adapter-service},1651953659,15072
{consumergroup=adapter-service},1651953664,15072
{consumergroup=adapter-service},1651953669,18082
{consumergroup=adapter-service},1651953674,18082
{consumergroup=adapter-service},1651953679,18082
{consumergroup=adapter-service},1651953684,13071
{consumergroup=adapter-service},1651953689,13071
{consumergroup=adapter-service},1651953694,13071
{consumergroup=adapter-service},1651953699,17624
{consumergroup=adapter-service},1651953704,17624
{consumergroup=adapter-service},1651953709,17624
{consumergroup=adapter-service},1651953714,12422
{consumergroup=adapter-service},1651953719,12422
{consumergroup=adapter-service},1651953724,12422
{consumergroup=adapter-service},1651953729,17760
{consumergroup=adapter-service},1651953734,17760
{consumergroup=adapter-service},1651953739,17760
{consumergroup=adapter-service},1651953744,16242
{consumergroup=adapter-service},1651953749,16242
{consumergroup=adapter-service},1651953754,16242
{consumergroup=adapter-service},1651953759,16375
{consumergroup=adapter-service},1651953764,16375
{consumergroup=adapter-service},1651953769,16375
{consumergroup=adapter-service},1651953774,11175
{consumergroup=adapter-service},1651953779,11175
{consumergroup=adapter-service},1651953784,11175
{consumergroup=adapter-service},1651953789,16619
{consumergroup=adapter-service},1651953794,16619
{consumergroup=adapter-service},1651953799,16619
{consumergroup=adapter-service},1651953804,15014
{consumergroup=adapter-service},1651953809,15014
{consumergroup=adapter-service},1651953814,15014
{consumergroup=adapter-service},1651953819,16140
{consumergroup=landscape-service},1651953414,3947
{consumergroup=landscape-service},1651953419,3947
{consumergroup=landscape-service},1651953424,3947
{consumergroup=landscape-service},1651953429,6390
{consumergroup=landscape-service},1651953434,6390
{consumergroup=landscape-service},1651953439,6390
{consumergroup=landscape-service},1651953444,1748
{consumergroup=landscape-service},1651953449,1748
{consumergroup=landscape-service},1651953454,1748
{consumergroup=landscape-service},1651953459,7726
{consumergroup=landscape-service},1651953464,7726
{consumergroup=landscape-service},1651953469,7726
{consumergroup=landscape-service},1651953474,7246
{consumergroup=landscape-service},1651953479,7246
{consumergroup=landscape-service},1651953484,7246
{consumergroup=landscape-service},1651953489,6219
{consumergroup=landscape-service},1651953494,6219
{consumergroup=landscape-service},1651953499,6219
{consumergroup=landscape-service},1651953504,2576
{consumergroup=landscape-service},1651953509,2576
{consumergroup=landscape-service},1651953514,2576
{consumergroup=landscape-service},1651953519,7301
{consumergroup=landscape-service},1651953524,7301
{consumergroup=landscape-service},1651953529,7301
{consumergroup=landscape-service},1651953534,5543
{consumergroup=landscape-service},1651953539,5543
{consumergroup=landscape-service},1651953544,5543
{consumergroup=landscape-service},1651953549,7026
{consumergroup=landscape-service},1651953554,7026
{consumergroup=landscape-service},1651953559,7026
{consumergroup=landscape-service},1651953564,2149
{consumergroup=landscape-service},1651953569,2149
{consumergroup=landscape-service},1651953574,2149
{consumergroup=landscape-service},1651953579,6748
{consumergroup=landscape-service},1651953584,6748
{consumergroup=landscape-service},1651953589,6748
{consumergroup=landscape-service},1651953594,1124
{consumergroup=landscape-service},1651953599,1124
{consumergroup=landscape-service},1651953604,1124
{consumergroup=landscape-service},1651953609,5181
{consumergroup=landscape-service},1651953614,5181
{consumergroup=landscape-service},1651953619,5181
{consumergroup=landscape-service},1651953624,477
{consumergroup=landscape-service},1651953629,477
{consumergroup=landscape-service},1651953634,477
{consumergroup=landscape-service},1651953639,5003
{consumergroup=landscape-service},1651953644,5003
{consumergroup=landscape-service},1651953649,5003
{consumergroup=landscape-service},1651953654,643
{consumergroup=landscape-service},1651953659,643
{consumergroup=landscape-service},1651953664,643
{consumergroup=landscape-service},1651953669,5909
{consumergroup=landscape-service},1651953674,5909
{consumergroup=landscape-service},1651953679,5909
{consumergroup=landscape-service},1651953684,215
{consumergroup=landscape-service},1651953689,215
{consumergroup=landscape-service},1651953694,215
{consumergroup=landscape-service},1651953699,4510
{consumergroup=landscape-service},1651953704,4510
{consumergroup=landscape-service},1651953709,4510
{consumergroup=landscape-service},1651953714,961
{consumergroup=landscape-service},1651953719,961
{consumergroup=landscape-service},1651953724,961
{consumergroup=landscape-service},1651953729,4248
{consumergroup=landscape-service},1651953734,4248
{consumergroup=landscape-service},1651953739,4248
{consumergroup=landscape-service},1651953744,4161
{consumergroup=landscape-service},1651953749,4161
{consumergroup=landscape-service},1651953754,4161
{consumergroup=landscape-service},1651953759,5363
{consumergroup=landscape-service},1651953764,5363
{consumergroup=landscape-service},1651953769,5363
{consumergroup=landscape-service},1651953774,48
{consumergroup=landscape-service},1651953779,48
{consumergroup=landscape-service},1651953784,48
{consumergroup=landscape-service},1651953789,5091
{consumergroup=landscape-service},1651953794,5091
{consumergroup=landscape-service},1651953799,5091
{consumergroup=landscape-service},1651953804,3832
{consumergroup=landscape-service},1651953809,3832
{consumergroup=landscape-service},1651953814,3832
{consumergroup=landscape-service},1651953819,4167
{consumergroup=landscape-token-events-consumer},1651953399,0
{consumergroup=landscape-token-events-consumer},1651953404,0
{consumergroup=landscape-token-events-consumer},1651953409,0
{consumergroup=landscape-token-events-consumer},1651953414,0
{consumergroup=landscape-token-events-consumer},1651953419,0
{consumergroup=landscape-token-events-consumer},1651953424,0
{consumergroup=landscape-token-events-consumer},1651953429,0
{consumergroup=landscape-token-events-consumer},1651953434,0
{consumergroup=landscape-token-events-consumer},1651953439,0
{consumergroup=landscape-token-events-consumer},1651953444,0
{consumergroup=landscape-token-events-consumer},1651953449,0
{consumergroup=landscape-token-events-consumer},1651953454,0
{consumergroup=landscape-token-events-consumer},1651953459,0
{consumergroup=landscape-token-events-consumer},1651953464,0
{consumergroup=landscape-token-events-consumer},1651953469,0
{consumergroup=landscape-token-events-consumer},1651953474,0
{consumergroup=landscape-token-events-consumer},1651953479,0
{consumergroup=landscape-token-events-consumer},1651953484,0
{consumergroup=landscape-token-events-consumer},1651953489,0
{consumergroup=landscape-token-events-consumer},1651953494,0
{consumergroup=landscape-token-events-consumer},1651953499,0
{consumergroup=landscape-token-events-consumer},1651953504,0
{consumergroup=landscape-token-events-consumer},1651953509,0
{consumergroup=landscape-token-events-consumer},1651953514,0
{consumergroup=landscape-token-events-consumer},1651953519,0
{consumergroup=landscape-token-events-consumer},1651953524,0
{consumergroup=landscape-token-events-consumer},1651953529,0
{consumergroup=landscape-token-events-consumer},1651953534,0
{consumergroup=landscape-token-events-consumer},1651953539,0
{consumergroup=landscape-token-events-consumer},1651953544,0
{consumergroup=landscape-token-events-consumer},1651953549,0
{consumergroup=landscape-token-events-consumer},1651953554,0
{consumergroup=landscape-token-events-consumer},1651953559,0
{consumergroup=landscape-token-events-consumer},1651953564,0
{consumergroup=landscape-token-events-consumer},1651953569,0
{consumergroup=landscape-token-events-consumer},1651953574,0
{consumergroup=landscape-token-events-consumer},1651953579,0
{consumergroup=landscape-token-events-consumer},1651953584,0
{consumergroup=landscape-token-events-consumer},1651953589,0
{consumergroup=landscape-token-events-consumer},1651953594,0
{consumergroup=landscape-token-events-consumer},1651953599,0
{consumergroup=landscape-token-events-consumer},1651953604,0
{consumergroup=landscape-token-events-consumer},1651953609,0
{consumergroup=landscape-token-events-consumer},1651953614,0
{consumergroup=landscape-token-events-consumer},1651953619,0
{consumergroup=landscape-token-events-consumer},1651953624,0
{consumergroup=landscape-token-events-consumer},1651953629,0
{consumergroup=landscape-token-events-consumer},1651953634,0
{consumergroup=landscape-token-events-consumer},1651953639,0
{consumergroup=landscape-token-events-consumer},1651953644,0
{consumergroup=landscape-token-events-consumer},1651953649,0
{consumergroup=landscape-token-events-consumer},1651953654,0
{consumergroup=landscape-token-events-consumer},1651953659,0
{consumergroup=landscape-token-events-consumer},1651953664,0
{consumergroup=landscape-token-events-consumer},1651953669,0
{consumergroup=landscape-token-events-consumer},1651953674,0
{consumergroup=landscape-token-events-consumer},1651953679,0
{consumergroup=landscape-token-events-consumer},1651953684,0
{consumergroup=landscape-token-events-consumer},1651953689,0
{consumergroup=landscape-token-events-consumer},1651953694,0
{consumergroup=landscape-token-events-consumer},1651953699,0
{consumergroup=landscape-token-events-consumer},1651953704,0
{consumergroup=landscape-token-events-consumer},1651953709,0
{consumergroup=landscape-token-events-consumer},1651953714,0
{consumergroup=landscape-token-events-consumer},1651953719,0
{consumergroup=landscape-token-events-consumer},1651953724,0
{consumergroup=landscape-token-events-consumer},1651953729,0
{consumergroup=landscape-token-events-consumer},1651953734,0
{consumergroup=landscape-token-events-consumer},1651953739,0
{consumergroup=landscape-token-events-consumer},1651953744,0
{consumergroup=landscape-token-events-consumer},1651953749,0
{consumergroup=landscape-token-events-consumer},1651953754,0
{consumergroup=landscape-token-events-consumer},1651953759,0
{consumergroup=landscape-token-events-consumer},1651953764,0
{consumergroup=landscape-token-events-consumer},1651953769,0
{consumergroup=landscape-token-events-consumer},1651953774,0
{consumergroup=landscape-token-events-consumer},1651953779,0
{consumergroup=landscape-token-events-consumer},1651953784,0
{consumergroup=landscape-token-events-consumer},1651953789,0
{consumergroup=landscape-token-events-consumer},1651953794,0
{consumergroup=landscape-token-events-consumer},1651953799,0
{consumergroup=landscape-token-events-consumer},1651953804,0
{consumergroup=landscape-token-events-consumer},1651953809,0
{consumergroup=landscape-token-events-consumer},1651953814,0
{consumergroup=landscape-token-events-consumer},1651953819,0
{consumergroup=trace-service},1651953414,24430
{consumergroup=trace-service},1651953419,24430
{consumergroup=trace-service},1651953424,24430
{consumergroup=trace-service},1651953429,70418
{consumergroup=trace-service},1651953434,70418
{consumergroup=trace-service},1651953439,70418
{consumergroup=trace-service},1651953444,40144
{consumergroup=trace-service},1651953449,40144
{consumergroup=trace-service},1651953454,40144
{consumergroup=trace-service},1651953459,53154
{consumergroup=trace-service},1651953464,53154
{consumergroup=trace-service},1651953469,53154
{consumergroup=trace-service},1651953474,106342
{consumergroup=trace-service},1651953479,106342
{consumergroup=trace-service},1651953484,106342
{consumergroup=trace-service},1651953489,56881
{consumergroup=trace-service},1651953494,56881
{consumergroup=trace-service},1651953499,56881
{consumergroup=trace-service},1651953504,124497
{consumergroup=trace-service},1651953509,124497
{consumergroup=trace-service},1651953514,124497
{consumergroup=trace-service},1651953519,56088
{consumergroup=trace-service},1651953524,56088
{consumergroup=trace-service},1651953529,56088
{consumergroup=trace-service},1651953534,127570
{consumergroup=trace-service},1651953539,127570
{consumergroup=trace-service},1651953544,127570
{consumergroup=trace-service},1651953549,150324
{consumergroup=trace-service},1651953554,150324
{consumergroup=trace-service},1651953559,150324
{consumergroup=trace-service},1651953564,165972
{consumergroup=trace-service},1651953569,165972
{consumergroup=trace-service},1651953574,165972
{consumergroup=trace-service},1651953579,54392
{consumergroup=trace-service},1651953584,54392
{consumergroup=trace-service},1651953589,54392
{consumergroup=trace-service},1651953594,123286
{consumergroup=trace-service},1651953599,123286
{consumergroup=trace-service},1651953604,123286
{consumergroup=trace-service},1651953609,121762
{consumergroup=trace-service},1651953614,121762
{consumergroup=trace-service},1651953619,121762
{consumergroup=trace-service},1651953624,147916
{consumergroup=trace-service},1651953629,147916
{consumergroup=trace-service},1651953634,147916
{consumergroup=trace-service},1651953639,54383
{consumergroup=trace-service},1651953644,54383
{consumergroup=trace-service},1651953649,54383
{consumergroup=trace-service},1651953654,142214
{consumergroup=trace-service},1651953659,142214
{consumergroup=trace-service},1651953664,142214
{consumergroup=trace-service},1651953669,58249
{consumergroup=trace-service},1651953674,58249
{consumergroup=trace-service},1651953679,58249
{consumergroup=trace-service},1651953684,134359
{consumergroup=trace-service},1651953689,134359
{consumergroup=trace-service},1651953694,134359
{consumergroup=trace-service},1651953699,60012
{consumergroup=trace-service},1651953704,60012
{consumergroup=trace-service},1651953709,60012
{consumergroup=trace-service},1651953714,105529
{consumergroup=trace-service},1651953719,105529
{consumergroup=trace-service},1651953724,105529
{consumergroup=trace-service},1651953729,80608
{consumergroup=trace-service},1651953734,80608
{consumergroup=trace-service},1651953739,80608
{consumergroup=trace-service},1651953744,120575
{consumergroup=trace-service},1651953749,120575
{consumergroup=trace-service},1651953754,120575
{consumergroup=trace-service},1651953759,137837
{consumergroup=trace-service},1651953764,137837
{consumergroup=trace-service},1651953769,137837
{consumergroup=trace-service},1651953774,149576
{consumergroup=trace-service},1651953779,149576
{consumergroup=trace-service},1651953784,149576
{consumergroup=trace-service},1651953789,64018
{consumergroup=trace-service},1651953794,64018
{consumergroup=trace-service},1651953799,64018
{consumergroup=trace-service},1651953804,132243
{consumergroup=trace-service},1651953809,132243
{consumergroup=trace-service},1651953814,132243
{consumergroup=trace-service},1651953819,57514
{consumergroup=trace-token-events-consumer},1651953399,0
{consumergroup=trace-token-events-consumer},1651953404,0
{consumergroup=trace-token-events-consumer},1651953409,0
{consumergroup=trace-token-events-consumer},1651953414,0
{consumergroup=trace-token-events-consumer},1651953419,0
{consumergroup=trace-token-events-consumer},1651953424,0
{consumergroup=trace-token-events-consumer},1651953429,0
{consumergroup=trace-token-events-consumer},1651953434,0
{consumergroup=trace-token-events-consumer},1651953439,0
{consumergroup=trace-token-events-consumer},1651953444,0
{consumergroup=trace-token-events-consumer},1651953449,0
{consumergroup=trace-token-events-consumer},1651953454,0
{consumergroup=trace-token-events-consumer},1651953459,0
{consumergroup=trace-token-events-consumer},1651953464,0
{consumergroup=trace-token-events-consumer},1651953469,0
{consumergroup=trace-token-events-consumer},1651953474,0
{consumergroup=trace-token-events-consumer},1651953479,0
{consumergroup=trace-token-events-consumer},1651953484,0
{consumergroup=trace-token-events-consumer},1651953489,0
{consumergroup=trace-token-events-consumer},1651953494,0
{consumergroup=trace-token-events-consumer},1651953499,0
{consumergroup=trace-token-events-consumer},1651953504,0
{consumergroup=trace-token-events-consumer},1651953509,0
{consumergroup=trace-token-events-consumer},1651953514,0
{consumergroup=trace-token-events-consumer},1651953519,0
{consumergroup=trace-token-events-consumer},1651953524,0
{consumergroup=trace-token-events-consumer},1651953529,0
{consumergroup=trace-token-events-consumer},1651953534,0
{consumergroup=trace-token-events-consumer},1651953539,0
{consumergroup=trace-token-events-consumer},1651953544,0
{consumergroup=trace-token-events-consumer},1651953549,0
{consumergroup=trace-token-events-consumer},1651953554,0
{consumergroup=trace-token-events-consumer},1651953559,0
{consumergroup=trace-token-events-consumer},1651953564,0
{consumergroup=trace-token-events-consumer},1651953569,0
{consumergroup=trace-token-events-consumer},1651953574,0
{consumergroup=trace-token-events-consumer},1651953579,0
{consumergroup=trace-token-events-consumer},1651953584,0
{consumergroup=trace-token-events-consumer},1651953589,0
{consumergroup=trace-token-events-consumer},1651953594,0
{consumergroup=trace-token-events-consumer},1651953599,0
{consumergroup=trace-token-events-consumer},1651953604,0
{consumergroup=trace-token-events-consumer},1651953609,0
{consumergroup=trace-token-events-consumer},1651953614,0
{consumergroup=trace-token-events-consumer},1651953619,0
{consumergroup=trace-token-events-consumer},1651953624,0
{consumergroup=trace-token-events-consumer},1651953629,0
{consumergroup=trace-token-events-consumer},1651953634,0
{consumergroup=trace-token-events-consumer},1651953639,0
{consumergroup=trace-token-events-consumer},1651953644,0
{consumergroup=trace-token-events-consumer},1651953649,0
{consumergroup=trace-token-events-consumer},1651953654,0
{consumergroup=trace-token-events-consumer},1651953659,0
{consumergroup=trace-token-events-consumer},1651953664,0
{consumergroup=trace-token-events-consumer},1651953669,0
{consumergroup=trace-token-events-consumer},1651953674,0
{consumergroup=trace-token-events-consumer},1651953679,0
{consumergroup=trace-token-events-consumer},1651953684,0
{consumergroup=trace-token-events-consumer},1651953689,0
{consumergroup=trace-token-events-consumer},1651953694,0
{consumergroup=trace-token-events-consumer},1651953699,0
{consumergroup=trace-token-events-consumer},1651953704,0
{consumergroup=trace-token-events-consumer},1651953709,0
{consumergroup=trace-token-events-consumer},1651953714,0
{consumergroup=trace-token-events-consumer},1651953719,0
{consumergroup=trace-token-events-consumer},1651953724,0
{consumergroup=trace-token-events-consumer},1651953729,0
{consumergroup=trace-token-events-consumer},1651953734,0
{consumergroup=trace-token-events-consumer},1651953739,0
{consumergroup=trace-token-events-consumer},1651953744,0
{consumergroup=trace-token-events-consumer},1651953749,0
{consumergroup=trace-token-events-consumer},1651953754,0
{consumergroup=trace-token-events-consumer},1651953759,0
{consumergroup=trace-token-events-consumer},1651953764,0
{consumergroup=trace-token-events-consumer},1651953769,0
{consumergroup=trace-token-events-consumer},1651953774,0
{consumergroup=trace-token-events-consumer},1651953779,0
{consumergroup=trace-token-events-consumer},1651953784,0
{consumergroup=trace-token-events-consumer},1651953789,0
{consumergroup=trace-token-events-consumer},1651953794,0
{consumergroup=trace-token-events-consumer},1651953799,0
{consumergroup=trace-token-events-consumer},1651953804,0
{consumergroup=trace-token-events-consumer},1651953809,0
{consumergroup=trace-token-events-consumer},1651953814,0
{consumergroup=trace-token-events-consumer},1651953819,0
