labels,timestamp,value
{consumergroup=__strimzi-topic-operator-kstreams},1651969957,0
{consumergroup=__strimzi-topic-operator-kstreams},1651969962,0
{consumergroup=__strimzi-topic-operator-kstreams},1651969967,0
{consumergroup=__strimzi-topic-operator-kstreams},1651969972,8
{consumergroup=__strimzi-topic-operator-kstreams},1651969977,8
{consumergroup=__strimzi-topic-operator-kstreams},1651969982,8
{consumergroup=__strimzi-topic-operator-kstreams},1651969987,0
{consumergroup=__strimzi-topic-operator-kstreams},1651969992,0
{consumergroup=__strimzi-topic-operator-kstreams},1651969997,0
{consumergroup=__strimzi-topic-operator-kstreams},1651970002,0
{consumergroup=__strimzi-topic-operator-kstreams},1651970007,0
{consumergroup=__strimzi-topic-operator-kstreams},1651970012,0
{consumergroup=__strimzi-topic-operator-kstreams},1651970017,0
{consumergroup=__strimzi-topic-operator-kstreams},1651970022,0
{consumergroup=__strimzi-topic-operator-kstreams},1651970027,0
{consumergroup=__strimzi-topic-operator-kstreams},1651970032,0
{consumergroup=__strimzi-topic-operator-kstreams},1651970037,0
{consumergroup=__strimzi-topic-operator-kstreams},1651970042,0
{consumergroup=__strimzi-topic-operator-kstreams},1651970047,0
{consumergroup=__strimzi-topic-operator-kstreams},1651970052,0
{consumergroup=__strimzi-topic-operator-kstreams},1651970057,0
{consumergroup=__strimzi-topic-operator-kstreams},1651970062,0
{consumergroup=__strimzi-topic-operator-kstreams},1651970067,0
{consumergroup=__strimzi-topic-operator-kstreams},1651970072,0
{consumergroup=__strimzi-topic-operator-kstreams},1651970077,0
{consumergroup=__strimzi-topic-operator-kstreams},1651970082,0
{consumergroup=__strimzi-topic-operator-kstreams},1651970087,0
{consumergroup=__strimzi-topic-operator-kstreams},1651970092,0
{consumergroup=__strimzi-topic-operator-kstreams},1651970097,0
{consumergroup=__strimzi-topic-operator-kstreams},1651970102,0
{consumergroup=__strimzi-topic-operator-kstreams},1651970107,0
{consumergroup=__strimzi-topic-operator-kstreams},1651970112,0
{consumergroup=__strimzi-topic-operator-kstreams},1651970117,0
{consumergroup=__strimzi-topic-operator-kstreams},1651970122,0
{consumergroup=__strimzi-topic-operator-kstreams},1651970127,0
{consumergroup=__strimzi-topic-operator-kstreams},1651970132,0
{consumergroup=__strimzi-topic-operator-kstreams},1651970137,0
{consumergroup=__strimzi-topic-operator-kstreams},1651970142,0
{consumergroup=__strimzi-topic-operator-kstreams},1651970147,0
{consumergroup=__strimzi-topic-operator-kstreams},1651970152,0
{consumergroup=__strimzi-topic-operator-kstreams},1651970157,0
{consumergroup=__strimzi-topic-operator-kstreams},1651970162,0
{consumergroup=__strimzi-topic-operator-kstreams},1651970167,0
{consumergroup=__strimzi-topic-operator-kstreams},1651970172,0
{consumergroup=__strimzi-topic-operator-kstreams},1651970177,0
{consumergroup=__strimzi-topic-operator-kstreams},1651970182,0
{consumergroup=__strimzi-topic-operator-kstreams},1651970187,0
{consumergroup=__strimzi-topic-operator-kstreams},1651970192,0
{consumergroup=__strimzi-topic-operator-kstreams},1651970197,0
{consumergroup=__strimzi-topic-operator-kstreams},1651970202,0
{consumergroup=__strimzi-topic-operator-kstreams},1651970207,0
{consumergroup=__strimzi-topic-operator-kstreams},1651970212,0
{consumergroup=__strimzi-topic-operator-kstreams},1651970217,0
{consumergroup=__strimzi-topic-operator-kstreams},1651970222,0
{consumergroup=__strimzi-topic-operator-kstreams},1651970227,0
{consumergroup=__strimzi-topic-operator-kstreams},1651970232,0
{consumergroup=__strimzi-topic-operator-kstreams},1651970237,0
{consumergroup=__strimzi-topic-operator-kstreams},1651970242,0
{consumergroup=__strimzi-topic-operator-kstreams},1651970247,0
{consumergroup=__strimzi-topic-operator-kstreams},1651970252,0
{consumergroup=__strimzi-topic-operator-kstreams},1651970257,0
{consumergroup=__strimzi-topic-operator-kstreams},1651970262,0
{consumergroup=__strimzi-topic-operator-kstreams},1651970267,0
{consumergroup=__strimzi-topic-operator-kstreams},1651970272,0
{consumergroup=__strimzi-topic-operator-kstreams},1651970277,0
{consumergroup=__strimzi-topic-operator-kstreams},1651970282,0
{consumergroup=__strimzi-topic-operator-kstreams},1651970287,0
{consumergroup=__strimzi-topic-operator-kstreams},1651970292,0
{consumergroup=__strimzi-topic-operator-kstreams},1651970297,0
{consumergroup=__strimzi-topic-operator-kstreams},1651970302,0
{consumergroup=__strimzi-topic-operator-kstreams},1651970307,0
{consumergroup=__strimzi-topic-operator-kstreams},1651970312,0
{consumergroup=__strimzi-topic-operator-kstreams},1651970317,0
{consumergroup=__strimzi-topic-operator-kstreams},1651970322,0
{consumergroup=__strimzi-topic-operator-kstreams},1651970327,0
{consumergroup=__strimzi-topic-operator-kstreams},1651970332,0
{consumergroup=__strimzi-topic-operator-kstreams},1651970337,0
{consumergroup=__strimzi-topic-operator-kstreams},1651970342,0
{consumergroup=__strimzi-topic-operator-kstreams},1651970347,0
{consumergroup=__strimzi-topic-operator-kstreams},1651970352,0
{consumergroup=__strimzi-topic-operator-kstreams},1651970357,0
{consumergroup=__strimzi-topic-operator-kstreams},1651970362,0
{consumergroup=__strimzi-topic-operator-kstreams},1651970367,0
{consumergroup=__strimzi-topic-operator-kstreams},1651970372,0
{consumergroup=__strimzi-topic-operator-kstreams},1651970377,0
{consumergroup=__strimzi-topic-operator-kstreams},1651970382,0
{consumergroup=__strimzi-topic-operator-kstreams},1651970387,0
{consumergroup=__strimzi-topic-operator-kstreams},1651970392,0
{consumergroup=__strimzi-topic-operator-kstreams},1651970397,0
{consumergroup=__strimzi-topic-operator-kstreams},1651970402,0
{consumergroup=__strimzi-topic-operator-kstreams},1651970407,0
{consumergroup=adapter-service},1651969987,0
{consumergroup=adapter-service},1651969992,0
{consumergroup=adapter-service},1651969997,0
{consumergroup=adapter-service},1651970002,3786
{consumergroup=adapter-service},1651970007,3786
{consumergroup=adapter-service},1651970012,3786
{consumergroup=adapter-service},1651970017,464
{consumergroup=adapter-service},1651970022,464
{consumergroup=adapter-service},1651970027,464
{consumergroup=adapter-service},1651970032,619
{consumergroup=adapter-service},1651970037,619
{consumergroup=adapter-service},1651970042,619
{consumergroup=adapter-service},1651970047,172
{consumergroup=adapter-service},1651970052,172
{consumergroup=adapter-service},1651970057,172
{consumergroup=adapter-service},1651970062,1409
{consumergroup=adapter-service},1651970067,1409
{consumergroup=adapter-service},1651970072,1409
{consumergroup=adapter-service},1651970077,1387
{consumergroup=adapter-service},1651970082,1387
{consumergroup=adapter-service},1651970087,1387
{consumergroup=adapter-service},1651970092,1199
{consumergroup=adapter-service},1651970097,1199
{consumergroup=adapter-service},1651970102,1199
{consumergroup=adapter-service},1651970107,1127
{consumergroup=adapter-service},1651970112,1127
{consumergroup=adapter-service},1651970117,1127
{consumergroup=adapter-service},1651970122,885
{consumergroup=adapter-service},1651970127,885
{consumergroup=adapter-service},1651970132,885
{consumergroup=adapter-service},1651970137,5981
{consumergroup=adapter-service},1651970142,5981
{consumergroup=adapter-service},1651970147,5981
{consumergroup=adapter-service},1651970152,625
{consumergroup=adapter-service},1651970157,625
{consumergroup=adapter-service},1651970162,625
{consumergroup=adapter-service},1651970167,6123
{consumergroup=adapter-service},1651970172,6123
{consumergroup=adapter-service},1651970177,6123
{consumergroup=adapter-service},1651970182,811
{consumergroup=adapter-service},1651970187,811
{consumergroup=adapter-service},1651970192,811
{consumergroup=adapter-service},1651970197,5903
{consumergroup=adapter-service},1651970202,5903
{consumergroup=adapter-service},1651970207,5903
{consumergroup=adapter-service},1651970212,250
{consumergroup=adapter-service},1651970217,250
{consumergroup=adapter-service},1651970222,250
{consumergroup=adapter-service},1651970227,5978
{consumergroup=adapter-service},1651970232,5978
{consumergroup=adapter-service},1651970237,5978
{consumergroup=adapter-service},1651970242,1159
{consumergroup=adapter-service},1651970247,1159
{consumergroup=adapter-service},1651970252,1159
{consumergroup=adapter-service},1651970257,5297
{consumergroup=adapter-service},1651970262,5297
{consumergroup=adapter-service},1651970267,5297
{consumergroup=adapter-service},1651970272,1026
{consumergroup=adapter-service},1651970277,1026
{consumergroup=adapter-service},1651970282,1026
{consumergroup=adapter-service},1651970287,4959
{consumergroup=adapter-service},1651970292,4959
{consumergroup=adapter-service},1651970297,4959
{consumergroup=adapter-service},1651970302,4212
{consumergroup=adapter-service},1651970307,4212
{consumergroup=adapter-service},1651970312,4212
{consumergroup=adapter-service},1651970317,4902
{consumergroup=adapter-service},1651970322,4902
{consumergroup=adapter-service},1651970327,4902
{consumergroup=adapter-service},1651970332,6128
{consumergroup=adapter-service},1651970337,6128
{consumergroup=adapter-service},1651970342,6128
{consumergroup=adapter-service},1651970347,4948
{consumergroup=adapter-service},1651970352,4948
{consumergroup=adapter-service},1651970357,4948
{consumergroup=adapter-service},1651970362,6194
{consumergroup=adapter-service},1651970367,6194
{consumergroup=adapter-service},1651970372,6194
{consumergroup=adapter-service},1651970377,4344
{consumergroup=adapter-service},1651970382,4344
{consumergroup=adapter-service},1651970387,4344
{consumergroup=adapter-service},1651970392,5595
{consumergroup=adapter-service},1651970397,5595
{consumergroup=adapter-service},1651970402,5595
{consumergroup=adapter-service},1651970407,3701
{consumergroup=landscape-service},1651970002,80
{consumergroup=landscape-service},1651970007,80
{consumergroup=landscape-service},1651970012,80
{consumergroup=landscape-service},1651970017,2727
{consumergroup=landscape-service},1651970022,2727
{consumergroup=landscape-service},1651970027,2727
{consumergroup=landscape-service},1651970032,2550
{consumergroup=landscape-service},1651970037,2550
{consumergroup=landscape-service},1651970042,2550
{consumergroup=landscape-service},1651970047,2471
{consumergroup=landscape-service},1651970052,2471
{consumergroup=landscape-service},1651970057,2471
{consumergroup=landscape-service},1651970062,3720
{consumergroup=landscape-service},1651970067,3720
{consumergroup=landscape-service},1651970072,3720
{consumergroup=landscape-service},1651970077,2650
{consumergroup=landscape-service},1651970082,2650
{consumergroup=landscape-service},1651970087,2650
{consumergroup=landscape-service},1651970092,3716
{consumergroup=landscape-service},1651970097,3716
{consumergroup=landscape-service},1651970102,3716
{consumergroup=landscape-service},1651970107,2309
{consumergroup=landscape-service},1651970112,2309
{consumergroup=landscape-service},1651970117,2309
{consumergroup=landscape-service},1651970122,3920
{consumergroup=landscape-service},1651970127,3920
{consumergroup=landscape-service},1651970132,3920
{consumergroup=landscape-service},1651970137,3630
{consumergroup=landscape-service},1651970142,3630
{consumergroup=landscape-service},1651970147,3630
{consumergroup=landscape-service},1651970152,3497
{consumergroup=landscape-service},1651970157,3497
{consumergroup=landscape-service},1651970162,3497
{consumergroup=landscape-service},1651970167,4711
{consumergroup=landscape-service},1651970172,4711
{consumergroup=landscape-service},1651970177,4711
{consumergroup=landscape-service},1651970182,3394
{consumergroup=landscape-service},1651970187,3394
{consumergroup=landscape-service},1651970192,3394
{consumergroup=landscape-service},1651970197,4654
{consumergroup=landscape-service},1651970202,4654
{consumergroup=landscape-service},1651970207,4654
{consumergroup=landscape-service},1651970212,3313
{consumergroup=landscape-service},1651970217,3313
{consumergroup=landscape-service},1651970222,3313
{consumergroup=landscape-service},1651970227,4493
{consumergroup=landscape-service},1651970232,4493
{consumergroup=landscape-service},1651970237,4493
{consumergroup=landscape-service},1651970242,3510
{consumergroup=landscape-service},1651970247,3510
{consumergroup=landscape-service},1651970252,3510
{consumergroup=landscape-service},1651970257,4339
{consumergroup=landscape-service},1651970262,4339
{consumergroup=landscape-service},1651970267,4339
{consumergroup=landscape-service},1651970272,3371
{consumergroup=landscape-service},1651970277,3371
{consumergroup=landscape-service},1651970282,3371
{consumergroup=landscape-service},1651970287,3355
{consumergroup=landscape-service},1651970292,3355
{consumergroup=landscape-service},1651970297,3355
{consumergroup=landscape-service},1651970302,2952
{consumergroup=landscape-service},1651970307,2952
{consumergroup=landscape-service},1651970312,2952
{consumergroup=landscape-service},1651970317,3830
{consumergroup=landscape-service},1651970322,3830
{consumergroup=landscape-service},1651970327,3830
{consumergroup=landscape-service},1651970332,2871
{consumergroup=landscape-service},1651970337,2871
{consumergroup=landscape-service},1651970342,2871
{consumergroup=landscape-service},1651970347,3740
{consumergroup=landscape-service},1651970352,3740
{consumergroup=landscape-service},1651970357,3740
{consumergroup=landscape-service},1651970362,2888
{consumergroup=landscape-service},1651970367,2888
{consumergroup=landscape-service},1651970372,2888
{consumergroup=landscape-service},1651970377,3732
{consumergroup=landscape-service},1651970382,3732
{consumergroup=landscape-service},1651970387,3732
{consumergroup=landscape-service},1651970392,2759
{consumergroup=landscape-service},1651970397,2759
{consumergroup=landscape-service},1651970402,2759
{consumergroup=landscape-service},1651970407,2872
{consumergroup=landscape-token-events-consumer},1651969987,0
{consumergroup=landscape-token-events-consumer},1651969992,0
{consumergroup=landscape-token-events-consumer},1651969997,0
{consumergroup=landscape-token-events-consumer},1651970002,0
{consumergroup=landscape-token-events-consumer},1651970007,0
{consumergroup=landscape-token-events-consumer},1651970012,0
{consumergroup=landscape-token-events-consumer},1651970017,0
{consumergroup=landscape-token-events-consumer},1651970022,0
{consumergroup=landscape-token-events-consumer},1651970027,0
{consumergroup=landscape-token-events-consumer},1651970032,0
{consumergroup=landscape-token-events-consumer},1651970037,0
{consumergroup=landscape-token-events-consumer},1651970042,0
{consumergroup=landscape-token-events-consumer},1651970047,0
{consumergroup=landscape-token-events-consumer},1651970052,0
{consumergroup=landscape-token-events-consumer},1651970057,0
{consumergroup=landscape-token-events-consumer},1651970062,0
{consumergroup=landscape-token-events-consumer},1651970067,0
{consumergroup=landscape-token-events-consumer},1651970072,0
{consumergroup=landscape-token-events-consumer},1651970077,0
{consumergroup=landscape-token-events-consumer},1651970082,0
{consumergroup=landscape-token-events-consumer},1651970087,0
{consumergroup=landscape-token-events-consumer},1651970092,0
{consumergroup=landscape-token-events-consumer},1651970097,0
{consumergroup=landscape-token-events-consumer},1651970102,0
{consumergroup=landscape-token-events-consumer},1651970107,0
{consumergroup=landscape-token-events-consumer},1651970112,0
{consumergroup=landscape-token-events-consumer},1651970117,0
{consumergroup=landscape-token-events-consumer},1651970122,0
{consumergroup=landscape-token-events-consumer},1651970127,0
{consumergroup=landscape-token-events-consumer},1651970132,0
{consumergroup=landscape-token-events-consumer},1651970137,0
{consumergroup=landscape-token-events-consumer},1651970142,0
{consumergroup=landscape-token-events-consumer},1651970147,0
{consumergroup=landscape-token-events-consumer},1651970152,0
{consumergroup=landscape-token-events-consumer},1651970157,0
{consumergroup=landscape-token-events-consumer},1651970162,0
{consumergroup=landscape-token-events-consumer},1651970167,0
{consumergroup=landscape-token-events-consumer},1651970172,0
{consumergroup=landscape-token-events-consumer},1651970177,0
{consumergroup=landscape-token-events-consumer},1651970182,0
{consumergroup=landscape-token-events-consumer},1651970187,0
{consumergroup=landscape-token-events-consumer},1651970192,0
{consumergroup=landscape-token-events-consumer},1651970197,0
{consumergroup=landscape-token-events-consumer},1651970202,0
{consumergroup=landscape-token-events-consumer},1651970207,0
{consumergroup=landscape-token-events-consumer},1651970212,0
{consumergroup=landscape-token-events-consumer},1651970217,0
{consumergroup=landscape-token-events-consumer},1651970222,0
{consumergroup=landscape-token-events-consumer},1651970227,0
{consumergroup=landscape-token-events-consumer},1651970232,0
{consumergroup=landscape-token-events-consumer},1651970237,0
{consumergroup=landscape-token-events-consumer},1651970242,0
{consumergroup=landscape-token-events-consumer},1651970247,0
{consumergroup=landscape-token-events-consumer},1651970252,0
{consumergroup=landscape-token-events-consumer},1651970257,0
{consumergroup=landscape-token-events-consumer},1651970262,0
{consumergroup=landscape-token-events-consumer},1651970267,0
{consumergroup=landscape-token-events-consumer},1651970272,0
{consumergroup=landscape-token-events-consumer},1651970277,0
{consumergroup=landscape-token-events-consumer},1651970282,0
{consumergroup=landscape-token-events-consumer},1651970287,0
{consumergroup=landscape-token-events-consumer},1651970292,0
{consumergroup=landscape-token-events-consumer},1651970297,0
{consumergroup=landscape-token-events-consumer},1651970302,0
{consumergroup=landscape-token-events-consumer},1651970307,0
{consumergroup=landscape-token-events-consumer},1651970312,0
{consumergroup=landscape-token-events-consumer},1651970317,0
{consumergroup=landscape-token-events-consumer},1651970322,0
{consumergroup=landscape-token-events-consumer},1651970327,0
{consumergroup=landscape-token-events-consumer},1651970332,0
{consumergroup=landscape-token-events-consumer},1651970337,0
{consumergroup=landscape-token-events-consumer},1651970342,0
{consumergroup=landscape-token-events-consumer},1651970347,0
{consumergroup=landscape-token-events-consumer},1651970352,0
{consumergroup=landscape-token-events-consumer},1651970357,0
{consumergroup=landscape-token-events-consumer},1651970362,0
{consumergroup=landscape-token-events-consumer},1651970367,0
{consumergroup=landscape-token-events-consumer},1651970372,0
{consumergroup=landscape-token-events-consumer},1651970377,0
{consumergroup=landscape-token-events-consumer},1651970382,0
{consumergroup=landscape-token-events-consumer},1651970387,0
{consumergroup=landscape-token-events-consumer},1651970392,0
{consumergroup=landscape-token-events-consumer},1651970397,0
{consumergroup=landscape-token-events-consumer},1651970402,0
{consumergroup=landscape-token-events-consumer},1651970407,0
{consumergroup=trace-service},1651970002,3628
{consumergroup=trace-service},1651970007,3628
{consumergroup=trace-service},1651970012,3628
{consumergroup=trace-service},1651970017,17794
{consumergroup=trace-service},1651970022,17794
{consumergroup=trace-service},1651970027,17794
{consumergroup=trace-service},1651970032,13359
{consumergroup=trace-service},1651970037,13359
{consumergroup=trace-service},1651970042,13359
{consumergroup=trace-service},1651970047,11790
{consumergroup=trace-service},1651970052,11790
{consumergroup=trace-service},1651970057,11790
{consumergroup=trace-service},1651970062,4830
{consumergroup=trace-service},1651970067,4830
{consumergroup=trace-service},1651970072,4830
{consumergroup=trace-service},1651970077,12372
{consumergroup=trace-service},1651970082,12372
{consumergroup=trace-service},1651970087,12372
{consumergroup=trace-service},1651970092,4941
{consumergroup=trace-service},1651970097,4941
{consumergroup=trace-service},1651970102,4941
{consumergroup=trace-service},1651970107,11535
{consumergroup=trace-service},1651970112,11535
{consumergroup=trace-service},1651970117,11535
{consumergroup=trace-service},1651970122,5181
{consumergroup=trace-service},1651970127,5181
{consumergroup=trace-service},1651970132,5181
{consumergroup=trace-service},1651970137,11465
{consumergroup=trace-service},1651970142,11465
{consumergroup=trace-service},1651970147,11465
{consumergroup=trace-service},1651970152,5423
{consumergroup=trace-service},1651970157,5423
{consumergroup=trace-service},1651970162,5423
{consumergroup=trace-service},1651970167,11908
{consumergroup=trace-service},1651970172,11908
{consumergroup=trace-service},1651970177,11908
{consumergroup=trace-service},1651970182,3823
{consumergroup=trace-service},1651970187,3823
{consumergroup=trace-service},1651970192,3823
{consumergroup=trace-service},1651970197,12433
{consumergroup=trace-service},1651970202,12433
{consumergroup=trace-service},1651970207,12433
{consumergroup=trace-service},1651970212,4675
{consumergroup=trace-service},1651970217,4675
{consumergroup=trace-service},1651970222,4675
{consumergroup=trace-service},1651970227,11458
{consumergroup=trace-service},1651970232,11458
{consumergroup=trace-service},1651970237,11458
{consumergroup=trace-service},1651970242,5653
{consumergroup=trace-service},1651970247,5653
{consumergroup=trace-service},1651970252,5653
{consumergroup=trace-service},1651970257,8578
{consumergroup=trace-service},1651970262,8578
{consumergroup=trace-service},1651970267,8578
{consumergroup=trace-service},1651970272,4552
{consumergroup=trace-service},1651970277,4552
{consumergroup=trace-service},1651970282,4552
{consumergroup=trace-service},1651970287,9454
{consumergroup=trace-service},1651970292,9454
{consumergroup=trace-service},1651970297,9454
{consumergroup=trace-service},1651970302,5021
{consumergroup=trace-service},1651970307,5021
{consumergroup=trace-service},1651970312,5021
{consumergroup=trace-service},1651970317,12946
{consumergroup=trace-service},1651970322,12946
{consumergroup=trace-service},1651970327,12946
{consumergroup=trace-service},1651970332,9734
{consumergroup=trace-service},1651970337,9734
{consumergroup=trace-service},1651970342,9734
{consumergroup=trace-service},1651970347,10252
{consumergroup=trace-service},1651970352,10252
{consumergroup=trace-service},1651970357,10252
{consumergroup=trace-service},1651970362,7583
{consumergroup=trace-service},1651970367,7583
{consumergroup=trace-service},1651970372,7583
{consumergroup=trace-service},1651970377,12527
{consumergroup=trace-service},1651970382,12527
{consumergroup=trace-service},1651970387,12527
{consumergroup=trace-service},1651970392,2728
{consumergroup=trace-service},1651970397,2728
{consumergroup=trace-service},1651970402,2728
{consumergroup=trace-service},1651970407,11048
{consumergroup=trace-token-events-consumer},1651970002,0
{consumergroup=trace-token-events-consumer},1651970007,0
{consumergroup=trace-token-events-consumer},1651970012,0
{consumergroup=trace-token-events-consumer},1651970017,0
{consumergroup=trace-token-events-consumer},1651970022,0
{consumergroup=trace-token-events-consumer},1651970027,0
{consumergroup=trace-token-events-consumer},1651970032,0
{consumergroup=trace-token-events-consumer},1651970037,0
{consumergroup=trace-token-events-consumer},1651970042,0
{consumergroup=trace-token-events-consumer},1651970047,0
{consumergroup=trace-token-events-consumer},1651970052,0
{consumergroup=trace-token-events-consumer},1651970057,0
{consumergroup=trace-token-events-consumer},1651970062,0
{consumergroup=trace-token-events-consumer},1651970067,0
{consumergroup=trace-token-events-consumer},1651970072,0
{consumergroup=trace-token-events-consumer},1651970077,0
{consumergroup=trace-token-events-consumer},1651970082,0
{consumergroup=trace-token-events-consumer},1651970087,0
{consumergroup=trace-token-events-consumer},1651970092,0
{consumergroup=trace-token-events-consumer},1651970097,0
{consumergroup=trace-token-events-consumer},1651970102,0
{consumergroup=trace-token-events-consumer},1651970107,0
{consumergroup=trace-token-events-consumer},1651970112,0
{consumergroup=trace-token-events-consumer},1651970117,0
{consumergroup=trace-token-events-consumer},1651970122,0
{consumergroup=trace-token-events-consumer},1651970127,0
{consumergroup=trace-token-events-consumer},1651970132,0
{consumergroup=trace-token-events-consumer},1651970137,0
{consumergroup=trace-token-events-consumer},1651970142,0
{consumergroup=trace-token-events-consumer},1651970147,0
{consumergroup=trace-token-events-consumer},1651970152,0
{consumergroup=trace-token-events-consumer},1651970157,0
{consumergroup=trace-token-events-consumer},1651970162,0
{consumergroup=trace-token-events-consumer},1651970167,0
{consumergroup=trace-token-events-consumer},1651970172,0
{consumergroup=trace-token-events-consumer},1651970177,0
{consumergroup=trace-token-events-consumer},1651970182,0
{consumergroup=trace-token-events-consumer},1651970187,0
{consumergroup=trace-token-events-consumer},1651970192,0
{consumergroup=trace-token-events-consumer},1651970197,0
{consumergroup=trace-token-events-consumer},1651970202,0
{consumergroup=trace-token-events-consumer},1651970207,0
{consumergroup=trace-token-events-consumer},1651970212,0
{consumergroup=trace-token-events-consumer},1651970217,0
{consumergroup=trace-token-events-consumer},1651970222,0
{consumergroup=trace-token-events-consumer},1651970227,0
{consumergroup=trace-token-events-consumer},1651970232,0
{consumergroup=trace-token-events-consumer},1651970237,0
{consumergroup=trace-token-events-consumer},1651970242,0
{consumergroup=trace-token-events-consumer},1651970247,0
{consumergroup=trace-token-events-consumer},1651970252,0
{consumergroup=trace-token-events-consumer},1651970257,0
{consumergroup=trace-token-events-consumer},1651970262,0
{consumergroup=trace-token-events-consumer},1651970267,0
{consumergroup=trace-token-events-consumer},1651970272,0
{consumergroup=trace-token-events-consumer},1651970277,0
{consumergroup=trace-token-events-consumer},1651970282,0
{consumergroup=trace-token-events-consumer},1651970287,0
{consumergroup=trace-token-events-consumer},1651970292,0
{consumergroup=trace-token-events-consumer},1651970297,0
{consumergroup=trace-token-events-consumer},1651970302,0
{consumergroup=trace-token-events-consumer},1651970307,0
{consumergroup=trace-token-events-consumer},1651970312,0
{consumergroup=trace-token-events-consumer},1651970317,0
{consumergroup=trace-token-events-consumer},1651970322,0
{consumergroup=trace-token-events-consumer},1651970327,0
{consumergroup=trace-token-events-consumer},1651970332,0
{consumergroup=trace-token-events-consumer},1651970337,0
{consumergroup=trace-token-events-consumer},1651970342,0
{consumergroup=trace-token-events-consumer},1651970347,0
{consumergroup=trace-token-events-consumer},1651970352,0
{consumergroup=trace-token-events-consumer},1651970357,0
{consumergroup=trace-token-events-consumer},1651970362,0
{consumergroup=trace-token-events-consumer},1651970367,0
{consumergroup=trace-token-events-consumer},1651970372,0
{consumergroup=trace-token-events-consumer},1651970377,0
{consumergroup=trace-token-events-consumer},1651970382,0
{consumergroup=trace-token-events-consumer},1651970387,0
{consumergroup=trace-token-events-consumer},1651970392,0
{consumergroup=trace-token-events-consumer},1651970397,0
{consumergroup=trace-token-events-consumer},1651970402,0
{consumergroup=trace-token-events-consumer},1651970407,0
