labels,timestamp,value
{job=theodolite-stu200776/combined-trace-podmonitor},1651964479,0
{job=theodolite-stu200776/combined-trace-podmonitor},1651964484,0
{job=theodolite-stu200776/combined-trace-podmonitor},1651964489,0
{job=theodolite-stu200776/combined-trace-podmonitor},1651964494,0
{job=theodolite-stu200776/combined-trace-podmonitor},1651964499,0
{job=theodolite-stu200776/combined-trace-podmonitor},1651964504,0
{job=theodolite-stu200776/combined-trace-podmonitor},1651964509,0
{job=theodolite-stu200776/combined-trace-podmonitor},1651964514,0
{job=theodolite-stu200776/combined-trace-podmonitor},1651964519,0
{job=theodolite-stu200776/combined-trace-podmonitor},1651964524,0
{job=theodolite-stu200776/combined-trace-podmonitor},1651964529,0
{job=theodolite-stu200776/combined-trace-podmonitor},1651964534,0
{job=theodolite-stu200776/combined-trace-podmonitor},1651964539,0
{job=theodolite-stu200776/combined-trace-podmonitor},1651964544,0
{job=theodolite-stu200776/combined-trace-podmonitor},1651964549,0
{job=theodolite-stu200776/combined-trace-podmonitor},1651964554,0
{job=theodolite-stu200776/combined-trace-podmonitor},1651964559,0
{job=theodolite-stu200776/combined-trace-podmonitor},1651964564,0
{job=theodolite-stu200776/combined-trace-podmonitor},1651964569,0
{job=theodolite-stu200776/combined-trace-podmonitor},1651964574,0
{job=theodolite-stu200776/combined-trace-podmonitor},1651964579,0
{job=theodolite-stu200776/combined-trace-podmonitor},1651964584,0
{job=theodolite-stu200776/combined-trace-podmonitor},1651964589,0
{job=theodolite-stu200776/combined-trace-podmonitor},1651964594,0
{job=theodolite-stu200776/combined-trace-podmonitor},1651964599,0
{job=theodolite-stu200776/combined-trace-podmonitor},1651964604,0
{job=theodolite-stu200776/combined-trace-podmonitor},1651964609,0
{job=theodolite-stu200776/combined-trace-podmonitor},1651964614,0
{job=theodolite-stu200776/combined-trace-podmonitor},1651964619,0
{job=theodolite-stu200776/combined-trace-podmonitor},1651964624,0
{job=theodolite-stu200776/combined-trace-podmonitor},1651964629,0
{job=theodolite-stu200776/combined-trace-podmonitor},1651964634,0
{job=theodolite-stu200776/combined-trace-podmonitor},1651964639,0
{job=theodolite-stu200776/combined-trace-podmonitor},1651964644,0
{job=theodolite-stu200776/combined-trace-podmonitor},1651964649,0
{job=theodolite-stu200776/combined-trace-podmonitor},1651964654,0
{job=theodolite-stu200776/combined-trace-podmonitor},1651964659,0
{job=theodolite-stu200776/combined-trace-podmonitor},1651964664,0
{job=theodolite-stu200776/combined-trace-podmonitor},1651964669,0
{job=theodolite-stu200776/combined-trace-podmonitor},1651964674,0
{job=theodolite-stu200776/combined-trace-podmonitor},1651964679,0
{job=theodolite-stu200776/combined-trace-podmonitor},1651964684,0
{job=theodolite-stu200776/combined-trace-podmonitor},1651964689,0
{job=theodolite-stu200776/combined-trace-podmonitor},1651964694,0
{job=theodolite-stu200776/combined-trace-podmonitor},1651964699,0
{job=theodolite-stu200776/combined-trace-podmonitor},1651964704,0
{job=theodolite-stu200776/combined-trace-podmonitor},1651964709,0
{job=theodolite-stu200776/combined-trace-podmonitor},1651964714,0
{job=theodolite-stu200776/combined-trace-podmonitor},1651964719,0
{job=theodolite-stu200776/combined-trace-podmonitor},1651964724,0
{job=theodolite-stu200776/combined-trace-podmonitor},1651964729,0
{job=theodolite-stu200776/combined-trace-podmonitor},1651964734,0
{job=theodolite-stu200776/combined-trace-podmonitor},1651964739,0
{job=theodolite-stu200776/combined-trace-podmonitor},1651964744,0
{job=theodolite-stu200776/combined-trace-podmonitor},1651964749,0
{job=theodolite-stu200776/combined-trace-podmonitor},1651964754,0
{job=theodolite-stu200776/combined-trace-podmonitor},1651964759,0
{job=theodolite-stu200776/combined-trace-podmonitor},1651964764,0
{job=theodolite-stu200776/combined-trace-podmonitor},1651964769,0
{job=theodolite-stu200776/combined-trace-podmonitor},1651964774,0
{job=theodolite-stu200776/combined-trace-podmonitor},1651964779,0
{job=theodolite-stu200776/combined-trace-podmonitor},1651964784,0
{job=theodolite-stu200776/combined-trace-podmonitor},1651964789,0
{job=theodolite-stu200776/combined-trace-podmonitor},1651964794,0
{job=theodolite-stu200776/combined-trace-podmonitor},1651964799,0
{job=theodolite-stu200776/combined-trace-podmonitor},1651964804,0
{job=theodolite-stu200776/combined-trace-podmonitor},1651964809,0
{job=theodolite-stu200776/combined-trace-podmonitor},1651964814,0
{job=theodolite-stu200776/combined-trace-podmonitor},1651964819,0
{job=theodolite-stu200776/combined-trace-podmonitor},1651964824,0
{job=theodolite-stu200776/combined-trace-podmonitor},1651964829,0
{job=theodolite-stu200776/combined-trace-podmonitor},1651964834,0
{job=theodolite-stu200776/combined-trace-podmonitor},1651964839,0
{job=theodolite-stu200776/combined-trace-podmonitor},1651964844,0
{job=theodolite-stu200776/combined-trace-podmonitor},1651964849,0
{job=theodolite-stu200776/combined-trace-podmonitor},1651964854,0
{job=theodolite-stu200776/combined-trace-podmonitor},1651964859,0
