labels,timestamp,value
{job=theodolite-stu200776/combined-trace-podmonitor},1651975520,0
{job=theodolite-stu200776/combined-trace-podmonitor},1651975525,0
{job=theodolite-stu200776/combined-trace-podmonitor},1651975530,0
{job=theodolite-stu200776/combined-trace-podmonitor},1651975535,0
{job=theodolite-stu200776/combined-trace-podmonitor},1651975540,0
{job=theodolite-stu200776/combined-trace-podmonitor},1651975545,0
{job=theodolite-stu200776/combined-trace-podmonitor},1651975550,0
{job=theodolite-stu200776/combined-trace-podmonitor},1651975555,0
{job=theodolite-stu200776/combined-trace-podmonitor},1651975560,0
{job=theodolite-stu200776/combined-trace-podmonitor},1651975565,0
{job=theodolite-stu200776/combined-trace-podmonitor},1651975570,0
{job=theodolite-stu200776/combined-trace-podmonitor},1651975575,0
{job=theodolite-stu200776/combined-trace-podmonitor},1651975580,0
{job=theodolite-stu200776/combined-trace-podmonitor},1651975585,0
{job=theodolite-stu200776/combined-trace-podmonitor},1651975590,0
{job=theodolite-stu200776/combined-trace-podmonitor},1651975595,0
{job=theodolite-stu200776/combined-trace-podmonitor},1651975600,0
{job=theodolite-stu200776/combined-trace-podmonitor},1651975605,0
{job=theodolite-stu200776/combined-trace-podmonitor},1651975610,0
{job=theodolite-stu200776/combined-trace-podmonitor},1651975615,0
{job=theodolite-stu200776/combined-trace-podmonitor},1651975620,0
{job=theodolite-stu200776/combined-trace-podmonitor},1651975625,0
{job=theodolite-stu200776/combined-trace-podmonitor},1651975630,0
{job=theodolite-stu200776/combined-trace-podmonitor},1651975635,0
{job=theodolite-stu200776/combined-trace-podmonitor},1651975640,0
{job=theodolite-stu200776/combined-trace-podmonitor},1651975645,0
{job=theodolite-stu200776/combined-trace-podmonitor},1651975650,0
{job=theodolite-stu200776/combined-trace-podmonitor},1651975655,0
{job=theodolite-stu200776/combined-trace-podmonitor},1651975660,0
{job=theodolite-stu200776/combined-trace-podmonitor},1651975665,0
{job=theodolite-stu200776/combined-trace-podmonitor},1651975670,0
{job=theodolite-stu200776/combined-trace-podmonitor},1651975675,0
{job=theodolite-stu200776/combined-trace-podmonitor},1651975680,0
{job=theodolite-stu200776/combined-trace-podmonitor},1651975685,0
{job=theodolite-stu200776/combined-trace-podmonitor},1651975690,0
{job=theodolite-stu200776/combined-trace-podmonitor},1651975695,0
{job=theodolite-stu200776/combined-trace-podmonitor},1651975700,0
{job=theodolite-stu200776/combined-trace-podmonitor},1651975705,0
{job=theodolite-stu200776/combined-trace-podmonitor},1651975710,0
{job=theodolite-stu200776/combined-trace-podmonitor},1651975715,0
{job=theodolite-stu200776/combined-trace-podmonitor},1651975720,0
{job=theodolite-stu200776/combined-trace-podmonitor},1651975725,0
{job=theodolite-stu200776/combined-trace-podmonitor},1651975730,0
{job=theodolite-stu200776/combined-trace-podmonitor},1651975735,0
{job=theodolite-stu200776/combined-trace-podmonitor},1651975740,0
{job=theodolite-stu200776/combined-trace-podmonitor},1651975745,0
{job=theodolite-stu200776/combined-trace-podmonitor},1651975750,0
{job=theodolite-stu200776/combined-trace-podmonitor},1651975755,0
{job=theodolite-stu200776/combined-trace-podmonitor},1651975760,0
{job=theodolite-stu200776/combined-trace-podmonitor},1651975765,0
{job=theodolite-stu200776/combined-trace-podmonitor},1651975770,0
{job=theodolite-stu200776/combined-trace-podmonitor},1651975775,0
{job=theodolite-stu200776/combined-trace-podmonitor},1651975780,0
{job=theodolite-stu200776/combined-trace-podmonitor},1651975785,0
{job=theodolite-stu200776/combined-trace-podmonitor},1651975790,0
{job=theodolite-stu200776/combined-trace-podmonitor},1651975795,0
{job=theodolite-stu200776/combined-trace-podmonitor},1651975800,0
{job=theodolite-stu200776/combined-trace-podmonitor},1651975805,0
{job=theodolite-stu200776/combined-trace-podmonitor},1651975810,0
{job=theodolite-stu200776/combined-trace-podmonitor},1651975815,0
{job=theodolite-stu200776/combined-trace-podmonitor},1651975820,0
{job=theodolite-stu200776/combined-trace-podmonitor},1651975825,0
{job=theodolite-stu200776/combined-trace-podmonitor},1651975830,0
{job=theodolite-stu200776/combined-trace-podmonitor},1651975835,0
{job=theodolite-stu200776/combined-trace-podmonitor},1651975840,0
{job=theodolite-stu200776/combined-trace-podmonitor},1651975845,0
{job=theodolite-stu200776/combined-trace-podmonitor},1651975850,0
{job=theodolite-stu200776/combined-trace-podmonitor},1651975855,0
{job=theodolite-stu200776/combined-trace-podmonitor},1651975860,0
{job=theodolite-stu200776/combined-trace-podmonitor},1651975865,0
{job=theodolite-stu200776/combined-trace-podmonitor},1651975870,0
{job=theodolite-stu200776/combined-trace-podmonitor},1651975875,0
{job=theodolite-stu200776/combined-trace-podmonitor},1651975880,0
{job=theodolite-stu200776/combined-trace-podmonitor},1651975885,0
{job=theodolite-stu200776/combined-trace-podmonitor},1651975890,0
{job=theodolite-stu200776/combined-trace-podmonitor},1651975895,0
