labels,timestamp,value
{consumergroup=__strimzi-topic-operator-kstreams},1651967203,3
{consumergroup=__strimzi-topic-operator-kstreams},1651967208,3
{consumergroup=__strimzi-topic-operator-kstreams},1651967213,3
{consumergroup=__strimzi-topic-operator-kstreams},1651967218,0
{consumergroup=__strimzi-topic-operator-kstreams},1651967223,0
{consumergroup=__strimzi-topic-operator-kstreams},1651967228,0
{consumergroup=__strimzi-topic-operator-kstreams},1651967233,3
{consumergroup=__strimzi-topic-operator-kstreams},1651967238,3
{consumergroup=__strimzi-topic-operator-kstreams},1651967243,3
{consumergroup=__strimzi-topic-operator-kstreams},1651967248,0
{consumergroup=__strimzi-topic-operator-kstreams},1651967253,0
{consumergroup=__strimzi-topic-operator-kstreams},1651967258,0
{consumergroup=__strimzi-topic-operator-kstreams},1651967263,0
{consumergroup=__strimzi-topic-operator-kstreams},1651967268,0
{consumergroup=__strimzi-topic-operator-kstreams},1651967273,0
{consumergroup=__strimzi-topic-operator-kstreams},1651967278,0
{consumergroup=__strimzi-topic-operator-kstreams},1651967283,0
{consumergroup=__strimzi-topic-operator-kstreams},1651967288,0
{consumergroup=__strimzi-topic-operator-kstreams},1651967293,0
{consumergroup=__strimzi-topic-operator-kstreams},1651967298,0
{consumergroup=__strimzi-topic-operator-kstreams},1651967303,0
{consumergroup=__strimzi-topic-operator-kstreams},1651967308,0
{consumergroup=__strimzi-topic-operator-kstreams},1651967313,0
{consumergroup=__strimzi-topic-operator-kstreams},1651967318,0
{consumergroup=__strimzi-topic-operator-kstreams},1651967323,0
{consumergroup=__strimzi-topic-operator-kstreams},1651967328,0
{consumergroup=__strimzi-topic-operator-kstreams},1651967333,0
{consumergroup=__strimzi-topic-operator-kstreams},1651967338,0
{consumergroup=__strimzi-topic-operator-kstreams},1651967343,0
{consumergroup=__strimzi-topic-operator-kstreams},1651967348,0
{consumergroup=__strimzi-topic-operator-kstreams},1651967353,0
{consumergroup=__strimzi-topic-operator-kstreams},1651967358,0
{consumergroup=__strimzi-topic-operator-kstreams},1651967363,0
{consumergroup=__strimzi-topic-operator-kstreams},1651967368,0
{consumergroup=__strimzi-topic-operator-kstreams},1651967373,0
{consumergroup=__strimzi-topic-operator-kstreams},1651967378,0
{consumergroup=__strimzi-topic-operator-kstreams},1651967383,0
{consumergroup=__strimzi-topic-operator-kstreams},1651967388,0
{consumergroup=__strimzi-topic-operator-kstreams},1651967393,0
{consumergroup=__strimzi-topic-operator-kstreams},1651967398,0
{consumergroup=__strimzi-topic-operator-kstreams},1651967403,0
{consumergroup=__strimzi-topic-operator-kstreams},1651967408,0
{consumergroup=__strimzi-topic-operator-kstreams},1651967413,0
{consumergroup=__strimzi-topic-operator-kstreams},1651967418,0
{consumergroup=__strimzi-topic-operator-kstreams},1651967423,0
{consumergroup=__strimzi-topic-operator-kstreams},1651967428,0
{consumergroup=__strimzi-topic-operator-kstreams},1651967433,0
{consumergroup=__strimzi-topic-operator-kstreams},1651967438,0
{consumergroup=__strimzi-topic-operator-kstreams},1651967443,0
{consumergroup=__strimzi-topic-operator-kstreams},1651967448,0
{consumergroup=__strimzi-topic-operator-kstreams},1651967453,0
{consumergroup=__strimzi-topic-operator-kstreams},1651967458,0
{consumergroup=__strimzi-topic-operator-kstreams},1651967463,0
{consumergroup=__strimzi-topic-operator-kstreams},1651967468,0
{consumergroup=__strimzi-topic-operator-kstreams},1651967473,0
{consumergroup=__strimzi-topic-operator-kstreams},1651967478,0
{consumergroup=__strimzi-topic-operator-kstreams},1651967483,0
{consumergroup=__strimzi-topic-operator-kstreams},1651967488,0
{consumergroup=__strimzi-topic-operator-kstreams},1651967493,0
{consumergroup=__strimzi-topic-operator-kstreams},1651967498,0
{consumergroup=__strimzi-topic-operator-kstreams},1651967503,0
{consumergroup=__strimzi-topic-operator-kstreams},1651967508,0
{consumergroup=__strimzi-topic-operator-kstreams},1651967513,0
{consumergroup=__strimzi-topic-operator-kstreams},1651967518,0
{consumergroup=__strimzi-topic-operator-kstreams},1651967523,0
{consumergroup=__strimzi-topic-operator-kstreams},1651967528,0
{consumergroup=__strimzi-topic-operator-kstreams},1651967533,0
{consumergroup=__strimzi-topic-operator-kstreams},1651967538,0
{consumergroup=__strimzi-topic-operator-kstreams},1651967543,0
{consumergroup=__strimzi-topic-operator-kstreams},1651967548,0
{consumergroup=__strimzi-topic-operator-kstreams},1651967553,0
{consumergroup=__strimzi-topic-operator-kstreams},1651967558,0
{consumergroup=__strimzi-topic-operator-kstreams},1651967563,0
{consumergroup=__strimzi-topic-operator-kstreams},1651967568,0
{consumergroup=__strimzi-topic-operator-kstreams},1651967573,0
{consumergroup=__strimzi-topic-operator-kstreams},1651967578,0
{consumergroup=__strimzi-topic-operator-kstreams},1651967583,0
{consumergroup=__strimzi-topic-operator-kstreams},1651967588,0
{consumergroup=__strimzi-topic-operator-kstreams},1651967593,0
{consumergroup=__strimzi-topic-operator-kstreams},1651967598,0
{consumergroup=__strimzi-topic-operator-kstreams},1651967603,0
{consumergroup=__strimzi-topic-operator-kstreams},1651967608,0
{consumergroup=__strimzi-topic-operator-kstreams},1651967613,0
{consumergroup=__strimzi-topic-operator-kstreams},1651967618,0
{consumergroup=__strimzi-topic-operator-kstreams},1651967623,0
{consumergroup=__strimzi-topic-operator-kstreams},1651967628,0
{consumergroup=__strimzi-topic-operator-kstreams},1651967633,0
{consumergroup=__strimzi-topic-operator-kstreams},1651967638,0
{consumergroup=__strimzi-topic-operator-kstreams},1651967643,0
{consumergroup=__strimzi-topic-operator-kstreams},1651967648,0
{consumergroup=adapter-service},1651967233,0
{consumergroup=adapter-service},1651967238,0
{consumergroup=adapter-service},1651967243,0
{consumergroup=adapter-service},1651967248,15675
{consumergroup=adapter-service},1651967253,15675
{consumergroup=adapter-service},1651967258,15675
{consumergroup=adapter-service},1651967263,8322
{consumergroup=adapter-service},1651967268,8322
{consumergroup=adapter-service},1651967273,8322
{consumergroup=adapter-service},1651967278,3386
{consumergroup=adapter-service},1651967283,3386
{consumergroup=adapter-service},1651967288,3386
{consumergroup=adapter-service},1651967293,4918
{consumergroup=adapter-service},1651967298,4918
{consumergroup=adapter-service},1651967303,4918
{consumergroup=adapter-service},1651967308,445
{consumergroup=adapter-service},1651967313,445
{consumergroup=adapter-service},1651967318,445
{consumergroup=adapter-service},1651967323,3961
{consumergroup=adapter-service},1651967328,3961
{consumergroup=adapter-service},1651967333,3961
{consumergroup=adapter-service},1651967338,2543
{consumergroup=adapter-service},1651967343,2543
{consumergroup=adapter-service},1651967348,2543
{consumergroup=adapter-service},1651967353,2434
{consumergroup=adapter-service},1651967358,2434
{consumergroup=adapter-service},1651967363,2434
{consumergroup=adapter-service},1651967368,2014
{consumergroup=adapter-service},1651967373,2014
{consumergroup=adapter-service},1651967378,2014
{consumergroup=adapter-service},1651967383,2042
{consumergroup=adapter-service},1651967388,2042
{consumergroup=adapter-service},1651967393,2042
{consumergroup=adapter-service},1651967398,2316
{consumergroup=adapter-service},1651967403,2316
{consumergroup=adapter-service},1651967408,2316
{consumergroup=adapter-service},1651967413,2006
{consumergroup=adapter-service},1651967418,2006
{consumergroup=adapter-service},1651967423,2006
{consumergroup=adapter-service},1651967428,1888
{consumergroup=adapter-service},1651967433,1888
{consumergroup=adapter-service},1651967438,1888
{consumergroup=adapter-service},1651967443,840
{consumergroup=adapter-service},1651967448,840
{consumergroup=adapter-service},1651967453,840
{consumergroup=adapter-service},1651967458,15694
{consumergroup=adapter-service},1651967463,15694
{consumergroup=adapter-service},1651967468,15694
{consumergroup=adapter-service},1651967473,3058
{consumergroup=adapter-service},1651967478,3058
{consumergroup=adapter-service},1651967483,3058
{consumergroup=adapter-service},1651967488,14736
{consumergroup=adapter-service},1651967493,14736
{consumergroup=adapter-service},1651967498,14736
{consumergroup=adapter-service},1651967503,2671
{consumergroup=adapter-service},1651967508,2671
{consumergroup=adapter-service},1651967513,2671
{consumergroup=adapter-service},1651967518,15179
{consumergroup=adapter-service},1651967523,15179
{consumergroup=adapter-service},1651967528,15179
{consumergroup=adapter-service},1651967533,8865
{consumergroup=adapter-service},1651967538,8865
{consumergroup=adapter-service},1651967543,8865
{consumergroup=adapter-service},1651967548,8864
{consumergroup=adapter-service},1651967553,8864
{consumergroup=adapter-service},1651967558,8864
{consumergroup=adapter-service},1651967563,1398
{consumergroup=adapter-service},1651967568,1398
{consumergroup=adapter-service},1651967573,1398
{consumergroup=adapter-service},1651967578,12775
{consumergroup=adapter-service},1651967583,12775
{consumergroup=adapter-service},1651967588,12775
{consumergroup=adapter-service},1651967593,8462
{consumergroup=adapter-service},1651967598,8462
{consumergroup=adapter-service},1651967603,8462
{consumergroup=adapter-service},1651967608,11999
{consumergroup=adapter-service},1651967613,11999
{consumergroup=adapter-service},1651967618,11999
{consumergroup=adapter-service},1651967623,15811
{consumergroup=adapter-service},1651967628,15811
{consumergroup=adapter-service},1651967633,15811
{consumergroup=adapter-service},1651967638,14948
{consumergroup=adapter-service},1651967643,14948
{consumergroup=adapter-service},1651967648,14948
{consumergroup=landscape-service},1651967263,11822
{consumergroup=landscape-service},1651967268,11822
{consumergroup=landscape-service},1651967273,11822
{consumergroup=landscape-service},1651967278,6366
{consumergroup=landscape-service},1651967283,6366
{consumergroup=landscape-service},1651967288,6366
{consumergroup=landscape-service},1651967293,10061
{consumergroup=landscape-service},1651967298,10061
{consumergroup=landscape-service},1651967303,10061
{consumergroup=landscape-service},1651967308,7177
{consumergroup=landscape-service},1651967313,7177
{consumergroup=landscape-service},1651967318,7177
{consumergroup=landscape-service},1651967323,9668
{consumergroup=landscape-service},1651967328,9668
{consumergroup=landscape-service},1651967333,9668
{consumergroup=landscape-service},1651967338,5899
{consumergroup=landscape-service},1651967343,5899
{consumergroup=landscape-service},1651967348,5899
{consumergroup=landscape-service},1651967353,10754
{consumergroup=landscape-service},1651967358,10754
{consumergroup=landscape-service},1651967363,10754
{consumergroup=landscape-service},1651967368,10669
{consumergroup=landscape-service},1651967373,10669
{consumergroup=landscape-service},1651967378,10669
{consumergroup=landscape-service},1651967383,10607
{consumergroup=landscape-service},1651967388,10607
{consumergroup=landscape-service},1651967393,10607
{consumergroup=landscape-service},1651967398,10177
{consumergroup=landscape-service},1651967403,10177
{consumergroup=landscape-service},1651967408,10177
{consumergroup=landscape-service},1651967413,9141
{consumergroup=landscape-service},1651967418,9141
{consumergroup=landscape-service},1651967423,9141
{consumergroup=landscape-service},1651967428,9234
{consumergroup=landscape-service},1651967433,9234
{consumergroup=landscape-service},1651967438,9234
{consumergroup=landscape-service},1651967443,9135
{consumergroup=landscape-service},1651967448,9135
{consumergroup=landscape-service},1651967453,9135
{consumergroup=landscape-service},1651967458,5566
{consumergroup=landscape-service},1651967463,5566
{consumergroup=landscape-service},1651967468,5566
{consumergroup=landscape-service},1651967473,8815
{consumergroup=landscape-service},1651967478,8815
{consumergroup=landscape-service},1651967483,8815
{consumergroup=landscape-service},1651967488,6053
{consumergroup=landscape-service},1651967493,6053
{consumergroup=landscape-service},1651967498,6053
{consumergroup=landscape-service},1651967503,9872
{consumergroup=landscape-service},1651967508,9872
{consumergroup=landscape-service},1651967513,9872
{consumergroup=landscape-service},1651967518,5935
{consumergroup=landscape-service},1651967523,5935
{consumergroup=landscape-service},1651967528,5935
{consumergroup=landscape-service},1651967533,8590
{consumergroup=landscape-service},1651967538,8590
{consumergroup=landscape-service},1651967543,8590
{consumergroup=landscape-service},1651967548,8511
{consumergroup=landscape-service},1651967553,8511
{consumergroup=landscape-service},1651967558,8511
{consumergroup=landscape-service},1651967563,12014
{consumergroup=landscape-service},1651967568,12014
{consumergroup=landscape-service},1651967573,12014
{consumergroup=landscape-service},1651967578,4796
{consumergroup=landscape-service},1651967583,4796
{consumergroup=landscape-service},1651967588,4796
{consumergroup=landscape-service},1651967593,626
{consumergroup=landscape-service},1651967598,626
{consumergroup=landscape-service},1651967603,626
{consumergroup=landscape-service},1651967608,4215
{consumergroup=landscape-service},1651967613,4215
{consumergroup=landscape-service},1651967618,4215
{consumergroup=landscape-service},1651967623,9186
{consumergroup=landscape-service},1651967628,9186
{consumergroup=landscape-service},1651967633,9186
{consumergroup=landscape-service},1651967638,7561
{consumergroup=landscape-service},1651967643,7561
{consumergroup=landscape-service},1651967648,7561
{consumergroup=trace-service},1651967248,215
{consumergroup=trace-service},1651967253,215
{consumergroup=trace-service},1651967258,215
{consumergroup=trace-service},1651967263,89685
{consumergroup=trace-service},1651967268,89685
{consumergroup=trace-service},1651967273,89685
{consumergroup=trace-service},1651967278,111524
{consumergroup=trace-service},1651967283,111524
{consumergroup=trace-service},1651967288,111524
{consumergroup=trace-service},1651967293,71340
{consumergroup=trace-service},1651967298,71340
{consumergroup=trace-service},1651967303,71340
{consumergroup=trace-service},1651967308,82245
{consumergroup=trace-service},1651967313,82245
{consumergroup=trace-service},1651967318,82245
{consumergroup=trace-service},1651967323,113587
{consumergroup=trace-service},1651967328,113587
{consumergroup=trace-service},1651967333,113587
{consumergroup=trace-service},1651967338,20867
{consumergroup=trace-service},1651967343,20867
{consumergroup=trace-service},1651967348,20867
{consumergroup=trace-service},1651967353,46054
{consumergroup=trace-service},1651967358,46054
{consumergroup=trace-service},1651967363,46054
{consumergroup=trace-service},1651967368,19963
{consumergroup=trace-service},1651967373,19963
{consumergroup=trace-service},1651967378,19963
{consumergroup=trace-service},1651967383,45693
{consumergroup=trace-service},1651967388,45693
{consumergroup=trace-service},1651967393,45693
{consumergroup=trace-service},1651967398,124420
{consumergroup=trace-service},1651967403,124420
{consumergroup=trace-service},1651967408,124420
{consumergroup=trace-service},1651967413,55426
{consumergroup=trace-service},1651967418,55426
{consumergroup=trace-service},1651967423,55426
{consumergroup=trace-service},1651967428,19900
{consumergroup=trace-service},1651967433,19900
{consumergroup=trace-service},1651967438,19900
{consumergroup=trace-service},1651967443,44765
{consumergroup=trace-service},1651967448,44765
{consumergroup=trace-service},1651967453,44765
{consumergroup=trace-service},1651967458,7720
{consumergroup=trace-service},1651967463,7720
{consumergroup=trace-service},1651967468,7720
{consumergroup=trace-service},1651967473,43569
{consumergroup=trace-service},1651967478,43569
{consumergroup=trace-service},1651967483,43569
{consumergroup=trace-service},1651967488,24371
{consumergroup=trace-service},1651967493,24371
{consumergroup=trace-service},1651967498,24371
{consumergroup=trace-service},1651967503,46354
{consumergroup=trace-service},1651967508,46354
{consumergroup=trace-service},1651967513,46354
{consumergroup=trace-service},1651967518,47014
{consumergroup=trace-service},1651967523,47014
{consumergroup=trace-service},1651967528,47014
{consumergroup=trace-service},1651967533,42274
{consumergroup=trace-service},1651967538,42274
{consumergroup=trace-service},1651967543,42274
{consumergroup=trace-service},1651967548,106279
{consumergroup=trace-service},1651967553,106279
{consumergroup=trace-service},1651967558,106279
{consumergroup=trace-service},1651967563,49988
{consumergroup=trace-service},1651967568,49988
{consumergroup=trace-service},1651967573,49988
{consumergroup=trace-service},1651967578,70090
{consumergroup=trace-service},1651967583,70090
{consumergroup=trace-service},1651967588,70090
{consumergroup=trace-service},1651967593,56597
{consumergroup=trace-service},1651967598,56597
{consumergroup=trace-service},1651967603,56597
{consumergroup=trace-service},1651967608,17033
{consumergroup=trace-service},1651967613,17033
{consumergroup=trace-service},1651967618,17033
{consumergroup=trace-service},1651967623,44805
{consumergroup=trace-service},1651967628,44805
{consumergroup=trace-service},1651967633,44805
{consumergroup=trace-service},1651967638,11676
{consumergroup=trace-service},1651967643,11676
{consumergroup=trace-service},1651967648,11676
