labels,timestamp,value
{consumergroup=__strimzi-topic-operator-kstreams},1651998609,3
{consumergroup=__strimzi-topic-operator-kstreams},1651998614,3
{consumergroup=__strimzi-topic-operator-kstreams},1651998619,3
{consumergroup=__strimzi-topic-operator-kstreams},1651998624,0
{consumergroup=__strimzi-topic-operator-kstreams},1651998629,0
{consumergroup=__strimzi-topic-operator-kstreams},1651998634,0
{consumergroup=__strimzi-topic-operator-kstreams},1651998639,3
{consumergroup=__strimzi-topic-operator-kstreams},1651998644,3
{consumergroup=__strimzi-topic-operator-kstreams},1651998649,3
{consumergroup=__strimzi-topic-operator-kstreams},1651998654,0
{consumergroup=__strimzi-topic-operator-kstreams},1651998659,0
{consumergroup=__strimzi-topic-operator-kstreams},1651998664,0
{consumergroup=__strimzi-topic-operator-kstreams},1651998669,0
{consumergroup=__strimzi-topic-operator-kstreams},1651998674,0
{consumergroup=__strimzi-topic-operator-kstreams},1651998679,0
{consumergroup=__strimzi-topic-operator-kstreams},1651998684,0
{consumergroup=__strimzi-topic-operator-kstreams},1651998689,0
{consumergroup=__strimzi-topic-operator-kstreams},1651998694,0
{consumergroup=__strimzi-topic-operator-kstreams},1651998699,0
{consumergroup=__strimzi-topic-operator-kstreams},1651998704,0
{consumergroup=__strimzi-topic-operator-kstreams},1651998709,0
{consumergroup=__strimzi-topic-operator-kstreams},1651998714,0
{consumergroup=__strimzi-topic-operator-kstreams},1651998719,0
{consumergroup=__strimzi-topic-operator-kstreams},1651998724,0
{consumergroup=__strimzi-topic-operator-kstreams},1651998729,0
{consumergroup=__strimzi-topic-operator-kstreams},1651998734,0
{consumergroup=__strimzi-topic-operator-kstreams},1651998739,0
{consumergroup=__strimzi-topic-operator-kstreams},1651998744,0
{consumergroup=__strimzi-topic-operator-kstreams},1651998749,0
{consumergroup=__strimzi-topic-operator-kstreams},1651998754,0
{consumergroup=__strimzi-topic-operator-kstreams},1651998759,0
{consumergroup=__strimzi-topic-operator-kstreams},1651998764,0
{consumergroup=__strimzi-topic-operator-kstreams},1651998769,0
{consumergroup=__strimzi-topic-operator-kstreams},1651998774,0
{consumergroup=__strimzi-topic-operator-kstreams},1651998779,0
{consumergroup=__strimzi-topic-operator-kstreams},1651998784,0
{consumergroup=__strimzi-topic-operator-kstreams},1651998789,0
{consumergroup=__strimzi-topic-operator-kstreams},1651998794,0
{consumergroup=__strimzi-topic-operator-kstreams},1651998799,0
{consumergroup=__strimzi-topic-operator-kstreams},1651998804,0
{consumergroup=__strimzi-topic-operator-kstreams},1651998809,0
{consumergroup=__strimzi-topic-operator-kstreams},1651998814,0
{consumergroup=__strimzi-topic-operator-kstreams},1651998819,0
{consumergroup=__strimzi-topic-operator-kstreams},1651998824,0
{consumergroup=__strimzi-topic-operator-kstreams},1651998829,0
{consumergroup=__strimzi-topic-operator-kstreams},1651998834,0
{consumergroup=__strimzi-topic-operator-kstreams},1651998839,0
{consumergroup=__strimzi-topic-operator-kstreams},1651998844,0
{consumergroup=__strimzi-topic-operator-kstreams},1651998849,0
{consumergroup=__strimzi-topic-operator-kstreams},1651998854,0
{consumergroup=__strimzi-topic-operator-kstreams},1651998859,0
{consumergroup=__strimzi-topic-operator-kstreams},1651998864,0
{consumergroup=__strimzi-topic-operator-kstreams},1651998869,0
{consumergroup=__strimzi-topic-operator-kstreams},1651998874,0
{consumergroup=__strimzi-topic-operator-kstreams},1651998879,0
{consumergroup=__strimzi-topic-operator-kstreams},1651998884,0
{consumergroup=__strimzi-topic-operator-kstreams},1651998889,0
{consumergroup=__strimzi-topic-operator-kstreams},1651998894,0
{consumergroup=__strimzi-topic-operator-kstreams},1651998899,0
{consumergroup=__strimzi-topic-operator-kstreams},1651998904,0
{consumergroup=__strimzi-topic-operator-kstreams},1651998909,0
{consumergroup=__strimzi-topic-operator-kstreams},1651998914,0
{consumergroup=__strimzi-topic-operator-kstreams},1651998919,0
{consumergroup=__strimzi-topic-operator-kstreams},1651998924,0
{consumergroup=__strimzi-topic-operator-kstreams},1651998929,0
{consumergroup=__strimzi-topic-operator-kstreams},1651998934,0
{consumergroup=__strimzi-topic-operator-kstreams},1651998939,0
{consumergroup=__strimzi-topic-operator-kstreams},1651998944,0
{consumergroup=__strimzi-topic-operator-kstreams},1651998949,0
{consumergroup=__strimzi-topic-operator-kstreams},1651998954,0
{consumergroup=__strimzi-topic-operator-kstreams},1651998959,0
{consumergroup=__strimzi-topic-operator-kstreams},1651998964,0
{consumergroup=__strimzi-topic-operator-kstreams},1651998969,0
{consumergroup=__strimzi-topic-operator-kstreams},1651998974,0
{consumergroup=__strimzi-topic-operator-kstreams},1651998979,0
{consumergroup=__strimzi-topic-operator-kstreams},1651998984,0
{consumergroup=__strimzi-topic-operator-kstreams},1651998989,0
{consumergroup=__strimzi-topic-operator-kstreams},1651998994,0
{consumergroup=__strimzi-topic-operator-kstreams},1651998999,0
{consumergroup=__strimzi-topic-operator-kstreams},1651999004,0
{consumergroup=__strimzi-topic-operator-kstreams},1651999009,0
{consumergroup=__strimzi-topic-operator-kstreams},1651999014,0
{consumergroup=__strimzi-topic-operator-kstreams},1651999019,0
{consumergroup=__strimzi-topic-operator-kstreams},1651999024,0
{consumergroup=__strimzi-topic-operator-kstreams},1651999029,0
{consumergroup=__strimzi-topic-operator-kstreams},1651999034,0
{consumergroup=__strimzi-topic-operator-kstreams},1651999039,0
{consumergroup=__strimzi-topic-operator-kstreams},1651999044,0
{consumergroup=__strimzi-topic-operator-kstreams},1651999049,0
{consumergroup=__strimzi-topic-operator-kstreams},1651999054,0
{consumergroup=__strimzi-topic-operator-kstreams},1651999059,0
{consumergroup=adapter-service},1651998639,0
{consumergroup=adapter-service},1651998644,0
{consumergroup=adapter-service},1651998649,0
{consumergroup=adapter-service},1651998654,526
{consumergroup=adapter-service},1651998659,526
{consumergroup=adapter-service},1651998664,526
{consumergroup=adapter-service},1651998669,9198
{consumergroup=adapter-service},1651998674,9198
{consumergroup=adapter-service},1651998679,9198
{consumergroup=adapter-service},1651998684,12788
{consumergroup=adapter-service},1651998689,12788
{consumergroup=adapter-service},1651998694,12788
{consumergroup=adapter-service},1651998699,13373
{consumergroup=adapter-service},1651998704,13373
{consumergroup=adapter-service},1651998709,13373
{consumergroup=adapter-service},1651998714,13518
{consumergroup=adapter-service},1651998719,13518
{consumergroup=adapter-service},1651998724,13518
{consumergroup=adapter-service},1651998729,8010
{consumergroup=adapter-service},1651998734,8010
{consumergroup=adapter-service},1651998739,8010
{consumergroup=adapter-service},1651998744,12657
{consumergroup=adapter-service},1651998749,12657
{consumergroup=adapter-service},1651998754,12657
{consumergroup=adapter-service},1651998759,10944
{consumergroup=adapter-service},1651998764,10944
{consumergroup=adapter-service},1651998769,10944
{consumergroup=adapter-service},1651998774,11143
{consumergroup=adapter-service},1651998779,11143
{consumergroup=adapter-service},1651998784,11143
{consumergroup=adapter-service},1651998789,11807
{consumergroup=adapter-service},1651998794,11807
{consumergroup=adapter-service},1651998799,11807
{consumergroup=adapter-service},1651998804,11368
{consumergroup=adapter-service},1651998809,11368
{consumergroup=adapter-service},1651998814,11368
{consumergroup=adapter-service},1651998819,6125
{consumergroup=adapter-service},1651998824,6125
{consumergroup=adapter-service},1651998829,6125
{consumergroup=adapter-service},1651998834,9886
{consumergroup=adapter-service},1651998839,9886
{consumergroup=adapter-service},1651998844,9886
{consumergroup=adapter-service},1651998849,5768
{consumergroup=adapter-service},1651998854,5768
{consumergroup=adapter-service},1651998859,5768
{consumergroup=adapter-service},1651998864,9450
{consumergroup=adapter-service},1651998869,9450
{consumergroup=adapter-service},1651998874,9450
{consumergroup=adapter-service},1651998879,4998
{consumergroup=adapter-service},1651998884,4998
{consumergroup=adapter-service},1651998889,4998
{consumergroup=adapter-service},1651998894,9133
{consumergroup=adapter-service},1651998899,9133
{consumergroup=adapter-service},1651998904,9133
{consumergroup=adapter-service},1651998909,8559
{consumergroup=adapter-service},1651998914,8559
{consumergroup=adapter-service},1651998919,8559
{consumergroup=adapter-service},1651998924,8942
{consumergroup=adapter-service},1651998929,8942
{consumergroup=adapter-service},1651998934,8942
{consumergroup=adapter-service},1651998939,3892
{consumergroup=adapter-service},1651998944,3892
{consumergroup=adapter-service},1651998949,3892
{consumergroup=adapter-service},1651998954,7553
{consumergroup=adapter-service},1651998959,7553
{consumergroup=adapter-service},1651998964,7553
{consumergroup=adapter-service},1651998969,7958
{consumergroup=adapter-service},1651998974,7958
{consumergroup=adapter-service},1651998979,7958
{consumergroup=adapter-service},1651998984,7877
{consumergroup=adapter-service},1651998989,7877
{consumergroup=adapter-service},1651998994,7877
{consumergroup=adapter-service},1651998999,6440
{consumergroup=adapter-service},1651999004,6440
{consumergroup=adapter-service},1651999009,6440
{consumergroup=adapter-service},1651999014,7434
{consumergroup=adapter-service},1651999019,7434
{consumergroup=adapter-service},1651999024,7434
{consumergroup=adapter-service},1651999029,1952
{consumergroup=adapter-service},1651999034,1952
{consumergroup=adapter-service},1651999039,1952
{consumergroup=adapter-service},1651999044,5842
{consumergroup=adapter-service},1651999049,5842
{consumergroup=adapter-service},1651999054,5842
{consumergroup=adapter-service},1651999059,1765
{consumergroup=landscape-service},1651998654,2006
{consumergroup=landscape-service},1651998659,2006
{consumergroup=landscape-service},1651998664,2006
{consumergroup=landscape-service},1651998669,14762
{consumergroup=landscape-service},1651998674,14762
{consumergroup=landscape-service},1651998679,14762
{consumergroup=landscape-service},1651998684,6508
{consumergroup=landscape-service},1651998689,6508
{consumergroup=landscape-service},1651998694,6508
{consumergroup=landscape-service},1651998699,12112
{consumergroup=landscape-service},1651998704,12112
{consumergroup=landscape-service},1651998709,12112
{consumergroup=landscape-service},1651998714,5981
{consumergroup=landscape-service},1651998719,5981
{consumergroup=landscape-service},1651998724,5981
{consumergroup=landscape-service},1651998729,14125
{consumergroup=landscape-service},1651998734,14125
{consumergroup=landscape-service},1651998739,14125
{consumergroup=landscape-service},1651998744,11954
{consumergroup=landscape-service},1651998749,11954
{consumergroup=landscape-service},1651998754,11954
{consumergroup=landscape-service},1651998759,12530
{consumergroup=landscape-service},1651998764,12530
{consumergroup=landscape-service},1651998769,12530
{consumergroup=landscape-service},1651998774,12692
{consumergroup=landscape-service},1651998779,12692
{consumergroup=landscape-service},1651998784,12692
{consumergroup=landscape-service},1651998789,12568
{consumergroup=landscape-service},1651998794,12568
{consumergroup=landscape-service},1651998799,12568
{consumergroup=landscape-service},1651998804,18836
{consumergroup=landscape-service},1651998809,18836
{consumergroup=landscape-service},1651998814,18836
{consumergroup=landscape-service},1651998819,13815
{consumergroup=landscape-service},1651998824,13815
{consumergroup=landscape-service},1651998829,13815
{consumergroup=landscape-service},1651998834,17766
{consumergroup=landscape-service},1651998839,17766
{consumergroup=landscape-service},1651998844,17766
{consumergroup=landscape-service},1651998849,14536
{consumergroup=landscape-service},1651998854,14536
{consumergroup=landscape-service},1651998859,14536
{consumergroup=landscape-service},1651998864,17732
{consumergroup=landscape-service},1651998869,17732
{consumergroup=landscape-service},1651998874,17732
{consumergroup=landscape-service},1651998879,14442
{consumergroup=landscape-service},1651998884,14442
{consumergroup=landscape-service},1651998889,14442
{consumergroup=landscape-service},1651998894,17618
{consumergroup=landscape-service},1651998899,17618
{consumergroup=landscape-service},1651998904,17618
{consumergroup=landscape-service},1651998909,17208
{consumergroup=landscape-service},1651998914,17208
{consumergroup=landscape-service},1651998919,17208
{consumergroup=landscape-service},1651998924,17119
{consumergroup=landscape-service},1651998929,17119
{consumergroup=landscape-service},1651998934,17119
{consumergroup=landscape-service},1651998939,13271
{consumergroup=landscape-service},1651998944,13271
{consumergroup=landscape-service},1651998949,13271
{consumergroup=landscape-service},1651998954,11228
{consumergroup=landscape-service},1651998959,11228
{consumergroup=landscape-service},1651998964,11228
{consumergroup=landscape-service},1651998969,16409
{consumergroup=landscape-service},1651998974,16409
{consumergroup=landscape-service},1651998979,16409
{consumergroup=landscape-service},1651998984,16669
{consumergroup=landscape-service},1651998989,16669
{consumergroup=landscape-service},1651998994,16669
{consumergroup=landscape-service},1651998999,16339
{consumergroup=landscape-service},1651999004,16339
{consumergroup=landscape-service},1651999009,16339
{consumergroup=landscape-service},1651999014,16575
{consumergroup=landscape-service},1651999019,16575
{consumergroup=landscape-service},1651999024,16575
{consumergroup=landscape-service},1651999029,13335
{consumergroup=landscape-service},1651999034,13335
{consumergroup=landscape-service},1651999039,13335
{consumergroup=landscape-service},1651999044,17390
{consumergroup=landscape-service},1651999049,17390
{consumergroup=landscape-service},1651999054,17390
{consumergroup=landscape-service},1651999059,12291
{consumergroup=landscape-token-events-consumer},1651998639,0
{consumergroup=landscape-token-events-consumer},1651998644,0
{consumergroup=landscape-token-events-consumer},1651998649,0
{consumergroup=landscape-token-events-consumer},1651998654,0
{consumergroup=landscape-token-events-consumer},1651998659,0
{consumergroup=landscape-token-events-consumer},1651998664,0
{consumergroup=landscape-token-events-consumer},1651998669,0
{consumergroup=landscape-token-events-consumer},1651998674,0
{consumergroup=landscape-token-events-consumer},1651998679,0
{consumergroup=landscape-token-events-consumer},1651998684,0
{consumergroup=landscape-token-events-consumer},1651998689,0
{consumergroup=landscape-token-events-consumer},1651998694,0
{consumergroup=landscape-token-events-consumer},1651998699,0
{consumergroup=landscape-token-events-consumer},1651998704,0
{consumergroup=landscape-token-events-consumer},1651998709,0
{consumergroup=landscape-token-events-consumer},1651998714,0
{consumergroup=landscape-token-events-consumer},1651998719,0
{consumergroup=landscape-token-events-consumer},1651998724,0
{consumergroup=landscape-token-events-consumer},1651998729,0
{consumergroup=landscape-token-events-consumer},1651998734,0
{consumergroup=landscape-token-events-consumer},1651998739,0
{consumergroup=landscape-token-events-consumer},1651998744,0
{consumergroup=landscape-token-events-consumer},1651998749,0
{consumergroup=landscape-token-events-consumer},1651998754,0
{consumergroup=landscape-token-events-consumer},1651998759,0
{consumergroup=landscape-token-events-consumer},1651998764,0
{consumergroup=landscape-token-events-consumer},1651998769,0
{consumergroup=landscape-token-events-consumer},1651998774,0
{consumergroup=landscape-token-events-consumer},1651998779,0
{consumergroup=landscape-token-events-consumer},1651998784,0
{consumergroup=landscape-token-events-consumer},1651998789,0
{consumergroup=landscape-token-events-consumer},1651998794,0
{consumergroup=landscape-token-events-consumer},1651998799,0
{consumergroup=landscape-token-events-consumer},1651998804,0
{consumergroup=landscape-token-events-consumer},1651998809,0
{consumergroup=landscape-token-events-consumer},1651998814,0
{consumergroup=landscape-token-events-consumer},1651998819,0
{consumergroup=landscape-token-events-consumer},1651998824,0
{consumergroup=landscape-token-events-consumer},1651998829,0
{consumergroup=landscape-token-events-consumer},1651998834,0
{consumergroup=landscape-token-events-consumer},1651998839,0
{consumergroup=landscape-token-events-consumer},1651998844,0
{consumergroup=landscape-token-events-consumer},1651998849,0
{consumergroup=landscape-token-events-consumer},1651998854,0
{consumergroup=landscape-token-events-consumer},1651998859,0
{consumergroup=landscape-token-events-consumer},1651998864,0
{consumergroup=landscape-token-events-consumer},1651998869,0
{consumergroup=landscape-token-events-consumer},1651998874,0
{consumergroup=landscape-token-events-consumer},1651998879,0
{consumergroup=landscape-token-events-consumer},1651998884,0
{consumergroup=landscape-token-events-consumer},1651998889,0
{consumergroup=landscape-token-events-consumer},1651998894,0
{consumergroup=landscape-token-events-consumer},1651998899,0
{consumergroup=landscape-token-events-consumer},1651998904,0
{consumergroup=landscape-token-events-consumer},1651998909,0
{consumergroup=landscape-token-events-consumer},1651998914,0
{consumergroup=landscape-token-events-consumer},1651998919,0
{consumergroup=landscape-token-events-consumer},1651998924,0
{consumergroup=landscape-token-events-consumer},1651998929,0
{consumergroup=landscape-token-events-consumer},1651998934,0
{consumergroup=landscape-token-events-consumer},1651998939,0
{consumergroup=landscape-token-events-consumer},1651998944,0
{consumergroup=landscape-token-events-consumer},1651998949,0
{consumergroup=landscape-token-events-consumer},1651998954,0
{consumergroup=landscape-token-events-consumer},1651998959,0
{consumergroup=landscape-token-events-consumer},1651998964,0
{consumergroup=landscape-token-events-consumer},1651998969,0
{consumergroup=landscape-token-events-consumer},1651998974,0
{consumergroup=landscape-token-events-consumer},1651998979,0
{consumergroup=landscape-token-events-consumer},1651998984,0
{consumergroup=landscape-token-events-consumer},1651998989,0
{consumergroup=landscape-token-events-consumer},1651998994,0
{consumergroup=landscape-token-events-consumer},1651998999,0
{consumergroup=landscape-token-events-consumer},1651999004,0
{consumergroup=landscape-token-events-consumer},1651999009,0
{consumergroup=landscape-token-events-consumer},1651999014,0
{consumergroup=landscape-token-events-consumer},1651999019,0
{consumergroup=landscape-token-events-consumer},1651999024,0
{consumergroup=landscape-token-events-consumer},1651999029,0
{consumergroup=landscape-token-events-consumer},1651999034,0
{consumergroup=landscape-token-events-consumer},1651999039,0
{consumergroup=landscape-token-events-consumer},1651999044,0
{consumergroup=landscape-token-events-consumer},1651999049,0
{consumergroup=landscape-token-events-consumer},1651999054,0
{consumergroup=landscape-token-events-consumer},1651999059,0
{consumergroup=trace-service},1651998654,31996
{consumergroup=trace-service},1651998659,31996
{consumergroup=trace-service},1651998664,31996
{consumergroup=trace-service},1651998669,58363
{consumergroup=trace-service},1651998674,58363
{consumergroup=trace-service},1651998679,58363
{consumergroup=trace-service},1651998684,63494
{consumergroup=trace-service},1651998689,63494
{consumergroup=trace-service},1651998694,63494
{consumergroup=trace-service},1651998699,45089
{consumergroup=trace-service},1651998704,45089
{consumergroup=trace-service},1651998709,45089
{consumergroup=trace-service},1651998714,119555
{consumergroup=trace-service},1651998719,119555
{consumergroup=trace-service},1651998724,119555
{consumergroup=trace-service},1651998729,36388
{consumergroup=trace-service},1651998734,36388
{consumergroup=trace-service},1651998739,36388
{consumergroup=trace-service},1651998744,85380
{consumergroup=trace-service},1651998749,85380
{consumergroup=trace-service},1651998754,85380
{consumergroup=trace-service},1651998759,43548
{consumergroup=trace-service},1651998764,43548
{consumergroup=trace-service},1651998769,43548
{consumergroup=trace-service},1651998774,109541
{consumergroup=trace-service},1651998779,109541
{consumergroup=trace-service},1651998784,109541
{consumergroup=trace-service},1651998789,40993
{consumergroup=trace-service},1651998794,40993
{consumergroup=trace-service},1651998799,40993
{consumergroup=trace-service},1651998804,115076
{consumergroup=trace-service},1651998809,115076
{consumergroup=trace-service},1651998814,115076
{consumergroup=trace-service},1651998819,39592
{consumergroup=trace-service},1651998824,39592
{consumergroup=trace-service},1651998829,39592
{consumergroup=trace-service},1651998834,125730
{consumergroup=trace-service},1651998839,125730
{consumergroup=trace-service},1651998844,125730
{consumergroup=trace-service},1651998849,37137
{consumergroup=trace-service},1651998854,37137
{consumergroup=trace-service},1651998859,37137
{consumergroup=trace-service},1651998864,80062
{consumergroup=trace-service},1651998869,80062
{consumergroup=trace-service},1651998874,80062
{consumergroup=trace-service},1651998879,200894
{consumergroup=trace-service},1651998884,200894
{consumergroup=trace-service},1651998889,200894
{consumergroup=trace-service},1651998894,29484
{consumergroup=trace-service},1651998899,29484
{consumergroup=trace-service},1651998904,29484
{consumergroup=trace-service},1651998909,43493
{consumergroup=trace-service},1651998914,43493
{consumergroup=trace-service},1651998919,43493
{consumergroup=trace-service},1651998924,128950
{consumergroup=trace-service},1651998929,128950
{consumergroup=trace-service},1651998934,128950
{consumergroup=trace-service},1651998939,39421
{consumergroup=trace-service},1651998944,39421
{consumergroup=trace-service},1651998949,39421
{consumergroup=trace-service},1651998954,89036
{consumergroup=trace-service},1651998959,89036
{consumergroup=trace-service},1651998964,89036
{consumergroup=trace-service},1651998969,44266
{consumergroup=trace-service},1651998974,44266
{consumergroup=trace-service},1651998979,44266
{consumergroup=trace-service},1651998984,109995
{consumergroup=trace-service},1651998989,109995
{consumergroup=trace-service},1651998994,109995
{consumergroup=trace-service},1651998999,42849
{consumergroup=trace-service},1651999004,42849
{consumergroup=trace-service},1651999009,42849
{consumergroup=trace-service},1651999014,91023
{consumergroup=trace-service},1651999019,91023
{consumergroup=trace-service},1651999024,91023
{consumergroup=trace-service},1651999029,41487
{consumergroup=trace-service},1651999034,41487
{consumergroup=trace-service},1651999039,41487
{consumergroup=trace-service},1651999044,92370
{consumergroup=trace-service},1651999049,92370
{consumergroup=trace-service},1651999054,92370
{consumergroup=trace-service},1651999059,39024
{consumergroup=trace-token-events-consumer},1651998639,0
{consumergroup=trace-token-events-consumer},1651998644,0
{consumergroup=trace-token-events-consumer},1651998649,0
{consumergroup=trace-token-events-consumer},1651998654,0
{consumergroup=trace-token-events-consumer},1651998659,0
{consumergroup=trace-token-events-consumer},1651998664,0
{consumergroup=trace-token-events-consumer},1651998669,0
{consumergroup=trace-token-events-consumer},1651998674,0
{consumergroup=trace-token-events-consumer},1651998679,0
{consumergroup=trace-token-events-consumer},1651998684,0
{consumergroup=trace-token-events-consumer},1651998689,0
{consumergroup=trace-token-events-consumer},1651998694,0
{consumergroup=trace-token-events-consumer},1651998699,0
{consumergroup=trace-token-events-consumer},1651998704,0
{consumergroup=trace-token-events-consumer},1651998709,0
{consumergroup=trace-token-events-consumer},1651998714,0
{consumergroup=trace-token-events-consumer},1651998719,0
{consumergroup=trace-token-events-consumer},1651998724,0
{consumergroup=trace-token-events-consumer},1651998729,0
{consumergroup=trace-token-events-consumer},1651998734,0
{consumergroup=trace-token-events-consumer},1651998739,0
{consumergroup=trace-token-events-consumer},1651998744,0
{consumergroup=trace-token-events-consumer},1651998749,0
{consumergroup=trace-token-events-consumer},1651998754,0
{consumergroup=trace-token-events-consumer},1651998759,0
{consumergroup=trace-token-events-consumer},1651998764,0
{consumergroup=trace-token-events-consumer},1651998769,0
{consumergroup=trace-token-events-consumer},1651998774,0
{consumergroup=trace-token-events-consumer},1651998779,0
{consumergroup=trace-token-events-consumer},1651998784,0
{consumergroup=trace-token-events-consumer},1651998789,0
{consumergroup=trace-token-events-consumer},1651998794,0
{consumergroup=trace-token-events-consumer},1651998799,0
{consumergroup=trace-token-events-consumer},1651998804,0
{consumergroup=trace-token-events-consumer},1651998809,0
{consumergroup=trace-token-events-consumer},1651998814,0
{consumergroup=trace-token-events-consumer},1651998819,0
{consumergroup=trace-token-events-consumer},1651998824,0
{consumergroup=trace-token-events-consumer},1651998829,0
{consumergroup=trace-token-events-consumer},1651998834,0
{consumergroup=trace-token-events-consumer},1651998839,0
{consumergroup=trace-token-events-consumer},1651998844,0
{consumergroup=trace-token-events-consumer},1651998849,0
{consumergroup=trace-token-events-consumer},1651998854,0
{consumergroup=trace-token-events-consumer},1651998859,0
{consumergroup=trace-token-events-consumer},1651998864,0
{consumergroup=trace-token-events-consumer},1651998869,0
{consumergroup=trace-token-events-consumer},1651998874,0
{consumergroup=trace-token-events-consumer},1651998879,0
{consumergroup=trace-token-events-consumer},1651998884,0
{consumergroup=trace-token-events-consumer},1651998889,0
{consumergroup=trace-token-events-consumer},1651998894,0
{consumergroup=trace-token-events-consumer},1651998899,0
{consumergroup=trace-token-events-consumer},1651998904,0
{consumergroup=trace-token-events-consumer},1651998909,0
{consumergroup=trace-token-events-consumer},1651998914,0
{consumergroup=trace-token-events-consumer},1651998919,0
{consumergroup=trace-token-events-consumer},1651998924,0
{consumergroup=trace-token-events-consumer},1651998929,0
{consumergroup=trace-token-events-consumer},1651998934,0
{consumergroup=trace-token-events-consumer},1651998939,0
{consumergroup=trace-token-events-consumer},1651998944,0
{consumergroup=trace-token-events-consumer},1651998949,0
{consumergroup=trace-token-events-consumer},1651998954,0
{consumergroup=trace-token-events-consumer},1651998959,0
{consumergroup=trace-token-events-consumer},1651998964,0
{consumergroup=trace-token-events-consumer},1651998969,0
{consumergroup=trace-token-events-consumer},1651998974,0
{consumergroup=trace-token-events-consumer},1651998979,0
{consumergroup=trace-token-events-consumer},1651998984,0
{consumergroup=trace-token-events-consumer},1651998989,0
{consumergroup=trace-token-events-consumer},1651998994,0
{consumergroup=trace-token-events-consumer},1651998999,0
{consumergroup=trace-token-events-consumer},1651999004,0
{consumergroup=trace-token-events-consumer},1651999009,0
{consumergroup=trace-token-events-consumer},1651999014,0
{consumergroup=trace-token-events-consumer},1651999019,0
{consumergroup=trace-token-events-consumer},1651999024,0
{consumergroup=trace-token-events-consumer},1651999029,0
{consumergroup=trace-token-events-consumer},1651999034,0
{consumergroup=trace-token-events-consumer},1651999039,0
{consumergroup=trace-token-events-consumer},1651999044,0
{consumergroup=trace-token-events-consumer},1651999049,0
{consumergroup=trace-token-events-consumer},1651999054,0
{consumergroup=trace-token-events-consumer},1651999059,0
