labels,timestamp,value
{consumergroup=__strimzi-topic-operator-kstreams},1652015131,0
{consumergroup=__strimzi-topic-operator-kstreams},1652015136,0
{consumergroup=__strimzi-topic-operator-kstreams},1652015141,0
{consumergroup=__strimzi-topic-operator-kstreams},1652015146,8
{consumergroup=__strimzi-topic-operator-kstreams},1652015151,8
{consumergroup=__strimzi-topic-operator-kstreams},1652015156,8
{consumergroup=__strimzi-topic-operator-kstreams},1652015161,0
{consumergroup=__strimzi-topic-operator-kstreams},1652015166,0
{consumergroup=__strimzi-topic-operator-kstreams},1652015171,0
{consumergroup=__strimzi-topic-operator-kstreams},1652015176,0
{consumergroup=__strimzi-topic-operator-kstreams},1652015181,0
{consumergroup=__strimzi-topic-operator-kstreams},1652015186,0
{consumergroup=__strimzi-topic-operator-kstreams},1652015191,0
{consumergroup=__strimzi-topic-operator-kstreams},1652015196,0
{consumergroup=__strimzi-topic-operator-kstreams},1652015201,0
{consumergroup=__strimzi-topic-operator-kstreams},1652015206,1
{consumergroup=__strimzi-topic-operator-kstreams},1652015211,1
{consumergroup=__strimzi-topic-operator-kstreams},1652015216,1
{consumergroup=__strimzi-topic-operator-kstreams},1652015221,0
{consumergroup=__strimzi-topic-operator-kstreams},1652015226,0
{consumergroup=__strimzi-topic-operator-kstreams},1652015231,0
{consumergroup=__strimzi-topic-operator-kstreams},1652015236,0
{consumergroup=__strimzi-topic-operator-kstreams},1652015241,0
{consumergroup=__strimzi-topic-operator-kstreams},1652015246,0
{consumergroup=__strimzi-topic-operator-kstreams},1652015251,0
{consumergroup=__strimzi-topic-operator-kstreams},1652015256,0
{consumergroup=__strimzi-topic-operator-kstreams},1652015261,0
{consumergroup=__strimzi-topic-operator-kstreams},1652015266,0
{consumergroup=__strimzi-topic-operator-kstreams},1652015271,0
{consumergroup=__strimzi-topic-operator-kstreams},1652015276,0
{consumergroup=__strimzi-topic-operator-kstreams},1652015281,0
{consumergroup=__strimzi-topic-operator-kstreams},1652015286,0
{consumergroup=__strimzi-topic-operator-kstreams},1652015291,0
{consumergroup=__strimzi-topic-operator-kstreams},1652015296,0
{consumergroup=__strimzi-topic-operator-kstreams},1652015301,0
{consumergroup=__strimzi-topic-operator-kstreams},1652015306,0
{consumergroup=__strimzi-topic-operator-kstreams},1652015311,0
{consumergroup=__strimzi-topic-operator-kstreams},1652015316,0
{consumergroup=__strimzi-topic-operator-kstreams},1652015321,0
{consumergroup=__strimzi-topic-operator-kstreams},1652015326,0
{consumergroup=__strimzi-topic-operator-kstreams},1652015331,0
{consumergroup=__strimzi-topic-operator-kstreams},1652015336,0
{consumergroup=__strimzi-topic-operator-kstreams},1652015341,0
{consumergroup=__strimzi-topic-operator-kstreams},1652015346,0
{consumergroup=__strimzi-topic-operator-kstreams},1652015351,0
{consumergroup=__strimzi-topic-operator-kstreams},1652015356,0
{consumergroup=__strimzi-topic-operator-kstreams},1652015361,0
{consumergroup=__strimzi-topic-operator-kstreams},1652015366,0
{consumergroup=__strimzi-topic-operator-kstreams},1652015371,0
{consumergroup=__strimzi-topic-operator-kstreams},1652015376,0
{consumergroup=__strimzi-topic-operator-kstreams},1652015381,0
{consumergroup=__strimzi-topic-operator-kstreams},1652015386,0
{consumergroup=__strimzi-topic-operator-kstreams},1652015391,0
{consumergroup=__strimzi-topic-operator-kstreams},1652015396,0
{consumergroup=__strimzi-topic-operator-kstreams},1652015401,0
{consumergroup=__strimzi-topic-operator-kstreams},1652015406,0
{consumergroup=__strimzi-topic-operator-kstreams},1652015411,0
{consumergroup=__strimzi-topic-operator-kstreams},1652015416,0
{consumergroup=__strimzi-topic-operator-kstreams},1652015421,0
{consumergroup=__strimzi-topic-operator-kstreams},1652015426,0
{consumergroup=__strimzi-topic-operator-kstreams},1652015431,0
{consumergroup=__strimzi-topic-operator-kstreams},1652015436,0
{consumergroup=__strimzi-topic-operator-kstreams},1652015441,0
{consumergroup=__strimzi-topic-operator-kstreams},1652015446,0
{consumergroup=__strimzi-topic-operator-kstreams},1652015451,0
{consumergroup=__strimzi-topic-operator-kstreams},1652015456,0
{consumergroup=__strimzi-topic-operator-kstreams},1652015461,0
{consumergroup=__strimzi-topic-operator-kstreams},1652015466,0
{consumergroup=__strimzi-topic-operator-kstreams},1652015471,0
{consumergroup=__strimzi-topic-operator-kstreams},1652015476,0
{consumergroup=__strimzi-topic-operator-kstreams},1652015481,0
{consumergroup=__strimzi-topic-operator-kstreams},1652015486,0
{consumergroup=__strimzi-topic-operator-kstreams},1652015491,0
{consumergroup=__strimzi-topic-operator-kstreams},1652015496,0
{consumergroup=__strimzi-topic-operator-kstreams},1652015501,0
{consumergroup=__strimzi-topic-operator-kstreams},1652015506,0
{consumergroup=__strimzi-topic-operator-kstreams},1652015511,0
{consumergroup=__strimzi-topic-operator-kstreams},1652015516,0
{consumergroup=__strimzi-topic-operator-kstreams},1652015521,0
{consumergroup=__strimzi-topic-operator-kstreams},1652015526,0
{consumergroup=__strimzi-topic-operator-kstreams},1652015531,0
{consumergroup=__strimzi-topic-operator-kstreams},1652015536,0
{consumergroup=__strimzi-topic-operator-kstreams},1652015541,0
{consumergroup=__strimzi-topic-operator-kstreams},1652015546,0
{consumergroup=__strimzi-topic-operator-kstreams},1652015551,0
{consumergroup=__strimzi-topic-operator-kstreams},1652015556,0
{consumergroup=__strimzi-topic-operator-kstreams},1652015561,0
{consumergroup=__strimzi-topic-operator-kstreams},1652015566,0
{consumergroup=__strimzi-topic-operator-kstreams},1652015571,0
{consumergroup=__strimzi-topic-operator-kstreams},1652015576,0
{consumergroup=__strimzi-topic-operator-kstreams},1652015581,0
{consumergroup=adapter-service},1652015161,0
{consumergroup=adapter-service},1652015166,0
{consumergroup=adapter-service},1652015171,0
{consumergroup=adapter-service},1652015176,10106
{consumergroup=adapter-service},1652015181,10106
{consumergroup=adapter-service},1652015186,10106
{consumergroup=adapter-service},1652015191,9640
{consumergroup=adapter-service},1652015196,9640
{consumergroup=adapter-service},1652015201,9640
{consumergroup=adapter-service},1652015206,9329
{consumergroup=adapter-service},1652015211,9329
{consumergroup=adapter-service},1652015216,9329
{consumergroup=adapter-service},1652015221,10244
{consumergroup=adapter-service},1652015226,10244
{consumergroup=adapter-service},1652015231,10244
{consumergroup=adapter-service},1652015236,9839
{consumergroup=adapter-service},1652015241,9839
{consumergroup=adapter-service},1652015246,9839
{consumergroup=adapter-service},1652015251,13529
{consumergroup=adapter-service},1652015256,13529
{consumergroup=adapter-service},1652015261,13529
{consumergroup=adapter-service},1652015266,9357
{consumergroup=adapter-service},1652015271,9357
{consumergroup=adapter-service},1652015276,9357
{consumergroup=adapter-service},1652015281,7783
{consumergroup=adapter-service},1652015286,7783
{consumergroup=adapter-service},1652015291,7783
{consumergroup=adapter-service},1652015296,11439
{consumergroup=adapter-service},1652015301,11439
{consumergroup=adapter-service},1652015306,11439
{consumergroup=adapter-service},1652015311,11302
{consumergroup=adapter-service},1652015316,11302
{consumergroup=adapter-service},1652015321,11302
{consumergroup=adapter-service},1652015326,7977
{consumergroup=adapter-service},1652015331,7977
{consumergroup=adapter-service},1652015336,7977
{consumergroup=adapter-service},1652015341,10661
{consumergroup=adapter-service},1652015346,10661
{consumergroup=adapter-service},1652015351,10661
{consumergroup=adapter-service},1652015356,7340
{consumergroup=adapter-service},1652015361,7340
{consumergroup=adapter-service},1652015366,7340
{consumergroup=adapter-service},1652015371,5910
{consumergroup=adapter-service},1652015376,5910
{consumergroup=adapter-service},1652015381,5910
{consumergroup=adapter-service},1652015386,5658
{consumergroup=adapter-service},1652015391,5658
{consumergroup=adapter-service},1652015396,5658
{consumergroup=adapter-service},1652015401,5559
{consumergroup=adapter-service},1652015406,5559
{consumergroup=adapter-service},1652015411,5559
{consumergroup=adapter-service},1652015416,5044
{consumergroup=adapter-service},1652015421,5044
{consumergroup=adapter-service},1652015426,5044
{consumergroup=adapter-service},1652015431,4570
{consumergroup=adapter-service},1652015436,4570
{consumergroup=adapter-service},1652015441,4570
{consumergroup=adapter-service},1652015446,4829
{consumergroup=adapter-service},1652015451,4829
{consumergroup=adapter-service},1652015456,4829
{consumergroup=adapter-service},1652015461,5192
{consumergroup=adapter-service},1652015466,5192
{consumergroup=adapter-service},1652015471,5192
{consumergroup=adapter-service},1652015476,4646
{consumergroup=adapter-service},1652015481,4646
{consumergroup=adapter-service},1652015486,4646
{consumergroup=adapter-service},1652015491,4583
{consumergroup=adapter-service},1652015496,4583
{consumergroup=adapter-service},1652015501,4583
{consumergroup=adapter-service},1652015506,3221
{consumergroup=adapter-service},1652015511,3221
{consumergroup=adapter-service},1652015516,3221
{consumergroup=adapter-service},1652015521,7078
{consumergroup=adapter-service},1652015526,7078
{consumergroup=adapter-service},1652015531,7078
{consumergroup=adapter-service},1652015536,3544
{consumergroup=adapter-service},1652015541,3544
{consumergroup=adapter-service},1652015546,3544
{consumergroup=adapter-service},1652015551,1890
{consumergroup=adapter-service},1652015556,1890
{consumergroup=adapter-service},1652015561,1890
{consumergroup=adapter-service},1652015566,2551
{consumergroup=adapter-service},1652015571,2551
{consumergroup=adapter-service},1652015576,2551
{consumergroup=adapter-service},1652015581,1174
{consumergroup=landscape-service},1652015176,285
{consumergroup=landscape-service},1652015181,285
{consumergroup=landscape-service},1652015186,285
{consumergroup=landscape-service},1652015191,10690
{consumergroup=landscape-service},1652015196,10690
{consumergroup=landscape-service},1652015201,10690
{consumergroup=landscape-service},1652015206,10393
{consumergroup=landscape-service},1652015211,10393
{consumergroup=landscape-service},1652015216,10393
{consumergroup=landscape-service},1652015221,9213
{consumergroup=landscape-service},1652015226,9213
{consumergroup=landscape-service},1652015231,9213
{consumergroup=landscape-service},1652015236,8943
{consumergroup=landscape-service},1652015241,8943
{consumergroup=landscape-service},1652015246,8943
{consumergroup=landscape-service},1652015251,12678
{consumergroup=landscape-service},1652015256,12678
{consumergroup=landscape-service},1652015261,12678
{consumergroup=landscape-service},1652015266,8532
{consumergroup=landscape-service},1652015271,8532
{consumergroup=landscape-service},1652015276,8532
{consumergroup=landscape-service},1652015281,9340
{consumergroup=landscape-service},1652015286,9340
{consumergroup=landscape-service},1652015291,9340
{consumergroup=landscape-service},1652015296,13085
{consumergroup=landscape-service},1652015301,13085
{consumergroup=landscape-service},1652015306,13085
{consumergroup=landscape-service},1652015311,12246
{consumergroup=landscape-service},1652015316,12246
{consumergroup=landscape-service},1652015321,12246
{consumergroup=landscape-service},1652015326,7468
{consumergroup=landscape-service},1652015331,7468
{consumergroup=landscape-service},1652015336,7468
{consumergroup=landscape-service},1652015341,12535
{consumergroup=landscape-service},1652015346,12535
{consumergroup=landscape-service},1652015351,12535
{consumergroup=landscape-service},1652015356,7073
{consumergroup=landscape-service},1652015361,7073
{consumergroup=landscape-service},1652015366,7073
{consumergroup=landscape-service},1652015371,7956
{consumergroup=landscape-service},1652015376,7956
{consumergroup=landscape-service},1652015381,7956
{consumergroup=landscape-service},1652015386,7347
{consumergroup=landscape-service},1652015391,7347
{consumergroup=landscape-service},1652015396,7347
{consumergroup=landscape-service},1652015401,6758
{consumergroup=landscape-service},1652015406,6758
{consumergroup=landscape-service},1652015411,6758
{consumergroup=landscape-service},1652015416,6521
{consumergroup=landscape-service},1652015421,6521
{consumergroup=landscape-service},1652015426,6521
{consumergroup=landscape-service},1652015431,6519
{consumergroup=landscape-service},1652015436,6519
{consumergroup=landscape-service},1652015441,6519
{consumergroup=landscape-service},1652015446,7484
{consumergroup=landscape-service},1652015451,7484
{consumergroup=landscape-service},1652015456,7484
{consumergroup=landscape-service},1652015461,6016
{consumergroup=landscape-service},1652015466,6016
{consumergroup=landscape-service},1652015471,6016
{consumergroup=landscape-service},1652015476,5721
{consumergroup=landscape-service},1652015481,5721
{consumergroup=landscape-service},1652015486,5721
{consumergroup=landscape-service},1652015491,5727
{consumergroup=landscape-service},1652015496,5727
{consumergroup=landscape-service},1652015501,5727
{consumergroup=landscape-service},1652015506,6684
{consumergroup=landscape-service},1652015511,6684
{consumergroup=landscape-service},1652015516,6684
{consumergroup=landscape-service},1652015521,10760
{consumergroup=landscape-service},1652015526,10760
{consumergroup=landscape-service},1652015531,10760
{consumergroup=landscape-service},1652015536,5378
{consumergroup=landscape-service},1652015541,5378
{consumergroup=landscape-service},1652015546,5378
{consumergroup=landscape-service},1652015551,5576
{consumergroup=landscape-service},1652015556,5576
{consumergroup=landscape-service},1652015561,5576
{consumergroup=landscape-service},1652015566,5228
{consumergroup=landscape-service},1652015571,5228
{consumergroup=landscape-service},1652015576,5228
{consumergroup=landscape-service},1652015581,5046
{consumergroup=landscape-token-events-consumer},1652015161,0
{consumergroup=landscape-token-events-consumer},1652015166,0
{consumergroup=landscape-token-events-consumer},1652015171,0
{consumergroup=landscape-token-events-consumer},1652015176,0
{consumergroup=landscape-token-events-consumer},1652015181,0
{consumergroup=landscape-token-events-consumer},1652015186,0
{consumergroup=landscape-token-events-consumer},1652015191,0
{consumergroup=landscape-token-events-consumer},1652015196,0
{consumergroup=landscape-token-events-consumer},1652015201,0
{consumergroup=landscape-token-events-consumer},1652015206,0
{consumergroup=landscape-token-events-consumer},1652015211,0
{consumergroup=landscape-token-events-consumer},1652015216,0
{consumergroup=landscape-token-events-consumer},1652015221,0
{consumergroup=landscape-token-events-consumer},1652015226,0
{consumergroup=landscape-token-events-consumer},1652015231,0
{consumergroup=landscape-token-events-consumer},1652015236,0
{consumergroup=landscape-token-events-consumer},1652015241,0
{consumergroup=landscape-token-events-consumer},1652015246,0
{consumergroup=landscape-token-events-consumer},1652015251,0
{consumergroup=landscape-token-events-consumer},1652015256,0
{consumergroup=landscape-token-events-consumer},1652015261,0
{consumergroup=landscape-token-events-consumer},1652015266,0
{consumergroup=landscape-token-events-consumer},1652015271,0
{consumergroup=landscape-token-events-consumer},1652015276,0
{consumergroup=landscape-token-events-consumer},1652015281,0
{consumergroup=landscape-token-events-consumer},1652015286,0
{consumergroup=landscape-token-events-consumer},1652015291,0
{consumergroup=landscape-token-events-consumer},1652015296,0
{consumergroup=landscape-token-events-consumer},1652015301,0
{consumergroup=landscape-token-events-consumer},1652015306,0
{consumergroup=landscape-token-events-consumer},1652015311,0
{consumergroup=landscape-token-events-consumer},1652015316,0
{consumergroup=landscape-token-events-consumer},1652015321,0
{consumergroup=landscape-token-events-consumer},1652015326,0
{consumergroup=landscape-token-events-consumer},1652015331,0
{consumergroup=landscape-token-events-consumer},1652015336,0
{consumergroup=landscape-token-events-consumer},1652015341,0
{consumergroup=landscape-token-events-consumer},1652015346,0
{consumergroup=landscape-token-events-consumer},1652015351,0
{consumergroup=landscape-token-events-consumer},1652015356,0
{consumergroup=landscape-token-events-consumer},1652015361,0
{consumergroup=landscape-token-events-consumer},1652015366,0
{consumergroup=landscape-token-events-consumer},1652015371,0
{consumergroup=landscape-token-events-consumer},1652015376,0
{consumergroup=landscape-token-events-consumer},1652015381,0
{consumergroup=landscape-token-events-consumer},1652015386,0
{consumergroup=landscape-token-events-consumer},1652015391,0
{consumergroup=landscape-token-events-consumer},1652015396,0
{consumergroup=landscape-token-events-consumer},1652015401,0
{consumergroup=landscape-token-events-consumer},1652015406,0
{consumergroup=landscape-token-events-consumer},1652015411,0
{consumergroup=landscape-token-events-consumer},1652015416,0
{consumergroup=landscape-token-events-consumer},1652015421,0
{consumergroup=landscape-token-events-consumer},1652015426,0
{consumergroup=landscape-token-events-consumer},1652015431,0
{consumergroup=landscape-token-events-consumer},1652015436,0
{consumergroup=landscape-token-events-consumer},1652015441,0
{consumergroup=landscape-token-events-consumer},1652015446,0
{consumergroup=landscape-token-events-consumer},1652015451,0
{consumergroup=landscape-token-events-consumer},1652015456,0
{consumergroup=landscape-token-events-consumer},1652015461,0
{consumergroup=landscape-token-events-consumer},1652015466,0
{consumergroup=landscape-token-events-consumer},1652015471,0
{consumergroup=landscape-token-events-consumer},1652015476,0
{consumergroup=landscape-token-events-consumer},1652015481,0
{consumergroup=landscape-token-events-consumer},1652015486,0
{consumergroup=landscape-token-events-consumer},1652015491,0
{consumergroup=landscape-token-events-consumer},1652015496,0
{consumergroup=landscape-token-events-consumer},1652015501,0
{consumergroup=landscape-token-events-consumer},1652015506,0
{consumergroup=landscape-token-events-consumer},1652015511,0
{consumergroup=landscape-token-events-consumer},1652015516,0
{consumergroup=landscape-token-events-consumer},1652015521,0
{consumergroup=landscape-token-events-consumer},1652015526,0
{consumergroup=landscape-token-events-consumer},1652015531,0
{consumergroup=landscape-token-events-consumer},1652015536,0
{consumergroup=landscape-token-events-consumer},1652015541,0
{consumergroup=landscape-token-events-consumer},1652015546,0
{consumergroup=landscape-token-events-consumer},1652015551,0
{consumergroup=landscape-token-events-consumer},1652015556,0
{consumergroup=landscape-token-events-consumer},1652015561,0
{consumergroup=landscape-token-events-consumer},1652015566,0
{consumergroup=landscape-token-events-consumer},1652015571,0
{consumergroup=landscape-token-events-consumer},1652015576,0
{consumergroup=landscape-token-events-consumer},1652015581,0
{consumergroup=trace-service},1652015176,4237
{consumergroup=trace-service},1652015181,4237
{consumergroup=trace-service},1652015186,4237
{consumergroup=trace-service},1652015191,30175
{consumergroup=trace-service},1652015196,30175
{consumergroup=trace-service},1652015201,30175
{consumergroup=trace-service},1652015206,88095
{consumergroup=trace-service},1652015211,88095
{consumergroup=trace-service},1652015216,88095
{consumergroup=trace-service},1652015221,18219
{consumergroup=trace-service},1652015226,18219
{consumergroup=trace-service},1652015231,18219
{consumergroup=trace-service},1652015236,64738
{consumergroup=trace-service},1652015241,64738
{consumergroup=trace-service},1652015246,64738
{consumergroup=trace-service},1652015251,17491
{consumergroup=trace-service},1652015256,17491
{consumergroup=trace-service},1652015261,17491
{consumergroup=trace-service},1652015266,58111
{consumergroup=trace-service},1652015271,58111
{consumergroup=trace-service},1652015276,58111
{consumergroup=trace-service},1652015281,28264
{consumergroup=trace-service},1652015286,28264
{consumergroup=trace-service},1652015291,28264
{consumergroup=trace-service},1652015296,72013
{consumergroup=trace-service},1652015301,72013
{consumergroup=trace-service},1652015306,72013
{consumergroup=trace-service},1652015311,107004
{consumergroup=trace-service},1652015316,107004
{consumergroup=trace-service},1652015321,107004
{consumergroup=trace-service},1652015326,66808
{consumergroup=trace-service},1652015331,66808
{consumergroup=trace-service},1652015336,66808
{consumergroup=trace-service},1652015341,21552
{consumergroup=trace-service},1652015346,21552
{consumergroup=trace-service},1652015351,21552
{consumergroup=trace-service},1652015356,64947
{consumergroup=trace-service},1652015361,64947
{consumergroup=trace-service},1652015366,64947
{consumergroup=trace-service},1652015371,35132
{consumergroup=trace-service},1652015376,35132
{consumergroup=trace-service},1652015381,35132
{consumergroup=trace-service},1652015386,64920
{consumergroup=trace-service},1652015391,64920
{consumergroup=trace-service},1652015396,64920
{consumergroup=trace-service},1652015401,27498
{consumergroup=trace-service},1652015406,27498
{consumergroup=trace-service},1652015411,27498
{consumergroup=trace-service},1652015416,63750
{consumergroup=trace-service},1652015421,63750
{consumergroup=trace-service},1652015426,63750
{consumergroup=trace-service},1652015431,21913
{consumergroup=trace-service},1652015436,21913
{consumergroup=trace-service},1652015441,21913
{consumergroup=trace-service},1652015446,60226
{consumergroup=trace-service},1652015451,60226
{consumergroup=trace-service},1652015456,60226
{consumergroup=trace-service},1652015461,28258
{consumergroup=trace-service},1652015466,28258
{consumergroup=trace-service},1652015471,28258
{consumergroup=trace-service},1652015476,76940
{consumergroup=trace-service},1652015481,76940
{consumergroup=trace-service},1652015486,76940
{consumergroup=trace-service},1652015491,26744
{consumergroup=trace-service},1652015496,26744
{consumergroup=trace-service},1652015501,26744
{consumergroup=trace-service},1652015506,66263
{consumergroup=trace-service},1652015511,66263
{consumergroup=trace-service},1652015516,66263
{consumergroup=trace-service},1652015521,133793
{consumergroup=trace-service},1652015526,133793
{consumergroup=trace-service},1652015531,133793
{consumergroup=trace-service},1652015536,95814
{consumergroup=trace-service},1652015541,95814
{consumergroup=trace-service},1652015546,95814
{consumergroup=trace-service},1652015551,29291
{consumergroup=trace-service},1652015556,29291
{consumergroup=trace-service},1652015561,29291
{consumergroup=trace-service},1652015566,64267
{consumergroup=trace-service},1652015571,64267
{consumergroup=trace-service},1652015576,64267
{consumergroup=trace-service},1652015581,69540
{consumergroup=trace-token-events-consumer},1652015161,0
{consumergroup=trace-token-events-consumer},1652015166,0
{consumergroup=trace-token-events-consumer},1652015171,0
{consumergroup=trace-token-events-consumer},1652015176,0
{consumergroup=trace-token-events-consumer},1652015181,0
{consumergroup=trace-token-events-consumer},1652015186,0
{consumergroup=trace-token-events-consumer},1652015191,0
{consumergroup=trace-token-events-consumer},1652015196,0
{consumergroup=trace-token-events-consumer},1652015201,0
{consumergroup=trace-token-events-consumer},1652015206,0
{consumergroup=trace-token-events-consumer},1652015211,0
{consumergroup=trace-token-events-consumer},1652015216,0
{consumergroup=trace-token-events-consumer},1652015221,0
{consumergroup=trace-token-events-consumer},1652015226,0
{consumergroup=trace-token-events-consumer},1652015231,0
{consumergroup=trace-token-events-consumer},1652015236,0
{consumergroup=trace-token-events-consumer},1652015241,0
{consumergroup=trace-token-events-consumer},1652015246,0
{consumergroup=trace-token-events-consumer},1652015251,0
{consumergroup=trace-token-events-consumer},1652015256,0
{consumergroup=trace-token-events-consumer},1652015261,0
{consumergroup=trace-token-events-consumer},1652015266,0
{consumergroup=trace-token-events-consumer},1652015271,0
{consumergroup=trace-token-events-consumer},1652015276,0
{consumergroup=trace-token-events-consumer},1652015281,0
{consumergroup=trace-token-events-consumer},1652015286,0
{consumergroup=trace-token-events-consumer},1652015291,0
{consumergroup=trace-token-events-consumer},1652015296,0
{consumergroup=trace-token-events-consumer},1652015301,0
{consumergroup=trace-token-events-consumer},1652015306,0
{consumergroup=trace-token-events-consumer},1652015311,0
{consumergroup=trace-token-events-consumer},1652015316,0
{consumergroup=trace-token-events-consumer},1652015321,0
{consumergroup=trace-token-events-consumer},1652015326,0
{consumergroup=trace-token-events-consumer},1652015331,0
{consumergroup=trace-token-events-consumer},1652015336,0
{consumergroup=trace-token-events-consumer},1652015341,0
{consumergroup=trace-token-events-consumer},1652015346,0
{consumergroup=trace-token-events-consumer},1652015351,0
{consumergroup=trace-token-events-consumer},1652015356,0
{consumergroup=trace-token-events-consumer},1652015361,0
{consumergroup=trace-token-events-consumer},1652015366,0
{consumergroup=trace-token-events-consumer},1652015371,0
{consumergroup=trace-token-events-consumer},1652015376,0
{consumergroup=trace-token-events-consumer},1652015381,0
{consumergroup=trace-token-events-consumer},1652015386,0
{consumergroup=trace-token-events-consumer},1652015391,0
{consumergroup=trace-token-events-consumer},1652015396,0
{consumergroup=trace-token-events-consumer},1652015401,0
{consumergroup=trace-token-events-consumer},1652015406,0
{consumergroup=trace-token-events-consumer},1652015411,0
{consumergroup=trace-token-events-consumer},1652015416,0
{consumergroup=trace-token-events-consumer},1652015421,0
{consumergroup=trace-token-events-consumer},1652015426,0
{consumergroup=trace-token-events-consumer},1652015431,0
{consumergroup=trace-token-events-consumer},1652015436,0
{consumergroup=trace-token-events-consumer},1652015441,0
{consumergroup=trace-token-events-consumer},1652015446,0
{consumergroup=trace-token-events-consumer},1652015451,0
{consumergroup=trace-token-events-consumer},1652015456,0
{consumergroup=trace-token-events-consumer},1652015461,0
{consumergroup=trace-token-events-consumer},1652015466,0
{consumergroup=trace-token-events-consumer},1652015471,0
{consumergroup=trace-token-events-consumer},1652015476,0
{consumergroup=trace-token-events-consumer},1652015481,0
{consumergroup=trace-token-events-consumer},1652015486,0
{consumergroup=trace-token-events-consumer},1652015491,0
{consumergroup=trace-token-events-consumer},1652015496,0
{consumergroup=trace-token-events-consumer},1652015501,0
{consumergroup=trace-token-events-consumer},1652015506,0
{consumergroup=trace-token-events-consumer},1652015511,0
{consumergroup=trace-token-events-consumer},1652015516,0
{consumergroup=trace-token-events-consumer},1652015521,0
{consumergroup=trace-token-events-consumer},1652015526,0
{consumergroup=trace-token-events-consumer},1652015531,0
{consumergroup=trace-token-events-consumer},1652015536,0
{consumergroup=trace-token-events-consumer},1652015541,0
{consumergroup=trace-token-events-consumer},1652015546,0
{consumergroup=trace-token-events-consumer},1652015551,0
{consumergroup=trace-token-events-consumer},1652015556,0
{consumergroup=trace-token-events-consumer},1652015561,0
{consumergroup=trace-token-events-consumer},1652015566,0
{consumergroup=trace-token-events-consumer},1652015571,0
{consumergroup=trace-token-events-consumer},1652015576,0
{consumergroup=trace-token-events-consumer},1652015581,0
