labels,timestamp,value
{consumergroup=__strimzi-topic-operator-kstreams},1652005216,3
{consumergroup=__strimzi-topic-operator-kstreams},1652005221,3
{consumergroup=__strimzi-topic-operator-kstreams},1652005226,3
{consumergroup=__strimzi-topic-operator-kstreams},1652005231,14
{consumergroup=__strimzi-topic-operator-kstreams},1652005236,14
{consumergroup=__strimzi-topic-operator-kstreams},1652005241,14
{consumergroup=__strimzi-topic-operator-kstreams},1652005246,0
{consumergroup=__strimzi-topic-operator-kstreams},1652005251,0
{consumergroup=__strimzi-topic-operator-kstreams},1652005256,0
{consumergroup=__strimzi-topic-operator-kstreams},1652005261,0
{consumergroup=__strimzi-topic-operator-kstreams},1652005266,0
{consumergroup=__strimzi-topic-operator-kstreams},1652005271,0
{consumergroup=__strimzi-topic-operator-kstreams},1652005276,0
{consumergroup=__strimzi-topic-operator-kstreams},1652005281,0
{consumergroup=__strimzi-topic-operator-kstreams},1652005286,0
{consumergroup=__strimzi-topic-operator-kstreams},1652005291,0
{consumergroup=__strimzi-topic-operator-kstreams},1652005296,0
{consumergroup=__strimzi-topic-operator-kstreams},1652005301,0
{consumergroup=__strimzi-topic-operator-kstreams},1652005306,0
{consumergroup=__strimzi-topic-operator-kstreams},1652005311,0
{consumergroup=__strimzi-topic-operator-kstreams},1652005316,0
{consumergroup=__strimzi-topic-operator-kstreams},1652005321,0
{consumergroup=__strimzi-topic-operator-kstreams},1652005326,0
{consumergroup=__strimzi-topic-operator-kstreams},1652005331,0
{consumergroup=__strimzi-topic-operator-kstreams},1652005336,0
{consumergroup=__strimzi-topic-operator-kstreams},1652005341,0
{consumergroup=__strimzi-topic-operator-kstreams},1652005346,0
{consumergroup=__strimzi-topic-operator-kstreams},1652005351,0
{consumergroup=__strimzi-topic-operator-kstreams},1652005356,0
{consumergroup=__strimzi-topic-operator-kstreams},1652005361,0
{consumergroup=__strimzi-topic-operator-kstreams},1652005366,0
{consumergroup=__strimzi-topic-operator-kstreams},1652005371,0
{consumergroup=__strimzi-topic-operator-kstreams},1652005376,0
{consumergroup=__strimzi-topic-operator-kstreams},1652005381,0
{consumergroup=__strimzi-topic-operator-kstreams},1652005386,0
{consumergroup=__strimzi-topic-operator-kstreams},1652005391,0
{consumergroup=__strimzi-topic-operator-kstreams},1652005396,0
{consumergroup=__strimzi-topic-operator-kstreams},1652005401,0
{consumergroup=__strimzi-topic-operator-kstreams},1652005406,0
{consumergroup=__strimzi-topic-operator-kstreams},1652005411,0
{consumergroup=__strimzi-topic-operator-kstreams},1652005416,0
{consumergroup=__strimzi-topic-operator-kstreams},1652005421,0
{consumergroup=__strimzi-topic-operator-kstreams},1652005426,0
{consumergroup=__strimzi-topic-operator-kstreams},1652005431,0
{consumergroup=__strimzi-topic-operator-kstreams},1652005436,0
{consumergroup=__strimzi-topic-operator-kstreams},1652005441,0
{consumergroup=__strimzi-topic-operator-kstreams},1652005446,0
{consumergroup=__strimzi-topic-operator-kstreams},1652005451,0
{consumergroup=__strimzi-topic-operator-kstreams},1652005456,0
{consumergroup=__strimzi-topic-operator-kstreams},1652005461,0
{consumergroup=__strimzi-topic-operator-kstreams},1652005466,0
{consumergroup=__strimzi-topic-operator-kstreams},1652005471,0
{consumergroup=__strimzi-topic-operator-kstreams},1652005476,0
{consumergroup=__strimzi-topic-operator-kstreams},1652005481,0
{consumergroup=__strimzi-topic-operator-kstreams},1652005486,0
{consumergroup=__strimzi-topic-operator-kstreams},1652005491,0
{consumergroup=__strimzi-topic-operator-kstreams},1652005496,0
{consumergroup=__strimzi-topic-operator-kstreams},1652005501,0
{consumergroup=__strimzi-topic-operator-kstreams},1652005506,0
{consumergroup=__strimzi-topic-operator-kstreams},1652005511,0
{consumergroup=__strimzi-topic-operator-kstreams},1652005516,0
{consumergroup=__strimzi-topic-operator-kstreams},1652005521,0
{consumergroup=__strimzi-topic-operator-kstreams},1652005526,0
{consumergroup=__strimzi-topic-operator-kstreams},1652005531,0
{consumergroup=__strimzi-topic-operator-kstreams},1652005536,0
{consumergroup=__strimzi-topic-operator-kstreams},1652005541,0
{consumergroup=__strimzi-topic-operator-kstreams},1652005546,0
{consumergroup=__strimzi-topic-operator-kstreams},1652005551,0
{consumergroup=__strimzi-topic-operator-kstreams},1652005556,0
{consumergroup=__strimzi-topic-operator-kstreams},1652005561,0
{consumergroup=__strimzi-topic-operator-kstreams},1652005566,0
{consumergroup=__strimzi-topic-operator-kstreams},1652005571,0
{consumergroup=__strimzi-topic-operator-kstreams},1652005576,0
{consumergroup=__strimzi-topic-operator-kstreams},1652005581,0
{consumergroup=__strimzi-topic-operator-kstreams},1652005586,0
{consumergroup=__strimzi-topic-operator-kstreams},1652005591,0
{consumergroup=__strimzi-topic-operator-kstreams},1652005596,0
{consumergroup=__strimzi-topic-operator-kstreams},1652005601,0
{consumergroup=__strimzi-topic-operator-kstreams},1652005606,0
{consumergroup=__strimzi-topic-operator-kstreams},1652005611,0
{consumergroup=__strimzi-topic-operator-kstreams},1652005616,0
{consumergroup=__strimzi-topic-operator-kstreams},1652005621,0
{consumergroup=__strimzi-topic-operator-kstreams},1652005626,0
{consumergroup=__strimzi-topic-operator-kstreams},1652005631,0
{consumergroup=__strimzi-topic-operator-kstreams},1652005636,0
{consumergroup=__strimzi-topic-operator-kstreams},1652005641,0
{consumergroup=__strimzi-topic-operator-kstreams},1652005646,0
{consumergroup=__strimzi-topic-operator-kstreams},1652005651,0
{consumergroup=__strimzi-topic-operator-kstreams},1652005656,0
{consumergroup=__strimzi-topic-operator-kstreams},1652005661,0
{consumergroup=__strimzi-topic-operator-kstreams},1652005666,0
{consumergroup=adapter-service},1652005246,0
{consumergroup=adapter-service},1652005251,0
{consumergroup=adapter-service},1652005256,0
{consumergroup=adapter-service},1652005261,3277
{consumergroup=adapter-service},1652005266,3277
{consumergroup=adapter-service},1652005271,3277
{consumergroup=adapter-service},1652005276,3722
{consumergroup=adapter-service},1652005281,3722
{consumergroup=adapter-service},1652005286,3722
{consumergroup=adapter-service},1652005291,2718
{consumergroup=adapter-service},1652005296,2718
{consumergroup=adapter-service},1652005301,2718
{consumergroup=adapter-service},1652005306,2116
{consumergroup=adapter-service},1652005311,2116
{consumergroup=adapter-service},1652005316,2116
{consumergroup=adapter-service},1652005321,1902
{consumergroup=adapter-service},1652005326,1902
{consumergroup=adapter-service},1652005331,1902
{consumergroup=adapter-service},1652005336,1555
{consumergroup=adapter-service},1652005341,1555
{consumergroup=adapter-service},1652005346,1555
{consumergroup=adapter-service},1652005351,2320
{consumergroup=adapter-service},1652005356,2320
{consumergroup=adapter-service},1652005361,2320
{consumergroup=adapter-service},1652005366,1081
{consumergroup=adapter-service},1652005371,1081
{consumergroup=adapter-service},1652005376,1081
{consumergroup=adapter-service},1652005381,776
{consumergroup=adapter-service},1652005386,776
{consumergroup=adapter-service},1652005391,776
{consumergroup=adapter-service},1652005396,565
{consumergroup=adapter-service},1652005401,565
{consumergroup=adapter-service},1652005406,565
{consumergroup=adapter-service},1652005411,383
{consumergroup=adapter-service},1652005416,383
{consumergroup=adapter-service},1652005421,383
{consumergroup=adapter-service},1652005426,138
{consumergroup=adapter-service},1652005431,138
{consumergroup=adapter-service},1652005436,138
{consumergroup=adapter-service},1652005441,103
{consumergroup=adapter-service},1652005446,103
{consumergroup=adapter-service},1652005451,103
{consumergroup=adapter-service},1652005456,33
{consumergroup=adapter-service},1652005461,33
{consumergroup=adapter-service},1652005466,33
{consumergroup=adapter-service},1652005471,0
{consumergroup=adapter-service},1652005476,0
{consumergroup=adapter-service},1652005481,0
{consumergroup=adapter-service},1652005486,2914
{consumergroup=adapter-service},1652005491,2914
{consumergroup=adapter-service},1652005496,2914
{consumergroup=adapter-service},1652005501,8832
{consumergroup=adapter-service},1652005506,8832
{consumergroup=adapter-service},1652005511,8832
{consumergroup=adapter-service},1652005516,11625
{consumergroup=adapter-service},1652005521,11625
{consumergroup=adapter-service},1652005526,11625
{consumergroup=adapter-service},1652005531,17185
{consumergroup=adapter-service},1652005536,17185
{consumergroup=adapter-service},1652005541,17185
{consumergroup=adapter-service},1652005546,16994
{consumergroup=adapter-service},1652005551,16994
{consumergroup=adapter-service},1652005556,16994
{consumergroup=adapter-service},1652005561,17628
{consumergroup=adapter-service},1652005566,17628
{consumergroup=adapter-service},1652005571,17628
{consumergroup=adapter-service},1652005576,1934
{consumergroup=adapter-service},1652005581,1934
{consumergroup=adapter-service},1652005586,1934
{consumergroup=adapter-service},1652005591,16506
{consumergroup=adapter-service},1652005596,16506
{consumergroup=adapter-service},1652005601,16506
{consumergroup=adapter-service},1652005606,16731
{consumergroup=adapter-service},1652005611,16731
{consumergroup=adapter-service},1652005616,16731
{consumergroup=adapter-service},1652005621,15535
{consumergroup=adapter-service},1652005626,15535
{consumergroup=adapter-service},1652005631,15535
{consumergroup=adapter-service},1652005636,16324
{consumergroup=adapter-service},1652005641,16324
{consumergroup=adapter-service},1652005646,16324
{consumergroup=adapter-service},1652005651,15216
{consumergroup=adapter-service},1652005656,15216
{consumergroup=adapter-service},1652005661,15216
{consumergroup=adapter-service},1652005666,14708
{consumergroup=landscape-service},1652005261,296
{consumergroup=landscape-service},1652005266,296
{consumergroup=landscape-service},1652005271,296
{consumergroup=landscape-service},1652005276,5662
{consumergroup=landscape-service},1652005281,5662
{consumergroup=landscape-service},1652005286,5662
{consumergroup=landscape-service},1652005291,5751
{consumergroup=landscape-service},1652005296,5751
{consumergroup=landscape-service},1652005301,5751
{consumergroup=landscape-service},1652005306,6397
{consumergroup=landscape-service},1652005311,6397
{consumergroup=landscape-service},1652005316,6397
{consumergroup=landscape-service},1652005321,5335
{consumergroup=landscape-service},1652005326,5335
{consumergroup=landscape-service},1652005331,5335
{consumergroup=landscape-service},1652005336,5337
{consumergroup=landscape-service},1652005341,5337
{consumergroup=landscape-service},1652005346,5337
{consumergroup=landscape-service},1652005351,5258
{consumergroup=landscape-service},1652005356,5258
{consumergroup=landscape-service},1652005361,5258
{consumergroup=landscape-service},1652005366,6061
{consumergroup=landscape-service},1652005371,6061
{consumergroup=landscape-service},1652005376,6061
{consumergroup=landscape-service},1652005381,5199
{consumergroup=landscape-service},1652005386,5199
{consumergroup=landscape-service},1652005391,5199
{consumergroup=landscape-service},1652005396,5829
{consumergroup=landscape-service},1652005401,5829
{consumergroup=landscape-service},1652005406,5829
{consumergroup=landscape-service},1652005411,4903
{consumergroup=landscape-service},1652005416,4903
{consumergroup=landscape-service},1652005421,4903
{consumergroup=landscape-service},1652005426,5687
{consumergroup=landscape-service},1652005431,5687
{consumergroup=landscape-service},1652005436,5687
{consumergroup=landscape-service},1652005441,4883
{consumergroup=landscape-service},1652005446,4883
{consumergroup=landscape-service},1652005451,4883
{consumergroup=landscape-service},1652005456,5154
{consumergroup=landscape-service},1652005461,5154
{consumergroup=landscape-service},1652005466,5154
{consumergroup=landscape-service},1652005471,5426
{consumergroup=landscape-service},1652005476,5426
{consumergroup=landscape-service},1652005481,5426
{consumergroup=landscape-service},1652005486,4383
{consumergroup=landscape-service},1652005491,4383
{consumergroup=landscape-service},1652005496,4383
{consumergroup=landscape-service},1652005501,5168
{consumergroup=landscape-service},1652005506,5168
{consumergroup=landscape-service},1652005511,5168
{consumergroup=landscape-service},1652005516,4326
{consumergroup=landscape-service},1652005521,4326
{consumergroup=landscape-service},1652005526,4326
{consumergroup=landscape-service},1652005531,4187
{consumergroup=landscape-service},1652005536,4187
{consumergroup=landscape-service},1652005541,4187
{consumergroup=landscape-service},1652005546,5260
{consumergroup=landscape-service},1652005551,5260
{consumergroup=landscape-service},1652005556,5260
{consumergroup=landscape-service},1652005561,5110
{consumergroup=landscape-service},1652005566,5110
{consumergroup=landscape-service},1652005571,5110
{consumergroup=landscape-service},1652005576,7751
{consumergroup=landscape-service},1652005581,7751
{consumergroup=landscape-service},1652005586,7751
{consumergroup=landscape-service},1652005591,4058
{consumergroup=landscape-service},1652005596,4058
{consumergroup=landscape-service},1652005601,4058
{consumergroup=landscape-service},1652005606,3800
{consumergroup=landscape-service},1652005611,3800
{consumergroup=landscape-service},1652005616,3800
{consumergroup=landscape-service},1652005621,3622
{consumergroup=landscape-service},1652005626,3622
{consumergroup=landscape-service},1652005631,3622
{consumergroup=landscape-service},1652005636,3740
{consumergroup=landscape-service},1652005641,3740
{consumergroup=landscape-service},1652005646,3740
{consumergroup=landscape-service},1652005651,4815
{consumergroup=landscape-service},1652005656,4815
{consumergroup=landscape-service},1652005661,4815
{consumergroup=landscape-service},1652005666,3490
{consumergroup=landscape-token-events-consumer},1652005246,0
{consumergroup=landscape-token-events-consumer},1652005251,0
{consumergroup=landscape-token-events-consumer},1652005256,0
{consumergroup=landscape-token-events-consumer},1652005261,0
{consumergroup=landscape-token-events-consumer},1652005266,0
{consumergroup=landscape-token-events-consumer},1652005271,0
{consumergroup=landscape-token-events-consumer},1652005276,0
{consumergroup=landscape-token-events-consumer},1652005281,0
{consumergroup=landscape-token-events-consumer},1652005286,0
{consumergroup=landscape-token-events-consumer},1652005291,0
{consumergroup=landscape-token-events-consumer},1652005296,0
{consumergroup=landscape-token-events-consumer},1652005301,0
{consumergroup=landscape-token-events-consumer},1652005306,0
{consumergroup=landscape-token-events-consumer},1652005311,0
{consumergroup=landscape-token-events-consumer},1652005316,0
{consumergroup=landscape-token-events-consumer},1652005321,0
{consumergroup=landscape-token-events-consumer},1652005326,0
{consumergroup=landscape-token-events-consumer},1652005331,0
{consumergroup=landscape-token-events-consumer},1652005336,0
{consumergroup=landscape-token-events-consumer},1652005341,0
{consumergroup=landscape-token-events-consumer},1652005346,0
{consumergroup=landscape-token-events-consumer},1652005351,0
{consumergroup=landscape-token-events-consumer},1652005356,0
{consumergroup=landscape-token-events-consumer},1652005361,0
{consumergroup=landscape-token-events-consumer},1652005366,0
{consumergroup=landscape-token-events-consumer},1652005371,0
{consumergroup=landscape-token-events-consumer},1652005376,0
{consumergroup=landscape-token-events-consumer},1652005381,0
{consumergroup=landscape-token-events-consumer},1652005386,0
{consumergroup=landscape-token-events-consumer},1652005391,0
{consumergroup=landscape-token-events-consumer},1652005396,0
{consumergroup=landscape-token-events-consumer},1652005401,0
{consumergroup=landscape-token-events-consumer},1652005406,0
{consumergroup=landscape-token-events-consumer},1652005411,0
{consumergroup=landscape-token-events-consumer},1652005416,0
{consumergroup=landscape-token-events-consumer},1652005421,0
{consumergroup=landscape-token-events-consumer},1652005426,0
{consumergroup=landscape-token-events-consumer},1652005431,0
{consumergroup=landscape-token-events-consumer},1652005436,0
{consumergroup=landscape-token-events-consumer},1652005441,0
{consumergroup=landscape-token-events-consumer},1652005446,0
{consumergroup=landscape-token-events-consumer},1652005451,0
{consumergroup=landscape-token-events-consumer},1652005456,0
{consumergroup=landscape-token-events-consumer},1652005461,0
{consumergroup=landscape-token-events-consumer},1652005466,0
{consumergroup=landscape-token-events-consumer},1652005471,0
{consumergroup=landscape-token-events-consumer},1652005476,0
{consumergroup=landscape-token-events-consumer},1652005481,0
{consumergroup=landscape-token-events-consumer},1652005486,0
{consumergroup=landscape-token-events-consumer},1652005491,0
{consumergroup=landscape-token-events-consumer},1652005496,0
{consumergroup=landscape-token-events-consumer},1652005501,0
{consumergroup=landscape-token-events-consumer},1652005506,0
{consumergroup=landscape-token-events-consumer},1652005511,0
{consumergroup=landscape-token-events-consumer},1652005516,0
{consumergroup=landscape-token-events-consumer},1652005521,0
{consumergroup=landscape-token-events-consumer},1652005526,0
{consumergroup=landscape-token-events-consumer},1652005531,0
{consumergroup=landscape-token-events-consumer},1652005536,0
{consumergroup=landscape-token-events-consumer},1652005541,0
{consumergroup=landscape-token-events-consumer},1652005546,0
{consumergroup=landscape-token-events-consumer},1652005551,0
{consumergroup=landscape-token-events-consumer},1652005556,0
{consumergroup=landscape-token-events-consumer},1652005561,0
{consumergroup=landscape-token-events-consumer},1652005566,0
{consumergroup=landscape-token-events-consumer},1652005571,0
{consumergroup=landscape-token-events-consumer},1652005576,0
{consumergroup=landscape-token-events-consumer},1652005581,0
{consumergroup=landscape-token-events-consumer},1652005586,0
{consumergroup=landscape-token-events-consumer},1652005591,0
{consumergroup=landscape-token-events-consumer},1652005596,0
{consumergroup=landscape-token-events-consumer},1652005601,0
{consumergroup=landscape-token-events-consumer},1652005606,0
{consumergroup=landscape-token-events-consumer},1652005611,0
{consumergroup=landscape-token-events-consumer},1652005616,0
{consumergroup=landscape-token-events-consumer},1652005621,0
{consumergroup=landscape-token-events-consumer},1652005626,0
{consumergroup=landscape-token-events-consumer},1652005631,0
{consumergroup=landscape-token-events-consumer},1652005636,0
{consumergroup=landscape-token-events-consumer},1652005641,0
{consumergroup=landscape-token-events-consumer},1652005646,0
{consumergroup=landscape-token-events-consumer},1652005651,0
{consumergroup=landscape-token-events-consumer},1652005656,0
{consumergroup=landscape-token-events-consumer},1652005661,0
{consumergroup=landscape-token-events-consumer},1652005666,0
{consumergroup=trace-service},1652005261,5281
{consumergroup=trace-service},1652005266,5281
{consumergroup=trace-service},1652005271,5281
{consumergroup=trace-service},1652005276,63794
{consumergroup=trace-service},1652005281,63794
{consumergroup=trace-service},1652005286,63794
{consumergroup=trace-service},1652005291,16882
{consumergroup=trace-service},1652005296,16882
{consumergroup=trace-service},1652005301,16882
{consumergroup=trace-service},1652005306,56376
{consumergroup=trace-service},1652005311,56376
{consumergroup=trace-service},1652005316,56376
{consumergroup=trace-service},1652005321,28522
{consumergroup=trace-service},1652005326,28522
{consumergroup=trace-service},1652005331,28522
{consumergroup=trace-service},1652005336,62260
{consumergroup=trace-service},1652005341,62260
{consumergroup=trace-service},1652005346,62260
{consumergroup=trace-service},1652005351,11943
{consumergroup=trace-service},1652005356,11943
{consumergroup=trace-service},1652005361,11943
{consumergroup=trace-service},1652005366,58910
{consumergroup=trace-service},1652005371,58910
{consumergroup=trace-service},1652005376,58910
{consumergroup=trace-service},1652005381,12900
{consumergroup=trace-service},1652005386,12900
{consumergroup=trace-service},1652005391,12900
{consumergroup=trace-service},1652005396,56954
{consumergroup=trace-service},1652005401,56954
{consumergroup=trace-service},1652005406,56954
{consumergroup=trace-service},1652005411,139688
{consumergroup=trace-service},1652005416,139688
{consumergroup=trace-service},1652005421,139688
{consumergroup=trace-service},1652005426,61623
{consumergroup=trace-service},1652005431,61623
{consumergroup=trace-service},1652005436,61623
{consumergroup=trace-service},1652005441,24205
{consumergroup=trace-service},1652005446,24205
{consumergroup=trace-service},1652005451,24205
{consumergroup=trace-service},1652005456,46943
{consumergroup=trace-service},1652005461,46943
{consumergroup=trace-service},1652005466,46943
{consumergroup=trace-service},1652005471,17250
{consumergroup=trace-service},1652005476,17250
{consumergroup=trace-service},1652005481,17250
{consumergroup=trace-service},1652005486,54625
{consumergroup=trace-service},1652005491,54625
{consumergroup=trace-service},1652005496,54625
{consumergroup=trace-service},1652005501,14678
{consumergroup=trace-service},1652005506,14678
{consumergroup=trace-service},1652005511,14678
{consumergroup=trace-service},1652005516,56205
{consumergroup=trace-service},1652005521,56205
{consumergroup=trace-service},1652005526,56205
{consumergroup=trace-service},1652005531,27755
{consumergroup=trace-service},1652005536,27755
{consumergroup=trace-service},1652005541,27755
{consumergroup=trace-service},1652005546,52265
{consumergroup=trace-service},1652005551,52265
{consumergroup=trace-service},1652005556,52265
{consumergroup=trace-service},1652005561,82623
{consumergroup=trace-service},1652005566,82623
{consumergroup=trace-service},1652005571,82623
{consumergroup=trace-service},1652005576,71348
{consumergroup=trace-service},1652005581,71348
{consumergroup=trace-service},1652005586,71348
{consumergroup=trace-service},1652005591,9452
{consumergroup=trace-service},1652005596,9452
{consumergroup=trace-service},1652005601,9452
{consumergroup=trace-service},1652005606,54872
{consumergroup=trace-service},1652005611,54872
{consumergroup=trace-service},1652005616,54872
{consumergroup=trace-service},1652005621,25566
{consumergroup=trace-service},1652005626,25566
{consumergroup=trace-service},1652005631,25566
{consumergroup=trace-service},1652005636,62381
{consumergroup=trace-service},1652005641,62381
{consumergroup=trace-service},1652005646,62381
{consumergroup=trace-service},1652005651,24271
{consumergroup=trace-service},1652005656,24271
{consumergroup=trace-service},1652005661,24271
{consumergroup=trace-service},1652005666,70626
{consumergroup=trace-token-events-consumer},1652005246,0
{consumergroup=trace-token-events-consumer},1652005251,0
{consumergroup=trace-token-events-consumer},1652005256,0
{consumergroup=trace-token-events-consumer},1652005261,0
{consumergroup=trace-token-events-consumer},1652005266,0
{consumergroup=trace-token-events-consumer},1652005271,0
{consumergroup=trace-token-events-consumer},1652005276,0
{consumergroup=trace-token-events-consumer},1652005281,0
{consumergroup=trace-token-events-consumer},1652005286,0
{consumergroup=trace-token-events-consumer},1652005291,0
{consumergroup=trace-token-events-consumer},1652005296,0
{consumergroup=trace-token-events-consumer},1652005301,0
{consumergroup=trace-token-events-consumer},1652005306,0
{consumergroup=trace-token-events-consumer},1652005311,0
{consumergroup=trace-token-events-consumer},1652005316,0
{consumergroup=trace-token-events-consumer},1652005321,0
{consumergroup=trace-token-events-consumer},1652005326,0
{consumergroup=trace-token-events-consumer},1652005331,0
{consumergroup=trace-token-events-consumer},1652005336,0
{consumergroup=trace-token-events-consumer},1652005341,0
{consumergroup=trace-token-events-consumer},1652005346,0
{consumergroup=trace-token-events-consumer},1652005351,0
{consumergroup=trace-token-events-consumer},1652005356,0
{consumergroup=trace-token-events-consumer},1652005361,0
{consumergroup=trace-token-events-consumer},1652005366,0
{consumergroup=trace-token-events-consumer},1652005371,0
{consumergroup=trace-token-events-consumer},1652005376,0
{consumergroup=trace-token-events-consumer},1652005381,0
{consumergroup=trace-token-events-consumer},1652005386,0
{consumergroup=trace-token-events-consumer},1652005391,0
{consumergroup=trace-token-events-consumer},1652005396,0
{consumergroup=trace-token-events-consumer},1652005401,0
{consumergroup=trace-token-events-consumer},1652005406,0
{consumergroup=trace-token-events-consumer},1652005411,0
{consumergroup=trace-token-events-consumer},1652005416,0
{consumergroup=trace-token-events-consumer},1652005421,0
{consumergroup=trace-token-events-consumer},1652005426,0
{consumergroup=trace-token-events-consumer},1652005431,0
{consumergroup=trace-token-events-consumer},1652005436,0
{consumergroup=trace-token-events-consumer},1652005441,0
{consumergroup=trace-token-events-consumer},1652005446,0
{consumergroup=trace-token-events-consumer},1652005451,0
{consumergroup=trace-token-events-consumer},1652005456,0
{consumergroup=trace-token-events-consumer},1652005461,0
{consumergroup=trace-token-events-consumer},1652005466,0
{consumergroup=trace-token-events-consumer},1652005471,0
{consumergroup=trace-token-events-consumer},1652005476,0
{consumergroup=trace-token-events-consumer},1652005481,0
{consumergroup=trace-token-events-consumer},1652005486,0
{consumergroup=trace-token-events-consumer},1652005491,0
{consumergroup=trace-token-events-consumer},1652005496,0
{consumergroup=trace-token-events-consumer},1652005501,0
{consumergroup=trace-token-events-consumer},1652005506,0
{consumergroup=trace-token-events-consumer},1652005511,0
{consumergroup=trace-token-events-consumer},1652005516,0
{consumergroup=trace-token-events-consumer},1652005521,0
{consumergroup=trace-token-events-consumer},1652005526,0
{consumergroup=trace-token-events-consumer},1652005531,0
{consumergroup=trace-token-events-consumer},1652005536,0
{consumergroup=trace-token-events-consumer},1652005541,0
{consumergroup=trace-token-events-consumer},1652005546,0
{consumergroup=trace-token-events-consumer},1652005551,0
{consumergroup=trace-token-events-consumer},1652005556,0
{consumergroup=trace-token-events-consumer},1652005561,0
{consumergroup=trace-token-events-consumer},1652005566,0
{consumergroup=trace-token-events-consumer},1652005571,0
{consumergroup=trace-token-events-consumer},1652005576,0
{consumergroup=trace-token-events-consumer},1652005581,0
{consumergroup=trace-token-events-consumer},1652005586,0
{consumergroup=trace-token-events-consumer},1652005591,0
{consumergroup=trace-token-events-consumer},1652005596,0
{consumergroup=trace-token-events-consumer},1652005601,0
{consumergroup=trace-token-events-consumer},1652005606,0
{consumergroup=trace-token-events-consumer},1652005611,0
{consumergroup=trace-token-events-consumer},1652005616,0
{consumergroup=trace-token-events-consumer},1652005621,0
{consumergroup=trace-token-events-consumer},1652005626,0
{consumergroup=trace-token-events-consumer},1652005631,0
{consumergroup=trace-token-events-consumer},1652005636,0
{consumergroup=trace-token-events-consumer},1652005641,0
{consumergroup=trace-token-events-consumer},1652005646,0
{consumergroup=trace-token-events-consumer},1652005651,0
{consumergroup=trace-token-events-consumer},1652005656,0
{consumergroup=trace-token-events-consumer},1652005661,0
{consumergroup=trace-token-events-consumer},1652005666,0
