labels,timestamp,value
{job=theodolite-stu200776/combined-trace-podmonitor},1651978290,4.672591000209686
{job=theodolite-stu200776/combined-trace-podmonitor},1651978295,10.688169775503914
{job=theodolite-stu200776/combined-trace-podmonitor},1651978300,13.710618373644872
{job=theodolite-stu200776/combined-trace-podmonitor},1651978305,18.120018283621874
{job=theodolite-stu200776/combined-trace-podmonitor},1651978310,17.825974749034707
{job=theodolite-stu200776/combined-trace-podmonitor},1651978315,16.51549525844506
{job=theodolite-stu200776/combined-trace-podmonitor},1651978320,15.214394926166554
{job=theodolite-stu200776/combined-trace-podmonitor},1651978325,12.326044532819623
{job=theodolite-stu200776/combined-trace-podmonitor},1651978330,6.267507004734302
{job=theodolite-stu200776/combined-trace-podmonitor},1651978335,1.1285166390673358
{job=theodolite-stu200776/combined-trace-podmonitor},1651978340,1.121406770342418
{job=theodolite-stu200776/combined-trace-podmonitor},1651978345,0.03424833467472644
{job=theodolite-stu200776/combined-trace-podmonitor},1651978350,0
{job=theodolite-stu200776/combined-trace-podmonitor},1651978355,0
{job=theodolite-stu200776/combined-trace-podmonitor},1651978360,0
{job=theodolite-stu200776/combined-trace-podmonitor},1651978365,0
{job=theodolite-stu200776/combined-trace-podmonitor},1651978370,0
{job=theodolite-stu200776/combined-trace-podmonitor},1651978375,0
{job=theodolite-stu200776/combined-trace-podmonitor},1651978380,0
{job=theodolite-stu200776/combined-trace-podmonitor},1651978385,0
{job=theodolite-stu200776/combined-trace-podmonitor},1651978390,0
{job=theodolite-stu200776/combined-trace-podmonitor},1651978395,0
{job=theodolite-stu200776/combined-trace-podmonitor},1651978400,0
{job=theodolite-stu200776/combined-trace-podmonitor},1651978405,0
{job=theodolite-stu200776/combined-trace-podmonitor},1651978410,0
{job=theodolite-stu200776/combined-trace-podmonitor},1651978415,0
{job=theodolite-stu200776/combined-trace-podmonitor},1651978420,0
{job=theodolite-stu200776/combined-trace-podmonitor},1651978425,0
{job=theodolite-stu200776/combined-trace-podmonitor},1651978430,0
{job=theodolite-stu200776/combined-trace-podmonitor},1651978435,0
{job=theodolite-stu200776/combined-trace-podmonitor},1651978440,0
{job=theodolite-stu200776/combined-trace-podmonitor},1651978445,0
{job=theodolite-stu200776/combined-trace-podmonitor},1651978450,0
{job=theodolite-stu200776/combined-trace-podmonitor},1651978455,0
{job=theodolite-stu200776/combined-trace-podmonitor},1651978460,0
{job=theodolite-stu200776/combined-trace-podmonitor},1651978465,0
{job=theodolite-stu200776/combined-trace-podmonitor},1651978470,0
{job=theodolite-stu200776/combined-trace-podmonitor},1651978475,0
{job=theodolite-stu200776/combined-trace-podmonitor},1651978480,0
{job=theodolite-stu200776/combined-trace-podmonitor},1651978485,0
{job=theodolite-stu200776/combined-trace-podmonitor},1651978490,0
{job=theodolite-stu200776/combined-trace-podmonitor},1651978495,0
{job=theodolite-stu200776/combined-trace-podmonitor},1651978500,0
{job=theodolite-stu200776/combined-trace-podmonitor},1651978505,0
{job=theodolite-stu200776/combined-trace-podmonitor},1651978510,0
{job=theodolite-stu200776/combined-trace-podmonitor},1651978515,0
{job=theodolite-stu200776/combined-trace-podmonitor},1651978520,0
{job=theodolite-stu200776/combined-trace-podmonitor},1651978525,0
{job=theodolite-stu200776/combined-trace-podmonitor},1651978530,0
{job=theodolite-stu200776/combined-trace-podmonitor},1651978535,0
{job=theodolite-stu200776/combined-trace-podmonitor},1651978540,0
{job=theodolite-stu200776/combined-trace-podmonitor},1651978545,0
{job=theodolite-stu200776/combined-trace-podmonitor},1651978550,0
{job=theodolite-stu200776/combined-trace-podmonitor},1651978555,0
{job=theodolite-stu200776/combined-trace-podmonitor},1651978560,0
{job=theodolite-stu200776/combined-trace-podmonitor},1651978565,0
{job=theodolite-stu200776/combined-trace-podmonitor},1651978570,0
{job=theodolite-stu200776/combined-trace-podmonitor},1651978575,0
{job=theodolite-stu200776/combined-trace-podmonitor},1651978580,0
{job=theodolite-stu200776/combined-trace-podmonitor},1651978585,0
{job=theodolite-stu200776/combined-trace-podmonitor},1651978590,0
{job=theodolite-stu200776/combined-trace-podmonitor},1651978595,0
{job=theodolite-stu200776/combined-trace-podmonitor},1651978600,0
{job=theodolite-stu200776/combined-trace-podmonitor},1651978605,0
{job=theodolite-stu200776/combined-trace-podmonitor},1651978610,0
{job=theodolite-stu200776/combined-trace-podmonitor},1651978615,0
{job=theodolite-stu200776/combined-trace-podmonitor},1651978620,0
{job=theodolite-stu200776/combined-trace-podmonitor},1651978625,0
{job=theodolite-stu200776/combined-trace-podmonitor},1651978630,0
{job=theodolite-stu200776/combined-trace-podmonitor},1651978635,0
{job=theodolite-stu200776/combined-trace-podmonitor},1651978640,0
{job=theodolite-stu200776/combined-trace-podmonitor},1651978645,0
{job=theodolite-stu200776/combined-trace-podmonitor},1651978650,0
{job=theodolite-stu200776/combined-trace-podmonitor},1651978655,0
{job=theodolite-stu200776/combined-trace-podmonitor},1651978660,0
