labels,timestamp,value
{job=theodolite-stu200776/combined-trace-podmonitor},1652014099,0
{job=theodolite-stu200776/combined-trace-podmonitor},1652014104,0
{job=theodolite-stu200776/combined-trace-podmonitor},1652014109,0
{job=theodolite-stu200776/combined-trace-podmonitor},1652014114,0
{job=theodolite-stu200776/combined-trace-podmonitor},1652014119,0
{job=theodolite-stu200776/combined-trace-podmonitor},1652014124,0
{job=theodolite-stu200776/combined-trace-podmonitor},1652014129,0
{job=theodolite-stu200776/combined-trace-podmonitor},1652014134,0
{job=theodolite-stu200776/combined-trace-podmonitor},1652014139,0
{job=theodolite-stu200776/combined-trace-podmonitor},1652014144,0
{job=theodolite-stu200776/combined-trace-podmonitor},1652014149,0
{job=theodolite-stu200776/combined-trace-podmonitor},1652014154,0
{job=theodolite-stu200776/combined-trace-podmonitor},1652014159,0
{job=theodolite-stu200776/combined-trace-podmonitor},1652014164,0
{job=theodolite-stu200776/combined-trace-podmonitor},1652014169,0
{job=theodolite-stu200776/combined-trace-podmonitor},1652014174,0
{job=theodolite-stu200776/combined-trace-podmonitor},1652014179,0
{job=theodolite-stu200776/combined-trace-podmonitor},1652014184,0
{job=theodolite-stu200776/combined-trace-podmonitor},1652014189,0
{job=theodolite-stu200776/combined-trace-podmonitor},1652014194,0
{job=theodolite-stu200776/combined-trace-podmonitor},1652014199,0
{job=theodolite-stu200776/combined-trace-podmonitor},1652014204,0
{job=theodolite-stu200776/combined-trace-podmonitor},1652014209,0
{job=theodolite-stu200776/combined-trace-podmonitor},1652014214,0
{job=theodolite-stu200776/combined-trace-podmonitor},1652014219,0
{job=theodolite-stu200776/combined-trace-podmonitor},1652014224,0
{job=theodolite-stu200776/combined-trace-podmonitor},1652014229,0
{job=theodolite-stu200776/combined-trace-podmonitor},1652014234,0
{job=theodolite-stu200776/combined-trace-podmonitor},1652014239,0
{job=theodolite-stu200776/combined-trace-podmonitor},1652014244,0
{job=theodolite-stu200776/combined-trace-podmonitor},1652014249,0
{job=theodolite-stu200776/combined-trace-podmonitor},1652014254,0
{job=theodolite-stu200776/combined-trace-podmonitor},1652014259,0
{job=theodolite-stu200776/combined-trace-podmonitor},1652014264,0
{job=theodolite-stu200776/combined-trace-podmonitor},1652014269,0
{job=theodolite-stu200776/combined-trace-podmonitor},1652014274,0
{job=theodolite-stu200776/combined-trace-podmonitor},1652014279,0
{job=theodolite-stu200776/combined-trace-podmonitor},1652014284,0
{job=theodolite-stu200776/combined-trace-podmonitor},1652014289,0
{job=theodolite-stu200776/combined-trace-podmonitor},1652014294,0
{job=theodolite-stu200776/combined-trace-podmonitor},1652014299,0
{job=theodolite-stu200776/combined-trace-podmonitor},1652014304,0
{job=theodolite-stu200776/combined-trace-podmonitor},1652014309,0
{job=theodolite-stu200776/combined-trace-podmonitor},1652014314,0
{job=theodolite-stu200776/combined-trace-podmonitor},1652014319,0
{job=theodolite-stu200776/combined-trace-podmonitor},1652014324,0
{job=theodolite-stu200776/combined-trace-podmonitor},1652014329,0
{job=theodolite-stu200776/combined-trace-podmonitor},1652014334,0
{job=theodolite-stu200776/combined-trace-podmonitor},1652014339,0
{job=theodolite-stu200776/combined-trace-podmonitor},1652014344,0
{job=theodolite-stu200776/combined-trace-podmonitor},1652014349,0
{job=theodolite-stu200776/combined-trace-podmonitor},1652014354,0
{job=theodolite-stu200776/combined-trace-podmonitor},1652014359,0
{job=theodolite-stu200776/combined-trace-podmonitor},1652014364,0
{job=theodolite-stu200776/combined-trace-podmonitor},1652014369,0
{job=theodolite-stu200776/combined-trace-podmonitor},1652014374,0
{job=theodolite-stu200776/combined-trace-podmonitor},1652014379,0
{job=theodolite-stu200776/combined-trace-podmonitor},1652014384,0
{job=theodolite-stu200776/combined-trace-podmonitor},1652014389,0
{job=theodolite-stu200776/combined-trace-podmonitor},1652014394,0
{job=theodolite-stu200776/combined-trace-podmonitor},1652014399,0
{job=theodolite-stu200776/combined-trace-podmonitor},1652014404,0
{job=theodolite-stu200776/combined-trace-podmonitor},1652014409,0
{job=theodolite-stu200776/combined-trace-podmonitor},1652014414,0
{job=theodolite-stu200776/combined-trace-podmonitor},1652014419,0
{job=theodolite-stu200776/combined-trace-podmonitor},1652014424,0
{job=theodolite-stu200776/combined-trace-podmonitor},1652014429,0
{job=theodolite-stu200776/combined-trace-podmonitor},1652014434,0
{job=theodolite-stu200776/combined-trace-podmonitor},1652014439,0
{job=theodolite-stu200776/combined-trace-podmonitor},1652014444,0
{job=theodolite-stu200776/combined-trace-podmonitor},1652014449,0
{job=theodolite-stu200776/combined-trace-podmonitor},1652014454,0
{job=theodolite-stu200776/combined-trace-podmonitor},1652014459,0
{job=theodolite-stu200776/combined-trace-podmonitor},1652014464,0
{job=theodolite-stu200776/combined-trace-podmonitor},1652014469,0
{job=theodolite-stu200776/combined-trace-podmonitor},1652014474,0
{job=theodolite-stu200776/combined-trace-podmonitor},1652014479,0
