labels,timestamp,value
{job=theodolite-stu200776/combined-trace-podmonitor},1652011360,0
{job=theodolite-stu200776/combined-trace-podmonitor},1652011365,0
{job=theodolite-stu200776/combined-trace-podmonitor},1652011370,0
{job=theodolite-stu200776/combined-trace-podmonitor},1652011375,0
{job=theodolite-stu200776/combined-trace-podmonitor},1652011380,0
{job=theodolite-stu200776/combined-trace-podmonitor},1652011385,0
{job=theodolite-stu200776/combined-trace-podmonitor},1652011390,0
{job=theodolite-stu200776/combined-trace-podmonitor},1652011395,0
{job=theodolite-stu200776/combined-trace-podmonitor},1652011400,0
{job=theodolite-stu200776/combined-trace-podmonitor},1652011405,0
{job=theodolite-stu200776/combined-trace-podmonitor},1652011410,0
{job=theodolite-stu200776/combined-trace-podmonitor},1652011415,0
{job=theodolite-stu200776/combined-trace-podmonitor},1652011420,0
{job=theodolite-stu200776/combined-trace-podmonitor},1652011425,0
{job=theodolite-stu200776/combined-trace-podmonitor},1652011430,0
{job=theodolite-stu200776/combined-trace-podmonitor},1652011435,0
{job=theodolite-stu200776/combined-trace-podmonitor},1652011440,0
{job=theodolite-stu200776/combined-trace-podmonitor},1652011445,0
{job=theodolite-stu200776/combined-trace-podmonitor},1652011450,0
{job=theodolite-stu200776/combined-trace-podmonitor},1652011455,0
{job=theodolite-stu200776/combined-trace-podmonitor},1652011460,0
{job=theodolite-stu200776/combined-trace-podmonitor},1652011465,0
{job=theodolite-stu200776/combined-trace-podmonitor},1652011470,0
{job=theodolite-stu200776/combined-trace-podmonitor},1652011475,0
{job=theodolite-stu200776/combined-trace-podmonitor},1652011480,0
{job=theodolite-stu200776/combined-trace-podmonitor},1652011485,0
{job=theodolite-stu200776/combined-trace-podmonitor},1652011490,0
{job=theodolite-stu200776/combined-trace-podmonitor},1652011495,0
{job=theodolite-stu200776/combined-trace-podmonitor},1652011500,0
{job=theodolite-stu200776/combined-trace-podmonitor},1652011505,0
{job=theodolite-stu200776/combined-trace-podmonitor},1652011510,0
{job=theodolite-stu200776/combined-trace-podmonitor},1652011515,0
{job=theodolite-stu200776/combined-trace-podmonitor},1652011520,0
{job=theodolite-stu200776/combined-trace-podmonitor},1652011525,0
{job=theodolite-stu200776/combined-trace-podmonitor},1652011530,0
{job=theodolite-stu200776/combined-trace-podmonitor},1652011535,0
{job=theodolite-stu200776/combined-trace-podmonitor},1652011540,0
{job=theodolite-stu200776/combined-trace-podmonitor},1652011545,0
{job=theodolite-stu200776/combined-trace-podmonitor},1652011550,0
{job=theodolite-stu200776/combined-trace-podmonitor},1652011555,0
{job=theodolite-stu200776/combined-trace-podmonitor},1652011560,0
{job=theodolite-stu200776/combined-trace-podmonitor},1652011565,0
{job=theodolite-stu200776/combined-trace-podmonitor},1652011570,0
{job=theodolite-stu200776/combined-trace-podmonitor},1652011575,0
{job=theodolite-stu200776/combined-trace-podmonitor},1652011580,0
{job=theodolite-stu200776/combined-trace-podmonitor},1652011585,0
{job=theodolite-stu200776/combined-trace-podmonitor},1652011590,0
{job=theodolite-stu200776/combined-trace-podmonitor},1652011595,0
{job=theodolite-stu200776/combined-trace-podmonitor},1652011600,0
{job=theodolite-stu200776/combined-trace-podmonitor},1652011605,0
{job=theodolite-stu200776/combined-trace-podmonitor},1652011610,0
{job=theodolite-stu200776/combined-trace-podmonitor},1652011615,0
{job=theodolite-stu200776/combined-trace-podmonitor},1652011620,0
{job=theodolite-stu200776/combined-trace-podmonitor},1652011625,0
{job=theodolite-stu200776/combined-trace-podmonitor},1652011630,0
{job=theodolite-stu200776/combined-trace-podmonitor},1652011635,0
{job=theodolite-stu200776/combined-trace-podmonitor},1652011640,0
{job=theodolite-stu200776/combined-trace-podmonitor},1652011645,0
{job=theodolite-stu200776/combined-trace-podmonitor},1652011650,0
{job=theodolite-stu200776/combined-trace-podmonitor},1652011655,0
{job=theodolite-stu200776/combined-trace-podmonitor},1652011660,0
{job=theodolite-stu200776/combined-trace-podmonitor},1652011665,0
{job=theodolite-stu200776/combined-trace-podmonitor},1652011670,0
{job=theodolite-stu200776/combined-trace-podmonitor},1652011675,0
{job=theodolite-stu200776/combined-trace-podmonitor},1652011680,0
{job=theodolite-stu200776/combined-trace-podmonitor},1652011685,0
{job=theodolite-stu200776/combined-trace-podmonitor},1652011690,0
{job=theodolite-stu200776/combined-trace-podmonitor},1652011695,0
{job=theodolite-stu200776/combined-trace-podmonitor},1652011700,0
{job=theodolite-stu200776/combined-trace-podmonitor},1652011705,0
{job=theodolite-stu200776/combined-trace-podmonitor},1652011710,0
{job=theodolite-stu200776/combined-trace-podmonitor},1652011715,0
{job=theodolite-stu200776/combined-trace-podmonitor},1652011720,0
{job=theodolite-stu200776/combined-trace-podmonitor},1652011725,0
{job=theodolite-stu200776/combined-trace-podmonitor},1652011730,0
{job=theodolite-stu200776/combined-trace-podmonitor},1652011735,0
{job=theodolite-stu200776/combined-trace-podmonitor},1652011740,0
