labels,timestamp,value
{job=theodolite-stu200776/combined-trace-podmonitor},1651993673,0
{job=theodolite-stu200776/combined-trace-podmonitor},1651993678,0
{job=theodolite-stu200776/combined-trace-podmonitor},1651993683,0
{job=theodolite-stu200776/combined-trace-podmonitor},1651993688,0
{job=theodolite-stu200776/combined-trace-podmonitor},1651993693,0
{job=theodolite-stu200776/combined-trace-podmonitor},1651993698,0
{job=theodolite-stu200776/combined-trace-podmonitor},1651993703,0
{job=theodolite-stu200776/combined-trace-podmonitor},1651993708,0
{job=theodolite-stu200776/combined-trace-podmonitor},1651993713,0
{job=theodolite-stu200776/combined-trace-podmonitor},1651993718,0
{job=theodolite-stu200776/combined-trace-podmonitor},1651993723,0
{job=theodolite-stu200776/combined-trace-podmonitor},1651993728,0
{job=theodolite-stu200776/combined-trace-podmonitor},1651993733,0
{job=theodolite-stu200776/combined-trace-podmonitor},1651993738,0
{job=theodolite-stu200776/combined-trace-podmonitor},1651993743,0
{job=theodolite-stu200776/combined-trace-podmonitor},1651993748,0
{job=theodolite-stu200776/combined-trace-podmonitor},1651993753,0
{job=theodolite-stu200776/combined-trace-podmonitor},1651993758,0
{job=theodolite-stu200776/combined-trace-podmonitor},1651993763,0
{job=theodolite-stu200776/combined-trace-podmonitor},1651993768,0
{job=theodolite-stu200776/combined-trace-podmonitor},1651993773,0
{job=theodolite-stu200776/combined-trace-podmonitor},1651993778,0
{job=theodolite-stu200776/combined-trace-podmonitor},1651993783,0
{job=theodolite-stu200776/combined-trace-podmonitor},1651993788,0
{job=theodolite-stu200776/combined-trace-podmonitor},1651993793,0
{job=theodolite-stu200776/combined-trace-podmonitor},1651993798,0
{job=theodolite-stu200776/combined-trace-podmonitor},1651993803,0
{job=theodolite-stu200776/combined-trace-podmonitor},1651993808,0
{job=theodolite-stu200776/combined-trace-podmonitor},1651993813,0
{job=theodolite-stu200776/combined-trace-podmonitor},1651993818,0
{job=theodolite-stu200776/combined-trace-podmonitor},1651993823,0
{job=theodolite-stu200776/combined-trace-podmonitor},1651993828,0
{job=theodolite-stu200776/combined-trace-podmonitor},1651993833,0
{job=theodolite-stu200776/combined-trace-podmonitor},1651993838,0
{job=theodolite-stu200776/combined-trace-podmonitor},1651993843,0
{job=theodolite-stu200776/combined-trace-podmonitor},1651993848,0
{job=theodolite-stu200776/combined-trace-podmonitor},1651993853,0
{job=theodolite-stu200776/combined-trace-podmonitor},1651993858,0
{job=theodolite-stu200776/combined-trace-podmonitor},1651993863,0
{job=theodolite-stu200776/combined-trace-podmonitor},1651993868,1072.868097048824
{job=theodolite-stu200776/combined-trace-podmonitor},1651993873,1856.5337768218635
{job=theodolite-stu200776/combined-trace-podmonitor},1651993878,2167.3816548115706
{job=theodolite-stu200776/combined-trace-podmonitor},1651993883,2000.191119455453
{job=theodolite-stu200776/combined-trace-podmonitor},1651993888,1733.80937598314
{job=theodolite-stu200776/combined-trace-podmonitor},1651993893,1625.3848097315758
{job=theodolite-stu200776/combined-trace-podmonitor},1651993898,2156.9109771033995
{job=theodolite-stu200776/combined-trace-podmonitor},1651993903,2432.5514632153026
{job=theodolite-stu200776/combined-trace-podmonitor},1651993908,2167.3869944187213
{job=theodolite-stu200776/combined-trace-podmonitor},1651993913,2000.1565381283724
{job=theodolite-stu200776/combined-trace-podmonitor},1651993918,1733.7839124707482
{job=theodolite-stu200776/combined-trace-podmonitor},1651993923,1625.3914374905999
{job=theodolite-stu200776/combined-trace-podmonitor},1651993928,672.0714223091345
{job=theodolite-stu200776/combined-trace-podmonitor},1651993933,164.0032893023724
{job=theodolite-stu200776/combined-trace-podmonitor},1651993938,0
{job=theodolite-stu200776/combined-trace-podmonitor},1651993943,0
{job=theodolite-stu200776/combined-trace-podmonitor},1651993948,0
{job=theodolite-stu200776/combined-trace-podmonitor},1651993953,0
{job=theodolite-stu200776/combined-trace-podmonitor},1651993958,0
{job=theodolite-stu200776/combined-trace-podmonitor},1651993963,0
{job=theodolite-stu200776/combined-trace-podmonitor},1651993968,0
{job=theodolite-stu200776/combined-trace-podmonitor},1651993973,0
{job=theodolite-stu200776/combined-trace-podmonitor},1651993978,0
{job=theodolite-stu200776/combined-trace-podmonitor},1651993983,0
{job=theodolite-stu200776/combined-trace-podmonitor},1651993988,0
{job=theodolite-stu200776/combined-trace-podmonitor},1651993993,0
{job=theodolite-stu200776/combined-trace-podmonitor},1651993998,0
{job=theodolite-stu200776/combined-trace-podmonitor},1651994003,0
{job=theodolite-stu200776/combined-trace-podmonitor},1651994008,0
{job=theodolite-stu200776/combined-trace-podmonitor},1651994013,0
{job=theodolite-stu200776/combined-trace-podmonitor},1651994018,0
{job=theodolite-stu200776/combined-trace-podmonitor},1651994023,0
{job=theodolite-stu200776/combined-trace-podmonitor},1651994028,0
{job=theodolite-stu200776/combined-trace-podmonitor},1651994033,0
{job=theodolite-stu200776/combined-trace-podmonitor},1651994038,0
{job=theodolite-stu200776/combined-trace-podmonitor},1651994043,0
{job=theodolite-stu200776/combined-trace-podmonitor},1651994048,0
