labels,timestamp,value
{job=theodolite-stu200776/combined-trace-podmonitor},1651961144,0
{job=theodolite-stu200776/combined-trace-podmonitor},1651961149,0
{job=theodolite-stu200776/combined-trace-podmonitor},1651961154,0
{job=theodolite-stu200776/combined-trace-podmonitor},1651961159,0
{job=theodolite-stu200776/combined-trace-podmonitor},1651961164,0
{job=theodolite-stu200776/combined-trace-podmonitor},1651961169,0
{job=theodolite-stu200776/combined-trace-podmonitor},1651961174,0
{job=theodolite-stu200776/combined-trace-podmonitor},1651961179,0
{job=theodolite-stu200776/combined-trace-podmonitor},1651961184,0
{job=theodolite-stu200776/combined-trace-podmonitor},1651961189,0
{job=theodolite-stu200776/combined-trace-podmonitor},1651961194,0
{job=theodolite-stu200776/combined-trace-podmonitor},1651961199,0
{job=theodolite-stu200776/combined-trace-podmonitor},1651961204,0
{job=theodolite-stu200776/combined-trace-podmonitor},1651961209,0
{job=theodolite-stu200776/combined-trace-podmonitor},1651961214,0
{job=theodolite-stu200776/combined-trace-podmonitor},1651961219,0
{job=theodolite-stu200776/combined-trace-podmonitor},1651961224,0
{job=theodolite-stu200776/combined-trace-podmonitor},1651961229,0
{job=theodolite-stu200776/combined-trace-podmonitor},1651961234,0
{job=theodolite-stu200776/combined-trace-podmonitor},1651961239,0
{job=theodolite-stu200776/combined-trace-podmonitor},1651961244,0
{job=theodolite-stu200776/combined-trace-podmonitor},1651961249,0
{job=theodolite-stu200776/combined-trace-podmonitor},1651961254,0
{job=theodolite-stu200776/combined-trace-podmonitor},1651961259,0
{job=theodolite-stu200776/combined-trace-podmonitor},1651961264,0
{job=theodolite-stu200776/combined-trace-podmonitor},1651961269,0
{job=theodolite-stu200776/combined-trace-podmonitor},1651961274,0
{job=theodolite-stu200776/combined-trace-podmonitor},1651961279,0
{job=theodolite-stu200776/combined-trace-podmonitor},1651961284,0
{job=theodolite-stu200776/combined-trace-podmonitor},1651961289,0
{job=theodolite-stu200776/combined-trace-podmonitor},1651961294,0
{job=theodolite-stu200776/combined-trace-podmonitor},1651961299,0
{job=theodolite-stu200776/combined-trace-podmonitor},1651961304,0
{job=theodolite-stu200776/combined-trace-podmonitor},1651961309,0
{job=theodolite-stu200776/combined-trace-podmonitor},1651961314,62.318753624927496
{job=theodolite-stu200776/combined-trace-podmonitor},1651961319,966.7529069626271
{job=theodolite-stu200776/combined-trace-podmonitor},1651961324,1804.3285636053004
{job=theodolite-stu200776/combined-trace-podmonitor},1651961329,1629.864265978769
{job=theodolite-stu200776/combined-trace-podmonitor},1651961334,1662.9646303070447
{job=theodolite-stu200776/combined-trace-podmonitor},1651961339,1610.8168428366816
{job=theodolite-stu200776/combined-trace-podmonitor},1651961344,1551.4314502824595
{job=theodolite-stu200776/combined-trace-podmonitor},1651961349,2014.1339906427218
{job=theodolite-stu200776/combined-trace-podmonitor},1651961354,2362.819664837099
{job=theodolite-stu200776/combined-trace-podmonitor},1651961359,2099.895565658997
{job=theodolite-stu200776/combined-trace-podmonitor},1651961364,1848.9036247065435
{job=theodolite-stu200776/combined-trace-podmonitor},1651961369,1684.5364487417132
{job=theodolite-stu200776/combined-trace-podmonitor},1651961374,1451.0799712365226
{job=theodolite-stu200776/combined-trace-podmonitor},1651961379,737.8466377783881
{job=theodolite-stu200776/combined-trace-podmonitor},1651961384,0
{job=theodolite-stu200776/combined-trace-podmonitor},1651961389,0
{job=theodolite-stu200776/combined-trace-podmonitor},1651961394,0
{job=theodolite-stu200776/combined-trace-podmonitor},1651961399,0
{job=theodolite-stu200776/combined-trace-podmonitor},1651961404,0
{job=theodolite-stu200776/combined-trace-podmonitor},1651961409,0
{job=theodolite-stu200776/combined-trace-podmonitor},1651961414,0
{job=theodolite-stu200776/combined-trace-podmonitor},1651961419,0
{job=theodolite-stu200776/combined-trace-podmonitor},1651961424,0
{job=theodolite-stu200776/combined-trace-podmonitor},1651961429,0
{job=theodolite-stu200776/combined-trace-podmonitor},1651961434,0
{job=theodolite-stu200776/combined-trace-podmonitor},1651961439,0
{job=theodolite-stu200776/combined-trace-podmonitor},1651961444,0
{job=theodolite-stu200776/combined-trace-podmonitor},1651961449,0
{job=theodolite-stu200776/combined-trace-podmonitor},1651961454,0
{job=theodolite-stu200776/combined-trace-podmonitor},1651961459,0
{job=theodolite-stu200776/combined-trace-podmonitor},1651961464,0
{job=theodolite-stu200776/combined-trace-podmonitor},1651961469,0
{job=theodolite-stu200776/combined-trace-podmonitor},1651961474,0
{job=theodolite-stu200776/combined-trace-podmonitor},1651961479,0
{job=theodolite-stu200776/combined-trace-podmonitor},1651961484,0
{job=theodolite-stu200776/combined-trace-podmonitor},1651961489,0
{job=theodolite-stu200776/combined-trace-podmonitor},1651961494,0
{job=theodolite-stu200776/combined-trace-podmonitor},1651961499,0
{job=theodolite-stu200776/combined-trace-podmonitor},1651961504,0
{job=theodolite-stu200776/combined-trace-podmonitor},1651961509,0
{job=theodolite-stu200776/combined-trace-podmonitor},1651961514,0
{job=theodolite-stu200776/combined-trace-podmonitor},1651961519,0
{job=theodolite-stu200776/combined-trace-podmonitor},1651961524,0
