labels,timestamp,value
{job=theodolite-stu200776/combined-trace-podmonitor},1652007135,0
{job=theodolite-stu200776/combined-trace-podmonitor},1652007140,0
{job=theodolite-stu200776/combined-trace-podmonitor},1652007145,0
{job=theodolite-stu200776/combined-trace-podmonitor},1652007150,0
{job=theodolite-stu200776/combined-trace-podmonitor},1652007155,0
{job=theodolite-stu200776/combined-trace-podmonitor},1652007160,0
{job=theodolite-stu200776/combined-trace-podmonitor},1652007165,0
{job=theodolite-stu200776/combined-trace-podmonitor},1652007170,0
{job=theodolite-stu200776/combined-trace-podmonitor},1652007175,0
{job=theodolite-stu200776/combined-trace-podmonitor},1652007180,0
{job=theodolite-stu200776/combined-trace-podmonitor},1652007185,0
{job=theodolite-stu200776/combined-trace-podmonitor},1652007190,0
{job=theodolite-stu200776/combined-trace-podmonitor},1652007195,0
{job=theodolite-stu200776/combined-trace-podmonitor},1652007200,0
{job=theodolite-stu200776/combined-trace-podmonitor},1652007205,0
{job=theodolite-stu200776/combined-trace-podmonitor},1652007210,0
{job=theodolite-stu200776/combined-trace-podmonitor},1652007215,0
{job=theodolite-stu200776/combined-trace-podmonitor},1652007220,0
{job=theodolite-stu200776/combined-trace-podmonitor},1652007225,0
{job=theodolite-stu200776/combined-trace-podmonitor},1652007230,0
{job=theodolite-stu200776/combined-trace-podmonitor},1652007235,0
{job=theodolite-stu200776/combined-trace-podmonitor},1652007240,0
{job=theodolite-stu200776/combined-trace-podmonitor},1652007245,0
{job=theodolite-stu200776/combined-trace-podmonitor},1652007250,0
{job=theodolite-stu200776/combined-trace-podmonitor},1652007255,0
{job=theodolite-stu200776/combined-trace-podmonitor},1652007260,0
{job=theodolite-stu200776/combined-trace-podmonitor},1652007265,0
{job=theodolite-stu200776/combined-trace-podmonitor},1652007270,0
{job=theodolite-stu200776/combined-trace-podmonitor},1652007275,0
{job=theodolite-stu200776/combined-trace-podmonitor},1652007280,0
{job=theodolite-stu200776/combined-trace-podmonitor},1652007285,0
{job=theodolite-stu200776/combined-trace-podmonitor},1652007290,0
{job=theodolite-stu200776/combined-trace-podmonitor},1652007295,0
{job=theodolite-stu200776/combined-trace-podmonitor},1652007300,0
{job=theodolite-stu200776/combined-trace-podmonitor},1652007305,0
{job=theodolite-stu200776/combined-trace-podmonitor},1652007310,0
{job=theodolite-stu200776/combined-trace-podmonitor},1652007315,0
{job=theodolite-stu200776/combined-trace-podmonitor},1652007320,0
{job=theodolite-stu200776/combined-trace-podmonitor},1652007325,0
{job=theodolite-stu200776/combined-trace-podmonitor},1652007330,0
{job=theodolite-stu200776/combined-trace-podmonitor},1652007335,0
{job=theodolite-stu200776/combined-trace-podmonitor},1652007340,0
{job=theodolite-stu200776/combined-trace-podmonitor},1652007345,0
{job=theodolite-stu200776/combined-trace-podmonitor},1652007350,0
