labels,timestamp,value
{job=theodolite-stu200776/combined-trace-podmonitor},1652004181,0
{job=theodolite-stu200776/combined-trace-podmonitor},1652004186,0
{job=theodolite-stu200776/combined-trace-podmonitor},1652004191,0
{job=theodolite-stu200776/combined-trace-podmonitor},1652004196,0
{job=theodolite-stu200776/combined-trace-podmonitor},1652004201,0
{job=theodolite-stu200776/combined-trace-podmonitor},1652004206,0
{job=theodolite-stu200776/combined-trace-podmonitor},1652004211,0
{job=theodolite-stu200776/combined-trace-podmonitor},1652004216,0
{job=theodolite-stu200776/combined-trace-podmonitor},1652004221,0
{job=theodolite-stu200776/combined-trace-podmonitor},1652004226,0
{job=theodolite-stu200776/combined-trace-podmonitor},1652004231,0
{job=theodolite-stu200776/combined-trace-podmonitor},1652004236,0
{job=theodolite-stu200776/combined-trace-podmonitor},1652004241,0
{job=theodolite-stu200776/combined-trace-podmonitor},1652004246,0
{job=theodolite-stu200776/combined-trace-podmonitor},1652004251,0
{job=theodolite-stu200776/combined-trace-podmonitor},1652004256,0
{job=theodolite-stu200776/combined-trace-podmonitor},1652004261,0
{job=theodolite-stu200776/combined-trace-podmonitor},1652004266,0
{job=theodolite-stu200776/combined-trace-podmonitor},1652004271,0
{job=theodolite-stu200776/combined-trace-podmonitor},1652004276,0
{job=theodolite-stu200776/combined-trace-podmonitor},1652004281,0
{job=theodolite-stu200776/combined-trace-podmonitor},1652004286,0
{job=theodolite-stu200776/combined-trace-podmonitor},1652004291,0
{job=theodolite-stu200776/combined-trace-podmonitor},1652004296,0
{job=theodolite-stu200776/combined-trace-podmonitor},1652004301,0
{job=theodolite-stu200776/combined-trace-podmonitor},1652004306,0
{job=theodolite-stu200776/combined-trace-podmonitor},1652004311,0
{job=theodolite-stu200776/combined-trace-podmonitor},1652004316,0
{job=theodolite-stu200776/combined-trace-podmonitor},1652004321,0
{job=theodolite-stu200776/combined-trace-podmonitor},1652004326,0
{job=theodolite-stu200776/combined-trace-podmonitor},1652004331,0
{job=theodolite-stu200776/combined-trace-podmonitor},1652004336,0
{job=theodolite-stu200776/combined-trace-podmonitor},1652004341,0
{job=theodolite-stu200776/combined-trace-podmonitor},1652004346,0
{job=theodolite-stu200776/combined-trace-podmonitor},1652004351,0
{job=theodolite-stu200776/combined-trace-podmonitor},1652004356,0
{job=theodolite-stu200776/combined-trace-podmonitor},1652004361,0
{job=theodolite-stu200776/combined-trace-podmonitor},1652004366,0
{job=theodolite-stu200776/combined-trace-podmonitor},1652004371,0
{job=theodolite-stu200776/combined-trace-podmonitor},1652004376,0
{job=theodolite-stu200776/combined-trace-podmonitor},1652004381,0
{job=theodolite-stu200776/combined-trace-podmonitor},1652004386,0
{job=theodolite-stu200776/combined-trace-podmonitor},1652004391,0
{job=theodolite-stu200776/combined-trace-podmonitor},1652004396,0
{job=theodolite-stu200776/combined-trace-podmonitor},1652004401,0
{job=theodolite-stu200776/combined-trace-podmonitor},1652004406,0
{job=theodolite-stu200776/combined-trace-podmonitor},1652004411,0
{job=theodolite-stu200776/combined-trace-podmonitor},1652004416,0
{job=theodolite-stu200776/combined-trace-podmonitor},1652004421,0
{job=theodolite-stu200776/combined-trace-podmonitor},1652004426,0
{job=theodolite-stu200776/combined-trace-podmonitor},1652004431,0
{job=theodolite-stu200776/combined-trace-podmonitor},1652004436,0
{job=theodolite-stu200776/combined-trace-podmonitor},1652004441,0
{job=theodolite-stu200776/combined-trace-podmonitor},1652004446,0
{job=theodolite-stu200776/combined-trace-podmonitor},1652004451,0
{job=theodolite-stu200776/combined-trace-podmonitor},1652004456,0
{job=theodolite-stu200776/combined-trace-podmonitor},1652004461,0
{job=theodolite-stu200776/combined-trace-podmonitor},1652004466,0
{job=theodolite-stu200776/combined-trace-podmonitor},1652004471,0
{job=theodolite-stu200776/combined-trace-podmonitor},1652004476,0
{job=theodolite-stu200776/combined-trace-podmonitor},1652004481,0
{job=theodolite-stu200776/combined-trace-podmonitor},1652004486,0
{job=theodolite-stu200776/combined-trace-podmonitor},1652004491,0
{job=theodolite-stu200776/combined-trace-podmonitor},1652004496,0
{job=theodolite-stu200776/combined-trace-podmonitor},1652004501,0
{job=theodolite-stu200776/combined-trace-podmonitor},1652004506,0
{job=theodolite-stu200776/combined-trace-podmonitor},1652004511,0
{job=theodolite-stu200776/combined-trace-podmonitor},1652004516,0
{job=theodolite-stu200776/combined-trace-podmonitor},1652004521,0
{job=theodolite-stu200776/combined-trace-podmonitor},1652004526,0
{job=theodolite-stu200776/combined-trace-podmonitor},1652004531,0
{job=theodolite-stu200776/combined-trace-podmonitor},1652004536,0
{job=theodolite-stu200776/combined-trace-podmonitor},1652004541,0
{job=theodolite-stu200776/combined-trace-podmonitor},1652004546,0
{job=theodolite-stu200776/combined-trace-podmonitor},1652004551,0
{job=theodolite-stu200776/combined-trace-podmonitor},1652004556,0
{job=theodolite-stu200776/combined-trace-podmonitor},1652004561,0
