labels,timestamp,value
{job=theodolite-stu200776/combined-trace-podmonitor},1651992555,0
{job=theodolite-stu200776/combined-trace-podmonitor},1651992560,0
{job=theodolite-stu200776/combined-trace-podmonitor},1651992565,0
{job=theodolite-stu200776/combined-trace-podmonitor},1651992570,0
{job=theodolite-stu200776/combined-trace-podmonitor},1651992575,128.86539621064026
{job=theodolite-stu200776/combined-trace-podmonitor},1651992580,421.8103257891855
{job=theodolite-stu200776/combined-trace-podmonitor},1651992585,565.6985661774294
{job=theodolite-stu200776/combined-trace-podmonitor},1651992590,756.5469175982641
{job=theodolite-stu200776/combined-trace-podmonitor},1651992595,805.1606661198065
{job=theodolite-stu200776/combined-trace-podmonitor},1651992600,692.35895000836
{job=theodolite-stu200776/combined-trace-podmonitor},1651992605,626.4073621825613
{job=theodolite-stu200776/combined-trace-podmonitor},1651992610,556.2077130110591
{job=theodolite-stu200776/combined-trace-podmonitor},1651992615,450.2406263990443
{job=theodolite-stu200776/combined-trace-podmonitor},1651992620,163.3724198356328
{job=theodolite-stu200776/combined-trace-podmonitor},1651992625,13.92370915301934
{job=theodolite-stu200776/combined-trace-podmonitor},1651992630,10.476278960626225
{job=theodolite-stu200776/combined-trace-podmonitor},1651992635,10.476278960626225
{job=theodolite-stu200776/combined-trace-podmonitor},1651992640,8.39569078165228
{job=theodolite-stu200776/combined-trace-podmonitor},1651992645,8.39569078165228
{job=theodolite-stu200776/combined-trace-podmonitor},1651992650,0
{job=theodolite-stu200776/combined-trace-podmonitor},1651992655,0
{job=theodolite-stu200776/combined-trace-podmonitor},1651992660,0
{job=theodolite-stu200776/combined-trace-podmonitor},1651992665,0
{job=theodolite-stu200776/combined-trace-podmonitor},1651992670,0
{job=theodolite-stu200776/combined-trace-podmonitor},1651992675,0
{job=theodolite-stu200776/combined-trace-podmonitor},1651992680,0
{job=theodolite-stu200776/combined-trace-podmonitor},1651992685,0
{job=theodolite-stu200776/combined-trace-podmonitor},1651992690,0
{job=theodolite-stu200776/combined-trace-podmonitor},1651992695,0
{job=theodolite-stu200776/combined-trace-podmonitor},1651992700,0
{job=theodolite-stu200776/combined-trace-podmonitor},1651992705,0
{job=theodolite-stu200776/combined-trace-podmonitor},1651992710,0
{job=theodolite-stu200776/combined-trace-podmonitor},1651992715,0
{job=theodolite-stu200776/combined-trace-podmonitor},1651992720,0
{job=theodolite-stu200776/combined-trace-podmonitor},1651992725,0
{job=theodolite-stu200776/combined-trace-podmonitor},1651992730,0
{job=theodolite-stu200776/combined-trace-podmonitor},1651992735,0
{job=theodolite-stu200776/combined-trace-podmonitor},1651992740,0
{job=theodolite-stu200776/combined-trace-podmonitor},1651992745,0
{job=theodolite-stu200776/combined-trace-podmonitor},1651992750,0
{job=theodolite-stu200776/combined-trace-podmonitor},1651992755,49.64556749243086
{job=theodolite-stu200776/combined-trace-podmonitor},1651992760,113.59233331909546
{job=theodolite-stu200776/combined-trace-podmonitor},1651992765,120.84668025169496
{job=theodolite-stu200776/combined-trace-podmonitor},1651992770,125.56370573755375
{job=theodolite-stu200776/combined-trace-podmonitor},1651992775,128.26336443364815
{job=theodolite-stu200776/combined-trace-podmonitor},1651992780,127.91567244769166
{job=theodolite-stu200776/combined-trace-podmonitor},1651992785,131.2439174018995
{job=theodolite-stu200776/combined-trace-podmonitor},1651992790,140.13179109652262
{job=theodolite-stu200776/combined-trace-podmonitor},1651992795,134.10182208166523
{job=theodolite-stu200776/combined-trace-podmonitor},1651992800,118.6950176973129
{job=theodolite-stu200776/combined-trace-podmonitor},1651992805,94.66195657667713
{job=theodolite-stu200776/combined-trace-podmonitor},1651992810,54.71913451097948
{job=theodolite-stu200776/combined-trace-podmonitor},1651992815,32.05712543813971
{job=theodolite-stu200776/combined-trace-podmonitor},1651992820,10.528877205991355
{job=theodolite-stu200776/combined-trace-podmonitor},1651992825,0.32609833899182145
{job=theodolite-stu200776/combined-trace-podmonitor},1651992830,0
{job=theodolite-stu200776/combined-trace-podmonitor},1651992835,0
{job=theodolite-stu200776/combined-trace-podmonitor},1651992840,0
{job=theodolite-stu200776/combined-trace-podmonitor},1651992845,0
{job=theodolite-stu200776/combined-trace-podmonitor},1651992850,0
{job=theodolite-stu200776/combined-trace-podmonitor},1651992855,0
{job=theodolite-stu200776/combined-trace-podmonitor},1651992860,0
{job=theodolite-stu200776/combined-trace-podmonitor},1651992865,0
{job=theodolite-stu200776/combined-trace-podmonitor},1651992870,0
{job=theodolite-stu200776/combined-trace-podmonitor},1651992875,0
{job=theodolite-stu200776/combined-trace-podmonitor},1651992880,0
{job=theodolite-stu200776/combined-trace-podmonitor},1651992885,0
{job=theodolite-stu200776/combined-trace-podmonitor},1651992890,0
{job=theodolite-stu200776/combined-trace-podmonitor},1651992895,0
{job=theodolite-stu200776/combined-trace-podmonitor},1651992900,0
{job=theodolite-stu200776/combined-trace-podmonitor},1651992905,0
{job=theodolite-stu200776/combined-trace-podmonitor},1651992910,0
{job=theodolite-stu200776/combined-trace-podmonitor},1651992915,0
{job=theodolite-stu200776/combined-trace-podmonitor},1651992920,0
{job=theodolite-stu200776/combined-trace-podmonitor},1651992925,0
