labels,timestamp,value
{consumergroup=__strimzi-topic-operator-kstreams},1652004116,11
{consumergroup=__strimzi-topic-operator-kstreams},1652004121,11
{consumergroup=__strimzi-topic-operator-kstreams},1652004126,11
{consumergroup=__strimzi-topic-operator-kstreams},1652004131,3
{consumergroup=__strimzi-topic-operator-kstreams},1652004136,3
{consumergroup=__strimzi-topic-operator-kstreams},1652004141,3
{consumergroup=__strimzi-topic-operator-kstreams},1652004146,3
{consumergroup=__strimzi-topic-operator-kstreams},1652004151,3
{consumergroup=__strimzi-topic-operator-kstreams},1652004156,3
{consumergroup=__strimzi-topic-operator-kstreams},1652004161,0
{consumergroup=__strimzi-topic-operator-kstreams},1652004166,0
{consumergroup=__strimzi-topic-operator-kstreams},1652004171,0
{consumergroup=__strimzi-topic-operator-kstreams},1652004176,0
{consumergroup=__strimzi-topic-operator-kstreams},1652004181,0
{consumergroup=__strimzi-topic-operator-kstreams},1652004186,0
{consumergroup=__strimzi-topic-operator-kstreams},1652004191,0
{consumergroup=__strimzi-topic-operator-kstreams},1652004196,0
{consumergroup=__strimzi-topic-operator-kstreams},1652004201,0
{consumergroup=__strimzi-topic-operator-kstreams},1652004206,0
{consumergroup=__strimzi-topic-operator-kstreams},1652004211,0
{consumergroup=__strimzi-topic-operator-kstreams},1652004216,0
{consumergroup=__strimzi-topic-operator-kstreams},1652004221,0
{consumergroup=__strimzi-topic-operator-kstreams},1652004226,0
{consumergroup=__strimzi-topic-operator-kstreams},1652004231,0
{consumergroup=__strimzi-topic-operator-kstreams},1652004236,0
{consumergroup=__strimzi-topic-operator-kstreams},1652004241,0
{consumergroup=__strimzi-topic-operator-kstreams},1652004246,0
{consumergroup=__strimzi-topic-operator-kstreams},1652004251,0
{consumergroup=__strimzi-topic-operator-kstreams},1652004256,0
{consumergroup=__strimzi-topic-operator-kstreams},1652004261,0
{consumergroup=__strimzi-topic-operator-kstreams},1652004266,0
{consumergroup=__strimzi-topic-operator-kstreams},1652004271,0
{consumergroup=__strimzi-topic-operator-kstreams},1652004276,0
{consumergroup=__strimzi-topic-operator-kstreams},1652004281,0
{consumergroup=__strimzi-topic-operator-kstreams},1652004286,0
{consumergroup=__strimzi-topic-operator-kstreams},1652004291,0
{consumergroup=__strimzi-topic-operator-kstreams},1652004296,0
{consumergroup=__strimzi-topic-operator-kstreams},1652004301,0
{consumergroup=__strimzi-topic-operator-kstreams},1652004306,0
{consumergroup=__strimzi-topic-operator-kstreams},1652004311,0
{consumergroup=__strimzi-topic-operator-kstreams},1652004316,0
{consumergroup=__strimzi-topic-operator-kstreams},1652004321,0
{consumergroup=__strimzi-topic-operator-kstreams},1652004326,0
{consumergroup=__strimzi-topic-operator-kstreams},1652004331,0
{consumergroup=__strimzi-topic-operator-kstreams},1652004336,0
{consumergroup=__strimzi-topic-operator-kstreams},1652004341,0
{consumergroup=__strimzi-topic-operator-kstreams},1652004346,0
{consumergroup=__strimzi-topic-operator-kstreams},1652004351,0
{consumergroup=__strimzi-topic-operator-kstreams},1652004356,0
{consumergroup=__strimzi-topic-operator-kstreams},1652004361,0
{consumergroup=__strimzi-topic-operator-kstreams},1652004366,0
{consumergroup=__strimzi-topic-operator-kstreams},1652004371,0
{consumergroup=__strimzi-topic-operator-kstreams},1652004376,0
{consumergroup=__strimzi-topic-operator-kstreams},1652004381,0
{consumergroup=__strimzi-topic-operator-kstreams},1652004386,0
{consumergroup=__strimzi-topic-operator-kstreams},1652004391,0
{consumergroup=__strimzi-topic-operator-kstreams},1652004396,0
{consumergroup=__strimzi-topic-operator-kstreams},1652004401,0
{consumergroup=__strimzi-topic-operator-kstreams},1652004406,0
{consumergroup=__strimzi-topic-operator-kstreams},1652004411,0
{consumergroup=__strimzi-topic-operator-kstreams},1652004416,0
{consumergroup=__strimzi-topic-operator-kstreams},1652004421,0
{consumergroup=__strimzi-topic-operator-kstreams},1652004426,0
{consumergroup=__strimzi-topic-operator-kstreams},1652004431,0
{consumergroup=__strimzi-topic-operator-kstreams},1652004436,0
{consumergroup=__strimzi-topic-operator-kstreams},1652004441,0
{consumergroup=__strimzi-topic-operator-kstreams},1652004446,0
{consumergroup=__strimzi-topic-operator-kstreams},1652004451,0
{consumergroup=__strimzi-topic-operator-kstreams},1652004456,0
{consumergroup=__strimzi-topic-operator-kstreams},1652004461,0
{consumergroup=__strimzi-topic-operator-kstreams},1652004466,0
{consumergroup=__strimzi-topic-operator-kstreams},1652004471,0
{consumergroup=__strimzi-topic-operator-kstreams},1652004476,0
{consumergroup=__strimzi-topic-operator-kstreams},1652004481,0
{consumergroup=__strimzi-topic-operator-kstreams},1652004486,0
{consumergroup=__strimzi-topic-operator-kstreams},1652004491,0
{consumergroup=__strimzi-topic-operator-kstreams},1652004496,0
{consumergroup=__strimzi-topic-operator-kstreams},1652004501,0
{consumergroup=__strimzi-topic-operator-kstreams},1652004506,0
{consumergroup=__strimzi-topic-operator-kstreams},1652004511,0
{consumergroup=__strimzi-topic-operator-kstreams},1652004516,0
{consumergroup=__strimzi-topic-operator-kstreams},1652004521,0
{consumergroup=__strimzi-topic-operator-kstreams},1652004526,0
{consumergroup=__strimzi-topic-operator-kstreams},1652004531,0
{consumergroup=__strimzi-topic-operator-kstreams},1652004536,0
{consumergroup=__strimzi-topic-operator-kstreams},1652004541,0
{consumergroup=__strimzi-topic-operator-kstreams},1652004546,0
{consumergroup=__strimzi-topic-operator-kstreams},1652004551,0
{consumergroup=__strimzi-topic-operator-kstreams},1652004556,0
{consumergroup=__strimzi-topic-operator-kstreams},1652004561,0
{consumergroup=adapter-service},1652004146,0
{consumergroup=adapter-service},1652004151,0
{consumergroup=adapter-service},1652004156,0
{consumergroup=adapter-service},1652004161,5575
{consumergroup=adapter-service},1652004166,5575
{consumergroup=adapter-service},1652004171,5575
{consumergroup=adapter-service},1652004176,8402
{consumergroup=adapter-service},1652004181,8402
{consumergroup=adapter-service},1652004186,8402
{consumergroup=adapter-service},1652004191,4206
{consumergroup=adapter-service},1652004196,4206
{consumergroup=adapter-service},1652004201,4206
{consumergroup=adapter-service},1652004206,8066
{consumergroup=adapter-service},1652004211,8066
{consumergroup=adapter-service},1652004216,8066
{consumergroup=adapter-service},1652004221,3492
{consumergroup=adapter-service},1652004226,3492
{consumergroup=adapter-service},1652004231,3492
{consumergroup=adapter-service},1652004236,7389
{consumergroup=adapter-service},1652004241,7389
{consumergroup=adapter-service},1652004246,7389
{consumergroup=adapter-service},1652004251,2951
{consumergroup=adapter-service},1652004256,2951
{consumergroup=adapter-service},1652004261,2951
{consumergroup=adapter-service},1652004266,6797
{consumergroup=adapter-service},1652004271,6797
{consumergroup=adapter-service},1652004276,6797
{consumergroup=adapter-service},1652004281,2301
{consumergroup=adapter-service},1652004286,2301
{consumergroup=adapter-service},1652004291,2301
{consumergroup=adapter-service},1652004296,7386
{consumergroup=adapter-service},1652004301,7386
{consumergroup=adapter-service},1652004306,7386
{consumergroup=adapter-service},1652004311,1866
{consumergroup=adapter-service},1652004316,1866
{consumergroup=adapter-service},1652004321,1866
{consumergroup=adapter-service},1652004326,5698
{consumergroup=adapter-service},1652004331,5698
{consumergroup=adapter-service},1652004336,5698
{consumergroup=adapter-service},1652004341,1596
{consumergroup=adapter-service},1652004346,1596
{consumergroup=adapter-service},1652004351,1596
{consumergroup=adapter-service},1652004356,6250
{consumergroup=adapter-service},1652004361,6250
{consumergroup=adapter-service},1652004366,6250
{consumergroup=adapter-service},1652004371,792
{consumergroup=adapter-service},1652004376,792
{consumergroup=adapter-service},1652004381,792
{consumergroup=adapter-service},1652004386,5525
{consumergroup=adapter-service},1652004391,5525
{consumergroup=adapter-service},1652004396,5525
{consumergroup=adapter-service},1652004401,1017
{consumergroup=adapter-service},1652004406,1017
{consumergroup=adapter-service},1652004411,1017
{consumergroup=adapter-service},1652004416,3784
{consumergroup=adapter-service},1652004421,3784
{consumergroup=adapter-service},1652004426,3784
{consumergroup=adapter-service},1652004431,6
{consumergroup=adapter-service},1652004436,6
{consumergroup=adapter-service},1652004441,6
{consumergroup=adapter-service},1652004446,3320
{consumergroup=adapter-service},1652004451,3320
{consumergroup=adapter-service},1652004456,3320
{consumergroup=adapter-service},1652004461,0
{consumergroup=adapter-service},1652004466,0
{consumergroup=adapter-service},1652004471,0
{consumergroup=adapter-service},1652004476,2552
{consumergroup=adapter-service},1652004481,2552
{consumergroup=adapter-service},1652004486,2552
{consumergroup=adapter-service},1652004491,12975
{consumergroup=adapter-service},1652004496,12975
{consumergroup=adapter-service},1652004501,12975
{consumergroup=adapter-service},1652004506,2087
{consumergroup=adapter-service},1652004511,2087
{consumergroup=adapter-service},1652004516,2087
{consumergroup=adapter-service},1652004521,17876
{consumergroup=adapter-service},1652004526,17876
{consumergroup=adapter-service},1652004531,17876
{consumergroup=adapter-service},1652004536,2618
{consumergroup=adapter-service},1652004541,2618
{consumergroup=adapter-service},1652004546,2618
{consumergroup=adapter-service},1652004551,17177
{consumergroup=adapter-service},1652004556,17177
{consumergroup=adapter-service},1652004561,17177
{consumergroup=landscape-service},1652004161,8176
{consumergroup=landscape-service},1652004166,8176
{consumergroup=landscape-service},1652004171,8176
{consumergroup=landscape-service},1652004176,12091
{consumergroup=landscape-service},1652004181,12091
{consumergroup=landscape-service},1652004186,12091
{consumergroup=landscape-service},1652004191,9114
{consumergroup=landscape-service},1652004196,9114
{consumergroup=landscape-service},1652004201,9114
{consumergroup=landscape-service},1652004206,13069
{consumergroup=landscape-service},1652004211,13069
{consumergroup=landscape-service},1652004216,13069
{consumergroup=landscape-service},1652004221,8075
{consumergroup=landscape-service},1652004226,8075
{consumergroup=landscape-service},1652004231,8075
{consumergroup=landscape-service},1652004236,12804
{consumergroup=landscape-service},1652004241,12804
{consumergroup=landscape-service},1652004246,12804
{consumergroup=landscape-service},1652004251,7682
{consumergroup=landscape-service},1652004256,7682
{consumergroup=landscape-service},1652004261,7682
{consumergroup=landscape-service},1652004266,11677
{consumergroup=landscape-service},1652004271,11677
{consumergroup=landscape-service},1652004276,11677
{consumergroup=landscape-service},1652004281,7406
{consumergroup=landscape-service},1652004286,7406
{consumergroup=landscape-service},1652004291,7406
{consumergroup=landscape-service},1652004296,11507
{consumergroup=landscape-service},1652004301,11507
{consumergroup=landscape-service},1652004306,11507
{consumergroup=landscape-service},1652004311,8371
{consumergroup=landscape-service},1652004316,8371
{consumergroup=landscape-service},1652004321,8371
{consumergroup=landscape-service},1652004326,11312
{consumergroup=landscape-service},1652004331,11312
{consumergroup=landscape-service},1652004336,11312
{consumergroup=landscape-service},1652004341,7104
{consumergroup=landscape-service},1652004346,7104
{consumergroup=landscape-service},1652004351,7104
{consumergroup=landscape-service},1652004356,11196
{consumergroup=landscape-service},1652004361,11196
{consumergroup=landscape-service},1652004366,11196
{consumergroup=landscape-service},1652004371,7073
{consumergroup=landscape-service},1652004376,7073
{consumergroup=landscape-service},1652004381,7073
{consumergroup=landscape-service},1652004386,11021
{consumergroup=landscape-service},1652004391,11021
{consumergroup=landscape-service},1652004396,11021
{consumergroup=landscape-service},1652004401,6703
{consumergroup=landscape-service},1652004406,6703
{consumergroup=landscape-service},1652004411,6703
{consumergroup=landscape-service},1652004416,11530
{consumergroup=landscape-service},1652004421,11530
{consumergroup=landscape-service},1652004426,11530
{consumergroup=landscape-service},1652004431,7616
{consumergroup=landscape-service},1652004436,7616
{consumergroup=landscape-service},1652004441,7616
{consumergroup=landscape-service},1652004446,10585
{consumergroup=landscape-service},1652004451,10585
{consumergroup=landscape-service},1652004456,10585
{consumergroup=landscape-service},1652004461,6482
{consumergroup=landscape-service},1652004466,6482
{consumergroup=landscape-service},1652004471,6482
{consumergroup=landscape-service},1652004476,10275
{consumergroup=landscape-service},1652004481,10275
{consumergroup=landscape-service},1652004486,10275
{consumergroup=landscape-service},1652004491,6240
{consumergroup=landscape-service},1652004496,6240
{consumergroup=landscape-service},1652004501,6240
{consumergroup=landscape-service},1652004506,10246
{consumergroup=landscape-service},1652004511,10246
{consumergroup=landscape-service},1652004516,10246
{consumergroup=landscape-service},1652004521,6148
{consumergroup=landscape-service},1652004526,6148
{consumergroup=landscape-service},1652004531,6148
{consumergroup=landscape-service},1652004536,10142
{consumergroup=landscape-service},1652004541,10142
{consumergroup=landscape-service},1652004546,10142
{consumergroup=landscape-service},1652004551,5849
{consumergroup=landscape-service},1652004556,5849
{consumergroup=landscape-service},1652004561,5849
{consumergroup=landscape-token-events-consumer},1652004146,0
{consumergroup=landscape-token-events-consumer},1652004151,0
{consumergroup=landscape-token-events-consumer},1652004156,0
{consumergroup=landscape-token-events-consumer},1652004161,0
{consumergroup=landscape-token-events-consumer},1652004166,0
{consumergroup=landscape-token-events-consumer},1652004171,0
{consumergroup=landscape-token-events-consumer},1652004176,0
{consumergroup=landscape-token-events-consumer},1652004181,0
{consumergroup=landscape-token-events-consumer},1652004186,0
{consumergroup=landscape-token-events-consumer},1652004191,0
{consumergroup=landscape-token-events-consumer},1652004196,0
{consumergroup=landscape-token-events-consumer},1652004201,0
{consumergroup=landscape-token-events-consumer},1652004206,0
{consumergroup=landscape-token-events-consumer},1652004211,0
{consumergroup=landscape-token-events-consumer},1652004216,0
{consumergroup=landscape-token-events-consumer},1652004221,0
{consumergroup=landscape-token-events-consumer},1652004226,0
{consumergroup=landscape-token-events-consumer},1652004231,0
{consumergroup=landscape-token-events-consumer},1652004236,0
{consumergroup=landscape-token-events-consumer},1652004241,0
{consumergroup=landscape-token-events-consumer},1652004246,0
{consumergroup=landscape-token-events-consumer},1652004251,0
{consumergroup=landscape-token-events-consumer},1652004256,0
{consumergroup=landscape-token-events-consumer},1652004261,0
{consumergroup=landscape-token-events-consumer},1652004266,0
{consumergroup=landscape-token-events-consumer},1652004271,0
{consumergroup=landscape-token-events-consumer},1652004276,0
{consumergroup=landscape-token-events-consumer},1652004281,0
{consumergroup=landscape-token-events-consumer},1652004286,0
{consumergroup=landscape-token-events-consumer},1652004291,0
{consumergroup=landscape-token-events-consumer},1652004296,0
{consumergroup=landscape-token-events-consumer},1652004301,0
{consumergroup=landscape-token-events-consumer},1652004306,0
{consumergroup=landscape-token-events-consumer},1652004311,0
{consumergroup=landscape-token-events-consumer},1652004316,0
{consumergroup=landscape-token-events-consumer},1652004321,0
{consumergroup=landscape-token-events-consumer},1652004326,0
{consumergroup=landscape-token-events-consumer},1652004331,0
{consumergroup=landscape-token-events-consumer},1652004336,0
{consumergroup=landscape-token-events-consumer},1652004341,0
{consumergroup=landscape-token-events-consumer},1652004346,0
{consumergroup=landscape-token-events-consumer},1652004351,0
{consumergroup=landscape-token-events-consumer},1652004356,0
{consumergroup=landscape-token-events-consumer},1652004361,0
{consumergroup=landscape-token-events-consumer},1652004366,0
{consumergroup=landscape-token-events-consumer},1652004371,0
{consumergroup=landscape-token-events-consumer},1652004376,0
{consumergroup=landscape-token-events-consumer},1652004381,0
{consumergroup=landscape-token-events-consumer},1652004386,0
{consumergroup=landscape-token-events-consumer},1652004391,0
{consumergroup=landscape-token-events-consumer},1652004396,0
{consumergroup=landscape-token-events-consumer},1652004401,0
{consumergroup=landscape-token-events-consumer},1652004406,0
{consumergroup=landscape-token-events-consumer},1652004411,0
{consumergroup=landscape-token-events-consumer},1652004416,0
{consumergroup=landscape-token-events-consumer},1652004421,0
{consumergroup=landscape-token-events-consumer},1652004426,0
{consumergroup=landscape-token-events-consumer},1652004431,0
{consumergroup=landscape-token-events-consumer},1652004436,0
{consumergroup=landscape-token-events-consumer},1652004441,0
{consumergroup=landscape-token-events-consumer},1652004446,0
{consumergroup=landscape-token-events-consumer},1652004451,0
{consumergroup=landscape-token-events-consumer},1652004456,0
{consumergroup=landscape-token-events-consumer},1652004461,0
{consumergroup=landscape-token-events-consumer},1652004466,0
{consumergroup=landscape-token-events-consumer},1652004471,0
{consumergroup=landscape-token-events-consumer},1652004476,0
{consumergroup=landscape-token-events-consumer},1652004481,0
{consumergroup=landscape-token-events-consumer},1652004486,0
{consumergroup=landscape-token-events-consumer},1652004491,0
{consumergroup=landscape-token-events-consumer},1652004496,0
{consumergroup=landscape-token-events-consumer},1652004501,0
{consumergroup=landscape-token-events-consumer},1652004506,0
{consumergroup=landscape-token-events-consumer},1652004511,0
{consumergroup=landscape-token-events-consumer},1652004516,0
{consumergroup=landscape-token-events-consumer},1652004521,0
{consumergroup=landscape-token-events-consumer},1652004526,0
{consumergroup=landscape-token-events-consumer},1652004531,0
{consumergroup=landscape-token-events-consumer},1652004536,0
{consumergroup=landscape-token-events-consumer},1652004541,0
{consumergroup=landscape-token-events-consumer},1652004546,0
{consumergroup=landscape-token-events-consumer},1652004551,0
{consumergroup=landscape-token-events-consumer},1652004556,0
{consumergroup=landscape-token-events-consumer},1652004561,0
{consumergroup=trace-service},1652004161,28416
{consumergroup=trace-service},1652004166,28416
{consumergroup=trace-service},1652004171,28416
{consumergroup=trace-service},1652004176,19835
{consumergroup=trace-service},1652004181,19835
{consumergroup=trace-service},1652004186,19835
{consumergroup=trace-service},1652004191,60845
{consumergroup=trace-service},1652004196,60845
{consumergroup=trace-service},1652004201,60845
{consumergroup=trace-service},1652004206,138018
{consumergroup=trace-service},1652004211,138018
{consumergroup=trace-service},1652004216,138018
{consumergroup=trace-service},1652004221,48376
{consumergroup=trace-service},1652004226,48376
{consumergroup=trace-service},1652004231,48376
{consumergroup=trace-service},1652004236,18627
{consumergroup=trace-service},1652004241,18627
{consumergroup=trace-service},1652004246,18627
{consumergroup=trace-service},1652004251,47644
{consumergroup=trace-service},1652004256,47644
{consumergroup=trace-service},1652004261,47644
{consumergroup=trace-service},1652004266,17345
{consumergroup=trace-service},1652004271,17345
{consumergroup=trace-service},1652004276,17345
{consumergroup=trace-service},1652004281,48527
{consumergroup=trace-service},1652004286,48527
{consumergroup=trace-service},1652004291,48527
{consumergroup=trace-service},1652004296,117565
{consumergroup=trace-service},1652004301,117565
{consumergroup=trace-service},1652004306,117565
{consumergroup=trace-service},1652004311,110549
{consumergroup=trace-service},1652004316,110549
{consumergroup=trace-service},1652004321,110549
{consumergroup=trace-service},1652004326,20915
{consumergroup=trace-service},1652004331,20915
{consumergroup=trace-service},1652004336,20915
{consumergroup=trace-service},1652004341,47468
{consumergroup=trace-service},1652004346,47468
{consumergroup=trace-service},1652004351,47468
{consumergroup=trace-service},1652004356,82646
{consumergroup=trace-service},1652004361,82646
{consumergroup=trace-service},1652004366,82646
{consumergroup=trace-service},1652004371,46682
{consumergroup=trace-service},1652004376,46682
{consumergroup=trace-service},1652004381,46682
{consumergroup=trace-service},1652004386,16012
{consumergroup=trace-service},1652004391,16012
{consumergroup=trace-service},1652004396,16012
{consumergroup=trace-service},1652004401,50324
{consumergroup=trace-service},1652004406,50324
{consumergroup=trace-service},1652004411,50324
{consumergroup=trace-service},1652004416,43906
{consumergroup=trace-service},1652004421,43906
{consumergroup=trace-service},1652004426,43906
{consumergroup=trace-service},1652004431,50201
{consumergroup=trace-service},1652004436,50201
{consumergroup=trace-service},1652004441,50201
{consumergroup=trace-service},1652004446,100611
{consumergroup=trace-service},1652004451,100611
{consumergroup=trace-service},1652004456,100611
{consumergroup=trace-service},1652004461,46076
{consumergroup=trace-service},1652004466,46076
{consumergroup=trace-service},1652004471,46076
{consumergroup=trace-service},1652004476,15003
{consumergroup=trace-service},1652004481,15003
{consumergroup=trace-service},1652004486,15003
{consumergroup=trace-service},1652004491,46246
{consumergroup=trace-service},1652004496,46246
{consumergroup=trace-service},1652004501,46246
{consumergroup=trace-service},1652004506,132462
{consumergroup=trace-service},1652004511,132462
{consumergroup=trace-service},1652004516,132462
{consumergroup=trace-service},1652004521,53171
{consumergroup=trace-service},1652004526,53171
{consumergroup=trace-service},1652004531,53171
{consumergroup=trace-service},1652004536,109863
{consumergroup=trace-service},1652004541,109863
{consumergroup=trace-service},1652004546,109863
{consumergroup=trace-service},1652004551,49408
{consumergroup=trace-service},1652004556,49408
{consumergroup=trace-service},1652004561,49408
{consumergroup=trace-token-events-consumer},1652004146,0
{consumergroup=trace-token-events-consumer},1652004151,0
{consumergroup=trace-token-events-consumer},1652004156,0
{consumergroup=trace-token-events-consumer},1652004161,0
{consumergroup=trace-token-events-consumer},1652004166,0
{consumergroup=trace-token-events-consumer},1652004171,0
{consumergroup=trace-token-events-consumer},1652004176,0
{consumergroup=trace-token-events-consumer},1652004181,0
{consumergroup=trace-token-events-consumer},1652004186,0
{consumergroup=trace-token-events-consumer},1652004191,0
{consumergroup=trace-token-events-consumer},1652004196,0
{consumergroup=trace-token-events-consumer},1652004201,0
{consumergroup=trace-token-events-consumer},1652004206,0
{consumergroup=trace-token-events-consumer},1652004211,0
{consumergroup=trace-token-events-consumer},1652004216,0
{consumergroup=trace-token-events-consumer},1652004221,0
{consumergroup=trace-token-events-consumer},1652004226,0
{consumergroup=trace-token-events-consumer},1652004231,0
{consumergroup=trace-token-events-consumer},1652004236,0
{consumergroup=trace-token-events-consumer},1652004241,0
{consumergroup=trace-token-events-consumer},1652004246,0
{consumergroup=trace-token-events-consumer},1652004251,0
{consumergroup=trace-token-events-consumer},1652004256,0
{consumergroup=trace-token-events-consumer},1652004261,0
{consumergroup=trace-token-events-consumer},1652004266,0
{consumergroup=trace-token-events-consumer},1652004271,0
{consumergroup=trace-token-events-consumer},1652004276,0
{consumergroup=trace-token-events-consumer},1652004281,0
{consumergroup=trace-token-events-consumer},1652004286,0
{consumergroup=trace-token-events-consumer},1652004291,0
{consumergroup=trace-token-events-consumer},1652004296,0
{consumergroup=trace-token-events-consumer},1652004301,0
{consumergroup=trace-token-events-consumer},1652004306,0
{consumergroup=trace-token-events-consumer},1652004311,0
{consumergroup=trace-token-events-consumer},1652004316,0
{consumergroup=trace-token-events-consumer},1652004321,0
{consumergroup=trace-token-events-consumer},1652004326,0
{consumergroup=trace-token-events-consumer},1652004331,0
{consumergroup=trace-token-events-consumer},1652004336,0
{consumergroup=trace-token-events-consumer},1652004341,0
{consumergroup=trace-token-events-consumer},1652004346,0
{consumergroup=trace-token-events-consumer},1652004351,0
{consumergroup=trace-token-events-consumer},1652004356,0
{consumergroup=trace-token-events-consumer},1652004361,0
{consumergroup=trace-token-events-consumer},1652004366,0
{consumergroup=trace-token-events-consumer},1652004371,0
{consumergroup=trace-token-events-consumer},1652004376,0
{consumergroup=trace-token-events-consumer},1652004381,0
{consumergroup=trace-token-events-consumer},1652004386,0
{consumergroup=trace-token-events-consumer},1652004391,0
{consumergroup=trace-token-events-consumer},1652004396,0
{consumergroup=trace-token-events-consumer},1652004401,0
{consumergroup=trace-token-events-consumer},1652004406,0
{consumergroup=trace-token-events-consumer},1652004411,0
{consumergroup=trace-token-events-consumer},1652004416,0
{consumergroup=trace-token-events-consumer},1652004421,0
{consumergroup=trace-token-events-consumer},1652004426,0
{consumergroup=trace-token-events-consumer},1652004431,0
{consumergroup=trace-token-events-consumer},1652004436,0
{consumergroup=trace-token-events-consumer},1652004441,0
{consumergroup=trace-token-events-consumer},1652004446,0
{consumergroup=trace-token-events-consumer},1652004451,0
{consumergroup=trace-token-events-consumer},1652004456,0
{consumergroup=trace-token-events-consumer},1652004461,0
{consumergroup=trace-token-events-consumer},1652004466,0
{consumergroup=trace-token-events-consumer},1652004471,0
{consumergroup=trace-token-events-consumer},1652004476,0
{consumergroup=trace-token-events-consumer},1652004481,0
{consumergroup=trace-token-events-consumer},1652004486,0
{consumergroup=trace-token-events-consumer},1652004491,0
{consumergroup=trace-token-events-consumer},1652004496,0
{consumergroup=trace-token-events-consumer},1652004501,0
{consumergroup=trace-token-events-consumer},1652004506,0
{consumergroup=trace-token-events-consumer},1652004511,0
{consumergroup=trace-token-events-consumer},1652004516,0
{consumergroup=trace-token-events-consumer},1652004521,0
{consumergroup=trace-token-events-consumer},1652004526,0
{consumergroup=trace-token-events-consumer},1652004531,0
{consumergroup=trace-token-events-consumer},1652004536,0
{consumergroup=trace-token-events-consumer},1652004541,0
{consumergroup=trace-token-events-consumer},1652004546,0
{consumergroup=trace-token-events-consumer},1652004551,0
{consumergroup=trace-token-events-consumer},1652004556,0
{consumergroup=trace-token-events-consumer},1652004561,0
