labels,timestamp,value
{consumergroup=__strimzi-topic-operator-kstreams},1651970504,11
{consumergroup=__strimzi-topic-operator-kstreams},1651970509,11
{consumergroup=__strimzi-topic-operator-kstreams},1651970514,11
{consumergroup=__strimzi-topic-operator-kstreams},1651970519,11
{consumergroup=__strimzi-topic-operator-kstreams},1651970524,11
{consumergroup=__strimzi-topic-operator-kstreams},1651970529,11
{consumergroup=__strimzi-topic-operator-kstreams},1651970534,3
{consumergroup=__strimzi-topic-operator-kstreams},1651970539,3
{consumergroup=__strimzi-topic-operator-kstreams},1651970544,3
{consumergroup=__strimzi-topic-operator-kstreams},1651970549,3
{consumergroup=__strimzi-topic-operator-kstreams},1651970554,3
{consumergroup=__strimzi-topic-operator-kstreams},1651970559,3
{consumergroup=__strimzi-topic-operator-kstreams},1651970564,0
{consumergroup=__strimzi-topic-operator-kstreams},1651970569,0
{consumergroup=__strimzi-topic-operator-kstreams},1651970574,0
{consumergroup=__strimzi-topic-operator-kstreams},1651970579,0
{consumergroup=__strimzi-topic-operator-kstreams},1651970584,0
{consumergroup=__strimzi-topic-operator-kstreams},1651970589,0
{consumergroup=__strimzi-topic-operator-kstreams},1651970594,0
{consumergroup=__strimzi-topic-operator-kstreams},1651970599,0
{consumergroup=__strimzi-topic-operator-kstreams},1651970604,0
{consumergroup=__strimzi-topic-operator-kstreams},1651970609,0
{consumergroup=__strimzi-topic-operator-kstreams},1651970614,0
{consumergroup=__strimzi-topic-operator-kstreams},1651970619,0
{consumergroup=__strimzi-topic-operator-kstreams},1651970624,0
{consumergroup=__strimzi-topic-operator-kstreams},1651970629,0
{consumergroup=__strimzi-topic-operator-kstreams},1651970634,0
{consumergroup=__strimzi-topic-operator-kstreams},1651970639,0
{consumergroup=__strimzi-topic-operator-kstreams},1651970644,0
{consumergroup=__strimzi-topic-operator-kstreams},1651970649,0
{consumergroup=__strimzi-topic-operator-kstreams},1651970654,0
{consumergroup=__strimzi-topic-operator-kstreams},1651970659,0
{consumergroup=__strimzi-topic-operator-kstreams},1651970664,0
{consumergroup=__strimzi-topic-operator-kstreams},1651970669,0
{consumergroup=__strimzi-topic-operator-kstreams},1651970674,0
{consumergroup=__strimzi-topic-operator-kstreams},1651970679,0
{consumergroup=__strimzi-topic-operator-kstreams},1651970684,0
{consumergroup=__strimzi-topic-operator-kstreams},1651970689,0
{consumergroup=__strimzi-topic-operator-kstreams},1651970694,0
{consumergroup=__strimzi-topic-operator-kstreams},1651970699,0
{consumergroup=__strimzi-topic-operator-kstreams},1651970704,0
{consumergroup=__strimzi-topic-operator-kstreams},1651970709,0
{consumergroup=__strimzi-topic-operator-kstreams},1651970714,0
{consumergroup=__strimzi-topic-operator-kstreams},1651970719,0
{consumergroup=__strimzi-topic-operator-kstreams},1651970724,0
{consumergroup=__strimzi-topic-operator-kstreams},1651970729,0
{consumergroup=__strimzi-topic-operator-kstreams},1651970734,0
{consumergroup=__strimzi-topic-operator-kstreams},1651970739,0
{consumergroup=__strimzi-topic-operator-kstreams},1651970744,0
{consumergroup=__strimzi-topic-operator-kstreams},1651970749,0
{consumergroup=__strimzi-topic-operator-kstreams},1651970754,0
{consumergroup=__strimzi-topic-operator-kstreams},1651970759,0
{consumergroup=__strimzi-topic-operator-kstreams},1651970764,0
{consumergroup=__strimzi-topic-operator-kstreams},1651970769,0
{consumergroup=__strimzi-topic-operator-kstreams},1651970774,0
{consumergroup=__strimzi-topic-operator-kstreams},1651970779,0
{consumergroup=__strimzi-topic-operator-kstreams},1651970784,0
{consumergroup=__strimzi-topic-operator-kstreams},1651970789,0
{consumergroup=__strimzi-topic-operator-kstreams},1651970794,0
{consumergroup=__strimzi-topic-operator-kstreams},1651970799,0
{consumergroup=__strimzi-topic-operator-kstreams},1651970804,0
{consumergroup=__strimzi-topic-operator-kstreams},1651970809,0
{consumergroup=__strimzi-topic-operator-kstreams},1651970814,0
{consumergroup=__strimzi-topic-operator-kstreams},1651970819,0
{consumergroup=__strimzi-topic-operator-kstreams},1651970824,0
{consumergroup=__strimzi-topic-operator-kstreams},1651970829,0
{consumergroup=__strimzi-topic-operator-kstreams},1651970834,0
{consumergroup=__strimzi-topic-operator-kstreams},1651970839,0
{consumergroup=__strimzi-topic-operator-kstreams},1651970844,0
{consumergroup=__strimzi-topic-operator-kstreams},1651970849,0
{consumergroup=__strimzi-topic-operator-kstreams},1651970854,0
{consumergroup=__strimzi-topic-operator-kstreams},1651970859,0
{consumergroup=__strimzi-topic-operator-kstreams},1651970864,0
{consumergroup=__strimzi-topic-operator-kstreams},1651970869,0
{consumergroup=__strimzi-topic-operator-kstreams},1651970874,0
{consumergroup=__strimzi-topic-operator-kstreams},1651970879,0
{consumergroup=__strimzi-topic-operator-kstreams},1651970884,0
{consumergroup=__strimzi-topic-operator-kstreams},1651970889,0
{consumergroup=__strimzi-topic-operator-kstreams},1651970894,0
{consumergroup=__strimzi-topic-operator-kstreams},1651970899,0
{consumergroup=__strimzi-topic-operator-kstreams},1651970904,0
{consumergroup=__strimzi-topic-operator-kstreams},1651970909,0
{consumergroup=__strimzi-topic-operator-kstreams},1651970914,0
{consumergroup=__strimzi-topic-operator-kstreams},1651970919,0
{consumergroup=__strimzi-topic-operator-kstreams},1651970924,0
{consumergroup=__strimzi-topic-operator-kstreams},1651970929,0
{consumergroup=__strimzi-topic-operator-kstreams},1651970934,0
{consumergroup=__strimzi-topic-operator-kstreams},1651970939,0
{consumergroup=__strimzi-topic-operator-kstreams},1651970944,0
{consumergroup=__strimzi-topic-operator-kstreams},1651970949,0
{consumergroup=__strimzi-topic-operator-kstreams},1651970954,0
{consumergroup=adapter-service},1651970534,0
{consumergroup=adapter-service},1651970539,0
{consumergroup=adapter-service},1651970544,0
{consumergroup=adapter-service},1651970549,4721
{consumergroup=adapter-service},1651970554,4721
{consumergroup=adapter-service},1651970559,4721
{consumergroup=adapter-service},1651970564,4297
{consumergroup=adapter-service},1651970569,4297
{consumergroup=adapter-service},1651970574,4297
{consumergroup=adapter-service},1651970579,4463
{consumergroup=adapter-service},1651970584,4463
{consumergroup=adapter-service},1651970589,4463
{consumergroup=adapter-service},1651970594,5286
{consumergroup=adapter-service},1651970599,5286
{consumergroup=adapter-service},1651970604,5286
{consumergroup=adapter-service},1651970609,4349
{consumergroup=adapter-service},1651970614,4349
{consumergroup=adapter-service},1651970619,4349
{consumergroup=adapter-service},1651970624,5574
{consumergroup=adapter-service},1651970629,5574
{consumergroup=adapter-service},1651970634,5574
{consumergroup=adapter-service},1651970639,3610
{consumergroup=adapter-service},1651970644,3610
{consumergroup=adapter-service},1651970649,3610
{consumergroup=adapter-service},1651970654,4871
{consumergroup=adapter-service},1651970659,4871
{consumergroup=adapter-service},1651970664,4871
{consumergroup=adapter-service},1651970669,3523
{consumergroup=adapter-service},1651970674,3523
{consumergroup=adapter-service},1651970679,3523
{consumergroup=adapter-service},1651970684,4578
{consumergroup=adapter-service},1651970689,4578
{consumergroup=adapter-service},1651970694,4578
{consumergroup=adapter-service},1651970699,3140
{consumergroup=adapter-service},1651970704,3140
{consumergroup=adapter-service},1651970709,3140
{consumergroup=adapter-service},1651970714,4412
{consumergroup=adapter-service},1651970719,4412
{consumergroup=adapter-service},1651970724,4412
{consumergroup=adapter-service},1651970729,2860
{consumergroup=adapter-service},1651970734,2860
{consumergroup=adapter-service},1651970739,2860
{consumergroup=adapter-service},1651970744,4582
{consumergroup=adapter-service},1651970749,4582
{consumergroup=adapter-service},1651970754,4582
{consumergroup=adapter-service},1651970759,2934
{consumergroup=adapter-service},1651970764,2934
{consumergroup=adapter-service},1651970769,2934
{consumergroup=adapter-service},1651970774,3914
{consumergroup=adapter-service},1651970779,3914
{consumergroup=adapter-service},1651970784,3914
{consumergroup=adapter-service},1651970789,2381
{consumergroup=adapter-service},1651970794,2381
{consumergroup=adapter-service},1651970799,2381
{consumergroup=adapter-service},1651970804,2232
{consumergroup=adapter-service},1651970809,2232
{consumergroup=adapter-service},1651970814,2232
{consumergroup=adapter-service},1651970819,2122
{consumergroup=adapter-service},1651970824,2122
{consumergroup=adapter-service},1651970829,2122
{consumergroup=adapter-service},1651970834,3230
{consumergroup=adapter-service},1651970839,3230
{consumergroup=adapter-service},1651970844,3230
{consumergroup=adapter-service},1651970849,1799
{consumergroup=adapter-service},1651970854,1799
{consumergroup=adapter-service},1651970859,1799
{consumergroup=adapter-service},1651970864,3164
{consumergroup=adapter-service},1651970869,3164
{consumergroup=adapter-service},1651970874,3164
{consumergroup=adapter-service},1651970879,1580
{consumergroup=adapter-service},1651970884,1580
{consumergroup=adapter-service},1651970889,1580
{consumergroup=adapter-service},1651970894,2829
{consumergroup=adapter-service},1651970899,2829
{consumergroup=adapter-service},1651970904,2829
{consumergroup=adapter-service},1651970909,1332
{consumergroup=adapter-service},1651970914,1332
{consumergroup=adapter-service},1651970919,1332
{consumergroup=adapter-service},1651970924,1279
{consumergroup=adapter-service},1651970929,1279
{consumergroup=adapter-service},1651970934,1279
{consumergroup=adapter-service},1651970939,1058
{consumergroup=adapter-service},1651970944,1058
{consumergroup=adapter-service},1651970949,1058
{consumergroup=adapter-service},1651970954,917
{consumergroup=landscape-service},1651970549,111
{consumergroup=landscape-service},1651970554,111
{consumergroup=landscape-service},1651970559,111
{consumergroup=landscape-service},1651970564,4209
{consumergroup=landscape-service},1651970569,4209
{consumergroup=landscape-service},1651970574,4209
{consumergroup=landscape-service},1651970579,3761
{consumergroup=landscape-service},1651970584,3761
{consumergroup=landscape-service},1651970589,3761
{consumergroup=landscape-service},1651970594,4964
{consumergroup=landscape-service},1651970599,4964
{consumergroup=landscape-service},1651970604,4964
{consumergroup=landscape-service},1651970609,3635
{consumergroup=landscape-service},1651970614,3635
{consumergroup=landscape-service},1651970619,3635
{consumergroup=landscape-service},1651970624,4906
{consumergroup=landscape-service},1651970629,4906
{consumergroup=landscape-service},1651970634,4906
{consumergroup=landscape-service},1651970639,3814
{consumergroup=landscape-service},1651970644,3814
{consumergroup=landscape-service},1651970649,3814
{consumergroup=landscape-service},1651970654,4772
{consumergroup=landscape-service},1651970659,4772
{consumergroup=landscape-service},1651970664,4772
{consumergroup=landscape-service},1651970669,3571
{consumergroup=landscape-service},1651970674,3571
{consumergroup=landscape-service},1651970679,3571
{consumergroup=landscape-service},1651970684,4719
{consumergroup=landscape-service},1651970689,4719
{consumergroup=landscape-service},1651970694,4719
{consumergroup=landscape-service},1651970699,3744
{consumergroup=landscape-service},1651970704,3744
{consumergroup=landscape-service},1651970709,3744
{consumergroup=landscape-service},1651970714,5114
{consumergroup=landscape-service},1651970719,5114
{consumergroup=landscape-service},1651970724,5114
{consumergroup=landscape-service},1651970729,3663
{consumergroup=landscape-service},1651970734,3663
{consumergroup=landscape-service},1651970739,3663
{consumergroup=landscape-service},1651970744,4616
{consumergroup=landscape-service},1651970749,4616
{consumergroup=landscape-service},1651970754,4616
{consumergroup=landscape-service},1651970759,3098
{consumergroup=landscape-service},1651970764,3098
{consumergroup=landscape-service},1651970769,3098
{consumergroup=landscape-service},1651970774,4555
{consumergroup=landscape-service},1651970779,4555
{consumergroup=landscape-service},1651970784,4555
{consumergroup=landscape-service},1651970789,3096
{consumergroup=landscape-service},1651970794,3096
{consumergroup=landscape-service},1651970799,3096
{consumergroup=landscape-service},1651970804,3414
{consumergroup=landscape-service},1651970809,3414
{consumergroup=landscape-service},1651970814,3414
{consumergroup=landscape-service},1651970819,3099
{consumergroup=landscape-service},1651970824,3099
{consumergroup=landscape-service},1651970829,3099
{consumergroup=landscape-service},1651970834,4324
{consumergroup=landscape-service},1651970839,4324
{consumergroup=landscape-service},1651970844,4324
{consumergroup=landscape-service},1651970849,2919
{consumergroup=landscape-service},1651970854,2919
{consumergroup=landscape-service},1651970859,2919
{consumergroup=landscape-service},1651970864,4310
{consumergroup=landscape-service},1651970869,4310
{consumergroup=landscape-service},1651970874,4310
{consumergroup=landscape-service},1651970879,2933
{consumergroup=landscape-service},1651970884,2933
{consumergroup=landscape-service},1651970889,2933
{consumergroup=landscape-service},1651970894,4223
{consumergroup=landscape-service},1651970899,4223
{consumergroup=landscape-service},1651970904,4223
{consumergroup=landscape-service},1651970909,3233
{consumergroup=landscape-service},1651970914,3233
{consumergroup=landscape-service},1651970919,3233
{consumergroup=landscape-service},1651970924,3146
{consumergroup=landscape-service},1651970929,3146
{consumergroup=landscape-service},1651970934,3146
{consumergroup=landscape-service},1651970939,2720
{consumergroup=landscape-service},1651970944,2720
{consumergroup=landscape-service},1651970949,2720
{consumergroup=landscape-service},1651970954,3130
{consumergroup=landscape-token-events-consumer},1651970534,0
{consumergroup=landscape-token-events-consumer},1651970539,0
{consumergroup=landscape-token-events-consumer},1651970544,0
{consumergroup=landscape-token-events-consumer},1651970549,0
{consumergroup=landscape-token-events-consumer},1651970554,0
{consumergroup=landscape-token-events-consumer},1651970559,0
{consumergroup=landscape-token-events-consumer},1651970564,0
{consumergroup=landscape-token-events-consumer},1651970569,0
{consumergroup=landscape-token-events-consumer},1651970574,0
{consumergroup=landscape-token-events-consumer},1651970579,0
{consumergroup=landscape-token-events-consumer},1651970584,0
{consumergroup=landscape-token-events-consumer},1651970589,0
{consumergroup=landscape-token-events-consumer},1651970594,0
{consumergroup=landscape-token-events-consumer},1651970599,0
{consumergroup=landscape-token-events-consumer},1651970604,0
{consumergroup=landscape-token-events-consumer},1651970609,0
{consumergroup=landscape-token-events-consumer},1651970614,0
{consumergroup=landscape-token-events-consumer},1651970619,0
{consumergroup=landscape-token-events-consumer},1651970624,0
{consumergroup=landscape-token-events-consumer},1651970629,0
{consumergroup=landscape-token-events-consumer},1651970634,0
{consumergroup=landscape-token-events-consumer},1651970639,0
{consumergroup=landscape-token-events-consumer},1651970644,0
{consumergroup=landscape-token-events-consumer},1651970649,0
{consumergroup=landscape-token-events-consumer},1651970654,0
{consumergroup=landscape-token-events-consumer},1651970659,0
{consumergroup=landscape-token-events-consumer},1651970664,0
{consumergroup=landscape-token-events-consumer},1651970669,0
{consumergroup=landscape-token-events-consumer},1651970674,0
{consumergroup=landscape-token-events-consumer},1651970679,0
{consumergroup=landscape-token-events-consumer},1651970684,0
{consumergroup=landscape-token-events-consumer},1651970689,0
{consumergroup=landscape-token-events-consumer},1651970694,0
{consumergroup=landscape-token-events-consumer},1651970699,0
{consumergroup=landscape-token-events-consumer},1651970704,0
{consumergroup=landscape-token-events-consumer},1651970709,0
{consumergroup=landscape-token-events-consumer},1651970714,0
{consumergroup=landscape-token-events-consumer},1651970719,0
{consumergroup=landscape-token-events-consumer},1651970724,0
{consumergroup=landscape-token-events-consumer},1651970729,0
{consumergroup=landscape-token-events-consumer},1651970734,0
{consumergroup=landscape-token-events-consumer},1651970739,0
{consumergroup=landscape-token-events-consumer},1651970744,0
{consumergroup=landscape-token-events-consumer},1651970749,0
{consumergroup=landscape-token-events-consumer},1651970754,0
{consumergroup=landscape-token-events-consumer},1651970759,0
{consumergroup=landscape-token-events-consumer},1651970764,0
{consumergroup=landscape-token-events-consumer},1651970769,0
{consumergroup=landscape-token-events-consumer},1651970774,0
{consumergroup=landscape-token-events-consumer},1651970779,0
{consumergroup=landscape-token-events-consumer},1651970784,0
{consumergroup=landscape-token-events-consumer},1651970789,0
{consumergroup=landscape-token-events-consumer},1651970794,0
{consumergroup=landscape-token-events-consumer},1651970799,0
{consumergroup=landscape-token-events-consumer},1651970804,0
{consumergroup=landscape-token-events-consumer},1651970809,0
{consumergroup=landscape-token-events-consumer},1651970814,0
{consumergroup=landscape-token-events-consumer},1651970819,0
{consumergroup=landscape-token-events-consumer},1651970824,0
{consumergroup=landscape-token-events-consumer},1651970829,0
{consumergroup=landscape-token-events-consumer},1651970834,0
{consumergroup=landscape-token-events-consumer},1651970839,0
{consumergroup=landscape-token-events-consumer},1651970844,0
{consumergroup=landscape-token-events-consumer},1651970849,0
{consumergroup=landscape-token-events-consumer},1651970854,0
{consumergroup=landscape-token-events-consumer},1651970859,0
{consumergroup=landscape-token-events-consumer},1651970864,0
{consumergroup=landscape-token-events-consumer},1651970869,0
{consumergroup=landscape-token-events-consumer},1651970874,0
{consumergroup=landscape-token-events-consumer},1651970879,0
{consumergroup=landscape-token-events-consumer},1651970884,0
{consumergroup=landscape-token-events-consumer},1651970889,0
{consumergroup=landscape-token-events-consumer},1651970894,0
{consumergroup=landscape-token-events-consumer},1651970899,0
{consumergroup=landscape-token-events-consumer},1651970904,0
{consumergroup=landscape-token-events-consumer},1651970909,0
{consumergroup=landscape-token-events-consumer},1651970914,0
{consumergroup=landscape-token-events-consumer},1651970919,0
{consumergroup=landscape-token-events-consumer},1651970924,0
{consumergroup=landscape-token-events-consumer},1651970929,0
{consumergroup=landscape-token-events-consumer},1651970934,0
{consumergroup=landscape-token-events-consumer},1651970939,0
{consumergroup=landscape-token-events-consumer},1651970944,0
{consumergroup=landscape-token-events-consumer},1651970949,0
{consumergroup=landscape-token-events-consumer},1651970954,0
{consumergroup=trace-service},1651970549,14258
{consumergroup=trace-service},1651970554,14258
{consumergroup=trace-service},1651970559,14258
{consumergroup=trace-service},1651970564,24698
{consumergroup=trace-service},1651970569,24698
{consumergroup=trace-service},1651970574,24698
{consumergroup=trace-service},1651970579,6543
{consumergroup=trace-service},1651970584,6543
{consumergroup=trace-service},1651970589,6543
{consumergroup=trace-service},1651970594,23433
{consumergroup=trace-service},1651970599,23433
{consumergroup=trace-service},1651970604,23433
{consumergroup=trace-service},1651970609,5350
{consumergroup=trace-service},1651970614,5350
{consumergroup=trace-service},1651970619,5350
{consumergroup=trace-service},1651970624,6700
{consumergroup=trace-service},1651970629,6700
{consumergroup=trace-service},1651970634,6700
{consumergroup=trace-service},1651970639,8266
{consumergroup=trace-service},1651970644,8266
{consumergroup=trace-service},1651970649,8266
{consumergroup=trace-service},1651970654,22943
{consumergroup=trace-service},1651970659,22943
{consumergroup=trace-service},1651970664,22943
{consumergroup=trace-service},1651970669,5596
{consumergroup=trace-service},1651970674,5596
{consumergroup=trace-service},1651970679,5596
{consumergroup=trace-service},1651970684,6473
{consumergroup=trace-service},1651970689,6473
{consumergroup=trace-service},1651970694,6473
{consumergroup=trace-service},1651970699,5282
{consumergroup=trace-service},1651970704,5282
{consumergroup=trace-service},1651970709,5282
{consumergroup=trace-service},1651970714,3208
{consumergroup=trace-service},1651970719,3208
{consumergroup=trace-service},1651970724,3208
{consumergroup=trace-service},1651970729,10629
{consumergroup=trace-service},1651970734,10629
{consumergroup=trace-service},1651970739,10629
{consumergroup=trace-service},1651970744,3214
{consumergroup=trace-service},1651970749,3214
{consumergroup=trace-service},1651970754,3214
{consumergroup=trace-service},1651970759,10664
{consumergroup=trace-service},1651970764,10664
{consumergroup=trace-service},1651970769,10664
{consumergroup=trace-service},1651970774,2526
{consumergroup=trace-service},1651970779,2526
{consumergroup=trace-service},1651970784,2526
{consumergroup=trace-service},1651970789,10384
{consumergroup=trace-service},1651970794,10384
{consumergroup=trace-service},1651970799,10384
{consumergroup=trace-service},1651970804,13585
{consumergroup=trace-service},1651970809,13585
{consumergroup=trace-service},1651970814,13585
{consumergroup=trace-service},1651970819,10067
{consumergroup=trace-service},1651970824,10067
{consumergroup=trace-service},1651970829,10067
{consumergroup=trace-service},1651970834,3617
{consumergroup=trace-service},1651970839,3617
{consumergroup=trace-service},1651970844,3617
{consumergroup=trace-service},1651970849,11411
{consumergroup=trace-service},1651970854,11411
{consumergroup=trace-service},1651970859,11411
{consumergroup=trace-service},1651970864,25666
{consumergroup=trace-service},1651970869,25666
{consumergroup=trace-service},1651970874,25666
{consumergroup=trace-service},1651970879,5202
{consumergroup=trace-service},1651970884,5202
{consumergroup=trace-service},1651970889,5202
{consumergroup=trace-service},1651970894,5370
{consumergroup=trace-service},1651970899,5370
{consumergroup=trace-service},1651970904,5370
{consumergroup=trace-service},1651970909,9544
{consumergroup=trace-service},1651970914,9544
{consumergroup=trace-service},1651970919,9544
{consumergroup=trace-service},1651970924,18925
{consumergroup=trace-service},1651970929,18925
{consumergroup=trace-service},1651970934,18925
{consumergroup=trace-service},1651970939,9450
{consumergroup=trace-service},1651970944,9450
{consumergroup=trace-service},1651970949,9450
{consumergroup=trace-service},1651970954,16276
{consumergroup=trace-token-events-consumer},1651970534,0
{consumergroup=trace-token-events-consumer},1651970539,0
{consumergroup=trace-token-events-consumer},1651970544,0
{consumergroup=trace-token-events-consumer},1651970549,0
{consumergroup=trace-token-events-consumer},1651970554,0
{consumergroup=trace-token-events-consumer},1651970559,0
{consumergroup=trace-token-events-consumer},1651970564,0
{consumergroup=trace-token-events-consumer},1651970569,0
{consumergroup=trace-token-events-consumer},1651970574,0
{consumergroup=trace-token-events-consumer},1651970579,0
{consumergroup=trace-token-events-consumer},1651970584,0
{consumergroup=trace-token-events-consumer},1651970589,0
{consumergroup=trace-token-events-consumer},1651970594,0
{consumergroup=trace-token-events-consumer},1651970599,0
{consumergroup=trace-token-events-consumer},1651970604,0
{consumergroup=trace-token-events-consumer},1651970609,0
{consumergroup=trace-token-events-consumer},1651970614,0
{consumergroup=trace-token-events-consumer},1651970619,0
{consumergroup=trace-token-events-consumer},1651970624,0
{consumergroup=trace-token-events-consumer},1651970629,0
{consumergroup=trace-token-events-consumer},1651970634,0
{consumergroup=trace-token-events-consumer},1651970639,0
{consumergroup=trace-token-events-consumer},1651970644,0
{consumergroup=trace-token-events-consumer},1651970649,0
{consumergroup=trace-token-events-consumer},1651970654,0
{consumergroup=trace-token-events-consumer},1651970659,0
{consumergroup=trace-token-events-consumer},1651970664,0
{consumergroup=trace-token-events-consumer},1651970669,0
{consumergroup=trace-token-events-consumer},1651970674,0
{consumergroup=trace-token-events-consumer},1651970679,0
{consumergroup=trace-token-events-consumer},1651970684,0
{consumergroup=trace-token-events-consumer},1651970689,0
{consumergroup=trace-token-events-consumer},1651970694,0
{consumergroup=trace-token-events-consumer},1651970699,0
{consumergroup=trace-token-events-consumer},1651970704,0
{consumergroup=trace-token-events-consumer},1651970709,0
{consumergroup=trace-token-events-consumer},1651970714,0
{consumergroup=trace-token-events-consumer},1651970719,0
{consumergroup=trace-token-events-consumer},1651970724,0
{consumergroup=trace-token-events-consumer},1651970729,0
{consumergroup=trace-token-events-consumer},1651970734,0
{consumergroup=trace-token-events-consumer},1651970739,0
{consumergroup=trace-token-events-consumer},1651970744,0
{consumergroup=trace-token-events-consumer},1651970749,0
{consumergroup=trace-token-events-consumer},1651970754,0
{consumergroup=trace-token-events-consumer},1651970759,0
{consumergroup=trace-token-events-consumer},1651970764,0
{consumergroup=trace-token-events-consumer},1651970769,0
{consumergroup=trace-token-events-consumer},1651970774,0
{consumergroup=trace-token-events-consumer},1651970779,0
{consumergroup=trace-token-events-consumer},1651970784,0
{consumergroup=trace-token-events-consumer},1651970789,0
{consumergroup=trace-token-events-consumer},1651970794,0
{consumergroup=trace-token-events-consumer},1651970799,0
{consumergroup=trace-token-events-consumer},1651970804,0
{consumergroup=trace-token-events-consumer},1651970809,0
{consumergroup=trace-token-events-consumer},1651970814,0
{consumergroup=trace-token-events-consumer},1651970819,0
{consumergroup=trace-token-events-consumer},1651970824,0
{consumergroup=trace-token-events-consumer},1651970829,0
{consumergroup=trace-token-events-consumer},1651970834,0
{consumergroup=trace-token-events-consumer},1651970839,0
{consumergroup=trace-token-events-consumer},1651970844,0
{consumergroup=trace-token-events-consumer},1651970849,0
{consumergroup=trace-token-events-consumer},1651970854,0
{consumergroup=trace-token-events-consumer},1651970859,0
{consumergroup=trace-token-events-consumer},1651970864,0
{consumergroup=trace-token-events-consumer},1651970869,0
{consumergroup=trace-token-events-consumer},1651970874,0
{consumergroup=trace-token-events-consumer},1651970879,0
{consumergroup=trace-token-events-consumer},1651970884,0
{consumergroup=trace-token-events-consumer},1651970889,0
{consumergroup=trace-token-events-consumer},1651970894,0
{consumergroup=trace-token-events-consumer},1651970899,0
{consumergroup=trace-token-events-consumer},1651970904,0
{consumergroup=trace-token-events-consumer},1651970909,0
{consumergroup=trace-token-events-consumer},1651970914,0
{consumergroup=trace-token-events-consumer},1651970919,0
{consumergroup=trace-token-events-consumer},1651970924,0
{consumergroup=trace-token-events-consumer},1651970929,0
{consumergroup=trace-token-events-consumer},1651970934,0
{consumergroup=trace-token-events-consumer},1651970939,0
{consumergroup=trace-token-events-consumer},1651970944,0
{consumergroup=trace-token-events-consumer},1651970949,0
{consumergroup=trace-token-events-consumer},1651970954,0
