labels,timestamp,value
{consumergroup=__strimzi-topic-operator-kstreams},1651963308,0
{consumergroup=__strimzi-topic-operator-kstreams},1651963313,0
{consumergroup=__strimzi-topic-operator-kstreams},1651963318,0
{consumergroup=__strimzi-topic-operator-kstreams},1651963323,11
{consumergroup=__strimzi-topic-operator-kstreams},1651963328,11
{consumergroup=__strimzi-topic-operator-kstreams},1651963333,11
{consumergroup=__strimzi-topic-operator-kstreams},1651963338,0
{consumergroup=__strimzi-topic-operator-kstreams},1651963343,0
{consumergroup=__strimzi-topic-operator-kstreams},1651963348,0
{consumergroup=__strimzi-topic-operator-kstreams},1651963353,0
{consumergroup=__strimzi-topic-operator-kstreams},1651963358,0
{consumergroup=__strimzi-topic-operator-kstreams},1651963363,0
{consumergroup=__strimzi-topic-operator-kstreams},1651963368,0
{consumergroup=__strimzi-topic-operator-kstreams},1651963373,0
{consumergroup=__strimzi-topic-operator-kstreams},1651963378,0
{consumergroup=__strimzi-topic-operator-kstreams},1651963383,0
{consumergroup=__strimzi-topic-operator-kstreams},1651963388,0
{consumergroup=__strimzi-topic-operator-kstreams},1651963393,0
{consumergroup=__strimzi-topic-operator-kstreams},1651963398,0
{consumergroup=__strimzi-topic-operator-kstreams},1651963403,0
{consumergroup=__strimzi-topic-operator-kstreams},1651963408,0
{consumergroup=__strimzi-topic-operator-kstreams},1651963413,0
{consumergroup=__strimzi-topic-operator-kstreams},1651963418,0
{consumergroup=__strimzi-topic-operator-kstreams},1651963423,0
{consumergroup=__strimzi-topic-operator-kstreams},1651963428,0
{consumergroup=__strimzi-topic-operator-kstreams},1651963433,0
{consumergroup=__strimzi-topic-operator-kstreams},1651963438,0
{consumergroup=__strimzi-topic-operator-kstreams},1651963443,0
{consumergroup=__strimzi-topic-operator-kstreams},1651963448,0
{consumergroup=__strimzi-topic-operator-kstreams},1651963453,0
{consumergroup=__strimzi-topic-operator-kstreams},1651963458,0
{consumergroup=__strimzi-topic-operator-kstreams},1651963463,0
{consumergroup=__strimzi-topic-operator-kstreams},1651963468,0
{consumergroup=__strimzi-topic-operator-kstreams},1651963473,0
{consumergroup=__strimzi-topic-operator-kstreams},1651963478,0
{consumergroup=__strimzi-topic-operator-kstreams},1651963483,0
{consumergroup=__strimzi-topic-operator-kstreams},1651963488,0
{consumergroup=__strimzi-topic-operator-kstreams},1651963493,0
{consumergroup=__strimzi-topic-operator-kstreams},1651963498,0
{consumergroup=__strimzi-topic-operator-kstreams},1651963503,0
{consumergroup=__strimzi-topic-operator-kstreams},1651963508,0
{consumergroup=__strimzi-topic-operator-kstreams},1651963513,0
{consumergroup=__strimzi-topic-operator-kstreams},1651963518,0
{consumergroup=__strimzi-topic-operator-kstreams},1651963523,0
{consumergroup=__strimzi-topic-operator-kstreams},1651963528,0
{consumergroup=__strimzi-topic-operator-kstreams},1651963533,0
{consumergroup=__strimzi-topic-operator-kstreams},1651963538,0
{consumergroup=__strimzi-topic-operator-kstreams},1651963543,0
{consumergroup=__strimzi-topic-operator-kstreams},1651963548,0
{consumergroup=__strimzi-topic-operator-kstreams},1651963553,0
{consumergroup=__strimzi-topic-operator-kstreams},1651963558,0
{consumergroup=__strimzi-topic-operator-kstreams},1651963563,0
{consumergroup=__strimzi-topic-operator-kstreams},1651963568,0
{consumergroup=__strimzi-topic-operator-kstreams},1651963573,0
{consumergroup=__strimzi-topic-operator-kstreams},1651963578,0
{consumergroup=__strimzi-topic-operator-kstreams},1651963583,0
{consumergroup=__strimzi-topic-operator-kstreams},1651963588,0
{consumergroup=__strimzi-topic-operator-kstreams},1651963593,0
{consumergroup=__strimzi-topic-operator-kstreams},1651963598,0
{consumergroup=__strimzi-topic-operator-kstreams},1651963603,0
{consumergroup=__strimzi-topic-operator-kstreams},1651963608,0
{consumergroup=__strimzi-topic-operator-kstreams},1651963613,0
{consumergroup=__strimzi-topic-operator-kstreams},1651963618,0
{consumergroup=__strimzi-topic-operator-kstreams},1651963623,0
{consumergroup=__strimzi-topic-operator-kstreams},1651963628,0
{consumergroup=__strimzi-topic-operator-kstreams},1651963633,0
{consumergroup=__strimzi-topic-operator-kstreams},1651963638,0
{consumergroup=__strimzi-topic-operator-kstreams},1651963643,0
{consumergroup=__strimzi-topic-operator-kstreams},1651963648,0
{consumergroup=__strimzi-topic-operator-kstreams},1651963653,0
{consumergroup=__strimzi-topic-operator-kstreams},1651963658,0
{consumergroup=__strimzi-topic-operator-kstreams},1651963663,0
{consumergroup=__strimzi-topic-operator-kstreams},1651963668,0
{consumergroup=__strimzi-topic-operator-kstreams},1651963673,0
{consumergroup=__strimzi-topic-operator-kstreams},1651963678,0
{consumergroup=__strimzi-topic-operator-kstreams},1651963683,0
{consumergroup=__strimzi-topic-operator-kstreams},1651963688,0
{consumergroup=__strimzi-topic-operator-kstreams},1651963693,0
{consumergroup=__strimzi-topic-operator-kstreams},1651963698,0
{consumergroup=__strimzi-topic-operator-kstreams},1651963703,0
{consumergroup=__strimzi-topic-operator-kstreams},1651963708,0
{consumergroup=__strimzi-topic-operator-kstreams},1651963713,0
{consumergroup=__strimzi-topic-operator-kstreams},1651963718,0
{consumergroup=__strimzi-topic-operator-kstreams},1651963723,0
{consumergroup=__strimzi-topic-operator-kstreams},1651963728,0
{consumergroup=__strimzi-topic-operator-kstreams},1651963733,0
{consumergroup=__strimzi-topic-operator-kstreams},1651963738,0
{consumergroup=__strimzi-topic-operator-kstreams},1651963743,0
{consumergroup=__strimzi-topic-operator-kstreams},1651963748,0
{consumergroup=__strimzi-topic-operator-kstreams},1651963753,0
{consumergroup=__strimzi-topic-operator-kstreams},1651963758,0
{consumergroup=adapter-service},1651963338,0
{consumergroup=adapter-service},1651963343,0
{consumergroup=adapter-service},1651963348,0
{consumergroup=adapter-service},1651963353,13158
{consumergroup=adapter-service},1651963358,13158
{consumergroup=adapter-service},1651963363,13158
{consumergroup=adapter-service},1651963368,13606
{consumergroup=adapter-service},1651963373,13606
{consumergroup=adapter-service},1651963378,13606
{consumergroup=adapter-service},1651963383,8216
{consumergroup=adapter-service},1651963388,8216
{consumergroup=adapter-service},1651963393,8216
{consumergroup=adapter-service},1651963398,11862
{consumergroup=adapter-service},1651963403,11862
{consumergroup=adapter-service},1651963408,11862
{consumergroup=adapter-service},1651963413,7420
{consumergroup=adapter-service},1651963418,7420
{consumergroup=adapter-service},1651963423,7420
{consumergroup=adapter-service},1651963428,11420
{consumergroup=adapter-service},1651963433,11420
{consumergroup=adapter-service},1651963438,11420
{consumergroup=adapter-service},1651963443,6759
{consumergroup=adapter-service},1651963448,6759
{consumergroup=adapter-service},1651963453,6759
{consumergroup=adapter-service},1651963458,10652
{consumergroup=adapter-service},1651963463,10652
{consumergroup=adapter-service},1651963468,10652
{consumergroup=adapter-service},1651963473,6139
{consumergroup=adapter-service},1651963478,6139
{consumergroup=adapter-service},1651963483,6139
{consumergroup=adapter-service},1651963488,10985
{consumergroup=adapter-service},1651963493,10985
{consumergroup=adapter-service},1651963498,10985
{consumergroup=adapter-service},1651963503,5237
{consumergroup=adapter-service},1651963508,5237
{consumergroup=adapter-service},1651963513,5237
{consumergroup=adapter-service},1651963518,9463
{consumergroup=adapter-service},1651963523,9463
{consumergroup=adapter-service},1651963528,9463
{consumergroup=adapter-service},1651963533,5793
{consumergroup=adapter-service},1651963538,5793
{consumergroup=adapter-service},1651963543,5793
{consumergroup=adapter-service},1651963548,12800
{consumergroup=adapter-service},1651963553,12800
{consumergroup=adapter-service},1651963558,12800
{consumergroup=adapter-service},1651963563,8595
{consumergroup=adapter-service},1651963568,8595
{consumergroup=adapter-service},1651963573,8595
{consumergroup=adapter-service},1651963578,8088
{consumergroup=adapter-service},1651963583,8088
{consumergroup=adapter-service},1651963588,8088
{consumergroup=adapter-service},1651963593,3583
{consumergroup=adapter-service},1651963598,3583
{consumergroup=adapter-service},1651963603,3583
{consumergroup=adapter-service},1651963608,7817
{consumergroup=adapter-service},1651963613,7817
{consumergroup=adapter-service},1651963618,7817
{consumergroup=adapter-service},1651963623,3165
{consumergroup=adapter-service},1651963628,3165
{consumergroup=adapter-service},1651963633,3165
{consumergroup=adapter-service},1651963638,6883
{consumergroup=adapter-service},1651963643,6883
{consumergroup=adapter-service},1651963648,6883
{consumergroup=adapter-service},1651963653,2648
{consumergroup=adapter-service},1651963658,2648
{consumergroup=adapter-service},1651963663,2648
{consumergroup=adapter-service},1651963668,7452
{consumergroup=adapter-service},1651963673,7452
{consumergroup=adapter-service},1651963678,7452
{consumergroup=adapter-service},1651963683,1598
{consumergroup=adapter-service},1651963688,1598
{consumergroup=adapter-service},1651963693,1598
{consumergroup=adapter-service},1651963698,5570
{consumergroup=adapter-service},1651963703,5570
{consumergroup=adapter-service},1651963708,5570
{consumergroup=adapter-service},1651963713,2303
{consumergroup=adapter-service},1651963718,2303
{consumergroup=adapter-service},1651963723,2303
{consumergroup=adapter-service},1651963728,5173
{consumergroup=adapter-service},1651963733,5173
{consumergroup=adapter-service},1651963738,5173
{consumergroup=adapter-service},1651963743,4650
{consumergroup=adapter-service},1651963748,4650
{consumergroup=adapter-service},1651963753,4650
{consumergroup=adapter-service},1651963758,4456
{consumergroup=landscape-service},1651963368,13520
{consumergroup=landscape-service},1651963373,13520
{consumergroup=landscape-service},1651963378,13520
{consumergroup=landscape-service},1651963383,17208
{consumergroup=landscape-service},1651963388,17208
{consumergroup=landscape-service},1651963393,17208
{consumergroup=landscape-service},1651963398,13493
{consumergroup=landscape-service},1651963403,13493
{consumergroup=landscape-service},1651963408,13493
{consumergroup=landscape-service},1651963413,15813
{consumergroup=landscape-service},1651963418,15813
{consumergroup=landscape-service},1651963423,15813
{consumergroup=landscape-service},1651963428,14331
{consumergroup=landscape-service},1651963433,14331
{consumergroup=landscape-service},1651963438,14331
{consumergroup=landscape-service},1651963443,16738
{consumergroup=landscape-service},1651963448,16738
{consumergroup=landscape-service},1651963453,16738
{consumergroup=landscape-service},1651963458,19788
{consumergroup=landscape-service},1651963463,19788
{consumergroup=landscape-service},1651963468,19788
{consumergroup=landscape-service},1651963473,15808
{consumergroup=landscape-service},1651963478,15808
{consumergroup=landscape-service},1651963483,15808
{consumergroup=landscape-service},1651963488,19469
{consumergroup=landscape-service},1651963493,19469
{consumergroup=landscape-service},1651963498,19469
{consumergroup=landscape-service},1651963503,15088
{consumergroup=landscape-service},1651963508,15088
{consumergroup=landscape-service},1651963513,15088
{consumergroup=landscape-service},1651963518,19548
{consumergroup=landscape-service},1651963523,19548
{consumergroup=landscape-service},1651963528,19548
{consumergroup=landscape-service},1651963533,14951
{consumergroup=landscape-service},1651963538,14951
{consumergroup=landscape-service},1651963543,14951
{consumergroup=landscape-service},1651963548,1322
{consumergroup=landscape-service},1651963553,1322
{consumergroup=landscape-service},1651963558,1322
{consumergroup=landscape-service},1651963563,19216
{consumergroup=landscape-service},1651963568,19216
{consumergroup=landscape-service},1651963573,19216
{consumergroup=landscape-service},1651963578,18917
{consumergroup=landscape-service},1651963583,18917
{consumergroup=landscape-service},1651963588,18917
{consumergroup=landscape-service},1651963593,15639
{consumergroup=landscape-service},1651963598,15639
{consumergroup=landscape-service},1651963603,15639
{consumergroup=landscape-service},1651963608,18842
{consumergroup=landscape-service},1651963613,18842
{consumergroup=landscape-service},1651963618,18842
{consumergroup=landscape-service},1651963623,14473
{consumergroup=landscape-service},1651963628,14473
{consumergroup=landscape-service},1651963633,14473
{consumergroup=landscape-service},1651963638,18733
{consumergroup=landscape-service},1651963643,18733
{consumergroup=landscape-service},1651963648,18733
{consumergroup=landscape-service},1651963653,14664
{consumergroup=landscape-service},1651963658,14664
{consumergroup=landscape-service},1651963663,14664
{consumergroup=landscape-service},1651963668,18553
{consumergroup=landscape-service},1651963673,18553
{consumergroup=landscape-service},1651963678,18553
{consumergroup=landscape-service},1651963683,15012
{consumergroup=landscape-service},1651963688,15012
{consumergroup=landscape-service},1651963693,15012
{consumergroup=landscape-service},1651963698,18180
{consumergroup=landscape-service},1651963703,18180
{consumergroup=landscape-service},1651963708,18180
{consumergroup=landscape-service},1651963713,13969
{consumergroup=landscape-service},1651963718,13969
{consumergroup=landscape-service},1651963723,13969
{consumergroup=landscape-service},1651963728,17949
{consumergroup=landscape-service},1651963733,17949
{consumergroup=landscape-service},1651963738,17949
{consumergroup=landscape-service},1651963743,17880
{consumergroup=landscape-service},1651963748,17880
{consumergroup=landscape-service},1651963753,17880
{consumergroup=landscape-service},1651963758,18269
{consumergroup=landscape-token-events-consumer},1651963338,0
{consumergroup=landscape-token-events-consumer},1651963343,0
{consumergroup=landscape-token-events-consumer},1651963348,0
{consumergroup=landscape-token-events-consumer},1651963353,0
{consumergroup=landscape-token-events-consumer},1651963358,0
{consumergroup=landscape-token-events-consumer},1651963363,0
{consumergroup=landscape-token-events-consumer},1651963368,0
{consumergroup=landscape-token-events-consumer},1651963373,0
{consumergroup=landscape-token-events-consumer},1651963378,0
{consumergroup=landscape-token-events-consumer},1651963383,0
{consumergroup=landscape-token-events-consumer},1651963388,0
{consumergroup=landscape-token-events-consumer},1651963393,0
{consumergroup=landscape-token-events-consumer},1651963398,0
{consumergroup=landscape-token-events-consumer},1651963403,0
{consumergroup=landscape-token-events-consumer},1651963408,0
{consumergroup=landscape-token-events-consumer},1651963413,0
{consumergroup=landscape-token-events-consumer},1651963418,0
{consumergroup=landscape-token-events-consumer},1651963423,0
{consumergroup=landscape-token-events-consumer},1651963428,0
{consumergroup=landscape-token-events-consumer},1651963433,0
{consumergroup=landscape-token-events-consumer},1651963438,0
{consumergroup=landscape-token-events-consumer},1651963443,0
{consumergroup=landscape-token-events-consumer},1651963448,0
{consumergroup=landscape-token-events-consumer},1651963453,0
{consumergroup=landscape-token-events-consumer},1651963458,0
{consumergroup=landscape-token-events-consumer},1651963463,0
{consumergroup=landscape-token-events-consumer},1651963468,0
{consumergroup=landscape-token-events-consumer},1651963473,0
{consumergroup=landscape-token-events-consumer},1651963478,0
{consumergroup=landscape-token-events-consumer},1651963483,0
{consumergroup=landscape-token-events-consumer},1651963488,0
{consumergroup=landscape-token-events-consumer},1651963493,0
{consumergroup=landscape-token-events-consumer},1651963498,0
{consumergroup=landscape-token-events-consumer},1651963503,0
{consumergroup=landscape-token-events-consumer},1651963508,0
{consumergroup=landscape-token-events-consumer},1651963513,0
{consumergroup=landscape-token-events-consumer},1651963518,0
{consumergroup=landscape-token-events-consumer},1651963523,0
{consumergroup=landscape-token-events-consumer},1651963528,0
{consumergroup=landscape-token-events-consumer},1651963533,0
{consumergroup=landscape-token-events-consumer},1651963538,0
{consumergroup=landscape-token-events-consumer},1651963543,0
{consumergroup=landscape-token-events-consumer},1651963548,0
{consumergroup=landscape-token-events-consumer},1651963553,0
{consumergroup=landscape-token-events-consumer},1651963558,0
{consumergroup=landscape-token-events-consumer},1651963563,0
{consumergroup=landscape-token-events-consumer},1651963568,0
{consumergroup=landscape-token-events-consumer},1651963573,0
{consumergroup=landscape-token-events-consumer},1651963578,0
{consumergroup=landscape-token-events-consumer},1651963583,0
{consumergroup=landscape-token-events-consumer},1651963588,0
{consumergroup=landscape-token-events-consumer},1651963593,0
{consumergroup=landscape-token-events-consumer},1651963598,0
{consumergroup=landscape-token-events-consumer},1651963603,0
{consumergroup=landscape-token-events-consumer},1651963608,0
{consumergroup=landscape-token-events-consumer},1651963613,0
{consumergroup=landscape-token-events-consumer},1651963618,0
{consumergroup=landscape-token-events-consumer},1651963623,0
{consumergroup=landscape-token-events-consumer},1651963628,0
{consumergroup=landscape-token-events-consumer},1651963633,0
{consumergroup=landscape-token-events-consumer},1651963638,0
{consumergroup=landscape-token-events-consumer},1651963643,0
{consumergroup=landscape-token-events-consumer},1651963648,0
{consumergroup=landscape-token-events-consumer},1651963653,0
{consumergroup=landscape-token-events-consumer},1651963658,0
{consumergroup=landscape-token-events-consumer},1651963663,0
{consumergroup=landscape-token-events-consumer},1651963668,0
{consumergroup=landscape-token-events-consumer},1651963673,0
{consumergroup=landscape-token-events-consumer},1651963678,0
{consumergroup=landscape-token-events-consumer},1651963683,0
{consumergroup=landscape-token-events-consumer},1651963688,0
{consumergroup=landscape-token-events-consumer},1651963693,0
{consumergroup=landscape-token-events-consumer},1651963698,0
{consumergroup=landscape-token-events-consumer},1651963703,0
{consumergroup=landscape-token-events-consumer},1651963708,0
{consumergroup=landscape-token-events-consumer},1651963713,0
{consumergroup=landscape-token-events-consumer},1651963718,0
{consumergroup=landscape-token-events-consumer},1651963723,0
{consumergroup=landscape-token-events-consumer},1651963728,0
{consumergroup=landscape-token-events-consumer},1651963733,0
{consumergroup=landscape-token-events-consumer},1651963738,0
{consumergroup=landscape-token-events-consumer},1651963743,0
{consumergroup=landscape-token-events-consumer},1651963748,0
{consumergroup=landscape-token-events-consumer},1651963753,0
{consumergroup=landscape-token-events-consumer},1651963758,0
{consumergroup=trace-service},1651963353,10792
{consumergroup=trace-service},1651963358,10792
{consumergroup=trace-service},1651963363,10792
{consumergroup=trace-service},1651963368,21778
{consumergroup=trace-service},1651963373,21778
{consumergroup=trace-service},1651963378,21778
{consumergroup=trace-service},1651963383,7585
{consumergroup=trace-service},1651963388,7585
{consumergroup=trace-service},1651963393,7585
{consumergroup=trace-service},1651963398,64148
{consumergroup=trace-service},1651963403,64148
{consumergroup=trace-service},1651963408,64148
{consumergroup=trace-service},1651963413,29415
{consumergroup=trace-service},1651963418,29415
{consumergroup=trace-service},1651963423,29415
{consumergroup=trace-service},1651963428,73409
{consumergroup=trace-service},1651963433,73409
{consumergroup=trace-service},1651963438,73409
{consumergroup=trace-service},1651963443,23436
{consumergroup=trace-service},1651963448,23436
{consumergroup=trace-service},1651963453,23436
{consumergroup=trace-service},1651963458,79916
{consumergroup=trace-service},1651963463,79916
{consumergroup=trace-service},1651963468,79916
{consumergroup=trace-service},1651963473,31400
{consumergroup=trace-service},1651963478,31400
{consumergroup=trace-service},1651963483,31400
{consumergroup=trace-service},1651963488,84033
{consumergroup=trace-service},1651963493,84033
{consumergroup=trace-service},1651963498,84033
{consumergroup=trace-service},1651963503,19252
{consumergroup=trace-service},1651963508,19252
{consumergroup=trace-service},1651963513,19252
{consumergroup=trace-service},1651963518,81994
{consumergroup=trace-service},1651963523,81994
{consumergroup=trace-service},1651963528,81994
{consumergroup=trace-service},1651963533,26243
{consumergroup=trace-service},1651963538,26243
{consumergroup=trace-service},1651963543,26243
{consumergroup=trace-service},1651963548,84122
{consumergroup=trace-service},1651963553,84122
{consumergroup=trace-service},1651963558,84122
{consumergroup=trace-service},1651963563,205759
{consumergroup=trace-service},1651963568,205759
{consumergroup=trace-service},1651963573,205759
{consumergroup=trace-service},1651963578,50997
{consumergroup=trace-service},1651963583,50997
{consumergroup=trace-service},1651963588,50997
{consumergroup=trace-service},1651963593,29806
{consumergroup=trace-service},1651963598,29806
{consumergroup=trace-service},1651963603,29806
{consumergroup=trace-service},1651963608,87008
{consumergroup=trace-service},1651963613,87008
{consumergroup=trace-service},1651963618,87008
{consumergroup=trace-service},1651963623,31355
{consumergroup=trace-service},1651963628,31355
{consumergroup=trace-service},1651963633,31355
{consumergroup=trace-service},1651963638,85588
{consumergroup=trace-service},1651963643,85588
{consumergroup=trace-service},1651963648,85588
{consumergroup=trace-service},1651963653,24892
{consumergroup=trace-service},1651963658,24892
{consumergroup=trace-service},1651963663,24892
{consumergroup=trace-service},1651963668,76950
{consumergroup=trace-service},1651963673,76950
{consumergroup=trace-service},1651963678,76950
{consumergroup=trace-service},1651963683,23459
{consumergroup=trace-service},1651963688,23459
{consumergroup=trace-service},1651963693,23459
{consumergroup=trace-service},1651963698,86347
{consumergroup=trace-service},1651963703,86347
{consumergroup=trace-service},1651963708,86347
{consumergroup=trace-service},1651963713,43424
{consumergroup=trace-service},1651963718,43424
{consumergroup=trace-service},1651963723,43424
{consumergroup=trace-service},1651963728,90727
{consumergroup=trace-service},1651963733,90727
{consumergroup=trace-service},1651963738,90727
{consumergroup=trace-service},1651963743,29257
{consumergroup=trace-service},1651963748,29257
{consumergroup=trace-service},1651963753,29257
{consumergroup=trace-service},1651963758,76822
{consumergroup=trace-token-events-consumer},1651963338,0
{consumergroup=trace-token-events-consumer},1651963343,0
{consumergroup=trace-token-events-consumer},1651963348,0
{consumergroup=trace-token-events-consumer},1651963353,0
{consumergroup=trace-token-events-consumer},1651963358,0
{consumergroup=trace-token-events-consumer},1651963363,0
{consumergroup=trace-token-events-consumer},1651963368,0
{consumergroup=trace-token-events-consumer},1651963373,0
{consumergroup=trace-token-events-consumer},1651963378,0
{consumergroup=trace-token-events-consumer},1651963383,0
{consumergroup=trace-token-events-consumer},1651963388,0
{consumergroup=trace-token-events-consumer},1651963393,0
{consumergroup=trace-token-events-consumer},1651963398,0
{consumergroup=trace-token-events-consumer},1651963403,0
{consumergroup=trace-token-events-consumer},1651963408,0
{consumergroup=trace-token-events-consumer},1651963413,0
{consumergroup=trace-token-events-consumer},1651963418,0
{consumergroup=trace-token-events-consumer},1651963423,0
{consumergroup=trace-token-events-consumer},1651963428,0
{consumergroup=trace-token-events-consumer},1651963433,0
{consumergroup=trace-token-events-consumer},1651963438,0
{consumergroup=trace-token-events-consumer},1651963443,0
{consumergroup=trace-token-events-consumer},1651963448,0
{consumergroup=trace-token-events-consumer},1651963453,0
{consumergroup=trace-token-events-consumer},1651963458,0
{consumergroup=trace-token-events-consumer},1651963463,0
{consumergroup=trace-token-events-consumer},1651963468,0
{consumergroup=trace-token-events-consumer},1651963473,0
{consumergroup=trace-token-events-consumer},1651963478,0
{consumergroup=trace-token-events-consumer},1651963483,0
{consumergroup=trace-token-events-consumer},1651963488,0
{consumergroup=trace-token-events-consumer},1651963493,0
{consumergroup=trace-token-events-consumer},1651963498,0
{consumergroup=trace-token-events-consumer},1651963503,0
{consumergroup=trace-token-events-consumer},1651963508,0
{consumergroup=trace-token-events-consumer},1651963513,0
{consumergroup=trace-token-events-consumer},1651963518,0
{consumergroup=trace-token-events-consumer},1651963523,0
{consumergroup=trace-token-events-consumer},1651963528,0
{consumergroup=trace-token-events-consumer},1651963533,0
{consumergroup=trace-token-events-consumer},1651963538,0
{consumergroup=trace-token-events-consumer},1651963543,0
{consumergroup=trace-token-events-consumer},1651963548,0
{consumergroup=trace-token-events-consumer},1651963553,0
{consumergroup=trace-token-events-consumer},1651963558,0
{consumergroup=trace-token-events-consumer},1651963563,0
{consumergroup=trace-token-events-consumer},1651963568,0
{consumergroup=trace-token-events-consumer},1651963573,0
{consumergroup=trace-token-events-consumer},1651963578,0
{consumergroup=trace-token-events-consumer},1651963583,0
{consumergroup=trace-token-events-consumer},1651963588,0
{consumergroup=trace-token-events-consumer},1651963593,0
{consumergroup=trace-token-events-consumer},1651963598,0
{consumergroup=trace-token-events-consumer},1651963603,0
{consumergroup=trace-token-events-consumer},1651963608,0
{consumergroup=trace-token-events-consumer},1651963613,0
{consumergroup=trace-token-events-consumer},1651963618,0
{consumergroup=trace-token-events-consumer},1651963623,0
{consumergroup=trace-token-events-consumer},1651963628,0
{consumergroup=trace-token-events-consumer},1651963633,0
{consumergroup=trace-token-events-consumer},1651963638,0
{consumergroup=trace-token-events-consumer},1651963643,0
{consumergroup=trace-token-events-consumer},1651963648,0
{consumergroup=trace-token-events-consumer},1651963653,0
{consumergroup=trace-token-events-consumer},1651963658,0
{consumergroup=trace-token-events-consumer},1651963663,0
{consumergroup=trace-token-events-consumer},1651963668,0
{consumergroup=trace-token-events-consumer},1651963673,0
{consumergroup=trace-token-events-consumer},1651963678,0
{consumergroup=trace-token-events-consumer},1651963683,0
{consumergroup=trace-token-events-consumer},1651963688,0
{consumergroup=trace-token-events-consumer},1651963693,0
{consumergroup=trace-token-events-consumer},1651963698,0
{consumergroup=trace-token-events-consumer},1651963703,0
{consumergroup=trace-token-events-consumer},1651963708,0
{consumergroup=trace-token-events-consumer},1651963713,0
{consumergroup=trace-token-events-consumer},1651963718,0
{consumergroup=trace-token-events-consumer},1651963723,0
{consumergroup=trace-token-events-consumer},1651963728,0
{consumergroup=trace-token-events-consumer},1651963733,0
{consumergroup=trace-token-events-consumer},1651963738,0
{consumergroup=trace-token-events-consumer},1651963743,0
{consumergroup=trace-token-events-consumer},1651963748,0
{consumergroup=trace-token-events-consumer},1651963753,0
{consumergroup=trace-token-events-consumer},1651963758,0
