labels,timestamp,value
{job=theodolite-stu200776/combined-trace-podmonitor},1652010267,0
{job=theodolite-stu200776/combined-trace-podmonitor},1652010272,0
{job=theodolite-stu200776/combined-trace-podmonitor},1652010277,0
{job=theodolite-stu200776/combined-trace-podmonitor},1652010282,0
{job=theodolite-stu200776/combined-trace-podmonitor},1652010287,0
{job=theodolite-stu200776/combined-trace-podmonitor},1652010292,0
{job=theodolite-stu200776/combined-trace-podmonitor},1652010297,0
{job=theodolite-stu200776/combined-trace-podmonitor},1652010302,0
{job=theodolite-stu200776/combined-trace-podmonitor},1652010307,0
{job=theodolite-stu200776/combined-trace-podmonitor},1652010312,0
{job=theodolite-stu200776/combined-trace-podmonitor},1652010317,0
{job=theodolite-stu200776/combined-trace-podmonitor},1652010322,0
{job=theodolite-stu200776/combined-trace-podmonitor},1652010327,0
{job=theodolite-stu200776/combined-trace-podmonitor},1652010332,0
{job=theodolite-stu200776/combined-trace-podmonitor},1652010337,0
{job=theodolite-stu200776/combined-trace-podmonitor},1652010342,0
{job=theodolite-stu200776/combined-trace-podmonitor},1652010347,0
{job=theodolite-stu200776/combined-trace-podmonitor},1652010352,0
{job=theodolite-stu200776/combined-trace-podmonitor},1652010357,0
{job=theodolite-stu200776/combined-trace-podmonitor},1652010362,0
{job=theodolite-stu200776/combined-trace-podmonitor},1652010367,0
{job=theodolite-stu200776/combined-trace-podmonitor},1652010372,0
{job=theodolite-stu200776/combined-trace-podmonitor},1652010377,0
{job=theodolite-stu200776/combined-trace-podmonitor},1652010382,0
{job=theodolite-stu200776/combined-trace-podmonitor},1652010387,0
{job=theodolite-stu200776/combined-trace-podmonitor},1652010392,0
{job=theodolite-stu200776/combined-trace-podmonitor},1652010397,0
{job=theodolite-stu200776/combined-trace-podmonitor},1652010402,0
{job=theodolite-stu200776/combined-trace-podmonitor},1652010407,0
{job=theodolite-stu200776/combined-trace-podmonitor},1652010412,0
{job=theodolite-stu200776/combined-trace-podmonitor},1652010417,0
{job=theodolite-stu200776/combined-trace-podmonitor},1652010422,0
{job=theodolite-stu200776/combined-trace-podmonitor},1652010427,0
{job=theodolite-stu200776/combined-trace-podmonitor},1652010432,0
{job=theodolite-stu200776/combined-trace-podmonitor},1652010437,0
{job=theodolite-stu200776/combined-trace-podmonitor},1652010442,0
{job=theodolite-stu200776/combined-trace-podmonitor},1652010447,0
{job=theodolite-stu200776/combined-trace-podmonitor},1652010452,0
{job=theodolite-stu200776/combined-trace-podmonitor},1652010457,0
{job=theodolite-stu200776/combined-trace-podmonitor},1652010462,0
{job=theodolite-stu200776/combined-trace-podmonitor},1652010467,0
{job=theodolite-stu200776/combined-trace-podmonitor},1652010472,0
{job=theodolite-stu200776/combined-trace-podmonitor},1652010477,0
{job=theodolite-stu200776/combined-trace-podmonitor},1652010482,0
{job=theodolite-stu200776/combined-trace-podmonitor},1652010487,0
{job=theodolite-stu200776/combined-trace-podmonitor},1652010492,0
{job=theodolite-stu200776/combined-trace-podmonitor},1652010497,0
{job=theodolite-stu200776/combined-trace-podmonitor},1652010502,0
{job=theodolite-stu200776/combined-trace-podmonitor},1652010507,0
{job=theodolite-stu200776/combined-trace-podmonitor},1652010512,0
{job=theodolite-stu200776/combined-trace-podmonitor},1652010517,0
{job=theodolite-stu200776/combined-trace-podmonitor},1652010522,0
{job=theodolite-stu200776/combined-trace-podmonitor},1652010527,0
{job=theodolite-stu200776/combined-trace-podmonitor},1652010532,0
{job=theodolite-stu200776/combined-trace-podmonitor},1652010537,0
{job=theodolite-stu200776/combined-trace-podmonitor},1652010542,0
{job=theodolite-stu200776/combined-trace-podmonitor},1652010547,0
{job=theodolite-stu200776/combined-trace-podmonitor},1652010552,0
{job=theodolite-stu200776/combined-trace-podmonitor},1652010557,0
{job=theodolite-stu200776/combined-trace-podmonitor},1652010562,0
{job=theodolite-stu200776/combined-trace-podmonitor},1652010567,0
{job=theodolite-stu200776/combined-trace-podmonitor},1652010572,0
{job=theodolite-stu200776/combined-trace-podmonitor},1652010577,0
{job=theodolite-stu200776/combined-trace-podmonitor},1652010582,0
{job=theodolite-stu200776/combined-trace-podmonitor},1652010587,0
{job=theodolite-stu200776/combined-trace-podmonitor},1652010592,0
{job=theodolite-stu200776/combined-trace-podmonitor},1652010597,0
{job=theodolite-stu200776/combined-trace-podmonitor},1652010602,0
{job=theodolite-stu200776/combined-trace-podmonitor},1652010607,0
{job=theodolite-stu200776/combined-trace-podmonitor},1652010612,0
{job=theodolite-stu200776/combined-trace-podmonitor},1652010617,0
{job=theodolite-stu200776/combined-trace-podmonitor},1652010622,0
{job=theodolite-stu200776/combined-trace-podmonitor},1652010627,0
{job=theodolite-stu200776/combined-trace-podmonitor},1652010632,0
{job=theodolite-stu200776/combined-trace-podmonitor},1652010637,0
{job=theodolite-stu200776/combined-trace-podmonitor},1652010642,0
{job=theodolite-stu200776/combined-trace-podmonitor},1652010647,0
