labels,timestamp,value
{job=theodolite-stu200776/combined-trace-podmonitor},1651946282,0.9133660233605326
{job=theodolite-stu200776/combined-trace-podmonitor},1651946287,5.696276654606638
{job=theodolite-stu200776/combined-trace-podmonitor},1651946292,12.074679452521934
{job=theodolite-stu200776/combined-trace-podmonitor},1651946297,761.5405314693627
{job=theodolite-stu200776/combined-trace-podmonitor},1651946302,1382.987997503625
{job=theodolite-stu200776/combined-trace-podmonitor},1651946307,1443.6735586433651
{job=theodolite-stu200776/combined-trace-podmonitor},1651946312,1507.7913617821273
{job=theodolite-stu200776/combined-trace-podmonitor},1651946317,1777.4680826165306
{job=theodolite-stu200776/combined-trace-podmonitor},1651946322,1844.6288418705506
{job=theodolite-stu200776/combined-trace-podmonitor},1651946327,1927.3821538251198
{job=theodolite-stu200776/combined-trace-podmonitor},1651946332,2129.7181119790203
{job=theodolite-stu200776/combined-trace-podmonitor},1651946337,1787.450853940981
{job=theodolite-stu200776/combined-trace-podmonitor},1651946342,1599.6393068199923
{job=theodolite-stu200776/combined-trace-podmonitor},1651946347,1237.4181768335247
{job=theodolite-stu200776/combined-trace-podmonitor},1651946352,994.514095534217
{job=theodolite-stu200776/combined-trace-podmonitor},1651946357,578.143730054454
{job=theodolite-stu200776/combined-trace-podmonitor},1651946362,95.9684505166404
{job=theodolite-stu200776/combined-trace-podmonitor},1651946367,92.90839313797923
{job=theodolite-stu200776/combined-trace-podmonitor},1651946372,64.31165165594471
{job=theodolite-stu200776/combined-trace-podmonitor},1651946377,56.350808331848334
{job=theodolite-stu200776/combined-trace-podmonitor},1651946382,63.830610604154614
{job=theodolite-stu200776/combined-trace-podmonitor},1651946387,56.44543014504747
{job=theodolite-stu200776/combined-trace-podmonitor},1651946392,47.115490397279125
{job=theodolite-stu200776/combined-trace-podmonitor},1651946397,35.90698230555287
{job=theodolite-stu200776/combined-trace-podmonitor},1651946402,32.022310501155786
{job=theodolite-stu200776/combined-trace-podmonitor},1651946407,20.520520312316645
{job=theodolite-stu200776/combined-trace-podmonitor},1651946412,7.467150207273382
{job=theodolite-stu200776/combined-trace-podmonitor},1651946417,6.3009449163947195
{job=theodolite-stu200776/combined-trace-podmonitor},1651946422,5.833734858231757
{job=theodolite-stu200776/combined-trace-podmonitor},1651946427,4.122639378303426
{job=theodolite-stu200776/combined-trace-podmonitor},1651946432,3.827426797442421
{job=theodolite-stu200776/combined-trace-podmonitor},1651946437,1.3155039381473006
{job=theodolite-stu200776/combined-trace-podmonitor},1651946442,0
{job=theodolite-stu200776/combined-trace-podmonitor},1651946447,0
{job=theodolite-stu200776/combined-trace-podmonitor},1651946452,0
{job=theodolite-stu200776/combined-trace-podmonitor},1651946457,0
{job=theodolite-stu200776/combined-trace-podmonitor},1651946462,0
{job=theodolite-stu200776/combined-trace-podmonitor},1651946467,0
{job=theodolite-stu200776/combined-trace-podmonitor},1651946472,0
{job=theodolite-stu200776/combined-trace-podmonitor},1651946477,0
{job=theodolite-stu200776/combined-trace-podmonitor},1651946482,0
{job=theodolite-stu200776/combined-trace-podmonitor},1651946487,0
{job=theodolite-stu200776/combined-trace-podmonitor},1651946492,0
{job=theodolite-stu200776/combined-trace-podmonitor},1651946497,0
{job=theodolite-stu200776/combined-trace-podmonitor},1651946502,0
{job=theodolite-stu200776/combined-trace-podmonitor},1651946507,0
{job=theodolite-stu200776/combined-trace-podmonitor},1651946512,0
{job=theodolite-stu200776/combined-trace-podmonitor},1651946517,0
{job=theodolite-stu200776/combined-trace-podmonitor},1651946522,0
{job=theodolite-stu200776/combined-trace-podmonitor},1651946527,0
{job=theodolite-stu200776/combined-trace-podmonitor},1651946532,0
{job=theodolite-stu200776/combined-trace-podmonitor},1651946537,0
{job=theodolite-stu200776/combined-trace-podmonitor},1651946542,0
{job=theodolite-stu200776/combined-trace-podmonitor},1651946547,0
{job=theodolite-stu200776/combined-trace-podmonitor},1651946552,0
{job=theodolite-stu200776/combined-trace-podmonitor},1651946557,0
{job=theodolite-stu200776/combined-trace-podmonitor},1651946562,0
{job=theodolite-stu200776/combined-trace-podmonitor},1651946567,0
{job=theodolite-stu200776/combined-trace-podmonitor},1651946572,0
{job=theodolite-stu200776/combined-trace-podmonitor},1651946577,0
{job=theodolite-stu200776/combined-trace-podmonitor},1651946582,0
{job=theodolite-stu200776/combined-trace-podmonitor},1651946587,0
{job=theodolite-stu200776/combined-trace-podmonitor},1651946592,0
{job=theodolite-stu200776/combined-trace-podmonitor},1651946597,0
{job=theodolite-stu200776/combined-trace-podmonitor},1651946602,0
{job=theodolite-stu200776/combined-trace-podmonitor},1651946607,0
{job=theodolite-stu200776/combined-trace-podmonitor},1651946612,0
{job=theodolite-stu200776/combined-trace-podmonitor},1651946617,0
{job=theodolite-stu200776/combined-trace-podmonitor},1651946622,0
{job=theodolite-stu200776/combined-trace-podmonitor},1651946627,0
{job=theodolite-stu200776/combined-trace-podmonitor},1651946632,0
{job=theodolite-stu200776/combined-trace-podmonitor},1651946637,0
{job=theodolite-stu200776/combined-trace-podmonitor},1651946642,0
{job=theodolite-stu200776/combined-trace-podmonitor},1651946647,0
