labels,timestamp,value
{consumergroup=__strimzi-topic-operator-kstreams},1652014034,11
{consumergroup=__strimzi-topic-operator-kstreams},1652014039,11
{consumergroup=__strimzi-topic-operator-kstreams},1652014044,11
{consumergroup=__strimzi-topic-operator-kstreams},1652014049,0
{consumergroup=__strimzi-topic-operator-kstreams},1652014054,0
{consumergroup=__strimzi-topic-operator-kstreams},1652014059,0
{consumergroup=__strimzi-topic-operator-kstreams},1652014064,0
{consumergroup=__strimzi-topic-operator-kstreams},1652014069,0
{consumergroup=__strimzi-topic-operator-kstreams},1652014074,0
{consumergroup=__strimzi-topic-operator-kstreams},1652014079,0
{consumergroup=__strimzi-topic-operator-kstreams},1652014084,0
{consumergroup=__strimzi-topic-operator-kstreams},1652014089,0
{consumergroup=__strimzi-topic-operator-kstreams},1652014094,0
{consumergroup=__strimzi-topic-operator-kstreams},1652014099,0
{consumergroup=__strimzi-topic-operator-kstreams},1652014104,0
{consumergroup=__strimzi-topic-operator-kstreams},1652014109,0
{consumergroup=__strimzi-topic-operator-kstreams},1652014114,0
{consumergroup=__strimzi-topic-operator-kstreams},1652014119,0
{consumergroup=__strimzi-topic-operator-kstreams},1652014124,1
{consumergroup=__strimzi-topic-operator-kstreams},1652014129,1
{consumergroup=__strimzi-topic-operator-kstreams},1652014134,1
{consumergroup=__strimzi-topic-operator-kstreams},1652014139,0
{consumergroup=__strimzi-topic-operator-kstreams},1652014144,0
{consumergroup=__strimzi-topic-operator-kstreams},1652014149,0
{consumergroup=__strimzi-topic-operator-kstreams},1652014154,0
{consumergroup=__strimzi-topic-operator-kstreams},1652014159,0
{consumergroup=__strimzi-topic-operator-kstreams},1652014164,0
{consumergroup=__strimzi-topic-operator-kstreams},1652014169,0
{consumergroup=__strimzi-topic-operator-kstreams},1652014174,0
{consumergroup=__strimzi-topic-operator-kstreams},1652014179,0
{consumergroup=__strimzi-topic-operator-kstreams},1652014184,0
{consumergroup=__strimzi-topic-operator-kstreams},1652014189,0
{consumergroup=__strimzi-topic-operator-kstreams},1652014194,0
{consumergroup=__strimzi-topic-operator-kstreams},1652014199,0
{consumergroup=__strimzi-topic-operator-kstreams},1652014204,0
{consumergroup=__strimzi-topic-operator-kstreams},1652014209,0
{consumergroup=__strimzi-topic-operator-kstreams},1652014214,0
{consumergroup=__strimzi-topic-operator-kstreams},1652014219,0
{consumergroup=__strimzi-topic-operator-kstreams},1652014224,0
{consumergroup=__strimzi-topic-operator-kstreams},1652014229,0
{consumergroup=__strimzi-topic-operator-kstreams},1652014234,0
{consumergroup=__strimzi-topic-operator-kstreams},1652014239,0
{consumergroup=__strimzi-topic-operator-kstreams},1652014244,0
{consumergroup=__strimzi-topic-operator-kstreams},1652014249,0
{consumergroup=__strimzi-topic-operator-kstreams},1652014254,0
{consumergroup=__strimzi-topic-operator-kstreams},1652014259,0
{consumergroup=__strimzi-topic-operator-kstreams},1652014264,0
{consumergroup=__strimzi-topic-operator-kstreams},1652014269,0
{consumergroup=__strimzi-topic-operator-kstreams},1652014274,0
{consumergroup=__strimzi-topic-operator-kstreams},1652014279,0
{consumergroup=__strimzi-topic-operator-kstreams},1652014284,0
{consumergroup=__strimzi-topic-operator-kstreams},1652014289,0
{consumergroup=__strimzi-topic-operator-kstreams},1652014294,0
{consumergroup=__strimzi-topic-operator-kstreams},1652014299,0
{consumergroup=__strimzi-topic-operator-kstreams},1652014304,0
{consumergroup=__strimzi-topic-operator-kstreams},1652014309,0
{consumergroup=__strimzi-topic-operator-kstreams},1652014314,0
{consumergroup=__strimzi-topic-operator-kstreams},1652014319,0
{consumergroup=__strimzi-topic-operator-kstreams},1652014324,0
{consumergroup=__strimzi-topic-operator-kstreams},1652014329,0
{consumergroup=__strimzi-topic-operator-kstreams},1652014334,0
{consumergroup=__strimzi-topic-operator-kstreams},1652014339,0
{consumergroup=__strimzi-topic-operator-kstreams},1652014344,0
{consumergroup=__strimzi-topic-operator-kstreams},1652014349,0
{consumergroup=__strimzi-topic-operator-kstreams},1652014354,0
{consumergroup=__strimzi-topic-operator-kstreams},1652014359,0
{consumergroup=__strimzi-topic-operator-kstreams},1652014364,0
{consumergroup=__strimzi-topic-operator-kstreams},1652014369,0
{consumergroup=__strimzi-topic-operator-kstreams},1652014374,0
{consumergroup=__strimzi-topic-operator-kstreams},1652014379,0
{consumergroup=__strimzi-topic-operator-kstreams},1652014384,0
{consumergroup=__strimzi-topic-operator-kstreams},1652014389,0
{consumergroup=__strimzi-topic-operator-kstreams},1652014394,0
{consumergroup=__strimzi-topic-operator-kstreams},1652014399,0
{consumergroup=__strimzi-topic-operator-kstreams},1652014404,0
{consumergroup=__strimzi-topic-operator-kstreams},1652014409,0
{consumergroup=__strimzi-topic-operator-kstreams},1652014414,0
{consumergroup=__strimzi-topic-operator-kstreams},1652014419,0
{consumergroup=__strimzi-topic-operator-kstreams},1652014424,0
{consumergroup=__strimzi-topic-operator-kstreams},1652014429,0
{consumergroup=__strimzi-topic-operator-kstreams},1652014434,0
{consumergroup=__strimzi-topic-operator-kstreams},1652014439,0
{consumergroup=__strimzi-topic-operator-kstreams},1652014444,0
{consumergroup=__strimzi-topic-operator-kstreams},1652014449,0
{consumergroup=__strimzi-topic-operator-kstreams},1652014454,0
{consumergroup=__strimzi-topic-operator-kstreams},1652014459,0
{consumergroup=__strimzi-topic-operator-kstreams},1652014464,0
{consumergroup=__strimzi-topic-operator-kstreams},1652014469,0
{consumergroup=__strimzi-topic-operator-kstreams},1652014474,0
{consumergroup=__strimzi-topic-operator-kstreams},1652014479,0
{consumergroup=adapter-service},1652014064,0
{consumergroup=adapter-service},1652014069,0
{consumergroup=adapter-service},1652014074,0
{consumergroup=adapter-service},1652014079,12736
{consumergroup=adapter-service},1652014084,12736
{consumergroup=adapter-service},1652014089,12736
{consumergroup=adapter-service},1652014094,15278
{consumergroup=adapter-service},1652014099,15278
{consumergroup=adapter-service},1652014104,15278
{consumergroup=adapter-service},1652014109,11226
{consumergroup=adapter-service},1652014114,11226
{consumergroup=adapter-service},1652014119,11226
{consumergroup=adapter-service},1652014124,11159
{consumergroup=adapter-service},1652014129,11159
{consumergroup=adapter-service},1652014134,11159
{consumergroup=adapter-service},1652014139,11135
{consumergroup=adapter-service},1652014144,11135
{consumergroup=adapter-service},1652014149,11135
{consumergroup=adapter-service},1652014154,10566
{consumergroup=adapter-service},1652014159,10566
{consumergroup=adapter-service},1652014164,10566
{consumergroup=adapter-service},1652014169,10205
{consumergroup=adapter-service},1652014174,10205
{consumergroup=adapter-service},1652014179,10205
{consumergroup=adapter-service},1652014184,9815
{consumergroup=adapter-service},1652014189,9815
{consumergroup=adapter-service},1652014194,9815
{consumergroup=adapter-service},1652014199,9515
{consumergroup=adapter-service},1652014204,9515
{consumergroup=adapter-service},1652014209,9515
{consumergroup=adapter-service},1652014214,9192
{consumergroup=adapter-service},1652014219,9192
{consumergroup=adapter-service},1652014224,9192
{consumergroup=adapter-service},1652014229,8782
{consumergroup=adapter-service},1652014234,8782
{consumergroup=adapter-service},1652014239,8782
{consumergroup=adapter-service},1652014244,8556
{consumergroup=adapter-service},1652014249,8556
{consumergroup=adapter-service},1652014254,8556
{consumergroup=adapter-service},1652014259,8428
{consumergroup=adapter-service},1652014264,8428
{consumergroup=adapter-service},1652014269,8428
{consumergroup=adapter-service},1652014274,9089
{consumergroup=adapter-service},1652014279,9089
{consumergroup=adapter-service},1652014284,9089
{consumergroup=adapter-service},1652014289,7547
{consumergroup=adapter-service},1652014294,7547
{consumergroup=adapter-service},1652014299,7547
{consumergroup=adapter-service},1652014304,7301
{consumergroup=adapter-service},1652014309,7301
{consumergroup=adapter-service},1652014314,7301
{consumergroup=adapter-service},1652014319,7293
{consumergroup=adapter-service},1652014324,7293
{consumergroup=adapter-service},1652014329,7293
{consumergroup=adapter-service},1652014334,7691
{consumergroup=adapter-service},1652014339,7691
{consumergroup=adapter-service},1652014344,7691
{consumergroup=adapter-service},1652014349,7239
{consumergroup=adapter-service},1652014354,7239
{consumergroup=adapter-service},1652014359,7239
{consumergroup=adapter-service},1652014364,6250
{consumergroup=adapter-service},1652014369,6250
{consumergroup=adapter-service},1652014374,6250
{consumergroup=adapter-service},1652014379,5990
{consumergroup=adapter-service},1652014384,5990
{consumergroup=adapter-service},1652014389,5990
{consumergroup=adapter-service},1652014394,6391
{consumergroup=adapter-service},1652014399,6391
{consumergroup=adapter-service},1652014404,6391
{consumergroup=adapter-service},1652014409,6129
{consumergroup=adapter-service},1652014414,6129
{consumergroup=adapter-service},1652014419,6129
{consumergroup=adapter-service},1652014424,4854
{consumergroup=adapter-service},1652014429,4854
{consumergroup=adapter-service},1652014434,4854
{consumergroup=adapter-service},1652014439,5599
{consumergroup=adapter-service},1652014444,5599
{consumergroup=adapter-service},1652014449,5599
{consumergroup=adapter-service},1652014454,8365
{consumergroup=adapter-service},1652014459,8365
{consumergroup=adapter-service},1652014464,8365
{consumergroup=adapter-service},1652014469,3824
{consumergroup=adapter-service},1652014474,3824
{consumergroup=adapter-service},1652014479,3824
{consumergroup=landscape-service},1652014079,15037
{consumergroup=landscape-service},1652014084,15037
{consumergroup=landscape-service},1652014089,15037
{consumergroup=landscape-service},1652014094,12976
{consumergroup=landscape-service},1652014099,12976
{consumergroup=landscape-service},1652014104,12976
{consumergroup=landscape-service},1652014109,15816
{consumergroup=landscape-service},1652014114,15816
{consumergroup=landscape-service},1652014119,15816
{consumergroup=landscape-service},1652014124,14981
{consumergroup=landscape-service},1652014129,14981
{consumergroup=landscape-service},1652014134,14981
{consumergroup=landscape-service},1652014139,14669
{consumergroup=landscape-service},1652014144,14669
{consumergroup=landscape-service},1652014149,14669
{consumergroup=landscape-service},1652014154,14825
{consumergroup=landscape-service},1652014159,14825
{consumergroup=landscape-service},1652014164,14825
{consumergroup=landscape-service},1652014169,14598
{consumergroup=landscape-service},1652014174,14598
{consumergroup=landscape-service},1652014179,14598
{consumergroup=landscape-service},1652014184,14474
{consumergroup=landscape-service},1652014189,14474
{consumergroup=landscape-service},1652014194,14474
{consumergroup=landscape-service},1652014199,14370
{consumergroup=landscape-service},1652014204,14370
{consumergroup=landscape-service},1652014209,14370
{consumergroup=landscape-service},1652014214,15205
{consumergroup=landscape-service},1652014219,15205
{consumergroup=landscape-service},1652014224,15205
{consumergroup=landscape-service},1652014229,14018
{consumergroup=landscape-service},1652014234,14018
{consumergroup=landscape-service},1652014239,14018
{consumergroup=landscape-service},1652014244,13909
{consumergroup=landscape-service},1652014249,13909
{consumergroup=landscape-service},1652014254,13909
{consumergroup=landscape-service},1652014259,14034
{consumergroup=landscape-service},1652014264,14034
{consumergroup=landscape-service},1652014269,14034
{consumergroup=landscape-service},1652014274,13863
{consumergroup=landscape-service},1652014279,13863
{consumergroup=landscape-service},1652014284,13863
{consumergroup=landscape-service},1652014289,13721
{consumergroup=landscape-service},1652014294,13721
{consumergroup=landscape-service},1652014299,13721
{consumergroup=landscape-service},1652014304,14737
{consumergroup=landscape-service},1652014309,14737
{consumergroup=landscape-service},1652014314,14737
{consumergroup=landscape-service},1652014319,13647
{consumergroup=landscape-service},1652014324,13647
{consumergroup=landscape-service},1652014329,13647
{consumergroup=landscape-service},1652014334,14617
{consumergroup=landscape-service},1652014339,14617
{consumergroup=landscape-service},1652014344,14617
{consumergroup=landscape-service},1652014349,14108
{consumergroup=landscape-service},1652014354,14108
{consumergroup=landscape-service},1652014359,14108
{consumergroup=landscape-service},1652014364,14390
{consumergroup=landscape-service},1652014369,14390
{consumergroup=landscape-service},1652014374,14390
{consumergroup=landscape-service},1652014379,14165
{consumergroup=landscape-service},1652014384,14165
{consumergroup=landscape-service},1652014389,14165
{consumergroup=landscape-service},1652014394,13883
{consumergroup=landscape-service},1652014399,13883
{consumergroup=landscape-service},1652014404,13883
{consumergroup=landscape-service},1652014409,13786
{consumergroup=landscape-service},1652014414,13786
{consumergroup=landscape-service},1652014419,13786
{consumergroup=landscape-service},1652014424,12669
{consumergroup=landscape-service},1652014429,12669
{consumergroup=landscape-service},1652014434,12669
{consumergroup=landscape-service},1652014439,12884
{consumergroup=landscape-service},1652014444,12884
{consumergroup=landscape-service},1652014449,12884
{consumergroup=landscape-service},1652014454,17745
{consumergroup=landscape-service},1652014459,17745
{consumergroup=landscape-service},1652014464,17745
{consumergroup=landscape-service},1652014469,12304
{consumergroup=landscape-service},1652014474,12304
{consumergroup=landscape-service},1652014479,12304
{consumergroup=landscape-token-events-consumer},1652014064,0
{consumergroup=landscape-token-events-consumer},1652014069,0
{consumergroup=landscape-token-events-consumer},1652014074,0
{consumergroup=landscape-token-events-consumer},1652014079,0
{consumergroup=landscape-token-events-consumer},1652014084,0
{consumergroup=landscape-token-events-consumer},1652014089,0
{consumergroup=landscape-token-events-consumer},1652014094,0
{consumergroup=landscape-token-events-consumer},1652014099,0
{consumergroup=landscape-token-events-consumer},1652014104,0
{consumergroup=landscape-token-events-consumer},1652014109,0
{consumergroup=landscape-token-events-consumer},1652014114,0
{consumergroup=landscape-token-events-consumer},1652014119,0
{consumergroup=landscape-token-events-consumer},1652014124,0
{consumergroup=landscape-token-events-consumer},1652014129,0
{consumergroup=landscape-token-events-consumer},1652014134,0
{consumergroup=landscape-token-events-consumer},1652014139,0
{consumergroup=landscape-token-events-consumer},1652014144,0
{consumergroup=landscape-token-events-consumer},1652014149,0
{consumergroup=landscape-token-events-consumer},1652014154,0
{consumergroup=landscape-token-events-consumer},1652014159,0
{consumergroup=landscape-token-events-consumer},1652014164,0
{consumergroup=landscape-token-events-consumer},1652014169,0
{consumergroup=landscape-token-events-consumer},1652014174,0
{consumergroup=landscape-token-events-consumer},1652014179,0
{consumergroup=landscape-token-events-consumer},1652014184,0
{consumergroup=landscape-token-events-consumer},1652014189,0
{consumergroup=landscape-token-events-consumer},1652014194,0
{consumergroup=landscape-token-events-consumer},1652014199,0
{consumergroup=landscape-token-events-consumer},1652014204,0
{consumergroup=landscape-token-events-consumer},1652014209,0
{consumergroup=landscape-token-events-consumer},1652014214,0
{consumergroup=landscape-token-events-consumer},1652014219,0
{consumergroup=landscape-token-events-consumer},1652014224,0
{consumergroup=landscape-token-events-consumer},1652014229,0
{consumergroup=landscape-token-events-consumer},1652014234,0
{consumergroup=landscape-token-events-consumer},1652014239,0
{consumergroup=landscape-token-events-consumer},1652014244,0
{consumergroup=landscape-token-events-consumer},1652014249,0
{consumergroup=landscape-token-events-consumer},1652014254,0
{consumergroup=landscape-token-events-consumer},1652014259,0
{consumergroup=landscape-token-events-consumer},1652014264,0
{consumergroup=landscape-token-events-consumer},1652014269,0
{consumergroup=landscape-token-events-consumer},1652014274,0
{consumergroup=landscape-token-events-consumer},1652014279,0
{consumergroup=landscape-token-events-consumer},1652014284,0
{consumergroup=landscape-token-events-consumer},1652014289,0
{consumergroup=landscape-token-events-consumer},1652014294,0
{consumergroup=landscape-token-events-consumer},1652014299,0
{consumergroup=landscape-token-events-consumer},1652014304,0
{consumergroup=landscape-token-events-consumer},1652014309,0
{consumergroup=landscape-token-events-consumer},1652014314,0
{consumergroup=landscape-token-events-consumer},1652014319,0
{consumergroup=landscape-token-events-consumer},1652014324,0
{consumergroup=landscape-token-events-consumer},1652014329,0
{consumergroup=landscape-token-events-consumer},1652014334,0
{consumergroup=landscape-token-events-consumer},1652014339,0
{consumergroup=landscape-token-events-consumer},1652014344,0
{consumergroup=landscape-token-events-consumer},1652014349,0
{consumergroup=landscape-token-events-consumer},1652014354,0
{consumergroup=landscape-token-events-consumer},1652014359,0
{consumergroup=landscape-token-events-consumer},1652014364,0
{consumergroup=landscape-token-events-consumer},1652014369,0
{consumergroup=landscape-token-events-consumer},1652014374,0
{consumergroup=landscape-token-events-consumer},1652014379,0
{consumergroup=landscape-token-events-consumer},1652014384,0
{consumergroup=landscape-token-events-consumer},1652014389,0
{consumergroup=landscape-token-events-consumer},1652014394,0
{consumergroup=landscape-token-events-consumer},1652014399,0
{consumergroup=landscape-token-events-consumer},1652014404,0
{consumergroup=landscape-token-events-consumer},1652014409,0
{consumergroup=landscape-token-events-consumer},1652014414,0
{consumergroup=landscape-token-events-consumer},1652014419,0
{consumergroup=landscape-token-events-consumer},1652014424,0
{consumergroup=landscape-token-events-consumer},1652014429,0
{consumergroup=landscape-token-events-consumer},1652014434,0
{consumergroup=landscape-token-events-consumer},1652014439,0
{consumergroup=landscape-token-events-consumer},1652014444,0
{consumergroup=landscape-token-events-consumer},1652014449,0
{consumergroup=landscape-token-events-consumer},1652014454,0
{consumergroup=landscape-token-events-consumer},1652014459,0
{consumergroup=landscape-token-events-consumer},1652014464,0
{consumergroup=landscape-token-events-consumer},1652014469,0
{consumergroup=landscape-token-events-consumer},1652014474,0
{consumergroup=landscape-token-events-consumer},1652014479,0
{consumergroup=trace-service},1652014079,5137
{consumergroup=trace-service},1652014084,5137
{consumergroup=trace-service},1652014089,5137
{consumergroup=trace-service},1652014094,87416
{consumergroup=trace-service},1652014099,87416
{consumergroup=trace-service},1652014104,87416
{consumergroup=trace-service},1652014109,9331
{consumergroup=trace-service},1652014114,9331
{consumergroup=trace-service},1652014119,9331
{consumergroup=trace-service},1652014124,55581
{consumergroup=trace-service},1652014129,55581
{consumergroup=trace-service},1652014134,55581
{consumergroup=trace-service},1652014139,22507
{consumergroup=trace-service},1652014144,22507
{consumergroup=trace-service},1652014149,22507
{consumergroup=trace-service},1652014154,57790
{consumergroup=trace-service},1652014159,57790
{consumergroup=trace-service},1652014164,57790
{consumergroup=trace-service},1652014169,25424
{consumergroup=trace-service},1652014174,25424
{consumergroup=trace-service},1652014179,25424
{consumergroup=trace-service},1652014184,55259
{consumergroup=trace-service},1652014189,55259
{consumergroup=trace-service},1652014194,55259
{consumergroup=trace-service},1652014199,27159
{consumergroup=trace-service},1652014204,27159
{consumergroup=trace-service},1652014209,27159
{consumergroup=trace-service},1652014214,66176
{consumergroup=trace-service},1652014219,66176
{consumergroup=trace-service},1652014224,66176
{consumergroup=trace-service},1652014229,23951
{consumergroup=trace-service},1652014234,23951
{consumergroup=trace-service},1652014239,23951
{consumergroup=trace-service},1652014244,52253
{consumergroup=trace-service},1652014249,52253
{consumergroup=trace-service},1652014254,52253
{consumergroup=trace-service},1652014259,19773
{consumergroup=trace-service},1652014264,19773
{consumergroup=trace-service},1652014269,19773
{consumergroup=trace-service},1652014274,56375
{consumergroup=trace-service},1652014279,56375
{consumergroup=trace-service},1652014284,56375
{consumergroup=trace-service},1652014289,105116
{consumergroup=trace-service},1652014294,105116
{consumergroup=trace-service},1652014299,105116
{consumergroup=trace-service},1652014304,102474
{consumergroup=trace-service},1652014309,102474
{consumergroup=trace-service},1652014314,102474
{consumergroup=trace-service},1652014319,27174
{consumergroup=trace-service},1652014324,27174
{consumergroup=trace-service},1652014329,27174
{consumergroup=trace-service},1652014334,55202
{consumergroup=trace-service},1652014339,55202
{consumergroup=trace-service},1652014344,55202
{consumergroup=trace-service},1652014349,23422
{consumergroup=trace-service},1652014354,23422
{consumergroup=trace-service},1652014359,23422
{consumergroup=trace-service},1652014364,54691
{consumergroup=trace-service},1652014369,54691
{consumergroup=trace-service},1652014374,54691
{consumergroup=trace-service},1652014379,22596
{consumergroup=trace-service},1652014384,22596
{consumergroup=trace-service},1652014389,22596
{consumergroup=trace-service},1652014394,58214
{consumergroup=trace-service},1652014399,58214
{consumergroup=trace-service},1652014404,58214
{consumergroup=trace-service},1652014409,20290
{consumergroup=trace-service},1652014414,20290
{consumergroup=trace-service},1652014419,20290
{consumergroup=trace-service},1652014424,57030
{consumergroup=trace-service},1652014429,57030
{consumergroup=trace-service},1652014434,57030
{consumergroup=trace-service},1652014439,113690
{consumergroup=trace-service},1652014444,113690
{consumergroup=trace-service},1652014449,113690
{consumergroup=trace-service},1652014454,60068
{consumergroup=trace-service},1652014459,60068
{consumergroup=trace-service},1652014464,60068
{consumergroup=trace-service},1652014469,23859
{consumergroup=trace-service},1652014474,23859
{consumergroup=trace-service},1652014479,23859
{consumergroup=trace-token-events-consumer},1652014064,0
{consumergroup=trace-token-events-consumer},1652014069,0
{consumergroup=trace-token-events-consumer},1652014074,0
{consumergroup=trace-token-events-consumer},1652014079,0
{consumergroup=trace-token-events-consumer},1652014084,0
{consumergroup=trace-token-events-consumer},1652014089,0
{consumergroup=trace-token-events-consumer},1652014094,0
{consumergroup=trace-token-events-consumer},1652014099,0
{consumergroup=trace-token-events-consumer},1652014104,0
{consumergroup=trace-token-events-consumer},1652014109,0
{consumergroup=trace-token-events-consumer},1652014114,0
{consumergroup=trace-token-events-consumer},1652014119,0
{consumergroup=trace-token-events-consumer},1652014124,0
{consumergroup=trace-token-events-consumer},1652014129,0
{consumergroup=trace-token-events-consumer},1652014134,0
{consumergroup=trace-token-events-consumer},1652014139,0
{consumergroup=trace-token-events-consumer},1652014144,0
{consumergroup=trace-token-events-consumer},1652014149,0
{consumergroup=trace-token-events-consumer},1652014154,0
{consumergroup=trace-token-events-consumer},1652014159,0
{consumergroup=trace-token-events-consumer},1652014164,0
{consumergroup=trace-token-events-consumer},1652014169,0
{consumergroup=trace-token-events-consumer},1652014174,0
{consumergroup=trace-token-events-consumer},1652014179,0
{consumergroup=trace-token-events-consumer},1652014184,0
{consumergroup=trace-token-events-consumer},1652014189,0
{consumergroup=trace-token-events-consumer},1652014194,0
{consumergroup=trace-token-events-consumer},1652014199,0
{consumergroup=trace-token-events-consumer},1652014204,0
{consumergroup=trace-token-events-consumer},1652014209,0
{consumergroup=trace-token-events-consumer},1652014214,0
{consumergroup=trace-token-events-consumer},1652014219,0
{consumergroup=trace-token-events-consumer},1652014224,0
{consumergroup=trace-token-events-consumer},1652014229,0
{consumergroup=trace-token-events-consumer},1652014234,0
{consumergroup=trace-token-events-consumer},1652014239,0
{consumergroup=trace-token-events-consumer},1652014244,0
{consumergroup=trace-token-events-consumer},1652014249,0
{consumergroup=trace-token-events-consumer},1652014254,0
{consumergroup=trace-token-events-consumer},1652014259,0
{consumergroup=trace-token-events-consumer},1652014264,0
{consumergroup=trace-token-events-consumer},1652014269,0
{consumergroup=trace-token-events-consumer},1652014274,0
{consumergroup=trace-token-events-consumer},1652014279,0
{consumergroup=trace-token-events-consumer},1652014284,0
{consumergroup=trace-token-events-consumer},1652014289,0
{consumergroup=trace-token-events-consumer},1652014294,0
{consumergroup=trace-token-events-consumer},1652014299,0
{consumergroup=trace-token-events-consumer},1652014304,0
{consumergroup=trace-token-events-consumer},1652014309,0
{consumergroup=trace-token-events-consumer},1652014314,0
{consumergroup=trace-token-events-consumer},1652014319,0
{consumergroup=trace-token-events-consumer},1652014324,0
{consumergroup=trace-token-events-consumer},1652014329,0
{consumergroup=trace-token-events-consumer},1652014334,0
{consumergroup=trace-token-events-consumer},1652014339,0
{consumergroup=trace-token-events-consumer},1652014344,0
{consumergroup=trace-token-events-consumer},1652014349,0
{consumergroup=trace-token-events-consumer},1652014354,0
{consumergroup=trace-token-events-consumer},1652014359,0
{consumergroup=trace-token-events-consumer},1652014364,0
{consumergroup=trace-token-events-consumer},1652014369,0
{consumergroup=trace-token-events-consumer},1652014374,0
{consumergroup=trace-token-events-consumer},1652014379,0
{consumergroup=trace-token-events-consumer},1652014384,0
{consumergroup=trace-token-events-consumer},1652014389,0
{consumergroup=trace-token-events-consumer},1652014394,0
{consumergroup=trace-token-events-consumer},1652014399,0
{consumergroup=trace-token-events-consumer},1652014404,0
{consumergroup=trace-token-events-consumer},1652014409,0
{consumergroup=trace-token-events-consumer},1652014414,0
{consumergroup=trace-token-events-consumer},1652014419,0
{consumergroup=trace-token-events-consumer},1652014424,0
{consumergroup=trace-token-events-consumer},1652014429,0
{consumergroup=trace-token-events-consumer},1652014434,0
{consumergroup=trace-token-events-consumer},1652014439,0
{consumergroup=trace-token-events-consumer},1652014444,0
{consumergroup=trace-token-events-consumer},1652014449,0
{consumergroup=trace-token-events-consumer},1652014454,0
{consumergroup=trace-token-events-consumer},1652014459,0
{consumergroup=trace-token-events-consumer},1652014464,0
{consumergroup=trace-token-events-consumer},1652014469,0
{consumergroup=trace-token-events-consumer},1652014474,0
{consumergroup=trace-token-events-consumer},1652014479,0
