labels,timestamp,value
{consumergroup=__strimzi-topic-operator-kstreams},1651960518,3
{consumergroup=__strimzi-topic-operator-kstreams},1651960523,3
{consumergroup=__strimzi-topic-operator-kstreams},1651960528,3
{consumergroup=__strimzi-topic-operator-kstreams},1651960533,13
{consumergroup=__strimzi-topic-operator-kstreams},1651960538,13
{consumergroup=__strimzi-topic-operator-kstreams},1651960543,13
{consumergroup=__strimzi-topic-operator-kstreams},1651960548,0
{consumergroup=__strimzi-topic-operator-kstreams},1651960553,0
{consumergroup=__strimzi-topic-operator-kstreams},1651960558,0
{consumergroup=__strimzi-topic-operator-kstreams},1651960563,0
{consumergroup=__strimzi-topic-operator-kstreams},1651960568,0
{consumergroup=__strimzi-topic-operator-kstreams},1651960573,0
{consumergroup=__strimzi-topic-operator-kstreams},1651960578,0
{consumergroup=__strimzi-topic-operator-kstreams},1651960583,0
{consumergroup=__strimzi-topic-operator-kstreams},1651960588,0
{consumergroup=__strimzi-topic-operator-kstreams},1651960593,0
{consumergroup=__strimzi-topic-operator-kstreams},1651960598,0
{consumergroup=__strimzi-topic-operator-kstreams},1651960603,0
{consumergroup=__strimzi-topic-operator-kstreams},1651960608,0
{consumergroup=__strimzi-topic-operator-kstreams},1651960613,0
{consumergroup=__strimzi-topic-operator-kstreams},1651960618,0
{consumergroup=__strimzi-topic-operator-kstreams},1651960623,1
{consumergroup=__strimzi-topic-operator-kstreams},1651960628,1
{consumergroup=__strimzi-topic-operator-kstreams},1651960633,1
{consumergroup=__strimzi-topic-operator-kstreams},1651960638,0
{consumergroup=__strimzi-topic-operator-kstreams},1651960643,0
{consumergroup=__strimzi-topic-operator-kstreams},1651960648,0
{consumergroup=__strimzi-topic-operator-kstreams},1651960653,0
{consumergroup=__strimzi-topic-operator-kstreams},1651960658,0
{consumergroup=__strimzi-topic-operator-kstreams},1651960663,0
{consumergroup=__strimzi-topic-operator-kstreams},1651960668,0
{consumergroup=__strimzi-topic-operator-kstreams},1651960673,0
{consumergroup=__strimzi-topic-operator-kstreams},1651960678,0
{consumergroup=__strimzi-topic-operator-kstreams},1651960683,0
{consumergroup=__strimzi-topic-operator-kstreams},1651960688,0
{consumergroup=__strimzi-topic-operator-kstreams},1651960693,0
{consumergroup=__strimzi-topic-operator-kstreams},1651960698,0
{consumergroup=__strimzi-topic-operator-kstreams},1651960703,0
{consumergroup=__strimzi-topic-operator-kstreams},1651960708,0
{consumergroup=__strimzi-topic-operator-kstreams},1651960713,0
{consumergroup=__strimzi-topic-operator-kstreams},1651960718,0
{consumergroup=__strimzi-topic-operator-kstreams},1651960723,0
{consumergroup=__strimzi-topic-operator-kstreams},1651960728,0
{consumergroup=__strimzi-topic-operator-kstreams},1651960733,0
{consumergroup=__strimzi-topic-operator-kstreams},1651960738,0
{consumergroup=__strimzi-topic-operator-kstreams},1651960743,0
{consumergroup=__strimzi-topic-operator-kstreams},1651960748,0
{consumergroup=__strimzi-topic-operator-kstreams},1651960753,0
{consumergroup=__strimzi-topic-operator-kstreams},1651960758,0
{consumergroup=__strimzi-topic-operator-kstreams},1651960763,0
{consumergroup=__strimzi-topic-operator-kstreams},1651960768,0
{consumergroup=__strimzi-topic-operator-kstreams},1651960773,0
{consumergroup=__strimzi-topic-operator-kstreams},1651960778,0
{consumergroup=__strimzi-topic-operator-kstreams},1651960783,0
{consumergroup=__strimzi-topic-operator-kstreams},1651960788,0
{consumergroup=__strimzi-topic-operator-kstreams},1651960793,0
{consumergroup=__strimzi-topic-operator-kstreams},1651960798,0
{consumergroup=__strimzi-topic-operator-kstreams},1651960803,0
{consumergroup=__strimzi-topic-operator-kstreams},1651960808,0
{consumergroup=__strimzi-topic-operator-kstreams},1651960813,0
{consumergroup=__strimzi-topic-operator-kstreams},1651960818,0
{consumergroup=__strimzi-topic-operator-kstreams},1651960823,0
{consumergroup=__strimzi-topic-operator-kstreams},1651960828,0
{consumergroup=__strimzi-topic-operator-kstreams},1651960833,0
{consumergroup=__strimzi-topic-operator-kstreams},1651960838,0
{consumergroup=__strimzi-topic-operator-kstreams},1651960843,0
{consumergroup=__strimzi-topic-operator-kstreams},1651960848,0
{consumergroup=__strimzi-topic-operator-kstreams},1651960853,0
{consumergroup=__strimzi-topic-operator-kstreams},1651960858,0
{consumergroup=__strimzi-topic-operator-kstreams},1651960863,0
{consumergroup=__strimzi-topic-operator-kstreams},1651960868,0
{consumergroup=__strimzi-topic-operator-kstreams},1651960873,0
{consumergroup=__strimzi-topic-operator-kstreams},1651960878,0
{consumergroup=__strimzi-topic-operator-kstreams},1651960883,0
{consumergroup=__strimzi-topic-operator-kstreams},1651960888,0
{consumergroup=__strimzi-topic-operator-kstreams},1651960893,0
{consumergroup=__strimzi-topic-operator-kstreams},1651960898,0
{consumergroup=__strimzi-topic-operator-kstreams},1651960903,0
{consumergroup=__strimzi-topic-operator-kstreams},1651960908,0
{consumergroup=__strimzi-topic-operator-kstreams},1651960913,0
{consumergroup=__strimzi-topic-operator-kstreams},1651960918,0
{consumergroup=__strimzi-topic-operator-kstreams},1651960923,0
{consumergroup=__strimzi-topic-operator-kstreams},1651960928,0
{consumergroup=__strimzi-topic-operator-kstreams},1651960933,0
{consumergroup=__strimzi-topic-operator-kstreams},1651960938,0
{consumergroup=__strimzi-topic-operator-kstreams},1651960943,0
{consumergroup=__strimzi-topic-operator-kstreams},1651960948,0
{consumergroup=__strimzi-topic-operator-kstreams},1651960953,0
{consumergroup=__strimzi-topic-operator-kstreams},1651960958,0
{consumergroup=__strimzi-topic-operator-kstreams},1651960963,0
{consumergroup=__strimzi-topic-operator-kstreams},1651960968,0
{consumergroup=adapter-service},1651960563,3920
{consumergroup=adapter-service},1651960568,3920
{consumergroup=adapter-service},1651960573,3920
{consumergroup=adapter-service},1651960578,106
{consumergroup=adapter-service},1651960583,106
{consumergroup=adapter-service},1651960588,106
{consumergroup=adapter-service},1651960593,3501
{consumergroup=adapter-service},1651960598,3501
{consumergroup=adapter-service},1651960603,3501
{consumergroup=adapter-service},1651960608,19473
{consumergroup=adapter-service},1651960613,19473
{consumergroup=adapter-service},1651960618,19473
{consumergroup=adapter-service},1651960623,2584
{consumergroup=adapter-service},1651960628,2584
{consumergroup=adapter-service},1651960633,2584
{consumergroup=adapter-service},1651960638,18494
{consumergroup=adapter-service},1651960643,18494
{consumergroup=adapter-service},1651960648,18494
{consumergroup=adapter-service},1651960653,1998
{consumergroup=adapter-service},1651960658,1998
{consumergroup=adapter-service},1651960663,1998
{consumergroup=adapter-service},1651960668,20799
{consumergroup=adapter-service},1651960673,20799
{consumergroup=adapter-service},1651960678,20799
{consumergroup=adapter-service},1651960683,5646
{consumergroup=adapter-service},1651960688,5646
{consumergroup=adapter-service},1651960693,5646
{consumergroup=adapter-service},1651960698,20043
{consumergroup=adapter-service},1651960703,20043
{consumergroup=adapter-service},1651960708,20043
{consumergroup=adapter-service},1651960713,1870
{consumergroup=adapter-service},1651960718,1870
{consumergroup=adapter-service},1651960723,1870
{consumergroup=adapter-service},1651960728,19748
{consumergroup=adapter-service},1651960733,19748
{consumergroup=adapter-service},1651960738,19748
{consumergroup=adapter-service},1651960743,760
{consumergroup=adapter-service},1651960748,760
{consumergroup=adapter-service},1651960753,760
{consumergroup=adapter-service},1651960758,20280
{consumergroup=adapter-service},1651960763,20280
{consumergroup=adapter-service},1651960768,20280
{consumergroup=adapter-service},1651960773,0
{consumergroup=adapter-service},1651960778,0
{consumergroup=adapter-service},1651960783,0
{consumergroup=adapter-service},1651960788,18238
{consumergroup=adapter-service},1651960793,18238
{consumergroup=adapter-service},1651960798,18238
{consumergroup=adapter-service},1651960803,18806
{consumergroup=adapter-service},1651960808,18806
{consumergroup=adapter-service},1651960813,18806
{consumergroup=adapter-service},1651960818,17188
{consumergroup=adapter-service},1651960823,17188
{consumergroup=adapter-service},1651960828,17188
{consumergroup=adapter-service},1651960833,23154
{consumergroup=adapter-service},1651960838,23154
{consumergroup=adapter-service},1651960843,23154
{consumergroup=adapter-service},1651960848,17883
{consumergroup=adapter-service},1651960853,17883
{consumergroup=adapter-service},1651960858,17883
{consumergroup=adapter-service},1651960863,22316
{consumergroup=adapter-service},1651960868,22316
{consumergroup=adapter-service},1651960873,22316
{consumergroup=adapter-service},1651960878,16524
{consumergroup=adapter-service},1651960883,16524
{consumergroup=adapter-service},1651960888,16524
{consumergroup=adapter-service},1651960893,20498
{consumergroup=adapter-service},1651960898,20498
{consumergroup=adapter-service},1651960903,20498
{consumergroup=adapter-service},1651960908,12916
{consumergroup=adapter-service},1651960913,12916
{consumergroup=adapter-service},1651960918,12916
{consumergroup=adapter-service},1651960923,20772
{consumergroup=adapter-service},1651960928,20772
{consumergroup=adapter-service},1651960933,20772
{consumergroup=adapter-service},1651960938,14756
{consumergroup=adapter-service},1651960943,14756
{consumergroup=adapter-service},1651960948,14756
{consumergroup=adapter-service},1651960953,18921
{consumergroup=adapter-service},1651960958,18921
{consumergroup=adapter-service},1651960963,18921
{consumergroup=adapter-service},1651960968,10758
{consumergroup=landscape-service},1651960563,250
{consumergroup=landscape-service},1651960568,250
{consumergroup=landscape-service},1651960573,250
{consumergroup=landscape-service},1651960578,4
{consumergroup=landscape-service},1651960583,4
{consumergroup=landscape-service},1651960588,4
{consumergroup=landscape-service},1651960593,4763
{consumergroup=landscape-service},1651960598,4763
{consumergroup=landscape-service},1651960603,4763
{consumergroup=landscape-service},1651960608,20967
{consumergroup=landscape-service},1651960613,20967
{consumergroup=landscape-service},1651960618,20967
{consumergroup=landscape-service},1651960623,4080
{consumergroup=landscape-service},1651960628,4080
{consumergroup=landscape-service},1651960633,4080
{consumergroup=landscape-service},1651960638,18830
{consumergroup=landscape-service},1651960643,18830
{consumergroup=landscape-service},1651960648,18830
{consumergroup=landscape-service},1651960653,2368
{consumergroup=landscape-service},1651960658,2368
{consumergroup=landscape-service},1651960663,2368
{consumergroup=landscape-service},1651960668,13822
{consumergroup=landscape-service},1651960673,13822
{consumergroup=landscape-service},1651960678,13822
{consumergroup=landscape-service},1651960683,6267
{consumergroup=landscape-service},1651960688,6267
{consumergroup=landscape-service},1651960693,6267
{consumergroup=landscape-service},1651960698,13158
{consumergroup=landscape-service},1651960703,13158
{consumergroup=landscape-service},1651960708,13158
{consumergroup=landscape-service},1651960713,2681
{consumergroup=landscape-service},1651960718,2681
{consumergroup=landscape-service},1651960723,2681
{consumergroup=landscape-service},1651960728,13051
{consumergroup=landscape-service},1651960733,13051
{consumergroup=landscape-service},1651960738,13051
{consumergroup=landscape-service},1651960743,1192
{consumergroup=landscape-service},1651960748,1192
{consumergroup=landscape-service},1651960753,1192
{consumergroup=landscape-service},1651960758,12443
{consumergroup=landscape-service},1651960763,12443
{consumergroup=landscape-service},1651960768,12443
{consumergroup=landscape-service},1651960773,1012
{consumergroup=landscape-service},1651960778,1012
{consumergroup=landscape-service},1651960783,1012
{consumergroup=landscape-service},1651960788,20547
{consumergroup=landscape-service},1651960793,20547
{consumergroup=landscape-service},1651960798,20547
{consumergroup=landscape-service},1651960803,1273
{consumergroup=landscape-service},1651960808,1273
{consumergroup=landscape-service},1651960813,1273
{consumergroup=landscape-service},1651960818,19044
{consumergroup=landscape-service},1651960823,19044
{consumergroup=landscape-service},1651960828,19044
{consumergroup=landscape-service},1651960833,889
{consumergroup=landscape-service},1651960838,889
{consumergroup=landscape-service},1651960843,889
{consumergroup=landscape-service},1651960848,20182
{consumergroup=landscape-service},1651960853,20182
{consumergroup=landscape-service},1651960858,20182
{consumergroup=landscape-service},1651960863,794
{consumergroup=landscape-service},1651960868,794
{consumergroup=landscape-service},1651960873,794
{consumergroup=landscape-service},1651960878,18777
{consumergroup=landscape-service},1651960883,18777
{consumergroup=landscape-service},1651960888,18777
{consumergroup=landscape-service},1651960893,1095
{consumergroup=landscape-service},1651960898,1095
{consumergroup=landscape-service},1651960903,1095
{consumergroup=landscape-service},1651960908,15791
{consumergroup=landscape-service},1651960913,15791
{consumergroup=landscape-service},1651960918,15791
{consumergroup=landscape-service},1651960923,16515
{consumergroup=landscape-service},1651960928,16515
{consumergroup=landscape-service},1651960933,16515
{consumergroup=landscape-service},1651960938,19046
{consumergroup=landscape-service},1651960943,19046
{consumergroup=landscape-service},1651960948,19046
{consumergroup=landscape-service},1651960953,15249
{consumergroup=landscape-service},1651960958,15249
{consumergroup=landscape-service},1651960963,15249
{consumergroup=landscape-service},1651960968,15345
{consumergroup=landscape-token-events-consumer},1651960563,0
{consumergroup=landscape-token-events-consumer},1651960568,0
{consumergroup=landscape-token-events-consumer},1651960573,0
{consumergroup=landscape-token-events-consumer},1651960578,0
{consumergroup=landscape-token-events-consumer},1651960583,0
{consumergroup=landscape-token-events-consumer},1651960588,0
{consumergroup=landscape-token-events-consumer},1651960593,0
{consumergroup=landscape-token-events-consumer},1651960598,0
{consumergroup=landscape-token-events-consumer},1651960603,0
{consumergroup=landscape-token-events-consumer},1651960608,0
{consumergroup=landscape-token-events-consumer},1651960613,0
{consumergroup=landscape-token-events-consumer},1651960618,0
{consumergroup=landscape-token-events-consumer},1651960623,0
{consumergroup=landscape-token-events-consumer},1651960628,0
{consumergroup=landscape-token-events-consumer},1651960633,0
{consumergroup=landscape-token-events-consumer},1651960638,0
{consumergroup=landscape-token-events-consumer},1651960643,0
{consumergroup=landscape-token-events-consumer},1651960648,0
{consumergroup=landscape-token-events-consumer},1651960653,0
{consumergroup=landscape-token-events-consumer},1651960658,0
{consumergroup=landscape-token-events-consumer},1651960663,0
{consumergroup=landscape-token-events-consumer},1651960668,0
{consumergroup=landscape-token-events-consumer},1651960673,0
{consumergroup=landscape-token-events-consumer},1651960678,0
{consumergroup=landscape-token-events-consumer},1651960683,0
{consumergroup=landscape-token-events-consumer},1651960688,0
{consumergroup=landscape-token-events-consumer},1651960693,0
{consumergroup=landscape-token-events-consumer},1651960698,0
{consumergroup=landscape-token-events-consumer},1651960703,0
{consumergroup=landscape-token-events-consumer},1651960708,0
{consumergroup=landscape-token-events-consumer},1651960713,0
{consumergroup=landscape-token-events-consumer},1651960718,0
{consumergroup=landscape-token-events-consumer},1651960723,0
{consumergroup=landscape-token-events-consumer},1651960728,0
{consumergroup=landscape-token-events-consumer},1651960733,0
{consumergroup=landscape-token-events-consumer},1651960738,0
{consumergroup=landscape-token-events-consumer},1651960743,0
{consumergroup=landscape-token-events-consumer},1651960748,0
{consumergroup=landscape-token-events-consumer},1651960753,0
{consumergroup=landscape-token-events-consumer},1651960758,0
{consumergroup=landscape-token-events-consumer},1651960763,0
{consumergroup=landscape-token-events-consumer},1651960768,0
{consumergroup=landscape-token-events-consumer},1651960773,0
{consumergroup=landscape-token-events-consumer},1651960778,0
{consumergroup=landscape-token-events-consumer},1651960783,0
{consumergroup=landscape-token-events-consumer},1651960788,0
{consumergroup=landscape-token-events-consumer},1651960793,0
{consumergroup=landscape-token-events-consumer},1651960798,0
{consumergroup=landscape-token-events-consumer},1651960803,0
{consumergroup=landscape-token-events-consumer},1651960808,0
{consumergroup=landscape-token-events-consumer},1651960813,0
{consumergroup=landscape-token-events-consumer},1651960818,0
{consumergroup=landscape-token-events-consumer},1651960823,0
{consumergroup=landscape-token-events-consumer},1651960828,0
{consumergroup=landscape-token-events-consumer},1651960833,0
{consumergroup=landscape-token-events-consumer},1651960838,0
{consumergroup=landscape-token-events-consumer},1651960843,0
{consumergroup=landscape-token-events-consumer},1651960848,0
{consumergroup=landscape-token-events-consumer},1651960853,0
{consumergroup=landscape-token-events-consumer},1651960858,0
{consumergroup=landscape-token-events-consumer},1651960863,0
{consumergroup=landscape-token-events-consumer},1651960868,0
{consumergroup=landscape-token-events-consumer},1651960873,0
{consumergroup=landscape-token-events-consumer},1651960878,0
{consumergroup=landscape-token-events-consumer},1651960883,0
{consumergroup=landscape-token-events-consumer},1651960888,0
{consumergroup=landscape-token-events-consumer},1651960893,0
{consumergroup=landscape-token-events-consumer},1651960898,0
{consumergroup=landscape-token-events-consumer},1651960903,0
{consumergroup=landscape-token-events-consumer},1651960908,0
{consumergroup=landscape-token-events-consumer},1651960913,0
{consumergroup=landscape-token-events-consumer},1651960918,0
{consumergroup=landscape-token-events-consumer},1651960923,0
{consumergroup=landscape-token-events-consumer},1651960928,0
{consumergroup=landscape-token-events-consumer},1651960933,0
{consumergroup=landscape-token-events-consumer},1651960938,0
{consumergroup=landscape-token-events-consumer},1651960943,0
{consumergroup=landscape-token-events-consumer},1651960948,0
{consumergroup=landscape-token-events-consumer},1651960953,0
{consumergroup=landscape-token-events-consumer},1651960958,0
{consumergroup=landscape-token-events-consumer},1651960963,0
{consumergroup=landscape-token-events-consumer},1651960968,0
{consumergroup=trace-service},1651960563,3503
{consumergroup=trace-service},1651960568,3503
{consumergroup=trace-service},1651960573,3503
{consumergroup=trace-service},1651960578,77830
{consumergroup=trace-service},1651960583,77830
{consumergroup=trace-service},1651960588,77830
{consumergroup=trace-service},1651960593,41144
{consumergroup=trace-service},1651960598,41144
{consumergroup=trace-service},1651960603,41144
{consumergroup=trace-service},1651960608,64931
{consumergroup=trace-service},1651960613,64931
{consumergroup=trace-service},1651960618,64931
{consumergroup=trace-service},1651960623,15300
{consumergroup=trace-service},1651960628,15300
{consumergroup=trace-service},1651960633,15300
{consumergroup=trace-service},1651960638,70504
{consumergroup=trace-service},1651960643,70504
{consumergroup=trace-service},1651960648,70504
{consumergroup=trace-service},1651960653,162542
{consumergroup=trace-service},1651960658,162542
{consumergroup=trace-service},1651960663,162542
{consumergroup=trace-service},1651960668,79690
{consumergroup=trace-service},1651960673,79690
{consumergroup=trace-service},1651960678,79690
{consumergroup=trace-service},1651960683,155099
{consumergroup=trace-service},1651960688,155099
{consumergroup=trace-service},1651960693,155099
{consumergroup=trace-service},1651960698,113924
{consumergroup=trace-service},1651960703,113924
{consumergroup=trace-service},1651960708,113924
{consumergroup=trace-service},1651960713,23574
{consumergroup=trace-service},1651960718,23574
{consumergroup=trace-service},1651960723,23574
{consumergroup=trace-service},1651960728,82802
{consumergroup=trace-service},1651960733,82802
{consumergroup=trace-service},1651960738,82802
{consumergroup=trace-service},1651960743,162380
{consumergroup=trace-service},1651960748,162380
{consumergroup=trace-service},1651960753,162380
{consumergroup=trace-service},1651960758,123649
{consumergroup=trace-service},1651960763,123649
{consumergroup=trace-service},1651960768,123649
{consumergroup=trace-service},1651960773,31558
{consumergroup=trace-service},1651960778,31558
{consumergroup=trace-service},1651960783,31558
{consumergroup=trace-service},1651960788,79853
{consumergroup=trace-service},1651960793,79853
{consumergroup=trace-service},1651960798,79853
{consumergroup=trace-service},1651960803,146248
{consumergroup=trace-service},1651960808,146248
{consumergroup=trace-service},1651960813,146248
{consumergroup=trace-service},1651960818,117925
{consumergroup=trace-service},1651960823,117925
{consumergroup=trace-service},1651960828,117925
{consumergroup=trace-service},1651960833,83108
{consumergroup=trace-service},1651960838,83108
{consumergroup=trace-service},1651960843,83108
{consumergroup=trace-service},1651960848,82000
{consumergroup=trace-service},1651960853,82000
{consumergroup=trace-service},1651960858,82000
{consumergroup=trace-service},1651960863,152760
{consumergroup=trace-service},1651960868,152760
{consumergroup=trace-service},1651960873,152760
{consumergroup=trace-service},1651960878,146918
{consumergroup=trace-service},1651960883,146918
{consumergroup=trace-service},1651960888,146918
{consumergroup=trace-service},1651960893,146385
{consumergroup=trace-service},1651960898,146385
{consumergroup=trace-service},1651960903,146385
{consumergroup=trace-service},1651960908,127593
{consumergroup=trace-service},1651960913,127593
{consumergroup=trace-service},1651960918,127593
{consumergroup=trace-service},1651960923,25078
{consumergroup=trace-service},1651960928,25078
{consumergroup=trace-service},1651960933,25078
{consumergroup=trace-service},1651960938,69909
{consumergroup=trace-service},1651960943,69909
{consumergroup=trace-service},1651960948,69909
{consumergroup=trace-service},1651960953,17374
{consumergroup=trace-service},1651960958,17374
{consumergroup=trace-service},1651960963,17374
{consumergroup=trace-service},1651960968,68131
{consumergroup=trace-token-events-consumer},1651960563,0
{consumergroup=trace-token-events-consumer},1651960568,0
{consumergroup=trace-token-events-consumer},1651960573,0
{consumergroup=trace-token-events-consumer},1651960578,0
{consumergroup=trace-token-events-consumer},1651960583,0
{consumergroup=trace-token-events-consumer},1651960588,0
{consumergroup=trace-token-events-consumer},1651960593,0
{consumergroup=trace-token-events-consumer},1651960598,0
{consumergroup=trace-token-events-consumer},1651960603,0
{consumergroup=trace-token-events-consumer},1651960608,0
{consumergroup=trace-token-events-consumer},1651960613,0
{consumergroup=trace-token-events-consumer},1651960618,0
{consumergroup=trace-token-events-consumer},1651960623,0
{consumergroup=trace-token-events-consumer},1651960628,0
{consumergroup=trace-token-events-consumer},1651960633,0
{consumergroup=trace-token-events-consumer},1651960638,0
{consumergroup=trace-token-events-consumer},1651960643,0
{consumergroup=trace-token-events-consumer},1651960648,0
{consumergroup=trace-token-events-consumer},1651960653,0
{consumergroup=trace-token-events-consumer},1651960658,0
{consumergroup=trace-token-events-consumer},1651960663,0
{consumergroup=trace-token-events-consumer},1651960668,0
{consumergroup=trace-token-events-consumer},1651960673,0
{consumergroup=trace-token-events-consumer},1651960678,0
{consumergroup=trace-token-events-consumer},1651960683,0
{consumergroup=trace-token-events-consumer},1651960688,0
{consumergroup=trace-token-events-consumer},1651960693,0
{consumergroup=trace-token-events-consumer},1651960698,0
{consumergroup=trace-token-events-consumer},1651960703,0
{consumergroup=trace-token-events-consumer},1651960708,0
{consumergroup=trace-token-events-consumer},1651960713,0
{consumergroup=trace-token-events-consumer},1651960718,0
{consumergroup=trace-token-events-consumer},1651960723,0
{consumergroup=trace-token-events-consumer},1651960728,0
{consumergroup=trace-token-events-consumer},1651960733,0
{consumergroup=trace-token-events-consumer},1651960738,0
{consumergroup=trace-token-events-consumer},1651960743,0
{consumergroup=trace-token-events-consumer},1651960748,0
{consumergroup=trace-token-events-consumer},1651960753,0
{consumergroup=trace-token-events-consumer},1651960758,0
{consumergroup=trace-token-events-consumer},1651960763,0
{consumergroup=trace-token-events-consumer},1651960768,0
{consumergroup=trace-token-events-consumer},1651960773,0
{consumergroup=trace-token-events-consumer},1651960778,0
{consumergroup=trace-token-events-consumer},1651960783,0
{consumergroup=trace-token-events-consumer},1651960788,0
{consumergroup=trace-token-events-consumer},1651960793,0
{consumergroup=trace-token-events-consumer},1651960798,0
{consumergroup=trace-token-events-consumer},1651960803,0
{consumergroup=trace-token-events-consumer},1651960808,0
{consumergroup=trace-token-events-consumer},1651960813,0
{consumergroup=trace-token-events-consumer},1651960818,0
{consumergroup=trace-token-events-consumer},1651960823,0
{consumergroup=trace-token-events-consumer},1651960828,0
{consumergroup=trace-token-events-consumer},1651960833,0
{consumergroup=trace-token-events-consumer},1651960838,0
{consumergroup=trace-token-events-consumer},1651960843,0
{consumergroup=trace-token-events-consumer},1651960848,0
{consumergroup=trace-token-events-consumer},1651960853,0
{consumergroup=trace-token-events-consumer},1651960858,0
{consumergroup=trace-token-events-consumer},1651960863,0
{consumergroup=trace-token-events-consumer},1651960868,0
{consumergroup=trace-token-events-consumer},1651960873,0
{consumergroup=trace-token-events-consumer},1651960878,0
{consumergroup=trace-token-events-consumer},1651960883,0
{consumergroup=trace-token-events-consumer},1651960888,0
{consumergroup=trace-token-events-consumer},1651960893,0
{consumergroup=trace-token-events-consumer},1651960898,0
{consumergroup=trace-token-events-consumer},1651960903,0
{consumergroup=trace-token-events-consumer},1651960908,0
{consumergroup=trace-token-events-consumer},1651960913,0
{consumergroup=trace-token-events-consumer},1651960918,0
{consumergroup=trace-token-events-consumer},1651960923,0
{consumergroup=trace-token-events-consumer},1651960928,0
{consumergroup=trace-token-events-consumer},1651960933,0
{consumergroup=trace-token-events-consumer},1651960938,0
{consumergroup=trace-token-events-consumer},1651960943,0
{consumergroup=trace-token-events-consumer},1651960948,0
{consumergroup=trace-token-events-consumer},1651960953,0
{consumergroup=trace-token-events-consumer},1651960958,0
{consumergroup=trace-token-events-consumer},1651960963,0
{consumergroup=trace-token-events-consumer},1651960968,0
