labels,timestamp,value
{consumergroup=__strimzi-topic-operator-kstreams},1651945084,3
{consumergroup=__strimzi-topic-operator-kstreams},1651945089,3
{consumergroup=__strimzi-topic-operator-kstreams},1651945094,3
{consumergroup=__strimzi-topic-operator-kstreams},1651945099,11
{consumergroup=__strimzi-topic-operator-kstreams},1651945104,11
{consumergroup=__strimzi-topic-operator-kstreams},1651945109,11
{consumergroup=__strimzi-topic-operator-kstreams},1651945114,0
{consumergroup=__strimzi-topic-operator-kstreams},1651945119,0
{consumergroup=__strimzi-topic-operator-kstreams},1651945124,0
{consumergroup=__strimzi-topic-operator-kstreams},1651945129,3
{consumergroup=__strimzi-topic-operator-kstreams},1651945134,3
{consumergroup=__strimzi-topic-operator-kstreams},1651945139,3
{consumergroup=__strimzi-topic-operator-kstreams},1651945144,0
{consumergroup=__strimzi-topic-operator-kstreams},1651945149,0
{consumergroup=__strimzi-topic-operator-kstreams},1651945154,0
{consumergroup=__strimzi-topic-operator-kstreams},1651945159,0
{consumergroup=__strimzi-topic-operator-kstreams},1651945164,0
{consumergroup=__strimzi-topic-operator-kstreams},1651945169,0
{consumergroup=__strimzi-topic-operator-kstreams},1651945174,0
{consumergroup=__strimzi-topic-operator-kstreams},1651945179,0
{consumergroup=__strimzi-topic-operator-kstreams},1651945184,0
{consumergroup=__strimzi-topic-operator-kstreams},1651945189,0
{consumergroup=__strimzi-topic-operator-kstreams},1651945194,0
{consumergroup=__strimzi-topic-operator-kstreams},1651945199,0
{consumergroup=__strimzi-topic-operator-kstreams},1651945204,0
{consumergroup=__strimzi-topic-operator-kstreams},1651945209,0
{consumergroup=__strimzi-topic-operator-kstreams},1651945214,0
{consumergroup=__strimzi-topic-operator-kstreams},1651945219,0
{consumergroup=__strimzi-topic-operator-kstreams},1651945224,0
{consumergroup=__strimzi-topic-operator-kstreams},1651945229,0
{consumergroup=__strimzi-topic-operator-kstreams},1651945234,0
{consumergroup=__strimzi-topic-operator-kstreams},1651945239,0
{consumergroup=__strimzi-topic-operator-kstreams},1651945244,0
{consumergroup=__strimzi-topic-operator-kstreams},1651945249,0
{consumergroup=__strimzi-topic-operator-kstreams},1651945254,0
{consumergroup=__strimzi-topic-operator-kstreams},1651945259,0
{consumergroup=__strimzi-topic-operator-kstreams},1651945264,0
{consumergroup=__strimzi-topic-operator-kstreams},1651945269,0
{consumergroup=__strimzi-topic-operator-kstreams},1651945274,0
{consumergroup=__strimzi-topic-operator-kstreams},1651945279,0
{consumergroup=__strimzi-topic-operator-kstreams},1651945284,0
{consumergroup=__strimzi-topic-operator-kstreams},1651945289,0
{consumergroup=__strimzi-topic-operator-kstreams},1651945294,0
{consumergroup=__strimzi-topic-operator-kstreams},1651945299,0
{consumergroup=__strimzi-topic-operator-kstreams},1651945304,0
{consumergroup=__strimzi-topic-operator-kstreams},1651945309,0
{consumergroup=__strimzi-topic-operator-kstreams},1651945314,0
{consumergroup=__strimzi-topic-operator-kstreams},1651945319,0
{consumergroup=__strimzi-topic-operator-kstreams},1651945324,0
{consumergroup=__strimzi-topic-operator-kstreams},1651945329,0
{consumergroup=__strimzi-topic-operator-kstreams},1651945334,0
{consumergroup=__strimzi-topic-operator-kstreams},1651945339,0
{consumergroup=__strimzi-topic-operator-kstreams},1651945344,0
{consumergroup=__strimzi-topic-operator-kstreams},1651945349,0
{consumergroup=__strimzi-topic-operator-kstreams},1651945354,0
{consumergroup=__strimzi-topic-operator-kstreams},1651945359,0
{consumergroup=__strimzi-topic-operator-kstreams},1651945364,0
{consumergroup=__strimzi-topic-operator-kstreams},1651945369,0
{consumergroup=__strimzi-topic-operator-kstreams},1651945374,0
{consumergroup=__strimzi-topic-operator-kstreams},1651945379,0
{consumergroup=__strimzi-topic-operator-kstreams},1651945384,0
{consumergroup=__strimzi-topic-operator-kstreams},1651945389,0
{consumergroup=__strimzi-topic-operator-kstreams},1651945394,0
{consumergroup=__strimzi-topic-operator-kstreams},1651945399,0
{consumergroup=__strimzi-topic-operator-kstreams},1651945404,0
{consumergroup=__strimzi-topic-operator-kstreams},1651945409,0
{consumergroup=__strimzi-topic-operator-kstreams},1651945414,0
{consumergroup=__strimzi-topic-operator-kstreams},1651945419,0
{consumergroup=__strimzi-topic-operator-kstreams},1651945424,0
{consumergroup=__strimzi-topic-operator-kstreams},1651945429,0
{consumergroup=__strimzi-topic-operator-kstreams},1651945434,0
{consumergroup=__strimzi-topic-operator-kstreams},1651945439,0
{consumergroup=__strimzi-topic-operator-kstreams},1651945444,0
{consumergroup=__strimzi-topic-operator-kstreams},1651945449,0
{consumergroup=__strimzi-topic-operator-kstreams},1651945454,0
{consumergroup=__strimzi-topic-operator-kstreams},1651945459,0
{consumergroup=__strimzi-topic-operator-kstreams},1651945464,0
{consumergroup=__strimzi-topic-operator-kstreams},1651945469,0
{consumergroup=__strimzi-topic-operator-kstreams},1651945474,0
{consumergroup=__strimzi-topic-operator-kstreams},1651945479,0
{consumergroup=__strimzi-topic-operator-kstreams},1651945484,0
{consumergroup=__strimzi-topic-operator-kstreams},1651945489,0
{consumergroup=__strimzi-topic-operator-kstreams},1651945494,0
{consumergroup=__strimzi-topic-operator-kstreams},1651945499,0
{consumergroup=__strimzi-topic-operator-kstreams},1651945504,0
{consumergroup=__strimzi-topic-operator-kstreams},1651945509,0
{consumergroup=__strimzi-topic-operator-kstreams},1651945514,0
{consumergroup=__strimzi-topic-operator-kstreams},1651945519,0
{consumergroup=__strimzi-topic-operator-kstreams},1651945524,0
{consumergroup=__strimzi-topic-operator-kstreams},1651945529,0
{consumergroup=__strimzi-topic-operator-kstreams},1651945534,0
{consumergroup=__strimzi-topic-operator-kstreams},1651945539,0
{consumergroup=adapter-service},1651945129,0
{consumergroup=adapter-service},1651945134,0
{consumergroup=adapter-service},1651945139,0
{consumergroup=adapter-service},1651945144,21996
{consumergroup=adapter-service},1651945149,21996
{consumergroup=adapter-service},1651945154,21996
{consumergroup=adapter-service},1651945159,5167
{consumergroup=adapter-service},1651945164,5167
{consumergroup=adapter-service},1651945169,5167
{consumergroup=adapter-service},1651945174,6555
{consumergroup=adapter-service},1651945179,6555
{consumergroup=adapter-service},1651945184,6555
{consumergroup=adapter-service},1651945189,7347
{consumergroup=adapter-service},1651945194,7347
{consumergroup=adapter-service},1651945199,7347
{consumergroup=adapter-service},1651945204,3320
{consumergroup=adapter-service},1651945209,3320
{consumergroup=adapter-service},1651945214,3320
{consumergroup=adapter-service},1651945219,13946
{consumergroup=adapter-service},1651945224,13946
{consumergroup=adapter-service},1651945229,13946
{consumergroup=adapter-service},1651945234,4769
{consumergroup=adapter-service},1651945239,4769
{consumergroup=adapter-service},1651945244,4769
{consumergroup=adapter-service},1651945249,12976
{consumergroup=adapter-service},1651945254,12976
{consumergroup=adapter-service},1651945259,12976
{consumergroup=adapter-service},1651945264,5890
{consumergroup=adapter-service},1651945269,5890
{consumergroup=adapter-service},1651945274,5890
{consumergroup=adapter-service},1651945279,11108
{consumergroup=adapter-service},1651945284,11108
{consumergroup=adapter-service},1651945289,11108
{consumergroup=adapter-service},1651945294,8441
{consumergroup=adapter-service},1651945299,8441
{consumergroup=adapter-service},1651945304,8441
{consumergroup=adapter-service},1651945309,10482
{consumergroup=adapter-service},1651945314,10482
{consumergroup=adapter-service},1651945319,10482
{consumergroup=adapter-service},1651945324,10510
{consumergroup=adapter-service},1651945329,10510
{consumergroup=adapter-service},1651945334,10510
{consumergroup=adapter-service},1651945339,12641
{consumergroup=adapter-service},1651945344,12641
{consumergroup=adapter-service},1651945349,12641
{consumergroup=adapter-service},1651945354,13899
{consumergroup=adapter-service},1651945359,13899
{consumergroup=adapter-service},1651945364,13899
{consumergroup=adapter-service},1651945369,11852
{consumergroup=adapter-service},1651945374,11852
{consumergroup=adapter-service},1651945379,11852
{consumergroup=adapter-service},1651945384,11858
{consumergroup=adapter-service},1651945389,11858
{consumergroup=adapter-service},1651945394,11858
{consumergroup=adapter-service},1651945399,11679
{consumergroup=adapter-service},1651945404,11679
{consumergroup=adapter-service},1651945409,11679
{consumergroup=adapter-service},1651945414,11900
{consumergroup=adapter-service},1651945419,11900
{consumergroup=adapter-service},1651945424,11900
{consumergroup=adapter-service},1651945429,9718
{consumergroup=adapter-service},1651945434,9718
{consumergroup=adapter-service},1651945439,9718
{consumergroup=adapter-service},1651945444,13257
{consumergroup=adapter-service},1651945449,13257
{consumergroup=adapter-service},1651945454,13257
{consumergroup=adapter-service},1651945459,9074
{consumergroup=adapter-service},1651945464,9074
{consumergroup=adapter-service},1651945469,9074
{consumergroup=adapter-service},1651945474,13680
{consumergroup=adapter-service},1651945479,13680
{consumergroup=adapter-service},1651945484,13680
{consumergroup=adapter-service},1651945489,9249
{consumergroup=adapter-service},1651945494,9249
{consumergroup=adapter-service},1651945499,9249
{consumergroup=adapter-service},1651945504,10648
{consumergroup=adapter-service},1651945509,10648
{consumergroup=adapter-service},1651945514,10648
{consumergroup=adapter-service},1651945519,9500
{consumergroup=adapter-service},1651945524,9500
{consumergroup=adapter-service},1651945529,9500
{consumergroup=adapter-service},1651945534,9924
{consumergroup=adapter-service},1651945539,9924
{consumergroup=landscape-service},1651945144,17484
{consumergroup=landscape-service},1651945149,17484
{consumergroup=landscape-service},1651945154,17484
{consumergroup=landscape-service},1651945159,6758
{consumergroup=landscape-service},1651945164,6758
{consumergroup=landscape-service},1651945169,6758
{consumergroup=landscape-service},1651945174,10995
{consumergroup=landscape-service},1651945179,10995
{consumergroup=landscape-service},1651945184,10995
{consumergroup=landscape-service},1651945189,5572
{consumergroup=landscape-service},1651945194,5572
{consumergroup=landscape-service},1651945199,5572
{consumergroup=landscape-service},1651945204,9371
{consumergroup=landscape-service},1651945209,9371
{consumergroup=landscape-service},1651945214,9371
{consumergroup=landscape-service},1651945219,5263
{consumergroup=landscape-service},1651945224,5263
{consumergroup=landscape-service},1651945229,5263
{consumergroup=landscape-service},1651945234,8944
{consumergroup=landscape-service},1651945239,8944
{consumergroup=landscape-service},1651945244,8944
{consumergroup=landscape-service},1651945249,4914
{consumergroup=landscape-service},1651945254,4914
{consumergroup=landscape-service},1651945259,4914
{consumergroup=landscape-service},1651945264,9789
{consumergroup=landscape-service},1651945269,9789
{consumergroup=landscape-service},1651945274,9789
{consumergroup=landscape-service},1651945279,4810
{consumergroup=landscape-service},1651945284,4810
{consumergroup=landscape-service},1651945289,4810
{consumergroup=landscape-service},1651945294,9562
{consumergroup=landscape-service},1651945299,9562
{consumergroup=landscape-service},1651945304,9562
{consumergroup=landscape-service},1651945309,4716
{consumergroup=landscape-service},1651945314,4716
{consumergroup=landscape-service},1651945319,4716
{consumergroup=landscape-service},1651945324,9204
{consumergroup=landscape-service},1651945329,9204
{consumergroup=landscape-service},1651945334,9204
{consumergroup=landscape-service},1651945339,5416
{consumergroup=landscape-service},1651945344,5416
{consumergroup=landscape-service},1651945349,5416
{consumergroup=landscape-service},1651945354,8176
{consumergroup=landscape-service},1651945359,8176
{consumergroup=landscape-service},1651945364,8176
{consumergroup=landscape-service},1651945369,5132
{consumergroup=landscape-service},1651945374,5132
{consumergroup=landscape-service},1651945379,5132
{consumergroup=landscape-service},1651945384,8045
{consumergroup=landscape-service},1651945389,8045
{consumergroup=landscape-service},1651945394,8045
{consumergroup=landscape-service},1651945399,3971
{consumergroup=landscape-service},1651945404,3971
{consumergroup=landscape-service},1651945409,3971
{consumergroup=landscape-service},1651945414,7854
{consumergroup=landscape-service},1651945419,7854
{consumergroup=landscape-service},1651945424,7854
{consumergroup=landscape-service},1651945429,4718
{consumergroup=landscape-service},1651945434,4718
{consumergroup=landscape-service},1651945439,4718
{consumergroup=landscape-service},1651945444,7740
{consumergroup=landscape-service},1651945449,7740
{consumergroup=landscape-service},1651945454,7740
{consumergroup=landscape-service},1651945459,4532
{consumergroup=landscape-service},1651945464,4532
{consumergroup=landscape-service},1651945469,4532
{consumergroup=landscape-service},1651945474,7518
{consumergroup=landscape-service},1651945479,7518
{consumergroup=landscape-service},1651945484,7518
{consumergroup=landscape-service},1651945489,3290
{consumergroup=landscape-service},1651945494,3290
{consumergroup=landscape-service},1651945499,3290
{consumergroup=landscape-service},1651945504,7230
{consumergroup=landscape-service},1651945509,7230
{consumergroup=landscape-service},1651945514,7230
{consumergroup=landscape-service},1651945519,4101
{consumergroup=landscape-service},1651945524,4101
{consumergroup=landscape-service},1651945529,4101
{consumergroup=landscape-service},1651945534,7070
{consumergroup=landscape-service},1651945539,7070
{consumergroup=trace-service},1651945144,71719
{consumergroup=trace-service},1651945149,71719
{consumergroup=trace-service},1651945154,71719
{consumergroup=trace-service},1651945159,127128
{consumergroup=trace-service},1651945164,127128
{consumergroup=trace-service},1651945169,127128
{consumergroup=trace-service},1651945174,159123
{consumergroup=trace-service},1651945179,159123
{consumergroup=trace-service},1651945184,159123
{consumergroup=trace-service},1651945189,189912
{consumergroup=trace-service},1651945194,189912
{consumergroup=trace-service},1651945199,189912
{consumergroup=trace-service},1651945204,154260
{consumergroup=trace-service},1651945209,154260
{consumergroup=trace-service},1651945214,154260
{consumergroup=trace-service},1651945219,99172
{consumergroup=trace-service},1651945224,99172
{consumergroup=trace-service},1651945229,99172
{consumergroup=trace-service},1651945234,43397
{consumergroup=trace-service},1651945239,43397
{consumergroup=trace-service},1651945244,43397
{consumergroup=trace-service},1651945249,68687
{consumergroup=trace-service},1651945254,68687
{consumergroup=trace-service},1651945259,68687
{consumergroup=trace-service},1651945264,49688
{consumergroup=trace-service},1651945269,49688
{consumergroup=trace-service},1651945274,49688
{consumergroup=trace-service},1651945279,67725
{consumergroup=trace-service},1651945284,67725
{consumergroup=trace-service},1651945289,67725
{consumergroup=trace-service},1651945294,42695
{consumergroup=trace-service},1651945299,42695
{consumergroup=trace-service},1651945304,42695
{consumergroup=trace-service},1651945309,87507
{consumergroup=trace-service},1651945314,87507
{consumergroup=trace-service},1651945319,87507
{consumergroup=trace-service},1651945324,37170
{consumergroup=trace-service},1651945329,37170
{consumergroup=trace-service},1651945334,37170
{consumergroup=trace-service},1651945339,88501
{consumergroup=trace-service},1651945344,88501
{consumergroup=trace-service},1651945349,88501
{consumergroup=trace-service},1651945354,37464
{consumergroup=trace-service},1651945359,37464
{consumergroup=trace-service},1651945364,37464
{consumergroup=trace-service},1651945369,64586
{consumergroup=trace-service},1651945374,64586
{consumergroup=trace-service},1651945379,64586
{consumergroup=trace-service},1651945384,143009
{consumergroup=trace-service},1651945389,143009
{consumergroup=trace-service},1651945394,143009
{consumergroup=trace-service},1651945399,89352
{consumergroup=trace-service},1651945404,89352
{consumergroup=trace-service},1651945409,89352
{consumergroup=trace-service},1651945414,37748
{consumergroup=trace-service},1651945419,37748
{consumergroup=trace-service},1651945424,37748
{consumergroup=trace-service},1651945429,83837
{consumergroup=trace-service},1651945434,83837
{consumergroup=trace-service},1651945439,83837
{consumergroup=trace-service},1651945444,35057
{consumergroup=trace-service},1651945449,35057
{consumergroup=trace-service},1651945454,35057
{consumergroup=trace-service},1651945459,57923
{consumergroup=trace-service},1651945464,57923
{consumergroup=trace-service},1651945469,57923
{consumergroup=trace-service},1651945474,39372
{consumergroup=trace-service},1651945479,39372
{consumergroup=trace-service},1651945484,39372
{consumergroup=trace-service},1651945489,75479
{consumergroup=trace-service},1651945494,75479
{consumergroup=trace-service},1651945499,75479
{consumergroup=trace-service},1651945504,38159
{consumergroup=trace-service},1651945509,38159
{consumergroup=trace-service},1651945514,38159
{consumergroup=trace-service},1651945519,57361
{consumergroup=trace-service},1651945524,57361
{consumergroup=trace-service},1651945529,57361
{consumergroup=trace-service},1651945534,41845
{consumergroup=trace-service},1651945539,41845
