labels,timestamp,value
{consumergroup=__strimzi-topic-operator-kstreams},1651999159,2
{consumergroup=__strimzi-topic-operator-kstreams},1651999164,2
{consumergroup=__strimzi-topic-operator-kstreams},1651999169,2
{consumergroup=__strimzi-topic-operator-kstreams},1651999174,8
{consumergroup=__strimzi-topic-operator-kstreams},1651999179,8
{consumergroup=__strimzi-topic-operator-kstreams},1651999184,8
{consumergroup=__strimzi-topic-operator-kstreams},1651999189,11
{consumergroup=__strimzi-topic-operator-kstreams},1651999194,11
{consumergroup=__strimzi-topic-operator-kstreams},1651999199,11
{consumergroup=__strimzi-topic-operator-kstreams},1651999204,0
{consumergroup=__strimzi-topic-operator-kstreams},1651999209,0
{consumergroup=__strimzi-topic-operator-kstreams},1651999214,0
{consumergroup=__strimzi-topic-operator-kstreams},1651999219,0
{consumergroup=__strimzi-topic-operator-kstreams},1651999224,0
{consumergroup=__strimzi-topic-operator-kstreams},1651999229,0
{consumergroup=__strimzi-topic-operator-kstreams},1651999234,0
{consumergroup=__strimzi-topic-operator-kstreams},1651999239,0
{consumergroup=__strimzi-topic-operator-kstreams},1651999244,0
{consumergroup=__strimzi-topic-operator-kstreams},1651999249,0
{consumergroup=__strimzi-topic-operator-kstreams},1651999254,0
{consumergroup=__strimzi-topic-operator-kstreams},1651999259,0
{consumergroup=__strimzi-topic-operator-kstreams},1651999264,0
{consumergroup=__strimzi-topic-operator-kstreams},1651999269,0
{consumergroup=__strimzi-topic-operator-kstreams},1651999274,0
{consumergroup=__strimzi-topic-operator-kstreams},1651999279,0
{consumergroup=__strimzi-topic-operator-kstreams},1651999284,0
{consumergroup=__strimzi-topic-operator-kstreams},1651999289,0
{consumergroup=__strimzi-topic-operator-kstreams},1651999294,0
{consumergroup=__strimzi-topic-operator-kstreams},1651999299,0
{consumergroup=__strimzi-topic-operator-kstreams},1651999304,0
{consumergroup=__strimzi-topic-operator-kstreams},1651999309,0
{consumergroup=__strimzi-topic-operator-kstreams},1651999314,0
{consumergroup=__strimzi-topic-operator-kstreams},1651999319,0
{consumergroup=__strimzi-topic-operator-kstreams},1651999324,0
{consumergroup=__strimzi-topic-operator-kstreams},1651999329,0
{consumergroup=__strimzi-topic-operator-kstreams},1651999334,0
{consumergroup=__strimzi-topic-operator-kstreams},1651999339,0
{consumergroup=__strimzi-topic-operator-kstreams},1651999344,0
{consumergroup=__strimzi-topic-operator-kstreams},1651999349,0
{consumergroup=__strimzi-topic-operator-kstreams},1651999354,0
{consumergroup=__strimzi-topic-operator-kstreams},1651999359,0
{consumergroup=__strimzi-topic-operator-kstreams},1651999364,0
{consumergroup=__strimzi-topic-operator-kstreams},1651999369,0
{consumergroup=__strimzi-topic-operator-kstreams},1651999374,0
{consumergroup=__strimzi-topic-operator-kstreams},1651999379,0
{consumergroup=__strimzi-topic-operator-kstreams},1651999384,0
{consumergroup=__strimzi-topic-operator-kstreams},1651999389,0
{consumergroup=__strimzi-topic-operator-kstreams},1651999394,0
{consumergroup=__strimzi-topic-operator-kstreams},1651999399,0
{consumergroup=__strimzi-topic-operator-kstreams},1651999404,0
{consumergroup=__strimzi-topic-operator-kstreams},1651999409,0
{consumergroup=__strimzi-topic-operator-kstreams},1651999414,0
{consumergroup=__strimzi-topic-operator-kstreams},1651999419,0
{consumergroup=__strimzi-topic-operator-kstreams},1651999424,0
{consumergroup=__strimzi-topic-operator-kstreams},1651999429,0
{consumergroup=__strimzi-topic-operator-kstreams},1651999434,0
{consumergroup=__strimzi-topic-operator-kstreams},1651999439,0
{consumergroup=__strimzi-topic-operator-kstreams},1651999444,0
{consumergroup=__strimzi-topic-operator-kstreams},1651999449,0
{consumergroup=__strimzi-topic-operator-kstreams},1651999454,0
{consumergroup=__strimzi-topic-operator-kstreams},1651999459,0
{consumergroup=__strimzi-topic-operator-kstreams},1651999464,0
{consumergroup=__strimzi-topic-operator-kstreams},1651999469,0
{consumergroup=__strimzi-topic-operator-kstreams},1651999474,0
{consumergroup=__strimzi-topic-operator-kstreams},1651999479,0
{consumergroup=__strimzi-topic-operator-kstreams},1651999484,0
{consumergroup=__strimzi-topic-operator-kstreams},1651999489,0
{consumergroup=__strimzi-topic-operator-kstreams},1651999494,0
{consumergroup=__strimzi-topic-operator-kstreams},1651999499,0
{consumergroup=__strimzi-topic-operator-kstreams},1651999504,0
{consumergroup=__strimzi-topic-operator-kstreams},1651999509,0
{consumergroup=__strimzi-topic-operator-kstreams},1651999514,0
{consumergroup=__strimzi-topic-operator-kstreams},1651999519,0
{consumergroup=__strimzi-topic-operator-kstreams},1651999524,0
{consumergroup=__strimzi-topic-operator-kstreams},1651999529,0
{consumergroup=__strimzi-topic-operator-kstreams},1651999534,0
{consumergroup=__strimzi-topic-operator-kstreams},1651999539,0
{consumergroup=__strimzi-topic-operator-kstreams},1651999544,0
{consumergroup=__strimzi-topic-operator-kstreams},1651999549,0
{consumergroup=__strimzi-topic-operator-kstreams},1651999554,0
{consumergroup=__strimzi-topic-operator-kstreams},1651999559,0
{consumergroup=__strimzi-topic-operator-kstreams},1651999564,0
{consumergroup=__strimzi-topic-operator-kstreams},1651999569,0
{consumergroup=__strimzi-topic-operator-kstreams},1651999574,0
{consumergroup=__strimzi-topic-operator-kstreams},1651999579,0
{consumergroup=__strimzi-topic-operator-kstreams},1651999584,0
{consumergroup=__strimzi-topic-operator-kstreams},1651999589,0
{consumergroup=__strimzi-topic-operator-kstreams},1651999594,0
{consumergroup=__strimzi-topic-operator-kstreams},1651999599,0
{consumergroup=__strimzi-topic-operator-kstreams},1651999604,0
{consumergroup=adapter-service},1651999189,0
{consumergroup=adapter-service},1651999194,0
{consumergroup=adapter-service},1651999199,0
{consumergroup=adapter-service},1651999204,3338
{consumergroup=adapter-service},1651999209,3338
{consumergroup=adapter-service},1651999214,3338
{consumergroup=adapter-service},1651999219,10998
{consumergroup=adapter-service},1651999224,10998
{consumergroup=adapter-service},1651999229,10998
{consumergroup=adapter-service},1651999234,13394
{consumergroup=adapter-service},1651999239,13394
{consumergroup=adapter-service},1651999244,13394
{consumergroup=adapter-service},1651999249,13760
{consumergroup=adapter-service},1651999254,13760
{consumergroup=adapter-service},1651999259,13760
{consumergroup=adapter-service},1651999264,13045
{consumergroup=adapter-service},1651999269,13045
{consumergroup=adapter-service},1651999274,13045
{consumergroup=adapter-service},1651999279,12449
{consumergroup=adapter-service},1651999284,12449
{consumergroup=adapter-service},1651999289,12449
{consumergroup=adapter-service},1651999294,12175
{consumergroup=adapter-service},1651999299,12175
{consumergroup=adapter-service},1651999304,12175
{consumergroup=adapter-service},1651999309,11712
{consumergroup=adapter-service},1651999314,11712
{consumergroup=adapter-service},1651999319,11712
{consumergroup=adapter-service},1651999324,11672
{consumergroup=adapter-service},1651999329,11672
{consumergroup=adapter-service},1651999334,11672
{consumergroup=adapter-service},1651999339,7297
{consumergroup=adapter-service},1651999344,7297
{consumergroup=adapter-service},1651999349,7297
{consumergroup=adapter-service},1651999354,10768
{consumergroup=adapter-service},1651999359,10768
{consumergroup=adapter-service},1651999364,10768
{consumergroup=adapter-service},1651999369,7881
{consumergroup=adapter-service},1651999374,7881
{consumergroup=adapter-service},1651999379,7881
{consumergroup=adapter-service},1651999384,11518
{consumergroup=adapter-service},1651999389,11518
{consumergroup=adapter-service},1651999394,11518
{consumergroup=adapter-service},1651999399,6078
{consumergroup=adapter-service},1651999404,6078
{consumergroup=adapter-service},1651999409,6078
{consumergroup=adapter-service},1651999414,9942
{consumergroup=adapter-service},1651999419,9942
{consumergroup=adapter-service},1651999424,9942
{consumergroup=adapter-service},1651999429,5369
{consumergroup=adapter-service},1651999434,5369
{consumergroup=adapter-service},1651999439,5369
{consumergroup=adapter-service},1651999444,9444
{consumergroup=adapter-service},1651999449,9444
{consumergroup=adapter-service},1651999454,9444
{consumergroup=adapter-service},1651999459,4895
{consumergroup=adapter-service},1651999464,4895
{consumergroup=adapter-service},1651999469,4895
{consumergroup=adapter-service},1651999474,8651
{consumergroup=adapter-service},1651999479,8651
{consumergroup=adapter-service},1651999484,8651
{consumergroup=adapter-service},1651999489,9565
{consumergroup=adapter-service},1651999494,9565
{consumergroup=adapter-service},1651999499,9565
{consumergroup=adapter-service},1651999504,8157
{consumergroup=adapter-service},1651999509,8157
{consumergroup=adapter-service},1651999514,8157
{consumergroup=adapter-service},1651999519,4606
{consumergroup=adapter-service},1651999524,4606
{consumergroup=adapter-service},1651999529,4606
{consumergroup=adapter-service},1651999534,8597
{consumergroup=adapter-service},1651999539,8597
{consumergroup=adapter-service},1651999544,8597
{consumergroup=adapter-service},1651999549,7071
{consumergroup=adapter-service},1651999554,7071
{consumergroup=adapter-service},1651999559,7071
{consumergroup=adapter-service},1651999564,6863
{consumergroup=adapter-service},1651999569,6863
{consumergroup=adapter-service},1651999574,6863
{consumergroup=adapter-service},1651999579,2490
{consumergroup=adapter-service},1651999584,2490
{consumergroup=adapter-service},1651999589,2490
{consumergroup=adapter-service},1651999594,6603
{consumergroup=adapter-service},1651999599,6603
{consumergroup=adapter-service},1651999604,6603
{consumergroup=landscape-service},1651999204,4386
{consumergroup=landscape-service},1651999209,4386
{consumergroup=landscape-service},1651999214,4386
{consumergroup=landscape-service},1651999219,16289
{consumergroup=landscape-service},1651999224,16289
{consumergroup=landscape-service},1651999229,16289
{consumergroup=landscape-service},1651999234,187
{consumergroup=landscape-service},1651999239,187
{consumergroup=landscape-service},1651999244,187
{consumergroup=landscape-service},1651999249,714
{consumergroup=landscape-service},1651999254,714
{consumergroup=landscape-service},1651999259,714
{consumergroup=landscape-service},1651999264,188
{consumergroup=landscape-service},1651999269,188
{consumergroup=landscape-service},1651999274,188
{consumergroup=landscape-service},1651999279,34
{consumergroup=landscape-service},1651999284,34
{consumergroup=landscape-service},1651999289,34
{consumergroup=landscape-service},1651999294,802
{consumergroup=landscape-service},1651999299,802
{consumergroup=landscape-service},1651999304,802
{consumergroup=landscape-service},1651999309,9
{consumergroup=landscape-service},1651999314,9
{consumergroup=landscape-service},1651999319,9
{consumergroup=landscape-service},1651999324,600
{consumergroup=landscape-service},1651999329,600
{consumergroup=landscape-service},1651999334,600
{consumergroup=landscape-service},1651999339,15456
{consumergroup=landscape-service},1651999344,15456
{consumergroup=landscape-service},1651999349,15456
{consumergroup=landscape-service},1651999354,231
{consumergroup=landscape-service},1651999359,231
{consumergroup=landscape-service},1651999364,231
{consumergroup=landscape-service},1651999369,16479
{consumergroup=landscape-service},1651999374,16479
{consumergroup=landscape-service},1651999379,16479
{consumergroup=landscape-service},1651999384,422
{consumergroup=landscape-service},1651999389,422
{consumergroup=landscape-service},1651999394,422
{consumergroup=landscape-service},1651999399,15156
{consumergroup=landscape-service},1651999404,15156
{consumergroup=landscape-service},1651999409,15156
{consumergroup=landscape-service},1651999414,0
{consumergroup=landscape-service},1651999419,0
{consumergroup=landscape-service},1651999424,0
{consumergroup=landscape-service},1651999429,15839
{consumergroup=landscape-service},1651999434,15839
{consumergroup=landscape-service},1651999439,15839
{consumergroup=landscape-service},1651999444,97
{consumergroup=landscape-service},1651999449,97
{consumergroup=landscape-service},1651999454,97
{consumergroup=landscape-service},1651999459,14724
{consumergroup=landscape-service},1651999464,14724
{consumergroup=landscape-service},1651999469,14724
{consumergroup=landscape-service},1651999474,0
{consumergroup=landscape-service},1651999479,0
{consumergroup=landscape-service},1651999484,0
{consumergroup=landscape-service},1651999489,66
{consumergroup=landscape-service},1651999494,66
{consumergroup=landscape-service},1651999499,66
{consumergroup=landscape-service},1651999504,12341
{consumergroup=landscape-service},1651999509,12341
{consumergroup=landscape-service},1651999514,12341
{consumergroup=landscape-service},1651999519,14496
{consumergroup=landscape-service},1651999524,14496
{consumergroup=landscape-service},1651999529,14496
{consumergroup=landscape-service},1651999534,12121
{consumergroup=landscape-service},1651999539,12121
{consumergroup=landscape-service},1651999544,12121
{consumergroup=landscape-service},1651999549,18244
{consumergroup=landscape-service},1651999554,18244
{consumergroup=landscape-service},1651999559,18244
{consumergroup=landscape-service},1651999564,19282
{consumergroup=landscape-service},1651999569,19282
{consumergroup=landscape-service},1651999574,19282
{consumergroup=landscape-service},1651999579,14416
{consumergroup=landscape-service},1651999584,14416
{consumergroup=landscape-service},1651999589,14416
{consumergroup=landscape-service},1651999594,18106
{consumergroup=landscape-service},1651999599,18106
{consumergroup=landscape-service},1651999604,18106
{consumergroup=landscape-token-events-consumer},1651999189,0
{consumergroup=landscape-token-events-consumer},1651999194,0
{consumergroup=landscape-token-events-consumer},1651999199,0
{consumergroup=landscape-token-events-consumer},1651999204,0
{consumergroup=landscape-token-events-consumer},1651999209,0
{consumergroup=landscape-token-events-consumer},1651999214,0
{consumergroup=landscape-token-events-consumer},1651999219,0
{consumergroup=landscape-token-events-consumer},1651999224,0
{consumergroup=landscape-token-events-consumer},1651999229,0
{consumergroup=landscape-token-events-consumer},1651999234,0
{consumergroup=landscape-token-events-consumer},1651999239,0
{consumergroup=landscape-token-events-consumer},1651999244,0
{consumergroup=landscape-token-events-consumer},1651999249,0
{consumergroup=landscape-token-events-consumer},1651999254,0
{consumergroup=landscape-token-events-consumer},1651999259,0
{consumergroup=landscape-token-events-consumer},1651999264,0
{consumergroup=landscape-token-events-consumer},1651999269,0
{consumergroup=landscape-token-events-consumer},1651999274,0
{consumergroup=landscape-token-events-consumer},1651999279,0
{consumergroup=landscape-token-events-consumer},1651999284,0
{consumergroup=landscape-token-events-consumer},1651999289,0
{consumergroup=landscape-token-events-consumer},1651999294,0
{consumergroup=landscape-token-events-consumer},1651999299,0
{consumergroup=landscape-token-events-consumer},1651999304,0
{consumergroup=landscape-token-events-consumer},1651999309,0
{consumergroup=landscape-token-events-consumer},1651999314,0
{consumergroup=landscape-token-events-consumer},1651999319,0
{consumergroup=landscape-token-events-consumer},1651999324,0
{consumergroup=landscape-token-events-consumer},1651999329,0
{consumergroup=landscape-token-events-consumer},1651999334,0
{consumergroup=landscape-token-events-consumer},1651999339,0
{consumergroup=landscape-token-events-consumer},1651999344,0
{consumergroup=landscape-token-events-consumer},1651999349,0
{consumergroup=landscape-token-events-consumer},1651999354,0
{consumergroup=landscape-token-events-consumer},1651999359,0
{consumergroup=landscape-token-events-consumer},1651999364,0
{consumergroup=landscape-token-events-consumer},1651999369,0
{consumergroup=landscape-token-events-consumer},1651999374,0
{consumergroup=landscape-token-events-consumer},1651999379,0
{consumergroup=landscape-token-events-consumer},1651999384,0
{consumergroup=landscape-token-events-consumer},1651999389,0
{consumergroup=landscape-token-events-consumer},1651999394,0
{consumergroup=landscape-token-events-consumer},1651999399,0
{consumergroup=landscape-token-events-consumer},1651999404,0
{consumergroup=landscape-token-events-consumer},1651999409,0
{consumergroup=landscape-token-events-consumer},1651999414,0
{consumergroup=landscape-token-events-consumer},1651999419,0
{consumergroup=landscape-token-events-consumer},1651999424,0
{consumergroup=landscape-token-events-consumer},1651999429,0
{consumergroup=landscape-token-events-consumer},1651999434,0
{consumergroup=landscape-token-events-consumer},1651999439,0
{consumergroup=landscape-token-events-consumer},1651999444,0
{consumergroup=landscape-token-events-consumer},1651999449,0
{consumergroup=landscape-token-events-consumer},1651999454,0
{consumergroup=landscape-token-events-consumer},1651999459,0
{consumergroup=landscape-token-events-consumer},1651999464,0
{consumergroup=landscape-token-events-consumer},1651999469,0
{consumergroup=landscape-token-events-consumer},1651999474,0
{consumergroup=landscape-token-events-consumer},1651999479,0
{consumergroup=landscape-token-events-consumer},1651999484,0
{consumergroup=landscape-token-events-consumer},1651999489,0
{consumergroup=landscape-token-events-consumer},1651999494,0
{consumergroup=landscape-token-events-consumer},1651999499,0
{consumergroup=landscape-token-events-consumer},1651999504,0
{consumergroup=landscape-token-events-consumer},1651999509,0
{consumergroup=landscape-token-events-consumer},1651999514,0
{consumergroup=landscape-token-events-consumer},1651999519,0
{consumergroup=landscape-token-events-consumer},1651999524,0
{consumergroup=landscape-token-events-consumer},1651999529,0
{consumergroup=landscape-token-events-consumer},1651999534,0
{consumergroup=landscape-token-events-consumer},1651999539,0
{consumergroup=landscape-token-events-consumer},1651999544,0
{consumergroup=landscape-token-events-consumer},1651999549,0
{consumergroup=landscape-token-events-consumer},1651999554,0
{consumergroup=landscape-token-events-consumer},1651999559,0
{consumergroup=landscape-token-events-consumer},1651999564,0
{consumergroup=landscape-token-events-consumer},1651999569,0
{consumergroup=landscape-token-events-consumer},1651999574,0
{consumergroup=landscape-token-events-consumer},1651999579,0
{consumergroup=landscape-token-events-consumer},1651999584,0
{consumergroup=landscape-token-events-consumer},1651999589,0
{consumergroup=landscape-token-events-consumer},1651999594,0
{consumergroup=landscape-token-events-consumer},1651999599,0
{consumergroup=landscape-token-events-consumer},1651999604,0
{consumergroup=trace-service},1651999204,38055
{consumergroup=trace-service},1651999209,38055
{consumergroup=trace-service},1651999214,38055
{consumergroup=trace-service},1651999219,74282
{consumergroup=trace-service},1651999224,74282
{consumergroup=trace-service},1651999229,74282
{consumergroup=trace-service},1651999234,27387
{consumergroup=trace-service},1651999239,27387
{consumergroup=trace-service},1651999244,27387
{consumergroup=trace-service},1651999249,61395
{consumergroup=trace-service},1651999254,61395
{consumergroup=trace-service},1651999259,61395
{consumergroup=trace-service},1651999264,42936
{consumergroup=trace-service},1651999269,42936
{consumergroup=trace-service},1651999274,42936
{consumergroup=trace-service},1651999279,91880
{consumergroup=trace-service},1651999284,91880
{consumergroup=trace-service},1651999289,91880
{consumergroup=trace-service},1651999294,22636
{consumergroup=trace-service},1651999299,22636
{consumergroup=trace-service},1651999304,22636
{consumergroup=trace-service},1651999309,63388
{consumergroup=trace-service},1651999314,63388
{consumergroup=trace-service},1651999319,63388
{consumergroup=trace-service},1651999324,28791
{consumergroup=trace-service},1651999329,28791
{consumergroup=trace-service},1651999334,28791
{consumergroup=trace-service},1651999339,85678
{consumergroup=trace-service},1651999344,85678
{consumergroup=trace-service},1651999349,85678
{consumergroup=trace-service},1651999354,31975
{consumergroup=trace-service},1651999359,31975
{consumergroup=trace-service},1651999364,31975
{consumergroup=trace-service},1651999369,82774
{consumergroup=trace-service},1651999374,82774
{consumergroup=trace-service},1651999379,82774
{consumergroup=trace-service},1651999384,26651
{consumergroup=trace-service},1651999389,26651
{consumergroup=trace-service},1651999394,26651
{consumergroup=trace-service},1651999399,63970
{consumergroup=trace-service},1651999404,63970
{consumergroup=trace-service},1651999409,63970
{consumergroup=trace-service},1651999414,160759
{consumergroup=trace-service},1651999419,160759
{consumergroup=trace-service},1651999424,160759
{consumergroup=trace-service},1651999429,81952
{consumergroup=trace-service},1651999434,81952
{consumergroup=trace-service},1651999439,81952
{consumergroup=trace-service},1651999444,32602
{consumergroup=trace-service},1651999449,32602
{consumergroup=trace-service},1651999454,32602
{consumergroup=trace-service},1651999459,68495
{consumergroup=trace-service},1651999464,68495
{consumergroup=trace-service},1651999469,68495
{consumergroup=trace-service},1651999474,28886
{consumergroup=trace-service},1651999479,28886
{consumergroup=trace-service},1651999484,28886
{consumergroup=trace-service},1651999489,67598
{consumergroup=trace-service},1651999494,67598
{consumergroup=trace-service},1651999499,67598
{consumergroup=trace-service},1651999504,34601
{consumergroup=trace-service},1651999509,34601
{consumergroup=trace-service},1651999514,34601
{consumergroup=trace-service},1651999519,96094
{consumergroup=trace-service},1651999524,96094
{consumergroup=trace-service},1651999529,96094
{consumergroup=trace-service},1651999534,25983
{consumergroup=trace-service},1651999539,25983
{consumergroup=trace-service},1651999544,25983
{consumergroup=trace-service},1651999549,70368
{consumergroup=trace-service},1651999554,70368
{consumergroup=trace-service},1651999559,70368
{consumergroup=trace-service},1651999564,28982
{consumergroup=trace-service},1651999569,28982
{consumergroup=trace-service},1651999574,28982
{consumergroup=trace-service},1651999579,68663
{consumergroup=trace-service},1651999584,68663
{consumergroup=trace-service},1651999589,68663
{consumergroup=trace-service},1651999594,30374
{consumergroup=trace-service},1651999599,30374
{consumergroup=trace-service},1651999604,30374
{consumergroup=trace-token-events-consumer},1651999189,0
{consumergroup=trace-token-events-consumer},1651999194,0
{consumergroup=trace-token-events-consumer},1651999199,0
{consumergroup=trace-token-events-consumer},1651999204,0
{consumergroup=trace-token-events-consumer},1651999209,0
{consumergroup=trace-token-events-consumer},1651999214,0
{consumergroup=trace-token-events-consumer},1651999219,0
{consumergroup=trace-token-events-consumer},1651999224,0
{consumergroup=trace-token-events-consumer},1651999229,0
{consumergroup=trace-token-events-consumer},1651999234,0
{consumergroup=trace-token-events-consumer},1651999239,0
{consumergroup=trace-token-events-consumer},1651999244,0
{consumergroup=trace-token-events-consumer},1651999249,0
{consumergroup=trace-token-events-consumer},1651999254,0
{consumergroup=trace-token-events-consumer},1651999259,0
{consumergroup=trace-token-events-consumer},1651999264,0
{consumergroup=trace-token-events-consumer},1651999269,0
{consumergroup=trace-token-events-consumer},1651999274,0
{consumergroup=trace-token-events-consumer},1651999279,0
{consumergroup=trace-token-events-consumer},1651999284,0
{consumergroup=trace-token-events-consumer},1651999289,0
{consumergroup=trace-token-events-consumer},1651999294,0
{consumergroup=trace-token-events-consumer},1651999299,0
{consumergroup=trace-token-events-consumer},1651999304,0
{consumergroup=trace-token-events-consumer},1651999309,0
{consumergroup=trace-token-events-consumer},1651999314,0
{consumergroup=trace-token-events-consumer},1651999319,0
{consumergroup=trace-token-events-consumer},1651999324,0
{consumergroup=trace-token-events-consumer},1651999329,0
{consumergroup=trace-token-events-consumer},1651999334,0
{consumergroup=trace-token-events-consumer},1651999339,0
{consumergroup=trace-token-events-consumer},1651999344,0
{consumergroup=trace-token-events-consumer},1651999349,0
{consumergroup=trace-token-events-consumer},1651999354,0
{consumergroup=trace-token-events-consumer},1651999359,0
{consumergroup=trace-token-events-consumer},1651999364,0
{consumergroup=trace-token-events-consumer},1651999369,0
{consumergroup=trace-token-events-consumer},1651999374,0
{consumergroup=trace-token-events-consumer},1651999379,0
{consumergroup=trace-token-events-consumer},1651999384,0
{consumergroup=trace-token-events-consumer},1651999389,0
{consumergroup=trace-token-events-consumer},1651999394,0
{consumergroup=trace-token-events-consumer},1651999399,0
{consumergroup=trace-token-events-consumer},1651999404,0
{consumergroup=trace-token-events-consumer},1651999409,0
{consumergroup=trace-token-events-consumer},1651999414,0
{consumergroup=trace-token-events-consumer},1651999419,0
{consumergroup=trace-token-events-consumer},1651999424,0
{consumergroup=trace-token-events-consumer},1651999429,0
{consumergroup=trace-token-events-consumer},1651999434,0
{consumergroup=trace-token-events-consumer},1651999439,0
{consumergroup=trace-token-events-consumer},1651999444,0
{consumergroup=trace-token-events-consumer},1651999449,0
{consumergroup=trace-token-events-consumer},1651999454,0
{consumergroup=trace-token-events-consumer},1651999459,0
{consumergroup=trace-token-events-consumer},1651999464,0
{consumergroup=trace-token-events-consumer},1651999469,0
{consumergroup=trace-token-events-consumer},1651999474,0
{consumergroup=trace-token-events-consumer},1651999479,0
{consumergroup=trace-token-events-consumer},1651999484,0
{consumergroup=trace-token-events-consumer},1651999489,0
{consumergroup=trace-token-events-consumer},1651999494,0
{consumergroup=trace-token-events-consumer},1651999499,0
{consumergroup=trace-token-events-consumer},1651999504,0
{consumergroup=trace-token-events-consumer},1651999509,0
{consumergroup=trace-token-events-consumer},1651999514,0
{consumergroup=trace-token-events-consumer},1651999519,0
{consumergroup=trace-token-events-consumer},1651999524,0
{consumergroup=trace-token-events-consumer},1651999529,0
{consumergroup=trace-token-events-consumer},1651999534,0
{consumergroup=trace-token-events-consumer},1651999539,0
{consumergroup=trace-token-events-consumer},1651999544,0
{consumergroup=trace-token-events-consumer},1651999549,0
{consumergroup=trace-token-events-consumer},1651999554,0
{consumergroup=trace-token-events-consumer},1651999559,0
{consumergroup=trace-token-events-consumer},1651999564,0
{consumergroup=trace-token-events-consumer},1651999569,0
{consumergroup=trace-token-events-consumer},1651999574,0
{consumergroup=trace-token-events-consumer},1651999579,0
{consumergroup=trace-token-events-consumer},1651999584,0
{consumergroup=trace-token-events-consumer},1651999589,0
{consumergroup=trace-token-events-consumer},1651999594,0
{consumergroup=trace-token-events-consumer},1651999599,0
{consumergroup=trace-token-events-consumer},1651999604,0
