labels,timestamp,value
{consumergroup=__strimzi-topic-operator-kstreams},1652003564,9
{consumergroup=__strimzi-topic-operator-kstreams},1652003569,9
{consumergroup=__strimzi-topic-operator-kstreams},1652003574,9
{consumergroup=__strimzi-topic-operator-kstreams},1652003579,12
{consumergroup=__strimzi-topic-operator-kstreams},1652003584,12
{consumergroup=__strimzi-topic-operator-kstreams},1652003589,12
{consumergroup=__strimzi-topic-operator-kstreams},1652003594,0
{consumergroup=__strimzi-topic-operator-kstreams},1652003599,0
{consumergroup=__strimzi-topic-operator-kstreams},1652003604,0
{consumergroup=__strimzi-topic-operator-kstreams},1652003609,0
{consumergroup=__strimzi-topic-operator-kstreams},1652003614,0
{consumergroup=__strimzi-topic-operator-kstreams},1652003619,0
{consumergroup=__strimzi-topic-operator-kstreams},1652003624,0
{consumergroup=__strimzi-topic-operator-kstreams},1652003629,0
{consumergroup=__strimzi-topic-operator-kstreams},1652003634,0
{consumergroup=__strimzi-topic-operator-kstreams},1652003639,0
{consumergroup=__strimzi-topic-operator-kstreams},1652003644,0
{consumergroup=__strimzi-topic-operator-kstreams},1652003649,0
{consumergroup=__strimzi-topic-operator-kstreams},1652003654,0
{consumergroup=__strimzi-topic-operator-kstreams},1652003659,0
{consumergroup=__strimzi-topic-operator-kstreams},1652003664,0
{consumergroup=__strimzi-topic-operator-kstreams},1652003669,0
{consumergroup=__strimzi-topic-operator-kstreams},1652003674,0
{consumergroup=__strimzi-topic-operator-kstreams},1652003679,0
{consumergroup=__strimzi-topic-operator-kstreams},1652003684,0
{consumergroup=__strimzi-topic-operator-kstreams},1652003689,0
{consumergroup=__strimzi-topic-operator-kstreams},1652003694,0
{consumergroup=__strimzi-topic-operator-kstreams},1652003699,0
{consumergroup=__strimzi-topic-operator-kstreams},1652003704,0
{consumergroup=__strimzi-topic-operator-kstreams},1652003709,0
{consumergroup=__strimzi-topic-operator-kstreams},1652003714,0
{consumergroup=__strimzi-topic-operator-kstreams},1652003719,0
{consumergroup=__strimzi-topic-operator-kstreams},1652003724,0
{consumergroup=__strimzi-topic-operator-kstreams},1652003729,0
{consumergroup=__strimzi-topic-operator-kstreams},1652003734,0
{consumergroup=__strimzi-topic-operator-kstreams},1652003739,0
{consumergroup=__strimzi-topic-operator-kstreams},1652003744,0
{consumergroup=__strimzi-topic-operator-kstreams},1652003749,0
{consumergroup=__strimzi-topic-operator-kstreams},1652003754,0
{consumergroup=__strimzi-topic-operator-kstreams},1652003759,0
{consumergroup=__strimzi-topic-operator-kstreams},1652003764,0
{consumergroup=__strimzi-topic-operator-kstreams},1652003769,0
{consumergroup=__strimzi-topic-operator-kstreams},1652003774,0
{consumergroup=__strimzi-topic-operator-kstreams},1652003779,0
{consumergroup=__strimzi-topic-operator-kstreams},1652003784,0
{consumergroup=__strimzi-topic-operator-kstreams},1652003789,0
{consumergroup=__strimzi-topic-operator-kstreams},1652003794,0
{consumergroup=__strimzi-topic-operator-kstreams},1652003799,0
{consumergroup=__strimzi-topic-operator-kstreams},1652003804,0
{consumergroup=__strimzi-topic-operator-kstreams},1652003809,0
{consumergroup=__strimzi-topic-operator-kstreams},1652003814,0
{consumergroup=__strimzi-topic-operator-kstreams},1652003819,0
{consumergroup=__strimzi-topic-operator-kstreams},1652003824,0
{consumergroup=__strimzi-topic-operator-kstreams},1652003829,0
{consumergroup=__strimzi-topic-operator-kstreams},1652003834,0
{consumergroup=__strimzi-topic-operator-kstreams},1652003839,0
{consumergroup=__strimzi-topic-operator-kstreams},1652003844,0
{consumergroup=__strimzi-topic-operator-kstreams},1652003849,0
{consumergroup=__strimzi-topic-operator-kstreams},1652003854,0
{consumergroup=__strimzi-topic-operator-kstreams},1652003859,0
{consumergroup=__strimzi-topic-operator-kstreams},1652003864,0
{consumergroup=__strimzi-topic-operator-kstreams},1652003869,0
{consumergroup=__strimzi-topic-operator-kstreams},1652003874,0
{consumergroup=__strimzi-topic-operator-kstreams},1652003879,0
{consumergroup=__strimzi-topic-operator-kstreams},1652003884,0
{consumergroup=__strimzi-topic-operator-kstreams},1652003889,0
{consumergroup=__strimzi-topic-operator-kstreams},1652003894,0
{consumergroup=__strimzi-topic-operator-kstreams},1652003899,0
{consumergroup=__strimzi-topic-operator-kstreams},1652003904,0
{consumergroup=__strimzi-topic-operator-kstreams},1652003909,0
{consumergroup=__strimzi-topic-operator-kstreams},1652003914,0
{consumergroup=__strimzi-topic-operator-kstreams},1652003919,0
{consumergroup=__strimzi-topic-operator-kstreams},1652003924,0
{consumergroup=__strimzi-topic-operator-kstreams},1652003929,0
{consumergroup=__strimzi-topic-operator-kstreams},1652003934,0
{consumergroup=__strimzi-topic-operator-kstreams},1652003939,0
{consumergroup=__strimzi-topic-operator-kstreams},1652003944,0
{consumergroup=__strimzi-topic-operator-kstreams},1652003949,0
{consumergroup=__strimzi-topic-operator-kstreams},1652003954,0
{consumergroup=__strimzi-topic-operator-kstreams},1652003959,0
{consumergroup=__strimzi-topic-operator-kstreams},1652003964,0
{consumergroup=__strimzi-topic-operator-kstreams},1652003969,0
{consumergroup=__strimzi-topic-operator-kstreams},1652003974,0
{consumergroup=__strimzi-topic-operator-kstreams},1652003979,0
{consumergroup=__strimzi-topic-operator-kstreams},1652003984,0
{consumergroup=__strimzi-topic-operator-kstreams},1652003989,0
{consumergroup=__strimzi-topic-operator-kstreams},1652003994,0
{consumergroup=__strimzi-topic-operator-kstreams},1652003999,0
{consumergroup=__strimzi-topic-operator-kstreams},1652004004,0
{consumergroup=adapter-service},1652003594,0
{consumergroup=adapter-service},1652003599,0
{consumergroup=adapter-service},1652003604,0
{consumergroup=adapter-service},1652003609,6124
{consumergroup=adapter-service},1652003614,6124
{consumergroup=adapter-service},1652003619,6124
{consumergroup=adapter-service},1652003624,7331
{consumergroup=adapter-service},1652003629,7331
{consumergroup=adapter-service},1652003634,7331
{consumergroup=adapter-service},1652003639,4645
{consumergroup=adapter-service},1652003644,4645
{consumergroup=adapter-service},1652003649,4645
{consumergroup=adapter-service},1652003654,6640
{consumergroup=adapter-service},1652003659,6640
{consumergroup=adapter-service},1652003664,6640
{consumergroup=adapter-service},1652003669,4380
{consumergroup=adapter-service},1652003674,4380
{consumergroup=adapter-service},1652003679,4380
{consumergroup=adapter-service},1652003684,6304
{consumergroup=adapter-service},1652003689,6304
{consumergroup=adapter-service},1652003694,6304
{consumergroup=adapter-service},1652003699,4601
{consumergroup=adapter-service},1652003704,4601
{consumergroup=adapter-service},1652003709,4601
{consumergroup=adapter-service},1652003714,5535
{consumergroup=adapter-service},1652003719,5535
{consumergroup=adapter-service},1652003724,5535
{consumergroup=adapter-service},1652003729,3049
{consumergroup=adapter-service},1652003734,3049
{consumergroup=adapter-service},1652003739,3049
{consumergroup=adapter-service},1652003744,5169
{consumergroup=adapter-service},1652003749,5169
{consumergroup=adapter-service},1652003754,5169
{consumergroup=adapter-service},1652003759,2472
{consumergroup=adapter-service},1652003764,2472
{consumergroup=adapter-service},1652003769,2472
{consumergroup=adapter-service},1652003774,8389
{consumergroup=adapter-service},1652003779,8389
{consumergroup=adapter-service},1652003784,8389
{consumergroup=adapter-service},1652003789,5180
{consumergroup=adapter-service},1652003794,5180
{consumergroup=adapter-service},1652003799,5180
{consumergroup=adapter-service},1652003804,3914
{consumergroup=adapter-service},1652003809,3914
{consumergroup=adapter-service},1652003814,3914
{consumergroup=adapter-service},1652003819,4619
{consumergroup=adapter-service},1652003824,4619
{consumergroup=adapter-service},1652003829,4619
{consumergroup=adapter-service},1652003834,3173
{consumergroup=adapter-service},1652003839,3173
{consumergroup=adapter-service},1652003844,3173
{consumergroup=adapter-service},1652003849,9555
{consumergroup=adapter-service},1652003854,9555
{consumergroup=adapter-service},1652003859,9555
{consumergroup=adapter-service},1652003864,2838
{consumergroup=adapter-service},1652003869,2838
{consumergroup=adapter-service},1652003874,2838
{consumergroup=adapter-service},1652003879,3398
{consumergroup=adapter-service},1652003884,3398
{consumergroup=adapter-service},1652003889,3398
{consumergroup=adapter-service},1652003894,7013
{consumergroup=adapter-service},1652003899,7013
{consumergroup=adapter-service},1652003904,7013
{consumergroup=adapter-service},1652003909,3029
{consumergroup=adapter-service},1652003914,3029
{consumergroup=adapter-service},1652003919,3029
{consumergroup=adapter-service},1652003924,4921
{consumergroup=adapter-service},1652003929,4921
{consumergroup=adapter-service},1652003934,4921
{consumergroup=adapter-service},1652003939,2798
{consumergroup=adapter-service},1652003944,2798
{consumergroup=adapter-service},1652003949,2798
{consumergroup=adapter-service},1652003954,4284
{consumergroup=adapter-service},1652003959,4284
{consumergroup=adapter-service},1652003964,4284
{consumergroup=adapter-service},1652003969,3288
{consumergroup=adapter-service},1652003974,3288
{consumergroup=adapter-service},1652003979,3288
{consumergroup=adapter-service},1652003984,3713
{consumergroup=adapter-service},1652003989,3713
{consumergroup=adapter-service},1652003994,3713
{consumergroup=adapter-service},1652003999,11338
{consumergroup=adapter-service},1652004004,11338
{consumergroup=landscape-service},1652003609,12771
{consumergroup=landscape-service},1652003614,12771
{consumergroup=landscape-service},1652003619,12771
{consumergroup=landscape-service},1652003624,15047
{consumergroup=landscape-service},1652003629,15047
{consumergroup=landscape-service},1652003634,15047
{consumergroup=landscape-service},1652003639,11620
{consumergroup=landscape-service},1652003644,11620
{consumergroup=landscape-service},1652003649,11620
{consumergroup=landscape-service},1652003654,14035
{consumergroup=landscape-service},1652003659,14035
{consumergroup=landscape-service},1652003664,14035
{consumergroup=landscape-service},1652003669,12778
{consumergroup=landscape-service},1652003674,12778
{consumergroup=landscape-service},1652003679,12778
{consumergroup=landscape-service},1652003684,14898
{consumergroup=landscape-service},1652003689,14898
{consumergroup=landscape-service},1652003694,14898
{consumergroup=landscape-service},1652003699,11312
{consumergroup=landscape-service},1652003704,11312
{consumergroup=landscape-service},1652003709,11312
{consumergroup=landscape-service},1652003714,14408
{consumergroup=landscape-service},1652003719,14408
{consumergroup=landscape-service},1652003724,14408
{consumergroup=landscape-service},1652003729,11114
{consumergroup=landscape-service},1652003734,11114
{consumergroup=landscape-service},1652003739,11114
{consumergroup=landscape-service},1652003744,14260
{consumergroup=landscape-service},1652003749,14260
{consumergroup=landscape-service},1652003754,14260
{consumergroup=landscape-service},1652003759,10928
{consumergroup=landscape-service},1652003764,10928
{consumergroup=landscape-service},1652003769,10928
{consumergroup=landscape-service},1652003774,17155
{consumergroup=landscape-service},1652003779,17155
{consumergroup=landscape-service},1652003784,17155
{consumergroup=landscape-service},1652003789,10640
{consumergroup=landscape-service},1652003794,10640
{consumergroup=landscape-service},1652003799,10640
{consumergroup=landscape-service},1652003804,14188
{consumergroup=landscape-service},1652003809,14188
{consumergroup=landscape-service},1652003814,14188
{consumergroup=landscape-service},1652003819,10616
{consumergroup=landscape-service},1652003824,10616
{consumergroup=landscape-service},1652003829,10616
{consumergroup=landscape-service},1652003834,12758
{consumergroup=landscape-service},1652003839,12758
{consumergroup=landscape-service},1652003844,12758
{consumergroup=landscape-service},1652003849,11911
{consumergroup=landscape-service},1652003854,11911
{consumergroup=landscape-service},1652003859,11911
{consumergroup=landscape-service},1652003864,12513
{consumergroup=landscape-service},1652003869,12513
{consumergroup=landscape-service},1652003874,12513
{consumergroup=landscape-service},1652003879,10121
{consumergroup=landscape-service},1652003884,10121
{consumergroup=landscape-service},1652003889,10121
{consumergroup=landscape-service},1652003894,17361
{consumergroup=landscape-service},1652003899,17361
{consumergroup=landscape-service},1652003904,17361
{consumergroup=landscape-service},1652003909,11129
{consumergroup=landscape-service},1652003914,11129
{consumergroup=landscape-service},1652003919,11129
{consumergroup=landscape-service},1652003924,12175
{consumergroup=landscape-service},1652003929,12175
{consumergroup=landscape-service},1652003934,12175
{consumergroup=landscape-service},1652003939,10030
{consumergroup=landscape-service},1652003944,10030
{consumergroup=landscape-service},1652003949,10030
{consumergroup=landscape-service},1652003954,13071
{consumergroup=landscape-service},1652003959,13071
{consumergroup=landscape-service},1652003964,13071
{consumergroup=landscape-service},1652003969,9843
{consumergroup=landscape-service},1652003974,9843
{consumergroup=landscape-service},1652003979,9843
{consumergroup=landscape-service},1652003984,12927
{consumergroup=landscape-service},1652003989,12927
{consumergroup=landscape-service},1652003994,12927
{consumergroup=landscape-service},1652003999,9488
{consumergroup=landscape-service},1652004004,9488
{consumergroup=landscape-token-events-consumer},1652003594,0
{consumergroup=landscape-token-events-consumer},1652003599,0
{consumergroup=landscape-token-events-consumer},1652003604,0
{consumergroup=landscape-token-events-consumer},1652003609,0
{consumergroup=landscape-token-events-consumer},1652003614,0
{consumergroup=landscape-token-events-consumer},1652003619,0
{consumergroup=landscape-token-events-consumer},1652003624,0
{consumergroup=landscape-token-events-consumer},1652003629,0
{consumergroup=landscape-token-events-consumer},1652003634,0
{consumergroup=landscape-token-events-consumer},1652003639,0
{consumergroup=landscape-token-events-consumer},1652003644,0
{consumergroup=landscape-token-events-consumer},1652003649,0
{consumergroup=landscape-token-events-consumer},1652003654,0
{consumergroup=landscape-token-events-consumer},1652003659,0
{consumergroup=landscape-token-events-consumer},1652003664,0
{consumergroup=landscape-token-events-consumer},1652003669,0
{consumergroup=landscape-token-events-consumer},1652003674,0
{consumergroup=landscape-token-events-consumer},1652003679,0
{consumergroup=landscape-token-events-consumer},1652003684,0
{consumergroup=landscape-token-events-consumer},1652003689,0
{consumergroup=landscape-token-events-consumer},1652003694,0
{consumergroup=landscape-token-events-consumer},1652003699,0
{consumergroup=landscape-token-events-consumer},1652003704,0
{consumergroup=landscape-token-events-consumer},1652003709,0
{consumergroup=landscape-token-events-consumer},1652003714,0
{consumergroup=landscape-token-events-consumer},1652003719,0
{consumergroup=landscape-token-events-consumer},1652003724,0
{consumergroup=landscape-token-events-consumer},1652003729,0
{consumergroup=landscape-token-events-consumer},1652003734,0
{consumergroup=landscape-token-events-consumer},1652003739,0
{consumergroup=landscape-token-events-consumer},1652003744,0
{consumergroup=landscape-token-events-consumer},1652003749,0
{consumergroup=landscape-token-events-consumer},1652003754,0
{consumergroup=landscape-token-events-consumer},1652003759,0
{consumergroup=landscape-token-events-consumer},1652003764,0
{consumergroup=landscape-token-events-consumer},1652003769,0
{consumergroup=landscape-token-events-consumer},1652003774,0
{consumergroup=landscape-token-events-consumer},1652003779,0
{consumergroup=landscape-token-events-consumer},1652003784,0
{consumergroup=landscape-token-events-consumer},1652003789,0
{consumergroup=landscape-token-events-consumer},1652003794,0
{consumergroup=landscape-token-events-consumer},1652003799,0
{consumergroup=landscape-token-events-consumer},1652003804,0
{consumergroup=landscape-token-events-consumer},1652003809,0
{consumergroup=landscape-token-events-consumer},1652003814,0
{consumergroup=landscape-token-events-consumer},1652003819,0
{consumergroup=landscape-token-events-consumer},1652003824,0
{consumergroup=landscape-token-events-consumer},1652003829,0
{consumergroup=landscape-token-events-consumer},1652003834,0
{consumergroup=landscape-token-events-consumer},1652003839,0
{consumergroup=landscape-token-events-consumer},1652003844,0
{consumergroup=landscape-token-events-consumer},1652003849,0
{consumergroup=landscape-token-events-consumer},1652003854,0
{consumergroup=landscape-token-events-consumer},1652003859,0
{consumergroup=landscape-token-events-consumer},1652003864,0
{consumergroup=landscape-token-events-consumer},1652003869,0
{consumergroup=landscape-token-events-consumer},1652003874,0
{consumergroup=landscape-token-events-consumer},1652003879,0
{consumergroup=landscape-token-events-consumer},1652003884,0
{consumergroup=landscape-token-events-consumer},1652003889,0
{consumergroup=landscape-token-events-consumer},1652003894,0
{consumergroup=landscape-token-events-consumer},1652003899,0
{consumergroup=landscape-token-events-consumer},1652003904,0
{consumergroup=landscape-token-events-consumer},1652003909,0
{consumergroup=landscape-token-events-consumer},1652003914,0
{consumergroup=landscape-token-events-consumer},1652003919,0
{consumergroup=landscape-token-events-consumer},1652003924,0
{consumergroup=landscape-token-events-consumer},1652003929,0
{consumergroup=landscape-token-events-consumer},1652003934,0
{consumergroup=landscape-token-events-consumer},1652003939,0
{consumergroup=landscape-token-events-consumer},1652003944,0
{consumergroup=landscape-token-events-consumer},1652003949,0
{consumergroup=landscape-token-events-consumer},1652003954,0
{consumergroup=landscape-token-events-consumer},1652003959,0
{consumergroup=landscape-token-events-consumer},1652003964,0
{consumergroup=landscape-token-events-consumer},1652003969,0
{consumergroup=landscape-token-events-consumer},1652003974,0
{consumergroup=landscape-token-events-consumer},1652003979,0
{consumergroup=landscape-token-events-consumer},1652003984,0
{consumergroup=landscape-token-events-consumer},1652003989,0
{consumergroup=landscape-token-events-consumer},1652003994,0
{consumergroup=landscape-token-events-consumer},1652003999,0
{consumergroup=landscape-token-events-consumer},1652004004,0
{consumergroup=trace-service},1652003609,33496
{consumergroup=trace-service},1652003614,33496
{consumergroup=trace-service},1652003619,33496
{consumergroup=trace-service},1652003624,47816
{consumergroup=trace-service},1652003629,47816
{consumergroup=trace-service},1652003634,47816
{consumergroup=trace-service},1652003639,18397
{consumergroup=trace-service},1652003644,18397
{consumergroup=trace-service},1652003649,18397
{consumergroup=trace-service},1652003654,53097
{consumergroup=trace-service},1652003659,53097
{consumergroup=trace-service},1652003664,53097
{consumergroup=trace-service},1652003669,22333
{consumergroup=trace-service},1652003674,22333
{consumergroup=trace-service},1652003679,22333
{consumergroup=trace-service},1652003684,72350
{consumergroup=trace-service},1652003689,72350
{consumergroup=trace-service},1652003694,72350
{consumergroup=trace-service},1652003699,30032
{consumergroup=trace-service},1652003704,30032
{consumergroup=trace-service},1652003709,30032
{consumergroup=trace-service},1652003714,52917
{consumergroup=trace-service},1652003719,52917
{consumergroup=trace-service},1652003724,52917
{consumergroup=trace-service},1652003729,19748
{consumergroup=trace-service},1652003734,19748
{consumergroup=trace-service},1652003739,19748
{consumergroup=trace-service},1652003744,56740
{consumergroup=trace-service},1652003749,56740
{consumergroup=trace-service},1652003754,56740
{consumergroup=trace-service},1652003759,28521
{consumergroup=trace-service},1652003764,28521
{consumergroup=trace-service},1652003769,28521
{consumergroup=trace-service},1652003774,59375
{consumergroup=trace-service},1652003779,59375
{consumergroup=trace-service},1652003784,59375
{consumergroup=trace-service},1652003789,28599
{consumergroup=trace-service},1652003794,28599
{consumergroup=trace-service},1652003799,28599
{consumergroup=trace-service},1652003804,58791
{consumergroup=trace-service},1652003809,58791
{consumergroup=trace-service},1652003814,58791
{consumergroup=trace-service},1652003819,137358
{consumergroup=trace-service},1652003824,137358
{consumergroup=trace-service},1652003829,137358
{consumergroup=trace-service},1652003834,64897
{consumergroup=trace-service},1652003839,64897
{consumergroup=trace-service},1652003844,64897
{consumergroup=trace-service},1652003849,25953
{consumergroup=trace-service},1652003854,25953
{consumergroup=trace-service},1652003859,25953
{consumergroup=trace-service},1652003864,62665
{consumergroup=trace-service},1652003869,62665
{consumergroup=trace-service},1652003874,62665
{consumergroup=trace-service},1652003879,95261
{consumergroup=trace-service},1652003884,95261
{consumergroup=trace-service},1652003889,95261
{consumergroup=trace-service},1652003894,62669
{consumergroup=trace-service},1652003899,62669
{consumergroup=trace-service},1652003904,62669
{consumergroup=trace-service},1652003909,20302
{consumergroup=trace-service},1652003914,20302
{consumergroup=trace-service},1652003919,20302
{consumergroup=trace-service},1652003924,62546
{consumergroup=trace-service},1652003929,62546
{consumergroup=trace-service},1652003934,62546
{consumergroup=trace-service},1652003939,30155
{consumergroup=trace-service},1652003944,30155
{consumergroup=trace-service},1652003949,30155
{consumergroup=trace-service},1652003954,57630
{consumergroup=trace-service},1652003959,57630
{consumergroup=trace-service},1652003964,57630
{consumergroup=trace-service},1652003969,127542
{consumergroup=trace-service},1652003974,127542
{consumergroup=trace-service},1652003979,127542
{consumergroup=trace-service},1652003984,123053
{consumergroup=trace-service},1652003989,123053
{consumergroup=trace-service},1652003994,123053
{consumergroup=trace-service},1652003999,18943
{consumergroup=trace-service},1652004004,18943
{consumergroup=trace-token-events-consumer},1652003594,0
{consumergroup=trace-token-events-consumer},1652003599,0
{consumergroup=trace-token-events-consumer},1652003604,0
{consumergroup=trace-token-events-consumer},1652003609,0
{consumergroup=trace-token-events-consumer},1652003614,0
{consumergroup=trace-token-events-consumer},1652003619,0
{consumergroup=trace-token-events-consumer},1652003624,0
{consumergroup=trace-token-events-consumer},1652003629,0
{consumergroup=trace-token-events-consumer},1652003634,0
{consumergroup=trace-token-events-consumer},1652003639,0
{consumergroup=trace-token-events-consumer},1652003644,0
{consumergroup=trace-token-events-consumer},1652003649,0
{consumergroup=trace-token-events-consumer},1652003654,0
{consumergroup=trace-token-events-consumer},1652003659,0
{consumergroup=trace-token-events-consumer},1652003664,0
{consumergroup=trace-token-events-consumer},1652003669,0
{consumergroup=trace-token-events-consumer},1652003674,0
{consumergroup=trace-token-events-consumer},1652003679,0
{consumergroup=trace-token-events-consumer},1652003684,0
{consumergroup=trace-token-events-consumer},1652003689,0
{consumergroup=trace-token-events-consumer},1652003694,0
{consumergroup=trace-token-events-consumer},1652003699,0
{consumergroup=trace-token-events-consumer},1652003704,0
{consumergroup=trace-token-events-consumer},1652003709,0
{consumergroup=trace-token-events-consumer},1652003714,0
{consumergroup=trace-token-events-consumer},1652003719,0
{consumergroup=trace-token-events-consumer},1652003724,0
{consumergroup=trace-token-events-consumer},1652003729,0
{consumergroup=trace-token-events-consumer},1652003734,0
{consumergroup=trace-token-events-consumer},1652003739,0
{consumergroup=trace-token-events-consumer},1652003744,0
{consumergroup=trace-token-events-consumer},1652003749,0
{consumergroup=trace-token-events-consumer},1652003754,0
{consumergroup=trace-token-events-consumer},1652003759,0
{consumergroup=trace-token-events-consumer},1652003764,0
{consumergroup=trace-token-events-consumer},1652003769,0
{consumergroup=trace-token-events-consumer},1652003774,0
{consumergroup=trace-token-events-consumer},1652003779,0
{consumergroup=trace-token-events-consumer},1652003784,0
{consumergroup=trace-token-events-consumer},1652003789,0
{consumergroup=trace-token-events-consumer},1652003794,0
{consumergroup=trace-token-events-consumer},1652003799,0
{consumergroup=trace-token-events-consumer},1652003804,0
{consumergroup=trace-token-events-consumer},1652003809,0
{consumergroup=trace-token-events-consumer},1652003814,0
{consumergroup=trace-token-events-consumer},1652003819,0
{consumergroup=trace-token-events-consumer},1652003824,0
{consumergroup=trace-token-events-consumer},1652003829,0
{consumergroup=trace-token-events-consumer},1652003834,0
{consumergroup=trace-token-events-consumer},1652003839,0
{consumergroup=trace-token-events-consumer},1652003844,0
{consumergroup=trace-token-events-consumer},1652003849,0
{consumergroup=trace-token-events-consumer},1652003854,0
{consumergroup=trace-token-events-consumer},1652003859,0
{consumergroup=trace-token-events-consumer},1652003864,0
{consumergroup=trace-token-events-consumer},1652003869,0
{consumergroup=trace-token-events-consumer},1652003874,0
{consumergroup=trace-token-events-consumer},1652003879,0
{consumergroup=trace-token-events-consumer},1652003884,0
{consumergroup=trace-token-events-consumer},1652003889,0
{consumergroup=trace-token-events-consumer},1652003894,0
{consumergroup=trace-token-events-consumer},1652003899,0
{consumergroup=trace-token-events-consumer},1652003904,0
{consumergroup=trace-token-events-consumer},1652003909,0
{consumergroup=trace-token-events-consumer},1652003914,0
{consumergroup=trace-token-events-consumer},1652003919,0
{consumergroup=trace-token-events-consumer},1652003924,0
{consumergroup=trace-token-events-consumer},1652003929,0
{consumergroup=trace-token-events-consumer},1652003934,0
{consumergroup=trace-token-events-consumer},1652003939,0
{consumergroup=trace-token-events-consumer},1652003944,0
{consumergroup=trace-token-events-consumer},1652003949,0
{consumergroup=trace-token-events-consumer},1652003954,0
{consumergroup=trace-token-events-consumer},1652003959,0
{consumergroup=trace-token-events-consumer},1652003964,0
{consumergroup=trace-token-events-consumer},1652003969,0
{consumergroup=trace-token-events-consumer},1652003974,0
{consumergroup=trace-token-events-consumer},1652003979,0
{consumergroup=trace-token-events-consumer},1652003984,0
{consumergroup=trace-token-events-consumer},1652003989,0
{consumergroup=trace-token-events-consumer},1652003994,0
{consumergroup=trace-token-events-consumer},1652003999,0
{consumergroup=trace-token-events-consumer},1652004004,0
