labels,timestamp,value
{job=theodolite-stu200776/combined-trace-podmonitor},1652358926,18.27639611061623
{job=theodolite-stu200776/combined-trace-podmonitor},1652358931,18.525046295327794
{job=theodolite-stu200776/combined-trace-podmonitor},1652358936,29.068107408780847
{job=theodolite-stu200776/combined-trace-podmonitor},1652358941,34.96932856870885
{job=theodolite-stu200776/combined-trace-podmonitor},1652358946,159.5417991220834
{job=theodolite-stu200776/combined-trace-podmonitor},1652358951,196.04581684866216
{job=theodolite-stu200776/combined-trace-podmonitor},1652358956,304.8630777849238
{job=theodolite-stu200776/combined-trace-podmonitor},1652358961,301.0532216298591
{job=theodolite-stu200776/combined-trace-podmonitor},1652358966,500.71691438144495
{job=theodolite-stu200776/combined-trace-podmonitor},1652358971,616.4733016332372
{job=theodolite-stu200776/combined-trace-podmonitor},1652358976,777.2228196097022
{job=theodolite-stu200776/combined-trace-podmonitor},1652358981,848.2894366352194
{job=theodolite-stu200776/combined-trace-podmonitor},1652358986,1017.1174653193841
{job=theodolite-stu200776/combined-trace-podmonitor},1652358991,1064.6516985556038
{job=theodolite-stu200776/combined-trace-podmonitor},1652358996,1157.3138188573857
{job=theodolite-stu200776/combined-trace-podmonitor},1652359001,1238.336208377459
{job=theodolite-stu200776/combined-trace-podmonitor},1652359006,1344.0802176551686
{job=theodolite-stu200776/combined-trace-podmonitor},1652359011,1489.7620407217269
{job=theodolite-stu200776/combined-trace-podmonitor},1652359016,1787.8871098176749
{job=theodolite-stu200776/combined-trace-podmonitor},1652359021,1791.8222861057943
{job=theodolite-stu200776/combined-trace-podmonitor},1652359026,1805.0347625571385
{job=theodolite-stu200776/combined-trace-podmonitor},1652359031,1729.5326478513707
{job=theodolite-stu200776/combined-trace-podmonitor},1652359036,1513.6563318551105
{job=theodolite-stu200776/combined-trace-podmonitor},1652359041,1409.0312198975696
{job=theodolite-stu200776/combined-trace-podmonitor},1652359046,1349.0432406902407
{job=theodolite-stu200776/combined-trace-podmonitor},1652359051,1255.13428463153
{job=theodolite-stu200776/combined-trace-podmonitor},1652359056,1053.5907422438308
{job=theodolite-stu200776/combined-trace-podmonitor},1652359061,1058.692817174933
{job=theodolite-stu200776/combined-trace-podmonitor},1652359066,1017.115037800946
{job=theodolite-stu200776/combined-trace-podmonitor},1652359071,916.0600623773541
{job=theodolite-stu200776/combined-trace-podmonitor},1652359076,627.940531881038
{job=theodolite-stu200776/combined-trace-podmonitor},1652359081,585.0286838908034
{job=theodolite-stu200776/combined-trace-podmonitor},1652359086,615.5873517492272
{job=theodolite-stu200776/combined-trace-podmonitor},1652359091,741.1532420460672
{job=theodolite-stu200776/combined-trace-podmonitor},1652359096,888.162165999119
{job=theodolite-stu200776/combined-trace-podmonitor},1652359101,842.7683179522363
{job=theodolite-stu200776/combined-trace-podmonitor},1652359106,787.5603664928783
{job=theodolite-stu200776/combined-trace-podmonitor},1652359111,766.5935201816882
{job=theodolite-stu200776/combined-trace-podmonitor},1652359116,693.2762036802814
{job=theodolite-stu200776/combined-trace-podmonitor},1652359121,633.0147630098415
{job=theodolite-stu200776/combined-trace-podmonitor},1652359126,438.58364509539854
{job=theodolite-stu200776/combined-trace-podmonitor},1652359131,418.1142636936713
{job=theodolite-stu200776/combined-trace-podmonitor},1652359136,362.85075254663303
{job=theodolite-stu200776/combined-trace-podmonitor},1652359141,369.873947498009
{job=theodolite-stu200776/combined-trace-podmonitor},1652359146,375.42836914499065
{job=theodolite-stu200776/combined-trace-podmonitor},1652359151,351.4701047296503
{job=theodolite-stu200776/combined-trace-podmonitor},1652359156,301.7821032929572
{job=theodolite-stu200776/combined-trace-podmonitor},1652359161,290.5986266022517
{job=theodolite-stu200776/combined-trace-podmonitor},1652359166,211.47568619569265
{job=theodolite-stu200776/combined-trace-podmonitor},1652359171,229.4662932091092
{job=theodolite-stu200776/combined-trace-podmonitor},1652359176,278.682795330151
{job=theodolite-stu200776/combined-trace-podmonitor},1652359181,262.69683154041996
{job=theodolite-stu200776/combined-trace-podmonitor},1652359186,189.25691456864558
{job=theodolite-stu200776/combined-trace-podmonitor},1652359191,182.81669651699846
{job=theodolite-stu200776/combined-trace-podmonitor},1652359196,237.08966095943956
{job=theodolite-stu200776/combined-trace-podmonitor},1652359201,276.9993869879136
{job=theodolite-stu200776/combined-trace-podmonitor},1652359206,314.2291863864812
{job=theodolite-stu200776/combined-trace-podmonitor},1652359211,297.00857605295164
{job=theodolite-stu200776/combined-trace-podmonitor},1652359216,274.13706506336604
{job=theodolite-stu200776/combined-trace-podmonitor},1652359221,287.4042532382941
{job=theodolite-stu200776/combined-trace-podmonitor},1652359226,311.5958610270839
{job=theodolite-stu200776/combined-trace-podmonitor},1652359231,269.0198894145596
{job=theodolite-stu200776/combined-trace-podmonitor},1652359236,130.50358059943497
{job=theodolite-stu200776/combined-trace-podmonitor},1652359241,123.93737417815701
{job=theodolite-stu200776/combined-trace-podmonitor},1652359246,144.80777548596217
{job=theodolite-stu200776/combined-trace-podmonitor},1652359251,159.65629109019528
{job=theodolite-stu200776/combined-trace-podmonitor},1652359256,233.39649390336393
{job=theodolite-stu200776/combined-trace-podmonitor},1652359261,246.8983922747617
