labels,timestamp,value
{consumergroup=__strimzi-topic-operator-kstreams},1652358273,8
{consumergroup=__strimzi-topic-operator-kstreams},1652358278,8
{consumergroup=__strimzi-topic-operator-kstreams},1652358283,8
{consumergroup=__strimzi-topic-operator-kstreams},1652358288,0
{consumergroup=__strimzi-topic-operator-kstreams},1652358293,0
{consumergroup=__strimzi-topic-operator-kstreams},1652358298,0
{consumergroup=__strimzi-topic-operator-kstreams},1652358303,0
{consumergroup=__strimzi-topic-operator-kstreams},1652358308,0
{consumergroup=__strimzi-topic-operator-kstreams},1652358313,0
{consumergroup=__strimzi-topic-operator-kstreams},1652358318,0
{consumergroup=__strimzi-topic-operator-kstreams},1652358323,0
{consumergroup=__strimzi-topic-operator-kstreams},1652358328,0
{consumergroup=__strimzi-topic-operator-kstreams},1652358333,3
{consumergroup=__strimzi-topic-operator-kstreams},1652358338,3
{consumergroup=__strimzi-topic-operator-kstreams},1652358343,3
{consumergroup=__strimzi-topic-operator-kstreams},1652358348,3
{consumergroup=__strimzi-topic-operator-kstreams},1652358353,3
{consumergroup=__strimzi-topic-operator-kstreams},1652358358,3
{consumergroup=__strimzi-topic-operator-kstreams},1652358363,0
{consumergroup=__strimzi-topic-operator-kstreams},1652358368,0
{consumergroup=__strimzi-topic-operator-kstreams},1652358373,0
{consumergroup=__strimzi-topic-operator-kstreams},1652358378,0
{consumergroup=__strimzi-topic-operator-kstreams},1652358383,0
{consumergroup=__strimzi-topic-operator-kstreams},1652358388,0
{consumergroup=__strimzi-topic-operator-kstreams},1652358393,0
{consumergroup=__strimzi-topic-operator-kstreams},1652358398,0
{consumergroup=__strimzi-topic-operator-kstreams},1652358403,0
{consumergroup=__strimzi-topic-operator-kstreams},1652358408,0
{consumergroup=__strimzi-topic-operator-kstreams},1652358413,0
{consumergroup=__strimzi-topic-operator-kstreams},1652358418,0
{consumergroup=__strimzi-topic-operator-kstreams},1652358423,0
{consumergroup=__strimzi-topic-operator-kstreams},1652358428,0
{consumergroup=__strimzi-topic-operator-kstreams},1652358433,0
{consumergroup=__strimzi-topic-operator-kstreams},1652358438,0
{consumergroup=__strimzi-topic-operator-kstreams},1652358443,0
{consumergroup=__strimzi-topic-operator-kstreams},1652358448,0
{consumergroup=__strimzi-topic-operator-kstreams},1652358453,0
{consumergroup=__strimzi-topic-operator-kstreams},1652358458,0
{consumergroup=__strimzi-topic-operator-kstreams},1652358463,0
{consumergroup=__strimzi-topic-operator-kstreams},1652358468,0
{consumergroup=__strimzi-topic-operator-kstreams},1652358473,0
{consumergroup=__strimzi-topic-operator-kstreams},1652358478,0
{consumergroup=__strimzi-topic-operator-kstreams},1652358483,0
{consumergroup=__strimzi-topic-operator-kstreams},1652358488,0
{consumergroup=__strimzi-topic-operator-kstreams},1652358493,0
{consumergroup=__strimzi-topic-operator-kstreams},1652358498,0
{consumergroup=__strimzi-topic-operator-kstreams},1652358503,0
{consumergroup=__strimzi-topic-operator-kstreams},1652358508,0
{consumergroup=__strimzi-topic-operator-kstreams},1652358513,0
{consumergroup=__strimzi-topic-operator-kstreams},1652358518,0
{consumergroup=__strimzi-topic-operator-kstreams},1652358523,0
{consumergroup=__strimzi-topic-operator-kstreams},1652358528,0
{consumergroup=__strimzi-topic-operator-kstreams},1652358533,0
{consumergroup=__strimzi-topic-operator-kstreams},1652358538,0
{consumergroup=__strimzi-topic-operator-kstreams},1652358543,0
{consumergroup=__strimzi-topic-operator-kstreams},1652358548,0
{consumergroup=__strimzi-topic-operator-kstreams},1652358553,0
{consumergroup=__strimzi-topic-operator-kstreams},1652358558,0
{consumergroup=__strimzi-topic-operator-kstreams},1652358563,0
{consumergroup=__strimzi-topic-operator-kstreams},1652358568,0
{consumergroup=__strimzi-topic-operator-kstreams},1652358573,0
{consumergroup=__strimzi-topic-operator-kstreams},1652358578,0
{consumergroup=__strimzi-topic-operator-kstreams},1652358583,0
{consumergroup=__strimzi-topic-operator-kstreams},1652358588,0
{consumergroup=__strimzi-topic-operator-kstreams},1652358593,0
{consumergroup=__strimzi-topic-operator-kstreams},1652358598,0
{consumergroup=__strimzi-topic-operator-kstreams},1652358603,0
{consumergroup=__strimzi-topic-operator-kstreams},1652358608,0
{consumergroup=__strimzi-topic-operator-kstreams},1652358613,0
{consumergroup=__strimzi-topic-operator-kstreams},1652358618,0
{consumergroup=__strimzi-topic-operator-kstreams},1652358623,0
{consumergroup=__strimzi-topic-operator-kstreams},1652358628,0
{consumergroup=__strimzi-topic-operator-kstreams},1652358633,0
{consumergroup=__strimzi-topic-operator-kstreams},1652358638,0
{consumergroup=__strimzi-topic-operator-kstreams},1652358643,0
{consumergroup=__strimzi-topic-operator-kstreams},1652358648,0
{consumergroup=__strimzi-topic-operator-kstreams},1652358653,0
{consumergroup=__strimzi-topic-operator-kstreams},1652358658,0
{consumergroup=__strimzi-topic-operator-kstreams},1652358663,0
{consumergroup=__strimzi-topic-operator-kstreams},1652358668,0
{consumergroup=__strimzi-topic-operator-kstreams},1652358673,0
{consumergroup=__strimzi-topic-operator-kstreams},1652358678,0
{consumergroup=__strimzi-topic-operator-kstreams},1652358683,0
{consumergroup=__strimzi-topic-operator-kstreams},1652358688,0
{consumergroup=__strimzi-topic-operator-kstreams},1652358693,0
{consumergroup=__strimzi-topic-operator-kstreams},1652358698,0
{consumergroup=__strimzi-topic-operator-kstreams},1652358703,0
{consumergroup=__strimzi-topic-operator-kstreams},1652358708,0
{consumergroup=__strimzi-topic-operator-kstreams},1652358713,0
{consumergroup=adapter-service},1652358333,7267
{consumergroup=adapter-service},1652358338,7267
{consumergroup=adapter-service},1652358343,7267
{consumergroup=adapter-service},1652358348,14034
{consumergroup=adapter-service},1652358353,14034
{consumergroup=adapter-service},1652358358,14034
{consumergroup=adapter-service},1652358363,31975
{consumergroup=adapter-service},1652358368,31975
{consumergroup=adapter-service},1652358373,31975
{consumergroup=adapter-service},1652358378,50763
{consumergroup=adapter-service},1652358383,50763
{consumergroup=adapter-service},1652358388,50763
{consumergroup=adapter-service},1652358393,66072
{consumergroup=adapter-service},1652358398,66072
{consumergroup=adapter-service},1652358403,66072
{consumergroup=adapter-service},1652358408,33643
{consumergroup=adapter-service},1652358413,33643
{consumergroup=adapter-service},1652358418,33643
{consumergroup=adapter-service},1652358423,22358
{consumergroup=adapter-service},1652358428,22358
{consumergroup=adapter-service},1652358433,22358
{consumergroup=adapter-service},1652358438,17399
{consumergroup=adapter-service},1652358443,17399
{consumergroup=adapter-service},1652358448,17399
{consumergroup=adapter-service},1652358453,14774
{consumergroup=adapter-service},1652358458,14774
{consumergroup=adapter-service},1652358463,14774
{consumergroup=adapter-service},1652358468,10109
{consumergroup=adapter-service},1652358473,10109
{consumergroup=adapter-service},1652358478,10109
{consumergroup=adapter-service},1652358483,1264
{consumergroup=adapter-service},1652358488,1264
{consumergroup=adapter-service},1652358493,1264
{consumergroup=adapter-service},1652358498,1570
{consumergroup=adapter-service},1652358503,1570
{consumergroup=adapter-service},1652358508,1570
{consumergroup=adapter-service},1652358513,5572
{consumergroup=adapter-service},1652358518,5572
{consumergroup=adapter-service},1652358523,5572
{consumergroup=adapter-service},1652358528,3561
{consumergroup=adapter-service},1652358533,3561
{consumergroup=adapter-service},1652358538,3561
{consumergroup=adapter-service},1652358543,3444
{consumergroup=adapter-service},1652358548,3444
{consumergroup=adapter-service},1652358553,3444
{consumergroup=adapter-service},1652358558,2789
{consumergroup=adapter-service},1652358563,2789
{consumergroup=adapter-service},1652358568,2789
{consumergroup=adapter-service},1652358573,4292
{consumergroup=adapter-service},1652358578,4292
{consumergroup=adapter-service},1652358583,4292
{consumergroup=adapter-service},1652358588,3449
{consumergroup=adapter-service},1652358593,3449
{consumergroup=adapter-service},1652358598,3449
{consumergroup=adapter-service},1652358603,3934
{consumergroup=adapter-service},1652358608,3934
{consumergroup=adapter-service},1652358613,3934
{consumergroup=adapter-service},1652358618,4396
{consumergroup=adapter-service},1652358623,4396
{consumergroup=adapter-service},1652358628,4396
{consumergroup=adapter-service},1652358633,3074
{consumergroup=adapter-service},1652358638,3074
{consumergroup=adapter-service},1652358643,3074
{consumergroup=adapter-service},1652358648,4030
{consumergroup=adapter-service},1652358653,4030
{consumergroup=adapter-service},1652358658,4030
{consumergroup=adapter-service},1652358663,4008
{consumergroup=adapter-service},1652358668,4008
{consumergroup=adapter-service},1652358673,4008
{consumergroup=adapter-service},1652358678,3695
{consumergroup=adapter-service},1652358683,3695
{consumergroup=adapter-service},1652358688,3695
{consumergroup=adapter-service},1652358693,2547
{consumergroup=adapter-service},1652358698,2547
{consumergroup=adapter-service},1652358703,2547
{consumergroup=adapter-service},1652358708,2329
{consumergroup=adapter-service},1652358713,2329
{consumergroup=landscape-service},1652358393,18593
{consumergroup=landscape-service},1652358398,18593
{consumergroup=landscape-service},1652358403,18593
{consumergroup=landscape-service},1652358408,76780
{consumergroup=landscape-service},1652358413,76780
{consumergroup=landscape-service},1652358418,76780
{consumergroup=landscape-service},1652358423,49350
{consumergroup=landscape-service},1652358428,49350
{consumergroup=landscape-service},1652358433,49350
{consumergroup=landscape-service},1652358438,3122
{consumergroup=landscape-service},1652358443,3122
{consumergroup=landscape-service},1652358448,3122
{consumergroup=landscape-service},1652358453,4624
{consumergroup=landscape-service},1652358458,4624
{consumergroup=landscape-service},1652358463,4624
{consumergroup=landscape-service},1652358468,8304
{consumergroup=landscape-service},1652358473,8304
{consumergroup=landscape-service},1652358478,8304
{consumergroup=landscape-service},1652358483,3340
{consumergroup=landscape-service},1652358488,3340
{consumergroup=landscape-service},1652358493,3340
{consumergroup=landscape-service},1652358498,3872
{consumergroup=landscape-service},1652358503,3872
{consumergroup=landscape-service},1652358508,3872
{consumergroup=landscape-service},1652358513,2121
{consumergroup=landscape-service},1652358518,2121
{consumergroup=landscape-service},1652358523,2121
{consumergroup=landscape-service},1652358528,3574
{consumergroup=landscape-service},1652358533,3574
{consumergroup=landscape-service},1652358538,3574
{consumergroup=landscape-service},1652358543,1447
{consumergroup=landscape-service},1652358548,1447
{consumergroup=landscape-service},1652358553,1447
{consumergroup=landscape-service},1652358558,3965
{consumergroup=landscape-service},1652358563,3965
{consumergroup=landscape-service},1652358568,3965
{consumergroup=landscape-service},1652358573,850
{consumergroup=landscape-service},1652358578,850
{consumergroup=landscape-service},1652358583,850
{consumergroup=landscape-service},1652358588,2163
{consumergroup=landscape-service},1652358593,2163
{consumergroup=landscape-service},1652358598,2163
{consumergroup=landscape-service},1652358603,825
{consumergroup=landscape-service},1652358608,825
{consumergroup=landscape-service},1652358613,825
{consumergroup=landscape-service},1652358618,1792
{consumergroup=landscape-service},1652358623,1792
{consumergroup=landscape-service},1652358628,1792
{consumergroup=landscape-service},1652358633,233
{consumergroup=landscape-service},1652358638,233
{consumergroup=landscape-service},1652358643,233
{consumergroup=landscape-service},1652358648,1048
{consumergroup=landscape-service},1652358653,1048
{consumergroup=landscape-service},1652358658,1048
{consumergroup=landscape-service},1652358663,4252
{consumergroup=landscape-service},1652358668,4252
{consumergroup=landscape-service},1652358673,4252
{consumergroup=landscape-service},1652358678,1689
{consumergroup=landscape-service},1652358683,1689
{consumergroup=landscape-service},1652358688,1689
{consumergroup=landscape-service},1652358693,5801
{consumergroup=landscape-service},1652358698,5801
{consumergroup=landscape-service},1652358703,5801
{consumergroup=landscape-service},1652358708,1998
{consumergroup=landscape-service},1652358713,1998
{consumergroup=trace-service},1652358348,8344
{consumergroup=trace-service},1652358353,8344
{consumergroup=trace-service},1652358358,8344
{consumergroup=trace-service},1652358363,22230
{consumergroup=trace-service},1652358368,22230
{consumergroup=trace-service},1652358373,22230
{consumergroup=trace-service},1652358378,49391
{consumergroup=trace-service},1652358383,49391
{consumergroup=trace-service},1652358388,49391
{consumergroup=trace-service},1652358393,78266
{consumergroup=trace-service},1652358398,78266
{consumergroup=trace-service},1652358403,78266
{consumergroup=trace-service},1652358408,87801
{consumergroup=trace-service},1652358413,87801
{consumergroup=trace-service},1652358418,87801
{consumergroup=trace-service},1652358423,98414
{consumergroup=trace-service},1652358428,98414
{consumergroup=trace-service},1652358433,98414
{consumergroup=trace-service},1652358438,108007
{consumergroup=trace-service},1652358443,108007
{consumergroup=trace-service},1652358448,108007
{consumergroup=trace-service},1652358453,104906
{consumergroup=trace-service},1652358458,104906
{consumergroup=trace-service},1652358463,104906
{consumergroup=trace-service},1652358468,114826
{consumergroup=trace-service},1652358473,114826
{consumergroup=trace-service},1652358478,114826
{consumergroup=trace-service},1652358483,84103
{consumergroup=trace-service},1652358488,84103
{consumergroup=trace-service},1652358493,84103
{consumergroup=trace-service},1652358498,92162
{consumergroup=trace-service},1652358503,92162
{consumergroup=trace-service},1652358508,92162
{consumergroup=trace-service},1652358513,85317
{consumergroup=trace-service},1652358518,85317
{consumergroup=trace-service},1652358523,85317
{consumergroup=trace-service},1652358528,74963
{consumergroup=trace-service},1652358533,74963
{consumergroup=trace-service},1652358538,74963
{consumergroup=trace-service},1652358543,67735
{consumergroup=trace-service},1652358548,67735
{consumergroup=trace-service},1652358553,67735
{consumergroup=trace-service},1652358558,61550
{consumergroup=trace-service},1652358563,61550
{consumergroup=trace-service},1652358568,61550
{consumergroup=trace-service},1652358573,53014
{consumergroup=trace-service},1652358578,53014
{consumergroup=trace-service},1652358583,53014
{consumergroup=trace-service},1652358588,53301
{consumergroup=trace-service},1652358593,53301
{consumergroup=trace-service},1652358598,53301
{consumergroup=trace-service},1652358603,51666
{consumergroup=trace-service},1652358608,51666
{consumergroup=trace-service},1652358613,51666
{consumergroup=trace-service},1652358618,44345
{consumergroup=trace-service},1652358623,44345
{consumergroup=trace-service},1652358628,44345
{consumergroup=trace-service},1652358633,33685
{consumergroup=trace-service},1652358638,33685
{consumergroup=trace-service},1652358643,33685
{consumergroup=trace-service},1652358648,38724
{consumergroup=trace-service},1652358653,38724
{consumergroup=trace-service},1652358658,38724
{consumergroup=trace-service},1652358663,30254
{consumergroup=trace-service},1652358668,30254
{consumergroup=trace-service},1652358673,30254
{consumergroup=trace-service},1652358678,41775
{consumergroup=trace-service},1652358683,41775
{consumergroup=trace-service},1652358688,41775
{consumergroup=trace-service},1652358693,21648
{consumergroup=trace-service},1652358698,21648
{consumergroup=trace-service},1652358703,21648
{consumergroup=trace-service},1652358708,30954
{consumergroup=trace-service},1652358713,30954
