labels,timestamp,value
{consumergroup=__strimzi-topic-operator-kstreams},1652360501,11
{consumergroup=__strimzi-topic-operator-kstreams},1652360506,11
{consumergroup=__strimzi-topic-operator-kstreams},1652360511,11
{consumergroup=__strimzi-topic-operator-kstreams},1652360516,0
{consumergroup=__strimzi-topic-operator-kstreams},1652360521,0
{consumergroup=__strimzi-topic-operator-kstreams},1652360526,0
{consumergroup=__strimzi-topic-operator-kstreams},1652360531,0
{consumergroup=__strimzi-topic-operator-kstreams},1652360536,0
{consumergroup=__strimzi-topic-operator-kstreams},1652360541,0
{consumergroup=__strimzi-topic-operator-kstreams},1652360546,0
{consumergroup=__strimzi-topic-operator-kstreams},1652360551,0
{consumergroup=__strimzi-topic-operator-kstreams},1652360556,0
{consumergroup=__strimzi-topic-operator-kstreams},1652360561,0
{consumergroup=__strimzi-topic-operator-kstreams},1652360566,0
{consumergroup=__strimzi-topic-operator-kstreams},1652360571,0
{consumergroup=__strimzi-topic-operator-kstreams},1652360576,0
{consumergroup=__strimzi-topic-operator-kstreams},1652360581,0
{consumergroup=__strimzi-topic-operator-kstreams},1652360586,0
{consumergroup=__strimzi-topic-operator-kstreams},1652360591,0
{consumergroup=__strimzi-topic-operator-kstreams},1652360596,0
{consumergroup=__strimzi-topic-operator-kstreams},1652360601,0
{consumergroup=__strimzi-topic-operator-kstreams},1652360606,0
{consumergroup=__strimzi-topic-operator-kstreams},1652360611,0
{consumergroup=__strimzi-topic-operator-kstreams},1652360616,0
{consumergroup=__strimzi-topic-operator-kstreams},1652360621,1
{consumergroup=__strimzi-topic-operator-kstreams},1652360626,1
{consumergroup=__strimzi-topic-operator-kstreams},1652360631,1
{consumergroup=__strimzi-topic-operator-kstreams},1652360636,0
{consumergroup=__strimzi-topic-operator-kstreams},1652360641,0
{consumergroup=__strimzi-topic-operator-kstreams},1652360646,0
{consumergroup=__strimzi-topic-operator-kstreams},1652360651,0
{consumergroup=__strimzi-topic-operator-kstreams},1652360656,0
{consumergroup=__strimzi-topic-operator-kstreams},1652360661,0
{consumergroup=__strimzi-topic-operator-kstreams},1652360666,0
{consumergroup=__strimzi-topic-operator-kstreams},1652360671,0
{consumergroup=__strimzi-topic-operator-kstreams},1652360676,0
{consumergroup=__strimzi-topic-operator-kstreams},1652360681,0
{consumergroup=__strimzi-topic-operator-kstreams},1652360686,0
{consumergroup=__strimzi-topic-operator-kstreams},1652360691,0
{consumergroup=__strimzi-topic-operator-kstreams},1652360696,0
{consumergroup=__strimzi-topic-operator-kstreams},1652360701,0
{consumergroup=__strimzi-topic-operator-kstreams},1652360706,0
{consumergroup=__strimzi-topic-operator-kstreams},1652360711,0
{consumergroup=__strimzi-topic-operator-kstreams},1652360716,0
{consumergroup=__strimzi-topic-operator-kstreams},1652360721,0
{consumergroup=__strimzi-topic-operator-kstreams},1652360726,0
{consumergroup=__strimzi-topic-operator-kstreams},1652360731,0
{consumergroup=__strimzi-topic-operator-kstreams},1652360736,0
{consumergroup=__strimzi-topic-operator-kstreams},1652360741,0
{consumergroup=__strimzi-topic-operator-kstreams},1652360746,0
{consumergroup=__strimzi-topic-operator-kstreams},1652360751,0
{consumergroup=__strimzi-topic-operator-kstreams},1652360756,0
{consumergroup=__strimzi-topic-operator-kstreams},1652360761,0
{consumergroup=__strimzi-topic-operator-kstreams},1652360766,0
{consumergroup=__strimzi-topic-operator-kstreams},1652360771,0
{consumergroup=__strimzi-topic-operator-kstreams},1652360776,0
{consumergroup=__strimzi-topic-operator-kstreams},1652360781,0
{consumergroup=__strimzi-topic-operator-kstreams},1652360786,0
{consumergroup=__strimzi-topic-operator-kstreams},1652360791,0
{consumergroup=__strimzi-topic-operator-kstreams},1652360796,0
{consumergroup=__strimzi-topic-operator-kstreams},1652360801,0
{consumergroup=__strimzi-topic-operator-kstreams},1652360806,0
{consumergroup=__strimzi-topic-operator-kstreams},1652360811,0
{consumergroup=__strimzi-topic-operator-kstreams},1652360816,0
{consumergroup=__strimzi-topic-operator-kstreams},1652360821,0
{consumergroup=__strimzi-topic-operator-kstreams},1652360826,0
{consumergroup=__strimzi-topic-operator-kstreams},1652360831,0
{consumergroup=__strimzi-topic-operator-kstreams},1652360836,0
{consumergroup=__strimzi-topic-operator-kstreams},1652360841,0
{consumergroup=__strimzi-topic-operator-kstreams},1652360846,0
{consumergroup=__strimzi-topic-operator-kstreams},1652360851,0
{consumergroup=__strimzi-topic-operator-kstreams},1652360856,0
{consumergroup=__strimzi-topic-operator-kstreams},1652360861,0
{consumergroup=__strimzi-topic-operator-kstreams},1652360866,0
{consumergroup=__strimzi-topic-operator-kstreams},1652360871,0
{consumergroup=__strimzi-topic-operator-kstreams},1652360876,0
{consumergroup=__strimzi-topic-operator-kstreams},1652360881,0
{consumergroup=__strimzi-topic-operator-kstreams},1652360886,0
{consumergroup=__strimzi-topic-operator-kstreams},1652360891,0
{consumergroup=__strimzi-topic-operator-kstreams},1652360896,0
{consumergroup=__strimzi-topic-operator-kstreams},1652360901,0
{consumergroup=__strimzi-topic-operator-kstreams},1652360906,0
{consumergroup=__strimzi-topic-operator-kstreams},1652360911,0
{consumergroup=__strimzi-topic-operator-kstreams},1652360916,0
{consumergroup=__strimzi-topic-operator-kstreams},1652360921,0
{consumergroup=__strimzi-topic-operator-kstreams},1652360926,0
{consumergroup=__strimzi-topic-operator-kstreams},1652360931,0
{consumergroup=__strimzi-topic-operator-kstreams},1652360936,0
{consumergroup=__strimzi-topic-operator-kstreams},1652360941,0
{consumergroup=adapter-service},1652360561,5704
{consumergroup=adapter-service},1652360566,5704
{consumergroup=adapter-service},1652360571,5704
{consumergroup=adapter-service},1652360576,4609
{consumergroup=adapter-service},1652360581,4609
{consumergroup=adapter-service},1652360586,4609
{consumergroup=adapter-service},1652360591,13018
{consumergroup=adapter-service},1652360596,13018
{consumergroup=adapter-service},1652360601,13018
{consumergroup=adapter-service},1652360606,21628
{consumergroup=adapter-service},1652360611,21628
{consumergroup=adapter-service},1652360616,21628
{consumergroup=adapter-service},1652360621,16889
{consumergroup=adapter-service},1652360626,16889
{consumergroup=adapter-service},1652360631,16889
{consumergroup=adapter-service},1652360636,2395
{consumergroup=adapter-service},1652360641,2395
{consumergroup=adapter-service},1652360646,2395
{consumergroup=adapter-service},1652360651,1093
{consumergroup=adapter-service},1652360656,1093
{consumergroup=adapter-service},1652360661,1093
{consumergroup=adapter-service},1652360666,1209
{consumergroup=adapter-service},1652360671,1209
{consumergroup=adapter-service},1652360676,1209
{consumergroup=adapter-service},1652360681,1011
{consumergroup=adapter-service},1652360686,1011
{consumergroup=adapter-service},1652360691,1011
{consumergroup=adapter-service},1652360696,1528
{consumergroup=adapter-service},1652360701,1528
{consumergroup=adapter-service},1652360706,1528
{consumergroup=adapter-service},1652360711,1227
{consumergroup=adapter-service},1652360716,1227
{consumergroup=adapter-service},1652360721,1227
{consumergroup=adapter-service},1652360726,1028
{consumergroup=adapter-service},1652360731,1028
{consumergroup=adapter-service},1652360736,1028
{consumergroup=adapter-service},1652360741,1140
{consumergroup=adapter-service},1652360746,1140
{consumergroup=adapter-service},1652360751,1140
{consumergroup=adapter-service},1652360756,972
{consumergroup=adapter-service},1652360761,972
{consumergroup=adapter-service},1652360766,972
{consumergroup=adapter-service},1652360771,787
{consumergroup=adapter-service},1652360776,787
{consumergroup=adapter-service},1652360781,787
{consumergroup=adapter-service},1652360786,2041
{consumergroup=adapter-service},1652360791,2041
{consumergroup=adapter-service},1652360796,2041
{consumergroup=adapter-service},1652360801,1671
{consumergroup=adapter-service},1652360806,1671
{consumergroup=adapter-service},1652360811,1671
{consumergroup=adapter-service},1652360816,1507
{consumergroup=adapter-service},1652360821,1507
{consumergroup=adapter-service},1652360826,1507
{consumergroup=adapter-service},1652360831,1245
{consumergroup=adapter-service},1652360836,1245
{consumergroup=adapter-service},1652360841,1245
{consumergroup=adapter-service},1652360846,1528
{consumergroup=adapter-service},1652360851,1528
{consumergroup=adapter-service},1652360856,1528
{consumergroup=adapter-service},1652360861,1507
{consumergroup=adapter-service},1652360866,1507
{consumergroup=adapter-service},1652360871,1507
{consumergroup=adapter-service},1652360876,1664
{consumergroup=adapter-service},1652360881,1664
{consumergroup=adapter-service},1652360886,1664
{consumergroup=adapter-service},1652360891,2077
{consumergroup=adapter-service},1652360896,2077
{consumergroup=adapter-service},1652360901,2077
{consumergroup=adapter-service},1652360906,1915
{consumergroup=adapter-service},1652360911,1915
{consumergroup=adapter-service},1652360916,1915
{consumergroup=adapter-service},1652360921,1706
{consumergroup=adapter-service},1652360926,1706
{consumergroup=adapter-service},1652360931,1706
{consumergroup=adapter-service},1652360936,1371
{consumergroup=adapter-service},1652360941,1371
{consumergroup=landscape-service},1652360636,29584
{consumergroup=landscape-service},1652360641,29584
{consumergroup=landscape-service},1652360646,29584
{consumergroup=landscape-service},1652360651,1745
{consumergroup=landscape-service},1652360656,1745
{consumergroup=landscape-service},1652360661,1745
{consumergroup=landscape-service},1652360666,1210
{consumergroup=landscape-service},1652360671,1210
{consumergroup=landscape-service},1652360676,1210
{consumergroup=landscape-service},1652360681,913
{consumergroup=landscape-service},1652360686,913
{consumergroup=landscape-service},1652360691,913
{consumergroup=landscape-service},1652360696,1903
{consumergroup=landscape-service},1652360701,1903
{consumergroup=landscape-service},1652360706,1903
{consumergroup=landscape-service},1652360711,1593
{consumergroup=landscape-service},1652360716,1593
{consumergroup=landscape-service},1652360721,1593
{consumergroup=landscape-service},1652360726,1520
{consumergroup=landscape-service},1652360731,1520
{consumergroup=landscape-service},1652360736,1520
{consumergroup=landscape-service},1652360741,1271
{consumergroup=landscape-service},1652360746,1271
{consumergroup=landscape-service},1652360751,1271
{consumergroup=landscape-service},1652360756,1293
{consumergroup=landscape-service},1652360761,1293
{consumergroup=landscape-service},1652360766,1293
{consumergroup=landscape-service},1652360771,1055
{consumergroup=landscape-service},1652360776,1055
{consumergroup=landscape-service},1652360781,1055
{consumergroup=landscape-service},1652360786,1906
{consumergroup=landscape-service},1652360791,1906
{consumergroup=landscape-service},1652360796,1906
{consumergroup=landscape-service},1652360801,1761
{consumergroup=landscape-service},1652360806,1761
{consumergroup=landscape-service},1652360811,1761
{consumergroup=landscape-service},1652360816,1637
{consumergroup=landscape-service},1652360821,1637
{consumergroup=landscape-service},1652360826,1637
{consumergroup=landscape-service},1652360831,1625
{consumergroup=landscape-service},1652360836,1625
{consumergroup=landscape-service},1652360841,1625
{consumergroup=landscape-service},1652360846,1604
{consumergroup=landscape-service},1652360851,1604
{consumergroup=landscape-service},1652360856,1604
{consumergroup=landscape-service},1652360861,1162
{consumergroup=landscape-service},1652360866,1162
{consumergroup=landscape-service},1652360871,1162
{consumergroup=landscape-service},1652360876,1448
{consumergroup=landscape-service},1652360881,1448
{consumergroup=landscape-service},1652360886,1448
{consumergroup=landscape-service},1652360891,1184
{consumergroup=landscape-service},1652360896,1184
{consumergroup=landscape-service},1652360901,1184
{consumergroup=landscape-service},1652360906,1115
{consumergroup=landscape-service},1652360911,1115
{consumergroup=landscape-service},1652360916,1115
{consumergroup=landscape-service},1652360921,1638
{consumergroup=landscape-service},1652360926,1638
{consumergroup=landscape-service},1652360931,1638
{consumergroup=landscape-service},1652360936,977
{consumergroup=landscape-service},1652360941,977
{consumergroup=trace-service},1652360591,5053
{consumergroup=trace-service},1652360596,5053
{consumergroup=trace-service},1652360601,5053
{consumergroup=trace-service},1652360606,11066
{consumergroup=trace-service},1652360611,11066
{consumergroup=trace-service},1652360616,11066
{consumergroup=trace-service},1652360621,17131
{consumergroup=trace-service},1652360626,17131
{consumergroup=trace-service},1652360631,17131
{consumergroup=trace-service},1652360636,33429
{consumergroup=trace-service},1652360641,33429
{consumergroup=trace-service},1652360646,33429
{consumergroup=trace-service},1652360651,55760
{consumergroup=trace-service},1652360656,55760
{consumergroup=trace-service},1652360661,55760
{consumergroup=trace-service},1652360666,49056
{consumergroup=trace-service},1652360671,49056
{consumergroup=trace-service},1652360676,49056
{consumergroup=trace-service},1652360681,48866
{consumergroup=trace-service},1652360686,48866
{consumergroup=trace-service},1652360691,48866
{consumergroup=trace-service},1652360696,41625
{consumergroup=trace-service},1652360701,41625
{consumergroup=trace-service},1652360706,41625
{consumergroup=trace-service},1652360711,26064
{consumergroup=trace-service},1652360716,26064
{consumergroup=trace-service},1652360721,26064
{consumergroup=trace-service},1652360726,26230
{consumergroup=trace-service},1652360731,26230
{consumergroup=trace-service},1652360736,26230
{consumergroup=trace-service},1652360741,24891
{consumergroup=trace-service},1652360746,24891
{consumergroup=trace-service},1652360751,24891
{consumergroup=trace-service},1652360756,18960
{consumergroup=trace-service},1652360761,18960
{consumergroup=trace-service},1652360766,18960
{consumergroup=trace-service},1652360771,16101
{consumergroup=trace-service},1652360776,16101
{consumergroup=trace-service},1652360781,16101
{consumergroup=trace-service},1652360786,13304
{consumergroup=trace-service},1652360791,13304
{consumergroup=trace-service},1652360796,13304
{consumergroup=trace-service},1652360801,13198
{consumergroup=trace-service},1652360806,13198
{consumergroup=trace-service},1652360811,13198
{consumergroup=trace-service},1652360816,10661
{consumergroup=trace-service},1652360821,10661
{consumergroup=trace-service},1652360826,10661
{consumergroup=trace-service},1652360831,10667
{consumergroup=trace-service},1652360836,10667
{consumergroup=trace-service},1652360841,10667
{consumergroup=trace-service},1652360846,7399
{consumergroup=trace-service},1652360851,7399
{consumergroup=trace-service},1652360856,7399
{consumergroup=trace-service},1652360861,8139
{consumergroup=trace-service},1652360866,8139
{consumergroup=trace-service},1652360871,8139
{consumergroup=trace-service},1652360876,8064
{consumergroup=trace-service},1652360881,8064
{consumergroup=trace-service},1652360886,8064
{consumergroup=trace-service},1652360891,7626
{consumergroup=trace-service},1652360896,7626
{consumergroup=trace-service},1652360901,7626
{consumergroup=trace-service},1652360906,3589
{consumergroup=trace-service},1652360911,3589
{consumergroup=trace-service},1652360916,3589
{consumergroup=trace-service},1652360921,8111
{consumergroup=trace-service},1652360926,8111
{consumergroup=trace-service},1652360931,8111
{consumergroup=trace-service},1652360936,6153
{consumergroup=trace-service},1652360941,6153
