labels,timestamp,value
{job=theodolite-stu200776/combined-trace-podmonitor},1652370085,3.724256877501274
{job=theodolite-stu200776/combined-trace-podmonitor},1652370090,7.588615916390183
{job=theodolite-stu200776/combined-trace-podmonitor},1652370095,25.805151354397907
{job=theodolite-stu200776/combined-trace-podmonitor},1652370100,35.48124765154
{job=theodolite-stu200776/combined-trace-podmonitor},1652370105,39.83981824184131
{job=theodolite-stu200776/combined-trace-podmonitor},1652370110,87.07881782380693
{job=theodolite-stu200776/combined-trace-podmonitor},1652370115,588.5475579498834
{job=theodolite-stu200776/combined-trace-podmonitor},1652370120,810.0751441636097
{job=theodolite-stu200776/combined-trace-podmonitor},1652370125,1142.2169860318706
{job=theodolite-stu200776/combined-trace-podmonitor},1652370130,1380.4504576207223
{job=theodolite-stu200776/combined-trace-podmonitor},1652370135,1519.5144990619124
{job=theodolite-stu200776/combined-trace-podmonitor},1652370140,1648.4848436753487
{job=theodolite-stu200776/combined-trace-podmonitor},1652370145,2195.158116282806
{job=theodolite-stu200776/combined-trace-podmonitor},1652370150,2215.704887735366
{job=theodolite-stu200776/combined-trace-podmonitor},1652370155,1942.50764278705
{job=theodolite-stu200776/combined-trace-podmonitor},1652370160,1826.7694064295051
{job=theodolite-stu200776/combined-trace-podmonitor},1652370165,1594.7368165886314
{job=theodolite-stu200776/combined-trace-podmonitor},1652370170,1346.2643146697847
{job=theodolite-stu200776/combined-trace-podmonitor},1652370175,467.74166616758384
{job=theodolite-stu200776/combined-trace-podmonitor},1652370180,216.6851205809223
{job=theodolite-stu200776/combined-trace-podmonitor},1652370185,121.64039977156398
{job=theodolite-stu200776/combined-trace-podmonitor},1652370190,104.10835460006601
{job=theodolite-stu200776/combined-trace-podmonitor},1652370195,91.71145002722677
{job=theodolite-stu200776/combined-trace-podmonitor},1652370200,63.048982453623616
{job=theodolite-stu200776/combined-trace-podmonitor},1652370205,22.45770548437768
{job=theodolite-stu200776/combined-trace-podmonitor},1652370210,20.918041786307207
{job=theodolite-stu200776/combined-trace-podmonitor},1652370215,9.608349334097676
{job=theodolite-stu200776/combined-trace-podmonitor},1652370220,2.552180853751723
{job=theodolite-stu200776/combined-trace-podmonitor},1652370225,0
{job=theodolite-stu200776/combined-trace-podmonitor},1652370230,0
{job=theodolite-stu200776/combined-trace-podmonitor},1652370235,0
{job=theodolite-stu200776/combined-trace-podmonitor},1652370240,0
{job=theodolite-stu200776/combined-trace-podmonitor},1652370245,0
{job=theodolite-stu200776/combined-trace-podmonitor},1652370250,0
{job=theodolite-stu200776/combined-trace-podmonitor},1652370255,0
{job=theodolite-stu200776/combined-trace-podmonitor},1652370260,0
{job=theodolite-stu200776/combined-trace-podmonitor},1652370265,0
{job=theodolite-stu200776/combined-trace-podmonitor},1652370270,0
{job=theodolite-stu200776/combined-trace-podmonitor},1652370275,0
{job=theodolite-stu200776/combined-trace-podmonitor},1652370280,0
{job=theodolite-stu200776/combined-trace-podmonitor},1652370285,0
{job=theodolite-stu200776/combined-trace-podmonitor},1652370290,0
{job=theodolite-stu200776/combined-trace-podmonitor},1652370295,0
{job=theodolite-stu200776/combined-trace-podmonitor},1652370300,0
{job=theodolite-stu200776/combined-trace-podmonitor},1652370305,0
{job=theodolite-stu200776/combined-trace-podmonitor},1652370310,0
{job=theodolite-stu200776/combined-trace-podmonitor},1652370315,0
{job=theodolite-stu200776/combined-trace-podmonitor},1652370320,0
{job=theodolite-stu200776/combined-trace-podmonitor},1652370325,0
{job=theodolite-stu200776/combined-trace-podmonitor},1652370330,0
{job=theodolite-stu200776/combined-trace-podmonitor},1652370335,0
{job=theodolite-stu200776/combined-trace-podmonitor},1652370340,0
{job=theodolite-stu200776/combined-trace-podmonitor},1652370345,0
{job=theodolite-stu200776/combined-trace-podmonitor},1652370350,0
{job=theodolite-stu200776/combined-trace-podmonitor},1652370355,0
{job=theodolite-stu200776/combined-trace-podmonitor},1652370360,0
{job=theodolite-stu200776/combined-trace-podmonitor},1652370365,0
{job=theodolite-stu200776/combined-trace-podmonitor},1652370370,0
{job=theodolite-stu200776/combined-trace-podmonitor},1652370375,0
{job=theodolite-stu200776/combined-trace-podmonitor},1652370380,0
{job=theodolite-stu200776/combined-trace-podmonitor},1652370385,0
{job=theodolite-stu200776/combined-trace-podmonitor},1652370390,0
{job=theodolite-stu200776/combined-trace-podmonitor},1652370395,0
{job=theodolite-stu200776/combined-trace-podmonitor},1652370400,0
{job=theodolite-stu200776/combined-trace-podmonitor},1652370405,0
{job=theodolite-stu200776/combined-trace-podmonitor},1652370410,0
{job=theodolite-stu200776/combined-trace-podmonitor},1652370415,0
{job=theodolite-stu200776/combined-trace-podmonitor},1652370420,0
{job=theodolite-stu200776/combined-trace-podmonitor},1652370425,0
{job=theodolite-stu200776/combined-trace-podmonitor},1652370430,0
{job=theodolite-stu200776/combined-trace-podmonitor},1652370435,0
{job=theodolite-stu200776/combined-trace-podmonitor},1652370440,0
{job=theodolite-stu200776/combined-trace-podmonitor},1652370445,0
{job=theodolite-stu200776/combined-trace-podmonitor},1652370450,0
