labels,timestamp,value
{job=theodolite-stu200776/combined-trace-podmonitor},1652367907,91.89730214154326
{job=theodolite-stu200776/combined-trace-podmonitor},1652367912,91.89730214154326
{job=theodolite-stu200776/combined-trace-podmonitor},1652367917,818.0155561130276
{job=theodolite-stu200776/combined-trace-podmonitor},1652367922,1288.6009662103459
{job=theodolite-stu200776/combined-trace-podmonitor},1652367927,1304.609522020687
{job=theodolite-stu200776/combined-trace-podmonitor},1652367932,1253.3346224207148
{job=theodolite-stu200776/combined-trace-podmonitor},1652367937,1569.2790346839263
{job=theodolite-stu200776/combined-trace-podmonitor},1652367942,1897.267912412249
{job=theodolite-stu200776/combined-trace-podmonitor},1652367947,2045.4008940641847
{job=theodolite-stu200776/combined-trace-podmonitor},1652367952,1885.2403466536318
{job=theodolite-stu200776/combined-trace-podmonitor},1652367957,1568.086846790903
{job=theodolite-stu200776/combined-trace-podmonitor},1652367962,1457.679204836974
{job=theodolite-stu200776/combined-trace-podmonitor},1652367967,1250.6155371458249
{job=theodolite-stu200776/combined-trace-podmonitor},1652367972,879.620218837936
{job=theodolite-stu200776/combined-trace-podmonitor},1652367977,516.728630280418
{job=theodolite-stu200776/combined-trace-podmonitor},1652367982,597.6846829306593
{job=theodolite-stu200776/combined-trace-podmonitor},1652367987,566.983653656186
{job=theodolite-stu200776/combined-trace-podmonitor},1652367992,567.8064810102851
{job=theodolite-stu200776/combined-trace-podmonitor},1652367997,567.9990876625067
{job=theodolite-stu200776/combined-trace-podmonitor},1652368002,562.1317827104782
{job=theodolite-stu200776/combined-trace-podmonitor},1652368007,543.0223592890268
{job=theodolite-stu200776/combined-trace-podmonitor},1652368012,462.2042506738739
{job=theodolite-stu200776/combined-trace-podmonitor},1652368017,359.14930963884734
{job=theodolite-stu200776/combined-trace-podmonitor},1652368022,302.63413707807854
{job=theodolite-stu200776/combined-trace-podmonitor},1652368027,145.09723083766738
{job=theodolite-stu200776/combined-trace-podmonitor},1652368032,100.78305640798057
{job=theodolite-stu200776/combined-trace-podmonitor},1652368037,0.3845563375018125
{job=theodolite-stu200776/combined-trace-podmonitor},1652368042,0.3845563375018125
{job=theodolite-stu200776/combined-trace-podmonitor},1652368047,0
{job=theodolite-stu200776/combined-trace-podmonitor},1652368052,0
{job=theodolite-stu200776/combined-trace-podmonitor},1652368057,0
{job=theodolite-stu200776/combined-trace-podmonitor},1652368062,0
{job=theodolite-stu200776/combined-trace-podmonitor},1652368067,0
{job=theodolite-stu200776/combined-trace-podmonitor},1652368072,0
{job=theodolite-stu200776/combined-trace-podmonitor},1652368077,0
{job=theodolite-stu200776/combined-trace-podmonitor},1652368082,0
{job=theodolite-stu200776/combined-trace-podmonitor},1652368087,0
{job=theodolite-stu200776/combined-trace-podmonitor},1652368092,0
{job=theodolite-stu200776/combined-trace-podmonitor},1652368097,0
{job=theodolite-stu200776/combined-trace-podmonitor},1652368102,0
{job=theodolite-stu200776/combined-trace-podmonitor},1652368107,0
{job=theodolite-stu200776/combined-trace-podmonitor},1652368112,0
{job=theodolite-stu200776/combined-trace-podmonitor},1652368117,0
{job=theodolite-stu200776/combined-trace-podmonitor},1652368122,0
{job=theodolite-stu200776/combined-trace-podmonitor},1652368127,0
{job=theodolite-stu200776/combined-trace-podmonitor},1652368132,0
{job=theodolite-stu200776/combined-trace-podmonitor},1652368137,0
{job=theodolite-stu200776/combined-trace-podmonitor},1652368142,0
{job=theodolite-stu200776/combined-trace-podmonitor},1652368147,0
{job=theodolite-stu200776/combined-trace-podmonitor},1652368152,0
{job=theodolite-stu200776/combined-trace-podmonitor},1652368157,0
{job=theodolite-stu200776/combined-trace-podmonitor},1652368162,0
{job=theodolite-stu200776/combined-trace-podmonitor},1652368167,0
{job=theodolite-stu200776/combined-trace-podmonitor},1652368172,0
{job=theodolite-stu200776/combined-trace-podmonitor},1652368177,0
{job=theodolite-stu200776/combined-trace-podmonitor},1652368182,0
{job=theodolite-stu200776/combined-trace-podmonitor},1652368187,0
{job=theodolite-stu200776/combined-trace-podmonitor},1652368192,0
{job=theodolite-stu200776/combined-trace-podmonitor},1652368197,0
{job=theodolite-stu200776/combined-trace-podmonitor},1652368202,0
{job=theodolite-stu200776/combined-trace-podmonitor},1652368207,0
{job=theodolite-stu200776/combined-trace-podmonitor},1652368212,0
{job=theodolite-stu200776/combined-trace-podmonitor},1652368217,0
{job=theodolite-stu200776/combined-trace-podmonitor},1652368222,0
{job=theodolite-stu200776/combined-trace-podmonitor},1652368227,0
{job=theodolite-stu200776/combined-trace-podmonitor},1652368232,0
{job=theodolite-stu200776/combined-trace-podmonitor},1652368237,0
{job=theodolite-stu200776/combined-trace-podmonitor},1652368242,0
{job=theodolite-stu200776/combined-trace-podmonitor},1652368247,0
{job=theodolite-stu200776/combined-trace-podmonitor},1652368252,0
{job=theodolite-stu200776/combined-trace-podmonitor},1652368257,0
{job=theodolite-stu200776/combined-trace-podmonitor},1652368262,0
{job=theodolite-stu200776/combined-trace-podmonitor},1652368267,0
