labels,timestamp,value
{job=theodolite-stu200776/combined-trace-podmonitor},1652372327,3.3166464808951566
{job=theodolite-stu200776/combined-trace-podmonitor},1652372332,15.567048033074148
{job=theodolite-stu200776/combined-trace-podmonitor},1652372337,26.04673298633085
{job=theodolite-stu200776/combined-trace-podmonitor},1652372342,29.308556497174468
{job=theodolite-stu200776/combined-trace-podmonitor},1652372347,33.152526128910594
{job=theodolite-stu200776/combined-trace-podmonitor},1652372352,76.1747521929999
{job=theodolite-stu200776/combined-trace-podmonitor},1652372357,200.73365920861227
{job=theodolite-stu200776/combined-trace-podmonitor},1652372362,497.42737801930775
{job=theodolite-stu200776/combined-trace-podmonitor},1652372367,687.4257056101784
{job=theodolite-stu200776/combined-trace-podmonitor},1652372372,883.5650294853486
{job=theodolite-stu200776/combined-trace-podmonitor},1652372377,1016.4668269455077
{job=theodolite-stu200776/combined-trace-podmonitor},1652372382,1174.6869252639606
{job=theodolite-stu200776/combined-trace-podmonitor},1652372387,1350.600204229237
{job=theodolite-stu200776/combined-trace-podmonitor},1652372392,1465.0782923065567
{job=theodolite-stu200776/combined-trace-podmonitor},1652372397,1412.1148330061658
{job=theodolite-stu200776/combined-trace-podmonitor},1652372402,1342.2267921329178
{job=theodolite-stu200776/combined-trace-podmonitor},1652372407,1306.3266998229612
{job=theodolite-stu200776/combined-trace-podmonitor},1652372412,1065.187167953596
{job=theodolite-stu200776/combined-trace-podmonitor},1652372417,748.7599059090697
{job=theodolite-stu200776/combined-trace-podmonitor},1652372422,397.6331494483338
{job=theodolite-stu200776/combined-trace-podmonitor},1652372427,287.620057209063
{job=theodolite-stu200776/combined-trace-podmonitor},1652372432,147.43411399542813
{job=theodolite-stu200776/combined-trace-podmonitor},1652372437,38.49645628556812
{job=theodolite-stu200776/combined-trace-podmonitor},1652372442,34.413910673502194
{job=theodolite-stu200776/combined-trace-podmonitor},1652372447,28.59558532439335
{job=theodolite-stu200776/combined-trace-podmonitor},1652372452,14.877616685888988
{job=theodolite-stu200776/combined-trace-podmonitor},1652372457,3.9248935411961705
{job=theodolite-stu200776/combined-trace-podmonitor},1652372462,0
{job=theodolite-stu200776/combined-trace-podmonitor},1652372467,0
{job=theodolite-stu200776/combined-trace-podmonitor},1652372472,0
{job=theodolite-stu200776/combined-trace-podmonitor},1652372477,0
{job=theodolite-stu200776/combined-trace-podmonitor},1652372482,0
{job=theodolite-stu200776/combined-trace-podmonitor},1652372487,0
{job=theodolite-stu200776/combined-trace-podmonitor},1652372492,0
{job=theodolite-stu200776/combined-trace-podmonitor},1652372497,0
{job=theodolite-stu200776/combined-trace-podmonitor},1652372502,0
{job=theodolite-stu200776/combined-trace-podmonitor},1652372507,0
{job=theodolite-stu200776/combined-trace-podmonitor},1652372512,0
{job=theodolite-stu200776/combined-trace-podmonitor},1652372517,0
{job=theodolite-stu200776/combined-trace-podmonitor},1652372522,0
{job=theodolite-stu200776/combined-trace-podmonitor},1652372527,0
{job=theodolite-stu200776/combined-trace-podmonitor},1652372532,0
{job=theodolite-stu200776/combined-trace-podmonitor},1652372537,0
{job=theodolite-stu200776/combined-trace-podmonitor},1652372542,0
{job=theodolite-stu200776/combined-trace-podmonitor},1652372547,0
{job=theodolite-stu200776/combined-trace-podmonitor},1652372552,0
{job=theodolite-stu200776/combined-trace-podmonitor},1652372557,0
{job=theodolite-stu200776/combined-trace-podmonitor},1652372562,0
{job=theodolite-stu200776/combined-trace-podmonitor},1652372567,0
{job=theodolite-stu200776/combined-trace-podmonitor},1652372572,0
{job=theodolite-stu200776/combined-trace-podmonitor},1652372577,0
{job=theodolite-stu200776/combined-trace-podmonitor},1652372582,0
{job=theodolite-stu200776/combined-trace-podmonitor},1652372587,0
{job=theodolite-stu200776/combined-trace-podmonitor},1652372592,0
{job=theodolite-stu200776/combined-trace-podmonitor},1652372597,0
{job=theodolite-stu200776/combined-trace-podmonitor},1652372602,0
{job=theodolite-stu200776/combined-trace-podmonitor},1652372607,0
{job=theodolite-stu200776/combined-trace-podmonitor},1652372612,0
{job=theodolite-stu200776/combined-trace-podmonitor},1652372617,0
{job=theodolite-stu200776/combined-trace-podmonitor},1652372622,0
{job=theodolite-stu200776/combined-trace-podmonitor},1652372627,0
{job=theodolite-stu200776/combined-trace-podmonitor},1652372632,0
{job=theodolite-stu200776/combined-trace-podmonitor},1652372637,0
{job=theodolite-stu200776/combined-trace-podmonitor},1652372642,0
{job=theodolite-stu200776/combined-trace-podmonitor},1652372647,0
{job=theodolite-stu200776/combined-trace-podmonitor},1652372652,0
{job=theodolite-stu200776/combined-trace-podmonitor},1652372657,0
{job=theodolite-stu200776/combined-trace-podmonitor},1652372662,0
{job=theodolite-stu200776/combined-trace-podmonitor},1652372667,0
{job=theodolite-stu200776/combined-trace-podmonitor},1652372672,0
{job=theodolite-stu200776/combined-trace-podmonitor},1652372677,0
{job=theodolite-stu200776/combined-trace-podmonitor},1652372682,0
{job=theodolite-stu200776/combined-trace-podmonitor},1652372687,0
