labels,timestamp,value
{consumergroup=__strimzi-topic-operator-kstreams},1652359376,0
{consumergroup=__strimzi-topic-operator-kstreams},1652359381,0
{consumergroup=__strimzi-topic-operator-kstreams},1652359386,0
{consumergroup=__strimzi-topic-operator-kstreams},1652359391,8
{consumergroup=__strimzi-topic-operator-kstreams},1652359396,8
{consumergroup=__strimzi-topic-operator-kstreams},1652359401,8
{consumergroup=__strimzi-topic-operator-kstreams},1652359406,0
{consumergroup=__strimzi-topic-operator-kstreams},1652359411,0
{consumergroup=__strimzi-topic-operator-kstreams},1652359416,0
{consumergroup=__strimzi-topic-operator-kstreams},1652359421,0
{consumergroup=__strimzi-topic-operator-kstreams},1652359426,0
{consumergroup=__strimzi-topic-operator-kstreams},1652359431,0
{consumergroup=__strimzi-topic-operator-kstreams},1652359436,0
{consumergroup=__strimzi-topic-operator-kstreams},1652359441,0
{consumergroup=__strimzi-topic-operator-kstreams},1652359446,0
{consumergroup=__strimzi-topic-operator-kstreams},1652359451,0
{consumergroup=__strimzi-topic-operator-kstreams},1652359456,0
{consumergroup=__strimzi-topic-operator-kstreams},1652359461,0
{consumergroup=__strimzi-topic-operator-kstreams},1652359466,0
{consumergroup=__strimzi-topic-operator-kstreams},1652359471,0
{consumergroup=__strimzi-topic-operator-kstreams},1652359476,0
{consumergroup=__strimzi-topic-operator-kstreams},1652359481,0
{consumergroup=__strimzi-topic-operator-kstreams},1652359486,0
{consumergroup=__strimzi-topic-operator-kstreams},1652359491,0
{consumergroup=__strimzi-topic-operator-kstreams},1652359496,0
{consumergroup=__strimzi-topic-operator-kstreams},1652359501,0
{consumergroup=__strimzi-topic-operator-kstreams},1652359506,0
{consumergroup=__strimzi-topic-operator-kstreams},1652359511,0
{consumergroup=__strimzi-topic-operator-kstreams},1652359516,0
{consumergroup=__strimzi-topic-operator-kstreams},1652359521,0
{consumergroup=__strimzi-topic-operator-kstreams},1652359526,0
{consumergroup=__strimzi-topic-operator-kstreams},1652359531,0
{consumergroup=__strimzi-topic-operator-kstreams},1652359536,0
{consumergroup=__strimzi-topic-operator-kstreams},1652359541,0
{consumergroup=__strimzi-topic-operator-kstreams},1652359546,0
{consumergroup=__strimzi-topic-operator-kstreams},1652359551,0
{consumergroup=__strimzi-topic-operator-kstreams},1652359556,0
{consumergroup=__strimzi-topic-operator-kstreams},1652359561,0
{consumergroup=__strimzi-topic-operator-kstreams},1652359566,0
{consumergroup=__strimzi-topic-operator-kstreams},1652359571,0
{consumergroup=__strimzi-topic-operator-kstreams},1652359576,0
{consumergroup=__strimzi-topic-operator-kstreams},1652359581,0
{consumergroup=__strimzi-topic-operator-kstreams},1652359586,0
{consumergroup=__strimzi-topic-operator-kstreams},1652359591,0
{consumergroup=__strimzi-topic-operator-kstreams},1652359596,0
{consumergroup=__strimzi-topic-operator-kstreams},1652359601,0
{consumergroup=__strimzi-topic-operator-kstreams},1652359606,0
{consumergroup=__strimzi-topic-operator-kstreams},1652359611,0
{consumergroup=__strimzi-topic-operator-kstreams},1652359616,0
{consumergroup=__strimzi-topic-operator-kstreams},1652359621,0
{consumergroup=__strimzi-topic-operator-kstreams},1652359626,0
{consumergroup=__strimzi-topic-operator-kstreams},1652359631,0
{consumergroup=__strimzi-topic-operator-kstreams},1652359636,0
{consumergroup=__strimzi-topic-operator-kstreams},1652359641,0
{consumergroup=__strimzi-topic-operator-kstreams},1652359646,0
{consumergroup=__strimzi-topic-operator-kstreams},1652359651,0
{consumergroup=__strimzi-topic-operator-kstreams},1652359656,0
{consumergroup=__strimzi-topic-operator-kstreams},1652359661,0
{consumergroup=__strimzi-topic-operator-kstreams},1652359666,0
{consumergroup=__strimzi-topic-operator-kstreams},1652359671,0
{consumergroup=__strimzi-topic-operator-kstreams},1652359676,0
{consumergroup=__strimzi-topic-operator-kstreams},1652359681,0
{consumergroup=__strimzi-topic-operator-kstreams},1652359686,0
{consumergroup=__strimzi-topic-operator-kstreams},1652359691,0
{consumergroup=__strimzi-topic-operator-kstreams},1652359696,0
{consumergroup=__strimzi-topic-operator-kstreams},1652359701,0
{consumergroup=__strimzi-topic-operator-kstreams},1652359706,0
{consumergroup=__strimzi-topic-operator-kstreams},1652359711,0
{consumergroup=__strimzi-topic-operator-kstreams},1652359716,0
{consumergroup=__strimzi-topic-operator-kstreams},1652359721,0
{consumergroup=__strimzi-topic-operator-kstreams},1652359726,0
{consumergroup=__strimzi-topic-operator-kstreams},1652359731,0
{consumergroup=__strimzi-topic-operator-kstreams},1652359736,0
{consumergroup=__strimzi-topic-operator-kstreams},1652359741,0
{consumergroup=__strimzi-topic-operator-kstreams},1652359746,0
{consumergroup=__strimzi-topic-operator-kstreams},1652359751,0
{consumergroup=__strimzi-topic-operator-kstreams},1652359756,0
{consumergroup=__strimzi-topic-operator-kstreams},1652359761,0
{consumergroup=__strimzi-topic-operator-kstreams},1652359766,0
{consumergroup=__strimzi-topic-operator-kstreams},1652359771,0
{consumergroup=__strimzi-topic-operator-kstreams},1652359776,0
{consumergroup=__strimzi-topic-operator-kstreams},1652359781,0
{consumergroup=__strimzi-topic-operator-kstreams},1652359786,0
{consumergroup=__strimzi-topic-operator-kstreams},1652359791,0
{consumergroup=__strimzi-topic-operator-kstreams},1652359796,0
{consumergroup=__strimzi-topic-operator-kstreams},1652359801,0
{consumergroup=__strimzi-topic-operator-kstreams},1652359806,0
{consumergroup=__strimzi-topic-operator-kstreams},1652359811,0
{consumergroup=__strimzi-topic-operator-kstreams},1652359816,0
{consumergroup=__strimzi-topic-operator-kstreams},1652359821,0
{consumergroup=adapter-service},1652359436,827
{consumergroup=adapter-service},1652359441,827
{consumergroup=adapter-service},1652359446,827
{consumergroup=adapter-service},1652359451,11042
{consumergroup=adapter-service},1652359456,11042
{consumergroup=adapter-service},1652359461,11042
{consumergroup=adapter-service},1652359466,20832
{consumergroup=adapter-service},1652359471,20832
{consumergroup=adapter-service},1652359476,20832
{consumergroup=adapter-service},1652359481,47501
{consumergroup=adapter-service},1652359486,47501
{consumergroup=adapter-service},1652359491,47501
{consumergroup=adapter-service},1652359496,50064
{consumergroup=adapter-service},1652359501,50064
{consumergroup=adapter-service},1652359506,50064
{consumergroup=adapter-service},1652359511,34488
{consumergroup=adapter-service},1652359516,34488
{consumergroup=adapter-service},1652359521,34488
{consumergroup=adapter-service},1652359526,30751
{consumergroup=adapter-service},1652359531,30751
{consumergroup=adapter-service},1652359536,30751
{consumergroup=adapter-service},1652359541,24579
{consumergroup=adapter-service},1652359546,24579
{consumergroup=adapter-service},1652359551,24579
{consumergroup=adapter-service},1652359556,19892
{consumergroup=adapter-service},1652359561,19892
{consumergroup=adapter-service},1652359566,19892
{consumergroup=adapter-service},1652359571,11796
{consumergroup=adapter-service},1652359576,11796
{consumergroup=adapter-service},1652359581,11796
{consumergroup=adapter-service},1652359586,8159
{consumergroup=adapter-service},1652359591,8159
{consumergroup=adapter-service},1652359596,8159
{consumergroup=adapter-service},1652359601,2086
{consumergroup=adapter-service},1652359606,2086
{consumergroup=adapter-service},1652359611,2086
{consumergroup=adapter-service},1652359616,4305
{consumergroup=adapter-service},1652359621,4305
{consumergroup=adapter-service},1652359626,4305
{consumergroup=adapter-service},1652359631,4809
{consumergroup=adapter-service},1652359636,4809
{consumergroup=adapter-service},1652359641,4809
{consumergroup=adapter-service},1652359646,3549
{consumergroup=adapter-service},1652359651,3549
{consumergroup=adapter-service},1652359656,3549
{consumergroup=adapter-service},1652359661,3776
{consumergroup=adapter-service},1652359666,3776
{consumergroup=adapter-service},1652359671,3776
{consumergroup=adapter-service},1652359676,2865
{consumergroup=adapter-service},1652359681,2865
{consumergroup=adapter-service},1652359686,2865
{consumergroup=adapter-service},1652359691,3781
{consumergroup=adapter-service},1652359696,3781
{consumergroup=adapter-service},1652359701,3781
{consumergroup=adapter-service},1652359706,3662
{consumergroup=adapter-service},1652359711,3662
{consumergroup=adapter-service},1652359716,3662
{consumergroup=adapter-service},1652359721,3855
{consumergroup=adapter-service},1652359726,3855
{consumergroup=adapter-service},1652359731,3855
{consumergroup=adapter-service},1652359736,3055
{consumergroup=adapter-service},1652359741,3055
{consumergroup=adapter-service},1652359746,3055
{consumergroup=adapter-service},1652359751,3743
{consumergroup=adapter-service},1652359756,3743
{consumergroup=adapter-service},1652359761,3743
{consumergroup=adapter-service},1652359766,2390
{consumergroup=adapter-service},1652359771,2390
{consumergroup=adapter-service},1652359776,2390
{consumergroup=adapter-service},1652359781,3144
{consumergroup=adapter-service},1652359786,3144
{consumergroup=adapter-service},1652359791,3144
{consumergroup=adapter-service},1652359796,2351
{consumergroup=adapter-service},1652359801,2351
{consumergroup=adapter-service},1652359806,2351
{consumergroup=adapter-service},1652359811,1707
{consumergroup=adapter-service},1652359816,1707
{consumergroup=adapter-service},1652359821,1707
{consumergroup=landscape-service},1652359496,3893
{consumergroup=landscape-service},1652359501,3893
{consumergroup=landscape-service},1652359506,3893
{consumergroup=landscape-service},1652359511,67702
{consumergroup=landscape-service},1652359516,67702
{consumergroup=landscape-service},1652359521,67702
{consumergroup=landscape-service},1652359526,58346
{consumergroup=landscape-service},1652359531,58346
{consumergroup=landscape-service},1652359536,58346
{consumergroup=landscape-service},1652359541,19944
{consumergroup=landscape-service},1652359546,19944
{consumergroup=landscape-service},1652359551,19944
{consumergroup=landscape-service},1652359556,4732
{consumergroup=landscape-service},1652359561,4732
{consumergroup=landscape-service},1652359566,4732
{consumergroup=landscape-service},1652359571,6329
{consumergroup=landscape-service},1652359576,6329
{consumergroup=landscape-service},1652359581,6329
{consumergroup=landscape-service},1652359586,2671
{consumergroup=landscape-service},1652359591,2671
{consumergroup=landscape-service},1652359596,2671
{consumergroup=landscape-service},1652359601,3620
{consumergroup=landscape-service},1652359606,3620
{consumergroup=landscape-service},1652359611,3620
{consumergroup=landscape-service},1652359616,1494
{consumergroup=landscape-service},1652359621,1494
{consumergroup=landscape-service},1652359626,1494
{consumergroup=landscape-service},1652359631,2557
{consumergroup=landscape-service},1652359636,2557
{consumergroup=landscape-service},1652359641,2557
{consumergroup=landscape-service},1652359646,1227
{consumergroup=landscape-service},1652359651,1227
{consumergroup=landscape-service},1652359656,1227
{consumergroup=landscape-service},1652359661,1864
{consumergroup=landscape-service},1652359666,1864
{consumergroup=landscape-service},1652359671,1864
{consumergroup=landscape-service},1652359676,241
{consumergroup=landscape-service},1652359681,241
{consumergroup=landscape-service},1652359686,241
{consumergroup=landscape-service},1652359691,1337
{consumergroup=landscape-service},1652359696,1337
{consumergroup=landscape-service},1652359701,1337
{consumergroup=landscape-service},1652359706,2138
{consumergroup=landscape-service},1652359711,2138
{consumergroup=landscape-service},1652359716,2138
{consumergroup=landscape-service},1652359721,745
{consumergroup=landscape-service},1652359726,745
{consumergroup=landscape-service},1652359731,745
{consumergroup=landscape-service},1652359736,6379
{consumergroup=landscape-service},1652359741,6379
{consumergroup=landscape-service},1652359746,6379
{consumergroup=landscape-service},1652359751,421
{consumergroup=landscape-service},1652359756,421
{consumergroup=landscape-service},1652359761,421
{consumergroup=landscape-service},1652359766,5834
{consumergroup=landscape-service},1652359771,5834
{consumergroup=landscape-service},1652359776,5834
{consumergroup=landscape-service},1652359781,2170
{consumergroup=landscape-service},1652359786,2170
{consumergroup=landscape-service},1652359791,2170
{consumergroup=landscape-service},1652359796,5174
{consumergroup=landscape-service},1652359801,5174
{consumergroup=landscape-service},1652359806,5174
{consumergroup=landscape-service},1652359811,5242
{consumergroup=landscape-service},1652359816,5242
{consumergroup=landscape-service},1652359821,5242
{consumergroup=trace-service},1652359451,1034
{consumergroup=trace-service},1652359456,1034
{consumergroup=trace-service},1652359461,1034
{consumergroup=trace-service},1652359466,7283
{consumergroup=trace-service},1652359471,7283
{consumergroup=trace-service},1652359476,7283
{consumergroup=trace-service},1652359481,22074
{consumergroup=trace-service},1652359486,22074
{consumergroup=trace-service},1652359491,22074
{consumergroup=trace-service},1652359496,44064
{consumergroup=trace-service},1652359501,44064
{consumergroup=trace-service},1652359506,44064
{consumergroup=trace-service},1652359511,84836
{consumergroup=trace-service},1652359516,84836
{consumergroup=trace-service},1652359521,84836
{consumergroup=trace-service},1652359526,90274
{consumergroup=trace-service},1652359531,90274
{consumergroup=trace-service},1652359536,90274
{consumergroup=trace-service},1652359541,96302
{consumergroup=trace-service},1652359546,96302
{consumergroup=trace-service},1652359551,96302
{consumergroup=trace-service},1652359556,106485
{consumergroup=trace-service},1652359561,106485
{consumergroup=trace-service},1652359566,106485
{consumergroup=trace-service},1652359571,133094
{consumergroup=trace-service},1652359576,133094
{consumergroup=trace-service},1652359581,133094
{consumergroup=trace-service},1652359586,111627
{consumergroup=trace-service},1652359591,111627
{consumergroup=trace-service},1652359596,111627
{consumergroup=trace-service},1652359601,94577
{consumergroup=trace-service},1652359606,94577
{consumergroup=trace-service},1652359611,94577
{consumergroup=trace-service},1652359616,102285
{consumergroup=trace-service},1652359621,102285
{consumergroup=trace-service},1652359626,102285
{consumergroup=trace-service},1652359631,96132
{consumergroup=trace-service},1652359636,96132
{consumergroup=trace-service},1652359641,96132
{consumergroup=trace-service},1652359646,108315
{consumergroup=trace-service},1652359651,108315
{consumergroup=trace-service},1652359656,108315
{consumergroup=trace-service},1652359661,98656
{consumergroup=trace-service},1652359666,98656
{consumergroup=trace-service},1652359671,98656
{consumergroup=trace-service},1652359676,84807
{consumergroup=trace-service},1652359681,84807
{consumergroup=trace-service},1652359686,84807
{consumergroup=trace-service},1652359691,78245
{consumergroup=trace-service},1652359696,78245
{consumergroup=trace-service},1652359701,78245
{consumergroup=trace-service},1652359706,74762
{consumergroup=trace-service},1652359711,74762
{consumergroup=trace-service},1652359716,74762
{consumergroup=trace-service},1652359721,60062
{consumergroup=trace-service},1652359726,60062
{consumergroup=trace-service},1652359731,60062
{consumergroup=trace-service},1652359736,64786
{consumergroup=trace-service},1652359741,64786
{consumergroup=trace-service},1652359746,64786
{consumergroup=trace-service},1652359751,59868
{consumergroup=trace-service},1652359756,59868
{consumergroup=trace-service},1652359761,59868
{consumergroup=trace-service},1652359766,58700
{consumergroup=trace-service},1652359771,58700
{consumergroup=trace-service},1652359776,58700
{consumergroup=trace-service},1652359781,54394
{consumergroup=trace-service},1652359786,54394
{consumergroup=trace-service},1652359791,54394
{consumergroup=trace-service},1652359796,46037
{consumergroup=trace-service},1652359801,46037
{consumergroup=trace-service},1652359806,46037
{consumergroup=trace-service},1652359811,47479
{consumergroup=trace-service},1652359816,47479
{consumergroup=trace-service},1652359821,47479
