labels,timestamp,value
{job=theodolite-stu200776/combined-trace-podmonitor},1652371873,0.023980240282007625
{job=theodolite-stu200776/combined-trace-podmonitor},1652371878,1.6328947069866517
{job=theodolite-stu200776/combined-trace-podmonitor},1652371883,1.6286780937254752
{job=theodolite-stu200776/combined-trace-podmonitor},1652371888,0.019763627020830864
{job=theodolite-stu200776/combined-trace-podmonitor},1652371893,0
{job=theodolite-stu200776/combined-trace-podmonitor},1652371898,0
{job=theodolite-stu200776/combined-trace-podmonitor},1652371903,0
{job=theodolite-stu200776/combined-trace-podmonitor},1652371908,0
{job=theodolite-stu200776/combined-trace-podmonitor},1652371913,0
{job=theodolite-stu200776/combined-trace-podmonitor},1652371918,0
{job=theodolite-stu200776/combined-trace-podmonitor},1652371923,0
{job=theodolite-stu200776/combined-trace-podmonitor},1652371928,0
{job=theodolite-stu200776/combined-trace-podmonitor},1652371933,0
{job=theodolite-stu200776/combined-trace-podmonitor},1652371938,0
{job=theodolite-stu200776/combined-trace-podmonitor},1652371943,0
{job=theodolite-stu200776/combined-trace-podmonitor},1652371948,0
{job=theodolite-stu200776/combined-trace-podmonitor},1652371953,0
{job=theodolite-stu200776/combined-trace-podmonitor},1652371958,0
{job=theodolite-stu200776/combined-trace-podmonitor},1652371963,0
{job=theodolite-stu200776/combined-trace-podmonitor},1652371968,0
{job=theodolite-stu200776/combined-trace-podmonitor},1652371973,0
{job=theodolite-stu200776/combined-trace-podmonitor},1652371978,0
{job=theodolite-stu200776/combined-trace-podmonitor},1652371983,0
{job=theodolite-stu200776/combined-trace-podmonitor},1652371988,0
{job=theodolite-stu200776/combined-trace-podmonitor},1652371993,0
{job=theodolite-stu200776/combined-trace-podmonitor},1652371998,0
{job=theodolite-stu200776/combined-trace-podmonitor},1652372003,0
{job=theodolite-stu200776/combined-trace-podmonitor},1652372008,0
{job=theodolite-stu200776/combined-trace-podmonitor},1652372013,0
{job=theodolite-stu200776/combined-trace-podmonitor},1652372018,0
{job=theodolite-stu200776/combined-trace-podmonitor},1652372023,0
{job=theodolite-stu200776/combined-trace-podmonitor},1652372028,0
{job=theodolite-stu200776/combined-trace-podmonitor},1652372033,0
{job=theodolite-stu200776/combined-trace-podmonitor},1652372038,0
{job=theodolite-stu200776/combined-trace-podmonitor},1652372043,0
{job=theodolite-stu200776/combined-trace-podmonitor},1652372048,0
{job=theodolite-stu200776/combined-trace-podmonitor},1652372053,0
{job=theodolite-stu200776/combined-trace-podmonitor},1652372058,0
{job=theodolite-stu200776/combined-trace-podmonitor},1652372063,0
{job=theodolite-stu200776/combined-trace-podmonitor},1652372068,0
{job=theodolite-stu200776/combined-trace-podmonitor},1652372073,0
{job=theodolite-stu200776/combined-trace-podmonitor},1652372078,0
{job=theodolite-stu200776/combined-trace-podmonitor},1652372083,0
{job=theodolite-stu200776/combined-trace-podmonitor},1652372088,0
{job=theodolite-stu200776/combined-trace-podmonitor},1652372093,0
{job=theodolite-stu200776/combined-trace-podmonitor},1652372098,0
{job=theodolite-stu200776/combined-trace-podmonitor},1652372103,0
{job=theodolite-stu200776/combined-trace-podmonitor},1652372108,0
{job=theodolite-stu200776/combined-trace-podmonitor},1652372113,0
{job=theodolite-stu200776/combined-trace-podmonitor},1652372118,0
{job=theodolite-stu200776/combined-trace-podmonitor},1652372123,0
{job=theodolite-stu200776/combined-trace-podmonitor},1652372128,0
