labels,timestamp,value
{consumergroup=__strimzi-topic-operator-kstreams},1651350764,8
{consumergroup=__strimzi-topic-operator-kstreams},1651350769,8
{consumergroup=__strimzi-topic-operator-kstreams},1651350774,8
{consumergroup=__strimzi-topic-operator-kstreams},1651350779,0
{consumergroup=__strimzi-topic-operator-kstreams},1651350784,0
{consumergroup=__strimzi-topic-operator-kstreams},1651350789,0
{consumergroup=__strimzi-topic-operator-kstreams},1651350794,0
{consumergroup=__strimzi-topic-operator-kstreams},1651350799,0
{consumergroup=__strimzi-topic-operator-kstreams},1651350804,0
{consumergroup=__strimzi-topic-operator-kstreams},1651350809,0
{consumergroup=__strimzi-topic-operator-kstreams},1651350814,0
{consumergroup=__strimzi-topic-operator-kstreams},1651350819,0
{consumergroup=__strimzi-topic-operator-kstreams},1651350824,0
{consumergroup=__strimzi-topic-operator-kstreams},1651350829,0
{consumergroup=__strimzi-topic-operator-kstreams},1651350834,0
{consumergroup=__strimzi-topic-operator-kstreams},1651350839,0
{consumergroup=__strimzi-topic-operator-kstreams},1651350844,0
{consumergroup=__strimzi-topic-operator-kstreams},1651350849,0
{consumergroup=__strimzi-topic-operator-kstreams},1651350854,0
{consumergroup=__strimzi-topic-operator-kstreams},1651350859,0
{consumergroup=__strimzi-topic-operator-kstreams},1651350864,0
{consumergroup=__strimzi-topic-operator-kstreams},1651350869,0
{consumergroup=__strimzi-topic-operator-kstreams},1651350874,0
{consumergroup=__strimzi-topic-operator-kstreams},1651350879,0
{consumergroup=__strimzi-topic-operator-kstreams},1651350884,0
{consumergroup=__strimzi-topic-operator-kstreams},1651350889,0
{consumergroup=__strimzi-topic-operator-kstreams},1651350894,0
{consumergroup=__strimzi-topic-operator-kstreams},1651350899,0
{consumergroup=__strimzi-topic-operator-kstreams},1651350904,0
{consumergroup=__strimzi-topic-operator-kstreams},1651350909,0
{consumergroup=__strimzi-topic-operator-kstreams},1651350914,0
{consumergroup=__strimzi-topic-operator-kstreams},1651350919,0
{consumergroup=__strimzi-topic-operator-kstreams},1651350924,0
{consumergroup=__strimzi-topic-operator-kstreams},1651350929,0
{consumergroup=__strimzi-topic-operator-kstreams},1651350934,0
{consumergroup=__strimzi-topic-operator-kstreams},1651350939,0
{consumergroup=__strimzi-topic-operator-kstreams},1651350944,0
{consumergroup=__strimzi-topic-operator-kstreams},1651350949,0
{consumergroup=__strimzi-topic-operator-kstreams},1651350954,0
{consumergroup=__strimzi-topic-operator-kstreams},1651350959,0
{consumergroup=__strimzi-topic-operator-kstreams},1651350964,0
{consumergroup=__strimzi-topic-operator-kstreams},1651350969,0
{consumergroup=__strimzi-topic-operator-kstreams},1651350974,0
{consumergroup=__strimzi-topic-operator-kstreams},1651350979,0
{consumergroup=__strimzi-topic-operator-kstreams},1651350984,0
{consumergroup=__strimzi-topic-operator-kstreams},1651350989,0
{consumergroup=__strimzi-topic-operator-kstreams},1651350994,0
{consumergroup=__strimzi-topic-operator-kstreams},1651350999,0
{consumergroup=__strimzi-topic-operator-kstreams},1651351004,0
{consumergroup=__strimzi-topic-operator-kstreams},1651351009,0
{consumergroup=adapter-service},1651350794,324759
{consumergroup=adapter-service},1651350799,324759
{consumergroup=adapter-service},1651350804,324759
{consumergroup=adapter-service},1651350809,8865
{consumergroup=adapter-service},1651350814,8865
{consumergroup=adapter-service},1651350819,8865
{consumergroup=adapter-service},1651350824,103911
{consumergroup=adapter-service},1651350829,103911
{consumergroup=adapter-service},1651350834,103911
{consumergroup=adapter-service},1651350839,3782
{consumergroup=adapter-service},1651350844,3782
{consumergroup=adapter-service},1651350849,3782
{consumergroup=adapter-service},1651350854,75905
{consumergroup=adapter-service},1651350859,75905
{consumergroup=adapter-service},1651350864,75905
{consumergroup=adapter-service},1651350869,69828
{consumergroup=adapter-service},1651350874,69828
{consumergroup=adapter-service},1651350879,69828
{consumergroup=adapter-service},1651350884,107440
{consumergroup=adapter-service},1651350889,107440
{consumergroup=adapter-service},1651350894,107440
{consumergroup=adapter-service},1651350899,569385
{consumergroup=adapter-service},1651350904,569385
{consumergroup=adapter-service},1651350909,569385
{consumergroup=adapter-service},1651350914,18972
{consumergroup=adapter-service},1651350919,18972
{consumergroup=adapter-service},1651350924,18972
{consumergroup=adapter-service},1651350929,534675
{consumergroup=adapter-service},1651350934,534675
{consumergroup=adapter-service},1651350939,534675
{consumergroup=adapter-service},1651350944,12427
{consumergroup=adapter-service},1651350949,12427
{consumergroup=adapter-service},1651350954,12427
{consumergroup=adapter-service},1651350959,542422
{consumergroup=adapter-service},1651350964,542422
{consumergroup=adapter-service},1651350969,542422
{consumergroup=adapter-service},1651350974,48009
{consumergroup=adapter-service},1651350979,48009
{consumergroup=adapter-service},1651350984,48009
{consumergroup=adapter-service},1651350989,526649
{consumergroup=adapter-service},1651350994,526649
{consumergroup=adapter-service},1651350999,526649
{consumergroup=adapter-service},1651351004,3642
{consumergroup=adapter-service},1651351009,3642
