labels,timestamp,value
{consumergroup=__strimzi-topic-operator-kstreams},1651360695,12
{consumergroup=__strimzi-topic-operator-kstreams},1651360700,12
{consumergroup=__strimzi-topic-operator-kstreams},1651360705,12
{consumergroup=__strimzi-topic-operator-kstreams},1651360710,0
{consumergroup=__strimzi-topic-operator-kstreams},1651360715,0
{consumergroup=__strimzi-topic-operator-kstreams},1651360720,0
{consumergroup=__strimzi-topic-operator-kstreams},1651360725,0
{consumergroup=__strimzi-topic-operator-kstreams},1651360730,0
{consumergroup=__strimzi-topic-operator-kstreams},1651360735,0
{consumergroup=__strimzi-topic-operator-kstreams},1651360740,0
{consumergroup=__strimzi-topic-operator-kstreams},1651360745,0
{consumergroup=__strimzi-topic-operator-kstreams},1651360750,0
{consumergroup=__strimzi-topic-operator-kstreams},1651360755,0
{consumergroup=__strimzi-topic-operator-kstreams},1651360760,0
{consumergroup=__strimzi-topic-operator-kstreams},1651360765,0
{consumergroup=__strimzi-topic-operator-kstreams},1651360770,0
{consumergroup=__strimzi-topic-operator-kstreams},1651360775,0
{consumergroup=__strimzi-topic-operator-kstreams},1651360780,0
{consumergroup=__strimzi-topic-operator-kstreams},1651360785,0
{consumergroup=__strimzi-topic-operator-kstreams},1651360790,0
{consumergroup=__strimzi-topic-operator-kstreams},1651360795,0
{consumergroup=__strimzi-topic-operator-kstreams},1651360800,0
{consumergroup=__strimzi-topic-operator-kstreams},1651360805,0
{consumergroup=__strimzi-topic-operator-kstreams},1651360810,0
{consumergroup=__strimzi-topic-operator-kstreams},1651360815,0
{consumergroup=__strimzi-topic-operator-kstreams},1651360820,0
{consumergroup=__strimzi-topic-operator-kstreams},1651360825,0
{consumergroup=__strimzi-topic-operator-kstreams},1651360830,0
{consumergroup=__strimzi-topic-operator-kstreams},1651360835,0
{consumergroup=__strimzi-topic-operator-kstreams},1651360840,0
{consumergroup=__strimzi-topic-operator-kstreams},1651360845,0
{consumergroup=__strimzi-topic-operator-kstreams},1651360850,0
{consumergroup=__strimzi-topic-operator-kstreams},1651360855,0
{consumergroup=__strimzi-topic-operator-kstreams},1651360860,0
{consumergroup=__strimzi-topic-operator-kstreams},1651360865,0
{consumergroup=__strimzi-topic-operator-kstreams},1651360870,0
{consumergroup=__strimzi-topic-operator-kstreams},1651360875,0
{consumergroup=__strimzi-topic-operator-kstreams},1651360880,0
{consumergroup=__strimzi-topic-operator-kstreams},1651360885,0
{consumergroup=__strimzi-topic-operator-kstreams},1651360890,0
{consumergroup=__strimzi-topic-operator-kstreams},1651360895,0
{consumergroup=__strimzi-topic-operator-kstreams},1651360900,0
{consumergroup=__strimzi-topic-operator-kstreams},1651360905,0
{consumergroup=__strimzi-topic-operator-kstreams},1651360910,0
{consumergroup=__strimzi-topic-operator-kstreams},1651360915,0
{consumergroup=__strimzi-topic-operator-kstreams},1651360920,0
{consumergroup=__strimzi-topic-operator-kstreams},1651360925,0
{consumergroup=__strimzi-topic-operator-kstreams},1651360930,0
{consumergroup=__strimzi-topic-operator-kstreams},1651360935,0
{consumergroup=__strimzi-topic-operator-kstreams},1651360940,0
{consumergroup=__strimzi-topic-operator-kstreams},1651360945,0
{consumergroup=__strimzi-topic-operator-kstreams},1651360950,0
{consumergroup=adapter-service},1651360725,187492
{consumergroup=adapter-service},1651360730,187492
{consumergroup=adapter-service},1651360735,187492
{consumergroup=adapter-service},1651360740,845051
{consumergroup=adapter-service},1651360745,845051
{consumergroup=adapter-service},1651360750,845051
{consumergroup=adapter-service},1651360755,426484
{consumergroup=adapter-service},1651360760,426484
{consumergroup=adapter-service},1651360765,426484
{consumergroup=adapter-service},1651360770,425870
{consumergroup=adapter-service},1651360775,425870
{consumergroup=adapter-service},1651360780,425870
{consumergroup=adapter-service},1651360785,548706
{consumergroup=adapter-service},1651360790,548706
{consumergroup=adapter-service},1651360795,548706
{consumergroup=adapter-service},1651360800,453473
{consumergroup=adapter-service},1651360805,453473
{consumergroup=adapter-service},1651360810,453473
{consumergroup=adapter-service},1651360815,398741
{consumergroup=adapter-service},1651360820,398741
{consumergroup=adapter-service},1651360825,398741
{consumergroup=adapter-service},1651360830,347716
{consumergroup=adapter-service},1651360835,347716
{consumergroup=adapter-service},1651360840,347716
{consumergroup=adapter-service},1651360845,361146
{consumergroup=adapter-service},1651360850,361146
{consumergroup=adapter-service},1651360855,361146
{consumergroup=adapter-service},1651360860,506139
{consumergroup=adapter-service},1651360865,506139
{consumergroup=adapter-service},1651360870,506139
{consumergroup=adapter-service},1651360875,450220
{consumergroup=adapter-service},1651360880,450220
{consumergroup=adapter-service},1651360885,450220
{consumergroup=adapter-service},1651360890,362385
{consumergroup=adapter-service},1651360895,362385
{consumergroup=adapter-service},1651360900,362385
{consumergroup=adapter-service},1651360905,609462
{consumergroup=adapter-service},1651360910,609462
{consumergroup=adapter-service},1651360915,609462
{consumergroup=adapter-service},1651360920,433757
{consumergroup=adapter-service},1651360925,433757
{consumergroup=adapter-service},1651360930,433757
{consumergroup=adapter-service},1651360935,574426
{consumergroup=adapter-service},1651360940,574426
{consumergroup=adapter-service},1651360945,574426
{consumergroup=adapter-service},1651360950,516981
