labels,timestamp,value
{consumergroup=__strimzi-topic-operator-kstreams},1651346589,0
{consumergroup=__strimzi-topic-operator-kstreams},1651346609,13
{consumergroup=__strimzi-topic-operator-kstreams},1651346614,13
{consumergroup=__strimzi-topic-operator-kstreams},1651346619,13
{consumergroup=__strimzi-topic-operator-kstreams},1651346624,13
{consumergroup=__strimzi-topic-operator-kstreams},1651346629,13
{consumergroup=__strimzi-topic-operator-kstreams},1651346634,13
{consumergroup=__strimzi-topic-operator-kstreams},1651346639,0
{consumergroup=__strimzi-topic-operator-kstreams},1651346644,0
{consumergroup=__strimzi-topic-operator-kstreams},1651346649,0
{consumergroup=__strimzi-topic-operator-kstreams},1651346654,0
{consumergroup=__strimzi-topic-operator-kstreams},1651346659,0
{consumergroup=__strimzi-topic-operator-kstreams},1651346664,0
{consumergroup=__strimzi-topic-operator-kstreams},1651346669,0
{consumergroup=__strimzi-topic-operator-kstreams},1651346674,0
{consumergroup=__strimzi-topic-operator-kstreams},1651346679,0
{consumergroup=__strimzi-topic-operator-kstreams},1651346684,0
{consumergroup=__strimzi-topic-operator-kstreams},1651346689,0
{consumergroup=__strimzi-topic-operator-kstreams},1651346694,0
{consumergroup=__strimzi-topic-operator-kstreams},1651346699,0
{consumergroup=__strimzi-topic-operator-kstreams},1651346704,0
{consumergroup=__strimzi-topic-operator-kstreams},1651346709,0
{consumergroup=__strimzi-topic-operator-kstreams},1651346714,0
{consumergroup=__strimzi-topic-operator-kstreams},1651346719,0
{consumergroup=__strimzi-topic-operator-kstreams},1651346724,0
{consumergroup=__strimzi-topic-operator-kstreams},1651346729,0
{consumergroup=__strimzi-topic-operator-kstreams},1651346734,0
{consumergroup=__strimzi-topic-operator-kstreams},1651346739,0
{consumergroup=__strimzi-topic-operator-kstreams},1651346744,0
{consumergroup=__strimzi-topic-operator-kstreams},1651346749,0
{consumergroup=__strimzi-topic-operator-kstreams},1651346754,0
{consumergroup=__strimzi-topic-operator-kstreams},1651346759,0
{consumergroup=__strimzi-topic-operator-kstreams},1651346764,0
{consumergroup=__strimzi-topic-operator-kstreams},1651346769,0
{consumergroup=__strimzi-topic-operator-kstreams},1651346774,0
{consumergroup=__strimzi-topic-operator-kstreams},1651346779,0
{consumergroup=__strimzi-topic-operator-kstreams},1651346784,0
{consumergroup=__strimzi-topic-operator-kstreams},1651346789,0
{consumergroup=__strimzi-topic-operator-kstreams},1651346794,0
{consumergroup=__strimzi-topic-operator-kstreams},1651346799,0
{consumergroup=__strimzi-topic-operator-kstreams},1651346804,0
{consumergroup=__strimzi-topic-operator-kstreams},1651346809,0
{consumergroup=__strimzi-topic-operator-kstreams},1651346814,0
{consumergroup=__strimzi-topic-operator-kstreams},1651346819,0
{consumergroup=__strimzi-topic-operator-kstreams},1651346824,0
{consumergroup=__strimzi-topic-operator-kstreams},1651346829,0
{consumergroup=__strimzi-topic-operator-kstreams},1651346834,0
{consumergroup=__strimzi-topic-operator-kstreams},1651346839,0
{consumergroup=__strimzi-topic-operator-kstreams},1651346844,0
{consumergroup=__strimzi-topic-operator-kstreams},1651346849,0
{consumergroup=adapter-service},1651346589,0
{consumergroup=adapter-service},1651346624,0
{consumergroup=adapter-service},1651346629,0
{consumergroup=adapter-service},1651346634,0
{consumergroup=adapter-service},1651346639,1066903
{consumergroup=adapter-service},1651346644,1066903
{consumergroup=adapter-service},1651346649,1066903
{consumergroup=adapter-service},1651346654,1291052
{consumergroup=adapter-service},1651346659,1291052
{consumergroup=adapter-service},1651346664,1291052
{consumergroup=adapter-service},1651346669,1736574
{consumergroup=adapter-service},1651346674,1736574
{consumergroup=adapter-service},1651346679,1736574
{consumergroup=adapter-service},1651346684,2098760
{consumergroup=adapter-service},1651346689,2098760
{consumergroup=adapter-service},1651346694,2098760
{consumergroup=adapter-service},1651346699,2369212
{consumergroup=adapter-service},1651346704,2369212
{consumergroup=adapter-service},1651346709,2369212
{consumergroup=adapter-service},1651346714,2745777
{consumergroup=adapter-service},1651346719,2745777
{consumergroup=adapter-service},1651346724,2745777
{consumergroup=adapter-service},1651346729,3079519
{consumergroup=adapter-service},1651346734,3079519
{consumergroup=adapter-service},1651346739,3079519
{consumergroup=adapter-service},1651346744,3332292
{consumergroup=adapter-service},1651346749,3332292
{consumergroup=adapter-service},1651346754,3332292
{consumergroup=adapter-service},1651346759,3705644
{consumergroup=adapter-service},1651346764,3705644
{consumergroup=adapter-service},1651346769,3705644
{consumergroup=adapter-service},1651346774,3914635
{consumergroup=adapter-service},1651346779,3914635
{consumergroup=adapter-service},1651346784,3914635
{consumergroup=adapter-service},1651346789,4298772
{consumergroup=adapter-service},1651346794,4298772
{consumergroup=adapter-service},1651346799,4298772
{consumergroup=adapter-service},1651346804,4664829
{consumergroup=adapter-service},1651346809,4664829
{consumergroup=adapter-service},1651346814,4664829
{consumergroup=adapter-service},1651346819,4923351
{consumergroup=adapter-service},1651346824,4923351
{consumergroup=adapter-service},1651346829,4923351
{consumergroup=adapter-service},1651346834,5308062
{consumergroup=adapter-service},1651346839,5308062
{consumergroup=adapter-service},1651346844,5308062
{consumergroup=adapter-service},1651346849,5529603
