labels,timestamp,value
{consumergroup=__strimzi-topic-operator-kstreams},1651345425,1
{consumergroup=__strimzi-topic-operator-kstreams},1651345430,1
{consumergroup=__strimzi-topic-operator-kstreams},1651345435,1
{consumergroup=__strimzi-topic-operator-kstreams},1651345440,7
{consumergroup=__strimzi-topic-operator-kstreams},1651345445,7
{consumergroup=__strimzi-topic-operator-kstreams},1651345450,7
{consumergroup=__strimzi-topic-operator-kstreams},1651345455,0
{consumergroup=__strimzi-topic-operator-kstreams},1651345460,0
{consumergroup=__strimzi-topic-operator-kstreams},1651345465,0
{consumergroup=__strimzi-topic-operator-kstreams},1651345470,0
{consumergroup=__strimzi-topic-operator-kstreams},1651345475,0
{consumergroup=__strimzi-topic-operator-kstreams},1651345480,0
{consumergroup=__strimzi-topic-operator-kstreams},1651345485,0
{consumergroup=__strimzi-topic-operator-kstreams},1651345490,0
{consumergroup=__strimzi-topic-operator-kstreams},1651345495,0
{consumergroup=__strimzi-topic-operator-kstreams},1651345500,0
{consumergroup=__strimzi-topic-operator-kstreams},1651345505,0
{consumergroup=__strimzi-topic-operator-kstreams},1651345510,0
{consumergroup=__strimzi-topic-operator-kstreams},1651345515,0
{consumergroup=__strimzi-topic-operator-kstreams},1651345520,0
{consumergroup=__strimzi-topic-operator-kstreams},1651345525,0
{consumergroup=__strimzi-topic-operator-kstreams},1651345530,0
{consumergroup=__strimzi-topic-operator-kstreams},1651345535,0
{consumergroup=__strimzi-topic-operator-kstreams},1651345540,0
{consumergroup=__strimzi-topic-operator-kstreams},1651345545,0
{consumergroup=__strimzi-topic-operator-kstreams},1651345550,0
{consumergroup=__strimzi-topic-operator-kstreams},1651345555,0
{consumergroup=__strimzi-topic-operator-kstreams},1651345560,0
{consumergroup=__strimzi-topic-operator-kstreams},1651345565,0
{consumergroup=__strimzi-topic-operator-kstreams},1651345570,0
{consumergroup=__strimzi-topic-operator-kstreams},1651345575,0
{consumergroup=__strimzi-topic-operator-kstreams},1651345580,0
{consumergroup=__strimzi-topic-operator-kstreams},1651345585,0
{consumergroup=__strimzi-topic-operator-kstreams},1651345590,0
{consumergroup=__strimzi-topic-operator-kstreams},1651345595,0
{consumergroup=__strimzi-topic-operator-kstreams},1651345600,0
{consumergroup=__strimzi-topic-operator-kstreams},1651345605,0
{consumergroup=__strimzi-topic-operator-kstreams},1651345610,0
{consumergroup=__strimzi-topic-operator-kstreams},1651345615,0
{consumergroup=__strimzi-topic-operator-kstreams},1651345620,0
{consumergroup=__strimzi-topic-operator-kstreams},1651345625,0
{consumergroup=__strimzi-topic-operator-kstreams},1651345630,0
{consumergroup=__strimzi-topic-operator-kstreams},1651345635,0
{consumergroup=__strimzi-topic-operator-kstreams},1651345640,0
{consumergroup=__strimzi-topic-operator-kstreams},1651345645,0
{consumergroup=__strimzi-topic-operator-kstreams},1651345650,0
{consumergroup=__strimzi-topic-operator-kstreams},1651345655,0
{consumergroup=__strimzi-topic-operator-kstreams},1651345660,0
{consumergroup=__strimzi-topic-operator-kstreams},1651345665,0
{consumergroup=__strimzi-topic-operator-kstreams},1651345670,0
{consumergroup=__strimzi-topic-operator-kstreams},1651345675,0
{consumergroup=__strimzi-topic-operator-kstreams},1651345680,0
{consumergroup=adapter-service},1651345455,34820
{consumergroup=adapter-service},1651345460,34820
{consumergroup=adapter-service},1651345465,34820
{consumergroup=adapter-service},1651345470,1417459
{consumergroup=adapter-service},1651345475,1417459
{consumergroup=adapter-service},1651345480,1417459
{consumergroup=adapter-service},1651345485,2532485
{consumergroup=adapter-service},1651345490,2532485
{consumergroup=adapter-service},1651345495,2532485
{consumergroup=adapter-service},1651345500,3491912
{consumergroup=adapter-service},1651345505,3491912
{consumergroup=adapter-service},1651345510,3491912
{consumergroup=adapter-service},1651345515,4232092
{consumergroup=adapter-service},1651345520,4232092
{consumergroup=adapter-service},1651345525,4232092
{consumergroup=adapter-service},1651345530,5115453
{consumergroup=adapter-service},1651345535,5115453
{consumergroup=adapter-service},1651345540,5115453
{consumergroup=adapter-service},1651345545,5912913
{consumergroup=adapter-service},1651345550,5912913
{consumergroup=adapter-service},1651345555,5912913
{consumergroup=adapter-service},1651345560,6859342
{consumergroup=adapter-service},1651345565,6859342
{consumergroup=adapter-service},1651345570,6859342
{consumergroup=adapter-service},1651345575,7812613
{consumergroup=adapter-service},1651345580,7812613
{consumergroup=adapter-service},1651345585,7812613
{consumergroup=adapter-service},1651345590,8619130
{consumergroup=adapter-service},1651345595,8619130
{consumergroup=adapter-service},1651345600,8619130
{consumergroup=adapter-service},1651345605,9462759
{consumergroup=adapter-service},1651345610,9462759
{consumergroup=adapter-service},1651345615,9462759
{consumergroup=adapter-service},1651345620,10287344
{consumergroup=adapter-service},1651345625,10287344
{consumergroup=adapter-service},1651345630,10287344
{consumergroup=adapter-service},1651345635,11233605
{consumergroup=adapter-service},1651345640,11233605
{consumergroup=adapter-service},1651345645,11233605
{consumergroup=adapter-service},1651345650,12181844
{consumergroup=adapter-service},1651345655,12181844
{consumergroup=adapter-service},1651345660,12181844
{consumergroup=adapter-service},1651345665,12883295
{consumergroup=adapter-service},1651345670,12883295
{consumergroup=adapter-service},1651345675,12883295
{consumergroup=adapter-service},1651345680,13819144
