labels,timestamp,value
{consumergroup=__strimzi-topic-operator-kstreams},1651362800,18
{consumergroup=__strimzi-topic-operator-kstreams},1651362805,18
{consumergroup=__strimzi-topic-operator-kstreams},1651362810,18
{consumergroup=__strimzi-topic-operator-kstreams},1651362815,0
{consumergroup=__strimzi-topic-operator-kstreams},1651362820,0
{consumergroup=__strimzi-topic-operator-kstreams},1651362825,0
{consumergroup=__strimzi-topic-operator-kstreams},1651362830,0
{consumergroup=__strimzi-topic-operator-kstreams},1651362835,0
{consumergroup=__strimzi-topic-operator-kstreams},1651362840,0
{consumergroup=__strimzi-topic-operator-kstreams},1651362845,0
{consumergroup=__strimzi-topic-operator-kstreams},1651362850,0
{consumergroup=__strimzi-topic-operator-kstreams},1651362855,0
{consumergroup=__strimzi-topic-operator-kstreams},1651362860,0
{consumergroup=__strimzi-topic-operator-kstreams},1651362865,0
{consumergroup=__strimzi-topic-operator-kstreams},1651362870,0
{consumergroup=__strimzi-topic-operator-kstreams},1651362875,0
{consumergroup=__strimzi-topic-operator-kstreams},1651362880,0
{consumergroup=__strimzi-topic-operator-kstreams},1651362885,0
{consumergroup=__strimzi-topic-operator-kstreams},1651362890,0
{consumergroup=__strimzi-topic-operator-kstreams},1651362895,0
{consumergroup=__strimzi-topic-operator-kstreams},1651362900,0
{consumergroup=__strimzi-topic-operator-kstreams},1651362905,0
{consumergroup=__strimzi-topic-operator-kstreams},1651362910,0
{consumergroup=__strimzi-topic-operator-kstreams},1651362915,0
{consumergroup=__strimzi-topic-operator-kstreams},1651362920,0
{consumergroup=__strimzi-topic-operator-kstreams},1651362925,0
{consumergroup=__strimzi-topic-operator-kstreams},1651362930,0
{consumergroup=__strimzi-topic-operator-kstreams},1651362935,0
{consumergroup=__strimzi-topic-operator-kstreams},1651362940,0
{consumergroup=__strimzi-topic-operator-kstreams},1651362945,0
{consumergroup=__strimzi-topic-operator-kstreams},1651362950,0
{consumergroup=__strimzi-topic-operator-kstreams},1651362955,0
{consumergroup=__strimzi-topic-operator-kstreams},1651362960,0
{consumergroup=__strimzi-topic-operator-kstreams},1651362965,0
{consumergroup=__strimzi-topic-operator-kstreams},1651362970,0
{consumergroup=__strimzi-topic-operator-kstreams},1651362975,0
{consumergroup=__strimzi-topic-operator-kstreams},1651362980,0
{consumergroup=__strimzi-topic-operator-kstreams},1651362985,0
{consumergroup=__strimzi-topic-operator-kstreams},1651362990,0
{consumergroup=__strimzi-topic-operator-kstreams},1651362995,0
{consumergroup=__strimzi-topic-operator-kstreams},1651363000,0
{consumergroup=__strimzi-topic-operator-kstreams},1651363005,0
{consumergroup=__strimzi-topic-operator-kstreams},1651363010,0
{consumergroup=__strimzi-topic-operator-kstreams},1651363015,0
{consumergroup=__strimzi-topic-operator-kstreams},1651363020,0
{consumergroup=__strimzi-topic-operator-kstreams},1651363025,0
{consumergroup=__strimzi-topic-operator-kstreams},1651363030,0
{consumergroup=__strimzi-topic-operator-kstreams},1651363035,0
{consumergroup=__strimzi-topic-operator-kstreams},1651363040,0
{consumergroup=__strimzi-topic-operator-kstreams},1651363045,0
{consumergroup=__strimzi-topic-operator-kstreams},1651363050,0
{consumergroup=adapter-service},1651362830,379294
{consumergroup=adapter-service},1651362835,379294
{consumergroup=adapter-service},1651362840,379294
{consumergroup=adapter-service},1651362845,526443
{consumergroup=adapter-service},1651362850,526443
{consumergroup=adapter-service},1651362855,526443
{consumergroup=adapter-service},1651362860,390253
{consumergroup=adapter-service},1651362865,390253
{consumergroup=adapter-service},1651362870,390253
{consumergroup=adapter-service},1651362875,363734
{consumergroup=adapter-service},1651362880,363734
{consumergroup=adapter-service},1651362885,363734
{consumergroup=adapter-service},1651362890,330356
{consumergroup=adapter-service},1651362895,330356
{consumergroup=adapter-service},1651362900,330356
{consumergroup=adapter-service},1651362905,306766
{consumergroup=adapter-service},1651362910,306766
{consumergroup=adapter-service},1651362915,306766
{consumergroup=adapter-service},1651362920,139810
{consumergroup=adapter-service},1651362925,139810
{consumergroup=adapter-service},1651362930,139810
{consumergroup=adapter-service},1651362935,443432
{consumergroup=adapter-service},1651362940,443432
{consumergroup=adapter-service},1651362945,443432
{consumergroup=adapter-service},1651362950,164543
{consumergroup=adapter-service},1651362955,164543
{consumergroup=adapter-service},1651362960,164543
{consumergroup=adapter-service},1651362965,391209
{consumergroup=adapter-service},1651362970,391209
{consumergroup=adapter-service},1651362975,391209
{consumergroup=adapter-service},1651362980,309602
{consumergroup=adapter-service},1651362985,309602
{consumergroup=adapter-service},1651362990,309602
{consumergroup=adapter-service},1651362995,136223
{consumergroup=adapter-service},1651363000,136223
{consumergroup=adapter-service},1651363005,136223
{consumergroup=adapter-service},1651363010,261792
{consumergroup=adapter-service},1651363015,261792
{consumergroup=adapter-service},1651363020,261792
{consumergroup=adapter-service},1651363025,264680
{consumergroup=adapter-service},1651363030,264680
{consumergroup=adapter-service},1651363035,264680
{consumergroup=adapter-service},1651363040,615151
{consumergroup=adapter-service},1651363045,615151
{consumergroup=adapter-service},1651363050,615151
