labels,timestamp,value
{consumergroup=__strimzi-topic-operator-kstreams},1651349559,18
{consumergroup=__strimzi-topic-operator-kstreams},1651349564,18
{consumergroup=__strimzi-topic-operator-kstreams},1651349569,18
{consumergroup=__strimzi-topic-operator-kstreams},1651349574,0
{consumergroup=__strimzi-topic-operator-kstreams},1651349579,0
{consumergroup=__strimzi-topic-operator-kstreams},1651349584,0
{consumergroup=__strimzi-topic-operator-kstreams},1651349589,0
{consumergroup=__strimzi-topic-operator-kstreams},1651349594,0
{consumergroup=__strimzi-topic-operator-kstreams},1651349599,0
{consumergroup=__strimzi-topic-operator-kstreams},1651349604,0
{consumergroup=__strimzi-topic-operator-kstreams},1651349609,0
{consumergroup=__strimzi-topic-operator-kstreams},1651349614,0
{consumergroup=__strimzi-topic-operator-kstreams},1651349619,0
{consumergroup=__strimzi-topic-operator-kstreams},1651349624,0
{consumergroup=__strimzi-topic-operator-kstreams},1651349629,0
{consumergroup=__strimzi-topic-operator-kstreams},1651349634,0
{consumergroup=__strimzi-topic-operator-kstreams},1651349639,0
{consumergroup=__strimzi-topic-operator-kstreams},1651349644,0
{consumergroup=__strimzi-topic-operator-kstreams},1651349649,0
{consumergroup=__strimzi-topic-operator-kstreams},1651349654,0
{consumergroup=__strimzi-topic-operator-kstreams},1651349659,0
{consumergroup=__strimzi-topic-operator-kstreams},1651349664,0
{consumergroup=__strimzi-topic-operator-kstreams},1651349669,0
{consumergroup=__strimzi-topic-operator-kstreams},1651349674,0
{consumergroup=__strimzi-topic-operator-kstreams},1651349679,0
{consumergroup=__strimzi-topic-operator-kstreams},1651349684,0
{consumergroup=__strimzi-topic-operator-kstreams},1651349689,0
{consumergroup=__strimzi-topic-operator-kstreams},1651349694,0
{consumergroup=__strimzi-topic-operator-kstreams},1651349699,0
{consumergroup=__strimzi-topic-operator-kstreams},1651349704,0
{consumergroup=__strimzi-topic-operator-kstreams},1651349709,0
{consumergroup=__strimzi-topic-operator-kstreams},1651349714,0
{consumergroup=__strimzi-topic-operator-kstreams},1651349719,0
{consumergroup=__strimzi-topic-operator-kstreams},1651349724,0
{consumergroup=__strimzi-topic-operator-kstreams},1651349729,0
{consumergroup=__strimzi-topic-operator-kstreams},1651349734,0
{consumergroup=__strimzi-topic-operator-kstreams},1651349739,0
{consumergroup=__strimzi-topic-operator-kstreams},1651349744,0
{consumergroup=__strimzi-topic-operator-kstreams},1651349749,0
{consumergroup=__strimzi-topic-operator-kstreams},1651349754,0
{consumergroup=__strimzi-topic-operator-kstreams},1651349759,0
{consumergroup=__strimzi-topic-operator-kstreams},1651349764,0
{consumergroup=__strimzi-topic-operator-kstreams},1651349769,0
{consumergroup=__strimzi-topic-operator-kstreams},1651349774,0
{consumergroup=__strimzi-topic-operator-kstreams},1651349779,0
{consumergroup=__strimzi-topic-operator-kstreams},1651349784,0
{consumergroup=__strimzi-topic-operator-kstreams},1651349789,0
{consumergroup=__strimzi-topic-operator-kstreams},1651349794,0
{consumergroup=__strimzi-topic-operator-kstreams},1651349799,0
{consumergroup=__strimzi-topic-operator-kstreams},1651349804,0
{consumergroup=__strimzi-topic-operator-kstreams},1651349809,0
{consumergroup=adapter-service},1651349589,300453
{consumergroup=adapter-service},1651349594,300453
{consumergroup=adapter-service},1651349599,300453
{consumergroup=adapter-service},1651349604,1148241
{consumergroup=adapter-service},1651349609,1148241
{consumergroup=adapter-service},1651349614,1148241
{consumergroup=adapter-service},1651349619,846538
{consumergroup=adapter-service},1651349624,846538
{consumergroup=adapter-service},1651349629,846538
{consumergroup=adapter-service},1651349634,1873400
{consumergroup=adapter-service},1651349639,1873400
{consumergroup=adapter-service},1651349644,1873400
{consumergroup=adapter-service},1651349649,1892489
{consumergroup=adapter-service},1651349654,1892489
{consumergroup=adapter-service},1651349659,1892489
{consumergroup=adapter-service},1651349664,1705543
{consumergroup=adapter-service},1651349669,1705543
{consumergroup=adapter-service},1651349674,1705543
{consumergroup=adapter-service},1651349679,2111238
{consumergroup=adapter-service},1651349684,2111238
{consumergroup=adapter-service},1651349689,2111238
{consumergroup=adapter-service},1651349694,2744424
{consumergroup=adapter-service},1651349699,2744424
{consumergroup=adapter-service},1651349704,2744424
{consumergroup=adapter-service},1651349709,2933624
{consumergroup=adapter-service},1651349714,2933624
{consumergroup=adapter-service},1651349719,2933624
{consumergroup=adapter-service},1651349724,3265903
{consumergroup=adapter-service},1651349729,3265903
{consumergroup=adapter-service},1651349734,3265903
{consumergroup=adapter-service},1651349739,3589304
{consumergroup=adapter-service},1651349744,3589304
{consumergroup=adapter-service},1651349749,3589304
{consumergroup=adapter-service},1651349754,3548880
{consumergroup=adapter-service},1651349759,3548880
{consumergroup=adapter-service},1651349764,3548880
{consumergroup=adapter-service},1651349769,3651814
{consumergroup=adapter-service},1651349774,3651814
{consumergroup=adapter-service},1651349779,3651814
{consumergroup=adapter-service},1651349784,3858230
{consumergroup=adapter-service},1651349789,3858230
{consumergroup=adapter-service},1651349794,3858230
{consumergroup=adapter-service},1651349799,3784173
{consumergroup=adapter-service},1651349804,3784173
{consumergroup=adapter-service},1651349809,3784173
