labels,timestamp,value
{consumergroup=__strimzi-topic-operator-kstreams},1651348648,10
{consumergroup=__strimzi-topic-operator-kstreams},1651348653,10
{consumergroup=__strimzi-topic-operator-kstreams},1651348658,10
{consumergroup=__strimzi-topic-operator-kstreams},1651348663,11
{consumergroup=__strimzi-topic-operator-kstreams},1651348668,11
{consumergroup=__strimzi-topic-operator-kstreams},1651348673,11
{consumergroup=__strimzi-topic-operator-kstreams},1651348678,0
{consumergroup=__strimzi-topic-operator-kstreams},1651348683,0
{consumergroup=__strimzi-topic-operator-kstreams},1651348688,0
{consumergroup=__strimzi-topic-operator-kstreams},1651348693,0
{consumergroup=__strimzi-topic-operator-kstreams},1651348698,0
{consumergroup=__strimzi-topic-operator-kstreams},1651348703,0
{consumergroup=__strimzi-topic-operator-kstreams},1651348708,0
{consumergroup=__strimzi-topic-operator-kstreams},1651348713,0
{consumergroup=__strimzi-topic-operator-kstreams},1651348718,0
{consumergroup=__strimzi-topic-operator-kstreams},1651348723,0
{consumergroup=__strimzi-topic-operator-kstreams},1651348728,0
{consumergroup=__strimzi-topic-operator-kstreams},1651348733,0
{consumergroup=__strimzi-topic-operator-kstreams},1651348738,0
{consumergroup=__strimzi-topic-operator-kstreams},1651348743,0
{consumergroup=__strimzi-topic-operator-kstreams},1651348748,0
{consumergroup=__strimzi-topic-operator-kstreams},1651348753,0
{consumergroup=__strimzi-topic-operator-kstreams},1651348758,0
{consumergroup=__strimzi-topic-operator-kstreams},1651348763,0
{consumergroup=__strimzi-topic-operator-kstreams},1651348768,0
{consumergroup=__strimzi-topic-operator-kstreams},1651348773,0
{consumergroup=__strimzi-topic-operator-kstreams},1651348778,0
{consumergroup=__strimzi-topic-operator-kstreams},1651348783,0
{consumergroup=__strimzi-topic-operator-kstreams},1651348788,0
{consumergroup=__strimzi-topic-operator-kstreams},1651348793,0
{consumergroup=__strimzi-topic-operator-kstreams},1651348798,0
{consumergroup=__strimzi-topic-operator-kstreams},1651348803,0
{consumergroup=__strimzi-topic-operator-kstreams},1651348808,0
{consumergroup=__strimzi-topic-operator-kstreams},1651348813,0
{consumergroup=__strimzi-topic-operator-kstreams},1651348818,0
{consumergroup=__strimzi-topic-operator-kstreams},1651348823,0
{consumergroup=__strimzi-topic-operator-kstreams},1651348828,0
{consumergroup=__strimzi-topic-operator-kstreams},1651348833,0
{consumergroup=__strimzi-topic-operator-kstreams},1651348838,0
{consumergroup=__strimzi-topic-operator-kstreams},1651348843,0
{consumergroup=__strimzi-topic-operator-kstreams},1651348848,0
{consumergroup=__strimzi-topic-operator-kstreams},1651348853,0
{consumergroup=__strimzi-topic-operator-kstreams},1651348858,0
{consumergroup=__strimzi-topic-operator-kstreams},1651348863,0
{consumergroup=__strimzi-topic-operator-kstreams},1651348868,0
{consumergroup=__strimzi-topic-operator-kstreams},1651348873,0
{consumergroup=__strimzi-topic-operator-kstreams},1651348878,0
{consumergroup=__strimzi-topic-operator-kstreams},1651348883,0
{consumergroup=__strimzi-topic-operator-kstreams},1651348888,0
{consumergroup=__strimzi-topic-operator-kstreams},1651348893,0
{consumergroup=__strimzi-topic-operator-kstreams},1651348898,0
{consumergroup=__strimzi-topic-operator-kstreams},1651348903,0
{consumergroup=adapter-service},1651348678,409687
{consumergroup=adapter-service},1651348683,409687
{consumergroup=adapter-service},1651348688,409687
{consumergroup=adapter-service},1651348693,741555
{consumergroup=adapter-service},1651348698,741555
{consumergroup=adapter-service},1651348703,741555
{consumergroup=adapter-service},1651348708,993501
{consumergroup=adapter-service},1651348713,993501
{consumergroup=adapter-service},1651348718,993501
{consumergroup=adapter-service},1651348723,1170933
{consumergroup=adapter-service},1651348728,1170933
{consumergroup=adapter-service},1651348733,1170933
{consumergroup=adapter-service},1651348738,1204421
{consumergroup=adapter-service},1651348743,1204421
{consumergroup=adapter-service},1651348748,1204421
{consumergroup=adapter-service},1651348753,1452919
{consumergroup=adapter-service},1651348758,1452919
{consumergroup=adapter-service},1651348763,1452919
{consumergroup=adapter-service},1651348768,1466622
{consumergroup=adapter-service},1651348773,1466622
{consumergroup=adapter-service},1651348778,1466622
{consumergroup=adapter-service},1651348783,1436460
{consumergroup=adapter-service},1651348788,1436460
{consumergroup=adapter-service},1651348793,1436460
{consumergroup=adapter-service},1651348798,1727775
{consumergroup=adapter-service},1651348803,1727775
{consumergroup=adapter-service},1651348808,1727775
{consumergroup=adapter-service},1651348813,1691216
{consumergroup=adapter-service},1651348818,1691216
{consumergroup=adapter-service},1651348823,1691216
{consumergroup=adapter-service},1651348828,1714405
{consumergroup=adapter-service},1651348833,1714405
{consumergroup=adapter-service},1651348838,1714405
{consumergroup=adapter-service},1651348843,1846189
{consumergroup=adapter-service},1651348848,1846189
{consumergroup=adapter-service},1651348853,1846189
{consumergroup=adapter-service},1651348858,1889065
{consumergroup=adapter-service},1651348863,1889065
{consumergroup=adapter-service},1651348868,1889065
{consumergroup=adapter-service},1651348873,2017982
{consumergroup=adapter-service},1651348878,2017982
{consumergroup=adapter-service},1651348883,2017982
{consumergroup=adapter-service},1651348888,2147134
{consumergroup=adapter-service},1651348893,2147134
{consumergroup=adapter-service},1651348898,2147134
{consumergroup=adapter-service},1651348903,2157058
