labels,timestamp,value
{consumergroup=__strimzi-topic-operator-kstreams},1651352884,0
{consumergroup=__strimzi-topic-operator-kstreams},1651352889,0
{consumergroup=__strimzi-topic-operator-kstreams},1651352894,0
{consumergroup=__strimzi-topic-operator-kstreams},1651352899,0
{consumergroup=__strimzi-topic-operator-kstreams},1651352904,0
{consumergroup=__strimzi-topic-operator-kstreams},1651352909,0
{consumergroup=__strimzi-topic-operator-kstreams},1651352914,0
{consumergroup=__strimzi-topic-operator-kstreams},1651352919,0
{consumergroup=__strimzi-topic-operator-kstreams},1651352924,0
{consumergroup=__strimzi-topic-operator-kstreams},1651352929,0
{consumergroup=__strimzi-topic-operator-kstreams},1651352934,0
{consumergroup=__strimzi-topic-operator-kstreams},1651352939,0
{consumergroup=__strimzi-topic-operator-kstreams},1651352944,0
{consumergroup=__strimzi-topic-operator-kstreams},1651352949,0
{consumergroup=__strimzi-topic-operator-kstreams},1651352954,0
{consumergroup=__strimzi-topic-operator-kstreams},1651352959,0
{consumergroup=__strimzi-topic-operator-kstreams},1651352964,0
{consumergroup=__strimzi-topic-operator-kstreams},1651352969,0
{consumergroup=__strimzi-topic-operator-kstreams},1651352974,0
{consumergroup=__strimzi-topic-operator-kstreams},1651352979,0
{consumergroup=__strimzi-topic-operator-kstreams},1651352984,0
{consumergroup=__strimzi-topic-operator-kstreams},1651352989,0
{consumergroup=__strimzi-topic-operator-kstreams},1651352994,0
{consumergroup=__strimzi-topic-operator-kstreams},1651352999,0
{consumergroup=__strimzi-topic-operator-kstreams},1651353004,0
{consumergroup=__strimzi-topic-operator-kstreams},1651353009,0
{consumergroup=__strimzi-topic-operator-kstreams},1651353014,0
{consumergroup=__strimzi-topic-operator-kstreams},1651353019,0
{consumergroup=__strimzi-topic-operator-kstreams},1651353024,0
{consumergroup=__strimzi-topic-operator-kstreams},1651353029,0
{consumergroup=__strimzi-topic-operator-kstreams},1651353034,0
{consumergroup=__strimzi-topic-operator-kstreams},1651353039,0
{consumergroup=__strimzi-topic-operator-kstreams},1651353044,0
{consumergroup=__strimzi-topic-operator-kstreams},1651353049,0
{consumergroup=__strimzi-topic-operator-kstreams},1651353054,0
{consumergroup=__strimzi-topic-operator-kstreams},1651353059,0
{consumergroup=__strimzi-topic-operator-kstreams},1651353064,0
{consumergroup=__strimzi-topic-operator-kstreams},1651353069,0
{consumergroup=__strimzi-topic-operator-kstreams},1651353074,0
{consumergroup=__strimzi-topic-operator-kstreams},1651353079,0
{consumergroup=__strimzi-topic-operator-kstreams},1651353084,0
{consumergroup=__strimzi-topic-operator-kstreams},1651353089,0
{consumergroup=__strimzi-topic-operator-kstreams},1651353094,0
{consumergroup=__strimzi-topic-operator-kstreams},1651353099,0
{consumergroup=__strimzi-topic-operator-kstreams},1651353104,0
{consumergroup=__strimzi-topic-operator-kstreams},1651353109,0
{consumergroup=__strimzi-topic-operator-kstreams},1651353114,0
{consumergroup=__strimzi-topic-operator-kstreams},1651353119,0
{consumergroup=__strimzi-topic-operator-kstreams},1651353124,0
{consumergroup=__strimzi-topic-operator-kstreams},1651353129,0
{consumergroup=adapter-service},1651352914,351543
{consumergroup=adapter-service},1651352919,351543
{consumergroup=adapter-service},1651352924,351543
{consumergroup=adapter-service},1651352929,418898
{consumergroup=adapter-service},1651352934,418898
{consumergroup=adapter-service},1651352939,418898
{consumergroup=adapter-service},1651352944,432503
{consumergroup=adapter-service},1651352949,432503
{consumergroup=adapter-service},1651352954,432503
{consumergroup=adapter-service},1651352959,431836
{consumergroup=adapter-service},1651352964,431836
{consumergroup=adapter-service},1651352969,431836
{consumergroup=adapter-service},1651352974,449812
{consumergroup=adapter-service},1651352979,449812
{consumergroup=adapter-service},1651352984,449812
{consumergroup=adapter-service},1651352989,531236
{consumergroup=adapter-service},1651352994,531236
{consumergroup=adapter-service},1651352999,531236
{consumergroup=adapter-service},1651353004,398827
{consumergroup=adapter-service},1651353009,398827
{consumergroup=adapter-service},1651353014,398827
{consumergroup=adapter-service},1651353019,532107
{consumergroup=adapter-service},1651353024,532107
{consumergroup=adapter-service},1651353029,532107
{consumergroup=adapter-service},1651353034,476021
{consumergroup=adapter-service},1651353039,476021
{consumergroup=adapter-service},1651353044,476021
{consumergroup=adapter-service},1651353049,252073
{consumergroup=adapter-service},1651353054,252073
{consumergroup=adapter-service},1651353059,252073
{consumergroup=adapter-service},1651353064,401734
{consumergroup=adapter-service},1651353069,401734
{consumergroup=adapter-service},1651353074,401734
{consumergroup=adapter-service},1651353079,233152
{consumergroup=adapter-service},1651353084,233152
{consumergroup=adapter-service},1651353089,233152
{consumergroup=adapter-service},1651353094,312373
{consumergroup=adapter-service},1651353099,312373
{consumergroup=adapter-service},1651353104,312373
{consumergroup=adapter-service},1651353109,275755
{consumergroup=adapter-service},1651353114,275755
{consumergroup=adapter-service},1651353119,275755
{consumergroup=adapter-service},1651353124,271546
{consumergroup=adapter-service},1651353129,271546
