labels,timestamp,value
{consumergroup=__strimzi-topic-operator-kstreams},1651369490,0
{consumergroup=__strimzi-topic-operator-kstreams},1651369495,0
{consumergroup=__strimzi-topic-operator-kstreams},1651369500,0
{consumergroup=__strimzi-topic-operator-kstreams},1651369505,0
{consumergroup=__strimzi-topic-operator-kstreams},1651369510,0
{consumergroup=__strimzi-topic-operator-kstreams},1651369515,0
{consumergroup=__strimzi-topic-operator-kstreams},1651369520,0
{consumergroup=__strimzi-topic-operator-kstreams},1651369525,0
{consumergroup=__strimzi-topic-operator-kstreams},1651369530,0
{consumergroup=__strimzi-topic-operator-kstreams},1651369535,0
{consumergroup=__strimzi-topic-operator-kstreams},1651369540,0
{consumergroup=__strimzi-topic-operator-kstreams},1651369545,0
{consumergroup=__strimzi-topic-operator-kstreams},1651369550,0
{consumergroup=__strimzi-topic-operator-kstreams},1651369555,0
{consumergroup=__strimzi-topic-operator-kstreams},1651369560,0
{consumergroup=__strimzi-topic-operator-kstreams},1651369565,0
{consumergroup=__strimzi-topic-operator-kstreams},1651369570,0
{consumergroup=__strimzi-topic-operator-kstreams},1651369575,0
{consumergroup=__strimzi-topic-operator-kstreams},1651369580,0
{consumergroup=__strimzi-topic-operator-kstreams},1651369585,0
{consumergroup=__strimzi-topic-operator-kstreams},1651369590,0
{consumergroup=__strimzi-topic-operator-kstreams},1651369595,0
{consumergroup=__strimzi-topic-operator-kstreams},1651369600,0
{consumergroup=__strimzi-topic-operator-kstreams},1651369605,0
{consumergroup=__strimzi-topic-operator-kstreams},1651369610,0
{consumergroup=__strimzi-topic-operator-kstreams},1651369615,0
{consumergroup=__strimzi-topic-operator-kstreams},1651369620,0
{consumergroup=__strimzi-topic-operator-kstreams},1651369625,0
{consumergroup=__strimzi-topic-operator-kstreams},1651369630,0
{consumergroup=__strimzi-topic-operator-kstreams},1651369635,0
{consumergroup=__strimzi-topic-operator-kstreams},1651369640,0
{consumergroup=__strimzi-topic-operator-kstreams},1651369645,0
{consumergroup=__strimzi-topic-operator-kstreams},1651369650,0
{consumergroup=__strimzi-topic-operator-kstreams},1651369655,0
{consumergroup=__strimzi-topic-operator-kstreams},1651369660,0
{consumergroup=__strimzi-topic-operator-kstreams},1651369665,0
{consumergroup=__strimzi-topic-operator-kstreams},1651369670,0
{consumergroup=__strimzi-topic-operator-kstreams},1651369675,0
{consumergroup=__strimzi-topic-operator-kstreams},1651369680,0
{consumergroup=__strimzi-topic-operator-kstreams},1651369685,0
{consumergroup=__strimzi-topic-operator-kstreams},1651369690,0
{consumergroup=__strimzi-topic-operator-kstreams},1651369695,0
{consumergroup=__strimzi-topic-operator-kstreams},1651369700,0
{consumergroup=__strimzi-topic-operator-kstreams},1651369705,0
{consumergroup=__strimzi-topic-operator-kstreams},1651369710,0
{consumergroup=__strimzi-topic-operator-kstreams},1651369715,0
{consumergroup=__strimzi-topic-operator-kstreams},1651369720,0
{consumergroup=__strimzi-topic-operator-kstreams},1651369725,0
{consumergroup=__strimzi-topic-operator-kstreams},1651369730,0
{consumergroup=__strimzi-topic-operator-kstreams},1651369735,0
{consumergroup=__strimzi-topic-operator-kstreams},1651369740,0
{consumergroup=adapter-service},1651369520,261241
{consumergroup=adapter-service},1651369525,261241
{consumergroup=adapter-service},1651369530,261241
{consumergroup=adapter-service},1651369535,1272069
{consumergroup=adapter-service},1651369540,1272069
{consumergroup=adapter-service},1651369545,1272069
{consumergroup=adapter-service},1651369550,1995727
{consumergroup=adapter-service},1651369555,1995727
{consumergroup=adapter-service},1651369560,1995727
{consumergroup=adapter-service},1651369565,2461521
{consumergroup=adapter-service},1651369570,2461521
{consumergroup=adapter-service},1651369575,2461521
{consumergroup=adapter-service},1651369580,3183266
{consumergroup=adapter-service},1651369585,3183266
{consumergroup=adapter-service},1651369590,3183266
{consumergroup=adapter-service},1651369595,3378423
{consumergroup=adapter-service},1651369600,3378423
{consumergroup=adapter-service},1651369605,3378423
{consumergroup=adapter-service},1651369610,3340686
{consumergroup=adapter-service},1651369615,3340686
{consumergroup=adapter-service},1651369620,3340686
{consumergroup=adapter-service},1651369625,3577662
{consumergroup=adapter-service},1651369630,3577662
{consumergroup=adapter-service},1651369635,3577662
{consumergroup=adapter-service},1651369640,4452519
{consumergroup=adapter-service},1651369645,4452519
{consumergroup=adapter-service},1651369650,4452519
{consumergroup=adapter-service},1651369655,4677993
{consumergroup=adapter-service},1651369660,4677993
{consumergroup=adapter-service},1651369665,4677993
{consumergroup=adapter-service},1651369670,5070676
{consumergroup=adapter-service},1651369675,5070676
{consumergroup=adapter-service},1651369680,5070676
{consumergroup=adapter-service},1651369685,5352016
{consumergroup=adapter-service},1651369690,5352016
{consumergroup=adapter-service},1651369695,5352016
{consumergroup=adapter-service},1651369700,5612356
{consumergroup=adapter-service},1651369705,5612356
{consumergroup=adapter-service},1651369710,5612356
{consumergroup=adapter-service},1651369715,5900641
{consumergroup=adapter-service},1651369720,5900641
{consumergroup=adapter-service},1651369725,5900641
{consumergroup=adapter-service},1651369730,6343283
{consumergroup=adapter-service},1651369735,6343283
{consumergroup=adapter-service},1651369740,6343283
