labels,timestamp,value
{consumergroup=__strimzi-topic-operator-kstreams},1651367649,0
{consumergroup=__strimzi-topic-operator-kstreams},1651367664,14
{consumergroup=__strimzi-topic-operator-kstreams},1651367669,14
{consumergroup=__strimzi-topic-operator-kstreams},1651367674,14
{consumergroup=__strimzi-topic-operator-kstreams},1651367679,14
{consumergroup=__strimzi-topic-operator-kstreams},1651367684,14
{consumergroup=__strimzi-topic-operator-kstreams},1651367689,14
{consumergroup=__strimzi-topic-operator-kstreams},1651367694,0
{consumergroup=__strimzi-topic-operator-kstreams},1651367699,0
{consumergroup=__strimzi-topic-operator-kstreams},1651367704,0
{consumergroup=__strimzi-topic-operator-kstreams},1651367709,0
{consumergroup=__strimzi-topic-operator-kstreams},1651367714,0
{consumergroup=__strimzi-topic-operator-kstreams},1651367719,0
{consumergroup=__strimzi-topic-operator-kstreams},1651367724,0
{consumergroup=__strimzi-topic-operator-kstreams},1651367729,0
{consumergroup=__strimzi-topic-operator-kstreams},1651367734,0
{consumergroup=__strimzi-topic-operator-kstreams},1651367739,0
{consumergroup=__strimzi-topic-operator-kstreams},1651367744,0
{consumergroup=__strimzi-topic-operator-kstreams},1651367749,0
{consumergroup=__strimzi-topic-operator-kstreams},1651367754,0
{consumergroup=__strimzi-topic-operator-kstreams},1651367759,0
{consumergroup=__strimzi-topic-operator-kstreams},1651367764,0
{consumergroup=__strimzi-topic-operator-kstreams},1651367769,0
{consumergroup=__strimzi-topic-operator-kstreams},1651367774,0
{consumergroup=__strimzi-topic-operator-kstreams},1651367779,0
{consumergroup=__strimzi-topic-operator-kstreams},1651367784,0
{consumergroup=__strimzi-topic-operator-kstreams},1651367789,0
{consumergroup=__strimzi-topic-operator-kstreams},1651367794,0
{consumergroup=__strimzi-topic-operator-kstreams},1651367799,0
{consumergroup=__strimzi-topic-operator-kstreams},1651367804,0
{consumergroup=__strimzi-topic-operator-kstreams},1651367809,0
{consumergroup=__strimzi-topic-operator-kstreams},1651367814,0
{consumergroup=__strimzi-topic-operator-kstreams},1651367819,0
{consumergroup=__strimzi-topic-operator-kstreams},1651367824,0
{consumergroup=__strimzi-topic-operator-kstreams},1651367829,0
{consumergroup=__strimzi-topic-operator-kstreams},1651367834,0
{consumergroup=__strimzi-topic-operator-kstreams},1651367839,0
{consumergroup=__strimzi-topic-operator-kstreams},1651367844,0
{consumergroup=__strimzi-topic-operator-kstreams},1651367849,0
{consumergroup=__strimzi-topic-operator-kstreams},1651367854,0
{consumergroup=__strimzi-topic-operator-kstreams},1651367859,0
{consumergroup=__strimzi-topic-operator-kstreams},1651367864,0
{consumergroup=__strimzi-topic-operator-kstreams},1651367869,0
{consumergroup=__strimzi-topic-operator-kstreams},1651367874,0
{consumergroup=__strimzi-topic-operator-kstreams},1651367879,0
{consumergroup=__strimzi-topic-operator-kstreams},1651367884,0
{consumergroup=__strimzi-topic-operator-kstreams},1651367889,0
{consumergroup=__strimzi-topic-operator-kstreams},1651367894,0
{consumergroup=__strimzi-topic-operator-kstreams},1651367899,0
{consumergroup=__strimzi-topic-operator-kstreams},1651367904,0
{consumergroup=__strimzi-topic-operator-kstreams},1651367909,0
{consumergroup=adapter-service},1651367649,1595901
{consumergroup=adapter-service},1651367694,372606
{consumergroup=adapter-service},1651367699,372606
{consumergroup=adapter-service},1651367704,372606
{consumergroup=adapter-service},1651367709,1136119
{consumergroup=adapter-service},1651367714,1136119
{consumergroup=adapter-service},1651367719,1136119
{consumergroup=adapter-service},1651367724,1568944
{consumergroup=adapter-service},1651367729,1568944
{consumergroup=adapter-service},1651367734,1568944
{consumergroup=adapter-service},1651367739,1011007
{consumergroup=adapter-service},1651367744,1011007
{consumergroup=adapter-service},1651367749,1011007
{consumergroup=adapter-service},1651367754,1445497
{consumergroup=adapter-service},1651367759,1445497
{consumergroup=adapter-service},1651367764,1445497
{consumergroup=adapter-service},1651367769,1150970
{consumergroup=adapter-service},1651367774,1150970
{consumergroup=adapter-service},1651367779,1150970
{consumergroup=adapter-service},1651367784,1137714
{consumergroup=adapter-service},1651367789,1137714
{consumergroup=adapter-service},1651367794,1137714
{consumergroup=adapter-service},1651367799,1582818
{consumergroup=adapter-service},1651367804,1582818
{consumergroup=adapter-service},1651367809,1582818
{consumergroup=adapter-service},1651367814,1660263
{consumergroup=adapter-service},1651367819,1660263
{consumergroup=adapter-service},1651367824,1660263
{consumergroup=adapter-service},1651367829,1796063
{consumergroup=adapter-service},1651367834,1796063
{consumergroup=adapter-service},1651367839,1796063
{consumergroup=adapter-service},1651367844,1826476
{consumergroup=adapter-service},1651367849,1826476
{consumergroup=adapter-service},1651367854,1826476
{consumergroup=adapter-service},1651367859,2009028
{consumergroup=adapter-service},1651367864,2009028
{consumergroup=adapter-service},1651367869,2009028
{consumergroup=adapter-service},1651367874,1676772
{consumergroup=adapter-service},1651367879,1676772
{consumergroup=adapter-service},1651367884,1676772
{consumergroup=adapter-service},1651367889,1999065
{consumergroup=adapter-service},1651367894,1999065
{consumergroup=adapter-service},1651367899,1999065
{consumergroup=adapter-service},1651367904,2469525
{consumergroup=adapter-service},1651367909,2469525
