labels,timestamp,value
{consumergroup=__strimzi-topic-operator-kstreams},1651366133,10
{consumergroup=__strimzi-topic-operator-kstreams},1651366138,10
{consumergroup=__strimzi-topic-operator-kstreams},1651366143,10
{consumergroup=__strimzi-topic-operator-kstreams},1651366148,0
{consumergroup=__strimzi-topic-operator-kstreams},1651366153,0
{consumergroup=__strimzi-topic-operator-kstreams},1651366158,0
{consumergroup=__strimzi-topic-operator-kstreams},1651366163,0
{consumergroup=__strimzi-topic-operator-kstreams},1651366168,0
{consumergroup=__strimzi-topic-operator-kstreams},1651366173,0
{consumergroup=__strimzi-topic-operator-kstreams},1651366178,0
{consumergroup=__strimzi-topic-operator-kstreams},1651366183,0
{consumergroup=__strimzi-topic-operator-kstreams},1651366188,0
{consumergroup=__strimzi-topic-operator-kstreams},1651366193,0
{consumergroup=__strimzi-topic-operator-kstreams},1651366198,0
{consumergroup=__strimzi-topic-operator-kstreams},1651366203,0
{consumergroup=__strimzi-topic-operator-kstreams},1651366208,0
{consumergroup=__strimzi-topic-operator-kstreams},1651366213,0
{consumergroup=__strimzi-topic-operator-kstreams},1651366218,0
{consumergroup=__strimzi-topic-operator-kstreams},1651366223,0
{consumergroup=__strimzi-topic-operator-kstreams},1651366228,0
{consumergroup=__strimzi-topic-operator-kstreams},1651366233,0
{consumergroup=__strimzi-topic-operator-kstreams},1651366238,0
{consumergroup=__strimzi-topic-operator-kstreams},1651366243,0
{consumergroup=__strimzi-topic-operator-kstreams},1651366248,0
{consumergroup=__strimzi-topic-operator-kstreams},1651366253,0
{consumergroup=__strimzi-topic-operator-kstreams},1651366258,0
{consumergroup=__strimzi-topic-operator-kstreams},1651366263,0
{consumergroup=__strimzi-topic-operator-kstreams},1651366268,0
{consumergroup=__strimzi-topic-operator-kstreams},1651366273,0
{consumergroup=__strimzi-topic-operator-kstreams},1651366278,0
{consumergroup=__strimzi-topic-operator-kstreams},1651366283,0
{consumergroup=__strimzi-topic-operator-kstreams},1651366288,0
{consumergroup=__strimzi-topic-operator-kstreams},1651366293,0
{consumergroup=__strimzi-topic-operator-kstreams},1651366298,0
{consumergroup=__strimzi-topic-operator-kstreams},1651366303,0
{consumergroup=__strimzi-topic-operator-kstreams},1651366308,0
{consumergroup=__strimzi-topic-operator-kstreams},1651366313,0
{consumergroup=__strimzi-topic-operator-kstreams},1651366318,0
{consumergroup=__strimzi-topic-operator-kstreams},1651366323,0
{consumergroup=__strimzi-topic-operator-kstreams},1651366328,0
{consumergroup=__strimzi-topic-operator-kstreams},1651366333,0
{consumergroup=__strimzi-topic-operator-kstreams},1651366338,0
{consumergroup=__strimzi-topic-operator-kstreams},1651366343,0
{consumergroup=__strimzi-topic-operator-kstreams},1651366348,0
{consumergroup=__strimzi-topic-operator-kstreams},1651366353,0
{consumergroup=__strimzi-topic-operator-kstreams},1651366358,0
{consumergroup=__strimzi-topic-operator-kstreams},1651366363,0
{consumergroup=__strimzi-topic-operator-kstreams},1651366368,0
{consumergroup=__strimzi-topic-operator-kstreams},1651366373,0
{consumergroup=__strimzi-topic-operator-kstreams},1651366378,0
{consumergroup=__strimzi-topic-operator-kstreams},1651366383,0
{consumergroup=__strimzi-topic-operator-kstreams},1651366388,0
{consumergroup=adapter-service},1651366163,2434
{consumergroup=adapter-service},1651366168,2434
{consumergroup=adapter-service},1651366173,2434
{consumergroup=adapter-service},1651366178,672261
{consumergroup=adapter-service},1651366183,672261
{consumergroup=adapter-service},1651366188,672261
{consumergroup=adapter-service},1651366193,423195
{consumergroup=adapter-service},1651366198,423195
{consumergroup=adapter-service},1651366203,423195
{consumergroup=adapter-service},1651366208,440699
{consumergroup=adapter-service},1651366213,440699
{consumergroup=adapter-service},1651366218,440699
{consumergroup=adapter-service},1651366223,568978
{consumergroup=adapter-service},1651366228,568978
{consumergroup=adapter-service},1651366233,568978
{consumergroup=adapter-service},1651366238,185871
{consumergroup=adapter-service},1651366243,185871
{consumergroup=adapter-service},1651366248,185871
{consumergroup=adapter-service},1651366253,182796
{consumergroup=adapter-service},1651366258,182796
{consumergroup=adapter-service},1651366263,182796
{consumergroup=adapter-service},1651366268,352371
{consumergroup=adapter-service},1651366273,352371
{consumergroup=adapter-service},1651366278,352371
{consumergroup=adapter-service},1651366283,551121
{consumergroup=adapter-service},1651366288,551121
{consumergroup=adapter-service},1651366293,551121
{consumergroup=adapter-service},1651366298,203598
{consumergroup=adapter-service},1651366303,203598
{consumergroup=adapter-service},1651366308,203598
{consumergroup=adapter-service},1651366313,214858
{consumergroup=adapter-service},1651366318,214858
{consumergroup=adapter-service},1651366323,214858
{consumergroup=adapter-service},1651366328,135714
{consumergroup=adapter-service},1651366333,135714
{consumergroup=adapter-service},1651366338,135714
{consumergroup=adapter-service},1651366343,398686
{consumergroup=adapter-service},1651366348,398686
{consumergroup=adapter-service},1651366353,398686
{consumergroup=adapter-service},1651366358,556235
{consumergroup=adapter-service},1651366363,556235
{consumergroup=adapter-service},1651366368,556235
{consumergroup=adapter-service},1651366373,136306
{consumergroup=adapter-service},1651366378,136306
{consumergroup=adapter-service},1651366383,136306
{consumergroup=adapter-service},1651366388,489032
