labels,timestamp,value
{consumergroup=__strimzi-topic-operator-kstreams},1651364889,7
{consumergroup=__strimzi-topic-operator-kstreams},1651364894,15
{consumergroup=__strimzi-topic-operator-kstreams},1651364899,8
{consumergroup=__strimzi-topic-operator-kstreams},1651364904,8
{consumergroup=__strimzi-topic-operator-kstreams},1651364909,8
{consumergroup=__strimzi-topic-operator-kstreams},1651364914,8
{consumergroup=__strimzi-topic-operator-kstreams},1651364919,8
{consumergroup=__strimzi-topic-operator-kstreams},1651364924,0
{consumergroup=__strimzi-topic-operator-kstreams},1651364929,0
{consumergroup=__strimzi-topic-operator-kstreams},1651364934,0
{consumergroup=__strimzi-topic-operator-kstreams},1651364939,0
{consumergroup=__strimzi-topic-operator-kstreams},1651364944,0
{consumergroup=__strimzi-topic-operator-kstreams},1651364949,0
{consumergroup=__strimzi-topic-operator-kstreams},1651364954,0
{consumergroup=__strimzi-topic-operator-kstreams},1651364959,0
{consumergroup=__strimzi-topic-operator-kstreams},1651364964,0
{consumergroup=__strimzi-topic-operator-kstreams},1651364969,0
{consumergroup=__strimzi-topic-operator-kstreams},1651364974,0
{consumergroup=__strimzi-topic-operator-kstreams},1651364979,0
{consumergroup=__strimzi-topic-operator-kstreams},1651364984,0
{consumergroup=__strimzi-topic-operator-kstreams},1651364989,0
{consumergroup=__strimzi-topic-operator-kstreams},1651364994,0
{consumergroup=__strimzi-topic-operator-kstreams},1651364999,0
{consumergroup=__strimzi-topic-operator-kstreams},1651365004,0
{consumergroup=__strimzi-topic-operator-kstreams},1651365009,0
{consumergroup=__strimzi-topic-operator-kstreams},1651365014,0
{consumergroup=__strimzi-topic-operator-kstreams},1651365019,0
{consumergroup=__strimzi-topic-operator-kstreams},1651365024,0
{consumergroup=__strimzi-topic-operator-kstreams},1651365029,0
{consumergroup=__strimzi-topic-operator-kstreams},1651365034,0
{consumergroup=__strimzi-topic-operator-kstreams},1651365039,0
{consumergroup=__strimzi-topic-operator-kstreams},1651365044,0
{consumergroup=__strimzi-topic-operator-kstreams},1651365049,0
{consumergroup=__strimzi-topic-operator-kstreams},1651365054,0
{consumergroup=__strimzi-topic-operator-kstreams},1651365059,0
{consumergroup=__strimzi-topic-operator-kstreams},1651365064,0
{consumergroup=__strimzi-topic-operator-kstreams},1651365069,0
{consumergroup=__strimzi-topic-operator-kstreams},1651365074,0
{consumergroup=__strimzi-topic-operator-kstreams},1651365079,0
{consumergroup=__strimzi-topic-operator-kstreams},1651365084,0
{consumergroup=__strimzi-topic-operator-kstreams},1651365089,0
{consumergroup=__strimzi-topic-operator-kstreams},1651365094,0
{consumergroup=__strimzi-topic-operator-kstreams},1651365099,0
{consumergroup=__strimzi-topic-operator-kstreams},1651365104,0
{consumergroup=__strimzi-topic-operator-kstreams},1651365109,0
{consumergroup=__strimzi-topic-operator-kstreams},1651365114,0
{consumergroup=__strimzi-topic-operator-kstreams},1651365119,0
{consumergroup=__strimzi-topic-operator-kstreams},1651365124,0
{consumergroup=__strimzi-topic-operator-kstreams},1651365129,0
{consumergroup=__strimzi-topic-operator-kstreams},1651365134,0
{consumergroup=__strimzi-topic-operator-kstreams},1651365139,0
{consumergroup=__strimzi-topic-operator-kstreams},1651365144,0
{consumergroup=__strimzi-topic-operator-kstreams},1651365149,0
{consumergroup=adapter-service},1651364889,0
{consumergroup=adapter-service},1651364894,0
{consumergroup=adapter-service},1651364924,8235
{consumergroup=adapter-service},1651364929,8235
{consumergroup=adapter-service},1651364934,8235
{consumergroup=adapter-service},1651364939,701981
{consumergroup=adapter-service},1651364944,701981
{consumergroup=adapter-service},1651364949,701981
{consumergroup=adapter-service},1651364954,991128
{consumergroup=adapter-service},1651364959,991128
{consumergroup=adapter-service},1651364964,991128
{consumergroup=adapter-service},1651364969,415000
{consumergroup=adapter-service},1651364974,415000
{consumergroup=adapter-service},1651364979,415000
{consumergroup=adapter-service},1651364984,629913
{consumergroup=adapter-service},1651364989,629913
{consumergroup=adapter-service},1651364994,629913
{consumergroup=adapter-service},1651364999,775568
{consumergroup=adapter-service},1651365004,775568
{consumergroup=adapter-service},1651365009,775568
{consumergroup=adapter-service},1651365014,751124
{consumergroup=adapter-service},1651365019,751124
{consumergroup=adapter-service},1651365024,751124
{consumergroup=adapter-service},1651365029,579878
{consumergroup=adapter-service},1651365034,579878
{consumergroup=adapter-service},1651365039,579878
{consumergroup=adapter-service},1651365044,831695
{consumergroup=adapter-service},1651365049,831695
{consumergroup=adapter-service},1651365054,831695
{consumergroup=adapter-service},1651365059,1132766
{consumergroup=adapter-service},1651365064,1132766
{consumergroup=adapter-service},1651365069,1132766
{consumergroup=adapter-service},1651365074,1046393
{consumergroup=adapter-service},1651365079,1046393
{consumergroup=adapter-service},1651365084,1046393
{consumergroup=adapter-service},1651365089,1092738
{consumergroup=adapter-service},1651365094,1092738
{consumergroup=adapter-service},1651365099,1092738
{consumergroup=adapter-service},1651365104,1217365
{consumergroup=adapter-service},1651365109,1217365
{consumergroup=adapter-service},1651365114,1217365
{consumergroup=adapter-service},1651365119,1434021
{consumergroup=adapter-service},1651365124,1434021
{consumergroup=adapter-service},1651365129,1434021
{consumergroup=adapter-service},1651365134,1515187
{consumergroup=adapter-service},1651365139,1515187
{consumergroup=adapter-service},1651365144,1515187
{consumergroup=adapter-service},1651365149,1511854
