labels,timestamp,value
{consumergroup=__strimzi-topic-operator-kstreams},1651368864,3
{consumergroup=__strimzi-topic-operator-kstreams},1651368869,3
{consumergroup=__strimzi-topic-operator-kstreams},1651368874,3
{consumergroup=__strimzi-topic-operator-kstreams},1651368879,19
{consumergroup=__strimzi-topic-operator-kstreams},1651368884,19
{consumergroup=__strimzi-topic-operator-kstreams},1651368889,19
{consumergroup=__strimzi-topic-operator-kstreams},1651368894,0
{consumergroup=__strimzi-topic-operator-kstreams},1651368899,0
{consumergroup=__strimzi-topic-operator-kstreams},1651368904,0
{consumergroup=__strimzi-topic-operator-kstreams},1651368909,0
{consumergroup=__strimzi-topic-operator-kstreams},1651368914,0
{consumergroup=__strimzi-topic-operator-kstreams},1651368919,0
{consumergroup=__strimzi-topic-operator-kstreams},1651368924,0
{consumergroup=__strimzi-topic-operator-kstreams},1651368929,0
{consumergroup=__strimzi-topic-operator-kstreams},1651368934,0
{consumergroup=__strimzi-topic-operator-kstreams},1651368939,0
{consumergroup=__strimzi-topic-operator-kstreams},1651368944,0
{consumergroup=__strimzi-topic-operator-kstreams},1651368949,0
{consumergroup=__strimzi-topic-operator-kstreams},1651368954,0
{consumergroup=__strimzi-topic-operator-kstreams},1651368959,0
{consumergroup=__strimzi-topic-operator-kstreams},1651368964,0
{consumergroup=__strimzi-topic-operator-kstreams},1651368969,0
{consumergroup=__strimzi-topic-operator-kstreams},1651368974,0
{consumergroup=__strimzi-topic-operator-kstreams},1651368979,0
{consumergroup=__strimzi-topic-operator-kstreams},1651368984,0
{consumergroup=__strimzi-topic-operator-kstreams},1651368989,0
{consumergroup=__strimzi-topic-operator-kstreams},1651368994,0
{consumergroup=__strimzi-topic-operator-kstreams},1651368999,0
{consumergroup=__strimzi-topic-operator-kstreams},1651369004,0
{consumergroup=__strimzi-topic-operator-kstreams},1651369009,0
{consumergroup=__strimzi-topic-operator-kstreams},1651369014,0
{consumergroup=__strimzi-topic-operator-kstreams},1651369019,0
{consumergroup=__strimzi-topic-operator-kstreams},1651369024,0
{consumergroup=__strimzi-topic-operator-kstreams},1651369029,0
{consumergroup=__strimzi-topic-operator-kstreams},1651369034,0
{consumergroup=__strimzi-topic-operator-kstreams},1651369039,0
{consumergroup=__strimzi-topic-operator-kstreams},1651369044,0
{consumergroup=__strimzi-topic-operator-kstreams},1651369049,0
{consumergroup=__strimzi-topic-operator-kstreams},1651369054,0
{consumergroup=__strimzi-topic-operator-kstreams},1651369059,0
{consumergroup=__strimzi-topic-operator-kstreams},1651369064,0
{consumergroup=__strimzi-topic-operator-kstreams},1651369069,0
{consumergroup=__strimzi-topic-operator-kstreams},1651369074,0
{consumergroup=__strimzi-topic-operator-kstreams},1651369079,0
{consumergroup=__strimzi-topic-operator-kstreams},1651369084,0
{consumergroup=__strimzi-topic-operator-kstreams},1651369089,0
{consumergroup=__strimzi-topic-operator-kstreams},1651369094,0
{consumergroup=__strimzi-topic-operator-kstreams},1651369099,0
{consumergroup=__strimzi-topic-operator-kstreams},1651369104,0
{consumergroup=__strimzi-topic-operator-kstreams},1651369109,0
{consumergroup=__strimzi-topic-operator-kstreams},1651369114,0
{consumergroup=__strimzi-topic-operator-kstreams},1651369119,0
{consumergroup=adapter-service},1651368894,114232
{consumergroup=adapter-service},1651368899,114232
{consumergroup=adapter-service},1651368904,114232
{consumergroup=adapter-service},1651368909,1361108
{consumergroup=adapter-service},1651368914,1361108
{consumergroup=adapter-service},1651368919,1361108
{consumergroup=adapter-service},1651368924,648864
{consumergroup=adapter-service},1651368929,648864
{consumergroup=adapter-service},1651368934,648864
{consumergroup=adapter-service},1651368939,542658
{consumergroup=adapter-service},1651368944,542658
{consumergroup=adapter-service},1651368949,542658
{consumergroup=adapter-service},1651368954,734199
{consumergroup=adapter-service},1651368959,734199
{consumergroup=adapter-service},1651368964,734199
{consumergroup=adapter-service},1651368969,608295
{consumergroup=adapter-service},1651368974,608295
{consumergroup=adapter-service},1651368979,608295
{consumergroup=adapter-service},1651368984,846001
{consumergroup=adapter-service},1651368989,846001
{consumergroup=adapter-service},1651368994,846001
{consumergroup=adapter-service},1651368999,805122
{consumergroup=adapter-service},1651369004,805122
{consumergroup=adapter-service},1651369009,805122
{consumergroup=adapter-service},1651369014,700128
{consumergroup=adapter-service},1651369019,700128
{consumergroup=adapter-service},1651369024,700128
{consumergroup=adapter-service},1651369029,735402
{consumergroup=adapter-service},1651369034,735402
{consumergroup=adapter-service},1651369039,735402
{consumergroup=adapter-service},1651369044,610320
{consumergroup=adapter-service},1651369049,610320
{consumergroup=adapter-service},1651369054,610320
{consumergroup=adapter-service},1651369059,600260
{consumergroup=adapter-service},1651369064,600260
{consumergroup=adapter-service},1651369069,600260
{consumergroup=adapter-service},1651369074,1038990
{consumergroup=adapter-service},1651369079,1038990
{consumergroup=adapter-service},1651369084,1038990
{consumergroup=adapter-service},1651369089,859078
{consumergroup=adapter-service},1651369094,859078
{consumergroup=adapter-service},1651369099,859078
{consumergroup=adapter-service},1651369104,1082464
{consumergroup=adapter-service},1651369109,1082464
{consumergroup=adapter-service},1651369114,1082464
{consumergroup=adapter-service},1651369119,988087
