labels,timestamp,value
{consumergroup=__strimzi-topic-operator-kstreams},1651368569,12
{consumergroup=__strimzi-topic-operator-kstreams},1651368574,12
{consumergroup=__strimzi-topic-operator-kstreams},1651368579,12
{consumergroup=__strimzi-topic-operator-kstreams},1651368584,12
{consumergroup=__strimzi-topic-operator-kstreams},1651368589,12
{consumergroup=__strimzi-topic-operator-kstreams},1651368594,12
{consumergroup=__strimzi-topic-operator-kstreams},1651368599,0
{consumergroup=__strimzi-topic-operator-kstreams},1651368604,0
{consumergroup=__strimzi-topic-operator-kstreams},1651368609,0
{consumergroup=__strimzi-topic-operator-kstreams},1651368614,0
{consumergroup=__strimzi-topic-operator-kstreams},1651368619,0
{consumergroup=__strimzi-topic-operator-kstreams},1651368624,0
{consumergroup=__strimzi-topic-operator-kstreams},1651368629,0
{consumergroup=__strimzi-topic-operator-kstreams},1651368634,0
{consumergroup=__strimzi-topic-operator-kstreams},1651368639,0
{consumergroup=__strimzi-topic-operator-kstreams},1651368644,0
{consumergroup=__strimzi-topic-operator-kstreams},1651368649,0
{consumergroup=__strimzi-topic-operator-kstreams},1651368654,0
{consumergroup=__strimzi-topic-operator-kstreams},1651368659,0
{consumergroup=__strimzi-topic-operator-kstreams},1651368664,0
{consumergroup=__strimzi-topic-operator-kstreams},1651368669,0
{consumergroup=__strimzi-topic-operator-kstreams},1651368674,0
{consumergroup=__strimzi-topic-operator-kstreams},1651368679,0
{consumergroup=__strimzi-topic-operator-kstreams},1651368684,0
{consumergroup=__strimzi-topic-operator-kstreams},1651368689,0
{consumergroup=__strimzi-topic-operator-kstreams},1651368694,0
{consumergroup=__strimzi-topic-operator-kstreams},1651368699,0
{consumergroup=__strimzi-topic-operator-kstreams},1651368704,0
{consumergroup=__strimzi-topic-operator-kstreams},1651368709,0
{consumergroup=__strimzi-topic-operator-kstreams},1651368714,0
{consumergroup=__strimzi-topic-operator-kstreams},1651368719,0
{consumergroup=__strimzi-topic-operator-kstreams},1651368724,0
{consumergroup=__strimzi-topic-operator-kstreams},1651368729,0
{consumergroup=__strimzi-topic-operator-kstreams},1651368734,0
{consumergroup=__strimzi-topic-operator-kstreams},1651368739,0
{consumergroup=__strimzi-topic-operator-kstreams},1651368744,0
{consumergroup=__strimzi-topic-operator-kstreams},1651368749,0
{consumergroup=__strimzi-topic-operator-kstreams},1651368754,0
{consumergroup=__strimzi-topic-operator-kstreams},1651368759,0
{consumergroup=__strimzi-topic-operator-kstreams},1651368764,0
{consumergroup=__strimzi-topic-operator-kstreams},1651368769,0
{consumergroup=__strimzi-topic-operator-kstreams},1651368774,0
{consumergroup=__strimzi-topic-operator-kstreams},1651368779,0
{consumergroup=__strimzi-topic-operator-kstreams},1651368784,0
{consumergroup=__strimzi-topic-operator-kstreams},1651368789,0
{consumergroup=__strimzi-topic-operator-kstreams},1651368794,0
{consumergroup=__strimzi-topic-operator-kstreams},1651368799,0
{consumergroup=__strimzi-topic-operator-kstreams},1651368804,0
{consumergroup=__strimzi-topic-operator-kstreams},1651368809,0
{consumergroup=__strimzi-topic-operator-kstreams},1651368814,0
{consumergroup=__strimzi-topic-operator-kstreams},1651368819,0
{consumergroup=adapter-service},1651368599,84490
{consumergroup=adapter-service},1651368604,84490
{consumergroup=adapter-service},1651368609,84490
{consumergroup=adapter-service},1651368614,484795
{consumergroup=adapter-service},1651368619,484795
{consumergroup=adapter-service},1651368624,484795
{consumergroup=adapter-service},1651368629,929389
{consumergroup=adapter-service},1651368634,929389
{consumergroup=adapter-service},1651368639,929389
{consumergroup=adapter-service},1651368644,600222
{consumergroup=adapter-service},1651368649,600222
{consumergroup=adapter-service},1651368654,600222
{consumergroup=adapter-service},1651368659,527709
{consumergroup=adapter-service},1651368664,527709
{consumergroup=adapter-service},1651368669,527709
{consumergroup=adapter-service},1651368674,629022
{consumergroup=adapter-service},1651368679,629022
{consumergroup=adapter-service},1651368684,629022
{consumergroup=adapter-service},1651368689,571438
{consumergroup=adapter-service},1651368694,571438
{consumergroup=adapter-service},1651368699,571438
{consumergroup=adapter-service},1651368704,676887
{consumergroup=adapter-service},1651368709,676887
{consumergroup=adapter-service},1651368714,676887
{consumergroup=adapter-service},1651368719,1093566
{consumergroup=adapter-service},1651368724,1093566
{consumergroup=adapter-service},1651368729,1093566
{consumergroup=adapter-service},1651368734,1142260
{consumergroup=adapter-service},1651368739,1142260
{consumergroup=adapter-service},1651368744,1142260
{consumergroup=adapter-service},1651368749,808109
{consumergroup=adapter-service},1651368754,808109
{consumergroup=adapter-service},1651368759,808109
{consumergroup=adapter-service},1651368764,929037
{consumergroup=adapter-service},1651368769,929037
{consumergroup=adapter-service},1651368774,929037
{consumergroup=adapter-service},1651368779,693347
{consumergroup=adapter-service},1651368784,693347
{consumergroup=adapter-service},1651368789,693347
{consumergroup=adapter-service},1651368794,830585
{consumergroup=adapter-service},1651368799,830585
{consumergroup=adapter-service},1651368804,830585
{consumergroup=adapter-service},1651368809,1286160
{consumergroup=adapter-service},1651368814,1286160
{consumergroup=adapter-service},1651368819,1286160
