labels,timestamp,value
{consumergroup=__strimzi-topic-operator-kstreams},1651347488,13
{consumergroup=__strimzi-topic-operator-kstreams},1651347493,13
{consumergroup=__strimzi-topic-operator-kstreams},1651347498,13
{consumergroup=__strimzi-topic-operator-kstreams},1651347503,0
{consumergroup=__strimzi-topic-operator-kstreams},1651347508,0
{consumergroup=__strimzi-topic-operator-kstreams},1651347513,0
{consumergroup=__strimzi-topic-operator-kstreams},1651347518,0
{consumergroup=__strimzi-topic-operator-kstreams},1651347523,0
{consumergroup=__strimzi-topic-operator-kstreams},1651347528,0
{consumergroup=__strimzi-topic-operator-kstreams},1651347533,0
{consumergroup=__strimzi-topic-operator-kstreams},1651347538,0
{consumergroup=__strimzi-topic-operator-kstreams},1651347543,0
{consumergroup=__strimzi-topic-operator-kstreams},1651347548,0
{consumergroup=__strimzi-topic-operator-kstreams},1651347553,0
{consumergroup=__strimzi-topic-operator-kstreams},1651347558,0
{consumergroup=__strimzi-topic-operator-kstreams},1651347563,0
{consumergroup=__strimzi-topic-operator-kstreams},1651347568,0
{consumergroup=__strimzi-topic-operator-kstreams},1651347573,0
{consumergroup=__strimzi-topic-operator-kstreams},1651347578,0
{consumergroup=__strimzi-topic-operator-kstreams},1651347583,0
{consumergroup=__strimzi-topic-operator-kstreams},1651347588,0
{consumergroup=__strimzi-topic-operator-kstreams},1651347593,0
{consumergroup=__strimzi-topic-operator-kstreams},1651347598,0
{consumergroup=__strimzi-topic-operator-kstreams},1651347603,0
{consumergroup=__strimzi-topic-operator-kstreams},1651347608,0
{consumergroup=__strimzi-topic-operator-kstreams},1651347613,0
{consumergroup=__strimzi-topic-operator-kstreams},1651347618,0
{consumergroup=__strimzi-topic-operator-kstreams},1651347623,0
{consumergroup=__strimzi-topic-operator-kstreams},1651347628,0
{consumergroup=__strimzi-topic-operator-kstreams},1651347633,0
{consumergroup=__strimzi-topic-operator-kstreams},1651347638,0
{consumergroup=__strimzi-topic-operator-kstreams},1651347643,0
{consumergroup=__strimzi-topic-operator-kstreams},1651347648,0
{consumergroup=__strimzi-topic-operator-kstreams},1651347653,0
{consumergroup=__strimzi-topic-operator-kstreams},1651347658,0
{consumergroup=__strimzi-topic-operator-kstreams},1651347663,0
{consumergroup=__strimzi-topic-operator-kstreams},1651347668,0
{consumergroup=__strimzi-topic-operator-kstreams},1651347673,0
{consumergroup=__strimzi-topic-operator-kstreams},1651347678,0
{consumergroup=__strimzi-topic-operator-kstreams},1651347683,0
{consumergroup=__strimzi-topic-operator-kstreams},1651347688,0
{consumergroup=__strimzi-topic-operator-kstreams},1651347693,0
{consumergroup=__strimzi-topic-operator-kstreams},1651347698,0
{consumergroup=__strimzi-topic-operator-kstreams},1651347703,0
{consumergroup=__strimzi-topic-operator-kstreams},1651347708,0
{consumergroup=__strimzi-topic-operator-kstreams},1651347713,0
{consumergroup=__strimzi-topic-operator-kstreams},1651347718,0
{consumergroup=__strimzi-topic-operator-kstreams},1651347723,0
{consumergroup=__strimzi-topic-operator-kstreams},1651347728,0
{consumergroup=__strimzi-topic-operator-kstreams},1651347733,0
{consumergroup=__strimzi-topic-operator-kstreams},1651347738,0
{consumergroup=__strimzi-topic-operator-kstreams},1651347743,0
{consumergroup=adapter-service},1651347518,342799
{consumergroup=adapter-service},1651347523,342799
{consumergroup=adapter-service},1651347528,342799
{consumergroup=adapter-service},1651347533,622244
{consumergroup=adapter-service},1651347538,622244
{consumergroup=adapter-service},1651347543,622244
{consumergroup=adapter-service},1651347548,405667
{consumergroup=adapter-service},1651347553,405667
{consumergroup=adapter-service},1651347558,405667
{consumergroup=adapter-service},1651347563,306182
{consumergroup=adapter-service},1651347568,306182
{consumergroup=adapter-service},1651347573,306182
{consumergroup=adapter-service},1651347578,458399
{consumergroup=adapter-service},1651347583,458399
{consumergroup=adapter-service},1651347588,458399
{consumergroup=adapter-service},1651347593,29298
{consumergroup=adapter-service},1651347598,29298
{consumergroup=adapter-service},1651347603,29298
{consumergroup=adapter-service},1651347608,19804
{consumergroup=adapter-service},1651347613,19804
{consumergroup=adapter-service},1651347618,19804
{consumergroup=adapter-service},1651347623,8015
{consumergroup=adapter-service},1651347628,8015
{consumergroup=adapter-service},1651347633,8015
{consumergroup=adapter-service},1651347638,277972
{consumergroup=adapter-service},1651347643,277972
{consumergroup=adapter-service},1651347648,277972
{consumergroup=adapter-service},1651347653,230116
{consumergroup=adapter-service},1651347658,230116
{consumergroup=adapter-service},1651347663,230116
{consumergroup=adapter-service},1651347668,257424
{consumergroup=adapter-service},1651347673,257424
{consumergroup=adapter-service},1651347678,257424
{consumergroup=adapter-service},1651347683,314625
{consumergroup=adapter-service},1651347688,314625
{consumergroup=adapter-service},1651347693,314625
{consumergroup=adapter-service},1651347698,319849
{consumergroup=adapter-service},1651347703,319849
{consumergroup=adapter-service},1651347708,319849
{consumergroup=adapter-service},1651347713,308515
{consumergroup=adapter-service},1651347718,308515
{consumergroup=adapter-service},1651347723,308515
{consumergroup=adapter-service},1651347728,220217
{consumergroup=adapter-service},1651347733,220217
{consumergroup=adapter-service},1651347738,220217
{consumergroup=adapter-service},1651347743,285713
