labels,timestamp,value
{consumergroup=__strimzi-topic-operator-kstreams},1651358896,0
{consumergroup=__strimzi-topic-operator-kstreams},1651358911,10
{consumergroup=__strimzi-topic-operator-kstreams},1651358916,10
{consumergroup=__strimzi-topic-operator-kstreams},1651358921,10
{consumergroup=__strimzi-topic-operator-kstreams},1651358926,10
{consumergroup=__strimzi-topic-operator-kstreams},1651358931,10
{consumergroup=__strimzi-topic-operator-kstreams},1651358936,10
{consumergroup=__strimzi-topic-operator-kstreams},1651358941,0
{consumergroup=__strimzi-topic-operator-kstreams},1651358946,0
{consumergroup=__strimzi-topic-operator-kstreams},1651358951,0
{consumergroup=__strimzi-topic-operator-kstreams},1651358956,0
{consumergroup=__strimzi-topic-operator-kstreams},1651358961,0
{consumergroup=__strimzi-topic-operator-kstreams},1651358966,0
{consumergroup=__strimzi-topic-operator-kstreams},1651358971,0
{consumergroup=__strimzi-topic-operator-kstreams},1651358976,0
{consumergroup=__strimzi-topic-operator-kstreams},1651358981,0
{consumergroup=__strimzi-topic-operator-kstreams},1651358986,0
{consumergroup=__strimzi-topic-operator-kstreams},1651358991,0
{consumergroup=__strimzi-topic-operator-kstreams},1651358996,0
{consumergroup=__strimzi-topic-operator-kstreams},1651359001,0
{consumergroup=__strimzi-topic-operator-kstreams},1651359006,0
{consumergroup=__strimzi-topic-operator-kstreams},1651359011,0
{consumergroup=__strimzi-topic-operator-kstreams},1651359016,0
{consumergroup=__strimzi-topic-operator-kstreams},1651359021,0
{consumergroup=__strimzi-topic-operator-kstreams},1651359026,0
{consumergroup=__strimzi-topic-operator-kstreams},1651359031,0
{consumergroup=__strimzi-topic-operator-kstreams},1651359036,0
{consumergroup=__strimzi-topic-operator-kstreams},1651359041,0
{consumergroup=__strimzi-topic-operator-kstreams},1651359046,0
{consumergroup=__strimzi-topic-operator-kstreams},1651359051,0
{consumergroup=__strimzi-topic-operator-kstreams},1651359056,0
{consumergroup=__strimzi-topic-operator-kstreams},1651359061,0
{consumergroup=__strimzi-topic-operator-kstreams},1651359066,0
{consumergroup=__strimzi-topic-operator-kstreams},1651359071,0
{consumergroup=__strimzi-topic-operator-kstreams},1651359076,0
{consumergroup=__strimzi-topic-operator-kstreams},1651359081,0
{consumergroup=__strimzi-topic-operator-kstreams},1651359086,0
{consumergroup=__strimzi-topic-operator-kstreams},1651359091,0
{consumergroup=__strimzi-topic-operator-kstreams},1651359096,0
{consumergroup=__strimzi-topic-operator-kstreams},1651359101,0
{consumergroup=__strimzi-topic-operator-kstreams},1651359106,0
{consumergroup=__strimzi-topic-operator-kstreams},1651359111,0
{consumergroup=__strimzi-topic-operator-kstreams},1651359116,0
{consumergroup=__strimzi-topic-operator-kstreams},1651359121,0
{consumergroup=__strimzi-topic-operator-kstreams},1651359126,0
{consumergroup=__strimzi-topic-operator-kstreams},1651359131,0
{consumergroup=__strimzi-topic-operator-kstreams},1651359136,0
{consumergroup=__strimzi-topic-operator-kstreams},1651359141,0
{consumergroup=__strimzi-topic-operator-kstreams},1651359146,0
{consumergroup=__strimzi-topic-operator-kstreams},1651359151,0
{consumergroup=__strimzi-topic-operator-kstreams},1651359156,0
{consumergroup=adapter-service},1651358896,1333297
{consumergroup=adapter-service},1651358926,0
{consumergroup=adapter-service},1651358931,0
{consumergroup=adapter-service},1651358936,0
{consumergroup=adapter-service},1651358941,763243
{consumergroup=adapter-service},1651358946,763243
{consumergroup=adapter-service},1651358951,763243
{consumergroup=adapter-service},1651358956,1297979
{consumergroup=adapter-service},1651358961,1297979
{consumergroup=adapter-service},1651358966,1297979
{consumergroup=adapter-service},1651358971,1176103
{consumergroup=adapter-service},1651358976,1176103
{consumergroup=adapter-service},1651358981,1176103
{consumergroup=adapter-service},1651358986,1351457
{consumergroup=adapter-service},1651358991,1351457
{consumergroup=adapter-service},1651358996,1351457
{consumergroup=adapter-service},1651359001,1077025
{consumergroup=adapter-service},1651359006,1077025
{consumergroup=adapter-service},1651359011,1077025
{consumergroup=adapter-service},1651359016,1127887
{consumergroup=adapter-service},1651359021,1127887
{consumergroup=adapter-service},1651359026,1127887
{consumergroup=adapter-service},1651359031,1142683
{consumergroup=adapter-service},1651359036,1142683
{consumergroup=adapter-service},1651359041,1142683
{consumergroup=adapter-service},1651359046,946001
{consumergroup=adapter-service},1651359051,946001
{consumergroup=adapter-service},1651359056,946001
{consumergroup=adapter-service},1651359061,1242657
{consumergroup=adapter-service},1651359066,1242657
{consumergroup=adapter-service},1651359071,1242657
{consumergroup=adapter-service},1651359076,869515
{consumergroup=adapter-service},1651359081,869515
{consumergroup=adapter-service},1651359086,869515
{consumergroup=adapter-service},1651359091,913957
{consumergroup=adapter-service},1651359096,913957
{consumergroup=adapter-service},1651359101,913957
{consumergroup=adapter-service},1651359106,961012
{consumergroup=adapter-service},1651359111,961012
{consumergroup=adapter-service},1651359116,961012
{consumergroup=adapter-service},1651359121,882979
{consumergroup=adapter-service},1651359126,882979
{consumergroup=adapter-service},1651359131,882979
{consumergroup=adapter-service},1651359136,1130966
{consumergroup=adapter-service},1651359141,1130966
{consumergroup=adapter-service},1651359146,1130966
{consumergroup=adapter-service},1651359151,1107510
{consumergroup=adapter-service},1651359156,1107510
