labels,timestamp,value
{consumergroup=__strimzi-topic-operator-kstreams},1651349264,8
{consumergroup=__strimzi-topic-operator-kstreams},1651349269,8
{consumergroup=__strimzi-topic-operator-kstreams},1651349274,8
{consumergroup=__strimzi-topic-operator-kstreams},1651349279,0
{consumergroup=__strimzi-topic-operator-kstreams},1651349284,0
{consumergroup=__strimzi-topic-operator-kstreams},1651349289,0
{consumergroup=__strimzi-topic-operator-kstreams},1651349294,0
{consumergroup=__strimzi-topic-operator-kstreams},1651349299,0
{consumergroup=__strimzi-topic-operator-kstreams},1651349304,0
{consumergroup=__strimzi-topic-operator-kstreams},1651349309,0
{consumergroup=__strimzi-topic-operator-kstreams},1651349314,0
{consumergroup=__strimzi-topic-operator-kstreams},1651349319,0
{consumergroup=__strimzi-topic-operator-kstreams},1651349324,0
{consumergroup=__strimzi-topic-operator-kstreams},1651349329,0
{consumergroup=__strimzi-topic-operator-kstreams},1651349334,0
{consumergroup=__strimzi-topic-operator-kstreams},1651349339,0
{consumergroup=__strimzi-topic-operator-kstreams},1651349344,0
{consumergroup=__strimzi-topic-operator-kstreams},1651349349,0
{consumergroup=__strimzi-topic-operator-kstreams},1651349354,0
{consumergroup=__strimzi-topic-operator-kstreams},1651349359,0
{consumergroup=__strimzi-topic-operator-kstreams},1651349364,0
{consumergroup=__strimzi-topic-operator-kstreams},1651349369,0
{consumergroup=__strimzi-topic-operator-kstreams},1651349374,0
{consumergroup=__strimzi-topic-operator-kstreams},1651349379,0
{consumergroup=__strimzi-topic-operator-kstreams},1651349384,0
{consumergroup=__strimzi-topic-operator-kstreams},1651349389,0
{consumergroup=__strimzi-topic-operator-kstreams},1651349394,0
{consumergroup=__strimzi-topic-operator-kstreams},1651349399,0
{consumergroup=__strimzi-topic-operator-kstreams},1651349404,0
{consumergroup=__strimzi-topic-operator-kstreams},1651349409,0
{consumergroup=__strimzi-topic-operator-kstreams},1651349414,0
{consumergroup=__strimzi-topic-operator-kstreams},1651349419,0
{consumergroup=__strimzi-topic-operator-kstreams},1651349424,0
{consumergroup=__strimzi-topic-operator-kstreams},1651349429,0
{consumergroup=__strimzi-topic-operator-kstreams},1651349434,0
{consumergroup=__strimzi-topic-operator-kstreams},1651349439,0
{consumergroup=__strimzi-topic-operator-kstreams},1651349444,0
{consumergroup=__strimzi-topic-operator-kstreams},1651349449,0
{consumergroup=__strimzi-topic-operator-kstreams},1651349454,0
{consumergroup=__strimzi-topic-operator-kstreams},1651349459,0
{consumergroup=__strimzi-topic-operator-kstreams},1651349464,0
{consumergroup=__strimzi-topic-operator-kstreams},1651349469,0
{consumergroup=__strimzi-topic-operator-kstreams},1651349474,0
{consumergroup=__strimzi-topic-operator-kstreams},1651349479,0
{consumergroup=__strimzi-topic-operator-kstreams},1651349484,0
{consumergroup=__strimzi-topic-operator-kstreams},1651349489,0
{consumergroup=__strimzi-topic-operator-kstreams},1651349494,0
{consumergroup=__strimzi-topic-operator-kstreams},1651349499,0
{consumergroup=__strimzi-topic-operator-kstreams},1651349504,0
{consumergroup=__strimzi-topic-operator-kstreams},1651349509,0
{consumergroup=adapter-service},1651349279,17827
{consumergroup=adapter-service},1651349284,17827
{consumergroup=adapter-service},1651349289,17827
{consumergroup=adapter-service},1651349294,1074197
{consumergroup=adapter-service},1651349299,1074197
{consumergroup=adapter-service},1651349304,1074197
{consumergroup=adapter-service},1651349309,1248707
{consumergroup=adapter-service},1651349314,1248707
{consumergroup=adapter-service},1651349319,1248707
{consumergroup=adapter-service},1651349324,785829
{consumergroup=adapter-service},1651349329,785829
{consumergroup=adapter-service},1651349334,785829
{consumergroup=adapter-service},1651349339,1245258
{consumergroup=adapter-service},1651349344,1245258
{consumergroup=adapter-service},1651349349,1245258
{consumergroup=adapter-service},1651349354,1394509
{consumergroup=adapter-service},1651349359,1394509
{consumergroup=adapter-service},1651349364,1394509
{consumergroup=adapter-service},1651349369,1529936
{consumergroup=adapter-service},1651349374,1529936
{consumergroup=adapter-service},1651349379,1529936
{consumergroup=adapter-service},1651349384,1688904
{consumergroup=adapter-service},1651349389,1688904
{consumergroup=adapter-service},1651349394,1688904
{consumergroup=adapter-service},1651349399,1700602
{consumergroup=adapter-service},1651349404,1700602
{consumergroup=adapter-service},1651349409,1700602
{consumergroup=adapter-service},1651349414,1955740
{consumergroup=adapter-service},1651349419,1955740
{consumergroup=adapter-service},1651349424,1955740
{consumergroup=adapter-service},1651349429,2135808
{consumergroup=adapter-service},1651349434,2135808
{consumergroup=adapter-service},1651349439,2135808
{consumergroup=adapter-service},1651349444,2081867
{consumergroup=adapter-service},1651349449,2081867
{consumergroup=adapter-service},1651349454,2081867
{consumergroup=adapter-service},1651349459,2232294
{consumergroup=adapter-service},1651349464,2232294
{consumergroup=adapter-service},1651349469,2232294
{consumergroup=adapter-service},1651349474,2496814
{consumergroup=adapter-service},1651349479,2496814
{consumergroup=adapter-service},1651349484,2496814
{consumergroup=adapter-service},1651349489,2533881
{consumergroup=adapter-service},1651349494,2533881
{consumergroup=adapter-service},1651349499,2533881
{consumergroup=adapter-service},1651349504,2556887
{consumergroup=adapter-service},1651349509,2556887
