labels,timestamp,value
{consumergroup=__strimzi-topic-operator-kstreams},1651450693,15
{consumergroup=__strimzi-topic-operator-kstreams},1651450698,15
{consumergroup=__strimzi-topic-operator-kstreams},1651450703,15
{consumergroup=__strimzi-topic-operator-kstreams},1651450708,0
{consumergroup=__strimzi-topic-operator-kstreams},1651450713,0
{consumergroup=__strimzi-topic-operator-kstreams},1651450718,0
{consumergroup=__strimzi-topic-operator-kstreams},1651450723,0
{consumergroup=__strimzi-topic-operator-kstreams},1651450728,0
{consumergroup=__strimzi-topic-operator-kstreams},1651450733,0
{consumergroup=__strimzi-topic-operator-kstreams},1651450738,0
{consumergroup=__strimzi-topic-operator-kstreams},1651450743,0
{consumergroup=__strimzi-topic-operator-kstreams},1651450748,0
{consumergroup=__strimzi-topic-operator-kstreams},1651450753,0
{consumergroup=__strimzi-topic-operator-kstreams},1651450758,0
{consumergroup=__strimzi-topic-operator-kstreams},1651450763,0
{consumergroup=__strimzi-topic-operator-kstreams},1651450768,0
{consumergroup=__strimzi-topic-operator-kstreams},1651450773,0
{consumergroup=__strimzi-topic-operator-kstreams},1651450778,0
{consumergroup=__strimzi-topic-operator-kstreams},1651450783,0
{consumergroup=__strimzi-topic-operator-kstreams},1651450788,0
{consumergroup=__strimzi-topic-operator-kstreams},1651450793,0
{consumergroup=__strimzi-topic-operator-kstreams},1651450798,0
{consumergroup=__strimzi-topic-operator-kstreams},1651450803,0
{consumergroup=__strimzi-topic-operator-kstreams},1651450808,0
{consumergroup=__strimzi-topic-operator-kstreams},1651450813,0
{consumergroup=__strimzi-topic-operator-kstreams},1651450818,0
{consumergroup=__strimzi-topic-operator-kstreams},1651450823,0
{consumergroup=__strimzi-topic-operator-kstreams},1651450828,0
{consumergroup=__strimzi-topic-operator-kstreams},1651450833,0
{consumergroup=__strimzi-topic-operator-kstreams},1651450838,0
{consumergroup=__strimzi-topic-operator-kstreams},1651450843,0
{consumergroup=__strimzi-topic-operator-kstreams},1651450848,0
{consumergroup=__strimzi-topic-operator-kstreams},1651450853,0
{consumergroup=__strimzi-topic-operator-kstreams},1651450858,0
{consumergroup=__strimzi-topic-operator-kstreams},1651450863,0
{consumergroup=__strimzi-topic-operator-kstreams},1651450868,0
{consumergroup=__strimzi-topic-operator-kstreams},1651450873,0
{consumergroup=__strimzi-topic-operator-kstreams},1651450878,0
{consumergroup=__strimzi-topic-operator-kstreams},1651450883,0
{consumergroup=__strimzi-topic-operator-kstreams},1651450888,0
{consumergroup=__strimzi-topic-operator-kstreams},1651450893,0
{consumergroup=__strimzi-topic-operator-kstreams},1651450898,0
{consumergroup=__strimzi-topic-operator-kstreams},1651450903,0
{consumergroup=__strimzi-topic-operator-kstreams},1651450908,0
{consumergroup=__strimzi-topic-operator-kstreams},1651450913,0
{consumergroup=__strimzi-topic-operator-kstreams},1651450918,0
{consumergroup=__strimzi-topic-operator-kstreams},1651450923,0
{consumergroup=__strimzi-topic-operator-kstreams},1651450928,0
{consumergroup=__strimzi-topic-operator-kstreams},1651450933,0
{consumergroup=__strimzi-topic-operator-kstreams},1651450938,0
{consumergroup=__strimzi-topic-operator-kstreams},1651450943,0
{consumergroup=adapter-service},1651450723,141804
{consumergroup=adapter-service},1651450728,141804
{consumergroup=adapter-service},1651450733,141804
{consumergroup=adapter-service},1651450738,312263
{consumergroup=adapter-service},1651450743,312263
{consumergroup=adapter-service},1651450748,312263
{consumergroup=adapter-service},1651450753,484065
{consumergroup=adapter-service},1651450758,484065
{consumergroup=adapter-service},1651450763,484065
{consumergroup=adapter-service},1651450768,596844
{consumergroup=adapter-service},1651450773,596844
{consumergroup=adapter-service},1651450778,596844
{consumergroup=adapter-service},1651450783,730069
{consumergroup=adapter-service},1651450788,730069
{consumergroup=adapter-service},1651450793,730069
{consumergroup=adapter-service},1651450798,830052
{consumergroup=adapter-service},1651450803,830052
{consumergroup=adapter-service},1651450808,830052
{consumergroup=adapter-service},1651450813,913203
{consumergroup=adapter-service},1651450818,913203
{consumergroup=adapter-service},1651450823,913203
{consumergroup=adapter-service},1651450828,970295
{consumergroup=adapter-service},1651450833,970295
{consumergroup=adapter-service},1651450838,970295
{consumergroup=adapter-service},1651450843,1006422
{consumergroup=adapter-service},1651450848,1006422
{consumergroup=adapter-service},1651450853,1006422
{consumergroup=adapter-service},1651450858,1003070
{consumergroup=adapter-service},1651450863,1003070
{consumergroup=adapter-service},1651450868,1003070
{consumergroup=adapter-service},1651450873,1028813
{consumergroup=adapter-service},1651450878,1028813
{consumergroup=adapter-service},1651450883,1028813
{consumergroup=adapter-service},1651450888,1037627
{consumergroup=adapter-service},1651450893,1037627
{consumergroup=adapter-service},1651450898,1037627
{consumergroup=adapter-service},1651450903,1044057
{consumergroup=adapter-service},1651450908,1044057
{consumergroup=adapter-service},1651450913,1044057
{consumergroup=adapter-service},1651450918,1059518
{consumergroup=adapter-service},1651450923,1059518
{consumergroup=adapter-service},1651450928,1059518
{consumergroup=adapter-service},1651450933,1067995
{consumergroup=adapter-service},1651450938,1067995
{consumergroup=adapter-service},1651450943,1067995
