labels,timestamp,value
{consumergroup=__strimzi-topic-operator-kstreams},1651443261,8
{consumergroup=__strimzi-topic-operator-kstreams},1651443266,8
{consumergroup=__strimzi-topic-operator-kstreams},1651443271,8
{consumergroup=__strimzi-topic-operator-kstreams},1651443276,0
{consumergroup=__strimzi-topic-operator-kstreams},1651443281,0
{consumergroup=__strimzi-topic-operator-kstreams},1651443286,0
{consumergroup=__strimzi-topic-operator-kstreams},1651443291,0
{consumergroup=__strimzi-topic-operator-kstreams},1651443296,0
{consumergroup=__strimzi-topic-operator-kstreams},1651443301,0
{consumergroup=__strimzi-topic-operator-kstreams},1651443306,0
{consumergroup=__strimzi-topic-operator-kstreams},1651443311,0
{consumergroup=__strimzi-topic-operator-kstreams},1651443316,0
{consumergroup=__strimzi-topic-operator-kstreams},1651443321,0
{consumergroup=__strimzi-topic-operator-kstreams},1651443326,0
{consumergroup=__strimzi-topic-operator-kstreams},1651443331,0
{consumergroup=__strimzi-topic-operator-kstreams},1651443336,0
{consumergroup=__strimzi-topic-operator-kstreams},1651443341,0
{consumergroup=__strimzi-topic-operator-kstreams},1651443346,0
{consumergroup=__strimzi-topic-operator-kstreams},1651443351,0
{consumergroup=__strimzi-topic-operator-kstreams},1651443356,0
{consumergroup=__strimzi-topic-operator-kstreams},1651443361,0
{consumergroup=__strimzi-topic-operator-kstreams},1651443366,0
{consumergroup=__strimzi-topic-operator-kstreams},1651443371,0
{consumergroup=__strimzi-topic-operator-kstreams},1651443376,0
{consumergroup=__strimzi-topic-operator-kstreams},1651443381,0
{consumergroup=__strimzi-topic-operator-kstreams},1651443386,0
{consumergroup=__strimzi-topic-operator-kstreams},1651443391,0
{consumergroup=__strimzi-topic-operator-kstreams},1651443396,0
{consumergroup=__strimzi-topic-operator-kstreams},1651443401,0
{consumergroup=__strimzi-topic-operator-kstreams},1651443406,0
{consumergroup=__strimzi-topic-operator-kstreams},1651443411,0
{consumergroup=__strimzi-topic-operator-kstreams},1651443416,0
{consumergroup=__strimzi-topic-operator-kstreams},1651443421,0
{consumergroup=__strimzi-topic-operator-kstreams},1651443426,0
{consumergroup=__strimzi-topic-operator-kstreams},1651443431,0
{consumergroup=__strimzi-topic-operator-kstreams},1651443436,0
{consumergroup=__strimzi-topic-operator-kstreams},1651443441,0
{consumergroup=__strimzi-topic-operator-kstreams},1651443446,0
{consumergroup=__strimzi-topic-operator-kstreams},1651443451,0
{consumergroup=__strimzi-topic-operator-kstreams},1651443456,0
{consumergroup=__strimzi-topic-operator-kstreams},1651443461,0
{consumergroup=__strimzi-topic-operator-kstreams},1651443466,0
{consumergroup=__strimzi-topic-operator-kstreams},1651443471,0
{consumergroup=__strimzi-topic-operator-kstreams},1651443476,0
{consumergroup=__strimzi-topic-operator-kstreams},1651443481,0
{consumergroup=__strimzi-topic-operator-kstreams},1651443486,0
{consumergroup=__strimzi-topic-operator-kstreams},1651443491,0
{consumergroup=__strimzi-topic-operator-kstreams},1651443496,0
{consumergroup=__strimzi-topic-operator-kstreams},1651443501,0
{consumergroup=__strimzi-topic-operator-kstreams},1651443506,0
{consumergroup=__strimzi-topic-operator-kstreams},1651443511,0
{consumergroup=__strimzi-topic-operator-kstreams},1651443516,0
{consumergroup=__strimzi-topic-operator-kstreams},1651443521,0
{consumergroup=adapter-service},1651443291,0
{consumergroup=adapter-service},1651443296,0
{consumergroup=adapter-service},1651443301,0
{consumergroup=adapter-service},1651443306,75229
{consumergroup=adapter-service},1651443311,75229
{consumergroup=adapter-service},1651443316,75229
{consumergroup=adapter-service},1651443321,144541
{consumergroup=adapter-service},1651443326,144541
{consumergroup=adapter-service},1651443331,144541
{consumergroup=adapter-service},1651443336,198338
{consumergroup=adapter-service},1651443341,198338
{consumergroup=adapter-service},1651443346,198338
{consumergroup=adapter-service},1651443351,260069
{consumergroup=adapter-service},1651443356,260069
{consumergroup=adapter-service},1651443361,260069
{consumergroup=adapter-service},1651443366,315522
{consumergroup=adapter-service},1651443371,315522
{consumergroup=adapter-service},1651443376,315522
{consumergroup=adapter-service},1651443381,361769
{consumergroup=adapter-service},1651443386,361769
{consumergroup=adapter-service},1651443391,361769
{consumergroup=adapter-service},1651443396,397679
{consumergroup=adapter-service},1651443401,397679
{consumergroup=adapter-service},1651443406,397679
{consumergroup=adapter-service},1651443411,422414
{consumergroup=adapter-service},1651443416,422414
{consumergroup=adapter-service},1651443421,422414
{consumergroup=adapter-service},1651443426,431070
{consumergroup=adapter-service},1651443431,431070
{consumergroup=adapter-service},1651443436,431070
{consumergroup=adapter-service},1651443441,445441
{consumergroup=adapter-service},1651443446,445441
{consumergroup=adapter-service},1651443451,445441
{consumergroup=adapter-service},1651443456,457441
{consumergroup=adapter-service},1651443461,457441
{consumergroup=adapter-service},1651443466,457441
{consumergroup=adapter-service},1651443471,468130
{consumergroup=adapter-service},1651443476,468130
{consumergroup=adapter-service},1651443481,468130
{consumergroup=adapter-service},1651443486,477628
{consumergroup=adapter-service},1651443491,477628
{consumergroup=adapter-service},1651443496,477628
{consumergroup=adapter-service},1651443501,484096
{consumergroup=adapter-service},1651443506,484096
{consumergroup=adapter-service},1651443511,484096
{consumergroup=adapter-service},1651443516,505678
{consumergroup=adapter-service},1651443521,505678
