labels,timestamp,value
{consumergroup=__strimzi-topic-operator-kstreams},1651442688,15
{consumergroup=__strimzi-topic-operator-kstreams},1651442693,15
{consumergroup=__strimzi-topic-operator-kstreams},1651442698,15
{consumergroup=__strimzi-topic-operator-kstreams},1651442703,0
{consumergroup=__strimzi-topic-operator-kstreams},1651442708,0
{consumergroup=__strimzi-topic-operator-kstreams},1651442713,0
{consumergroup=__strimzi-topic-operator-kstreams},1651442718,0
{consumergroup=__strimzi-topic-operator-kstreams},1651442723,0
{consumergroup=__strimzi-topic-operator-kstreams},1651442728,0
{consumergroup=__strimzi-topic-operator-kstreams},1651442733,0
{consumergroup=__strimzi-topic-operator-kstreams},1651442738,0
{consumergroup=__strimzi-topic-operator-kstreams},1651442743,0
{consumergroup=__strimzi-topic-operator-kstreams},1651442748,0
{consumergroup=__strimzi-topic-operator-kstreams},1651442753,0
{consumergroup=__strimzi-topic-operator-kstreams},1651442758,0
{consumergroup=__strimzi-topic-operator-kstreams},1651442763,0
{consumergroup=__strimzi-topic-operator-kstreams},1651442768,0
{consumergroup=__strimzi-topic-operator-kstreams},1651442773,0
{consumergroup=__strimzi-topic-operator-kstreams},1651442778,0
{consumergroup=__strimzi-topic-operator-kstreams},1651442783,0
{consumergroup=__strimzi-topic-operator-kstreams},1651442788,0
{consumergroup=__strimzi-topic-operator-kstreams},1651442793,0
{consumergroup=__strimzi-topic-operator-kstreams},1651442798,0
{consumergroup=__strimzi-topic-operator-kstreams},1651442803,0
{consumergroup=__strimzi-topic-operator-kstreams},1651442808,0
{consumergroup=__strimzi-topic-operator-kstreams},1651442813,0
{consumergroup=__strimzi-topic-operator-kstreams},1651442818,0
{consumergroup=__strimzi-topic-operator-kstreams},1651442823,0
{consumergroup=__strimzi-topic-operator-kstreams},1651442828,0
{consumergroup=__strimzi-topic-operator-kstreams},1651442833,0
{consumergroup=__strimzi-topic-operator-kstreams},1651442838,0
{consumergroup=__strimzi-topic-operator-kstreams},1651442843,0
{consumergroup=__strimzi-topic-operator-kstreams},1651442848,0
{consumergroup=__strimzi-topic-operator-kstreams},1651442853,0
{consumergroup=__strimzi-topic-operator-kstreams},1651442858,0
{consumergroup=__strimzi-topic-operator-kstreams},1651442863,0
{consumergroup=__strimzi-topic-operator-kstreams},1651442868,0
{consumergroup=__strimzi-topic-operator-kstreams},1651442873,0
{consumergroup=__strimzi-topic-operator-kstreams},1651442878,0
{consumergroup=__strimzi-topic-operator-kstreams},1651442883,0
{consumergroup=__strimzi-topic-operator-kstreams},1651442888,0
{consumergroup=__strimzi-topic-operator-kstreams},1651442893,0
{consumergroup=__strimzi-topic-operator-kstreams},1651442898,0
{consumergroup=__strimzi-topic-operator-kstreams},1651442903,0
{consumergroup=__strimzi-topic-operator-kstreams},1651442908,0
{consumergroup=__strimzi-topic-operator-kstreams},1651442913,0
{consumergroup=__strimzi-topic-operator-kstreams},1651442918,0
{consumergroup=__strimzi-topic-operator-kstreams},1651442923,0
{consumergroup=__strimzi-topic-operator-kstreams},1651442928,0
{consumergroup=__strimzi-topic-operator-kstreams},1651442933,0
{consumergroup=__strimzi-topic-operator-kstreams},1651442938,0
{consumergroup=adapter-service},1651442718,38123
{consumergroup=adapter-service},1651442723,38123
{consumergroup=adapter-service},1651442728,38123
{consumergroup=adapter-service},1651442733,110839
{consumergroup=adapter-service},1651442738,110839
{consumergroup=adapter-service},1651442743,110839
{consumergroup=adapter-service},1651442748,152722
{consumergroup=adapter-service},1651442753,152722
{consumergroup=adapter-service},1651442758,152722
{consumergroup=adapter-service},1651442763,201321
{consumergroup=adapter-service},1651442768,201321
{consumergroup=adapter-service},1651442773,201321
{consumergroup=adapter-service},1651442778,239992
{consumergroup=adapter-service},1651442783,239992
{consumergroup=adapter-service},1651442788,239992
{consumergroup=adapter-service},1651442793,271633
{consumergroup=adapter-service},1651442798,271633
{consumergroup=adapter-service},1651442803,271633
{consumergroup=adapter-service},1651442808,302660
{consumergroup=adapter-service},1651442813,302660
{consumergroup=adapter-service},1651442818,302660
{consumergroup=adapter-service},1651442823,325018
{consumergroup=adapter-service},1651442828,325018
{consumergroup=adapter-service},1651442833,325018
{consumergroup=adapter-service},1651442838,329106
{consumergroup=adapter-service},1651442843,329106
{consumergroup=adapter-service},1651442848,329106
{consumergroup=adapter-service},1651442853,333884
{consumergroup=adapter-service},1651442858,333884
{consumergroup=adapter-service},1651442863,333884
{consumergroup=adapter-service},1651442868,328022
{consumergroup=adapter-service},1651442873,328022
{consumergroup=adapter-service},1651442878,328022
{consumergroup=adapter-service},1651442883,326683
{consumergroup=adapter-service},1651442888,326683
{consumergroup=adapter-service},1651442893,326683
{consumergroup=adapter-service},1651442898,320482
{consumergroup=adapter-service},1651442903,320482
{consumergroup=adapter-service},1651442908,320482
{consumergroup=adapter-service},1651442913,324602
{consumergroup=adapter-service},1651442918,324602
{consumergroup=adapter-service},1651442923,324602
{consumergroup=adapter-service},1651442928,317467
{consumergroup=adapter-service},1651442933,317467
{consumergroup=adapter-service},1651442938,317467
