labels,timestamp,value
{consumergroup=__strimzi-topic-operator-kstreams},1651428972,6
{consumergroup=__strimzi-topic-operator-kstreams},1651428977,6
{consumergroup=__strimzi-topic-operator-kstreams},1651428982,6
{consumergroup=__strimzi-topic-operator-kstreams},1651428987,11
{consumergroup=__strimzi-topic-operator-kstreams},1651428992,11
{consumergroup=__strimzi-topic-operator-kstreams},1651428997,11
{consumergroup=__strimzi-topic-operator-kstreams},1651429002,0
{consumergroup=__strimzi-topic-operator-kstreams},1651429007,0
{consumergroup=__strimzi-topic-operator-kstreams},1651429012,0
{consumergroup=__strimzi-topic-operator-kstreams},1651429017,0
{consumergroup=__strimzi-topic-operator-kstreams},1651429022,0
{consumergroup=__strimzi-topic-operator-kstreams},1651429027,0
{consumergroup=__strimzi-topic-operator-kstreams},1651429032,0
{consumergroup=__strimzi-topic-operator-kstreams},1651429037,0
{consumergroup=__strimzi-topic-operator-kstreams},1651429042,0
{consumergroup=__strimzi-topic-operator-kstreams},1651429047,0
{consumergroup=__strimzi-topic-operator-kstreams},1651429052,0
{consumergroup=__strimzi-topic-operator-kstreams},1651429057,0
{consumergroup=__strimzi-topic-operator-kstreams},1651429062,0
{consumergroup=__strimzi-topic-operator-kstreams},1651429067,0
{consumergroup=__strimzi-topic-operator-kstreams},1651429072,0
{consumergroup=__strimzi-topic-operator-kstreams},1651429077,0
{consumergroup=__strimzi-topic-operator-kstreams},1651429082,0
{consumergroup=__strimzi-topic-operator-kstreams},1651429087,0
{consumergroup=__strimzi-topic-operator-kstreams},1651429092,0
{consumergroup=__strimzi-topic-operator-kstreams},1651429097,0
{consumergroup=__strimzi-topic-operator-kstreams},1651429102,0
{consumergroup=__strimzi-topic-operator-kstreams},1651429107,0
{consumergroup=__strimzi-topic-operator-kstreams},1651429112,0
{consumergroup=__strimzi-topic-operator-kstreams},1651429117,0
{consumergroup=__strimzi-topic-operator-kstreams},1651429122,0
{consumergroup=__strimzi-topic-operator-kstreams},1651429127,0
{consumergroup=__strimzi-topic-operator-kstreams},1651429132,0
{consumergroup=__strimzi-topic-operator-kstreams},1651429137,0
{consumergroup=__strimzi-topic-operator-kstreams},1651429142,0
{consumergroup=__strimzi-topic-operator-kstreams},1651429147,0
{consumergroup=__strimzi-topic-operator-kstreams},1651429152,0
{consumergroup=__strimzi-topic-operator-kstreams},1651429157,0
{consumergroup=__strimzi-topic-operator-kstreams},1651429162,0
{consumergroup=__strimzi-topic-operator-kstreams},1651429167,0
{consumergroup=__strimzi-topic-operator-kstreams},1651429172,0
{consumergroup=__strimzi-topic-operator-kstreams},1651429177,0
{consumergroup=__strimzi-topic-operator-kstreams},1651429182,0
{consumergroup=__strimzi-topic-operator-kstreams},1651429187,0
{consumergroup=__strimzi-topic-operator-kstreams},1651429192,0
{consumergroup=__strimzi-topic-operator-kstreams},1651429197,0
{consumergroup=__strimzi-topic-operator-kstreams},1651429202,0
{consumergroup=__strimzi-topic-operator-kstreams},1651429207,0
{consumergroup=__strimzi-topic-operator-kstreams},1651429212,0
{consumergroup=__strimzi-topic-operator-kstreams},1651429217,0
{consumergroup=__strimzi-topic-operator-kstreams},1651429222,0
{consumergroup=__strimzi-topic-operator-kstreams},1651429227,0
{consumergroup=adapter-service},1651429017,238201
{consumergroup=adapter-service},1651429022,238201
{consumergroup=adapter-service},1651429027,238201
{consumergroup=adapter-service},1651429032,478100
{consumergroup=adapter-service},1651429037,478100
{consumergroup=adapter-service},1651429042,478100
{consumergroup=adapter-service},1651429047,696162
{consumergroup=adapter-service},1651429052,696162
{consumergroup=adapter-service},1651429057,696162
{consumergroup=adapter-service},1651429062,916339
{consumergroup=adapter-service},1651429067,916339
{consumergroup=adapter-service},1651429072,916339
{consumergroup=adapter-service},1651429077,1137060
{consumergroup=adapter-service},1651429082,1137060
{consumergroup=adapter-service},1651429087,1137060
{consumergroup=adapter-service},1651429092,1353414
{consumergroup=adapter-service},1651429097,1353414
{consumergroup=adapter-service},1651429102,1353414
{consumergroup=adapter-service},1651429107,1557569
{consumergroup=adapter-service},1651429112,1557569
{consumergroup=adapter-service},1651429117,1557569
{consumergroup=adapter-service},1651429122,1758623
{consumergroup=adapter-service},1651429127,1758623
{consumergroup=adapter-service},1651429132,1758623
{consumergroup=adapter-service},1651429137,1956389
{consumergroup=adapter-service},1651429142,1956389
{consumergroup=adapter-service},1651429147,1956389
{consumergroup=adapter-service},1651429152,2159193
{consumergroup=adapter-service},1651429157,2159193
{consumergroup=adapter-service},1651429162,2159193
{consumergroup=adapter-service},1651429167,2354236
{consumergroup=adapter-service},1651429172,2354236
{consumergroup=adapter-service},1651429177,2354236
{consumergroup=adapter-service},1651429182,2552300
{consumergroup=adapter-service},1651429187,2552300
{consumergroup=adapter-service},1651429192,2552300
{consumergroup=adapter-service},1651429197,2751703
{consumergroup=adapter-service},1651429202,2751703
{consumergroup=adapter-service},1651429207,2751703
{consumergroup=adapter-service},1651429212,2952690
{consumergroup=adapter-service},1651429217,2952690
{consumergroup=adapter-service},1651429222,2952690
{consumergroup=adapter-service},1651429227,3151645
