labels,timestamp,value
{consumergroup=__strimzi-topic-operator-kstreams},1651450995,15
{consumergroup=__strimzi-topic-operator-kstreams},1651451000,15
{consumergroup=__strimzi-topic-operator-kstreams},1651451005,15
{consumergroup=__strimzi-topic-operator-kstreams},1651451010,0
{consumergroup=__strimzi-topic-operator-kstreams},1651451015,0
{consumergroup=__strimzi-topic-operator-kstreams},1651451020,0
{consumergroup=__strimzi-topic-operator-kstreams},1651451025,0
{consumergroup=__strimzi-topic-operator-kstreams},1651451030,0
{consumergroup=__strimzi-topic-operator-kstreams},1651451035,0
{consumergroup=__strimzi-topic-operator-kstreams},1651451040,0
{consumergroup=__strimzi-topic-operator-kstreams},1651451045,0
{consumergroup=__strimzi-topic-operator-kstreams},1651451050,0
{consumergroup=__strimzi-topic-operator-kstreams},1651451055,0
{consumergroup=__strimzi-topic-operator-kstreams},1651451060,0
{consumergroup=__strimzi-topic-operator-kstreams},1651451065,0
{consumergroup=__strimzi-topic-operator-kstreams},1651451070,0
{consumergroup=__strimzi-topic-operator-kstreams},1651451075,0
{consumergroup=__strimzi-topic-operator-kstreams},1651451080,0
{consumergroup=__strimzi-topic-operator-kstreams},1651451085,0
{consumergroup=__strimzi-topic-operator-kstreams},1651451090,0
{consumergroup=__strimzi-topic-operator-kstreams},1651451095,0
{consumergroup=__strimzi-topic-operator-kstreams},1651451100,0
{consumergroup=__strimzi-topic-operator-kstreams},1651451105,0
{consumergroup=__strimzi-topic-operator-kstreams},1651451110,0
{consumergroup=__strimzi-topic-operator-kstreams},1651451115,0
{consumergroup=__strimzi-topic-operator-kstreams},1651451120,0
{consumergroup=__strimzi-topic-operator-kstreams},1651451125,0
{consumergroup=__strimzi-topic-operator-kstreams},1651451130,0
{consumergroup=__strimzi-topic-operator-kstreams},1651451135,0
{consumergroup=__strimzi-topic-operator-kstreams},1651451140,0
{consumergroup=__strimzi-topic-operator-kstreams},1651451145,0
{consumergroup=__strimzi-topic-operator-kstreams},1651451150,0
{consumergroup=__strimzi-topic-operator-kstreams},1651451155,0
{consumergroup=__strimzi-topic-operator-kstreams},1651451160,0
{consumergroup=__strimzi-topic-operator-kstreams},1651451165,0
{consumergroup=__strimzi-topic-operator-kstreams},1651451170,0
{consumergroup=__strimzi-topic-operator-kstreams},1651451175,0
{consumergroup=__strimzi-topic-operator-kstreams},1651451180,0
{consumergroup=__strimzi-topic-operator-kstreams},1651451185,0
{consumergroup=__strimzi-topic-operator-kstreams},1651451190,0
{consumergroup=__strimzi-topic-operator-kstreams},1651451195,0
{consumergroup=__strimzi-topic-operator-kstreams},1651451200,0
{consumergroup=__strimzi-topic-operator-kstreams},1651451205,0
{consumergroup=__strimzi-topic-operator-kstreams},1651451210,0
{consumergroup=__strimzi-topic-operator-kstreams},1651451215,0
{consumergroup=__strimzi-topic-operator-kstreams},1651451220,0
{consumergroup=__strimzi-topic-operator-kstreams},1651451225,0
{consumergroup=__strimzi-topic-operator-kstreams},1651451230,0
{consumergroup=__strimzi-topic-operator-kstreams},1651451235,0
{consumergroup=__strimzi-topic-operator-kstreams},1651451240,0
{consumergroup=__strimzi-topic-operator-kstreams},1651451245,0
{consumergroup=__strimzi-topic-operator-kstreams},1651451250,0
{consumergroup=adapter-service},1651451025,15407
{consumergroup=adapter-service},1651451030,15407
{consumergroup=adapter-service},1651451035,15407
{consumergroup=adapter-service},1651451040,262019
{consumergroup=adapter-service},1651451045,262019
{consumergroup=adapter-service},1651451050,262019
{consumergroup=adapter-service},1651451055,437191
{consumergroup=adapter-service},1651451060,437191
{consumergroup=adapter-service},1651451065,437191
{consumergroup=adapter-service},1651451070,571936
{consumergroup=adapter-service},1651451075,571936
{consumergroup=adapter-service},1651451080,571936
{consumergroup=adapter-service},1651451085,700803
{consumergroup=adapter-service},1651451090,700803
{consumergroup=adapter-service},1651451095,700803
{consumergroup=adapter-service},1651451100,804794
{consumergroup=adapter-service},1651451105,804794
{consumergroup=adapter-service},1651451110,804794
{consumergroup=adapter-service},1651451115,898112
{consumergroup=adapter-service},1651451120,898112
{consumergroup=adapter-service},1651451125,898112
{consumergroup=adapter-service},1651451130,965032
{consumergroup=adapter-service},1651451135,965032
{consumergroup=adapter-service},1651451140,965032
{consumergroup=adapter-service},1651451145,999767
{consumergroup=adapter-service},1651451150,999767
{consumergroup=adapter-service},1651451155,999767
{consumergroup=adapter-service},1651451160,1009049
{consumergroup=adapter-service},1651451165,1009049
{consumergroup=adapter-service},1651451170,1009049
{consumergroup=adapter-service},1651451175,1028336
{consumergroup=adapter-service},1651451180,1028336
{consumergroup=adapter-service},1651451185,1028336
{consumergroup=adapter-service},1651451190,1023071
{consumergroup=adapter-service},1651451195,1023071
{consumergroup=adapter-service},1651451200,1023071
{consumergroup=adapter-service},1651451205,1042944
{consumergroup=adapter-service},1651451210,1042944
{consumergroup=adapter-service},1651451215,1042944
{consumergroup=adapter-service},1651451220,1056269
{consumergroup=adapter-service},1651451225,1056269
{consumergroup=adapter-service},1651451230,1056269
{consumergroup=adapter-service},1651451235,1068141
{consumergroup=adapter-service},1651451240,1068141
{consumergroup=adapter-service},1651451245,1068141
{consumergroup=adapter-service},1651451250,1093424
