labels,timestamp,value
{consumergroup=__strimzi-topic-operator-kstreams},1651454910,13
{consumergroup=__strimzi-topic-operator-kstreams},1651454915,13
{consumergroup=__strimzi-topic-operator-kstreams},1651454920,13
{consumergroup=__strimzi-topic-operator-kstreams},1651454925,0
{consumergroup=__strimzi-topic-operator-kstreams},1651454930,0
{consumergroup=__strimzi-topic-operator-kstreams},1651454935,0
{consumergroup=__strimzi-topic-operator-kstreams},1651454940,0
{consumergroup=__strimzi-topic-operator-kstreams},1651454945,0
{consumergroup=__strimzi-topic-operator-kstreams},1651454950,0
{consumergroup=__strimzi-topic-operator-kstreams},1651454955,0
{consumergroup=__strimzi-topic-operator-kstreams},1651454960,0
{consumergroup=__strimzi-topic-operator-kstreams},1651454965,0
{consumergroup=__strimzi-topic-operator-kstreams},1651454970,0
{consumergroup=__strimzi-topic-operator-kstreams},1651454975,0
{consumergroup=__strimzi-topic-operator-kstreams},1651454980,0
{consumergroup=__strimzi-topic-operator-kstreams},1651454985,0
{consumergroup=__strimzi-topic-operator-kstreams},1651454990,0
{consumergroup=__strimzi-topic-operator-kstreams},1651454995,0
{consumergroup=__strimzi-topic-operator-kstreams},1651455000,0
{consumergroup=__strimzi-topic-operator-kstreams},1651455005,0
{consumergroup=__strimzi-topic-operator-kstreams},1651455010,0
{consumergroup=__strimzi-topic-operator-kstreams},1651455015,0
{consumergroup=__strimzi-topic-operator-kstreams},1651455020,0
{consumergroup=__strimzi-topic-operator-kstreams},1651455025,0
{consumergroup=__strimzi-topic-operator-kstreams},1651455030,0
{consumergroup=__strimzi-topic-operator-kstreams},1651455035,0
{consumergroup=__strimzi-topic-operator-kstreams},1651455040,0
{consumergroup=__strimzi-topic-operator-kstreams},1651455045,0
{consumergroup=__strimzi-topic-operator-kstreams},1651455050,0
{consumergroup=__strimzi-topic-operator-kstreams},1651455055,0
{consumergroup=__strimzi-topic-operator-kstreams},1651455060,0
{consumergroup=__strimzi-topic-operator-kstreams},1651455065,0
{consumergroup=__strimzi-topic-operator-kstreams},1651455070,0
{consumergroup=__strimzi-topic-operator-kstreams},1651455075,0
{consumergroup=__strimzi-topic-operator-kstreams},1651455080,0
{consumergroup=__strimzi-topic-operator-kstreams},1651455085,0
{consumergroup=__strimzi-topic-operator-kstreams},1651455090,0
{consumergroup=__strimzi-topic-operator-kstreams},1651455095,0
{consumergroup=__strimzi-topic-operator-kstreams},1651455100,0
{consumergroup=__strimzi-topic-operator-kstreams},1651455105,0
{consumergroup=__strimzi-topic-operator-kstreams},1651455110,0
{consumergroup=__strimzi-topic-operator-kstreams},1651455115,0
{consumergroup=__strimzi-topic-operator-kstreams},1651455120,0
{consumergroup=__strimzi-topic-operator-kstreams},1651455125,0
{consumergroup=__strimzi-topic-operator-kstreams},1651455130,0
{consumergroup=__strimzi-topic-operator-kstreams},1651455135,0
{consumergroup=__strimzi-topic-operator-kstreams},1651455140,0
{consumergroup=__strimzi-topic-operator-kstreams},1651455145,0
{consumergroup=__strimzi-topic-operator-kstreams},1651455150,0
{consumergroup=__strimzi-topic-operator-kstreams},1651455155,0
{consumergroup=__strimzi-topic-operator-kstreams},1651455160,0
{consumergroup=adapter-service},1651454940,128622
{consumergroup=adapter-service},1651454945,128622
{consumergroup=adapter-service},1651454950,128622
{consumergroup=adapter-service},1651454955,334937
{consumergroup=adapter-service},1651454960,334937
{consumergroup=adapter-service},1651454965,334937
{consumergroup=adapter-service},1651454970,520759
{consumergroup=adapter-service},1651454975,520759
{consumergroup=adapter-service},1651454980,520759
{consumergroup=adapter-service},1651454985,683966
{consumergroup=adapter-service},1651454990,683966
{consumergroup=adapter-service},1651454995,683966
{consumergroup=adapter-service},1651455000,817659
{consumergroup=adapter-service},1651455005,817659
{consumergroup=adapter-service},1651455010,817659
{consumergroup=adapter-service},1651455015,927206
{consumergroup=adapter-service},1651455020,927206
{consumergroup=adapter-service},1651455025,927206
{consumergroup=adapter-service},1651455030,1027015
{consumergroup=adapter-service},1651455035,1027015
{consumergroup=adapter-service},1651455040,1027015
{consumergroup=adapter-service},1651455045,1061786
{consumergroup=adapter-service},1651455050,1061786
{consumergroup=adapter-service},1651455055,1061786
{consumergroup=adapter-service},1651455060,1090216
{consumergroup=adapter-service},1651455065,1090216
{consumergroup=adapter-service},1651455070,1090216
{consumergroup=adapter-service},1651455075,1126929
{consumergroup=adapter-service},1651455080,1126929
{consumergroup=adapter-service},1651455085,1126929
{consumergroup=adapter-service},1651455090,1134517
{consumergroup=adapter-service},1651455095,1134517
{consumergroup=adapter-service},1651455100,1134517
{consumergroup=adapter-service},1651455105,1163637
{consumergroup=adapter-service},1651455110,1163637
{consumergroup=adapter-service},1651455115,1163637
{consumergroup=adapter-service},1651455120,1168518
{consumergroup=adapter-service},1651455125,1168518
{consumergroup=adapter-service},1651455130,1168518
{consumergroup=adapter-service},1651455135,1177646
{consumergroup=adapter-service},1651455140,1177646
{consumergroup=adapter-service},1651455145,1177646
{consumergroup=adapter-service},1651455150,1196305
{consumergroup=adapter-service},1651455155,1196305
{consumergroup=adapter-service},1651455160,1196305
