labels,timestamp,value
{consumergroup=__strimzi-topic-operator-kstreams},1651447382,9
{consumergroup=__strimzi-topic-operator-kstreams},1651447387,9
{consumergroup=__strimzi-topic-operator-kstreams},1651447392,9
{consumergroup=__strimzi-topic-operator-kstreams},1651447397,0
{consumergroup=__strimzi-topic-operator-kstreams},1651447402,0
{consumergroup=__strimzi-topic-operator-kstreams},1651447407,0
{consumergroup=__strimzi-topic-operator-kstreams},1651447412,0
{consumergroup=__strimzi-topic-operator-kstreams},1651447417,0
{consumergroup=__strimzi-topic-operator-kstreams},1651447422,0
{consumergroup=__strimzi-topic-operator-kstreams},1651447427,0
{consumergroup=__strimzi-topic-operator-kstreams},1651447432,0
{consumergroup=__strimzi-topic-operator-kstreams},1651447437,0
{consumergroup=__strimzi-topic-operator-kstreams},1651447442,0
{consumergroup=__strimzi-topic-operator-kstreams},1651447447,0
{consumergroup=__strimzi-topic-operator-kstreams},1651447452,0
{consumergroup=__strimzi-topic-operator-kstreams},1651447457,0
{consumergroup=__strimzi-topic-operator-kstreams},1651447462,0
{consumergroup=__strimzi-topic-operator-kstreams},1651447467,0
{consumergroup=__strimzi-topic-operator-kstreams},1651447472,0
{consumergroup=__strimzi-topic-operator-kstreams},1651447477,0
{consumergroup=__strimzi-topic-operator-kstreams},1651447482,0
{consumergroup=__strimzi-topic-operator-kstreams},1651447487,0
{consumergroup=__strimzi-topic-operator-kstreams},1651447492,0
{consumergroup=__strimzi-topic-operator-kstreams},1651447497,0
{consumergroup=__strimzi-topic-operator-kstreams},1651447502,0
{consumergroup=__strimzi-topic-operator-kstreams},1651447507,0
{consumergroup=__strimzi-topic-operator-kstreams},1651447512,0
{consumergroup=__strimzi-topic-operator-kstreams},1651447517,0
{consumergroup=__strimzi-topic-operator-kstreams},1651447522,0
{consumergroup=__strimzi-topic-operator-kstreams},1651447527,0
{consumergroup=__strimzi-topic-operator-kstreams},1651447532,0
{consumergroup=__strimzi-topic-operator-kstreams},1651447537,0
{consumergroup=__strimzi-topic-operator-kstreams},1651447542,0
{consumergroup=__strimzi-topic-operator-kstreams},1651447547,0
{consumergroup=__strimzi-topic-operator-kstreams},1651447552,0
{consumergroup=__strimzi-topic-operator-kstreams},1651447557,0
{consumergroup=__strimzi-topic-operator-kstreams},1651447562,0
{consumergroup=__strimzi-topic-operator-kstreams},1651447567,0
{consumergroup=__strimzi-topic-operator-kstreams},1651447572,0
{consumergroup=__strimzi-topic-operator-kstreams},1651447577,0
{consumergroup=__strimzi-topic-operator-kstreams},1651447582,0
{consumergroup=__strimzi-topic-operator-kstreams},1651447587,0
{consumergroup=__strimzi-topic-operator-kstreams},1651447592,0
{consumergroup=__strimzi-topic-operator-kstreams},1651447597,0
{consumergroup=__strimzi-topic-operator-kstreams},1651447602,0
{consumergroup=__strimzi-topic-operator-kstreams},1651447607,0
{consumergroup=__strimzi-topic-operator-kstreams},1651447612,0
{consumergroup=__strimzi-topic-operator-kstreams},1651447617,0
{consumergroup=__strimzi-topic-operator-kstreams},1651447622,0
{consumergroup=__strimzi-topic-operator-kstreams},1651447627,0
{consumergroup=__strimzi-topic-operator-kstreams},1651447632,0
{consumergroup=__strimzi-topic-operator-kstreams},1651447637,0
{consumergroup=adapter-service},1651447412,33913
{consumergroup=adapter-service},1651447417,33913
{consumergroup=adapter-service},1651447422,33913
{consumergroup=adapter-service},1651447427,193891
{consumergroup=adapter-service},1651447432,193891
{consumergroup=adapter-service},1651447437,193891
{consumergroup=adapter-service},1651447442,304538
{consumergroup=adapter-service},1651447447,304538
{consumergroup=adapter-service},1651447452,304538
{consumergroup=adapter-service},1651447457,408001
{consumergroup=adapter-service},1651447462,408001
{consumergroup=adapter-service},1651447467,408001
{consumergroup=adapter-service},1651447472,503473
{consumergroup=adapter-service},1651447477,503473
{consumergroup=adapter-service},1651447482,503473
{consumergroup=adapter-service},1651447487,593756
{consumergroup=adapter-service},1651447492,593756
{consumergroup=adapter-service},1651447497,593756
{consumergroup=adapter-service},1651447502,653773
{consumergroup=adapter-service},1651447507,653773
{consumergroup=adapter-service},1651447512,653773
{consumergroup=adapter-service},1651447517,702875
{consumergroup=adapter-service},1651447522,702875
{consumergroup=adapter-service},1651447527,702875
{consumergroup=adapter-service},1651447532,727064
{consumergroup=adapter-service},1651447537,727064
{consumergroup=adapter-service},1651447542,727064
{consumergroup=adapter-service},1651447547,751901
{consumergroup=adapter-service},1651447552,751901
{consumergroup=adapter-service},1651447557,751901
{consumergroup=adapter-service},1651447562,788542
{consumergroup=adapter-service},1651447567,788542
{consumergroup=adapter-service},1651447572,788542
{consumergroup=adapter-service},1651447577,800849
{consumergroup=adapter-service},1651447582,800849
{consumergroup=adapter-service},1651447587,800849
{consumergroup=adapter-service},1651447592,817580
{consumergroup=adapter-service},1651447597,817580
{consumergroup=adapter-service},1651447602,817580
{consumergroup=adapter-service},1651447607,828851
{consumergroup=adapter-service},1651447612,828851
{consumergroup=adapter-service},1651447617,828851
{consumergroup=adapter-service},1651447622,835441
{consumergroup=adapter-service},1651447627,835441
{consumergroup=adapter-service},1651447632,835441
{consumergroup=adapter-service},1651447637,842857
