labels,timestamp,value
{consumergroup=__strimzi-topic-operator-kstreams},1651439958,14
{consumergroup=__strimzi-topic-operator-kstreams},1651439963,14
{consumergroup=__strimzi-topic-operator-kstreams},1651439968,14
{consumergroup=__strimzi-topic-operator-kstreams},1651439973,0
{consumergroup=__strimzi-topic-operator-kstreams},1651439978,0
{consumergroup=__strimzi-topic-operator-kstreams},1651439983,0
{consumergroup=__strimzi-topic-operator-kstreams},1651439988,0
{consumergroup=__strimzi-topic-operator-kstreams},1651439993,0
{consumergroup=__strimzi-topic-operator-kstreams},1651439998,0
{consumergroup=__strimzi-topic-operator-kstreams},1651440003,0
{consumergroup=__strimzi-topic-operator-kstreams},1651440008,0
{consumergroup=__strimzi-topic-operator-kstreams},1651440013,0
{consumergroup=__strimzi-topic-operator-kstreams},1651440018,0
{consumergroup=__strimzi-topic-operator-kstreams},1651440023,0
{consumergroup=__strimzi-topic-operator-kstreams},1651440028,0
{consumergroup=__strimzi-topic-operator-kstreams},1651440033,0
{consumergroup=__strimzi-topic-operator-kstreams},1651440038,0
{consumergroup=__strimzi-topic-operator-kstreams},1651440043,0
{consumergroup=__strimzi-topic-operator-kstreams},1651440048,0
{consumergroup=__strimzi-topic-operator-kstreams},1651440053,0
{consumergroup=__strimzi-topic-operator-kstreams},1651440058,0
{consumergroup=__strimzi-topic-operator-kstreams},1651440063,0
{consumergroup=__strimzi-topic-operator-kstreams},1651440068,0
{consumergroup=__strimzi-topic-operator-kstreams},1651440073,0
{consumergroup=__strimzi-topic-operator-kstreams},1651440078,0
{consumergroup=__strimzi-topic-operator-kstreams},1651440083,0
{consumergroup=__strimzi-topic-operator-kstreams},1651440088,0
{consumergroup=__strimzi-topic-operator-kstreams},1651440093,0
{consumergroup=__strimzi-topic-operator-kstreams},1651440098,0
{consumergroup=__strimzi-topic-operator-kstreams},1651440103,0
{consumergroup=__strimzi-topic-operator-kstreams},1651440108,0
{consumergroup=__strimzi-topic-operator-kstreams},1651440113,0
{consumergroup=__strimzi-topic-operator-kstreams},1651440118,0
{consumergroup=__strimzi-topic-operator-kstreams},1651440123,0
{consumergroup=__strimzi-topic-operator-kstreams},1651440128,0
{consumergroup=__strimzi-topic-operator-kstreams},1651440133,0
{consumergroup=__strimzi-topic-operator-kstreams},1651440138,0
{consumergroup=__strimzi-topic-operator-kstreams},1651440143,0
{consumergroup=__strimzi-topic-operator-kstreams},1651440148,0
{consumergroup=__strimzi-topic-operator-kstreams},1651440153,0
{consumergroup=__strimzi-topic-operator-kstreams},1651440158,0
{consumergroup=__strimzi-topic-operator-kstreams},1651440163,0
{consumergroup=__strimzi-topic-operator-kstreams},1651440168,0
{consumergroup=__strimzi-topic-operator-kstreams},1651440173,0
{consumergroup=__strimzi-topic-operator-kstreams},1651440178,0
{consumergroup=__strimzi-topic-operator-kstreams},1651440183,0
{consumergroup=__strimzi-topic-operator-kstreams},1651440188,0
{consumergroup=__strimzi-topic-operator-kstreams},1651440193,0
{consumergroup=__strimzi-topic-operator-kstreams},1651440198,0
{consumergroup=__strimzi-topic-operator-kstreams},1651440203,0
{consumergroup=__strimzi-topic-operator-kstreams},1651440208,0
{consumergroup=__strimzi-topic-operator-kstreams},1651440213,0
{consumergroup=adapter-service},1651439988,6875
{consumergroup=adapter-service},1651439993,6875
{consumergroup=adapter-service},1651439998,6875
{consumergroup=adapter-service},1651440003,306286
{consumergroup=adapter-service},1651440008,306286
{consumergroup=adapter-service},1651440013,306286
{consumergroup=adapter-service},1651440018,460346
{consumergroup=adapter-service},1651440023,460346
{consumergroup=adapter-service},1651440028,460346
{consumergroup=adapter-service},1651440033,595061
{consumergroup=adapter-service},1651440038,595061
{consumergroup=adapter-service},1651440043,595061
{consumergroup=adapter-service},1651440048,714950
{consumergroup=adapter-service},1651440053,714950
{consumergroup=adapter-service},1651440058,714950
{consumergroup=adapter-service},1651440063,815420
{consumergroup=adapter-service},1651440068,815420
{consumergroup=adapter-service},1651440073,815420
{consumergroup=adapter-service},1651440078,841195
{consumergroup=adapter-service},1651440083,841195
{consumergroup=adapter-service},1651440088,841195
{consumergroup=adapter-service},1651440093,856981
{consumergroup=adapter-service},1651440098,856981
{consumergroup=adapter-service},1651440103,856981
{consumergroup=adapter-service},1651440108,831801
{consumergroup=adapter-service},1651440113,831801
{consumergroup=adapter-service},1651440118,831801
{consumergroup=adapter-service},1651440123,811513
{consumergroup=adapter-service},1651440128,811513
{consumergroup=adapter-service},1651440133,811513
{consumergroup=adapter-service},1651440138,827903
{consumergroup=adapter-service},1651440143,827903
{consumergroup=adapter-service},1651440148,827903
{consumergroup=adapter-service},1651440153,799435
{consumergroup=adapter-service},1651440158,799435
{consumergroup=adapter-service},1651440163,799435
{consumergroup=adapter-service},1651440168,803022
{consumergroup=adapter-service},1651440173,803022
{consumergroup=adapter-service},1651440178,803022
{consumergroup=adapter-service},1651440183,774663
{consumergroup=adapter-service},1651440188,774663
{consumergroup=adapter-service},1651440193,774663
{consumergroup=adapter-service},1651440198,738494
{consumergroup=adapter-service},1651440203,738494
{consumergroup=adapter-service},1651440208,738494
{consumergroup=adapter-service},1651440213,726000
