labels,timestamp,value
{consumergroup=__strimzi-topic-operator-kstreams},1651442097,20
{consumergroup=__strimzi-topic-operator-kstreams},1651442102,20
{consumergroup=__strimzi-topic-operator-kstreams},1651442107,20
{consumergroup=__strimzi-topic-operator-kstreams},1651442112,0
{consumergroup=__strimzi-topic-operator-kstreams},1651442117,0
{consumergroup=__strimzi-topic-operator-kstreams},1651442122,0
{consumergroup=__strimzi-topic-operator-kstreams},1651442127,0
{consumergroup=__strimzi-topic-operator-kstreams},1651442132,0
{consumergroup=__strimzi-topic-operator-kstreams},1651442137,0
{consumergroup=__strimzi-topic-operator-kstreams},1651442142,0
{consumergroup=__strimzi-topic-operator-kstreams},1651442147,0
{consumergroup=__strimzi-topic-operator-kstreams},1651442152,0
{consumergroup=__strimzi-topic-operator-kstreams},1651442157,0
{consumergroup=__strimzi-topic-operator-kstreams},1651442162,0
{consumergroup=__strimzi-topic-operator-kstreams},1651442167,0
{consumergroup=__strimzi-topic-operator-kstreams},1651442172,0
{consumergroup=__strimzi-topic-operator-kstreams},1651442177,0
{consumergroup=__strimzi-topic-operator-kstreams},1651442182,0
{consumergroup=__strimzi-topic-operator-kstreams},1651442187,0
{consumergroup=__strimzi-topic-operator-kstreams},1651442192,0
{consumergroup=__strimzi-topic-operator-kstreams},1651442197,0
{consumergroup=__strimzi-topic-operator-kstreams},1651442202,0
{consumergroup=__strimzi-topic-operator-kstreams},1651442207,0
{consumergroup=__strimzi-topic-operator-kstreams},1651442212,0
{consumergroup=__strimzi-topic-operator-kstreams},1651442217,0
{consumergroup=__strimzi-topic-operator-kstreams},1651442222,0
{consumergroup=__strimzi-topic-operator-kstreams},1651442227,0
{consumergroup=__strimzi-topic-operator-kstreams},1651442232,0
{consumergroup=__strimzi-topic-operator-kstreams},1651442237,0
{consumergroup=__strimzi-topic-operator-kstreams},1651442242,0
{consumergroup=__strimzi-topic-operator-kstreams},1651442247,0
{consumergroup=__strimzi-topic-operator-kstreams},1651442252,0
{consumergroup=__strimzi-topic-operator-kstreams},1651442257,0
{consumergroup=__strimzi-topic-operator-kstreams},1651442262,0
{consumergroup=__strimzi-topic-operator-kstreams},1651442267,0
{consumergroup=__strimzi-topic-operator-kstreams},1651442272,0
{consumergroup=__strimzi-topic-operator-kstreams},1651442277,0
{consumergroup=__strimzi-topic-operator-kstreams},1651442282,0
{consumergroup=__strimzi-topic-operator-kstreams},1651442287,0
{consumergroup=__strimzi-topic-operator-kstreams},1651442292,0
{consumergroup=__strimzi-topic-operator-kstreams},1651442297,0
{consumergroup=__strimzi-topic-operator-kstreams},1651442302,0
{consumergroup=__strimzi-topic-operator-kstreams},1651442307,0
{consumergroup=__strimzi-topic-operator-kstreams},1651442312,0
{consumergroup=__strimzi-topic-operator-kstreams},1651442317,0
{consumergroup=__strimzi-topic-operator-kstreams},1651442322,0
{consumergroup=__strimzi-topic-operator-kstreams},1651442327,0
{consumergroup=__strimzi-topic-operator-kstreams},1651442332,0
{consumergroup=__strimzi-topic-operator-kstreams},1651442337,0
{consumergroup=__strimzi-topic-operator-kstreams},1651442342,0
{consumergroup=__strimzi-topic-operator-kstreams},1651442347,0
{consumergroup=adapter-service},1651442127,152322
{consumergroup=adapter-service},1651442132,152322
{consumergroup=adapter-service},1651442137,152322
{consumergroup=adapter-service},1651442142,406249
{consumergroup=adapter-service},1651442147,406249
{consumergroup=adapter-service},1651442152,406249
{consumergroup=adapter-service},1651442157,564994
{consumergroup=adapter-service},1651442162,564994
{consumergroup=adapter-service},1651442167,564994
{consumergroup=adapter-service},1651442172,714589
{consumergroup=adapter-service},1651442177,714589
{consumergroup=adapter-service},1651442182,714589
{consumergroup=adapter-service},1651442187,845097
{consumergroup=adapter-service},1651442192,845097
{consumergroup=adapter-service},1651442197,845097
{consumergroup=adapter-service},1651442202,923833
{consumergroup=adapter-service},1651442207,923833
{consumergroup=adapter-service},1651442212,923833
{consumergroup=adapter-service},1651442217,995435
{consumergroup=adapter-service},1651442222,995435
{consumergroup=adapter-service},1651442227,995435
{consumergroup=adapter-service},1651442232,1025297
{consumergroup=adapter-service},1651442237,1025297
{consumergroup=adapter-service},1651442242,1025297
{consumergroup=adapter-service},1651442247,1059586
{consumergroup=adapter-service},1651442252,1059586
{consumergroup=adapter-service},1651442257,1059586
{consumergroup=adapter-service},1651442262,1105603
{consumergroup=adapter-service},1651442267,1105603
{consumergroup=adapter-service},1651442272,1105603
{consumergroup=adapter-service},1651442277,1135703
{consumergroup=adapter-service},1651442282,1135703
{consumergroup=adapter-service},1651442287,1135703
{consumergroup=adapter-service},1651442292,1166466
{consumergroup=adapter-service},1651442297,1166466
{consumergroup=adapter-service},1651442302,1166466
{consumergroup=adapter-service},1651442307,1195257
{consumergroup=adapter-service},1651442312,1195257
{consumergroup=adapter-service},1651442317,1195257
{consumergroup=adapter-service},1651442322,1231665
{consumergroup=adapter-service},1651442327,1231665
{consumergroup=adapter-service},1651442332,1231665
{consumergroup=adapter-service},1651442337,1265375
{consumergroup=adapter-service},1651442342,1265375
{consumergroup=adapter-service},1651442347,1265375
