labels,timestamp,value
{consumergroup=__strimzi-topic-operator-kstreams},1651433697,17
{consumergroup=__strimzi-topic-operator-kstreams},1651433702,17
{consumergroup=__strimzi-topic-operator-kstreams},1651433707,17
{consumergroup=__strimzi-topic-operator-kstreams},1651433712,0
{consumergroup=__strimzi-topic-operator-kstreams},1651433717,0
{consumergroup=__strimzi-topic-operator-kstreams},1651433722,0
{consumergroup=__strimzi-topic-operator-kstreams},1651433727,0
{consumergroup=__strimzi-topic-operator-kstreams},1651433732,0
{consumergroup=__strimzi-topic-operator-kstreams},1651433737,0
{consumergroup=__strimzi-topic-operator-kstreams},1651433742,0
{consumergroup=__strimzi-topic-operator-kstreams},1651433747,0
{consumergroup=__strimzi-topic-operator-kstreams},1651433752,0
{consumergroup=__strimzi-topic-operator-kstreams},1651433757,0
{consumergroup=__strimzi-topic-operator-kstreams},1651433762,0
{consumergroup=__strimzi-topic-operator-kstreams},1651433767,0
{consumergroup=__strimzi-topic-operator-kstreams},1651433772,0
{consumergroup=__strimzi-topic-operator-kstreams},1651433777,0
{consumergroup=__strimzi-topic-operator-kstreams},1651433782,0
{consumergroup=__strimzi-topic-operator-kstreams},1651433787,0
{consumergroup=__strimzi-topic-operator-kstreams},1651433792,0
{consumergroup=__strimzi-topic-operator-kstreams},1651433797,0
{consumergroup=__strimzi-topic-operator-kstreams},1651433802,0
{consumergroup=__strimzi-topic-operator-kstreams},1651433807,0
{consumergroup=__strimzi-topic-operator-kstreams},1651433812,0
{consumergroup=__strimzi-topic-operator-kstreams},1651433817,0
{consumergroup=__strimzi-topic-operator-kstreams},1651433822,0
{consumergroup=__strimzi-topic-operator-kstreams},1651433827,0
{consumergroup=__strimzi-topic-operator-kstreams},1651433832,0
{consumergroup=__strimzi-topic-operator-kstreams},1651433837,0
{consumergroup=__strimzi-topic-operator-kstreams},1651433842,0
{consumergroup=__strimzi-topic-operator-kstreams},1651433847,0
{consumergroup=__strimzi-topic-operator-kstreams},1651433852,0
{consumergroup=__strimzi-topic-operator-kstreams},1651433857,0
{consumergroup=__strimzi-topic-operator-kstreams},1651433862,0
{consumergroup=__strimzi-topic-operator-kstreams},1651433867,0
{consumergroup=__strimzi-topic-operator-kstreams},1651433872,0
{consumergroup=__strimzi-topic-operator-kstreams},1651433877,0
{consumergroup=__strimzi-topic-operator-kstreams},1651433882,0
{consumergroup=__strimzi-topic-operator-kstreams},1651433887,0
{consumergroup=__strimzi-topic-operator-kstreams},1651433892,0
{consumergroup=__strimzi-topic-operator-kstreams},1651433897,0
{consumergroup=__strimzi-topic-operator-kstreams},1651433902,0
{consumergroup=__strimzi-topic-operator-kstreams},1651433907,0
{consumergroup=__strimzi-topic-operator-kstreams},1651433912,0
{consumergroup=__strimzi-topic-operator-kstreams},1651433917,0
{consumergroup=__strimzi-topic-operator-kstreams},1651433922,0
{consumergroup=__strimzi-topic-operator-kstreams},1651433927,0
{consumergroup=__strimzi-topic-operator-kstreams},1651433932,0
{consumergroup=__strimzi-topic-operator-kstreams},1651433937,0
{consumergroup=__strimzi-topic-operator-kstreams},1651433942,0
{consumergroup=adapter-service},1651433727,200623
{consumergroup=adapter-service},1651433732,200623
{consumergroup=adapter-service},1651433737,200623
{consumergroup=adapter-service},1651433742,359252
{consumergroup=adapter-service},1651433747,359252
{consumergroup=adapter-service},1651433752,359252
{consumergroup=adapter-service},1651433757,507011
{consumergroup=adapter-service},1651433762,507011
{consumergroup=adapter-service},1651433767,507011
{consumergroup=adapter-service},1651433772,657945
{consumergroup=adapter-service},1651433777,657945
{consumergroup=adapter-service},1651433782,657945
{consumergroup=adapter-service},1651433787,795233
{consumergroup=adapter-service},1651433792,795233
{consumergroup=adapter-service},1651433797,795233
{consumergroup=adapter-service},1651433802,906345
{consumergroup=adapter-service},1651433807,906345
{consumergroup=adapter-service},1651433812,906345
{consumergroup=adapter-service},1651433817,992307
{consumergroup=adapter-service},1651433822,992307
{consumergroup=adapter-service},1651433827,992307
{consumergroup=adapter-service},1651433832,1061118
{consumergroup=adapter-service},1651433837,1061118
{consumergroup=adapter-service},1651433842,1061118
{consumergroup=adapter-service},1651433847,1088299
{consumergroup=adapter-service},1651433852,1088299
{consumergroup=adapter-service},1651433857,1088299
{consumergroup=adapter-service},1651433862,1096027
{consumergroup=adapter-service},1651433867,1096027
{consumergroup=adapter-service},1651433872,1096027
{consumergroup=adapter-service},1651433877,1114365
{consumergroup=adapter-service},1651433882,1114365
{consumergroup=adapter-service},1651433887,1114365
{consumergroup=adapter-service},1651433892,1137375
{consumergroup=adapter-service},1651433897,1137375
{consumergroup=adapter-service},1651433902,1137375
{consumergroup=adapter-service},1651433907,1153775
{consumergroup=adapter-service},1651433912,1153775
{consumergroup=adapter-service},1651433917,1153775
{consumergroup=adapter-service},1651433922,1190435
{consumergroup=adapter-service},1651433927,1190435
{consumergroup=adapter-service},1651433932,1190435
{consumergroup=adapter-service},1651433937,1193078
{consumergroup=adapter-service},1651433942,1193078
