labels,timestamp,value
{consumergroup=__strimzi-topic-operator-kstreams},1651434290,8
{consumergroup=__strimzi-topic-operator-kstreams},1651434295,8
{consumergroup=__strimzi-topic-operator-kstreams},1651434300,8
{consumergroup=__strimzi-topic-operator-kstreams},1651434305,8
{consumergroup=__strimzi-topic-operator-kstreams},1651434310,8
{consumergroup=__strimzi-topic-operator-kstreams},1651434315,8
{consumergroup=__strimzi-topic-operator-kstreams},1651434320,0
{consumergroup=__strimzi-topic-operator-kstreams},1651434325,0
{consumergroup=__strimzi-topic-operator-kstreams},1651434330,0
{consumergroup=__strimzi-topic-operator-kstreams},1651434335,0
{consumergroup=__strimzi-topic-operator-kstreams},1651434340,0
{consumergroup=__strimzi-topic-operator-kstreams},1651434345,0
{consumergroup=__strimzi-topic-operator-kstreams},1651434350,0
{consumergroup=__strimzi-topic-operator-kstreams},1651434355,0
{consumergroup=__strimzi-topic-operator-kstreams},1651434360,0
{consumergroup=__strimzi-topic-operator-kstreams},1651434365,0
{consumergroup=__strimzi-topic-operator-kstreams},1651434370,0
{consumergroup=__strimzi-topic-operator-kstreams},1651434375,0
{consumergroup=__strimzi-topic-operator-kstreams},1651434380,0
{consumergroup=__strimzi-topic-operator-kstreams},1651434385,0
{consumergroup=__strimzi-topic-operator-kstreams},1651434390,0
{consumergroup=__strimzi-topic-operator-kstreams},1651434395,0
{consumergroup=__strimzi-topic-operator-kstreams},1651434400,0
{consumergroup=__strimzi-topic-operator-kstreams},1651434405,0
{consumergroup=__strimzi-topic-operator-kstreams},1651434410,0
{consumergroup=__strimzi-topic-operator-kstreams},1651434415,0
{consumergroup=__strimzi-topic-operator-kstreams},1651434420,0
{consumergroup=__strimzi-topic-operator-kstreams},1651434425,0
{consumergroup=__strimzi-topic-operator-kstreams},1651434430,0
{consumergroup=__strimzi-topic-operator-kstreams},1651434435,0
{consumergroup=__strimzi-topic-operator-kstreams},1651434440,0
{consumergroup=__strimzi-topic-operator-kstreams},1651434445,0
{consumergroup=__strimzi-topic-operator-kstreams},1651434450,0
{consumergroup=__strimzi-topic-operator-kstreams},1651434455,0
{consumergroup=__strimzi-topic-operator-kstreams},1651434460,0
{consumergroup=__strimzi-topic-operator-kstreams},1651434465,0
{consumergroup=__strimzi-topic-operator-kstreams},1651434470,0
{consumergroup=__strimzi-topic-operator-kstreams},1651434475,0
{consumergroup=__strimzi-topic-operator-kstreams},1651434480,0
{consumergroup=__strimzi-topic-operator-kstreams},1651434485,0
{consumergroup=__strimzi-topic-operator-kstreams},1651434490,0
{consumergroup=__strimzi-topic-operator-kstreams},1651434495,0
{consumergroup=__strimzi-topic-operator-kstreams},1651434500,0
{consumergroup=__strimzi-topic-operator-kstreams},1651434505,0
{consumergroup=__strimzi-topic-operator-kstreams},1651434510,0
{consumergroup=__strimzi-topic-operator-kstreams},1651434515,0
{consumergroup=__strimzi-topic-operator-kstreams},1651434520,0
{consumergroup=__strimzi-topic-operator-kstreams},1651434525,0
{consumergroup=__strimzi-topic-operator-kstreams},1651434530,0
{consumergroup=__strimzi-topic-operator-kstreams},1651434535,0
{consumergroup=__strimzi-topic-operator-kstreams},1651434540,0
{consumergroup=adapter-service},1651434320,65765
{consumergroup=adapter-service},1651434325,65765
{consumergroup=adapter-service},1651434330,65765
{consumergroup=adapter-service},1651434335,127257
{consumergroup=adapter-service},1651434340,127257
{consumergroup=adapter-service},1651434345,127257
{consumergroup=adapter-service},1651434350,155855
{consumergroup=adapter-service},1651434355,155855
{consumergroup=adapter-service},1651434360,155855
{consumergroup=adapter-service},1651434365,178137
{consumergroup=adapter-service},1651434370,178137
{consumergroup=adapter-service},1651434375,178137
{consumergroup=adapter-service},1651434380,184148
{consumergroup=adapter-service},1651434385,184148
{consumergroup=adapter-service},1651434390,184148
{consumergroup=adapter-service},1651434395,186589
{consumergroup=adapter-service},1651434400,186589
{consumergroup=adapter-service},1651434405,186589
{consumergroup=adapter-service},1651434410,149094
{consumergroup=adapter-service},1651434415,149094
{consumergroup=adapter-service},1651434420,149094
{consumergroup=adapter-service},1651434425,79750
{consumergroup=adapter-service},1651434430,79750
{consumergroup=adapter-service},1651434435,79750
{consumergroup=adapter-service},1651434440,32847
{consumergroup=adapter-service},1651434445,32847
{consumergroup=adapter-service},1651434450,32847
{consumergroup=adapter-service},1651434455,23501
{consumergroup=adapter-service},1651434460,23501
{consumergroup=adapter-service},1651434465,23501
{consumergroup=adapter-service},1651434470,21754
{consumergroup=adapter-service},1651434475,21754
{consumergroup=adapter-service},1651434480,21754
{consumergroup=adapter-service},1651434485,22747
{consumergroup=adapter-service},1651434490,22747
{consumergroup=adapter-service},1651434495,22747
{consumergroup=adapter-service},1651434500,20954
{consumergroup=adapter-service},1651434505,20954
{consumergroup=adapter-service},1651434510,20954
{consumergroup=adapter-service},1651434515,20091
{consumergroup=adapter-service},1651434520,20091
{consumergroup=adapter-service},1651434525,20091
{consumergroup=adapter-service},1651434530,19938
{consumergroup=adapter-service},1651434535,19938
{consumergroup=adapter-service},1651434540,19938
