labels,timestamp,value
{consumergroup=__strimzi-topic-operator-kstreams},1651454010,16
{consumergroup=__strimzi-topic-operator-kstreams},1651454015,16
{consumergroup=__strimzi-topic-operator-kstreams},1651454020,16
{consumergroup=__strimzi-topic-operator-kstreams},1651454025,0
{consumergroup=__strimzi-topic-operator-kstreams},1651454030,0
{consumergroup=__strimzi-topic-operator-kstreams},1651454035,0
{consumergroup=__strimzi-topic-operator-kstreams},1651454040,0
{consumergroup=__strimzi-topic-operator-kstreams},1651454045,0
{consumergroup=__strimzi-topic-operator-kstreams},1651454050,0
{consumergroup=__strimzi-topic-operator-kstreams},1651454055,0
{consumergroup=__strimzi-topic-operator-kstreams},1651454060,0
{consumergroup=__strimzi-topic-operator-kstreams},1651454065,0
{consumergroup=__strimzi-topic-operator-kstreams},1651454070,0
{consumergroup=__strimzi-topic-operator-kstreams},1651454075,0
{consumergroup=__strimzi-topic-operator-kstreams},1651454080,0
{consumergroup=__strimzi-topic-operator-kstreams},1651454085,0
{consumergroup=__strimzi-topic-operator-kstreams},1651454090,0
{consumergroup=__strimzi-topic-operator-kstreams},1651454095,0
{consumergroup=__strimzi-topic-operator-kstreams},1651454100,0
{consumergroup=__strimzi-topic-operator-kstreams},1651454105,0
{consumergroup=__strimzi-topic-operator-kstreams},1651454110,0
{consumergroup=__strimzi-topic-operator-kstreams},1651454115,0
{consumergroup=__strimzi-topic-operator-kstreams},1651454120,0
{consumergroup=__strimzi-topic-operator-kstreams},1651454125,0
{consumergroup=__strimzi-topic-operator-kstreams},1651454130,0
{consumergroup=__strimzi-topic-operator-kstreams},1651454135,0
{consumergroup=__strimzi-topic-operator-kstreams},1651454140,0
{consumergroup=__strimzi-topic-operator-kstreams},1651454145,0
{consumergroup=__strimzi-topic-operator-kstreams},1651454150,0
{consumergroup=__strimzi-topic-operator-kstreams},1651454155,0
{consumergroup=__strimzi-topic-operator-kstreams},1651454160,0
{consumergroup=__strimzi-topic-operator-kstreams},1651454165,0
{consumergroup=__strimzi-topic-operator-kstreams},1651454170,0
{consumergroup=__strimzi-topic-operator-kstreams},1651454175,0
{consumergroup=__strimzi-topic-operator-kstreams},1651454180,0
{consumergroup=__strimzi-topic-operator-kstreams},1651454185,0
{consumergroup=__strimzi-topic-operator-kstreams},1651454190,0
{consumergroup=__strimzi-topic-operator-kstreams},1651454195,0
{consumergroup=__strimzi-topic-operator-kstreams},1651454200,0
{consumergroup=__strimzi-topic-operator-kstreams},1651454205,0
{consumergroup=__strimzi-topic-operator-kstreams},1651454210,0
{consumergroup=__strimzi-topic-operator-kstreams},1651454215,0
{consumergroup=__strimzi-topic-operator-kstreams},1651454220,0
{consumergroup=__strimzi-topic-operator-kstreams},1651454225,0
{consumergroup=__strimzi-topic-operator-kstreams},1651454230,0
{consumergroup=__strimzi-topic-operator-kstreams},1651454235,0
{consumergroup=__strimzi-topic-operator-kstreams},1651454240,0
{consumergroup=__strimzi-topic-operator-kstreams},1651454245,0
{consumergroup=__strimzi-topic-operator-kstreams},1651454250,0
{consumergroup=__strimzi-topic-operator-kstreams},1651454255,0
{consumergroup=__strimzi-topic-operator-kstreams},1651454260,0
{consumergroup=adapter-service},1651454040,95286
{consumergroup=adapter-service},1651454045,95286
{consumergroup=adapter-service},1651454050,95286
{consumergroup=adapter-service},1651454055,285565
{consumergroup=adapter-service},1651454060,285565
{consumergroup=adapter-service},1651454065,285565
{consumergroup=adapter-service},1651454070,421905
{consumergroup=adapter-service},1651454075,421905
{consumergroup=adapter-service},1651454080,421905
{consumergroup=adapter-service},1651454085,552487
{consumergroup=adapter-service},1651454090,552487
{consumergroup=adapter-service},1651454095,552487
{consumergroup=adapter-service},1651454100,672607
{consumergroup=adapter-service},1651454105,672607
{consumergroup=adapter-service},1651454110,672607
{consumergroup=adapter-service},1651454115,757898
{consumergroup=adapter-service},1651454120,757898
{consumergroup=adapter-service},1651454125,757898
{consumergroup=adapter-service},1651454130,787121
{consumergroup=adapter-service},1651454135,787121
{consumergroup=adapter-service},1651454140,787121
{consumergroup=adapter-service},1651454145,805162
{consumergroup=adapter-service},1651454150,805162
{consumergroup=adapter-service},1651454155,805162
{consumergroup=adapter-service},1651454160,775325
{consumergroup=adapter-service},1651454165,775325
{consumergroup=adapter-service},1651454170,775325
{consumergroup=adapter-service},1651454175,759789
{consumergroup=adapter-service},1651454180,759789
{consumergroup=adapter-service},1651454185,759789
{consumergroup=adapter-service},1651454190,746568
{consumergroup=adapter-service},1651454195,746568
{consumergroup=adapter-service},1651454200,746568
{consumergroup=adapter-service},1651454205,725941
{consumergroup=adapter-service},1651454210,725941
{consumergroup=adapter-service},1651454215,725941
{consumergroup=adapter-service},1651454220,744885
{consumergroup=adapter-service},1651454225,744885
{consumergroup=adapter-service},1651454230,744885
{consumergroup=adapter-service},1651454235,715095
{consumergroup=adapter-service},1651454240,715095
{consumergroup=adapter-service},1651454245,715095
{consumergroup=adapter-service},1651454250,703752
{consumergroup=adapter-service},1651454255,703752
{consumergroup=adapter-service},1651454260,703752
