labels,timestamp,value
{consumergroup=__strimzi-topic-operator-kstreams},1651433396,19
{consumergroup=__strimzi-topic-operator-kstreams},1651433401,19
{consumergroup=__strimzi-topic-operator-kstreams},1651433406,19
{consumergroup=__strimzi-topic-operator-kstreams},1651433411,0
{consumergroup=__strimzi-topic-operator-kstreams},1651433416,0
{consumergroup=__strimzi-topic-operator-kstreams},1651433421,0
{consumergroup=__strimzi-topic-operator-kstreams},1651433426,0
{consumergroup=__strimzi-topic-operator-kstreams},1651433431,0
{consumergroup=__strimzi-topic-operator-kstreams},1651433436,0
{consumergroup=__strimzi-topic-operator-kstreams},1651433441,0
{consumergroup=__strimzi-topic-operator-kstreams},1651433446,0
{consumergroup=__strimzi-topic-operator-kstreams},1651433451,0
{consumergroup=__strimzi-topic-operator-kstreams},1651433456,0
{consumergroup=__strimzi-topic-operator-kstreams},1651433461,0
{consumergroup=__strimzi-topic-operator-kstreams},1651433466,0
{consumergroup=__strimzi-topic-operator-kstreams},1651433471,0
{consumergroup=__strimzi-topic-operator-kstreams},1651433476,0
{consumergroup=__strimzi-topic-operator-kstreams},1651433481,0
{consumergroup=__strimzi-topic-operator-kstreams},1651433486,0
{consumergroup=__strimzi-topic-operator-kstreams},1651433491,0
{consumergroup=__strimzi-topic-operator-kstreams},1651433496,0
{consumergroup=__strimzi-topic-operator-kstreams},1651433501,0
{consumergroup=__strimzi-topic-operator-kstreams},1651433506,0
{consumergroup=__strimzi-topic-operator-kstreams},1651433511,0
{consumergroup=__strimzi-topic-operator-kstreams},1651433516,0
{consumergroup=__strimzi-topic-operator-kstreams},1651433521,0
{consumergroup=__strimzi-topic-operator-kstreams},1651433526,0
{consumergroup=__strimzi-topic-operator-kstreams},1651433531,0
{consumergroup=__strimzi-topic-operator-kstreams},1651433536,0
{consumergroup=__strimzi-topic-operator-kstreams},1651433541,0
{consumergroup=__strimzi-topic-operator-kstreams},1651433546,0
{consumergroup=__strimzi-topic-operator-kstreams},1651433551,0
{consumergroup=__strimzi-topic-operator-kstreams},1651433556,0
{consumergroup=__strimzi-topic-operator-kstreams},1651433561,0
{consumergroup=__strimzi-topic-operator-kstreams},1651433566,0
{consumergroup=__strimzi-topic-operator-kstreams},1651433571,0
{consumergroup=__strimzi-topic-operator-kstreams},1651433576,0
{consumergroup=__strimzi-topic-operator-kstreams},1651433581,0
{consumergroup=__strimzi-topic-operator-kstreams},1651433586,0
{consumergroup=__strimzi-topic-operator-kstreams},1651433591,0
{consumergroup=__strimzi-topic-operator-kstreams},1651433596,0
{consumergroup=__strimzi-topic-operator-kstreams},1651433601,0
{consumergroup=__strimzi-topic-operator-kstreams},1651433606,0
{consumergroup=__strimzi-topic-operator-kstreams},1651433611,0
{consumergroup=__strimzi-topic-operator-kstreams},1651433616,0
{consumergroup=__strimzi-topic-operator-kstreams},1651433621,0
{consumergroup=__strimzi-topic-operator-kstreams},1651433626,0
{consumergroup=__strimzi-topic-operator-kstreams},1651433631,0
{consumergroup=__strimzi-topic-operator-kstreams},1651433636,0
{consumergroup=__strimzi-topic-operator-kstreams},1651433641,0
{consumergroup=__strimzi-topic-operator-kstreams},1651433646,0
{consumergroup=adapter-service},1651433426,97923
{consumergroup=adapter-service},1651433431,97923
{consumergroup=adapter-service},1651433436,97923
{consumergroup=adapter-service},1651433441,276891
{consumergroup=adapter-service},1651433446,276891
{consumergroup=adapter-service},1651433451,276891
{consumergroup=adapter-service},1651433456,432169
{consumergroup=adapter-service},1651433461,432169
{consumergroup=adapter-service},1651433466,432169
{consumergroup=adapter-service},1651433471,565139
{consumergroup=adapter-service},1651433476,565139
{consumergroup=adapter-service},1651433481,565139
{consumergroup=adapter-service},1651433486,698223
{consumergroup=adapter-service},1651433491,698223
{consumergroup=adapter-service},1651433496,698223
{consumergroup=adapter-service},1651433501,798805
{consumergroup=adapter-service},1651433506,798805
{consumergroup=adapter-service},1651433511,798805
{consumergroup=adapter-service},1651433516,877648
{consumergroup=adapter-service},1651433521,877648
{consumergroup=adapter-service},1651433526,877648
{consumergroup=adapter-service},1651433531,909898
{consumergroup=adapter-service},1651433536,909898
{consumergroup=adapter-service},1651433541,909898
{consumergroup=adapter-service},1651433546,934946
{consumergroup=adapter-service},1651433551,934946
{consumergroup=adapter-service},1651433556,934946
{consumergroup=adapter-service},1651433561,970920
{consumergroup=adapter-service},1651433566,970920
{consumergroup=adapter-service},1651433571,970920
{consumergroup=adapter-service},1651433576,1003034
{consumergroup=adapter-service},1651433581,1003034
{consumergroup=adapter-service},1651433586,1003034
{consumergroup=adapter-service},1651433591,1028743
{consumergroup=adapter-service},1651433596,1028743
{consumergroup=adapter-service},1651433601,1028743
{consumergroup=adapter-service},1651433606,1040177
{consumergroup=adapter-service},1651433611,1040177
{consumergroup=adapter-service},1651433616,1040177
{consumergroup=adapter-service},1651433621,1064795
{consumergroup=adapter-service},1651433626,1064795
{consumergroup=adapter-service},1651433631,1064795
{consumergroup=adapter-service},1651433636,1085124
{consumergroup=adapter-service},1651433641,1085124
{consumergroup=adapter-service},1651433646,1085124
