labels,timestamp,value
{consumergroup=__strimzi-topic-operator-kstreams},1651450098,18
{consumergroup=__strimzi-topic-operator-kstreams},1651450103,18
{consumergroup=__strimzi-topic-operator-kstreams},1651450108,18
{consumergroup=__strimzi-topic-operator-kstreams},1651450113,0
{consumergroup=__strimzi-topic-operator-kstreams},1651450118,0
{consumergroup=__strimzi-topic-operator-kstreams},1651450123,0
{consumergroup=__strimzi-topic-operator-kstreams},1651450128,0
{consumergroup=__strimzi-topic-operator-kstreams},1651450133,0
{consumergroup=__strimzi-topic-operator-kstreams},1651450138,0
{consumergroup=__strimzi-topic-operator-kstreams},1651450143,0
{consumergroup=__strimzi-topic-operator-kstreams},1651450148,0
{consumergroup=__strimzi-topic-operator-kstreams},1651450153,0
{consumergroup=__strimzi-topic-operator-kstreams},1651450158,0
{consumergroup=__strimzi-topic-operator-kstreams},1651450163,0
{consumergroup=__strimzi-topic-operator-kstreams},1651450168,0
{consumergroup=__strimzi-topic-operator-kstreams},1651450173,0
{consumergroup=__strimzi-topic-operator-kstreams},1651450178,0
{consumergroup=__strimzi-topic-operator-kstreams},1651450183,0
{consumergroup=__strimzi-topic-operator-kstreams},1651450188,0
{consumergroup=__strimzi-topic-operator-kstreams},1651450193,0
{consumergroup=__strimzi-topic-operator-kstreams},1651450198,0
{consumergroup=__strimzi-topic-operator-kstreams},1651450203,0
{consumergroup=__strimzi-topic-operator-kstreams},1651450208,0
{consumergroup=__strimzi-topic-operator-kstreams},1651450213,0
{consumergroup=__strimzi-topic-operator-kstreams},1651450218,0
{consumergroup=__strimzi-topic-operator-kstreams},1651450223,0
{consumergroup=__strimzi-topic-operator-kstreams},1651450228,0
{consumergroup=__strimzi-topic-operator-kstreams},1651450233,0
{consumergroup=__strimzi-topic-operator-kstreams},1651450238,0
{consumergroup=__strimzi-topic-operator-kstreams},1651450243,0
{consumergroup=__strimzi-topic-operator-kstreams},1651450248,0
{consumergroup=__strimzi-topic-operator-kstreams},1651450253,0
{consumergroup=__strimzi-topic-operator-kstreams},1651450258,0
{consumergroup=__strimzi-topic-operator-kstreams},1651450263,0
{consumergroup=__strimzi-topic-operator-kstreams},1651450268,0
{consumergroup=__strimzi-topic-operator-kstreams},1651450273,0
{consumergroup=__strimzi-topic-operator-kstreams},1651450278,0
{consumergroup=__strimzi-topic-operator-kstreams},1651450283,0
{consumergroup=__strimzi-topic-operator-kstreams},1651450288,0
{consumergroup=__strimzi-topic-operator-kstreams},1651450293,0
{consumergroup=__strimzi-topic-operator-kstreams},1651450298,0
{consumergroup=__strimzi-topic-operator-kstreams},1651450303,0
{consumergroup=__strimzi-topic-operator-kstreams},1651450308,0
{consumergroup=__strimzi-topic-operator-kstreams},1651450313,0
{consumergroup=__strimzi-topic-operator-kstreams},1651450318,0
{consumergroup=__strimzi-topic-operator-kstreams},1651450323,0
{consumergroup=__strimzi-topic-operator-kstreams},1651450328,0
{consumergroup=__strimzi-topic-operator-kstreams},1651450333,0
{consumergroup=__strimzi-topic-operator-kstreams},1651450338,0
{consumergroup=__strimzi-topic-operator-kstreams},1651450343,0
{consumergroup=__strimzi-topic-operator-kstreams},1651450348,0
{consumergroup=adapter-service},1651450128,84329
{consumergroup=adapter-service},1651450133,84329
{consumergroup=adapter-service},1651450138,84329
{consumergroup=adapter-service},1651450143,244872
{consumergroup=adapter-service},1651450148,244872
{consumergroup=adapter-service},1651450153,244872
{consumergroup=adapter-service},1651450158,394933
{consumergroup=adapter-service},1651450163,394933
{consumergroup=adapter-service},1651450168,394933
{consumergroup=adapter-service},1651450173,509039
{consumergroup=adapter-service},1651450178,509039
{consumergroup=adapter-service},1651450183,509039
{consumergroup=adapter-service},1651450188,628116
{consumergroup=adapter-service},1651450193,628116
{consumergroup=adapter-service},1651450198,628116
{consumergroup=adapter-service},1651450203,715022
{consumergroup=adapter-service},1651450208,715022
{consumergroup=adapter-service},1651450213,715022
{consumergroup=adapter-service},1651450218,775243
{consumergroup=adapter-service},1651450223,775243
{consumergroup=adapter-service},1651450228,775243
{consumergroup=adapter-service},1651450233,801345
{consumergroup=adapter-service},1651450238,801345
{consumergroup=adapter-service},1651450243,801345
{consumergroup=adapter-service},1651450248,815941
{consumergroup=adapter-service},1651450253,815941
{consumergroup=adapter-service},1651450258,815941
{consumergroup=adapter-service},1651450263,816494
{consumergroup=adapter-service},1651450268,816494
{consumergroup=adapter-service},1651450273,816494
{consumergroup=adapter-service},1651450278,824675
{consumergroup=adapter-service},1651450283,824675
{consumergroup=adapter-service},1651450288,824675
{consumergroup=adapter-service},1651450293,830988
{consumergroup=adapter-service},1651450298,830988
{consumergroup=adapter-service},1651450303,830988
{consumergroup=adapter-service},1651450308,829092
{consumergroup=adapter-service},1651450313,829092
{consumergroup=adapter-service},1651450318,829092
{consumergroup=adapter-service},1651450323,840685
{consumergroup=adapter-service},1651450328,840685
{consumergroup=adapter-service},1651450333,840685
{consumergroup=adapter-service},1651450338,846912
{consumergroup=adapter-service},1651450343,846912
{consumergroup=adapter-service},1651450348,846912
