labels,timestamp,value
{consumergroup=__strimzi-topic-operator-kstreams},1651437833,0
{consumergroup=__strimzi-topic-operator-kstreams},1651437843,16
{consumergroup=__strimzi-topic-operator-kstreams},1651437848,16
{consumergroup=__strimzi-topic-operator-kstreams},1651437853,16
{consumergroup=__strimzi-topic-operator-kstreams},1651437858,16
{consumergroup=__strimzi-topic-operator-kstreams},1651437863,16
{consumergroup=__strimzi-topic-operator-kstreams},1651437868,16
{consumergroup=__strimzi-topic-operator-kstreams},1651437873,0
{consumergroup=__strimzi-topic-operator-kstreams},1651437878,0
{consumergroup=__strimzi-topic-operator-kstreams},1651437883,0
{consumergroup=__strimzi-topic-operator-kstreams},1651437888,0
{consumergroup=__strimzi-topic-operator-kstreams},1651437893,0
{consumergroup=__strimzi-topic-operator-kstreams},1651437898,0
{consumergroup=__strimzi-topic-operator-kstreams},1651437903,0
{consumergroup=__strimzi-topic-operator-kstreams},1651437908,0
{consumergroup=__strimzi-topic-operator-kstreams},1651437913,0
{consumergroup=__strimzi-topic-operator-kstreams},1651437918,0
{consumergroup=__strimzi-topic-operator-kstreams},1651437923,0
{consumergroup=__strimzi-topic-operator-kstreams},1651437928,0
{consumergroup=__strimzi-topic-operator-kstreams},1651437933,0
{consumergroup=__strimzi-topic-operator-kstreams},1651437938,0
{consumergroup=__strimzi-topic-operator-kstreams},1651437943,0
{consumergroup=__strimzi-topic-operator-kstreams},1651437948,0
{consumergroup=__strimzi-topic-operator-kstreams},1651437953,0
{consumergroup=__strimzi-topic-operator-kstreams},1651437958,0
{consumergroup=__strimzi-topic-operator-kstreams},1651437963,0
{consumergroup=__strimzi-topic-operator-kstreams},1651437968,0
{consumergroup=__strimzi-topic-operator-kstreams},1651437973,0
{consumergroup=__strimzi-topic-operator-kstreams},1651437978,0
{consumergroup=__strimzi-topic-operator-kstreams},1651437983,0
{consumergroup=__strimzi-topic-operator-kstreams},1651437988,0
{consumergroup=__strimzi-topic-operator-kstreams},1651437993,0
{consumergroup=__strimzi-topic-operator-kstreams},1651437998,0
{consumergroup=__strimzi-topic-operator-kstreams},1651438003,0
{consumergroup=__strimzi-topic-operator-kstreams},1651438008,0
{consumergroup=__strimzi-topic-operator-kstreams},1651438013,0
{consumergroup=__strimzi-topic-operator-kstreams},1651438018,0
{consumergroup=__strimzi-topic-operator-kstreams},1651438023,0
{consumergroup=__strimzi-topic-operator-kstreams},1651438028,0
{consumergroup=__strimzi-topic-operator-kstreams},1651438033,0
{consumergroup=__strimzi-topic-operator-kstreams},1651438038,0
{consumergroup=__strimzi-topic-operator-kstreams},1651438043,0
{consumergroup=__strimzi-topic-operator-kstreams},1651438048,0
{consumergroup=__strimzi-topic-operator-kstreams},1651438053,0
{consumergroup=__strimzi-topic-operator-kstreams},1651438058,0
{consumergroup=__strimzi-topic-operator-kstreams},1651438063,0
{consumergroup=__strimzi-topic-operator-kstreams},1651438068,0
{consumergroup=__strimzi-topic-operator-kstreams},1651438073,0
{consumergroup=__strimzi-topic-operator-kstreams},1651438078,0
{consumergroup=__strimzi-topic-operator-kstreams},1651438083,0
{consumergroup=__strimzi-topic-operator-kstreams},1651438088,0
{consumergroup=__strimzi-topic-operator-kstreams},1651438093,0
{consumergroup=adapter-service},1651437833,0
{consumergroup=adapter-service},1651437873,138837
{consumergroup=adapter-service},1651437878,138837
{consumergroup=adapter-service},1651437883,138837
{consumergroup=adapter-service},1651437888,281439
{consumergroup=adapter-service},1651437893,281439
{consumergroup=adapter-service},1651437898,281439
{consumergroup=adapter-service},1651437903,378687
{consumergroup=adapter-service},1651437908,378687
{consumergroup=adapter-service},1651437913,378687
{consumergroup=adapter-service},1651437918,453065
{consumergroup=adapter-service},1651437923,453065
{consumergroup=adapter-service},1651437928,453065
{consumergroup=adapter-service},1651437933,501431
{consumergroup=adapter-service},1651437938,501431
{consumergroup=adapter-service},1651437943,501431
{consumergroup=adapter-service},1651437948,516702
{consumergroup=adapter-service},1651437953,516702
{consumergroup=adapter-service},1651437958,516702
{consumergroup=adapter-service},1651437963,514861
{consumergroup=adapter-service},1651437968,514861
{consumergroup=adapter-service},1651437973,514861
{consumergroup=adapter-service},1651437978,488961
{consumergroup=adapter-service},1651437983,488961
{consumergroup=adapter-service},1651437988,488961
{consumergroup=adapter-service},1651437993,417765
{consumergroup=adapter-service},1651437998,417765
{consumergroup=adapter-service},1651438003,417765
{consumergroup=adapter-service},1651438008,342625
{consumergroup=adapter-service},1651438013,342625
{consumergroup=adapter-service},1651438018,342625
{consumergroup=adapter-service},1651438023,255567
{consumergroup=adapter-service},1651438028,255567
{consumergroup=adapter-service},1651438033,255567
{consumergroup=adapter-service},1651438038,254431
{consumergroup=adapter-service},1651438043,254431
{consumergroup=adapter-service},1651438048,254431
{consumergroup=adapter-service},1651438053,181221
{consumergroup=adapter-service},1651438058,181221
{consumergroup=adapter-service},1651438063,181221
{consumergroup=adapter-service},1651438068,133640
{consumergroup=adapter-service},1651438073,133640
{consumergroup=adapter-service},1651438078,133640
{consumergroup=adapter-service},1651438083,103253
{consumergroup=adapter-service},1651438088,103253
{consumergroup=adapter-service},1651438093,103253
