labels,timestamp,value
{consumergroup=__strimzi-topic-operator-kstreams},1651111493,0
{consumergroup=__strimzi-topic-operator-kstreams},1651111498,0
{consumergroup=__strimzi-topic-operator-kstreams},1651111503,0
{consumergroup=__strimzi-topic-operator-kstreams},1651111508,8
{consumergroup=__strimzi-topic-operator-kstreams},1651111513,8
{consumergroup=__strimzi-topic-operator-kstreams},1651111518,8
{consumergroup=__strimzi-topic-operator-kstreams},1651111523,8
{consumergroup=__strimzi-topic-operator-kstreams},1651111528,8
{consumergroup=__strimzi-topic-operator-kstreams},1651111533,8
{consumergroup=__strimzi-topic-operator-kstreams},1651111538,0
{consumergroup=__strimzi-topic-operator-kstreams},1651111543,0
{consumergroup=__strimzi-topic-operator-kstreams},1651111548,0
{consumergroup=__strimzi-topic-operator-kstreams},1651111553,0
{consumergroup=__strimzi-topic-operator-kstreams},1651111558,0
{consumergroup=__strimzi-topic-operator-kstreams},1651111563,0
{consumergroup=__strimzi-topic-operator-kstreams},1651111568,0
{consumergroup=__strimzi-topic-operator-kstreams},1651111573,0
{consumergroup=__strimzi-topic-operator-kstreams},1651111578,0
{consumergroup=__strimzi-topic-operator-kstreams},1651111583,0
{consumergroup=__strimzi-topic-operator-kstreams},1651111588,0
{consumergroup=__strimzi-topic-operator-kstreams},1651111593,0
{consumergroup=__strimzi-topic-operator-kstreams},1651111598,0
{consumergroup=__strimzi-topic-operator-kstreams},1651111603,0
{consumergroup=__strimzi-topic-operator-kstreams},1651111608,0
{consumergroup=__strimzi-topic-operator-kstreams},1651111613,0
{consumergroup=__strimzi-topic-operator-kstreams},1651111618,0
{consumergroup=__strimzi-topic-operator-kstreams},1651111623,0
{consumergroup=__strimzi-topic-operator-kstreams},1651111628,0
{consumergroup=__strimzi-topic-operator-kstreams},1651111633,0
{consumergroup=__strimzi-topic-operator-kstreams},1651111638,0
{consumergroup=__strimzi-topic-operator-kstreams},1651111643,0
{consumergroup=__strimzi-topic-operator-kstreams},1651111648,0
{consumergroup=__strimzi-topic-operator-kstreams},1651111653,0
{consumergroup=__strimzi-topic-operator-kstreams},1651111658,0
{consumergroup=__strimzi-topic-operator-kstreams},1651111663,0
{consumergroup=__strimzi-topic-operator-kstreams},1651111668,0
{consumergroup=__strimzi-topic-operator-kstreams},1651111673,0
{consumergroup=__strimzi-topic-operator-kstreams},1651111678,0
{consumergroup=__strimzi-topic-operator-kstreams},1651111683,0
{consumergroup=__strimzi-topic-operator-kstreams},1651111688,0
{consumergroup=__strimzi-topic-operator-kstreams},1651111693,0
{consumergroup=__strimzi-topic-operator-kstreams},1651111698,0
{consumergroup=__strimzi-topic-operator-kstreams},1651111703,0
{consumergroup=__strimzi-topic-operator-kstreams},1651111708,0
{consumergroup=__strimzi-topic-operator-kstreams},1651111713,0
{consumergroup=__strimzi-topic-operator-kstreams},1651111718,0
{consumergroup=__strimzi-topic-operator-kstreams},1651111723,0
{consumergroup=__strimzi-topic-operator-kstreams},1651111728,0
{consumergroup=__strimzi-topic-operator-kstreams},1651111733,0
{consumergroup=__strimzi-topic-operator-kstreams},1651111738,0
{consumergroup=__strimzi-topic-operator-kstreams},1651111743,0
{consumergroup=__strimzi-topic-operator-kstreams},1651111748,0
{consumergroup=__strimzi-topic-operator-kstreams},1651111753,0
{consumergroup=__strimzi-topic-operator-kstreams},1651111758,0
{consumergroup=__strimzi-topic-operator-kstreams},1651111763,0
{consumergroup=__strimzi-topic-operator-kstreams},1651111768,0
{consumergroup=__strimzi-topic-operator-kstreams},1651111773,0
{consumergroup=__strimzi-topic-operator-kstreams},1651111778,0
{consumergroup=__strimzi-topic-operator-kstreams},1651111783,0
{consumergroup=__strimzi-topic-operator-kstreams},1651111788,0
{consumergroup=__strimzi-topic-operator-kstreams},1651111793,0
{consumergroup=__strimzi-topic-operator-kstreams},1651111798,0
{consumergroup=__strimzi-topic-operator-kstreams},1651111803,0
{consumergroup=__strimzi-topic-operator-kstreams},1651111808,0
{consumergroup=landscape-service},1651111538,882112
{consumergroup=landscape-service},1651111543,882112
{consumergroup=landscape-service},1651111548,882112
{consumergroup=landscape-service},1651111553,3038085
{consumergroup=landscape-service},1651111558,3038085
{consumergroup=landscape-service},1651111563,3038085
{consumergroup=landscape-service},1651111568,4162718
{consumergroup=landscape-service},1651111573,4162718
{consumergroup=landscape-service},1651111578,4162718
{consumergroup=landscape-service},1651111583,4540994
{consumergroup=landscape-service},1651111588,4540994
{consumergroup=landscape-service},1651111593,4540994
{consumergroup=landscape-service},1651111598,5001428
{consumergroup=landscape-service},1651111603,5001428
{consumergroup=landscape-service},1651111608,5001428
{consumergroup=landscape-service},1651111613,4869652
{consumergroup=landscape-service},1651111618,4869652
{consumergroup=landscape-service},1651111623,4869652
{consumergroup=landscape-service},1651111628,5031604
{consumergroup=landscape-service},1651111633,5031604
{consumergroup=landscape-service},1651111638,5031604
{consumergroup=landscape-service},1651111643,4823905
{consumergroup=landscape-service},1651111648,4823905
{consumergroup=landscape-service},1651111653,4823905
{consumergroup=landscape-service},1651111658,5029938
{consumergroup=landscape-service},1651111663,5029938
{consumergroup=landscape-service},1651111668,5029938
{consumergroup=landscape-service},1651111673,4956502
{consumergroup=landscape-service},1651111678,4956502
{consumergroup=landscape-service},1651111683,4956502
{consumergroup=landscape-service},1651111688,5031191
{consumergroup=landscape-service},1651111693,5031191
{consumergroup=landscape-service},1651111698,5031191
{consumergroup=landscape-service},1651111703,4943862
{consumergroup=landscape-service},1651111708,4943862
{consumergroup=landscape-service},1651111713,4943862
{consumergroup=landscape-service},1651111718,4848125
{consumergroup=landscape-service},1651111723,4848125
{consumergroup=landscape-service},1651111728,4848125
{consumergroup=landscape-service},1651111733,4915405
{consumergroup=landscape-service},1651111738,4915405
{consumergroup=landscape-service},1651111743,4915405
{consumergroup=landscape-service},1651111748,4714471
{consumergroup=landscape-service},1651111753,4714471
{consumergroup=landscape-service},1651111758,4714471
{consumergroup=landscape-service},1651111763,5047198
{consumergroup=landscape-service},1651111768,5047198
{consumergroup=landscape-service},1651111773,5047198
{consumergroup=landscape-service},1651111778,4568590
{consumergroup=landscape-service},1651111783,4568590
{consumergroup=landscape-service},1651111788,4568590
{consumergroup=landscape-service},1651111793,4859164
{consumergroup=landscape-service},1651111798,4859164
{consumergroup=landscape-service},1651111803,4859164
{consumergroup=landscape-service},1651111808,4377887
