labels,timestamp,value
{consumergroup=__strimzi-topic-operator-kstreams},1651203998,8
{consumergroup=__strimzi-topic-operator-kstreams},1651204003,8
{consumergroup=__strimzi-topic-operator-kstreams},1651204008,8
{consumergroup=__strimzi-topic-operator-kstreams},1651204013,8
{consumergroup=__strimzi-topic-operator-kstreams},1651204018,8
{consumergroup=__strimzi-topic-operator-kstreams},1651204023,8
{consumergroup=__strimzi-topic-operator-kstreams},1651204028,0
{consumergroup=__strimzi-topic-operator-kstreams},1651204033,0
{consumergroup=__strimzi-topic-operator-kstreams},1651204038,0
{consumergroup=__strimzi-topic-operator-kstreams},1651204043,0
{consumergroup=__strimzi-topic-operator-kstreams},1651204048,0
{consumergroup=__strimzi-topic-operator-kstreams},1651204053,0
{consumergroup=__strimzi-topic-operator-kstreams},1651204058,0
{consumergroup=__strimzi-topic-operator-kstreams},1651204063,0
{consumergroup=__strimzi-topic-operator-kstreams},1651204068,0
{consumergroup=__strimzi-topic-operator-kstreams},1651204073,1
{consumergroup=__strimzi-topic-operator-kstreams},1651204078,1
{consumergroup=__strimzi-topic-operator-kstreams},1651204083,1
{consumergroup=__strimzi-topic-operator-kstreams},1651204088,0
{consumergroup=__strimzi-topic-operator-kstreams},1651204093,0
{consumergroup=__strimzi-topic-operator-kstreams},1651204098,0
{consumergroup=__strimzi-topic-operator-kstreams},1651204103,0
{consumergroup=__strimzi-topic-operator-kstreams},1651204108,0
{consumergroup=__strimzi-topic-operator-kstreams},1651204113,0
{consumergroup=__strimzi-topic-operator-kstreams},1651204118,0
{consumergroup=__strimzi-topic-operator-kstreams},1651204123,0
{consumergroup=__strimzi-topic-operator-kstreams},1651204128,0
{consumergroup=__strimzi-topic-operator-kstreams},1651204133,0
{consumergroup=__strimzi-topic-operator-kstreams},1651204138,0
{consumergroup=__strimzi-topic-operator-kstreams},1651204143,0
{consumergroup=__strimzi-topic-operator-kstreams},1651204148,0
{consumergroup=__strimzi-topic-operator-kstreams},1651204153,0
{consumergroup=__strimzi-topic-operator-kstreams},1651204158,0
{consumergroup=__strimzi-topic-operator-kstreams},1651204163,0
{consumergroup=__strimzi-topic-operator-kstreams},1651204168,0
{consumergroup=__strimzi-topic-operator-kstreams},1651204173,0
{consumergroup=__strimzi-topic-operator-kstreams},1651204178,0
{consumergroup=__strimzi-topic-operator-kstreams},1651204183,0
{consumergroup=__strimzi-topic-operator-kstreams},1651204188,0
{consumergroup=__strimzi-topic-operator-kstreams},1651204193,0
{consumergroup=__strimzi-topic-operator-kstreams},1651204198,0
{consumergroup=__strimzi-topic-operator-kstreams},1651204203,0
{consumergroup=__strimzi-topic-operator-kstreams},1651204208,0
{consumergroup=__strimzi-topic-operator-kstreams},1651204213,0
{consumergroup=__strimzi-topic-operator-kstreams},1651204218,0
{consumergroup=__strimzi-topic-operator-kstreams},1651204223,0
{consumergroup=__strimzi-topic-operator-kstreams},1651204228,0
{consumergroup=__strimzi-topic-operator-kstreams},1651204233,0
{consumergroup=__strimzi-topic-operator-kstreams},1651204238,0
{consumergroup=__strimzi-topic-operator-kstreams},1651204243,0
{consumergroup=__strimzi-topic-operator-kstreams},1651204248,0
{consumergroup=__strimzi-topic-operator-kstreams},1651204253,0
{consumergroup=__strimzi-topic-operator-kstreams},1651204258,0
{consumergroup=__strimzi-topic-operator-kstreams},1651204263,0
{consumergroup=__strimzi-topic-operator-kstreams},1651204268,0
{consumergroup=__strimzi-topic-operator-kstreams},1651204273,0
{consumergroup=__strimzi-topic-operator-kstreams},1651204278,0
{consumergroup=__strimzi-topic-operator-kstreams},1651204283,0
{consumergroup=__strimzi-topic-operator-kstreams},1651204288,0
{consumergroup=__strimzi-topic-operator-kstreams},1651204293,0
{consumergroup=__strimzi-topic-operator-kstreams},1651204298,0
{consumergroup=__strimzi-topic-operator-kstreams},1651204303,0
{consumergroup=__strimzi-topic-operator-kstreams},1651204308,0
{consumergroup=__strimzi-topic-operator-kstreams},1651204313,0
{consumergroup=__strimzi-topic-operator-kstreams},1651204318,0
{consumergroup=__strimzi-topic-operator-kstreams},1651204323,0
{consumergroup=__strimzi-topic-operator-kstreams},1651204328,0
{consumergroup=__strimzi-topic-operator-kstreams},1651204333,0
{consumergroup=__strimzi-topic-operator-kstreams},1651204338,0
{consumergroup=__strimzi-topic-operator-kstreams},1651204343,0
{consumergroup=__strimzi-topic-operator-kstreams},1651204348,0
{consumergroup=__strimzi-topic-operator-kstreams},1651204353,0
{consumergroup=__strimzi-topic-operator-kstreams},1651204358,0
{consumergroup=__strimzi-topic-operator-kstreams},1651204363,0
{consumergroup=__strimzi-topic-operator-kstreams},1651204368,0
{consumergroup=__strimzi-topic-operator-kstreams},1651204373,0
{consumergroup=__strimzi-topic-operator-kstreams},1651204378,0
{consumergroup=__strimzi-topic-operator-kstreams},1651204383,0
{consumergroup=__strimzi-topic-operator-kstreams},1651204388,0
{consumergroup=__strimzi-topic-operator-kstreams},1651204393,0
{consumergroup=__strimzi-topic-operator-kstreams},1651204398,0
{consumergroup=__strimzi-topic-operator-kstreams},1651204403,0
{consumergroup=__strimzi-topic-operator-kstreams},1651204408,0
{consumergroup=__strimzi-topic-operator-kstreams},1651204413,0
{consumergroup=__strimzi-topic-operator-kstreams},1651204418,0
{consumergroup=__strimzi-topic-operator-kstreams},1651204423,0
{consumergroup=__strimzi-topic-operator-kstreams},1651204428,0
{consumergroup=__strimzi-topic-operator-kstreams},1651204433,0
{consumergroup=__strimzi-topic-operator-kstreams},1651204438,0
{consumergroup=__strimzi-topic-operator-kstreams},1651204443,0
{consumergroup=__strimzi-topic-operator-kstreams},1651204448,0
{consumergroup=__strimzi-topic-operator-kstreams},1651204453,0
{consumergroup=__strimzi-topic-operator-kstreams},1651204458,0
{consumergroup=__strimzi-topic-operator-kstreams},1651204463,0
{consumergroup=__strimzi-topic-operator-kstreams},1651204468,0
{consumergroup=__strimzi-topic-operator-kstreams},1651204473,0
{consumergroup=__strimzi-topic-operator-kstreams},1651204478,0
{consumergroup=__strimzi-topic-operator-kstreams},1651204483,0
{consumergroup=__strimzi-topic-operator-kstreams},1651204488,0
{consumergroup=trace-service},1651204028,4
{consumergroup=trace-service},1651204033,4
{consumergroup=trace-service},1651204038,4
{consumergroup=trace-service},1651204043,10538
{consumergroup=trace-service},1651204048,10538
{consumergroup=trace-service},1651204053,10538
{consumergroup=trace-service},1651204058,23616
{consumergroup=trace-service},1651204063,23616
{consumergroup=trace-service},1651204068,23616
{consumergroup=trace-service},1651204073,51397
{consumergroup=trace-service},1651204078,51397
{consumergroup=trace-service},1651204083,51397
{consumergroup=trace-service},1651204088,17359
{consumergroup=trace-service},1651204093,17359
{consumergroup=trace-service},1651204098,17359
{consumergroup=trace-service},1651204103,42133
{consumergroup=trace-service},1651204108,42133
{consumergroup=trace-service},1651204113,42133
{consumergroup=trace-service},1651204118,17613
{consumergroup=trace-service},1651204123,17613
{consumergroup=trace-service},1651204128,17613
{consumergroup=trace-service},1651204133,55231
{consumergroup=trace-service},1651204138,55231
{consumergroup=trace-service},1651204143,55231
{consumergroup=trace-service},1651204148,15843
{consumergroup=trace-service},1651204153,15843
{consumergroup=trace-service},1651204158,15843
{consumergroup=trace-service},1651204163,39030
{consumergroup=trace-service},1651204168,39030
{consumergroup=trace-service},1651204173,39030
{consumergroup=trace-service},1651204178,16937
{consumergroup=trace-service},1651204183,16937
{consumergroup=trace-service},1651204188,16937
{consumergroup=trace-service},1651204193,46501
{consumergroup=trace-service},1651204198,46501
{consumergroup=trace-service},1651204203,46501
{consumergroup=trace-service},1651204208,19432
{consumergroup=trace-service},1651204213,19432
{consumergroup=trace-service},1651204218,19432
{consumergroup=trace-service},1651204223,44248
{consumergroup=trace-service},1651204228,44248
{consumergroup=trace-service},1651204233,44248
{consumergroup=trace-service},1651204238,16317
{consumergroup=trace-service},1651204243,16317
{consumergroup=trace-service},1651204248,16317
{consumergroup=trace-service},1651204253,42037
{consumergroup=trace-service},1651204258,42037
{consumergroup=trace-service},1651204263,42037
{consumergroup=trace-service},1651204268,15987
{consumergroup=trace-service},1651204273,15987
{consumergroup=trace-service},1651204278,15987
{consumergroup=trace-service},1651204283,40217
{consumergroup=trace-service},1651204288,40217
{consumergroup=trace-service},1651204293,40217
{consumergroup=trace-service},1651204298,19947
{consumergroup=trace-service},1651204303,19947
{consumergroup=trace-service},1651204308,19947
{consumergroup=trace-service},1651204313,42615
{consumergroup=trace-service},1651204318,42615
{consumergroup=trace-service},1651204323,42615
{consumergroup=trace-service},1651204328,17880
{consumergroup=trace-service},1651204333,17880
{consumergroup=trace-service},1651204338,17880
{consumergroup=trace-service},1651204343,43818
{consumergroup=trace-service},1651204348,43818
{consumergroup=trace-service},1651204353,43818
{consumergroup=trace-service},1651204358,19233
{consumergroup=trace-service},1651204363,19233
{consumergroup=trace-service},1651204368,19233
{consumergroup=trace-service},1651204373,44312
{consumergroup=trace-service},1651204378,44312
{consumergroup=trace-service},1651204383,44312
{consumergroup=trace-service},1651204388,19644
{consumergroup=trace-service},1651204393,19644
{consumergroup=trace-service},1651204398,19644
{consumergroup=trace-service},1651204403,43135
{consumergroup=trace-service},1651204408,43135
{consumergroup=trace-service},1651204413,43135
{consumergroup=trace-service},1651204418,94201
{consumergroup=trace-service},1651204423,94201
{consumergroup=trace-service},1651204428,94201
{consumergroup=trace-service},1651204433,72088
{consumergroup=trace-service},1651204438,72088
{consumergroup=trace-service},1651204443,72088
{consumergroup=trace-service},1651204448,13616
{consumergroup=trace-service},1651204453,13616
{consumergroup=trace-service},1651204458,13616
{consumergroup=trace-service},1651204463,36698
{consumergroup=trace-service},1651204468,36698
{consumergroup=trace-service},1651204473,36698
{consumergroup=trace-service},1651204478,18417
{consumergroup=trace-service},1651204483,18417
{consumergroup=trace-service},1651204488,18417
{consumergroup=trace-token-events-consumer},1651204043,0
{consumergroup=trace-token-events-consumer},1651204048,0
{consumergroup=trace-token-events-consumer},1651204053,0
{consumergroup=trace-token-events-consumer},1651204058,0
{consumergroup=trace-token-events-consumer},1651204063,0
{consumergroup=trace-token-events-consumer},1651204068,0
{consumergroup=trace-token-events-consumer},1651204073,0
{consumergroup=trace-token-events-consumer},1651204078,0
{consumergroup=trace-token-events-consumer},1651204083,0
{consumergroup=trace-token-events-consumer},1651204088,0
{consumergroup=trace-token-events-consumer},1651204093,0
{consumergroup=trace-token-events-consumer},1651204098,0
{consumergroup=trace-token-events-consumer},1651204103,0
{consumergroup=trace-token-events-consumer},1651204108,0
{consumergroup=trace-token-events-consumer},1651204113,0
{consumergroup=trace-token-events-consumer},1651204118,0
{consumergroup=trace-token-events-consumer},1651204123,0
{consumergroup=trace-token-events-consumer},1651204128,0
{consumergroup=trace-token-events-consumer},1651204133,0
{consumergroup=trace-token-events-consumer},1651204138,0
{consumergroup=trace-token-events-consumer},1651204143,0
{consumergroup=trace-token-events-consumer},1651204148,0
{consumergroup=trace-token-events-consumer},1651204153,0
{consumergroup=trace-token-events-consumer},1651204158,0
{consumergroup=trace-token-events-consumer},1651204163,0
{consumergroup=trace-token-events-consumer},1651204168,0
{consumergroup=trace-token-events-consumer},1651204173,0
{consumergroup=trace-token-events-consumer},1651204178,0
{consumergroup=trace-token-events-consumer},1651204183,0
{consumergroup=trace-token-events-consumer},1651204188,0
{consumergroup=trace-token-events-consumer},1651204193,0
{consumergroup=trace-token-events-consumer},1651204198,0
{consumergroup=trace-token-events-consumer},1651204203,0
{consumergroup=trace-token-events-consumer},1651204208,0
{consumergroup=trace-token-events-consumer},1651204213,0
{consumergroup=trace-token-events-consumer},1651204218,0
{consumergroup=trace-token-events-consumer},1651204223,0
{consumergroup=trace-token-events-consumer},1651204228,0
{consumergroup=trace-token-events-consumer},1651204233,0
{consumergroup=trace-token-events-consumer},1651204238,0
{consumergroup=trace-token-events-consumer},1651204243,0
{consumergroup=trace-token-events-consumer},1651204248,0
{consumergroup=trace-token-events-consumer},1651204253,0
{consumergroup=trace-token-events-consumer},1651204258,0
{consumergroup=trace-token-events-consumer},1651204263,0
{consumergroup=trace-token-events-consumer},1651204268,0
{consumergroup=trace-token-events-consumer},1651204273,0
{consumergroup=trace-token-events-consumer},1651204278,0
{consumergroup=trace-token-events-consumer},1651204283,0
{consumergroup=trace-token-events-consumer},1651204288,0
{consumergroup=trace-token-events-consumer},1651204293,0
{consumergroup=trace-token-events-consumer},1651204298,0
{consumergroup=trace-token-events-consumer},1651204303,0
{consumergroup=trace-token-events-consumer},1651204308,0
{consumergroup=trace-token-events-consumer},1651204313,0
{consumergroup=trace-token-events-consumer},1651204318,0
{consumergroup=trace-token-events-consumer},1651204323,0
{consumergroup=trace-token-events-consumer},1651204328,0
{consumergroup=trace-token-events-consumer},1651204333,0
{consumergroup=trace-token-events-consumer},1651204338,0
{consumergroup=trace-token-events-consumer},1651204343,0
{consumergroup=trace-token-events-consumer},1651204348,0
{consumergroup=trace-token-events-consumer},1651204353,0
{consumergroup=trace-token-events-consumer},1651204358,0
{consumergroup=trace-token-events-consumer},1651204363,0
{consumergroup=trace-token-events-consumer},1651204368,0
{consumergroup=trace-token-events-consumer},1651204373,0
{consumergroup=trace-token-events-consumer},1651204378,0
{consumergroup=trace-token-events-consumer},1651204383,0
{consumergroup=trace-token-events-consumer},1651204388,0
{consumergroup=trace-token-events-consumer},1651204393,0
{consumergroup=trace-token-events-consumer},1651204398,0
{consumergroup=trace-token-events-consumer},1651204403,0
{consumergroup=trace-token-events-consumer},1651204408,0
{consumergroup=trace-token-events-consumer},1651204413,0
{consumergroup=trace-token-events-consumer},1651204418,0
{consumergroup=trace-token-events-consumer},1651204423,0
{consumergroup=trace-token-events-consumer},1651204428,0
{consumergroup=trace-token-events-consumer},1651204433,0
{consumergroup=trace-token-events-consumer},1651204438,0
{consumergroup=trace-token-events-consumer},1651204443,0
{consumergroup=trace-token-events-consumer},1651204448,0
{consumergroup=trace-token-events-consumer},1651204453,0
{consumergroup=trace-token-events-consumer},1651204458,0
{consumergroup=trace-token-events-consumer},1651204463,0
{consumergroup=trace-token-events-consumer},1651204468,0
{consumergroup=trace-token-events-consumer},1651204473,0
{consumergroup=trace-token-events-consumer},1651204478,0
{consumergroup=trace-token-events-consumer},1651204483,0
{consumergroup=trace-token-events-consumer},1651204488,0
