labels,timestamp,value
{consumergroup=__strimzi-topic-operator-kstreams},1651163082,0
{consumergroup=__strimzi-topic-operator-kstreams},1651163087,0
{consumergroup=__strimzi-topic-operator-kstreams},1651163092,0
{consumergroup=__strimzi-topic-operator-kstreams},1651163097,2
{consumergroup=__strimzi-topic-operator-kstreams},1651163102,2
{consumergroup=__strimzi-topic-operator-kstreams},1651163107,2
{consumergroup=__strimzi-topic-operator-kstreams},1651163112,0
{consumergroup=__strimzi-topic-operator-kstreams},1651163117,0
{consumergroup=__strimzi-topic-operator-kstreams},1651163122,0
{consumergroup=__strimzi-topic-operator-kstreams},1651163127,0
{consumergroup=__strimzi-topic-operator-kstreams},1651163132,0
{consumergroup=__strimzi-topic-operator-kstreams},1651163137,0
{consumergroup=__strimzi-topic-operator-kstreams},1651163142,0
{consumergroup=__strimzi-topic-operator-kstreams},1651163147,0
{consumergroup=__strimzi-topic-operator-kstreams},1651163152,0
{consumergroup=__strimzi-topic-operator-kstreams},1651163157,0
{consumergroup=__strimzi-topic-operator-kstreams},1651163162,0
{consumergroup=__strimzi-topic-operator-kstreams},1651163167,0
{consumergroup=__strimzi-topic-operator-kstreams},1651163172,0
{consumergroup=__strimzi-topic-operator-kstreams},1651163177,0
{consumergroup=__strimzi-topic-operator-kstreams},1651163182,0
{consumergroup=__strimzi-topic-operator-kstreams},1651163187,1
{consumergroup=__strimzi-topic-operator-kstreams},1651163192,1
{consumergroup=__strimzi-topic-operator-kstreams},1651163197,1
{consumergroup=__strimzi-topic-operator-kstreams},1651163202,0
{consumergroup=__strimzi-topic-operator-kstreams},1651163207,0
{consumergroup=__strimzi-topic-operator-kstreams},1651163212,0
{consumergroup=__strimzi-topic-operator-kstreams},1651163217,0
{consumergroup=__strimzi-topic-operator-kstreams},1651163222,0
{consumergroup=__strimzi-topic-operator-kstreams},1651163227,0
{consumergroup=__strimzi-topic-operator-kstreams},1651163232,0
{consumergroup=__strimzi-topic-operator-kstreams},1651163237,0
{consumergroup=__strimzi-topic-operator-kstreams},1651163242,0
{consumergroup=__strimzi-topic-operator-kstreams},1651163247,0
{consumergroup=__strimzi-topic-operator-kstreams},1651163252,0
{consumergroup=__strimzi-topic-operator-kstreams},1651163257,0
{consumergroup=__strimzi-topic-operator-kstreams},1651163262,0
{consumergroup=__strimzi-topic-operator-kstreams},1651163267,0
{consumergroup=__strimzi-topic-operator-kstreams},1651163272,0
{consumergroup=__strimzi-topic-operator-kstreams},1651163277,0
{consumergroup=__strimzi-topic-operator-kstreams},1651163282,0
{consumergroup=__strimzi-topic-operator-kstreams},1651163287,0
{consumergroup=__strimzi-topic-operator-kstreams},1651163292,0
{consumergroup=__strimzi-topic-operator-kstreams},1651163297,0
{consumergroup=__strimzi-topic-operator-kstreams},1651163302,0
{consumergroup=__strimzi-topic-operator-kstreams},1651163307,0
{consumergroup=__strimzi-topic-operator-kstreams},1651163312,0
{consumergroup=__strimzi-topic-operator-kstreams},1651163317,0
{consumergroup=__strimzi-topic-operator-kstreams},1651163322,0
{consumergroup=__strimzi-topic-operator-kstreams},1651163327,0
{consumergroup=__strimzi-topic-operator-kstreams},1651163332,0
{consumergroup=__strimzi-topic-operator-kstreams},1651163337,0
{consumergroup=__strimzi-topic-operator-kstreams},1651163342,0
{consumergroup=__strimzi-topic-operator-kstreams},1651163347,0
{consumergroup=__strimzi-topic-operator-kstreams},1651163352,0
{consumergroup=__strimzi-topic-operator-kstreams},1651163357,0
{consumergroup=__strimzi-topic-operator-kstreams},1651163362,0
{consumergroup=__strimzi-topic-operator-kstreams},1651163367,0
{consumergroup=__strimzi-topic-operator-kstreams},1651163372,0
{consumergroup=__strimzi-topic-operator-kstreams},1651163377,0
{consumergroup=__strimzi-topic-operator-kstreams},1651163382,0
{consumergroup=__strimzi-topic-operator-kstreams},1651163387,0
{consumergroup=__strimzi-topic-operator-kstreams},1651163392,0
{consumergroup=__strimzi-topic-operator-kstreams},1651163397,0
{consumergroup=__strimzi-topic-operator-kstreams},1651163402,0
{consumergroup=__strimzi-topic-operator-kstreams},1651163407,0
{consumergroup=__strimzi-topic-operator-kstreams},1651163412,0
{consumergroup=__strimzi-topic-operator-kstreams},1651163417,0
{consumergroup=__strimzi-topic-operator-kstreams},1651163422,0
{consumergroup=__strimzi-topic-operator-kstreams},1651163427,0
{consumergroup=__strimzi-topic-operator-kstreams},1651163432,0
{consumergroup=__strimzi-topic-operator-kstreams},1651163437,0
{consumergroup=__strimzi-topic-operator-kstreams},1651163442,0
{consumergroup=__strimzi-topic-operator-kstreams},1651163447,0
{consumergroup=__strimzi-topic-operator-kstreams},1651163452,0
{consumergroup=__strimzi-topic-operator-kstreams},1651163457,0
{consumergroup=__strimzi-topic-operator-kstreams},1651163462,0
{consumergroup=__strimzi-topic-operator-kstreams},1651163467,0
{consumergroup=__strimzi-topic-operator-kstreams},1651163472,0
{consumergroup=__strimzi-topic-operator-kstreams},1651163477,0
{consumergroup=__strimzi-topic-operator-kstreams},1651163482,0
{consumergroup=__strimzi-topic-operator-kstreams},1651163487,0
{consumergroup=__strimzi-topic-operator-kstreams},1651163492,0
{consumergroup=__strimzi-topic-operator-kstreams},1651163497,0
{consumergroup=__strimzi-topic-operator-kstreams},1651163502,0
{consumergroup=__strimzi-topic-operator-kstreams},1651163507,0
{consumergroup=__strimzi-topic-operator-kstreams},1651163512,0
{consumergroup=__strimzi-topic-operator-kstreams},1651163517,0
{consumergroup=__strimzi-topic-operator-kstreams},1651163522,0
{consumergroup=__strimzi-topic-operator-kstreams},1651163527,0
{consumergroup=__strimzi-topic-operator-kstreams},1651163532,0
{consumergroup=__strimzi-topic-operator-kstreams},1651163537,0
{consumergroup=__strimzi-topic-operator-kstreams},1651163542,0
{consumergroup=__strimzi-topic-operator-kstreams},1651163547,0
{consumergroup=__strimzi-topic-operator-kstreams},1651163552,0
{consumergroup=__strimzi-topic-operator-kstreams},1651163557,0
{consumergroup=__strimzi-topic-operator-kstreams},1651163562,0
{consumergroup=__strimzi-topic-operator-kstreams},1651163567,0
{consumergroup=__strimzi-topic-operator-kstreams},1651163572,0
{consumergroup=trace-service},1651163112,6990
{consumergroup=trace-service},1651163117,6990
{consumergroup=trace-service},1651163122,6990
{consumergroup=trace-service},1651163127,15445
{consumergroup=trace-service},1651163132,15445
{consumergroup=trace-service},1651163137,15445
{consumergroup=trace-service},1651163142,41592
{consumergroup=trace-service},1651163147,41592
{consumergroup=trace-service},1651163152,41592
{consumergroup=trace-service},1651163157,115845
{consumergroup=trace-service},1651163162,115845
{consumergroup=trace-service},1651163167,115845
{consumergroup=trace-service},1651163172,31222
{consumergroup=trace-service},1651163177,31222
{consumergroup=trace-service},1651163182,31222
{consumergroup=trace-service},1651163187,101543
{consumergroup=trace-service},1651163192,101543
{consumergroup=trace-service},1651163197,101543
{consumergroup=trace-service},1651163202,34366
{consumergroup=trace-service},1651163207,34366
{consumergroup=trace-service},1651163212,34366
{consumergroup=trace-service},1651163217,85358
{consumergroup=trace-service},1651163222,85358
{consumergroup=trace-service},1651163227,85358
{consumergroup=trace-service},1651163232,32961
{consumergroup=trace-service},1651163237,32961
{consumergroup=trace-service},1651163242,32961
{consumergroup=trace-service},1651163247,90621
{consumergroup=trace-service},1651163252,90621
{consumergroup=trace-service},1651163257,90621
{consumergroup=trace-service},1651163262,33551
{consumergroup=trace-service},1651163267,33551
{consumergroup=trace-service},1651163272,33551
{consumergroup=trace-service},1651163277,102366
{consumergroup=trace-service},1651163282,102366
{consumergroup=trace-service},1651163287,102366
{consumergroup=trace-service},1651163292,34458
{consumergroup=trace-service},1651163297,34458
{consumergroup=trace-service},1651163302,34458
{consumergroup=trace-service},1651163307,105542
{consumergroup=trace-service},1651163312,105542
{consumergroup=trace-service},1651163317,105542
{consumergroup=trace-service},1651163322,31688
{consumergroup=trace-service},1651163327,31688
{consumergroup=trace-service},1651163332,31688
{consumergroup=trace-service},1651163337,84277
{consumergroup=trace-service},1651163342,84277
{consumergroup=trace-service},1651163347,84277
{consumergroup=trace-service},1651163352,32565
{consumergroup=trace-service},1651163357,32565
{consumergroup=trace-service},1651163362,32565
{consumergroup=trace-service},1651163367,86486
{consumergroup=trace-service},1651163372,86486
{consumergroup=trace-service},1651163377,86486
{consumergroup=trace-service},1651163382,35708
{consumergroup=trace-service},1651163387,35708
{consumergroup=trace-service},1651163392,35708
{consumergroup=trace-service},1651163397,102229
{consumergroup=trace-service},1651163402,102229
{consumergroup=trace-service},1651163407,102229
{consumergroup=trace-service},1651163412,30325
{consumergroup=trace-service},1651163417,30325
{consumergroup=trace-service},1651163422,30325
{consumergroup=trace-service},1651163427,67407
{consumergroup=trace-service},1651163432,67407
{consumergroup=trace-service},1651163437,67407
{consumergroup=trace-service},1651163442,33410
{consumergroup=trace-service},1651163447,33410
{consumergroup=trace-service},1651163452,33410
{consumergroup=trace-service},1651163457,85185
{consumergroup=trace-service},1651163462,85185
{consumergroup=trace-service},1651163467,85185
{consumergroup=trace-service},1651163472,35020
{consumergroup=trace-service},1651163477,35020
{consumergroup=trace-service},1651163482,35020
{consumergroup=trace-service},1651163487,60963
{consumergroup=trace-service},1651163492,60963
{consumergroup=trace-service},1651163497,60963
{consumergroup=trace-service},1651163502,108626
{consumergroup=trace-service},1651163507,108626
{consumergroup=trace-service},1651163512,108626
{consumergroup=trace-service},1651163517,79803
{consumergroup=trace-service},1651163522,79803
{consumergroup=trace-service},1651163527,79803
{consumergroup=trace-service},1651163532,114383
{consumergroup=trace-service},1651163537,114383
{consumergroup=trace-service},1651163542,114383
{consumergroup=trace-service},1651163547,82304
{consumergroup=trace-service},1651163552,82304
{consumergroup=trace-service},1651163557,82304
{consumergroup=trace-service},1651163562,32033
{consumergroup=trace-service},1651163567,32033
{consumergroup=trace-service},1651163572,32033
{consumergroup=trace-token-events-consumer},1651163112,0
{consumergroup=trace-token-events-consumer},1651163117,0
{consumergroup=trace-token-events-consumer},1651163122,0
{consumergroup=trace-token-events-consumer},1651163127,0
{consumergroup=trace-token-events-consumer},1651163132,0
{consumergroup=trace-token-events-consumer},1651163137,0
{consumergroup=trace-token-events-consumer},1651163142,0
{consumergroup=trace-token-events-consumer},1651163147,0
{consumergroup=trace-token-events-consumer},1651163152,0
{consumergroup=trace-token-events-consumer},1651163157,0
{consumergroup=trace-token-events-consumer},1651163162,0
{consumergroup=trace-token-events-consumer},1651163167,0
{consumergroup=trace-token-events-consumer},1651163172,0
{consumergroup=trace-token-events-consumer},1651163177,0
{consumergroup=trace-token-events-consumer},1651163182,0
{consumergroup=trace-token-events-consumer},1651163187,0
{consumergroup=trace-token-events-consumer},1651163192,0
{consumergroup=trace-token-events-consumer},1651163197,0
{consumergroup=trace-token-events-consumer},1651163202,0
{consumergroup=trace-token-events-consumer},1651163207,0
{consumergroup=trace-token-events-consumer},1651163212,0
{consumergroup=trace-token-events-consumer},1651163217,0
{consumergroup=trace-token-events-consumer},1651163222,0
{consumergroup=trace-token-events-consumer},1651163227,0
{consumergroup=trace-token-events-consumer},1651163232,0
{consumergroup=trace-token-events-consumer},1651163237,0
{consumergroup=trace-token-events-consumer},1651163242,0
{consumergroup=trace-token-events-consumer},1651163247,0
{consumergroup=trace-token-events-consumer},1651163252,0
{consumergroup=trace-token-events-consumer},1651163257,0
{consumergroup=trace-token-events-consumer},1651163262,0
{consumergroup=trace-token-events-consumer},1651163267,0
{consumergroup=trace-token-events-consumer},1651163272,0
{consumergroup=trace-token-events-consumer},1651163277,0
{consumergroup=trace-token-events-consumer},1651163282,0
{consumergroup=trace-token-events-consumer},1651163287,0
{consumergroup=trace-token-events-consumer},1651163292,0
{consumergroup=trace-token-events-consumer},1651163297,0
{consumergroup=trace-token-events-consumer},1651163302,0
{consumergroup=trace-token-events-consumer},1651163307,0
{consumergroup=trace-token-events-consumer},1651163312,0
{consumergroup=trace-token-events-consumer},1651163317,0
{consumergroup=trace-token-events-consumer},1651163322,0
{consumergroup=trace-token-events-consumer},1651163327,0
{consumergroup=trace-token-events-consumer},1651163332,0
{consumergroup=trace-token-events-consumer},1651163337,0
{consumergroup=trace-token-events-consumer},1651163342,0
{consumergroup=trace-token-events-consumer},1651163347,0
{consumergroup=trace-token-events-consumer},1651163352,0
{consumergroup=trace-token-events-consumer},1651163357,0
{consumergroup=trace-token-events-consumer},1651163362,0
{consumergroup=trace-token-events-consumer},1651163367,0
{consumergroup=trace-token-events-consumer},1651163372,0
{consumergroup=trace-token-events-consumer},1651163377,0
{consumergroup=trace-token-events-consumer},1651163382,0
{consumergroup=trace-token-events-consumer},1651163387,0
{consumergroup=trace-token-events-consumer},1651163392,0
{consumergroup=trace-token-events-consumer},1651163397,0
{consumergroup=trace-token-events-consumer},1651163402,0
{consumergroup=trace-token-events-consumer},1651163407,0
{consumergroup=trace-token-events-consumer},1651163412,0
{consumergroup=trace-token-events-consumer},1651163417,0
{consumergroup=trace-token-events-consumer},1651163422,0
{consumergroup=trace-token-events-consumer},1651163427,0
{consumergroup=trace-token-events-consumer},1651163432,0
{consumergroup=trace-token-events-consumer},1651163437,0
{consumergroup=trace-token-events-consumer},1651163442,0
{consumergroup=trace-token-events-consumer},1651163447,0
{consumergroup=trace-token-events-consumer},1651163452,0
{consumergroup=trace-token-events-consumer},1651163457,0
{consumergroup=trace-token-events-consumer},1651163462,0
{consumergroup=trace-token-events-consumer},1651163467,0
{consumergroup=trace-token-events-consumer},1651163472,0
{consumergroup=trace-token-events-consumer},1651163477,0
{consumergroup=trace-token-events-consumer},1651163482,0
{consumergroup=trace-token-events-consumer},1651163487,0
{consumergroup=trace-token-events-consumer},1651163492,0
{consumergroup=trace-token-events-consumer},1651163497,0
{consumergroup=trace-token-events-consumer},1651163502,0
{consumergroup=trace-token-events-consumer},1651163507,0
{consumergroup=trace-token-events-consumer},1651163512,0
{consumergroup=trace-token-events-consumer},1651163517,0
{consumergroup=trace-token-events-consumer},1651163522,0
{consumergroup=trace-token-events-consumer},1651163527,0
{consumergroup=trace-token-events-consumer},1651163532,0
{consumergroup=trace-token-events-consumer},1651163537,0
{consumergroup=trace-token-events-consumer},1651163542,0
{consumergroup=trace-token-events-consumer},1651163547,0
{consumergroup=trace-token-events-consumer},1651163552,0
{consumergroup=trace-token-events-consumer},1651163557,0
{consumergroup=trace-token-events-consumer},1651163562,0
{consumergroup=trace-token-events-consumer},1651163567,0
{consumergroup=trace-token-events-consumer},1651163572,0
