labels,timestamp,value
{consumergroup=__strimzi-topic-operator-kstreams},1651150013,0
{consumergroup=__strimzi-topic-operator-kstreams},1651150018,0
{consumergroup=__strimzi-topic-operator-kstreams},1651150023,0
{consumergroup=__strimzi-topic-operator-kstreams},1651150028,0
{consumergroup=__strimzi-topic-operator-kstreams},1651150033,2
{consumergroup=__strimzi-topic-operator-kstreams},1651150038,2
{consumergroup=__strimzi-topic-operator-kstreams},1651150043,2
{consumergroup=__strimzi-topic-operator-kstreams},1651150048,2
{consumergroup=__strimzi-topic-operator-kstreams},1651150053,2
{consumergroup=__strimzi-topic-operator-kstreams},1651150058,2
{consumergroup=__strimzi-topic-operator-kstreams},1651150063,0
{consumergroup=__strimzi-topic-operator-kstreams},1651150068,0
{consumergroup=__strimzi-topic-operator-kstreams},1651150073,0
{consumergroup=__strimzi-topic-operator-kstreams},1651150078,1
{consumergroup=__strimzi-topic-operator-kstreams},1651150083,1
{consumergroup=__strimzi-topic-operator-kstreams},1651150088,1
{consumergroup=__strimzi-topic-operator-kstreams},1651150093,0
{consumergroup=__strimzi-topic-operator-kstreams},1651150098,0
{consumergroup=__strimzi-topic-operator-kstreams},1651150103,0
{consumergroup=__strimzi-topic-operator-kstreams},1651150108,0
{consumergroup=__strimzi-topic-operator-kstreams},1651150113,0
{consumergroup=__strimzi-topic-operator-kstreams},1651150118,0
{consumergroup=__strimzi-topic-operator-kstreams},1651150123,0
{consumergroup=__strimzi-topic-operator-kstreams},1651150128,0
{consumergroup=__strimzi-topic-operator-kstreams},1651150133,0
{consumergroup=__strimzi-topic-operator-kstreams},1651150138,0
{consumergroup=__strimzi-topic-operator-kstreams},1651150143,0
{consumergroup=__strimzi-topic-operator-kstreams},1651150148,0
{consumergroup=__strimzi-topic-operator-kstreams},1651150153,0
{consumergroup=__strimzi-topic-operator-kstreams},1651150158,0
{consumergroup=__strimzi-topic-operator-kstreams},1651150163,0
{consumergroup=__strimzi-topic-operator-kstreams},1651150168,0
{consumergroup=__strimzi-topic-operator-kstreams},1651150173,0
{consumergroup=__strimzi-topic-operator-kstreams},1651150178,0
{consumergroup=__strimzi-topic-operator-kstreams},1651150183,0
{consumergroup=__strimzi-topic-operator-kstreams},1651150188,0
{consumergroup=__strimzi-topic-operator-kstreams},1651150193,0
{consumergroup=__strimzi-topic-operator-kstreams},1651150198,0
{consumergroup=__strimzi-topic-operator-kstreams},1651150203,0
{consumergroup=__strimzi-topic-operator-kstreams},1651150208,0
{consumergroup=__strimzi-topic-operator-kstreams},1651150213,0
{consumergroup=__strimzi-topic-operator-kstreams},1651150218,0
{consumergroup=__strimzi-topic-operator-kstreams},1651150223,0
{consumergroup=__strimzi-topic-operator-kstreams},1651150228,0
{consumergroup=__strimzi-topic-operator-kstreams},1651150233,0
{consumergroup=__strimzi-topic-operator-kstreams},1651150238,0
{consumergroup=__strimzi-topic-operator-kstreams},1651150243,0
{consumergroup=__strimzi-topic-operator-kstreams},1651150248,0
{consumergroup=__strimzi-topic-operator-kstreams},1651150253,0
{consumergroup=__strimzi-topic-operator-kstreams},1651150258,0
{consumergroup=__strimzi-topic-operator-kstreams},1651150263,0
{consumergroup=__strimzi-topic-operator-kstreams},1651150268,0
{consumergroup=__strimzi-topic-operator-kstreams},1651150273,0
{consumergroup=__strimzi-topic-operator-kstreams},1651150278,0
{consumergroup=__strimzi-topic-operator-kstreams},1651150283,0
{consumergroup=__strimzi-topic-operator-kstreams},1651150288,0
{consumergroup=__strimzi-topic-operator-kstreams},1651150293,0
{consumergroup=__strimzi-topic-operator-kstreams},1651150298,0
{consumergroup=__strimzi-topic-operator-kstreams},1651150303,0
{consumergroup=__strimzi-topic-operator-kstreams},1651150308,0
{consumergroup=__strimzi-topic-operator-kstreams},1651150313,0
{consumergroup=__strimzi-topic-operator-kstreams},1651150318,0
{consumergroup=__strimzi-topic-operator-kstreams},1651150323,0
{consumergroup=__strimzi-topic-operator-kstreams},1651150328,0
{consumergroup=__strimzi-topic-operator-kstreams},1651150333,0
{consumergroup=__strimzi-topic-operator-kstreams},1651150338,0
{consumergroup=__strimzi-topic-operator-kstreams},1651150343,0
{consumergroup=__strimzi-topic-operator-kstreams},1651150348,0
{consumergroup=__strimzi-topic-operator-kstreams},1651150353,0
{consumergroup=__strimzi-topic-operator-kstreams},1651150358,0
{consumergroup=__strimzi-topic-operator-kstreams},1651150363,0
{consumergroup=__strimzi-topic-operator-kstreams},1651150368,0
{consumergroup=__strimzi-topic-operator-kstreams},1651150373,0
{consumergroup=__strimzi-topic-operator-kstreams},1651150378,0
{consumergroup=__strimzi-topic-operator-kstreams},1651150383,0
{consumergroup=__strimzi-topic-operator-kstreams},1651150388,0
{consumergroup=__strimzi-topic-operator-kstreams},1651150393,0
{consumergroup=__strimzi-topic-operator-kstreams},1651150398,0
{consumergroup=__strimzi-topic-operator-kstreams},1651150403,0
{consumergroup=__strimzi-topic-operator-kstreams},1651150408,0
{consumergroup=__strimzi-topic-operator-kstreams},1651150413,0
{consumergroup=__strimzi-topic-operator-kstreams},1651150418,0
{consumergroup=__strimzi-topic-operator-kstreams},1651150423,0
{consumergroup=__strimzi-topic-operator-kstreams},1651150428,0
{consumergroup=__strimzi-topic-operator-kstreams},1651150433,0
{consumergroup=__strimzi-topic-operator-kstreams},1651150438,0
{consumergroup=__strimzi-topic-operator-kstreams},1651150443,0
{consumergroup=__strimzi-topic-operator-kstreams},1651150448,0
{consumergroup=__strimzi-topic-operator-kstreams},1651150453,0
{consumergroup=__strimzi-topic-operator-kstreams},1651150458,0
{consumergroup=__strimzi-topic-operator-kstreams},1651150463,0
{consumergroup=__strimzi-topic-operator-kstreams},1651150468,0
{consumergroup=__strimzi-topic-operator-kstreams},1651150473,0
{consumergroup=__strimzi-topic-operator-kstreams},1651150478,0
{consumergroup=__strimzi-topic-operator-kstreams},1651150483,0
{consumergroup=__strimzi-topic-operator-kstreams},1651150488,0
{consumergroup=__strimzi-topic-operator-kstreams},1651150493,0
{consumergroup=__strimzi-topic-operator-kstreams},1651150498,0
{consumergroup=__strimzi-topic-operator-kstreams},1651150503,0
{consumergroup=__strimzi-topic-operator-kstreams},1651150508,0
{consumergroup=__strimzi-topic-operator-kstreams},1651150513,0
{consumergroup=__strimzi-topic-operator-kstreams},1651150518,0
{consumergroup=trace-service},1651150063,24428
{consumergroup=trace-service},1651150068,24428
{consumergroup=trace-service},1651150073,24428
{consumergroup=trace-service},1651150078,9080
{consumergroup=trace-service},1651150083,9080
{consumergroup=trace-service},1651150088,9080
{consumergroup=trace-service},1651150093,35149
{consumergroup=trace-service},1651150098,35149
{consumergroup=trace-service},1651150103,35149
{consumergroup=trace-service},1651150108,49231
{consumergroup=trace-service},1651150113,49231
{consumergroup=trace-service},1651150118,49231
{consumergroup=trace-service},1651150123,66461
{consumergroup=trace-service},1651150128,66461
{consumergroup=trace-service},1651150133,66461
{consumergroup=trace-service},1651150138,84922
{consumergroup=trace-service},1651150143,84922
{consumergroup=trace-service},1651150148,84922
{consumergroup=trace-service},1651150153,38439
{consumergroup=trace-service},1651150158,38439
{consumergroup=trace-service},1651150163,38439
{consumergroup=trace-service},1651150168,92698
{consumergroup=trace-service},1651150173,92698
{consumergroup=trace-service},1651150178,92698
{consumergroup=trace-service},1651150183,44617
{consumergroup=trace-service},1651150188,44617
{consumergroup=trace-service},1651150193,44617
{consumergroup=trace-service},1651150198,66891
{consumergroup=trace-service},1651150203,66891
{consumergroup=trace-service},1651150208,66891
{consumergroup=trace-service},1651150213,49315
{consumergroup=trace-service},1651150218,49315
{consumergroup=trace-service},1651150223,49315
{consumergroup=trace-service},1651150228,82054
{consumergroup=trace-service},1651150233,82054
{consumergroup=trace-service},1651150238,82054
{consumergroup=trace-service},1651150243,45630
{consumergroup=trace-service},1651150248,45630
{consumergroup=trace-service},1651150253,45630
{consumergroup=trace-service},1651150258,71006
{consumergroup=trace-service},1651150263,71006
{consumergroup=trace-service},1651150268,71006
{consumergroup=trace-service},1651150273,45380
{consumergroup=trace-service},1651150278,45380
{consumergroup=trace-service},1651150283,45380
{consumergroup=trace-service},1651150288,82706
{consumergroup=trace-service},1651150293,82706
{consumergroup=trace-service},1651150298,82706
{consumergroup=trace-service},1651150303,70786
{consumergroup=trace-service},1651150308,70786
{consumergroup=trace-service},1651150313,70786
{consumergroup=trace-service},1651150318,72203
{consumergroup=trace-service},1651150323,72203
{consumergroup=trace-service},1651150328,72203
{consumergroup=trace-service},1651150333,30951
{consumergroup=trace-service},1651150338,30951
{consumergroup=trace-service},1651150343,30951
{consumergroup=trace-service},1651150348,75608
{consumergroup=trace-service},1651150353,75608
{consumergroup=trace-service},1651150358,75608
{consumergroup=trace-service},1651150363,43782
{consumergroup=trace-service},1651150368,43782
{consumergroup=trace-service},1651150373,43782
{consumergroup=trace-service},1651150378,81221
{consumergroup=trace-service},1651150383,81221
{consumergroup=trace-service},1651150388,81221
{consumergroup=trace-service},1651150393,31172
{consumergroup=trace-service},1651150398,31172
{consumergroup=trace-service},1651150403,31172
{consumergroup=trace-service},1651150408,62056
{consumergroup=trace-service},1651150413,62056
{consumergroup=trace-service},1651150418,62056
{consumergroup=trace-service},1651150423,58050
{consumergroup=trace-service},1651150428,58050
{consumergroup=trace-service},1651150433,58050
{consumergroup=trace-service},1651150438,61001
{consumergroup=trace-service},1651150443,61001
{consumergroup=trace-service},1651150448,61001
{consumergroup=trace-service},1651150453,91360
{consumergroup=trace-service},1651150458,91360
{consumergroup=trace-service},1651150463,91360
{consumergroup=trace-service},1651150468,19150
{consumergroup=trace-service},1651150473,19150
{consumergroup=trace-service},1651150478,19150
{consumergroup=trace-service},1651150483,32501
{consumergroup=trace-service},1651150488,32501
{consumergroup=trace-service},1651150493,32501
{consumergroup=trace-service},1651150498,99133
{consumergroup=trace-service},1651150503,99133
{consumergroup=trace-service},1651150508,99133
{consumergroup=trace-service},1651150513,32128
{consumergroup=trace-service},1651150518,32128
{consumergroup=trace-token-events-consumer},1651150048,0
{consumergroup=trace-token-events-consumer},1651150053,0
{consumergroup=trace-token-events-consumer},1651150058,0
{consumergroup=trace-token-events-consumer},1651150063,0
{consumergroup=trace-token-events-consumer},1651150068,0
{consumergroup=trace-token-events-consumer},1651150073,0
{consumergroup=trace-token-events-consumer},1651150078,0
{consumergroup=trace-token-events-consumer},1651150083,0
{consumergroup=trace-token-events-consumer},1651150088,0
{consumergroup=trace-token-events-consumer},1651150093,0
{consumergroup=trace-token-events-consumer},1651150098,0
{consumergroup=trace-token-events-consumer},1651150103,0
{consumergroup=trace-token-events-consumer},1651150108,0
{consumergroup=trace-token-events-consumer},1651150113,0
{consumergroup=trace-token-events-consumer},1651150118,0
{consumergroup=trace-token-events-consumer},1651150123,0
{consumergroup=trace-token-events-consumer},1651150128,0
{consumergroup=trace-token-events-consumer},1651150133,0
{consumergroup=trace-token-events-consumer},1651150138,0
{consumergroup=trace-token-events-consumer},1651150143,0
{consumergroup=trace-token-events-consumer},1651150148,0
{consumergroup=trace-token-events-consumer},1651150153,0
{consumergroup=trace-token-events-consumer},1651150158,0
{consumergroup=trace-token-events-consumer},1651150163,0
{consumergroup=trace-token-events-consumer},1651150168,0
{consumergroup=trace-token-events-consumer},1651150173,0
{consumergroup=trace-token-events-consumer},1651150178,0
{consumergroup=trace-token-events-consumer},1651150183,0
{consumergroup=trace-token-events-consumer},1651150188,0
{consumergroup=trace-token-events-consumer},1651150193,0
{consumergroup=trace-token-events-consumer},1651150198,0
{consumergroup=trace-token-events-consumer},1651150203,0
{consumergroup=trace-token-events-consumer},1651150208,0
{consumergroup=trace-token-events-consumer},1651150213,0
{consumergroup=trace-token-events-consumer},1651150218,0
{consumergroup=trace-token-events-consumer},1651150223,0
{consumergroup=trace-token-events-consumer},1651150228,0
{consumergroup=trace-token-events-consumer},1651150233,0
{consumergroup=trace-token-events-consumer},1651150238,0
{consumergroup=trace-token-events-consumer},1651150243,0
{consumergroup=trace-token-events-consumer},1651150248,0
{consumergroup=trace-token-events-consumer},1651150253,0
{consumergroup=trace-token-events-consumer},1651150258,0
{consumergroup=trace-token-events-consumer},1651150263,0
{consumergroup=trace-token-events-consumer},1651150268,0
{consumergroup=trace-token-events-consumer},1651150273,0
{consumergroup=trace-token-events-consumer},1651150278,0
{consumergroup=trace-token-events-consumer},1651150283,0
{consumergroup=trace-token-events-consumer},1651150288,0
{consumergroup=trace-token-events-consumer},1651150293,0
{consumergroup=trace-token-events-consumer},1651150298,0
{consumergroup=trace-token-events-consumer},1651150303,0
{consumergroup=trace-token-events-consumer},1651150308,0
{consumergroup=trace-token-events-consumer},1651150313,0
{consumergroup=trace-token-events-consumer},1651150318,0
{consumergroup=trace-token-events-consumer},1651150323,0
{consumergroup=trace-token-events-consumer},1651150328,0
{consumergroup=trace-token-events-consumer},1651150333,0
{consumergroup=trace-token-events-consumer},1651150338,0
{consumergroup=trace-token-events-consumer},1651150343,0
{consumergroup=trace-token-events-consumer},1651150348,0
{consumergroup=trace-token-events-consumer},1651150353,0
{consumergroup=trace-token-events-consumer},1651150358,0
{consumergroup=trace-token-events-consumer},1651150363,0
{consumergroup=trace-token-events-consumer},1651150368,0
{consumergroup=trace-token-events-consumer},1651150373,0
{consumergroup=trace-token-events-consumer},1651150378,0
{consumergroup=trace-token-events-consumer},1651150383,0
{consumergroup=trace-token-events-consumer},1651150388,0
{consumergroup=trace-token-events-consumer},1651150393,0
{consumergroup=trace-token-events-consumer},1651150398,0
{consumergroup=trace-token-events-consumer},1651150403,0
{consumergroup=trace-token-events-consumer},1651150408,0
{consumergroup=trace-token-events-consumer},1651150413,0
{consumergroup=trace-token-events-consumer},1651150418,0
{consumergroup=trace-token-events-consumer},1651150423,0
{consumergroup=trace-token-events-consumer},1651150428,0
{consumergroup=trace-token-events-consumer},1651150433,0
{consumergroup=trace-token-events-consumer},1651150438,0
{consumergroup=trace-token-events-consumer},1651150443,0
{consumergroup=trace-token-events-consumer},1651150448,0
{consumergroup=trace-token-events-consumer},1651150453,0
{consumergroup=trace-token-events-consumer},1651150458,0
{consumergroup=trace-token-events-consumer},1651150463,0
{consumergroup=trace-token-events-consumer},1651150468,0
{consumergroup=trace-token-events-consumer},1651150473,0
{consumergroup=trace-token-events-consumer},1651150478,0
{consumergroup=trace-token-events-consumer},1651150483,0
{consumergroup=trace-token-events-consumer},1651150488,0
{consumergroup=trace-token-events-consumer},1651150493,0
{consumergroup=trace-token-events-consumer},1651150498,0
{consumergroup=trace-token-events-consumer},1651150503,0
{consumergroup=trace-token-events-consumer},1651150508,0
{consumergroup=trace-token-events-consumer},1651150513,0
{consumergroup=trace-token-events-consumer},1651150518,0
