labels,timestamp,value
{job=theodolite-stu200776/trace-isolated-podmonitor},1651180199,0
{job=theodolite-stu200776/trace-isolated-podmonitor},1651180204,0
{job=theodolite-stu200776/trace-isolated-podmonitor},1651180209,0
{job=theodolite-stu200776/trace-isolated-podmonitor},1651180214,0
{job=theodolite-stu200776/trace-isolated-podmonitor},1651180219,0
{job=theodolite-stu200776/trace-isolated-podmonitor},1651180224,0
{job=theodolite-stu200776/trace-isolated-podmonitor},1651180229,0
{job=theodolite-stu200776/trace-isolated-podmonitor},1651180234,0
{job=theodolite-stu200776/trace-isolated-podmonitor},1651180239,0
{job=theodolite-stu200776/trace-isolated-podmonitor},1651180244,0
{job=theodolite-stu200776/trace-isolated-podmonitor},1651180249,0
{job=theodolite-stu200776/trace-isolated-podmonitor},1651180254,0
{job=theodolite-stu200776/trace-isolated-podmonitor},1651180259,0
{job=theodolite-stu200776/trace-isolated-podmonitor},1651180264,0
{job=theodolite-stu200776/trace-isolated-podmonitor},1651180269,0
{job=theodolite-stu200776/trace-isolated-podmonitor},1651180274,0
{job=theodolite-stu200776/trace-isolated-podmonitor},1651180279,0
{job=theodolite-stu200776/trace-isolated-podmonitor},1651180284,0
{job=theodolite-stu200776/trace-isolated-podmonitor},1651180289,0
{job=theodolite-stu200776/trace-isolated-podmonitor},1651180294,0
{job=theodolite-stu200776/trace-isolated-podmonitor},1651180299,0
{job=theodolite-stu200776/trace-isolated-podmonitor},1651180304,0
{job=theodolite-stu200776/trace-isolated-podmonitor},1651180309,0
{job=theodolite-stu200776/trace-isolated-podmonitor},1651180314,0
{job=theodolite-stu200776/trace-isolated-podmonitor},1651180319,0
{job=theodolite-stu200776/trace-isolated-podmonitor},1651180324,0
{job=theodolite-stu200776/trace-isolated-podmonitor},1651180329,0
{job=theodolite-stu200776/trace-isolated-podmonitor},1651180334,0
{job=theodolite-stu200776/trace-isolated-podmonitor},1651180339,0
{job=theodolite-stu200776/trace-isolated-podmonitor},1651180344,0
{job=theodolite-stu200776/trace-isolated-podmonitor},1651180349,0
{job=theodolite-stu200776/trace-isolated-podmonitor},1651180354,0
{job=theodolite-stu200776/trace-isolated-podmonitor},1651180359,0
{job=theodolite-stu200776/trace-isolated-podmonitor},1651180364,0
{job=theodolite-stu200776/trace-isolated-podmonitor},1651180369,0
{job=theodolite-stu200776/trace-isolated-podmonitor},1651180374,0
{job=theodolite-stu200776/trace-isolated-podmonitor},1651180379,0
{job=theodolite-stu200776/trace-isolated-podmonitor},1651180384,0
{job=theodolite-stu200776/trace-isolated-podmonitor},1651180389,0
{job=theodolite-stu200776/trace-isolated-podmonitor},1651180394,0
{job=theodolite-stu200776/trace-isolated-podmonitor},1651180399,0
{job=theodolite-stu200776/trace-isolated-podmonitor},1651180404,0
{job=theodolite-stu200776/trace-isolated-podmonitor},1651180409,0
{job=theodolite-stu200776/trace-isolated-podmonitor},1651180414,0
{job=theodolite-stu200776/trace-isolated-podmonitor},1651180419,0
{job=theodolite-stu200776/trace-isolated-podmonitor},1651180424,0
{job=theodolite-stu200776/trace-isolated-podmonitor},1651180429,0
{job=theodolite-stu200776/trace-isolated-podmonitor},1651180434,0
{job=theodolite-stu200776/trace-isolated-podmonitor},1651180439,0
{job=theodolite-stu200776/trace-isolated-podmonitor},1651180444,0
{job=theodolite-stu200776/trace-isolated-podmonitor},1651180449,0
{job=theodolite-stu200776/trace-isolated-podmonitor},1651180454,0
{job=theodolite-stu200776/trace-isolated-podmonitor},1651180459,0
{job=theodolite-stu200776/trace-isolated-podmonitor},1651180464,0
{job=theodolite-stu200776/trace-isolated-podmonitor},1651180469,0
{job=theodolite-stu200776/trace-isolated-podmonitor},1651180474,0
{job=theodolite-stu200776/trace-isolated-podmonitor},1651180479,0
{job=theodolite-stu200776/trace-isolated-podmonitor},1651180484,0
{job=theodolite-stu200776/trace-isolated-podmonitor},1651180489,0
{job=theodolite-stu200776/trace-isolated-podmonitor},1651180494,0
{job=theodolite-stu200776/trace-isolated-podmonitor},1651180499,0
{job=theodolite-stu200776/trace-isolated-podmonitor},1651180504,0
{job=theodolite-stu200776/trace-isolated-podmonitor},1651180509,0
{job=theodolite-stu200776/trace-isolated-podmonitor},1651180514,0
{job=theodolite-stu200776/trace-isolated-podmonitor},1651180519,0
{job=theodolite-stu200776/trace-isolated-podmonitor},1651180524,0
{job=theodolite-stu200776/trace-isolated-podmonitor},1651180529,0
{job=theodolite-stu200776/trace-isolated-podmonitor},1651180534,0
{job=theodolite-stu200776/trace-isolated-podmonitor},1651180539,0
{job=theodolite-stu200776/trace-isolated-podmonitor},1651180544,0
{job=theodolite-stu200776/trace-isolated-podmonitor},1651180549,0
{job=theodolite-stu200776/trace-isolated-podmonitor},1651180554,0
{job=theodolite-stu200776/trace-isolated-podmonitor},1651180559,0
{job=theodolite-stu200776/trace-isolated-podmonitor},1651180564,0
{job=theodolite-stu200776/trace-isolated-podmonitor},1651180569,0
{job=theodolite-stu200776/trace-isolated-podmonitor},1651180574,0
{job=theodolite-stu200776/trace-isolated-podmonitor},1651180579,0
{job=theodolite-stu200776/trace-isolated-podmonitor},1651180584,0
{job=theodolite-stu200776/trace-isolated-podmonitor},1651180589,0
{job=theodolite-stu200776/trace-isolated-podmonitor},1651180594,0
{job=theodolite-stu200776/trace-isolated-podmonitor},1651180599,0
{job=theodolite-stu200776/trace-isolated-podmonitor},1651180604,0
{job=theodolite-stu200776/trace-isolated-podmonitor},1651180609,0
{job=theodolite-stu200776/trace-isolated-podmonitor},1651180614,0
{job=theodolite-stu200776/trace-isolated-podmonitor},1651180619,0
{job=theodolite-stu200776/trace-isolated-podmonitor},1651180624,0
{job=theodolite-stu200776/trace-isolated-podmonitor},1651180629,0
