labels,timestamp,value
{consumergroup=__strimzi-topic-operator-kstreams},1651107067,8
{consumergroup=__strimzi-topic-operator-kstreams},1651107072,8
{consumergroup=__strimzi-topic-operator-kstreams},1651107077,8
{consumergroup=__strimzi-topic-operator-kstreams},1651107082,0
{consumergroup=__strimzi-topic-operator-kstreams},1651107087,0
{consumergroup=__strimzi-topic-operator-kstreams},1651107092,0
{consumergroup=__strimzi-topic-operator-kstreams},1651107097,0
{consumergroup=__strimzi-topic-operator-kstreams},1651107102,0
{consumergroup=__strimzi-topic-operator-kstreams},1651107107,0
{consumergroup=__strimzi-topic-operator-kstreams},1651107112,0
{consumergroup=__strimzi-topic-operator-kstreams},1651107117,0
{consumergroup=__strimzi-topic-operator-kstreams},1651107122,0
{consumergroup=__strimzi-topic-operator-kstreams},1651107127,0
{consumergroup=__strimzi-topic-operator-kstreams},1651107132,0
{consumergroup=__strimzi-topic-operator-kstreams},1651107137,0
{consumergroup=__strimzi-topic-operator-kstreams},1651107142,0
{consumergroup=__strimzi-topic-operator-kstreams},1651107147,0
{consumergroup=__strimzi-topic-operator-kstreams},1651107152,0
{consumergroup=__strimzi-topic-operator-kstreams},1651107157,0
{consumergroup=__strimzi-topic-operator-kstreams},1651107162,0
{consumergroup=__strimzi-topic-operator-kstreams},1651107167,0
{consumergroup=__strimzi-topic-operator-kstreams},1651107172,0
{consumergroup=__strimzi-topic-operator-kstreams},1651107177,0
{consumergroup=__strimzi-topic-operator-kstreams},1651107182,0
{consumergroup=__strimzi-topic-operator-kstreams},1651107187,0
{consumergroup=__strimzi-topic-operator-kstreams},1651107192,0
{consumergroup=__strimzi-topic-operator-kstreams},1651107197,0
{consumergroup=__strimzi-topic-operator-kstreams},1651107202,0
{consumergroup=__strimzi-topic-operator-kstreams},1651107207,0
{consumergroup=__strimzi-topic-operator-kstreams},1651107212,0
{consumergroup=__strimzi-topic-operator-kstreams},1651107217,0
{consumergroup=__strimzi-topic-operator-kstreams},1651107222,0
{consumergroup=__strimzi-topic-operator-kstreams},1651107227,0
{consumergroup=__strimzi-topic-operator-kstreams},1651107232,0
{consumergroup=__strimzi-topic-operator-kstreams},1651107237,0
{consumergroup=__strimzi-topic-operator-kstreams},1651107242,0
{consumergroup=__strimzi-topic-operator-kstreams},1651107247,0
{consumergroup=__strimzi-topic-operator-kstreams},1651107252,0
{consumergroup=__strimzi-topic-operator-kstreams},1651107257,0
{consumergroup=__strimzi-topic-operator-kstreams},1651107262,0
{consumergroup=__strimzi-topic-operator-kstreams},1651107267,0
{consumergroup=__strimzi-topic-operator-kstreams},1651107272,0
{consumergroup=__strimzi-topic-operator-kstreams},1651107277,0
{consumergroup=__strimzi-topic-operator-kstreams},1651107282,0
{consumergroup=__strimzi-topic-operator-kstreams},1651107287,0
{consumergroup=__strimzi-topic-operator-kstreams},1651107292,0
{consumergroup=__strimzi-topic-operator-kstreams},1651107297,0
{consumergroup=__strimzi-topic-operator-kstreams},1651107302,0
{consumergroup=__strimzi-topic-operator-kstreams},1651107307,0
{consumergroup=__strimzi-topic-operator-kstreams},1651107312,0
{consumergroup=__strimzi-topic-operator-kstreams},1651107317,0
{consumergroup=__strimzi-topic-operator-kstreams},1651107322,0
{consumergroup=__strimzi-topic-operator-kstreams},1651107327,0
{consumergroup=__strimzi-topic-operator-kstreams},1651107332,0
{consumergroup=__strimzi-topic-operator-kstreams},1651107337,0
{consumergroup=__strimzi-topic-operator-kstreams},1651107342,0
{consumergroup=__strimzi-topic-operator-kstreams},1651107347,0
{consumergroup=__strimzi-topic-operator-kstreams},1651107352,0
{consumergroup=__strimzi-topic-operator-kstreams},1651107357,0
{consumergroup=__strimzi-topic-operator-kstreams},1651107362,0
{consumergroup=__strimzi-topic-operator-kstreams},1651107367,0
{consumergroup=__strimzi-topic-operator-kstreams},1651107372,0
{consumergroup=__strimzi-topic-operator-kstreams},1651107377,0
{consumergroup=landscape-service},1651107112,1175922
{consumergroup=landscape-service},1651107117,1175922
{consumergroup=landscape-service},1651107122,1175922
{consumergroup=landscape-service},1651107127,2265009
{consumergroup=landscape-service},1651107132,2265009
{consumergroup=landscape-service},1651107137,2265009
{consumergroup=landscape-service},1651107142,3074004
{consumergroup=landscape-service},1651107147,3074004
{consumergroup=landscape-service},1651107152,3074004
{consumergroup=landscape-service},1651107157,3695736
{consumergroup=landscape-service},1651107162,3695736
{consumergroup=landscape-service},1651107167,3695736
{consumergroup=landscape-service},1651107172,3958999
{consumergroup=landscape-service},1651107177,3958999
{consumergroup=landscape-service},1651107182,3958999
{consumergroup=landscape-service},1651107187,4082465
{consumergroup=landscape-service},1651107192,4082465
{consumergroup=landscape-service},1651107197,4082465
{consumergroup=landscape-service},1651107202,4198718
{consumergroup=landscape-service},1651107207,4198718
{consumergroup=landscape-service},1651107212,4198718
{consumergroup=landscape-service},1651107217,4233270
{consumergroup=landscape-service},1651107222,4233270
{consumergroup=landscape-service},1651107227,4233270
{consumergroup=landscape-service},1651107232,4346570
{consumergroup=landscape-service},1651107237,4346570
{consumergroup=landscape-service},1651107242,4346570
{consumergroup=landscape-service},1651107247,4397303
{consumergroup=landscape-service},1651107252,4397303
{consumergroup=landscape-service},1651107257,4397303
{consumergroup=landscape-service},1651107262,4396222
{consumergroup=landscape-service},1651107267,4396222
{consumergroup=landscape-service},1651107272,4396222
{consumergroup=landscape-service},1651107277,4339947
{consumergroup=landscape-service},1651107282,4339947
{consumergroup=landscape-service},1651107287,4339947
{consumergroup=landscape-service},1651107292,4226993
{consumergroup=landscape-service},1651107297,4226993
{consumergroup=landscape-service},1651107302,4226993
{consumergroup=landscape-service},1651107307,4138207
{consumergroup=landscape-service},1651107312,4138207
{consumergroup=landscape-service},1651107317,4138207
{consumergroup=landscape-service},1651107322,4151488
{consumergroup=landscape-service},1651107327,4151488
{consumergroup=landscape-service},1651107332,4151488
{consumergroup=landscape-service},1651107337,4064098
{consumergroup=landscape-service},1651107342,4064098
{consumergroup=landscape-service},1651107347,4064098
{consumergroup=landscape-service},1651107352,3980805
{consumergroup=landscape-service},1651107357,3980805
{consumergroup=landscape-service},1651107362,3980805
{consumergroup=landscape-service},1651107367,3905876
{consumergroup=landscape-service},1651107372,3905876
{consumergroup=landscape-service},1651107377,3905876
{consumergroup=landscape-token-events-consumer},1651107112,0
{consumergroup=landscape-token-events-consumer},1651107117,0
{consumergroup=landscape-token-events-consumer},1651107122,0
{consumergroup=landscape-token-events-consumer},1651107127,0
{consumergroup=landscape-token-events-consumer},1651107132,0
{consumergroup=landscape-token-events-consumer},1651107137,0
{consumergroup=landscape-token-events-consumer},1651107142,0
{consumergroup=landscape-token-events-consumer},1651107147,0
{consumergroup=landscape-token-events-consumer},1651107152,0
{consumergroup=landscape-token-events-consumer},1651107157,0
{consumergroup=landscape-token-events-consumer},1651107162,0
{consumergroup=landscape-token-events-consumer},1651107167,0
{consumergroup=landscape-token-events-consumer},1651107172,0
{consumergroup=landscape-token-events-consumer},1651107177,0
{consumergroup=landscape-token-events-consumer},1651107182,0
{consumergroup=landscape-token-events-consumer},1651107187,0
{consumergroup=landscape-token-events-consumer},1651107192,0
{consumergroup=landscape-token-events-consumer},1651107197,0
{consumergroup=landscape-token-events-consumer},1651107202,0
{consumergroup=landscape-token-events-consumer},1651107207,0
{consumergroup=landscape-token-events-consumer},1651107212,0
{consumergroup=landscape-token-events-consumer},1651107217,0
{consumergroup=landscape-token-events-consumer},1651107222,0
{consumergroup=landscape-token-events-consumer},1651107227,0
{consumergroup=landscape-token-events-consumer},1651107232,0
{consumergroup=landscape-token-events-consumer},1651107237,0
{consumergroup=landscape-token-events-consumer},1651107242,0
{consumergroup=landscape-token-events-consumer},1651107247,0
{consumergroup=landscape-token-events-consumer},1651107252,0
{consumergroup=landscape-token-events-consumer},1651107257,0
{consumergroup=landscape-token-events-consumer},1651107262,0
{consumergroup=landscape-token-events-consumer},1651107267,0
{consumergroup=landscape-token-events-consumer},1651107272,0
{consumergroup=landscape-token-events-consumer},1651107277,0
{consumergroup=landscape-token-events-consumer},1651107282,0
{consumergroup=landscape-token-events-consumer},1651107287,0
{consumergroup=landscape-token-events-consumer},1651107292,0
{consumergroup=landscape-token-events-consumer},1651107297,0
{consumergroup=landscape-token-events-consumer},1651107302,0
{consumergroup=landscape-token-events-consumer},1651107307,0
{consumergroup=landscape-token-events-consumer},1651107312,0
{consumergroup=landscape-token-events-consumer},1651107317,0
{consumergroup=landscape-token-events-consumer},1651107322,0
{consumergroup=landscape-token-events-consumer},1651107327,0
{consumergroup=landscape-token-events-consumer},1651107332,0
{consumergroup=landscape-token-events-consumer},1651107337,0
{consumergroup=landscape-token-events-consumer},1651107342,0
{consumergroup=landscape-token-events-consumer},1651107347,0
{consumergroup=landscape-token-events-consumer},1651107352,0
{consumergroup=landscape-token-events-consumer},1651107357,0
{consumergroup=landscape-token-events-consumer},1651107362,0
{consumergroup=landscape-token-events-consumer},1651107367,0
{consumergroup=landscape-token-events-consumer},1651107372,0
{consumergroup=landscape-token-events-consumer},1651107377,0
