labels,timestamp,value
{consumergroup=__strimzi-topic-operator-kstreams},1651189187,0
{consumergroup=__strimzi-topic-operator-kstreams},1651189192,0
{consumergroup=__strimzi-topic-operator-kstreams},1651189197,0
{consumergroup=__strimzi-topic-operator-kstreams},1651189202,3
{consumergroup=__strimzi-topic-operator-kstreams},1651189207,3
{consumergroup=__strimzi-topic-operator-kstreams},1651189212,3
{consumergroup=__strimzi-topic-operator-kstreams},1651189217,3
{consumergroup=__strimzi-topic-operator-kstreams},1651189222,3
{consumergroup=__strimzi-topic-operator-kstreams},1651189227,3
{consumergroup=__strimzi-topic-operator-kstreams},1651189232,0
{consumergroup=__strimzi-topic-operator-kstreams},1651189237,0
{consumergroup=__strimzi-topic-operator-kstreams},1651189242,0
{consumergroup=__strimzi-topic-operator-kstreams},1651189247,0
{consumergroup=__strimzi-topic-operator-kstreams},1651189252,0
{consumergroup=__strimzi-topic-operator-kstreams},1651189257,0
{consumergroup=__strimzi-topic-operator-kstreams},1651189262,0
{consumergroup=__strimzi-topic-operator-kstreams},1651189267,0
{consumergroup=__strimzi-topic-operator-kstreams},1651189272,0
{consumergroup=__strimzi-topic-operator-kstreams},1651189277,0
{consumergroup=__strimzi-topic-operator-kstreams},1651189282,0
{consumergroup=__strimzi-topic-operator-kstreams},1651189287,0
{consumergroup=__strimzi-topic-operator-kstreams},1651189292,0
{consumergroup=__strimzi-topic-operator-kstreams},1651189297,0
{consumergroup=__strimzi-topic-operator-kstreams},1651189302,0
{consumergroup=__strimzi-topic-operator-kstreams},1651189307,0
{consumergroup=__strimzi-topic-operator-kstreams},1651189312,0
{consumergroup=__strimzi-topic-operator-kstreams},1651189317,0
{consumergroup=__strimzi-topic-operator-kstreams},1651189322,0
{consumergroup=__strimzi-topic-operator-kstreams},1651189327,0
{consumergroup=__strimzi-topic-operator-kstreams},1651189332,0
{consumergroup=__strimzi-topic-operator-kstreams},1651189337,0
{consumergroup=__strimzi-topic-operator-kstreams},1651189342,0
{consumergroup=__strimzi-topic-operator-kstreams},1651189347,0
{consumergroup=__strimzi-topic-operator-kstreams},1651189352,0
{consumergroup=__strimzi-topic-operator-kstreams},1651189357,0
{consumergroup=__strimzi-topic-operator-kstreams},1651189362,0
{consumergroup=__strimzi-topic-operator-kstreams},1651189367,0
{consumergroup=__strimzi-topic-operator-kstreams},1651189372,0
{consumergroup=__strimzi-topic-operator-kstreams},1651189377,0
{consumergroup=__strimzi-topic-operator-kstreams},1651189382,0
{consumergroup=__strimzi-topic-operator-kstreams},1651189387,0
{consumergroup=__strimzi-topic-operator-kstreams},1651189392,0
{consumergroup=__strimzi-topic-operator-kstreams},1651189397,0
{consumergroup=__strimzi-topic-operator-kstreams},1651189402,0
{consumergroup=__strimzi-topic-operator-kstreams},1651189407,0
{consumergroup=__strimzi-topic-operator-kstreams},1651189412,0
{consumergroup=__strimzi-topic-operator-kstreams},1651189417,0
{consumergroup=__strimzi-topic-operator-kstreams},1651189422,0
{consumergroup=__strimzi-topic-operator-kstreams},1651189427,0
{consumergroup=__strimzi-topic-operator-kstreams},1651189432,0
{consumergroup=__strimzi-topic-operator-kstreams},1651189437,0
{consumergroup=__strimzi-topic-operator-kstreams},1651189442,0
{consumergroup=__strimzi-topic-operator-kstreams},1651189447,0
{consumergroup=__strimzi-topic-operator-kstreams},1651189452,0
{consumergroup=__strimzi-topic-operator-kstreams},1651189457,0
{consumergroup=__strimzi-topic-operator-kstreams},1651189462,0
{consumergroup=__strimzi-topic-operator-kstreams},1651189467,0
{consumergroup=__strimzi-topic-operator-kstreams},1651189472,0
{consumergroup=__strimzi-topic-operator-kstreams},1651189477,0
{consumergroup=__strimzi-topic-operator-kstreams},1651189482,0
{consumergroup=__strimzi-topic-operator-kstreams},1651189487,0
{consumergroup=__strimzi-topic-operator-kstreams},1651189492,0
{consumergroup=__strimzi-topic-operator-kstreams},1651189497,0
{consumergroup=__strimzi-topic-operator-kstreams},1651189502,0
{consumergroup=__strimzi-topic-operator-kstreams},1651189507,0
{consumergroup=__strimzi-topic-operator-kstreams},1651189512,0
{consumergroup=__strimzi-topic-operator-kstreams},1651189517,0
{consumergroup=__strimzi-topic-operator-kstreams},1651189522,0
{consumergroup=__strimzi-topic-operator-kstreams},1651189527,0
{consumergroup=__strimzi-topic-operator-kstreams},1651189532,0
{consumergroup=__strimzi-topic-operator-kstreams},1651189537,0
{consumergroup=__strimzi-topic-operator-kstreams},1651189542,0
{consumergroup=__strimzi-topic-operator-kstreams},1651189547,0
{consumergroup=__strimzi-topic-operator-kstreams},1651189552,0
{consumergroup=__strimzi-topic-operator-kstreams},1651189557,0
{consumergroup=__strimzi-topic-operator-kstreams},1651189562,0
{consumergroup=__strimzi-topic-operator-kstreams},1651189567,0
{consumergroup=__strimzi-topic-operator-kstreams},1651189572,0
{consumergroup=__strimzi-topic-operator-kstreams},1651189577,0
{consumergroup=__strimzi-topic-operator-kstreams},1651189582,0
{consumergroup=__strimzi-topic-operator-kstreams},1651189587,0
{consumergroup=__strimzi-topic-operator-kstreams},1651189592,0
{consumergroup=__strimzi-topic-operator-kstreams},1651189597,0
{consumergroup=__strimzi-topic-operator-kstreams},1651189602,0
{consumergroup=__strimzi-topic-operator-kstreams},1651189607,0
{consumergroup=__strimzi-topic-operator-kstreams},1651189612,0
{consumergroup=__strimzi-topic-operator-kstreams},1651189617,0
{consumergroup=__strimzi-topic-operator-kstreams},1651189622,0
{consumergroup=__strimzi-topic-operator-kstreams},1651189627,0
{consumergroup=__strimzi-topic-operator-kstreams},1651189632,0
{consumergroup=__strimzi-topic-operator-kstreams},1651189637,0
{consumergroup=__strimzi-topic-operator-kstreams},1651189642,0
{consumergroup=__strimzi-topic-operator-kstreams},1651189647,0
{consumergroup=__strimzi-topic-operator-kstreams},1651189652,0
{consumergroup=__strimzi-topic-operator-kstreams},1651189657,0
{consumergroup=__strimzi-topic-operator-kstreams},1651189662,0
{consumergroup=__strimzi-topic-operator-kstreams},1651189667,0
{consumergroup=__strimzi-topic-operator-kstreams},1651189672,0
{consumergroup=__strimzi-topic-operator-kstreams},1651189677,0
{consumergroup=trace-service},1651189217,10258
{consumergroup=trace-service},1651189222,10258
{consumergroup=trace-service},1651189227,10258
{consumergroup=trace-service},1651189232,4402
{consumergroup=trace-service},1651189237,4402
{consumergroup=trace-service},1651189242,4402
{consumergroup=trace-service},1651189247,34549
{consumergroup=trace-service},1651189252,34549
{consumergroup=trace-service},1651189257,34549
{consumergroup=trace-service},1651189262,8308
{consumergroup=trace-service},1651189267,8308
{consumergroup=trace-service},1651189272,8308
{consumergroup=trace-service},1651189277,36378
{consumergroup=trace-service},1651189282,36378
{consumergroup=trace-service},1651189287,36378
{consumergroup=trace-service},1651189292,18097
{consumergroup=trace-service},1651189297,18097
{consumergroup=trace-service},1651189302,18097
{consumergroup=trace-service},1651189307,47554
{consumergroup=trace-service},1651189312,47554
{consumergroup=trace-service},1651189317,47554
{consumergroup=trace-service},1651189322,23299
{consumergroup=trace-service},1651189327,23299
{consumergroup=trace-service},1651189332,23299
{consumergroup=trace-service},1651189337,44375
{consumergroup=trace-service},1651189342,44375
{consumergroup=trace-service},1651189347,44375
{consumergroup=trace-service},1651189352,25354
{consumergroup=trace-service},1651189357,25354
{consumergroup=trace-service},1651189362,25354
{consumergroup=trace-service},1651189367,41943
{consumergroup=trace-service},1651189372,41943
{consumergroup=trace-service},1651189377,41943
{consumergroup=trace-service},1651189382,17504
{consumergroup=trace-service},1651189387,17504
{consumergroup=trace-service},1651189392,17504
{consumergroup=trace-service},1651189397,39553
{consumergroup=trace-service},1651189402,39553
{consumergroup=trace-service},1651189407,39553
{consumergroup=trace-service},1651189412,20999
{consumergroup=trace-service},1651189417,20999
{consumergroup=trace-service},1651189422,20999
{consumergroup=trace-service},1651189427,45705
{consumergroup=trace-service},1651189432,45705
{consumergroup=trace-service},1651189437,45705
{consumergroup=trace-service},1651189442,17507
{consumergroup=trace-service},1651189447,17507
{consumergroup=trace-service},1651189452,17507
{consumergroup=trace-service},1651189457,39524
{consumergroup=trace-service},1651189462,39524
{consumergroup=trace-service},1651189467,39524
{consumergroup=trace-service},1651189472,22606
{consumergroup=trace-service},1651189477,22606
{consumergroup=trace-service},1651189482,22606
{consumergroup=trace-service},1651189487,40699
{consumergroup=trace-service},1651189492,40699
{consumergroup=trace-service},1651189497,40699
{consumergroup=trace-service},1651189502,21147
{consumergroup=trace-service},1651189507,21147
{consumergroup=trace-service},1651189512,21147
{consumergroup=trace-service},1651189517,39687
{consumergroup=trace-service},1651189522,39687
{consumergroup=trace-service},1651189527,39687
{consumergroup=trace-service},1651189532,15033
{consumergroup=trace-service},1651189537,15033
{consumergroup=trace-service},1651189542,15033
{consumergroup=trace-service},1651189547,39900
{consumergroup=trace-service},1651189552,39900
{consumergroup=trace-service},1651189557,39900
{consumergroup=trace-service},1651189562,14130
{consumergroup=trace-service},1651189567,14130
{consumergroup=trace-service},1651189572,14130
{consumergroup=trace-service},1651189577,42711
{consumergroup=trace-service},1651189582,42711
{consumergroup=trace-service},1651189587,42711
{consumergroup=trace-service},1651189592,18046
{consumergroup=trace-service},1651189597,18046
{consumergroup=trace-service},1651189602,18046
{consumergroup=trace-service},1651189607,43275
{consumergroup=trace-service},1651189612,43275
{consumergroup=trace-service},1651189617,43275
{consumergroup=trace-service},1651189622,22528
{consumergroup=trace-service},1651189627,22528
{consumergroup=trace-service},1651189632,22528
{consumergroup=trace-service},1651189637,39894
{consumergroup=trace-service},1651189642,39894
{consumergroup=trace-service},1651189647,39894
{consumergroup=trace-service},1651189652,16344
{consumergroup=trace-service},1651189657,16344
{consumergroup=trace-service},1651189662,16344
{consumergroup=trace-service},1651189667,40914
{consumergroup=trace-service},1651189672,40914
{consumergroup=trace-service},1651189677,40914
{consumergroup=trace-token-events-consumer},1651189217,0
{consumergroup=trace-token-events-consumer},1651189222,0
{consumergroup=trace-token-events-consumer},1651189227,0
{consumergroup=trace-token-events-consumer},1651189232,0
{consumergroup=trace-token-events-consumer},1651189237,0
{consumergroup=trace-token-events-consumer},1651189242,0
{consumergroup=trace-token-events-consumer},1651189247,0
{consumergroup=trace-token-events-consumer},1651189252,0
{consumergroup=trace-token-events-consumer},1651189257,0
{consumergroup=trace-token-events-consumer},1651189262,0
{consumergroup=trace-token-events-consumer},1651189267,0
{consumergroup=trace-token-events-consumer},1651189272,0
{consumergroup=trace-token-events-consumer},1651189277,0
{consumergroup=trace-token-events-consumer},1651189282,0
{consumergroup=trace-token-events-consumer},1651189287,0
{consumergroup=trace-token-events-consumer},1651189292,0
{consumergroup=trace-token-events-consumer},1651189297,0
{consumergroup=trace-token-events-consumer},1651189302,0
{consumergroup=trace-token-events-consumer},1651189307,0
{consumergroup=trace-token-events-consumer},1651189312,0
{consumergroup=trace-token-events-consumer},1651189317,0
{consumergroup=trace-token-events-consumer},1651189322,0
{consumergroup=trace-token-events-consumer},1651189327,0
{consumergroup=trace-token-events-consumer},1651189332,0
{consumergroup=trace-token-events-consumer},1651189337,0
{consumergroup=trace-token-events-consumer},1651189342,0
{consumergroup=trace-token-events-consumer},1651189347,0
{consumergroup=trace-token-events-consumer},1651189352,0
{consumergroup=trace-token-events-consumer},1651189357,0
{consumergroup=trace-token-events-consumer},1651189362,0
{consumergroup=trace-token-events-consumer},1651189367,0
{consumergroup=trace-token-events-consumer},1651189372,0
{consumergroup=trace-token-events-consumer},1651189377,0
{consumergroup=trace-token-events-consumer},1651189382,0
{consumergroup=trace-token-events-consumer},1651189387,0
{consumergroup=trace-token-events-consumer},1651189392,0
{consumergroup=trace-token-events-consumer},1651189397,0
{consumergroup=trace-token-events-consumer},1651189402,0
{consumergroup=trace-token-events-consumer},1651189407,0
{consumergroup=trace-token-events-consumer},1651189412,0
{consumergroup=trace-token-events-consumer},1651189417,0
{consumergroup=trace-token-events-consumer},1651189422,0
{consumergroup=trace-token-events-consumer},1651189427,0
{consumergroup=trace-token-events-consumer},1651189432,0
{consumergroup=trace-token-events-consumer},1651189437,0
{consumergroup=trace-token-events-consumer},1651189442,0
{consumergroup=trace-token-events-consumer},1651189447,0
{consumergroup=trace-token-events-consumer},1651189452,0
{consumergroup=trace-token-events-consumer},1651189457,0
{consumergroup=trace-token-events-consumer},1651189462,0
{consumergroup=trace-token-events-consumer},1651189467,0
{consumergroup=trace-token-events-consumer},1651189472,0
{consumergroup=trace-token-events-consumer},1651189477,0
{consumergroup=trace-token-events-consumer},1651189482,0
{consumergroup=trace-token-events-consumer},1651189487,0
{consumergroup=trace-token-events-consumer},1651189492,0
{consumergroup=trace-token-events-consumer},1651189497,0
{consumergroup=trace-token-events-consumer},1651189502,0
{consumergroup=trace-token-events-consumer},1651189507,0
{consumergroup=trace-token-events-consumer},1651189512,0
{consumergroup=trace-token-events-consumer},1651189517,0
{consumergroup=trace-token-events-consumer},1651189522,0
{consumergroup=trace-token-events-consumer},1651189527,0
{consumergroup=trace-token-events-consumer},1651189532,0
{consumergroup=trace-token-events-consumer},1651189537,0
{consumergroup=trace-token-events-consumer},1651189542,0
{consumergroup=trace-token-events-consumer},1651189547,0
{consumergroup=trace-token-events-consumer},1651189552,0
{consumergroup=trace-token-events-consumer},1651189557,0
{consumergroup=trace-token-events-consumer},1651189562,0
{consumergroup=trace-token-events-consumer},1651189567,0
{consumergroup=trace-token-events-consumer},1651189572,0
{consumergroup=trace-token-events-consumer},1651189577,0
{consumergroup=trace-token-events-consumer},1651189582,0
{consumergroup=trace-token-events-consumer},1651189587,0
{consumergroup=trace-token-events-consumer},1651189592,0
{consumergroup=trace-token-events-consumer},1651189597,0
{consumergroup=trace-token-events-consumer},1651189602,0
{consumergroup=trace-token-events-consumer},1651189607,0
{consumergroup=trace-token-events-consumer},1651189612,0
{consumergroup=trace-token-events-consumer},1651189617,0
{consumergroup=trace-token-events-consumer},1651189622,0
{consumergroup=trace-token-events-consumer},1651189627,0
{consumergroup=trace-token-events-consumer},1651189632,0
{consumergroup=trace-token-events-consumer},1651189637,0
{consumergroup=trace-token-events-consumer},1651189642,0
{consumergroup=trace-token-events-consumer},1651189647,0
{consumergroup=trace-token-events-consumer},1651189652,0
{consumergroup=trace-token-events-consumer},1651189657,0
{consumergroup=trace-token-events-consumer},1651189662,0
{consumergroup=trace-token-events-consumer},1651189667,0
{consumergroup=trace-token-events-consumer},1651189672,0
{consumergroup=trace-token-events-consumer},1651189677,0
