labels,timestamp,value
{consumergroup=__strimzi-topic-operator-kstreams},1651201698,3
{consumergroup=__strimzi-topic-operator-kstreams},1651201703,3
{consumergroup=__strimzi-topic-operator-kstreams},1651201708,3
{consumergroup=__strimzi-topic-operator-kstreams},1651201713,5
{consumergroup=__strimzi-topic-operator-kstreams},1651201718,5
{consumergroup=__strimzi-topic-operator-kstreams},1651201723,5
{consumergroup=__strimzi-topic-operator-kstreams},1651201728,7
{consumergroup=__strimzi-topic-operator-kstreams},1651201733,7
{consumergroup=__strimzi-topic-operator-kstreams},1651201738,7
{consumergroup=__strimzi-topic-operator-kstreams},1651201743,0
{consumergroup=__strimzi-topic-operator-kstreams},1651201748,0
{consumergroup=__strimzi-topic-operator-kstreams},1651201753,0
{consumergroup=__strimzi-topic-operator-kstreams},1651201758,0
{consumergroup=__strimzi-topic-operator-kstreams},1651201763,0
{consumergroup=__strimzi-topic-operator-kstreams},1651201768,0
{consumergroup=__strimzi-topic-operator-kstreams},1651201773,0
{consumergroup=__strimzi-topic-operator-kstreams},1651201778,0
{consumergroup=__strimzi-topic-operator-kstreams},1651201783,0
{consumergroup=__strimzi-topic-operator-kstreams},1651201788,1
{consumergroup=__strimzi-topic-operator-kstreams},1651201793,1
{consumergroup=__strimzi-topic-operator-kstreams},1651201798,1
{consumergroup=__strimzi-topic-operator-kstreams},1651201803,0
{consumergroup=__strimzi-topic-operator-kstreams},1651201808,0
{consumergroup=__strimzi-topic-operator-kstreams},1651201813,0
{consumergroup=__strimzi-topic-operator-kstreams},1651201818,0
{consumergroup=__strimzi-topic-operator-kstreams},1651201823,0
{consumergroup=__strimzi-topic-operator-kstreams},1651201828,0
{consumergroup=__strimzi-topic-operator-kstreams},1651201833,0
{consumergroup=__strimzi-topic-operator-kstreams},1651201838,0
{consumergroup=__strimzi-topic-operator-kstreams},1651201843,0
{consumergroup=__strimzi-topic-operator-kstreams},1651201848,0
{consumergroup=__strimzi-topic-operator-kstreams},1651201853,0
{consumergroup=__strimzi-topic-operator-kstreams},1651201858,0
{consumergroup=__strimzi-topic-operator-kstreams},1651201863,0
{consumergroup=__strimzi-topic-operator-kstreams},1651201868,0
{consumergroup=__strimzi-topic-operator-kstreams},1651201873,0
{consumergroup=__strimzi-topic-operator-kstreams},1651201878,0
{consumergroup=__strimzi-topic-operator-kstreams},1651201883,0
{consumergroup=__strimzi-topic-operator-kstreams},1651201888,0
{consumergroup=__strimzi-topic-operator-kstreams},1651201893,0
{consumergroup=__strimzi-topic-operator-kstreams},1651201898,0
{consumergroup=__strimzi-topic-operator-kstreams},1651201903,0
{consumergroup=__strimzi-topic-operator-kstreams},1651201908,0
{consumergroup=__strimzi-topic-operator-kstreams},1651201913,0
{consumergroup=__strimzi-topic-operator-kstreams},1651201918,0
{consumergroup=__strimzi-topic-operator-kstreams},1651201923,0
{consumergroup=__strimzi-topic-operator-kstreams},1651201928,0
{consumergroup=__strimzi-topic-operator-kstreams},1651201933,0
{consumergroup=__strimzi-topic-operator-kstreams},1651201938,0
{consumergroup=__strimzi-topic-operator-kstreams},1651201943,0
{consumergroup=__strimzi-topic-operator-kstreams},1651201948,0
{consumergroup=__strimzi-topic-operator-kstreams},1651201953,0
{consumergroup=__strimzi-topic-operator-kstreams},1651201958,0
{consumergroup=__strimzi-topic-operator-kstreams},1651201963,0
{consumergroup=__strimzi-topic-operator-kstreams},1651201968,0
{consumergroup=__strimzi-topic-operator-kstreams},1651201973,0
{consumergroup=__strimzi-topic-operator-kstreams},1651201978,0
{consumergroup=__strimzi-topic-operator-kstreams},1651201983,0
{consumergroup=__strimzi-topic-operator-kstreams},1651201988,0
{consumergroup=__strimzi-topic-operator-kstreams},1651201993,0
{consumergroup=__strimzi-topic-operator-kstreams},1651201998,0
{consumergroup=__strimzi-topic-operator-kstreams},1651202003,0
{consumergroup=__strimzi-topic-operator-kstreams},1651202008,0
{consumergroup=__strimzi-topic-operator-kstreams},1651202013,0
{consumergroup=__strimzi-topic-operator-kstreams},1651202018,0
{consumergroup=__strimzi-topic-operator-kstreams},1651202023,0
{consumergroup=__strimzi-topic-operator-kstreams},1651202028,0
{consumergroup=__strimzi-topic-operator-kstreams},1651202033,0
{consumergroup=__strimzi-topic-operator-kstreams},1651202038,0
{consumergroup=__strimzi-topic-operator-kstreams},1651202043,0
{consumergroup=__strimzi-topic-operator-kstreams},1651202048,0
{consumergroup=__strimzi-topic-operator-kstreams},1651202053,0
{consumergroup=__strimzi-topic-operator-kstreams},1651202058,0
{consumergroup=__strimzi-topic-operator-kstreams},1651202063,0
{consumergroup=__strimzi-topic-operator-kstreams},1651202068,0
{consumergroup=__strimzi-topic-operator-kstreams},1651202073,0
{consumergroup=__strimzi-topic-operator-kstreams},1651202078,0
{consumergroup=__strimzi-topic-operator-kstreams},1651202083,0
{consumergroup=__strimzi-topic-operator-kstreams},1651202088,0
{consumergroup=__strimzi-topic-operator-kstreams},1651202093,0
{consumergroup=__strimzi-topic-operator-kstreams},1651202098,0
{consumergroup=__strimzi-topic-operator-kstreams},1651202103,0
{consumergroup=__strimzi-topic-operator-kstreams},1651202108,0
{consumergroup=__strimzi-topic-operator-kstreams},1651202113,0
{consumergroup=__strimzi-topic-operator-kstreams},1651202118,0
{consumergroup=__strimzi-topic-operator-kstreams},1651202123,0
{consumergroup=__strimzi-topic-operator-kstreams},1651202128,0
{consumergroup=__strimzi-topic-operator-kstreams},1651202133,0
{consumergroup=__strimzi-topic-operator-kstreams},1651202138,0
{consumergroup=__strimzi-topic-operator-kstreams},1651202143,0
{consumergroup=__strimzi-topic-operator-kstreams},1651202148,0
{consumergroup=__strimzi-topic-operator-kstreams},1651202153,0
{consumergroup=__strimzi-topic-operator-kstreams},1651202158,0
{consumergroup=__strimzi-topic-operator-kstreams},1651202163,0
{consumergroup=__strimzi-topic-operator-kstreams},1651202168,0
{consumergroup=__strimzi-topic-operator-kstreams},1651202173,0
{consumergroup=__strimzi-topic-operator-kstreams},1651202178,0
{consumergroup=__strimzi-topic-operator-kstreams},1651202183,0
{consumergroup=__strimzi-topic-operator-kstreams},1651202188,0
{consumergroup=__strimzi-topic-operator-kstreams},1651202193,0
{consumergroup=__strimzi-topic-operator-kstreams},1651202198,0
{consumergroup=trace-service},1651201743,17109
{consumergroup=trace-service},1651201748,17109
{consumergroup=trace-service},1651201753,17109
{consumergroup=trace-service},1651201758,62644
{consumergroup=trace-service},1651201763,62644
{consumergroup=trace-service},1651201768,62644
{consumergroup=trace-service},1651201773,6542
{consumergroup=trace-service},1651201778,6542
{consumergroup=trace-service},1651201783,6542
{consumergroup=trace-service},1651201788,35923
{consumergroup=trace-service},1651201793,35923
{consumergroup=trace-service},1651201798,35923
{consumergroup=trace-service},1651201803,14553
{consumergroup=trace-service},1651201808,14553
{consumergroup=trace-service},1651201813,14553
{consumergroup=trace-service},1651201818,40945
{consumergroup=trace-service},1651201823,40945
{consumergroup=trace-service},1651201828,40945
{consumergroup=trace-service},1651201833,12867
{consumergroup=trace-service},1651201838,12867
{consumergroup=trace-service},1651201843,12867
{consumergroup=trace-service},1651201848,38919
{consumergroup=trace-service},1651201853,38919
{consumergroup=trace-service},1651201858,38919
{consumergroup=trace-service},1651201863,14936
{consumergroup=trace-service},1651201868,14936
{consumergroup=trace-service},1651201873,14936
{consumergroup=trace-service},1651201878,43471
{consumergroup=trace-service},1651201883,43471
{consumergroup=trace-service},1651201888,43471
{consumergroup=trace-service},1651201893,9543
{consumergroup=trace-service},1651201898,9543
{consumergroup=trace-service},1651201903,9543
{consumergroup=trace-service},1651201908,32567
{consumergroup=trace-service},1651201913,32567
{consumergroup=trace-service},1651201918,32567
{consumergroup=trace-service},1651201923,8177
{consumergroup=trace-service},1651201928,8177
{consumergroup=trace-service},1651201933,8177
{consumergroup=trace-service},1651201938,31451
{consumergroup=trace-service},1651201943,31451
{consumergroup=trace-service},1651201948,31451
{consumergroup=trace-service},1651201953,8367
{consumergroup=trace-service},1651201958,8367
{consumergroup=trace-service},1651201963,8367
{consumergroup=trace-service},1651201968,36501
{consumergroup=trace-service},1651201973,36501
{consumergroup=trace-service},1651201978,36501
{consumergroup=trace-service},1651201983,13520
{consumergroup=trace-service},1651201988,13520
{consumergroup=trace-service},1651201993,13520
{consumergroup=trace-service},1651201998,39139
{consumergroup=trace-service},1651202003,39139
{consumergroup=trace-service},1651202008,39139
{consumergroup=trace-service},1651202013,13484
{consumergroup=trace-service},1651202018,13484
{consumergroup=trace-service},1651202023,13484
{consumergroup=trace-service},1651202028,40909
{consumergroup=trace-service},1651202033,40909
{consumergroup=trace-service},1651202038,40909
{consumergroup=trace-service},1651202043,11974
{consumergroup=trace-service},1651202048,11974
{consumergroup=trace-service},1651202053,11974
{consumergroup=trace-service},1651202058,38472
{consumergroup=trace-service},1651202063,38472
{consumergroup=trace-service},1651202068,38472
{consumergroup=trace-service},1651202073,11177
{consumergroup=trace-service},1651202078,11177
{consumergroup=trace-service},1651202083,11177
{consumergroup=trace-service},1651202088,43140
{consumergroup=trace-service},1651202093,43140
{consumergroup=trace-service},1651202098,43140
{consumergroup=trace-service},1651202103,12317
{consumergroup=trace-service},1651202108,12317
{consumergroup=trace-service},1651202113,12317
{consumergroup=trace-service},1651202118,39454
{consumergroup=trace-service},1651202123,39454
{consumergroup=trace-service},1651202128,39454
{consumergroup=trace-service},1651202133,11046
{consumergroup=trace-service},1651202138,11046
{consumergroup=trace-service},1651202143,11046
{consumergroup=trace-service},1651202148,42617
{consumergroup=trace-service},1651202153,42617
{consumergroup=trace-service},1651202158,42617
{consumergroup=trace-service},1651202163,13308
{consumergroup=trace-service},1651202168,13308
{consumergroup=trace-service},1651202173,13308
{consumergroup=trace-service},1651202178,41858
{consumergroup=trace-service},1651202183,41858
{consumergroup=trace-service},1651202188,41858
{consumergroup=trace-service},1651202193,82090
{consumergroup=trace-service},1651202198,82090
{consumergroup=trace-token-events-consumer},1651201743,0
{consumergroup=trace-token-events-consumer},1651201748,0
{consumergroup=trace-token-events-consumer},1651201753,0
{consumergroup=trace-token-events-consumer},1651201758,0
{consumergroup=trace-token-events-consumer},1651201763,0
{consumergroup=trace-token-events-consumer},1651201768,0
{consumergroup=trace-token-events-consumer},1651201773,0
{consumergroup=trace-token-events-consumer},1651201778,0
{consumergroup=trace-token-events-consumer},1651201783,0
{consumergroup=trace-token-events-consumer},1651201788,0
{consumergroup=trace-token-events-consumer},1651201793,0
{consumergroup=trace-token-events-consumer},1651201798,0
{consumergroup=trace-token-events-consumer},1651201803,0
{consumergroup=trace-token-events-consumer},1651201808,0
{consumergroup=trace-token-events-consumer},1651201813,0
{consumergroup=trace-token-events-consumer},1651201818,0
{consumergroup=trace-token-events-consumer},1651201823,0
{consumergroup=trace-token-events-consumer},1651201828,0
{consumergroup=trace-token-events-consumer},1651201833,0
{consumergroup=trace-token-events-consumer},1651201838,0
{consumergroup=trace-token-events-consumer},1651201843,0
{consumergroup=trace-token-events-consumer},1651201848,0
{consumergroup=trace-token-events-consumer},1651201853,0
{consumergroup=trace-token-events-consumer},1651201858,0
{consumergroup=trace-token-events-consumer},1651201863,0
{consumergroup=trace-token-events-consumer},1651201868,0
{consumergroup=trace-token-events-consumer},1651201873,0
{consumergroup=trace-token-events-consumer},1651201878,0
{consumergroup=trace-token-events-consumer},1651201883,0
{consumergroup=trace-token-events-consumer},1651201888,0
{consumergroup=trace-token-events-consumer},1651201893,0
{consumergroup=trace-token-events-consumer},1651201898,0
{consumergroup=trace-token-events-consumer},1651201903,0
{consumergroup=trace-token-events-consumer},1651201908,0
{consumergroup=trace-token-events-consumer},1651201913,0
{consumergroup=trace-token-events-consumer},1651201918,0
{consumergroup=trace-token-events-consumer},1651201923,0
{consumergroup=trace-token-events-consumer},1651201928,0
{consumergroup=trace-token-events-consumer},1651201933,0
{consumergroup=trace-token-events-consumer},1651201938,0
{consumergroup=trace-token-events-consumer},1651201943,0
{consumergroup=trace-token-events-consumer},1651201948,0
{consumergroup=trace-token-events-consumer},1651201953,0
{consumergroup=trace-token-events-consumer},1651201958,0
{consumergroup=trace-token-events-consumer},1651201963,0
{consumergroup=trace-token-events-consumer},1651201968,0
{consumergroup=trace-token-events-consumer},1651201973,0
{consumergroup=trace-token-events-consumer},1651201978,0
{consumergroup=trace-token-events-consumer},1651201983,0
{consumergroup=trace-token-events-consumer},1651201988,0
{consumergroup=trace-token-events-consumer},1651201993,0
{consumergroup=trace-token-events-consumer},1651201998,0
{consumergroup=trace-token-events-consumer},1651202003,0
{consumergroup=trace-token-events-consumer},1651202008,0
{consumergroup=trace-token-events-consumer},1651202013,0
{consumergroup=trace-token-events-consumer},1651202018,0
{consumergroup=trace-token-events-consumer},1651202023,0
{consumergroup=trace-token-events-consumer},1651202028,0
{consumergroup=trace-token-events-consumer},1651202033,0
{consumergroup=trace-token-events-consumer},1651202038,0
{consumergroup=trace-token-events-consumer},1651202043,0
{consumergroup=trace-token-events-consumer},1651202048,0
{consumergroup=trace-token-events-consumer},1651202053,0
{consumergroup=trace-token-events-consumer},1651202058,0
{consumergroup=trace-token-events-consumer},1651202063,0
{consumergroup=trace-token-events-consumer},1651202068,0
{consumergroup=trace-token-events-consumer},1651202073,0
{consumergroup=trace-token-events-consumer},1651202078,0
{consumergroup=trace-token-events-consumer},1651202083,0
{consumergroup=trace-token-events-consumer},1651202088,0
{consumergroup=trace-token-events-consumer},1651202093,0
{consumergroup=trace-token-events-consumer},1651202098,0
{consumergroup=trace-token-events-consumer},1651202103,0
{consumergroup=trace-token-events-consumer},1651202108,0
{consumergroup=trace-token-events-consumer},1651202113,0
{consumergroup=trace-token-events-consumer},1651202118,0
{consumergroup=trace-token-events-consumer},1651202123,0
{consumergroup=trace-token-events-consumer},1651202128,0
{consumergroup=trace-token-events-consumer},1651202133,0
{consumergroup=trace-token-events-consumer},1651202138,0
{consumergroup=trace-token-events-consumer},1651202143,0
{consumergroup=trace-token-events-consumer},1651202148,0
{consumergroup=trace-token-events-consumer},1651202153,0
{consumergroup=trace-token-events-consumer},1651202158,0
{consumergroup=trace-token-events-consumer},1651202163,0
{consumergroup=trace-token-events-consumer},1651202168,0
{consumergroup=trace-token-events-consumer},1651202173,0
{consumergroup=trace-token-events-consumer},1651202178,0
{consumergroup=trace-token-events-consumer},1651202183,0
{consumergroup=trace-token-events-consumer},1651202188,0
{consumergroup=trace-token-events-consumer},1651202193,0
{consumergroup=trace-token-events-consumer},1651202198,0
