labels,timestamp,value
{job=theodolite-stu200776/trace-isolated-podmonitor},1651192041,0
{job=theodolite-stu200776/trace-isolated-podmonitor},1651192046,0
{job=theodolite-stu200776/trace-isolated-podmonitor},1651192051,0
{job=theodolite-stu200776/trace-isolated-podmonitor},1651192056,0
{job=theodolite-stu200776/trace-isolated-podmonitor},1651192061,0
{job=theodolite-stu200776/trace-isolated-podmonitor},1651192066,0
{job=theodolite-stu200776/trace-isolated-podmonitor},1651192071,0
{job=theodolite-stu200776/trace-isolated-podmonitor},1651192076,0
{job=theodolite-stu200776/trace-isolated-podmonitor},1651192081,0
{job=theodolite-stu200776/trace-isolated-podmonitor},1651192086,0
{job=theodolite-stu200776/trace-isolated-podmonitor},1651192091,0
{job=theodolite-stu200776/trace-isolated-podmonitor},1651192096,0
{job=theodolite-stu200776/trace-isolated-podmonitor},1651192101,0
{job=theodolite-stu200776/trace-isolated-podmonitor},1651192106,0
{job=theodolite-stu200776/trace-isolated-podmonitor},1651192111,0
{job=theodolite-stu200776/trace-isolated-podmonitor},1651192116,0
{job=theodolite-stu200776/trace-isolated-podmonitor},1651192121,0
{job=theodolite-stu200776/trace-isolated-podmonitor},1651192126,0
{job=theodolite-stu200776/trace-isolated-podmonitor},1651192131,0
{job=theodolite-stu200776/trace-isolated-podmonitor},1651192136,0
{job=theodolite-stu200776/trace-isolated-podmonitor},1651192141,0
{job=theodolite-stu200776/trace-isolated-podmonitor},1651192146,0
{job=theodolite-stu200776/trace-isolated-podmonitor},1651192151,0
{job=theodolite-stu200776/trace-isolated-podmonitor},1651192156,0
{job=theodolite-stu200776/trace-isolated-podmonitor},1651192161,0
{job=theodolite-stu200776/trace-isolated-podmonitor},1651192166,0
{job=theodolite-stu200776/trace-isolated-podmonitor},1651192171,0
{job=theodolite-stu200776/trace-isolated-podmonitor},1651192176,0
{job=theodolite-stu200776/trace-isolated-podmonitor},1651192181,0
{job=theodolite-stu200776/trace-isolated-podmonitor},1651192186,0
{job=theodolite-stu200776/trace-isolated-podmonitor},1651192191,0
{job=theodolite-stu200776/trace-isolated-podmonitor},1651192196,0
{job=theodolite-stu200776/trace-isolated-podmonitor},1651192201,0
{job=theodolite-stu200776/trace-isolated-podmonitor},1651192206,0
{job=theodolite-stu200776/trace-isolated-podmonitor},1651192211,0
{job=theodolite-stu200776/trace-isolated-podmonitor},1651192216,0
{job=theodolite-stu200776/trace-isolated-podmonitor},1651192221,0
{job=theodolite-stu200776/trace-isolated-podmonitor},1651192226,0
{job=theodolite-stu200776/trace-isolated-podmonitor},1651192231,0
{job=theodolite-stu200776/trace-isolated-podmonitor},1651192236,0
{job=theodolite-stu200776/trace-isolated-podmonitor},1651192241,0
{job=theodolite-stu200776/trace-isolated-podmonitor},1651192246,0
{job=theodolite-stu200776/trace-isolated-podmonitor},1651192251,0
{job=theodolite-stu200776/trace-isolated-podmonitor},1651192256,0
{job=theodolite-stu200776/trace-isolated-podmonitor},1651192261,0
{job=theodolite-stu200776/trace-isolated-podmonitor},1651192266,0
{job=theodolite-stu200776/trace-isolated-podmonitor},1651192271,0
{job=theodolite-stu200776/trace-isolated-podmonitor},1651192276,0
{job=theodolite-stu200776/trace-isolated-podmonitor},1651192281,0
{job=theodolite-stu200776/trace-isolated-podmonitor},1651192286,0
{job=theodolite-stu200776/trace-isolated-podmonitor},1651192291,0
{job=theodolite-stu200776/trace-isolated-podmonitor},1651192296,0
{job=theodolite-stu200776/trace-isolated-podmonitor},1651192301,0
{job=theodolite-stu200776/trace-isolated-podmonitor},1651192306,0
{job=theodolite-stu200776/trace-isolated-podmonitor},1651192311,0
{job=theodolite-stu200776/trace-isolated-podmonitor},1651192316,0
{job=theodolite-stu200776/trace-isolated-podmonitor},1651192321,0
{job=theodolite-stu200776/trace-isolated-podmonitor},1651192326,0
{job=theodolite-stu200776/trace-isolated-podmonitor},1651192331,0
{job=theodolite-stu200776/trace-isolated-podmonitor},1651192336,0
{job=theodolite-stu200776/trace-isolated-podmonitor},1651192341,0
{job=theodolite-stu200776/trace-isolated-podmonitor},1651192346,0
{job=theodolite-stu200776/trace-isolated-podmonitor},1651192351,0
{job=theodolite-stu200776/trace-isolated-podmonitor},1651192356,0
{job=theodolite-stu200776/trace-isolated-podmonitor},1651192361,0
{job=theodolite-stu200776/trace-isolated-podmonitor},1651192366,0
{job=theodolite-stu200776/trace-isolated-podmonitor},1651192371,0
{job=theodolite-stu200776/trace-isolated-podmonitor},1651192376,0
{job=theodolite-stu200776/trace-isolated-podmonitor},1651192381,0
{job=theodolite-stu200776/trace-isolated-podmonitor},1651192386,0
{job=theodolite-stu200776/trace-isolated-podmonitor},1651192391,0
{job=theodolite-stu200776/trace-isolated-podmonitor},1651192396,0
{job=theodolite-stu200776/trace-isolated-podmonitor},1651192401,0
{job=theodolite-stu200776/trace-isolated-podmonitor},1651192406,0
{job=theodolite-stu200776/trace-isolated-podmonitor},1651192411,0
{job=theodolite-stu200776/trace-isolated-podmonitor},1651192416,0
{job=theodolite-stu200776/trace-isolated-podmonitor},1651192421,0
{job=theodolite-stu200776/trace-isolated-podmonitor},1651192426,0
{job=theodolite-stu200776/trace-isolated-podmonitor},1651192431,0
{job=theodolite-stu200776/trace-isolated-podmonitor},1651192436,0
{job=theodolite-stu200776/trace-isolated-podmonitor},1651192441,0
{job=theodolite-stu200776/trace-isolated-podmonitor},1651192446,0
{job=theodolite-stu200776/trace-isolated-podmonitor},1651192451,0
{job=theodolite-stu200776/trace-isolated-podmonitor},1651192456,0
{job=theodolite-stu200776/trace-isolated-podmonitor},1651192461,0
{job=theodolite-stu200776/trace-isolated-podmonitor},1651192466,0
{job=theodolite-stu200776/trace-isolated-podmonitor},1651192471,0
