labels,timestamp,value
{job=theodolite-stu200776/trace-isolated-podmonitor},1651183622,0
{job=theodolite-stu200776/trace-isolated-podmonitor},1651183627,0
{job=theodolite-stu200776/trace-isolated-podmonitor},1651183632,0
{job=theodolite-stu200776/trace-isolated-podmonitor},1651183637,0
{job=theodolite-stu200776/trace-isolated-podmonitor},1651183642,0
{job=theodolite-stu200776/trace-isolated-podmonitor},1651183647,0
{job=theodolite-stu200776/trace-isolated-podmonitor},1651183652,0
{job=theodolite-stu200776/trace-isolated-podmonitor},1651183657,0
{job=theodolite-stu200776/trace-isolated-podmonitor},1651183662,0
{job=theodolite-stu200776/trace-isolated-podmonitor},1651183667,0
{job=theodolite-stu200776/trace-isolated-podmonitor},1651183672,0
{job=theodolite-stu200776/trace-isolated-podmonitor},1651183677,0
{job=theodolite-stu200776/trace-isolated-podmonitor},1651183682,0
{job=theodolite-stu200776/trace-isolated-podmonitor},1651183687,0
{job=theodolite-stu200776/trace-isolated-podmonitor},1651183692,0
{job=theodolite-stu200776/trace-isolated-podmonitor},1651183697,0
{job=theodolite-stu200776/trace-isolated-podmonitor},1651183702,0
{job=theodolite-stu200776/trace-isolated-podmonitor},1651183707,0
{job=theodolite-stu200776/trace-isolated-podmonitor},1651183712,0
{job=theodolite-stu200776/trace-isolated-podmonitor},1651183717,0
{job=theodolite-stu200776/trace-isolated-podmonitor},1651183722,0
{job=theodolite-stu200776/trace-isolated-podmonitor},1651183727,0
{job=theodolite-stu200776/trace-isolated-podmonitor},1651183732,0
{job=theodolite-stu200776/trace-isolated-podmonitor},1651183737,0
{job=theodolite-stu200776/trace-isolated-podmonitor},1651183742,0
{job=theodolite-stu200776/trace-isolated-podmonitor},1651183747,0
{job=theodolite-stu200776/trace-isolated-podmonitor},1651183752,0
{job=theodolite-stu200776/trace-isolated-podmonitor},1651183757,0
{job=theodolite-stu200776/trace-isolated-podmonitor},1651183762,0
{job=theodolite-stu200776/trace-isolated-podmonitor},1651183767,0
{job=theodolite-stu200776/trace-isolated-podmonitor},1651183772,0
{job=theodolite-stu200776/trace-isolated-podmonitor},1651183777,0
{job=theodolite-stu200776/trace-isolated-podmonitor},1651183782,0
{job=theodolite-stu200776/trace-isolated-podmonitor},1651183787,0
{job=theodolite-stu200776/trace-isolated-podmonitor},1651183792,0
{job=theodolite-stu200776/trace-isolated-podmonitor},1651183797,0
{job=theodolite-stu200776/trace-isolated-podmonitor},1651183802,0
{job=theodolite-stu200776/trace-isolated-podmonitor},1651183807,0
{job=theodolite-stu200776/trace-isolated-podmonitor},1651183812,0
{job=theodolite-stu200776/trace-isolated-podmonitor},1651183817,0
{job=theodolite-stu200776/trace-isolated-podmonitor},1651183822,0
{job=theodolite-stu200776/trace-isolated-podmonitor},1651183827,0
{job=theodolite-stu200776/trace-isolated-podmonitor},1651183832,0
{job=theodolite-stu200776/trace-isolated-podmonitor},1651183837,0
{job=theodolite-stu200776/trace-isolated-podmonitor},1651183842,0
{job=theodolite-stu200776/trace-isolated-podmonitor},1651183847,0
{job=theodolite-stu200776/trace-isolated-podmonitor},1651183852,0
{job=theodolite-stu200776/trace-isolated-podmonitor},1651183857,0
{job=theodolite-stu200776/trace-isolated-podmonitor},1651183862,0
{job=theodolite-stu200776/trace-isolated-podmonitor},1651183867,0
{job=theodolite-stu200776/trace-isolated-podmonitor},1651183872,0
{job=theodolite-stu200776/trace-isolated-podmonitor},1651183877,0
{job=theodolite-stu200776/trace-isolated-podmonitor},1651183882,0
{job=theodolite-stu200776/trace-isolated-podmonitor},1651183887,0
{job=theodolite-stu200776/trace-isolated-podmonitor},1651183892,0
{job=theodolite-stu200776/trace-isolated-podmonitor},1651183897,0
{job=theodolite-stu200776/trace-isolated-podmonitor},1651183902,0
{job=theodolite-stu200776/trace-isolated-podmonitor},1651183907,0
{job=theodolite-stu200776/trace-isolated-podmonitor},1651183912,0
{job=theodolite-stu200776/trace-isolated-podmonitor},1651183917,0
{job=theodolite-stu200776/trace-isolated-podmonitor},1651183922,0
{job=theodolite-stu200776/trace-isolated-podmonitor},1651183927,0
{job=theodolite-stu200776/trace-isolated-podmonitor},1651183932,0
{job=theodolite-stu200776/trace-isolated-podmonitor},1651183937,0
{job=theodolite-stu200776/trace-isolated-podmonitor},1651183942,0
{job=theodolite-stu200776/trace-isolated-podmonitor},1651183947,0
{job=theodolite-stu200776/trace-isolated-podmonitor},1651183952,0
{job=theodolite-stu200776/trace-isolated-podmonitor},1651183957,0
{job=theodolite-stu200776/trace-isolated-podmonitor},1651183962,0
{job=theodolite-stu200776/trace-isolated-podmonitor},1651183967,0
{job=theodolite-stu200776/trace-isolated-podmonitor},1651183972,0
{job=theodolite-stu200776/trace-isolated-podmonitor},1651183977,0
{job=theodolite-stu200776/trace-isolated-podmonitor},1651183982,0
{job=theodolite-stu200776/trace-isolated-podmonitor},1651183987,0
{job=theodolite-stu200776/trace-isolated-podmonitor},1651183992,0
{job=theodolite-stu200776/trace-isolated-podmonitor},1651183997,0
{job=theodolite-stu200776/trace-isolated-podmonitor},1651184002,0
{job=theodolite-stu200776/trace-isolated-podmonitor},1651184007,0
{job=theodolite-stu200776/trace-isolated-podmonitor},1651184012,0
{job=theodolite-stu200776/trace-isolated-podmonitor},1651184017,0
{job=theodolite-stu200776/trace-isolated-podmonitor},1651184022,0
{job=theodolite-stu200776/trace-isolated-podmonitor},1651184027,0
{job=theodolite-stu200776/trace-isolated-podmonitor},1651184032,0
{job=theodolite-stu200776/trace-isolated-podmonitor},1651184037,0
{job=theodolite-stu200776/trace-isolated-podmonitor},1651184042,0
{job=theodolite-stu200776/trace-isolated-podmonitor},1651184047,0
