labels,timestamp,value
{job=theodolite-stu200776/trace-isolated-podmonitor},1651145257,0
{job=theodolite-stu200776/trace-isolated-podmonitor},1651145262,0
{job=theodolite-stu200776/trace-isolated-podmonitor},1651145267,0
{job=theodolite-stu200776/trace-isolated-podmonitor},1651145272,0
{job=theodolite-stu200776/trace-isolated-podmonitor},1651145277,0
{job=theodolite-stu200776/trace-isolated-podmonitor},1651145282,0
{job=theodolite-stu200776/trace-isolated-podmonitor},1651145287,0
{job=theodolite-stu200776/trace-isolated-podmonitor},1651145292,0
{job=theodolite-stu200776/trace-isolated-podmonitor},1651145297,0
{job=theodolite-stu200776/trace-isolated-podmonitor},1651145302,0
{job=theodolite-stu200776/trace-isolated-podmonitor},1651145307,0
{job=theodolite-stu200776/trace-isolated-podmonitor},1651145312,0
{job=theodolite-stu200776/trace-isolated-podmonitor},1651145317,0
{job=theodolite-stu200776/trace-isolated-podmonitor},1651145322,0
{job=theodolite-stu200776/trace-isolated-podmonitor},1651145327,0
{job=theodolite-stu200776/trace-isolated-podmonitor},1651145332,0
{job=theodolite-stu200776/trace-isolated-podmonitor},1651145337,0
{job=theodolite-stu200776/trace-isolated-podmonitor},1651145342,0
{job=theodolite-stu200776/trace-isolated-podmonitor},1651145347,0
{job=theodolite-stu200776/trace-isolated-podmonitor},1651145352,0
{job=theodolite-stu200776/trace-isolated-podmonitor},1651145357,0
{job=theodolite-stu200776/trace-isolated-podmonitor},1651145362,0
{job=theodolite-stu200776/trace-isolated-podmonitor},1651145367,0
{job=theodolite-stu200776/trace-isolated-podmonitor},1651145372,0
{job=theodolite-stu200776/trace-isolated-podmonitor},1651145377,498.8530078522925
{job=theodolite-stu200776/trace-isolated-podmonitor},1651145382,498.8530078522925
{job=theodolite-stu200776/trace-isolated-podmonitor},1651145387,567.8184593455522
{job=theodolite-stu200776/trace-isolated-podmonitor},1651145392,567.8184593455522
{job=theodolite-stu200776/trace-isolated-podmonitor},1651145397,462.4716502222165
{job=theodolite-stu200776/trace-isolated-podmonitor},1651145402,462.4716502222165
{job=theodolite-stu200776/trace-isolated-podmonitor},1651145407,735.2542956691556
{job=theodolite-stu200776/trace-isolated-podmonitor},1651145412,735.2542956691556
{job=theodolite-stu200776/trace-isolated-podmonitor},1651145417,567.7687476574356
{job=theodolite-stu200776/trace-isolated-podmonitor},1651145422,567.7687476574356
{job=theodolite-stu200776/trace-isolated-podmonitor},1651145427,462.43686427273315
{job=theodolite-stu200776/trace-isolated-podmonitor},1651145432,462.43686427273315
{job=theodolite-stu200776/trace-isolated-podmonitor},1651145437,0
{job=theodolite-stu200776/trace-isolated-podmonitor},1651145442,0
{job=theodolite-stu200776/trace-isolated-podmonitor},1651145447,0
{job=theodolite-stu200776/trace-isolated-podmonitor},1651145452,0
{job=theodolite-stu200776/trace-isolated-podmonitor},1651145457,0
{job=theodolite-stu200776/trace-isolated-podmonitor},1651145462,0
{job=theodolite-stu200776/trace-isolated-podmonitor},1651145467,0
{job=theodolite-stu200776/trace-isolated-podmonitor},1651145472,0
{job=theodolite-stu200776/trace-isolated-podmonitor},1651145477,0
{job=theodolite-stu200776/trace-isolated-podmonitor},1651145482,0
{job=theodolite-stu200776/trace-isolated-podmonitor},1651145487,0
{job=theodolite-stu200776/trace-isolated-podmonitor},1651145492,0
{job=theodolite-stu200776/trace-isolated-podmonitor},1651145497,0
{job=theodolite-stu200776/trace-isolated-podmonitor},1651145502,0
{job=theodolite-stu200776/trace-isolated-podmonitor},1651145507,0
