labels,timestamp,value
{consumergroup=__strimzi-topic-operator-kstreams},1651154602,3
{consumergroup=__strimzi-topic-operator-kstreams},1651154607,3
{consumergroup=__strimzi-topic-operator-kstreams},1651154612,3
{consumergroup=__strimzi-topic-operator-kstreams},1651154617,11
{consumergroup=__strimzi-topic-operator-kstreams},1651154622,11
{consumergroup=__strimzi-topic-operator-kstreams},1651154627,11
{consumergroup=__strimzi-topic-operator-kstreams},1651154632,0
{consumergroup=__strimzi-topic-operator-kstreams},1651154637,0
{consumergroup=__strimzi-topic-operator-kstreams},1651154642,0
{consumergroup=__strimzi-topic-operator-kstreams},1651154647,0
{consumergroup=__strimzi-topic-operator-kstreams},1651154652,0
{consumergroup=__strimzi-topic-operator-kstreams},1651154657,0
{consumergroup=__strimzi-topic-operator-kstreams},1651154662,0
{consumergroup=__strimzi-topic-operator-kstreams},1651154667,0
{consumergroup=__strimzi-topic-operator-kstreams},1651154672,0
{consumergroup=__strimzi-topic-operator-kstreams},1651154677,0
{consumergroup=__strimzi-topic-operator-kstreams},1651154682,0
{consumergroup=__strimzi-topic-operator-kstreams},1651154687,0
{consumergroup=__strimzi-topic-operator-kstreams},1651154692,0
{consumergroup=__strimzi-topic-operator-kstreams},1651154697,0
{consumergroup=__strimzi-topic-operator-kstreams},1651154702,0
{consumergroup=__strimzi-topic-operator-kstreams},1651154707,0
{consumergroup=__strimzi-topic-operator-kstreams},1651154712,0
{consumergroup=__strimzi-topic-operator-kstreams},1651154717,0
{consumergroup=__strimzi-topic-operator-kstreams},1651154722,0
{consumergroup=__strimzi-topic-operator-kstreams},1651154727,0
{consumergroup=__strimzi-topic-operator-kstreams},1651154732,0
{consumergroup=__strimzi-topic-operator-kstreams},1651154737,0
{consumergroup=__strimzi-topic-operator-kstreams},1651154742,0
{consumergroup=__strimzi-topic-operator-kstreams},1651154747,0
{consumergroup=__strimzi-topic-operator-kstreams},1651154752,0
{consumergroup=__strimzi-topic-operator-kstreams},1651154757,0
{consumergroup=__strimzi-topic-operator-kstreams},1651154762,0
{consumergroup=__strimzi-topic-operator-kstreams},1651154767,0
{consumergroup=__strimzi-topic-operator-kstreams},1651154772,0
{consumergroup=__strimzi-topic-operator-kstreams},1651154777,0
{consumergroup=__strimzi-topic-operator-kstreams},1651154782,0
{consumergroup=__strimzi-topic-operator-kstreams},1651154787,0
{consumergroup=__strimzi-topic-operator-kstreams},1651154792,0
{consumergroup=__strimzi-topic-operator-kstreams},1651154797,0
{consumergroup=__strimzi-topic-operator-kstreams},1651154802,0
{consumergroup=__strimzi-topic-operator-kstreams},1651154807,0
{consumergroup=__strimzi-topic-operator-kstreams},1651154812,0
{consumergroup=__strimzi-topic-operator-kstreams},1651154817,0
{consumergroup=__strimzi-topic-operator-kstreams},1651154822,0
{consumergroup=__strimzi-topic-operator-kstreams},1651154827,0
{consumergroup=__strimzi-topic-operator-kstreams},1651154832,0
{consumergroup=__strimzi-topic-operator-kstreams},1651154837,0
{consumergroup=__strimzi-topic-operator-kstreams},1651154842,0
{consumergroup=__strimzi-topic-operator-kstreams},1651154847,0
{consumergroup=__strimzi-topic-operator-kstreams},1651154852,0
{consumergroup=__strimzi-topic-operator-kstreams},1651154857,0
{consumergroup=__strimzi-topic-operator-kstreams},1651154862,0
{consumergroup=__strimzi-topic-operator-kstreams},1651154867,0
{consumergroup=__strimzi-topic-operator-kstreams},1651154872,0
{consumergroup=__strimzi-topic-operator-kstreams},1651154877,0
{consumergroup=__strimzi-topic-operator-kstreams},1651154882,0
{consumergroup=__strimzi-topic-operator-kstreams},1651154887,0
{consumergroup=__strimzi-topic-operator-kstreams},1651154892,0
{consumergroup=__strimzi-topic-operator-kstreams},1651154897,0
{consumergroup=__strimzi-topic-operator-kstreams},1651154902,0
{consumergroup=__strimzi-topic-operator-kstreams},1651154907,0
{consumergroup=__strimzi-topic-operator-kstreams},1651154912,0
{consumergroup=__strimzi-topic-operator-kstreams},1651154917,0
{consumergroup=__strimzi-topic-operator-kstreams},1651154922,0
{consumergroup=__strimzi-topic-operator-kstreams},1651154927,0
{consumergroup=__strimzi-topic-operator-kstreams},1651154932,0
{consumergroup=__strimzi-topic-operator-kstreams},1651154937,0
{consumergroup=__strimzi-topic-operator-kstreams},1651154942,0
{consumergroup=__strimzi-topic-operator-kstreams},1651154947,0
{consumergroup=__strimzi-topic-operator-kstreams},1651154952,0
{consumergroup=__strimzi-topic-operator-kstreams},1651154957,0
{consumergroup=__strimzi-topic-operator-kstreams},1651154962,0
{consumergroup=__strimzi-topic-operator-kstreams},1651154967,0
{consumergroup=__strimzi-topic-operator-kstreams},1651154972,0
{consumergroup=__strimzi-topic-operator-kstreams},1651154977,0
{consumergroup=__strimzi-topic-operator-kstreams},1651154982,0
{consumergroup=__strimzi-topic-operator-kstreams},1651154987,0
{consumergroup=__strimzi-topic-operator-kstreams},1651154992,0
{consumergroup=__strimzi-topic-operator-kstreams},1651154997,0
{consumergroup=__strimzi-topic-operator-kstreams},1651155002,0
{consumergroup=__strimzi-topic-operator-kstreams},1651155007,0
{consumergroup=__strimzi-topic-operator-kstreams},1651155012,0
{consumergroup=__strimzi-topic-operator-kstreams},1651155017,0
{consumergroup=__strimzi-topic-operator-kstreams},1651155022,0
{consumergroup=__strimzi-topic-operator-kstreams},1651155027,0
{consumergroup=__strimzi-topic-operator-kstreams},1651155032,0
{consumergroup=__strimzi-topic-operator-kstreams},1651155037,0
{consumergroup=__strimzi-topic-operator-kstreams},1651155042,0
{consumergroup=__strimzi-topic-operator-kstreams},1651155047,0
{consumergroup=__strimzi-topic-operator-kstreams},1651155052,0
{consumergroup=__strimzi-topic-operator-kstreams},1651155057,0
{consumergroup=__strimzi-topic-operator-kstreams},1651155062,0
{consumergroup=__strimzi-topic-operator-kstreams},1651155067,0
{consumergroup=__strimzi-topic-operator-kstreams},1651155072,0
{consumergroup=__strimzi-topic-operator-kstreams},1651155077,0
{consumergroup=__strimzi-topic-operator-kstreams},1651155082,0
{consumergroup=__strimzi-topic-operator-kstreams},1651155087,0
{consumergroup=__strimzi-topic-operator-kstreams},1651155092,0
{consumergroup=__strimzi-topic-operator-kstreams},1651155097,0
{consumergroup=trace-service},1651154632,517
{consumergroup=trace-service},1651154637,517
{consumergroup=trace-service},1651154642,517
{consumergroup=trace-service},1651154647,20720
{consumergroup=trace-service},1651154652,20720
{consumergroup=trace-service},1651154657,20720
{consumergroup=trace-service},1651154662,39191
{consumergroup=trace-service},1651154667,39191
{consumergroup=trace-service},1651154672,39191
{consumergroup=trace-service},1651154677,21806
{consumergroup=trace-service},1651154682,21806
{consumergroup=trace-service},1651154687,21806
{consumergroup=trace-service},1651154692,31361
{consumergroup=trace-service},1651154697,31361
{consumergroup=trace-service},1651154702,31361
{consumergroup=trace-service},1651154707,24127
{consumergroup=trace-service},1651154712,24127
{consumergroup=trace-service},1651154717,24127
{consumergroup=trace-service},1651154722,33170
{consumergroup=trace-service},1651154727,33170
{consumergroup=trace-service},1651154732,33170
{consumergroup=trace-service},1651154737,24612
{consumergroup=trace-service},1651154742,24612
{consumergroup=trace-service},1651154747,24612
{consumergroup=trace-service},1651154752,56628
{consumergroup=trace-service},1651154757,56628
{consumergroup=trace-service},1651154762,56628
{consumergroup=trace-service},1651154767,22714
{consumergroup=trace-service},1651154772,22714
{consumergroup=trace-service},1651154777,22714
{consumergroup=trace-service},1651154782,56852
{consumergroup=trace-service},1651154787,56852
{consumergroup=trace-service},1651154792,56852
{consumergroup=trace-service},1651154797,22886
{consumergroup=trace-service},1651154802,22886
{consumergroup=trace-service},1651154807,22886
{consumergroup=trace-service},1651154812,46009
{consumergroup=trace-service},1651154817,46009
{consumergroup=trace-service},1651154822,46009
{consumergroup=trace-service},1651154827,23335
{consumergroup=trace-service},1651154832,23335
{consumergroup=trace-service},1651154837,23335
{consumergroup=trace-service},1651154842,44699
{consumergroup=trace-service},1651154847,44699
{consumergroup=trace-service},1651154852,44699
{consumergroup=trace-service},1651154857,23896
{consumergroup=trace-service},1651154862,23896
{consumergroup=trace-service},1651154867,23896
{consumergroup=trace-service},1651154872,50506
{consumergroup=trace-service},1651154877,50506
{consumergroup=trace-service},1651154882,50506
{consumergroup=trace-service},1651154887,21836
{consumergroup=trace-service},1651154892,21836
{consumergroup=trace-service},1651154897,21836
{consumergroup=trace-service},1651154902,35540
{consumergroup=trace-service},1651154907,35540
{consumergroup=trace-service},1651154912,35540
{consumergroup=trace-service},1651154917,68180
{consumergroup=trace-service},1651154922,68180
{consumergroup=trace-service},1651154927,68180
{consumergroup=trace-service},1651154932,55216
{consumergroup=trace-service},1651154937,55216
{consumergroup=trace-service},1651154942,55216
{consumergroup=trace-service},1651154947,25218
{consumergroup=trace-service},1651154952,25218
{consumergroup=trace-service},1651154957,25218
{consumergroup=trace-service},1651154962,67089
{consumergroup=trace-service},1651154967,67089
{consumergroup=trace-service},1651154972,67089
{consumergroup=trace-service},1651154977,20319
{consumergroup=trace-service},1651154982,20319
{consumergroup=trace-service},1651154987,20319
{consumergroup=trace-service},1651154992,44602
{consumergroup=trace-service},1651154997,44602
{consumergroup=trace-service},1651155002,44602
{consumergroup=trace-service},1651155007,21763
{consumergroup=trace-service},1651155012,21763
{consumergroup=trace-service},1651155017,21763
{consumergroup=trace-service},1651155022,30448
{consumergroup=trace-service},1651155027,30448
{consumergroup=trace-service},1651155032,30448
{consumergroup=trace-service},1651155037,24205
{consumergroup=trace-service},1651155042,24205
{consumergroup=trace-service},1651155047,24205
{consumergroup=trace-service},1651155052,56186
{consumergroup=trace-service},1651155057,56186
{consumergroup=trace-service},1651155062,56186
{consumergroup=trace-service},1651155067,24166
{consumergroup=trace-service},1651155072,24166
{consumergroup=trace-service},1651155077,24166
{consumergroup=trace-service},1651155082,49652
{consumergroup=trace-service},1651155087,49652
{consumergroup=trace-service},1651155092,49652
{consumergroup=trace-service},1651155097,53288
{consumergroup=trace-token-events-consumer},1651154632,0
{consumergroup=trace-token-events-consumer},1651154637,0
{consumergroup=trace-token-events-consumer},1651154642,0
{consumergroup=trace-token-events-consumer},1651154647,0
{consumergroup=trace-token-events-consumer},1651154652,0
{consumergroup=trace-token-events-consumer},1651154657,0
{consumergroup=trace-token-events-consumer},1651154662,0
{consumergroup=trace-token-events-consumer},1651154667,0
{consumergroup=trace-token-events-consumer},1651154672,0
{consumergroup=trace-token-events-consumer},1651154677,0
{consumergroup=trace-token-events-consumer},1651154682,0
{consumergroup=trace-token-events-consumer},1651154687,0
{consumergroup=trace-token-events-consumer},1651154692,0
{consumergroup=trace-token-events-consumer},1651154697,0
{consumergroup=trace-token-events-consumer},1651154702,0
{consumergroup=trace-token-events-consumer},1651154707,0
{consumergroup=trace-token-events-consumer},1651154712,0
{consumergroup=trace-token-events-consumer},1651154717,0
{consumergroup=trace-token-events-consumer},1651154722,0
{consumergroup=trace-token-events-consumer},1651154727,0
{consumergroup=trace-token-events-consumer},1651154732,0
{consumergroup=trace-token-events-consumer},1651154737,0
{consumergroup=trace-token-events-consumer},1651154742,0
{consumergroup=trace-token-events-consumer},1651154747,0
{consumergroup=trace-token-events-consumer},1651154752,0
{consumergroup=trace-token-events-consumer},1651154757,0
{consumergroup=trace-token-events-consumer},1651154762,0
{consumergroup=trace-token-events-consumer},1651154767,0
{consumergroup=trace-token-events-consumer},1651154772,0
{consumergroup=trace-token-events-consumer},1651154777,0
{consumergroup=trace-token-events-consumer},1651154782,0
{consumergroup=trace-token-events-consumer},1651154787,0
{consumergroup=trace-token-events-consumer},1651154792,0
{consumergroup=trace-token-events-consumer},1651154797,0
{consumergroup=trace-token-events-consumer},1651154802,0
{consumergroup=trace-token-events-consumer},1651154807,0
{consumergroup=trace-token-events-consumer},1651154812,0
{consumergroup=trace-token-events-consumer},1651154817,0
{consumergroup=trace-token-events-consumer},1651154822,0
{consumergroup=trace-token-events-consumer},1651154827,0
{consumergroup=trace-token-events-consumer},1651154832,0
{consumergroup=trace-token-events-consumer},1651154837,0
{consumergroup=trace-token-events-consumer},1651154842,0
{consumergroup=trace-token-events-consumer},1651154847,0
{consumergroup=trace-token-events-consumer},1651154852,0
{consumergroup=trace-token-events-consumer},1651154857,0
{consumergroup=trace-token-events-consumer},1651154862,0
{consumergroup=trace-token-events-consumer},1651154867,0
{consumergroup=trace-token-events-consumer},1651154872,0
{consumergroup=trace-token-events-consumer},1651154877,0
{consumergroup=trace-token-events-consumer},1651154882,0
{consumergroup=trace-token-events-consumer},1651154887,0
{consumergroup=trace-token-events-consumer},1651154892,0
{consumergroup=trace-token-events-consumer},1651154897,0
{consumergroup=trace-token-events-consumer},1651154902,0
{consumergroup=trace-token-events-consumer},1651154907,0
{consumergroup=trace-token-events-consumer},1651154912,0
{consumergroup=trace-token-events-consumer},1651154917,0
{consumergroup=trace-token-events-consumer},1651154922,0
{consumergroup=trace-token-events-consumer},1651154927,0
{consumergroup=trace-token-events-consumer},1651154932,0
{consumergroup=trace-token-events-consumer},1651154937,0
{consumergroup=trace-token-events-consumer},1651154942,0
{consumergroup=trace-token-events-consumer},1651154947,0
{consumergroup=trace-token-events-consumer},1651154952,0
{consumergroup=trace-token-events-consumer},1651154957,0
{consumergroup=trace-token-events-consumer},1651154962,0
{consumergroup=trace-token-events-consumer},1651154967,0
{consumergroup=trace-token-events-consumer},1651154972,0
{consumergroup=trace-token-events-consumer},1651154977,0
{consumergroup=trace-token-events-consumer},1651154982,0
{consumergroup=trace-token-events-consumer},1651154987,0
{consumergroup=trace-token-events-consumer},1651154992,0
{consumergroup=trace-token-events-consumer},1651154997,0
{consumergroup=trace-token-events-consumer},1651155002,0
{consumergroup=trace-token-events-consumer},1651155007,0
{consumergroup=trace-token-events-consumer},1651155012,0
{consumergroup=trace-token-events-consumer},1651155017,0
{consumergroup=trace-token-events-consumer},1651155022,0
{consumergroup=trace-token-events-consumer},1651155027,0
{consumergroup=trace-token-events-consumer},1651155032,0
{consumergroup=trace-token-events-consumer},1651155037,0
{consumergroup=trace-token-events-consumer},1651155042,0
{consumergroup=trace-token-events-consumer},1651155047,0
{consumergroup=trace-token-events-consumer},1651155052,0
{consumergroup=trace-token-events-consumer},1651155057,0
{consumergroup=trace-token-events-consumer},1651155062,0
{consumergroup=trace-token-events-consumer},1651155067,0
{consumergroup=trace-token-events-consumer},1651155072,0
{consumergroup=trace-token-events-consumer},1651155077,0
{consumergroup=trace-token-events-consumer},1651155082,0
{consumergroup=trace-token-events-consumer},1651155087,0
{consumergroup=trace-token-events-consumer},1651155092,0
{consumergroup=trace-token-events-consumer},1651155097,0
