labels,timestamp,value
{job=theodolite-stu200776/trace-isolated-podmonitor},1651160885,0
{job=theodolite-stu200776/trace-isolated-podmonitor},1651160890,0
{job=theodolite-stu200776/trace-isolated-podmonitor},1651160895,0
{job=theodolite-stu200776/trace-isolated-podmonitor},1651160900,0
{job=theodolite-stu200776/trace-isolated-podmonitor},1651160905,0
{job=theodolite-stu200776/trace-isolated-podmonitor},1651160910,0
{job=theodolite-stu200776/trace-isolated-podmonitor},1651160915,0
{job=theodolite-stu200776/trace-isolated-podmonitor},1651160920,0
{job=theodolite-stu200776/trace-isolated-podmonitor},1651160925,0
{job=theodolite-stu200776/trace-isolated-podmonitor},1651160930,0
{job=theodolite-stu200776/trace-isolated-podmonitor},1651160935,0
{job=theodolite-stu200776/trace-isolated-podmonitor},1651160940,0
{job=theodolite-stu200776/trace-isolated-podmonitor},1651160945,0
{job=theodolite-stu200776/trace-isolated-podmonitor},1651160950,0
{job=theodolite-stu200776/trace-isolated-podmonitor},1651160955,0
{job=theodolite-stu200776/trace-isolated-podmonitor},1651160960,0
{job=theodolite-stu200776/trace-isolated-podmonitor},1651160965,0
{job=theodolite-stu200776/trace-isolated-podmonitor},1651160970,0
{job=theodolite-stu200776/trace-isolated-podmonitor},1651160975,0
{job=theodolite-stu200776/trace-isolated-podmonitor},1651160980,0
{job=theodolite-stu200776/trace-isolated-podmonitor},1651160985,0
{job=theodolite-stu200776/trace-isolated-podmonitor},1651160990,0
{job=theodolite-stu200776/trace-isolated-podmonitor},1651160995,0
{job=theodolite-stu200776/trace-isolated-podmonitor},1651161000,0
{job=theodolite-stu200776/trace-isolated-podmonitor},1651161005,0
{job=theodolite-stu200776/trace-isolated-podmonitor},1651161010,0
{job=theodolite-stu200776/trace-isolated-podmonitor},1651161015,0
{job=theodolite-stu200776/trace-isolated-podmonitor},1651161020,0
{job=theodolite-stu200776/trace-isolated-podmonitor},1651161025,0
{job=theodolite-stu200776/trace-isolated-podmonitor},1651161030,0
{job=theodolite-stu200776/trace-isolated-podmonitor},1651161035,20.041493041514222
{job=theodolite-stu200776/trace-isolated-podmonitor},1651161040,55.25810423986791
{job=theodolite-stu200776/trace-isolated-podmonitor},1651161045,66.0245474759367
{job=theodolite-stu200776/trace-isolated-podmonitor},1651161050,84.94262071142654
{job=theodolite-stu200776/trace-isolated-podmonitor},1651161055,88.13842862474527
{job=theodolite-stu200776/trace-isolated-podmonitor},1651161060,81.2248004818301
{job=theodolite-stu200776/trace-isolated-podmonitor},1651161065,80.67690625875659
{job=theodolite-stu200776/trace-isolated-podmonitor},1651161070,64.85655632063886
{job=theodolite-stu200776/trace-isolated-podmonitor},1651161075,52.87153486283118
{job=theodolite-stu200776/trace-isolated-podmonitor},1651161080,38.240751147269705
{job=theodolite-stu200776/trace-isolated-podmonitor},1651161085,31.122728187939288
{job=theodolite-stu200776/trace-isolated-podmonitor},1651161090,19.11667430880729
{job=theodolite-stu200776/trace-isolated-podmonitor},1651161095,15.276509252362892
{job=theodolite-stu200776/trace-isolated-podmonitor},1651161100,14.341416180269112
{job=theodolite-stu200776/trace-isolated-podmonitor},1651161105,10.482035466742264
{job=theodolite-stu200776/trace-isolated-podmonitor},1651161110,6.653259780718857
{job=theodolite-stu200776/trace-isolated-podmonitor},1651161115,2.452454574035485
{job=theodolite-stu200776/trace-isolated-podmonitor},1651161120,2.452454574035485
{job=theodolite-stu200776/trace-isolated-podmonitor},1651161125,74.79841290336972
{job=theodolite-stu200776/trace-isolated-podmonitor},1651161130,453.62243828948385
{job=theodolite-stu200776/trace-isolated-podmonitor},1651161135,657.0473521208404
{job=theodolite-stu200776/trace-isolated-podmonitor},1651161140,619.8287063327172
{job=theodolite-stu200776/trace-isolated-podmonitor},1651161145,650.8163971817419
{job=theodolite-stu200776/trace-isolated-podmonitor},1651161150,630.1244397844102
{job=theodolite-stu200776/trace-isolated-podmonitor},1651161155,649.6082314032491
{job=theodolite-stu200776/trace-isolated-podmonitor},1651161160,801.0758196166677
{job=theodolite-stu200776/trace-isolated-podmonitor},1651161165,730.3435837413974
{job=theodolite-stu200776/trace-isolated-podmonitor},1651161170,599.8736338121134
{job=theodolite-stu200776/trace-isolated-podmonitor},1651161175,523.3009961103205
{job=theodolite-stu200776/trace-isolated-podmonitor},1651161180,461.2098798672382
{job=theodolite-stu200776/trace-isolated-podmonitor},1651161185,373.97992523215623
{job=theodolite-stu200776/trace-isolated-podmonitor},1651161190,94.1599809904444
{job=theodolite-stu200776/trace-isolated-podmonitor},1651161195,3.8748342432018186
{job=theodolite-stu200776/trace-isolated-podmonitor},1651161200,3.8748342432018186
{job=theodolite-stu200776/trace-isolated-podmonitor},1651161205,0
{job=theodolite-stu200776/trace-isolated-podmonitor},1651161210,0
{job=theodolite-stu200776/trace-isolated-podmonitor},1651161215,0
{job=theodolite-stu200776/trace-isolated-podmonitor},1651161220,0
{job=theodolite-stu200776/trace-isolated-podmonitor},1651161225,0
{job=theodolite-stu200776/trace-isolated-podmonitor},1651161230,0
{job=theodolite-stu200776/trace-isolated-podmonitor},1651161235,0
{job=theodolite-stu200776/trace-isolated-podmonitor},1651161240,0
{job=theodolite-stu200776/trace-isolated-podmonitor},1651161245,6.6276748789638855
{job=theodolite-stu200776/trace-isolated-podmonitor},1651161250,600.2750238774915
{job=theodolite-stu200776/trace-isolated-podmonitor},1651161255,1164.9515455536655
{job=theodolite-stu200776/trace-isolated-podmonitor},1651161260,1319.6837416433464
{job=theodolite-stu200776/trace-isolated-podmonitor},1651161265,1252.6212478768393
{job=theodolite-stu200776/trace-isolated-podmonitor},1651161270,1108.8465139274917
{job=theodolite-stu200776/trace-isolated-podmonitor},1651161275,1149.2485384541058
{job=theodolite-stu200776/trace-isolated-podmonitor},1651161280,1366.4951871683863
{job=theodolite-stu200776/trace-isolated-podmonitor},1651161285,1435.1778191922065
{job=theodolite-stu200776/trace-isolated-podmonitor},1651161290,1335.483109759738
{job=theodolite-stu200776/trace-isolated-podmonitor},1651161295,1166.3702802087037
{job=theodolite-stu200776/trace-isolated-podmonitor},1651161300,985.8655222966374
{job=theodolite-stu200776/trace-isolated-podmonitor},1651161305,804.0561052152908
{job=theodolite-stu200776/trace-isolated-podmonitor},1651161310,369.532676449901
{job=theodolite-stu200776/trace-isolated-podmonitor},1651161315,107.1285637432172
