labels,timestamp,value
{consumergroup=__strimzi-topic-operator-kstreams},1651179573,8
{consumergroup=__strimzi-topic-operator-kstreams},1651179578,8
{consumergroup=__strimzi-topic-operator-kstreams},1651179583,8
{consumergroup=__strimzi-topic-operator-kstreams},1651179588,10
{consumergroup=__strimzi-topic-operator-kstreams},1651179593,10
{consumergroup=__strimzi-topic-operator-kstreams},1651179598,10
{consumergroup=__strimzi-topic-operator-kstreams},1651179603,0
{consumergroup=__strimzi-topic-operator-kstreams},1651179608,0
{consumergroup=__strimzi-topic-operator-kstreams},1651179613,0
{consumergroup=__strimzi-topic-operator-kstreams},1651179618,0
{consumergroup=__strimzi-topic-operator-kstreams},1651179623,0
{consumergroup=__strimzi-topic-operator-kstreams},1651179628,0
{consumergroup=__strimzi-topic-operator-kstreams},1651179633,0
{consumergroup=__strimzi-topic-operator-kstreams},1651179638,0
{consumergroup=__strimzi-topic-operator-kstreams},1651179643,0
{consumergroup=__strimzi-topic-operator-kstreams},1651179648,1
{consumergroup=__strimzi-topic-operator-kstreams},1651179653,1
{consumergroup=__strimzi-topic-operator-kstreams},1651179658,1
{consumergroup=__strimzi-topic-operator-kstreams},1651179663,0
{consumergroup=__strimzi-topic-operator-kstreams},1651179668,0
{consumergroup=__strimzi-topic-operator-kstreams},1651179673,0
{consumergroup=__strimzi-topic-operator-kstreams},1651179678,0
{consumergroup=__strimzi-topic-operator-kstreams},1651179683,0
{consumergroup=__strimzi-topic-operator-kstreams},1651179688,0
{consumergroup=__strimzi-topic-operator-kstreams},1651179693,0
{consumergroup=__strimzi-topic-operator-kstreams},1651179698,0
{consumergroup=__strimzi-topic-operator-kstreams},1651179703,0
{consumergroup=__strimzi-topic-operator-kstreams},1651179708,0
{consumergroup=__strimzi-topic-operator-kstreams},1651179713,0
{consumergroup=__strimzi-topic-operator-kstreams},1651179718,0
{consumergroup=__strimzi-topic-operator-kstreams},1651179723,0
{consumergroup=__strimzi-topic-operator-kstreams},1651179728,0
{consumergroup=__strimzi-topic-operator-kstreams},1651179733,0
{consumergroup=__strimzi-topic-operator-kstreams},1651179738,0
{consumergroup=__strimzi-topic-operator-kstreams},1651179743,0
{consumergroup=__strimzi-topic-operator-kstreams},1651179748,0
{consumergroup=__strimzi-topic-operator-kstreams},1651179753,0
{consumergroup=__strimzi-topic-operator-kstreams},1651179758,0
{consumergroup=__strimzi-topic-operator-kstreams},1651179763,0
{consumergroup=__strimzi-topic-operator-kstreams},1651179768,0
{consumergroup=__strimzi-topic-operator-kstreams},1651179773,0
{consumergroup=__strimzi-topic-operator-kstreams},1651179778,0
{consumergroup=__strimzi-topic-operator-kstreams},1651179783,0
{consumergroup=__strimzi-topic-operator-kstreams},1651179788,0
{consumergroup=__strimzi-topic-operator-kstreams},1651179793,0
{consumergroup=__strimzi-topic-operator-kstreams},1651179798,0
{consumergroup=__strimzi-topic-operator-kstreams},1651179803,0
{consumergroup=__strimzi-topic-operator-kstreams},1651179808,0
{consumergroup=__strimzi-topic-operator-kstreams},1651179813,0
{consumergroup=__strimzi-topic-operator-kstreams},1651179818,0
{consumergroup=__strimzi-topic-operator-kstreams},1651179823,0
{consumergroup=__strimzi-topic-operator-kstreams},1651179828,0
{consumergroup=__strimzi-topic-operator-kstreams},1651179833,0
{consumergroup=__strimzi-topic-operator-kstreams},1651179838,0
{consumergroup=__strimzi-topic-operator-kstreams},1651179843,0
{consumergroup=__strimzi-topic-operator-kstreams},1651179848,0
{consumergroup=__strimzi-topic-operator-kstreams},1651179853,0
{consumergroup=__strimzi-topic-operator-kstreams},1651179858,0
{consumergroup=__strimzi-topic-operator-kstreams},1651179863,0
{consumergroup=__strimzi-topic-operator-kstreams},1651179868,0
{consumergroup=__strimzi-topic-operator-kstreams},1651179873,0
{consumergroup=__strimzi-topic-operator-kstreams},1651179878,0
{consumergroup=__strimzi-topic-operator-kstreams},1651179883,0
{consumergroup=__strimzi-topic-operator-kstreams},1651179888,0
{consumergroup=__strimzi-topic-operator-kstreams},1651179893,0
{consumergroup=__strimzi-topic-operator-kstreams},1651179898,0
{consumergroup=__strimzi-topic-operator-kstreams},1651179903,0
{consumergroup=__strimzi-topic-operator-kstreams},1651179908,0
{consumergroup=__strimzi-topic-operator-kstreams},1651179913,0
{consumergroup=__strimzi-topic-operator-kstreams},1651179918,0
{consumergroup=__strimzi-topic-operator-kstreams},1651179923,0
{consumergroup=__strimzi-topic-operator-kstreams},1651179928,0
{consumergroup=__strimzi-topic-operator-kstreams},1651179933,0
{consumergroup=__strimzi-topic-operator-kstreams},1651179938,0
{consumergroup=__strimzi-topic-operator-kstreams},1651179943,0
{consumergroup=__strimzi-topic-operator-kstreams},1651179948,0
{consumergroup=__strimzi-topic-operator-kstreams},1651179953,0
{consumergroup=__strimzi-topic-operator-kstreams},1651179958,0
{consumergroup=__strimzi-topic-operator-kstreams},1651179963,0
{consumergroup=__strimzi-topic-operator-kstreams},1651179968,0
{consumergroup=__strimzi-topic-operator-kstreams},1651179973,0
{consumergroup=__strimzi-topic-operator-kstreams},1651179978,0
{consumergroup=__strimzi-topic-operator-kstreams},1651179983,0
{consumergroup=__strimzi-topic-operator-kstreams},1651179988,0
{consumergroup=__strimzi-topic-operator-kstreams},1651179993,0
{consumergroup=__strimzi-topic-operator-kstreams},1651179998,0
{consumergroup=__strimzi-topic-operator-kstreams},1651180003,0
{consumergroup=__strimzi-topic-operator-kstreams},1651180008,0
{consumergroup=__strimzi-topic-operator-kstreams},1651180013,0
{consumergroup=__strimzi-topic-operator-kstreams},1651180018,0
{consumergroup=__strimzi-topic-operator-kstreams},1651180023,0
{consumergroup=__strimzi-topic-operator-kstreams},1651180028,0
{consumergroup=__strimzi-topic-operator-kstreams},1651180033,0
{consumergroup=__strimzi-topic-operator-kstreams},1651180038,0
{consumergroup=__strimzi-topic-operator-kstreams},1651180043,0
{consumergroup=__strimzi-topic-operator-kstreams},1651180048,0
{consumergroup=__strimzi-topic-operator-kstreams},1651180053,0
{consumergroup=__strimzi-topic-operator-kstreams},1651180058,0
{consumergroup=__strimzi-topic-operator-kstreams},1651180063,0
{consumergroup=trace-service},1651179603,7712
{consumergroup=trace-service},1651179608,7712
{consumergroup=trace-service},1651179613,7712
{consumergroup=trace-service},1651179618,36733
{consumergroup=trace-service},1651179623,36733
{consumergroup=trace-service},1651179628,36733
{consumergroup=trace-service},1651179633,16384
{consumergroup=trace-service},1651179638,16384
{consumergroup=trace-service},1651179643,16384
{consumergroup=trace-service},1651179648,37436
{consumergroup=trace-service},1651179653,37436
{consumergroup=trace-service},1651179658,37436
{consumergroup=trace-service},1651179663,20140
{consumergroup=trace-service},1651179668,20140
{consumergroup=trace-service},1651179673,20140
{consumergroup=trace-service},1651179678,40808
{consumergroup=trace-service},1651179683,40808
{consumergroup=trace-service},1651179688,40808
{consumergroup=trace-service},1651179693,17044
{consumergroup=trace-service},1651179698,17044
{consumergroup=trace-service},1651179703,17044
{consumergroup=trace-service},1651179708,40962
{consumergroup=trace-service},1651179713,40962
{consumergroup=trace-service},1651179718,40962
{consumergroup=trace-service},1651179723,19825
{consumergroup=trace-service},1651179728,19825
{consumergroup=trace-service},1651179733,19825
{consumergroup=trace-service},1651179738,44984
{consumergroup=trace-service},1651179743,44984
{consumergroup=trace-service},1651179748,44984
{consumergroup=trace-service},1651179753,15025
{consumergroup=trace-service},1651179758,15025
{consumergroup=trace-service},1651179763,15025
{consumergroup=trace-service},1651179768,44068
{consumergroup=trace-service},1651179773,44068
{consumergroup=trace-service},1651179778,44068
{consumergroup=trace-service},1651179783,8667
{consumergroup=trace-service},1651179788,8667
{consumergroup=trace-service},1651179793,8667
{consumergroup=trace-service},1651179798,38126
{consumergroup=trace-service},1651179803,38126
{consumergroup=trace-service},1651179808,38126
{consumergroup=trace-service},1651179813,12615
{consumergroup=trace-service},1651179818,12615
{consumergroup=trace-service},1651179823,12615
{consumergroup=trace-service},1651179828,40883
{consumergroup=trace-service},1651179833,40883
{consumergroup=trace-service},1651179838,40883
{consumergroup=trace-service},1651179843,15874
{consumergroup=trace-service},1651179848,15874
{consumergroup=trace-service},1651179853,15874
{consumergroup=trace-service},1651179858,40294
{consumergroup=trace-service},1651179863,40294
{consumergroup=trace-service},1651179868,40294
{consumergroup=trace-service},1651179873,15556
{consumergroup=trace-service},1651179878,15556
{consumergroup=trace-service},1651179883,15556
{consumergroup=trace-service},1651179888,37656
{consumergroup=trace-service},1651179893,37656
{consumergroup=trace-service},1651179898,37656
{consumergroup=trace-service},1651179903,9502
{consumergroup=trace-service},1651179908,9502
{consumergroup=trace-service},1651179913,9502
{consumergroup=trace-service},1651179918,45331
{consumergroup=trace-service},1651179923,45331
{consumergroup=trace-service},1651179928,45331
{consumergroup=trace-service},1651179933,11016
{consumergroup=trace-service},1651179938,11016
{consumergroup=trace-service},1651179943,11016
{consumergroup=trace-service},1651179948,38194
{consumergroup=trace-service},1651179953,38194
{consumergroup=trace-service},1651179958,38194
{consumergroup=trace-service},1651179963,42618
{consumergroup=trace-service},1651179968,42618
{consumergroup=trace-service},1651179973,42618
{consumergroup=trace-service},1651179978,47082
{consumergroup=trace-service},1651179983,47082
{consumergroup=trace-service},1651179988,47082
{consumergroup=trace-service},1651179993,15281
{consumergroup=trace-service},1651179998,15281
{consumergroup=trace-service},1651180003,15281
{consumergroup=trace-service},1651180008,45769
{consumergroup=trace-service},1651180013,45769
{consumergroup=trace-service},1651180018,45769
{consumergroup=trace-service},1651180023,17968
{consumergroup=trace-service},1651180028,17968
{consumergroup=trace-service},1651180033,17968
{consumergroup=trace-service},1651180038,38041
{consumergroup=trace-service},1651180043,38041
{consumergroup=trace-service},1651180048,38041
{consumergroup=trace-service},1651180053,21994
{consumergroup=trace-service},1651180058,21994
{consumergroup=trace-service},1651180063,21994
{consumergroup=trace-token-events-consumer},1651179603,0
{consumergroup=trace-token-events-consumer},1651179608,0
{consumergroup=trace-token-events-consumer},1651179613,0
{consumergroup=trace-token-events-consumer},1651179618,0
{consumergroup=trace-token-events-consumer},1651179623,0
{consumergroup=trace-token-events-consumer},1651179628,0
{consumergroup=trace-token-events-consumer},1651179633,0
{consumergroup=trace-token-events-consumer},1651179638,0
{consumergroup=trace-token-events-consumer},1651179643,0
{consumergroup=trace-token-events-consumer},1651179648,0
{consumergroup=trace-token-events-consumer},1651179653,0
{consumergroup=trace-token-events-consumer},1651179658,0
{consumergroup=trace-token-events-consumer},1651179663,0
{consumergroup=trace-token-events-consumer},1651179668,0
{consumergroup=trace-token-events-consumer},1651179673,0
{consumergroup=trace-token-events-consumer},1651179678,0
{consumergroup=trace-token-events-consumer},1651179683,0
{consumergroup=trace-token-events-consumer},1651179688,0
{consumergroup=trace-token-events-consumer},1651179693,0
{consumergroup=trace-token-events-consumer},1651179698,0
{consumergroup=trace-token-events-consumer},1651179703,0
{consumergroup=trace-token-events-consumer},1651179708,0
{consumergroup=trace-token-events-consumer},1651179713,0
{consumergroup=trace-token-events-consumer},1651179718,0
{consumergroup=trace-token-events-consumer},1651179723,0
{consumergroup=trace-token-events-consumer},1651179728,0
{consumergroup=trace-token-events-consumer},1651179733,0
{consumergroup=trace-token-events-consumer},1651179738,0
{consumergroup=trace-token-events-consumer},1651179743,0
{consumergroup=trace-token-events-consumer},1651179748,0
{consumergroup=trace-token-events-consumer},1651179753,0
{consumergroup=trace-token-events-consumer},1651179758,0
{consumergroup=trace-token-events-consumer},1651179763,0
{consumergroup=trace-token-events-consumer},1651179768,0
{consumergroup=trace-token-events-consumer},1651179773,0
{consumergroup=trace-token-events-consumer},1651179778,0
{consumergroup=trace-token-events-consumer},1651179783,0
{consumergroup=trace-token-events-consumer},1651179788,0
{consumergroup=trace-token-events-consumer},1651179793,0
{consumergroup=trace-token-events-consumer},1651179798,0
{consumergroup=trace-token-events-consumer},1651179803,0
{consumergroup=trace-token-events-consumer},1651179808,0
{consumergroup=trace-token-events-consumer},1651179813,0
{consumergroup=trace-token-events-consumer},1651179818,0
{consumergroup=trace-token-events-consumer},1651179823,0
{consumergroup=trace-token-events-consumer},1651179828,0
{consumergroup=trace-token-events-consumer},1651179833,0
{consumergroup=trace-token-events-consumer},1651179838,0
{consumergroup=trace-token-events-consumer},1651179843,0
{consumergroup=trace-token-events-consumer},1651179848,0
{consumergroup=trace-token-events-consumer},1651179853,0
{consumergroup=trace-token-events-consumer},1651179858,0
{consumergroup=trace-token-events-consumer},1651179863,0
{consumergroup=trace-token-events-consumer},1651179868,0
{consumergroup=trace-token-events-consumer},1651179873,0
{consumergroup=trace-token-events-consumer},1651179878,0
{consumergroup=trace-token-events-consumer},1651179883,0
{consumergroup=trace-token-events-consumer},1651179888,0
{consumergroup=trace-token-events-consumer},1651179893,0
{consumergroup=trace-token-events-consumer},1651179898,0
{consumergroup=trace-token-events-consumer},1651179903,0
{consumergroup=trace-token-events-consumer},1651179908,0
{consumergroup=trace-token-events-consumer},1651179913,0
{consumergroup=trace-token-events-consumer},1651179918,0
{consumergroup=trace-token-events-consumer},1651179923,0
{consumergroup=trace-token-events-consumer},1651179928,0
{consumergroup=trace-token-events-consumer},1651179933,0
{consumergroup=trace-token-events-consumer},1651179938,0
{consumergroup=trace-token-events-consumer},1651179943,0
{consumergroup=trace-token-events-consumer},1651179948,0
{consumergroup=trace-token-events-consumer},1651179953,0
{consumergroup=trace-token-events-consumer},1651179958,0
{consumergroup=trace-token-events-consumer},1651179963,0
{consumergroup=trace-token-events-consumer},1651179968,0
{consumergroup=trace-token-events-consumer},1651179973,0
{consumergroup=trace-token-events-consumer},1651179978,0
{consumergroup=trace-token-events-consumer},1651179983,0
{consumergroup=trace-token-events-consumer},1651179988,0
{consumergroup=trace-token-events-consumer},1651179993,0
{consumergroup=trace-token-events-consumer},1651179998,0
{consumergroup=trace-token-events-consumer},1651180003,0
{consumergroup=trace-token-events-consumer},1651180008,0
{consumergroup=trace-token-events-consumer},1651180013,0
{consumergroup=trace-token-events-consumer},1651180018,0
{consumergroup=trace-token-events-consumer},1651180023,0
{consumergroup=trace-token-events-consumer},1651180028,0
{consumergroup=trace-token-events-consumer},1651180033,0
{consumergroup=trace-token-events-consumer},1651180038,0
{consumergroup=trace-token-events-consumer},1651180043,0
{consumergroup=trace-token-events-consumer},1651180048,0
{consumergroup=trace-token-events-consumer},1651180053,0
{consumergroup=trace-token-events-consumer},1651180058,0
{consumergroup=trace-token-events-consumer},1651180063,0
