labels,timestamp,value
{consumergroup=__strimzi-topic-operator-kstreams},1651202269,4
{consumergroup=__strimzi-topic-operator-kstreams},1651202274,4
{consumergroup=__strimzi-topic-operator-kstreams},1651202279,4
{consumergroup=__strimzi-topic-operator-kstreams},1651202284,0
{consumergroup=__strimzi-topic-operator-kstreams},1651202289,0
{consumergroup=__strimzi-topic-operator-kstreams},1651202294,0
{consumergroup=__strimzi-topic-operator-kstreams},1651202299,2
{consumergroup=__strimzi-topic-operator-kstreams},1651202304,2
{consumergroup=__strimzi-topic-operator-kstreams},1651202309,2
{consumergroup=__strimzi-topic-operator-kstreams},1651202314,0
{consumergroup=__strimzi-topic-operator-kstreams},1651202319,0
{consumergroup=__strimzi-topic-operator-kstreams},1651202324,0
{consumergroup=__strimzi-topic-operator-kstreams},1651202329,0
{consumergroup=__strimzi-topic-operator-kstreams},1651202334,0
{consumergroup=__strimzi-topic-operator-kstreams},1651202339,0
{consumergroup=__strimzi-topic-operator-kstreams},1651202344,0
{consumergroup=__strimzi-topic-operator-kstreams},1651202349,0
{consumergroup=__strimzi-topic-operator-kstreams},1651202354,0
{consumergroup=__strimzi-topic-operator-kstreams},1651202359,0
{consumergroup=__strimzi-topic-operator-kstreams},1651202364,0
{consumergroup=__strimzi-topic-operator-kstreams},1651202369,0
{consumergroup=__strimzi-topic-operator-kstreams},1651202374,0
{consumergroup=__strimzi-topic-operator-kstreams},1651202379,0
{consumergroup=__strimzi-topic-operator-kstreams},1651202384,0
{consumergroup=__strimzi-topic-operator-kstreams},1651202389,1
{consumergroup=__strimzi-topic-operator-kstreams},1651202394,1
{consumergroup=__strimzi-topic-operator-kstreams},1651202399,1
{consumergroup=__strimzi-topic-operator-kstreams},1651202404,0
{consumergroup=__strimzi-topic-operator-kstreams},1651202409,0
{consumergroup=__strimzi-topic-operator-kstreams},1651202414,0
{consumergroup=__strimzi-topic-operator-kstreams},1651202419,0
{consumergroup=__strimzi-topic-operator-kstreams},1651202424,0
{consumergroup=__strimzi-topic-operator-kstreams},1651202429,0
{consumergroup=__strimzi-topic-operator-kstreams},1651202434,0
{consumergroup=__strimzi-topic-operator-kstreams},1651202439,0
{consumergroup=__strimzi-topic-operator-kstreams},1651202444,0
{consumergroup=__strimzi-topic-operator-kstreams},1651202449,0
{consumergroup=__strimzi-topic-operator-kstreams},1651202454,0
{consumergroup=__strimzi-topic-operator-kstreams},1651202459,0
{consumergroup=__strimzi-topic-operator-kstreams},1651202464,0
{consumergroup=__strimzi-topic-operator-kstreams},1651202469,0
{consumergroup=__strimzi-topic-operator-kstreams},1651202474,0
{consumergroup=__strimzi-topic-operator-kstreams},1651202479,0
{consumergroup=__strimzi-topic-operator-kstreams},1651202484,0
{consumergroup=__strimzi-topic-operator-kstreams},1651202489,0
{consumergroup=__strimzi-topic-operator-kstreams},1651202494,0
{consumergroup=__strimzi-topic-operator-kstreams},1651202499,0
{consumergroup=__strimzi-topic-operator-kstreams},1651202504,0
{consumergroup=__strimzi-topic-operator-kstreams},1651202509,0
{consumergroup=__strimzi-topic-operator-kstreams},1651202514,0
{consumergroup=__strimzi-topic-operator-kstreams},1651202519,0
{consumergroup=__strimzi-topic-operator-kstreams},1651202524,0
{consumergroup=__strimzi-topic-operator-kstreams},1651202529,0
{consumergroup=__strimzi-topic-operator-kstreams},1651202534,0
{consumergroup=__strimzi-topic-operator-kstreams},1651202539,0
{consumergroup=__strimzi-topic-operator-kstreams},1651202544,0
{consumergroup=__strimzi-topic-operator-kstreams},1651202549,0
{consumergroup=__strimzi-topic-operator-kstreams},1651202554,0
{consumergroup=__strimzi-topic-operator-kstreams},1651202559,0
{consumergroup=__strimzi-topic-operator-kstreams},1651202564,0
{consumergroup=__strimzi-topic-operator-kstreams},1651202569,0
{consumergroup=__strimzi-topic-operator-kstreams},1651202574,0
{consumergroup=__strimzi-topic-operator-kstreams},1651202579,0
{consumergroup=__strimzi-topic-operator-kstreams},1651202584,0
{consumergroup=__strimzi-topic-operator-kstreams},1651202589,0
{consumergroup=__strimzi-topic-operator-kstreams},1651202594,0
{consumergroup=__strimzi-topic-operator-kstreams},1651202599,0
{consumergroup=__strimzi-topic-operator-kstreams},1651202604,0
{consumergroup=__strimzi-topic-operator-kstreams},1651202609,0
{consumergroup=__strimzi-topic-operator-kstreams},1651202614,0
{consumergroup=__strimzi-topic-operator-kstreams},1651202619,0
{consumergroup=__strimzi-topic-operator-kstreams},1651202624,0
{consumergroup=__strimzi-topic-operator-kstreams},1651202629,0
{consumergroup=__strimzi-topic-operator-kstreams},1651202634,0
{consumergroup=__strimzi-topic-operator-kstreams},1651202639,0
{consumergroup=__strimzi-topic-operator-kstreams},1651202644,0
{consumergroup=__strimzi-topic-operator-kstreams},1651202649,0
{consumergroup=__strimzi-topic-operator-kstreams},1651202654,0
{consumergroup=__strimzi-topic-operator-kstreams},1651202659,0
{consumergroup=__strimzi-topic-operator-kstreams},1651202664,0
{consumergroup=__strimzi-topic-operator-kstreams},1651202669,0
{consumergroup=__strimzi-topic-operator-kstreams},1651202674,0
{consumergroup=__strimzi-topic-operator-kstreams},1651202679,0
{consumergroup=__strimzi-topic-operator-kstreams},1651202684,0
{consumergroup=__strimzi-topic-operator-kstreams},1651202689,0
{consumergroup=__strimzi-topic-operator-kstreams},1651202694,0
{consumergroup=__strimzi-topic-operator-kstreams},1651202699,0
{consumergroup=__strimzi-topic-operator-kstreams},1651202704,0
{consumergroup=__strimzi-topic-operator-kstreams},1651202709,0
{consumergroup=__strimzi-topic-operator-kstreams},1651202714,0
{consumergroup=__strimzi-topic-operator-kstreams},1651202719,0
{consumergroup=__strimzi-topic-operator-kstreams},1651202724,0
{consumergroup=__strimzi-topic-operator-kstreams},1651202729,0
{consumergroup=__strimzi-topic-operator-kstreams},1651202734,0
{consumergroup=__strimzi-topic-operator-kstreams},1651202739,0
{consumergroup=__strimzi-topic-operator-kstreams},1651202744,0
{consumergroup=__strimzi-topic-operator-kstreams},1651202749,0
{consumergroup=__strimzi-topic-operator-kstreams},1651202754,0
{consumergroup=__strimzi-topic-operator-kstreams},1651202759,0
{consumergroup=__strimzi-topic-operator-kstreams},1651202764,0
{consumergroup=__strimzi-topic-operator-kstreams},1651202769,0
{consumergroup=trace-service},1651202314,18174
{consumergroup=trace-service},1651202319,18174
{consumergroup=trace-service},1651202324,18174
{consumergroup=trace-service},1651202329,46888
{consumergroup=trace-service},1651202334,46888
{consumergroup=trace-service},1651202339,46888
{consumergroup=trace-service},1651202344,13048
{consumergroup=trace-service},1651202349,13048
{consumergroup=trace-service},1651202354,13048
{consumergroup=trace-service},1651202359,52204
{consumergroup=trace-service},1651202364,52204
{consumergroup=trace-service},1651202369,52204
{consumergroup=trace-service},1651202374,32464
{consumergroup=trace-service},1651202379,32464
{consumergroup=trace-service},1651202384,32464
{consumergroup=trace-service},1651202389,52676
{consumergroup=trace-service},1651202394,52676
{consumergroup=trace-service},1651202399,52676
{consumergroup=trace-service},1651202404,59353
{consumergroup=trace-service},1651202409,59353
{consumergroup=trace-service},1651202414,59353
{consumergroup=trace-service},1651202419,64642
{consumergroup=trace-service},1651202424,64642
{consumergroup=trace-service},1651202429,64642
{consumergroup=trace-service},1651202434,121424
{consumergroup=trace-service},1651202439,121424
{consumergroup=trace-service},1651202444,121424
{consumergroup=trace-service},1651202449,92343
{consumergroup=trace-service},1651202454,92343
{consumergroup=trace-service},1651202459,92343
{consumergroup=trace-service},1651202464,104165
{consumergroup=trace-service},1651202469,104165
{consumergroup=trace-service},1651202474,104165
{consumergroup=trace-service},1651202479,103391
{consumergroup=trace-service},1651202484,103391
{consumergroup=trace-service},1651202489,103391
{consumergroup=trace-service},1651202494,103957
{consumergroup=trace-service},1651202499,103957
{consumergroup=trace-service},1651202504,103957
{consumergroup=trace-service},1651202509,41921
{consumergroup=trace-service},1651202514,41921
{consumergroup=trace-service},1651202519,41921
{consumergroup=trace-service},1651202524,21640
{consumergroup=trace-service},1651202529,21640
{consumergroup=trace-service},1651202534,21640
{consumergroup=trace-service},1651202539,51921
{consumergroup=trace-service},1651202544,51921
{consumergroup=trace-service},1651202549,51921
{consumergroup=trace-service},1651202554,119226
{consumergroup=trace-service},1651202559,119226
{consumergroup=trace-service},1651202564,119226
{consumergroup=trace-service},1651202569,94538
{consumergroup=trace-service},1651202574,94538
{consumergroup=trace-service},1651202579,94538
{consumergroup=trace-service},1651202584,103450
{consumergroup=trace-service},1651202589,103450
{consumergroup=trace-service},1651202594,103450
{consumergroup=trace-service},1651202599,111730
{consumergroup=trace-service},1651202604,111730
{consumergroup=trace-service},1651202609,111730
{consumergroup=trace-service},1651202614,22344
{consumergroup=trace-service},1651202619,22344
{consumergroup=trace-service},1651202624,22344
{consumergroup=trace-service},1651202629,50062
{consumergroup=trace-service},1651202634,50062
{consumergroup=trace-service},1651202639,50062
{consumergroup=trace-service},1651202644,70710
{consumergroup=trace-service},1651202649,70710
{consumergroup=trace-service},1651202654,70710
{consumergroup=trace-service},1651202659,63945
{consumergroup=trace-service},1651202664,63945
{consumergroup=trace-service},1651202669,63945
{consumergroup=trace-service},1651202674,65252
{consumergroup=trace-service},1651202679,65252
{consumergroup=trace-service},1651202684,65252
{consumergroup=trace-service},1651202689,82872
{consumergroup=trace-service},1651202694,82872
{consumergroup=trace-service},1651202699,82872
{consumergroup=trace-service},1651202704,96739
{consumergroup=trace-service},1651202709,96739
{consumergroup=trace-service},1651202714,96739
{consumergroup=trace-service},1651202719,37131
{consumergroup=trace-service},1651202724,37131
{consumergroup=trace-service},1651202729,37131
{consumergroup=trace-service},1651202734,20770
{consumergroup=trace-service},1651202739,20770
{consumergroup=trace-service},1651202744,20770
{consumergroup=trace-service},1651202749,51150
{consumergroup=trace-service},1651202754,51150
{consumergroup=trace-service},1651202759,51150
{consumergroup=trace-service},1651202764,77710
{consumergroup=trace-service},1651202769,77710
{consumergroup=trace-token-events-consumer},1651202314,0
{consumergroup=trace-token-events-consumer},1651202319,0
{consumergroup=trace-token-events-consumer},1651202324,0
{consumergroup=trace-token-events-consumer},1651202329,0
{consumergroup=trace-token-events-consumer},1651202334,0
{consumergroup=trace-token-events-consumer},1651202339,0
{consumergroup=trace-token-events-consumer},1651202344,0
{consumergroup=trace-token-events-consumer},1651202349,0
{consumergroup=trace-token-events-consumer},1651202354,0
{consumergroup=trace-token-events-consumer},1651202359,0
{consumergroup=trace-token-events-consumer},1651202364,0
{consumergroup=trace-token-events-consumer},1651202369,0
{consumergroup=trace-token-events-consumer},1651202374,0
{consumergroup=trace-token-events-consumer},1651202379,0
{consumergroup=trace-token-events-consumer},1651202384,0
{consumergroup=trace-token-events-consumer},1651202389,0
{consumergroup=trace-token-events-consumer},1651202394,0
{consumergroup=trace-token-events-consumer},1651202399,0
{consumergroup=trace-token-events-consumer},1651202404,0
{consumergroup=trace-token-events-consumer},1651202409,0
{consumergroup=trace-token-events-consumer},1651202414,0
{consumergroup=trace-token-events-consumer},1651202419,0
{consumergroup=trace-token-events-consumer},1651202424,0
{consumergroup=trace-token-events-consumer},1651202429,0
{consumergroup=trace-token-events-consumer},1651202434,0
{consumergroup=trace-token-events-consumer},1651202439,0
{consumergroup=trace-token-events-consumer},1651202444,0
{consumergroup=trace-token-events-consumer},1651202449,0
{consumergroup=trace-token-events-consumer},1651202454,0
{consumergroup=trace-token-events-consumer},1651202459,0
{consumergroup=trace-token-events-consumer},1651202464,0
{consumergroup=trace-token-events-consumer},1651202469,0
{consumergroup=trace-token-events-consumer},1651202474,0
{consumergroup=trace-token-events-consumer},1651202479,0
{consumergroup=trace-token-events-consumer},1651202484,0
{consumergroup=trace-token-events-consumer},1651202489,0
{consumergroup=trace-token-events-consumer},1651202494,0
{consumergroup=trace-token-events-consumer},1651202499,0
{consumergroup=trace-token-events-consumer},1651202504,0
{consumergroup=trace-token-events-consumer},1651202509,0
{consumergroup=trace-token-events-consumer},1651202514,0
{consumergroup=trace-token-events-consumer},1651202519,0
{consumergroup=trace-token-events-consumer},1651202524,0
{consumergroup=trace-token-events-consumer},1651202529,0
{consumergroup=trace-token-events-consumer},1651202534,0
{consumergroup=trace-token-events-consumer},1651202539,0
{consumergroup=trace-token-events-consumer},1651202544,0
{consumergroup=trace-token-events-consumer},1651202549,0
{consumergroup=trace-token-events-consumer},1651202554,0
{consumergroup=trace-token-events-consumer},1651202559,0
{consumergroup=trace-token-events-consumer},1651202564,0
{consumergroup=trace-token-events-consumer},1651202569,0
{consumergroup=trace-token-events-consumer},1651202574,0
{consumergroup=trace-token-events-consumer},1651202579,0
{consumergroup=trace-token-events-consumer},1651202584,0
{consumergroup=trace-token-events-consumer},1651202589,0
{consumergroup=trace-token-events-consumer},1651202594,0
{consumergroup=trace-token-events-consumer},1651202599,0
{consumergroup=trace-token-events-consumer},1651202604,0
{consumergroup=trace-token-events-consumer},1651202609,0
{consumergroup=trace-token-events-consumer},1651202614,0
{consumergroup=trace-token-events-consumer},1651202619,0
{consumergroup=trace-token-events-consumer},1651202624,0
{consumergroup=trace-token-events-consumer},1651202629,0
{consumergroup=trace-token-events-consumer},1651202634,0
{consumergroup=trace-token-events-consumer},1651202639,0
{consumergroup=trace-token-events-consumer},1651202644,0
{consumergroup=trace-token-events-consumer},1651202649,0
{consumergroup=trace-token-events-consumer},1651202654,0
{consumergroup=trace-token-events-consumer},1651202659,0
{consumergroup=trace-token-events-consumer},1651202664,0
{consumergroup=trace-token-events-consumer},1651202669,0
{consumergroup=trace-token-events-consumer},1651202674,0
{consumergroup=trace-token-events-consumer},1651202679,0
{consumergroup=trace-token-events-consumer},1651202684,0
{consumergroup=trace-token-events-consumer},1651202689,0
{consumergroup=trace-token-events-consumer},1651202694,0
{consumergroup=trace-token-events-consumer},1651202699,0
{consumergroup=trace-token-events-consumer},1651202704,0
{consumergroup=trace-token-events-consumer},1651202709,0
{consumergroup=trace-token-events-consumer},1651202714,0
{consumergroup=trace-token-events-consumer},1651202719,0
{consumergroup=trace-token-events-consumer},1651202724,0
{consumergroup=trace-token-events-consumer},1651202729,0
{consumergroup=trace-token-events-consumer},1651202734,0
{consumergroup=trace-token-events-consumer},1651202739,0
{consumergroup=trace-token-events-consumer},1651202744,0
{consumergroup=trace-token-events-consumer},1651202749,0
{consumergroup=trace-token-events-consumer},1651202754,0
{consumergroup=trace-token-events-consumer},1651202759,0
{consumergroup=trace-token-events-consumer},1651202764,0
{consumergroup=trace-token-events-consumer},1651202769,0
