labels,timestamp,value
{consumergroup=__strimzi-topic-operator-kstreams},1651088377,2
{consumergroup=__strimzi-topic-operator-kstreams},1651088382,2
{consumergroup=__strimzi-topic-operator-kstreams},1651088387,2
{consumergroup=__strimzi-topic-operator-kstreams},1651088392,0
{consumergroup=__strimzi-topic-operator-kstreams},1651088397,0
{consumergroup=__strimzi-topic-operator-kstreams},1651088402,0
{consumergroup=__strimzi-topic-operator-kstreams},1651088407,0
{consumergroup=__strimzi-topic-operator-kstreams},1651088412,0
{consumergroup=__strimzi-topic-operator-kstreams},1651088417,0
{consumergroup=__strimzi-topic-operator-kstreams},1651088422,0
{consumergroup=__strimzi-topic-operator-kstreams},1651088427,0
{consumergroup=__strimzi-topic-operator-kstreams},1651088432,0
{consumergroup=__strimzi-topic-operator-kstreams},1651088437,0
{consumergroup=__strimzi-topic-operator-kstreams},1651088442,0
{consumergroup=__strimzi-topic-operator-kstreams},1651088447,0
{consumergroup=__strimzi-topic-operator-kstreams},1651088452,0
{consumergroup=__strimzi-topic-operator-kstreams},1651088457,0
{consumergroup=__strimzi-topic-operator-kstreams},1651088462,0
{consumergroup=__strimzi-topic-operator-kstreams},1651088467,0
{consumergroup=__strimzi-topic-operator-kstreams},1651088472,0
{consumergroup=__strimzi-topic-operator-kstreams},1651088477,0
{consumergroup=__strimzi-topic-operator-kstreams},1651088482,0
{consumergroup=__strimzi-topic-operator-kstreams},1651088487,0
{consumergroup=__strimzi-topic-operator-kstreams},1651088492,0
{consumergroup=__strimzi-topic-operator-kstreams},1651088497,0
{consumergroup=__strimzi-topic-operator-kstreams},1651088502,0
{consumergroup=__strimzi-topic-operator-kstreams},1651088507,0
{consumergroup=__strimzi-topic-operator-kstreams},1651088512,0
{consumergroup=__strimzi-topic-operator-kstreams},1651088517,0
{consumergroup=__strimzi-topic-operator-kstreams},1651088522,0
{consumergroup=__strimzi-topic-operator-kstreams},1651088527,0
{consumergroup=__strimzi-topic-operator-kstreams},1651088532,0
{consumergroup=__strimzi-topic-operator-kstreams},1651088537,0
{consumergroup=__strimzi-topic-operator-kstreams},1651088542,0
{consumergroup=__strimzi-topic-operator-kstreams},1651088547,0
{consumergroup=__strimzi-topic-operator-kstreams},1651088552,0
{consumergroup=__strimzi-topic-operator-kstreams},1651088557,0
{consumergroup=__strimzi-topic-operator-kstreams},1651088562,0
{consumergroup=__strimzi-topic-operator-kstreams},1651088567,0
{consumergroup=__strimzi-topic-operator-kstreams},1651088572,0
{consumergroup=__strimzi-topic-operator-kstreams},1651088577,0
{consumergroup=__strimzi-topic-operator-kstreams},1651088582,0
{consumergroup=__strimzi-topic-operator-kstreams},1651088587,0
{consumergroup=__strimzi-topic-operator-kstreams},1651088592,0
{consumergroup=__strimzi-topic-operator-kstreams},1651088597,0
{consumergroup=__strimzi-topic-operator-kstreams},1651088602,0
{consumergroup=__strimzi-topic-operator-kstreams},1651088607,0
{consumergroup=__strimzi-topic-operator-kstreams},1651088612,0
{consumergroup=__strimzi-topic-operator-kstreams},1651088617,0
{consumergroup=__strimzi-topic-operator-kstreams},1651088622,0
{consumergroup=__strimzi-topic-operator-kstreams},1651088627,0
{consumergroup=__strimzi-topic-operator-kstreams},1651088632,0
{consumergroup=__strimzi-topic-operator-kstreams},1651088637,0
{consumergroup=__strimzi-topic-operator-kstreams},1651088642,0
{consumergroup=__strimzi-topic-operator-kstreams},1651088647,0
{consumergroup=__strimzi-topic-operator-kstreams},1651088652,0
{consumergroup=__strimzi-topic-operator-kstreams},1651088657,0
{consumergroup=__strimzi-topic-operator-kstreams},1651088662,0
{consumergroup=__strimzi-topic-operator-kstreams},1651088667,0
{consumergroup=__strimzi-topic-operator-kstreams},1651088672,0
{consumergroup=__strimzi-topic-operator-kstreams},1651088677,0
{consumergroup=__strimzi-topic-operator-kstreams},1651088682,0
{consumergroup=__strimzi-topic-operator-kstreams},1651088687,0
{consumergroup=__strimzi-topic-operator-kstreams},1651088692,0
{consumergroup=__strimzi-topic-operator-kstreams},1651088697,0
{consumergroup=landscape-service},1651088422,137350
{consumergroup=landscape-service},1651088427,137350
{consumergroup=landscape-service},1651088432,137350
{consumergroup=landscape-service},1651088437,1239770
{consumergroup=landscape-service},1651088442,1239770
{consumergroup=landscape-service},1651088447,1239770
{consumergroup=landscape-service},1651088452,1846646
{consumergroup=landscape-service},1651088457,1846646
{consumergroup=landscape-service},1651088462,1846646
{consumergroup=landscape-service},1651088467,2235248
{consumergroup=landscape-service},1651088472,2235248
{consumergroup=landscape-service},1651088477,2235248
{consumergroup=landscape-service},1651088482,2573523
{consumergroup=landscape-service},1651088487,2573523
{consumergroup=landscape-service},1651088492,2573523
{consumergroup=landscape-service},1651088497,2794844
{consumergroup=landscape-service},1651088502,2794844
{consumergroup=landscape-service},1651088507,2794844
{consumergroup=landscape-service},1651088512,2941125
{consumergroup=landscape-service},1651088517,2941125
{consumergroup=landscape-service},1651088522,2941125
{consumergroup=landscape-service},1651088527,3082780
{consumergroup=landscape-service},1651088532,3082780
{consumergroup=landscape-service},1651088537,3082780
{consumergroup=landscape-service},1651088542,3208731
{consumergroup=landscape-service},1651088547,3208731
{consumergroup=landscape-service},1651088552,3208731
{consumergroup=landscape-service},1651088557,3439487
{consumergroup=landscape-service},1651088562,3439487
{consumergroup=landscape-service},1651088567,3439487
{consumergroup=landscape-service},1651088572,3425309
{consumergroup=landscape-service},1651088577,3425309
{consumergroup=landscape-service},1651088582,3425309
{consumergroup=landscape-service},1651088587,3651782
{consumergroup=landscape-service},1651088592,3651782
{consumergroup=landscape-service},1651088597,3651782
{consumergroup=landscape-service},1651088602,3716861
{consumergroup=landscape-service},1651088607,3716861
{consumergroup=landscape-service},1651088612,3716861
{consumergroup=landscape-service},1651088617,3857511
{consumergroup=landscape-service},1651088622,3857511
{consumergroup=landscape-service},1651088627,3857511
{consumergroup=landscape-service},1651088632,3916164
{consumergroup=landscape-service},1651088637,3916164
{consumergroup=landscape-service},1651088642,3916164
{consumergroup=landscape-service},1651088647,4042204
{consumergroup=landscape-service},1651088652,4042204
{consumergroup=landscape-service},1651088657,4042204
{consumergroup=landscape-service},1651088662,4086412
{consumergroup=landscape-service},1651088667,4086412
{consumergroup=landscape-service},1651088672,4086412
{consumergroup=landscape-service},1651088677,4297901
{consumergroup=landscape-service},1651088682,4297901
{consumergroup=landscape-service},1651088687,4297901
{consumergroup=landscape-service},1651088692,4355288
{consumergroup=landscape-service},1651088697,4355288
