labels,timestamp,value
{job=theodolite-stu200776/trace-isolated-podmonitor},1651148493,0
{job=theodolite-stu200776/trace-isolated-podmonitor},1651148498,0
{job=theodolite-stu200776/trace-isolated-podmonitor},1651148503,0
{job=theodolite-stu200776/trace-isolated-podmonitor},1651148508,0
{job=theodolite-stu200776/trace-isolated-podmonitor},1651148513,0
{job=theodolite-stu200776/trace-isolated-podmonitor},1651148518,0
{job=theodolite-stu200776/trace-isolated-podmonitor},1651148523,0
{job=theodolite-stu200776/trace-isolated-podmonitor},1651148528,0
{job=theodolite-stu200776/trace-isolated-podmonitor},1651148533,0
{job=theodolite-stu200776/trace-isolated-podmonitor},1651148538,0
{job=theodolite-stu200776/trace-isolated-podmonitor},1651148543,0
{job=theodolite-stu200776/trace-isolated-podmonitor},1651148548,0
{job=theodolite-stu200776/trace-isolated-podmonitor},1651148553,0
{job=theodolite-stu200776/trace-isolated-podmonitor},1651148558,0
{job=theodolite-stu200776/trace-isolated-podmonitor},1651148563,0
{job=theodolite-stu200776/trace-isolated-podmonitor},1651148568,0
{job=theodolite-stu200776/trace-isolated-podmonitor},1651148573,0
{job=theodolite-stu200776/trace-isolated-podmonitor},1651148578,0
{job=theodolite-stu200776/trace-isolated-podmonitor},1651148583,0
{job=theodolite-stu200776/trace-isolated-podmonitor},1651148588,0
{job=theodolite-stu200776/trace-isolated-podmonitor},1651148593,0
{job=theodolite-stu200776/trace-isolated-podmonitor},1651148598,0
{job=theodolite-stu200776/trace-isolated-podmonitor},1651148603,0
{job=theodolite-stu200776/trace-isolated-podmonitor},1651148608,0
{job=theodolite-stu200776/trace-isolated-podmonitor},1651148613,0
{job=theodolite-stu200776/trace-isolated-podmonitor},1651148618,0
{job=theodolite-stu200776/trace-isolated-podmonitor},1651148623,0
{job=theodolite-stu200776/trace-isolated-podmonitor},1651148628,0
{job=theodolite-stu200776/trace-isolated-podmonitor},1651148633,0
{job=theodolite-stu200776/trace-isolated-podmonitor},1651148638,0
{job=theodolite-stu200776/trace-isolated-podmonitor},1651148643,0
{job=theodolite-stu200776/trace-isolated-podmonitor},1651148648,0
{job=theodolite-stu200776/trace-isolated-podmonitor},1651148653,0
{job=theodolite-stu200776/trace-isolated-podmonitor},1651148658,0
{job=theodolite-stu200776/trace-isolated-podmonitor},1651148663,0
{job=theodolite-stu200776/trace-isolated-podmonitor},1651148668,0
{job=theodolite-stu200776/trace-isolated-podmonitor},1651148673,0
{job=theodolite-stu200776/trace-isolated-podmonitor},1651148678,0
{job=theodolite-stu200776/trace-isolated-podmonitor},1651148683,0
{job=theodolite-stu200776/trace-isolated-podmonitor},1651148688,0
{job=theodolite-stu200776/trace-isolated-podmonitor},1651148693,0
{job=theodolite-stu200776/trace-isolated-podmonitor},1651148698,0
{job=theodolite-stu200776/trace-isolated-podmonitor},1651148703,0
{job=theodolite-stu200776/trace-isolated-podmonitor},1651148708,0
{job=theodolite-stu200776/trace-isolated-podmonitor},1651148713,0
{job=theodolite-stu200776/trace-isolated-podmonitor},1651148718,0
{job=theodolite-stu200776/trace-isolated-podmonitor},1651148723,0
{job=theodolite-stu200776/trace-isolated-podmonitor},1651148728,0
{job=theodolite-stu200776/trace-isolated-podmonitor},1651148733,0
{job=theodolite-stu200776/trace-isolated-podmonitor},1651148738,0
{job=theodolite-stu200776/trace-isolated-podmonitor},1651148743,0
