labels,timestamp,value
{consumergroup=__strimzi-topic-operator-kstreams},1651110727,8
{consumergroup=__strimzi-topic-operator-kstreams},1651110732,8
{consumergroup=__strimzi-topic-operator-kstreams},1651110737,8
{consumergroup=__strimzi-topic-operator-kstreams},1651110742,0
{consumergroup=__strimzi-topic-operator-kstreams},1651110747,0
{consumergroup=__strimzi-topic-operator-kstreams},1651110752,0
{consumergroup=__strimzi-topic-operator-kstreams},1651110757,0
{consumergroup=__strimzi-topic-operator-kstreams},1651110762,0
{consumergroup=__strimzi-topic-operator-kstreams},1651110767,0
{consumergroup=__strimzi-topic-operator-kstreams},1651110772,0
{consumergroup=__strimzi-topic-operator-kstreams},1651110777,0
{consumergroup=__strimzi-topic-operator-kstreams},1651110782,0
{consumergroup=__strimzi-topic-operator-kstreams},1651110787,0
{consumergroup=__strimzi-topic-operator-kstreams},1651110792,0
{consumergroup=__strimzi-topic-operator-kstreams},1651110797,0
{consumergroup=__strimzi-topic-operator-kstreams},1651110802,0
{consumergroup=__strimzi-topic-operator-kstreams},1651110807,0
{consumergroup=__strimzi-topic-operator-kstreams},1651110812,0
{consumergroup=__strimzi-topic-operator-kstreams},1651110817,0
{consumergroup=__strimzi-topic-operator-kstreams},1651110822,0
{consumergroup=__strimzi-topic-operator-kstreams},1651110827,0
{consumergroup=__strimzi-topic-operator-kstreams},1651110832,0
{consumergroup=__strimzi-topic-operator-kstreams},1651110837,0
{consumergroup=__strimzi-topic-operator-kstreams},1651110842,0
{consumergroup=__strimzi-topic-operator-kstreams},1651110847,0
{consumergroup=__strimzi-topic-operator-kstreams},1651110852,0
{consumergroup=__strimzi-topic-operator-kstreams},1651110857,0
{consumergroup=__strimzi-topic-operator-kstreams},1651110862,0
{consumergroup=__strimzi-topic-operator-kstreams},1651110867,0
{consumergroup=__strimzi-topic-operator-kstreams},1651110872,0
{consumergroup=__strimzi-topic-operator-kstreams},1651110877,0
{consumergroup=__strimzi-topic-operator-kstreams},1651110882,0
{consumergroup=__strimzi-topic-operator-kstreams},1651110887,0
{consumergroup=__strimzi-topic-operator-kstreams},1651110892,0
{consumergroup=__strimzi-topic-operator-kstreams},1651110897,0
{consumergroup=__strimzi-topic-operator-kstreams},1651110902,0
{consumergroup=__strimzi-topic-operator-kstreams},1651110907,0
{consumergroup=__strimzi-topic-operator-kstreams},1651110912,0
{consumergroup=__strimzi-topic-operator-kstreams},1651110917,0
{consumergroup=__strimzi-topic-operator-kstreams},1651110922,0
{consumergroup=__strimzi-topic-operator-kstreams},1651110927,0
{consumergroup=__strimzi-topic-operator-kstreams},1651110932,0
{consumergroup=__strimzi-topic-operator-kstreams},1651110937,0
{consumergroup=__strimzi-topic-operator-kstreams},1651110942,0
{consumergroup=__strimzi-topic-operator-kstreams},1651110947,0
{consumergroup=__strimzi-topic-operator-kstreams},1651110952,0
{consumergroup=__strimzi-topic-operator-kstreams},1651110957,0
{consumergroup=__strimzi-topic-operator-kstreams},1651110962,0
{consumergroup=__strimzi-topic-operator-kstreams},1651110967,0
{consumergroup=__strimzi-topic-operator-kstreams},1651110972,0
{consumergroup=__strimzi-topic-operator-kstreams},1651110977,0
{consumergroup=__strimzi-topic-operator-kstreams},1651110982,0
{consumergroup=__strimzi-topic-operator-kstreams},1651110987,0
{consumergroup=__strimzi-topic-operator-kstreams},1651110992,0
{consumergroup=__strimzi-topic-operator-kstreams},1651110997,0
{consumergroup=__strimzi-topic-operator-kstreams},1651111002,0
{consumergroup=__strimzi-topic-operator-kstreams},1651111007,0
{consumergroup=__strimzi-topic-operator-kstreams},1651111012,0
{consumergroup=__strimzi-topic-operator-kstreams},1651111017,0
{consumergroup=__strimzi-topic-operator-kstreams},1651111022,0
{consumergroup=__strimzi-topic-operator-kstreams},1651111027,0
{consumergroup=__strimzi-topic-operator-kstreams},1651111032,0
{consumergroup=__strimzi-topic-operator-kstreams},1651111037,0
{consumergroup=landscape-service},1651110757,22939
{consumergroup=landscape-service},1651110762,22939
{consumergroup=landscape-service},1651110767,22939
{consumergroup=landscape-service},1651110772,2626566
{consumergroup=landscape-service},1651110777,2626566
{consumergroup=landscape-service},1651110782,2626566
{consumergroup=landscape-service},1651110787,4008775
{consumergroup=landscape-service},1651110792,4008775
{consumergroup=landscape-service},1651110797,4008775
{consumergroup=landscape-service},1651110802,4878710
{consumergroup=landscape-service},1651110807,4878710
{consumergroup=landscape-service},1651110812,4878710
{consumergroup=landscape-service},1651110817,5367561
{consumergroup=landscape-service},1651110822,5367561
{consumergroup=landscape-service},1651110827,5367561
{consumergroup=landscape-service},1651110832,5740894
{consumergroup=landscape-service},1651110837,5740894
{consumergroup=landscape-service},1651110842,5740894
{consumergroup=landscape-service},1651110847,5782175
{consumergroup=landscape-service},1651110852,5782175
{consumergroup=landscape-service},1651110857,5782175
{consumergroup=landscape-service},1651110862,6006578
{consumergroup=landscape-service},1651110867,6006578
{consumergroup=landscape-service},1651110872,6006578
{consumergroup=landscape-service},1651110877,6136130
{consumergroup=landscape-service},1651110882,6136130
{consumergroup=landscape-service},1651110887,6136130
{consumergroup=landscape-service},1651110892,6564198
{consumergroup=landscape-service},1651110897,6564198
{consumergroup=landscape-service},1651110902,6564198
{consumergroup=landscape-service},1651110907,6606795
{consumergroup=landscape-service},1651110912,6606795
{consumergroup=landscape-service},1651110917,6606795
{consumergroup=landscape-service},1651110922,6852857
{consumergroup=landscape-service},1651110927,6852857
{consumergroup=landscape-service},1651110932,6852857
{consumergroup=landscape-service},1651110937,6931863
{consumergroup=landscape-service},1651110942,6931863
{consumergroup=landscape-service},1651110947,6931863
{consumergroup=landscape-service},1651110952,7114036
{consumergroup=landscape-service},1651110957,7114036
{consumergroup=landscape-service},1651110962,7114036
{consumergroup=landscape-service},1651110967,7124758
{consumergroup=landscape-service},1651110972,7124758
{consumergroup=landscape-service},1651110977,7124758
{consumergroup=landscape-service},1651110982,7408213
{consumergroup=landscape-service},1651110987,7408213
{consumergroup=landscape-service},1651110992,7408213
{consumergroup=landscape-service},1651110997,7490779
{consumergroup=landscape-service},1651111002,7490779
{consumergroup=landscape-service},1651111007,7490779
{consumergroup=landscape-service},1651111012,7505908
{consumergroup=landscape-service},1651111017,7505908
{consumergroup=landscape-service},1651111022,7505908
{consumergroup=landscape-service},1651111027,7547966
{consumergroup=landscape-service},1651111032,7547966
{consumergroup=landscape-service},1651111037,7547966
