labels,timestamp,value
{job=theodolite-stu200776/trace-isolated-podmonitor},1651169933,0
{job=theodolite-stu200776/trace-isolated-podmonitor},1651169938,0
{job=theodolite-stu200776/trace-isolated-podmonitor},1651169943,0
{job=theodolite-stu200776/trace-isolated-podmonitor},1651169948,0
{job=theodolite-stu200776/trace-isolated-podmonitor},1651169953,0
{job=theodolite-stu200776/trace-isolated-podmonitor},1651169958,0
{job=theodolite-stu200776/trace-isolated-podmonitor},1651169963,0
{job=theodolite-stu200776/trace-isolated-podmonitor},1651169968,0
{job=theodolite-stu200776/trace-isolated-podmonitor},1651169973,0
{job=theodolite-stu200776/trace-isolated-podmonitor},1651169978,0
{job=theodolite-stu200776/trace-isolated-podmonitor},1651169983,0
{job=theodolite-stu200776/trace-isolated-podmonitor},1651169988,0
{job=theodolite-stu200776/trace-isolated-podmonitor},1651169993,0
{job=theodolite-stu200776/trace-isolated-podmonitor},1651169998,0
{job=theodolite-stu200776/trace-isolated-podmonitor},1651170003,0
{job=theodolite-stu200776/trace-isolated-podmonitor},1651170008,0
{job=theodolite-stu200776/trace-isolated-podmonitor},1651170013,0
{job=theodolite-stu200776/trace-isolated-podmonitor},1651170018,0
{job=theodolite-stu200776/trace-isolated-podmonitor},1651170023,0
{job=theodolite-stu200776/trace-isolated-podmonitor},1651170028,0
{job=theodolite-stu200776/trace-isolated-podmonitor},1651170033,0
{job=theodolite-stu200776/trace-isolated-podmonitor},1651170038,0
{job=theodolite-stu200776/trace-isolated-podmonitor},1651170043,0
{job=theodolite-stu200776/trace-isolated-podmonitor},1651170048,0
{job=theodolite-stu200776/trace-isolated-podmonitor},1651170053,0
{job=theodolite-stu200776/trace-isolated-podmonitor},1651170058,0
{job=theodolite-stu200776/trace-isolated-podmonitor},1651170063,0
{job=theodolite-stu200776/trace-isolated-podmonitor},1651170068,0
{job=theodolite-stu200776/trace-isolated-podmonitor},1651170073,0
{job=theodolite-stu200776/trace-isolated-podmonitor},1651170078,0
{job=theodolite-stu200776/trace-isolated-podmonitor},1651170083,0
{job=theodolite-stu200776/trace-isolated-podmonitor},1651170088,0
{job=theodolite-stu200776/trace-isolated-podmonitor},1651170093,0
{job=theodolite-stu200776/trace-isolated-podmonitor},1651170098,0
{job=theodolite-stu200776/trace-isolated-podmonitor},1651170103,0
{job=theodolite-stu200776/trace-isolated-podmonitor},1651170108,0
{job=theodolite-stu200776/trace-isolated-podmonitor},1651170113,0
{job=theodolite-stu200776/trace-isolated-podmonitor},1651170118,0
{job=theodolite-stu200776/trace-isolated-podmonitor},1651170123,13.618588128786284
{job=theodolite-stu200776/trace-isolated-podmonitor},1651170128,47.77796529882312
{job=theodolite-stu200776/trace-isolated-podmonitor},1651170133,74.74341961885122
{job=theodolite-stu200776/trace-isolated-podmonitor},1651170138,69.9927239260279
{job=theodolite-stu200776/trace-isolated-podmonitor},1651170143,64.84605908853445
{job=theodolite-stu200776/trace-isolated-podmonitor},1651170148,59.44945270597171
{job=theodolite-stu200776/trace-isolated-podmonitor},1651170153,69.00679695323885
{job=theodolite-stu200776/trace-isolated-podmonitor},1651170158,82.92932381399403
{job=theodolite-stu200776/trace-isolated-podmonitor},1651170163,82.29266072237596
{job=theodolite-stu200776/trace-isolated-podmonitor},1651170168,73.76051960670468
{job=theodolite-stu200776/trace-isolated-podmonitor},1651170173,62.95608974738729
{job=theodolite-stu200776/trace-isolated-podmonitor},1651170178,57.56576335226956
{job=theodolite-stu200776/trace-isolated-podmonitor},1651170183,37.47073618085655
{job=theodolite-stu200776/trace-isolated-podmonitor},1651170188,13.458601736239608
{job=theodolite-stu200776/trace-isolated-podmonitor},1651170193,0
{job=theodolite-stu200776/trace-isolated-podmonitor},1651170198,0
{job=theodolite-stu200776/trace-isolated-podmonitor},1651170203,0
{job=theodolite-stu200776/trace-isolated-podmonitor},1651170208,0
{job=theodolite-stu200776/trace-isolated-podmonitor},1651170213,0
{job=theodolite-stu200776/trace-isolated-podmonitor},1651170218,0
{job=theodolite-stu200776/trace-isolated-podmonitor},1651170223,0
{job=theodolite-stu200776/trace-isolated-podmonitor},1651170228,0
{job=theodolite-stu200776/trace-isolated-podmonitor},1651170233,0
{job=theodolite-stu200776/trace-isolated-podmonitor},1651170238,0
{job=theodolite-stu200776/trace-isolated-podmonitor},1651170243,15.196811607667183
{job=theodolite-stu200776/trace-isolated-podmonitor},1651170248,64.53919005607892
{job=theodolite-stu200776/trace-isolated-podmonitor},1651170253,148.5825304799422
{job=theodolite-stu200776/trace-isolated-podmonitor},1651170258,150.89044462628166
{job=theodolite-stu200776/trace-isolated-podmonitor},1651170263,134.01309892207348
{job=theodolite-stu200776/trace-isolated-podmonitor},1651170268,139.350240944945
{job=theodolite-stu200776/trace-isolated-podmonitor},1651170273,154.89186524308388
{job=theodolite-stu200776/trace-isolated-podmonitor},1651170278,184.23257183320445
{job=theodolite-stu200776/trace-isolated-podmonitor},1651170283,191.8029751016712
{job=theodolite-stu200776/trace-isolated-podmonitor},1651170288,175.46818627503444
{job=theodolite-stu200776/trace-isolated-podmonitor},1651170293,153.8957214499707
{job=theodolite-stu200776/trace-isolated-podmonitor},1651170298,140.89013990649048
{job=theodolite-stu200776/trace-isolated-podmonitor},1651170303,103.62423212939082
{job=theodolite-stu200776/trace-isolated-podmonitor},1651170308,50.81318990390795
{job=theodolite-stu200776/trace-isolated-podmonitor},1651170313,4.176728612143536
{job=theodolite-stu200776/trace-isolated-podmonitor},1651170318,0
{job=theodolite-stu200776/trace-isolated-podmonitor},1651170323,0
{job=theodolite-stu200776/trace-isolated-podmonitor},1651170328,0
{job=theodolite-stu200776/trace-isolated-podmonitor},1651170333,0
{job=theodolite-stu200776/trace-isolated-podmonitor},1651170338,0
{job=theodolite-stu200776/trace-isolated-podmonitor},1651170343,0
{job=theodolite-stu200776/trace-isolated-podmonitor},1651170348,0
{job=theodolite-stu200776/trace-isolated-podmonitor},1651170353,0
{job=theodolite-stu200776/trace-isolated-podmonitor},1651170358,0
