labels,timestamp,value
{consumergroup=__strimzi-topic-operator-kstreams},1651095085,8
{consumergroup=__strimzi-topic-operator-kstreams},1651095090,8
{consumergroup=__strimzi-topic-operator-kstreams},1651095095,8
{consumergroup=__strimzi-topic-operator-kstreams},1651095100,0
{consumergroup=__strimzi-topic-operator-kstreams},1651095105,0
{consumergroup=__strimzi-topic-operator-kstreams},1651095110,0
{consumergroup=__strimzi-topic-operator-kstreams},1651095115,0
{consumergroup=__strimzi-topic-operator-kstreams},1651095120,0
{consumergroup=__strimzi-topic-operator-kstreams},1651095125,0
{consumergroup=__strimzi-topic-operator-kstreams},1651095130,0
{consumergroup=__strimzi-topic-operator-kstreams},1651095135,0
{consumergroup=__strimzi-topic-operator-kstreams},1651095140,0
{consumergroup=__strimzi-topic-operator-kstreams},1651095145,0
{consumergroup=__strimzi-topic-operator-kstreams},1651095150,0
{consumergroup=__strimzi-topic-operator-kstreams},1651095155,0
{consumergroup=__strimzi-topic-operator-kstreams},1651095160,0
{consumergroup=__strimzi-topic-operator-kstreams},1651095165,0
{consumergroup=__strimzi-topic-operator-kstreams},1651095170,0
{consumergroup=__strimzi-topic-operator-kstreams},1651095175,0
{consumergroup=__strimzi-topic-operator-kstreams},1651095180,0
{consumergroup=__strimzi-topic-operator-kstreams},1651095185,0
{consumergroup=__strimzi-topic-operator-kstreams},1651095190,0
{consumergroup=__strimzi-topic-operator-kstreams},1651095195,0
{consumergroup=__strimzi-topic-operator-kstreams},1651095200,0
{consumergroup=__strimzi-topic-operator-kstreams},1651095205,0
{consumergroup=__strimzi-topic-operator-kstreams},1651095210,0
{consumergroup=__strimzi-topic-operator-kstreams},1651095215,0
{consumergroup=__strimzi-topic-operator-kstreams},1651095220,0
{consumergroup=__strimzi-topic-operator-kstreams},1651095225,0
{consumergroup=__strimzi-topic-operator-kstreams},1651095230,0
{consumergroup=__strimzi-topic-operator-kstreams},1651095235,0
{consumergroup=__strimzi-topic-operator-kstreams},1651095240,0
{consumergroup=__strimzi-topic-operator-kstreams},1651095245,0
{consumergroup=__strimzi-topic-operator-kstreams},1651095250,0
{consumergroup=__strimzi-topic-operator-kstreams},1651095255,0
{consumergroup=__strimzi-topic-operator-kstreams},1651095260,0
{consumergroup=__strimzi-topic-operator-kstreams},1651095265,0
{consumergroup=__strimzi-topic-operator-kstreams},1651095270,0
{consumergroup=__strimzi-topic-operator-kstreams},1651095275,0
{consumergroup=__strimzi-topic-operator-kstreams},1651095280,0
{consumergroup=__strimzi-topic-operator-kstreams},1651095285,0
{consumergroup=__strimzi-topic-operator-kstreams},1651095290,0
{consumergroup=__strimzi-topic-operator-kstreams},1651095295,0
{consumergroup=__strimzi-topic-operator-kstreams},1651095300,0
{consumergroup=__strimzi-topic-operator-kstreams},1651095305,0
{consumergroup=__strimzi-topic-operator-kstreams},1651095310,0
{consumergroup=__strimzi-topic-operator-kstreams},1651095315,0
{consumergroup=__strimzi-topic-operator-kstreams},1651095320,0
{consumergroup=__strimzi-topic-operator-kstreams},1651095325,0
{consumergroup=__strimzi-topic-operator-kstreams},1651095330,0
{consumergroup=__strimzi-topic-operator-kstreams},1651095335,0
{consumergroup=__strimzi-topic-operator-kstreams},1651095340,0
{consumergroup=__strimzi-topic-operator-kstreams},1651095345,0
{consumergroup=__strimzi-topic-operator-kstreams},1651095350,0
{consumergroup=__strimzi-topic-operator-kstreams},1651095355,0
{consumergroup=__strimzi-topic-operator-kstreams},1651095360,0
{consumergroup=__strimzi-topic-operator-kstreams},1651095365,0
{consumergroup=__strimzi-topic-operator-kstreams},1651095370,0
{consumergroup=__strimzi-topic-operator-kstreams},1651095375,0
{consumergroup=__strimzi-topic-operator-kstreams},1651095380,0
{consumergroup=__strimzi-topic-operator-kstreams},1651095385,0
{consumergroup=__strimzi-topic-operator-kstreams},1651095390,0
{consumergroup=__strimzi-topic-operator-kstreams},1651095395,0
{consumergroup=landscape-service},1651095130,3053703
{consumergroup=landscape-service},1651095135,3053703
{consumergroup=landscape-service},1651095140,3053703
{consumergroup=landscape-service},1651095145,4952445
{consumergroup=landscape-service},1651095150,4952445
{consumergroup=landscape-service},1651095155,4952445
{consumergroup=landscape-service},1651095160,6056401
{consumergroup=landscape-service},1651095165,6056401
{consumergroup=landscape-service},1651095170,6056401
{consumergroup=landscape-service},1651095175,6299218
{consumergroup=landscape-service},1651095180,6299218
{consumergroup=landscape-service},1651095185,6299218
{consumergroup=landscape-service},1651095190,6718079
{consumergroup=landscape-service},1651095195,6718079
{consumergroup=landscape-service},1651095200,6718079
{consumergroup=landscape-service},1651095205,6869319
{consumergroup=landscape-service},1651095210,6869319
{consumergroup=landscape-service},1651095215,6869319
{consumergroup=landscape-service},1651095220,6824666
{consumergroup=landscape-service},1651095225,6824666
{consumergroup=landscape-service},1651095230,6824666
{consumergroup=landscape-service},1651095235,6620411
{consumergroup=landscape-service},1651095240,6620411
{consumergroup=landscape-service},1651095245,6620411
{consumergroup=landscape-service},1651095250,6586904
{consumergroup=landscape-service},1651095255,6586904
{consumergroup=landscape-service},1651095260,6586904
{consumergroup=landscape-service},1651095265,6437203
{consumergroup=landscape-service},1651095270,6437203
{consumergroup=landscape-service},1651095275,6437203
{consumergroup=landscape-service},1651095280,6371430
{consumergroup=landscape-service},1651095285,6371430
{consumergroup=landscape-service},1651095290,6371430
{consumergroup=landscape-service},1651095295,6112334
{consumergroup=landscape-service},1651095300,6112334
{consumergroup=landscape-service},1651095305,6112334
{consumergroup=landscape-service},1651095310,5952397
{consumergroup=landscape-service},1651095315,5952397
{consumergroup=landscape-service},1651095320,5952397
{consumergroup=landscape-service},1651095325,5721089
{consumergroup=landscape-service},1651095330,5721089
{consumergroup=landscape-service},1651095335,5721089
{consumergroup=landscape-service},1651095340,5616318
{consumergroup=landscape-service},1651095345,5616318
{consumergroup=landscape-service},1651095350,5616318
{consumergroup=landscape-service},1651095355,5526414
{consumergroup=landscape-service},1651095360,5526414
{consumergroup=landscape-service},1651095365,5526414
{consumergroup=landscape-service},1651095370,5475783
{consumergroup=landscape-service},1651095375,5475783
{consumergroup=landscape-service},1651095380,5475783
{consumergroup=landscape-service},1651095385,5311664
{consumergroup=landscape-service},1651095390,5311664
{consumergroup=landscape-service},1651095395,5311664
{consumergroup=landscape-token-events-consumer},1651095115,0
{consumergroup=landscape-token-events-consumer},1651095120,0
{consumergroup=landscape-token-events-consumer},1651095125,0
{consumergroup=landscape-token-events-consumer},1651095130,0
{consumergroup=landscape-token-events-consumer},1651095135,0
{consumergroup=landscape-token-events-consumer},1651095140,0
{consumergroup=landscape-token-events-consumer},1651095145,0
{consumergroup=landscape-token-events-consumer},1651095150,0
{consumergroup=landscape-token-events-consumer},1651095155,0
{consumergroup=landscape-token-events-consumer},1651095160,0
{consumergroup=landscape-token-events-consumer},1651095165,0
{consumergroup=landscape-token-events-consumer},1651095170,0
{consumergroup=landscape-token-events-consumer},1651095175,0
{consumergroup=landscape-token-events-consumer},1651095180,0
{consumergroup=landscape-token-events-consumer},1651095185,0
{consumergroup=landscape-token-events-consumer},1651095190,0
{consumergroup=landscape-token-events-consumer},1651095195,0
{consumergroup=landscape-token-events-consumer},1651095200,0
{consumergroup=landscape-token-events-consumer},1651095205,0
{consumergroup=landscape-token-events-consumer},1651095210,0
{consumergroup=landscape-token-events-consumer},1651095215,0
{consumergroup=landscape-token-events-consumer},1651095220,0
{consumergroup=landscape-token-events-consumer},1651095225,0
{consumergroup=landscape-token-events-consumer},1651095230,0
{consumergroup=landscape-token-events-consumer},1651095235,0
{consumergroup=landscape-token-events-consumer},1651095240,0
{consumergroup=landscape-token-events-consumer},1651095245,0
{consumergroup=landscape-token-events-consumer},1651095250,0
{consumergroup=landscape-token-events-consumer},1651095255,0
{consumergroup=landscape-token-events-consumer},1651095260,0
{consumergroup=landscape-token-events-consumer},1651095265,0
{consumergroup=landscape-token-events-consumer},1651095270,0
{consumergroup=landscape-token-events-consumer},1651095275,0
{consumergroup=landscape-token-events-consumer},1651095280,0
{consumergroup=landscape-token-events-consumer},1651095285,0
{consumergroup=landscape-token-events-consumer},1651095290,0
{consumergroup=landscape-token-events-consumer},1651095295,0
{consumergroup=landscape-token-events-consumer},1651095300,0
{consumergroup=landscape-token-events-consumer},1651095305,0
{consumergroup=landscape-token-events-consumer},1651095310,0
{consumergroup=landscape-token-events-consumer},1651095315,0
{consumergroup=landscape-token-events-consumer},1651095320,0
{consumergroup=landscape-token-events-consumer},1651095325,0
{consumergroup=landscape-token-events-consumer},1651095330,0
{consumergroup=landscape-token-events-consumer},1651095335,0
{consumergroup=landscape-token-events-consumer},1651095340,0
{consumergroup=landscape-token-events-consumer},1651095345,0
{consumergroup=landscape-token-events-consumer},1651095350,0
{consumergroup=landscape-token-events-consumer},1651095355,0
{consumergroup=landscape-token-events-consumer},1651095360,0
{consumergroup=landscape-token-events-consumer},1651095365,0
{consumergroup=landscape-token-events-consumer},1651095370,0
{consumergroup=landscape-token-events-consumer},1651095375,0
{consumergroup=landscape-token-events-consumer},1651095380,0
{consumergroup=landscape-token-events-consumer},1651095385,0
{consumergroup=landscape-token-events-consumer},1651095390,0
{consumergroup=landscape-token-events-consumer},1651095395,0
