labels,timestamp,value
{consumergroup=__strimzi-topic-operator-kstreams},1651204563,0
{consumergroup=__strimzi-topic-operator-kstreams},1651204568,0
{consumergroup=__strimzi-topic-operator-kstreams},1651204573,0
{consumergroup=__strimzi-topic-operator-kstreams},1651204578,0
{consumergroup=__strimzi-topic-operator-kstreams},1651204583,0
{consumergroup=__strimzi-topic-operator-kstreams},1651204588,0
{consumergroup=__strimzi-topic-operator-kstreams},1651204593,0
{consumergroup=__strimzi-topic-operator-kstreams},1651204598,0
{consumergroup=__strimzi-topic-operator-kstreams},1651204603,0
{consumergroup=__strimzi-topic-operator-kstreams},1651204608,0
{consumergroup=__strimzi-topic-operator-kstreams},1651204613,0
{consumergroup=__strimzi-topic-operator-kstreams},1651204618,0
{consumergroup=__strimzi-topic-operator-kstreams},1651204623,0
{consumergroup=__strimzi-topic-operator-kstreams},1651204628,0
{consumergroup=__strimzi-topic-operator-kstreams},1651204633,0
{consumergroup=__strimzi-topic-operator-kstreams},1651204638,0
{consumergroup=__strimzi-topic-operator-kstreams},1651204643,0
{consumergroup=__strimzi-topic-operator-kstreams},1651204648,0
{consumergroup=__strimzi-topic-operator-kstreams},1651204653,0
{consumergroup=__strimzi-topic-operator-kstreams},1651204658,0
{consumergroup=__strimzi-topic-operator-kstreams},1651204663,0
{consumergroup=__strimzi-topic-operator-kstreams},1651204668,0
{consumergroup=__strimzi-topic-operator-kstreams},1651204673,0
{consumergroup=__strimzi-topic-operator-kstreams},1651204678,0
{consumergroup=__strimzi-topic-operator-kstreams},1651204683,0
{consumergroup=__strimzi-topic-operator-kstreams},1651204688,0
{consumergroup=__strimzi-topic-operator-kstreams},1651204693,0
{consumergroup=__strimzi-topic-operator-kstreams},1651204698,0
{consumergroup=__strimzi-topic-operator-kstreams},1651204703,0
{consumergroup=__strimzi-topic-operator-kstreams},1651204708,0
{consumergroup=__strimzi-topic-operator-kstreams},1651204713,0
{consumergroup=__strimzi-topic-operator-kstreams},1651204718,0
{consumergroup=__strimzi-topic-operator-kstreams},1651204723,0
{consumergroup=__strimzi-topic-operator-kstreams},1651204728,0
{consumergroup=__strimzi-topic-operator-kstreams},1651204733,0
{consumergroup=__strimzi-topic-operator-kstreams},1651204738,0
{consumergroup=__strimzi-topic-operator-kstreams},1651204743,0
{consumergroup=__strimzi-topic-operator-kstreams},1651204748,0
{consumergroup=__strimzi-topic-operator-kstreams},1651204753,0
{consumergroup=__strimzi-topic-operator-kstreams},1651204758,0
{consumergroup=__strimzi-topic-operator-kstreams},1651204763,0
{consumergroup=__strimzi-topic-operator-kstreams},1651204768,0
{consumergroup=__strimzi-topic-operator-kstreams},1651204773,0
{consumergroup=__strimzi-topic-operator-kstreams},1651204778,0
{consumergroup=__strimzi-topic-operator-kstreams},1651204783,0
{consumergroup=__strimzi-topic-operator-kstreams},1651204788,0
{consumergroup=__strimzi-topic-operator-kstreams},1651204793,0
{consumergroup=__strimzi-topic-operator-kstreams},1651204798,0
{consumergroup=__strimzi-topic-operator-kstreams},1651204803,0
{consumergroup=__strimzi-topic-operator-kstreams},1651204808,0
{consumergroup=__strimzi-topic-operator-kstreams},1651204813,0
{consumergroup=__strimzi-topic-operator-kstreams},1651204818,0
{consumergroup=__strimzi-topic-operator-kstreams},1651204823,0
{consumergroup=__strimzi-topic-operator-kstreams},1651204828,0
{consumergroup=__strimzi-topic-operator-kstreams},1651204833,0
{consumergroup=__strimzi-topic-operator-kstreams},1651204838,0
{consumergroup=__strimzi-topic-operator-kstreams},1651204843,0
{consumergroup=__strimzi-topic-operator-kstreams},1651204848,0
{consumergroup=__strimzi-topic-operator-kstreams},1651204853,0
{consumergroup=__strimzi-topic-operator-kstreams},1651204858,0
{consumergroup=__strimzi-topic-operator-kstreams},1651204863,0
{consumergroup=__strimzi-topic-operator-kstreams},1651204868,0
{consumergroup=__strimzi-topic-operator-kstreams},1651204873,0
{consumergroup=__strimzi-topic-operator-kstreams},1651204878,0
{consumergroup=__strimzi-topic-operator-kstreams},1651204883,0
{consumergroup=__strimzi-topic-operator-kstreams},1651204888,0
{consumergroup=__strimzi-topic-operator-kstreams},1651204893,0
{consumergroup=__strimzi-topic-operator-kstreams},1651204898,0
{consumergroup=__strimzi-topic-operator-kstreams},1651204903,0
{consumergroup=__strimzi-topic-operator-kstreams},1651204908,0
{consumergroup=__strimzi-topic-operator-kstreams},1651204913,0
{consumergroup=__strimzi-topic-operator-kstreams},1651204918,0
{consumergroup=__strimzi-topic-operator-kstreams},1651204923,0
{consumergroup=__strimzi-topic-operator-kstreams},1651204928,0
{consumergroup=__strimzi-topic-operator-kstreams},1651204933,0
{consumergroup=__strimzi-topic-operator-kstreams},1651204938,0
{consumergroup=__strimzi-topic-operator-kstreams},1651204943,0
{consumergroup=__strimzi-topic-operator-kstreams},1651204948,0
{consumergroup=__strimzi-topic-operator-kstreams},1651204953,0
{consumergroup=__strimzi-topic-operator-kstreams},1651204958,0
{consumergroup=__strimzi-topic-operator-kstreams},1651204963,0
{consumergroup=__strimzi-topic-operator-kstreams},1651204968,0
{consumergroup=__strimzi-topic-operator-kstreams},1651204973,0
{consumergroup=__strimzi-topic-operator-kstreams},1651204978,0
{consumergroup=__strimzi-topic-operator-kstreams},1651204983,0
{consumergroup=__strimzi-topic-operator-kstreams},1651204988,0
{consumergroup=__strimzi-topic-operator-kstreams},1651204993,0
{consumergroup=__strimzi-topic-operator-kstreams},1651204998,0
{consumergroup=__strimzi-topic-operator-kstreams},1651205003,0
{consumergroup=__strimzi-topic-operator-kstreams},1651205008,0
{consumergroup=__strimzi-topic-operator-kstreams},1651205013,0
{consumergroup=__strimzi-topic-operator-kstreams},1651205018,0
{consumergroup=__strimzi-topic-operator-kstreams},1651205023,0
{consumergroup=__strimzi-topic-operator-kstreams},1651205028,0
{consumergroup=__strimzi-topic-operator-kstreams},1651205033,0
{consumergroup=__strimzi-topic-operator-kstreams},1651205038,0
{consumergroup=__strimzi-topic-operator-kstreams},1651205043,0
{consumergroup=__strimzi-topic-operator-kstreams},1651205048,0
{consumergroup=__strimzi-topic-operator-kstreams},1651205053,0
{consumergroup=__strimzi-topic-operator-kstreams},1651205058,0
{consumergroup=trace-service},1651204593,116
{consumergroup=trace-service},1651204598,116
{consumergroup=trace-service},1651204603,116
{consumergroup=trace-service},1651204608,32401
{consumergroup=trace-service},1651204613,32401
{consumergroup=trace-service},1651204618,32401
{consumergroup=trace-service},1651204623,21731
{consumergroup=trace-service},1651204628,21731
{consumergroup=trace-service},1651204633,21731
{consumergroup=trace-service},1651204638,38766
{consumergroup=trace-service},1651204643,38766
{consumergroup=trace-service},1651204648,38766
{consumergroup=trace-service},1651204653,88866
{consumergroup=trace-service},1651204658,88866
{consumergroup=trace-service},1651204663,88866
{consumergroup=trace-service},1651204668,111530
{consumergroup=trace-service},1651204673,111530
{consumergroup=trace-service},1651204678,111530
{consumergroup=trace-service},1651204683,114921
{consumergroup=trace-service},1651204688,114921
{consumergroup=trace-service},1651204693,114921
{consumergroup=trace-service},1651204698,106527
{consumergroup=trace-service},1651204703,106527
{consumergroup=trace-service},1651204708,106527
{consumergroup=trace-service},1651204713,101139
{consumergroup=trace-service},1651204718,101139
{consumergroup=trace-service},1651204723,101139
{consumergroup=trace-service},1651204728,99348
{consumergroup=trace-service},1651204733,99348
{consumergroup=trace-service},1651204738,99348
{consumergroup=trace-service},1651204743,102303
{consumergroup=trace-service},1651204748,102303
{consumergroup=trace-service},1651204753,102303
{consumergroup=trace-service},1651204758,97932
{consumergroup=trace-service},1651204763,97932
{consumergroup=trace-service},1651204768,97932
{consumergroup=trace-service},1651204773,91360
{consumergroup=trace-service},1651204778,91360
{consumergroup=trace-service},1651204783,91360
{consumergroup=trace-service},1651204788,120443
{consumergroup=trace-service},1651204793,120443
{consumergroup=trace-service},1651204798,120443
{consumergroup=trace-service},1651204803,103284
{consumergroup=trace-service},1651204808,103284
{consumergroup=trace-service},1651204813,103284
{consumergroup=trace-service},1651204818,112885
{consumergroup=trace-service},1651204823,112885
{consumergroup=trace-service},1651204828,112885
{consumergroup=trace-service},1651204833,12510
{consumergroup=trace-service},1651204838,12510
{consumergroup=trace-service},1651204843,12510
{consumergroup=trace-service},1651204848,43707
{consumergroup=trace-service},1651204853,43707
{consumergroup=trace-service},1651204858,43707
{consumergroup=trace-service},1651204863,106570
{consumergroup=trace-service},1651204868,106570
{consumergroup=trace-service},1651204873,106570
{consumergroup=trace-service},1651204878,99623
{consumergroup=trace-service},1651204883,99623
{consumergroup=trace-service},1651204888,99623
{consumergroup=trace-service},1651204893,100952
{consumergroup=trace-service},1651204898,100952
{consumergroup=trace-service},1651204903,100952
{consumergroup=trace-service},1651204908,114637
{consumergroup=trace-service},1651204913,114637
{consumergroup=trace-service},1651204918,114637
{consumergroup=trace-service},1651204923,107725
{consumergroup=trace-service},1651204928,107725
{consumergroup=trace-service},1651204933,107725
{consumergroup=trace-service},1651204938,144452
{consumergroup=trace-service},1651204943,144452
{consumergroup=trace-service},1651204948,144452
{consumergroup=trace-service},1651204953,8896
{consumergroup=trace-service},1651204958,8896
{consumergroup=trace-service},1651204963,8896
{consumergroup=trace-service},1651204968,46389
{consumergroup=trace-service},1651204973,46389
{consumergroup=trace-service},1651204978,46389
{consumergroup=trace-service},1651204983,135482
{consumergroup=trace-service},1651204988,135482
{consumergroup=trace-service},1651204993,135482
{consumergroup=trace-service},1651204998,89296
{consumergroup=trace-service},1651205003,89296
{consumergroup=trace-service},1651205008,89296
{consumergroup=trace-service},1651205013,106275
{consumergroup=trace-service},1651205018,106275
{consumergroup=trace-service},1651205023,106275
{consumergroup=trace-service},1651205028,72641
{consumergroup=trace-service},1651205033,72641
{consumergroup=trace-service},1651205038,72641
{consumergroup=trace-service},1651205043,86980
{consumergroup=trace-service},1651205048,86980
{consumergroup=trace-service},1651205053,86980
{consumergroup=trace-service},1651205058,127617
{consumergroup=trace-token-events-consumer},1651204593,0
{consumergroup=trace-token-events-consumer},1651204598,0
{consumergroup=trace-token-events-consumer},1651204603,0
{consumergroup=trace-token-events-consumer},1651204608,0
{consumergroup=trace-token-events-consumer},1651204613,0
{consumergroup=trace-token-events-consumer},1651204618,0
{consumergroup=trace-token-events-consumer},1651204623,0
{consumergroup=trace-token-events-consumer},1651204628,0
{consumergroup=trace-token-events-consumer},1651204633,0
{consumergroup=trace-token-events-consumer},1651204638,0
{consumergroup=trace-token-events-consumer},1651204643,0
{consumergroup=trace-token-events-consumer},1651204648,0
{consumergroup=trace-token-events-consumer},1651204653,0
{consumergroup=trace-token-events-consumer},1651204658,0
{consumergroup=trace-token-events-consumer},1651204663,0
{consumergroup=trace-token-events-consumer},1651204668,0
{consumergroup=trace-token-events-consumer},1651204673,0
{consumergroup=trace-token-events-consumer},1651204678,0
{consumergroup=trace-token-events-consumer},1651204683,0
{consumergroup=trace-token-events-consumer},1651204688,0
{consumergroup=trace-token-events-consumer},1651204693,0
{consumergroup=trace-token-events-consumer},1651204698,0
{consumergroup=trace-token-events-consumer},1651204703,0
{consumergroup=trace-token-events-consumer},1651204708,0
{consumergroup=trace-token-events-consumer},1651204713,0
{consumergroup=trace-token-events-consumer},1651204718,0
{consumergroup=trace-token-events-consumer},1651204723,0
{consumergroup=trace-token-events-consumer},1651204728,0
{consumergroup=trace-token-events-consumer},1651204733,0
{consumergroup=trace-token-events-consumer},1651204738,0
{consumergroup=trace-token-events-consumer},1651204743,0
{consumergroup=trace-token-events-consumer},1651204748,0
{consumergroup=trace-token-events-consumer},1651204753,0
{consumergroup=trace-token-events-consumer},1651204758,0
{consumergroup=trace-token-events-consumer},1651204763,0
{consumergroup=trace-token-events-consumer},1651204768,0
{consumergroup=trace-token-events-consumer},1651204773,0
{consumergroup=trace-token-events-consumer},1651204778,0
{consumergroup=trace-token-events-consumer},1651204783,0
{consumergroup=trace-token-events-consumer},1651204788,0
{consumergroup=trace-token-events-consumer},1651204793,0
{consumergroup=trace-token-events-consumer},1651204798,0
{consumergroup=trace-token-events-consumer},1651204803,0
{consumergroup=trace-token-events-consumer},1651204808,0
{consumergroup=trace-token-events-consumer},1651204813,0
{consumergroup=trace-token-events-consumer},1651204818,0
{consumergroup=trace-token-events-consumer},1651204823,0
{consumergroup=trace-token-events-consumer},1651204828,0
{consumergroup=trace-token-events-consumer},1651204833,0
{consumergroup=trace-token-events-consumer},1651204838,0
{consumergroup=trace-token-events-consumer},1651204843,0
{consumergroup=trace-token-events-consumer},1651204848,0
{consumergroup=trace-token-events-consumer},1651204853,0
{consumergroup=trace-token-events-consumer},1651204858,0
{consumergroup=trace-token-events-consumer},1651204863,0
{consumergroup=trace-token-events-consumer},1651204868,0
{consumergroup=trace-token-events-consumer},1651204873,0
{consumergroup=trace-token-events-consumer},1651204878,0
{consumergroup=trace-token-events-consumer},1651204883,0
{consumergroup=trace-token-events-consumer},1651204888,0
{consumergroup=trace-token-events-consumer},1651204893,0
{consumergroup=trace-token-events-consumer},1651204898,0
{consumergroup=trace-token-events-consumer},1651204903,0
{consumergroup=trace-token-events-consumer},1651204908,0
{consumergroup=trace-token-events-consumer},1651204913,0
{consumergroup=trace-token-events-consumer},1651204918,0
{consumergroup=trace-token-events-consumer},1651204923,0
{consumergroup=trace-token-events-consumer},1651204928,0
{consumergroup=trace-token-events-consumer},1651204933,0
{consumergroup=trace-token-events-consumer},1651204938,0
{consumergroup=trace-token-events-consumer},1651204943,0
{consumergroup=trace-token-events-consumer},1651204948,0
{consumergroup=trace-token-events-consumer},1651204953,0
{consumergroup=trace-token-events-consumer},1651204958,0
{consumergroup=trace-token-events-consumer},1651204963,0
{consumergroup=trace-token-events-consumer},1651204968,0
{consumergroup=trace-token-events-consumer},1651204973,0
{consumergroup=trace-token-events-consumer},1651204978,0
{consumergroup=trace-token-events-consumer},1651204983,0
{consumergroup=trace-token-events-consumer},1651204988,0
{consumergroup=trace-token-events-consumer},1651204993,0
{consumergroup=trace-token-events-consumer},1651204998,0
{consumergroup=trace-token-events-consumer},1651205003,0
{consumergroup=trace-token-events-consumer},1651205008,0
{consumergroup=trace-token-events-consumer},1651205013,0
{consumergroup=trace-token-events-consumer},1651205018,0
{consumergroup=trace-token-events-consumer},1651205023,0
{consumergroup=trace-token-events-consumer},1651205028,0
{consumergroup=trace-token-events-consumer},1651205033,0
{consumergroup=trace-token-events-consumer},1651205038,0
{consumergroup=trace-token-events-consumer},1651205043,0
{consumergroup=trace-token-events-consumer},1651205048,0
{consumergroup=trace-token-events-consumer},1651205053,0
{consumergroup=trace-token-events-consumer},1651205058,0
