labels,timestamp,value
{consumergroup=__strimzi-topic-operator-kstreams},1651108541,10
{consumergroup=__strimzi-topic-operator-kstreams},1651108546,10
{consumergroup=__strimzi-topic-operator-kstreams},1651108551,10
{consumergroup=__strimzi-topic-operator-kstreams},1651108556,0
{consumergroup=__strimzi-topic-operator-kstreams},1651108561,0
{consumergroup=__strimzi-topic-operator-kstreams},1651108566,0
{consumergroup=__strimzi-topic-operator-kstreams},1651108571,0
{consumergroup=__strimzi-topic-operator-kstreams},1651108576,0
{consumergroup=__strimzi-topic-operator-kstreams},1651108581,0
{consumergroup=__strimzi-topic-operator-kstreams},1651108586,0
{consumergroup=__strimzi-topic-operator-kstreams},1651108591,0
{consumergroup=__strimzi-topic-operator-kstreams},1651108596,0
{consumergroup=__strimzi-topic-operator-kstreams},1651108601,0
{consumergroup=__strimzi-topic-operator-kstreams},1651108606,0
{consumergroup=__strimzi-topic-operator-kstreams},1651108611,0
{consumergroup=__strimzi-topic-operator-kstreams},1651108616,0
{consumergroup=__strimzi-topic-operator-kstreams},1651108621,0
{consumergroup=__strimzi-topic-operator-kstreams},1651108626,0
{consumergroup=__strimzi-topic-operator-kstreams},1651108631,0
{consumergroup=__strimzi-topic-operator-kstreams},1651108636,0
{consumergroup=__strimzi-topic-operator-kstreams},1651108641,0
{consumergroup=__strimzi-topic-operator-kstreams},1651108646,0
{consumergroup=__strimzi-topic-operator-kstreams},1651108651,0
{consumergroup=__strimzi-topic-operator-kstreams},1651108656,0
{consumergroup=__strimzi-topic-operator-kstreams},1651108661,0
{consumergroup=__strimzi-topic-operator-kstreams},1651108666,0
{consumergroup=__strimzi-topic-operator-kstreams},1651108671,0
{consumergroup=__strimzi-topic-operator-kstreams},1651108676,0
{consumergroup=__strimzi-topic-operator-kstreams},1651108681,0
{consumergroup=__strimzi-topic-operator-kstreams},1651108686,0
{consumergroup=__strimzi-topic-operator-kstreams},1651108691,0
{consumergroup=__strimzi-topic-operator-kstreams},1651108696,0
{consumergroup=__strimzi-topic-operator-kstreams},1651108701,0
{consumergroup=__strimzi-topic-operator-kstreams},1651108706,0
{consumergroup=__strimzi-topic-operator-kstreams},1651108711,0
{consumergroup=__strimzi-topic-operator-kstreams},1651108716,0
{consumergroup=__strimzi-topic-operator-kstreams},1651108721,0
{consumergroup=__strimzi-topic-operator-kstreams},1651108726,0
{consumergroup=__strimzi-topic-operator-kstreams},1651108731,0
{consumergroup=__strimzi-topic-operator-kstreams},1651108736,0
{consumergroup=__strimzi-topic-operator-kstreams},1651108741,0
{consumergroup=__strimzi-topic-operator-kstreams},1651108746,0
{consumergroup=__strimzi-topic-operator-kstreams},1651108751,0
{consumergroup=__strimzi-topic-operator-kstreams},1651108756,0
{consumergroup=__strimzi-topic-operator-kstreams},1651108761,0
{consumergroup=__strimzi-topic-operator-kstreams},1651108766,0
{consumergroup=__strimzi-topic-operator-kstreams},1651108771,0
{consumergroup=__strimzi-topic-operator-kstreams},1651108776,0
{consumergroup=__strimzi-topic-operator-kstreams},1651108781,0
{consumergroup=__strimzi-topic-operator-kstreams},1651108786,0
{consumergroup=__strimzi-topic-operator-kstreams},1651108791,0
{consumergroup=__strimzi-topic-operator-kstreams},1651108796,0
{consumergroup=__strimzi-topic-operator-kstreams},1651108801,0
{consumergroup=__strimzi-topic-operator-kstreams},1651108806,0
{consumergroup=__strimzi-topic-operator-kstreams},1651108811,0
{consumergroup=__strimzi-topic-operator-kstreams},1651108816,0
{consumergroup=__strimzi-topic-operator-kstreams},1651108821,0
{consumergroup=__strimzi-topic-operator-kstreams},1651108826,0
{consumergroup=__strimzi-topic-operator-kstreams},1651108831,0
{consumergroup=__strimzi-topic-operator-kstreams},1651108836,0
{consumergroup=__strimzi-topic-operator-kstreams},1651108841,0
{consumergroup=__strimzi-topic-operator-kstreams},1651108846,0
{consumergroup=__strimzi-topic-operator-kstreams},1651108851,0
{consumergroup=landscape-service},1651108571,502
{consumergroup=landscape-service},1651108576,502
{consumergroup=landscape-service},1651108581,502
{consumergroup=landscape-service},1651108586,1938480
{consumergroup=landscape-service},1651108591,1938480
{consumergroup=landscape-service},1651108596,1938480
{consumergroup=landscape-service},1651108601,3301310
{consumergroup=landscape-service},1651108606,3301310
{consumergroup=landscape-service},1651108611,3301310
{consumergroup=landscape-service},1651108616,4245542
{consumergroup=landscape-service},1651108621,4245542
{consumergroup=landscape-service},1651108626,4245542
{consumergroup=landscape-service},1651108631,4859627
{consumergroup=landscape-service},1651108636,4859627
{consumergroup=landscape-service},1651108641,4859627
{consumergroup=landscape-service},1651108646,5262176
{consumergroup=landscape-service},1651108651,5262176
{consumergroup=landscape-service},1651108656,5262176
{consumergroup=landscape-service},1651108661,5629134
{consumergroup=landscape-service},1651108666,5629134
{consumergroup=landscape-service},1651108671,5629134
{consumergroup=landscape-service},1651108676,5891062
{consumergroup=landscape-service},1651108681,5891062
{consumergroup=landscape-service},1651108686,5891062
{consumergroup=landscape-service},1651108691,6157924
{consumergroup=landscape-service},1651108696,6157924
{consumergroup=landscape-service},1651108701,6157924
{consumergroup=landscape-service},1651108706,6573470
{consumergroup=landscape-service},1651108711,6573470
{consumergroup=landscape-service},1651108716,6573470
{consumergroup=landscape-service},1651108721,6662292
{consumergroup=landscape-service},1651108726,6662292
{consumergroup=landscape-service},1651108731,6662292
{consumergroup=landscape-service},1651108736,7060352
{consumergroup=landscape-service},1651108741,7060352
{consumergroup=landscape-service},1651108746,7060352
{consumergroup=landscape-service},1651108751,7133917
{consumergroup=landscape-service},1651108756,7133917
{consumergroup=landscape-service},1651108761,7133917
{consumergroup=landscape-service},1651108766,7459403
{consumergroup=landscape-service},1651108771,7459403
{consumergroup=landscape-service},1651108776,7459403
{consumergroup=landscape-service},1651108781,7477028
{consumergroup=landscape-service},1651108786,7477028
{consumergroup=landscape-service},1651108791,7477028
{consumergroup=landscape-service},1651108796,7892889
{consumergroup=landscape-service},1651108801,7892889
{consumergroup=landscape-service},1651108806,7892889
{consumergroup=landscape-service},1651108811,7828926
{consumergroup=landscape-service},1651108816,7828926
{consumergroup=landscape-service},1651108821,7828926
{consumergroup=landscape-service},1651108826,8125233
{consumergroup=landscape-service},1651108831,8125233
{consumergroup=landscape-service},1651108836,8125233
{consumergroup=landscape-service},1651108841,8113741
{consumergroup=landscape-service},1651108846,8113741
{consumergroup=landscape-service},1651108851,8113741
{consumergroup=landscape-token-events-consumer},1651108571,0
{consumergroup=landscape-token-events-consumer},1651108576,0
{consumergroup=landscape-token-events-consumer},1651108581,0
{consumergroup=landscape-token-events-consumer},1651108586,0
{consumergroup=landscape-token-events-consumer},1651108591,0
{consumergroup=landscape-token-events-consumer},1651108596,0
{consumergroup=landscape-token-events-consumer},1651108601,0
{consumergroup=landscape-token-events-consumer},1651108606,0
{consumergroup=landscape-token-events-consumer},1651108611,0
{consumergroup=landscape-token-events-consumer},1651108616,0
{consumergroup=landscape-token-events-consumer},1651108621,0
{consumergroup=landscape-token-events-consumer},1651108626,0
{consumergroup=landscape-token-events-consumer},1651108631,0
{consumergroup=landscape-token-events-consumer},1651108636,0
{consumergroup=landscape-token-events-consumer},1651108641,0
{consumergroup=landscape-token-events-consumer},1651108646,0
{consumergroup=landscape-token-events-consumer},1651108651,0
{consumergroup=landscape-token-events-consumer},1651108656,0
{consumergroup=landscape-token-events-consumer},1651108661,0
{consumergroup=landscape-token-events-consumer},1651108666,0
{consumergroup=landscape-token-events-consumer},1651108671,0
{consumergroup=landscape-token-events-consumer},1651108676,0
{consumergroup=landscape-token-events-consumer},1651108681,0
{consumergroup=landscape-token-events-consumer},1651108686,0
{consumergroup=landscape-token-events-consumer},1651108691,0
{consumergroup=landscape-token-events-consumer},1651108696,0
{consumergroup=landscape-token-events-consumer},1651108701,0
{consumergroup=landscape-token-events-consumer},1651108706,0
{consumergroup=landscape-token-events-consumer},1651108711,0
{consumergroup=landscape-token-events-consumer},1651108716,0
{consumergroup=landscape-token-events-consumer},1651108721,0
{consumergroup=landscape-token-events-consumer},1651108726,0
{consumergroup=landscape-token-events-consumer},1651108731,0
{consumergroup=landscape-token-events-consumer},1651108736,0
{consumergroup=landscape-token-events-consumer},1651108741,0
{consumergroup=landscape-token-events-consumer},1651108746,0
{consumergroup=landscape-token-events-consumer},1651108751,0
{consumergroup=landscape-token-events-consumer},1651108756,0
{consumergroup=landscape-token-events-consumer},1651108761,0
{consumergroup=landscape-token-events-consumer},1651108766,0
{consumergroup=landscape-token-events-consumer},1651108771,0
{consumergroup=landscape-token-events-consumer},1651108776,0
{consumergroup=landscape-token-events-consumer},1651108781,0
{consumergroup=landscape-token-events-consumer},1651108786,0
{consumergroup=landscape-token-events-consumer},1651108791,0
{consumergroup=landscape-token-events-consumer},1651108796,0
{consumergroup=landscape-token-events-consumer},1651108801,0
{consumergroup=landscape-token-events-consumer},1651108806,0
{consumergroup=landscape-token-events-consumer},1651108811,0
{consumergroup=landscape-token-events-consumer},1651108816,0
{consumergroup=landscape-token-events-consumer},1651108821,0
{consumergroup=landscape-token-events-consumer},1651108826,0
{consumergroup=landscape-token-events-consumer},1651108831,0
{consumergroup=landscape-token-events-consumer},1651108836,0
{consumergroup=landscape-token-events-consumer},1651108841,0
{consumergroup=landscape-token-events-consumer},1651108846,0
{consumergroup=landscape-token-events-consumer},1651108851,0
