labels,timestamp,value
{consumergroup=__strimzi-topic-operator-kstreams},1651112613,4
{consumergroup=__strimzi-topic-operator-kstreams},1651112618,4
{consumergroup=__strimzi-topic-operator-kstreams},1651112623,4
{consumergroup=__strimzi-topic-operator-kstreams},1651112628,4
{consumergroup=__strimzi-topic-operator-kstreams},1651112633,4
{consumergroup=__strimzi-topic-operator-kstreams},1651112638,4
{consumergroup=__strimzi-topic-operator-kstreams},1651112643,0
{consumergroup=__strimzi-topic-operator-kstreams},1651112648,0
{consumergroup=__strimzi-topic-operator-kstreams},1651112653,0
{consumergroup=__strimzi-topic-operator-kstreams},1651112658,0
{consumergroup=__strimzi-topic-operator-kstreams},1651112663,0
{consumergroup=__strimzi-topic-operator-kstreams},1651112668,0
{consumergroup=__strimzi-topic-operator-kstreams},1651112673,0
{consumergroup=__strimzi-topic-operator-kstreams},1651112678,0
{consumergroup=__strimzi-topic-operator-kstreams},1651112683,0
{consumergroup=__strimzi-topic-operator-kstreams},1651112688,0
{consumergroup=__strimzi-topic-operator-kstreams},1651112693,0
{consumergroup=__strimzi-topic-operator-kstreams},1651112698,0
{consumergroup=__strimzi-topic-operator-kstreams},1651112703,0
{consumergroup=__strimzi-topic-operator-kstreams},1651112708,0
{consumergroup=__strimzi-topic-operator-kstreams},1651112713,0
{consumergroup=__strimzi-topic-operator-kstreams},1651112718,0
{consumergroup=__strimzi-topic-operator-kstreams},1651112723,0
{consumergroup=__strimzi-topic-operator-kstreams},1651112728,0
{consumergroup=__strimzi-topic-operator-kstreams},1651112733,0
{consumergroup=__strimzi-topic-operator-kstreams},1651112738,0
{consumergroup=__strimzi-topic-operator-kstreams},1651112743,0
{consumergroup=__strimzi-topic-operator-kstreams},1651112748,0
{consumergroup=__strimzi-topic-operator-kstreams},1651112753,0
{consumergroup=__strimzi-topic-operator-kstreams},1651112758,0
{consumergroup=__strimzi-topic-operator-kstreams},1651112763,0
{consumergroup=__strimzi-topic-operator-kstreams},1651112768,0
{consumergroup=__strimzi-topic-operator-kstreams},1651112773,0
{consumergroup=__strimzi-topic-operator-kstreams},1651112778,0
{consumergroup=__strimzi-topic-operator-kstreams},1651112783,0
{consumergroup=__strimzi-topic-operator-kstreams},1651112788,0
{consumergroup=__strimzi-topic-operator-kstreams},1651112793,0
{consumergroup=__strimzi-topic-operator-kstreams},1651112798,0
{consumergroup=__strimzi-topic-operator-kstreams},1651112803,0
{consumergroup=__strimzi-topic-operator-kstreams},1651112808,0
{consumergroup=__strimzi-topic-operator-kstreams},1651112813,0
{consumergroup=__strimzi-topic-operator-kstreams},1651112818,0
{consumergroup=__strimzi-topic-operator-kstreams},1651112823,0
{consumergroup=__strimzi-topic-operator-kstreams},1651112828,0
{consumergroup=__strimzi-topic-operator-kstreams},1651112833,0
{consumergroup=__strimzi-topic-operator-kstreams},1651112838,0
{consumergroup=__strimzi-topic-operator-kstreams},1651112843,0
{consumergroup=__strimzi-topic-operator-kstreams},1651112848,0
{consumergroup=__strimzi-topic-operator-kstreams},1651112853,0
{consumergroup=__strimzi-topic-operator-kstreams},1651112858,0
{consumergroup=__strimzi-topic-operator-kstreams},1651112863,0
{consumergroup=__strimzi-topic-operator-kstreams},1651112868,0
{consumergroup=__strimzi-topic-operator-kstreams},1651112873,0
{consumergroup=__strimzi-topic-operator-kstreams},1651112878,0
{consumergroup=__strimzi-topic-operator-kstreams},1651112883,0
{consumergroup=__strimzi-topic-operator-kstreams},1651112888,0
{consumergroup=__strimzi-topic-operator-kstreams},1651112893,0
{consumergroup=__strimzi-topic-operator-kstreams},1651112898,0
{consumergroup=__strimzi-topic-operator-kstreams},1651112903,0
{consumergroup=__strimzi-topic-operator-kstreams},1651112908,0
{consumergroup=__strimzi-topic-operator-kstreams},1651112913,0
{consumergroup=__strimzi-topic-operator-kstreams},1651112918,0
{consumergroup=landscape-service},1651112643,543962
{consumergroup=landscape-service},1651112648,543962
{consumergroup=landscape-service},1651112653,543962
{consumergroup=landscape-service},1651112658,3612113
{consumergroup=landscape-service},1651112663,3612113
{consumergroup=landscape-service},1651112668,3612113
{consumergroup=landscape-service},1651112673,5493614
{consumergroup=landscape-service},1651112678,5493614
{consumergroup=landscape-service},1651112683,5493614
{consumergroup=landscape-service},1651112688,6531224
{consumergroup=landscape-service},1651112693,6531224
{consumergroup=landscape-service},1651112698,6531224
{consumergroup=landscape-service},1651112703,7275496
{consumergroup=landscape-service},1651112708,7275496
{consumergroup=landscape-service},1651112713,7275496
{consumergroup=landscape-service},1651112718,7724449
{consumergroup=landscape-service},1651112723,7724449
{consumergroup=landscape-service},1651112728,7724449
{consumergroup=landscape-service},1651112733,8340363
{consumergroup=landscape-service},1651112738,8340363
{consumergroup=landscape-service},1651112743,8340363
{consumergroup=landscape-service},1651112748,8371829
{consumergroup=landscape-service},1651112753,8371829
{consumergroup=landscape-service},1651112758,8371829
{consumergroup=landscape-service},1651112763,8921709
{consumergroup=landscape-service},1651112768,8921709
{consumergroup=landscape-service},1651112773,8921709
{consumergroup=landscape-service},1651112778,8895723
{consumergroup=landscape-service},1651112783,8895723
{consumergroup=landscape-service},1651112788,8895723
{consumergroup=landscape-service},1651112793,9256504
{consumergroup=landscape-service},1651112798,9256504
{consumergroup=landscape-service},1651112803,9256504
{consumergroup=landscape-service},1651112808,9479098
{consumergroup=landscape-service},1651112813,9479098
{consumergroup=landscape-service},1651112818,9479098
{consumergroup=landscape-service},1651112823,9420571
{consumergroup=landscape-service},1651112828,9420571
{consumergroup=landscape-service},1651112833,9420571
{consumergroup=landscape-service},1651112838,9503066
{consumergroup=landscape-service},1651112843,9503066
{consumergroup=landscape-service},1651112848,9503066
{consumergroup=landscape-service},1651112853,9642102
{consumergroup=landscape-service},1651112858,9642102
{consumergroup=landscape-service},1651112863,9642102
{consumergroup=landscape-service},1651112868,9345306
{consumergroup=landscape-service},1651112873,9345306
{consumergroup=landscape-service},1651112878,9345306
{consumergroup=landscape-service},1651112883,9599603
{consumergroup=landscape-service},1651112888,9599603
{consumergroup=landscape-service},1651112893,9599603
{consumergroup=landscape-service},1651112898,9637648
{consumergroup=landscape-service},1651112903,9637648
{consumergroup=landscape-service},1651112908,9637648
{consumergroup=landscape-service},1651112913,9923439
{consumergroup=landscape-service},1651112918,9923439
{consumergroup=landscape-token-events-consumer},1651112643,0
{consumergroup=landscape-token-events-consumer},1651112648,0
{consumergroup=landscape-token-events-consumer},1651112653,0
{consumergroup=landscape-token-events-consumer},1651112658,0
{consumergroup=landscape-token-events-consumer},1651112663,0
{consumergroup=landscape-token-events-consumer},1651112668,0
{consumergroup=landscape-token-events-consumer},1651112673,0
{consumergroup=landscape-token-events-consumer},1651112678,0
{consumergroup=landscape-token-events-consumer},1651112683,0
{consumergroup=landscape-token-events-consumer},1651112688,0
{consumergroup=landscape-token-events-consumer},1651112693,0
{consumergroup=landscape-token-events-consumer},1651112698,0
{consumergroup=landscape-token-events-consumer},1651112703,0
{consumergroup=landscape-token-events-consumer},1651112708,0
{consumergroup=landscape-token-events-consumer},1651112713,0
{consumergroup=landscape-token-events-consumer},1651112718,0
{consumergroup=landscape-token-events-consumer},1651112723,0
{consumergroup=landscape-token-events-consumer},1651112728,0
{consumergroup=landscape-token-events-consumer},1651112733,0
{consumergroup=landscape-token-events-consumer},1651112738,0
{consumergroup=landscape-token-events-consumer},1651112743,0
{consumergroup=landscape-token-events-consumer},1651112748,0
{consumergroup=landscape-token-events-consumer},1651112753,0
{consumergroup=landscape-token-events-consumer},1651112758,0
{consumergroup=landscape-token-events-consumer},1651112763,0
{consumergroup=landscape-token-events-consumer},1651112768,0
{consumergroup=landscape-token-events-consumer},1651112773,0
{consumergroup=landscape-token-events-consumer},1651112778,0
{consumergroup=landscape-token-events-consumer},1651112783,0
{consumergroup=landscape-token-events-consumer},1651112788,0
{consumergroup=landscape-token-events-consumer},1651112793,0
{consumergroup=landscape-token-events-consumer},1651112798,0
{consumergroup=landscape-token-events-consumer},1651112803,0
{consumergroup=landscape-token-events-consumer},1651112808,0
{consumergroup=landscape-token-events-consumer},1651112813,0
{consumergroup=landscape-token-events-consumer},1651112818,0
{consumergroup=landscape-token-events-consumer},1651112823,0
{consumergroup=landscape-token-events-consumer},1651112828,0
{consumergroup=landscape-token-events-consumer},1651112833,0
{consumergroup=landscape-token-events-consumer},1651112838,0
{consumergroup=landscape-token-events-consumer},1651112843,0
{consumergroup=landscape-token-events-consumer},1651112848,0
{consumergroup=landscape-token-events-consumer},1651112853,0
{consumergroup=landscape-token-events-consumer},1651112858,0
{consumergroup=landscape-token-events-consumer},1651112863,0
{consumergroup=landscape-token-events-consumer},1651112868,0
{consumergroup=landscape-token-events-consumer},1651112873,0
{consumergroup=landscape-token-events-consumer},1651112878,0
{consumergroup=landscape-token-events-consumer},1651112883,0
{consumergroup=landscape-token-events-consumer},1651112888,0
{consumergroup=landscape-token-events-consumer},1651112893,0
{consumergroup=landscape-token-events-consumer},1651112898,0
{consumergroup=landscape-token-events-consumer},1651112903,0
{consumergroup=landscape-token-events-consumer},1651112908,0
{consumergroup=landscape-token-events-consumer},1651112913,0
{consumergroup=landscape-token-events-consumer},1651112918,0
