labels,timestamp,value
{job=theodolite-stu200776/trace-isolated-podmonitor},1651196204,0
{job=theodolite-stu200776/trace-isolated-podmonitor},1651196209,0
{job=theodolite-stu200776/trace-isolated-podmonitor},1651196214,0
{job=theodolite-stu200776/trace-isolated-podmonitor},1651196219,0
{job=theodolite-stu200776/trace-isolated-podmonitor},1651196224,0
{job=theodolite-stu200776/trace-isolated-podmonitor},1651196229,0
{job=theodolite-stu200776/trace-isolated-podmonitor},1651196234,0
{job=theodolite-stu200776/trace-isolated-podmonitor},1651196239,0
{job=theodolite-stu200776/trace-isolated-podmonitor},1651196244,0
{job=theodolite-stu200776/trace-isolated-podmonitor},1651196249,0
{job=theodolite-stu200776/trace-isolated-podmonitor},1651196254,0
{job=theodolite-stu200776/trace-isolated-podmonitor},1651196259,0
{job=theodolite-stu200776/trace-isolated-podmonitor},1651196264,0
{job=theodolite-stu200776/trace-isolated-podmonitor},1651196269,0
{job=theodolite-stu200776/trace-isolated-podmonitor},1651196274,0
{job=theodolite-stu200776/trace-isolated-podmonitor},1651196279,0
{job=theodolite-stu200776/trace-isolated-podmonitor},1651196284,0
{job=theodolite-stu200776/trace-isolated-podmonitor},1651196289,0
{job=theodolite-stu200776/trace-isolated-podmonitor},1651196294,0
{job=theodolite-stu200776/trace-isolated-podmonitor},1651196299,0
{job=theodolite-stu200776/trace-isolated-podmonitor},1651196304,0
{job=theodolite-stu200776/trace-isolated-podmonitor},1651196309,0
{job=theodolite-stu200776/trace-isolated-podmonitor},1651196314,0
{job=theodolite-stu200776/trace-isolated-podmonitor},1651196319,0
{job=theodolite-stu200776/trace-isolated-podmonitor},1651196324,0
{job=theodolite-stu200776/trace-isolated-podmonitor},1651196329,0
{job=theodolite-stu200776/trace-isolated-podmonitor},1651196334,0
{job=theodolite-stu200776/trace-isolated-podmonitor},1651196339,0
{job=theodolite-stu200776/trace-isolated-podmonitor},1651196344,0
{job=theodolite-stu200776/trace-isolated-podmonitor},1651196349,0
{job=theodolite-stu200776/trace-isolated-podmonitor},1651196354,0
{job=theodolite-stu200776/trace-isolated-podmonitor},1651196359,0
{job=theodolite-stu200776/trace-isolated-podmonitor},1651196364,0
{job=theodolite-stu200776/trace-isolated-podmonitor},1651196369,0
{job=theodolite-stu200776/trace-isolated-podmonitor},1651196374,0
{job=theodolite-stu200776/trace-isolated-podmonitor},1651196379,0
{job=theodolite-stu200776/trace-isolated-podmonitor},1651196384,0
{job=theodolite-stu200776/trace-isolated-podmonitor},1651196389,0
{job=theodolite-stu200776/trace-isolated-podmonitor},1651196394,0
{job=theodolite-stu200776/trace-isolated-podmonitor},1651196399,0
{job=theodolite-stu200776/trace-isolated-podmonitor},1651196404,0
{job=theodolite-stu200776/trace-isolated-podmonitor},1651196409,0
{job=theodolite-stu200776/trace-isolated-podmonitor},1651196414,0
{job=theodolite-stu200776/trace-isolated-podmonitor},1651196419,0
{job=theodolite-stu200776/trace-isolated-podmonitor},1651196424,0
{job=theodolite-stu200776/trace-isolated-podmonitor},1651196429,0
{job=theodolite-stu200776/trace-isolated-podmonitor},1651196434,0
{job=theodolite-stu200776/trace-isolated-podmonitor},1651196439,0
{job=theodolite-stu200776/trace-isolated-podmonitor},1651196444,0
{job=theodolite-stu200776/trace-isolated-podmonitor},1651196449,0
{job=theodolite-stu200776/trace-isolated-podmonitor},1651196454,0
{job=theodolite-stu200776/trace-isolated-podmonitor},1651196459,0
{job=theodolite-stu200776/trace-isolated-podmonitor},1651196464,0
{job=theodolite-stu200776/trace-isolated-podmonitor},1651196469,0
{job=theodolite-stu200776/trace-isolated-podmonitor},1651196474,0
