labels,timestamp,value
{job=theodolite-stu200776/trace-isolated-podmonitor},1651158612,0
{job=theodolite-stu200776/trace-isolated-podmonitor},1651158617,0
{job=theodolite-stu200776/trace-isolated-podmonitor},1651158622,0
{job=theodolite-stu200776/trace-isolated-podmonitor},1651158627,0
{job=theodolite-stu200776/trace-isolated-podmonitor},1651158632,0
{job=theodolite-stu200776/trace-isolated-podmonitor},1651158637,0
{job=theodolite-stu200776/trace-isolated-podmonitor},1651158642,0
{job=theodolite-stu200776/trace-isolated-podmonitor},1651158647,0
{job=theodolite-stu200776/trace-isolated-podmonitor},1651158652,0
{job=theodolite-stu200776/trace-isolated-podmonitor},1651158657,0
{job=theodolite-stu200776/trace-isolated-podmonitor},1651158662,0
{job=theodolite-stu200776/trace-isolated-podmonitor},1651158667,0
{job=theodolite-stu200776/trace-isolated-podmonitor},1651158672,0
{job=theodolite-stu200776/trace-isolated-podmonitor},1651158677,0
{job=theodolite-stu200776/trace-isolated-podmonitor},1651158682,0
{job=theodolite-stu200776/trace-isolated-podmonitor},1651158687,0
{job=theodolite-stu200776/trace-isolated-podmonitor},1651158692,0
{job=theodolite-stu200776/trace-isolated-podmonitor},1651158697,0
{job=theodolite-stu200776/trace-isolated-podmonitor},1651158702,0
{job=theodolite-stu200776/trace-isolated-podmonitor},1651158707,0
{job=theodolite-stu200776/trace-isolated-podmonitor},1651158712,0
{job=theodolite-stu200776/trace-isolated-podmonitor},1651158717,0
{job=theodolite-stu200776/trace-isolated-podmonitor},1651158722,0
{job=theodolite-stu200776/trace-isolated-podmonitor},1651158727,0
{job=theodolite-stu200776/trace-isolated-podmonitor},1651158732,0
{job=theodolite-stu200776/trace-isolated-podmonitor},1651158737,0
{job=theodolite-stu200776/trace-isolated-podmonitor},1651158742,0
{job=theodolite-stu200776/trace-isolated-podmonitor},1651158747,0
{job=theodolite-stu200776/trace-isolated-podmonitor},1651158752,0
{job=theodolite-stu200776/trace-isolated-podmonitor},1651158757,0
{job=theodolite-stu200776/trace-isolated-podmonitor},1651158762,0
{job=theodolite-stu200776/trace-isolated-podmonitor},1651158767,0
{job=theodolite-stu200776/trace-isolated-podmonitor},1651158772,0
{job=theodolite-stu200776/trace-isolated-podmonitor},1651158777,0
{job=theodolite-stu200776/trace-isolated-podmonitor},1651158782,0
{job=theodolite-stu200776/trace-isolated-podmonitor},1651158787,0
{job=theodolite-stu200776/trace-isolated-podmonitor},1651158792,0
{job=theodolite-stu200776/trace-isolated-podmonitor},1651158797,0
{job=theodolite-stu200776/trace-isolated-podmonitor},1651158802,0
{job=theodolite-stu200776/trace-isolated-podmonitor},1651158807,0
{job=theodolite-stu200776/trace-isolated-podmonitor},1651158812,0
{job=theodolite-stu200776/trace-isolated-podmonitor},1651158817,0
{job=theodolite-stu200776/trace-isolated-podmonitor},1651158822,0
{job=theodolite-stu200776/trace-isolated-podmonitor},1651158827,0
{job=theodolite-stu200776/trace-isolated-podmonitor},1651158832,0
{job=theodolite-stu200776/trace-isolated-podmonitor},1651158837,0
{job=theodolite-stu200776/trace-isolated-podmonitor},1651158842,0
{job=theodolite-stu200776/trace-isolated-podmonitor},1651158847,0
{job=theodolite-stu200776/trace-isolated-podmonitor},1651158852,0
{job=theodolite-stu200776/trace-isolated-podmonitor},1651158857,0
{job=theodolite-stu200776/trace-isolated-podmonitor},1651158862,0
{job=theodolite-stu200776/trace-isolated-podmonitor},1651158867,0
{job=theodolite-stu200776/trace-isolated-podmonitor},1651158872,0
{job=theodolite-stu200776/trace-isolated-podmonitor},1651158877,0
{job=theodolite-stu200776/trace-isolated-podmonitor},1651158882,0
{job=theodolite-stu200776/trace-isolated-podmonitor},1651158887,0
{job=theodolite-stu200776/trace-isolated-podmonitor},1651158892,0
{job=theodolite-stu200776/trace-isolated-podmonitor},1651158897,0
{job=theodolite-stu200776/trace-isolated-podmonitor},1651158902,0
{job=theodolite-stu200776/trace-isolated-podmonitor},1651158907,0
{job=theodolite-stu200776/trace-isolated-podmonitor},1651158912,0
{job=theodolite-stu200776/trace-isolated-podmonitor},1651158917,0
{job=theodolite-stu200776/trace-isolated-podmonitor},1651158922,0
{job=theodolite-stu200776/trace-isolated-podmonitor},1651158927,0
{job=theodolite-stu200776/trace-isolated-podmonitor},1651158932,0
{job=theodolite-stu200776/trace-isolated-podmonitor},1651158937,0
{job=theodolite-stu200776/trace-isolated-podmonitor},1651158942,0
{job=theodolite-stu200776/trace-isolated-podmonitor},1651158947,0
{job=theodolite-stu200776/trace-isolated-podmonitor},1651158952,0
{job=theodolite-stu200776/trace-isolated-podmonitor},1651158957,0
{job=theodolite-stu200776/trace-isolated-podmonitor},1651158962,0
{job=theodolite-stu200776/trace-isolated-podmonitor},1651158967,0
{job=theodolite-stu200776/trace-isolated-podmonitor},1651158972,0
{job=theodolite-stu200776/trace-isolated-podmonitor},1651158977,0
{job=theodolite-stu200776/trace-isolated-podmonitor},1651158982,0
{job=theodolite-stu200776/trace-isolated-podmonitor},1651158987,0
{job=theodolite-stu200776/trace-isolated-podmonitor},1651158992,0
{job=theodolite-stu200776/trace-isolated-podmonitor},1651158997,0
{job=theodolite-stu200776/trace-isolated-podmonitor},1651159002,0
{job=theodolite-stu200776/trace-isolated-podmonitor},1651159007,0
{job=theodolite-stu200776/trace-isolated-podmonitor},1651159012,0
{job=theodolite-stu200776/trace-isolated-podmonitor},1651159017,0
{job=theodolite-stu200776/trace-isolated-podmonitor},1651159022,0
{job=theodolite-stu200776/trace-isolated-podmonitor},1651159027,0
{job=theodolite-stu200776/trace-isolated-podmonitor},1651159032,0
{job=theodolite-stu200776/trace-isolated-podmonitor},1651159037,0
{job=theodolite-stu200776/trace-isolated-podmonitor},1651159042,0
