labels,timestamp,value
{job=theodolite-stu200776/trace-isolated-podmonitor},1651161457,0
{job=theodolite-stu200776/trace-isolated-podmonitor},1651161462,0
{job=theodolite-stu200776/trace-isolated-podmonitor},1651161467,0
{job=theodolite-stu200776/trace-isolated-podmonitor},1651161472,0
{job=theodolite-stu200776/trace-isolated-podmonitor},1651161477,0
{job=theodolite-stu200776/trace-isolated-podmonitor},1651161482,0
{job=theodolite-stu200776/trace-isolated-podmonitor},1651161487,0
{job=theodolite-stu200776/trace-isolated-podmonitor},1651161492,0
{job=theodolite-stu200776/trace-isolated-podmonitor},1651161497,0
{job=theodolite-stu200776/trace-isolated-podmonitor},1651161502,0
{job=theodolite-stu200776/trace-isolated-podmonitor},1651161507,0
{job=theodolite-stu200776/trace-isolated-podmonitor},1651161512,0
{job=theodolite-stu200776/trace-isolated-podmonitor},1651161517,0
{job=theodolite-stu200776/trace-isolated-podmonitor},1651161522,0
{job=theodolite-stu200776/trace-isolated-podmonitor},1651161527,0
{job=theodolite-stu200776/trace-isolated-podmonitor},1651161532,0
{job=theodolite-stu200776/trace-isolated-podmonitor},1651161537,0
{job=theodolite-stu200776/trace-isolated-podmonitor},1651161542,0
{job=theodolite-stu200776/trace-isolated-podmonitor},1651161547,0
{job=theodolite-stu200776/trace-isolated-podmonitor},1651161552,0
{job=theodolite-stu200776/trace-isolated-podmonitor},1651161557,0
{job=theodolite-stu200776/trace-isolated-podmonitor},1651161562,0
{job=theodolite-stu200776/trace-isolated-podmonitor},1651161567,0
{job=theodolite-stu200776/trace-isolated-podmonitor},1651161572,0
{job=theodolite-stu200776/trace-isolated-podmonitor},1651161577,0
{job=theodolite-stu200776/trace-isolated-podmonitor},1651161582,0
{job=theodolite-stu200776/trace-isolated-podmonitor},1651161587,0
{job=theodolite-stu200776/trace-isolated-podmonitor},1651161592,0
{job=theodolite-stu200776/trace-isolated-podmonitor},1651161597,0
{job=theodolite-stu200776/trace-isolated-podmonitor},1651161602,0
{job=theodolite-stu200776/trace-isolated-podmonitor},1651161607,0
{job=theodolite-stu200776/trace-isolated-podmonitor},1651161612,0
{job=theodolite-stu200776/trace-isolated-podmonitor},1651161617,0
{job=theodolite-stu200776/trace-isolated-podmonitor},1651161622,0
{job=theodolite-stu200776/trace-isolated-podmonitor},1651161627,0
{job=theodolite-stu200776/trace-isolated-podmonitor},1651161632,0
{job=theodolite-stu200776/trace-isolated-podmonitor},1651161637,0
{job=theodolite-stu200776/trace-isolated-podmonitor},1651161642,0
{job=theodolite-stu200776/trace-isolated-podmonitor},1651161647,0
{job=theodolite-stu200776/trace-isolated-podmonitor},1651161652,0
{job=theodolite-stu200776/trace-isolated-podmonitor},1651161657,0
{job=theodolite-stu200776/trace-isolated-podmonitor},1651161662,0
{job=theodolite-stu200776/trace-isolated-podmonitor},1651161667,0
{job=theodolite-stu200776/trace-isolated-podmonitor},1651161672,0
{job=theodolite-stu200776/trace-isolated-podmonitor},1651161677,0
{job=theodolite-stu200776/trace-isolated-podmonitor},1651161682,0
{job=theodolite-stu200776/trace-isolated-podmonitor},1651161687,0
{job=theodolite-stu200776/trace-isolated-podmonitor},1651161692,0
{job=theodolite-stu200776/trace-isolated-podmonitor},1651161697,63.84444489441483
{job=theodolite-stu200776/trace-isolated-podmonitor},1651161702,559.8968527793379
{job=theodolite-stu200776/trace-isolated-podmonitor},1651161707,1127.3846865118594
{job=theodolite-stu200776/trace-isolated-podmonitor},1651161712,1151.7451266017906
{job=theodolite-stu200776/trace-isolated-podmonitor},1651161717,1118.155003455733
{job=theodolite-stu200776/trace-isolated-podmonitor},1651161722,1040.5026388328001
{job=theodolite-stu200776/trace-isolated-podmonitor},1651161727,1063.2356191950919
{job=theodolite-stu200776/trace-isolated-podmonitor},1651161732,1327.7856547258768
{job=theodolite-stu200776/trace-isolated-podmonitor},1651161737,1497.2332389524445
{job=theodolite-stu200776/trace-isolated-podmonitor},1651161742,1337.1954621927493
{job=theodolite-stu200776/trace-isolated-podmonitor},1651161747,1174.313252810996
{job=theodolite-stu200776/trace-isolated-podmonitor},1651161752,1073.460041535262
{job=theodolite-stu200776/trace-isolated-podmonitor},1651161757,857.324921507005
{job=theodolite-stu200776/trace-isolated-podmonitor},1651161762,410.90539065972797
{job=theodolite-stu200776/trace-isolated-podmonitor},1651161767,0
{job=theodolite-stu200776/trace-isolated-podmonitor},1651161772,0
{job=theodolite-stu200776/trace-isolated-podmonitor},1651161777,0
{job=theodolite-stu200776/trace-isolated-podmonitor},1651161782,0
{job=theodolite-stu200776/trace-isolated-podmonitor},1651161787,0
{job=theodolite-stu200776/trace-isolated-podmonitor},1651161792,0
{job=theodolite-stu200776/trace-isolated-podmonitor},1651161797,0
{job=theodolite-stu200776/trace-isolated-podmonitor},1651161802,0
{job=theodolite-stu200776/trace-isolated-podmonitor},1651161807,0
{job=theodolite-stu200776/trace-isolated-podmonitor},1651161812,0
{job=theodolite-stu200776/trace-isolated-podmonitor},1651161817,0
{job=theodolite-stu200776/trace-isolated-podmonitor},1651161822,720.2074532408969
{job=theodolite-stu200776/trace-isolated-podmonitor},1651161827,1639.9629982235851
{job=theodolite-stu200776/trace-isolated-podmonitor},1651161832,1642.9547790360946
{job=theodolite-stu200776/trace-isolated-podmonitor},1651161837,1544.8282319533585
{job=theodolite-stu200776/trace-isolated-podmonitor},1651161842,1405.5744475855997
{job=theodolite-stu200776/trace-isolated-podmonitor},1651161847,1331.9952524575006
{job=theodolite-stu200776/trace-isolated-podmonitor},1651161852,1697.7454556048954
{job=theodolite-stu200776/trace-isolated-podmonitor},1651161857,2017.6522234209351
{job=theodolite-stu200776/trace-isolated-podmonitor},1651161862,1791.1483080414077
{job=theodolite-stu200776/trace-isolated-podmonitor},1651161867,1557.4737411576339
{job=theodolite-stu200776/trace-isolated-podmonitor},1651161872,1418.2658763637867
{job=theodolite-stu200776/trace-isolated-podmonitor},1651161877,1205.2930537814489
{job=theodolite-stu200776/trace-isolated-podmonitor},1651161882,621.3091811217824
{job=theodolite-stu200776/trace-isolated-podmonitor},1651161887,0
