labels,timestamp,value
{consumergroup=__strimzi-topic-operator-kstreams},1651096197,8
{consumergroup=__strimzi-topic-operator-kstreams},1651096202,8
{consumergroup=__strimzi-topic-operator-kstreams},1651096207,8
{consumergroup=__strimzi-topic-operator-kstreams},1651096212,0
{consumergroup=__strimzi-topic-operator-kstreams},1651096217,0
{consumergroup=__strimzi-topic-operator-kstreams},1651096222,0
{consumergroup=__strimzi-topic-operator-kstreams},1651096227,0
{consumergroup=__strimzi-topic-operator-kstreams},1651096232,0
{consumergroup=__strimzi-topic-operator-kstreams},1651096237,0
{consumergroup=__strimzi-topic-operator-kstreams},1651096242,0
{consumergroup=__strimzi-topic-operator-kstreams},1651096247,0
{consumergroup=__strimzi-topic-operator-kstreams},1651096252,0
{consumergroup=__strimzi-topic-operator-kstreams},1651096257,0
{consumergroup=__strimzi-topic-operator-kstreams},1651096262,0
{consumergroup=__strimzi-topic-operator-kstreams},1651096267,0
{consumergroup=__strimzi-topic-operator-kstreams},1651096272,0
{consumergroup=__strimzi-topic-operator-kstreams},1651096277,0
{consumergroup=__strimzi-topic-operator-kstreams},1651096282,0
{consumergroup=__strimzi-topic-operator-kstreams},1651096287,0
{consumergroup=__strimzi-topic-operator-kstreams},1651096292,0
{consumergroup=__strimzi-topic-operator-kstreams},1651096297,0
{consumergroup=__strimzi-topic-operator-kstreams},1651096302,0
{consumergroup=__strimzi-topic-operator-kstreams},1651096307,0
{consumergroup=__strimzi-topic-operator-kstreams},1651096312,0
{consumergroup=__strimzi-topic-operator-kstreams},1651096317,0
{consumergroup=__strimzi-topic-operator-kstreams},1651096322,0
{consumergroup=__strimzi-topic-operator-kstreams},1651096327,0
{consumergroup=__strimzi-topic-operator-kstreams},1651096332,0
{consumergroup=__strimzi-topic-operator-kstreams},1651096337,0
{consumergroup=__strimzi-topic-operator-kstreams},1651096342,0
{consumergroup=__strimzi-topic-operator-kstreams},1651096347,0
{consumergroup=__strimzi-topic-operator-kstreams},1651096352,0
{consumergroup=__strimzi-topic-operator-kstreams},1651096357,0
{consumergroup=__strimzi-topic-operator-kstreams},1651096362,0
{consumergroup=__strimzi-topic-operator-kstreams},1651096367,0
{consumergroup=__strimzi-topic-operator-kstreams},1651096372,0
{consumergroup=__strimzi-topic-operator-kstreams},1651096377,0
{consumergroup=__strimzi-topic-operator-kstreams},1651096382,0
{consumergroup=__strimzi-topic-operator-kstreams},1651096387,0
{consumergroup=__strimzi-topic-operator-kstreams},1651096392,0
{consumergroup=__strimzi-topic-operator-kstreams},1651096397,0
{consumergroup=__strimzi-topic-operator-kstreams},1651096402,0
{consumergroup=__strimzi-topic-operator-kstreams},1651096407,0
{consumergroup=__strimzi-topic-operator-kstreams},1651096412,0
{consumergroup=__strimzi-topic-operator-kstreams},1651096417,0
{consumergroup=__strimzi-topic-operator-kstreams},1651096422,0
{consumergroup=__strimzi-topic-operator-kstreams},1651096427,0
{consumergroup=__strimzi-topic-operator-kstreams},1651096432,0
{consumergroup=__strimzi-topic-operator-kstreams},1651096437,0
{consumergroup=__strimzi-topic-operator-kstreams},1651096442,0
{consumergroup=__strimzi-topic-operator-kstreams},1651096447,0
{consumergroup=__strimzi-topic-operator-kstreams},1651096452,0
{consumergroup=__strimzi-topic-operator-kstreams},1651096457,0
{consumergroup=__strimzi-topic-operator-kstreams},1651096462,0
{consumergroup=__strimzi-topic-operator-kstreams},1651096467,0
{consumergroup=__strimzi-topic-operator-kstreams},1651096472,0
{consumergroup=__strimzi-topic-operator-kstreams},1651096477,0
{consumergroup=__strimzi-topic-operator-kstreams},1651096482,0
{consumergroup=__strimzi-topic-operator-kstreams},1651096487,0
{consumergroup=__strimzi-topic-operator-kstreams},1651096492,0
{consumergroup=__strimzi-topic-operator-kstreams},1651096497,0
{consumergroup=__strimzi-topic-operator-kstreams},1651096502,0
{consumergroup=__strimzi-topic-operator-kstreams},1651096507,0
{consumergroup=landscape-service},1651096242,3489536
{consumergroup=landscape-service},1651096247,3489536
{consumergroup=landscape-service},1651096252,3489536
{consumergroup=landscape-service},1651096257,5428739
{consumergroup=landscape-service},1651096262,5428739
{consumergroup=landscape-service},1651096267,5428739
{consumergroup=landscape-service},1651096272,6644508
{consumergroup=landscape-service},1651096277,6644508
{consumergroup=landscape-service},1651096282,6644508
{consumergroup=landscape-service},1651096287,7258123
{consumergroup=landscape-service},1651096292,7258123
{consumergroup=landscape-service},1651096297,7258123
{consumergroup=landscape-service},1651096302,8206751
{consumergroup=landscape-service},1651096307,8206751
{consumergroup=landscape-service},1651096312,8206751
{consumergroup=landscape-service},1651096317,8477813
{consumergroup=landscape-service},1651096322,8477813
{consumergroup=landscape-service},1651096327,8477813
{consumergroup=landscape-service},1651096332,8949951
{consumergroup=landscape-service},1651096337,8949951
{consumergroup=landscape-service},1651096342,8949951
{consumergroup=landscape-service},1651096347,8887370
{consumergroup=landscape-service},1651096352,8887370
{consumergroup=landscape-service},1651096357,8887370
{consumergroup=landscape-service},1651096362,9094851
{consumergroup=landscape-service},1651096367,9094851
{consumergroup=landscape-service},1651096372,9094851
{consumergroup=landscape-service},1651096377,9180171
{consumergroup=landscape-service},1651096382,9180171
{consumergroup=landscape-service},1651096387,9180171
{consumergroup=landscape-service},1651096392,9286486
{consumergroup=landscape-service},1651096397,9286486
{consumergroup=landscape-service},1651096402,9286486
{consumergroup=landscape-service},1651096407,9381813
{consumergroup=landscape-service},1651096412,9381813
{consumergroup=landscape-service},1651096417,9381813
{consumergroup=landscape-service},1651096422,9359267
{consumergroup=landscape-service},1651096427,9359267
{consumergroup=landscape-service},1651096432,9359267
{consumergroup=landscape-service},1651096437,9473339
{consumergroup=landscape-service},1651096442,9473339
{consumergroup=landscape-service},1651096447,9473339
{consumergroup=landscape-service},1651096452,9429270
{consumergroup=landscape-service},1651096457,9429270
{consumergroup=landscape-service},1651096462,9429270
{consumergroup=landscape-service},1651096467,9392801
{consumergroup=landscape-service},1651096472,9392801
{consumergroup=landscape-service},1651096477,9392801
{consumergroup=landscape-service},1651096482,9283868
{consumergroup=landscape-service},1651096487,9283868
{consumergroup=landscape-service},1651096492,9283868
{consumergroup=landscape-service},1651096497,9577964
{consumergroup=landscape-service},1651096502,9577964
{consumergroup=landscape-service},1651096507,9577964
