labels,timestamp,value
{job=theodolite-stu200776/trace-isolated-podmonitor},1651156371,0
{job=theodolite-stu200776/trace-isolated-podmonitor},1651156376,0
{job=theodolite-stu200776/trace-isolated-podmonitor},1651156381,0
{job=theodolite-stu200776/trace-isolated-podmonitor},1651156386,0
{job=theodolite-stu200776/trace-isolated-podmonitor},1651156391,0
{job=theodolite-stu200776/trace-isolated-podmonitor},1651156396,0
{job=theodolite-stu200776/trace-isolated-podmonitor},1651156401,0
{job=theodolite-stu200776/trace-isolated-podmonitor},1651156406,0
{job=theodolite-stu200776/trace-isolated-podmonitor},1651156411,0
{job=theodolite-stu200776/trace-isolated-podmonitor},1651156416,0
{job=theodolite-stu200776/trace-isolated-podmonitor},1651156421,0
{job=theodolite-stu200776/trace-isolated-podmonitor},1651156426,0
{job=theodolite-stu200776/trace-isolated-podmonitor},1651156431,0
{job=theodolite-stu200776/trace-isolated-podmonitor},1651156436,0
{job=theodolite-stu200776/trace-isolated-podmonitor},1651156441,0
{job=theodolite-stu200776/trace-isolated-podmonitor},1651156446,0
{job=theodolite-stu200776/trace-isolated-podmonitor},1651156451,0
{job=theodolite-stu200776/trace-isolated-podmonitor},1651156456,0
{job=theodolite-stu200776/trace-isolated-podmonitor},1651156461,0
{job=theodolite-stu200776/trace-isolated-podmonitor},1651156466,0
{job=theodolite-stu200776/trace-isolated-podmonitor},1651156471,0
{job=theodolite-stu200776/trace-isolated-podmonitor},1651156476,0
{job=theodolite-stu200776/trace-isolated-podmonitor},1651156481,0
{job=theodolite-stu200776/trace-isolated-podmonitor},1651156486,0
{job=theodolite-stu200776/trace-isolated-podmonitor},1651156491,0
{job=theodolite-stu200776/trace-isolated-podmonitor},1651156496,0
{job=theodolite-stu200776/trace-isolated-podmonitor},1651156501,0
{job=theodolite-stu200776/trace-isolated-podmonitor},1651156506,0
{job=theodolite-stu200776/trace-isolated-podmonitor},1651156511,0
{job=theodolite-stu200776/trace-isolated-podmonitor},1651156516,0
{job=theodolite-stu200776/trace-isolated-podmonitor},1651156521,0
{job=theodolite-stu200776/trace-isolated-podmonitor},1651156526,0
{job=theodolite-stu200776/trace-isolated-podmonitor},1651156531,0
{job=theodolite-stu200776/trace-isolated-podmonitor},1651156536,0
{job=theodolite-stu200776/trace-isolated-podmonitor},1651156541,0
{job=theodolite-stu200776/trace-isolated-podmonitor},1651156546,0
{job=theodolite-stu200776/trace-isolated-podmonitor},1651156551,0
{job=theodolite-stu200776/trace-isolated-podmonitor},1651156556,0
{job=theodolite-stu200776/trace-isolated-podmonitor},1651156561,0
{job=theodolite-stu200776/trace-isolated-podmonitor},1651156566,0
{job=theodolite-stu200776/trace-isolated-podmonitor},1651156571,0
{job=theodolite-stu200776/trace-isolated-podmonitor},1651156576,0
{job=theodolite-stu200776/trace-isolated-podmonitor},1651156581,0
{job=theodolite-stu200776/trace-isolated-podmonitor},1651156586,0
{job=theodolite-stu200776/trace-isolated-podmonitor},1651156591,0
{job=theodolite-stu200776/trace-isolated-podmonitor},1651156596,0
{job=theodolite-stu200776/trace-isolated-podmonitor},1651156601,0
{job=theodolite-stu200776/trace-isolated-podmonitor},1651156606,0
{job=theodolite-stu200776/trace-isolated-podmonitor},1651156611,0
{job=theodolite-stu200776/trace-isolated-podmonitor},1651156616,0
{job=theodolite-stu200776/trace-isolated-podmonitor},1651156621,0
{job=theodolite-stu200776/trace-isolated-podmonitor},1651156626,0
{job=theodolite-stu200776/trace-isolated-podmonitor},1651156631,0
{job=theodolite-stu200776/trace-isolated-podmonitor},1651156636,0
{job=theodolite-stu200776/trace-isolated-podmonitor},1651156641,0
{job=theodolite-stu200776/trace-isolated-podmonitor},1651156646,0
{job=theodolite-stu200776/trace-isolated-podmonitor},1651156651,0
{job=theodolite-stu200776/trace-isolated-podmonitor},1651156656,0
{job=theodolite-stu200776/trace-isolated-podmonitor},1651156661,0
{job=theodolite-stu200776/trace-isolated-podmonitor},1651156666,0
{job=theodolite-stu200776/trace-isolated-podmonitor},1651156671,0
{job=theodolite-stu200776/trace-isolated-podmonitor},1651156676,0
{job=theodolite-stu200776/trace-isolated-podmonitor},1651156681,0
{job=theodolite-stu200776/trace-isolated-podmonitor},1651156686,0
{job=theodolite-stu200776/trace-isolated-podmonitor},1651156691,0
{job=theodolite-stu200776/trace-isolated-podmonitor},1651156696,0
{job=theodolite-stu200776/trace-isolated-podmonitor},1651156701,0
{job=theodolite-stu200776/trace-isolated-podmonitor},1651156706,0
{job=theodolite-stu200776/trace-isolated-podmonitor},1651156711,0
{job=theodolite-stu200776/trace-isolated-podmonitor},1651156716,0
{job=theodolite-stu200776/trace-isolated-podmonitor},1651156721,0
{job=theodolite-stu200776/trace-isolated-podmonitor},1651156726,0
{job=theodolite-stu200776/trace-isolated-podmonitor},1651156731,0
{job=theodolite-stu200776/trace-isolated-podmonitor},1651156736,0
{job=theodolite-stu200776/trace-isolated-podmonitor},1651156741,0
{job=theodolite-stu200776/trace-isolated-podmonitor},1651156746,0
{job=theodolite-stu200776/trace-isolated-podmonitor},1651156751,0
{job=theodolite-stu200776/trace-isolated-podmonitor},1651156756,0
{job=theodolite-stu200776/trace-isolated-podmonitor},1651156761,0
{job=theodolite-stu200776/trace-isolated-podmonitor},1651156766,0
{job=theodolite-stu200776/trace-isolated-podmonitor},1651156771,0
{job=theodolite-stu200776/trace-isolated-podmonitor},1651156776,0
{job=theodolite-stu200776/trace-isolated-podmonitor},1651156781,0
{job=theodolite-stu200776/trace-isolated-podmonitor},1651156786,0
{job=theodolite-stu200776/trace-isolated-podmonitor},1651156791,0
{job=theodolite-stu200776/trace-isolated-podmonitor},1651156796,0
