labels,timestamp,value
{consumergroup=__strimzi-topic-operator-kstreams},1651101851,8
{consumergroup=__strimzi-topic-operator-kstreams},1651101856,8
{consumergroup=__strimzi-topic-operator-kstreams},1651101861,8
{consumergroup=__strimzi-topic-operator-kstreams},1651101866,0
{consumergroup=__strimzi-topic-operator-kstreams},1651101871,0
{consumergroup=__strimzi-topic-operator-kstreams},1651101876,0
{consumergroup=__strimzi-topic-operator-kstreams},1651101881,0
{consumergroup=__strimzi-topic-operator-kstreams},1651101886,0
{consumergroup=__strimzi-topic-operator-kstreams},1651101891,0
{consumergroup=__strimzi-topic-operator-kstreams},1651101896,0
{consumergroup=__strimzi-topic-operator-kstreams},1651101901,0
{consumergroup=__strimzi-topic-operator-kstreams},1651101906,0
{consumergroup=__strimzi-topic-operator-kstreams},1651101911,0
{consumergroup=__strimzi-topic-operator-kstreams},1651101916,0
{consumergroup=__strimzi-topic-operator-kstreams},1651101921,0
{consumergroup=__strimzi-topic-operator-kstreams},1651101926,0
{consumergroup=__strimzi-topic-operator-kstreams},1651101931,0
{consumergroup=__strimzi-topic-operator-kstreams},1651101936,0
{consumergroup=__strimzi-topic-operator-kstreams},1651101941,0
{consumergroup=__strimzi-topic-operator-kstreams},1651101946,0
{consumergroup=__strimzi-topic-operator-kstreams},1651101951,0
{consumergroup=__strimzi-topic-operator-kstreams},1651101956,0
{consumergroup=__strimzi-topic-operator-kstreams},1651101961,0
{consumergroup=__strimzi-topic-operator-kstreams},1651101966,0
{consumergroup=__strimzi-topic-operator-kstreams},1651101971,0
{consumergroup=__strimzi-topic-operator-kstreams},1651101976,0
{consumergroup=__strimzi-topic-operator-kstreams},1651101981,0
{consumergroup=__strimzi-topic-operator-kstreams},1651101986,0
{consumergroup=__strimzi-topic-operator-kstreams},1651101991,0
{consumergroup=__strimzi-topic-operator-kstreams},1651101996,0
{consumergroup=__strimzi-topic-operator-kstreams},1651102001,0
{consumergroup=__strimzi-topic-operator-kstreams},1651102006,0
{consumergroup=__strimzi-topic-operator-kstreams},1651102011,0
{consumergroup=__strimzi-topic-operator-kstreams},1651102016,0
{consumergroup=__strimzi-topic-operator-kstreams},1651102021,0
{consumergroup=__strimzi-topic-operator-kstreams},1651102026,0
{consumergroup=__strimzi-topic-operator-kstreams},1651102031,0
{consumergroup=__strimzi-topic-operator-kstreams},1651102036,0
{consumergroup=__strimzi-topic-operator-kstreams},1651102041,0
{consumergroup=__strimzi-topic-operator-kstreams},1651102046,0
{consumergroup=__strimzi-topic-operator-kstreams},1651102051,0
{consumergroup=__strimzi-topic-operator-kstreams},1651102056,0
{consumergroup=__strimzi-topic-operator-kstreams},1651102061,0
{consumergroup=__strimzi-topic-operator-kstreams},1651102066,0
{consumergroup=__strimzi-topic-operator-kstreams},1651102071,0
{consumergroup=__strimzi-topic-operator-kstreams},1651102076,0
{consumergroup=__strimzi-topic-operator-kstreams},1651102081,0
{consumergroup=__strimzi-topic-operator-kstreams},1651102086,0
{consumergroup=__strimzi-topic-operator-kstreams},1651102091,0
{consumergroup=__strimzi-topic-operator-kstreams},1651102096,0
{consumergroup=__strimzi-topic-operator-kstreams},1651102101,0
{consumergroup=__strimzi-topic-operator-kstreams},1651102106,0
{consumergroup=__strimzi-topic-operator-kstreams},1651102111,0
{consumergroup=__strimzi-topic-operator-kstreams},1651102116,0
{consumergroup=__strimzi-topic-operator-kstreams},1651102121,0
{consumergroup=__strimzi-topic-operator-kstreams},1651102126,0
{consumergroup=__strimzi-topic-operator-kstreams},1651102131,0
{consumergroup=__strimzi-topic-operator-kstreams},1651102136,0
{consumergroup=__strimzi-topic-operator-kstreams},1651102141,0
{consumergroup=__strimzi-topic-operator-kstreams},1651102146,0
{consumergroup=__strimzi-topic-operator-kstreams},1651102151,0
{consumergroup=__strimzi-topic-operator-kstreams},1651102156,0
{consumergroup=landscape-service},1651101881,1143018
{consumergroup=landscape-service},1651101886,1143018
{consumergroup=landscape-service},1651101891,1143018
{consumergroup=landscape-service},1651101896,7057569
{consumergroup=landscape-service},1651101901,7057569
{consumergroup=landscape-service},1651101906,7057569
{consumergroup=landscape-service},1651101911,10238917
{consumergroup=landscape-service},1651101916,10238917
{consumergroup=landscape-service},1651101921,10238917
{consumergroup=landscape-service},1651101926,11725925
{consumergroup=landscape-service},1651101931,11725925
{consumergroup=landscape-service},1651101936,11725925
{consumergroup=landscape-service},1651101941,13765438
{consumergroup=landscape-service},1651101946,13765438
{consumergroup=landscape-service},1651101951,13765438
{consumergroup=landscape-service},1651101956,14423398
{consumergroup=landscape-service},1651101961,14423398
{consumergroup=landscape-service},1651101966,14423398
{consumergroup=landscape-service},1651101971,16448116
{consumergroup=landscape-service},1651101976,16448116
{consumergroup=landscape-service},1651101981,16448116
{consumergroup=landscape-service},1651101986,16488481
{consumergroup=landscape-service},1651101991,16488481
{consumergroup=landscape-service},1651101996,16488481
{consumergroup=landscape-service},1651102001,17898486
{consumergroup=landscape-service},1651102006,17898486
{consumergroup=landscape-service},1651102011,17898486
{consumergroup=landscape-service},1651102016,18172866
{consumergroup=landscape-service},1651102021,18172866
{consumergroup=landscape-service},1651102026,18172866
{consumergroup=landscape-service},1651102031,19242579
{consumergroup=landscape-service},1651102036,19242579
{consumergroup=landscape-service},1651102041,19242579
{consumergroup=landscape-service},1651102046,19998484
{consumergroup=landscape-service},1651102051,19998484
{consumergroup=landscape-service},1651102056,19998484
{consumergroup=landscape-service},1651102061,19885768
{consumergroup=landscape-service},1651102066,19885768
{consumergroup=landscape-service},1651102071,19885768
{consumergroup=landscape-service},1651102076,20519176
{consumergroup=landscape-service},1651102081,20519176
{consumergroup=landscape-service},1651102086,20519176
{consumergroup=landscape-service},1651102091,20571455
{consumergroup=landscape-service},1651102096,20571455
{consumergroup=landscape-service},1651102101,20571455
{consumergroup=landscape-service},1651102106,21307678
{consumergroup=landscape-service},1651102111,21307678
{consumergroup=landscape-service},1651102116,21307678
{consumergroup=landscape-service},1651102121,21159679
{consumergroup=landscape-service},1651102126,21159679
{consumergroup=landscape-service},1651102131,21159679
{consumergroup=landscape-service},1651102136,21859939
{consumergroup=landscape-service},1651102141,21859939
{consumergroup=landscape-service},1651102146,21859939
{consumergroup=landscape-service},1651102151,21813441
{consumergroup=landscape-service},1651102156,21813441
