labels,timestamp,value
{job=theodolite-stu200776/trace-isolated-podmonitor},1651172218,0
{job=theodolite-stu200776/trace-isolated-podmonitor},1651172223,0
{job=theodolite-stu200776/trace-isolated-podmonitor},1651172228,0
{job=theodolite-stu200776/trace-isolated-podmonitor},1651172233,0
{job=theodolite-stu200776/trace-isolated-podmonitor},1651172238,0
{job=theodolite-stu200776/trace-isolated-podmonitor},1651172243,0
{job=theodolite-stu200776/trace-isolated-podmonitor},1651172248,0
{job=theodolite-stu200776/trace-isolated-podmonitor},1651172253,0
{job=theodolite-stu200776/trace-isolated-podmonitor},1651172258,0
{job=theodolite-stu200776/trace-isolated-podmonitor},1651172263,0
{job=theodolite-stu200776/trace-isolated-podmonitor},1651172268,0
{job=theodolite-stu200776/trace-isolated-podmonitor},1651172273,0
{job=theodolite-stu200776/trace-isolated-podmonitor},1651172278,0
{job=theodolite-stu200776/trace-isolated-podmonitor},1651172283,0
{job=theodolite-stu200776/trace-isolated-podmonitor},1651172288,0
{job=theodolite-stu200776/trace-isolated-podmonitor},1651172293,0
{job=theodolite-stu200776/trace-isolated-podmonitor},1651172298,0
{job=theodolite-stu200776/trace-isolated-podmonitor},1651172303,0
{job=theodolite-stu200776/trace-isolated-podmonitor},1651172308,0
{job=theodolite-stu200776/trace-isolated-podmonitor},1651172313,0
{job=theodolite-stu200776/trace-isolated-podmonitor},1651172318,0
{job=theodolite-stu200776/trace-isolated-podmonitor},1651172323,0
{job=theodolite-stu200776/trace-isolated-podmonitor},1651172328,0
{job=theodolite-stu200776/trace-isolated-podmonitor},1651172333,0
{job=theodolite-stu200776/trace-isolated-podmonitor},1651172338,0
{job=theodolite-stu200776/trace-isolated-podmonitor},1651172343,0
{job=theodolite-stu200776/trace-isolated-podmonitor},1651172348,0
{job=theodolite-stu200776/trace-isolated-podmonitor},1651172353,0
{job=theodolite-stu200776/trace-isolated-podmonitor},1651172358,0
{job=theodolite-stu200776/trace-isolated-podmonitor},1651172363,0
{job=theodolite-stu200776/trace-isolated-podmonitor},1651172368,0
{job=theodolite-stu200776/trace-isolated-podmonitor},1651172373,0
{job=theodolite-stu200776/trace-isolated-podmonitor},1651172378,0
{job=theodolite-stu200776/trace-isolated-podmonitor},1651172383,0
{job=theodolite-stu200776/trace-isolated-podmonitor},1651172388,0
{job=theodolite-stu200776/trace-isolated-podmonitor},1651172393,0
{job=theodolite-stu200776/trace-isolated-podmonitor},1651172398,0
{job=theodolite-stu200776/trace-isolated-podmonitor},1651172403,0
{job=theodolite-stu200776/trace-isolated-podmonitor},1651172408,0
{job=theodolite-stu200776/trace-isolated-podmonitor},1651172413,0
{job=theodolite-stu200776/trace-isolated-podmonitor},1651172418,0
{job=theodolite-stu200776/trace-isolated-podmonitor},1651172423,0
{job=theodolite-stu200776/trace-isolated-podmonitor},1651172428,0
{job=theodolite-stu200776/trace-isolated-podmonitor},1651172433,0
{job=theodolite-stu200776/trace-isolated-podmonitor},1651172438,0
{job=theodolite-stu200776/trace-isolated-podmonitor},1651172443,0
{job=theodolite-stu200776/trace-isolated-podmonitor},1651172448,0
{job=theodolite-stu200776/trace-isolated-podmonitor},1651172453,0
{job=theodolite-stu200776/trace-isolated-podmonitor},1651172458,0
{job=theodolite-stu200776/trace-isolated-podmonitor},1651172463,0
{job=theodolite-stu200776/trace-isolated-podmonitor},1651172468,0
{job=theodolite-stu200776/trace-isolated-podmonitor},1651172473,0
{job=theodolite-stu200776/trace-isolated-podmonitor},1651172478,0
{job=theodolite-stu200776/trace-isolated-podmonitor},1651172483,0
{job=theodolite-stu200776/trace-isolated-podmonitor},1651172488,0
{job=theodolite-stu200776/trace-isolated-podmonitor},1651172493,0
{job=theodolite-stu200776/trace-isolated-podmonitor},1651172498,0
{job=theodolite-stu200776/trace-isolated-podmonitor},1651172503,0
{job=theodolite-stu200776/trace-isolated-podmonitor},1651172508,0
{job=theodolite-stu200776/trace-isolated-podmonitor},1651172513,0
{job=theodolite-stu200776/trace-isolated-podmonitor},1651172518,0
{job=theodolite-stu200776/trace-isolated-podmonitor},1651172523,0
{job=theodolite-stu200776/trace-isolated-podmonitor},1651172528,0
{job=theodolite-stu200776/trace-isolated-podmonitor},1651172533,0
{job=theodolite-stu200776/trace-isolated-podmonitor},1651172538,0
{job=theodolite-stu200776/trace-isolated-podmonitor},1651172543,0
{job=theodolite-stu200776/trace-isolated-podmonitor},1651172548,0
{job=theodolite-stu200776/trace-isolated-podmonitor},1651172553,0
{job=theodolite-stu200776/trace-isolated-podmonitor},1651172558,0
{job=theodolite-stu200776/trace-isolated-podmonitor},1651172563,0
{job=theodolite-stu200776/trace-isolated-podmonitor},1651172568,0
{job=theodolite-stu200776/trace-isolated-podmonitor},1651172573,0
{job=theodolite-stu200776/trace-isolated-podmonitor},1651172578,0
{job=theodolite-stu200776/trace-isolated-podmonitor},1651172583,0
{job=theodolite-stu200776/trace-isolated-podmonitor},1651172588,0
{job=theodolite-stu200776/trace-isolated-podmonitor},1651172593,0
{job=theodolite-stu200776/trace-isolated-podmonitor},1651172598,0
{job=theodolite-stu200776/trace-isolated-podmonitor},1651172603,0
{job=theodolite-stu200776/trace-isolated-podmonitor},1651172608,0
{job=theodolite-stu200776/trace-isolated-podmonitor},1651172613,0
{job=theodolite-stu200776/trace-isolated-podmonitor},1651172618,0
{job=theodolite-stu200776/trace-isolated-podmonitor},1651172623,0
{job=theodolite-stu200776/trace-isolated-podmonitor},1651172628,0
{job=theodolite-stu200776/trace-isolated-podmonitor},1651172633,0
{job=theodolite-stu200776/trace-isolated-podmonitor},1651172638,0
{job=theodolite-stu200776/trace-isolated-podmonitor},1651172643,0
{job=theodolite-stu200776/trace-isolated-podmonitor},1651172648,0
