labels,timestamp,value
{job=theodolite-stu200776/trace-isolated-podmonitor},1651206464,0
{job=theodolite-stu200776/trace-isolated-podmonitor},1651206469,0
{job=theodolite-stu200776/trace-isolated-podmonitor},1651206474,0
{job=theodolite-stu200776/trace-isolated-podmonitor},1651206479,0
{job=theodolite-stu200776/trace-isolated-podmonitor},1651206484,0
{job=theodolite-stu200776/trace-isolated-podmonitor},1651206489,0
{job=theodolite-stu200776/trace-isolated-podmonitor},1651206494,0
{job=theodolite-stu200776/trace-isolated-podmonitor},1651206499,0
{job=theodolite-stu200776/trace-isolated-podmonitor},1651206504,0
{job=theodolite-stu200776/trace-isolated-podmonitor},1651206509,0
{job=theodolite-stu200776/trace-isolated-podmonitor},1651206514,0
{job=theodolite-stu200776/trace-isolated-podmonitor},1651206519,0
{job=theodolite-stu200776/trace-isolated-podmonitor},1651206524,0
{job=theodolite-stu200776/trace-isolated-podmonitor},1651206529,0
{job=theodolite-stu200776/trace-isolated-podmonitor},1651206534,0
{job=theodolite-stu200776/trace-isolated-podmonitor},1651206539,0
{job=theodolite-stu200776/trace-isolated-podmonitor},1651206544,0
{job=theodolite-stu200776/trace-isolated-podmonitor},1651206549,0
{job=theodolite-stu200776/trace-isolated-podmonitor},1651206554,0
{job=theodolite-stu200776/trace-isolated-podmonitor},1651206559,0
{job=theodolite-stu200776/trace-isolated-podmonitor},1651206564,0
{job=theodolite-stu200776/trace-isolated-podmonitor},1651206569,0
{job=theodolite-stu200776/trace-isolated-podmonitor},1651206574,0
{job=theodolite-stu200776/trace-isolated-podmonitor},1651206579,0
{job=theodolite-stu200776/trace-isolated-podmonitor},1651206584,0
{job=theodolite-stu200776/trace-isolated-podmonitor},1651206589,0
{job=theodolite-stu200776/trace-isolated-podmonitor},1651206594,0
{job=theodolite-stu200776/trace-isolated-podmonitor},1651206599,0
{job=theodolite-stu200776/trace-isolated-podmonitor},1651206604,0
{job=theodolite-stu200776/trace-isolated-podmonitor},1651206609,0
{job=theodolite-stu200776/trace-isolated-podmonitor},1651206614,0
{job=theodolite-stu200776/trace-isolated-podmonitor},1651206619,0
{job=theodolite-stu200776/trace-isolated-podmonitor},1651206624,0
{job=theodolite-stu200776/trace-isolated-podmonitor},1651206629,0
{job=theodolite-stu200776/trace-isolated-podmonitor},1651206634,0
{job=theodolite-stu200776/trace-isolated-podmonitor},1651206639,0
{job=theodolite-stu200776/trace-isolated-podmonitor},1651206644,0
{job=theodolite-stu200776/trace-isolated-podmonitor},1651206649,0
{job=theodolite-stu200776/trace-isolated-podmonitor},1651206654,0
{job=theodolite-stu200776/trace-isolated-podmonitor},1651206659,0
{job=theodolite-stu200776/trace-isolated-podmonitor},1651206664,0
{job=theodolite-stu200776/trace-isolated-podmonitor},1651206669,0
{job=theodolite-stu200776/trace-isolated-podmonitor},1651206674,0
{job=theodolite-stu200776/trace-isolated-podmonitor},1651206679,0
{job=theodolite-stu200776/trace-isolated-podmonitor},1651206684,0
{job=theodolite-stu200776/trace-isolated-podmonitor},1651206689,0
{job=theodolite-stu200776/trace-isolated-podmonitor},1651206694,0
{job=theodolite-stu200776/trace-isolated-podmonitor},1651206699,0
{job=theodolite-stu200776/trace-isolated-podmonitor},1651206704,0
{job=theodolite-stu200776/trace-isolated-podmonitor},1651206709,0
{job=theodolite-stu200776/trace-isolated-podmonitor},1651206714,0
{job=theodolite-stu200776/trace-isolated-podmonitor},1651206719,0
{job=theodolite-stu200776/trace-isolated-podmonitor},1651206724,0
{job=theodolite-stu200776/trace-isolated-podmonitor},1651206729,0
{job=theodolite-stu200776/trace-isolated-podmonitor},1651206734,0
{job=theodolite-stu200776/trace-isolated-podmonitor},1651206739,0
{job=theodolite-stu200776/trace-isolated-podmonitor},1651206744,0
{job=theodolite-stu200776/trace-isolated-podmonitor},1651206749,0
{job=theodolite-stu200776/trace-isolated-podmonitor},1651206754,0
{job=theodolite-stu200776/trace-isolated-podmonitor},1651206759,0
{job=theodolite-stu200776/trace-isolated-podmonitor},1651206764,0
{job=theodolite-stu200776/trace-isolated-podmonitor},1651206769,0
{job=theodolite-stu200776/trace-isolated-podmonitor},1651206774,0
{job=theodolite-stu200776/trace-isolated-podmonitor},1651206779,0
