labels,timestamp,value
{consumergroup=__strimzi-topic-operator-kstreams},1651092809,6
{consumergroup=__strimzi-topic-operator-kstreams},1651092814,6
{consumergroup=__strimzi-topic-operator-kstreams},1651092819,6
{consumergroup=__strimzi-topic-operator-kstreams},1651092824,0
{consumergroup=__strimzi-topic-operator-kstreams},1651092829,0
{consumergroup=__strimzi-topic-operator-kstreams},1651092834,0
{consumergroup=__strimzi-topic-operator-kstreams},1651092839,0
{consumergroup=__strimzi-topic-operator-kstreams},1651092844,0
{consumergroup=__strimzi-topic-operator-kstreams},1651092849,0
{consumergroup=__strimzi-topic-operator-kstreams},1651092854,0
{consumergroup=__strimzi-topic-operator-kstreams},1651092859,0
{consumergroup=__strimzi-topic-operator-kstreams},1651092864,0
{consumergroup=__strimzi-topic-operator-kstreams},1651092869,0
{consumergroup=__strimzi-topic-operator-kstreams},1651092874,0
{consumergroup=__strimzi-topic-operator-kstreams},1651092879,0
{consumergroup=__strimzi-topic-operator-kstreams},1651092884,0
{consumergroup=__strimzi-topic-operator-kstreams},1651092889,0
{consumergroup=__strimzi-topic-operator-kstreams},1651092894,0
{consumergroup=__strimzi-topic-operator-kstreams},1651092899,0
{consumergroup=__strimzi-topic-operator-kstreams},1651092904,0
{consumergroup=__strimzi-topic-operator-kstreams},1651092909,0
{consumergroup=__strimzi-topic-operator-kstreams},1651092914,0
{consumergroup=__strimzi-topic-operator-kstreams},1651092919,0
{consumergroup=__strimzi-topic-operator-kstreams},1651092924,0
{consumergroup=__strimzi-topic-operator-kstreams},1651092929,0
{consumergroup=__strimzi-topic-operator-kstreams},1651092934,0
{consumergroup=__strimzi-topic-operator-kstreams},1651092939,0
{consumergroup=__strimzi-topic-operator-kstreams},1651092944,0
{consumergroup=__strimzi-topic-operator-kstreams},1651092949,0
{consumergroup=__strimzi-topic-operator-kstreams},1651092954,0
{consumergroup=__strimzi-topic-operator-kstreams},1651092959,0
{consumergroup=__strimzi-topic-operator-kstreams},1651092964,0
{consumergroup=__strimzi-topic-operator-kstreams},1651092969,0
{consumergroup=__strimzi-topic-operator-kstreams},1651092974,0
{consumergroup=__strimzi-topic-operator-kstreams},1651092979,0
{consumergroup=__strimzi-topic-operator-kstreams},1651092984,0
{consumergroup=__strimzi-topic-operator-kstreams},1651092989,0
{consumergroup=__strimzi-topic-operator-kstreams},1651092994,0
{consumergroup=__strimzi-topic-operator-kstreams},1651092999,0
{consumergroup=__strimzi-topic-operator-kstreams},1651093004,0
{consumergroup=__strimzi-topic-operator-kstreams},1651093009,0
{consumergroup=__strimzi-topic-operator-kstreams},1651093014,0
{consumergroup=__strimzi-topic-operator-kstreams},1651093019,0
{consumergroup=__strimzi-topic-operator-kstreams},1651093024,0
{consumergroup=__strimzi-topic-operator-kstreams},1651093029,0
{consumergroup=__strimzi-topic-operator-kstreams},1651093034,0
{consumergroup=__strimzi-topic-operator-kstreams},1651093039,0
{consumergroup=__strimzi-topic-operator-kstreams},1651093044,0
{consumergroup=__strimzi-topic-operator-kstreams},1651093049,0
{consumergroup=__strimzi-topic-operator-kstreams},1651093054,0
{consumergroup=__strimzi-topic-operator-kstreams},1651093059,0
{consumergroup=__strimzi-topic-operator-kstreams},1651093064,0
{consumergroup=__strimzi-topic-operator-kstreams},1651093069,0
{consumergroup=__strimzi-topic-operator-kstreams},1651093074,0
{consumergroup=__strimzi-topic-operator-kstreams},1651093079,0
{consumergroup=__strimzi-topic-operator-kstreams},1651093084,0
{consumergroup=__strimzi-topic-operator-kstreams},1651093089,0
{consumergroup=__strimzi-topic-operator-kstreams},1651093094,0
{consumergroup=__strimzi-topic-operator-kstreams},1651093099,0
{consumergroup=__strimzi-topic-operator-kstreams},1651093104,0
{consumergroup=__strimzi-topic-operator-kstreams},1651093109,0
{consumergroup=__strimzi-topic-operator-kstreams},1651093114,0
{consumergroup=__strimzi-topic-operator-kstreams},1651093119,0
{consumergroup=__strimzi-topic-operator-kstreams},1651093124,0
{consumergroup=landscape-service},1651092854,1699023
{consumergroup=landscape-service},1651092859,1699023
{consumergroup=landscape-service},1651092864,1699023
{consumergroup=landscape-service},1651092869,3276006
{consumergroup=landscape-service},1651092874,3276006
{consumergroup=landscape-service},1651092879,3276006
{consumergroup=landscape-service},1651092884,3867005
{consumergroup=landscape-service},1651092889,3867005
{consumergroup=landscape-service},1651092894,3867005
{consumergroup=landscape-service},1651092899,4216524
{consumergroup=landscape-service},1651092904,4216524
{consumergroup=landscape-service},1651092909,4216524
{consumergroup=landscape-service},1651092914,3699137
{consumergroup=landscape-service},1651092919,3699137
{consumergroup=landscape-service},1651092924,3699137
{consumergroup=landscape-service},1651092929,3681906
{consumergroup=landscape-service},1651092934,3681906
{consumergroup=landscape-service},1651092939,3681906
{consumergroup=landscape-service},1651092944,2863987
{consumergroup=landscape-service},1651092949,2863987
{consumergroup=landscape-service},1651092954,2863987
{consumergroup=landscape-service},1651092959,2823971
{consumergroup=landscape-service},1651092964,2823971
{consumergroup=landscape-service},1651092969,2823971
{consumergroup=landscape-service},1651092974,2163445
{consumergroup=landscape-service},1651092979,2163445
{consumergroup=landscape-service},1651092984,2163445
{consumergroup=landscape-service},1651092989,2122481
{consumergroup=landscape-service},1651092994,2122481
{consumergroup=landscape-service},1651092999,2122481
{consumergroup=landscape-service},1651093004,1766710
{consumergroup=landscape-service},1651093009,1766710
{consumergroup=landscape-service},1651093014,1766710
{consumergroup=landscape-service},1651093019,1583717
{consumergroup=landscape-service},1651093024,1583717
{consumergroup=landscape-service},1651093029,1583717
{consumergroup=landscape-service},1651093034,1360530
{consumergroup=landscape-service},1651093039,1360530
{consumergroup=landscape-service},1651093044,1360530
{consumergroup=landscape-service},1651093049,1127392
{consumergroup=landscape-service},1651093054,1127392
{consumergroup=landscape-service},1651093059,1127392
{consumergroup=landscape-service},1651093064,865412
{consumergroup=landscape-service},1651093069,865412
{consumergroup=landscape-service},1651093074,865412
{consumergroup=landscape-service},1651093079,772435
{consumergroup=landscape-service},1651093084,772435
{consumergroup=landscape-service},1651093089,772435
{consumergroup=landscape-service},1651093094,648250
{consumergroup=landscape-service},1651093099,648250
{consumergroup=landscape-service},1651093104,648250
{consumergroup=landscape-service},1651093109,678009
{consumergroup=landscape-service},1651093114,678009
{consumergroup=landscape-service},1651093119,678009
{consumergroup=landscape-service},1651093124,693862
