labels,timestamp,value
{job=theodolite-stu200776/trace-isolated-podmonitor},1651178503,0
{job=theodolite-stu200776/trace-isolated-podmonitor},1651178508,0
{job=theodolite-stu200776/trace-isolated-podmonitor},1651178513,0
{job=theodolite-stu200776/trace-isolated-podmonitor},1651178518,0
{job=theodolite-stu200776/trace-isolated-podmonitor},1651178523,0
{job=theodolite-stu200776/trace-isolated-podmonitor},1651178528,0
{job=theodolite-stu200776/trace-isolated-podmonitor},1651178533,0
{job=theodolite-stu200776/trace-isolated-podmonitor},1651178538,0
{job=theodolite-stu200776/trace-isolated-podmonitor},1651178543,0
{job=theodolite-stu200776/trace-isolated-podmonitor},1651178548,0
{job=theodolite-stu200776/trace-isolated-podmonitor},1651178553,0
{job=theodolite-stu200776/trace-isolated-podmonitor},1651178558,0
{job=theodolite-stu200776/trace-isolated-podmonitor},1651178563,0
{job=theodolite-stu200776/trace-isolated-podmonitor},1651178568,0
{job=theodolite-stu200776/trace-isolated-podmonitor},1651178573,0
{job=theodolite-stu200776/trace-isolated-podmonitor},1651178578,0
{job=theodolite-stu200776/trace-isolated-podmonitor},1651178583,0
{job=theodolite-stu200776/trace-isolated-podmonitor},1651178588,0
{job=theodolite-stu200776/trace-isolated-podmonitor},1651178593,0
{job=theodolite-stu200776/trace-isolated-podmonitor},1651178598,0
{job=theodolite-stu200776/trace-isolated-podmonitor},1651178603,0
{job=theodolite-stu200776/trace-isolated-podmonitor},1651178608,0
{job=theodolite-stu200776/trace-isolated-podmonitor},1651178613,0
{job=theodolite-stu200776/trace-isolated-podmonitor},1651178618,0
{job=theodolite-stu200776/trace-isolated-podmonitor},1651178623,0
{job=theodolite-stu200776/trace-isolated-podmonitor},1651178628,0
{job=theodolite-stu200776/trace-isolated-podmonitor},1651178633,0
{job=theodolite-stu200776/trace-isolated-podmonitor},1651178638,0
{job=theodolite-stu200776/trace-isolated-podmonitor},1651178643,0
{job=theodolite-stu200776/trace-isolated-podmonitor},1651178648,0
{job=theodolite-stu200776/trace-isolated-podmonitor},1651178653,0
{job=theodolite-stu200776/trace-isolated-podmonitor},1651178658,0
{job=theodolite-stu200776/trace-isolated-podmonitor},1651178663,0
{job=theodolite-stu200776/trace-isolated-podmonitor},1651178668,0
{job=theodolite-stu200776/trace-isolated-podmonitor},1651178673,0
{job=theodolite-stu200776/trace-isolated-podmonitor},1651178678,0
{job=theodolite-stu200776/trace-isolated-podmonitor},1651178683,0
{job=theodolite-stu200776/trace-isolated-podmonitor},1651178688,0
{job=theodolite-stu200776/trace-isolated-podmonitor},1651178693,0
{job=theodolite-stu200776/trace-isolated-podmonitor},1651178698,0
{job=theodolite-stu200776/trace-isolated-podmonitor},1651178703,0
{job=theodolite-stu200776/trace-isolated-podmonitor},1651178708,0
{job=theodolite-stu200776/trace-isolated-podmonitor},1651178713,0
{job=theodolite-stu200776/trace-isolated-podmonitor},1651178718,0
{job=theodolite-stu200776/trace-isolated-podmonitor},1651178723,0
{job=theodolite-stu200776/trace-isolated-podmonitor},1651178728,0
{job=theodolite-stu200776/trace-isolated-podmonitor},1651178733,0
{job=theodolite-stu200776/trace-isolated-podmonitor},1651178738,0
{job=theodolite-stu200776/trace-isolated-podmonitor},1651178743,0
{job=theodolite-stu200776/trace-isolated-podmonitor},1651178748,0
{job=theodolite-stu200776/trace-isolated-podmonitor},1651178753,0
{job=theodolite-stu200776/trace-isolated-podmonitor},1651178758,0
{job=theodolite-stu200776/trace-isolated-podmonitor},1651178763,0
{job=theodolite-stu200776/trace-isolated-podmonitor},1651178768,0
{job=theodolite-stu200776/trace-isolated-podmonitor},1651178773,0
{job=theodolite-stu200776/trace-isolated-podmonitor},1651178778,0
{job=theodolite-stu200776/trace-isolated-podmonitor},1651178783,0
{job=theodolite-stu200776/trace-isolated-podmonitor},1651178788,0
{job=theodolite-stu200776/trace-isolated-podmonitor},1651178793,0
{job=theodolite-stu200776/trace-isolated-podmonitor},1651178798,0
{job=theodolite-stu200776/trace-isolated-podmonitor},1651178803,0
{job=theodolite-stu200776/trace-isolated-podmonitor},1651178808,0
{job=theodolite-stu200776/trace-isolated-podmonitor},1651178813,0
{job=theodolite-stu200776/trace-isolated-podmonitor},1651178818,0
{job=theodolite-stu200776/trace-isolated-podmonitor},1651178823,0
{job=theodolite-stu200776/trace-isolated-podmonitor},1651178828,66.40358103846746
{job=theodolite-stu200776/trace-isolated-podmonitor},1651178833,128.2427423961634
{job=theodolite-stu200776/trace-isolated-podmonitor},1651178838,123.09935103514144
{job=theodolite-stu200776/trace-isolated-podmonitor},1651178843,121.1662692184064
{job=theodolite-stu200776/trace-isolated-podmonitor},1651178848,196.97032440929897
{job=theodolite-stu200776/trace-isolated-podmonitor},1651178853,186.91181467195432
{job=theodolite-stu200776/trace-isolated-podmonitor},1651178858,197.53295881764083
{job=theodolite-stu200776/trace-isolated-podmonitor},1651178863,222.73508643535806
{job=theodolite-stu200776/trace-isolated-podmonitor},1651178868,217.25100302536842
{job=theodolite-stu200776/trace-isolated-podmonitor},1651178873,202.09941134910486
{job=theodolite-stu200776/trace-isolated-podmonitor},1651178878,173.23036046141257
{job=theodolite-stu200776/trace-isolated-podmonitor},1651178883,163.17873268774164
{job=theodolite-stu200776/trace-isolated-podmonitor},1651178888,79.96647797139914
{job=theodolite-stu200776/trace-isolated-podmonitor},1651178893,30.12
{job=theodolite-stu200776/trace-isolated-podmonitor},1651178898,0
{job=theodolite-stu200776/trace-isolated-podmonitor},1651178903,0
{job=theodolite-stu200776/trace-isolated-podmonitor},1651178908,0
{job=theodolite-stu200776/trace-isolated-podmonitor},1651178913,0
{job=theodolite-stu200776/trace-isolated-podmonitor},1651178918,0
{job=theodolite-stu200776/trace-isolated-podmonitor},1651178923,0
{job=theodolite-stu200776/trace-isolated-podmonitor},1651178928,0
{job=theodolite-stu200776/trace-isolated-podmonitor},1651178933,0
