labels,timestamp,value
{consumergroup=__strimzi-topic-operator-kstreams},1651084686,0
{consumergroup=__strimzi-topic-operator-kstreams},1651084691,0
{consumergroup=__strimzi-topic-operator-kstreams},1651084696,0
{consumergroup=__strimzi-topic-operator-kstreams},1651084701,0
{consumergroup=__strimzi-topic-operator-kstreams},1651084706,0
{consumergroup=__strimzi-topic-operator-kstreams},1651084711,0
{consumergroup=__strimzi-topic-operator-kstreams},1651084716,0
{consumergroup=__strimzi-topic-operator-kstreams},1651084721,0
{consumergroup=__strimzi-topic-operator-kstreams},1651084726,0
{consumergroup=__strimzi-topic-operator-kstreams},1651084731,0
{consumergroup=__strimzi-topic-operator-kstreams},1651084736,0
{consumergroup=__strimzi-topic-operator-kstreams},1651084741,0
{consumergroup=__strimzi-topic-operator-kstreams},1651084746,0
{consumergroup=__strimzi-topic-operator-kstreams},1651084751,0
{consumergroup=__strimzi-topic-operator-kstreams},1651084756,0
{consumergroup=__strimzi-topic-operator-kstreams},1651084761,0
{consumergroup=__strimzi-topic-operator-kstreams},1651084766,0
{consumergroup=__strimzi-topic-operator-kstreams},1651084771,0
{consumergroup=__strimzi-topic-operator-kstreams},1651084776,0
{consumergroup=__strimzi-topic-operator-kstreams},1651084781,0
{consumergroup=__strimzi-topic-operator-kstreams},1651084786,0
{consumergroup=__strimzi-topic-operator-kstreams},1651084791,0
{consumergroup=__strimzi-topic-operator-kstreams},1651084796,0
{consumergroup=__strimzi-topic-operator-kstreams},1651084801,0
{consumergroup=__strimzi-topic-operator-kstreams},1651084806,0
{consumergroup=__strimzi-topic-operator-kstreams},1651084811,0
{consumergroup=__strimzi-topic-operator-kstreams},1651084816,0
{consumergroup=__strimzi-topic-operator-kstreams},1651084821,0
{consumergroup=__strimzi-topic-operator-kstreams},1651084826,0
{consumergroup=__strimzi-topic-operator-kstreams},1651084831,0
{consumergroup=__strimzi-topic-operator-kstreams},1651084836,0
{consumergroup=__strimzi-topic-operator-kstreams},1651084841,0
{consumergroup=__strimzi-topic-operator-kstreams},1651084846,0
{consumergroup=__strimzi-topic-operator-kstreams},1651084851,0
{consumergroup=__strimzi-topic-operator-kstreams},1651084856,0
{consumergroup=__strimzi-topic-operator-kstreams},1651084861,0
{consumergroup=__strimzi-topic-operator-kstreams},1651084866,0
{consumergroup=__strimzi-topic-operator-kstreams},1651084871,0
{consumergroup=__strimzi-topic-operator-kstreams},1651084876,0
{consumergroup=__strimzi-topic-operator-kstreams},1651084881,0
{consumergroup=__strimzi-topic-operator-kstreams},1651084886,0
{consumergroup=__strimzi-topic-operator-kstreams},1651084891,0
{consumergroup=__strimzi-topic-operator-kstreams},1651084896,0
{consumergroup=__strimzi-topic-operator-kstreams},1651084901,0
{consumergroup=__strimzi-topic-operator-kstreams},1651084906,0
{consumergroup=__strimzi-topic-operator-kstreams},1651084911,0
{consumergroup=__strimzi-topic-operator-kstreams},1651084916,0
{consumergroup=__strimzi-topic-operator-kstreams},1651084921,0
{consumergroup=__strimzi-topic-operator-kstreams},1651084926,0
{consumergroup=__strimzi-topic-operator-kstreams},1651084931,0
{consumergroup=__strimzi-topic-operator-kstreams},1651084936,0
{consumergroup=__strimzi-topic-operator-kstreams},1651084941,0
{consumergroup=__strimzi-topic-operator-kstreams},1651084946,0
{consumergroup=__strimzi-topic-operator-kstreams},1651084951,0
{consumergroup=__strimzi-topic-operator-kstreams},1651084956,0
{consumergroup=__strimzi-topic-operator-kstreams},1651084961,0
{consumergroup=__strimzi-topic-operator-kstreams},1651084966,0
{consumergroup=__strimzi-topic-operator-kstreams},1651084971,0
{consumergroup=__strimzi-topic-operator-kstreams},1651084976,0
{consumergroup=__strimzi-topic-operator-kstreams},1651084981,0
{consumergroup=__strimzi-topic-operator-kstreams},1651084986,0
{consumergroup=__strimzi-topic-operator-kstreams},1651084991,0
{consumergroup=__strimzi-topic-operator-kstreams},1651084996,0
{consumergroup=__strimzi-topic-operator-kstreams},1651085001,0
{consumergroup=__strimzi-topic-operator-kstreams},1651085006,0
{consumergroup=__strimzi-topic-operator-kstreams},1651085011,0
{consumergroup=landscape-service},1651084731,335303
{consumergroup=landscape-service},1651084736,335303
{consumergroup=landscape-service},1651084741,335303
{consumergroup=landscape-service},1651084746,5537399
{consumergroup=landscape-service},1651084751,5537399
{consumergroup=landscape-service},1651084756,5537399
{consumergroup=landscape-service},1651084761,9348703
{consumergroup=landscape-service},1651084766,9348703
{consumergroup=landscape-service},1651084771,9348703
{consumergroup=landscape-service},1651084776,13002880
{consumergroup=landscape-service},1651084781,13002880
{consumergroup=landscape-service},1651084786,13002880
{consumergroup=landscape-service},1651084791,16575288
{consumergroup=landscape-service},1651084796,16575288
{consumergroup=landscape-service},1651084801,16575288
{consumergroup=landscape-service},1651084806,19942841
{consumergroup=landscape-service},1651084811,19942841
{consumergroup=landscape-service},1651084816,19942841
{consumergroup=landscape-service},1651084821,23433310
{consumergroup=landscape-service},1651084826,23433310
{consumergroup=landscape-service},1651084831,23433310
{consumergroup=landscape-service},1651084836,26728721
{consumergroup=landscape-service},1651084841,26728721
{consumergroup=landscape-service},1651084846,26728721
{consumergroup=landscape-service},1651084851,30085788
{consumergroup=landscape-service},1651084856,30085788
{consumergroup=landscape-service},1651084861,30085788
{consumergroup=landscape-service},1651084866,33461757
{consumergroup=landscape-service},1651084871,33461757
{consumergroup=landscape-service},1651084876,33461757
{consumergroup=landscape-service},1651084881,36738085
{consumergroup=landscape-service},1651084886,36738085
{consumergroup=landscape-service},1651084891,36738085
{consumergroup=landscape-service},1651084896,40136554
{consumergroup=landscape-service},1651084901,40136554
{consumergroup=landscape-service},1651084906,40136554
{consumergroup=landscape-service},1651084911,43414280
{consumergroup=landscape-service},1651084916,43414280
{consumergroup=landscape-service},1651084921,43414280
{consumergroup=landscape-service},1651084926,46832809
{consumergroup=landscape-service},1651084931,46832809
{consumergroup=landscape-service},1651084936,46832809
{consumergroup=landscape-service},1651084941,50007621
{consumergroup=landscape-service},1651084946,50007621
{consumergroup=landscape-service},1651084951,50007621
{consumergroup=landscape-service},1651084956,53309187
{consumergroup=landscape-service},1651084961,53309187
{consumergroup=landscape-service},1651084966,53309187
{consumergroup=landscape-service},1651084971,56619429
{consumergroup=landscape-service},1651084976,56619429
{consumergroup=landscape-service},1651084981,56619429
{consumergroup=landscape-service},1651084986,59869010
{consumergroup=landscape-service},1651084991,59869010
{consumergroup=landscape-service},1651084996,59869010
{consumergroup=landscape-service},1651085001,63199172
{consumergroup=landscape-service},1651085006,63199172
{consumergroup=landscape-service},1651085011,63199172
