labels,timestamp,value
{consumergroup=__strimzi-topic-operator-kstreams},1651160254,0
{consumergroup=__strimzi-topic-operator-kstreams},1651160259,0
{consumergroup=__strimzi-topic-operator-kstreams},1651160264,0
{consumergroup=__strimzi-topic-operator-kstreams},1651160269,3
{consumergroup=__strimzi-topic-operator-kstreams},1651160274,3
{consumergroup=__strimzi-topic-operator-kstreams},1651160279,3
{consumergroup=__strimzi-topic-operator-kstreams},1651160284,0
{consumergroup=__strimzi-topic-operator-kstreams},1651160289,0
{consumergroup=__strimzi-topic-operator-kstreams},1651160294,0
{consumergroup=__strimzi-topic-operator-kstreams},1651160299,0
{consumergroup=__strimzi-topic-operator-kstreams},1651160304,0
{consumergroup=__strimzi-topic-operator-kstreams},1651160309,0
{consumergroup=__strimzi-topic-operator-kstreams},1651160314,0
{consumergroup=__strimzi-topic-operator-kstreams},1651160319,0
{consumergroup=__strimzi-topic-operator-kstreams},1651160324,0
{consumergroup=__strimzi-topic-operator-kstreams},1651160329,0
{consumergroup=__strimzi-topic-operator-kstreams},1651160334,0
{consumergroup=__strimzi-topic-operator-kstreams},1651160339,0
{consumergroup=__strimzi-topic-operator-kstreams},1651160344,0
{consumergroup=__strimzi-topic-operator-kstreams},1651160349,0
{consumergroup=__strimzi-topic-operator-kstreams},1651160354,0
{consumergroup=__strimzi-topic-operator-kstreams},1651160359,0
{consumergroup=__strimzi-topic-operator-kstreams},1651160364,0
{consumergroup=__strimzi-topic-operator-kstreams},1651160369,0
{consumergroup=__strimzi-topic-operator-kstreams},1651160374,0
{consumergroup=__strimzi-topic-operator-kstreams},1651160379,0
{consumergroup=__strimzi-topic-operator-kstreams},1651160384,0
{consumergroup=__strimzi-topic-operator-kstreams},1651160389,0
{consumergroup=__strimzi-topic-operator-kstreams},1651160394,0
{consumergroup=__strimzi-topic-operator-kstreams},1651160399,0
{consumergroup=__strimzi-topic-operator-kstreams},1651160404,0
{consumergroup=__strimzi-topic-operator-kstreams},1651160409,0
{consumergroup=__strimzi-topic-operator-kstreams},1651160414,0
{consumergroup=__strimzi-topic-operator-kstreams},1651160419,0
{consumergroup=__strimzi-topic-operator-kstreams},1651160424,0
{consumergroup=__strimzi-topic-operator-kstreams},1651160429,0
{consumergroup=__strimzi-topic-operator-kstreams},1651160434,0
{consumergroup=__strimzi-topic-operator-kstreams},1651160439,0
{consumergroup=__strimzi-topic-operator-kstreams},1651160444,0
{consumergroup=__strimzi-topic-operator-kstreams},1651160449,0
{consumergroup=__strimzi-topic-operator-kstreams},1651160454,0
{consumergroup=__strimzi-topic-operator-kstreams},1651160459,0
{consumergroup=__strimzi-topic-operator-kstreams},1651160464,0
{consumergroup=__strimzi-topic-operator-kstreams},1651160469,0
{consumergroup=__strimzi-topic-operator-kstreams},1651160474,0
{consumergroup=__strimzi-topic-operator-kstreams},1651160479,0
{consumergroup=__strimzi-topic-operator-kstreams},1651160484,0
{consumergroup=__strimzi-topic-operator-kstreams},1651160489,0
{consumergroup=__strimzi-topic-operator-kstreams},1651160494,0
{consumergroup=__strimzi-topic-operator-kstreams},1651160499,0
{consumergroup=__strimzi-topic-operator-kstreams},1651160504,0
{consumergroup=__strimzi-topic-operator-kstreams},1651160509,0
{consumergroup=__strimzi-topic-operator-kstreams},1651160514,0
{consumergroup=__strimzi-topic-operator-kstreams},1651160519,0
{consumergroup=__strimzi-topic-operator-kstreams},1651160524,0
{consumergroup=__strimzi-topic-operator-kstreams},1651160529,0
{consumergroup=__strimzi-topic-operator-kstreams},1651160534,0
{consumergroup=__strimzi-topic-operator-kstreams},1651160539,0
{consumergroup=__strimzi-topic-operator-kstreams},1651160544,0
{consumergroup=__strimzi-topic-operator-kstreams},1651160549,0
{consumergroup=__strimzi-topic-operator-kstreams},1651160554,0
{consumergroup=__strimzi-topic-operator-kstreams},1651160559,0
{consumergroup=__strimzi-topic-operator-kstreams},1651160564,0
{consumergroup=__strimzi-topic-operator-kstreams},1651160569,0
{consumergroup=__strimzi-topic-operator-kstreams},1651160574,0
{consumergroup=__strimzi-topic-operator-kstreams},1651160579,0
{consumergroup=__strimzi-topic-operator-kstreams},1651160584,0
{consumergroup=__strimzi-topic-operator-kstreams},1651160589,0
{consumergroup=__strimzi-topic-operator-kstreams},1651160594,0
{consumergroup=__strimzi-topic-operator-kstreams},1651160599,0
{consumergroup=__strimzi-topic-operator-kstreams},1651160604,0
{consumergroup=__strimzi-topic-operator-kstreams},1651160609,0
{consumergroup=__strimzi-topic-operator-kstreams},1651160614,0
{consumergroup=__strimzi-topic-operator-kstreams},1651160619,0
{consumergroup=__strimzi-topic-operator-kstreams},1651160624,0
{consumergroup=__strimzi-topic-operator-kstreams},1651160629,0
{consumergroup=__strimzi-topic-operator-kstreams},1651160634,0
{consumergroup=__strimzi-topic-operator-kstreams},1651160639,0
{consumergroup=__strimzi-topic-operator-kstreams},1651160644,0
{consumergroup=__strimzi-topic-operator-kstreams},1651160649,0
{consumergroup=__strimzi-topic-operator-kstreams},1651160654,0
{consumergroup=__strimzi-topic-operator-kstreams},1651160659,0
{consumergroup=__strimzi-topic-operator-kstreams},1651160664,0
{consumergroup=__strimzi-topic-operator-kstreams},1651160669,0
{consumergroup=__strimzi-topic-operator-kstreams},1651160674,0
{consumergroup=__strimzi-topic-operator-kstreams},1651160679,0
{consumergroup=__strimzi-topic-operator-kstreams},1651160684,0
{consumergroup=__strimzi-topic-operator-kstreams},1651160689,0
{consumergroup=__strimzi-topic-operator-kstreams},1651160694,0
{consumergroup=__strimzi-topic-operator-kstreams},1651160699,0
{consumergroup=__strimzi-topic-operator-kstreams},1651160704,0
{consumergroup=__strimzi-topic-operator-kstreams},1651160709,0
{consumergroup=__strimzi-topic-operator-kstreams},1651160714,0
{consumergroup=__strimzi-topic-operator-kstreams},1651160719,0
{consumergroup=__strimzi-topic-operator-kstreams},1651160724,0
{consumergroup=__strimzi-topic-operator-kstreams},1651160729,0
{consumergroup=__strimzi-topic-operator-kstreams},1651160734,0
{consumergroup=__strimzi-topic-operator-kstreams},1651160739,0
{consumergroup=__strimzi-topic-operator-kstreams},1651160744,0
{consumergroup=__strimzi-topic-operator-kstreams},1651160749,0
{consumergroup=trace-service},1651160284,4838
{consumergroup=trace-service},1651160289,4838
{consumergroup=trace-service},1651160294,4838
{consumergroup=trace-service},1651160299,1550
{consumergroup=trace-service},1651160304,1550
{consumergroup=trace-service},1651160309,1550
{consumergroup=trace-service},1651160314,25219
{consumergroup=trace-service},1651160319,25219
{consumergroup=trace-service},1651160324,25219
{consumergroup=trace-service},1651160329,56058
{consumergroup=trace-service},1651160334,56058
{consumergroup=trace-service},1651160339,56058
{consumergroup=trace-service},1651160344,160616
{consumergroup=trace-service},1651160349,160616
{consumergroup=trace-service},1651160354,160616
{consumergroup=trace-service},1651160359,10483
{consumergroup=trace-service},1651160364,10483
{consumergroup=trace-service},1651160369,10483
{consumergroup=trace-service},1651160374,26854
{consumergroup=trace-service},1651160379,26854
{consumergroup=trace-service},1651160384,26854
{consumergroup=trace-service},1651160389,50675
{consumergroup=trace-service},1651160394,50675
{consumergroup=trace-service},1651160399,50675
{consumergroup=trace-service},1651160404,25596
{consumergroup=trace-service},1651160409,25596
{consumergroup=trace-service},1651160414,25596
{consumergroup=trace-service},1651160419,47940
{consumergroup=trace-service},1651160424,47940
{consumergroup=trace-service},1651160429,47940
{consumergroup=trace-service},1651160434,56741
{consumergroup=trace-service},1651160439,56741
{consumergroup=trace-service},1651160444,56741
{consumergroup=trace-service},1651160449,57426
{consumergroup=trace-service},1651160454,57426
{consumergroup=trace-service},1651160459,57426
{consumergroup=trace-service},1651160464,24549
{consumergroup=trace-service},1651160469,24549
{consumergroup=trace-service},1651160474,24549
{consumergroup=trace-service},1651160479,55300
{consumergroup=trace-service},1651160484,55300
{consumergroup=trace-service},1651160489,55300
{consumergroup=trace-service},1651160494,67050
{consumergroup=trace-service},1651160499,67050
{consumergroup=trace-service},1651160504,67050
{consumergroup=trace-service},1651160509,56780
{consumergroup=trace-service},1651160514,56780
{consumergroup=trace-service},1651160519,56780
{consumergroup=trace-service},1651160524,25469
{consumergroup=trace-service},1651160529,25469
{consumergroup=trace-service},1651160534,25469
{consumergroup=trace-service},1651160539,57498
{consumergroup=trace-service},1651160544,57498
{consumergroup=trace-service},1651160549,57498
{consumergroup=trace-service},1651160554,25812
{consumergroup=trace-service},1651160559,25812
{consumergroup=trace-service},1651160564,25812
{consumergroup=trace-service},1651160569,53818
{consumergroup=trace-service},1651160574,53818
{consumergroup=trace-service},1651160579,53818
{consumergroup=trace-service},1651160584,148644
{consumergroup=trace-service},1651160589,148644
{consumergroup=trace-service},1651160594,148644
{consumergroup=trace-service},1651160599,68845
{consumergroup=trace-service},1651160604,68845
{consumergroup=trace-service},1651160609,68845
{consumergroup=trace-service},1651160614,25175
{consumergroup=trace-service},1651160619,25175
{consumergroup=trace-service},1651160624,25175
{consumergroup=trace-service},1651160629,52668
{consumergroup=trace-service},1651160634,52668
{consumergroup=trace-service},1651160639,52668
{consumergroup=trace-service},1651160644,23136
{consumergroup=trace-service},1651160649,23136
{consumergroup=trace-service},1651160654,23136
{consumergroup=trace-service},1651160659,52540
{consumergroup=trace-service},1651160664,52540
{consumergroup=trace-service},1651160669,52540
{consumergroup=trace-service},1651160674,137119
{consumergroup=trace-service},1651160679,137119
{consumergroup=trace-service},1651160684,137119
{consumergroup=trace-service},1651160689,94683
{consumergroup=trace-service},1651160694,94683
{consumergroup=trace-service},1651160699,94683
{consumergroup=trace-service},1651160704,59351
{consumergroup=trace-service},1651160709,59351
{consumergroup=trace-service},1651160714,59351
{consumergroup=trace-service},1651160719,70715
{consumergroup=trace-service},1651160724,70715
{consumergroup=trace-service},1651160729,70715
{consumergroup=trace-service},1651160734,150565
{consumergroup=trace-service},1651160739,150565
{consumergroup=trace-service},1651160744,150565
{consumergroup=trace-service},1651160749,47912
{consumergroup=trace-token-events-consumer},1651160284,0
{consumergroup=trace-token-events-consumer},1651160289,0
{consumergroup=trace-token-events-consumer},1651160294,0
{consumergroup=trace-token-events-consumer},1651160299,0
{consumergroup=trace-token-events-consumer},1651160304,0
{consumergroup=trace-token-events-consumer},1651160309,0
{consumergroup=trace-token-events-consumer},1651160314,0
{consumergroup=trace-token-events-consumer},1651160319,0
{consumergroup=trace-token-events-consumer},1651160324,0
{consumergroup=trace-token-events-consumer},1651160329,0
{consumergroup=trace-token-events-consumer},1651160334,0
{consumergroup=trace-token-events-consumer},1651160339,0
{consumergroup=trace-token-events-consumer},1651160344,0
{consumergroup=trace-token-events-consumer},1651160349,0
{consumergroup=trace-token-events-consumer},1651160354,0
{consumergroup=trace-token-events-consumer},1651160359,0
{consumergroup=trace-token-events-consumer},1651160364,0
{consumergroup=trace-token-events-consumer},1651160369,0
{consumergroup=trace-token-events-consumer},1651160374,0
{consumergroup=trace-token-events-consumer},1651160379,0
{consumergroup=trace-token-events-consumer},1651160384,0
{consumergroup=trace-token-events-consumer},1651160389,0
{consumergroup=trace-token-events-consumer},1651160394,0
{consumergroup=trace-token-events-consumer},1651160399,0
{consumergroup=trace-token-events-consumer},1651160404,0
{consumergroup=trace-token-events-consumer},1651160409,0
{consumergroup=trace-token-events-consumer},1651160414,0
{consumergroup=trace-token-events-consumer},1651160419,0
{consumergroup=trace-token-events-consumer},1651160424,0
{consumergroup=trace-token-events-consumer},1651160429,0
{consumergroup=trace-token-events-consumer},1651160434,0
{consumergroup=trace-token-events-consumer},1651160439,0
{consumergroup=trace-token-events-consumer},1651160444,0
{consumergroup=trace-token-events-consumer},1651160449,0
{consumergroup=trace-token-events-consumer},1651160454,0
{consumergroup=trace-token-events-consumer},1651160459,0
{consumergroup=trace-token-events-consumer},1651160464,0
{consumergroup=trace-token-events-consumer},1651160469,0
{consumergroup=trace-token-events-consumer},1651160474,0
{consumergroup=trace-token-events-consumer},1651160479,0
{consumergroup=trace-token-events-consumer},1651160484,0
{consumergroup=trace-token-events-consumer},1651160489,0
{consumergroup=trace-token-events-consumer},1651160494,0
{consumergroup=trace-token-events-consumer},1651160499,0
{consumergroup=trace-token-events-consumer},1651160504,0
{consumergroup=trace-token-events-consumer},1651160509,0
{consumergroup=trace-token-events-consumer},1651160514,0
{consumergroup=trace-token-events-consumer},1651160519,0
{consumergroup=trace-token-events-consumer},1651160524,0
{consumergroup=trace-token-events-consumer},1651160529,0
{consumergroup=trace-token-events-consumer},1651160534,0
{consumergroup=trace-token-events-consumer},1651160539,0
{consumergroup=trace-token-events-consumer},1651160544,0
{consumergroup=trace-token-events-consumer},1651160549,0
{consumergroup=trace-token-events-consumer},1651160554,0
{consumergroup=trace-token-events-consumer},1651160559,0
{consumergroup=trace-token-events-consumer},1651160564,0
{consumergroup=trace-token-events-consumer},1651160569,0
{consumergroup=trace-token-events-consumer},1651160574,0
{consumergroup=trace-token-events-consumer},1651160579,0
{consumergroup=trace-token-events-consumer},1651160584,0
{consumergroup=trace-token-events-consumer},1651160589,0
{consumergroup=trace-token-events-consumer},1651160594,0
{consumergroup=trace-token-events-consumer},1651160599,0
{consumergroup=trace-token-events-consumer},1651160604,0
{consumergroup=trace-token-events-consumer},1651160609,0
{consumergroup=trace-token-events-consumer},1651160614,0
{consumergroup=trace-token-events-consumer},1651160619,0
{consumergroup=trace-token-events-consumer},1651160624,0
{consumergroup=trace-token-events-consumer},1651160629,0
{consumergroup=trace-token-events-consumer},1651160634,0
{consumergroup=trace-token-events-consumer},1651160639,0
{consumergroup=trace-token-events-consumer},1651160644,0
{consumergroup=trace-token-events-consumer},1651160649,0
{consumergroup=trace-token-events-consumer},1651160654,0
{consumergroup=trace-token-events-consumer},1651160659,0
{consumergroup=trace-token-events-consumer},1651160664,0
{consumergroup=trace-token-events-consumer},1651160669,0
{consumergroup=trace-token-events-consumer},1651160674,0
{consumergroup=trace-token-events-consumer},1651160679,0
{consumergroup=trace-token-events-consumer},1651160684,0
{consumergroup=trace-token-events-consumer},1651160689,0
{consumergroup=trace-token-events-consumer},1651160694,0
{consumergroup=trace-token-events-consumer},1651160699,0
{consumergroup=trace-token-events-consumer},1651160704,0
{consumergroup=trace-token-events-consumer},1651160709,0
{consumergroup=trace-token-events-consumer},1651160714,0
{consumergroup=trace-token-events-consumer},1651160719,0
{consumergroup=trace-token-events-consumer},1651160724,0
{consumergroup=trace-token-events-consumer},1651160729,0
{consumergroup=trace-token-events-consumer},1651160734,0
{consumergroup=trace-token-events-consumer},1651160739,0
{consumergroup=trace-token-events-consumer},1651160744,0
{consumergroup=trace-token-events-consumer},1651160749,0
