labels,timestamp,value
{consumergroup=__strimzi-topic-operator-kstreams},1651148323,0
{consumergroup=__strimzi-topic-operator-kstreams},1651148328,0
{consumergroup=__strimzi-topic-operator-kstreams},1651148333,8
{consumergroup=__strimzi-topic-operator-kstreams},1651148338,8
{consumergroup=__strimzi-topic-operator-kstreams},1651148343,8
{consumergroup=__strimzi-topic-operator-kstreams},1651148348,2
{consumergroup=__strimzi-topic-operator-kstreams},1651148353,2
{consumergroup=__strimzi-topic-operator-kstreams},1651148358,2
{consumergroup=__strimzi-topic-operator-kstreams},1651148363,2
{consumergroup=__strimzi-topic-operator-kstreams},1651148368,2
{consumergroup=__strimzi-topic-operator-kstreams},1651148373,2
{consumergroup=__strimzi-topic-operator-kstreams},1651148378,0
{consumergroup=__strimzi-topic-operator-kstreams},1651148383,0
{consumergroup=__strimzi-topic-operator-kstreams},1651148388,0
{consumergroup=__strimzi-topic-operator-kstreams},1651148393,1
{consumergroup=__strimzi-topic-operator-kstreams},1651148398,1
{consumergroup=__strimzi-topic-operator-kstreams},1651148403,1
{consumergroup=__strimzi-topic-operator-kstreams},1651148408,0
{consumergroup=__strimzi-topic-operator-kstreams},1651148413,0
{consumergroup=__strimzi-topic-operator-kstreams},1651148418,0
{consumergroup=__strimzi-topic-operator-kstreams},1651148423,0
{consumergroup=__strimzi-topic-operator-kstreams},1651148428,0
{consumergroup=__strimzi-topic-operator-kstreams},1651148433,0
{consumergroup=__strimzi-topic-operator-kstreams},1651148438,0
{consumergroup=__strimzi-topic-operator-kstreams},1651148443,0
{consumergroup=__strimzi-topic-operator-kstreams},1651148448,0
{consumergroup=__strimzi-topic-operator-kstreams},1651148453,0
{consumergroup=__strimzi-topic-operator-kstreams},1651148458,0
{consumergroup=__strimzi-topic-operator-kstreams},1651148463,0
{consumergroup=__strimzi-topic-operator-kstreams},1651148468,0
{consumergroup=__strimzi-topic-operator-kstreams},1651148473,0
{consumergroup=__strimzi-topic-operator-kstreams},1651148478,0
{consumergroup=__strimzi-topic-operator-kstreams},1651148483,0
{consumergroup=__strimzi-topic-operator-kstreams},1651148488,0
{consumergroup=__strimzi-topic-operator-kstreams},1651148493,0
{consumergroup=__strimzi-topic-operator-kstreams},1651148498,0
{consumergroup=__strimzi-topic-operator-kstreams},1651148503,0
{consumergroup=__strimzi-topic-operator-kstreams},1651148508,0
{consumergroup=__strimzi-topic-operator-kstreams},1651148513,0
{consumergroup=__strimzi-topic-operator-kstreams},1651148518,0
{consumergroup=__strimzi-topic-operator-kstreams},1651148523,0
{consumergroup=__strimzi-topic-operator-kstreams},1651148528,0
{consumergroup=__strimzi-topic-operator-kstreams},1651148533,0
{consumergroup=__strimzi-topic-operator-kstreams},1651148538,0
{consumergroup=__strimzi-topic-operator-kstreams},1651148543,0
{consumergroup=__strimzi-topic-operator-kstreams},1651148548,0
{consumergroup=__strimzi-topic-operator-kstreams},1651148553,0
{consumergroup=__strimzi-topic-operator-kstreams},1651148558,0
{consumergroup=__strimzi-topic-operator-kstreams},1651148563,0
{consumergroup=__strimzi-topic-operator-kstreams},1651148568,0
{consumergroup=__strimzi-topic-operator-kstreams},1651148573,0
{consumergroup=__strimzi-topic-operator-kstreams},1651148578,0
{consumergroup=__strimzi-topic-operator-kstreams},1651148583,0
{consumergroup=__strimzi-topic-operator-kstreams},1651148588,0
{consumergroup=__strimzi-topic-operator-kstreams},1651148593,0
{consumergroup=__strimzi-topic-operator-kstreams},1651148598,0
{consumergroup=__strimzi-topic-operator-kstreams},1651148603,0
{consumergroup=__strimzi-topic-operator-kstreams},1651148608,0
{consumergroup=__strimzi-topic-operator-kstreams},1651148613,0
{consumergroup=__strimzi-topic-operator-kstreams},1651148618,0
{consumergroup=__strimzi-topic-operator-kstreams},1651148623,0
{consumergroup=__strimzi-topic-operator-kstreams},1651148628,0
{consumergroup=__strimzi-topic-operator-kstreams},1651148633,0
{consumergroup=__strimzi-topic-operator-kstreams},1651148638,0
{consumergroup=__strimzi-topic-operator-kstreams},1651148643,0
{consumergroup=__strimzi-topic-operator-kstreams},1651148648,0
{consumergroup=__strimzi-topic-operator-kstreams},1651148653,0
{consumergroup=__strimzi-topic-operator-kstreams},1651148658,0
{consumergroup=__strimzi-topic-operator-kstreams},1651148663,0
{consumergroup=__strimzi-topic-operator-kstreams},1651148668,0
{consumergroup=__strimzi-topic-operator-kstreams},1651148673,0
{consumergroup=__strimzi-topic-operator-kstreams},1651148678,0
{consumergroup=__strimzi-topic-operator-kstreams},1651148683,0
{consumergroup=__strimzi-topic-operator-kstreams},1651148688,0
{consumergroup=__strimzi-topic-operator-kstreams},1651148693,0
{consumergroup=__strimzi-topic-operator-kstreams},1651148698,0
{consumergroup=__strimzi-topic-operator-kstreams},1651148703,0
{consumergroup=__strimzi-topic-operator-kstreams},1651148708,0
{consumergroup=__strimzi-topic-operator-kstreams},1651148713,0
{consumergroup=__strimzi-topic-operator-kstreams},1651148718,0
{consumergroup=__strimzi-topic-operator-kstreams},1651148723,0
{consumergroup=__strimzi-topic-operator-kstreams},1651148728,0
{consumergroup=__strimzi-topic-operator-kstreams},1651148733,0
{consumergroup=__strimzi-topic-operator-kstreams},1651148738,0
{consumergroup=__strimzi-topic-operator-kstreams},1651148743,0
{consumergroup=trace-service},1651148363,196
{consumergroup=trace-service},1651148368,196
{consumergroup=trace-service},1651148373,196
{consumergroup=trace-service},1651148378,26953
{consumergroup=trace-service},1651148383,26953
{consumergroup=trace-service},1651148388,26953
{consumergroup=trace-service},1651148393,13296
{consumergroup=trace-service},1651148398,13296
{consumergroup=trace-service},1651148403,13296
{consumergroup=trace-service},1651148408,23406
{consumergroup=trace-service},1651148413,23406
{consumergroup=trace-service},1651148418,23406
{consumergroup=trace-service},1651148423,63013
{consumergroup=trace-service},1651148428,63013
{consumergroup=trace-service},1651148433,63013
{consumergroup=trace-service},1651148438,21385
{consumergroup=trace-service},1651148443,21385
{consumergroup=trace-service},1651148448,21385
{consumergroup=trace-service},1651148453,60441
{consumergroup=trace-service},1651148458,60441
{consumergroup=trace-service},1651148463,60441
{consumergroup=trace-service},1651148468,21628
{consumergroup=trace-service},1651148473,21628
{consumergroup=trace-service},1651148478,21628
{consumergroup=trace-service},1651148483,53555
{consumergroup=trace-service},1651148488,53555
{consumergroup=trace-service},1651148493,53555
{consumergroup=trace-service},1651148498,19934
{consumergroup=trace-service},1651148503,19934
{consumergroup=trace-service},1651148508,19934
{consumergroup=trace-service},1651148513,39874
{consumergroup=trace-service},1651148518,39874
{consumergroup=trace-service},1651148523,39874
{consumergroup=trace-service},1651148528,21023
{consumergroup=trace-service},1651148533,21023
{consumergroup=trace-service},1651148538,21023
{consumergroup=trace-service},1651148543,55075
{consumergroup=trace-service},1651148548,55075
{consumergroup=trace-service},1651148553,55075
{consumergroup=trace-service},1651148558,22220
{consumergroup=trace-service},1651148563,22220
{consumergroup=trace-service},1651148568,22220
{consumergroup=trace-service},1651148573,60411
{consumergroup=trace-service},1651148578,60411
{consumergroup=trace-service},1651148583,60411
{consumergroup=trace-service},1651148588,19595
{consumergroup=trace-service},1651148593,19595
{consumergroup=trace-service},1651148598,19595
{consumergroup=trace-service},1651148603,44274
{consumergroup=trace-service},1651148608,44274
{consumergroup=trace-service},1651148613,44274
{consumergroup=trace-service},1651148618,21378
{consumergroup=trace-service},1651148623,21378
{consumergroup=trace-service},1651148628,21378
{consumergroup=trace-service},1651148633,63811
{consumergroup=trace-service},1651148638,63811
{consumergroup=trace-service},1651148643,63811
{consumergroup=trace-service},1651148648,20188
{consumergroup=trace-service},1651148653,20188
{consumergroup=trace-service},1651148658,20188
{consumergroup=trace-service},1651148663,37519
{consumergroup=trace-service},1651148668,37519
{consumergroup=trace-service},1651148673,37519
{consumergroup=trace-service},1651148678,20586
{consumergroup=trace-service},1651148683,20586
{consumergroup=trace-service},1651148688,20586
{consumergroup=trace-service},1651148693,68560
{consumergroup=trace-service},1651148698,68560
{consumergroup=trace-service},1651148703,68560
{consumergroup=trace-service},1651148708,20372
{consumergroup=trace-service},1651148713,20372
{consumergroup=trace-service},1651148718,20372
{consumergroup=trace-service},1651148723,46980
{consumergroup=trace-service},1651148728,46980
{consumergroup=trace-service},1651148733,46980
{consumergroup=trace-service},1651148738,19245
{consumergroup=trace-service},1651148743,19245
{consumergroup=trace-token-events-consumer},1651148363,0
{consumergroup=trace-token-events-consumer},1651148368,0
{consumergroup=trace-token-events-consumer},1651148373,0
{consumergroup=trace-token-events-consumer},1651148378,0
{consumergroup=trace-token-events-consumer},1651148383,0
{consumergroup=trace-token-events-consumer},1651148388,0
{consumergroup=trace-token-events-consumer},1651148393,0
{consumergroup=trace-token-events-consumer},1651148398,0
{consumergroup=trace-token-events-consumer},1651148403,0
{consumergroup=trace-token-events-consumer},1651148408,0
{consumergroup=trace-token-events-consumer},1651148413,0
{consumergroup=trace-token-events-consumer},1651148418,0
{consumergroup=trace-token-events-consumer},1651148423,0
{consumergroup=trace-token-events-consumer},1651148428,0
{consumergroup=trace-token-events-consumer},1651148433,0
{consumergroup=trace-token-events-consumer},1651148438,0
{consumergroup=trace-token-events-consumer},1651148443,0
{consumergroup=trace-token-events-consumer},1651148448,0
{consumergroup=trace-token-events-consumer},1651148453,0
{consumergroup=trace-token-events-consumer},1651148458,0
{consumergroup=trace-token-events-consumer},1651148463,0
{consumergroup=trace-token-events-consumer},1651148468,0
{consumergroup=trace-token-events-consumer},1651148473,0
{consumergroup=trace-token-events-consumer},1651148478,0
{consumergroup=trace-token-events-consumer},1651148483,0
{consumergroup=trace-token-events-consumer},1651148488,0
{consumergroup=trace-token-events-consumer},1651148493,0
{consumergroup=trace-token-events-consumer},1651148498,0
{consumergroup=trace-token-events-consumer},1651148503,0
{consumergroup=trace-token-events-consumer},1651148508,0
{consumergroup=trace-token-events-consumer},1651148513,0
{consumergroup=trace-token-events-consumer},1651148518,0
{consumergroup=trace-token-events-consumer},1651148523,0
{consumergroup=trace-token-events-consumer},1651148528,0
{consumergroup=trace-token-events-consumer},1651148533,0
{consumergroup=trace-token-events-consumer},1651148538,0
{consumergroup=trace-token-events-consumer},1651148543,0
{consumergroup=trace-token-events-consumer},1651148548,0
{consumergroup=trace-token-events-consumer},1651148553,0
{consumergroup=trace-token-events-consumer},1651148558,0
{consumergroup=trace-token-events-consumer},1651148563,0
{consumergroup=trace-token-events-consumer},1651148568,0
{consumergroup=trace-token-events-consumer},1651148573,0
{consumergroup=trace-token-events-consumer},1651148578,0
{consumergroup=trace-token-events-consumer},1651148583,0
{consumergroup=trace-token-events-consumer},1651148588,0
{consumergroup=trace-token-events-consumer},1651148593,0
{consumergroup=trace-token-events-consumer},1651148598,0
{consumergroup=trace-token-events-consumer},1651148603,0
{consumergroup=trace-token-events-consumer},1651148608,0
{consumergroup=trace-token-events-consumer},1651148613,0
{consumergroup=trace-token-events-consumer},1651148618,0
{consumergroup=trace-token-events-consumer},1651148623,0
{consumergroup=trace-token-events-consumer},1651148628,0
{consumergroup=trace-token-events-consumer},1651148633,0
{consumergroup=trace-token-events-consumer},1651148638,0
{consumergroup=trace-token-events-consumer},1651148643,0
{consumergroup=trace-token-events-consumer},1651148648,0
{consumergroup=trace-token-events-consumer},1651148653,0
{consumergroup=trace-token-events-consumer},1651148658,0
{consumergroup=trace-token-events-consumer},1651148663,0
{consumergroup=trace-token-events-consumer},1651148668,0
{consumergroup=trace-token-events-consumer},1651148673,0
{consumergroup=trace-token-events-consumer},1651148678,0
{consumergroup=trace-token-events-consumer},1651148683,0
{consumergroup=trace-token-events-consumer},1651148688,0
{consumergroup=trace-token-events-consumer},1651148693,0
{consumergroup=trace-token-events-consumer},1651148698,0
{consumergroup=trace-token-events-consumer},1651148703,0
{consumergroup=trace-token-events-consumer},1651148708,0
{consumergroup=trace-token-events-consumer},1651148713,0
{consumergroup=trace-token-events-consumer},1651148718,0
{consumergroup=trace-token-events-consumer},1651148723,0
{consumergroup=trace-token-events-consumer},1651148728,0
{consumergroup=trace-token-events-consumer},1651148733,0
{consumergroup=trace-token-events-consumer},1651148738,0
{consumergroup=trace-token-events-consumer},1651148743,0
