labels,timestamp,value
{consumergroup=__strimzi-topic-operator-kstreams},1651157405,8
{consumergroup=__strimzi-topic-operator-kstreams},1651157410,8
{consumergroup=__strimzi-topic-operator-kstreams},1651157415,8
{consumergroup=__strimzi-topic-operator-kstreams},1651157420,11
{consumergroup=__strimzi-topic-operator-kstreams},1651157425,11
{consumergroup=__strimzi-topic-operator-kstreams},1651157430,11
{consumergroup=__strimzi-topic-operator-kstreams},1651157435,0
{consumergroup=__strimzi-topic-operator-kstreams},1651157440,0
{consumergroup=__strimzi-topic-operator-kstreams},1651157445,0
{consumergroup=__strimzi-topic-operator-kstreams},1651157450,0
{consumergroup=__strimzi-topic-operator-kstreams},1651157455,0
{consumergroup=__strimzi-topic-operator-kstreams},1651157460,0
{consumergroup=__strimzi-topic-operator-kstreams},1651157465,0
{consumergroup=__strimzi-topic-operator-kstreams},1651157470,0
{consumergroup=__strimzi-topic-operator-kstreams},1651157475,0
{consumergroup=__strimzi-topic-operator-kstreams},1651157480,0
{consumergroup=__strimzi-topic-operator-kstreams},1651157485,0
{consumergroup=__strimzi-topic-operator-kstreams},1651157490,0
{consumergroup=__strimzi-topic-operator-kstreams},1651157495,0
{consumergroup=__strimzi-topic-operator-kstreams},1651157500,0
{consumergroup=__strimzi-topic-operator-kstreams},1651157505,0
{consumergroup=__strimzi-topic-operator-kstreams},1651157510,0
{consumergroup=__strimzi-topic-operator-kstreams},1651157515,0
{consumergroup=__strimzi-topic-operator-kstreams},1651157520,0
{consumergroup=__strimzi-topic-operator-kstreams},1651157525,0
{consumergroup=__strimzi-topic-operator-kstreams},1651157530,0
{consumergroup=__strimzi-topic-operator-kstreams},1651157535,0
{consumergroup=__strimzi-topic-operator-kstreams},1651157540,0
{consumergroup=__strimzi-topic-operator-kstreams},1651157545,0
{consumergroup=__strimzi-topic-operator-kstreams},1651157550,0
{consumergroup=__strimzi-topic-operator-kstreams},1651157555,0
{consumergroup=__strimzi-topic-operator-kstreams},1651157560,0
{consumergroup=__strimzi-topic-operator-kstreams},1651157565,0
{consumergroup=__strimzi-topic-operator-kstreams},1651157570,0
{consumergroup=__strimzi-topic-operator-kstreams},1651157575,0
{consumergroup=__strimzi-topic-operator-kstreams},1651157580,0
{consumergroup=__strimzi-topic-operator-kstreams},1651157585,0
{consumergroup=__strimzi-topic-operator-kstreams},1651157590,0
{consumergroup=__strimzi-topic-operator-kstreams},1651157595,0
{consumergroup=__strimzi-topic-operator-kstreams},1651157600,0
{consumergroup=__strimzi-topic-operator-kstreams},1651157605,0
{consumergroup=__strimzi-topic-operator-kstreams},1651157610,0
{consumergroup=__strimzi-topic-operator-kstreams},1651157615,0
{consumergroup=__strimzi-topic-operator-kstreams},1651157620,0
{consumergroup=__strimzi-topic-operator-kstreams},1651157625,0
{consumergroup=__strimzi-topic-operator-kstreams},1651157630,0
{consumergroup=__strimzi-topic-operator-kstreams},1651157635,0
{consumergroup=__strimzi-topic-operator-kstreams},1651157640,0
{consumergroup=__strimzi-topic-operator-kstreams},1651157645,0
{consumergroup=__strimzi-topic-operator-kstreams},1651157650,0
{consumergroup=__strimzi-topic-operator-kstreams},1651157655,0
{consumergroup=__strimzi-topic-operator-kstreams},1651157660,0
{consumergroup=__strimzi-topic-operator-kstreams},1651157665,0
{consumergroup=__strimzi-topic-operator-kstreams},1651157670,0
{consumergroup=__strimzi-topic-operator-kstreams},1651157675,0
{consumergroup=__strimzi-topic-operator-kstreams},1651157680,0
{consumergroup=__strimzi-topic-operator-kstreams},1651157685,0
{consumergroup=__strimzi-topic-operator-kstreams},1651157690,0
{consumergroup=__strimzi-topic-operator-kstreams},1651157695,0
{consumergroup=__strimzi-topic-operator-kstreams},1651157700,0
{consumergroup=__strimzi-topic-operator-kstreams},1651157705,0
{consumergroup=__strimzi-topic-operator-kstreams},1651157710,0
{consumergroup=__strimzi-topic-operator-kstreams},1651157715,0
{consumergroup=__strimzi-topic-operator-kstreams},1651157720,0
{consumergroup=__strimzi-topic-operator-kstreams},1651157725,0
{consumergroup=__strimzi-topic-operator-kstreams},1651157730,0
{consumergroup=__strimzi-topic-operator-kstreams},1651157735,0
{consumergroup=__strimzi-topic-operator-kstreams},1651157740,0
{consumergroup=__strimzi-topic-operator-kstreams},1651157745,0
{consumergroup=__strimzi-topic-operator-kstreams},1651157750,0
{consumergroup=__strimzi-topic-operator-kstreams},1651157755,0
{consumergroup=__strimzi-topic-operator-kstreams},1651157760,0
{consumergroup=__strimzi-topic-operator-kstreams},1651157765,0
{consumergroup=__strimzi-topic-operator-kstreams},1651157770,0
{consumergroup=__strimzi-topic-operator-kstreams},1651157775,0
{consumergroup=__strimzi-topic-operator-kstreams},1651157780,0
{consumergroup=__strimzi-topic-operator-kstreams},1651157785,0
{consumergroup=__strimzi-topic-operator-kstreams},1651157790,0
{consumergroup=__strimzi-topic-operator-kstreams},1651157795,0
{consumergroup=__strimzi-topic-operator-kstreams},1651157800,0
{consumergroup=__strimzi-topic-operator-kstreams},1651157805,0
{consumergroup=__strimzi-topic-operator-kstreams},1651157810,0
{consumergroup=__strimzi-topic-operator-kstreams},1651157815,0
{consumergroup=__strimzi-topic-operator-kstreams},1651157820,0
{consumergroup=__strimzi-topic-operator-kstreams},1651157825,0
{consumergroup=__strimzi-topic-operator-kstreams},1651157830,0
{consumergroup=__strimzi-topic-operator-kstreams},1651157835,0
{consumergroup=__strimzi-topic-operator-kstreams},1651157840,0
{consumergroup=__strimzi-topic-operator-kstreams},1651157845,0
{consumergroup=__strimzi-topic-operator-kstreams},1651157850,0
{consumergroup=__strimzi-topic-operator-kstreams},1651157855,0
{consumergroup=__strimzi-topic-operator-kstreams},1651157860,0
{consumergroup=__strimzi-topic-operator-kstreams},1651157865,0
{consumergroup=__strimzi-topic-operator-kstreams},1651157870,0
{consumergroup=__strimzi-topic-operator-kstreams},1651157875,0
{consumergroup=__strimzi-topic-operator-kstreams},1651157880,0
{consumergroup=__strimzi-topic-operator-kstreams},1651157885,0
{consumergroup=__strimzi-topic-operator-kstreams},1651157890,0
{consumergroup=__strimzi-topic-operator-kstreams},1651157895,0
{consumergroup=__strimzi-topic-operator-kstreams},1651157900,0
{consumergroup=trace-service},1651157435,5181
{consumergroup=trace-service},1651157440,5181
{consumergroup=trace-service},1651157445,5181
{consumergroup=trace-service},1651157450,14448
{consumergroup=trace-service},1651157455,14448
{consumergroup=trace-service},1651157460,14448
{consumergroup=trace-service},1651157465,18146
{consumergroup=trace-service},1651157470,18146
{consumergroup=trace-service},1651157475,18146
{consumergroup=trace-service},1651157480,33156
{consumergroup=trace-service},1651157485,33156
{consumergroup=trace-service},1651157490,33156
{consumergroup=trace-service},1651157495,39369
{consumergroup=trace-service},1651157500,39369
{consumergroup=trace-service},1651157505,39369
{consumergroup=trace-service},1651157510,41775
{consumergroup=trace-service},1651157515,41775
{consumergroup=trace-service},1651157520,41775
{consumergroup=trace-service},1651157525,18077
{consumergroup=trace-service},1651157530,18077
{consumergroup=trace-service},1651157535,18077
{consumergroup=trace-service},1651157540,31530
{consumergroup=trace-service},1651157545,31530
{consumergroup=trace-service},1651157550,31530
{consumergroup=trace-service},1651157555,21955
{consumergroup=trace-service},1651157560,21955
{consumergroup=trace-service},1651157565,21955
{consumergroup=trace-service},1651157570,32690
{consumergroup=trace-service},1651157575,32690
{consumergroup=trace-service},1651157580,32690
{consumergroup=trace-service},1651157585,18008
{consumergroup=trace-service},1651157590,18008
{consumergroup=trace-service},1651157595,18008
{consumergroup=trace-service},1651157600,31030
{consumergroup=trace-service},1651157605,31030
{consumergroup=trace-service},1651157610,31030
{consumergroup=trace-service},1651157615,22367
{consumergroup=trace-service},1651157620,22367
{consumergroup=trace-service},1651157625,22367
{consumergroup=trace-service},1651157630,33195
{consumergroup=trace-service},1651157635,33195
{consumergroup=trace-service},1651157640,33195
{consumergroup=trace-service},1651157645,23769
{consumergroup=trace-service},1651157650,23769
{consumergroup=trace-service},1651157655,23769
{consumergroup=trace-service},1651157660,33099
{consumergroup=trace-service},1651157665,33099
{consumergroup=trace-service},1651157670,33099
{consumergroup=trace-service},1651157675,19244
{consumergroup=trace-service},1651157680,19244
{consumergroup=trace-service},1651157685,19244
{consumergroup=trace-service},1651157690,38355
{consumergroup=trace-service},1651157695,38355
{consumergroup=trace-service},1651157700,38355
{consumergroup=trace-service},1651157705,110253
{consumergroup=trace-service},1651157710,110253
{consumergroup=trace-service},1651157715,110253
{consumergroup=trace-service},1651157720,52397
{consumergroup=trace-service},1651157725,52397
{consumergroup=trace-service},1651157730,52397
{consumergroup=trace-service},1651157735,21214
{consumergroup=trace-service},1651157740,21214
{consumergroup=trace-service},1651157745,21214
{consumergroup=trace-service},1651157750,32685
{consumergroup=trace-service},1651157755,32685
{consumergroup=trace-service},1651157760,32685
{consumergroup=trace-service},1651157765,24473
{consumergroup=trace-service},1651157770,24473
{consumergroup=trace-service},1651157775,24473
{consumergroup=trace-service},1651157780,32522
{consumergroup=trace-service},1651157785,32522
{consumergroup=trace-service},1651157790,32522
{consumergroup=trace-service},1651157795,24170
{consumergroup=trace-service},1651157800,24170
{consumergroup=trace-service},1651157805,24170
{consumergroup=trace-service},1651157810,32664
{consumergroup=trace-service},1651157815,32664
{consumergroup=trace-service},1651157820,32664
{consumergroup=trace-service},1651157825,24629
{consumergroup=trace-service},1651157830,24629
{consumergroup=trace-service},1651157835,24629
{consumergroup=trace-service},1651157840,34250
{consumergroup=trace-service},1651157845,34250
{consumergroup=trace-service},1651157850,34250
{consumergroup=trace-service},1651157855,21178
{consumergroup=trace-service},1651157860,21178
{consumergroup=trace-service},1651157865,21178
{consumergroup=trace-service},1651157870,33433
{consumergroup=trace-service},1651157875,33433
{consumergroup=trace-service},1651157880,33433
{consumergroup=trace-service},1651157885,19477
{consumergroup=trace-service},1651157890,19477
{consumergroup=trace-service},1651157895,19477
{consumergroup=trace-service},1651157900,32050
{consumergroup=trace-token-events-consumer},1651157435,0
{consumergroup=trace-token-events-consumer},1651157440,0
{consumergroup=trace-token-events-consumer},1651157445,0
{consumergroup=trace-token-events-consumer},1651157450,0
{consumergroup=trace-token-events-consumer},1651157455,0
{consumergroup=trace-token-events-consumer},1651157460,0
{consumergroup=trace-token-events-consumer},1651157465,0
{consumergroup=trace-token-events-consumer},1651157470,0
{consumergroup=trace-token-events-consumer},1651157475,0
{consumergroup=trace-token-events-consumer},1651157480,0
{consumergroup=trace-token-events-consumer},1651157485,0
{consumergroup=trace-token-events-consumer},1651157490,0
{consumergroup=trace-token-events-consumer},1651157495,0
{consumergroup=trace-token-events-consumer},1651157500,0
{consumergroup=trace-token-events-consumer},1651157505,0
{consumergroup=trace-token-events-consumer},1651157510,0
{consumergroup=trace-token-events-consumer},1651157515,0
{consumergroup=trace-token-events-consumer},1651157520,0
{consumergroup=trace-token-events-consumer},1651157525,0
{consumergroup=trace-token-events-consumer},1651157530,0
{consumergroup=trace-token-events-consumer},1651157535,0
{consumergroup=trace-token-events-consumer},1651157540,0
{consumergroup=trace-token-events-consumer},1651157545,0
{consumergroup=trace-token-events-consumer},1651157550,0
{consumergroup=trace-token-events-consumer},1651157555,0
{consumergroup=trace-token-events-consumer},1651157560,0
{consumergroup=trace-token-events-consumer},1651157565,0
{consumergroup=trace-token-events-consumer},1651157570,0
{consumergroup=trace-token-events-consumer},1651157575,0
{consumergroup=trace-token-events-consumer},1651157580,0
{consumergroup=trace-token-events-consumer},1651157585,0
{consumergroup=trace-token-events-consumer},1651157590,0
{consumergroup=trace-token-events-consumer},1651157595,0
{consumergroup=trace-token-events-consumer},1651157600,0
{consumergroup=trace-token-events-consumer},1651157605,0
{consumergroup=trace-token-events-consumer},1651157610,0
{consumergroup=trace-token-events-consumer},1651157615,0
{consumergroup=trace-token-events-consumer},1651157620,0
{consumergroup=trace-token-events-consumer},1651157625,0
{consumergroup=trace-token-events-consumer},1651157630,0
{consumergroup=trace-token-events-consumer},1651157635,0
{consumergroup=trace-token-events-consumer},1651157640,0
{consumergroup=trace-token-events-consumer},1651157645,0
{consumergroup=trace-token-events-consumer},1651157650,0
{consumergroup=trace-token-events-consumer},1651157655,0
{consumergroup=trace-token-events-consumer},1651157660,0
{consumergroup=trace-token-events-consumer},1651157665,0
{consumergroup=trace-token-events-consumer},1651157670,0
{consumergroup=trace-token-events-consumer},1651157675,0
{consumergroup=trace-token-events-consumer},1651157680,0
{consumergroup=trace-token-events-consumer},1651157685,0
{consumergroup=trace-token-events-consumer},1651157690,0
{consumergroup=trace-token-events-consumer},1651157695,0
{consumergroup=trace-token-events-consumer},1651157700,0
{consumergroup=trace-token-events-consumer},1651157705,0
{consumergroup=trace-token-events-consumer},1651157710,0
{consumergroup=trace-token-events-consumer},1651157715,0
{consumergroup=trace-token-events-consumer},1651157720,0
{consumergroup=trace-token-events-consumer},1651157725,0
{consumergroup=trace-token-events-consumer},1651157730,0
{consumergroup=trace-token-events-consumer},1651157735,0
{consumergroup=trace-token-events-consumer},1651157740,0
{consumergroup=trace-token-events-consumer},1651157745,0
{consumergroup=trace-token-events-consumer},1651157750,0
{consumergroup=trace-token-events-consumer},1651157755,0
{consumergroup=trace-token-events-consumer},1651157760,0
{consumergroup=trace-token-events-consumer},1651157765,0
{consumergroup=trace-token-events-consumer},1651157770,0
{consumergroup=trace-token-events-consumer},1651157775,0
{consumergroup=trace-token-events-consumer},1651157780,0
{consumergroup=trace-token-events-consumer},1651157785,0
{consumergroup=trace-token-events-consumer},1651157790,0
{consumergroup=trace-token-events-consumer},1651157795,0
{consumergroup=trace-token-events-consumer},1651157800,0
{consumergroup=trace-token-events-consumer},1651157805,0
{consumergroup=trace-token-events-consumer},1651157810,0
{consumergroup=trace-token-events-consumer},1651157815,0
{consumergroup=trace-token-events-consumer},1651157820,0
{consumergroup=trace-token-events-consumer},1651157825,0
{consumergroup=trace-token-events-consumer},1651157830,0
{consumergroup=trace-token-events-consumer},1651157835,0
{consumergroup=trace-token-events-consumer},1651157840,0
{consumergroup=trace-token-events-consumer},1651157845,0
{consumergroup=trace-token-events-consumer},1651157850,0
{consumergroup=trace-token-events-consumer},1651157855,0
{consumergroup=trace-token-events-consumer},1651157860,0
{consumergroup=trace-token-events-consumer},1651157865,0
{consumergroup=trace-token-events-consumer},1651157870,0
{consumergroup=trace-token-events-consumer},1651157875,0
{consumergroup=trace-token-events-consumer},1651157880,0
{consumergroup=trace-token-events-consumer},1651157885,0
{consumergroup=trace-token-events-consumer},1651157890,0
{consumergroup=trace-token-events-consumer},1651157895,0
{consumergroup=trace-token-events-consumer},1651157900,0
