labels,timestamp,value
{consumergroup=__strimzi-topic-operator-kstreams},1651105566,8
{consumergroup=__strimzi-topic-operator-kstreams},1651105571,8
{consumergroup=__strimzi-topic-operator-kstreams},1651105576,8
{consumergroup=__strimzi-topic-operator-kstreams},1651105581,0
{consumergroup=__strimzi-topic-operator-kstreams},1651105586,0
{consumergroup=__strimzi-topic-operator-kstreams},1651105591,0
{consumergroup=__strimzi-topic-operator-kstreams},1651105596,0
{consumergroup=__strimzi-topic-operator-kstreams},1651105601,0
{consumergroup=__strimzi-topic-operator-kstreams},1651105606,0
{consumergroup=__strimzi-topic-operator-kstreams},1651105611,0
{consumergroup=__strimzi-topic-operator-kstreams},1651105616,0
{consumergroup=__strimzi-topic-operator-kstreams},1651105621,0
{consumergroup=__strimzi-topic-operator-kstreams},1651105626,0
{consumergroup=__strimzi-topic-operator-kstreams},1651105631,0
{consumergroup=__strimzi-topic-operator-kstreams},1651105636,0
{consumergroup=__strimzi-topic-operator-kstreams},1651105641,0
{consumergroup=__strimzi-topic-operator-kstreams},1651105646,0
{consumergroup=__strimzi-topic-operator-kstreams},1651105651,0
{consumergroup=__strimzi-topic-operator-kstreams},1651105656,0
{consumergroup=__strimzi-topic-operator-kstreams},1651105661,0
{consumergroup=__strimzi-topic-operator-kstreams},1651105666,0
{consumergroup=__strimzi-topic-operator-kstreams},1651105671,0
{consumergroup=__strimzi-topic-operator-kstreams},1651105676,0
{consumergroup=__strimzi-topic-operator-kstreams},1651105681,0
{consumergroup=__strimzi-topic-operator-kstreams},1651105686,0
{consumergroup=__strimzi-topic-operator-kstreams},1651105691,0
{consumergroup=__strimzi-topic-operator-kstreams},1651105696,0
{consumergroup=__strimzi-topic-operator-kstreams},1651105701,0
{consumergroup=__strimzi-topic-operator-kstreams},1651105706,0
{consumergroup=__strimzi-topic-operator-kstreams},1651105711,0
{consumergroup=__strimzi-topic-operator-kstreams},1651105716,0
{consumergroup=__strimzi-topic-operator-kstreams},1651105721,0
{consumergroup=__strimzi-topic-operator-kstreams},1651105726,0
{consumergroup=__strimzi-topic-operator-kstreams},1651105731,0
{consumergroup=__strimzi-topic-operator-kstreams},1651105736,0
{consumergroup=__strimzi-topic-operator-kstreams},1651105741,0
{consumergroup=__strimzi-topic-operator-kstreams},1651105746,0
{consumergroup=__strimzi-topic-operator-kstreams},1651105751,0
{consumergroup=__strimzi-topic-operator-kstreams},1651105756,0
{consumergroup=__strimzi-topic-operator-kstreams},1651105761,0
{consumergroup=__strimzi-topic-operator-kstreams},1651105766,0
{consumergroup=__strimzi-topic-operator-kstreams},1651105771,0
{consumergroup=__strimzi-topic-operator-kstreams},1651105776,0
{consumergroup=__strimzi-topic-operator-kstreams},1651105781,0
{consumergroup=__strimzi-topic-operator-kstreams},1651105786,0
{consumergroup=__strimzi-topic-operator-kstreams},1651105791,0
{consumergroup=__strimzi-topic-operator-kstreams},1651105796,0
{consumergroup=__strimzi-topic-operator-kstreams},1651105801,0
{consumergroup=__strimzi-topic-operator-kstreams},1651105806,0
{consumergroup=__strimzi-topic-operator-kstreams},1651105811,0
{consumergroup=__strimzi-topic-operator-kstreams},1651105816,0
{consumergroup=__strimzi-topic-operator-kstreams},1651105821,0
{consumergroup=__strimzi-topic-operator-kstreams},1651105826,0
{consumergroup=__strimzi-topic-operator-kstreams},1651105831,0
{consumergroup=__strimzi-topic-operator-kstreams},1651105836,0
{consumergroup=__strimzi-topic-operator-kstreams},1651105841,0
{consumergroup=__strimzi-topic-operator-kstreams},1651105846,0
{consumergroup=__strimzi-topic-operator-kstreams},1651105851,0
{consumergroup=__strimzi-topic-operator-kstreams},1651105856,0
{consumergroup=__strimzi-topic-operator-kstreams},1651105861,0
{consumergroup=__strimzi-topic-operator-kstreams},1651105866,0
{consumergroup=__strimzi-topic-operator-kstreams},1651105871,0
{consumergroup=landscape-service},1651105596,11670
{consumergroup=landscape-service},1651105601,11670
{consumergroup=landscape-service},1651105606,11670
{consumergroup=landscape-service},1651105611,1699429
{consumergroup=landscape-service},1651105616,1699429
{consumergroup=landscape-service},1651105621,1699429
{consumergroup=landscape-service},1651105626,2453506
{consumergroup=landscape-service},1651105631,2453506
{consumergroup=landscape-service},1651105636,2453506
{consumergroup=landscape-service},1651105641,2910155
{consumergroup=landscape-service},1651105646,2910155
{consumergroup=landscape-service},1651105651,2910155
{consumergroup=landscape-service},1651105656,3263865
{consumergroup=landscape-service},1651105661,3263865
{consumergroup=landscape-service},1651105666,3263865
{consumergroup=landscape-service},1651105671,3333140
{consumergroup=landscape-service},1651105676,3333140
{consumergroup=landscape-service},1651105681,3333140
{consumergroup=landscape-service},1651105686,3329451
{consumergroup=landscape-service},1651105691,3329451
{consumergroup=landscape-service},1651105696,3329451
{consumergroup=landscape-service},1651105701,3205109
{consumergroup=landscape-service},1651105706,3205109
{consumergroup=landscape-service},1651105711,3205109
{consumergroup=landscape-service},1651105716,3381836
{consumergroup=landscape-service},1651105721,3381836
{consumergroup=landscape-service},1651105726,3381836
{consumergroup=landscape-service},1651105731,3280037
{consumergroup=landscape-service},1651105736,3280037
{consumergroup=landscape-service},1651105741,3280037
{consumergroup=landscape-service},1651105746,3377603
{consumergroup=landscape-service},1651105751,3377603
{consumergroup=landscape-service},1651105756,3377603
{consumergroup=landscape-service},1651105761,3324037
{consumergroup=landscape-service},1651105766,3324037
{consumergroup=landscape-service},1651105771,3324037
{consumergroup=landscape-service},1651105776,3276654
{consumergroup=landscape-service},1651105781,3276654
{consumergroup=landscape-service},1651105786,3276654
{consumergroup=landscape-service},1651105791,3234622
{consumergroup=landscape-service},1651105796,3234622
{consumergroup=landscape-service},1651105801,3234622
{consumergroup=landscape-service},1651105806,3195117
{consumergroup=landscape-service},1651105811,3195117
{consumergroup=landscape-service},1651105816,3195117
{consumergroup=landscape-service},1651105821,3117856
{consumergroup=landscape-service},1651105826,3117856
{consumergroup=landscape-service},1651105831,3117856
{consumergroup=landscape-service},1651105836,3028094
{consumergroup=landscape-service},1651105841,3028094
{consumergroup=landscape-service},1651105846,3028094
{consumergroup=landscape-service},1651105851,3122209
{consumergroup=landscape-service},1651105856,3122209
{consumergroup=landscape-service},1651105861,3122209
{consumergroup=landscape-service},1651105866,2893410
{consumergroup=landscape-service},1651105871,2893410
{consumergroup=landscape-token-events-consumer},1651105596,0
{consumergroup=landscape-token-events-consumer},1651105601,0
{consumergroup=landscape-token-events-consumer},1651105606,0
{consumergroup=landscape-token-events-consumer},1651105611,0
{consumergroup=landscape-token-events-consumer},1651105616,0
{consumergroup=landscape-token-events-consumer},1651105621,0
{consumergroup=landscape-token-events-consumer},1651105626,0
{consumergroup=landscape-token-events-consumer},1651105631,0
{consumergroup=landscape-token-events-consumer},1651105636,0
{consumergroup=landscape-token-events-consumer},1651105641,0
{consumergroup=landscape-token-events-consumer},1651105646,0
{consumergroup=landscape-token-events-consumer},1651105651,0
{consumergroup=landscape-token-events-consumer},1651105656,0
{consumergroup=landscape-token-events-consumer},1651105661,0
{consumergroup=landscape-token-events-consumer},1651105666,0
{consumergroup=landscape-token-events-consumer},1651105671,0
{consumergroup=landscape-token-events-consumer},1651105676,0
{consumergroup=landscape-token-events-consumer},1651105681,0
{consumergroup=landscape-token-events-consumer},1651105686,0
{consumergroup=landscape-token-events-consumer},1651105691,0
{consumergroup=landscape-token-events-consumer},1651105696,0
{consumergroup=landscape-token-events-consumer},1651105701,0
{consumergroup=landscape-token-events-consumer},1651105706,0
{consumergroup=landscape-token-events-consumer},1651105711,0
{consumergroup=landscape-token-events-consumer},1651105716,0
{consumergroup=landscape-token-events-consumer},1651105721,0
{consumergroup=landscape-token-events-consumer},1651105726,0
{consumergroup=landscape-token-events-consumer},1651105731,0
{consumergroup=landscape-token-events-consumer},1651105736,0
{consumergroup=landscape-token-events-consumer},1651105741,0
{consumergroup=landscape-token-events-consumer},1651105746,0
{consumergroup=landscape-token-events-consumer},1651105751,0
{consumergroup=landscape-token-events-consumer},1651105756,0
{consumergroup=landscape-token-events-consumer},1651105761,0
{consumergroup=landscape-token-events-consumer},1651105766,0
{consumergroup=landscape-token-events-consumer},1651105771,0
{consumergroup=landscape-token-events-consumer},1651105776,0
{consumergroup=landscape-token-events-consumer},1651105781,0
{consumergroup=landscape-token-events-consumer},1651105786,0
{consumergroup=landscape-token-events-consumer},1651105791,0
{consumergroup=landscape-token-events-consumer},1651105796,0
{consumergroup=landscape-token-events-consumer},1651105801,0
{consumergroup=landscape-token-events-consumer},1651105806,0
{consumergroup=landscape-token-events-consumer},1651105811,0
{consumergroup=landscape-token-events-consumer},1651105816,0
{consumergroup=landscape-token-events-consumer},1651105821,0
{consumergroup=landscape-token-events-consumer},1651105826,0
{consumergroup=landscape-token-events-consumer},1651105831,0
{consumergroup=landscape-token-events-consumer},1651105836,0
{consumergroup=landscape-token-events-consumer},1651105841,0
{consumergroup=landscape-token-events-consumer},1651105846,0
{consumergroup=landscape-token-events-consumer},1651105851,0
{consumergroup=landscape-token-events-consumer},1651105856,0
{consumergroup=landscape-token-events-consumer},1651105861,0
{consumergroup=landscape-token-events-consumer},1651105866,0
{consumergroup=landscape-token-events-consumer},1651105871,0
