labels,timestamp,value
{job=theodolite-stu200776/trace-isolated-podmonitor},1651168798,0
{job=theodolite-stu200776/trace-isolated-podmonitor},1651168803,0
{job=theodolite-stu200776/trace-isolated-podmonitor},1651168808,0
{job=theodolite-stu200776/trace-isolated-podmonitor},1651168813,0
{job=theodolite-stu200776/trace-isolated-podmonitor},1651168818,0
{job=theodolite-stu200776/trace-isolated-podmonitor},1651168823,0
{job=theodolite-stu200776/trace-isolated-podmonitor},1651168828,0
{job=theodolite-stu200776/trace-isolated-podmonitor},1651168833,0
{job=theodolite-stu200776/trace-isolated-podmonitor},1651168838,0
{job=theodolite-stu200776/trace-isolated-podmonitor},1651168843,0
{job=theodolite-stu200776/trace-isolated-podmonitor},1651168848,0
{job=theodolite-stu200776/trace-isolated-podmonitor},1651168853,0
{job=theodolite-stu200776/trace-isolated-podmonitor},1651168858,0
{job=theodolite-stu200776/trace-isolated-podmonitor},1651168863,0
{job=theodolite-stu200776/trace-isolated-podmonitor},1651168868,0
{job=theodolite-stu200776/trace-isolated-podmonitor},1651168873,0
{job=theodolite-stu200776/trace-isolated-podmonitor},1651168878,0
{job=theodolite-stu200776/trace-isolated-podmonitor},1651168883,0
{job=theodolite-stu200776/trace-isolated-podmonitor},1651168888,0
{job=theodolite-stu200776/trace-isolated-podmonitor},1651168893,0
{job=theodolite-stu200776/trace-isolated-podmonitor},1651168898,0
{job=theodolite-stu200776/trace-isolated-podmonitor},1651168903,0
{job=theodolite-stu200776/trace-isolated-podmonitor},1651168908,0
{job=theodolite-stu200776/trace-isolated-podmonitor},1651168913,0
{job=theodolite-stu200776/trace-isolated-podmonitor},1651168918,0
{job=theodolite-stu200776/trace-isolated-podmonitor},1651168923,0
{job=theodolite-stu200776/trace-isolated-podmonitor},1651168928,0
{job=theodolite-stu200776/trace-isolated-podmonitor},1651168933,0
{job=theodolite-stu200776/trace-isolated-podmonitor},1651168938,0
{job=theodolite-stu200776/trace-isolated-podmonitor},1651168943,0
{job=theodolite-stu200776/trace-isolated-podmonitor},1651168948,0
{job=theodolite-stu200776/trace-isolated-podmonitor},1651168953,0
{job=theodolite-stu200776/trace-isolated-podmonitor},1651168958,0
{job=theodolite-stu200776/trace-isolated-podmonitor},1651168963,0
{job=theodolite-stu200776/trace-isolated-podmonitor},1651168968,0
{job=theodolite-stu200776/trace-isolated-podmonitor},1651168973,0
{job=theodolite-stu200776/trace-isolated-podmonitor},1651168978,0
{job=theodolite-stu200776/trace-isolated-podmonitor},1651168983,0
{job=theodolite-stu200776/trace-isolated-podmonitor},1651168988,0
{job=theodolite-stu200776/trace-isolated-podmonitor},1651168993,0
{job=theodolite-stu200776/trace-isolated-podmonitor},1651168998,0
{job=theodolite-stu200776/trace-isolated-podmonitor},1651169003,0
{job=theodolite-stu200776/trace-isolated-podmonitor},1651169008,0
{job=theodolite-stu200776/trace-isolated-podmonitor},1651169013,0
{job=theodolite-stu200776/trace-isolated-podmonitor},1651169018,0
{job=theodolite-stu200776/trace-isolated-podmonitor},1651169023,0
{job=theodolite-stu200776/trace-isolated-podmonitor},1651169028,0
{job=theodolite-stu200776/trace-isolated-podmonitor},1651169033,0
{job=theodolite-stu200776/trace-isolated-podmonitor},1651169038,0
{job=theodolite-stu200776/trace-isolated-podmonitor},1651169043,0
{job=theodolite-stu200776/trace-isolated-podmonitor},1651169048,0
{job=theodolite-stu200776/trace-isolated-podmonitor},1651169053,0
{job=theodolite-stu200776/trace-isolated-podmonitor},1651169058,0
{job=theodolite-stu200776/trace-isolated-podmonitor},1651169063,0
{job=theodolite-stu200776/trace-isolated-podmonitor},1651169068,0
{job=theodolite-stu200776/trace-isolated-podmonitor},1651169073,0
{job=theodolite-stu200776/trace-isolated-podmonitor},1651169078,0
{job=theodolite-stu200776/trace-isolated-podmonitor},1651169083,0
{job=theodolite-stu200776/trace-isolated-podmonitor},1651169088,0
{job=theodolite-stu200776/trace-isolated-podmonitor},1651169093,0
{job=theodolite-stu200776/trace-isolated-podmonitor},1651169098,0
{job=theodolite-stu200776/trace-isolated-podmonitor},1651169103,0
{job=theodolite-stu200776/trace-isolated-podmonitor},1651169108,166.39601947437953
{job=theodolite-stu200776/trace-isolated-podmonitor},1651169113,998.9480470442518
{job=theodolite-stu200776/trace-isolated-podmonitor},1651169118,1194.4520524927673
{job=theodolite-stu200776/trace-isolated-podmonitor},1651169123,1151.9898273522565
{job=theodolite-stu200776/trace-isolated-podmonitor},1651169128,1147.2708782612647
{job=theodolite-stu200776/trace-isolated-podmonitor},1651169133,1030.8261094018617
{job=theodolite-stu200776/trace-isolated-podmonitor},1651169138,1137.0110103857614
{job=theodolite-stu200776/trace-isolated-podmonitor},1651169143,1526.099435480825
{job=theodolite-stu200776/trace-isolated-podmonitor},1651169148,1519.2960489960622
{job=theodolite-stu200776/trace-isolated-podmonitor},1651169153,1282.0782351307837
{job=theodolite-stu200776/trace-isolated-podmonitor},1651169158,1190.5135791743464
{job=theodolite-stu200776/trace-isolated-podmonitor},1651169163,1040.001697615091
{job=theodolite-stu200776/trace-isolated-podmonitor},1651169168,808.9975090670409
{job=theodolite-stu200776/trace-isolated-podmonitor},1651169173,133.99374582655514
{job=theodolite-stu200776/trace-isolated-podmonitor},1651169178,0
{job=theodolite-stu200776/trace-isolated-podmonitor},1651169183,0
{job=theodolite-stu200776/trace-isolated-podmonitor},1651169188,0
{job=theodolite-stu200776/trace-isolated-podmonitor},1651169193,0
{job=theodolite-stu200776/trace-isolated-podmonitor},1651169198,0
{job=theodolite-stu200776/trace-isolated-podmonitor},1651169203,0
{job=theodolite-stu200776/trace-isolated-podmonitor},1651169208,0
{job=theodolite-stu200776/trace-isolated-podmonitor},1651169213,0
{job=theodolite-stu200776/trace-isolated-podmonitor},1651169218,0
{job=theodolite-stu200776/trace-isolated-podmonitor},1651169223,0
{job=theodolite-stu200776/trace-isolated-podmonitor},1651169228,0
