labels,timestamp,value
{consumergroup=__strimzi-topic-operator-kstreams},1651202848,0
{consumergroup=__strimzi-topic-operator-kstreams},1651202853,0
{consumergroup=__strimzi-topic-operator-kstreams},1651202858,0
{consumergroup=__strimzi-topic-operator-kstreams},1651202863,3
{consumergroup=__strimzi-topic-operator-kstreams},1651202868,3
{consumergroup=__strimzi-topic-operator-kstreams},1651202873,3
{consumergroup=__strimzi-topic-operator-kstreams},1651202878,0
{consumergroup=__strimzi-topic-operator-kstreams},1651202883,0
{consumergroup=__strimzi-topic-operator-kstreams},1651202888,0
{consumergroup=__strimzi-topic-operator-kstreams},1651202893,0
{consumergroup=__strimzi-topic-operator-kstreams},1651202898,0
{consumergroup=__strimzi-topic-operator-kstreams},1651202903,0
{consumergroup=__strimzi-topic-operator-kstreams},1651202908,0
{consumergroup=__strimzi-topic-operator-kstreams},1651202913,0
{consumergroup=__strimzi-topic-operator-kstreams},1651202918,0
{consumergroup=__strimzi-topic-operator-kstreams},1651202923,0
{consumergroup=__strimzi-topic-operator-kstreams},1651202928,0
{consumergroup=__strimzi-topic-operator-kstreams},1651202933,0
{consumergroup=__strimzi-topic-operator-kstreams},1651202938,0
{consumergroup=__strimzi-topic-operator-kstreams},1651202943,0
{consumergroup=__strimzi-topic-operator-kstreams},1651202948,0
{consumergroup=__strimzi-topic-operator-kstreams},1651202953,0
{consumergroup=__strimzi-topic-operator-kstreams},1651202958,0
{consumergroup=__strimzi-topic-operator-kstreams},1651202963,0
{consumergroup=__strimzi-topic-operator-kstreams},1651202968,0
{consumergroup=__strimzi-topic-operator-kstreams},1651202973,0
{consumergroup=__strimzi-topic-operator-kstreams},1651202978,0
{consumergroup=__strimzi-topic-operator-kstreams},1651202983,0
{consumergroup=__strimzi-topic-operator-kstreams},1651202988,0
{consumergroup=__strimzi-topic-operator-kstreams},1651202993,0
{consumergroup=__strimzi-topic-operator-kstreams},1651202998,0
{consumergroup=__strimzi-topic-operator-kstreams},1651203003,0
{consumergroup=__strimzi-topic-operator-kstreams},1651203008,0
{consumergroup=__strimzi-topic-operator-kstreams},1651203013,0
{consumergroup=__strimzi-topic-operator-kstreams},1651203018,0
{consumergroup=__strimzi-topic-operator-kstreams},1651203023,0
{consumergroup=__strimzi-topic-operator-kstreams},1651203028,0
{consumergroup=__strimzi-topic-operator-kstreams},1651203033,0
{consumergroup=__strimzi-topic-operator-kstreams},1651203038,0
{consumergroup=__strimzi-topic-operator-kstreams},1651203043,0
{consumergroup=__strimzi-topic-operator-kstreams},1651203048,0
{consumergroup=__strimzi-topic-operator-kstreams},1651203053,0
{consumergroup=__strimzi-topic-operator-kstreams},1651203058,0
{consumergroup=__strimzi-topic-operator-kstreams},1651203063,0
{consumergroup=__strimzi-topic-operator-kstreams},1651203068,0
{consumergroup=__strimzi-topic-operator-kstreams},1651203073,0
{consumergroup=__strimzi-topic-operator-kstreams},1651203078,0
{consumergroup=__strimzi-topic-operator-kstreams},1651203083,0
{consumergroup=__strimzi-topic-operator-kstreams},1651203088,0
{consumergroup=__strimzi-topic-operator-kstreams},1651203093,0
{consumergroup=__strimzi-topic-operator-kstreams},1651203098,0
{consumergroup=__strimzi-topic-operator-kstreams},1651203103,0
{consumergroup=__strimzi-topic-operator-kstreams},1651203108,0
{consumergroup=__strimzi-topic-operator-kstreams},1651203113,0
{consumergroup=__strimzi-topic-operator-kstreams},1651203118,0
{consumergroup=__strimzi-topic-operator-kstreams},1651203123,0
{consumergroup=__strimzi-topic-operator-kstreams},1651203128,0
{consumergroup=__strimzi-topic-operator-kstreams},1651203133,0
{consumergroup=__strimzi-topic-operator-kstreams},1651203138,0
{consumergroup=__strimzi-topic-operator-kstreams},1651203143,0
{consumergroup=__strimzi-topic-operator-kstreams},1651203148,0
{consumergroup=__strimzi-topic-operator-kstreams},1651203153,0
{consumergroup=__strimzi-topic-operator-kstreams},1651203158,0
{consumergroup=__strimzi-topic-operator-kstreams},1651203163,0
{consumergroup=__strimzi-topic-operator-kstreams},1651203168,0
{consumergroup=__strimzi-topic-operator-kstreams},1651203173,0
{consumergroup=__strimzi-topic-operator-kstreams},1651203178,0
{consumergroup=__strimzi-topic-operator-kstreams},1651203183,0
{consumergroup=__strimzi-topic-operator-kstreams},1651203188,0
{consumergroup=__strimzi-topic-operator-kstreams},1651203193,0
{consumergroup=__strimzi-topic-operator-kstreams},1651203198,0
{consumergroup=__strimzi-topic-operator-kstreams},1651203203,0
{consumergroup=__strimzi-topic-operator-kstreams},1651203208,0
{consumergroup=__strimzi-topic-operator-kstreams},1651203213,0
{consumergroup=__strimzi-topic-operator-kstreams},1651203218,0
{consumergroup=__strimzi-topic-operator-kstreams},1651203223,0
{consumergroup=__strimzi-topic-operator-kstreams},1651203228,0
{consumergroup=__strimzi-topic-operator-kstreams},1651203233,0
{consumergroup=__strimzi-topic-operator-kstreams},1651203238,0
{consumergroup=__strimzi-topic-operator-kstreams},1651203243,0
{consumergroup=__strimzi-topic-operator-kstreams},1651203248,0
{consumergroup=__strimzi-topic-operator-kstreams},1651203253,0
{consumergroup=__strimzi-topic-operator-kstreams},1651203258,0
{consumergroup=__strimzi-topic-operator-kstreams},1651203263,0
{consumergroup=__strimzi-topic-operator-kstreams},1651203268,0
{consumergroup=__strimzi-topic-operator-kstreams},1651203273,0
{consumergroup=__strimzi-topic-operator-kstreams},1651203278,0
{consumergroup=__strimzi-topic-operator-kstreams},1651203283,0
{consumergroup=__strimzi-topic-operator-kstreams},1651203288,0
{consumergroup=__strimzi-topic-operator-kstreams},1651203293,0
{consumergroup=__strimzi-topic-operator-kstreams},1651203298,0
{consumergroup=__strimzi-topic-operator-kstreams},1651203303,0
{consumergroup=__strimzi-topic-operator-kstreams},1651203308,0
{consumergroup=__strimzi-topic-operator-kstreams},1651203313,0
{consumergroup=__strimzi-topic-operator-kstreams},1651203318,0
{consumergroup=__strimzi-topic-operator-kstreams},1651203323,0
{consumergroup=__strimzi-topic-operator-kstreams},1651203328,0
{consumergroup=__strimzi-topic-operator-kstreams},1651203333,0
{consumergroup=__strimzi-topic-operator-kstreams},1651203338,0
{consumergroup=__strimzi-topic-operator-kstreams},1651203343,0
{consumergroup=trace-service},1651202878,13758
{consumergroup=trace-service},1651202883,13758
{consumergroup=trace-service},1651202888,13758
{consumergroup=trace-service},1651202893,39885
{consumergroup=trace-service},1651202898,39885
{consumergroup=trace-service},1651202903,39885
{consumergroup=trace-service},1651202908,13636
{consumergroup=trace-service},1651202913,13636
{consumergroup=trace-service},1651202918,13636
{consumergroup=trace-service},1651202923,34527
{consumergroup=trace-service},1651202928,34527
{consumergroup=trace-service},1651202933,34527
{consumergroup=trace-service},1651202938,55940
{consumergroup=trace-service},1651202943,55940
{consumergroup=trace-service},1651202948,55940
{consumergroup=trace-service},1651202953,33246
{consumergroup=trace-service},1651202958,33246
{consumergroup=trace-service},1651202963,33246
{consumergroup=trace-service},1651202968,95084
{consumergroup=trace-service},1651202973,95084
{consumergroup=trace-service},1651202978,95084
{consumergroup=trace-service},1651202983,28207
{consumergroup=trace-service},1651202988,28207
{consumergroup=trace-service},1651202993,28207
{consumergroup=trace-service},1651202998,81995
{consumergroup=trace-service},1651203003,81995
{consumergroup=trace-service},1651203008,81995
{consumergroup=trace-service},1651203013,32454
{consumergroup=trace-service},1651203018,32454
{consumergroup=trace-service},1651203023,32454
{consumergroup=trace-service},1651203028,86378
{consumergroup=trace-service},1651203033,86378
{consumergroup=trace-service},1651203038,86378
{consumergroup=trace-service},1651203043,34974
{consumergroup=trace-service},1651203048,34974
{consumergroup=trace-service},1651203053,34974
{consumergroup=trace-service},1651203058,63636
{consumergroup=trace-service},1651203063,63636
{consumergroup=trace-service},1651203068,63636
{consumergroup=trace-service},1651203073,108119
{consumergroup=trace-service},1651203078,108119
{consumergroup=trace-service},1651203083,108119
{consumergroup=trace-service},1651203088,90243
{consumergroup=trace-service},1651203093,90243
{consumergroup=trace-service},1651203098,90243
{consumergroup=trace-service},1651203103,102232
{consumergroup=trace-service},1651203108,102232
{consumergroup=trace-service},1651203113,102232
{consumergroup=trace-service},1651203118,8846
{consumergroup=trace-service},1651203123,8846
{consumergroup=trace-service},1651203128,8846
{consumergroup=trace-service},1651203133,31733
{consumergroup=trace-service},1651203138,31733
{consumergroup=trace-service},1651203143,31733
{consumergroup=trace-service},1651203148,73061
{consumergroup=trace-service},1651203153,73061
{consumergroup=trace-service},1651203158,73061
{consumergroup=trace-service},1651203163,33934
{consumergroup=trace-service},1651203168,33934
{consumergroup=trace-service},1651203173,33934
{consumergroup=trace-service},1651203178,62998
{consumergroup=trace-service},1651203183,62998
{consumergroup=trace-service},1651203188,62998
{consumergroup=trace-service},1651203193,109663
{consumergroup=trace-service},1651203198,109663
{consumergroup=trace-service},1651203203,109663
{consumergroup=trace-service},1651203208,93284
{consumergroup=trace-service},1651203213,93284
{consumergroup=trace-service},1651203218,93284
{consumergroup=trace-service},1651203223,139586
{consumergroup=trace-service},1651203228,139586
{consumergroup=trace-service},1651203233,139586
{consumergroup=trace-service},1651203238,12949
{consumergroup=trace-service},1651203243,12949
{consumergroup=trace-service},1651203248,12949
{consumergroup=trace-service},1651203253,33689
{consumergroup=trace-service},1651203258,33689
{consumergroup=trace-service},1651203263,33689
{consumergroup=trace-service},1651203268,99132
{consumergroup=trace-service},1651203273,99132
{consumergroup=trace-service},1651203278,99132
{consumergroup=trace-service},1651203283,35758
{consumergroup=trace-service},1651203288,35758
{consumergroup=trace-service},1651203293,35758
{consumergroup=trace-service},1651203298,67821
{consumergroup=trace-service},1651203303,67821
{consumergroup=trace-service},1651203308,67821
{consumergroup=trace-service},1651203313,126110
{consumergroup=trace-service},1651203318,126110
{consumergroup=trace-service},1651203323,126110
{consumergroup=trace-service},1651203328,96352
{consumergroup=trace-service},1651203333,96352
{consumergroup=trace-service},1651203338,96352
{consumergroup=trace-service},1651203343,115025
{consumergroup=trace-token-events-consumer},1651202878,0
{consumergroup=trace-token-events-consumer},1651202883,0
{consumergroup=trace-token-events-consumer},1651202888,0
{consumergroup=trace-token-events-consumer},1651202893,0
{consumergroup=trace-token-events-consumer},1651202898,0
{consumergroup=trace-token-events-consumer},1651202903,0
{consumergroup=trace-token-events-consumer},1651202908,0
{consumergroup=trace-token-events-consumer},1651202913,0
{consumergroup=trace-token-events-consumer},1651202918,0
{consumergroup=trace-token-events-consumer},1651202923,0
{consumergroup=trace-token-events-consumer},1651202928,0
{consumergroup=trace-token-events-consumer},1651202933,0
{consumergroup=trace-token-events-consumer},1651202938,0
{consumergroup=trace-token-events-consumer},1651202943,0
{consumergroup=trace-token-events-consumer},1651202948,0
{consumergroup=trace-token-events-consumer},1651202953,0
{consumergroup=trace-token-events-consumer},1651202958,0
{consumergroup=trace-token-events-consumer},1651202963,0
{consumergroup=trace-token-events-consumer},1651202968,0
{consumergroup=trace-token-events-consumer},1651202973,0
{consumergroup=trace-token-events-consumer},1651202978,0
{consumergroup=trace-token-events-consumer},1651202983,0
{consumergroup=trace-token-events-consumer},1651202988,0
{consumergroup=trace-token-events-consumer},1651202993,0
{consumergroup=trace-token-events-consumer},1651202998,0
{consumergroup=trace-token-events-consumer},1651203003,0
{consumergroup=trace-token-events-consumer},1651203008,0
{consumergroup=trace-token-events-consumer},1651203013,0
{consumergroup=trace-token-events-consumer},1651203018,0
{consumergroup=trace-token-events-consumer},1651203023,0
{consumergroup=trace-token-events-consumer},1651203028,0
{consumergroup=trace-token-events-consumer},1651203033,0
{consumergroup=trace-token-events-consumer},1651203038,0
{consumergroup=trace-token-events-consumer},1651203043,0
{consumergroup=trace-token-events-consumer},1651203048,0
{consumergroup=trace-token-events-consumer},1651203053,0
{consumergroup=trace-token-events-consumer},1651203058,0
{consumergroup=trace-token-events-consumer},1651203063,0
{consumergroup=trace-token-events-consumer},1651203068,0
{consumergroup=trace-token-events-consumer},1651203073,0
{consumergroup=trace-token-events-consumer},1651203078,0
{consumergroup=trace-token-events-consumer},1651203083,0
{consumergroup=trace-token-events-consumer},1651203088,0
{consumergroup=trace-token-events-consumer},1651203093,0
{consumergroup=trace-token-events-consumer},1651203098,0
{consumergroup=trace-token-events-consumer},1651203103,0
{consumergroup=trace-token-events-consumer},1651203108,0
{consumergroup=trace-token-events-consumer},1651203113,0
{consumergroup=trace-token-events-consumer},1651203118,0
{consumergroup=trace-token-events-consumer},1651203123,0
{consumergroup=trace-token-events-consumer},1651203128,0
{consumergroup=trace-token-events-consumer},1651203133,0
{consumergroup=trace-token-events-consumer},1651203138,0
{consumergroup=trace-token-events-consumer},1651203143,0
{consumergroup=trace-token-events-consumer},1651203148,0
{consumergroup=trace-token-events-consumer},1651203153,0
{consumergroup=trace-token-events-consumer},1651203158,0
{consumergroup=trace-token-events-consumer},1651203163,0
{consumergroup=trace-token-events-consumer},1651203168,0
{consumergroup=trace-token-events-consumer},1651203173,0
{consumergroup=trace-token-events-consumer},1651203178,0
{consumergroup=trace-token-events-consumer},1651203183,0
{consumergroup=trace-token-events-consumer},1651203188,0
{consumergroup=trace-token-events-consumer},1651203193,0
{consumergroup=trace-token-events-consumer},1651203198,0
{consumergroup=trace-token-events-consumer},1651203203,0
{consumergroup=trace-token-events-consumer},1651203208,0
{consumergroup=trace-token-events-consumer},1651203213,0
{consumergroup=trace-token-events-consumer},1651203218,0
{consumergroup=trace-token-events-consumer},1651203223,0
{consumergroup=trace-token-events-consumer},1651203228,0
{consumergroup=trace-token-events-consumer},1651203233,0
{consumergroup=trace-token-events-consumer},1651203238,0
{consumergroup=trace-token-events-consumer},1651203243,0
{consumergroup=trace-token-events-consumer},1651203248,0
{consumergroup=trace-token-events-consumer},1651203253,0
{consumergroup=trace-token-events-consumer},1651203258,0
{consumergroup=trace-token-events-consumer},1651203263,0
{consumergroup=trace-token-events-consumer},1651203268,0
{consumergroup=trace-token-events-consumer},1651203273,0
{consumergroup=trace-token-events-consumer},1651203278,0
{consumergroup=trace-token-events-consumer},1651203283,0
{consumergroup=trace-token-events-consumer},1651203288,0
{consumergroup=trace-token-events-consumer},1651203293,0
{consumergroup=trace-token-events-consumer},1651203298,0
{consumergroup=trace-token-events-consumer},1651203303,0
{consumergroup=trace-token-events-consumer},1651203308,0
{consumergroup=trace-token-events-consumer},1651203313,0
{consumergroup=trace-token-events-consumer},1651203318,0
{consumergroup=trace-token-events-consumer},1651203323,0
{consumergroup=trace-token-events-consumer},1651203328,0
{consumergroup=trace-token-events-consumer},1651203333,0
{consumergroup=trace-token-events-consumer},1651203338,0
{consumergroup=trace-token-events-consumer},1651203343,0
