labels,timestamp,value
{consumergroup=__strimzi-topic-operator-kstreams},1651159676,3
{consumergroup=__strimzi-topic-operator-kstreams},1651159681,3
{consumergroup=__strimzi-topic-operator-kstreams},1651159686,3
{consumergroup=__strimzi-topic-operator-kstreams},1651159691,0
{consumergroup=__strimzi-topic-operator-kstreams},1651159696,0
{consumergroup=__strimzi-topic-operator-kstreams},1651159701,0
{consumergroup=__strimzi-topic-operator-kstreams},1651159706,3
{consumergroup=__strimzi-topic-operator-kstreams},1651159711,3
{consumergroup=__strimzi-topic-operator-kstreams},1651159716,3
{consumergroup=__strimzi-topic-operator-kstreams},1651159721,0
{consumergroup=__strimzi-topic-operator-kstreams},1651159726,0
{consumergroup=__strimzi-topic-operator-kstreams},1651159731,0
{consumergroup=__strimzi-topic-operator-kstreams},1651159736,0
{consumergroup=__strimzi-topic-operator-kstreams},1651159741,0
{consumergroup=__strimzi-topic-operator-kstreams},1651159746,0
{consumergroup=__strimzi-topic-operator-kstreams},1651159751,0
{consumergroup=__strimzi-topic-operator-kstreams},1651159756,0
{consumergroup=__strimzi-topic-operator-kstreams},1651159761,0
{consumergroup=__strimzi-topic-operator-kstreams},1651159766,0
{consumergroup=__strimzi-topic-operator-kstreams},1651159771,0
{consumergroup=__strimzi-topic-operator-kstreams},1651159776,0
{consumergroup=__strimzi-topic-operator-kstreams},1651159781,0
{consumergroup=__strimzi-topic-operator-kstreams},1651159786,0
{consumergroup=__strimzi-topic-operator-kstreams},1651159791,0
{consumergroup=__strimzi-topic-operator-kstreams},1651159796,0
{consumergroup=__strimzi-topic-operator-kstreams},1651159801,0
{consumergroup=__strimzi-topic-operator-kstreams},1651159806,0
{consumergroup=__strimzi-topic-operator-kstreams},1651159811,0
{consumergroup=__strimzi-topic-operator-kstreams},1651159816,0
{consumergroup=__strimzi-topic-operator-kstreams},1651159821,0
{consumergroup=__strimzi-topic-operator-kstreams},1651159826,0
{consumergroup=__strimzi-topic-operator-kstreams},1651159831,0
{consumergroup=__strimzi-topic-operator-kstreams},1651159836,0
{consumergroup=__strimzi-topic-operator-kstreams},1651159841,0
{consumergroup=__strimzi-topic-operator-kstreams},1651159846,0
{consumergroup=__strimzi-topic-operator-kstreams},1651159851,0
{consumergroup=__strimzi-topic-operator-kstreams},1651159856,0
{consumergroup=__strimzi-topic-operator-kstreams},1651159861,0
{consumergroup=__strimzi-topic-operator-kstreams},1651159866,0
{consumergroup=__strimzi-topic-operator-kstreams},1651159871,0
{consumergroup=__strimzi-topic-operator-kstreams},1651159876,0
{consumergroup=__strimzi-topic-operator-kstreams},1651159881,0
{consumergroup=__strimzi-topic-operator-kstreams},1651159886,0
{consumergroup=__strimzi-topic-operator-kstreams},1651159891,0
{consumergroup=__strimzi-topic-operator-kstreams},1651159896,0
{consumergroup=__strimzi-topic-operator-kstreams},1651159901,0
{consumergroup=__strimzi-topic-operator-kstreams},1651159906,0
{consumergroup=__strimzi-topic-operator-kstreams},1651159911,0
{consumergroup=__strimzi-topic-operator-kstreams},1651159916,0
{consumergroup=__strimzi-topic-operator-kstreams},1651159921,0
{consumergroup=__strimzi-topic-operator-kstreams},1651159926,0
{consumergroup=__strimzi-topic-operator-kstreams},1651159931,0
{consumergroup=__strimzi-topic-operator-kstreams},1651159936,0
{consumergroup=__strimzi-topic-operator-kstreams},1651159941,0
{consumergroup=__strimzi-topic-operator-kstreams},1651159946,0
{consumergroup=__strimzi-topic-operator-kstreams},1651159951,0
{consumergroup=__strimzi-topic-operator-kstreams},1651159956,0
{consumergroup=__strimzi-topic-operator-kstreams},1651159961,0
{consumergroup=__strimzi-topic-operator-kstreams},1651159966,0
{consumergroup=__strimzi-topic-operator-kstreams},1651159971,0
{consumergroup=__strimzi-topic-operator-kstreams},1651159976,0
{consumergroup=__strimzi-topic-operator-kstreams},1651159981,0
{consumergroup=__strimzi-topic-operator-kstreams},1651159986,0
{consumergroup=__strimzi-topic-operator-kstreams},1651159991,0
{consumergroup=__strimzi-topic-operator-kstreams},1651159996,0
{consumergroup=__strimzi-topic-operator-kstreams},1651160001,0
{consumergroup=__strimzi-topic-operator-kstreams},1651160006,0
{consumergroup=__strimzi-topic-operator-kstreams},1651160011,0
{consumergroup=__strimzi-topic-operator-kstreams},1651160016,0
{consumergroup=__strimzi-topic-operator-kstreams},1651160021,0
{consumergroup=__strimzi-topic-operator-kstreams},1651160026,0
{consumergroup=__strimzi-topic-operator-kstreams},1651160031,0
{consumergroup=__strimzi-topic-operator-kstreams},1651160036,0
{consumergroup=__strimzi-topic-operator-kstreams},1651160041,0
{consumergroup=__strimzi-topic-operator-kstreams},1651160046,0
{consumergroup=__strimzi-topic-operator-kstreams},1651160051,0
{consumergroup=__strimzi-topic-operator-kstreams},1651160056,0
{consumergroup=__strimzi-topic-operator-kstreams},1651160061,0
{consumergroup=__strimzi-topic-operator-kstreams},1651160066,0
{consumergroup=__strimzi-topic-operator-kstreams},1651160071,0
{consumergroup=__strimzi-topic-operator-kstreams},1651160076,0
{consumergroup=__strimzi-topic-operator-kstreams},1651160081,0
{consumergroup=__strimzi-topic-operator-kstreams},1651160086,0
{consumergroup=__strimzi-topic-operator-kstreams},1651160091,0
{consumergroup=__strimzi-topic-operator-kstreams},1651160096,0
{consumergroup=__strimzi-topic-operator-kstreams},1651160101,0
{consumergroup=__strimzi-topic-operator-kstreams},1651160106,0
{consumergroup=__strimzi-topic-operator-kstreams},1651160111,0
{consumergroup=__strimzi-topic-operator-kstreams},1651160116,0
{consumergroup=__strimzi-topic-operator-kstreams},1651160121,0
{consumergroup=__strimzi-topic-operator-kstreams},1651160126,0
{consumergroup=__strimzi-topic-operator-kstreams},1651160131,0
{consumergroup=__strimzi-topic-operator-kstreams},1651160136,0
{consumergroup=__strimzi-topic-operator-kstreams},1651160141,0
{consumergroup=__strimzi-topic-operator-kstreams},1651160146,0
{consumergroup=__strimzi-topic-operator-kstreams},1651160151,0
{consumergroup=__strimzi-topic-operator-kstreams},1651160156,0
{consumergroup=__strimzi-topic-operator-kstreams},1651160161,0
{consumergroup=__strimzi-topic-operator-kstreams},1651160166,0
{consumergroup=__strimzi-topic-operator-kstreams},1651160171,0
{consumergroup=__strimzi-topic-operator-kstreams},1651160176,0
{consumergroup=trace-service},1651159721,28909
{consumergroup=trace-service},1651159726,28909
{consumergroup=trace-service},1651159731,28909
{consumergroup=trace-service},1651159736,6219
{consumergroup=trace-service},1651159741,6219
{consumergroup=trace-service},1651159746,6219
{consumergroup=trace-service},1651159751,25606
{consumergroup=trace-service},1651159756,25606
{consumergroup=trace-service},1651159761,25606
{consumergroup=trace-service},1651159766,38638
{consumergroup=trace-service},1651159771,38638
{consumergroup=trace-service},1651159776,38638
{consumergroup=trace-service},1651159781,25415
{consumergroup=trace-service},1651159786,25415
{consumergroup=trace-service},1651159791,25415
{consumergroup=trace-service},1651159796,58944
{consumergroup=trace-service},1651159801,58944
{consumergroup=trace-service},1651159806,58944
{consumergroup=trace-service},1651159811,23945
{consumergroup=trace-service},1651159816,23945
{consumergroup=trace-service},1651159821,23945
{consumergroup=trace-service},1651159826,32221
{consumergroup=trace-service},1651159831,32221
{consumergroup=trace-service},1651159836,32221
{consumergroup=trace-service},1651159841,23463
{consumergroup=trace-service},1651159846,23463
{consumergroup=trace-service},1651159851,23463
{consumergroup=trace-service},1651159856,30323
{consumergroup=trace-service},1651159861,30323
{consumergroup=trace-service},1651159866,30323
{consumergroup=trace-service},1651159871,24719
{consumergroup=trace-service},1651159876,24719
{consumergroup=trace-service},1651159881,24719
{consumergroup=trace-service},1651159886,55618
{consumergroup=trace-service},1651159891,55618
{consumergroup=trace-service},1651159896,55618
{consumergroup=trace-service},1651159901,23258
{consumergroup=trace-service},1651159906,23258
{consumergroup=trace-service},1651159911,23258
{consumergroup=trace-service},1651159916,69712
{consumergroup=trace-service},1651159921,69712
{consumergroup=trace-service},1651159926,69712
{consumergroup=trace-service},1651159931,25810
{consumergroup=trace-service},1651159936,25810
{consumergroup=trace-service},1651159941,25810
{consumergroup=trace-service},1651159946,17984
{consumergroup=trace-service},1651159951,17984
{consumergroup=trace-service},1651159956,17984
{consumergroup=trace-service},1651159961,24582
{consumergroup=trace-service},1651159966,24582
{consumergroup=trace-service},1651159971,24582
{consumergroup=trace-service},1651159976,75456
{consumergroup=trace-service},1651159981,75456
{consumergroup=trace-service},1651159986,75456
{consumergroup=trace-service},1651159991,24415
{consumergroup=trace-service},1651159996,24415
{consumergroup=trace-service},1651160001,24415
{consumergroup=trace-service},1651160006,22703
{consumergroup=trace-service},1651160011,22703
{consumergroup=trace-service},1651160016,22703
{consumergroup=trace-service},1651160021,25506
{consumergroup=trace-service},1651160026,25506
{consumergroup=trace-service},1651160031,25506
{consumergroup=trace-service},1651160036,69082
{consumergroup=trace-service},1651160041,69082
{consumergroup=trace-service},1651160046,69082
{consumergroup=trace-service},1651160051,26322
{consumergroup=trace-service},1651160056,26322
{consumergroup=trace-service},1651160061,26322
{consumergroup=trace-service},1651160066,66212
{consumergroup=trace-service},1651160071,66212
{consumergroup=trace-service},1651160076,66212
{consumergroup=trace-service},1651160081,25020
{consumergroup=trace-service},1651160086,25020
{consumergroup=trace-service},1651160091,25020
{consumergroup=trace-service},1651160096,6074
{consumergroup=trace-service},1651160101,6074
{consumergroup=trace-service},1651160106,6074
{consumergroup=trace-service},1651160111,25590
{consumergroup=trace-service},1651160116,25590
{consumergroup=trace-service},1651160121,25590
{consumergroup=trace-service},1651160126,48076
{consumergroup=trace-service},1651160131,48076
{consumergroup=trace-service},1651160136,48076
{consumergroup=trace-service},1651160141,24638
{consumergroup=trace-service},1651160146,24638
{consumergroup=trace-service},1651160151,24638
{consumergroup=trace-service},1651160156,49282
{consumergroup=trace-service},1651160161,49282
{consumergroup=trace-service},1651160166,49282
{consumergroup=trace-service},1651160171,25072
{consumergroup=trace-service},1651160176,25072
{consumergroup=trace-token-events-consumer},1651159706,0
{consumergroup=trace-token-events-consumer},1651159711,0
{consumergroup=trace-token-events-consumer},1651159716,0
{consumergroup=trace-token-events-consumer},1651159721,0
{consumergroup=trace-token-events-consumer},1651159726,0
{consumergroup=trace-token-events-consumer},1651159731,0
{consumergroup=trace-token-events-consumer},1651159736,0
{consumergroup=trace-token-events-consumer},1651159741,0
{consumergroup=trace-token-events-consumer},1651159746,0
{consumergroup=trace-token-events-consumer},1651159751,0
{consumergroup=trace-token-events-consumer},1651159756,0
{consumergroup=trace-token-events-consumer},1651159761,0
{consumergroup=trace-token-events-consumer},1651159766,0
{consumergroup=trace-token-events-consumer},1651159771,0
{consumergroup=trace-token-events-consumer},1651159776,0
{consumergroup=trace-token-events-consumer},1651159781,0
{consumergroup=trace-token-events-consumer},1651159786,0
{consumergroup=trace-token-events-consumer},1651159791,0
{consumergroup=trace-token-events-consumer},1651159796,0
{consumergroup=trace-token-events-consumer},1651159801,0
{consumergroup=trace-token-events-consumer},1651159806,0
{consumergroup=trace-token-events-consumer},1651159811,0
{consumergroup=trace-token-events-consumer},1651159816,0
{consumergroup=trace-token-events-consumer},1651159821,0
{consumergroup=trace-token-events-consumer},1651159826,0
{consumergroup=trace-token-events-consumer},1651159831,0
{consumergroup=trace-token-events-consumer},1651159836,0
{consumergroup=trace-token-events-consumer},1651159841,0
{consumergroup=trace-token-events-consumer},1651159846,0
{consumergroup=trace-token-events-consumer},1651159851,0
{consumergroup=trace-token-events-consumer},1651159856,0
{consumergroup=trace-token-events-consumer},1651159861,0
{consumergroup=trace-token-events-consumer},1651159866,0
{consumergroup=trace-token-events-consumer},1651159871,0
{consumergroup=trace-token-events-consumer},1651159876,0
{consumergroup=trace-token-events-consumer},1651159881,0
{consumergroup=trace-token-events-consumer},1651159886,0
{consumergroup=trace-token-events-consumer},1651159891,0
{consumergroup=trace-token-events-consumer},1651159896,0
{consumergroup=trace-token-events-consumer},1651159901,0
{consumergroup=trace-token-events-consumer},1651159906,0
{consumergroup=trace-token-events-consumer},1651159911,0
{consumergroup=trace-token-events-consumer},1651159916,0
{consumergroup=trace-token-events-consumer},1651159921,0
{consumergroup=trace-token-events-consumer},1651159926,0
{consumergroup=trace-token-events-consumer},1651159931,0
{consumergroup=trace-token-events-consumer},1651159936,0
{consumergroup=trace-token-events-consumer},1651159941,0
{consumergroup=trace-token-events-consumer},1651159946,0
{consumergroup=trace-token-events-consumer},1651159951,0
{consumergroup=trace-token-events-consumer},1651159956,0
{consumergroup=trace-token-events-consumer},1651159961,0
{consumergroup=trace-token-events-consumer},1651159966,0
{consumergroup=trace-token-events-consumer},1651159971,0
{consumergroup=trace-token-events-consumer},1651159976,0
{consumergroup=trace-token-events-consumer},1651159981,0
{consumergroup=trace-token-events-consumer},1651159986,0
{consumergroup=trace-token-events-consumer},1651159991,0
{consumergroup=trace-token-events-consumer},1651159996,0
{consumergroup=trace-token-events-consumer},1651160001,0
{consumergroup=trace-token-events-consumer},1651160006,0
{consumergroup=trace-token-events-consumer},1651160011,0
{consumergroup=trace-token-events-consumer},1651160016,0
{consumergroup=trace-token-events-consumer},1651160021,0
{consumergroup=trace-token-events-consumer},1651160026,0
{consumergroup=trace-token-events-consumer},1651160031,0
{consumergroup=trace-token-events-consumer},1651160036,0
{consumergroup=trace-token-events-consumer},1651160041,0
{consumergroup=trace-token-events-consumer},1651160046,0
{consumergroup=trace-token-events-consumer},1651160051,0
{consumergroup=trace-token-events-consumer},1651160056,0
{consumergroup=trace-token-events-consumer},1651160061,0
{consumergroup=trace-token-events-consumer},1651160066,0
{consumergroup=trace-token-events-consumer},1651160071,0
{consumergroup=trace-token-events-consumer},1651160076,0
{consumergroup=trace-token-events-consumer},1651160081,0
{consumergroup=trace-token-events-consumer},1651160086,0
{consumergroup=trace-token-events-consumer},1651160091,0
{consumergroup=trace-token-events-consumer},1651160096,0
{consumergroup=trace-token-events-consumer},1651160101,0
{consumergroup=trace-token-events-consumer},1651160106,0
{consumergroup=trace-token-events-consumer},1651160111,0
{consumergroup=trace-token-events-consumer},1651160116,0
{consumergroup=trace-token-events-consumer},1651160121,0
{consumergroup=trace-token-events-consumer},1651160126,0
{consumergroup=trace-token-events-consumer},1651160131,0
{consumergroup=trace-token-events-consumer},1651160136,0
{consumergroup=trace-token-events-consumer},1651160141,0
{consumergroup=trace-token-events-consumer},1651160146,0
{consumergroup=trace-token-events-consumer},1651160151,0
{consumergroup=trace-token-events-consumer},1651160156,0
{consumergroup=trace-token-events-consumer},1651160161,0
{consumergroup=trace-token-events-consumer},1651160166,0
{consumergroup=trace-token-events-consumer},1651160171,0
{consumergroup=trace-token-events-consumer},1651160176,0
