labels,timestamp,value
{job=theodolite-stu200776/trace-isolated-podmonitor},1651204063,0
{job=theodolite-stu200776/trace-isolated-podmonitor},1651204068,0
{job=theodolite-stu200776/trace-isolated-podmonitor},1651204073,0
{job=theodolite-stu200776/trace-isolated-podmonitor},1651204078,0
{job=theodolite-stu200776/trace-isolated-podmonitor},1651204083,0
{job=theodolite-stu200776/trace-isolated-podmonitor},1651204088,0
{job=theodolite-stu200776/trace-isolated-podmonitor},1651204093,0
{job=theodolite-stu200776/trace-isolated-podmonitor},1651204098,0
{job=theodolite-stu200776/trace-isolated-podmonitor},1651204103,0
{job=theodolite-stu200776/trace-isolated-podmonitor},1651204108,0
{job=theodolite-stu200776/trace-isolated-podmonitor},1651204113,0
{job=theodolite-stu200776/trace-isolated-podmonitor},1651204118,0
{job=theodolite-stu200776/trace-isolated-podmonitor},1651204123,0
{job=theodolite-stu200776/trace-isolated-podmonitor},1651204128,0
{job=theodolite-stu200776/trace-isolated-podmonitor},1651204133,0
{job=theodolite-stu200776/trace-isolated-podmonitor},1651204138,0
{job=theodolite-stu200776/trace-isolated-podmonitor},1651204143,0
{job=theodolite-stu200776/trace-isolated-podmonitor},1651204148,0
{job=theodolite-stu200776/trace-isolated-podmonitor},1651204153,0
{job=theodolite-stu200776/trace-isolated-podmonitor},1651204158,0
{job=theodolite-stu200776/trace-isolated-podmonitor},1651204163,0
{job=theodolite-stu200776/trace-isolated-podmonitor},1651204168,0
{job=theodolite-stu200776/trace-isolated-podmonitor},1651204173,0
{job=theodolite-stu200776/trace-isolated-podmonitor},1651204178,0
{job=theodolite-stu200776/trace-isolated-podmonitor},1651204183,0
{job=theodolite-stu200776/trace-isolated-podmonitor},1651204188,0
{job=theodolite-stu200776/trace-isolated-podmonitor},1651204193,0
{job=theodolite-stu200776/trace-isolated-podmonitor},1651204198,0
{job=theodolite-stu200776/trace-isolated-podmonitor},1651204203,0
{job=theodolite-stu200776/trace-isolated-podmonitor},1651204208,0
{job=theodolite-stu200776/trace-isolated-podmonitor},1651204213,0
{job=theodolite-stu200776/trace-isolated-podmonitor},1651204218,0
{job=theodolite-stu200776/trace-isolated-podmonitor},1651204223,0
{job=theodolite-stu200776/trace-isolated-podmonitor},1651204228,0
{job=theodolite-stu200776/trace-isolated-podmonitor},1651204233,0
{job=theodolite-stu200776/trace-isolated-podmonitor},1651204238,0
{job=theodolite-stu200776/trace-isolated-podmonitor},1651204243,0
{job=theodolite-stu200776/trace-isolated-podmonitor},1651204248,0
{job=theodolite-stu200776/trace-isolated-podmonitor},1651204253,0
{job=theodolite-stu200776/trace-isolated-podmonitor},1651204258,0
{job=theodolite-stu200776/trace-isolated-podmonitor},1651204263,0
{job=theodolite-stu200776/trace-isolated-podmonitor},1651204268,0
{job=theodolite-stu200776/trace-isolated-podmonitor},1651204273,0
{job=theodolite-stu200776/trace-isolated-podmonitor},1651204278,0
{job=theodolite-stu200776/trace-isolated-podmonitor},1651204283,0
{job=theodolite-stu200776/trace-isolated-podmonitor},1651204288,0
{job=theodolite-stu200776/trace-isolated-podmonitor},1651204293,0
{job=theodolite-stu200776/trace-isolated-podmonitor},1651204298,0
{job=theodolite-stu200776/trace-isolated-podmonitor},1651204303,0
{job=theodolite-stu200776/trace-isolated-podmonitor},1651204308,0
{job=theodolite-stu200776/trace-isolated-podmonitor},1651204313,0
{job=theodolite-stu200776/trace-isolated-podmonitor},1651204318,0
{job=theodolite-stu200776/trace-isolated-podmonitor},1651204323,0
{job=theodolite-stu200776/trace-isolated-podmonitor},1651204328,0
{job=theodolite-stu200776/trace-isolated-podmonitor},1651204333,0
{job=theodolite-stu200776/trace-isolated-podmonitor},1651204338,0
{job=theodolite-stu200776/trace-isolated-podmonitor},1651204343,0
{job=theodolite-stu200776/trace-isolated-podmonitor},1651204348,0
{job=theodolite-stu200776/trace-isolated-podmonitor},1651204353,0
{job=theodolite-stu200776/trace-isolated-podmonitor},1651204358,0
{job=theodolite-stu200776/trace-isolated-podmonitor},1651204363,0
{job=theodolite-stu200776/trace-isolated-podmonitor},1651204368,0
{job=theodolite-stu200776/trace-isolated-podmonitor},1651204373,0
{job=theodolite-stu200776/trace-isolated-podmonitor},1651204378,0
{job=theodolite-stu200776/trace-isolated-podmonitor},1651204383,0
{job=theodolite-stu200776/trace-isolated-podmonitor},1651204388,0
{job=theodolite-stu200776/trace-isolated-podmonitor},1651204393,0
{job=theodolite-stu200776/trace-isolated-podmonitor},1651204398,0
{job=theodolite-stu200776/trace-isolated-podmonitor},1651204403,0
{job=theodolite-stu200776/trace-isolated-podmonitor},1651204408,0
{job=theodolite-stu200776/trace-isolated-podmonitor},1651204413,0
{job=theodolite-stu200776/trace-isolated-podmonitor},1651204418,0
{job=theodolite-stu200776/trace-isolated-podmonitor},1651204423,0
{job=theodolite-stu200776/trace-isolated-podmonitor},1651204428,0
{job=theodolite-stu200776/trace-isolated-podmonitor},1651204433,0
{job=theodolite-stu200776/trace-isolated-podmonitor},1651204438,0
{job=theodolite-stu200776/trace-isolated-podmonitor},1651204443,0
{job=theodolite-stu200776/trace-isolated-podmonitor},1651204448,0
{job=theodolite-stu200776/trace-isolated-podmonitor},1651204453,0
{job=theodolite-stu200776/trace-isolated-podmonitor},1651204458,0
{job=theodolite-stu200776/trace-isolated-podmonitor},1651204463,0
{job=theodolite-stu200776/trace-isolated-podmonitor},1651204468,0
{job=theodolite-stu200776/trace-isolated-podmonitor},1651204473,0
{job=theodolite-stu200776/trace-isolated-podmonitor},1651204478,0
{job=theodolite-stu200776/trace-isolated-podmonitor},1651204483,0
{job=theodolite-stu200776/trace-isolated-podmonitor},1651204488,0
