labels,timestamp,value
{consumergroup=__strimzi-topic-operator-kstreams},1651119413,4
{consumergroup=__strimzi-topic-operator-kstreams},1651119418,4
{consumergroup=__strimzi-topic-operator-kstreams},1651119423,4
{consumergroup=__strimzi-topic-operator-kstreams},1651119428,8
{consumergroup=__strimzi-topic-operator-kstreams},1651119433,8
{consumergroup=__strimzi-topic-operator-kstreams},1651119438,8
{consumergroup=__strimzi-topic-operator-kstreams},1651119443,0
{consumergroup=__strimzi-topic-operator-kstreams},1651119448,0
{consumergroup=__strimzi-topic-operator-kstreams},1651119453,0
{consumergroup=__strimzi-topic-operator-kstreams},1651119458,0
{consumergroup=__strimzi-topic-operator-kstreams},1651119463,0
{consumergroup=__strimzi-topic-operator-kstreams},1651119468,0
{consumergroup=__strimzi-topic-operator-kstreams},1651119473,0
{consumergroup=__strimzi-topic-operator-kstreams},1651119478,0
{consumergroup=__strimzi-topic-operator-kstreams},1651119483,0
{consumergroup=__strimzi-topic-operator-kstreams},1651119488,0
{consumergroup=__strimzi-topic-operator-kstreams},1651119493,0
{consumergroup=__strimzi-topic-operator-kstreams},1651119498,0
{consumergroup=__strimzi-topic-operator-kstreams},1651119503,0
{consumergroup=__strimzi-topic-operator-kstreams},1651119508,0
{consumergroup=__strimzi-topic-operator-kstreams},1651119513,0
{consumergroup=__strimzi-topic-operator-kstreams},1651119518,0
{consumergroup=__strimzi-topic-operator-kstreams},1651119523,0
{consumergroup=__strimzi-topic-operator-kstreams},1651119528,0
{consumergroup=__strimzi-topic-operator-kstreams},1651119533,0
{consumergroup=__strimzi-topic-operator-kstreams},1651119538,0
{consumergroup=__strimzi-topic-operator-kstreams},1651119543,0
{consumergroup=__strimzi-topic-operator-kstreams},1651119548,0
{consumergroup=__strimzi-topic-operator-kstreams},1651119553,0
{consumergroup=__strimzi-topic-operator-kstreams},1651119558,0
{consumergroup=__strimzi-topic-operator-kstreams},1651119563,0
{consumergroup=__strimzi-topic-operator-kstreams},1651119568,0
{consumergroup=__strimzi-topic-operator-kstreams},1651119573,0
{consumergroup=__strimzi-topic-operator-kstreams},1651119578,0
{consumergroup=__strimzi-topic-operator-kstreams},1651119583,0
{consumergroup=__strimzi-topic-operator-kstreams},1651119588,0
{consumergroup=__strimzi-topic-operator-kstreams},1651119593,0
{consumergroup=__strimzi-topic-operator-kstreams},1651119598,0
{consumergroup=__strimzi-topic-operator-kstreams},1651119603,0
{consumergroup=__strimzi-topic-operator-kstreams},1651119608,0
{consumergroup=__strimzi-topic-operator-kstreams},1651119613,0
{consumergroup=__strimzi-topic-operator-kstreams},1651119618,0
{consumergroup=__strimzi-topic-operator-kstreams},1651119623,0
{consumergroup=__strimzi-topic-operator-kstreams},1651119628,0
{consumergroup=__strimzi-topic-operator-kstreams},1651119633,0
{consumergroup=__strimzi-topic-operator-kstreams},1651119638,0
{consumergroup=__strimzi-topic-operator-kstreams},1651119643,0
{consumergroup=__strimzi-topic-operator-kstreams},1651119648,0
{consumergroup=__strimzi-topic-operator-kstreams},1651119653,0
{consumergroup=__strimzi-topic-operator-kstreams},1651119658,0
{consumergroup=__strimzi-topic-operator-kstreams},1651119663,0
{consumergroup=__strimzi-topic-operator-kstreams},1651119668,0
{consumergroup=__strimzi-topic-operator-kstreams},1651119673,0
{consumergroup=__strimzi-topic-operator-kstreams},1651119678,0
{consumergroup=__strimzi-topic-operator-kstreams},1651119683,0
{consumergroup=__strimzi-topic-operator-kstreams},1651119688,0
{consumergroup=__strimzi-topic-operator-kstreams},1651119693,0
{consumergroup=__strimzi-topic-operator-kstreams},1651119698,0
{consumergroup=__strimzi-topic-operator-kstreams},1651119703,0
{consumergroup=__strimzi-topic-operator-kstreams},1651119708,0
{consumergroup=__strimzi-topic-operator-kstreams},1651119713,0
{consumergroup=__strimzi-topic-operator-kstreams},1651119718,0
{consumergroup=__strimzi-topic-operator-kstreams},1651119723,0
{consumergroup=__strimzi-topic-operator-kstreams},1651119728,0
{consumergroup=landscape-service},1651119458,1048971
{consumergroup=landscape-service},1651119463,1048971
{consumergroup=landscape-service},1651119468,1048971
{consumergroup=landscape-service},1651119473,5373851
{consumergroup=landscape-service},1651119478,5373851
{consumergroup=landscape-service},1651119483,5373851
{consumergroup=landscape-service},1651119488,11893929
{consumergroup=landscape-service},1651119493,11893929
{consumergroup=landscape-service},1651119498,11893929
{consumergroup=landscape-service},1651119503,15915572
{consumergroup=landscape-service},1651119508,15915572
{consumergroup=landscape-service},1651119513,15915572
{consumergroup=landscape-service},1651119518,17189345
{consumergroup=landscape-service},1651119523,17189345
{consumergroup=landscape-service},1651119528,17189345
{consumergroup=landscape-service},1651119533,17938308
{consumergroup=landscape-service},1651119538,17938308
{consumergroup=landscape-service},1651119543,17938308
{consumergroup=landscape-service},1651119548,18327098
{consumergroup=landscape-service},1651119553,18327098
{consumergroup=landscape-service},1651119558,18327098
{consumergroup=landscape-service},1651119563,18622751
{consumergroup=landscape-service},1651119568,18622751
{consumergroup=landscape-service},1651119573,18622751
{consumergroup=landscape-service},1651119578,18629768
{consumergroup=landscape-service},1651119583,18629768
{consumergroup=landscape-service},1651119588,18629768
{consumergroup=landscape-service},1651119593,18872588
{consumergroup=landscape-service},1651119598,18872588
{consumergroup=landscape-service},1651119603,18872588
{consumergroup=landscape-service},1651119608,18792023
{consumergroup=landscape-service},1651119613,18792023
{consumergroup=landscape-service},1651119618,18792023
{consumergroup=landscape-service},1651119623,19153195
{consumergroup=landscape-service},1651119628,19153195
{consumergroup=landscape-service},1651119633,19153195
{consumergroup=landscape-service},1651119638,18705705
{consumergroup=landscape-service},1651119643,18705705
{consumergroup=landscape-service},1651119648,18705705
{consumergroup=landscape-service},1651119653,18626497
{consumergroup=landscape-service},1651119658,18626497
{consumergroup=landscape-service},1651119663,18626497
{consumergroup=landscape-service},1651119668,18601676
{consumergroup=landscape-service},1651119673,18601676
{consumergroup=landscape-service},1651119678,18601676
{consumergroup=landscape-service},1651119683,18327835
{consumergroup=landscape-service},1651119688,18327835
{consumergroup=landscape-service},1651119693,18327835
{consumergroup=landscape-service},1651119698,18530425
{consumergroup=landscape-service},1651119703,18530425
{consumergroup=landscape-service},1651119708,18530425
{consumergroup=landscape-service},1651119713,18368475
{consumergroup=landscape-service},1651119718,18368475
{consumergroup=landscape-service},1651119723,18368475
{consumergroup=landscape-service},1651119728,18288631
