labels,timestamp,value
{job=theodolite-stu200776/trace-isolated-podmonitor},1651202339,0
{job=theodolite-stu200776/trace-isolated-podmonitor},1651202344,0
{job=theodolite-stu200776/trace-isolated-podmonitor},1651202349,0
{job=theodolite-stu200776/trace-isolated-podmonitor},1651202354,0
{job=theodolite-stu200776/trace-isolated-podmonitor},1651202359,0
{job=theodolite-stu200776/trace-isolated-podmonitor},1651202364,0
{job=theodolite-stu200776/trace-isolated-podmonitor},1651202369,0
{job=theodolite-stu200776/trace-isolated-podmonitor},1651202374,0
{job=theodolite-stu200776/trace-isolated-podmonitor},1651202379,0
{job=theodolite-stu200776/trace-isolated-podmonitor},1651202384,0
{job=theodolite-stu200776/trace-isolated-podmonitor},1651202389,0
{job=theodolite-stu200776/trace-isolated-podmonitor},1651202394,0
{job=theodolite-stu200776/trace-isolated-podmonitor},1651202399,0
{job=theodolite-stu200776/trace-isolated-podmonitor},1651202404,0
{job=theodolite-stu200776/trace-isolated-podmonitor},1651202409,0
{job=theodolite-stu200776/trace-isolated-podmonitor},1651202414,0
{job=theodolite-stu200776/trace-isolated-podmonitor},1651202419,0
{job=theodolite-stu200776/trace-isolated-podmonitor},1651202424,0
{job=theodolite-stu200776/trace-isolated-podmonitor},1651202429,0
{job=theodolite-stu200776/trace-isolated-podmonitor},1651202434,0
{job=theodolite-stu200776/trace-isolated-podmonitor},1651202439,0
{job=theodolite-stu200776/trace-isolated-podmonitor},1651202444,0
{job=theodolite-stu200776/trace-isolated-podmonitor},1651202449,0
{job=theodolite-stu200776/trace-isolated-podmonitor},1651202454,0
{job=theodolite-stu200776/trace-isolated-podmonitor},1651202459,0
{job=theodolite-stu200776/trace-isolated-podmonitor},1651202464,0
{job=theodolite-stu200776/trace-isolated-podmonitor},1651202469,0
{job=theodolite-stu200776/trace-isolated-podmonitor},1651202474,0
{job=theodolite-stu200776/trace-isolated-podmonitor},1651202479,0
{job=theodolite-stu200776/trace-isolated-podmonitor},1651202484,0
{job=theodolite-stu200776/trace-isolated-podmonitor},1651202489,0
{job=theodolite-stu200776/trace-isolated-podmonitor},1651202494,0.8600000000000001
{job=theodolite-stu200776/trace-isolated-podmonitor},1651202499,202.54452262650932
{job=theodolite-stu200776/trace-isolated-podmonitor},1651202504,969.5986271562522
{job=theodolite-stu200776/trace-isolated-podmonitor},1651202509,1186.978623580622
{job=theodolite-stu200776/trace-isolated-podmonitor},1651202514,1206.1073828621052
{job=theodolite-stu200776/trace-isolated-podmonitor},1651202519,1168.1453895614497
{job=theodolite-stu200776/trace-isolated-podmonitor},1651202524,1031.4267512603994
{job=theodolite-stu200776/trace-isolated-podmonitor},1651202529,945.2517020825412
{job=theodolite-stu200776/trace-isolated-podmonitor},1651202534,982.009698084762
{job=theodolite-stu200776/trace-isolated-podmonitor},1651202539,894.6389695289544
{job=theodolite-stu200776/trace-isolated-podmonitor},1651202544,547.3543645291267
{job=theodolite-stu200776/trace-isolated-podmonitor},1651202549,417.93139363703375
{job=theodolite-stu200776/trace-isolated-podmonitor},1651202554,355.93512656234185
{job=theodolite-stu200776/trace-isolated-podmonitor},1651202559,312.32295317571413
{job=theodolite-stu200776/trace-isolated-podmonitor},1651202564,34.521603737837054
{job=theodolite-stu200776/trace-isolated-podmonitor},1651202569,0
{job=theodolite-stu200776/trace-isolated-podmonitor},1651202574,0
{job=theodolite-stu200776/trace-isolated-podmonitor},1651202579,0
{job=theodolite-stu200776/trace-isolated-podmonitor},1651202584,18.575060002000065
{job=theodolite-stu200776/trace-isolated-podmonitor},1651202589,146.3440135059448
{job=theodolite-stu200776/trace-isolated-podmonitor},1651202594,700.2292938205895
{job=theodolite-stu200776/trace-isolated-podmonitor},1651202599,852.0711742153918
{job=theodolite-stu200776/trace-isolated-podmonitor},1651202604,859.7165176451706
{job=theodolite-stu200776/trace-isolated-podmonitor},1651202609,860.0444688264429
{job=theodolite-stu200776/trace-isolated-podmonitor},1651202614,810.2179352115342
{job=theodolite-stu200776/trace-isolated-podmonitor},1651202619,805.685379698419
{job=theodolite-stu200776/trace-isolated-podmonitor},1651202624,654.4957895204593
{job=theodolite-stu200776/trace-isolated-podmonitor},1651202629,633.0507348080671
{job=theodolite-stu200776/trace-isolated-podmonitor},1651202634,554.1634399793863
{job=theodolite-stu200776/trace-isolated-podmonitor},1651202639,460.4532109889799
{job=theodolite-stu200776/trace-isolated-podmonitor},1651202644,356.33963160489884
{job=theodolite-stu200776/trace-isolated-podmonitor},1651202649,278.2481983008116
{job=theodolite-stu200776/trace-isolated-podmonitor},1651202654,82.15951256001766
{job=theodolite-stu200776/trace-isolated-podmonitor},1651202659,3.619374901745802
{job=theodolite-stu200776/trace-isolated-podmonitor},1651202664,3.619374901745802
{job=theodolite-stu200776/trace-isolated-podmonitor},1651202669,0
{job=theodolite-stu200776/trace-isolated-podmonitor},1651202674,0
{job=theodolite-stu200776/trace-isolated-podmonitor},1651202679,0
{job=theodolite-stu200776/trace-isolated-podmonitor},1651202684,0
{job=theodolite-stu200776/trace-isolated-podmonitor},1651202689,0
{job=theodolite-stu200776/trace-isolated-podmonitor},1651202694,0
{job=theodolite-stu200776/trace-isolated-podmonitor},1651202699,0
{job=theodolite-stu200776/trace-isolated-podmonitor},1651202704,0
{job=theodolite-stu200776/trace-isolated-podmonitor},1651202709,17.60070402816113
{job=theodolite-stu200776/trace-isolated-podmonitor},1651202714,832.4062901830245
{job=theodolite-stu200776/trace-isolated-podmonitor},1651202719,1279.389114871834
{job=theodolite-stu200776/trace-isolated-podmonitor},1651202724,1348.9077529339193
{job=theodolite-stu200776/trace-isolated-podmonitor},1651202729,1288.4297736534252
{job=theodolite-stu200776/trace-isolated-podmonitor},1651202734,1315.4208093067657
{job=theodolite-stu200776/trace-isolated-podmonitor},1651202739,1358.2431590605322
{job=theodolite-stu200776/trace-isolated-podmonitor},1651202744,1454.4054668753722
{job=theodolite-stu200776/trace-isolated-podmonitor},1651202749,1528.7881101974656
{job=theodolite-stu200776/trace-isolated-podmonitor},1651202754,1152.125570506635
{job=theodolite-stu200776/trace-isolated-podmonitor},1651202759,1045.3282379826271
{job=theodolite-stu200776/trace-isolated-podmonitor},1651202764,814.106128300144
{job=theodolite-stu200776/trace-isolated-podmonitor},1651202769,581.6604630390217
