labels,timestamp,value
{consumergroup=__strimzi-topic-operator-kstreams},1651112970,4
{consumergroup=__strimzi-topic-operator-kstreams},1651112975,4
{consumergroup=__strimzi-topic-operator-kstreams},1651112980,4
{consumergroup=__strimzi-topic-operator-kstreams},1651112985,4
{consumergroup=__strimzi-topic-operator-kstreams},1651112990,4
{consumergroup=__strimzi-topic-operator-kstreams},1651112995,4
{consumergroup=__strimzi-topic-operator-kstreams},1651113000,0
{consumergroup=__strimzi-topic-operator-kstreams},1651113005,0
{consumergroup=__strimzi-topic-operator-kstreams},1651113010,0
{consumergroup=__strimzi-topic-operator-kstreams},1651113015,0
{consumergroup=__strimzi-topic-operator-kstreams},1651113020,0
{consumergroup=__strimzi-topic-operator-kstreams},1651113025,0
{consumergroup=__strimzi-topic-operator-kstreams},1651113030,0
{consumergroup=__strimzi-topic-operator-kstreams},1651113035,0
{consumergroup=__strimzi-topic-operator-kstreams},1651113040,0
{consumergroup=__strimzi-topic-operator-kstreams},1651113045,0
{consumergroup=__strimzi-topic-operator-kstreams},1651113050,0
{consumergroup=__strimzi-topic-operator-kstreams},1651113055,0
{consumergroup=__strimzi-topic-operator-kstreams},1651113060,0
{consumergroup=__strimzi-topic-operator-kstreams},1651113065,0
{consumergroup=__strimzi-topic-operator-kstreams},1651113070,0
{consumergroup=__strimzi-topic-operator-kstreams},1651113075,0
{consumergroup=__strimzi-topic-operator-kstreams},1651113080,0
{consumergroup=__strimzi-topic-operator-kstreams},1651113085,0
{consumergroup=__strimzi-topic-operator-kstreams},1651113090,0
{consumergroup=__strimzi-topic-operator-kstreams},1651113095,0
{consumergroup=__strimzi-topic-operator-kstreams},1651113100,0
{consumergroup=__strimzi-topic-operator-kstreams},1651113105,0
{consumergroup=__strimzi-topic-operator-kstreams},1651113110,0
{consumergroup=__strimzi-topic-operator-kstreams},1651113115,0
{consumergroup=__strimzi-topic-operator-kstreams},1651113120,0
{consumergroup=__strimzi-topic-operator-kstreams},1651113125,0
{consumergroup=__strimzi-topic-operator-kstreams},1651113130,0
{consumergroup=__strimzi-topic-operator-kstreams},1651113135,0
{consumergroup=__strimzi-topic-operator-kstreams},1651113140,0
{consumergroup=__strimzi-topic-operator-kstreams},1651113145,0
{consumergroup=__strimzi-topic-operator-kstreams},1651113150,0
{consumergroup=__strimzi-topic-operator-kstreams},1651113155,0
{consumergroup=__strimzi-topic-operator-kstreams},1651113160,0
{consumergroup=__strimzi-topic-operator-kstreams},1651113165,0
{consumergroup=__strimzi-topic-operator-kstreams},1651113170,0
{consumergroup=__strimzi-topic-operator-kstreams},1651113175,0
{consumergroup=__strimzi-topic-operator-kstreams},1651113180,0
{consumergroup=__strimzi-topic-operator-kstreams},1651113185,0
{consumergroup=__strimzi-topic-operator-kstreams},1651113190,0
{consumergroup=__strimzi-topic-operator-kstreams},1651113195,0
{consumergroup=__strimzi-topic-operator-kstreams},1651113200,0
{consumergroup=__strimzi-topic-operator-kstreams},1651113205,0
{consumergroup=__strimzi-topic-operator-kstreams},1651113210,0
{consumergroup=__strimzi-topic-operator-kstreams},1651113215,0
{consumergroup=__strimzi-topic-operator-kstreams},1651113220,0
{consumergroup=__strimzi-topic-operator-kstreams},1651113225,0
{consumergroup=__strimzi-topic-operator-kstreams},1651113230,0
{consumergroup=__strimzi-topic-operator-kstreams},1651113235,0
{consumergroup=__strimzi-topic-operator-kstreams},1651113240,0
{consumergroup=__strimzi-topic-operator-kstreams},1651113245,0
{consumergroup=__strimzi-topic-operator-kstreams},1651113250,0
{consumergroup=__strimzi-topic-operator-kstreams},1651113255,0
{consumergroup=__strimzi-topic-operator-kstreams},1651113260,0
{consumergroup=__strimzi-topic-operator-kstreams},1651113265,0
{consumergroup=__strimzi-topic-operator-kstreams},1651113270,0
{consumergroup=__strimzi-topic-operator-kstreams},1651113275,0
{consumergroup=__strimzi-topic-operator-kstreams},1651113280,0
{consumergroup=landscape-service},1651113000,15641
{consumergroup=landscape-service},1651113005,15641
{consumergroup=landscape-service},1651113010,15641
{consumergroup=landscape-service},1651113015,3206253
{consumergroup=landscape-service},1651113020,3206253
{consumergroup=landscape-service},1651113025,3206253
{consumergroup=landscape-service},1651113030,4983448
{consumergroup=landscape-service},1651113035,4983448
{consumergroup=landscape-service},1651113040,4983448
{consumergroup=landscape-service},1651113045,6157193
{consumergroup=landscape-service},1651113050,6157193
{consumergroup=landscape-service},1651113055,6157193
{consumergroup=landscape-service},1651113060,6787196
{consumergroup=landscape-service},1651113065,6787196
{consumergroup=landscape-service},1651113070,6787196
{consumergroup=landscape-service},1651113075,7501834
{consumergroup=landscape-service},1651113080,7501834
{consumergroup=landscape-service},1651113085,7501834
{consumergroup=landscape-service},1651113090,7956870
{consumergroup=landscape-service},1651113095,7956870
{consumergroup=landscape-service},1651113100,7956870
{consumergroup=landscape-service},1651113105,8433440
{consumergroup=landscape-service},1651113110,8433440
{consumergroup=landscape-service},1651113115,8433440
{consumergroup=landscape-service},1651113120,8926291
{consumergroup=landscape-service},1651113125,8926291
{consumergroup=landscape-service},1651113130,8926291
{consumergroup=landscape-service},1651113135,9149457
{consumergroup=landscape-service},1651113140,9149457
{consumergroup=landscape-service},1651113145,9149457
{consumergroup=landscape-service},1651113150,9763881
{consumergroup=landscape-service},1651113155,9763881
{consumergroup=landscape-service},1651113160,9763881
{consumergroup=landscape-service},1651113165,9744160
{consumergroup=landscape-service},1651113170,9744160
{consumergroup=landscape-service},1651113175,9744160
{consumergroup=landscape-service},1651113180,10307206
{consumergroup=landscape-service},1651113185,10307206
{consumergroup=landscape-service},1651113190,10307206
{consumergroup=landscape-service},1651113195,10431209
{consumergroup=landscape-service},1651113200,10431209
{consumergroup=landscape-service},1651113205,10431209
{consumergroup=landscape-service},1651113210,10710630
{consumergroup=landscape-service},1651113215,10710630
{consumergroup=landscape-service},1651113220,10710630
{consumergroup=landscape-service},1651113225,10690025
{consumergroup=landscape-service},1651113230,10690025
{consumergroup=landscape-service},1651113235,10690025
{consumergroup=landscape-service},1651113240,10947496
{consumergroup=landscape-service},1651113245,10947496
{consumergroup=landscape-service},1651113250,10947496
{consumergroup=landscape-service},1651113255,10897391
{consumergroup=landscape-service},1651113260,10897391
{consumergroup=landscape-service},1651113265,10897391
{consumergroup=landscape-service},1651113270,11099029
{consumergroup=landscape-service},1651113275,11099029
{consumergroup=landscape-service},1651113280,11099029
