labels,timestamp,value
{consumergroup=__strimzi-topic-operator-kstreams},1651155736,11
{consumergroup=__strimzi-topic-operator-kstreams},1651155741,11
{consumergroup=__strimzi-topic-operator-kstreams},1651155746,11
{consumergroup=__strimzi-topic-operator-kstreams},1651155751,2
{consumergroup=__strimzi-topic-operator-kstreams},1651155756,2
{consumergroup=__strimzi-topic-operator-kstreams},1651155761,2
{consumergroup=__strimzi-topic-operator-kstreams},1651155766,2
{consumergroup=__strimzi-topic-operator-kstreams},1651155771,2
{consumergroup=__strimzi-topic-operator-kstreams},1651155776,2
{consumergroup=__strimzi-topic-operator-kstreams},1651155781,0
{consumergroup=__strimzi-topic-operator-kstreams},1651155786,0
{consumergroup=__strimzi-topic-operator-kstreams},1651155791,0
{consumergroup=__strimzi-topic-operator-kstreams},1651155796,0
{consumergroup=__strimzi-topic-operator-kstreams},1651155801,0
{consumergroup=__strimzi-topic-operator-kstreams},1651155806,0
{consumergroup=__strimzi-topic-operator-kstreams},1651155811,0
{consumergroup=__strimzi-topic-operator-kstreams},1651155816,0
{consumergroup=__strimzi-topic-operator-kstreams},1651155821,0
{consumergroup=__strimzi-topic-operator-kstreams},1651155826,0
{consumergroup=__strimzi-topic-operator-kstreams},1651155831,0
{consumergroup=__strimzi-topic-operator-kstreams},1651155836,0
{consumergroup=__strimzi-topic-operator-kstreams},1651155841,1
{consumergroup=__strimzi-topic-operator-kstreams},1651155846,1
{consumergroup=__strimzi-topic-operator-kstreams},1651155851,1
{consumergroup=__strimzi-topic-operator-kstreams},1651155856,1
{consumergroup=__strimzi-topic-operator-kstreams},1651155861,1
{consumergroup=__strimzi-topic-operator-kstreams},1651155866,1
{consumergroup=__strimzi-topic-operator-kstreams},1651155871,0
{consumergroup=__strimzi-topic-operator-kstreams},1651155876,0
{consumergroup=__strimzi-topic-operator-kstreams},1651155881,0
{consumergroup=__strimzi-topic-operator-kstreams},1651155886,0
{consumergroup=__strimzi-topic-operator-kstreams},1651155891,0
{consumergroup=__strimzi-topic-operator-kstreams},1651155896,0
{consumergroup=__strimzi-topic-operator-kstreams},1651155901,0
{consumergroup=__strimzi-topic-operator-kstreams},1651155906,0
{consumergroup=__strimzi-topic-operator-kstreams},1651155911,0
{consumergroup=__strimzi-topic-operator-kstreams},1651155916,0
{consumergroup=__strimzi-topic-operator-kstreams},1651155921,0
{consumergroup=__strimzi-topic-operator-kstreams},1651155926,0
{consumergroup=__strimzi-topic-operator-kstreams},1651155931,0
{consumergroup=__strimzi-topic-operator-kstreams},1651155936,0
{consumergroup=__strimzi-topic-operator-kstreams},1651155941,0
{consumergroup=__strimzi-topic-operator-kstreams},1651155946,0
{consumergroup=__strimzi-topic-operator-kstreams},1651155951,0
{consumergroup=__strimzi-topic-operator-kstreams},1651155956,0
{consumergroup=__strimzi-topic-operator-kstreams},1651155961,0
{consumergroup=__strimzi-topic-operator-kstreams},1651155966,0
{consumergroup=__strimzi-topic-operator-kstreams},1651155971,0
{consumergroup=__strimzi-topic-operator-kstreams},1651155976,0
{consumergroup=__strimzi-topic-operator-kstreams},1651155981,0
{consumergroup=__strimzi-topic-operator-kstreams},1651155986,0
{consumergroup=__strimzi-topic-operator-kstreams},1651155991,0
{consumergroup=__strimzi-topic-operator-kstreams},1651155996,0
{consumergroup=__strimzi-topic-operator-kstreams},1651156001,0
{consumergroup=__strimzi-topic-operator-kstreams},1651156006,0
{consumergroup=__strimzi-topic-operator-kstreams},1651156011,0
{consumergroup=__strimzi-topic-operator-kstreams},1651156016,0
{consumergroup=__strimzi-topic-operator-kstreams},1651156021,0
{consumergroup=__strimzi-topic-operator-kstreams},1651156026,0
{consumergroup=__strimzi-topic-operator-kstreams},1651156031,0
{consumergroup=__strimzi-topic-operator-kstreams},1651156036,0
{consumergroup=__strimzi-topic-operator-kstreams},1651156041,0
{consumergroup=__strimzi-topic-operator-kstreams},1651156046,0
{consumergroup=__strimzi-topic-operator-kstreams},1651156051,0
{consumergroup=__strimzi-topic-operator-kstreams},1651156056,0
{consumergroup=__strimzi-topic-operator-kstreams},1651156061,0
{consumergroup=__strimzi-topic-operator-kstreams},1651156066,0
{consumergroup=__strimzi-topic-operator-kstreams},1651156071,0
{consumergroup=__strimzi-topic-operator-kstreams},1651156076,0
{consumergroup=__strimzi-topic-operator-kstreams},1651156081,0
{consumergroup=__strimzi-topic-operator-kstreams},1651156086,0
{consumergroup=__strimzi-topic-operator-kstreams},1651156091,0
{consumergroup=__strimzi-topic-operator-kstreams},1651156096,0
{consumergroup=__strimzi-topic-operator-kstreams},1651156101,0
{consumergroup=__strimzi-topic-operator-kstreams},1651156106,0
{consumergroup=__strimzi-topic-operator-kstreams},1651156111,0
{consumergroup=__strimzi-topic-operator-kstreams},1651156116,0
{consumergroup=__strimzi-topic-operator-kstreams},1651156121,0
{consumergroup=__strimzi-topic-operator-kstreams},1651156126,0
{consumergroup=__strimzi-topic-operator-kstreams},1651156131,0
{consumergroup=__strimzi-topic-operator-kstreams},1651156136,0
{consumergroup=__strimzi-topic-operator-kstreams},1651156141,0
{consumergroup=__strimzi-topic-operator-kstreams},1651156146,0
{consumergroup=__strimzi-topic-operator-kstreams},1651156151,0
{consumergroup=__strimzi-topic-operator-kstreams},1651156156,0
{consumergroup=__strimzi-topic-operator-kstreams},1651156161,0
{consumergroup=__strimzi-topic-operator-kstreams},1651156166,0
{consumergroup=__strimzi-topic-operator-kstreams},1651156171,0
{consumergroup=__strimzi-topic-operator-kstreams},1651156176,0
{consumergroup=__strimzi-topic-operator-kstreams},1651156181,0
{consumergroup=__strimzi-topic-operator-kstreams},1651156186,0
{consumergroup=__strimzi-topic-operator-kstreams},1651156191,0
{consumergroup=__strimzi-topic-operator-kstreams},1651156196,0
{consumergroup=__strimzi-topic-operator-kstreams},1651156201,0
{consumergroup=__strimzi-topic-operator-kstreams},1651156206,0
{consumergroup=__strimzi-topic-operator-kstreams},1651156211,0
{consumergroup=__strimzi-topic-operator-kstreams},1651156216,0
{consumergroup=__strimzi-topic-operator-kstreams},1651156221,0
{consumergroup=__strimzi-topic-operator-kstreams},1651156226,0
{consumergroup=trace-service},1651155766,8953
{consumergroup=trace-service},1651155771,8953
{consumergroup=trace-service},1651155776,8953
{consumergroup=trace-service},1651155781,18549
{consumergroup=trace-service},1651155786,18549
{consumergroup=trace-service},1651155791,18549
{consumergroup=trace-service},1651155796,32174
{consumergroup=trace-service},1651155801,32174
{consumergroup=trace-service},1651155806,32174
{consumergroup=trace-service},1651155811,8580
{consumergroup=trace-service},1651155816,8580
{consumergroup=trace-service},1651155821,8580
{consumergroup=trace-service},1651155826,29785
{consumergroup=trace-service},1651155831,29785
{consumergroup=trace-service},1651155836,29785
{consumergroup=trace-service},1651155841,16277
{consumergroup=trace-service},1651155846,16277
{consumergroup=trace-service},1651155851,16277
{consumergroup=trace-service},1651155856,30440
{consumergroup=trace-service},1651155861,30440
{consumergroup=trace-service},1651155866,30440
{consumergroup=trace-service},1651155871,12848
{consumergroup=trace-service},1651155876,12848
{consumergroup=trace-service},1651155881,12848
{consumergroup=trace-service},1651155886,32126
{consumergroup=trace-service},1651155891,32126
{consumergroup=trace-service},1651155896,32126
{consumergroup=trace-service},1651155901,14968
{consumergroup=trace-service},1651155906,14968
{consumergroup=trace-service},1651155911,14968
{consumergroup=trace-service},1651155916,31639
{consumergroup=trace-service},1651155921,31639
{consumergroup=trace-service},1651155926,31639
{consumergroup=trace-service},1651155931,12074
{consumergroup=trace-service},1651155936,12074
{consumergroup=trace-service},1651155941,12074
{consumergroup=trace-service},1651155946,32963
{consumergroup=trace-service},1651155951,32963
{consumergroup=trace-service},1651155956,32963
{consumergroup=trace-service},1651155961,10865
{consumergroup=trace-service},1651155966,10865
{consumergroup=trace-service},1651155971,10865
{consumergroup=trace-service},1651155976,32109
{consumergroup=trace-service},1651155981,32109
{consumergroup=trace-service},1651155986,32109
{consumergroup=trace-service},1651155991,9674
{consumergroup=trace-service},1651155996,9674
{consumergroup=trace-service},1651156001,9674
{consumergroup=trace-service},1651156006,35083
{consumergroup=trace-service},1651156011,35083
{consumergroup=trace-service},1651156016,35083
{consumergroup=trace-service},1651156021,57009
{consumergroup=trace-service},1651156026,57009
{consumergroup=trace-service},1651156031,57009
{consumergroup=trace-service},1651156036,52915
{consumergroup=trace-service},1651156041,52915
{consumergroup=trace-service},1651156046,52915
{consumergroup=trace-service},1651156051,8408
{consumergroup=trace-service},1651156056,8408
{consumergroup=trace-service},1651156061,8408
{consumergroup=trace-service},1651156066,31360
{consumergroup=trace-service},1651156071,31360
{consumergroup=trace-service},1651156076,31360
{consumergroup=trace-service},1651156081,8637
{consumergroup=trace-service},1651156086,8637
{consumergroup=trace-service},1651156091,8637
{consumergroup=trace-service},1651156096,31410
{consumergroup=trace-service},1651156101,31410
{consumergroup=trace-service},1651156106,31410
{consumergroup=trace-service},1651156111,10846
{consumergroup=trace-service},1651156116,10846
{consumergroup=trace-service},1651156121,10846
{consumergroup=trace-service},1651156126,32004
{consumergroup=trace-service},1651156131,32004
{consumergroup=trace-service},1651156136,32004
{consumergroup=trace-service},1651156141,11817
{consumergroup=trace-service},1651156146,11817
{consumergroup=trace-service},1651156151,11817
{consumergroup=trace-service},1651156156,31403
{consumergroup=trace-service},1651156161,31403
{consumergroup=trace-service},1651156166,31403
{consumergroup=trace-service},1651156171,16157
{consumergroup=trace-service},1651156176,16157
{consumergroup=trace-service},1651156181,16157
{consumergroup=trace-service},1651156186,36892
{consumergroup=trace-service},1651156191,36892
{consumergroup=trace-service},1651156196,36892
{consumergroup=trace-service},1651156201,77949
{consumergroup=trace-service},1651156206,77949
{consumergroup=trace-service},1651156211,77949
{consumergroup=trace-service},1651156216,67355
{consumergroup=trace-service},1651156221,67355
{consumergroup=trace-service},1651156226,67355
{consumergroup=trace-token-events-consumer},1651155766,0
{consumergroup=trace-token-events-consumer},1651155771,0
{consumergroup=trace-token-events-consumer},1651155776,0
{consumergroup=trace-token-events-consumer},1651155781,0
{consumergroup=trace-token-events-consumer},1651155786,0
{consumergroup=trace-token-events-consumer},1651155791,0
{consumergroup=trace-token-events-consumer},1651155796,0
{consumergroup=trace-token-events-consumer},1651155801,0
{consumergroup=trace-token-events-consumer},1651155806,0
{consumergroup=trace-token-events-consumer},1651155811,0
{consumergroup=trace-token-events-consumer},1651155816,0
{consumergroup=trace-token-events-consumer},1651155821,0
{consumergroup=trace-token-events-consumer},1651155826,0
{consumergroup=trace-token-events-consumer},1651155831,0
{consumergroup=trace-token-events-consumer},1651155836,0
{consumergroup=trace-token-events-consumer},1651155841,0
{consumergroup=trace-token-events-consumer},1651155846,0
{consumergroup=trace-token-events-consumer},1651155851,0
{consumergroup=trace-token-events-consumer},1651155856,0
{consumergroup=trace-token-events-consumer},1651155861,0
{consumergroup=trace-token-events-consumer},1651155866,0
{consumergroup=trace-token-events-consumer},1651155871,0
{consumergroup=trace-token-events-consumer},1651155876,0
{consumergroup=trace-token-events-consumer},1651155881,0
{consumergroup=trace-token-events-consumer},1651155886,0
{consumergroup=trace-token-events-consumer},1651155891,0
{consumergroup=trace-token-events-consumer},1651155896,0
{consumergroup=trace-token-events-consumer},1651155901,0
{consumergroup=trace-token-events-consumer},1651155906,0
{consumergroup=trace-token-events-consumer},1651155911,0
{consumergroup=trace-token-events-consumer},1651155916,0
{consumergroup=trace-token-events-consumer},1651155921,0
{consumergroup=trace-token-events-consumer},1651155926,0
{consumergroup=trace-token-events-consumer},1651155931,0
{consumergroup=trace-token-events-consumer},1651155936,0
{consumergroup=trace-token-events-consumer},1651155941,0
{consumergroup=trace-token-events-consumer},1651155946,0
{consumergroup=trace-token-events-consumer},1651155951,0
{consumergroup=trace-token-events-consumer},1651155956,0
{consumergroup=trace-token-events-consumer},1651155961,0
{consumergroup=trace-token-events-consumer},1651155966,0
{consumergroup=trace-token-events-consumer},1651155971,0
{consumergroup=trace-token-events-consumer},1651155976,0
{consumergroup=trace-token-events-consumer},1651155981,0
{consumergroup=trace-token-events-consumer},1651155986,0
{consumergroup=trace-token-events-consumer},1651155991,0
{consumergroup=trace-token-events-consumer},1651155996,0
{consumergroup=trace-token-events-consumer},1651156001,0
{consumergroup=trace-token-events-consumer},1651156006,0
{consumergroup=trace-token-events-consumer},1651156011,0
{consumergroup=trace-token-events-consumer},1651156016,0
{consumergroup=trace-token-events-consumer},1651156021,0
{consumergroup=trace-token-events-consumer},1651156026,0
{consumergroup=trace-token-events-consumer},1651156031,0
{consumergroup=trace-token-events-consumer},1651156036,0
{consumergroup=trace-token-events-consumer},1651156041,0
{consumergroup=trace-token-events-consumer},1651156046,0
{consumergroup=trace-token-events-consumer},1651156051,0
{consumergroup=trace-token-events-consumer},1651156056,0
{consumergroup=trace-token-events-consumer},1651156061,0
{consumergroup=trace-token-events-consumer},1651156066,0
{consumergroup=trace-token-events-consumer},1651156071,0
{consumergroup=trace-token-events-consumer},1651156076,0
{consumergroup=trace-token-events-consumer},1651156081,0
{consumergroup=trace-token-events-consumer},1651156086,0
{consumergroup=trace-token-events-consumer},1651156091,0
{consumergroup=trace-token-events-consumer},1651156096,0
{consumergroup=trace-token-events-consumer},1651156101,0
{consumergroup=trace-token-events-consumer},1651156106,0
{consumergroup=trace-token-events-consumer},1651156111,0
{consumergroup=trace-token-events-consumer},1651156116,0
{consumergroup=trace-token-events-consumer},1651156121,0
{consumergroup=trace-token-events-consumer},1651156126,0
{consumergroup=trace-token-events-consumer},1651156131,0
{consumergroup=trace-token-events-consumer},1651156136,0
{consumergroup=trace-token-events-consumer},1651156141,0
{consumergroup=trace-token-events-consumer},1651156146,0
{consumergroup=trace-token-events-consumer},1651156151,0
{consumergroup=trace-token-events-consumer},1651156156,0
{consumergroup=trace-token-events-consumer},1651156161,0
{consumergroup=trace-token-events-consumer},1651156166,0
{consumergroup=trace-token-events-consumer},1651156171,0
{consumergroup=trace-token-events-consumer},1651156176,0
{consumergroup=trace-token-events-consumer},1651156181,0
{consumergroup=trace-token-events-consumer},1651156186,0
{consumergroup=trace-token-events-consumer},1651156191,0
{consumergroup=trace-token-events-consumer},1651156196,0
{consumergroup=trace-token-events-consumer},1651156201,0
{consumergroup=trace-token-events-consumer},1651156206,0
{consumergroup=trace-token-events-consumer},1651156211,0
{consumergroup=trace-token-events-consumer},1651156216,0
{consumergroup=trace-token-events-consumer},1651156221,0
{consumergroup=trace-token-events-consumer},1651156226,0
