labels,timestamp,value
{consumergroup=__strimzi-topic-operator-kstreams},1651142669,9
{consumergroup=__strimzi-topic-operator-kstreams},1651142674,9
{consumergroup=__strimzi-topic-operator-kstreams},1651142679,9
{consumergroup=__strimzi-topic-operator-kstreams},1651142684,0
{consumergroup=__strimzi-topic-operator-kstreams},1651142689,0
{consumergroup=__strimzi-topic-operator-kstreams},1651142694,0
{consumergroup=__strimzi-topic-operator-kstreams},1651142699,0
{consumergroup=__strimzi-topic-operator-kstreams},1651142704,0
{consumergroup=__strimzi-topic-operator-kstreams},1651142709,0
{consumergroup=__strimzi-topic-operator-kstreams},1651142714,0
{consumergroup=__strimzi-topic-operator-kstreams},1651142719,0
{consumergroup=__strimzi-topic-operator-kstreams},1651142724,0
{consumergroup=__strimzi-topic-operator-kstreams},1651142729,0
{consumergroup=__strimzi-topic-operator-kstreams},1651142734,0
{consumergroup=__strimzi-topic-operator-kstreams},1651142739,0
{consumergroup=__strimzi-topic-operator-kstreams},1651142744,0
{consumergroup=__strimzi-topic-operator-kstreams},1651142749,0
{consumergroup=__strimzi-topic-operator-kstreams},1651142754,0
{consumergroup=__strimzi-topic-operator-kstreams},1651142759,0
{consumergroup=__strimzi-topic-operator-kstreams},1651142764,0
{consumergroup=__strimzi-topic-operator-kstreams},1651142769,0
{consumergroup=__strimzi-topic-operator-kstreams},1651142774,0
{consumergroup=__strimzi-topic-operator-kstreams},1651142779,0
{consumergroup=__strimzi-topic-operator-kstreams},1651142784,0
{consumergroup=__strimzi-topic-operator-kstreams},1651142789,0
{consumergroup=__strimzi-topic-operator-kstreams},1651142794,0
{consumergroup=__strimzi-topic-operator-kstreams},1651142799,0
{consumergroup=__strimzi-topic-operator-kstreams},1651142804,0
{consumergroup=__strimzi-topic-operator-kstreams},1651142809,0
{consumergroup=__strimzi-topic-operator-kstreams},1651142814,0
{consumergroup=__strimzi-topic-operator-kstreams},1651142819,0
{consumergroup=__strimzi-topic-operator-kstreams},1651142824,0
{consumergroup=__strimzi-topic-operator-kstreams},1651142829,0
{consumergroup=__strimzi-topic-operator-kstreams},1651142834,0
{consumergroup=__strimzi-topic-operator-kstreams},1651142839,0
{consumergroup=__strimzi-topic-operator-kstreams},1651142844,0
{consumergroup=__strimzi-topic-operator-kstreams},1651142849,0
{consumergroup=__strimzi-topic-operator-kstreams},1651142854,0
{consumergroup=__strimzi-topic-operator-kstreams},1651142859,0
{consumergroup=__strimzi-topic-operator-kstreams},1651142864,0
{consumergroup=__strimzi-topic-operator-kstreams},1651142869,0
{consumergroup=__strimzi-topic-operator-kstreams},1651142874,0
{consumergroup=__strimzi-topic-operator-kstreams},1651142879,0
{consumergroup=__strimzi-topic-operator-kstreams},1651142884,0
{consumergroup=__strimzi-topic-operator-kstreams},1651142889,0
{consumergroup=__strimzi-topic-operator-kstreams},1651142894,0
{consumergroup=__strimzi-topic-operator-kstreams},1651142899,0
{consumergroup=__strimzi-topic-operator-kstreams},1651142904,0
{consumergroup=__strimzi-topic-operator-kstreams},1651142909,0
{consumergroup=__strimzi-topic-operator-kstreams},1651142914,0
{consumergroup=__strimzi-topic-operator-kstreams},1651142919,0
{consumergroup=__strimzi-topic-operator-kstreams},1651142924,0
{consumergroup=__strimzi-topic-operator-kstreams},1651142929,0
{consumergroup=__strimzi-topic-operator-kstreams},1651142934,0
{consumergroup=__strimzi-topic-operator-kstreams},1651142939,0
{consumergroup=__strimzi-topic-operator-kstreams},1651142944,0
{consumergroup=__strimzi-topic-operator-kstreams},1651142949,0
{consumergroup=__strimzi-topic-operator-kstreams},1651142954,0
{consumergroup=__strimzi-topic-operator-kstreams},1651142959,0
{consumergroup=__strimzi-topic-operator-kstreams},1651142964,0
{consumergroup=__strimzi-topic-operator-kstreams},1651142969,0
{consumergroup=__strimzi-topic-operator-kstreams},1651142974,0
{consumergroup=__strimzi-topic-operator-kstreams},1651142979,0
{consumergroup=__strimzi-topic-operator-kstreams},1651142984,0
{consumergroup=__strimzi-topic-operator-kstreams},1651142989,0
{consumergroup=__strimzi-topic-operator-kstreams},1651142994,0
{consumergroup=__strimzi-topic-operator-kstreams},1651142999,0
{consumergroup=__strimzi-topic-operator-kstreams},1651143004,0
{consumergroup=__strimzi-topic-operator-kstreams},1651143009,0
{consumergroup=__strimzi-topic-operator-kstreams},1651143014,0
{consumergroup=__strimzi-topic-operator-kstreams},1651143019,0
{consumergroup=__strimzi-topic-operator-kstreams},1651143024,0
{consumergroup=__strimzi-topic-operator-kstreams},1651143029,0
{consumergroup=__strimzi-topic-operator-kstreams},1651143034,0
{consumergroup=__strimzi-topic-operator-kstreams},1651143039,0
{consumergroup=__strimzi-topic-operator-kstreams},1651143044,0
{consumergroup=__strimzi-topic-operator-kstreams},1651143049,0
{consumergroup=__strimzi-topic-operator-kstreams},1651143054,0
{consumergroup=__strimzi-topic-operator-kstreams},1651143059,0
{consumergroup=__strimzi-topic-operator-kstreams},1651143064,0
{consumergroup=__strimzi-topic-operator-kstreams},1651143069,0
{consumergroup=__strimzi-topic-operator-kstreams},1651143074,0
{consumergroup=__strimzi-topic-operator-kstreams},1651143079,0
{consumergroup=trace-service},1651142699,288
{consumergroup=trace-service},1651142704,288
{consumergroup=trace-service},1651142709,288
{consumergroup=trace-service},1651142714,49369
{consumergroup=trace-service},1651142719,49369
{consumergroup=trace-service},1651142724,49369
{consumergroup=trace-service},1651142729,18186
{consumergroup=trace-service},1651142734,18186
{consumergroup=trace-service},1651142739,18186
{consumergroup=trace-service},1651142744,46569
{consumergroup=trace-service},1651142749,46569
{consumergroup=trace-service},1651142754,46569
{consumergroup=trace-service},1651142759,104708
{consumergroup=trace-service},1651142764,104708
{consumergroup=trace-service},1651142769,104708
{consumergroup=trace-service},1651142774,87118
{consumergroup=trace-service},1651142779,87118
{consumergroup=trace-service},1651142784,87118
{consumergroup=trace-service},1651142789,87735
{consumergroup=trace-service},1651142794,87735
{consumergroup=trace-service},1651142799,87735
{consumergroup=trace-service},1651142804,91838
{consumergroup=trace-service},1651142809,91838
{consumergroup=trace-service},1651142814,91838
{consumergroup=trace-service},1651142819,95817
{consumergroup=trace-service},1651142824,95817
{consumergroup=trace-service},1651142829,95817
{consumergroup=trace-service},1651142834,105889
{consumergroup=trace-service},1651142839,105889
{consumergroup=trace-service},1651142844,105889
{consumergroup=trace-service},1651142849,93841
{consumergroup=trace-service},1651142854,93841
{consumergroup=trace-service},1651142859,93841
{consumergroup=trace-service},1651142864,123662
{consumergroup=trace-service},1651142869,123662
{consumergroup=trace-service},1651142874,123662
{consumergroup=trace-service},1651142879,97850
{consumergroup=trace-service},1651142884,97850
{consumergroup=trace-service},1651142889,97850
{consumergroup=trace-service},1651142894,114825
{consumergroup=trace-service},1651142899,114825
{consumergroup=trace-service},1651142904,114825
{consumergroup=trace-service},1651142909,100044
{consumergroup=trace-service},1651142914,100044
{consumergroup=trace-service},1651142919,100044
{consumergroup=trace-service},1651142924,76154
{consumergroup=trace-service},1651142929,76154
{consumergroup=trace-service},1651142934,76154
{consumergroup=trace-service},1651142939,86324
{consumergroup=trace-service},1651142944,86324
{consumergroup=trace-service},1651142949,86324
{consumergroup=trace-service},1651142954,99677
{consumergroup=trace-service},1651142959,99677
{consumergroup=trace-service},1651142964,99677
{consumergroup=trace-service},1651142969,95157
{consumergroup=trace-service},1651142974,95157
{consumergroup=trace-service},1651142979,95157
{consumergroup=trace-service},1651142984,118073
{consumergroup=trace-service},1651142989,118073
{consumergroup=trace-service},1651142994,118073
{consumergroup=trace-service},1651142999,112836
{consumergroup=trace-service},1651143004,112836
{consumergroup=trace-service},1651143009,112836
{consumergroup=trace-service},1651143014,146645
{consumergroup=trace-service},1651143019,146645
{consumergroup=trace-service},1651143024,146645
{consumergroup=trace-service},1651143029,14984
{consumergroup=trace-service},1651143034,14984
{consumergroup=trace-service},1651143039,14984
{consumergroup=trace-service},1651143044,45572
{consumergroup=trace-service},1651143049,45572
{consumergroup=trace-service},1651143054,45572
{consumergroup=trace-service},1651143059,86247
{consumergroup=trace-service},1651143064,86247
{consumergroup=trace-service},1651143069,86247
{consumergroup=trace-service},1651143074,94703
{consumergroup=trace-service},1651143079,94703
{consumergroup=trace-token-events-consumer},1651142699,0
{consumergroup=trace-token-events-consumer},1651142704,0
{consumergroup=trace-token-events-consumer},1651142709,0
{consumergroup=trace-token-events-consumer},1651142714,0
{consumergroup=trace-token-events-consumer},1651142719,0
{consumergroup=trace-token-events-consumer},1651142724,0
{consumergroup=trace-token-events-consumer},1651142729,0
{consumergroup=trace-token-events-consumer},1651142734,0
{consumergroup=trace-token-events-consumer},1651142739,0
{consumergroup=trace-token-events-consumer},1651142744,0
{consumergroup=trace-token-events-consumer},1651142749,0
{consumergroup=trace-token-events-consumer},1651142754,0
{consumergroup=trace-token-events-consumer},1651142759,0
{consumergroup=trace-token-events-consumer},1651142764,0
{consumergroup=trace-token-events-consumer},1651142769,0
{consumergroup=trace-token-events-consumer},1651142774,0
{consumergroup=trace-token-events-consumer},1651142779,0
{consumergroup=trace-token-events-consumer},1651142784,0
{consumergroup=trace-token-events-consumer},1651142789,0
{consumergroup=trace-token-events-consumer},1651142794,0
{consumergroup=trace-token-events-consumer},1651142799,0
{consumergroup=trace-token-events-consumer},1651142804,0
{consumergroup=trace-token-events-consumer},1651142809,0
{consumergroup=trace-token-events-consumer},1651142814,0
{consumergroup=trace-token-events-consumer},1651142819,0
{consumergroup=trace-token-events-consumer},1651142824,0
{consumergroup=trace-token-events-consumer},1651142829,0
{consumergroup=trace-token-events-consumer},1651142834,0
{consumergroup=trace-token-events-consumer},1651142839,0
{consumergroup=trace-token-events-consumer},1651142844,0
{consumergroup=trace-token-events-consumer},1651142849,0
{consumergroup=trace-token-events-consumer},1651142854,0
{consumergroup=trace-token-events-consumer},1651142859,0
{consumergroup=trace-token-events-consumer},1651142864,0
{consumergroup=trace-token-events-consumer},1651142869,0
{consumergroup=trace-token-events-consumer},1651142874,0
{consumergroup=trace-token-events-consumer},1651142879,0
{consumergroup=trace-token-events-consumer},1651142884,0
{consumergroup=trace-token-events-consumer},1651142889,0
{consumergroup=trace-token-events-consumer},1651142894,0
{consumergroup=trace-token-events-consumer},1651142899,0
{consumergroup=trace-token-events-consumer},1651142904,0
{consumergroup=trace-token-events-consumer},1651142909,0
{consumergroup=trace-token-events-consumer},1651142914,0
{consumergroup=trace-token-events-consumer},1651142919,0
{consumergroup=trace-token-events-consumer},1651142924,0
{consumergroup=trace-token-events-consumer},1651142929,0
{consumergroup=trace-token-events-consumer},1651142934,0
{consumergroup=trace-token-events-consumer},1651142939,0
{consumergroup=trace-token-events-consumer},1651142944,0
{consumergroup=trace-token-events-consumer},1651142949,0
{consumergroup=trace-token-events-consumer},1651142954,0
{consumergroup=trace-token-events-consumer},1651142959,0
{consumergroup=trace-token-events-consumer},1651142964,0
{consumergroup=trace-token-events-consumer},1651142969,0
{consumergroup=trace-token-events-consumer},1651142974,0
{consumergroup=trace-token-events-consumer},1651142979,0
{consumergroup=trace-token-events-consumer},1651142984,0
{consumergroup=trace-token-events-consumer},1651142989,0
{consumergroup=trace-token-events-consumer},1651142994,0
{consumergroup=trace-token-events-consumer},1651142999,0
{consumergroup=trace-token-events-consumer},1651143004,0
{consumergroup=trace-token-events-consumer},1651143009,0
{consumergroup=trace-token-events-consumer},1651143014,0
{consumergroup=trace-token-events-consumer},1651143019,0
{consumergroup=trace-token-events-consumer},1651143024,0
{consumergroup=trace-token-events-consumer},1651143029,0
{consumergroup=trace-token-events-consumer},1651143034,0
{consumergroup=trace-token-events-consumer},1651143039,0
{consumergroup=trace-token-events-consumer},1651143044,0
{consumergroup=trace-token-events-consumer},1651143049,0
{consumergroup=trace-token-events-consumer},1651143054,0
{consumergroup=trace-token-events-consumer},1651143059,0
{consumergroup=trace-token-events-consumer},1651143064,0
{consumergroup=trace-token-events-consumer},1651143069,0
{consumergroup=trace-token-events-consumer},1651143074,0
{consumergroup=trace-token-events-consumer},1651143079,0
