labels,timestamp,value
{consumergroup=__strimzi-topic-operator-kstreams},1651415129,3
{consumergroup=__strimzi-topic-operator-kstreams},1651415134,3
{consumergroup=__strimzi-topic-operator-kstreams},1651415139,3
{consumergroup=__strimzi-topic-operator-kstreams},1651415144,18
{consumergroup=__strimzi-topic-operator-kstreams},1651415149,18
{consumergroup=__strimzi-topic-operator-kstreams},1651415154,18
{consumergroup=__strimzi-topic-operator-kstreams},1651415159,0
{consumergroup=__strimzi-topic-operator-kstreams},1651415164,0
{consumergroup=__strimzi-topic-operator-kstreams},1651415169,0
{consumergroup=__strimzi-topic-operator-kstreams},1651415174,0
{consumergroup=__strimzi-topic-operator-kstreams},1651415179,0
{consumergroup=__strimzi-topic-operator-kstreams},1651415184,0
{consumergroup=__strimzi-topic-operator-kstreams},1651415189,0
{consumergroup=__strimzi-topic-operator-kstreams},1651415194,0
{consumergroup=__strimzi-topic-operator-kstreams},1651415199,0
{consumergroup=__strimzi-topic-operator-kstreams},1651415204,0
{consumergroup=__strimzi-topic-operator-kstreams},1651415209,0
{consumergroup=__strimzi-topic-operator-kstreams},1651415214,0
{consumergroup=__strimzi-topic-operator-kstreams},1651415219,0
{consumergroup=__strimzi-topic-operator-kstreams},1651415224,0
{consumergroup=__strimzi-topic-operator-kstreams},1651415229,0
{consumergroup=__strimzi-topic-operator-kstreams},1651415234,0
{consumergroup=__strimzi-topic-operator-kstreams},1651415239,0
{consumergroup=__strimzi-topic-operator-kstreams},1651415244,0
{consumergroup=__strimzi-topic-operator-kstreams},1651415249,0
{consumergroup=__strimzi-topic-operator-kstreams},1651415254,0
{consumergroup=__strimzi-topic-operator-kstreams},1651415259,0
{consumergroup=__strimzi-topic-operator-kstreams},1651415264,0
{consumergroup=__strimzi-topic-operator-kstreams},1651415269,0
{consumergroup=__strimzi-topic-operator-kstreams},1651415274,0
{consumergroup=__strimzi-topic-operator-kstreams},1651415279,0
{consumergroup=__strimzi-topic-operator-kstreams},1651415284,0
{consumergroup=__strimzi-topic-operator-kstreams},1651415289,0
{consumergroup=__strimzi-topic-operator-kstreams},1651415294,0
{consumergroup=__strimzi-topic-operator-kstreams},1651415299,0
{consumergroup=__strimzi-topic-operator-kstreams},1651415304,0
{consumergroup=__strimzi-topic-operator-kstreams},1651415309,0
{consumergroup=__strimzi-topic-operator-kstreams},1651415314,0
{consumergroup=__strimzi-topic-operator-kstreams},1651415319,0
{consumergroup=__strimzi-topic-operator-kstreams},1651415324,0
{consumergroup=__strimzi-topic-operator-kstreams},1651415329,0
{consumergroup=__strimzi-topic-operator-kstreams},1651415334,0
{consumergroup=__strimzi-topic-operator-kstreams},1651415339,0
{consumergroup=__strimzi-topic-operator-kstreams},1651415344,0
{consumergroup=__strimzi-topic-operator-kstreams},1651415349,0
{consumergroup=__strimzi-topic-operator-kstreams},1651415354,0
{consumergroup=__strimzi-topic-operator-kstreams},1651415359,0
{consumergroup=__strimzi-topic-operator-kstreams},1651415364,0
{consumergroup=__strimzi-topic-operator-kstreams},1651415369,0
{consumergroup=__strimzi-topic-operator-kstreams},1651415374,0
{consumergroup=__strimzi-topic-operator-kstreams},1651415379,0
{consumergroup=__strimzi-topic-operator-kstreams},1651415384,0
{consumergroup=adapter-service},1651415159,923
{consumergroup=adapter-service},1651415164,923
{consumergroup=adapter-service},1651415169,923
{consumergroup=adapter-service},1651415174,57209
{consumergroup=adapter-service},1651415179,57209
{consumergroup=adapter-service},1651415184,57209
{consumergroup=adapter-service},1651415189,78172
{consumergroup=adapter-service},1651415194,78172
{consumergroup=adapter-service},1651415199,78172
{consumergroup=adapter-service},1651415204,67003
{consumergroup=adapter-service},1651415209,67003
{consumergroup=adapter-service},1651415214,67003
{consumergroup=adapter-service},1651415219,52827
{consumergroup=adapter-service},1651415224,52827
{consumergroup=adapter-service},1651415229,52827
{consumergroup=adapter-service},1651415234,73066
{consumergroup=adapter-service},1651415239,73066
{consumergroup=adapter-service},1651415244,73066
{consumergroup=adapter-service},1651415249,50235
{consumergroup=adapter-service},1651415254,50235
{consumergroup=adapter-service},1651415259,50235
{consumergroup=adapter-service},1651415264,65983
{consumergroup=adapter-service},1651415269,65983
{consumergroup=adapter-service},1651415274,65983
{consumergroup=adapter-service},1651415279,31114
{consumergroup=adapter-service},1651415284,31114
{consumergroup=adapter-service},1651415289,31114
{consumergroup=adapter-service},1651415294,66447
{consumergroup=adapter-service},1651415299,66447
{consumergroup=adapter-service},1651415304,66447
{consumergroup=adapter-service},1651415309,42040
{consumergroup=adapter-service},1651415314,42040
{consumergroup=adapter-service},1651415319,42040
{consumergroup=adapter-service},1651415324,60146
{consumergroup=adapter-service},1651415329,60146
{consumergroup=adapter-service},1651415334,60146
{consumergroup=adapter-service},1651415339,42271
{consumergroup=adapter-service},1651415344,42271
{consumergroup=adapter-service},1651415349,42271
{consumergroup=adapter-service},1651415354,66049
{consumergroup=adapter-service},1651415359,66049
{consumergroup=adapter-service},1651415364,66049
{consumergroup=adapter-service},1651415369,40423
{consumergroup=adapter-service},1651415374,40423
{consumergroup=adapter-service},1651415379,40423
{consumergroup=adapter-service},1651415384,56142
