labels,timestamp,value
{consumergroup=__strimzi-topic-operator-kstreams},1651408566,2
{consumergroup=__strimzi-topic-operator-kstreams},1651408571,2
{consumergroup=__strimzi-topic-operator-kstreams},1651408576,2
{consumergroup=__strimzi-topic-operator-kstreams},1651408581,2
{consumergroup=__strimzi-topic-operator-kstreams},1651408586,2
{consumergroup=__strimzi-topic-operator-kstreams},1651408591,2
{consumergroup=__strimzi-topic-operator-kstreams},1651408596,0
{consumergroup=__strimzi-topic-operator-kstreams},1651408601,0
{consumergroup=__strimzi-topic-operator-kstreams},1651408606,0
{consumergroup=__strimzi-topic-operator-kstreams},1651408611,0
{consumergroup=__strimzi-topic-operator-kstreams},1651408616,0
{consumergroup=__strimzi-topic-operator-kstreams},1651408621,0
{consumergroup=__strimzi-topic-operator-kstreams},1651408626,0
{consumergroup=__strimzi-topic-operator-kstreams},1651408631,0
{consumergroup=__strimzi-topic-operator-kstreams},1651408636,0
{consumergroup=__strimzi-topic-operator-kstreams},1651408641,0
{consumergroup=__strimzi-topic-operator-kstreams},1651408646,0
{consumergroup=__strimzi-topic-operator-kstreams},1651408651,0
{consumergroup=__strimzi-topic-operator-kstreams},1651408656,0
{consumergroup=__strimzi-topic-operator-kstreams},1651408661,0
{consumergroup=__strimzi-topic-operator-kstreams},1651408666,0
{consumergroup=__strimzi-topic-operator-kstreams},1651408671,0
{consumergroup=__strimzi-topic-operator-kstreams},1651408676,0
{consumergroup=__strimzi-topic-operator-kstreams},1651408681,0
{consumergroup=__strimzi-topic-operator-kstreams},1651408686,0
{consumergroup=__strimzi-topic-operator-kstreams},1651408691,0
{consumergroup=__strimzi-topic-operator-kstreams},1651408696,0
{consumergroup=__strimzi-topic-operator-kstreams},1651408701,0
{consumergroup=__strimzi-topic-operator-kstreams},1651408706,0
{consumergroup=__strimzi-topic-operator-kstreams},1651408711,0
{consumergroup=__strimzi-topic-operator-kstreams},1651408716,0
{consumergroup=__strimzi-topic-operator-kstreams},1651408721,0
{consumergroup=__strimzi-topic-operator-kstreams},1651408726,0
{consumergroup=__strimzi-topic-operator-kstreams},1651408731,0
{consumergroup=__strimzi-topic-operator-kstreams},1651408736,0
{consumergroup=__strimzi-topic-operator-kstreams},1651408741,0
{consumergroup=__strimzi-topic-operator-kstreams},1651408746,0
{consumergroup=__strimzi-topic-operator-kstreams},1651408751,0
{consumergroup=__strimzi-topic-operator-kstreams},1651408756,0
{consumergroup=__strimzi-topic-operator-kstreams},1651408761,0
{consumergroup=__strimzi-topic-operator-kstreams},1651408766,0
{consumergroup=__strimzi-topic-operator-kstreams},1651408771,0
{consumergroup=__strimzi-topic-operator-kstreams},1651408776,0
{consumergroup=__strimzi-topic-operator-kstreams},1651408781,0
{consumergroup=__strimzi-topic-operator-kstreams},1651408786,0
{consumergroup=__strimzi-topic-operator-kstreams},1651408791,0
{consumergroup=__strimzi-topic-operator-kstreams},1651408796,0
{consumergroup=__strimzi-topic-operator-kstreams},1651408801,0
{consumergroup=__strimzi-topic-operator-kstreams},1651408806,0
{consumergroup=__strimzi-topic-operator-kstreams},1651408811,0
{consumergroup=__strimzi-topic-operator-kstreams},1651408816,0
{consumergroup=adapter-service},1651408596,54836
{consumergroup=adapter-service},1651408601,54836
{consumergroup=adapter-service},1651408606,54836
{consumergroup=adapter-service},1651408611,306481
{consumergroup=adapter-service},1651408616,306481
{consumergroup=adapter-service},1651408621,306481
{consumergroup=adapter-service},1651408626,342394
{consumergroup=adapter-service},1651408631,342394
{consumergroup=adapter-service},1651408636,342394
{consumergroup=adapter-service},1651408641,418570
{consumergroup=adapter-service},1651408646,418570
{consumergroup=adapter-service},1651408651,418570
{consumergroup=adapter-service},1651408656,518245
{consumergroup=adapter-service},1651408661,518245
{consumergroup=adapter-service},1651408666,518245
{consumergroup=adapter-service},1651408671,488168
{consumergroup=adapter-service},1651408676,488168
{consumergroup=adapter-service},1651408681,488168
{consumergroup=adapter-service},1651408686,522728
{consumergroup=adapter-service},1651408691,522728
{consumergroup=adapter-service},1651408696,522728
{consumergroup=adapter-service},1651408701,568596
{consumergroup=adapter-service},1651408706,568596
{consumergroup=adapter-service},1651408711,568596
{consumergroup=adapter-service},1651408716,651345
{consumergroup=adapter-service},1651408721,651345
{consumergroup=adapter-service},1651408726,651345
{consumergroup=adapter-service},1651408731,689794
{consumergroup=adapter-service},1651408736,689794
{consumergroup=adapter-service},1651408741,689794
{consumergroup=adapter-service},1651408746,748632
{consumergroup=adapter-service},1651408751,748632
{consumergroup=adapter-service},1651408756,748632
{consumergroup=adapter-service},1651408761,797953
{consumergroup=adapter-service},1651408766,797953
{consumergroup=adapter-service},1651408771,797953
{consumergroup=adapter-service},1651408776,867757
{consumergroup=adapter-service},1651408781,867757
{consumergroup=adapter-service},1651408786,867757
{consumergroup=adapter-service},1651408791,913481
{consumergroup=adapter-service},1651408796,913481
{consumergroup=adapter-service},1651408801,913481
{consumergroup=adapter-service},1651408806,990386
{consumergroup=adapter-service},1651408811,990386
{consumergroup=adapter-service},1651408816,990386
