labels,timestamp,value
{consumergroup=__strimzi-topic-operator-kstreams},1651396336,7
{consumergroup=__strimzi-topic-operator-kstreams},1651396341,7
{consumergroup=__strimzi-topic-operator-kstreams},1651396346,7
{consumergroup=__strimzi-topic-operator-kstreams},1651396351,22
{consumergroup=__strimzi-topic-operator-kstreams},1651396356,22
{consumergroup=__strimzi-topic-operator-kstreams},1651396361,22
{consumergroup=__strimzi-topic-operator-kstreams},1651396366,0
{consumergroup=__strimzi-topic-operator-kstreams},1651396371,0
{consumergroup=__strimzi-topic-operator-kstreams},1651396376,0
{consumergroup=__strimzi-topic-operator-kstreams},1651396381,0
{consumergroup=__strimzi-topic-operator-kstreams},1651396386,0
{consumergroup=__strimzi-topic-operator-kstreams},1651396391,0
{consumergroup=__strimzi-topic-operator-kstreams},1651396396,0
{consumergroup=__strimzi-topic-operator-kstreams},1651396401,0
{consumergroup=__strimzi-topic-operator-kstreams},1651396406,0
{consumergroup=__strimzi-topic-operator-kstreams},1651396411,0
{consumergroup=__strimzi-topic-operator-kstreams},1651396416,0
{consumergroup=__strimzi-topic-operator-kstreams},1651396421,0
{consumergroup=__strimzi-topic-operator-kstreams},1651396426,0
{consumergroup=__strimzi-topic-operator-kstreams},1651396431,0
{consumergroup=__strimzi-topic-operator-kstreams},1651396436,0
{consumergroup=__strimzi-topic-operator-kstreams},1651396441,0
{consumergroup=__strimzi-topic-operator-kstreams},1651396446,0
{consumergroup=__strimzi-topic-operator-kstreams},1651396451,0
{consumergroup=__strimzi-topic-operator-kstreams},1651396456,0
{consumergroup=__strimzi-topic-operator-kstreams},1651396461,0
{consumergroup=__strimzi-topic-operator-kstreams},1651396466,0
{consumergroup=__strimzi-topic-operator-kstreams},1651396471,0
{consumergroup=__strimzi-topic-operator-kstreams},1651396476,0
{consumergroup=__strimzi-topic-operator-kstreams},1651396481,0
{consumergroup=__strimzi-topic-operator-kstreams},1651396486,0
{consumergroup=__strimzi-topic-operator-kstreams},1651396491,0
{consumergroup=__strimzi-topic-operator-kstreams},1651396496,0
{consumergroup=__strimzi-topic-operator-kstreams},1651396501,0
{consumergroup=__strimzi-topic-operator-kstreams},1651396506,0
{consumergroup=__strimzi-topic-operator-kstreams},1651396511,0
{consumergroup=__strimzi-topic-operator-kstreams},1651396516,0
{consumergroup=__strimzi-topic-operator-kstreams},1651396521,0
{consumergroup=__strimzi-topic-operator-kstreams},1651396526,0
{consumergroup=__strimzi-topic-operator-kstreams},1651396531,0
{consumergroup=__strimzi-topic-operator-kstreams},1651396536,0
{consumergroup=__strimzi-topic-operator-kstreams},1651396541,0
{consumergroup=__strimzi-topic-operator-kstreams},1651396546,0
{consumergroup=__strimzi-topic-operator-kstreams},1651396551,0
{consumergroup=__strimzi-topic-operator-kstreams},1651396556,0
{consumergroup=__strimzi-topic-operator-kstreams},1651396561,0
{consumergroup=__strimzi-topic-operator-kstreams},1651396566,0
{consumergroup=__strimzi-topic-operator-kstreams},1651396571,0
{consumergroup=__strimzi-topic-operator-kstreams},1651396576,0
{consumergroup=__strimzi-topic-operator-kstreams},1651396581,0
{consumergroup=__strimzi-topic-operator-kstreams},1651396586,0
{consumergroup=__strimzi-topic-operator-kstreams},1651396591,0
{consumergroup=adapter-service},1651396336,0
{consumergroup=adapter-service},1651396341,0
{consumergroup=adapter-service},1651396346,0
{consumergroup=adapter-service},1651396366,0
{consumergroup=adapter-service},1651396371,0
{consumergroup=adapter-service},1651396376,0
{consumergroup=adapter-service},1651396381,283821
{consumergroup=adapter-service},1651396386,283821
{consumergroup=adapter-service},1651396391,283821
{consumergroup=adapter-service},1651396396,451827
{consumergroup=adapter-service},1651396401,451827
{consumergroup=adapter-service},1651396406,451827
{consumergroup=adapter-service},1651396411,633719
{consumergroup=adapter-service},1651396416,633719
{consumergroup=adapter-service},1651396421,633719
{consumergroup=adapter-service},1651396426,790587
{consumergroup=adapter-service},1651396431,790587
{consumergroup=adapter-service},1651396436,790587
{consumergroup=adapter-service},1651396441,978510
{consumergroup=adapter-service},1651396446,978510
{consumergroup=adapter-service},1651396451,978510
{consumergroup=adapter-service},1651396456,1123828
{consumergroup=adapter-service},1651396461,1123828
{consumergroup=adapter-service},1651396466,1123828
{consumergroup=adapter-service},1651396471,1297385
{consumergroup=adapter-service},1651396476,1297385
{consumergroup=adapter-service},1651396481,1297385
{consumergroup=adapter-service},1651396486,1448482
{consumergroup=adapter-service},1651396491,1448482
{consumergroup=adapter-service},1651396496,1448482
{consumergroup=adapter-service},1651396501,1602539
{consumergroup=adapter-service},1651396506,1602539
{consumergroup=adapter-service},1651396511,1602539
{consumergroup=adapter-service},1651396516,1758682
{consumergroup=adapter-service},1651396521,1758682
{consumergroup=adapter-service},1651396526,1758682
{consumergroup=adapter-service},1651396531,1914896
{consumergroup=adapter-service},1651396536,1914896
{consumergroup=adapter-service},1651396541,1914896
{consumergroup=adapter-service},1651396546,2068155
{consumergroup=adapter-service},1651396551,2068155
{consumergroup=adapter-service},1651396556,2068155
{consumergroup=adapter-service},1651396561,2259009
{consumergroup=adapter-service},1651396566,2259009
{consumergroup=adapter-service},1651396571,2259009
{consumergroup=adapter-service},1651396576,2394279
{consumergroup=adapter-service},1651396581,2394279
{consumergroup=adapter-service},1651396586,2394279
{consumergroup=adapter-service},1651396591,2569121
