labels,timestamp,value
{consumergroup=__strimzi-topic-operator-kstreams},1651403159,0
{consumergroup=__strimzi-topic-operator-kstreams},1651403174,24
{consumergroup=__strimzi-topic-operator-kstreams},1651403179,24
{consumergroup=__strimzi-topic-operator-kstreams},1651403184,24
{consumergroup=__strimzi-topic-operator-kstreams},1651403189,0
{consumergroup=__strimzi-topic-operator-kstreams},1651403194,0
{consumergroup=__strimzi-topic-operator-kstreams},1651403199,0
{consumergroup=__strimzi-topic-operator-kstreams},1651403204,0
{consumergroup=__strimzi-topic-operator-kstreams},1651403209,0
{consumergroup=__strimzi-topic-operator-kstreams},1651403214,0
{consumergroup=__strimzi-topic-operator-kstreams},1651403219,0
{consumergroup=__strimzi-topic-operator-kstreams},1651403224,0
{consumergroup=__strimzi-topic-operator-kstreams},1651403229,0
{consumergroup=__strimzi-topic-operator-kstreams},1651403234,0
{consumergroup=__strimzi-topic-operator-kstreams},1651403239,0
{consumergroup=__strimzi-topic-operator-kstreams},1651403244,0
{consumergroup=__strimzi-topic-operator-kstreams},1651403249,0
{consumergroup=__strimzi-topic-operator-kstreams},1651403254,0
{consumergroup=__strimzi-topic-operator-kstreams},1651403259,0
{consumergroup=__strimzi-topic-operator-kstreams},1651403264,0
{consumergroup=__strimzi-topic-operator-kstreams},1651403269,0
{consumergroup=__strimzi-topic-operator-kstreams},1651403274,0
{consumergroup=__strimzi-topic-operator-kstreams},1651403279,0
{consumergroup=__strimzi-topic-operator-kstreams},1651403284,0
{consumergroup=__strimzi-topic-operator-kstreams},1651403289,0
{consumergroup=__strimzi-topic-operator-kstreams},1651403294,0
{consumergroup=__strimzi-topic-operator-kstreams},1651403299,0
{consumergroup=__strimzi-topic-operator-kstreams},1651403304,0
{consumergroup=__strimzi-topic-operator-kstreams},1651403309,0
{consumergroup=__strimzi-topic-operator-kstreams},1651403314,0
{consumergroup=__strimzi-topic-operator-kstreams},1651403319,0
{consumergroup=__strimzi-topic-operator-kstreams},1651403324,0
{consumergroup=__strimzi-topic-operator-kstreams},1651403329,0
{consumergroup=__strimzi-topic-operator-kstreams},1651403334,0
{consumergroup=__strimzi-topic-operator-kstreams},1651403339,0
{consumergroup=__strimzi-topic-operator-kstreams},1651403344,0
{consumergroup=__strimzi-topic-operator-kstreams},1651403349,0
{consumergroup=__strimzi-topic-operator-kstreams},1651403354,0
{consumergroup=__strimzi-topic-operator-kstreams},1651403359,0
{consumergroup=__strimzi-topic-operator-kstreams},1651403364,0
{consumergroup=__strimzi-topic-operator-kstreams},1651403369,0
{consumergroup=__strimzi-topic-operator-kstreams},1651403374,0
{consumergroup=__strimzi-topic-operator-kstreams},1651403379,0
{consumergroup=__strimzi-topic-operator-kstreams},1651403384,0
{consumergroup=__strimzi-topic-operator-kstreams},1651403389,0
{consumergroup=__strimzi-topic-operator-kstreams},1651403394,0
{consumergroup=__strimzi-topic-operator-kstreams},1651403399,0
{consumergroup=__strimzi-topic-operator-kstreams},1651403404,0
{consumergroup=__strimzi-topic-operator-kstreams},1651403409,0
{consumergroup=__strimzi-topic-operator-kstreams},1651403414,0
{consumergroup=__strimzi-topic-operator-kstreams},1651403419,0
{consumergroup=adapter-service},1651403159,469891
{consumergroup=adapter-service},1651403204,127567
{consumergroup=adapter-service},1651403209,127567
{consumergroup=adapter-service},1651403214,127567
{consumergroup=adapter-service},1651403219,178862
{consumergroup=adapter-service},1651403224,178862
{consumergroup=adapter-service},1651403229,178862
{consumergroup=adapter-service},1651403234,48418
{consumergroup=adapter-service},1651403239,48418
{consumergroup=adapter-service},1651403244,48418
{consumergroup=adapter-service},1651403249,37871
{consumergroup=adapter-service},1651403254,37871
{consumergroup=adapter-service},1651403259,37871
{consumergroup=adapter-service},1651403264,45619
{consumergroup=adapter-service},1651403269,45619
{consumergroup=adapter-service},1651403274,45619
{consumergroup=adapter-service},1651403279,33777
{consumergroup=adapter-service},1651403284,33777
{consumergroup=adapter-service},1651403289,33777
{consumergroup=adapter-service},1651403294,40558
{consumergroup=adapter-service},1651403299,40558
{consumergroup=adapter-service},1651403304,40558
{consumergroup=adapter-service},1651403309,32802
{consumergroup=adapter-service},1651403314,32802
{consumergroup=adapter-service},1651403319,32802
{consumergroup=adapter-service},1651403324,91782
{consumergroup=adapter-service},1651403329,91782
{consumergroup=adapter-service},1651403334,91782
{consumergroup=adapter-service},1651403339,35378
{consumergroup=adapter-service},1651403344,35378
{consumergroup=adapter-service},1651403349,35378
{consumergroup=adapter-service},1651403354,90986
{consumergroup=adapter-service},1651403359,90986
{consumergroup=adapter-service},1651403364,90986
{consumergroup=adapter-service},1651403369,29812
{consumergroup=adapter-service},1651403374,29812
{consumergroup=adapter-service},1651403379,29812
{consumergroup=adapter-service},1651403384,80446
{consumergroup=adapter-service},1651403389,80446
{consumergroup=adapter-service},1651403394,80446
{consumergroup=adapter-service},1651403399,27402
{consumergroup=adapter-service},1651403404,27402
{consumergroup=adapter-service},1651403409,27402
{consumergroup=adapter-service},1651403414,73714
{consumergroup=adapter-service},1651403419,73714
