labels,timestamp,value
{consumergroup=__strimzi-topic-operator-kstreams},1651401042,0
{consumergroup=__strimzi-topic-operator-kstreams},1651401047,0
{consumergroup=__strimzi-topic-operator-kstreams},1651401052,0
{consumergroup=__strimzi-topic-operator-kstreams},1651401057,0
{consumergroup=__strimzi-topic-operator-kstreams},1651401062,0
{consumergroup=__strimzi-topic-operator-kstreams},1651401067,0
{consumergroup=__strimzi-topic-operator-kstreams},1651401072,0
{consumergroup=__strimzi-topic-operator-kstreams},1651401077,0
{consumergroup=__strimzi-topic-operator-kstreams},1651401082,0
{consumergroup=__strimzi-topic-operator-kstreams},1651401087,0
{consumergroup=__strimzi-topic-operator-kstreams},1651401092,0
{consumergroup=__strimzi-topic-operator-kstreams},1651401097,0
{consumergroup=__strimzi-topic-operator-kstreams},1651401102,0
{consumergroup=__strimzi-topic-operator-kstreams},1651401107,0
{consumergroup=__strimzi-topic-operator-kstreams},1651401112,0
{consumergroup=__strimzi-topic-operator-kstreams},1651401117,0
{consumergroup=__strimzi-topic-operator-kstreams},1651401122,0
{consumergroup=__strimzi-topic-operator-kstreams},1651401127,0
{consumergroup=__strimzi-topic-operator-kstreams},1651401132,0
{consumergroup=__strimzi-topic-operator-kstreams},1651401137,0
{consumergroup=__strimzi-topic-operator-kstreams},1651401142,0
{consumergroup=__strimzi-topic-operator-kstreams},1651401147,0
{consumergroup=__strimzi-topic-operator-kstreams},1651401152,0
{consumergroup=__strimzi-topic-operator-kstreams},1651401157,0
{consumergroup=__strimzi-topic-operator-kstreams},1651401162,0
{consumergroup=__strimzi-topic-operator-kstreams},1651401167,0
{consumergroup=__strimzi-topic-operator-kstreams},1651401172,0
{consumergroup=__strimzi-topic-operator-kstreams},1651401177,0
{consumergroup=__strimzi-topic-operator-kstreams},1651401182,0
{consumergroup=__strimzi-topic-operator-kstreams},1651401187,0
{consumergroup=__strimzi-topic-operator-kstreams},1651401192,0
{consumergroup=__strimzi-topic-operator-kstreams},1651401197,0
{consumergroup=__strimzi-topic-operator-kstreams},1651401202,0
{consumergroup=__strimzi-topic-operator-kstreams},1651401207,0
{consumergroup=__strimzi-topic-operator-kstreams},1651401212,0
{consumergroup=__strimzi-topic-operator-kstreams},1651401217,0
{consumergroup=__strimzi-topic-operator-kstreams},1651401222,0
{consumergroup=__strimzi-topic-operator-kstreams},1651401227,0
{consumergroup=__strimzi-topic-operator-kstreams},1651401232,0
{consumergroup=__strimzi-topic-operator-kstreams},1651401237,0
{consumergroup=__strimzi-topic-operator-kstreams},1651401242,0
{consumergroup=__strimzi-topic-operator-kstreams},1651401247,0
{consumergroup=__strimzi-topic-operator-kstreams},1651401252,0
{consumergroup=__strimzi-topic-operator-kstreams},1651401257,0
{consumergroup=__strimzi-topic-operator-kstreams},1651401262,0
{consumergroup=__strimzi-topic-operator-kstreams},1651401267,0
{consumergroup=__strimzi-topic-operator-kstreams},1651401272,0
{consumergroup=__strimzi-topic-operator-kstreams},1651401277,0
{consumergroup=__strimzi-topic-operator-kstreams},1651401282,0
{consumergroup=__strimzi-topic-operator-kstreams},1651401287,0
{consumergroup=__strimzi-topic-operator-kstreams},1651401292,0
{consumergroup=adapter-service},1651401072,149903
{consumergroup=adapter-service},1651401077,149903
{consumergroup=adapter-service},1651401082,149903
{consumergroup=adapter-service},1651401087,186695
{consumergroup=adapter-service},1651401092,186695
{consumergroup=adapter-service},1651401097,186695
{consumergroup=adapter-service},1651401102,175743
{consumergroup=adapter-service},1651401107,175743
{consumergroup=adapter-service},1651401112,175743
{consumergroup=adapter-service},1651401117,131998
{consumergroup=adapter-service},1651401122,131998
{consumergroup=adapter-service},1651401127,131998
{consumergroup=adapter-service},1651401132,102419
{consumergroup=adapter-service},1651401137,102419
{consumergroup=adapter-service},1651401142,102419
{consumergroup=adapter-service},1651401147,85001
{consumergroup=adapter-service},1651401152,85001
{consumergroup=adapter-service},1651401157,85001
{consumergroup=adapter-service},1651401162,70956
{consumergroup=adapter-service},1651401167,70956
{consumergroup=adapter-service},1651401172,70956
{consumergroup=adapter-service},1651401177,76478
{consumergroup=adapter-service},1651401182,76478
{consumergroup=adapter-service},1651401187,76478
{consumergroup=adapter-service},1651401192,65251
{consumergroup=adapter-service},1651401197,65251
{consumergroup=adapter-service},1651401202,65251
{consumergroup=adapter-service},1651401207,54234
{consumergroup=adapter-service},1651401212,54234
{consumergroup=adapter-service},1651401217,54234
{consumergroup=adapter-service},1651401222,50227
{consumergroup=adapter-service},1651401227,50227
{consumergroup=adapter-service},1651401232,50227
{consumergroup=adapter-service},1651401237,58147
{consumergroup=adapter-service},1651401242,58147
{consumergroup=adapter-service},1651401247,58147
{consumergroup=adapter-service},1651401252,46443
{consumergroup=adapter-service},1651401257,46443
{consumergroup=adapter-service},1651401262,46443
{consumergroup=adapter-service},1651401267,60917
{consumergroup=adapter-service},1651401272,60917
{consumergroup=adapter-service},1651401277,60917
{consumergroup=adapter-service},1651401282,55609
{consumergroup=adapter-service},1651401287,55609
{consumergroup=adapter-service},1651401292,55609
