labels,timestamp,value
{consumergroup=__strimzi-topic-operator-kstreams},1651414835,10
{consumergroup=__strimzi-topic-operator-kstreams},1651414840,10
{consumergroup=__strimzi-topic-operator-kstreams},1651414845,10
{consumergroup=__strimzi-topic-operator-kstreams},1651414850,0
{consumergroup=__strimzi-topic-operator-kstreams},1651414855,0
{consumergroup=__strimzi-topic-operator-kstreams},1651414860,0
{consumergroup=__strimzi-topic-operator-kstreams},1651414865,0
{consumergroup=__strimzi-topic-operator-kstreams},1651414870,0
{consumergroup=__strimzi-topic-operator-kstreams},1651414875,0
{consumergroup=__strimzi-topic-operator-kstreams},1651414880,0
{consumergroup=__strimzi-topic-operator-kstreams},1651414885,0
{consumergroup=__strimzi-topic-operator-kstreams},1651414890,0
{consumergroup=__strimzi-topic-operator-kstreams},1651414895,0
{consumergroup=__strimzi-topic-operator-kstreams},1651414900,0
{consumergroup=__strimzi-topic-operator-kstreams},1651414905,0
{consumergroup=__strimzi-topic-operator-kstreams},1651414910,0
{consumergroup=__strimzi-topic-operator-kstreams},1651414915,0
{consumergroup=__strimzi-topic-operator-kstreams},1651414920,0
{consumergroup=__strimzi-topic-operator-kstreams},1651414925,0
{consumergroup=__strimzi-topic-operator-kstreams},1651414930,0
{consumergroup=__strimzi-topic-operator-kstreams},1651414935,0
{consumergroup=__strimzi-topic-operator-kstreams},1651414940,0
{consumergroup=__strimzi-topic-operator-kstreams},1651414945,0
{consumergroup=__strimzi-topic-operator-kstreams},1651414950,0
{consumergroup=__strimzi-topic-operator-kstreams},1651414955,0
{consumergroup=__strimzi-topic-operator-kstreams},1651414960,0
{consumergroup=__strimzi-topic-operator-kstreams},1651414965,0
{consumergroup=__strimzi-topic-operator-kstreams},1651414970,0
{consumergroup=__strimzi-topic-operator-kstreams},1651414975,0
{consumergroup=__strimzi-topic-operator-kstreams},1651414980,0
{consumergroup=__strimzi-topic-operator-kstreams},1651414985,0
{consumergroup=__strimzi-topic-operator-kstreams},1651414990,0
{consumergroup=__strimzi-topic-operator-kstreams},1651414995,0
{consumergroup=__strimzi-topic-operator-kstreams},1651415000,0
{consumergroup=__strimzi-topic-operator-kstreams},1651415005,0
{consumergroup=__strimzi-topic-operator-kstreams},1651415010,0
{consumergroup=__strimzi-topic-operator-kstreams},1651415015,0
{consumergroup=__strimzi-topic-operator-kstreams},1651415020,0
{consumergroup=__strimzi-topic-operator-kstreams},1651415025,0
{consumergroup=__strimzi-topic-operator-kstreams},1651415030,0
{consumergroup=__strimzi-topic-operator-kstreams},1651415035,0
{consumergroup=__strimzi-topic-operator-kstreams},1651415040,0
{consumergroup=__strimzi-topic-operator-kstreams},1651415045,0
{consumergroup=__strimzi-topic-operator-kstreams},1651415050,0
{consumergroup=__strimzi-topic-operator-kstreams},1651415055,0
{consumergroup=__strimzi-topic-operator-kstreams},1651415060,0
{consumergroup=__strimzi-topic-operator-kstreams},1651415065,0
{consumergroup=__strimzi-topic-operator-kstreams},1651415070,0
{consumergroup=__strimzi-topic-operator-kstreams},1651415075,0
{consumergroup=__strimzi-topic-operator-kstreams},1651415080,0
{consumergroup=__strimzi-topic-operator-kstreams},1651415085,0
{consumergroup=__strimzi-topic-operator-kstreams},1651415090,0
{consumergroup=adapter-service},1651414865,92396
{consumergroup=adapter-service},1651414870,92396
{consumergroup=adapter-service},1651414875,92396
{consumergroup=adapter-service},1651414880,145580
{consumergroup=adapter-service},1651414885,145580
{consumergroup=adapter-service},1651414890,145580
{consumergroup=adapter-service},1651414895,208429
{consumergroup=adapter-service},1651414900,208429
{consumergroup=adapter-service},1651414905,208429
{consumergroup=adapter-service},1651414910,262443
{consumergroup=adapter-service},1651414915,262443
{consumergroup=adapter-service},1651414920,262443
{consumergroup=adapter-service},1651414925,266500
{consumergroup=adapter-service},1651414930,266500
{consumergroup=adapter-service},1651414935,266500
{consumergroup=adapter-service},1651414940,313613
{consumergroup=adapter-service},1651414945,313613
{consumergroup=adapter-service},1651414950,313613
{consumergroup=adapter-service},1651414955,337932
{consumergroup=adapter-service},1651414960,337932
{consumergroup=adapter-service},1651414965,337932
{consumergroup=adapter-service},1651414970,379235
{consumergroup=adapter-service},1651414975,379235
{consumergroup=adapter-service},1651414980,379235
{consumergroup=adapter-service},1651414985,403128
{consumergroup=adapter-service},1651414990,403128
{consumergroup=adapter-service},1651414995,403128
{consumergroup=adapter-service},1651415000,427207
{consumergroup=adapter-service},1651415005,427207
{consumergroup=adapter-service},1651415010,427207
{consumergroup=adapter-service},1651415015,458824
{consumergroup=adapter-service},1651415020,458824
{consumergroup=adapter-service},1651415025,458824
{consumergroup=adapter-service},1651415030,483192
{consumergroup=adapter-service},1651415035,483192
{consumergroup=adapter-service},1651415040,483192
{consumergroup=adapter-service},1651415045,551378
{consumergroup=adapter-service},1651415050,551378
{consumergroup=adapter-service},1651415055,551378
{consumergroup=adapter-service},1651415060,558505
{consumergroup=adapter-service},1651415065,558505
{consumergroup=adapter-service},1651415070,558505
{consumergroup=adapter-service},1651415075,592469
{consumergroup=adapter-service},1651415080,592469
{consumergroup=adapter-service},1651415085,592469
{consumergroup=adapter-service},1651415090,619429
