labels,timestamp,value
{consumergroup=__strimzi-topic-operator-kstreams},1651418108,8
{consumergroup=__strimzi-topic-operator-kstreams},1651418113,8
{consumergroup=__strimzi-topic-operator-kstreams},1651418118,8
{consumergroup=__strimzi-topic-operator-kstreams},1651418123,8
{consumergroup=__strimzi-topic-operator-kstreams},1651418128,8
{consumergroup=__strimzi-topic-operator-kstreams},1651418133,8
{consumergroup=__strimzi-topic-operator-kstreams},1651418138,0
{consumergroup=__strimzi-topic-operator-kstreams},1651418143,0
{consumergroup=__strimzi-topic-operator-kstreams},1651418148,0
{consumergroup=__strimzi-topic-operator-kstreams},1651418153,0
{consumergroup=__strimzi-topic-operator-kstreams},1651418158,0
{consumergroup=__strimzi-topic-operator-kstreams},1651418163,0
{consumergroup=__strimzi-topic-operator-kstreams},1651418168,0
{consumergroup=__strimzi-topic-operator-kstreams},1651418173,0
{consumergroup=__strimzi-topic-operator-kstreams},1651418178,0
{consumergroup=__strimzi-topic-operator-kstreams},1651418183,0
{consumergroup=__strimzi-topic-operator-kstreams},1651418188,0
{consumergroup=__strimzi-topic-operator-kstreams},1651418193,0
{consumergroup=__strimzi-topic-operator-kstreams},1651418198,0
{consumergroup=__strimzi-topic-operator-kstreams},1651418203,0
{consumergroup=__strimzi-topic-operator-kstreams},1651418208,0
{consumergroup=__strimzi-topic-operator-kstreams},1651418213,0
{consumergroup=__strimzi-topic-operator-kstreams},1651418218,0
{consumergroup=__strimzi-topic-operator-kstreams},1651418223,0
{consumergroup=__strimzi-topic-operator-kstreams},1651418228,0
{consumergroup=__strimzi-topic-operator-kstreams},1651418233,0
{consumergroup=__strimzi-topic-operator-kstreams},1651418238,0
{consumergroup=__strimzi-topic-operator-kstreams},1651418243,0
{consumergroup=__strimzi-topic-operator-kstreams},1651418248,0
{consumergroup=__strimzi-topic-operator-kstreams},1651418253,0
{consumergroup=__strimzi-topic-operator-kstreams},1651418258,0
{consumergroup=__strimzi-topic-operator-kstreams},1651418263,0
{consumergroup=__strimzi-topic-operator-kstreams},1651418268,0
{consumergroup=__strimzi-topic-operator-kstreams},1651418273,0
{consumergroup=__strimzi-topic-operator-kstreams},1651418278,0
{consumergroup=__strimzi-topic-operator-kstreams},1651418283,0
{consumergroup=__strimzi-topic-operator-kstreams},1651418288,0
{consumergroup=__strimzi-topic-operator-kstreams},1651418293,0
{consumergroup=__strimzi-topic-operator-kstreams},1651418298,0
{consumergroup=__strimzi-topic-operator-kstreams},1651418303,0
{consumergroup=__strimzi-topic-operator-kstreams},1651418308,0
{consumergroup=__strimzi-topic-operator-kstreams},1651418313,0
{consumergroup=__strimzi-topic-operator-kstreams},1651418318,0
{consumergroup=__strimzi-topic-operator-kstreams},1651418323,0
{consumergroup=__strimzi-topic-operator-kstreams},1651418328,0
{consumergroup=__strimzi-topic-operator-kstreams},1651418333,0
{consumergroup=__strimzi-topic-operator-kstreams},1651418338,0
{consumergroup=__strimzi-topic-operator-kstreams},1651418343,0
{consumergroup=__strimzi-topic-operator-kstreams},1651418348,0
{consumergroup=__strimzi-topic-operator-kstreams},1651418353,0
{consumergroup=__strimzi-topic-operator-kstreams},1651418358,0
{consumergroup=adapter-service},1651418138,138356
{consumergroup=adapter-service},1651418143,138356
{consumergroup=adapter-service},1651418148,138356
{consumergroup=adapter-service},1651418153,195229
{consumergroup=adapter-service},1651418158,195229
{consumergroup=adapter-service},1651418163,195229
{consumergroup=adapter-service},1651418168,269746
{consumergroup=adapter-service},1651418173,269746
{consumergroup=adapter-service},1651418178,269746
{consumergroup=adapter-service},1651418183,366837
{consumergroup=adapter-service},1651418188,366837
{consumergroup=adapter-service},1651418193,366837
{consumergroup=adapter-service},1651418198,396070
{consumergroup=adapter-service},1651418203,396070
{consumergroup=adapter-service},1651418208,396070
{consumergroup=adapter-service},1651418213,458083
{consumergroup=adapter-service},1651418218,458083
{consumergroup=adapter-service},1651418223,458083
{consumergroup=adapter-service},1651418228,500005
{consumergroup=adapter-service},1651418233,500005
{consumergroup=adapter-service},1651418238,500005
{consumergroup=adapter-service},1651418243,583047
{consumergroup=adapter-service},1651418248,583047
{consumergroup=adapter-service},1651418253,583047
{consumergroup=adapter-service},1651418258,624312
{consumergroup=adapter-service},1651418263,624312
{consumergroup=adapter-service},1651418268,624312
{consumergroup=adapter-service},1651418273,684534
{consumergroup=adapter-service},1651418278,684534
{consumergroup=adapter-service},1651418283,684534
{consumergroup=adapter-service},1651418288,744718
{consumergroup=adapter-service},1651418293,744718
{consumergroup=adapter-service},1651418298,744718
{consumergroup=adapter-service},1651418303,820112
{consumergroup=adapter-service},1651418308,820112
{consumergroup=adapter-service},1651418313,820112
{consumergroup=adapter-service},1651418318,849863
{consumergroup=adapter-service},1651418323,849863
{consumergroup=adapter-service},1651418328,849863
{consumergroup=adapter-service},1651418333,942451
{consumergroup=adapter-service},1651418338,942451
{consumergroup=adapter-service},1651418343,942451
{consumergroup=adapter-service},1651418348,960142
{consumergroup=adapter-service},1651418353,960142
{consumergroup=adapter-service},1651418358,960142
