labels,timestamp,value
{consumergroup=__strimzi-topic-operator-kstreams},1651423857,20
{consumergroup=__strimzi-topic-operator-kstreams},1651423862,20
{consumergroup=__strimzi-topic-operator-kstreams},1651423867,20
{consumergroup=__strimzi-topic-operator-kstreams},1651423872,0
{consumergroup=__strimzi-topic-operator-kstreams},1651423877,0
{consumergroup=__strimzi-topic-operator-kstreams},1651423882,0
{consumergroup=__strimzi-topic-operator-kstreams},1651423887,0
{consumergroup=__strimzi-topic-operator-kstreams},1651423892,0
{consumergroup=__strimzi-topic-operator-kstreams},1651423897,0
{consumergroup=__strimzi-topic-operator-kstreams},1651423902,0
{consumergroup=__strimzi-topic-operator-kstreams},1651423907,0
{consumergroup=__strimzi-topic-operator-kstreams},1651423912,0
{consumergroup=__strimzi-topic-operator-kstreams},1651423917,0
{consumergroup=__strimzi-topic-operator-kstreams},1651423922,0
{consumergroup=__strimzi-topic-operator-kstreams},1651423927,0
{consumergroup=__strimzi-topic-operator-kstreams},1651423932,0
{consumergroup=__strimzi-topic-operator-kstreams},1651423937,0
{consumergroup=__strimzi-topic-operator-kstreams},1651423942,0
{consumergroup=__strimzi-topic-operator-kstreams},1651423947,0
{consumergroup=__strimzi-topic-operator-kstreams},1651423952,0
{consumergroup=__strimzi-topic-operator-kstreams},1651423957,0
{consumergroup=__strimzi-topic-operator-kstreams},1651423962,0
{consumergroup=__strimzi-topic-operator-kstreams},1651423967,0
{consumergroup=__strimzi-topic-operator-kstreams},1651423972,0
{consumergroup=__strimzi-topic-operator-kstreams},1651423977,0
{consumergroup=__strimzi-topic-operator-kstreams},1651423982,0
{consumergroup=__strimzi-topic-operator-kstreams},1651423987,0
{consumergroup=__strimzi-topic-operator-kstreams},1651423992,0
{consumergroup=__strimzi-topic-operator-kstreams},1651423997,0
{consumergroup=__strimzi-topic-operator-kstreams},1651424002,0
{consumergroup=__strimzi-topic-operator-kstreams},1651424007,0
{consumergroup=__strimzi-topic-operator-kstreams},1651424012,0
{consumergroup=__strimzi-topic-operator-kstreams},1651424017,0
{consumergroup=__strimzi-topic-operator-kstreams},1651424022,0
{consumergroup=__strimzi-topic-operator-kstreams},1651424027,0
{consumergroup=__strimzi-topic-operator-kstreams},1651424032,0
{consumergroup=__strimzi-topic-operator-kstreams},1651424037,0
{consumergroup=__strimzi-topic-operator-kstreams},1651424042,0
{consumergroup=__strimzi-topic-operator-kstreams},1651424047,0
{consumergroup=__strimzi-topic-operator-kstreams},1651424052,0
{consumergroup=__strimzi-topic-operator-kstreams},1651424057,0
{consumergroup=__strimzi-topic-operator-kstreams},1651424062,0
{consumergroup=__strimzi-topic-operator-kstreams},1651424067,0
{consumergroup=__strimzi-topic-operator-kstreams},1651424072,0
{consumergroup=__strimzi-topic-operator-kstreams},1651424077,0
{consumergroup=__strimzi-topic-operator-kstreams},1651424082,0
{consumergroup=__strimzi-topic-operator-kstreams},1651424087,0
{consumergroup=__strimzi-topic-operator-kstreams},1651424092,0
{consumergroup=__strimzi-topic-operator-kstreams},1651424097,0
{consumergroup=__strimzi-topic-operator-kstreams},1651424102,0
{consumergroup=__strimzi-topic-operator-kstreams},1651424107,0
{consumergroup=adapter-service},1651423887,46876
{consumergroup=adapter-service},1651423892,46876
{consumergroup=adapter-service},1651423897,46876
{consumergroup=adapter-service},1651423902,76876
{consumergroup=adapter-service},1651423907,76876
{consumergroup=adapter-service},1651423912,76876
{consumergroup=adapter-service},1651423917,94447
{consumergroup=adapter-service},1651423922,94447
{consumergroup=adapter-service},1651423927,94447
{consumergroup=adapter-service},1651423932,65211
{consumergroup=adapter-service},1651423937,65211
{consumergroup=adapter-service},1651423942,65211
{consumergroup=adapter-service},1651423947,89246
{consumergroup=adapter-service},1651423952,89246
{consumergroup=adapter-service},1651423957,89246
{consumergroup=adapter-service},1651423962,87031
{consumergroup=adapter-service},1651423967,87031
{consumergroup=adapter-service},1651423972,87031
{consumergroup=adapter-service},1651423977,86899
{consumergroup=adapter-service},1651423982,86899
{consumergroup=adapter-service},1651423987,86899
{consumergroup=adapter-service},1651423992,57151
{consumergroup=adapter-service},1651423997,57151
{consumergroup=adapter-service},1651424002,57151
{consumergroup=adapter-service},1651424007,77519
{consumergroup=adapter-service},1651424012,77519
{consumergroup=adapter-service},1651424017,77519
{consumergroup=adapter-service},1651424022,49138
{consumergroup=adapter-service},1651424027,49138
{consumergroup=adapter-service},1651424032,49138
{consumergroup=adapter-service},1651424037,73916
{consumergroup=adapter-service},1651424042,73916
{consumergroup=adapter-service},1651424047,73916
{consumergroup=adapter-service},1651424052,47048
{consumergroup=adapter-service},1651424057,47048
{consumergroup=adapter-service},1651424062,47048
{consumergroup=adapter-service},1651424067,72138
{consumergroup=adapter-service},1651424072,72138
{consumergroup=adapter-service},1651424077,72138
{consumergroup=adapter-service},1651424082,44371
{consumergroup=adapter-service},1651424087,44371
{consumergroup=adapter-service},1651424092,44371
{consumergroup=adapter-service},1651424097,92601
{consumergroup=adapter-service},1651424102,92601
{consumergroup=adapter-service},1651424107,92601
