labels,timestamp,value
{consumergroup=__strimzi-topic-operator-kstreams},1651396633,0
{consumergroup=__strimzi-topic-operator-kstreams},1651396643,17
{consumergroup=__strimzi-topic-operator-kstreams},1651396648,17
{consumergroup=__strimzi-topic-operator-kstreams},1651396653,17
{consumergroup=__strimzi-topic-operator-kstreams},1651396658,0
{consumergroup=__strimzi-topic-operator-kstreams},1651396663,0
{consumergroup=__strimzi-topic-operator-kstreams},1651396668,0
{consumergroup=__strimzi-topic-operator-kstreams},1651396673,0
{consumergroup=__strimzi-topic-operator-kstreams},1651396678,0
{consumergroup=__strimzi-topic-operator-kstreams},1651396683,0
{consumergroup=__strimzi-topic-operator-kstreams},1651396688,0
{consumergroup=__strimzi-topic-operator-kstreams},1651396693,0
{consumergroup=__strimzi-topic-operator-kstreams},1651396698,0
{consumergroup=__strimzi-topic-operator-kstreams},1651396703,0
{consumergroup=__strimzi-topic-operator-kstreams},1651396708,0
{consumergroup=__strimzi-topic-operator-kstreams},1651396713,0
{consumergroup=__strimzi-topic-operator-kstreams},1651396718,0
{consumergroup=__strimzi-topic-operator-kstreams},1651396723,0
{consumergroup=__strimzi-topic-operator-kstreams},1651396728,0
{consumergroup=__strimzi-topic-operator-kstreams},1651396733,0
{consumergroup=__strimzi-topic-operator-kstreams},1651396738,0
{consumergroup=__strimzi-topic-operator-kstreams},1651396743,0
{consumergroup=__strimzi-topic-operator-kstreams},1651396748,0
{consumergroup=__strimzi-topic-operator-kstreams},1651396753,0
{consumergroup=__strimzi-topic-operator-kstreams},1651396758,0
{consumergroup=__strimzi-topic-operator-kstreams},1651396763,0
{consumergroup=__strimzi-topic-operator-kstreams},1651396768,0
{consumergroup=__strimzi-topic-operator-kstreams},1651396773,0
{consumergroup=__strimzi-topic-operator-kstreams},1651396778,0
{consumergroup=__strimzi-topic-operator-kstreams},1651396783,0
{consumergroup=__strimzi-topic-operator-kstreams},1651396788,0
{consumergroup=__strimzi-topic-operator-kstreams},1651396793,0
{consumergroup=__strimzi-topic-operator-kstreams},1651396798,0
{consumergroup=__strimzi-topic-operator-kstreams},1651396803,0
{consumergroup=__strimzi-topic-operator-kstreams},1651396808,0
{consumergroup=__strimzi-topic-operator-kstreams},1651396813,0
{consumergroup=__strimzi-topic-operator-kstreams},1651396818,0
{consumergroup=__strimzi-topic-operator-kstreams},1651396823,0
{consumergroup=__strimzi-topic-operator-kstreams},1651396828,0
{consumergroup=__strimzi-topic-operator-kstreams},1651396833,0
{consumergroup=__strimzi-topic-operator-kstreams},1651396838,0
{consumergroup=__strimzi-topic-operator-kstreams},1651396843,0
{consumergroup=__strimzi-topic-operator-kstreams},1651396848,0
{consumergroup=__strimzi-topic-operator-kstreams},1651396853,0
{consumergroup=__strimzi-topic-operator-kstreams},1651396858,0
{consumergroup=__strimzi-topic-operator-kstreams},1651396863,0
{consumergroup=__strimzi-topic-operator-kstreams},1651396868,0
{consumergroup=__strimzi-topic-operator-kstreams},1651396873,0
{consumergroup=__strimzi-topic-operator-kstreams},1651396878,0
{consumergroup=__strimzi-topic-operator-kstreams},1651396883,0
{consumergroup=__strimzi-topic-operator-kstreams},1651396888,0
{consumergroup=__strimzi-topic-operator-kstreams},1651396893,0
{consumergroup=adapter-service},1651396633,2642200
{consumergroup=adapter-service},1651396673,55890
{consumergroup=adapter-service},1651396678,55890
{consumergroup=adapter-service},1651396683,55890
{consumergroup=adapter-service},1651396688,156302
{consumergroup=adapter-service},1651396693,156302
{consumergroup=adapter-service},1651396698,156302
{consumergroup=adapter-service},1651396703,211518
{consumergroup=adapter-service},1651396708,211518
{consumergroup=adapter-service},1651396713,211518
{consumergroup=adapter-service},1651396718,248257
{consumergroup=adapter-service},1651396723,248257
{consumergroup=adapter-service},1651396728,248257
{consumergroup=adapter-service},1651396733,290892
{consumergroup=adapter-service},1651396738,290892
{consumergroup=adapter-service},1651396743,290892
{consumergroup=adapter-service},1651396748,311181
{consumergroup=adapter-service},1651396753,311181
{consumergroup=adapter-service},1651396758,311181
{consumergroup=adapter-service},1651396763,327654
{consumergroup=adapter-service},1651396768,327654
{consumergroup=adapter-service},1651396773,327654
{consumergroup=adapter-service},1651396778,367650
{consumergroup=adapter-service},1651396783,367650
{consumergroup=adapter-service},1651396788,367650
{consumergroup=adapter-service},1651396793,383815
{consumergroup=adapter-service},1651396798,383815
{consumergroup=adapter-service},1651396803,383815
{consumergroup=adapter-service},1651396808,422918
{consumergroup=adapter-service},1651396813,422918
{consumergroup=adapter-service},1651396818,422918
{consumergroup=adapter-service},1651396823,442989
{consumergroup=adapter-service},1651396828,442989
{consumergroup=adapter-service},1651396833,442989
{consumergroup=adapter-service},1651396838,459946
{consumergroup=adapter-service},1651396843,459946
{consumergroup=adapter-service},1651396848,459946
{consumergroup=adapter-service},1651396853,479909
{consumergroup=adapter-service},1651396858,479909
{consumergroup=adapter-service},1651396863,479909
{consumergroup=adapter-service},1651396868,513889
{consumergroup=adapter-service},1651396873,513889
{consumergroup=adapter-service},1651396878,513889
{consumergroup=adapter-service},1651396883,550611
{consumergroup=adapter-service},1651396888,550611
{consumergroup=adapter-service},1651396893,550611
