labels,timestamp,value
{consumergroup=__strimzi-topic-operator-kstreams},1651425077,13
{consumergroup=__strimzi-topic-operator-kstreams},1651425082,13
{consumergroup=__strimzi-topic-operator-kstreams},1651425087,13
{consumergroup=__strimzi-topic-operator-kstreams},1651425092,0
{consumergroup=__strimzi-topic-operator-kstreams},1651425097,0
{consumergroup=__strimzi-topic-operator-kstreams},1651425102,0
{consumergroup=__strimzi-topic-operator-kstreams},1651425107,0
{consumergroup=__strimzi-topic-operator-kstreams},1651425112,0
{consumergroup=__strimzi-topic-operator-kstreams},1651425117,0
{consumergroup=__strimzi-topic-operator-kstreams},1651425122,0
{consumergroup=__strimzi-topic-operator-kstreams},1651425127,0
{consumergroup=__strimzi-topic-operator-kstreams},1651425132,0
{consumergroup=__strimzi-topic-operator-kstreams},1651425137,0
{consumergroup=__strimzi-topic-operator-kstreams},1651425142,0
{consumergroup=__strimzi-topic-operator-kstreams},1651425147,0
{consumergroup=__strimzi-topic-operator-kstreams},1651425152,0
{consumergroup=__strimzi-topic-operator-kstreams},1651425157,0
{consumergroup=__strimzi-topic-operator-kstreams},1651425162,0
{consumergroup=__strimzi-topic-operator-kstreams},1651425167,0
{consumergroup=__strimzi-topic-operator-kstreams},1651425172,0
{consumergroup=__strimzi-topic-operator-kstreams},1651425177,0
{consumergroup=__strimzi-topic-operator-kstreams},1651425182,0
{consumergroup=__strimzi-topic-operator-kstreams},1651425187,0
{consumergroup=__strimzi-topic-operator-kstreams},1651425192,0
{consumergroup=__strimzi-topic-operator-kstreams},1651425197,0
{consumergroup=__strimzi-topic-operator-kstreams},1651425202,0
{consumergroup=__strimzi-topic-operator-kstreams},1651425207,0
{consumergroup=__strimzi-topic-operator-kstreams},1651425212,0
{consumergroup=__strimzi-topic-operator-kstreams},1651425217,0
{consumergroup=__strimzi-topic-operator-kstreams},1651425222,0
{consumergroup=__strimzi-topic-operator-kstreams},1651425227,0
{consumergroup=__strimzi-topic-operator-kstreams},1651425232,0
{consumergroup=__strimzi-topic-operator-kstreams},1651425237,0
{consumergroup=__strimzi-topic-operator-kstreams},1651425242,0
{consumergroup=__strimzi-topic-operator-kstreams},1651425247,0
{consumergroup=__strimzi-topic-operator-kstreams},1651425252,0
{consumergroup=__strimzi-topic-operator-kstreams},1651425257,0
{consumergroup=__strimzi-topic-operator-kstreams},1651425262,0
{consumergroup=__strimzi-topic-operator-kstreams},1651425267,0
{consumergroup=__strimzi-topic-operator-kstreams},1651425272,0
{consumergroup=__strimzi-topic-operator-kstreams},1651425277,0
{consumergroup=__strimzi-topic-operator-kstreams},1651425282,0
{consumergroup=__strimzi-topic-operator-kstreams},1651425287,0
{consumergroup=__strimzi-topic-operator-kstreams},1651425292,0
{consumergroup=__strimzi-topic-operator-kstreams},1651425297,0
{consumergroup=__strimzi-topic-operator-kstreams},1651425302,0
{consumergroup=__strimzi-topic-operator-kstreams},1651425307,0
{consumergroup=__strimzi-topic-operator-kstreams},1651425312,0
{consumergroup=__strimzi-topic-operator-kstreams},1651425317,0
{consumergroup=__strimzi-topic-operator-kstreams},1651425322,0
{consumergroup=adapter-service},1651425107,183419
{consumergroup=adapter-service},1651425112,183419
{consumergroup=adapter-service},1651425117,183419
{consumergroup=adapter-service},1651425122,178733
{consumergroup=adapter-service},1651425127,178733
{consumergroup=adapter-service},1651425132,178733
{consumergroup=adapter-service},1651425137,154306
{consumergroup=adapter-service},1651425142,154306
{consumergroup=adapter-service},1651425147,154306
{consumergroup=adapter-service},1651425152,195536
{consumergroup=adapter-service},1651425157,195536
{consumergroup=adapter-service},1651425162,195536
{consumergroup=adapter-service},1651425167,204141
{consumergroup=adapter-service},1651425172,204141
{consumergroup=adapter-service},1651425177,204141
{consumergroup=adapter-service},1651425182,171472
{consumergroup=adapter-service},1651425187,171472
{consumergroup=adapter-service},1651425192,171472
{consumergroup=adapter-service},1651425197,211459
{consumergroup=adapter-service},1651425202,211459
{consumergroup=adapter-service},1651425207,211459
{consumergroup=adapter-service},1651425212,188438
{consumergroup=adapter-service},1651425217,188438
{consumergroup=adapter-service},1651425222,188438
{consumergroup=adapter-service},1651425227,122447
{consumergroup=adapter-service},1651425232,122447
{consumergroup=adapter-service},1651425237,122447
{consumergroup=adapter-service},1651425242,74902
{consumergroup=adapter-service},1651425247,74902
{consumergroup=adapter-service},1651425252,74902
{consumergroup=adapter-service},1651425257,72201
{consumergroup=adapter-service},1651425262,72201
{consumergroup=adapter-service},1651425267,72201
{consumergroup=adapter-service},1651425272,71064
{consumergroup=adapter-service},1651425277,71064
{consumergroup=adapter-service},1651425282,71064
{consumergroup=adapter-service},1651425287,78000
{consumergroup=adapter-service},1651425292,78000
{consumergroup=adapter-service},1651425297,78000
{consumergroup=adapter-service},1651425302,76172
{consumergroup=adapter-service},1651425307,76172
{consumergroup=adapter-service},1651425312,76172
{consumergroup=adapter-service},1651425317,77252
{consumergroup=adapter-service},1651425322,77252
