labels,timestamp,value
{consumergroup=__strimzi-topic-operator-kstreams},1651416031,0
{consumergroup=__strimzi-topic-operator-kstreams},1651416036,0
{consumergroup=__strimzi-topic-operator-kstreams},1651416041,0
{consumergroup=__strimzi-topic-operator-kstreams},1651416046,0
{consumergroup=__strimzi-topic-operator-kstreams},1651416051,0
{consumergroup=__strimzi-topic-operator-kstreams},1651416056,0
{consumergroup=__strimzi-topic-operator-kstreams},1651416061,0
{consumergroup=__strimzi-topic-operator-kstreams},1651416066,0
{consumergroup=__strimzi-topic-operator-kstreams},1651416071,0
{consumergroup=__strimzi-topic-operator-kstreams},1651416076,0
{consumergroup=__strimzi-topic-operator-kstreams},1651416081,0
{consumergroup=__strimzi-topic-operator-kstreams},1651416086,0
{consumergroup=__strimzi-topic-operator-kstreams},1651416091,0
{consumergroup=__strimzi-topic-operator-kstreams},1651416096,0
{consumergroup=__strimzi-topic-operator-kstreams},1651416101,0
{consumergroup=__strimzi-topic-operator-kstreams},1651416106,0
{consumergroup=__strimzi-topic-operator-kstreams},1651416111,0
{consumergroup=__strimzi-topic-operator-kstreams},1651416116,0
{consumergroup=__strimzi-topic-operator-kstreams},1651416121,0
{consumergroup=__strimzi-topic-operator-kstreams},1651416126,0
{consumergroup=__strimzi-topic-operator-kstreams},1651416131,0
{consumergroup=__strimzi-topic-operator-kstreams},1651416136,0
{consumergroup=__strimzi-topic-operator-kstreams},1651416141,0
{consumergroup=__strimzi-topic-operator-kstreams},1651416146,0
{consumergroup=__strimzi-topic-operator-kstreams},1651416151,0
{consumergroup=__strimzi-topic-operator-kstreams},1651416156,0
{consumergroup=__strimzi-topic-operator-kstreams},1651416161,0
{consumergroup=__strimzi-topic-operator-kstreams},1651416166,0
{consumergroup=__strimzi-topic-operator-kstreams},1651416171,0
{consumergroup=__strimzi-topic-operator-kstreams},1651416176,0
{consumergroup=__strimzi-topic-operator-kstreams},1651416181,0
{consumergroup=__strimzi-topic-operator-kstreams},1651416186,0
{consumergroup=__strimzi-topic-operator-kstreams},1651416191,0
{consumergroup=__strimzi-topic-operator-kstreams},1651416196,0
{consumergroup=__strimzi-topic-operator-kstreams},1651416201,0
{consumergroup=__strimzi-topic-operator-kstreams},1651416206,0
{consumergroup=__strimzi-topic-operator-kstreams},1651416211,0
{consumergroup=__strimzi-topic-operator-kstreams},1651416216,0
{consumergroup=__strimzi-topic-operator-kstreams},1651416221,0
{consumergroup=__strimzi-topic-operator-kstreams},1651416226,0
{consumergroup=__strimzi-topic-operator-kstreams},1651416231,0
{consumergroup=__strimzi-topic-operator-kstreams},1651416236,0
{consumergroup=__strimzi-topic-operator-kstreams},1651416241,0
{consumergroup=__strimzi-topic-operator-kstreams},1651416246,0
{consumergroup=__strimzi-topic-operator-kstreams},1651416251,0
{consumergroup=__strimzi-topic-operator-kstreams},1651416256,0
{consumergroup=__strimzi-topic-operator-kstreams},1651416261,0
{consumergroup=__strimzi-topic-operator-kstreams},1651416266,0
{consumergroup=__strimzi-topic-operator-kstreams},1651416271,0
{consumergroup=__strimzi-topic-operator-kstreams},1651416276,0
{consumergroup=adapter-service},1651416046,0
{consumergroup=adapter-service},1651416051,0
{consumergroup=adapter-service},1651416056,0
{consumergroup=adapter-service},1651416061,130819
{consumergroup=adapter-service},1651416066,130819
{consumergroup=adapter-service},1651416071,130819
{consumergroup=adapter-service},1651416076,135994
{consumergroup=adapter-service},1651416081,135994
{consumergroup=adapter-service},1651416086,135994
{consumergroup=adapter-service},1651416091,96848
{consumergroup=adapter-service},1651416096,96848
{consumergroup=adapter-service},1651416101,96848
{consumergroup=adapter-service},1651416106,84069
{consumergroup=adapter-service},1651416111,84069
{consumergroup=adapter-service},1651416116,84069
{consumergroup=adapter-service},1651416121,46652
{consumergroup=adapter-service},1651416126,46652
{consumergroup=adapter-service},1651416131,46652
{consumergroup=adapter-service},1651416136,62562
{consumergroup=adapter-service},1651416141,62562
{consumergroup=adapter-service},1651416146,62562
{consumergroup=adapter-service},1651416151,32098
{consumergroup=adapter-service},1651416156,32098
{consumergroup=adapter-service},1651416161,32098
{consumergroup=adapter-service},1651416166,42758
{consumergroup=adapter-service},1651416171,42758
{consumergroup=adapter-service},1651416176,42758
{consumergroup=adapter-service},1651416181,48016
{consumergroup=adapter-service},1651416186,48016
{consumergroup=adapter-service},1651416191,48016
{consumergroup=adapter-service},1651416196,48502
{consumergroup=adapter-service},1651416201,48502
{consumergroup=adapter-service},1651416206,48502
{consumergroup=adapter-service},1651416211,39880
{consumergroup=adapter-service},1651416216,39880
{consumergroup=adapter-service},1651416221,39880
{consumergroup=adapter-service},1651416226,45430
{consumergroup=adapter-service},1651416231,45430
{consumergroup=adapter-service},1651416236,45430
{consumergroup=adapter-service},1651416241,44238
{consumergroup=adapter-service},1651416246,44238
{consumergroup=adapter-service},1651416251,44238
{consumergroup=adapter-service},1651416256,50828
{consumergroup=adapter-service},1651416261,50828
{consumergroup=adapter-service},1651416266,50828
{consumergroup=adapter-service},1651416271,82144
{consumergroup=adapter-service},1651416276,82144
