labels,timestamp,value
{consumergroup=__strimzi-topic-operator-kstreams},1651413056,0
{consumergroup=__strimzi-topic-operator-kstreams},1651413061,0
{consumergroup=__strimzi-topic-operator-kstreams},1651413066,0
{consumergroup=__strimzi-topic-operator-kstreams},1651413071,0
{consumergroup=__strimzi-topic-operator-kstreams},1651413076,0
{consumergroup=__strimzi-topic-operator-kstreams},1651413081,0
{consumergroup=__strimzi-topic-operator-kstreams},1651413086,0
{consumergroup=__strimzi-topic-operator-kstreams},1651413091,0
{consumergroup=__strimzi-topic-operator-kstreams},1651413096,0
{consumergroup=__strimzi-topic-operator-kstreams},1651413101,0
{consumergroup=__strimzi-topic-operator-kstreams},1651413106,0
{consumergroup=__strimzi-topic-operator-kstreams},1651413111,0
{consumergroup=__strimzi-topic-operator-kstreams},1651413116,0
{consumergroup=__strimzi-topic-operator-kstreams},1651413121,0
{consumergroup=__strimzi-topic-operator-kstreams},1651413126,0
{consumergroup=__strimzi-topic-operator-kstreams},1651413131,0
{consumergroup=__strimzi-topic-operator-kstreams},1651413136,0
{consumergroup=__strimzi-topic-operator-kstreams},1651413141,0
{consumergroup=__strimzi-topic-operator-kstreams},1651413146,0
{consumergroup=__strimzi-topic-operator-kstreams},1651413151,0
{consumergroup=__strimzi-topic-operator-kstreams},1651413156,0
{consumergroup=__strimzi-topic-operator-kstreams},1651413161,0
{consumergroup=__strimzi-topic-operator-kstreams},1651413166,0
{consumergroup=__strimzi-topic-operator-kstreams},1651413171,0
{consumergroup=__strimzi-topic-operator-kstreams},1651413176,0
{consumergroup=__strimzi-topic-operator-kstreams},1651413181,0
{consumergroup=__strimzi-topic-operator-kstreams},1651413186,0
{consumergroup=__strimzi-topic-operator-kstreams},1651413191,0
{consumergroup=__strimzi-topic-operator-kstreams},1651413196,0
{consumergroup=__strimzi-topic-operator-kstreams},1651413201,0
{consumergroup=__strimzi-topic-operator-kstreams},1651413206,0
{consumergroup=__strimzi-topic-operator-kstreams},1651413211,0
{consumergroup=__strimzi-topic-operator-kstreams},1651413216,0
{consumergroup=__strimzi-topic-operator-kstreams},1651413221,0
{consumergroup=__strimzi-topic-operator-kstreams},1651413226,0
{consumergroup=__strimzi-topic-operator-kstreams},1651413231,0
{consumergroup=__strimzi-topic-operator-kstreams},1651413236,0
{consumergroup=__strimzi-topic-operator-kstreams},1651413241,0
{consumergroup=__strimzi-topic-operator-kstreams},1651413246,0
{consumergroup=__strimzi-topic-operator-kstreams},1651413251,0
{consumergroup=__strimzi-topic-operator-kstreams},1651413256,0
{consumergroup=__strimzi-topic-operator-kstreams},1651413261,0
{consumergroup=__strimzi-topic-operator-kstreams},1651413266,0
{consumergroup=__strimzi-topic-operator-kstreams},1651413271,0
{consumergroup=__strimzi-topic-operator-kstreams},1651413276,0
{consumergroup=__strimzi-topic-operator-kstreams},1651413281,0
{consumergroup=__strimzi-topic-operator-kstreams},1651413286,0
{consumergroup=__strimzi-topic-operator-kstreams},1651413291,0
{consumergroup=__strimzi-topic-operator-kstreams},1651413296,0
{consumergroup=__strimzi-topic-operator-kstreams},1651413301,0
{consumergroup=adapter-service},1651413071,0
{consumergroup=adapter-service},1651413076,0
{consumergroup=adapter-service},1651413081,0
{consumergroup=adapter-service},1651413086,162408
{consumergroup=adapter-service},1651413091,162408
{consumergroup=adapter-service},1651413096,162408
{consumergroup=adapter-service},1651413101,163168
{consumergroup=adapter-service},1651413106,163168
{consumergroup=adapter-service},1651413111,163168
{consumergroup=adapter-service},1651413116,159158
{consumergroup=adapter-service},1651413121,159158
{consumergroup=adapter-service},1651413126,159158
{consumergroup=adapter-service},1651413131,171801
{consumergroup=adapter-service},1651413136,171801
{consumergroup=adapter-service},1651413141,171801
{consumergroup=adapter-service},1651413146,119272
{consumergroup=adapter-service},1651413151,119272
{consumergroup=adapter-service},1651413156,119272
{consumergroup=adapter-service},1651413161,100369
{consumergroup=adapter-service},1651413166,100369
{consumergroup=adapter-service},1651413171,100369
{consumergroup=adapter-service},1651413176,102654
{consumergroup=adapter-service},1651413181,102654
{consumergroup=adapter-service},1651413186,102654
{consumergroup=adapter-service},1651413191,97642
{consumergroup=adapter-service},1651413196,97642
{consumergroup=adapter-service},1651413201,97642
{consumergroup=adapter-service},1651413206,97711
{consumergroup=adapter-service},1651413211,97711
{consumergroup=adapter-service},1651413216,97711
{consumergroup=adapter-service},1651413221,84745
{consumergroup=adapter-service},1651413226,84745
{consumergroup=adapter-service},1651413231,84745
{consumergroup=adapter-service},1651413236,97726
{consumergroup=adapter-service},1651413241,97726
{consumergroup=adapter-service},1651413246,97726
{consumergroup=adapter-service},1651413251,97333
{consumergroup=adapter-service},1651413256,97333
{consumergroup=adapter-service},1651413261,97333
{consumergroup=adapter-service},1651413266,86806
{consumergroup=adapter-service},1651413271,86806
{consumergroup=adapter-service},1651413276,86806
{consumergroup=adapter-service},1651413281,77639
{consumergroup=adapter-service},1651413286,77639
{consumergroup=adapter-service},1651413291,77639
{consumergroup=adapter-service},1651413296,70833
{consumergroup=adapter-service},1651413301,70833
