labels,timestamp,value
{consumergroup=__strimzi-topic-operator-kstreams},1651411227,7
{consumergroup=__strimzi-topic-operator-kstreams},1651411232,7
{consumergroup=__strimzi-topic-operator-kstreams},1651411237,7
{consumergroup=__strimzi-topic-operator-kstreams},1651411242,30
{consumergroup=__strimzi-topic-operator-kstreams},1651411247,30
{consumergroup=__strimzi-topic-operator-kstreams},1651411252,30
{consumergroup=__strimzi-topic-operator-kstreams},1651411257,0
{consumergroup=__strimzi-topic-operator-kstreams},1651411262,0
{consumergroup=__strimzi-topic-operator-kstreams},1651411267,0
{consumergroup=__strimzi-topic-operator-kstreams},1651411272,0
{consumergroup=__strimzi-topic-operator-kstreams},1651411277,0
{consumergroup=__strimzi-topic-operator-kstreams},1651411282,0
{consumergroup=__strimzi-topic-operator-kstreams},1651411287,0
{consumergroup=__strimzi-topic-operator-kstreams},1651411292,0
{consumergroup=__strimzi-topic-operator-kstreams},1651411297,0
{consumergroup=__strimzi-topic-operator-kstreams},1651411302,0
{consumergroup=__strimzi-topic-operator-kstreams},1651411307,0
{consumergroup=__strimzi-topic-operator-kstreams},1651411312,0
{consumergroup=__strimzi-topic-operator-kstreams},1651411317,0
{consumergroup=__strimzi-topic-operator-kstreams},1651411322,0
{consumergroup=__strimzi-topic-operator-kstreams},1651411327,0
{consumergroup=__strimzi-topic-operator-kstreams},1651411332,0
{consumergroup=__strimzi-topic-operator-kstreams},1651411337,0
{consumergroup=__strimzi-topic-operator-kstreams},1651411342,0
{consumergroup=__strimzi-topic-operator-kstreams},1651411347,0
{consumergroup=__strimzi-topic-operator-kstreams},1651411352,0
{consumergroup=__strimzi-topic-operator-kstreams},1651411357,0
{consumergroup=__strimzi-topic-operator-kstreams},1651411362,0
{consumergroup=__strimzi-topic-operator-kstreams},1651411367,0
{consumergroup=__strimzi-topic-operator-kstreams},1651411372,0
{consumergroup=__strimzi-topic-operator-kstreams},1651411377,0
{consumergroup=__strimzi-topic-operator-kstreams},1651411382,0
{consumergroup=__strimzi-topic-operator-kstreams},1651411387,0
{consumergroup=__strimzi-topic-operator-kstreams},1651411392,0
{consumergroup=__strimzi-topic-operator-kstreams},1651411397,0
{consumergroup=__strimzi-topic-operator-kstreams},1651411402,0
{consumergroup=__strimzi-topic-operator-kstreams},1651411407,0
{consumergroup=__strimzi-topic-operator-kstreams},1651411412,0
{consumergroup=__strimzi-topic-operator-kstreams},1651411417,0
{consumergroup=__strimzi-topic-operator-kstreams},1651411422,0
{consumergroup=__strimzi-topic-operator-kstreams},1651411427,0
{consumergroup=__strimzi-topic-operator-kstreams},1651411432,0
{consumergroup=__strimzi-topic-operator-kstreams},1651411437,0
{consumergroup=__strimzi-topic-operator-kstreams},1651411442,0
{consumergroup=__strimzi-topic-operator-kstreams},1651411447,0
{consumergroup=__strimzi-topic-operator-kstreams},1651411452,0
{consumergroup=__strimzi-topic-operator-kstreams},1651411457,0
{consumergroup=__strimzi-topic-operator-kstreams},1651411462,0
{consumergroup=__strimzi-topic-operator-kstreams},1651411467,0
{consumergroup=__strimzi-topic-operator-kstreams},1651411472,0
{consumergroup=__strimzi-topic-operator-kstreams},1651411477,0
{consumergroup=__strimzi-topic-operator-kstreams},1651411482,0
{consumergroup=adapter-service},1651411227,0
{consumergroup=adapter-service},1651411232,0
{consumergroup=adapter-service},1651411237,0
{consumergroup=adapter-service},1651411257,0
{consumergroup=adapter-service},1651411262,0
{consumergroup=adapter-service},1651411267,0
{consumergroup=adapter-service},1651411272,136348
{consumergroup=adapter-service},1651411277,136348
{consumergroup=adapter-service},1651411282,136348
{consumergroup=adapter-service},1651411287,185254
{consumergroup=adapter-service},1651411292,185254
{consumergroup=adapter-service},1651411297,185254
{consumergroup=adapter-service},1651411302,241984
{consumergroup=adapter-service},1651411307,241984
{consumergroup=adapter-service},1651411312,241984
{consumergroup=adapter-service},1651411317,254505
{consumergroup=adapter-service},1651411322,254505
{consumergroup=adapter-service},1651411327,254505
{consumergroup=adapter-service},1651411332,289149
{consumergroup=adapter-service},1651411337,289149
{consumergroup=adapter-service},1651411342,289149
{consumergroup=adapter-service},1651411347,307872
{consumergroup=adapter-service},1651411352,307872
{consumergroup=adapter-service},1651411357,307872
{consumergroup=adapter-service},1651411362,351170
{consumergroup=adapter-service},1651411367,351170
{consumergroup=adapter-service},1651411372,351170
{consumergroup=adapter-service},1651411377,345666
{consumergroup=adapter-service},1651411382,345666
{consumergroup=adapter-service},1651411387,345666
{consumergroup=adapter-service},1651411392,371593
{consumergroup=adapter-service},1651411397,371593
{consumergroup=adapter-service},1651411402,371593
{consumergroup=adapter-service},1651411407,428438
{consumergroup=adapter-service},1651411412,428438
{consumergroup=adapter-service},1651411417,428438
{consumergroup=adapter-service},1651411422,450071
{consumergroup=adapter-service},1651411427,450071
{consumergroup=adapter-service},1651411432,450071
{consumergroup=adapter-service},1651411437,454305
{consumergroup=adapter-service},1651411442,454305
{consumergroup=adapter-service},1651411447,454305
{consumergroup=adapter-service},1651411452,487085
{consumergroup=adapter-service},1651411457,487085
{consumergroup=adapter-service},1651411462,487085
{consumergroup=adapter-service},1651411467,529153
{consumergroup=adapter-service},1651411472,529153
{consumergroup=adapter-service},1651411477,529153
{consumergroup=adapter-service},1651411482,564645
