labels,timestamp,value
{consumergroup=__strimzi-topic-operator-kstreams},1651407657,18
{consumergroup=__strimzi-topic-operator-kstreams},1651407662,18
{consumergroup=__strimzi-topic-operator-kstreams},1651407667,18
{consumergroup=__strimzi-topic-operator-kstreams},1651407672,0
{consumergroup=__strimzi-topic-operator-kstreams},1651407677,0
{consumergroup=__strimzi-topic-operator-kstreams},1651407682,0
{consumergroup=__strimzi-topic-operator-kstreams},1651407687,0
{consumergroup=__strimzi-topic-operator-kstreams},1651407692,0
{consumergroup=__strimzi-topic-operator-kstreams},1651407697,0
{consumergroup=__strimzi-topic-operator-kstreams},1651407702,0
{consumergroup=__strimzi-topic-operator-kstreams},1651407707,0
{consumergroup=__strimzi-topic-operator-kstreams},1651407712,0
{consumergroup=__strimzi-topic-operator-kstreams},1651407717,0
{consumergroup=__strimzi-topic-operator-kstreams},1651407722,0
{consumergroup=__strimzi-topic-operator-kstreams},1651407727,0
{consumergroup=__strimzi-topic-operator-kstreams},1651407732,0
{consumergroup=__strimzi-topic-operator-kstreams},1651407737,0
{consumergroup=__strimzi-topic-operator-kstreams},1651407742,0
{consumergroup=__strimzi-topic-operator-kstreams},1651407747,0
{consumergroup=__strimzi-topic-operator-kstreams},1651407752,0
{consumergroup=__strimzi-topic-operator-kstreams},1651407757,0
{consumergroup=__strimzi-topic-operator-kstreams},1651407762,0
{consumergroup=__strimzi-topic-operator-kstreams},1651407767,0
{consumergroup=__strimzi-topic-operator-kstreams},1651407772,0
{consumergroup=__strimzi-topic-operator-kstreams},1651407777,0
{consumergroup=__strimzi-topic-operator-kstreams},1651407782,0
{consumergroup=__strimzi-topic-operator-kstreams},1651407787,0
{consumergroup=__strimzi-topic-operator-kstreams},1651407792,0
{consumergroup=__strimzi-topic-operator-kstreams},1651407797,0
{consumergroup=__strimzi-topic-operator-kstreams},1651407802,0
{consumergroup=__strimzi-topic-operator-kstreams},1651407807,0
{consumergroup=__strimzi-topic-operator-kstreams},1651407812,0
{consumergroup=__strimzi-topic-operator-kstreams},1651407817,0
{consumergroup=__strimzi-topic-operator-kstreams},1651407822,0
{consumergroup=__strimzi-topic-operator-kstreams},1651407827,0
{consumergroup=__strimzi-topic-operator-kstreams},1651407832,0
{consumergroup=__strimzi-topic-operator-kstreams},1651407837,0
{consumergroup=__strimzi-topic-operator-kstreams},1651407842,0
{consumergroup=__strimzi-topic-operator-kstreams},1651407847,0
{consumergroup=__strimzi-topic-operator-kstreams},1651407852,0
{consumergroup=__strimzi-topic-operator-kstreams},1651407857,0
{consumergroup=__strimzi-topic-operator-kstreams},1651407862,0
{consumergroup=__strimzi-topic-operator-kstreams},1651407867,0
{consumergroup=__strimzi-topic-operator-kstreams},1651407872,0
{consumergroup=__strimzi-topic-operator-kstreams},1651407877,0
{consumergroup=__strimzi-topic-operator-kstreams},1651407882,0
{consumergroup=__strimzi-topic-operator-kstreams},1651407887,0
{consumergroup=__strimzi-topic-operator-kstreams},1651407892,0
{consumergroup=__strimzi-topic-operator-kstreams},1651407897,0
{consumergroup=__strimzi-topic-operator-kstreams},1651407902,0
{consumergroup=__strimzi-topic-operator-kstreams},1651407907,0
{consumergroup=adapter-service},1651407687,211753
{consumergroup=adapter-service},1651407692,211753
{consumergroup=adapter-service},1651407697,211753
{consumergroup=adapter-service},1651407702,206397
{consumergroup=adapter-service},1651407707,206397
{consumergroup=adapter-service},1651407712,206397
{consumergroup=adapter-service},1651407717,202860
{consumergroup=adapter-service},1651407722,202860
{consumergroup=adapter-service},1651407727,202860
{consumergroup=adapter-service},1651407732,71028
{consumergroup=adapter-service},1651407737,71028
{consumergroup=adapter-service},1651407742,71028
{consumergroup=adapter-service},1651407747,68828
{consumergroup=adapter-service},1651407752,68828
{consumergroup=adapter-service},1651407757,68828
{consumergroup=adapter-service},1651407762,70330
{consumergroup=adapter-service},1651407767,70330
{consumergroup=adapter-service},1651407772,70330
{consumergroup=adapter-service},1651407777,63080
{consumergroup=adapter-service},1651407782,63080
{consumergroup=adapter-service},1651407787,63080
{consumergroup=adapter-service},1651407792,74472
{consumergroup=adapter-service},1651407797,74472
{consumergroup=adapter-service},1651407802,74472
{consumergroup=adapter-service},1651407807,60721
{consumergroup=adapter-service},1651407812,60721
{consumergroup=adapter-service},1651407817,60721
{consumergroup=adapter-service},1651407822,74120
{consumergroup=adapter-service},1651407827,74120
{consumergroup=adapter-service},1651407832,74120
{consumergroup=adapter-service},1651407837,74261
{consumergroup=adapter-service},1651407842,74261
{consumergroup=adapter-service},1651407847,74261
{consumergroup=adapter-service},1651407852,82640
{consumergroup=adapter-service},1651407857,82640
{consumergroup=adapter-service},1651407862,82640
{consumergroup=adapter-service},1651407867,72447
{consumergroup=adapter-service},1651407872,72447
{consumergroup=adapter-service},1651407877,72447
{consumergroup=adapter-service},1651407882,89127
{consumergroup=adapter-service},1651407887,89127
{consumergroup=adapter-service},1651407892,89127
{consumergroup=adapter-service},1651407897,86648
{consumergroup=adapter-service},1651407902,86648
{consumergroup=adapter-service},1651407907,86648
