labels,timestamp,value
{consumergroup=__strimzi-topic-operator-kstreams},1651406140,3
{consumergroup=__strimzi-topic-operator-kstreams},1651406145,3
{consumergroup=__strimzi-topic-operator-kstreams},1651406160,22
{consumergroup=__strimzi-topic-operator-kstreams},1651406165,22
{consumergroup=__strimzi-topic-operator-kstreams},1651406170,22
{consumergroup=__strimzi-topic-operator-kstreams},1651406175,0
{consumergroup=__strimzi-topic-operator-kstreams},1651406180,0
{consumergroup=__strimzi-topic-operator-kstreams},1651406185,0
{consumergroup=__strimzi-topic-operator-kstreams},1651406190,0
{consumergroup=__strimzi-topic-operator-kstreams},1651406195,0
{consumergroup=__strimzi-topic-operator-kstreams},1651406200,0
{consumergroup=__strimzi-topic-operator-kstreams},1651406205,0
{consumergroup=__strimzi-topic-operator-kstreams},1651406210,0
{consumergroup=__strimzi-topic-operator-kstreams},1651406215,0
{consumergroup=__strimzi-topic-operator-kstreams},1651406220,0
{consumergroup=__strimzi-topic-operator-kstreams},1651406225,0
{consumergroup=__strimzi-topic-operator-kstreams},1651406230,0
{consumergroup=__strimzi-topic-operator-kstreams},1651406235,0
{consumergroup=__strimzi-topic-operator-kstreams},1651406240,0
{consumergroup=__strimzi-topic-operator-kstreams},1651406245,0
{consumergroup=__strimzi-topic-operator-kstreams},1651406250,0
{consumergroup=__strimzi-topic-operator-kstreams},1651406255,0
{consumergroup=__strimzi-topic-operator-kstreams},1651406260,0
{consumergroup=__strimzi-topic-operator-kstreams},1651406265,0
{consumergroup=__strimzi-topic-operator-kstreams},1651406270,0
{consumergroup=__strimzi-topic-operator-kstreams},1651406275,0
{consumergroup=__strimzi-topic-operator-kstreams},1651406280,0
{consumergroup=__strimzi-topic-operator-kstreams},1651406285,0
{consumergroup=__strimzi-topic-operator-kstreams},1651406290,0
{consumergroup=__strimzi-topic-operator-kstreams},1651406295,0
{consumergroup=__strimzi-topic-operator-kstreams},1651406300,0
{consumergroup=__strimzi-topic-operator-kstreams},1651406305,0
{consumergroup=__strimzi-topic-operator-kstreams},1651406310,0
{consumergroup=__strimzi-topic-operator-kstreams},1651406315,0
{consumergroup=__strimzi-topic-operator-kstreams},1651406320,0
{consumergroup=__strimzi-topic-operator-kstreams},1651406325,0
{consumergroup=__strimzi-topic-operator-kstreams},1651406330,0
{consumergroup=__strimzi-topic-operator-kstreams},1651406335,0
{consumergroup=__strimzi-topic-operator-kstreams},1651406340,0
{consumergroup=__strimzi-topic-operator-kstreams},1651406345,0
{consumergroup=__strimzi-topic-operator-kstreams},1651406350,0
{consumergroup=__strimzi-topic-operator-kstreams},1651406355,0
{consumergroup=__strimzi-topic-operator-kstreams},1651406360,0
{consumergroup=__strimzi-topic-operator-kstreams},1651406365,0
{consumergroup=__strimzi-topic-operator-kstreams},1651406370,0
{consumergroup=__strimzi-topic-operator-kstreams},1651406375,0
{consumergroup=__strimzi-topic-operator-kstreams},1651406380,0
{consumergroup=__strimzi-topic-operator-kstreams},1651406385,0
{consumergroup=__strimzi-topic-operator-kstreams},1651406390,0
{consumergroup=__strimzi-topic-operator-kstreams},1651406395,0
{consumergroup=__strimzi-topic-operator-kstreams},1651406400,0
{consumergroup=adapter-service},1651406140,0
{consumergroup=adapter-service},1651406145,0
{consumergroup=adapter-service},1651406190,52598
{consumergroup=adapter-service},1651406195,52598
{consumergroup=adapter-service},1651406200,52598
{consumergroup=adapter-service},1651406205,71428
{consumergroup=adapter-service},1651406210,71428
{consumergroup=adapter-service},1651406215,71428
{consumergroup=adapter-service},1651406220,41680
{consumergroup=adapter-service},1651406225,41680
{consumergroup=adapter-service},1651406230,41680
{consumergroup=adapter-service},1651406235,81046
{consumergroup=adapter-service},1651406240,81046
{consumergroup=adapter-service},1651406245,81046
{consumergroup=adapter-service},1651406250,48251
{consumergroup=adapter-service},1651406255,48251
{consumergroup=adapter-service},1651406260,48251
{consumergroup=adapter-service},1651406265,73732
{consumergroup=adapter-service},1651406270,73732
{consumergroup=adapter-service},1651406275,73732
{consumergroup=adapter-service},1651406280,42777
{consumergroup=adapter-service},1651406285,42777
{consumergroup=adapter-service},1651406290,42777
{consumergroup=adapter-service},1651406295,67105
{consumergroup=adapter-service},1651406300,67105
{consumergroup=adapter-service},1651406305,67105
{consumergroup=adapter-service},1651406310,44100
{consumergroup=adapter-service},1651406315,44100
{consumergroup=adapter-service},1651406320,44100
{consumergroup=adapter-service},1651406325,59913
{consumergroup=adapter-service},1651406330,59913
{consumergroup=adapter-service},1651406335,59913
{consumergroup=adapter-service},1651406340,28898
{consumergroup=adapter-service},1651406345,28898
{consumergroup=adapter-service},1651406350,28898
{consumergroup=adapter-service},1651406355,51861
{consumergroup=adapter-service},1651406360,51861
{consumergroup=adapter-service},1651406365,51861
{consumergroup=adapter-service},1651406370,22256
{consumergroup=adapter-service},1651406375,22256
{consumergroup=adapter-service},1651406380,22256
{consumergroup=adapter-service},1651406385,50078
{consumergroup=adapter-service},1651406390,50078
{consumergroup=adapter-service},1651406395,50078
{consumergroup=adapter-service},1651406400,24325
