labels,timestamp,value
{consumergroup=__strimzi-topic-operator-kstreams},1651416323,0
{consumergroup=__strimzi-topic-operator-kstreams},1651416328,0
{consumergroup=__strimzi-topic-operator-kstreams},1651416333,0
{consumergroup=__strimzi-topic-operator-kstreams},1651416338,0
{consumergroup=__strimzi-topic-operator-kstreams},1651416343,0
{consumergroup=__strimzi-topic-operator-kstreams},1651416348,0
{consumergroup=__strimzi-topic-operator-kstreams},1651416353,0
{consumergroup=__strimzi-topic-operator-kstreams},1651416358,0
{consumergroup=__strimzi-topic-operator-kstreams},1651416363,0
{consumergroup=__strimzi-topic-operator-kstreams},1651416368,0
{consumergroup=__strimzi-topic-operator-kstreams},1651416373,0
{consumergroup=__strimzi-topic-operator-kstreams},1651416378,0
{consumergroup=__strimzi-topic-operator-kstreams},1651416383,0
{consumergroup=__strimzi-topic-operator-kstreams},1651416388,0
{consumergroup=__strimzi-topic-operator-kstreams},1651416393,0
{consumergroup=__strimzi-topic-operator-kstreams},1651416398,0
{consumergroup=__strimzi-topic-operator-kstreams},1651416403,0
{consumergroup=__strimzi-topic-operator-kstreams},1651416408,0
{consumergroup=__strimzi-topic-operator-kstreams},1651416413,0
{consumergroup=__strimzi-topic-operator-kstreams},1651416418,0
{consumergroup=__strimzi-topic-operator-kstreams},1651416423,0
{consumergroup=__strimzi-topic-operator-kstreams},1651416428,0
{consumergroup=__strimzi-topic-operator-kstreams},1651416433,0
{consumergroup=__strimzi-topic-operator-kstreams},1651416438,0
{consumergroup=__strimzi-topic-operator-kstreams},1651416443,0
{consumergroup=__strimzi-topic-operator-kstreams},1651416448,0
{consumergroup=__strimzi-topic-operator-kstreams},1651416453,0
{consumergroup=__strimzi-topic-operator-kstreams},1651416458,0
{consumergroup=__strimzi-topic-operator-kstreams},1651416463,0
{consumergroup=__strimzi-topic-operator-kstreams},1651416468,0
{consumergroup=__strimzi-topic-operator-kstreams},1651416473,0
{consumergroup=__strimzi-topic-operator-kstreams},1651416478,0
{consumergroup=__strimzi-topic-operator-kstreams},1651416483,0
{consumergroup=__strimzi-topic-operator-kstreams},1651416488,0
{consumergroup=__strimzi-topic-operator-kstreams},1651416493,0
{consumergroup=__strimzi-topic-operator-kstreams},1651416498,0
{consumergroup=__strimzi-topic-operator-kstreams},1651416503,0
{consumergroup=__strimzi-topic-operator-kstreams},1651416508,0
{consumergroup=__strimzi-topic-operator-kstreams},1651416513,0
{consumergroup=__strimzi-topic-operator-kstreams},1651416518,0
{consumergroup=__strimzi-topic-operator-kstreams},1651416523,0
{consumergroup=__strimzi-topic-operator-kstreams},1651416528,0
{consumergroup=__strimzi-topic-operator-kstreams},1651416533,0
{consumergroup=__strimzi-topic-operator-kstreams},1651416538,0
{consumergroup=__strimzi-topic-operator-kstreams},1651416543,0
{consumergroup=__strimzi-topic-operator-kstreams},1651416548,0
{consumergroup=__strimzi-topic-operator-kstreams},1651416553,0
{consumergroup=__strimzi-topic-operator-kstreams},1651416558,0
{consumergroup=__strimzi-topic-operator-kstreams},1651416563,0
{consumergroup=__strimzi-topic-operator-kstreams},1651416568,0
{consumergroup=__strimzi-topic-operator-kstreams},1651416573,0
{consumergroup=adapter-service},1651416353,160598
{consumergroup=adapter-service},1651416358,160598
{consumergroup=adapter-service},1651416363,160598
{consumergroup=adapter-service},1651416368,95233
{consumergroup=adapter-service},1651416373,95233
{consumergroup=adapter-service},1651416378,95233
{consumergroup=adapter-service},1651416383,83670
{consumergroup=adapter-service},1651416388,83670
{consumergroup=adapter-service},1651416393,83670
{consumergroup=adapter-service},1651416398,43793
{consumergroup=adapter-service},1651416403,43793
{consumergroup=adapter-service},1651416408,43793
{consumergroup=adapter-service},1651416413,49670
{consumergroup=adapter-service},1651416418,49670
{consumergroup=adapter-service},1651416423,49670
{consumergroup=adapter-service},1651416428,49512
{consumergroup=adapter-service},1651416433,49512
{consumergroup=adapter-service},1651416438,49512
{consumergroup=adapter-service},1651416443,47245
{consumergroup=adapter-service},1651416448,47245
{consumergroup=adapter-service},1651416453,47245
{consumergroup=adapter-service},1651416458,71460
{consumergroup=adapter-service},1651416463,71460
{consumergroup=adapter-service},1651416468,71460
{consumergroup=adapter-service},1651416473,60571
{consumergroup=adapter-service},1651416478,60571
{consumergroup=adapter-service},1651416483,60571
{consumergroup=adapter-service},1651416488,61738
{consumergroup=adapter-service},1651416493,61738
{consumergroup=adapter-service},1651416498,61738
{consumergroup=adapter-service},1651416503,44898
{consumergroup=adapter-service},1651416508,44898
{consumergroup=adapter-service},1651416513,44898
{consumergroup=adapter-service},1651416518,57481
{consumergroup=adapter-service},1651416523,57481
{consumergroup=adapter-service},1651416528,57481
{consumergroup=adapter-service},1651416533,57935
{consumergroup=adapter-service},1651416538,57935
{consumergroup=adapter-service},1651416543,57935
{consumergroup=adapter-service},1651416548,59459
{consumergroup=adapter-service},1651416553,59459
{consumergroup=adapter-service},1651416558,59459
{consumergroup=adapter-service},1651416563,52375
{consumergroup=adapter-service},1651416568,52375
{consumergroup=adapter-service},1651416573,52375
