labels,timestamp,value
{consumergroup=__strimzi-topic-operator-kstreams},1651402877,11
{consumergroup=__strimzi-topic-operator-kstreams},1651402882,11
{consumergroup=__strimzi-topic-operator-kstreams},1651402887,11
{consumergroup=__strimzi-topic-operator-kstreams},1651402892,0
{consumergroup=__strimzi-topic-operator-kstreams},1651402897,0
{consumergroup=__strimzi-topic-operator-kstreams},1651402902,0
{consumergroup=__strimzi-topic-operator-kstreams},1651402907,0
{consumergroup=__strimzi-topic-operator-kstreams},1651402912,0
{consumergroup=__strimzi-topic-operator-kstreams},1651402917,0
{consumergroup=__strimzi-topic-operator-kstreams},1651402922,0
{consumergroup=__strimzi-topic-operator-kstreams},1651402927,0
{consumergroup=__strimzi-topic-operator-kstreams},1651402932,0
{consumergroup=__strimzi-topic-operator-kstreams},1651402937,0
{consumergroup=__strimzi-topic-operator-kstreams},1651402942,0
{consumergroup=__strimzi-topic-operator-kstreams},1651402947,0
{consumergroup=__strimzi-topic-operator-kstreams},1651402952,0
{consumergroup=__strimzi-topic-operator-kstreams},1651402957,0
{consumergroup=__strimzi-topic-operator-kstreams},1651402962,0
{consumergroup=__strimzi-topic-operator-kstreams},1651402967,0
{consumergroup=__strimzi-topic-operator-kstreams},1651402972,0
{consumergroup=__strimzi-topic-operator-kstreams},1651402977,0
{consumergroup=__strimzi-topic-operator-kstreams},1651402982,0
{consumergroup=__strimzi-topic-operator-kstreams},1651402987,0
{consumergroup=__strimzi-topic-operator-kstreams},1651402992,0
{consumergroup=__strimzi-topic-operator-kstreams},1651402997,0
{consumergroup=__strimzi-topic-operator-kstreams},1651403002,0
{consumergroup=__strimzi-topic-operator-kstreams},1651403007,0
{consumergroup=__strimzi-topic-operator-kstreams},1651403012,0
{consumergroup=__strimzi-topic-operator-kstreams},1651403017,0
{consumergroup=__strimzi-topic-operator-kstreams},1651403022,0
{consumergroup=__strimzi-topic-operator-kstreams},1651403027,0
{consumergroup=__strimzi-topic-operator-kstreams},1651403032,0
{consumergroup=__strimzi-topic-operator-kstreams},1651403037,0
{consumergroup=__strimzi-topic-operator-kstreams},1651403042,0
{consumergroup=__strimzi-topic-operator-kstreams},1651403047,0
{consumergroup=__strimzi-topic-operator-kstreams},1651403052,0
{consumergroup=__strimzi-topic-operator-kstreams},1651403057,0
{consumergroup=__strimzi-topic-operator-kstreams},1651403062,0
{consumergroup=__strimzi-topic-operator-kstreams},1651403067,0
{consumergroup=__strimzi-topic-operator-kstreams},1651403072,0
{consumergroup=__strimzi-topic-operator-kstreams},1651403077,0
{consumergroup=__strimzi-topic-operator-kstreams},1651403082,0
{consumergroup=__strimzi-topic-operator-kstreams},1651403087,0
{consumergroup=__strimzi-topic-operator-kstreams},1651403092,0
{consumergroup=__strimzi-topic-operator-kstreams},1651403097,0
{consumergroup=__strimzi-topic-operator-kstreams},1651403102,0
{consumergroup=__strimzi-topic-operator-kstreams},1651403107,0
{consumergroup=__strimzi-topic-operator-kstreams},1651403112,0
{consumergroup=__strimzi-topic-operator-kstreams},1651403117,0
{consumergroup=__strimzi-topic-operator-kstreams},1651403122,0
{consumergroup=adapter-service},1651402907,104159
{consumergroup=adapter-service},1651402912,104159
{consumergroup=adapter-service},1651402917,104159
{consumergroup=adapter-service},1651402922,233842
{consumergroup=adapter-service},1651402927,233842
{consumergroup=adapter-service},1651402932,233842
{consumergroup=adapter-service},1651402937,264640
{consumergroup=adapter-service},1651402942,264640
{consumergroup=adapter-service},1651402947,264640
{consumergroup=adapter-service},1651402952,281697
{consumergroup=adapter-service},1651402957,281697
{consumergroup=adapter-service},1651402962,281697
{consumergroup=adapter-service},1651402967,299106
{consumergroup=adapter-service},1651402972,299106
{consumergroup=adapter-service},1651402977,299106
{consumergroup=adapter-service},1651402982,320031
{consumergroup=adapter-service},1651402987,320031
{consumergroup=adapter-service},1651402992,320031
{consumergroup=adapter-service},1651402997,353316
{consumergroup=adapter-service},1651403002,353316
{consumergroup=adapter-service},1651403007,353316
{consumergroup=adapter-service},1651403012,377395
{consumergroup=adapter-service},1651403017,377395
{consumergroup=adapter-service},1651403022,377395
{consumergroup=adapter-service},1651403027,384288
{consumergroup=adapter-service},1651403032,384288
{consumergroup=adapter-service},1651403037,384288
{consumergroup=adapter-service},1651403042,386356
{consumergroup=adapter-service},1651403047,386356
{consumergroup=adapter-service},1651403052,386356
{consumergroup=adapter-service},1651403057,432670
{consumergroup=adapter-service},1651403062,432670
{consumergroup=adapter-service},1651403067,432670
{consumergroup=adapter-service},1651403072,450477
{consumergroup=adapter-service},1651403077,450477
{consumergroup=adapter-service},1651403082,450477
{consumergroup=adapter-service},1651403087,494308
{consumergroup=adapter-service},1651403092,494308
{consumergroup=adapter-service},1651403097,494308
{consumergroup=adapter-service},1651403102,551689
{consumergroup=adapter-service},1651403107,551689
{consumergroup=adapter-service},1651403112,551689
{consumergroup=adapter-service},1651403117,564815
{consumergroup=adapter-service},1651403122,564815
