labels,timestamp,value
{consumergroup=__strimzi-topic-operator-kstreams},1651376882,0
{consumergroup=__strimzi-topic-operator-kstreams},1651376902,11
{consumergroup=__strimzi-topic-operator-kstreams},1651376907,11
{consumergroup=__strimzi-topic-operator-kstreams},1651376912,11
{consumergroup=__strimzi-topic-operator-kstreams},1651376917,11
{consumergroup=__strimzi-topic-operator-kstreams},1651376922,11
{consumergroup=__strimzi-topic-operator-kstreams},1651376927,11
{consumergroup=__strimzi-topic-operator-kstreams},1651376932,0
{consumergroup=__strimzi-topic-operator-kstreams},1651376937,0
{consumergroup=__strimzi-topic-operator-kstreams},1651376942,0
{consumergroup=__strimzi-topic-operator-kstreams},1651376947,0
{consumergroup=__strimzi-topic-operator-kstreams},1651376952,0
{consumergroup=__strimzi-topic-operator-kstreams},1651376957,0
{consumergroup=__strimzi-topic-operator-kstreams},1651376962,0
{consumergroup=__strimzi-topic-operator-kstreams},1651376967,0
{consumergroup=__strimzi-topic-operator-kstreams},1651376972,0
{consumergroup=__strimzi-topic-operator-kstreams},1651376977,0
{consumergroup=__strimzi-topic-operator-kstreams},1651376982,0
{consumergroup=__strimzi-topic-operator-kstreams},1651376987,0
{consumergroup=__strimzi-topic-operator-kstreams},1651376992,0
{consumergroup=__strimzi-topic-operator-kstreams},1651376997,0
{consumergroup=__strimzi-topic-operator-kstreams},1651377002,0
{consumergroup=__strimzi-topic-operator-kstreams},1651377007,0
{consumergroup=__strimzi-topic-operator-kstreams},1651377012,0
{consumergroup=__strimzi-topic-operator-kstreams},1651377017,0
{consumergroup=__strimzi-topic-operator-kstreams},1651377022,0
{consumergroup=__strimzi-topic-operator-kstreams},1651377027,0
{consumergroup=__strimzi-topic-operator-kstreams},1651377032,0
{consumergroup=__strimzi-topic-operator-kstreams},1651377037,0
{consumergroup=__strimzi-topic-operator-kstreams},1651377042,0
{consumergroup=__strimzi-topic-operator-kstreams},1651377047,0
{consumergroup=__strimzi-topic-operator-kstreams},1651377052,0
{consumergroup=__strimzi-topic-operator-kstreams},1651377057,0
{consumergroup=__strimzi-topic-operator-kstreams},1651377062,0
{consumergroup=__strimzi-topic-operator-kstreams},1651377067,0
{consumergroup=__strimzi-topic-operator-kstreams},1651377072,0
{consumergroup=__strimzi-topic-operator-kstreams},1651377077,0
{consumergroup=__strimzi-topic-operator-kstreams},1651377082,0
{consumergroup=__strimzi-topic-operator-kstreams},1651377087,0
{consumergroup=__strimzi-topic-operator-kstreams},1651377092,0
{consumergroup=__strimzi-topic-operator-kstreams},1651377097,0
{consumergroup=__strimzi-topic-operator-kstreams},1651377102,0
{consumergroup=__strimzi-topic-operator-kstreams},1651377107,0
{consumergroup=__strimzi-topic-operator-kstreams},1651377112,0
{consumergroup=__strimzi-topic-operator-kstreams},1651377117,0
{consumergroup=__strimzi-topic-operator-kstreams},1651377122,0
{consumergroup=__strimzi-topic-operator-kstreams},1651377127,0
{consumergroup=__strimzi-topic-operator-kstreams},1651377132,0
{consumergroup=__strimzi-topic-operator-kstreams},1651377137,0
{consumergroup=__strimzi-topic-operator-kstreams},1651377142,0
{consumergroup=adapter-service},1651376882,12873976
{consumergroup=adapter-service},1651376917,6558
{consumergroup=adapter-service},1651376922,6558
{consumergroup=adapter-service},1651376927,6558
{consumergroup=adapter-service},1651376932,499389
{consumergroup=adapter-service},1651376937,499389
{consumergroup=adapter-service},1651376942,499389
{consumergroup=adapter-service},1651376947,2418322
{consumergroup=adapter-service},1651376952,2418322
{consumergroup=adapter-service},1651376957,2418322
{consumergroup=adapter-service},1651376962,3361134
{consumergroup=adapter-service},1651376967,3361134
{consumergroup=adapter-service},1651376972,3361134
{consumergroup=adapter-service},1651376977,4611612
{consumergroup=adapter-service},1651376982,4611612
{consumergroup=adapter-service},1651376987,4611612
{consumergroup=adapter-service},1651376992,5429455
{consumergroup=adapter-service},1651376997,5429455
{consumergroup=adapter-service},1651377002,5429455
{consumergroup=adapter-service},1651377007,5645280
{consumergroup=adapter-service},1651377012,5645280
{consumergroup=adapter-service},1651377017,5645280
{consumergroup=adapter-service},1651377022,6216643
{consumergroup=adapter-service},1651377027,6216643
{consumergroup=adapter-service},1651377032,6216643
{consumergroup=adapter-service},1651377037,6610725
{consumergroup=adapter-service},1651377042,6610725
{consumergroup=adapter-service},1651377047,6610725
{consumergroup=adapter-service},1651377052,6739658
{consumergroup=adapter-service},1651377057,6739658
{consumergroup=adapter-service},1651377062,6739658
{consumergroup=adapter-service},1651377067,7152062
{consumergroup=adapter-service},1651377072,7152062
{consumergroup=adapter-service},1651377077,7152062
{consumergroup=adapter-service},1651377082,7142959
{consumergroup=adapter-service},1651377087,7142959
{consumergroup=adapter-service},1651377092,7142959
{consumergroup=adapter-service},1651377097,7550783
{consumergroup=adapter-service},1651377102,7550783
{consumergroup=adapter-service},1651377107,7550783
{consumergroup=adapter-service},1651377112,7819594
{consumergroup=adapter-service},1651377117,7819594
{consumergroup=adapter-service},1651377122,7819594
{consumergroup=adapter-service},1651377127,8063203
{consumergroup=adapter-service},1651377132,8063203
{consumergroup=adapter-service},1651377137,8063203
{consumergroup=adapter-service},1651377142,8337062
