labels,timestamp,value
{consumergroup=__strimzi-topic-operator-kstreams},1651389466,0
{consumergroup=__strimzi-topic-operator-kstreams},1651389471,0
{consumergroup=__strimzi-topic-operator-kstreams},1651389476,0
{consumergroup=__strimzi-topic-operator-kstreams},1651389481,0
{consumergroup=__strimzi-topic-operator-kstreams},1651389486,0
{consumergroup=__strimzi-topic-operator-kstreams},1651389491,0
{consumergroup=__strimzi-topic-operator-kstreams},1651389496,0
{consumergroup=__strimzi-topic-operator-kstreams},1651389501,0
{consumergroup=__strimzi-topic-operator-kstreams},1651389506,0
{consumergroup=__strimzi-topic-operator-kstreams},1651389511,0
{consumergroup=__strimzi-topic-operator-kstreams},1651389516,0
{consumergroup=__strimzi-topic-operator-kstreams},1651389521,0
{consumergroup=__strimzi-topic-operator-kstreams},1651389526,0
{consumergroup=__strimzi-topic-operator-kstreams},1651389531,0
{consumergroup=__strimzi-topic-operator-kstreams},1651389536,0
{consumergroup=__strimzi-topic-operator-kstreams},1651389541,0
{consumergroup=__strimzi-topic-operator-kstreams},1651389546,0
{consumergroup=__strimzi-topic-operator-kstreams},1651389551,0
{consumergroup=__strimzi-topic-operator-kstreams},1651389556,0
{consumergroup=__strimzi-topic-operator-kstreams},1651389561,0
{consumergroup=__strimzi-topic-operator-kstreams},1651389566,0
{consumergroup=__strimzi-topic-operator-kstreams},1651389571,0
{consumergroup=__strimzi-topic-operator-kstreams},1651389576,0
{consumergroup=__strimzi-topic-operator-kstreams},1651389581,0
{consumergroup=__strimzi-topic-operator-kstreams},1651389586,0
{consumergroup=__strimzi-topic-operator-kstreams},1651389591,0
{consumergroup=__strimzi-topic-operator-kstreams},1651389596,0
{consumergroup=__strimzi-topic-operator-kstreams},1651389601,0
{consumergroup=__strimzi-topic-operator-kstreams},1651389606,0
{consumergroup=__strimzi-topic-operator-kstreams},1651389611,0
{consumergroup=__strimzi-topic-operator-kstreams},1651389616,0
{consumergroup=__strimzi-topic-operator-kstreams},1651389621,0
{consumergroup=__strimzi-topic-operator-kstreams},1651389626,0
{consumergroup=__strimzi-topic-operator-kstreams},1651389631,0
{consumergroup=__strimzi-topic-operator-kstreams},1651389636,0
{consumergroup=__strimzi-topic-operator-kstreams},1651389641,0
{consumergroup=__strimzi-topic-operator-kstreams},1651389646,0
{consumergroup=__strimzi-topic-operator-kstreams},1651389651,0
{consumergroup=__strimzi-topic-operator-kstreams},1651389656,0
{consumergroup=__strimzi-topic-operator-kstreams},1651389661,0
{consumergroup=__strimzi-topic-operator-kstreams},1651389666,0
{consumergroup=__strimzi-topic-operator-kstreams},1651389671,0
{consumergroup=__strimzi-topic-operator-kstreams},1651389676,0
{consumergroup=__strimzi-topic-operator-kstreams},1651389681,0
{consumergroup=__strimzi-topic-operator-kstreams},1651389686,0
{consumergroup=__strimzi-topic-operator-kstreams},1651389691,0
{consumergroup=__strimzi-topic-operator-kstreams},1651389696,0
{consumergroup=__strimzi-topic-operator-kstreams},1651389701,0
{consumergroup=__strimzi-topic-operator-kstreams},1651389706,0
{consumergroup=__strimzi-topic-operator-kstreams},1651389711,0
{consumergroup=__strimzi-topic-operator-kstreams},1651389716,0
{consumergroup=adapter-service},1651389496,944311
{consumergroup=adapter-service},1651389501,944311
{consumergroup=adapter-service},1651389506,944311
{consumergroup=adapter-service},1651389511,2123740
{consumergroup=adapter-service},1651389516,2123740
{consumergroup=adapter-service},1651389521,2123740
{consumergroup=adapter-service},1651389526,3045672
{consumergroup=adapter-service},1651389531,3045672
{consumergroup=adapter-service},1651389536,3045672
{consumergroup=adapter-service},1651389541,3933257
{consumergroup=adapter-service},1651389546,3933257
{consumergroup=adapter-service},1651389551,3933257
{consumergroup=adapter-service},1651389556,4649952
{consumergroup=adapter-service},1651389561,4649952
{consumergroup=adapter-service},1651389566,4649952
{consumergroup=adapter-service},1651389571,5028700
{consumergroup=adapter-service},1651389576,5028700
{consumergroup=adapter-service},1651389581,5028700
{consumergroup=adapter-service},1651389586,5250959
{consumergroup=adapter-service},1651389591,5250959
{consumergroup=adapter-service},1651389596,5250959
{consumergroup=adapter-service},1651389601,5368760
{consumergroup=adapter-service},1651389606,5368760
{consumergroup=adapter-service},1651389611,5368760
{consumergroup=adapter-service},1651389616,5463051
{consumergroup=adapter-service},1651389621,5463051
{consumergroup=adapter-service},1651389626,5463051
{consumergroup=adapter-service},1651389631,5487644
{consumergroup=adapter-service},1651389636,5487644
{consumergroup=adapter-service},1651389641,5487644
{consumergroup=adapter-service},1651389646,5618085
{consumergroup=adapter-service},1651389651,5618085
{consumergroup=adapter-service},1651389656,5618085
{consumergroup=adapter-service},1651389661,5665524
{consumergroup=adapter-service},1651389666,5665524
{consumergroup=adapter-service},1651389671,5665524
{consumergroup=adapter-service},1651389676,5789440
{consumergroup=adapter-service},1651389681,5789440
{consumergroup=adapter-service},1651389686,5789440
{consumergroup=adapter-service},1651389691,5806621
{consumergroup=adapter-service},1651389696,5806621
{consumergroup=adapter-service},1651389701,5806621
{consumergroup=adapter-service},1651389706,5943405
{consumergroup=adapter-service},1651389711,5943405
{consumergroup=adapter-service},1651389716,5943405
