labels,timestamp,value
{consumergroup=__strimzi-topic-operator-kstreams},1651379896,0
{consumergroup=__strimzi-topic-operator-kstreams},1651379901,0
{consumergroup=__strimzi-topic-operator-kstreams},1651379906,0
{consumergroup=__strimzi-topic-operator-kstreams},1651379911,0
{consumergroup=__strimzi-topic-operator-kstreams},1651379916,0
{consumergroup=__strimzi-topic-operator-kstreams},1651379921,0
{consumergroup=__strimzi-topic-operator-kstreams},1651379926,0
{consumergroup=__strimzi-topic-operator-kstreams},1651379931,0
{consumergroup=__strimzi-topic-operator-kstreams},1651379936,0
{consumergroup=__strimzi-topic-operator-kstreams},1651379941,0
{consumergroup=__strimzi-topic-operator-kstreams},1651379946,0
{consumergroup=__strimzi-topic-operator-kstreams},1651379951,0
{consumergroup=__strimzi-topic-operator-kstreams},1651379956,0
{consumergroup=__strimzi-topic-operator-kstreams},1651379961,0
{consumergroup=__strimzi-topic-operator-kstreams},1651379966,0
{consumergroup=__strimzi-topic-operator-kstreams},1651379971,0
{consumergroup=__strimzi-topic-operator-kstreams},1651379976,0
{consumergroup=__strimzi-topic-operator-kstreams},1651379981,0
{consumergroup=__strimzi-topic-operator-kstreams},1651379986,0
{consumergroup=__strimzi-topic-operator-kstreams},1651379991,0
{consumergroup=__strimzi-topic-operator-kstreams},1651379996,0
{consumergroup=__strimzi-topic-operator-kstreams},1651380001,0
{consumergroup=__strimzi-topic-operator-kstreams},1651380006,0
{consumergroup=__strimzi-topic-operator-kstreams},1651380011,0
{consumergroup=__strimzi-topic-operator-kstreams},1651380016,0
{consumergroup=__strimzi-topic-operator-kstreams},1651380021,0
{consumergroup=__strimzi-topic-operator-kstreams},1651380026,0
{consumergroup=__strimzi-topic-operator-kstreams},1651380031,0
{consumergroup=__strimzi-topic-operator-kstreams},1651380036,0
{consumergroup=__strimzi-topic-operator-kstreams},1651380041,0
{consumergroup=__strimzi-topic-operator-kstreams},1651380046,0
{consumergroup=__strimzi-topic-operator-kstreams},1651380051,0
{consumergroup=__strimzi-topic-operator-kstreams},1651380056,0
{consumergroup=__strimzi-topic-operator-kstreams},1651380061,0
{consumergroup=__strimzi-topic-operator-kstreams},1651380066,0
{consumergroup=__strimzi-topic-operator-kstreams},1651380071,0
{consumergroup=__strimzi-topic-operator-kstreams},1651380076,0
{consumergroup=__strimzi-topic-operator-kstreams},1651380081,0
{consumergroup=__strimzi-topic-operator-kstreams},1651380086,0
{consumergroup=__strimzi-topic-operator-kstreams},1651380091,0
{consumergroup=__strimzi-topic-operator-kstreams},1651380096,0
{consumergroup=__strimzi-topic-operator-kstreams},1651380101,0
{consumergroup=__strimzi-topic-operator-kstreams},1651380106,0
{consumergroup=__strimzi-topic-operator-kstreams},1651380111,0
{consumergroup=__strimzi-topic-operator-kstreams},1651380116,0
{consumergroup=__strimzi-topic-operator-kstreams},1651380121,0
{consumergroup=__strimzi-topic-operator-kstreams},1651380126,0
{consumergroup=__strimzi-topic-operator-kstreams},1651380131,0
{consumergroup=__strimzi-topic-operator-kstreams},1651380136,0
{consumergroup=__strimzi-topic-operator-kstreams},1651380141,0
{consumergroup=__strimzi-topic-operator-kstreams},1651380146,0
{consumergroup=adapter-service},1651379926,795318
{consumergroup=adapter-service},1651379931,795318
{consumergroup=adapter-service},1651379936,795318
{consumergroup=adapter-service},1651379941,2398093
{consumergroup=adapter-service},1651379946,2398093
{consumergroup=adapter-service},1651379951,2398093
{consumergroup=adapter-service},1651379956,3568717
{consumergroup=adapter-service},1651379961,3568717
{consumergroup=adapter-service},1651379966,3568717
{consumergroup=adapter-service},1651379971,4343085
{consumergroup=adapter-service},1651379976,4343085
{consumergroup=adapter-service},1651379981,4343085
{consumergroup=adapter-service},1651379986,4889345
{consumergroup=adapter-service},1651379991,4889345
{consumergroup=adapter-service},1651379996,4889345
{consumergroup=adapter-service},1651380001,5108139
{consumergroup=adapter-service},1651380006,5108139
{consumergroup=adapter-service},1651380011,5108139
{consumergroup=adapter-service},1651380016,5316431
{consumergroup=adapter-service},1651380021,5316431
{consumergroup=adapter-service},1651380026,5316431
{consumergroup=adapter-service},1651380031,5377812
{consumergroup=adapter-service},1651380036,5377812
{consumergroup=adapter-service},1651380041,5377812
{consumergroup=adapter-service},1651380046,5211952
{consumergroup=adapter-service},1651380051,5211952
{consumergroup=adapter-service},1651380056,5211952
{consumergroup=adapter-service},1651380061,5075962
{consumergroup=adapter-service},1651380066,5075962
{consumergroup=adapter-service},1651380071,5075962
{consumergroup=adapter-service},1651380076,5263295
{consumergroup=adapter-service},1651380081,5263295
{consumergroup=adapter-service},1651380086,5263295
{consumergroup=adapter-service},1651380091,4980602
{consumergroup=adapter-service},1651380096,4980602
{consumergroup=adapter-service},1651380101,4980602
{consumergroup=adapter-service},1651380106,4854272
{consumergroup=adapter-service},1651380111,4854272
{consumergroup=adapter-service},1651380116,4854272
{consumergroup=adapter-service},1651380121,4845507
{consumergroup=adapter-service},1651380126,4845507
{consumergroup=adapter-service},1651380131,4845507
{consumergroup=adapter-service},1651380136,4797080
{consumergroup=adapter-service},1651380141,4797080
{consumergroup=adapter-service},1651380146,4797080
