labels,timestamp,value
{consumergroup=__strimzi-topic-operator-kstreams},1651381413,12
{consumergroup=__strimzi-topic-operator-kstreams},1651381418,12
{consumergroup=__strimzi-topic-operator-kstreams},1651381423,12
{consumergroup=__strimzi-topic-operator-kstreams},1651381428,14
{consumergroup=__strimzi-topic-operator-kstreams},1651381433,14
{consumergroup=__strimzi-topic-operator-kstreams},1651381438,14
{consumergroup=__strimzi-topic-operator-kstreams},1651381443,0
{consumergroup=__strimzi-topic-operator-kstreams},1651381448,0
{consumergroup=__strimzi-topic-operator-kstreams},1651381453,0
{consumergroup=__strimzi-topic-operator-kstreams},1651381458,0
{consumergroup=__strimzi-topic-operator-kstreams},1651381463,0
{consumergroup=__strimzi-topic-operator-kstreams},1651381468,0
{consumergroup=__strimzi-topic-operator-kstreams},1651381473,0
{consumergroup=__strimzi-topic-operator-kstreams},1651381478,0
{consumergroup=__strimzi-topic-operator-kstreams},1651381483,0
{consumergroup=__strimzi-topic-operator-kstreams},1651381488,0
{consumergroup=__strimzi-topic-operator-kstreams},1651381493,0
{consumergroup=__strimzi-topic-operator-kstreams},1651381498,0
{consumergroup=__strimzi-topic-operator-kstreams},1651381503,0
{consumergroup=__strimzi-topic-operator-kstreams},1651381508,0
{consumergroup=__strimzi-topic-operator-kstreams},1651381513,0
{consumergroup=__strimzi-topic-operator-kstreams},1651381518,0
{consumergroup=__strimzi-topic-operator-kstreams},1651381523,0
{consumergroup=__strimzi-topic-operator-kstreams},1651381528,0
{consumergroup=__strimzi-topic-operator-kstreams},1651381533,0
{consumergroup=__strimzi-topic-operator-kstreams},1651381538,0
{consumergroup=__strimzi-topic-operator-kstreams},1651381543,0
{consumergroup=__strimzi-topic-operator-kstreams},1651381548,0
{consumergroup=__strimzi-topic-operator-kstreams},1651381553,0
{consumergroup=__strimzi-topic-operator-kstreams},1651381558,0
{consumergroup=__strimzi-topic-operator-kstreams},1651381563,0
{consumergroup=__strimzi-topic-operator-kstreams},1651381568,0
{consumergroup=__strimzi-topic-operator-kstreams},1651381573,0
{consumergroup=__strimzi-topic-operator-kstreams},1651381578,0
{consumergroup=__strimzi-topic-operator-kstreams},1651381583,0
{consumergroup=__strimzi-topic-operator-kstreams},1651381588,0
{consumergroup=__strimzi-topic-operator-kstreams},1651381593,0
{consumergroup=__strimzi-topic-operator-kstreams},1651381598,0
{consumergroup=__strimzi-topic-operator-kstreams},1651381603,0
{consumergroup=__strimzi-topic-operator-kstreams},1651381608,0
{consumergroup=__strimzi-topic-operator-kstreams},1651381613,0
{consumergroup=__strimzi-topic-operator-kstreams},1651381618,0
{consumergroup=__strimzi-topic-operator-kstreams},1651381623,0
{consumergroup=__strimzi-topic-operator-kstreams},1651381628,0
{consumergroup=__strimzi-topic-operator-kstreams},1651381633,0
{consumergroup=__strimzi-topic-operator-kstreams},1651381638,0
{consumergroup=__strimzi-topic-operator-kstreams},1651381643,0
{consumergroup=__strimzi-topic-operator-kstreams},1651381648,0
{consumergroup=__strimzi-topic-operator-kstreams},1651381653,0
{consumergroup=__strimzi-topic-operator-kstreams},1651381658,0
{consumergroup=__strimzi-topic-operator-kstreams},1651381663,0
{consumergroup=adapter-service},1651381443,361532
{consumergroup=adapter-service},1651381448,361532
{consumergroup=adapter-service},1651381453,361532
{consumergroup=adapter-service},1651381458,2392813
{consumergroup=adapter-service},1651381463,2392813
{consumergroup=adapter-service},1651381468,2392813
{consumergroup=adapter-service},1651381473,3480917
{consumergroup=adapter-service},1651381478,3480917
{consumergroup=adapter-service},1651381483,3480917
{consumergroup=adapter-service},1651381488,4356872
{consumergroup=adapter-service},1651381493,4356872
{consumergroup=adapter-service},1651381498,4356872
{consumergroup=adapter-service},1651381503,4954547
{consumergroup=adapter-service},1651381508,4954547
{consumergroup=adapter-service},1651381513,4954547
{consumergroup=adapter-service},1651381518,5318945
{consumergroup=adapter-service},1651381523,5318945
{consumergroup=adapter-service},1651381528,5318945
{consumergroup=adapter-service},1651381533,5697457
{consumergroup=adapter-service},1651381538,5697457
{consumergroup=adapter-service},1651381543,5697457
{consumergroup=adapter-service},1651381548,5712443
{consumergroup=adapter-service},1651381553,5712443
{consumergroup=adapter-service},1651381558,5712443
{consumergroup=adapter-service},1651381563,5930989
{consumergroup=adapter-service},1651381568,5930989
{consumergroup=adapter-service},1651381573,5930989
{consumergroup=adapter-service},1651381578,6005152
{consumergroup=adapter-service},1651381583,6005152
{consumergroup=adapter-service},1651381588,6005152
{consumergroup=adapter-service},1651381593,6094607
{consumergroup=adapter-service},1651381598,6094607
{consumergroup=adapter-service},1651381603,6094607
{consumergroup=adapter-service},1651381608,6258858
{consumergroup=adapter-service},1651381613,6258858
{consumergroup=adapter-service},1651381618,6258858
{consumergroup=adapter-service},1651381623,6472998
{consumergroup=adapter-service},1651381628,6472998
{consumergroup=adapter-service},1651381633,6472998
{consumergroup=adapter-service},1651381638,6656507
{consumergroup=adapter-service},1651381643,6656507
{consumergroup=adapter-service},1651381648,6656507
{consumergroup=adapter-service},1651381653,6782991
{consumergroup=adapter-service},1651381658,6782991
{consumergroup=adapter-service},1651381663,6782991
