labels,timestamp,value
{consumergroup=__strimzi-topic-operator-kstreams},1651378981,14
{consumergroup=__strimzi-topic-operator-kstreams},1651378986,14
{consumergroup=__strimzi-topic-operator-kstreams},1651378991,14
{consumergroup=__strimzi-topic-operator-kstreams},1651378996,0
{consumergroup=__strimzi-topic-operator-kstreams},1651379001,0
{consumergroup=__strimzi-topic-operator-kstreams},1651379006,0
{consumergroup=__strimzi-topic-operator-kstreams},1651379011,0
{consumergroup=__strimzi-topic-operator-kstreams},1651379016,0
{consumergroup=__strimzi-topic-operator-kstreams},1651379021,0
{consumergroup=__strimzi-topic-operator-kstreams},1651379026,0
{consumergroup=__strimzi-topic-operator-kstreams},1651379031,0
{consumergroup=__strimzi-topic-operator-kstreams},1651379036,0
{consumergroup=__strimzi-topic-operator-kstreams},1651379041,0
{consumergroup=__strimzi-topic-operator-kstreams},1651379046,0
{consumergroup=__strimzi-topic-operator-kstreams},1651379051,0
{consumergroup=__strimzi-topic-operator-kstreams},1651379056,0
{consumergroup=__strimzi-topic-operator-kstreams},1651379061,0
{consumergroup=__strimzi-topic-operator-kstreams},1651379066,0
{consumergroup=__strimzi-topic-operator-kstreams},1651379071,0
{consumergroup=__strimzi-topic-operator-kstreams},1651379076,0
{consumergroup=__strimzi-topic-operator-kstreams},1651379081,0
{consumergroup=__strimzi-topic-operator-kstreams},1651379086,0
{consumergroup=__strimzi-topic-operator-kstreams},1651379091,0
{consumergroup=__strimzi-topic-operator-kstreams},1651379096,0
{consumergroup=__strimzi-topic-operator-kstreams},1651379101,0
{consumergroup=__strimzi-topic-operator-kstreams},1651379106,0
{consumergroup=__strimzi-topic-operator-kstreams},1651379111,0
{consumergroup=__strimzi-topic-operator-kstreams},1651379116,0
{consumergroup=__strimzi-topic-operator-kstreams},1651379121,0
{consumergroup=__strimzi-topic-operator-kstreams},1651379126,0
{consumergroup=__strimzi-topic-operator-kstreams},1651379131,0
{consumergroup=__strimzi-topic-operator-kstreams},1651379136,0
{consumergroup=__strimzi-topic-operator-kstreams},1651379141,0
{consumergroup=__strimzi-topic-operator-kstreams},1651379146,0
{consumergroup=__strimzi-topic-operator-kstreams},1651379151,0
{consumergroup=__strimzi-topic-operator-kstreams},1651379156,0
{consumergroup=__strimzi-topic-operator-kstreams},1651379161,0
{consumergroup=__strimzi-topic-operator-kstreams},1651379166,0
{consumergroup=__strimzi-topic-operator-kstreams},1651379171,0
{consumergroup=__strimzi-topic-operator-kstreams},1651379176,0
{consumergroup=__strimzi-topic-operator-kstreams},1651379181,0
{consumergroup=__strimzi-topic-operator-kstreams},1651379186,0
{consumergroup=__strimzi-topic-operator-kstreams},1651379191,0
{consumergroup=__strimzi-topic-operator-kstreams},1651379196,0
{consumergroup=__strimzi-topic-operator-kstreams},1651379201,0
{consumergroup=__strimzi-topic-operator-kstreams},1651379206,0
{consumergroup=__strimzi-topic-operator-kstreams},1651379211,0
{consumergroup=__strimzi-topic-operator-kstreams},1651379216,0
{consumergroup=__strimzi-topic-operator-kstreams},1651379221,0
{consumergroup=__strimzi-topic-operator-kstreams},1651379226,0
{consumergroup=__strimzi-topic-operator-kstreams},1651379231,0
{consumergroup=__strimzi-topic-operator-kstreams},1651379236,0
{consumergroup=adapter-service},1651379011,205696
{consumergroup=adapter-service},1651379016,205696
{consumergroup=adapter-service},1651379021,205696
{consumergroup=adapter-service},1651379026,1232609
{consumergroup=adapter-service},1651379031,1232609
{consumergroup=adapter-service},1651379036,1232609
{consumergroup=adapter-service},1651379041,1595391
{consumergroup=adapter-service},1651379046,1595391
{consumergroup=adapter-service},1651379051,1595391
{consumergroup=adapter-service},1651379056,1689998
{consumergroup=adapter-service},1651379061,1689998
{consumergroup=adapter-service},1651379066,1689998
{consumergroup=adapter-service},1651379071,1588659
{consumergroup=adapter-service},1651379076,1588659
{consumergroup=adapter-service},1651379081,1588659
{consumergroup=adapter-service},1651379086,1195284
{consumergroup=adapter-service},1651379091,1195284
{consumergroup=adapter-service},1651379096,1195284
{consumergroup=adapter-service},1651379101,921653
{consumergroup=adapter-service},1651379106,921653
{consumergroup=adapter-service},1651379111,921653
{consumergroup=adapter-service},1651379116,673539
{consumergroup=adapter-service},1651379121,673539
{consumergroup=adapter-service},1651379126,673539
{consumergroup=adapter-service},1651379131,471478
{consumergroup=adapter-service},1651379136,471478
{consumergroup=adapter-service},1651379141,471478
{consumergroup=adapter-service},1651379146,344504
{consumergroup=adapter-service},1651379151,344504
{consumergroup=adapter-service},1651379156,344504
{consumergroup=adapter-service},1651379161,297875
{consumergroup=adapter-service},1651379166,297875
{consumergroup=adapter-service},1651379171,297875
{consumergroup=adapter-service},1651379176,280554
{consumergroup=adapter-service},1651379181,280554
{consumergroup=adapter-service},1651379186,280554
{consumergroup=adapter-service},1651379191,197785
{consumergroup=adapter-service},1651379196,197785
{consumergroup=adapter-service},1651379201,197785
{consumergroup=adapter-service},1651379206,236455
{consumergroup=adapter-service},1651379211,236455
{consumergroup=adapter-service},1651379216,236455
{consumergroup=adapter-service},1651379221,284771
{consumergroup=adapter-service},1651379226,284771
{consumergroup=adapter-service},1651379231,284771
{consumergroup=adapter-service},1651379236,216850
