labels,timestamp,value
{consumergroup=__strimzi-topic-operator-kstreams},1651394861,13
{consumergroup=__strimzi-topic-operator-kstreams},1651394866,13
{consumergroup=__strimzi-topic-operator-kstreams},1651394871,13
{consumergroup=__strimzi-topic-operator-kstreams},1651394876,13
{consumergroup=__strimzi-topic-operator-kstreams},1651394881,13
{consumergroup=__strimzi-topic-operator-kstreams},1651394886,13
{consumergroup=__strimzi-topic-operator-kstreams},1651394891,0
{consumergroup=__strimzi-topic-operator-kstreams},1651394896,0
{consumergroup=__strimzi-topic-operator-kstreams},1651394901,0
{consumergroup=__strimzi-topic-operator-kstreams},1651394906,0
{consumergroup=__strimzi-topic-operator-kstreams},1651394911,0
{consumergroup=__strimzi-topic-operator-kstreams},1651394916,0
{consumergroup=__strimzi-topic-operator-kstreams},1651394921,0
{consumergroup=__strimzi-topic-operator-kstreams},1651394926,0
{consumergroup=__strimzi-topic-operator-kstreams},1651394931,0
{consumergroup=__strimzi-topic-operator-kstreams},1651394936,0
{consumergroup=__strimzi-topic-operator-kstreams},1651394941,0
{consumergroup=__strimzi-topic-operator-kstreams},1651394946,0
{consumergroup=__strimzi-topic-operator-kstreams},1651394951,0
{consumergroup=__strimzi-topic-operator-kstreams},1651394956,0
{consumergroup=__strimzi-topic-operator-kstreams},1651394961,0
{consumergroup=__strimzi-topic-operator-kstreams},1651394966,0
{consumergroup=__strimzi-topic-operator-kstreams},1651394971,0
{consumergroup=__strimzi-topic-operator-kstreams},1651394976,0
{consumergroup=__strimzi-topic-operator-kstreams},1651394981,0
{consumergroup=__strimzi-topic-operator-kstreams},1651394986,0
{consumergroup=__strimzi-topic-operator-kstreams},1651394991,0
{consumergroup=__strimzi-topic-operator-kstreams},1651394996,0
{consumergroup=__strimzi-topic-operator-kstreams},1651395001,0
{consumergroup=__strimzi-topic-operator-kstreams},1651395006,0
{consumergroup=__strimzi-topic-operator-kstreams},1651395011,0
{consumergroup=__strimzi-topic-operator-kstreams},1651395016,0
{consumergroup=__strimzi-topic-operator-kstreams},1651395021,0
{consumergroup=__strimzi-topic-operator-kstreams},1651395026,0
{consumergroup=__strimzi-topic-operator-kstreams},1651395031,0
{consumergroup=__strimzi-topic-operator-kstreams},1651395036,0
{consumergroup=__strimzi-topic-operator-kstreams},1651395041,0
{consumergroup=__strimzi-topic-operator-kstreams},1651395046,0
{consumergroup=__strimzi-topic-operator-kstreams},1651395051,0
{consumergroup=__strimzi-topic-operator-kstreams},1651395056,0
{consumergroup=__strimzi-topic-operator-kstreams},1651395061,0
{consumergroup=__strimzi-topic-operator-kstreams},1651395066,0
{consumergroup=__strimzi-topic-operator-kstreams},1651395071,0
{consumergroup=__strimzi-topic-operator-kstreams},1651395076,0
{consumergroup=__strimzi-topic-operator-kstreams},1651395081,0
{consumergroup=__strimzi-topic-operator-kstreams},1651395086,0
{consumergroup=__strimzi-topic-operator-kstreams},1651395091,0
{consumergroup=__strimzi-topic-operator-kstreams},1651395096,0
{consumergroup=__strimzi-topic-operator-kstreams},1651395101,0
{consumergroup=__strimzi-topic-operator-kstreams},1651395106,0
{consumergroup=__strimzi-topic-operator-kstreams},1651395111,0
{consumergroup=__strimzi-topic-operator-kstreams},1651395116,0
{consumergroup=adapter-service},1651394891,193640
{consumergroup=adapter-service},1651394896,193640
{consumergroup=adapter-service},1651394901,193640
{consumergroup=adapter-service},1651394906,2133731
{consumergroup=adapter-service},1651394911,2133731
{consumergroup=adapter-service},1651394916,2133731
{consumergroup=adapter-service},1651394921,3442661
{consumergroup=adapter-service},1651394926,3442661
{consumergroup=adapter-service},1651394931,3442661
{consumergroup=adapter-service},1651394936,4480046
{consumergroup=adapter-service},1651394941,4480046
{consumergroup=adapter-service},1651394946,4480046
{consumergroup=adapter-service},1651394951,5280402
{consumergroup=adapter-service},1651394956,5280402
{consumergroup=adapter-service},1651394961,5280402
{consumergroup=adapter-service},1651394966,6076379
{consumergroup=adapter-service},1651394971,6076379
{consumergroup=adapter-service},1651394976,6076379
{consumergroup=adapter-service},1651394981,6392451
{consumergroup=adapter-service},1651394986,6392451
{consumergroup=adapter-service},1651394991,6392451
{consumergroup=adapter-service},1651394996,6500194
{consumergroup=adapter-service},1651395001,6500194
{consumergroup=adapter-service},1651395006,6500194
{consumergroup=adapter-service},1651395011,6807341
{consumergroup=adapter-service},1651395016,6807341
{consumergroup=adapter-service},1651395021,6807341
{consumergroup=adapter-service},1651395026,6937762
{consumergroup=adapter-service},1651395031,6937762
{consumergroup=adapter-service},1651395036,6937762
{consumergroup=adapter-service},1651395041,7074408
{consumergroup=adapter-service},1651395046,7074408
{consumergroup=adapter-service},1651395051,7074408
{consumergroup=adapter-service},1651395056,7351832
{consumergroup=adapter-service},1651395061,7351832
{consumergroup=adapter-service},1651395066,7351832
{consumergroup=adapter-service},1651395071,7485560
{consumergroup=adapter-service},1651395076,7485560
{consumergroup=adapter-service},1651395081,7485560
{consumergroup=adapter-service},1651395086,7566673
{consumergroup=adapter-service},1651395091,7566673
{consumergroup=adapter-service},1651395096,7566673
{consumergroup=adapter-service},1651395101,7796749
{consumergroup=adapter-service},1651395106,7796749
{consumergroup=adapter-service},1651395111,7796749
{consumergroup=adapter-service},1651395116,7948451
