labels,timestamp,value
{consumergroup=__strimzi-topic-operator-kstreams},1651377180,0
{consumergroup=__strimzi-topic-operator-kstreams},1651377190,19
{consumergroup=__strimzi-topic-operator-kstreams},1651377195,19
{consumergroup=__strimzi-topic-operator-kstreams},1651377200,19
{consumergroup=__strimzi-topic-operator-kstreams},1651377205,0
{consumergroup=__strimzi-topic-operator-kstreams},1651377210,0
{consumergroup=__strimzi-topic-operator-kstreams},1651377215,0
{consumergroup=__strimzi-topic-operator-kstreams},1651377220,0
{consumergroup=__strimzi-topic-operator-kstreams},1651377225,0
{consumergroup=__strimzi-topic-operator-kstreams},1651377230,0
{consumergroup=__strimzi-topic-operator-kstreams},1651377235,0
{consumergroup=__strimzi-topic-operator-kstreams},1651377240,0
{consumergroup=__strimzi-topic-operator-kstreams},1651377245,0
{consumergroup=__strimzi-topic-operator-kstreams},1651377250,0
{consumergroup=__strimzi-topic-operator-kstreams},1651377255,0
{consumergroup=__strimzi-topic-operator-kstreams},1651377260,0
{consumergroup=__strimzi-topic-operator-kstreams},1651377265,0
{consumergroup=__strimzi-topic-operator-kstreams},1651377270,0
{consumergroup=__strimzi-topic-operator-kstreams},1651377275,0
{consumergroup=__strimzi-topic-operator-kstreams},1651377280,0
{consumergroup=__strimzi-topic-operator-kstreams},1651377285,0
{consumergroup=__strimzi-topic-operator-kstreams},1651377290,0
{consumergroup=__strimzi-topic-operator-kstreams},1651377295,0
{consumergroup=__strimzi-topic-operator-kstreams},1651377300,0
{consumergroup=__strimzi-topic-operator-kstreams},1651377305,0
{consumergroup=__strimzi-topic-operator-kstreams},1651377310,0
{consumergroup=__strimzi-topic-operator-kstreams},1651377315,0
{consumergroup=__strimzi-topic-operator-kstreams},1651377320,0
{consumergroup=__strimzi-topic-operator-kstreams},1651377325,0
{consumergroup=__strimzi-topic-operator-kstreams},1651377330,0
{consumergroup=__strimzi-topic-operator-kstreams},1651377335,0
{consumergroup=__strimzi-topic-operator-kstreams},1651377340,0
{consumergroup=__strimzi-topic-operator-kstreams},1651377345,0
{consumergroup=__strimzi-topic-operator-kstreams},1651377350,0
{consumergroup=__strimzi-topic-operator-kstreams},1651377355,0
{consumergroup=__strimzi-topic-operator-kstreams},1651377360,0
{consumergroup=__strimzi-topic-operator-kstreams},1651377365,0
{consumergroup=__strimzi-topic-operator-kstreams},1651377370,0
{consumergroup=__strimzi-topic-operator-kstreams},1651377375,0
{consumergroup=__strimzi-topic-operator-kstreams},1651377380,0
{consumergroup=__strimzi-topic-operator-kstreams},1651377385,0
{consumergroup=__strimzi-topic-operator-kstreams},1651377390,0
{consumergroup=__strimzi-topic-operator-kstreams},1651377395,0
{consumergroup=__strimzi-topic-operator-kstreams},1651377400,0
{consumergroup=__strimzi-topic-operator-kstreams},1651377405,0
{consumergroup=__strimzi-topic-operator-kstreams},1651377410,0
{consumergroup=__strimzi-topic-operator-kstreams},1651377415,0
{consumergroup=__strimzi-topic-operator-kstreams},1651377420,0
{consumergroup=__strimzi-topic-operator-kstreams},1651377425,0
{consumergroup=__strimzi-topic-operator-kstreams},1651377430,0
{consumergroup=__strimzi-topic-operator-kstreams},1651377435,0
{consumergroup=__strimzi-topic-operator-kstreams},1651377440,0
{consumergroup=adapter-service},1651377180,8347388
{consumergroup=adapter-service},1651377220,699646
{consumergroup=adapter-service},1651377225,699646
{consumergroup=adapter-service},1651377230,699646
{consumergroup=adapter-service},1651377235,2646446
{consumergroup=adapter-service},1651377240,2646446
{consumergroup=adapter-service},1651377245,2646446
{consumergroup=adapter-service},1651377250,3746435
{consumergroup=adapter-service},1651377255,3746435
{consumergroup=adapter-service},1651377260,3746435
{consumergroup=adapter-service},1651377265,4904562
{consumergroup=adapter-service},1651377270,4904562
{consumergroup=adapter-service},1651377275,4904562
{consumergroup=adapter-service},1651377280,5702854
{consumergroup=adapter-service},1651377285,5702854
{consumergroup=adapter-service},1651377290,5702854
{consumergroup=adapter-service},1651377295,6487343
{consumergroup=adapter-service},1651377300,6487343
{consumergroup=adapter-service},1651377305,6487343
{consumergroup=adapter-service},1651377310,6921539
{consumergroup=adapter-service},1651377315,6921539
{consumergroup=adapter-service},1651377320,6921539
{consumergroup=adapter-service},1651377325,7358968
{consumergroup=adapter-service},1651377330,7358968
{consumergroup=adapter-service},1651377335,7358968
{consumergroup=adapter-service},1651377340,7904928
{consumergroup=adapter-service},1651377345,7904928
{consumergroup=adapter-service},1651377350,7904928
{consumergroup=adapter-service},1651377355,8453358
{consumergroup=adapter-service},1651377360,8453358
{consumergroup=adapter-service},1651377365,8453358
{consumergroup=adapter-service},1651377370,8831335
{consumergroup=adapter-service},1651377375,8831335
{consumergroup=adapter-service},1651377380,8831335
{consumergroup=adapter-service},1651377385,9385028
{consumergroup=adapter-service},1651377390,9385028
{consumergroup=adapter-service},1651377395,9385028
{consumergroup=adapter-service},1651377400,9653557
{consumergroup=adapter-service},1651377405,9653557
{consumergroup=adapter-service},1651377410,9653557
{consumergroup=adapter-service},1651377415,10256077
{consumergroup=adapter-service},1651377420,10256077
{consumergroup=adapter-service},1651377425,10256077
{consumergroup=adapter-service},1651377430,10671054
{consumergroup=adapter-service},1651377435,10671054
{consumergroup=adapter-service},1651377440,10671054
