labels,timestamp,value
{consumergroup=__strimzi-topic-operator-kstreams},1651393041,18
{consumergroup=__strimzi-topic-operator-kstreams},1651393046,18
{consumergroup=__strimzi-topic-operator-kstreams},1651393051,18
{consumergroup=__strimzi-topic-operator-kstreams},1651393056,0
{consumergroup=__strimzi-topic-operator-kstreams},1651393061,0
{consumergroup=__strimzi-topic-operator-kstreams},1651393066,0
{consumergroup=__strimzi-topic-operator-kstreams},1651393071,0
{consumergroup=__strimzi-topic-operator-kstreams},1651393076,0
{consumergroup=__strimzi-topic-operator-kstreams},1651393081,0
{consumergroup=__strimzi-topic-operator-kstreams},1651393086,0
{consumergroup=__strimzi-topic-operator-kstreams},1651393091,0
{consumergroup=__strimzi-topic-operator-kstreams},1651393096,0
{consumergroup=__strimzi-topic-operator-kstreams},1651393101,0
{consumergroup=__strimzi-topic-operator-kstreams},1651393106,0
{consumergroup=__strimzi-topic-operator-kstreams},1651393111,0
{consumergroup=__strimzi-topic-operator-kstreams},1651393116,0
{consumergroup=__strimzi-topic-operator-kstreams},1651393121,0
{consumergroup=__strimzi-topic-operator-kstreams},1651393126,0
{consumergroup=__strimzi-topic-operator-kstreams},1651393131,0
{consumergroup=__strimzi-topic-operator-kstreams},1651393136,0
{consumergroup=__strimzi-topic-operator-kstreams},1651393141,0
{consumergroup=__strimzi-topic-operator-kstreams},1651393146,0
{consumergroup=__strimzi-topic-operator-kstreams},1651393151,0
{consumergroup=__strimzi-topic-operator-kstreams},1651393156,0
{consumergroup=__strimzi-topic-operator-kstreams},1651393161,0
{consumergroup=__strimzi-topic-operator-kstreams},1651393166,0
{consumergroup=__strimzi-topic-operator-kstreams},1651393171,0
{consumergroup=__strimzi-topic-operator-kstreams},1651393176,0
{consumergroup=__strimzi-topic-operator-kstreams},1651393181,0
{consumergroup=__strimzi-topic-operator-kstreams},1651393186,0
{consumergroup=__strimzi-topic-operator-kstreams},1651393191,0
{consumergroup=__strimzi-topic-operator-kstreams},1651393196,0
{consumergroup=__strimzi-topic-operator-kstreams},1651393201,0
{consumergroup=__strimzi-topic-operator-kstreams},1651393206,0
{consumergroup=__strimzi-topic-operator-kstreams},1651393211,0
{consumergroup=__strimzi-topic-operator-kstreams},1651393216,0
{consumergroup=__strimzi-topic-operator-kstreams},1651393221,0
{consumergroup=__strimzi-topic-operator-kstreams},1651393226,0
{consumergroup=__strimzi-topic-operator-kstreams},1651393231,0
{consumergroup=__strimzi-topic-operator-kstreams},1651393236,0
{consumergroup=__strimzi-topic-operator-kstreams},1651393241,0
{consumergroup=__strimzi-topic-operator-kstreams},1651393246,0
{consumergroup=__strimzi-topic-operator-kstreams},1651393251,0
{consumergroup=__strimzi-topic-operator-kstreams},1651393256,0
{consumergroup=__strimzi-topic-operator-kstreams},1651393261,0
{consumergroup=__strimzi-topic-operator-kstreams},1651393266,0
{consumergroup=__strimzi-topic-operator-kstreams},1651393271,0
{consumergroup=__strimzi-topic-operator-kstreams},1651393276,0
{consumergroup=__strimzi-topic-operator-kstreams},1651393281,0
{consumergroup=__strimzi-topic-operator-kstreams},1651393286,0
{consumergroup=__strimzi-topic-operator-kstreams},1651393291,0
{consumergroup=__strimzi-topic-operator-kstreams},1651393296,0
{consumergroup=adapter-service},1651393071,505702
{consumergroup=adapter-service},1651393076,505702
{consumergroup=adapter-service},1651393081,505702
{consumergroup=adapter-service},1651393086,2229473
{consumergroup=adapter-service},1651393091,2229473
{consumergroup=adapter-service},1651393096,2229473
{consumergroup=adapter-service},1651393101,3422252
{consumergroup=adapter-service},1651393106,3422252
{consumergroup=adapter-service},1651393111,3422252
{consumergroup=adapter-service},1651393116,4390681
{consumergroup=adapter-service},1651393121,4390681
{consumergroup=adapter-service},1651393126,4390681
{consumergroup=adapter-service},1651393131,5272164
{consumergroup=adapter-service},1651393136,5272164
{consumergroup=adapter-service},1651393141,5272164
{consumergroup=adapter-service},1651393146,5669193
{consumergroup=adapter-service},1651393151,5669193
{consumergroup=adapter-service},1651393156,5669193
{consumergroup=adapter-service},1651393161,5771440
{consumergroup=adapter-service},1651393166,5771440
{consumergroup=adapter-service},1651393171,5771440
{consumergroup=adapter-service},1651393176,5441636
{consumergroup=adapter-service},1651393181,5441636
{consumergroup=adapter-service},1651393186,5441636
{consumergroup=adapter-service},1651393191,5568928
{consumergroup=adapter-service},1651393196,5568928
{consumergroup=adapter-service},1651393201,5568928
{consumergroup=adapter-service},1651393206,5552449
{consumergroup=adapter-service},1651393211,5552449
{consumergroup=adapter-service},1651393216,5552449
{consumergroup=adapter-service},1651393221,5404814
{consumergroup=adapter-service},1651393226,5404814
{consumergroup=adapter-service},1651393231,5404814
{consumergroup=adapter-service},1651393236,5504554
{consumergroup=adapter-service},1651393241,5504554
{consumergroup=adapter-service},1651393246,5504554
{consumergroup=adapter-service},1651393251,5269347
{consumergroup=adapter-service},1651393256,5269347
{consumergroup=adapter-service},1651393261,5269347
{consumergroup=adapter-service},1651393266,5045244
{consumergroup=adapter-service},1651393271,5045244
{consumergroup=adapter-service},1651393276,5045244
{consumergroup=adapter-service},1651393281,4997847
{consumergroup=adapter-service},1651393286,4997847
{consumergroup=adapter-service},1651393291,4997847
{consumergroup=adapter-service},1651393296,4889031
