labels,timestamp,value
{job=theodolite-stu200776/combined-trace-podmonitor},1651537208,0
{job=theodolite-stu200776/combined-trace-podmonitor},1651537213,0
{job=theodolite-stu200776/combined-trace-podmonitor},1651537218,0
{job=theodolite-stu200776/combined-trace-podmonitor},1651537223,0
{job=theodolite-stu200776/combined-trace-podmonitor},1651537228,0
{job=theodolite-stu200776/combined-trace-podmonitor},1651537233,0
{job=theodolite-stu200776/combined-trace-podmonitor},1651537238,0
{job=theodolite-stu200776/combined-trace-podmonitor},1651537243,0
{job=theodolite-stu200776/combined-trace-podmonitor},1651537248,0
{job=theodolite-stu200776/combined-trace-podmonitor},1651537253,0
{job=theodolite-stu200776/combined-trace-podmonitor},1651537258,0
{job=theodolite-stu200776/combined-trace-podmonitor},1651537263,0
{job=theodolite-stu200776/combined-trace-podmonitor},1651537268,0
{job=theodolite-stu200776/combined-trace-podmonitor},1651537273,0
{job=theodolite-stu200776/combined-trace-podmonitor},1651537278,0
{job=theodolite-stu200776/combined-trace-podmonitor},1651537283,0
{job=theodolite-stu200776/combined-trace-podmonitor},1651537288,0
{job=theodolite-stu200776/combined-trace-podmonitor},1651537293,0
{job=theodolite-stu200776/combined-trace-podmonitor},1651537298,0
{job=theodolite-stu200776/combined-trace-podmonitor},1651537303,0
{job=theodolite-stu200776/combined-trace-podmonitor},1651537308,0
{job=theodolite-stu200776/combined-trace-podmonitor},1651537313,0
{job=theodolite-stu200776/combined-trace-podmonitor},1651537318,0
{job=theodolite-stu200776/combined-trace-podmonitor},1651537323,0
{job=theodolite-stu200776/combined-trace-podmonitor},1651537328,0
{job=theodolite-stu200776/combined-trace-podmonitor},1651537333,0
{job=theodolite-stu200776/combined-trace-podmonitor},1651537338,0
{job=theodolite-stu200776/combined-trace-podmonitor},1651537343,0
{job=theodolite-stu200776/combined-trace-podmonitor},1651537348,0
{job=theodolite-stu200776/combined-trace-podmonitor},1651537353,0
{job=theodolite-stu200776/combined-trace-podmonitor},1651537358,0
{job=theodolite-stu200776/combined-trace-podmonitor},1651537363,0
{job=theodolite-stu200776/combined-trace-podmonitor},1651537368,0
{job=theodolite-stu200776/combined-trace-podmonitor},1651537373,0
{job=theodolite-stu200776/combined-trace-podmonitor},1651537378,0
{job=theodolite-stu200776/combined-trace-podmonitor},1651537383,0
{job=theodolite-stu200776/combined-trace-podmonitor},1651537388,0
{job=theodolite-stu200776/combined-trace-podmonitor},1651537393,0
{job=theodolite-stu200776/combined-trace-podmonitor},1651537398,0
{job=theodolite-stu200776/combined-trace-podmonitor},1651537403,0
{job=theodolite-stu200776/combined-trace-podmonitor},1651537408,0
{job=theodolite-stu200776/combined-trace-podmonitor},1651537413,0
{job=theodolite-stu200776/combined-trace-podmonitor},1651537418,0
{job=theodolite-stu200776/combined-trace-podmonitor},1651537423,0
{job=theodolite-stu200776/combined-trace-podmonitor},1651537428,0
{job=theodolite-stu200776/combined-trace-podmonitor},1651537433,0
{job=theodolite-stu200776/combined-trace-podmonitor},1651537438,0
{job=theodolite-stu200776/combined-trace-podmonitor},1651537443,0
{job=theodolite-stu200776/combined-trace-podmonitor},1651537448,0
{job=theodolite-stu200776/combined-trace-podmonitor},1651537453,0
{job=theodolite-stu200776/combined-trace-podmonitor},1651537458,0
{job=theodolite-stu200776/combined-trace-podmonitor},1651537463,0
{job=theodolite-stu200776/combined-trace-podmonitor},1651537468,0
{job=theodolite-stu200776/combined-trace-podmonitor},1651537473,0
{job=theodolite-stu200776/combined-trace-podmonitor},1651537478,0
{job=theodolite-stu200776/combined-trace-podmonitor},1651537483,0
{job=theodolite-stu200776/combined-trace-podmonitor},1651537488,0
{job=theodolite-stu200776/combined-trace-podmonitor},1651537493,0
{job=theodolite-stu200776/combined-trace-podmonitor},1651537498,0
{job=theodolite-stu200776/combined-trace-podmonitor},1651537503,0
{job=theodolite-stu200776/combined-trace-podmonitor},1651537508,0
{job=theodolite-stu200776/combined-trace-podmonitor},1651537513,0
{job=theodolite-stu200776/combined-trace-podmonitor},1651537518,0
{job=theodolite-stu200776/combined-trace-podmonitor},1651537523,0
{job=theodolite-stu200776/combined-trace-podmonitor},1651537528,0
{job=theodolite-stu200776/combined-trace-podmonitor},1651537533,0
{job=theodolite-stu200776/combined-trace-podmonitor},1651537538,0
{job=theodolite-stu200776/combined-trace-podmonitor},1651537543,0
{job=theodolite-stu200776/combined-trace-podmonitor},1651537548,0
{job=theodolite-stu200776/combined-trace-podmonitor},1651537553,0
{job=theodolite-stu200776/combined-trace-podmonitor},1651537558,0
{job=theodolite-stu200776/combined-trace-podmonitor},1651537563,0
{job=theodolite-stu200776/combined-trace-podmonitor},1651537568,0
{job=theodolite-stu200776/combined-trace-podmonitor},1651537573,0
{job=theodolite-stu200776/combined-trace-podmonitor},1651537578,0
{job=theodolite-stu200776/combined-trace-podmonitor},1651537583,0
