labels,timestamp,value
{consumergroup=__strimzi-topic-operator-kstreams},1651552100,0
{consumergroup=__strimzi-topic-operator-kstreams},1651552105,0
{consumergroup=__strimzi-topic-operator-kstreams},1651552110,0
{consumergroup=__strimzi-topic-operator-kstreams},1651552115,3
{consumergroup=__strimzi-topic-operator-kstreams},1651552120,3
{consumergroup=__strimzi-topic-operator-kstreams},1651552125,3
{consumergroup=__strimzi-topic-operator-kstreams},1651552130,0
{consumergroup=__strimzi-topic-operator-kstreams},1651552135,0
{consumergroup=__strimzi-topic-operator-kstreams},1651552140,0
{consumergroup=__strimzi-topic-operator-kstreams},1651552145,0
{consumergroup=__strimzi-topic-operator-kstreams},1651552150,0
{consumergroup=__strimzi-topic-operator-kstreams},1651552155,0
{consumergroup=__strimzi-topic-operator-kstreams},1651552160,0
{consumergroup=__strimzi-topic-operator-kstreams},1651552165,0
{consumergroup=__strimzi-topic-operator-kstreams},1651552170,0
{consumergroup=__strimzi-topic-operator-kstreams},1651552175,0
{consumergroup=__strimzi-topic-operator-kstreams},1651552180,0
{consumergroup=__strimzi-topic-operator-kstreams},1651552185,0
{consumergroup=__strimzi-topic-operator-kstreams},1651552190,0
{consumergroup=__strimzi-topic-operator-kstreams},1651552195,0
{consumergroup=__strimzi-topic-operator-kstreams},1651552200,0
{consumergroup=__strimzi-topic-operator-kstreams},1651552205,0
{consumergroup=__strimzi-topic-operator-kstreams},1651552210,0
{consumergroup=__strimzi-topic-operator-kstreams},1651552215,0
{consumergroup=__strimzi-topic-operator-kstreams},1651552220,0
{consumergroup=__strimzi-topic-operator-kstreams},1651552225,0
{consumergroup=__strimzi-topic-operator-kstreams},1651552230,0
{consumergroup=__strimzi-topic-operator-kstreams},1651552235,0
{consumergroup=__strimzi-topic-operator-kstreams},1651552240,0
{consumergroup=__strimzi-topic-operator-kstreams},1651552245,0
{consumergroup=__strimzi-topic-operator-kstreams},1651552250,0
{consumergroup=__strimzi-topic-operator-kstreams},1651552255,0
{consumergroup=__strimzi-topic-operator-kstreams},1651552260,0
{consumergroup=__strimzi-topic-operator-kstreams},1651552265,0
{consumergroup=__strimzi-topic-operator-kstreams},1651552270,0
{consumergroup=__strimzi-topic-operator-kstreams},1651552275,0
{consumergroup=__strimzi-topic-operator-kstreams},1651552280,0
{consumergroup=__strimzi-topic-operator-kstreams},1651552285,0
{consumergroup=__strimzi-topic-operator-kstreams},1651552290,0
{consumergroup=__strimzi-topic-operator-kstreams},1651552295,0
{consumergroup=__strimzi-topic-operator-kstreams},1651552300,0
{consumergroup=__strimzi-topic-operator-kstreams},1651552305,0
{consumergroup=__strimzi-topic-operator-kstreams},1651552310,0
{consumergroup=__strimzi-topic-operator-kstreams},1651552315,0
{consumergroup=__strimzi-topic-operator-kstreams},1651552320,0
{consumergroup=__strimzi-topic-operator-kstreams},1651552325,0
{consumergroup=__strimzi-topic-operator-kstreams},1651552330,0
{consumergroup=__strimzi-topic-operator-kstreams},1651552335,0
{consumergroup=__strimzi-topic-operator-kstreams},1651552340,0
{consumergroup=__strimzi-topic-operator-kstreams},1651552345,0
{consumergroup=__strimzi-topic-operator-kstreams},1651552350,0
{consumergroup=__strimzi-topic-operator-kstreams},1651552355,0
{consumergroup=__strimzi-topic-operator-kstreams},1651552360,0
{consumergroup=__strimzi-topic-operator-kstreams},1651552365,0
{consumergroup=__strimzi-topic-operator-kstreams},1651552370,0
{consumergroup=__strimzi-topic-operator-kstreams},1651552375,0
{consumergroup=__strimzi-topic-operator-kstreams},1651552380,0
{consumergroup=__strimzi-topic-operator-kstreams},1651552385,0
{consumergroup=__strimzi-topic-operator-kstreams},1651552390,0
{consumergroup=__strimzi-topic-operator-kstreams},1651552395,0
{consumergroup=__strimzi-topic-operator-kstreams},1651552400,0
{consumergroup=__strimzi-topic-operator-kstreams},1651552405,0
{consumergroup=__strimzi-topic-operator-kstreams},1651552410,0
{consumergroup=__strimzi-topic-operator-kstreams},1651552415,0
{consumergroup=__strimzi-topic-operator-kstreams},1651552420,0
{consumergroup=__strimzi-topic-operator-kstreams},1651552425,0
{consumergroup=__strimzi-topic-operator-kstreams},1651552430,0
{consumergroup=__strimzi-topic-operator-kstreams},1651552435,0
{consumergroup=__strimzi-topic-operator-kstreams},1651552440,0
{consumergroup=__strimzi-topic-operator-kstreams},1651552445,0
{consumergroup=__strimzi-topic-operator-kstreams},1651552450,0
{consumergroup=__strimzi-topic-operator-kstreams},1651552455,0
{consumergroup=__strimzi-topic-operator-kstreams},1651552460,0
{consumergroup=__strimzi-topic-operator-kstreams},1651552465,0
{consumergroup=__strimzi-topic-operator-kstreams},1651552470,0
{consumergroup=__strimzi-topic-operator-kstreams},1651552475,0
{consumergroup=__strimzi-topic-operator-kstreams},1651552480,0
{consumergroup=__strimzi-topic-operator-kstreams},1651552485,0
{consumergroup=__strimzi-topic-operator-kstreams},1651552490,0
{consumergroup=__strimzi-topic-operator-kstreams},1651552495,0
{consumergroup=__strimzi-topic-operator-kstreams},1651552500,0
{consumergroup=__strimzi-topic-operator-kstreams},1651552505,0
{consumergroup=__strimzi-topic-operator-kstreams},1651552510,0
{consumergroup=__strimzi-topic-operator-kstreams},1651552515,0
{consumergroup=__strimzi-topic-operator-kstreams},1651552520,0
{consumergroup=__strimzi-topic-operator-kstreams},1651552525,0
{consumergroup=__strimzi-topic-operator-kstreams},1651552530,0
{consumergroup=__strimzi-topic-operator-kstreams},1651552535,0
{consumergroup=adapter-service},1651552130,0
{consumergroup=adapter-service},1651552135,0
{consumergroup=adapter-service},1651552140,0
{consumergroup=adapter-service},1651552145,17150
{consumergroup=adapter-service},1651552150,17150
{consumergroup=adapter-service},1651552155,17150
{consumergroup=adapter-service},1651552160,3616
{consumergroup=adapter-service},1651552165,3616
{consumergroup=adapter-service},1651552170,3616
{consumergroup=adapter-service},1651552175,6116
{consumergroup=adapter-service},1651552180,6116
{consumergroup=adapter-service},1651552185,6116
{consumergroup=adapter-service},1651552190,4236
{consumergroup=adapter-service},1651552195,4236
{consumergroup=adapter-service},1651552200,4236
{consumergroup=adapter-service},1651552205,4894
{consumergroup=adapter-service},1651552210,4894
{consumergroup=adapter-service},1651552215,4894
{consumergroup=adapter-service},1651552220,5728
{consumergroup=adapter-service},1651552225,5728
{consumergroup=adapter-service},1651552230,5728
{consumergroup=adapter-service},1651552235,3237
{consumergroup=adapter-service},1651552240,3237
{consumergroup=adapter-service},1651552245,3237
{consumergroup=adapter-service},1651552250,8427
{consumergroup=adapter-service},1651552255,8427
{consumergroup=adapter-service},1651552260,8427
{consumergroup=adapter-service},1651552265,4894
{consumergroup=adapter-service},1651552270,4894
{consumergroup=adapter-service},1651552275,4894
{consumergroup=adapter-service},1651552280,5713
{consumergroup=adapter-service},1651552285,5713
{consumergroup=adapter-service},1651552290,5713
{consumergroup=adapter-service},1651552295,4928
{consumergroup=adapter-service},1651552300,4928
{consumergroup=adapter-service},1651552305,4928
{consumergroup=adapter-service},1651552310,14024
{consumergroup=adapter-service},1651552315,14024
{consumergroup=adapter-service},1651552320,14024
{consumergroup=adapter-service},1651552325,4172
{consumergroup=adapter-service},1651552330,4172
{consumergroup=adapter-service},1651552335,4172
{consumergroup=adapter-service},1651552340,16527
{consumergroup=adapter-service},1651552345,16527
{consumergroup=adapter-service},1651552350,16527
{consumergroup=adapter-service},1651552355,3758
{consumergroup=adapter-service},1651552360,3758
{consumergroup=adapter-service},1651552365,3758
{consumergroup=adapter-service},1651552370,16839
{consumergroup=adapter-service},1651552375,16839
{consumergroup=adapter-service},1651552380,16839
{consumergroup=adapter-service},1651552385,4002
{consumergroup=adapter-service},1651552390,4002
{consumergroup=adapter-service},1651552395,4002
{consumergroup=adapter-service},1651552400,15676
{consumergroup=adapter-service},1651552405,15676
{consumergroup=adapter-service},1651552410,15676
{consumergroup=adapter-service},1651552415,3084
{consumergroup=adapter-service},1651552420,3084
{consumergroup=adapter-service},1651552425,3084
{consumergroup=adapter-service},1651552430,14875
{consumergroup=adapter-service},1651552435,14875
{consumergroup=adapter-service},1651552440,14875
{consumergroup=adapter-service},1651552445,5674
{consumergroup=adapter-service},1651552450,5674
{consumergroup=adapter-service},1651552455,5674
{consumergroup=adapter-service},1651552460,14418
{consumergroup=adapter-service},1651552465,14418
{consumergroup=adapter-service},1651552470,14418
{consumergroup=adapter-service},1651552475,2262
{consumergroup=adapter-service},1651552480,2262
{consumergroup=adapter-service},1651552485,2262
{consumergroup=adapter-service},1651552490,14028
{consumergroup=adapter-service},1651552495,14028
{consumergroup=adapter-service},1651552500,14028
{consumergroup=adapter-service},1651552505,11266
{consumergroup=adapter-service},1651552510,11266
{consumergroup=adapter-service},1651552515,11266
{consumergroup=adapter-service},1651552520,13812
{consumergroup=adapter-service},1651552525,13812
{consumergroup=adapter-service},1651552530,13812
{consumergroup=adapter-service},1651552535,11832
{consumergroup=landscape-service},1651552145,50380
{consumergroup=landscape-service},1651552150,50380
{consumergroup=landscape-service},1651552155,50380
{consumergroup=landscape-service},1651552160,28831
{consumergroup=landscape-service},1651552165,28831
{consumergroup=landscape-service},1651552170,28831
{consumergroup=landscape-service},1651552175,10155
{consumergroup=landscape-service},1651552180,10155
{consumergroup=landscape-service},1651552185,10155
{consumergroup=landscape-service},1651552190,5128
{consumergroup=landscape-service},1651552195,5128
{consumergroup=landscape-service},1651552200,5128
{consumergroup=landscape-service},1651552205,7626
{consumergroup=landscape-service},1651552210,7626
{consumergroup=landscape-service},1651552215,7626
{consumergroup=landscape-service},1651552220,2288
{consumergroup=landscape-service},1651552225,2288
{consumergroup=landscape-service},1651552230,2288
{consumergroup=landscape-service},1651552235,5908
{consumergroup=landscape-service},1651552240,5908
{consumergroup=landscape-service},1651552245,5908
{consumergroup=landscape-service},1651552250,1068
{consumergroup=landscape-service},1651552255,1068
{consumergroup=landscape-service},1651552260,1068
{consumergroup=landscape-service},1651552265,4277
{consumergroup=landscape-service},1651552270,4277
{consumergroup=landscape-service},1651552275,4277
{consumergroup=landscape-service},1651552280,2001
{consumergroup=landscape-service},1651552285,2001
{consumergroup=landscape-service},1651552290,2001
{consumergroup=landscape-service},1651552295,3414
{consumergroup=landscape-service},1651552300,3414
{consumergroup=landscape-service},1651552305,3414
{consumergroup=landscape-service},1651552310,18855
{consumergroup=landscape-service},1651552315,18855
{consumergroup=landscape-service},1651552320,18855
{consumergroup=landscape-service},1651552325,1929
{consumergroup=landscape-service},1651552330,1929
{consumergroup=landscape-service},1651552335,1929
{consumergroup=landscape-service},1651552340,17110
{consumergroup=landscape-service},1651552345,17110
{consumergroup=landscape-service},1651552350,17110
{consumergroup=landscape-service},1651552355,662
{consumergroup=landscape-service},1651552360,662
{consumergroup=landscape-service},1651552365,662
{consumergroup=landscape-service},1651552370,15798
{consumergroup=landscape-service},1651552375,15798
{consumergroup=landscape-service},1651552380,15798
{consumergroup=landscape-service},1651552385,3161
{consumergroup=landscape-service},1651552390,3161
{consumergroup=landscape-service},1651552395,3161
{consumergroup=landscape-service},1651552400,14731
{consumergroup=landscape-service},1651552405,14731
{consumergroup=landscape-service},1651552410,14731
{consumergroup=landscape-service},1651552415,2578
{consumergroup=landscape-service},1651552420,2578
{consumergroup=landscape-service},1651552425,2578
{consumergroup=landscape-service},1651552430,14173
{consumergroup=landscape-service},1651552435,14173
{consumergroup=landscape-service},1651552440,14173
{consumergroup=landscape-service},1651552445,18538
{consumergroup=landscape-service},1651552450,18538
{consumergroup=landscape-service},1651552455,18538
{consumergroup=landscape-service},1651552460,13420
{consumergroup=landscape-service},1651552465,13420
{consumergroup=landscape-service},1651552470,13420
{consumergroup=landscape-service},1651552475,183
{consumergroup=landscape-service},1651552480,183
{consumergroup=landscape-service},1651552485,183
{consumergroup=landscape-service},1651552490,12046
{consumergroup=landscape-service},1651552495,12046
{consumergroup=landscape-service},1651552500,12046
{consumergroup=landscape-service},1651552505,15460
{consumergroup=landscape-service},1651552510,15460
{consumergroup=landscape-service},1651552515,15460
{consumergroup=landscape-service},1651552520,11544
{consumergroup=landscape-service},1651552525,11544
{consumergroup=landscape-service},1651552530,11544
{consumergroup=landscape-service},1651552535,15067
{consumergroup=trace-service},1651552145,69993
{consumergroup=trace-service},1651552150,69993
{consumergroup=trace-service},1651552155,69993
{consumergroup=trace-service},1651552160,91448
{consumergroup=trace-service},1651552165,91448
{consumergroup=trace-service},1651552170,91448
{consumergroup=trace-service},1651552175,42467
{consumergroup=trace-service},1651552180,42467
{consumergroup=trace-service},1651552185,42467
{consumergroup=trace-service},1651552190,67350
{consumergroup=trace-service},1651552195,67350
{consumergroup=trace-service},1651552200,67350
{consumergroup=trace-service},1651552205,44440
{consumergroup=trace-service},1651552210,44440
{consumergroup=trace-service},1651552215,44440
{consumergroup=trace-service},1651552220,86225
{consumergroup=trace-service},1651552225,86225
{consumergroup=trace-service},1651552230,86225
{consumergroup=trace-service},1651552235,29857
{consumergroup=trace-service},1651552240,29857
{consumergroup=trace-service},1651552245,29857
{consumergroup=trace-service},1651552250,73515
{consumergroup=trace-service},1651552255,73515
{consumergroup=trace-service},1651552260,73515
{consumergroup=trace-service},1651552265,36147
{consumergroup=trace-service},1651552270,36147
{consumergroup=trace-service},1651552275,36147
{consumergroup=trace-service},1651552280,91193
{consumergroup=trace-service},1651552285,91193
{consumergroup=trace-service},1651552290,91193
{consumergroup=trace-service},1651552295,37416
{consumergroup=trace-service},1651552300,37416
{consumergroup=trace-service},1651552305,37416
{consumergroup=trace-service},1651552310,91342
{consumergroup=trace-service},1651552315,91342
{consumergroup=trace-service},1651552320,91342
{consumergroup=trace-service},1651552325,33626
{consumergroup=trace-service},1651552330,33626
{consumergroup=trace-service},1651552335,33626
{consumergroup=trace-service},1651552340,69794
{consumergroup=trace-service},1651552345,69794
{consumergroup=trace-service},1651552350,69794
{consumergroup=trace-service},1651552355,122911
{consumergroup=trace-service},1651552360,122911
{consumergroup=trace-service},1651552365,122911
{consumergroup=trace-service},1651552370,79247
{consumergroup=trace-service},1651552375,79247
{consumergroup=trace-service},1651552380,79247
{consumergroup=trace-service},1651552385,35180
{consumergroup=trace-service},1651552390,35180
{consumergroup=trace-service},1651552395,35180
{consumergroup=trace-service},1651552400,79987
{consumergroup=trace-service},1651552405,79987
{consumergroup=trace-service},1651552410,79987
{consumergroup=trace-service},1651552415,43754
{consumergroup=trace-service},1651552420,43754
{consumergroup=trace-service},1651552425,43754
{consumergroup=trace-service},1651552430,69885
{consumergroup=trace-service},1651552435,69885
{consumergroup=trace-service},1651552440,69885
{consumergroup=trace-service},1651552445,31730
{consumergroup=trace-service},1651552450,31730
{consumergroup=trace-service},1651552455,31730
{consumergroup=trace-service},1651552460,64577
{consumergroup=trace-service},1651552465,64577
{consumergroup=trace-service},1651552470,64577
{consumergroup=trace-service},1651552475,33579
{consumergroup=trace-service},1651552480,33579
{consumergroup=trace-service},1651552485,33579
{consumergroup=trace-service},1651552490,62023
{consumergroup=trace-service},1651552495,62023
{consumergroup=trace-service},1651552500,62023
{consumergroup=trace-service},1651552505,40819
{consumergroup=trace-service},1651552510,40819
{consumergroup=trace-service},1651552515,40819
{consumergroup=trace-service},1651552520,95373
{consumergroup=trace-service},1651552525,95373
{consumergroup=trace-service},1651552530,95373
{consumergroup=trace-service},1651552535,36530
{consumergroup=trace-token-events-consumer},1651552130,0
{consumergroup=trace-token-events-consumer},1651552135,0
{consumergroup=trace-token-events-consumer},1651552140,0
{consumergroup=trace-token-events-consumer},1651552145,0
{consumergroup=trace-token-events-consumer},1651552150,0
{consumergroup=trace-token-events-consumer},1651552155,0
{consumergroup=trace-token-events-consumer},1651552160,0
{consumergroup=trace-token-events-consumer},1651552165,0
{consumergroup=trace-token-events-consumer},1651552170,0
{consumergroup=trace-token-events-consumer},1651552175,0
{consumergroup=trace-token-events-consumer},1651552180,0
{consumergroup=trace-token-events-consumer},1651552185,0
{consumergroup=trace-token-events-consumer},1651552190,0
{consumergroup=trace-token-events-consumer},1651552195,0
{consumergroup=trace-token-events-consumer},1651552200,0
{consumergroup=trace-token-events-consumer},1651552205,0
{consumergroup=trace-token-events-consumer},1651552210,0
{consumergroup=trace-token-events-consumer},1651552215,0
{consumergroup=trace-token-events-consumer},1651552220,0
{consumergroup=trace-token-events-consumer},1651552225,0
{consumergroup=trace-token-events-consumer},1651552230,0
{consumergroup=trace-token-events-consumer},1651552235,0
{consumergroup=trace-token-events-consumer},1651552240,0
{consumergroup=trace-token-events-consumer},1651552245,0
{consumergroup=trace-token-events-consumer},1651552250,0
{consumergroup=trace-token-events-consumer},1651552255,0
{consumergroup=trace-token-events-consumer},1651552260,0
{consumergroup=trace-token-events-consumer},1651552265,0
{consumergroup=trace-token-events-consumer},1651552270,0
{consumergroup=trace-token-events-consumer},1651552275,0
{consumergroup=trace-token-events-consumer},1651552280,0
{consumergroup=trace-token-events-consumer},1651552285,0
{consumergroup=trace-token-events-consumer},1651552290,0
{consumergroup=trace-token-events-consumer},1651552295,0
{consumergroup=trace-token-events-consumer},1651552300,0
{consumergroup=trace-token-events-consumer},1651552305,0
{consumergroup=trace-token-events-consumer},1651552310,0
{consumergroup=trace-token-events-consumer},1651552315,0
{consumergroup=trace-token-events-consumer},1651552320,0
{consumergroup=trace-token-events-consumer},1651552325,0
{consumergroup=trace-token-events-consumer},1651552330,0
{consumergroup=trace-token-events-consumer},1651552335,0
{consumergroup=trace-token-events-consumer},1651552340,0
{consumergroup=trace-token-events-consumer},1651552345,0
{consumergroup=trace-token-events-consumer},1651552350,0
{consumergroup=trace-token-events-consumer},1651552355,0
{consumergroup=trace-token-events-consumer},1651552360,0
{consumergroup=trace-token-events-consumer},1651552365,0
{consumergroup=trace-token-events-consumer},1651552370,0
{consumergroup=trace-token-events-consumer},1651552375,0
{consumergroup=trace-token-events-consumer},1651552380,0
{consumergroup=trace-token-events-consumer},1651552385,0
{consumergroup=trace-token-events-consumer},1651552390,0
{consumergroup=trace-token-events-consumer},1651552395,0
{consumergroup=trace-token-events-consumer},1651552400,0
{consumergroup=trace-token-events-consumer},1651552405,0
{consumergroup=trace-token-events-consumer},1651552410,0
{consumergroup=trace-token-events-consumer},1651552415,0
{consumergroup=trace-token-events-consumer},1651552420,0
{consumergroup=trace-token-events-consumer},1651552425,0
{consumergroup=trace-token-events-consumer},1651552430,0
{consumergroup=trace-token-events-consumer},1651552435,0
{consumergroup=trace-token-events-consumer},1651552440,0
{consumergroup=trace-token-events-consumer},1651552445,0
{consumergroup=trace-token-events-consumer},1651552450,0
{consumergroup=trace-token-events-consumer},1651552455,0
{consumergroup=trace-token-events-consumer},1651552460,0
{consumergroup=trace-token-events-consumer},1651552465,0
{consumergroup=trace-token-events-consumer},1651552470,0
{consumergroup=trace-token-events-consumer},1651552475,0
{consumergroup=trace-token-events-consumer},1651552480,0
{consumergroup=trace-token-events-consumer},1651552485,0
{consumergroup=trace-token-events-consumer},1651552490,0
{consumergroup=trace-token-events-consumer},1651552495,0
{consumergroup=trace-token-events-consumer},1651552500,0
{consumergroup=trace-token-events-consumer},1651552505,0
{consumergroup=trace-token-events-consumer},1651552510,0
{consumergroup=trace-token-events-consumer},1651552515,0
{consumergroup=trace-token-events-consumer},1651552520,0
{consumergroup=trace-token-events-consumer},1651552525,0
{consumergroup=trace-token-events-consumer},1651552530,0
{consumergroup=trace-token-events-consumer},1651552535,0
