labels,timestamp,value
{consumergroup=__strimzi-topic-operator-kstreams},1651529952,3
{consumergroup=__strimzi-topic-operator-kstreams},1651529957,3
{consumergroup=__strimzi-topic-operator-kstreams},1651529962,3
{consumergroup=__strimzi-topic-operator-kstreams},1651529967,8
{consumergroup=__strimzi-topic-operator-kstreams},1651529972,8
{consumergroup=__strimzi-topic-operator-kstreams},1651529977,8
{consumergroup=__strimzi-topic-operator-kstreams},1651529982,11
{consumergroup=__strimzi-topic-operator-kstreams},1651529987,11
{consumergroup=__strimzi-topic-operator-kstreams},1651529992,11
{consumergroup=__strimzi-topic-operator-kstreams},1651529997,0
{consumergroup=__strimzi-topic-operator-kstreams},1651530002,0
{consumergroup=__strimzi-topic-operator-kstreams},1651530007,0
{consumergroup=__strimzi-topic-operator-kstreams},1651530012,0
{consumergroup=__strimzi-topic-operator-kstreams},1651530017,0
{consumergroup=__strimzi-topic-operator-kstreams},1651530022,0
{consumergroup=__strimzi-topic-operator-kstreams},1651530027,0
{consumergroup=__strimzi-topic-operator-kstreams},1651530032,0
{consumergroup=__strimzi-topic-operator-kstreams},1651530037,0
{consumergroup=__strimzi-topic-operator-kstreams},1651530042,0
{consumergroup=__strimzi-topic-operator-kstreams},1651530047,0
{consumergroup=__strimzi-topic-operator-kstreams},1651530052,0
{consumergroup=__strimzi-topic-operator-kstreams},1651530057,0
{consumergroup=__strimzi-topic-operator-kstreams},1651530062,0
{consumergroup=__strimzi-topic-operator-kstreams},1651530067,0
{consumergroup=__strimzi-topic-operator-kstreams},1651530072,0
{consumergroup=__strimzi-topic-operator-kstreams},1651530077,0
{consumergroup=__strimzi-topic-operator-kstreams},1651530082,0
{consumergroup=__strimzi-topic-operator-kstreams},1651530087,0
{consumergroup=__strimzi-topic-operator-kstreams},1651530092,0
{consumergroup=__strimzi-topic-operator-kstreams},1651530097,0
{consumergroup=__strimzi-topic-operator-kstreams},1651530102,0
{consumergroup=__strimzi-topic-operator-kstreams},1651530107,0
{consumergroup=__strimzi-topic-operator-kstreams},1651530112,0
{consumergroup=__strimzi-topic-operator-kstreams},1651530117,0
{consumergroup=__strimzi-topic-operator-kstreams},1651530122,0
{consumergroup=__strimzi-topic-operator-kstreams},1651530127,0
{consumergroup=__strimzi-topic-operator-kstreams},1651530132,0
{consumergroup=__strimzi-topic-operator-kstreams},1651530137,0
{consumergroup=__strimzi-topic-operator-kstreams},1651530142,0
{consumergroup=__strimzi-topic-operator-kstreams},1651530147,0
{consumergroup=__strimzi-topic-operator-kstreams},1651530152,0
{consumergroup=__strimzi-topic-operator-kstreams},1651530157,0
{consumergroup=__strimzi-topic-operator-kstreams},1651530162,0
{consumergroup=__strimzi-topic-operator-kstreams},1651530167,0
{consumergroup=__strimzi-topic-operator-kstreams},1651530172,0
{consumergroup=__strimzi-topic-operator-kstreams},1651530177,0
{consumergroup=__strimzi-topic-operator-kstreams},1651530182,0
{consumergroup=__strimzi-topic-operator-kstreams},1651530187,0
{consumergroup=__strimzi-topic-operator-kstreams},1651530192,0
{consumergroup=__strimzi-topic-operator-kstreams},1651530197,0
{consumergroup=__strimzi-topic-operator-kstreams},1651530202,0
{consumergroup=__strimzi-topic-operator-kstreams},1651530207,0
{consumergroup=__strimzi-topic-operator-kstreams},1651530212,0
{consumergroup=__strimzi-topic-operator-kstreams},1651530217,0
{consumergroup=__strimzi-topic-operator-kstreams},1651530222,0
{consumergroup=__strimzi-topic-operator-kstreams},1651530227,0
{consumergroup=__strimzi-topic-operator-kstreams},1651530232,0
{consumergroup=__strimzi-topic-operator-kstreams},1651530237,0
{consumergroup=__strimzi-topic-operator-kstreams},1651530242,0
{consumergroup=__strimzi-topic-operator-kstreams},1651530247,0
{consumergroup=__strimzi-topic-operator-kstreams},1651530252,0
{consumergroup=__strimzi-topic-operator-kstreams},1651530257,0
{consumergroup=__strimzi-topic-operator-kstreams},1651530262,0
{consumergroup=__strimzi-topic-operator-kstreams},1651530267,0
{consumergroup=__strimzi-topic-operator-kstreams},1651530272,0
{consumergroup=__strimzi-topic-operator-kstreams},1651530277,0
{consumergroup=__strimzi-topic-operator-kstreams},1651530282,0
{consumergroup=__strimzi-topic-operator-kstreams},1651530287,0
{consumergroup=__strimzi-topic-operator-kstreams},1651530292,0
{consumergroup=__strimzi-topic-operator-kstreams},1651530297,0
{consumergroup=__strimzi-topic-operator-kstreams},1651530302,0
{consumergroup=__strimzi-topic-operator-kstreams},1651530307,0
{consumergroup=__strimzi-topic-operator-kstreams},1651530312,0
{consumergroup=__strimzi-topic-operator-kstreams},1651530317,0
{consumergroup=__strimzi-topic-operator-kstreams},1651530322,0
{consumergroup=__strimzi-topic-operator-kstreams},1651530327,0
{consumergroup=__strimzi-topic-operator-kstreams},1651530332,0
{consumergroup=__strimzi-topic-operator-kstreams},1651530337,0
{consumergroup=__strimzi-topic-operator-kstreams},1651530342,0
{consumergroup=__strimzi-topic-operator-kstreams},1651530347,0
{consumergroup=__strimzi-topic-operator-kstreams},1651530352,0
{consumergroup=__strimzi-topic-operator-kstreams},1651530357,0
{consumergroup=__strimzi-topic-operator-kstreams},1651530362,0
{consumergroup=__strimzi-topic-operator-kstreams},1651530367,0
{consumergroup=__strimzi-topic-operator-kstreams},1651530372,0
{consumergroup=__strimzi-topic-operator-kstreams},1651530377,0
{consumergroup=__strimzi-topic-operator-kstreams},1651530382,0
{consumergroup=__strimzi-topic-operator-kstreams},1651530387,0
{consumergroup=__strimzi-topic-operator-kstreams},1651530392,0
{consumergroup=__strimzi-topic-operator-kstreams},1651530397,0
{consumergroup=__strimzi-topic-operator-kstreams},1651530402,0
{consumergroup=__strimzi-topic-operator-kstreams},1651530407,0
{consumergroup=adapter-service},1651529997,0
{consumergroup=adapter-service},1651530002,0
{consumergroup=adapter-service},1651530007,0
{consumergroup=adapter-service},1651530012,33741
{consumergroup=adapter-service},1651530017,33741
{consumergroup=adapter-service},1651530022,33741
{consumergroup=adapter-service},1651530027,41253
{consumergroup=adapter-service},1651530032,41253
{consumergroup=adapter-service},1651530037,41253
{consumergroup=adapter-service},1651530042,38346
{consumergroup=adapter-service},1651530047,38346
{consumergroup=adapter-service},1651530052,38346
{consumergroup=adapter-service},1651530057,18161
{consumergroup=adapter-service},1651530062,18161
{consumergroup=adapter-service},1651530067,18161
{consumergroup=adapter-service},1651530072,7066
{consumergroup=adapter-service},1651530077,7066
{consumergroup=adapter-service},1651530082,7066
{consumergroup=adapter-service},1651530087,2715
{consumergroup=adapter-service},1651530092,2715
{consumergroup=adapter-service},1651530097,2715
{consumergroup=adapter-service},1651530102,11763
{consumergroup=adapter-service},1651530107,11763
{consumergroup=adapter-service},1651530112,11763
{consumergroup=adapter-service},1651530117,12241
{consumergroup=adapter-service},1651530122,12241
{consumergroup=adapter-service},1651530127,12241
{consumergroup=adapter-service},1651530132,8990
{consumergroup=adapter-service},1651530137,8990
{consumergroup=adapter-service},1651530142,8990
{consumergroup=adapter-service},1651530147,10642
{consumergroup=adapter-service},1651530152,10642
{consumergroup=adapter-service},1651530157,10642
{consumergroup=adapter-service},1651530162,6931
{consumergroup=adapter-service},1651530167,6931
{consumergroup=adapter-service},1651530172,6931
{consumergroup=adapter-service},1651530177,13054
{consumergroup=adapter-service},1651530182,13054
{consumergroup=adapter-service},1651530187,13054
{consumergroup=adapter-service},1651530192,6358
{consumergroup=adapter-service},1651530197,6358
{consumergroup=adapter-service},1651530202,6358
{consumergroup=adapter-service},1651530207,7741
{consumergroup=adapter-service},1651530212,7741
{consumergroup=adapter-service},1651530217,7741
{consumergroup=adapter-service},1651530222,4278
{consumergroup=adapter-service},1651530227,4278
{consumergroup=adapter-service},1651530232,4278
{consumergroup=adapter-service},1651530237,6382
{consumergroup=adapter-service},1651530242,6382
{consumergroup=adapter-service},1651530247,6382
{consumergroup=adapter-service},1651530252,2703
{consumergroup=adapter-service},1651530257,2703
{consumergroup=adapter-service},1651530262,2703
{consumergroup=adapter-service},1651530267,4954
{consumergroup=adapter-service},1651530272,4954
{consumergroup=adapter-service},1651530277,4954
{consumergroup=adapter-service},1651530282,950
{consumergroup=adapter-service},1651530287,950
{consumergroup=adapter-service},1651530292,950
{consumergroup=adapter-service},1651530297,3341
{consumergroup=adapter-service},1651530302,3341
{consumergroup=adapter-service},1651530307,3341
{consumergroup=adapter-service},1651530312,7148
{consumergroup=adapter-service},1651530317,7148
{consumergroup=adapter-service},1651530322,7148
{consumergroup=adapter-service},1651530327,1695
{consumergroup=adapter-service},1651530332,1695
{consumergroup=adapter-service},1651530337,1695
{consumergroup=adapter-service},1651530342,6004
{consumergroup=adapter-service},1651530347,6004
{consumergroup=adapter-service},1651530352,6004
{consumergroup=adapter-service},1651530357,821
{consumergroup=adapter-service},1651530362,821
{consumergroup=adapter-service},1651530367,821
{consumergroup=adapter-service},1651530372,11827
{consumergroup=adapter-service},1651530377,11827
{consumergroup=adapter-service},1651530382,11827
{consumergroup=adapter-service},1651530387,7400
{consumergroup=adapter-service},1651530392,7400
{consumergroup=adapter-service},1651530397,7400
{consumergroup=adapter-service},1651530402,10500
{consumergroup=adapter-service},1651530407,10500
{consumergroup=landscape-service},1651530012,2651
{consumergroup=landscape-service},1651530017,2651
{consumergroup=landscape-service},1651530022,2651
{consumergroup=landscape-service},1651530027,1403
{consumergroup=landscape-service},1651530032,1403
{consumergroup=landscape-service},1651530037,1403
{consumergroup=landscape-service},1651530042,13149
{consumergroup=landscape-service},1651530047,13149
{consumergroup=landscape-service},1651530052,13149
{consumergroup=landscape-service},1651530057,671
{consumergroup=landscape-service},1651530062,671
{consumergroup=landscape-service},1651530067,671
{consumergroup=landscape-service},1651530072,15416
{consumergroup=landscape-service},1651530077,15416
{consumergroup=landscape-service},1651530082,15416
{consumergroup=landscape-service},1651530087,2377
{consumergroup=landscape-service},1651530092,2377
{consumergroup=landscape-service},1651530097,2377
{consumergroup=landscape-service},1651530102,11560
{consumergroup=landscape-service},1651530107,11560
{consumergroup=landscape-service},1651530112,11560
{consumergroup=landscape-service},1651530132,10953
{consumergroup=landscape-service},1651530137,10953
{consumergroup=landscape-service},1651530142,10953
{consumergroup=landscape-service},1651530162,10686
{consumergroup=landscape-service},1651530167,10686
{consumergroup=landscape-service},1651530172,10686
{consumergroup=landscape-service},1651530177,2200
{consumergroup=landscape-service},1651530182,2200
{consumergroup=landscape-service},1651530187,2200
{consumergroup=landscape-service},1651530192,9990
{consumergroup=landscape-service},1651530197,9990
{consumergroup=landscape-service},1651530202,9990
{consumergroup=landscape-service},1651530207,13017
{consumergroup=landscape-service},1651530212,13017
{consumergroup=landscape-service},1651530217,13017
{consumergroup=landscape-service},1651530222,9625
{consumergroup=landscape-service},1651530227,9625
{consumergroup=landscape-service},1651530232,9625
{consumergroup=landscape-service},1651530237,12556
{consumergroup=landscape-service},1651530242,12556
{consumergroup=landscape-service},1651530247,12556
{consumergroup=landscape-service},1651530252,9161
{consumergroup=landscape-service},1651530257,9161
{consumergroup=landscape-service},1651530262,9161
{consumergroup=landscape-service},1651530267,11932
{consumergroup=landscape-service},1651530272,11932
{consumergroup=landscape-service},1651530277,11932
{consumergroup=landscape-service},1651530282,8822
{consumergroup=landscape-service},1651530287,8822
{consumergroup=landscape-service},1651530292,8822
{consumergroup=landscape-service},1651530297,12416
{consumergroup=landscape-service},1651530302,12416
{consumergroup=landscape-service},1651530307,12416
{consumergroup=landscape-service},1651530312,9125
{consumergroup=landscape-service},1651530317,9125
{consumergroup=landscape-service},1651530322,9125
{consumergroup=landscape-service},1651530327,12068
{consumergroup=landscape-service},1651530332,12068
{consumergroup=landscape-service},1651530337,12068
{consumergroup=landscape-service},1651530342,8002
{consumergroup=landscape-service},1651530347,8002
{consumergroup=landscape-service},1651530352,8002
{consumergroup=landscape-service},1651530357,10699
{consumergroup=landscape-service},1651530362,10699
{consumergroup=landscape-service},1651530367,10699
{consumergroup=landscape-service},1651530372,6905
{consumergroup=landscape-service},1651530377,6905
{consumergroup=landscape-service},1651530382,6905
{consumergroup=landscape-service},1651530387,9522
{consumergroup=landscape-service},1651530392,9522
{consumergroup=landscape-service},1651530397,9522
{consumergroup=landscape-service},1651530402,6049
{consumergroup=landscape-service},1651530407,6049
{consumergroup=trace-service},1651530012,30212
{consumergroup=trace-service},1651530017,30212
{consumergroup=trace-service},1651530022,30212
{consumergroup=trace-service},1651530027,32659
{consumergroup=trace-service},1651530032,32659
{consumergroup=trace-service},1651530037,32659
{consumergroup=trace-service},1651530042,35512
{consumergroup=trace-service},1651530047,35512
{consumergroup=trace-service},1651530052,35512
{consumergroup=trace-service},1651530057,83089
{consumergroup=trace-service},1651530062,83089
{consumergroup=trace-service},1651530067,83089
{consumergroup=trace-service},1651530072,149114
{consumergroup=trace-service},1651530077,149114
{consumergroup=trace-service},1651530082,149114
{consumergroup=trace-service},1651530087,28509
{consumergroup=trace-service},1651530092,28509
{consumergroup=trace-service},1651530097,28509
{consumergroup=trace-service},1651530102,41525
{consumergroup=trace-service},1651530107,41525
{consumergroup=trace-service},1651530112,41525
{consumergroup=trace-service},1651530117,115811
{consumergroup=trace-service},1651530122,115811
{consumergroup=trace-service},1651530127,115811
{consumergroup=trace-service},1651530132,40703
{consumergroup=trace-service},1651530137,40703
{consumergroup=trace-service},1651530142,40703
{consumergroup=trace-service},1651530147,47432
{consumergroup=trace-service},1651530152,47432
{consumergroup=trace-service},1651530157,47432
{consumergroup=trace-service},1651530162,45140
{consumergroup=trace-service},1651530167,45140
{consumergroup=trace-service},1651530172,45140
{consumergroup=trace-service},1651530177,35627
{consumergroup=trace-service},1651530182,35627
{consumergroup=trace-service},1651530187,35627
{consumergroup=trace-service},1651530192,40450
{consumergroup=trace-service},1651530197,40450
{consumergroup=trace-service},1651530202,40450
{consumergroup=trace-service},1651530207,88482
{consumergroup=trace-service},1651530212,88482
{consumergroup=trace-service},1651530217,88482
{consumergroup=trace-service},1651530222,87542
{consumergroup=trace-service},1651530227,87542
{consumergroup=trace-service},1651530232,87542
{consumergroup=trace-service},1651530237,102876
{consumergroup=trace-service},1651530242,102876
{consumergroup=trace-service},1651530247,102876
{consumergroup=trace-service},1651530252,42829
{consumergroup=trace-service},1651530257,42829
{consumergroup=trace-service},1651530262,42829
{consumergroup=trace-service},1651530267,47697
{consumergroup=trace-service},1651530272,47697
{consumergroup=trace-service},1651530277,47697
{consumergroup=trace-service},1651530282,40425
{consumergroup=trace-service},1651530287,40425
{consumergroup=trace-service},1651530292,40425
{consumergroup=trace-service},1651530297,90891
{consumergroup=trace-service},1651530302,90891
{consumergroup=trace-service},1651530307,90891
{consumergroup=trace-service},1651530312,101275
{consumergroup=trace-service},1651530317,101275
{consumergroup=trace-service},1651530322,101275
{consumergroup=trace-service},1651530327,30723
{consumergroup=trace-service},1651530332,30723
{consumergroup=trace-service},1651530337,30723
{consumergroup=trace-service},1651530342,42574
{consumergroup=trace-service},1651530347,42574
{consumergroup=trace-service},1651530352,42574
{consumergroup=trace-service},1651530357,50653
{consumergroup=trace-service},1651530362,50653
{consumergroup=trace-service},1651530367,50653
{consumergroup=trace-service},1651530372,38494
{consumergroup=trace-service},1651530377,38494
{consumergroup=trace-service},1651530382,38494
{consumergroup=trace-service},1651530387,122474
{consumergroup=trace-service},1651530392,122474
{consumergroup=trace-service},1651530397,122474
{consumergroup=trace-service},1651530402,40241
{consumergroup=trace-service},1651530407,40241
{consumergroup=trace-token-events-consumer},1651529997,0
{consumergroup=trace-token-events-consumer},1651530002,0
{consumergroup=trace-token-events-consumer},1651530007,0
{consumergroup=trace-token-events-consumer},1651530012,0
{consumergroup=trace-token-events-consumer},1651530017,0
{consumergroup=trace-token-events-consumer},1651530022,0
{consumergroup=trace-token-events-consumer},1651530027,0
{consumergroup=trace-token-events-consumer},1651530032,0
{consumergroup=trace-token-events-consumer},1651530037,0
{consumergroup=trace-token-events-consumer},1651530042,0
{consumergroup=trace-token-events-consumer},1651530047,0
{consumergroup=trace-token-events-consumer},1651530052,0
{consumergroup=trace-token-events-consumer},1651530057,0
{consumergroup=trace-token-events-consumer},1651530062,0
{consumergroup=trace-token-events-consumer},1651530067,0
{consumergroup=trace-token-events-consumer},1651530072,0
{consumergroup=trace-token-events-consumer},1651530077,0
{consumergroup=trace-token-events-consumer},1651530082,0
{consumergroup=trace-token-events-consumer},1651530087,0
{consumergroup=trace-token-events-consumer},1651530092,0
{consumergroup=trace-token-events-consumer},1651530097,0
{consumergroup=trace-token-events-consumer},1651530102,0
{consumergroup=trace-token-events-consumer},1651530107,0
{consumergroup=trace-token-events-consumer},1651530112,0
{consumergroup=trace-token-events-consumer},1651530117,0
{consumergroup=trace-token-events-consumer},1651530122,0
{consumergroup=trace-token-events-consumer},1651530127,0
{consumergroup=trace-token-events-consumer},1651530132,0
{consumergroup=trace-token-events-consumer},1651530137,0
{consumergroup=trace-token-events-consumer},1651530142,0
{consumergroup=trace-token-events-consumer},1651530147,0
{consumergroup=trace-token-events-consumer},1651530152,0
{consumergroup=trace-token-events-consumer},1651530157,0
{consumergroup=trace-token-events-consumer},1651530162,0
{consumergroup=trace-token-events-consumer},1651530167,0
{consumergroup=trace-token-events-consumer},1651530172,0
{consumergroup=trace-token-events-consumer},1651530177,0
{consumergroup=trace-token-events-consumer},1651530182,0
{consumergroup=trace-token-events-consumer},1651530187,0
{consumergroup=trace-token-events-consumer},1651530192,0
{consumergroup=trace-token-events-consumer},1651530197,0
{consumergroup=trace-token-events-consumer},1651530202,0
{consumergroup=trace-token-events-consumer},1651530207,0
{consumergroup=trace-token-events-consumer},1651530212,0
{consumergroup=trace-token-events-consumer},1651530217,0
{consumergroup=trace-token-events-consumer},1651530222,0
{consumergroup=trace-token-events-consumer},1651530227,0
{consumergroup=trace-token-events-consumer},1651530232,0
{consumergroup=trace-token-events-consumer},1651530237,0
{consumergroup=trace-token-events-consumer},1651530242,0
{consumergroup=trace-token-events-consumer},1651530247,0
{consumergroup=trace-token-events-consumer},1651530252,0
{consumergroup=trace-token-events-consumer},1651530257,0
{consumergroup=trace-token-events-consumer},1651530262,0
{consumergroup=trace-token-events-consumer},1651530267,0
{consumergroup=trace-token-events-consumer},1651530272,0
{consumergroup=trace-token-events-consumer},1651530277,0
{consumergroup=trace-token-events-consumer},1651530282,0
{consumergroup=trace-token-events-consumer},1651530287,0
{consumergroup=trace-token-events-consumer},1651530292,0
{consumergroup=trace-token-events-consumer},1651530297,0
{consumergroup=trace-token-events-consumer},1651530302,0
{consumergroup=trace-token-events-consumer},1651530307,0
{consumergroup=trace-token-events-consumer},1651530312,0
{consumergroup=trace-token-events-consumer},1651530317,0
{consumergroup=trace-token-events-consumer},1651530322,0
{consumergroup=trace-token-events-consumer},1651530327,0
{consumergroup=trace-token-events-consumer},1651530332,0
{consumergroup=trace-token-events-consumer},1651530337,0
{consumergroup=trace-token-events-consumer},1651530342,0
{consumergroup=trace-token-events-consumer},1651530347,0
{consumergroup=trace-token-events-consumer},1651530352,0
{consumergroup=trace-token-events-consumer},1651530357,0
{consumergroup=trace-token-events-consumer},1651530362,0
{consumergroup=trace-token-events-consumer},1651530367,0
{consumergroup=trace-token-events-consumer},1651530372,0
{consumergroup=trace-token-events-consumer},1651530377,0
{consumergroup=trace-token-events-consumer},1651530382,0
{consumergroup=trace-token-events-consumer},1651530387,0
{consumergroup=trace-token-events-consumer},1651530392,0
{consumergroup=trace-token-events-consumer},1651530397,0
{consumergroup=trace-token-events-consumer},1651530402,0
{consumergroup=trace-token-events-consumer},1651530407,0
