labels,timestamp,value
{consumergroup=__strimzi-topic-operator-kstreams},1651553198,11
{consumergroup=__strimzi-topic-operator-kstreams},1651553203,11
{consumergroup=__strimzi-topic-operator-kstreams},1651553208,11
{consumergroup=__strimzi-topic-operator-kstreams},1651553213,1
{consumergroup=__strimzi-topic-operator-kstreams},1651553218,1
{consumergroup=__strimzi-topic-operator-kstreams},1651553223,1
{consumergroup=__strimzi-topic-operator-kstreams},1651553228,3
{consumergroup=__strimzi-topic-operator-kstreams},1651553233,3
{consumergroup=__strimzi-topic-operator-kstreams},1651553238,3
{consumergroup=__strimzi-topic-operator-kstreams},1651553243,0
{consumergroup=__strimzi-topic-operator-kstreams},1651553248,0
{consumergroup=__strimzi-topic-operator-kstreams},1651553253,0
{consumergroup=__strimzi-topic-operator-kstreams},1651553258,0
{consumergroup=__strimzi-topic-operator-kstreams},1651553263,0
{consumergroup=__strimzi-topic-operator-kstreams},1651553268,0
{consumergroup=__strimzi-topic-operator-kstreams},1651553273,0
{consumergroup=__strimzi-topic-operator-kstreams},1651553278,0
{consumergroup=__strimzi-topic-operator-kstreams},1651553283,0
{consumergroup=__strimzi-topic-operator-kstreams},1651553288,0
{consumergroup=__strimzi-topic-operator-kstreams},1651553293,0
{consumergroup=__strimzi-topic-operator-kstreams},1651553298,0
{consumergroup=__strimzi-topic-operator-kstreams},1651553303,0
{consumergroup=__strimzi-topic-operator-kstreams},1651553308,0
{consumergroup=__strimzi-topic-operator-kstreams},1651553313,0
{consumergroup=__strimzi-topic-operator-kstreams},1651553318,0
{consumergroup=__strimzi-topic-operator-kstreams},1651553323,0
{consumergroup=__strimzi-topic-operator-kstreams},1651553328,0
{consumergroup=__strimzi-topic-operator-kstreams},1651553333,0
{consumergroup=__strimzi-topic-operator-kstreams},1651553338,0
{consumergroup=__strimzi-topic-operator-kstreams},1651553343,0
{consumergroup=__strimzi-topic-operator-kstreams},1651553348,0
{consumergroup=__strimzi-topic-operator-kstreams},1651553353,0
{consumergroup=__strimzi-topic-operator-kstreams},1651553358,0
{consumergroup=__strimzi-topic-operator-kstreams},1651553363,0
{consumergroup=__strimzi-topic-operator-kstreams},1651553368,0
{consumergroup=__strimzi-topic-operator-kstreams},1651553373,0
{consumergroup=__strimzi-topic-operator-kstreams},1651553378,0
{consumergroup=__strimzi-topic-operator-kstreams},1651553383,0
{consumergroup=__strimzi-topic-operator-kstreams},1651553388,0
{consumergroup=__strimzi-topic-operator-kstreams},1651553393,0
{consumergroup=__strimzi-topic-operator-kstreams},1651553398,0
{consumergroup=__strimzi-topic-operator-kstreams},1651553403,0
{consumergroup=__strimzi-topic-operator-kstreams},1651553408,0
{consumergroup=__strimzi-topic-operator-kstreams},1651553413,0
{consumergroup=__strimzi-topic-operator-kstreams},1651553418,0
{consumergroup=__strimzi-topic-operator-kstreams},1651553423,0
{consumergroup=__strimzi-topic-operator-kstreams},1651553428,0
{consumergroup=__strimzi-topic-operator-kstreams},1651553433,0
{consumergroup=__strimzi-topic-operator-kstreams},1651553438,0
{consumergroup=__strimzi-topic-operator-kstreams},1651553443,0
{consumergroup=__strimzi-topic-operator-kstreams},1651553448,0
{consumergroup=__strimzi-topic-operator-kstreams},1651553453,0
{consumergroup=__strimzi-topic-operator-kstreams},1651553458,0
{consumergroup=__strimzi-topic-operator-kstreams},1651553463,0
{consumergroup=__strimzi-topic-operator-kstreams},1651553468,0
{consumergroup=__strimzi-topic-operator-kstreams},1651553473,0
{consumergroup=__strimzi-topic-operator-kstreams},1651553478,0
{consumergroup=__strimzi-topic-operator-kstreams},1651553483,0
{consumergroup=__strimzi-topic-operator-kstreams},1651553488,0
{consumergroup=__strimzi-topic-operator-kstreams},1651553493,0
{consumergroup=__strimzi-topic-operator-kstreams},1651553498,0
{consumergroup=__strimzi-topic-operator-kstreams},1651553503,0
{consumergroup=__strimzi-topic-operator-kstreams},1651553508,0
{consumergroup=__strimzi-topic-operator-kstreams},1651553513,0
{consumergroup=__strimzi-topic-operator-kstreams},1651553518,0
{consumergroup=__strimzi-topic-operator-kstreams},1651553523,0
{consumergroup=__strimzi-topic-operator-kstreams},1651553528,0
{consumergroup=__strimzi-topic-operator-kstreams},1651553533,0
{consumergroup=__strimzi-topic-operator-kstreams},1651553538,0
{consumergroup=__strimzi-topic-operator-kstreams},1651553543,0
{consumergroup=__strimzi-topic-operator-kstreams},1651553548,0
{consumergroup=__strimzi-topic-operator-kstreams},1651553553,0
{consumergroup=__strimzi-topic-operator-kstreams},1651553558,0
{consumergroup=__strimzi-topic-operator-kstreams},1651553563,0
{consumergroup=__strimzi-topic-operator-kstreams},1651553568,0
{consumergroup=__strimzi-topic-operator-kstreams},1651553573,0
{consumergroup=__strimzi-topic-operator-kstreams},1651553578,0
{consumergroup=__strimzi-topic-operator-kstreams},1651553583,0
{consumergroup=__strimzi-topic-operator-kstreams},1651553588,0
{consumergroup=__strimzi-topic-operator-kstreams},1651553593,0
{consumergroup=__strimzi-topic-operator-kstreams},1651553598,0
{consumergroup=__strimzi-topic-operator-kstreams},1651553603,0
{consumergroup=__strimzi-topic-operator-kstreams},1651553608,0
{consumergroup=__strimzi-topic-operator-kstreams},1651553613,0
{consumergroup=__strimzi-topic-operator-kstreams},1651553618,0
{consumergroup=__strimzi-topic-operator-kstreams},1651553623,0
{consumergroup=__strimzi-topic-operator-kstreams},1651553628,0
{consumergroup=__strimzi-topic-operator-kstreams},1651553633,0
{consumergroup=__strimzi-topic-operator-kstreams},1651553638,0
{consumergroup=__strimzi-topic-operator-kstreams},1651553643,0
{consumergroup=adapter-service},1651553228,0
{consumergroup=adapter-service},1651553233,0
{consumergroup=adapter-service},1651553238,0
{consumergroup=adapter-service},1651553243,30462
{consumergroup=adapter-service},1651553248,30462
{consumergroup=adapter-service},1651553253,30462
{consumergroup=adapter-service},1651553258,3908
{consumergroup=adapter-service},1651553263,3908
{consumergroup=adapter-service},1651553268,3908
{consumergroup=adapter-service},1651553273,3518
{consumergroup=adapter-service},1651553278,3518
{consumergroup=adapter-service},1651553283,3518
{consumergroup=adapter-service},1651553288,2824
{consumergroup=adapter-service},1651553293,2824
{consumergroup=adapter-service},1651553298,2824
{consumergroup=adapter-service},1651553303,3636
{consumergroup=adapter-service},1651553308,3636
{consumergroup=adapter-service},1651553313,3636
{consumergroup=adapter-service},1651553318,17031
{consumergroup=adapter-service},1651553323,17031
{consumergroup=adapter-service},1651553328,17031
{consumergroup=adapter-service},1651553333,7467
{consumergroup=adapter-service},1651553338,7467
{consumergroup=adapter-service},1651553343,7467
{consumergroup=adapter-service},1651553348,17756
{consumergroup=adapter-service},1651553353,17756
{consumergroup=adapter-service},1651553358,17756
{consumergroup=adapter-service},1651553363,7381
{consumergroup=adapter-service},1651553368,7381
{consumergroup=adapter-service},1651553373,7381
{consumergroup=adapter-service},1651553378,17316
{consumergroup=adapter-service},1651553383,17316
{consumergroup=adapter-service},1651553388,17316
{consumergroup=adapter-service},1651553393,2701
{consumergroup=adapter-service},1651553398,2701
{consumergroup=adapter-service},1651553403,2701
{consumergroup=adapter-service},1651553408,17963
{consumergroup=adapter-service},1651553413,17963
{consumergroup=adapter-service},1651553418,17963
{consumergroup=adapter-service},1651553423,6970
{consumergroup=adapter-service},1651553428,6970
{consumergroup=adapter-service},1651553433,6970
{consumergroup=adapter-service},1651553438,7040
{consumergroup=adapter-service},1651553443,7040
{consumergroup=adapter-service},1651553448,7040
{consumergroup=adapter-service},1651553453,16541
{consumergroup=adapter-service},1651553458,16541
{consumergroup=adapter-service},1651553463,16541
{consumergroup=adapter-service},1651553468,16641
{consumergroup=adapter-service},1651553473,16641
{consumergroup=adapter-service},1651553478,16641
{consumergroup=adapter-service},1651553483,4022
{consumergroup=adapter-service},1651553488,4022
{consumergroup=adapter-service},1651553493,4022
{consumergroup=adapter-service},1651553498,16378
{consumergroup=adapter-service},1651553503,16378
{consumergroup=adapter-service},1651553508,16378
{consumergroup=adapter-service},1651553513,15850
{consumergroup=adapter-service},1651553518,15850
{consumergroup=adapter-service},1651553523,15850
{consumergroup=adapter-service},1651553528,15938
{consumergroup=adapter-service},1651553533,15938
{consumergroup=adapter-service},1651553538,15938
{consumergroup=adapter-service},1651553543,15680
{consumergroup=adapter-service},1651553548,15680
{consumergroup=adapter-service},1651553553,15680
{consumergroup=adapter-service},1651553558,14240
{consumergroup=adapter-service},1651553563,14240
{consumergroup=adapter-service},1651553568,14240
{consumergroup=adapter-service},1651553573,18438
{consumergroup=adapter-service},1651553578,18438
{consumergroup=adapter-service},1651553583,18438
{consumergroup=adapter-service},1651553588,15091
{consumergroup=adapter-service},1651553593,15091
{consumergroup=adapter-service},1651553598,15091
{consumergroup=adapter-service},1651553603,5092
{consumergroup=adapter-service},1651553608,5092
{consumergroup=adapter-service},1651553613,5092
{consumergroup=adapter-service},1651553618,15238
{consumergroup=adapter-service},1651553623,15238
{consumergroup=adapter-service},1651553628,15238
{consumergroup=adapter-service},1651553633,16673
{consumergroup=adapter-service},1651553638,16673
{consumergroup=adapter-service},1651553643,16673
{consumergroup=landscape-service},1651553243,30770
{consumergroup=landscape-service},1651553248,30770
{consumergroup=landscape-service},1651553253,30770
{consumergroup=landscape-service},1651553258,66961
{consumergroup=landscape-service},1651553263,66961
{consumergroup=landscape-service},1651553268,66961
{consumergroup=landscape-service},1651553273,20430
{consumergroup=landscape-service},1651553278,20430
{consumergroup=landscape-service},1651553283,20430
{consumergroup=landscape-service},1651553288,18652
{consumergroup=landscape-service},1651553293,18652
{consumergroup=landscape-service},1651553298,18652
{consumergroup=landscape-service},1651553303,16844
{consumergroup=landscape-service},1651553308,16844
{consumergroup=landscape-service},1651553313,16844
{consumergroup=landscape-service},1651553318,13828
{consumergroup=landscape-service},1651553323,13828
{consumergroup=landscape-service},1651553328,13828
{consumergroup=landscape-service},1651553333,17447
{consumergroup=landscape-service},1651553338,17447
{consumergroup=landscape-service},1651553343,17447
{consumergroup=landscape-service},1651553348,12588
{consumergroup=landscape-service},1651553353,12588
{consumergroup=landscape-service},1651553358,12588
{consumergroup=landscape-service},1651553363,14988
{consumergroup=landscape-service},1651553368,14988
{consumergroup=landscape-service},1651553373,14988
{consumergroup=landscape-service},1651553378,10898
{consumergroup=landscape-service},1651553383,10898
{consumergroup=landscape-service},1651553388,10898
{consumergroup=landscape-service},1651553393,18682
{consumergroup=landscape-service},1651553398,18682
{consumergroup=landscape-service},1651553403,18682
{consumergroup=landscape-service},1651553408,8998
{consumergroup=landscape-service},1651553413,8998
{consumergroup=landscape-service},1651553418,8998
{consumergroup=landscape-service},1651553423,11707
{consumergroup=landscape-service},1651553428,11707
{consumergroup=landscape-service},1651553433,11707
{consumergroup=landscape-service},1651553438,12010
{consumergroup=landscape-service},1651553443,12010
{consumergroup=landscape-service},1651553448,12010
{consumergroup=landscape-service},1651553453,11020
{consumergroup=landscape-service},1651553458,11020
{consumergroup=landscape-service},1651553463,11020
{consumergroup=landscape-service},1651553468,5728
{consumergroup=landscape-service},1651553473,5728
{consumergroup=landscape-service},1651553478,5728
{consumergroup=landscape-service},1651553483,12777
{consumergroup=landscape-service},1651553488,12777
{consumergroup=landscape-service},1651553493,12777
{consumergroup=landscape-service},1651553498,4145
{consumergroup=landscape-service},1651553503,4145
{consumergroup=landscape-service},1651553508,4145
{consumergroup=landscape-service},1651553513,7136
{consumergroup=landscape-service},1651553518,7136
{consumergroup=landscape-service},1651553523,7136
{consumergroup=landscape-service},1651553528,3363
{consumergroup=landscape-service},1651553533,3363
{consumergroup=landscape-service},1651553538,3363
{consumergroup=landscape-service},1651553543,5051
{consumergroup=landscape-service},1651553548,5051
{consumergroup=landscape-service},1651553553,5051
{consumergroup=landscape-service},1651553558,619
{consumergroup=landscape-service},1651553563,619
{consumergroup=landscape-service},1651553568,619
{consumergroup=landscape-service},1651553573,2921
{consumergroup=landscape-service},1651553578,2921
{consumergroup=landscape-service},1651553583,2921
{consumergroup=landscape-service},1651553588,21272
{consumergroup=landscape-service},1651553593,21272
{consumergroup=landscape-service},1651553598,21272
{consumergroup=landscape-service},1651553603,5409
{consumergroup=landscape-service},1651553608,5409
{consumergroup=landscape-service},1651553613,5409
{consumergroup=landscape-service},1651553618,1471
{consumergroup=landscape-service},1651553623,1471
{consumergroup=landscape-service},1651553628,1471
{consumergroup=trace-service},1651553243,42574
{consumergroup=trace-service},1651553248,42574
{consumergroup=trace-service},1651553253,42574
{consumergroup=trace-service},1651553258,54973
{consumergroup=trace-service},1651553263,54973
{consumergroup=trace-service},1651553268,54973
{consumergroup=trace-service},1651553273,99642
{consumergroup=trace-service},1651553278,99642
{consumergroup=trace-service},1651553283,99642
{consumergroup=trace-service},1651553288,46443
{consumergroup=trace-service},1651553293,46443
{consumergroup=trace-service},1651553298,46443
{consumergroup=trace-service},1651553303,99662
{consumergroup=trace-service},1651553308,99662
{consumergroup=trace-service},1651553313,99662
{consumergroup=trace-service},1651553318,46898
{consumergroup=trace-service},1651553323,46898
{consumergroup=trace-service},1651553328,46898
{consumergroup=trace-service},1651553333,133781
{consumergroup=trace-service},1651553338,133781
{consumergroup=trace-service},1651553343,133781
{consumergroup=trace-service},1651553348,41970
{consumergroup=trace-service},1651553353,41970
{consumergroup=trace-service},1651553358,41970
{consumergroup=trace-service},1651553363,99619
{consumergroup=trace-service},1651553368,99619
{consumergroup=trace-service},1651553373,99619
{consumergroup=trace-service},1651553378,48966
{consumergroup=trace-service},1651553383,48966
{consumergroup=trace-service},1651553388,48966
{consumergroup=trace-service},1651553393,113324
{consumergroup=trace-service},1651553398,113324
{consumergroup=trace-service},1651553403,113324
{consumergroup=trace-service},1651553408,33657
{consumergroup=trace-service},1651553413,33657
{consumergroup=trace-service},1651553418,33657
{consumergroup=trace-service},1651553423,93080
{consumergroup=trace-service},1651553428,93080
{consumergroup=trace-service},1651553433,93080
{consumergroup=trace-service},1651553438,210683
{consumergroup=trace-service},1651553443,210683
{consumergroup=trace-service},1651553448,210683
{consumergroup=trace-service},1651553453,97092
{consumergroup=trace-service},1651553458,97092
{consumergroup=trace-service},1651553463,97092
{consumergroup=trace-service},1651553468,53445
{consumergroup=trace-service},1651553473,53445
{consumergroup=trace-service},1651553478,53445
{consumergroup=trace-service},1651553483,94301
{consumergroup=trace-service},1651553488,94301
{consumergroup=trace-service},1651553493,94301
{consumergroup=trace-service},1651553498,40267
{consumergroup=trace-service},1651553503,40267
{consumergroup=trace-service},1651553508,40267
{consumergroup=trace-service},1651553513,75990
{consumergroup=trace-service},1651553518,75990
{consumergroup=trace-service},1651553523,75990
{consumergroup=trace-service},1651553528,48457
{consumergroup=trace-service},1651553533,48457
{consumergroup=trace-service},1651553538,48457
{consumergroup=trace-service},1651553543,101876
{consumergroup=trace-service},1651553548,101876
{consumergroup=trace-service},1651553553,101876
{consumergroup=trace-service},1651553558,49410
{consumergroup=trace-service},1651553563,49410
{consumergroup=trace-service},1651553568,49410
{consumergroup=trace-service},1651553573,94125
{consumergroup=trace-service},1651553578,94125
{consumergroup=trace-service},1651553583,94125
{consumergroup=trace-service},1651553588,47833
{consumergroup=trace-service},1651553593,47833
{consumergroup=trace-service},1651553598,47833
{consumergroup=trace-service},1651553603,101866
{consumergroup=trace-service},1651553608,101866
{consumergroup=trace-service},1651553613,101866
{consumergroup=trace-service},1651553618,51032
{consumergroup=trace-service},1651553623,51032
{consumergroup=trace-service},1651553628,51032
{consumergroup=trace-service},1651553633,87860
{consumergroup=trace-service},1651553638,87860
{consumergroup=trace-service},1651553643,87860
{consumergroup=trace-token-events-consumer},1651553228,0
{consumergroup=trace-token-events-consumer},1651553233,0
{consumergroup=trace-token-events-consumer},1651553238,0
{consumergroup=trace-token-events-consumer},1651553243,0
{consumergroup=trace-token-events-consumer},1651553248,0
{consumergroup=trace-token-events-consumer},1651553253,0
{consumergroup=trace-token-events-consumer},1651553258,0
{consumergroup=trace-token-events-consumer},1651553263,0
{consumergroup=trace-token-events-consumer},1651553268,0
{consumergroup=trace-token-events-consumer},1651553273,0
{consumergroup=trace-token-events-consumer},1651553278,0
{consumergroup=trace-token-events-consumer},1651553283,0
{consumergroup=trace-token-events-consumer},1651553288,0
{consumergroup=trace-token-events-consumer},1651553293,0
{consumergroup=trace-token-events-consumer},1651553298,0
{consumergroup=trace-token-events-consumer},1651553303,0
{consumergroup=trace-token-events-consumer},1651553308,0
{consumergroup=trace-token-events-consumer},1651553313,0
{consumergroup=trace-token-events-consumer},1651553318,0
{consumergroup=trace-token-events-consumer},1651553323,0
{consumergroup=trace-token-events-consumer},1651553328,0
{consumergroup=trace-token-events-consumer},1651553333,0
{consumergroup=trace-token-events-consumer},1651553338,0
{consumergroup=trace-token-events-consumer},1651553343,0
{consumergroup=trace-token-events-consumer},1651553348,0
{consumergroup=trace-token-events-consumer},1651553353,0
{consumergroup=trace-token-events-consumer},1651553358,0
{consumergroup=trace-token-events-consumer},1651553363,0
{consumergroup=trace-token-events-consumer},1651553368,0
{consumergroup=trace-token-events-consumer},1651553373,0
{consumergroup=trace-token-events-consumer},1651553378,0
{consumergroup=trace-token-events-consumer},1651553383,0
{consumergroup=trace-token-events-consumer},1651553388,0
{consumergroup=trace-token-events-consumer},1651553393,0
{consumergroup=trace-token-events-consumer},1651553398,0
{consumergroup=trace-token-events-consumer},1651553403,0
{consumergroup=trace-token-events-consumer},1651553408,0
{consumergroup=trace-token-events-consumer},1651553413,0
{consumergroup=trace-token-events-consumer},1651553418,0
{consumergroup=trace-token-events-consumer},1651553423,0
{consumergroup=trace-token-events-consumer},1651553428,0
{consumergroup=trace-token-events-consumer},1651553433,0
{consumergroup=trace-token-events-consumer},1651553438,0
{consumergroup=trace-token-events-consumer},1651553443,0
{consumergroup=trace-token-events-consumer},1651553448,0
{consumergroup=trace-token-events-consumer},1651553453,0
{consumergroup=trace-token-events-consumer},1651553458,0
{consumergroup=trace-token-events-consumer},1651553463,0
{consumergroup=trace-token-events-consumer},1651553468,0
{consumergroup=trace-token-events-consumer},1651553473,0
{consumergroup=trace-token-events-consumer},1651553478,0
{consumergroup=trace-token-events-consumer},1651553483,0
{consumergroup=trace-token-events-consumer},1651553488,0
{consumergroup=trace-token-events-consumer},1651553493,0
{consumergroup=trace-token-events-consumer},1651553498,0
{consumergroup=trace-token-events-consumer},1651553503,0
{consumergroup=trace-token-events-consumer},1651553508,0
{consumergroup=trace-token-events-consumer},1651553513,0
{consumergroup=trace-token-events-consumer},1651553518,0
{consumergroup=trace-token-events-consumer},1651553523,0
{consumergroup=trace-token-events-consumer},1651553528,0
{consumergroup=trace-token-events-consumer},1651553533,0
{consumergroup=trace-token-events-consumer},1651553538,0
{consumergroup=trace-token-events-consumer},1651553543,0
{consumergroup=trace-token-events-consumer},1651553548,0
{consumergroup=trace-token-events-consumer},1651553553,0
{consumergroup=trace-token-events-consumer},1651553558,0
{consumergroup=trace-token-events-consumer},1651553563,0
{consumergroup=trace-token-events-consumer},1651553568,0
{consumergroup=trace-token-events-consumer},1651553573,0
{consumergroup=trace-token-events-consumer},1651553578,0
{consumergroup=trace-token-events-consumer},1651553583,0
{consumergroup=trace-token-events-consumer},1651553588,0
{consumergroup=trace-token-events-consumer},1651553593,0
{consumergroup=trace-token-events-consumer},1651553598,0
{consumergroup=trace-token-events-consumer},1651553603,0
{consumergroup=trace-token-events-consumer},1651553608,0
{consumergroup=trace-token-events-consumer},1651553613,0
{consumergroup=trace-token-events-consumer},1651553618,0
{consumergroup=trace-token-events-consumer},1651553623,0
{consumergroup=trace-token-events-consumer},1651553628,0
{consumergroup=trace-token-events-consumer},1651553633,0
{consumergroup=trace-token-events-consumer},1651553638,0
{consumergroup=trace-token-events-consumer},1651553643,0
