labels,timestamp,value
{job=theodolite-stu200776/combined-trace-podmonitor},1651532219,0
{job=theodolite-stu200776/combined-trace-podmonitor},1651532224,0
{job=theodolite-stu200776/combined-trace-podmonitor},1651532229,0
{job=theodolite-stu200776/combined-trace-podmonitor},1651532234,0
{job=theodolite-stu200776/combined-trace-podmonitor},1651532239,0
{job=theodolite-stu200776/combined-trace-podmonitor},1651532244,0
{job=theodolite-stu200776/combined-trace-podmonitor},1651532249,0
{job=theodolite-stu200776/combined-trace-podmonitor},1651532254,0
{job=theodolite-stu200776/combined-trace-podmonitor},1651532259,0
{job=theodolite-stu200776/combined-trace-podmonitor},1651532264,0
{job=theodolite-stu200776/combined-trace-podmonitor},1651532269,0
{job=theodolite-stu200776/combined-trace-podmonitor},1651532274,0
{job=theodolite-stu200776/combined-trace-podmonitor},1651532279,0
{job=theodolite-stu200776/combined-trace-podmonitor},1651532284,0
{job=theodolite-stu200776/combined-trace-podmonitor},1651532289,0
{job=theodolite-stu200776/combined-trace-podmonitor},1651532294,0
{job=theodolite-stu200776/combined-trace-podmonitor},1651532299,0
{job=theodolite-stu200776/combined-trace-podmonitor},1651532304,0
{job=theodolite-stu200776/combined-trace-podmonitor},1651532309,0
{job=theodolite-stu200776/combined-trace-podmonitor},1651532314,0
{job=theodolite-stu200776/combined-trace-podmonitor},1651532319,0
{job=theodolite-stu200776/combined-trace-podmonitor},1651532324,0
{job=theodolite-stu200776/combined-trace-podmonitor},1651532329,0
{job=theodolite-stu200776/combined-trace-podmonitor},1651532334,0
{job=theodolite-stu200776/combined-trace-podmonitor},1651532339,0
{job=theodolite-stu200776/combined-trace-podmonitor},1651532344,0
{job=theodolite-stu200776/combined-trace-podmonitor},1651532349,0
{job=theodolite-stu200776/combined-trace-podmonitor},1651532354,0
{job=theodolite-stu200776/combined-trace-podmonitor},1651532359,0
{job=theodolite-stu200776/combined-trace-podmonitor},1651532364,0
{job=theodolite-stu200776/combined-trace-podmonitor},1651532369,0
{job=theodolite-stu200776/combined-trace-podmonitor},1651532374,0
{job=theodolite-stu200776/combined-trace-podmonitor},1651532379,0
{job=theodolite-stu200776/combined-trace-podmonitor},1651532384,0
{job=theodolite-stu200776/combined-trace-podmonitor},1651532389,0
{job=theodolite-stu200776/combined-trace-podmonitor},1651532394,0
{job=theodolite-stu200776/combined-trace-podmonitor},1651532399,0
{job=theodolite-stu200776/combined-trace-podmonitor},1651532404,0
{job=theodolite-stu200776/combined-trace-podmonitor},1651532409,0
{job=theodolite-stu200776/combined-trace-podmonitor},1651532414,0
{job=theodolite-stu200776/combined-trace-podmonitor},1651532419,0
{job=theodolite-stu200776/combined-trace-podmonitor},1651532424,0
{job=theodolite-stu200776/combined-trace-podmonitor},1651532429,0
{job=theodolite-stu200776/combined-trace-podmonitor},1651532434,0
{job=theodolite-stu200776/combined-trace-podmonitor},1651532439,0
{job=theodolite-stu200776/combined-trace-podmonitor},1651532444,0
{job=theodolite-stu200776/combined-trace-podmonitor},1651532449,0
{job=theodolite-stu200776/combined-trace-podmonitor},1651532454,0
{job=theodolite-stu200776/combined-trace-podmonitor},1651532459,0
{job=theodolite-stu200776/combined-trace-podmonitor},1651532464,0
{job=theodolite-stu200776/combined-trace-podmonitor},1651532469,0
{job=theodolite-stu200776/combined-trace-podmonitor},1651532474,0
{job=theodolite-stu200776/combined-trace-podmonitor},1651532479,0
{job=theodolite-stu200776/combined-trace-podmonitor},1651532484,0
{job=theodolite-stu200776/combined-trace-podmonitor},1651532489,0
{job=theodolite-stu200776/combined-trace-podmonitor},1651532494,0
{job=theodolite-stu200776/combined-trace-podmonitor},1651532499,0
{job=theodolite-stu200776/combined-trace-podmonitor},1651532504,0
{job=theodolite-stu200776/combined-trace-podmonitor},1651532509,0
{job=theodolite-stu200776/combined-trace-podmonitor},1651532514,0
{job=theodolite-stu200776/combined-trace-podmonitor},1651532519,0
{job=theodolite-stu200776/combined-trace-podmonitor},1651532524,0
{job=theodolite-stu200776/combined-trace-podmonitor},1651532529,0
{job=theodolite-stu200776/combined-trace-podmonitor},1651532534,0
{job=theodolite-stu200776/combined-trace-podmonitor},1651532539,0
{job=theodolite-stu200776/combined-trace-podmonitor},1651532544,0
{job=theodolite-stu200776/combined-trace-podmonitor},1651532549,0
{job=theodolite-stu200776/combined-trace-podmonitor},1651532554,0
{job=theodolite-stu200776/combined-trace-podmonitor},1651532559,0
{job=theodolite-stu200776/combined-trace-podmonitor},1651532564,0
{job=theodolite-stu200776/combined-trace-podmonitor},1651532569,0
{job=theodolite-stu200776/combined-trace-podmonitor},1651532574,0
{job=theodolite-stu200776/combined-trace-podmonitor},1651532579,0
{job=theodolite-stu200776/combined-trace-podmonitor},1651532584,0
{job=theodolite-stu200776/combined-trace-podmonitor},1651532589,0
{job=theodolite-stu200776/combined-trace-podmonitor},1651532594,0
