labels,timestamp,value
{consumergroup=__strimzi-topic-operator-kstreams},1651549875,0
{consumergroup=__strimzi-topic-operator-kstreams},1651549880,0
{consumergroup=__strimzi-topic-operator-kstreams},1651549885,0
{consumergroup=__strimzi-topic-operator-kstreams},1651549890,8
{consumergroup=__strimzi-topic-operator-kstreams},1651549895,8
{consumergroup=__strimzi-topic-operator-kstreams},1651549900,8
{consumergroup=__strimzi-topic-operator-kstreams},1651549905,0
{consumergroup=__strimzi-topic-operator-kstreams},1651549910,0
{consumergroup=__strimzi-topic-operator-kstreams},1651549915,0
{consumergroup=__strimzi-topic-operator-kstreams},1651549920,0
{consumergroup=__strimzi-topic-operator-kstreams},1651549925,0
{consumergroup=__strimzi-topic-operator-kstreams},1651549930,0
{consumergroup=__strimzi-topic-operator-kstreams},1651549935,0
{consumergroup=__strimzi-topic-operator-kstreams},1651549940,0
{consumergroup=__strimzi-topic-operator-kstreams},1651549945,0
{consumergroup=__strimzi-topic-operator-kstreams},1651549950,0
{consumergroup=__strimzi-topic-operator-kstreams},1651549955,0
{consumergroup=__strimzi-topic-operator-kstreams},1651549960,0
{consumergroup=__strimzi-topic-operator-kstreams},1651549965,0
{consumergroup=__strimzi-topic-operator-kstreams},1651549970,0
{consumergroup=__strimzi-topic-operator-kstreams},1651549975,0
{consumergroup=__strimzi-topic-operator-kstreams},1651549980,0
{consumergroup=__strimzi-topic-operator-kstreams},1651549985,0
{consumergroup=__strimzi-topic-operator-kstreams},1651549990,0
{consumergroup=__strimzi-topic-operator-kstreams},1651549995,0
{consumergroup=__strimzi-topic-operator-kstreams},1651550000,0
{consumergroup=__strimzi-topic-operator-kstreams},1651550005,0
{consumergroup=__strimzi-topic-operator-kstreams},1651550010,0
{consumergroup=__strimzi-topic-operator-kstreams},1651550015,0
{consumergroup=__strimzi-topic-operator-kstreams},1651550020,0
{consumergroup=__strimzi-topic-operator-kstreams},1651550025,0
{consumergroup=__strimzi-topic-operator-kstreams},1651550030,0
{consumergroup=__strimzi-topic-operator-kstreams},1651550035,0
{consumergroup=__strimzi-topic-operator-kstreams},1651550040,0
{consumergroup=__strimzi-topic-operator-kstreams},1651550045,0
{consumergroup=__strimzi-topic-operator-kstreams},1651550050,0
{consumergroup=__strimzi-topic-operator-kstreams},1651550055,0
{consumergroup=__strimzi-topic-operator-kstreams},1651550060,0
{consumergroup=__strimzi-topic-operator-kstreams},1651550065,0
{consumergroup=__strimzi-topic-operator-kstreams},1651550070,0
{consumergroup=__strimzi-topic-operator-kstreams},1651550075,0
{consumergroup=__strimzi-topic-operator-kstreams},1651550080,0
{consumergroup=__strimzi-topic-operator-kstreams},1651550085,0
{consumergroup=__strimzi-topic-operator-kstreams},1651550090,0
{consumergroup=__strimzi-topic-operator-kstreams},1651550095,0
{consumergroup=__strimzi-topic-operator-kstreams},1651550100,0
{consumergroup=__strimzi-topic-operator-kstreams},1651550105,0
{consumergroup=__strimzi-topic-operator-kstreams},1651550110,0
{consumergroup=__strimzi-topic-operator-kstreams},1651550115,0
{consumergroup=__strimzi-topic-operator-kstreams},1651550120,0
{consumergroup=__strimzi-topic-operator-kstreams},1651550125,0
{consumergroup=__strimzi-topic-operator-kstreams},1651550130,0
{consumergroup=__strimzi-topic-operator-kstreams},1651550135,0
{consumergroup=__strimzi-topic-operator-kstreams},1651550140,0
{consumergroup=__strimzi-topic-operator-kstreams},1651550145,0
{consumergroup=__strimzi-topic-operator-kstreams},1651550150,0
{consumergroup=__strimzi-topic-operator-kstreams},1651550155,0
{consumergroup=__strimzi-topic-operator-kstreams},1651550160,0
{consumergroup=__strimzi-topic-operator-kstreams},1651550165,0
{consumergroup=__strimzi-topic-operator-kstreams},1651550170,0
{consumergroup=__strimzi-topic-operator-kstreams},1651550175,0
{consumergroup=__strimzi-topic-operator-kstreams},1651550180,0
{consumergroup=__strimzi-topic-operator-kstreams},1651550185,0
{consumergroup=__strimzi-topic-operator-kstreams},1651550190,0
{consumergroup=__strimzi-topic-operator-kstreams},1651550195,0
{consumergroup=__strimzi-topic-operator-kstreams},1651550200,0
{consumergroup=__strimzi-topic-operator-kstreams},1651550205,0
{consumergroup=__strimzi-topic-operator-kstreams},1651550210,0
{consumergroup=__strimzi-topic-operator-kstreams},1651550215,0
{consumergroup=__strimzi-topic-operator-kstreams},1651550220,0
{consumergroup=__strimzi-topic-operator-kstreams},1651550225,0
{consumergroup=__strimzi-topic-operator-kstreams},1651550230,0
{consumergroup=__strimzi-topic-operator-kstreams},1651550235,0
{consumergroup=__strimzi-topic-operator-kstreams},1651550240,0
{consumergroup=__strimzi-topic-operator-kstreams},1651550245,0
{consumergroup=__strimzi-topic-operator-kstreams},1651550250,0
{consumergroup=__strimzi-topic-operator-kstreams},1651550255,0
{consumergroup=__strimzi-topic-operator-kstreams},1651550260,0
{consumergroup=__strimzi-topic-operator-kstreams},1651550265,0
{consumergroup=__strimzi-topic-operator-kstreams},1651550270,0
{consumergroup=__strimzi-topic-operator-kstreams},1651550275,0
{consumergroup=__strimzi-topic-operator-kstreams},1651550280,0
{consumergroup=__strimzi-topic-operator-kstreams},1651550285,0
{consumergroup=__strimzi-topic-operator-kstreams},1651550290,0
{consumergroup=__strimzi-topic-operator-kstreams},1651550295,0
{consumergroup=__strimzi-topic-operator-kstreams},1651550300,0
{consumergroup=__strimzi-topic-operator-kstreams},1651550305,0
{consumergroup=__strimzi-topic-operator-kstreams},1651550310,0
{consumergroup=__strimzi-topic-operator-kstreams},1651550315,0
{consumergroup=__strimzi-topic-operator-kstreams},1651550320,0
{consumergroup=__strimzi-topic-operator-kstreams},1651550325,0
{consumergroup=adapter-service},1651549920,23660
{consumergroup=adapter-service},1651549925,23660
{consumergroup=adapter-service},1651549930,23660
{consumergroup=adapter-service},1651549935,9086
{consumergroup=adapter-service},1651549940,9086
{consumergroup=adapter-service},1651549945,9086
{consumergroup=adapter-service},1651549950,7226
{consumergroup=adapter-service},1651549955,7226
{consumergroup=adapter-service},1651549960,7226
{consumergroup=adapter-service},1651549965,6577
{consumergroup=adapter-service},1651549970,6577
{consumergroup=adapter-service},1651549975,6577
{consumergroup=adapter-service},1651549980,4235
{consumergroup=adapter-service},1651549985,4235
{consumergroup=adapter-service},1651549990,4235
{consumergroup=adapter-service},1651549995,3629
{consumergroup=adapter-service},1651550000,3629
{consumergroup=adapter-service},1651550005,3629
{consumergroup=adapter-service},1651550010,2528
{consumergroup=adapter-service},1651550015,2528
{consumergroup=adapter-service},1651550020,2528
{consumergroup=adapter-service},1651550025,2280
{consumergroup=adapter-service},1651550030,2280
{consumergroup=adapter-service},1651550035,2280
{consumergroup=adapter-service},1651550040,1870
{consumergroup=adapter-service},1651550045,1870
{consumergroup=adapter-service},1651550050,1870
{consumergroup=adapter-service},1651550055,2621
{consumergroup=adapter-service},1651550060,2621
{consumergroup=adapter-service},1651550065,2621
{consumergroup=adapter-service},1651550070,1417
{consumergroup=adapter-service},1651550075,1417
{consumergroup=adapter-service},1651550080,1417
{consumergroup=adapter-service},1651550085,1145
{consumergroup=adapter-service},1651550090,1145
{consumergroup=adapter-service},1651550095,1145
{consumergroup=adapter-service},1651550100,949
{consumergroup=adapter-service},1651550105,949
{consumergroup=adapter-service},1651550110,949
{consumergroup=adapter-service},1651550115,1602
{consumergroup=adapter-service},1651550120,1602
{consumergroup=adapter-service},1651550125,1602
{consumergroup=adapter-service},1651550130,1366
{consumergroup=adapter-service},1651550135,1366
{consumergroup=adapter-service},1651550140,1366
{consumergroup=adapter-service},1651550145,4782
{consumergroup=adapter-service},1651550150,4782
{consumergroup=adapter-service},1651550155,4782
{consumergroup=adapter-service},1651550160,3872
{consumergroup=adapter-service},1651550165,3872
{consumergroup=adapter-service},1651550170,3872
{consumergroup=adapter-service},1651550175,3121
{consumergroup=adapter-service},1651550180,3121
{consumergroup=adapter-service},1651550185,3121
{consumergroup=adapter-service},1651550190,3264
{consumergroup=adapter-service},1651550195,3264
{consumergroup=adapter-service},1651550200,3264
{consumergroup=adapter-service},1651550205,6982
{consumergroup=adapter-service},1651550210,6982
{consumergroup=adapter-service},1651550215,6982
{consumergroup=adapter-service},1651550220,6667
{consumergroup=adapter-service},1651550225,6667
{consumergroup=adapter-service},1651550230,6667
{consumergroup=adapter-service},1651550235,2494
{consumergroup=adapter-service},1651550240,2494
{consumergroup=adapter-service},1651550245,2494
{consumergroup=adapter-service},1651550250,5963
{consumergroup=adapter-service},1651550255,5963
{consumergroup=adapter-service},1651550260,5963
{consumergroup=adapter-service},1651550265,15347
{consumergroup=adapter-service},1651550270,15347
{consumergroup=adapter-service},1651550275,15347
{consumergroup=adapter-service},1651550280,1426
{consumergroup=adapter-service},1651550285,1426
{consumergroup=adapter-service},1651550290,1426
{consumergroup=adapter-service},1651550295,19280
{consumergroup=adapter-service},1651550300,19280
{consumergroup=adapter-service},1651550305,19280
{consumergroup=adapter-service},1651550310,18058
{consumergroup=adapter-service},1651550315,18058
{consumergroup=adapter-service},1651550320,18058
{consumergroup=adapter-service},1651550325,17693
{consumergroup=landscape-service},1651549935,40484
{consumergroup=landscape-service},1651549940,40484
{consumergroup=landscape-service},1651549945,40484
{consumergroup=landscape-service},1651549950,8639
{consumergroup=landscape-service},1651549955,8639
{consumergroup=landscape-service},1651549960,8639
{consumergroup=landscape-service},1651549965,11307
{consumergroup=landscape-service},1651549970,11307
{consumergroup=landscape-service},1651549975,11307
{consumergroup=landscape-service},1651549980,11849
{consumergroup=landscape-service},1651549985,11849
{consumergroup=landscape-service},1651549990,11849
{consumergroup=landscape-service},1651549995,10397
{consumergroup=landscape-service},1651550000,10397
{consumergroup=landscape-service},1651550005,10397
{consumergroup=landscape-service},1651550010,10829
{consumergroup=landscape-service},1651550015,10829
{consumergroup=landscape-service},1651550020,10829
{consumergroup=landscape-service},1651550025,9114
{consumergroup=landscape-service},1651550030,9114
{consumergroup=landscape-service},1651550035,9114
{consumergroup=landscape-service},1651550040,7989
{consumergroup=landscape-service},1651550045,7989
{consumergroup=landscape-service},1651550050,7989
{consumergroup=landscape-service},1651550055,7470
{consumergroup=landscape-service},1651550060,7470
{consumergroup=landscape-service},1651550065,7470
{consumergroup=landscape-service},1651550070,6519
{consumergroup=landscape-service},1651550075,6519
{consumergroup=landscape-service},1651550080,6519
{consumergroup=landscape-service},1651550085,6972
{consumergroup=landscape-service},1651550090,6972
{consumergroup=landscape-service},1651550095,6972
{consumergroup=landscape-service},1651550100,5079
{consumergroup=landscape-service},1651550105,5079
{consumergroup=landscape-service},1651550110,5079
{consumergroup=landscape-service},1651550115,4349
{consumergroup=landscape-service},1651550120,4349
{consumergroup=landscape-service},1651550125,4349
{consumergroup=landscape-service},1651550130,3553
{consumergroup=landscape-service},1651550135,3553
{consumergroup=landscape-service},1651550140,3553
{consumergroup=landscape-service},1651550145,2876
{consumergroup=landscape-service},1651550150,2876
{consumergroup=landscape-service},1651550155,2876
{consumergroup=landscape-service},1651550160,6346
{consumergroup=landscape-service},1651550165,6346
{consumergroup=landscape-service},1651550170,6346
{consumergroup=landscape-service},1651550175,2320
{consumergroup=landscape-service},1651550180,2320
{consumergroup=landscape-service},1651550185,2320
{consumergroup=landscape-service},1651550190,5767
{consumergroup=landscape-service},1651550195,5767
{consumergroup=landscape-service},1651550200,5767
{consumergroup=landscape-service},1651550205,21166
{consumergroup=landscape-service},1651550210,21166
{consumergroup=landscape-service},1651550215,21166
{consumergroup=landscape-service},1651550220,7705
{consumergroup=landscape-service},1651550225,7705
{consumergroup=landscape-service},1651550230,7705
{consumergroup=landscape-service},1651550235,3605
{consumergroup=landscape-service},1651550240,3605
{consumergroup=landscape-service},1651550245,3605
{consumergroup=landscape-service},1651550250,18947
{consumergroup=landscape-service},1651550255,18947
{consumergroup=landscape-service},1651550260,18947
{consumergroup=landscape-service},1651550265,17935
{consumergroup=landscape-service},1651550270,17935
{consumergroup=landscape-service},1651550275,17935
{consumergroup=landscape-service},1651550295,16279
{consumergroup=landscape-service},1651550300,16279
{consumergroup=landscape-service},1651550305,16279
{consumergroup=landscape-service},1651550310,15621
{consumergroup=landscape-service},1651550315,15621
{consumergroup=landscape-service},1651550320,15621
{consumergroup=landscape-service},1651550325,15451
{consumergroup=trace-service},1651549920,2338
{consumergroup=trace-service},1651549925,2338
{consumergroup=trace-service},1651549930,2338
{consumergroup=trace-service},1651549935,106028
{consumergroup=trace-service},1651549940,106028
{consumergroup=trace-service},1651549945,106028
{consumergroup=trace-service},1651549950,37280
{consumergroup=trace-service},1651549955,37280
{consumergroup=trace-service},1651549960,37280
{consumergroup=trace-service},1651549965,74874
{consumergroup=trace-service},1651549970,74874
{consumergroup=trace-service},1651549975,74874
{consumergroup=trace-service},1651549980,29405
{consumergroup=trace-service},1651549985,29405
{consumergroup=trace-service},1651549990,29405
{consumergroup=trace-service},1651549995,66389
{consumergroup=trace-service},1651550000,66389
{consumergroup=trace-service},1651550005,66389
{consumergroup=trace-service},1651550010,28927
{consumergroup=trace-service},1651550015,28927
{consumergroup=trace-service},1651550020,28927
{consumergroup=trace-service},1651550025,69772
{consumergroup=trace-service},1651550030,69772
{consumergroup=trace-service},1651550035,69772
{consumergroup=trace-service},1651550040,36509
{consumergroup=trace-service},1651550045,36509
{consumergroup=trace-service},1651550050,36509
{consumergroup=trace-service},1651550055,69832
{consumergroup=trace-service},1651550060,69832
{consumergroup=trace-service},1651550065,69832
{consumergroup=trace-service},1651550070,18862
{consumergroup=trace-service},1651550075,18862
{consumergroup=trace-service},1651550080,18862
{consumergroup=trace-service},1651550085,66833
{consumergroup=trace-service},1651550090,66833
{consumergroup=trace-service},1651550095,66833
{consumergroup=trace-service},1651550100,33892
{consumergroup=trace-service},1651550105,33892
{consumergroup=trace-service},1651550110,33892
{consumergroup=trace-service},1651550115,72351
{consumergroup=trace-service},1651550120,72351
{consumergroup=trace-service},1651550125,72351
{consumergroup=trace-service},1651550130,142532
{consumergroup=trace-service},1651550135,142532
{consumergroup=trace-service},1651550140,142532
{consumergroup=trace-service},1651550145,91630
{consumergroup=trace-service},1651550150,91630
{consumergroup=trace-service},1651550155,91630
{consumergroup=trace-service},1651550160,14153
{consumergroup=trace-service},1651550165,14153
{consumergroup=trace-service},1651550170,14153
{consumergroup=trace-service},1651550175,59072
{consumergroup=trace-service},1651550180,59072
{consumergroup=trace-service},1651550185,59072
{consumergroup=trace-service},1651550190,29751
{consumergroup=trace-service},1651550195,29751
{consumergroup=trace-service},1651550200,29751
{consumergroup=trace-service},1651550205,75092
{consumergroup=trace-service},1651550210,75092
{consumergroup=trace-service},1651550215,75092
{consumergroup=trace-service},1651550220,40899
{consumergroup=trace-service},1651550225,40899
{consumergroup=trace-service},1651550230,40899
{consumergroup=trace-service},1651550235,63149
{consumergroup=trace-service},1651550240,63149
{consumergroup=trace-service},1651550245,63149
{consumergroup=trace-service},1651550250,16211
{consumergroup=trace-service},1651550255,16211
{consumergroup=trace-service},1651550260,16211
{consumergroup=trace-service},1651550265,62687
{consumergroup=trace-service},1651550270,62687
{consumergroup=trace-service},1651550275,62687
{consumergroup=trace-service},1651550280,30817
{consumergroup=trace-service},1651550285,30817
{consumergroup=trace-service},1651550290,30817
{consumergroup=trace-service},1651550295,67805
{consumergroup=trace-service},1651550300,67805
{consumergroup=trace-service},1651550305,67805
{consumergroup=trace-service},1651550310,32443
{consumergroup=trace-service},1651550315,32443
{consumergroup=trace-service},1651550320,32443
{consumergroup=trace-service},1651550325,69469
{consumergroup=trace-token-events-consumer},1651549905,0
{consumergroup=trace-token-events-consumer},1651549910,0
{consumergroup=trace-token-events-consumer},1651549915,0
{consumergroup=trace-token-events-consumer},1651549920,0
{consumergroup=trace-token-events-consumer},1651549925,0
{consumergroup=trace-token-events-consumer},1651549930,0
{consumergroup=trace-token-events-consumer},1651549935,0
{consumergroup=trace-token-events-consumer},1651549940,0
{consumergroup=trace-token-events-consumer},1651549945,0
{consumergroup=trace-token-events-consumer},1651549950,0
{consumergroup=trace-token-events-consumer},1651549955,0
{consumergroup=trace-token-events-consumer},1651549960,0
{consumergroup=trace-token-events-consumer},1651549965,0
{consumergroup=trace-token-events-consumer},1651549970,0
{consumergroup=trace-token-events-consumer},1651549975,0
{consumergroup=trace-token-events-consumer},1651549980,0
{consumergroup=trace-token-events-consumer},1651549985,0
{consumergroup=trace-token-events-consumer},1651549990,0
{consumergroup=trace-token-events-consumer},1651549995,0
{consumergroup=trace-token-events-consumer},1651550000,0
{consumergroup=trace-token-events-consumer},1651550005,0
{consumergroup=trace-token-events-consumer},1651550010,0
{consumergroup=trace-token-events-consumer},1651550015,0
{consumergroup=trace-token-events-consumer},1651550020,0
{consumergroup=trace-token-events-consumer},1651550025,0
{consumergroup=trace-token-events-consumer},1651550030,0
{consumergroup=trace-token-events-consumer},1651550035,0
{consumergroup=trace-token-events-consumer},1651550040,0
{consumergroup=trace-token-events-consumer},1651550045,0
{consumergroup=trace-token-events-consumer},1651550050,0
{consumergroup=trace-token-events-consumer},1651550055,0
{consumergroup=trace-token-events-consumer},1651550060,0
{consumergroup=trace-token-events-consumer},1651550065,0
{consumergroup=trace-token-events-consumer},1651550070,0
{consumergroup=trace-token-events-consumer},1651550075,0
{consumergroup=trace-token-events-consumer},1651550080,0
{consumergroup=trace-token-events-consumer},1651550085,0
{consumergroup=trace-token-events-consumer},1651550090,0
{consumergroup=trace-token-events-consumer},1651550095,0
{consumergroup=trace-token-events-consumer},1651550100,0
{consumergroup=trace-token-events-consumer},1651550105,0
{consumergroup=trace-token-events-consumer},1651550110,0
{consumergroup=trace-token-events-consumer},1651550115,0
{consumergroup=trace-token-events-consumer},1651550120,0
{consumergroup=trace-token-events-consumer},1651550125,0
{consumergroup=trace-token-events-consumer},1651550130,0
{consumergroup=trace-token-events-consumer},1651550135,0
{consumergroup=trace-token-events-consumer},1651550140,0
{consumergroup=trace-token-events-consumer},1651550145,0
{consumergroup=trace-token-events-consumer},1651550150,0
{consumergroup=trace-token-events-consumer},1651550155,0
{consumergroup=trace-token-events-consumer},1651550160,0
{consumergroup=trace-token-events-consumer},1651550165,0
{consumergroup=trace-token-events-consumer},1651550170,0
{consumergroup=trace-token-events-consumer},1651550175,0
{consumergroup=trace-token-events-consumer},1651550180,0
{consumergroup=trace-token-events-consumer},1651550185,0
{consumergroup=trace-token-events-consumer},1651550190,0
{consumergroup=trace-token-events-consumer},1651550195,0
{consumergroup=trace-token-events-consumer},1651550200,0
{consumergroup=trace-token-events-consumer},1651550205,0
{consumergroup=trace-token-events-consumer},1651550210,0
{consumergroup=trace-token-events-consumer},1651550215,0
{consumergroup=trace-token-events-consumer},1651550220,0
{consumergroup=trace-token-events-consumer},1651550225,0
{consumergroup=trace-token-events-consumer},1651550230,0
{consumergroup=trace-token-events-consumer},1651550235,0
{consumergroup=trace-token-events-consumer},1651550240,0
{consumergroup=trace-token-events-consumer},1651550245,0
{consumergroup=trace-token-events-consumer},1651550250,0
{consumergroup=trace-token-events-consumer},1651550255,0
{consumergroup=trace-token-events-consumer},1651550260,0
{consumergroup=trace-token-events-consumer},1651550265,0
{consumergroup=trace-token-events-consumer},1651550270,0
{consumergroup=trace-token-events-consumer},1651550275,0
{consumergroup=trace-token-events-consumer},1651550280,0
{consumergroup=trace-token-events-consumer},1651550285,0
{consumergroup=trace-token-events-consumer},1651550290,0
{consumergroup=trace-token-events-consumer},1651550295,0
{consumergroup=trace-token-events-consumer},1651550300,0
{consumergroup=trace-token-events-consumer},1651550305,0
{consumergroup=trace-token-events-consumer},1651550310,0
{consumergroup=trace-token-events-consumer},1651550315,0
{consumergroup=trace-token-events-consumer},1651550320,0
{consumergroup=trace-token-events-consumer},1651550325,0
