labels,timestamp,value
{job=theodolite-stu200776/combined-trace-podmonitor},1651571630,0
{job=theodolite-stu200776/combined-trace-podmonitor},1651571635,0
{job=theodolite-stu200776/combined-trace-podmonitor},1651571640,0
{job=theodolite-stu200776/combined-trace-podmonitor},1651571645,0
{job=theodolite-stu200776/combined-trace-podmonitor},1651571650,0
{job=theodolite-stu200776/combined-trace-podmonitor},1651571655,0
{job=theodolite-stu200776/combined-trace-podmonitor},1651571660,0
{job=theodolite-stu200776/combined-trace-podmonitor},1651571665,0
{job=theodolite-stu200776/combined-trace-podmonitor},1651571670,0
{job=theodolite-stu200776/combined-trace-podmonitor},1651571675,0
{job=theodolite-stu200776/combined-trace-podmonitor},1651571680,0
{job=theodolite-stu200776/combined-trace-podmonitor},1651571685,0
{job=theodolite-stu200776/combined-trace-podmonitor},1651571690,0
{job=theodolite-stu200776/combined-trace-podmonitor},1651571695,0
{job=theodolite-stu200776/combined-trace-podmonitor},1651571700,0
{job=theodolite-stu200776/combined-trace-podmonitor},1651571705,0
{job=theodolite-stu200776/combined-trace-podmonitor},1651571710,0
{job=theodolite-stu200776/combined-trace-podmonitor},1651571715,0
{job=theodolite-stu200776/combined-trace-podmonitor},1651571720,0
{job=theodolite-stu200776/combined-trace-podmonitor},1651571725,0
{job=theodolite-stu200776/combined-trace-podmonitor},1651571730,0
{job=theodolite-stu200776/combined-trace-podmonitor},1651571735,0
{job=theodolite-stu200776/combined-trace-podmonitor},1651571740,0
{job=theodolite-stu200776/combined-trace-podmonitor},1651571745,0
{job=theodolite-stu200776/combined-trace-podmonitor},1651571750,0
{job=theodolite-stu200776/combined-trace-podmonitor},1651571755,0
{job=theodolite-stu200776/combined-trace-podmonitor},1651571760,0
{job=theodolite-stu200776/combined-trace-podmonitor},1651571765,0
{job=theodolite-stu200776/combined-trace-podmonitor},1651571770,0
{job=theodolite-stu200776/combined-trace-podmonitor},1651571775,0
{job=theodolite-stu200776/combined-trace-podmonitor},1651571780,0
{job=theodolite-stu200776/combined-trace-podmonitor},1651571785,0
{job=theodolite-stu200776/combined-trace-podmonitor},1651571790,0
{job=theodolite-stu200776/combined-trace-podmonitor},1651571795,0
{job=theodolite-stu200776/combined-trace-podmonitor},1651571800,0
{job=theodolite-stu200776/combined-trace-podmonitor},1651571805,0
{job=theodolite-stu200776/combined-trace-podmonitor},1651571810,0
{job=theodolite-stu200776/combined-trace-podmonitor},1651571815,0
{job=theodolite-stu200776/combined-trace-podmonitor},1651571820,0
{job=theodolite-stu200776/combined-trace-podmonitor},1651571825,0
{job=theodolite-stu200776/combined-trace-podmonitor},1651571830,0
{job=theodolite-stu200776/combined-trace-podmonitor},1651571835,0
{job=theodolite-stu200776/combined-trace-podmonitor},1651571840,0
{job=theodolite-stu200776/combined-trace-podmonitor},1651571845,0
{job=theodolite-stu200776/combined-trace-podmonitor},1651571850,0
{job=theodolite-stu200776/combined-trace-podmonitor},1651571855,0
{job=theodolite-stu200776/combined-trace-podmonitor},1651571860,0
{job=theodolite-stu200776/combined-trace-podmonitor},1651571865,0
{job=theodolite-stu200776/combined-trace-podmonitor},1651571870,0
{job=theodolite-stu200776/combined-trace-podmonitor},1651571875,0
{job=theodolite-stu200776/combined-trace-podmonitor},1651571880,0
{job=theodolite-stu200776/combined-trace-podmonitor},1651571885,0
{job=theodolite-stu200776/combined-trace-podmonitor},1651571890,0
{job=theodolite-stu200776/combined-trace-podmonitor},1651571895,0
{job=theodolite-stu200776/combined-trace-podmonitor},1651571900,0
{job=theodolite-stu200776/combined-trace-podmonitor},1651571905,0
{job=theodolite-stu200776/combined-trace-podmonitor},1651571910,0
{job=theodolite-stu200776/combined-trace-podmonitor},1651571915,0
{job=theodolite-stu200776/combined-trace-podmonitor},1651571920,0
{job=theodolite-stu200776/combined-trace-podmonitor},1651571925,0
{job=theodolite-stu200776/combined-trace-podmonitor},1651571930,0
{job=theodolite-stu200776/combined-trace-podmonitor},1651571935,0
{job=theodolite-stu200776/combined-trace-podmonitor},1651571940,0
{job=theodolite-stu200776/combined-trace-podmonitor},1651571945,0
{job=theodolite-stu200776/combined-trace-podmonitor},1651571950,0
{job=theodolite-stu200776/combined-trace-podmonitor},1651571955,0
{job=theodolite-stu200776/combined-trace-podmonitor},1651571960,0
{job=theodolite-stu200776/combined-trace-podmonitor},1651571965,0
{job=theodolite-stu200776/combined-trace-podmonitor},1651571970,0
{job=theodolite-stu200776/combined-trace-podmonitor},1651571975,0
{job=theodolite-stu200776/combined-trace-podmonitor},1651571980,0
{job=theodolite-stu200776/combined-trace-podmonitor},1651571985,0
{job=theodolite-stu200776/combined-trace-podmonitor},1651571990,0
{job=theodolite-stu200776/combined-trace-podmonitor},1651571995,0
{job=theodolite-stu200776/combined-trace-podmonitor},1651572000,0
{job=theodolite-stu200776/combined-trace-podmonitor},1651572005,339.2811394233795
