labels,timestamp,value
{consumergroup=__strimzi-topic-operator-kstreams},1651572752,0
{consumergroup=__strimzi-topic-operator-kstreams},1651572757,0
{consumergroup=__strimzi-topic-operator-kstreams},1651572762,0
{consumergroup=__strimzi-topic-operator-kstreams},1651572767,0
{consumergroup=__strimzi-topic-operator-kstreams},1651572772,8
{consumergroup=__strimzi-topic-operator-kstreams},1651572777,8
{consumergroup=__strimzi-topic-operator-kstreams},1651572782,8
{consumergroup=__strimzi-topic-operator-kstreams},1651572787,0
{consumergroup=__strimzi-topic-operator-kstreams},1651572792,0
{consumergroup=__strimzi-topic-operator-kstreams},1651572797,0
{consumergroup=__strimzi-topic-operator-kstreams},1651572802,0
{consumergroup=__strimzi-topic-operator-kstreams},1651572807,0
{consumergroup=__strimzi-topic-operator-kstreams},1651572812,0
{consumergroup=__strimzi-topic-operator-kstreams},1651572817,0
{consumergroup=__strimzi-topic-operator-kstreams},1651572822,0
{consumergroup=__strimzi-topic-operator-kstreams},1651572827,0
{consumergroup=__strimzi-topic-operator-kstreams},1651572832,0
{consumergroup=__strimzi-topic-operator-kstreams},1651572837,0
{consumergroup=__strimzi-topic-operator-kstreams},1651572842,0
{consumergroup=__strimzi-topic-operator-kstreams},1651572847,0
{consumergroup=__strimzi-topic-operator-kstreams},1651572852,0
{consumergroup=__strimzi-topic-operator-kstreams},1651572857,0
{consumergroup=__strimzi-topic-operator-kstreams},1651572862,1
{consumergroup=__strimzi-topic-operator-kstreams},1651572867,1
{consumergroup=__strimzi-topic-operator-kstreams},1651572872,1
{consumergroup=__strimzi-topic-operator-kstreams},1651572877,0
{consumergroup=__strimzi-topic-operator-kstreams},1651572882,0
{consumergroup=__strimzi-topic-operator-kstreams},1651572887,0
{consumergroup=__strimzi-topic-operator-kstreams},1651572892,0
{consumergroup=__strimzi-topic-operator-kstreams},1651572897,0
{consumergroup=__strimzi-topic-operator-kstreams},1651572902,0
{consumergroup=__strimzi-topic-operator-kstreams},1651572907,0
{consumergroup=__strimzi-topic-operator-kstreams},1651572912,0
{consumergroup=__strimzi-topic-operator-kstreams},1651572917,0
{consumergroup=__strimzi-topic-operator-kstreams},1651572922,0
{consumergroup=__strimzi-topic-operator-kstreams},1651572927,0
{consumergroup=__strimzi-topic-operator-kstreams},1651572932,0
{consumergroup=__strimzi-topic-operator-kstreams},1651572937,0
{consumergroup=__strimzi-topic-operator-kstreams},1651572942,0
{consumergroup=__strimzi-topic-operator-kstreams},1651572947,0
{consumergroup=__strimzi-topic-operator-kstreams},1651572952,0
{consumergroup=__strimzi-topic-operator-kstreams},1651572957,0
{consumergroup=__strimzi-topic-operator-kstreams},1651572962,0
{consumergroup=__strimzi-topic-operator-kstreams},1651572967,0
{consumergroup=__strimzi-topic-operator-kstreams},1651572972,0
{consumergroup=__strimzi-topic-operator-kstreams},1651572977,0
{consumergroup=__strimzi-topic-operator-kstreams},1651572982,0
{consumergroup=__strimzi-topic-operator-kstreams},1651572987,0
{consumergroup=__strimzi-topic-operator-kstreams},1651572992,0
{consumergroup=__strimzi-topic-operator-kstreams},1651572997,0
{consumergroup=__strimzi-topic-operator-kstreams},1651573002,0
{consumergroup=__strimzi-topic-operator-kstreams},1651573007,0
{consumergroup=__strimzi-topic-operator-kstreams},1651573012,0
{consumergroup=__strimzi-topic-operator-kstreams},1651573017,0
{consumergroup=__strimzi-topic-operator-kstreams},1651573022,0
{consumergroup=__strimzi-topic-operator-kstreams},1651573027,0
{consumergroup=__strimzi-topic-operator-kstreams},1651573032,0
{consumergroup=__strimzi-topic-operator-kstreams},1651573037,0
{consumergroup=__strimzi-topic-operator-kstreams},1651573042,0
{consumergroup=__strimzi-topic-operator-kstreams},1651573047,0
{consumergroup=__strimzi-topic-operator-kstreams},1651573052,0
{consumergroup=__strimzi-topic-operator-kstreams},1651573057,0
{consumergroup=__strimzi-topic-operator-kstreams},1651573062,0
{consumergroup=__strimzi-topic-operator-kstreams},1651573067,0
{consumergroup=__strimzi-topic-operator-kstreams},1651573072,0
{consumergroup=__strimzi-topic-operator-kstreams},1651573077,0
{consumergroup=__strimzi-topic-operator-kstreams},1651573082,0
{consumergroup=__strimzi-topic-operator-kstreams},1651573087,0
{consumergroup=__strimzi-topic-operator-kstreams},1651573092,0
{consumergroup=__strimzi-topic-operator-kstreams},1651573097,0
{consumergroup=__strimzi-topic-operator-kstreams},1651573102,0
{consumergroup=__strimzi-topic-operator-kstreams},1651573107,0
{consumergroup=__strimzi-topic-operator-kstreams},1651573112,0
{consumergroup=__strimzi-topic-operator-kstreams},1651573117,0
{consumergroup=__strimzi-topic-operator-kstreams},1651573122,0
{consumergroup=__strimzi-topic-operator-kstreams},1651573127,0
{consumergroup=__strimzi-topic-operator-kstreams},1651573132,0
{consumergroup=__strimzi-topic-operator-kstreams},1651573137,0
{consumergroup=__strimzi-topic-operator-kstreams},1651573142,0
{consumergroup=__strimzi-topic-operator-kstreams},1651573147,0
{consumergroup=__strimzi-topic-operator-kstreams},1651573152,0
{consumergroup=__strimzi-topic-operator-kstreams},1651573157,0
{consumergroup=__strimzi-topic-operator-kstreams},1651573162,0
{consumergroup=__strimzi-topic-operator-kstreams},1651573167,0
{consumergroup=__strimzi-topic-operator-kstreams},1651573172,0
{consumergroup=__strimzi-topic-operator-kstreams},1651573177,0
{consumergroup=__strimzi-topic-operator-kstreams},1651573182,0
{consumergroup=__strimzi-topic-operator-kstreams},1651573187,0
{consumergroup=__strimzi-topic-operator-kstreams},1651573192,0
{consumergroup=__strimzi-topic-operator-kstreams},1651573197,0
{consumergroup=__strimzi-topic-operator-kstreams},1651573202,0
{consumergroup=__strimzi-topic-operator-kstreams},1651573207,0
{consumergroup=adapter-service},1651572787,0
{consumergroup=adapter-service},1651572792,0
{consumergroup=adapter-service},1651572797,0
{consumergroup=adapter-service},1651572802,19660
{consumergroup=adapter-service},1651572807,19660
{consumergroup=adapter-service},1651572812,19660
{consumergroup=adapter-service},1651572817,10062
{consumergroup=adapter-service},1651572822,10062
{consumergroup=adapter-service},1651572827,10062
{consumergroup=adapter-service},1651572832,9462
{consumergroup=adapter-service},1651572837,9462
{consumergroup=adapter-service},1651572842,9462
{consumergroup=adapter-service},1651572847,8556
{consumergroup=adapter-service},1651572852,8556
{consumergroup=adapter-service},1651572857,8556
{consumergroup=adapter-service},1651572862,8179
{consumergroup=adapter-service},1651572867,8179
{consumergroup=adapter-service},1651572872,8179
{consumergroup=adapter-service},1651572877,7685
{consumergroup=adapter-service},1651572882,7685
{consumergroup=adapter-service},1651572887,7685
{consumergroup=adapter-service},1651572892,7159
{consumergroup=adapter-service},1651572897,7159
{consumergroup=adapter-service},1651572902,7159
{consumergroup=adapter-service},1651572907,6976
{consumergroup=adapter-service},1651572912,6976
{consumergroup=adapter-service},1651572917,6976
{consumergroup=adapter-service},1651572922,6733
{consumergroup=adapter-service},1651572927,6733
{consumergroup=adapter-service},1651572932,6733
{consumergroup=adapter-service},1651572937,6619
{consumergroup=adapter-service},1651572942,6619
{consumergroup=adapter-service},1651572947,6619
{consumergroup=adapter-service},1651572952,7410
{consumergroup=adapter-service},1651572957,7410
{consumergroup=adapter-service},1651572962,7410
{consumergroup=adapter-service},1651572967,6244
{consumergroup=adapter-service},1651572972,6244
{consumergroup=adapter-service},1651572977,6244
{consumergroup=adapter-service},1651572982,5922
{consumergroup=adapter-service},1651572987,5922
{consumergroup=adapter-service},1651572992,5922
{consumergroup=adapter-service},1651572997,10122
{consumergroup=adapter-service},1651573002,10122
{consumergroup=adapter-service},1651573007,10122
{consumergroup=adapter-service},1651573012,6703
{consumergroup=adapter-service},1651573017,6703
{consumergroup=adapter-service},1651573022,6703
{consumergroup=adapter-service},1651573027,5550
{consumergroup=adapter-service},1651573032,5550
{consumergroup=adapter-service},1651573037,5550
{consumergroup=adapter-service},1651573042,5424
{consumergroup=adapter-service},1651573047,5424
{consumergroup=adapter-service},1651573052,5424
{consumergroup=adapter-service},1651573057,6192
{consumergroup=adapter-service},1651573062,6192
{consumergroup=adapter-service},1651573067,6192
{consumergroup=adapter-service},1651573072,5026
{consumergroup=adapter-service},1651573077,5026
{consumergroup=adapter-service},1651573082,5026
{consumergroup=adapter-service},1651573087,8669
{consumergroup=adapter-service},1651573092,8669
{consumergroup=adapter-service},1651573097,8669
{consumergroup=adapter-service},1651573102,5461
{consumergroup=adapter-service},1651573107,5461
{consumergroup=adapter-service},1651573112,5461
{consumergroup=adapter-service},1651573117,4248
{consumergroup=adapter-service},1651573122,4248
{consumergroup=adapter-service},1651573127,4248
{consumergroup=adapter-service},1651573132,5318
{consumergroup=adapter-service},1651573137,5318
{consumergroup=adapter-service},1651573142,5318
{consumergroup=adapter-service},1651573147,3818
{consumergroup=adapter-service},1651573152,3818
{consumergroup=adapter-service},1651573157,3818
{consumergroup=adapter-service},1651573162,3856
{consumergroup=adapter-service},1651573167,3856
{consumergroup=adapter-service},1651573172,3856
{consumergroup=adapter-service},1651573177,3489
{consumergroup=adapter-service},1651573182,3489
{consumergroup=adapter-service},1651573187,3489
{consumergroup=adapter-service},1651573192,3480
{consumergroup=adapter-service},1651573197,3480
{consumergroup=adapter-service},1651573202,3480
{consumergroup=adapter-service},1651573207,4567
{consumergroup=landscape-service},1651572817,13202
{consumergroup=landscape-service},1651572822,13202
{consumergroup=landscape-service},1651572827,13202
{consumergroup=landscape-service},1651572832,8108
{consumergroup=landscape-service},1651572837,8108
{consumergroup=landscape-service},1651572842,8108
{consumergroup=landscape-service},1651572847,5964
{consumergroup=landscape-service},1651572852,5964
{consumergroup=landscape-service},1651572857,5964
{consumergroup=landscape-service},1651572862,5138
{consumergroup=landscape-service},1651572867,5138
{consumergroup=landscape-service},1651572872,5138
{consumergroup=landscape-service},1651572877,5842
{consumergroup=landscape-service},1651572882,5842
{consumergroup=landscape-service},1651572887,5842
{consumergroup=landscape-service},1651572892,4619
{consumergroup=landscape-service},1651572897,4619
{consumergroup=landscape-service},1651572902,4619
{consumergroup=landscape-service},1651572907,3081
{consumergroup=landscape-service},1651572912,3081
{consumergroup=landscape-service},1651572917,3081
{consumergroup=landscape-service},1651572922,2525
{consumergroup=landscape-service},1651572927,2525
{consumergroup=landscape-service},1651572932,2525
{consumergroup=landscape-service},1651572937,3042
{consumergroup=landscape-service},1651572942,3042
{consumergroup=landscape-service},1651572947,3042
{consumergroup=landscape-service},1651572952,1225
{consumergroup=landscape-service},1651572957,1225
{consumergroup=landscape-service},1651572962,1225
{consumergroup=landscape-service},1651572967,849
{consumergroup=landscape-service},1651572972,849
{consumergroup=landscape-service},1651572977,849
{consumergroup=landscape-service},1651572982,94
{consumergroup=landscape-service},1651572987,94
{consumergroup=landscape-service},1651572992,94
{consumergroup=landscape-service},1651572997,3892
{consumergroup=landscape-service},1651573002,3892
{consumergroup=landscape-service},1651573007,3892
{consumergroup=landscape-service},1651573012,211
{consumergroup=landscape-service},1651573017,211
{consumergroup=landscape-service},1651573022,211
{consumergroup=landscape-service},1651573027,20883
{consumergroup=landscape-service},1651573032,20883
{consumergroup=landscape-service},1651573037,20883
{consumergroup=landscape-service},1651573042,20348
{consumergroup=landscape-service},1651573047,20348
{consumergroup=landscape-service},1651573052,20348
{consumergroup=landscape-service},1651573057,18640
{consumergroup=landscape-service},1651573062,18640
{consumergroup=landscape-service},1651573067,18640
{consumergroup=landscape-service},1651573072,19195
{consumergroup=landscape-service},1651573077,19195
{consumergroup=landscape-service},1651573082,19195
{consumergroup=landscape-service},1651573087,1477
{consumergroup=landscape-service},1651573092,1477
{consumergroup=landscape-service},1651573097,1477
{consumergroup=landscape-service},1651573102,17054
{consumergroup=landscape-service},1651573107,17054
{consumergroup=landscape-service},1651573112,17054
{consumergroup=landscape-service},1651573117,18363
{consumergroup=landscape-service},1651573122,18363
{consumergroup=landscape-service},1651573127,18363
{consumergroup=landscape-service},1651573132,17374
{consumergroup=landscape-service},1651573137,17374
{consumergroup=landscape-service},1651573142,17374
{consumergroup=landscape-service},1651573147,17738
{consumergroup=landscape-service},1651573152,17738
{consumergroup=landscape-service},1651573157,17738
{consumergroup=landscape-service},1651573162,17562
{consumergroup=landscape-service},1651573167,17562
{consumergroup=landscape-service},1651573172,17562
{consumergroup=landscape-service},1651573177,16002
{consumergroup=landscape-service},1651573182,16002
{consumergroup=landscape-service},1651573187,16002
{consumergroup=landscape-service},1651573192,15557
{consumergroup=landscape-service},1651573197,15557
{consumergroup=landscape-service},1651573202,15557
{consumergroup=landscape-service},1651573207,14778
{consumergroup=trace-service},1651572802,7563
{consumergroup=trace-service},1651572807,7563
{consumergroup=trace-service},1651572812,7563
{consumergroup=trace-service},1651572817,59576
{consumergroup=trace-service},1651572822,59576
{consumergroup=trace-service},1651572827,59576
{consumergroup=trace-service},1651572832,21557
{consumergroup=trace-service},1651572837,21557
{consumergroup=trace-service},1651572842,21557
{consumergroup=trace-service},1651572847,42342
{consumergroup=trace-service},1651572852,42342
{consumergroup=trace-service},1651572857,42342
{consumergroup=trace-service},1651572862,80360
{consumergroup=trace-service},1651572867,80360
{consumergroup=trace-service},1651572872,80360
{consumergroup=trace-service},1651572877,51308
{consumergroup=trace-service},1651572882,51308
{consumergroup=trace-service},1651572887,51308
{consumergroup=trace-service},1651572892,118918
{consumergroup=trace-service},1651572897,118918
{consumergroup=trace-service},1651572902,118918
{consumergroup=trace-service},1651572907,42575
{consumergroup=trace-service},1651572912,42575
{consumergroup=trace-service},1651572917,42575
{consumergroup=trace-service},1651572922,90414
{consumergroup=trace-service},1651572927,90414
{consumergroup=trace-service},1651572932,90414
{consumergroup=trace-service},1651572937,42523
{consumergroup=trace-service},1651572942,42523
{consumergroup=trace-service},1651572947,42523
{consumergroup=trace-service},1651572952,126887
{consumergroup=trace-service},1651572957,126887
{consumergroup=trace-service},1651572962,126887
{consumergroup=trace-service},1651572967,41092
{consumergroup=trace-service},1651572972,41092
{consumergroup=trace-service},1651572977,41092
{consumergroup=trace-service},1651572982,88500
{consumergroup=trace-service},1651572987,88500
{consumergroup=trace-service},1651572992,88500
{consumergroup=trace-service},1651572997,49263
{consumergroup=trace-service},1651573002,49263
{consumergroup=trace-service},1651573007,49263
{consumergroup=trace-service},1651573012,150938
{consumergroup=trace-service},1651573017,150938
{consumergroup=trace-service},1651573022,150938
{consumergroup=trace-service},1651573027,37917
{consumergroup=trace-service},1651573032,37917
{consumergroup=trace-service},1651573037,37917
{consumergroup=trace-service},1651573042,114994
{consumergroup=trace-service},1651573047,114994
{consumergroup=trace-service},1651573052,114994
{consumergroup=trace-service},1651573057,43908
{consumergroup=trace-service},1651573062,43908
{consumergroup=trace-service},1651573067,43908
{consumergroup=trace-service},1651573072,112474
{consumergroup=trace-service},1651573077,112474
{consumergroup=trace-service},1651573082,112474
{consumergroup=trace-service},1651573087,48854
{consumergroup=trace-service},1651573092,48854
{consumergroup=trace-service},1651573097,48854
{consumergroup=trace-service},1651573102,129330
{consumergroup=trace-service},1651573107,129330
{consumergroup=trace-service},1651573112,129330
{consumergroup=trace-service},1651573117,42377
{consumergroup=trace-service},1651573122,42377
{consumergroup=trace-service},1651573127,42377
{consumergroup=trace-service},1651573132,101657
{consumergroup=trace-service},1651573137,101657
{consumergroup=trace-service},1651573142,101657
{consumergroup=trace-service},1651573147,42972
{consumergroup=trace-service},1651573152,42972
{consumergroup=trace-service},1651573157,42972
{consumergroup=trace-service},1651573162,81756
{consumergroup=trace-service},1651573167,81756
{consumergroup=trace-service},1651573172,81756
{consumergroup=trace-service},1651573177,44885
{consumergroup=trace-service},1651573182,44885
{consumergroup=trace-service},1651573187,44885
{consumergroup=trace-service},1651573192,99216
{consumergroup=trace-service},1651573197,99216
{consumergroup=trace-service},1651573202,99216
{consumergroup=trace-service},1651573207,48356
{consumergroup=trace-token-events-consumer},1651572787,0
{consumergroup=trace-token-events-consumer},1651572792,0
{consumergroup=trace-token-events-consumer},1651572797,0
{consumergroup=trace-token-events-consumer},1651572802,0
{consumergroup=trace-token-events-consumer},1651572807,0
{consumergroup=trace-token-events-consumer},1651572812,0
{consumergroup=trace-token-events-consumer},1651572817,0
{consumergroup=trace-token-events-consumer},1651572822,0
{consumergroup=trace-token-events-consumer},1651572827,0
{consumergroup=trace-token-events-consumer},1651572832,0
{consumergroup=trace-token-events-consumer},1651572837,0
{consumergroup=trace-token-events-consumer},1651572842,0
{consumergroup=trace-token-events-consumer},1651572847,0
{consumergroup=trace-token-events-consumer},1651572852,0
{consumergroup=trace-token-events-consumer},1651572857,0
{consumergroup=trace-token-events-consumer},1651572862,0
{consumergroup=trace-token-events-consumer},1651572867,0
{consumergroup=trace-token-events-consumer},1651572872,0
{consumergroup=trace-token-events-consumer},1651572877,0
{consumergroup=trace-token-events-consumer},1651572882,0
{consumergroup=trace-token-events-consumer},1651572887,0
{consumergroup=trace-token-events-consumer},1651572892,0
{consumergroup=trace-token-events-consumer},1651572897,0
{consumergroup=trace-token-events-consumer},1651572902,0
{consumergroup=trace-token-events-consumer},1651572907,0
{consumergroup=trace-token-events-consumer},1651572912,0
{consumergroup=trace-token-events-consumer},1651572917,0
{consumergroup=trace-token-events-consumer},1651572922,0
{consumergroup=trace-token-events-consumer},1651572927,0
{consumergroup=trace-token-events-consumer},1651572932,0
{consumergroup=trace-token-events-consumer},1651572937,0
{consumergroup=trace-token-events-consumer},1651572942,0
{consumergroup=trace-token-events-consumer},1651572947,0
{consumergroup=trace-token-events-consumer},1651572952,0
{consumergroup=trace-token-events-consumer},1651572957,0
{consumergroup=trace-token-events-consumer},1651572962,0
{consumergroup=trace-token-events-consumer},1651572967,0
{consumergroup=trace-token-events-consumer},1651572972,0
{consumergroup=trace-token-events-consumer},1651572977,0
{consumergroup=trace-token-events-consumer},1651572982,0
{consumergroup=trace-token-events-consumer},1651572987,0
{consumergroup=trace-token-events-consumer},1651572992,0
{consumergroup=trace-token-events-consumer},1651572997,0
{consumergroup=trace-token-events-consumer},1651573002,0
{consumergroup=trace-token-events-consumer},1651573007,0
{consumergroup=trace-token-events-consumer},1651573012,0
{consumergroup=trace-token-events-consumer},1651573017,0
{consumergroup=trace-token-events-consumer},1651573022,0
{consumergroup=trace-token-events-consumer},1651573027,0
{consumergroup=trace-token-events-consumer},1651573032,0
{consumergroup=trace-token-events-consumer},1651573037,0
{consumergroup=trace-token-events-consumer},1651573042,0
{consumergroup=trace-token-events-consumer},1651573047,0
{consumergroup=trace-token-events-consumer},1651573052,0
{consumergroup=trace-token-events-consumer},1651573057,0
{consumergroup=trace-token-events-consumer},1651573062,0
{consumergroup=trace-token-events-consumer},1651573067,0
{consumergroup=trace-token-events-consumer},1651573072,0
{consumergroup=trace-token-events-consumer},1651573077,0
{consumergroup=trace-token-events-consumer},1651573082,0
{consumergroup=trace-token-events-consumer},1651573087,0
{consumergroup=trace-token-events-consumer},1651573092,0
{consumergroup=trace-token-events-consumer},1651573097,0
{consumergroup=trace-token-events-consumer},1651573102,0
{consumergroup=trace-token-events-consumer},1651573107,0
{consumergroup=trace-token-events-consumer},1651573112,0
{consumergroup=trace-token-events-consumer},1651573117,0
{consumergroup=trace-token-events-consumer},1651573122,0
{consumergroup=trace-token-events-consumer},1651573127,0
{consumergroup=trace-token-events-consumer},1651573132,0
{consumergroup=trace-token-events-consumer},1651573137,0
{consumergroup=trace-token-events-consumer},1651573142,0
{consumergroup=trace-token-events-consumer},1651573147,0
{consumergroup=trace-token-events-consumer},1651573152,0
{consumergroup=trace-token-events-consumer},1651573157,0
{consumergroup=trace-token-events-consumer},1651573162,0
{consumergroup=trace-token-events-consumer},1651573167,0
{consumergroup=trace-token-events-consumer},1651573172,0
{consumergroup=trace-token-events-consumer},1651573177,0
{consumergroup=trace-token-events-consumer},1651573182,0
{consumergroup=trace-token-events-consumer},1651573187,0
{consumergroup=trace-token-events-consumer},1651573192,0
{consumergroup=trace-token-events-consumer},1651573197,0
{consumergroup=trace-token-events-consumer},1651573202,0
{consumergroup=trace-token-events-consumer},1651573207,0
