labels,timestamp,value
{job=theodolite-stu200776/combined-trace-podmonitor},1651556161,0
{job=theodolite-stu200776/combined-trace-podmonitor},1651556166,0
{job=theodolite-stu200776/combined-trace-podmonitor},1651556171,0
{job=theodolite-stu200776/combined-trace-podmonitor},1651556176,0
{job=theodolite-stu200776/combined-trace-podmonitor},1651556181,0
{job=theodolite-stu200776/combined-trace-podmonitor},1651556186,0
{job=theodolite-stu200776/combined-trace-podmonitor},1651556191,0
{job=theodolite-stu200776/combined-trace-podmonitor},1651556196,0
{job=theodolite-stu200776/combined-trace-podmonitor},1651556201,0
{job=theodolite-stu200776/combined-trace-podmonitor},1651556206,0
{job=theodolite-stu200776/combined-trace-podmonitor},1651556211,0
{job=theodolite-stu200776/combined-trace-podmonitor},1651556216,0
{job=theodolite-stu200776/combined-trace-podmonitor},1651556221,0
{job=theodolite-stu200776/combined-trace-podmonitor},1651556226,0
{job=theodolite-stu200776/combined-trace-podmonitor},1651556231,0
{job=theodolite-stu200776/combined-trace-podmonitor},1651556236,0
{job=theodolite-stu200776/combined-trace-podmonitor},1651556241,0
{job=theodolite-stu200776/combined-trace-podmonitor},1651556246,0
{job=theodolite-stu200776/combined-trace-podmonitor},1651556251,0
{job=theodolite-stu200776/combined-trace-podmonitor},1651556256,0
{job=theodolite-stu200776/combined-trace-podmonitor},1651556261,0
{job=theodolite-stu200776/combined-trace-podmonitor},1651556266,0
{job=theodolite-stu200776/combined-trace-podmonitor},1651556271,0
{job=theodolite-stu200776/combined-trace-podmonitor},1651556276,0
{job=theodolite-stu200776/combined-trace-podmonitor},1651556281,0
{job=theodolite-stu200776/combined-trace-podmonitor},1651556286,0
{job=theodolite-stu200776/combined-trace-podmonitor},1651556291,0
{job=theodolite-stu200776/combined-trace-podmonitor},1651556296,0
{job=theodolite-stu200776/combined-trace-podmonitor},1651556301,0
{job=theodolite-stu200776/combined-trace-podmonitor},1651556306,0
{job=theodolite-stu200776/combined-trace-podmonitor},1651556311,0
{job=theodolite-stu200776/combined-trace-podmonitor},1651556316,0
{job=theodolite-stu200776/combined-trace-podmonitor},1651556321,0
{job=theodolite-stu200776/combined-trace-podmonitor},1651556326,0
{job=theodolite-stu200776/combined-trace-podmonitor},1651556331,0
{job=theodolite-stu200776/combined-trace-podmonitor},1651556336,0
{job=theodolite-stu200776/combined-trace-podmonitor},1651556341,0
{job=theodolite-stu200776/combined-trace-podmonitor},1651556346,0
{job=theodolite-stu200776/combined-trace-podmonitor},1651556351,0
{job=theodolite-stu200776/combined-trace-podmonitor},1651556356,0
{job=theodolite-stu200776/combined-trace-podmonitor},1651556361,0
{job=theodolite-stu200776/combined-trace-podmonitor},1651556366,0
{job=theodolite-stu200776/combined-trace-podmonitor},1651556371,0
{job=theodolite-stu200776/combined-trace-podmonitor},1651556376,0
{job=theodolite-stu200776/combined-trace-podmonitor},1651556381,0
{job=theodolite-stu200776/combined-trace-podmonitor},1651556386,0
{job=theodolite-stu200776/combined-trace-podmonitor},1651556391,0
{job=theodolite-stu200776/combined-trace-podmonitor},1651556396,0
