labels,timestamp,value
{job=theodolite-stu200776/combined-trace-podmonitor},1651579520,0
{job=theodolite-stu200776/combined-trace-podmonitor},1651579525,0
{job=theodolite-stu200776/combined-trace-podmonitor},1651579530,0
{job=theodolite-stu200776/combined-trace-podmonitor},1651579535,0
{job=theodolite-stu200776/combined-trace-podmonitor},1651579540,0
{job=theodolite-stu200776/combined-trace-podmonitor},1651579545,0
{job=theodolite-stu200776/combined-trace-podmonitor},1651579550,0
{job=theodolite-stu200776/combined-trace-podmonitor},1651579555,0
{job=theodolite-stu200776/combined-trace-podmonitor},1651579560,0
{job=theodolite-stu200776/combined-trace-podmonitor},1651579565,0
{job=theodolite-stu200776/combined-trace-podmonitor},1651579570,0
{job=theodolite-stu200776/combined-trace-podmonitor},1651579575,0
{job=theodolite-stu200776/combined-trace-podmonitor},1651579580,0
{job=theodolite-stu200776/combined-trace-podmonitor},1651579585,0
{job=theodolite-stu200776/combined-trace-podmonitor},1651579590,0
{job=theodolite-stu200776/combined-trace-podmonitor},1651579595,0
{job=theodolite-stu200776/combined-trace-podmonitor},1651579600,0
{job=theodolite-stu200776/combined-trace-podmonitor},1651579605,0
{job=theodolite-stu200776/combined-trace-podmonitor},1651579610,0
{job=theodolite-stu200776/combined-trace-podmonitor},1651579615,0
{job=theodolite-stu200776/combined-trace-podmonitor},1651579620,0
{job=theodolite-stu200776/combined-trace-podmonitor},1651579625,0
{job=theodolite-stu200776/combined-trace-podmonitor},1651579630,0
{job=theodolite-stu200776/combined-trace-podmonitor},1651579635,0
{job=theodolite-stu200776/combined-trace-podmonitor},1651579640,0
{job=theodolite-stu200776/combined-trace-podmonitor},1651579645,0
{job=theodolite-stu200776/combined-trace-podmonitor},1651579650,0
{job=theodolite-stu200776/combined-trace-podmonitor},1651579655,0
{job=theodolite-stu200776/combined-trace-podmonitor},1651579660,0
{job=theodolite-stu200776/combined-trace-podmonitor},1651579665,0
{job=theodolite-stu200776/combined-trace-podmonitor},1651579670,0
{job=theodolite-stu200776/combined-trace-podmonitor},1651579675,0
{job=theodolite-stu200776/combined-trace-podmonitor},1651579680,0
{job=theodolite-stu200776/combined-trace-podmonitor},1651579685,0
{job=theodolite-stu200776/combined-trace-podmonitor},1651579690,0
{job=theodolite-stu200776/combined-trace-podmonitor},1651579695,0
{job=theodolite-stu200776/combined-trace-podmonitor},1651579700,0
{job=theodolite-stu200776/combined-trace-podmonitor},1651579705,0
{job=theodolite-stu200776/combined-trace-podmonitor},1651579710,0
{job=theodolite-stu200776/combined-trace-podmonitor},1651579715,0
{job=theodolite-stu200776/combined-trace-podmonitor},1651579720,0
{job=theodolite-stu200776/combined-trace-podmonitor},1651579725,0
{job=theodolite-stu200776/combined-trace-podmonitor},1651579730,0
{job=theodolite-stu200776/combined-trace-podmonitor},1651579735,0
{job=theodolite-stu200776/combined-trace-podmonitor},1651579740,0
{job=theodolite-stu200776/combined-trace-podmonitor},1651579745,0
{job=theodolite-stu200776/combined-trace-podmonitor},1651579750,0
{job=theodolite-stu200776/combined-trace-podmonitor},1651579755,0
{job=theodolite-stu200776/combined-trace-podmonitor},1651579760,0
{job=theodolite-stu200776/combined-trace-podmonitor},1651579765,0
{job=theodolite-stu200776/combined-trace-podmonitor},1651579770,0
{job=theodolite-stu200776/combined-trace-podmonitor},1651579775,0
{job=theodolite-stu200776/combined-trace-podmonitor},1651579780,0
{job=theodolite-stu200776/combined-trace-podmonitor},1651579785,0
{job=theodolite-stu200776/combined-trace-podmonitor},1651579790,0
{job=theodolite-stu200776/combined-trace-podmonitor},1651579795,0
{job=theodolite-stu200776/combined-trace-podmonitor},1651579800,0
{job=theodolite-stu200776/combined-trace-podmonitor},1651579805,0
{job=theodolite-stu200776/combined-trace-podmonitor},1651579810,0
{job=theodolite-stu200776/combined-trace-podmonitor},1651579815,0
{job=theodolite-stu200776/combined-trace-podmonitor},1651579820,0
{job=theodolite-stu200776/combined-trace-podmonitor},1651579825,0
{job=theodolite-stu200776/combined-trace-podmonitor},1651579830,0
{job=theodolite-stu200776/combined-trace-podmonitor},1651579835,0
{job=theodolite-stu200776/combined-trace-podmonitor},1651579840,0
{job=theodolite-stu200776/combined-trace-podmonitor},1651579845,0
{job=theodolite-stu200776/combined-trace-podmonitor},1651579850,0
{job=theodolite-stu200776/combined-trace-podmonitor},1651579855,0
{job=theodolite-stu200776/combined-trace-podmonitor},1651579860,0
{job=theodolite-stu200776/combined-trace-podmonitor},1651579865,0
{job=theodolite-stu200776/combined-trace-podmonitor},1651579870,0
{job=theodolite-stu200776/combined-trace-podmonitor},1651579875,0
{job=theodolite-stu200776/combined-trace-podmonitor},1651579880,0
{job=theodolite-stu200776/combined-trace-podmonitor},1651579885,0
{job=theodolite-stu200776/combined-trace-podmonitor},1651579890,0
