labels,timestamp,value
{job=theodolite-stu200776/combined-trace-podmonitor},1651528932,6.093978382726845
{job=theodolite-stu200776/combined-trace-podmonitor},1651528937,14.491569965630521
{job=theodolite-stu200776/combined-trace-podmonitor},1651528942,28.54065929093504
{job=theodolite-stu200776/combined-trace-podmonitor},1651528947,35.81006908643348
{job=theodolite-stu200776/combined-trace-podmonitor},1651528952,46.50400548493295
{job=theodolite-stu200776/combined-trace-podmonitor},1651528957,43.82045895247149
{job=theodolite-stu200776/combined-trace-podmonitor},1651528962,62.47079114575762
{job=theodolite-stu200776/combined-trace-podmonitor},1651528967,611.9788831555466
{job=theodolite-stu200776/combined-trace-podmonitor},1651528972,1560.0686221207184
{job=theodolite-stu200776/combined-trace-podmonitor},1651528977,1443.7155718012586
{job=theodolite-stu200776/combined-trace-podmonitor},1651528982,1255.328150503519
{job=theodolite-stu200776/combined-trace-podmonitor},1651528987,1178.9367726356465
{job=theodolite-stu200776/combined-trace-podmonitor},1651528992,1086.1314781346023
{job=theodolite-stu200776/combined-trace-podmonitor},1651528997,1346.7287798256311
{job=theodolite-stu200776/combined-trace-podmonitor},1651529002,1728.0961451694754
{job=theodolite-stu200776/combined-trace-podmonitor},1651529007,1581.5834789498645
{job=theodolite-stu200776/combined-trace-podmonitor},1651529012,1350.749854024288
{job=theodolite-stu200776/combined-trace-podmonitor},1651529017,1259.5058771144147
{job=theodolite-stu200776/combined-trace-podmonitor},1651529022,1109.0498885684697
{job=theodolite-stu200776/combined-trace-podmonitor},1651529027,716.4621113385297
{job=theodolite-stu200776/combined-trace-podmonitor},1651529032,0
{job=theodolite-stu200776/combined-trace-podmonitor},1651529037,0
{job=theodolite-stu200776/combined-trace-podmonitor},1651529042,0
{job=theodolite-stu200776/combined-trace-podmonitor},1651529047,0
{job=theodolite-stu200776/combined-trace-podmonitor},1651529052,0
{job=theodolite-stu200776/combined-trace-podmonitor},1651529057,0
{job=theodolite-stu200776/combined-trace-podmonitor},1651529062,0
{job=theodolite-stu200776/combined-trace-podmonitor},1651529067,0
{job=theodolite-stu200776/combined-trace-podmonitor},1651529072,0
{job=theodolite-stu200776/combined-trace-podmonitor},1651529077,0
{job=theodolite-stu200776/combined-trace-podmonitor},1651529082,0
{job=theodolite-stu200776/combined-trace-podmonitor},1651529087,0
{job=theodolite-stu200776/combined-trace-podmonitor},1651529092,0
{job=theodolite-stu200776/combined-trace-podmonitor},1651529097,0
{job=theodolite-stu200776/combined-trace-podmonitor},1651529102,0
{job=theodolite-stu200776/combined-trace-podmonitor},1651529107,0
{job=theodolite-stu200776/combined-trace-podmonitor},1651529112,0
{job=theodolite-stu200776/combined-trace-podmonitor},1651529117,0
{job=theodolite-stu200776/combined-trace-podmonitor},1651529122,0
{job=theodolite-stu200776/combined-trace-podmonitor},1651529127,0
{job=theodolite-stu200776/combined-trace-podmonitor},1651529132,0
{job=theodolite-stu200776/combined-trace-podmonitor},1651529137,0
{job=theodolite-stu200776/combined-trace-podmonitor},1651529142,0
{job=theodolite-stu200776/combined-trace-podmonitor},1651529147,0
{job=theodolite-stu200776/combined-trace-podmonitor},1651529152,0
{job=theodolite-stu200776/combined-trace-podmonitor},1651529157,0
{job=theodolite-stu200776/combined-trace-podmonitor},1651529162,0
{job=theodolite-stu200776/combined-trace-podmonitor},1651529167,0
{job=theodolite-stu200776/combined-trace-podmonitor},1651529172,0
{job=theodolite-stu200776/combined-trace-podmonitor},1651529177,0
{job=theodolite-stu200776/combined-trace-podmonitor},1651529182,0
{job=theodolite-stu200776/combined-trace-podmonitor},1651529187,0
{job=theodolite-stu200776/combined-trace-podmonitor},1651529192,0
{job=theodolite-stu200776/combined-trace-podmonitor},1651529197,0
{job=theodolite-stu200776/combined-trace-podmonitor},1651529202,0
{job=theodolite-stu200776/combined-trace-podmonitor},1651529207,0
{job=theodolite-stu200776/combined-trace-podmonitor},1651529212,0
{job=theodolite-stu200776/combined-trace-podmonitor},1651529217,0
{job=theodolite-stu200776/combined-trace-podmonitor},1651529222,0
{job=theodolite-stu200776/combined-trace-podmonitor},1651529227,0
{job=theodolite-stu200776/combined-trace-podmonitor},1651529232,0
{job=theodolite-stu200776/combined-trace-podmonitor},1651529237,0
{job=theodolite-stu200776/combined-trace-podmonitor},1651529242,0
{job=theodolite-stu200776/combined-trace-podmonitor},1651529247,0
{job=theodolite-stu200776/combined-trace-podmonitor},1651529252,0
{job=theodolite-stu200776/combined-trace-podmonitor},1651529257,0
{job=theodolite-stu200776/combined-trace-podmonitor},1651529262,0
{job=theodolite-stu200776/combined-trace-podmonitor},1651529267,0
{job=theodolite-stu200776/combined-trace-podmonitor},1651529272,0
{job=theodolite-stu200776/combined-trace-podmonitor},1651529277,0
{job=theodolite-stu200776/combined-trace-podmonitor},1651529282,0
{job=theodolite-stu200776/combined-trace-podmonitor},1651529287,0
{job=theodolite-stu200776/combined-trace-podmonitor},1651529292,0
{job=theodolite-stu200776/combined-trace-podmonitor},1651529297,0
{job=theodolite-stu200776/combined-trace-podmonitor},1651529302,0
{job=theodolite-stu200776/combined-trace-podmonitor},1651529307,0
