labels,timestamp,value
{job=theodolite-stu200776/combined-trace-podmonitor},1651539448,0
{job=theodolite-stu200776/combined-trace-podmonitor},1651539453,0
{job=theodolite-stu200776/combined-trace-podmonitor},1651539458,0
{job=theodolite-stu200776/combined-trace-podmonitor},1651539463,0
{job=theodolite-stu200776/combined-trace-podmonitor},1651539468,0
{job=theodolite-stu200776/combined-trace-podmonitor},1651539473,0
{job=theodolite-stu200776/combined-trace-podmonitor},1651539478,0
{job=theodolite-stu200776/combined-trace-podmonitor},1651539483,0
{job=theodolite-stu200776/combined-trace-podmonitor},1651539488,0
{job=theodolite-stu200776/combined-trace-podmonitor},1651539493,0
{job=theodolite-stu200776/combined-trace-podmonitor},1651539498,0
{job=theodolite-stu200776/combined-trace-podmonitor},1651539503,0
{job=theodolite-stu200776/combined-trace-podmonitor},1651539508,0
{job=theodolite-stu200776/combined-trace-podmonitor},1651539513,0
{job=theodolite-stu200776/combined-trace-podmonitor},1651539518,0
{job=theodolite-stu200776/combined-trace-podmonitor},1651539523,0
{job=theodolite-stu200776/combined-trace-podmonitor},1651539528,0
{job=theodolite-stu200776/combined-trace-podmonitor},1651539533,0
{job=theodolite-stu200776/combined-trace-podmonitor},1651539538,0
{job=theodolite-stu200776/combined-trace-podmonitor},1651539543,0
{job=theodolite-stu200776/combined-trace-podmonitor},1651539548,0
{job=theodolite-stu200776/combined-trace-podmonitor},1651539553,0
{job=theodolite-stu200776/combined-trace-podmonitor},1651539558,0
{job=theodolite-stu200776/combined-trace-podmonitor},1651539563,0
{job=theodolite-stu200776/combined-trace-podmonitor},1651539568,0
{job=theodolite-stu200776/combined-trace-podmonitor},1651539573,0
{job=theodolite-stu200776/combined-trace-podmonitor},1651539578,0
{job=theodolite-stu200776/combined-trace-podmonitor},1651539583,0
{job=theodolite-stu200776/combined-trace-podmonitor},1651539588,0
{job=theodolite-stu200776/combined-trace-podmonitor},1651539593,0
{job=theodolite-stu200776/combined-trace-podmonitor},1651539598,0
{job=theodolite-stu200776/combined-trace-podmonitor},1651539603,0
{job=theodolite-stu200776/combined-trace-podmonitor},1651539608,0
{job=theodolite-stu200776/combined-trace-podmonitor},1651539613,0
{job=theodolite-stu200776/combined-trace-podmonitor},1651539618,0
{job=theodolite-stu200776/combined-trace-podmonitor},1651539623,0
{job=theodolite-stu200776/combined-trace-podmonitor},1651539628,0
{job=theodolite-stu200776/combined-trace-podmonitor},1651539633,0
{job=theodolite-stu200776/combined-trace-podmonitor},1651539638,0
{job=theodolite-stu200776/combined-trace-podmonitor},1651539643,0
{job=theodolite-stu200776/combined-trace-podmonitor},1651539648,0
{job=theodolite-stu200776/combined-trace-podmonitor},1651539653,0
{job=theodolite-stu200776/combined-trace-podmonitor},1651539658,0
{job=theodolite-stu200776/combined-trace-podmonitor},1651539663,0
{job=theodolite-stu200776/combined-trace-podmonitor},1651539668,0
{job=theodolite-stu200776/combined-trace-podmonitor},1651539673,0
{job=theodolite-stu200776/combined-trace-podmonitor},1651539678,0
{job=theodolite-stu200776/combined-trace-podmonitor},1651539683,0
{job=theodolite-stu200776/combined-trace-podmonitor},1651539688,0
{job=theodolite-stu200776/combined-trace-podmonitor},1651539693,0
{job=theodolite-stu200776/combined-trace-podmonitor},1651539698,0
{job=theodolite-stu200776/combined-trace-podmonitor},1651539703,0
{job=theodolite-stu200776/combined-trace-podmonitor},1651539708,0
{job=theodolite-stu200776/combined-trace-podmonitor},1651539713,0
{job=theodolite-stu200776/combined-trace-podmonitor},1651539718,0
{job=theodolite-stu200776/combined-trace-podmonitor},1651539723,0
{job=theodolite-stu200776/combined-trace-podmonitor},1651539728,0
{job=theodolite-stu200776/combined-trace-podmonitor},1651539733,0
{job=theodolite-stu200776/combined-trace-podmonitor},1651539738,0
{job=theodolite-stu200776/combined-trace-podmonitor},1651539743,0
{job=theodolite-stu200776/combined-trace-podmonitor},1651539748,0
{job=theodolite-stu200776/combined-trace-podmonitor},1651539753,0
{job=theodolite-stu200776/combined-trace-podmonitor},1651539758,0
{job=theodolite-stu200776/combined-trace-podmonitor},1651539763,0
{job=theodolite-stu200776/combined-trace-podmonitor},1651539768,0
{job=theodolite-stu200776/combined-trace-podmonitor},1651539773,0
{job=theodolite-stu200776/combined-trace-podmonitor},1651539778,0
{job=theodolite-stu200776/combined-trace-podmonitor},1651539783,0
{job=theodolite-stu200776/combined-trace-podmonitor},1651539788,0
{job=theodolite-stu200776/combined-trace-podmonitor},1651539793,0
{job=theodolite-stu200776/combined-trace-podmonitor},1651539798,0
{job=theodolite-stu200776/combined-trace-podmonitor},1651539803,0
{job=theodolite-stu200776/combined-trace-podmonitor},1651539808,0
{job=theodolite-stu200776/combined-trace-podmonitor},1651539813,0
{job=theodolite-stu200776/combined-trace-podmonitor},1651539818,0
{job=theodolite-stu200776/combined-trace-podmonitor},1651539823,0
