labels,timestamp,value
{job=theodolite-stu200776/combined-trace-podmonitor},1651545575,15.853248472384742
{job=theodolite-stu200776/combined-trace-podmonitor},1651545580,33.75311668577507
{job=theodolite-stu200776/combined-trace-podmonitor},1651545585,45.49037445011561
{job=theodolite-stu200776/combined-trace-podmonitor},1651545590,41.437364525152034
{job=theodolite-stu200776/combined-trace-podmonitor},1651545595,35.86268765759701
{job=theodolite-stu200776/combined-trace-podmonitor},1651545600,33.21296048607089
{job=theodolite-stu200776/combined-trace-podmonitor},1651545605,29.394371630197487
{job=theodolite-stu200776/combined-trace-podmonitor},1651545610,18.41541654946425
{job=theodolite-stu200776/combined-trace-podmonitor},1651545615,0.5057012752350714
{job=theodolite-stu200776/combined-trace-podmonitor},1651545620,0.287525239067657
{job=theodolite-stu200776/combined-trace-podmonitor},1651545625,0
{job=theodolite-stu200776/combined-trace-podmonitor},1651545630,0
{job=theodolite-stu200776/combined-trace-podmonitor},1651545635,0
{job=theodolite-stu200776/combined-trace-podmonitor},1651545640,0
{job=theodolite-stu200776/combined-trace-podmonitor},1651545645,0
{job=theodolite-stu200776/combined-trace-podmonitor},1651545650,0
{job=theodolite-stu200776/combined-trace-podmonitor},1651545655,0
{job=theodolite-stu200776/combined-trace-podmonitor},1651545660,0
{job=theodolite-stu200776/combined-trace-podmonitor},1651545665,0
{job=theodolite-stu200776/combined-trace-podmonitor},1651545670,0
{job=theodolite-stu200776/combined-trace-podmonitor},1651545675,0
{job=theodolite-stu200776/combined-trace-podmonitor},1651545680,0
{job=theodolite-stu200776/combined-trace-podmonitor},1651545685,0
{job=theodolite-stu200776/combined-trace-podmonitor},1651545690,0
{job=theodolite-stu200776/combined-trace-podmonitor},1651545695,0
{job=theodolite-stu200776/combined-trace-podmonitor},1651545700,0
{job=theodolite-stu200776/combined-trace-podmonitor},1651545705,0
{job=theodolite-stu200776/combined-trace-podmonitor},1651545710,0
{job=theodolite-stu200776/combined-trace-podmonitor},1651545715,0
{job=theodolite-stu200776/combined-trace-podmonitor},1651545720,0
{job=theodolite-stu200776/combined-trace-podmonitor},1651545725,0
{job=theodolite-stu200776/combined-trace-podmonitor},1651545730,0
{job=theodolite-stu200776/combined-trace-podmonitor},1651545735,0
{job=theodolite-stu200776/combined-trace-podmonitor},1651545740,0
{job=theodolite-stu200776/combined-trace-podmonitor},1651545745,0
{job=theodolite-stu200776/combined-trace-podmonitor},1651545750,0
{job=theodolite-stu200776/combined-trace-podmonitor},1651545755,0
{job=theodolite-stu200776/combined-trace-podmonitor},1651545760,0
{job=theodolite-stu200776/combined-trace-podmonitor},1651545765,0
{job=theodolite-stu200776/combined-trace-podmonitor},1651545770,0
{job=theodolite-stu200776/combined-trace-podmonitor},1651545775,0
{job=theodolite-stu200776/combined-trace-podmonitor},1651545780,0
{job=theodolite-stu200776/combined-trace-podmonitor},1651545785,0
{job=theodolite-stu200776/combined-trace-podmonitor},1651545790,0
{job=theodolite-stu200776/combined-trace-podmonitor},1651545795,0
{job=theodolite-stu200776/combined-trace-podmonitor},1651545800,0
{job=theodolite-stu200776/combined-trace-podmonitor},1651545805,0
{job=theodolite-stu200776/combined-trace-podmonitor},1651545810,0
{job=theodolite-stu200776/combined-trace-podmonitor},1651545815,0
{job=theodolite-stu200776/combined-trace-podmonitor},1651545820,0
{job=theodolite-stu200776/combined-trace-podmonitor},1651545825,0
{job=theodolite-stu200776/combined-trace-podmonitor},1651545830,0
{job=theodolite-stu200776/combined-trace-podmonitor},1651545835,0
{job=theodolite-stu200776/combined-trace-podmonitor},1651545840,0
{job=theodolite-stu200776/combined-trace-podmonitor},1651545845,0
{job=theodolite-stu200776/combined-trace-podmonitor},1651545850,0
{job=theodolite-stu200776/combined-trace-podmonitor},1651545855,0
{job=theodolite-stu200776/combined-trace-podmonitor},1651545860,0
{job=theodolite-stu200776/combined-trace-podmonitor},1651545865,0
{job=theodolite-stu200776/combined-trace-podmonitor},1651545870,0
{job=theodolite-stu200776/combined-trace-podmonitor},1651545875,0
{job=theodolite-stu200776/combined-trace-podmonitor},1651545880,0
{job=theodolite-stu200776/combined-trace-podmonitor},1651545885,0
{job=theodolite-stu200776/combined-trace-podmonitor},1651545890,0
{job=theodolite-stu200776/combined-trace-podmonitor},1651545895,0
{job=theodolite-stu200776/combined-trace-podmonitor},1651545900,0
{job=theodolite-stu200776/combined-trace-podmonitor},1651545905,0
{job=theodolite-stu200776/combined-trace-podmonitor},1651545910,0
{job=theodolite-stu200776/combined-trace-podmonitor},1651545915,0
{job=theodolite-stu200776/combined-trace-podmonitor},1651545920,0
{job=theodolite-stu200776/combined-trace-podmonitor},1651545925,0
{job=theodolite-stu200776/combined-trace-podmonitor},1651545930,0
{job=theodolite-stu200776/combined-trace-podmonitor},1651545935,0
{job=theodolite-stu200776/combined-trace-podmonitor},1651545940,0
{job=theodolite-stu200776/combined-trace-podmonitor},1651545945,0
{job=theodolite-stu200776/combined-trace-podmonitor},1651545950,0
