labels,timestamp,value
{consumergroup=__strimzi-topic-operator-kstreams},1651552650,3
{consumergroup=__strimzi-topic-operator-kstreams},1651552655,3
{consumergroup=__strimzi-topic-operator-kstreams},1651552660,3
{consumergroup=__strimzi-topic-operator-kstreams},1651552665,11
{consumergroup=__strimzi-topic-operator-kstreams},1651552670,11
{consumergroup=__strimzi-topic-operator-kstreams},1651552675,11
{consumergroup=__strimzi-topic-operator-kstreams},1651552680,3
{consumergroup=__strimzi-topic-operator-kstreams},1651552685,3
{consumergroup=__strimzi-topic-operator-kstreams},1651552690,3
{consumergroup=__strimzi-topic-operator-kstreams},1651552695,3
{consumergroup=__strimzi-topic-operator-kstreams},1651552700,3
{consumergroup=__strimzi-topic-operator-kstreams},1651552705,3
{consumergroup=__strimzi-topic-operator-kstreams},1651552710,0
{consumergroup=__strimzi-topic-operator-kstreams},1651552715,0
{consumergroup=__strimzi-topic-operator-kstreams},1651552720,0
{consumergroup=__strimzi-topic-operator-kstreams},1651552725,0
{consumergroup=__strimzi-topic-operator-kstreams},1651552730,0
{consumergroup=__strimzi-topic-operator-kstreams},1651552735,0
{consumergroup=__strimzi-topic-operator-kstreams},1651552740,0
{consumergroup=__strimzi-topic-operator-kstreams},1651552745,0
{consumergroup=__strimzi-topic-operator-kstreams},1651552750,0
{consumergroup=__strimzi-topic-operator-kstreams},1651552755,0
{consumergroup=__strimzi-topic-operator-kstreams},1651552760,0
{consumergroup=__strimzi-topic-operator-kstreams},1651552765,0
{consumergroup=__strimzi-topic-operator-kstreams},1651552770,0
{consumergroup=__strimzi-topic-operator-kstreams},1651552775,0
{consumergroup=__strimzi-topic-operator-kstreams},1651552780,0
{consumergroup=__strimzi-topic-operator-kstreams},1651552785,0
{consumergroup=__strimzi-topic-operator-kstreams},1651552790,0
{consumergroup=__strimzi-topic-operator-kstreams},1651552795,0
{consumergroup=__strimzi-topic-operator-kstreams},1651552800,0
{consumergroup=__strimzi-topic-operator-kstreams},1651552805,0
{consumergroup=__strimzi-topic-operator-kstreams},1651552810,0
{consumergroup=__strimzi-topic-operator-kstreams},1651552815,0
{consumergroup=__strimzi-topic-operator-kstreams},1651552820,0
{consumergroup=__strimzi-topic-operator-kstreams},1651552825,0
{consumergroup=__strimzi-topic-operator-kstreams},1651552830,0
{consumergroup=__strimzi-topic-operator-kstreams},1651552835,0
{consumergroup=__strimzi-topic-operator-kstreams},1651552840,0
{consumergroup=__strimzi-topic-operator-kstreams},1651552845,0
{consumergroup=__strimzi-topic-operator-kstreams},1651552850,0
{consumergroup=__strimzi-topic-operator-kstreams},1651552855,0
{consumergroup=__strimzi-topic-operator-kstreams},1651552860,0
{consumergroup=__strimzi-topic-operator-kstreams},1651552865,0
{consumergroup=__strimzi-topic-operator-kstreams},1651552870,0
{consumergroup=__strimzi-topic-operator-kstreams},1651552875,0
{consumergroup=__strimzi-topic-operator-kstreams},1651552880,0
{consumergroup=__strimzi-topic-operator-kstreams},1651552885,0
{consumergroup=__strimzi-topic-operator-kstreams},1651552890,0
{consumergroup=__strimzi-topic-operator-kstreams},1651552895,0
{consumergroup=__strimzi-topic-operator-kstreams},1651552900,0
{consumergroup=__strimzi-topic-operator-kstreams},1651552905,0
{consumergroup=__strimzi-topic-operator-kstreams},1651552910,0
{consumergroup=__strimzi-topic-operator-kstreams},1651552915,0
{consumergroup=__strimzi-topic-operator-kstreams},1651552920,0
{consumergroup=__strimzi-topic-operator-kstreams},1651552925,0
{consumergroup=__strimzi-topic-operator-kstreams},1651552930,0
{consumergroup=__strimzi-topic-operator-kstreams},1651552935,0
{consumergroup=__strimzi-topic-operator-kstreams},1651552940,0
{consumergroup=__strimzi-topic-operator-kstreams},1651552945,0
{consumergroup=__strimzi-topic-operator-kstreams},1651552950,0
{consumergroup=__strimzi-topic-operator-kstreams},1651552955,0
{consumergroup=__strimzi-topic-operator-kstreams},1651552960,0
{consumergroup=__strimzi-topic-operator-kstreams},1651552965,0
{consumergroup=__strimzi-topic-operator-kstreams},1651552970,0
{consumergroup=__strimzi-topic-operator-kstreams},1651552975,0
{consumergroup=__strimzi-topic-operator-kstreams},1651552980,0
{consumergroup=__strimzi-topic-operator-kstreams},1651552985,0
{consumergroup=__strimzi-topic-operator-kstreams},1651552990,0
{consumergroup=__strimzi-topic-operator-kstreams},1651552995,0
{consumergroup=__strimzi-topic-operator-kstreams},1651553000,0
{consumergroup=__strimzi-topic-operator-kstreams},1651553005,0
{consumergroup=__strimzi-topic-operator-kstreams},1651553010,0
{consumergroup=__strimzi-topic-operator-kstreams},1651553015,0
{consumergroup=__strimzi-topic-operator-kstreams},1651553020,0
{consumergroup=__strimzi-topic-operator-kstreams},1651553025,0
{consumergroup=__strimzi-topic-operator-kstreams},1651553030,0
{consumergroup=__strimzi-topic-operator-kstreams},1651553035,0
{consumergroup=__strimzi-topic-operator-kstreams},1651553040,0
{consumergroup=__strimzi-topic-operator-kstreams},1651553045,0
{consumergroup=__strimzi-topic-operator-kstreams},1651553050,0
{consumergroup=__strimzi-topic-operator-kstreams},1651553055,0
{consumergroup=__strimzi-topic-operator-kstreams},1651553060,0
{consumergroup=__strimzi-topic-operator-kstreams},1651553065,0
{consumergroup=__strimzi-topic-operator-kstreams},1651553070,0
{consumergroup=__strimzi-topic-operator-kstreams},1651553075,0
{consumergroup=__strimzi-topic-operator-kstreams},1651553080,0
{consumergroup=__strimzi-topic-operator-kstreams},1651553085,0
{consumergroup=__strimzi-topic-operator-kstreams},1651553090,0
{consumergroup=__strimzi-topic-operator-kstreams},1651553095,0
{consumergroup=adapter-service},1651552695,29752
{consumergroup=adapter-service},1651552700,29752
{consumergroup=adapter-service},1651552705,29752
{consumergroup=adapter-service},1651552710,10683
{consumergroup=adapter-service},1651552715,10683
{consumergroup=adapter-service},1651552720,10683
{consumergroup=adapter-service},1651552725,14510
{consumergroup=adapter-service},1651552730,14510
{consumergroup=adapter-service},1651552735,14510
{consumergroup=adapter-service},1651552740,8750
{consumergroup=adapter-service},1651552745,8750
{consumergroup=adapter-service},1651552750,8750
{consumergroup=adapter-service},1651552755,10724
{consumergroup=adapter-service},1651552760,10724
{consumergroup=adapter-service},1651552765,10724
{consumergroup=adapter-service},1651552770,9786
{consumergroup=adapter-service},1651552775,9786
{consumergroup=adapter-service},1651552780,9786
{consumergroup=adapter-service},1651552785,9101
{consumergroup=adapter-service},1651552790,9101
{consumergroup=adapter-service},1651552795,9101
{consumergroup=adapter-service},1651552800,8534
{consumergroup=adapter-service},1651552805,8534
{consumergroup=adapter-service},1651552810,8534
{consumergroup=adapter-service},1651552815,9487
{consumergroup=adapter-service},1651552820,9487
{consumergroup=adapter-service},1651552825,9487
{consumergroup=adapter-service},1651552830,3994
{consumergroup=adapter-service},1651552835,3994
{consumergroup=adapter-service},1651552840,3994
{consumergroup=adapter-service},1651552845,8799
{consumergroup=adapter-service},1651552850,8799
{consumergroup=adapter-service},1651552855,8799
{consumergroup=adapter-service},1651552860,3491
{consumergroup=adapter-service},1651552865,3491
{consumergroup=adapter-service},1651552870,3491
{consumergroup=adapter-service},1651552875,7382
{consumergroup=adapter-service},1651552880,7382
{consumergroup=adapter-service},1651552885,7382
{consumergroup=adapter-service},1651552890,7186
{consumergroup=adapter-service},1651552895,7186
{consumergroup=adapter-service},1651552900,7186
{consumergroup=adapter-service},1651552905,6796
{consumergroup=adapter-service},1651552910,6796
{consumergroup=adapter-service},1651552915,6796
{consumergroup=adapter-service},1651552920,2679
{consumergroup=adapter-service},1651552925,2679
{consumergroup=adapter-service},1651552930,2679
{consumergroup=adapter-service},1651552935,6529
{consumergroup=adapter-service},1651552940,6529
{consumergroup=adapter-service},1651552945,6529
{consumergroup=adapter-service},1651552950,6114
{consumergroup=adapter-service},1651552955,6114
{consumergroup=adapter-service},1651552960,6114
{consumergroup=adapter-service},1651552965,9692
{consumergroup=adapter-service},1651552970,9692
{consumergroup=adapter-service},1651552975,9692
{consumergroup=adapter-service},1651552980,6230
{consumergroup=adapter-service},1651552985,6230
{consumergroup=adapter-service},1651552990,6230
{consumergroup=adapter-service},1651552995,6133
{consumergroup=adapter-service},1651553000,6133
{consumergroup=adapter-service},1651553005,6133
{consumergroup=adapter-service},1651553010,4334
{consumergroup=adapter-service},1651553015,4334
{consumergroup=adapter-service},1651553020,4334
{consumergroup=adapter-service},1651553025,4873
{consumergroup=adapter-service},1651553030,4873
{consumergroup=adapter-service},1651553035,4873
{consumergroup=adapter-service},1651553040,3965
{consumergroup=adapter-service},1651553045,3965
{consumergroup=adapter-service},1651553050,3965
{consumergroup=adapter-service},1651553055,5081
{consumergroup=adapter-service},1651553060,5081
{consumergroup=adapter-service},1651553065,5081
{consumergroup=adapter-service},1651553070,4009
{consumergroup=adapter-service},1651553075,4009
{consumergroup=adapter-service},1651553080,4009
{consumergroup=adapter-service},1651553085,4738
{consumergroup=adapter-service},1651553090,4738
{consumergroup=adapter-service},1651553095,4738
{consumergroup=landscape-service},1651552710,28740
{consumergroup=landscape-service},1651552715,28740
{consumergroup=landscape-service},1651552720,28740
{consumergroup=landscape-service},1651552725,12660
{consumergroup=landscape-service},1651552730,12660
{consumergroup=landscape-service},1651552735,12660
{consumergroup=landscape-service},1651552740,8192
{consumergroup=landscape-service},1651552745,8192
{consumergroup=landscape-service},1651552750,8192
{consumergroup=landscape-service},1651552755,11245
{consumergroup=landscape-service},1651552760,11245
{consumergroup=landscape-service},1651552765,11245
{consumergroup=landscape-service},1651552770,10469
{consumergroup=landscape-service},1651552775,10469
{consumergroup=landscape-service},1651552780,10469
{consumergroup=landscape-service},1651552785,9987
{consumergroup=landscape-service},1651552790,9987
{consumergroup=landscape-service},1651552795,9987
{consumergroup=landscape-service},1651552800,9276
{consumergroup=landscape-service},1651552805,9276
{consumergroup=landscape-service},1651552810,9276
{consumergroup=landscape-service},1651552815,8957
{consumergroup=landscape-service},1651552820,8957
{consumergroup=landscape-service},1651552825,8957
{consumergroup=landscape-service},1651552830,5018
{consumergroup=landscape-service},1651552835,5018
{consumergroup=landscape-service},1651552840,5018
{consumergroup=landscape-service},1651552845,8178
{consumergroup=landscape-service},1651552850,8178
{consumergroup=landscape-service},1651552855,8178
{consumergroup=landscape-service},1651552860,2647
{consumergroup=landscape-service},1651552865,2647
{consumergroup=landscape-service},1651552870,2647
{consumergroup=landscape-service},1651552875,5739
{consumergroup=landscape-service},1651552880,5739
{consumergroup=landscape-service},1651552885,5739
{consumergroup=landscape-service},1651552890,4649
{consumergroup=landscape-service},1651552895,4649
{consumergroup=landscape-service},1651552900,4649
{consumergroup=landscape-service},1651552905,4147
{consumergroup=landscape-service},1651552910,4147
{consumergroup=landscape-service},1651552915,4147
{consumergroup=landscape-service},1651552920,19560
{consumergroup=landscape-service},1651552925,19560
{consumergroup=landscape-service},1651552930,19560
{consumergroup=landscape-service},1651552935,2977
{consumergroup=landscape-service},1651552940,2977
{consumergroup=landscape-service},1651552945,2977
{consumergroup=landscape-service},1651552950,3072
{consumergroup=landscape-service},1651552955,3072
{consumergroup=landscape-service},1651552960,3072
{consumergroup=landscape-service},1651552965,6299
{consumergroup=landscape-service},1651552970,6299
{consumergroup=landscape-service},1651552975,6299
{consumergroup=landscape-service},1651552980,716
{consumergroup=landscape-service},1651552985,716
{consumergroup=landscape-service},1651552990,716
{consumergroup=landscape-service},1651552995,122
{consumergroup=landscape-service},1651553000,122
{consumergroup=landscape-service},1651553005,122
{consumergroup=landscape-service},1651553010,16474
{consumergroup=landscape-service},1651553015,16474
{consumergroup=landscape-service},1651553020,16474
{consumergroup=landscape-service},1651553025,18525
{consumergroup=landscape-service},1651553030,18525
{consumergroup=landscape-service},1651553035,18525
{consumergroup=landscape-service},1651553040,14629
{consumergroup=landscape-service},1651553045,14629
{consumergroup=landscape-service},1651553050,14629
{consumergroup=landscape-service},1651553055,16855
{consumergroup=landscape-service},1651553060,16855
{consumergroup=landscape-service},1651553065,16855
{consumergroup=landscape-service},1651553070,16066
{consumergroup=landscape-service},1651553075,16066
{consumergroup=landscape-service},1651553080,16066
{consumergroup=landscape-service},1651553085,15716
{consumergroup=landscape-service},1651553090,15716
{consumergroup=landscape-service},1651553095,15716
{consumergroup=trace-service},1651552695,17571
{consumergroup=trace-service},1651552700,17571
{consumergroup=trace-service},1651552705,17571
{consumergroup=trace-service},1651552710,40272
{consumergroup=trace-service},1651552715,40272
{consumergroup=trace-service},1651552720,40272
{consumergroup=trace-service},1651552725,74046
{consumergroup=trace-service},1651552730,74046
{consumergroup=trace-service},1651552735,74046
{consumergroup=trace-service},1651552740,176957
{consumergroup=trace-service},1651552745,176957
{consumergroup=trace-service},1651552750,176957
{consumergroup=trace-service},1651552755,59782
{consumergroup=trace-service},1651552760,59782
{consumergroup=trace-service},1651552765,59782
{consumergroup=trace-service},1651552770,18153
{consumergroup=trace-service},1651552775,18153
{consumergroup=trace-service},1651552780,18153
{consumergroup=trace-service},1651552785,49522
{consumergroup=trace-service},1651552790,49522
{consumergroup=trace-service},1651552795,49522
{consumergroup=trace-service},1651552800,39154
{consumergroup=trace-service},1651552805,39154
{consumergroup=trace-service},1651552810,39154
{consumergroup=trace-service},1651552815,55959
{consumergroup=trace-service},1651552820,55959
{consumergroup=trace-service},1651552825,55959
{consumergroup=trace-service},1651552830,133873
{consumergroup=trace-service},1651552835,133873
{consumergroup=trace-service},1651552840,133873
{consumergroup=trace-service},1651552845,78371
{consumergroup=trace-service},1651552850,78371
{consumergroup=trace-service},1651552855,78371
{consumergroup=trace-service},1651552860,48389
{consumergroup=trace-service},1651552865,48389
{consumergroup=trace-service},1651552870,48389
{consumergroup=trace-service},1651552875,50230
{consumergroup=trace-service},1651552880,50230
{consumergroup=trace-service},1651552885,50230
{consumergroup=trace-service},1651552890,103197
{consumergroup=trace-service},1651552895,103197
{consumergroup=trace-service},1651552900,103197
{consumergroup=trace-service},1651552905,49632
{consumergroup=trace-service},1651552910,49632
{consumergroup=trace-service},1651552915,49632
{consumergroup=trace-service},1651552920,29707
{consumergroup=trace-service},1651552925,29707
{consumergroup=trace-service},1651552930,29707
{consumergroup=trace-service},1651552935,51906
{consumergroup=trace-service},1651552940,51906
{consumergroup=trace-service},1651552945,51906
{consumergroup=trace-service},1651552950,19341
{consumergroup=trace-service},1651552955,19341
{consumergroup=trace-service},1651552960,19341
{consumergroup=trace-service},1651552965,57795
{consumergroup=trace-service},1651552970,57795
{consumergroup=trace-service},1651552975,57795
{consumergroup=trace-service},1651552980,121338
{consumergroup=trace-service},1651552985,121338
{consumergroup=trace-service},1651552990,121338
{consumergroup=trace-service},1651552995,53217
{consumergroup=trace-service},1651553000,53217
{consumergroup=trace-service},1651553005,53217
{consumergroup=trace-service},1651553010,98400
{consumergroup=trace-service},1651553015,98400
{consumergroup=trace-service},1651553020,98400
{consumergroup=trace-service},1651553025,52226
{consumergroup=trace-service},1651553030,52226
{consumergroup=trace-service},1651553035,52226
{consumergroup=trace-service},1651553040,114300
{consumergroup=trace-service},1651553045,114300
{consumergroup=trace-service},1651553050,114300
{consumergroup=trace-service},1651553055,53219
{consumergroup=trace-service},1651553060,53219
{consumergroup=trace-service},1651553065,53219
{consumergroup=trace-service},1651553070,104864
{consumergroup=trace-service},1651553075,104864
{consumergroup=trace-service},1651553080,104864
{consumergroup=trace-service},1651553085,50796
{consumergroup=trace-service},1651553090,50796
{consumergroup=trace-service},1651553095,50796
{consumergroup=trace-token-events-consumer},1651552680,0
{consumergroup=trace-token-events-consumer},1651552685,0
{consumergroup=trace-token-events-consumer},1651552690,0
{consumergroup=trace-token-events-consumer},1651552695,0
{consumergroup=trace-token-events-consumer},1651552700,0
{consumergroup=trace-token-events-consumer},1651552705,0
{consumergroup=trace-token-events-consumer},1651552710,0
{consumergroup=trace-token-events-consumer},1651552715,0
{consumergroup=trace-token-events-consumer},1651552720,0
{consumergroup=trace-token-events-consumer},1651552725,0
{consumergroup=trace-token-events-consumer},1651552730,0
{consumergroup=trace-token-events-consumer},1651552735,0
{consumergroup=trace-token-events-consumer},1651552740,0
{consumergroup=trace-token-events-consumer},1651552745,0
{consumergroup=trace-token-events-consumer},1651552750,0
{consumergroup=trace-token-events-consumer},1651552755,0
{consumergroup=trace-token-events-consumer},1651552760,0
{consumergroup=trace-token-events-consumer},1651552765,0
{consumergroup=trace-token-events-consumer},1651552770,0
{consumergroup=trace-token-events-consumer},1651552775,0
{consumergroup=trace-token-events-consumer},1651552780,0
{consumergroup=trace-token-events-consumer},1651552785,0
{consumergroup=trace-token-events-consumer},1651552790,0
{consumergroup=trace-token-events-consumer},1651552795,0
{consumergroup=trace-token-events-consumer},1651552800,0
{consumergroup=trace-token-events-consumer},1651552805,0
{consumergroup=trace-token-events-consumer},1651552810,0
{consumergroup=trace-token-events-consumer},1651552815,0
{consumergroup=trace-token-events-consumer},1651552820,0
{consumergroup=trace-token-events-consumer},1651552825,0
{consumergroup=trace-token-events-consumer},1651552830,0
{consumergroup=trace-token-events-consumer},1651552835,0
{consumergroup=trace-token-events-consumer},1651552840,0
{consumergroup=trace-token-events-consumer},1651552845,0
{consumergroup=trace-token-events-consumer},1651552850,0
{consumergroup=trace-token-events-consumer},1651552855,0
{consumergroup=trace-token-events-consumer},1651552860,0
{consumergroup=trace-token-events-consumer},1651552865,0
{consumergroup=trace-token-events-consumer},1651552870,0
{consumergroup=trace-token-events-consumer},1651552875,0
{consumergroup=trace-token-events-consumer},1651552880,0
{consumergroup=trace-token-events-consumer},1651552885,0
{consumergroup=trace-token-events-consumer},1651552890,0
{consumergroup=trace-token-events-consumer},1651552895,0
{consumergroup=trace-token-events-consumer},1651552900,0
{consumergroup=trace-token-events-consumer},1651552905,0
{consumergroup=trace-token-events-consumer},1651552910,0
{consumergroup=trace-token-events-consumer},1651552915,0
{consumergroup=trace-token-events-consumer},1651552920,0
{consumergroup=trace-token-events-consumer},1651552925,0
{consumergroup=trace-token-events-consumer},1651552930,0
{consumergroup=trace-token-events-consumer},1651552935,0
{consumergroup=trace-token-events-consumer},1651552940,0
{consumergroup=trace-token-events-consumer},1651552945,0
{consumergroup=trace-token-events-consumer},1651552950,0
{consumergroup=trace-token-events-consumer},1651552955,0
{consumergroup=trace-token-events-consumer},1651552960,0
{consumergroup=trace-token-events-consumer},1651552965,0
{consumergroup=trace-token-events-consumer},1651552970,0
{consumergroup=trace-token-events-consumer},1651552975,0
{consumergroup=trace-token-events-consumer},1651552980,0
{consumergroup=trace-token-events-consumer},1651552985,0
{consumergroup=trace-token-events-consumer},1651552990,0
{consumergroup=trace-token-events-consumer},1651552995,0
{consumergroup=trace-token-events-consumer},1651553000,0
{consumergroup=trace-token-events-consumer},1651553005,0
{consumergroup=trace-token-events-consumer},1651553010,0
{consumergroup=trace-token-events-consumer},1651553015,0
{consumergroup=trace-token-events-consumer},1651553020,0
{consumergroup=trace-token-events-consumer},1651553025,0
{consumergroup=trace-token-events-consumer},1651553030,0
{consumergroup=trace-token-events-consumer},1651553035,0
{consumergroup=trace-token-events-consumer},1651553040,0
{consumergroup=trace-token-events-consumer},1651553045,0
{consumergroup=trace-token-events-consumer},1651553050,0
{consumergroup=trace-token-events-consumer},1651553055,0
{consumergroup=trace-token-events-consumer},1651553060,0
{consumergroup=trace-token-events-consumer},1651553065,0
{consumergroup=trace-token-events-consumer},1651553070,0
{consumergroup=trace-token-events-consumer},1651553075,0
{consumergroup=trace-token-events-consumer},1651553080,0
{consumergroup=trace-token-events-consumer},1651553085,0
{consumergroup=trace-token-events-consumer},1651553090,0
{consumergroup=trace-token-events-consumer},1651553095,0
