labels,timestamp,value
{job=theodolite-stu200776/combined-trace-podmonitor},1651577822,0.40300958372274226
{job=theodolite-stu200776/combined-trace-podmonitor},1651577827,2.269000809466991
{job=theodolite-stu200776/combined-trace-podmonitor},1651577832,3.586360241897247
{job=theodolite-stu200776/combined-trace-podmonitor},1651577837,3.3219585932635805
{job=theodolite-stu200776/combined-trace-podmonitor},1651577842,3.0281557152536753
{job=theodolite-stu200776/combined-trace-podmonitor},1651577847,2.750637480307357
{job=theodolite-stu200776/combined-trace-podmonitor},1651577852,2.5977617941486777
{job=theodolite-stu200776/combined-trace-podmonitor},1651577857,1.549151626515825
{job=theodolite-stu200776/combined-trace-podmonitor},1651577862,0.31183340850367597
{job=theodolite-stu200776/combined-trace-podmonitor},1651577867,0.08751363436279791
{job=theodolite-stu200776/combined-trace-podmonitor},1651577872,0.051141400390531874
{job=theodolite-stu200776/combined-trace-podmonitor},1651577877,0
{job=theodolite-stu200776/combined-trace-podmonitor},1651577882,0
{job=theodolite-stu200776/combined-trace-podmonitor},1651577887,0
{job=theodolite-stu200776/combined-trace-podmonitor},1651577892,0
{job=theodolite-stu200776/combined-trace-podmonitor},1651577897,0
{job=theodolite-stu200776/combined-trace-podmonitor},1651577902,0
{job=theodolite-stu200776/combined-trace-podmonitor},1651577907,0
{job=theodolite-stu200776/combined-trace-podmonitor},1651577912,0
{job=theodolite-stu200776/combined-trace-podmonitor},1651577917,0
{job=theodolite-stu200776/combined-trace-podmonitor},1651577922,0
{job=theodolite-stu200776/combined-trace-podmonitor},1651577927,0
{job=theodolite-stu200776/combined-trace-podmonitor},1651577932,0
{job=theodolite-stu200776/combined-trace-podmonitor},1651577937,0
{job=theodolite-stu200776/combined-trace-podmonitor},1651577942,0
{job=theodolite-stu200776/combined-trace-podmonitor},1651577947,0
{job=theodolite-stu200776/combined-trace-podmonitor},1651577952,0
{job=theodolite-stu200776/combined-trace-podmonitor},1651577957,0
{job=theodolite-stu200776/combined-trace-podmonitor},1651577962,0
{job=theodolite-stu200776/combined-trace-podmonitor},1651577967,0
{job=theodolite-stu200776/combined-trace-podmonitor},1651577972,0
{job=theodolite-stu200776/combined-trace-podmonitor},1651577977,0
{job=theodolite-stu200776/combined-trace-podmonitor},1651577982,0
{job=theodolite-stu200776/combined-trace-podmonitor},1651577987,0
{job=theodolite-stu200776/combined-trace-podmonitor},1651577992,0
{job=theodolite-stu200776/combined-trace-podmonitor},1651577997,0
{job=theodolite-stu200776/combined-trace-podmonitor},1651578002,0
{job=theodolite-stu200776/combined-trace-podmonitor},1651578007,0
{job=theodolite-stu200776/combined-trace-podmonitor},1651578012,0
{job=theodolite-stu200776/combined-trace-podmonitor},1651578017,0
{job=theodolite-stu200776/combined-trace-podmonitor},1651578022,0
{job=theodolite-stu200776/combined-trace-podmonitor},1651578027,0
{job=theodolite-stu200776/combined-trace-podmonitor},1651578032,0
{job=theodolite-stu200776/combined-trace-podmonitor},1651578037,0
{job=theodolite-stu200776/combined-trace-podmonitor},1651578042,0
{job=theodolite-stu200776/combined-trace-podmonitor},1651578047,0
{job=theodolite-stu200776/combined-trace-podmonitor},1651578052,0
{job=theodolite-stu200776/combined-trace-podmonitor},1651578057,0
{job=theodolite-stu200776/combined-trace-podmonitor},1651578062,0
{job=theodolite-stu200776/combined-trace-podmonitor},1651578067,0
{job=theodolite-stu200776/combined-trace-podmonitor},1651578072,0
{job=theodolite-stu200776/combined-trace-podmonitor},1651578077,0
{job=theodolite-stu200776/combined-trace-podmonitor},1651578082,0
{job=theodolite-stu200776/combined-trace-podmonitor},1651578087,0
{job=theodolite-stu200776/combined-trace-podmonitor},1651578092,0
{job=theodolite-stu200776/combined-trace-podmonitor},1651578097,0
{job=theodolite-stu200776/combined-trace-podmonitor},1651578102,0
{job=theodolite-stu200776/combined-trace-podmonitor},1651578107,0
{job=theodolite-stu200776/combined-trace-podmonitor},1651578112,0
{job=theodolite-stu200776/combined-trace-podmonitor},1651578117,0
{job=theodolite-stu200776/combined-trace-podmonitor},1651578122,0
{job=theodolite-stu200776/combined-trace-podmonitor},1651578127,0
{job=theodolite-stu200776/combined-trace-podmonitor},1651578132,0
{job=theodolite-stu200776/combined-trace-podmonitor},1651578137,0
{job=theodolite-stu200776/combined-trace-podmonitor},1651578142,0
{job=theodolite-stu200776/combined-trace-podmonitor},1651578147,0
{job=theodolite-stu200776/combined-trace-podmonitor},1651578152,0
{job=theodolite-stu200776/combined-trace-podmonitor},1651578157,0
{job=theodolite-stu200776/combined-trace-podmonitor},1651578162,0
{job=theodolite-stu200776/combined-trace-podmonitor},1651578167,0
{job=theodolite-stu200776/combined-trace-podmonitor},1651578172,0
{job=theodolite-stu200776/combined-trace-podmonitor},1651578177,0
{job=theodolite-stu200776/combined-trace-podmonitor},1651578182,0
{job=theodolite-stu200776/combined-trace-podmonitor},1651578187,0
{job=theodolite-stu200776/combined-trace-podmonitor},1651578192,0
{job=theodolite-stu200776/combined-trace-podmonitor},1651578197,0
