labels,timestamp,value
{consumergroup=__strimzi-topic-operator-kstreams},1651578339,0
{consumergroup=__strimzi-topic-operator-kstreams},1651578344,0
{consumergroup=__strimzi-topic-operator-kstreams},1651578349,0
{consumergroup=__strimzi-topic-operator-kstreams},1651578354,0
{consumergroup=__strimzi-topic-operator-kstreams},1651578359,0
{consumergroup=__strimzi-topic-operator-kstreams},1651578364,0
{consumergroup=__strimzi-topic-operator-kstreams},1651578369,1
{consumergroup=__strimzi-topic-operator-kstreams},1651578374,1
{consumergroup=__strimzi-topic-operator-kstreams},1651578379,1
{consumergroup=__strimzi-topic-operator-kstreams},1651578384,0
{consumergroup=__strimzi-topic-operator-kstreams},1651578389,0
{consumergroup=__strimzi-topic-operator-kstreams},1651578394,0
{consumergroup=__strimzi-topic-operator-kstreams},1651578399,2
{consumergroup=__strimzi-topic-operator-kstreams},1651578404,2
{consumergroup=__strimzi-topic-operator-kstreams},1651578409,2
{consumergroup=__strimzi-topic-operator-kstreams},1651578414,0
{consumergroup=__strimzi-topic-operator-kstreams},1651578419,0
{consumergroup=__strimzi-topic-operator-kstreams},1651578424,0
{consumergroup=__strimzi-topic-operator-kstreams},1651578429,0
{consumergroup=__strimzi-topic-operator-kstreams},1651578434,0
{consumergroup=__strimzi-topic-operator-kstreams},1651578439,0
{consumergroup=__strimzi-topic-operator-kstreams},1651578444,0
{consumergroup=__strimzi-topic-operator-kstreams},1651578449,0
{consumergroup=__strimzi-topic-operator-kstreams},1651578454,0
{consumergroup=__strimzi-topic-operator-kstreams},1651578459,0
{consumergroup=__strimzi-topic-operator-kstreams},1651578464,0
{consumergroup=__strimzi-topic-operator-kstreams},1651578469,0
{consumergroup=__strimzi-topic-operator-kstreams},1651578474,0
{consumergroup=__strimzi-topic-operator-kstreams},1651578479,0
{consumergroup=__strimzi-topic-operator-kstreams},1651578484,0
{consumergroup=__strimzi-topic-operator-kstreams},1651578489,0
{consumergroup=__strimzi-topic-operator-kstreams},1651578494,0
{consumergroup=__strimzi-topic-operator-kstreams},1651578499,0
{consumergroup=__strimzi-topic-operator-kstreams},1651578504,0
{consumergroup=__strimzi-topic-operator-kstreams},1651578509,0
{consumergroup=__strimzi-topic-operator-kstreams},1651578514,0
{consumergroup=__strimzi-topic-operator-kstreams},1651578519,0
{consumergroup=__strimzi-topic-operator-kstreams},1651578524,0
{consumergroup=__strimzi-topic-operator-kstreams},1651578529,0
{consumergroup=__strimzi-topic-operator-kstreams},1651578534,0
{consumergroup=__strimzi-topic-operator-kstreams},1651578539,0
{consumergroup=__strimzi-topic-operator-kstreams},1651578544,0
{consumergroup=__strimzi-topic-operator-kstreams},1651578549,0
{consumergroup=__strimzi-topic-operator-kstreams},1651578554,0
{consumergroup=__strimzi-topic-operator-kstreams},1651578559,0
{consumergroup=__strimzi-topic-operator-kstreams},1651578564,0
{consumergroup=__strimzi-topic-operator-kstreams},1651578569,0
{consumergroup=__strimzi-topic-operator-kstreams},1651578574,0
{consumergroup=__strimzi-topic-operator-kstreams},1651578579,0
{consumergroup=__strimzi-topic-operator-kstreams},1651578584,0
{consumergroup=__strimzi-topic-operator-kstreams},1651578589,0
{consumergroup=__strimzi-topic-operator-kstreams},1651578594,0
{consumergroup=__strimzi-topic-operator-kstreams},1651578599,0
{consumergroup=__strimzi-topic-operator-kstreams},1651578604,0
{consumergroup=__strimzi-topic-operator-kstreams},1651578609,0
{consumergroup=__strimzi-topic-operator-kstreams},1651578614,0
{consumergroup=__strimzi-topic-operator-kstreams},1651578619,0
{consumergroup=__strimzi-topic-operator-kstreams},1651578624,0
{consumergroup=__strimzi-topic-operator-kstreams},1651578629,0
{consumergroup=__strimzi-topic-operator-kstreams},1651578634,0
{consumergroup=__strimzi-topic-operator-kstreams},1651578639,0
{consumergroup=__strimzi-topic-operator-kstreams},1651578644,0
{consumergroup=__strimzi-topic-operator-kstreams},1651578649,0
{consumergroup=__strimzi-topic-operator-kstreams},1651578654,0
{consumergroup=__strimzi-topic-operator-kstreams},1651578659,0
{consumergroup=__strimzi-topic-operator-kstreams},1651578664,0
{consumergroup=__strimzi-topic-operator-kstreams},1651578669,0
{consumergroup=__strimzi-topic-operator-kstreams},1651578674,0
{consumergroup=__strimzi-topic-operator-kstreams},1651578679,0
{consumergroup=__strimzi-topic-operator-kstreams},1651578684,0
{consumergroup=__strimzi-topic-operator-kstreams},1651578689,0
{consumergroup=__strimzi-topic-operator-kstreams},1651578694,0
{consumergroup=__strimzi-topic-operator-kstreams},1651578699,0
{consumergroup=__strimzi-topic-operator-kstreams},1651578704,0
{consumergroup=__strimzi-topic-operator-kstreams},1651578709,0
{consumergroup=__strimzi-topic-operator-kstreams},1651578714,0
{consumergroup=__strimzi-topic-operator-kstreams},1651578719,0
{consumergroup=__strimzi-topic-operator-kstreams},1651578724,0
{consumergroup=__strimzi-topic-operator-kstreams},1651578729,0
{consumergroup=__strimzi-topic-operator-kstreams},1651578734,0
{consumergroup=__strimzi-topic-operator-kstreams},1651578739,0
{consumergroup=__strimzi-topic-operator-kstreams},1651578744,0
{consumergroup=__strimzi-topic-operator-kstreams},1651578749,0
{consumergroup=__strimzi-topic-operator-kstreams},1651578754,0
{consumergroup=__strimzi-topic-operator-kstreams},1651578759,0
{consumergroup=__strimzi-topic-operator-kstreams},1651578764,0
{consumergroup=__strimzi-topic-operator-kstreams},1651578769,0
{consumergroup=__strimzi-topic-operator-kstreams},1651578774,0
{consumergroup=__strimzi-topic-operator-kstreams},1651578779,0
{consumergroup=__strimzi-topic-operator-kstreams},1651578784,0
{consumergroup=__strimzi-topic-operator-kstreams},1651578789,0
{consumergroup=__strimzi-topic-operator-kstreams},1651578794,0
{consumergroup=adapter-service},1651578384,0
{consumergroup=adapter-service},1651578389,0
{consumergroup=adapter-service},1651578394,0
{consumergroup=adapter-service},1651578399,8464
{consumergroup=adapter-service},1651578404,8464
{consumergroup=adapter-service},1651578409,8464
{consumergroup=adapter-service},1651578414,7775
{consumergroup=adapter-service},1651578419,7775
{consumergroup=adapter-service},1651578424,7775
{consumergroup=adapter-service},1651578429,7070
{consumergroup=adapter-service},1651578434,7070
{consumergroup=adapter-service},1651578439,7070
{consumergroup=adapter-service},1651578444,7677
{consumergroup=adapter-service},1651578449,7677
{consumergroup=adapter-service},1651578454,7677
{consumergroup=adapter-service},1651578459,10444
{consumergroup=adapter-service},1651578464,10444
{consumergroup=adapter-service},1651578469,10444
{consumergroup=adapter-service},1651578474,7030
{consumergroup=adapter-service},1651578479,7030
{consumergroup=adapter-service},1651578484,7030
{consumergroup=adapter-service},1651578489,5820
{consumergroup=adapter-service},1651578494,5820
{consumergroup=adapter-service},1651578499,5820
{consumergroup=adapter-service},1651578504,9548
{consumergroup=adapter-service},1651578509,9548
{consumergroup=adapter-service},1651578514,9548
{consumergroup=adapter-service},1651578519,5447
{consumergroup=adapter-service},1651578524,5447
{consumergroup=adapter-service},1651578529,5447
{consumergroup=adapter-service},1651578534,5293
{consumergroup=adapter-service},1651578539,5293
{consumergroup=adapter-service},1651578544,5293
{consumergroup=adapter-service},1651578549,4966
{consumergroup=adapter-service},1651578554,4966
{consumergroup=adapter-service},1651578559,4966
{consumergroup=adapter-service},1651578564,4839
{consumergroup=adapter-service},1651578569,4839
{consumergroup=adapter-service},1651578574,4839
{consumergroup=adapter-service},1651578579,9938
{consumergroup=adapter-service},1651578584,9938
{consumergroup=adapter-service},1651578589,9938
{consumergroup=adapter-service},1651578594,4223
{consumergroup=adapter-service},1651578599,4223
{consumergroup=adapter-service},1651578604,4223
{consumergroup=adapter-service},1651578609,4348
{consumergroup=adapter-service},1651578614,4348
{consumergroup=adapter-service},1651578619,4348
{consumergroup=adapter-service},1651578624,3921
{consumergroup=adapter-service},1651578629,3921
{consumergroup=adapter-service},1651578634,3921
{consumergroup=adapter-service},1651578639,8987
{consumergroup=adapter-service},1651578644,8987
{consumergroup=adapter-service},1651578649,8987
{consumergroup=adapter-service},1651578654,4694
{consumergroup=adapter-service},1651578659,4694
{consumergroup=adapter-service},1651578664,4694
{consumergroup=adapter-service},1651578669,3414
{consumergroup=adapter-service},1651578674,3414
{consumergroup=adapter-service},1651578679,3414
{consumergroup=adapter-service},1651578684,3528
{consumergroup=adapter-service},1651578689,3528
{consumergroup=adapter-service},1651578694,3528
{consumergroup=adapter-service},1651578699,3405
{consumergroup=adapter-service},1651578704,3405
{consumergroup=adapter-service},1651578709,3405
{consumergroup=adapter-service},1651578714,3872
{consumergroup=adapter-service},1651578719,3872
{consumergroup=adapter-service},1651578724,3872
{consumergroup=adapter-service},1651578729,2825
{consumergroup=adapter-service},1651578734,2825
{consumergroup=adapter-service},1651578739,2825
{consumergroup=adapter-service},1651578744,7047
{consumergroup=adapter-service},1651578749,7047
{consumergroup=adapter-service},1651578754,7047
{consumergroup=adapter-service},1651578759,2394
{consumergroup=adapter-service},1651578764,2394
{consumergroup=adapter-service},1651578769,2394
{consumergroup=adapter-service},1651578774,2109
{consumergroup=adapter-service},1651578779,2109
{consumergroup=adapter-service},1651578784,2109
{consumergroup=adapter-service},1651578789,6198
{consumergroup=adapter-service},1651578794,6198
{consumergroup=landscape-service},1651578399,27462
{consumergroup=landscape-service},1651578404,27462
{consumergroup=landscape-service},1651578409,27462
{consumergroup=landscape-service},1651578414,13444
{consumergroup=landscape-service},1651578419,13444
{consumergroup=landscape-service},1651578424,13444
{consumergroup=landscape-service},1651578429,12550
{consumergroup=landscape-service},1651578434,12550
{consumergroup=landscape-service},1651578439,12550
{consumergroup=landscape-service},1651578444,11588
{consumergroup=landscape-service},1651578449,11588
{consumergroup=landscape-service},1651578454,11588
{consumergroup=landscape-service},1651578459,16157
{consumergroup=landscape-service},1651578464,16157
{consumergroup=landscape-service},1651578469,16157
{consumergroup=landscape-service},1651578474,11360
{consumergroup=landscape-service},1651578479,11360
{consumergroup=landscape-service},1651578484,11360
{consumergroup=landscape-service},1651578489,9776
{consumergroup=landscape-service},1651578494,9776
{consumergroup=landscape-service},1651578499,9776
{consumergroup=landscape-service},1651578504,13177
{consumergroup=landscape-service},1651578509,13177
{consumergroup=landscape-service},1651578514,13177
{consumergroup=landscape-service},1651578519,8572
{consumergroup=landscape-service},1651578524,8572
{consumergroup=landscape-service},1651578529,8572
{consumergroup=landscape-service},1651578534,7844
{consumergroup=landscape-service},1651578539,7844
{consumergroup=landscape-service},1651578544,7844
{consumergroup=landscape-service},1651578549,7446
{consumergroup=landscape-service},1651578554,7446
{consumergroup=landscape-service},1651578559,7446
{consumergroup=landscape-service},1651578564,6866
{consumergroup=landscape-service},1651578569,6866
{consumergroup=landscape-service},1651578574,6866
{consumergroup=landscape-service},1651578579,11454
{consumergroup=landscape-service},1651578584,11454
{consumergroup=landscape-service},1651578589,11454
{consumergroup=landscape-service},1651578594,5436
{consumergroup=landscape-service},1651578599,5436
{consumergroup=landscape-service},1651578604,5436
{consumergroup=landscape-service},1651578609,5082
{consumergroup=landscape-service},1651578614,5082
{consumergroup=landscape-service},1651578619,5082
{consumergroup=landscape-service},1651578624,5207
{consumergroup=landscape-service},1651578629,5207
{consumergroup=landscape-service},1651578634,5207
{consumergroup=landscape-service},1651578639,8082
{consumergroup=landscape-service},1651578644,8082
{consumergroup=landscape-service},1651578649,8082
{consumergroup=landscape-service},1651578654,3308
{consumergroup=landscape-service},1651578659,3308
{consumergroup=landscape-service},1651578664,3308
{consumergroup=landscape-service},1651578669,3007
{consumergroup=landscape-service},1651578674,3007
{consumergroup=landscape-service},1651578679,3007
{consumergroup=landscape-service},1651578684,3196
{consumergroup=landscape-service},1651578689,3196
{consumergroup=landscape-service},1651578694,3196
{consumergroup=landscape-service},1651578699,1723
{consumergroup=landscape-service},1651578704,1723
{consumergroup=landscape-service},1651578709,1723
{consumergroup=landscape-service},1651578714,341
{consumergroup=landscape-service},1651578719,341
{consumergroup=landscape-service},1651578724,341
{consumergroup=landscape-service},1651578729,733
{consumergroup=landscape-service},1651578734,733
{consumergroup=landscape-service},1651578739,733
{consumergroup=landscape-service},1651578744,3552
{consumergroup=landscape-service},1651578749,3552
{consumergroup=landscape-service},1651578754,3552
{consumergroup=landscape-service},1651578759,19941
{consumergroup=landscape-service},1651578764,19941
{consumergroup=landscape-service},1651578769,19941
{consumergroup=landscape-service},1651578774,19555
{consumergroup=landscape-service},1651578779,19555
{consumergroup=landscape-service},1651578784,19555
{consumergroup=landscape-service},1651578789,1880
{consumergroup=landscape-service},1651578794,1880
{consumergroup=trace-service},1651578399,49271
{consumergroup=trace-service},1651578404,49271
{consumergroup=trace-service},1651578409,49271
{consumergroup=trace-service},1651578414,22240
{consumergroup=trace-service},1651578419,22240
{consumergroup=trace-service},1651578424,22240
{consumergroup=trace-service},1651578429,46819
{consumergroup=trace-service},1651578434,46819
{consumergroup=trace-service},1651578439,46819
{consumergroup=trace-service},1651578444,125281
{consumergroup=trace-service},1651578449,125281
{consumergroup=trace-service},1651578454,125281
{consumergroup=trace-service},1651578459,47986
{consumergroup=trace-service},1651578464,47986
{consumergroup=trace-service},1651578469,47986
{consumergroup=trace-service},1651578474,89183
{consumergroup=trace-service},1651578479,89183
{consumergroup=trace-service},1651578484,89183
{consumergroup=trace-service},1651578489,50474
{consumergroup=trace-service},1651578494,50474
{consumergroup=trace-service},1651578499,50474
{consumergroup=trace-service},1651578504,122774
{consumergroup=trace-service},1651578509,122774
{consumergroup=trace-service},1651578514,122774
{consumergroup=trace-service},1651578519,48435
{consumergroup=trace-service},1651578524,48435
{consumergroup=trace-service},1651578529,48435
{consumergroup=trace-service},1651578534,96227
{consumergroup=trace-service},1651578539,96227
{consumergroup=trace-service},1651578544,96227
{consumergroup=trace-service},1651578549,46814
{consumergroup=trace-service},1651578554,46814
{consumergroup=trace-service},1651578559,46814
{consumergroup=trace-service},1651578564,112584
{consumergroup=trace-service},1651578569,112584
{consumergroup=trace-service},1651578574,112584
{consumergroup=trace-service},1651578579,49170
{consumergroup=trace-service},1651578584,49170
{consumergroup=trace-service},1651578589,49170
{consumergroup=trace-service},1651578594,90888
{consumergroup=trace-service},1651578599,90888
{consumergroup=trace-service},1651578604,90888
{consumergroup=trace-service},1651578609,162749
{consumergroup=trace-service},1651578614,162749
{consumergroup=trace-service},1651578619,162749
{consumergroup=trace-service},1651578624,113876
{consumergroup=trace-service},1651578629,113876
{consumergroup=trace-service},1651578634,113876
{consumergroup=trace-service},1651578639,52707
{consumergroup=trace-service},1651578644,52707
{consumergroup=trace-service},1651578649,52707
{consumergroup=trace-service},1651578654,96844
{consumergroup=trace-service},1651578659,96844
{consumergroup=trace-service},1651578664,96844
{consumergroup=trace-service},1651578669,45291
{consumergroup=trace-service},1651578674,45291
{consumergroup=trace-service},1651578679,45291
{consumergroup=trace-service},1651578684,95831
{consumergroup=trace-service},1651578689,95831
{consumergroup=trace-service},1651578694,95831
{consumergroup=trace-service},1651578699,47771
{consumergroup=trace-service},1651578704,47771
{consumergroup=trace-service},1651578709,47771
{consumergroup=trace-service},1651578714,123994
{consumergroup=trace-service},1651578719,123994
{consumergroup=trace-service},1651578724,123994
{consumergroup=trace-service},1651578729,42335
{consumergroup=trace-service},1651578734,42335
{consumergroup=trace-service},1651578739,42335
{consumergroup=trace-service},1651578744,97526
{consumergroup=trace-service},1651578749,97526
{consumergroup=trace-service},1651578754,97526
{consumergroup=trace-service},1651578759,44018
{consumergroup=trace-service},1651578764,44018
{consumergroup=trace-service},1651578769,44018
{consumergroup=trace-service},1651578774,108141
{consumergroup=trace-service},1651578779,108141
{consumergroup=trace-service},1651578784,108141
{consumergroup=trace-service},1651578789,46972
{consumergroup=trace-service},1651578794,46972
{consumergroup=trace-token-events-consumer},1651578384,0
{consumergroup=trace-token-events-consumer},1651578389,0
{consumergroup=trace-token-events-consumer},1651578394,0
{consumergroup=trace-token-events-consumer},1651578399,0
{consumergroup=trace-token-events-consumer},1651578404,0
{consumergroup=trace-token-events-consumer},1651578409,0
{consumergroup=trace-token-events-consumer},1651578414,0
{consumergroup=trace-token-events-consumer},1651578419,0
{consumergroup=trace-token-events-consumer},1651578424,0
{consumergroup=trace-token-events-consumer},1651578429,0
{consumergroup=trace-token-events-consumer},1651578434,0
{consumergroup=trace-token-events-consumer},1651578439,0
{consumergroup=trace-token-events-consumer},1651578444,0
{consumergroup=trace-token-events-consumer},1651578449,0
{consumergroup=trace-token-events-consumer},1651578454,0
{consumergroup=trace-token-events-consumer},1651578459,0
{consumergroup=trace-token-events-consumer},1651578464,0
{consumergroup=trace-token-events-consumer},1651578469,0
{consumergroup=trace-token-events-consumer},1651578474,0
{consumergroup=trace-token-events-consumer},1651578479,0
{consumergroup=trace-token-events-consumer},1651578484,0
{consumergroup=trace-token-events-consumer},1651578489,0
{consumergroup=trace-token-events-consumer},1651578494,0
{consumergroup=trace-token-events-consumer},1651578499,0
{consumergroup=trace-token-events-consumer},1651578504,0
{consumergroup=trace-token-events-consumer},1651578509,0
{consumergroup=trace-token-events-consumer},1651578514,0
{consumergroup=trace-token-events-consumer},1651578519,0
{consumergroup=trace-token-events-consumer},1651578524,0
{consumergroup=trace-token-events-consumer},1651578529,0
{consumergroup=trace-token-events-consumer},1651578534,0
{consumergroup=trace-token-events-consumer},1651578539,0
{consumergroup=trace-token-events-consumer},1651578544,0
{consumergroup=trace-token-events-consumer},1651578549,0
{consumergroup=trace-token-events-consumer},1651578554,0
{consumergroup=trace-token-events-consumer},1651578559,0
{consumergroup=trace-token-events-consumer},1651578564,0
{consumergroup=trace-token-events-consumer},1651578569,0
{consumergroup=trace-token-events-consumer},1651578574,0
{consumergroup=trace-token-events-consumer},1651578579,0
{consumergroup=trace-token-events-consumer},1651578584,0
{consumergroup=trace-token-events-consumer},1651578589,0
{consumergroup=trace-token-events-consumer},1651578594,0
{consumergroup=trace-token-events-consumer},1651578599,0
{consumergroup=trace-token-events-consumer},1651578604,0
{consumergroup=trace-token-events-consumer},1651578609,0
{consumergroup=trace-token-events-consumer},1651578614,0
{consumergroup=trace-token-events-consumer},1651578619,0
{consumergroup=trace-token-events-consumer},1651578624,0
{consumergroup=trace-token-events-consumer},1651578629,0
{consumergroup=trace-token-events-consumer},1651578634,0
{consumergroup=trace-token-events-consumer},1651578639,0
{consumergroup=trace-token-events-consumer},1651578644,0
{consumergroup=trace-token-events-consumer},1651578649,0
{consumergroup=trace-token-events-consumer},1651578654,0
{consumergroup=trace-token-events-consumer},1651578659,0
{consumergroup=trace-token-events-consumer},1651578664,0
{consumergroup=trace-token-events-consumer},1651578669,0
{consumergroup=trace-token-events-consumer},1651578674,0
{consumergroup=trace-token-events-consumer},1651578679,0
{consumergroup=trace-token-events-consumer},1651578684,0
{consumergroup=trace-token-events-consumer},1651578689,0
{consumergroup=trace-token-events-consumer},1651578694,0
{consumergroup=trace-token-events-consumer},1651578699,0
{consumergroup=trace-token-events-consumer},1651578704,0
{consumergroup=trace-token-events-consumer},1651578709,0
{consumergroup=trace-token-events-consumer},1651578714,0
{consumergroup=trace-token-events-consumer},1651578719,0
{consumergroup=trace-token-events-consumer},1651578724,0
{consumergroup=trace-token-events-consumer},1651578729,0
{consumergroup=trace-token-events-consumer},1651578734,0
{consumergroup=trace-token-events-consumer},1651578739,0
{consumergroup=trace-token-events-consumer},1651578744,0
{consumergroup=trace-token-events-consumer},1651578749,0
{consumergroup=trace-token-events-consumer},1651578754,0
{consumergroup=trace-token-events-consumer},1651578759,0
{consumergroup=trace-token-events-consumer},1651578764,0
{consumergroup=trace-token-events-consumer},1651578769,0
{consumergroup=trace-token-events-consumer},1651578774,0
{consumergroup=trace-token-events-consumer},1651578779,0
{consumergroup=trace-token-events-consumer},1651578784,0
{consumergroup=trace-token-events-consumer},1651578789,0
{consumergroup=trace-token-events-consumer},1651578794,0
