labels,timestamp,value
{consumergroup=__strimzi-topic-operator-kstreams},1651578895,8
{consumergroup=__strimzi-topic-operator-kstreams},1651578900,8
{consumergroup=__strimzi-topic-operator-kstreams},1651578905,8
{consumergroup=__strimzi-topic-operator-kstreams},1651578910,8
{consumergroup=__strimzi-topic-operator-kstreams},1651578915,8
{consumergroup=__strimzi-topic-operator-kstreams},1651578920,8
{consumergroup=__strimzi-topic-operator-kstreams},1651578925,0
{consumergroup=__strimzi-topic-operator-kstreams},1651578930,0
{consumergroup=__strimzi-topic-operator-kstreams},1651578935,0
{consumergroup=__strimzi-topic-operator-kstreams},1651578940,0
{consumergroup=__strimzi-topic-operator-kstreams},1651578945,0
{consumergroup=__strimzi-topic-operator-kstreams},1651578950,0
{consumergroup=__strimzi-topic-operator-kstreams},1651578955,0
{consumergroup=__strimzi-topic-operator-kstreams},1651578960,0
{consumergroup=__strimzi-topic-operator-kstreams},1651578965,0
{consumergroup=__strimzi-topic-operator-kstreams},1651578970,0
{consumergroup=__strimzi-topic-operator-kstreams},1651578975,0
{consumergroup=__strimzi-topic-operator-kstreams},1651578980,0
{consumergroup=__strimzi-topic-operator-kstreams},1651578985,0
{consumergroup=__strimzi-topic-operator-kstreams},1651578990,0
{consumergroup=__strimzi-topic-operator-kstreams},1651578995,0
{consumergroup=__strimzi-topic-operator-kstreams},1651579000,1
{consumergroup=__strimzi-topic-operator-kstreams},1651579005,1
{consumergroup=__strimzi-topic-operator-kstreams},1651579010,1
{consumergroup=__strimzi-topic-operator-kstreams},1651579015,0
{consumergroup=__strimzi-topic-operator-kstreams},1651579020,0
{consumergroup=__strimzi-topic-operator-kstreams},1651579025,0
{consumergroup=__strimzi-topic-operator-kstreams},1651579030,0
{consumergroup=__strimzi-topic-operator-kstreams},1651579035,0
{consumergroup=__strimzi-topic-operator-kstreams},1651579040,0
{consumergroup=__strimzi-topic-operator-kstreams},1651579045,0
{consumergroup=__strimzi-topic-operator-kstreams},1651579050,0
{consumergroup=__strimzi-topic-operator-kstreams},1651579055,0
{consumergroup=__strimzi-topic-operator-kstreams},1651579060,0
{consumergroup=__strimzi-topic-operator-kstreams},1651579065,0
{consumergroup=__strimzi-topic-operator-kstreams},1651579070,0
{consumergroup=__strimzi-topic-operator-kstreams},1651579075,0
{consumergroup=__strimzi-topic-operator-kstreams},1651579080,0
{consumergroup=__strimzi-topic-operator-kstreams},1651579085,0
{consumergroup=__strimzi-topic-operator-kstreams},1651579090,0
{consumergroup=__strimzi-topic-operator-kstreams},1651579095,0
{consumergroup=__strimzi-topic-operator-kstreams},1651579100,0
{consumergroup=__strimzi-topic-operator-kstreams},1651579105,0
{consumergroup=__strimzi-topic-operator-kstreams},1651579110,0
{consumergroup=__strimzi-topic-operator-kstreams},1651579115,0
{consumergroup=__strimzi-topic-operator-kstreams},1651579120,0
{consumergroup=__strimzi-topic-operator-kstreams},1651579125,0
{consumergroup=__strimzi-topic-operator-kstreams},1651579130,0
{consumergroup=__strimzi-topic-operator-kstreams},1651579135,0
{consumergroup=__strimzi-topic-operator-kstreams},1651579140,0
{consumergroup=__strimzi-topic-operator-kstreams},1651579145,0
{consumergroup=__strimzi-topic-operator-kstreams},1651579150,0
{consumergroup=__strimzi-topic-operator-kstreams},1651579155,0
{consumergroup=__strimzi-topic-operator-kstreams},1651579160,0
{consumergroup=__strimzi-topic-operator-kstreams},1651579165,0
{consumergroup=__strimzi-topic-operator-kstreams},1651579170,0
{consumergroup=__strimzi-topic-operator-kstreams},1651579175,0
{consumergroup=__strimzi-topic-operator-kstreams},1651579180,0
{consumergroup=__strimzi-topic-operator-kstreams},1651579185,0
{consumergroup=__strimzi-topic-operator-kstreams},1651579190,0
{consumergroup=__strimzi-topic-operator-kstreams},1651579195,0
{consumergroup=__strimzi-topic-operator-kstreams},1651579200,0
{consumergroup=__strimzi-topic-operator-kstreams},1651579205,0
{consumergroup=__strimzi-topic-operator-kstreams},1651579210,0
{consumergroup=__strimzi-topic-operator-kstreams},1651579215,0
{consumergroup=__strimzi-topic-operator-kstreams},1651579220,0
{consumergroup=__strimzi-topic-operator-kstreams},1651579225,0
{consumergroup=__strimzi-topic-operator-kstreams},1651579230,0
{consumergroup=__strimzi-topic-operator-kstreams},1651579235,0
{consumergroup=__strimzi-topic-operator-kstreams},1651579240,0
{consumergroup=__strimzi-topic-operator-kstreams},1651579245,0
{consumergroup=__strimzi-topic-operator-kstreams},1651579250,0
{consumergroup=__strimzi-topic-operator-kstreams},1651579255,0
{consumergroup=__strimzi-topic-operator-kstreams},1651579260,0
{consumergroup=__strimzi-topic-operator-kstreams},1651579265,0
{consumergroup=__strimzi-topic-operator-kstreams},1651579270,0
{consumergroup=__strimzi-topic-operator-kstreams},1651579275,0
{consumergroup=__strimzi-topic-operator-kstreams},1651579280,0
{consumergroup=__strimzi-topic-operator-kstreams},1651579285,0
{consumergroup=__strimzi-topic-operator-kstreams},1651579290,0
{consumergroup=__strimzi-topic-operator-kstreams},1651579295,0
{consumergroup=__strimzi-topic-operator-kstreams},1651579300,0
{consumergroup=__strimzi-topic-operator-kstreams},1651579305,0
{consumergroup=__strimzi-topic-operator-kstreams},1651579310,0
{consumergroup=__strimzi-topic-operator-kstreams},1651579315,0
{consumergroup=__strimzi-topic-operator-kstreams},1651579320,0
{consumergroup=__strimzi-topic-operator-kstreams},1651579325,0
{consumergroup=__strimzi-topic-operator-kstreams},1651579330,0
{consumergroup=__strimzi-topic-operator-kstreams},1651579335,0
{consumergroup=__strimzi-topic-operator-kstreams},1651579340,0
{consumergroup=__strimzi-topic-operator-kstreams},1651579345,0
{consumergroup=adapter-service},1651578940,26010
{consumergroup=adapter-service},1651578945,26010
{consumergroup=adapter-service},1651578950,26010
{consumergroup=adapter-service},1651578955,5890
{consumergroup=adapter-service},1651578960,5890
{consumergroup=adapter-service},1651578965,5890
{consumergroup=adapter-service},1651578970,13752
{consumergroup=adapter-service},1651578975,13752
{consumergroup=adapter-service},1651578980,13752
{consumergroup=adapter-service},1651578985,10583
{consumergroup=adapter-service},1651578990,10583
{consumergroup=adapter-service},1651578995,10583
{consumergroup=adapter-service},1651579000,8980
{consumergroup=adapter-service},1651579005,8980
{consumergroup=adapter-service},1651579010,8980
{consumergroup=adapter-service},1651579015,9886
{consumergroup=adapter-service},1651579020,9886
{consumergroup=adapter-service},1651579025,9886
{consumergroup=adapter-service},1651579030,9467
{consumergroup=adapter-service},1651579035,9467
{consumergroup=adapter-service},1651579040,9467
{consumergroup=adapter-service},1651579045,10612
{consumergroup=adapter-service},1651579050,10612
{consumergroup=adapter-service},1651579055,10612
{consumergroup=adapter-service},1651579060,7928
{consumergroup=adapter-service},1651579065,7928
{consumergroup=adapter-service},1651579070,7928
{consumergroup=adapter-service},1651579075,9279
{consumergroup=adapter-service},1651579080,9279
{consumergroup=adapter-service},1651579085,9279
{consumergroup=adapter-service},1651579090,7665
{consumergroup=adapter-service},1651579095,7665
{consumergroup=adapter-service},1651579100,7665
{consumergroup=adapter-service},1651579105,13094
{consumergroup=adapter-service},1651579110,13094
{consumergroup=adapter-service},1651579115,13094
{consumergroup=adapter-service},1651579120,7557
{consumergroup=adapter-service},1651579125,7557
{consumergroup=adapter-service},1651579130,7557
{consumergroup=adapter-service},1651579135,8332
{consumergroup=adapter-service},1651579140,8332
{consumergroup=adapter-service},1651579145,8332
{consumergroup=adapter-service},1651579150,7858
{consumergroup=adapter-service},1651579155,7858
{consumergroup=adapter-service},1651579160,7858
{consumergroup=adapter-service},1651579165,8202
{consumergroup=adapter-service},1651579170,8202
{consumergroup=adapter-service},1651579175,8202
{consumergroup=adapter-service},1651579180,6682
{consumergroup=adapter-service},1651579185,6682
{consumergroup=adapter-service},1651579190,6682
{consumergroup=adapter-service},1651579195,8514
{consumergroup=adapter-service},1651579200,8514
{consumergroup=adapter-service},1651579205,8514
{consumergroup=adapter-service},1651579210,11376
{consumergroup=adapter-service},1651579215,11376
{consumergroup=adapter-service},1651579220,11376
{consumergroup=adapter-service},1651579225,11374
{consumergroup=adapter-service},1651579230,11374
{consumergroup=adapter-service},1651579235,11374
{consumergroup=adapter-service},1651579240,6764
{consumergroup=adapter-service},1651579245,6764
{consumergroup=adapter-service},1651579250,6764
{consumergroup=adapter-service},1651579255,6776
{consumergroup=adapter-service},1651579260,6776
{consumergroup=adapter-service},1651579265,6776
{consumergroup=adapter-service},1651579270,5247
{consumergroup=adapter-service},1651579275,5247
{consumergroup=adapter-service},1651579280,5247
{consumergroup=adapter-service},1651579285,6620
{consumergroup=adapter-service},1651579290,6620
{consumergroup=adapter-service},1651579295,6620
{consumergroup=adapter-service},1651579300,5022
{consumergroup=adapter-service},1651579305,5022
{consumergroup=adapter-service},1651579310,5022
{consumergroup=adapter-service},1651579315,5965
{consumergroup=adapter-service},1651579320,5965
{consumergroup=adapter-service},1651579325,5965
{consumergroup=adapter-service},1651579330,4842
{consumergroup=adapter-service},1651579335,4842
{consumergroup=adapter-service},1651579340,4842
{consumergroup=adapter-service},1651579345,5559
{consumergroup=landscape-service},1651578955,30210
{consumergroup=landscape-service},1651578960,30210
{consumergroup=landscape-service},1651578965,30210
{consumergroup=landscape-service},1651578970,15648
{consumergroup=landscape-service},1651578975,15648
{consumergroup=landscape-service},1651578980,15648
{consumergroup=landscape-service},1651578985,12145
{consumergroup=landscape-service},1651578990,12145
{consumergroup=landscape-service},1651578995,12145
{consumergroup=landscape-service},1651579000,9653
{consumergroup=landscape-service},1651579005,9653
{consumergroup=landscape-service},1651579010,9653
{consumergroup=landscape-service},1651579015,10065
{consumergroup=landscape-service},1651579020,10065
{consumergroup=landscape-service},1651579025,10065
{consumergroup=landscape-service},1651579030,7153
{consumergroup=landscape-service},1651579035,7153
{consumergroup=landscape-service},1651579040,7153
{consumergroup=landscape-service},1651579045,9343
{consumergroup=landscape-service},1651579050,9343
{consumergroup=landscape-service},1651579055,9343
{consumergroup=landscape-service},1651579060,7113
{consumergroup=landscape-service},1651579065,7113
{consumergroup=landscape-service},1651579070,7113
{consumergroup=landscape-service},1651579075,9197
{consumergroup=landscape-service},1651579080,9197
{consumergroup=landscape-service},1651579085,9197
{consumergroup=landscape-service},1651579090,5709
{consumergroup=landscape-service},1651579095,5709
{consumergroup=landscape-service},1651579100,5709
{consumergroup=landscape-service},1651579105,10467
{consumergroup=landscape-service},1651579110,10467
{consumergroup=landscape-service},1651579115,10467
{consumergroup=landscape-service},1651579120,4254
{consumergroup=landscape-service},1651579125,4254
{consumergroup=landscape-service},1651579130,4254
{consumergroup=landscape-service},1651579135,4660
{consumergroup=landscape-service},1651579140,4660
{consumergroup=landscape-service},1651579145,4660
{consumergroup=landscape-service},1651579150,2624
{consumergroup=landscape-service},1651579155,2624
{consumergroup=landscape-service},1651579160,2624
{consumergroup=landscape-service},1651579165,4175
{consumergroup=landscape-service},1651579170,4175
{consumergroup=landscape-service},1651579175,4175
{consumergroup=landscape-service},1651579180,1222
{consumergroup=landscape-service},1651579185,1222
{consumergroup=landscape-service},1651579190,1222
{consumergroup=landscape-service},1651579195,2514
{consumergroup=landscape-service},1651579200,2514
{consumergroup=landscape-service},1651579205,2514
{consumergroup=landscape-service},1651579210,4673
{consumergroup=landscape-service},1651579215,4673
{consumergroup=landscape-service},1651579220,4673
{consumergroup=landscape-service},1651579225,4052
{consumergroup=landscape-service},1651579230,4052
{consumergroup=landscape-service},1651579235,4052
{consumergroup=landscape-service},1651579240,19013
{consumergroup=landscape-service},1651579245,19013
{consumergroup=landscape-service},1651579250,19013
{consumergroup=landscape-service},1651579255,19259
{consumergroup=landscape-service},1651579260,19259
{consumergroup=landscape-service},1651579265,19259
{consumergroup=landscape-service},1651579270,17259
{consumergroup=landscape-service},1651579275,17259
{consumergroup=landscape-service},1651579280,17259
{consumergroup=landscape-service},1651579285,17940
{consumergroup=landscape-service},1651579290,17940
{consumergroup=landscape-service},1651579295,17940
{consumergroup=landscape-service},1651579300,16470
{consumergroup=landscape-service},1651579305,16470
{consumergroup=landscape-service},1651579310,16470
{consumergroup=landscape-service},1651579315,16973
{consumergroup=landscape-service},1651579320,16973
{consumergroup=landscape-service},1651579325,16973
{consumergroup=landscape-service},1651579330,14138
{consumergroup=landscape-service},1651579335,14138
{consumergroup=landscape-service},1651579340,14138
{consumergroup=landscape-service},1651579345,13968
{consumergroup=trace-service},1651578940,53748
{consumergroup=trace-service},1651578945,53748
{consumergroup=trace-service},1651578950,53748
{consumergroup=trace-service},1651578955,5430
{consumergroup=trace-service},1651578960,5430
{consumergroup=trace-service},1651578965,5430
{consumergroup=trace-service},1651578970,73913
{consumergroup=trace-service},1651578975,73913
{consumergroup=trace-service},1651578980,73913
{consumergroup=trace-service},1651578985,133100
{consumergroup=trace-service},1651578990,133100
{consumergroup=trace-service},1651578995,133100
{consumergroup=trace-service},1651579000,54917
{consumergroup=trace-service},1651579005,54917
{consumergroup=trace-service},1651579010,54917
{consumergroup=trace-service},1651579015,124068
{consumergroup=trace-service},1651579020,124068
{consumergroup=trace-service},1651579025,124068
{consumergroup=trace-service},1651579030,58311
{consumergroup=trace-service},1651579035,58311
{consumergroup=trace-service},1651579040,58311
{consumergroup=trace-service},1651579045,132006
{consumergroup=trace-service},1651579050,132006
{consumergroup=trace-service},1651579055,132006
{consumergroup=trace-service},1651579060,58328
{consumergroup=trace-service},1651579065,58328
{consumergroup=trace-service},1651579070,58328
{consumergroup=trace-service},1651579075,132769
{consumergroup=trace-service},1651579080,132769
{consumergroup=trace-service},1651579085,132769
{consumergroup=trace-service},1651579090,130189
{consumergroup=trace-service},1651579095,130189
{consumergroup=trace-service},1651579100,130189
{consumergroup=trace-service},1651579105,56944
{consumergroup=trace-service},1651579110,56944
{consumergroup=trace-service},1651579115,56944
{consumergroup=trace-service},1651579120,54654
{consumergroup=trace-service},1651579125,54654
{consumergroup=trace-service},1651579130,54654
{consumergroup=trace-service},1651579135,115374
{consumergroup=trace-service},1651579140,115374
{consumergroup=trace-service},1651579145,115374
{consumergroup=trace-service},1651579150,56605
{consumergroup=trace-service},1651579155,56605
{consumergroup=trace-service},1651579160,56605
{consumergroup=trace-service},1651579165,106692
{consumergroup=trace-service},1651579170,106692
{consumergroup=trace-service},1651579175,106692
{consumergroup=trace-service},1651579180,53930
{consumergroup=trace-service},1651579185,53930
{consumergroup=trace-service},1651579190,53930
{consumergroup=trace-service},1651579195,131487
{consumergroup=trace-service},1651579200,131487
{consumergroup=trace-service},1651579205,131487
{consumergroup=trace-service},1651579210,59926
{consumergroup=trace-service},1651579215,59926
{consumergroup=trace-service},1651579220,59926
{consumergroup=trace-service},1651579225,113438
{consumergroup=trace-service},1651579230,113438
{consumergroup=trace-service},1651579235,113438
{consumergroup=trace-service},1651579240,55919
{consumergroup=trace-service},1651579245,55919
{consumergroup=trace-service},1651579250,55919
{consumergroup=trace-service},1651579255,80383
{consumergroup=trace-service},1651579260,80383
{consumergroup=trace-service},1651579265,80383
{consumergroup=trace-service},1651579270,53952
{consumergroup=trace-service},1651579275,53952
{consumergroup=trace-service},1651579280,53952
{consumergroup=trace-service},1651579285,111288
{consumergroup=trace-service},1651579290,111288
{consumergroup=trace-service},1651579295,111288
{consumergroup=trace-service},1651579300,57526
{consumergroup=trace-service},1651579305,57526
{consumergroup=trace-service},1651579310,57526
{consumergroup=trace-service},1651579315,161982
{consumergroup=trace-service},1651579320,161982
{consumergroup=trace-service},1651579325,161982
{consumergroup=trace-service},1651579330,57037
{consumergroup=trace-service},1651579335,57037
{consumergroup=trace-service},1651579340,57037
{consumergroup=trace-service},1651579345,149107
{consumergroup=trace-token-events-consumer},1651578925,0
{consumergroup=trace-token-events-consumer},1651578930,0
{consumergroup=trace-token-events-consumer},1651578935,0
{consumergroup=trace-token-events-consumer},1651578940,0
{consumergroup=trace-token-events-consumer},1651578945,0
{consumergroup=trace-token-events-consumer},1651578950,0
{consumergroup=trace-token-events-consumer},1651578955,0
{consumergroup=trace-token-events-consumer},1651578960,0
{consumergroup=trace-token-events-consumer},1651578965,0
{consumergroup=trace-token-events-consumer},1651578970,0
{consumergroup=trace-token-events-consumer},1651578975,0
{consumergroup=trace-token-events-consumer},1651578980,0
{consumergroup=trace-token-events-consumer},1651578985,0
{consumergroup=trace-token-events-consumer},1651578990,0
{consumergroup=trace-token-events-consumer},1651578995,0
{consumergroup=trace-token-events-consumer},1651579000,0
{consumergroup=trace-token-events-consumer},1651579005,0
{consumergroup=trace-token-events-consumer},1651579010,0
{consumergroup=trace-token-events-consumer},1651579015,0
{consumergroup=trace-token-events-consumer},1651579020,0
{consumergroup=trace-token-events-consumer},1651579025,0
{consumergroup=trace-token-events-consumer},1651579030,0
{consumergroup=trace-token-events-consumer},1651579035,0
{consumergroup=trace-token-events-consumer},1651579040,0
{consumergroup=trace-token-events-consumer},1651579045,0
{consumergroup=trace-token-events-consumer},1651579050,0
{consumergroup=trace-token-events-consumer},1651579055,0
{consumergroup=trace-token-events-consumer},1651579060,0
{consumergroup=trace-token-events-consumer},1651579065,0
{consumergroup=trace-token-events-consumer},1651579070,0
{consumergroup=trace-token-events-consumer},1651579075,0
{consumergroup=trace-token-events-consumer},1651579080,0
{consumergroup=trace-token-events-consumer},1651579085,0
{consumergroup=trace-token-events-consumer},1651579090,0
{consumergroup=trace-token-events-consumer},1651579095,0
{consumergroup=trace-token-events-consumer},1651579100,0
{consumergroup=trace-token-events-consumer},1651579105,0
{consumergroup=trace-token-events-consumer},1651579110,0
{consumergroup=trace-token-events-consumer},1651579115,0
{consumergroup=trace-token-events-consumer},1651579120,0
{consumergroup=trace-token-events-consumer},1651579125,0
{consumergroup=trace-token-events-consumer},1651579130,0
{consumergroup=trace-token-events-consumer},1651579135,0
{consumergroup=trace-token-events-consumer},1651579140,0
{consumergroup=trace-token-events-consumer},1651579145,0
{consumergroup=trace-token-events-consumer},1651579150,0
{consumergroup=trace-token-events-consumer},1651579155,0
{consumergroup=trace-token-events-consumer},1651579160,0
{consumergroup=trace-token-events-consumer},1651579165,0
{consumergroup=trace-token-events-consumer},1651579170,0
{consumergroup=trace-token-events-consumer},1651579175,0
{consumergroup=trace-token-events-consumer},1651579180,0
{consumergroup=trace-token-events-consumer},1651579185,0
{consumergroup=trace-token-events-consumer},1651579190,0
{consumergroup=trace-token-events-consumer},1651579195,0
{consumergroup=trace-token-events-consumer},1651579200,0
{consumergroup=trace-token-events-consumer},1651579205,0
{consumergroup=trace-token-events-consumer},1651579210,0
{consumergroup=trace-token-events-consumer},1651579215,0
{consumergroup=trace-token-events-consumer},1651579220,0
{consumergroup=trace-token-events-consumer},1651579225,0
{consumergroup=trace-token-events-consumer},1651579230,0
{consumergroup=trace-token-events-consumer},1651579235,0
{consumergroup=trace-token-events-consumer},1651579240,0
{consumergroup=trace-token-events-consumer},1651579245,0
{consumergroup=trace-token-events-consumer},1651579250,0
{consumergroup=trace-token-events-consumer},1651579255,0
{consumergroup=trace-token-events-consumer},1651579260,0
{consumergroup=trace-token-events-consumer},1651579265,0
{consumergroup=trace-token-events-consumer},1651579270,0
{consumergroup=trace-token-events-consumer},1651579275,0
{consumergroup=trace-token-events-consumer},1651579280,0
{consumergroup=trace-token-events-consumer},1651579285,0
{consumergroup=trace-token-events-consumer},1651579290,0
{consumergroup=trace-token-events-consumer},1651579295,0
{consumergroup=trace-token-events-consumer},1651579300,0
{consumergroup=trace-token-events-consumer},1651579305,0
{consumergroup=trace-token-events-consumer},1651579310,0
{consumergroup=trace-token-events-consumer},1651579315,0
{consumergroup=trace-token-events-consumer},1651579320,0
{consumergroup=trace-token-events-consumer},1651579325,0
{consumergroup=trace-token-events-consumer},1651579330,0
{consumergroup=trace-token-events-consumer},1651579335,0
{consumergroup=trace-token-events-consumer},1651579340,0
{consumergroup=trace-token-events-consumer},1651579345,0
