labels,timestamp,value
{consumergroup=__strimzi-topic-operator-kstreams},1651531060,11
{consumergroup=__strimzi-topic-operator-kstreams},1651531065,11
{consumergroup=__strimzi-topic-operator-kstreams},1651531070,11
{consumergroup=__strimzi-topic-operator-kstreams},1651531075,3
{consumergroup=__strimzi-topic-operator-kstreams},1651531080,3
{consumergroup=__strimzi-topic-operator-kstreams},1651531085,3
{consumergroup=__strimzi-topic-operator-kstreams},1651531090,3
{consumergroup=__strimzi-topic-operator-kstreams},1651531095,3
{consumergroup=__strimzi-topic-operator-kstreams},1651531100,3
{consumergroup=__strimzi-topic-operator-kstreams},1651531105,0
{consumergroup=__strimzi-topic-operator-kstreams},1651531110,0
{consumergroup=__strimzi-topic-operator-kstreams},1651531115,0
{consumergroup=__strimzi-topic-operator-kstreams},1651531120,0
{consumergroup=__strimzi-topic-operator-kstreams},1651531125,0
{consumergroup=__strimzi-topic-operator-kstreams},1651531130,0
{consumergroup=__strimzi-topic-operator-kstreams},1651531135,0
{consumergroup=__strimzi-topic-operator-kstreams},1651531140,0
{consumergroup=__strimzi-topic-operator-kstreams},1651531145,0
{consumergroup=__strimzi-topic-operator-kstreams},1651531150,0
{consumergroup=__strimzi-topic-operator-kstreams},1651531155,0
{consumergroup=__strimzi-topic-operator-kstreams},1651531160,0
{consumergroup=__strimzi-topic-operator-kstreams},1651531165,0
{consumergroup=__strimzi-topic-operator-kstreams},1651531170,0
{consumergroup=__strimzi-topic-operator-kstreams},1651531175,0
{consumergroup=__strimzi-topic-operator-kstreams},1651531180,0
{consumergroup=__strimzi-topic-operator-kstreams},1651531185,0
{consumergroup=__strimzi-topic-operator-kstreams},1651531190,0
{consumergroup=__strimzi-topic-operator-kstreams},1651531195,0
{consumergroup=__strimzi-topic-operator-kstreams},1651531200,0
{consumergroup=__strimzi-topic-operator-kstreams},1651531205,0
{consumergroup=__strimzi-topic-operator-kstreams},1651531210,0
{consumergroup=__strimzi-topic-operator-kstreams},1651531215,0
{consumergroup=__strimzi-topic-operator-kstreams},1651531220,0
{consumergroup=__strimzi-topic-operator-kstreams},1651531225,0
{consumergroup=__strimzi-topic-operator-kstreams},1651531230,0
{consumergroup=__strimzi-topic-operator-kstreams},1651531235,0
{consumergroup=__strimzi-topic-operator-kstreams},1651531240,0
{consumergroup=__strimzi-topic-operator-kstreams},1651531245,0
{consumergroup=__strimzi-topic-operator-kstreams},1651531250,0
{consumergroup=__strimzi-topic-operator-kstreams},1651531255,0
{consumergroup=__strimzi-topic-operator-kstreams},1651531260,0
{consumergroup=__strimzi-topic-operator-kstreams},1651531265,0
{consumergroup=__strimzi-topic-operator-kstreams},1651531270,0
{consumergroup=__strimzi-topic-operator-kstreams},1651531275,0
{consumergroup=__strimzi-topic-operator-kstreams},1651531280,0
{consumergroup=__strimzi-topic-operator-kstreams},1651531285,0
{consumergroup=__strimzi-topic-operator-kstreams},1651531290,0
{consumergroup=__strimzi-topic-operator-kstreams},1651531295,0
{consumergroup=__strimzi-topic-operator-kstreams},1651531300,0
{consumergroup=__strimzi-topic-operator-kstreams},1651531305,0
{consumergroup=__strimzi-topic-operator-kstreams},1651531310,0
{consumergroup=__strimzi-topic-operator-kstreams},1651531315,0
{consumergroup=__strimzi-topic-operator-kstreams},1651531320,0
{consumergroup=__strimzi-topic-operator-kstreams},1651531325,0
{consumergroup=__strimzi-topic-operator-kstreams},1651531330,0
{consumergroup=__strimzi-topic-operator-kstreams},1651531335,0
{consumergroup=__strimzi-topic-operator-kstreams},1651531340,0
{consumergroup=__strimzi-topic-operator-kstreams},1651531345,0
{consumergroup=__strimzi-topic-operator-kstreams},1651531350,0
{consumergroup=__strimzi-topic-operator-kstreams},1651531355,0
{consumergroup=__strimzi-topic-operator-kstreams},1651531360,0
{consumergroup=__strimzi-topic-operator-kstreams},1651531365,0
{consumergroup=__strimzi-topic-operator-kstreams},1651531370,0
{consumergroup=__strimzi-topic-operator-kstreams},1651531375,0
{consumergroup=__strimzi-topic-operator-kstreams},1651531380,0
{consumergroup=__strimzi-topic-operator-kstreams},1651531385,0
{consumergroup=__strimzi-topic-operator-kstreams},1651531390,0
{consumergroup=__strimzi-topic-operator-kstreams},1651531395,0
{consumergroup=__strimzi-topic-operator-kstreams},1651531400,0
{consumergroup=__strimzi-topic-operator-kstreams},1651531405,0
{consumergroup=__strimzi-topic-operator-kstreams},1651531410,0
{consumergroup=__strimzi-topic-operator-kstreams},1651531415,0
{consumergroup=__strimzi-topic-operator-kstreams},1651531420,0
{consumergroup=__strimzi-topic-operator-kstreams},1651531425,0
{consumergroup=__strimzi-topic-operator-kstreams},1651531430,0
{consumergroup=__strimzi-topic-operator-kstreams},1651531435,0
{consumergroup=__strimzi-topic-operator-kstreams},1651531440,0
{consumergroup=__strimzi-topic-operator-kstreams},1651531445,0
{consumergroup=__strimzi-topic-operator-kstreams},1651531450,0
{consumergroup=__strimzi-topic-operator-kstreams},1651531455,0
{consumergroup=__strimzi-topic-operator-kstreams},1651531460,0
{consumergroup=__strimzi-topic-operator-kstreams},1651531465,0
{consumergroup=__strimzi-topic-operator-kstreams},1651531470,0
{consumergroup=__strimzi-topic-operator-kstreams},1651531475,0
{consumergroup=__strimzi-topic-operator-kstreams},1651531480,0
{consumergroup=__strimzi-topic-operator-kstreams},1651531485,0
{consumergroup=__strimzi-topic-operator-kstreams},1651531490,0
{consumergroup=__strimzi-topic-operator-kstreams},1651531495,0
{consumergroup=__strimzi-topic-operator-kstreams},1651531500,0
{consumergroup=adapter-service},1651531090,0
{consumergroup=adapter-service},1651531095,0
{consumergroup=adapter-service},1651531100,0
{consumergroup=adapter-service},1651531105,33827
{consumergroup=adapter-service},1651531110,33827
{consumergroup=adapter-service},1651531115,33827
{consumergroup=adapter-service},1651531120,42126
{consumergroup=adapter-service},1651531125,42126
{consumergroup=adapter-service},1651531130,42126
{consumergroup=adapter-service},1651531135,32110
{consumergroup=adapter-service},1651531140,32110
{consumergroup=adapter-service},1651531145,32110
{consumergroup=adapter-service},1651531150,12863
{consumergroup=adapter-service},1651531155,12863
{consumergroup=adapter-service},1651531160,12863
{consumergroup=adapter-service},1651531165,7213
{consumergroup=adapter-service},1651531170,7213
{consumergroup=adapter-service},1651531175,7213
{consumergroup=adapter-service},1651531180,8305
{consumergroup=adapter-service},1651531185,8305
{consumergroup=adapter-service},1651531190,8305
{consumergroup=adapter-service},1651531195,10568
{consumergroup=adapter-service},1651531200,10568
{consumergroup=adapter-service},1651531205,10568
{consumergroup=adapter-service},1651531210,5050
{consumergroup=adapter-service},1651531215,5050
{consumergroup=adapter-service},1651531220,5050
{consumergroup=adapter-service},1651531225,8709
{consumergroup=adapter-service},1651531230,8709
{consumergroup=adapter-service},1651531235,8709
{consumergroup=adapter-service},1651531240,10032
{consumergroup=adapter-service},1651531245,10032
{consumergroup=adapter-service},1651531250,10032
{consumergroup=adapter-service},1651531255,6108
{consumergroup=adapter-service},1651531260,6108
{consumergroup=adapter-service},1651531265,6108
{consumergroup=adapter-service},1651531270,8577
{consumergroup=adapter-service},1651531275,8577
{consumergroup=adapter-service},1651531280,8577
{consumergroup=adapter-service},1651531285,5452
{consumergroup=adapter-service},1651531290,5452
{consumergroup=adapter-service},1651531295,5452
{consumergroup=adapter-service},1651531300,7103
{consumergroup=adapter-service},1651531305,7103
{consumergroup=adapter-service},1651531310,7103
{consumergroup=adapter-service},1651531315,3602
{consumergroup=adapter-service},1651531320,3602
{consumergroup=adapter-service},1651531325,3602
{consumergroup=adapter-service},1651531330,5863
{consumergroup=adapter-service},1651531335,5863
{consumergroup=adapter-service},1651531340,5863
{consumergroup=adapter-service},1651531345,2081
{consumergroup=adapter-service},1651531350,2081
{consumergroup=adapter-service},1651531355,2081
{consumergroup=adapter-service},1651531360,5296
{consumergroup=adapter-service},1651531365,5296
{consumergroup=adapter-service},1651531370,5296
{consumergroup=adapter-service},1651531375,8511
{consumergroup=adapter-service},1651531380,8511
{consumergroup=adapter-service},1651531385,8511
{consumergroup=adapter-service},1651531390,3069
{consumergroup=adapter-service},1651531395,3069
{consumergroup=adapter-service},1651531400,3069
{consumergroup=adapter-service},1651531405,7728
{consumergroup=adapter-service},1651531410,7728
{consumergroup=adapter-service},1651531415,7728
{consumergroup=adapter-service},1651531420,2729
{consumergroup=adapter-service},1651531425,2729
{consumergroup=adapter-service},1651531430,2729
{consumergroup=adapter-service},1651531435,5720
{consumergroup=adapter-service},1651531440,5720
{consumergroup=adapter-service},1651531445,5720
{consumergroup=adapter-service},1651531450,8333
{consumergroup=adapter-service},1651531455,8333
{consumergroup=adapter-service},1651531460,8333
{consumergroup=adapter-service},1651531465,12011
{consumergroup=adapter-service},1651531470,12011
{consumergroup=adapter-service},1651531475,12011
{consumergroup=adapter-service},1651531480,6723
{consumergroup=adapter-service},1651531485,6723
{consumergroup=adapter-service},1651531490,6723
{consumergroup=adapter-service},1651531495,10572
{consumergroup=adapter-service},1651531500,10572
{consumergroup=landscape-service},1651531105,0
{consumergroup=landscape-service},1651531110,0
{consumergroup=landscape-service},1651531115,0
{consumergroup=landscape-service},1651531120,6212
{consumergroup=landscape-service},1651531125,6212
{consumergroup=landscape-service},1651531130,6212
{consumergroup=landscape-service},1651531135,12971
{consumergroup=landscape-service},1651531140,12971
{consumergroup=landscape-service},1651531145,12971
{consumergroup=landscape-service},1651531150,5221
{consumergroup=landscape-service},1651531155,5221
{consumergroup=landscape-service},1651531160,5221
{consumergroup=landscape-service},1651531165,13196
{consumergroup=landscape-service},1651531170,13196
{consumergroup=landscape-service},1651531175,13196
{consumergroup=landscape-service},1651531180,1145
{consumergroup=landscape-service},1651531185,1145
{consumergroup=landscape-service},1651531190,1145
{consumergroup=landscape-service},1651531195,12906
{consumergroup=landscape-service},1651531200,12906
{consumergroup=landscape-service},1651531205,12906
{consumergroup=landscape-service},1651531210,549
{consumergroup=landscape-service},1651531215,549
{consumergroup=landscape-service},1651531220,549
{consumergroup=landscape-service},1651531225,12978
{consumergroup=landscape-service},1651531230,12978
{consumergroup=landscape-service},1651531235,12978
{consumergroup=landscape-service},1651531240,798
{consumergroup=landscape-service},1651531245,798
{consumergroup=landscape-service},1651531250,798
{consumergroup=landscape-service},1651531255,11813
{consumergroup=landscape-service},1651531260,11813
{consumergroup=landscape-service},1651531265,11813
{consumergroup=landscape-service},1651531285,11430
{consumergroup=landscape-service},1651531290,11430
{consumergroup=landscape-service},1651531295,11430
{consumergroup=landscape-service},1651531315,11174
{consumergroup=landscape-service},1651531320,11174
{consumergroup=landscape-service},1651531325,11174
{consumergroup=landscape-service},1651531345,10856
{consumergroup=landscape-service},1651531350,10856
{consumergroup=landscape-service},1651531355,10856
{consumergroup=landscape-service},1651531360,13597
{consumergroup=landscape-service},1651531365,13597
{consumergroup=landscape-service},1651531370,13597
{consumergroup=landscape-service},1651531375,10476
{consumergroup=landscape-service},1651531380,10476
{consumergroup=landscape-service},1651531385,10476
{consumergroup=landscape-service},1651531390,13218
{consumergroup=landscape-service},1651531395,13218
{consumergroup=landscape-service},1651531400,13218
{consumergroup=landscape-service},1651531405,10669
{consumergroup=landscape-service},1651531410,10669
{consumergroup=landscape-service},1651531415,10669
{consumergroup=landscape-service},1651531420,13066
{consumergroup=landscape-service},1651531425,13066
{consumergroup=landscape-service},1651531430,13066
{consumergroup=landscape-service},1651531435,10398
{consumergroup=landscape-service},1651531440,10398
{consumergroup=landscape-service},1651531445,10398
{consumergroup=landscape-service},1651531450,14117
{consumergroup=landscape-service},1651531455,14117
{consumergroup=landscape-service},1651531460,14117
{consumergroup=landscape-service},1651531465,9956
{consumergroup=landscape-service},1651531470,9956
{consumergroup=landscape-service},1651531475,9956
{consumergroup=landscape-service},1651531480,13343
{consumergroup=landscape-service},1651531485,13343
{consumergroup=landscape-service},1651531490,13343
{consumergroup=landscape-service},1651531495,8788
{consumergroup=landscape-service},1651531500,8788
{consumergroup=trace-service},1651531105,13829
{consumergroup=trace-service},1651531110,13829
{consumergroup=trace-service},1651531115,13829
{consumergroup=trace-service},1651531120,40067
{consumergroup=trace-service},1651531125,40067
{consumergroup=trace-service},1651531130,40067
{consumergroup=trace-service},1651531135,78371
{consumergroup=trace-service},1651531140,78371
{consumergroup=trace-service},1651531145,78371
{consumergroup=trace-service},1651531150,112862
{consumergroup=trace-service},1651531155,112862
{consumergroup=trace-service},1651531160,112862
{consumergroup=trace-service},1651531165,45949
{consumergroup=trace-service},1651531170,45949
{consumergroup=trace-service},1651531175,45949
{consumergroup=trace-service},1651531180,40393
{consumergroup=trace-service},1651531185,40393
{consumergroup=trace-service},1651531190,40393
{consumergroup=trace-service},1651531195,91789
{consumergroup=trace-service},1651531200,91789
{consumergroup=trace-service},1651531205,91789
{consumergroup=trace-service},1651531210,43101
{consumergroup=trace-service},1651531215,43101
{consumergroup=trace-service},1651531220,43101
{consumergroup=trace-service},1651531225,100069
{consumergroup=trace-service},1651531230,100069
{consumergroup=trace-service},1651531235,100069
{consumergroup=trace-service},1651531240,42991
{consumergroup=trace-service},1651531245,42991
{consumergroup=trace-service},1651531250,42991
{consumergroup=trace-service},1651531255,98498
{consumergroup=trace-service},1651531260,98498
{consumergroup=trace-service},1651531265,98498
{consumergroup=trace-service},1651531270,39807
{consumergroup=trace-service},1651531275,39807
{consumergroup=trace-service},1651531280,39807
{consumergroup=trace-service},1651531285,79274
{consumergroup=trace-service},1651531290,79274
{consumergroup=trace-service},1651531295,79274
{consumergroup=trace-service},1651531300,39090
{consumergroup=trace-service},1651531305,39090
{consumergroup=trace-service},1651531310,39090
{consumergroup=trace-service},1651531315,67881
{consumergroup=trace-service},1651531320,67881
{consumergroup=trace-service},1651531325,67881
{consumergroup=trace-service},1651531330,42449
{consumergroup=trace-service},1651531335,42449
{consumergroup=trace-service},1651531340,42449
{consumergroup=trace-service},1651531345,108590
{consumergroup=trace-service},1651531350,108590
{consumergroup=trace-service},1651531355,108590
{consumergroup=trace-service},1651531360,42946
{consumergroup=trace-service},1651531365,42946
{consumergroup=trace-service},1651531370,42946
{consumergroup=trace-service},1651531375,114083
{consumergroup=trace-service},1651531380,114083
{consumergroup=trace-service},1651531385,114083
{consumergroup=trace-service},1651531390,37832
{consumergroup=trace-service},1651531395,37832
{consumergroup=trace-service},1651531400,37832
{consumergroup=trace-service},1651531405,64688
{consumergroup=trace-service},1651531410,64688
{consumergroup=trace-service},1651531415,64688
{consumergroup=trace-service},1651531420,166067
{consumergroup=trace-service},1651531425,166067
{consumergroup=trace-service},1651531430,166067
{consumergroup=trace-service},1651531435,20322
{consumergroup=trace-service},1651531440,20322
{consumergroup=trace-service},1651531445,20322
{consumergroup=trace-service},1651531450,39510
{consumergroup=trace-service},1651531455,39510
{consumergroup=trace-service},1651531460,39510
{consumergroup=trace-service},1651531465,87161
{consumergroup=trace-service},1651531470,87161
{consumergroup=trace-service},1651531475,87161
{consumergroup=trace-service},1651531480,38607
{consumergroup=trace-service},1651531485,38607
{consumergroup=trace-service},1651531490,38607
{consumergroup=trace-service},1651531495,75690
{consumergroup=trace-service},1651531500,75690
{consumergroup=trace-token-events-consumer},1651531090,0
{consumergroup=trace-token-events-consumer},1651531095,0
{consumergroup=trace-token-events-consumer},1651531100,0
{consumergroup=trace-token-events-consumer},1651531105,0
{consumergroup=trace-token-events-consumer},1651531110,0
{consumergroup=trace-token-events-consumer},1651531115,0
{consumergroup=trace-token-events-consumer},1651531120,0
{consumergroup=trace-token-events-consumer},1651531125,0
{consumergroup=trace-token-events-consumer},1651531130,0
{consumergroup=trace-token-events-consumer},1651531135,0
{consumergroup=trace-token-events-consumer},1651531140,0
{consumergroup=trace-token-events-consumer},1651531145,0
{consumergroup=trace-token-events-consumer},1651531150,0
{consumergroup=trace-token-events-consumer},1651531155,0
{consumergroup=trace-token-events-consumer},1651531160,0
{consumergroup=trace-token-events-consumer},1651531165,0
{consumergroup=trace-token-events-consumer},1651531170,0
{consumergroup=trace-token-events-consumer},1651531175,0
{consumergroup=trace-token-events-consumer},1651531180,0
{consumergroup=trace-token-events-consumer},1651531185,0
{consumergroup=trace-token-events-consumer},1651531190,0
{consumergroup=trace-token-events-consumer},1651531195,0
{consumergroup=trace-token-events-consumer},1651531200,0
{consumergroup=trace-token-events-consumer},1651531205,0
{consumergroup=trace-token-events-consumer},1651531210,0
{consumergroup=trace-token-events-consumer},1651531215,0
{consumergroup=trace-token-events-consumer},1651531220,0
{consumergroup=trace-token-events-consumer},1651531225,0
{consumergroup=trace-token-events-consumer},1651531230,0
{consumergroup=trace-token-events-consumer},1651531235,0
{consumergroup=trace-token-events-consumer},1651531240,0
{consumergroup=trace-token-events-consumer},1651531245,0
{consumergroup=trace-token-events-consumer},1651531250,0
{consumergroup=trace-token-events-consumer},1651531255,0
{consumergroup=trace-token-events-consumer},1651531260,0
{consumergroup=trace-token-events-consumer},1651531265,0
{consumergroup=trace-token-events-consumer},1651531270,0
{consumergroup=trace-token-events-consumer},1651531275,0
{consumergroup=trace-token-events-consumer},1651531280,0
{consumergroup=trace-token-events-consumer},1651531285,0
{consumergroup=trace-token-events-consumer},1651531290,0
{consumergroup=trace-token-events-consumer},1651531295,0
{consumergroup=trace-token-events-consumer},1651531300,0
{consumergroup=trace-token-events-consumer},1651531305,0
{consumergroup=trace-token-events-consumer},1651531310,0
{consumergroup=trace-token-events-consumer},1651531315,0
{consumergroup=trace-token-events-consumer},1651531320,0
{consumergroup=trace-token-events-consumer},1651531325,0
{consumergroup=trace-token-events-consumer},1651531330,0
{consumergroup=trace-token-events-consumer},1651531335,0
{consumergroup=trace-token-events-consumer},1651531340,0
{consumergroup=trace-token-events-consumer},1651531345,0
{consumergroup=trace-token-events-consumer},1651531350,0
{consumergroup=trace-token-events-consumer},1651531355,0
{consumergroup=trace-token-events-consumer},1651531360,0
{consumergroup=trace-token-events-consumer},1651531365,0
{consumergroup=trace-token-events-consumer},1651531370,0
{consumergroup=trace-token-events-consumer},1651531375,0
{consumergroup=trace-token-events-consumer},1651531380,0
{consumergroup=trace-token-events-consumer},1651531385,0
{consumergroup=trace-token-events-consumer},1651531390,0
{consumergroup=trace-token-events-consumer},1651531395,0
{consumergroup=trace-token-events-consumer},1651531400,0
{consumergroup=trace-token-events-consumer},1651531405,0
{consumergroup=trace-token-events-consumer},1651531410,0
{consumergroup=trace-token-events-consumer},1651531415,0
{consumergroup=trace-token-events-consumer},1651531420,0
{consumergroup=trace-token-events-consumer},1651531425,0
{consumergroup=trace-token-events-consumer},1651531430,0
{consumergroup=trace-token-events-consumer},1651531435,0
{consumergroup=trace-token-events-consumer},1651531440,0
{consumergroup=trace-token-events-consumer},1651531445,0
{consumergroup=trace-token-events-consumer},1651531450,0
{consumergroup=trace-token-events-consumer},1651531455,0
{consumergroup=trace-token-events-consumer},1651531460,0
{consumergroup=trace-token-events-consumer},1651531465,0
{consumergroup=trace-token-events-consumer},1651531470,0
{consumergroup=trace-token-events-consumer},1651531475,0
{consumergroup=trace-token-events-consumer},1651531480,0
{consumergroup=trace-token-events-consumer},1651531485,0
{consumergroup=trace-token-events-consumer},1651531490,0
{consumergroup=trace-token-events-consumer},1651531495,0
{consumergroup=trace-token-events-consumer},1651531500,0
