labels,timestamp,value
{consumergroup=__strimzi-topic-operator-kstreams},1651710855,9
{consumergroup=__strimzi-topic-operator-kstreams},1651710860,9
{consumergroup=__strimzi-topic-operator-kstreams},1651710865,9
{consumergroup=__strimzi-topic-operator-kstreams},1651710870,0
{consumergroup=__strimzi-topic-operator-kstreams},1651710875,0
{consumergroup=__strimzi-topic-operator-kstreams},1651710880,0
{consumergroup=__strimzi-topic-operator-kstreams},1651710885,0
{consumergroup=__strimzi-topic-operator-kstreams},1651710890,0
{consumergroup=__strimzi-topic-operator-kstreams},1651710895,0
{consumergroup=__strimzi-topic-operator-kstreams},1651710900,0
{consumergroup=__strimzi-topic-operator-kstreams},1651710905,0
{consumergroup=__strimzi-topic-operator-kstreams},1651710910,0
{consumergroup=__strimzi-topic-operator-kstreams},1651710915,0
{consumergroup=__strimzi-topic-operator-kstreams},1651710920,0
{consumergroup=__strimzi-topic-operator-kstreams},1651710925,0
{consumergroup=__strimzi-topic-operator-kstreams},1651710930,0
{consumergroup=__strimzi-topic-operator-kstreams},1651710935,0
{consumergroup=__strimzi-topic-operator-kstreams},1651710940,0
{consumergroup=__strimzi-topic-operator-kstreams},1651710945,0
{consumergroup=__strimzi-topic-operator-kstreams},1651710950,0
{consumergroup=__strimzi-topic-operator-kstreams},1651710955,0
{consumergroup=__strimzi-topic-operator-kstreams},1651710960,0
{consumergroup=__strimzi-topic-operator-kstreams},1651710965,0
{consumergroup=__strimzi-topic-operator-kstreams},1651710970,0
{consumergroup=__strimzi-topic-operator-kstreams},1651710975,0
{consumergroup=__strimzi-topic-operator-kstreams},1651710980,0
{consumergroup=__strimzi-topic-operator-kstreams},1651710985,0
{consumergroup=__strimzi-topic-operator-kstreams},1651710990,0
{consumergroup=__strimzi-topic-operator-kstreams},1651710995,0
{consumergroup=__strimzi-topic-operator-kstreams},1651711000,0
{consumergroup=__strimzi-topic-operator-kstreams},1651711005,0
{consumergroup=__strimzi-topic-operator-kstreams},1651711010,0
{consumergroup=__strimzi-topic-operator-kstreams},1651711015,0
{consumergroup=__strimzi-topic-operator-kstreams},1651711020,0
{consumergroup=__strimzi-topic-operator-kstreams},1651711025,0
{consumergroup=__strimzi-topic-operator-kstreams},1651711030,0
{consumergroup=__strimzi-topic-operator-kstreams},1651711035,0
{consumergroup=__strimzi-topic-operator-kstreams},1651711040,0
{consumergroup=__strimzi-topic-operator-kstreams},1651711045,0
{consumergroup=__strimzi-topic-operator-kstreams},1651711050,0
{consumergroup=__strimzi-topic-operator-kstreams},1651711055,0
{consumergroup=__strimzi-topic-operator-kstreams},1651711060,0
{consumergroup=__strimzi-topic-operator-kstreams},1651711065,0
{consumergroup=__strimzi-topic-operator-kstreams},1651711070,0
{consumergroup=__strimzi-topic-operator-kstreams},1651711075,0
{consumergroup=__strimzi-topic-operator-kstreams},1651711080,0
{consumergroup=__strimzi-topic-operator-kstreams},1651711085,0
{consumergroup=__strimzi-topic-operator-kstreams},1651711090,0
{consumergroup=__strimzi-topic-operator-kstreams},1651711095,0
{consumergroup=__strimzi-topic-operator-kstreams},1651711100,0
{consumergroup=__strimzi-topic-operator-kstreams},1651711105,0
{consumergroup=__strimzi-topic-operator-kstreams},1651711110,0
{consumergroup=adapter-service},1651710885,131061
{consumergroup=adapter-service},1651710890,131061
{consumergroup=adapter-service},1651710895,131061
{consumergroup=adapter-service},1651710900,422743
{consumergroup=adapter-service},1651710905,422743
{consumergroup=adapter-service},1651710910,422743
{consumergroup=adapter-service},1651710915,352576
{consumergroup=adapter-service},1651710920,352576
{consumergroup=adapter-service},1651710925,352576
{consumergroup=adapter-service},1651710930,162161
{consumergroup=adapter-service},1651710935,162161
{consumergroup=adapter-service},1651710940,162161
{consumergroup=adapter-service},1651710945,233065
{consumergroup=adapter-service},1651710950,233065
{consumergroup=adapter-service},1651710955,233065
{consumergroup=adapter-service},1651710960,39042
{consumergroup=adapter-service},1651710965,39042
{consumergroup=adapter-service},1651710970,39042
{consumergroup=adapter-service},1651710975,146781
{consumergroup=adapter-service},1651710980,146781
{consumergroup=adapter-service},1651710985,146781
{consumergroup=adapter-service},1651710990,59521
{consumergroup=adapter-service},1651710995,59521
{consumergroup=adapter-service},1651711000,59521
{consumergroup=adapter-service},1651711005,138997
{consumergroup=adapter-service},1651711010,138997
{consumergroup=adapter-service},1651711015,138997
{consumergroup=adapter-service},1651711020,27449
{consumergroup=adapter-service},1651711025,27449
{consumergroup=adapter-service},1651711030,27449
{consumergroup=adapter-service},1651711035,135249
{consumergroup=adapter-service},1651711040,135249
{consumergroup=adapter-service},1651711045,135249
{consumergroup=adapter-service},1651711050,30230
{consumergroup=adapter-service},1651711055,30230
{consumergroup=adapter-service},1651711060,30230
{consumergroup=adapter-service},1651711065,128788
{consumergroup=adapter-service},1651711070,128788
{consumergroup=adapter-service},1651711075,128788
{consumergroup=adapter-service},1651711080,122357
{consumergroup=adapter-service},1651711085,122357
{consumergroup=adapter-service},1651711090,122357
{consumergroup=adapter-service},1651711095,125781
{consumergroup=adapter-service},1651711100,125781
{consumergroup=adapter-service},1651711105,125781
{consumergroup=adapter-service},1651711110,34850
