labels,timestamp,value
{consumergroup=__strimzi-topic-operator-kstreams},1651720088,0
{consumergroup=__strimzi-topic-operator-kstreams},1651720103,1
{consumergroup=__strimzi-topic-operator-kstreams},1651720108,1
{consumergroup=__strimzi-topic-operator-kstreams},1651720113,1
{consumergroup=__strimzi-topic-operator-kstreams},1651720118,1
{consumergroup=__strimzi-topic-operator-kstreams},1651720123,1
{consumergroup=__strimzi-topic-operator-kstreams},1651720128,1
{consumergroup=__strimzi-topic-operator-kstreams},1651720133,0
{consumergroup=__strimzi-topic-operator-kstreams},1651720138,0
{consumergroup=__strimzi-topic-operator-kstreams},1651720143,0
{consumergroup=__strimzi-topic-operator-kstreams},1651720148,0
{consumergroup=__strimzi-topic-operator-kstreams},1651720153,0
{consumergroup=__strimzi-topic-operator-kstreams},1651720158,0
{consumergroup=__strimzi-topic-operator-kstreams},1651720163,0
{consumergroup=__strimzi-topic-operator-kstreams},1651720168,0
{consumergroup=__strimzi-topic-operator-kstreams},1651720173,0
{consumergroup=__strimzi-topic-operator-kstreams},1651720178,0
{consumergroup=__strimzi-topic-operator-kstreams},1651720183,0
{consumergroup=__strimzi-topic-operator-kstreams},1651720188,0
{consumergroup=__strimzi-topic-operator-kstreams},1651720193,0
{consumergroup=__strimzi-topic-operator-kstreams},1651720198,0
{consumergroup=__strimzi-topic-operator-kstreams},1651720203,0
{consumergroup=__strimzi-topic-operator-kstreams},1651720208,0
{consumergroup=__strimzi-topic-operator-kstreams},1651720213,0
{consumergroup=__strimzi-topic-operator-kstreams},1651720218,0
{consumergroup=__strimzi-topic-operator-kstreams},1651720223,0
{consumergroup=__strimzi-topic-operator-kstreams},1651720228,0
{consumergroup=__strimzi-topic-operator-kstreams},1651720233,0
{consumergroup=__strimzi-topic-operator-kstreams},1651720238,0
{consumergroup=__strimzi-topic-operator-kstreams},1651720243,0
{consumergroup=__strimzi-topic-operator-kstreams},1651720248,0
{consumergroup=__strimzi-topic-operator-kstreams},1651720253,0
{consumergroup=__strimzi-topic-operator-kstreams},1651720258,0
{consumergroup=__strimzi-topic-operator-kstreams},1651720263,0
{consumergroup=__strimzi-topic-operator-kstreams},1651720268,0
{consumergroup=__strimzi-topic-operator-kstreams},1651720273,0
{consumergroup=__strimzi-topic-operator-kstreams},1651720278,0
{consumergroup=__strimzi-topic-operator-kstreams},1651720283,0
{consumergroup=__strimzi-topic-operator-kstreams},1651720288,0
{consumergroup=__strimzi-topic-operator-kstreams},1651720293,0
{consumergroup=__strimzi-topic-operator-kstreams},1651720298,0
{consumergroup=__strimzi-topic-operator-kstreams},1651720303,0
{consumergroup=__strimzi-topic-operator-kstreams},1651720308,0
{consumergroup=__strimzi-topic-operator-kstreams},1651720313,0
{consumergroup=__strimzi-topic-operator-kstreams},1651720318,0
{consumergroup=__strimzi-topic-operator-kstreams},1651720323,0
{consumergroup=__strimzi-topic-operator-kstreams},1651720328,0
{consumergroup=__strimzi-topic-operator-kstreams},1651720333,0
{consumergroup=__strimzi-topic-operator-kstreams},1651720338,0
{consumergroup=__strimzi-topic-operator-kstreams},1651720343,0
{consumergroup=__strimzi-topic-operator-kstreams},1651720348,0
{consumergroup=adapter-service},1651720088,6104179
{consumergroup=adapter-service},1651720118,0
{consumergroup=adapter-service},1651720123,0
{consumergroup=adapter-service},1651720128,0
{consumergroup=adapter-service},1651720133,1319932
{consumergroup=adapter-service},1651720138,1319932
{consumergroup=adapter-service},1651720143,1319932
{consumergroup=adapter-service},1651720148,2508763
{consumergroup=adapter-service},1651720153,2508763
{consumergroup=adapter-service},1651720158,2508763
{consumergroup=adapter-service},1651720163,3273917
{consumergroup=adapter-service},1651720168,3273917
{consumergroup=adapter-service},1651720173,3273917
{consumergroup=adapter-service},1651720178,4077243
{consumergroup=adapter-service},1651720183,4077243
{consumergroup=adapter-service},1651720188,4077243
{consumergroup=adapter-service},1651720193,4448366
{consumergroup=adapter-service},1651720198,4448366
{consumergroup=adapter-service},1651720203,4448366
{consumergroup=adapter-service},1651720208,4782921
{consumergroup=adapter-service},1651720213,4782921
{consumergroup=adapter-service},1651720218,4782921
{consumergroup=adapter-service},1651720223,4982249
{consumergroup=adapter-service},1651720228,4982249
{consumergroup=adapter-service},1651720233,4982249
{consumergroup=adapter-service},1651720238,5181276
{consumergroup=adapter-service},1651720243,5181276
{consumergroup=adapter-service},1651720248,5181276
{consumergroup=adapter-service},1651720253,5069251
{consumergroup=adapter-service},1651720258,5069251
{consumergroup=adapter-service},1651720263,5069251
{consumergroup=adapter-service},1651720268,5289851
{consumergroup=adapter-service},1651720273,5289851
{consumergroup=adapter-service},1651720278,5289851
{consumergroup=adapter-service},1651720283,5542782
{consumergroup=adapter-service},1651720288,5542782
{consumergroup=adapter-service},1651720293,5542782
{consumergroup=adapter-service},1651720298,5542089
{consumergroup=adapter-service},1651720303,5542089
{consumergroup=adapter-service},1651720308,5542089
{consumergroup=adapter-service},1651720313,5723087
{consumergroup=adapter-service},1651720318,5723087
{consumergroup=adapter-service},1651720323,5723087
{consumergroup=adapter-service},1651720328,5787423
{consumergroup=adapter-service},1651720333,5787423
{consumergroup=adapter-service},1651720338,5787423
{consumergroup=adapter-service},1651720343,5967526
{consumergroup=adapter-service},1651720348,5967526
