labels,timestamp,value
{consumergroup=__strimzi-topic-operator-kstreams},1651720410,0
{consumergroup=__strimzi-topic-operator-kstreams},1651720415,0
{consumergroup=__strimzi-topic-operator-kstreams},1651720420,0
{consumergroup=__strimzi-topic-operator-kstreams},1651720425,0
{consumergroup=__strimzi-topic-operator-kstreams},1651720430,0
{consumergroup=__strimzi-topic-operator-kstreams},1651720435,0
{consumergroup=__strimzi-topic-operator-kstreams},1651720440,0
{consumergroup=__strimzi-topic-operator-kstreams},1651720445,0
{consumergroup=__strimzi-topic-operator-kstreams},1651720450,0
{consumergroup=__strimzi-topic-operator-kstreams},1651720455,0
{consumergroup=__strimzi-topic-operator-kstreams},1651720460,0
{consumergroup=__strimzi-topic-operator-kstreams},1651720465,0
{consumergroup=__strimzi-topic-operator-kstreams},1651720470,0
{consumergroup=__strimzi-topic-operator-kstreams},1651720475,0
{consumergroup=__strimzi-topic-operator-kstreams},1651720480,0
{consumergroup=__strimzi-topic-operator-kstreams},1651720485,0
{consumergroup=__strimzi-topic-operator-kstreams},1651720490,0
{consumergroup=__strimzi-topic-operator-kstreams},1651720495,0
{consumergroup=__strimzi-topic-operator-kstreams},1651720500,0
{consumergroup=__strimzi-topic-operator-kstreams},1651720505,0
{consumergroup=__strimzi-topic-operator-kstreams},1651720510,0
{consumergroup=__strimzi-topic-operator-kstreams},1651720515,0
{consumergroup=__strimzi-topic-operator-kstreams},1651720520,0
{consumergroup=__strimzi-topic-operator-kstreams},1651720525,0
{consumergroup=__strimzi-topic-operator-kstreams},1651720530,0
{consumergroup=__strimzi-topic-operator-kstreams},1651720535,0
{consumergroup=__strimzi-topic-operator-kstreams},1651720540,0
{consumergroup=__strimzi-topic-operator-kstreams},1651720545,0
{consumergroup=__strimzi-topic-operator-kstreams},1651720550,0
{consumergroup=__strimzi-topic-operator-kstreams},1651720555,0
{consumergroup=__strimzi-topic-operator-kstreams},1651720560,0
{consumergroup=__strimzi-topic-operator-kstreams},1651720565,0
{consumergroup=__strimzi-topic-operator-kstreams},1651720570,0
{consumergroup=__strimzi-topic-operator-kstreams},1651720575,0
{consumergroup=__strimzi-topic-operator-kstreams},1651720580,0
{consumergroup=__strimzi-topic-operator-kstreams},1651720585,0
{consumergroup=__strimzi-topic-operator-kstreams},1651720590,0
{consumergroup=__strimzi-topic-operator-kstreams},1651720595,0
{consumergroup=__strimzi-topic-operator-kstreams},1651720600,0
{consumergroup=__strimzi-topic-operator-kstreams},1651720605,0
{consumergroup=__strimzi-topic-operator-kstreams},1651720610,0
{consumergroup=__strimzi-topic-operator-kstreams},1651720615,0
{consumergroup=__strimzi-topic-operator-kstreams},1651720620,0
{consumergroup=__strimzi-topic-operator-kstreams},1651720625,0
{consumergroup=__strimzi-topic-operator-kstreams},1651720630,0
{consumergroup=__strimzi-topic-operator-kstreams},1651720635,0
{consumergroup=__strimzi-topic-operator-kstreams},1651720640,0
{consumergroup=__strimzi-topic-operator-kstreams},1651720645,0
{consumergroup=__strimzi-topic-operator-kstreams},1651720650,0
{consumergroup=adapter-service},1651720425,0
{consumergroup=adapter-service},1651720430,0
{consumergroup=adapter-service},1651720435,0
{consumergroup=adapter-service},1651720440,1849270
{consumergroup=adapter-service},1651720445,1849270
{consumergroup=adapter-service},1651720450,1849270
{consumergroup=adapter-service},1651720455,2886457
{consumergroup=adapter-service},1651720460,2886457
{consumergroup=adapter-service},1651720465,2886457
{consumergroup=adapter-service},1651720470,3593256
{consumergroup=adapter-service},1651720475,3593256
{consumergroup=adapter-service},1651720480,3593256
{consumergroup=adapter-service},1651720485,4185160
{consumergroup=adapter-service},1651720490,4185160
{consumergroup=adapter-service},1651720495,4185160
{consumergroup=adapter-service},1651720500,4422011
{consumergroup=adapter-service},1651720505,4422011
{consumergroup=adapter-service},1651720510,4422011
{consumergroup=adapter-service},1651720515,4792708
{consumergroup=adapter-service},1651720520,4792708
{consumergroup=adapter-service},1651720525,4792708
{consumergroup=adapter-service},1651720530,4792033
{consumergroup=adapter-service},1651720535,4792033
{consumergroup=adapter-service},1651720540,4792033
{consumergroup=adapter-service},1651720545,4940268
{consumergroup=adapter-service},1651720550,4940268
{consumergroup=adapter-service},1651720555,4940268
{consumergroup=adapter-service},1651720560,4765578
{consumergroup=adapter-service},1651720565,4765578
{consumergroup=adapter-service},1651720570,4765578
{consumergroup=adapter-service},1651720575,4772143
{consumergroup=adapter-service},1651720580,4772143
{consumergroup=adapter-service},1651720585,4772143
{consumergroup=adapter-service},1651720590,4727337
{consumergroup=adapter-service},1651720595,4727337
{consumergroup=adapter-service},1651720600,4727337
{consumergroup=adapter-service},1651720605,4732167
{consumergroup=adapter-service},1651720610,4732167
{consumergroup=adapter-service},1651720615,4732167
{consumergroup=adapter-service},1651720620,4694864
{consumergroup=adapter-service},1651720625,4694864
{consumergroup=adapter-service},1651720630,4694864
{consumergroup=adapter-service},1651720635,4692496
{consumergroup=adapter-service},1651720640,4692496
{consumergroup=adapter-service},1651720645,4692496
{consumergroup=adapter-service},1651720650,4710123
