labels,timestamp,value
{consumergroup=__strimzi-topic-operator-kstreams},1651719492,20
{consumergroup=__strimzi-topic-operator-kstreams},1651719497,20
{consumergroup=__strimzi-topic-operator-kstreams},1651719502,20
{consumergroup=__strimzi-topic-operator-kstreams},1651719507,0
{consumergroup=__strimzi-topic-operator-kstreams},1651719512,0
{consumergroup=__strimzi-topic-operator-kstreams},1651719517,0
{consumergroup=__strimzi-topic-operator-kstreams},1651719522,0
{consumergroup=__strimzi-topic-operator-kstreams},1651719527,0
{consumergroup=__strimzi-topic-operator-kstreams},1651719532,0
{consumergroup=__strimzi-topic-operator-kstreams},1651719537,0
{consumergroup=__strimzi-topic-operator-kstreams},1651719542,0
{consumergroup=__strimzi-topic-operator-kstreams},1651719547,0
{consumergroup=__strimzi-topic-operator-kstreams},1651719552,0
{consumergroup=__strimzi-topic-operator-kstreams},1651719557,0
{consumergroup=__strimzi-topic-operator-kstreams},1651719562,0
{consumergroup=__strimzi-topic-operator-kstreams},1651719567,0
{consumergroup=__strimzi-topic-operator-kstreams},1651719572,0
{consumergroup=__strimzi-topic-operator-kstreams},1651719577,0
{consumergroup=__strimzi-topic-operator-kstreams},1651719582,0
{consumergroup=__strimzi-topic-operator-kstreams},1651719587,0
{consumergroup=__strimzi-topic-operator-kstreams},1651719592,0
{consumergroup=__strimzi-topic-operator-kstreams},1651719597,0
{consumergroup=__strimzi-topic-operator-kstreams},1651719602,0
{consumergroup=__strimzi-topic-operator-kstreams},1651719607,0
{consumergroup=__strimzi-topic-operator-kstreams},1651719612,0
{consumergroup=__strimzi-topic-operator-kstreams},1651719617,0
{consumergroup=__strimzi-topic-operator-kstreams},1651719622,0
{consumergroup=__strimzi-topic-operator-kstreams},1651719627,0
{consumergroup=__strimzi-topic-operator-kstreams},1651719632,0
{consumergroup=__strimzi-topic-operator-kstreams},1651719637,0
{consumergroup=__strimzi-topic-operator-kstreams},1651719642,0
{consumergroup=__strimzi-topic-operator-kstreams},1651719647,0
{consumergroup=__strimzi-topic-operator-kstreams},1651719652,0
{consumergroup=__strimzi-topic-operator-kstreams},1651719657,0
{consumergroup=__strimzi-topic-operator-kstreams},1651719662,0
{consumergroup=__strimzi-topic-operator-kstreams},1651719667,0
{consumergroup=__strimzi-topic-operator-kstreams},1651719672,0
{consumergroup=__strimzi-topic-operator-kstreams},1651719677,0
{consumergroup=__strimzi-topic-operator-kstreams},1651719682,0
{consumergroup=__strimzi-topic-operator-kstreams},1651719687,0
{consumergroup=__strimzi-topic-operator-kstreams},1651719692,0
{consumergroup=__strimzi-topic-operator-kstreams},1651719697,0
{consumergroup=__strimzi-topic-operator-kstreams},1651719702,0
{consumergroup=__strimzi-topic-operator-kstreams},1651719707,0
{consumergroup=__strimzi-topic-operator-kstreams},1651719712,0
{consumergroup=__strimzi-topic-operator-kstreams},1651719717,0
{consumergroup=__strimzi-topic-operator-kstreams},1651719722,0
{consumergroup=__strimzi-topic-operator-kstreams},1651719727,0
{consumergroup=__strimzi-topic-operator-kstreams},1651719732,0
{consumergroup=__strimzi-topic-operator-kstreams},1651719737,0
{consumergroup=__strimzi-topic-operator-kstreams},1651719742,0
{consumergroup=adapter-service},1651719522,573742
{consumergroup=adapter-service},1651719527,573742
{consumergroup=adapter-service},1651719532,573742
{consumergroup=adapter-service},1651719537,2453622
{consumergroup=adapter-service},1651719542,2453622
{consumergroup=adapter-service},1651719547,2453622
{consumergroup=adapter-service},1651719552,3629649
{consumergroup=adapter-service},1651719557,3629649
{consumergroup=adapter-service},1651719562,3629649
{consumergroup=adapter-service},1651719567,4459186
{consumergroup=adapter-service},1651719572,4459186
{consumergroup=adapter-service},1651719577,4459186
{consumergroup=adapter-service},1651719582,5374385
{consumergroup=adapter-service},1651719587,5374385
{consumergroup=adapter-service},1651719592,5374385
{consumergroup=adapter-service},1651719597,5703629
{consumergroup=adapter-service},1651719602,5703629
{consumergroup=adapter-service},1651719607,5703629
{consumergroup=adapter-service},1651719612,6153052
{consumergroup=adapter-service},1651719617,6153052
{consumergroup=adapter-service},1651719622,6153052
{consumergroup=adapter-service},1651719627,6704930
{consumergroup=adapter-service},1651719632,6704930
{consumergroup=adapter-service},1651719637,6704930
{consumergroup=adapter-service},1651719642,6979214
{consumergroup=adapter-service},1651719647,6979214
{consumergroup=adapter-service},1651719652,6979214
{consumergroup=adapter-service},1651719657,7210745
{consumergroup=adapter-service},1651719662,7210745
{consumergroup=adapter-service},1651719667,7210745
{consumergroup=adapter-service},1651719672,7574934
{consumergroup=adapter-service},1651719677,7574934
{consumergroup=adapter-service},1651719682,7574934
{consumergroup=adapter-service},1651719687,7772272
{consumergroup=adapter-service},1651719692,7772272
{consumergroup=adapter-service},1651719697,7772272
{consumergroup=adapter-service},1651719702,8037043
{consumergroup=adapter-service},1651719707,8037043
{consumergroup=adapter-service},1651719712,8037043
{consumergroup=adapter-service},1651719717,8527030
{consumergroup=adapter-service},1651719722,8527030
{consumergroup=adapter-service},1651719727,8527030
{consumergroup=adapter-service},1651719732,8698437
{consumergroup=adapter-service},1651719737,8698437
{consumergroup=adapter-service},1651719742,8698437
