labels,timestamp,value
{consumergroup=__strimzi-topic-operator-kstreams},1651726096,5
{consumergroup=__strimzi-topic-operator-kstreams},1651726101,5
{consumergroup=__strimzi-topic-operator-kstreams},1651726106,5
{consumergroup=__strimzi-topic-operator-kstreams},1651726111,17
{consumergroup=__strimzi-topic-operator-kstreams},1651726116,17
{consumergroup=__strimzi-topic-operator-kstreams},1651726121,17
{consumergroup=__strimzi-topic-operator-kstreams},1651726126,0
{consumergroup=__strimzi-topic-operator-kstreams},1651726131,0
{consumergroup=__strimzi-topic-operator-kstreams},1651726136,0
{consumergroup=__strimzi-topic-operator-kstreams},1651726141,0
{consumergroup=__strimzi-topic-operator-kstreams},1651726146,0
{consumergroup=__strimzi-topic-operator-kstreams},1651726151,0
{consumergroup=__strimzi-topic-operator-kstreams},1651726156,0
{consumergroup=__strimzi-topic-operator-kstreams},1651726161,0
{consumergroup=__strimzi-topic-operator-kstreams},1651726166,0
{consumergroup=__strimzi-topic-operator-kstreams},1651726171,0
{consumergroup=__strimzi-topic-operator-kstreams},1651726176,0
{consumergroup=__strimzi-topic-operator-kstreams},1651726181,0
{consumergroup=__strimzi-topic-operator-kstreams},1651726186,0
{consumergroup=__strimzi-topic-operator-kstreams},1651726191,0
{consumergroup=__strimzi-topic-operator-kstreams},1651726196,0
{consumergroup=__strimzi-topic-operator-kstreams},1651726201,0
{consumergroup=__strimzi-topic-operator-kstreams},1651726206,0
{consumergroup=__strimzi-topic-operator-kstreams},1651726211,0
{consumergroup=__strimzi-topic-operator-kstreams},1651726216,0
{consumergroup=__strimzi-topic-operator-kstreams},1651726221,0
{consumergroup=__strimzi-topic-operator-kstreams},1651726226,0
{consumergroup=__strimzi-topic-operator-kstreams},1651726231,0
{consumergroup=__strimzi-topic-operator-kstreams},1651726236,0
{consumergroup=__strimzi-topic-operator-kstreams},1651726241,0
{consumergroup=__strimzi-topic-operator-kstreams},1651726246,0
{consumergroup=__strimzi-topic-operator-kstreams},1651726251,0
{consumergroup=__strimzi-topic-operator-kstreams},1651726256,0
{consumergroup=__strimzi-topic-operator-kstreams},1651726261,0
{consumergroup=__strimzi-topic-operator-kstreams},1651726266,0
{consumergroup=__strimzi-topic-operator-kstreams},1651726271,0
{consumergroup=__strimzi-topic-operator-kstreams},1651726276,0
{consumergroup=__strimzi-topic-operator-kstreams},1651726281,0
{consumergroup=__strimzi-topic-operator-kstreams},1651726286,0
{consumergroup=__strimzi-topic-operator-kstreams},1651726291,0
{consumergroup=__strimzi-topic-operator-kstreams},1651726296,0
{consumergroup=__strimzi-topic-operator-kstreams},1651726301,0
{consumergroup=__strimzi-topic-operator-kstreams},1651726306,0
{consumergroup=__strimzi-topic-operator-kstreams},1651726311,0
{consumergroup=__strimzi-topic-operator-kstreams},1651726316,0
{consumergroup=__strimzi-topic-operator-kstreams},1651726321,0
{consumergroup=__strimzi-topic-operator-kstreams},1651726326,0
{consumergroup=__strimzi-topic-operator-kstreams},1651726331,0
{consumergroup=__strimzi-topic-operator-kstreams},1651726336,0
{consumergroup=__strimzi-topic-operator-kstreams},1651726341,0
{consumergroup=__strimzi-topic-operator-kstreams},1651726346,0
{consumergroup=__strimzi-topic-operator-kstreams},1651726351,0
{consumergroup=adapter-service},1651726126,38258
{consumergroup=adapter-service},1651726131,38258
{consumergroup=adapter-service},1651726136,38258
{consumergroup=adapter-service},1651726141,1648157
{consumergroup=adapter-service},1651726146,1648157
{consumergroup=adapter-service},1651726151,1648157
{consumergroup=adapter-service},1651726156,2826368
{consumergroup=adapter-service},1651726161,2826368
{consumergroup=adapter-service},1651726166,2826368
{consumergroup=adapter-service},1651726171,3503912
{consumergroup=adapter-service},1651726176,3503912
{consumergroup=adapter-service},1651726181,3503912
{consumergroup=adapter-service},1651726186,3948295
{consumergroup=adapter-service},1651726191,3948295
{consumergroup=adapter-service},1651726196,3948295
{consumergroup=adapter-service},1651726201,4335626
{consumergroup=adapter-service},1651726206,4335626
{consumergroup=adapter-service},1651726211,4335626
{consumergroup=adapter-service},1651726216,4453670
{consumergroup=adapter-service},1651726221,4453670
{consumergroup=adapter-service},1651726226,4453670
{consumergroup=adapter-service},1651726231,4402938
{consumergroup=adapter-service},1651726236,4402938
{consumergroup=adapter-service},1651726241,4402938
{consumergroup=adapter-service},1651726246,4395639
{consumergroup=adapter-service},1651726251,4395639
{consumergroup=adapter-service},1651726256,4395639
{consumergroup=adapter-service},1651726261,4429229
{consumergroup=adapter-service},1651726266,4429229
{consumergroup=adapter-service},1651726271,4429229
{consumergroup=adapter-service},1651726276,4240762
{consumergroup=adapter-service},1651726281,4240762
{consumergroup=adapter-service},1651726286,4240762
{consumergroup=adapter-service},1651726291,4350231
{consumergroup=adapter-service},1651726296,4350231
{consumergroup=adapter-service},1651726301,4350231
{consumergroup=adapter-service},1651726306,4263847
{consumergroup=adapter-service},1651726311,4263847
{consumergroup=adapter-service},1651726316,4263847
{consumergroup=adapter-service},1651726321,4243287
{consumergroup=adapter-service},1651726326,4243287
{consumergroup=adapter-service},1651726331,4243287
{consumergroup=adapter-service},1651726336,4165611
{consumergroup=adapter-service},1651726341,4165611
{consumergroup=adapter-service},1651726346,4165611
{consumergroup=adapter-service},1651726351,4093183
