labels,timestamp,value
{consumergroup=__strimzi-topic-operator-kstreams},1651726705,14
{consumergroup=__strimzi-topic-operator-kstreams},1651726710,14
{consumergroup=__strimzi-topic-operator-kstreams},1651726715,14
{consumergroup=__strimzi-topic-operator-kstreams},1651726720,0
{consumergroup=__strimzi-topic-operator-kstreams},1651726725,0
{consumergroup=__strimzi-topic-operator-kstreams},1651726730,0
{consumergroup=__strimzi-topic-operator-kstreams},1651726735,0
{consumergroup=__strimzi-topic-operator-kstreams},1651726740,0
{consumergroup=__strimzi-topic-operator-kstreams},1651726745,0
{consumergroup=__strimzi-topic-operator-kstreams},1651726750,0
{consumergroup=__strimzi-topic-operator-kstreams},1651726755,0
{consumergroup=__strimzi-topic-operator-kstreams},1651726760,0
{consumergroup=__strimzi-topic-operator-kstreams},1651726765,0
{consumergroup=__strimzi-topic-operator-kstreams},1651726770,0
{consumergroup=__strimzi-topic-operator-kstreams},1651726775,0
{consumergroup=__strimzi-topic-operator-kstreams},1651726780,0
{consumergroup=__strimzi-topic-operator-kstreams},1651726785,0
{consumergroup=__strimzi-topic-operator-kstreams},1651726790,0
{consumergroup=__strimzi-topic-operator-kstreams},1651726795,0
{consumergroup=__strimzi-topic-operator-kstreams},1651726800,0
{consumergroup=__strimzi-topic-operator-kstreams},1651726805,0
{consumergroup=__strimzi-topic-operator-kstreams},1651726810,0
{consumergroup=__strimzi-topic-operator-kstreams},1651726815,0
{consumergroup=__strimzi-topic-operator-kstreams},1651726820,0
{consumergroup=__strimzi-topic-operator-kstreams},1651726825,0
{consumergroup=__strimzi-topic-operator-kstreams},1651726830,0
{consumergroup=__strimzi-topic-operator-kstreams},1651726835,0
{consumergroup=__strimzi-topic-operator-kstreams},1651726840,0
{consumergroup=__strimzi-topic-operator-kstreams},1651726845,0
{consumergroup=__strimzi-topic-operator-kstreams},1651726850,0
{consumergroup=__strimzi-topic-operator-kstreams},1651726855,0
{consumergroup=__strimzi-topic-operator-kstreams},1651726860,0
{consumergroup=__strimzi-topic-operator-kstreams},1651726865,0
{consumergroup=__strimzi-topic-operator-kstreams},1651726870,0
{consumergroup=__strimzi-topic-operator-kstreams},1651726875,0
{consumergroup=__strimzi-topic-operator-kstreams},1651726880,0
{consumergroup=__strimzi-topic-operator-kstreams},1651726885,0
{consumergroup=__strimzi-topic-operator-kstreams},1651726890,0
{consumergroup=__strimzi-topic-operator-kstreams},1651726895,0
{consumergroup=__strimzi-topic-operator-kstreams},1651726900,0
{consumergroup=__strimzi-topic-operator-kstreams},1651726905,0
{consumergroup=__strimzi-topic-operator-kstreams},1651726910,0
{consumergroup=__strimzi-topic-operator-kstreams},1651726915,0
{consumergroup=__strimzi-topic-operator-kstreams},1651726920,0
{consumergroup=__strimzi-topic-operator-kstreams},1651726925,0
{consumergroup=__strimzi-topic-operator-kstreams},1651726930,0
{consumergroup=__strimzi-topic-operator-kstreams},1651726935,0
{consumergroup=__strimzi-topic-operator-kstreams},1651726940,0
{consumergroup=__strimzi-topic-operator-kstreams},1651726945,0
{consumergroup=__strimzi-topic-operator-kstreams},1651726950,0
{consumergroup=__strimzi-topic-operator-kstreams},1651726955,0
{consumergroup=adapter-service},1651726735,800452
{consumergroup=adapter-service},1651726740,800452
{consumergroup=adapter-service},1651726745,800452
{consumergroup=adapter-service},1651726750,2498778
{consumergroup=adapter-service},1651726755,2498778
{consumergroup=adapter-service},1651726760,2498778
{consumergroup=adapter-service},1651726765,3348452
{consumergroup=adapter-service},1651726770,3348452
{consumergroup=adapter-service},1651726775,3348452
{consumergroup=adapter-service},1651726780,4332663
{consumergroup=adapter-service},1651726785,4332663
{consumergroup=adapter-service},1651726790,4332663
{consumergroup=adapter-service},1651726795,4625090
{consumergroup=adapter-service},1651726800,4625090
{consumergroup=adapter-service},1651726805,4625090
{consumergroup=adapter-service},1651726810,4789570
{consumergroup=adapter-service},1651726815,4789570
{consumergroup=adapter-service},1651726820,4789570
{consumergroup=adapter-service},1651726825,4898034
{consumergroup=adapter-service},1651726830,4898034
{consumergroup=adapter-service},1651726835,4898034
{consumergroup=adapter-service},1651726840,5096034
{consumergroup=adapter-service},1651726845,5096034
{consumergroup=adapter-service},1651726850,5096034
{consumergroup=adapter-service},1651726855,4777669
{consumergroup=adapter-service},1651726860,4777669
{consumergroup=adapter-service},1651726865,4777669
{consumergroup=adapter-service},1651726870,5332549
{consumergroup=adapter-service},1651726875,5332549
{consumergroup=adapter-service},1651726880,5332549
{consumergroup=adapter-service},1651726885,5188920
{consumergroup=adapter-service},1651726890,5188920
{consumergroup=adapter-service},1651726895,5188920
{consumergroup=adapter-service},1651726900,5014650
{consumergroup=adapter-service},1651726905,5014650
{consumergroup=adapter-service},1651726910,5014650
{consumergroup=adapter-service},1651726915,5053496
{consumergroup=adapter-service},1651726920,5053496
{consumergroup=adapter-service},1651726925,5053496
{consumergroup=adapter-service},1651726930,4951251
{consumergroup=adapter-service},1651726935,4951251
{consumergroup=adapter-service},1651726940,4951251
{consumergroup=adapter-service},1651726945,4904210
{consumergroup=adapter-service},1651726950,4904210
{consumergroup=adapter-service},1651726955,4904210
