labels,timestamp,value
{consumergroup=__strimzi-topic-operator-kstreams},1651727930,12
{consumergroup=__strimzi-topic-operator-kstreams},1651727935,12
{consumergroup=__strimzi-topic-operator-kstreams},1651727940,12
{consumergroup=__strimzi-topic-operator-kstreams},1651727945,12
{consumergroup=__strimzi-topic-operator-kstreams},1651727950,12
{consumergroup=__strimzi-topic-operator-kstreams},1651727955,12
{consumergroup=__strimzi-topic-operator-kstreams},1651727960,0
{consumergroup=__strimzi-topic-operator-kstreams},1651727965,0
{consumergroup=__strimzi-topic-operator-kstreams},1651727970,0
{consumergroup=__strimzi-topic-operator-kstreams},1651727975,0
{consumergroup=__strimzi-topic-operator-kstreams},1651727980,0
{consumergroup=__strimzi-topic-operator-kstreams},1651727985,0
{consumergroup=__strimzi-topic-operator-kstreams},1651727990,0
{consumergroup=__strimzi-topic-operator-kstreams},1651727995,0
{consumergroup=__strimzi-topic-operator-kstreams},1651728000,0
{consumergroup=__strimzi-topic-operator-kstreams},1651728005,0
{consumergroup=__strimzi-topic-operator-kstreams},1651728010,0
{consumergroup=__strimzi-topic-operator-kstreams},1651728015,0
{consumergroup=__strimzi-topic-operator-kstreams},1651728020,0
{consumergroup=__strimzi-topic-operator-kstreams},1651728025,0
{consumergroup=__strimzi-topic-operator-kstreams},1651728030,0
{consumergroup=__strimzi-topic-operator-kstreams},1651728035,0
{consumergroup=__strimzi-topic-operator-kstreams},1651728040,0
{consumergroup=__strimzi-topic-operator-kstreams},1651728045,0
{consumergroup=__strimzi-topic-operator-kstreams},1651728050,0
{consumergroup=__strimzi-topic-operator-kstreams},1651728055,0
{consumergroup=__strimzi-topic-operator-kstreams},1651728060,0
{consumergroup=__strimzi-topic-operator-kstreams},1651728065,0
{consumergroup=__strimzi-topic-operator-kstreams},1651728070,0
{consumergroup=__strimzi-topic-operator-kstreams},1651728075,0
{consumergroup=__strimzi-topic-operator-kstreams},1651728080,0
{consumergroup=__strimzi-topic-operator-kstreams},1651728085,0
{consumergroup=__strimzi-topic-operator-kstreams},1651728090,0
{consumergroup=__strimzi-topic-operator-kstreams},1651728095,0
{consumergroup=__strimzi-topic-operator-kstreams},1651728100,0
{consumergroup=__strimzi-topic-operator-kstreams},1651728105,0
{consumergroup=__strimzi-topic-operator-kstreams},1651728110,0
{consumergroup=__strimzi-topic-operator-kstreams},1651728115,0
{consumergroup=__strimzi-topic-operator-kstreams},1651728120,0
{consumergroup=__strimzi-topic-operator-kstreams},1651728125,0
{consumergroup=__strimzi-topic-operator-kstreams},1651728130,0
{consumergroup=__strimzi-topic-operator-kstreams},1651728135,0
{consumergroup=__strimzi-topic-operator-kstreams},1651728140,0
{consumergroup=__strimzi-topic-operator-kstreams},1651728145,0
{consumergroup=__strimzi-topic-operator-kstreams},1651728150,0
{consumergroup=__strimzi-topic-operator-kstreams},1651728155,0
{consumergroup=__strimzi-topic-operator-kstreams},1651728160,0
{consumergroup=__strimzi-topic-operator-kstreams},1651728165,0
{consumergroup=__strimzi-topic-operator-kstreams},1651728170,0
{consumergroup=__strimzi-topic-operator-kstreams},1651728175,0
{consumergroup=adapter-service},1651727960,1531987
{consumergroup=adapter-service},1651727965,1531987
{consumergroup=adapter-service},1651727970,1531987
{consumergroup=adapter-service},1651727975,2930620
{consumergroup=adapter-service},1651727980,2930620
{consumergroup=adapter-service},1651727985,2930620
{consumergroup=adapter-service},1651727990,4098378
{consumergroup=adapter-service},1651727995,4098378
{consumergroup=adapter-service},1651728000,4098378
{consumergroup=adapter-service},1651728005,4789604
{consumergroup=adapter-service},1651728010,4789604
{consumergroup=adapter-service},1651728015,4789604
{consumergroup=adapter-service},1651728020,5539259
{consumergroup=adapter-service},1651728025,5539259
{consumergroup=adapter-service},1651728030,5539259
{consumergroup=adapter-service},1651728035,5998424
{consumergroup=adapter-service},1651728040,5998424
{consumergroup=adapter-service},1651728045,5998424
{consumergroup=adapter-service},1651728050,6260854
{consumergroup=adapter-service},1651728055,6260854
{consumergroup=adapter-service},1651728060,6260854
{consumergroup=adapter-service},1651728065,6640287
{consumergroup=adapter-service},1651728070,6640287
{consumergroup=adapter-service},1651728075,6640287
{consumergroup=adapter-service},1651728080,6775146
{consumergroup=adapter-service},1651728085,6775146
{consumergroup=adapter-service},1651728090,6775146
{consumergroup=adapter-service},1651728095,6937879
{consumergroup=adapter-service},1651728100,6937879
{consumergroup=adapter-service},1651728105,6937879
{consumergroup=adapter-service},1651728110,7455107
{consumergroup=adapter-service},1651728115,7455107
{consumergroup=adapter-service},1651728120,7455107
{consumergroup=adapter-service},1651728125,7612817
{consumergroup=adapter-service},1651728130,7612817
{consumergroup=adapter-service},1651728135,7612817
{consumergroup=adapter-service},1651728140,7705756
{consumergroup=adapter-service},1651728145,7705756
{consumergroup=adapter-service},1651728150,7705756
{consumergroup=adapter-service},1651728155,7904236
{consumergroup=adapter-service},1651728160,7904236
{consumergroup=adapter-service},1651728165,7904236
{consumergroup=adapter-service},1651728170,8131103
{consumergroup=adapter-service},1651728175,8131103
