labels,timestamp,value
{consumergroup=__strimzi-topic-operator-kstreams},1651695051,8
{consumergroup=__strimzi-topic-operator-kstreams},1651695056,8
{consumergroup=__strimzi-topic-operator-kstreams},1651695061,8
{consumergroup=__strimzi-topic-operator-kstreams},1651695066,0
{consumergroup=__strimzi-topic-operator-kstreams},1651695071,0
{consumergroup=__strimzi-topic-operator-kstreams},1651695076,0
{consumergroup=__strimzi-topic-operator-kstreams},1651695081,0
{consumergroup=__strimzi-topic-operator-kstreams},1651695086,0
{consumergroup=__strimzi-topic-operator-kstreams},1651695091,0
{consumergroup=__strimzi-topic-operator-kstreams},1651695096,0
{consumergroup=__strimzi-topic-operator-kstreams},1651695101,0
{consumergroup=__strimzi-topic-operator-kstreams},1651695106,0
{consumergroup=__strimzi-topic-operator-kstreams},1651695111,0
{consumergroup=__strimzi-topic-operator-kstreams},1651695116,0
{consumergroup=__strimzi-topic-operator-kstreams},1651695121,0
{consumergroup=__strimzi-topic-operator-kstreams},1651695126,0
{consumergroup=__strimzi-topic-operator-kstreams},1651695131,0
{consumergroup=__strimzi-topic-operator-kstreams},1651695136,0
{consumergroup=__strimzi-topic-operator-kstreams},1651695141,0
{consumergroup=__strimzi-topic-operator-kstreams},1651695146,0
{consumergroup=__strimzi-topic-operator-kstreams},1651695151,0
{consumergroup=__strimzi-topic-operator-kstreams},1651695156,0
{consumergroup=__strimzi-topic-operator-kstreams},1651695161,0
{consumergroup=__strimzi-topic-operator-kstreams},1651695166,0
{consumergroup=__strimzi-topic-operator-kstreams},1651695171,0
{consumergroup=__strimzi-topic-operator-kstreams},1651695176,0
{consumergroup=__strimzi-topic-operator-kstreams},1651695181,0
{consumergroup=__strimzi-topic-operator-kstreams},1651695186,0
{consumergroup=__strimzi-topic-operator-kstreams},1651695191,0
{consumergroup=__strimzi-topic-operator-kstreams},1651695196,0
{consumergroup=__strimzi-topic-operator-kstreams},1651695201,0
{consumergroup=__strimzi-topic-operator-kstreams},1651695206,0
{consumergroup=__strimzi-topic-operator-kstreams},1651695211,0
{consumergroup=__strimzi-topic-operator-kstreams},1651695216,0
{consumergroup=__strimzi-topic-operator-kstreams},1651695221,0
{consumergroup=__strimzi-topic-operator-kstreams},1651695226,0
{consumergroup=__strimzi-topic-operator-kstreams},1651695231,0
{consumergroup=__strimzi-topic-operator-kstreams},1651695236,0
{consumergroup=__strimzi-topic-operator-kstreams},1651695241,0
{consumergroup=__strimzi-topic-operator-kstreams},1651695246,0
{consumergroup=__strimzi-topic-operator-kstreams},1651695251,0
{consumergroup=__strimzi-topic-operator-kstreams},1651695256,0
{consumergroup=__strimzi-topic-operator-kstreams},1651695261,0
{consumergroup=__strimzi-topic-operator-kstreams},1651695266,0
{consumergroup=__strimzi-topic-operator-kstreams},1651695271,0
{consumergroup=__strimzi-topic-operator-kstreams},1651695276,0
{consumergroup=__strimzi-topic-operator-kstreams},1651695281,0
{consumergroup=__strimzi-topic-operator-kstreams},1651695286,0
{consumergroup=__strimzi-topic-operator-kstreams},1651695291,0
{consumergroup=__strimzi-topic-operator-kstreams},1651695296,0
{consumergroup=__strimzi-topic-operator-kstreams},1651695301,0
{consumergroup=__strimzi-topic-operator-kstreams},1651695306,0
{consumergroup=__strimzi-topic-operator-kstreams},1651695311,0
{consumergroup=adapter-service},1651695096,404190
{consumergroup=adapter-service},1651695101,404190
{consumergroup=adapter-service},1651695106,404190
{consumergroup=adapter-service},1651695111,758662
{consumergroup=adapter-service},1651695116,758662
{consumergroup=adapter-service},1651695121,758662
{consumergroup=adapter-service},1651695126,1098939
{consumergroup=adapter-service},1651695131,1098939
{consumergroup=adapter-service},1651695136,1098939
{consumergroup=adapter-service},1651695141,1437647
{consumergroup=adapter-service},1651695146,1437647
{consumergroup=adapter-service},1651695151,1437647
{consumergroup=adapter-service},1651695156,1714241
{consumergroup=adapter-service},1651695161,1714241
{consumergroup=adapter-service},1651695166,1714241
{consumergroup=adapter-service},1651695171,1965610
{consumergroup=adapter-service},1651695176,1965610
{consumergroup=adapter-service},1651695181,1965610
{consumergroup=adapter-service},1651695186,2156325
{consumergroup=adapter-service},1651695191,2156325
{consumergroup=adapter-service},1651695196,2156325
{consumergroup=adapter-service},1651695201,2297888
{consumergroup=adapter-service},1651695206,2297888
{consumergroup=adapter-service},1651695211,2297888
{consumergroup=adapter-service},1651695216,2428467
{consumergroup=adapter-service},1651695221,2428467
{consumergroup=adapter-service},1651695226,2428467
{consumergroup=adapter-service},1651695231,2550389
{consumergroup=adapter-service},1651695236,2550389
{consumergroup=adapter-service},1651695241,2550389
{consumergroup=adapter-service},1651695246,2657305
{consumergroup=adapter-service},1651695251,2657305
{consumergroup=adapter-service},1651695256,2657305
{consumergroup=adapter-service},1651695261,2775392
{consumergroup=adapter-service},1651695266,2775392
{consumergroup=adapter-service},1651695271,2775392
{consumergroup=adapter-service},1651695276,2877140
{consumergroup=adapter-service},1651695281,2877140
{consumergroup=adapter-service},1651695286,2877140
{consumergroup=adapter-service},1651695291,2999300
{consumergroup=adapter-service},1651695296,2999300
{consumergroup=adapter-service},1651695301,2999300
{consumergroup=adapter-service},1651695306,3100881
{consumergroup=adapter-service},1651695311,3100881
