labels,timestamp,value
{consumergroup=__strimzi-topic-operator-kstreams},1651700598,14
{consumergroup=__strimzi-topic-operator-kstreams},1651700603,14
{consumergroup=__strimzi-topic-operator-kstreams},1651700608,14
{consumergroup=__strimzi-topic-operator-kstreams},1651700613,0
{consumergroup=__strimzi-topic-operator-kstreams},1651700618,0
{consumergroup=__strimzi-topic-operator-kstreams},1651700623,0
{consumergroup=__strimzi-topic-operator-kstreams},1651700628,0
{consumergroup=__strimzi-topic-operator-kstreams},1651700633,0
{consumergroup=__strimzi-topic-operator-kstreams},1651700638,0
{consumergroup=__strimzi-topic-operator-kstreams},1651700643,0
{consumergroup=__strimzi-topic-operator-kstreams},1651700648,0
{consumergroup=__strimzi-topic-operator-kstreams},1651700653,0
{consumergroup=__strimzi-topic-operator-kstreams},1651700658,0
{consumergroup=__strimzi-topic-operator-kstreams},1651700663,0
{consumergroup=__strimzi-topic-operator-kstreams},1651700668,0
{consumergroup=__strimzi-topic-operator-kstreams},1651700673,0
{consumergroup=__strimzi-topic-operator-kstreams},1651700678,0
{consumergroup=__strimzi-topic-operator-kstreams},1651700683,0
{consumergroup=__strimzi-topic-operator-kstreams},1651700688,0
{consumergroup=__strimzi-topic-operator-kstreams},1651700693,0
{consumergroup=__strimzi-topic-operator-kstreams},1651700698,0
{consumergroup=__strimzi-topic-operator-kstreams},1651700703,0
{consumergroup=__strimzi-topic-operator-kstreams},1651700708,0
{consumergroup=__strimzi-topic-operator-kstreams},1651700713,0
{consumergroup=__strimzi-topic-operator-kstreams},1651700718,0
{consumergroup=__strimzi-topic-operator-kstreams},1651700723,0
{consumergroup=__strimzi-topic-operator-kstreams},1651700728,0
{consumergroup=__strimzi-topic-operator-kstreams},1651700733,0
{consumergroup=__strimzi-topic-operator-kstreams},1651700738,0
{consumergroup=__strimzi-topic-operator-kstreams},1651700743,0
{consumergroup=__strimzi-topic-operator-kstreams},1651700748,0
{consumergroup=__strimzi-topic-operator-kstreams},1651700753,0
{consumergroup=__strimzi-topic-operator-kstreams},1651700758,0
{consumergroup=__strimzi-topic-operator-kstreams},1651700763,0
{consumergroup=__strimzi-topic-operator-kstreams},1651700768,0
{consumergroup=__strimzi-topic-operator-kstreams},1651700773,0
{consumergroup=__strimzi-topic-operator-kstreams},1651700778,0
{consumergroup=__strimzi-topic-operator-kstreams},1651700783,0
{consumergroup=__strimzi-topic-operator-kstreams},1651700788,0
{consumergroup=__strimzi-topic-operator-kstreams},1651700793,0
{consumergroup=__strimzi-topic-operator-kstreams},1651700798,0
{consumergroup=__strimzi-topic-operator-kstreams},1651700803,0
{consumergroup=__strimzi-topic-operator-kstreams},1651700808,0
{consumergroup=__strimzi-topic-operator-kstreams},1651700813,0
{consumergroup=__strimzi-topic-operator-kstreams},1651700818,0
{consumergroup=__strimzi-topic-operator-kstreams},1651700823,0
{consumergroup=__strimzi-topic-operator-kstreams},1651700828,0
{consumergroup=__strimzi-topic-operator-kstreams},1651700833,0
{consumergroup=__strimzi-topic-operator-kstreams},1651700838,0
{consumergroup=__strimzi-topic-operator-kstreams},1651700843,0
{consumergroup=adapter-service},1651700628,725478
{consumergroup=adapter-service},1651700633,725478
{consumergroup=adapter-service},1651700638,725478
{consumergroup=adapter-service},1651700643,1261718
{consumergroup=adapter-service},1651700648,1261718
{consumergroup=adapter-service},1651700653,1261718
{consumergroup=adapter-service},1651700658,1779761
{consumergroup=adapter-service},1651700663,1779761
{consumergroup=adapter-service},1651700668,1779761
{consumergroup=adapter-service},1651700673,2094123
{consumergroup=adapter-service},1651700678,2094123
{consumergroup=adapter-service},1651700683,2094123
{consumergroup=adapter-service},1651700688,2388414
{consumergroup=adapter-service},1651700693,2388414
{consumergroup=adapter-service},1651700698,2388414
{consumergroup=adapter-service},1651700703,2418504
{consumergroup=adapter-service},1651700708,2418504
{consumergroup=adapter-service},1651700713,2418504
{consumergroup=adapter-service},1651700718,2271640
{consumergroup=adapter-service},1651700723,2271640
{consumergroup=adapter-service},1651700728,2271640
{consumergroup=adapter-service},1651700733,2036659
{consumergroup=adapter-service},1651700738,2036659
{consumergroup=adapter-service},1651700743,2036659
{consumergroup=adapter-service},1651700748,1856197
{consumergroup=adapter-service},1651700753,1856197
{consumergroup=adapter-service},1651700758,1856197
{consumergroup=adapter-service},1651700763,1542107
{consumergroup=adapter-service},1651700768,1542107
{consumergroup=adapter-service},1651700773,1542107
{consumergroup=adapter-service},1651700778,1413700
{consumergroup=adapter-service},1651700783,1413700
{consumergroup=adapter-service},1651700788,1413700
{consumergroup=adapter-service},1651700793,1041604
{consumergroup=adapter-service},1651700798,1041604
{consumergroup=adapter-service},1651700803,1041604
{consumergroup=adapter-service},1651700808,921111
{consumergroup=adapter-service},1651700813,921111
{consumergroup=adapter-service},1651700818,921111
{consumergroup=adapter-service},1651700823,881860
{consumergroup=adapter-service},1651700828,881860
{consumergroup=adapter-service},1651700833,881860
{consumergroup=adapter-service},1651700838,582738
{consumergroup=adapter-service},1651700843,582738
