labels,timestamp,value
{consumergroup=__strimzi-topic-operator-kstreams},1651717366,0
{consumergroup=__strimzi-topic-operator-kstreams},1651717371,0
{consumergroup=__strimzi-topic-operator-kstreams},1651717376,0
{consumergroup=__strimzi-topic-operator-kstreams},1651717381,8
{consumergroup=__strimzi-topic-operator-kstreams},1651717386,8
{consumergroup=__strimzi-topic-operator-kstreams},1651717391,8
{consumergroup=__strimzi-topic-operator-kstreams},1651717396,0
{consumergroup=__strimzi-topic-operator-kstreams},1651717401,0
{consumergroup=__strimzi-topic-operator-kstreams},1651717406,0
{consumergroup=__strimzi-topic-operator-kstreams},1651717411,0
{consumergroup=__strimzi-topic-operator-kstreams},1651717416,0
{consumergroup=__strimzi-topic-operator-kstreams},1651717421,0
{consumergroup=__strimzi-topic-operator-kstreams},1651717426,0
{consumergroup=__strimzi-topic-operator-kstreams},1651717431,0
{consumergroup=__strimzi-topic-operator-kstreams},1651717436,0
{consumergroup=__strimzi-topic-operator-kstreams},1651717441,0
{consumergroup=__strimzi-topic-operator-kstreams},1651717446,0
{consumergroup=__strimzi-topic-operator-kstreams},1651717451,0
{consumergroup=__strimzi-topic-operator-kstreams},1651717456,0
{consumergroup=__strimzi-topic-operator-kstreams},1651717461,0
{consumergroup=__strimzi-topic-operator-kstreams},1651717466,0
{consumergroup=__strimzi-topic-operator-kstreams},1651717471,0
{consumergroup=__strimzi-topic-operator-kstreams},1651717476,0
{consumergroup=__strimzi-topic-operator-kstreams},1651717481,0
{consumergroup=__strimzi-topic-operator-kstreams},1651717486,0
{consumergroup=__strimzi-topic-operator-kstreams},1651717491,0
{consumergroup=__strimzi-topic-operator-kstreams},1651717496,0
{consumergroup=__strimzi-topic-operator-kstreams},1651717501,0
{consumergroup=__strimzi-topic-operator-kstreams},1651717506,0
{consumergroup=__strimzi-topic-operator-kstreams},1651717511,0
{consumergroup=__strimzi-topic-operator-kstreams},1651717516,0
{consumergroup=__strimzi-topic-operator-kstreams},1651717521,0
{consumergroup=__strimzi-topic-operator-kstreams},1651717526,0
{consumergroup=__strimzi-topic-operator-kstreams},1651717531,0
{consumergroup=__strimzi-topic-operator-kstreams},1651717536,0
{consumergroup=__strimzi-topic-operator-kstreams},1651717541,0
{consumergroup=__strimzi-topic-operator-kstreams},1651717546,0
{consumergroup=__strimzi-topic-operator-kstreams},1651717551,0
{consumergroup=__strimzi-topic-operator-kstreams},1651717556,0
{consumergroup=__strimzi-topic-operator-kstreams},1651717561,0
{consumergroup=__strimzi-topic-operator-kstreams},1651717566,0
{consumergroup=__strimzi-topic-operator-kstreams},1651717571,0
{consumergroup=__strimzi-topic-operator-kstreams},1651717576,0
{consumergroup=__strimzi-topic-operator-kstreams},1651717581,0
{consumergroup=__strimzi-topic-operator-kstreams},1651717586,0
{consumergroup=__strimzi-topic-operator-kstreams},1651717591,0
{consumergroup=__strimzi-topic-operator-kstreams},1651717596,0
{consumergroup=__strimzi-topic-operator-kstreams},1651717601,0
{consumergroup=__strimzi-topic-operator-kstreams},1651717606,0
{consumergroup=__strimzi-topic-operator-kstreams},1651717611,0
{consumergroup=__strimzi-topic-operator-kstreams},1651717616,0
{consumergroup=__strimzi-topic-operator-kstreams},1651717621,0
{consumergroup=__strimzi-topic-operator-kstreams},1651717626,0
{consumergroup=adapter-service},1651717396,0
{consumergroup=adapter-service},1651717401,0
{consumergroup=adapter-service},1651717406,0
{consumergroup=adapter-service},1651717411,1514728
{consumergroup=adapter-service},1651717416,1514728
{consumergroup=adapter-service},1651717421,1514728
{consumergroup=adapter-service},1651717426,2639725
{consumergroup=adapter-service},1651717431,2639725
{consumergroup=adapter-service},1651717436,2639725
{consumergroup=adapter-service},1651717441,3208201
{consumergroup=adapter-service},1651717446,3208201
{consumergroup=adapter-service},1651717451,3208201
{consumergroup=adapter-service},1651717456,3927937
{consumergroup=adapter-service},1651717461,3927937
{consumergroup=adapter-service},1651717466,3927937
{consumergroup=adapter-service},1651717471,4155951
{consumergroup=adapter-service},1651717476,4155951
{consumergroup=adapter-service},1651717481,4155951
{consumergroup=adapter-service},1651717486,4193690
{consumergroup=adapter-service},1651717491,4193690
{consumergroup=adapter-service},1651717496,4193690
{consumergroup=adapter-service},1651717501,4427663
{consumergroup=adapter-service},1651717506,4427663
{consumergroup=adapter-service},1651717511,4427663
{consumergroup=adapter-service},1651717516,4159121
{consumergroup=adapter-service},1651717521,4159121
{consumergroup=adapter-service},1651717526,4159121
{consumergroup=adapter-service},1651717531,4114934
{consumergroup=adapter-service},1651717536,4114934
{consumergroup=adapter-service},1651717541,4114934
{consumergroup=adapter-service},1651717546,3788467
{consumergroup=adapter-service},1651717551,3788467
{consumergroup=adapter-service},1651717556,3788467
{consumergroup=adapter-service},1651717561,3686101
{consumergroup=adapter-service},1651717566,3686101
{consumergroup=adapter-service},1651717571,3686101
{consumergroup=adapter-service},1651717576,3363054
{consumergroup=adapter-service},1651717581,3363054
{consumergroup=adapter-service},1651717586,3363054
{consumergroup=adapter-service},1651717591,3133461
{consumergroup=adapter-service},1651717596,3133461
{consumergroup=adapter-service},1651717601,3133461
{consumergroup=adapter-service},1651717606,2954908
{consumergroup=adapter-service},1651717611,2954908
{consumergroup=adapter-service},1651717616,2954908
{consumergroup=adapter-service},1651717621,2682257
{consumergroup=adapter-service},1651717626,2682257
