labels,timestamp,value
{consumergroup=__strimzi-topic-operator-kstreams},1651721305,0
{consumergroup=__strimzi-topic-operator-kstreams},1651721310,0
{consumergroup=__strimzi-topic-operator-kstreams},1651721315,0
{consumergroup=__strimzi-topic-operator-kstreams},1651721320,0
{consumergroup=__strimzi-topic-operator-kstreams},1651721325,0
{consumergroup=__strimzi-topic-operator-kstreams},1651721330,0
{consumergroup=__strimzi-topic-operator-kstreams},1651721335,0
{consumergroup=__strimzi-topic-operator-kstreams},1651721340,0
{consumergroup=__strimzi-topic-operator-kstreams},1651721345,0
{consumergroup=__strimzi-topic-operator-kstreams},1651721350,0
{consumergroup=__strimzi-topic-operator-kstreams},1651721355,0
{consumergroup=__strimzi-topic-operator-kstreams},1651721360,0
{consumergroup=__strimzi-topic-operator-kstreams},1651721365,0
{consumergroup=__strimzi-topic-operator-kstreams},1651721370,0
{consumergroup=__strimzi-topic-operator-kstreams},1651721375,0
{consumergroup=__strimzi-topic-operator-kstreams},1651721380,0
{consumergroup=__strimzi-topic-operator-kstreams},1651721385,0
{consumergroup=__strimzi-topic-operator-kstreams},1651721390,0
{consumergroup=__strimzi-topic-operator-kstreams},1651721395,0
{consumergroup=__strimzi-topic-operator-kstreams},1651721400,0
{consumergroup=__strimzi-topic-operator-kstreams},1651721405,0
{consumergroup=__strimzi-topic-operator-kstreams},1651721410,0
{consumergroup=__strimzi-topic-operator-kstreams},1651721415,0
{consumergroup=__strimzi-topic-operator-kstreams},1651721420,0
{consumergroup=__strimzi-topic-operator-kstreams},1651721425,0
{consumergroup=__strimzi-topic-operator-kstreams},1651721430,0
{consumergroup=__strimzi-topic-operator-kstreams},1651721435,0
{consumergroup=__strimzi-topic-operator-kstreams},1651721440,0
{consumergroup=__strimzi-topic-operator-kstreams},1651721445,0
{consumergroup=__strimzi-topic-operator-kstreams},1651721450,0
{consumergroup=__strimzi-topic-operator-kstreams},1651721455,0
{consumergroup=__strimzi-topic-operator-kstreams},1651721460,0
{consumergroup=__strimzi-topic-operator-kstreams},1651721465,0
{consumergroup=__strimzi-topic-operator-kstreams},1651721470,0
{consumergroup=__strimzi-topic-operator-kstreams},1651721475,0
{consumergroup=__strimzi-topic-operator-kstreams},1651721480,0
{consumergroup=__strimzi-topic-operator-kstreams},1651721485,0
{consumergroup=__strimzi-topic-operator-kstreams},1651721490,0
{consumergroup=__strimzi-topic-operator-kstreams},1651721495,0
{consumergroup=__strimzi-topic-operator-kstreams},1651721500,0
{consumergroup=__strimzi-topic-operator-kstreams},1651721505,0
{consumergroup=__strimzi-topic-operator-kstreams},1651721510,0
{consumergroup=__strimzi-topic-operator-kstreams},1651721515,0
{consumergroup=__strimzi-topic-operator-kstreams},1651721520,0
{consumergroup=__strimzi-topic-operator-kstreams},1651721525,0
{consumergroup=__strimzi-topic-operator-kstreams},1651721530,0
{consumergroup=__strimzi-topic-operator-kstreams},1651721535,0
{consumergroup=__strimzi-topic-operator-kstreams},1651721540,0
{consumergroup=__strimzi-topic-operator-kstreams},1651721545,0
{consumergroup=__strimzi-topic-operator-kstreams},1651721550,0
{consumergroup=adapter-service},1651721335,1419473
{consumergroup=adapter-service},1651721340,1419473
{consumergroup=adapter-service},1651721345,1419473
{consumergroup=adapter-service},1651721350,2827372
{consumergroup=adapter-service},1651721355,2827372
{consumergroup=adapter-service},1651721360,2827372
{consumergroup=adapter-service},1651721365,3507874
{consumergroup=adapter-service},1651721370,3507874
{consumergroup=adapter-service},1651721375,3507874
{consumergroup=adapter-service},1651721380,4397555
{consumergroup=adapter-service},1651721385,4397555
{consumergroup=adapter-service},1651721390,4397555
{consumergroup=adapter-service},1651721395,4824699
{consumergroup=adapter-service},1651721400,4824699
{consumergroup=adapter-service},1651721405,4824699
{consumergroup=adapter-service},1651721410,4958193
{consumergroup=adapter-service},1651721415,4958193
{consumergroup=adapter-service},1651721420,4958193
{consumergroup=adapter-service},1651721425,5311968
{consumergroup=adapter-service},1651721430,5311968
{consumergroup=adapter-service},1651721435,5311968
{consumergroup=adapter-service},1651721440,5198286
{consumergroup=adapter-service},1651721445,5198286
{consumergroup=adapter-service},1651721450,5198286
{consumergroup=adapter-service},1651721455,5299340
{consumergroup=adapter-service},1651721460,5299340
{consumergroup=adapter-service},1651721465,5299340
{consumergroup=adapter-service},1651721470,5237204
{consumergroup=adapter-service},1651721475,5237204
{consumergroup=adapter-service},1651721480,5237204
{consumergroup=adapter-service},1651721485,5185219
{consumergroup=adapter-service},1651721490,5185219
{consumergroup=adapter-service},1651721495,5185219
{consumergroup=adapter-service},1651721500,5221188
{consumergroup=adapter-service},1651721505,5221188
{consumergroup=adapter-service},1651721510,5221188
{consumergroup=adapter-service},1651721515,5106367
{consumergroup=adapter-service},1651721520,5106367
{consumergroup=adapter-service},1651721525,5106367
{consumergroup=adapter-service},1651721530,5037302
{consumergroup=adapter-service},1651721535,5037302
{consumergroup=adapter-service},1651721540,5037302
{consumergroup=adapter-service},1651721545,5003673
{consumergroup=adapter-service},1651721550,5003673
