labels,timestamp,value
{consumergroup=__strimzi-topic-operator-kstreams},1651708252,8
{consumergroup=__strimzi-topic-operator-kstreams},1651708257,8
{consumergroup=__strimzi-topic-operator-kstreams},1651708262,8
{consumergroup=__strimzi-topic-operator-kstreams},1651708267,8
{consumergroup=__strimzi-topic-operator-kstreams},1651708272,8
{consumergroup=__strimzi-topic-operator-kstreams},1651708277,8
{consumergroup=__strimzi-topic-operator-kstreams},1651708282,0
{consumergroup=__strimzi-topic-operator-kstreams},1651708287,0
{consumergroup=__strimzi-topic-operator-kstreams},1651708292,0
{consumergroup=__strimzi-topic-operator-kstreams},1651708297,0
{consumergroup=__strimzi-topic-operator-kstreams},1651708302,0
{consumergroup=__strimzi-topic-operator-kstreams},1651708307,0
{consumergroup=__strimzi-topic-operator-kstreams},1651708312,0
{consumergroup=__strimzi-topic-operator-kstreams},1651708317,0
{consumergroup=__strimzi-topic-operator-kstreams},1651708322,0
{consumergroup=__strimzi-topic-operator-kstreams},1651708327,0
{consumergroup=__strimzi-topic-operator-kstreams},1651708332,0
{consumergroup=__strimzi-topic-operator-kstreams},1651708337,0
{consumergroup=__strimzi-topic-operator-kstreams},1651708342,0
{consumergroup=__strimzi-topic-operator-kstreams},1651708347,0
{consumergroup=__strimzi-topic-operator-kstreams},1651708352,0
{consumergroup=__strimzi-topic-operator-kstreams},1651708357,0
{consumergroup=__strimzi-topic-operator-kstreams},1651708362,0
{consumergroup=__strimzi-topic-operator-kstreams},1651708367,0
{consumergroup=__strimzi-topic-operator-kstreams},1651708372,0
{consumergroup=__strimzi-topic-operator-kstreams},1651708377,0
{consumergroup=__strimzi-topic-operator-kstreams},1651708382,0
{consumergroup=__strimzi-topic-operator-kstreams},1651708387,0
{consumergroup=__strimzi-topic-operator-kstreams},1651708392,0
{consumergroup=__strimzi-topic-operator-kstreams},1651708397,0
{consumergroup=__strimzi-topic-operator-kstreams},1651708402,0
{consumergroup=__strimzi-topic-operator-kstreams},1651708407,0
{consumergroup=__strimzi-topic-operator-kstreams},1651708412,0
{consumergroup=__strimzi-topic-operator-kstreams},1651708417,0
{consumergroup=__strimzi-topic-operator-kstreams},1651708422,0
{consumergroup=__strimzi-topic-operator-kstreams},1651708427,0
{consumergroup=__strimzi-topic-operator-kstreams},1651708432,0
{consumergroup=__strimzi-topic-operator-kstreams},1651708437,0
{consumergroup=__strimzi-topic-operator-kstreams},1651708442,0
{consumergroup=__strimzi-topic-operator-kstreams},1651708447,0
{consumergroup=__strimzi-topic-operator-kstreams},1651708452,0
{consumergroup=__strimzi-topic-operator-kstreams},1651708457,0
{consumergroup=__strimzi-topic-operator-kstreams},1651708462,0
{consumergroup=__strimzi-topic-operator-kstreams},1651708467,0
{consumergroup=__strimzi-topic-operator-kstreams},1651708472,0
{consumergroup=__strimzi-topic-operator-kstreams},1651708477,0
{consumergroup=__strimzi-topic-operator-kstreams},1651708482,0
{consumergroup=__strimzi-topic-operator-kstreams},1651708487,0
{consumergroup=__strimzi-topic-operator-kstreams},1651708492,0
{consumergroup=__strimzi-topic-operator-kstreams},1651708497,0
{consumergroup=__strimzi-topic-operator-kstreams},1651708502,0
{consumergroup=adapter-service},1651708282,48552
{consumergroup=adapter-service},1651708287,48552
{consumergroup=adapter-service},1651708292,48552
{consumergroup=adapter-service},1651708297,24411
{consumergroup=adapter-service},1651708302,24411
{consumergroup=adapter-service},1651708307,24411
{consumergroup=adapter-service},1651708312,39116
{consumergroup=adapter-service},1651708317,39116
{consumergroup=adapter-service},1651708322,39116
{consumergroup=adapter-service},1651708327,42901
{consumergroup=adapter-service},1651708332,42901
{consumergroup=adapter-service},1651708337,42901
{consumergroup=adapter-service},1651708342,41154
{consumergroup=adapter-service},1651708347,41154
{consumergroup=adapter-service},1651708352,41154
{consumergroup=adapter-service},1651708357,39297
{consumergroup=adapter-service},1651708362,39297
{consumergroup=adapter-service},1651708367,39297
{consumergroup=adapter-service},1651708372,38585
{consumergroup=adapter-service},1651708377,38585
{consumergroup=adapter-service},1651708382,38585
{consumergroup=adapter-service},1651708387,38323
{consumergroup=adapter-service},1651708392,38323
{consumergroup=adapter-service},1651708397,38323
{consumergroup=adapter-service},1651708402,37910
{consumergroup=adapter-service},1651708407,37910
{consumergroup=adapter-service},1651708412,37910
{consumergroup=adapter-service},1651708417,17481
{consumergroup=adapter-service},1651708422,17481
{consumergroup=adapter-service},1651708427,17481
{consumergroup=adapter-service},1651708432,25599
{consumergroup=adapter-service},1651708437,25599
{consumergroup=adapter-service},1651708442,25599
{consumergroup=adapter-service},1651708447,26586
{consumergroup=adapter-service},1651708452,26586
{consumergroup=adapter-service},1651708457,26586
{consumergroup=adapter-service},1651708462,24797
{consumergroup=adapter-service},1651708467,24797
{consumergroup=adapter-service},1651708472,24797
{consumergroup=adapter-service},1651708477,35978
{consumergroup=adapter-service},1651708482,35978
{consumergroup=adapter-service},1651708487,35978
{consumergroup=adapter-service},1651708492,25764
{consumergroup=adapter-service},1651708497,25764
{consumergroup=adapter-service},1651708502,25764
