labels,timestamp,value
{consumergroup=__strimzi-topic-operator-kstreams},1651715601,8
{consumergroup=__strimzi-topic-operator-kstreams},1651715606,8
{consumergroup=__strimzi-topic-operator-kstreams},1651715611,8
{consumergroup=__strimzi-topic-operator-kstreams},1651715616,0
{consumergroup=__strimzi-topic-operator-kstreams},1651715621,0
{consumergroup=__strimzi-topic-operator-kstreams},1651715626,0
{consumergroup=__strimzi-topic-operator-kstreams},1651715631,0
{consumergroup=__strimzi-topic-operator-kstreams},1651715636,0
{consumergroup=__strimzi-topic-operator-kstreams},1651715641,0
{consumergroup=__strimzi-topic-operator-kstreams},1651715646,0
{consumergroup=__strimzi-topic-operator-kstreams},1651715651,0
{consumergroup=__strimzi-topic-operator-kstreams},1651715656,0
{consumergroup=__strimzi-topic-operator-kstreams},1651715661,0
{consumergroup=__strimzi-topic-operator-kstreams},1651715666,0
{consumergroup=__strimzi-topic-operator-kstreams},1651715671,0
{consumergroup=__strimzi-topic-operator-kstreams},1651715676,0
{consumergroup=__strimzi-topic-operator-kstreams},1651715681,0
{consumergroup=__strimzi-topic-operator-kstreams},1651715686,0
{consumergroup=__strimzi-topic-operator-kstreams},1651715691,0
{consumergroup=__strimzi-topic-operator-kstreams},1651715696,0
{consumergroup=__strimzi-topic-operator-kstreams},1651715701,0
{consumergroup=__strimzi-topic-operator-kstreams},1651715706,0
{consumergroup=__strimzi-topic-operator-kstreams},1651715711,0
{consumergroup=__strimzi-topic-operator-kstreams},1651715716,0
{consumergroup=__strimzi-topic-operator-kstreams},1651715721,0
{consumergroup=__strimzi-topic-operator-kstreams},1651715726,0
{consumergroup=__strimzi-topic-operator-kstreams},1651715731,0
{consumergroup=__strimzi-topic-operator-kstreams},1651715736,0
{consumergroup=__strimzi-topic-operator-kstreams},1651715741,0
{consumergroup=__strimzi-topic-operator-kstreams},1651715746,0
{consumergroup=__strimzi-topic-operator-kstreams},1651715751,0
{consumergroup=__strimzi-topic-operator-kstreams},1651715756,0
{consumergroup=__strimzi-topic-operator-kstreams},1651715761,0
{consumergroup=__strimzi-topic-operator-kstreams},1651715766,0
{consumergroup=__strimzi-topic-operator-kstreams},1651715771,0
{consumergroup=__strimzi-topic-operator-kstreams},1651715776,0
{consumergroup=__strimzi-topic-operator-kstreams},1651715781,0
{consumergroup=__strimzi-topic-operator-kstreams},1651715786,0
{consumergroup=__strimzi-topic-operator-kstreams},1651715791,0
{consumergroup=__strimzi-topic-operator-kstreams},1651715796,0
{consumergroup=__strimzi-topic-operator-kstreams},1651715801,0
{consumergroup=__strimzi-topic-operator-kstreams},1651715806,0
{consumergroup=__strimzi-topic-operator-kstreams},1651715811,0
{consumergroup=__strimzi-topic-operator-kstreams},1651715816,0
{consumergroup=__strimzi-topic-operator-kstreams},1651715821,0
{consumergroup=__strimzi-topic-operator-kstreams},1651715826,0
{consumergroup=__strimzi-topic-operator-kstreams},1651715831,0
{consumergroup=__strimzi-topic-operator-kstreams},1651715836,0
{consumergroup=__strimzi-topic-operator-kstreams},1651715841,0
{consumergroup=__strimzi-topic-operator-kstreams},1651715846,0
{consumergroup=adapter-service},1651715616,0
{consumergroup=adapter-service},1651715621,0
{consumergroup=adapter-service},1651715626,0
{consumergroup=adapter-service},1651715631,1001359
{consumergroup=adapter-service},1651715636,1001359
{consumergroup=adapter-service},1651715641,1001359
{consumergroup=adapter-service},1651715646,1902681
{consumergroup=adapter-service},1651715651,1902681
{consumergroup=adapter-service},1651715656,1902681
{consumergroup=adapter-service},1651715661,2524425
{consumergroup=adapter-service},1651715666,2524425
{consumergroup=adapter-service},1651715671,2524425
{consumergroup=adapter-service},1651715676,2495845
{consumergroup=adapter-service},1651715681,2495845
{consumergroup=adapter-service},1651715686,2495845
{consumergroup=adapter-service},1651715691,2913684
{consumergroup=adapter-service},1651715696,2913684
{consumergroup=adapter-service},1651715701,2913684
{consumergroup=adapter-service},1651715706,2580206
{consumergroup=adapter-service},1651715711,2580206
{consumergroup=adapter-service},1651715716,2580206
{consumergroup=adapter-service},1651715721,2133742
{consumergroup=adapter-service},1651715726,2133742
{consumergroup=adapter-service},1651715731,2133742
{consumergroup=adapter-service},1651715736,1645227
{consumergroup=adapter-service},1651715741,1645227
{consumergroup=adapter-service},1651715746,1645227
{consumergroup=adapter-service},1651715751,1047773
{consumergroup=adapter-service},1651715756,1047773
{consumergroup=adapter-service},1651715761,1047773
{consumergroup=adapter-service},1651715766,581199
{consumergroup=adapter-service},1651715771,581199
{consumergroup=adapter-service},1651715776,581199
{consumergroup=adapter-service},1651715781,336937
{consumergroup=adapter-service},1651715786,336937
{consumergroup=adapter-service},1651715791,336937
{consumergroup=adapter-service},1651715796,212997
{consumergroup=adapter-service},1651715801,212997
{consumergroup=adapter-service},1651715806,212997
{consumergroup=adapter-service},1651715811,123231
{consumergroup=adapter-service},1651715816,123231
{consumergroup=adapter-service},1651715821,123231
{consumergroup=adapter-service},1651715826,109551
{consumergroup=adapter-service},1651715831,109551
{consumergroup=adapter-service},1651715836,109551
{consumergroup=adapter-service},1651715841,90917
{consumergroup=adapter-service},1651715846,90917
