labels,timestamp,value
{consumergroup=__strimzi-topic-operator-kstreams},1651722506,0
{consumergroup=__strimzi-topic-operator-kstreams},1651722511,0
{consumergroup=__strimzi-topic-operator-kstreams},1651722516,0
{consumergroup=__strimzi-topic-operator-kstreams},1651722521,0
{consumergroup=__strimzi-topic-operator-kstreams},1651722526,0
{consumergroup=__strimzi-topic-operator-kstreams},1651722531,0
{consumergroup=__strimzi-topic-operator-kstreams},1651722536,0
{consumergroup=__strimzi-topic-operator-kstreams},1651722541,0
{consumergroup=__strimzi-topic-operator-kstreams},1651722546,0
{consumergroup=__strimzi-topic-operator-kstreams},1651722551,0
{consumergroup=__strimzi-topic-operator-kstreams},1651722556,0
{consumergroup=__strimzi-topic-operator-kstreams},1651722561,0
{consumergroup=__strimzi-topic-operator-kstreams},1651722566,0
{consumergroup=__strimzi-topic-operator-kstreams},1651722571,0
{consumergroup=__strimzi-topic-operator-kstreams},1651722576,0
{consumergroup=__strimzi-topic-operator-kstreams},1651722581,0
{consumergroup=__strimzi-topic-operator-kstreams},1651722586,0
{consumergroup=__strimzi-topic-operator-kstreams},1651722591,0
{consumergroup=__strimzi-topic-operator-kstreams},1651722596,0
{consumergroup=__strimzi-topic-operator-kstreams},1651722601,0
{consumergroup=__strimzi-topic-operator-kstreams},1651722606,0
{consumergroup=__strimzi-topic-operator-kstreams},1651722611,0
{consumergroup=__strimzi-topic-operator-kstreams},1651722616,0
{consumergroup=__strimzi-topic-operator-kstreams},1651722621,0
{consumergroup=__strimzi-topic-operator-kstreams},1651722626,0
{consumergroup=__strimzi-topic-operator-kstreams},1651722631,0
{consumergroup=__strimzi-topic-operator-kstreams},1651722636,0
{consumergroup=__strimzi-topic-operator-kstreams},1651722641,0
{consumergroup=__strimzi-topic-operator-kstreams},1651722646,0
{consumergroup=__strimzi-topic-operator-kstreams},1651722651,0
{consumergroup=__strimzi-topic-operator-kstreams},1651722656,0
{consumergroup=__strimzi-topic-operator-kstreams},1651722661,0
{consumergroup=__strimzi-topic-operator-kstreams},1651722666,0
{consumergroup=__strimzi-topic-operator-kstreams},1651722671,0
{consumergroup=__strimzi-topic-operator-kstreams},1651722676,0
{consumergroup=__strimzi-topic-operator-kstreams},1651722681,0
{consumergroup=__strimzi-topic-operator-kstreams},1651722686,0
{consumergroup=__strimzi-topic-operator-kstreams},1651722691,0
{consumergroup=__strimzi-topic-operator-kstreams},1651722696,0
{consumergroup=__strimzi-topic-operator-kstreams},1651722701,0
{consumergroup=__strimzi-topic-operator-kstreams},1651722706,0
{consumergroup=__strimzi-topic-operator-kstreams},1651722711,0
{consumergroup=__strimzi-topic-operator-kstreams},1651722716,0
{consumergroup=__strimzi-topic-operator-kstreams},1651722721,0
{consumergroup=__strimzi-topic-operator-kstreams},1651722726,0
{consumergroup=__strimzi-topic-operator-kstreams},1651722731,0
{consumergroup=__strimzi-topic-operator-kstreams},1651722736,0
{consumergroup=__strimzi-topic-operator-kstreams},1651722741,0
{consumergroup=__strimzi-topic-operator-kstreams},1651722746,0
{consumergroup=__strimzi-topic-operator-kstreams},1651722751,0
{consumergroup=adapter-service},1651722521,0
{consumergroup=adapter-service},1651722526,0
{consumergroup=adapter-service},1651722531,0
{consumergroup=adapter-service},1651722536,1661991
{consumergroup=adapter-service},1651722541,1661991
{consumergroup=adapter-service},1651722546,1661991
{consumergroup=adapter-service},1651722551,3024585
{consumergroup=adapter-service},1651722556,3024585
{consumergroup=adapter-service},1651722561,3024585
{consumergroup=adapter-service},1651722566,3863565
{consumergroup=adapter-service},1651722571,3863565
{consumergroup=adapter-service},1651722576,3863565
{consumergroup=adapter-service},1651722581,4868951
{consumergroup=adapter-service},1651722586,4868951
{consumergroup=adapter-service},1651722591,4868951
{consumergroup=adapter-service},1651722596,5493006
{consumergroup=adapter-service},1651722601,5493006
{consumergroup=adapter-service},1651722606,5493006
{consumergroup=adapter-service},1651722611,5928025
{consumergroup=adapter-service},1651722616,5928025
{consumergroup=adapter-service},1651722621,5928025
{consumergroup=adapter-service},1651722626,6199040
{consumergroup=adapter-service},1651722631,6199040
{consumergroup=adapter-service},1651722636,6199040
{consumergroup=adapter-service},1651722641,6402049
{consumergroup=adapter-service},1651722646,6402049
{consumergroup=adapter-service},1651722651,6402049
{consumergroup=adapter-service},1651722656,6739506
{consumergroup=adapter-service},1651722661,6739506
{consumergroup=adapter-service},1651722666,6739506
{consumergroup=adapter-service},1651722671,6937311
{consumergroup=adapter-service},1651722676,6937311
{consumergroup=adapter-service},1651722681,6937311
{consumergroup=adapter-service},1651722686,7101959
{consumergroup=adapter-service},1651722691,7101959
{consumergroup=adapter-service},1651722696,7101959
{consumergroup=adapter-service},1651722701,7429403
{consumergroup=adapter-service},1651722706,7429403
{consumergroup=adapter-service},1651722711,7429403
{consumergroup=adapter-service},1651722716,7771611
{consumergroup=adapter-service},1651722721,7771611
{consumergroup=adapter-service},1651722726,7771611
{consumergroup=adapter-service},1651722731,7913013
{consumergroup=adapter-service},1651722736,7913013
{consumergroup=adapter-service},1651722741,7913013
{consumergroup=adapter-service},1651722746,8051311
{consumergroup=adapter-service},1651722751,8051311
