labels,timestamp,value
{consumergroup=__strimzi-topic-operator-kstreams},1651700296,17
{consumergroup=__strimzi-topic-operator-kstreams},1651700301,17
{consumergroup=__strimzi-topic-operator-kstreams},1651700306,17
{consumergroup=__strimzi-topic-operator-kstreams},1651700311,0
{consumergroup=__strimzi-topic-operator-kstreams},1651700316,0
{consumergroup=__strimzi-topic-operator-kstreams},1651700321,0
{consumergroup=__strimzi-topic-operator-kstreams},1651700326,0
{consumergroup=__strimzi-topic-operator-kstreams},1651700331,0
{consumergroup=__strimzi-topic-operator-kstreams},1651700336,0
{consumergroup=__strimzi-topic-operator-kstreams},1651700341,0
{consumergroup=__strimzi-topic-operator-kstreams},1651700346,0
{consumergroup=__strimzi-topic-operator-kstreams},1651700351,0
{consumergroup=__strimzi-topic-operator-kstreams},1651700356,0
{consumergroup=__strimzi-topic-operator-kstreams},1651700361,0
{consumergroup=__strimzi-topic-operator-kstreams},1651700366,0
{consumergroup=__strimzi-topic-operator-kstreams},1651700371,0
{consumergroup=__strimzi-topic-operator-kstreams},1651700376,0
{consumergroup=__strimzi-topic-operator-kstreams},1651700381,0
{consumergroup=__strimzi-topic-operator-kstreams},1651700386,0
{consumergroup=__strimzi-topic-operator-kstreams},1651700391,0
{consumergroup=__strimzi-topic-operator-kstreams},1651700396,0
{consumergroup=__strimzi-topic-operator-kstreams},1651700401,0
{consumergroup=__strimzi-topic-operator-kstreams},1651700406,0
{consumergroup=__strimzi-topic-operator-kstreams},1651700411,0
{consumergroup=__strimzi-topic-operator-kstreams},1651700416,0
{consumergroup=__strimzi-topic-operator-kstreams},1651700421,0
{consumergroup=__strimzi-topic-operator-kstreams},1651700426,0
{consumergroup=__strimzi-topic-operator-kstreams},1651700431,0
{consumergroup=__strimzi-topic-operator-kstreams},1651700436,0
{consumergroup=__strimzi-topic-operator-kstreams},1651700441,0
{consumergroup=__strimzi-topic-operator-kstreams},1651700446,0
{consumergroup=__strimzi-topic-operator-kstreams},1651700451,0
{consumergroup=__strimzi-topic-operator-kstreams},1651700456,0
{consumergroup=__strimzi-topic-operator-kstreams},1651700461,0
{consumergroup=__strimzi-topic-operator-kstreams},1651700466,0
{consumergroup=__strimzi-topic-operator-kstreams},1651700471,0
{consumergroup=__strimzi-topic-operator-kstreams},1651700476,0
{consumergroup=__strimzi-topic-operator-kstreams},1651700481,0
{consumergroup=__strimzi-topic-operator-kstreams},1651700486,0
{consumergroup=__strimzi-topic-operator-kstreams},1651700491,0
{consumergroup=__strimzi-topic-operator-kstreams},1651700496,0
{consumergroup=__strimzi-topic-operator-kstreams},1651700501,0
{consumergroup=__strimzi-topic-operator-kstreams},1651700506,0
{consumergroup=__strimzi-topic-operator-kstreams},1651700511,0
{consumergroup=__strimzi-topic-operator-kstreams},1651700516,0
{consumergroup=__strimzi-topic-operator-kstreams},1651700521,0
{consumergroup=__strimzi-topic-operator-kstreams},1651700526,0
{consumergroup=__strimzi-topic-operator-kstreams},1651700531,0
{consumergroup=__strimzi-topic-operator-kstreams},1651700536,0
{consumergroup=__strimzi-topic-operator-kstreams},1651700541,0
{consumergroup=__strimzi-topic-operator-kstreams},1651700546,0
{consumergroup=__strimzi-topic-operator-kstreams},1651700551,0
{consumergroup=adapter-service},1651700326,112396
{consumergroup=adapter-service},1651700331,112396
{consumergroup=adapter-service},1651700336,112396
{consumergroup=adapter-service},1651700341,796395
{consumergroup=adapter-service},1651700346,796395
{consumergroup=adapter-service},1651700351,796395
{consumergroup=adapter-service},1651700356,1245816
{consumergroup=adapter-service},1651700361,1245816
{consumergroup=adapter-service},1651700366,1245816
{consumergroup=adapter-service},1651700371,1541156
{consumergroup=adapter-service},1651700376,1541156
{consumergroup=adapter-service},1651700381,1541156
{consumergroup=adapter-service},1651700386,1784112
{consumergroup=adapter-service},1651700391,1784112
{consumergroup=adapter-service},1651700396,1784112
{consumergroup=adapter-service},1651700401,1899755
{consumergroup=adapter-service},1651700406,1899755
{consumergroup=adapter-service},1651700411,1899755
{consumergroup=adapter-service},1651700416,1885945
{consumergroup=adapter-service},1651700421,1885945
{consumergroup=adapter-service},1651700426,1885945
{consumergroup=adapter-service},1651700431,1723184
{consumergroup=adapter-service},1651700436,1723184
{consumergroup=adapter-service},1651700441,1723184
{consumergroup=adapter-service},1651700446,1518974
{consumergroup=adapter-service},1651700451,1518974
{consumergroup=adapter-service},1651700456,1518974
{consumergroup=adapter-service},1651700461,1263126
{consumergroup=adapter-service},1651700466,1263126
{consumergroup=adapter-service},1651700471,1263126
{consumergroup=adapter-service},1651700476,1005765
{consumergroup=adapter-service},1651700481,1005765
{consumergroup=adapter-service},1651700486,1005765
{consumergroup=adapter-service},1651700491,756792
{consumergroup=adapter-service},1651700496,756792
{consumergroup=adapter-service},1651700501,756792
{consumergroup=adapter-service},1651700506,524500
{consumergroup=adapter-service},1651700511,524500
{consumergroup=adapter-service},1651700516,524500
{consumergroup=adapter-service},1651700521,362473
{consumergroup=adapter-service},1651700526,362473
{consumergroup=adapter-service},1651700531,362473
{consumergroup=adapter-service},1651700536,252520
{consumergroup=adapter-service},1651700541,252520
{consumergroup=adapter-service},1651700546,252520
{consumergroup=adapter-service},1651700551,135631
