labels,timestamp,value
{consumergroup=__strimzi-topic-operator-kstreams},1651698542,7
{consumergroup=__strimzi-topic-operator-kstreams},1651698547,7
{consumergroup=__strimzi-topic-operator-kstreams},1651698552,7
{consumergroup=__strimzi-topic-operator-kstreams},1651698557,24
{consumergroup=__strimzi-topic-operator-kstreams},1651698562,24
{consumergroup=__strimzi-topic-operator-kstreams},1651698567,24
{consumergroup=__strimzi-topic-operator-kstreams},1651698572,0
{consumergroup=__strimzi-topic-operator-kstreams},1651698577,0
{consumergroup=__strimzi-topic-operator-kstreams},1651698582,0
{consumergroup=__strimzi-topic-operator-kstreams},1651698587,0
{consumergroup=__strimzi-topic-operator-kstreams},1651698592,0
{consumergroup=__strimzi-topic-operator-kstreams},1651698597,0
{consumergroup=__strimzi-topic-operator-kstreams},1651698602,0
{consumergroup=__strimzi-topic-operator-kstreams},1651698607,0
{consumergroup=__strimzi-topic-operator-kstreams},1651698612,0
{consumergroup=__strimzi-topic-operator-kstreams},1651698617,0
{consumergroup=__strimzi-topic-operator-kstreams},1651698622,0
{consumergroup=__strimzi-topic-operator-kstreams},1651698627,0
{consumergroup=__strimzi-topic-operator-kstreams},1651698632,0
{consumergroup=__strimzi-topic-operator-kstreams},1651698637,0
{consumergroup=__strimzi-topic-operator-kstreams},1651698642,0
{consumergroup=__strimzi-topic-operator-kstreams},1651698647,0
{consumergroup=__strimzi-topic-operator-kstreams},1651698652,0
{consumergroup=__strimzi-topic-operator-kstreams},1651698657,0
{consumergroup=__strimzi-topic-operator-kstreams},1651698662,0
{consumergroup=__strimzi-topic-operator-kstreams},1651698667,0
{consumergroup=__strimzi-topic-operator-kstreams},1651698672,0
{consumergroup=__strimzi-topic-operator-kstreams},1651698677,0
{consumergroup=__strimzi-topic-operator-kstreams},1651698682,0
{consumergroup=__strimzi-topic-operator-kstreams},1651698687,0
{consumergroup=__strimzi-topic-operator-kstreams},1651698692,0
{consumergroup=__strimzi-topic-operator-kstreams},1651698697,0
{consumergroup=__strimzi-topic-operator-kstreams},1651698702,0
{consumergroup=__strimzi-topic-operator-kstreams},1651698707,0
{consumergroup=__strimzi-topic-operator-kstreams},1651698712,0
{consumergroup=__strimzi-topic-operator-kstreams},1651698717,0
{consumergroup=__strimzi-topic-operator-kstreams},1651698722,0
{consumergroup=__strimzi-topic-operator-kstreams},1651698727,0
{consumergroup=__strimzi-topic-operator-kstreams},1651698732,0
{consumergroup=__strimzi-topic-operator-kstreams},1651698737,0
{consumergroup=__strimzi-topic-operator-kstreams},1651698742,0
{consumergroup=__strimzi-topic-operator-kstreams},1651698747,0
{consumergroup=__strimzi-topic-operator-kstreams},1651698752,0
{consumergroup=__strimzi-topic-operator-kstreams},1651698757,0
{consumergroup=__strimzi-topic-operator-kstreams},1651698762,0
{consumergroup=__strimzi-topic-operator-kstreams},1651698767,0
{consumergroup=__strimzi-topic-operator-kstreams},1651698772,0
{consumergroup=__strimzi-topic-operator-kstreams},1651698777,0
{consumergroup=__strimzi-topic-operator-kstreams},1651698782,0
{consumergroup=__strimzi-topic-operator-kstreams},1651698787,0
{consumergroup=__strimzi-topic-operator-kstreams},1651698792,0
{consumergroup=__strimzi-topic-operator-kstreams},1651698797,0
{consumergroup=adapter-service},1651698542,0
{consumergroup=adapter-service},1651698547,0
{consumergroup=adapter-service},1651698552,0
{consumergroup=adapter-service},1651698572,1822
{consumergroup=adapter-service},1651698577,1822
{consumergroup=adapter-service},1651698582,1822
{consumergroup=adapter-service},1651698587,770542
{consumergroup=adapter-service},1651698592,770542
{consumergroup=adapter-service},1651698597,770542
{consumergroup=adapter-service},1651698602,1250943
{consumergroup=adapter-service},1651698607,1250943
{consumergroup=adapter-service},1651698612,1250943
{consumergroup=adapter-service},1651698617,1754463
{consumergroup=adapter-service},1651698622,1754463
{consumergroup=adapter-service},1651698627,1754463
{consumergroup=adapter-service},1651698632,2215617
{consumergroup=adapter-service},1651698637,2215617
{consumergroup=adapter-service},1651698642,2215617
{consumergroup=adapter-service},1651698647,2476774
{consumergroup=adapter-service},1651698652,2476774
{consumergroup=adapter-service},1651698657,2476774
{consumergroup=adapter-service},1651698662,2828220
{consumergroup=adapter-service},1651698667,2828220
{consumergroup=adapter-service},1651698672,2828220
{consumergroup=adapter-service},1651698677,2806907
{consumergroup=adapter-service},1651698682,2806907
{consumergroup=adapter-service},1651698687,2806907
{consumergroup=adapter-service},1651698692,3004454
{consumergroup=adapter-service},1651698697,3004454
{consumergroup=adapter-service},1651698702,3004454
{consumergroup=adapter-service},1651698707,3025428
{consumergroup=adapter-service},1651698712,3025428
{consumergroup=adapter-service},1651698717,3025428
{consumergroup=adapter-service},1651698722,3018606
{consumergroup=adapter-service},1651698727,3018606
{consumergroup=adapter-service},1651698732,3018606
{consumergroup=adapter-service},1651698737,3015363
{consumergroup=adapter-service},1651698742,3015363
{consumergroup=adapter-service},1651698747,3015363
{consumergroup=adapter-service},1651698752,3020131
{consumergroup=adapter-service},1651698757,3020131
{consumergroup=adapter-service},1651698762,3020131
{consumergroup=adapter-service},1651698767,3046314
{consumergroup=adapter-service},1651698772,3046314
{consumergroup=adapter-service},1651698777,3046314
{consumergroup=adapter-service},1651698782,3035925
{consumergroup=adapter-service},1651698787,3035925
{consumergroup=adapter-service},1651698792,3035925
{consumergroup=adapter-service},1651698797,3032728
