labels,timestamp,value
{consumergroup=__strimzi-topic-operator-kstreams},1651725791,3
{consumergroup=__strimzi-topic-operator-kstreams},1651725796,12
{consumergroup=__strimzi-topic-operator-kstreams},1651725801,12
{consumergroup=__strimzi-topic-operator-kstreams},1651725806,12
{consumergroup=__strimzi-topic-operator-kstreams},1651725811,12
{consumergroup=__strimzi-topic-operator-kstreams},1651725816,12
{consumergroup=__strimzi-topic-operator-kstreams},1651725821,12
{consumergroup=__strimzi-topic-operator-kstreams},1651725826,0
{consumergroup=__strimzi-topic-operator-kstreams},1651725831,0
{consumergroup=__strimzi-topic-operator-kstreams},1651725836,0
{consumergroup=__strimzi-topic-operator-kstreams},1651725841,0
{consumergroup=__strimzi-topic-operator-kstreams},1651725846,0
{consumergroup=__strimzi-topic-operator-kstreams},1651725851,0
{consumergroup=__strimzi-topic-operator-kstreams},1651725856,0
{consumergroup=__strimzi-topic-operator-kstreams},1651725861,0
{consumergroup=__strimzi-topic-operator-kstreams},1651725866,0
{consumergroup=__strimzi-topic-operator-kstreams},1651725871,0
{consumergroup=__strimzi-topic-operator-kstreams},1651725876,0
{consumergroup=__strimzi-topic-operator-kstreams},1651725881,0
{consumergroup=__strimzi-topic-operator-kstreams},1651725886,0
{consumergroup=__strimzi-topic-operator-kstreams},1651725891,0
{consumergroup=__strimzi-topic-operator-kstreams},1651725896,0
{consumergroup=__strimzi-topic-operator-kstreams},1651725901,0
{consumergroup=__strimzi-topic-operator-kstreams},1651725906,0
{consumergroup=__strimzi-topic-operator-kstreams},1651725911,0
{consumergroup=__strimzi-topic-operator-kstreams},1651725916,0
{consumergroup=__strimzi-topic-operator-kstreams},1651725921,0
{consumergroup=__strimzi-topic-operator-kstreams},1651725926,0
{consumergroup=__strimzi-topic-operator-kstreams},1651725931,0
{consumergroup=__strimzi-topic-operator-kstreams},1651725936,0
{consumergroup=__strimzi-topic-operator-kstreams},1651725941,0
{consumergroup=__strimzi-topic-operator-kstreams},1651725946,0
{consumergroup=__strimzi-topic-operator-kstreams},1651725951,0
{consumergroup=__strimzi-topic-operator-kstreams},1651725956,0
{consumergroup=__strimzi-topic-operator-kstreams},1651725961,0
{consumergroup=__strimzi-topic-operator-kstreams},1651725966,0
{consumergroup=__strimzi-topic-operator-kstreams},1651725971,0
{consumergroup=__strimzi-topic-operator-kstreams},1651725976,0
{consumergroup=__strimzi-topic-operator-kstreams},1651725981,0
{consumergroup=__strimzi-topic-operator-kstreams},1651725986,0
{consumergroup=__strimzi-topic-operator-kstreams},1651725991,0
{consumergroup=__strimzi-topic-operator-kstreams},1651725996,0
{consumergroup=__strimzi-topic-operator-kstreams},1651726001,0
{consumergroup=__strimzi-topic-operator-kstreams},1651726006,0
{consumergroup=__strimzi-topic-operator-kstreams},1651726011,0
{consumergroup=__strimzi-topic-operator-kstreams},1651726016,0
{consumergroup=__strimzi-topic-operator-kstreams},1651726021,0
{consumergroup=__strimzi-topic-operator-kstreams},1651726026,0
{consumergroup=__strimzi-topic-operator-kstreams},1651726031,0
{consumergroup=__strimzi-topic-operator-kstreams},1651726036,0
{consumergroup=__strimzi-topic-operator-kstreams},1651726041,0
{consumergroup=__strimzi-topic-operator-kstreams},1651726046,0
{consumergroup=__strimzi-topic-operator-kstreams},1651726051,0
{consumergroup=adapter-service},1651725791,0
{consumergroup=adapter-service},1651725826,442399
{consumergroup=adapter-service},1651725831,442399
{consumergroup=adapter-service},1651725836,442399
{consumergroup=adapter-service},1651725841,1715071
{consumergroup=adapter-service},1651725846,1715071
{consumergroup=adapter-service},1651725851,1715071
{consumergroup=adapter-service},1651725856,2678995
{consumergroup=adapter-service},1651725861,2678995
{consumergroup=adapter-service},1651725866,2678995
{consumergroup=adapter-service},1651725871,3238573
{consumergroup=adapter-service},1651725876,3238573
{consumergroup=adapter-service},1651725881,3238573
{consumergroup=adapter-service},1651725886,3686326
{consumergroup=adapter-service},1651725891,3686326
{consumergroup=adapter-service},1651725896,3686326
{consumergroup=adapter-service},1651725901,3758577
{consumergroup=adapter-service},1651725906,3758577
{consumergroup=adapter-service},1651725911,3758577
{consumergroup=adapter-service},1651725916,3594360
{consumergroup=adapter-service},1651725921,3594360
{consumergroup=adapter-service},1651725926,3594360
{consumergroup=adapter-service},1651725931,3125983
{consumergroup=adapter-service},1651725936,3125983
{consumergroup=adapter-service},1651725941,3125983
{consumergroup=adapter-service},1651725946,2708539
{consumergroup=adapter-service},1651725951,2708539
{consumergroup=adapter-service},1651725956,2708539
{consumergroup=adapter-service},1651725961,2249223
{consumergroup=adapter-service},1651725966,2249223
{consumergroup=adapter-service},1651725971,2249223
{consumergroup=adapter-service},1651725976,1965890
{consumergroup=adapter-service},1651725981,1965890
{consumergroup=adapter-service},1651725986,1965890
{consumergroup=adapter-service},1651725991,1440234
{consumergroup=adapter-service},1651725996,1440234
{consumergroup=adapter-service},1651726001,1440234
{consumergroup=adapter-service},1651726006,1194175
{consumergroup=adapter-service},1651726011,1194175
{consumergroup=adapter-service},1651726016,1194175
{consumergroup=adapter-service},1651726021,990009
{consumergroup=adapter-service},1651726026,990009
{consumergroup=adapter-service},1651726031,990009
{consumergroup=adapter-service},1651726036,767073
{consumergroup=adapter-service},1651726041,767073
{consumergroup=adapter-service},1651726046,767073
{consumergroup=adapter-service},1651726051,671143
