labels,timestamp,value
{consumergroup=__strimzi-topic-operator-kstreams},1651717067,2
{consumergroup=__strimzi-topic-operator-kstreams},1651717072,2
{consumergroup=__strimzi-topic-operator-kstreams},1651717077,2
{consumergroup=__strimzi-topic-operator-kstreams},1651717082,14
{consumergroup=__strimzi-topic-operator-kstreams},1651717087,14
{consumergroup=__strimzi-topic-operator-kstreams},1651717092,14
{consumergroup=__strimzi-topic-operator-kstreams},1651717097,0
{consumergroup=__strimzi-topic-operator-kstreams},1651717102,0
{consumergroup=__strimzi-topic-operator-kstreams},1651717107,0
{consumergroup=__strimzi-topic-operator-kstreams},1651717112,0
{consumergroup=__strimzi-topic-operator-kstreams},1651717117,0
{consumergroup=__strimzi-topic-operator-kstreams},1651717122,0
{consumergroup=__strimzi-topic-operator-kstreams},1651717127,0
{consumergroup=__strimzi-topic-operator-kstreams},1651717132,0
{consumergroup=__strimzi-topic-operator-kstreams},1651717137,0
{consumergroup=__strimzi-topic-operator-kstreams},1651717142,0
{consumergroup=__strimzi-topic-operator-kstreams},1651717147,0
{consumergroup=__strimzi-topic-operator-kstreams},1651717152,0
{consumergroup=__strimzi-topic-operator-kstreams},1651717157,0
{consumergroup=__strimzi-topic-operator-kstreams},1651717162,0
{consumergroup=__strimzi-topic-operator-kstreams},1651717167,0
{consumergroup=__strimzi-topic-operator-kstreams},1651717172,0
{consumergroup=__strimzi-topic-operator-kstreams},1651717177,0
{consumergroup=__strimzi-topic-operator-kstreams},1651717182,0
{consumergroup=__strimzi-topic-operator-kstreams},1651717187,0
{consumergroup=__strimzi-topic-operator-kstreams},1651717192,0
{consumergroup=__strimzi-topic-operator-kstreams},1651717197,0
{consumergroup=__strimzi-topic-operator-kstreams},1651717202,0
{consumergroup=__strimzi-topic-operator-kstreams},1651717207,0
{consumergroup=__strimzi-topic-operator-kstreams},1651717212,0
{consumergroup=__strimzi-topic-operator-kstreams},1651717217,0
{consumergroup=__strimzi-topic-operator-kstreams},1651717222,0
{consumergroup=__strimzi-topic-operator-kstreams},1651717227,0
{consumergroup=__strimzi-topic-operator-kstreams},1651717232,0
{consumergroup=__strimzi-topic-operator-kstreams},1651717237,0
{consumergroup=__strimzi-topic-operator-kstreams},1651717242,0
{consumergroup=__strimzi-topic-operator-kstreams},1651717247,0
{consumergroup=__strimzi-topic-operator-kstreams},1651717252,0
{consumergroup=__strimzi-topic-operator-kstreams},1651717257,0
{consumergroup=__strimzi-topic-operator-kstreams},1651717262,0
{consumergroup=__strimzi-topic-operator-kstreams},1651717267,0
{consumergroup=__strimzi-topic-operator-kstreams},1651717272,0
{consumergroup=__strimzi-topic-operator-kstreams},1651717277,0
{consumergroup=__strimzi-topic-operator-kstreams},1651717282,0
{consumergroup=__strimzi-topic-operator-kstreams},1651717287,0
{consumergroup=__strimzi-topic-operator-kstreams},1651717292,0
{consumergroup=__strimzi-topic-operator-kstreams},1651717297,0
{consumergroup=__strimzi-topic-operator-kstreams},1651717302,0
{consumergroup=__strimzi-topic-operator-kstreams},1651717307,0
{consumergroup=__strimzi-topic-operator-kstreams},1651717312,0
{consumergroup=__strimzi-topic-operator-kstreams},1651717317,0
{consumergroup=__strimzi-topic-operator-kstreams},1651717322,0
{consumergroup=adapter-service},1651717097,0
{consumergroup=adapter-service},1651717102,0
{consumergroup=adapter-service},1651717107,0
{consumergroup=adapter-service},1651717112,1568955
{consumergroup=adapter-service},1651717117,1568955
{consumergroup=adapter-service},1651717122,1568955
{consumergroup=adapter-service},1651717127,2439248
{consumergroup=adapter-service},1651717132,2439248
{consumergroup=adapter-service},1651717137,2439248
{consumergroup=adapter-service},1651717142,3088815
{consumergroup=adapter-service},1651717147,3088815
{consumergroup=adapter-service},1651717152,3088815
{consumergroup=adapter-service},1651717157,3466612
{consumergroup=adapter-service},1651717162,3466612
{consumergroup=adapter-service},1651717167,3466612
{consumergroup=adapter-service},1651717172,3535098
{consumergroup=adapter-service},1651717177,3535098
{consumergroup=adapter-service},1651717182,3535098
{consumergroup=adapter-service},1651717187,3339152
{consumergroup=adapter-service},1651717192,3339152
{consumergroup=adapter-service},1651717197,3339152
{consumergroup=adapter-service},1651717202,3047087
{consumergroup=adapter-service},1651717207,3047087
{consumergroup=adapter-service},1651717212,3047087
{consumergroup=adapter-service},1651717217,2779667
{consumergroup=adapter-service},1651717222,2779667
{consumergroup=adapter-service},1651717227,2779667
{consumergroup=adapter-service},1651717232,2309608
{consumergroup=adapter-service},1651717237,2309608
{consumergroup=adapter-service},1651717242,2309608
{consumergroup=adapter-service},1651717247,1936684
{consumergroup=adapter-service},1651717252,1936684
{consumergroup=adapter-service},1651717257,1936684
{consumergroup=adapter-service},1651717262,1767321
{consumergroup=adapter-service},1651717267,1767321
{consumergroup=adapter-service},1651717272,1767321
{consumergroup=adapter-service},1651717277,1402629
{consumergroup=adapter-service},1651717282,1402629
{consumergroup=adapter-service},1651717287,1402629
{consumergroup=adapter-service},1651717292,1206657
{consumergroup=adapter-service},1651717297,1206657
{consumergroup=adapter-service},1651717302,1206657
{consumergroup=adapter-service},1651717307,1018168
{consumergroup=adapter-service},1651717312,1018168
{consumergroup=adapter-service},1651717317,1018168
{consumergroup=adapter-service},1651717322,794022
