labels,timestamp,value
{consumergroup=__strimzi-topic-operator-kstreams},1651727616,8
{consumergroup=__strimzi-topic-operator-kstreams},1651727621,16
{consumergroup=__strimzi-topic-operator-kstreams},1651727626,8
{consumergroup=__strimzi-topic-operator-kstreams},1651727631,8
{consumergroup=__strimzi-topic-operator-kstreams},1651727636,8
{consumergroup=__strimzi-topic-operator-kstreams},1651727641,8
{consumergroup=__strimzi-topic-operator-kstreams},1651727646,8
{consumergroup=__strimzi-topic-operator-kstreams},1651727651,0
{consumergroup=__strimzi-topic-operator-kstreams},1651727656,0
{consumergroup=__strimzi-topic-operator-kstreams},1651727661,0
{consumergroup=__strimzi-topic-operator-kstreams},1651727666,0
{consumergroup=__strimzi-topic-operator-kstreams},1651727671,0
{consumergroup=__strimzi-topic-operator-kstreams},1651727676,0
{consumergroup=__strimzi-topic-operator-kstreams},1651727681,0
{consumergroup=__strimzi-topic-operator-kstreams},1651727686,0
{consumergroup=__strimzi-topic-operator-kstreams},1651727691,0
{consumergroup=__strimzi-topic-operator-kstreams},1651727696,0
{consumergroup=__strimzi-topic-operator-kstreams},1651727701,0
{consumergroup=__strimzi-topic-operator-kstreams},1651727706,0
{consumergroup=__strimzi-topic-operator-kstreams},1651727711,0
{consumergroup=__strimzi-topic-operator-kstreams},1651727716,0
{consumergroup=__strimzi-topic-operator-kstreams},1651727721,0
{consumergroup=__strimzi-topic-operator-kstreams},1651727726,0
{consumergroup=__strimzi-topic-operator-kstreams},1651727731,0
{consumergroup=__strimzi-topic-operator-kstreams},1651727736,0
{consumergroup=__strimzi-topic-operator-kstreams},1651727741,0
{consumergroup=__strimzi-topic-operator-kstreams},1651727746,0
{consumergroup=__strimzi-topic-operator-kstreams},1651727751,0
{consumergroup=__strimzi-topic-operator-kstreams},1651727756,0
{consumergroup=__strimzi-topic-operator-kstreams},1651727761,0
{consumergroup=__strimzi-topic-operator-kstreams},1651727766,0
{consumergroup=__strimzi-topic-operator-kstreams},1651727771,0
{consumergroup=__strimzi-topic-operator-kstreams},1651727776,0
{consumergroup=__strimzi-topic-operator-kstreams},1651727781,0
{consumergroup=__strimzi-topic-operator-kstreams},1651727786,0
{consumergroup=__strimzi-topic-operator-kstreams},1651727791,0
{consumergroup=__strimzi-topic-operator-kstreams},1651727796,0
{consumergroup=__strimzi-topic-operator-kstreams},1651727801,0
{consumergroup=__strimzi-topic-operator-kstreams},1651727806,0
{consumergroup=__strimzi-topic-operator-kstreams},1651727811,0
{consumergroup=__strimzi-topic-operator-kstreams},1651727816,0
{consumergroup=__strimzi-topic-operator-kstreams},1651727821,0
{consumergroup=__strimzi-topic-operator-kstreams},1651727826,0
{consumergroup=__strimzi-topic-operator-kstreams},1651727831,0
{consumergroup=__strimzi-topic-operator-kstreams},1651727836,0
{consumergroup=__strimzi-topic-operator-kstreams},1651727841,0
{consumergroup=__strimzi-topic-operator-kstreams},1651727846,0
{consumergroup=__strimzi-topic-operator-kstreams},1651727851,0
{consumergroup=__strimzi-topic-operator-kstreams},1651727856,0
{consumergroup=__strimzi-topic-operator-kstreams},1651727861,0
{consumergroup=__strimzi-topic-operator-kstreams},1651727866,0
{consumergroup=__strimzi-topic-operator-kstreams},1651727871,0
{consumergroup=__strimzi-topic-operator-kstreams},1651727876,0
{consumergroup=adapter-service},1651727651,675626
{consumergroup=adapter-service},1651727656,675626
{consumergroup=adapter-service},1651727661,675626
{consumergroup=adapter-service},1651727666,2505957
{consumergroup=adapter-service},1651727671,2505957
{consumergroup=adapter-service},1651727676,2505957
{consumergroup=adapter-service},1651727681,3559608
{consumergroup=adapter-service},1651727686,3559608
{consumergroup=adapter-service},1651727691,3559608
{consumergroup=adapter-service},1651727696,4550381
{consumergroup=adapter-service},1651727701,4550381
{consumergroup=adapter-service},1651727706,4550381
{consumergroup=adapter-service},1651727711,5329666
{consumergroup=adapter-service},1651727716,5329666
{consumergroup=adapter-service},1651727721,5329666
{consumergroup=adapter-service},1651727726,5813857
{consumergroup=adapter-service},1651727731,5813857
{consumergroup=adapter-service},1651727736,5813857
{consumergroup=adapter-service},1651727741,6015785
{consumergroup=adapter-service},1651727746,6015785
{consumergroup=adapter-service},1651727751,6015785
{consumergroup=adapter-service},1651727756,6243827
{consumergroup=adapter-service},1651727761,6243827
{consumergroup=adapter-service},1651727766,6243827
{consumergroup=adapter-service},1651727771,6249125
{consumergroup=adapter-service},1651727776,6249125
{consumergroup=adapter-service},1651727781,6249125
{consumergroup=adapter-service},1651727786,6413289
{consumergroup=adapter-service},1651727791,6413289
{consumergroup=adapter-service},1651727796,6413289
{consumergroup=adapter-service},1651727801,6423889
{consumergroup=adapter-service},1651727806,6423889
{consumergroup=adapter-service},1651727811,6423889
{consumergroup=adapter-service},1651727816,6724868
{consumergroup=adapter-service},1651727821,6724868
{consumergroup=adapter-service},1651727826,6724868
{consumergroup=adapter-service},1651727831,6897408
{consumergroup=adapter-service},1651727836,6897408
{consumergroup=adapter-service},1651727841,6897408
{consumergroup=adapter-service},1651727846,6946804
{consumergroup=adapter-service},1651727851,6946804
{consumergroup=adapter-service},1651727856,6946804
{consumergroup=adapter-service},1651727861,7067338
{consumergroup=adapter-service},1651727866,7067338
{consumergroup=adapter-service},1651727871,7067338
{consumergroup=adapter-service},1651727876,7274755
