labels,timestamp,value
{consumergroup=__strimzi-topic-operator-kstreams},1651731867,10
{consumergroup=__strimzi-topic-operator-kstreams},1651731872,10
{consumergroup=__strimzi-topic-operator-kstreams},1651731877,10
{consumergroup=__strimzi-topic-operator-kstreams},1651731882,11
{consumergroup=__strimzi-topic-operator-kstreams},1651731887,11
{consumergroup=__strimzi-topic-operator-kstreams},1651731892,11
{consumergroup=__strimzi-topic-operator-kstreams},1651731897,0
{consumergroup=__strimzi-topic-operator-kstreams},1651731902,0
{consumergroup=__strimzi-topic-operator-kstreams},1651731907,0
{consumergroup=__strimzi-topic-operator-kstreams},1651731912,0
{consumergroup=__strimzi-topic-operator-kstreams},1651731917,0
{consumergroup=__strimzi-topic-operator-kstreams},1651731922,0
{consumergroup=__strimzi-topic-operator-kstreams},1651731927,0
{consumergroup=__strimzi-topic-operator-kstreams},1651731932,0
{consumergroup=__strimzi-topic-operator-kstreams},1651731937,0
{consumergroup=__strimzi-topic-operator-kstreams},1651731942,0
{consumergroup=__strimzi-topic-operator-kstreams},1651731947,0
{consumergroup=__strimzi-topic-operator-kstreams},1651731952,0
{consumergroup=__strimzi-topic-operator-kstreams},1651731957,0
{consumergroup=__strimzi-topic-operator-kstreams},1651731962,0
{consumergroup=__strimzi-topic-operator-kstreams},1651731967,0
{consumergroup=__strimzi-topic-operator-kstreams},1651731972,0
{consumergroup=__strimzi-topic-operator-kstreams},1651731977,0
{consumergroup=__strimzi-topic-operator-kstreams},1651731982,0
{consumergroup=__strimzi-topic-operator-kstreams},1651731987,0
{consumergroup=__strimzi-topic-operator-kstreams},1651731992,0
{consumergroup=__strimzi-topic-operator-kstreams},1651731997,0
{consumergroup=__strimzi-topic-operator-kstreams},1651732002,0
{consumergroup=__strimzi-topic-operator-kstreams},1651732007,0
{consumergroup=__strimzi-topic-operator-kstreams},1651732012,0
{consumergroup=__strimzi-topic-operator-kstreams},1651732017,0
{consumergroup=__strimzi-topic-operator-kstreams},1651732022,0
{consumergroup=__strimzi-topic-operator-kstreams},1651732027,0
{consumergroup=__strimzi-topic-operator-kstreams},1651732032,0
{consumergroup=__strimzi-topic-operator-kstreams},1651732037,0
{consumergroup=__strimzi-topic-operator-kstreams},1651732042,0
{consumergroup=__strimzi-topic-operator-kstreams},1651732047,0
{consumergroup=__strimzi-topic-operator-kstreams},1651732052,0
{consumergroup=__strimzi-topic-operator-kstreams},1651732057,0
{consumergroup=__strimzi-topic-operator-kstreams},1651732062,0
{consumergroup=__strimzi-topic-operator-kstreams},1651732067,0
{consumergroup=__strimzi-topic-operator-kstreams},1651732072,0
{consumergroup=__strimzi-topic-operator-kstreams},1651732077,0
{consumergroup=__strimzi-topic-operator-kstreams},1651732082,0
{consumergroup=__strimzi-topic-operator-kstreams},1651732087,0
{consumergroup=__strimzi-topic-operator-kstreams},1651732092,0
{consumergroup=__strimzi-topic-operator-kstreams},1651732097,0
{consumergroup=__strimzi-topic-operator-kstreams},1651732102,0
{consumergroup=__strimzi-topic-operator-kstreams},1651732107,0
{consumergroup=__strimzi-topic-operator-kstreams},1651732112,0
{consumergroup=__strimzi-topic-operator-kstreams},1651732117,0
{consumergroup=__strimzi-topic-operator-kstreams},1651732122,0
{consumergroup=adapter-service},1651731897,310516
{consumergroup=adapter-service},1651731902,310516
{consumergroup=adapter-service},1651731907,310516
{consumergroup=adapter-service},1651731912,2584513
{consumergroup=adapter-service},1651731917,2584513
{consumergroup=adapter-service},1651731922,2584513
{consumergroup=adapter-service},1651731927,3892234
{consumergroup=adapter-service},1651731932,3892234
{consumergroup=adapter-service},1651731937,3892234
{consumergroup=adapter-service},1651731942,4989055
{consumergroup=adapter-service},1651731947,4989055
{consumergroup=adapter-service},1651731952,4989055
{consumergroup=adapter-service},1651731957,6035930
{consumergroup=adapter-service},1651731962,6035930
{consumergroup=adapter-service},1651731967,6035930
{consumergroup=adapter-service},1651731972,6645190
{consumergroup=adapter-service},1651731977,6645190
{consumergroup=adapter-service},1651731982,6645190
{consumergroup=adapter-service},1651731987,6995048
{consumergroup=adapter-service},1651731992,6995048
{consumergroup=adapter-service},1651731997,6995048
{consumergroup=adapter-service},1651732002,6987154
{consumergroup=adapter-service},1651732007,6987154
{consumergroup=adapter-service},1651732012,6987154
{consumergroup=adapter-service},1651732017,7036832
{consumergroup=adapter-service},1651732022,7036832
{consumergroup=adapter-service},1651732027,7036832
{consumergroup=adapter-service},1651732032,6965318
{consumergroup=adapter-service},1651732037,6965318
{consumergroup=adapter-service},1651732042,6965318
{consumergroup=adapter-service},1651732047,6864596
{consumergroup=adapter-service},1651732052,6864596
{consumergroup=adapter-service},1651732057,6864596
{consumergroup=adapter-service},1651732062,6924093
{consumergroup=adapter-service},1651732067,6924093
{consumergroup=adapter-service},1651732072,6924093
{consumergroup=adapter-service},1651732077,6870532
{consumergroup=adapter-service},1651732082,6870532
{consumergroup=adapter-service},1651732087,6870532
{consumergroup=adapter-service},1651732092,6643170
{consumergroup=adapter-service},1651732097,6643170
{consumergroup=adapter-service},1651732102,6643170
{consumergroup=adapter-service},1651732107,6564076
{consumergroup=adapter-service},1651732112,6564076
{consumergroup=adapter-service},1651732117,6564076
{consumergroup=adapter-service},1651732122,6596442
