labels,timestamp,value
{consumergroup=__strimzi-topic-operator-kstreams},1651706183,8
{consumergroup=__strimzi-topic-operator-kstreams},1651706188,8
{consumergroup=__strimzi-topic-operator-kstreams},1651706193,8
{consumergroup=__strimzi-topic-operator-kstreams},1651706198,22
{consumergroup=__strimzi-topic-operator-kstreams},1651706203,22
{consumergroup=__strimzi-topic-operator-kstreams},1651706208,22
{consumergroup=__strimzi-topic-operator-kstreams},1651706213,0
{consumergroup=__strimzi-topic-operator-kstreams},1651706218,0
{consumergroup=__strimzi-topic-operator-kstreams},1651706223,0
{consumergroup=__strimzi-topic-operator-kstreams},1651706228,0
{consumergroup=__strimzi-topic-operator-kstreams},1651706233,0
{consumergroup=__strimzi-topic-operator-kstreams},1651706238,0
{consumergroup=__strimzi-topic-operator-kstreams},1651706243,0
{consumergroup=__strimzi-topic-operator-kstreams},1651706248,0
{consumergroup=__strimzi-topic-operator-kstreams},1651706253,0
{consumergroup=__strimzi-topic-operator-kstreams},1651706258,0
{consumergroup=__strimzi-topic-operator-kstreams},1651706263,0
{consumergroup=__strimzi-topic-operator-kstreams},1651706268,0
{consumergroup=__strimzi-topic-operator-kstreams},1651706273,0
{consumergroup=__strimzi-topic-operator-kstreams},1651706278,0
{consumergroup=__strimzi-topic-operator-kstreams},1651706283,0
{consumergroup=__strimzi-topic-operator-kstreams},1651706288,0
{consumergroup=__strimzi-topic-operator-kstreams},1651706293,0
{consumergroup=__strimzi-topic-operator-kstreams},1651706298,0
{consumergroup=__strimzi-topic-operator-kstreams},1651706303,0
{consumergroup=__strimzi-topic-operator-kstreams},1651706308,0
{consumergroup=__strimzi-topic-operator-kstreams},1651706313,0
{consumergroup=__strimzi-topic-operator-kstreams},1651706318,0
{consumergroup=__strimzi-topic-operator-kstreams},1651706323,0
{consumergroup=__strimzi-topic-operator-kstreams},1651706328,0
{consumergroup=__strimzi-topic-operator-kstreams},1651706333,0
{consumergroup=__strimzi-topic-operator-kstreams},1651706338,0
{consumergroup=__strimzi-topic-operator-kstreams},1651706343,0
{consumergroup=__strimzi-topic-operator-kstreams},1651706348,0
{consumergroup=__strimzi-topic-operator-kstreams},1651706353,0
{consumergroup=__strimzi-topic-operator-kstreams},1651706358,0
{consumergroup=__strimzi-topic-operator-kstreams},1651706363,0
{consumergroup=__strimzi-topic-operator-kstreams},1651706368,0
{consumergroup=__strimzi-topic-operator-kstreams},1651706373,0
{consumergroup=__strimzi-topic-operator-kstreams},1651706378,0
{consumergroup=__strimzi-topic-operator-kstreams},1651706383,0
{consumergroup=__strimzi-topic-operator-kstreams},1651706388,0
{consumergroup=__strimzi-topic-operator-kstreams},1651706393,0
{consumergroup=__strimzi-topic-operator-kstreams},1651706398,0
{consumergroup=__strimzi-topic-operator-kstreams},1651706403,0
{consumergroup=__strimzi-topic-operator-kstreams},1651706408,0
{consumergroup=__strimzi-topic-operator-kstreams},1651706413,0
{consumergroup=__strimzi-topic-operator-kstreams},1651706418,0
{consumergroup=__strimzi-topic-operator-kstreams},1651706423,0
{consumergroup=__strimzi-topic-operator-kstreams},1651706428,0
{consumergroup=__strimzi-topic-operator-kstreams},1651706433,0
{consumergroup=__strimzi-topic-operator-kstreams},1651706438,0
{consumergroup=adapter-service},1651706213,511
{consumergroup=adapter-service},1651706218,511
{consumergroup=adapter-service},1651706223,511
{consumergroup=adapter-service},1651706228,1507503
{consumergroup=adapter-service},1651706233,1507503
{consumergroup=adapter-service},1651706238,1507503
{consumergroup=adapter-service},1651706243,2375746
{consumergroup=adapter-service},1651706248,2375746
{consumergroup=adapter-service},1651706253,2375746
{consumergroup=adapter-service},1651706258,3238872
{consumergroup=adapter-service},1651706263,3238872
{consumergroup=adapter-service},1651706268,3238872
{consumergroup=adapter-service},1651706273,3807212
{consumergroup=adapter-service},1651706278,3807212
{consumergroup=adapter-service},1651706283,3807212
{consumergroup=adapter-service},1651706288,4313217
{consumergroup=adapter-service},1651706293,4313217
{consumergroup=adapter-service},1651706298,4313217
{consumergroup=adapter-service},1651706303,4430347
{consumergroup=adapter-service},1651706308,4430347
{consumergroup=adapter-service},1651706313,4430347
{consumergroup=adapter-service},1651706318,4761739
{consumergroup=adapter-service},1651706323,4761739
{consumergroup=adapter-service},1651706328,4761739
{consumergroup=adapter-service},1651706333,4760532
{consumergroup=adapter-service},1651706338,4760532
{consumergroup=adapter-service},1651706343,4760532
{consumergroup=adapter-service},1651706348,5062209
{consumergroup=adapter-service},1651706353,5062209
{consumergroup=adapter-service},1651706358,5062209
{consumergroup=adapter-service},1651706363,5186701
{consumergroup=adapter-service},1651706368,5186701
{consumergroup=adapter-service},1651706373,5186701
{consumergroup=adapter-service},1651706378,5424747
{consumergroup=adapter-service},1651706383,5424747
{consumergroup=adapter-service},1651706388,5424747
{consumergroup=adapter-service},1651706393,5521799
{consumergroup=adapter-service},1651706398,5521799
{consumergroup=adapter-service},1651706403,5521799
{consumergroup=adapter-service},1651706408,5747225
{consumergroup=adapter-service},1651706413,5747225
{consumergroup=adapter-service},1651706418,5747225
{consumergroup=adapter-service},1651706423,5909898
{consumergroup=adapter-service},1651706428,5909898
{consumergroup=adapter-service},1651706433,5909898
{consumergroup=adapter-service},1651706438,5983500
