labels,timestamp,value
{consumergroup=__strimzi-topic-operator-kstreams},1651722202,0
{consumergroup=__strimzi-topic-operator-kstreams},1651722207,0
{consumergroup=__strimzi-topic-operator-kstreams},1651722212,0
{consumergroup=__strimzi-topic-operator-kstreams},1651722217,0
{consumergroup=__strimzi-topic-operator-kstreams},1651722222,0
{consumergroup=__strimzi-topic-operator-kstreams},1651722227,0
{consumergroup=__strimzi-topic-operator-kstreams},1651722232,0
{consumergroup=__strimzi-topic-operator-kstreams},1651722237,0
{consumergroup=__strimzi-topic-operator-kstreams},1651722242,0
{consumergroup=__strimzi-topic-operator-kstreams},1651722247,0
{consumergroup=__strimzi-topic-operator-kstreams},1651722252,0
{consumergroup=__strimzi-topic-operator-kstreams},1651722257,0
{consumergroup=__strimzi-topic-operator-kstreams},1651722262,0
{consumergroup=__strimzi-topic-operator-kstreams},1651722267,0
{consumergroup=__strimzi-topic-operator-kstreams},1651722272,0
{consumergroup=__strimzi-topic-operator-kstreams},1651722277,0
{consumergroup=__strimzi-topic-operator-kstreams},1651722282,0
{consumergroup=__strimzi-topic-operator-kstreams},1651722287,0
{consumergroup=__strimzi-topic-operator-kstreams},1651722292,0
{consumergroup=__strimzi-topic-operator-kstreams},1651722297,0
{consumergroup=__strimzi-topic-operator-kstreams},1651722302,0
{consumergroup=__strimzi-topic-operator-kstreams},1651722307,0
{consumergroup=__strimzi-topic-operator-kstreams},1651722312,0
{consumergroup=__strimzi-topic-operator-kstreams},1651722317,0
{consumergroup=__strimzi-topic-operator-kstreams},1651722322,0
{consumergroup=__strimzi-topic-operator-kstreams},1651722327,0
{consumergroup=__strimzi-topic-operator-kstreams},1651722332,0
{consumergroup=__strimzi-topic-operator-kstreams},1651722337,0
{consumergroup=__strimzi-topic-operator-kstreams},1651722342,0
{consumergroup=__strimzi-topic-operator-kstreams},1651722347,0
{consumergroup=__strimzi-topic-operator-kstreams},1651722352,0
{consumergroup=__strimzi-topic-operator-kstreams},1651722357,0
{consumergroup=__strimzi-topic-operator-kstreams},1651722362,0
{consumergroup=__strimzi-topic-operator-kstreams},1651722367,0
{consumergroup=__strimzi-topic-operator-kstreams},1651722372,0
{consumergroup=__strimzi-topic-operator-kstreams},1651722377,0
{consumergroup=__strimzi-topic-operator-kstreams},1651722382,0
{consumergroup=__strimzi-topic-operator-kstreams},1651722387,0
{consumergroup=__strimzi-topic-operator-kstreams},1651722392,0
{consumergroup=__strimzi-topic-operator-kstreams},1651722397,0
{consumergroup=__strimzi-topic-operator-kstreams},1651722402,0
{consumergroup=__strimzi-topic-operator-kstreams},1651722407,0
{consumergroup=__strimzi-topic-operator-kstreams},1651722412,0
{consumergroup=__strimzi-topic-operator-kstreams},1651722417,0
{consumergroup=__strimzi-topic-operator-kstreams},1651722422,0
{consumergroup=__strimzi-topic-operator-kstreams},1651722427,0
{consumergroup=__strimzi-topic-operator-kstreams},1651722432,0
{consumergroup=__strimzi-topic-operator-kstreams},1651722437,0
{consumergroup=__strimzi-topic-operator-kstreams},1651722442,0
{consumergroup=__strimzi-topic-operator-kstreams},1651722447,0
{consumergroup=__strimzi-topic-operator-kstreams},1651722452,0
{consumergroup=adapter-service},1651722232,1428203
{consumergroup=adapter-service},1651722237,1428203
{consumergroup=adapter-service},1651722242,1428203
{consumergroup=adapter-service},1651722247,2813462
{consumergroup=adapter-service},1651722252,2813462
{consumergroup=adapter-service},1651722257,2813462
{consumergroup=adapter-service},1651722262,3992719
{consumergroup=adapter-service},1651722267,3992719
{consumergroup=adapter-service},1651722272,3992719
{consumergroup=adapter-service},1651722277,4947954
{consumergroup=adapter-service},1651722282,4947954
{consumergroup=adapter-service},1651722287,4947954
{consumergroup=adapter-service},1651722292,5585939
{consumergroup=adapter-service},1651722297,5585939
{consumergroup=adapter-service},1651722302,5585939
{consumergroup=adapter-service},1651722307,6230694
{consumergroup=adapter-service},1651722312,6230694
{consumergroup=adapter-service},1651722317,6230694
{consumergroup=adapter-service},1651722322,6527178
{consumergroup=adapter-service},1651722327,6527178
{consumergroup=adapter-service},1651722332,6527178
{consumergroup=adapter-service},1651722337,7031202
{consumergroup=adapter-service},1651722342,7031202
{consumergroup=adapter-service},1651722347,7031202
{consumergroup=adapter-service},1651722352,7194422
{consumergroup=adapter-service},1651722357,7194422
{consumergroup=adapter-service},1651722362,7194422
{consumergroup=adapter-service},1651722367,7712046
{consumergroup=adapter-service},1651722372,7712046
{consumergroup=adapter-service},1651722377,7712046
{consumergroup=adapter-service},1651722382,7953031
{consumergroup=adapter-service},1651722387,7953031
{consumergroup=adapter-service},1651722392,7953031
{consumergroup=adapter-service},1651722397,8242753
{consumergroup=adapter-service},1651722402,8242753
{consumergroup=adapter-service},1651722407,8242753
{consumergroup=adapter-service},1651722412,8550394
{consumergroup=adapter-service},1651722417,8550394
{consumergroup=adapter-service},1651722422,8550394
{consumergroup=adapter-service},1651722427,8862588
{consumergroup=adapter-service},1651722432,8862588
{consumergroup=adapter-service},1651722437,8862588
{consumergroup=adapter-service},1651722442,9101524
{consumergroup=adapter-service},1651722447,9101524
{consumergroup=adapter-service},1651722452,9101524
