labels,timestamp,value
{consumergroup=__strimzi-topic-operator-kstreams},1651718276,0
{consumergroup=__strimzi-topic-operator-kstreams},1651718281,12
{consumergroup=__strimzi-topic-operator-kstreams},1651718286,12
{consumergroup=__strimzi-topic-operator-kstreams},1651718291,12
{consumergroup=__strimzi-topic-operator-kstreams},1651718296,0
{consumergroup=__strimzi-topic-operator-kstreams},1651718301,0
{consumergroup=__strimzi-topic-operator-kstreams},1651718306,0
{consumergroup=__strimzi-topic-operator-kstreams},1651718311,0
{consumergroup=__strimzi-topic-operator-kstreams},1651718316,0
{consumergroup=__strimzi-topic-operator-kstreams},1651718321,0
{consumergroup=__strimzi-topic-operator-kstreams},1651718326,0
{consumergroup=__strimzi-topic-operator-kstreams},1651718331,0
{consumergroup=__strimzi-topic-operator-kstreams},1651718336,0
{consumergroup=__strimzi-topic-operator-kstreams},1651718341,0
{consumergroup=__strimzi-topic-operator-kstreams},1651718346,0
{consumergroup=__strimzi-topic-operator-kstreams},1651718351,0
{consumergroup=__strimzi-topic-operator-kstreams},1651718356,0
{consumergroup=__strimzi-topic-operator-kstreams},1651718361,0
{consumergroup=__strimzi-topic-operator-kstreams},1651718366,0
{consumergroup=__strimzi-topic-operator-kstreams},1651718371,0
{consumergroup=__strimzi-topic-operator-kstreams},1651718376,0
{consumergroup=__strimzi-topic-operator-kstreams},1651718381,0
{consumergroup=__strimzi-topic-operator-kstreams},1651718386,0
{consumergroup=__strimzi-topic-operator-kstreams},1651718391,0
{consumergroup=__strimzi-topic-operator-kstreams},1651718396,0
{consumergroup=__strimzi-topic-operator-kstreams},1651718401,0
{consumergroup=__strimzi-topic-operator-kstreams},1651718406,0
{consumergroup=__strimzi-topic-operator-kstreams},1651718411,0
{consumergroup=__strimzi-topic-operator-kstreams},1651718416,0
{consumergroup=__strimzi-topic-operator-kstreams},1651718421,0
{consumergroup=__strimzi-topic-operator-kstreams},1651718426,0
{consumergroup=__strimzi-topic-operator-kstreams},1651718431,0
{consumergroup=__strimzi-topic-operator-kstreams},1651718436,0
{consumergroup=__strimzi-topic-operator-kstreams},1651718441,0
{consumergroup=__strimzi-topic-operator-kstreams},1651718446,0
{consumergroup=__strimzi-topic-operator-kstreams},1651718451,0
{consumergroup=__strimzi-topic-operator-kstreams},1651718456,0
{consumergroup=__strimzi-topic-operator-kstreams},1651718461,0
{consumergroup=__strimzi-topic-operator-kstreams},1651718466,0
{consumergroup=__strimzi-topic-operator-kstreams},1651718471,0
{consumergroup=__strimzi-topic-operator-kstreams},1651718476,0
{consumergroup=__strimzi-topic-operator-kstreams},1651718481,0
{consumergroup=__strimzi-topic-operator-kstreams},1651718486,0
{consumergroup=__strimzi-topic-operator-kstreams},1651718491,0
{consumergroup=__strimzi-topic-operator-kstreams},1651718496,0
{consumergroup=__strimzi-topic-operator-kstreams},1651718501,0
{consumergroup=__strimzi-topic-operator-kstreams},1651718506,0
{consumergroup=__strimzi-topic-operator-kstreams},1651718511,0
{consumergroup=__strimzi-topic-operator-kstreams},1651718516,0
{consumergroup=__strimzi-topic-operator-kstreams},1651718521,0
{consumergroup=__strimzi-topic-operator-kstreams},1651718526,0
{consumergroup=__strimzi-topic-operator-kstreams},1651718531,0
{consumergroup=__strimzi-topic-operator-kstreams},1651718536,0
{consumergroup=adapter-service},1651718276,0
{consumergroup=adapter-service},1651718311,493195
{consumergroup=adapter-service},1651718316,493195
{consumergroup=adapter-service},1651718321,493195
{consumergroup=adapter-service},1651718326,2081359
{consumergroup=adapter-service},1651718331,2081359
{consumergroup=adapter-service},1651718336,2081359
{consumergroup=adapter-service},1651718341,3126922
{consumergroup=adapter-service},1651718346,3126922
{consumergroup=adapter-service},1651718351,3126922
{consumergroup=adapter-service},1651718356,3887633
{consumergroup=adapter-service},1651718361,3887633
{consumergroup=adapter-service},1651718366,3887633
{consumergroup=adapter-service},1651718371,4460977
{consumergroup=adapter-service},1651718376,4460977
{consumergroup=adapter-service},1651718381,4460977
{consumergroup=adapter-service},1651718386,4679341
{consumergroup=adapter-service},1651718391,4679341
{consumergroup=adapter-service},1651718396,4679341
{consumergroup=adapter-service},1651718401,4789802
{consumergroup=adapter-service},1651718406,4789802
{consumergroup=adapter-service},1651718411,4789802
{consumergroup=adapter-service},1651718416,4908419
{consumergroup=adapter-service},1651718421,4908419
{consumergroup=adapter-service},1651718426,4908419
{consumergroup=adapter-service},1651718431,5167484
{consumergroup=adapter-service},1651718436,5167484
{consumergroup=adapter-service},1651718441,5167484
{consumergroup=adapter-service},1651718446,5074839
{consumergroup=adapter-service},1651718451,5074839
{consumergroup=adapter-service},1651718456,5074839
{consumergroup=adapter-service},1651718461,4992421
{consumergroup=adapter-service},1651718466,4992421
{consumergroup=adapter-service},1651718471,4992421
{consumergroup=adapter-service},1651718476,4881354
{consumergroup=adapter-service},1651718481,4881354
{consumergroup=adapter-service},1651718486,4881354
{consumergroup=adapter-service},1651718491,4784593
{consumergroup=adapter-service},1651718496,4784593
{consumergroup=adapter-service},1651718501,4784593
{consumergroup=adapter-service},1651718506,4801851
{consumergroup=adapter-service},1651718511,4801851
{consumergroup=adapter-service},1651718516,4801851
{consumergroup=adapter-service},1651718521,4875204
{consumergroup=adapter-service},1651718526,4875204
{consumergroup=adapter-service},1651718531,4875204
{consumergroup=adapter-service},1651718536,4759222
