labels,timestamp,value
{consumergroup=__strimzi-topic-operator-kstreams},1651696222,10
{consumergroup=__strimzi-topic-operator-kstreams},1651696227,10
{consumergroup=__strimzi-topic-operator-kstreams},1651696232,10
{consumergroup=__strimzi-topic-operator-kstreams},1651696237,10
{consumergroup=__strimzi-topic-operator-kstreams},1651696242,10
{consumergroup=__strimzi-topic-operator-kstreams},1651696247,10
{consumergroup=__strimzi-topic-operator-kstreams},1651696252,0
{consumergroup=__strimzi-topic-operator-kstreams},1651696257,0
{consumergroup=__strimzi-topic-operator-kstreams},1651696262,0
{consumergroup=__strimzi-topic-operator-kstreams},1651696267,0
{consumergroup=__strimzi-topic-operator-kstreams},1651696272,0
{consumergroup=__strimzi-topic-operator-kstreams},1651696277,0
{consumergroup=__strimzi-topic-operator-kstreams},1651696282,0
{consumergroup=__strimzi-topic-operator-kstreams},1651696287,0
{consumergroup=__strimzi-topic-operator-kstreams},1651696292,0
{consumergroup=__strimzi-topic-operator-kstreams},1651696297,0
{consumergroup=__strimzi-topic-operator-kstreams},1651696302,0
{consumergroup=__strimzi-topic-operator-kstreams},1651696307,0
{consumergroup=__strimzi-topic-operator-kstreams},1651696312,0
{consumergroup=__strimzi-topic-operator-kstreams},1651696317,0
{consumergroup=__strimzi-topic-operator-kstreams},1651696322,0
{consumergroup=__strimzi-topic-operator-kstreams},1651696327,0
{consumergroup=__strimzi-topic-operator-kstreams},1651696332,0
{consumergroup=__strimzi-topic-operator-kstreams},1651696337,0
{consumergroup=__strimzi-topic-operator-kstreams},1651696342,0
{consumergroup=__strimzi-topic-operator-kstreams},1651696347,0
{consumergroup=__strimzi-topic-operator-kstreams},1651696352,0
{consumergroup=__strimzi-topic-operator-kstreams},1651696357,0
{consumergroup=__strimzi-topic-operator-kstreams},1651696362,0
{consumergroup=__strimzi-topic-operator-kstreams},1651696367,0
{consumergroup=__strimzi-topic-operator-kstreams},1651696372,0
{consumergroup=__strimzi-topic-operator-kstreams},1651696377,0
{consumergroup=__strimzi-topic-operator-kstreams},1651696382,0
{consumergroup=__strimzi-topic-operator-kstreams},1651696387,0
{consumergroup=__strimzi-topic-operator-kstreams},1651696392,0
{consumergroup=__strimzi-topic-operator-kstreams},1651696397,0
{consumergroup=__strimzi-topic-operator-kstreams},1651696402,0
{consumergroup=__strimzi-topic-operator-kstreams},1651696407,0
{consumergroup=__strimzi-topic-operator-kstreams},1651696412,0
{consumergroup=__strimzi-topic-operator-kstreams},1651696417,0
{consumergroup=__strimzi-topic-operator-kstreams},1651696422,0
{consumergroup=__strimzi-topic-operator-kstreams},1651696427,0
{consumergroup=__strimzi-topic-operator-kstreams},1651696432,0
{consumergroup=__strimzi-topic-operator-kstreams},1651696437,0
{consumergroup=__strimzi-topic-operator-kstreams},1651696442,0
{consumergroup=__strimzi-topic-operator-kstreams},1651696447,0
{consumergroup=__strimzi-topic-operator-kstreams},1651696452,0
{consumergroup=__strimzi-topic-operator-kstreams},1651696457,0
{consumergroup=__strimzi-topic-operator-kstreams},1651696462,0
{consumergroup=__strimzi-topic-operator-kstreams},1651696467,0
{consumergroup=__strimzi-topic-operator-kstreams},1651696472,0
{consumergroup=adapter-service},1651696252,247421
{consumergroup=adapter-service},1651696257,247421
{consumergroup=adapter-service},1651696262,247421
{consumergroup=adapter-service},1651696267,590268
{consumergroup=adapter-service},1651696272,590268
{consumergroup=adapter-service},1651696277,590268
{consumergroup=adapter-service},1651696282,857677
{consumergroup=adapter-service},1651696287,857677
{consumergroup=adapter-service},1651696292,857677
{consumergroup=adapter-service},1651696297,1059016
{consumergroup=adapter-service},1651696302,1059016
{consumergroup=adapter-service},1651696307,1059016
{consumergroup=adapter-service},1651696312,1213720
{consumergroup=adapter-service},1651696317,1213720
{consumergroup=adapter-service},1651696322,1213720
{consumergroup=adapter-service},1651696327,1297687
{consumergroup=adapter-service},1651696332,1297687
{consumergroup=adapter-service},1651696337,1297687
{consumergroup=adapter-service},1651696342,1319554
{consumergroup=adapter-service},1651696347,1319554
{consumergroup=adapter-service},1651696352,1319554
{consumergroup=adapter-service},1651696357,1187061
{consumergroup=adapter-service},1651696362,1187061
{consumergroup=adapter-service},1651696367,1187061
{consumergroup=adapter-service},1651696372,1005963
{consumergroup=adapter-service},1651696377,1005963
{consumergroup=adapter-service},1651696382,1005963
{consumergroup=adapter-service},1651696387,817384
{consumergroup=adapter-service},1651696392,817384
{consumergroup=adapter-service},1651696397,817384
{consumergroup=adapter-service},1651696402,589970
{consumergroup=adapter-service},1651696407,589970
{consumergroup=adapter-service},1651696412,589970
{consumergroup=adapter-service},1651696417,377801
{consumergroup=adapter-service},1651696422,377801
{consumergroup=adapter-service},1651696427,377801
{consumergroup=adapter-service},1651696432,254760
{consumergroup=adapter-service},1651696437,254760
{consumergroup=adapter-service},1651696442,254760
{consumergroup=adapter-service},1651696447,159551
{consumergroup=adapter-service},1651696452,159551
{consumergroup=adapter-service},1651696457,159551
{consumergroup=adapter-service},1651696462,66173
{consumergroup=adapter-service},1651696467,66173
{consumergroup=adapter-service},1651696472,66173
