labels,timestamp,value
{consumergroup=__strimzi-topic-operator-kstreams},1651707347,3
{consumergroup=__strimzi-topic-operator-kstreams},1651707352,3
{consumergroup=__strimzi-topic-operator-kstreams},1651707357,3
{consumergroup=__strimzi-topic-operator-kstreams},1651707362,21
{consumergroup=__strimzi-topic-operator-kstreams},1651707367,21
{consumergroup=__strimzi-topic-operator-kstreams},1651707372,21
{consumergroup=__strimzi-topic-operator-kstreams},1651707377,0
{consumergroup=__strimzi-topic-operator-kstreams},1651707382,0
{consumergroup=__strimzi-topic-operator-kstreams},1651707387,0
{consumergroup=__strimzi-topic-operator-kstreams},1651707392,0
{consumergroup=__strimzi-topic-operator-kstreams},1651707397,0
{consumergroup=__strimzi-topic-operator-kstreams},1651707402,0
{consumergroup=__strimzi-topic-operator-kstreams},1651707407,0
{consumergroup=__strimzi-topic-operator-kstreams},1651707412,0
{consumergroup=__strimzi-topic-operator-kstreams},1651707417,0
{consumergroup=__strimzi-topic-operator-kstreams},1651707422,0
{consumergroup=__strimzi-topic-operator-kstreams},1651707427,0
{consumergroup=__strimzi-topic-operator-kstreams},1651707432,0
{consumergroup=__strimzi-topic-operator-kstreams},1651707437,0
{consumergroup=__strimzi-topic-operator-kstreams},1651707442,0
{consumergroup=__strimzi-topic-operator-kstreams},1651707447,0
{consumergroup=__strimzi-topic-operator-kstreams},1651707452,0
{consumergroup=__strimzi-topic-operator-kstreams},1651707457,0
{consumergroup=__strimzi-topic-operator-kstreams},1651707462,0
{consumergroup=__strimzi-topic-operator-kstreams},1651707467,0
{consumergroup=__strimzi-topic-operator-kstreams},1651707472,0
{consumergroup=__strimzi-topic-operator-kstreams},1651707477,0
{consumergroup=__strimzi-topic-operator-kstreams},1651707482,0
{consumergroup=__strimzi-topic-operator-kstreams},1651707487,0
{consumergroup=__strimzi-topic-operator-kstreams},1651707492,0
{consumergroup=__strimzi-topic-operator-kstreams},1651707497,0
{consumergroup=__strimzi-topic-operator-kstreams},1651707502,0
{consumergroup=__strimzi-topic-operator-kstreams},1651707507,0
{consumergroup=__strimzi-topic-operator-kstreams},1651707512,0
{consumergroup=__strimzi-topic-operator-kstreams},1651707517,0
{consumergroup=__strimzi-topic-operator-kstreams},1651707522,0
{consumergroup=__strimzi-topic-operator-kstreams},1651707527,0
{consumergroup=__strimzi-topic-operator-kstreams},1651707532,0
{consumergroup=__strimzi-topic-operator-kstreams},1651707537,0
{consumergroup=__strimzi-topic-operator-kstreams},1651707542,0
{consumergroup=__strimzi-topic-operator-kstreams},1651707547,0
{consumergroup=__strimzi-topic-operator-kstreams},1651707552,0
{consumergroup=__strimzi-topic-operator-kstreams},1651707557,0
{consumergroup=__strimzi-topic-operator-kstreams},1651707562,0
{consumergroup=__strimzi-topic-operator-kstreams},1651707567,0
{consumergroup=__strimzi-topic-operator-kstreams},1651707572,0
{consumergroup=__strimzi-topic-operator-kstreams},1651707577,0
{consumergroup=__strimzi-topic-operator-kstreams},1651707582,0
{consumergroup=__strimzi-topic-operator-kstreams},1651707587,0
{consumergroup=__strimzi-topic-operator-kstreams},1651707592,0
{consumergroup=__strimzi-topic-operator-kstreams},1651707597,0
{consumergroup=__strimzi-topic-operator-kstreams},1651707602,0
{consumergroup=__strimzi-topic-operator-kstreams},1651707607,0
{consumergroup=adapter-service},1651707347,0
{consumergroup=adapter-service},1651707352,0
{consumergroup=adapter-service},1651707357,0
{consumergroup=adapter-service},1651707377,0
{consumergroup=adapter-service},1651707382,0
{consumergroup=adapter-service},1651707387,0
{consumergroup=adapter-service},1651707392,964249
{consumergroup=adapter-service},1651707397,964249
{consumergroup=adapter-service},1651707402,964249
{consumergroup=adapter-service},1651707407,1875619
{consumergroup=adapter-service},1651707412,1875619
{consumergroup=adapter-service},1651707417,1875619
{consumergroup=adapter-service},1651707422,2248768
{consumergroup=adapter-service},1651707427,2248768
{consumergroup=adapter-service},1651707432,2248768
{consumergroup=adapter-service},1651707437,2573197
{consumergroup=adapter-service},1651707442,2573197
{consumergroup=adapter-service},1651707447,2573197
{consumergroup=adapter-service},1651707452,2983304
{consumergroup=adapter-service},1651707457,2983304
{consumergroup=adapter-service},1651707462,2983304
{consumergroup=adapter-service},1651707467,2491665
{consumergroup=adapter-service},1651707472,2491665
{consumergroup=adapter-service},1651707477,2491665
{consumergroup=adapter-service},1651707482,2585283
{consumergroup=adapter-service},1651707487,2585283
{consumergroup=adapter-service},1651707492,2585283
{consumergroup=adapter-service},1651707497,2242247
{consumergroup=adapter-service},1651707502,2242247
{consumergroup=adapter-service},1651707507,2242247
{consumergroup=adapter-service},1651707512,1802331
{consumergroup=adapter-service},1651707517,1802331
{consumergroup=adapter-service},1651707522,1802331
{consumergroup=adapter-service},1651707527,1490030
{consumergroup=adapter-service},1651707532,1490030
{consumergroup=adapter-service},1651707537,1490030
{consumergroup=adapter-service},1651707542,1078519
{consumergroup=adapter-service},1651707547,1078519
{consumergroup=adapter-service},1651707552,1078519
{consumergroup=adapter-service},1651707557,887114
{consumergroup=adapter-service},1651707562,887114
{consumergroup=adapter-service},1651707567,887114
{consumergroup=adapter-service},1651707572,603257
{consumergroup=adapter-service},1651707577,603257
{consumergroup=adapter-service},1651707582,603257
{consumergroup=adapter-service},1651707587,544518
{consumergroup=adapter-service},1651707592,544518
{consumergroup=adapter-service},1651707597,544518
{consumergroup=adapter-service},1651707602,278294
{consumergroup=adapter-service},1651707607,278294
