labels,timestamp,value
{consumergroup=__strimzi-topic-operator-kstreams},1651712033,8
{consumergroup=__strimzi-topic-operator-kstreams},1651712038,8
{consumergroup=__strimzi-topic-operator-kstreams},1651712043,8
{consumergroup=__strimzi-topic-operator-kstreams},1651712048,8
{consumergroup=__strimzi-topic-operator-kstreams},1651712053,8
{consumergroup=__strimzi-topic-operator-kstreams},1651712058,8
{consumergroup=__strimzi-topic-operator-kstreams},1651712063,0
{consumergroup=__strimzi-topic-operator-kstreams},1651712068,0
{consumergroup=__strimzi-topic-operator-kstreams},1651712073,0
{consumergroup=__strimzi-topic-operator-kstreams},1651712078,0
{consumergroup=__strimzi-topic-operator-kstreams},1651712083,0
{consumergroup=__strimzi-topic-operator-kstreams},1651712088,0
{consumergroup=__strimzi-topic-operator-kstreams},1651712093,0
{consumergroup=__strimzi-topic-operator-kstreams},1651712098,0
{consumergroup=__strimzi-topic-operator-kstreams},1651712103,0
{consumergroup=__strimzi-topic-operator-kstreams},1651712108,0
{consumergroup=__strimzi-topic-operator-kstreams},1651712113,0
{consumergroup=__strimzi-topic-operator-kstreams},1651712118,0
{consumergroup=__strimzi-topic-operator-kstreams},1651712123,0
{consumergroup=__strimzi-topic-operator-kstreams},1651712128,0
{consumergroup=__strimzi-topic-operator-kstreams},1651712133,0
{consumergroup=__strimzi-topic-operator-kstreams},1651712138,0
{consumergroup=__strimzi-topic-operator-kstreams},1651712143,0
{consumergroup=__strimzi-topic-operator-kstreams},1651712148,0
{consumergroup=__strimzi-topic-operator-kstreams},1651712153,0
{consumergroup=__strimzi-topic-operator-kstreams},1651712158,0
{consumergroup=__strimzi-topic-operator-kstreams},1651712163,0
{consumergroup=__strimzi-topic-operator-kstreams},1651712168,0
{consumergroup=__strimzi-topic-operator-kstreams},1651712173,0
{consumergroup=__strimzi-topic-operator-kstreams},1651712178,0
{consumergroup=__strimzi-topic-operator-kstreams},1651712183,0
{consumergroup=__strimzi-topic-operator-kstreams},1651712188,0
{consumergroup=__strimzi-topic-operator-kstreams},1651712193,0
{consumergroup=__strimzi-topic-operator-kstreams},1651712198,0
{consumergroup=__strimzi-topic-operator-kstreams},1651712203,0
{consumergroup=__strimzi-topic-operator-kstreams},1651712208,0
{consumergroup=__strimzi-topic-operator-kstreams},1651712213,0
{consumergroup=__strimzi-topic-operator-kstreams},1651712218,0
{consumergroup=__strimzi-topic-operator-kstreams},1651712223,0
{consumergroup=__strimzi-topic-operator-kstreams},1651712228,0
{consumergroup=__strimzi-topic-operator-kstreams},1651712233,0
{consumergroup=__strimzi-topic-operator-kstreams},1651712238,0
{consumergroup=__strimzi-topic-operator-kstreams},1651712243,0
{consumergroup=__strimzi-topic-operator-kstreams},1651712248,0
{consumergroup=__strimzi-topic-operator-kstreams},1651712253,0
{consumergroup=__strimzi-topic-operator-kstreams},1651712258,0
{consumergroup=__strimzi-topic-operator-kstreams},1651712263,0
{consumergroup=__strimzi-topic-operator-kstreams},1651712268,0
{consumergroup=__strimzi-topic-operator-kstreams},1651712273,0
{consumergroup=__strimzi-topic-operator-kstreams},1651712278,0
{consumergroup=__strimzi-topic-operator-kstreams},1651712283,0
{consumergroup=__strimzi-topic-operator-kstreams},1651712288,0
{consumergroup=__strimzi-topic-operator-kstreams},1651712293,0
{consumergroup=adapter-service},1651712063,0
{consumergroup=adapter-service},1651712068,0
{consumergroup=adapter-service},1651712073,0
{consumergroup=adapter-service},1651712078,623136
{consumergroup=adapter-service},1651712083,623136
{consumergroup=adapter-service},1651712088,623136
{consumergroup=adapter-service},1651712093,850014
{consumergroup=adapter-service},1651712098,850014
{consumergroup=adapter-service},1651712103,850014
{consumergroup=adapter-service},1651712108,808179
{consumergroup=adapter-service},1651712113,808179
{consumergroup=adapter-service},1651712118,808179
{consumergroup=adapter-service},1651712123,856830
{consumergroup=adapter-service},1651712128,856830
{consumergroup=adapter-service},1651712133,856830
{consumergroup=adapter-service},1651712138,717289
{consumergroup=adapter-service},1651712143,717289
{consumergroup=adapter-service},1651712148,717289
{consumergroup=adapter-service},1651712153,415743
{consumergroup=adapter-service},1651712158,415743
{consumergroup=adapter-service},1651712163,415743
{consumergroup=adapter-service},1651712168,269375
{consumergroup=adapter-service},1651712173,269375
{consumergroup=adapter-service},1651712178,269375
{consumergroup=adapter-service},1651712183,225473
{consumergroup=adapter-service},1651712188,225473
{consumergroup=adapter-service},1651712193,225473
{consumergroup=adapter-service},1651712198,220587
{consumergroup=adapter-service},1651712203,220587
{consumergroup=adapter-service},1651712208,220587
{consumergroup=adapter-service},1651712213,211744
{consumergroup=adapter-service},1651712218,211744
{consumergroup=adapter-service},1651712223,211744
{consumergroup=adapter-service},1651712228,208886
{consumergroup=adapter-service},1651712233,208886
{consumergroup=adapter-service},1651712238,208886
{consumergroup=adapter-service},1651712243,203886
{consumergroup=adapter-service},1651712248,203886
{consumergroup=adapter-service},1651712253,203886
{consumergroup=adapter-service},1651712258,201740
{consumergroup=adapter-service},1651712263,201740
{consumergroup=adapter-service},1651712268,201740
{consumergroup=adapter-service},1651712273,197553
{consumergroup=adapter-service},1651712278,197553
{consumergroup=adapter-service},1651712283,197553
{consumergroup=adapter-service},1651712288,192775
{consumergroup=adapter-service},1651712293,192775
