labels,timestamp,value
{consumergroup=__strimzi-topic-operator-kstreams},1651705315,14
{consumergroup=__strimzi-topic-operator-kstreams},1651705320,14
{consumergroup=__strimzi-topic-operator-kstreams},1651705325,14
{consumergroup=__strimzi-topic-operator-kstreams},1651705330,0
{consumergroup=__strimzi-topic-operator-kstreams},1651705335,0
{consumergroup=__strimzi-topic-operator-kstreams},1651705340,0
{consumergroup=__strimzi-topic-operator-kstreams},1651705345,0
{consumergroup=__strimzi-topic-operator-kstreams},1651705350,0
{consumergroup=__strimzi-topic-operator-kstreams},1651705355,0
{consumergroup=__strimzi-topic-operator-kstreams},1651705360,0
{consumergroup=__strimzi-topic-operator-kstreams},1651705365,0
{consumergroup=__strimzi-topic-operator-kstreams},1651705370,0
{consumergroup=__strimzi-topic-operator-kstreams},1651705375,0
{consumergroup=__strimzi-topic-operator-kstreams},1651705380,0
{consumergroup=__strimzi-topic-operator-kstreams},1651705385,0
{consumergroup=__strimzi-topic-operator-kstreams},1651705390,0
{consumergroup=__strimzi-topic-operator-kstreams},1651705395,0
{consumergroup=__strimzi-topic-operator-kstreams},1651705400,0
{consumergroup=__strimzi-topic-operator-kstreams},1651705405,0
{consumergroup=__strimzi-topic-operator-kstreams},1651705410,0
{consumergroup=__strimzi-topic-operator-kstreams},1651705415,0
{consumergroup=__strimzi-topic-operator-kstreams},1651705420,0
{consumergroup=__strimzi-topic-operator-kstreams},1651705425,0
{consumergroup=__strimzi-topic-operator-kstreams},1651705430,0
{consumergroup=__strimzi-topic-operator-kstreams},1651705435,0
{consumergroup=__strimzi-topic-operator-kstreams},1651705440,0
{consumergroup=__strimzi-topic-operator-kstreams},1651705445,0
{consumergroup=__strimzi-topic-operator-kstreams},1651705450,0
{consumergroup=__strimzi-topic-operator-kstreams},1651705455,0
{consumergroup=__strimzi-topic-operator-kstreams},1651705460,0
{consumergroup=__strimzi-topic-operator-kstreams},1651705465,0
{consumergroup=__strimzi-topic-operator-kstreams},1651705470,0
{consumergroup=__strimzi-topic-operator-kstreams},1651705475,0
{consumergroup=__strimzi-topic-operator-kstreams},1651705480,0
{consumergroup=__strimzi-topic-operator-kstreams},1651705485,0
{consumergroup=__strimzi-topic-operator-kstreams},1651705490,0
{consumergroup=__strimzi-topic-operator-kstreams},1651705495,0
{consumergroup=__strimzi-topic-operator-kstreams},1651705500,0
{consumergroup=__strimzi-topic-operator-kstreams},1651705505,0
{consumergroup=__strimzi-topic-operator-kstreams},1651705510,0
{consumergroup=__strimzi-topic-operator-kstreams},1651705515,0
{consumergroup=__strimzi-topic-operator-kstreams},1651705520,0
{consumergroup=__strimzi-topic-operator-kstreams},1651705525,0
{consumergroup=__strimzi-topic-operator-kstreams},1651705530,0
{consumergroup=__strimzi-topic-operator-kstreams},1651705535,0
{consumergroup=__strimzi-topic-operator-kstreams},1651705540,0
{consumergroup=__strimzi-topic-operator-kstreams},1651705545,0
{consumergroup=__strimzi-topic-operator-kstreams},1651705550,0
{consumergroup=__strimzi-topic-operator-kstreams},1651705555,0
{consumergroup=__strimzi-topic-operator-kstreams},1651705560,0
{consumergroup=__strimzi-topic-operator-kstreams},1651705565,0
{consumergroup=adapter-service},1651705345,1047716
{consumergroup=adapter-service},1651705350,1047716
{consumergroup=adapter-service},1651705355,1047716
{consumergroup=adapter-service},1651705360,1908721
{consumergroup=adapter-service},1651705365,1908721
{consumergroup=adapter-service},1651705370,1908721
{consumergroup=adapter-service},1651705375,2454256
{consumergroup=adapter-service},1651705380,2454256
{consumergroup=adapter-service},1651705385,2454256
{consumergroup=adapter-service},1651705390,3016631
{consumergroup=adapter-service},1651705395,3016631
{consumergroup=adapter-service},1651705400,3016631
{consumergroup=adapter-service},1651705405,3420876
{consumergroup=adapter-service},1651705410,3420876
{consumergroup=adapter-service},1651705415,3420876
{consumergroup=adapter-service},1651705420,3639771
{consumergroup=adapter-service},1651705425,3639771
{consumergroup=adapter-service},1651705430,3639771
{consumergroup=adapter-service},1651705435,3880724
{consumergroup=adapter-service},1651705440,3880724
{consumergroup=adapter-service},1651705445,3880724
{consumergroup=adapter-service},1651705450,4074729
{consumergroup=adapter-service},1651705455,4074729
{consumergroup=adapter-service},1651705460,4074729
{consumergroup=adapter-service},1651705465,4214572
{consumergroup=adapter-service},1651705470,4214572
{consumergroup=adapter-service},1651705475,4214572
{consumergroup=adapter-service},1651705480,4425600
{consumergroup=adapter-service},1651705485,4425600
{consumergroup=adapter-service},1651705490,4425600
{consumergroup=adapter-service},1651705495,4620948
{consumergroup=adapter-service},1651705500,4620948
{consumergroup=adapter-service},1651705505,4620948
{consumergroup=adapter-service},1651705510,4677296
{consumergroup=adapter-service},1651705515,4677296
{consumergroup=adapter-service},1651705520,4677296
{consumergroup=adapter-service},1651705525,4732143
{consumergroup=adapter-service},1651705530,4732143
{consumergroup=adapter-service},1651705535,4732143
{consumergroup=adapter-service},1651705540,4853925
{consumergroup=adapter-service},1651705545,4853925
{consumergroup=adapter-service},1651705550,4853925
{consumergroup=adapter-service},1651705555,5000824
{consumergroup=adapter-service},1651705560,5000824
{consumergroup=adapter-service},1651705565,5000824
