labels,timestamp,value
{},1649165422,0
{},1649165427,0
{},1649165432,0
{},1649165437,0
{},1649165442,0
{},1649165447,0
{},1649165452,0
{},1649165457,0
{},1649165462,0
{},1649165467,0
{},1649165472,0
{},1649165477,0
{},1649165482,0
{},1649165487,0
{},1649165492,0
