labels,timestamp,value
{consumergroup=__strimzi-topic-operator-kstreams},1649163511,11
{consumergroup=__strimzi-topic-operator-kstreams},1649163516,11
{consumergroup=__strimzi-topic-operator-kstreams},1649163521,11
{consumergroup=__strimzi-topic-operator-kstreams},1649163526,0
{consumergroup=__strimzi-topic-operator-kstreams},1649163531,0
{consumergroup=__strimzi-topic-operator-kstreams},1649163536,0
{consumergroup=__strimzi-topic-operator-kstreams},1649163541,0
{consumergroup=__strimzi-topic-operator-kstreams},1649163546,0
{consumergroup=__strimzi-topic-operator-kstreams},1649163551,0
{consumergroup=__strimzi-topic-operator-kstreams},1649163556,0
{consumergroup=__strimzi-topic-operator-kstreams},1649163561,0
{consumergroup=__strimzi-topic-operator-kstreams},1649163566,0
{consumergroup=__strimzi-topic-operator-kstreams},1649163571,0
{consumergroup=__strimzi-topic-operator-kstreams},1649163576,0
{consumergroup=__strimzi-topic-operator-kstreams},1649163581,0
{consumergroup=__strimzi-topic-operator-kstreams},1649163586,0
{consumergroup=__strimzi-topic-operator-kstreams},1649163591,0
{consumergroup=__strimzi-topic-operator-kstreams},1649163596,0
{consumergroup=__strimzi-topic-operator-kstreams},1649163601,0
{consumergroup=__strimzi-topic-operator-kstreams},1649163606,0
{consumergroup=__strimzi-topic-operator-kstreams},1649163611,0
{consumergroup=__strimzi-topic-operator-kstreams},1649163616,0
{consumergroup=__strimzi-topic-operator-kstreams},1649163621,0
{consumergroup=__strimzi-topic-operator-kstreams},1649163626,0
{consumergroup=__strimzi-topic-operator-kstreams},1649163631,0
{consumergroup=__strimzi-topic-operator-kstreams},1649163636,0
{consumergroup=__strimzi-topic-operator-kstreams},1649163641,0
{consumergroup=__strimzi-topic-operator-kstreams},1649163646,0
{consumergroup=__strimzi-topic-operator-kstreams},1649163651,0
{consumergroup=__strimzi-topic-operator-kstreams},1649163656,0
{consumergroup=__strimzi-topic-operator-kstreams},1649163661,0
{consumergroup=__strimzi-topic-operator-kstreams},1649163666,0
{consumergroup=__strimzi-topic-operator-kstreams},1649163671,0
{consumergroup=__strimzi-topic-operator-kstreams},1649163676,0
{consumergroup=__strimzi-topic-operator-kstreams},1649163681,0
{consumergroup=__strimzi-topic-operator-kstreams},1649163686,0
{consumergroup=__strimzi-topic-operator-kstreams},1649163691,0
{consumergroup=__strimzi-topic-operator-kstreams},1649163696,0
{consumergroup=__strimzi-topic-operator-kstreams},1649163701,0
{consumergroup=__strimzi-topic-operator-kstreams},1649163706,0
{consumergroup=__strimzi-topic-operator-kstreams},1649163711,0
{consumergroup=__strimzi-topic-operator-kstreams},1649163716,0
{consumergroup=__strimzi-topic-operator-kstreams},1649163721,0
{consumergroup=__strimzi-topic-operator-kstreams},1649163726,0
{consumergroup=__strimzi-topic-operator-kstreams},1649163731,0
{consumergroup=__strimzi-topic-operator-kstreams},1649163736,0
{consumergroup=__strimzi-topic-operator-kstreams},1649163741,0
{consumergroup=__strimzi-topic-operator-kstreams},1649163746,0
{consumergroup=__strimzi-topic-operator-kstreams},1649163751,0
{consumergroup=__strimzi-topic-operator-kstreams},1649163756,0
{consumergroup=__strimzi-topic-operator-kstreams},1649163761,0
{consumergroup=__strimzi-topic-operator-kstreams},1649163766,0
{consumergroup=__strimzi-topic-operator-kstreams},1649163771,0
{consumergroup=__strimzi-topic-operator-kstreams},1649163776,0
{consumergroup=__strimzi-topic-operator-kstreams},1649163781,0
{consumergroup=__strimzi-topic-operator-kstreams},1649163786,0
{consumergroup=__strimzi-topic-operator-kstreams},1649163791,0
{consumergroup=__strimzi-topic-operator-kstreams},1649163796,0
{consumergroup=__strimzi-topic-operator-kstreams},1649163801,0
{consumergroup=__strimzi-topic-operator-kstreams},1649163806,0
{consumergroup=__strimzi-topic-operator-kstreams},1649163811,0
{consumergroup=__strimzi-topic-operator-kstreams},1649163816,0
{consumergroup=__strimzi-topic-operator-kstreams},1649163821,0
