labels,timestamp,value
{consumergroup=__strimzi-topic-operator-kstreams},1649156561,3
{consumergroup=__strimzi-topic-operator-kstreams},1649156566,3
{consumergroup=__strimzi-topic-operator-kstreams},1649156571,3
{consumergroup=__strimzi-topic-operator-kstreams},1649156576,0
{consumergroup=__strimzi-topic-operator-kstreams},1649156581,0
{consumergroup=__strimzi-topic-operator-kstreams},1649156586,0
{consumergroup=__strimzi-topic-operator-kstreams},1649156591,0
{consumergroup=__strimzi-topic-operator-kstreams},1649156596,0
{consumergroup=__strimzi-topic-operator-kstreams},1649156601,0
{consumergroup=__strimzi-topic-operator-kstreams},1649156606,3
{consumergroup=__strimzi-topic-operator-kstreams},1649156611,3
{consumergroup=__strimzi-topic-operator-kstreams},1649156616,3
{consumergroup=__strimzi-topic-operator-kstreams},1649156621,3
{consumergroup=__strimzi-topic-operator-kstreams},1649156626,3
{consumergroup=__strimzi-topic-operator-kstreams},1649156631,3
{consumergroup=__strimzi-topic-operator-kstreams},1649156636,0
{consumergroup=__strimzi-topic-operator-kstreams},1649156641,0
{consumergroup=__strimzi-topic-operator-kstreams},1649156646,0
{consumergroup=__strimzi-topic-operator-kstreams},1649156651,0
{consumergroup=__strimzi-topic-operator-kstreams},1649156656,0
{consumergroup=__strimzi-topic-operator-kstreams},1649156661,0
{consumergroup=__strimzi-topic-operator-kstreams},1649156666,0
{consumergroup=__strimzi-topic-operator-kstreams},1649156671,0
{consumergroup=__strimzi-topic-operator-kstreams},1649156676,0
{consumergroup=__strimzi-topic-operator-kstreams},1649156681,0
{consumergroup=__strimzi-topic-operator-kstreams},1649156686,0
{consumergroup=__strimzi-topic-operator-kstreams},1649156691,0
{consumergroup=__strimzi-topic-operator-kstreams},1649156696,0
{consumergroup=__strimzi-topic-operator-kstreams},1649156701,0
{consumergroup=__strimzi-topic-operator-kstreams},1649156706,0
{consumergroup=__strimzi-topic-operator-kstreams},1649156711,0
{consumergroup=__strimzi-topic-operator-kstreams},1649156716,0
{consumergroup=__strimzi-topic-operator-kstreams},1649156721,0
{consumergroup=__strimzi-topic-operator-kstreams},1649156726,0
{consumergroup=__strimzi-topic-operator-kstreams},1649156731,0
{consumergroup=__strimzi-topic-operator-kstreams},1649156736,0
{consumergroup=__strimzi-topic-operator-kstreams},1649156741,0
{consumergroup=__strimzi-topic-operator-kstreams},1649156746,0
{consumergroup=__strimzi-topic-operator-kstreams},1649156751,0
{consumergroup=__strimzi-topic-operator-kstreams},1649156756,0
{consumergroup=__strimzi-topic-operator-kstreams},1649156761,0
{consumergroup=__strimzi-topic-operator-kstreams},1649156766,0
{consumergroup=__strimzi-topic-operator-kstreams},1649156771,0
{consumergroup=__strimzi-topic-operator-kstreams},1649156776,0
{consumergroup=__strimzi-topic-operator-kstreams},1649156781,0
{consumergroup=__strimzi-topic-operator-kstreams},1649156786,0
{consumergroup=__strimzi-topic-operator-kstreams},1649156791,0
{consumergroup=__strimzi-topic-operator-kstreams},1649156796,0
{consumergroup=__strimzi-topic-operator-kstreams},1649156801,0
{consumergroup=__strimzi-topic-operator-kstreams},1649156806,0
{consumergroup=__strimzi-topic-operator-kstreams},1649156811,0
{consumergroup=__strimzi-topic-operator-kstreams},1649156816,0
{consumergroup=__strimzi-topic-operator-kstreams},1649156821,0
{consumergroup=__strimzi-topic-operator-kstreams},1649156826,0
{consumergroup=__strimzi-topic-operator-kstreams},1649156831,0
{consumergroup=__strimzi-topic-operator-kstreams},1649156836,0
{consumergroup=__strimzi-topic-operator-kstreams},1649156841,0
{consumergroup=__strimzi-topic-operator-kstreams},1649156846,0
{consumergroup=__strimzi-topic-operator-kstreams},1649156851,0
{consumergroup=__strimzi-topic-operator-kstreams},1649156856,0
{consumergroup=__strimzi-topic-operator-kstreams},1649156861,0
{consumergroup=__strimzi-topic-operator-kstreams},1649156866,0
{consumergroup=__strimzi-topic-operator-kstreams},1649156871,0
{consumergroup=__strimzi-topic-operator-kstreams},1649156876,0
{consumergroup=__strimzi-topic-operator-kstreams},1649156881,0
