labels,timestamp,value
{consumergroup=__strimzi-topic-operator-kstreams},1649158899,8
{consumergroup=__strimzi-topic-operator-kstreams},1649158904,8
{consumergroup=__strimzi-topic-operator-kstreams},1649158909,8
{consumergroup=__strimzi-topic-operator-kstreams},1649158914,0
{consumergroup=__strimzi-topic-operator-kstreams},1649158919,0
{consumergroup=__strimzi-topic-operator-kstreams},1649158924,0
{consumergroup=__strimzi-topic-operator-kstreams},1649158929,0
{consumergroup=__strimzi-topic-operator-kstreams},1649158934,0
{consumergroup=__strimzi-topic-operator-kstreams},1649158939,0
{consumergroup=__strimzi-topic-operator-kstreams},1649158944,0
{consumergroup=__strimzi-topic-operator-kstreams},1649158949,0
{consumergroup=__strimzi-topic-operator-kstreams},1649158954,0
{consumergroup=__strimzi-topic-operator-kstreams},1649158959,0
{consumergroup=__strimzi-topic-operator-kstreams},1649158964,0
{consumergroup=__strimzi-topic-operator-kstreams},1649158969,0
{consumergroup=__strimzi-topic-operator-kstreams},1649158974,0
{consumergroup=__strimzi-topic-operator-kstreams},1649158979,0
{consumergroup=__strimzi-topic-operator-kstreams},1649158984,0
{consumergroup=__strimzi-topic-operator-kstreams},1649158989,0
{consumergroup=__strimzi-topic-operator-kstreams},1649158994,0
{consumergroup=__strimzi-topic-operator-kstreams},1649158999,0
{consumergroup=__strimzi-topic-operator-kstreams},1649159004,0
{consumergroup=__strimzi-topic-operator-kstreams},1649159009,0
{consumergroup=__strimzi-topic-operator-kstreams},1649159014,0
{consumergroup=__strimzi-topic-operator-kstreams},1649159019,0
{consumergroup=__strimzi-topic-operator-kstreams},1649159024,0
{consumergroup=__strimzi-topic-operator-kstreams},1649159029,0
{consumergroup=__strimzi-topic-operator-kstreams},1649159034,0
{consumergroup=__strimzi-topic-operator-kstreams},1649159039,0
{consumergroup=__strimzi-topic-operator-kstreams},1649159044,0
{consumergroup=__strimzi-topic-operator-kstreams},1649159049,0
{consumergroup=__strimzi-topic-operator-kstreams},1649159054,0
{consumergroup=__strimzi-topic-operator-kstreams},1649159059,0
{consumergroup=__strimzi-topic-operator-kstreams},1649159064,0
{consumergroup=__strimzi-topic-operator-kstreams},1649159069,0
{consumergroup=__strimzi-topic-operator-kstreams},1649159074,0
{consumergroup=__strimzi-topic-operator-kstreams},1649159079,0
{consumergroup=__strimzi-topic-operator-kstreams},1649159084,0
{consumergroup=__strimzi-topic-operator-kstreams},1649159089,0
{consumergroup=__strimzi-topic-operator-kstreams},1649159094,0
{consumergroup=__strimzi-topic-operator-kstreams},1649159099,0
{consumergroup=__strimzi-topic-operator-kstreams},1649159104,0
{consumergroup=__strimzi-topic-operator-kstreams},1649159109,0
{consumergroup=__strimzi-topic-operator-kstreams},1649159114,0
{consumergroup=__strimzi-topic-operator-kstreams},1649159119,0
{consumergroup=__strimzi-topic-operator-kstreams},1649159124,0
{consumergroup=__strimzi-topic-operator-kstreams},1649159129,0
{consumergroup=__strimzi-topic-operator-kstreams},1649159134,0
{consumergroup=__strimzi-topic-operator-kstreams},1649159139,0
{consumergroup=__strimzi-topic-operator-kstreams},1649159144,0
{consumergroup=__strimzi-topic-operator-kstreams},1649159149,0
{consumergroup=__strimzi-topic-operator-kstreams},1649159154,0
{consumergroup=__strimzi-topic-operator-kstreams},1649159159,0
{consumergroup=__strimzi-topic-operator-kstreams},1649159164,0
{consumergroup=__strimzi-topic-operator-kstreams},1649159169,0
{consumergroup=__strimzi-topic-operator-kstreams},1649159174,0
{consumergroup=__strimzi-topic-operator-kstreams},1649159179,0
{consumergroup=__strimzi-topic-operator-kstreams},1649159184,0
{consumergroup=__strimzi-topic-operator-kstreams},1649159189,0
{consumergroup=__strimzi-topic-operator-kstreams},1649159194,0
{consumergroup=__strimzi-topic-operator-kstreams},1649159199,0
{consumergroup=__strimzi-topic-operator-kstreams},1649159204,0
