labels,timestamp,value
{},1649159651,0
{},1649159656,0
{},1649159661,0
{},1649159666,0
{},1649159671,0
{},1649159676,0
{},1649159681,0
{},1649159686,0
{},1649159691,0
{},1649159696,0
{},1649159701,0
{},1649159706,0
{},1649159711,0
{},1649159716,0
{},1649159721,0
