labels,timestamp,value
{},1649163121,0
{},1649163126,0
{},1649163131,0
{},1649163136,0
{},1649163141,0
{},1649163146,0
{},1649163151,0
{},1649163156,0
{},1649163161,0
{},1649163166,0
{},1649163171,0
{},1649163176,0
{},1649163181,0
{},1649163186,0
{},1649163191,0
{},1649163196,0
{},1649163201,0
{},1649163206,0
{},1649163211,0
{},1649163216,0
{},1649163221,0
{},1649163226,0
{},1649163231,0
{},1649163236,0
{},1649163241,0
{},1649163246,0
{},1649163251,0
{},1649163256,0
{},1649163261,0
{},1649163266,0
{},1649163271,0
{},1649163276,0
{},1649163281,0
{},1649163286,0
{},1649163291,0
{},1649163296,0
{},1649163301,0
{},1649163306,0
{},1649163311,0
