labels,timestamp,value
{consumergroup=__strimzi-topic-operator-kstreams},1649158522,11
{consumergroup=__strimzi-topic-operator-kstreams},1649158527,11
{consumergroup=__strimzi-topic-operator-kstreams},1649158532,11
{consumergroup=__strimzi-topic-operator-kstreams},1649158537,1
{consumergroup=__strimzi-topic-operator-kstreams},1649158542,1
{consumergroup=__strimzi-topic-operator-kstreams},1649158547,1
{consumergroup=__strimzi-topic-operator-kstreams},1649158552,1
{consumergroup=__strimzi-topic-operator-kstreams},1649158557,1
{consumergroup=__strimzi-topic-operator-kstreams},1649158562,1
{consumergroup=__strimzi-topic-operator-kstreams},1649158567,0
{consumergroup=__strimzi-topic-operator-kstreams},1649158572,0
{consumergroup=__strimzi-topic-operator-kstreams},1649158577,0
{consumergroup=__strimzi-topic-operator-kstreams},1649158582,0
{consumergroup=__strimzi-topic-operator-kstreams},1649158587,0
{consumergroup=__strimzi-topic-operator-kstreams},1649158592,0
{consumergroup=__strimzi-topic-operator-kstreams},1649158597,0
{consumergroup=__strimzi-topic-operator-kstreams},1649158602,0
{consumergroup=__strimzi-topic-operator-kstreams},1649158607,0
{consumergroup=__strimzi-topic-operator-kstreams},1649158612,0
{consumergroup=__strimzi-topic-operator-kstreams},1649158617,0
{consumergroup=__strimzi-topic-operator-kstreams},1649158622,0
{consumergroup=__strimzi-topic-operator-kstreams},1649158627,0
{consumergroup=__strimzi-topic-operator-kstreams},1649158632,0
{consumergroup=__strimzi-topic-operator-kstreams},1649158637,0
{consumergroup=__strimzi-topic-operator-kstreams},1649158642,0
{consumergroup=__strimzi-topic-operator-kstreams},1649158647,0
{consumergroup=__strimzi-topic-operator-kstreams},1649158652,0
{consumergroup=__strimzi-topic-operator-kstreams},1649158657,0
{consumergroup=__strimzi-topic-operator-kstreams},1649158662,0
{consumergroup=__strimzi-topic-operator-kstreams},1649158667,0
{consumergroup=__strimzi-topic-operator-kstreams},1649158672,0
{consumergroup=__strimzi-topic-operator-kstreams},1649158677,0
{consumergroup=__strimzi-topic-operator-kstreams},1649158682,0
{consumergroup=__strimzi-topic-operator-kstreams},1649158687,0
{consumergroup=__strimzi-topic-operator-kstreams},1649158692,0
{consumergroup=__strimzi-topic-operator-kstreams},1649158697,0
{consumergroup=__strimzi-topic-operator-kstreams},1649158702,0
{consumergroup=__strimzi-topic-operator-kstreams},1649158707,0
{consumergroup=__strimzi-topic-operator-kstreams},1649158712,0
{consumergroup=__strimzi-topic-operator-kstreams},1649158717,0
{consumergroup=__strimzi-topic-operator-kstreams},1649158722,0
{consumergroup=__strimzi-topic-operator-kstreams},1649158727,0
{consumergroup=__strimzi-topic-operator-kstreams},1649158732,0
{consumergroup=__strimzi-topic-operator-kstreams},1649158737,0
{consumergroup=__strimzi-topic-operator-kstreams},1649158742,0
{consumergroup=__strimzi-topic-operator-kstreams},1649158747,0
{consumergroup=__strimzi-topic-operator-kstreams},1649158752,0
{consumergroup=__strimzi-topic-operator-kstreams},1649158757,0
{consumergroup=__strimzi-topic-operator-kstreams},1649158762,0
{consumergroup=__strimzi-topic-operator-kstreams},1649158767,0
{consumergroup=__strimzi-topic-operator-kstreams},1649158772,0
{consumergroup=__strimzi-topic-operator-kstreams},1649158777,0
{consumergroup=__strimzi-topic-operator-kstreams},1649158782,0
{consumergroup=__strimzi-topic-operator-kstreams},1649158787,0
{consumergroup=__strimzi-topic-operator-kstreams},1649158792,0
{consumergroup=__strimzi-topic-operator-kstreams},1649158797,0
{consumergroup=__strimzi-topic-operator-kstreams},1649158802,0
{consumergroup=__strimzi-topic-operator-kstreams},1649158807,0
{consumergroup=__strimzi-topic-operator-kstreams},1649158812,0
{consumergroup=__strimzi-topic-operator-kstreams},1649158817,0
{consumergroup=__strimzi-topic-operator-kstreams},1649158822,0
