labels,timestamp,value
{},1649157341,0
{},1649157346,0
{},1649157351,0
{},1649157356,0
{},1649157361,0
{},1649157366,0
{},1649157371,0
{},1649157376,0
{},1649157381,0
{},1649157386,0
{},1649157391,0
{},1649157396,0
{},1649157401,0
{},1649157406,0
{},1649157411,0
{},1649157416,0
