labels,timestamp,value
{consumergroup=__strimzi-topic-operator-kstreams},1649160051,11
{consumergroup=__strimzi-topic-operator-kstreams},1649160056,11
{consumergroup=__strimzi-topic-operator-kstreams},1649160061,11
{consumergroup=__strimzi-topic-operator-kstreams},1649160066,0
{consumergroup=__strimzi-topic-operator-kstreams},1649160071,0
{consumergroup=__strimzi-topic-operator-kstreams},1649160076,0
{consumergroup=__strimzi-topic-operator-kstreams},1649160081,0
{consumergroup=__strimzi-topic-operator-kstreams},1649160086,0
{consumergroup=__strimzi-topic-operator-kstreams},1649160091,0
{consumergroup=__strimzi-topic-operator-kstreams},1649160096,0
{consumergroup=__strimzi-topic-operator-kstreams},1649160101,0
{consumergroup=__strimzi-topic-operator-kstreams},1649160106,0
{consumergroup=__strimzi-topic-operator-kstreams},1649160111,0
{consumergroup=__strimzi-topic-operator-kstreams},1649160116,0
{consumergroup=__strimzi-topic-operator-kstreams},1649160121,0
{consumergroup=__strimzi-topic-operator-kstreams},1649160126,0
{consumergroup=__strimzi-topic-operator-kstreams},1649160131,0
{consumergroup=__strimzi-topic-operator-kstreams},1649160136,0
{consumergroup=__strimzi-topic-operator-kstreams},1649160141,0
{consumergroup=__strimzi-topic-operator-kstreams},1649160146,0
{consumergroup=__strimzi-topic-operator-kstreams},1649160151,0
{consumergroup=__strimzi-topic-operator-kstreams},1649160156,0
{consumergroup=__strimzi-topic-operator-kstreams},1649160161,0
{consumergroup=__strimzi-topic-operator-kstreams},1649160166,0
{consumergroup=__strimzi-topic-operator-kstreams},1649160171,0
{consumergroup=__strimzi-topic-operator-kstreams},1649160176,0
{consumergroup=__strimzi-topic-operator-kstreams},1649160181,0
{consumergroup=__strimzi-topic-operator-kstreams},1649160186,0
{consumergroup=__strimzi-topic-operator-kstreams},1649160191,0
{consumergroup=__strimzi-topic-operator-kstreams},1649160196,0
{consumergroup=__strimzi-topic-operator-kstreams},1649160201,0
{consumergroup=__strimzi-topic-operator-kstreams},1649160206,0
{consumergroup=__strimzi-topic-operator-kstreams},1649160211,0
{consumergroup=__strimzi-topic-operator-kstreams},1649160216,0
{consumergroup=__strimzi-topic-operator-kstreams},1649160221,0
{consumergroup=__strimzi-topic-operator-kstreams},1649160226,0
{consumergroup=__strimzi-topic-operator-kstreams},1649160231,0
{consumergroup=__strimzi-topic-operator-kstreams},1649160236,0
{consumergroup=__strimzi-topic-operator-kstreams},1649160241,0
{consumergroup=__strimzi-topic-operator-kstreams},1649160246,0
{consumergroup=__strimzi-topic-operator-kstreams},1649160251,0
{consumergroup=__strimzi-topic-operator-kstreams},1649160256,0
{consumergroup=__strimzi-topic-operator-kstreams},1649160261,0
{consumergroup=__strimzi-topic-operator-kstreams},1649160266,0
{consumergroup=__strimzi-topic-operator-kstreams},1649160271,0
{consumergroup=__strimzi-topic-operator-kstreams},1649160276,0
{consumergroup=__strimzi-topic-operator-kstreams},1649160281,0
{consumergroup=__strimzi-topic-operator-kstreams},1649160286,0
{consumergroup=__strimzi-topic-operator-kstreams},1649160291,0
{consumergroup=__strimzi-topic-operator-kstreams},1649160296,0
{consumergroup=__strimzi-topic-operator-kstreams},1649160301,0
{consumergroup=__strimzi-topic-operator-kstreams},1649160306,0
{consumergroup=__strimzi-topic-operator-kstreams},1649160311,0
{consumergroup=__strimzi-topic-operator-kstreams},1649160316,0
{consumergroup=__strimzi-topic-operator-kstreams},1649160321,0
{consumergroup=__strimzi-topic-operator-kstreams},1649160326,0
{consumergroup=__strimzi-topic-operator-kstreams},1649160331,0
{consumergroup=__strimzi-topic-operator-kstreams},1649160336,0
{consumergroup=__strimzi-topic-operator-kstreams},1649160341,0
{consumergroup=__strimzi-topic-operator-kstreams},1649160346,0
{consumergroup=__strimzi-topic-operator-kstreams},1649160351,0
{consumergroup=__strimzi-topic-operator-kstreams},1649160356,0
