labels,timestamp,value
{consumergroup=__strimzi-topic-operator-kstreams},1649209879,0
{consumergroup=__strimzi-topic-operator-kstreams},1649209884,0
{consumergroup=__strimzi-topic-operator-kstreams},1649209889,0
{consumergroup=__strimzi-topic-operator-kstreams},1649209894,0
{consumergroup=__strimzi-topic-operator-kstreams},1649209899,0
{consumergroup=__strimzi-topic-operator-kstreams},1649209904,0
{consumergroup=__strimzi-topic-operator-kstreams},1649209909,0
{consumergroup=__strimzi-topic-operator-kstreams},1649209914,0
{consumergroup=__strimzi-topic-operator-kstreams},1649209919,0
{consumergroup=__strimzi-topic-operator-kstreams},1649209924,0
{consumergroup=__strimzi-topic-operator-kstreams},1649209929,0
{consumergroup=__strimzi-topic-operator-kstreams},1649209934,0
{consumergroup=__strimzi-topic-operator-kstreams},1649209939,0
{consumergroup=__strimzi-topic-operator-kstreams},1649209944,0
{consumergroup=__strimzi-topic-operator-kstreams},1649209949,0
{consumergroup=__strimzi-topic-operator-kstreams},1649209954,0
{consumergroup=__strimzi-topic-operator-kstreams},1649209959,0
{consumergroup=__strimzi-topic-operator-kstreams},1649209964,0
{consumergroup=__strimzi-topic-operator-kstreams},1649209969,0
{consumergroup=__strimzi-topic-operator-kstreams},1649209974,0
{consumergroup=__strimzi-topic-operator-kstreams},1649209979,0
{consumergroup=__strimzi-topic-operator-kstreams},1649209984,0
{consumergroup=__strimzi-topic-operator-kstreams},1649209989,0
{consumergroup=__strimzi-topic-operator-kstreams},1649209994,0
{consumergroup=__strimzi-topic-operator-kstreams},1649209999,0
{consumergroup=__strimzi-topic-operator-kstreams},1649210004,0
{consumergroup=__strimzi-topic-operator-kstreams},1649210009,0
{consumergroup=__strimzi-topic-operator-kstreams},1649210014,0
{consumergroup=__strimzi-topic-operator-kstreams},1649210019,0
{consumergroup=__strimzi-topic-operator-kstreams},1649210024,0
{consumergroup=__strimzi-topic-operator-kstreams},1649210029,0
{consumergroup=__strimzi-topic-operator-kstreams},1649210034,0
{consumergroup=__strimzi-topic-operator-kstreams},1649210039,0
{consumergroup=__strimzi-topic-operator-kstreams},1649210044,0
{consumergroup=__strimzi-topic-operator-kstreams},1649210049,0
{consumergroup=__strimzi-topic-operator-kstreams},1649210054,0
{consumergroup=__strimzi-topic-operator-kstreams},1649210059,0
{consumergroup=__strimzi-topic-operator-kstreams},1649210064,0
{consumergroup=__strimzi-topic-operator-kstreams},1649210069,0
{consumergroup=__strimzi-topic-operator-kstreams},1649210074,0
{consumergroup=__strimzi-topic-operator-kstreams},1649210079,0
{consumergroup=__strimzi-topic-operator-kstreams},1649210084,0
{consumergroup=__strimzi-topic-operator-kstreams},1649210089,0
{consumergroup=__strimzi-topic-operator-kstreams},1649210094,0
{consumergroup=__strimzi-topic-operator-kstreams},1649210099,0
{consumergroup=__strimzi-topic-operator-kstreams},1649210104,0
{consumergroup=__strimzi-topic-operator-kstreams},1649210109,0
{consumergroup=__strimzi-topic-operator-kstreams},1649210114,0
{consumergroup=__strimzi-topic-operator-kstreams},1649210119,0
{consumergroup=__strimzi-topic-operator-kstreams},1649210124,0
{consumergroup=__strimzi-topic-operator-kstreams},1649210129,0
{consumergroup=__strimzi-topic-operator-kstreams},1649210134,0
{consumergroup=__strimzi-topic-operator-kstreams},1649210139,0
{consumergroup=__strimzi-topic-operator-kstreams},1649210144,0
{consumergroup=__strimzi-topic-operator-kstreams},1649210149,0
{consumergroup=__strimzi-topic-operator-kstreams},1649210154,0
{consumergroup=__strimzi-topic-operator-kstreams},1649210159,0
{consumergroup=__strimzi-topic-operator-kstreams},1649210164,0
{consumergroup=__strimzi-topic-operator-kstreams},1649210169,0
{consumergroup=__strimzi-topic-operator-kstreams},1649210174,0
{consumergroup=__strimzi-topic-operator-kstreams},1649210179,0
{consumergroup=__strimzi-topic-operator-kstreams},1649210184,0
{consumergroup=__strimzi-topic-operator-kstreams},1649210189,0
{consumergroup=__strimzi-topic-operator-kstreams},1649210194,0
{consumergroup=__strimzi-topic-operator-kstreams},1649210199,0
{consumergroup=__strimzi-topic-operator-kstreams},1649210204,0
{consumergroup=__strimzi-topic-operator-kstreams},1649210209,0
{consumergroup=__strimzi-topic-operator-kstreams},1649210214,0
{consumergroup=__strimzi-topic-operator-kstreams},1649210219,0
{consumergroup=__strimzi-topic-operator-kstreams},1649210224,0
{consumergroup=__strimzi-topic-operator-kstreams},1649210229,0
{consumergroup=__strimzi-topic-operator-kstreams},1649210234,0
{consumergroup=__strimzi-topic-operator-kstreams},1649210239,0
{consumergroup=__strimzi-topic-operator-kstreams},1649210244,0
{consumergroup=__strimzi-topic-operator-kstreams},1649210249,0
{consumergroup=__strimzi-topic-operator-kstreams},1649210254,0
{consumergroup=__strimzi-topic-operator-kstreams},1649210259,0
{consumergroup=__strimzi-topic-operator-kstreams},1649210264,0
{consumergroup=__strimzi-topic-operator-kstreams},1649210269,0
{consumergroup=__strimzi-topic-operator-kstreams},1649210274,0
{consumergroup=__strimzi-topic-operator-kstreams},1649210279,0
{consumergroup=__strimzi-topic-operator-kstreams},1649210284,0
{consumergroup=__strimzi-topic-operator-kstreams},1649210289,0
{consumergroup=__strimzi-topic-operator-kstreams},1649210294,0
{consumergroup=__strimzi-topic-operator-kstreams},1649210299,0
{consumergroup=__strimzi-topic-operator-kstreams},1649210304,0
{consumergroup=__strimzi-topic-operator-kstreams},1649210309,0
{consumergroup=__strimzi-topic-operator-kstreams},1649210314,0
{consumergroup=__strimzi-topic-operator-kstreams},1649210319,0
{consumergroup=__strimzi-topic-operator-kstreams},1649210324,0
{consumergroup=__strimzi-topic-operator-kstreams},1649210329,0
{consumergroup=__strimzi-topic-operator-kstreams},1649210334,0
{consumergroup=__strimzi-topic-operator-kstreams},1649210339,0
{consumergroup=__strimzi-topic-operator-kstreams},1649210344,0
{consumergroup=__strimzi-topic-operator-kstreams},1649210349,0
{consumergroup=__strimzi-topic-operator-kstreams},1649210354,0
{consumergroup=__strimzi-topic-operator-kstreams},1649210359,0
{consumergroup=__strimzi-topic-operator-kstreams},1649210364,0
