labels,timestamp,value
{consumergroup=__strimzi-topic-operator-kstreams},1649204244,11
{consumergroup=__strimzi-topic-operator-kstreams},1649204249,11
{consumergroup=__strimzi-topic-operator-kstreams},1649204254,11
{consumergroup=__strimzi-topic-operator-kstreams},1649204259,0
{consumergroup=__strimzi-topic-operator-kstreams},1649204264,0
{consumergroup=__strimzi-topic-operator-kstreams},1649204269,0
{consumergroup=__strimzi-topic-operator-kstreams},1649204274,0
{consumergroup=__strimzi-topic-operator-kstreams},1649204279,0
{consumergroup=__strimzi-topic-operator-kstreams},1649204284,0
{consumergroup=__strimzi-topic-operator-kstreams},1649204289,0
{consumergroup=__strimzi-topic-operator-kstreams},1649204294,0
{consumergroup=__strimzi-topic-operator-kstreams},1649204299,0
{consumergroup=__strimzi-topic-operator-kstreams},1649204304,0
{consumergroup=__strimzi-topic-operator-kstreams},1649204309,0
{consumergroup=__strimzi-topic-operator-kstreams},1649204314,0
{consumergroup=__strimzi-topic-operator-kstreams},1649204319,3
{consumergroup=__strimzi-topic-operator-kstreams},1649204324,3
{consumergroup=__strimzi-topic-operator-kstreams},1649204329,3
{consumergroup=__strimzi-topic-operator-kstreams},1649204334,3
{consumergroup=__strimzi-topic-operator-kstreams},1649204339,3
{consumergroup=__strimzi-topic-operator-kstreams},1649204344,3
{consumergroup=__strimzi-topic-operator-kstreams},1649204349,0
{consumergroup=__strimzi-topic-operator-kstreams},1649204354,0
{consumergroup=__strimzi-topic-operator-kstreams},1649204359,0
{consumergroup=__strimzi-topic-operator-kstreams},1649204364,0
{consumergroup=__strimzi-topic-operator-kstreams},1649204369,0
{consumergroup=__strimzi-topic-operator-kstreams},1649204374,0
{consumergroup=__strimzi-topic-operator-kstreams},1649204379,0
{consumergroup=__strimzi-topic-operator-kstreams},1649204384,0
{consumergroup=__strimzi-topic-operator-kstreams},1649204389,0
{consumergroup=__strimzi-topic-operator-kstreams},1649204394,0
{consumergroup=__strimzi-topic-operator-kstreams},1649204399,0
{consumergroup=__strimzi-topic-operator-kstreams},1649204404,0
{consumergroup=__strimzi-topic-operator-kstreams},1649204409,0
{consumergroup=__strimzi-topic-operator-kstreams},1649204414,0
{consumergroup=__strimzi-topic-operator-kstreams},1649204419,0
{consumergroup=__strimzi-topic-operator-kstreams},1649204424,0
{consumergroup=__strimzi-topic-operator-kstreams},1649204429,0
{consumergroup=__strimzi-topic-operator-kstreams},1649204434,0
{consumergroup=__strimzi-topic-operator-kstreams},1649204439,0
{consumergroup=__strimzi-topic-operator-kstreams},1649204444,0
{consumergroup=__strimzi-topic-operator-kstreams},1649204449,0
{consumergroup=__strimzi-topic-operator-kstreams},1649204454,0
{consumergroup=__strimzi-topic-operator-kstreams},1649204459,0
{consumergroup=__strimzi-topic-operator-kstreams},1649204464,0
{consumergroup=__strimzi-topic-operator-kstreams},1649204469,0
{consumergroup=__strimzi-topic-operator-kstreams},1649204474,0
{consumergroup=__strimzi-topic-operator-kstreams},1649204479,0
{consumergroup=__strimzi-topic-operator-kstreams},1649204484,0
{consumergroup=__strimzi-topic-operator-kstreams},1649204489,0
{consumergroup=__strimzi-topic-operator-kstreams},1649204494,0
{consumergroup=__strimzi-topic-operator-kstreams},1649204499,0
{consumergroup=__strimzi-topic-operator-kstreams},1649204504,0
{consumergroup=__strimzi-topic-operator-kstreams},1649204509,0
{consumergroup=__strimzi-topic-operator-kstreams},1649204514,0
{consumergroup=__strimzi-topic-operator-kstreams},1649204519,0
{consumergroup=__strimzi-topic-operator-kstreams},1649204524,0
{consumergroup=__strimzi-topic-operator-kstreams},1649204529,0
{consumergroup=__strimzi-topic-operator-kstreams},1649204534,0
{consumergroup=__strimzi-topic-operator-kstreams},1649204539,0
{consumergroup=__strimzi-topic-operator-kstreams},1649204544,0
{consumergroup=__strimzi-topic-operator-kstreams},1649204549,0
{consumergroup=__strimzi-topic-operator-kstreams},1649204554,0
{consumergroup=__strimzi-topic-operator-kstreams},1649204559,0
{consumergroup=__strimzi-topic-operator-kstreams},1649204564,0
{consumergroup=__strimzi-topic-operator-kstreams},1649204569,0
{consumergroup=__strimzi-topic-operator-kstreams},1649204574,0
{consumergroup=__strimzi-topic-operator-kstreams},1649204579,0
{consumergroup=__strimzi-topic-operator-kstreams},1649204584,0
{consumergroup=__strimzi-topic-operator-kstreams},1649204589,0
{consumergroup=__strimzi-topic-operator-kstreams},1649204594,0
{consumergroup=__strimzi-topic-operator-kstreams},1649204599,0
{consumergroup=__strimzi-topic-operator-kstreams},1649204604,0
{consumergroup=__strimzi-topic-operator-kstreams},1649204609,0
{consumergroup=__strimzi-topic-operator-kstreams},1649204614,0
{consumergroup=__strimzi-topic-operator-kstreams},1649204619,0
{consumergroup=__strimzi-topic-operator-kstreams},1649204624,0
{consumergroup=__strimzi-topic-operator-kstreams},1649204629,0
{consumergroup=__strimzi-topic-operator-kstreams},1649204634,0
{consumergroup=__strimzi-topic-operator-kstreams},1649204639,0
{consumergroup=__strimzi-topic-operator-kstreams},1649204644,0
{consumergroup=__strimzi-topic-operator-kstreams},1649204649,0
{consumergroup=__strimzi-topic-operator-kstreams},1649204654,0
{consumergroup=__strimzi-topic-operator-kstreams},1649204659,0
{consumergroup=__strimzi-topic-operator-kstreams},1649204664,0
{consumergroup=__strimzi-topic-operator-kstreams},1649204669,0
{consumergroup=__strimzi-topic-operator-kstreams},1649204674,0
{consumergroup=__strimzi-topic-operator-kstreams},1649204679,0
{consumergroup=__strimzi-topic-operator-kstreams},1649204684,0
{consumergroup=__strimzi-topic-operator-kstreams},1649204689,0
{consumergroup=__strimzi-topic-operator-kstreams},1649204694,0
{consumergroup=__strimzi-topic-operator-kstreams},1649204699,0
{consumergroup=__strimzi-topic-operator-kstreams},1649204704,0
{consumergroup=__strimzi-topic-operator-kstreams},1649204709,0
{consumergroup=__strimzi-topic-operator-kstreams},1649204714,0
{consumergroup=__strimzi-topic-operator-kstreams},1649204719,0
{consumergroup=__strimzi-topic-operator-kstreams},1649204724,0
{consumergroup=__strimzi-topic-operator-kstreams},1649204729,0
{consumergroup=__strimzi-topic-operator-kstreams},1649204734,0
