labels,timestamp,value
{},1649217803,0
{},1649217808,0
{},1649217813,0
{},1649217818,0
{},1649217823,0
{},1649217828,0
{},1649217833,0
{},1649217838,0
{},1649217843,0
{},1649217848,0
{},1649217853,0
{},1649217858,0
{},1649217863,0
{},1649217868,0
{},1649217873,0
