labels,timestamp,value
{},1649207024,0
{},1649207029,0
{},1649207034,0
{},1649207039,0
{},1649207044,0
{},1649207049,0
{},1649207054,0
{},1649207059,0
{},1649207064,0
{},1649207069,0
{},1649207074,0
{},1649207079,0
{},1649207084,0
{},1649207089,0
{},1649207094,0
{},1649207099,0
{},1649207104,0
{},1649207109,0
{},1649207114,0
{},1649207119,0
{},1649207124,0
{},1649207129,0
{},1649207134,0
{},1649207139,0
{},1649207144,0
{},1649207149,0
{},1649207154,0
{},1649207159,0
{},1649207164,0
{},1649207169,0
{},1649207174,0
{},1649207179,0
{},1649207184,0
{},1649207189,0
{},1649207194,0
{},1649207199,0
{},1649207204,0
{},1649207209,0
{},1649207214,0
{},1649207219,0
{},1649207224,0
{},1649207229,0
{},1649207234,0
{},1649207239,0
