labels,timestamp,value
{},1649200272,0
{},1649200277,0
{},1649200282,0
{},1649200287,0
{},1649200292,0
{},1649200297,0
{},1649200302,0
{},1649200307,0
{},1649200312,0
{},1649200317,0
{},1649200322,0
{},1649200327,0
{},1649200332,0
{},1649200337,0
