labels,timestamp,value
{consumergroup=__strimzi-topic-operator-kstreams},1649216099,0
{consumergroup=__strimzi-topic-operator-kstreams},1649216104,0
{consumergroup=__strimzi-topic-operator-kstreams},1649216109,0
{consumergroup=__strimzi-topic-operator-kstreams},1649216114,0
{consumergroup=__strimzi-topic-operator-kstreams},1649216119,0
{consumergroup=__strimzi-topic-operator-kstreams},1649216124,0
{consumergroup=__strimzi-topic-operator-kstreams},1649216129,0
{consumergroup=__strimzi-topic-operator-kstreams},1649216134,0
{consumergroup=__strimzi-topic-operator-kstreams},1649216139,0
{consumergroup=__strimzi-topic-operator-kstreams},1649216144,0
{consumergroup=__strimzi-topic-operator-kstreams},1649216149,0
{consumergroup=__strimzi-topic-operator-kstreams},1649216154,0
{consumergroup=__strimzi-topic-operator-kstreams},1649216159,0
{consumergroup=__strimzi-topic-operator-kstreams},1649216164,0
{consumergroup=__strimzi-topic-operator-kstreams},1649216169,0
{consumergroup=__strimzi-topic-operator-kstreams},1649216174,0
{consumergroup=__strimzi-topic-operator-kstreams},1649216179,0
{consumergroup=__strimzi-topic-operator-kstreams},1649216184,0
{consumergroup=__strimzi-topic-operator-kstreams},1649216189,0
{consumergroup=__strimzi-topic-operator-kstreams},1649216194,0
{consumergroup=__strimzi-topic-operator-kstreams},1649216199,0
{consumergroup=__strimzi-topic-operator-kstreams},1649216204,0
{consumergroup=__strimzi-topic-operator-kstreams},1649216209,0
{consumergroup=__strimzi-topic-operator-kstreams},1649216214,0
{consumergroup=__strimzi-topic-operator-kstreams},1649216219,0
{consumergroup=__strimzi-topic-operator-kstreams},1649216224,0
{consumergroup=__strimzi-topic-operator-kstreams},1649216229,0
{consumergroup=__strimzi-topic-operator-kstreams},1649216234,0
{consumergroup=__strimzi-topic-operator-kstreams},1649216239,0
{consumergroup=__strimzi-topic-operator-kstreams},1649216244,0
{consumergroup=__strimzi-topic-operator-kstreams},1649216249,0
{consumergroup=__strimzi-topic-operator-kstreams},1649216254,0
{consumergroup=__strimzi-topic-operator-kstreams},1649216259,0
{consumergroup=__strimzi-topic-operator-kstreams},1649216264,0
{consumergroup=__strimzi-topic-operator-kstreams},1649216269,0
{consumergroup=__strimzi-topic-operator-kstreams},1649216274,0
{consumergroup=__strimzi-topic-operator-kstreams},1649216279,0
{consumergroup=__strimzi-topic-operator-kstreams},1649216284,0
{consumergroup=__strimzi-topic-operator-kstreams},1649216289,0
{consumergroup=__strimzi-topic-operator-kstreams},1649216294,0
{consumergroup=__strimzi-topic-operator-kstreams},1649216299,0
{consumergroup=__strimzi-topic-operator-kstreams},1649216304,0
{consumergroup=__strimzi-topic-operator-kstreams},1649216309,0
{consumergroup=__strimzi-topic-operator-kstreams},1649216314,0
{consumergroup=__strimzi-topic-operator-kstreams},1649216319,0
{consumergroup=__strimzi-topic-operator-kstreams},1649216324,0
{consumergroup=__strimzi-topic-operator-kstreams},1649216329,0
{consumergroup=__strimzi-topic-operator-kstreams},1649216334,0
{consumergroup=__strimzi-topic-operator-kstreams},1649216339,0
{consumergroup=__strimzi-topic-operator-kstreams},1649216344,0
{consumergroup=__strimzi-topic-operator-kstreams},1649216349,0
{consumergroup=__strimzi-topic-operator-kstreams},1649216354,0
{consumergroup=__strimzi-topic-operator-kstreams},1649216359,0
{consumergroup=__strimzi-topic-operator-kstreams},1649216364,0
{consumergroup=__strimzi-topic-operator-kstreams},1649216369,0
{consumergroup=__strimzi-topic-operator-kstreams},1649216374,0
{consumergroup=__strimzi-topic-operator-kstreams},1649216379,0
{consumergroup=__strimzi-topic-operator-kstreams},1649216384,0
{consumergroup=__strimzi-topic-operator-kstreams},1649216389,0
{consumergroup=__strimzi-topic-operator-kstreams},1649216394,0
{consumergroup=__strimzi-topic-operator-kstreams},1649216399,0
{consumergroup=__strimzi-topic-operator-kstreams},1649216404,0
{consumergroup=__strimzi-topic-operator-kstreams},1649216409,0
{consumergroup=__strimzi-topic-operator-kstreams},1649216414,0
{consumergroup=__strimzi-topic-operator-kstreams},1649216419,0
{consumergroup=__strimzi-topic-operator-kstreams},1649216424,0
{consumergroup=__strimzi-topic-operator-kstreams},1649216429,0
{consumergroup=__strimzi-topic-operator-kstreams},1649216434,0
{consumergroup=__strimzi-topic-operator-kstreams},1649216439,0
{consumergroup=__strimzi-topic-operator-kstreams},1649216444,0
{consumergroup=__strimzi-topic-operator-kstreams},1649216449,0
{consumergroup=__strimzi-topic-operator-kstreams},1649216454,0
{consumergroup=__strimzi-topic-operator-kstreams},1649216459,0
{consumergroup=__strimzi-topic-operator-kstreams},1649216464,0
{consumergroup=__strimzi-topic-operator-kstreams},1649216469,0
{consumergroup=__strimzi-topic-operator-kstreams},1649216474,0
{consumergroup=__strimzi-topic-operator-kstreams},1649216479,0
{consumergroup=__strimzi-topic-operator-kstreams},1649216484,0
{consumergroup=__strimzi-topic-operator-kstreams},1649216489,0
{consumergroup=__strimzi-topic-operator-kstreams},1649216494,0
{consumergroup=__strimzi-topic-operator-kstreams},1649216499,0
{consumergroup=__strimzi-topic-operator-kstreams},1649216504,0
{consumergroup=__strimzi-topic-operator-kstreams},1649216509,0
{consumergroup=__strimzi-topic-operator-kstreams},1649216514,0
{consumergroup=__strimzi-topic-operator-kstreams},1649216519,0
{consumergroup=__strimzi-topic-operator-kstreams},1649216524,0
{consumergroup=__strimzi-topic-operator-kstreams},1649216529,0
{consumergroup=__strimzi-topic-operator-kstreams},1649216534,0
{consumergroup=__strimzi-topic-operator-kstreams},1649216539,0
{consumergroup=__strimzi-topic-operator-kstreams},1649216544,0
{consumergroup=__strimzi-topic-operator-kstreams},1649216549,0
{consumergroup=__strimzi-topic-operator-kstreams},1649216554,0
{consumergroup=__strimzi-topic-operator-kstreams},1649216559,0
{consumergroup=__strimzi-topic-operator-kstreams},1649216564,0
{consumergroup=__strimzi-topic-operator-kstreams},1649216569,0
{consumergroup=__strimzi-topic-operator-kstreams},1649216574,0
{consumergroup=__strimzi-topic-operator-kstreams},1649216579,0
{consumergroup=__strimzi-topic-operator-kstreams},1649216584,0
{consumergroup=__strimzi-topic-operator-kstreams},1649216589,0
{consumergroup=__strimzi-topic-operator-kstreams},1649216594,0
