labels,timestamp,value
{consumergroup=__strimzi-topic-operator-kstreams},1649183282,0
{consumergroup=__strimzi-topic-operator-kstreams},1649183287,0
{consumergroup=__strimzi-topic-operator-kstreams},1649183292,0
{consumergroup=__strimzi-topic-operator-kstreams},1649183297,8
{consumergroup=__strimzi-topic-operator-kstreams},1649183302,8
{consumergroup=__strimzi-topic-operator-kstreams},1649183307,8
{consumergroup=__strimzi-topic-operator-kstreams},1649183312,0
{consumergroup=__strimzi-topic-operator-kstreams},1649183317,0
{consumergroup=__strimzi-topic-operator-kstreams},1649183322,0
{consumergroup=__strimzi-topic-operator-kstreams},1649183327,0
{consumergroup=__strimzi-topic-operator-kstreams},1649183332,0
{consumergroup=__strimzi-topic-operator-kstreams},1649183337,0
{consumergroup=__strimzi-topic-operator-kstreams},1649183342,0
{consumergroup=__strimzi-topic-operator-kstreams},1649183347,0
{consumergroup=__strimzi-topic-operator-kstreams},1649183352,0
{consumergroup=__strimzi-topic-operator-kstreams},1649183357,0
{consumergroup=__strimzi-topic-operator-kstreams},1649183362,0
{consumergroup=__strimzi-topic-operator-kstreams},1649183367,0
{consumergroup=__strimzi-topic-operator-kstreams},1649183372,0
{consumergroup=__strimzi-topic-operator-kstreams},1649183377,0
{consumergroup=__strimzi-topic-operator-kstreams},1649183382,0
{consumergroup=__strimzi-topic-operator-kstreams},1649183387,0
{consumergroup=__strimzi-topic-operator-kstreams},1649183392,0
{consumergroup=__strimzi-topic-operator-kstreams},1649183397,0
{consumergroup=__strimzi-topic-operator-kstreams},1649183402,0
{consumergroup=__strimzi-topic-operator-kstreams},1649183407,0
{consumergroup=__strimzi-topic-operator-kstreams},1649183412,0
{consumergroup=__strimzi-topic-operator-kstreams},1649183417,3
{consumergroup=__strimzi-topic-operator-kstreams},1649183422,3
{consumergroup=__strimzi-topic-operator-kstreams},1649183427,3
{consumergroup=__strimzi-topic-operator-kstreams},1649183432,0
{consumergroup=__strimzi-topic-operator-kstreams},1649183437,0
{consumergroup=__strimzi-topic-operator-kstreams},1649183442,0
{consumergroup=__strimzi-topic-operator-kstreams},1649183447,0
{consumergroup=__strimzi-topic-operator-kstreams},1649183452,0
{consumergroup=__strimzi-topic-operator-kstreams},1649183457,0
{consumergroup=__strimzi-topic-operator-kstreams},1649183462,0
{consumergroup=__strimzi-topic-operator-kstreams},1649183467,0
{consumergroup=__strimzi-topic-operator-kstreams},1649183472,0
{consumergroup=__strimzi-topic-operator-kstreams},1649183477,0
{consumergroup=__strimzi-topic-operator-kstreams},1649183482,0
{consumergroup=__strimzi-topic-operator-kstreams},1649183487,0
{consumergroup=__strimzi-topic-operator-kstreams},1649183492,0
{consumergroup=__strimzi-topic-operator-kstreams},1649183497,0
{consumergroup=__strimzi-topic-operator-kstreams},1649183502,0
{consumergroup=__strimzi-topic-operator-kstreams},1649183507,0
{consumergroup=__strimzi-topic-operator-kstreams},1649183512,0
{consumergroup=__strimzi-topic-operator-kstreams},1649183517,0
{consumergroup=__strimzi-topic-operator-kstreams},1649183522,0
{consumergroup=__strimzi-topic-operator-kstreams},1649183527,0
{consumergroup=__strimzi-topic-operator-kstreams},1649183532,0
{consumergroup=__strimzi-topic-operator-kstreams},1649183537,0
{consumergroup=__strimzi-topic-operator-kstreams},1649183542,0
{consumergroup=__strimzi-topic-operator-kstreams},1649183547,0
{consumergroup=__strimzi-topic-operator-kstreams},1649183552,0
{consumergroup=__strimzi-topic-operator-kstreams},1649183557,0
{consumergroup=__strimzi-topic-operator-kstreams},1649183562,0
{consumergroup=__strimzi-topic-operator-kstreams},1649183567,0
{consumergroup=__strimzi-topic-operator-kstreams},1649183572,0
{consumergroup=__strimzi-topic-operator-kstreams},1649183577,0
{consumergroup=__strimzi-topic-operator-kstreams},1649183582,0
{consumergroup=__strimzi-topic-operator-kstreams},1649183587,0
{consumergroup=__strimzi-topic-operator-kstreams},1649183592,0
{consumergroup=__strimzi-topic-operator-kstreams},1649183597,0
{consumergroup=__strimzi-topic-operator-kstreams},1649183602,0
{consumergroup=__strimzi-topic-operator-kstreams},1649183607,0
{consumergroup=__strimzi-topic-operator-kstreams},1649183612,0
{consumergroup=__strimzi-topic-operator-kstreams},1649183617,0
{consumergroup=__strimzi-topic-operator-kstreams},1649183622,0
{consumergroup=__strimzi-topic-operator-kstreams},1649183627,0
{consumergroup=__strimzi-topic-operator-kstreams},1649183632,0
{consumergroup=__strimzi-topic-operator-kstreams},1649183637,0
{consumergroup=__strimzi-topic-operator-kstreams},1649183642,0
{consumergroup=__strimzi-topic-operator-kstreams},1649183647,0
{consumergroup=__strimzi-topic-operator-kstreams},1649183652,0
{consumergroup=__strimzi-topic-operator-kstreams},1649183657,0
{consumergroup=__strimzi-topic-operator-kstreams},1649183662,0
{consumergroup=__strimzi-topic-operator-kstreams},1649183667,0
{consumergroup=__strimzi-topic-operator-kstreams},1649183672,0
{consumergroup=__strimzi-topic-operator-kstreams},1649183677,0
{consumergroup=__strimzi-topic-operator-kstreams},1649183682,0
{consumergroup=__strimzi-topic-operator-kstreams},1649183687,0
{consumergroup=__strimzi-topic-operator-kstreams},1649183692,0
{consumergroup=__strimzi-topic-operator-kstreams},1649183697,0
{consumergroup=__strimzi-topic-operator-kstreams},1649183702,0
{consumergroup=__strimzi-topic-operator-kstreams},1649183707,0
{consumergroup=__strimzi-topic-operator-kstreams},1649183712,0
{consumergroup=__strimzi-topic-operator-kstreams},1649183717,0
{consumergroup=__strimzi-topic-operator-kstreams},1649183722,0
{consumergroup=__strimzi-topic-operator-kstreams},1649183727,0
{consumergroup=__strimzi-topic-operator-kstreams},1649183732,0
{consumergroup=__strimzi-topic-operator-kstreams},1649183737,0
{consumergroup=__strimzi-topic-operator-kstreams},1649183742,0
{consumergroup=__strimzi-topic-operator-kstreams},1649183747,0
{consumergroup=__strimzi-topic-operator-kstreams},1649183752,0
{consumergroup=__strimzi-topic-operator-kstreams},1649183757,0
{consumergroup=__strimzi-topic-operator-kstreams},1649183762,0
{consumergroup=__strimzi-topic-operator-kstreams},1649183767,0
{consumergroup=__strimzi-topic-operator-kstreams},1649183772,0
{consumergroup=__strimzi-topic-operator-kstreams},1649183777,0
{consumergroup=__strimzi-topic-operator-kstreams},1649183782,0
