labels,timestamp,value
{consumergroup=__strimzi-topic-operator-kstreams},1649192378,8
{consumergroup=__strimzi-topic-operator-kstreams},1649192383,8
{consumergroup=__strimzi-topic-operator-kstreams},1649192388,8
{consumergroup=__strimzi-topic-operator-kstreams},1649192393,0
{consumergroup=__strimzi-topic-operator-kstreams},1649192398,0
{consumergroup=__strimzi-topic-operator-kstreams},1649192403,0
{consumergroup=__strimzi-topic-operator-kstreams},1649192408,0
{consumergroup=__strimzi-topic-operator-kstreams},1649192413,0
{consumergroup=__strimzi-topic-operator-kstreams},1649192418,0
{consumergroup=__strimzi-topic-operator-kstreams},1649192423,0
{consumergroup=__strimzi-topic-operator-kstreams},1649192428,0
{consumergroup=__strimzi-topic-operator-kstreams},1649192433,0
{consumergroup=__strimzi-topic-operator-kstreams},1649192438,0
{consumergroup=__strimzi-topic-operator-kstreams},1649192443,0
{consumergroup=__strimzi-topic-operator-kstreams},1649192448,0
{consumergroup=__strimzi-topic-operator-kstreams},1649192453,0
{consumergroup=__strimzi-topic-operator-kstreams},1649192458,0
{consumergroup=__strimzi-topic-operator-kstreams},1649192463,0
{consumergroup=__strimzi-topic-operator-kstreams},1649192468,0
{consumergroup=__strimzi-topic-operator-kstreams},1649192473,0
{consumergroup=__strimzi-topic-operator-kstreams},1649192478,0
{consumergroup=__strimzi-topic-operator-kstreams},1649192483,0
{consumergroup=__strimzi-topic-operator-kstreams},1649192488,0
{consumergroup=__strimzi-topic-operator-kstreams},1649192493,0
{consumergroup=__strimzi-topic-operator-kstreams},1649192498,0
{consumergroup=__strimzi-topic-operator-kstreams},1649192503,0
{consumergroup=__strimzi-topic-operator-kstreams},1649192508,0
{consumergroup=__strimzi-topic-operator-kstreams},1649192513,0
{consumergroup=__strimzi-topic-operator-kstreams},1649192518,0
{consumergroup=__strimzi-topic-operator-kstreams},1649192523,0
{consumergroup=__strimzi-topic-operator-kstreams},1649192528,0
{consumergroup=__strimzi-topic-operator-kstreams},1649192533,0
{consumergroup=__strimzi-topic-operator-kstreams},1649192538,0
{consumergroup=__strimzi-topic-operator-kstreams},1649192543,0
{consumergroup=__strimzi-topic-operator-kstreams},1649192548,0
{consumergroup=__strimzi-topic-operator-kstreams},1649192553,0
{consumergroup=__strimzi-topic-operator-kstreams},1649192558,0
{consumergroup=__strimzi-topic-operator-kstreams},1649192563,0
{consumergroup=__strimzi-topic-operator-kstreams},1649192568,0
{consumergroup=__strimzi-topic-operator-kstreams},1649192573,0
{consumergroup=__strimzi-topic-operator-kstreams},1649192578,0
{consumergroup=__strimzi-topic-operator-kstreams},1649192583,0
{consumergroup=__strimzi-topic-operator-kstreams},1649192588,0
{consumergroup=__strimzi-topic-operator-kstreams},1649192593,0
{consumergroup=__strimzi-topic-operator-kstreams},1649192598,0
{consumergroup=__strimzi-topic-operator-kstreams},1649192603,0
{consumergroup=__strimzi-topic-operator-kstreams},1649192608,0
{consumergroup=__strimzi-topic-operator-kstreams},1649192613,0
{consumergroup=__strimzi-topic-operator-kstreams},1649192618,0
{consumergroup=__strimzi-topic-operator-kstreams},1649192623,0
{consumergroup=__strimzi-topic-operator-kstreams},1649192628,0
{consumergroup=__strimzi-topic-operator-kstreams},1649192633,0
{consumergroup=__strimzi-topic-operator-kstreams},1649192638,0
{consumergroup=__strimzi-topic-operator-kstreams},1649192643,0
{consumergroup=__strimzi-topic-operator-kstreams},1649192648,0
{consumergroup=__strimzi-topic-operator-kstreams},1649192653,0
{consumergroup=__strimzi-topic-operator-kstreams},1649192658,0
{consumergroup=__strimzi-topic-operator-kstreams},1649192663,0
{consumergroup=__strimzi-topic-operator-kstreams},1649192668,0
{consumergroup=__strimzi-topic-operator-kstreams},1649192673,0
{consumergroup=__strimzi-topic-operator-kstreams},1649192678,0
{consumergroup=__strimzi-topic-operator-kstreams},1649192683,0
{consumergroup=__strimzi-topic-operator-kstreams},1649192688,0
{consumergroup=__strimzi-topic-operator-kstreams},1649192693,0
{consumergroup=__strimzi-topic-operator-kstreams},1649192698,0
{consumergroup=__strimzi-topic-operator-kstreams},1649192703,0
{consumergroup=__strimzi-topic-operator-kstreams},1649192708,0
{consumergroup=__strimzi-topic-operator-kstreams},1649192713,0
{consumergroup=__strimzi-topic-operator-kstreams},1649192718,0
{consumergroup=__strimzi-topic-operator-kstreams},1649192723,0
{consumergroup=__strimzi-topic-operator-kstreams},1649192728,0
{consumergroup=__strimzi-topic-operator-kstreams},1649192733,0
{consumergroup=__strimzi-topic-operator-kstreams},1649192738,0
{consumergroup=__strimzi-topic-operator-kstreams},1649192743,0
{consumergroup=__strimzi-topic-operator-kstreams},1649192748,0
{consumergroup=__strimzi-topic-operator-kstreams},1649192753,0
{consumergroup=__strimzi-topic-operator-kstreams},1649192758,0
{consumergroup=__strimzi-topic-operator-kstreams},1649192763,0
{consumergroup=__strimzi-topic-operator-kstreams},1649192768,0
{consumergroup=__strimzi-topic-operator-kstreams},1649192773,0
{consumergroup=__strimzi-topic-operator-kstreams},1649192778,0
{consumergroup=__strimzi-topic-operator-kstreams},1649192783,0
{consumergroup=__strimzi-topic-operator-kstreams},1649192788,0
{consumergroup=__strimzi-topic-operator-kstreams},1649192793,0
{consumergroup=__strimzi-topic-operator-kstreams},1649192798,0
{consumergroup=__strimzi-topic-operator-kstreams},1649192803,0
{consumergroup=__strimzi-topic-operator-kstreams},1649192808,0
{consumergroup=__strimzi-topic-operator-kstreams},1649192813,0
{consumergroup=__strimzi-topic-operator-kstreams},1649192818,0
{consumergroup=__strimzi-topic-operator-kstreams},1649192823,0
{consumergroup=__strimzi-topic-operator-kstreams},1649192828,0
{consumergroup=__strimzi-topic-operator-kstreams},1649192833,0
{consumergroup=__strimzi-topic-operator-kstreams},1649192838,0
{consumergroup=__strimzi-topic-operator-kstreams},1649192843,0
{consumergroup=__strimzi-topic-operator-kstreams},1649192848,0
{consumergroup=__strimzi-topic-operator-kstreams},1649192853,0
{consumergroup=__strimzi-topic-operator-kstreams},1649192858,0
{consumergroup=__strimzi-topic-operator-kstreams},1649192863,0
