labels,timestamp,value
{consumergroup=__strimzi-topic-operator-kstreams},1649204805,11
{consumergroup=__strimzi-topic-operator-kstreams},1649204810,11
{consumergroup=__strimzi-topic-operator-kstreams},1649204815,11
{consumergroup=__strimzi-topic-operator-kstreams},1649204820,0
{consumergroup=__strimzi-topic-operator-kstreams},1649204825,0
{consumergroup=__strimzi-topic-operator-kstreams},1649204830,0
{consumergroup=__strimzi-topic-operator-kstreams},1649204835,0
{consumergroup=__strimzi-topic-operator-kstreams},1649204840,0
{consumergroup=__strimzi-topic-operator-kstreams},1649204845,0
{consumergroup=__strimzi-topic-operator-kstreams},1649204850,0
{consumergroup=__strimzi-topic-operator-kstreams},1649204855,0
{consumergroup=__strimzi-topic-operator-kstreams},1649204860,0
{consumergroup=__strimzi-topic-operator-kstreams},1649204865,0
{consumergroup=__strimzi-topic-operator-kstreams},1649204870,0
{consumergroup=__strimzi-topic-operator-kstreams},1649204875,0
{consumergroup=__strimzi-topic-operator-kstreams},1649204880,0
{consumergroup=__strimzi-topic-operator-kstreams},1649204885,0
{consumergroup=__strimzi-topic-operator-kstreams},1649204890,0
{consumergroup=__strimzi-topic-operator-kstreams},1649204895,0
{consumergroup=__strimzi-topic-operator-kstreams},1649204900,0
{consumergroup=__strimzi-topic-operator-kstreams},1649204905,0
{consumergroup=__strimzi-topic-operator-kstreams},1649204910,0
{consumergroup=__strimzi-topic-operator-kstreams},1649204915,0
{consumergroup=__strimzi-topic-operator-kstreams},1649204920,0
{consumergroup=__strimzi-topic-operator-kstreams},1649204925,3
{consumergroup=__strimzi-topic-operator-kstreams},1649204930,3
{consumergroup=__strimzi-topic-operator-kstreams},1649204935,3
{consumergroup=__strimzi-topic-operator-kstreams},1649204940,0
{consumergroup=__strimzi-topic-operator-kstreams},1649204945,0
{consumergroup=__strimzi-topic-operator-kstreams},1649204950,0
{consumergroup=__strimzi-topic-operator-kstreams},1649204955,0
{consumergroup=__strimzi-topic-operator-kstreams},1649204960,0
{consumergroup=__strimzi-topic-operator-kstreams},1649204965,0
{consumergroup=__strimzi-topic-operator-kstreams},1649204970,0
{consumergroup=__strimzi-topic-operator-kstreams},1649204975,0
{consumergroup=__strimzi-topic-operator-kstreams},1649204980,0
{consumergroup=__strimzi-topic-operator-kstreams},1649204985,0
{consumergroup=__strimzi-topic-operator-kstreams},1649204990,0
{consumergroup=__strimzi-topic-operator-kstreams},1649204995,0
{consumergroup=__strimzi-topic-operator-kstreams},1649205000,0
{consumergroup=__strimzi-topic-operator-kstreams},1649205005,0
{consumergroup=__strimzi-topic-operator-kstreams},1649205010,0
{consumergroup=__strimzi-topic-operator-kstreams},1649205015,0
{consumergroup=__strimzi-topic-operator-kstreams},1649205020,0
{consumergroup=__strimzi-topic-operator-kstreams},1649205025,0
{consumergroup=__strimzi-topic-operator-kstreams},1649205030,0
{consumergroup=__strimzi-topic-operator-kstreams},1649205035,0
{consumergroup=__strimzi-topic-operator-kstreams},1649205040,0
{consumergroup=__strimzi-topic-operator-kstreams},1649205045,0
{consumergroup=__strimzi-topic-operator-kstreams},1649205050,0
{consumergroup=__strimzi-topic-operator-kstreams},1649205055,0
{consumergroup=__strimzi-topic-operator-kstreams},1649205060,0
{consumergroup=__strimzi-topic-operator-kstreams},1649205065,0
{consumergroup=__strimzi-topic-operator-kstreams},1649205070,0
{consumergroup=__strimzi-topic-operator-kstreams},1649205075,0
{consumergroup=__strimzi-topic-operator-kstreams},1649205080,0
{consumergroup=__strimzi-topic-operator-kstreams},1649205085,0
{consumergroup=__strimzi-topic-operator-kstreams},1649205090,0
{consumergroup=__strimzi-topic-operator-kstreams},1649205095,0
{consumergroup=__strimzi-topic-operator-kstreams},1649205100,0
{consumergroup=__strimzi-topic-operator-kstreams},1649205105,0
{consumergroup=__strimzi-topic-operator-kstreams},1649205110,0
{consumergroup=__strimzi-topic-operator-kstreams},1649205115,0
{consumergroup=__strimzi-topic-operator-kstreams},1649205120,0
{consumergroup=__strimzi-topic-operator-kstreams},1649205125,0
{consumergroup=__strimzi-topic-operator-kstreams},1649205130,0
{consumergroup=__strimzi-topic-operator-kstreams},1649205135,0
{consumergroup=__strimzi-topic-operator-kstreams},1649205140,0
{consumergroup=__strimzi-topic-operator-kstreams},1649205145,0
{consumergroup=__strimzi-topic-operator-kstreams},1649205150,0
{consumergroup=__strimzi-topic-operator-kstreams},1649205155,0
{consumergroup=__strimzi-topic-operator-kstreams},1649205160,0
{consumergroup=__strimzi-topic-operator-kstreams},1649205165,0
{consumergroup=__strimzi-topic-operator-kstreams},1649205170,0
{consumergroup=__strimzi-topic-operator-kstreams},1649205175,0
{consumergroup=__strimzi-topic-operator-kstreams},1649205180,0
{consumergroup=__strimzi-topic-operator-kstreams},1649205185,0
{consumergroup=__strimzi-topic-operator-kstreams},1649205190,0
{consumergroup=__strimzi-topic-operator-kstreams},1649205195,0
{consumergroup=__strimzi-topic-operator-kstreams},1649205200,0
{consumergroup=__strimzi-topic-operator-kstreams},1649205205,0
{consumergroup=__strimzi-topic-operator-kstreams},1649205210,0
{consumergroup=__strimzi-topic-operator-kstreams},1649205215,0
{consumergroup=__strimzi-topic-operator-kstreams},1649205220,0
{consumergroup=__strimzi-topic-operator-kstreams},1649205225,0
{consumergroup=__strimzi-topic-operator-kstreams},1649205230,0
{consumergroup=__strimzi-topic-operator-kstreams},1649205235,0
{consumergroup=__strimzi-topic-operator-kstreams},1649205240,0
{consumergroup=__strimzi-topic-operator-kstreams},1649205245,0
{consumergroup=__strimzi-topic-operator-kstreams},1649205250,0
{consumergroup=__strimzi-topic-operator-kstreams},1649205255,0
{consumergroup=__strimzi-topic-operator-kstreams},1649205260,0
{consumergroup=__strimzi-topic-operator-kstreams},1649205265,0
{consumergroup=__strimzi-topic-operator-kstreams},1649205270,0
{consumergroup=__strimzi-topic-operator-kstreams},1649205275,0
{consumergroup=__strimzi-topic-operator-kstreams},1649205280,0
{consumergroup=__strimzi-topic-operator-kstreams},1649205285,0
{consumergroup=__strimzi-topic-operator-kstreams},1649205290,0
{consumergroup=__strimzi-topic-operator-kstreams},1649205295,0
