labels,timestamp,value
{},1649205362,0
{},1649205367,0
{},1649205372,0
{},1649205377,0
{},1649205382,0
{},1649205387,0
{},1649205392,0
{},1649205397,0
{},1649205402,0
{},1649205407,0
{},1649205412,0
{},1649205417,0
{},1649205422,0
{},1649205427,0
