labels,timestamp,value
{consumergroup=__strimzi-topic-operator-kstreams},1649187267,11
{consumergroup=__strimzi-topic-operator-kstreams},1649187272,11
{consumergroup=__strimzi-topic-operator-kstreams},1649187277,11
{consumergroup=__strimzi-topic-operator-kstreams},1649187282,0
{consumergroup=__strimzi-topic-operator-kstreams},1649187287,0
{consumergroup=__strimzi-topic-operator-kstreams},1649187292,0
{consumergroup=__strimzi-topic-operator-kstreams},1649187297,0
{consumergroup=__strimzi-topic-operator-kstreams},1649187302,0
{consumergroup=__strimzi-topic-operator-kstreams},1649187307,0
{consumergroup=__strimzi-topic-operator-kstreams},1649187312,0
{consumergroup=__strimzi-topic-operator-kstreams},1649187317,0
{consumergroup=__strimzi-topic-operator-kstreams},1649187322,0
{consumergroup=__strimzi-topic-operator-kstreams},1649187327,0
{consumergroup=__strimzi-topic-operator-kstreams},1649187332,0
{consumergroup=__strimzi-topic-operator-kstreams},1649187337,0
{consumergroup=__strimzi-topic-operator-kstreams},1649187342,0
{consumergroup=__strimzi-topic-operator-kstreams},1649187347,0
{consumergroup=__strimzi-topic-operator-kstreams},1649187352,0
{consumergroup=__strimzi-topic-operator-kstreams},1649187357,0
{consumergroup=__strimzi-topic-operator-kstreams},1649187362,0
{consumergroup=__strimzi-topic-operator-kstreams},1649187367,0
{consumergroup=__strimzi-topic-operator-kstreams},1649187372,0
{consumergroup=__strimzi-topic-operator-kstreams},1649187377,0
{consumergroup=__strimzi-topic-operator-kstreams},1649187382,0
{consumergroup=__strimzi-topic-operator-kstreams},1649187387,0
{consumergroup=__strimzi-topic-operator-kstreams},1649187392,0
{consumergroup=__strimzi-topic-operator-kstreams},1649187397,0
{consumergroup=__strimzi-topic-operator-kstreams},1649187402,0
{consumergroup=__strimzi-topic-operator-kstreams},1649187407,0
{consumergroup=__strimzi-topic-operator-kstreams},1649187412,0
{consumergroup=__strimzi-topic-operator-kstreams},1649187417,0
{consumergroup=__strimzi-topic-operator-kstreams},1649187422,0
{consumergroup=__strimzi-topic-operator-kstreams},1649187427,0
{consumergroup=__strimzi-topic-operator-kstreams},1649187432,0
{consumergroup=__strimzi-topic-operator-kstreams},1649187437,0
{consumergroup=__strimzi-topic-operator-kstreams},1649187442,0
{consumergroup=__strimzi-topic-operator-kstreams},1649187447,0
{consumergroup=__strimzi-topic-operator-kstreams},1649187452,0
{consumergroup=__strimzi-topic-operator-kstreams},1649187457,0
{consumergroup=__strimzi-topic-operator-kstreams},1649187462,0
{consumergroup=__strimzi-topic-operator-kstreams},1649187467,0
{consumergroup=__strimzi-topic-operator-kstreams},1649187472,0
{consumergroup=__strimzi-topic-operator-kstreams},1649187477,0
{consumergroup=__strimzi-topic-operator-kstreams},1649187482,0
{consumergroup=__strimzi-topic-operator-kstreams},1649187487,0
{consumergroup=__strimzi-topic-operator-kstreams},1649187492,0
{consumergroup=__strimzi-topic-operator-kstreams},1649187497,0
{consumergroup=__strimzi-topic-operator-kstreams},1649187502,0
{consumergroup=__strimzi-topic-operator-kstreams},1649187507,0
{consumergroup=__strimzi-topic-operator-kstreams},1649187512,0
{consumergroup=__strimzi-topic-operator-kstreams},1649187517,0
{consumergroup=__strimzi-topic-operator-kstreams},1649187522,0
{consumergroup=__strimzi-topic-operator-kstreams},1649187527,0
{consumergroup=__strimzi-topic-operator-kstreams},1649187532,0
{consumergroup=__strimzi-topic-operator-kstreams},1649187537,0
{consumergroup=__strimzi-topic-operator-kstreams},1649187542,0
{consumergroup=__strimzi-topic-operator-kstreams},1649187547,0
{consumergroup=__strimzi-topic-operator-kstreams},1649187552,0
{consumergroup=__strimzi-topic-operator-kstreams},1649187557,0
{consumergroup=__strimzi-topic-operator-kstreams},1649187562,0
{consumergroup=__strimzi-topic-operator-kstreams},1649187567,0
{consumergroup=__strimzi-topic-operator-kstreams},1649187572,0
{consumergroup=__strimzi-topic-operator-kstreams},1649187577,0
{consumergroup=__strimzi-topic-operator-kstreams},1649187582,0
{consumergroup=__strimzi-topic-operator-kstreams},1649187587,0
{consumergroup=__strimzi-topic-operator-kstreams},1649187592,0
{consumergroup=__strimzi-topic-operator-kstreams},1649187597,0
{consumergroup=__strimzi-topic-operator-kstreams},1649187602,0
{consumergroup=__strimzi-topic-operator-kstreams},1649187607,0
{consumergroup=__strimzi-topic-operator-kstreams},1649187612,0
{consumergroup=__strimzi-topic-operator-kstreams},1649187617,0
{consumergroup=__strimzi-topic-operator-kstreams},1649187622,0
{consumergroup=__strimzi-topic-operator-kstreams},1649187627,0
{consumergroup=__strimzi-topic-operator-kstreams},1649187632,0
{consumergroup=__strimzi-topic-operator-kstreams},1649187637,0
{consumergroup=__strimzi-topic-operator-kstreams},1649187642,0
{consumergroup=__strimzi-topic-operator-kstreams},1649187647,0
{consumergroup=__strimzi-topic-operator-kstreams},1649187652,0
{consumergroup=__strimzi-topic-operator-kstreams},1649187657,0
{consumergroup=__strimzi-topic-operator-kstreams},1649187662,0
{consumergroup=__strimzi-topic-operator-kstreams},1649187667,0
{consumergroup=__strimzi-topic-operator-kstreams},1649187672,0
{consumergroup=__strimzi-topic-operator-kstreams},1649187677,0
{consumergroup=__strimzi-topic-operator-kstreams},1649187682,0
{consumergroup=__strimzi-topic-operator-kstreams},1649187687,0
{consumergroup=__strimzi-topic-operator-kstreams},1649187692,0
{consumergroup=__strimzi-topic-operator-kstreams},1649187697,0
{consumergroup=__strimzi-topic-operator-kstreams},1649187702,0
{consumergroup=__strimzi-topic-operator-kstreams},1649187707,0
{consumergroup=__strimzi-topic-operator-kstreams},1649187712,0
{consumergroup=__strimzi-topic-operator-kstreams},1649187717,0
{consumergroup=__strimzi-topic-operator-kstreams},1649187722,0
{consumergroup=__strimzi-topic-operator-kstreams},1649187727,0
{consumergroup=__strimzi-topic-operator-kstreams},1649187732,0
{consumergroup=__strimzi-topic-operator-kstreams},1649187737,0
{consumergroup=__strimzi-topic-operator-kstreams},1649187742,0
{consumergroup=__strimzi-topic-operator-kstreams},1649187747,0
{consumergroup=__strimzi-topic-operator-kstreams},1649187752,0
{consumergroup=__strimzi-topic-operator-kstreams},1649187757,0
{consumergroup=__strimzi-topic-operator-kstreams},1649187762,0
