labels,timestamp,value
{},1649185551,0
{},1649185556,0
{},1649185561,0
{},1649185566,0
{},1649185571,0
{},1649185576,0
{},1649185581,0
{},1649185586,0
{},1649185591,0
{},1649185596,0
{},1649185601,0
{},1649185606,0
{},1649185611,0
{},1649185616,0
{},1649185621,0
