labels,timestamp,value
{},1649168562,0
{},1649168567,0
{},1649168572,0
{},1649168577,0
{},1649168582,0
{},1649168587,0
{},1649168592,0
{},1649168597,0
{},1649168602,0
{},1649168607,0
{},1649168612,0
{},1649168617,0
{},1649168622,0
{},1649168627,0
