labels,timestamp,value
{},1649199133,0
{},1649199138,0
{},1649199143,0
{},1649199148,0
{},1649199153,0
{},1649199158,0
{},1649199163,0
{},1649199168,0
{},1649199173,0
{},1649199178,0
{},1649199183,0
{},1649199188,0
{},1649199193,0
{},1649199198,0
