labels,timestamp,value
{consumergroup=__strimzi-topic-operator-kstreams},1649203688,8
{consumergroup=__strimzi-topic-operator-kstreams},1649203693,8
{consumergroup=__strimzi-topic-operator-kstreams},1649203698,8
{consumergroup=__strimzi-topic-operator-kstreams},1649203703,8
{consumergroup=__strimzi-topic-operator-kstreams},1649203708,8
{consumergroup=__strimzi-topic-operator-kstreams},1649203713,8
{consumergroup=__strimzi-topic-operator-kstreams},1649203718,3
{consumergroup=__strimzi-topic-operator-kstreams},1649203723,3
{consumergroup=__strimzi-topic-operator-kstreams},1649203728,3
{consumergroup=__strimzi-topic-operator-kstreams},1649203733,3
{consumergroup=__strimzi-topic-operator-kstreams},1649203738,3
{consumergroup=__strimzi-topic-operator-kstreams},1649203743,3
{consumergroup=__strimzi-topic-operator-kstreams},1649203748,0
{consumergroup=__strimzi-topic-operator-kstreams},1649203753,0
{consumergroup=__strimzi-topic-operator-kstreams},1649203758,0
{consumergroup=__strimzi-topic-operator-kstreams},1649203763,0
{consumergroup=__strimzi-topic-operator-kstreams},1649203768,0
{consumergroup=__strimzi-topic-operator-kstreams},1649203773,0
{consumergroup=__strimzi-topic-operator-kstreams},1649203778,0
{consumergroup=__strimzi-topic-operator-kstreams},1649203783,0
{consumergroup=__strimzi-topic-operator-kstreams},1649203788,0
{consumergroup=__strimzi-topic-operator-kstreams},1649203793,0
{consumergroup=__strimzi-topic-operator-kstreams},1649203798,0
{consumergroup=__strimzi-topic-operator-kstreams},1649203803,0
{consumergroup=__strimzi-topic-operator-kstreams},1649203808,0
{consumergroup=__strimzi-topic-operator-kstreams},1649203813,0
{consumergroup=__strimzi-topic-operator-kstreams},1649203818,0
{consumergroup=__strimzi-topic-operator-kstreams},1649203823,0
{consumergroup=__strimzi-topic-operator-kstreams},1649203828,0
{consumergroup=__strimzi-topic-operator-kstreams},1649203833,0
{consumergroup=__strimzi-topic-operator-kstreams},1649203838,0
{consumergroup=__strimzi-topic-operator-kstreams},1649203843,0
{consumergroup=__strimzi-topic-operator-kstreams},1649203848,0
{consumergroup=__strimzi-topic-operator-kstreams},1649203853,0
{consumergroup=__strimzi-topic-operator-kstreams},1649203858,0
{consumergroup=__strimzi-topic-operator-kstreams},1649203863,0
{consumergroup=__strimzi-topic-operator-kstreams},1649203868,0
{consumergroup=__strimzi-topic-operator-kstreams},1649203873,0
{consumergroup=__strimzi-topic-operator-kstreams},1649203878,0
{consumergroup=__strimzi-topic-operator-kstreams},1649203883,0
{consumergroup=__strimzi-topic-operator-kstreams},1649203888,0
{consumergroup=__strimzi-topic-operator-kstreams},1649203893,0
{consumergroup=__strimzi-topic-operator-kstreams},1649203898,0
{consumergroup=__strimzi-topic-operator-kstreams},1649203903,0
{consumergroup=__strimzi-topic-operator-kstreams},1649203908,0
{consumergroup=__strimzi-topic-operator-kstreams},1649203913,0
{consumergroup=__strimzi-topic-operator-kstreams},1649203918,0
{consumergroup=__strimzi-topic-operator-kstreams},1649203923,0
{consumergroup=__strimzi-topic-operator-kstreams},1649203928,0
{consumergroup=__strimzi-topic-operator-kstreams},1649203933,0
{consumergroup=__strimzi-topic-operator-kstreams},1649203938,0
{consumergroup=__strimzi-topic-operator-kstreams},1649203943,0
{consumergroup=__strimzi-topic-operator-kstreams},1649203948,0
{consumergroup=__strimzi-topic-operator-kstreams},1649203953,0
{consumergroup=__strimzi-topic-operator-kstreams},1649203958,0
{consumergroup=__strimzi-topic-operator-kstreams},1649203963,0
{consumergroup=__strimzi-topic-operator-kstreams},1649203968,0
{consumergroup=__strimzi-topic-operator-kstreams},1649203973,0
{consumergroup=__strimzi-topic-operator-kstreams},1649203978,0
{consumergroup=__strimzi-topic-operator-kstreams},1649203983,0
{consumergroup=__strimzi-topic-operator-kstreams},1649203988,0
{consumergroup=__strimzi-topic-operator-kstreams},1649203993,0
{consumergroup=__strimzi-topic-operator-kstreams},1649203998,0
{consumergroup=__strimzi-topic-operator-kstreams},1649204003,0
{consumergroup=__strimzi-topic-operator-kstreams},1649204008,0
{consumergroup=__strimzi-topic-operator-kstreams},1649204013,0
{consumergroup=__strimzi-topic-operator-kstreams},1649204018,0
{consumergroup=__strimzi-topic-operator-kstreams},1649204023,0
{consumergroup=__strimzi-topic-operator-kstreams},1649204028,0
{consumergroup=__strimzi-topic-operator-kstreams},1649204033,0
{consumergroup=__strimzi-topic-operator-kstreams},1649204038,0
{consumergroup=__strimzi-topic-operator-kstreams},1649204043,0
{consumergroup=__strimzi-topic-operator-kstreams},1649204048,0
{consumergroup=__strimzi-topic-operator-kstreams},1649204053,0
{consumergroup=__strimzi-topic-operator-kstreams},1649204058,0
{consumergroup=__strimzi-topic-operator-kstreams},1649204063,0
{consumergroup=__strimzi-topic-operator-kstreams},1649204068,0
{consumergroup=__strimzi-topic-operator-kstreams},1649204073,0
{consumergroup=__strimzi-topic-operator-kstreams},1649204078,0
{consumergroup=__strimzi-topic-operator-kstreams},1649204083,0
{consumergroup=__strimzi-topic-operator-kstreams},1649204088,0
{consumergroup=__strimzi-topic-operator-kstreams},1649204093,0
{consumergroup=__strimzi-topic-operator-kstreams},1649204098,0
{consumergroup=__strimzi-topic-operator-kstreams},1649204103,0
{consumergroup=__strimzi-topic-operator-kstreams},1649204108,0
{consumergroup=__strimzi-topic-operator-kstreams},1649204113,0
{consumergroup=__strimzi-topic-operator-kstreams},1649204118,0
{consumergroup=__strimzi-topic-operator-kstreams},1649204123,0
{consumergroup=__strimzi-topic-operator-kstreams},1649204128,0
{consumergroup=__strimzi-topic-operator-kstreams},1649204133,0
{consumergroup=__strimzi-topic-operator-kstreams},1649204138,0
{consumergroup=__strimzi-topic-operator-kstreams},1649204143,0
{consumergroup=__strimzi-topic-operator-kstreams},1649204148,0
{consumergroup=__strimzi-topic-operator-kstreams},1649204153,0
{consumergroup=__strimzi-topic-operator-kstreams},1649204158,0
{consumergroup=__strimzi-topic-operator-kstreams},1649204163,0
{consumergroup=__strimzi-topic-operator-kstreams},1649204168,0
{consumergroup=__strimzi-topic-operator-kstreams},1649204173,0
