labels,timestamp,value
{},1649210992,0
{},1649210997,0
{},1649211002,0
{},1649211007,0
{},1649211012,0
{},1649211017,0
{},1649211022,0
{},1649211027,0
{},1649211032,0
{},1649211037,0
{},1649211042,0
{},1649211047,0
{},1649211052,0
{},1649211057,0
{},1649211062,0
