labels,timestamp,value
{consumergroup=__strimzi-topic-operator-kstreams},1649201414,3
{consumergroup=__strimzi-topic-operator-kstreams},1649201419,3
{consumergroup=__strimzi-topic-operator-kstreams},1649201424,3
{consumergroup=__strimzi-topic-operator-kstreams},1649201429,3
{consumergroup=__strimzi-topic-operator-kstreams},1649201434,3
{consumergroup=__strimzi-topic-operator-kstreams},1649201439,3
{consumergroup=__strimzi-topic-operator-kstreams},1649201444,3
{consumergroup=__strimzi-topic-operator-kstreams},1649201449,3
{consumergroup=__strimzi-topic-operator-kstreams},1649201454,3
{consumergroup=__strimzi-topic-operator-kstreams},1649201459,0
{consumergroup=__strimzi-topic-operator-kstreams},1649201464,0
{consumergroup=__strimzi-topic-operator-kstreams},1649201469,0
{consumergroup=__strimzi-topic-operator-kstreams},1649201474,0
{consumergroup=__strimzi-topic-operator-kstreams},1649201479,0
{consumergroup=__strimzi-topic-operator-kstreams},1649201484,0
{consumergroup=__strimzi-topic-operator-kstreams},1649201489,0
{consumergroup=__strimzi-topic-operator-kstreams},1649201494,0
{consumergroup=__strimzi-topic-operator-kstreams},1649201499,0
{consumergroup=__strimzi-topic-operator-kstreams},1649201504,0
{consumergroup=__strimzi-topic-operator-kstreams},1649201509,0
{consumergroup=__strimzi-topic-operator-kstreams},1649201514,0
{consumergroup=__strimzi-topic-operator-kstreams},1649201519,0
{consumergroup=__strimzi-topic-operator-kstreams},1649201524,0
{consumergroup=__strimzi-topic-operator-kstreams},1649201529,0
{consumergroup=__strimzi-topic-operator-kstreams},1649201534,0
{consumergroup=__strimzi-topic-operator-kstreams},1649201539,0
{consumergroup=__strimzi-topic-operator-kstreams},1649201544,0
{consumergroup=__strimzi-topic-operator-kstreams},1649201549,3
{consumergroup=__strimzi-topic-operator-kstreams},1649201554,3
{consumergroup=__strimzi-topic-operator-kstreams},1649201559,3
{consumergroup=__strimzi-topic-operator-kstreams},1649201564,3
{consumergroup=__strimzi-topic-operator-kstreams},1649201569,3
{consumergroup=__strimzi-topic-operator-kstreams},1649201574,3
{consumergroup=__strimzi-topic-operator-kstreams},1649201579,0
{consumergroup=__strimzi-topic-operator-kstreams},1649201584,0
{consumergroup=__strimzi-topic-operator-kstreams},1649201589,0
{consumergroup=__strimzi-topic-operator-kstreams},1649201594,0
{consumergroup=__strimzi-topic-operator-kstreams},1649201599,0
{consumergroup=__strimzi-topic-operator-kstreams},1649201604,0
{consumergroup=__strimzi-topic-operator-kstreams},1649201609,0
{consumergroup=__strimzi-topic-operator-kstreams},1649201614,0
{consumergroup=__strimzi-topic-operator-kstreams},1649201619,0
{consumergroup=__strimzi-topic-operator-kstreams},1649201624,0
{consumergroup=__strimzi-topic-operator-kstreams},1649201629,0
{consumergroup=__strimzi-topic-operator-kstreams},1649201634,0
{consumergroup=__strimzi-topic-operator-kstreams},1649201639,0
{consumergroup=__strimzi-topic-operator-kstreams},1649201644,0
{consumergroup=__strimzi-topic-operator-kstreams},1649201649,0
{consumergroup=__strimzi-topic-operator-kstreams},1649201654,0
{consumergroup=__strimzi-topic-operator-kstreams},1649201659,0
{consumergroup=__strimzi-topic-operator-kstreams},1649201664,0
{consumergroup=__strimzi-topic-operator-kstreams},1649201669,0
{consumergroup=__strimzi-topic-operator-kstreams},1649201674,0
{consumergroup=__strimzi-topic-operator-kstreams},1649201679,0
{consumergroup=__strimzi-topic-operator-kstreams},1649201684,0
{consumergroup=__strimzi-topic-operator-kstreams},1649201689,0
{consumergroup=__strimzi-topic-operator-kstreams},1649201694,0
{consumergroup=__strimzi-topic-operator-kstreams},1649201699,0
{consumergroup=__strimzi-topic-operator-kstreams},1649201704,0
{consumergroup=__strimzi-topic-operator-kstreams},1649201709,0
{consumergroup=__strimzi-topic-operator-kstreams},1649201714,0
{consumergroup=__strimzi-topic-operator-kstreams},1649201719,0
{consumergroup=__strimzi-topic-operator-kstreams},1649201724,0
{consumergroup=__strimzi-topic-operator-kstreams},1649201729,0
{consumergroup=__strimzi-topic-operator-kstreams},1649201734,0
{consumergroup=__strimzi-topic-operator-kstreams},1649201739,0
{consumergroup=__strimzi-topic-operator-kstreams},1649201744,0
{consumergroup=__strimzi-topic-operator-kstreams},1649201749,0
{consumergroup=__strimzi-topic-operator-kstreams},1649201754,0
{consumergroup=__strimzi-topic-operator-kstreams},1649201759,0
{consumergroup=__strimzi-topic-operator-kstreams},1649201764,0
{consumergroup=__strimzi-topic-operator-kstreams},1649201769,0
{consumergroup=__strimzi-topic-operator-kstreams},1649201774,0
{consumergroup=__strimzi-topic-operator-kstreams},1649201779,0
{consumergroup=__strimzi-topic-operator-kstreams},1649201784,0
{consumergroup=__strimzi-topic-operator-kstreams},1649201789,0
{consumergroup=__strimzi-topic-operator-kstreams},1649201794,0
{consumergroup=__strimzi-topic-operator-kstreams},1649201799,0
{consumergroup=__strimzi-topic-operator-kstreams},1649201804,0
{consumergroup=__strimzi-topic-operator-kstreams},1649201809,0
{consumergroup=__strimzi-topic-operator-kstreams},1649201814,0
{consumergroup=__strimzi-topic-operator-kstreams},1649201819,0
{consumergroup=__strimzi-topic-operator-kstreams},1649201824,0
{consumergroup=__strimzi-topic-operator-kstreams},1649201829,0
{consumergroup=__strimzi-topic-operator-kstreams},1649201834,0
{consumergroup=__strimzi-topic-operator-kstreams},1649201839,0
{consumergroup=__strimzi-topic-operator-kstreams},1649201844,0
{consumergroup=__strimzi-topic-operator-kstreams},1649201849,0
{consumergroup=__strimzi-topic-operator-kstreams},1649201854,0
{consumergroup=__strimzi-topic-operator-kstreams},1649201859,0
{consumergroup=__strimzi-topic-operator-kstreams},1649201864,0
{consumergroup=__strimzi-topic-operator-kstreams},1649201869,0
{consumergroup=__strimzi-topic-operator-kstreams},1649201874,0
{consumergroup=__strimzi-topic-operator-kstreams},1649201879,0
{consumergroup=__strimzi-topic-operator-kstreams},1649201884,0
{consumergroup=__strimzi-topic-operator-kstreams},1649201889,0
{consumergroup=__strimzi-topic-operator-kstreams},1649201894,0
{consumergroup=__strimzi-topic-operator-kstreams},1649201899,0
{consumergroup=__strimzi-topic-operator-kstreams},1649201904,0
{consumergroup=__strimzi-topic-operator-kstreams},1649201909,0
{consumergroup=__strimzi-topic-operator-kstreams},1649201914,0
