labels,timestamp,value
{consumergroup=__strimzi-topic-operator-kstreams},1649193513,0
{consumergroup=__strimzi-topic-operator-kstreams},1649193518,0
{consumergroup=__strimzi-topic-operator-kstreams},1649193523,0
{consumergroup=__strimzi-topic-operator-kstreams},1649193528,0
{consumergroup=__strimzi-topic-operator-kstreams},1649193533,0
{consumergroup=__strimzi-topic-operator-kstreams},1649193538,0
{consumergroup=__strimzi-topic-operator-kstreams},1649193543,0
{consumergroup=__strimzi-topic-operator-kstreams},1649193548,0
{consumergroup=__strimzi-topic-operator-kstreams},1649193553,0
{consumergroup=__strimzi-topic-operator-kstreams},1649193558,0
{consumergroup=__strimzi-topic-operator-kstreams},1649193563,0
{consumergroup=__strimzi-topic-operator-kstreams},1649193568,0
{consumergroup=__strimzi-topic-operator-kstreams},1649193573,0
{consumergroup=__strimzi-topic-operator-kstreams},1649193578,0
{consumergroup=__strimzi-topic-operator-kstreams},1649193583,0
{consumergroup=__strimzi-topic-operator-kstreams},1649193588,0
{consumergroup=__strimzi-topic-operator-kstreams},1649193593,0
{consumergroup=__strimzi-topic-operator-kstreams},1649193598,0
{consumergroup=__strimzi-topic-operator-kstreams},1649193603,0
{consumergroup=__strimzi-topic-operator-kstreams},1649193608,0
{consumergroup=__strimzi-topic-operator-kstreams},1649193613,0
{consumergroup=__strimzi-topic-operator-kstreams},1649193618,3
{consumergroup=__strimzi-topic-operator-kstreams},1649193623,3
{consumergroup=__strimzi-topic-operator-kstreams},1649193628,3
{consumergroup=__strimzi-topic-operator-kstreams},1649193633,0
{consumergroup=__strimzi-topic-operator-kstreams},1649193638,0
{consumergroup=__strimzi-topic-operator-kstreams},1649193643,0
{consumergroup=__strimzi-topic-operator-kstreams},1649193648,0
{consumergroup=__strimzi-topic-operator-kstreams},1649193653,0
{consumergroup=__strimzi-topic-operator-kstreams},1649193658,0
{consumergroup=__strimzi-topic-operator-kstreams},1649193663,0
{consumergroup=__strimzi-topic-operator-kstreams},1649193668,0
{consumergroup=__strimzi-topic-operator-kstreams},1649193673,0
{consumergroup=__strimzi-topic-operator-kstreams},1649193678,0
{consumergroup=__strimzi-topic-operator-kstreams},1649193683,0
{consumergroup=__strimzi-topic-operator-kstreams},1649193688,0
{consumergroup=__strimzi-topic-operator-kstreams},1649193693,0
{consumergroup=__strimzi-topic-operator-kstreams},1649193698,0
{consumergroup=__strimzi-topic-operator-kstreams},1649193703,0
{consumergroup=__strimzi-topic-operator-kstreams},1649193708,0
{consumergroup=__strimzi-topic-operator-kstreams},1649193713,0
{consumergroup=__strimzi-topic-operator-kstreams},1649193718,0
{consumergroup=__strimzi-topic-operator-kstreams},1649193723,0
{consumergroup=__strimzi-topic-operator-kstreams},1649193728,0
{consumergroup=__strimzi-topic-operator-kstreams},1649193733,0
{consumergroup=__strimzi-topic-operator-kstreams},1649193738,0
{consumergroup=__strimzi-topic-operator-kstreams},1649193743,0
{consumergroup=__strimzi-topic-operator-kstreams},1649193748,0
{consumergroup=__strimzi-topic-operator-kstreams},1649193753,0
{consumergroup=__strimzi-topic-operator-kstreams},1649193758,0
{consumergroup=__strimzi-topic-operator-kstreams},1649193763,0
{consumergroup=__strimzi-topic-operator-kstreams},1649193768,0
{consumergroup=__strimzi-topic-operator-kstreams},1649193773,0
{consumergroup=__strimzi-topic-operator-kstreams},1649193778,0
{consumergroup=__strimzi-topic-operator-kstreams},1649193783,0
{consumergroup=__strimzi-topic-operator-kstreams},1649193788,0
{consumergroup=__strimzi-topic-operator-kstreams},1649193793,0
{consumergroup=__strimzi-topic-operator-kstreams},1649193798,0
{consumergroup=__strimzi-topic-operator-kstreams},1649193803,0
{consumergroup=__strimzi-topic-operator-kstreams},1649193808,0
{consumergroup=__strimzi-topic-operator-kstreams},1649193813,0
{consumergroup=__strimzi-topic-operator-kstreams},1649193818,0
{consumergroup=__strimzi-topic-operator-kstreams},1649193823,0
{consumergroup=__strimzi-topic-operator-kstreams},1649193828,0
{consumergroup=__strimzi-topic-operator-kstreams},1649193833,0
{consumergroup=__strimzi-topic-operator-kstreams},1649193838,0
{consumergroup=__strimzi-topic-operator-kstreams},1649193843,0
{consumergroup=__strimzi-topic-operator-kstreams},1649193848,0
{consumergroup=__strimzi-topic-operator-kstreams},1649193853,0
{consumergroup=__strimzi-topic-operator-kstreams},1649193858,0
{consumergroup=__strimzi-topic-operator-kstreams},1649193863,0
{consumergroup=__strimzi-topic-operator-kstreams},1649193868,0
{consumergroup=__strimzi-topic-operator-kstreams},1649193873,0
{consumergroup=__strimzi-topic-operator-kstreams},1649193878,0
{consumergroup=__strimzi-topic-operator-kstreams},1649193883,0
{consumergroup=__strimzi-topic-operator-kstreams},1649193888,0
{consumergroup=__strimzi-topic-operator-kstreams},1649193893,0
{consumergroup=__strimzi-topic-operator-kstreams},1649193898,0
{consumergroup=__strimzi-topic-operator-kstreams},1649193903,0
{consumergroup=__strimzi-topic-operator-kstreams},1649193908,0
{consumergroup=__strimzi-topic-operator-kstreams},1649193913,0
{consumergroup=__strimzi-topic-operator-kstreams},1649193918,0
{consumergroup=__strimzi-topic-operator-kstreams},1649193923,0
{consumergroup=__strimzi-topic-operator-kstreams},1649193928,0
{consumergroup=__strimzi-topic-operator-kstreams},1649193933,0
{consumergroup=__strimzi-topic-operator-kstreams},1649193938,0
{consumergroup=__strimzi-topic-operator-kstreams},1649193943,0
{consumergroup=__strimzi-topic-operator-kstreams},1649193948,0
{consumergroup=__strimzi-topic-operator-kstreams},1649193953,0
{consumergroup=__strimzi-topic-operator-kstreams},1649193958,0
{consumergroup=__strimzi-topic-operator-kstreams},1649193963,0
{consumergroup=__strimzi-topic-operator-kstreams},1649193968,0
{consumergroup=__strimzi-topic-operator-kstreams},1649193973,0
{consumergroup=__strimzi-topic-operator-kstreams},1649193978,0
{consumergroup=__strimzi-topic-operator-kstreams},1649193983,0
{consumergroup=__strimzi-topic-operator-kstreams},1649193988,0
{consumergroup=__strimzi-topic-operator-kstreams},1649193993,0
