labels,timestamp,value
{},1649171971,0
{},1649171976,0
{},1649171981,0
{},1649171986,0
{},1649171991,0
{},1649171996,0
{},1649172001,0
{},1649172006,0
{},1649172011,0
{},1649172016,0
{},1649172021,0
{},1649172026,0
{},1649172031,0
{},1649172036,0
{},1649172041,0
