labels,timestamp,value
{consumergroup=__strimzi-topic-operator-kstreams},1649178206,8
{consumergroup=__strimzi-topic-operator-kstreams},1649178211,8
{consumergroup=__strimzi-topic-operator-kstreams},1649178216,8
{consumergroup=__strimzi-topic-operator-kstreams},1649178221,9
{consumergroup=__strimzi-topic-operator-kstreams},1649178226,9
{consumergroup=__strimzi-topic-operator-kstreams},1649178231,9
{consumergroup=__strimzi-topic-operator-kstreams},1649178236,2
{consumergroup=__strimzi-topic-operator-kstreams},1649178241,2
{consumergroup=__strimzi-topic-operator-kstreams},1649178246,2
{consumergroup=__strimzi-topic-operator-kstreams},1649178251,2
{consumergroup=__strimzi-topic-operator-kstreams},1649178256,2
{consumergroup=__strimzi-topic-operator-kstreams},1649178261,2
{consumergroup=__strimzi-topic-operator-kstreams},1649178266,0
{consumergroup=__strimzi-topic-operator-kstreams},1649178271,0
{consumergroup=__strimzi-topic-operator-kstreams},1649178276,0
{consumergroup=__strimzi-topic-operator-kstreams},1649178281,0
{consumergroup=__strimzi-topic-operator-kstreams},1649178286,0
{consumergroup=__strimzi-topic-operator-kstreams},1649178291,0
{consumergroup=__strimzi-topic-operator-kstreams},1649178296,0
{consumergroup=__strimzi-topic-operator-kstreams},1649178301,0
{consumergroup=__strimzi-topic-operator-kstreams},1649178306,0
{consumergroup=__strimzi-topic-operator-kstreams},1649178311,0
{consumergroup=__strimzi-topic-operator-kstreams},1649178316,0
{consumergroup=__strimzi-topic-operator-kstreams},1649178321,0
{consumergroup=__strimzi-topic-operator-kstreams},1649178326,0
{consumergroup=__strimzi-topic-operator-kstreams},1649178331,0
{consumergroup=__strimzi-topic-operator-kstreams},1649178336,0
{consumergroup=__strimzi-topic-operator-kstreams},1649178341,0
{consumergroup=__strimzi-topic-operator-kstreams},1649178346,0
{consumergroup=__strimzi-topic-operator-kstreams},1649178351,0
{consumergroup=__strimzi-topic-operator-kstreams},1649178356,0
{consumergroup=__strimzi-topic-operator-kstreams},1649178361,0
{consumergroup=__strimzi-topic-operator-kstreams},1649178366,0
{consumergroup=__strimzi-topic-operator-kstreams},1649178371,0
{consumergroup=__strimzi-topic-operator-kstreams},1649178376,0
{consumergroup=__strimzi-topic-operator-kstreams},1649178381,0
{consumergroup=__strimzi-topic-operator-kstreams},1649178386,0
{consumergroup=__strimzi-topic-operator-kstreams},1649178391,0
{consumergroup=__strimzi-topic-operator-kstreams},1649178396,0
{consumergroup=__strimzi-topic-operator-kstreams},1649178401,0
{consumergroup=__strimzi-topic-operator-kstreams},1649178406,0
{consumergroup=__strimzi-topic-operator-kstreams},1649178411,0
{consumergroup=__strimzi-topic-operator-kstreams},1649178416,0
{consumergroup=__strimzi-topic-operator-kstreams},1649178421,0
{consumergroup=__strimzi-topic-operator-kstreams},1649178426,0
{consumergroup=__strimzi-topic-operator-kstreams},1649178431,0
{consumergroup=__strimzi-topic-operator-kstreams},1649178436,0
{consumergroup=__strimzi-topic-operator-kstreams},1649178441,0
{consumergroup=__strimzi-topic-operator-kstreams},1649178446,0
{consumergroup=__strimzi-topic-operator-kstreams},1649178451,0
{consumergroup=__strimzi-topic-operator-kstreams},1649178456,0
{consumergroup=__strimzi-topic-operator-kstreams},1649178461,0
{consumergroup=__strimzi-topic-operator-kstreams},1649178466,0
{consumergroup=__strimzi-topic-operator-kstreams},1649178471,0
{consumergroup=__strimzi-topic-operator-kstreams},1649178476,0
{consumergroup=__strimzi-topic-operator-kstreams},1649178481,0
{consumergroup=__strimzi-topic-operator-kstreams},1649178486,0
{consumergroup=__strimzi-topic-operator-kstreams},1649178491,0
{consumergroup=__strimzi-topic-operator-kstreams},1649178496,0
{consumergroup=__strimzi-topic-operator-kstreams},1649178501,0
{consumergroup=__strimzi-topic-operator-kstreams},1649178506,0
{consumergroup=__strimzi-topic-operator-kstreams},1649178511,0
{consumergroup=__strimzi-topic-operator-kstreams},1649178516,0
{consumergroup=__strimzi-topic-operator-kstreams},1649178521,0
{consumergroup=__strimzi-topic-operator-kstreams},1649178526,0
{consumergroup=__strimzi-topic-operator-kstreams},1649178531,0
{consumergroup=__strimzi-topic-operator-kstreams},1649178536,0
{consumergroup=__strimzi-topic-operator-kstreams},1649178541,0
{consumergroup=__strimzi-topic-operator-kstreams},1649178546,0
{consumergroup=__strimzi-topic-operator-kstreams},1649178551,0
{consumergroup=__strimzi-topic-operator-kstreams},1649178556,0
{consumergroup=__strimzi-topic-operator-kstreams},1649178561,0
{consumergroup=__strimzi-topic-operator-kstreams},1649178566,0
{consumergroup=__strimzi-topic-operator-kstreams},1649178571,0
{consumergroup=__strimzi-topic-operator-kstreams},1649178576,0
{consumergroup=__strimzi-topic-operator-kstreams},1649178581,0
{consumergroup=__strimzi-topic-operator-kstreams},1649178586,0
{consumergroup=__strimzi-topic-operator-kstreams},1649178591,0
{consumergroup=__strimzi-topic-operator-kstreams},1649178596,0
{consumergroup=__strimzi-topic-operator-kstreams},1649178601,0
{consumergroup=__strimzi-topic-operator-kstreams},1649178606,0
{consumergroup=__strimzi-topic-operator-kstreams},1649178611,0
{consumergroup=__strimzi-topic-operator-kstreams},1649178616,0
{consumergroup=__strimzi-topic-operator-kstreams},1649178621,0
{consumergroup=__strimzi-topic-operator-kstreams},1649178626,0
{consumergroup=__strimzi-topic-operator-kstreams},1649178631,0
{consumergroup=__strimzi-topic-operator-kstreams},1649178636,0
{consumergroup=__strimzi-topic-operator-kstreams},1649178641,0
{consumergroup=__strimzi-topic-operator-kstreams},1649178646,0
{consumergroup=__strimzi-topic-operator-kstreams},1649178651,0
{consumergroup=__strimzi-topic-operator-kstreams},1649178656,0
{consumergroup=__strimzi-topic-operator-kstreams},1649178661,0
{consumergroup=__strimzi-topic-operator-kstreams},1649178666,0
{consumergroup=__strimzi-topic-operator-kstreams},1649178671,0
{consumergroup=__strimzi-topic-operator-kstreams},1649178676,0
{consumergroup=__strimzi-topic-operator-kstreams},1649178681,0
{consumergroup=__strimzi-topic-operator-kstreams},1649178686,0
{consumergroup=__strimzi-topic-operator-kstreams},1649178691,0
