labels,timestamp,value
{},1649196316,0
{},1649196321,0
{},1649196326,0
{},1649196331,0
{},1649196336,0
{},1649196341,0
{},1649196346,0
{},1649196351,0
{},1649196356,0
{},1649196361,0
{},1649196366,0
{},1649196371,0
{},1649196376,0
{},1649196381,0
{},1649196386,0
