labels,timestamp,value
{consumergroup=__strimzi-topic-operator-kstreams},1649188406,5
{consumergroup=__strimzi-topic-operator-kstreams},1649188411,5
{consumergroup=__strimzi-topic-operator-kstreams},1649188416,5
{consumergroup=__strimzi-topic-operator-kstreams},1649188421,11
{consumergroup=__strimzi-topic-operator-kstreams},1649188426,11
{consumergroup=__strimzi-topic-operator-kstreams},1649188431,11
{consumergroup=__strimzi-topic-operator-kstreams},1649188436,0
{consumergroup=__strimzi-topic-operator-kstreams},1649188441,0
{consumergroup=__strimzi-topic-operator-kstreams},1649188446,0
{consumergroup=__strimzi-topic-operator-kstreams},1649188451,0
{consumergroup=__strimzi-topic-operator-kstreams},1649188456,0
{consumergroup=__strimzi-topic-operator-kstreams},1649188461,0
{consumergroup=__strimzi-topic-operator-kstreams},1649188466,0
{consumergroup=__strimzi-topic-operator-kstreams},1649188471,0
{consumergroup=__strimzi-topic-operator-kstreams},1649188476,0
{consumergroup=__strimzi-topic-operator-kstreams},1649188481,0
{consumergroup=__strimzi-topic-operator-kstreams},1649188486,0
{consumergroup=__strimzi-topic-operator-kstreams},1649188491,0
{consumergroup=__strimzi-topic-operator-kstreams},1649188496,0
{consumergroup=__strimzi-topic-operator-kstreams},1649188501,0
{consumergroup=__strimzi-topic-operator-kstreams},1649188506,0
{consumergroup=__strimzi-topic-operator-kstreams},1649188511,0
{consumergroup=__strimzi-topic-operator-kstreams},1649188516,0
{consumergroup=__strimzi-topic-operator-kstreams},1649188521,0
{consumergroup=__strimzi-topic-operator-kstreams},1649188526,0
{consumergroup=__strimzi-topic-operator-kstreams},1649188531,0
{consumergroup=__strimzi-topic-operator-kstreams},1649188536,0
{consumergroup=__strimzi-topic-operator-kstreams},1649188541,0
{consumergroup=__strimzi-topic-operator-kstreams},1649188546,0
{consumergroup=__strimzi-topic-operator-kstreams},1649188551,0
{consumergroup=__strimzi-topic-operator-kstreams},1649188556,0
{consumergroup=__strimzi-topic-operator-kstreams},1649188561,0
{consumergroup=__strimzi-topic-operator-kstreams},1649188566,0
{consumergroup=__strimzi-topic-operator-kstreams},1649188571,0
{consumergroup=__strimzi-topic-operator-kstreams},1649188576,0
{consumergroup=__strimzi-topic-operator-kstreams},1649188581,0
{consumergroup=__strimzi-topic-operator-kstreams},1649188586,0
{consumergroup=__strimzi-topic-operator-kstreams},1649188591,0
{consumergroup=__strimzi-topic-operator-kstreams},1649188596,0
{consumergroup=__strimzi-topic-operator-kstreams},1649188601,0
{consumergroup=__strimzi-topic-operator-kstreams},1649188606,0
{consumergroup=__strimzi-topic-operator-kstreams},1649188611,0
{consumergroup=__strimzi-topic-operator-kstreams},1649188616,0
{consumergroup=__strimzi-topic-operator-kstreams},1649188621,0
{consumergroup=__strimzi-topic-operator-kstreams},1649188626,0
{consumergroup=__strimzi-topic-operator-kstreams},1649188631,0
{consumergroup=__strimzi-topic-operator-kstreams},1649188636,0
{consumergroup=__strimzi-topic-operator-kstreams},1649188641,0
{consumergroup=__strimzi-topic-operator-kstreams},1649188646,0
{consumergroup=__strimzi-topic-operator-kstreams},1649188651,0
{consumergroup=__strimzi-topic-operator-kstreams},1649188656,0
{consumergroup=__strimzi-topic-operator-kstreams},1649188661,0
{consumergroup=__strimzi-topic-operator-kstreams},1649188666,0
{consumergroup=__strimzi-topic-operator-kstreams},1649188671,0
{consumergroup=__strimzi-topic-operator-kstreams},1649188676,0
{consumergroup=__strimzi-topic-operator-kstreams},1649188681,0
{consumergroup=__strimzi-topic-operator-kstreams},1649188686,0
{consumergroup=__strimzi-topic-operator-kstreams},1649188691,0
{consumergroup=__strimzi-topic-operator-kstreams},1649188696,0
{consumergroup=__strimzi-topic-operator-kstreams},1649188701,0
{consumergroup=__strimzi-topic-operator-kstreams},1649188706,0
{consumergroup=__strimzi-topic-operator-kstreams},1649188711,0
{consumergroup=__strimzi-topic-operator-kstreams},1649188716,0
{consumergroup=__strimzi-topic-operator-kstreams},1649188721,0
{consumergroup=__strimzi-topic-operator-kstreams},1649188726,0
{consumergroup=__strimzi-topic-operator-kstreams},1649188731,0
{consumergroup=__strimzi-topic-operator-kstreams},1649188736,0
{consumergroup=__strimzi-topic-operator-kstreams},1649188741,0
{consumergroup=__strimzi-topic-operator-kstreams},1649188746,0
{consumergroup=__strimzi-topic-operator-kstreams},1649188751,0
{consumergroup=__strimzi-topic-operator-kstreams},1649188756,0
{consumergroup=__strimzi-topic-operator-kstreams},1649188761,0
{consumergroup=__strimzi-topic-operator-kstreams},1649188766,0
{consumergroup=__strimzi-topic-operator-kstreams},1649188771,0
{consumergroup=__strimzi-topic-operator-kstreams},1649188776,0
{consumergroup=__strimzi-topic-operator-kstreams},1649188781,0
{consumergroup=__strimzi-topic-operator-kstreams},1649188786,0
{consumergroup=__strimzi-topic-operator-kstreams},1649188791,0
{consumergroup=__strimzi-topic-operator-kstreams},1649188796,0
{consumergroup=__strimzi-topic-operator-kstreams},1649188801,0
{consumergroup=__strimzi-topic-operator-kstreams},1649188806,0
{consumergroup=__strimzi-topic-operator-kstreams},1649188811,0
{consumergroup=__strimzi-topic-operator-kstreams},1649188816,0
{consumergroup=__strimzi-topic-operator-kstreams},1649188821,0
{consumergroup=__strimzi-topic-operator-kstreams},1649188826,0
{consumergroup=__strimzi-topic-operator-kstreams},1649188831,0
{consumergroup=__strimzi-topic-operator-kstreams},1649188836,0
{consumergroup=__strimzi-topic-operator-kstreams},1649188841,0
{consumergroup=__strimzi-topic-operator-kstreams},1649188846,0
{consumergroup=__strimzi-topic-operator-kstreams},1649188851,0
{consumergroup=__strimzi-topic-operator-kstreams},1649188856,0
{consumergroup=__strimzi-topic-operator-kstreams},1649188861,0
{consumergroup=__strimzi-topic-operator-kstreams},1649188866,0
{consumergroup=__strimzi-topic-operator-kstreams},1649188871,0
{consumergroup=__strimzi-topic-operator-kstreams},1649188876,0
{consumergroup=__strimzi-topic-operator-kstreams},1649188881,0
{consumergroup=__strimzi-topic-operator-kstreams},1649188886,0
{consumergroup=__strimzi-topic-operator-kstreams},1649188891,0
{consumergroup=__strimzi-topic-operator-kstreams},1649188896,0
{consumergroup=__strimzi-topic-operator-kstreams},1649188901,0
