labels,timestamp,value
{},1649219489,0
{},1649219494,0
{},1649219499,0
{},1649219504,0
{},1649219509,0
{},1649219514,0
{},1649219519,0
{},1649219524,0
{},1649219529,0
{},1649219534,0
{},1649219539,0
{},1649219544,0
{},1649219549,0
{},1649219554,0
