labels,timestamp,value
{consumergroup=__strimzi-topic-operator-kstreams},1649198578,8
{consumergroup=__strimzi-topic-operator-kstreams},1649198583,8
{consumergroup=__strimzi-topic-operator-kstreams},1649198588,8
{consumergroup=__strimzi-topic-operator-kstreams},1649198593,0
{consumergroup=__strimzi-topic-operator-kstreams},1649198598,0
{consumergroup=__strimzi-topic-operator-kstreams},1649198603,0
{consumergroup=__strimzi-topic-operator-kstreams},1649198608,0
{consumergroup=__strimzi-topic-operator-kstreams},1649198613,0
{consumergroup=__strimzi-topic-operator-kstreams},1649198618,0
{consumergroup=__strimzi-topic-operator-kstreams},1649198623,0
{consumergroup=__strimzi-topic-operator-kstreams},1649198628,0
{consumergroup=__strimzi-topic-operator-kstreams},1649198633,0
{consumergroup=__strimzi-topic-operator-kstreams},1649198638,0
{consumergroup=__strimzi-topic-operator-kstreams},1649198643,0
{consumergroup=__strimzi-topic-operator-kstreams},1649198648,0
{consumergroup=__strimzi-topic-operator-kstreams},1649198653,0
{consumergroup=__strimzi-topic-operator-kstreams},1649198658,0
{consumergroup=__strimzi-topic-operator-kstreams},1649198663,0
{consumergroup=__strimzi-topic-operator-kstreams},1649198668,3
{consumergroup=__strimzi-topic-operator-kstreams},1649198673,3
{consumergroup=__strimzi-topic-operator-kstreams},1649198678,3
{consumergroup=__strimzi-topic-operator-kstreams},1649198683,0
{consumergroup=__strimzi-topic-operator-kstreams},1649198688,0
{consumergroup=__strimzi-topic-operator-kstreams},1649198693,0
{consumergroup=__strimzi-topic-operator-kstreams},1649198698,0
{consumergroup=__strimzi-topic-operator-kstreams},1649198703,0
{consumergroup=__strimzi-topic-operator-kstreams},1649198708,0
{consumergroup=__strimzi-topic-operator-kstreams},1649198713,0
{consumergroup=__strimzi-topic-operator-kstreams},1649198718,0
{consumergroup=__strimzi-topic-operator-kstreams},1649198723,0
{consumergroup=__strimzi-topic-operator-kstreams},1649198728,0
{consumergroup=__strimzi-topic-operator-kstreams},1649198733,0
{consumergroup=__strimzi-topic-operator-kstreams},1649198738,0
{consumergroup=__strimzi-topic-operator-kstreams},1649198743,0
{consumergroup=__strimzi-topic-operator-kstreams},1649198748,0
{consumergroup=__strimzi-topic-operator-kstreams},1649198753,0
{consumergroup=__strimzi-topic-operator-kstreams},1649198758,0
{consumergroup=__strimzi-topic-operator-kstreams},1649198763,0
{consumergroup=__strimzi-topic-operator-kstreams},1649198768,0
{consumergroup=__strimzi-topic-operator-kstreams},1649198773,0
{consumergroup=__strimzi-topic-operator-kstreams},1649198778,0
{consumergroup=__strimzi-topic-operator-kstreams},1649198783,0
{consumergroup=__strimzi-topic-operator-kstreams},1649198788,0
{consumergroup=__strimzi-topic-operator-kstreams},1649198793,0
{consumergroup=__strimzi-topic-operator-kstreams},1649198798,0
{consumergroup=__strimzi-topic-operator-kstreams},1649198803,0
{consumergroup=__strimzi-topic-operator-kstreams},1649198808,0
{consumergroup=__strimzi-topic-operator-kstreams},1649198813,0
{consumergroup=__strimzi-topic-operator-kstreams},1649198818,0
{consumergroup=__strimzi-topic-operator-kstreams},1649198823,0
{consumergroup=__strimzi-topic-operator-kstreams},1649198828,0
{consumergroup=__strimzi-topic-operator-kstreams},1649198833,0
{consumergroup=__strimzi-topic-operator-kstreams},1649198838,0
{consumergroup=__strimzi-topic-operator-kstreams},1649198843,0
{consumergroup=__strimzi-topic-operator-kstreams},1649198848,0
{consumergroup=__strimzi-topic-operator-kstreams},1649198853,0
{consumergroup=__strimzi-topic-operator-kstreams},1649198858,0
{consumergroup=__strimzi-topic-operator-kstreams},1649198863,0
{consumergroup=__strimzi-topic-operator-kstreams},1649198868,0
{consumergroup=__strimzi-topic-operator-kstreams},1649198873,0
{consumergroup=__strimzi-topic-operator-kstreams},1649198878,0
{consumergroup=__strimzi-topic-operator-kstreams},1649198883,0
{consumergroup=__strimzi-topic-operator-kstreams},1649198888,0
{consumergroup=__strimzi-topic-operator-kstreams},1649198893,0
{consumergroup=__strimzi-topic-operator-kstreams},1649198898,0
{consumergroup=__strimzi-topic-operator-kstreams},1649198903,0
{consumergroup=__strimzi-topic-operator-kstreams},1649198908,0
{consumergroup=__strimzi-topic-operator-kstreams},1649198913,0
{consumergroup=__strimzi-topic-operator-kstreams},1649198918,0
{consumergroup=__strimzi-topic-operator-kstreams},1649198923,0
{consumergroup=__strimzi-topic-operator-kstreams},1649198928,0
{consumergroup=__strimzi-topic-operator-kstreams},1649198933,0
{consumergroup=__strimzi-topic-operator-kstreams},1649198938,0
{consumergroup=__strimzi-topic-operator-kstreams},1649198943,0
{consumergroup=__strimzi-topic-operator-kstreams},1649198948,0
{consumergroup=__strimzi-topic-operator-kstreams},1649198953,0
{consumergroup=__strimzi-topic-operator-kstreams},1649198958,0
{consumergroup=__strimzi-topic-operator-kstreams},1649198963,0
{consumergroup=__strimzi-topic-operator-kstreams},1649198968,0
{consumergroup=__strimzi-topic-operator-kstreams},1649198973,0
{consumergroup=__strimzi-topic-operator-kstreams},1649198978,0
{consumergroup=__strimzi-topic-operator-kstreams},1649198983,0
{consumergroup=__strimzi-topic-operator-kstreams},1649198988,0
{consumergroup=__strimzi-topic-operator-kstreams},1649198993,0
{consumergroup=__strimzi-topic-operator-kstreams},1649198998,0
{consumergroup=__strimzi-topic-operator-kstreams},1649199003,0
{consumergroup=__strimzi-topic-operator-kstreams},1649199008,0
{consumergroup=__strimzi-topic-operator-kstreams},1649199013,0
{consumergroup=__strimzi-topic-operator-kstreams},1649199018,0
{consumergroup=__strimzi-topic-operator-kstreams},1649199023,0
{consumergroup=__strimzi-topic-operator-kstreams},1649199028,0
{consumergroup=__strimzi-topic-operator-kstreams},1649199033,0
{consumergroup=__strimzi-topic-operator-kstreams},1649199038,0
{consumergroup=__strimzi-topic-operator-kstreams},1649199043,0
{consumergroup=__strimzi-topic-operator-kstreams},1649199048,0
{consumergroup=__strimzi-topic-operator-kstreams},1649199053,0
{consumergroup=__strimzi-topic-operator-kstreams},1649199058,0
{consumergroup=__strimzi-topic-operator-kstreams},1649199063,0
