labels,timestamp,value
{},1649213833,0
{},1649213838,0
{},1649213843,0
{},1649213848,0
{},1649213853,0
{},1649213858,0
{},1649213863,0
{},1649213868,0
{},1649213873,0
{},1649213878,0
{},1649213883,0
{},1649213888,0
{},1649213893,0
{},1649213898,0
{},1649213903,0
