labels,timestamp,value
{consumergroup=__strimzi-topic-operator-kstreams},1649168006,0
{consumergroup=__strimzi-topic-operator-kstreams},1649168011,0
{consumergroup=__strimzi-topic-operator-kstreams},1649168016,0
{consumergroup=__strimzi-topic-operator-kstreams},1649168021,0
{consumergroup=__strimzi-topic-operator-kstreams},1649168026,0
{consumergroup=__strimzi-topic-operator-kstreams},1649168031,0
{consumergroup=__strimzi-topic-operator-kstreams},1649168036,0
{consumergroup=__strimzi-topic-operator-kstreams},1649168041,0
{consumergroup=__strimzi-topic-operator-kstreams},1649168046,0
{consumergroup=__strimzi-topic-operator-kstreams},1649168051,0
{consumergroup=__strimzi-topic-operator-kstreams},1649168056,0
{consumergroup=__strimzi-topic-operator-kstreams},1649168061,0
{consumergroup=__strimzi-topic-operator-kstreams},1649168066,0
{consumergroup=__strimzi-topic-operator-kstreams},1649168071,0
{consumergroup=__strimzi-topic-operator-kstreams},1649168076,0
{consumergroup=__strimzi-topic-operator-kstreams},1649168081,0
{consumergroup=__strimzi-topic-operator-kstreams},1649168086,0
{consumergroup=__strimzi-topic-operator-kstreams},1649168091,0
{consumergroup=__strimzi-topic-operator-kstreams},1649168096,0
{consumergroup=__strimzi-topic-operator-kstreams},1649168101,0
{consumergroup=__strimzi-topic-operator-kstreams},1649168106,0
{consumergroup=__strimzi-topic-operator-kstreams},1649168111,0
{consumergroup=__strimzi-topic-operator-kstreams},1649168116,0
{consumergroup=__strimzi-topic-operator-kstreams},1649168121,0
{consumergroup=__strimzi-topic-operator-kstreams},1649168126,0
{consumergroup=__strimzi-topic-operator-kstreams},1649168131,0
{consumergroup=__strimzi-topic-operator-kstreams},1649168136,0
{consumergroup=__strimzi-topic-operator-kstreams},1649168141,0
{consumergroup=__strimzi-topic-operator-kstreams},1649168146,0
{consumergroup=__strimzi-topic-operator-kstreams},1649168151,0
{consumergroup=__strimzi-topic-operator-kstreams},1649168156,0
{consumergroup=__strimzi-topic-operator-kstreams},1649168161,0
{consumergroup=__strimzi-topic-operator-kstreams},1649168166,0
{consumergroup=__strimzi-topic-operator-kstreams},1649168171,0
{consumergroup=__strimzi-topic-operator-kstreams},1649168176,0
{consumergroup=__strimzi-topic-operator-kstreams},1649168181,0
{consumergroup=__strimzi-topic-operator-kstreams},1649168186,0
{consumergroup=__strimzi-topic-operator-kstreams},1649168191,0
{consumergroup=__strimzi-topic-operator-kstreams},1649168196,0
{consumergroup=__strimzi-topic-operator-kstreams},1649168201,0
{consumergroup=__strimzi-topic-operator-kstreams},1649168206,0
{consumergroup=__strimzi-topic-operator-kstreams},1649168211,0
{consumergroup=__strimzi-topic-operator-kstreams},1649168216,0
{consumergroup=__strimzi-topic-operator-kstreams},1649168221,0
{consumergroup=__strimzi-topic-operator-kstreams},1649168226,0
{consumergroup=__strimzi-topic-operator-kstreams},1649168231,0
{consumergroup=__strimzi-topic-operator-kstreams},1649168236,0
{consumergroup=__strimzi-topic-operator-kstreams},1649168241,0
{consumergroup=__strimzi-topic-operator-kstreams},1649168246,0
{consumergroup=__strimzi-topic-operator-kstreams},1649168251,0
{consumergroup=__strimzi-topic-operator-kstreams},1649168256,0
{consumergroup=__strimzi-topic-operator-kstreams},1649168261,0
{consumergroup=__strimzi-topic-operator-kstreams},1649168266,0
{consumergroup=__strimzi-topic-operator-kstreams},1649168271,0
{consumergroup=__strimzi-topic-operator-kstreams},1649168276,0
{consumergroup=__strimzi-topic-operator-kstreams},1649168281,0
{consumergroup=__strimzi-topic-operator-kstreams},1649168286,0
{consumergroup=__strimzi-topic-operator-kstreams},1649168291,0
{consumergroup=__strimzi-topic-operator-kstreams},1649168296,0
{consumergroup=__strimzi-topic-operator-kstreams},1649168301,0
{consumergroup=__strimzi-topic-operator-kstreams},1649168306,0
{consumergroup=__strimzi-topic-operator-kstreams},1649168311,0
{consumergroup=__strimzi-topic-operator-kstreams},1649168316,0
{consumergroup=__strimzi-topic-operator-kstreams},1649168321,0
{consumergroup=__strimzi-topic-operator-kstreams},1649168326,0
{consumergroup=__strimzi-topic-operator-kstreams},1649168331,0
{consumergroup=__strimzi-topic-operator-kstreams},1649168336,0
{consumergroup=__strimzi-topic-operator-kstreams},1649168341,0
{consumergroup=__strimzi-topic-operator-kstreams},1649168346,0
{consumergroup=__strimzi-topic-operator-kstreams},1649168351,0
{consumergroup=__strimzi-topic-operator-kstreams},1649168356,0
{consumergroup=__strimzi-topic-operator-kstreams},1649168361,0
{consumergroup=__strimzi-topic-operator-kstreams},1649168366,0
{consumergroup=__strimzi-topic-operator-kstreams},1649168371,0
{consumergroup=__strimzi-topic-operator-kstreams},1649168376,0
{consumergroup=__strimzi-topic-operator-kstreams},1649168381,0
{consumergroup=__strimzi-topic-operator-kstreams},1649168386,0
{consumergroup=__strimzi-topic-operator-kstreams},1649168391,0
{consumergroup=__strimzi-topic-operator-kstreams},1649168396,0
{consumergroup=__strimzi-topic-operator-kstreams},1649168401,0
{consumergroup=__strimzi-topic-operator-kstreams},1649168406,0
{consumergroup=__strimzi-topic-operator-kstreams},1649168411,0
{consumergroup=__strimzi-topic-operator-kstreams},1649168416,0
{consumergroup=__strimzi-topic-operator-kstreams},1649168421,0
{consumergroup=__strimzi-topic-operator-kstreams},1649168426,0
{consumergroup=__strimzi-topic-operator-kstreams},1649168431,0
{consumergroup=__strimzi-topic-operator-kstreams},1649168436,0
{consumergroup=__strimzi-topic-operator-kstreams},1649168441,0
{consumergroup=__strimzi-topic-operator-kstreams},1649168446,0
{consumergroup=__strimzi-topic-operator-kstreams},1649168451,0
{consumergroup=__strimzi-topic-operator-kstreams},1649168456,0
{consumergroup=__strimzi-topic-operator-kstreams},1649168461,0
{consumergroup=__strimzi-topic-operator-kstreams},1649168466,0
{consumergroup=__strimzi-topic-operator-kstreams},1649168471,0
{consumergroup=__strimzi-topic-operator-kstreams},1649168476,0
{consumergroup=__strimzi-topic-operator-kstreams},1649168481,0
{consumergroup=__strimzi-topic-operator-kstreams},1649168486,0
{consumergroup=__strimzi-topic-operator-kstreams},1649168491,0
