labels,timestamp,value
{consumergroup=__strimzi-topic-operator-kstreams},1649188984,8
{consumergroup=__strimzi-topic-operator-kstreams},1649188989,8
{consumergroup=__strimzi-topic-operator-kstreams},1649188994,8
{consumergroup=__strimzi-topic-operator-kstreams},1649188999,0
{consumergroup=__strimzi-topic-operator-kstreams},1649189004,0
{consumergroup=__strimzi-topic-operator-kstreams},1649189009,0
{consumergroup=__strimzi-topic-operator-kstreams},1649189014,0
{consumergroup=__strimzi-topic-operator-kstreams},1649189019,0
{consumergroup=__strimzi-topic-operator-kstreams},1649189024,0
{consumergroup=__strimzi-topic-operator-kstreams},1649189029,0
{consumergroup=__strimzi-topic-operator-kstreams},1649189034,0
{consumergroup=__strimzi-topic-operator-kstreams},1649189039,0
{consumergroup=__strimzi-topic-operator-kstreams},1649189044,0
{consumergroup=__strimzi-topic-operator-kstreams},1649189049,0
{consumergroup=__strimzi-topic-operator-kstreams},1649189054,0
{consumergroup=__strimzi-topic-operator-kstreams},1649189059,0
{consumergroup=__strimzi-topic-operator-kstreams},1649189064,0
{consumergroup=__strimzi-topic-operator-kstreams},1649189069,0
{consumergroup=__strimzi-topic-operator-kstreams},1649189074,0
{consumergroup=__strimzi-topic-operator-kstreams},1649189079,0
{consumergroup=__strimzi-topic-operator-kstreams},1649189084,0
{consumergroup=__strimzi-topic-operator-kstreams},1649189089,0
{consumergroup=__strimzi-topic-operator-kstreams},1649189094,0
{consumergroup=__strimzi-topic-operator-kstreams},1649189099,0
{consumergroup=__strimzi-topic-operator-kstreams},1649189104,0
{consumergroup=__strimzi-topic-operator-kstreams},1649189109,0
{consumergroup=__strimzi-topic-operator-kstreams},1649189114,0
{consumergroup=__strimzi-topic-operator-kstreams},1649189119,0
{consumergroup=__strimzi-topic-operator-kstreams},1649189124,0
{consumergroup=__strimzi-topic-operator-kstreams},1649189129,0
{consumergroup=__strimzi-topic-operator-kstreams},1649189134,0
{consumergroup=__strimzi-topic-operator-kstreams},1649189139,0
{consumergroup=__strimzi-topic-operator-kstreams},1649189144,0
{consumergroup=__strimzi-topic-operator-kstreams},1649189149,0
{consumergroup=__strimzi-topic-operator-kstreams},1649189154,0
{consumergroup=__strimzi-topic-operator-kstreams},1649189159,0
{consumergroup=__strimzi-topic-operator-kstreams},1649189164,0
{consumergroup=__strimzi-topic-operator-kstreams},1649189169,0
{consumergroup=__strimzi-topic-operator-kstreams},1649189174,0
{consumergroup=__strimzi-topic-operator-kstreams},1649189179,0
{consumergroup=__strimzi-topic-operator-kstreams},1649189184,0
{consumergroup=__strimzi-topic-operator-kstreams},1649189189,0
{consumergroup=__strimzi-topic-operator-kstreams},1649189194,0
{consumergroup=__strimzi-topic-operator-kstreams},1649189199,0
{consumergroup=__strimzi-topic-operator-kstreams},1649189204,0
{consumergroup=__strimzi-topic-operator-kstreams},1649189209,0
{consumergroup=__strimzi-topic-operator-kstreams},1649189214,0
{consumergroup=__strimzi-topic-operator-kstreams},1649189219,0
{consumergroup=__strimzi-topic-operator-kstreams},1649189224,0
{consumergroup=__strimzi-topic-operator-kstreams},1649189229,0
{consumergroup=__strimzi-topic-operator-kstreams},1649189234,0
{consumergroup=__strimzi-topic-operator-kstreams},1649189239,0
{consumergroup=__strimzi-topic-operator-kstreams},1649189244,0
{consumergroup=__strimzi-topic-operator-kstreams},1649189249,0
{consumergroup=__strimzi-topic-operator-kstreams},1649189254,0
{consumergroup=__strimzi-topic-operator-kstreams},1649189259,0
{consumergroup=__strimzi-topic-operator-kstreams},1649189264,0
{consumergroup=__strimzi-topic-operator-kstreams},1649189269,0
{consumergroup=__strimzi-topic-operator-kstreams},1649189274,0
{consumergroup=__strimzi-topic-operator-kstreams},1649189279,0
{consumergroup=__strimzi-topic-operator-kstreams},1649189284,0
{consumergroup=__strimzi-topic-operator-kstreams},1649189289,0
{consumergroup=__strimzi-topic-operator-kstreams},1649189294,0
{consumergroup=__strimzi-topic-operator-kstreams},1649189299,0
{consumergroup=__strimzi-topic-operator-kstreams},1649189304,0
{consumergroup=__strimzi-topic-operator-kstreams},1649189309,0
{consumergroup=__strimzi-topic-operator-kstreams},1649189314,0
{consumergroup=__strimzi-topic-operator-kstreams},1649189319,0
{consumergroup=__strimzi-topic-operator-kstreams},1649189324,0
{consumergroup=__strimzi-topic-operator-kstreams},1649189329,0
{consumergroup=__strimzi-topic-operator-kstreams},1649189334,0
{consumergroup=__strimzi-topic-operator-kstreams},1649189339,0
{consumergroup=__strimzi-topic-operator-kstreams},1649189344,0
{consumergroup=__strimzi-topic-operator-kstreams},1649189349,0
{consumergroup=__strimzi-topic-operator-kstreams},1649189354,0
{consumergroup=__strimzi-topic-operator-kstreams},1649189359,0
{consumergroup=__strimzi-topic-operator-kstreams},1649189364,0
{consumergroup=__strimzi-topic-operator-kstreams},1649189369,0
{consumergroup=__strimzi-topic-operator-kstreams},1649189374,0
{consumergroup=__strimzi-topic-operator-kstreams},1649189379,0
{consumergroup=__strimzi-topic-operator-kstreams},1649189384,0
{consumergroup=__strimzi-topic-operator-kstreams},1649189389,0
{consumergroup=__strimzi-topic-operator-kstreams},1649189394,0
{consumergroup=__strimzi-topic-operator-kstreams},1649189399,0
{consumergroup=__strimzi-topic-operator-kstreams},1649189404,0
{consumergroup=__strimzi-topic-operator-kstreams},1649189409,0
{consumergroup=__strimzi-topic-operator-kstreams},1649189414,0
{consumergroup=__strimzi-topic-operator-kstreams},1649189419,0
{consumergroup=__strimzi-topic-operator-kstreams},1649189424,0
{consumergroup=__strimzi-topic-operator-kstreams},1649189429,0
{consumergroup=__strimzi-topic-operator-kstreams},1649189434,0
{consumergroup=__strimzi-topic-operator-kstreams},1649189439,0
{consumergroup=__strimzi-topic-operator-kstreams},1649189444,0
{consumergroup=__strimzi-topic-operator-kstreams},1649189449,0
{consumergroup=__strimzi-topic-operator-kstreams},1649189454,0
{consumergroup=__strimzi-topic-operator-kstreams},1649189459,0
{consumergroup=__strimzi-topic-operator-kstreams},1649189464,0
