labels,timestamp,value
{},1649208722,0
{},1649208727,0
{},1649208732,0
{},1649208737,0
{},1649208742,0
{},1649208747,0
{},1649208752,0
{},1649208757,0
{},1649208762,0
{},1649208767,0
{},1649208772,0
{},1649208777,0
{},1649208782,0
{},1649208787,0
