labels,timestamp,value
{},1649189529,0
{},1649189534,0
{},1649189539,0
{},1649189544,0
{},1649189549,0
{},1649189554,0
{},1649189559,0
{},1649189564,0
{},1649189569,0
{},1649189574,0
{},1649189579,0
{},1649189584,0
{},1649189589,0
{},1649189594,0
