labels,timestamp,value
{consumergroup=__strimzi-topic-operator-kstreams},1649187833,3
{consumergroup=__strimzi-topic-operator-kstreams},1649187838,3
{consumergroup=__strimzi-topic-operator-kstreams},1649187843,3
{consumergroup=__strimzi-topic-operator-kstreams},1649187848,11
{consumergroup=__strimzi-topic-operator-kstreams},1649187853,11
{consumergroup=__strimzi-topic-operator-kstreams},1649187858,11
{consumergroup=__strimzi-topic-operator-kstreams},1649187863,0
{consumergroup=__strimzi-topic-operator-kstreams},1649187868,0
{consumergroup=__strimzi-topic-operator-kstreams},1649187873,0
{consumergroup=__strimzi-topic-operator-kstreams},1649187878,0
{consumergroup=__strimzi-topic-operator-kstreams},1649187883,0
{consumergroup=__strimzi-topic-operator-kstreams},1649187888,0
{consumergroup=__strimzi-topic-operator-kstreams},1649187893,0
{consumergroup=__strimzi-topic-operator-kstreams},1649187898,0
{consumergroup=__strimzi-topic-operator-kstreams},1649187903,0
{consumergroup=__strimzi-topic-operator-kstreams},1649187908,0
{consumergroup=__strimzi-topic-operator-kstreams},1649187913,0
{consumergroup=__strimzi-topic-operator-kstreams},1649187918,0
{consumergroup=__strimzi-topic-operator-kstreams},1649187923,0
{consumergroup=__strimzi-topic-operator-kstreams},1649187928,0
{consumergroup=__strimzi-topic-operator-kstreams},1649187933,0
{consumergroup=__strimzi-topic-operator-kstreams},1649187938,0
{consumergroup=__strimzi-topic-operator-kstreams},1649187943,0
{consumergroup=__strimzi-topic-operator-kstreams},1649187948,0
{consumergroup=__strimzi-topic-operator-kstreams},1649187953,0
{consumergroup=__strimzi-topic-operator-kstreams},1649187958,0
{consumergroup=__strimzi-topic-operator-kstreams},1649187963,0
{consumergroup=__strimzi-topic-operator-kstreams},1649187968,0
{consumergroup=__strimzi-topic-operator-kstreams},1649187973,0
{consumergroup=__strimzi-topic-operator-kstreams},1649187978,0
{consumergroup=__strimzi-topic-operator-kstreams},1649187983,0
{consumergroup=__strimzi-topic-operator-kstreams},1649187988,0
{consumergroup=__strimzi-topic-operator-kstreams},1649187993,0
{consumergroup=__strimzi-topic-operator-kstreams},1649187998,0
{consumergroup=__strimzi-topic-operator-kstreams},1649188003,0
{consumergroup=__strimzi-topic-operator-kstreams},1649188008,0
{consumergroup=__strimzi-topic-operator-kstreams},1649188013,0
{consumergroup=__strimzi-topic-operator-kstreams},1649188018,0
{consumergroup=__strimzi-topic-operator-kstreams},1649188023,0
{consumergroup=__strimzi-topic-operator-kstreams},1649188028,0
{consumergroup=__strimzi-topic-operator-kstreams},1649188033,0
{consumergroup=__strimzi-topic-operator-kstreams},1649188038,0
{consumergroup=__strimzi-topic-operator-kstreams},1649188043,0
{consumergroup=__strimzi-topic-operator-kstreams},1649188048,0
{consumergroup=__strimzi-topic-operator-kstreams},1649188053,0
{consumergroup=__strimzi-topic-operator-kstreams},1649188058,0
{consumergroup=__strimzi-topic-operator-kstreams},1649188063,0
{consumergroup=__strimzi-topic-operator-kstreams},1649188068,0
{consumergroup=__strimzi-topic-operator-kstreams},1649188073,0
{consumergroup=__strimzi-topic-operator-kstreams},1649188078,0
{consumergroup=__strimzi-topic-operator-kstreams},1649188083,0
{consumergroup=__strimzi-topic-operator-kstreams},1649188088,0
{consumergroup=__strimzi-topic-operator-kstreams},1649188093,0
{consumergroup=__strimzi-topic-operator-kstreams},1649188098,0
{consumergroup=__strimzi-topic-operator-kstreams},1649188103,0
{consumergroup=__strimzi-topic-operator-kstreams},1649188108,0
{consumergroup=__strimzi-topic-operator-kstreams},1649188113,0
{consumergroup=__strimzi-topic-operator-kstreams},1649188118,0
{consumergroup=__strimzi-topic-operator-kstreams},1649188123,0
{consumergroup=__strimzi-topic-operator-kstreams},1649188128,0
{consumergroup=__strimzi-topic-operator-kstreams},1649188133,0
{consumergroup=__strimzi-topic-operator-kstreams},1649188138,0
{consumergroup=__strimzi-topic-operator-kstreams},1649188143,0
{consumergroup=__strimzi-topic-operator-kstreams},1649188148,0
{consumergroup=__strimzi-topic-operator-kstreams},1649188153,0
{consumergroup=__strimzi-topic-operator-kstreams},1649188158,0
{consumergroup=__strimzi-topic-operator-kstreams},1649188163,0
{consumergroup=__strimzi-topic-operator-kstreams},1649188168,0
{consumergroup=__strimzi-topic-operator-kstreams},1649188173,0
{consumergroup=__strimzi-topic-operator-kstreams},1649188178,0
{consumergroup=__strimzi-topic-operator-kstreams},1649188183,0
{consumergroup=__strimzi-topic-operator-kstreams},1649188188,0
{consumergroup=__strimzi-topic-operator-kstreams},1649188193,0
{consumergroup=__strimzi-topic-operator-kstreams},1649188198,0
{consumergroup=__strimzi-topic-operator-kstreams},1649188203,0
{consumergroup=__strimzi-topic-operator-kstreams},1649188208,0
{consumergroup=__strimzi-topic-operator-kstreams},1649188213,0
{consumergroup=__strimzi-topic-operator-kstreams},1649188218,0
{consumergroup=__strimzi-topic-operator-kstreams},1649188223,0
{consumergroup=__strimzi-topic-operator-kstreams},1649188228,0
{consumergroup=__strimzi-topic-operator-kstreams},1649188233,0
{consumergroup=__strimzi-topic-operator-kstreams},1649188238,0
{consumergroup=__strimzi-topic-operator-kstreams},1649188243,0
{consumergroup=__strimzi-topic-operator-kstreams},1649188248,0
{consumergroup=__strimzi-topic-operator-kstreams},1649188253,0
{consumergroup=__strimzi-topic-operator-kstreams},1649188258,0
{consumergroup=__strimzi-topic-operator-kstreams},1649188263,0
{consumergroup=__strimzi-topic-operator-kstreams},1649188268,0
{consumergroup=__strimzi-topic-operator-kstreams},1649188273,0
{consumergroup=__strimzi-topic-operator-kstreams},1649188278,0
{consumergroup=__strimzi-topic-operator-kstreams},1649188283,0
{consumergroup=__strimzi-topic-operator-kstreams},1649188288,0
{consumergroup=__strimzi-topic-operator-kstreams},1649188293,0
{consumergroup=__strimzi-topic-operator-kstreams},1649188298,0
{consumergroup=__strimzi-topic-operator-kstreams},1649188303,0
{consumergroup=__strimzi-topic-operator-kstreams},1649188308,0
{consumergroup=__strimzi-topic-operator-kstreams},1649188313,0
{consumergroup=__strimzi-topic-operator-kstreams},1649188318,0
{consumergroup=__strimzi-topic-operator-kstreams},1649188323,0
{consumergroup=__strimzi-topic-operator-kstreams},1649188328,0
{consumergroup=__strimzi-topic-operator-kstreams},1649188333,0
