labels,timestamp,value
{consumergroup=__strimzi-topic-operator-kstreams},1649222324,0
{consumergroup=__strimzi-topic-operator-kstreams},1649222329,0
{consumergroup=__strimzi-topic-operator-kstreams},1649222334,0
{consumergroup=__strimzi-topic-operator-kstreams},1649222339,8
{consumergroup=__strimzi-topic-operator-kstreams},1649222344,8
{consumergroup=__strimzi-topic-operator-kstreams},1649222349,8
{consumergroup=__strimzi-topic-operator-kstreams},1649222354,9
{consumergroup=__strimzi-topic-operator-kstreams},1649222359,9
{consumergroup=__strimzi-topic-operator-kstreams},1649222364,9
{consumergroup=__strimzi-topic-operator-kstreams},1649222369,0
{consumergroup=__strimzi-topic-operator-kstreams},1649222374,0
{consumergroup=__strimzi-topic-operator-kstreams},1649222379,0
{consumergroup=__strimzi-topic-operator-kstreams},1649222384,0
{consumergroup=__strimzi-topic-operator-kstreams},1649222389,0
{consumergroup=__strimzi-topic-operator-kstreams},1649222394,0
{consumergroup=__strimzi-topic-operator-kstreams},1649222399,0
{consumergroup=__strimzi-topic-operator-kstreams},1649222404,0
{consumergroup=__strimzi-topic-operator-kstreams},1649222409,0
{consumergroup=__strimzi-topic-operator-kstreams},1649222414,0
{consumergroup=__strimzi-topic-operator-kstreams},1649222419,0
{consumergroup=__strimzi-topic-operator-kstreams},1649222424,0
{consumergroup=__strimzi-topic-operator-kstreams},1649222429,0
{consumergroup=__strimzi-topic-operator-kstreams},1649222434,0
{consumergroup=__strimzi-topic-operator-kstreams},1649222439,0
{consumergroup=__strimzi-topic-operator-kstreams},1649222444,0
{consumergroup=__strimzi-topic-operator-kstreams},1649222449,0
{consumergroup=__strimzi-topic-operator-kstreams},1649222454,0
{consumergroup=__strimzi-topic-operator-kstreams},1649222459,0
{consumergroup=__strimzi-topic-operator-kstreams},1649222464,0
{consumergroup=__strimzi-topic-operator-kstreams},1649222469,0
{consumergroup=__strimzi-topic-operator-kstreams},1649222474,0
{consumergroup=__strimzi-topic-operator-kstreams},1649222479,0
{consumergroup=__strimzi-topic-operator-kstreams},1649222484,0
{consumergroup=__strimzi-topic-operator-kstreams},1649222489,0
{consumergroup=__strimzi-topic-operator-kstreams},1649222494,0
{consumergroup=__strimzi-topic-operator-kstreams},1649222499,0
{consumergroup=__strimzi-topic-operator-kstreams},1649222504,0
{consumergroup=__strimzi-topic-operator-kstreams},1649222509,0
{consumergroup=__strimzi-topic-operator-kstreams},1649222514,0
{consumergroup=__strimzi-topic-operator-kstreams},1649222519,0
{consumergroup=__strimzi-topic-operator-kstreams},1649222524,0
{consumergroup=__strimzi-topic-operator-kstreams},1649222529,0
{consumergroup=__strimzi-topic-operator-kstreams},1649222534,0
{consumergroup=__strimzi-topic-operator-kstreams},1649222539,0
{consumergroup=__strimzi-topic-operator-kstreams},1649222544,0
{consumergroup=__strimzi-topic-operator-kstreams},1649222549,0
{consumergroup=__strimzi-topic-operator-kstreams},1649222554,0
{consumergroup=__strimzi-topic-operator-kstreams},1649222559,0
{consumergroup=__strimzi-topic-operator-kstreams},1649222564,0
{consumergroup=__strimzi-topic-operator-kstreams},1649222569,0
{consumergroup=__strimzi-topic-operator-kstreams},1649222574,0
{consumergroup=__strimzi-topic-operator-kstreams},1649222579,0
{consumergroup=__strimzi-topic-operator-kstreams},1649222584,0
{consumergroup=__strimzi-topic-operator-kstreams},1649222589,0
{consumergroup=__strimzi-topic-operator-kstreams},1649222594,0
{consumergroup=__strimzi-topic-operator-kstreams},1649222599,0
{consumergroup=__strimzi-topic-operator-kstreams},1649222604,0
{consumergroup=__strimzi-topic-operator-kstreams},1649222609,0
{consumergroup=__strimzi-topic-operator-kstreams},1649222614,0
{consumergroup=__strimzi-topic-operator-kstreams},1649222619,0
{consumergroup=__strimzi-topic-operator-kstreams},1649222624,0
{consumergroup=__strimzi-topic-operator-kstreams},1649222629,0
{consumergroup=__strimzi-topic-operator-kstreams},1649222634,0
{consumergroup=__strimzi-topic-operator-kstreams},1649222639,0
{consumergroup=__strimzi-topic-operator-kstreams},1649222644,0
{consumergroup=__strimzi-topic-operator-kstreams},1649222649,0
{consumergroup=__strimzi-topic-operator-kstreams},1649222654,0
{consumergroup=__strimzi-topic-operator-kstreams},1649222659,0
{consumergroup=__strimzi-topic-operator-kstreams},1649222664,0
{consumergroup=__strimzi-topic-operator-kstreams},1649222669,0
{consumergroup=__strimzi-topic-operator-kstreams},1649222674,0
{consumergroup=__strimzi-topic-operator-kstreams},1649222679,0
{consumergroup=__strimzi-topic-operator-kstreams},1649222684,0
{consumergroup=__strimzi-topic-operator-kstreams},1649222689,0
{consumergroup=__strimzi-topic-operator-kstreams},1649222694,0
{consumergroup=__strimzi-topic-operator-kstreams},1649222699,0
{consumergroup=__strimzi-topic-operator-kstreams},1649222704,0
{consumergroup=__strimzi-topic-operator-kstreams},1649222709,0
{consumergroup=__strimzi-topic-operator-kstreams},1649222714,0
{consumergroup=__strimzi-topic-operator-kstreams},1649222719,0
{consumergroup=__strimzi-topic-operator-kstreams},1649222724,0
{consumergroup=__strimzi-topic-operator-kstreams},1649222729,0
{consumergroup=__strimzi-topic-operator-kstreams},1649222734,0
{consumergroup=__strimzi-topic-operator-kstreams},1649222739,0
{consumergroup=__strimzi-topic-operator-kstreams},1649222744,0
{consumergroup=__strimzi-topic-operator-kstreams},1649222749,0
{consumergroup=__strimzi-topic-operator-kstreams},1649222754,0
{consumergroup=__strimzi-topic-operator-kstreams},1649222759,0
{consumergroup=__strimzi-topic-operator-kstreams},1649222764,0
{consumergroup=__strimzi-topic-operator-kstreams},1649222769,0
{consumergroup=__strimzi-topic-operator-kstreams},1649222774,0
{consumergroup=__strimzi-topic-operator-kstreams},1649222779,0
{consumergroup=__strimzi-topic-operator-kstreams},1649222784,0
{consumergroup=__strimzi-topic-operator-kstreams},1649222789,0
{consumergroup=__strimzi-topic-operator-kstreams},1649222794,0
{consumergroup=__strimzi-topic-operator-kstreams},1649222799,0
{consumergroup=__strimzi-topic-operator-kstreams},1649222804,0
{consumergroup=__strimzi-topic-operator-kstreams},1649222809,0
{consumergroup=__strimzi-topic-operator-kstreams},1649222814,0
{consumergroup=__strimzi-topic-operator-kstreams},1649222819,0
{consumergroup=__strimzi-topic-operator-kstreams},1649222824,0
