labels,timestamp,value
{consumergroup=__strimzi-topic-operator-kstreams},1649208722,0
{consumergroup=__strimzi-topic-operator-kstreams},1649208737,0
{consumergroup=__strimzi-topic-operator-kstreams},1649208742,0
{consumergroup=__strimzi-topic-operator-kstreams},1649208747,0
{consumergroup=__strimzi-topic-operator-kstreams},1649208752,0
{consumergroup=__strimzi-topic-operator-kstreams},1649208757,0
{consumergroup=__strimzi-topic-operator-kstreams},1649208762,0
{consumergroup=__strimzi-topic-operator-kstreams},1649208767,0
{consumergroup=__strimzi-topic-operator-kstreams},1649208772,0
{consumergroup=__strimzi-topic-operator-kstreams},1649208777,0
{consumergroup=__strimzi-topic-operator-kstreams},1649208782,0
{consumergroup=__strimzi-topic-operator-kstreams},1649208787,0
{consumergroup=__strimzi-topic-operator-kstreams},1649208792,0
{consumergroup=__strimzi-topic-operator-kstreams},1649208797,0
{consumergroup=__strimzi-topic-operator-kstreams},1649208802,0
{consumergroup=__strimzi-topic-operator-kstreams},1649208807,0
{consumergroup=__strimzi-topic-operator-kstreams},1649208812,0
{consumergroup=__strimzi-topic-operator-kstreams},1649208817,0
{consumergroup=__strimzi-topic-operator-kstreams},1649208822,0
{consumergroup=__strimzi-topic-operator-kstreams},1649208827,0
{consumergroup=__strimzi-topic-operator-kstreams},1649208832,0
{consumergroup=__strimzi-topic-operator-kstreams},1649208837,0
{consumergroup=__strimzi-topic-operator-kstreams},1649208842,0
{consumergroup=__strimzi-topic-operator-kstreams},1649208847,0
{consumergroup=__strimzi-topic-operator-kstreams},1649208852,0
{consumergroup=__strimzi-topic-operator-kstreams},1649208857,0
{consumergroup=__strimzi-topic-operator-kstreams},1649208862,0
{consumergroup=__strimzi-topic-operator-kstreams},1649208867,0
{consumergroup=__strimzi-topic-operator-kstreams},1649208872,0
{consumergroup=__strimzi-topic-operator-kstreams},1649208877,0
{consumergroup=__strimzi-topic-operator-kstreams},1649208882,0
{consumergroup=__strimzi-topic-operator-kstreams},1649208887,0
{consumergroup=__strimzi-topic-operator-kstreams},1649208892,0
{consumergroup=__strimzi-topic-operator-kstreams},1649208897,0
{consumergroup=__strimzi-topic-operator-kstreams},1649208902,0
{consumergroup=__strimzi-topic-operator-kstreams},1649208907,0
{consumergroup=__strimzi-topic-operator-kstreams},1649208912,0
{consumergroup=__strimzi-topic-operator-kstreams},1649208917,0
{consumergroup=__strimzi-topic-operator-kstreams},1649208922,0
{consumergroup=__strimzi-topic-operator-kstreams},1649208927,0
{consumergroup=__strimzi-topic-operator-kstreams},1649208932,0
{consumergroup=__strimzi-topic-operator-kstreams},1649208937,0
{consumergroup=__strimzi-topic-operator-kstreams},1649208942,0
{consumergroup=__strimzi-topic-operator-kstreams},1649208947,0
{consumergroup=__strimzi-topic-operator-kstreams},1649208952,0
{consumergroup=__strimzi-topic-operator-kstreams},1649208957,0
{consumergroup=__strimzi-topic-operator-kstreams},1649208962,0
{consumergroup=__strimzi-topic-operator-kstreams},1649208967,0
{consumergroup=__strimzi-topic-operator-kstreams},1649208972,0
{consumergroup=__strimzi-topic-operator-kstreams},1649208977,0
{consumergroup=__strimzi-topic-operator-kstreams},1649208982,0
{consumergroup=__strimzi-topic-operator-kstreams},1649208987,0
{consumergroup=__strimzi-topic-operator-kstreams},1649208992,0
{consumergroup=__strimzi-topic-operator-kstreams},1649208997,0
{consumergroup=__strimzi-topic-operator-kstreams},1649209002,0
{consumergroup=__strimzi-topic-operator-kstreams},1649209007,0
{consumergroup=__strimzi-topic-operator-kstreams},1649209012,0
{consumergroup=__strimzi-topic-operator-kstreams},1649209017,0
{consumergroup=__strimzi-topic-operator-kstreams},1649209022,0
{consumergroup=__strimzi-topic-operator-kstreams},1649209027,0
{consumergroup=__strimzi-topic-operator-kstreams},1649209032,0
{consumergroup=__strimzi-topic-operator-kstreams},1649209037,0
{consumergroup=__strimzi-topic-operator-kstreams},1649209042,0
{consumergroup=__strimzi-topic-operator-kstreams},1649209047,0
{consumergroup=__strimzi-topic-operator-kstreams},1649209052,0
{consumergroup=__strimzi-topic-operator-kstreams},1649209057,0
{consumergroup=__strimzi-topic-operator-kstreams},1649209062,0
{consumergroup=__strimzi-topic-operator-kstreams},1649209067,0
{consumergroup=__strimzi-topic-operator-kstreams},1649209072,0
{consumergroup=__strimzi-topic-operator-kstreams},1649209077,0
{consumergroup=__strimzi-topic-operator-kstreams},1649209082,0
{consumergroup=__strimzi-topic-operator-kstreams},1649209087,0
{consumergroup=__strimzi-topic-operator-kstreams},1649209092,0
{consumergroup=__strimzi-topic-operator-kstreams},1649209097,0
{consumergroup=__strimzi-topic-operator-kstreams},1649209102,0
{consumergroup=__strimzi-topic-operator-kstreams},1649209107,0
{consumergroup=__strimzi-topic-operator-kstreams},1649209112,0
{consumergroup=__strimzi-topic-operator-kstreams},1649209117,0
{consumergroup=__strimzi-topic-operator-kstreams},1649209122,0
{consumergroup=__strimzi-topic-operator-kstreams},1649209127,0
{consumergroup=__strimzi-topic-operator-kstreams},1649209132,0
{consumergroup=__strimzi-topic-operator-kstreams},1649209137,0
{consumergroup=__strimzi-topic-operator-kstreams},1649209142,0
{consumergroup=__strimzi-topic-operator-kstreams},1649209147,0
{consumergroup=__strimzi-topic-operator-kstreams},1649209152,0
{consumergroup=__strimzi-topic-operator-kstreams},1649209157,0
{consumergroup=__strimzi-topic-operator-kstreams},1649209162,0
{consumergroup=__strimzi-topic-operator-kstreams},1649209167,0
{consumergroup=__strimzi-topic-operator-kstreams},1649209172,0
{consumergroup=__strimzi-topic-operator-kstreams},1649209177,0
{consumergroup=__strimzi-topic-operator-kstreams},1649209182,0
{consumergroup=__strimzi-topic-operator-kstreams},1649209187,0
{consumergroup=__strimzi-topic-operator-kstreams},1649209192,0
{consumergroup=__strimzi-topic-operator-kstreams},1649209197,0
{consumergroup=__strimzi-topic-operator-kstreams},1649209202,0
{consumergroup=__strimzi-topic-operator-kstreams},1649209207,0
{consumergroup=__strimzi-topic-operator-kstreams},1649209212,0
{consumergroup=__strimzi-topic-operator-kstreams},1649209217,0
{consumergroup=__strimzi-topic-operator-kstreams},1649209222,0
