labels,timestamp,value
{},1649176505,0
{},1649176510,0
{},1649176515,0
{},1649176520,0
{},1649176525,0
{},1649176530,0
{},1649176535,0
{},1649176540,0
{},1649176545,0
{},1649176550,0
{},1649176555,0
{},1649176560,0
{},1649176565,0
{},1649176570,0
