labels,timestamp,value
{},1649266466,0
{},1649266471,0
{},1649266476,0
{},1649266481,0
{},1649266486,0
{},1649266491,0
{},1649266496,0
{},1649266501,0
{},1649266506,0
{},1649266511,0
{},1649266516,0
{},1649266521,0
{},1649266526,0
{},1649266531,0
{},1649266536,0
{},1649266541,0
{},1649266546,0
{},1649266551,0
{},1649266556,0
{},1649266561,0
{},1649266566,0
{},1649266571,0
{},1649266576,0
{},1649266581,0
{},1649266586,0
{},1649266591,0
{},1649266596,0
{},1649266601,0
{},1649266606,0
{},1649266611,0
{},1649266616,0
{},1649266621,0
{},1649266626,0
{},1649266631,0
{},1649266636,0
{},1649266641,0
{},1649266646,0
