labels,timestamp,value
{},1649244384,0
{},1649244389,0
{},1649244394,0
{},1649244399,0
{},1649244404,0
{},1649244409,0
{},1649244414,0
{},1649244419,0
{},1649244424,0
{},1649244429,0
{},1649244434,0
{},1649244439,0
{},1649244444,0
{},1649244449,0
{},1649244454,0
