labels,timestamp,value
{consumergroup=__strimzi-topic-operator-kstreams},1649247772,6
{consumergroup=__strimzi-topic-operator-kstreams},1649247777,6
{consumergroup=__strimzi-topic-operator-kstreams},1649247782,6
{consumergroup=__strimzi-topic-operator-kstreams},1649247787,0
{consumergroup=__strimzi-topic-operator-kstreams},1649247792,0
{consumergroup=__strimzi-topic-operator-kstreams},1649247797,0
{consumergroup=__strimzi-topic-operator-kstreams},1649247802,0
{consumergroup=__strimzi-topic-operator-kstreams},1649247807,0
{consumergroup=__strimzi-topic-operator-kstreams},1649247812,0
{consumergroup=__strimzi-topic-operator-kstreams},1649247817,3
{consumergroup=__strimzi-topic-operator-kstreams},1649247822,3
{consumergroup=__strimzi-topic-operator-kstreams},1649247827,3
{consumergroup=__strimzi-topic-operator-kstreams},1649247832,3
{consumergroup=__strimzi-topic-operator-kstreams},1649247837,3
{consumergroup=__strimzi-topic-operator-kstreams},1649247842,3
{consumergroup=__strimzi-topic-operator-kstreams},1649247847,0
{consumergroup=__strimzi-topic-operator-kstreams},1649247852,0
{consumergroup=__strimzi-topic-operator-kstreams},1649247857,0
{consumergroup=__strimzi-topic-operator-kstreams},1649247862,0
{consumergroup=__strimzi-topic-operator-kstreams},1649247867,0
{consumergroup=__strimzi-topic-operator-kstreams},1649247872,0
{consumergroup=__strimzi-topic-operator-kstreams},1649247877,0
{consumergroup=__strimzi-topic-operator-kstreams},1649247882,0
{consumergroup=__strimzi-topic-operator-kstreams},1649247887,0
{consumergroup=__strimzi-topic-operator-kstreams},1649247892,0
{consumergroup=__strimzi-topic-operator-kstreams},1649247897,0
{consumergroup=__strimzi-topic-operator-kstreams},1649247902,0
{consumergroup=__strimzi-topic-operator-kstreams},1649247907,0
{consumergroup=__strimzi-topic-operator-kstreams},1649247912,0
{consumergroup=__strimzi-topic-operator-kstreams},1649247917,0
{consumergroup=__strimzi-topic-operator-kstreams},1649247922,0
{consumergroup=__strimzi-topic-operator-kstreams},1649247927,0
{consumergroup=__strimzi-topic-operator-kstreams},1649247932,0
{consumergroup=__strimzi-topic-operator-kstreams},1649247937,0
{consumergroup=__strimzi-topic-operator-kstreams},1649247942,0
{consumergroup=__strimzi-topic-operator-kstreams},1649247947,0
{consumergroup=__strimzi-topic-operator-kstreams},1649247952,0
{consumergroup=__strimzi-topic-operator-kstreams},1649247957,0
{consumergroup=__strimzi-topic-operator-kstreams},1649247962,0
{consumergroup=__strimzi-topic-operator-kstreams},1649247967,0
{consumergroup=__strimzi-topic-operator-kstreams},1649247972,0
{consumergroup=__strimzi-topic-operator-kstreams},1649247977,0
{consumergroup=__strimzi-topic-operator-kstreams},1649247982,0
{consumergroup=__strimzi-topic-operator-kstreams},1649247987,0
{consumergroup=__strimzi-topic-operator-kstreams},1649247992,0
{consumergroup=__strimzi-topic-operator-kstreams},1649247997,0
{consumergroup=__strimzi-topic-operator-kstreams},1649248002,0
{consumergroup=__strimzi-topic-operator-kstreams},1649248007,0
{consumergroup=__strimzi-topic-operator-kstreams},1649248012,0
{consumergroup=__strimzi-topic-operator-kstreams},1649248017,0
{consumergroup=__strimzi-topic-operator-kstreams},1649248022,0
{consumergroup=__strimzi-topic-operator-kstreams},1649248027,0
{consumergroup=__strimzi-topic-operator-kstreams},1649248032,0
{consumergroup=__strimzi-topic-operator-kstreams},1649248037,0
{consumergroup=__strimzi-topic-operator-kstreams},1649248042,0
{consumergroup=__strimzi-topic-operator-kstreams},1649248047,0
{consumergroup=__strimzi-topic-operator-kstreams},1649248052,0
{consumergroup=__strimzi-topic-operator-kstreams},1649248057,0
{consumergroup=__strimzi-topic-operator-kstreams},1649248062,0
{consumergroup=__strimzi-topic-operator-kstreams},1649248067,0
{consumergroup=__strimzi-topic-operator-kstreams},1649248072,0
{consumergroup=__strimzi-topic-operator-kstreams},1649248077,0
{consumergroup=__strimzi-topic-operator-kstreams},1649248082,0
{consumergroup=__strimzi-topic-operator-kstreams},1649248087,0
{consumergroup=__strimzi-topic-operator-kstreams},1649248092,0
{consumergroup=__strimzi-topic-operator-kstreams},1649248097,0
{consumergroup=__strimzi-topic-operator-kstreams},1649248102,0
{consumergroup=__strimzi-topic-operator-kstreams},1649248107,0
{consumergroup=__strimzi-topic-operator-kstreams},1649248112,0
{consumergroup=__strimzi-topic-operator-kstreams},1649248117,0
{consumergroup=__strimzi-topic-operator-kstreams},1649248122,0
{consumergroup=__strimzi-topic-operator-kstreams},1649248127,0
{consumergroup=__strimzi-topic-operator-kstreams},1649248132,0
{consumergroup=__strimzi-topic-operator-kstreams},1649248137,0
{consumergroup=__strimzi-topic-operator-kstreams},1649248142,0
{consumergroup=__strimzi-topic-operator-kstreams},1649248147,0
{consumergroup=__strimzi-topic-operator-kstreams},1649248152,0
{consumergroup=__strimzi-topic-operator-kstreams},1649248157,0
{consumergroup=__strimzi-topic-operator-kstreams},1649248162,0
{consumergroup=__strimzi-topic-operator-kstreams},1649248167,0
{consumergroup=__strimzi-topic-operator-kstreams},1649248172,0
{consumergroup=__strimzi-topic-operator-kstreams},1649248177,0
{consumergroup=__strimzi-topic-operator-kstreams},1649248182,0
{consumergroup=__strimzi-topic-operator-kstreams},1649248187,0
{consumergroup=__strimzi-topic-operator-kstreams},1649248192,0
{consumergroup=__strimzi-topic-operator-kstreams},1649248197,0
{consumergroup=__strimzi-topic-operator-kstreams},1649248202,0
{consumergroup=__strimzi-topic-operator-kstreams},1649248207,0
{consumergroup=__strimzi-topic-operator-kstreams},1649248212,0
{consumergroup=__strimzi-topic-operator-kstreams},1649248217,0
{consumergroup=__strimzi-topic-operator-kstreams},1649248222,0
{consumergroup=__strimzi-topic-operator-kstreams},1649248227,0
{consumergroup=__strimzi-topic-operator-kstreams},1649248232,0
{consumergroup=__strimzi-topic-operator-kstreams},1649248237,0
{consumergroup=__strimzi-topic-operator-kstreams},1649248242,0
{consumergroup=__strimzi-topic-operator-kstreams},1649248247,0
{consumergroup=__strimzi-topic-operator-kstreams},1649248252,0
{consumergroup=__strimzi-topic-operator-kstreams},1649248257,0
{consumergroup=__strimzi-topic-operator-kstreams},1649248262,0
{consumergroup=__strimzi-topic-operator-kstreams},1649248267,0
