labels,timestamp,value
{consumergroup=__strimzi-topic-operator-kstreams},1649266471,3
{consumergroup=__strimzi-topic-operator-kstreams},1649266476,3
{consumergroup=__strimzi-topic-operator-kstreams},1649266481,3
{consumergroup=__strimzi-topic-operator-kstreams},1649266486,13
{consumergroup=__strimzi-topic-operator-kstreams},1649266491,13
{consumergroup=__strimzi-topic-operator-kstreams},1649266496,13
{consumergroup=__strimzi-topic-operator-kstreams},1649266501,0
{consumergroup=__strimzi-topic-operator-kstreams},1649266506,0
{consumergroup=__strimzi-topic-operator-kstreams},1649266511,0
{consumergroup=__strimzi-topic-operator-kstreams},1649266516,0
{consumergroup=__strimzi-topic-operator-kstreams},1649266521,0
{consumergroup=__strimzi-topic-operator-kstreams},1649266526,0
{consumergroup=__strimzi-topic-operator-kstreams},1649266531,0
{consumergroup=__strimzi-topic-operator-kstreams},1649266536,0
{consumergroup=__strimzi-topic-operator-kstreams},1649266541,0
{consumergroup=__strimzi-topic-operator-kstreams},1649266546,0
{consumergroup=__strimzi-topic-operator-kstreams},1649266551,0
{consumergroup=__strimzi-topic-operator-kstreams},1649266556,0
{consumergroup=__strimzi-topic-operator-kstreams},1649266561,0
{consumergroup=__strimzi-topic-operator-kstreams},1649266566,0
{consumergroup=__strimzi-topic-operator-kstreams},1649266571,0
{consumergroup=__strimzi-topic-operator-kstreams},1649266576,1
{consumergroup=__strimzi-topic-operator-kstreams},1649266581,1
{consumergroup=__strimzi-topic-operator-kstreams},1649266586,1
{consumergroup=__strimzi-topic-operator-kstreams},1649266591,0
{consumergroup=__strimzi-topic-operator-kstreams},1649266596,0
{consumergroup=__strimzi-topic-operator-kstreams},1649266601,0
{consumergroup=__strimzi-topic-operator-kstreams},1649266606,0
{consumergroup=__strimzi-topic-operator-kstreams},1649266611,0
{consumergroup=__strimzi-topic-operator-kstreams},1649266616,0
{consumergroup=__strimzi-topic-operator-kstreams},1649266621,0
{consumergroup=__strimzi-topic-operator-kstreams},1649266626,0
{consumergroup=__strimzi-topic-operator-kstreams},1649266631,0
{consumergroup=__strimzi-topic-operator-kstreams},1649266636,0
{consumergroup=__strimzi-topic-operator-kstreams},1649266641,0
{consumergroup=__strimzi-topic-operator-kstreams},1649266646,0
{consumergroup=__strimzi-topic-operator-kstreams},1649266651,0
{consumergroup=__strimzi-topic-operator-kstreams},1649266656,0
{consumergroup=__strimzi-topic-operator-kstreams},1649266661,0
{consumergroup=__strimzi-topic-operator-kstreams},1649266666,0
{consumergroup=__strimzi-topic-operator-kstreams},1649266671,0
{consumergroup=__strimzi-topic-operator-kstreams},1649266676,0
{consumergroup=__strimzi-topic-operator-kstreams},1649266681,0
{consumergroup=__strimzi-topic-operator-kstreams},1649266686,0
{consumergroup=__strimzi-topic-operator-kstreams},1649266691,0
{consumergroup=__strimzi-topic-operator-kstreams},1649266696,0
{consumergroup=__strimzi-topic-operator-kstreams},1649266701,0
{consumergroup=__strimzi-topic-operator-kstreams},1649266706,0
{consumergroup=__strimzi-topic-operator-kstreams},1649266711,0
{consumergroup=__strimzi-topic-operator-kstreams},1649266716,0
{consumergroup=__strimzi-topic-operator-kstreams},1649266721,0
{consumergroup=__strimzi-topic-operator-kstreams},1649266726,0
{consumergroup=__strimzi-topic-operator-kstreams},1649266731,0
{consumergroup=__strimzi-topic-operator-kstreams},1649266736,0
{consumergroup=__strimzi-topic-operator-kstreams},1649266741,0
{consumergroup=__strimzi-topic-operator-kstreams},1649266746,0
{consumergroup=__strimzi-topic-operator-kstreams},1649266751,0
{consumergroup=__strimzi-topic-operator-kstreams},1649266756,0
{consumergroup=__strimzi-topic-operator-kstreams},1649266761,0
{consumergroup=__strimzi-topic-operator-kstreams},1649266766,0
{consumergroup=__strimzi-topic-operator-kstreams},1649266771,0
{consumergroup=__strimzi-topic-operator-kstreams},1649266776,0
{consumergroup=__strimzi-topic-operator-kstreams},1649266781,0
{consumergroup=__strimzi-topic-operator-kstreams},1649266786,0
{consumergroup=__strimzi-topic-operator-kstreams},1649266791,0
{consumergroup=__strimzi-topic-operator-kstreams},1649266796,0
{consumergroup=__strimzi-topic-operator-kstreams},1649266801,0
{consumergroup=__strimzi-topic-operator-kstreams},1649266806,0
{consumergroup=__strimzi-topic-operator-kstreams},1649266811,0
{consumergroup=__strimzi-topic-operator-kstreams},1649266816,0
{consumergroup=__strimzi-topic-operator-kstreams},1649266821,0
{consumergroup=__strimzi-topic-operator-kstreams},1649266826,0
{consumergroup=__strimzi-topic-operator-kstreams},1649266831,0
{consumergroup=__strimzi-topic-operator-kstreams},1649266836,0
{consumergroup=__strimzi-topic-operator-kstreams},1649266841,0
{consumergroup=__strimzi-topic-operator-kstreams},1649266846,0
{consumergroup=__strimzi-topic-operator-kstreams},1649266851,0
{consumergroup=__strimzi-topic-operator-kstreams},1649266856,0
{consumergroup=__strimzi-topic-operator-kstreams},1649266861,0
{consumergroup=__strimzi-topic-operator-kstreams},1649266866,0
{consumergroup=__strimzi-topic-operator-kstreams},1649266871,0
{consumergroup=__strimzi-topic-operator-kstreams},1649266876,0
{consumergroup=__strimzi-topic-operator-kstreams},1649266881,0
{consumergroup=__strimzi-topic-operator-kstreams},1649266886,0
{consumergroup=__strimzi-topic-operator-kstreams},1649266891,0
{consumergroup=__strimzi-topic-operator-kstreams},1649266896,0
{consumergroup=__strimzi-topic-operator-kstreams},1649266901,0
{consumergroup=__strimzi-topic-operator-kstreams},1649266906,0
{consumergroup=__strimzi-topic-operator-kstreams},1649266911,0
{consumergroup=__strimzi-topic-operator-kstreams},1649266916,0
{consumergroup=__strimzi-topic-operator-kstreams},1649266921,0
{consumergroup=__strimzi-topic-operator-kstreams},1649266926,0
{consumergroup=__strimzi-topic-operator-kstreams},1649266931,0
{consumergroup=__strimzi-topic-operator-kstreams},1649266936,0
{consumergroup=__strimzi-topic-operator-kstreams},1649266941,0
{consumergroup=__strimzi-topic-operator-kstreams},1649266946,0
{consumergroup=__strimzi-topic-operator-kstreams},1649266951,0
{consumergroup=__strimzi-topic-operator-kstreams},1649266956,0
{consumergroup=__strimzi-topic-operator-kstreams},1649266961,0
{consumergroup=__strimzi-topic-operator-kstreams},1649266966,0
