labels,timestamp,value
{consumergroup=__strimzi-topic-operator-kstreams},1649257960,3
{consumergroup=__strimzi-topic-operator-kstreams},1649257965,3
{consumergroup=__strimzi-topic-operator-kstreams},1649257970,3
{consumergroup=__strimzi-topic-operator-kstreams},1649257975,11
{consumergroup=__strimzi-topic-operator-kstreams},1649257980,11
{consumergroup=__strimzi-topic-operator-kstreams},1649257985,11
{consumergroup=__strimzi-topic-operator-kstreams},1649257990,0
{consumergroup=__strimzi-topic-operator-kstreams},1649257995,0
{consumergroup=__strimzi-topic-operator-kstreams},1649258000,0
{consumergroup=__strimzi-topic-operator-kstreams},1649258005,0
{consumergroup=__strimzi-topic-operator-kstreams},1649258010,0
{consumergroup=__strimzi-topic-operator-kstreams},1649258015,0
{consumergroup=__strimzi-topic-operator-kstreams},1649258020,0
{consumergroup=__strimzi-topic-operator-kstreams},1649258025,0
{consumergroup=__strimzi-topic-operator-kstreams},1649258030,0
{consumergroup=__strimzi-topic-operator-kstreams},1649258035,3
{consumergroup=__strimzi-topic-operator-kstreams},1649258040,3
{consumergroup=__strimzi-topic-operator-kstreams},1649258045,3
{consumergroup=__strimzi-topic-operator-kstreams},1649258050,0
{consumergroup=__strimzi-topic-operator-kstreams},1649258055,0
{consumergroup=__strimzi-topic-operator-kstreams},1649258060,0
{consumergroup=__strimzi-topic-operator-kstreams},1649258065,0
{consumergroup=__strimzi-topic-operator-kstreams},1649258070,0
{consumergroup=__strimzi-topic-operator-kstreams},1649258075,0
{consumergroup=__strimzi-topic-operator-kstreams},1649258080,0
{consumergroup=__strimzi-topic-operator-kstreams},1649258085,0
{consumergroup=__strimzi-topic-operator-kstreams},1649258090,0
{consumergroup=__strimzi-topic-operator-kstreams},1649258095,0
{consumergroup=__strimzi-topic-operator-kstreams},1649258100,0
{consumergroup=__strimzi-topic-operator-kstreams},1649258105,0
{consumergroup=__strimzi-topic-operator-kstreams},1649258110,0
{consumergroup=__strimzi-topic-operator-kstreams},1649258115,0
{consumergroup=__strimzi-topic-operator-kstreams},1649258120,0
{consumergroup=__strimzi-topic-operator-kstreams},1649258125,0
{consumergroup=__strimzi-topic-operator-kstreams},1649258130,0
{consumergroup=__strimzi-topic-operator-kstreams},1649258135,0
{consumergroup=__strimzi-topic-operator-kstreams},1649258140,0
{consumergroup=__strimzi-topic-operator-kstreams},1649258145,0
{consumergroup=__strimzi-topic-operator-kstreams},1649258150,0
{consumergroup=__strimzi-topic-operator-kstreams},1649258155,0
{consumergroup=__strimzi-topic-operator-kstreams},1649258160,0
{consumergroup=__strimzi-topic-operator-kstreams},1649258165,0
{consumergroup=__strimzi-topic-operator-kstreams},1649258170,0
{consumergroup=__strimzi-topic-operator-kstreams},1649258175,0
{consumergroup=__strimzi-topic-operator-kstreams},1649258180,0
{consumergroup=__strimzi-topic-operator-kstreams},1649258185,0
{consumergroup=__strimzi-topic-operator-kstreams},1649258190,0
{consumergroup=__strimzi-topic-operator-kstreams},1649258195,0
{consumergroup=__strimzi-topic-operator-kstreams},1649258200,0
{consumergroup=__strimzi-topic-operator-kstreams},1649258205,0
{consumergroup=__strimzi-topic-operator-kstreams},1649258210,0
{consumergroup=__strimzi-topic-operator-kstreams},1649258215,0
{consumergroup=__strimzi-topic-operator-kstreams},1649258220,0
{consumergroup=__strimzi-topic-operator-kstreams},1649258225,0
{consumergroup=__strimzi-topic-operator-kstreams},1649258230,0
{consumergroup=__strimzi-topic-operator-kstreams},1649258235,0
{consumergroup=__strimzi-topic-operator-kstreams},1649258240,0
{consumergroup=__strimzi-topic-operator-kstreams},1649258245,0
{consumergroup=__strimzi-topic-operator-kstreams},1649258250,0
{consumergroup=__strimzi-topic-operator-kstreams},1649258255,0
{consumergroup=__strimzi-topic-operator-kstreams},1649258260,0
{consumergroup=__strimzi-topic-operator-kstreams},1649258265,0
{consumergroup=__strimzi-topic-operator-kstreams},1649258270,0
{consumergroup=__strimzi-topic-operator-kstreams},1649258275,0
{consumergroup=__strimzi-topic-operator-kstreams},1649258280,0
{consumergroup=__strimzi-topic-operator-kstreams},1649258285,0
{consumergroup=__strimzi-topic-operator-kstreams},1649258290,0
{consumergroup=__strimzi-topic-operator-kstreams},1649258295,0
{consumergroup=__strimzi-topic-operator-kstreams},1649258300,0
{consumergroup=__strimzi-topic-operator-kstreams},1649258305,0
{consumergroup=__strimzi-topic-operator-kstreams},1649258310,0
{consumergroup=__strimzi-topic-operator-kstreams},1649258315,0
{consumergroup=__strimzi-topic-operator-kstreams},1649258320,0
{consumergroup=__strimzi-topic-operator-kstreams},1649258325,0
{consumergroup=__strimzi-topic-operator-kstreams},1649258330,0
{consumergroup=__strimzi-topic-operator-kstreams},1649258335,0
{consumergroup=__strimzi-topic-operator-kstreams},1649258340,0
{consumergroup=__strimzi-topic-operator-kstreams},1649258345,0
{consumergroup=__strimzi-topic-operator-kstreams},1649258350,0
{consumergroup=__strimzi-topic-operator-kstreams},1649258355,0
{consumergroup=__strimzi-topic-operator-kstreams},1649258360,0
{consumergroup=__strimzi-topic-operator-kstreams},1649258365,0
{consumergroup=__strimzi-topic-operator-kstreams},1649258370,0
{consumergroup=__strimzi-topic-operator-kstreams},1649258375,0
{consumergroup=__strimzi-topic-operator-kstreams},1649258380,0
{consumergroup=__strimzi-topic-operator-kstreams},1649258385,0
{consumergroup=__strimzi-topic-operator-kstreams},1649258390,0
{consumergroup=__strimzi-topic-operator-kstreams},1649258395,0
{consumergroup=__strimzi-topic-operator-kstreams},1649258400,0
{consumergroup=__strimzi-topic-operator-kstreams},1649258405,0
{consumergroup=__strimzi-topic-operator-kstreams},1649258410,0
{consumergroup=__strimzi-topic-operator-kstreams},1649258415,0
{consumergroup=__strimzi-topic-operator-kstreams},1649258420,0
{consumergroup=__strimzi-topic-operator-kstreams},1649258425,0
{consumergroup=__strimzi-topic-operator-kstreams},1649258430,0
{consumergroup=__strimzi-topic-operator-kstreams},1649258435,0
{consumergroup=__strimzi-topic-operator-kstreams},1649258440,0
{consumergroup=__strimzi-topic-operator-kstreams},1649258445,0
{consumergroup=__strimzi-topic-operator-kstreams},1649258450,0
{consumergroup=__strimzi-topic-operator-kstreams},1649258455,0
