labels,timestamp,value
{},1649296367,0
{},1649296372,0
{},1649296377,0
{},1649296382,0
{},1649296387,0
{},1649296392,0
{},1649296397,0
{},1649296402,0
{},1649296407,0
{},1649296412,0
{},1649296417,0
{},1649296422,0
{},1649296427,0
{},1649296432,0
{},1649296437,0
