labels,timestamp,value
{consumergroup=__strimzi-topic-operator-kstreams},1649256825,11
{consumergroup=__strimzi-topic-operator-kstreams},1649256830,11
{consumergroup=__strimzi-topic-operator-kstreams},1649256835,11
{consumergroup=__strimzi-topic-operator-kstreams},1649256840,0
{consumergroup=__strimzi-topic-operator-kstreams},1649256845,0
{consumergroup=__strimzi-topic-operator-kstreams},1649256850,0
{consumergroup=__strimzi-topic-operator-kstreams},1649256855,0
{consumergroup=__strimzi-topic-operator-kstreams},1649256860,0
{consumergroup=__strimzi-topic-operator-kstreams},1649256865,0
{consumergroup=__strimzi-topic-operator-kstreams},1649256870,0
{consumergroup=__strimzi-topic-operator-kstreams},1649256875,0
{consumergroup=__strimzi-topic-operator-kstreams},1649256880,0
{consumergroup=__strimzi-topic-operator-kstreams},1649256885,0
{consumergroup=__strimzi-topic-operator-kstreams},1649256890,0
{consumergroup=__strimzi-topic-operator-kstreams},1649256895,0
{consumergroup=__strimzi-topic-operator-kstreams},1649256900,0
{consumergroup=__strimzi-topic-operator-kstreams},1649256905,0
{consumergroup=__strimzi-topic-operator-kstreams},1649256910,0
{consumergroup=__strimzi-topic-operator-kstreams},1649256915,0
{consumergroup=__strimzi-topic-operator-kstreams},1649256920,0
{consumergroup=__strimzi-topic-operator-kstreams},1649256925,0
{consumergroup=__strimzi-topic-operator-kstreams},1649256930,0
{consumergroup=__strimzi-topic-operator-kstreams},1649256935,0
{consumergroup=__strimzi-topic-operator-kstreams},1649256940,0
{consumergroup=__strimzi-topic-operator-kstreams},1649256945,0
{consumergroup=__strimzi-topic-operator-kstreams},1649256950,0
{consumergroup=__strimzi-topic-operator-kstreams},1649256955,0
{consumergroup=__strimzi-topic-operator-kstreams},1649256960,0
{consumergroup=__strimzi-topic-operator-kstreams},1649256965,0
{consumergroup=__strimzi-topic-operator-kstreams},1649256970,0
{consumergroup=__strimzi-topic-operator-kstreams},1649256975,0
{consumergroup=__strimzi-topic-operator-kstreams},1649256980,0
{consumergroup=__strimzi-topic-operator-kstreams},1649256985,0
{consumergroup=__strimzi-topic-operator-kstreams},1649256990,0
{consumergroup=__strimzi-topic-operator-kstreams},1649256995,0
{consumergroup=__strimzi-topic-operator-kstreams},1649257000,0
{consumergroup=__strimzi-topic-operator-kstreams},1649257005,0
{consumergroup=__strimzi-topic-operator-kstreams},1649257010,0
{consumergroup=__strimzi-topic-operator-kstreams},1649257015,0
{consumergroup=__strimzi-topic-operator-kstreams},1649257020,0
{consumergroup=__strimzi-topic-operator-kstreams},1649257025,0
{consumergroup=__strimzi-topic-operator-kstreams},1649257030,0
{consumergroup=__strimzi-topic-operator-kstreams},1649257035,0
{consumergroup=__strimzi-topic-operator-kstreams},1649257040,0
{consumergroup=__strimzi-topic-operator-kstreams},1649257045,0
{consumergroup=__strimzi-topic-operator-kstreams},1649257050,0
{consumergroup=__strimzi-topic-operator-kstreams},1649257055,0
{consumergroup=__strimzi-topic-operator-kstreams},1649257060,0
{consumergroup=__strimzi-topic-operator-kstreams},1649257065,0
{consumergroup=__strimzi-topic-operator-kstreams},1649257070,0
{consumergroup=__strimzi-topic-operator-kstreams},1649257075,0
{consumergroup=__strimzi-topic-operator-kstreams},1649257080,0
{consumergroup=__strimzi-topic-operator-kstreams},1649257085,0
{consumergroup=__strimzi-topic-operator-kstreams},1649257090,0
{consumergroup=__strimzi-topic-operator-kstreams},1649257095,0
{consumergroup=__strimzi-topic-operator-kstreams},1649257100,0
{consumergroup=__strimzi-topic-operator-kstreams},1649257105,0
{consumergroup=__strimzi-topic-operator-kstreams},1649257110,0
{consumergroup=__strimzi-topic-operator-kstreams},1649257115,0
{consumergroup=__strimzi-topic-operator-kstreams},1649257120,0
{consumergroup=__strimzi-topic-operator-kstreams},1649257125,0
{consumergroup=__strimzi-topic-operator-kstreams},1649257130,0
{consumergroup=__strimzi-topic-operator-kstreams},1649257135,0
{consumergroup=__strimzi-topic-operator-kstreams},1649257140,0
{consumergroup=__strimzi-topic-operator-kstreams},1649257145,0
{consumergroup=__strimzi-topic-operator-kstreams},1649257150,0
{consumergroup=__strimzi-topic-operator-kstreams},1649257155,0
{consumergroup=__strimzi-topic-operator-kstreams},1649257160,0
{consumergroup=__strimzi-topic-operator-kstreams},1649257165,0
{consumergroup=__strimzi-topic-operator-kstreams},1649257170,0
{consumergroup=__strimzi-topic-operator-kstreams},1649257175,0
{consumergroup=__strimzi-topic-operator-kstreams},1649257180,0
{consumergroup=__strimzi-topic-operator-kstreams},1649257185,0
{consumergroup=__strimzi-topic-operator-kstreams},1649257190,0
{consumergroup=__strimzi-topic-operator-kstreams},1649257195,0
{consumergroup=__strimzi-topic-operator-kstreams},1649257200,0
{consumergroup=__strimzi-topic-operator-kstreams},1649257205,0
{consumergroup=__strimzi-topic-operator-kstreams},1649257210,0
{consumergroup=__strimzi-topic-operator-kstreams},1649257215,0
{consumergroup=__strimzi-topic-operator-kstreams},1649257220,0
{consumergroup=__strimzi-topic-operator-kstreams},1649257225,0
{consumergroup=__strimzi-topic-operator-kstreams},1649257230,0
{consumergroup=__strimzi-topic-operator-kstreams},1649257235,0
{consumergroup=__strimzi-topic-operator-kstreams},1649257240,0
{consumergroup=__strimzi-topic-operator-kstreams},1649257245,0
{consumergroup=__strimzi-topic-operator-kstreams},1649257250,0
{consumergroup=__strimzi-topic-operator-kstreams},1649257255,0
{consumergroup=__strimzi-topic-operator-kstreams},1649257260,0
{consumergroup=__strimzi-topic-operator-kstreams},1649257265,0
{consumergroup=__strimzi-topic-operator-kstreams},1649257270,0
{consumergroup=__strimzi-topic-operator-kstreams},1649257275,0
{consumergroup=__strimzi-topic-operator-kstreams},1649257280,0
{consumergroup=__strimzi-topic-operator-kstreams},1649257285,0
{consumergroup=__strimzi-topic-operator-kstreams},1649257290,0
{consumergroup=__strimzi-topic-operator-kstreams},1649257295,0
{consumergroup=__strimzi-topic-operator-kstreams},1649257300,0
{consumergroup=__strimzi-topic-operator-kstreams},1649257305,0
{consumergroup=__strimzi-topic-operator-kstreams},1649257310,0
{consumergroup=__strimzi-topic-operator-kstreams},1649257315,0
