labels,timestamp,value
{},1649287876,0
{},1649287881,0
{},1649287886,0
{},1649287891,0
{},1649287896,0
{},1649287901,0
{},1649287906,0
{},1649287911,0
{},1649287916,0
{},1649287921,0
{},1649287926,0
{},1649287931,0
{},1649287936,0
{},1649287941,0
