labels,timestamp,value
{consumergroup=__strimzi-topic-operator-kstreams},1649281121,0
{consumergroup=__strimzi-topic-operator-kstreams},1649281126,0
{consumergroup=__strimzi-topic-operator-kstreams},1649281131,0
{consumergroup=__strimzi-topic-operator-kstreams},1649281136,1
{consumergroup=__strimzi-topic-operator-kstreams},1649281141,1
{consumergroup=__strimzi-topic-operator-kstreams},1649281146,1
{consumergroup=__strimzi-topic-operator-kstreams},1649281151,0
{consumergroup=__strimzi-topic-operator-kstreams},1649281156,0
{consumergroup=__strimzi-topic-operator-kstreams},1649281161,0
{consumergroup=__strimzi-topic-operator-kstreams},1649281166,0
{consumergroup=__strimzi-topic-operator-kstreams},1649281171,0
{consumergroup=__strimzi-topic-operator-kstreams},1649281176,0
{consumergroup=__strimzi-topic-operator-kstreams},1649281181,0
{consumergroup=__strimzi-topic-operator-kstreams},1649281186,0
{consumergroup=__strimzi-topic-operator-kstreams},1649281191,0
{consumergroup=__strimzi-topic-operator-kstreams},1649281196,0
{consumergroup=__strimzi-topic-operator-kstreams},1649281201,0
{consumergroup=__strimzi-topic-operator-kstreams},1649281206,0
{consumergroup=__strimzi-topic-operator-kstreams},1649281211,0
{consumergroup=__strimzi-topic-operator-kstreams},1649281216,0
{consumergroup=__strimzi-topic-operator-kstreams},1649281221,0
{consumergroup=__strimzi-topic-operator-kstreams},1649281226,0
{consumergroup=__strimzi-topic-operator-kstreams},1649281231,0
{consumergroup=__strimzi-topic-operator-kstreams},1649281236,0
{consumergroup=__strimzi-topic-operator-kstreams},1649281241,2
{consumergroup=__strimzi-topic-operator-kstreams},1649281246,2
{consumergroup=__strimzi-topic-operator-kstreams},1649281251,2
{consumergroup=__strimzi-topic-operator-kstreams},1649281256,2
{consumergroup=__strimzi-topic-operator-kstreams},1649281261,2
{consumergroup=__strimzi-topic-operator-kstreams},1649281266,2
{consumergroup=__strimzi-topic-operator-kstreams},1649281271,0
{consumergroup=__strimzi-topic-operator-kstreams},1649281276,0
{consumergroup=__strimzi-topic-operator-kstreams},1649281281,0
{consumergroup=__strimzi-topic-operator-kstreams},1649281286,0
{consumergroup=__strimzi-topic-operator-kstreams},1649281291,0
{consumergroup=__strimzi-topic-operator-kstreams},1649281296,0
{consumergroup=__strimzi-topic-operator-kstreams},1649281301,0
{consumergroup=__strimzi-topic-operator-kstreams},1649281306,0
{consumergroup=__strimzi-topic-operator-kstreams},1649281311,0
{consumergroup=__strimzi-topic-operator-kstreams},1649281316,0
{consumergroup=__strimzi-topic-operator-kstreams},1649281321,0
{consumergroup=__strimzi-topic-operator-kstreams},1649281326,0
{consumergroup=__strimzi-topic-operator-kstreams},1649281331,0
{consumergroup=__strimzi-topic-operator-kstreams},1649281336,0
{consumergroup=__strimzi-topic-operator-kstreams},1649281341,0
{consumergroup=__strimzi-topic-operator-kstreams},1649281346,0
{consumergroup=__strimzi-topic-operator-kstreams},1649281351,0
{consumergroup=__strimzi-topic-operator-kstreams},1649281356,0
{consumergroup=__strimzi-topic-operator-kstreams},1649281361,0
{consumergroup=__strimzi-topic-operator-kstreams},1649281366,0
{consumergroup=__strimzi-topic-operator-kstreams},1649281371,0
{consumergroup=__strimzi-topic-operator-kstreams},1649281376,0
{consumergroup=__strimzi-topic-operator-kstreams},1649281381,0
{consumergroup=__strimzi-topic-operator-kstreams},1649281386,0
{consumergroup=__strimzi-topic-operator-kstreams},1649281391,0
{consumergroup=__strimzi-topic-operator-kstreams},1649281396,0
{consumergroup=__strimzi-topic-operator-kstreams},1649281401,0
{consumergroup=__strimzi-topic-operator-kstreams},1649281406,0
{consumergroup=__strimzi-topic-operator-kstreams},1649281411,0
{consumergroup=__strimzi-topic-operator-kstreams},1649281416,0
{consumergroup=__strimzi-topic-operator-kstreams},1649281421,0
{consumergroup=__strimzi-topic-operator-kstreams},1649281426,0
{consumergroup=__strimzi-topic-operator-kstreams},1649281431,0
{consumergroup=__strimzi-topic-operator-kstreams},1649281436,0
{consumergroup=__strimzi-topic-operator-kstreams},1649281441,0
{consumergroup=__strimzi-topic-operator-kstreams},1649281446,0
{consumergroup=__strimzi-topic-operator-kstreams},1649281451,0
{consumergroup=__strimzi-topic-operator-kstreams},1649281456,0
{consumergroup=__strimzi-topic-operator-kstreams},1649281461,0
{consumergroup=__strimzi-topic-operator-kstreams},1649281466,0
{consumergroup=__strimzi-topic-operator-kstreams},1649281471,0
{consumergroup=__strimzi-topic-operator-kstreams},1649281476,0
{consumergroup=__strimzi-topic-operator-kstreams},1649281481,0
{consumergroup=__strimzi-topic-operator-kstreams},1649281486,0
{consumergroup=__strimzi-topic-operator-kstreams},1649281491,0
{consumergroup=__strimzi-topic-operator-kstreams},1649281496,0
{consumergroup=__strimzi-topic-operator-kstreams},1649281501,0
{consumergroup=__strimzi-topic-operator-kstreams},1649281506,0
{consumergroup=__strimzi-topic-operator-kstreams},1649281511,0
{consumergroup=__strimzi-topic-operator-kstreams},1649281516,0
{consumergroup=__strimzi-topic-operator-kstreams},1649281521,0
{consumergroup=__strimzi-topic-operator-kstreams},1649281526,0
{consumergroup=__strimzi-topic-operator-kstreams},1649281531,0
{consumergroup=__strimzi-topic-operator-kstreams},1649281536,0
{consumergroup=__strimzi-topic-operator-kstreams},1649281541,0
{consumergroup=__strimzi-topic-operator-kstreams},1649281546,0
{consumergroup=__strimzi-topic-operator-kstreams},1649281551,0
{consumergroup=__strimzi-topic-operator-kstreams},1649281556,0
{consumergroup=__strimzi-topic-operator-kstreams},1649281561,0
{consumergroup=__strimzi-topic-operator-kstreams},1649281566,0
{consumergroup=__strimzi-topic-operator-kstreams},1649281571,0
{consumergroup=__strimzi-topic-operator-kstreams},1649281576,0
{consumergroup=__strimzi-topic-operator-kstreams},1649281581,0
{consumergroup=__strimzi-topic-operator-kstreams},1649281586,0
{consumergroup=__strimzi-topic-operator-kstreams},1649281591,0
{consumergroup=__strimzi-topic-operator-kstreams},1649281596,0
{consumergroup=__strimzi-topic-operator-kstreams},1649281601,0
{consumergroup=__strimzi-topic-operator-kstreams},1649281606,0
