labels,timestamp,value
{},1649281678,0
{},1649281683,0
{},1649281688,0
{},1649281693,0
{},1649281698,0
{},1649281703,0
{},1649281708,0
{},1649281713,0
{},1649281718,0
{},1649281723,0
{},1649281728,0
{},1649281733,0
{},1649281738,0
{},1649281743,0
