labels,timestamp,value
{consumergroup=__strimzi-topic-operator-kstreams},1649278868,0
{consumergroup=__strimzi-topic-operator-kstreams},1649278873,0
{consumergroup=__strimzi-topic-operator-kstreams},1649278878,0
{consumergroup=__strimzi-topic-operator-kstreams},1649278883,1
{consumergroup=__strimzi-topic-operator-kstreams},1649278888,1
{consumergroup=__strimzi-topic-operator-kstreams},1649278893,1
{consumergroup=__strimzi-topic-operator-kstreams},1649278898,0
{consumergroup=__strimzi-topic-operator-kstreams},1649278903,0
{consumergroup=__strimzi-topic-operator-kstreams},1649278908,0
{consumergroup=__strimzi-topic-operator-kstreams},1649278913,0
{consumergroup=__strimzi-topic-operator-kstreams},1649278918,0
{consumergroup=__strimzi-topic-operator-kstreams},1649278923,0
{consumergroup=__strimzi-topic-operator-kstreams},1649278928,0
{consumergroup=__strimzi-topic-operator-kstreams},1649278933,0
{consumergroup=__strimzi-topic-operator-kstreams},1649278938,0
{consumergroup=__strimzi-topic-operator-kstreams},1649278943,0
{consumergroup=__strimzi-topic-operator-kstreams},1649278948,0
{consumergroup=__strimzi-topic-operator-kstreams},1649278953,0
{consumergroup=__strimzi-topic-operator-kstreams},1649278958,2
{consumergroup=__strimzi-topic-operator-kstreams},1649278963,2
{consumergroup=__strimzi-topic-operator-kstreams},1649278968,2
{consumergroup=__strimzi-topic-operator-kstreams},1649278973,2
{consumergroup=__strimzi-topic-operator-kstreams},1649278978,2
{consumergroup=__strimzi-topic-operator-kstreams},1649278983,2
{consumergroup=__strimzi-topic-operator-kstreams},1649278988,0
{consumergroup=__strimzi-topic-operator-kstreams},1649278993,0
{consumergroup=__strimzi-topic-operator-kstreams},1649278998,0
{consumergroup=__strimzi-topic-operator-kstreams},1649279003,0
{consumergroup=__strimzi-topic-operator-kstreams},1649279008,0
{consumergroup=__strimzi-topic-operator-kstreams},1649279013,0
{consumergroup=__strimzi-topic-operator-kstreams},1649279018,0
{consumergroup=__strimzi-topic-operator-kstreams},1649279023,0
{consumergroup=__strimzi-topic-operator-kstreams},1649279028,0
{consumergroup=__strimzi-topic-operator-kstreams},1649279033,0
{consumergroup=__strimzi-topic-operator-kstreams},1649279038,0
{consumergroup=__strimzi-topic-operator-kstreams},1649279043,0
{consumergroup=__strimzi-topic-operator-kstreams},1649279048,0
{consumergroup=__strimzi-topic-operator-kstreams},1649279053,0
{consumergroup=__strimzi-topic-operator-kstreams},1649279058,0
{consumergroup=__strimzi-topic-operator-kstreams},1649279063,0
{consumergroup=__strimzi-topic-operator-kstreams},1649279068,0
{consumergroup=__strimzi-topic-operator-kstreams},1649279073,0
{consumergroup=__strimzi-topic-operator-kstreams},1649279078,0
{consumergroup=__strimzi-topic-operator-kstreams},1649279083,0
{consumergroup=__strimzi-topic-operator-kstreams},1649279088,0
{consumergroup=__strimzi-topic-operator-kstreams},1649279093,0
{consumergroup=__strimzi-topic-operator-kstreams},1649279098,0
{consumergroup=__strimzi-topic-operator-kstreams},1649279103,0
{consumergroup=__strimzi-topic-operator-kstreams},1649279108,0
{consumergroup=__strimzi-topic-operator-kstreams},1649279113,0
{consumergroup=__strimzi-topic-operator-kstreams},1649279118,0
{consumergroup=__strimzi-topic-operator-kstreams},1649279123,0
{consumergroup=__strimzi-topic-operator-kstreams},1649279128,0
{consumergroup=__strimzi-topic-operator-kstreams},1649279133,0
{consumergroup=__strimzi-topic-operator-kstreams},1649279138,0
{consumergroup=__strimzi-topic-operator-kstreams},1649279143,0
{consumergroup=__strimzi-topic-operator-kstreams},1649279148,0
{consumergroup=__strimzi-topic-operator-kstreams},1649279153,0
{consumergroup=__strimzi-topic-operator-kstreams},1649279158,0
{consumergroup=__strimzi-topic-operator-kstreams},1649279163,0
{consumergroup=__strimzi-topic-operator-kstreams},1649279168,0
{consumergroup=__strimzi-topic-operator-kstreams},1649279173,0
{consumergroup=__strimzi-topic-operator-kstreams},1649279178,0
{consumergroup=__strimzi-topic-operator-kstreams},1649279183,0
{consumergroup=__strimzi-topic-operator-kstreams},1649279188,0
{consumergroup=__strimzi-topic-operator-kstreams},1649279193,0
{consumergroup=__strimzi-topic-operator-kstreams},1649279198,0
{consumergroup=__strimzi-topic-operator-kstreams},1649279203,0
{consumergroup=__strimzi-topic-operator-kstreams},1649279208,0
{consumergroup=__strimzi-topic-operator-kstreams},1649279213,0
{consumergroup=__strimzi-topic-operator-kstreams},1649279218,0
{consumergroup=__strimzi-topic-operator-kstreams},1649279223,0
{consumergroup=__strimzi-topic-operator-kstreams},1649279228,0
{consumergroup=__strimzi-topic-operator-kstreams},1649279233,0
{consumergroup=__strimzi-topic-operator-kstreams},1649279238,0
{consumergroup=__strimzi-topic-operator-kstreams},1649279243,0
{consumergroup=__strimzi-topic-operator-kstreams},1649279248,0
{consumergroup=__strimzi-topic-operator-kstreams},1649279253,0
{consumergroup=__strimzi-topic-operator-kstreams},1649279258,0
{consumergroup=__strimzi-topic-operator-kstreams},1649279263,0
{consumergroup=__strimzi-topic-operator-kstreams},1649279268,0
{consumergroup=__strimzi-topic-operator-kstreams},1649279273,0
{consumergroup=__strimzi-topic-operator-kstreams},1649279278,0
{consumergroup=__strimzi-topic-operator-kstreams},1649279283,0
{consumergroup=__strimzi-topic-operator-kstreams},1649279288,0
{consumergroup=__strimzi-topic-operator-kstreams},1649279293,0
{consumergroup=__strimzi-topic-operator-kstreams},1649279298,0
{consumergroup=__strimzi-topic-operator-kstreams},1649279303,0
{consumergroup=__strimzi-topic-operator-kstreams},1649279308,0
{consumergroup=__strimzi-topic-operator-kstreams},1649279313,0
{consumergroup=__strimzi-topic-operator-kstreams},1649279318,0
{consumergroup=__strimzi-topic-operator-kstreams},1649279323,0
{consumergroup=__strimzi-topic-operator-kstreams},1649279328,0
{consumergroup=__strimzi-topic-operator-kstreams},1649279333,0
{consumergroup=__strimzi-topic-operator-kstreams},1649279338,0
{consumergroup=__strimzi-topic-operator-kstreams},1649279343,0
{consumergroup=__strimzi-topic-operator-kstreams},1649279348,0
