labels,timestamp,value
{consumergroup=__strimzi-topic-operator-kstreams},1649292976,8
{consumergroup=__strimzi-topic-operator-kstreams},1649292981,8
{consumergroup=__strimzi-topic-operator-kstreams},1649292986,8
{consumergroup=__strimzi-topic-operator-kstreams},1649292991,8
{consumergroup=__strimzi-topic-operator-kstreams},1649292996,8
{consumergroup=__strimzi-topic-operator-kstreams},1649293001,8
{consumergroup=__strimzi-topic-operator-kstreams},1649293006,0
{consumergroup=__strimzi-topic-operator-kstreams},1649293011,0
{consumergroup=__strimzi-topic-operator-kstreams},1649293016,0
{consumergroup=__strimzi-topic-operator-kstreams},1649293021,3
{consumergroup=__strimzi-topic-operator-kstreams},1649293026,3
{consumergroup=__strimzi-topic-operator-kstreams},1649293031,3
{consumergroup=__strimzi-topic-operator-kstreams},1649293036,0
{consumergroup=__strimzi-topic-operator-kstreams},1649293041,0
{consumergroup=__strimzi-topic-operator-kstreams},1649293046,0
{consumergroup=__strimzi-topic-operator-kstreams},1649293051,0
{consumergroup=__strimzi-topic-operator-kstreams},1649293056,0
{consumergroup=__strimzi-topic-operator-kstreams},1649293061,0
{consumergroup=__strimzi-topic-operator-kstreams},1649293066,0
{consumergroup=__strimzi-topic-operator-kstreams},1649293071,0
{consumergroup=__strimzi-topic-operator-kstreams},1649293076,0
{consumergroup=__strimzi-topic-operator-kstreams},1649293081,0
{consumergroup=__strimzi-topic-operator-kstreams},1649293086,0
{consumergroup=__strimzi-topic-operator-kstreams},1649293091,0
{consumergroup=__strimzi-topic-operator-kstreams},1649293096,0
{consumergroup=__strimzi-topic-operator-kstreams},1649293101,0
{consumergroup=__strimzi-topic-operator-kstreams},1649293106,0
{consumergroup=__strimzi-topic-operator-kstreams},1649293111,0
{consumergroup=__strimzi-topic-operator-kstreams},1649293116,0
{consumergroup=__strimzi-topic-operator-kstreams},1649293121,0
{consumergroup=__strimzi-topic-operator-kstreams},1649293126,0
{consumergroup=__strimzi-topic-operator-kstreams},1649293131,0
{consumergroup=__strimzi-topic-operator-kstreams},1649293136,0
{consumergroup=__strimzi-topic-operator-kstreams},1649293141,0
{consumergroup=__strimzi-topic-operator-kstreams},1649293146,0
{consumergroup=__strimzi-topic-operator-kstreams},1649293151,0
{consumergroup=__strimzi-topic-operator-kstreams},1649293156,0
{consumergroup=__strimzi-topic-operator-kstreams},1649293161,0
{consumergroup=__strimzi-topic-operator-kstreams},1649293166,0
{consumergroup=__strimzi-topic-operator-kstreams},1649293171,0
{consumergroup=__strimzi-topic-operator-kstreams},1649293176,0
{consumergroup=__strimzi-topic-operator-kstreams},1649293181,0
{consumergroup=__strimzi-topic-operator-kstreams},1649293186,0
{consumergroup=__strimzi-topic-operator-kstreams},1649293191,0
{consumergroup=__strimzi-topic-operator-kstreams},1649293196,0
{consumergroup=__strimzi-topic-operator-kstreams},1649293201,0
{consumergroup=__strimzi-topic-operator-kstreams},1649293206,0
{consumergroup=__strimzi-topic-operator-kstreams},1649293211,0
{consumergroup=__strimzi-topic-operator-kstreams},1649293216,0
{consumergroup=__strimzi-topic-operator-kstreams},1649293221,0
{consumergroup=__strimzi-topic-operator-kstreams},1649293226,0
{consumergroup=__strimzi-topic-operator-kstreams},1649293231,0
{consumergroup=__strimzi-topic-operator-kstreams},1649293236,0
{consumergroup=__strimzi-topic-operator-kstreams},1649293241,0
{consumergroup=__strimzi-topic-operator-kstreams},1649293246,0
{consumergroup=__strimzi-topic-operator-kstreams},1649293251,0
{consumergroup=__strimzi-topic-operator-kstreams},1649293256,0
{consumergroup=__strimzi-topic-operator-kstreams},1649293261,0
{consumergroup=__strimzi-topic-operator-kstreams},1649293266,0
{consumergroup=__strimzi-topic-operator-kstreams},1649293271,0
{consumergroup=__strimzi-topic-operator-kstreams},1649293276,0
{consumergroup=__strimzi-topic-operator-kstreams},1649293281,0
{consumergroup=__strimzi-topic-operator-kstreams},1649293286,0
{consumergroup=__strimzi-topic-operator-kstreams},1649293291,0
{consumergroup=__strimzi-topic-operator-kstreams},1649293296,0
{consumergroup=__strimzi-topic-operator-kstreams},1649293301,0
{consumergroup=__strimzi-topic-operator-kstreams},1649293306,0
{consumergroup=__strimzi-topic-operator-kstreams},1649293311,0
{consumergroup=__strimzi-topic-operator-kstreams},1649293316,0
{consumergroup=__strimzi-topic-operator-kstreams},1649293321,0
{consumergroup=__strimzi-topic-operator-kstreams},1649293326,0
{consumergroup=__strimzi-topic-operator-kstreams},1649293331,0
{consumergroup=__strimzi-topic-operator-kstreams},1649293336,0
{consumergroup=__strimzi-topic-operator-kstreams},1649293341,0
{consumergroup=__strimzi-topic-operator-kstreams},1649293346,0
{consumergroup=__strimzi-topic-operator-kstreams},1649293351,0
{consumergroup=__strimzi-topic-operator-kstreams},1649293356,0
{consumergroup=__strimzi-topic-operator-kstreams},1649293361,0
{consumergroup=__strimzi-topic-operator-kstreams},1649293366,0
{consumergroup=__strimzi-topic-operator-kstreams},1649293371,0
{consumergroup=__strimzi-topic-operator-kstreams},1649293376,0
{consumergroup=__strimzi-topic-operator-kstreams},1649293381,0
{consumergroup=__strimzi-topic-operator-kstreams},1649293386,0
{consumergroup=__strimzi-topic-operator-kstreams},1649293391,0
{consumergroup=__strimzi-topic-operator-kstreams},1649293396,0
{consumergroup=__strimzi-topic-operator-kstreams},1649293401,0
{consumergroup=__strimzi-topic-operator-kstreams},1649293406,0
{consumergroup=__strimzi-topic-operator-kstreams},1649293411,0
{consumergroup=__strimzi-topic-operator-kstreams},1649293416,0
{consumergroup=__strimzi-topic-operator-kstreams},1649293421,0
{consumergroup=__strimzi-topic-operator-kstreams},1649293426,0
{consumergroup=__strimzi-topic-operator-kstreams},1649293431,0
{consumergroup=__strimzi-topic-operator-kstreams},1649293436,0
{consumergroup=__strimzi-topic-operator-kstreams},1649293441,0
{consumergroup=__strimzi-topic-operator-kstreams},1649293446,0
{consumergroup=__strimzi-topic-operator-kstreams},1649293451,0
{consumergroup=__strimzi-topic-operator-kstreams},1649293456,0
{consumergroup=__strimzi-topic-operator-kstreams},1649293461,0
{consumergroup=__strimzi-topic-operator-kstreams},1649293466,0
