labels,timestamp,value
{consumergroup=__strimzi-topic-operator-kstreams},1649255695,0
{consumergroup=__strimzi-topic-operator-kstreams},1649255700,0
{consumergroup=__strimzi-topic-operator-kstreams},1649255705,0
{consumergroup=__strimzi-topic-operator-kstreams},1649255710,1
{consumergroup=__strimzi-topic-operator-kstreams},1649255715,1
{consumergroup=__strimzi-topic-operator-kstreams},1649255720,1
{consumergroup=__strimzi-topic-operator-kstreams},1649255725,0
{consumergroup=__strimzi-topic-operator-kstreams},1649255730,0
{consumergroup=__strimzi-topic-operator-kstreams},1649255735,0
{consumergroup=__strimzi-topic-operator-kstreams},1649255740,0
{consumergroup=__strimzi-topic-operator-kstreams},1649255745,0
{consumergroup=__strimzi-topic-operator-kstreams},1649255750,0
{consumergroup=__strimzi-topic-operator-kstreams},1649255755,0
{consumergroup=__strimzi-topic-operator-kstreams},1649255760,0
{consumergroup=__strimzi-topic-operator-kstreams},1649255765,0
{consumergroup=__strimzi-topic-operator-kstreams},1649255770,0
{consumergroup=__strimzi-topic-operator-kstreams},1649255775,0
{consumergroup=__strimzi-topic-operator-kstreams},1649255780,0
{consumergroup=__strimzi-topic-operator-kstreams},1649255785,0
{consumergroup=__strimzi-topic-operator-kstreams},1649255790,0
{consumergroup=__strimzi-topic-operator-kstreams},1649255795,0
{consumergroup=__strimzi-topic-operator-kstreams},1649255800,0
{consumergroup=__strimzi-topic-operator-kstreams},1649255805,0
{consumergroup=__strimzi-topic-operator-kstreams},1649255810,0
{consumergroup=__strimzi-topic-operator-kstreams},1649255815,0
{consumergroup=__strimzi-topic-operator-kstreams},1649255820,0
{consumergroup=__strimzi-topic-operator-kstreams},1649255825,0
{consumergroup=__strimzi-topic-operator-kstreams},1649255830,0
{consumergroup=__strimzi-topic-operator-kstreams},1649255835,0
{consumergroup=__strimzi-topic-operator-kstreams},1649255840,0
{consumergroup=__strimzi-topic-operator-kstreams},1649255845,0
{consumergroup=__strimzi-topic-operator-kstreams},1649255850,0
{consumergroup=__strimzi-topic-operator-kstreams},1649255855,0
{consumergroup=__strimzi-topic-operator-kstreams},1649255860,0
{consumergroup=__strimzi-topic-operator-kstreams},1649255865,0
{consumergroup=__strimzi-topic-operator-kstreams},1649255870,0
{consumergroup=__strimzi-topic-operator-kstreams},1649255875,0
{consumergroup=__strimzi-topic-operator-kstreams},1649255880,0
{consumergroup=__strimzi-topic-operator-kstreams},1649255885,0
{consumergroup=__strimzi-topic-operator-kstreams},1649255890,0
{consumergroup=__strimzi-topic-operator-kstreams},1649255895,0
{consumergroup=__strimzi-topic-operator-kstreams},1649255900,0
{consumergroup=__strimzi-topic-operator-kstreams},1649255905,0
{consumergroup=__strimzi-topic-operator-kstreams},1649255910,0
{consumergroup=__strimzi-topic-operator-kstreams},1649255915,0
{consumergroup=__strimzi-topic-operator-kstreams},1649255920,0
{consumergroup=__strimzi-topic-operator-kstreams},1649255925,0
{consumergroup=__strimzi-topic-operator-kstreams},1649255930,0
{consumergroup=__strimzi-topic-operator-kstreams},1649255935,0
{consumergroup=__strimzi-topic-operator-kstreams},1649255940,0
{consumergroup=__strimzi-topic-operator-kstreams},1649255945,0
{consumergroup=__strimzi-topic-operator-kstreams},1649255950,0
{consumergroup=__strimzi-topic-operator-kstreams},1649255955,0
{consumergroup=__strimzi-topic-operator-kstreams},1649255960,0
{consumergroup=__strimzi-topic-operator-kstreams},1649255965,0
{consumergroup=__strimzi-topic-operator-kstreams},1649255970,0
{consumergroup=__strimzi-topic-operator-kstreams},1649255975,0
{consumergroup=__strimzi-topic-operator-kstreams},1649255980,0
{consumergroup=__strimzi-topic-operator-kstreams},1649255985,0
{consumergroup=__strimzi-topic-operator-kstreams},1649255990,0
{consumergroup=__strimzi-topic-operator-kstreams},1649255995,0
{consumergroup=__strimzi-topic-operator-kstreams},1649256000,0
{consumergroup=__strimzi-topic-operator-kstreams},1649256005,0
{consumergroup=__strimzi-topic-operator-kstreams},1649256010,0
{consumergroup=__strimzi-topic-operator-kstreams},1649256015,0
{consumergroup=__strimzi-topic-operator-kstreams},1649256020,0
{consumergroup=__strimzi-topic-operator-kstreams},1649256025,0
{consumergroup=__strimzi-topic-operator-kstreams},1649256030,0
{consumergroup=__strimzi-topic-operator-kstreams},1649256035,0
{consumergroup=__strimzi-topic-operator-kstreams},1649256040,0
{consumergroup=__strimzi-topic-operator-kstreams},1649256045,0
{consumergroup=__strimzi-topic-operator-kstreams},1649256050,0
{consumergroup=__strimzi-topic-operator-kstreams},1649256055,0
{consumergroup=__strimzi-topic-operator-kstreams},1649256060,0
{consumergroup=__strimzi-topic-operator-kstreams},1649256065,0
{consumergroup=__strimzi-topic-operator-kstreams},1649256070,0
{consumergroup=__strimzi-topic-operator-kstreams},1649256075,0
{consumergroup=__strimzi-topic-operator-kstreams},1649256080,0
{consumergroup=__strimzi-topic-operator-kstreams},1649256085,0
{consumergroup=__strimzi-topic-operator-kstreams},1649256090,0
{consumergroup=__strimzi-topic-operator-kstreams},1649256095,0
{consumergroup=__strimzi-topic-operator-kstreams},1649256100,0
{consumergroup=__strimzi-topic-operator-kstreams},1649256105,0
{consumergroup=__strimzi-topic-operator-kstreams},1649256110,0
{consumergroup=__strimzi-topic-operator-kstreams},1649256115,0
{consumergroup=__strimzi-topic-operator-kstreams},1649256120,0
{consumergroup=__strimzi-topic-operator-kstreams},1649256125,0
{consumergroup=__strimzi-topic-operator-kstreams},1649256130,0
{consumergroup=__strimzi-topic-operator-kstreams},1649256135,0
{consumergroup=__strimzi-topic-operator-kstreams},1649256140,0
{consumergroup=__strimzi-topic-operator-kstreams},1649256145,0
{consumergroup=__strimzi-topic-operator-kstreams},1649256150,0
{consumergroup=__strimzi-topic-operator-kstreams},1649256155,0
{consumergroup=__strimzi-topic-operator-kstreams},1649256160,0
{consumergroup=__strimzi-topic-operator-kstreams},1649256165,0
{consumergroup=__strimzi-topic-operator-kstreams},1649256170,0
{consumergroup=__strimzi-topic-operator-kstreams},1649256175,0
{consumergroup=__strimzi-topic-operator-kstreams},1649256180,0
{consumergroup=__strimzi-topic-operator-kstreams},1649256185,0
