labels,timestamp,value
{},1649255115,0
{},1649255120,0
{},1649255125,0
{},1649255130,0
{},1649255135,0
{},1649255140,0
{},1649255145,0
{},1649255150,0
{},1649255155,0
{},1649255160,0
{},1649255165,0
{},1649255170,0
{},1649255175,0
{},1649255180,0
{},1649255185,0
