labels,timestamp,value
{},1649282807,0
{},1649282812,0
{},1649282817,0
{},1649282822,0
{},1649282827,0
{},1649282832,0
{},1649282837,0
{},1649282842,0
{},1649282847,0
{},1649282852,0
{},1649282857,0
{},1649282862,0
{},1649282867,0
{},1649282872,0
{},1649282877,0
{},1649282882,0
{},1649282887,0
{},1649282892,0
{},1649282897,0
{},1649282902,0
{},1649282907,0
{},1649282912,0
{},1649282917,0
{},1649282922,0
{},1649282927,0
{},1649282932,0
{},1649282937,0
{},1649282942,0
{},1649282947,0
{},1649282952,0
{},1649282957,0
{},1649282962,0
{},1649282967,0
{},1649282972,0
{},1649282977,0
{},1649282982,0
{},1649282987,0
{},1649282992,0
{},1649282997,0
{},1649283002,0
{},1649283007,0
{},1649283012,0
{},1649283017,0
{},1649283022,0
{},1649283027,0
