labels,timestamp,value
{},1649283935,0
{},1649283940,0
{},1649283945,0
{},1649283950,0
{},1649283955,0
{},1649283960,0
{},1649283965,0
{},1649283970,0
{},1649283975,0
{},1649283980,0
{},1649283985,0
{},1649283990,0
{},1649283995,0
{},1649284000,0
