labels,timestamp,value
{consumergroup=__strimzi-topic-operator-kstreams},1649287320,8
{consumergroup=__strimzi-topic-operator-kstreams},1649287325,8
{consumergroup=__strimzi-topic-operator-kstreams},1649287330,8
{consumergroup=__strimzi-topic-operator-kstreams},1649287335,8
{consumergroup=__strimzi-topic-operator-kstreams},1649287340,8
{consumergroup=__strimzi-topic-operator-kstreams},1649287345,8
{consumergroup=__strimzi-topic-operator-kstreams},1649287350,0
{consumergroup=__strimzi-topic-operator-kstreams},1649287355,0
{consumergroup=__strimzi-topic-operator-kstreams},1649287360,0
{consumergroup=__strimzi-topic-operator-kstreams},1649287365,0
{consumergroup=__strimzi-topic-operator-kstreams},1649287370,0
{consumergroup=__strimzi-topic-operator-kstreams},1649287375,0
{consumergroup=__strimzi-topic-operator-kstreams},1649287380,0
{consumergroup=__strimzi-topic-operator-kstreams},1649287385,0
{consumergroup=__strimzi-topic-operator-kstreams},1649287390,0
{consumergroup=__strimzi-topic-operator-kstreams},1649287395,0
{consumergroup=__strimzi-topic-operator-kstreams},1649287400,0
{consumergroup=__strimzi-topic-operator-kstreams},1649287405,0
{consumergroup=__strimzi-topic-operator-kstreams},1649287410,0
{consumergroup=__strimzi-topic-operator-kstreams},1649287415,0
{consumergroup=__strimzi-topic-operator-kstreams},1649287420,0
{consumergroup=__strimzi-topic-operator-kstreams},1649287425,0
{consumergroup=__strimzi-topic-operator-kstreams},1649287430,0
{consumergroup=__strimzi-topic-operator-kstreams},1649287435,0
{consumergroup=__strimzi-topic-operator-kstreams},1649287440,0
{consumergroup=__strimzi-topic-operator-kstreams},1649287445,0
{consumergroup=__strimzi-topic-operator-kstreams},1649287450,0
{consumergroup=__strimzi-topic-operator-kstreams},1649287455,0
{consumergroup=__strimzi-topic-operator-kstreams},1649287460,0
{consumergroup=__strimzi-topic-operator-kstreams},1649287465,0
{consumergroup=__strimzi-topic-operator-kstreams},1649287470,0
{consumergroup=__strimzi-topic-operator-kstreams},1649287475,0
{consumergroup=__strimzi-topic-operator-kstreams},1649287480,0
{consumergroup=__strimzi-topic-operator-kstreams},1649287485,0
{consumergroup=__strimzi-topic-operator-kstreams},1649287490,0
{consumergroup=__strimzi-topic-operator-kstreams},1649287495,0
{consumergroup=__strimzi-topic-operator-kstreams},1649287500,0
{consumergroup=__strimzi-topic-operator-kstreams},1649287505,0
{consumergroup=__strimzi-topic-operator-kstreams},1649287510,0
{consumergroup=__strimzi-topic-operator-kstreams},1649287515,0
{consumergroup=__strimzi-topic-operator-kstreams},1649287520,0
{consumergroup=__strimzi-topic-operator-kstreams},1649287525,0
{consumergroup=__strimzi-topic-operator-kstreams},1649287530,0
{consumergroup=__strimzi-topic-operator-kstreams},1649287535,0
{consumergroup=__strimzi-topic-operator-kstreams},1649287540,0
{consumergroup=__strimzi-topic-operator-kstreams},1649287545,0
{consumergroup=__strimzi-topic-operator-kstreams},1649287550,0
{consumergroup=__strimzi-topic-operator-kstreams},1649287555,0
{consumergroup=__strimzi-topic-operator-kstreams},1649287560,0
{consumergroup=__strimzi-topic-operator-kstreams},1649287565,0
{consumergroup=__strimzi-topic-operator-kstreams},1649287570,0
{consumergroup=__strimzi-topic-operator-kstreams},1649287575,0
{consumergroup=__strimzi-topic-operator-kstreams},1649287580,0
{consumergroup=__strimzi-topic-operator-kstreams},1649287585,0
{consumergroup=__strimzi-topic-operator-kstreams},1649287590,0
{consumergroup=__strimzi-topic-operator-kstreams},1649287595,0
{consumergroup=__strimzi-topic-operator-kstreams},1649287600,0
{consumergroup=__strimzi-topic-operator-kstreams},1649287605,0
{consumergroup=__strimzi-topic-operator-kstreams},1649287610,0
{consumergroup=__strimzi-topic-operator-kstreams},1649287615,0
{consumergroup=__strimzi-topic-operator-kstreams},1649287620,0
{consumergroup=__strimzi-topic-operator-kstreams},1649287625,0
{consumergroup=__strimzi-topic-operator-kstreams},1649287630,0
{consumergroup=__strimzi-topic-operator-kstreams},1649287635,0
{consumergroup=__strimzi-topic-operator-kstreams},1649287640,0
{consumergroup=__strimzi-topic-operator-kstreams},1649287645,0
{consumergroup=__strimzi-topic-operator-kstreams},1649287650,0
{consumergroup=__strimzi-topic-operator-kstreams},1649287655,0
{consumergroup=__strimzi-topic-operator-kstreams},1649287660,0
{consumergroup=__strimzi-topic-operator-kstreams},1649287665,0
{consumergroup=__strimzi-topic-operator-kstreams},1649287670,0
{consumergroup=__strimzi-topic-operator-kstreams},1649287675,0
{consumergroup=__strimzi-topic-operator-kstreams},1649287680,0
{consumergroup=__strimzi-topic-operator-kstreams},1649287685,0
{consumergroup=__strimzi-topic-operator-kstreams},1649287690,0
{consumergroup=__strimzi-topic-operator-kstreams},1649287695,0
{consumergroup=__strimzi-topic-operator-kstreams},1649287700,0
{consumergroup=__strimzi-topic-operator-kstreams},1649287705,0
{consumergroup=__strimzi-topic-operator-kstreams},1649287710,0
{consumergroup=__strimzi-topic-operator-kstreams},1649287715,0
{consumergroup=__strimzi-topic-operator-kstreams},1649287720,0
{consumergroup=__strimzi-topic-operator-kstreams},1649287725,0
{consumergroup=__strimzi-topic-operator-kstreams},1649287730,0
{consumergroup=__strimzi-topic-operator-kstreams},1649287735,0
{consumergroup=__strimzi-topic-operator-kstreams},1649287740,0
{consumergroup=__strimzi-topic-operator-kstreams},1649287745,0
{consumergroup=__strimzi-topic-operator-kstreams},1649287750,0
{consumergroup=__strimzi-topic-operator-kstreams},1649287755,0
{consumergroup=__strimzi-topic-operator-kstreams},1649287760,0
{consumergroup=__strimzi-topic-operator-kstreams},1649287765,0
{consumergroup=__strimzi-topic-operator-kstreams},1649287770,0
{consumergroup=__strimzi-topic-operator-kstreams},1649287775,0
{consumergroup=__strimzi-topic-operator-kstreams},1649287780,0
{consumergroup=__strimzi-topic-operator-kstreams},1649287785,0
{consumergroup=__strimzi-topic-operator-kstreams},1649287790,0
{consumergroup=__strimzi-topic-operator-kstreams},1649287795,0
{consumergroup=__strimzi-topic-operator-kstreams},1649287800,0
{consumergroup=__strimzi-topic-operator-kstreams},1649287805,0
{consumergroup=__strimzi-topic-operator-kstreams},1649287810,0
