labels,timestamp,value
{},1649243257,0
{},1649243262,0
{},1649243267,0
{},1649243272,0
{},1649243277,0
{},1649243282,0
{},1649243287,0
{},1649243292,0
{},1649243297,0
{},1649243302,0
{},1649243307,0
{},1649243312,0
{},1649243317,0
{},1649243322,0
{},1649243327,0
