labels,timestamp,value
{consumergroup=__strimzi-topic-operator-kstreams},1649292421,0
{consumergroup=__strimzi-topic-operator-kstreams},1649292426,0
{consumergroup=__strimzi-topic-operator-kstreams},1649292431,0
{consumergroup=__strimzi-topic-operator-kstreams},1649292436,0
{consumergroup=__strimzi-topic-operator-kstreams},1649292441,0
{consumergroup=__strimzi-topic-operator-kstreams},1649292446,0
{consumergroup=__strimzi-topic-operator-kstreams},1649292451,0
{consumergroup=__strimzi-topic-operator-kstreams},1649292456,0
{consumergroup=__strimzi-topic-operator-kstreams},1649292461,0
{consumergroup=__strimzi-topic-operator-kstreams},1649292466,0
{consumergroup=__strimzi-topic-operator-kstreams},1649292471,0
{consumergroup=__strimzi-topic-operator-kstreams},1649292476,0
{consumergroup=__strimzi-topic-operator-kstreams},1649292481,0
{consumergroup=__strimzi-topic-operator-kstreams},1649292486,0
{consumergroup=__strimzi-topic-operator-kstreams},1649292491,0
{consumergroup=__strimzi-topic-operator-kstreams},1649292496,0
{consumergroup=__strimzi-topic-operator-kstreams},1649292501,0
{consumergroup=__strimzi-topic-operator-kstreams},1649292506,0
{consumergroup=__strimzi-topic-operator-kstreams},1649292511,0
{consumergroup=__strimzi-topic-operator-kstreams},1649292516,0
{consumergroup=__strimzi-topic-operator-kstreams},1649292521,0
{consumergroup=__strimzi-topic-operator-kstreams},1649292526,0
{consumergroup=__strimzi-topic-operator-kstreams},1649292531,0
{consumergroup=__strimzi-topic-operator-kstreams},1649292536,0
{consumergroup=__strimzi-topic-operator-kstreams},1649292541,0
{consumergroup=__strimzi-topic-operator-kstreams},1649292546,0
{consumergroup=__strimzi-topic-operator-kstreams},1649292551,0
{consumergroup=__strimzi-topic-operator-kstreams},1649292556,0
{consumergroup=__strimzi-topic-operator-kstreams},1649292561,0
{consumergroup=__strimzi-topic-operator-kstreams},1649292566,0
{consumergroup=__strimzi-topic-operator-kstreams},1649292571,0
{consumergroup=__strimzi-topic-operator-kstreams},1649292576,0
{consumergroup=__strimzi-topic-operator-kstreams},1649292581,0
{consumergroup=__strimzi-topic-operator-kstreams},1649292586,0
{consumergroup=__strimzi-topic-operator-kstreams},1649292591,0
{consumergroup=__strimzi-topic-operator-kstreams},1649292596,0
{consumergroup=__strimzi-topic-operator-kstreams},1649292601,0
{consumergroup=__strimzi-topic-operator-kstreams},1649292606,0
{consumergroup=__strimzi-topic-operator-kstreams},1649292611,0
{consumergroup=__strimzi-topic-operator-kstreams},1649292616,0
{consumergroup=__strimzi-topic-operator-kstreams},1649292621,0
{consumergroup=__strimzi-topic-operator-kstreams},1649292626,0
{consumergroup=__strimzi-topic-operator-kstreams},1649292631,0
{consumergroup=__strimzi-topic-operator-kstreams},1649292636,0
{consumergroup=__strimzi-topic-operator-kstreams},1649292641,0
{consumergroup=__strimzi-topic-operator-kstreams},1649292646,0
{consumergroup=__strimzi-topic-operator-kstreams},1649292651,0
{consumergroup=__strimzi-topic-operator-kstreams},1649292656,0
{consumergroup=__strimzi-topic-operator-kstreams},1649292661,0
{consumergroup=__strimzi-topic-operator-kstreams},1649292666,0
{consumergroup=__strimzi-topic-operator-kstreams},1649292671,0
{consumergroup=__strimzi-topic-operator-kstreams},1649292676,0
{consumergroup=__strimzi-topic-operator-kstreams},1649292681,0
{consumergroup=__strimzi-topic-operator-kstreams},1649292686,0
{consumergroup=__strimzi-topic-operator-kstreams},1649292691,0
{consumergroup=__strimzi-topic-operator-kstreams},1649292696,0
{consumergroup=__strimzi-topic-operator-kstreams},1649292701,0
{consumergroup=__strimzi-topic-operator-kstreams},1649292706,0
{consumergroup=__strimzi-topic-operator-kstreams},1649292711,0
{consumergroup=__strimzi-topic-operator-kstreams},1649292716,0
{consumergroup=__strimzi-topic-operator-kstreams},1649292721,0
{consumergroup=__strimzi-topic-operator-kstreams},1649292726,0
{consumergroup=__strimzi-topic-operator-kstreams},1649292731,0
{consumergroup=__strimzi-topic-operator-kstreams},1649292736,0
{consumergroup=__strimzi-topic-operator-kstreams},1649292741,0
{consumergroup=__strimzi-topic-operator-kstreams},1649292746,0
{consumergroup=__strimzi-topic-operator-kstreams},1649292751,0
{consumergroup=__strimzi-topic-operator-kstreams},1649292756,0
{consumergroup=__strimzi-topic-operator-kstreams},1649292761,0
{consumergroup=__strimzi-topic-operator-kstreams},1649292766,0
{consumergroup=__strimzi-topic-operator-kstreams},1649292771,0
{consumergroup=__strimzi-topic-operator-kstreams},1649292776,0
{consumergroup=__strimzi-topic-operator-kstreams},1649292781,0
{consumergroup=__strimzi-topic-operator-kstreams},1649292786,0
{consumergroup=__strimzi-topic-operator-kstreams},1649292791,0
{consumergroup=__strimzi-topic-operator-kstreams},1649292796,0
{consumergroup=__strimzi-topic-operator-kstreams},1649292801,0
{consumergroup=__strimzi-topic-operator-kstreams},1649292806,0
{consumergroup=__strimzi-topic-operator-kstreams},1649292811,0
{consumergroup=__strimzi-topic-operator-kstreams},1649292816,0
{consumergroup=__strimzi-topic-operator-kstreams},1649292821,0
{consumergroup=__strimzi-topic-operator-kstreams},1649292826,0
{consumergroup=__strimzi-topic-operator-kstreams},1649292831,0
{consumergroup=__strimzi-topic-operator-kstreams},1649292836,0
{consumergroup=__strimzi-topic-operator-kstreams},1649292841,0
{consumergroup=__strimzi-topic-operator-kstreams},1649292846,0
{consumergroup=__strimzi-topic-operator-kstreams},1649292851,0
{consumergroup=__strimzi-topic-operator-kstreams},1649292856,0
{consumergroup=__strimzi-topic-operator-kstreams},1649292861,0
{consumergroup=__strimzi-topic-operator-kstreams},1649292866,0
{consumergroup=__strimzi-topic-operator-kstreams},1649292871,0
{consumergroup=__strimzi-topic-operator-kstreams},1649292876,0
{consumergroup=__strimzi-topic-operator-kstreams},1649292881,0
{consumergroup=__strimzi-topic-operator-kstreams},1649292886,0
{consumergroup=__strimzi-topic-operator-kstreams},1649292891,0
{consumergroup=__strimzi-topic-operator-kstreams},1649292896,0
{consumergroup=__strimzi-topic-operator-kstreams},1649292901,0
