labels,timestamp,value
{},1649282240,0
{},1649282245,0
{},1649282250,0
{},1649282255,0
{},1649282260,0
{},1649282265,0
{},1649282270,0
{},1649282275,0
{},1649282280,0
{},1649282285,0
{},1649282290,0
{},1649282295,0
{},1649282300,0
{},1649282305,0
