labels,timestamp,value
{consumergroup=__strimzi-topic-operator-kstreams},1649249480,8
{consumergroup=__strimzi-topic-operator-kstreams},1649249485,8
{consumergroup=__strimzi-topic-operator-kstreams},1649249490,8
{consumergroup=__strimzi-topic-operator-kstreams},1649249495,8
{consumergroup=__strimzi-topic-operator-kstreams},1649249500,8
{consumergroup=__strimzi-topic-operator-kstreams},1649249505,8
{consumergroup=__strimzi-topic-operator-kstreams},1649249510,0
{consumergroup=__strimzi-topic-operator-kstreams},1649249515,0
{consumergroup=__strimzi-topic-operator-kstreams},1649249520,0
{consumergroup=__strimzi-topic-operator-kstreams},1649249525,0
{consumergroup=__strimzi-topic-operator-kstreams},1649249530,0
{consumergroup=__strimzi-topic-operator-kstreams},1649249535,0
{consumergroup=__strimzi-topic-operator-kstreams},1649249540,0
{consumergroup=__strimzi-topic-operator-kstreams},1649249545,0
{consumergroup=__strimzi-topic-operator-kstreams},1649249550,0
{consumergroup=__strimzi-topic-operator-kstreams},1649249555,0
{consumergroup=__strimzi-topic-operator-kstreams},1649249560,0
{consumergroup=__strimzi-topic-operator-kstreams},1649249565,0
{consumergroup=__strimzi-topic-operator-kstreams},1649249570,0
{consumergroup=__strimzi-topic-operator-kstreams},1649249575,0
{consumergroup=__strimzi-topic-operator-kstreams},1649249580,0
{consumergroup=__strimzi-topic-operator-kstreams},1649249585,0
{consumergroup=__strimzi-topic-operator-kstreams},1649249590,0
{consumergroup=__strimzi-topic-operator-kstreams},1649249595,0
{consumergroup=__strimzi-topic-operator-kstreams},1649249600,0
{consumergroup=__strimzi-topic-operator-kstreams},1649249605,0
{consumergroup=__strimzi-topic-operator-kstreams},1649249610,0
{consumergroup=__strimzi-topic-operator-kstreams},1649249615,0
{consumergroup=__strimzi-topic-operator-kstreams},1649249620,0
{consumergroup=__strimzi-topic-operator-kstreams},1649249625,0
{consumergroup=__strimzi-topic-operator-kstreams},1649249630,0
{consumergroup=__strimzi-topic-operator-kstreams},1649249635,0
{consumergroup=__strimzi-topic-operator-kstreams},1649249640,0
{consumergroup=__strimzi-topic-operator-kstreams},1649249645,0
{consumergroup=__strimzi-topic-operator-kstreams},1649249650,0
{consumergroup=__strimzi-topic-operator-kstreams},1649249655,0
{consumergroup=__strimzi-topic-operator-kstreams},1649249660,0
{consumergroup=__strimzi-topic-operator-kstreams},1649249665,0
{consumergroup=__strimzi-topic-operator-kstreams},1649249670,0
{consumergroup=__strimzi-topic-operator-kstreams},1649249675,0
{consumergroup=__strimzi-topic-operator-kstreams},1649249680,0
{consumergroup=__strimzi-topic-operator-kstreams},1649249685,0
{consumergroup=__strimzi-topic-operator-kstreams},1649249690,0
{consumergroup=__strimzi-topic-operator-kstreams},1649249695,0
{consumergroup=__strimzi-topic-operator-kstreams},1649249700,0
{consumergroup=__strimzi-topic-operator-kstreams},1649249705,0
{consumergroup=__strimzi-topic-operator-kstreams},1649249710,0
{consumergroup=__strimzi-topic-operator-kstreams},1649249715,0
{consumergroup=__strimzi-topic-operator-kstreams},1649249720,0
{consumergroup=__strimzi-topic-operator-kstreams},1649249725,0
{consumergroup=__strimzi-topic-operator-kstreams},1649249730,0
{consumergroup=__strimzi-topic-operator-kstreams},1649249735,0
{consumergroup=__strimzi-topic-operator-kstreams},1649249740,0
{consumergroup=__strimzi-topic-operator-kstreams},1649249745,0
{consumergroup=__strimzi-topic-operator-kstreams},1649249750,0
{consumergroup=__strimzi-topic-operator-kstreams},1649249755,0
{consumergroup=__strimzi-topic-operator-kstreams},1649249760,0
{consumergroup=__strimzi-topic-operator-kstreams},1649249765,0
{consumergroup=__strimzi-topic-operator-kstreams},1649249770,0
{consumergroup=__strimzi-topic-operator-kstreams},1649249775,0
{consumergroup=__strimzi-topic-operator-kstreams},1649249780,0
{consumergroup=__strimzi-topic-operator-kstreams},1649249785,0
{consumergroup=__strimzi-topic-operator-kstreams},1649249790,0
{consumergroup=__strimzi-topic-operator-kstreams},1649249795,0
{consumergroup=__strimzi-topic-operator-kstreams},1649249800,0
{consumergroup=__strimzi-topic-operator-kstreams},1649249805,0
{consumergroup=__strimzi-topic-operator-kstreams},1649249810,0
{consumergroup=__strimzi-topic-operator-kstreams},1649249815,0
{consumergroup=__strimzi-topic-operator-kstreams},1649249820,0
{consumergroup=__strimzi-topic-operator-kstreams},1649249825,0
{consumergroup=__strimzi-topic-operator-kstreams},1649249830,0
{consumergroup=__strimzi-topic-operator-kstreams},1649249835,0
{consumergroup=__strimzi-topic-operator-kstreams},1649249840,0
{consumergroup=__strimzi-topic-operator-kstreams},1649249845,0
{consumergroup=__strimzi-topic-operator-kstreams},1649249850,0
{consumergroup=__strimzi-topic-operator-kstreams},1649249855,0
{consumergroup=__strimzi-topic-operator-kstreams},1649249860,0
{consumergroup=__strimzi-topic-operator-kstreams},1649249865,0
{consumergroup=__strimzi-topic-operator-kstreams},1649249870,0
{consumergroup=__strimzi-topic-operator-kstreams},1649249875,0
{consumergroup=__strimzi-topic-operator-kstreams},1649249880,0
{consumergroup=__strimzi-topic-operator-kstreams},1649249885,0
{consumergroup=__strimzi-topic-operator-kstreams},1649249890,0
{consumergroup=__strimzi-topic-operator-kstreams},1649249895,0
{consumergroup=__strimzi-topic-operator-kstreams},1649249900,0
{consumergroup=__strimzi-topic-operator-kstreams},1649249905,0
{consumergroup=__strimzi-topic-operator-kstreams},1649249910,0
{consumergroup=__strimzi-topic-operator-kstreams},1649249915,0
{consumergroup=__strimzi-topic-operator-kstreams},1649249920,0
{consumergroup=__strimzi-topic-operator-kstreams},1649249925,0
{consumergroup=__strimzi-topic-operator-kstreams},1649249930,0
{consumergroup=__strimzi-topic-operator-kstreams},1649249935,0
{consumergroup=__strimzi-topic-operator-kstreams},1649249940,0
{consumergroup=__strimzi-topic-operator-kstreams},1649249945,0
{consumergroup=__strimzi-topic-operator-kstreams},1649249950,0
{consumergroup=__strimzi-topic-operator-kstreams},1649249955,0
{consumergroup=__strimzi-topic-operator-kstreams},1649249960,0
{consumergroup=__strimzi-topic-operator-kstreams},1649249965,0
