labels,timestamp,value
{},1649294101,0
{},1649294106,0
{},1649294111,0
{},1649294116,0
{},1649294121,0
{},1649294126,0
{},1649294131,0
{},1649294136,0
{},1649294141,0
{},1649294146,0
{},1649294151,0
{},1649294156,0
{},1649294161,0
{},1649294166,0
