labels,timestamp,value
{consumergroup=__strimzi-topic-operator-kstreams},1649244394,8
{consumergroup=__strimzi-topic-operator-kstreams},1649244399,8
{consumergroup=__strimzi-topic-operator-kstreams},1649244404,8
{consumergroup=__strimzi-topic-operator-kstreams},1649244409,0
{consumergroup=__strimzi-topic-operator-kstreams},1649244414,0
{consumergroup=__strimzi-topic-operator-kstreams},1649244419,0
{consumergroup=__strimzi-topic-operator-kstreams},1649244424,0
{consumergroup=__strimzi-topic-operator-kstreams},1649244429,0
{consumergroup=__strimzi-topic-operator-kstreams},1649244434,0
{consumergroup=__strimzi-topic-operator-kstreams},1649244439,0
{consumergroup=__strimzi-topic-operator-kstreams},1649244444,0
{consumergroup=__strimzi-topic-operator-kstreams},1649244449,0
{consumergroup=__strimzi-topic-operator-kstreams},1649244454,3
{consumergroup=__strimzi-topic-operator-kstreams},1649244459,3
{consumergroup=__strimzi-topic-operator-kstreams},1649244464,3
{consumergroup=__strimzi-topic-operator-kstreams},1649244469,0
{consumergroup=__strimzi-topic-operator-kstreams},1649244474,0
{consumergroup=__strimzi-topic-operator-kstreams},1649244479,0
{consumergroup=__strimzi-topic-operator-kstreams},1649244484,0
{consumergroup=__strimzi-topic-operator-kstreams},1649244489,0
{consumergroup=__strimzi-topic-operator-kstreams},1649244494,0
{consumergroup=__strimzi-topic-operator-kstreams},1649244499,0
{consumergroup=__strimzi-topic-operator-kstreams},1649244504,0
{consumergroup=__strimzi-topic-operator-kstreams},1649244509,0
{consumergroup=__strimzi-topic-operator-kstreams},1649244514,0
{consumergroup=__strimzi-topic-operator-kstreams},1649244519,0
{consumergroup=__strimzi-topic-operator-kstreams},1649244524,0
{consumergroup=__strimzi-topic-operator-kstreams},1649244529,0
{consumergroup=__strimzi-topic-operator-kstreams},1649244534,0
{consumergroup=__strimzi-topic-operator-kstreams},1649244539,0
{consumergroup=__strimzi-topic-operator-kstreams},1649244544,0
{consumergroup=__strimzi-topic-operator-kstreams},1649244549,0
{consumergroup=__strimzi-topic-operator-kstreams},1649244554,0
{consumergroup=__strimzi-topic-operator-kstreams},1649244559,0
{consumergroup=__strimzi-topic-operator-kstreams},1649244564,0
{consumergroup=__strimzi-topic-operator-kstreams},1649244569,0
{consumergroup=__strimzi-topic-operator-kstreams},1649244574,0
{consumergroup=__strimzi-topic-operator-kstreams},1649244579,0
{consumergroup=__strimzi-topic-operator-kstreams},1649244584,0
{consumergroup=__strimzi-topic-operator-kstreams},1649244589,0
{consumergroup=__strimzi-topic-operator-kstreams},1649244594,0
{consumergroup=__strimzi-topic-operator-kstreams},1649244599,0
{consumergroup=__strimzi-topic-operator-kstreams},1649244604,0
{consumergroup=__strimzi-topic-operator-kstreams},1649244609,0
{consumergroup=__strimzi-topic-operator-kstreams},1649244614,0
{consumergroup=__strimzi-topic-operator-kstreams},1649244619,0
{consumergroup=__strimzi-topic-operator-kstreams},1649244624,0
{consumergroup=__strimzi-topic-operator-kstreams},1649244629,0
{consumergroup=__strimzi-topic-operator-kstreams},1649244634,0
{consumergroup=__strimzi-topic-operator-kstreams},1649244639,0
{consumergroup=__strimzi-topic-operator-kstreams},1649244644,0
{consumergroup=__strimzi-topic-operator-kstreams},1649244649,0
{consumergroup=__strimzi-topic-operator-kstreams},1649244654,0
{consumergroup=__strimzi-topic-operator-kstreams},1649244659,0
{consumergroup=__strimzi-topic-operator-kstreams},1649244664,0
{consumergroup=__strimzi-topic-operator-kstreams},1649244669,0
{consumergroup=__strimzi-topic-operator-kstreams},1649244674,0
{consumergroup=__strimzi-topic-operator-kstreams},1649244679,0
{consumergroup=__strimzi-topic-operator-kstreams},1649244684,0
{consumergroup=__strimzi-topic-operator-kstreams},1649244689,0
{consumergroup=__strimzi-topic-operator-kstreams},1649244694,0
{consumergroup=__strimzi-topic-operator-kstreams},1649244699,0
{consumergroup=__strimzi-topic-operator-kstreams},1649244704,0
{consumergroup=__strimzi-topic-operator-kstreams},1649244709,0
{consumergroup=__strimzi-topic-operator-kstreams},1649244714,0
{consumergroup=__strimzi-topic-operator-kstreams},1649244719,0
{consumergroup=__strimzi-topic-operator-kstreams},1649244724,0
{consumergroup=__strimzi-topic-operator-kstreams},1649244729,0
{consumergroup=__strimzi-topic-operator-kstreams},1649244734,0
{consumergroup=__strimzi-topic-operator-kstreams},1649244739,0
{consumergroup=__strimzi-topic-operator-kstreams},1649244744,0
{consumergroup=__strimzi-topic-operator-kstreams},1649244749,0
{consumergroup=__strimzi-topic-operator-kstreams},1649244754,0
{consumergroup=__strimzi-topic-operator-kstreams},1649244759,0
{consumergroup=__strimzi-topic-operator-kstreams},1649244764,0
{consumergroup=__strimzi-topic-operator-kstreams},1649244769,0
{consumergroup=__strimzi-topic-operator-kstreams},1649244774,0
{consumergroup=__strimzi-topic-operator-kstreams},1649244779,0
{consumergroup=__strimzi-topic-operator-kstreams},1649244784,0
{consumergroup=__strimzi-topic-operator-kstreams},1649244789,0
{consumergroup=__strimzi-topic-operator-kstreams},1649244794,0
{consumergroup=__strimzi-topic-operator-kstreams},1649244799,0
{consumergroup=__strimzi-topic-operator-kstreams},1649244804,0
{consumergroup=__strimzi-topic-operator-kstreams},1649244809,0
{consumergroup=__strimzi-topic-operator-kstreams},1649244814,0
{consumergroup=__strimzi-topic-operator-kstreams},1649244819,0
{consumergroup=__strimzi-topic-operator-kstreams},1649244824,0
{consumergroup=__strimzi-topic-operator-kstreams},1649244829,0
{consumergroup=__strimzi-topic-operator-kstreams},1649244834,0
{consumergroup=__strimzi-topic-operator-kstreams},1649244839,0
{consumergroup=__strimzi-topic-operator-kstreams},1649244844,0
{consumergroup=__strimzi-topic-operator-kstreams},1649244849,0
{consumergroup=__strimzi-topic-operator-kstreams},1649244854,0
{consumergroup=__strimzi-topic-operator-kstreams},1649244859,0
{consumergroup=__strimzi-topic-operator-kstreams},1649244864,0
{consumergroup=__strimzi-topic-operator-kstreams},1649244869,0
{consumergroup=__strimzi-topic-operator-kstreams},1649244874,0
{consumergroup=__strimzi-topic-operator-kstreams},1649244879,0
{consumergroup=__strimzi-topic-operator-kstreams},1649244884,0
