labels,timestamp,value
{consumergroup=__strimzi-topic-operator-kstreams},1649248351,0
{consumergroup=__strimzi-topic-operator-kstreams},1649248356,0
{consumergroup=__strimzi-topic-operator-kstreams},1649248361,0
{consumergroup=__strimzi-topic-operator-kstreams},1649248366,0
{consumergroup=__strimzi-topic-operator-kstreams},1649248371,0
{consumergroup=__strimzi-topic-operator-kstreams},1649248376,0
{consumergroup=__strimzi-topic-operator-kstreams},1649248381,0
{consumergroup=__strimzi-topic-operator-kstreams},1649248386,0
{consumergroup=__strimzi-topic-operator-kstreams},1649248391,0
{consumergroup=__strimzi-topic-operator-kstreams},1649248396,0
{consumergroup=__strimzi-topic-operator-kstreams},1649248401,0
{consumergroup=__strimzi-topic-operator-kstreams},1649248406,0
{consumergroup=__strimzi-topic-operator-kstreams},1649248411,3
{consumergroup=__strimzi-topic-operator-kstreams},1649248416,3
{consumergroup=__strimzi-topic-operator-kstreams},1649248421,3
{consumergroup=__strimzi-topic-operator-kstreams},1649248426,3
{consumergroup=__strimzi-topic-operator-kstreams},1649248431,3
{consumergroup=__strimzi-topic-operator-kstreams},1649248436,3
{consumergroup=__strimzi-topic-operator-kstreams},1649248441,0
{consumergroup=__strimzi-topic-operator-kstreams},1649248446,0
{consumergroup=__strimzi-topic-operator-kstreams},1649248451,0
{consumergroup=__strimzi-topic-operator-kstreams},1649248456,0
{consumergroup=__strimzi-topic-operator-kstreams},1649248461,0
{consumergroup=__strimzi-topic-operator-kstreams},1649248466,0
{consumergroup=__strimzi-topic-operator-kstreams},1649248471,0
{consumergroup=__strimzi-topic-operator-kstreams},1649248476,0
{consumergroup=__strimzi-topic-operator-kstreams},1649248481,0
{consumergroup=__strimzi-topic-operator-kstreams},1649248486,0
{consumergroup=__strimzi-topic-operator-kstreams},1649248491,0
{consumergroup=__strimzi-topic-operator-kstreams},1649248496,0
{consumergroup=__strimzi-topic-operator-kstreams},1649248501,0
{consumergroup=__strimzi-topic-operator-kstreams},1649248506,0
{consumergroup=__strimzi-topic-operator-kstreams},1649248511,0
{consumergroup=__strimzi-topic-operator-kstreams},1649248516,0
{consumergroup=__strimzi-topic-operator-kstreams},1649248521,0
{consumergroup=__strimzi-topic-operator-kstreams},1649248526,0
{consumergroup=__strimzi-topic-operator-kstreams},1649248531,0
{consumergroup=__strimzi-topic-operator-kstreams},1649248536,0
{consumergroup=__strimzi-topic-operator-kstreams},1649248541,0
{consumergroup=__strimzi-topic-operator-kstreams},1649248546,0
{consumergroup=__strimzi-topic-operator-kstreams},1649248551,0
{consumergroup=__strimzi-topic-operator-kstreams},1649248556,0
{consumergroup=__strimzi-topic-operator-kstreams},1649248561,0
{consumergroup=__strimzi-topic-operator-kstreams},1649248566,0
{consumergroup=__strimzi-topic-operator-kstreams},1649248571,0
{consumergroup=__strimzi-topic-operator-kstreams},1649248576,0
{consumergroup=__strimzi-topic-operator-kstreams},1649248581,0
{consumergroup=__strimzi-topic-operator-kstreams},1649248586,0
{consumergroup=__strimzi-topic-operator-kstreams},1649248591,0
{consumergroup=__strimzi-topic-operator-kstreams},1649248596,0
{consumergroup=__strimzi-topic-operator-kstreams},1649248601,0
{consumergroup=__strimzi-topic-operator-kstreams},1649248606,0
{consumergroup=__strimzi-topic-operator-kstreams},1649248611,0
{consumergroup=__strimzi-topic-operator-kstreams},1649248616,0
{consumergroup=__strimzi-topic-operator-kstreams},1649248621,0
{consumergroup=__strimzi-topic-operator-kstreams},1649248626,0
{consumergroup=__strimzi-topic-operator-kstreams},1649248631,0
{consumergroup=__strimzi-topic-operator-kstreams},1649248636,0
{consumergroup=__strimzi-topic-operator-kstreams},1649248641,0
{consumergroup=__strimzi-topic-operator-kstreams},1649248646,0
{consumergroup=__strimzi-topic-operator-kstreams},1649248651,0
{consumergroup=__strimzi-topic-operator-kstreams},1649248656,0
{consumergroup=__strimzi-topic-operator-kstreams},1649248661,0
{consumergroup=__strimzi-topic-operator-kstreams},1649248666,0
{consumergroup=__strimzi-topic-operator-kstreams},1649248671,0
{consumergroup=__strimzi-topic-operator-kstreams},1649248676,0
{consumergroup=__strimzi-topic-operator-kstreams},1649248681,0
{consumergroup=__strimzi-topic-operator-kstreams},1649248686,0
{consumergroup=__strimzi-topic-operator-kstreams},1649248691,0
{consumergroup=__strimzi-topic-operator-kstreams},1649248696,0
{consumergroup=__strimzi-topic-operator-kstreams},1649248701,0
{consumergroup=__strimzi-topic-operator-kstreams},1649248706,0
{consumergroup=__strimzi-topic-operator-kstreams},1649248711,0
{consumergroup=__strimzi-topic-operator-kstreams},1649248716,0
{consumergroup=__strimzi-topic-operator-kstreams},1649248721,0
{consumergroup=__strimzi-topic-operator-kstreams},1649248726,0
{consumergroup=__strimzi-topic-operator-kstreams},1649248731,0
{consumergroup=__strimzi-topic-operator-kstreams},1649248736,0
{consumergroup=__strimzi-topic-operator-kstreams},1649248741,0
{consumergroup=__strimzi-topic-operator-kstreams},1649248746,0
{consumergroup=__strimzi-topic-operator-kstreams},1649248751,0
{consumergroup=__strimzi-topic-operator-kstreams},1649248756,0
{consumergroup=__strimzi-topic-operator-kstreams},1649248761,0
{consumergroup=__strimzi-topic-operator-kstreams},1649248766,0
{consumergroup=__strimzi-topic-operator-kstreams},1649248771,0
{consumergroup=__strimzi-topic-operator-kstreams},1649248776,0
{consumergroup=__strimzi-topic-operator-kstreams},1649248781,0
{consumergroup=__strimzi-topic-operator-kstreams},1649248786,0
{consumergroup=__strimzi-topic-operator-kstreams},1649248791,0
{consumergroup=__strimzi-topic-operator-kstreams},1649248796,0
{consumergroup=__strimzi-topic-operator-kstreams},1649248801,0
{consumergroup=__strimzi-topic-operator-kstreams},1649248806,0
{consumergroup=__strimzi-topic-operator-kstreams},1649248811,0
{consumergroup=__strimzi-topic-operator-kstreams},1649248816,0
{consumergroup=__strimzi-topic-operator-kstreams},1649248821,0
{consumergroup=__strimzi-topic-operator-kstreams},1649248826,0
{consumergroup=__strimzi-topic-operator-kstreams},1649248831,0
{consumergroup=__strimzi-topic-operator-kstreams},1649248836,0
