labels,timestamp,value
{consumergroup=__strimzi-topic-operator-kstreams},1649274369,11
{consumergroup=__strimzi-topic-operator-kstreams},1649274374,11
{consumergroup=__strimzi-topic-operator-kstreams},1649274379,11
{consumergroup=__strimzi-topic-operator-kstreams},1649274384,2
{consumergroup=__strimzi-topic-operator-kstreams},1649274389,2
{consumergroup=__strimzi-topic-operator-kstreams},1649274394,2
{consumergroup=__strimzi-topic-operator-kstreams},1649274399,2
{consumergroup=__strimzi-topic-operator-kstreams},1649274404,2
{consumergroup=__strimzi-topic-operator-kstreams},1649274409,2
{consumergroup=__strimzi-topic-operator-kstreams},1649274414,0
{consumergroup=__strimzi-topic-operator-kstreams},1649274419,0
{consumergroup=__strimzi-topic-operator-kstreams},1649274424,0
{consumergroup=__strimzi-topic-operator-kstreams},1649274429,0
{consumergroup=__strimzi-topic-operator-kstreams},1649274434,0
{consumergroup=__strimzi-topic-operator-kstreams},1649274439,0
{consumergroup=__strimzi-topic-operator-kstreams},1649274444,0
{consumergroup=__strimzi-topic-operator-kstreams},1649274449,0
{consumergroup=__strimzi-topic-operator-kstreams},1649274454,0
{consumergroup=__strimzi-topic-operator-kstreams},1649274459,0
{consumergroup=__strimzi-topic-operator-kstreams},1649274464,0
{consumergroup=__strimzi-topic-operator-kstreams},1649274469,0
{consumergroup=__strimzi-topic-operator-kstreams},1649274474,0
{consumergroup=__strimzi-topic-operator-kstreams},1649274479,0
{consumergroup=__strimzi-topic-operator-kstreams},1649274484,0
{consumergroup=__strimzi-topic-operator-kstreams},1649274489,0
{consumergroup=__strimzi-topic-operator-kstreams},1649274494,0
{consumergroup=__strimzi-topic-operator-kstreams},1649274499,0
{consumergroup=__strimzi-topic-operator-kstreams},1649274504,0
{consumergroup=__strimzi-topic-operator-kstreams},1649274509,0
{consumergroup=__strimzi-topic-operator-kstreams},1649274514,0
{consumergroup=__strimzi-topic-operator-kstreams},1649274519,0
{consumergroup=__strimzi-topic-operator-kstreams},1649274524,0
{consumergroup=__strimzi-topic-operator-kstreams},1649274529,0
{consumergroup=__strimzi-topic-operator-kstreams},1649274534,0
{consumergroup=__strimzi-topic-operator-kstreams},1649274539,0
{consumergroup=__strimzi-topic-operator-kstreams},1649274544,0
{consumergroup=__strimzi-topic-operator-kstreams},1649274549,0
{consumergroup=__strimzi-topic-operator-kstreams},1649274554,0
{consumergroup=__strimzi-topic-operator-kstreams},1649274559,0
{consumergroup=__strimzi-topic-operator-kstreams},1649274564,0
{consumergroup=__strimzi-topic-operator-kstreams},1649274569,0
{consumergroup=__strimzi-topic-operator-kstreams},1649274574,0
{consumergroup=__strimzi-topic-operator-kstreams},1649274579,0
{consumergroup=__strimzi-topic-operator-kstreams},1649274584,0
{consumergroup=__strimzi-topic-operator-kstreams},1649274589,0
{consumergroup=__strimzi-topic-operator-kstreams},1649274594,0
{consumergroup=__strimzi-topic-operator-kstreams},1649274599,0
{consumergroup=__strimzi-topic-operator-kstreams},1649274604,0
{consumergroup=__strimzi-topic-operator-kstreams},1649274609,0
{consumergroup=__strimzi-topic-operator-kstreams},1649274614,0
{consumergroup=__strimzi-topic-operator-kstreams},1649274619,0
{consumergroup=__strimzi-topic-operator-kstreams},1649274624,0
{consumergroup=__strimzi-topic-operator-kstreams},1649274629,0
{consumergroup=__strimzi-topic-operator-kstreams},1649274634,0
{consumergroup=__strimzi-topic-operator-kstreams},1649274639,0
{consumergroup=__strimzi-topic-operator-kstreams},1649274644,0
{consumergroup=__strimzi-topic-operator-kstreams},1649274649,0
{consumergroup=__strimzi-topic-operator-kstreams},1649274654,0
{consumergroup=__strimzi-topic-operator-kstreams},1649274659,0
{consumergroup=__strimzi-topic-operator-kstreams},1649274664,0
{consumergroup=__strimzi-topic-operator-kstreams},1649274669,0
{consumergroup=__strimzi-topic-operator-kstreams},1649274674,0
{consumergroup=__strimzi-topic-operator-kstreams},1649274679,0
{consumergroup=__strimzi-topic-operator-kstreams},1649274684,0
{consumergroup=__strimzi-topic-operator-kstreams},1649274689,0
{consumergroup=__strimzi-topic-operator-kstreams},1649274694,0
{consumergroup=__strimzi-topic-operator-kstreams},1649274699,0
{consumergroup=__strimzi-topic-operator-kstreams},1649274704,0
{consumergroup=__strimzi-topic-operator-kstreams},1649274709,0
{consumergroup=__strimzi-topic-operator-kstreams},1649274714,0
{consumergroup=__strimzi-topic-operator-kstreams},1649274719,0
{consumergroup=__strimzi-topic-operator-kstreams},1649274724,0
{consumergroup=__strimzi-topic-operator-kstreams},1649274729,0
{consumergroup=__strimzi-topic-operator-kstreams},1649274734,0
{consumergroup=__strimzi-topic-operator-kstreams},1649274739,0
{consumergroup=__strimzi-topic-operator-kstreams},1649274744,0
{consumergroup=__strimzi-topic-operator-kstreams},1649274749,0
{consumergroup=__strimzi-topic-operator-kstreams},1649274754,0
{consumergroup=__strimzi-topic-operator-kstreams},1649274759,0
{consumergroup=__strimzi-topic-operator-kstreams},1649274764,0
{consumergroup=__strimzi-topic-operator-kstreams},1649274769,0
{consumergroup=__strimzi-topic-operator-kstreams},1649274774,0
{consumergroup=__strimzi-topic-operator-kstreams},1649274779,0
{consumergroup=__strimzi-topic-operator-kstreams},1649274784,0
{consumergroup=__strimzi-topic-operator-kstreams},1649274789,0
{consumergroup=__strimzi-topic-operator-kstreams},1649274794,0
{consumergroup=__strimzi-topic-operator-kstreams},1649274799,0
{consumergroup=__strimzi-topic-operator-kstreams},1649274804,0
{consumergroup=__strimzi-topic-operator-kstreams},1649274809,0
{consumergroup=__strimzi-topic-operator-kstreams},1649274814,0
{consumergroup=__strimzi-topic-operator-kstreams},1649274819,0
{consumergroup=__strimzi-topic-operator-kstreams},1649274824,0
{consumergroup=__strimzi-topic-operator-kstreams},1649274829,0
{consumergroup=__strimzi-topic-operator-kstreams},1649274834,0
{consumergroup=__strimzi-topic-operator-kstreams},1649274839,0
{consumergroup=__strimzi-topic-operator-kstreams},1649274844,0
{consumergroup=__strimzi-topic-operator-kstreams},1649274849,0
{consumergroup=__strimzi-topic-operator-kstreams},1649274854,0
