labels,timestamp,value
{consumergroup=__strimzi-topic-operator-kstreams},1649265334,11
{consumergroup=__strimzi-topic-operator-kstreams},1649265339,11
{consumergroup=__strimzi-topic-operator-kstreams},1649265344,11
{consumergroup=__strimzi-topic-operator-kstreams},1649265349,0
{consumergroup=__strimzi-topic-operator-kstreams},1649265354,0
{consumergroup=__strimzi-topic-operator-kstreams},1649265359,0
{consumergroup=__strimzi-topic-operator-kstreams},1649265364,3
{consumergroup=__strimzi-topic-operator-kstreams},1649265369,3
{consumergroup=__strimzi-topic-operator-kstreams},1649265374,3
{consumergroup=__strimzi-topic-operator-kstreams},1649265379,0
{consumergroup=__strimzi-topic-operator-kstreams},1649265384,0
{consumergroup=__strimzi-topic-operator-kstreams},1649265389,0
{consumergroup=__strimzi-topic-operator-kstreams},1649265394,0
{consumergroup=__strimzi-topic-operator-kstreams},1649265399,0
{consumergroup=__strimzi-topic-operator-kstreams},1649265404,0
{consumergroup=__strimzi-topic-operator-kstreams},1649265409,0
{consumergroup=__strimzi-topic-operator-kstreams},1649265414,0
{consumergroup=__strimzi-topic-operator-kstreams},1649265419,0
{consumergroup=__strimzi-topic-operator-kstreams},1649265424,0
{consumergroup=__strimzi-topic-operator-kstreams},1649265429,0
{consumergroup=__strimzi-topic-operator-kstreams},1649265434,0
{consumergroup=__strimzi-topic-operator-kstreams},1649265439,0
{consumergroup=__strimzi-topic-operator-kstreams},1649265444,0
{consumergroup=__strimzi-topic-operator-kstreams},1649265449,0
{consumergroup=__strimzi-topic-operator-kstreams},1649265454,0
{consumergroup=__strimzi-topic-operator-kstreams},1649265459,0
{consumergroup=__strimzi-topic-operator-kstreams},1649265464,0
{consumergroup=__strimzi-topic-operator-kstreams},1649265469,0
{consumergroup=__strimzi-topic-operator-kstreams},1649265474,0
{consumergroup=__strimzi-topic-operator-kstreams},1649265479,0
{consumergroup=__strimzi-topic-operator-kstreams},1649265484,0
{consumergroup=__strimzi-topic-operator-kstreams},1649265489,0
{consumergroup=__strimzi-topic-operator-kstreams},1649265494,0
{consumergroup=__strimzi-topic-operator-kstreams},1649265499,0
{consumergroup=__strimzi-topic-operator-kstreams},1649265504,0
{consumergroup=__strimzi-topic-operator-kstreams},1649265509,0
{consumergroup=__strimzi-topic-operator-kstreams},1649265514,0
{consumergroup=__strimzi-topic-operator-kstreams},1649265519,0
{consumergroup=__strimzi-topic-operator-kstreams},1649265524,0
{consumergroup=__strimzi-topic-operator-kstreams},1649265529,0
{consumergroup=__strimzi-topic-operator-kstreams},1649265534,0
{consumergroup=__strimzi-topic-operator-kstreams},1649265539,0
{consumergroup=__strimzi-topic-operator-kstreams},1649265544,0
{consumergroup=__strimzi-topic-operator-kstreams},1649265549,0
{consumergroup=__strimzi-topic-operator-kstreams},1649265554,0
{consumergroup=__strimzi-topic-operator-kstreams},1649265559,0
{consumergroup=__strimzi-topic-operator-kstreams},1649265564,0
{consumergroup=__strimzi-topic-operator-kstreams},1649265569,0
{consumergroup=__strimzi-topic-operator-kstreams},1649265574,0
{consumergroup=__strimzi-topic-operator-kstreams},1649265579,0
{consumergroup=__strimzi-topic-operator-kstreams},1649265584,0
{consumergroup=__strimzi-topic-operator-kstreams},1649265589,0
{consumergroup=__strimzi-topic-operator-kstreams},1649265594,0
{consumergroup=__strimzi-topic-operator-kstreams},1649265599,0
{consumergroup=__strimzi-topic-operator-kstreams},1649265604,0
{consumergroup=__strimzi-topic-operator-kstreams},1649265609,0
{consumergroup=__strimzi-topic-operator-kstreams},1649265614,0
{consumergroup=__strimzi-topic-operator-kstreams},1649265619,0
{consumergroup=__strimzi-topic-operator-kstreams},1649265624,0
{consumergroup=__strimzi-topic-operator-kstreams},1649265629,0
{consumergroup=__strimzi-topic-operator-kstreams},1649265634,0
{consumergroup=__strimzi-topic-operator-kstreams},1649265639,0
{consumergroup=__strimzi-topic-operator-kstreams},1649265644,0
{consumergroup=__strimzi-topic-operator-kstreams},1649265649,0
{consumergroup=__strimzi-topic-operator-kstreams},1649265654,0
{consumergroup=__strimzi-topic-operator-kstreams},1649265659,0
{consumergroup=__strimzi-topic-operator-kstreams},1649265664,0
{consumergroup=__strimzi-topic-operator-kstreams},1649265669,0
{consumergroup=__strimzi-topic-operator-kstreams},1649265674,0
{consumergroup=__strimzi-topic-operator-kstreams},1649265679,0
{consumergroup=__strimzi-topic-operator-kstreams},1649265684,0
{consumergroup=__strimzi-topic-operator-kstreams},1649265689,0
{consumergroup=__strimzi-topic-operator-kstreams},1649265694,0
{consumergroup=__strimzi-topic-operator-kstreams},1649265699,0
{consumergroup=__strimzi-topic-operator-kstreams},1649265704,0
{consumergroup=__strimzi-topic-operator-kstreams},1649265709,0
{consumergroup=__strimzi-topic-operator-kstreams},1649265714,0
{consumergroup=__strimzi-topic-operator-kstreams},1649265719,0
{consumergroup=__strimzi-topic-operator-kstreams},1649265724,0
{consumergroup=__strimzi-topic-operator-kstreams},1649265729,0
{consumergroup=__strimzi-topic-operator-kstreams},1649265734,0
{consumergroup=__strimzi-topic-operator-kstreams},1649265739,0
{consumergroup=__strimzi-topic-operator-kstreams},1649265744,0
{consumergroup=__strimzi-topic-operator-kstreams},1649265749,0
{consumergroup=__strimzi-topic-operator-kstreams},1649265754,0
{consumergroup=__strimzi-topic-operator-kstreams},1649265759,0
{consumergroup=__strimzi-topic-operator-kstreams},1649265764,0
{consumergroup=__strimzi-topic-operator-kstreams},1649265769,0
{consumergroup=__strimzi-topic-operator-kstreams},1649265774,0
{consumergroup=__strimzi-topic-operator-kstreams},1649265779,0
{consumergroup=__strimzi-topic-operator-kstreams},1649265784,0
{consumergroup=__strimzi-topic-operator-kstreams},1649265789,0
{consumergroup=__strimzi-topic-operator-kstreams},1649265794,0
{consumergroup=__strimzi-topic-operator-kstreams},1649265799,0
{consumergroup=__strimzi-topic-operator-kstreams},1649265804,0
{consumergroup=__strimzi-topic-operator-kstreams},1649265809,0
{consumergroup=__strimzi-topic-operator-kstreams},1649265814,0
{consumergroup=__strimzi-topic-operator-kstreams},1649265819,0
{consumergroup=__strimzi-topic-operator-kstreams},1649265824,0
