labels,timestamp,value
{},1649251157,0
{},1649251162,0
{},1649251167,0
{},1649251172,0
{},1649251177,0
{},1649251182,0
{},1649251187,0
{},1649251192,0
{},1649251197,0
{},1649251202,0
{},1649251207,0
{},1649251212,0
{},1649251217,0
{},1649251222,0
{},1649251227,0
{},1649251232,0
{},1649251237,0
{},1649251242,0
{},1649251247,0
{},1649251252,0
{},1649251257,0
{},1649251262,0
{},1649251267,0
{},1649251272,0
{},1649251277,0
{},1649251282,0
{},1649251287,0
{},1649251292,0
{},1649251297,0
{},1649251302,0
{},1649251307,0
{},1649251312,0
{},1649251317,0
{},1649251322,0
{},1649251327,0
{},1649251332,0
{},1649251337,0
{},1649251342,0
{},1649251347,0
