labels,timestamp,value
{consumergroup=__strimzi-topic-operator-kstreams},1649242701,0
{consumergroup=__strimzi-topic-operator-kstreams},1649242706,8
{consumergroup=__strimzi-topic-operator-kstreams},1649242711,8
{consumergroup=__strimzi-topic-operator-kstreams},1649242716,8
{consumergroup=__strimzi-topic-operator-kstreams},1649242721,8
{consumergroup=__strimzi-topic-operator-kstreams},1649242726,8
{consumergroup=__strimzi-topic-operator-kstreams},1649242731,8
{consumergroup=__strimzi-topic-operator-kstreams},1649242736,0
{consumergroup=__strimzi-topic-operator-kstreams},1649242741,0
{consumergroup=__strimzi-topic-operator-kstreams},1649242746,0
{consumergroup=__strimzi-topic-operator-kstreams},1649242751,0
{consumergroup=__strimzi-topic-operator-kstreams},1649242756,0
{consumergroup=__strimzi-topic-operator-kstreams},1649242761,0
{consumergroup=__strimzi-topic-operator-kstreams},1649242766,3
{consumergroup=__strimzi-topic-operator-kstreams},1649242771,3
{consumergroup=__strimzi-topic-operator-kstreams},1649242776,3
{consumergroup=__strimzi-topic-operator-kstreams},1649242781,3
{consumergroup=__strimzi-topic-operator-kstreams},1649242786,3
{consumergroup=__strimzi-topic-operator-kstreams},1649242791,3
{consumergroup=__strimzi-topic-operator-kstreams},1649242796,0
{consumergroup=__strimzi-topic-operator-kstreams},1649242801,0
{consumergroup=__strimzi-topic-operator-kstreams},1649242806,0
{consumergroup=__strimzi-topic-operator-kstreams},1649242811,0
{consumergroup=__strimzi-topic-operator-kstreams},1649242816,0
{consumergroup=__strimzi-topic-operator-kstreams},1649242821,0
{consumergroup=__strimzi-topic-operator-kstreams},1649242826,0
{consumergroup=__strimzi-topic-operator-kstreams},1649242831,0
{consumergroup=__strimzi-topic-operator-kstreams},1649242836,0
{consumergroup=__strimzi-topic-operator-kstreams},1649242841,0
{consumergroup=__strimzi-topic-operator-kstreams},1649242846,0
{consumergroup=__strimzi-topic-operator-kstreams},1649242851,0
{consumergroup=__strimzi-topic-operator-kstreams},1649242856,0
{consumergroup=__strimzi-topic-operator-kstreams},1649242861,0
{consumergroup=__strimzi-topic-operator-kstreams},1649242866,0
{consumergroup=__strimzi-topic-operator-kstreams},1649242871,0
{consumergroup=__strimzi-topic-operator-kstreams},1649242876,0
{consumergroup=__strimzi-topic-operator-kstreams},1649242881,0
{consumergroup=__strimzi-topic-operator-kstreams},1649242886,0
{consumergroup=__strimzi-topic-operator-kstreams},1649242891,0
{consumergroup=__strimzi-topic-operator-kstreams},1649242896,0
{consumergroup=__strimzi-topic-operator-kstreams},1649242901,0
{consumergroup=__strimzi-topic-operator-kstreams},1649242906,0
{consumergroup=__strimzi-topic-operator-kstreams},1649242911,0
{consumergroup=__strimzi-topic-operator-kstreams},1649242916,0
{consumergroup=__strimzi-topic-operator-kstreams},1649242921,0
{consumergroup=__strimzi-topic-operator-kstreams},1649242926,0
{consumergroup=__strimzi-topic-operator-kstreams},1649242931,0
{consumergroup=__strimzi-topic-operator-kstreams},1649242936,0
{consumergroup=__strimzi-topic-operator-kstreams},1649242941,0
{consumergroup=__strimzi-topic-operator-kstreams},1649242946,0
{consumergroup=__strimzi-topic-operator-kstreams},1649242951,0
{consumergroup=__strimzi-topic-operator-kstreams},1649242956,0
{consumergroup=__strimzi-topic-operator-kstreams},1649242961,0
{consumergroup=__strimzi-topic-operator-kstreams},1649242966,0
{consumergroup=__strimzi-topic-operator-kstreams},1649242971,0
{consumergroup=__strimzi-topic-operator-kstreams},1649242976,0
{consumergroup=__strimzi-topic-operator-kstreams},1649242981,0
{consumergroup=__strimzi-topic-operator-kstreams},1649242986,0
{consumergroup=__strimzi-topic-operator-kstreams},1649242991,0
{consumergroup=__strimzi-topic-operator-kstreams},1649242996,0
{consumergroup=__strimzi-topic-operator-kstreams},1649243001,0
{consumergroup=__strimzi-topic-operator-kstreams},1649243006,0
{consumergroup=__strimzi-topic-operator-kstreams},1649243011,0
{consumergroup=__strimzi-topic-operator-kstreams},1649243016,0
{consumergroup=__strimzi-topic-operator-kstreams},1649243021,0
{consumergroup=__strimzi-topic-operator-kstreams},1649243026,0
{consumergroup=__strimzi-topic-operator-kstreams},1649243031,0
{consumergroup=__strimzi-topic-operator-kstreams},1649243036,0
{consumergroup=__strimzi-topic-operator-kstreams},1649243041,0
{consumergroup=__strimzi-topic-operator-kstreams},1649243046,0
{consumergroup=__strimzi-topic-operator-kstreams},1649243051,0
{consumergroup=__strimzi-topic-operator-kstreams},1649243056,0
{consumergroup=__strimzi-topic-operator-kstreams},1649243061,0
{consumergroup=__strimzi-topic-operator-kstreams},1649243066,0
{consumergroup=__strimzi-topic-operator-kstreams},1649243071,0
{consumergroup=__strimzi-topic-operator-kstreams},1649243076,0
{consumergroup=__strimzi-topic-operator-kstreams},1649243081,0
{consumergroup=__strimzi-topic-operator-kstreams},1649243086,0
{consumergroup=__strimzi-topic-operator-kstreams},1649243091,0
{consumergroup=__strimzi-topic-operator-kstreams},1649243096,0
{consumergroup=__strimzi-topic-operator-kstreams},1649243101,0
{consumergroup=__strimzi-topic-operator-kstreams},1649243106,0
{consumergroup=__strimzi-topic-operator-kstreams},1649243111,0
{consumergroup=__strimzi-topic-operator-kstreams},1649243116,0
{consumergroup=__strimzi-topic-operator-kstreams},1649243121,0
{consumergroup=__strimzi-topic-operator-kstreams},1649243126,0
{consumergroup=__strimzi-topic-operator-kstreams},1649243131,0
{consumergroup=__strimzi-topic-operator-kstreams},1649243136,0
{consumergroup=__strimzi-topic-operator-kstreams},1649243141,0
{consumergroup=__strimzi-topic-operator-kstreams},1649243146,0
{consumergroup=__strimzi-topic-operator-kstreams},1649243151,0
{consumergroup=__strimzi-topic-operator-kstreams},1649243156,0
{consumergroup=__strimzi-topic-operator-kstreams},1649243161,0
{consumergroup=__strimzi-topic-operator-kstreams},1649243166,0
{consumergroup=__strimzi-topic-operator-kstreams},1649243171,0
{consumergroup=__strimzi-topic-operator-kstreams},1649243176,0
{consumergroup=__strimzi-topic-operator-kstreams},1649243181,0
{consumergroup=__strimzi-topic-operator-kstreams},1649243186,0
{consumergroup=__strimzi-topic-operator-kstreams},1649243191,0
{consumergroup=__strimzi-topic-operator-kstreams},1649243196,0
{consumergroup=__strimzi-topic-operator-kstreams},1649243201,0
