labels,timestamp,value
{},1649290139,0
{},1649290144,0
{},1649290149,0
{},1649290154,0
{},1649290159,0
{},1649290164,0
{},1649290169,0
{},1649290174,0
{},1649290179,0
{},1649290184,0
{},1649290189,0
{},1649290194,0
{},1649290199,0
{},1649290204,0
