labels,timestamp,value
{consumergroup=__strimzi-topic-operator-kstreams},1649245520,3
{consumergroup=__strimzi-topic-operator-kstreams},1649245525,3
{consumergroup=__strimzi-topic-operator-kstreams},1649245530,3
{consumergroup=__strimzi-topic-operator-kstreams},1649245535,0
{consumergroup=__strimzi-topic-operator-kstreams},1649245540,0
{consumergroup=__strimzi-topic-operator-kstreams},1649245545,0
{consumergroup=__strimzi-topic-operator-kstreams},1649245550,0
{consumergroup=__strimzi-topic-operator-kstreams},1649245555,0
{consumergroup=__strimzi-topic-operator-kstreams},1649245560,0
{consumergroup=__strimzi-topic-operator-kstreams},1649245565,0
{consumergroup=__strimzi-topic-operator-kstreams},1649245570,0
{consumergroup=__strimzi-topic-operator-kstreams},1649245575,0
{consumergroup=__strimzi-topic-operator-kstreams},1649245580,0
{consumergroup=__strimzi-topic-operator-kstreams},1649245585,0
{consumergroup=__strimzi-topic-operator-kstreams},1649245590,0
{consumergroup=__strimzi-topic-operator-kstreams},1649245595,0
{consumergroup=__strimzi-topic-operator-kstreams},1649245600,0
{consumergroup=__strimzi-topic-operator-kstreams},1649245605,0
{consumergroup=__strimzi-topic-operator-kstreams},1649245610,0
{consumergroup=__strimzi-topic-operator-kstreams},1649245615,0
{consumergroup=__strimzi-topic-operator-kstreams},1649245620,0
{consumergroup=__strimzi-topic-operator-kstreams},1649245625,0
{consumergroup=__strimzi-topic-operator-kstreams},1649245630,0
{consumergroup=__strimzi-topic-operator-kstreams},1649245635,0
{consumergroup=__strimzi-topic-operator-kstreams},1649245640,0
{consumergroup=__strimzi-topic-operator-kstreams},1649245645,0
{consumergroup=__strimzi-topic-operator-kstreams},1649245650,0
{consumergroup=__strimzi-topic-operator-kstreams},1649245655,3
{consumergroup=__strimzi-topic-operator-kstreams},1649245660,3
{consumergroup=__strimzi-topic-operator-kstreams},1649245665,3
{consumergroup=__strimzi-topic-operator-kstreams},1649245670,3
{consumergroup=__strimzi-topic-operator-kstreams},1649245675,3
{consumergroup=__strimzi-topic-operator-kstreams},1649245680,3
{consumergroup=__strimzi-topic-operator-kstreams},1649245685,0
{consumergroup=__strimzi-topic-operator-kstreams},1649245690,0
{consumergroup=__strimzi-topic-operator-kstreams},1649245695,0
{consumergroup=__strimzi-topic-operator-kstreams},1649245700,0
{consumergroup=__strimzi-topic-operator-kstreams},1649245705,0
{consumergroup=__strimzi-topic-operator-kstreams},1649245710,0
{consumergroup=__strimzi-topic-operator-kstreams},1649245715,0
{consumergroup=__strimzi-topic-operator-kstreams},1649245720,0
{consumergroup=__strimzi-topic-operator-kstreams},1649245725,0
{consumergroup=__strimzi-topic-operator-kstreams},1649245730,0
{consumergroup=__strimzi-topic-operator-kstreams},1649245735,0
{consumergroup=__strimzi-topic-operator-kstreams},1649245740,0
{consumergroup=__strimzi-topic-operator-kstreams},1649245745,0
{consumergroup=__strimzi-topic-operator-kstreams},1649245750,0
{consumergroup=__strimzi-topic-operator-kstreams},1649245755,0
{consumergroup=__strimzi-topic-operator-kstreams},1649245760,0
{consumergroup=__strimzi-topic-operator-kstreams},1649245765,0
{consumergroup=__strimzi-topic-operator-kstreams},1649245770,0
{consumergroup=__strimzi-topic-operator-kstreams},1649245775,0
{consumergroup=__strimzi-topic-operator-kstreams},1649245780,0
{consumergroup=__strimzi-topic-operator-kstreams},1649245785,0
{consumergroup=__strimzi-topic-operator-kstreams},1649245790,0
{consumergroup=__strimzi-topic-operator-kstreams},1649245795,0
{consumergroup=__strimzi-topic-operator-kstreams},1649245800,0
{consumergroup=__strimzi-topic-operator-kstreams},1649245805,0
{consumergroup=__strimzi-topic-operator-kstreams},1649245810,0
{consumergroup=__strimzi-topic-operator-kstreams},1649245815,0
{consumergroup=__strimzi-topic-operator-kstreams},1649245820,0
{consumergroup=__strimzi-topic-operator-kstreams},1649245825,0
{consumergroup=__strimzi-topic-operator-kstreams},1649245830,0
{consumergroup=__strimzi-topic-operator-kstreams},1649245835,0
{consumergroup=__strimzi-topic-operator-kstreams},1649245840,0
{consumergroup=__strimzi-topic-operator-kstreams},1649245845,0
{consumergroup=__strimzi-topic-operator-kstreams},1649245850,0
{consumergroup=__strimzi-topic-operator-kstreams},1649245855,0
{consumergroup=__strimzi-topic-operator-kstreams},1649245860,0
{consumergroup=__strimzi-topic-operator-kstreams},1649245865,0
{consumergroup=__strimzi-topic-operator-kstreams},1649245870,0
{consumergroup=__strimzi-topic-operator-kstreams},1649245875,0
{consumergroup=__strimzi-topic-operator-kstreams},1649245880,0
{consumergroup=__strimzi-topic-operator-kstreams},1649245885,0
{consumergroup=__strimzi-topic-operator-kstreams},1649245890,0
{consumergroup=__strimzi-topic-operator-kstreams},1649245895,0
{consumergroup=__strimzi-topic-operator-kstreams},1649245900,0
{consumergroup=__strimzi-topic-operator-kstreams},1649245905,0
{consumergroup=__strimzi-topic-operator-kstreams},1649245910,0
{consumergroup=__strimzi-topic-operator-kstreams},1649245915,0
{consumergroup=__strimzi-topic-operator-kstreams},1649245920,0
{consumergroup=__strimzi-topic-operator-kstreams},1649245925,0
{consumergroup=__strimzi-topic-operator-kstreams},1649245930,0
{consumergroup=__strimzi-topic-operator-kstreams},1649245935,0
{consumergroup=__strimzi-topic-operator-kstreams},1649245940,0
{consumergroup=__strimzi-topic-operator-kstreams},1649245945,0
{consumergroup=__strimzi-topic-operator-kstreams},1649245950,0
{consumergroup=__strimzi-topic-operator-kstreams},1649245955,0
{consumergroup=__strimzi-topic-operator-kstreams},1649245960,0
{consumergroup=__strimzi-topic-operator-kstreams},1649245965,0
{consumergroup=__strimzi-topic-operator-kstreams},1649245970,0
{consumergroup=__strimzi-topic-operator-kstreams},1649245975,0
{consumergroup=__strimzi-topic-operator-kstreams},1649245980,0
{consumergroup=__strimzi-topic-operator-kstreams},1649245985,0
{consumergroup=__strimzi-topic-operator-kstreams},1649245990,0
{consumergroup=__strimzi-topic-operator-kstreams},1649245995,0
{consumergroup=__strimzi-topic-operator-kstreams},1649246000,0
{consumergroup=__strimzi-topic-operator-kstreams},1649246005,0
{consumergroup=__strimzi-topic-operator-kstreams},1649246010,0
{consumergroup=__strimzi-topic-operator-kstreams},1649246015,0
