labels,timestamp,value
{consumergroup=__strimzi-topic-operator-kstreams},1649259089,0
{consumergroup=__strimzi-topic-operator-kstreams},1649259094,0
{consumergroup=__strimzi-topic-operator-kstreams},1649259099,0
{consumergroup=__strimzi-topic-operator-kstreams},1649259104,1
{consumergroup=__strimzi-topic-operator-kstreams},1649259109,1
{consumergroup=__strimzi-topic-operator-kstreams},1649259114,1
{consumergroup=__strimzi-topic-operator-kstreams},1649259119,3
{consumergroup=__strimzi-topic-operator-kstreams},1649259124,3
{consumergroup=__strimzi-topic-operator-kstreams},1649259129,3
{consumergroup=__strimzi-topic-operator-kstreams},1649259134,0
{consumergroup=__strimzi-topic-operator-kstreams},1649259139,0
{consumergroup=__strimzi-topic-operator-kstreams},1649259144,0
{consumergroup=__strimzi-topic-operator-kstreams},1649259149,0
{consumergroup=__strimzi-topic-operator-kstreams},1649259154,0
{consumergroup=__strimzi-topic-operator-kstreams},1649259159,0
{consumergroup=__strimzi-topic-operator-kstreams},1649259164,0
{consumergroup=__strimzi-topic-operator-kstreams},1649259169,0
{consumergroup=__strimzi-topic-operator-kstreams},1649259174,0
{consumergroup=__strimzi-topic-operator-kstreams},1649259179,0
{consumergroup=__strimzi-topic-operator-kstreams},1649259184,0
{consumergroup=__strimzi-topic-operator-kstreams},1649259189,0
{consumergroup=__strimzi-topic-operator-kstreams},1649259194,0
{consumergroup=__strimzi-topic-operator-kstreams},1649259199,0
{consumergroup=__strimzi-topic-operator-kstreams},1649259204,0
{consumergroup=__strimzi-topic-operator-kstreams},1649259209,0
{consumergroup=__strimzi-topic-operator-kstreams},1649259214,0
{consumergroup=__strimzi-topic-operator-kstreams},1649259219,0
{consumergroup=__strimzi-topic-operator-kstreams},1649259224,0
{consumergroup=__strimzi-topic-operator-kstreams},1649259229,0
{consumergroup=__strimzi-topic-operator-kstreams},1649259234,0
{consumergroup=__strimzi-topic-operator-kstreams},1649259239,0
{consumergroup=__strimzi-topic-operator-kstreams},1649259244,0
{consumergroup=__strimzi-topic-operator-kstreams},1649259249,0
{consumergroup=__strimzi-topic-operator-kstreams},1649259254,0
{consumergroup=__strimzi-topic-operator-kstreams},1649259259,0
{consumergroup=__strimzi-topic-operator-kstreams},1649259264,0
{consumergroup=__strimzi-topic-operator-kstreams},1649259269,0
{consumergroup=__strimzi-topic-operator-kstreams},1649259274,0
{consumergroup=__strimzi-topic-operator-kstreams},1649259279,0
{consumergroup=__strimzi-topic-operator-kstreams},1649259284,0
{consumergroup=__strimzi-topic-operator-kstreams},1649259289,0
{consumergroup=__strimzi-topic-operator-kstreams},1649259294,0
{consumergroup=__strimzi-topic-operator-kstreams},1649259299,0
{consumergroup=__strimzi-topic-operator-kstreams},1649259304,0
{consumergroup=__strimzi-topic-operator-kstreams},1649259309,0
{consumergroup=__strimzi-topic-operator-kstreams},1649259314,0
{consumergroup=__strimzi-topic-operator-kstreams},1649259319,0
{consumergroup=__strimzi-topic-operator-kstreams},1649259324,0
{consumergroup=__strimzi-topic-operator-kstreams},1649259329,0
{consumergroup=__strimzi-topic-operator-kstreams},1649259334,0
{consumergroup=__strimzi-topic-operator-kstreams},1649259339,0
{consumergroup=__strimzi-topic-operator-kstreams},1649259344,0
{consumergroup=__strimzi-topic-operator-kstreams},1649259349,0
{consumergroup=__strimzi-topic-operator-kstreams},1649259354,0
{consumergroup=__strimzi-topic-operator-kstreams},1649259359,0
{consumergroup=__strimzi-topic-operator-kstreams},1649259364,0
{consumergroup=__strimzi-topic-operator-kstreams},1649259369,0
{consumergroup=__strimzi-topic-operator-kstreams},1649259374,0
{consumergroup=__strimzi-topic-operator-kstreams},1649259379,0
{consumergroup=__strimzi-topic-operator-kstreams},1649259384,0
{consumergroup=__strimzi-topic-operator-kstreams},1649259389,0
{consumergroup=__strimzi-topic-operator-kstreams},1649259394,0
{consumergroup=__strimzi-topic-operator-kstreams},1649259399,0
{consumergroup=__strimzi-topic-operator-kstreams},1649259404,0
{consumergroup=__strimzi-topic-operator-kstreams},1649259409,0
{consumergroup=__strimzi-topic-operator-kstreams},1649259414,0
{consumergroup=__strimzi-topic-operator-kstreams},1649259419,0
{consumergroup=__strimzi-topic-operator-kstreams},1649259424,0
{consumergroup=__strimzi-topic-operator-kstreams},1649259429,0
{consumergroup=__strimzi-topic-operator-kstreams},1649259434,0
{consumergroup=__strimzi-topic-operator-kstreams},1649259439,0
{consumergroup=__strimzi-topic-operator-kstreams},1649259444,0
{consumergroup=__strimzi-topic-operator-kstreams},1649259449,0
{consumergroup=__strimzi-topic-operator-kstreams},1649259454,0
{consumergroup=__strimzi-topic-operator-kstreams},1649259459,0
{consumergroup=__strimzi-topic-operator-kstreams},1649259464,0
{consumergroup=__strimzi-topic-operator-kstreams},1649259469,0
{consumergroup=__strimzi-topic-operator-kstreams},1649259474,0
{consumergroup=__strimzi-topic-operator-kstreams},1649259479,0
{consumergroup=__strimzi-topic-operator-kstreams},1649259484,0
{consumergroup=__strimzi-topic-operator-kstreams},1649259489,0
{consumergroup=__strimzi-topic-operator-kstreams},1649259494,0
{consumergroup=__strimzi-topic-operator-kstreams},1649259499,0
{consumergroup=__strimzi-topic-operator-kstreams},1649259504,0
{consumergroup=__strimzi-topic-operator-kstreams},1649259509,0
{consumergroup=__strimzi-topic-operator-kstreams},1649259514,0
{consumergroup=__strimzi-topic-operator-kstreams},1649259519,0
{consumergroup=__strimzi-topic-operator-kstreams},1649259524,0
{consumergroup=__strimzi-topic-operator-kstreams},1649259529,0
{consumergroup=__strimzi-topic-operator-kstreams},1649259534,0
{consumergroup=__strimzi-topic-operator-kstreams},1649259539,0
{consumergroup=__strimzi-topic-operator-kstreams},1649259544,0
{consumergroup=__strimzi-topic-operator-kstreams},1649259549,0
{consumergroup=__strimzi-topic-operator-kstreams},1649259554,0
{consumergroup=__strimzi-topic-operator-kstreams},1649259559,0
{consumergroup=__strimzi-topic-operator-kstreams},1649259564,0
{consumergroup=__strimzi-topic-operator-kstreams},1649259569,0
{consumergroup=__strimzi-topic-operator-kstreams},1649259574,0
{consumergroup=__strimzi-topic-operator-kstreams},1649259579,0
