labels,timestamp,value
{},1649279972,0
{},1649279977,0
{},1649279982,0
{},1649279987,0
{},1649279992,0
{},1649279997,0
{},1649280002,0
{},1649280007,0
{},1649280012,0
{},1649280017,0
{},1649280022,0
{},1649280027,0
{},1649280032,0
{},1649280037,0
{},1649280042,0
