labels,timestamp,value
{},1649273228,0
{},1649273233,0
{},1649273238,0
{},1649273243,0
{},1649273248,0
{},1649273253,0
{},1649273258,0
{},1649273263,0
{},1649273268,0
{},1649273273,0
{},1649273278,0
{},1649273283,0
{},1649273288,0
{},1649273293,0
