labels,timestamp,value
{},1649252284,0
{},1649252289,0
{},1649252294,0
{},1649252299,0
{},1649252304,0
{},1649252309,0
{},1649252314,0
{},1649252319,0
{},1649252324,0
{},1649252329,0
{},1649252334,0
{},1649252339,0
{},1649252344,0
{},1649252349,0
