labels,timestamp,value
{consumergroup=__strimzi-topic-operator-kstreams},1649253981,8
{consumergroup=__strimzi-topic-operator-kstreams},1649253986,8
{consumergroup=__strimzi-topic-operator-kstreams},1649253991,8
{consumergroup=__strimzi-topic-operator-kstreams},1649253996,8
{consumergroup=__strimzi-topic-operator-kstreams},1649254001,8
{consumergroup=__strimzi-topic-operator-kstreams},1649254006,8
{consumergroup=__strimzi-topic-operator-kstreams},1649254011,0
{consumergroup=__strimzi-topic-operator-kstreams},1649254016,0
{consumergroup=__strimzi-topic-operator-kstreams},1649254021,0
{consumergroup=__strimzi-topic-operator-kstreams},1649254026,0
{consumergroup=__strimzi-topic-operator-kstreams},1649254031,0
{consumergroup=__strimzi-topic-operator-kstreams},1649254036,0
{consumergroup=__strimzi-topic-operator-kstreams},1649254041,0
{consumergroup=__strimzi-topic-operator-kstreams},1649254046,0
{consumergroup=__strimzi-topic-operator-kstreams},1649254051,0
{consumergroup=__strimzi-topic-operator-kstreams},1649254056,0
{consumergroup=__strimzi-topic-operator-kstreams},1649254061,0
{consumergroup=__strimzi-topic-operator-kstreams},1649254066,0
{consumergroup=__strimzi-topic-operator-kstreams},1649254071,0
{consumergroup=__strimzi-topic-operator-kstreams},1649254076,0
{consumergroup=__strimzi-topic-operator-kstreams},1649254081,0
{consumergroup=__strimzi-topic-operator-kstreams},1649254086,0
{consumergroup=__strimzi-topic-operator-kstreams},1649254091,0
{consumergroup=__strimzi-topic-operator-kstreams},1649254096,0
{consumergroup=__strimzi-topic-operator-kstreams},1649254101,0
{consumergroup=__strimzi-topic-operator-kstreams},1649254106,0
{consumergroup=__strimzi-topic-operator-kstreams},1649254111,0
{consumergroup=__strimzi-topic-operator-kstreams},1649254116,0
{consumergroup=__strimzi-topic-operator-kstreams},1649254121,0
{consumergroup=__strimzi-topic-operator-kstreams},1649254126,0
{consumergroup=__strimzi-topic-operator-kstreams},1649254131,0
{consumergroup=__strimzi-topic-operator-kstreams},1649254136,0
{consumergroup=__strimzi-topic-operator-kstreams},1649254141,0
{consumergroup=__strimzi-topic-operator-kstreams},1649254146,0
{consumergroup=__strimzi-topic-operator-kstreams},1649254151,0
{consumergroup=__strimzi-topic-operator-kstreams},1649254156,0
{consumergroup=__strimzi-topic-operator-kstreams},1649254161,0
{consumergroup=__strimzi-topic-operator-kstreams},1649254166,0
{consumergroup=__strimzi-topic-operator-kstreams},1649254171,0
{consumergroup=__strimzi-topic-operator-kstreams},1649254176,0
{consumergroup=__strimzi-topic-operator-kstreams},1649254181,0
{consumergroup=__strimzi-topic-operator-kstreams},1649254186,0
{consumergroup=__strimzi-topic-operator-kstreams},1649254191,0
{consumergroup=__strimzi-topic-operator-kstreams},1649254196,0
{consumergroup=__strimzi-topic-operator-kstreams},1649254201,0
{consumergroup=__strimzi-topic-operator-kstreams},1649254206,0
{consumergroup=__strimzi-topic-operator-kstreams},1649254211,0
{consumergroup=__strimzi-topic-operator-kstreams},1649254216,0
{consumergroup=__strimzi-topic-operator-kstreams},1649254221,0
{consumergroup=__strimzi-topic-operator-kstreams},1649254226,0
{consumergroup=__strimzi-topic-operator-kstreams},1649254231,0
{consumergroup=__strimzi-topic-operator-kstreams},1649254236,0
{consumergroup=__strimzi-topic-operator-kstreams},1649254241,0
{consumergroup=__strimzi-topic-operator-kstreams},1649254246,0
{consumergroup=__strimzi-topic-operator-kstreams},1649254251,0
{consumergroup=__strimzi-topic-operator-kstreams},1649254256,0
{consumergroup=__strimzi-topic-operator-kstreams},1649254261,0
{consumergroup=__strimzi-topic-operator-kstreams},1649254266,0
{consumergroup=__strimzi-topic-operator-kstreams},1649254271,0
{consumergroup=__strimzi-topic-operator-kstreams},1649254276,0
{consumergroup=__strimzi-topic-operator-kstreams},1649254281,0
{consumergroup=__strimzi-topic-operator-kstreams},1649254286,0
{consumergroup=__strimzi-topic-operator-kstreams},1649254291,0
{consumergroup=__strimzi-topic-operator-kstreams},1649254296,0
{consumergroup=__strimzi-topic-operator-kstreams},1649254301,0
{consumergroup=__strimzi-topic-operator-kstreams},1649254306,0
{consumergroup=__strimzi-topic-operator-kstreams},1649254311,0
{consumergroup=__strimzi-topic-operator-kstreams},1649254316,0
{consumergroup=__strimzi-topic-operator-kstreams},1649254321,0
{consumergroup=__strimzi-topic-operator-kstreams},1649254326,0
{consumergroup=__strimzi-topic-operator-kstreams},1649254331,0
{consumergroup=__strimzi-topic-operator-kstreams},1649254336,0
{consumergroup=__strimzi-topic-operator-kstreams},1649254341,0
{consumergroup=__strimzi-topic-operator-kstreams},1649254346,0
{consumergroup=__strimzi-topic-operator-kstreams},1649254351,0
{consumergroup=__strimzi-topic-operator-kstreams},1649254356,0
{consumergroup=__strimzi-topic-operator-kstreams},1649254361,0
{consumergroup=__strimzi-topic-operator-kstreams},1649254366,0
{consumergroup=__strimzi-topic-operator-kstreams},1649254371,0
{consumergroup=__strimzi-topic-operator-kstreams},1649254376,0
{consumergroup=__strimzi-topic-operator-kstreams},1649254381,0
{consumergroup=__strimzi-topic-operator-kstreams},1649254386,0
{consumergroup=__strimzi-topic-operator-kstreams},1649254391,0
{consumergroup=__strimzi-topic-operator-kstreams},1649254396,0
{consumergroup=__strimzi-topic-operator-kstreams},1649254401,0
{consumergroup=__strimzi-topic-operator-kstreams},1649254406,0
{consumergroup=__strimzi-topic-operator-kstreams},1649254411,0
{consumergroup=__strimzi-topic-operator-kstreams},1649254416,0
{consumergroup=__strimzi-topic-operator-kstreams},1649254421,0
{consumergroup=__strimzi-topic-operator-kstreams},1649254426,0
{consumergroup=__strimzi-topic-operator-kstreams},1649254431,0
{consumergroup=__strimzi-topic-operator-kstreams},1649254436,0
{consumergroup=__strimzi-topic-operator-kstreams},1649254441,0
{consumergroup=__strimzi-topic-operator-kstreams},1649254446,0
{consumergroup=__strimzi-topic-operator-kstreams},1649254451,0
{consumergroup=__strimzi-topic-operator-kstreams},1649254456,0
{consumergroup=__strimzi-topic-operator-kstreams},1649254461,0
{consumergroup=__strimzi-topic-operator-kstreams},1649254466,0
{consumergroup=__strimzi-topic-operator-kstreams},1649254471,0
{consumergroup=__strimzi-topic-operator-kstreams},1649254476,0
