labels,timestamp,value
{},1649257385,0
{},1649257390,0
{},1649257395,0
{},1649257400,0
{},1649257405,0
{},1649257410,0
{},1649257415,0
{},1649257420,0
{},1649257425,0
{},1649257430,0
{},1649257435,0
{},1649257440,0
{},1649257445,0
{},1649257450,0
{},1649257455,0
