labels,timestamp,value
{consumergroup=__strimzi-topic-operator-kstreams},1651772073,11
{consumergroup=__strimzi-topic-operator-kstreams},1651772078,11
{consumergroup=__strimzi-topic-operator-kstreams},1651772083,11
{consumergroup=__strimzi-topic-operator-kstreams},1651772088,3
{consumergroup=__strimzi-topic-operator-kstreams},1651772093,3
{consumergroup=__strimzi-topic-operator-kstreams},1651772098,3
{consumergroup=__strimzi-topic-operator-kstreams},1651772103,3
{consumergroup=__strimzi-topic-operator-kstreams},1651772108,3
{consumergroup=__strimzi-topic-operator-kstreams},1651772113,3
{consumergroup=__strimzi-topic-operator-kstreams},1651772118,0
{consumergroup=__strimzi-topic-operator-kstreams},1651772123,0
{consumergroup=__strimzi-topic-operator-kstreams},1651772128,0
{consumergroup=__strimzi-topic-operator-kstreams},1651772133,0
{consumergroup=__strimzi-topic-operator-kstreams},1651772138,0
{consumergroup=__strimzi-topic-operator-kstreams},1651772143,0
{consumergroup=__strimzi-topic-operator-kstreams},1651772148,0
{consumergroup=__strimzi-topic-operator-kstreams},1651772153,0
{consumergroup=__strimzi-topic-operator-kstreams},1651772158,0
{consumergroup=__strimzi-topic-operator-kstreams},1651772163,0
{consumergroup=__strimzi-topic-operator-kstreams},1651772168,0
{consumergroup=__strimzi-topic-operator-kstreams},1651772173,0
{consumergroup=__strimzi-topic-operator-kstreams},1651772178,0
{consumergroup=__strimzi-topic-operator-kstreams},1651772183,0
{consumergroup=__strimzi-topic-operator-kstreams},1651772188,0
{consumergroup=__strimzi-topic-operator-kstreams},1651772193,0
{consumergroup=__strimzi-topic-operator-kstreams},1651772198,0
{consumergroup=__strimzi-topic-operator-kstreams},1651772203,0
{consumergroup=__strimzi-topic-operator-kstreams},1651772208,0
{consumergroup=__strimzi-topic-operator-kstreams},1651772213,0
{consumergroup=__strimzi-topic-operator-kstreams},1651772218,0
{consumergroup=__strimzi-topic-operator-kstreams},1651772223,0
{consumergroup=__strimzi-topic-operator-kstreams},1651772228,0
{consumergroup=__strimzi-topic-operator-kstreams},1651772233,0
{consumergroup=__strimzi-topic-operator-kstreams},1651772238,0
{consumergroup=__strimzi-topic-operator-kstreams},1651772243,0
{consumergroup=__strimzi-topic-operator-kstreams},1651772248,0
{consumergroup=__strimzi-topic-operator-kstreams},1651772253,0
{consumergroup=__strimzi-topic-operator-kstreams},1651772258,0
{consumergroup=__strimzi-topic-operator-kstreams},1651772263,0
{consumergroup=__strimzi-topic-operator-kstreams},1651772268,0
{consumergroup=__strimzi-topic-operator-kstreams},1651772273,0
{consumergroup=__strimzi-topic-operator-kstreams},1651772278,0
{consumergroup=__strimzi-topic-operator-kstreams},1651772283,0
{consumergroup=__strimzi-topic-operator-kstreams},1651772288,0
{consumergroup=__strimzi-topic-operator-kstreams},1651772293,0
{consumergroup=__strimzi-topic-operator-kstreams},1651772298,0
{consumergroup=__strimzi-topic-operator-kstreams},1651772303,0
{consumergroup=__strimzi-topic-operator-kstreams},1651772308,0
{consumergroup=__strimzi-topic-operator-kstreams},1651772313,0
{consumergroup=__strimzi-topic-operator-kstreams},1651772318,0
{consumergroup=__strimzi-topic-operator-kstreams},1651772323,0
{consumergroup=__strimzi-topic-operator-kstreams},1651772328,0
{consumergroup=__strimzi-topic-operator-kstreams},1651772333,0
{consumergroup=__strimzi-topic-operator-kstreams},1651772338,0
{consumergroup=__strimzi-topic-operator-kstreams},1651772343,0
{consumergroup=__strimzi-topic-operator-kstreams},1651772348,0
{consumergroup=__strimzi-topic-operator-kstreams},1651772353,0
{consumergroup=__strimzi-topic-operator-kstreams},1651772358,0
{consumergroup=__strimzi-topic-operator-kstreams},1651772363,0
{consumergroup=__strimzi-topic-operator-kstreams},1651772368,0
{consumergroup=__strimzi-topic-operator-kstreams},1651772373,0
{consumergroup=__strimzi-topic-operator-kstreams},1651772378,0
{consumergroup=__strimzi-topic-operator-kstreams},1651772383,0
{consumergroup=__strimzi-topic-operator-kstreams},1651772388,0
{consumergroup=__strimzi-topic-operator-kstreams},1651772393,0
{consumergroup=__strimzi-topic-operator-kstreams},1651772398,0
{consumergroup=__strimzi-topic-operator-kstreams},1651772403,0
{consumergroup=__strimzi-topic-operator-kstreams},1651772408,0
{consumergroup=__strimzi-topic-operator-kstreams},1651772413,0
{consumergroup=__strimzi-topic-operator-kstreams},1651772418,0
{consumergroup=__strimzi-topic-operator-kstreams},1651772423,0
{consumergroup=__strimzi-topic-operator-kstreams},1651772428,0
{consumergroup=__strimzi-topic-operator-kstreams},1651772433,0
{consumergroup=__strimzi-topic-operator-kstreams},1651772438,0
{consumergroup=__strimzi-topic-operator-kstreams},1651772443,0
{consumergroup=__strimzi-topic-operator-kstreams},1651772448,0
{consumergroup=__strimzi-topic-operator-kstreams},1651772453,0
{consumergroup=__strimzi-topic-operator-kstreams},1651772458,0
{consumergroup=__strimzi-topic-operator-kstreams},1651772463,0
{consumergroup=__strimzi-topic-operator-kstreams},1651772468,0
{consumergroup=__strimzi-topic-operator-kstreams},1651772473,0
{consumergroup=__strimzi-topic-operator-kstreams},1651772478,0
{consumergroup=__strimzi-topic-operator-kstreams},1651772483,0
{consumergroup=__strimzi-topic-operator-kstreams},1651772488,0
{consumergroup=__strimzi-topic-operator-kstreams},1651772493,0
{consumergroup=__strimzi-topic-operator-kstreams},1651772498,0
{consumergroup=__strimzi-topic-operator-kstreams},1651772503,0
{consumergroup=__strimzi-topic-operator-kstreams},1651772508,0
{consumergroup=__strimzi-topic-operator-kstreams},1651772513,0
{consumergroup=trace-service},1651772118,125877
{consumergroup=trace-service},1651772123,125877
{consumergroup=trace-service},1651772128,125877
{consumergroup=trace-service},1651772133,113617
{consumergroup=trace-service},1651772138,113617
{consumergroup=trace-service},1651772143,113617
{consumergroup=trace-service},1651772148,268334
{consumergroup=trace-service},1651772153,268334
{consumergroup=trace-service},1651772158,268334
{consumergroup=trace-service},1651772163,428459
{consumergroup=trace-service},1651772168,428459
{consumergroup=trace-service},1651772173,428459
{consumergroup=trace-service},1651772178,444791
{consumergroup=trace-service},1651772183,444791
{consumergroup=trace-service},1651772188,444791
{consumergroup=trace-service},1651772193,259047
{consumergroup=trace-service},1651772198,259047
{consumergroup=trace-service},1651772203,259047
{consumergroup=trace-service},1651772208,236093
{consumergroup=trace-service},1651772213,236093
{consumergroup=trace-service},1651772218,236093
{consumergroup=trace-service},1651772223,115539
{consumergroup=trace-service},1651772228,115539
{consumergroup=trace-service},1651772233,115539
{consumergroup=trace-service},1651772238,144377
{consumergroup=trace-service},1651772243,144377
{consumergroup=trace-service},1651772248,144377
{consumergroup=trace-service},1651772253,117580
{consumergroup=trace-service},1651772258,117580
{consumergroup=trace-service},1651772263,117580
{consumergroup=trace-service},1651772268,293694
{consumergroup=trace-service},1651772273,293694
{consumergroup=trace-service},1651772278,293694
{consumergroup=trace-service},1651772283,110642
{consumergroup=trace-service},1651772288,110642
{consumergroup=trace-service},1651772293,110642
{consumergroup=trace-service},1651772298,156553
{consumergroup=trace-service},1651772303,156553
{consumergroup=trace-service},1651772308,156553
{consumergroup=trace-service},1651772313,95665
{consumergroup=trace-service},1651772318,95665
{consumergroup=trace-service},1651772323,95665
{consumergroup=trace-service},1651772328,269566
{consumergroup=trace-service},1651772333,269566
{consumergroup=trace-service},1651772338,269566
{consumergroup=trace-service},1651772343,136132
{consumergroup=trace-service},1651772348,136132
{consumergroup=trace-service},1651772353,136132
{consumergroup=trace-service},1651772358,84721
{consumergroup=trace-service},1651772363,84721
{consumergroup=trace-service},1651772368,84721
{consumergroup=trace-service},1651772373,101429
{consumergroup=trace-service},1651772378,101429
{consumergroup=trace-service},1651772383,101429
{consumergroup=trace-service},1651772388,311858
{consumergroup=trace-service},1651772393,311858
{consumergroup=trace-service},1651772398,311858
{consumergroup=trace-service},1651772403,74918
{consumergroup=trace-service},1651772408,74918
{consumergroup=trace-service},1651772413,74918
{consumergroup=trace-service},1651772418,229721
{consumergroup=trace-service},1651772423,229721
{consumergroup=trace-service},1651772428,229721
{consumergroup=trace-service},1651772433,44135
{consumergroup=trace-service},1651772438,44135
{consumergroup=trace-service},1651772443,44135
{consumergroup=trace-service},1651772448,136959
{consumergroup=trace-service},1651772453,136959
{consumergroup=trace-service},1651772458,136959
{consumergroup=trace-service},1651772463,80732
{consumergroup=trace-service},1651772468,80732
{consumergroup=trace-service},1651772473,80732
{consumergroup=trace-service},1651772478,293312
{consumergroup=trace-service},1651772483,293312
{consumergroup=trace-service},1651772488,293312
{consumergroup=trace-service},1651772493,137555
{consumergroup=trace-service},1651772498,137555
{consumergroup=trace-service},1651772503,137555
{consumergroup=trace-service},1651772508,38052
{consumergroup=trace-service},1651772513,38052
{consumergroup=trace-token-events-consumer},1651772103,0
{consumergroup=trace-token-events-consumer},1651772108,0
{consumergroup=trace-token-events-consumer},1651772113,0
{consumergroup=trace-token-events-consumer},1651772118,0
{consumergroup=trace-token-events-consumer},1651772123,0
{consumergroup=trace-token-events-consumer},1651772128,0
{consumergroup=trace-token-events-consumer},1651772133,0
{consumergroup=trace-token-events-consumer},1651772138,0
{consumergroup=trace-token-events-consumer},1651772143,0
{consumergroup=trace-token-events-consumer},1651772148,0
{consumergroup=trace-token-events-consumer},1651772153,0
{consumergroup=trace-token-events-consumer},1651772158,0
{consumergroup=trace-token-events-consumer},1651772163,0
{consumergroup=trace-token-events-consumer},1651772168,0
{consumergroup=trace-token-events-consumer},1651772173,0
{consumergroup=trace-token-events-consumer},1651772178,0
{consumergroup=trace-token-events-consumer},1651772183,0
{consumergroup=trace-token-events-consumer},1651772188,0
{consumergroup=trace-token-events-consumer},1651772193,0
{consumergroup=trace-token-events-consumer},1651772198,0
{consumergroup=trace-token-events-consumer},1651772203,0
{consumergroup=trace-token-events-consumer},1651772208,0
{consumergroup=trace-token-events-consumer},1651772213,0
{consumergroup=trace-token-events-consumer},1651772218,0
{consumergroup=trace-token-events-consumer},1651772223,0
{consumergroup=trace-token-events-consumer},1651772228,0
{consumergroup=trace-token-events-consumer},1651772233,0
{consumergroup=trace-token-events-consumer},1651772238,0
{consumergroup=trace-token-events-consumer},1651772243,0
{consumergroup=trace-token-events-consumer},1651772248,0
{consumergroup=trace-token-events-consumer},1651772253,0
{consumergroup=trace-token-events-consumer},1651772258,0
{consumergroup=trace-token-events-consumer},1651772263,0
{consumergroup=trace-token-events-consumer},1651772268,0
{consumergroup=trace-token-events-consumer},1651772273,0
{consumergroup=trace-token-events-consumer},1651772278,0
{consumergroup=trace-token-events-consumer},1651772283,0
{consumergroup=trace-token-events-consumer},1651772288,0
{consumergroup=trace-token-events-consumer},1651772293,0
{consumergroup=trace-token-events-consumer},1651772298,0
{consumergroup=trace-token-events-consumer},1651772303,0
{consumergroup=trace-token-events-consumer},1651772308,0
{consumergroup=trace-token-events-consumer},1651772313,0
{consumergroup=trace-token-events-consumer},1651772318,0
{consumergroup=trace-token-events-consumer},1651772323,0
{consumergroup=trace-token-events-consumer},1651772328,0
{consumergroup=trace-token-events-consumer},1651772333,0
{consumergroup=trace-token-events-consumer},1651772338,0
{consumergroup=trace-token-events-consumer},1651772343,0
{consumergroup=trace-token-events-consumer},1651772348,0
{consumergroup=trace-token-events-consumer},1651772353,0
{consumergroup=trace-token-events-consumer},1651772358,0
{consumergroup=trace-token-events-consumer},1651772363,0
{consumergroup=trace-token-events-consumer},1651772368,0
{consumergroup=trace-token-events-consumer},1651772373,0
{consumergroup=trace-token-events-consumer},1651772378,0
{consumergroup=trace-token-events-consumer},1651772383,0
{consumergroup=trace-token-events-consumer},1651772388,0
{consumergroup=trace-token-events-consumer},1651772393,0
{consumergroup=trace-token-events-consumer},1651772398,0
{consumergroup=trace-token-events-consumer},1651772403,0
{consumergroup=trace-token-events-consumer},1651772408,0
{consumergroup=trace-token-events-consumer},1651772413,0
{consumergroup=trace-token-events-consumer},1651772418,0
{consumergroup=trace-token-events-consumer},1651772423,0
{consumergroup=trace-token-events-consumer},1651772428,0
{consumergroup=trace-token-events-consumer},1651772433,0
{consumergroup=trace-token-events-consumer},1651772438,0
{consumergroup=trace-token-events-consumer},1651772443,0
{consumergroup=trace-token-events-consumer},1651772448,0
{consumergroup=trace-token-events-consumer},1651772453,0
{consumergroup=trace-token-events-consumer},1651772458,0
{consumergroup=trace-token-events-consumer},1651772463,0
{consumergroup=trace-token-events-consumer},1651772468,0
{consumergroup=trace-token-events-consumer},1651772473,0
{consumergroup=trace-token-events-consumer},1651772478,0
{consumergroup=trace-token-events-consumer},1651772483,0
{consumergroup=trace-token-events-consumer},1651772488,0
{consumergroup=trace-token-events-consumer},1651772493,0
{consumergroup=trace-token-events-consumer},1651772498,0
{consumergroup=trace-token-events-consumer},1651772503,0
{consumergroup=trace-token-events-consumer},1651772508,0
{consumergroup=trace-token-events-consumer},1651772513,0
