labels,timestamp,value
{consumergroup=__strimzi-topic-operator-kstreams},1651769982,3
{consumergroup=__strimzi-topic-operator-kstreams},1651769987,3
{consumergroup=__strimzi-topic-operator-kstreams},1651769992,3
{consumergroup=__strimzi-topic-operator-kstreams},1651769997,11
{consumergroup=__strimzi-topic-operator-kstreams},1651770002,11
{consumergroup=__strimzi-topic-operator-kstreams},1651770007,11
{consumergroup=__strimzi-topic-operator-kstreams},1651770012,3
{consumergroup=__strimzi-topic-operator-kstreams},1651770017,3
{consumergroup=__strimzi-topic-operator-kstreams},1651770022,3
{consumergroup=__strimzi-topic-operator-kstreams},1651770027,3
{consumergroup=__strimzi-topic-operator-kstreams},1651770032,3
{consumergroup=__strimzi-topic-operator-kstreams},1651770037,3
{consumergroup=__strimzi-topic-operator-kstreams},1651770042,0
{consumergroup=__strimzi-topic-operator-kstreams},1651770047,0
{consumergroup=__strimzi-topic-operator-kstreams},1651770052,0
{consumergroup=__strimzi-topic-operator-kstreams},1651770057,0
{consumergroup=__strimzi-topic-operator-kstreams},1651770062,0
{consumergroup=__strimzi-topic-operator-kstreams},1651770067,0
{consumergroup=__strimzi-topic-operator-kstreams},1651770072,0
{consumergroup=__strimzi-topic-operator-kstreams},1651770077,0
{consumergroup=__strimzi-topic-operator-kstreams},1651770082,0
{consumergroup=__strimzi-topic-operator-kstreams},1651770087,0
{consumergroup=__strimzi-topic-operator-kstreams},1651770092,0
{consumergroup=__strimzi-topic-operator-kstreams},1651770097,0
{consumergroup=__strimzi-topic-operator-kstreams},1651770102,0
{consumergroup=__strimzi-topic-operator-kstreams},1651770107,0
{consumergroup=__strimzi-topic-operator-kstreams},1651770112,0
{consumergroup=__strimzi-topic-operator-kstreams},1651770117,0
{consumergroup=__strimzi-topic-operator-kstreams},1651770122,0
{consumergroup=__strimzi-topic-operator-kstreams},1651770127,0
{consumergroup=__strimzi-topic-operator-kstreams},1651770132,0
{consumergroup=__strimzi-topic-operator-kstreams},1651770137,0
{consumergroup=__strimzi-topic-operator-kstreams},1651770142,0
{consumergroup=__strimzi-topic-operator-kstreams},1651770147,0
{consumergroup=__strimzi-topic-operator-kstreams},1651770152,0
{consumergroup=__strimzi-topic-operator-kstreams},1651770157,0
{consumergroup=__strimzi-topic-operator-kstreams},1651770162,0
{consumergroup=__strimzi-topic-operator-kstreams},1651770167,0
{consumergroup=__strimzi-topic-operator-kstreams},1651770172,0
{consumergroup=__strimzi-topic-operator-kstreams},1651770177,0
{consumergroup=__strimzi-topic-operator-kstreams},1651770182,0
{consumergroup=__strimzi-topic-operator-kstreams},1651770187,0
{consumergroup=__strimzi-topic-operator-kstreams},1651770192,0
{consumergroup=__strimzi-topic-operator-kstreams},1651770197,0
{consumergroup=__strimzi-topic-operator-kstreams},1651770202,0
{consumergroup=__strimzi-topic-operator-kstreams},1651770207,0
{consumergroup=__strimzi-topic-operator-kstreams},1651770212,0
{consumergroup=__strimzi-topic-operator-kstreams},1651770217,0
{consumergroup=__strimzi-topic-operator-kstreams},1651770222,0
{consumergroup=__strimzi-topic-operator-kstreams},1651770227,0
{consumergroup=__strimzi-topic-operator-kstreams},1651770232,0
{consumergroup=__strimzi-topic-operator-kstreams},1651770237,0
{consumergroup=__strimzi-topic-operator-kstreams},1651770242,0
{consumergroup=__strimzi-topic-operator-kstreams},1651770247,0
{consumergroup=__strimzi-topic-operator-kstreams},1651770252,0
{consumergroup=__strimzi-topic-operator-kstreams},1651770257,0
{consumergroup=__strimzi-topic-operator-kstreams},1651770262,0
{consumergroup=__strimzi-topic-operator-kstreams},1651770267,0
{consumergroup=__strimzi-topic-operator-kstreams},1651770272,0
{consumergroup=__strimzi-topic-operator-kstreams},1651770277,0
{consumergroup=__strimzi-topic-operator-kstreams},1651770282,0
{consumergroup=__strimzi-topic-operator-kstreams},1651770287,0
{consumergroup=__strimzi-topic-operator-kstreams},1651770292,0
{consumergroup=__strimzi-topic-operator-kstreams},1651770297,0
{consumergroup=__strimzi-topic-operator-kstreams},1651770302,0
{consumergroup=__strimzi-topic-operator-kstreams},1651770307,0
{consumergroup=__strimzi-topic-operator-kstreams},1651770312,0
{consumergroup=__strimzi-topic-operator-kstreams},1651770317,0
{consumergroup=__strimzi-topic-operator-kstreams},1651770322,0
{consumergroup=__strimzi-topic-operator-kstreams},1651770327,0
{consumergroup=__strimzi-topic-operator-kstreams},1651770332,0
{consumergroup=__strimzi-topic-operator-kstreams},1651770337,0
{consumergroup=__strimzi-topic-operator-kstreams},1651770342,0
{consumergroup=__strimzi-topic-operator-kstreams},1651770347,0
{consumergroup=__strimzi-topic-operator-kstreams},1651770352,0
{consumergroup=__strimzi-topic-operator-kstreams},1651770357,0
{consumergroup=__strimzi-topic-operator-kstreams},1651770362,0
{consumergroup=__strimzi-topic-operator-kstreams},1651770367,0
{consumergroup=__strimzi-topic-operator-kstreams},1651770372,0
{consumergroup=__strimzi-topic-operator-kstreams},1651770377,0
{consumergroup=__strimzi-topic-operator-kstreams},1651770382,0
{consumergroup=__strimzi-topic-operator-kstreams},1651770387,0
{consumergroup=__strimzi-topic-operator-kstreams},1651770392,0
{consumergroup=__strimzi-topic-operator-kstreams},1651770397,0
{consumergroup=__strimzi-topic-operator-kstreams},1651770402,0
{consumergroup=__strimzi-topic-operator-kstreams},1651770407,0
{consumergroup=__strimzi-topic-operator-kstreams},1651770412,0
{consumergroup=__strimzi-topic-operator-kstreams},1651770417,0
{consumergroup=__strimzi-topic-operator-kstreams},1651770422,0
{consumergroup=__strimzi-topic-operator-kstreams},1651770427,0
{consumergroup=__strimzi-topic-operator-kstreams},1651770432,0
{consumergroup=trace-service},1651770027,104
{consumergroup=trace-service},1651770032,104
{consumergroup=trace-service},1651770037,104
{consumergroup=trace-service},1651770042,375890
{consumergroup=trace-service},1651770047,375890
{consumergroup=trace-service},1651770052,375890
{consumergroup=trace-service},1651770057,531336
{consumergroup=trace-service},1651770062,531336
{consumergroup=trace-service},1651770067,531336
{consumergroup=trace-service},1651770072,743827
{consumergroup=trace-service},1651770077,743827
{consumergroup=trace-service},1651770082,743827
{consumergroup=trace-service},1651770087,889313
{consumergroup=trace-service},1651770092,889313
{consumergroup=trace-service},1651770097,889313
{consumergroup=trace-service},1651770102,976830
{consumergroup=trace-service},1651770107,976830
{consumergroup=trace-service},1651770112,976830
{consumergroup=trace-service},1651770117,1123559
{consumergroup=trace-service},1651770122,1123559
{consumergroup=trace-service},1651770127,1123559
{consumergroup=trace-service},1651770132,1203961
{consumergroup=trace-service},1651770137,1203961
{consumergroup=trace-service},1651770142,1203961
{consumergroup=trace-service},1651770147,1210580
{consumergroup=trace-service},1651770152,1210580
{consumergroup=trace-service},1651770157,1210580
{consumergroup=trace-service},1651770162,1189547
{consumergroup=trace-service},1651770167,1189547
{consumergroup=trace-service},1651770172,1189547
{consumergroup=trace-service},1651770177,1274090
{consumergroup=trace-service},1651770182,1274090
{consumergroup=trace-service},1651770187,1274090
{consumergroup=trace-service},1651770192,1305902
{consumergroup=trace-service},1651770197,1305902
{consumergroup=trace-service},1651770202,1305902
{consumergroup=trace-service},1651770207,1402108
{consumergroup=trace-service},1651770212,1402108
{consumergroup=trace-service},1651770217,1402108
{consumergroup=trace-service},1651770222,1479201
{consumergroup=trace-service},1651770227,1479201
{consumergroup=trace-service},1651770232,1479201
{consumergroup=trace-service},1651770237,1404992
{consumergroup=trace-service},1651770242,1404992
{consumergroup=trace-service},1651770247,1404992
{consumergroup=trace-service},1651770252,1397771
{consumergroup=trace-service},1651770257,1397771
{consumergroup=trace-service},1651770262,1397771
{consumergroup=trace-service},1651770267,1478031
{consumergroup=trace-service},1651770272,1478031
{consumergroup=trace-service},1651770277,1478031
{consumergroup=trace-service},1651770282,1467427
{consumergroup=trace-service},1651770287,1467427
{consumergroup=trace-service},1651770292,1467427
{consumergroup=trace-service},1651770297,1423166
{consumergroup=trace-service},1651770302,1423166
{consumergroup=trace-service},1651770307,1423166
{consumergroup=trace-service},1651770312,1282293
{consumergroup=trace-service},1651770317,1282293
{consumergroup=trace-service},1651770322,1282293
{consumergroup=trace-service},1651770327,1334506
{consumergroup=trace-service},1651770332,1334506
{consumergroup=trace-service},1651770337,1334506
{consumergroup=trace-service},1651770342,1365755
{consumergroup=trace-service},1651770347,1365755
{consumergroup=trace-service},1651770352,1365755
{consumergroup=trace-service},1651770357,1377230
{consumergroup=trace-service},1651770362,1377230
{consumergroup=trace-service},1651770367,1377230
{consumergroup=trace-service},1651770372,1450124
{consumergroup=trace-service},1651770377,1450124
{consumergroup=trace-service},1651770382,1450124
{consumergroup=trace-service},1651770387,1465335
{consumergroup=trace-service},1651770392,1465335
{consumergroup=trace-service},1651770397,1465335
{consumergroup=trace-service},1651770402,1547663
{consumergroup=trace-service},1651770407,1547663
{consumergroup=trace-service},1651770412,1547663
{consumergroup=trace-service},1651770417,1555332
{consumergroup=trace-service},1651770422,1555332
{consumergroup=trace-service},1651770427,1555332
{consumergroup=trace-service},1651770432,1541394
{consumergroup=trace-token-events-consumer},1651770027,0
{consumergroup=trace-token-events-consumer},1651770032,0
{consumergroup=trace-token-events-consumer},1651770037,0
{consumergroup=trace-token-events-consumer},1651770042,0
{consumergroup=trace-token-events-consumer},1651770047,0
{consumergroup=trace-token-events-consumer},1651770052,0
{consumergroup=trace-token-events-consumer},1651770057,0
{consumergroup=trace-token-events-consumer},1651770062,0
{consumergroup=trace-token-events-consumer},1651770067,0
{consumergroup=trace-token-events-consumer},1651770072,0
{consumergroup=trace-token-events-consumer},1651770077,0
{consumergroup=trace-token-events-consumer},1651770082,0
{consumergroup=trace-token-events-consumer},1651770087,0
{consumergroup=trace-token-events-consumer},1651770092,0
{consumergroup=trace-token-events-consumer},1651770097,0
{consumergroup=trace-token-events-consumer},1651770102,0
{consumergroup=trace-token-events-consumer},1651770107,0
{consumergroup=trace-token-events-consumer},1651770112,0
{consumergroup=trace-token-events-consumer},1651770117,0
{consumergroup=trace-token-events-consumer},1651770122,0
{consumergroup=trace-token-events-consumer},1651770127,0
{consumergroup=trace-token-events-consumer},1651770132,0
{consumergroup=trace-token-events-consumer},1651770137,0
{consumergroup=trace-token-events-consumer},1651770142,0
{consumergroup=trace-token-events-consumer},1651770147,0
{consumergroup=trace-token-events-consumer},1651770152,0
{consumergroup=trace-token-events-consumer},1651770157,0
{consumergroup=trace-token-events-consumer},1651770162,0
{consumergroup=trace-token-events-consumer},1651770167,0
{consumergroup=trace-token-events-consumer},1651770172,0
{consumergroup=trace-token-events-consumer},1651770177,0
{consumergroup=trace-token-events-consumer},1651770182,0
{consumergroup=trace-token-events-consumer},1651770187,0
{consumergroup=trace-token-events-consumer},1651770192,0
{consumergroup=trace-token-events-consumer},1651770197,0
{consumergroup=trace-token-events-consumer},1651770202,0
{consumergroup=trace-token-events-consumer},1651770207,0
{consumergroup=trace-token-events-consumer},1651770212,0
{consumergroup=trace-token-events-consumer},1651770217,0
{consumergroup=trace-token-events-consumer},1651770222,0
{consumergroup=trace-token-events-consumer},1651770227,0
{consumergroup=trace-token-events-consumer},1651770232,0
{consumergroup=trace-token-events-consumer},1651770237,0
{consumergroup=trace-token-events-consumer},1651770242,0
{consumergroup=trace-token-events-consumer},1651770247,0
{consumergroup=trace-token-events-consumer},1651770252,0
{consumergroup=trace-token-events-consumer},1651770257,0
{consumergroup=trace-token-events-consumer},1651770262,0
{consumergroup=trace-token-events-consumer},1651770267,0
{consumergroup=trace-token-events-consumer},1651770272,0
{consumergroup=trace-token-events-consumer},1651770277,0
{consumergroup=trace-token-events-consumer},1651770282,0
{consumergroup=trace-token-events-consumer},1651770287,0
{consumergroup=trace-token-events-consumer},1651770292,0
{consumergroup=trace-token-events-consumer},1651770297,0
{consumergroup=trace-token-events-consumer},1651770302,0
{consumergroup=trace-token-events-consumer},1651770307,0
{consumergroup=trace-token-events-consumer},1651770312,0
{consumergroup=trace-token-events-consumer},1651770317,0
{consumergroup=trace-token-events-consumer},1651770322,0
{consumergroup=trace-token-events-consumer},1651770327,0
{consumergroup=trace-token-events-consumer},1651770332,0
{consumergroup=trace-token-events-consumer},1651770337,0
{consumergroup=trace-token-events-consumer},1651770342,0
{consumergroup=trace-token-events-consumer},1651770347,0
{consumergroup=trace-token-events-consumer},1651770352,0
{consumergroup=trace-token-events-consumer},1651770357,0
{consumergroup=trace-token-events-consumer},1651770362,0
{consumergroup=trace-token-events-consumer},1651770367,0
{consumergroup=trace-token-events-consumer},1651770372,0
{consumergroup=trace-token-events-consumer},1651770377,0
{consumergroup=trace-token-events-consumer},1651770382,0
{consumergroup=trace-token-events-consumer},1651770387,0
{consumergroup=trace-token-events-consumer},1651770392,0
{consumergroup=trace-token-events-consumer},1651770397,0
{consumergroup=trace-token-events-consumer},1651770402,0
{consumergroup=trace-token-events-consumer},1651770407,0
{consumergroup=trace-token-events-consumer},1651770412,0
{consumergroup=trace-token-events-consumer},1651770417,0
{consumergroup=trace-token-events-consumer},1651770422,0
{consumergroup=trace-token-events-consumer},1651770427,0
{consumergroup=trace-token-events-consumer},1651770432,0
