labels,timestamp,value
{job=theodolite-stu200776/trace-isolated-podmonitor},1651806661,0
{job=theodolite-stu200776/trace-isolated-podmonitor},1651806666,0
{job=theodolite-stu200776/trace-isolated-podmonitor},1651806671,0
{job=theodolite-stu200776/trace-isolated-podmonitor},1651806676,0
{job=theodolite-stu200776/trace-isolated-podmonitor},1651806681,0
{job=theodolite-stu200776/trace-isolated-podmonitor},1651806686,0
{job=theodolite-stu200776/trace-isolated-podmonitor},1651806691,0
{job=theodolite-stu200776/trace-isolated-podmonitor},1651806696,0
{job=theodolite-stu200776/trace-isolated-podmonitor},1651806701,0
{job=theodolite-stu200776/trace-isolated-podmonitor},1651806706,0
{job=theodolite-stu200776/trace-isolated-podmonitor},1651806711,0
{job=theodolite-stu200776/trace-isolated-podmonitor},1651806716,0
{job=theodolite-stu200776/trace-isolated-podmonitor},1651806721,0
{job=theodolite-stu200776/trace-isolated-podmonitor},1651806726,0
{job=theodolite-stu200776/trace-isolated-podmonitor},1651806731,0
{job=theodolite-stu200776/trace-isolated-podmonitor},1651806736,0
{job=theodolite-stu200776/trace-isolated-podmonitor},1651806741,0
{job=theodolite-stu200776/trace-isolated-podmonitor},1651806746,0
{job=theodolite-stu200776/trace-isolated-podmonitor},1651806751,0
{job=theodolite-stu200776/trace-isolated-podmonitor},1651806756,0
{job=theodolite-stu200776/trace-isolated-podmonitor},1651806761,0
{job=theodolite-stu200776/trace-isolated-podmonitor},1651806766,0
{job=theodolite-stu200776/trace-isolated-podmonitor},1651806771,0
{job=theodolite-stu200776/trace-isolated-podmonitor},1651806776,0
{job=theodolite-stu200776/trace-isolated-podmonitor},1651806781,0
{job=theodolite-stu200776/trace-isolated-podmonitor},1651806786,0
{job=theodolite-stu200776/trace-isolated-podmonitor},1651806791,0
{job=theodolite-stu200776/trace-isolated-podmonitor},1651806796,0
{job=theodolite-stu200776/trace-isolated-podmonitor},1651806801,0
{job=theodolite-stu200776/trace-isolated-podmonitor},1651806806,0
{job=theodolite-stu200776/trace-isolated-podmonitor},1651806811,0
{job=theodolite-stu200776/trace-isolated-podmonitor},1651806816,0
{job=theodolite-stu200776/trace-isolated-podmonitor},1651806821,0
{job=theodolite-stu200776/trace-isolated-podmonitor},1651806826,0
{job=theodolite-stu200776/trace-isolated-podmonitor},1651806831,0
{job=theodolite-stu200776/trace-isolated-podmonitor},1651806836,0
{job=theodolite-stu200776/trace-isolated-podmonitor},1651806841,0
{job=theodolite-stu200776/trace-isolated-podmonitor},1651806846,0
{job=theodolite-stu200776/trace-isolated-podmonitor},1651806851,0
{job=theodolite-stu200776/trace-isolated-podmonitor},1651806856,0
{job=theodolite-stu200776/trace-isolated-podmonitor},1651806861,0
{job=theodolite-stu200776/trace-isolated-podmonitor},1651806866,0
{job=theodolite-stu200776/trace-isolated-podmonitor},1651806871,0
{job=theodolite-stu200776/trace-isolated-podmonitor},1651806876,0
{job=theodolite-stu200776/trace-isolated-podmonitor},1651806881,0
{job=theodolite-stu200776/trace-isolated-podmonitor},1651806886,0
{job=theodolite-stu200776/trace-isolated-podmonitor},1651806891,0
{job=theodolite-stu200776/trace-isolated-podmonitor},1651806896,0
{job=theodolite-stu200776/trace-isolated-podmonitor},1651806901,0
{job=theodolite-stu200776/trace-isolated-podmonitor},1651806906,0
{job=theodolite-stu200776/trace-isolated-podmonitor},1651806911,0
{job=theodolite-stu200776/trace-isolated-podmonitor},1651806916,0
{job=theodolite-stu200776/trace-isolated-podmonitor},1651806921,0
{job=theodolite-stu200776/trace-isolated-podmonitor},1651806926,0
{job=theodolite-stu200776/trace-isolated-podmonitor},1651806931,0
{job=theodolite-stu200776/trace-isolated-podmonitor},1651806936,0
{job=theodolite-stu200776/trace-isolated-podmonitor},1651806941,0
{job=theodolite-stu200776/trace-isolated-podmonitor},1651806946,0
{job=theodolite-stu200776/trace-isolated-podmonitor},1651806951,0
{job=theodolite-stu200776/trace-isolated-podmonitor},1651806956,0
{job=theodolite-stu200776/trace-isolated-podmonitor},1651806961,0
{job=theodolite-stu200776/trace-isolated-podmonitor},1651806966,0
{job=theodolite-stu200776/trace-isolated-podmonitor},1651806971,0
{job=theodolite-stu200776/trace-isolated-podmonitor},1651806976,0
{job=theodolite-stu200776/trace-isolated-podmonitor},1651806981,0
{job=theodolite-stu200776/trace-isolated-podmonitor},1651806986,0
{job=theodolite-stu200776/trace-isolated-podmonitor},1651806991,0
{job=theodolite-stu200776/trace-isolated-podmonitor},1651806996,0
{job=theodolite-stu200776/trace-isolated-podmonitor},1651807001,0
{job=theodolite-stu200776/trace-isolated-podmonitor},1651807006,0
{job=theodolite-stu200776/trace-isolated-podmonitor},1651807011,0
{job=theodolite-stu200776/trace-isolated-podmonitor},1651807016,0
{job=theodolite-stu200776/trace-isolated-podmonitor},1651807021,0
{job=theodolite-stu200776/trace-isolated-podmonitor},1651807026,0
{job=theodolite-stu200776/trace-isolated-podmonitor},1651807031,0
{job=theodolite-stu200776/trace-isolated-podmonitor},1651807036,0
