labels,timestamp,value
{job=theodolite-stu200776/trace-isolated-podmonitor},1651774356,0
{job=theodolite-stu200776/trace-isolated-podmonitor},1651774361,0
{job=theodolite-stu200776/trace-isolated-podmonitor},1651774366,0
{job=theodolite-stu200776/trace-isolated-podmonitor},1651774371,0
{job=theodolite-stu200776/trace-isolated-podmonitor},1651774376,0
{job=theodolite-stu200776/trace-isolated-podmonitor},1651774381,0
{job=theodolite-stu200776/trace-isolated-podmonitor},1651774386,0
{job=theodolite-stu200776/trace-isolated-podmonitor},1651774391,0
{job=theodolite-stu200776/trace-isolated-podmonitor},1651774396,0
{job=theodolite-stu200776/trace-isolated-podmonitor},1651774401,0
{job=theodolite-stu200776/trace-isolated-podmonitor},1651774406,0
{job=theodolite-stu200776/trace-isolated-podmonitor},1651774411,0
{job=theodolite-stu200776/trace-isolated-podmonitor},1651774416,0
{job=theodolite-stu200776/trace-isolated-podmonitor},1651774421,0
{job=theodolite-stu200776/trace-isolated-podmonitor},1651774426,0
{job=theodolite-stu200776/trace-isolated-podmonitor},1651774431,0
{job=theodolite-stu200776/trace-isolated-podmonitor},1651774436,0
{job=theodolite-stu200776/trace-isolated-podmonitor},1651774441,0
{job=theodolite-stu200776/trace-isolated-podmonitor},1651774446,0
{job=theodolite-stu200776/trace-isolated-podmonitor},1651774451,0
{job=theodolite-stu200776/trace-isolated-podmonitor},1651774456,0
{job=theodolite-stu200776/trace-isolated-podmonitor},1651774461,0
{job=theodolite-stu200776/trace-isolated-podmonitor},1651774466,0
{job=theodolite-stu200776/trace-isolated-podmonitor},1651774471,0
{job=theodolite-stu200776/trace-isolated-podmonitor},1651774476,0
{job=theodolite-stu200776/trace-isolated-podmonitor},1651774481,0
{job=theodolite-stu200776/trace-isolated-podmonitor},1651774486,0
{job=theodolite-stu200776/trace-isolated-podmonitor},1651774491,0
{job=theodolite-stu200776/trace-isolated-podmonitor},1651774496,0
{job=theodolite-stu200776/trace-isolated-podmonitor},1651774501,0
{job=theodolite-stu200776/trace-isolated-podmonitor},1651774506,0
{job=theodolite-stu200776/trace-isolated-podmonitor},1651774511,0
{job=theodolite-stu200776/trace-isolated-podmonitor},1651774516,0
{job=theodolite-stu200776/trace-isolated-podmonitor},1651774521,0
{job=theodolite-stu200776/trace-isolated-podmonitor},1651774526,0
{job=theodolite-stu200776/trace-isolated-podmonitor},1651774531,0
{job=theodolite-stu200776/trace-isolated-podmonitor},1651774536,0
{job=theodolite-stu200776/trace-isolated-podmonitor},1651774541,0
{job=theodolite-stu200776/trace-isolated-podmonitor},1651774546,0
{job=theodolite-stu200776/trace-isolated-podmonitor},1651774551,0
{job=theodolite-stu200776/trace-isolated-podmonitor},1651774556,0
{job=theodolite-stu200776/trace-isolated-podmonitor},1651774561,0
{job=theodolite-stu200776/trace-isolated-podmonitor},1651774566,0
{job=theodolite-stu200776/trace-isolated-podmonitor},1651774571,0
{job=theodolite-stu200776/trace-isolated-podmonitor},1651774576,0
{job=theodolite-stu200776/trace-isolated-podmonitor},1651774581,0
