labels,timestamp,value
{consumergroup=__strimzi-topic-operator-kstreams},1651771556,11
{consumergroup=__strimzi-topic-operator-kstreams},1651771561,11
{consumergroup=__strimzi-topic-operator-kstreams},1651771566,11
{consumergroup=__strimzi-topic-operator-kstreams},1651771571,0
{consumergroup=__strimzi-topic-operator-kstreams},1651771576,0
{consumergroup=__strimzi-topic-operator-kstreams},1651771581,0
{consumergroup=__strimzi-topic-operator-kstreams},1651771586,0
{consumergroup=__strimzi-topic-operator-kstreams},1651771591,0
{consumergroup=__strimzi-topic-operator-kstreams},1651771596,0
{consumergroup=__strimzi-topic-operator-kstreams},1651771601,0
{consumergroup=__strimzi-topic-operator-kstreams},1651771606,0
{consumergroup=__strimzi-topic-operator-kstreams},1651771611,0
{consumergroup=__strimzi-topic-operator-kstreams},1651771616,0
{consumergroup=__strimzi-topic-operator-kstreams},1651771621,0
{consumergroup=__strimzi-topic-operator-kstreams},1651771626,0
{consumergroup=__strimzi-topic-operator-kstreams},1651771631,0
{consumergroup=__strimzi-topic-operator-kstreams},1651771636,0
{consumergroup=__strimzi-topic-operator-kstreams},1651771641,0
{consumergroup=__strimzi-topic-operator-kstreams},1651771646,0
{consumergroup=__strimzi-topic-operator-kstreams},1651771651,0
{consumergroup=__strimzi-topic-operator-kstreams},1651771656,0
{consumergroup=__strimzi-topic-operator-kstreams},1651771661,0
{consumergroup=__strimzi-topic-operator-kstreams},1651771666,0
{consumergroup=__strimzi-topic-operator-kstreams},1651771671,0
{consumergroup=__strimzi-topic-operator-kstreams},1651771676,0
{consumergroup=__strimzi-topic-operator-kstreams},1651771681,0
{consumergroup=__strimzi-topic-operator-kstreams},1651771686,0
{consumergroup=__strimzi-topic-operator-kstreams},1651771691,0
{consumergroup=__strimzi-topic-operator-kstreams},1651771696,0
{consumergroup=__strimzi-topic-operator-kstreams},1651771701,0
{consumergroup=__strimzi-topic-operator-kstreams},1651771706,0
{consumergroup=__strimzi-topic-operator-kstreams},1651771711,0
{consumergroup=__strimzi-topic-operator-kstreams},1651771716,0
{consumergroup=__strimzi-topic-operator-kstreams},1651771721,0
{consumergroup=__strimzi-topic-operator-kstreams},1651771726,0
{consumergroup=__strimzi-topic-operator-kstreams},1651771731,0
{consumergroup=__strimzi-topic-operator-kstreams},1651771736,0
{consumergroup=__strimzi-topic-operator-kstreams},1651771741,0
{consumergroup=__strimzi-topic-operator-kstreams},1651771746,0
{consumergroup=__strimzi-topic-operator-kstreams},1651771751,0
{consumergroup=__strimzi-topic-operator-kstreams},1651771756,0
{consumergroup=__strimzi-topic-operator-kstreams},1651771761,0
{consumergroup=__strimzi-topic-operator-kstreams},1651771766,0
{consumergroup=__strimzi-topic-operator-kstreams},1651771771,0
{consumergroup=__strimzi-topic-operator-kstreams},1651771776,0
{consumergroup=__strimzi-topic-operator-kstreams},1651771781,0
{consumergroup=__strimzi-topic-operator-kstreams},1651771786,0
{consumergroup=__strimzi-topic-operator-kstreams},1651771791,0
{consumergroup=__strimzi-topic-operator-kstreams},1651771796,0
{consumergroup=__strimzi-topic-operator-kstreams},1651771801,0
{consumergroup=__strimzi-topic-operator-kstreams},1651771806,0
{consumergroup=__strimzi-topic-operator-kstreams},1651771811,0
{consumergroup=__strimzi-topic-operator-kstreams},1651771816,0
{consumergroup=__strimzi-topic-operator-kstreams},1651771821,0
{consumergroup=__strimzi-topic-operator-kstreams},1651771826,0
{consumergroup=__strimzi-topic-operator-kstreams},1651771831,0
{consumergroup=__strimzi-topic-operator-kstreams},1651771836,0
{consumergroup=__strimzi-topic-operator-kstreams},1651771841,0
{consumergroup=__strimzi-topic-operator-kstreams},1651771846,0
{consumergroup=__strimzi-topic-operator-kstreams},1651771851,0
{consumergroup=__strimzi-topic-operator-kstreams},1651771856,0
{consumergroup=__strimzi-topic-operator-kstreams},1651771861,0
{consumergroup=__strimzi-topic-operator-kstreams},1651771866,0
{consumergroup=__strimzi-topic-operator-kstreams},1651771871,0
{consumergroup=__strimzi-topic-operator-kstreams},1651771876,0
{consumergroup=__strimzi-topic-operator-kstreams},1651771881,0
{consumergroup=__strimzi-topic-operator-kstreams},1651771886,0
{consumergroup=__strimzi-topic-operator-kstreams},1651771891,0
{consumergroup=__strimzi-topic-operator-kstreams},1651771896,0
{consumergroup=__strimzi-topic-operator-kstreams},1651771901,0
{consumergroup=__strimzi-topic-operator-kstreams},1651771906,0
{consumergroup=__strimzi-topic-operator-kstreams},1651771911,0
{consumergroup=__strimzi-topic-operator-kstreams},1651771916,0
{consumergroup=__strimzi-topic-operator-kstreams},1651771921,0
{consumergroup=__strimzi-topic-operator-kstreams},1651771926,0
{consumergroup=__strimzi-topic-operator-kstreams},1651771931,0
{consumergroup=__strimzi-topic-operator-kstreams},1651771936,0
{consumergroup=__strimzi-topic-operator-kstreams},1651771941,0
{consumergroup=__strimzi-topic-operator-kstreams},1651771946,0
{consumergroup=__strimzi-topic-operator-kstreams},1651771951,0
{consumergroup=__strimzi-topic-operator-kstreams},1651771956,0
{consumergroup=__strimzi-topic-operator-kstreams},1651771961,0
{consumergroup=__strimzi-topic-operator-kstreams},1651771966,0
{consumergroup=__strimzi-topic-operator-kstreams},1651771971,0
{consumergroup=__strimzi-topic-operator-kstreams},1651771976,0
{consumergroup=__strimzi-topic-operator-kstreams},1651771981,0
{consumergroup=__strimzi-topic-operator-kstreams},1651771986,0
{consumergroup=__strimzi-topic-operator-kstreams},1651771991,0
{consumergroup=trace-service},1651771586,106
{consumergroup=trace-service},1651771591,106
{consumergroup=trace-service},1651771596,106
{consumergroup=trace-service},1651771601,257158
{consumergroup=trace-service},1651771606,257158
{consumergroup=trace-service},1651771611,257158
{consumergroup=trace-service},1651771616,391840
{consumergroup=trace-service},1651771621,391840
{consumergroup=trace-service},1651771626,391840
{consumergroup=trace-service},1651771631,465893
{consumergroup=trace-service},1651771636,465893
{consumergroup=trace-service},1651771641,465893
{consumergroup=trace-service},1651771646,529252
{consumergroup=trace-service},1651771651,529252
{consumergroup=trace-service},1651771656,529252
{consumergroup=trace-service},1651771661,617399
{consumergroup=trace-service},1651771666,617399
{consumergroup=trace-service},1651771671,617399
{consumergroup=trace-service},1651771676,613527
{consumergroup=trace-service},1651771681,613527
{consumergroup=trace-service},1651771686,613527
{consumergroup=trace-service},1651771691,546413
{consumergroup=trace-service},1651771696,546413
{consumergroup=trace-service},1651771701,546413
{consumergroup=trace-service},1651771706,408284
{consumergroup=trace-service},1651771711,408284
{consumergroup=trace-service},1651771716,408284
{consumergroup=trace-service},1651771721,254894
{consumergroup=trace-service},1651771726,254894
{consumergroup=trace-service},1651771731,254894
{consumergroup=trace-service},1651771736,376312
{consumergroup=trace-service},1651771741,376312
{consumergroup=trace-service},1651771746,376312
{consumergroup=trace-service},1651771751,286068
{consumergroup=trace-service},1651771756,286068
{consumergroup=trace-service},1651771761,286068
{consumergroup=trace-service},1651771766,389961
{consumergroup=trace-service},1651771771,389961
{consumergroup=trace-service},1651771776,389961
{consumergroup=trace-service},1651771781,230805
{consumergroup=trace-service},1651771786,230805
{consumergroup=trace-service},1651771791,230805
{consumergroup=trace-service},1651771796,244517
{consumergroup=trace-service},1651771801,244517
{consumergroup=trace-service},1651771806,244517
{consumergroup=trace-service},1651771811,186243
{consumergroup=trace-service},1651771816,186243
{consumergroup=trace-service},1651771821,186243
{consumergroup=trace-service},1651771826,243162
{consumergroup=trace-service},1651771831,243162
{consumergroup=trace-service},1651771836,243162
{consumergroup=trace-service},1651771841,143661
{consumergroup=trace-service},1651771846,143661
{consumergroup=trace-service},1651771851,143661
{consumergroup=trace-service},1651771856,193094
{consumergroup=trace-service},1651771861,193094
{consumergroup=trace-service},1651771866,193094
{consumergroup=trace-service},1651771871,179613
{consumergroup=trace-service},1651771876,179613
{consumergroup=trace-service},1651771881,179613
{consumergroup=trace-service},1651771886,100389
{consumergroup=trace-service},1651771891,100389
{consumergroup=trace-service},1651771896,100389
{consumergroup=trace-service},1651771901,174467
{consumergroup=trace-service},1651771906,174467
{consumergroup=trace-service},1651771911,174467
{consumergroup=trace-service},1651771916,161017
{consumergroup=trace-service},1651771921,161017
{consumergroup=trace-service},1651771926,161017
{consumergroup=trace-service},1651771931,161160
{consumergroup=trace-service},1651771936,161160
{consumergroup=trace-service},1651771941,161160
{consumergroup=trace-service},1651771946,200881
{consumergroup=trace-service},1651771951,200881
{consumergroup=trace-service},1651771956,200881
{consumergroup=trace-service},1651771961,178315
{consumergroup=trace-service},1651771966,178315
{consumergroup=trace-service},1651771971,178315
{consumergroup=trace-service},1651771976,183736
{consumergroup=trace-service},1651771981,183736
{consumergroup=trace-service},1651771986,183736
{consumergroup=trace-service},1651771991,170058
{consumergroup=trace-token-events-consumer},1651771586,0
{consumergroup=trace-token-events-consumer},1651771591,0
{consumergroup=trace-token-events-consumer},1651771596,0
{consumergroup=trace-token-events-consumer},1651771601,0
{consumergroup=trace-token-events-consumer},1651771606,0
{consumergroup=trace-token-events-consumer},1651771611,0
{consumergroup=trace-token-events-consumer},1651771616,0
{consumergroup=trace-token-events-consumer},1651771621,0
{consumergroup=trace-token-events-consumer},1651771626,0
{consumergroup=trace-token-events-consumer},1651771631,0
{consumergroup=trace-token-events-consumer},1651771636,0
{consumergroup=trace-token-events-consumer},1651771641,0
{consumergroup=trace-token-events-consumer},1651771646,0
{consumergroup=trace-token-events-consumer},1651771651,0
{consumergroup=trace-token-events-consumer},1651771656,0
{consumergroup=trace-token-events-consumer},1651771661,0
{consumergroup=trace-token-events-consumer},1651771666,0
{consumergroup=trace-token-events-consumer},1651771671,0
{consumergroup=trace-token-events-consumer},1651771676,0
{consumergroup=trace-token-events-consumer},1651771681,0
{consumergroup=trace-token-events-consumer},1651771686,0
{consumergroup=trace-token-events-consumer},1651771691,0
{consumergroup=trace-token-events-consumer},1651771696,0
{consumergroup=trace-token-events-consumer},1651771701,0
{consumergroup=trace-token-events-consumer},1651771706,0
{consumergroup=trace-token-events-consumer},1651771711,0
{consumergroup=trace-token-events-consumer},1651771716,0
{consumergroup=trace-token-events-consumer},1651771721,0
{consumergroup=trace-token-events-consumer},1651771726,0
{consumergroup=trace-token-events-consumer},1651771731,0
{consumergroup=trace-token-events-consumer},1651771736,0
{consumergroup=trace-token-events-consumer},1651771741,0
{consumergroup=trace-token-events-consumer},1651771746,0
{consumergroup=trace-token-events-consumer},1651771751,0
{consumergroup=trace-token-events-consumer},1651771756,0
{consumergroup=trace-token-events-consumer},1651771761,0
{consumergroup=trace-token-events-consumer},1651771766,0
{consumergroup=trace-token-events-consumer},1651771771,0
{consumergroup=trace-token-events-consumer},1651771776,0
{consumergroup=trace-token-events-consumer},1651771781,0
{consumergroup=trace-token-events-consumer},1651771786,0
{consumergroup=trace-token-events-consumer},1651771791,0
{consumergroup=trace-token-events-consumer},1651771796,0
{consumergroup=trace-token-events-consumer},1651771801,0
{consumergroup=trace-token-events-consumer},1651771806,0
{consumergroup=trace-token-events-consumer},1651771811,0
{consumergroup=trace-token-events-consumer},1651771816,0
{consumergroup=trace-token-events-consumer},1651771821,0
{consumergroup=trace-token-events-consumer},1651771826,0
{consumergroup=trace-token-events-consumer},1651771831,0
{consumergroup=trace-token-events-consumer},1651771836,0
{consumergroup=trace-token-events-consumer},1651771841,0
{consumergroup=trace-token-events-consumer},1651771846,0
{consumergroup=trace-token-events-consumer},1651771851,0
{consumergroup=trace-token-events-consumer},1651771856,0
{consumergroup=trace-token-events-consumer},1651771861,0
{consumergroup=trace-token-events-consumer},1651771866,0
{consumergroup=trace-token-events-consumer},1651771871,0
{consumergroup=trace-token-events-consumer},1651771876,0
{consumergroup=trace-token-events-consumer},1651771881,0
{consumergroup=trace-token-events-consumer},1651771886,0
{consumergroup=trace-token-events-consumer},1651771891,0
{consumergroup=trace-token-events-consumer},1651771896,0
{consumergroup=trace-token-events-consumer},1651771901,0
{consumergroup=trace-token-events-consumer},1651771906,0
{consumergroup=trace-token-events-consumer},1651771911,0
{consumergroup=trace-token-events-consumer},1651771916,0
{consumergroup=trace-token-events-consumer},1651771921,0
{consumergroup=trace-token-events-consumer},1651771926,0
{consumergroup=trace-token-events-consumer},1651771931,0
{consumergroup=trace-token-events-consumer},1651771936,0
{consumergroup=trace-token-events-consumer},1651771941,0
{consumergroup=trace-token-events-consumer},1651771946,0
{consumergroup=trace-token-events-consumer},1651771951,0
{consumergroup=trace-token-events-consumer},1651771956,0
{consumergroup=trace-token-events-consumer},1651771961,0
{consumergroup=trace-token-events-consumer},1651771966,0
{consumergroup=trace-token-events-consumer},1651771971,0
{consumergroup=trace-token-events-consumer},1651771976,0
{consumergroup=trace-token-events-consumer},1651771981,0
{consumergroup=trace-token-events-consumer},1651771986,0
{consumergroup=trace-token-events-consumer},1651771991,0
