labels,timestamp,value
{consumergroup=__strimzi-topic-operator-kstreams},1651801994,8
{consumergroup=__strimzi-topic-operator-kstreams},1651801999,8
{consumergroup=__strimzi-topic-operator-kstreams},1651802004,8
{consumergroup=__strimzi-topic-operator-kstreams},1651802009,0
{consumergroup=__strimzi-topic-operator-kstreams},1651802014,0
{consumergroup=__strimzi-topic-operator-kstreams},1651802019,0
{consumergroup=__strimzi-topic-operator-kstreams},1651802024,0
{consumergroup=__strimzi-topic-operator-kstreams},1651802029,0
{consumergroup=__strimzi-topic-operator-kstreams},1651802034,0
{consumergroup=__strimzi-topic-operator-kstreams},1651802039,0
{consumergroup=__strimzi-topic-operator-kstreams},1651802044,0
{consumergroup=__strimzi-topic-operator-kstreams},1651802049,0
{consumergroup=__strimzi-topic-operator-kstreams},1651802054,0
{consumergroup=__strimzi-topic-operator-kstreams},1651802059,0
{consumergroup=__strimzi-topic-operator-kstreams},1651802064,0
{consumergroup=__strimzi-topic-operator-kstreams},1651802069,0
{consumergroup=__strimzi-topic-operator-kstreams},1651802074,0
{consumergroup=__strimzi-topic-operator-kstreams},1651802079,0
{consumergroup=__strimzi-topic-operator-kstreams},1651802084,0
{consumergroup=__strimzi-topic-operator-kstreams},1651802089,0
{consumergroup=__strimzi-topic-operator-kstreams},1651802094,0
{consumergroup=__strimzi-topic-operator-kstreams},1651802099,0
{consumergroup=__strimzi-topic-operator-kstreams},1651802104,0
{consumergroup=__strimzi-topic-operator-kstreams},1651802109,0
{consumergroup=__strimzi-topic-operator-kstreams},1651802114,0
{consumergroup=__strimzi-topic-operator-kstreams},1651802119,0
{consumergroup=__strimzi-topic-operator-kstreams},1651802124,0
{consumergroup=__strimzi-topic-operator-kstreams},1651802129,0
{consumergroup=__strimzi-topic-operator-kstreams},1651802134,0
{consumergroup=__strimzi-topic-operator-kstreams},1651802139,0
{consumergroup=__strimzi-topic-operator-kstreams},1651802144,0
{consumergroup=__strimzi-topic-operator-kstreams},1651802149,0
{consumergroup=__strimzi-topic-operator-kstreams},1651802154,0
{consumergroup=__strimzi-topic-operator-kstreams},1651802159,0
{consumergroup=__strimzi-topic-operator-kstreams},1651802164,0
{consumergroup=__strimzi-topic-operator-kstreams},1651802169,0
{consumergroup=__strimzi-topic-operator-kstreams},1651802174,0
{consumergroup=__strimzi-topic-operator-kstreams},1651802179,0
{consumergroup=__strimzi-topic-operator-kstreams},1651802184,0
{consumergroup=__strimzi-topic-operator-kstreams},1651802189,0
{consumergroup=__strimzi-topic-operator-kstreams},1651802194,0
{consumergroup=__strimzi-topic-operator-kstreams},1651802199,0
{consumergroup=__strimzi-topic-operator-kstreams},1651802204,0
{consumergroup=__strimzi-topic-operator-kstreams},1651802209,0
{consumergroup=__strimzi-topic-operator-kstreams},1651802214,0
{consumergroup=__strimzi-topic-operator-kstreams},1651802219,0
{consumergroup=__strimzi-topic-operator-kstreams},1651802224,0
{consumergroup=__strimzi-topic-operator-kstreams},1651802229,0
{consumergroup=__strimzi-topic-operator-kstreams},1651802234,0
{consumergroup=__strimzi-topic-operator-kstreams},1651802239,0
{consumergroup=__strimzi-topic-operator-kstreams},1651802244,0
{consumergroup=__strimzi-topic-operator-kstreams},1651802249,0
{consumergroup=__strimzi-topic-operator-kstreams},1651802254,0
{consumergroup=__strimzi-topic-operator-kstreams},1651802259,0
{consumergroup=__strimzi-topic-operator-kstreams},1651802264,0
{consumergroup=__strimzi-topic-operator-kstreams},1651802269,0
{consumergroup=__strimzi-topic-operator-kstreams},1651802274,0
{consumergroup=__strimzi-topic-operator-kstreams},1651802279,0
{consumergroup=__strimzi-topic-operator-kstreams},1651802284,0
{consumergroup=__strimzi-topic-operator-kstreams},1651802289,0
{consumergroup=__strimzi-topic-operator-kstreams},1651802294,0
{consumergroup=__strimzi-topic-operator-kstreams},1651802299,0
{consumergroup=__strimzi-topic-operator-kstreams},1651802304,0
{consumergroup=__strimzi-topic-operator-kstreams},1651802309,0
{consumergroup=__strimzi-topic-operator-kstreams},1651802314,0
{consumergroup=__strimzi-topic-operator-kstreams},1651802319,0
{consumergroup=__strimzi-topic-operator-kstreams},1651802324,0
{consumergroup=__strimzi-topic-operator-kstreams},1651802329,0
{consumergroup=__strimzi-topic-operator-kstreams},1651802334,0
{consumergroup=__strimzi-topic-operator-kstreams},1651802339,0
{consumergroup=__strimzi-topic-operator-kstreams},1651802344,0
{consumergroup=__strimzi-topic-operator-kstreams},1651802349,0
{consumergroup=__strimzi-topic-operator-kstreams},1651802354,0
{consumergroup=__strimzi-topic-operator-kstreams},1651802359,0
{consumergroup=__strimzi-topic-operator-kstreams},1651802364,0
{consumergroup=__strimzi-topic-operator-kstreams},1651802369,0
{consumergroup=__strimzi-topic-operator-kstreams},1651802374,0
{consumergroup=__strimzi-topic-operator-kstreams},1651802379,0
{consumergroup=__strimzi-topic-operator-kstreams},1651802384,0
{consumergroup=__strimzi-topic-operator-kstreams},1651802389,0
{consumergroup=__strimzi-topic-operator-kstreams},1651802394,0
{consumergroup=__strimzi-topic-operator-kstreams},1651802399,0
{consumergroup=__strimzi-topic-operator-kstreams},1651802404,0
{consumergroup=__strimzi-topic-operator-kstreams},1651802409,0
{consumergroup=__strimzi-topic-operator-kstreams},1651802414,0
{consumergroup=__strimzi-topic-operator-kstreams},1651802419,0
{consumergroup=__strimzi-topic-operator-kstreams},1651802424,0
{consumergroup=trace-service},1651802024,305252
{consumergroup=trace-service},1651802029,305252
{consumergroup=trace-service},1651802034,305252
{consumergroup=trace-service},1651802039,271599
{consumergroup=trace-service},1651802044,271599
{consumergroup=trace-service},1651802049,271599
{consumergroup=trace-service},1651802054,653641
{consumergroup=trace-service},1651802059,653641
{consumergroup=trace-service},1651802064,653641
{consumergroup=trace-service},1651802069,1490364
{consumergroup=trace-service},1651802074,1490364
{consumergroup=trace-service},1651802079,1490364
{consumergroup=trace-service},1651802084,708094
{consumergroup=trace-service},1651802089,708094
{consumergroup=trace-service},1651802094,708094
{consumergroup=trace-service},1651802099,623014
{consumergroup=trace-service},1651802104,623014
{consumergroup=trace-service},1651802109,623014
{consumergroup=trace-service},1651802114,543891
{consumergroup=trace-service},1651802119,543891
{consumergroup=trace-service},1651802124,543891
{consumergroup=trace-service},1651802129,433776
{consumergroup=trace-service},1651802134,433776
{consumergroup=trace-service},1651802139,433776
{consumergroup=trace-service},1651802144,561165
{consumergroup=trace-service},1651802149,561165
{consumergroup=trace-service},1651802154,561165
{consumergroup=trace-service},1651802159,207359
{consumergroup=trace-service},1651802164,207359
{consumergroup=trace-service},1651802169,207359
{consumergroup=trace-service},1651802174,547580
{consumergroup=trace-service},1651802179,547580
{consumergroup=trace-service},1651802184,547580
{consumergroup=trace-service},1651802189,1057722
{consumergroup=trace-service},1651802194,1057722
{consumergroup=trace-service},1651802199,1057722
{consumergroup=trace-service},1651802204,608415
{consumergroup=trace-service},1651802209,608415
{consumergroup=trace-service},1651802214,608415
{consumergroup=trace-service},1651802219,741554
{consumergroup=trace-service},1651802224,741554
{consumergroup=trace-service},1651802229,741554
{consumergroup=trace-service},1651802234,552340
{consumergroup=trace-service},1651802239,552340
{consumergroup=trace-service},1651802244,552340
{consumergroup=trace-service},1651802249,1148985
{consumergroup=trace-service},1651802254,1148985
{consumergroup=trace-service},1651802259,1148985
{consumergroup=trace-service},1651802264,547834
{consumergroup=trace-service},1651802269,547834
{consumergroup=trace-service},1651802274,547834
{consumergroup=trace-service},1651802279,787052
{consumergroup=trace-service},1651802284,787052
{consumergroup=trace-service},1651802289,787052
{consumergroup=trace-service},1651802294,557309
{consumergroup=trace-service},1651802299,557309
{consumergroup=trace-service},1651802304,557309
{consumergroup=trace-service},1651802309,1187466
{consumergroup=trace-service},1651802314,1187466
{consumergroup=trace-service},1651802319,1187466
{consumergroup=trace-service},1651802324,513744
{consumergroup=trace-service},1651802329,513744
{consumergroup=trace-service},1651802334,513744
{consumergroup=trace-service},1651802339,1198727
{consumergroup=trace-service},1651802344,1198727
{consumergroup=trace-service},1651802349,1198727
{consumergroup=trace-service},1651802354,561736
{consumergroup=trace-service},1651802359,561736
{consumergroup=trace-service},1651802364,561736
{consumergroup=trace-service},1651802369,1192322
{consumergroup=trace-service},1651802374,1192322
{consumergroup=trace-service},1651802379,1192322
{consumergroup=trace-service},1651802384,921213
{consumergroup=trace-service},1651802389,921213
{consumergroup=trace-service},1651802394,921213
{consumergroup=trace-service},1651802399,1419989
{consumergroup=trace-service},1651802404,1419989
{consumergroup=trace-service},1651802409,1419989
{consumergroup=trace-service},1651802414,752779
{consumergroup=trace-service},1651802419,752779
{consumergroup=trace-service},1651802424,752779
{consumergroup=trace-token-events-consumer},1651802009,0
{consumergroup=trace-token-events-consumer},1651802014,0
{consumergroup=trace-token-events-consumer},1651802019,0
{consumergroup=trace-token-events-consumer},1651802024,0
{consumergroup=trace-token-events-consumer},1651802029,0
{consumergroup=trace-token-events-consumer},1651802034,0
{consumergroup=trace-token-events-consumer},1651802039,0
{consumergroup=trace-token-events-consumer},1651802044,0
{consumergroup=trace-token-events-consumer},1651802049,0
{consumergroup=trace-token-events-consumer},1651802054,0
{consumergroup=trace-token-events-consumer},1651802059,0
{consumergroup=trace-token-events-consumer},1651802064,0
{consumergroup=trace-token-events-consumer},1651802069,0
{consumergroup=trace-token-events-consumer},1651802074,0
{consumergroup=trace-token-events-consumer},1651802079,0
{consumergroup=trace-token-events-consumer},1651802084,0
{consumergroup=trace-token-events-consumer},1651802089,0
{consumergroup=trace-token-events-consumer},1651802094,0
{consumergroup=trace-token-events-consumer},1651802099,0
{consumergroup=trace-token-events-consumer},1651802104,0
{consumergroup=trace-token-events-consumer},1651802109,0
{consumergroup=trace-token-events-consumer},1651802114,0
{consumergroup=trace-token-events-consumer},1651802119,0
{consumergroup=trace-token-events-consumer},1651802124,0
{consumergroup=trace-token-events-consumer},1651802129,0
{consumergroup=trace-token-events-consumer},1651802134,0
{consumergroup=trace-token-events-consumer},1651802139,0
{consumergroup=trace-token-events-consumer},1651802144,0
{consumergroup=trace-token-events-consumer},1651802149,0
{consumergroup=trace-token-events-consumer},1651802154,0
{consumergroup=trace-token-events-consumer},1651802159,0
{consumergroup=trace-token-events-consumer},1651802164,0
{consumergroup=trace-token-events-consumer},1651802169,0
{consumergroup=trace-token-events-consumer},1651802174,0
{consumergroup=trace-token-events-consumer},1651802179,0
{consumergroup=trace-token-events-consumer},1651802184,0
{consumergroup=trace-token-events-consumer},1651802189,0
{consumergroup=trace-token-events-consumer},1651802194,0
{consumergroup=trace-token-events-consumer},1651802199,0
{consumergroup=trace-token-events-consumer},1651802204,0
{consumergroup=trace-token-events-consumer},1651802209,0
{consumergroup=trace-token-events-consumer},1651802214,0
{consumergroup=trace-token-events-consumer},1651802219,0
{consumergroup=trace-token-events-consumer},1651802224,0
{consumergroup=trace-token-events-consumer},1651802229,0
{consumergroup=trace-token-events-consumer},1651802234,0
{consumergroup=trace-token-events-consumer},1651802239,0
{consumergroup=trace-token-events-consumer},1651802244,0
{consumergroup=trace-token-events-consumer},1651802249,0
{consumergroup=trace-token-events-consumer},1651802254,0
{consumergroup=trace-token-events-consumer},1651802259,0
{consumergroup=trace-token-events-consumer},1651802264,0
{consumergroup=trace-token-events-consumer},1651802269,0
{consumergroup=trace-token-events-consumer},1651802274,0
{consumergroup=trace-token-events-consumer},1651802279,0
{consumergroup=trace-token-events-consumer},1651802284,0
{consumergroup=trace-token-events-consumer},1651802289,0
{consumergroup=trace-token-events-consumer},1651802294,0
{consumergroup=trace-token-events-consumer},1651802299,0
{consumergroup=trace-token-events-consumer},1651802304,0
{consumergroup=trace-token-events-consumer},1651802309,0
{consumergroup=trace-token-events-consumer},1651802314,0
{consumergroup=trace-token-events-consumer},1651802319,0
{consumergroup=trace-token-events-consumer},1651802324,0
{consumergroup=trace-token-events-consumer},1651802329,0
{consumergroup=trace-token-events-consumer},1651802334,0
{consumergroup=trace-token-events-consumer},1651802339,0
{consumergroup=trace-token-events-consumer},1651802344,0
{consumergroup=trace-token-events-consumer},1651802349,0
{consumergroup=trace-token-events-consumer},1651802354,0
{consumergroup=trace-token-events-consumer},1651802359,0
{consumergroup=trace-token-events-consumer},1651802364,0
{consumergroup=trace-token-events-consumer},1651802369,0
{consumergroup=trace-token-events-consumer},1651802374,0
{consumergroup=trace-token-events-consumer},1651802379,0
{consumergroup=trace-token-events-consumer},1651802384,0
{consumergroup=trace-token-events-consumer},1651802389,0
{consumergroup=trace-token-events-consumer},1651802394,0
{consumergroup=trace-token-events-consumer},1651802399,0
{consumergroup=trace-token-events-consumer},1651802404,0
{consumergroup=trace-token-events-consumer},1651802409,0
{consumergroup=trace-token-events-consumer},1651802414,0
{consumergroup=trace-token-events-consumer},1651802419,0
{consumergroup=trace-token-events-consumer},1651802424,0
