labels,timestamp,value
{consumergroup=__strimzi-topic-operator-kstreams},1651781383,2
{consumergroup=__strimzi-topic-operator-kstreams},1651781388,2
{consumergroup=__strimzi-topic-operator-kstreams},1651781393,2
{consumergroup=__strimzi-topic-operator-kstreams},1651781398,10
{consumergroup=__strimzi-topic-operator-kstreams},1651781403,10
{consumergroup=__strimzi-topic-operator-kstreams},1651781408,10
{consumergroup=__strimzi-topic-operator-kstreams},1651781413,3
{consumergroup=__strimzi-topic-operator-kstreams},1651781418,3
{consumergroup=__strimzi-topic-operator-kstreams},1651781423,3
{consumergroup=__strimzi-topic-operator-kstreams},1651781428,3
{consumergroup=__strimzi-topic-operator-kstreams},1651781433,3
{consumergroup=__strimzi-topic-operator-kstreams},1651781438,3
{consumergroup=__strimzi-topic-operator-kstreams},1651781443,0
{consumergroup=__strimzi-topic-operator-kstreams},1651781448,0
{consumergroup=__strimzi-topic-operator-kstreams},1651781453,0
{consumergroup=__strimzi-topic-operator-kstreams},1651781458,0
{consumergroup=__strimzi-topic-operator-kstreams},1651781463,0
{consumergroup=__strimzi-topic-operator-kstreams},1651781468,0
{consumergroup=__strimzi-topic-operator-kstreams},1651781473,0
{consumergroup=__strimzi-topic-operator-kstreams},1651781478,0
{consumergroup=__strimzi-topic-operator-kstreams},1651781483,0
{consumergroup=__strimzi-topic-operator-kstreams},1651781488,0
{consumergroup=__strimzi-topic-operator-kstreams},1651781493,0
{consumergroup=__strimzi-topic-operator-kstreams},1651781498,0
{consumergroup=__strimzi-topic-operator-kstreams},1651781503,0
{consumergroup=__strimzi-topic-operator-kstreams},1651781508,0
{consumergroup=__strimzi-topic-operator-kstreams},1651781513,0
{consumergroup=__strimzi-topic-operator-kstreams},1651781518,0
{consumergroup=__strimzi-topic-operator-kstreams},1651781523,0
{consumergroup=__strimzi-topic-operator-kstreams},1651781528,0
{consumergroup=__strimzi-topic-operator-kstreams},1651781533,0
{consumergroup=__strimzi-topic-operator-kstreams},1651781538,0
{consumergroup=__strimzi-topic-operator-kstreams},1651781543,0
{consumergroup=__strimzi-topic-operator-kstreams},1651781548,0
{consumergroup=__strimzi-topic-operator-kstreams},1651781553,0
{consumergroup=__strimzi-topic-operator-kstreams},1651781558,0
{consumergroup=__strimzi-topic-operator-kstreams},1651781563,0
{consumergroup=__strimzi-topic-operator-kstreams},1651781568,0
{consumergroup=__strimzi-topic-operator-kstreams},1651781573,0
{consumergroup=__strimzi-topic-operator-kstreams},1651781578,0
{consumergroup=__strimzi-topic-operator-kstreams},1651781583,0
{consumergroup=__strimzi-topic-operator-kstreams},1651781588,0
{consumergroup=__strimzi-topic-operator-kstreams},1651781593,0
{consumergroup=__strimzi-topic-operator-kstreams},1651781598,0
{consumergroup=__strimzi-topic-operator-kstreams},1651781603,0
{consumergroup=__strimzi-topic-operator-kstreams},1651781608,0
{consumergroup=__strimzi-topic-operator-kstreams},1651781613,0
{consumergroup=__strimzi-topic-operator-kstreams},1651781618,0
{consumergroup=__strimzi-topic-operator-kstreams},1651781623,0
{consumergroup=__strimzi-topic-operator-kstreams},1651781628,0
{consumergroup=__strimzi-topic-operator-kstreams},1651781633,0
{consumergroup=__strimzi-topic-operator-kstreams},1651781638,0
{consumergroup=__strimzi-topic-operator-kstreams},1651781643,0
{consumergroup=__strimzi-topic-operator-kstreams},1651781648,0
{consumergroup=__strimzi-topic-operator-kstreams},1651781653,0
{consumergroup=__strimzi-topic-operator-kstreams},1651781658,0
{consumergroup=__strimzi-topic-operator-kstreams},1651781663,0
{consumergroup=__strimzi-topic-operator-kstreams},1651781668,0
{consumergroup=__strimzi-topic-operator-kstreams},1651781673,0
{consumergroup=__strimzi-topic-operator-kstreams},1651781678,0
{consumergroup=__strimzi-topic-operator-kstreams},1651781683,0
{consumergroup=__strimzi-topic-operator-kstreams},1651781688,0
{consumergroup=__strimzi-topic-operator-kstreams},1651781693,0
{consumergroup=__strimzi-topic-operator-kstreams},1651781698,0
{consumergroup=__strimzi-topic-operator-kstreams},1651781703,0
{consumergroup=__strimzi-topic-operator-kstreams},1651781708,0
{consumergroup=__strimzi-topic-operator-kstreams},1651781713,0
{consumergroup=__strimzi-topic-operator-kstreams},1651781718,0
{consumergroup=__strimzi-topic-operator-kstreams},1651781723,0
{consumergroup=__strimzi-topic-operator-kstreams},1651781728,0
{consumergroup=__strimzi-topic-operator-kstreams},1651781733,0
{consumergroup=__strimzi-topic-operator-kstreams},1651781738,0
{consumergroup=__strimzi-topic-operator-kstreams},1651781743,0
{consumergroup=__strimzi-topic-operator-kstreams},1651781748,0
{consumergroup=__strimzi-topic-operator-kstreams},1651781753,0
{consumergroup=__strimzi-topic-operator-kstreams},1651781758,0
{consumergroup=__strimzi-topic-operator-kstreams},1651781763,0
{consumergroup=__strimzi-topic-operator-kstreams},1651781768,0
{consumergroup=__strimzi-topic-operator-kstreams},1651781773,0
{consumergroup=__strimzi-topic-operator-kstreams},1651781778,0
{consumergroup=__strimzi-topic-operator-kstreams},1651781783,0
{consumergroup=__strimzi-topic-operator-kstreams},1651781788,0
{consumergroup=__strimzi-topic-operator-kstreams},1651781793,0
{consumergroup=__strimzi-topic-operator-kstreams},1651781798,0
{consumergroup=__strimzi-topic-operator-kstreams},1651781803,0
{consumergroup=__strimzi-topic-operator-kstreams},1651781808,0
{consumergroup=__strimzi-topic-operator-kstreams},1651781813,0
{consumergroup=__strimzi-topic-operator-kstreams},1651781818,0
{consumergroup=__strimzi-topic-operator-kstreams},1651781823,0
{consumergroup=__strimzi-topic-operator-kstreams},1651781828,0
{consumergroup=trace-service},1651781428,170909
{consumergroup=trace-service},1651781433,170909
{consumergroup=trace-service},1651781438,170909
{consumergroup=trace-service},1651781443,777226
{consumergroup=trace-service},1651781448,777226
{consumergroup=trace-service},1651781453,777226
{consumergroup=trace-service},1651781458,352674
{consumergroup=trace-service},1651781463,352674
{consumergroup=trace-service},1651781468,352674
{consumergroup=trace-service},1651781473,581106
{consumergroup=trace-service},1651781478,581106
{consumergroup=trace-service},1651781483,581106
{consumergroup=trace-service},1651781488,1096883
{consumergroup=trace-service},1651781493,1096883
{consumergroup=trace-service},1651781498,1096883
{consumergroup=trace-service},1651781503,637134
{consumergroup=trace-service},1651781508,637134
{consumergroup=trace-service},1651781513,637134
{consumergroup=trace-service},1651781518,979547
{consumergroup=trace-service},1651781523,979547
{consumergroup=trace-service},1651781528,979547
{consumergroup=trace-service},1651781533,1089735
{consumergroup=trace-service},1651781538,1089735
{consumergroup=trace-service},1651781543,1089735
{consumergroup=trace-service},1651781548,1222883
{consumergroup=trace-service},1651781553,1222883
{consumergroup=trace-service},1651781558,1222883
{consumergroup=trace-service},1651781563,882056
{consumergroup=trace-service},1651781568,882056
{consumergroup=trace-service},1651781573,882056
{consumergroup=trace-service},1651781578,1159924
{consumergroup=trace-service},1651781583,1159924
{consumergroup=trace-service},1651781588,1159924
{consumergroup=trace-service},1651781593,1410647
{consumergroup=trace-service},1651781598,1410647
{consumergroup=trace-service},1651781603,1410647
{consumergroup=trace-service},1651781608,1296782
{consumergroup=trace-service},1651781613,1296782
{consumergroup=trace-service},1651781618,1296782
{consumergroup=trace-service},1651781623,2065078
{consumergroup=trace-service},1651781628,2065078
{consumergroup=trace-service},1651781633,2065078
{consumergroup=trace-service},1651781638,1837424
{consumergroup=trace-service},1651781643,1837424
{consumergroup=trace-service},1651781648,1837424
{consumergroup=trace-service},1651781653,2276040
{consumergroup=trace-service},1651781658,2276040
{consumergroup=trace-service},1651781663,2276040
{consumergroup=trace-service},1651781668,1834320
{consumergroup=trace-service},1651781673,1834320
{consumergroup=trace-service},1651781678,1834320
{consumergroup=trace-service},1651781683,2015960
{consumergroup=trace-service},1651781688,2015960
{consumergroup=trace-service},1651781693,2015960
{consumergroup=trace-service},1651781698,1702063
{consumergroup=trace-service},1651781703,1702063
{consumergroup=trace-service},1651781708,1702063
{consumergroup=trace-service},1651781713,2032285
{consumergroup=trace-service},1651781718,2032285
{consumergroup=trace-service},1651781723,2032285
{consumergroup=trace-service},1651781728,1417307
{consumergroup=trace-service},1651781733,1417307
{consumergroup=trace-service},1651781738,1417307
{consumergroup=trace-service},1651781743,1154174
{consumergroup=trace-service},1651781748,1154174
{consumergroup=trace-service},1651781753,1154174
{consumergroup=trace-service},1651781758,1266754
{consumergroup=trace-service},1651781763,1266754
{consumergroup=trace-service},1651781768,1266754
{consumergroup=trace-service},1651781773,2060383
{consumergroup=trace-service},1651781778,2060383
{consumergroup=trace-service},1651781783,2060383
{consumergroup=trace-service},1651781788,1883677
{consumergroup=trace-service},1651781793,1883677
{consumergroup=trace-service},1651781798,1883677
{consumergroup=trace-service},1651781803,2015352
{consumergroup=trace-service},1651781808,2015352
{consumergroup=trace-service},1651781813,2015352
{consumergroup=trace-service},1651781818,1695732
{consumergroup=trace-service},1651781823,1695732
{consumergroup=trace-service},1651781828,1695732
{consumergroup=trace-token-events-consumer},1651781428,0
{consumergroup=trace-token-events-consumer},1651781433,0
{consumergroup=trace-token-events-consumer},1651781438,0
{consumergroup=trace-token-events-consumer},1651781443,0
{consumergroup=trace-token-events-consumer},1651781448,0
{consumergroup=trace-token-events-consumer},1651781453,0
{consumergroup=trace-token-events-consumer},1651781458,0
{consumergroup=trace-token-events-consumer},1651781463,0
{consumergroup=trace-token-events-consumer},1651781468,0
{consumergroup=trace-token-events-consumer},1651781473,0
{consumergroup=trace-token-events-consumer},1651781478,0
{consumergroup=trace-token-events-consumer},1651781483,0
{consumergroup=trace-token-events-consumer},1651781488,0
{consumergroup=trace-token-events-consumer},1651781493,0
{consumergroup=trace-token-events-consumer},1651781498,0
{consumergroup=trace-token-events-consumer},1651781503,0
{consumergroup=trace-token-events-consumer},1651781508,0
{consumergroup=trace-token-events-consumer},1651781513,0
{consumergroup=trace-token-events-consumer},1651781518,0
{consumergroup=trace-token-events-consumer},1651781523,0
{consumergroup=trace-token-events-consumer},1651781528,0
{consumergroup=trace-token-events-consumer},1651781533,0
{consumergroup=trace-token-events-consumer},1651781538,0
{consumergroup=trace-token-events-consumer},1651781543,0
{consumergroup=trace-token-events-consumer},1651781548,0
{consumergroup=trace-token-events-consumer},1651781553,0
{consumergroup=trace-token-events-consumer},1651781558,0
{consumergroup=trace-token-events-consumer},1651781563,0
{consumergroup=trace-token-events-consumer},1651781568,0
{consumergroup=trace-token-events-consumer},1651781573,0
{consumergroup=trace-token-events-consumer},1651781578,0
{consumergroup=trace-token-events-consumer},1651781583,0
{consumergroup=trace-token-events-consumer},1651781588,0
{consumergroup=trace-token-events-consumer},1651781593,0
{consumergroup=trace-token-events-consumer},1651781598,0
{consumergroup=trace-token-events-consumer},1651781603,0
{consumergroup=trace-token-events-consumer},1651781608,0
{consumergroup=trace-token-events-consumer},1651781613,0
{consumergroup=trace-token-events-consumer},1651781618,0
{consumergroup=trace-token-events-consumer},1651781623,0
{consumergroup=trace-token-events-consumer},1651781628,0
{consumergroup=trace-token-events-consumer},1651781633,0
{consumergroup=trace-token-events-consumer},1651781638,0
{consumergroup=trace-token-events-consumer},1651781643,0
{consumergroup=trace-token-events-consumer},1651781648,0
{consumergroup=trace-token-events-consumer},1651781653,0
{consumergroup=trace-token-events-consumer},1651781658,0
{consumergroup=trace-token-events-consumer},1651781663,0
{consumergroup=trace-token-events-consumer},1651781668,0
{consumergroup=trace-token-events-consumer},1651781673,0
{consumergroup=trace-token-events-consumer},1651781678,0
{consumergroup=trace-token-events-consumer},1651781683,0
{consumergroup=trace-token-events-consumer},1651781688,0
{consumergroup=trace-token-events-consumer},1651781693,0
{consumergroup=trace-token-events-consumer},1651781698,0
{consumergroup=trace-token-events-consumer},1651781703,0
{consumergroup=trace-token-events-consumer},1651781708,0
{consumergroup=trace-token-events-consumer},1651781713,0
{consumergroup=trace-token-events-consumer},1651781718,0
{consumergroup=trace-token-events-consumer},1651781723,0
{consumergroup=trace-token-events-consumer},1651781728,0
{consumergroup=trace-token-events-consumer},1651781733,0
{consumergroup=trace-token-events-consumer},1651781738,0
{consumergroup=trace-token-events-consumer},1651781743,0
{consumergroup=trace-token-events-consumer},1651781748,0
{consumergroup=trace-token-events-consumer},1651781753,0
{consumergroup=trace-token-events-consumer},1651781758,0
{consumergroup=trace-token-events-consumer},1651781763,0
{consumergroup=trace-token-events-consumer},1651781768,0
{consumergroup=trace-token-events-consumer},1651781773,0
{consumergroup=trace-token-events-consumer},1651781778,0
{consumergroup=trace-token-events-consumer},1651781783,0
{consumergroup=trace-token-events-consumer},1651781788,0
{consumergroup=trace-token-events-consumer},1651781793,0
{consumergroup=trace-token-events-consumer},1651781798,0
{consumergroup=trace-token-events-consumer},1651781803,0
{consumergroup=trace-token-events-consumer},1651781808,0
{consumergroup=trace-token-events-consumer},1651781813,0
{consumergroup=trace-token-events-consumer},1651781818,0
{consumergroup=trace-token-events-consumer},1651781823,0
{consumergroup=trace-token-events-consumer},1651781828,0
