labels,timestamp,value
{job=theodolite-stu200776/trace-isolated-podmonitor},1651807695,0
{job=theodolite-stu200776/trace-isolated-podmonitor},1651807700,0
{job=theodolite-stu200776/trace-isolated-podmonitor},1651807705,0
{job=theodolite-stu200776/trace-isolated-podmonitor},1651807710,0
{job=theodolite-stu200776/trace-isolated-podmonitor},1651807715,0
{job=theodolite-stu200776/trace-isolated-podmonitor},1651807720,0
{job=theodolite-stu200776/trace-isolated-podmonitor},1651807725,0
{job=theodolite-stu200776/trace-isolated-podmonitor},1651807730,0
{job=theodolite-stu200776/trace-isolated-podmonitor},1651807735,0
{job=theodolite-stu200776/trace-isolated-podmonitor},1651807740,0
{job=theodolite-stu200776/trace-isolated-podmonitor},1651807745,0
{job=theodolite-stu200776/trace-isolated-podmonitor},1651807750,0
{job=theodolite-stu200776/trace-isolated-podmonitor},1651807755,0
{job=theodolite-stu200776/trace-isolated-podmonitor},1651807760,0
{job=theodolite-stu200776/trace-isolated-podmonitor},1651807765,0
{job=theodolite-stu200776/trace-isolated-podmonitor},1651807770,0
{job=theodolite-stu200776/trace-isolated-podmonitor},1651807775,0
{job=theodolite-stu200776/trace-isolated-podmonitor},1651807780,0
{job=theodolite-stu200776/trace-isolated-podmonitor},1651807785,0
{job=theodolite-stu200776/trace-isolated-podmonitor},1651807790,0
{job=theodolite-stu200776/trace-isolated-podmonitor},1651807795,0
{job=theodolite-stu200776/trace-isolated-podmonitor},1651807800,0
{job=theodolite-stu200776/trace-isolated-podmonitor},1651807805,0
{job=theodolite-stu200776/trace-isolated-podmonitor},1651807810,0
{job=theodolite-stu200776/trace-isolated-podmonitor},1651807815,0
{job=theodolite-stu200776/trace-isolated-podmonitor},1651807820,0
{job=theodolite-stu200776/trace-isolated-podmonitor},1651807825,0
{job=theodolite-stu200776/trace-isolated-podmonitor},1651807830,0
{job=theodolite-stu200776/trace-isolated-podmonitor},1651807835,0
{job=theodolite-stu200776/trace-isolated-podmonitor},1651807840,0
{job=theodolite-stu200776/trace-isolated-podmonitor},1651807845,0
{job=theodolite-stu200776/trace-isolated-podmonitor},1651807850,0
{job=theodolite-stu200776/trace-isolated-podmonitor},1651807855,0
{job=theodolite-stu200776/trace-isolated-podmonitor},1651807860,0
{job=theodolite-stu200776/trace-isolated-podmonitor},1651807865,0
{job=theodolite-stu200776/trace-isolated-podmonitor},1651807870,0
{job=theodolite-stu200776/trace-isolated-podmonitor},1651807875,0
{job=theodolite-stu200776/trace-isolated-podmonitor},1651807880,0
{job=theodolite-stu200776/trace-isolated-podmonitor},1651807885,0
{job=theodolite-stu200776/trace-isolated-podmonitor},1651807890,0
{job=theodolite-stu200776/trace-isolated-podmonitor},1651807895,0
{job=theodolite-stu200776/trace-isolated-podmonitor},1651807900,0
{job=theodolite-stu200776/trace-isolated-podmonitor},1651807905,0
{job=theodolite-stu200776/trace-isolated-podmonitor},1651807910,0
{job=theodolite-stu200776/trace-isolated-podmonitor},1651807915,0
{job=theodolite-stu200776/trace-isolated-podmonitor},1651807920,0
{job=theodolite-stu200776/trace-isolated-podmonitor},1651807925,0
{job=theodolite-stu200776/trace-isolated-podmonitor},1651807930,0
{job=theodolite-stu200776/trace-isolated-podmonitor},1651807935,0
{job=theodolite-stu200776/trace-isolated-podmonitor},1651807940,0
{job=theodolite-stu200776/trace-isolated-podmonitor},1651807945,0
{job=theodolite-stu200776/trace-isolated-podmonitor},1651807950,0
{job=theodolite-stu200776/trace-isolated-podmonitor},1651807955,0
{job=theodolite-stu200776/trace-isolated-podmonitor},1651807960,0
{job=theodolite-stu200776/trace-isolated-podmonitor},1651807965,0
{job=theodolite-stu200776/trace-isolated-podmonitor},1651807970,0
{job=theodolite-stu200776/trace-isolated-podmonitor},1651807975,0
{job=theodolite-stu200776/trace-isolated-podmonitor},1651807980,0
{job=theodolite-stu200776/trace-isolated-podmonitor},1651807985,886.0644702438062
{job=theodolite-stu200776/trace-isolated-podmonitor},1651807990,2228.1274007846387
{job=theodolite-stu200776/trace-isolated-podmonitor},1651807995,2920.510529827643
{job=theodolite-stu200776/trace-isolated-podmonitor},1651808000,3115.5426472289446
{job=theodolite-stu200776/trace-isolated-podmonitor},1651808005,3077.7706170419456
{job=theodolite-stu200776/trace-isolated-podmonitor},1651808010,2853.3289357333515
{job=theodolite-stu200776/trace-isolated-podmonitor},1651808015,2552.5035546308254
{job=theodolite-stu200776/trace-isolated-podmonitor},1651808020,2495.277610699061
{job=theodolite-stu200776/trace-isolated-podmonitor},1651808025,2215.5110654465084
{job=theodolite-stu200776/trace-isolated-podmonitor},1651808030,1604.1214985533368
{job=theodolite-stu200776/trace-isolated-podmonitor},1651808035,1509.226265083878
{job=theodolite-stu200776/trace-isolated-podmonitor},1651808040,1309.847305896591
{job=theodolite-stu200776/trace-isolated-podmonitor},1651808045,992.9937156194038
{job=theodolite-stu200776/trace-isolated-podmonitor},1651808050,548.4362536830636
{job=theodolite-stu200776/trace-isolated-podmonitor},1651808055,151.63941271621007
{job=theodolite-stu200776/trace-isolated-podmonitor},1651808060,151.61863890843148
{job=theodolite-stu200776/trace-isolated-podmonitor},1651808065,31.39981485637985
{job=theodolite-stu200776/trace-isolated-podmonitor},1651808070,31.413538765992246
