labels,timestamp,value
{consumergroup=__strimzi-topic-operator-kstreams},1651804543,8
{consumergroup=__strimzi-topic-operator-kstreams},1651804548,8
{consumergroup=__strimzi-topic-operator-kstreams},1651804553,8
{consumergroup=__strimzi-topic-operator-kstreams},1651804558,11
{consumergroup=__strimzi-topic-operator-kstreams},1651804563,11
{consumergroup=__strimzi-topic-operator-kstreams},1651804568,11
{consumergroup=__strimzi-topic-operator-kstreams},1651804573,0
{consumergroup=__strimzi-topic-operator-kstreams},1651804578,0
{consumergroup=__strimzi-topic-operator-kstreams},1651804583,0
{consumergroup=__strimzi-topic-operator-kstreams},1651804588,0
{consumergroup=__strimzi-topic-operator-kstreams},1651804593,0
{consumergroup=__strimzi-topic-operator-kstreams},1651804598,0
{consumergroup=__strimzi-topic-operator-kstreams},1651804603,0
{consumergroup=__strimzi-topic-operator-kstreams},1651804608,0
{consumergroup=__strimzi-topic-operator-kstreams},1651804613,0
{consumergroup=__strimzi-topic-operator-kstreams},1651804618,0
{consumergroup=__strimzi-topic-operator-kstreams},1651804623,0
{consumergroup=__strimzi-topic-operator-kstreams},1651804628,0
{consumergroup=__strimzi-topic-operator-kstreams},1651804633,0
{consumergroup=__strimzi-topic-operator-kstreams},1651804638,0
{consumergroup=__strimzi-topic-operator-kstreams},1651804643,0
{consumergroup=__strimzi-topic-operator-kstreams},1651804648,0
{consumergroup=__strimzi-topic-operator-kstreams},1651804653,0
{consumergroup=__strimzi-topic-operator-kstreams},1651804658,0
{consumergroup=__strimzi-topic-operator-kstreams},1651804663,0
{consumergroup=__strimzi-topic-operator-kstreams},1651804668,0
{consumergroup=__strimzi-topic-operator-kstreams},1651804673,0
{consumergroup=__strimzi-topic-operator-kstreams},1651804678,0
{consumergroup=__strimzi-topic-operator-kstreams},1651804683,0
{consumergroup=__strimzi-topic-operator-kstreams},1651804688,0
{consumergroup=__strimzi-topic-operator-kstreams},1651804693,0
{consumergroup=__strimzi-topic-operator-kstreams},1651804698,0
{consumergroup=__strimzi-topic-operator-kstreams},1651804703,0
{consumergroup=__strimzi-topic-operator-kstreams},1651804708,0
{consumergroup=__strimzi-topic-operator-kstreams},1651804713,0
{consumergroup=__strimzi-topic-operator-kstreams},1651804718,0
{consumergroup=__strimzi-topic-operator-kstreams},1651804723,0
{consumergroup=__strimzi-topic-operator-kstreams},1651804728,0
{consumergroup=__strimzi-topic-operator-kstreams},1651804733,0
{consumergroup=__strimzi-topic-operator-kstreams},1651804738,0
{consumergroup=__strimzi-topic-operator-kstreams},1651804743,0
{consumergroup=__strimzi-topic-operator-kstreams},1651804748,0
{consumergroup=__strimzi-topic-operator-kstreams},1651804753,0
{consumergroup=__strimzi-topic-operator-kstreams},1651804758,0
{consumergroup=__strimzi-topic-operator-kstreams},1651804763,0
{consumergroup=__strimzi-topic-operator-kstreams},1651804768,0
{consumergroup=__strimzi-topic-operator-kstreams},1651804773,0
{consumergroup=__strimzi-topic-operator-kstreams},1651804778,0
{consumergroup=__strimzi-topic-operator-kstreams},1651804783,0
{consumergroup=__strimzi-topic-operator-kstreams},1651804788,0
{consumergroup=__strimzi-topic-operator-kstreams},1651804793,0
{consumergroup=__strimzi-topic-operator-kstreams},1651804798,0
{consumergroup=__strimzi-topic-operator-kstreams},1651804803,0
{consumergroup=__strimzi-topic-operator-kstreams},1651804808,0
{consumergroup=__strimzi-topic-operator-kstreams},1651804813,0
{consumergroup=__strimzi-topic-operator-kstreams},1651804818,0
{consumergroup=__strimzi-topic-operator-kstreams},1651804823,0
{consumergroup=__strimzi-topic-operator-kstreams},1651804828,0
{consumergroup=__strimzi-topic-operator-kstreams},1651804833,0
{consumergroup=__strimzi-topic-operator-kstreams},1651804838,0
{consumergroup=__strimzi-topic-operator-kstreams},1651804843,0
{consumergroup=__strimzi-topic-operator-kstreams},1651804848,0
{consumergroup=__strimzi-topic-operator-kstreams},1651804853,0
{consumergroup=__strimzi-topic-operator-kstreams},1651804858,0
{consumergroup=__strimzi-topic-operator-kstreams},1651804863,0
{consumergroup=__strimzi-topic-operator-kstreams},1651804868,0
{consumergroup=__strimzi-topic-operator-kstreams},1651804873,0
{consumergroup=__strimzi-topic-operator-kstreams},1651804878,0
{consumergroup=__strimzi-topic-operator-kstreams},1651804883,0
{consumergroup=__strimzi-topic-operator-kstreams},1651804888,0
{consumergroup=__strimzi-topic-operator-kstreams},1651804893,0
{consumergroup=__strimzi-topic-operator-kstreams},1651804898,0
{consumergroup=__strimzi-topic-operator-kstreams},1651804903,0
{consumergroup=__strimzi-topic-operator-kstreams},1651804908,0
{consumergroup=__strimzi-topic-operator-kstreams},1651804913,0
{consumergroup=__strimzi-topic-operator-kstreams},1651804918,0
{consumergroup=__strimzi-topic-operator-kstreams},1651804923,0
{consumergroup=__strimzi-topic-operator-kstreams},1651804928,0
{consumergroup=__strimzi-topic-operator-kstreams},1651804933,0
{consumergroup=__strimzi-topic-operator-kstreams},1651804938,0
{consumergroup=__strimzi-topic-operator-kstreams},1651804943,0
{consumergroup=__strimzi-topic-operator-kstreams},1651804948,0
{consumergroup=__strimzi-topic-operator-kstreams},1651804953,0
{consumergroup=__strimzi-topic-operator-kstreams},1651804958,0
{consumergroup=__strimzi-topic-operator-kstreams},1651804963,0
{consumergroup=__strimzi-topic-operator-kstreams},1651804968,0
{consumergroup=__strimzi-topic-operator-kstreams},1651804973,0
{consumergroup=__strimzi-topic-operator-kstreams},1651804978,0
{consumergroup=trace-service},1651804588,89817
{consumergroup=trace-service},1651804593,89817
{consumergroup=trace-service},1651804598,89817
{consumergroup=trace-service},1651804603,471857
{consumergroup=trace-service},1651804608,471857
{consumergroup=trace-service},1651804613,471857
{consumergroup=trace-service},1651804618,1127718
{consumergroup=trace-service},1651804623,1127718
{consumergroup=trace-service},1651804628,1127718
{consumergroup=trace-service},1651804633,472232
{consumergroup=trace-service},1651804638,472232
{consumergroup=trace-service},1651804643,472232
{consumergroup=trace-service},1651804648,1040681
{consumergroup=trace-service},1651804653,1040681
{consumergroup=trace-service},1651804658,1040681
{consumergroup=trace-service},1651804663,424756
{consumergroup=trace-service},1651804668,424756
{consumergroup=trace-service},1651804673,424756
{consumergroup=trace-service},1651804678,805534
{consumergroup=trace-service},1651804683,805534
{consumergroup=trace-service},1651804688,805534
{consumergroup=trace-service},1651804693,410487
{consumergroup=trace-service},1651804698,410487
{consumergroup=trace-service},1651804703,410487
{consumergroup=trace-service},1651804708,708127
{consumergroup=trace-service},1651804713,708127
{consumergroup=trace-service},1651804718,708127
{consumergroup=trace-service},1651804723,405209
{consumergroup=trace-service},1651804728,405209
{consumergroup=trace-service},1651804733,405209
{consumergroup=trace-service},1651804738,1062768
{consumergroup=trace-service},1651804743,1062768
{consumergroup=trace-service},1651804748,1062768
{consumergroup=trace-service},1651804753,425612
{consumergroup=trace-service},1651804758,425612
{consumergroup=trace-service},1651804763,425612
{consumergroup=trace-service},1651804768,840674
{consumergroup=trace-service},1651804773,840674
{consumergroup=trace-service},1651804778,840674
{consumergroup=trace-service},1651804783,407982
{consumergroup=trace-service},1651804788,407982
{consumergroup=trace-service},1651804793,407982
{consumergroup=trace-service},1651804798,939570
{consumergroup=trace-service},1651804803,939570
{consumergroup=trace-service},1651804808,939570
{consumergroup=trace-service},1651804813,428393
{consumergroup=trace-service},1651804818,428393
{consumergroup=trace-service},1651804823,428393
{consumergroup=trace-service},1651804828,621223
{consumergroup=trace-service},1651804833,621223
{consumergroup=trace-service},1651804838,621223
{consumergroup=trace-service},1651804843,415182
{consumergroup=trace-service},1651804848,415182
{consumergroup=trace-service},1651804853,415182
{consumergroup=trace-service},1651804858,817401
{consumergroup=trace-service},1651804863,817401
{consumergroup=trace-service},1651804868,817401
{consumergroup=trace-service},1651804873,431941
{consumergroup=trace-service},1651804878,431941
{consumergroup=trace-service},1651804883,431941
{consumergroup=trace-service},1651804888,949382
{consumergroup=trace-service},1651804893,949382
{consumergroup=trace-service},1651804898,949382
{consumergroup=trace-service},1651804903,425076
{consumergroup=trace-service},1651804908,425076
{consumergroup=trace-service},1651804913,425076
{consumergroup=trace-service},1651804918,911555
{consumergroup=trace-service},1651804923,911555
{consumergroup=trace-service},1651804928,911555
{consumergroup=trace-service},1651804933,806681
{consumergroup=trace-service},1651804938,806681
{consumergroup=trace-service},1651804943,806681
{consumergroup=trace-service},1651804948,1094587
{consumergroup=trace-service},1651804953,1094587
{consumergroup=trace-service},1651804958,1094587
{consumergroup=trace-service},1651804963,687482
{consumergroup=trace-service},1651804968,687482
{consumergroup=trace-service},1651804973,687482
{consumergroup=trace-service},1651804978,806841
{consumergroup=trace-token-events-consumer},1651804573,0
{consumergroup=trace-token-events-consumer},1651804578,0
{consumergroup=trace-token-events-consumer},1651804583,0
{consumergroup=trace-token-events-consumer},1651804588,0
{consumergroup=trace-token-events-consumer},1651804593,0
{consumergroup=trace-token-events-consumer},1651804598,0
{consumergroup=trace-token-events-consumer},1651804603,0
{consumergroup=trace-token-events-consumer},1651804608,0
{consumergroup=trace-token-events-consumer},1651804613,0
{consumergroup=trace-token-events-consumer},1651804618,0
{consumergroup=trace-token-events-consumer},1651804623,0
{consumergroup=trace-token-events-consumer},1651804628,0
{consumergroup=trace-token-events-consumer},1651804633,0
{consumergroup=trace-token-events-consumer},1651804638,0
{consumergroup=trace-token-events-consumer},1651804643,0
{consumergroup=trace-token-events-consumer},1651804648,0
{consumergroup=trace-token-events-consumer},1651804653,0
{consumergroup=trace-token-events-consumer},1651804658,0
{consumergroup=trace-token-events-consumer},1651804663,0
{consumergroup=trace-token-events-consumer},1651804668,0
{consumergroup=trace-token-events-consumer},1651804673,0
{consumergroup=trace-token-events-consumer},1651804678,0
{consumergroup=trace-token-events-consumer},1651804683,0
{consumergroup=trace-token-events-consumer},1651804688,0
{consumergroup=trace-token-events-consumer},1651804693,0
{consumergroup=trace-token-events-consumer},1651804698,0
{consumergroup=trace-token-events-consumer},1651804703,0
{consumergroup=trace-token-events-consumer},1651804708,0
{consumergroup=trace-token-events-consumer},1651804713,0
{consumergroup=trace-token-events-consumer},1651804718,0
{consumergroup=trace-token-events-consumer},1651804723,0
{consumergroup=trace-token-events-consumer},1651804728,0
{consumergroup=trace-token-events-consumer},1651804733,0
{consumergroup=trace-token-events-consumer},1651804738,0
{consumergroup=trace-token-events-consumer},1651804743,0
{consumergroup=trace-token-events-consumer},1651804748,0
{consumergroup=trace-token-events-consumer},1651804753,0
{consumergroup=trace-token-events-consumer},1651804758,0
{consumergroup=trace-token-events-consumer},1651804763,0
{consumergroup=trace-token-events-consumer},1651804768,0
{consumergroup=trace-token-events-consumer},1651804773,0
{consumergroup=trace-token-events-consumer},1651804778,0
{consumergroup=trace-token-events-consumer},1651804783,0
{consumergroup=trace-token-events-consumer},1651804788,0
{consumergroup=trace-token-events-consumer},1651804793,0
{consumergroup=trace-token-events-consumer},1651804798,0
{consumergroup=trace-token-events-consumer},1651804803,0
{consumergroup=trace-token-events-consumer},1651804808,0
{consumergroup=trace-token-events-consumer},1651804813,0
{consumergroup=trace-token-events-consumer},1651804818,0
{consumergroup=trace-token-events-consumer},1651804823,0
{consumergroup=trace-token-events-consumer},1651804828,0
{consumergroup=trace-token-events-consumer},1651804833,0
{consumergroup=trace-token-events-consumer},1651804838,0
{consumergroup=trace-token-events-consumer},1651804843,0
{consumergroup=trace-token-events-consumer},1651804848,0
{consumergroup=trace-token-events-consumer},1651804853,0
{consumergroup=trace-token-events-consumer},1651804858,0
{consumergroup=trace-token-events-consumer},1651804863,0
{consumergroup=trace-token-events-consumer},1651804868,0
{consumergroup=trace-token-events-consumer},1651804873,0
{consumergroup=trace-token-events-consumer},1651804878,0
{consumergroup=trace-token-events-consumer},1651804883,0
{consumergroup=trace-token-events-consumer},1651804888,0
{consumergroup=trace-token-events-consumer},1651804893,0
{consumergroup=trace-token-events-consumer},1651804898,0
{consumergroup=trace-token-events-consumer},1651804903,0
{consumergroup=trace-token-events-consumer},1651804908,0
{consumergroup=trace-token-events-consumer},1651804913,0
{consumergroup=trace-token-events-consumer},1651804918,0
{consumergroup=trace-token-events-consumer},1651804923,0
{consumergroup=trace-token-events-consumer},1651804928,0
{consumergroup=trace-token-events-consumer},1651804933,0
{consumergroup=trace-token-events-consumer},1651804938,0
{consumergroup=trace-token-events-consumer},1651804943,0
{consumergroup=trace-token-events-consumer},1651804948,0
{consumergroup=trace-token-events-consumer},1651804953,0
{consumergroup=trace-token-events-consumer},1651804958,0
{consumergroup=trace-token-events-consumer},1651804963,0
{consumergroup=trace-token-events-consumer},1651804968,0
{consumergroup=trace-token-events-consumer},1651804973,0
{consumergroup=trace-token-events-consumer},1651804978,0
