labels,timestamp,value
{consumergroup=__strimzi-topic-operator-kstreams},1651794267,11
{consumergroup=__strimzi-topic-operator-kstreams},1651794272,11
{consumergroup=__strimzi-topic-operator-kstreams},1651794277,11
{consumergroup=__strimzi-topic-operator-kstreams},1651794282,3
{consumergroup=__strimzi-topic-operator-kstreams},1651794287,3
{consumergroup=__strimzi-topic-operator-kstreams},1651794292,3
{consumergroup=__strimzi-topic-operator-kstreams},1651794297,3
{consumergroup=__strimzi-topic-operator-kstreams},1651794302,3
{consumergroup=__strimzi-topic-operator-kstreams},1651794307,3
{consumergroup=__strimzi-topic-operator-kstreams},1651794312,0
{consumergroup=__strimzi-topic-operator-kstreams},1651794317,0
{consumergroup=__strimzi-topic-operator-kstreams},1651794322,0
{consumergroup=__strimzi-topic-operator-kstreams},1651794327,0
{consumergroup=__strimzi-topic-operator-kstreams},1651794332,0
{consumergroup=__strimzi-topic-operator-kstreams},1651794337,0
{consumergroup=__strimzi-topic-operator-kstreams},1651794342,0
{consumergroup=__strimzi-topic-operator-kstreams},1651794347,0
{consumergroup=__strimzi-topic-operator-kstreams},1651794352,0
{consumergroup=__strimzi-topic-operator-kstreams},1651794357,0
{consumergroup=__strimzi-topic-operator-kstreams},1651794362,0
{consumergroup=__strimzi-topic-operator-kstreams},1651794367,0
{consumergroup=__strimzi-topic-operator-kstreams},1651794372,0
{consumergroup=__strimzi-topic-operator-kstreams},1651794377,0
{consumergroup=__strimzi-topic-operator-kstreams},1651794382,0
{consumergroup=__strimzi-topic-operator-kstreams},1651794387,0
{consumergroup=__strimzi-topic-operator-kstreams},1651794392,0
{consumergroup=__strimzi-topic-operator-kstreams},1651794397,0
{consumergroup=__strimzi-topic-operator-kstreams},1651794402,0
{consumergroup=__strimzi-topic-operator-kstreams},1651794407,0
{consumergroup=__strimzi-topic-operator-kstreams},1651794412,0
{consumergroup=__strimzi-topic-operator-kstreams},1651794417,0
{consumergroup=__strimzi-topic-operator-kstreams},1651794422,0
{consumergroup=__strimzi-topic-operator-kstreams},1651794427,0
{consumergroup=__strimzi-topic-operator-kstreams},1651794432,0
{consumergroup=__strimzi-topic-operator-kstreams},1651794437,0
{consumergroup=__strimzi-topic-operator-kstreams},1651794442,0
{consumergroup=__strimzi-topic-operator-kstreams},1651794447,0
{consumergroup=__strimzi-topic-operator-kstreams},1651794452,0
{consumergroup=__strimzi-topic-operator-kstreams},1651794457,0
{consumergroup=__strimzi-topic-operator-kstreams},1651794462,0
{consumergroup=__strimzi-topic-operator-kstreams},1651794467,0
{consumergroup=__strimzi-topic-operator-kstreams},1651794472,0
{consumergroup=__strimzi-topic-operator-kstreams},1651794477,0
{consumergroup=__strimzi-topic-operator-kstreams},1651794482,0
{consumergroup=__strimzi-topic-operator-kstreams},1651794487,0
{consumergroup=__strimzi-topic-operator-kstreams},1651794492,0
{consumergroup=__strimzi-topic-operator-kstreams},1651794497,0
{consumergroup=__strimzi-topic-operator-kstreams},1651794502,0
{consumergroup=__strimzi-topic-operator-kstreams},1651794507,0
{consumergroup=__strimzi-topic-operator-kstreams},1651794512,0
{consumergroup=__strimzi-topic-operator-kstreams},1651794517,0
{consumergroup=__strimzi-topic-operator-kstreams},1651794522,0
{consumergroup=__strimzi-topic-operator-kstreams},1651794527,0
{consumergroup=__strimzi-topic-operator-kstreams},1651794532,0
{consumergroup=__strimzi-topic-operator-kstreams},1651794537,0
{consumergroup=__strimzi-topic-operator-kstreams},1651794542,0
{consumergroup=__strimzi-topic-operator-kstreams},1651794547,0
{consumergroup=__strimzi-topic-operator-kstreams},1651794552,0
{consumergroup=__strimzi-topic-operator-kstreams},1651794557,0
{consumergroup=__strimzi-topic-operator-kstreams},1651794562,0
{consumergroup=__strimzi-topic-operator-kstreams},1651794567,0
{consumergroup=__strimzi-topic-operator-kstreams},1651794572,0
{consumergroup=__strimzi-topic-operator-kstreams},1651794577,0
{consumergroup=__strimzi-topic-operator-kstreams},1651794582,0
{consumergroup=__strimzi-topic-operator-kstreams},1651794587,0
{consumergroup=__strimzi-topic-operator-kstreams},1651794592,0
{consumergroup=__strimzi-topic-operator-kstreams},1651794597,0
{consumergroup=__strimzi-topic-operator-kstreams},1651794602,0
{consumergroup=__strimzi-topic-operator-kstreams},1651794607,0
{consumergroup=__strimzi-topic-operator-kstreams},1651794612,0
{consumergroup=__strimzi-topic-operator-kstreams},1651794617,0
{consumergroup=__strimzi-topic-operator-kstreams},1651794622,0
{consumergroup=__strimzi-topic-operator-kstreams},1651794627,0
{consumergroup=__strimzi-topic-operator-kstreams},1651794632,0
{consumergroup=__strimzi-topic-operator-kstreams},1651794637,0
{consumergroup=__strimzi-topic-operator-kstreams},1651794642,0
{consumergroup=__strimzi-topic-operator-kstreams},1651794647,0
{consumergroup=__strimzi-topic-operator-kstreams},1651794652,0
{consumergroup=__strimzi-topic-operator-kstreams},1651794657,0
{consumergroup=__strimzi-topic-operator-kstreams},1651794662,0
{consumergroup=__strimzi-topic-operator-kstreams},1651794667,0
{consumergroup=__strimzi-topic-operator-kstreams},1651794672,0
{consumergroup=__strimzi-topic-operator-kstreams},1651794677,0
{consumergroup=__strimzi-topic-operator-kstreams},1651794682,0
{consumergroup=__strimzi-topic-operator-kstreams},1651794687,0
{consumergroup=__strimzi-topic-operator-kstreams},1651794692,0
{consumergroup=__strimzi-topic-operator-kstreams},1651794697,0
{consumergroup=__strimzi-topic-operator-kstreams},1651794702,0
{consumergroup=__strimzi-topic-operator-kstreams},1651794707,0
{consumergroup=trace-service},1651794312,475762
{consumergroup=trace-service},1651794317,475762
{consumergroup=trace-service},1651794322,475762
{consumergroup=trace-service},1651794327,305304
{consumergroup=trace-service},1651794332,305304
{consumergroup=trace-service},1651794337,305304
{consumergroup=trace-service},1651794342,394657
{consumergroup=trace-service},1651794347,394657
{consumergroup=trace-service},1651794352,394657
{consumergroup=trace-service},1651794357,210434
{consumergroup=trace-service},1651794362,210434
{consumergroup=trace-service},1651794367,210434
{consumergroup=trace-service},1651794372,339893
{consumergroup=trace-service},1651794377,339893
{consumergroup=trace-service},1651794382,339893
{consumergroup=trace-service},1651794387,401037
{consumergroup=trace-service},1651794392,401037
{consumergroup=trace-service},1651794397,401037
{consumergroup=trace-service},1651794402,321396
{consumergroup=trace-service},1651794407,321396
{consumergroup=trace-service},1651794412,321396
{consumergroup=trace-service},1651794417,175386
{consumergroup=trace-service},1651794422,175386
{consumergroup=trace-service},1651794427,175386
{consumergroup=trace-service},1651794432,347662
{consumergroup=trace-service},1651794437,347662
{consumergroup=trace-service},1651794442,347662
{consumergroup=trace-service},1651794447,997235
{consumergroup=trace-service},1651794452,997235
{consumergroup=trace-service},1651794457,997235
{consumergroup=trace-service},1651794462,331756
{consumergroup=trace-service},1651794467,331756
{consumergroup=trace-service},1651794472,331756
{consumergroup=trace-service},1651794477,434572
{consumergroup=trace-service},1651794482,434572
{consumergroup=trace-service},1651794487,434572
{consumergroup=trace-service},1651794492,353954
{consumergroup=trace-service},1651794497,353954
{consumergroup=trace-service},1651794502,353954
{consumergroup=trace-service},1651794507,643517
{consumergroup=trace-service},1651794512,643517
{consumergroup=trace-service},1651794517,643517
{consumergroup=trace-service},1651794522,310891
{consumergroup=trace-service},1651794527,310891
{consumergroup=trace-service},1651794532,310891
{consumergroup=trace-service},1651794537,135192
{consumergroup=trace-service},1651794542,135192
{consumergroup=trace-service},1651794547,135192
{consumergroup=trace-service},1651794552,351753
{consumergroup=trace-service},1651794557,351753
{consumergroup=trace-service},1651794562,351753
{consumergroup=trace-service},1651794567,870508
{consumergroup=trace-service},1651794572,870508
{consumergroup=trace-service},1651794577,870508
{consumergroup=trace-service},1651794582,375929
{consumergroup=trace-service},1651794587,375929
{consumergroup=trace-service},1651794592,375929
{consumergroup=trace-service},1651794597,742503
{consumergroup=trace-service},1651794602,742503
{consumergroup=trace-service},1651794607,742503
{consumergroup=trace-service},1651794612,323885
{consumergroup=trace-service},1651794617,323885
{consumergroup=trace-service},1651794622,323885
{consumergroup=trace-service},1651794627,166554
{consumergroup=trace-service},1651794632,166554
{consumergroup=trace-service},1651794637,166554
{consumergroup=trace-service},1651794642,307997
{consumergroup=trace-service},1651794647,307997
{consumergroup=trace-service},1651794652,307997
{consumergroup=trace-service},1651794657,689272
{consumergroup=trace-service},1651794662,689272
{consumergroup=trace-service},1651794667,689272
{consumergroup=trace-service},1651794672,362502
{consumergroup=trace-service},1651794677,362502
{consumergroup=trace-service},1651794682,362502
{consumergroup=trace-service},1651794687,349312
{consumergroup=trace-service},1651794692,349312
{consumergroup=trace-service},1651794697,349312
{consumergroup=trace-service},1651794702,332271
{consumergroup=trace-service},1651794707,332271
{consumergroup=trace-token-events-consumer},1651794297,0
{consumergroup=trace-token-events-consumer},1651794302,0
{consumergroup=trace-token-events-consumer},1651794307,0
{consumergroup=trace-token-events-consumer},1651794312,0
{consumergroup=trace-token-events-consumer},1651794317,0
{consumergroup=trace-token-events-consumer},1651794322,0
{consumergroup=trace-token-events-consumer},1651794327,0
{consumergroup=trace-token-events-consumer},1651794332,0
{consumergroup=trace-token-events-consumer},1651794337,0
{consumergroup=trace-token-events-consumer},1651794342,0
{consumergroup=trace-token-events-consumer},1651794347,0
{consumergroup=trace-token-events-consumer},1651794352,0
{consumergroup=trace-token-events-consumer},1651794357,0
{consumergroup=trace-token-events-consumer},1651794362,0
{consumergroup=trace-token-events-consumer},1651794367,0
{consumergroup=trace-token-events-consumer},1651794372,0
{consumergroup=trace-token-events-consumer},1651794377,0
{consumergroup=trace-token-events-consumer},1651794382,0
{consumergroup=trace-token-events-consumer},1651794387,0
{consumergroup=trace-token-events-consumer},1651794392,0
{consumergroup=trace-token-events-consumer},1651794397,0
{consumergroup=trace-token-events-consumer},1651794402,0
{consumergroup=trace-token-events-consumer},1651794407,0
{consumergroup=trace-token-events-consumer},1651794412,0
{consumergroup=trace-token-events-consumer},1651794417,0
{consumergroup=trace-token-events-consumer},1651794422,0
{consumergroup=trace-token-events-consumer},1651794427,0
{consumergroup=trace-token-events-consumer},1651794432,0
{consumergroup=trace-token-events-consumer},1651794437,0
{consumergroup=trace-token-events-consumer},1651794442,0
{consumergroup=trace-token-events-consumer},1651794447,0
{consumergroup=trace-token-events-consumer},1651794452,0
{consumergroup=trace-token-events-consumer},1651794457,0
{consumergroup=trace-token-events-consumer},1651794462,0
{consumergroup=trace-token-events-consumer},1651794467,0
{consumergroup=trace-token-events-consumer},1651794472,0
{consumergroup=trace-token-events-consumer},1651794477,0
{consumergroup=trace-token-events-consumer},1651794482,0
{consumergroup=trace-token-events-consumer},1651794487,0
{consumergroup=trace-token-events-consumer},1651794492,0
{consumergroup=trace-token-events-consumer},1651794497,0
{consumergroup=trace-token-events-consumer},1651794502,0
{consumergroup=trace-token-events-consumer},1651794507,0
{consumergroup=trace-token-events-consumer},1651794512,0
{consumergroup=trace-token-events-consumer},1651794517,0
{consumergroup=trace-token-events-consumer},1651794522,0
{consumergroup=trace-token-events-consumer},1651794527,0
{consumergroup=trace-token-events-consumer},1651794532,0
{consumergroup=trace-token-events-consumer},1651794537,0
{consumergroup=trace-token-events-consumer},1651794542,0
{consumergroup=trace-token-events-consumer},1651794547,0
{consumergroup=trace-token-events-consumer},1651794552,0
{consumergroup=trace-token-events-consumer},1651794557,0
{consumergroup=trace-token-events-consumer},1651794562,0
{consumergroup=trace-token-events-consumer},1651794567,0
{consumergroup=trace-token-events-consumer},1651794572,0
{consumergroup=trace-token-events-consumer},1651794577,0
{consumergroup=trace-token-events-consumer},1651794582,0
{consumergroup=trace-token-events-consumer},1651794587,0
{consumergroup=trace-token-events-consumer},1651794592,0
{consumergroup=trace-token-events-consumer},1651794597,0
{consumergroup=trace-token-events-consumer},1651794602,0
{consumergroup=trace-token-events-consumer},1651794607,0
{consumergroup=trace-token-events-consumer},1651794612,0
{consumergroup=trace-token-events-consumer},1651794617,0
{consumergroup=trace-token-events-consumer},1651794622,0
{consumergroup=trace-token-events-consumer},1651794627,0
{consumergroup=trace-token-events-consumer},1651794632,0
{consumergroup=trace-token-events-consumer},1651794637,0
{consumergroup=trace-token-events-consumer},1651794642,0
{consumergroup=trace-token-events-consumer},1651794647,0
{consumergroup=trace-token-events-consumer},1651794652,0
{consumergroup=trace-token-events-consumer},1651794657,0
{consumergroup=trace-token-events-consumer},1651794662,0
{consumergroup=trace-token-events-consumer},1651794667,0
{consumergroup=trace-token-events-consumer},1651794672,0
{consumergroup=trace-token-events-consumer},1651794677,0
{consumergroup=trace-token-events-consumer},1651794682,0
{consumergroup=trace-token-events-consumer},1651794687,0
{consumergroup=trace-token-events-consumer},1651794692,0
{consumergroup=trace-token-events-consumer},1651794697,0
{consumergroup=trace-token-events-consumer},1651794702,0
{consumergroup=trace-token-events-consumer},1651794707,0
