labels,timestamp,value
{consumergroup=__strimzi-topic-operator-kstreams},1651785543,11
{consumergroup=__strimzi-topic-operator-kstreams},1651785548,11
{consumergroup=__strimzi-topic-operator-kstreams},1651785553,11
{consumergroup=__strimzi-topic-operator-kstreams},1651785558,0
{consumergroup=__strimzi-topic-operator-kstreams},1651785563,0
{consumergroup=__strimzi-topic-operator-kstreams},1651785568,0
{consumergroup=__strimzi-topic-operator-kstreams},1651785573,3
{consumergroup=__strimzi-topic-operator-kstreams},1651785578,3
{consumergroup=__strimzi-topic-operator-kstreams},1651785583,3
{consumergroup=__strimzi-topic-operator-kstreams},1651785588,0
{consumergroup=__strimzi-topic-operator-kstreams},1651785593,0
{consumergroup=__strimzi-topic-operator-kstreams},1651785598,0
{consumergroup=__strimzi-topic-operator-kstreams},1651785603,0
{consumergroup=__strimzi-topic-operator-kstreams},1651785608,0
{consumergroup=__strimzi-topic-operator-kstreams},1651785613,0
{consumergroup=__strimzi-topic-operator-kstreams},1651785618,0
{consumergroup=__strimzi-topic-operator-kstreams},1651785623,0
{consumergroup=__strimzi-topic-operator-kstreams},1651785628,0
{consumergroup=__strimzi-topic-operator-kstreams},1651785633,0
{consumergroup=__strimzi-topic-operator-kstreams},1651785638,0
{consumergroup=__strimzi-topic-operator-kstreams},1651785643,0
{consumergroup=__strimzi-topic-operator-kstreams},1651785648,0
{consumergroup=__strimzi-topic-operator-kstreams},1651785653,0
{consumergroup=__strimzi-topic-operator-kstreams},1651785658,0
{consumergroup=__strimzi-topic-operator-kstreams},1651785663,0
{consumergroup=__strimzi-topic-operator-kstreams},1651785668,0
{consumergroup=__strimzi-topic-operator-kstreams},1651785673,0
{consumergroup=__strimzi-topic-operator-kstreams},1651785678,0
{consumergroup=__strimzi-topic-operator-kstreams},1651785683,0
{consumergroup=__strimzi-topic-operator-kstreams},1651785688,0
{consumergroup=__strimzi-topic-operator-kstreams},1651785693,0
{consumergroup=__strimzi-topic-operator-kstreams},1651785698,0
{consumergroup=__strimzi-topic-operator-kstreams},1651785703,0
{consumergroup=__strimzi-topic-operator-kstreams},1651785708,0
{consumergroup=__strimzi-topic-operator-kstreams},1651785713,0
{consumergroup=__strimzi-topic-operator-kstreams},1651785718,0
{consumergroup=__strimzi-topic-operator-kstreams},1651785723,0
{consumergroup=__strimzi-topic-operator-kstreams},1651785728,0
{consumergroup=__strimzi-topic-operator-kstreams},1651785733,0
{consumergroup=__strimzi-topic-operator-kstreams},1651785738,0
{consumergroup=__strimzi-topic-operator-kstreams},1651785743,0
{consumergroup=__strimzi-topic-operator-kstreams},1651785748,0
{consumergroup=__strimzi-topic-operator-kstreams},1651785753,0
{consumergroup=__strimzi-topic-operator-kstreams},1651785758,0
{consumergroup=__strimzi-topic-operator-kstreams},1651785763,0
{consumergroup=__strimzi-topic-operator-kstreams},1651785768,0
{consumergroup=__strimzi-topic-operator-kstreams},1651785773,0
{consumergroup=__strimzi-topic-operator-kstreams},1651785778,0
{consumergroup=__strimzi-topic-operator-kstreams},1651785783,0
{consumergroup=__strimzi-topic-operator-kstreams},1651785788,0
{consumergroup=__strimzi-topic-operator-kstreams},1651785793,0
{consumergroup=__strimzi-topic-operator-kstreams},1651785798,0
{consumergroup=__strimzi-topic-operator-kstreams},1651785803,0
{consumergroup=__strimzi-topic-operator-kstreams},1651785808,0
{consumergroup=__strimzi-topic-operator-kstreams},1651785813,0
{consumergroup=__strimzi-topic-operator-kstreams},1651785818,0
{consumergroup=__strimzi-topic-operator-kstreams},1651785823,0
{consumergroup=__strimzi-topic-operator-kstreams},1651785828,0
{consumergroup=__strimzi-topic-operator-kstreams},1651785833,0
{consumergroup=__strimzi-topic-operator-kstreams},1651785838,0
{consumergroup=__strimzi-topic-operator-kstreams},1651785843,0
{consumergroup=__strimzi-topic-operator-kstreams},1651785848,0
{consumergroup=__strimzi-topic-operator-kstreams},1651785853,0
{consumergroup=__strimzi-topic-operator-kstreams},1651785858,0
{consumergroup=__strimzi-topic-operator-kstreams},1651785863,0
{consumergroup=__strimzi-topic-operator-kstreams},1651785868,0
{consumergroup=__strimzi-topic-operator-kstreams},1651785873,0
{consumergroup=__strimzi-topic-operator-kstreams},1651785878,0
{consumergroup=__strimzi-topic-operator-kstreams},1651785883,0
{consumergroup=__strimzi-topic-operator-kstreams},1651785888,0
{consumergroup=__strimzi-topic-operator-kstreams},1651785893,0
{consumergroup=__strimzi-topic-operator-kstreams},1651785898,0
{consumergroup=__strimzi-topic-operator-kstreams},1651785903,0
{consumergroup=__strimzi-topic-operator-kstreams},1651785908,0
{consumergroup=__strimzi-topic-operator-kstreams},1651785913,0
{consumergroup=__strimzi-topic-operator-kstreams},1651785918,0
{consumergroup=__strimzi-topic-operator-kstreams},1651785923,0
{consumergroup=__strimzi-topic-operator-kstreams},1651785928,0
{consumergroup=__strimzi-topic-operator-kstreams},1651785933,0
{consumergroup=__strimzi-topic-operator-kstreams},1651785938,0
{consumergroup=__strimzi-topic-operator-kstreams},1651785943,0
{consumergroup=__strimzi-topic-operator-kstreams},1651785948,0
{consumergroup=__strimzi-topic-operator-kstreams},1651785953,0
{consumergroup=__strimzi-topic-operator-kstreams},1651785958,0
{consumergroup=__strimzi-topic-operator-kstreams},1651785963,0
{consumergroup=__strimzi-topic-operator-kstreams},1651785968,0
{consumergroup=__strimzi-topic-operator-kstreams},1651785973,0
{consumergroup=__strimzi-topic-operator-kstreams},1651785978,0
{consumergroup=__strimzi-topic-operator-kstreams},1651785983,0
{consumergroup=trace-service},1651785588,362030
{consumergroup=trace-service},1651785593,362030
{consumergroup=trace-service},1651785598,362030
{consumergroup=trace-service},1651785603,222999
{consumergroup=trace-service},1651785608,222999
{consumergroup=trace-service},1651785613,222999
{consumergroup=trace-service},1651785618,821357
{consumergroup=trace-service},1651785623,821357
{consumergroup=trace-service},1651785628,821357
{consumergroup=trace-service},1651785633,1978397
{consumergroup=trace-service},1651785638,1978397
{consumergroup=trace-service},1651785643,1978397
{consumergroup=trace-service},1651785648,1247461
{consumergroup=trace-service},1651785653,1247461
{consumergroup=trace-service},1651785658,1247461
{consumergroup=trace-service},1651785663,751394
{consumergroup=trace-service},1651785668,751394
{consumergroup=trace-service},1651785673,751394
{consumergroup=trace-service},1651785678,670759
{consumergroup=trace-service},1651785683,670759
{consumergroup=trace-service},1651785688,670759
{consumergroup=trace-service},1651785693,794671
{consumergroup=trace-service},1651785698,794671
{consumergroup=trace-service},1651785703,794671
{consumergroup=trace-service},1651785708,658688
{consumergroup=trace-service},1651785713,658688
{consumergroup=trace-service},1651785718,658688
{consumergroup=trace-service},1651785723,1657896
{consumergroup=trace-service},1651785728,1657896
{consumergroup=trace-service},1651785733,1657896
{consumergroup=trace-service},1651785738,1173136
{consumergroup=trace-service},1651785743,1173136
{consumergroup=trace-service},1651785748,1173136
{consumergroup=trace-service},1651785753,1588658
{consumergroup=trace-service},1651785758,1588658
{consumergroup=trace-service},1651785763,1588658
{consumergroup=trace-service},1651785768,1220390
{consumergroup=trace-service},1651785773,1220390
{consumergroup=trace-service},1651785778,1220390
{consumergroup=trace-service},1651785783,1697092
{consumergroup=trace-service},1651785788,1697092
{consumergroup=trace-service},1651785793,1697092
{consumergroup=trace-service},1651785798,1518614
{consumergroup=trace-service},1651785803,1518614
{consumergroup=trace-service},1651785808,1518614
{consumergroup=trace-service},1651785813,1489735
{consumergroup=trace-service},1651785818,1489735
{consumergroup=trace-service},1651785823,1489735
{consumergroup=trace-service},1651785828,1689644
{consumergroup=trace-service},1651785833,1689644
{consumergroup=trace-service},1651785838,1689644
{consumergroup=trace-service},1651785843,1575700
{consumergroup=trace-service},1651785848,1575700
{consumergroup=trace-service},1651785853,1575700
{consumergroup=trace-service},1651785858,1790355
{consumergroup=trace-service},1651785863,1790355
{consumergroup=trace-service},1651785868,1790355
{consumergroup=trace-service},1651785873,1510342
{consumergroup=trace-service},1651785878,1510342
{consumergroup=trace-service},1651785883,1510342
{consumergroup=trace-service},1651785888,1696860
{consumergroup=trace-service},1651785893,1696860
{consumergroup=trace-service},1651785898,1696860
{consumergroup=trace-service},1651785903,1329878
{consumergroup=trace-service},1651785908,1329878
{consumergroup=trace-service},1651785913,1329878
{consumergroup=trace-service},1651785918,1087311
{consumergroup=trace-service},1651785923,1087311
{consumergroup=trace-service},1651785928,1087311
{consumergroup=trace-service},1651785933,1497534
{consumergroup=trace-service},1651785938,1497534
{consumergroup=trace-service},1651785943,1497534
{consumergroup=trace-service},1651785948,1659239
{consumergroup=trace-service},1651785953,1659239
{consumergroup=trace-service},1651785958,1659239
{consumergroup=trace-service},1651785963,1686074
{consumergroup=trace-service},1651785968,1686074
{consumergroup=trace-service},1651785973,1686074
{consumergroup=trace-service},1651785978,1947109
{consumergroup=trace-service},1651785983,1947109
{consumergroup=trace-token-events-consumer},1651785573,0
{consumergroup=trace-token-events-consumer},1651785578,0
{consumergroup=trace-token-events-consumer},1651785583,0
{consumergroup=trace-token-events-consumer},1651785588,0
{consumergroup=trace-token-events-consumer},1651785593,0
{consumergroup=trace-token-events-consumer},1651785598,0
{consumergroup=trace-token-events-consumer},1651785603,0
{consumergroup=trace-token-events-consumer},1651785608,0
{consumergroup=trace-token-events-consumer},1651785613,0
{consumergroup=trace-token-events-consumer},1651785618,0
{consumergroup=trace-token-events-consumer},1651785623,0
{consumergroup=trace-token-events-consumer},1651785628,0
{consumergroup=trace-token-events-consumer},1651785633,0
{consumergroup=trace-token-events-consumer},1651785638,0
{consumergroup=trace-token-events-consumer},1651785643,0
{consumergroup=trace-token-events-consumer},1651785648,0
{consumergroup=trace-token-events-consumer},1651785653,0
{consumergroup=trace-token-events-consumer},1651785658,0
{consumergroup=trace-token-events-consumer},1651785663,0
{consumergroup=trace-token-events-consumer},1651785668,0
{consumergroup=trace-token-events-consumer},1651785673,0
{consumergroup=trace-token-events-consumer},1651785678,0
{consumergroup=trace-token-events-consumer},1651785683,0
{consumergroup=trace-token-events-consumer},1651785688,0
{consumergroup=trace-token-events-consumer},1651785693,0
{consumergroup=trace-token-events-consumer},1651785698,0
{consumergroup=trace-token-events-consumer},1651785703,0
{consumergroup=trace-token-events-consumer},1651785708,0
{consumergroup=trace-token-events-consumer},1651785713,0
{consumergroup=trace-token-events-consumer},1651785718,0
{consumergroup=trace-token-events-consumer},1651785723,0
{consumergroup=trace-token-events-consumer},1651785728,0
{consumergroup=trace-token-events-consumer},1651785733,0
{consumergroup=trace-token-events-consumer},1651785738,0
{consumergroup=trace-token-events-consumer},1651785743,0
{consumergroup=trace-token-events-consumer},1651785748,0
{consumergroup=trace-token-events-consumer},1651785753,0
{consumergroup=trace-token-events-consumer},1651785758,0
{consumergroup=trace-token-events-consumer},1651785763,0
{consumergroup=trace-token-events-consumer},1651785768,0
{consumergroup=trace-token-events-consumer},1651785773,0
{consumergroup=trace-token-events-consumer},1651785778,0
{consumergroup=trace-token-events-consumer},1651785783,0
{consumergroup=trace-token-events-consumer},1651785788,0
{consumergroup=trace-token-events-consumer},1651785793,0
{consumergroup=trace-token-events-consumer},1651785798,0
{consumergroup=trace-token-events-consumer},1651785803,0
{consumergroup=trace-token-events-consumer},1651785808,0
{consumergroup=trace-token-events-consumer},1651785813,0
{consumergroup=trace-token-events-consumer},1651785818,0
{consumergroup=trace-token-events-consumer},1651785823,0
{consumergroup=trace-token-events-consumer},1651785828,0
{consumergroup=trace-token-events-consumer},1651785833,0
{consumergroup=trace-token-events-consumer},1651785838,0
{consumergroup=trace-token-events-consumer},1651785843,0
{consumergroup=trace-token-events-consumer},1651785848,0
{consumergroup=trace-token-events-consumer},1651785853,0
{consumergroup=trace-token-events-consumer},1651785858,0
{consumergroup=trace-token-events-consumer},1651785863,0
{consumergroup=trace-token-events-consumer},1651785868,0
{consumergroup=trace-token-events-consumer},1651785873,0
{consumergroup=trace-token-events-consumer},1651785878,0
{consumergroup=trace-token-events-consumer},1651785883,0
{consumergroup=trace-token-events-consumer},1651785888,0
{consumergroup=trace-token-events-consumer},1651785893,0
{consumergroup=trace-token-events-consumer},1651785898,0
{consumergroup=trace-token-events-consumer},1651785903,0
{consumergroup=trace-token-events-consumer},1651785908,0
{consumergroup=trace-token-events-consumer},1651785913,0
{consumergroup=trace-token-events-consumer},1651785918,0
{consumergroup=trace-token-events-consumer},1651785923,0
{consumergroup=trace-token-events-consumer},1651785928,0
{consumergroup=trace-token-events-consumer},1651785933,0
{consumergroup=trace-token-events-consumer},1651785938,0
{consumergroup=trace-token-events-consumer},1651785943,0
{consumergroup=trace-token-events-consumer},1651785948,0
{consumergroup=trace-token-events-consumer},1651785953,0
{consumergroup=trace-token-events-consumer},1651785958,0
{consumergroup=trace-token-events-consumer},1651785963,0
{consumergroup=trace-token-events-consumer},1651785968,0
{consumergroup=trace-token-events-consumer},1651785973,0
{consumergroup=trace-token-events-consumer},1651785978,0
{consumergroup=trace-token-events-consumer},1651785983,0
