labels,timestamp,value
{consumergroup=__strimzi-topic-operator-kstreams},1651786059,11
{consumergroup=__strimzi-topic-operator-kstreams},1651786064,11
{consumergroup=__strimzi-topic-operator-kstreams},1651786069,11
{consumergroup=__strimzi-topic-operator-kstreams},1651786074,3
{consumergroup=__strimzi-topic-operator-kstreams},1651786079,3
{consumergroup=__strimzi-topic-operator-kstreams},1651786084,3
{consumergroup=__strimzi-topic-operator-kstreams},1651786089,3
{consumergroup=__strimzi-topic-operator-kstreams},1651786094,3
{consumergroup=__strimzi-topic-operator-kstreams},1651786099,3
{consumergroup=__strimzi-topic-operator-kstreams},1651786104,0
{consumergroup=__strimzi-topic-operator-kstreams},1651786109,0
{consumergroup=__strimzi-topic-operator-kstreams},1651786114,0
{consumergroup=__strimzi-topic-operator-kstreams},1651786119,0
{consumergroup=__strimzi-topic-operator-kstreams},1651786124,0
{consumergroup=__strimzi-topic-operator-kstreams},1651786129,0
{consumergroup=__strimzi-topic-operator-kstreams},1651786134,0
{consumergroup=__strimzi-topic-operator-kstreams},1651786139,0
{consumergroup=__strimzi-topic-operator-kstreams},1651786144,0
{consumergroup=__strimzi-topic-operator-kstreams},1651786149,0
{consumergroup=__strimzi-topic-operator-kstreams},1651786154,0
{consumergroup=__strimzi-topic-operator-kstreams},1651786159,0
{consumergroup=__strimzi-topic-operator-kstreams},1651786164,0
{consumergroup=__strimzi-topic-operator-kstreams},1651786169,0
{consumergroup=__strimzi-topic-operator-kstreams},1651786174,0
{consumergroup=__strimzi-topic-operator-kstreams},1651786179,0
{consumergroup=__strimzi-topic-operator-kstreams},1651786184,0
{consumergroup=__strimzi-topic-operator-kstreams},1651786189,0
{consumergroup=__strimzi-topic-operator-kstreams},1651786194,0
{consumergroup=__strimzi-topic-operator-kstreams},1651786199,0
{consumergroup=__strimzi-topic-operator-kstreams},1651786204,0
{consumergroup=__strimzi-topic-operator-kstreams},1651786209,0
{consumergroup=__strimzi-topic-operator-kstreams},1651786214,0
{consumergroup=__strimzi-topic-operator-kstreams},1651786219,0
{consumergroup=__strimzi-topic-operator-kstreams},1651786224,0
{consumergroup=__strimzi-topic-operator-kstreams},1651786229,0
{consumergroup=__strimzi-topic-operator-kstreams},1651786234,0
{consumergroup=__strimzi-topic-operator-kstreams},1651786239,0
{consumergroup=__strimzi-topic-operator-kstreams},1651786244,0
{consumergroup=__strimzi-topic-operator-kstreams},1651786249,0
{consumergroup=__strimzi-topic-operator-kstreams},1651786254,0
{consumergroup=__strimzi-topic-operator-kstreams},1651786259,0
{consumergroup=__strimzi-topic-operator-kstreams},1651786264,0
{consumergroup=__strimzi-topic-operator-kstreams},1651786269,0
{consumergroup=__strimzi-topic-operator-kstreams},1651786274,0
{consumergroup=__strimzi-topic-operator-kstreams},1651786279,0
{consumergroup=__strimzi-topic-operator-kstreams},1651786284,0
{consumergroup=__strimzi-topic-operator-kstreams},1651786289,0
{consumergroup=__strimzi-topic-operator-kstreams},1651786294,0
{consumergroup=__strimzi-topic-operator-kstreams},1651786299,0
{consumergroup=__strimzi-topic-operator-kstreams},1651786304,0
{consumergroup=__strimzi-topic-operator-kstreams},1651786309,0
{consumergroup=__strimzi-topic-operator-kstreams},1651786314,0
{consumergroup=__strimzi-topic-operator-kstreams},1651786319,0
{consumergroup=__strimzi-topic-operator-kstreams},1651786324,0
{consumergroup=__strimzi-topic-operator-kstreams},1651786329,0
{consumergroup=__strimzi-topic-operator-kstreams},1651786334,0
{consumergroup=__strimzi-topic-operator-kstreams},1651786339,0
{consumergroup=__strimzi-topic-operator-kstreams},1651786344,0
{consumergroup=__strimzi-topic-operator-kstreams},1651786349,0
{consumergroup=__strimzi-topic-operator-kstreams},1651786354,0
{consumergroup=__strimzi-topic-operator-kstreams},1651786359,0
{consumergroup=__strimzi-topic-operator-kstreams},1651786364,0
{consumergroup=__strimzi-topic-operator-kstreams},1651786369,0
{consumergroup=__strimzi-topic-operator-kstreams},1651786374,0
{consumergroup=__strimzi-topic-operator-kstreams},1651786379,0
{consumergroup=__strimzi-topic-operator-kstreams},1651786384,0
{consumergroup=__strimzi-topic-operator-kstreams},1651786389,0
{consumergroup=__strimzi-topic-operator-kstreams},1651786394,0
{consumergroup=__strimzi-topic-operator-kstreams},1651786399,0
{consumergroup=__strimzi-topic-operator-kstreams},1651786404,0
{consumergroup=__strimzi-topic-operator-kstreams},1651786409,0
{consumergroup=__strimzi-topic-operator-kstreams},1651786414,0
{consumergroup=__strimzi-topic-operator-kstreams},1651786419,0
{consumergroup=__strimzi-topic-operator-kstreams},1651786424,0
{consumergroup=__strimzi-topic-operator-kstreams},1651786429,0
{consumergroup=__strimzi-topic-operator-kstreams},1651786434,0
{consumergroup=__strimzi-topic-operator-kstreams},1651786439,0
{consumergroup=__strimzi-topic-operator-kstreams},1651786444,0
{consumergroup=__strimzi-topic-operator-kstreams},1651786449,0
{consumergroup=__strimzi-topic-operator-kstreams},1651786454,0
{consumergroup=__strimzi-topic-operator-kstreams},1651786459,0
{consumergroup=__strimzi-topic-operator-kstreams},1651786464,0
{consumergroup=__strimzi-topic-operator-kstreams},1651786469,0
{consumergroup=__strimzi-topic-operator-kstreams},1651786474,0
{consumergroup=__strimzi-topic-operator-kstreams},1651786479,0
{consumergroup=__strimzi-topic-operator-kstreams},1651786484,0
{consumergroup=__strimzi-topic-operator-kstreams},1651786489,0
{consumergroup=__strimzi-topic-operator-kstreams},1651786494,0
{consumergroup=__strimzi-topic-operator-kstreams},1651786499,0
{consumergroup=trace-service},1651786104,366534
{consumergroup=trace-service},1651786109,366534
{consumergroup=trace-service},1651786114,366534
{consumergroup=trace-service},1651786119,603206
{consumergroup=trace-service},1651786124,603206
{consumergroup=trace-service},1651786129,603206
{consumergroup=trace-service},1651786134,1155502
{consumergroup=trace-service},1651786139,1155502
{consumergroup=trace-service},1651786144,1155502
{consumergroup=trace-service},1651786149,525537
{consumergroup=trace-service},1651786154,525537
{consumergroup=trace-service},1651786159,525537
{consumergroup=trace-service},1651786164,1045189
{consumergroup=trace-service},1651786169,1045189
{consumergroup=trace-service},1651786174,1045189
{consumergroup=trace-service},1651786179,517988
{consumergroup=trace-service},1651786184,517988
{consumergroup=trace-service},1651786189,517988
{consumergroup=trace-service},1651786194,808009
{consumergroup=trace-service},1651786199,808009
{consumergroup=trace-service},1651786204,808009
{consumergroup=trace-service},1651786209,507484
{consumergroup=trace-service},1651786214,507484
{consumergroup=trace-service},1651786219,507484
{consumergroup=trace-service},1651786224,831370
{consumergroup=trace-service},1651786229,831370
{consumergroup=trace-service},1651786234,831370
{consumergroup=trace-service},1651786239,936913
{consumergroup=trace-service},1651786244,936913
{consumergroup=trace-service},1651786249,936913
{consumergroup=trace-service},1651786254,1089692
{consumergroup=trace-service},1651786259,1089692
{consumergroup=trace-service},1651786264,1089692
{consumergroup=trace-service},1651786269,473384
{consumergroup=trace-service},1651786274,473384
{consumergroup=trace-service},1651786279,473384
{consumergroup=trace-service},1651786284,948678
{consumergroup=trace-service},1651786289,948678
{consumergroup=trace-service},1651786294,948678
{consumergroup=trace-service},1651786299,1331835
{consumergroup=trace-service},1651786304,1331835
{consumergroup=trace-service},1651786309,1331835
{consumergroup=trace-service},1651786314,1277426
{consumergroup=trace-service},1651786319,1277426
{consumergroup=trace-service},1651786324,1277426
{consumergroup=trace-service},1651786329,1677504
{consumergroup=trace-service},1651786334,1677504
{consumergroup=trace-service},1651786339,1677504
{consumergroup=trace-service},1651786344,1383688
{consumergroup=trace-service},1651786349,1383688
{consumergroup=trace-service},1651786354,1383688
{consumergroup=trace-service},1651786359,1914931
{consumergroup=trace-service},1651786364,1914931
{consumergroup=trace-service},1651786369,1914931
{consumergroup=trace-service},1651786374,1299207
{consumergroup=trace-service},1651786379,1299207
{consumergroup=trace-service},1651786384,1299207
{consumergroup=trace-service},1651786389,1102573
{consumergroup=trace-service},1651786394,1102573
{consumergroup=trace-service},1651786399,1102573
{consumergroup=trace-service},1651786404,1087853
{consumergroup=trace-service},1651786409,1087853
{consumergroup=trace-service},1651786414,1087853
{consumergroup=trace-service},1651786419,1355078
{consumergroup=trace-service},1651786424,1355078
{consumergroup=trace-service},1651786429,1355078
{consumergroup=trace-service},1651786434,1343066
{consumergroup=trace-service},1651786439,1343066
{consumergroup=trace-service},1651786444,1343066
{consumergroup=trace-service},1651786449,1622742
{consumergroup=trace-service},1651786454,1622742
{consumergroup=trace-service},1651786459,1622742
{consumergroup=trace-service},1651786464,1415179
{consumergroup=trace-service},1651786469,1415179
{consumergroup=trace-service},1651786474,1415179
{consumergroup=trace-service},1651786479,1610339
{consumergroup=trace-service},1651786484,1610339
{consumergroup=trace-service},1651786489,1610339
{consumergroup=trace-service},1651786494,1358440
{consumergroup=trace-service},1651786499,1358440
{consumergroup=trace-token-events-consumer},1651786089,0
{consumergroup=trace-token-events-consumer},1651786094,0
{consumergroup=trace-token-events-consumer},1651786099,0
{consumergroup=trace-token-events-consumer},1651786104,0
{consumergroup=trace-token-events-consumer},1651786109,0
{consumergroup=trace-token-events-consumer},1651786114,0
{consumergroup=trace-token-events-consumer},1651786119,0
{consumergroup=trace-token-events-consumer},1651786124,0
{consumergroup=trace-token-events-consumer},1651786129,0
{consumergroup=trace-token-events-consumer},1651786134,0
{consumergroup=trace-token-events-consumer},1651786139,0
{consumergroup=trace-token-events-consumer},1651786144,0
{consumergroup=trace-token-events-consumer},1651786149,0
{consumergroup=trace-token-events-consumer},1651786154,0
{consumergroup=trace-token-events-consumer},1651786159,0
{consumergroup=trace-token-events-consumer},1651786164,0
{consumergroup=trace-token-events-consumer},1651786169,0
{consumergroup=trace-token-events-consumer},1651786174,0
{consumergroup=trace-token-events-consumer},1651786179,0
{consumergroup=trace-token-events-consumer},1651786184,0
{consumergroup=trace-token-events-consumer},1651786189,0
{consumergroup=trace-token-events-consumer},1651786194,0
{consumergroup=trace-token-events-consumer},1651786199,0
{consumergroup=trace-token-events-consumer},1651786204,0
{consumergroup=trace-token-events-consumer},1651786209,0
{consumergroup=trace-token-events-consumer},1651786214,0
{consumergroup=trace-token-events-consumer},1651786219,0
{consumergroup=trace-token-events-consumer},1651786224,0
{consumergroup=trace-token-events-consumer},1651786229,0
{consumergroup=trace-token-events-consumer},1651786234,0
{consumergroup=trace-token-events-consumer},1651786239,0
{consumergroup=trace-token-events-consumer},1651786244,0
{consumergroup=trace-token-events-consumer},1651786249,0
{consumergroup=trace-token-events-consumer},1651786254,0
{consumergroup=trace-token-events-consumer},1651786259,0
{consumergroup=trace-token-events-consumer},1651786264,0
{consumergroup=trace-token-events-consumer},1651786269,0
{consumergroup=trace-token-events-consumer},1651786274,0
{consumergroup=trace-token-events-consumer},1651786279,0
{consumergroup=trace-token-events-consumer},1651786284,0
{consumergroup=trace-token-events-consumer},1651786289,0
{consumergroup=trace-token-events-consumer},1651786294,0
{consumergroup=trace-token-events-consumer},1651786299,0
{consumergroup=trace-token-events-consumer},1651786304,0
{consumergroup=trace-token-events-consumer},1651786309,0
{consumergroup=trace-token-events-consumer},1651786314,0
{consumergroup=trace-token-events-consumer},1651786319,0
{consumergroup=trace-token-events-consumer},1651786324,0
{consumergroup=trace-token-events-consumer},1651786329,0
{consumergroup=trace-token-events-consumer},1651786334,0
{consumergroup=trace-token-events-consumer},1651786339,0
{consumergroup=trace-token-events-consumer},1651786344,0
{consumergroup=trace-token-events-consumer},1651786349,0
{consumergroup=trace-token-events-consumer},1651786354,0
{consumergroup=trace-token-events-consumer},1651786359,0
{consumergroup=trace-token-events-consumer},1651786364,0
{consumergroup=trace-token-events-consumer},1651786369,0
{consumergroup=trace-token-events-consumer},1651786374,0
{consumergroup=trace-token-events-consumer},1651786379,0
{consumergroup=trace-token-events-consumer},1651786384,0
{consumergroup=trace-token-events-consumer},1651786389,0
{consumergroup=trace-token-events-consumer},1651786394,0
{consumergroup=trace-token-events-consumer},1651786399,0
{consumergroup=trace-token-events-consumer},1651786404,0
{consumergroup=trace-token-events-consumer},1651786409,0
{consumergroup=trace-token-events-consumer},1651786414,0
{consumergroup=trace-token-events-consumer},1651786419,0
{consumergroup=trace-token-events-consumer},1651786424,0
{consumergroup=trace-token-events-consumer},1651786429,0
{consumergroup=trace-token-events-consumer},1651786434,0
{consumergroup=trace-token-events-consumer},1651786439,0
{consumergroup=trace-token-events-consumer},1651786444,0
{consumergroup=trace-token-events-consumer},1651786449,0
{consumergroup=trace-token-events-consumer},1651786454,0
{consumergroup=trace-token-events-consumer},1651786459,0
{consumergroup=trace-token-events-consumer},1651786464,0
{consumergroup=trace-token-events-consumer},1651786469,0
{consumergroup=trace-token-events-consumer},1651786474,0
{consumergroup=trace-token-events-consumer},1651786479,0
{consumergroup=trace-token-events-consumer},1651786484,0
{consumergroup=trace-token-events-consumer},1651786489,0
{consumergroup=trace-token-events-consumer},1651786494,0
{consumergroup=trace-token-events-consumer},1651786499,0
