labels,timestamp,value
{job=theodolite-stu200776/trace-isolated-podmonitor},1651805629,0
{job=theodolite-stu200776/trace-isolated-podmonitor},1651805634,0
{job=theodolite-stu200776/trace-isolated-podmonitor},1651805639,0
{job=theodolite-stu200776/trace-isolated-podmonitor},1651805644,0
{job=theodolite-stu200776/trace-isolated-podmonitor},1651805649,0
{job=theodolite-stu200776/trace-isolated-podmonitor},1651805654,0
{job=theodolite-stu200776/trace-isolated-podmonitor},1651805659,0
{job=theodolite-stu200776/trace-isolated-podmonitor},1651805664,0
{job=theodolite-stu200776/trace-isolated-podmonitor},1651805669,0
{job=theodolite-stu200776/trace-isolated-podmonitor},1651805674,0
{job=theodolite-stu200776/trace-isolated-podmonitor},1651805679,0
{job=theodolite-stu200776/trace-isolated-podmonitor},1651805684,0
{job=theodolite-stu200776/trace-isolated-podmonitor},1651805689,0
{job=theodolite-stu200776/trace-isolated-podmonitor},1651805694,0
{job=theodolite-stu200776/trace-isolated-podmonitor},1651805699,0
{job=theodolite-stu200776/trace-isolated-podmonitor},1651805704,0
{job=theodolite-stu200776/trace-isolated-podmonitor},1651805709,0
{job=theodolite-stu200776/trace-isolated-podmonitor},1651805714,0
{job=theodolite-stu200776/trace-isolated-podmonitor},1651805719,0
{job=theodolite-stu200776/trace-isolated-podmonitor},1651805724,0
{job=theodolite-stu200776/trace-isolated-podmonitor},1651805729,0
{job=theodolite-stu200776/trace-isolated-podmonitor},1651805734,0
{job=theodolite-stu200776/trace-isolated-podmonitor},1651805739,0
{job=theodolite-stu200776/trace-isolated-podmonitor},1651805744,0
{job=theodolite-stu200776/trace-isolated-podmonitor},1651805749,0
{job=theodolite-stu200776/trace-isolated-podmonitor},1651805754,0
{job=theodolite-stu200776/trace-isolated-podmonitor},1651805759,0
{job=theodolite-stu200776/trace-isolated-podmonitor},1651805764,0
{job=theodolite-stu200776/trace-isolated-podmonitor},1651805769,0
{job=theodolite-stu200776/trace-isolated-podmonitor},1651805774,0
{job=theodolite-stu200776/trace-isolated-podmonitor},1651805779,0
{job=theodolite-stu200776/trace-isolated-podmonitor},1651805784,0
{job=theodolite-stu200776/trace-isolated-podmonitor},1651805789,0
{job=theodolite-stu200776/trace-isolated-podmonitor},1651805794,0
{job=theodolite-stu200776/trace-isolated-podmonitor},1651805799,0
{job=theodolite-stu200776/trace-isolated-podmonitor},1651805804,0
{job=theodolite-stu200776/trace-isolated-podmonitor},1651805809,0
{job=theodolite-stu200776/trace-isolated-podmonitor},1651805814,0
{job=theodolite-stu200776/trace-isolated-podmonitor},1651805819,0
{job=theodolite-stu200776/trace-isolated-podmonitor},1651805824,0
{job=theodolite-stu200776/trace-isolated-podmonitor},1651805829,0
{job=theodolite-stu200776/trace-isolated-podmonitor},1651805834,0
{job=theodolite-stu200776/trace-isolated-podmonitor},1651805839,0
{job=theodolite-stu200776/trace-isolated-podmonitor},1651805844,0
{job=theodolite-stu200776/trace-isolated-podmonitor},1651805849,0
{job=theodolite-stu200776/trace-isolated-podmonitor},1651805854,0
{job=theodolite-stu200776/trace-isolated-podmonitor},1651805859,0
{job=theodolite-stu200776/trace-isolated-podmonitor},1651805864,0
{job=theodolite-stu200776/trace-isolated-podmonitor},1651805869,0
{job=theodolite-stu200776/trace-isolated-podmonitor},1651805874,0
{job=theodolite-stu200776/trace-isolated-podmonitor},1651805879,0
{job=theodolite-stu200776/trace-isolated-podmonitor},1651805884,0
{job=theodolite-stu200776/trace-isolated-podmonitor},1651805889,0
{job=theodolite-stu200776/trace-isolated-podmonitor},1651805894,0
{job=theodolite-stu200776/trace-isolated-podmonitor},1651805899,0
{job=theodolite-stu200776/trace-isolated-podmonitor},1651805904,0
{job=theodolite-stu200776/trace-isolated-podmonitor},1651805909,0
{job=theodolite-stu200776/trace-isolated-podmonitor},1651805914,0
{job=theodolite-stu200776/trace-isolated-podmonitor},1651805919,0
{job=theodolite-stu200776/trace-isolated-podmonitor},1651805924,0
{job=theodolite-stu200776/trace-isolated-podmonitor},1651805929,0
{job=theodolite-stu200776/trace-isolated-podmonitor},1651805934,0
{job=theodolite-stu200776/trace-isolated-podmonitor},1651805939,0
{job=theodolite-stu200776/trace-isolated-podmonitor},1651805944,0
{job=theodolite-stu200776/trace-isolated-podmonitor},1651805949,0
{job=theodolite-stu200776/trace-isolated-podmonitor},1651805954,0
{job=theodolite-stu200776/trace-isolated-podmonitor},1651805959,0
{job=theodolite-stu200776/trace-isolated-podmonitor},1651805964,0
{job=theodolite-stu200776/trace-isolated-podmonitor},1651805969,0
{job=theodolite-stu200776/trace-isolated-podmonitor},1651805974,0
{job=theodolite-stu200776/trace-isolated-podmonitor},1651805979,0
{job=theodolite-stu200776/trace-isolated-podmonitor},1651805984,0
{job=theodolite-stu200776/trace-isolated-podmonitor},1651805989,0
{job=theodolite-stu200776/trace-isolated-podmonitor},1651805994,0
{job=theodolite-stu200776/trace-isolated-podmonitor},1651805999,0
{job=theodolite-stu200776/trace-isolated-podmonitor},1651806004,0
