labels,timestamp,value
{job=theodolite-stu200776/trace-isolated-podmonitor},1651802567,0
{job=theodolite-stu200776/trace-isolated-podmonitor},1651802572,0
{job=theodolite-stu200776/trace-isolated-podmonitor},1651802577,0
{job=theodolite-stu200776/trace-isolated-podmonitor},1651802582,0
{job=theodolite-stu200776/trace-isolated-podmonitor},1651802587,0.05961490595155173
{job=theodolite-stu200776/trace-isolated-podmonitor},1651802592,0.05961490595155173
{job=theodolite-stu200776/trace-isolated-podmonitor},1651802597,0.09898581641176626
{job=theodolite-stu200776/trace-isolated-podmonitor},1651802602,0.09898581641176626
{job=theodolite-stu200776/trace-isolated-podmonitor},1651802607,0.0744303561781543
{job=theodolite-stu200776/trace-isolated-podmonitor},1651802612,0.0744303561781543
{job=theodolite-stu200776/trace-isolated-podmonitor},1651802617,0.05963251169064483
{job=theodolite-stu200776/trace-isolated-podmonitor},1651802622,0.05963251169064483
{job=theodolite-stu200776/trace-isolated-podmonitor},1651802627,0
{job=theodolite-stu200776/trace-isolated-podmonitor},1651802632,0
{job=theodolite-stu200776/trace-isolated-podmonitor},1651802637,0
{job=theodolite-stu200776/trace-isolated-podmonitor},1651802642,0
{job=theodolite-stu200776/trace-isolated-podmonitor},1651802647,0
{job=theodolite-stu200776/trace-isolated-podmonitor},1651802652,0
{job=theodolite-stu200776/trace-isolated-podmonitor},1651802657,0
{job=theodolite-stu200776/trace-isolated-podmonitor},1651802662,0
{job=theodolite-stu200776/trace-isolated-podmonitor},1651802667,0
{job=theodolite-stu200776/trace-isolated-podmonitor},1651802672,0
{job=theodolite-stu200776/trace-isolated-podmonitor},1651802677,0
{job=theodolite-stu200776/trace-isolated-podmonitor},1651802682,0
{job=theodolite-stu200776/trace-isolated-podmonitor},1651802687,0
{job=theodolite-stu200776/trace-isolated-podmonitor},1651802692,0
{job=theodolite-stu200776/trace-isolated-podmonitor},1651802697,0
{job=theodolite-stu200776/trace-isolated-podmonitor},1651802702,0
{job=theodolite-stu200776/trace-isolated-podmonitor},1651802707,0
{job=theodolite-stu200776/trace-isolated-podmonitor},1651802712,0
{job=theodolite-stu200776/trace-isolated-podmonitor},1651802717,0
{job=theodolite-stu200776/trace-isolated-podmonitor},1651802722,0
{job=theodolite-stu200776/trace-isolated-podmonitor},1651802727,0
{job=theodolite-stu200776/trace-isolated-podmonitor},1651802732,0
{job=theodolite-stu200776/trace-isolated-podmonitor},1651802737,0
{job=theodolite-stu200776/trace-isolated-podmonitor},1651802742,0
{job=theodolite-stu200776/trace-isolated-podmonitor},1651802747,0
{job=theodolite-stu200776/trace-isolated-podmonitor},1651802752,0
{job=theodolite-stu200776/trace-isolated-podmonitor},1651802757,0
{job=theodolite-stu200776/trace-isolated-podmonitor},1651802762,0
{job=theodolite-stu200776/trace-isolated-podmonitor},1651802767,1121.34802493304
{job=theodolite-stu200776/trace-isolated-podmonitor},1651802772,1390.1915400733858
{job=theodolite-stu200776/trace-isolated-podmonitor},1651802777,1424.813787653945
{job=theodolite-stu200776/trace-isolated-podmonitor},1651802782,1549.5381242124438
{job=theodolite-stu200776/trace-isolated-podmonitor},1651802787,1755.1788048129597
{job=theodolite-stu200776/trace-isolated-podmonitor},1651802792,1859.5347016363232
{job=theodolite-stu200776/trace-isolated-podmonitor},1651802797,2278.469040581239
{job=theodolite-stu200776/trace-isolated-podmonitor},1651802802,2301.0182458315503
{job=theodolite-stu200776/trace-isolated-podmonitor},1651802807,1894.5814447719597
{job=theodolite-stu200776/trace-isolated-podmonitor},1651802812,1793.847469397668
{job=theodolite-stu200776/trace-isolated-podmonitor},1651802817,1353.145371087423
{job=theodolite-stu200776/trace-isolated-podmonitor},1651802822,1213.6441816527897
{job=theodolite-stu200776/trace-isolated-podmonitor},1651802827,296.6398507243194
{job=theodolite-stu200776/trace-isolated-podmonitor},1651802832,18.656165489524945
{job=theodolite-stu200776/trace-isolated-podmonitor},1651802837,15.407604446777519
{job=theodolite-stu200776/trace-isolated-podmonitor},1651802842,14.93492734953102
{job=theodolite-stu200776/trace-isolated-podmonitor},1651802847,12.573583428376864
{job=theodolite-stu200776/trace-isolated-podmonitor},1651802852,12.264922237744532
{job=theodolite-stu200776/trace-isolated-podmonitor},1651802857,1.8414967798160016
{job=theodolite-stu200776/trace-isolated-podmonitor},1651802862,0.3687313388934114
{job=theodolite-stu200776/trace-isolated-podmonitor},1651802867,0
{job=theodolite-stu200776/trace-isolated-podmonitor},1651802872,0
{job=theodolite-stu200776/trace-isolated-podmonitor},1651802877,0
{job=theodolite-stu200776/trace-isolated-podmonitor},1651802882,0
{job=theodolite-stu200776/trace-isolated-podmonitor},1651802887,0
{job=theodolite-stu200776/trace-isolated-podmonitor},1651802892,0
{job=theodolite-stu200776/trace-isolated-podmonitor},1651802897,0
{job=theodolite-stu200776/trace-isolated-podmonitor},1651802902,0
{job=theodolite-stu200776/trace-isolated-podmonitor},1651802907,0
{job=theodolite-stu200776/trace-isolated-podmonitor},1651802912,0
{job=theodolite-stu200776/trace-isolated-podmonitor},1651802917,0
{job=theodolite-stu200776/trace-isolated-podmonitor},1651802922,0
{job=theodolite-stu200776/trace-isolated-podmonitor},1651802927,0
{job=theodolite-stu200776/trace-isolated-podmonitor},1651802932,0
{job=theodolite-stu200776/trace-isolated-podmonitor},1651802937,0
{job=theodolite-stu200776/trace-isolated-podmonitor},1651802942,0
