labels,timestamp,value
{consumergroup=__strimzi-topic-operator-kstreams},1651788137,3
{consumergroup=__strimzi-topic-operator-kstreams},1651788142,3
{consumergroup=__strimzi-topic-operator-kstreams},1651788147,3
{consumergroup=__strimzi-topic-operator-kstreams},1651788152,0
{consumergroup=__strimzi-topic-operator-kstreams},1651788157,0
{consumergroup=__strimzi-topic-operator-kstreams},1651788162,0
{consumergroup=__strimzi-topic-operator-kstreams},1651788167,3
{consumergroup=__strimzi-topic-operator-kstreams},1651788172,3
{consumergroup=__strimzi-topic-operator-kstreams},1651788177,3
{consumergroup=__strimzi-topic-operator-kstreams},1651788182,0
{consumergroup=__strimzi-topic-operator-kstreams},1651788187,0
{consumergroup=__strimzi-topic-operator-kstreams},1651788192,0
{consumergroup=__strimzi-topic-operator-kstreams},1651788197,0
{consumergroup=__strimzi-topic-operator-kstreams},1651788202,0
{consumergroup=__strimzi-topic-operator-kstreams},1651788207,0
{consumergroup=__strimzi-topic-operator-kstreams},1651788212,0
{consumergroup=__strimzi-topic-operator-kstreams},1651788217,0
{consumergroup=__strimzi-topic-operator-kstreams},1651788222,0
{consumergroup=__strimzi-topic-operator-kstreams},1651788227,0
{consumergroup=__strimzi-topic-operator-kstreams},1651788232,0
{consumergroup=__strimzi-topic-operator-kstreams},1651788237,0
{consumergroup=__strimzi-topic-operator-kstreams},1651788242,0
{consumergroup=__strimzi-topic-operator-kstreams},1651788247,0
{consumergroup=__strimzi-topic-operator-kstreams},1651788252,0
{consumergroup=__strimzi-topic-operator-kstreams},1651788257,0
{consumergroup=__strimzi-topic-operator-kstreams},1651788262,0
{consumergroup=__strimzi-topic-operator-kstreams},1651788267,0
{consumergroup=__strimzi-topic-operator-kstreams},1651788272,0
{consumergroup=__strimzi-topic-operator-kstreams},1651788277,0
{consumergroup=__strimzi-topic-operator-kstreams},1651788282,0
{consumergroup=__strimzi-topic-operator-kstreams},1651788287,0
{consumergroup=__strimzi-topic-operator-kstreams},1651788292,0
{consumergroup=__strimzi-topic-operator-kstreams},1651788297,0
{consumergroup=__strimzi-topic-operator-kstreams},1651788302,0
{consumergroup=__strimzi-topic-operator-kstreams},1651788307,0
{consumergroup=__strimzi-topic-operator-kstreams},1651788312,0
{consumergroup=__strimzi-topic-operator-kstreams},1651788317,0
{consumergroup=__strimzi-topic-operator-kstreams},1651788322,0
{consumergroup=__strimzi-topic-operator-kstreams},1651788327,0
{consumergroup=__strimzi-topic-operator-kstreams},1651788332,0
{consumergroup=__strimzi-topic-operator-kstreams},1651788337,0
{consumergroup=__strimzi-topic-operator-kstreams},1651788342,0
{consumergroup=__strimzi-topic-operator-kstreams},1651788347,0
{consumergroup=__strimzi-topic-operator-kstreams},1651788352,0
{consumergroup=__strimzi-topic-operator-kstreams},1651788357,0
{consumergroup=__strimzi-topic-operator-kstreams},1651788362,0
{consumergroup=__strimzi-topic-operator-kstreams},1651788367,0
{consumergroup=__strimzi-topic-operator-kstreams},1651788372,0
{consumergroup=__strimzi-topic-operator-kstreams},1651788377,0
{consumergroup=__strimzi-topic-operator-kstreams},1651788382,0
{consumergroup=__strimzi-topic-operator-kstreams},1651788387,0
{consumergroup=__strimzi-topic-operator-kstreams},1651788392,0
{consumergroup=__strimzi-topic-operator-kstreams},1651788397,0
{consumergroup=__strimzi-topic-operator-kstreams},1651788402,0
{consumergroup=__strimzi-topic-operator-kstreams},1651788407,0
{consumergroup=__strimzi-topic-operator-kstreams},1651788412,0
{consumergroup=__strimzi-topic-operator-kstreams},1651788417,0
{consumergroup=__strimzi-topic-operator-kstreams},1651788422,0
{consumergroup=__strimzi-topic-operator-kstreams},1651788427,0
{consumergroup=__strimzi-topic-operator-kstreams},1651788432,0
{consumergroup=__strimzi-topic-operator-kstreams},1651788437,0
{consumergroup=__strimzi-topic-operator-kstreams},1651788442,0
{consumergroup=__strimzi-topic-operator-kstreams},1651788447,0
{consumergroup=__strimzi-topic-operator-kstreams},1651788452,0
{consumergroup=__strimzi-topic-operator-kstreams},1651788457,0
{consumergroup=__strimzi-topic-operator-kstreams},1651788462,0
{consumergroup=__strimzi-topic-operator-kstreams},1651788467,0
{consumergroup=__strimzi-topic-operator-kstreams},1651788472,0
{consumergroup=__strimzi-topic-operator-kstreams},1651788477,0
{consumergroup=__strimzi-topic-operator-kstreams},1651788482,0
{consumergroup=__strimzi-topic-operator-kstreams},1651788487,0
{consumergroup=__strimzi-topic-operator-kstreams},1651788492,0
{consumergroup=__strimzi-topic-operator-kstreams},1651788497,0
{consumergroup=__strimzi-topic-operator-kstreams},1651788502,0
{consumergroup=__strimzi-topic-operator-kstreams},1651788507,0
{consumergroup=__strimzi-topic-operator-kstreams},1651788512,0
{consumergroup=__strimzi-topic-operator-kstreams},1651788517,0
{consumergroup=__strimzi-topic-operator-kstreams},1651788522,0
{consumergroup=__strimzi-topic-operator-kstreams},1651788527,0
{consumergroup=__strimzi-topic-operator-kstreams},1651788532,0
{consumergroup=__strimzi-topic-operator-kstreams},1651788537,0
{consumergroup=__strimzi-topic-operator-kstreams},1651788542,0
{consumergroup=__strimzi-topic-operator-kstreams},1651788547,0
{consumergroup=__strimzi-topic-operator-kstreams},1651788552,0
{consumergroup=__strimzi-topic-operator-kstreams},1651788557,0
{consumergroup=__strimzi-topic-operator-kstreams},1651788562,0
{consumergroup=__strimzi-topic-operator-kstreams},1651788567,0
{consumergroup=__strimzi-topic-operator-kstreams},1651788572,0
{consumergroup=__strimzi-topic-operator-kstreams},1651788577,0
{consumergroup=__strimzi-topic-operator-kstreams},1651788582,0
{consumergroup=trace-service},1651788182,69884
{consumergroup=trace-service},1651788187,69884
{consumergroup=trace-service},1651788192,69884
{consumergroup=trace-service},1651788197,309236
{consumergroup=trace-service},1651788202,309236
{consumergroup=trace-service},1651788207,309236
{consumergroup=trace-service},1651788212,243917
{consumergroup=trace-service},1651788217,243917
{consumergroup=trace-service},1651788222,243917
{consumergroup=trace-service},1651788227,384488
{consumergroup=trace-service},1651788232,384488
{consumergroup=trace-service},1651788237,384488
{consumergroup=trace-service},1651788242,347684
{consumergroup=trace-service},1651788247,347684
{consumergroup=trace-service},1651788252,347684
{consumergroup=trace-service},1651788257,262735
{consumergroup=trace-service},1651788262,262735
{consumergroup=trace-service},1651788267,262735
{consumergroup=trace-service},1651788272,176775
{consumergroup=trace-service},1651788277,176775
{consumergroup=trace-service},1651788282,176775
{consumergroup=trace-service},1651788287,279757
{consumergroup=trace-service},1651788292,279757
{consumergroup=trace-service},1651788297,279757
{consumergroup=trace-service},1651788302,178140
{consumergroup=trace-service},1651788307,178140
{consumergroup=trace-service},1651788312,178140
{consumergroup=trace-service},1651788317,297547
{consumergroup=trace-service},1651788322,297547
{consumergroup=trace-service},1651788327,297547
{consumergroup=trace-service},1651788332,115120
{consumergroup=trace-service},1651788337,115120
{consumergroup=trace-service},1651788342,115120
{consumergroup=trace-service},1651788347,398729
{consumergroup=trace-service},1651788352,398729
{consumergroup=trace-service},1651788357,398729
{consumergroup=trace-service},1651788362,221613
{consumergroup=trace-service},1651788367,221613
{consumergroup=trace-service},1651788372,221613
{consumergroup=trace-service},1651788377,239607
{consumergroup=trace-service},1651788382,239607
{consumergroup=trace-service},1651788387,239607
{consumergroup=trace-service},1651788392,86040
{consumergroup=trace-service},1651788397,86040
{consumergroup=trace-service},1651788402,86040
{consumergroup=trace-service},1651788407,374350
{consumergroup=trace-service},1651788412,374350
{consumergroup=trace-service},1651788417,374350
{consumergroup=trace-service},1651788422,154988
{consumergroup=trace-service},1651788427,154988
{consumergroup=trace-service},1651788432,154988
{consumergroup=trace-service},1651788437,248903
{consumergroup=trace-service},1651788442,248903
{consumergroup=trace-service},1651788447,248903
{consumergroup=trace-service},1651788452,156146
{consumergroup=trace-service},1651788457,156146
{consumergroup=trace-service},1651788462,156146
{consumergroup=trace-service},1651788467,403639
{consumergroup=trace-service},1651788472,403639
{consumergroup=trace-service},1651788477,403639
{consumergroup=trace-service},1651788482,104707
{consumergroup=trace-service},1651788487,104707
{consumergroup=trace-service},1651788492,104707
{consumergroup=trace-service},1651788497,281678
{consumergroup=trace-service},1651788502,281678
{consumergroup=trace-service},1651788507,281678
{consumergroup=trace-service},1651788512,189996
{consumergroup=trace-service},1651788517,189996
{consumergroup=trace-service},1651788522,189996
{consumergroup=trace-service},1651788527,400675
{consumergroup=trace-service},1651788532,400675
{consumergroup=trace-service},1651788537,400675
{consumergroup=trace-service},1651788542,98620
{consumergroup=trace-service},1651788547,98620
{consumergroup=trace-service},1651788552,98620
{consumergroup=trace-service},1651788557,308232
{consumergroup=trace-service},1651788562,308232
{consumergroup=trace-service},1651788567,308232
{consumergroup=trace-service},1651788572,393814
{consumergroup=trace-service},1651788577,393814
{consumergroup=trace-service},1651788582,393814
{consumergroup=trace-token-events-consumer},1651788167,0
{consumergroup=trace-token-events-consumer},1651788172,0
{consumergroup=trace-token-events-consumer},1651788177,0
{consumergroup=trace-token-events-consumer},1651788182,0
{consumergroup=trace-token-events-consumer},1651788187,0
{consumergroup=trace-token-events-consumer},1651788192,0
{consumergroup=trace-token-events-consumer},1651788197,0
{consumergroup=trace-token-events-consumer},1651788202,0
{consumergroup=trace-token-events-consumer},1651788207,0
{consumergroup=trace-token-events-consumer},1651788212,0
{consumergroup=trace-token-events-consumer},1651788217,0
{consumergroup=trace-token-events-consumer},1651788222,0
{consumergroup=trace-token-events-consumer},1651788227,0
{consumergroup=trace-token-events-consumer},1651788232,0
{consumergroup=trace-token-events-consumer},1651788237,0
{consumergroup=trace-token-events-consumer},1651788242,0
{consumergroup=trace-token-events-consumer},1651788247,0
{consumergroup=trace-token-events-consumer},1651788252,0
{consumergroup=trace-token-events-consumer},1651788257,0
{consumergroup=trace-token-events-consumer},1651788262,0
{consumergroup=trace-token-events-consumer},1651788267,0
{consumergroup=trace-token-events-consumer},1651788272,0
{consumergroup=trace-token-events-consumer},1651788277,0
{consumergroup=trace-token-events-consumer},1651788282,0
{consumergroup=trace-token-events-consumer},1651788287,0
{consumergroup=trace-token-events-consumer},1651788292,0
{consumergroup=trace-token-events-consumer},1651788297,0
{consumergroup=trace-token-events-consumer},1651788302,0
{consumergroup=trace-token-events-consumer},1651788307,0
{consumergroup=trace-token-events-consumer},1651788312,0
{consumergroup=trace-token-events-consumer},1651788317,0
{consumergroup=trace-token-events-consumer},1651788322,0
{consumergroup=trace-token-events-consumer},1651788327,0
{consumergroup=trace-token-events-consumer},1651788332,0
{consumergroup=trace-token-events-consumer},1651788337,0
{consumergroup=trace-token-events-consumer},1651788342,0
{consumergroup=trace-token-events-consumer},1651788347,0
{consumergroup=trace-token-events-consumer},1651788352,0
{consumergroup=trace-token-events-consumer},1651788357,0
{consumergroup=trace-token-events-consumer},1651788362,0
{consumergroup=trace-token-events-consumer},1651788367,0
{consumergroup=trace-token-events-consumer},1651788372,0
{consumergroup=trace-token-events-consumer},1651788377,0
{consumergroup=trace-token-events-consumer},1651788382,0
{consumergroup=trace-token-events-consumer},1651788387,0
{consumergroup=trace-token-events-consumer},1651788392,0
{consumergroup=trace-token-events-consumer},1651788397,0
{consumergroup=trace-token-events-consumer},1651788402,0
{consumergroup=trace-token-events-consumer},1651788407,0
{consumergroup=trace-token-events-consumer},1651788412,0
{consumergroup=trace-token-events-consumer},1651788417,0
{consumergroup=trace-token-events-consumer},1651788422,0
{consumergroup=trace-token-events-consumer},1651788427,0
{consumergroup=trace-token-events-consumer},1651788432,0
{consumergroup=trace-token-events-consumer},1651788437,0
{consumergroup=trace-token-events-consumer},1651788442,0
{consumergroup=trace-token-events-consumer},1651788447,0
{consumergroup=trace-token-events-consumer},1651788452,0
{consumergroup=trace-token-events-consumer},1651788457,0
{consumergroup=trace-token-events-consumer},1651788462,0
{consumergroup=trace-token-events-consumer},1651788467,0
{consumergroup=trace-token-events-consumer},1651788472,0
{consumergroup=trace-token-events-consumer},1651788477,0
{consumergroup=trace-token-events-consumer},1651788482,0
{consumergroup=trace-token-events-consumer},1651788487,0
{consumergroup=trace-token-events-consumer},1651788492,0
{consumergroup=trace-token-events-consumer},1651788497,0
{consumergroup=trace-token-events-consumer},1651788502,0
{consumergroup=trace-token-events-consumer},1651788507,0
{consumergroup=trace-token-events-consumer},1651788512,0
{consumergroup=trace-token-events-consumer},1651788517,0
{consumergroup=trace-token-events-consumer},1651788522,0
{consumergroup=trace-token-events-consumer},1651788527,0
{consumergroup=trace-token-events-consumer},1651788532,0
{consumergroup=trace-token-events-consumer},1651788537,0
{consumergroup=trace-token-events-consumer},1651788542,0
{consumergroup=trace-token-events-consumer},1651788547,0
{consumergroup=trace-token-events-consumer},1651788552,0
{consumergroup=trace-token-events-consumer},1651788557,0
{consumergroup=trace-token-events-consumer},1651788562,0
{consumergroup=trace-token-events-consumer},1651788567,0
{consumergroup=trace-token-events-consumer},1651788572,0
{consumergroup=trace-token-events-consumer},1651788577,0
{consumergroup=trace-token-events-consumer},1651788582,0
