labels,timestamp,value
{job=theodolite-stu200776/trace-isolated-podmonitor},1651793294,0
{job=theodolite-stu200776/trace-isolated-podmonitor},1651793299,0
{job=theodolite-stu200776/trace-isolated-podmonitor},1651793304,200.1813378813463
{job=theodolite-stu200776/trace-isolated-podmonitor},1651793309,349.66979776769085
{job=theodolite-stu200776/trace-isolated-podmonitor},1651793314,660.3570196829274
{job=theodolite-stu200776/trace-isolated-podmonitor},1651793319,893.5371003515597
{job=theodolite-stu200776/trace-isolated-podmonitor},1651793324,1453.3282253174345
{job=theodolite-stu200776/trace-isolated-podmonitor},1651793329,1743.1017351207688
{job=theodolite-stu200776/trace-isolated-podmonitor},1651793334,1864.5889216296448
{job=theodolite-stu200776/trace-isolated-podmonitor},1651793339,2138.483220704641
{job=theodolite-stu200776/trace-isolated-podmonitor},1651793344,2125.613925597033
{job=theodolite-stu200776/trace-isolated-podmonitor},1651793349,2149.058863574755
{job=theodolite-stu200776/trace-isolated-podmonitor},1651793354,1687.882504081488
{job=theodolite-stu200776/trace-isolated-podmonitor},1651793359,1475.7514838079244
{job=theodolite-stu200776/trace-isolated-podmonitor},1651793364,1876.4381549976922
{job=theodolite-stu200776/trace-isolated-podmonitor},1651793369,2233.8237922030285
{job=theodolite-stu200776/trace-isolated-podmonitor},1651793374,2051.576302206809
{job=theodolite-stu200776/trace-isolated-podmonitor},1651793379,1803.7415301626795
{job=theodolite-stu200776/trace-isolated-podmonitor},1651793384,1628.5871485084244
{job=theodolite-stu200776/trace-isolated-podmonitor},1651793389,1426.801201295554
{job=theodolite-stu200776/trace-isolated-podmonitor},1651793394,769.0704245272535
{job=theodolite-stu200776/trace-isolated-podmonitor},1651793399,121.68328505783423
{job=theodolite-stu200776/trace-isolated-podmonitor},1651793404,24.713274288397116
{job=theodolite-stu200776/trace-isolated-podmonitor},1651793409,21.269690961622366
{job=theodolite-stu200776/trace-isolated-podmonitor},1651793414,20.084359125266616
{job=theodolite-stu200776/trace-isolated-podmonitor},1651793419,5.499896835661296
{job=theodolite-stu200776/trace-isolated-podmonitor},1651793424,0
{job=theodolite-stu200776/trace-isolated-podmonitor},1651793429,0
{job=theodolite-stu200776/trace-isolated-podmonitor},1651793434,0
{job=theodolite-stu200776/trace-isolated-podmonitor},1651793439,0
{job=theodolite-stu200776/trace-isolated-podmonitor},1651793444,0
{job=theodolite-stu200776/trace-isolated-podmonitor},1651793449,0
{job=theodolite-stu200776/trace-isolated-podmonitor},1651793454,0
{job=theodolite-stu200776/trace-isolated-podmonitor},1651793459,0
{job=theodolite-stu200776/trace-isolated-podmonitor},1651793464,0
{job=theodolite-stu200776/trace-isolated-podmonitor},1651793469,0
{job=theodolite-stu200776/trace-isolated-podmonitor},1651793474,0
{job=theodolite-stu200776/trace-isolated-podmonitor},1651793479,0
{job=theodolite-stu200776/trace-isolated-podmonitor},1651793484,0
{job=theodolite-stu200776/trace-isolated-podmonitor},1651793489,0
{job=theodolite-stu200776/trace-isolated-podmonitor},1651793494,0
{job=theodolite-stu200776/trace-isolated-podmonitor},1651793499,0
{job=theodolite-stu200776/trace-isolated-podmonitor},1651793504,0
{job=theodolite-stu200776/trace-isolated-podmonitor},1651793509,0
{job=theodolite-stu200776/trace-isolated-podmonitor},1651793514,0
{job=theodolite-stu200776/trace-isolated-podmonitor},1651793519,0
{job=theodolite-stu200776/trace-isolated-podmonitor},1651793524,0
{job=theodolite-stu200776/trace-isolated-podmonitor},1651793529,0
{job=theodolite-stu200776/trace-isolated-podmonitor},1651793534,0
{job=theodolite-stu200776/trace-isolated-podmonitor},1651793539,0
{job=theodolite-stu200776/trace-isolated-podmonitor},1651793544,0
{job=theodolite-stu200776/trace-isolated-podmonitor},1651793549,0
{job=theodolite-stu200776/trace-isolated-podmonitor},1651793554,0
{job=theodolite-stu200776/trace-isolated-podmonitor},1651793559,0
{job=theodolite-stu200776/trace-isolated-podmonitor},1651793564,0
{job=theodolite-stu200776/trace-isolated-podmonitor},1651793569,0
{job=theodolite-stu200776/trace-isolated-podmonitor},1651793574,0
{job=theodolite-stu200776/trace-isolated-podmonitor},1651793579,0
{job=theodolite-stu200776/trace-isolated-podmonitor},1651793584,0
{job=theodolite-stu200776/trace-isolated-podmonitor},1651793589,0
{job=theodolite-stu200776/trace-isolated-podmonitor},1651793594,0
{job=theodolite-stu200776/trace-isolated-podmonitor},1651793599,0
{job=theodolite-stu200776/trace-isolated-podmonitor},1651793604,0
{job=theodolite-stu200776/trace-isolated-podmonitor},1651793609,0
{job=theodolite-stu200776/trace-isolated-podmonitor},1651793614,0
{job=theodolite-stu200776/trace-isolated-podmonitor},1651793619,0
{job=theodolite-stu200776/trace-isolated-podmonitor},1651793624,0
{job=theodolite-stu200776/trace-isolated-podmonitor},1651793629,0
{job=theodolite-stu200776/trace-isolated-podmonitor},1651793634,0
{job=theodolite-stu200776/trace-isolated-podmonitor},1651793639,0
{job=theodolite-stu200776/trace-isolated-podmonitor},1651793644,0
{job=theodolite-stu200776/trace-isolated-podmonitor},1651793649,0
{job=theodolite-stu200776/trace-isolated-podmonitor},1651793654,0
{job=theodolite-stu200776/trace-isolated-podmonitor},1651793659,0
{job=theodolite-stu200776/trace-isolated-podmonitor},1651793664,0
{job=theodolite-stu200776/trace-isolated-podmonitor},1651793669,0
