labels,timestamp,value
{consumergroup=__strimzi-topic-operator-kstreams},1651789668,7
{consumergroup=__strimzi-topic-operator-kstreams},1651789673,7
{consumergroup=__strimzi-topic-operator-kstreams},1651789678,7
{consumergroup=__strimzi-topic-operator-kstreams},1651789683,0
{consumergroup=__strimzi-topic-operator-kstreams},1651789688,0
{consumergroup=__strimzi-topic-operator-kstreams},1651789693,0
{consumergroup=__strimzi-topic-operator-kstreams},1651789698,3
{consumergroup=__strimzi-topic-operator-kstreams},1651789703,3
{consumergroup=__strimzi-topic-operator-kstreams},1651789708,3
{consumergroup=__strimzi-topic-operator-kstreams},1651789713,0
{consumergroup=__strimzi-topic-operator-kstreams},1651789718,0
{consumergroup=__strimzi-topic-operator-kstreams},1651789723,0
{consumergroup=__strimzi-topic-operator-kstreams},1651789728,0
{consumergroup=__strimzi-topic-operator-kstreams},1651789733,0
{consumergroup=__strimzi-topic-operator-kstreams},1651789738,0
{consumergroup=__strimzi-topic-operator-kstreams},1651789743,0
{consumergroup=__strimzi-topic-operator-kstreams},1651789748,0
{consumergroup=__strimzi-topic-operator-kstreams},1651789753,0
{consumergroup=__strimzi-topic-operator-kstreams},1651789758,0
{consumergroup=__strimzi-topic-operator-kstreams},1651789763,0
{consumergroup=__strimzi-topic-operator-kstreams},1651789768,0
{consumergroup=__strimzi-topic-operator-kstreams},1651789773,0
{consumergroup=__strimzi-topic-operator-kstreams},1651789778,0
{consumergroup=__strimzi-topic-operator-kstreams},1651789783,0
{consumergroup=__strimzi-topic-operator-kstreams},1651789788,0
{consumergroup=__strimzi-topic-operator-kstreams},1651789793,0
{consumergroup=__strimzi-topic-operator-kstreams},1651789798,0
{consumergroup=__strimzi-topic-operator-kstreams},1651789803,0
{consumergroup=__strimzi-topic-operator-kstreams},1651789808,0
{consumergroup=__strimzi-topic-operator-kstreams},1651789813,0
{consumergroup=__strimzi-topic-operator-kstreams},1651789818,0
{consumergroup=__strimzi-topic-operator-kstreams},1651789823,0
{consumergroup=__strimzi-topic-operator-kstreams},1651789828,0
{consumergroup=__strimzi-topic-operator-kstreams},1651789833,0
{consumergroup=__strimzi-topic-operator-kstreams},1651789838,0
{consumergroup=__strimzi-topic-operator-kstreams},1651789843,0
{consumergroup=__strimzi-topic-operator-kstreams},1651789848,0
{consumergroup=__strimzi-topic-operator-kstreams},1651789853,0
{consumergroup=__strimzi-topic-operator-kstreams},1651789858,0
{consumergroup=__strimzi-topic-operator-kstreams},1651789863,0
{consumergroup=__strimzi-topic-operator-kstreams},1651789868,0
{consumergroup=__strimzi-topic-operator-kstreams},1651789873,0
{consumergroup=__strimzi-topic-operator-kstreams},1651789878,0
{consumergroup=__strimzi-topic-operator-kstreams},1651789883,0
{consumergroup=__strimzi-topic-operator-kstreams},1651789888,0
{consumergroup=__strimzi-topic-operator-kstreams},1651789893,0
{consumergroup=__strimzi-topic-operator-kstreams},1651789898,0
{consumergroup=__strimzi-topic-operator-kstreams},1651789903,0
{consumergroup=__strimzi-topic-operator-kstreams},1651789908,0
{consumergroup=__strimzi-topic-operator-kstreams},1651789913,0
{consumergroup=__strimzi-topic-operator-kstreams},1651789918,0
{consumergroup=__strimzi-topic-operator-kstreams},1651789923,0
{consumergroup=__strimzi-topic-operator-kstreams},1651789928,0
{consumergroup=__strimzi-topic-operator-kstreams},1651789933,0
{consumergroup=__strimzi-topic-operator-kstreams},1651789938,0
{consumergroup=__strimzi-topic-operator-kstreams},1651789943,0
{consumergroup=__strimzi-topic-operator-kstreams},1651789948,0
{consumergroup=__strimzi-topic-operator-kstreams},1651789953,0
{consumergroup=__strimzi-topic-operator-kstreams},1651789958,0
{consumergroup=__strimzi-topic-operator-kstreams},1651789963,0
{consumergroup=__strimzi-topic-operator-kstreams},1651789968,0
{consumergroup=__strimzi-topic-operator-kstreams},1651789973,0
{consumergroup=__strimzi-topic-operator-kstreams},1651789978,0
{consumergroup=__strimzi-topic-operator-kstreams},1651789983,0
{consumergroup=__strimzi-topic-operator-kstreams},1651789988,0
{consumergroup=__strimzi-topic-operator-kstreams},1651789993,0
{consumergroup=__strimzi-topic-operator-kstreams},1651789998,0
{consumergroup=__strimzi-topic-operator-kstreams},1651790003,0
{consumergroup=__strimzi-topic-operator-kstreams},1651790008,0
{consumergroup=__strimzi-topic-operator-kstreams},1651790013,0
{consumergroup=__strimzi-topic-operator-kstreams},1651790018,0
{consumergroup=__strimzi-topic-operator-kstreams},1651790023,0
{consumergroup=__strimzi-topic-operator-kstreams},1651790028,0
{consumergroup=__strimzi-topic-operator-kstreams},1651790033,0
{consumergroup=__strimzi-topic-operator-kstreams},1651790038,0
{consumergroup=__strimzi-topic-operator-kstreams},1651790043,0
{consumergroup=__strimzi-topic-operator-kstreams},1651790048,0
{consumergroup=__strimzi-topic-operator-kstreams},1651790053,0
{consumergroup=__strimzi-topic-operator-kstreams},1651790058,0
{consumergroup=__strimzi-topic-operator-kstreams},1651790063,0
{consumergroup=__strimzi-topic-operator-kstreams},1651790068,0
{consumergroup=__strimzi-topic-operator-kstreams},1651790073,0
{consumergroup=__strimzi-topic-operator-kstreams},1651790078,0
{consumergroup=__strimzi-topic-operator-kstreams},1651790083,0
{consumergroup=__strimzi-topic-operator-kstreams},1651790088,0
{consumergroup=__strimzi-topic-operator-kstreams},1651790093,0
{consumergroup=__strimzi-topic-operator-kstreams},1651790098,0
{consumergroup=__strimzi-topic-operator-kstreams},1651790103,0
{consumergroup=__strimzi-topic-operator-kstreams},1651790108,0
{consumergroup=__strimzi-topic-operator-kstreams},1651790113,0
{consumergroup=trace-service},1651789713,143248
{consumergroup=trace-service},1651789718,143248
{consumergroup=trace-service},1651789723,143248
{consumergroup=trace-service},1651789728,334578
{consumergroup=trace-service},1651789733,334578
{consumergroup=trace-service},1651789738,334578
{consumergroup=trace-service},1651789743,370738
{consumergroup=trace-service},1651789748,370738
{consumergroup=trace-service},1651789753,370738
{consumergroup=trace-service},1651789758,500644
{consumergroup=trace-service},1651789763,500644
{consumergroup=trace-service},1651789768,500644
{consumergroup=trace-service},1651789773,391961
{consumergroup=trace-service},1651789778,391961
{consumergroup=trace-service},1651789783,391961
{consumergroup=trace-service},1651789788,380595
{consumergroup=trace-service},1651789793,380595
{consumergroup=trace-service},1651789798,380595
{consumergroup=trace-service},1651789803,156331
{consumergroup=trace-service},1651789808,156331
{consumergroup=trace-service},1651789813,156331
{consumergroup=trace-service},1651789818,427354
{consumergroup=trace-service},1651789823,427354
{consumergroup=trace-service},1651789828,427354
{consumergroup=trace-service},1651789833,261995
{consumergroup=trace-service},1651789838,261995
{consumergroup=trace-service},1651789843,261995
{consumergroup=trace-service},1651789848,422628
{consumergroup=trace-service},1651789853,422628
{consumergroup=trace-service},1651789858,422628
{consumergroup=trace-service},1651789863,116835
{consumergroup=trace-service},1651789868,116835
{consumergroup=trace-service},1651789873,116835
{consumergroup=trace-service},1651789878,352829
{consumergroup=trace-service},1651789883,352829
{consumergroup=trace-service},1651789888,352829
{consumergroup=trace-service},1651789893,99298
{consumergroup=trace-service},1651789898,99298
{consumergroup=trace-service},1651789903,99298
{consumergroup=trace-service},1651789908,360340
{consumergroup=trace-service},1651789913,360340
{consumergroup=trace-service},1651789918,360340
{consumergroup=trace-service},1651789923,201930
{consumergroup=trace-service},1651789928,201930
{consumergroup=trace-service},1651789933,201930
{consumergroup=trace-service},1651789938,357774
{consumergroup=trace-service},1651789943,357774
{consumergroup=trace-service},1651789948,357774
{consumergroup=trace-service},1651789953,188002
{consumergroup=trace-service},1651789958,188002
{consumergroup=trace-service},1651789963,188002
{consumergroup=trace-service},1651789968,345377
{consumergroup=trace-service},1651789973,345377
{consumergroup=trace-service},1651789978,345377
{consumergroup=trace-service},1651789983,263448
{consumergroup=trace-service},1651789988,263448
{consumergroup=trace-service},1651789993,263448
{consumergroup=trace-service},1651789998,409026
{consumergroup=trace-service},1651790003,409026
{consumergroup=trace-service},1651790008,409026
{consumergroup=trace-service},1651790013,183850
{consumergroup=trace-service},1651790018,183850
{consumergroup=trace-service},1651790023,183850
{consumergroup=trace-service},1651790028,325959
{consumergroup=trace-service},1651790033,325959
{consumergroup=trace-service},1651790038,325959
{consumergroup=trace-service},1651790043,209399
{consumergroup=trace-service},1651790048,209399
{consumergroup=trace-service},1651790053,209399
{consumergroup=trace-service},1651790058,385288
{consumergroup=trace-service},1651790063,385288
{consumergroup=trace-service},1651790068,385288
{consumergroup=trace-service},1651790073,306010
{consumergroup=trace-service},1651790078,306010
{consumergroup=trace-service},1651790083,306010
{consumergroup=trace-service},1651790088,438730
{consumergroup=trace-service},1651790093,438730
{consumergroup=trace-service},1651790098,438730
{consumergroup=trace-service},1651790103,108623
{consumergroup=trace-service},1651790108,108623
{consumergroup=trace-service},1651790113,108623
{consumergroup=trace-token-events-consumer},1651789698,0
{consumergroup=trace-token-events-consumer},1651789703,0
{consumergroup=trace-token-events-consumer},1651789708,0
{consumergroup=trace-token-events-consumer},1651789713,0
{consumergroup=trace-token-events-consumer},1651789718,0
{consumergroup=trace-token-events-consumer},1651789723,0
{consumergroup=trace-token-events-consumer},1651789728,0
{consumergroup=trace-token-events-consumer},1651789733,0
{consumergroup=trace-token-events-consumer},1651789738,0
{consumergroup=trace-token-events-consumer},1651789743,0
{consumergroup=trace-token-events-consumer},1651789748,0
{consumergroup=trace-token-events-consumer},1651789753,0
{consumergroup=trace-token-events-consumer},1651789758,0
{consumergroup=trace-token-events-consumer},1651789763,0
{consumergroup=trace-token-events-consumer},1651789768,0
{consumergroup=trace-token-events-consumer},1651789773,0
{consumergroup=trace-token-events-consumer},1651789778,0
{consumergroup=trace-token-events-consumer},1651789783,0
{consumergroup=trace-token-events-consumer},1651789788,0
{consumergroup=trace-token-events-consumer},1651789793,0
{consumergroup=trace-token-events-consumer},1651789798,0
{consumergroup=trace-token-events-consumer},1651789803,0
{consumergroup=trace-token-events-consumer},1651789808,0
{consumergroup=trace-token-events-consumer},1651789813,0
{consumergroup=trace-token-events-consumer},1651789818,0
{consumergroup=trace-token-events-consumer},1651789823,0
{consumergroup=trace-token-events-consumer},1651789828,0
{consumergroup=trace-token-events-consumer},1651789833,0
{consumergroup=trace-token-events-consumer},1651789838,0
{consumergroup=trace-token-events-consumer},1651789843,0
{consumergroup=trace-token-events-consumer},1651789848,0
{consumergroup=trace-token-events-consumer},1651789853,0
{consumergroup=trace-token-events-consumer},1651789858,0
{consumergroup=trace-token-events-consumer},1651789863,0
{consumergroup=trace-token-events-consumer},1651789868,0
{consumergroup=trace-token-events-consumer},1651789873,0
{consumergroup=trace-token-events-consumer},1651789878,0
{consumergroup=trace-token-events-consumer},1651789883,0
{consumergroup=trace-token-events-consumer},1651789888,0
{consumergroup=trace-token-events-consumer},1651789893,0
{consumergroup=trace-token-events-consumer},1651789898,0
{consumergroup=trace-token-events-consumer},1651789903,0
{consumergroup=trace-token-events-consumer},1651789908,0
{consumergroup=trace-token-events-consumer},1651789913,0
{consumergroup=trace-token-events-consumer},1651789918,0
{consumergroup=trace-token-events-consumer},1651789923,0
{consumergroup=trace-token-events-consumer},1651789928,0
{consumergroup=trace-token-events-consumer},1651789933,0
{consumergroup=trace-token-events-consumer},1651789938,0
{consumergroup=trace-token-events-consumer},1651789943,0
{consumergroup=trace-token-events-consumer},1651789948,0
{consumergroup=trace-token-events-consumer},1651789953,0
{consumergroup=trace-token-events-consumer},1651789958,0
{consumergroup=trace-token-events-consumer},1651789963,0
{consumergroup=trace-token-events-consumer},1651789968,0
{consumergroup=trace-token-events-consumer},1651789973,0
{consumergroup=trace-token-events-consumer},1651789978,0
{consumergroup=trace-token-events-consumer},1651789983,0
{consumergroup=trace-token-events-consumer},1651789988,0
{consumergroup=trace-token-events-consumer},1651789993,0
{consumergroup=trace-token-events-consumer},1651789998,0
{consumergroup=trace-token-events-consumer},1651790003,0
{consumergroup=trace-token-events-consumer},1651790008,0
{consumergroup=trace-token-events-consumer},1651790013,0
{consumergroup=trace-token-events-consumer},1651790018,0
{consumergroup=trace-token-events-consumer},1651790023,0
{consumergroup=trace-token-events-consumer},1651790028,0
{consumergroup=trace-token-events-consumer},1651790033,0
{consumergroup=trace-token-events-consumer},1651790038,0
{consumergroup=trace-token-events-consumer},1651790043,0
{consumergroup=trace-token-events-consumer},1651790048,0
{consumergroup=trace-token-events-consumer},1651790053,0
{consumergroup=trace-token-events-consumer},1651790058,0
{consumergroup=trace-token-events-consumer},1651790063,0
{consumergroup=trace-token-events-consumer},1651790068,0
{consumergroup=trace-token-events-consumer},1651790073,0
{consumergroup=trace-token-events-consumer},1651790078,0
{consumergroup=trace-token-events-consumer},1651790083,0
{consumergroup=trace-token-events-consumer},1651790088,0
{consumergroup=trace-token-events-consumer},1651790093,0
{consumergroup=trace-token-events-consumer},1651790098,0
{consumergroup=trace-token-events-consumer},1651790103,0
{consumergroup=trace-token-events-consumer},1651790108,0
{consumergroup=trace-token-events-consumer},1651790113,0
