labels,timestamp,value
{job=theodolite-stu200776/trace-isolated-podmonitor},1651786239,0
{job=theodolite-stu200776/trace-isolated-podmonitor},1651786244,0
{job=theodolite-stu200776/trace-isolated-podmonitor},1651786249,0
{job=theodolite-stu200776/trace-isolated-podmonitor},1651786254,0
{job=theodolite-stu200776/trace-isolated-podmonitor},1651786259,0
{job=theodolite-stu200776/trace-isolated-podmonitor},1651786264,0
{job=theodolite-stu200776/trace-isolated-podmonitor},1651786269,0
{job=theodolite-stu200776/trace-isolated-podmonitor},1651786274,0
{job=theodolite-stu200776/trace-isolated-podmonitor},1651786279,0
{job=theodolite-stu200776/trace-isolated-podmonitor},1651786284,0
{job=theodolite-stu200776/trace-isolated-podmonitor},1651786289,0
{job=theodolite-stu200776/trace-isolated-podmonitor},1651786294,0
{job=theodolite-stu200776/trace-isolated-podmonitor},1651786299,0
{job=theodolite-stu200776/trace-isolated-podmonitor},1651786304,0
{job=theodolite-stu200776/trace-isolated-podmonitor},1651786309,0
{job=theodolite-stu200776/trace-isolated-podmonitor},1651786314,0
{job=theodolite-stu200776/trace-isolated-podmonitor},1651786319,0
{job=theodolite-stu200776/trace-isolated-podmonitor},1651786324,0
{job=theodolite-stu200776/trace-isolated-podmonitor},1651786329,0
{job=theodolite-stu200776/trace-isolated-podmonitor},1651786334,0
{job=theodolite-stu200776/trace-isolated-podmonitor},1651786339,0
{job=theodolite-stu200776/trace-isolated-podmonitor},1651786344,0
{job=theodolite-stu200776/trace-isolated-podmonitor},1651786349,0
{job=theodolite-stu200776/trace-isolated-podmonitor},1651786354,1057.328403432734
{job=theodolite-stu200776/trace-isolated-podmonitor},1651786359,2769.7118606870054
{job=theodolite-stu200776/trace-isolated-podmonitor},1651786364,4118.079426334276
{job=theodolite-stu200776/trace-isolated-podmonitor},1651786369,3848.299984073302
{job=theodolite-stu200776/trace-isolated-podmonitor},1651786374,3761.7044367283765
{job=theodolite-stu200776/trace-isolated-podmonitor},1651786379,3579.0406334909885
{job=theodolite-stu200776/trace-isolated-podmonitor},1651786384,4327.157863531009
{job=theodolite-stu200776/trace-isolated-podmonitor},1651786389,5123.268443060841
{job=theodolite-stu200776/trace-isolated-podmonitor},1651786394,5367.352027740452
{job=theodolite-stu200776/trace-isolated-podmonitor},1651786399,4908.12093115133
{job=theodolite-stu200776/trace-isolated-podmonitor},1651786404,4235.458169151688
{job=theodolite-stu200776/trace-isolated-podmonitor},1651786409,3944.092429037526
{job=theodolite-stu200776/trace-isolated-podmonitor},1651786414,2602.272323393954
{job=theodolite-stu200776/trace-isolated-podmonitor},1651786419,1299.9888849052031
{job=theodolite-stu200776/trace-isolated-podmonitor},1651786424,7.314559591636058
{job=theodolite-stu200776/trace-isolated-podmonitor},1651786429,6.619181020661787
{job=theodolite-stu200776/trace-isolated-podmonitor},1651786434,5.7784783333506455
{job=theodolite-stu200776/trace-isolated-podmonitor},1651786439,5.3334385095989685
{job=theodolite-stu200776/trace-isolated-podmonitor},1651786444,5.923645869714551
{job=theodolite-stu200776/trace-isolated-podmonitor},1651786449,7.064053866134694
{job=theodolite-stu200776/trace-isolated-podmonitor},1651786454,7.3144368579994765
{job=theodolite-stu200776/trace-isolated-podmonitor},1651786459,6.61913215220653
{job=theodolite-stu200776/trace-isolated-podmonitor},1651786464,5.778541751595692
{job=theodolite-stu200776/trace-isolated-podmonitor},1651786469,5.333195340329623
{job=theodolite-stu200776/trace-isolated-podmonitor},1651786474,119.81802606768386
{job=theodolite-stu200776/trace-isolated-podmonitor},1651786479,249.35420321886647
{job=theodolite-stu200776/trace-isolated-podmonitor},1651786484,372.69029450467355
{job=theodolite-stu200776/trace-isolated-podmonitor},1651786489,356.8026153564864
{job=theodolite-stu200776/trace-isolated-podmonitor},1651786494,315.83943834266836
{job=theodolite-stu200776/trace-isolated-podmonitor},1651786499,294.7824664482139
