labels,timestamp,value
{job=theodolite-stu200776/trace-isolated-podmonitor},1651792902,0
{job=theodolite-stu200776/trace-isolated-podmonitor},1651792907,0
{job=theodolite-stu200776/trace-isolated-podmonitor},1651792912,0
{job=theodolite-stu200776/trace-isolated-podmonitor},1651792917,0
{job=theodolite-stu200776/trace-isolated-podmonitor},1651792922,0
{job=theodolite-stu200776/trace-isolated-podmonitor},1651792927,0
{job=theodolite-stu200776/trace-isolated-podmonitor},1651792932,0
{job=theodolite-stu200776/trace-isolated-podmonitor},1651792937,0
{job=theodolite-stu200776/trace-isolated-podmonitor},1651792942,0
{job=theodolite-stu200776/trace-isolated-podmonitor},1651792947,0
{job=theodolite-stu200776/trace-isolated-podmonitor},1651792952,0
{job=theodolite-stu200776/trace-isolated-podmonitor},1651792957,0
{job=theodolite-stu200776/trace-isolated-podmonitor},1651792962,0
{job=theodolite-stu200776/trace-isolated-podmonitor},1651792967,0
{job=theodolite-stu200776/trace-isolated-podmonitor},1651792972,0
{job=theodolite-stu200776/trace-isolated-podmonitor},1651792977,0
{job=theodolite-stu200776/trace-isolated-podmonitor},1651792982,0
{job=theodolite-stu200776/trace-isolated-podmonitor},1651792987,0
{job=theodolite-stu200776/trace-isolated-podmonitor},1651792992,0
{job=theodolite-stu200776/trace-isolated-podmonitor},1651792997,0
{job=theodolite-stu200776/trace-isolated-podmonitor},1651793002,0
{job=theodolite-stu200776/trace-isolated-podmonitor},1651793007,0
{job=theodolite-stu200776/trace-isolated-podmonitor},1651793012,0
{job=theodolite-stu200776/trace-isolated-podmonitor},1651793017,0
{job=theodolite-stu200776/trace-isolated-podmonitor},1651793022,0
{job=theodolite-stu200776/trace-isolated-podmonitor},1651793027,0
{job=theodolite-stu200776/trace-isolated-podmonitor},1651793032,0
{job=theodolite-stu200776/trace-isolated-podmonitor},1651793037,0
{job=theodolite-stu200776/trace-isolated-podmonitor},1651793042,0
{job=theodolite-stu200776/trace-isolated-podmonitor},1651793047,0
{job=theodolite-stu200776/trace-isolated-podmonitor},1651793052,0
{job=theodolite-stu200776/trace-isolated-podmonitor},1651793057,0
{job=theodolite-stu200776/trace-isolated-podmonitor},1651793062,0
{job=theodolite-stu200776/trace-isolated-podmonitor},1651793067,0
{job=theodolite-stu200776/trace-isolated-podmonitor},1651793072,0
{job=theodolite-stu200776/trace-isolated-podmonitor},1651793077,0
{job=theodolite-stu200776/trace-isolated-podmonitor},1651793082,0
{job=theodolite-stu200776/trace-isolated-podmonitor},1651793087,0
{job=theodolite-stu200776/trace-isolated-podmonitor},1651793092,0
{job=theodolite-stu200776/trace-isolated-podmonitor},1651793097,0
{job=theodolite-stu200776/trace-isolated-podmonitor},1651793102,0
{job=theodolite-stu200776/trace-isolated-podmonitor},1651793107,0
{job=theodolite-stu200776/trace-isolated-podmonitor},1651793112,0
{job=theodolite-stu200776/trace-isolated-podmonitor},1651793117,0
{job=theodolite-stu200776/trace-isolated-podmonitor},1651793122,0
{job=theodolite-stu200776/trace-isolated-podmonitor},1651793127,0
{job=theodolite-stu200776/trace-isolated-podmonitor},1651793132,0
{job=theodolite-stu200776/trace-isolated-podmonitor},1651793137,0
{job=theodolite-stu200776/trace-isolated-podmonitor},1651793142,0
{job=theodolite-stu200776/trace-isolated-podmonitor},1651793147,0
{job=theodolite-stu200776/trace-isolated-podmonitor},1651793152,0
{job=theodolite-stu200776/trace-isolated-podmonitor},1651793157,0
{job=theodolite-stu200776/trace-isolated-podmonitor},1651793162,0
{job=theodolite-stu200776/trace-isolated-podmonitor},1651793167,0
{job=theodolite-stu200776/trace-isolated-podmonitor},1651793172,0
{job=theodolite-stu200776/trace-isolated-podmonitor},1651793177,0
