labels,timestamp,value
{job=theodolite-stu200776/trace-isolated-podmonitor},1651796884,0
{job=theodolite-stu200776/trace-isolated-podmonitor},1651796889,0
{job=theodolite-stu200776/trace-isolated-podmonitor},1651796894,0
{job=theodolite-stu200776/trace-isolated-podmonitor},1651796899,0
{job=theodolite-stu200776/trace-isolated-podmonitor},1651796904,0
{job=theodolite-stu200776/trace-isolated-podmonitor},1651796909,0
{job=theodolite-stu200776/trace-isolated-podmonitor},1651796914,0
{job=theodolite-stu200776/trace-isolated-podmonitor},1651796919,54.415170179191946
{job=theodolite-stu200776/trace-isolated-podmonitor},1651796924,153.21675418543518
{job=theodolite-stu200776/trace-isolated-podmonitor},1651796929,156.79990920383952
{job=theodolite-stu200776/trace-isolated-podmonitor},1651796934,160.5260242522466
{job=theodolite-stu200776/trace-isolated-podmonitor},1651796939,168.29638389715245
{job=theodolite-stu200776/trace-isolated-podmonitor},1651796944,155.43999076045412
{job=theodolite-stu200776/trace-isolated-podmonitor},1651796949,191.669059588244
{job=theodolite-stu200776/trace-isolated-podmonitor},1651796954,240.93971485082272
{job=theodolite-stu200776/trace-isolated-podmonitor},1651796959,225.31160386336194
{job=theodolite-stu200776/trace-isolated-podmonitor},1651796964,202.83150806626566
{job=theodolite-stu200776/trace-isolated-podmonitor},1651796969,186.7546898416726
{job=theodolite-stu200776/trace-isolated-podmonitor},1651796974,165.30249222116433
{job=theodolite-stu200776/trace-isolated-podmonitor},1651796979,107.78516182591179
{job=theodolite-stu200776/trace-isolated-podmonitor},1651796984,22.27602257284348
{job=theodolite-stu200776/trace-isolated-podmonitor},1651796989,11.343999702131182
{job=theodolite-stu200776/trace-isolated-podmonitor},1651796994,1.8434711922733755
{job=theodolite-stu200776/trace-isolated-podmonitor},1651796999,0
{job=theodolite-stu200776/trace-isolated-podmonitor},1651797004,0
{job=theodolite-stu200776/trace-isolated-podmonitor},1651797009,0
{job=theodolite-stu200776/trace-isolated-podmonitor},1651797014,0
{job=theodolite-stu200776/trace-isolated-podmonitor},1651797019,0
{job=theodolite-stu200776/trace-isolated-podmonitor},1651797024,0
{job=theodolite-stu200776/trace-isolated-podmonitor},1651797029,0
{job=theodolite-stu200776/trace-isolated-podmonitor},1651797034,0
{job=theodolite-stu200776/trace-isolated-podmonitor},1651797039,0
{job=theodolite-stu200776/trace-isolated-podmonitor},1651797044,0
{job=theodolite-stu200776/trace-isolated-podmonitor},1651797049,0
{job=theodolite-stu200776/trace-isolated-podmonitor},1651797054,0
{job=theodolite-stu200776/trace-isolated-podmonitor},1651797059,0
{job=theodolite-stu200776/trace-isolated-podmonitor},1651797064,0
{job=theodolite-stu200776/trace-isolated-podmonitor},1651797069,0
{job=theodolite-stu200776/trace-isolated-podmonitor},1651797074,0
{job=theodolite-stu200776/trace-isolated-podmonitor},1651797079,0
{job=theodolite-stu200776/trace-isolated-podmonitor},1651797084,0
{job=theodolite-stu200776/trace-isolated-podmonitor},1651797089,0
{job=theodolite-stu200776/trace-isolated-podmonitor},1651797094,0.46834363147254826
{job=theodolite-stu200776/trace-isolated-podmonitor},1651797099,1.5416497341988828
{job=theodolite-stu200776/trace-isolated-podmonitor},1651797104,2.4409036712777215
{job=theodolite-stu200776/trace-isolated-podmonitor},1651797109,2.392202513882293
{job=theodolite-stu200776/trace-isolated-podmonitor},1651797114,2.3192392477242736
{job=theodolite-stu200776/trace-isolated-podmonitor},1651797119,2.2532385934034402
{job=theodolite-stu200776/trace-isolated-podmonitor},1651797124,2.253330792789106
{job=theodolite-stu200776/trace-isolated-podmonitor},1651797129,2.8134719147030642
{job=theodolite-stu200776/trace-isolated-podmonitor},1651797134,2.897737007848112
{job=theodolite-stu200776/trace-isolated-podmonitor},1651797139,2.5544517918036216
{job=theodolite-stu200776/trace-isolated-podmonitor},1651797144,2.2686661636085788
{job=theodolite-stu200776/trace-isolated-podmonitor},1651797149,2.051730498384184
{job=theodolite-stu200776/trace-isolated-podmonitor},1651797154,1.6515420256604756
{job=theodolite-stu200776/trace-isolated-podmonitor},1651797159,0.6930174940053311
{job=theodolite-stu200776/trace-isolated-podmonitor},1651797164,0
{job=theodolite-stu200776/trace-isolated-podmonitor},1651797169,0
{job=theodolite-stu200776/trace-isolated-podmonitor},1651797174,0
{job=theodolite-stu200776/trace-isolated-podmonitor},1651797179,0
{job=theodolite-stu200776/trace-isolated-podmonitor},1651797184,0
{job=theodolite-stu200776/trace-isolated-podmonitor},1651797189,0
{job=theodolite-stu200776/trace-isolated-podmonitor},1651797194,0
{job=theodolite-stu200776/trace-isolated-podmonitor},1651797199,0
{job=theodolite-stu200776/trace-isolated-podmonitor},1651797204,0
{job=theodolite-stu200776/trace-isolated-podmonitor},1651797209,0
{job=theodolite-stu200776/trace-isolated-podmonitor},1651797214,0
{job=theodolite-stu200776/trace-isolated-podmonitor},1651797219,0
{job=theodolite-stu200776/trace-isolated-podmonitor},1651797224,0
{job=theodolite-stu200776/trace-isolated-podmonitor},1651797229,0
{job=theodolite-stu200776/trace-isolated-podmonitor},1651797234,0
{job=theodolite-stu200776/trace-isolated-podmonitor},1651797239,0
{job=theodolite-stu200776/trace-isolated-podmonitor},1651797244,0
{job=theodolite-stu200776/trace-isolated-podmonitor},1651797249,0
{job=theodolite-stu200776/trace-isolated-podmonitor},1651797254,0
{job=theodolite-stu200776/trace-isolated-podmonitor},1651797259,0
