labels,timestamp,value
{consumergroup=__strimzi-topic-operator-kstreams},1651772586,11
{consumergroup=__strimzi-topic-operator-kstreams},1651772591,11
{consumergroup=__strimzi-topic-operator-kstreams},1651772596,11
{consumergroup=__strimzi-topic-operator-kstreams},1651772601,1
{consumergroup=__strimzi-topic-operator-kstreams},1651772606,1
{consumergroup=__strimzi-topic-operator-kstreams},1651772611,1
{consumergroup=__strimzi-topic-operator-kstreams},1651772616,3
{consumergroup=__strimzi-topic-operator-kstreams},1651772621,3
{consumergroup=__strimzi-topic-operator-kstreams},1651772626,3
{consumergroup=__strimzi-topic-operator-kstreams},1651772631,0
{consumergroup=__strimzi-topic-operator-kstreams},1651772636,0
{consumergroup=__strimzi-topic-operator-kstreams},1651772641,0
{consumergroup=__strimzi-topic-operator-kstreams},1651772646,0
{consumergroup=__strimzi-topic-operator-kstreams},1651772651,0
{consumergroup=__strimzi-topic-operator-kstreams},1651772656,0
{consumergroup=__strimzi-topic-operator-kstreams},1651772661,0
{consumergroup=__strimzi-topic-operator-kstreams},1651772666,0
{consumergroup=__strimzi-topic-operator-kstreams},1651772671,0
{consumergroup=__strimzi-topic-operator-kstreams},1651772676,0
{consumergroup=__strimzi-topic-operator-kstreams},1651772681,0
{consumergroup=__strimzi-topic-operator-kstreams},1651772686,0
{consumergroup=__strimzi-topic-operator-kstreams},1651772691,0
{consumergroup=__strimzi-topic-operator-kstreams},1651772696,0
{consumergroup=__strimzi-topic-operator-kstreams},1651772701,0
{consumergroup=__strimzi-topic-operator-kstreams},1651772706,0
{consumergroup=__strimzi-topic-operator-kstreams},1651772711,0
{consumergroup=__strimzi-topic-operator-kstreams},1651772716,0
{consumergroup=__strimzi-topic-operator-kstreams},1651772721,0
{consumergroup=__strimzi-topic-operator-kstreams},1651772726,0
{consumergroup=__strimzi-topic-operator-kstreams},1651772731,0
{consumergroup=__strimzi-topic-operator-kstreams},1651772736,0
{consumergroup=__strimzi-topic-operator-kstreams},1651772741,0
{consumergroup=__strimzi-topic-operator-kstreams},1651772746,0
{consumergroup=__strimzi-topic-operator-kstreams},1651772751,0
{consumergroup=__strimzi-topic-operator-kstreams},1651772756,0
{consumergroup=__strimzi-topic-operator-kstreams},1651772761,0
{consumergroup=__strimzi-topic-operator-kstreams},1651772766,0
{consumergroup=__strimzi-topic-operator-kstreams},1651772771,0
{consumergroup=__strimzi-topic-operator-kstreams},1651772776,0
{consumergroup=__strimzi-topic-operator-kstreams},1651772781,0
{consumergroup=__strimzi-topic-operator-kstreams},1651772786,0
{consumergroup=__strimzi-topic-operator-kstreams},1651772791,0
{consumergroup=__strimzi-topic-operator-kstreams},1651772796,0
{consumergroup=__strimzi-topic-operator-kstreams},1651772801,0
{consumergroup=__strimzi-topic-operator-kstreams},1651772806,0
{consumergroup=__strimzi-topic-operator-kstreams},1651772811,0
{consumergroup=__strimzi-topic-operator-kstreams},1651772816,0
{consumergroup=__strimzi-topic-operator-kstreams},1651772821,0
{consumergroup=__strimzi-topic-operator-kstreams},1651772826,0
{consumergroup=__strimzi-topic-operator-kstreams},1651772831,0
{consumergroup=__strimzi-topic-operator-kstreams},1651772836,0
{consumergroup=__strimzi-topic-operator-kstreams},1651772841,0
{consumergroup=__strimzi-topic-operator-kstreams},1651772846,0
{consumergroup=__strimzi-topic-operator-kstreams},1651772851,0
{consumergroup=__strimzi-topic-operator-kstreams},1651772856,0
{consumergroup=__strimzi-topic-operator-kstreams},1651772861,0
{consumergroup=__strimzi-topic-operator-kstreams},1651772866,0
{consumergroup=__strimzi-topic-operator-kstreams},1651772871,0
{consumergroup=__strimzi-topic-operator-kstreams},1651772876,0
{consumergroup=__strimzi-topic-operator-kstreams},1651772881,0
{consumergroup=__strimzi-topic-operator-kstreams},1651772886,0
{consumergroup=__strimzi-topic-operator-kstreams},1651772891,0
{consumergroup=__strimzi-topic-operator-kstreams},1651772896,0
{consumergroup=__strimzi-topic-operator-kstreams},1651772901,0
{consumergroup=__strimzi-topic-operator-kstreams},1651772906,0
{consumergroup=__strimzi-topic-operator-kstreams},1651772911,0
{consumergroup=__strimzi-topic-operator-kstreams},1651772916,0
{consumergroup=__strimzi-topic-operator-kstreams},1651772921,0
{consumergroup=__strimzi-topic-operator-kstreams},1651772926,0
{consumergroup=__strimzi-topic-operator-kstreams},1651772931,0
{consumergroup=__strimzi-topic-operator-kstreams},1651772936,0
{consumergroup=__strimzi-topic-operator-kstreams},1651772941,0
{consumergroup=__strimzi-topic-operator-kstreams},1651772946,0
{consumergroup=__strimzi-topic-operator-kstreams},1651772951,0
{consumergroup=__strimzi-topic-operator-kstreams},1651772956,0
{consumergroup=__strimzi-topic-operator-kstreams},1651772961,0
{consumergroup=__strimzi-topic-operator-kstreams},1651772966,0
{consumergroup=__strimzi-topic-operator-kstreams},1651772971,0
{consumergroup=__strimzi-topic-operator-kstreams},1651772976,0
{consumergroup=__strimzi-topic-operator-kstreams},1651772981,0
{consumergroup=__strimzi-topic-operator-kstreams},1651772986,0
{consumergroup=__strimzi-topic-operator-kstreams},1651772991,0
{consumergroup=__strimzi-topic-operator-kstreams},1651772996,0
{consumergroup=__strimzi-topic-operator-kstreams},1651773001,0
{consumergroup=__strimzi-topic-operator-kstreams},1651773006,0
{consumergroup=__strimzi-topic-operator-kstreams},1651773011,0
{consumergroup=__strimzi-topic-operator-kstreams},1651773016,0
{consumergroup=__strimzi-topic-operator-kstreams},1651773021,0
{consumergroup=__strimzi-topic-operator-kstreams},1651773026,0
{consumergroup=__strimzi-topic-operator-kstreams},1651773031,0
{consumergroup=trace-service},1651772631,49864
{consumergroup=trace-service},1651772636,49864
{consumergroup=trace-service},1651772641,49864
{consumergroup=trace-service},1651772646,243784
{consumergroup=trace-service},1651772651,243784
{consumergroup=trace-service},1651772656,243784
{consumergroup=trace-service},1651772661,348969
{consumergroup=trace-service},1651772666,348969
{consumergroup=trace-service},1651772671,348969
{consumergroup=trace-service},1651772676,526275
{consumergroup=trace-service},1651772681,526275
{consumergroup=trace-service},1651772686,526275
{consumergroup=trace-service},1651772691,346165
{consumergroup=trace-service},1651772696,346165
{consumergroup=trace-service},1651772701,346165
{consumergroup=trace-service},1651772706,199052
{consumergroup=trace-service},1651772711,199052
{consumergroup=trace-service},1651772716,199052
{consumergroup=trace-service},1651772721,163559
{consumergroup=trace-service},1651772726,163559
{consumergroup=trace-service},1651772731,163559
{consumergroup=trace-service},1651772736,121908
{consumergroup=trace-service},1651772741,121908
{consumergroup=trace-service},1651772746,121908
{consumergroup=trace-service},1651772751,233628
{consumergroup=trace-service},1651772756,233628
{consumergroup=trace-service},1651772761,233628
{consumergroup=trace-service},1651772766,131234
{consumergroup=trace-service},1651772771,131234
{consumergroup=trace-service},1651772776,131234
{consumergroup=trace-service},1651772781,88680
{consumergroup=trace-service},1651772786,88680
{consumergroup=trace-service},1651772791,88680
{consumergroup=trace-service},1651772796,128941
{consumergroup=trace-service},1651772801,128941
{consumergroup=trace-service},1651772806,128941
{consumergroup=trace-service},1651772811,207119
{consumergroup=trace-service},1651772816,207119
{consumergroup=trace-service},1651772821,207119
{consumergroup=trace-service},1651772826,125456
{consumergroup=trace-service},1651772831,125456
{consumergroup=trace-service},1651772836,125456
{consumergroup=trace-service},1651772841,173847
{consumergroup=trace-service},1651772846,173847
{consumergroup=trace-service},1651772851,173847
{consumergroup=trace-service},1651772856,136716
{consumergroup=trace-service},1651772861,136716
{consumergroup=trace-service},1651772866,136716
{consumergroup=trace-service},1651772871,149710
{consumergroup=trace-service},1651772876,149710
{consumergroup=trace-service},1651772881,149710
{consumergroup=trace-service},1651772886,129152
{consumergroup=trace-service},1651772891,129152
{consumergroup=trace-service},1651772896,129152
{consumergroup=trace-service},1651772901,195834
{consumergroup=trace-service},1651772906,195834
{consumergroup=trace-service},1651772911,195834
{consumergroup=trace-service},1651772916,124245
{consumergroup=trace-service},1651772921,124245
{consumergroup=trace-service},1651772926,124245
{consumergroup=trace-service},1651772931,200889
{consumergroup=trace-service},1651772936,200889
{consumergroup=trace-service},1651772941,200889
{consumergroup=trace-service},1651772946,135589
{consumergroup=trace-service},1651772951,135589
{consumergroup=trace-service},1651772956,135589
{consumergroup=trace-service},1651772961,247368
{consumergroup=trace-service},1651772966,247368
{consumergroup=trace-service},1651772971,247368
{consumergroup=trace-service},1651772976,139417
{consumergroup=trace-service},1651772981,139417
{consumergroup=trace-service},1651772986,139417
{consumergroup=trace-service},1651772991,125918
{consumergroup=trace-service},1651772996,125918
{consumergroup=trace-service},1651773001,125918
{consumergroup=trace-service},1651773006,113171
{consumergroup=trace-service},1651773011,113171
{consumergroup=trace-service},1651773016,113171
{consumergroup=trace-service},1651773021,239841
{consumergroup=trace-service},1651773026,239841
{consumergroup=trace-service},1651773031,239841
{consumergroup=trace-token-events-consumer},1651772616,0
{consumergroup=trace-token-events-consumer},1651772621,0
{consumergroup=trace-token-events-consumer},1651772626,0
{consumergroup=trace-token-events-consumer},1651772631,0
{consumergroup=trace-token-events-consumer},1651772636,0
{consumergroup=trace-token-events-consumer},1651772641,0
{consumergroup=trace-token-events-consumer},1651772646,0
{consumergroup=trace-token-events-consumer},1651772651,0
{consumergroup=trace-token-events-consumer},1651772656,0
{consumergroup=trace-token-events-consumer},1651772661,0
{consumergroup=trace-token-events-consumer},1651772666,0
{consumergroup=trace-token-events-consumer},1651772671,0
{consumergroup=trace-token-events-consumer},1651772676,0
{consumergroup=trace-token-events-consumer},1651772681,0
{consumergroup=trace-token-events-consumer},1651772686,0
{consumergroup=trace-token-events-consumer},1651772691,0
{consumergroup=trace-token-events-consumer},1651772696,0
{consumergroup=trace-token-events-consumer},1651772701,0
{consumergroup=trace-token-events-consumer},1651772706,0
{consumergroup=trace-token-events-consumer},1651772711,0
{consumergroup=trace-token-events-consumer},1651772716,0
{consumergroup=trace-token-events-consumer},1651772721,0
{consumergroup=trace-token-events-consumer},1651772726,0
{consumergroup=trace-token-events-consumer},1651772731,0
{consumergroup=trace-token-events-consumer},1651772736,0
{consumergroup=trace-token-events-consumer},1651772741,0
{consumergroup=trace-token-events-consumer},1651772746,0
{consumergroup=trace-token-events-consumer},1651772751,0
{consumergroup=trace-token-events-consumer},1651772756,0
{consumergroup=trace-token-events-consumer},1651772761,0
{consumergroup=trace-token-events-consumer},1651772766,0
{consumergroup=trace-token-events-consumer},1651772771,0
{consumergroup=trace-token-events-consumer},1651772776,0
{consumergroup=trace-token-events-consumer},1651772781,0
{consumergroup=trace-token-events-consumer},1651772786,0
{consumergroup=trace-token-events-consumer},1651772791,0
{consumergroup=trace-token-events-consumer},1651772796,0
{consumergroup=trace-token-events-consumer},1651772801,0
{consumergroup=trace-token-events-consumer},1651772806,0
{consumergroup=trace-token-events-consumer},1651772811,0
{consumergroup=trace-token-events-consumer},1651772816,0
{consumergroup=trace-token-events-consumer},1651772821,0
{consumergroup=trace-token-events-consumer},1651772826,0
{consumergroup=trace-token-events-consumer},1651772831,0
{consumergroup=trace-token-events-consumer},1651772836,0
{consumergroup=trace-token-events-consumer},1651772841,0
{consumergroup=trace-token-events-consumer},1651772846,0
{consumergroup=trace-token-events-consumer},1651772851,0
{consumergroup=trace-token-events-consumer},1651772856,0
{consumergroup=trace-token-events-consumer},1651772861,0
{consumergroup=trace-token-events-consumer},1651772866,0
{consumergroup=trace-token-events-consumer},1651772871,0
{consumergroup=trace-token-events-consumer},1651772876,0
{consumergroup=trace-token-events-consumer},1651772881,0
{consumergroup=trace-token-events-consumer},1651772886,0
{consumergroup=trace-token-events-consumer},1651772891,0
{consumergroup=trace-token-events-consumer},1651772896,0
{consumergroup=trace-token-events-consumer},1651772901,0
{consumergroup=trace-token-events-consumer},1651772906,0
{consumergroup=trace-token-events-consumer},1651772911,0
{consumergroup=trace-token-events-consumer},1651772916,0
{consumergroup=trace-token-events-consumer},1651772921,0
{consumergroup=trace-token-events-consumer},1651772926,0
{consumergroup=trace-token-events-consumer},1651772931,0
{consumergroup=trace-token-events-consumer},1651772936,0
{consumergroup=trace-token-events-consumer},1651772941,0
{consumergroup=trace-token-events-consumer},1651772946,0
{consumergroup=trace-token-events-consumer},1651772951,0
{consumergroup=trace-token-events-consumer},1651772956,0
{consumergroup=trace-token-events-consumer},1651772961,0
{consumergroup=trace-token-events-consumer},1651772966,0
{consumergroup=trace-token-events-consumer},1651772971,0
{consumergroup=trace-token-events-consumer},1651772976,0
{consumergroup=trace-token-events-consumer},1651772981,0
{consumergroup=trace-token-events-consumer},1651772986,0
{consumergroup=trace-token-events-consumer},1651772991,0
{consumergroup=trace-token-events-consumer},1651772996,0
{consumergroup=trace-token-events-consumer},1651773001,0
{consumergroup=trace-token-events-consumer},1651773006,0
{consumergroup=trace-token-events-consumer},1651773011,0
{consumergroup=trace-token-events-consumer},1651773016,0
{consumergroup=trace-token-events-consumer},1651773021,0
{consumergroup=trace-token-events-consumer},1651773026,0
{consumergroup=trace-token-events-consumer},1651773031,0
