labels,timestamp,value
{consumergroup=__strimzi-topic-operator-kstreams},1651799918,9
{consumergroup=__strimzi-topic-operator-kstreams},1651799923,9
{consumergroup=__strimzi-topic-operator-kstreams},1651799928,9
{consumergroup=__strimzi-topic-operator-kstreams},1651799933,0
{consumergroup=__strimzi-topic-operator-kstreams},1651799938,0
{consumergroup=__strimzi-topic-operator-kstreams},1651799943,0
{consumergroup=__strimzi-topic-operator-kstreams},1651799948,0
{consumergroup=__strimzi-topic-operator-kstreams},1651799953,0
{consumergroup=__strimzi-topic-operator-kstreams},1651799958,0
{consumergroup=__strimzi-topic-operator-kstreams},1651799963,0
{consumergroup=__strimzi-topic-operator-kstreams},1651799968,0
{consumergroup=__strimzi-topic-operator-kstreams},1651799973,0
{consumergroup=__strimzi-topic-operator-kstreams},1651799978,0
{consumergroup=__strimzi-topic-operator-kstreams},1651799983,0
{consumergroup=__strimzi-topic-operator-kstreams},1651799988,0
{consumergroup=__strimzi-topic-operator-kstreams},1651799993,0
{consumergroup=__strimzi-topic-operator-kstreams},1651799998,0
{consumergroup=__strimzi-topic-operator-kstreams},1651800003,0
{consumergroup=__strimzi-topic-operator-kstreams},1651800008,0
{consumergroup=__strimzi-topic-operator-kstreams},1651800013,0
{consumergroup=__strimzi-topic-operator-kstreams},1651800018,0
{consumergroup=__strimzi-topic-operator-kstreams},1651800023,0
{consumergroup=__strimzi-topic-operator-kstreams},1651800028,0
{consumergroup=__strimzi-topic-operator-kstreams},1651800033,0
{consumergroup=__strimzi-topic-operator-kstreams},1651800038,0
{consumergroup=__strimzi-topic-operator-kstreams},1651800043,0
{consumergroup=__strimzi-topic-operator-kstreams},1651800048,0
{consumergroup=__strimzi-topic-operator-kstreams},1651800053,0
{consumergroup=__strimzi-topic-operator-kstreams},1651800058,0
{consumergroup=__strimzi-topic-operator-kstreams},1651800063,0
{consumergroup=__strimzi-topic-operator-kstreams},1651800068,0
{consumergroup=__strimzi-topic-operator-kstreams},1651800073,0
{consumergroup=__strimzi-topic-operator-kstreams},1651800078,0
{consumergroup=__strimzi-topic-operator-kstreams},1651800083,0
{consumergroup=__strimzi-topic-operator-kstreams},1651800088,0
{consumergroup=__strimzi-topic-operator-kstreams},1651800093,0
{consumergroup=__strimzi-topic-operator-kstreams},1651800098,0
{consumergroup=__strimzi-topic-operator-kstreams},1651800103,0
{consumergroup=__strimzi-topic-operator-kstreams},1651800108,0
{consumergroup=__strimzi-topic-operator-kstreams},1651800113,0
{consumergroup=__strimzi-topic-operator-kstreams},1651800118,0
{consumergroup=__strimzi-topic-operator-kstreams},1651800123,0
{consumergroup=__strimzi-topic-operator-kstreams},1651800128,0
{consumergroup=__strimzi-topic-operator-kstreams},1651800133,0
{consumergroup=__strimzi-topic-operator-kstreams},1651800138,0
{consumergroup=__strimzi-topic-operator-kstreams},1651800143,0
{consumergroup=__strimzi-topic-operator-kstreams},1651800148,0
{consumergroup=__strimzi-topic-operator-kstreams},1651800153,0
{consumergroup=__strimzi-topic-operator-kstreams},1651800158,0
{consumergroup=__strimzi-topic-operator-kstreams},1651800163,0
{consumergroup=__strimzi-topic-operator-kstreams},1651800168,0
{consumergroup=__strimzi-topic-operator-kstreams},1651800173,0
{consumergroup=__strimzi-topic-operator-kstreams},1651800178,0
{consumergroup=__strimzi-topic-operator-kstreams},1651800183,0
{consumergroup=__strimzi-topic-operator-kstreams},1651800188,0
{consumergroup=__strimzi-topic-operator-kstreams},1651800193,0
{consumergroup=__strimzi-topic-operator-kstreams},1651800198,0
{consumergroup=__strimzi-topic-operator-kstreams},1651800203,0
{consumergroup=__strimzi-topic-operator-kstreams},1651800208,0
{consumergroup=__strimzi-topic-operator-kstreams},1651800213,0
{consumergroup=__strimzi-topic-operator-kstreams},1651800218,0
{consumergroup=__strimzi-topic-operator-kstreams},1651800223,0
{consumergroup=__strimzi-topic-operator-kstreams},1651800228,0
{consumergroup=__strimzi-topic-operator-kstreams},1651800233,0
{consumergroup=__strimzi-topic-operator-kstreams},1651800238,0
{consumergroup=__strimzi-topic-operator-kstreams},1651800243,0
{consumergroup=__strimzi-topic-operator-kstreams},1651800248,0
{consumergroup=__strimzi-topic-operator-kstreams},1651800253,0
{consumergroup=__strimzi-topic-operator-kstreams},1651800258,0
{consumergroup=__strimzi-topic-operator-kstreams},1651800263,0
{consumergroup=__strimzi-topic-operator-kstreams},1651800268,0
{consumergroup=__strimzi-topic-operator-kstreams},1651800273,0
{consumergroup=__strimzi-topic-operator-kstreams},1651800278,0
{consumergroup=__strimzi-topic-operator-kstreams},1651800283,0
{consumergroup=__strimzi-topic-operator-kstreams},1651800288,0
{consumergroup=__strimzi-topic-operator-kstreams},1651800293,0
{consumergroup=__strimzi-topic-operator-kstreams},1651800298,0
{consumergroup=__strimzi-topic-operator-kstreams},1651800303,0
{consumergroup=__strimzi-topic-operator-kstreams},1651800308,0
{consumergroup=__strimzi-topic-operator-kstreams},1651800313,0
{consumergroup=__strimzi-topic-operator-kstreams},1651800318,0
{consumergroup=__strimzi-topic-operator-kstreams},1651800323,0
{consumergroup=__strimzi-topic-operator-kstreams},1651800328,0
{consumergroup=__strimzi-topic-operator-kstreams},1651800333,0
{consumergroup=__strimzi-topic-operator-kstreams},1651800338,0
{consumergroup=__strimzi-topic-operator-kstreams},1651800343,0
{consumergroup=__strimzi-topic-operator-kstreams},1651800348,0
{consumergroup=__strimzi-topic-operator-kstreams},1651800353,0
{consumergroup=trace-service},1651799963,317912
{consumergroup=trace-service},1651799968,317912
{consumergroup=trace-service},1651799973,317912
{consumergroup=trace-service},1651799978,458365
{consumergroup=trace-service},1651799983,458365
{consumergroup=trace-service},1651799988,458365
{consumergroup=trace-service},1651799993,719783
{consumergroup=trace-service},1651799998,719783
{consumergroup=trace-service},1651800003,719783
{consumergroup=trace-service},1651800008,638472
{consumergroup=trace-service},1651800013,638472
{consumergroup=trace-service},1651800018,638472
{consumergroup=trace-service},1651800023,731112
{consumergroup=trace-service},1651800028,731112
{consumergroup=trace-service},1651800033,731112
{consumergroup=trace-service},1651800038,421805
{consumergroup=trace-service},1651800043,421805
{consumergroup=trace-service},1651800048,421805
{consumergroup=trace-service},1651800053,555889
{consumergroup=trace-service},1651800058,555889
{consumergroup=trace-service},1651800063,555889
{consumergroup=trace-service},1651800068,308942
{consumergroup=trace-service},1651800073,308942
{consumergroup=trace-service},1651800078,308942
{consumergroup=trace-service},1651800083,704949
{consumergroup=trace-service},1651800088,704949
{consumergroup=trace-service},1651800093,704949
{consumergroup=trace-service},1651800098,306696
{consumergroup=trace-service},1651800103,306696
{consumergroup=trace-service},1651800108,306696
{consumergroup=trace-service},1651800113,675694
{consumergroup=trace-service},1651800118,675694
{consumergroup=trace-service},1651800123,675694
{consumergroup=trace-service},1651800128,363197
{consumergroup=trace-service},1651800133,363197
{consumergroup=trace-service},1651800138,363197
{consumergroup=trace-service},1651800143,775255
{consumergroup=trace-service},1651800148,775255
{consumergroup=trace-service},1651800153,775255
{consumergroup=trace-service},1651800158,325498
{consumergroup=trace-service},1651800163,325498
{consumergroup=trace-service},1651800168,325498
{consumergroup=trace-service},1651800173,725553
{consumergroup=trace-service},1651800178,725553
{consumergroup=trace-service},1651800183,725553
{consumergroup=trace-service},1651800188,337128
{consumergroup=trace-service},1651800193,337128
{consumergroup=trace-service},1651800198,337128
{consumergroup=trace-service},1651800203,656284
{consumergroup=trace-service},1651800208,656284
{consumergroup=trace-service},1651800213,656284
{consumergroup=trace-service},1651800218,335511
{consumergroup=trace-service},1651800223,335511
{consumergroup=trace-service},1651800228,335511
{consumergroup=trace-service},1651800233,713400
{consumergroup=trace-service},1651800238,713400
{consumergroup=trace-service},1651800243,713400
{consumergroup=trace-service},1651800248,321960
{consumergroup=trace-service},1651800253,321960
{consumergroup=trace-service},1651800258,321960
{consumergroup=trace-service},1651800263,648431
{consumergroup=trace-service},1651800268,648431
{consumergroup=trace-service},1651800273,648431
{consumergroup=trace-service},1651800278,348312
{consumergroup=trace-service},1651800283,348312
{consumergroup=trace-service},1651800288,348312
{consumergroup=trace-service},1651800293,724252
{consumergroup=trace-service},1651800298,724252
{consumergroup=trace-service},1651800303,724252
{consumergroup=trace-service},1651800308,298231
{consumergroup=trace-service},1651800313,298231
{consumergroup=trace-service},1651800318,298231
{consumergroup=trace-service},1651800323,613593
{consumergroup=trace-service},1651800328,613593
{consumergroup=trace-service},1651800333,613593
{consumergroup=trace-service},1651800338,371044
{consumergroup=trace-service},1651800343,371044
{consumergroup=trace-service},1651800348,371044
{consumergroup=trace-service},1651800353,671721
{consumergroup=trace-token-events-consumer},1651799948,0
{consumergroup=trace-token-events-consumer},1651799953,0
{consumergroup=trace-token-events-consumer},1651799958,0
{consumergroup=trace-token-events-consumer},1651799963,0
{consumergroup=trace-token-events-consumer},1651799968,0
{consumergroup=trace-token-events-consumer},1651799973,0
{consumergroup=trace-token-events-consumer},1651799978,0
{consumergroup=trace-token-events-consumer},1651799983,0
{consumergroup=trace-token-events-consumer},1651799988,0
{consumergroup=trace-token-events-consumer},1651799993,0
{consumergroup=trace-token-events-consumer},1651799998,0
{consumergroup=trace-token-events-consumer},1651800003,0
{consumergroup=trace-token-events-consumer},1651800008,0
{consumergroup=trace-token-events-consumer},1651800013,0
{consumergroup=trace-token-events-consumer},1651800018,0
{consumergroup=trace-token-events-consumer},1651800023,0
{consumergroup=trace-token-events-consumer},1651800028,0
{consumergroup=trace-token-events-consumer},1651800033,0
{consumergroup=trace-token-events-consumer},1651800038,0
{consumergroup=trace-token-events-consumer},1651800043,0
{consumergroup=trace-token-events-consumer},1651800048,0
{consumergroup=trace-token-events-consumer},1651800053,0
{consumergroup=trace-token-events-consumer},1651800058,0
{consumergroup=trace-token-events-consumer},1651800063,0
{consumergroup=trace-token-events-consumer},1651800068,0
{consumergroup=trace-token-events-consumer},1651800073,0
{consumergroup=trace-token-events-consumer},1651800078,0
{consumergroup=trace-token-events-consumer},1651800083,0
{consumergroup=trace-token-events-consumer},1651800088,0
{consumergroup=trace-token-events-consumer},1651800093,0
{consumergroup=trace-token-events-consumer},1651800098,0
{consumergroup=trace-token-events-consumer},1651800103,0
{consumergroup=trace-token-events-consumer},1651800108,0
{consumergroup=trace-token-events-consumer},1651800113,0
{consumergroup=trace-token-events-consumer},1651800118,0
{consumergroup=trace-token-events-consumer},1651800123,0
{consumergroup=trace-token-events-consumer},1651800128,0
{consumergroup=trace-token-events-consumer},1651800133,0
{consumergroup=trace-token-events-consumer},1651800138,0
{consumergroup=trace-token-events-consumer},1651800143,0
{consumergroup=trace-token-events-consumer},1651800148,0
{consumergroup=trace-token-events-consumer},1651800153,0
{consumergroup=trace-token-events-consumer},1651800158,0
{consumergroup=trace-token-events-consumer},1651800163,0
{consumergroup=trace-token-events-consumer},1651800168,0
{consumergroup=trace-token-events-consumer},1651800173,0
{consumergroup=trace-token-events-consumer},1651800178,0
{consumergroup=trace-token-events-consumer},1651800183,0
{consumergroup=trace-token-events-consumer},1651800188,0
{consumergroup=trace-token-events-consumer},1651800193,0
{consumergroup=trace-token-events-consumer},1651800198,0
{consumergroup=trace-token-events-consumer},1651800203,0
{consumergroup=trace-token-events-consumer},1651800208,0
{consumergroup=trace-token-events-consumer},1651800213,0
{consumergroup=trace-token-events-consumer},1651800218,0
{consumergroup=trace-token-events-consumer},1651800223,0
{consumergroup=trace-token-events-consumer},1651800228,0
{consumergroup=trace-token-events-consumer},1651800233,0
{consumergroup=trace-token-events-consumer},1651800238,0
{consumergroup=trace-token-events-consumer},1651800243,0
{consumergroup=trace-token-events-consumer},1651800248,0
{consumergroup=trace-token-events-consumer},1651800253,0
{consumergroup=trace-token-events-consumer},1651800258,0
{consumergroup=trace-token-events-consumer},1651800263,0
{consumergroup=trace-token-events-consumer},1651800268,0
{consumergroup=trace-token-events-consumer},1651800273,0
{consumergroup=trace-token-events-consumer},1651800278,0
{consumergroup=trace-token-events-consumer},1651800283,0
{consumergroup=trace-token-events-consumer},1651800288,0
{consumergroup=trace-token-events-consumer},1651800293,0
{consumergroup=trace-token-events-consumer},1651800298,0
{consumergroup=trace-token-events-consumer},1651800303,0
{consumergroup=trace-token-events-consumer},1651800308,0
{consumergroup=trace-token-events-consumer},1651800313,0
{consumergroup=trace-token-events-consumer},1651800318,0
{consumergroup=trace-token-events-consumer},1651800323,0
{consumergroup=trace-token-events-consumer},1651800328,0
{consumergroup=trace-token-events-consumer},1651800333,0
{consumergroup=trace-token-events-consumer},1651800338,0
{consumergroup=trace-token-events-consumer},1651800343,0
{consumergroup=trace-token-events-consumer},1651800348,0
{consumergroup=trace-token-events-consumer},1651800353,0
