labels,timestamp,value
{job=theodolite-stu200776/trace-isolated-podmonitor},1651770758,59.33098572310816
{job=theodolite-stu200776/trace-isolated-podmonitor},1651770763,170.29879600863956
{job=theodolite-stu200776/trace-isolated-podmonitor},1651770768,162.09199980531886
{job=theodolite-stu200776/trace-isolated-podmonitor},1651770773,139.57309916543005
{job=theodolite-stu200776/trace-isolated-podmonitor},1651770778,127.71107051441423
{job=theodolite-stu200776/trace-isolated-podmonitor},1651770783,114.06305794019782
{job=theodolite-stu200776/trace-isolated-podmonitor},1651770788,306.1168786075851
{job=theodolite-stu200776/trace-isolated-podmonitor},1651770793,626.7236097314727
{job=theodolite-stu200776/trace-isolated-podmonitor},1651770798,573.3109473264044
{job=theodolite-stu200776/trace-isolated-podmonitor},1651770803,490.3829098058949
{job=theodolite-stu200776/trace-isolated-podmonitor},1651770808,455.4665708299051
{job=theodolite-stu200776/trace-isolated-podmonitor},1651770813,399.550124289023
{job=theodolite-stu200776/trace-isolated-podmonitor},1651770818,313.3968566429065
{job=theodolite-stu200776/trace-isolated-podmonitor},1651770823,194.88222397601433
{job=theodolite-stu200776/trace-isolated-podmonitor},1651770828,181.63779271083035
{job=theodolite-stu200776/trace-isolated-podmonitor},1651770833,150.7359378537076
{job=theodolite-stu200776/trace-isolated-podmonitor},1651770838,141.5401306251517
{job=theodolite-stu200776/trace-isolated-podmonitor},1651770843,121.91576714672613
{job=theodolite-stu200776/trace-isolated-podmonitor},1651770848,87.85852496241837
{job=theodolite-stu200776/trace-isolated-podmonitor},1651770853,0.7242660383662436
{job=theodolite-stu200776/trace-isolated-podmonitor},1651770858,0.3880342074297908
{job=theodolite-stu200776/trace-isolated-podmonitor},1651770863,0
{job=theodolite-stu200776/trace-isolated-podmonitor},1651770868,0
{job=theodolite-stu200776/trace-isolated-podmonitor},1651770873,0
{job=theodolite-stu200776/trace-isolated-podmonitor},1651770878,0
{job=theodolite-stu200776/trace-isolated-podmonitor},1651770883,0
{job=theodolite-stu200776/trace-isolated-podmonitor},1651770888,0
{job=theodolite-stu200776/trace-isolated-podmonitor},1651770893,0
{job=theodolite-stu200776/trace-isolated-podmonitor},1651770898,0
{job=theodolite-stu200776/trace-isolated-podmonitor},1651770903,0
{job=theodolite-stu200776/trace-isolated-podmonitor},1651770908,0
{job=theodolite-stu200776/trace-isolated-podmonitor},1651770913,0
{job=theodolite-stu200776/trace-isolated-podmonitor},1651770918,0
{job=theodolite-stu200776/trace-isolated-podmonitor},1651770923,0
{job=theodolite-stu200776/trace-isolated-podmonitor},1651770928,0
{job=theodolite-stu200776/trace-isolated-podmonitor},1651770933,18.7989300632461
{job=theodolite-stu200776/trace-isolated-podmonitor},1651770938,22.813941372951827
{job=theodolite-stu200776/trace-isolated-podmonitor},1651770943,37.08372445633148
{job=theodolite-stu200776/trace-isolated-podmonitor},1651770948,79.57021021458321
{job=theodolite-stu200776/trace-isolated-podmonitor},1651770953,137.6733988472691
