labels,timestamp,value
{job=theodolite-stu200776/trace-isolated-podmonitor},1651498880,0
{job=theodolite-stu200776/trace-isolated-podmonitor},1651498885,0
{job=theodolite-stu200776/trace-isolated-podmonitor},1651498890,0
{job=theodolite-stu200776/trace-isolated-podmonitor},1651498895,0
{job=theodolite-stu200776/trace-isolated-podmonitor},1651498900,0
{job=theodolite-stu200776/trace-isolated-podmonitor},1651498905,0
{job=theodolite-stu200776/trace-isolated-podmonitor},1651498910,0
{job=theodolite-stu200776/trace-isolated-podmonitor},1651498915,0
{job=theodolite-stu200776/trace-isolated-podmonitor},1651498920,0
{job=theodolite-stu200776/trace-isolated-podmonitor},1651498925,0
{job=theodolite-stu200776/trace-isolated-podmonitor},1651498930,0
{job=theodolite-stu200776/trace-isolated-podmonitor},1651498935,0
{job=theodolite-stu200776/trace-isolated-podmonitor},1651498940,0
{job=theodolite-stu200776/trace-isolated-podmonitor},1651498945,0
{job=theodolite-stu200776/trace-isolated-podmonitor},1651498950,0
{job=theodolite-stu200776/trace-isolated-podmonitor},1651498955,0
{job=theodolite-stu200776/trace-isolated-podmonitor},1651498960,0
{job=theodolite-stu200776/trace-isolated-podmonitor},1651498965,0
{job=theodolite-stu200776/trace-isolated-podmonitor},1651498970,0
{job=theodolite-stu200776/trace-isolated-podmonitor},1651498975,0
{job=theodolite-stu200776/trace-isolated-podmonitor},1651498980,0
{job=theodolite-stu200776/trace-isolated-podmonitor},1651498985,0
{job=theodolite-stu200776/trace-isolated-podmonitor},1651498990,0
{job=theodolite-stu200776/trace-isolated-podmonitor},1651498995,0
{job=theodolite-stu200776/trace-isolated-podmonitor},1651499000,0
{job=theodolite-stu200776/trace-isolated-podmonitor},1651499005,0
{job=theodolite-stu200776/trace-isolated-podmonitor},1651499010,0
{job=theodolite-stu200776/trace-isolated-podmonitor},1651499015,0
{job=theodolite-stu200776/trace-isolated-podmonitor},1651499020,0
{job=theodolite-stu200776/trace-isolated-podmonitor},1651499025,0
{job=theodolite-stu200776/trace-isolated-podmonitor},1651499030,0
{job=theodolite-stu200776/trace-isolated-podmonitor},1651499035,0
{job=theodolite-stu200776/trace-isolated-podmonitor},1651499040,0
{job=theodolite-stu200776/trace-isolated-podmonitor},1651499045,0
{job=theodolite-stu200776/trace-isolated-podmonitor},1651499050,0
{job=theodolite-stu200776/trace-isolated-podmonitor},1651499055,0
{job=theodolite-stu200776/trace-isolated-podmonitor},1651499060,0
{job=theodolite-stu200776/trace-isolated-podmonitor},1651499065,0
{job=theodolite-stu200776/trace-isolated-podmonitor},1651499070,0
{job=theodolite-stu200776/trace-isolated-podmonitor},1651499075,0
{job=theodolite-stu200776/trace-isolated-podmonitor},1651499080,0
{job=theodolite-stu200776/trace-isolated-podmonitor},1651499085,0
{job=theodolite-stu200776/trace-isolated-podmonitor},1651499090,0
{job=theodolite-stu200776/trace-isolated-podmonitor},1651499095,0
{job=theodolite-stu200776/trace-isolated-podmonitor},1651499100,0
{job=theodolite-stu200776/trace-isolated-podmonitor},1651499105,0
{job=theodolite-stu200776/trace-isolated-podmonitor},1651499110,0
{job=theodolite-stu200776/trace-isolated-podmonitor},1651499115,0
{job=theodolite-stu200776/trace-isolated-podmonitor},1651499120,0
{job=theodolite-stu200776/trace-isolated-podmonitor},1651499125,0
{job=theodolite-stu200776/trace-isolated-podmonitor},1651499130,0
{job=theodolite-stu200776/trace-isolated-podmonitor},1651499135,0
{job=theodolite-stu200776/trace-isolated-podmonitor},1651499140,0
{job=theodolite-stu200776/trace-isolated-podmonitor},1651499145,0
{job=theodolite-stu200776/trace-isolated-podmonitor},1651499150,0
{job=theodolite-stu200776/trace-isolated-podmonitor},1651499155,0
{job=theodolite-stu200776/trace-isolated-podmonitor},1651499160,0
{job=theodolite-stu200776/trace-isolated-podmonitor},1651499165,0
{job=theodolite-stu200776/trace-isolated-podmonitor},1651499170,0
{job=theodolite-stu200776/trace-isolated-podmonitor},1651499175,0
{job=theodolite-stu200776/trace-isolated-podmonitor},1651499180,0
{job=theodolite-stu200776/trace-isolated-podmonitor},1651499185,0
{job=theodolite-stu200776/trace-isolated-podmonitor},1651499190,0
{job=theodolite-stu200776/trace-isolated-podmonitor},1651499195,0
{job=theodolite-stu200776/trace-isolated-podmonitor},1651499200,0
{job=theodolite-stu200776/trace-isolated-podmonitor},1651499205,0
{job=theodolite-stu200776/trace-isolated-podmonitor},1651499210,0
{job=theodolite-stu200776/trace-isolated-podmonitor},1651499215,0
{job=theodolite-stu200776/trace-isolated-podmonitor},1651499220,0
{job=theodolite-stu200776/trace-isolated-podmonitor},1651499225,0
{job=theodolite-stu200776/trace-isolated-podmonitor},1651499230,0
{job=theodolite-stu200776/trace-isolated-podmonitor},1651499235,0
{job=theodolite-stu200776/trace-isolated-podmonitor},1651499240,0
{job=theodolite-stu200776/trace-isolated-podmonitor},1651499245,0
{job=theodolite-stu200776/trace-isolated-podmonitor},1651499250,0
{job=theodolite-stu200776/trace-isolated-podmonitor},1651499255,0
