labels,timestamp,value
{consumergroup=__strimzi-topic-operator-kstreams},1651484482,3
{consumergroup=__strimzi-topic-operator-kstreams},1651484487,3
{consumergroup=__strimzi-topic-operator-kstreams},1651484492,3
{consumergroup=__strimzi-topic-operator-kstreams},1651484497,8
{consumergroup=__strimzi-topic-operator-kstreams},1651484502,8
{consumergroup=__strimzi-topic-operator-kstreams},1651484507,8
{consumergroup=__strimzi-topic-operator-kstreams},1651484512,0
{consumergroup=__strimzi-topic-operator-kstreams},1651484517,0
{consumergroup=__strimzi-topic-operator-kstreams},1651484522,0
{consumergroup=__strimzi-topic-operator-kstreams},1651484527,0
{consumergroup=__strimzi-topic-operator-kstreams},1651484532,0
{consumergroup=__strimzi-topic-operator-kstreams},1651484537,0
{consumergroup=__strimzi-topic-operator-kstreams},1651484542,0
{consumergroup=__strimzi-topic-operator-kstreams},1651484547,0
{consumergroup=__strimzi-topic-operator-kstreams},1651484552,0
{consumergroup=__strimzi-topic-operator-kstreams},1651484557,0
{consumergroup=__strimzi-topic-operator-kstreams},1651484562,0
{consumergroup=__strimzi-topic-operator-kstreams},1651484567,0
{consumergroup=__strimzi-topic-operator-kstreams},1651484572,0
{consumergroup=__strimzi-topic-operator-kstreams},1651484577,0
{consumergroup=__strimzi-topic-operator-kstreams},1651484582,0
{consumergroup=__strimzi-topic-operator-kstreams},1651484587,0
{consumergroup=__strimzi-topic-operator-kstreams},1651484592,0
{consumergroup=__strimzi-topic-operator-kstreams},1651484597,0
{consumergroup=__strimzi-topic-operator-kstreams},1651484602,0
{consumergroup=__strimzi-topic-operator-kstreams},1651484607,0
{consumergroup=__strimzi-topic-operator-kstreams},1651484612,0
{consumergroup=__strimzi-topic-operator-kstreams},1651484617,0
{consumergroup=__strimzi-topic-operator-kstreams},1651484622,0
{consumergroup=__strimzi-topic-operator-kstreams},1651484627,0
{consumergroup=__strimzi-topic-operator-kstreams},1651484632,0
{consumergroup=__strimzi-topic-operator-kstreams},1651484637,0
{consumergroup=__strimzi-topic-operator-kstreams},1651484642,0
{consumergroup=__strimzi-topic-operator-kstreams},1651484647,0
{consumergroup=__strimzi-topic-operator-kstreams},1651484652,0
{consumergroup=__strimzi-topic-operator-kstreams},1651484657,0
{consumergroup=__strimzi-topic-operator-kstreams},1651484662,0
{consumergroup=__strimzi-topic-operator-kstreams},1651484667,0
{consumergroup=__strimzi-topic-operator-kstreams},1651484672,0
{consumergroup=__strimzi-topic-operator-kstreams},1651484677,0
{consumergroup=__strimzi-topic-operator-kstreams},1651484682,0
{consumergroup=__strimzi-topic-operator-kstreams},1651484687,0
{consumergroup=__strimzi-topic-operator-kstreams},1651484692,0
{consumergroup=__strimzi-topic-operator-kstreams},1651484697,0
{consumergroup=__strimzi-topic-operator-kstreams},1651484702,0
{consumergroup=__strimzi-topic-operator-kstreams},1651484707,0
{consumergroup=__strimzi-topic-operator-kstreams},1651484712,0
{consumergroup=__strimzi-topic-operator-kstreams},1651484717,0
{consumergroup=__strimzi-topic-operator-kstreams},1651484722,0
{consumergroup=__strimzi-topic-operator-kstreams},1651484727,0
{consumergroup=__strimzi-topic-operator-kstreams},1651484732,0
{consumergroup=__strimzi-topic-operator-kstreams},1651484737,0
{consumergroup=__strimzi-topic-operator-kstreams},1651484742,0
{consumergroup=__strimzi-topic-operator-kstreams},1651484747,0
{consumergroup=__strimzi-topic-operator-kstreams},1651484752,0
{consumergroup=__strimzi-topic-operator-kstreams},1651484757,0
{consumergroup=__strimzi-topic-operator-kstreams},1651484762,0
{consumergroup=__strimzi-topic-operator-kstreams},1651484767,0
{consumergroup=__strimzi-topic-operator-kstreams},1651484772,0
{consumergroup=__strimzi-topic-operator-kstreams},1651484777,0
{consumergroup=__strimzi-topic-operator-kstreams},1651484782,0
{consumergroup=__strimzi-topic-operator-kstreams},1651484787,0
{consumergroup=__strimzi-topic-operator-kstreams},1651484792,0
{consumergroup=__strimzi-topic-operator-kstreams},1651484797,0
{consumergroup=__strimzi-topic-operator-kstreams},1651484802,0
{consumergroup=__strimzi-topic-operator-kstreams},1651484807,0
{consumergroup=__strimzi-topic-operator-kstreams},1651484812,0
{consumergroup=__strimzi-topic-operator-kstreams},1651484817,0
{consumergroup=__strimzi-topic-operator-kstreams},1651484822,0
{consumergroup=__strimzi-topic-operator-kstreams},1651484827,0
{consumergroup=__strimzi-topic-operator-kstreams},1651484832,0
{consumergroup=__strimzi-topic-operator-kstreams},1651484837,0
{consumergroup=__strimzi-topic-operator-kstreams},1651484842,0
{consumergroup=__strimzi-topic-operator-kstreams},1651484847,0
{consumergroup=__strimzi-topic-operator-kstreams},1651484852,0
{consumergroup=__strimzi-topic-operator-kstreams},1651484857,0
{consumergroup=__strimzi-topic-operator-kstreams},1651484862,0
{consumergroup=__strimzi-topic-operator-kstreams},1651484867,0
{consumergroup=__strimzi-topic-operator-kstreams},1651484872,0
{consumergroup=__strimzi-topic-operator-kstreams},1651484877,0
{consumergroup=__strimzi-topic-operator-kstreams},1651484882,0
{consumergroup=__strimzi-topic-operator-kstreams},1651484887,0
{consumergroup=__strimzi-topic-operator-kstreams},1651484892,0
{consumergroup=__strimzi-topic-operator-kstreams},1651484897,0
{consumergroup=__strimzi-topic-operator-kstreams},1651484902,0
{consumergroup=__strimzi-topic-operator-kstreams},1651484907,0
{consumergroup=__strimzi-topic-operator-kstreams},1651484912,0
{consumergroup=__strimzi-topic-operator-kstreams},1651484917,0
{consumergroup=__strimzi-topic-operator-kstreams},1651484922,0
{consumergroup=__strimzi-topic-operator-kstreams},1651484927,0
{consumergroup=trace-service},1651484527,4041
{consumergroup=trace-service},1651484532,4041
{consumergroup=trace-service},1651484537,4041
{consumergroup=trace-service},1651484542,36177
{consumergroup=trace-service},1651484547,36177
{consumergroup=trace-service},1651484552,36177
{consumergroup=trace-service},1651484557,41801
{consumergroup=trace-service},1651484562,41801
{consumergroup=trace-service},1651484567,41801
{consumergroup=trace-service},1651484572,78717
{consumergroup=trace-service},1651484577,78717
{consumergroup=trace-service},1651484582,78717
{consumergroup=trace-service},1651484587,94111
{consumergroup=trace-service},1651484592,94111
{consumergroup=trace-service},1651484597,94111
{consumergroup=trace-service},1651484602,58888
{consumergroup=trace-service},1651484607,58888
{consumergroup=trace-service},1651484612,58888
{consumergroup=trace-service},1651484617,37677
{consumergroup=trace-service},1651484622,37677
{consumergroup=trace-service},1651484627,37677
{consumergroup=trace-service},1651484632,68294
{consumergroup=trace-service},1651484637,68294
{consumergroup=trace-service},1651484642,68294
{consumergroup=trace-service},1651484647,28268
{consumergroup=trace-service},1651484652,28268
{consumergroup=trace-service},1651484657,28268
{consumergroup=trace-service},1651484662,51318
{consumergroup=trace-service},1651484667,51318
{consumergroup=trace-service},1651484672,51318
{consumergroup=trace-service},1651484677,34240
{consumergroup=trace-service},1651484682,34240
{consumergroup=trace-service},1651484687,34240
{consumergroup=trace-service},1651484692,64905
{consumergroup=trace-service},1651484697,64905
{consumergroup=trace-service},1651484702,64905
{consumergroup=trace-service},1651484707,36590
{consumergroup=trace-service},1651484712,36590
{consumergroup=trace-service},1651484717,36590
{consumergroup=trace-service},1651484722,55316
{consumergroup=trace-service},1651484727,55316
{consumergroup=trace-service},1651484732,55316
{consumergroup=trace-service},1651484737,75139
{consumergroup=trace-service},1651484742,75139
{consumergroup=trace-service},1651484747,75139
{consumergroup=trace-service},1651484752,95835
{consumergroup=trace-service},1651484757,95835
{consumergroup=trace-service},1651484762,95835
{consumergroup=trace-service},1651484767,31474
{consumergroup=trace-service},1651484772,31474
{consumergroup=trace-service},1651484777,31474
{consumergroup=trace-service},1651484782,64591
{consumergroup=trace-service},1651484787,64591
{consumergroup=trace-service},1651484792,64591
{consumergroup=trace-service},1651484797,35908
{consumergroup=trace-service},1651484802,35908
{consumergroup=trace-service},1651484807,35908
{consumergroup=trace-service},1651484812,56297
{consumergroup=trace-service},1651484817,56297
{consumergroup=trace-service},1651484822,56297
{consumergroup=trace-service},1651484827,85472
{consumergroup=trace-service},1651484832,85472
{consumergroup=trace-service},1651484837,85472
{consumergroup=trace-service},1651484842,99242
{consumergroup=trace-service},1651484847,99242
{consumergroup=trace-service},1651484852,99242
{consumergroup=trace-service},1651484857,37957
{consumergroup=trace-service},1651484862,37957
{consumergroup=trace-service},1651484867,37957
{consumergroup=trace-service},1651484872,70066
{consumergroup=trace-service},1651484877,70066
{consumergroup=trace-service},1651484882,70066
{consumergroup=trace-service},1651484887,39469
{consumergroup=trace-service},1651484892,39469
{consumergroup=trace-service},1651484897,39469
{consumergroup=trace-service},1651484902,86839
{consumergroup=trace-service},1651484907,86839
{consumergroup=trace-service},1651484912,86839
{consumergroup=trace-service},1651484917,35697
{consumergroup=trace-service},1651484922,35697
{consumergroup=trace-service},1651484927,35697
{consumergroup=trace-token-events-consumer},1651484512,0
{consumergroup=trace-token-events-consumer},1651484517,0
{consumergroup=trace-token-events-consumer},1651484522,0
{consumergroup=trace-token-events-consumer},1651484527,0
{consumergroup=trace-token-events-consumer},1651484532,0
{consumergroup=trace-token-events-consumer},1651484537,0
{consumergroup=trace-token-events-consumer},1651484542,0
{consumergroup=trace-token-events-consumer},1651484547,0
{consumergroup=trace-token-events-consumer},1651484552,0
{consumergroup=trace-token-events-consumer},1651484557,0
{consumergroup=trace-token-events-consumer},1651484562,0
{consumergroup=trace-token-events-consumer},1651484567,0
{consumergroup=trace-token-events-consumer},1651484572,0
{consumergroup=trace-token-events-consumer},1651484577,0
{consumergroup=trace-token-events-consumer},1651484582,0
{consumergroup=trace-token-events-consumer},1651484587,0
{consumergroup=trace-token-events-consumer},1651484592,0
{consumergroup=trace-token-events-consumer},1651484597,0
{consumergroup=trace-token-events-consumer},1651484602,0
{consumergroup=trace-token-events-consumer},1651484607,0
{consumergroup=trace-token-events-consumer},1651484612,0
{consumergroup=trace-token-events-consumer},1651484617,0
{consumergroup=trace-token-events-consumer},1651484622,0
{consumergroup=trace-token-events-consumer},1651484627,0
{consumergroup=trace-token-events-consumer},1651484632,0
{consumergroup=trace-token-events-consumer},1651484637,0
{consumergroup=trace-token-events-consumer},1651484642,0
{consumergroup=trace-token-events-consumer},1651484647,0
{consumergroup=trace-token-events-consumer},1651484652,0
{consumergroup=trace-token-events-consumer},1651484657,0
{consumergroup=trace-token-events-consumer},1651484662,0
{consumergroup=trace-token-events-consumer},1651484667,0
{consumergroup=trace-token-events-consumer},1651484672,0
{consumergroup=trace-token-events-consumer},1651484677,0
{consumergroup=trace-token-events-consumer},1651484682,0
{consumergroup=trace-token-events-consumer},1651484687,0
{consumergroup=trace-token-events-consumer},1651484692,0
{consumergroup=trace-token-events-consumer},1651484697,0
{consumergroup=trace-token-events-consumer},1651484702,0
{consumergroup=trace-token-events-consumer},1651484707,0
{consumergroup=trace-token-events-consumer},1651484712,0
{consumergroup=trace-token-events-consumer},1651484717,0
{consumergroup=trace-token-events-consumer},1651484722,0
{consumergroup=trace-token-events-consumer},1651484727,0
{consumergroup=trace-token-events-consumer},1651484732,0
{consumergroup=trace-token-events-consumer},1651484737,0
{consumergroup=trace-token-events-consumer},1651484742,0
{consumergroup=trace-token-events-consumer},1651484747,0
{consumergroup=trace-token-events-consumer},1651484752,0
{consumergroup=trace-token-events-consumer},1651484757,0
{consumergroup=trace-token-events-consumer},1651484762,0
{consumergroup=trace-token-events-consumer},1651484767,0
{consumergroup=trace-token-events-consumer},1651484772,0
{consumergroup=trace-token-events-consumer},1651484777,0
{consumergroup=trace-token-events-consumer},1651484782,0
{consumergroup=trace-token-events-consumer},1651484787,0
{consumergroup=trace-token-events-consumer},1651484792,0
{consumergroup=trace-token-events-consumer},1651484797,0
{consumergroup=trace-token-events-consumer},1651484802,0
{consumergroup=trace-token-events-consumer},1651484807,0
{consumergroup=trace-token-events-consumer},1651484812,0
{consumergroup=trace-token-events-consumer},1651484817,0
{consumergroup=trace-token-events-consumer},1651484822,0
{consumergroup=trace-token-events-consumer},1651484827,0
{consumergroup=trace-token-events-consumer},1651484832,0
{consumergroup=trace-token-events-consumer},1651484837,0
{consumergroup=trace-token-events-consumer},1651484842,0
{consumergroup=trace-token-events-consumer},1651484847,0
{consumergroup=trace-token-events-consumer},1651484852,0
{consumergroup=trace-token-events-consumer},1651484857,0
{consumergroup=trace-token-events-consumer},1651484862,0
{consumergroup=trace-token-events-consumer},1651484867,0
{consumergroup=trace-token-events-consumer},1651484872,0
{consumergroup=trace-token-events-consumer},1651484877,0
{consumergroup=trace-token-events-consumer},1651484882,0
{consumergroup=trace-token-events-consumer},1651484887,0
{consumergroup=trace-token-events-consumer},1651484892,0
{consumergroup=trace-token-events-consumer},1651484897,0
{consumergroup=trace-token-events-consumer},1651484902,0
{consumergroup=trace-token-events-consumer},1651484907,0
{consumergroup=trace-token-events-consumer},1651484912,0
{consumergroup=trace-token-events-consumer},1651484917,0
{consumergroup=trace-token-events-consumer},1651484922,0
{consumergroup=trace-token-events-consumer},1651484927,0
