labels,timestamp,value
{job=theodolite-stu200776/trace-isolated-podmonitor},1651507564,0
{job=theodolite-stu200776/trace-isolated-podmonitor},1651507569,0
{job=theodolite-stu200776/trace-isolated-podmonitor},1651507574,0
{job=theodolite-stu200776/trace-isolated-podmonitor},1651507579,0
{job=theodolite-stu200776/trace-isolated-podmonitor},1651507584,0
{job=theodolite-stu200776/trace-isolated-podmonitor},1651507589,0
{job=theodolite-stu200776/trace-isolated-podmonitor},1651507594,0
{job=theodolite-stu200776/trace-isolated-podmonitor},1651507599,0
{job=theodolite-stu200776/trace-isolated-podmonitor},1651507604,0
{job=theodolite-stu200776/trace-isolated-podmonitor},1651507609,0
{job=theodolite-stu200776/trace-isolated-podmonitor},1651507614,0
{job=theodolite-stu200776/trace-isolated-podmonitor},1651507619,0
{job=theodolite-stu200776/trace-isolated-podmonitor},1651507624,0
{job=theodolite-stu200776/trace-isolated-podmonitor},1651507629,0
{job=theodolite-stu200776/trace-isolated-podmonitor},1651507634,0
{job=theodolite-stu200776/trace-isolated-podmonitor},1651507639,0
{job=theodolite-stu200776/trace-isolated-podmonitor},1651507644,0
{job=theodolite-stu200776/trace-isolated-podmonitor},1651507649,0
{job=theodolite-stu200776/trace-isolated-podmonitor},1651507654,0
{job=theodolite-stu200776/trace-isolated-podmonitor},1651507659,0
{job=theodolite-stu200776/trace-isolated-podmonitor},1651507664,0
{job=theodolite-stu200776/trace-isolated-podmonitor},1651507669,0
{job=theodolite-stu200776/trace-isolated-podmonitor},1651507674,0
{job=theodolite-stu200776/trace-isolated-podmonitor},1651507679,0
{job=theodolite-stu200776/trace-isolated-podmonitor},1651507684,0
{job=theodolite-stu200776/trace-isolated-podmonitor},1651507689,0
{job=theodolite-stu200776/trace-isolated-podmonitor},1651507694,0
{job=theodolite-stu200776/trace-isolated-podmonitor},1651507699,0
{job=theodolite-stu200776/trace-isolated-podmonitor},1651507704,0
{job=theodolite-stu200776/trace-isolated-podmonitor},1651507709,0
{job=theodolite-stu200776/trace-isolated-podmonitor},1651507714,0
{job=theodolite-stu200776/trace-isolated-podmonitor},1651507719,0
{job=theodolite-stu200776/trace-isolated-podmonitor},1651507724,0
{job=theodolite-stu200776/trace-isolated-podmonitor},1651507729,0
{job=theodolite-stu200776/trace-isolated-podmonitor},1651507734,0
{job=theodolite-stu200776/trace-isolated-podmonitor},1651507739,0
{job=theodolite-stu200776/trace-isolated-podmonitor},1651507744,0
{job=theodolite-stu200776/trace-isolated-podmonitor},1651507749,0
{job=theodolite-stu200776/trace-isolated-podmonitor},1651507754,0
{job=theodolite-stu200776/trace-isolated-podmonitor},1651507759,0
{job=theodolite-stu200776/trace-isolated-podmonitor},1651507764,0
{job=theodolite-stu200776/trace-isolated-podmonitor},1651507769,0
{job=theodolite-stu200776/trace-isolated-podmonitor},1651507774,0
{job=theodolite-stu200776/trace-isolated-podmonitor},1651507779,0
{job=theodolite-stu200776/trace-isolated-podmonitor},1651507784,0
{job=theodolite-stu200776/trace-isolated-podmonitor},1651507789,0
{job=theodolite-stu200776/trace-isolated-podmonitor},1651507794,0
{job=theodolite-stu200776/trace-isolated-podmonitor},1651507799,0
{job=theodolite-stu200776/trace-isolated-podmonitor},1651507804,0
{job=theodolite-stu200776/trace-isolated-podmonitor},1651507809,0
{job=theodolite-stu200776/trace-isolated-podmonitor},1651507814,0
{job=theodolite-stu200776/trace-isolated-podmonitor},1651507819,0
{job=theodolite-stu200776/trace-isolated-podmonitor},1651507824,0
{job=theodolite-stu200776/trace-isolated-podmonitor},1651507829,0
{job=theodolite-stu200776/trace-isolated-podmonitor},1651507834,0
{job=theodolite-stu200776/trace-isolated-podmonitor},1651507839,0
{job=theodolite-stu200776/trace-isolated-podmonitor},1651507844,0
{job=theodolite-stu200776/trace-isolated-podmonitor},1651507849,0
{job=theodolite-stu200776/trace-isolated-podmonitor},1651507854,0
{job=theodolite-stu200776/trace-isolated-podmonitor},1651507859,0
{job=theodolite-stu200776/trace-isolated-podmonitor},1651507864,0
{job=theodolite-stu200776/trace-isolated-podmonitor},1651507869,0
{job=theodolite-stu200776/trace-isolated-podmonitor},1651507874,0
{job=theodolite-stu200776/trace-isolated-podmonitor},1651507879,0
{job=theodolite-stu200776/trace-isolated-podmonitor},1651507884,0
{job=theodolite-stu200776/trace-isolated-podmonitor},1651507889,0
{job=theodolite-stu200776/trace-isolated-podmonitor},1651507894,0
{job=theodolite-stu200776/trace-isolated-podmonitor},1651507899,0
{job=theodolite-stu200776/trace-isolated-podmonitor},1651507904,0
{job=theodolite-stu200776/trace-isolated-podmonitor},1651507909,0
{job=theodolite-stu200776/trace-isolated-podmonitor},1651507914,0
{job=theodolite-stu200776/trace-isolated-podmonitor},1651507919,0
{job=theodolite-stu200776/trace-isolated-podmonitor},1651507924,0
{job=theodolite-stu200776/trace-isolated-podmonitor},1651507929,0
{job=theodolite-stu200776/trace-isolated-podmonitor},1651507934,0
{job=theodolite-stu200776/trace-isolated-podmonitor},1651507939,0
