labels,timestamp,value
{consumergroup=__strimzi-topic-operator-kstreams},1651491077,4
{consumergroup=__strimzi-topic-operator-kstreams},1651491082,4
{consumergroup=__strimzi-topic-operator-kstreams},1651491087,4
{consumergroup=__strimzi-topic-operator-kstreams},1651491092,6
{consumergroup=__strimzi-topic-operator-kstreams},1651491097,6
{consumergroup=__strimzi-topic-operator-kstreams},1651491102,6
{consumergroup=__strimzi-topic-operator-kstreams},1651491107,0
{consumergroup=__strimzi-topic-operator-kstreams},1651491112,0
{consumergroup=__strimzi-topic-operator-kstreams},1651491117,0
{consumergroup=__strimzi-topic-operator-kstreams},1651491122,0
{consumergroup=__strimzi-topic-operator-kstreams},1651491127,0
{consumergroup=__strimzi-topic-operator-kstreams},1651491132,0
{consumergroup=__strimzi-topic-operator-kstreams},1651491137,0
{consumergroup=__strimzi-topic-operator-kstreams},1651491142,0
{consumergroup=__strimzi-topic-operator-kstreams},1651491147,0
{consumergroup=__strimzi-topic-operator-kstreams},1651491152,0
{consumergroup=__strimzi-topic-operator-kstreams},1651491157,0
{consumergroup=__strimzi-topic-operator-kstreams},1651491162,0
{consumergroup=__strimzi-topic-operator-kstreams},1651491167,0
{consumergroup=__strimzi-topic-operator-kstreams},1651491172,0
{consumergroup=__strimzi-topic-operator-kstreams},1651491177,0
{consumergroup=__strimzi-topic-operator-kstreams},1651491182,0
{consumergroup=__strimzi-topic-operator-kstreams},1651491187,0
{consumergroup=__strimzi-topic-operator-kstreams},1651491192,0
{consumergroup=__strimzi-topic-operator-kstreams},1651491197,0
{consumergroup=__strimzi-topic-operator-kstreams},1651491202,0
{consumergroup=__strimzi-topic-operator-kstreams},1651491207,0
{consumergroup=__strimzi-topic-operator-kstreams},1651491212,0
{consumergroup=__strimzi-topic-operator-kstreams},1651491217,0
{consumergroup=__strimzi-topic-operator-kstreams},1651491222,0
{consumergroup=__strimzi-topic-operator-kstreams},1651491227,0
{consumergroup=__strimzi-topic-operator-kstreams},1651491232,0
{consumergroup=__strimzi-topic-operator-kstreams},1651491237,0
{consumergroup=__strimzi-topic-operator-kstreams},1651491242,0
{consumergroup=__strimzi-topic-operator-kstreams},1651491247,0
{consumergroup=__strimzi-topic-operator-kstreams},1651491252,0
{consumergroup=__strimzi-topic-operator-kstreams},1651491257,0
{consumergroup=__strimzi-topic-operator-kstreams},1651491262,0
{consumergroup=__strimzi-topic-operator-kstreams},1651491267,0
{consumergroup=__strimzi-topic-operator-kstreams},1651491272,0
{consumergroup=__strimzi-topic-operator-kstreams},1651491277,0
{consumergroup=__strimzi-topic-operator-kstreams},1651491282,0
{consumergroup=__strimzi-topic-operator-kstreams},1651491287,0
{consumergroup=__strimzi-topic-operator-kstreams},1651491292,0
{consumergroup=__strimzi-topic-operator-kstreams},1651491297,0
{consumergroup=__strimzi-topic-operator-kstreams},1651491302,0
{consumergroup=__strimzi-topic-operator-kstreams},1651491307,0
{consumergroup=__strimzi-topic-operator-kstreams},1651491312,0
{consumergroup=__strimzi-topic-operator-kstreams},1651491317,0
{consumergroup=__strimzi-topic-operator-kstreams},1651491322,0
{consumergroup=__strimzi-topic-operator-kstreams},1651491327,0
{consumergroup=__strimzi-topic-operator-kstreams},1651491332,0
{consumergroup=__strimzi-topic-operator-kstreams},1651491337,0
{consumergroup=__strimzi-topic-operator-kstreams},1651491342,0
{consumergroup=__strimzi-topic-operator-kstreams},1651491347,0
{consumergroup=__strimzi-topic-operator-kstreams},1651491352,0
{consumergroup=__strimzi-topic-operator-kstreams},1651491357,0
{consumergroup=__strimzi-topic-operator-kstreams},1651491362,0
{consumergroup=__strimzi-topic-operator-kstreams},1651491367,0
{consumergroup=__strimzi-topic-operator-kstreams},1651491372,0
{consumergroup=__strimzi-topic-operator-kstreams},1651491377,0
{consumergroup=__strimzi-topic-operator-kstreams},1651491382,0
{consumergroup=__strimzi-topic-operator-kstreams},1651491387,0
{consumergroup=__strimzi-topic-operator-kstreams},1651491392,0
{consumergroup=__strimzi-topic-operator-kstreams},1651491397,0
{consumergroup=__strimzi-topic-operator-kstreams},1651491402,0
{consumergroup=__strimzi-topic-operator-kstreams},1651491407,0
{consumergroup=__strimzi-topic-operator-kstreams},1651491412,0
{consumergroup=__strimzi-topic-operator-kstreams},1651491417,0
{consumergroup=__strimzi-topic-operator-kstreams},1651491422,0
{consumergroup=__strimzi-topic-operator-kstreams},1651491427,0
{consumergroup=__strimzi-topic-operator-kstreams},1651491432,0
{consumergroup=__strimzi-topic-operator-kstreams},1651491437,0
{consumergroup=__strimzi-topic-operator-kstreams},1651491442,0
{consumergroup=__strimzi-topic-operator-kstreams},1651491447,0
{consumergroup=__strimzi-topic-operator-kstreams},1651491452,0
{consumergroup=__strimzi-topic-operator-kstreams},1651491457,0
{consumergroup=__strimzi-topic-operator-kstreams},1651491462,0
{consumergroup=__strimzi-topic-operator-kstreams},1651491467,0
{consumergroup=__strimzi-topic-operator-kstreams},1651491472,0
{consumergroup=__strimzi-topic-operator-kstreams},1651491477,0
{consumergroup=__strimzi-topic-operator-kstreams},1651491482,0
{consumergroup=__strimzi-topic-operator-kstreams},1651491487,0
{consumergroup=__strimzi-topic-operator-kstreams},1651491492,0
{consumergroup=__strimzi-topic-operator-kstreams},1651491497,0
{consumergroup=__strimzi-topic-operator-kstreams},1651491502,0
{consumergroup=__strimzi-topic-operator-kstreams},1651491507,0
{consumergroup=__strimzi-topic-operator-kstreams},1651491512,0
{consumergroup=trace-service},1651491107,29
{consumergroup=trace-service},1651491112,29
{consumergroup=trace-service},1651491117,29
{consumergroup=trace-service},1651491122,5466
{consumergroup=trace-service},1651491127,5466
{consumergroup=trace-service},1651491132,5466
{consumergroup=trace-service},1651491137,57976
{consumergroup=trace-service},1651491142,57976
{consumergroup=trace-service},1651491147,57976
{consumergroup=trace-service},1651491152,10349
{consumergroup=trace-service},1651491157,10349
{consumergroup=trace-service},1651491162,10349
{consumergroup=trace-service},1651491167,51562
{consumergroup=trace-service},1651491172,51562
{consumergroup=trace-service},1651491177,51562
{consumergroup=trace-service},1651491182,10733
{consumergroup=trace-service},1651491187,10733
{consumergroup=trace-service},1651491192,10733
{consumergroup=trace-service},1651491197,59113
{consumergroup=trace-service},1651491202,59113
{consumergroup=trace-service},1651491207,59113
{consumergroup=trace-service},1651491212,17725
{consumergroup=trace-service},1651491217,17725
{consumergroup=trace-service},1651491222,17725
{consumergroup=trace-service},1651491227,57066
{consumergroup=trace-service},1651491232,57066
{consumergroup=trace-service},1651491237,57066
{consumergroup=trace-service},1651491242,23600
{consumergroup=trace-service},1651491247,23600
{consumergroup=trace-service},1651491252,23600
{consumergroup=trace-service},1651491257,63804
{consumergroup=trace-service},1651491262,63804
{consumergroup=trace-service},1651491267,63804
{consumergroup=trace-service},1651491272,15607
{consumergroup=trace-service},1651491277,15607
{consumergroup=trace-service},1651491282,15607
{consumergroup=trace-service},1651491287,68801
{consumergroup=trace-service},1651491292,68801
{consumergroup=trace-service},1651491297,68801
{consumergroup=trace-service},1651491302,16376
{consumergroup=trace-service},1651491307,16376
{consumergroup=trace-service},1651491312,16376
{consumergroup=trace-service},1651491317,59020
{consumergroup=trace-service},1651491322,59020
{consumergroup=trace-service},1651491327,59020
{consumergroup=trace-service},1651491332,12141
{consumergroup=trace-service},1651491337,12141
{consumergroup=trace-service},1651491342,12141
{consumergroup=trace-service},1651491347,45553
{consumergroup=trace-service},1651491352,45553
{consumergroup=trace-service},1651491357,45553
{consumergroup=trace-service},1651491362,17425
{consumergroup=trace-service},1651491367,17425
{consumergroup=trace-service},1651491372,17425
{consumergroup=trace-service},1651491377,71013
{consumergroup=trace-service},1651491382,71013
{consumergroup=trace-service},1651491387,71013
{consumergroup=trace-service},1651491392,12826
{consumergroup=trace-service},1651491397,12826
{consumergroup=trace-service},1651491402,12826
{consumergroup=trace-service},1651491407,72092
{consumergroup=trace-service},1651491412,72092
{consumergroup=trace-service},1651491417,72092
{consumergroup=trace-service},1651491422,14158
{consumergroup=trace-service},1651491427,14158
{consumergroup=trace-service},1651491432,14158
{consumergroup=trace-service},1651491437,61554
{consumergroup=trace-service},1651491442,61554
{consumergroup=trace-service},1651491447,61554
{consumergroup=trace-service},1651491452,20315
{consumergroup=trace-service},1651491457,20315
{consumergroup=trace-service},1651491462,20315
{consumergroup=trace-service},1651491467,67948
{consumergroup=trace-service},1651491472,67948
{consumergroup=trace-service},1651491477,67948
{consumergroup=trace-service},1651491482,12520
{consumergroup=trace-service},1651491487,12520
{consumergroup=trace-service},1651491492,12520
{consumergroup=trace-service},1651491497,63217
{consumergroup=trace-service},1651491502,63217
{consumergroup=trace-service},1651491507,63217
{consumergroup=trace-service},1651491512,14229
{consumergroup=trace-token-events-consumer},1651491107,0
{consumergroup=trace-token-events-consumer},1651491112,0
{consumergroup=trace-token-events-consumer},1651491117,0
{consumergroup=trace-token-events-consumer},1651491122,0
{consumergroup=trace-token-events-consumer},1651491127,0
{consumergroup=trace-token-events-consumer},1651491132,0
{consumergroup=trace-token-events-consumer},1651491137,0
{consumergroup=trace-token-events-consumer},1651491142,0
{consumergroup=trace-token-events-consumer},1651491147,0
{consumergroup=trace-token-events-consumer},1651491152,0
{consumergroup=trace-token-events-consumer},1651491157,0
{consumergroup=trace-token-events-consumer},1651491162,0
{consumergroup=trace-token-events-consumer},1651491167,0
{consumergroup=trace-token-events-consumer},1651491172,0
{consumergroup=trace-token-events-consumer},1651491177,0
{consumergroup=trace-token-events-consumer},1651491182,0
{consumergroup=trace-token-events-consumer},1651491187,0
{consumergroup=trace-token-events-consumer},1651491192,0
{consumergroup=trace-token-events-consumer},1651491197,0
{consumergroup=trace-token-events-consumer},1651491202,0
{consumergroup=trace-token-events-consumer},1651491207,0
{consumergroup=trace-token-events-consumer},1651491212,0
{consumergroup=trace-token-events-consumer},1651491217,0
{consumergroup=trace-token-events-consumer},1651491222,0
{consumergroup=trace-token-events-consumer},1651491227,0
{consumergroup=trace-token-events-consumer},1651491232,0
{consumergroup=trace-token-events-consumer},1651491237,0
{consumergroup=trace-token-events-consumer},1651491242,0
{consumergroup=trace-token-events-consumer},1651491247,0
{consumergroup=trace-token-events-consumer},1651491252,0
{consumergroup=trace-token-events-consumer},1651491257,0
{consumergroup=trace-token-events-consumer},1651491262,0
{consumergroup=trace-token-events-consumer},1651491267,0
{consumergroup=trace-token-events-consumer},1651491272,0
{consumergroup=trace-token-events-consumer},1651491277,0
{consumergroup=trace-token-events-consumer},1651491282,0
{consumergroup=trace-token-events-consumer},1651491287,0
{consumergroup=trace-token-events-consumer},1651491292,0
{consumergroup=trace-token-events-consumer},1651491297,0
{consumergroup=trace-token-events-consumer},1651491302,0
{consumergroup=trace-token-events-consumer},1651491307,0
{consumergroup=trace-token-events-consumer},1651491312,0
{consumergroup=trace-token-events-consumer},1651491317,0
{consumergroup=trace-token-events-consumer},1651491322,0
{consumergroup=trace-token-events-consumer},1651491327,0
{consumergroup=trace-token-events-consumer},1651491332,0
{consumergroup=trace-token-events-consumer},1651491337,0
{consumergroup=trace-token-events-consumer},1651491342,0
{consumergroup=trace-token-events-consumer},1651491347,0
{consumergroup=trace-token-events-consumer},1651491352,0
{consumergroup=trace-token-events-consumer},1651491357,0
{consumergroup=trace-token-events-consumer},1651491362,0
{consumergroup=trace-token-events-consumer},1651491367,0
{consumergroup=trace-token-events-consumer},1651491372,0
{consumergroup=trace-token-events-consumer},1651491377,0
{consumergroup=trace-token-events-consumer},1651491382,0
{consumergroup=trace-token-events-consumer},1651491387,0
{consumergroup=trace-token-events-consumer},1651491392,0
{consumergroup=trace-token-events-consumer},1651491397,0
{consumergroup=trace-token-events-consumer},1651491402,0
{consumergroup=trace-token-events-consumer},1651491407,0
{consumergroup=trace-token-events-consumer},1651491412,0
{consumergroup=trace-token-events-consumer},1651491417,0
{consumergroup=trace-token-events-consumer},1651491422,0
{consumergroup=trace-token-events-consumer},1651491427,0
{consumergroup=trace-token-events-consumer},1651491432,0
{consumergroup=trace-token-events-consumer},1651491437,0
{consumergroup=trace-token-events-consumer},1651491442,0
{consumergroup=trace-token-events-consumer},1651491447,0
{consumergroup=trace-token-events-consumer},1651491452,0
{consumergroup=trace-token-events-consumer},1651491457,0
{consumergroup=trace-token-events-consumer},1651491462,0
{consumergroup=trace-token-events-consumer},1651491467,0
{consumergroup=trace-token-events-consumer},1651491472,0
{consumergroup=trace-token-events-consumer},1651491477,0
{consumergroup=trace-token-events-consumer},1651491482,0
{consumergroup=trace-token-events-consumer},1651491487,0
{consumergroup=trace-token-events-consumer},1651491492,0
{consumergroup=trace-token-events-consumer},1651491497,0
{consumergroup=trace-token-events-consumer},1651491502,0
{consumergroup=trace-token-events-consumer},1651491507,0
{consumergroup=trace-token-events-consumer},1651491512,0
