labels,timestamp,value
{consumergroup=__strimzi-topic-operator-kstreams},1651516244,0
{consumergroup=__strimzi-topic-operator-kstreams},1651516249,0
{consumergroup=__strimzi-topic-operator-kstreams},1651516254,0
{consumergroup=__strimzi-topic-operator-kstreams},1651516259,0
{consumergroup=__strimzi-topic-operator-kstreams},1651516264,0
{consumergroup=__strimzi-topic-operator-kstreams},1651516269,0
{consumergroup=__strimzi-topic-operator-kstreams},1651516274,0
{consumergroup=__strimzi-topic-operator-kstreams},1651516279,0
{consumergroup=__strimzi-topic-operator-kstreams},1651516284,0
{consumergroup=__strimzi-topic-operator-kstreams},1651516289,0
{consumergroup=__strimzi-topic-operator-kstreams},1651516294,0
{consumergroup=__strimzi-topic-operator-kstreams},1651516299,0
{consumergroup=__strimzi-topic-operator-kstreams},1651516304,0
{consumergroup=__strimzi-topic-operator-kstreams},1651516309,0
{consumergroup=__strimzi-topic-operator-kstreams},1651516314,0
{consumergroup=__strimzi-topic-operator-kstreams},1651516319,0
{consumergroup=__strimzi-topic-operator-kstreams},1651516324,0
{consumergroup=__strimzi-topic-operator-kstreams},1651516329,0
{consumergroup=__strimzi-topic-operator-kstreams},1651516334,0
{consumergroup=__strimzi-topic-operator-kstreams},1651516339,0
{consumergroup=__strimzi-topic-operator-kstreams},1651516344,0
{consumergroup=__strimzi-topic-operator-kstreams},1651516349,0
{consumergroup=__strimzi-topic-operator-kstreams},1651516354,0
{consumergroup=__strimzi-topic-operator-kstreams},1651516359,0
{consumergroup=__strimzi-topic-operator-kstreams},1651516364,0
{consumergroup=__strimzi-topic-operator-kstreams},1651516369,0
{consumergroup=__strimzi-topic-operator-kstreams},1651516374,0
{consumergroup=__strimzi-topic-operator-kstreams},1651516379,0
{consumergroup=__strimzi-topic-operator-kstreams},1651516384,0
{consumergroup=__strimzi-topic-operator-kstreams},1651516389,0
{consumergroup=__strimzi-topic-operator-kstreams},1651516394,0
{consumergroup=__strimzi-topic-operator-kstreams},1651516399,0
{consumergroup=__strimzi-topic-operator-kstreams},1651516404,0
{consumergroup=__strimzi-topic-operator-kstreams},1651516409,0
{consumergroup=__strimzi-topic-operator-kstreams},1651516414,0
{consumergroup=__strimzi-topic-operator-kstreams},1651516419,0
{consumergroup=__strimzi-topic-operator-kstreams},1651516424,0
{consumergroup=__strimzi-topic-operator-kstreams},1651516429,0
{consumergroup=__strimzi-topic-operator-kstreams},1651516434,0
{consumergroup=__strimzi-topic-operator-kstreams},1651516439,0
{consumergroup=__strimzi-topic-operator-kstreams},1651516444,0
{consumergroup=__strimzi-topic-operator-kstreams},1651516449,0
{consumergroup=__strimzi-topic-operator-kstreams},1651516454,0
{consumergroup=__strimzi-topic-operator-kstreams},1651516459,0
{consumergroup=__strimzi-topic-operator-kstreams},1651516464,0
{consumergroup=__strimzi-topic-operator-kstreams},1651516469,0
{consumergroup=__strimzi-topic-operator-kstreams},1651516474,0
{consumergroup=__strimzi-topic-operator-kstreams},1651516479,0
{consumergroup=__strimzi-topic-operator-kstreams},1651516484,0
{consumergroup=__strimzi-topic-operator-kstreams},1651516489,0
{consumergroup=__strimzi-topic-operator-kstreams},1651516494,0
{consumergroup=__strimzi-topic-operator-kstreams},1651516499,0
{consumergroup=__strimzi-topic-operator-kstreams},1651516504,0
{consumergroup=__strimzi-topic-operator-kstreams},1651516509,0
{consumergroup=__strimzi-topic-operator-kstreams},1651516514,0
{consumergroup=__strimzi-topic-operator-kstreams},1651516519,0
{consumergroup=__strimzi-topic-operator-kstreams},1651516524,0
{consumergroup=__strimzi-topic-operator-kstreams},1651516529,0
{consumergroup=__strimzi-topic-operator-kstreams},1651516534,0
{consumergroup=__strimzi-topic-operator-kstreams},1651516539,0
{consumergroup=__strimzi-topic-operator-kstreams},1651516544,0
{consumergroup=__strimzi-topic-operator-kstreams},1651516549,0
{consumergroup=__strimzi-topic-operator-kstreams},1651516554,0
{consumergroup=__strimzi-topic-operator-kstreams},1651516559,0
{consumergroup=__strimzi-topic-operator-kstreams},1651516564,0
{consumergroup=__strimzi-topic-operator-kstreams},1651516569,0
{consumergroup=__strimzi-topic-operator-kstreams},1651516574,0
{consumergroup=__strimzi-topic-operator-kstreams},1651516579,0
{consumergroup=__strimzi-topic-operator-kstreams},1651516584,0
{consumergroup=__strimzi-topic-operator-kstreams},1651516589,0
{consumergroup=__strimzi-topic-operator-kstreams},1651516594,0
{consumergroup=__strimzi-topic-operator-kstreams},1651516599,0
{consumergroup=__strimzi-topic-operator-kstreams},1651516604,0
{consumergroup=__strimzi-topic-operator-kstreams},1651516609,0
{consumergroup=__strimzi-topic-operator-kstreams},1651516614,0
{consumergroup=__strimzi-topic-operator-kstreams},1651516619,0
{consumergroup=__strimzi-topic-operator-kstreams},1651516624,0
{consumergroup=__strimzi-topic-operator-kstreams},1651516629,0
{consumergroup=__strimzi-topic-operator-kstreams},1651516634,0
{consumergroup=__strimzi-topic-operator-kstreams},1651516639,0
{consumergroup=__strimzi-topic-operator-kstreams},1651516644,0
{consumergroup=__strimzi-topic-operator-kstreams},1651516649,0
{consumergroup=__strimzi-topic-operator-kstreams},1651516654,0
{consumergroup=__strimzi-topic-operator-kstreams},1651516659,0
{consumergroup=__strimzi-topic-operator-kstreams},1651516664,0
{consumergroup=__strimzi-topic-operator-kstreams},1651516669,0
{consumergroup=__strimzi-topic-operator-kstreams},1651516674,0
{consumergroup=__strimzi-topic-operator-kstreams},1651516679,0
{consumergroup=__strimzi-topic-operator-kstreams},1651516684,0
{consumergroup=trace-service},1651516289,38342
{consumergroup=trace-service},1651516294,38342
{consumergroup=trace-service},1651516299,38342
{consumergroup=trace-service},1651516304,56819
{consumergroup=trace-service},1651516309,56819
{consumergroup=trace-service},1651516314,56819
{consumergroup=trace-service},1651516319,14121
{consumergroup=trace-service},1651516324,14121
{consumergroup=trace-service},1651516329,14121
{consumergroup=trace-service},1651516334,63545
{consumergroup=trace-service},1651516339,63545
{consumergroup=trace-service},1651516344,63545
{consumergroup=trace-service},1651516349,17947
{consumergroup=trace-service},1651516354,17947
{consumergroup=trace-service},1651516359,17947
{consumergroup=trace-service},1651516364,57056
{consumergroup=trace-service},1651516369,57056
{consumergroup=trace-service},1651516374,57056
{consumergroup=trace-service},1651516379,17929
{consumergroup=trace-service},1651516384,17929
{consumergroup=trace-service},1651516389,17929
{consumergroup=trace-service},1651516394,58721
{consumergroup=trace-service},1651516399,58721
{consumergroup=trace-service},1651516404,58721
{consumergroup=trace-service},1651516409,147276
{consumergroup=trace-service},1651516414,147276
{consumergroup=trace-service},1651516419,147276
{consumergroup=trace-service},1651516424,56572
{consumergroup=trace-service},1651516429,56572
{consumergroup=trace-service},1651516434,56572
{consumergroup=trace-service},1651516439,19346
{consumergroup=trace-service},1651516444,19346
{consumergroup=trace-service},1651516449,19346
{consumergroup=trace-service},1651516454,60702
{consumergroup=trace-service},1651516459,60702
{consumergroup=trace-service},1651516464,60702
{consumergroup=trace-service},1651516469,20776
{consumergroup=trace-service},1651516474,20776
{consumergroup=trace-service},1651516479,20776
{consumergroup=trace-service},1651516484,57122
{consumergroup=trace-service},1651516489,57122
{consumergroup=trace-service},1651516494,57122
{consumergroup=trace-service},1651516499,17965
{consumergroup=trace-service},1651516504,17965
{consumergroup=trace-service},1651516509,17965
{consumergroup=trace-service},1651516514,58630
{consumergroup=trace-service},1651516519,58630
{consumergroup=trace-service},1651516524,58630
{consumergroup=trace-service},1651516529,10695
{consumergroup=trace-service},1651516534,10695
{consumergroup=trace-service},1651516539,10695
{consumergroup=trace-service},1651516544,65554
{consumergroup=trace-service},1651516549,65554
{consumergroup=trace-service},1651516554,65554
{consumergroup=trace-service},1651516559,112492
{consumergroup=trace-service},1651516564,112492
{consumergroup=trace-service},1651516569,112492
{consumergroup=trace-service},1651516574,58683
{consumergroup=trace-service},1651516579,58683
{consumergroup=trace-service},1651516584,58683
{consumergroup=trace-service},1651516589,25266
{consumergroup=trace-service},1651516594,25266
{consumergroup=trace-service},1651516599,25266
{consumergroup=trace-service},1651516604,52660
{consumergroup=trace-service},1651516609,52660
{consumergroup=trace-service},1651516614,52660
{consumergroup=trace-service},1651516619,160658
{consumergroup=trace-service},1651516624,160658
{consumergroup=trace-service},1651516629,160658
{consumergroup=trace-service},1651516634,61562
{consumergroup=trace-service},1651516639,61562
{consumergroup=trace-service},1651516644,61562
{consumergroup=trace-service},1651516649,119396
{consumergroup=trace-service},1651516654,119396
{consumergroup=trace-service},1651516659,119396
{consumergroup=trace-service},1651516664,92863
{consumergroup=trace-service},1651516669,92863
{consumergroup=trace-service},1651516674,92863
{consumergroup=trace-service},1651516679,14311
{consumergroup=trace-service},1651516684,14311
{consumergroup=trace-token-events-consumer},1651516274,0
{consumergroup=trace-token-events-consumer},1651516279,0
{consumergroup=trace-token-events-consumer},1651516284,0
{consumergroup=trace-token-events-consumer},1651516289,0
{consumergroup=trace-token-events-consumer},1651516294,0
{consumergroup=trace-token-events-consumer},1651516299,0
{consumergroup=trace-token-events-consumer},1651516304,0
{consumergroup=trace-token-events-consumer},1651516309,0
{consumergroup=trace-token-events-consumer},1651516314,0
{consumergroup=trace-token-events-consumer},1651516319,0
{consumergroup=trace-token-events-consumer},1651516324,0
{consumergroup=trace-token-events-consumer},1651516329,0
{consumergroup=trace-token-events-consumer},1651516334,0
{consumergroup=trace-token-events-consumer},1651516339,0
{consumergroup=trace-token-events-consumer},1651516344,0
{consumergroup=trace-token-events-consumer},1651516349,0
{consumergroup=trace-token-events-consumer},1651516354,0
{consumergroup=trace-token-events-consumer},1651516359,0
{consumergroup=trace-token-events-consumer},1651516364,0
{consumergroup=trace-token-events-consumer},1651516369,0
{consumergroup=trace-token-events-consumer},1651516374,0
{consumergroup=trace-token-events-consumer},1651516379,0
{consumergroup=trace-token-events-consumer},1651516384,0
{consumergroup=trace-token-events-consumer},1651516389,0
{consumergroup=trace-token-events-consumer},1651516394,0
{consumergroup=trace-token-events-consumer},1651516399,0
{consumergroup=trace-token-events-consumer},1651516404,0
{consumergroup=trace-token-events-consumer},1651516409,0
{consumergroup=trace-token-events-consumer},1651516414,0
{consumergroup=trace-token-events-consumer},1651516419,0
{consumergroup=trace-token-events-consumer},1651516424,0
{consumergroup=trace-token-events-consumer},1651516429,0
{consumergroup=trace-token-events-consumer},1651516434,0
{consumergroup=trace-token-events-consumer},1651516439,0
{consumergroup=trace-token-events-consumer},1651516444,0
{consumergroup=trace-token-events-consumer},1651516449,0
{consumergroup=trace-token-events-consumer},1651516454,0
{consumergroup=trace-token-events-consumer},1651516459,0
{consumergroup=trace-token-events-consumer},1651516464,0
{consumergroup=trace-token-events-consumer},1651516469,0
{consumergroup=trace-token-events-consumer},1651516474,0
{consumergroup=trace-token-events-consumer},1651516479,0
{consumergroup=trace-token-events-consumer},1651516484,0
{consumergroup=trace-token-events-consumer},1651516489,0
{consumergroup=trace-token-events-consumer},1651516494,0
{consumergroup=trace-token-events-consumer},1651516499,0
{consumergroup=trace-token-events-consumer},1651516504,0
{consumergroup=trace-token-events-consumer},1651516509,0
{consumergroup=trace-token-events-consumer},1651516514,0
{consumergroup=trace-token-events-consumer},1651516519,0
{consumergroup=trace-token-events-consumer},1651516524,0
{consumergroup=trace-token-events-consumer},1651516529,0
{consumergroup=trace-token-events-consumer},1651516534,0
{consumergroup=trace-token-events-consumer},1651516539,0
{consumergroup=trace-token-events-consumer},1651516544,0
{consumergroup=trace-token-events-consumer},1651516549,0
{consumergroup=trace-token-events-consumer},1651516554,0
{consumergroup=trace-token-events-consumer},1651516559,0
{consumergroup=trace-token-events-consumer},1651516564,0
{consumergroup=trace-token-events-consumer},1651516569,0
{consumergroup=trace-token-events-consumer},1651516574,0
{consumergroup=trace-token-events-consumer},1651516579,0
{consumergroup=trace-token-events-consumer},1651516584,0
{consumergroup=trace-token-events-consumer},1651516589,0
{consumergroup=trace-token-events-consumer},1651516594,0
{consumergroup=trace-token-events-consumer},1651516599,0
{consumergroup=trace-token-events-consumer},1651516604,0
{consumergroup=trace-token-events-consumer},1651516609,0
{consumergroup=trace-token-events-consumer},1651516614,0
{consumergroup=trace-token-events-consumer},1651516619,0
{consumergroup=trace-token-events-consumer},1651516624,0
{consumergroup=trace-token-events-consumer},1651516629,0
{consumergroup=trace-token-events-consumer},1651516634,0
{consumergroup=trace-token-events-consumer},1651516639,0
{consumergroup=trace-token-events-consumer},1651516644,0
{consumergroup=trace-token-events-consumer},1651516649,0
{consumergroup=trace-token-events-consumer},1651516654,0
{consumergroup=trace-token-events-consumer},1651516659,0
{consumergroup=trace-token-events-consumer},1651516664,0
{consumergroup=trace-token-events-consumer},1651516669,0
{consumergroup=trace-token-events-consumer},1651516674,0
{consumergroup=trace-token-events-consumer},1651516679,0
{consumergroup=trace-token-events-consumer},1651516684,0
