labels,timestamp,value
{consumergroup=__strimzi-topic-operator-kstreams},1651510605,9
{consumergroup=__strimzi-topic-operator-kstreams},1651510610,9
{consumergroup=__strimzi-topic-operator-kstreams},1651510615,9
{consumergroup=__strimzi-topic-operator-kstreams},1651510620,0
{consumergroup=__strimzi-topic-operator-kstreams},1651510625,0
{consumergroup=__strimzi-topic-operator-kstreams},1651510630,0
{consumergroup=__strimzi-topic-operator-kstreams},1651510635,0
{consumergroup=__strimzi-topic-operator-kstreams},1651510640,0
{consumergroup=__strimzi-topic-operator-kstreams},1651510645,0
{consumergroup=__strimzi-topic-operator-kstreams},1651510650,0
{consumergroup=__strimzi-topic-operator-kstreams},1651510655,0
{consumergroup=__strimzi-topic-operator-kstreams},1651510660,0
{consumergroup=__strimzi-topic-operator-kstreams},1651510665,0
{consumergroup=__strimzi-topic-operator-kstreams},1651510670,0
{consumergroup=__strimzi-topic-operator-kstreams},1651510675,0
{consumergroup=__strimzi-topic-operator-kstreams},1651510680,0
{consumergroup=__strimzi-topic-operator-kstreams},1651510685,0
{consumergroup=__strimzi-topic-operator-kstreams},1651510690,0
{consumergroup=__strimzi-topic-operator-kstreams},1651510695,0
{consumergroup=__strimzi-topic-operator-kstreams},1651510700,0
{consumergroup=__strimzi-topic-operator-kstreams},1651510705,0
{consumergroup=__strimzi-topic-operator-kstreams},1651510710,0
{consumergroup=__strimzi-topic-operator-kstreams},1651510715,0
{consumergroup=__strimzi-topic-operator-kstreams},1651510720,0
{consumergroup=__strimzi-topic-operator-kstreams},1651510725,0
{consumergroup=__strimzi-topic-operator-kstreams},1651510730,0
{consumergroup=__strimzi-topic-operator-kstreams},1651510735,0
{consumergroup=__strimzi-topic-operator-kstreams},1651510740,0
{consumergroup=__strimzi-topic-operator-kstreams},1651510745,0
{consumergroup=__strimzi-topic-operator-kstreams},1651510750,0
{consumergroup=__strimzi-topic-operator-kstreams},1651510755,0
{consumergroup=__strimzi-topic-operator-kstreams},1651510760,0
{consumergroup=__strimzi-topic-operator-kstreams},1651510765,0
{consumergroup=__strimzi-topic-operator-kstreams},1651510770,0
{consumergroup=__strimzi-topic-operator-kstreams},1651510775,0
{consumergroup=__strimzi-topic-operator-kstreams},1651510780,0
{consumergroup=__strimzi-topic-operator-kstreams},1651510785,0
{consumergroup=__strimzi-topic-operator-kstreams},1651510790,0
{consumergroup=__strimzi-topic-operator-kstreams},1651510795,0
{consumergroup=__strimzi-topic-operator-kstreams},1651510800,0
{consumergroup=__strimzi-topic-operator-kstreams},1651510805,0
{consumergroup=__strimzi-topic-operator-kstreams},1651510810,0
{consumergroup=__strimzi-topic-operator-kstreams},1651510815,0
{consumergroup=__strimzi-topic-operator-kstreams},1651510820,0
{consumergroup=__strimzi-topic-operator-kstreams},1651510825,0
{consumergroup=__strimzi-topic-operator-kstreams},1651510830,0
{consumergroup=__strimzi-topic-operator-kstreams},1651510835,0
{consumergroup=__strimzi-topic-operator-kstreams},1651510840,0
{consumergroup=__strimzi-topic-operator-kstreams},1651510845,0
{consumergroup=__strimzi-topic-operator-kstreams},1651510850,0
{consumergroup=__strimzi-topic-operator-kstreams},1651510855,0
{consumergroup=__strimzi-topic-operator-kstreams},1651510860,0
{consumergroup=__strimzi-topic-operator-kstreams},1651510865,0
{consumergroup=__strimzi-topic-operator-kstreams},1651510870,0
{consumergroup=__strimzi-topic-operator-kstreams},1651510875,0
{consumergroup=__strimzi-topic-operator-kstreams},1651510880,0
{consumergroup=__strimzi-topic-operator-kstreams},1651510885,0
{consumergroup=__strimzi-topic-operator-kstreams},1651510890,0
{consumergroup=__strimzi-topic-operator-kstreams},1651510895,0
{consumergroup=__strimzi-topic-operator-kstreams},1651510900,0
{consumergroup=__strimzi-topic-operator-kstreams},1651510905,0
{consumergroup=__strimzi-topic-operator-kstreams},1651510910,0
{consumergroup=__strimzi-topic-operator-kstreams},1651510915,0
{consumergroup=__strimzi-topic-operator-kstreams},1651510920,0
{consumergroup=__strimzi-topic-operator-kstreams},1651510925,0
{consumergroup=__strimzi-topic-operator-kstreams},1651510930,0
{consumergroup=__strimzi-topic-operator-kstreams},1651510935,0
{consumergroup=__strimzi-topic-operator-kstreams},1651510940,0
{consumergroup=__strimzi-topic-operator-kstreams},1651510945,0
{consumergroup=__strimzi-topic-operator-kstreams},1651510950,0
{consumergroup=__strimzi-topic-operator-kstreams},1651510955,0
{consumergroup=__strimzi-topic-operator-kstreams},1651510960,0
{consumergroup=__strimzi-topic-operator-kstreams},1651510965,0
{consumergroup=__strimzi-topic-operator-kstreams},1651510970,0
{consumergroup=__strimzi-topic-operator-kstreams},1651510975,0
{consumergroup=__strimzi-topic-operator-kstreams},1651510980,0
{consumergroup=__strimzi-topic-operator-kstreams},1651510985,0
{consumergroup=__strimzi-topic-operator-kstreams},1651510990,0
{consumergroup=__strimzi-topic-operator-kstreams},1651510995,0
{consumergroup=__strimzi-topic-operator-kstreams},1651511000,0
{consumergroup=__strimzi-topic-operator-kstreams},1651511005,0
{consumergroup=__strimzi-topic-operator-kstreams},1651511010,0
{consumergroup=__strimzi-topic-operator-kstreams},1651511015,0
{consumergroup=__strimzi-topic-operator-kstreams},1651511020,0
{consumergroup=__strimzi-topic-operator-kstreams},1651511025,0
{consumergroup=__strimzi-topic-operator-kstreams},1651511030,0
{consumergroup=__strimzi-topic-operator-kstreams},1651511035,0
{consumergroup=__strimzi-topic-operator-kstreams},1651511040,0
{consumergroup=trace-service},1651510650,7851
{consumergroup=trace-service},1651510655,7851
{consumergroup=trace-service},1651510660,7851
{consumergroup=trace-service},1651510665,72898
{consumergroup=trace-service},1651510670,72898
{consumergroup=trace-service},1651510675,72898
{consumergroup=trace-service},1651510680,22775
{consumergroup=trace-service},1651510685,22775
{consumergroup=trace-service},1651510690,22775
{consumergroup=trace-service},1651510695,59005
{consumergroup=trace-service},1651510700,59005
{consumergroup=trace-service},1651510705,59005
{consumergroup=trace-service},1651510710,118775
{consumergroup=trace-service},1651510715,118775
{consumergroup=trace-service},1651510720,118775
{consumergroup=trace-service},1651510725,57781
{consumergroup=trace-service},1651510730,57781
{consumergroup=trace-service},1651510735,57781
{consumergroup=trace-service},1651510740,23048
{consumergroup=trace-service},1651510745,23048
{consumergroup=trace-service},1651510750,23048
{consumergroup=trace-service},1651510755,55714
{consumergroup=trace-service},1651510760,55714
{consumergroup=trace-service},1651510765,55714
{consumergroup=trace-service},1651510770,108606
{consumergroup=trace-service},1651510775,108606
{consumergroup=trace-service},1651510780,108606
{consumergroup=trace-service},1651510785,156699
{consumergroup=trace-service},1651510790,156699
{consumergroup=trace-service},1651510795,156699
{consumergroup=trace-service},1651510800,16251
{consumergroup=trace-service},1651510805,16251
{consumergroup=trace-service},1651510810,16251
{consumergroup=trace-service},1651510815,52750
{consumergroup=trace-service},1651510820,52750
{consumergroup=trace-service},1651510825,52750
{consumergroup=trace-service},1651510830,101134
{consumergroup=trace-service},1651510835,101134
{consumergroup=trace-service},1651510840,101134
{consumergroup=trace-service},1651510845,133822
{consumergroup=trace-service},1651510850,133822
{consumergroup=trace-service},1651510855,133822
{consumergroup=trace-service},1651510860,45684
{consumergroup=trace-service},1651510865,45684
{consumergroup=trace-service},1651510870,45684
{consumergroup=trace-service},1651510875,59917
{consumergroup=trace-service},1651510880,59917
{consumergroup=trace-service},1651510885,59917
{consumergroup=trace-service},1651510890,157539
{consumergroup=trace-service},1651510895,157539
{consumergroup=trace-service},1651510900,157539
{consumergroup=trace-service},1651510905,86555
{consumergroup=trace-service},1651510910,86555
{consumergroup=trace-service},1651510915,86555
{consumergroup=trace-service},1651510920,22434
{consumergroup=trace-service},1651510925,22434
{consumergroup=trace-service},1651510930,22434
{consumergroup=trace-service},1651510935,56938
{consumergroup=trace-service},1651510940,56938
{consumergroup=trace-service},1651510945,56938
{consumergroup=trace-service},1651510950,147216
{consumergroup=trace-service},1651510955,147216
{consumergroup=trace-service},1651510960,147216
{consumergroup=trace-service},1651510965,81431
{consumergroup=trace-service},1651510970,81431
{consumergroup=trace-service},1651510975,81431
{consumergroup=trace-service},1651510980,53899
{consumergroup=trace-service},1651510985,53899
{consumergroup=trace-service},1651510990,53899
{consumergroup=trace-service},1651510995,56188
{consumergroup=trace-service},1651511000,56188
{consumergroup=trace-service},1651511005,56188
{consumergroup=trace-service},1651511010,84594
{consumergroup=trace-service},1651511015,84594
{consumergroup=trace-service},1651511020,84594
{consumergroup=trace-service},1651511025,62117
{consumergroup=trace-service},1651511030,62117
{consumergroup=trace-service},1651511035,62117
{consumergroup=trace-service},1651511040,166554
{consumergroup=trace-token-events-consumer},1651510635,0
{consumergroup=trace-token-events-consumer},1651510640,0
{consumergroup=trace-token-events-consumer},1651510645,0
{consumergroup=trace-token-events-consumer},1651510650,0
{consumergroup=trace-token-events-consumer},1651510655,0
{consumergroup=trace-token-events-consumer},1651510660,0
{consumergroup=trace-token-events-consumer},1651510665,0
{consumergroup=trace-token-events-consumer},1651510670,0
{consumergroup=trace-token-events-consumer},1651510675,0
{consumergroup=trace-token-events-consumer},1651510680,0
{consumergroup=trace-token-events-consumer},1651510685,0
{consumergroup=trace-token-events-consumer},1651510690,0
{consumergroup=trace-token-events-consumer},1651510695,0
{consumergroup=trace-token-events-consumer},1651510700,0
{consumergroup=trace-token-events-consumer},1651510705,0
{consumergroup=trace-token-events-consumer},1651510710,0
{consumergroup=trace-token-events-consumer},1651510715,0
{consumergroup=trace-token-events-consumer},1651510720,0
{consumergroup=trace-token-events-consumer},1651510725,0
{consumergroup=trace-token-events-consumer},1651510730,0
{consumergroup=trace-token-events-consumer},1651510735,0
{consumergroup=trace-token-events-consumer},1651510740,0
{consumergroup=trace-token-events-consumer},1651510745,0
{consumergroup=trace-token-events-consumer},1651510750,0
{consumergroup=trace-token-events-consumer},1651510755,0
{consumergroup=trace-token-events-consumer},1651510760,0
{consumergroup=trace-token-events-consumer},1651510765,0
{consumergroup=trace-token-events-consumer},1651510770,0
{consumergroup=trace-token-events-consumer},1651510775,0
{consumergroup=trace-token-events-consumer},1651510780,0
{consumergroup=trace-token-events-consumer},1651510785,0
{consumergroup=trace-token-events-consumer},1651510790,0
{consumergroup=trace-token-events-consumer},1651510795,0
{consumergroup=trace-token-events-consumer},1651510800,0
{consumergroup=trace-token-events-consumer},1651510805,0
{consumergroup=trace-token-events-consumer},1651510810,0
{consumergroup=trace-token-events-consumer},1651510815,0
{consumergroup=trace-token-events-consumer},1651510820,0
{consumergroup=trace-token-events-consumer},1651510825,0
{consumergroup=trace-token-events-consumer},1651510830,0
{consumergroup=trace-token-events-consumer},1651510835,0
{consumergroup=trace-token-events-consumer},1651510840,0
{consumergroup=trace-token-events-consumer},1651510845,0
{consumergroup=trace-token-events-consumer},1651510850,0
{consumergroup=trace-token-events-consumer},1651510855,0
{consumergroup=trace-token-events-consumer},1651510860,0
{consumergroup=trace-token-events-consumer},1651510865,0
{consumergroup=trace-token-events-consumer},1651510870,0
{consumergroup=trace-token-events-consumer},1651510875,0
{consumergroup=trace-token-events-consumer},1651510880,0
{consumergroup=trace-token-events-consumer},1651510885,0
{consumergroup=trace-token-events-consumer},1651510890,0
{consumergroup=trace-token-events-consumer},1651510895,0
{consumergroup=trace-token-events-consumer},1651510900,0
{consumergroup=trace-token-events-consumer},1651510905,0
{consumergroup=trace-token-events-consumer},1651510910,0
{consumergroup=trace-token-events-consumer},1651510915,0
{consumergroup=trace-token-events-consumer},1651510920,0
{consumergroup=trace-token-events-consumer},1651510925,0
{consumergroup=trace-token-events-consumer},1651510930,0
{consumergroup=trace-token-events-consumer},1651510935,0
{consumergroup=trace-token-events-consumer},1651510940,0
{consumergroup=trace-token-events-consumer},1651510945,0
{consumergroup=trace-token-events-consumer},1651510950,0
{consumergroup=trace-token-events-consumer},1651510955,0
{consumergroup=trace-token-events-consumer},1651510960,0
{consumergroup=trace-token-events-consumer},1651510965,0
{consumergroup=trace-token-events-consumer},1651510970,0
{consumergroup=trace-token-events-consumer},1651510975,0
{consumergroup=trace-token-events-consumer},1651510980,0
{consumergroup=trace-token-events-consumer},1651510985,0
{consumergroup=trace-token-events-consumer},1651510990,0
{consumergroup=trace-token-events-consumer},1651510995,0
{consumergroup=trace-token-events-consumer},1651511000,0
{consumergroup=trace-token-events-consumer},1651511005,0
{consumergroup=trace-token-events-consumer},1651511010,0
{consumergroup=trace-token-events-consumer},1651511015,0
{consumergroup=trace-token-events-consumer},1651511020,0
{consumergroup=trace-token-events-consumer},1651511025,0
{consumergroup=trace-token-events-consumer},1651511030,0
{consumergroup=trace-token-events-consumer},1651511035,0
{consumergroup=trace-token-events-consumer},1651511040,0
