labels,timestamp,value
{consumergroup=__strimzi-topic-operator-kstreams},1651493675,11
{consumergroup=__strimzi-topic-operator-kstreams},1651493680,11
{consumergroup=__strimzi-topic-operator-kstreams},1651493685,11
{consumergroup=__strimzi-topic-operator-kstreams},1651493690,3
{consumergroup=__strimzi-topic-operator-kstreams},1651493695,3
{consumergroup=__strimzi-topic-operator-kstreams},1651493700,3
{consumergroup=__strimzi-topic-operator-kstreams},1651493705,3
{consumergroup=__strimzi-topic-operator-kstreams},1651493710,3
{consumergroup=__strimzi-topic-operator-kstreams},1651493715,3
{consumergroup=__strimzi-topic-operator-kstreams},1651493720,0
{consumergroup=__strimzi-topic-operator-kstreams},1651493725,0
{consumergroup=__strimzi-topic-operator-kstreams},1651493730,0
{consumergroup=__strimzi-topic-operator-kstreams},1651493735,0
{consumergroup=__strimzi-topic-operator-kstreams},1651493740,0
{consumergroup=__strimzi-topic-operator-kstreams},1651493745,0
{consumergroup=__strimzi-topic-operator-kstreams},1651493750,0
{consumergroup=__strimzi-topic-operator-kstreams},1651493755,0
{consumergroup=__strimzi-topic-operator-kstreams},1651493760,0
{consumergroup=__strimzi-topic-operator-kstreams},1651493765,0
{consumergroup=__strimzi-topic-operator-kstreams},1651493770,0
{consumergroup=__strimzi-topic-operator-kstreams},1651493775,0
{consumergroup=__strimzi-topic-operator-kstreams},1651493780,0
{consumergroup=__strimzi-topic-operator-kstreams},1651493785,0
{consumergroup=__strimzi-topic-operator-kstreams},1651493790,0
{consumergroup=__strimzi-topic-operator-kstreams},1651493795,0
{consumergroup=__strimzi-topic-operator-kstreams},1651493800,0
{consumergroup=__strimzi-topic-operator-kstreams},1651493805,0
{consumergroup=__strimzi-topic-operator-kstreams},1651493810,0
{consumergroup=__strimzi-topic-operator-kstreams},1651493815,0
{consumergroup=__strimzi-topic-operator-kstreams},1651493820,0
{consumergroup=__strimzi-topic-operator-kstreams},1651493825,0
{consumergroup=__strimzi-topic-operator-kstreams},1651493830,0
{consumergroup=__strimzi-topic-operator-kstreams},1651493835,0
{consumergroup=__strimzi-topic-operator-kstreams},1651493840,0
{consumergroup=__strimzi-topic-operator-kstreams},1651493845,0
{consumergroup=__strimzi-topic-operator-kstreams},1651493850,0
{consumergroup=__strimzi-topic-operator-kstreams},1651493855,0
{consumergroup=__strimzi-topic-operator-kstreams},1651493860,0
{consumergroup=__strimzi-topic-operator-kstreams},1651493865,0
{consumergroup=__strimzi-topic-operator-kstreams},1651493870,0
{consumergroup=__strimzi-topic-operator-kstreams},1651493875,0
{consumergroup=__strimzi-topic-operator-kstreams},1651493880,0
{consumergroup=__strimzi-topic-operator-kstreams},1651493885,0
{consumergroup=__strimzi-topic-operator-kstreams},1651493890,0
{consumergroup=__strimzi-topic-operator-kstreams},1651493895,0
{consumergroup=__strimzi-topic-operator-kstreams},1651493900,0
{consumergroup=__strimzi-topic-operator-kstreams},1651493905,0
{consumergroup=__strimzi-topic-operator-kstreams},1651493910,0
{consumergroup=__strimzi-topic-operator-kstreams},1651493915,0
{consumergroup=__strimzi-topic-operator-kstreams},1651493920,0
{consumergroup=__strimzi-topic-operator-kstreams},1651493925,0
{consumergroup=__strimzi-topic-operator-kstreams},1651493930,0
{consumergroup=__strimzi-topic-operator-kstreams},1651493935,0
{consumergroup=__strimzi-topic-operator-kstreams},1651493940,0
{consumergroup=__strimzi-topic-operator-kstreams},1651493945,0
{consumergroup=__strimzi-topic-operator-kstreams},1651493950,0
{consumergroup=__strimzi-topic-operator-kstreams},1651493955,0
{consumergroup=__strimzi-topic-operator-kstreams},1651493960,0
{consumergroup=__strimzi-topic-operator-kstreams},1651493965,0
{consumergroup=__strimzi-topic-operator-kstreams},1651493970,0
{consumergroup=__strimzi-topic-operator-kstreams},1651493975,0
{consumergroup=__strimzi-topic-operator-kstreams},1651493980,0
{consumergroup=__strimzi-topic-operator-kstreams},1651493985,0
{consumergroup=__strimzi-topic-operator-kstreams},1651493990,0
{consumergroup=__strimzi-topic-operator-kstreams},1651493995,0
{consumergroup=__strimzi-topic-operator-kstreams},1651494000,0
{consumergroup=__strimzi-topic-operator-kstreams},1651494005,0
{consumergroup=__strimzi-topic-operator-kstreams},1651494010,0
{consumergroup=__strimzi-topic-operator-kstreams},1651494015,0
{consumergroup=__strimzi-topic-operator-kstreams},1651494020,0
{consumergroup=__strimzi-topic-operator-kstreams},1651494025,0
{consumergroup=__strimzi-topic-operator-kstreams},1651494030,0
{consumergroup=__strimzi-topic-operator-kstreams},1651494035,0
{consumergroup=__strimzi-topic-operator-kstreams},1651494040,0
{consumergroup=__strimzi-topic-operator-kstreams},1651494045,0
{consumergroup=__strimzi-topic-operator-kstreams},1651494050,0
{consumergroup=__strimzi-topic-operator-kstreams},1651494055,0
{consumergroup=__strimzi-topic-operator-kstreams},1651494060,0
{consumergroup=__strimzi-topic-operator-kstreams},1651494065,0
{consumergroup=__strimzi-topic-operator-kstreams},1651494070,0
{consumergroup=__strimzi-topic-operator-kstreams},1651494075,0
{consumergroup=__strimzi-topic-operator-kstreams},1651494080,0
{consumergroup=__strimzi-topic-operator-kstreams},1651494085,0
{consumergroup=__strimzi-topic-operator-kstreams},1651494090,0
{consumergroup=__strimzi-topic-operator-kstreams},1651494095,0
{consumergroup=__strimzi-topic-operator-kstreams},1651494100,0
{consumergroup=__strimzi-topic-operator-kstreams},1651494105,0
{consumergroup=__strimzi-topic-operator-kstreams},1651494110,0
{consumergroup=trace-service},1651493720,12239
{consumergroup=trace-service},1651493725,12239
{consumergroup=trace-service},1651493730,12239
{consumergroup=trace-service},1651493735,40628
{consumergroup=trace-service},1651493740,40628
{consumergroup=trace-service},1651493745,40628
{consumergroup=trace-service},1651493750,89817
{consumergroup=trace-service},1651493755,89817
{consumergroup=trace-service},1651493760,89817
{consumergroup=trace-service},1651493765,157991
{consumergroup=trace-service},1651493770,157991
{consumergroup=trace-service},1651493775,157991
{consumergroup=trace-service},1651493780,104054
{consumergroup=trace-service},1651493785,104054
{consumergroup=trace-service},1651493790,104054
{consumergroup=trace-service},1651493795,26864
{consumergroup=trace-service},1651493800,26864
{consumergroup=trace-service},1651493805,26864
{consumergroup=trace-service},1651493810,68890
{consumergroup=trace-service},1651493815,68890
{consumergroup=trace-service},1651493820,68890
{consumergroup=trace-service},1651493825,32963
{consumergroup=trace-service},1651493830,32963
{consumergroup=trace-service},1651493835,32963
{consumergroup=trace-service},1651493840,84915
{consumergroup=trace-service},1651493845,84915
{consumergroup=trace-service},1651493850,84915
{consumergroup=trace-service},1651493855,144153
{consumergroup=trace-service},1651493860,144153
{consumergroup=trace-service},1651493865,144153
{consumergroup=trace-service},1651493870,112275
{consumergroup=trace-service},1651493875,112275
{consumergroup=trace-service},1651493880,112275
{consumergroup=trace-service},1651493885,31970
{consumergroup=trace-service},1651493890,31970
{consumergroup=trace-service},1651493895,31970
{consumergroup=trace-service},1651493900,85764
{consumergroup=trace-service},1651493905,85764
{consumergroup=trace-service},1651493910,85764
{consumergroup=trace-service},1651493915,36173
{consumergroup=trace-service},1651493920,36173
{consumergroup=trace-service},1651493925,36173
{consumergroup=trace-service},1651493930,84447
{consumergroup=trace-service},1651493935,84447
{consumergroup=trace-service},1651493940,84447
{consumergroup=trace-service},1651493945,30096
{consumergroup=trace-service},1651493950,30096
{consumergroup=trace-service},1651493955,30096
{consumergroup=trace-service},1651493960,79640
{consumergroup=trace-service},1651493965,79640
{consumergroup=trace-service},1651493970,79640
{consumergroup=trace-service},1651493975,35517
{consumergroup=trace-service},1651493980,35517
{consumergroup=trace-service},1651493985,35517
{consumergroup=trace-service},1651493990,90248
{consumergroup=trace-service},1651493995,90248
{consumergroup=trace-service},1651494000,90248
{consumergroup=trace-service},1651494005,72276
{consumergroup=trace-service},1651494010,72276
{consumergroup=trace-service},1651494015,72276
{consumergroup=trace-service},1651494020,81138
{consumergroup=trace-service},1651494025,81138
{consumergroup=trace-service},1651494030,81138
{consumergroup=trace-service},1651494035,37906
{consumergroup=trace-service},1651494040,37906
{consumergroup=trace-service},1651494045,37906
{consumergroup=trace-service},1651494050,81202
{consumergroup=trace-service},1651494055,81202
{consumergroup=trace-service},1651494060,81202
{consumergroup=trace-service},1651494065,36534
{consumergroup=trace-service},1651494070,36534
{consumergroup=trace-service},1651494075,36534
{consumergroup=trace-service},1651494080,85618
{consumergroup=trace-service},1651494085,85618
{consumergroup=trace-service},1651494090,85618
{consumergroup=trace-service},1651494095,111866
{consumergroup=trace-service},1651494100,111866
{consumergroup=trace-service},1651494105,111866
{consumergroup=trace-service},1651494110,92228
{consumergroup=trace-token-events-consumer},1651493705,0
{consumergroup=trace-token-events-consumer},1651493710,0
{consumergroup=trace-token-events-consumer},1651493715,0
{consumergroup=trace-token-events-consumer},1651493720,0
{consumergroup=trace-token-events-consumer},1651493725,0
{consumergroup=trace-token-events-consumer},1651493730,0
{consumergroup=trace-token-events-consumer},1651493735,0
{consumergroup=trace-token-events-consumer},1651493740,0
{consumergroup=trace-token-events-consumer},1651493745,0
{consumergroup=trace-token-events-consumer},1651493750,0
{consumergroup=trace-token-events-consumer},1651493755,0
{consumergroup=trace-token-events-consumer},1651493760,0
{consumergroup=trace-token-events-consumer},1651493765,0
{consumergroup=trace-token-events-consumer},1651493770,0
{consumergroup=trace-token-events-consumer},1651493775,0
{consumergroup=trace-token-events-consumer},1651493780,0
{consumergroup=trace-token-events-consumer},1651493785,0
{consumergroup=trace-token-events-consumer},1651493790,0
{consumergroup=trace-token-events-consumer},1651493795,0
{consumergroup=trace-token-events-consumer},1651493800,0
{consumergroup=trace-token-events-consumer},1651493805,0
{consumergroup=trace-token-events-consumer},1651493810,0
{consumergroup=trace-token-events-consumer},1651493815,0
{consumergroup=trace-token-events-consumer},1651493820,0
{consumergroup=trace-token-events-consumer},1651493825,0
{consumergroup=trace-token-events-consumer},1651493830,0
{consumergroup=trace-token-events-consumer},1651493835,0
{consumergroup=trace-token-events-consumer},1651493840,0
{consumergroup=trace-token-events-consumer},1651493845,0
{consumergroup=trace-token-events-consumer},1651493850,0
{consumergroup=trace-token-events-consumer},1651493855,0
{consumergroup=trace-token-events-consumer},1651493860,0
{consumergroup=trace-token-events-consumer},1651493865,0
{consumergroup=trace-token-events-consumer},1651493870,0
{consumergroup=trace-token-events-consumer},1651493875,0
{consumergroup=trace-token-events-consumer},1651493880,0
{consumergroup=trace-token-events-consumer},1651493885,0
{consumergroup=trace-token-events-consumer},1651493890,0
{consumergroup=trace-token-events-consumer},1651493895,0
{consumergroup=trace-token-events-consumer},1651493900,0
{consumergroup=trace-token-events-consumer},1651493905,0
{consumergroup=trace-token-events-consumer},1651493910,0
{consumergroup=trace-token-events-consumer},1651493915,0
{consumergroup=trace-token-events-consumer},1651493920,0
{consumergroup=trace-token-events-consumer},1651493925,0
{consumergroup=trace-token-events-consumer},1651493930,0
{consumergroup=trace-token-events-consumer},1651493935,0
{consumergroup=trace-token-events-consumer},1651493940,0
{consumergroup=trace-token-events-consumer},1651493945,0
{consumergroup=trace-token-events-consumer},1651493950,0
{consumergroup=trace-token-events-consumer},1651493955,0
{consumergroup=trace-token-events-consumer},1651493960,0
{consumergroup=trace-token-events-consumer},1651493965,0
{consumergroup=trace-token-events-consumer},1651493970,0
{consumergroup=trace-token-events-consumer},1651493975,0
{consumergroup=trace-token-events-consumer},1651493980,0
{consumergroup=trace-token-events-consumer},1651493985,0
{consumergroup=trace-token-events-consumer},1651493990,0
{consumergroup=trace-token-events-consumer},1651493995,0
{consumergroup=trace-token-events-consumer},1651494000,0
{consumergroup=trace-token-events-consumer},1651494005,0
{consumergroup=trace-token-events-consumer},1651494010,0
{consumergroup=trace-token-events-consumer},1651494015,0
{consumergroup=trace-token-events-consumer},1651494020,0
{consumergroup=trace-token-events-consumer},1651494025,0
{consumergroup=trace-token-events-consumer},1651494030,0
{consumergroup=trace-token-events-consumer},1651494035,0
{consumergroup=trace-token-events-consumer},1651494040,0
{consumergroup=trace-token-events-consumer},1651494045,0
{consumergroup=trace-token-events-consumer},1651494050,0
{consumergroup=trace-token-events-consumer},1651494055,0
{consumergroup=trace-token-events-consumer},1651494060,0
{consumergroup=trace-token-events-consumer},1651494065,0
{consumergroup=trace-token-events-consumer},1651494070,0
{consumergroup=trace-token-events-consumer},1651494075,0
{consumergroup=trace-token-events-consumer},1651494080,0
{consumergroup=trace-token-events-consumer},1651494085,0
{consumergroup=trace-token-events-consumer},1651494090,0
{consumergroup=trace-token-events-consumer},1651494095,0
{consumergroup=trace-token-events-consumer},1651494100,0
{consumergroup=trace-token-events-consumer},1651494105,0
{consumergroup=trace-token-events-consumer},1651494110,0
