labels,timestamp,value
{job=theodolite-stu200776/trace-isolated-podmonitor},1651490173,0
{job=theodolite-stu200776/trace-isolated-podmonitor},1651490178,0
{job=theodolite-stu200776/trace-isolated-podmonitor},1651490183,0
{job=theodolite-stu200776/trace-isolated-podmonitor},1651490188,0
{job=theodolite-stu200776/trace-isolated-podmonitor},1651490193,0
{job=theodolite-stu200776/trace-isolated-podmonitor},1651490198,0
{job=theodolite-stu200776/trace-isolated-podmonitor},1651490203,0
{job=theodolite-stu200776/trace-isolated-podmonitor},1651490208,0
{job=theodolite-stu200776/trace-isolated-podmonitor},1651490213,0
{job=theodolite-stu200776/trace-isolated-podmonitor},1651490218,0
{job=theodolite-stu200776/trace-isolated-podmonitor},1651490223,0
{job=theodolite-stu200776/trace-isolated-podmonitor},1651490228,0
{job=theodolite-stu200776/trace-isolated-podmonitor},1651490233,0
{job=theodolite-stu200776/trace-isolated-podmonitor},1651490238,0
{job=theodolite-stu200776/trace-isolated-podmonitor},1651490243,0
{job=theodolite-stu200776/trace-isolated-podmonitor},1651490248,0
{job=theodolite-stu200776/trace-isolated-podmonitor},1651490253,0
{job=theodolite-stu200776/trace-isolated-podmonitor},1651490258,0
{job=theodolite-stu200776/trace-isolated-podmonitor},1651490263,0
{job=theodolite-stu200776/trace-isolated-podmonitor},1651490268,0
{job=theodolite-stu200776/trace-isolated-podmonitor},1651490273,0
{job=theodolite-stu200776/trace-isolated-podmonitor},1651490278,0
{job=theodolite-stu200776/trace-isolated-podmonitor},1651490283,0
{job=theodolite-stu200776/trace-isolated-podmonitor},1651490288,0
{job=theodolite-stu200776/trace-isolated-podmonitor},1651490293,0
{job=theodolite-stu200776/trace-isolated-podmonitor},1651490298,0
{job=theodolite-stu200776/trace-isolated-podmonitor},1651490303,0
{job=theodolite-stu200776/trace-isolated-podmonitor},1651490308,0
{job=theodolite-stu200776/trace-isolated-podmonitor},1651490313,0
{job=theodolite-stu200776/trace-isolated-podmonitor},1651490318,0
{job=theodolite-stu200776/trace-isolated-podmonitor},1651490323,0
{job=theodolite-stu200776/trace-isolated-podmonitor},1651490328,0
{job=theodolite-stu200776/trace-isolated-podmonitor},1651490333,0
{job=theodolite-stu200776/trace-isolated-podmonitor},1651490338,0
{job=theodolite-stu200776/trace-isolated-podmonitor},1651490343,0
{job=theodolite-stu200776/trace-isolated-podmonitor},1651490348,0
{job=theodolite-stu200776/trace-isolated-podmonitor},1651490353,0
{job=theodolite-stu200776/trace-isolated-podmonitor},1651490358,0
{job=theodolite-stu200776/trace-isolated-podmonitor},1651490363,0
{job=theodolite-stu200776/trace-isolated-podmonitor},1651490368,0
{job=theodolite-stu200776/trace-isolated-podmonitor},1651490373,0
{job=theodolite-stu200776/trace-isolated-podmonitor},1651490378,0
{job=theodolite-stu200776/trace-isolated-podmonitor},1651490383,0
{job=theodolite-stu200776/trace-isolated-podmonitor},1651490388,0
{job=theodolite-stu200776/trace-isolated-podmonitor},1651490393,0
{job=theodolite-stu200776/trace-isolated-podmonitor},1651490398,0
{job=theodolite-stu200776/trace-isolated-podmonitor},1651490403,0
{job=theodolite-stu200776/trace-isolated-podmonitor},1651490408,0
{job=theodolite-stu200776/trace-isolated-podmonitor},1651490413,0
{job=theodolite-stu200776/trace-isolated-podmonitor},1651490418,0
{job=theodolite-stu200776/trace-isolated-podmonitor},1651490423,0
{job=theodolite-stu200776/trace-isolated-podmonitor},1651490428,0
{job=theodolite-stu200776/trace-isolated-podmonitor},1651490433,0
{job=theodolite-stu200776/trace-isolated-podmonitor},1651490438,0
{job=theodolite-stu200776/trace-isolated-podmonitor},1651490443,0
{job=theodolite-stu200776/trace-isolated-podmonitor},1651490448,0
{job=theodolite-stu200776/trace-isolated-podmonitor},1651490453,0
{job=theodolite-stu200776/trace-isolated-podmonitor},1651490458,0
{job=theodolite-stu200776/trace-isolated-podmonitor},1651490463,0
{job=theodolite-stu200776/trace-isolated-podmonitor},1651490468,0
{job=theodolite-stu200776/trace-isolated-podmonitor},1651490473,0
{job=theodolite-stu200776/trace-isolated-podmonitor},1651490478,0
{job=theodolite-stu200776/trace-isolated-podmonitor},1651490483,0
{job=theodolite-stu200776/trace-isolated-podmonitor},1651490488,0
{job=theodolite-stu200776/trace-isolated-podmonitor},1651490493,0
{job=theodolite-stu200776/trace-isolated-podmonitor},1651490498,0
{job=theodolite-stu200776/trace-isolated-podmonitor},1651490503,0
{job=theodolite-stu200776/trace-isolated-podmonitor},1651490508,0
{job=theodolite-stu200776/trace-isolated-podmonitor},1651490513,0
{job=theodolite-stu200776/trace-isolated-podmonitor},1651490518,0
{job=theodolite-stu200776/trace-isolated-podmonitor},1651490523,0
{job=theodolite-stu200776/trace-isolated-podmonitor},1651490528,0
{job=theodolite-stu200776/trace-isolated-podmonitor},1651490533,0
{job=theodolite-stu200776/trace-isolated-podmonitor},1651490538,0
{job=theodolite-stu200776/trace-isolated-podmonitor},1651490543,0
