labels,timestamp,value
{consumergroup=__strimzi-topic-operator-kstreams},1651502854,11
{consumergroup=__strimzi-topic-operator-kstreams},1651502859,11
{consumergroup=__strimzi-topic-operator-kstreams},1651502864,11
{consumergroup=__strimzi-topic-operator-kstreams},1651502869,3
{consumergroup=__strimzi-topic-operator-kstreams},1651502874,3
{consumergroup=__strimzi-topic-operator-kstreams},1651502879,3
{consumergroup=__strimzi-topic-operator-kstreams},1651502884,3
{consumergroup=__strimzi-topic-operator-kstreams},1651502889,3
{consumergroup=__strimzi-topic-operator-kstreams},1651502894,3
{consumergroup=__strimzi-topic-operator-kstreams},1651502899,0
{consumergroup=__strimzi-topic-operator-kstreams},1651502904,0
{consumergroup=__strimzi-topic-operator-kstreams},1651502909,0
{consumergroup=__strimzi-topic-operator-kstreams},1651502914,0
{consumergroup=__strimzi-topic-operator-kstreams},1651502919,0
{consumergroup=__strimzi-topic-operator-kstreams},1651502924,0
{consumergroup=__strimzi-topic-operator-kstreams},1651502929,0
{consumergroup=__strimzi-topic-operator-kstreams},1651502934,0
{consumergroup=__strimzi-topic-operator-kstreams},1651502939,0
{consumergroup=__strimzi-topic-operator-kstreams},1651502944,0
{consumergroup=__strimzi-topic-operator-kstreams},1651502949,0
{consumergroup=__strimzi-topic-operator-kstreams},1651502954,0
{consumergroup=__strimzi-topic-operator-kstreams},1651502959,0
{consumergroup=__strimzi-topic-operator-kstreams},1651502964,0
{consumergroup=__strimzi-topic-operator-kstreams},1651502969,0
{consumergroup=__strimzi-topic-operator-kstreams},1651502974,0
{consumergroup=__strimzi-topic-operator-kstreams},1651502979,0
{consumergroup=__strimzi-topic-operator-kstreams},1651502984,0
{consumergroup=__strimzi-topic-operator-kstreams},1651502989,0
{consumergroup=__strimzi-topic-operator-kstreams},1651502994,0
{consumergroup=__strimzi-topic-operator-kstreams},1651502999,0
{consumergroup=__strimzi-topic-operator-kstreams},1651503004,0
{consumergroup=__strimzi-topic-operator-kstreams},1651503009,0
{consumergroup=__strimzi-topic-operator-kstreams},1651503014,0
{consumergroup=__strimzi-topic-operator-kstreams},1651503019,0
{consumergroup=__strimzi-topic-operator-kstreams},1651503024,0
{consumergroup=__strimzi-topic-operator-kstreams},1651503029,0
{consumergroup=__strimzi-topic-operator-kstreams},1651503034,0
{consumergroup=__strimzi-topic-operator-kstreams},1651503039,0
{consumergroup=__strimzi-topic-operator-kstreams},1651503044,0
{consumergroup=__strimzi-topic-operator-kstreams},1651503049,0
{consumergroup=__strimzi-topic-operator-kstreams},1651503054,0
{consumergroup=__strimzi-topic-operator-kstreams},1651503059,0
{consumergroup=__strimzi-topic-operator-kstreams},1651503064,0
{consumergroup=__strimzi-topic-operator-kstreams},1651503069,0
{consumergroup=__strimzi-topic-operator-kstreams},1651503074,0
{consumergroup=__strimzi-topic-operator-kstreams},1651503079,0
{consumergroup=__strimzi-topic-operator-kstreams},1651503084,0
{consumergroup=__strimzi-topic-operator-kstreams},1651503089,0
{consumergroup=__strimzi-topic-operator-kstreams},1651503094,0
{consumergroup=__strimzi-topic-operator-kstreams},1651503099,0
{consumergroup=__strimzi-topic-operator-kstreams},1651503104,0
{consumergroup=__strimzi-topic-operator-kstreams},1651503109,0
{consumergroup=__strimzi-topic-operator-kstreams},1651503114,0
{consumergroup=__strimzi-topic-operator-kstreams},1651503119,0
{consumergroup=__strimzi-topic-operator-kstreams},1651503124,0
{consumergroup=__strimzi-topic-operator-kstreams},1651503129,0
{consumergroup=__strimzi-topic-operator-kstreams},1651503134,0
{consumergroup=__strimzi-topic-operator-kstreams},1651503139,0
{consumergroup=__strimzi-topic-operator-kstreams},1651503144,0
{consumergroup=__strimzi-topic-operator-kstreams},1651503149,0
{consumergroup=__strimzi-topic-operator-kstreams},1651503154,0
{consumergroup=__strimzi-topic-operator-kstreams},1651503159,0
{consumergroup=__strimzi-topic-operator-kstreams},1651503164,0
{consumergroup=__strimzi-topic-operator-kstreams},1651503169,0
{consumergroup=__strimzi-topic-operator-kstreams},1651503174,0
{consumergroup=__strimzi-topic-operator-kstreams},1651503179,0
{consumergroup=__strimzi-topic-operator-kstreams},1651503184,0
{consumergroup=__strimzi-topic-operator-kstreams},1651503189,0
{consumergroup=__strimzi-topic-operator-kstreams},1651503194,0
{consumergroup=__strimzi-topic-operator-kstreams},1651503199,0
{consumergroup=__strimzi-topic-operator-kstreams},1651503204,0
{consumergroup=__strimzi-topic-operator-kstreams},1651503209,0
{consumergroup=__strimzi-topic-operator-kstreams},1651503214,0
{consumergroup=__strimzi-topic-operator-kstreams},1651503219,0
{consumergroup=__strimzi-topic-operator-kstreams},1651503224,0
{consumergroup=__strimzi-topic-operator-kstreams},1651503229,0
{consumergroup=__strimzi-topic-operator-kstreams},1651503234,0
{consumergroup=__strimzi-topic-operator-kstreams},1651503239,0
{consumergroup=__strimzi-topic-operator-kstreams},1651503244,0
{consumergroup=__strimzi-topic-operator-kstreams},1651503249,0
{consumergroup=__strimzi-topic-operator-kstreams},1651503254,0
{consumergroup=__strimzi-topic-operator-kstreams},1651503259,0
{consumergroup=__strimzi-topic-operator-kstreams},1651503264,0
{consumergroup=__strimzi-topic-operator-kstreams},1651503269,0
{consumergroup=__strimzi-topic-operator-kstreams},1651503274,0
{consumergroup=__strimzi-topic-operator-kstreams},1651503279,0
{consumergroup=__strimzi-topic-operator-kstreams},1651503284,0
{consumergroup=__strimzi-topic-operator-kstreams},1651503289,0
{consumergroup=__strimzi-topic-operator-kstreams},1651503294,0
{consumergroup=trace-service},1651502899,41788
{consumergroup=trace-service},1651502904,41788
{consumergroup=trace-service},1651502909,41788
{consumergroup=trace-service},1651502914,38364
{consumergroup=trace-service},1651502919,38364
{consumergroup=trace-service},1651502924,38364
{consumergroup=trace-service},1651502929,82435
{consumergroup=trace-service},1651502934,82435
{consumergroup=trace-service},1651502939,82435
{consumergroup=trace-service},1651502944,162062
{consumergroup=trace-service},1651502949,162062
{consumergroup=trace-service},1651502954,162062
{consumergroup=trace-service},1651502959,84802
{consumergroup=trace-service},1651502964,84802
{consumergroup=trace-service},1651502969,84802
{consumergroup=trace-service},1651502974,17865
{consumergroup=trace-service},1651502979,17865
{consumergroup=trace-service},1651502984,17865
{consumergroup=trace-service},1651502989,55705
{consumergroup=trace-service},1651502994,55705
{consumergroup=trace-service},1651502999,55705
{consumergroup=trace-service},1651503004,22418
{consumergroup=trace-service},1651503009,22418
{consumergroup=trace-service},1651503014,22418
{consumergroup=trace-service},1651503019,59028
{consumergroup=trace-service},1651503024,59028
{consumergroup=trace-service},1651503029,59028
{consumergroup=trace-service},1651503034,81754
{consumergroup=trace-service},1651503039,81754
{consumergroup=trace-service},1651503044,81754
{consumergroup=trace-service},1651503049,56099
{consumergroup=trace-service},1651503054,56099
{consumergroup=trace-service},1651503059,56099
{consumergroup=trace-service},1651503064,29834
{consumergroup=trace-service},1651503069,29834
{consumergroup=trace-service},1651503074,29834
{consumergroup=trace-service},1651503079,56639
{consumergroup=trace-service},1651503084,56639
{consumergroup=trace-service},1651503089,56639
{consumergroup=trace-service},1651503094,27850
{consumergroup=trace-service},1651503099,27850
{consumergroup=trace-service},1651503104,27850
{consumergroup=trace-service},1651503109,74748
{consumergroup=trace-service},1651503114,74748
{consumergroup=trace-service},1651503119,74748
{consumergroup=trace-service},1651503124,151799
{consumergroup=trace-service},1651503129,151799
{consumergroup=trace-service},1651503134,151799
{consumergroup=trace-service},1651503139,88789
{consumergroup=trace-service},1651503144,88789
{consumergroup=trace-service},1651503149,88789
{consumergroup=trace-service},1651503154,23885
{consumergroup=trace-service},1651503159,23885
{consumergroup=trace-service},1651503164,23885
{consumergroup=trace-service},1651503169,57097
{consumergroup=trace-service},1651503174,57097
{consumergroup=trace-service},1651503179,57097
{consumergroup=trace-service},1651503184,18805
{consumergroup=trace-service},1651503189,18805
{consumergroup=trace-service},1651503194,18805
{consumergroup=trace-service},1651503199,63690
{consumergroup=trace-service},1651503204,63690
{consumergroup=trace-service},1651503209,63690
{consumergroup=trace-service},1651503214,28590
{consumergroup=trace-service},1651503219,28590
{consumergroup=trace-service},1651503224,28590
{consumergroup=trace-service},1651503229,61056
{consumergroup=trace-service},1651503234,61056
{consumergroup=trace-service},1651503239,61056
{consumergroup=trace-service},1651503244,16848
{consumergroup=trace-service},1651503249,16848
{consumergroup=trace-service},1651503254,16848
{consumergroup=trace-service},1651503259,63395
{consumergroup=trace-service},1651503264,63395
{consumergroup=trace-service},1651503269,63395
{consumergroup=trace-service},1651503274,55465
{consumergroup=trace-service},1651503279,55465
{consumergroup=trace-service},1651503284,55465
{consumergroup=trace-service},1651503289,60515
{consumergroup=trace-service},1651503294,60515
{consumergroup=trace-token-events-consumer},1651502884,0
{consumergroup=trace-token-events-consumer},1651502889,0
{consumergroup=trace-token-events-consumer},1651502894,0
{consumergroup=trace-token-events-consumer},1651502899,0
{consumergroup=trace-token-events-consumer},1651502904,0
{consumergroup=trace-token-events-consumer},1651502909,0
{consumergroup=trace-token-events-consumer},1651502914,0
{consumergroup=trace-token-events-consumer},1651502919,0
{consumergroup=trace-token-events-consumer},1651502924,0
{consumergroup=trace-token-events-consumer},1651502929,0
{consumergroup=trace-token-events-consumer},1651502934,0
{consumergroup=trace-token-events-consumer},1651502939,0
{consumergroup=trace-token-events-consumer},1651502944,0
{consumergroup=trace-token-events-consumer},1651502949,0
{consumergroup=trace-token-events-consumer},1651502954,0
{consumergroup=trace-token-events-consumer},1651502959,0
{consumergroup=trace-token-events-consumer},1651502964,0
{consumergroup=trace-token-events-consumer},1651502969,0
{consumergroup=trace-token-events-consumer},1651502974,0
{consumergroup=trace-token-events-consumer},1651502979,0
{consumergroup=trace-token-events-consumer},1651502984,0
{consumergroup=trace-token-events-consumer},1651502989,0
{consumergroup=trace-token-events-consumer},1651502994,0
{consumergroup=trace-token-events-consumer},1651502999,0
{consumergroup=trace-token-events-consumer},1651503004,0
{consumergroup=trace-token-events-consumer},1651503009,0
{consumergroup=trace-token-events-consumer},1651503014,0
{consumergroup=trace-token-events-consumer},1651503019,0
{consumergroup=trace-token-events-consumer},1651503024,0
{consumergroup=trace-token-events-consumer},1651503029,0
{consumergroup=trace-token-events-consumer},1651503034,0
{consumergroup=trace-token-events-consumer},1651503039,0
{consumergroup=trace-token-events-consumer},1651503044,0
{consumergroup=trace-token-events-consumer},1651503049,0
{consumergroup=trace-token-events-consumer},1651503054,0
{consumergroup=trace-token-events-consumer},1651503059,0
{consumergroup=trace-token-events-consumer},1651503064,0
{consumergroup=trace-token-events-consumer},1651503069,0
{consumergroup=trace-token-events-consumer},1651503074,0
{consumergroup=trace-token-events-consumer},1651503079,0
{consumergroup=trace-token-events-consumer},1651503084,0
{consumergroup=trace-token-events-consumer},1651503089,0
{consumergroup=trace-token-events-consumer},1651503094,0
{consumergroup=trace-token-events-consumer},1651503099,0
{consumergroup=trace-token-events-consumer},1651503104,0
{consumergroup=trace-token-events-consumer},1651503109,0
{consumergroup=trace-token-events-consumer},1651503114,0
{consumergroup=trace-token-events-consumer},1651503119,0
{consumergroup=trace-token-events-consumer},1651503124,0
{consumergroup=trace-token-events-consumer},1651503129,0
{consumergroup=trace-token-events-consumer},1651503134,0
{consumergroup=trace-token-events-consumer},1651503139,0
{consumergroup=trace-token-events-consumer},1651503144,0
{consumergroup=trace-token-events-consumer},1651503149,0
{consumergroup=trace-token-events-consumer},1651503154,0
{consumergroup=trace-token-events-consumer},1651503159,0
{consumergroup=trace-token-events-consumer},1651503164,0
{consumergroup=trace-token-events-consumer},1651503169,0
{consumergroup=trace-token-events-consumer},1651503174,0
{consumergroup=trace-token-events-consumer},1651503179,0
{consumergroup=trace-token-events-consumer},1651503184,0
{consumergroup=trace-token-events-consumer},1651503189,0
{consumergroup=trace-token-events-consumer},1651503194,0
{consumergroup=trace-token-events-consumer},1651503199,0
{consumergroup=trace-token-events-consumer},1651503204,0
{consumergroup=trace-token-events-consumer},1651503209,0
{consumergroup=trace-token-events-consumer},1651503214,0
{consumergroup=trace-token-events-consumer},1651503219,0
{consumergroup=trace-token-events-consumer},1651503224,0
{consumergroup=trace-token-events-consumer},1651503229,0
{consumergroup=trace-token-events-consumer},1651503234,0
{consumergroup=trace-token-events-consumer},1651503239,0
{consumergroup=trace-token-events-consumer},1651503244,0
{consumergroup=trace-token-events-consumer},1651503249,0
{consumergroup=trace-token-events-consumer},1651503254,0
{consumergroup=trace-token-events-consumer},1651503259,0
{consumergroup=trace-token-events-consumer},1651503264,0
{consumergroup=trace-token-events-consumer},1651503269,0
{consumergroup=trace-token-events-consumer},1651503274,0
{consumergroup=trace-token-events-consumer},1651503279,0
{consumergroup=trace-token-events-consumer},1651503284,0
{consumergroup=trace-token-events-consumer},1651503289,0
{consumergroup=trace-token-events-consumer},1651503294,0
