labels,timestamp,value
{job=theodolite-stu200776/trace-isolated-podmonitor},1651493223,0
{job=theodolite-stu200776/trace-isolated-podmonitor},1651493228,0
{job=theodolite-stu200776/trace-isolated-podmonitor},1651493233,0
{job=theodolite-stu200776/trace-isolated-podmonitor},1651493238,0
{job=theodolite-stu200776/trace-isolated-podmonitor},1651493243,0
{job=theodolite-stu200776/trace-isolated-podmonitor},1651493248,0
{job=theodolite-stu200776/trace-isolated-podmonitor},1651493253,0
{job=theodolite-stu200776/trace-isolated-podmonitor},1651493258,0
{job=theodolite-stu200776/trace-isolated-podmonitor},1651493263,0
{job=theodolite-stu200776/trace-isolated-podmonitor},1651493268,0
{job=theodolite-stu200776/trace-isolated-podmonitor},1651493273,0
{job=theodolite-stu200776/trace-isolated-podmonitor},1651493278,0
{job=theodolite-stu200776/trace-isolated-podmonitor},1651493283,0
{job=theodolite-stu200776/trace-isolated-podmonitor},1651493288,0
{job=theodolite-stu200776/trace-isolated-podmonitor},1651493293,0
{job=theodolite-stu200776/trace-isolated-podmonitor},1651493298,0
{job=theodolite-stu200776/trace-isolated-podmonitor},1651493303,0
{job=theodolite-stu200776/trace-isolated-podmonitor},1651493308,0
{job=theodolite-stu200776/trace-isolated-podmonitor},1651493313,0
{job=theodolite-stu200776/trace-isolated-podmonitor},1651493318,0
{job=theodolite-stu200776/trace-isolated-podmonitor},1651493323,0
{job=theodolite-stu200776/trace-isolated-podmonitor},1651493328,0
{job=theodolite-stu200776/trace-isolated-podmonitor},1651493333,0
{job=theodolite-stu200776/trace-isolated-podmonitor},1651493338,0
{job=theodolite-stu200776/trace-isolated-podmonitor},1651493343,29.23135638276475
{job=theodolite-stu200776/trace-isolated-podmonitor},1651493348,110.10124675742604
{job=theodolite-stu200776/trace-isolated-podmonitor},1651493353,204.47412333772402
{job=theodolite-stu200776/trace-isolated-podmonitor},1651493358,212.72360916197388
{job=theodolite-stu200776/trace-isolated-podmonitor},1651493363,190.76606946602976
{job=theodolite-stu200776/trace-isolated-podmonitor},1651493368,174.57070265502608
{job=theodolite-stu200776/trace-isolated-podmonitor},1651493373,184.7721407025444
{job=theodolite-stu200776/trace-isolated-podmonitor},1651493378,226.40642349305904
{job=theodolite-stu200776/trace-isolated-podmonitor},1651493383,241.99471578959637
{job=theodolite-stu200776/trace-isolated-podmonitor},1651493388,216.55569076734906
{job=theodolite-stu200776/trace-isolated-podmonitor},1651493393,190.76836714240153
{job=theodolite-stu200776/trace-isolated-podmonitor},1651493398,174.5751473667519
{job=theodolite-stu200776/trace-isolated-podmonitor},1651493403,124.47533278765437
{job=theodolite-stu200776/trace-isolated-podmonitor},1651493408,51.549285407129084
{job=theodolite-stu200776/trace-isolated-podmonitor},1651493413,0
{job=theodolite-stu200776/trace-isolated-podmonitor},1651493418,0
{job=theodolite-stu200776/trace-isolated-podmonitor},1651493423,0
{job=theodolite-stu200776/trace-isolated-podmonitor},1651493428,0
{job=theodolite-stu200776/trace-isolated-podmonitor},1651493433,0
{job=theodolite-stu200776/trace-isolated-podmonitor},1651493438,0
{job=theodolite-stu200776/trace-isolated-podmonitor},1651493443,0
{job=theodolite-stu200776/trace-isolated-podmonitor},1651493448,0
{job=theodolite-stu200776/trace-isolated-podmonitor},1651493453,0
{job=theodolite-stu200776/trace-isolated-podmonitor},1651493458,0
{job=theodolite-stu200776/trace-isolated-podmonitor},1651493463,0
{job=theodolite-stu200776/trace-isolated-podmonitor},1651493468,0
{job=theodolite-stu200776/trace-isolated-podmonitor},1651493473,0
{job=theodolite-stu200776/trace-isolated-podmonitor},1651493478,0
{job=theodolite-stu200776/trace-isolated-podmonitor},1651493483,0
{job=theodolite-stu200776/trace-isolated-podmonitor},1651493488,0
{job=theodolite-stu200776/trace-isolated-podmonitor},1651493493,0
{job=theodolite-stu200776/trace-isolated-podmonitor},1651493498,0
{job=theodolite-stu200776/trace-isolated-podmonitor},1651493503,0
{job=theodolite-stu200776/trace-isolated-podmonitor},1651493508,0
{job=theodolite-stu200776/trace-isolated-podmonitor},1651493513,0
{job=theodolite-stu200776/trace-isolated-podmonitor},1651493518,0
{job=theodolite-stu200776/trace-isolated-podmonitor},1651493523,0
{job=theodolite-stu200776/trace-isolated-podmonitor},1651493528,0
{job=theodolite-stu200776/trace-isolated-podmonitor},1651493533,0
{job=theodolite-stu200776/trace-isolated-podmonitor},1651493538,0
{job=theodolite-stu200776/trace-isolated-podmonitor},1651493543,0
{job=theodolite-stu200776/trace-isolated-podmonitor},1651493548,0
{job=theodolite-stu200776/trace-isolated-podmonitor},1651493553,0
{job=theodolite-stu200776/trace-isolated-podmonitor},1651493558,0
{job=theodolite-stu200776/trace-isolated-podmonitor},1651493563,0
{job=theodolite-stu200776/trace-isolated-podmonitor},1651493568,0
{job=theodolite-stu200776/trace-isolated-podmonitor},1651493573,0
{job=theodolite-stu200776/trace-isolated-podmonitor},1651493578,0
{job=theodolite-stu200776/trace-isolated-podmonitor},1651493583,0
{job=theodolite-stu200776/trace-isolated-podmonitor},1651493588,0
{job=theodolite-stu200776/trace-isolated-podmonitor},1651493593,0
