labels,timestamp,value
{job=theodolite-stu200776/trace-isolated-podmonitor},1651494771,0
{job=theodolite-stu200776/trace-isolated-podmonitor},1651494776,0
{job=theodolite-stu200776/trace-isolated-podmonitor},1651494781,0
{job=theodolite-stu200776/trace-isolated-podmonitor},1651494786,0
{job=theodolite-stu200776/trace-isolated-podmonitor},1651494791,0
{job=theodolite-stu200776/trace-isolated-podmonitor},1651494796,0
{job=theodolite-stu200776/trace-isolated-podmonitor},1651494801,0
{job=theodolite-stu200776/trace-isolated-podmonitor},1651494806,0
{job=theodolite-stu200776/trace-isolated-podmonitor},1651494811,0
{job=theodolite-stu200776/trace-isolated-podmonitor},1651494816,0
{job=theodolite-stu200776/trace-isolated-podmonitor},1651494821,0
{job=theodolite-stu200776/trace-isolated-podmonitor},1651494826,0
{job=theodolite-stu200776/trace-isolated-podmonitor},1651494831,0
{job=theodolite-stu200776/trace-isolated-podmonitor},1651494836,0
{job=theodolite-stu200776/trace-isolated-podmonitor},1651494841,0
{job=theodolite-stu200776/trace-isolated-podmonitor},1651494846,0
{job=theodolite-stu200776/trace-isolated-podmonitor},1651494851,0
{job=theodolite-stu200776/trace-isolated-podmonitor},1651494856,0
{job=theodolite-stu200776/trace-isolated-podmonitor},1651494861,0
{job=theodolite-stu200776/trace-isolated-podmonitor},1651494866,0
{job=theodolite-stu200776/trace-isolated-podmonitor},1651494871,0
{job=theodolite-stu200776/trace-isolated-podmonitor},1651494876,0
{job=theodolite-stu200776/trace-isolated-podmonitor},1651494881,0
{job=theodolite-stu200776/trace-isolated-podmonitor},1651494886,0
{job=theodolite-stu200776/trace-isolated-podmonitor},1651494891,0
{job=theodolite-stu200776/trace-isolated-podmonitor},1651494896,0
{job=theodolite-stu200776/trace-isolated-podmonitor},1651494901,0
{job=theodolite-stu200776/trace-isolated-podmonitor},1651494906,0
{job=theodolite-stu200776/trace-isolated-podmonitor},1651494911,0
{job=theodolite-stu200776/trace-isolated-podmonitor},1651494916,0
{job=theodolite-stu200776/trace-isolated-podmonitor},1651494921,0
{job=theodolite-stu200776/trace-isolated-podmonitor},1651494926,0
{job=theodolite-stu200776/trace-isolated-podmonitor},1651494931,0
{job=theodolite-stu200776/trace-isolated-podmonitor},1651494936,0
{job=theodolite-stu200776/trace-isolated-podmonitor},1651494941,0
{job=theodolite-stu200776/trace-isolated-podmonitor},1651494946,0
{job=theodolite-stu200776/trace-isolated-podmonitor},1651494951,0
{job=theodolite-stu200776/trace-isolated-podmonitor},1651494956,0
{job=theodolite-stu200776/trace-isolated-podmonitor},1651494961,0
{job=theodolite-stu200776/trace-isolated-podmonitor},1651494966,0
{job=theodolite-stu200776/trace-isolated-podmonitor},1651494971,0
{job=theodolite-stu200776/trace-isolated-podmonitor},1651494976,0
{job=theodolite-stu200776/trace-isolated-podmonitor},1651494981,0
{job=theodolite-stu200776/trace-isolated-podmonitor},1651494986,0
{job=theodolite-stu200776/trace-isolated-podmonitor},1651494991,0
{job=theodolite-stu200776/trace-isolated-podmonitor},1651494996,0
{job=theodolite-stu200776/trace-isolated-podmonitor},1651495001,0
{job=theodolite-stu200776/trace-isolated-podmonitor},1651495006,0
{job=theodolite-stu200776/trace-isolated-podmonitor},1651495011,0
{job=theodolite-stu200776/trace-isolated-podmonitor},1651495016,0
{job=theodolite-stu200776/trace-isolated-podmonitor},1651495021,0
{job=theodolite-stu200776/trace-isolated-podmonitor},1651495026,0
{job=theodolite-stu200776/trace-isolated-podmonitor},1651495031,0
{job=theodolite-stu200776/trace-isolated-podmonitor},1651495036,0
{job=theodolite-stu200776/trace-isolated-podmonitor},1651495041,0
{job=theodolite-stu200776/trace-isolated-podmonitor},1651495046,0
{job=theodolite-stu200776/trace-isolated-podmonitor},1651495051,0
{job=theodolite-stu200776/trace-isolated-podmonitor},1651495056,0
{job=theodolite-stu200776/trace-isolated-podmonitor},1651495061,0
{job=theodolite-stu200776/trace-isolated-podmonitor},1651495066,0
{job=theodolite-stu200776/trace-isolated-podmonitor},1651495071,0
{job=theodolite-stu200776/trace-isolated-podmonitor},1651495076,0
{job=theodolite-stu200776/trace-isolated-podmonitor},1651495081,0
{job=theodolite-stu200776/trace-isolated-podmonitor},1651495086,0
{job=theodolite-stu200776/trace-isolated-podmonitor},1651495091,0
{job=theodolite-stu200776/trace-isolated-podmonitor},1651495096,0
{job=theodolite-stu200776/trace-isolated-podmonitor},1651495101,0
{job=theodolite-stu200776/trace-isolated-podmonitor},1651495106,0
{job=theodolite-stu200776/trace-isolated-podmonitor},1651495111,0
{job=theodolite-stu200776/trace-isolated-podmonitor},1651495116,0
{job=theodolite-stu200776/trace-isolated-podmonitor},1651495121,0
{job=theodolite-stu200776/trace-isolated-podmonitor},1651495126,0
{job=theodolite-stu200776/trace-isolated-podmonitor},1651495131,0
{job=theodolite-stu200776/trace-isolated-podmonitor},1651495136,0
{job=theodolite-stu200776/trace-isolated-podmonitor},1651495141,0
