labels,timestamp,value
{consumergroup=__strimzi-topic-operator-kstreams},1651514697,3
{consumergroup=__strimzi-topic-operator-kstreams},1651514702,3
{consumergroup=__strimzi-topic-operator-kstreams},1651514707,3
{consumergroup=__strimzi-topic-operator-kstreams},1651514712,0
{consumergroup=__strimzi-topic-operator-kstreams},1651514717,0
{consumergroup=__strimzi-topic-operator-kstreams},1651514722,0
{consumergroup=__strimzi-topic-operator-kstreams},1651514727,3
{consumergroup=__strimzi-topic-operator-kstreams},1651514732,3
{consumergroup=__strimzi-topic-operator-kstreams},1651514737,3
{consumergroup=__strimzi-topic-operator-kstreams},1651514742,0
{consumergroup=__strimzi-topic-operator-kstreams},1651514747,0
{consumergroup=__strimzi-topic-operator-kstreams},1651514752,0
{consumergroup=__strimzi-topic-operator-kstreams},1651514757,0
{consumergroup=__strimzi-topic-operator-kstreams},1651514762,0
{consumergroup=__strimzi-topic-operator-kstreams},1651514767,0
{consumergroup=__strimzi-topic-operator-kstreams},1651514772,0
{consumergroup=__strimzi-topic-operator-kstreams},1651514777,0
{consumergroup=__strimzi-topic-operator-kstreams},1651514782,0
{consumergroup=__strimzi-topic-operator-kstreams},1651514787,0
{consumergroup=__strimzi-topic-operator-kstreams},1651514792,0
{consumergroup=__strimzi-topic-operator-kstreams},1651514797,0
{consumergroup=__strimzi-topic-operator-kstreams},1651514802,0
{consumergroup=__strimzi-topic-operator-kstreams},1651514807,0
{consumergroup=__strimzi-topic-operator-kstreams},1651514812,0
{consumergroup=__strimzi-topic-operator-kstreams},1651514817,0
{consumergroup=__strimzi-topic-operator-kstreams},1651514822,0
{consumergroup=__strimzi-topic-operator-kstreams},1651514827,0
{consumergroup=__strimzi-topic-operator-kstreams},1651514832,0
{consumergroup=__strimzi-topic-operator-kstreams},1651514837,0
{consumergroup=__strimzi-topic-operator-kstreams},1651514842,0
{consumergroup=__strimzi-topic-operator-kstreams},1651514847,0
{consumergroup=__strimzi-topic-operator-kstreams},1651514852,0
{consumergroup=__strimzi-topic-operator-kstreams},1651514857,0
{consumergroup=__strimzi-topic-operator-kstreams},1651514862,0
{consumergroup=__strimzi-topic-operator-kstreams},1651514867,0
{consumergroup=__strimzi-topic-operator-kstreams},1651514872,0
{consumergroup=__strimzi-topic-operator-kstreams},1651514877,0
{consumergroup=__strimzi-topic-operator-kstreams},1651514882,0
{consumergroup=__strimzi-topic-operator-kstreams},1651514887,0
{consumergroup=__strimzi-topic-operator-kstreams},1651514892,0
{consumergroup=__strimzi-topic-operator-kstreams},1651514897,0
{consumergroup=__strimzi-topic-operator-kstreams},1651514902,0
{consumergroup=__strimzi-topic-operator-kstreams},1651514907,0
{consumergroup=__strimzi-topic-operator-kstreams},1651514912,0
{consumergroup=__strimzi-topic-operator-kstreams},1651514917,0
{consumergroup=__strimzi-topic-operator-kstreams},1651514922,0
{consumergroup=__strimzi-topic-operator-kstreams},1651514927,0
{consumergroup=__strimzi-topic-operator-kstreams},1651514932,0
{consumergroup=__strimzi-topic-operator-kstreams},1651514937,0
{consumergroup=__strimzi-topic-operator-kstreams},1651514942,0
{consumergroup=__strimzi-topic-operator-kstreams},1651514947,0
{consumergroup=__strimzi-topic-operator-kstreams},1651514952,0
{consumergroup=__strimzi-topic-operator-kstreams},1651514957,0
{consumergroup=__strimzi-topic-operator-kstreams},1651514962,0
{consumergroup=__strimzi-topic-operator-kstreams},1651514967,0
{consumergroup=__strimzi-topic-operator-kstreams},1651514972,0
{consumergroup=__strimzi-topic-operator-kstreams},1651514977,0
{consumergroup=__strimzi-topic-operator-kstreams},1651514982,0
{consumergroup=__strimzi-topic-operator-kstreams},1651514987,0
{consumergroup=__strimzi-topic-operator-kstreams},1651514992,0
{consumergroup=__strimzi-topic-operator-kstreams},1651514997,0
{consumergroup=__strimzi-topic-operator-kstreams},1651515002,0
{consumergroup=__strimzi-topic-operator-kstreams},1651515007,0
{consumergroup=__strimzi-topic-operator-kstreams},1651515012,0
{consumergroup=__strimzi-topic-operator-kstreams},1651515017,0
{consumergroup=__strimzi-topic-operator-kstreams},1651515022,0
{consumergroup=__strimzi-topic-operator-kstreams},1651515027,0
{consumergroup=__strimzi-topic-operator-kstreams},1651515032,0
{consumergroup=__strimzi-topic-operator-kstreams},1651515037,0
{consumergroup=__strimzi-topic-operator-kstreams},1651515042,0
{consumergroup=__strimzi-topic-operator-kstreams},1651515047,0
{consumergroup=__strimzi-topic-operator-kstreams},1651515052,0
{consumergroup=__strimzi-topic-operator-kstreams},1651515057,0
{consumergroup=__strimzi-topic-operator-kstreams},1651515062,0
{consumergroup=__strimzi-topic-operator-kstreams},1651515067,0
{consumergroup=__strimzi-topic-operator-kstreams},1651515072,0
{consumergroup=__strimzi-topic-operator-kstreams},1651515077,0
{consumergroup=__strimzi-topic-operator-kstreams},1651515082,0
{consumergroup=__strimzi-topic-operator-kstreams},1651515087,0
{consumergroup=__strimzi-topic-operator-kstreams},1651515092,0
{consumergroup=__strimzi-topic-operator-kstreams},1651515097,0
{consumergroup=__strimzi-topic-operator-kstreams},1651515102,0
{consumergroup=__strimzi-topic-operator-kstreams},1651515107,0
{consumergroup=__strimzi-topic-operator-kstreams},1651515112,0
{consumergroup=__strimzi-topic-operator-kstreams},1651515117,0
{consumergroup=__strimzi-topic-operator-kstreams},1651515122,0
{consumergroup=__strimzi-topic-operator-kstreams},1651515127,0
{consumergroup=__strimzi-topic-operator-kstreams},1651515132,0
{consumergroup=__strimzi-topic-operator-kstreams},1651515137,0
{consumergroup=__strimzi-topic-operator-kstreams},1651515142,0
{consumergroup=trace-service},1651514742,37
{consumergroup=trace-service},1651514747,37
{consumergroup=trace-service},1651514752,37
{consumergroup=trace-service},1651514757,10050
{consumergroup=trace-service},1651514762,10050
{consumergroup=trace-service},1651514767,10050
{consumergroup=trace-service},1651514772,71962
{consumergroup=trace-service},1651514777,71962
{consumergroup=trace-service},1651514782,71962
{consumergroup=trace-service},1651514787,113556
{consumergroup=trace-service},1651514792,113556
{consumergroup=trace-service},1651514797,113556
{consumergroup=trace-service},1651514802,60659
{consumergroup=trace-service},1651514807,60659
{consumergroup=trace-service},1651514812,60659
{consumergroup=trace-service},1651514817,164685
{consumergroup=trace-service},1651514822,164685
{consumergroup=trace-service},1651514827,164685
{consumergroup=trace-service},1651514832,60115
{consumergroup=trace-service},1651514837,60115
{consumergroup=trace-service},1651514842,60115
{consumergroup=trace-service},1651514847,175402
{consumergroup=trace-service},1651514852,175402
{consumergroup=trace-service},1651514857,175402
{consumergroup=trace-service},1651514862,51147
{consumergroup=trace-service},1651514867,51147
{consumergroup=trace-service},1651514872,51147
{consumergroup=trace-service},1651514877,124437
{consumergroup=trace-service},1651514882,124437
{consumergroup=trace-service},1651514887,124437
{consumergroup=trace-service},1651514892,49422
{consumergroup=trace-service},1651514897,49422
{consumergroup=trace-service},1651514902,49422
{consumergroup=trace-service},1651514907,141640
{consumergroup=trace-service},1651514912,141640
{consumergroup=trace-service},1651514917,141640
{consumergroup=trace-service},1651514922,57306
{consumergroup=trace-service},1651514927,57306
{consumergroup=trace-service},1651514932,57306
{consumergroup=trace-service},1651514937,142986
{consumergroup=trace-service},1651514942,142986
{consumergroup=trace-service},1651514947,142986
{consumergroup=trace-service},1651514952,57649
{consumergroup=trace-service},1651514957,57649
{consumergroup=trace-service},1651514962,57649
{consumergroup=trace-service},1651514967,152579
{consumergroup=trace-service},1651514972,152579
{consumergroup=trace-service},1651514977,152579
{consumergroup=trace-service},1651514982,52807
{consumergroup=trace-service},1651514987,52807
{consumergroup=trace-service},1651514992,52807
{consumergroup=trace-service},1651514997,123950
{consumergroup=trace-service},1651515002,123950
{consumergroup=trace-service},1651515007,123950
{consumergroup=trace-service},1651515012,51741
{consumergroup=trace-service},1651515017,51741
{consumergroup=trace-service},1651515022,51741
{consumergroup=trace-service},1651515027,104798
{consumergroup=trace-service},1651515032,104798
{consumergroup=trace-service},1651515037,104798
{consumergroup=trace-service},1651515042,58163
{consumergroup=trace-service},1651515047,58163
{consumergroup=trace-service},1651515052,58163
{consumergroup=trace-service},1651515057,100381
{consumergroup=trace-service},1651515062,100381
{consumergroup=trace-service},1651515067,100381
{consumergroup=trace-service},1651515072,152659
{consumergroup=trace-service},1651515077,152659
{consumergroup=trace-service},1651515082,152659
{consumergroup=trace-service},1651515087,165604
{consumergroup=trace-service},1651515092,165604
{consumergroup=trace-service},1651515097,165604
{consumergroup=trace-service},1651515102,56972
{consumergroup=trace-service},1651515107,56972
{consumergroup=trace-service},1651515112,56972
{consumergroup=trace-service},1651515117,120779
{consumergroup=trace-service},1651515122,120779
{consumergroup=trace-service},1651515127,120779
{consumergroup=trace-service},1651515132,127749
{consumergroup=trace-service},1651515137,127749
{consumergroup=trace-service},1651515142,127749
{consumergroup=trace-token-events-consumer},1651514742,0
{consumergroup=trace-token-events-consumer},1651514747,0
{consumergroup=trace-token-events-consumer},1651514752,0
{consumergroup=trace-token-events-consumer},1651514757,0
{consumergroup=trace-token-events-consumer},1651514762,0
{consumergroup=trace-token-events-consumer},1651514767,0
{consumergroup=trace-token-events-consumer},1651514772,0
{consumergroup=trace-token-events-consumer},1651514777,0
{consumergroup=trace-token-events-consumer},1651514782,0
{consumergroup=trace-token-events-consumer},1651514787,0
{consumergroup=trace-token-events-consumer},1651514792,0
{consumergroup=trace-token-events-consumer},1651514797,0
{consumergroup=trace-token-events-consumer},1651514802,0
{consumergroup=trace-token-events-consumer},1651514807,0
{consumergroup=trace-token-events-consumer},1651514812,0
{consumergroup=trace-token-events-consumer},1651514817,0
{consumergroup=trace-token-events-consumer},1651514822,0
{consumergroup=trace-token-events-consumer},1651514827,0
{consumergroup=trace-token-events-consumer},1651514832,0
{consumergroup=trace-token-events-consumer},1651514837,0
{consumergroup=trace-token-events-consumer},1651514842,0
{consumergroup=trace-token-events-consumer},1651514847,0
{consumergroup=trace-token-events-consumer},1651514852,0
{consumergroup=trace-token-events-consumer},1651514857,0
{consumergroup=trace-token-events-consumer},1651514862,0
{consumergroup=trace-token-events-consumer},1651514867,0
{consumergroup=trace-token-events-consumer},1651514872,0
{consumergroup=trace-token-events-consumer},1651514877,0
{consumergroup=trace-token-events-consumer},1651514882,0
{consumergroup=trace-token-events-consumer},1651514887,0
{consumergroup=trace-token-events-consumer},1651514892,0
{consumergroup=trace-token-events-consumer},1651514897,0
{consumergroup=trace-token-events-consumer},1651514902,0
{consumergroup=trace-token-events-consumer},1651514907,0
{consumergroup=trace-token-events-consumer},1651514912,0
{consumergroup=trace-token-events-consumer},1651514917,0
{consumergroup=trace-token-events-consumer},1651514922,0
{consumergroup=trace-token-events-consumer},1651514927,0
{consumergroup=trace-token-events-consumer},1651514932,0
{consumergroup=trace-token-events-consumer},1651514937,0
{consumergroup=trace-token-events-consumer},1651514942,0
{consumergroup=trace-token-events-consumer},1651514947,0
{consumergroup=trace-token-events-consumer},1651514952,0
{consumergroup=trace-token-events-consumer},1651514957,0
{consumergroup=trace-token-events-consumer},1651514962,0
{consumergroup=trace-token-events-consumer},1651514967,0
{consumergroup=trace-token-events-consumer},1651514972,0
{consumergroup=trace-token-events-consumer},1651514977,0
{consumergroup=trace-token-events-consumer},1651514982,0
{consumergroup=trace-token-events-consumer},1651514987,0
{consumergroup=trace-token-events-consumer},1651514992,0
{consumergroup=trace-token-events-consumer},1651514997,0
{consumergroup=trace-token-events-consumer},1651515002,0
{consumergroup=trace-token-events-consumer},1651515007,0
{consumergroup=trace-token-events-consumer},1651515012,0
{consumergroup=trace-token-events-consumer},1651515017,0
{consumergroup=trace-token-events-consumer},1651515022,0
{consumergroup=trace-token-events-consumer},1651515027,0
{consumergroup=trace-token-events-consumer},1651515032,0
{consumergroup=trace-token-events-consumer},1651515037,0
{consumergroup=trace-token-events-consumer},1651515042,0
{consumergroup=trace-token-events-consumer},1651515047,0
{consumergroup=trace-token-events-consumer},1651515052,0
{consumergroup=trace-token-events-consumer},1651515057,0
{consumergroup=trace-token-events-consumer},1651515062,0
{consumergroup=trace-token-events-consumer},1651515067,0
{consumergroup=trace-token-events-consumer},1651515072,0
{consumergroup=trace-token-events-consumer},1651515077,0
{consumergroup=trace-token-events-consumer},1651515082,0
{consumergroup=trace-token-events-consumer},1651515087,0
{consumergroup=trace-token-events-consumer},1651515092,0
{consumergroup=trace-token-events-consumer},1651515097,0
{consumergroup=trace-token-events-consumer},1651515102,0
{consumergroup=trace-token-events-consumer},1651515107,0
{consumergroup=trace-token-events-consumer},1651515112,0
{consumergroup=trace-token-events-consumer},1651515117,0
{consumergroup=trace-token-events-consumer},1651515122,0
{consumergroup=trace-token-events-consumer},1651515127,0
{consumergroup=trace-token-events-consumer},1651515132,0
{consumergroup=trace-token-events-consumer},1651515137,0
{consumergroup=trace-token-events-consumer},1651515142,0
