labels,timestamp,value
{job=theodolite-stu200776/trace-isolated-podmonitor},1651497869,0
{job=theodolite-stu200776/trace-isolated-podmonitor},1651497874,0
{job=theodolite-stu200776/trace-isolated-podmonitor},1651497879,0
{job=theodolite-stu200776/trace-isolated-podmonitor},1651497884,0
{job=theodolite-stu200776/trace-isolated-podmonitor},1651497889,0
{job=theodolite-stu200776/trace-isolated-podmonitor},1651497894,0
{job=theodolite-stu200776/trace-isolated-podmonitor},1651497899,0
{job=theodolite-stu200776/trace-isolated-podmonitor},1651497904,0
{job=theodolite-stu200776/trace-isolated-podmonitor},1651497909,0
{job=theodolite-stu200776/trace-isolated-podmonitor},1651497914,0
{job=theodolite-stu200776/trace-isolated-podmonitor},1651497919,0
{job=theodolite-stu200776/trace-isolated-podmonitor},1651497924,0
{job=theodolite-stu200776/trace-isolated-podmonitor},1651497929,0
{job=theodolite-stu200776/trace-isolated-podmonitor},1651497934,0
{job=theodolite-stu200776/trace-isolated-podmonitor},1651497939,0
{job=theodolite-stu200776/trace-isolated-podmonitor},1651497944,0
{job=theodolite-stu200776/trace-isolated-podmonitor},1651497949,0
{job=theodolite-stu200776/trace-isolated-podmonitor},1651497954,0
{job=theodolite-stu200776/trace-isolated-podmonitor},1651497959,0
{job=theodolite-stu200776/trace-isolated-podmonitor},1651497964,0
{job=theodolite-stu200776/trace-isolated-podmonitor},1651497969,0
{job=theodolite-stu200776/trace-isolated-podmonitor},1651497974,0
{job=theodolite-stu200776/trace-isolated-podmonitor},1651497979,0
{job=theodolite-stu200776/trace-isolated-podmonitor},1651497984,0
{job=theodolite-stu200776/trace-isolated-podmonitor},1651497989,0
{job=theodolite-stu200776/trace-isolated-podmonitor},1651497994,0
{job=theodolite-stu200776/trace-isolated-podmonitor},1651497999,0
{job=theodolite-stu200776/trace-isolated-podmonitor},1651498004,0
{job=theodolite-stu200776/trace-isolated-podmonitor},1651498009,0
{job=theodolite-stu200776/trace-isolated-podmonitor},1651498014,0
{job=theodolite-stu200776/trace-isolated-podmonitor},1651498019,0
{job=theodolite-stu200776/trace-isolated-podmonitor},1651498024,0
{job=theodolite-stu200776/trace-isolated-podmonitor},1651498029,0
{job=theodolite-stu200776/trace-isolated-podmonitor},1651498034,0
{job=theodolite-stu200776/trace-isolated-podmonitor},1651498039,0
{job=theodolite-stu200776/trace-isolated-podmonitor},1651498044,0
{job=theodolite-stu200776/trace-isolated-podmonitor},1651498049,0
{job=theodolite-stu200776/trace-isolated-podmonitor},1651498054,0
{job=theodolite-stu200776/trace-isolated-podmonitor},1651498059,0
{job=theodolite-stu200776/trace-isolated-podmonitor},1651498064,0
{job=theodolite-stu200776/trace-isolated-podmonitor},1651498069,0
{job=theodolite-stu200776/trace-isolated-podmonitor},1651498074,0
{job=theodolite-stu200776/trace-isolated-podmonitor},1651498079,0
{job=theodolite-stu200776/trace-isolated-podmonitor},1651498084,0
{job=theodolite-stu200776/trace-isolated-podmonitor},1651498089,0
{job=theodolite-stu200776/trace-isolated-podmonitor},1651498094,0
{job=theodolite-stu200776/trace-isolated-podmonitor},1651498099,0
{job=theodolite-stu200776/trace-isolated-podmonitor},1651498104,0
{job=theodolite-stu200776/trace-isolated-podmonitor},1651498109,0
{job=theodolite-stu200776/trace-isolated-podmonitor},1651498114,0
{job=theodolite-stu200776/trace-isolated-podmonitor},1651498119,0
{job=theodolite-stu200776/trace-isolated-podmonitor},1651498124,0
{job=theodolite-stu200776/trace-isolated-podmonitor},1651498129,0
{job=theodolite-stu200776/trace-isolated-podmonitor},1651498134,0
{job=theodolite-stu200776/trace-isolated-podmonitor},1651498139,0
{job=theodolite-stu200776/trace-isolated-podmonitor},1651498144,0
{job=theodolite-stu200776/trace-isolated-podmonitor},1651498149,0
{job=theodolite-stu200776/trace-isolated-podmonitor},1651498154,0
{job=theodolite-stu200776/trace-isolated-podmonitor},1651498159,0
{job=theodolite-stu200776/trace-isolated-podmonitor},1651498164,0
{job=theodolite-stu200776/trace-isolated-podmonitor},1651498169,0
{job=theodolite-stu200776/trace-isolated-podmonitor},1651498174,0
{job=theodolite-stu200776/trace-isolated-podmonitor},1651498179,0
{job=theodolite-stu200776/trace-isolated-podmonitor},1651498184,0
{job=theodolite-stu200776/trace-isolated-podmonitor},1651498189,0
{job=theodolite-stu200776/trace-isolated-podmonitor},1651498194,0
{job=theodolite-stu200776/trace-isolated-podmonitor},1651498199,0
{job=theodolite-stu200776/trace-isolated-podmonitor},1651498204,0
{job=theodolite-stu200776/trace-isolated-podmonitor},1651498209,0
{job=theodolite-stu200776/trace-isolated-podmonitor},1651498214,0
{job=theodolite-stu200776/trace-isolated-podmonitor},1651498219,0
{job=theodolite-stu200776/trace-isolated-podmonitor},1651498224,0
{job=theodolite-stu200776/trace-isolated-podmonitor},1651498229,0
{job=theodolite-stu200776/trace-isolated-podmonitor},1651498234,0
{job=theodolite-stu200776/trace-isolated-podmonitor},1651498239,0
