labels,timestamp,value
{consumergroup=__strimzi-topic-operator-kstreams},1651505440,11
{consumergroup=__strimzi-topic-operator-kstreams},1651505445,11
{consumergroup=__strimzi-topic-operator-kstreams},1651505450,11
{consumergroup=__strimzi-topic-operator-kstreams},1651505455,3
{consumergroup=__strimzi-topic-operator-kstreams},1651505460,3
{consumergroup=__strimzi-topic-operator-kstreams},1651505465,3
{consumergroup=__strimzi-topic-operator-kstreams},1651505470,3
{consumergroup=__strimzi-topic-operator-kstreams},1651505475,3
{consumergroup=__strimzi-topic-operator-kstreams},1651505480,3
{consumergroup=__strimzi-topic-operator-kstreams},1651505485,0
{consumergroup=__strimzi-topic-operator-kstreams},1651505490,0
{consumergroup=__strimzi-topic-operator-kstreams},1651505495,0
{consumergroup=__strimzi-topic-operator-kstreams},1651505500,0
{consumergroup=__strimzi-topic-operator-kstreams},1651505505,0
{consumergroup=__strimzi-topic-operator-kstreams},1651505510,0
{consumergroup=__strimzi-topic-operator-kstreams},1651505515,0
{consumergroup=__strimzi-topic-operator-kstreams},1651505520,0
{consumergroup=__strimzi-topic-operator-kstreams},1651505525,0
{consumergroup=__strimzi-topic-operator-kstreams},1651505530,0
{consumergroup=__strimzi-topic-operator-kstreams},1651505535,0
{consumergroup=__strimzi-topic-operator-kstreams},1651505540,0
{consumergroup=__strimzi-topic-operator-kstreams},1651505545,0
{consumergroup=__strimzi-topic-operator-kstreams},1651505550,0
{consumergroup=__strimzi-topic-operator-kstreams},1651505555,0
{consumergroup=__strimzi-topic-operator-kstreams},1651505560,0
{consumergroup=__strimzi-topic-operator-kstreams},1651505565,0
{consumergroup=__strimzi-topic-operator-kstreams},1651505570,0
{consumergroup=__strimzi-topic-operator-kstreams},1651505575,0
{consumergroup=__strimzi-topic-operator-kstreams},1651505580,0
{consumergroup=__strimzi-topic-operator-kstreams},1651505585,0
{consumergroup=__strimzi-topic-operator-kstreams},1651505590,0
{consumergroup=__strimzi-topic-operator-kstreams},1651505595,0
{consumergroup=__strimzi-topic-operator-kstreams},1651505600,0
{consumergroup=__strimzi-topic-operator-kstreams},1651505605,0
{consumergroup=__strimzi-topic-operator-kstreams},1651505610,0
{consumergroup=__strimzi-topic-operator-kstreams},1651505615,0
{consumergroup=__strimzi-topic-operator-kstreams},1651505620,0
{consumergroup=__strimzi-topic-operator-kstreams},1651505625,0
{consumergroup=__strimzi-topic-operator-kstreams},1651505630,0
{consumergroup=__strimzi-topic-operator-kstreams},1651505635,0
{consumergroup=__strimzi-topic-operator-kstreams},1651505640,0
{consumergroup=__strimzi-topic-operator-kstreams},1651505645,0
{consumergroup=__strimzi-topic-operator-kstreams},1651505650,0
{consumergroup=__strimzi-topic-operator-kstreams},1651505655,0
{consumergroup=__strimzi-topic-operator-kstreams},1651505660,0
{consumergroup=__strimzi-topic-operator-kstreams},1651505665,0
{consumergroup=__strimzi-topic-operator-kstreams},1651505670,0
{consumergroup=__strimzi-topic-operator-kstreams},1651505675,0
{consumergroup=__strimzi-topic-operator-kstreams},1651505680,0
{consumergroup=__strimzi-topic-operator-kstreams},1651505685,0
{consumergroup=__strimzi-topic-operator-kstreams},1651505690,0
{consumergroup=__strimzi-topic-operator-kstreams},1651505695,0
{consumergroup=__strimzi-topic-operator-kstreams},1651505700,0
{consumergroup=__strimzi-topic-operator-kstreams},1651505705,0
{consumergroup=__strimzi-topic-operator-kstreams},1651505710,0
{consumergroup=__strimzi-topic-operator-kstreams},1651505715,0
{consumergroup=__strimzi-topic-operator-kstreams},1651505720,0
{consumergroup=__strimzi-topic-operator-kstreams},1651505725,0
{consumergroup=__strimzi-topic-operator-kstreams},1651505730,0
{consumergroup=__strimzi-topic-operator-kstreams},1651505735,0
{consumergroup=__strimzi-topic-operator-kstreams},1651505740,0
{consumergroup=__strimzi-topic-operator-kstreams},1651505745,0
{consumergroup=__strimzi-topic-operator-kstreams},1651505750,0
{consumergroup=__strimzi-topic-operator-kstreams},1651505755,0
{consumergroup=__strimzi-topic-operator-kstreams},1651505760,0
{consumergroup=__strimzi-topic-operator-kstreams},1651505765,0
{consumergroup=__strimzi-topic-operator-kstreams},1651505770,0
{consumergroup=__strimzi-topic-operator-kstreams},1651505775,0
{consumergroup=__strimzi-topic-operator-kstreams},1651505780,0
{consumergroup=__strimzi-topic-operator-kstreams},1651505785,0
{consumergroup=__strimzi-topic-operator-kstreams},1651505790,0
{consumergroup=__strimzi-topic-operator-kstreams},1651505795,0
{consumergroup=__strimzi-topic-operator-kstreams},1651505800,0
{consumergroup=__strimzi-topic-operator-kstreams},1651505805,0
{consumergroup=__strimzi-topic-operator-kstreams},1651505810,0
{consumergroup=__strimzi-topic-operator-kstreams},1651505815,0
{consumergroup=__strimzi-topic-operator-kstreams},1651505820,0
{consumergroup=__strimzi-topic-operator-kstreams},1651505825,0
{consumergroup=__strimzi-topic-operator-kstreams},1651505830,0
{consumergroup=__strimzi-topic-operator-kstreams},1651505835,0
{consumergroup=__strimzi-topic-operator-kstreams},1651505840,0
{consumergroup=__strimzi-topic-operator-kstreams},1651505845,0
{consumergroup=__strimzi-topic-operator-kstreams},1651505850,0
{consumergroup=__strimzi-topic-operator-kstreams},1651505855,0
{consumergroup=__strimzi-topic-operator-kstreams},1651505860,0
{consumergroup=__strimzi-topic-operator-kstreams},1651505865,0
{consumergroup=__strimzi-topic-operator-kstreams},1651505870,0
{consumergroup=__strimzi-topic-operator-kstreams},1651505875,0
{consumergroup=trace-service},1651505470,16
{consumergroup=trace-service},1651505475,16
{consumergroup=trace-service},1651505480,16
{consumergroup=trace-service},1651505485,16619
{consumergroup=trace-service},1651505490,16619
{consumergroup=trace-service},1651505495,16619
{consumergroup=trace-service},1651505500,65052
{consumergroup=trace-service},1651505505,65052
{consumergroup=trace-service},1651505510,65052
{consumergroup=trace-service},1651505515,152818
{consumergroup=trace-service},1651505520,152818
{consumergroup=trace-service},1651505525,152818
{consumergroup=trace-service},1651505530,50736
{consumergroup=trace-service},1651505535,50736
{consumergroup=trace-service},1651505540,50736
{consumergroup=trace-service},1651505545,17335
{consumergroup=trace-service},1651505550,17335
{consumergroup=trace-service},1651505555,17335
{consumergroup=trace-service},1651505560,40772
{consumergroup=trace-service},1651505565,40772
{consumergroup=trace-service},1651505570,40772
{consumergroup=trace-service},1651505575,31041
{consumergroup=trace-service},1651505580,31041
{consumergroup=trace-service},1651505585,31041
{consumergroup=trace-service},1651505590,42986
{consumergroup=trace-service},1651505595,42986
{consumergroup=trace-service},1651505600,42986
{consumergroup=trace-service},1651505605,134940
{consumergroup=trace-service},1651505610,134940
{consumergroup=trace-service},1651505615,134940
{consumergroup=trace-service},1651505620,43281
{consumergroup=trace-service},1651505625,43281
{consumergroup=trace-service},1651505630,43281
{consumergroup=trace-service},1651505635,20357
{consumergroup=trace-service},1651505640,20357
{consumergroup=trace-service},1651505645,20357
{consumergroup=trace-service},1651505650,46294
{consumergroup=trace-service},1651505655,46294
{consumergroup=trace-service},1651505660,46294
{consumergroup=trace-service},1651505665,14314
{consumergroup=trace-service},1651505670,14314
{consumergroup=trace-service},1651505675,14314
{consumergroup=trace-service},1651505680,51527
{consumergroup=trace-service},1651505685,51527
{consumergroup=trace-service},1651505690,51527
{consumergroup=trace-service},1651505695,94673
{consumergroup=trace-service},1651505700,94673
{consumergroup=trace-service},1651505705,94673
{consumergroup=trace-service},1651505710,117091
{consumergroup=trace-service},1651505715,117091
{consumergroup=trace-service},1651505720,117091
{consumergroup=trace-service},1651505725,13351
{consumergroup=trace-service},1651505730,13351
{consumergroup=trace-service},1651505735,13351
{consumergroup=trace-service},1651505740,45292
{consumergroup=trace-service},1651505745,45292
{consumergroup=trace-service},1651505750,45292
{consumergroup=trace-service},1651505755,57906
{consumergroup=trace-service},1651505760,57906
{consumergroup=trace-service},1651505765,57906
{consumergroup=trace-service},1651505770,40310
{consumergroup=trace-service},1651505775,40310
{consumergroup=trace-service},1651505780,40310
{consumergroup=trace-service},1651505785,62886
{consumergroup=trace-service},1651505790,62886
{consumergroup=trace-service},1651505795,62886
{consumergroup=trace-service},1651505800,43282
{consumergroup=trace-service},1651505805,43282
{consumergroup=trace-service},1651505810,43282
{consumergroup=trace-service},1651505815,9129
{consumergroup=trace-service},1651505820,9129
{consumergroup=trace-service},1651505825,9129
{consumergroup=trace-service},1651505830,47721
{consumergroup=trace-service},1651505835,47721
{consumergroup=trace-service},1651505840,47721
{consumergroup=trace-service},1651505845,133223
{consumergroup=trace-service},1651505850,133223
{consumergroup=trace-service},1651505855,133223
{consumergroup=trace-service},1651505860,45701
{consumergroup=trace-service},1651505865,45701
{consumergroup=trace-service},1651505870,45701
{consumergroup=trace-service},1651505875,107748
{consumergroup=trace-token-events-consumer},1651505470,0
{consumergroup=trace-token-events-consumer},1651505475,0
{consumergroup=trace-token-events-consumer},1651505480,0
{consumergroup=trace-token-events-consumer},1651505485,0
{consumergroup=trace-token-events-consumer},1651505490,0
{consumergroup=trace-token-events-consumer},1651505495,0
{consumergroup=trace-token-events-consumer},1651505500,0
{consumergroup=trace-token-events-consumer},1651505505,0
{consumergroup=trace-token-events-consumer},1651505510,0
{consumergroup=trace-token-events-consumer},1651505515,0
{consumergroup=trace-token-events-consumer},1651505520,0
{consumergroup=trace-token-events-consumer},1651505525,0
{consumergroup=trace-token-events-consumer},1651505530,0
{consumergroup=trace-token-events-consumer},1651505535,0
{consumergroup=trace-token-events-consumer},1651505540,0
{consumergroup=trace-token-events-consumer},1651505545,0
{consumergroup=trace-token-events-consumer},1651505550,0
{consumergroup=trace-token-events-consumer},1651505555,0
{consumergroup=trace-token-events-consumer},1651505560,0
{consumergroup=trace-token-events-consumer},1651505565,0
{consumergroup=trace-token-events-consumer},1651505570,0
{consumergroup=trace-token-events-consumer},1651505575,0
{consumergroup=trace-token-events-consumer},1651505580,0
{consumergroup=trace-token-events-consumer},1651505585,0
{consumergroup=trace-token-events-consumer},1651505590,0
{consumergroup=trace-token-events-consumer},1651505595,0
{consumergroup=trace-token-events-consumer},1651505600,0
{consumergroup=trace-token-events-consumer},1651505605,0
{consumergroup=trace-token-events-consumer},1651505610,0
{consumergroup=trace-token-events-consumer},1651505615,0
{consumergroup=trace-token-events-consumer},1651505620,0
{consumergroup=trace-token-events-consumer},1651505625,0
{consumergroup=trace-token-events-consumer},1651505630,0
{consumergroup=trace-token-events-consumer},1651505635,0
{consumergroup=trace-token-events-consumer},1651505640,0
{consumergroup=trace-token-events-consumer},1651505645,0
{consumergroup=trace-token-events-consumer},1651505650,0
{consumergroup=trace-token-events-consumer},1651505655,0
{consumergroup=trace-token-events-consumer},1651505660,0
{consumergroup=trace-token-events-consumer},1651505665,0
{consumergroup=trace-token-events-consumer},1651505670,0
{consumergroup=trace-token-events-consumer},1651505675,0
{consumergroup=trace-token-events-consumer},1651505680,0
{consumergroup=trace-token-events-consumer},1651505685,0
{consumergroup=trace-token-events-consumer},1651505690,0
{consumergroup=trace-token-events-consumer},1651505695,0
{consumergroup=trace-token-events-consumer},1651505700,0
{consumergroup=trace-token-events-consumer},1651505705,0
{consumergroup=trace-token-events-consumer},1651505710,0
{consumergroup=trace-token-events-consumer},1651505715,0
{consumergroup=trace-token-events-consumer},1651505720,0
{consumergroup=trace-token-events-consumer},1651505725,0
{consumergroup=trace-token-events-consumer},1651505730,0
{consumergroup=trace-token-events-consumer},1651505735,0
{consumergroup=trace-token-events-consumer},1651505740,0
{consumergroup=trace-token-events-consumer},1651505745,0
{consumergroup=trace-token-events-consumer},1651505750,0
{consumergroup=trace-token-events-consumer},1651505755,0
{consumergroup=trace-token-events-consumer},1651505760,0
{consumergroup=trace-token-events-consumer},1651505765,0
{consumergroup=trace-token-events-consumer},1651505770,0
{consumergroup=trace-token-events-consumer},1651505775,0
{consumergroup=trace-token-events-consumer},1651505780,0
{consumergroup=trace-token-events-consumer},1651505785,0
{consumergroup=trace-token-events-consumer},1651505790,0
{consumergroup=trace-token-events-consumer},1651505795,0
{consumergroup=trace-token-events-consumer},1651505800,0
{consumergroup=trace-token-events-consumer},1651505805,0
{consumergroup=trace-token-events-consumer},1651505810,0
{consumergroup=trace-token-events-consumer},1651505815,0
{consumergroup=trace-token-events-consumer},1651505820,0
{consumergroup=trace-token-events-consumer},1651505825,0
{consumergroup=trace-token-events-consumer},1651505830,0
{consumergroup=trace-token-events-consumer},1651505835,0
{consumergroup=trace-token-events-consumer},1651505840,0
{consumergroup=trace-token-events-consumer},1651505845,0
{consumergroup=trace-token-events-consumer},1651505850,0
{consumergroup=trace-token-events-consumer},1651505855,0
{consumergroup=trace-token-events-consumer},1651505860,0
{consumergroup=trace-token-events-consumer},1651505865,0
{consumergroup=trace-token-events-consumer},1651505870,0
{consumergroup=trace-token-events-consumer},1651505875,0
