labels,timestamp,value
{job=theodolite-stu200776/trace-isolated-podmonitor},1651511178,0
{job=theodolite-stu200776/trace-isolated-podmonitor},1651511183,0
{job=theodolite-stu200776/trace-isolated-podmonitor},1651511188,0
{job=theodolite-stu200776/trace-isolated-podmonitor},1651511193,0
{job=theodolite-stu200776/trace-isolated-podmonitor},1651511198,0
{job=theodolite-stu200776/trace-isolated-podmonitor},1651511203,0
{job=theodolite-stu200776/trace-isolated-podmonitor},1651511208,0
{job=theodolite-stu200776/trace-isolated-podmonitor},1651511213,0
{job=theodolite-stu200776/trace-isolated-podmonitor},1651511218,0
{job=theodolite-stu200776/trace-isolated-podmonitor},1651511223,0
{job=theodolite-stu200776/trace-isolated-podmonitor},1651511228,0
{job=theodolite-stu200776/trace-isolated-podmonitor},1651511233,0
{job=theodolite-stu200776/trace-isolated-podmonitor},1651511238,0
{job=theodolite-stu200776/trace-isolated-podmonitor},1651511243,0
{job=theodolite-stu200776/trace-isolated-podmonitor},1651511248,0
{job=theodolite-stu200776/trace-isolated-podmonitor},1651511253,0
{job=theodolite-stu200776/trace-isolated-podmonitor},1651511258,0
{job=theodolite-stu200776/trace-isolated-podmonitor},1651511263,0
{job=theodolite-stu200776/trace-isolated-podmonitor},1651511268,0
{job=theodolite-stu200776/trace-isolated-podmonitor},1651511273,0
{job=theodolite-stu200776/trace-isolated-podmonitor},1651511278,0
{job=theodolite-stu200776/trace-isolated-podmonitor},1651511283,0
{job=theodolite-stu200776/trace-isolated-podmonitor},1651511288,0
{job=theodolite-stu200776/trace-isolated-podmonitor},1651511293,0
{job=theodolite-stu200776/trace-isolated-podmonitor},1651511298,0
{job=theodolite-stu200776/trace-isolated-podmonitor},1651511303,0
{job=theodolite-stu200776/trace-isolated-podmonitor},1651511308,0
{job=theodolite-stu200776/trace-isolated-podmonitor},1651511313,0
{job=theodolite-stu200776/trace-isolated-podmonitor},1651511318,0
{job=theodolite-stu200776/trace-isolated-podmonitor},1651511323,0
{job=theodolite-stu200776/trace-isolated-podmonitor},1651511328,0
{job=theodolite-stu200776/trace-isolated-podmonitor},1651511333,0
{job=theodolite-stu200776/trace-isolated-podmonitor},1651511338,0
{job=theodolite-stu200776/trace-isolated-podmonitor},1651511343,0
{job=theodolite-stu200776/trace-isolated-podmonitor},1651511348,0
{job=theodolite-stu200776/trace-isolated-podmonitor},1651511353,0
{job=theodolite-stu200776/trace-isolated-podmonitor},1651511358,0
{job=theodolite-stu200776/trace-isolated-podmonitor},1651511363,0
{job=theodolite-stu200776/trace-isolated-podmonitor},1651511368,0
{job=theodolite-stu200776/trace-isolated-podmonitor},1651511373,0
{job=theodolite-stu200776/trace-isolated-podmonitor},1651511378,0
{job=theodolite-stu200776/trace-isolated-podmonitor},1651511383,0
{job=theodolite-stu200776/trace-isolated-podmonitor},1651511388,0
{job=theodolite-stu200776/trace-isolated-podmonitor},1651511393,0
{job=theodolite-stu200776/trace-isolated-podmonitor},1651511398,0
{job=theodolite-stu200776/trace-isolated-podmonitor},1651511403,0
{job=theodolite-stu200776/trace-isolated-podmonitor},1651511408,0
{job=theodolite-stu200776/trace-isolated-podmonitor},1651511413,0
{job=theodolite-stu200776/trace-isolated-podmonitor},1651511418,0
{job=theodolite-stu200776/trace-isolated-podmonitor},1651511423,0
{job=theodolite-stu200776/trace-isolated-podmonitor},1651511428,0
{job=theodolite-stu200776/trace-isolated-podmonitor},1651511433,0
{job=theodolite-stu200776/trace-isolated-podmonitor},1651511438,0
{job=theodolite-stu200776/trace-isolated-podmonitor},1651511443,0
{job=theodolite-stu200776/trace-isolated-podmonitor},1651511448,0
{job=theodolite-stu200776/trace-isolated-podmonitor},1651511453,0
{job=theodolite-stu200776/trace-isolated-podmonitor},1651511458,0
{job=theodolite-stu200776/trace-isolated-podmonitor},1651511463,0
{job=theodolite-stu200776/trace-isolated-podmonitor},1651511468,0
{job=theodolite-stu200776/trace-isolated-podmonitor},1651511473,0
{job=theodolite-stu200776/trace-isolated-podmonitor},1651511478,0
{job=theodolite-stu200776/trace-isolated-podmonitor},1651511483,0
{job=theodolite-stu200776/trace-isolated-podmonitor},1651511488,0
{job=theodolite-stu200776/trace-isolated-podmonitor},1651511493,0
{job=theodolite-stu200776/trace-isolated-podmonitor},1651511498,0
{job=theodolite-stu200776/trace-isolated-podmonitor},1651511503,0
{job=theodolite-stu200776/trace-isolated-podmonitor},1651511508,0
{job=theodolite-stu200776/trace-isolated-podmonitor},1651511513,0
{job=theodolite-stu200776/trace-isolated-podmonitor},1651511518,0
{job=theodolite-stu200776/trace-isolated-podmonitor},1651511523,0
{job=theodolite-stu200776/trace-isolated-podmonitor},1651511528,0
{job=theodolite-stu200776/trace-isolated-podmonitor},1651511533,0
{job=theodolite-stu200776/trace-isolated-podmonitor},1651511538,0
{job=theodolite-stu200776/trace-isolated-podmonitor},1651511543,0
{job=theodolite-stu200776/trace-isolated-podmonitor},1651511548,0
{job=theodolite-stu200776/trace-isolated-podmonitor},1651511553,0
