labels,timestamp,value
{job=theodolite-stu200776/trace-isolated-podmonitor},1651520970,0
{job=theodolite-stu200776/trace-isolated-podmonitor},1651520975,0
{job=theodolite-stu200776/trace-isolated-podmonitor},1651520980,0
{job=theodolite-stu200776/trace-isolated-podmonitor},1651520985,0
{job=theodolite-stu200776/trace-isolated-podmonitor},1651520990,0
{job=theodolite-stu200776/trace-isolated-podmonitor},1651520995,0
{job=theodolite-stu200776/trace-isolated-podmonitor},1651521000,0
{job=theodolite-stu200776/trace-isolated-podmonitor},1651521005,109.60292632604252
{job=theodolite-stu200776/trace-isolated-podmonitor},1651521010,591.9330988426974
{job=theodolite-stu200776/trace-isolated-podmonitor},1651521015,1191.6840626551043
{job=theodolite-stu200776/trace-isolated-podmonitor},1651521020,1098.9738680765695
{job=theodolite-stu200776/trace-isolated-podmonitor},1651521025,976.2272115241466
{job=theodolite-stu200776/trace-isolated-podmonitor},1651521030,937.4086615909597
{job=theodolite-stu200776/trace-isolated-podmonitor},1651521035,1004.6568188850532
{job=theodolite-stu200776/trace-isolated-podmonitor},1651521040,1222.2431762312303
{job=theodolite-stu200776/trace-isolated-podmonitor},1651521045,1405.0827028366723
{job=theodolite-stu200776/trace-isolated-podmonitor},1651521050,1277.3723413660205
{job=theodolite-stu200776/trace-isolated-podmonitor},1651521055,1107.558056214003
{job=theodolite-stu200776/trace-isolated-podmonitor},1651521060,1026.36616942338
{job=theodolite-stu200776/trace-isolated-podmonitor},1651521065,811.5898658510757
{job=theodolite-stu200776/trace-isolated-podmonitor},1651521070,452.1043287612395
{job=theodolite-stu200776/trace-isolated-podmonitor},1651521075,0
{job=theodolite-stu200776/trace-isolated-podmonitor},1651521080,0
{job=theodolite-stu200776/trace-isolated-podmonitor},1651521085,0
{job=theodolite-stu200776/trace-isolated-podmonitor},1651521090,0
{job=theodolite-stu200776/trace-isolated-podmonitor},1651521095,0
{job=theodolite-stu200776/trace-isolated-podmonitor},1651521100,0
{job=theodolite-stu200776/trace-isolated-podmonitor},1651521105,0
{job=theodolite-stu200776/trace-isolated-podmonitor},1651521110,0
{job=theodolite-stu200776/trace-isolated-podmonitor},1651521115,0
{job=theodolite-stu200776/trace-isolated-podmonitor},1651521120,0
{job=theodolite-stu200776/trace-isolated-podmonitor},1651521125,0
{job=theodolite-stu200776/trace-isolated-podmonitor},1651521130,0
{job=theodolite-stu200776/trace-isolated-podmonitor},1651521135,0
{job=theodolite-stu200776/trace-isolated-podmonitor},1651521140,0
{job=theodolite-stu200776/trace-isolated-podmonitor},1651521145,0
{job=theodolite-stu200776/trace-isolated-podmonitor},1651521150,0
{job=theodolite-stu200776/trace-isolated-podmonitor},1651521155,0
{job=theodolite-stu200776/trace-isolated-podmonitor},1651521160,0
{job=theodolite-stu200776/trace-isolated-podmonitor},1651521165,0
{job=theodolite-stu200776/trace-isolated-podmonitor},1651521170,0
{job=theodolite-stu200776/trace-isolated-podmonitor},1651521175,0
{job=theodolite-stu200776/trace-isolated-podmonitor},1651521180,0
{job=theodolite-stu200776/trace-isolated-podmonitor},1651521185,0
{job=theodolite-stu200776/trace-isolated-podmonitor},1651521190,0
{job=theodolite-stu200776/trace-isolated-podmonitor},1651521195,0
{job=theodolite-stu200776/trace-isolated-podmonitor},1651521200,0
{job=theodolite-stu200776/trace-isolated-podmonitor},1651521205,0
{job=theodolite-stu200776/trace-isolated-podmonitor},1651521210,0
{job=theodolite-stu200776/trace-isolated-podmonitor},1651521215,0
{job=theodolite-stu200776/trace-isolated-podmonitor},1651521220,0
{job=theodolite-stu200776/trace-isolated-podmonitor},1651521225,0
{job=theodolite-stu200776/trace-isolated-podmonitor},1651521230,0
{job=theodolite-stu200776/trace-isolated-podmonitor},1651521235,0
{job=theodolite-stu200776/trace-isolated-podmonitor},1651521240,0
{job=theodolite-stu200776/trace-isolated-podmonitor},1651521245,0
{job=theodolite-stu200776/trace-isolated-podmonitor},1651521250,0
{job=theodolite-stu200776/trace-isolated-podmonitor},1651521255,0
{job=theodolite-stu200776/trace-isolated-podmonitor},1651521260,0
{job=theodolite-stu200776/trace-isolated-podmonitor},1651521265,0
{job=theodolite-stu200776/trace-isolated-podmonitor},1651521270,0
{job=theodolite-stu200776/trace-isolated-podmonitor},1651521275,0
{job=theodolite-stu200776/trace-isolated-podmonitor},1651521280,0
{job=theodolite-stu200776/trace-isolated-podmonitor},1651521285,0
{job=theodolite-stu200776/trace-isolated-podmonitor},1651521290,0
{job=theodolite-stu200776/trace-isolated-podmonitor},1651521295,0
{job=theodolite-stu200776/trace-isolated-podmonitor},1651521300,0
{job=theodolite-stu200776/trace-isolated-podmonitor},1651521305,0
{job=theodolite-stu200776/trace-isolated-podmonitor},1651521310,0
{job=theodolite-stu200776/trace-isolated-podmonitor},1651521315,0
{job=theodolite-stu200776/trace-isolated-podmonitor},1651521320,0
{job=theodolite-stu200776/trace-isolated-podmonitor},1651521325,0
{job=theodolite-stu200776/trace-isolated-podmonitor},1651521330,0
{job=theodolite-stu200776/trace-isolated-podmonitor},1651521335,122.35207218594813
{job=theodolite-stu200776/trace-isolated-podmonitor},1651521340,457.89044500553854
