labels,timestamp,value
{job=theodolite-stu200776/trace-isolated-podmonitor},1651496313,0
{job=theodolite-stu200776/trace-isolated-podmonitor},1651496318,0
{job=theodolite-stu200776/trace-isolated-podmonitor},1651496323,0
{job=theodolite-stu200776/trace-isolated-podmonitor},1651496328,0
{job=theodolite-stu200776/trace-isolated-podmonitor},1651496333,0
{job=theodolite-stu200776/trace-isolated-podmonitor},1651496338,0
{job=theodolite-stu200776/trace-isolated-podmonitor},1651496343,18.033791470457945
{job=theodolite-stu200776/trace-isolated-podmonitor},1651496348,273.0214642845895
{job=theodolite-stu200776/trace-isolated-podmonitor},1651496353,526.5684700825256
{job=theodolite-stu200776/trace-isolated-podmonitor},1651496358,531.107881965692
{job=theodolite-stu200776/trace-isolated-podmonitor},1651496363,472.49981673557795
{job=theodolite-stu200776/trace-isolated-podmonitor},1651496368,420.6782518988743
{job=theodolite-stu200776/trace-isolated-podmonitor},1651496373,382.9960736462788
{job=theodolite-stu200776/trace-isolated-podmonitor},1651496378,284.11519244782215
{job=theodolite-stu200776/trace-isolated-podmonitor},1651496383,170.47333032866177
{job=theodolite-stu200776/trace-isolated-podmonitor},1651496388,79.64536798809482
{job=theodolite-stu200776/trace-isolated-podmonitor},1651496393,66.73310195766229
{job=theodolite-stu200776/trace-isolated-podmonitor},1651496398,63.48291059007268
{job=theodolite-stu200776/trace-isolated-podmonitor},1651496403,55.04469720892298
{job=theodolite-stu200776/trace-isolated-podmonitor},1651496408,40.29821225494194
{job=theodolite-stu200776/trace-isolated-podmonitor},1651496413,0
{job=theodolite-stu200776/trace-isolated-podmonitor},1651496418,0
{job=theodolite-stu200776/trace-isolated-podmonitor},1651496423,0
{job=theodolite-stu200776/trace-isolated-podmonitor},1651496428,0
{job=theodolite-stu200776/trace-isolated-podmonitor},1651496433,0
{job=theodolite-stu200776/trace-isolated-podmonitor},1651496438,0
{job=theodolite-stu200776/trace-isolated-podmonitor},1651496443,0
{job=theodolite-stu200776/trace-isolated-podmonitor},1651496448,0
{job=theodolite-stu200776/trace-isolated-podmonitor},1651496453,0
{job=theodolite-stu200776/trace-isolated-podmonitor},1651496458,0
{job=theodolite-stu200776/trace-isolated-podmonitor},1651496463,0
{job=theodolite-stu200776/trace-isolated-podmonitor},1651496468,0
{job=theodolite-stu200776/trace-isolated-podmonitor},1651496473,0
{job=theodolite-stu200776/trace-isolated-podmonitor},1651496478,0
{job=theodolite-stu200776/trace-isolated-podmonitor},1651496483,0
{job=theodolite-stu200776/trace-isolated-podmonitor},1651496488,0
{job=theodolite-stu200776/trace-isolated-podmonitor},1651496493,0
{job=theodolite-stu200776/trace-isolated-podmonitor},1651496498,0
{job=theodolite-stu200776/trace-isolated-podmonitor},1651496503,0
{job=theodolite-stu200776/trace-isolated-podmonitor},1651496508,0
{job=theodolite-stu200776/trace-isolated-podmonitor},1651496513,0
{job=theodolite-stu200776/trace-isolated-podmonitor},1651496518,0
{job=theodolite-stu200776/trace-isolated-podmonitor},1651496523,0
{job=theodolite-stu200776/trace-isolated-podmonitor},1651496528,0
{job=theodolite-stu200776/trace-isolated-podmonitor},1651496533,0
{job=theodolite-stu200776/trace-isolated-podmonitor},1651496538,0
{job=theodolite-stu200776/trace-isolated-podmonitor},1651496543,0
{job=theodolite-stu200776/trace-isolated-podmonitor},1651496548,0
{job=theodolite-stu200776/trace-isolated-podmonitor},1651496553,0
{job=theodolite-stu200776/trace-isolated-podmonitor},1651496558,0
{job=theodolite-stu200776/trace-isolated-podmonitor},1651496563,0
{job=theodolite-stu200776/trace-isolated-podmonitor},1651496568,0
{job=theodolite-stu200776/trace-isolated-podmonitor},1651496573,0
{job=theodolite-stu200776/trace-isolated-podmonitor},1651496578,0
{job=theodolite-stu200776/trace-isolated-podmonitor},1651496583,0
{job=theodolite-stu200776/trace-isolated-podmonitor},1651496588,0
{job=theodolite-stu200776/trace-isolated-podmonitor},1651496593,0
{job=theodolite-stu200776/trace-isolated-podmonitor},1651496598,0
{job=theodolite-stu200776/trace-isolated-podmonitor},1651496603,0
{job=theodolite-stu200776/trace-isolated-podmonitor},1651496608,0
{job=theodolite-stu200776/trace-isolated-podmonitor},1651496613,0
{job=theodolite-stu200776/trace-isolated-podmonitor},1651496618,0
{job=theodolite-stu200776/trace-isolated-podmonitor},1651496623,0
{job=theodolite-stu200776/trace-isolated-podmonitor},1651496628,0
{job=theodolite-stu200776/trace-isolated-podmonitor},1651496633,0
{job=theodolite-stu200776/trace-isolated-podmonitor},1651496638,0
{job=theodolite-stu200776/trace-isolated-podmonitor},1651496643,0
{job=theodolite-stu200776/trace-isolated-podmonitor},1651496648,0
{job=theodolite-stu200776/trace-isolated-podmonitor},1651496653,0
{job=theodolite-stu200776/trace-isolated-podmonitor},1651496658,0
{job=theodolite-stu200776/trace-isolated-podmonitor},1651496663,0
{job=theodolite-stu200776/trace-isolated-podmonitor},1651496668,0
{job=theodolite-stu200776/trace-isolated-podmonitor},1651496673,0
{job=theodolite-stu200776/trace-isolated-podmonitor},1651496678,0
{job=theodolite-stu200776/trace-isolated-podmonitor},1651496683,0
{job=theodolite-stu200776/trace-isolated-podmonitor},1651496688,0
