labels,timestamp,value
{job=theodolite-stu200776/trace-isolated-podmonitor},1651518001,0
{job=theodolite-stu200776/trace-isolated-podmonitor},1651518006,0
{job=theodolite-stu200776/trace-isolated-podmonitor},1651518011,0
{job=theodolite-stu200776/trace-isolated-podmonitor},1651518016,0
{job=theodolite-stu200776/trace-isolated-podmonitor},1651518021,0
{job=theodolite-stu200776/trace-isolated-podmonitor},1651518026,0
{job=theodolite-stu200776/trace-isolated-podmonitor},1651518031,0
{job=theodolite-stu200776/trace-isolated-podmonitor},1651518036,0
{job=theodolite-stu200776/trace-isolated-podmonitor},1651518041,0
{job=theodolite-stu200776/trace-isolated-podmonitor},1651518046,0
{job=theodolite-stu200776/trace-isolated-podmonitor},1651518051,0
{job=theodolite-stu200776/trace-isolated-podmonitor},1651518056,0
{job=theodolite-stu200776/trace-isolated-podmonitor},1651518061,0
{job=theodolite-stu200776/trace-isolated-podmonitor},1651518066,0
{job=theodolite-stu200776/trace-isolated-podmonitor},1651518071,0
{job=theodolite-stu200776/trace-isolated-podmonitor},1651518076,0
{job=theodolite-stu200776/trace-isolated-podmonitor},1651518081,0
{job=theodolite-stu200776/trace-isolated-podmonitor},1651518086,0
{job=theodolite-stu200776/trace-isolated-podmonitor},1651518091,0
{job=theodolite-stu200776/trace-isolated-podmonitor},1651518096,0
{job=theodolite-stu200776/trace-isolated-podmonitor},1651518101,0
{job=theodolite-stu200776/trace-isolated-podmonitor},1651518106,0
{job=theodolite-stu200776/trace-isolated-podmonitor},1651518111,0
{job=theodolite-stu200776/trace-isolated-podmonitor},1651518116,0
{job=theodolite-stu200776/trace-isolated-podmonitor},1651518121,0
{job=theodolite-stu200776/trace-isolated-podmonitor},1651518126,0
{job=theodolite-stu200776/trace-isolated-podmonitor},1651518131,0
{job=theodolite-stu200776/trace-isolated-podmonitor},1651518136,0
{job=theodolite-stu200776/trace-isolated-podmonitor},1651518141,0
{job=theodolite-stu200776/trace-isolated-podmonitor},1651518146,0
{job=theodolite-stu200776/trace-isolated-podmonitor},1651518151,0
{job=theodolite-stu200776/trace-isolated-podmonitor},1651518156,0
{job=theodolite-stu200776/trace-isolated-podmonitor},1651518161,0
{job=theodolite-stu200776/trace-isolated-podmonitor},1651518166,0
{job=theodolite-stu200776/trace-isolated-podmonitor},1651518171,0
{job=theodolite-stu200776/trace-isolated-podmonitor},1651518176,0
{job=theodolite-stu200776/trace-isolated-podmonitor},1651518181,0
{job=theodolite-stu200776/trace-isolated-podmonitor},1651518186,0
{job=theodolite-stu200776/trace-isolated-podmonitor},1651518191,0
{job=theodolite-stu200776/trace-isolated-podmonitor},1651518196,0
{job=theodolite-stu200776/trace-isolated-podmonitor},1651518201,0
{job=theodolite-stu200776/trace-isolated-podmonitor},1651518206,0
{job=theodolite-stu200776/trace-isolated-podmonitor},1651518211,0
{job=theodolite-stu200776/trace-isolated-podmonitor},1651518216,0
{job=theodolite-stu200776/trace-isolated-podmonitor},1651518221,0
{job=theodolite-stu200776/trace-isolated-podmonitor},1651518226,0
{job=theodolite-stu200776/trace-isolated-podmonitor},1651518231,0
{job=theodolite-stu200776/trace-isolated-podmonitor},1651518236,0
