labels,timestamp,value
{job=theodolite-stu200776/trace-isolated-podmonitor},1651482489,0
{job=theodolite-stu200776/trace-isolated-podmonitor},1651482494,0
{job=theodolite-stu200776/trace-isolated-podmonitor},1651482499,0
{job=theodolite-stu200776/trace-isolated-podmonitor},1651482504,0
{job=theodolite-stu200776/trace-isolated-podmonitor},1651482509,0
{job=theodolite-stu200776/trace-isolated-podmonitor},1651482514,0
{job=theodolite-stu200776/trace-isolated-podmonitor},1651482519,0
{job=theodolite-stu200776/trace-isolated-podmonitor},1651482524,539.9180481632151
{job=theodolite-stu200776/trace-isolated-podmonitor},1651482529,1747.6364252630692
{job=theodolite-stu200776/trace-isolated-podmonitor},1651482534,1731.281967708932
{job=theodolite-stu200776/trace-isolated-podmonitor},1651482539,1476.1533477885714
{job=theodolite-stu200776/trace-isolated-podmonitor},1651482544,1375.0755038704676
{job=theodolite-stu200776/trace-isolated-podmonitor},1651482549,1211.2494462992724
{job=theodolite-stu200776/trace-isolated-podmonitor},1651482554,1234.6816392560563
{job=theodolite-stu200776/trace-isolated-podmonitor},1651482559,839.6572483224988
{job=theodolite-stu200776/trace-isolated-podmonitor},1651482564,626.0334080325736
{job=theodolite-stu200776/trace-isolated-podmonitor},1651482569,531.9028286733849
{job=theodolite-stu200776/trace-isolated-podmonitor},1651482574,488.3754343921434
{job=theodolite-stu200776/trace-isolated-podmonitor},1651482579,437.0376271762675
{job=theodolite-stu200776/trace-isolated-podmonitor},1651482584,248.2709220996762
{job=theodolite-stu200776/trace-isolated-podmonitor},1651482589,0
{job=theodolite-stu200776/trace-isolated-podmonitor},1651482594,0
{job=theodolite-stu200776/trace-isolated-podmonitor},1651482599,0
{job=theodolite-stu200776/trace-isolated-podmonitor},1651482604,0
{job=theodolite-stu200776/trace-isolated-podmonitor},1651482609,0
{job=theodolite-stu200776/trace-isolated-podmonitor},1651482614,0
{job=theodolite-stu200776/trace-isolated-podmonitor},1651482619,0
{job=theodolite-stu200776/trace-isolated-podmonitor},1651482624,0
{job=theodolite-stu200776/trace-isolated-podmonitor},1651482629,0
{job=theodolite-stu200776/trace-isolated-podmonitor},1651482634,0
{job=theodolite-stu200776/trace-isolated-podmonitor},1651482639,0
{job=theodolite-stu200776/trace-isolated-podmonitor},1651482644,0
{job=theodolite-stu200776/trace-isolated-podmonitor},1651482649,0
{job=theodolite-stu200776/trace-isolated-podmonitor},1651482654,0
{job=theodolite-stu200776/trace-isolated-podmonitor},1651482659,0
{job=theodolite-stu200776/trace-isolated-podmonitor},1651482664,0
{job=theodolite-stu200776/trace-isolated-podmonitor},1651482669,0
{job=theodolite-stu200776/trace-isolated-podmonitor},1651482674,0
{job=theodolite-stu200776/trace-isolated-podmonitor},1651482679,0
{job=theodolite-stu200776/trace-isolated-podmonitor},1651482684,0
{job=theodolite-stu200776/trace-isolated-podmonitor},1651482689,0
{job=theodolite-stu200776/trace-isolated-podmonitor},1651482694,0
{job=theodolite-stu200776/trace-isolated-podmonitor},1651482699,0
{job=theodolite-stu200776/trace-isolated-podmonitor},1651482704,0
{job=theodolite-stu200776/trace-isolated-podmonitor},1651482709,0
{job=theodolite-stu200776/trace-isolated-podmonitor},1651482714,0
{job=theodolite-stu200776/trace-isolated-podmonitor},1651482719,0
{job=theodolite-stu200776/trace-isolated-podmonitor},1651482724,0
{job=theodolite-stu200776/trace-isolated-podmonitor},1651482729,0
{job=theodolite-stu200776/trace-isolated-podmonitor},1651482734,0
{job=theodolite-stu200776/trace-isolated-podmonitor},1651482739,0
{job=theodolite-stu200776/trace-isolated-podmonitor},1651482744,0
{job=theodolite-stu200776/trace-isolated-podmonitor},1651482749,0
{job=theodolite-stu200776/trace-isolated-podmonitor},1651482754,0
{job=theodolite-stu200776/trace-isolated-podmonitor},1651482759,0
{job=theodolite-stu200776/trace-isolated-podmonitor},1651482764,0
{job=theodolite-stu200776/trace-isolated-podmonitor},1651482769,0
{job=theodolite-stu200776/trace-isolated-podmonitor},1651482774,0
{job=theodolite-stu200776/trace-isolated-podmonitor},1651482779,0
{job=theodolite-stu200776/trace-isolated-podmonitor},1651482784,0
{job=theodolite-stu200776/trace-isolated-podmonitor},1651482789,0
{job=theodolite-stu200776/trace-isolated-podmonitor},1651482794,0
{job=theodolite-stu200776/trace-isolated-podmonitor},1651482799,0
{job=theodolite-stu200776/trace-isolated-podmonitor},1651482804,0
{job=theodolite-stu200776/trace-isolated-podmonitor},1651482809,0
{job=theodolite-stu200776/trace-isolated-podmonitor},1651482814,0
{job=theodolite-stu200776/trace-isolated-podmonitor},1651482819,0
{job=theodolite-stu200776/trace-isolated-podmonitor},1651482824,0
{job=theodolite-stu200776/trace-isolated-podmonitor},1651482829,0
{job=theodolite-stu200776/trace-isolated-podmonitor},1651482834,0
{job=theodolite-stu200776/trace-isolated-podmonitor},1651482839,0
{job=theodolite-stu200776/trace-isolated-podmonitor},1651482844,0
{job=theodolite-stu200776/trace-isolated-podmonitor},1651482849,0
{job=theodolite-stu200776/trace-isolated-podmonitor},1651482854,0
{job=theodolite-stu200776/trace-isolated-podmonitor},1651482859,0
