labels,timestamp,value
{job=theodolite-stu200776/trace-isolated-podmonitor},1651511698,0
{job=theodolite-stu200776/trace-isolated-podmonitor},1651511703,0
{job=theodolite-stu200776/trace-isolated-podmonitor},1651511708,0
{job=theodolite-stu200776/trace-isolated-podmonitor},1651511713,0
{job=theodolite-stu200776/trace-isolated-podmonitor},1651511718,0
{job=theodolite-stu200776/trace-isolated-podmonitor},1651511723,0
{job=theodolite-stu200776/trace-isolated-podmonitor},1651511728,0
{job=theodolite-stu200776/trace-isolated-podmonitor},1651511733,0
{job=theodolite-stu200776/trace-isolated-podmonitor},1651511738,0
{job=theodolite-stu200776/trace-isolated-podmonitor},1651511743,0
{job=theodolite-stu200776/trace-isolated-podmonitor},1651511748,0
{job=theodolite-stu200776/trace-isolated-podmonitor},1651511753,0
{job=theodolite-stu200776/trace-isolated-podmonitor},1651511758,0
{job=theodolite-stu200776/trace-isolated-podmonitor},1651511763,0
{job=theodolite-stu200776/trace-isolated-podmonitor},1651511768,0
{job=theodolite-stu200776/trace-isolated-podmonitor},1651511773,0
{job=theodolite-stu200776/trace-isolated-podmonitor},1651511778,0
{job=theodolite-stu200776/trace-isolated-podmonitor},1651511783,0
{job=theodolite-stu200776/trace-isolated-podmonitor},1651511788,0
{job=theodolite-stu200776/trace-isolated-podmonitor},1651511793,0
{job=theodolite-stu200776/trace-isolated-podmonitor},1651511798,0
{job=theodolite-stu200776/trace-isolated-podmonitor},1651511803,0
{job=theodolite-stu200776/trace-isolated-podmonitor},1651511808,0
{job=theodolite-stu200776/trace-isolated-podmonitor},1651511813,0
{job=theodolite-stu200776/trace-isolated-podmonitor},1651511818,0
{job=theodolite-stu200776/trace-isolated-podmonitor},1651511823,0
{job=theodolite-stu200776/trace-isolated-podmonitor},1651511828,0
{job=theodolite-stu200776/trace-isolated-podmonitor},1651511833,0
{job=theodolite-stu200776/trace-isolated-podmonitor},1651511838,0
{job=theodolite-stu200776/trace-isolated-podmonitor},1651511843,0
{job=theodolite-stu200776/trace-isolated-podmonitor},1651511848,0
{job=theodolite-stu200776/trace-isolated-podmonitor},1651511853,0
{job=theodolite-stu200776/trace-isolated-podmonitor},1651511858,0
{job=theodolite-stu200776/trace-isolated-podmonitor},1651511863,0
{job=theodolite-stu200776/trace-isolated-podmonitor},1651511868,0
{job=theodolite-stu200776/trace-isolated-podmonitor},1651511873,0
{job=theodolite-stu200776/trace-isolated-podmonitor},1651511878,0
{job=theodolite-stu200776/trace-isolated-podmonitor},1651511883,0
{job=theodolite-stu200776/trace-isolated-podmonitor},1651511888,0
{job=theodolite-stu200776/trace-isolated-podmonitor},1651511893,0
{job=theodolite-stu200776/trace-isolated-podmonitor},1651511898,0
{job=theodolite-stu200776/trace-isolated-podmonitor},1651511903,0
{job=theodolite-stu200776/trace-isolated-podmonitor},1651511908,0
{job=theodolite-stu200776/trace-isolated-podmonitor},1651511913,0
{job=theodolite-stu200776/trace-isolated-podmonitor},1651511918,0
{job=theodolite-stu200776/trace-isolated-podmonitor},1651511923,0
{job=theodolite-stu200776/trace-isolated-podmonitor},1651511928,0
{job=theodolite-stu200776/trace-isolated-podmonitor},1651511933,0
{job=theodolite-stu200776/trace-isolated-podmonitor},1651511938,0
{job=theodolite-stu200776/trace-isolated-podmonitor},1651511943,0
{job=theodolite-stu200776/trace-isolated-podmonitor},1651511948,0
{job=theodolite-stu200776/trace-isolated-podmonitor},1651511953,0
{job=theodolite-stu200776/trace-isolated-podmonitor},1651511958,0
{job=theodolite-stu200776/trace-isolated-podmonitor},1651511963,0
{job=theodolite-stu200776/trace-isolated-podmonitor},1651511968,0
{job=theodolite-stu200776/trace-isolated-podmonitor},1651511973,0
{job=theodolite-stu200776/trace-isolated-podmonitor},1651511978,0
{job=theodolite-stu200776/trace-isolated-podmonitor},1651511983,0
{job=theodolite-stu200776/trace-isolated-podmonitor},1651511988,0
{job=theodolite-stu200776/trace-isolated-podmonitor},1651511993,0
{job=theodolite-stu200776/trace-isolated-podmonitor},1651511998,0
{job=theodolite-stu200776/trace-isolated-podmonitor},1651512003,0
{job=theodolite-stu200776/trace-isolated-podmonitor},1651512008,0
{job=theodolite-stu200776/trace-isolated-podmonitor},1651512013,0
{job=theodolite-stu200776/trace-isolated-podmonitor},1651512018,0
{job=theodolite-stu200776/trace-isolated-podmonitor},1651512023,0
{job=theodolite-stu200776/trace-isolated-podmonitor},1651512028,0
{job=theodolite-stu200776/trace-isolated-podmonitor},1651512033,0
{job=theodolite-stu200776/trace-isolated-podmonitor},1651512038,0
{job=theodolite-stu200776/trace-isolated-podmonitor},1651512043,0
{job=theodolite-stu200776/trace-isolated-podmonitor},1651512048,0
{job=theodolite-stu200776/trace-isolated-podmonitor},1651512053,0
{job=theodolite-stu200776/trace-isolated-podmonitor},1651512058,0
{job=theodolite-stu200776/trace-isolated-podmonitor},1651512063,0
{job=theodolite-stu200776/trace-isolated-podmonitor},1651512068,0
