labels,timestamp,value
{job=theodolite-stu200776/trace-isolated-podmonitor},1651513233,0
{job=theodolite-stu200776/trace-isolated-podmonitor},1651513238,0
{job=theodolite-stu200776/trace-isolated-podmonitor},1651513243,0
{job=theodolite-stu200776/trace-isolated-podmonitor},1651513248,0
{job=theodolite-stu200776/trace-isolated-podmonitor},1651513253,0
{job=theodolite-stu200776/trace-isolated-podmonitor},1651513258,0
{job=theodolite-stu200776/trace-isolated-podmonitor},1651513263,0
{job=theodolite-stu200776/trace-isolated-podmonitor},1651513268,0
{job=theodolite-stu200776/trace-isolated-podmonitor},1651513273,0
{job=theodolite-stu200776/trace-isolated-podmonitor},1651513278,0
{job=theodolite-stu200776/trace-isolated-podmonitor},1651513283,0
{job=theodolite-stu200776/trace-isolated-podmonitor},1651513288,0
{job=theodolite-stu200776/trace-isolated-podmonitor},1651513293,0
{job=theodolite-stu200776/trace-isolated-podmonitor},1651513298,0
{job=theodolite-stu200776/trace-isolated-podmonitor},1651513303,0
{job=theodolite-stu200776/trace-isolated-podmonitor},1651513308,0
{job=theodolite-stu200776/trace-isolated-podmonitor},1651513313,0
{job=theodolite-stu200776/trace-isolated-podmonitor},1651513318,0
{job=theodolite-stu200776/trace-isolated-podmonitor},1651513323,0
{job=theodolite-stu200776/trace-isolated-podmonitor},1651513328,0
{job=theodolite-stu200776/trace-isolated-podmonitor},1651513333,0
{job=theodolite-stu200776/trace-isolated-podmonitor},1651513338,0
{job=theodolite-stu200776/trace-isolated-podmonitor},1651513343,0
{job=theodolite-stu200776/trace-isolated-podmonitor},1651513348,0
{job=theodolite-stu200776/trace-isolated-podmonitor},1651513353,0
{job=theodolite-stu200776/trace-isolated-podmonitor},1651513358,0
{job=theodolite-stu200776/trace-isolated-podmonitor},1651513363,0
{job=theodolite-stu200776/trace-isolated-podmonitor},1651513368,0
{job=theodolite-stu200776/trace-isolated-podmonitor},1651513373,0
{job=theodolite-stu200776/trace-isolated-podmonitor},1651513378,0
{job=theodolite-stu200776/trace-isolated-podmonitor},1651513383,0
{job=theodolite-stu200776/trace-isolated-podmonitor},1651513388,0
{job=theodolite-stu200776/trace-isolated-podmonitor},1651513393,0
{job=theodolite-stu200776/trace-isolated-podmonitor},1651513398,0
{job=theodolite-stu200776/trace-isolated-podmonitor},1651513403,0
{job=theodolite-stu200776/trace-isolated-podmonitor},1651513408,0
{job=theodolite-stu200776/trace-isolated-podmonitor},1651513413,0
{job=theodolite-stu200776/trace-isolated-podmonitor},1651513418,0
{job=theodolite-stu200776/trace-isolated-podmonitor},1651513423,0
{job=theodolite-stu200776/trace-isolated-podmonitor},1651513428,0
{job=theodolite-stu200776/trace-isolated-podmonitor},1651513433,0
{job=theodolite-stu200776/trace-isolated-podmonitor},1651513438,0
{job=theodolite-stu200776/trace-isolated-podmonitor},1651513443,0
{job=theodolite-stu200776/trace-isolated-podmonitor},1651513448,0
{job=theodolite-stu200776/trace-isolated-podmonitor},1651513453,0
{job=theodolite-stu200776/trace-isolated-podmonitor},1651513458,0
{job=theodolite-stu200776/trace-isolated-podmonitor},1651513463,0
{job=theodolite-stu200776/trace-isolated-podmonitor},1651513468,0
{job=theodolite-stu200776/trace-isolated-podmonitor},1651513473,0
{job=theodolite-stu200776/trace-isolated-podmonitor},1651513478,0
{job=theodolite-stu200776/trace-isolated-podmonitor},1651513483,0
{job=theodolite-stu200776/trace-isolated-podmonitor},1651513488,0
{job=theodolite-stu200776/trace-isolated-podmonitor},1651513493,0
{job=theodolite-stu200776/trace-isolated-podmonitor},1651513498,0
{job=theodolite-stu200776/trace-isolated-podmonitor},1651513503,0
{job=theodolite-stu200776/trace-isolated-podmonitor},1651513508,0
{job=theodolite-stu200776/trace-isolated-podmonitor},1651513513,0
{job=theodolite-stu200776/trace-isolated-podmonitor},1651513518,0
{job=theodolite-stu200776/trace-isolated-podmonitor},1651513523,0
{job=theodolite-stu200776/trace-isolated-podmonitor},1651513528,0
{job=theodolite-stu200776/trace-isolated-podmonitor},1651513533,0
{job=theodolite-stu200776/trace-isolated-podmonitor},1651513538,0
{job=theodolite-stu200776/trace-isolated-podmonitor},1651513543,0
{job=theodolite-stu200776/trace-isolated-podmonitor},1651513548,0
{job=theodolite-stu200776/trace-isolated-podmonitor},1651513553,0
{job=theodolite-stu200776/trace-isolated-podmonitor},1651513558,0
{job=theodolite-stu200776/trace-isolated-podmonitor},1651513563,0
{job=theodolite-stu200776/trace-isolated-podmonitor},1651513568,0
{job=theodolite-stu200776/trace-isolated-podmonitor},1651513573,0
{job=theodolite-stu200776/trace-isolated-podmonitor},1651513578,0
{job=theodolite-stu200776/trace-isolated-podmonitor},1651513583,0
{job=theodolite-stu200776/trace-isolated-podmonitor},1651513588,0
{job=theodolite-stu200776/trace-isolated-podmonitor},1651513593,0
{job=theodolite-stu200776/trace-isolated-podmonitor},1651513598,0
{job=theodolite-stu200776/trace-isolated-podmonitor},1651513603,0
{job=theodolite-stu200776/trace-isolated-podmonitor},1651513608,0
