labels,timestamp,value
{consumergroup=__strimzi-topic-operator-kstreams},1651503372,0
{consumergroup=__strimzi-topic-operator-kstreams},1651503377,0
{consumergroup=__strimzi-topic-operator-kstreams},1651503382,0
{consumergroup=__strimzi-topic-operator-kstreams},1651503387,3
{consumergroup=__strimzi-topic-operator-kstreams},1651503392,3
{consumergroup=__strimzi-topic-operator-kstreams},1651503397,3
{consumergroup=__strimzi-topic-operator-kstreams},1651503402,0
{consumergroup=__strimzi-topic-operator-kstreams},1651503407,0
{consumergroup=__strimzi-topic-operator-kstreams},1651503412,0
{consumergroup=__strimzi-topic-operator-kstreams},1651503417,0
{consumergroup=__strimzi-topic-operator-kstreams},1651503422,0
{consumergroup=__strimzi-topic-operator-kstreams},1651503427,0
{consumergroup=__strimzi-topic-operator-kstreams},1651503432,0
{consumergroup=__strimzi-topic-operator-kstreams},1651503437,0
{consumergroup=__strimzi-topic-operator-kstreams},1651503442,0
{consumergroup=__strimzi-topic-operator-kstreams},1651503447,0
{consumergroup=__strimzi-topic-operator-kstreams},1651503452,0
{consumergroup=__strimzi-topic-operator-kstreams},1651503457,0
{consumergroup=__strimzi-topic-operator-kstreams},1651503462,0
{consumergroup=__strimzi-topic-operator-kstreams},1651503467,0
{consumergroup=__strimzi-topic-operator-kstreams},1651503472,0
{consumergroup=__strimzi-topic-operator-kstreams},1651503477,0
{consumergroup=__strimzi-topic-operator-kstreams},1651503482,0
{consumergroup=__strimzi-topic-operator-kstreams},1651503487,0
{consumergroup=__strimzi-topic-operator-kstreams},1651503492,0
{consumergroup=__strimzi-topic-operator-kstreams},1651503497,0
{consumergroup=__strimzi-topic-operator-kstreams},1651503502,0
{consumergroup=__strimzi-topic-operator-kstreams},1651503507,0
{consumergroup=__strimzi-topic-operator-kstreams},1651503512,0
{consumergroup=__strimzi-topic-operator-kstreams},1651503517,0
{consumergroup=__strimzi-topic-operator-kstreams},1651503522,0
{consumergroup=__strimzi-topic-operator-kstreams},1651503527,0
{consumergroup=__strimzi-topic-operator-kstreams},1651503532,0
{consumergroup=__strimzi-topic-operator-kstreams},1651503537,0
{consumergroup=__strimzi-topic-operator-kstreams},1651503542,0
{consumergroup=__strimzi-topic-operator-kstreams},1651503547,0
{consumergroup=__strimzi-topic-operator-kstreams},1651503552,0
{consumergroup=__strimzi-topic-operator-kstreams},1651503557,0
{consumergroup=__strimzi-topic-operator-kstreams},1651503562,0
{consumergroup=__strimzi-topic-operator-kstreams},1651503567,0
{consumergroup=__strimzi-topic-operator-kstreams},1651503572,0
{consumergroup=__strimzi-topic-operator-kstreams},1651503577,0
{consumergroup=__strimzi-topic-operator-kstreams},1651503582,0
{consumergroup=__strimzi-topic-operator-kstreams},1651503587,0
{consumergroup=__strimzi-topic-operator-kstreams},1651503592,0
{consumergroup=__strimzi-topic-operator-kstreams},1651503597,0
{consumergroup=__strimzi-topic-operator-kstreams},1651503602,0
{consumergroup=__strimzi-topic-operator-kstreams},1651503607,0
{consumergroup=__strimzi-topic-operator-kstreams},1651503612,0
{consumergroup=__strimzi-topic-operator-kstreams},1651503617,0
{consumergroup=__strimzi-topic-operator-kstreams},1651503622,0
{consumergroup=__strimzi-topic-operator-kstreams},1651503627,0
{consumergroup=__strimzi-topic-operator-kstreams},1651503632,0
{consumergroup=__strimzi-topic-operator-kstreams},1651503637,0
{consumergroup=__strimzi-topic-operator-kstreams},1651503642,0
{consumergroup=__strimzi-topic-operator-kstreams},1651503647,0
{consumergroup=__strimzi-topic-operator-kstreams},1651503652,0
{consumergroup=__strimzi-topic-operator-kstreams},1651503657,0
{consumergroup=__strimzi-topic-operator-kstreams},1651503662,0
{consumergroup=__strimzi-topic-operator-kstreams},1651503667,0
{consumergroup=__strimzi-topic-operator-kstreams},1651503672,0
{consumergroup=__strimzi-topic-operator-kstreams},1651503677,0
{consumergroup=__strimzi-topic-operator-kstreams},1651503682,0
{consumergroup=__strimzi-topic-operator-kstreams},1651503687,0
{consumergroup=__strimzi-topic-operator-kstreams},1651503692,0
{consumergroup=__strimzi-topic-operator-kstreams},1651503697,0
{consumergroup=__strimzi-topic-operator-kstreams},1651503702,0
{consumergroup=__strimzi-topic-operator-kstreams},1651503707,0
{consumergroup=__strimzi-topic-operator-kstreams},1651503712,0
{consumergroup=__strimzi-topic-operator-kstreams},1651503717,0
{consumergroup=__strimzi-topic-operator-kstreams},1651503722,0
{consumergroup=__strimzi-topic-operator-kstreams},1651503727,0
{consumergroup=__strimzi-topic-operator-kstreams},1651503732,0
{consumergroup=__strimzi-topic-operator-kstreams},1651503737,0
{consumergroup=__strimzi-topic-operator-kstreams},1651503742,0
{consumergroup=__strimzi-topic-operator-kstreams},1651503747,0
{consumergroup=__strimzi-topic-operator-kstreams},1651503752,0
{consumergroup=__strimzi-topic-operator-kstreams},1651503757,0
{consumergroup=__strimzi-topic-operator-kstreams},1651503762,0
{consumergroup=__strimzi-topic-operator-kstreams},1651503767,0
{consumergroup=__strimzi-topic-operator-kstreams},1651503772,0
{consumergroup=__strimzi-topic-operator-kstreams},1651503777,0
{consumergroup=__strimzi-topic-operator-kstreams},1651503782,0
{consumergroup=__strimzi-topic-operator-kstreams},1651503787,0
{consumergroup=__strimzi-topic-operator-kstreams},1651503792,0
{consumergroup=__strimzi-topic-operator-kstreams},1651503797,0
{consumergroup=__strimzi-topic-operator-kstreams},1651503802,0
{consumergroup=__strimzi-topic-operator-kstreams},1651503807,0
{consumergroup=__strimzi-topic-operator-kstreams},1651503812,0
{consumergroup=trace-service},1651503417,8360
{consumergroup=trace-service},1651503422,8360
{consumergroup=trace-service},1651503427,8360
{consumergroup=trace-service},1651503432,62626
{consumergroup=trace-service},1651503437,62626
{consumergroup=trace-service},1651503442,62626
{consumergroup=trace-service},1651503447,74066
{consumergroup=trace-service},1651503452,74066
{consumergroup=trace-service},1651503457,74066
{consumergroup=trace-service},1651503462,56350
{consumergroup=trace-service},1651503467,56350
{consumergroup=trace-service},1651503472,56350
{consumergroup=trace-service},1651503477,21334
{consumergroup=trace-service},1651503482,21334
{consumergroup=trace-service},1651503487,21334
{consumergroup=trace-service},1651503492,48396
{consumergroup=trace-service},1651503497,48396
{consumergroup=trace-service},1651503502,48396
{consumergroup=trace-service},1651503507,22620
{consumergroup=trace-service},1651503512,22620
{consumergroup=trace-service},1651503517,22620
{consumergroup=trace-service},1651503522,48250
{consumergroup=trace-service},1651503527,48250
{consumergroup=trace-service},1651503532,48250
{consumergroup=trace-service},1651503537,132028
{consumergroup=trace-service},1651503542,132028
{consumergroup=trace-service},1651503547,132028
{consumergroup=trace-service},1651503552,51329
{consumergroup=trace-service},1651503557,51329
{consumergroup=trace-service},1651503562,51329
{consumergroup=trace-service},1651503567,21869
{consumergroup=trace-service},1651503572,21869
{consumergroup=trace-service},1651503577,21869
{consumergroup=trace-service},1651503582,49267
{consumergroup=trace-service},1651503587,49267
{consumergroup=trace-service},1651503592,49267
{consumergroup=trace-service},1651503597,25289
{consumergroup=trace-service},1651503602,25289
{consumergroup=trace-service},1651503607,25289
{consumergroup=trace-service},1651503612,55970
{consumergroup=trace-service},1651503617,55970
{consumergroup=trace-service},1651503622,55970
{consumergroup=trace-service},1651503627,106103
{consumergroup=trace-service},1651503632,106103
{consumergroup=trace-service},1651503637,106103
{consumergroup=trace-service},1651503642,105391
{consumergroup=trace-service},1651503647,105391
{consumergroup=trace-service},1651503652,105391
{consumergroup=trace-service},1651503657,32028
{consumergroup=trace-service},1651503662,32028
{consumergroup=trace-service},1651503667,32028
{consumergroup=trace-service},1651503672,53115
{consumergroup=trace-service},1651503677,53115
{consumergroup=trace-service},1651503682,53115
{consumergroup=trace-service},1651503687,17675
{consumergroup=trace-service},1651503692,17675
{consumergroup=trace-service},1651503697,17675
{consumergroup=trace-service},1651503702,54481
{consumergroup=trace-service},1651503707,54481
{consumergroup=trace-service},1651503712,54481
{consumergroup=trace-service},1651503717,31086
{consumergroup=trace-service},1651503722,31086
{consumergroup=trace-service},1651503727,31086
{consumergroup=trace-service},1651503732,52156
{consumergroup=trace-service},1651503737,52156
{consumergroup=trace-service},1651503742,52156
{consumergroup=trace-service},1651503747,23907
{consumergroup=trace-service},1651503752,23907
{consumergroup=trace-service},1651503757,23907
{consumergroup=trace-service},1651503762,47686
{consumergroup=trace-service},1651503767,47686
{consumergroup=trace-service},1651503772,47686
{consumergroup=trace-service},1651503777,38649
{consumergroup=trace-service},1651503782,38649
{consumergroup=trace-service},1651503787,38649
{consumergroup=trace-service},1651503792,59641
{consumergroup=trace-service},1651503797,59641
{consumergroup=trace-service},1651503802,59641
{consumergroup=trace-service},1651503807,30007
{consumergroup=trace-service},1651503812,30007
{consumergroup=trace-token-events-consumer},1651503402,0
{consumergroup=trace-token-events-consumer},1651503407,0
{consumergroup=trace-token-events-consumer},1651503412,0
{consumergroup=trace-token-events-consumer},1651503417,0
{consumergroup=trace-token-events-consumer},1651503422,0
{consumergroup=trace-token-events-consumer},1651503427,0
{consumergroup=trace-token-events-consumer},1651503432,0
{consumergroup=trace-token-events-consumer},1651503437,0
{consumergroup=trace-token-events-consumer},1651503442,0
{consumergroup=trace-token-events-consumer},1651503447,0
{consumergroup=trace-token-events-consumer},1651503452,0
{consumergroup=trace-token-events-consumer},1651503457,0
{consumergroup=trace-token-events-consumer},1651503462,0
{consumergroup=trace-token-events-consumer},1651503467,0
{consumergroup=trace-token-events-consumer},1651503472,0
{consumergroup=trace-token-events-consumer},1651503477,0
{consumergroup=trace-token-events-consumer},1651503482,0
{consumergroup=trace-token-events-consumer},1651503487,0
{consumergroup=trace-token-events-consumer},1651503492,0
{consumergroup=trace-token-events-consumer},1651503497,0
{consumergroup=trace-token-events-consumer},1651503502,0
{consumergroup=trace-token-events-consumer},1651503507,0
{consumergroup=trace-token-events-consumer},1651503512,0
{consumergroup=trace-token-events-consumer},1651503517,0
{consumergroup=trace-token-events-consumer},1651503522,0
{consumergroup=trace-token-events-consumer},1651503527,0
{consumergroup=trace-token-events-consumer},1651503532,0
{consumergroup=trace-token-events-consumer},1651503537,0
{consumergroup=trace-token-events-consumer},1651503542,0
{consumergroup=trace-token-events-consumer},1651503547,0
{consumergroup=trace-token-events-consumer},1651503552,0
{consumergroup=trace-token-events-consumer},1651503557,0
{consumergroup=trace-token-events-consumer},1651503562,0
{consumergroup=trace-token-events-consumer},1651503567,0
{consumergroup=trace-token-events-consumer},1651503572,0
{consumergroup=trace-token-events-consumer},1651503577,0
{consumergroup=trace-token-events-consumer},1651503582,0
{consumergroup=trace-token-events-consumer},1651503587,0
{consumergroup=trace-token-events-consumer},1651503592,0
{consumergroup=trace-token-events-consumer},1651503597,0
{consumergroup=trace-token-events-consumer},1651503602,0
{consumergroup=trace-token-events-consumer},1651503607,0
{consumergroup=trace-token-events-consumer},1651503612,0
{consumergroup=trace-token-events-consumer},1651503617,0
{consumergroup=trace-token-events-consumer},1651503622,0
{consumergroup=trace-token-events-consumer},1651503627,0
{consumergroup=trace-token-events-consumer},1651503632,0
{consumergroup=trace-token-events-consumer},1651503637,0
{consumergroup=trace-token-events-consumer},1651503642,0
{consumergroup=trace-token-events-consumer},1651503647,0
{consumergroup=trace-token-events-consumer},1651503652,0
{consumergroup=trace-token-events-consumer},1651503657,0
{consumergroup=trace-token-events-consumer},1651503662,0
{consumergroup=trace-token-events-consumer},1651503667,0
{consumergroup=trace-token-events-consumer},1651503672,0
{consumergroup=trace-token-events-consumer},1651503677,0
{consumergroup=trace-token-events-consumer},1651503682,0
{consumergroup=trace-token-events-consumer},1651503687,0
{consumergroup=trace-token-events-consumer},1651503692,0
{consumergroup=trace-token-events-consumer},1651503697,0
{consumergroup=trace-token-events-consumer},1651503702,0
{consumergroup=trace-token-events-consumer},1651503707,0
{consumergroup=trace-token-events-consumer},1651503712,0
{consumergroup=trace-token-events-consumer},1651503717,0
{consumergroup=trace-token-events-consumer},1651503722,0
{consumergroup=trace-token-events-consumer},1651503727,0
{consumergroup=trace-token-events-consumer},1651503732,0
{consumergroup=trace-token-events-consumer},1651503737,0
{consumergroup=trace-token-events-consumer},1651503742,0
{consumergroup=trace-token-events-consumer},1651503747,0
{consumergroup=trace-token-events-consumer},1651503752,0
{consumergroup=trace-token-events-consumer},1651503757,0
{consumergroup=trace-token-events-consumer},1651503762,0
{consumergroup=trace-token-events-consumer},1651503767,0
{consumergroup=trace-token-events-consumer},1651503772,0
{consumergroup=trace-token-events-consumer},1651503777,0
{consumergroup=trace-token-events-consumer},1651503782,0
{consumergroup=trace-token-events-consumer},1651503787,0
{consumergroup=trace-token-events-consumer},1651503792,0
{consumergroup=trace-token-events-consumer},1651503797,0
{consumergroup=trace-token-events-consumer},1651503802,0
{consumergroup=trace-token-events-consumer},1651503807,0
{consumergroup=trace-token-events-consumer},1651503812,0
