labels,timestamp,value
{consumergroup=__strimzi-topic-operator-kstreams},1651497281,3
{consumergroup=__strimzi-topic-operator-kstreams},1651497286,3
{consumergroup=__strimzi-topic-operator-kstreams},1651497291,3
{consumergroup=__strimzi-topic-operator-kstreams},1651497296,0
{consumergroup=__strimzi-topic-operator-kstreams},1651497301,0
{consumergroup=__strimzi-topic-operator-kstreams},1651497306,0
{consumergroup=__strimzi-topic-operator-kstreams},1651497311,3
{consumergroup=__strimzi-topic-operator-kstreams},1651497316,3
{consumergroup=__strimzi-topic-operator-kstreams},1651497321,3
{consumergroup=__strimzi-topic-operator-kstreams},1651497326,0
{consumergroup=__strimzi-topic-operator-kstreams},1651497331,0
{consumergroup=__strimzi-topic-operator-kstreams},1651497336,0
{consumergroup=__strimzi-topic-operator-kstreams},1651497341,0
{consumergroup=__strimzi-topic-operator-kstreams},1651497346,0
{consumergroup=__strimzi-topic-operator-kstreams},1651497351,0
{consumergroup=__strimzi-topic-operator-kstreams},1651497356,0
{consumergroup=__strimzi-topic-operator-kstreams},1651497361,0
{consumergroup=__strimzi-topic-operator-kstreams},1651497366,0
{consumergroup=__strimzi-topic-operator-kstreams},1651497371,0
{consumergroup=__strimzi-topic-operator-kstreams},1651497376,0
{consumergroup=__strimzi-topic-operator-kstreams},1651497381,0
{consumergroup=__strimzi-topic-operator-kstreams},1651497386,0
{consumergroup=__strimzi-topic-operator-kstreams},1651497391,0
{consumergroup=__strimzi-topic-operator-kstreams},1651497396,0
{consumergroup=__strimzi-topic-operator-kstreams},1651497401,0
{consumergroup=__strimzi-topic-operator-kstreams},1651497406,0
{consumergroup=__strimzi-topic-operator-kstreams},1651497411,0
{consumergroup=__strimzi-topic-operator-kstreams},1651497416,0
{consumergroup=__strimzi-topic-operator-kstreams},1651497421,0
{consumergroup=__strimzi-topic-operator-kstreams},1651497426,0
{consumergroup=__strimzi-topic-operator-kstreams},1651497431,0
{consumergroup=__strimzi-topic-operator-kstreams},1651497436,0
{consumergroup=__strimzi-topic-operator-kstreams},1651497441,0
{consumergroup=__strimzi-topic-operator-kstreams},1651497446,0
{consumergroup=__strimzi-topic-operator-kstreams},1651497451,0
{consumergroup=__strimzi-topic-operator-kstreams},1651497456,0
{consumergroup=__strimzi-topic-operator-kstreams},1651497461,0
{consumergroup=__strimzi-topic-operator-kstreams},1651497466,0
{consumergroup=__strimzi-topic-operator-kstreams},1651497471,0
{consumergroup=__strimzi-topic-operator-kstreams},1651497476,0
{consumergroup=__strimzi-topic-operator-kstreams},1651497481,0
{consumergroup=__strimzi-topic-operator-kstreams},1651497486,0
{consumergroup=__strimzi-topic-operator-kstreams},1651497491,0
{consumergroup=__strimzi-topic-operator-kstreams},1651497496,0
{consumergroup=__strimzi-topic-operator-kstreams},1651497501,0
{consumergroup=__strimzi-topic-operator-kstreams},1651497506,0
{consumergroup=__strimzi-topic-operator-kstreams},1651497511,0
{consumergroup=__strimzi-topic-operator-kstreams},1651497516,0
{consumergroup=__strimzi-topic-operator-kstreams},1651497521,0
{consumergroup=__strimzi-topic-operator-kstreams},1651497526,0
{consumergroup=__strimzi-topic-operator-kstreams},1651497531,0
{consumergroup=__strimzi-topic-operator-kstreams},1651497536,0
{consumergroup=__strimzi-topic-operator-kstreams},1651497541,0
{consumergroup=__strimzi-topic-operator-kstreams},1651497546,0
{consumergroup=__strimzi-topic-operator-kstreams},1651497551,0
{consumergroup=__strimzi-topic-operator-kstreams},1651497556,0
{consumergroup=__strimzi-topic-operator-kstreams},1651497561,0
{consumergroup=__strimzi-topic-operator-kstreams},1651497566,0
{consumergroup=__strimzi-topic-operator-kstreams},1651497571,0
{consumergroup=__strimzi-topic-operator-kstreams},1651497576,0
{consumergroup=__strimzi-topic-operator-kstreams},1651497581,0
{consumergroup=__strimzi-topic-operator-kstreams},1651497586,0
{consumergroup=__strimzi-topic-operator-kstreams},1651497591,0
{consumergroup=__strimzi-topic-operator-kstreams},1651497596,0
{consumergroup=__strimzi-topic-operator-kstreams},1651497601,0
{consumergroup=__strimzi-topic-operator-kstreams},1651497606,0
{consumergroup=__strimzi-topic-operator-kstreams},1651497611,0
{consumergroup=__strimzi-topic-operator-kstreams},1651497616,0
{consumergroup=__strimzi-topic-operator-kstreams},1651497621,0
{consumergroup=__strimzi-topic-operator-kstreams},1651497626,0
{consumergroup=__strimzi-topic-operator-kstreams},1651497631,0
{consumergroup=__strimzi-topic-operator-kstreams},1651497636,0
{consumergroup=__strimzi-topic-operator-kstreams},1651497641,0
{consumergroup=__strimzi-topic-operator-kstreams},1651497646,0
{consumergroup=__strimzi-topic-operator-kstreams},1651497651,0
{consumergroup=__strimzi-topic-operator-kstreams},1651497656,0
{consumergroup=__strimzi-topic-operator-kstreams},1651497661,0
{consumergroup=__strimzi-topic-operator-kstreams},1651497666,0
{consumergroup=__strimzi-topic-operator-kstreams},1651497671,0
{consumergroup=__strimzi-topic-operator-kstreams},1651497676,0
{consumergroup=__strimzi-topic-operator-kstreams},1651497681,0
{consumergroup=__strimzi-topic-operator-kstreams},1651497686,0
{consumergroup=__strimzi-topic-operator-kstreams},1651497691,0
{consumergroup=__strimzi-topic-operator-kstreams},1651497696,0
{consumergroup=__strimzi-topic-operator-kstreams},1651497701,0
{consumergroup=__strimzi-topic-operator-kstreams},1651497706,0
{consumergroup=__strimzi-topic-operator-kstreams},1651497711,0
{consumergroup=__strimzi-topic-operator-kstreams},1651497716,0
{consumergroup=__strimzi-topic-operator-kstreams},1651497721,0
{consumergroup=__strimzi-topic-operator-kstreams},1651497726,0
{consumergroup=__strimzi-topic-operator-kstreams},1651497731,0
{consumergroup=trace-service},1651497341,64330
{consumergroup=trace-service},1651497346,64330
{consumergroup=trace-service},1651497351,64330
{consumergroup=trace-service},1651497356,41233
{consumergroup=trace-service},1651497361,41233
{consumergroup=trace-service},1651497366,41233
{consumergroup=trace-service},1651497371,45472
{consumergroup=trace-service},1651497376,45472
{consumergroup=trace-service},1651497381,45472
{consumergroup=trace-service},1651497386,113004
{consumergroup=trace-service},1651497391,113004
{consumergroup=trace-service},1651497396,113004
{consumergroup=trace-service},1651497401,37287
{consumergroup=trace-service},1651497406,37287
{consumergroup=trace-service},1651497411,37287
{consumergroup=trace-service},1651497416,50099
{consumergroup=trace-service},1651497421,50099
{consumergroup=trace-service},1651497426,50099
{consumergroup=trace-service},1651497431,35946
{consumergroup=trace-service},1651497436,35946
{consumergroup=trace-service},1651497441,35946
{consumergroup=trace-service},1651497446,65614
{consumergroup=trace-service},1651497451,65614
{consumergroup=trace-service},1651497456,65614
{consumergroup=trace-service},1651497461,36726
{consumergroup=trace-service},1651497466,36726
{consumergroup=trace-service},1651497471,36726
{consumergroup=trace-service},1651497476,83483
{consumergroup=trace-service},1651497481,83483
{consumergroup=trace-service},1651497486,83483
{consumergroup=trace-service},1651497491,36646
{consumergroup=trace-service},1651497496,36646
{consumergroup=trace-service},1651497501,36646
{consumergroup=trace-service},1651497506,82631
{consumergroup=trace-service},1651497511,82631
{consumergroup=trace-service},1651497516,82631
{consumergroup=trace-service},1651497521,35356
{consumergroup=trace-service},1651497526,35356
{consumergroup=trace-service},1651497531,35356
{consumergroup=trace-service},1651497536,80349
{consumergroup=trace-service},1651497541,80349
{consumergroup=trace-service},1651497546,80349
{consumergroup=trace-service},1651497551,39019
{consumergroup=trace-service},1651497556,39019
{consumergroup=trace-service},1651497561,39019
{consumergroup=trace-service},1651497566,127889
{consumergroup=trace-service},1651497571,127889
{consumergroup=trace-service},1651497576,127889
{consumergroup=trace-service},1651497581,36778
{consumergroup=trace-service},1651497586,36778
{consumergroup=trace-service},1651497591,36778
{consumergroup=trace-service},1651497596,92579
{consumergroup=trace-service},1651497601,92579
{consumergroup=trace-service},1651497606,92579
{consumergroup=trace-service},1651497611,37173
{consumergroup=trace-service},1651497616,37173
{consumergroup=trace-service},1651497621,37173
{consumergroup=trace-service},1651497626,101307
{consumergroup=trace-service},1651497631,101307
{consumergroup=trace-service},1651497636,101307
{consumergroup=trace-service},1651497641,36606
{consumergroup=trace-service},1651497646,36606
{consumergroup=trace-service},1651497651,36606
{consumergroup=trace-service},1651497656,99021
{consumergroup=trace-service},1651497661,99021
{consumergroup=trace-service},1651497666,99021
{consumergroup=trace-service},1651497671,36395
{consumergroup=trace-service},1651497676,36395
{consumergroup=trace-service},1651497681,36395
{consumergroup=trace-service},1651497686,99025
{consumergroup=trace-service},1651497691,99025
{consumergroup=trace-service},1651497696,99025
{consumergroup=trace-service},1651497701,34937
{consumergroup=trace-service},1651497706,34937
{consumergroup=trace-service},1651497711,34937
{consumergroup=trace-service},1651497716,44222
{consumergroup=trace-service},1651497721,44222
{consumergroup=trace-service},1651497726,44222
{consumergroup=trace-service},1651497731,39976
{consumergroup=trace-token-events-consumer},1651497326,0
{consumergroup=trace-token-events-consumer},1651497331,0
{consumergroup=trace-token-events-consumer},1651497336,0
{consumergroup=trace-token-events-consumer},1651497341,0
{consumergroup=trace-token-events-consumer},1651497346,0
{consumergroup=trace-token-events-consumer},1651497351,0
{consumergroup=trace-token-events-consumer},1651497356,0
{consumergroup=trace-token-events-consumer},1651497361,0
{consumergroup=trace-token-events-consumer},1651497366,0
{consumergroup=trace-token-events-consumer},1651497371,0
{consumergroup=trace-token-events-consumer},1651497376,0
{consumergroup=trace-token-events-consumer},1651497381,0
{consumergroup=trace-token-events-consumer},1651497386,0
{consumergroup=trace-token-events-consumer},1651497391,0
{consumergroup=trace-token-events-consumer},1651497396,0
{consumergroup=trace-token-events-consumer},1651497401,0
{consumergroup=trace-token-events-consumer},1651497406,0
{consumergroup=trace-token-events-consumer},1651497411,0
{consumergroup=trace-token-events-consumer},1651497416,0
{consumergroup=trace-token-events-consumer},1651497421,0
{consumergroup=trace-token-events-consumer},1651497426,0
{consumergroup=trace-token-events-consumer},1651497431,0
{consumergroup=trace-token-events-consumer},1651497436,0
{consumergroup=trace-token-events-consumer},1651497441,0
{consumergroup=trace-token-events-consumer},1651497446,0
{consumergroup=trace-token-events-consumer},1651497451,0
{consumergroup=trace-token-events-consumer},1651497456,0
{consumergroup=trace-token-events-consumer},1651497461,0
{consumergroup=trace-token-events-consumer},1651497466,0
{consumergroup=trace-token-events-consumer},1651497471,0
{consumergroup=trace-token-events-consumer},1651497476,0
{consumergroup=trace-token-events-consumer},1651497481,0
{consumergroup=trace-token-events-consumer},1651497486,0
{consumergroup=trace-token-events-consumer},1651497491,0
{consumergroup=trace-token-events-consumer},1651497496,0
{consumergroup=trace-token-events-consumer},1651497501,0
{consumergroup=trace-token-events-consumer},1651497506,0
{consumergroup=trace-token-events-consumer},1651497511,0
{consumergroup=trace-token-events-consumer},1651497516,0
{consumergroup=trace-token-events-consumer},1651497521,0
{consumergroup=trace-token-events-consumer},1651497526,0
{consumergroup=trace-token-events-consumer},1651497531,0
{consumergroup=trace-token-events-consumer},1651497536,0
{consumergroup=trace-token-events-consumer},1651497541,0
{consumergroup=trace-token-events-consumer},1651497546,0
{consumergroup=trace-token-events-consumer},1651497551,0
{consumergroup=trace-token-events-consumer},1651497556,0
{consumergroup=trace-token-events-consumer},1651497561,0
{consumergroup=trace-token-events-consumer},1651497566,0
{consumergroup=trace-token-events-consumer},1651497571,0
{consumergroup=trace-token-events-consumer},1651497576,0
{consumergroup=trace-token-events-consumer},1651497581,0
{consumergroup=trace-token-events-consumer},1651497586,0
{consumergroup=trace-token-events-consumer},1651497591,0
{consumergroup=trace-token-events-consumer},1651497596,0
{consumergroup=trace-token-events-consumer},1651497601,0
{consumergroup=trace-token-events-consumer},1651497606,0
{consumergroup=trace-token-events-consumer},1651497611,0
{consumergroup=trace-token-events-consumer},1651497616,0
{consumergroup=trace-token-events-consumer},1651497621,0
{consumergroup=trace-token-events-consumer},1651497626,0
{consumergroup=trace-token-events-consumer},1651497631,0
{consumergroup=trace-token-events-consumer},1651497636,0
{consumergroup=trace-token-events-consumer},1651497641,0
{consumergroup=trace-token-events-consumer},1651497646,0
{consumergroup=trace-token-events-consumer},1651497651,0
{consumergroup=trace-token-events-consumer},1651497656,0
{consumergroup=trace-token-events-consumer},1651497661,0
{consumergroup=trace-token-events-consumer},1651497666,0
{consumergroup=trace-token-events-consumer},1651497671,0
{consumergroup=trace-token-events-consumer},1651497676,0
{consumergroup=trace-token-events-consumer},1651497681,0
{consumergroup=trace-token-events-consumer},1651497686,0
{consumergroup=trace-token-events-consumer},1651497691,0
{consumergroup=trace-token-events-consumer},1651497696,0
{consumergroup=trace-token-events-consumer},1651497701,0
{consumergroup=trace-token-events-consumer},1651497706,0
{consumergroup=trace-token-events-consumer},1651497711,0
{consumergroup=trace-token-events-consumer},1651497716,0
{consumergroup=trace-token-events-consumer},1651497721,0
{consumergroup=trace-token-events-consumer},1651497726,0
{consumergroup=trace-token-events-consumer},1651497731,0
