labels,timestamp,value
{consumergroup=__strimzi-topic-operator-kstreams},1651479339,0
{consumergroup=__strimzi-topic-operator-kstreams},1651479344,0
{consumergroup=__strimzi-topic-operator-kstreams},1651479349,0
{consumergroup=__strimzi-topic-operator-kstreams},1651479354,3
{consumergroup=__strimzi-topic-operator-kstreams},1651479359,3
{consumergroup=__strimzi-topic-operator-kstreams},1651479364,3
{consumergroup=__strimzi-topic-operator-kstreams},1651479369,0
{consumergroup=__strimzi-topic-operator-kstreams},1651479374,0
{consumergroup=__strimzi-topic-operator-kstreams},1651479379,0
{consumergroup=__strimzi-topic-operator-kstreams},1651479384,0
{consumergroup=__strimzi-topic-operator-kstreams},1651479389,0
{consumergroup=__strimzi-topic-operator-kstreams},1651479394,0
{consumergroup=__strimzi-topic-operator-kstreams},1651479399,0
{consumergroup=__strimzi-topic-operator-kstreams},1651479404,0
{consumergroup=__strimzi-topic-operator-kstreams},1651479409,0
{consumergroup=__strimzi-topic-operator-kstreams},1651479414,0
{consumergroup=__strimzi-topic-operator-kstreams},1651479419,0
{consumergroup=__strimzi-topic-operator-kstreams},1651479424,0
{consumergroup=__strimzi-topic-operator-kstreams},1651479429,0
{consumergroup=__strimzi-topic-operator-kstreams},1651479434,0
{consumergroup=__strimzi-topic-operator-kstreams},1651479439,0
{consumergroup=__strimzi-topic-operator-kstreams},1651479444,0
{consumergroup=__strimzi-topic-operator-kstreams},1651479449,0
{consumergroup=__strimzi-topic-operator-kstreams},1651479454,0
{consumergroup=__strimzi-topic-operator-kstreams},1651479459,0
{consumergroup=__strimzi-topic-operator-kstreams},1651479464,0
{consumergroup=__strimzi-topic-operator-kstreams},1651479469,0
{consumergroup=__strimzi-topic-operator-kstreams},1651479474,0
{consumergroup=__strimzi-topic-operator-kstreams},1651479479,0
{consumergroup=__strimzi-topic-operator-kstreams},1651479484,0
{consumergroup=__strimzi-topic-operator-kstreams},1651479489,0
{consumergroup=__strimzi-topic-operator-kstreams},1651479494,0
{consumergroup=__strimzi-topic-operator-kstreams},1651479499,0
{consumergroup=__strimzi-topic-operator-kstreams},1651479504,0
{consumergroup=__strimzi-topic-operator-kstreams},1651479509,0
{consumergroup=__strimzi-topic-operator-kstreams},1651479514,0
{consumergroup=__strimzi-topic-operator-kstreams},1651479519,0
{consumergroup=__strimzi-topic-operator-kstreams},1651479524,0
{consumergroup=__strimzi-topic-operator-kstreams},1651479529,0
{consumergroup=__strimzi-topic-operator-kstreams},1651479534,0
{consumergroup=__strimzi-topic-operator-kstreams},1651479539,0
{consumergroup=__strimzi-topic-operator-kstreams},1651479544,0
{consumergroup=__strimzi-topic-operator-kstreams},1651479549,0
{consumergroup=__strimzi-topic-operator-kstreams},1651479554,0
{consumergroup=__strimzi-topic-operator-kstreams},1651479559,0
{consumergroup=__strimzi-topic-operator-kstreams},1651479564,0
{consumergroup=__strimzi-topic-operator-kstreams},1651479569,0
{consumergroup=__strimzi-topic-operator-kstreams},1651479574,0
{consumergroup=__strimzi-topic-operator-kstreams},1651479579,0
{consumergroup=__strimzi-topic-operator-kstreams},1651479584,0
{consumergroup=__strimzi-topic-operator-kstreams},1651479589,0
{consumergroup=__strimzi-topic-operator-kstreams},1651479594,0
{consumergroup=__strimzi-topic-operator-kstreams},1651479599,0
{consumergroup=__strimzi-topic-operator-kstreams},1651479604,0
{consumergroup=__strimzi-topic-operator-kstreams},1651479609,0
{consumergroup=__strimzi-topic-operator-kstreams},1651479614,0
{consumergroup=__strimzi-topic-operator-kstreams},1651479619,0
{consumergroup=__strimzi-topic-operator-kstreams},1651479624,0
{consumergroup=__strimzi-topic-operator-kstreams},1651479629,0
{consumergroup=__strimzi-topic-operator-kstreams},1651479634,0
{consumergroup=__strimzi-topic-operator-kstreams},1651479639,0
{consumergroup=__strimzi-topic-operator-kstreams},1651479644,0
{consumergroup=__strimzi-topic-operator-kstreams},1651479649,0
{consumergroup=__strimzi-topic-operator-kstreams},1651479654,0
{consumergroup=__strimzi-topic-operator-kstreams},1651479659,0
{consumergroup=__strimzi-topic-operator-kstreams},1651479664,0
{consumergroup=__strimzi-topic-operator-kstreams},1651479669,0
{consumergroup=__strimzi-topic-operator-kstreams},1651479674,0
{consumergroup=__strimzi-topic-operator-kstreams},1651479679,0
{consumergroup=__strimzi-topic-operator-kstreams},1651479684,0
{consumergroup=__strimzi-topic-operator-kstreams},1651479689,0
{consumergroup=__strimzi-topic-operator-kstreams},1651479694,0
{consumergroup=__strimzi-topic-operator-kstreams},1651479699,0
{consumergroup=__strimzi-topic-operator-kstreams},1651479704,0
{consumergroup=__strimzi-topic-operator-kstreams},1651479709,0
{consumergroup=__strimzi-topic-operator-kstreams},1651479714,0
{consumergroup=__strimzi-topic-operator-kstreams},1651479719,0
{consumergroup=__strimzi-topic-operator-kstreams},1651479724,0
{consumergroup=__strimzi-topic-operator-kstreams},1651479729,0
{consumergroup=__strimzi-topic-operator-kstreams},1651479734,0
{consumergroup=__strimzi-topic-operator-kstreams},1651479739,0
{consumergroup=__strimzi-topic-operator-kstreams},1651479744,0
{consumergroup=__strimzi-topic-operator-kstreams},1651479749,0
{consumergroup=__strimzi-topic-operator-kstreams},1651479754,0
{consumergroup=__strimzi-topic-operator-kstreams},1651479759,0
{consumergroup=__strimzi-topic-operator-kstreams},1651479764,0
{consumergroup=__strimzi-topic-operator-kstreams},1651479769,0
{consumergroup=__strimzi-topic-operator-kstreams},1651479774,0
{consumergroup=__strimzi-topic-operator-kstreams},1651479779,0
{consumergroup=trace-service},1651479384,41743
{consumergroup=trace-service},1651479389,41743
{consumergroup=trace-service},1651479394,41743
{consumergroup=trace-service},1651479399,47848
{consumergroup=trace-service},1651479404,47848
{consumergroup=trace-service},1651479409,47848
{consumergroup=trace-service},1651479414,84569
{consumergroup=trace-service},1651479419,84569
{consumergroup=trace-service},1651479424,84569
{consumergroup=trace-service},1651479429,108720
{consumergroup=trace-service},1651479434,108720
{consumergroup=trace-service},1651479439,108720
{consumergroup=trace-service},1651479444,62026
{consumergroup=trace-service},1651479449,62026
{consumergroup=trace-service},1651479454,62026
{consumergroup=trace-service},1651479459,42048
{consumergroup=trace-service},1651479464,42048
{consumergroup=trace-service},1651479469,42048
{consumergroup=trace-service},1651479474,88263
{consumergroup=trace-service},1651479479,88263
{consumergroup=trace-service},1651479484,88263
{consumergroup=trace-service},1651479489,43761
{consumergroup=trace-service},1651479494,43761
{consumergroup=trace-service},1651479499,43761
{consumergroup=trace-service},1651479504,59562
{consumergroup=trace-service},1651479509,59562
{consumergroup=trace-service},1651479514,59562
{consumergroup=trace-service},1651479519,78529
{consumergroup=trace-service},1651479524,78529
{consumergroup=trace-service},1651479529,78529
{consumergroup=trace-service},1651479534,95932
{consumergroup=trace-service},1651479539,95932
{consumergroup=trace-service},1651479544,95932
{consumergroup=trace-service},1651479549,37477
{consumergroup=trace-service},1651479554,37477
{consumergroup=trace-service},1651479559,37477
{consumergroup=trace-service},1651479564,61815
{consumergroup=trace-service},1651479569,61815
{consumergroup=trace-service},1651479574,61815
{consumergroup=trace-service},1651479579,108599
{consumergroup=trace-service},1651479584,108599
{consumergroup=trace-service},1651479589,108599
{consumergroup=trace-service},1651479594,57030
{consumergroup=trace-service},1651479599,57030
{consumergroup=trace-service},1651479604,57030
{consumergroup=trace-service},1651479609,44311
{consumergroup=trace-service},1651479614,44311
{consumergroup=trace-service},1651479619,44311
{consumergroup=trace-service},1651479624,60022
{consumergroup=trace-service},1651479629,60022
{consumergroup=trace-service},1651479634,60022
{consumergroup=trace-service},1651479639,51136
{consumergroup=trace-service},1651479644,51136
{consumergroup=trace-service},1651479649,51136
{consumergroup=trace-service},1651479654,66748
{consumergroup=trace-service},1651479659,66748
{consumergroup=trace-service},1651479664,66748
{consumergroup=trace-service},1651479669,100147
{consumergroup=trace-service},1651479674,100147
{consumergroup=trace-service},1651479679,100147
{consumergroup=trace-service},1651479684,72437
{consumergroup=trace-service},1651479689,72437
{consumergroup=trace-service},1651479694,72437
{consumergroup=trace-service},1651479699,41346
{consumergroup=trace-service},1651479704,41346
{consumergroup=trace-service},1651479709,41346
{consumergroup=trace-service},1651479714,73919
{consumergroup=trace-service},1651479719,73919
{consumergroup=trace-service},1651479724,73919
{consumergroup=trace-service},1651479729,39538
{consumergroup=trace-service},1651479734,39538
{consumergroup=trace-service},1651479739,39538
{consumergroup=trace-service},1651479744,79973
{consumergroup=trace-service},1651479749,79973
{consumergroup=trace-service},1651479754,79973
{consumergroup=trace-service},1651479759,59121
{consumergroup=trace-service},1651479764,59121
{consumergroup=trace-service},1651479769,59121
{consumergroup=trace-service},1651479774,85164
{consumergroup=trace-service},1651479779,85164
{consumergroup=trace-token-events-consumer},1651479369,0
{consumergroup=trace-token-events-consumer},1651479374,0
{consumergroup=trace-token-events-consumer},1651479379,0
{consumergroup=trace-token-events-consumer},1651479384,0
{consumergroup=trace-token-events-consumer},1651479389,0
{consumergroup=trace-token-events-consumer},1651479394,0
{consumergroup=trace-token-events-consumer},1651479399,0
{consumergroup=trace-token-events-consumer},1651479404,0
{consumergroup=trace-token-events-consumer},1651479409,0
{consumergroup=trace-token-events-consumer},1651479414,0
{consumergroup=trace-token-events-consumer},1651479419,0
{consumergroup=trace-token-events-consumer},1651479424,0
{consumergroup=trace-token-events-consumer},1651479429,0
{consumergroup=trace-token-events-consumer},1651479434,0
{consumergroup=trace-token-events-consumer},1651479439,0
{consumergroup=trace-token-events-consumer},1651479444,0
{consumergroup=trace-token-events-consumer},1651479449,0
{consumergroup=trace-token-events-consumer},1651479454,0
{consumergroup=trace-token-events-consumer},1651479459,0
{consumergroup=trace-token-events-consumer},1651479464,0
{consumergroup=trace-token-events-consumer},1651479469,0
{consumergroup=trace-token-events-consumer},1651479474,0
{consumergroup=trace-token-events-consumer},1651479479,0
{consumergroup=trace-token-events-consumer},1651479484,0
{consumergroup=trace-token-events-consumer},1651479489,0
{consumergroup=trace-token-events-consumer},1651479494,0
{consumergroup=trace-token-events-consumer},1651479499,0
{consumergroup=trace-token-events-consumer},1651479504,0
{consumergroup=trace-token-events-consumer},1651479509,0
{consumergroup=trace-token-events-consumer},1651479514,0
{consumergroup=trace-token-events-consumer},1651479519,0
{consumergroup=trace-token-events-consumer},1651479524,0
{consumergroup=trace-token-events-consumer},1651479529,0
{consumergroup=trace-token-events-consumer},1651479534,0
{consumergroup=trace-token-events-consumer},1651479539,0
{consumergroup=trace-token-events-consumer},1651479544,0
{consumergroup=trace-token-events-consumer},1651479549,0
{consumergroup=trace-token-events-consumer},1651479554,0
{consumergroup=trace-token-events-consumer},1651479559,0
{consumergroup=trace-token-events-consumer},1651479564,0
{consumergroup=trace-token-events-consumer},1651479569,0
{consumergroup=trace-token-events-consumer},1651479574,0
{consumergroup=trace-token-events-consumer},1651479579,0
{consumergroup=trace-token-events-consumer},1651479584,0
{consumergroup=trace-token-events-consumer},1651479589,0
{consumergroup=trace-token-events-consumer},1651479594,0
{consumergroup=trace-token-events-consumer},1651479599,0
{consumergroup=trace-token-events-consumer},1651479604,0
{consumergroup=trace-token-events-consumer},1651479609,0
{consumergroup=trace-token-events-consumer},1651479614,0
{consumergroup=trace-token-events-consumer},1651479619,0
{consumergroup=trace-token-events-consumer},1651479624,0
{consumergroup=trace-token-events-consumer},1651479629,0
{consumergroup=trace-token-events-consumer},1651479634,0
{consumergroup=trace-token-events-consumer},1651479639,0
{consumergroup=trace-token-events-consumer},1651479644,0
{consumergroup=trace-token-events-consumer},1651479649,0
{consumergroup=trace-token-events-consumer},1651479654,0
{consumergroup=trace-token-events-consumer},1651479659,0
{consumergroup=trace-token-events-consumer},1651479664,0
{consumergroup=trace-token-events-consumer},1651479669,0
{consumergroup=trace-token-events-consumer},1651479674,0
{consumergroup=trace-token-events-consumer},1651479679,0
{consumergroup=trace-token-events-consumer},1651479684,0
{consumergroup=trace-token-events-consumer},1651479689,0
{consumergroup=trace-token-events-consumer},1651479694,0
{consumergroup=trace-token-events-consumer},1651479699,0
{consumergroup=trace-token-events-consumer},1651479704,0
{consumergroup=trace-token-events-consumer},1651479709,0
{consumergroup=trace-token-events-consumer},1651479714,0
{consumergroup=trace-token-events-consumer},1651479719,0
{consumergroup=trace-token-events-consumer},1651479724,0
{consumergroup=trace-token-events-consumer},1651479729,0
{consumergroup=trace-token-events-consumer},1651479734,0
{consumergroup=trace-token-events-consumer},1651479739,0
{consumergroup=trace-token-events-consumer},1651479744,0
{consumergroup=trace-token-events-consumer},1651479749,0
{consumergroup=trace-token-events-consumer},1651479754,0
{consumergroup=trace-token-events-consumer},1651479759,0
{consumergroup=trace-token-events-consumer},1651479764,0
{consumergroup=trace-token-events-consumer},1651479769,0
{consumergroup=trace-token-events-consumer},1651479774,0
{consumergroup=trace-token-events-consumer},1651479779,0
