labels,timestamp,value
{consumergroup=__strimzi-topic-operator-kstreams},1651523990,11
{consumergroup=__strimzi-topic-operator-kstreams},1651523995,11
{consumergroup=__strimzi-topic-operator-kstreams},1651524000,11
{consumergroup=__strimzi-topic-operator-kstreams},1651524005,0
{consumergroup=__strimzi-topic-operator-kstreams},1651524010,0
{consumergroup=__strimzi-topic-operator-kstreams},1651524015,0
{consumergroup=__strimzi-topic-operator-kstreams},1651524020,3
{consumergroup=__strimzi-topic-operator-kstreams},1651524025,3
{consumergroup=__strimzi-topic-operator-kstreams},1651524030,3
{consumergroup=__strimzi-topic-operator-kstreams},1651524035,0
{consumergroup=__strimzi-topic-operator-kstreams},1651524040,0
{consumergroup=__strimzi-topic-operator-kstreams},1651524045,0
{consumergroup=__strimzi-topic-operator-kstreams},1651524050,0
{consumergroup=__strimzi-topic-operator-kstreams},1651524055,0
{consumergroup=__strimzi-topic-operator-kstreams},1651524060,0
{consumergroup=__strimzi-topic-operator-kstreams},1651524065,0
{consumergroup=__strimzi-topic-operator-kstreams},1651524070,0
{consumergroup=__strimzi-topic-operator-kstreams},1651524075,0
{consumergroup=__strimzi-topic-operator-kstreams},1651524080,0
{consumergroup=__strimzi-topic-operator-kstreams},1651524085,0
{consumergroup=__strimzi-topic-operator-kstreams},1651524090,0
{consumergroup=__strimzi-topic-operator-kstreams},1651524095,0
{consumergroup=__strimzi-topic-operator-kstreams},1651524100,0
{consumergroup=__strimzi-topic-operator-kstreams},1651524105,0
{consumergroup=__strimzi-topic-operator-kstreams},1651524110,0
{consumergroup=__strimzi-topic-operator-kstreams},1651524115,0
{consumergroup=__strimzi-topic-operator-kstreams},1651524120,0
{consumergroup=__strimzi-topic-operator-kstreams},1651524125,0
{consumergroup=__strimzi-topic-operator-kstreams},1651524130,0
{consumergroup=__strimzi-topic-operator-kstreams},1651524135,0
{consumergroup=__strimzi-topic-operator-kstreams},1651524140,0
{consumergroup=__strimzi-topic-operator-kstreams},1651524145,0
{consumergroup=__strimzi-topic-operator-kstreams},1651524150,0
{consumergroup=__strimzi-topic-operator-kstreams},1651524155,0
{consumergroup=__strimzi-topic-operator-kstreams},1651524160,0
{consumergroup=__strimzi-topic-operator-kstreams},1651524165,0
{consumergroup=__strimzi-topic-operator-kstreams},1651524170,0
{consumergroup=__strimzi-topic-operator-kstreams},1651524175,0
{consumergroup=__strimzi-topic-operator-kstreams},1651524180,0
{consumergroup=__strimzi-topic-operator-kstreams},1651524185,0
{consumergroup=__strimzi-topic-operator-kstreams},1651524190,0
{consumergroup=__strimzi-topic-operator-kstreams},1651524195,0
{consumergroup=__strimzi-topic-operator-kstreams},1651524200,0
{consumergroup=__strimzi-topic-operator-kstreams},1651524205,0
{consumergroup=__strimzi-topic-operator-kstreams},1651524210,0
{consumergroup=__strimzi-topic-operator-kstreams},1651524215,0
{consumergroup=__strimzi-topic-operator-kstreams},1651524220,0
{consumergroup=__strimzi-topic-operator-kstreams},1651524225,0
{consumergroup=__strimzi-topic-operator-kstreams},1651524230,0
{consumergroup=__strimzi-topic-operator-kstreams},1651524235,0
{consumergroup=__strimzi-topic-operator-kstreams},1651524240,0
{consumergroup=__strimzi-topic-operator-kstreams},1651524245,0
{consumergroup=__strimzi-topic-operator-kstreams},1651524250,0
{consumergroup=__strimzi-topic-operator-kstreams},1651524255,0
{consumergroup=__strimzi-topic-operator-kstreams},1651524260,0
{consumergroup=__strimzi-topic-operator-kstreams},1651524265,0
{consumergroup=__strimzi-topic-operator-kstreams},1651524270,0
{consumergroup=__strimzi-topic-operator-kstreams},1651524275,0
{consumergroup=__strimzi-topic-operator-kstreams},1651524280,0
{consumergroup=__strimzi-topic-operator-kstreams},1651524285,0
{consumergroup=__strimzi-topic-operator-kstreams},1651524290,0
{consumergroup=__strimzi-topic-operator-kstreams},1651524295,0
{consumergroup=__strimzi-topic-operator-kstreams},1651524300,0
{consumergroup=__strimzi-topic-operator-kstreams},1651524305,0
{consumergroup=__strimzi-topic-operator-kstreams},1651524310,0
{consumergroup=__strimzi-topic-operator-kstreams},1651524315,0
{consumergroup=__strimzi-topic-operator-kstreams},1651524320,0
{consumergroup=__strimzi-topic-operator-kstreams},1651524325,0
{consumergroup=__strimzi-topic-operator-kstreams},1651524330,0
{consumergroup=__strimzi-topic-operator-kstreams},1651524335,0
{consumergroup=__strimzi-topic-operator-kstreams},1651524340,0
{consumergroup=__strimzi-topic-operator-kstreams},1651524345,0
{consumergroup=__strimzi-topic-operator-kstreams},1651524350,0
{consumergroup=__strimzi-topic-operator-kstreams},1651524355,0
{consumergroup=__strimzi-topic-operator-kstreams},1651524360,0
{consumergroup=__strimzi-topic-operator-kstreams},1651524365,0
{consumergroup=__strimzi-topic-operator-kstreams},1651524370,0
{consumergroup=__strimzi-topic-operator-kstreams},1651524375,0
{consumergroup=__strimzi-topic-operator-kstreams},1651524380,0
{consumergroup=__strimzi-topic-operator-kstreams},1651524385,0
{consumergroup=__strimzi-topic-operator-kstreams},1651524390,0
{consumergroup=__strimzi-topic-operator-kstreams},1651524395,0
{consumergroup=__strimzi-topic-operator-kstreams},1651524400,0
{consumergroup=__strimzi-topic-operator-kstreams},1651524405,0
{consumergroup=__strimzi-topic-operator-kstreams},1651524410,0
{consumergroup=__strimzi-topic-operator-kstreams},1651524415,0
{consumergroup=__strimzi-topic-operator-kstreams},1651524420,0
{consumergroup=__strimzi-topic-operator-kstreams},1651524425,0
{consumergroup=__strimzi-topic-operator-kstreams},1651524430,0
{consumergroup=trace-service},1651524035,30027
{consumergroup=trace-service},1651524040,30027
{consumergroup=trace-service},1651524045,30027
{consumergroup=trace-service},1651524050,112952
{consumergroup=trace-service},1651524055,112952
{consumergroup=trace-service},1651524060,112952
{consumergroup=trace-service},1651524065,9261
{consumergroup=trace-service},1651524070,9261
{consumergroup=trace-service},1651524075,9261
{consumergroup=trace-service},1651524080,63841
{consumergroup=trace-service},1651524085,63841
{consumergroup=trace-service},1651524090,63841
{consumergroup=trace-service},1651524095,30158
{consumergroup=trace-service},1651524100,30158
{consumergroup=trace-service},1651524105,30158
{consumergroup=trace-service},1651524110,72245
{consumergroup=trace-service},1651524115,72245
{consumergroup=trace-service},1651524120,72245
{consumergroup=trace-service},1651524125,22918
{consumergroup=trace-service},1651524130,22918
{consumergroup=trace-service},1651524135,22918
{consumergroup=trace-service},1651524140,71325
{consumergroup=trace-service},1651524145,71325
{consumergroup=trace-service},1651524150,71325
{consumergroup=trace-service},1651524155,16218
{consumergroup=trace-service},1651524160,16218
{consumergroup=trace-service},1651524165,16218
{consumergroup=trace-service},1651524170,78499
{consumergroup=trace-service},1651524175,78499
{consumergroup=trace-service},1651524180,78499
{consumergroup=trace-service},1651524185,147046
{consumergroup=trace-service},1651524190,147046
{consumergroup=trace-service},1651524195,147046
{consumergroup=trace-service},1651524200,105106
{consumergroup=trace-service},1651524205,105106
{consumergroup=trace-service},1651524210,105106
{consumergroup=trace-service},1651524215,12203
{consumergroup=trace-service},1651524220,12203
{consumergroup=trace-service},1651524225,12203
{consumergroup=trace-service},1651524230,69794
{consumergroup=trace-service},1651524235,69794
{consumergroup=trace-service},1651524240,69794
{consumergroup=trace-service},1651524245,101025
{consumergroup=trace-service},1651524250,101025
{consumergroup=trace-service},1651524255,101025
{consumergroup=trace-service},1651524260,75267
{consumergroup=trace-service},1651524265,75267
{consumergroup=trace-service},1651524270,75267
{consumergroup=trace-service},1651524275,17998
{consumergroup=trace-service},1651524280,17998
{consumergroup=trace-service},1651524285,17998
{consumergroup=trace-service},1651524290,71531
{consumergroup=trace-service},1651524295,71531
{consumergroup=trace-service},1651524300,71531
{consumergroup=trace-service},1651524305,27521
{consumergroup=trace-service},1651524310,27521
{consumergroup=trace-service},1651524315,27521
{consumergroup=trace-service},1651524320,76090
{consumergroup=trace-service},1651524325,76090
{consumergroup=trace-service},1651524330,76090
{consumergroup=trace-service},1651524335,22655
{consumergroup=trace-service},1651524340,22655
{consumergroup=trace-service},1651524345,22655
{consumergroup=trace-service},1651524350,76439
{consumergroup=trace-service},1651524355,76439
{consumergroup=trace-service},1651524360,76439
{consumergroup=trace-service},1651524365,24308
{consumergroup=trace-service},1651524370,24308
{consumergroup=trace-service},1651524375,24308
{consumergroup=trace-service},1651524380,80454
{consumergroup=trace-service},1651524385,80454
{consumergroup=trace-service},1651524390,80454
{consumergroup=trace-service},1651524395,21923
{consumergroup=trace-service},1651524400,21923
{consumergroup=trace-service},1651524405,21923
{consumergroup=trace-service},1651524410,81272
{consumergroup=trace-service},1651524415,81272
{consumergroup=trace-service},1651524420,81272
{consumergroup=trace-service},1651524425,188575
{consumergroup=trace-service},1651524430,188575
{consumergroup=trace-token-events-consumer},1651524020,0
{consumergroup=trace-token-events-consumer},1651524025,0
{consumergroup=trace-token-events-consumer},1651524030,0
{consumergroup=trace-token-events-consumer},1651524035,0
{consumergroup=trace-token-events-consumer},1651524040,0
{consumergroup=trace-token-events-consumer},1651524045,0
{consumergroup=trace-token-events-consumer},1651524050,0
{consumergroup=trace-token-events-consumer},1651524055,0
{consumergroup=trace-token-events-consumer},1651524060,0
{consumergroup=trace-token-events-consumer},1651524065,0
{consumergroup=trace-token-events-consumer},1651524070,0
{consumergroup=trace-token-events-consumer},1651524075,0
{consumergroup=trace-token-events-consumer},1651524080,0
{consumergroup=trace-token-events-consumer},1651524085,0
{consumergroup=trace-token-events-consumer},1651524090,0
{consumergroup=trace-token-events-consumer},1651524095,0
{consumergroup=trace-token-events-consumer},1651524100,0
{consumergroup=trace-token-events-consumer},1651524105,0
{consumergroup=trace-token-events-consumer},1651524110,0
{consumergroup=trace-token-events-consumer},1651524115,0
{consumergroup=trace-token-events-consumer},1651524120,0
{consumergroup=trace-token-events-consumer},1651524125,0
{consumergroup=trace-token-events-consumer},1651524130,0
{consumergroup=trace-token-events-consumer},1651524135,0
{consumergroup=trace-token-events-consumer},1651524140,0
{consumergroup=trace-token-events-consumer},1651524145,0
{consumergroup=trace-token-events-consumer},1651524150,0
{consumergroup=trace-token-events-consumer},1651524155,0
{consumergroup=trace-token-events-consumer},1651524160,0
{consumergroup=trace-token-events-consumer},1651524165,0
{consumergroup=trace-token-events-consumer},1651524170,0
{consumergroup=trace-token-events-consumer},1651524175,0
{consumergroup=trace-token-events-consumer},1651524180,0
{consumergroup=trace-token-events-consumer},1651524185,0
{consumergroup=trace-token-events-consumer},1651524190,0
{consumergroup=trace-token-events-consumer},1651524195,0
{consumergroup=trace-token-events-consumer},1651524200,0
{consumergroup=trace-token-events-consumer},1651524205,0
{consumergroup=trace-token-events-consumer},1651524210,0
{consumergroup=trace-token-events-consumer},1651524215,0
{consumergroup=trace-token-events-consumer},1651524220,0
{consumergroup=trace-token-events-consumer},1651524225,0
{consumergroup=trace-token-events-consumer},1651524230,0
{consumergroup=trace-token-events-consumer},1651524235,0
{consumergroup=trace-token-events-consumer},1651524240,0
{consumergroup=trace-token-events-consumer},1651524245,0
{consumergroup=trace-token-events-consumer},1651524250,0
{consumergroup=trace-token-events-consumer},1651524255,0
{consumergroup=trace-token-events-consumer},1651524260,0
{consumergroup=trace-token-events-consumer},1651524265,0
{consumergroup=trace-token-events-consumer},1651524270,0
{consumergroup=trace-token-events-consumer},1651524275,0
{consumergroup=trace-token-events-consumer},1651524280,0
{consumergroup=trace-token-events-consumer},1651524285,0
{consumergroup=trace-token-events-consumer},1651524290,0
{consumergroup=trace-token-events-consumer},1651524295,0
{consumergroup=trace-token-events-consumer},1651524300,0
{consumergroup=trace-token-events-consumer},1651524305,0
{consumergroup=trace-token-events-consumer},1651524310,0
{consumergroup=trace-token-events-consumer},1651524315,0
{consumergroup=trace-token-events-consumer},1651524320,0
{consumergroup=trace-token-events-consumer},1651524325,0
{consumergroup=trace-token-events-consumer},1651524330,0
{consumergroup=trace-token-events-consumer},1651524335,0
{consumergroup=trace-token-events-consumer},1651524340,0
{consumergroup=trace-token-events-consumer},1651524345,0
{consumergroup=trace-token-events-consumer},1651524350,0
{consumergroup=trace-token-events-consumer},1651524355,0
{consumergroup=trace-token-events-consumer},1651524360,0
{consumergroup=trace-token-events-consumer},1651524365,0
{consumergroup=trace-token-events-consumer},1651524370,0
{consumergroup=trace-token-events-consumer},1651524375,0
{consumergroup=trace-token-events-consumer},1651524380,0
{consumergroup=trace-token-events-consumer},1651524385,0
{consumergroup=trace-token-events-consumer},1651524390,0
{consumergroup=trace-token-events-consumer},1651524395,0
{consumergroup=trace-token-events-consumer},1651524400,0
{consumergroup=trace-token-events-consumer},1651524405,0
{consumergroup=trace-token-events-consumer},1651524410,0
{consumergroup=trace-token-events-consumer},1651524415,0
{consumergroup=trace-token-events-consumer},1651524420,0
{consumergroup=trace-token-events-consumer},1651524425,0
{consumergroup=trace-token-events-consumer},1651524430,0
