labels,timestamp,value
{job=theodolite-stu200776/trace-isolated-podmonitor},1651518374,0
{job=theodolite-stu200776/trace-isolated-podmonitor},1651518379,0
{job=theodolite-stu200776/trace-isolated-podmonitor},1651518384,0
{job=theodolite-stu200776/trace-isolated-podmonitor},1651518389,0
{job=theodolite-stu200776/trace-isolated-podmonitor},1651518394,0
{job=theodolite-stu200776/trace-isolated-podmonitor},1651518399,0
{job=theodolite-stu200776/trace-isolated-podmonitor},1651518404,0
{job=theodolite-stu200776/trace-isolated-podmonitor},1651518409,0
{job=theodolite-stu200776/trace-isolated-podmonitor},1651518414,0
{job=theodolite-stu200776/trace-isolated-podmonitor},1651518419,0
{job=theodolite-stu200776/trace-isolated-podmonitor},1651518424,0
{job=theodolite-stu200776/trace-isolated-podmonitor},1651518429,0
{job=theodolite-stu200776/trace-isolated-podmonitor},1651518434,0
{job=theodolite-stu200776/trace-isolated-podmonitor},1651518439,0
{job=theodolite-stu200776/trace-isolated-podmonitor},1651518444,0
{job=theodolite-stu200776/trace-isolated-podmonitor},1651518449,0
{job=theodolite-stu200776/trace-isolated-podmonitor},1651518454,0
{job=theodolite-stu200776/trace-isolated-podmonitor},1651518459,0
{job=theodolite-stu200776/trace-isolated-podmonitor},1651518464,0
{job=theodolite-stu200776/trace-isolated-podmonitor},1651518469,0
{job=theodolite-stu200776/trace-isolated-podmonitor},1651518474,0
{job=theodolite-stu200776/trace-isolated-podmonitor},1651518479,0
{job=theodolite-stu200776/trace-isolated-podmonitor},1651518484,0
{job=theodolite-stu200776/trace-isolated-podmonitor},1651518489,0
{job=theodolite-stu200776/trace-isolated-podmonitor},1651518494,0
{job=theodolite-stu200776/trace-isolated-podmonitor},1651518499,0
{job=theodolite-stu200776/trace-isolated-podmonitor},1651518504,0
{job=theodolite-stu200776/trace-isolated-podmonitor},1651518509,0
{job=theodolite-stu200776/trace-isolated-podmonitor},1651518514,0
{job=theodolite-stu200776/trace-isolated-podmonitor},1651518519,0
{job=theodolite-stu200776/trace-isolated-podmonitor},1651518524,0
{job=theodolite-stu200776/trace-isolated-podmonitor},1651518529,0
{job=theodolite-stu200776/trace-isolated-podmonitor},1651518534,0
{job=theodolite-stu200776/trace-isolated-podmonitor},1651518539,0
{job=theodolite-stu200776/trace-isolated-podmonitor},1651518544,0
{job=theodolite-stu200776/trace-isolated-podmonitor},1651518549,0
{job=theodolite-stu200776/trace-isolated-podmonitor},1651518554,0
{job=theodolite-stu200776/trace-isolated-podmonitor},1651518559,0
{job=theodolite-stu200776/trace-isolated-podmonitor},1651518564,0
{job=theodolite-stu200776/trace-isolated-podmonitor},1651518569,0
{job=theodolite-stu200776/trace-isolated-podmonitor},1651518574,0
{job=theodolite-stu200776/trace-isolated-podmonitor},1651518579,0
{job=theodolite-stu200776/trace-isolated-podmonitor},1651518584,0
{job=theodolite-stu200776/trace-isolated-podmonitor},1651518589,0
{job=theodolite-stu200776/trace-isolated-podmonitor},1651518594,0
{job=theodolite-stu200776/trace-isolated-podmonitor},1651518599,0
{job=theodolite-stu200776/trace-isolated-podmonitor},1651518604,0
{job=theodolite-stu200776/trace-isolated-podmonitor},1651518609,0
{job=theodolite-stu200776/trace-isolated-podmonitor},1651518614,0
{job=theodolite-stu200776/trace-isolated-podmonitor},1651518619,0
{job=theodolite-stu200776/trace-isolated-podmonitor},1651518624,0
{job=theodolite-stu200776/trace-isolated-podmonitor},1651518629,0
{job=theodolite-stu200776/trace-isolated-podmonitor},1651518634,0
{job=theodolite-stu200776/trace-isolated-podmonitor},1651518639,0
{job=theodolite-stu200776/trace-isolated-podmonitor},1651518644,0
{job=theodolite-stu200776/trace-isolated-podmonitor},1651518649,0
{job=theodolite-stu200776/trace-isolated-podmonitor},1651518654,0
{job=theodolite-stu200776/trace-isolated-podmonitor},1651518659,0
{job=theodolite-stu200776/trace-isolated-podmonitor},1651518664,0
{job=theodolite-stu200776/trace-isolated-podmonitor},1651518669,0
{job=theodolite-stu200776/trace-isolated-podmonitor},1651518674,0
{job=theodolite-stu200776/trace-isolated-podmonitor},1651518679,0
{job=theodolite-stu200776/trace-isolated-podmonitor},1651518684,0
{job=theodolite-stu200776/trace-isolated-podmonitor},1651518689,0
{job=theodolite-stu200776/trace-isolated-podmonitor},1651518694,0
{job=theodolite-stu200776/trace-isolated-podmonitor},1651518699,0
{job=theodolite-stu200776/trace-isolated-podmonitor},1651518704,0
{job=theodolite-stu200776/trace-isolated-podmonitor},1651518709,0
{job=theodolite-stu200776/trace-isolated-podmonitor},1651518714,0
{job=theodolite-stu200776/trace-isolated-podmonitor},1651518719,0
{job=theodolite-stu200776/trace-isolated-podmonitor},1651518724,0
{job=theodolite-stu200776/trace-isolated-podmonitor},1651518729,0
{job=theodolite-stu200776/trace-isolated-podmonitor},1651518734,0
{job=theodolite-stu200776/trace-isolated-podmonitor},1651518739,0
{job=theodolite-stu200776/trace-isolated-podmonitor},1651518744,0
