labels,timestamp,value
{job=theodolite-stu200776/trace-isolated-podmonitor},1651519406,0
{job=theodolite-stu200776/trace-isolated-podmonitor},1651519411,0
{job=theodolite-stu200776/trace-isolated-podmonitor},1651519416,0
{job=theodolite-stu200776/trace-isolated-podmonitor},1651519421,0
{job=theodolite-stu200776/trace-isolated-podmonitor},1651519426,0
{job=theodolite-stu200776/trace-isolated-podmonitor},1651519431,0
{job=theodolite-stu200776/trace-isolated-podmonitor},1651519436,0
{job=theodolite-stu200776/trace-isolated-podmonitor},1651519441,0
{job=theodolite-stu200776/trace-isolated-podmonitor},1651519446,0
{job=theodolite-stu200776/trace-isolated-podmonitor},1651519451,0
{job=theodolite-stu200776/trace-isolated-podmonitor},1651519456,0
{job=theodolite-stu200776/trace-isolated-podmonitor},1651519461,0
{job=theodolite-stu200776/trace-isolated-podmonitor},1651519466,0
{job=theodolite-stu200776/trace-isolated-podmonitor},1651519471,0
{job=theodolite-stu200776/trace-isolated-podmonitor},1651519476,0
{job=theodolite-stu200776/trace-isolated-podmonitor},1651519481,0
{job=theodolite-stu200776/trace-isolated-podmonitor},1651519486,0
{job=theodolite-stu200776/trace-isolated-podmonitor},1651519491,0
{job=theodolite-stu200776/trace-isolated-podmonitor},1651519496,0
{job=theodolite-stu200776/trace-isolated-podmonitor},1651519501,0
{job=theodolite-stu200776/trace-isolated-podmonitor},1651519506,0
{job=theodolite-stu200776/trace-isolated-podmonitor},1651519511,0
{job=theodolite-stu200776/trace-isolated-podmonitor},1651519516,0
{job=theodolite-stu200776/trace-isolated-podmonitor},1651519521,0
{job=theodolite-stu200776/trace-isolated-podmonitor},1651519526,0
{job=theodolite-stu200776/trace-isolated-podmonitor},1651519531,0
{job=theodolite-stu200776/trace-isolated-podmonitor},1651519536,0
{job=theodolite-stu200776/trace-isolated-podmonitor},1651519541,0
{job=theodolite-stu200776/trace-isolated-podmonitor},1651519546,0
{job=theodolite-stu200776/trace-isolated-podmonitor},1651519551,0
{job=theodolite-stu200776/trace-isolated-podmonitor},1651519556,0
{job=theodolite-stu200776/trace-isolated-podmonitor},1651519561,0
{job=theodolite-stu200776/trace-isolated-podmonitor},1651519566,0
{job=theodolite-stu200776/trace-isolated-podmonitor},1651519571,0
{job=theodolite-stu200776/trace-isolated-podmonitor},1651519576,0
{job=theodolite-stu200776/trace-isolated-podmonitor},1651519581,0
{job=theodolite-stu200776/trace-isolated-podmonitor},1651519586,0
{job=theodolite-stu200776/trace-isolated-podmonitor},1651519591,0
{job=theodolite-stu200776/trace-isolated-podmonitor},1651519596,2.0178245970679063
{job=theodolite-stu200776/trace-isolated-podmonitor},1651519601,5.327418287043367
{job=theodolite-stu200776/trace-isolated-podmonitor},1651519606,6.034275744936512
{job=theodolite-stu200776/trace-isolated-podmonitor},1651519611,5.462504288983975
{job=theodolite-stu200776/trace-isolated-podmonitor},1651519616,5.176858888058827
{job=theodolite-stu200776/trace-isolated-podmonitor},1651519621,4.697237693451123
{job=theodolite-stu200776/trace-isolated-podmonitor},1651519626,5.738961826189793
{job=theodolite-stu200776/trace-isolated-podmonitor},1651519631,6.957295239033699
{job=theodolite-stu200776/trace-isolated-podmonitor},1651519636,6.507546609601162
{job=theodolite-stu200776/trace-isolated-podmonitor},1651519641,5.768868051479419
{job=theodolite-stu200776/trace-isolated-podmonitor},1651519646,5.1768857233768255
{job=theodolite-stu200776/trace-isolated-podmonitor},1651519651,4.697143689377394
{job=theodolite-stu200776/trace-isolated-podmonitor},1651519656,2.7763074911669294
{job=theodolite-stu200776/trace-isolated-podmonitor},1651519661,0.5181936310289814
{job=theodolite-stu200776/trace-isolated-podmonitor},1651519666,0
{job=theodolite-stu200776/trace-isolated-podmonitor},1651519671,0
{job=theodolite-stu200776/trace-isolated-podmonitor},1651519676,0
{job=theodolite-stu200776/trace-isolated-podmonitor},1651519681,0
{job=theodolite-stu200776/trace-isolated-podmonitor},1651519686,0
{job=theodolite-stu200776/trace-isolated-podmonitor},1651519691,0
{job=theodolite-stu200776/trace-isolated-podmonitor},1651519696,0
{job=theodolite-stu200776/trace-isolated-podmonitor},1651519701,0
{job=theodolite-stu200776/trace-isolated-podmonitor},1651519706,0
{job=theodolite-stu200776/trace-isolated-podmonitor},1651519711,0
{job=theodolite-stu200776/trace-isolated-podmonitor},1651519716,0
{job=theodolite-stu200776/trace-isolated-podmonitor},1651519721,0
{job=theodolite-stu200776/trace-isolated-podmonitor},1651519726,0
{job=theodolite-stu200776/trace-isolated-podmonitor},1651519731,0
{job=theodolite-stu200776/trace-isolated-podmonitor},1651519736,0
{job=theodolite-stu200776/trace-isolated-podmonitor},1651519741,0
{job=theodolite-stu200776/trace-isolated-podmonitor},1651519746,0
{job=theodolite-stu200776/trace-isolated-podmonitor},1651519751,0
{job=theodolite-stu200776/trace-isolated-podmonitor},1651519756,0
{job=theodolite-stu200776/trace-isolated-podmonitor},1651519761,0
{job=theodolite-stu200776/trace-isolated-podmonitor},1651519766,0
{job=theodolite-stu200776/trace-isolated-podmonitor},1651519771,0
{job=theodolite-stu200776/trace-isolated-podmonitor},1651519776,0
{job=theodolite-stu200776/trace-isolated-podmonitor},1651519781,0
