labels,timestamp,value
{consumergroup=__strimzi-topic-operator-kstreams},1651503873,11
{consumergroup=__strimzi-topic-operator-kstreams},1651503878,11
{consumergroup=__strimzi-topic-operator-kstreams},1651503883,11
{consumergroup=__strimzi-topic-operator-kstreams},1651503888,0
{consumergroup=__strimzi-topic-operator-kstreams},1651503893,0
{consumergroup=__strimzi-topic-operator-kstreams},1651503898,0
{consumergroup=__strimzi-topic-operator-kstreams},1651503903,3
{consumergroup=__strimzi-topic-operator-kstreams},1651503908,3
{consumergroup=__strimzi-topic-operator-kstreams},1651503913,3
{consumergroup=__strimzi-topic-operator-kstreams},1651503918,0
{consumergroup=__strimzi-topic-operator-kstreams},1651503923,0
{consumergroup=__strimzi-topic-operator-kstreams},1651503928,0
{consumergroup=__strimzi-topic-operator-kstreams},1651503933,0
{consumergroup=__strimzi-topic-operator-kstreams},1651503938,0
{consumergroup=__strimzi-topic-operator-kstreams},1651503943,0
{consumergroup=__strimzi-topic-operator-kstreams},1651503948,0
{consumergroup=__strimzi-topic-operator-kstreams},1651503953,0
{consumergroup=__strimzi-topic-operator-kstreams},1651503958,0
{consumergroup=__strimzi-topic-operator-kstreams},1651503963,0
{consumergroup=__strimzi-topic-operator-kstreams},1651503968,0
{consumergroup=__strimzi-topic-operator-kstreams},1651503973,0
{consumergroup=__strimzi-topic-operator-kstreams},1651503978,0
{consumergroup=__strimzi-topic-operator-kstreams},1651503983,0
{consumergroup=__strimzi-topic-operator-kstreams},1651503988,0
{consumergroup=__strimzi-topic-operator-kstreams},1651503993,0
{consumergroup=__strimzi-topic-operator-kstreams},1651503998,0
{consumergroup=__strimzi-topic-operator-kstreams},1651504003,0
{consumergroup=__strimzi-topic-operator-kstreams},1651504008,0
{consumergroup=__strimzi-topic-operator-kstreams},1651504013,0
{consumergroup=__strimzi-topic-operator-kstreams},1651504018,0
{consumergroup=__strimzi-topic-operator-kstreams},1651504023,0
{consumergroup=__strimzi-topic-operator-kstreams},1651504028,0
{consumergroup=__strimzi-topic-operator-kstreams},1651504033,0
{consumergroup=__strimzi-topic-operator-kstreams},1651504038,0
{consumergroup=__strimzi-topic-operator-kstreams},1651504043,0
{consumergroup=__strimzi-topic-operator-kstreams},1651504048,0
{consumergroup=__strimzi-topic-operator-kstreams},1651504053,0
{consumergroup=__strimzi-topic-operator-kstreams},1651504058,0
{consumergroup=__strimzi-topic-operator-kstreams},1651504063,0
{consumergroup=__strimzi-topic-operator-kstreams},1651504068,0
{consumergroup=__strimzi-topic-operator-kstreams},1651504073,0
{consumergroup=__strimzi-topic-operator-kstreams},1651504078,0
{consumergroup=__strimzi-topic-operator-kstreams},1651504083,0
{consumergroup=__strimzi-topic-operator-kstreams},1651504088,0
{consumergroup=__strimzi-topic-operator-kstreams},1651504093,0
{consumergroup=__strimzi-topic-operator-kstreams},1651504098,0
{consumergroup=__strimzi-topic-operator-kstreams},1651504103,0
{consumergroup=__strimzi-topic-operator-kstreams},1651504108,0
{consumergroup=__strimzi-topic-operator-kstreams},1651504113,0
{consumergroup=__strimzi-topic-operator-kstreams},1651504118,0
{consumergroup=__strimzi-topic-operator-kstreams},1651504123,0
{consumergroup=__strimzi-topic-operator-kstreams},1651504128,0
{consumergroup=__strimzi-topic-operator-kstreams},1651504133,0
{consumergroup=__strimzi-topic-operator-kstreams},1651504138,0
{consumergroup=__strimzi-topic-operator-kstreams},1651504143,0
{consumergroup=__strimzi-topic-operator-kstreams},1651504148,0
{consumergroup=__strimzi-topic-operator-kstreams},1651504153,0
{consumergroup=__strimzi-topic-operator-kstreams},1651504158,0
{consumergroup=__strimzi-topic-operator-kstreams},1651504163,0
{consumergroup=__strimzi-topic-operator-kstreams},1651504168,0
{consumergroup=__strimzi-topic-operator-kstreams},1651504173,0
{consumergroup=__strimzi-topic-operator-kstreams},1651504178,0
{consumergroup=__strimzi-topic-operator-kstreams},1651504183,0
{consumergroup=__strimzi-topic-operator-kstreams},1651504188,0
{consumergroup=__strimzi-topic-operator-kstreams},1651504193,0
{consumergroup=__strimzi-topic-operator-kstreams},1651504198,0
{consumergroup=__strimzi-topic-operator-kstreams},1651504203,0
{consumergroup=__strimzi-topic-operator-kstreams},1651504208,0
{consumergroup=__strimzi-topic-operator-kstreams},1651504213,0
{consumergroup=__strimzi-topic-operator-kstreams},1651504218,0
{consumergroup=__strimzi-topic-operator-kstreams},1651504223,0
{consumergroup=__strimzi-topic-operator-kstreams},1651504228,0
{consumergroup=__strimzi-topic-operator-kstreams},1651504233,0
{consumergroup=__strimzi-topic-operator-kstreams},1651504238,0
{consumergroup=__strimzi-topic-operator-kstreams},1651504243,0
{consumergroup=__strimzi-topic-operator-kstreams},1651504248,0
{consumergroup=__strimzi-topic-operator-kstreams},1651504253,0
{consumergroup=__strimzi-topic-operator-kstreams},1651504258,0
{consumergroup=__strimzi-topic-operator-kstreams},1651504263,0
{consumergroup=__strimzi-topic-operator-kstreams},1651504268,0
{consumergroup=__strimzi-topic-operator-kstreams},1651504273,0
{consumergroup=__strimzi-topic-operator-kstreams},1651504278,0
{consumergroup=__strimzi-topic-operator-kstreams},1651504283,0
{consumergroup=__strimzi-topic-operator-kstreams},1651504288,0
{consumergroup=__strimzi-topic-operator-kstreams},1651504293,0
{consumergroup=__strimzi-topic-operator-kstreams},1651504298,0
{consumergroup=__strimzi-topic-operator-kstreams},1651504303,0
{consumergroup=__strimzi-topic-operator-kstreams},1651504308,0
{consumergroup=__strimzi-topic-operator-kstreams},1651504313,0
{consumergroup=__strimzi-topic-operator-kstreams},1651504318,0
{consumergroup=trace-service},1651503918,21178
{consumergroup=trace-service},1651503923,21178
{consumergroup=trace-service},1651503928,21178
{consumergroup=trace-service},1651503933,28981
{consumergroup=trace-service},1651503938,28981
{consumergroup=trace-service},1651503943,28981
{consumergroup=trace-service},1651503948,71037
{consumergroup=trace-service},1651503953,71037
{consumergroup=trace-service},1651503958,71037
{consumergroup=trace-service},1651503963,40290
{consumergroup=trace-service},1651503968,40290
{consumergroup=trace-service},1651503973,40290
{consumergroup=trace-service},1651503978,106806
{consumergroup=trace-service},1651503983,106806
{consumergroup=trace-service},1651503988,106806
{consumergroup=trace-service},1651503993,35604
{consumergroup=trace-service},1651503998,35604
{consumergroup=trace-service},1651504003,35604
{consumergroup=trace-service},1651504008,110845
{consumergroup=trace-service},1651504013,110845
{consumergroup=trace-service},1651504018,110845
{consumergroup=trace-service},1651504023,30268
{consumergroup=trace-service},1651504028,30268
{consumergroup=trace-service},1651504033,30268
{consumergroup=trace-service},1651504038,70901
{consumergroup=trace-service},1651504043,70901
{consumergroup=trace-service},1651504048,70901
{consumergroup=trace-service},1651504053,28924
{consumergroup=trace-service},1651504058,28924
{consumergroup=trace-service},1651504063,28924
{consumergroup=trace-service},1651504068,84141
{consumergroup=trace-service},1651504073,84141
{consumergroup=trace-service},1651504078,84141
{consumergroup=trace-service},1651504083,32031
{consumergroup=trace-service},1651504088,32031
{consumergroup=trace-service},1651504093,32031
{consumergroup=trace-service},1651504098,126560
{consumergroup=trace-service},1651504103,126560
{consumergroup=trace-service},1651504108,126560
{consumergroup=trace-service},1651504113,27105
{consumergroup=trace-service},1651504118,27105
{consumergroup=trace-service},1651504123,27105
{consumergroup=trace-service},1651504128,65017
{consumergroup=trace-service},1651504133,65017
{consumergroup=trace-service},1651504138,65017
{consumergroup=trace-service},1651504143,19411
{consumergroup=trace-service},1651504148,19411
{consumergroup=trace-service},1651504153,19411
{consumergroup=trace-service},1651504158,73864
{consumergroup=trace-service},1651504163,73864
{consumergroup=trace-service},1651504168,73864
{consumergroup=trace-service},1651504173,32037
{consumergroup=trace-service},1651504178,32037
{consumergroup=trace-service},1651504183,32037
{consumergroup=trace-service},1651504188,69977
{consumergroup=trace-service},1651504193,69977
{consumergroup=trace-service},1651504198,69977
{consumergroup=trace-service},1651504203,18877
{consumergroup=trace-service},1651504208,18877
{consumergroup=trace-service},1651504213,18877
{consumergroup=trace-service},1651504218,80149
{consumergroup=trace-service},1651504223,80149
{consumergroup=trace-service},1651504228,80149
{consumergroup=trace-service},1651504233,16690
{consumergroup=trace-service},1651504238,16690
{consumergroup=trace-service},1651504243,16690
{consumergroup=trace-service},1651504248,86521
{consumergroup=trace-service},1651504253,86521
{consumergroup=trace-service},1651504258,86521
{consumergroup=trace-service},1651504263,20131
{consumergroup=trace-service},1651504268,20131
{consumergroup=trace-service},1651504273,20131
{consumergroup=trace-service},1651504278,89851
{consumergroup=trace-service},1651504283,89851
{consumergroup=trace-service},1651504288,89851
{consumergroup=trace-service},1651504293,25654
{consumergroup=trace-service},1651504298,25654
{consumergroup=trace-service},1651504303,25654
{consumergroup=trace-service},1651504308,83014
{consumergroup=trace-service},1651504313,83014
{consumergroup=trace-service},1651504318,83014
{consumergroup=trace-token-events-consumer},1651503903,0
{consumergroup=trace-token-events-consumer},1651503908,0
{consumergroup=trace-token-events-consumer},1651503913,0
{consumergroup=trace-token-events-consumer},1651503918,0
{consumergroup=trace-token-events-consumer},1651503923,0
{consumergroup=trace-token-events-consumer},1651503928,0
{consumergroup=trace-token-events-consumer},1651503933,0
{consumergroup=trace-token-events-consumer},1651503938,0
{consumergroup=trace-token-events-consumer},1651503943,0
{consumergroup=trace-token-events-consumer},1651503948,0
{consumergroup=trace-token-events-consumer},1651503953,0
{consumergroup=trace-token-events-consumer},1651503958,0
{consumergroup=trace-token-events-consumer},1651503963,0
{consumergroup=trace-token-events-consumer},1651503968,0
{consumergroup=trace-token-events-consumer},1651503973,0
{consumergroup=trace-token-events-consumer},1651503978,0
{consumergroup=trace-token-events-consumer},1651503983,0
{consumergroup=trace-token-events-consumer},1651503988,0
{consumergroup=trace-token-events-consumer},1651503993,0
{consumergroup=trace-token-events-consumer},1651503998,0
{consumergroup=trace-token-events-consumer},1651504003,0
{consumergroup=trace-token-events-consumer},1651504008,0
{consumergroup=trace-token-events-consumer},1651504013,0
{consumergroup=trace-token-events-consumer},1651504018,0
{consumergroup=trace-token-events-consumer},1651504023,0
{consumergroup=trace-token-events-consumer},1651504028,0
{consumergroup=trace-token-events-consumer},1651504033,0
{consumergroup=trace-token-events-consumer},1651504038,0
{consumergroup=trace-token-events-consumer},1651504043,0
{consumergroup=trace-token-events-consumer},1651504048,0
{consumergroup=trace-token-events-consumer},1651504053,0
{consumergroup=trace-token-events-consumer},1651504058,0
{consumergroup=trace-token-events-consumer},1651504063,0
{consumergroup=trace-token-events-consumer},1651504068,0
{consumergroup=trace-token-events-consumer},1651504073,0
{consumergroup=trace-token-events-consumer},1651504078,0
{consumergroup=trace-token-events-consumer},1651504083,0
{consumergroup=trace-token-events-consumer},1651504088,0
{consumergroup=trace-token-events-consumer},1651504093,0
{consumergroup=trace-token-events-consumer},1651504098,0
{consumergroup=trace-token-events-consumer},1651504103,0
{consumergroup=trace-token-events-consumer},1651504108,0
{consumergroup=trace-token-events-consumer},1651504113,0
{consumergroup=trace-token-events-consumer},1651504118,0
{consumergroup=trace-token-events-consumer},1651504123,0
{consumergroup=trace-token-events-consumer},1651504128,0
{consumergroup=trace-token-events-consumer},1651504133,0
{consumergroup=trace-token-events-consumer},1651504138,0
{consumergroup=trace-token-events-consumer},1651504143,0
{consumergroup=trace-token-events-consumer},1651504148,0
{consumergroup=trace-token-events-consumer},1651504153,0
{consumergroup=trace-token-events-consumer},1651504158,0
{consumergroup=trace-token-events-consumer},1651504163,0
{consumergroup=trace-token-events-consumer},1651504168,0
{consumergroup=trace-token-events-consumer},1651504173,0
{consumergroup=trace-token-events-consumer},1651504178,0
{consumergroup=trace-token-events-consumer},1651504183,0
{consumergroup=trace-token-events-consumer},1651504188,0
{consumergroup=trace-token-events-consumer},1651504193,0
{consumergroup=trace-token-events-consumer},1651504198,0
{consumergroup=trace-token-events-consumer},1651504203,0
{consumergroup=trace-token-events-consumer},1651504208,0
{consumergroup=trace-token-events-consumer},1651504213,0
{consumergroup=trace-token-events-consumer},1651504218,0
{consumergroup=trace-token-events-consumer},1651504223,0
{consumergroup=trace-token-events-consumer},1651504228,0
{consumergroup=trace-token-events-consumer},1651504233,0
{consumergroup=trace-token-events-consumer},1651504238,0
{consumergroup=trace-token-events-consumer},1651504243,0
{consumergroup=trace-token-events-consumer},1651504248,0
{consumergroup=trace-token-events-consumer},1651504253,0
{consumergroup=trace-token-events-consumer},1651504258,0
{consumergroup=trace-token-events-consumer},1651504263,0
{consumergroup=trace-token-events-consumer},1651504268,0
{consumergroup=trace-token-events-consumer},1651504273,0
{consumergroup=trace-token-events-consumer},1651504278,0
{consumergroup=trace-token-events-consumer},1651504283,0
{consumergroup=trace-token-events-consumer},1651504288,0
{consumergroup=trace-token-events-consumer},1651504293,0
{consumergroup=trace-token-events-consumer},1651504298,0
{consumergroup=trace-token-events-consumer},1651504303,0
{consumergroup=trace-token-events-consumer},1651504308,0
{consumergroup=trace-token-events-consumer},1651504313,0
{consumergroup=trace-token-events-consumer},1651504318,0
