labels,timestamp,value
{consumergroup=__strimzi-topic-operator-kstreams},1651506456,3
{consumergroup=__strimzi-topic-operator-kstreams},1651506461,3
{consumergroup=__strimzi-topic-operator-kstreams},1651506466,3
{consumergroup=__strimzi-topic-operator-kstreams},1651506471,0
{consumergroup=__strimzi-topic-operator-kstreams},1651506476,0
{consumergroup=__strimzi-topic-operator-kstreams},1651506481,0
{consumergroup=__strimzi-topic-operator-kstreams},1651506486,3
{consumergroup=__strimzi-topic-operator-kstreams},1651506491,3
{consumergroup=__strimzi-topic-operator-kstreams},1651506496,3
{consumergroup=__strimzi-topic-operator-kstreams},1651506501,0
{consumergroup=__strimzi-topic-operator-kstreams},1651506506,0
{consumergroup=__strimzi-topic-operator-kstreams},1651506511,0
{consumergroup=__strimzi-topic-operator-kstreams},1651506516,0
{consumergroup=__strimzi-topic-operator-kstreams},1651506521,0
{consumergroup=__strimzi-topic-operator-kstreams},1651506526,0
{consumergroup=__strimzi-topic-operator-kstreams},1651506531,0
{consumergroup=__strimzi-topic-operator-kstreams},1651506536,0
{consumergroup=__strimzi-topic-operator-kstreams},1651506541,0
{consumergroup=__strimzi-topic-operator-kstreams},1651506546,0
{consumergroup=__strimzi-topic-operator-kstreams},1651506551,0
{consumergroup=__strimzi-topic-operator-kstreams},1651506556,0
{consumergroup=__strimzi-topic-operator-kstreams},1651506561,0
{consumergroup=__strimzi-topic-operator-kstreams},1651506566,0
{consumergroup=__strimzi-topic-operator-kstreams},1651506571,0
{consumergroup=__strimzi-topic-operator-kstreams},1651506576,0
{consumergroup=__strimzi-topic-operator-kstreams},1651506581,0
{consumergroup=__strimzi-topic-operator-kstreams},1651506586,0
{consumergroup=__strimzi-topic-operator-kstreams},1651506591,0
{consumergroup=__strimzi-topic-operator-kstreams},1651506596,0
{consumergroup=__strimzi-topic-operator-kstreams},1651506601,0
{consumergroup=__strimzi-topic-operator-kstreams},1651506606,0
{consumergroup=__strimzi-topic-operator-kstreams},1651506611,0
{consumergroup=__strimzi-topic-operator-kstreams},1651506616,0
{consumergroup=__strimzi-topic-operator-kstreams},1651506621,0
{consumergroup=__strimzi-topic-operator-kstreams},1651506626,0
{consumergroup=__strimzi-topic-operator-kstreams},1651506631,0
{consumergroup=__strimzi-topic-operator-kstreams},1651506636,0
{consumergroup=__strimzi-topic-operator-kstreams},1651506641,0
{consumergroup=__strimzi-topic-operator-kstreams},1651506646,0
{consumergroup=__strimzi-topic-operator-kstreams},1651506651,0
{consumergroup=__strimzi-topic-operator-kstreams},1651506656,0
{consumergroup=__strimzi-topic-operator-kstreams},1651506661,0
{consumergroup=__strimzi-topic-operator-kstreams},1651506666,0
{consumergroup=__strimzi-topic-operator-kstreams},1651506671,0
{consumergroup=__strimzi-topic-operator-kstreams},1651506676,0
{consumergroup=__strimzi-topic-operator-kstreams},1651506681,0
{consumergroup=__strimzi-topic-operator-kstreams},1651506686,0
{consumergroup=__strimzi-topic-operator-kstreams},1651506691,0
{consumergroup=__strimzi-topic-operator-kstreams},1651506696,0
{consumergroup=__strimzi-topic-operator-kstreams},1651506701,0
{consumergroup=__strimzi-topic-operator-kstreams},1651506706,0
{consumergroup=__strimzi-topic-operator-kstreams},1651506711,0
{consumergroup=__strimzi-topic-operator-kstreams},1651506716,0
{consumergroup=__strimzi-topic-operator-kstreams},1651506721,0
{consumergroup=__strimzi-topic-operator-kstreams},1651506726,0
{consumergroup=__strimzi-topic-operator-kstreams},1651506731,0
{consumergroup=__strimzi-topic-operator-kstreams},1651506736,0
{consumergroup=__strimzi-topic-operator-kstreams},1651506741,0
{consumergroup=__strimzi-topic-operator-kstreams},1651506746,0
{consumergroup=__strimzi-topic-operator-kstreams},1651506751,0
{consumergroup=__strimzi-topic-operator-kstreams},1651506756,0
{consumergroup=__strimzi-topic-operator-kstreams},1651506761,0
{consumergroup=__strimzi-topic-operator-kstreams},1651506766,0
{consumergroup=__strimzi-topic-operator-kstreams},1651506771,0
{consumergroup=__strimzi-topic-operator-kstreams},1651506776,0
{consumergroup=__strimzi-topic-operator-kstreams},1651506781,0
{consumergroup=__strimzi-topic-operator-kstreams},1651506786,0
{consumergroup=__strimzi-topic-operator-kstreams},1651506791,0
{consumergroup=__strimzi-topic-operator-kstreams},1651506796,0
{consumergroup=__strimzi-topic-operator-kstreams},1651506801,0
{consumergroup=__strimzi-topic-operator-kstreams},1651506806,0
{consumergroup=__strimzi-topic-operator-kstreams},1651506811,0
{consumergroup=__strimzi-topic-operator-kstreams},1651506816,0
{consumergroup=__strimzi-topic-operator-kstreams},1651506821,0
{consumergroup=__strimzi-topic-operator-kstreams},1651506826,0
{consumergroup=__strimzi-topic-operator-kstreams},1651506831,0
{consumergroup=__strimzi-topic-operator-kstreams},1651506836,0
{consumergroup=__strimzi-topic-operator-kstreams},1651506841,0
{consumergroup=__strimzi-topic-operator-kstreams},1651506846,0
{consumergroup=__strimzi-topic-operator-kstreams},1651506851,0
{consumergroup=__strimzi-topic-operator-kstreams},1651506856,0
{consumergroup=__strimzi-topic-operator-kstreams},1651506861,0
{consumergroup=__strimzi-topic-operator-kstreams},1651506866,0
{consumergroup=__strimzi-topic-operator-kstreams},1651506871,0
{consumergroup=__strimzi-topic-operator-kstreams},1651506876,0
{consumergroup=__strimzi-topic-operator-kstreams},1651506881,0
{consumergroup=__strimzi-topic-operator-kstreams},1651506886,0
{consumergroup=__strimzi-topic-operator-kstreams},1651506891,0
{consumergroup=__strimzi-topic-operator-kstreams},1651506896,0
{consumergroup=__strimzi-topic-operator-kstreams},1651506901,0
{consumergroup=__strimzi-topic-operator-kstreams},1651506906,0
{consumergroup=trace-service},1651506516,34252
{consumergroup=trace-service},1651506521,34252
{consumergroup=trace-service},1651506526,34252
{consumergroup=trace-service},1651506531,103659
{consumergroup=trace-service},1651506536,103659
{consumergroup=trace-service},1651506541,103659
{consumergroup=trace-service},1651506546,40754
{consumergroup=trace-service},1651506551,40754
{consumergroup=trace-service},1651506556,40754
{consumergroup=trace-service},1651506561,125946
{consumergroup=trace-service},1651506566,125946
{consumergroup=trace-service},1651506571,125946
{consumergroup=trace-service},1651506576,39521
{consumergroup=trace-service},1651506581,39521
{consumergroup=trace-service},1651506586,39521
{consumergroup=trace-service},1651506591,86535
{consumergroup=trace-service},1651506596,86535
{consumergroup=trace-service},1651506601,86535
{consumergroup=trace-service},1651506606,41939
{consumergroup=trace-service},1651506611,41939
{consumergroup=trace-service},1651506616,41939
{consumergroup=trace-service},1651506621,73630
{consumergroup=trace-service},1651506626,73630
{consumergroup=trace-service},1651506631,73630
{consumergroup=trace-service},1651506636,41348
{consumergroup=trace-service},1651506641,41348
{consumergroup=trace-service},1651506646,41348
{consumergroup=trace-service},1651506651,110034
{consumergroup=trace-service},1651506656,110034
{consumergroup=trace-service},1651506661,110034
{consumergroup=trace-service},1651506666,39935
{consumergroup=trace-service},1651506671,39935
{consumergroup=trace-service},1651506676,39935
{consumergroup=trace-service},1651506681,70576
{consumergroup=trace-service},1651506686,70576
{consumergroup=trace-service},1651506691,70576
{consumergroup=trace-service},1651506696,29638
{consumergroup=trace-service},1651506701,29638
{consumergroup=trace-service},1651506706,29638
{consumergroup=trace-service},1651506711,97753
{consumergroup=trace-service},1651506716,97753
{consumergroup=trace-service},1651506721,97753
{consumergroup=trace-service},1651506726,39325
{consumergroup=trace-service},1651506731,39325
{consumergroup=trace-service},1651506736,39325
{consumergroup=trace-service},1651506741,115657
{consumergroup=trace-service},1651506746,115657
{consumergroup=trace-service},1651506751,115657
{consumergroup=trace-service},1651506756,35258
{consumergroup=trace-service},1651506761,35258
{consumergroup=trace-service},1651506766,35258
{consumergroup=trace-service},1651506771,76398
{consumergroup=trace-service},1651506776,76398
{consumergroup=trace-service},1651506781,76398
{consumergroup=trace-service},1651506786,161105
{consumergroup=trace-service},1651506791,161105
{consumergroup=trace-service},1651506796,161105
{consumergroup=trace-service},1651506801,86186
{consumergroup=trace-service},1651506806,86186
{consumergroup=trace-service},1651506811,86186
{consumergroup=trace-service},1651506816,29302
{consumergroup=trace-service},1651506821,29302
{consumergroup=trace-service},1651506826,29302
{consumergroup=trace-service},1651506831,61927
{consumergroup=trace-service},1651506836,61927
{consumergroup=trace-service},1651506841,61927
{consumergroup=trace-service},1651506846,34063
{consumergroup=trace-service},1651506851,34063
{consumergroup=trace-service},1651506856,34063
{consumergroup=trace-service},1651506861,91790
{consumergroup=trace-service},1651506866,91790
{consumergroup=trace-service},1651506871,91790
{consumergroup=trace-service},1651506876,40984
{consumergroup=trace-service},1651506881,40984
{consumergroup=trace-service},1651506886,40984
{consumergroup=trace-service},1651506891,116552
{consumergroup=trace-service},1651506896,116552
{consumergroup=trace-service},1651506901,116552
{consumergroup=trace-service},1651506906,41983
{consumergroup=trace-token-events-consumer},1651506501,0
{consumergroup=trace-token-events-consumer},1651506506,0
{consumergroup=trace-token-events-consumer},1651506511,0
{consumergroup=trace-token-events-consumer},1651506516,0
{consumergroup=trace-token-events-consumer},1651506521,0
{consumergroup=trace-token-events-consumer},1651506526,0
{consumergroup=trace-token-events-consumer},1651506531,0
{consumergroup=trace-token-events-consumer},1651506536,0
{consumergroup=trace-token-events-consumer},1651506541,0
{consumergroup=trace-token-events-consumer},1651506546,0
{consumergroup=trace-token-events-consumer},1651506551,0
{consumergroup=trace-token-events-consumer},1651506556,0
{consumergroup=trace-token-events-consumer},1651506561,0
{consumergroup=trace-token-events-consumer},1651506566,0
{consumergroup=trace-token-events-consumer},1651506571,0
{consumergroup=trace-token-events-consumer},1651506576,0
{consumergroup=trace-token-events-consumer},1651506581,0
{consumergroup=trace-token-events-consumer},1651506586,0
{consumergroup=trace-token-events-consumer},1651506591,0
{consumergroup=trace-token-events-consumer},1651506596,0
{consumergroup=trace-token-events-consumer},1651506601,0
{consumergroup=trace-token-events-consumer},1651506606,0
{consumergroup=trace-token-events-consumer},1651506611,0
{consumergroup=trace-token-events-consumer},1651506616,0
{consumergroup=trace-token-events-consumer},1651506621,0
{consumergroup=trace-token-events-consumer},1651506626,0
{consumergroup=trace-token-events-consumer},1651506631,0
{consumergroup=trace-token-events-consumer},1651506636,0
{consumergroup=trace-token-events-consumer},1651506641,0
{consumergroup=trace-token-events-consumer},1651506646,0
{consumergroup=trace-token-events-consumer},1651506651,0
{consumergroup=trace-token-events-consumer},1651506656,0
{consumergroup=trace-token-events-consumer},1651506661,0
{consumergroup=trace-token-events-consumer},1651506666,0
{consumergroup=trace-token-events-consumer},1651506671,0
{consumergroup=trace-token-events-consumer},1651506676,0
{consumergroup=trace-token-events-consumer},1651506681,0
{consumergroup=trace-token-events-consumer},1651506686,0
{consumergroup=trace-token-events-consumer},1651506691,0
{consumergroup=trace-token-events-consumer},1651506696,0
{consumergroup=trace-token-events-consumer},1651506701,0
{consumergroup=trace-token-events-consumer},1651506706,0
{consumergroup=trace-token-events-consumer},1651506711,0
{consumergroup=trace-token-events-consumer},1651506716,0
{consumergroup=trace-token-events-consumer},1651506721,0
{consumergroup=trace-token-events-consumer},1651506726,0
{consumergroup=trace-token-events-consumer},1651506731,0
{consumergroup=trace-token-events-consumer},1651506736,0
{consumergroup=trace-token-events-consumer},1651506741,0
{consumergroup=trace-token-events-consumer},1651506746,0
{consumergroup=trace-token-events-consumer},1651506751,0
{consumergroup=trace-token-events-consumer},1651506756,0
{consumergroup=trace-token-events-consumer},1651506761,0
{consumergroup=trace-token-events-consumer},1651506766,0
{consumergroup=trace-token-events-consumer},1651506771,0
{consumergroup=trace-token-events-consumer},1651506776,0
{consumergroup=trace-token-events-consumer},1651506781,0
{consumergroup=trace-token-events-consumer},1651506786,0
{consumergroup=trace-token-events-consumer},1651506791,0
{consumergroup=trace-token-events-consumer},1651506796,0
{consumergroup=trace-token-events-consumer},1651506801,0
{consumergroup=trace-token-events-consumer},1651506806,0
{consumergroup=trace-token-events-consumer},1651506811,0
{consumergroup=trace-token-events-consumer},1651506816,0
{consumergroup=trace-token-events-consumer},1651506821,0
{consumergroup=trace-token-events-consumer},1651506826,0
{consumergroup=trace-token-events-consumer},1651506831,0
{consumergroup=trace-token-events-consumer},1651506836,0
{consumergroup=trace-token-events-consumer},1651506841,0
{consumergroup=trace-token-events-consumer},1651506846,0
{consumergroup=trace-token-events-consumer},1651506851,0
{consumergroup=trace-token-events-consumer},1651506856,0
{consumergroup=trace-token-events-consumer},1651506861,0
{consumergroup=trace-token-events-consumer},1651506866,0
{consumergroup=trace-token-events-consumer},1651506871,0
{consumergroup=trace-token-events-consumer},1651506876,0
{consumergroup=trace-token-events-consumer},1651506881,0
{consumergroup=trace-token-events-consumer},1651506886,0
{consumergroup=trace-token-events-consumer},1651506891,0
{consumergroup=trace-token-events-consumer},1651506896,0
{consumergroup=trace-token-events-consumer},1651506901,0
{consumergroup=trace-token-events-consumer},1651506906,0
