labels,timestamp,value
{job=theodolite-stu200776/trace-isolated-podmonitor},1651506114,0
{job=theodolite-stu200776/trace-isolated-podmonitor},1651506119,0
{job=theodolite-stu200776/trace-isolated-podmonitor},1651506124,0
{job=theodolite-stu200776/trace-isolated-podmonitor},1651506129,0
{job=theodolite-stu200776/trace-isolated-podmonitor},1651506134,0
{job=theodolite-stu200776/trace-isolated-podmonitor},1651506139,0
{job=theodolite-stu200776/trace-isolated-podmonitor},1651506144,0
{job=theodolite-stu200776/trace-isolated-podmonitor},1651506149,0
{job=theodolite-stu200776/trace-isolated-podmonitor},1651506154,0
{job=theodolite-stu200776/trace-isolated-podmonitor},1651506159,0
{job=theodolite-stu200776/trace-isolated-podmonitor},1651506164,0
{job=theodolite-stu200776/trace-isolated-podmonitor},1651506169,0
{job=theodolite-stu200776/trace-isolated-podmonitor},1651506174,0
{job=theodolite-stu200776/trace-isolated-podmonitor},1651506179,0
{job=theodolite-stu200776/trace-isolated-podmonitor},1651506184,0
{job=theodolite-stu200776/trace-isolated-podmonitor},1651506189,0
{job=theodolite-stu200776/trace-isolated-podmonitor},1651506194,0
{job=theodolite-stu200776/trace-isolated-podmonitor},1651506199,0
{job=theodolite-stu200776/trace-isolated-podmonitor},1651506204,0
{job=theodolite-stu200776/trace-isolated-podmonitor},1651506209,0
{job=theodolite-stu200776/trace-isolated-podmonitor},1651506214,0
{job=theodolite-stu200776/trace-isolated-podmonitor},1651506219,0
{job=theodolite-stu200776/trace-isolated-podmonitor},1651506224,0
{job=theodolite-stu200776/trace-isolated-podmonitor},1651506229,0
{job=theodolite-stu200776/trace-isolated-podmonitor},1651506234,0
{job=theodolite-stu200776/trace-isolated-podmonitor},1651506239,0
{job=theodolite-stu200776/trace-isolated-podmonitor},1651506244,0
{job=theodolite-stu200776/trace-isolated-podmonitor},1651506249,0
{job=theodolite-stu200776/trace-isolated-podmonitor},1651506254,0
{job=theodolite-stu200776/trace-isolated-podmonitor},1651506259,0
{job=theodolite-stu200776/trace-isolated-podmonitor},1651506264,0
{job=theodolite-stu200776/trace-isolated-podmonitor},1651506269,0
{job=theodolite-stu200776/trace-isolated-podmonitor},1651506274,0
{job=theodolite-stu200776/trace-isolated-podmonitor},1651506279,0
{job=theodolite-stu200776/trace-isolated-podmonitor},1651506284,0
{job=theodolite-stu200776/trace-isolated-podmonitor},1651506289,0
{job=theodolite-stu200776/trace-isolated-podmonitor},1651506294,0
{job=theodolite-stu200776/trace-isolated-podmonitor},1651506299,0
{job=theodolite-stu200776/trace-isolated-podmonitor},1651506304,0
{job=theodolite-stu200776/trace-isolated-podmonitor},1651506309,0
{job=theodolite-stu200776/trace-isolated-podmonitor},1651506314,0
{job=theodolite-stu200776/trace-isolated-podmonitor},1651506319,0
{job=theodolite-stu200776/trace-isolated-podmonitor},1651506324,0
{job=theodolite-stu200776/trace-isolated-podmonitor},1651506329,0
{job=theodolite-stu200776/trace-isolated-podmonitor},1651506334,0
{job=theodolite-stu200776/trace-isolated-podmonitor},1651506339,0
{job=theodolite-stu200776/trace-isolated-podmonitor},1651506344,0
{job=theodolite-stu200776/trace-isolated-podmonitor},1651506349,0
{job=theodolite-stu200776/trace-isolated-podmonitor},1651506354,0
{job=theodolite-stu200776/trace-isolated-podmonitor},1651506359,0
{job=theodolite-stu200776/trace-isolated-podmonitor},1651506364,0
{job=theodolite-stu200776/trace-isolated-podmonitor},1651506369,0
{job=theodolite-stu200776/trace-isolated-podmonitor},1651506374,0
{job=theodolite-stu200776/trace-isolated-podmonitor},1651506379,0
{job=theodolite-stu200776/trace-isolated-podmonitor},1651506384,0
{job=theodolite-stu200776/trace-isolated-podmonitor},1651506389,0
{job=theodolite-stu200776/trace-isolated-podmonitor},1651506394,0
