labels,timestamp,value
{consumergroup=__strimzi-topic-operator-kstreams},1651266810,0
{consumergroup=__strimzi-topic-operator-kstreams},1651266815,0
{consumergroup=__strimzi-topic-operator-kstreams},1651266820,2
{consumergroup=__strimzi-topic-operator-kstreams},1651266825,2
{consumergroup=__strimzi-topic-operator-kstreams},1651266830,2
{consumergroup=__strimzi-topic-operator-kstreams},1651266835,7
{consumergroup=__strimzi-topic-operator-kstreams},1651266840,7
{consumergroup=__strimzi-topic-operator-kstreams},1651266845,7
{consumergroup=__strimzi-topic-operator-kstreams},1651266850,0
{consumergroup=__strimzi-topic-operator-kstreams},1651266855,0
{consumergroup=__strimzi-topic-operator-kstreams},1651266860,0
{consumergroup=__strimzi-topic-operator-kstreams},1651266865,0
{consumergroup=__strimzi-topic-operator-kstreams},1651266870,0
{consumergroup=__strimzi-topic-operator-kstreams},1651266875,0
{consumergroup=__strimzi-topic-operator-kstreams},1651266880,0
{consumergroup=__strimzi-topic-operator-kstreams},1651266885,0
{consumergroup=__strimzi-topic-operator-kstreams},1651266890,0
{consumergroup=__strimzi-topic-operator-kstreams},1651266895,0
{consumergroup=__strimzi-topic-operator-kstreams},1651266900,0
{consumergroup=__strimzi-topic-operator-kstreams},1651266905,0
{consumergroup=__strimzi-topic-operator-kstreams},1651266910,0
{consumergroup=__strimzi-topic-operator-kstreams},1651266915,0
{consumergroup=__strimzi-topic-operator-kstreams},1651266920,0
{consumergroup=__strimzi-topic-operator-kstreams},1651266925,0
{consumergroup=__strimzi-topic-operator-kstreams},1651266930,0
{consumergroup=__strimzi-topic-operator-kstreams},1651266935,0
{consumergroup=__strimzi-topic-operator-kstreams},1651266940,0
{consumergroup=__strimzi-topic-operator-kstreams},1651266945,0
{consumergroup=__strimzi-topic-operator-kstreams},1651266950,0
{consumergroup=__strimzi-topic-operator-kstreams},1651266955,0
{consumergroup=__strimzi-topic-operator-kstreams},1651266960,0
{consumergroup=__strimzi-topic-operator-kstreams},1651266965,0
{consumergroup=__strimzi-topic-operator-kstreams},1651266970,0
{consumergroup=__strimzi-topic-operator-kstreams},1651266975,0
{consumergroup=__strimzi-topic-operator-kstreams},1651266980,0
{consumergroup=__strimzi-topic-operator-kstreams},1651266985,0
{consumergroup=__strimzi-topic-operator-kstreams},1651266990,0
{consumergroup=__strimzi-topic-operator-kstreams},1651266995,0
{consumergroup=__strimzi-topic-operator-kstreams},1651267000,0
{consumergroup=__strimzi-topic-operator-kstreams},1651267005,0
{consumergroup=__strimzi-topic-operator-kstreams},1651267010,0
{consumergroup=__strimzi-topic-operator-kstreams},1651267015,0
{consumergroup=__strimzi-topic-operator-kstreams},1651267020,0
{consumergroup=__strimzi-topic-operator-kstreams},1651267025,0
{consumergroup=__strimzi-topic-operator-kstreams},1651267030,0
{consumergroup=__strimzi-topic-operator-kstreams},1651267035,0
{consumergroup=__strimzi-topic-operator-kstreams},1651267040,0
{consumergroup=__strimzi-topic-operator-kstreams},1651267045,0
{consumergroup=__strimzi-topic-operator-kstreams},1651267050,0
{consumergroup=__strimzi-topic-operator-kstreams},1651267055,0
{consumergroup=__strimzi-topic-operator-kstreams},1651267060,0
{consumergroup=__strimzi-topic-operator-kstreams},1651267065,0
{consumergroup=__strimzi-topic-operator-kstreams},1651267070,0
{consumergroup=__strimzi-topic-operator-kstreams},1651267075,0
{consumergroup=__strimzi-topic-operator-kstreams},1651267080,0
{consumergroup=__strimzi-topic-operator-kstreams},1651267085,0
{consumergroup=__strimzi-topic-operator-kstreams},1651267090,0
{consumergroup=__strimzi-topic-operator-kstreams},1651267095,0
{consumergroup=__strimzi-topic-operator-kstreams},1651267100,0
{consumergroup=__strimzi-topic-operator-kstreams},1651267105,0
{consumergroup=__strimzi-topic-operator-kstreams},1651267110,0
{consumergroup=__strimzi-topic-operator-kstreams},1651267115,0
{consumergroup=__strimzi-topic-operator-kstreams},1651267120,0
{consumergroup=__strimzi-topic-operator-kstreams},1651267125,0
{consumergroup=__strimzi-topic-operator-kstreams},1651267130,0
{consumergroup=__strimzi-topic-operator-kstreams},1651267135,0
{consumergroup=__strimzi-topic-operator-kstreams},1651267140,0
{consumergroup=__strimzi-topic-operator-kstreams},1651267145,0
{consumergroup=adapter-service},1651266850,0
{consumergroup=adapter-service},1651266855,0
{consumergroup=adapter-service},1651266860,0
{consumergroup=adapter-service},1651266865,12323
{consumergroup=adapter-service},1651266870,12323
{consumergroup=adapter-service},1651266875,12323
{consumergroup=adapter-service},1651266880,11998
{consumergroup=adapter-service},1651266885,11998
{consumergroup=adapter-service},1651266890,11998
{consumergroup=adapter-service},1651266895,8823
{consumergroup=adapter-service},1651266900,8823
{consumergroup=adapter-service},1651266905,8823
{consumergroup=adapter-service},1651266910,189
{consumergroup=adapter-service},1651266915,189
{consumergroup=adapter-service},1651266920,189
{consumergroup=adapter-service},1651266925,8254
{consumergroup=adapter-service},1651266930,8254
{consumergroup=adapter-service},1651266935,8254
{consumergroup=adapter-service},1651266940,10987
{consumergroup=adapter-service},1651266945,10987
{consumergroup=adapter-service},1651266950,10987
{consumergroup=adapter-service},1651266955,10390
{consumergroup=adapter-service},1651266960,10390
{consumergroup=adapter-service},1651266965,10390
{consumergroup=adapter-service},1651266970,10090
{consumergroup=adapter-service},1651266975,10090
{consumergroup=adapter-service},1651266980,10090
{consumergroup=adapter-service},1651266985,6881
{consumergroup=adapter-service},1651266990,6881
{consumergroup=adapter-service},1651266995,6881
{consumergroup=adapter-service},1651267000,12505
{consumergroup=adapter-service},1651267005,12505
{consumergroup=adapter-service},1651267010,12505
{consumergroup=adapter-service},1651267015,6893
{consumergroup=adapter-service},1651267020,6893
{consumergroup=adapter-service},1651267025,6893
{consumergroup=adapter-service},1651267030,11620
{consumergroup=adapter-service},1651267035,11620
{consumergroup=adapter-service},1651267040,11620
{consumergroup=adapter-service},1651267045,5636
{consumergroup=adapter-service},1651267050,5636
{consumergroup=adapter-service},1651267055,5636
{consumergroup=adapter-service},1651267060,9067
{consumergroup=adapter-service},1651267065,9067
{consumergroup=adapter-service},1651267070,9067
{consumergroup=adapter-service},1651267075,4958
{consumergroup=adapter-service},1651267080,4958
{consumergroup=adapter-service},1651267085,4958
{consumergroup=adapter-service},1651267090,7685
{consumergroup=adapter-service},1651267095,7685
{consumergroup=adapter-service},1651267100,7685
{consumergroup=adapter-service},1651267105,7822
{consumergroup=adapter-service},1651267110,7822
{consumergroup=adapter-service},1651267115,7822
{consumergroup=adapter-service},1651267120,7013
{consumergroup=adapter-service},1651267125,7013
{consumergroup=adapter-service},1651267130,7013
{consumergroup=adapter-service},1651267135,3615
{consumergroup=adapter-service},1651267140,3615
{consumergroup=adapter-service},1651267145,3615
{consumergroup=landscape-service},1651266865,17951
{consumergroup=landscape-service},1651266870,17951
{consumergroup=landscape-service},1651266875,17951
{consumergroup=landscape-service},1651266880,12222
{consumergroup=landscape-service},1651266885,12222
{consumergroup=landscape-service},1651266890,12222
{consumergroup=landscape-service},1651266895,8494
{consumergroup=landscape-service},1651266900,8494
{consumergroup=landscape-service},1651266905,8494
{consumergroup=landscape-service},1651266910,13930
{consumergroup=landscape-service},1651266915,13930
{consumergroup=landscape-service},1651266920,13930
{consumergroup=landscape-service},1651266925,7209
{consumergroup=landscape-service},1651266930,7209
{consumergroup=landscape-service},1651266935,7209
{consumergroup=landscape-service},1651266940,10571
{consumergroup=landscape-service},1651266945,10571
{consumergroup=landscape-service},1651266950,10571
{consumergroup=landscape-service},1651266955,9777
{consumergroup=landscape-service},1651266960,9777
{consumergroup=landscape-service},1651266965,9777
{consumergroup=landscape-service},1651266970,9288
{consumergroup=landscape-service},1651266975,9288
{consumergroup=landscape-service},1651266980,9288
{consumergroup=landscape-service},1651266985,5619
{consumergroup=landscape-service},1651266990,5619
{consumergroup=landscape-service},1651266995,5619
{consumergroup=landscape-service},1651267000,11240
{consumergroup=landscape-service},1651267005,11240
{consumergroup=landscape-service},1651267010,11240
{consumergroup=landscape-service},1651267015,3727
{consumergroup=landscape-service},1651267020,3727
{consumergroup=landscape-service},1651267025,3727
{consumergroup=landscape-service},1651267030,9227
{consumergroup=landscape-service},1651267035,9227
{consumergroup=landscape-service},1651267040,9227
{consumergroup=landscape-service},1651267045,3544
{consumergroup=landscape-service},1651267050,3544
{consumergroup=landscape-service},1651267055,3544
{consumergroup=landscape-service},1651267060,6172
{consumergroup=landscape-service},1651267065,6172
{consumergroup=landscape-service},1651267070,6172
{consumergroup=landscape-service},1651267075,2013
{consumergroup=landscape-service},1651267080,2013
{consumergroup=landscape-service},1651267085,2013
{consumergroup=landscape-service},1651267090,4153
{consumergroup=landscape-service},1651267095,4153
{consumergroup=landscape-service},1651267100,4153
{consumergroup=landscape-service},1651267105,3544
{consumergroup=landscape-service},1651267110,3544
{consumergroup=landscape-service},1651267115,3544
{consumergroup=landscape-service},1651267120,3482
{consumergroup=landscape-service},1651267125,3482
{consumergroup=landscape-service},1651267130,3482
{consumergroup=landscape-service},1651267135,14133
{consumergroup=landscape-service},1651267140,14133
{consumergroup=landscape-service},1651267145,14133
{consumergroup=landscape-token-events-consumer},1651266850,0
{consumergroup=landscape-token-events-consumer},1651266855,0
{consumergroup=landscape-token-events-consumer},1651266860,0
{consumergroup=landscape-token-events-consumer},1651266865,0
{consumergroup=landscape-token-events-consumer},1651266870,0
{consumergroup=landscape-token-events-consumer},1651266875,0
{consumergroup=landscape-token-events-consumer},1651266880,0
{consumergroup=landscape-token-events-consumer},1651266885,0
{consumergroup=landscape-token-events-consumer},1651266890,0
{consumergroup=landscape-token-events-consumer},1651266895,0
{consumergroup=landscape-token-events-consumer},1651266900,0
{consumergroup=landscape-token-events-consumer},1651266905,0
{consumergroup=landscape-token-events-consumer},1651266910,0
{consumergroup=landscape-token-events-consumer},1651266915,0
{consumergroup=landscape-token-events-consumer},1651266920,0
{consumergroup=landscape-token-events-consumer},1651266925,0
{consumergroup=landscape-token-events-consumer},1651266930,0
{consumergroup=landscape-token-events-consumer},1651266935,0
{consumergroup=landscape-token-events-consumer},1651266940,0
{consumergroup=landscape-token-events-consumer},1651266945,0
{consumergroup=landscape-token-events-consumer},1651266950,0
{consumergroup=landscape-token-events-consumer},1651266955,0
{consumergroup=landscape-token-events-consumer},1651266960,0
{consumergroup=landscape-token-events-consumer},1651266965,0
{consumergroup=landscape-token-events-consumer},1651266970,0
{consumergroup=landscape-token-events-consumer},1651266975,0
{consumergroup=landscape-token-events-consumer},1651266980,0
{consumergroup=landscape-token-events-consumer},1651266985,0
{consumergroup=landscape-token-events-consumer},1651266990,0
{consumergroup=landscape-token-events-consumer},1651266995,0
{consumergroup=landscape-token-events-consumer},1651267000,0
{consumergroup=landscape-token-events-consumer},1651267005,0
{consumergroup=landscape-token-events-consumer},1651267010,0
{consumergroup=landscape-token-events-consumer},1651267015,0
{consumergroup=landscape-token-events-consumer},1651267020,0
{consumergroup=landscape-token-events-consumer},1651267025,0
{consumergroup=landscape-token-events-consumer},1651267030,0
{consumergroup=landscape-token-events-consumer},1651267035,0
{consumergroup=landscape-token-events-consumer},1651267040,0
{consumergroup=landscape-token-events-consumer},1651267045,0
{consumergroup=landscape-token-events-consumer},1651267050,0
{consumergroup=landscape-token-events-consumer},1651267055,0
{consumergroup=landscape-token-events-consumer},1651267060,0
{consumergroup=landscape-token-events-consumer},1651267065,0
{consumergroup=landscape-token-events-consumer},1651267070,0
{consumergroup=landscape-token-events-consumer},1651267075,0
{consumergroup=landscape-token-events-consumer},1651267080,0
{consumergroup=landscape-token-events-consumer},1651267085,0
{consumergroup=landscape-token-events-consumer},1651267090,0
{consumergroup=landscape-token-events-consumer},1651267095,0
{consumergroup=landscape-token-events-consumer},1651267100,0
{consumergroup=landscape-token-events-consumer},1651267105,0
{consumergroup=landscape-token-events-consumer},1651267110,0
{consumergroup=landscape-token-events-consumer},1651267115,0
{consumergroup=landscape-token-events-consumer},1651267120,0
{consumergroup=landscape-token-events-consumer},1651267125,0
{consumergroup=landscape-token-events-consumer},1651267130,0
{consumergroup=landscape-token-events-consumer},1651267135,0
{consumergroup=landscape-token-events-consumer},1651267140,0
{consumergroup=landscape-token-events-consumer},1651267145,0
{consumergroup=trace-service},1651266865,15956
{consumergroup=trace-service},1651266870,15956
{consumergroup=trace-service},1651266875,15956
{consumergroup=trace-service},1651266880,46916
{consumergroup=trace-service},1651266885,46916
{consumergroup=trace-service},1651266890,46916
{consumergroup=trace-service},1651266895,60557
{consumergroup=trace-service},1651266900,60557
{consumergroup=trace-service},1651266905,60557
{consumergroup=trace-service},1651266910,40554
{consumergroup=trace-service},1651266915,40554
{consumergroup=trace-service},1651266920,40554
{consumergroup=trace-service},1651266925,55759
{consumergroup=trace-service},1651266930,55759
{consumergroup=trace-service},1651266935,55759
{consumergroup=trace-service},1651266940,39130
{consumergroup=trace-service},1651266945,39130
{consumergroup=trace-service},1651266950,39130
{consumergroup=trace-service},1651266955,58311
{consumergroup=trace-service},1651266960,58311
{consumergroup=trace-service},1651266965,58311
{consumergroup=trace-service},1651266970,110806
{consumergroup=trace-service},1651266975,110806
{consumergroup=trace-service},1651266980,110806
{consumergroup=trace-service},1651266985,78210
{consumergroup=trace-service},1651266990,78210
{consumergroup=trace-service},1651266995,78210
{consumergroup=trace-service},1651267000,39197
{consumergroup=trace-service},1651267005,39197
{consumergroup=trace-service},1651267010,39197
{consumergroup=trace-service},1651267015,73475
{consumergroup=trace-service},1651267020,73475
{consumergroup=trace-service},1651267025,73475
{consumergroup=trace-service},1651267030,39987
{consumergroup=trace-service},1651267035,39987
{consumergroup=trace-service},1651267040,39987
{consumergroup=trace-service},1651267045,66699
{consumergroup=trace-service},1651267050,66699
{consumergroup=trace-service},1651267055,66699
{consumergroup=trace-service},1651267060,151298
{consumergroup=trace-service},1651267065,151298
{consumergroup=trace-service},1651267070,151298
{consumergroup=trace-service},1651267075,86989
{consumergroup=trace-service},1651267080,86989
{consumergroup=trace-service},1651267085,86989
{consumergroup=trace-service},1651267090,38669
{consumergroup=trace-service},1651267095,38669
{consumergroup=trace-service},1651267100,38669
{consumergroup=trace-service},1651267105,55894
{consumergroup=trace-service},1651267110,55894
{consumergroup=trace-service},1651267115,55894
{consumergroup=trace-service},1651267120,38893
{consumergroup=trace-service},1651267125,38893
{consumergroup=trace-service},1651267130,38893
{consumergroup=trace-service},1651267135,56471
{consumergroup=trace-service},1651267140,56471
{consumergroup=trace-service},1651267145,56471
{consumergroup=trace-token-events-consumer},1651266850,0
{consumergroup=trace-token-events-consumer},1651266855,0
{consumergroup=trace-token-events-consumer},1651266860,0
{consumergroup=trace-token-events-consumer},1651266865,0
{consumergroup=trace-token-events-consumer},1651266870,0
{consumergroup=trace-token-events-consumer},1651266875,0
{consumergroup=trace-token-events-consumer},1651266880,0
{consumergroup=trace-token-events-consumer},1651266885,0
{consumergroup=trace-token-events-consumer},1651266890,0
{consumergroup=trace-token-events-consumer},1651266895,0
{consumergroup=trace-token-events-consumer},1651266900,0
{consumergroup=trace-token-events-consumer},1651266905,0
{consumergroup=trace-token-events-consumer},1651266910,0
{consumergroup=trace-token-events-consumer},1651266915,0
{consumergroup=trace-token-events-consumer},1651266920,0
{consumergroup=trace-token-events-consumer},1651266925,0
{consumergroup=trace-token-events-consumer},1651266930,0
{consumergroup=trace-token-events-consumer},1651266935,0
{consumergroup=trace-token-events-consumer},1651266940,0
{consumergroup=trace-token-events-consumer},1651266945,0
{consumergroup=trace-token-events-consumer},1651266950,0
{consumergroup=trace-token-events-consumer},1651266955,0
{consumergroup=trace-token-events-consumer},1651266960,0
{consumergroup=trace-token-events-consumer},1651266965,0
{consumergroup=trace-token-events-consumer},1651266970,0
{consumergroup=trace-token-events-consumer},1651266975,0
{consumergroup=trace-token-events-consumer},1651266980,0
{consumergroup=trace-token-events-consumer},1651266985,0
{consumergroup=trace-token-events-consumer},1651266990,0
{consumergroup=trace-token-events-consumer},1651266995,0
{consumergroup=trace-token-events-consumer},1651267000,0
{consumergroup=trace-token-events-consumer},1651267005,0
{consumergroup=trace-token-events-consumer},1651267010,0
{consumergroup=trace-token-events-consumer},1651267015,0
{consumergroup=trace-token-events-consumer},1651267020,0
{consumergroup=trace-token-events-consumer},1651267025,0
{consumergroup=trace-token-events-consumer},1651267030,0
{consumergroup=trace-token-events-consumer},1651267035,0
{consumergroup=trace-token-events-consumer},1651267040,0
{consumergroup=trace-token-events-consumer},1651267045,0
{consumergroup=trace-token-events-consumer},1651267050,0
{consumergroup=trace-token-events-consumer},1651267055,0
{consumergroup=trace-token-events-consumer},1651267060,0
{consumergroup=trace-token-events-consumer},1651267065,0
{consumergroup=trace-token-events-consumer},1651267070,0
{consumergroup=trace-token-events-consumer},1651267075,0
{consumergroup=trace-token-events-consumer},1651267080,0
{consumergroup=trace-token-events-consumer},1651267085,0
{consumergroup=trace-token-events-consumer},1651267090,0
{consumergroup=trace-token-events-consumer},1651267095,0
{consumergroup=trace-token-events-consumer},1651267100,0
{consumergroup=trace-token-events-consumer},1651267105,0
{consumergroup=trace-token-events-consumer},1651267110,0
{consumergroup=trace-token-events-consumer},1651267115,0
{consumergroup=trace-token-events-consumer},1651267120,0
{consumergroup=trace-token-events-consumer},1651267125,0
{consumergroup=trace-token-events-consumer},1651267130,0
{consumergroup=trace-token-events-consumer},1651267135,0
{consumergroup=trace-token-events-consumer},1651267140,0
{consumergroup=trace-token-events-consumer},1651267145,0
