labels,timestamp,value
{consumergroup=__strimzi-topic-operator-kstreams},1651341490,0
{consumergroup=__strimzi-topic-operator-kstreams},1651341495,0
{consumergroup=__strimzi-topic-operator-kstreams},1651341500,8
{consumergroup=__strimzi-topic-operator-kstreams},1651341505,8
{consumergroup=__strimzi-topic-operator-kstreams},1651341510,8
{consumergroup=__strimzi-topic-operator-kstreams},1651341515,0
{consumergroup=__strimzi-topic-operator-kstreams},1651341520,0
{consumergroup=__strimzi-topic-operator-kstreams},1651341525,0
{consumergroup=__strimzi-topic-operator-kstreams},1651341530,0
{consumergroup=__strimzi-topic-operator-kstreams},1651341535,0
{consumergroup=__strimzi-topic-operator-kstreams},1651341540,0
{consumergroup=__strimzi-topic-operator-kstreams},1651341545,0
{consumergroup=__strimzi-topic-operator-kstreams},1651341550,0
{consumergroup=__strimzi-topic-operator-kstreams},1651341555,0
{consumergroup=__strimzi-topic-operator-kstreams},1651341560,0
{consumergroup=__strimzi-topic-operator-kstreams},1651341565,0
{consumergroup=__strimzi-topic-operator-kstreams},1651341570,0
{consumergroup=__strimzi-topic-operator-kstreams},1651341575,0
{consumergroup=__strimzi-topic-operator-kstreams},1651341580,0
{consumergroup=__strimzi-topic-operator-kstreams},1651341585,0
{consumergroup=__strimzi-topic-operator-kstreams},1651341590,0
{consumergroup=__strimzi-topic-operator-kstreams},1651341595,0
{consumergroup=__strimzi-topic-operator-kstreams},1651341600,0
{consumergroup=__strimzi-topic-operator-kstreams},1651341605,0
{consumergroup=__strimzi-topic-operator-kstreams},1651341610,0
{consumergroup=__strimzi-topic-operator-kstreams},1651341615,0
{consumergroup=__strimzi-topic-operator-kstreams},1651341620,0
{consumergroup=__strimzi-topic-operator-kstreams},1651341625,0
{consumergroup=__strimzi-topic-operator-kstreams},1651341630,0
{consumergroup=__strimzi-topic-operator-kstreams},1651341635,0
{consumergroup=__strimzi-topic-operator-kstreams},1651341640,0
{consumergroup=__strimzi-topic-operator-kstreams},1651341645,0
{consumergroup=__strimzi-topic-operator-kstreams},1651341650,0
{consumergroup=__strimzi-topic-operator-kstreams},1651341655,0
{consumergroup=__strimzi-topic-operator-kstreams},1651341660,0
{consumergroup=__strimzi-topic-operator-kstreams},1651341665,0
{consumergroup=__strimzi-topic-operator-kstreams},1651341670,0
{consumergroup=__strimzi-topic-operator-kstreams},1651341675,0
{consumergroup=__strimzi-topic-operator-kstreams},1651341680,0
{consumergroup=__strimzi-topic-operator-kstreams},1651341685,0
{consumergroup=__strimzi-topic-operator-kstreams},1651341690,0
{consumergroup=__strimzi-topic-operator-kstreams},1651341695,0
{consumergroup=__strimzi-topic-operator-kstreams},1651341700,0
{consumergroup=__strimzi-topic-operator-kstreams},1651341705,0
{consumergroup=__strimzi-topic-operator-kstreams},1651341710,0
{consumergroup=__strimzi-topic-operator-kstreams},1651341715,0
{consumergroup=__strimzi-topic-operator-kstreams},1651341720,0
{consumergroup=__strimzi-topic-operator-kstreams},1651341725,0
{consumergroup=__strimzi-topic-operator-kstreams},1651341730,0
{consumergroup=__strimzi-topic-operator-kstreams},1651341735,0
{consumergroup=__strimzi-topic-operator-kstreams},1651341740,0
{consumergroup=__strimzi-topic-operator-kstreams},1651341745,0
{consumergroup=__strimzi-topic-operator-kstreams},1651341750,0
{consumergroup=adapter-service},1651341530,55415
{consumergroup=adapter-service},1651341535,55415
{consumergroup=adapter-service},1651341540,55415
{consumergroup=adapter-service},1651341545,176129
{consumergroup=adapter-service},1651341550,176129
{consumergroup=adapter-service},1651341555,176129
{consumergroup=adapter-service},1651341560,216858
{consumergroup=adapter-service},1651341565,216858
{consumergroup=adapter-service},1651341570,216858
{consumergroup=adapter-service},1651341575,274641
{consumergroup=adapter-service},1651341580,274641
{consumergroup=adapter-service},1651341585,274641
{consumergroup=adapter-service},1651341590,291849
{consumergroup=adapter-service},1651341595,291849
{consumergroup=adapter-service},1651341600,291849
{consumergroup=adapter-service},1651341605,314648
{consumergroup=adapter-service},1651341610,314648
{consumergroup=adapter-service},1651341615,314648
{consumergroup=adapter-service},1651341620,310745
{consumergroup=adapter-service},1651341625,310745
{consumergroup=adapter-service},1651341630,310745
{consumergroup=adapter-service},1651341635,210751
{consumergroup=adapter-service},1651341640,210751
{consumergroup=adapter-service},1651341645,210751
{consumergroup=adapter-service},1651341650,155993
{consumergroup=adapter-service},1651341655,155993
{consumergroup=adapter-service},1651341660,155993
{consumergroup=adapter-service},1651341665,37150
{consumergroup=adapter-service},1651341670,37150
{consumergroup=adapter-service},1651341675,37150
{consumergroup=adapter-service},1651341680,32715
{consumergroup=adapter-service},1651341685,32715
{consumergroup=adapter-service},1651341690,32715
{consumergroup=adapter-service},1651341695,39359
{consumergroup=adapter-service},1651341700,39359
{consumergroup=adapter-service},1651341705,39359
{consumergroup=adapter-service},1651341710,27063
{consumergroup=adapter-service},1651341715,27063
{consumergroup=adapter-service},1651341720,27063
{consumergroup=adapter-service},1651341725,34195
{consumergroup=adapter-service},1651341730,34195
{consumergroup=adapter-service},1651341735,34195
{consumergroup=adapter-service},1651341740,31704
{consumergroup=adapter-service},1651341745,31704
{consumergroup=adapter-service},1651341750,31704
