labels,timestamp,value
{consumergroup=__strimzi-topic-operator-kstreams},1651268625,0
{consumergroup=__strimzi-topic-operator-kstreams},1651268630,0
{consumergroup=__strimzi-topic-operator-kstreams},1651268635,0
{consumergroup=__strimzi-topic-operator-kstreams},1651268640,3
{consumergroup=__strimzi-topic-operator-kstreams},1651268645,3
{consumergroup=__strimzi-topic-operator-kstreams},1651268650,3
{consumergroup=__strimzi-topic-operator-kstreams},1651268655,0
{consumergroup=__strimzi-topic-operator-kstreams},1651268660,0
{consumergroup=__strimzi-topic-operator-kstreams},1651268665,0
{consumergroup=__strimzi-topic-operator-kstreams},1651268670,0
{consumergroup=__strimzi-topic-operator-kstreams},1651268675,0
{consumergroup=__strimzi-topic-operator-kstreams},1651268680,0
{consumergroup=__strimzi-topic-operator-kstreams},1651268685,0
{consumergroup=__strimzi-topic-operator-kstreams},1651268690,0
{consumergroup=__strimzi-topic-operator-kstreams},1651268695,0
{consumergroup=__strimzi-topic-operator-kstreams},1651268700,0
{consumergroup=__strimzi-topic-operator-kstreams},1651268705,0
{consumergroup=__strimzi-topic-operator-kstreams},1651268710,0
{consumergroup=__strimzi-topic-operator-kstreams},1651268715,0
{consumergroup=__strimzi-topic-operator-kstreams},1651268720,0
{consumergroup=__strimzi-topic-operator-kstreams},1651268725,0
{consumergroup=__strimzi-topic-operator-kstreams},1651268730,0
{consumergroup=__strimzi-topic-operator-kstreams},1651268735,0
{consumergroup=__strimzi-topic-operator-kstreams},1651268740,0
{consumergroup=__strimzi-topic-operator-kstreams},1651268745,0
{consumergroup=__strimzi-topic-operator-kstreams},1651268750,0
{consumergroup=__strimzi-topic-operator-kstreams},1651268755,0
{consumergroup=__strimzi-topic-operator-kstreams},1651268760,0
{consumergroup=__strimzi-topic-operator-kstreams},1651268765,0
{consumergroup=__strimzi-topic-operator-kstreams},1651268770,0
{consumergroup=__strimzi-topic-operator-kstreams},1651268775,0
{consumergroup=__strimzi-topic-operator-kstreams},1651268780,0
{consumergroup=__strimzi-topic-operator-kstreams},1651268785,0
{consumergroup=__strimzi-topic-operator-kstreams},1651268790,0
{consumergroup=__strimzi-topic-operator-kstreams},1651268795,0
{consumergroup=__strimzi-topic-operator-kstreams},1651268800,0
{consumergroup=__strimzi-topic-operator-kstreams},1651268805,0
{consumergroup=__strimzi-topic-operator-kstreams},1651268810,0
{consumergroup=__strimzi-topic-operator-kstreams},1651268815,0
{consumergroup=__strimzi-topic-operator-kstreams},1651268820,0
{consumergroup=__strimzi-topic-operator-kstreams},1651268825,0
{consumergroup=__strimzi-topic-operator-kstreams},1651268830,0
{consumergroup=__strimzi-topic-operator-kstreams},1651268835,0
{consumergroup=__strimzi-topic-operator-kstreams},1651268840,0
{consumergroup=__strimzi-topic-operator-kstreams},1651268845,0
{consumergroup=__strimzi-topic-operator-kstreams},1651268850,0
{consumergroup=__strimzi-topic-operator-kstreams},1651268855,0
{consumergroup=__strimzi-topic-operator-kstreams},1651268860,0
{consumergroup=__strimzi-topic-operator-kstreams},1651268865,0
{consumergroup=__strimzi-topic-operator-kstreams},1651268870,0
{consumergroup=__strimzi-topic-operator-kstreams},1651268875,0
{consumergroup=__strimzi-topic-operator-kstreams},1651268880,0
{consumergroup=__strimzi-topic-operator-kstreams},1651268885,0
{consumergroup=__strimzi-topic-operator-kstreams},1651268890,0
{consumergroup=__strimzi-topic-operator-kstreams},1651268895,0
{consumergroup=__strimzi-topic-operator-kstreams},1651268900,0
{consumergroup=__strimzi-topic-operator-kstreams},1651268905,0
{consumergroup=__strimzi-topic-operator-kstreams},1651268910,0
{consumergroup=__strimzi-topic-operator-kstreams},1651268915,0
{consumergroup=__strimzi-topic-operator-kstreams},1651268920,0
{consumergroup=__strimzi-topic-operator-kstreams},1651268925,0
{consumergroup=__strimzi-topic-operator-kstreams},1651268930,0
{consumergroup=__strimzi-topic-operator-kstreams},1651268935,0
{consumergroup=__strimzi-topic-operator-kstreams},1651268940,0
{consumergroup=__strimzi-topic-operator-kstreams},1651268945,0
{consumergroup=__strimzi-topic-operator-kstreams},1651268950,0
{consumergroup=__strimzi-topic-operator-kstreams},1651268955,0
{consumergroup=__strimzi-topic-operator-kstreams},1651268960,0
{consumergroup=__strimzi-topic-operator-kstreams},1651268965,0
{consumergroup=__strimzi-topic-operator-kstreams},1651268970,0
{consumergroup=__strimzi-topic-operator-kstreams},1651268975,0
{consumergroup=__strimzi-topic-operator-kstreams},1651268980,0
{consumergroup=__strimzi-topic-operator-kstreams},1651268985,0
{consumergroup=__strimzi-topic-operator-kstreams},1651268990,0
{consumergroup=__strimzi-topic-operator-kstreams},1651268995,0
{consumergroup=__strimzi-topic-operator-kstreams},1651269000,0
{consumergroup=__strimzi-topic-operator-kstreams},1651269005,0
{consumergroup=__strimzi-topic-operator-kstreams},1651269010,0
{consumergroup=__strimzi-topic-operator-kstreams},1651269015,0
{consumergroup=__strimzi-topic-operator-kstreams},1651269020,0
{consumergroup=__strimzi-topic-operator-kstreams},1651269025,0
{consumergroup=__strimzi-topic-operator-kstreams},1651269030,0
{consumergroup=__strimzi-topic-operator-kstreams},1651269035,0
{consumergroup=__strimzi-topic-operator-kstreams},1651269040,0
{consumergroup=__strimzi-topic-operator-kstreams},1651269045,0
{consumergroup=__strimzi-topic-operator-kstreams},1651269050,0
{consumergroup=__strimzi-topic-operator-kstreams},1651269055,0
{consumergroup=__strimzi-topic-operator-kstreams},1651269060,0
{consumergroup=__strimzi-topic-operator-kstreams},1651269065,0
{consumergroup=__strimzi-topic-operator-kstreams},1651269070,0
{consumergroup=__strimzi-topic-operator-kstreams},1651269075,0
{consumergroup=__strimzi-topic-operator-kstreams},1651269080,0
{consumergroup=__strimzi-topic-operator-kstreams},1651269085,0
{consumergroup=__strimzi-topic-operator-kstreams},1651269090,0
{consumergroup=__strimzi-topic-operator-kstreams},1651269095,0
{consumergroup=__strimzi-topic-operator-kstreams},1651269100,0
{consumergroup=__strimzi-topic-operator-kstreams},1651269105,0
{consumergroup=__strimzi-topic-operator-kstreams},1651269110,0
{consumergroup=__strimzi-topic-operator-kstreams},1651269115,0
{consumergroup=trace-service},1651268655,6229
{consumergroup=trace-service},1651268660,6229
{consumergroup=trace-service},1651268665,6229
{consumergroup=trace-service},1651268670,4927
{consumergroup=trace-service},1651268675,4927
{consumergroup=trace-service},1651268680,4927
{consumergroup=trace-service},1651268685,29528
{consumergroup=trace-service},1651268690,29528
{consumergroup=trace-service},1651268695,29528
{consumergroup=trace-service},1651268700,11247
{consumergroup=trace-service},1651268705,11247
{consumergroup=trace-service},1651268710,11247
{consumergroup=trace-service},1651268715,31961
{consumergroup=trace-service},1651268720,31961
{consumergroup=trace-service},1651268725,31961
{consumergroup=trace-service},1651268730,12939
{consumergroup=trace-service},1651268735,12939
{consumergroup=trace-service},1651268740,12939
{consumergroup=trace-service},1651268745,24362
{consumergroup=trace-service},1651268750,24362
{consumergroup=trace-service},1651268755,24362
{consumergroup=trace-service},1651268760,12916
{consumergroup=trace-service},1651268765,12916
{consumergroup=trace-service},1651268770,12916
{consumergroup=trace-service},1651268775,4760
{consumergroup=trace-service},1651268780,4760
{consumergroup=trace-service},1651268785,4760
{consumergroup=trace-service},1651268790,3856
{consumergroup=trace-service},1651268795,3856
{consumergroup=trace-service},1651268800,3856
{consumergroup=trace-service},1651268805,31256
{consumergroup=trace-service},1651268810,31256
{consumergroup=trace-service},1651268815,31256
{consumergroup=trace-service},1651268820,11866
{consumergroup=trace-service},1651268825,11866
{consumergroup=trace-service},1651268830,11866
{consumergroup=trace-service},1651268835,44122
{consumergroup=trace-service},1651268840,44122
{consumergroup=trace-service},1651268845,44122
{consumergroup=trace-service},1651268850,8459
{consumergroup=trace-service},1651268855,8459
{consumergroup=trace-service},1651268860,8459
{consumergroup=trace-service},1651268865,30215
{consumergroup=trace-service},1651268870,30215
{consumergroup=trace-service},1651268875,30215
{consumergroup=trace-service},1651268880,8513
{consumergroup=trace-service},1651268885,8513
{consumergroup=trace-service},1651268890,8513
{consumergroup=trace-service},1651268895,38143
{consumergroup=trace-service},1651268900,38143
{consumergroup=trace-service},1651268905,38143
{consumergroup=trace-service},1651268910,14498
{consumergroup=trace-service},1651268915,14498
{consumergroup=trace-service},1651268920,14498
{consumergroup=trace-service},1651268925,19221
{consumergroup=trace-service},1651268930,19221
{consumergroup=trace-service},1651268935,19221
{consumergroup=trace-service},1651268940,9710
{consumergroup=trace-service},1651268945,9710
{consumergroup=trace-service},1651268950,9710
{consumergroup=trace-service},1651268955,29948
{consumergroup=trace-service},1651268960,29948
{consumergroup=trace-service},1651268965,29948
{consumergroup=trace-service},1651268970,11461
{consumergroup=trace-service},1651268975,11461
{consumergroup=trace-service},1651268980,11461
{consumergroup=trace-service},1651268985,19775
{consumergroup=trace-service},1651268990,19775
{consumergroup=trace-service},1651268995,19775
{consumergroup=trace-service},1651269000,12854
{consumergroup=trace-service},1651269005,12854
{consumergroup=trace-service},1651269010,12854
{consumergroup=trace-service},1651269015,27980
{consumergroup=trace-service},1651269020,27980
{consumergroup=trace-service},1651269025,27980
{consumergroup=trace-service},1651269030,6535
{consumergroup=trace-service},1651269035,6535
{consumergroup=trace-service},1651269040,6535
{consumergroup=trace-service},1651269045,18269
{consumergroup=trace-service},1651269050,18269
{consumergroup=trace-service},1651269055,18269
{consumergroup=trace-service},1651269060,12153
{consumergroup=trace-service},1651269065,12153
{consumergroup=trace-service},1651269070,12153
{consumergroup=trace-service},1651269075,5512
{consumergroup=trace-service},1651269080,5512
{consumergroup=trace-service},1651269085,5512
{consumergroup=trace-service},1651269090,5355
{consumergroup=trace-service},1651269095,5355
{consumergroup=trace-service},1651269100,5355
{consumergroup=trace-service},1651269105,30124
{consumergroup=trace-service},1651269110,30124
{consumergroup=trace-service},1651269115,30124
{consumergroup=trace-token-events-consumer},1651268655,0
{consumergroup=trace-token-events-consumer},1651268660,0
{consumergroup=trace-token-events-consumer},1651268665,0
{consumergroup=trace-token-events-consumer},1651268670,0
{consumergroup=trace-token-events-consumer},1651268675,0
{consumergroup=trace-token-events-consumer},1651268680,0
{consumergroup=trace-token-events-consumer},1651268685,0
{consumergroup=trace-token-events-consumer},1651268690,0
{consumergroup=trace-token-events-consumer},1651268695,0
{consumergroup=trace-token-events-consumer},1651268700,0
{consumergroup=trace-token-events-consumer},1651268705,0
{consumergroup=trace-token-events-consumer},1651268710,0
{consumergroup=trace-token-events-consumer},1651268715,0
{consumergroup=trace-token-events-consumer},1651268720,0
{consumergroup=trace-token-events-consumer},1651268725,0
{consumergroup=trace-token-events-consumer},1651268730,0
{consumergroup=trace-token-events-consumer},1651268735,0
{consumergroup=trace-token-events-consumer},1651268740,0
{consumergroup=trace-token-events-consumer},1651268745,0
{consumergroup=trace-token-events-consumer},1651268750,0
{consumergroup=trace-token-events-consumer},1651268755,0
{consumergroup=trace-token-events-consumer},1651268760,0
{consumergroup=trace-token-events-consumer},1651268765,0
{consumergroup=trace-token-events-consumer},1651268770,0
{consumergroup=trace-token-events-consumer},1651268775,0
{consumergroup=trace-token-events-consumer},1651268780,0
{consumergroup=trace-token-events-consumer},1651268785,0
{consumergroup=trace-token-events-consumer},1651268790,0
{consumergroup=trace-token-events-consumer},1651268795,0
{consumergroup=trace-token-events-consumer},1651268800,0
{consumergroup=trace-token-events-consumer},1651268805,0
{consumergroup=trace-token-events-consumer},1651268810,0
{consumergroup=trace-token-events-consumer},1651268815,0
{consumergroup=trace-token-events-consumer},1651268820,0
{consumergroup=trace-token-events-consumer},1651268825,0
{consumergroup=trace-token-events-consumer},1651268830,0
{consumergroup=trace-token-events-consumer},1651268835,0
{consumergroup=trace-token-events-consumer},1651268840,0
{consumergroup=trace-token-events-consumer},1651268845,0
{consumergroup=trace-token-events-consumer},1651268850,0
{consumergroup=trace-token-events-consumer},1651268855,0
{consumergroup=trace-token-events-consumer},1651268860,0
{consumergroup=trace-token-events-consumer},1651268865,0
{consumergroup=trace-token-events-consumer},1651268870,0
{consumergroup=trace-token-events-consumer},1651268875,0
{consumergroup=trace-token-events-consumer},1651268880,0
{consumergroup=trace-token-events-consumer},1651268885,0
{consumergroup=trace-token-events-consumer},1651268890,0
{consumergroup=trace-token-events-consumer},1651268895,0
{consumergroup=trace-token-events-consumer},1651268900,0
{consumergroup=trace-token-events-consumer},1651268905,0
{consumergroup=trace-token-events-consumer},1651268910,0
{consumergroup=trace-token-events-consumer},1651268915,0
{consumergroup=trace-token-events-consumer},1651268920,0
{consumergroup=trace-token-events-consumer},1651268925,0
{consumergroup=trace-token-events-consumer},1651268930,0
{consumergroup=trace-token-events-consumer},1651268935,0
{consumergroup=trace-token-events-consumer},1651268940,0
{consumergroup=trace-token-events-consumer},1651268945,0
{consumergroup=trace-token-events-consumer},1651268950,0
{consumergroup=trace-token-events-consumer},1651268955,0
{consumergroup=trace-token-events-consumer},1651268960,0
{consumergroup=trace-token-events-consumer},1651268965,0
{consumergroup=trace-token-events-consumer},1651268970,0
{consumergroup=trace-token-events-consumer},1651268975,0
{consumergroup=trace-token-events-consumer},1651268980,0
{consumergroup=trace-token-events-consumer},1651268985,0
{consumergroup=trace-token-events-consumer},1651268990,0
{consumergroup=trace-token-events-consumer},1651268995,0
{consumergroup=trace-token-events-consumer},1651269000,0
{consumergroup=trace-token-events-consumer},1651269005,0
{consumergroup=trace-token-events-consumer},1651269010,0
{consumergroup=trace-token-events-consumer},1651269015,0
{consumergroup=trace-token-events-consumer},1651269020,0
{consumergroup=trace-token-events-consumer},1651269025,0
{consumergroup=trace-token-events-consumer},1651269030,0
{consumergroup=trace-token-events-consumer},1651269035,0
{consumergroup=trace-token-events-consumer},1651269040,0
{consumergroup=trace-token-events-consumer},1651269045,0
{consumergroup=trace-token-events-consumer},1651269050,0
{consumergroup=trace-token-events-consumer},1651269055,0
{consumergroup=trace-token-events-consumer},1651269060,0
{consumergroup=trace-token-events-consumer},1651269065,0
{consumergroup=trace-token-events-consumer},1651269070,0
{consumergroup=trace-token-events-consumer},1651269075,0
{consumergroup=trace-token-events-consumer},1651269080,0
{consumergroup=trace-token-events-consumer},1651269085,0
{consumergroup=trace-token-events-consumer},1651269090,0
{consumergroup=trace-token-events-consumer},1651269095,0
{consumergroup=trace-token-events-consumer},1651269100,0
{consumergroup=trace-token-events-consumer},1651269105,0
{consumergroup=trace-token-events-consumer},1651269110,0
{consumergroup=trace-token-events-consumer},1651269115,0
