labels,timestamp,value
{job=theodolite-stu200776/trace-isolated-podmonitor},1651267578,0
{job=theodolite-stu200776/trace-isolated-podmonitor},1651267583,0
{job=theodolite-stu200776/trace-isolated-podmonitor},1651267588,0
{job=theodolite-stu200776/trace-isolated-podmonitor},1651267593,0
{job=theodolite-stu200776/trace-isolated-podmonitor},1651267598,0
{job=theodolite-stu200776/trace-isolated-podmonitor},1651267603,0
{job=theodolite-stu200776/trace-isolated-podmonitor},1651267608,0
{job=theodolite-stu200776/trace-isolated-podmonitor},1651267613,0
{job=theodolite-stu200776/trace-isolated-podmonitor},1651267618,0
{job=theodolite-stu200776/trace-isolated-podmonitor},1651267623,0
{job=theodolite-stu200776/trace-isolated-podmonitor},1651267628,0
{job=theodolite-stu200776/trace-isolated-podmonitor},1651267633,0
{job=theodolite-stu200776/trace-isolated-podmonitor},1651267638,0
{job=theodolite-stu200776/trace-isolated-podmonitor},1651267643,0
{job=theodolite-stu200776/trace-isolated-podmonitor},1651267648,0
{job=theodolite-stu200776/trace-isolated-podmonitor},1651267653,0
{job=theodolite-stu200776/trace-isolated-podmonitor},1651267658,0
{job=theodolite-stu200776/trace-isolated-podmonitor},1651267663,0
{job=theodolite-stu200776/trace-isolated-podmonitor},1651267668,0
{job=theodolite-stu200776/trace-isolated-podmonitor},1651267673,0
{job=theodolite-stu200776/trace-isolated-podmonitor},1651267678,0
{job=theodolite-stu200776/trace-isolated-podmonitor},1651267683,0
{job=theodolite-stu200776/trace-isolated-podmonitor},1651267688,0
{job=theodolite-stu200776/trace-isolated-podmonitor},1651267693,0
{job=theodolite-stu200776/trace-isolated-podmonitor},1651267698,0
{job=theodolite-stu200776/trace-isolated-podmonitor},1651267703,0
{job=theodolite-stu200776/trace-isolated-podmonitor},1651267708,0
{job=theodolite-stu200776/trace-isolated-podmonitor},1651267713,0
{job=theodolite-stu200776/trace-isolated-podmonitor},1651267718,0
{job=theodolite-stu200776/trace-isolated-podmonitor},1651267723,0
{job=theodolite-stu200776/trace-isolated-podmonitor},1651267728,0
{job=theodolite-stu200776/trace-isolated-podmonitor},1651267733,0
{job=theodolite-stu200776/trace-isolated-podmonitor},1651267738,0
{job=theodolite-stu200776/trace-isolated-podmonitor},1651267743,0
{job=theodolite-stu200776/trace-isolated-podmonitor},1651267748,0
{job=theodolite-stu200776/trace-isolated-podmonitor},1651267753,0
{job=theodolite-stu200776/trace-isolated-podmonitor},1651267758,0
{job=theodolite-stu200776/trace-isolated-podmonitor},1651267763,0
{job=theodolite-stu200776/trace-isolated-podmonitor},1651267768,0
{job=theodolite-stu200776/trace-isolated-podmonitor},1651267773,0
{job=theodolite-stu200776/trace-isolated-podmonitor},1651267778,0
{job=theodolite-stu200776/trace-isolated-podmonitor},1651267783,0
{job=theodolite-stu200776/trace-isolated-podmonitor},1651267788,0
{job=theodolite-stu200776/trace-isolated-podmonitor},1651267793,0
{job=theodolite-stu200776/trace-isolated-podmonitor},1651267798,0
{job=theodolite-stu200776/trace-isolated-podmonitor},1651267803,0
{job=theodolite-stu200776/trace-isolated-podmonitor},1651267808,0
{job=theodolite-stu200776/trace-isolated-podmonitor},1651267813,0
{job=theodolite-stu200776/trace-isolated-podmonitor},1651267818,0
{job=theodolite-stu200776/trace-isolated-podmonitor},1651267823,0
{job=theodolite-stu200776/trace-isolated-podmonitor},1651267828,0
{job=theodolite-stu200776/trace-isolated-podmonitor},1651267833,0
{job=theodolite-stu200776/trace-isolated-podmonitor},1651267838,0
{job=theodolite-stu200776/trace-isolated-podmonitor},1651267843,0
{job=theodolite-stu200776/trace-isolated-podmonitor},1651267848,0
{job=theodolite-stu200776/trace-isolated-podmonitor},1651267853,0
{job=theodolite-stu200776/trace-isolated-podmonitor},1651267858,0
{job=theodolite-stu200776/trace-isolated-podmonitor},1651267863,0
{job=theodolite-stu200776/trace-isolated-podmonitor},1651267868,0
{job=theodolite-stu200776/trace-isolated-podmonitor},1651267873,0
{job=theodolite-stu200776/trace-isolated-podmonitor},1651267878,0
{job=theodolite-stu200776/trace-isolated-podmonitor},1651267883,0
{job=theodolite-stu200776/trace-isolated-podmonitor},1651267888,0
{job=theodolite-stu200776/trace-isolated-podmonitor},1651267893,0
{job=theodolite-stu200776/trace-isolated-podmonitor},1651267898,0
{job=theodolite-stu200776/trace-isolated-podmonitor},1651267903,0
{job=theodolite-stu200776/trace-isolated-podmonitor},1651267908,0
{job=theodolite-stu200776/trace-isolated-podmonitor},1651267913,0
{job=theodolite-stu200776/trace-isolated-podmonitor},1651267918,0
{job=theodolite-stu200776/trace-isolated-podmonitor},1651267923,0
{job=theodolite-stu200776/trace-isolated-podmonitor},1651267928,0
{job=theodolite-stu200776/trace-isolated-podmonitor},1651267933,0
{job=theodolite-stu200776/trace-isolated-podmonitor},1651267938,0
{job=theodolite-stu200776/trace-isolated-podmonitor},1651267943,0
{job=theodolite-stu200776/trace-isolated-podmonitor},1651267948,0
{job=theodolite-stu200776/trace-isolated-podmonitor},1651267953,0
{job=theodolite-stu200776/trace-isolated-podmonitor},1651267958,0
{job=theodolite-stu200776/trace-isolated-podmonitor},1651267963,0
{job=theodolite-stu200776/trace-isolated-podmonitor},1651267968,0
{job=theodolite-stu200776/trace-isolated-podmonitor},1651267973,0
{job=theodolite-stu200776/trace-isolated-podmonitor},1651267978,0
