labels,timestamp,value
{consumergroup=__strimzi-topic-operator-kstreams},1651294367,3
{consumergroup=__strimzi-topic-operator-kstreams},1651294372,3
{consumergroup=__strimzi-topic-operator-kstreams},1651294377,3
{consumergroup=__strimzi-topic-operator-kstreams},1651294382,0
{consumergroup=__strimzi-topic-operator-kstreams},1651294387,0
{consumergroup=__strimzi-topic-operator-kstreams},1651294392,0
{consumergroup=__strimzi-topic-operator-kstreams},1651294397,3
{consumergroup=__strimzi-topic-operator-kstreams},1651294402,3
{consumergroup=__strimzi-topic-operator-kstreams},1651294407,3
{consumergroup=__strimzi-topic-operator-kstreams},1651294412,0
{consumergroup=__strimzi-topic-operator-kstreams},1651294417,0
{consumergroup=__strimzi-topic-operator-kstreams},1651294422,0
{consumergroup=__strimzi-topic-operator-kstreams},1651294427,0
{consumergroup=__strimzi-topic-operator-kstreams},1651294432,0
{consumergroup=__strimzi-topic-operator-kstreams},1651294437,0
{consumergroup=__strimzi-topic-operator-kstreams},1651294442,0
{consumergroup=__strimzi-topic-operator-kstreams},1651294447,0
{consumergroup=__strimzi-topic-operator-kstreams},1651294452,0
{consumergroup=__strimzi-topic-operator-kstreams},1651294457,0
{consumergroup=__strimzi-topic-operator-kstreams},1651294462,0
{consumergroup=__strimzi-topic-operator-kstreams},1651294467,0
{consumergroup=__strimzi-topic-operator-kstreams},1651294472,0
{consumergroup=__strimzi-topic-operator-kstreams},1651294477,0
{consumergroup=__strimzi-topic-operator-kstreams},1651294482,0
{consumergroup=__strimzi-topic-operator-kstreams},1651294487,0
{consumergroup=__strimzi-topic-operator-kstreams},1651294492,0
{consumergroup=__strimzi-topic-operator-kstreams},1651294497,0
{consumergroup=__strimzi-topic-operator-kstreams},1651294502,0
{consumergroup=__strimzi-topic-operator-kstreams},1651294507,0
{consumergroup=__strimzi-topic-operator-kstreams},1651294512,0
{consumergroup=__strimzi-topic-operator-kstreams},1651294517,0
{consumergroup=__strimzi-topic-operator-kstreams},1651294522,0
{consumergroup=__strimzi-topic-operator-kstreams},1651294527,0
{consumergroup=__strimzi-topic-operator-kstreams},1651294532,0
{consumergroup=__strimzi-topic-operator-kstreams},1651294537,0
{consumergroup=__strimzi-topic-operator-kstreams},1651294542,0
{consumergroup=__strimzi-topic-operator-kstreams},1651294547,0
{consumergroup=__strimzi-topic-operator-kstreams},1651294552,0
{consumergroup=__strimzi-topic-operator-kstreams},1651294557,0
{consumergroup=__strimzi-topic-operator-kstreams},1651294562,0
{consumergroup=__strimzi-topic-operator-kstreams},1651294567,0
{consumergroup=__strimzi-topic-operator-kstreams},1651294572,0
{consumergroup=__strimzi-topic-operator-kstreams},1651294577,0
{consumergroup=__strimzi-topic-operator-kstreams},1651294582,0
{consumergroup=__strimzi-topic-operator-kstreams},1651294587,0
{consumergroup=__strimzi-topic-operator-kstreams},1651294592,0
{consumergroup=__strimzi-topic-operator-kstreams},1651294597,0
{consumergroup=__strimzi-topic-operator-kstreams},1651294602,0
{consumergroup=__strimzi-topic-operator-kstreams},1651294607,0
{consumergroup=__strimzi-topic-operator-kstreams},1651294612,0
{consumergroup=__strimzi-topic-operator-kstreams},1651294617,0
{consumergroup=__strimzi-topic-operator-kstreams},1651294622,0
{consumergroup=__strimzi-topic-operator-kstreams},1651294627,0
{consumergroup=__strimzi-topic-operator-kstreams},1651294632,0
{consumergroup=__strimzi-topic-operator-kstreams},1651294637,0
{consumergroup=__strimzi-topic-operator-kstreams},1651294642,0
{consumergroup=__strimzi-topic-operator-kstreams},1651294647,0
{consumergroup=__strimzi-topic-operator-kstreams},1651294652,0
{consumergroup=__strimzi-topic-operator-kstreams},1651294657,0
{consumergroup=__strimzi-topic-operator-kstreams},1651294662,0
{consumergroup=__strimzi-topic-operator-kstreams},1651294667,0
{consumergroup=__strimzi-topic-operator-kstreams},1651294672,0
{consumergroup=__strimzi-topic-operator-kstreams},1651294677,0
{consumergroup=__strimzi-topic-operator-kstreams},1651294682,0
{consumergroup=__strimzi-topic-operator-kstreams},1651294687,0
{consumergroup=__strimzi-topic-operator-kstreams},1651294692,0
{consumergroup=__strimzi-topic-operator-kstreams},1651294697,0
{consumergroup=__strimzi-topic-operator-kstreams},1651294702,0
{consumergroup=__strimzi-topic-operator-kstreams},1651294707,0
{consumergroup=__strimzi-topic-operator-kstreams},1651294712,0
{consumergroup=__strimzi-topic-operator-kstreams},1651294717,0
{consumergroup=__strimzi-topic-operator-kstreams},1651294722,0
{consumergroup=__strimzi-topic-operator-kstreams},1651294727,0
{consumergroup=__strimzi-topic-operator-kstreams},1651294732,0
{consumergroup=__strimzi-topic-operator-kstreams},1651294737,0
{consumergroup=__strimzi-topic-operator-kstreams},1651294742,0
{consumergroup=__strimzi-topic-operator-kstreams},1651294747,0
{consumergroup=__strimzi-topic-operator-kstreams},1651294752,0
{consumergroup=__strimzi-topic-operator-kstreams},1651294757,0
{consumergroup=__strimzi-topic-operator-kstreams},1651294762,0
{consumergroup=__strimzi-topic-operator-kstreams},1651294767,0
{consumergroup=__strimzi-topic-operator-kstreams},1651294772,0
{consumergroup=__strimzi-topic-operator-kstreams},1651294777,0
{consumergroup=__strimzi-topic-operator-kstreams},1651294782,0
{consumergroup=__strimzi-topic-operator-kstreams},1651294787,0
{consumergroup=__strimzi-topic-operator-kstreams},1651294792,0
{consumergroup=__strimzi-topic-operator-kstreams},1651294797,0
{consumergroup=__strimzi-topic-operator-kstreams},1651294802,0
{consumergroup=__strimzi-topic-operator-kstreams},1651294807,0
{consumergroup=__strimzi-topic-operator-kstreams},1651294812,0
{consumergroup=__strimzi-topic-operator-kstreams},1651294817,0
{consumergroup=__strimzi-topic-operator-kstreams},1651294822,0
{consumergroup=__strimzi-topic-operator-kstreams},1651294827,0
{consumergroup=__strimzi-topic-operator-kstreams},1651294832,0
{consumergroup=__strimzi-topic-operator-kstreams},1651294837,0
{consumergroup=__strimzi-topic-operator-kstreams},1651294842,0
{consumergroup=__strimzi-topic-operator-kstreams},1651294847,0
{consumergroup=__strimzi-topic-operator-kstreams},1651294852,0
{consumergroup=__strimzi-topic-operator-kstreams},1651294857,0
{consumergroup=__strimzi-topic-operator-kstreams},1651294862,0
{consumergroup=__strimzi-topic-operator-kstreams},1651294867,0
{consumergroup=__strimzi-topic-operator-kstreams},1651294872,0
{consumergroup=__strimzi-topic-operator-kstreams},1651294877,0
{consumergroup=adapter-service},1651294412,1912
{consumergroup=adapter-service},1651294417,1912
{consumergroup=adapter-service},1651294422,1912
{consumergroup=adapter-service},1651294427,15402
{consumergroup=adapter-service},1651294432,15402
{consumergroup=adapter-service},1651294437,15402
{consumergroup=adapter-service},1651294442,9518
{consumergroup=adapter-service},1651294447,9518
{consumergroup=adapter-service},1651294452,9518
{consumergroup=adapter-service},1651294457,8705
{consumergroup=adapter-service},1651294462,8705
{consumergroup=adapter-service},1651294467,8705
{consumergroup=adapter-service},1651294472,7170
{consumergroup=adapter-service},1651294477,7170
{consumergroup=adapter-service},1651294482,7170
{consumergroup=adapter-service},1651294487,6082
{consumergroup=adapter-service},1651294492,6082
{consumergroup=adapter-service},1651294497,6082
{consumergroup=adapter-service},1651294502,5020
{consumergroup=adapter-service},1651294507,5020
{consumergroup=adapter-service},1651294512,5020
{consumergroup=adapter-service},1651294517,4436
{consumergroup=adapter-service},1651294522,4436
{consumergroup=adapter-service},1651294527,4436
{consumergroup=adapter-service},1651294532,4112
{consumergroup=adapter-service},1651294537,4112
{consumergroup=adapter-service},1651294542,4112
{consumergroup=adapter-service},1651294547,3667
{consumergroup=adapter-service},1651294552,3667
{consumergroup=adapter-service},1651294557,3667
{consumergroup=adapter-service},1651294562,3464
{consumergroup=adapter-service},1651294567,3464
{consumergroup=adapter-service},1651294572,3464
{consumergroup=adapter-service},1651294577,3228
{consumergroup=adapter-service},1651294582,3228
{consumergroup=adapter-service},1651294587,3228
{consumergroup=adapter-service},1651294592,2876
{consumergroup=adapter-service},1651294597,2876
{consumergroup=adapter-service},1651294602,2876
{consumergroup=adapter-service},1651294607,2609
{consumergroup=adapter-service},1651294612,2609
{consumergroup=adapter-service},1651294617,2609
{consumergroup=adapter-service},1651294622,2440
{consumergroup=adapter-service},1651294627,2440
{consumergroup=adapter-service},1651294632,2440
{consumergroup=adapter-service},1651294637,2385
{consumergroup=adapter-service},1651294642,2385
{consumergroup=adapter-service},1651294647,2385
{consumergroup=adapter-service},1651294652,1928
{consumergroup=adapter-service},1651294657,1928
{consumergroup=adapter-service},1651294662,1928
{consumergroup=adapter-service},1651294667,1760
{consumergroup=adapter-service},1651294672,1760
{consumergroup=adapter-service},1651294677,1760
{consumergroup=adapter-service},1651294682,2129
{consumergroup=adapter-service},1651294687,2129
{consumergroup=adapter-service},1651294692,2129
{consumergroup=adapter-service},1651294697,1017
{consumergroup=adapter-service},1651294702,1017
{consumergroup=adapter-service},1651294707,1017
{consumergroup=adapter-service},1651294712,4218
{consumergroup=adapter-service},1651294717,4218
{consumergroup=adapter-service},1651294722,4218
{consumergroup=adapter-service},1651294727,4581
{consumergroup=adapter-service},1651294732,4581
{consumergroup=adapter-service},1651294737,4581
{consumergroup=adapter-service},1651294742,3585
{consumergroup=adapter-service},1651294747,3585
{consumergroup=adapter-service},1651294752,3585
{consumergroup=adapter-service},1651294757,3660
{consumergroup=adapter-service},1651294762,3660
{consumergroup=adapter-service},1651294767,3660
{consumergroup=adapter-service},1651294772,3481
{consumergroup=adapter-service},1651294777,3481
{consumergroup=adapter-service},1651294782,3481
{consumergroup=adapter-service},1651294787,3286
{consumergroup=adapter-service},1651294792,3286
{consumergroup=adapter-service},1651294797,3286
{consumergroup=adapter-service},1651294802,6597
{consumergroup=adapter-service},1651294807,6597
{consumergroup=adapter-service},1651294812,6597
{consumergroup=adapter-service},1651294817,10397
{consumergroup=adapter-service},1651294822,10397
{consumergroup=adapter-service},1651294827,10397
{consumergroup=adapter-service},1651294832,10039
{consumergroup=adapter-service},1651294837,10039
{consumergroup=adapter-service},1651294842,10039
{consumergroup=adapter-service},1651294847,9188
{consumergroup=adapter-service},1651294852,9188
{consumergroup=adapter-service},1651294857,9188
{consumergroup=adapter-service},1651294862,9887
{consumergroup=adapter-service},1651294867,9887
{consumergroup=adapter-service},1651294872,9887
{consumergroup=adapter-service},1651294877,8818
{consumergroup=landscape-service},1651294427,33043
{consumergroup=landscape-service},1651294432,33043
{consumergroup=landscape-service},1651294437,33043
{consumergroup=landscape-service},1651294442,10559
{consumergroup=landscape-service},1651294447,10559
{consumergroup=landscape-service},1651294452,10559
{consumergroup=landscape-service},1651294457,9110
{consumergroup=landscape-service},1651294462,9110
{consumergroup=landscape-service},1651294467,9110
{consumergroup=landscape-service},1651294472,8518
{consumergroup=landscape-service},1651294477,8518
{consumergroup=landscape-service},1651294482,8518
{consumergroup=landscape-service},1651294487,7809
{consumergroup=landscape-service},1651294492,7809
{consumergroup=landscape-service},1651294497,7809
{consumergroup=landscape-service},1651294502,7173
{consumergroup=landscape-service},1651294507,7173
{consumergroup=landscape-service},1651294512,7173
{consumergroup=landscape-service},1651294517,6553
{consumergroup=landscape-service},1651294522,6553
{consumergroup=landscape-service},1651294527,6553
{consumergroup=landscape-service},1651294532,6722
{consumergroup=landscape-service},1651294537,6722
{consumergroup=landscape-service},1651294542,6722
{consumergroup=landscape-service},1651294547,5687
{consumergroup=landscape-service},1651294552,5687
{consumergroup=landscape-service},1651294557,5687
{consumergroup=landscape-service},1651294562,5152
{consumergroup=landscape-service},1651294567,5152
{consumergroup=landscape-service},1651294572,5152
{consumergroup=landscape-service},1651294577,4604
{consumergroup=landscape-service},1651294582,4604
{consumergroup=landscape-service},1651294587,4604
{consumergroup=landscape-service},1651294592,5079
{consumergroup=landscape-service},1651294597,5079
{consumergroup=landscape-service},1651294602,5079
{consumergroup=landscape-service},1651294607,5467
{consumergroup=landscape-service},1651294612,5467
{consumergroup=landscape-service},1651294617,5467
{consumergroup=landscape-service},1651294622,4964
{consumergroup=landscape-service},1651294627,4964
{consumergroup=landscape-service},1651294632,4964
{consumergroup=landscape-service},1651294637,4818
{consumergroup=landscape-service},1651294642,4818
{consumergroup=landscape-service},1651294647,4818
{consumergroup=landscape-service},1651294652,3475
{consumergroup=landscape-service},1651294657,3475
{consumergroup=landscape-service},1651294662,3475
{consumergroup=landscape-service},1651294667,3675
{consumergroup=landscape-service},1651294672,3675
{consumergroup=landscape-service},1651294677,3675
{consumergroup=landscape-service},1651294682,2489
{consumergroup=landscape-service},1651294687,2489
{consumergroup=landscape-service},1651294692,2489
{consumergroup=landscape-service},1651294697,789
{consumergroup=landscape-service},1651294702,789
{consumergroup=landscape-service},1651294707,789
{consumergroup=landscape-service},1651294712,592
{consumergroup=landscape-service},1651294717,592
{consumergroup=landscape-service},1651294722,592
{consumergroup=landscape-service},1651294727,511
{consumergroup=landscape-service},1651294732,511
{consumergroup=landscape-service},1651294737,511
{consumergroup=landscape-service},1651294742,587
{consumergroup=landscape-service},1651294747,587
{consumergroup=landscape-service},1651294752,587
{consumergroup=landscape-service},1651294757,121
{consumergroup=landscape-service},1651294762,121
{consumergroup=landscape-service},1651294767,121
{consumergroup=landscape-service},1651294772,122
{consumergroup=landscape-service},1651294777,122
{consumergroup=landscape-service},1651294782,122
{consumergroup=landscape-service},1651294787,497
{consumergroup=landscape-service},1651294792,497
{consumergroup=landscape-service},1651294797,497
{consumergroup=landscape-service},1651294802,61
{consumergroup=landscape-service},1651294807,61
{consumergroup=landscape-service},1651294812,61
{consumergroup=landscape-service},1651294862,122
{consumergroup=landscape-service},1651294867,122
{consumergroup=landscape-service},1651294872,122
{consumergroup=trace-service},1651294412,58
{consumergroup=trace-service},1651294417,58
{consumergroup=trace-service},1651294422,58
{consumergroup=trace-service},1651294427,57514
{consumergroup=trace-service},1651294432,57514
{consumergroup=trace-service},1651294437,57514
{consumergroup=trace-service},1651294442,15668
{consumergroup=trace-service},1651294447,15668
{consumergroup=trace-service},1651294452,15668
{consumergroup=trace-service},1651294457,50575
{consumergroup=trace-service},1651294462,50575
{consumergroup=trace-service},1651294467,50575
{consumergroup=trace-service},1651294472,7838
{consumergroup=trace-service},1651294477,7838
{consumergroup=trace-service},1651294482,7838
{consumergroup=trace-service},1651294487,41624
{consumergroup=trace-service},1651294492,41624
{consumergroup=trace-service},1651294497,41624
{consumergroup=trace-service},1651294502,15010
{consumergroup=trace-service},1651294507,15010
{consumergroup=trace-service},1651294512,15010
{consumergroup=trace-service},1651294517,36047
{consumergroup=trace-service},1651294522,36047
{consumergroup=trace-service},1651294527,36047
{consumergroup=trace-service},1651294532,21310
{consumergroup=trace-service},1651294537,21310
{consumergroup=trace-service},1651294542,21310
{consumergroup=trace-service},1651294547,32778
{consumergroup=trace-service},1651294552,32778
{consumergroup=trace-service},1651294557,32778
{consumergroup=trace-service},1651294562,21894
{consumergroup=trace-service},1651294567,21894
{consumergroup=trace-service},1651294572,21894
{consumergroup=trace-service},1651294577,39487
{consumergroup=trace-service},1651294582,39487
{consumergroup=trace-service},1651294587,39487
{consumergroup=trace-service},1651294592,14378
{consumergroup=trace-service},1651294597,14378
{consumergroup=trace-service},1651294602,14378
{consumergroup=trace-service},1651294607,41976
{consumergroup=trace-service},1651294612,41976
{consumergroup=trace-service},1651294617,41976
{consumergroup=trace-service},1651294622,15238
{consumergroup=trace-service},1651294627,15238
{consumergroup=trace-service},1651294632,15238
{consumergroup=trace-service},1651294637,32540
{consumergroup=trace-service},1651294642,32540
{consumergroup=trace-service},1651294647,32540
{consumergroup=trace-service},1651294652,15116
{consumergroup=trace-service},1651294657,15116
{consumergroup=trace-service},1651294662,15116
{consumergroup=trace-service},1651294667,38620
{consumergroup=trace-service},1651294672,38620
{consumergroup=trace-service},1651294677,38620
{consumergroup=trace-service},1651294682,15826
{consumergroup=trace-service},1651294687,15826
{consumergroup=trace-service},1651294692,15826
{consumergroup=trace-service},1651294697,36440
{consumergroup=trace-service},1651294702,36440
{consumergroup=trace-service},1651294707,36440
{consumergroup=trace-service},1651294712,10795
{consumergroup=trace-service},1651294717,10795
{consumergroup=trace-service},1651294722,10795
{consumergroup=trace-service},1651294727,32560
{consumergroup=trace-service},1651294732,32560
{consumergroup=trace-service},1651294737,32560
{consumergroup=trace-service},1651294742,12019
{consumergroup=trace-service},1651294747,12019
{consumergroup=trace-service},1651294752,12019
{consumergroup=trace-service},1651294757,39762
{consumergroup=trace-service},1651294762,39762
{consumergroup=trace-service},1651294767,39762
{consumergroup=trace-service},1651294772,12327
{consumergroup=trace-service},1651294777,12327
{consumergroup=trace-service},1651294782,12327
{consumergroup=trace-service},1651294787,38667
{consumergroup=trace-service},1651294792,38667
{consumergroup=trace-service},1651294797,38667
{consumergroup=trace-service},1651294802,41453
{consumergroup=trace-service},1651294807,41453
{consumergroup=trace-service},1651294812,41453
{consumergroup=trace-service},1651294817,37998
{consumergroup=trace-service},1651294822,37998
{consumergroup=trace-service},1651294827,37998
{consumergroup=trace-service},1651294832,19097
{consumergroup=trace-service},1651294837,19097
{consumergroup=trace-service},1651294842,19097
{consumergroup=trace-service},1651294847,38231
{consumergroup=trace-service},1651294852,38231
{consumergroup=trace-service},1651294857,38231
{consumergroup=trace-service},1651294862,5717
{consumergroup=trace-service},1651294867,5717
{consumergroup=trace-service},1651294872,5717
{consumergroup=trace-service},1651294877,35566
{consumergroup=trace-token-events-consumer},1651294397,0
{consumergroup=trace-token-events-consumer},1651294402,0
{consumergroup=trace-token-events-consumer},1651294407,0
{consumergroup=trace-token-events-consumer},1651294412,0
{consumergroup=trace-token-events-consumer},1651294417,0
{consumergroup=trace-token-events-consumer},1651294422,0
{consumergroup=trace-token-events-consumer},1651294427,0
{consumergroup=trace-token-events-consumer},1651294432,0
{consumergroup=trace-token-events-consumer},1651294437,0
{consumergroup=trace-token-events-consumer},1651294442,0
{consumergroup=trace-token-events-consumer},1651294447,0
{consumergroup=trace-token-events-consumer},1651294452,0
{consumergroup=trace-token-events-consumer},1651294457,0
{consumergroup=trace-token-events-consumer},1651294462,0
{consumergroup=trace-token-events-consumer},1651294467,0
{consumergroup=trace-token-events-consumer},1651294472,0
{consumergroup=trace-token-events-consumer},1651294477,0
{consumergroup=trace-token-events-consumer},1651294482,0
{consumergroup=trace-token-events-consumer},1651294487,0
{consumergroup=trace-token-events-consumer},1651294492,0
{consumergroup=trace-token-events-consumer},1651294497,0
{consumergroup=trace-token-events-consumer},1651294502,0
{consumergroup=trace-token-events-consumer},1651294507,0
{consumergroup=trace-token-events-consumer},1651294512,0
{consumergroup=trace-token-events-consumer},1651294517,0
{consumergroup=trace-token-events-consumer},1651294522,0
{consumergroup=trace-token-events-consumer},1651294527,0
{consumergroup=trace-token-events-consumer},1651294532,0
{consumergroup=trace-token-events-consumer},1651294537,0
{consumergroup=trace-token-events-consumer},1651294542,0
{consumergroup=trace-token-events-consumer},1651294547,0
{consumergroup=trace-token-events-consumer},1651294552,0
{consumergroup=trace-token-events-consumer},1651294557,0
{consumergroup=trace-token-events-consumer},1651294562,0
{consumergroup=trace-token-events-consumer},1651294567,0
{consumergroup=trace-token-events-consumer},1651294572,0
{consumergroup=trace-token-events-consumer},1651294577,0
{consumergroup=trace-token-events-consumer},1651294582,0
{consumergroup=trace-token-events-consumer},1651294587,0
{consumergroup=trace-token-events-consumer},1651294592,0
{consumergroup=trace-token-events-consumer},1651294597,0
{consumergroup=trace-token-events-consumer},1651294602,0
{consumergroup=trace-token-events-consumer},1651294607,0
{consumergroup=trace-token-events-consumer},1651294612,0
{consumergroup=trace-token-events-consumer},1651294617,0
{consumergroup=trace-token-events-consumer},1651294622,0
{consumergroup=trace-token-events-consumer},1651294627,0
{consumergroup=trace-token-events-consumer},1651294632,0
{consumergroup=trace-token-events-consumer},1651294637,0
{consumergroup=trace-token-events-consumer},1651294642,0
{consumergroup=trace-token-events-consumer},1651294647,0
{consumergroup=trace-token-events-consumer},1651294652,0
{consumergroup=trace-token-events-consumer},1651294657,0
{consumergroup=trace-token-events-consumer},1651294662,0
{consumergroup=trace-token-events-consumer},1651294667,0
{consumergroup=trace-token-events-consumer},1651294672,0
{consumergroup=trace-token-events-consumer},1651294677,0
{consumergroup=trace-token-events-consumer},1651294682,0
{consumergroup=trace-token-events-consumer},1651294687,0
{consumergroup=trace-token-events-consumer},1651294692,0
{consumergroup=trace-token-events-consumer},1651294697,0
{consumergroup=trace-token-events-consumer},1651294702,0
{consumergroup=trace-token-events-consumer},1651294707,0
{consumergroup=trace-token-events-consumer},1651294712,0
{consumergroup=trace-token-events-consumer},1651294717,0
{consumergroup=trace-token-events-consumer},1651294722,0
{consumergroup=trace-token-events-consumer},1651294727,0
{consumergroup=trace-token-events-consumer},1651294732,0
{consumergroup=trace-token-events-consumer},1651294737,0
{consumergroup=trace-token-events-consumer},1651294742,0
{consumergroup=trace-token-events-consumer},1651294747,0
{consumergroup=trace-token-events-consumer},1651294752,0
{consumergroup=trace-token-events-consumer},1651294757,0
{consumergroup=trace-token-events-consumer},1651294762,0
{consumergroup=trace-token-events-consumer},1651294767,0
{consumergroup=trace-token-events-consumer},1651294772,0
{consumergroup=trace-token-events-consumer},1651294777,0
{consumergroup=trace-token-events-consumer},1651294782,0
{consumergroup=trace-token-events-consumer},1651294787,0
{consumergroup=trace-token-events-consumer},1651294792,0
{consumergroup=trace-token-events-consumer},1651294797,0
{consumergroup=trace-token-events-consumer},1651294802,0
{consumergroup=trace-token-events-consumer},1651294807,0
{consumergroup=trace-token-events-consumer},1651294812,0
{consumergroup=trace-token-events-consumer},1651294817,0
{consumergroup=trace-token-events-consumer},1651294822,0
{consumergroup=trace-token-events-consumer},1651294827,0
{consumergroup=trace-token-events-consumer},1651294832,0
{consumergroup=trace-token-events-consumer},1651294837,0
{consumergroup=trace-token-events-consumer},1651294842,0
{consumergroup=trace-token-events-consumer},1651294847,0
{consumergroup=trace-token-events-consumer},1651294852,0
{consumergroup=trace-token-events-consumer},1651294857,0
{consumergroup=trace-token-events-consumer},1651294862,0
{consumergroup=trace-token-events-consumer},1651294867,0
{consumergroup=trace-token-events-consumer},1651294872,0
{consumergroup=trace-token-events-consumer},1651294877,0
