labels,timestamp,value
{consumergroup=__strimzi-topic-operator-kstreams},1651412431,9
{consumergroup=__strimzi-topic-operator-kstreams},1651412436,9
{consumergroup=__strimzi-topic-operator-kstreams},1651412441,9
{consumergroup=__strimzi-topic-operator-kstreams},1651412446,0
{consumergroup=__strimzi-topic-operator-kstreams},1651412451,0
{consumergroup=__strimzi-topic-operator-kstreams},1651412456,0
{consumergroup=__strimzi-topic-operator-kstreams},1651412461,0
{consumergroup=__strimzi-topic-operator-kstreams},1651412466,0
{consumergroup=__strimzi-topic-operator-kstreams},1651412471,0
{consumergroup=__strimzi-topic-operator-kstreams},1651412476,0
{consumergroup=__strimzi-topic-operator-kstreams},1651412481,0
{consumergroup=__strimzi-topic-operator-kstreams},1651412486,0
{consumergroup=__strimzi-topic-operator-kstreams},1651412491,0
{consumergroup=__strimzi-topic-operator-kstreams},1651412496,0
{consumergroup=__strimzi-topic-operator-kstreams},1651412501,0
{consumergroup=__strimzi-topic-operator-kstreams},1651412506,0
{consumergroup=__strimzi-topic-operator-kstreams},1651412511,0
{consumergroup=__strimzi-topic-operator-kstreams},1651412516,0
{consumergroup=__strimzi-topic-operator-kstreams},1651412521,0
{consumergroup=__strimzi-topic-operator-kstreams},1651412526,0
{consumergroup=__strimzi-topic-operator-kstreams},1651412531,0
{consumergroup=__strimzi-topic-operator-kstreams},1651412536,0
{consumergroup=__strimzi-topic-operator-kstreams},1651412541,0
{consumergroup=__strimzi-topic-operator-kstreams},1651412546,0
{consumergroup=__strimzi-topic-operator-kstreams},1651412551,0
{consumergroup=__strimzi-topic-operator-kstreams},1651412556,0
{consumergroup=__strimzi-topic-operator-kstreams},1651412561,0
{consumergroup=__strimzi-topic-operator-kstreams},1651412566,0
{consumergroup=__strimzi-topic-operator-kstreams},1651412571,0
{consumergroup=__strimzi-topic-operator-kstreams},1651412576,0
{consumergroup=__strimzi-topic-operator-kstreams},1651412581,0
{consumergroup=__strimzi-topic-operator-kstreams},1651412586,0
{consumergroup=__strimzi-topic-operator-kstreams},1651412591,0
{consumergroup=__strimzi-topic-operator-kstreams},1651412596,0
{consumergroup=__strimzi-topic-operator-kstreams},1651412601,0
{consumergroup=__strimzi-topic-operator-kstreams},1651412606,0
{consumergroup=__strimzi-topic-operator-kstreams},1651412611,0
{consumergroup=__strimzi-topic-operator-kstreams},1651412616,0
{consumergroup=__strimzi-topic-operator-kstreams},1651412621,0
{consumergroup=__strimzi-topic-operator-kstreams},1651412626,0
{consumergroup=__strimzi-topic-operator-kstreams},1651412631,0
{consumergroup=__strimzi-topic-operator-kstreams},1651412636,0
{consumergroup=__strimzi-topic-operator-kstreams},1651412641,0
{consumergroup=__strimzi-topic-operator-kstreams},1651412646,0
{consumergroup=__strimzi-topic-operator-kstreams},1651412651,0
{consumergroup=__strimzi-topic-operator-kstreams},1651412656,0
{consumergroup=__strimzi-topic-operator-kstreams},1651412661,0
{consumergroup=__strimzi-topic-operator-kstreams},1651412666,0
{consumergroup=__strimzi-topic-operator-kstreams},1651412671,0
{consumergroup=__strimzi-topic-operator-kstreams},1651412676,0
{consumergroup=__strimzi-topic-operator-kstreams},1651412681,0
{consumergroup=__strimzi-topic-operator-kstreams},1651412686,0
{consumergroup=adapter-service},1651412461,0
{consumergroup=adapter-service},1651412466,0
{consumergroup=adapter-service},1651412471,0
{consumergroup=adapter-service},1651412476,166539
{consumergroup=adapter-service},1651412481,166539
{consumergroup=adapter-service},1651412486,166539
{consumergroup=adapter-service},1651412491,165199
{consumergroup=adapter-service},1651412496,165199
{consumergroup=adapter-service},1651412501,165199
{consumergroup=adapter-service},1651412506,185907
{consumergroup=adapter-service},1651412511,185907
{consumergroup=adapter-service},1651412516,185907
{consumergroup=adapter-service},1651412521,200043
{consumergroup=adapter-service},1651412526,200043
{consumergroup=adapter-service},1651412531,200043
{consumergroup=adapter-service},1651412536,205368
{consumergroup=adapter-service},1651412541,205368
{consumergroup=adapter-service},1651412546,205368
{consumergroup=adapter-service},1651412551,202420
{consumergroup=adapter-service},1651412556,202420
{consumergroup=adapter-service},1651412561,202420
{consumergroup=adapter-service},1651412566,199416
{consumergroup=adapter-service},1651412571,199416
{consumergroup=adapter-service},1651412576,199416
{consumergroup=adapter-service},1651412581,228859
{consumergroup=adapter-service},1651412586,228859
{consumergroup=adapter-service},1651412591,228859
{consumergroup=adapter-service},1651412596,203352
{consumergroup=adapter-service},1651412601,203352
{consumergroup=adapter-service},1651412606,203352
{consumergroup=adapter-service},1651412611,218958
{consumergroup=adapter-service},1651412616,218958
{consumergroup=adapter-service},1651412621,218958
{consumergroup=adapter-service},1651412626,219066
{consumergroup=adapter-service},1651412631,219066
{consumergroup=adapter-service},1651412636,219066
{consumergroup=adapter-service},1651412641,247856
{consumergroup=adapter-service},1651412646,247856
{consumergroup=adapter-service},1651412651,247856
{consumergroup=adapter-service},1651412656,237472
{consumergroup=adapter-service},1651412661,237472
{consumergroup=adapter-service},1651412666,237472
{consumergroup=adapter-service},1651412671,237617
{consumergroup=adapter-service},1651412676,237617
{consumergroup=adapter-service},1651412681,237617
{consumergroup=adapter-service},1651412686,254420
