labels,timestamp,value
{consumergroup=__strimzi-topic-operator-kstreams},1651396930,3
{consumergroup=__strimzi-topic-operator-kstreams},1651396935,3
{consumergroup=__strimzi-topic-operator-kstreams},1651396940,3
{consumergroup=__strimzi-topic-operator-kstreams},1651396945,12
{consumergroup=__strimzi-topic-operator-kstreams},1651396950,12
{consumergroup=__strimzi-topic-operator-kstreams},1651396955,12
{consumergroup=__strimzi-topic-operator-kstreams},1651396960,0
{consumergroup=__strimzi-topic-operator-kstreams},1651396965,0
{consumergroup=__strimzi-topic-operator-kstreams},1651396970,0
{consumergroup=__strimzi-topic-operator-kstreams},1651396975,0
{consumergroup=__strimzi-topic-operator-kstreams},1651396980,0
{consumergroup=__strimzi-topic-operator-kstreams},1651396985,0
{consumergroup=__strimzi-topic-operator-kstreams},1651396990,0
{consumergroup=__strimzi-topic-operator-kstreams},1651396995,0
{consumergroup=__strimzi-topic-operator-kstreams},1651397000,0
{consumergroup=__strimzi-topic-operator-kstreams},1651397005,0
{consumergroup=__strimzi-topic-operator-kstreams},1651397010,0
{consumergroup=__strimzi-topic-operator-kstreams},1651397015,0
{consumergroup=__strimzi-topic-operator-kstreams},1651397020,0
{consumergroup=__strimzi-topic-operator-kstreams},1651397025,0
{consumergroup=__strimzi-topic-operator-kstreams},1651397030,0
{consumergroup=__strimzi-topic-operator-kstreams},1651397035,0
{consumergroup=__strimzi-topic-operator-kstreams},1651397040,0
{consumergroup=__strimzi-topic-operator-kstreams},1651397045,0
{consumergroup=__strimzi-topic-operator-kstreams},1651397050,0
{consumergroup=__strimzi-topic-operator-kstreams},1651397055,0
{consumergroup=__strimzi-topic-operator-kstreams},1651397060,0
{consumergroup=__strimzi-topic-operator-kstreams},1651397065,0
{consumergroup=__strimzi-topic-operator-kstreams},1651397070,0
{consumergroup=__strimzi-topic-operator-kstreams},1651397075,0
{consumergroup=__strimzi-topic-operator-kstreams},1651397080,0
{consumergroup=__strimzi-topic-operator-kstreams},1651397085,0
{consumergroup=__strimzi-topic-operator-kstreams},1651397090,0
{consumergroup=__strimzi-topic-operator-kstreams},1651397095,0
{consumergroup=__strimzi-topic-operator-kstreams},1651397100,0
{consumergroup=__strimzi-topic-operator-kstreams},1651397105,0
{consumergroup=__strimzi-topic-operator-kstreams},1651397110,0
{consumergroup=__strimzi-topic-operator-kstreams},1651397115,0
{consumergroup=__strimzi-topic-operator-kstreams},1651397120,0
{consumergroup=__strimzi-topic-operator-kstreams},1651397125,0
{consumergroup=__strimzi-topic-operator-kstreams},1651397130,0
{consumergroup=__strimzi-topic-operator-kstreams},1651397135,0
{consumergroup=__strimzi-topic-operator-kstreams},1651397140,0
{consumergroup=__strimzi-topic-operator-kstreams},1651397145,0
{consumergroup=__strimzi-topic-operator-kstreams},1651397150,0
{consumergroup=__strimzi-topic-operator-kstreams},1651397155,0
{consumergroup=__strimzi-topic-operator-kstreams},1651397160,0
{consumergroup=__strimzi-topic-operator-kstreams},1651397165,0
{consumergroup=__strimzi-topic-operator-kstreams},1651397170,0
{consumergroup=__strimzi-topic-operator-kstreams},1651397175,0
{consumergroup=__strimzi-topic-operator-kstreams},1651397180,0
{consumergroup=__strimzi-topic-operator-kstreams},1651397185,0
{consumergroup=adapter-service},1651396960,47754
{consumergroup=adapter-service},1651396965,47754
{consumergroup=adapter-service},1651396970,47754
{consumergroup=adapter-service},1651396975,148107
{consumergroup=adapter-service},1651396980,148107
{consumergroup=adapter-service},1651396985,148107
{consumergroup=adapter-service},1651396990,195577
{consumergroup=adapter-service},1651396995,195577
{consumergroup=adapter-service},1651397000,195577
{consumergroup=adapter-service},1651397005,233843
{consumergroup=adapter-service},1651397010,233843
{consumergroup=adapter-service},1651397015,233843
{consumergroup=adapter-service},1651397020,307459
{consumergroup=adapter-service},1651397025,307459
{consumergroup=adapter-service},1651397030,307459
{consumergroup=adapter-service},1651397035,326162
{consumergroup=adapter-service},1651397040,326162
{consumergroup=adapter-service},1651397045,326162
{consumergroup=adapter-service},1651397050,357639
{consumergroup=adapter-service},1651397055,357639
{consumergroup=adapter-service},1651397060,357639
{consumergroup=adapter-service},1651397065,361313
{consumergroup=adapter-service},1651397070,361313
{consumergroup=adapter-service},1651397075,361313
{consumergroup=adapter-service},1651397080,433945
{consumergroup=adapter-service},1651397085,433945
{consumergroup=adapter-service},1651397090,433945
{consumergroup=adapter-service},1651397095,441058
{consumergroup=adapter-service},1651397100,441058
{consumergroup=adapter-service},1651397105,441058
{consumergroup=adapter-service},1651397110,470702
{consumergroup=adapter-service},1651397115,470702
{consumergroup=adapter-service},1651397120,470702
{consumergroup=adapter-service},1651397125,512410
{consumergroup=adapter-service},1651397130,512410
{consumergroup=adapter-service},1651397135,512410
{consumergroup=adapter-service},1651397140,546405
{consumergroup=adapter-service},1651397145,546405
{consumergroup=adapter-service},1651397150,546405
{consumergroup=adapter-service},1651397155,565168
{consumergroup=adapter-service},1651397160,565168
{consumergroup=adapter-service},1651397165,565168
{consumergroup=adapter-service},1651397170,582181
{consumergroup=adapter-service},1651397175,582181
{consumergroup=adapter-service},1651397180,582181
{consumergroup=adapter-service},1651397185,620047
