labels,timestamp,value
{consumergroup=__strimzi-topic-operator-kstreams},1651386186,0
{consumergroup=__strimzi-topic-operator-kstreams},1651386191,0
{consumergroup=__strimzi-topic-operator-kstreams},1651386196,0
{consumergroup=__strimzi-topic-operator-kstreams},1651386201,0
{consumergroup=__strimzi-topic-operator-kstreams},1651386206,0
{consumergroup=__strimzi-topic-operator-kstreams},1651386211,0
{consumergroup=__strimzi-topic-operator-kstreams},1651386216,0
{consumergroup=__strimzi-topic-operator-kstreams},1651386221,0
{consumergroup=__strimzi-topic-operator-kstreams},1651386226,0
{consumergroup=__strimzi-topic-operator-kstreams},1651386231,0
{consumergroup=__strimzi-topic-operator-kstreams},1651386236,0
{consumergroup=__strimzi-topic-operator-kstreams},1651386241,0
{consumergroup=__strimzi-topic-operator-kstreams},1651386246,0
{consumergroup=__strimzi-topic-operator-kstreams},1651386251,0
{consumergroup=__strimzi-topic-operator-kstreams},1651386256,0
{consumergroup=__strimzi-topic-operator-kstreams},1651386261,0
{consumergroup=__strimzi-topic-operator-kstreams},1651386266,0
{consumergroup=__strimzi-topic-operator-kstreams},1651386271,0
{consumergroup=__strimzi-topic-operator-kstreams},1651386276,0
{consumergroup=__strimzi-topic-operator-kstreams},1651386281,0
{consumergroup=__strimzi-topic-operator-kstreams},1651386286,0
{consumergroup=__strimzi-topic-operator-kstreams},1651386291,0
{consumergroup=__strimzi-topic-operator-kstreams},1651386296,0
{consumergroup=__strimzi-topic-operator-kstreams},1651386301,0
{consumergroup=__strimzi-topic-operator-kstreams},1651386306,0
{consumergroup=__strimzi-topic-operator-kstreams},1651386311,0
{consumergroup=__strimzi-topic-operator-kstreams},1651386316,0
{consumergroup=__strimzi-topic-operator-kstreams},1651386321,0
{consumergroup=__strimzi-topic-operator-kstreams},1651386326,0
{consumergroup=__strimzi-topic-operator-kstreams},1651386331,0
{consumergroup=__strimzi-topic-operator-kstreams},1651386336,0
{consumergroup=__strimzi-topic-operator-kstreams},1651386341,0
{consumergroup=__strimzi-topic-operator-kstreams},1651386346,0
{consumergroup=__strimzi-topic-operator-kstreams},1651386351,0
{consumergroup=__strimzi-topic-operator-kstreams},1651386356,0
{consumergroup=__strimzi-topic-operator-kstreams},1651386361,0
{consumergroup=__strimzi-topic-operator-kstreams},1651386366,0
{consumergroup=__strimzi-topic-operator-kstreams},1651386371,0
{consumergroup=__strimzi-topic-operator-kstreams},1651386376,0
{consumergroup=__strimzi-topic-operator-kstreams},1651386381,0
{consumergroup=__strimzi-topic-operator-kstreams},1651386386,0
{consumergroup=__strimzi-topic-operator-kstreams},1651386391,0
{consumergroup=__strimzi-topic-operator-kstreams},1651386396,0
{consumergroup=__strimzi-topic-operator-kstreams},1651386401,0
{consumergroup=__strimzi-topic-operator-kstreams},1651386406,0
{consumergroup=__strimzi-topic-operator-kstreams},1651386411,0
{consumergroup=__strimzi-topic-operator-kstreams},1651386416,0
{consumergroup=__strimzi-topic-operator-kstreams},1651386421,0
{consumergroup=__strimzi-topic-operator-kstreams},1651386426,0
{consumergroup=__strimzi-topic-operator-kstreams},1651386431,0
{consumergroup=adapter-service},1651386216,972951
{consumergroup=adapter-service},1651386221,972951
{consumergroup=adapter-service},1651386226,972951
{consumergroup=adapter-service},1651386231,1797540
{consumergroup=adapter-service},1651386236,1797540
{consumergroup=adapter-service},1651386241,1797540
{consumergroup=adapter-service},1651386246,2686458
{consumergroup=adapter-service},1651386251,2686458
{consumergroup=adapter-service},1651386256,2686458
{consumergroup=adapter-service},1651386261,3173972
{consumergroup=adapter-service},1651386266,3173972
{consumergroup=adapter-service},1651386271,3173972
{consumergroup=adapter-service},1651386276,3762370
{consumergroup=adapter-service},1651386281,3762370
{consumergroup=adapter-service},1651386286,3762370
{consumergroup=adapter-service},1651386291,3975280
{consumergroup=adapter-service},1651386296,3975280
{consumergroup=adapter-service},1651386301,3975280
{consumergroup=adapter-service},1651386306,4220806
{consumergroup=adapter-service},1651386311,4220806
{consumergroup=adapter-service},1651386316,4220806
{consumergroup=adapter-service},1651386321,4270189
{consumergroup=adapter-service},1651386326,4270189
{consumergroup=adapter-service},1651386331,4270189
{consumergroup=adapter-service},1651386336,4443293
{consumergroup=adapter-service},1651386341,4443293
{consumergroup=adapter-service},1651386346,4443293
{consumergroup=adapter-service},1651386351,4444234
{consumergroup=adapter-service},1651386356,4444234
{consumergroup=adapter-service},1651386361,4444234
{consumergroup=adapter-service},1651386366,4632928
{consumergroup=adapter-service},1651386371,4632928
{consumergroup=adapter-service},1651386376,4632928
{consumergroup=adapter-service},1651386381,4682122
{consumergroup=adapter-service},1651386386,4682122
{consumergroup=adapter-service},1651386391,4682122
{consumergroup=adapter-service},1651386396,4733394
{consumergroup=adapter-service},1651386401,4733394
{consumergroup=adapter-service},1651386406,4733394
{consumergroup=adapter-service},1651386411,4857717
{consumergroup=adapter-service},1651386416,4857717
{consumergroup=adapter-service},1651386421,4857717
{consumergroup=adapter-service},1651386426,4859162
{consumergroup=adapter-service},1651386431,4859162
