labels,timestamp,value
{consumergroup=__strimzi-topic-operator-kstreams},1651385595,8
{consumergroup=__strimzi-topic-operator-kstreams},1651385600,8
{consumergroup=__strimzi-topic-operator-kstreams},1651385605,8
{consumergroup=__strimzi-topic-operator-kstreams},1651385610,8
{consumergroup=__strimzi-topic-operator-kstreams},1651385615,8
{consumergroup=__strimzi-topic-operator-kstreams},1651385620,8
{consumergroup=__strimzi-topic-operator-kstreams},1651385625,0
{consumergroup=__strimzi-topic-operator-kstreams},1651385630,0
{consumergroup=__strimzi-topic-operator-kstreams},1651385635,0
{consumergroup=__strimzi-topic-operator-kstreams},1651385640,0
{consumergroup=__strimzi-topic-operator-kstreams},1651385645,0
{consumergroup=__strimzi-topic-operator-kstreams},1651385650,0
{consumergroup=__strimzi-topic-operator-kstreams},1651385655,0
{consumergroup=__strimzi-topic-operator-kstreams},1651385660,0
{consumergroup=__strimzi-topic-operator-kstreams},1651385665,0
{consumergroup=__strimzi-topic-operator-kstreams},1651385670,0
{consumergroup=__strimzi-topic-operator-kstreams},1651385675,0
{consumergroup=__strimzi-topic-operator-kstreams},1651385680,0
{consumergroup=__strimzi-topic-operator-kstreams},1651385685,0
{consumergroup=__strimzi-topic-operator-kstreams},1651385690,0
{consumergroup=__strimzi-topic-operator-kstreams},1651385695,0
{consumergroup=__strimzi-topic-operator-kstreams},1651385700,0
{consumergroup=__strimzi-topic-operator-kstreams},1651385705,0
{consumergroup=__strimzi-topic-operator-kstreams},1651385710,0
{consumergroup=__strimzi-topic-operator-kstreams},1651385715,0
{consumergroup=__strimzi-topic-operator-kstreams},1651385720,0
{consumergroup=__strimzi-topic-operator-kstreams},1651385725,0
{consumergroup=__strimzi-topic-operator-kstreams},1651385730,0
{consumergroup=__strimzi-topic-operator-kstreams},1651385735,0
{consumergroup=__strimzi-topic-operator-kstreams},1651385740,0
{consumergroup=__strimzi-topic-operator-kstreams},1651385745,0
{consumergroup=__strimzi-topic-operator-kstreams},1651385750,0
{consumergroup=__strimzi-topic-operator-kstreams},1651385755,0
{consumergroup=__strimzi-topic-operator-kstreams},1651385760,0
{consumergroup=__strimzi-topic-operator-kstreams},1651385765,0
{consumergroup=__strimzi-topic-operator-kstreams},1651385770,0
{consumergroup=__strimzi-topic-operator-kstreams},1651385775,0
{consumergroup=__strimzi-topic-operator-kstreams},1651385780,0
{consumergroup=__strimzi-topic-operator-kstreams},1651385785,0
{consumergroup=__strimzi-topic-operator-kstreams},1651385790,0
{consumergroup=__strimzi-topic-operator-kstreams},1651385795,0
{consumergroup=__strimzi-topic-operator-kstreams},1651385800,0
{consumergroup=__strimzi-topic-operator-kstreams},1651385805,0
{consumergroup=__strimzi-topic-operator-kstreams},1651385810,0
{consumergroup=__strimzi-topic-operator-kstreams},1651385815,0
{consumergroup=__strimzi-topic-operator-kstreams},1651385820,0
{consumergroup=__strimzi-topic-operator-kstreams},1651385825,0
{consumergroup=__strimzi-topic-operator-kstreams},1651385830,0
{consumergroup=__strimzi-topic-operator-kstreams},1651385835,0
{consumergroup=__strimzi-topic-operator-kstreams},1651385840,0
{consumergroup=__strimzi-topic-operator-kstreams},1651385845,0
{consumergroup=adapter-service},1651385625,271288
{consumergroup=adapter-service},1651385630,271288
{consumergroup=adapter-service},1651385635,271288
{consumergroup=adapter-service},1651385640,1232451
{consumergroup=adapter-service},1651385645,1232451
{consumergroup=adapter-service},1651385650,1232451
{consumergroup=adapter-service},1651385655,1926038
{consumergroup=adapter-service},1651385660,1926038
{consumergroup=adapter-service},1651385665,1926038
{consumergroup=adapter-service},1651385670,2373534
{consumergroup=adapter-service},1651385675,2373534
{consumergroup=adapter-service},1651385680,2373534
{consumergroup=adapter-service},1651385685,2819702
{consumergroup=adapter-service},1651385690,2819702
{consumergroup=adapter-service},1651385695,2819702
{consumergroup=adapter-service},1651385700,2881803
{consumergroup=adapter-service},1651385705,2881803
{consumergroup=adapter-service},1651385710,2881803
{consumergroup=adapter-service},1651385715,2979529
{consumergroup=adapter-service},1651385720,2979529
{consumergroup=adapter-service},1651385725,2979529
{consumergroup=adapter-service},1651385730,2887025
{consumergroup=adapter-service},1651385735,2887025
{consumergroup=adapter-service},1651385740,2887025
{consumergroup=adapter-service},1651385745,2814712
{consumergroup=adapter-service},1651385750,2814712
{consumergroup=adapter-service},1651385755,2814712
{consumergroup=adapter-service},1651385760,3009027
{consumergroup=adapter-service},1651385765,3009027
{consumergroup=adapter-service},1651385770,3009027
{consumergroup=adapter-service},1651385775,2568392
{consumergroup=adapter-service},1651385780,2568392
{consumergroup=adapter-service},1651385785,2568392
{consumergroup=adapter-service},1651385790,2731258
{consumergroup=adapter-service},1651385795,2731258
{consumergroup=adapter-service},1651385800,2731258
{consumergroup=adapter-service},1651385805,2328551
{consumergroup=adapter-service},1651385810,2328551
{consumergroup=adapter-service},1651385815,2328551
{consumergroup=adapter-service},1651385820,2424993
{consumergroup=adapter-service},1651385825,2424993
{consumergroup=adapter-service},1651385830,2424993
{consumergroup=adapter-service},1651385835,2205844
{consumergroup=adapter-service},1651385840,2205844
{consumergroup=adapter-service},1651385845,2205844
