labels,timestamp,value
{consumergroup=__strimzi-topic-operator-kstreams},1651345114,7
{consumergroup=__strimzi-topic-operator-kstreams},1651345119,7
{consumergroup=__strimzi-topic-operator-kstreams},1651345124,7
{consumergroup=__strimzi-topic-operator-kstreams},1651345129,0
{consumergroup=__strimzi-topic-operator-kstreams},1651345134,0
{consumergroup=__strimzi-topic-operator-kstreams},1651345139,0
{consumergroup=__strimzi-topic-operator-kstreams},1651345144,0
{consumergroup=__strimzi-topic-operator-kstreams},1651345149,0
{consumergroup=__strimzi-topic-operator-kstreams},1651345154,0
{consumergroup=__strimzi-topic-operator-kstreams},1651345159,0
{consumergroup=__strimzi-topic-operator-kstreams},1651345164,0
{consumergroup=__strimzi-topic-operator-kstreams},1651345169,0
{consumergroup=__strimzi-topic-operator-kstreams},1651345174,0
{consumergroup=__strimzi-topic-operator-kstreams},1651345179,0
{consumergroup=__strimzi-topic-operator-kstreams},1651345184,0
{consumergroup=__strimzi-topic-operator-kstreams},1651345189,0
{consumergroup=__strimzi-topic-operator-kstreams},1651345194,0
{consumergroup=__strimzi-topic-operator-kstreams},1651345199,0
{consumergroup=__strimzi-topic-operator-kstreams},1651345204,0
{consumergroup=__strimzi-topic-operator-kstreams},1651345209,0
{consumergroup=__strimzi-topic-operator-kstreams},1651345214,0
{consumergroup=__strimzi-topic-operator-kstreams},1651345219,0
{consumergroup=__strimzi-topic-operator-kstreams},1651345224,0
{consumergroup=__strimzi-topic-operator-kstreams},1651345229,0
{consumergroup=__strimzi-topic-operator-kstreams},1651345234,0
{consumergroup=__strimzi-topic-operator-kstreams},1651345239,0
{consumergroup=__strimzi-topic-operator-kstreams},1651345244,0
{consumergroup=__strimzi-topic-operator-kstreams},1651345249,0
{consumergroup=__strimzi-topic-operator-kstreams},1651345254,0
{consumergroup=__strimzi-topic-operator-kstreams},1651345259,0
{consumergroup=__strimzi-topic-operator-kstreams},1651345264,0
{consumergroup=__strimzi-topic-operator-kstreams},1651345269,0
{consumergroup=__strimzi-topic-operator-kstreams},1651345274,0
{consumergroup=__strimzi-topic-operator-kstreams},1651345279,0
{consumergroup=__strimzi-topic-operator-kstreams},1651345284,0
{consumergroup=__strimzi-topic-operator-kstreams},1651345289,0
{consumergroup=__strimzi-topic-operator-kstreams},1651345294,0
{consumergroup=__strimzi-topic-operator-kstreams},1651345299,0
{consumergroup=__strimzi-topic-operator-kstreams},1651345304,0
{consumergroup=__strimzi-topic-operator-kstreams},1651345309,0
{consumergroup=__strimzi-topic-operator-kstreams},1651345314,0
{consumergroup=__strimzi-topic-operator-kstreams},1651345319,0
{consumergroup=__strimzi-topic-operator-kstreams},1651345324,0
{consumergroup=__strimzi-topic-operator-kstreams},1651345329,0
{consumergroup=__strimzi-topic-operator-kstreams},1651345334,0
{consumergroup=__strimzi-topic-operator-kstreams},1651345339,0
{consumergroup=__strimzi-topic-operator-kstreams},1651345344,0
{consumergroup=__strimzi-topic-operator-kstreams},1651345349,0
{consumergroup=__strimzi-topic-operator-kstreams},1651345354,0
{consumergroup=__strimzi-topic-operator-kstreams},1651345359,0
{consumergroup=__strimzi-topic-operator-kstreams},1651345364,0
{consumergroup=__strimzi-topic-operator-kstreams},1651345369,0
{consumergroup=adapter-service},1651345144,36172
{consumergroup=adapter-service},1651345149,36172
{consumergroup=adapter-service},1651345154,36172
{consumergroup=adapter-service},1651345159,1855337
{consumergroup=adapter-service},1651345164,1855337
{consumergroup=adapter-service},1651345169,1855337
{consumergroup=adapter-service},1651345174,3840506
{consumergroup=adapter-service},1651345179,3840506
{consumergroup=adapter-service},1651345184,3840506
{consumergroup=adapter-service},1651345189,5340789
{consumergroup=adapter-service},1651345194,5340789
{consumergroup=adapter-service},1651345199,5340789
{consumergroup=adapter-service},1651345204,7452223
{consumergroup=adapter-service},1651345209,7452223
{consumergroup=adapter-service},1651345214,7452223
{consumergroup=adapter-service},1651345219,8927910
{consumergroup=adapter-service},1651345224,8927910
{consumergroup=adapter-service},1651345229,8927910
{consumergroup=adapter-service},1651345234,10989728
{consumergroup=adapter-service},1651345239,10989728
{consumergroup=adapter-service},1651345244,10989728
{consumergroup=adapter-service},1651345249,12658885
{consumergroup=adapter-service},1651345254,12658885
{consumergroup=adapter-service},1651345259,12658885
{consumergroup=adapter-service},1651345264,14370473
{consumergroup=adapter-service},1651345269,14370473
{consumergroup=adapter-service},1651345274,14370473
{consumergroup=adapter-service},1651345279,16076565
{consumergroup=adapter-service},1651345284,16076565
{consumergroup=adapter-service},1651345289,16076565
{consumergroup=adapter-service},1651345294,17949293
{consumergroup=adapter-service},1651345299,17949293
{consumergroup=adapter-service},1651345304,17949293
{consumergroup=adapter-service},1651345309,19521618
{consumergroup=adapter-service},1651345314,19521618
{consumergroup=adapter-service},1651345319,19521618
{consumergroup=adapter-service},1651345324,21446823
{consumergroup=adapter-service},1651345329,21446823
{consumergroup=adapter-service},1651345334,21446823
{consumergroup=adapter-service},1651345339,23118582
{consumergroup=adapter-service},1651345344,23118582
{consumergroup=adapter-service},1651345349,23118582
{consumergroup=adapter-service},1651345354,25016686
{consumergroup=adapter-service},1651345359,25016686
{consumergroup=adapter-service},1651345364,25016686
{consumergroup=adapter-service},1651345369,26729095
