labels,timestamp,value
{consumergroup=__strimzi-topic-operator-kstreams},1651309108,11
{consumergroup=__strimzi-topic-operator-kstreams},1651309113,11
{consumergroup=__strimzi-topic-operator-kstreams},1651309118,11
{consumergroup=__strimzi-topic-operator-kstreams},1651309123,2
{consumergroup=__strimzi-topic-operator-kstreams},1651309128,2
{consumergroup=__strimzi-topic-operator-kstreams},1651309133,2
{consumergroup=__strimzi-topic-operator-kstreams},1651309138,2
{consumergroup=__strimzi-topic-operator-kstreams},1651309143,2
{consumergroup=__strimzi-topic-operator-kstreams},1651309148,2
{consumergroup=__strimzi-topic-operator-kstreams},1651309153,1
{consumergroup=__strimzi-topic-operator-kstreams},1651309158,1
{consumergroup=__strimzi-topic-operator-kstreams},1651309163,1
{consumergroup=__strimzi-topic-operator-kstreams},1651309168,1
{consumergroup=__strimzi-topic-operator-kstreams},1651309173,1
{consumergroup=__strimzi-topic-operator-kstreams},1651309178,1
{consumergroup=__strimzi-topic-operator-kstreams},1651309183,0
{consumergroup=__strimzi-topic-operator-kstreams},1651309188,0
{consumergroup=__strimzi-topic-operator-kstreams},1651309193,0
{consumergroup=__strimzi-topic-operator-kstreams},1651309198,0
{consumergroup=__strimzi-topic-operator-kstreams},1651309203,0
{consumergroup=__strimzi-topic-operator-kstreams},1651309208,0
{consumergroup=__strimzi-topic-operator-kstreams},1651309213,0
{consumergroup=__strimzi-topic-operator-kstreams},1651309218,0
{consumergroup=__strimzi-topic-operator-kstreams},1651309223,0
{consumergroup=__strimzi-topic-operator-kstreams},1651309228,0
{consumergroup=__strimzi-topic-operator-kstreams},1651309233,0
{consumergroup=__strimzi-topic-operator-kstreams},1651309238,0
{consumergroup=__strimzi-topic-operator-kstreams},1651309243,0
{consumergroup=__strimzi-topic-operator-kstreams},1651309248,0
{consumergroup=__strimzi-topic-operator-kstreams},1651309253,0
{consumergroup=__strimzi-topic-operator-kstreams},1651309258,0
{consumergroup=__strimzi-topic-operator-kstreams},1651309263,0
{consumergroup=__strimzi-topic-operator-kstreams},1651309268,0
{consumergroup=__strimzi-topic-operator-kstreams},1651309273,0
{consumergroup=__strimzi-topic-operator-kstreams},1651309278,0
{consumergroup=__strimzi-topic-operator-kstreams},1651309283,0
{consumergroup=__strimzi-topic-operator-kstreams},1651309288,0
{consumergroup=__strimzi-topic-operator-kstreams},1651309293,0
{consumergroup=__strimzi-topic-operator-kstreams},1651309298,0
{consumergroup=__strimzi-topic-operator-kstreams},1651309303,0
{consumergroup=__strimzi-topic-operator-kstreams},1651309308,0
{consumergroup=__strimzi-topic-operator-kstreams},1651309313,0
{consumergroup=__strimzi-topic-operator-kstreams},1651309318,0
{consumergroup=__strimzi-topic-operator-kstreams},1651309323,0
{consumergroup=__strimzi-topic-operator-kstreams},1651309328,0
{consumergroup=__strimzi-topic-operator-kstreams},1651309333,0
{consumergroup=__strimzi-topic-operator-kstreams},1651309338,0
{consumergroup=__strimzi-topic-operator-kstreams},1651309343,0
{consumergroup=__strimzi-topic-operator-kstreams},1651309348,0
{consumergroup=__strimzi-topic-operator-kstreams},1651309353,0
{consumergroup=__strimzi-topic-operator-kstreams},1651309358,0
{consumergroup=__strimzi-topic-operator-kstreams},1651309363,0
{consumergroup=__strimzi-topic-operator-kstreams},1651309368,0
{consumergroup=__strimzi-topic-operator-kstreams},1651309373,0
{consumergroup=__strimzi-topic-operator-kstreams},1651309378,0
{consumergroup=__strimzi-topic-operator-kstreams},1651309383,0
{consumergroup=__strimzi-topic-operator-kstreams},1651309388,0
{consumergroup=__strimzi-topic-operator-kstreams},1651309393,0
{consumergroup=__strimzi-topic-operator-kstreams},1651309398,0
{consumergroup=__strimzi-topic-operator-kstreams},1651309403,0
{consumergroup=__strimzi-topic-operator-kstreams},1651309408,0
{consumergroup=__strimzi-topic-operator-kstreams},1651309413,0
{consumergroup=__strimzi-topic-operator-kstreams},1651309418,0
{consumergroup=__strimzi-topic-operator-kstreams},1651309423,0
{consumergroup=__strimzi-topic-operator-kstreams},1651309428,0
{consumergroup=__strimzi-topic-operator-kstreams},1651309433,0
{consumergroup=__strimzi-topic-operator-kstreams},1651309438,0
{consumergroup=__strimzi-topic-operator-kstreams},1651309443,0
{consumergroup=__strimzi-topic-operator-kstreams},1651309448,0
{consumergroup=__strimzi-topic-operator-kstreams},1651309453,0
{consumergroup=__strimzi-topic-operator-kstreams},1651309458,0
{consumergroup=__strimzi-topic-operator-kstreams},1651309463,0
{consumergroup=__strimzi-topic-operator-kstreams},1651309468,0
{consumergroup=__strimzi-topic-operator-kstreams},1651309473,0
{consumergroup=__strimzi-topic-operator-kstreams},1651309478,0
{consumergroup=__strimzi-topic-operator-kstreams},1651309483,0
{consumergroup=__strimzi-topic-operator-kstreams},1651309488,0
{consumergroup=__strimzi-topic-operator-kstreams},1651309493,0
{consumergroup=__strimzi-topic-operator-kstreams},1651309498,0
{consumergroup=__strimzi-topic-operator-kstreams},1651309503,0
{consumergroup=__strimzi-topic-operator-kstreams},1651309508,0
{consumergroup=__strimzi-topic-operator-kstreams},1651309513,0
{consumergroup=__strimzi-topic-operator-kstreams},1651309518,0
{consumergroup=__strimzi-topic-operator-kstreams},1651309523,0
{consumergroup=__strimzi-topic-operator-kstreams},1651309528,0
{consumergroup=__strimzi-topic-operator-kstreams},1651309533,0
{consumergroup=__strimzi-topic-operator-kstreams},1651309538,0
{consumergroup=__strimzi-topic-operator-kstreams},1651309543,0
{consumergroup=__strimzi-topic-operator-kstreams},1651309548,0
{consumergroup=__strimzi-topic-operator-kstreams},1651309553,0
{consumergroup=__strimzi-topic-operator-kstreams},1651309558,0
{consumergroup=__strimzi-topic-operator-kstreams},1651309563,0
{consumergroup=__strimzi-topic-operator-kstreams},1651309568,0
{consumergroup=__strimzi-topic-operator-kstreams},1651309573,0
{consumergroup=__strimzi-topic-operator-kstreams},1651309578,0
{consumergroup=__strimzi-topic-operator-kstreams},1651309583,0
{consumergroup=__strimzi-topic-operator-kstreams},1651309588,0
{consumergroup=__strimzi-topic-operator-kstreams},1651309593,0
{consumergroup=__strimzi-topic-operator-kstreams},1651309598,0
{consumergroup=__strimzi-topic-operator-kstreams},1651309603,0
{consumergroup=__strimzi-topic-operator-kstreams},1651309608,0
{consumergroup=__strimzi-topic-operator-kstreams},1651309613,0
{consumergroup=adapter-service},1651309138,0
{consumergroup=adapter-service},1651309143,0
{consumergroup=adapter-service},1651309148,0
{consumergroup=adapter-service},1651309153,8249
{consumergroup=adapter-service},1651309158,8249
{consumergroup=adapter-service},1651309163,8249
{consumergroup=adapter-service},1651309168,3763
{consumergroup=adapter-service},1651309173,3763
{consumergroup=adapter-service},1651309178,3763
{consumergroup=adapter-service},1651309183,9085
{consumergroup=adapter-service},1651309188,9085
{consumergroup=adapter-service},1651309193,9085
{consumergroup=adapter-service},1651309198,2894
{consumergroup=adapter-service},1651309203,2894
{consumergroup=adapter-service},1651309208,2894
{consumergroup=adapter-service},1651309213,7438
{consumergroup=adapter-service},1651309218,7438
{consumergroup=adapter-service},1651309223,7438
{consumergroup=adapter-service},1651309228,3417
{consumergroup=adapter-service},1651309233,3417
{consumergroup=adapter-service},1651309238,3417
{consumergroup=adapter-service},1651309243,7388
{consumergroup=adapter-service},1651309248,7388
{consumergroup=adapter-service},1651309253,7388
{consumergroup=adapter-service},1651309258,2175
{consumergroup=adapter-service},1651309263,2175
{consumergroup=adapter-service},1651309268,2175
{consumergroup=adapter-service},1651309273,6825
{consumergroup=adapter-service},1651309278,6825
{consumergroup=adapter-service},1651309283,6825
{consumergroup=adapter-service},1651309288,1889
{consumergroup=adapter-service},1651309293,1889
{consumergroup=adapter-service},1651309298,1889
{consumergroup=adapter-service},1651309303,6652
{consumergroup=adapter-service},1651309308,6652
{consumergroup=adapter-service},1651309313,6652
{consumergroup=adapter-service},1651309318,1521
{consumergroup=adapter-service},1651309323,1521
{consumergroup=adapter-service},1651309328,1521
{consumergroup=adapter-service},1651309333,6258
{consumergroup=adapter-service},1651309338,6258
{consumergroup=adapter-service},1651309343,6258
{consumergroup=adapter-service},1651309348,1370
{consumergroup=adapter-service},1651309353,1370
{consumergroup=adapter-service},1651309358,1370
{consumergroup=adapter-service},1651309363,6063
{consumergroup=adapter-service},1651309368,6063
{consumergroup=adapter-service},1651309373,6063
{consumergroup=adapter-service},1651309378,1868
{consumergroup=adapter-service},1651309383,1868
{consumergroup=adapter-service},1651309388,1868
{consumergroup=adapter-service},1651309393,5507
{consumergroup=adapter-service},1651309398,5507
{consumergroup=adapter-service},1651309403,5507
{consumergroup=adapter-service},1651309408,2750
{consumergroup=adapter-service},1651309413,2750
{consumergroup=adapter-service},1651309418,2750
{consumergroup=adapter-service},1651309423,5464
{consumergroup=adapter-service},1651309428,5464
{consumergroup=adapter-service},1651309433,5464
{consumergroup=adapter-service},1651309438,3487
{consumergroup=adapter-service},1651309443,3487
{consumergroup=adapter-service},1651309448,3487
{consumergroup=adapter-service},1651309453,5054
{consumergroup=adapter-service},1651309458,5054
{consumergroup=adapter-service},1651309463,5054
{consumergroup=adapter-service},1651309468,4288
{consumergroup=adapter-service},1651309473,4288
{consumergroup=adapter-service},1651309478,4288
{consumergroup=adapter-service},1651309483,5620
{consumergroup=adapter-service},1651309488,5620
{consumergroup=adapter-service},1651309493,5620
{consumergroup=adapter-service},1651309498,4478
{consumergroup=adapter-service},1651309503,4478
{consumergroup=adapter-service},1651309508,4478
{consumergroup=adapter-service},1651309513,4440
{consumergroup=adapter-service},1651309518,4440
{consumergroup=adapter-service},1651309523,4440
{consumergroup=adapter-service},1651309528,5565
{consumergroup=adapter-service},1651309533,5565
{consumergroup=adapter-service},1651309538,5565
{consumergroup=adapter-service},1651309543,4250
{consumergroup=adapter-service},1651309548,4250
{consumergroup=adapter-service},1651309553,4250
{consumergroup=adapter-service},1651309558,7236
{consumergroup=adapter-service},1651309563,7236
{consumergroup=adapter-service},1651309568,7236
{consumergroup=adapter-service},1651309573,4599
{consumergroup=adapter-service},1651309578,4599
{consumergroup=adapter-service},1651309583,4599
{consumergroup=adapter-service},1651309588,8679
{consumergroup=adapter-service},1651309593,8679
{consumergroup=adapter-service},1651309598,8679
{consumergroup=adapter-service},1651309603,4468
{consumergroup=adapter-service},1651309608,4468
{consumergroup=adapter-service},1651309613,4468
{consumergroup=landscape-service},1651309153,37095
{consumergroup=landscape-service},1651309158,37095
{consumergroup=landscape-service},1651309163,37095
{consumergroup=landscape-service},1651309168,7524
{consumergroup=landscape-service},1651309173,7524
{consumergroup=landscape-service},1651309178,7524
{consumergroup=landscape-service},1651309183,11644
{consumergroup=landscape-service},1651309188,11644
{consumergroup=landscape-service},1651309193,11644
{consumergroup=landscape-service},1651309198,5927
{consumergroup=landscape-service},1651309203,5927
{consumergroup=landscape-service},1651309208,5927
{consumergroup=landscape-service},1651309213,9906
{consumergroup=landscape-service},1651309218,9906
{consumergroup=landscape-service},1651309223,9906
{consumergroup=landscape-service},1651309228,4658
{consumergroup=landscape-service},1651309233,4658
{consumergroup=landscape-service},1651309238,4658
{consumergroup=landscape-service},1651309243,8908
{consumergroup=landscape-service},1651309248,8908
{consumergroup=landscape-service},1651309253,8908
{consumergroup=landscape-service},1651309258,3522
{consumergroup=landscape-service},1651309263,3522
{consumergroup=landscape-service},1651309268,3522
{consumergroup=landscape-service},1651309273,7825
{consumergroup=landscape-service},1651309278,7825
{consumergroup=landscape-service},1651309283,7825
{consumergroup=landscape-service},1651309288,2322
{consumergroup=landscape-service},1651309293,2322
{consumergroup=landscape-service},1651309298,2322
{consumergroup=landscape-service},1651309303,7633
{consumergroup=landscape-service},1651309308,7633
{consumergroup=landscape-service},1651309313,7633
{consumergroup=landscape-service},1651309318,1956
{consumergroup=landscape-service},1651309323,1956
{consumergroup=landscape-service},1651309328,1956
{consumergroup=landscape-service},1651309333,5536
{consumergroup=landscape-service},1651309338,5536
{consumergroup=landscape-service},1651309343,5536
{consumergroup=landscape-service},1651309348,1284
{consumergroup=landscape-service},1651309353,1284
{consumergroup=landscape-service},1651309358,1284
{consumergroup=landscape-service},1651309363,4790
{consumergroup=landscape-service},1651309368,4790
{consumergroup=landscape-service},1651309373,4790
{consumergroup=landscape-service},1651309378,15348
{consumergroup=landscape-service},1651309383,15348
{consumergroup=landscape-service},1651309388,15348
{consumergroup=landscape-service},1651309393,4240
{consumergroup=landscape-service},1651309398,4240
{consumergroup=landscape-service},1651309403,4240
{consumergroup=landscape-service},1651309408,15046
{consumergroup=landscape-service},1651309413,15046
{consumergroup=landscape-service},1651309418,15046
{consumergroup=landscape-service},1651309423,2367
{consumergroup=landscape-service},1651309428,2367
{consumergroup=landscape-service},1651309433,2367
{consumergroup=landscape-service},1651309438,13835
{consumergroup=landscape-service},1651309443,13835
{consumergroup=landscape-service},1651309448,13835
{consumergroup=landscape-service},1651309453,1001
{consumergroup=landscape-service},1651309458,1001
{consumergroup=landscape-service},1651309463,1001
{consumergroup=landscape-service},1651309468,11748
{consumergroup=landscape-service},1651309473,11748
{consumergroup=landscape-service},1651309478,11748
{consumergroup=landscape-service},1651309483,528
{consumergroup=landscape-service},1651309488,528
{consumergroup=landscape-service},1651309493,528
{consumergroup=landscape-service},1651309498,11804
{consumergroup=landscape-service},1651309503,11804
{consumergroup=landscape-service},1651309508,11804
{consumergroup=landscape-service},1651309513,16005
{consumergroup=landscape-service},1651309518,16005
{consumergroup=landscape-service},1651309523,16005
{consumergroup=landscape-service},1651309528,11344
{consumergroup=landscape-service},1651309533,11344
{consumergroup=landscape-service},1651309538,11344
{consumergroup=landscape-service},1651309543,15151
{consumergroup=landscape-service},1651309548,15151
{consumergroup=landscape-service},1651309553,15151
{consumergroup=landscape-service},1651309558,9520
{consumergroup=landscape-service},1651309563,9520
{consumergroup=landscape-service},1651309568,9520
{consumergroup=landscape-service},1651309573,13837
{consumergroup=landscape-service},1651309578,13837
{consumergroup=landscape-service},1651309583,13837
{consumergroup=landscape-service},1651309588,9254
{consumergroup=landscape-service},1651309593,9254
{consumergroup=landscape-service},1651309598,9254
{consumergroup=landscape-service},1651309603,13763
{consumergroup=landscape-service},1651309608,13763
{consumergroup=landscape-service},1651309613,13763
{consumergroup=trace-service},1651309153,8159
{consumergroup=trace-service},1651309158,8159
{consumergroup=trace-service},1651309163,8159
{consumergroup=trace-service},1651309168,17700
{consumergroup=trace-service},1651309173,17700
{consumergroup=trace-service},1651309178,17700
{consumergroup=trace-service},1651309183,51314
{consumergroup=trace-service},1651309188,51314
{consumergroup=trace-service},1651309193,51314
{consumergroup=trace-service},1651309198,8755
{consumergroup=trace-service},1651309203,8755
{consumergroup=trace-service},1651309208,8755
{consumergroup=trace-service},1651309213,36795
{consumergroup=trace-service},1651309218,36795
{consumergroup=trace-service},1651309223,36795
{consumergroup=trace-service},1651309228,17621
{consumergroup=trace-service},1651309233,17621
{consumergroup=trace-service},1651309238,17621
{consumergroup=trace-service},1651309243,45512
{consumergroup=trace-service},1651309248,45512
{consumergroup=trace-service},1651309253,45512
{consumergroup=trace-service},1651309258,14663
{consumergroup=trace-service},1651309263,14663
{consumergroup=trace-service},1651309268,14663
{consumergroup=trace-service},1651309273,46735
{consumergroup=trace-service},1651309278,46735
{consumergroup=trace-service},1651309283,46735
{consumergroup=trace-service},1651309288,11475
{consumergroup=trace-service},1651309293,11475
{consumergroup=trace-service},1651309298,11475
{consumergroup=trace-service},1651309303,51768
{consumergroup=trace-service},1651309308,51768
{consumergroup=trace-service},1651309313,51768
{consumergroup=trace-service},1651309318,35781
{consumergroup=trace-service},1651309323,35781
{consumergroup=trace-service},1651309328,35781
{consumergroup=trace-service},1651309333,49682
{consumergroup=trace-service},1651309338,49682
{consumergroup=trace-service},1651309343,49682
{consumergroup=trace-service},1651309348,11925
{consumergroup=trace-service},1651309353,11925
{consumergroup=trace-service},1651309358,11925
{consumergroup=trace-service},1651309363,50860
{consumergroup=trace-service},1651309368,50860
{consumergroup=trace-service},1651309373,50860
{consumergroup=trace-service},1651309378,16153
{consumergroup=trace-service},1651309383,16153
{consumergroup=trace-service},1651309388,16153
{consumergroup=trace-service},1651309393,50414
{consumergroup=trace-service},1651309398,50414
{consumergroup=trace-service},1651309403,50414
{consumergroup=trace-service},1651309408,99124
{consumergroup=trace-service},1651309413,99124
{consumergroup=trace-service},1651309418,99124
{consumergroup=trace-service},1651309423,44870
{consumergroup=trace-service},1651309428,44870
{consumergroup=trace-service},1651309433,44870
{consumergroup=trace-service},1651309438,8829
{consumergroup=trace-service},1651309443,8829
{consumergroup=trace-service},1651309448,8829
{consumergroup=trace-service},1651309453,37535
{consumergroup=trace-service},1651309458,37535
{consumergroup=trace-service},1651309463,37535
{consumergroup=trace-service},1651309468,18179
{consumergroup=trace-service},1651309473,18179
{consumergroup=trace-service},1651309478,18179
{consumergroup=trace-service},1651309483,48347
{consumergroup=trace-service},1651309488,48347
{consumergroup=trace-service},1651309493,48347
{consumergroup=trace-service},1651309498,46764
{consumergroup=trace-service},1651309503,46764
{consumergroup=trace-service},1651309508,46764
{consumergroup=trace-service},1651309513,51846
{consumergroup=trace-service},1651309518,51846
{consumergroup=trace-service},1651309523,51846
{consumergroup=trace-service},1651309528,14494
{consumergroup=trace-service},1651309533,14494
{consumergroup=trace-service},1651309538,14494
{consumergroup=trace-service},1651309543,40474
{consumergroup=trace-service},1651309548,40474
{consumergroup=trace-service},1651309553,40474
{consumergroup=trace-service},1651309558,10770
{consumergroup=trace-service},1651309563,10770
{consumergroup=trace-service},1651309568,10770
{consumergroup=trace-service},1651309573,41314
{consumergroup=trace-service},1651309578,41314
{consumergroup=trace-service},1651309583,41314
{consumergroup=trace-service},1651309588,10399
{consumergroup=trace-service},1651309593,10399
{consumergroup=trace-service},1651309598,10399
{consumergroup=trace-service},1651309603,37363
{consumergroup=trace-service},1651309608,37363
{consumergroup=trace-service},1651309613,37363
{consumergroup=trace-token-events-consumer},1651309138,0
{consumergroup=trace-token-events-consumer},1651309143,0
{consumergroup=trace-token-events-consumer},1651309148,0
{consumergroup=trace-token-events-consumer},1651309153,0
{consumergroup=trace-token-events-consumer},1651309158,0
{consumergroup=trace-token-events-consumer},1651309163,0
{consumergroup=trace-token-events-consumer},1651309168,0
{consumergroup=trace-token-events-consumer},1651309173,0
{consumergroup=trace-token-events-consumer},1651309178,0
{consumergroup=trace-token-events-consumer},1651309183,0
{consumergroup=trace-token-events-consumer},1651309188,0
{consumergroup=trace-token-events-consumer},1651309193,0
{consumergroup=trace-token-events-consumer},1651309198,0
{consumergroup=trace-token-events-consumer},1651309203,0
{consumergroup=trace-token-events-consumer},1651309208,0
{consumergroup=trace-token-events-consumer},1651309213,0
{consumergroup=trace-token-events-consumer},1651309218,0
{consumergroup=trace-token-events-consumer},1651309223,0
{consumergroup=trace-token-events-consumer},1651309228,0
{consumergroup=trace-token-events-consumer},1651309233,0
{consumergroup=trace-token-events-consumer},1651309238,0
{consumergroup=trace-token-events-consumer},1651309243,0
{consumergroup=trace-token-events-consumer},1651309248,0
{consumergroup=trace-token-events-consumer},1651309253,0
{consumergroup=trace-token-events-consumer},1651309258,0
{consumergroup=trace-token-events-consumer},1651309263,0
{consumergroup=trace-token-events-consumer},1651309268,0
{consumergroup=trace-token-events-consumer},1651309273,0
{consumergroup=trace-token-events-consumer},1651309278,0
{consumergroup=trace-token-events-consumer},1651309283,0
{consumergroup=trace-token-events-consumer},1651309288,0
{consumergroup=trace-token-events-consumer},1651309293,0
{consumergroup=trace-token-events-consumer},1651309298,0
{consumergroup=trace-token-events-consumer},1651309303,0
{consumergroup=trace-token-events-consumer},1651309308,0
{consumergroup=trace-token-events-consumer},1651309313,0
{consumergroup=trace-token-events-consumer},1651309318,0
{consumergroup=trace-token-events-consumer},1651309323,0
{consumergroup=trace-token-events-consumer},1651309328,0
{consumergroup=trace-token-events-consumer},1651309333,0
{consumergroup=trace-token-events-consumer},1651309338,0
{consumergroup=trace-token-events-consumer},1651309343,0
{consumergroup=trace-token-events-consumer},1651309348,0
{consumergroup=trace-token-events-consumer},1651309353,0
{consumergroup=trace-token-events-consumer},1651309358,0
{consumergroup=trace-token-events-consumer},1651309363,0
{consumergroup=trace-token-events-consumer},1651309368,0
{consumergroup=trace-token-events-consumer},1651309373,0
{consumergroup=trace-token-events-consumer},1651309378,0
{consumergroup=trace-token-events-consumer},1651309383,0
{consumergroup=trace-token-events-consumer},1651309388,0
{consumergroup=trace-token-events-consumer},1651309393,0
{consumergroup=trace-token-events-consumer},1651309398,0
{consumergroup=trace-token-events-consumer},1651309403,0
{consumergroup=trace-token-events-consumer},1651309408,0
{consumergroup=trace-token-events-consumer},1651309413,0
{consumergroup=trace-token-events-consumer},1651309418,0
{consumergroup=trace-token-events-consumer},1651309423,0
{consumergroup=trace-token-events-consumer},1651309428,0
{consumergroup=trace-token-events-consumer},1651309433,0
{consumergroup=trace-token-events-consumer},1651309438,0
{consumergroup=trace-token-events-consumer},1651309443,0
{consumergroup=trace-token-events-consumer},1651309448,0
{consumergroup=trace-token-events-consumer},1651309453,0
{consumergroup=trace-token-events-consumer},1651309458,0
{consumergroup=trace-token-events-consumer},1651309463,0
{consumergroup=trace-token-events-consumer},1651309468,0
{consumergroup=trace-token-events-consumer},1651309473,0
{consumergroup=trace-token-events-consumer},1651309478,0
{consumergroup=trace-token-events-consumer},1651309483,0
{consumergroup=trace-token-events-consumer},1651309488,0
{consumergroup=trace-token-events-consumer},1651309493,0
{consumergroup=trace-token-events-consumer},1651309498,0
{consumergroup=trace-token-events-consumer},1651309503,0
{consumergroup=trace-token-events-consumer},1651309508,0
{consumergroup=trace-token-events-consumer},1651309513,0
{consumergroup=trace-token-events-consumer},1651309518,0
{consumergroup=trace-token-events-consumer},1651309523,0
{consumergroup=trace-token-events-consumer},1651309528,0
{consumergroup=trace-token-events-consumer},1651309533,0
{consumergroup=trace-token-events-consumer},1651309538,0
{consumergroup=trace-token-events-consumer},1651309543,0
{consumergroup=trace-token-events-consumer},1651309548,0
{consumergroup=trace-token-events-consumer},1651309553,0
{consumergroup=trace-token-events-consumer},1651309558,0
{consumergroup=trace-token-events-consumer},1651309563,0
{consumergroup=trace-token-events-consumer},1651309568,0
{consumergroup=trace-token-events-consumer},1651309573,0
{consumergroup=trace-token-events-consumer},1651309578,0
{consumergroup=trace-token-events-consumer},1651309583,0
{consumergroup=trace-token-events-consumer},1651309588,0
{consumergroup=trace-token-events-consumer},1651309593,0
{consumergroup=trace-token-events-consumer},1651309598,0
{consumergroup=trace-token-events-consumer},1651309603,0
{consumergroup=trace-token-events-consumer},1651309608,0
{consumergroup=trace-token-events-consumer},1651309613,0
