labels,timestamp,value
{consumergroup=__strimzi-topic-operator-kstreams},1651290669,4
{consumergroup=__strimzi-topic-operator-kstreams},1651290674,4
{consumergroup=__strimzi-topic-operator-kstreams},1651290679,4
{consumergroup=__strimzi-topic-operator-kstreams},1651290684,0
{consumergroup=__strimzi-topic-operator-kstreams},1651290689,0
{consumergroup=__strimzi-topic-operator-kstreams},1651290694,0
{consumergroup=__strimzi-topic-operator-kstreams},1651290699,2
{consumergroup=__strimzi-topic-operator-kstreams},1651290704,2
{consumergroup=__strimzi-topic-operator-kstreams},1651290709,2
{consumergroup=__strimzi-topic-operator-kstreams},1651290714,0
{consumergroup=__strimzi-topic-operator-kstreams},1651290719,0
{consumergroup=__strimzi-topic-operator-kstreams},1651290724,0
{consumergroup=__strimzi-topic-operator-kstreams},1651290729,0
{consumergroup=__strimzi-topic-operator-kstreams},1651290734,0
{consumergroup=__strimzi-topic-operator-kstreams},1651290739,0
{consumergroup=__strimzi-topic-operator-kstreams},1651290744,0
{consumergroup=__strimzi-topic-operator-kstreams},1651290749,0
{consumergroup=__strimzi-topic-operator-kstreams},1651290754,0
{consumergroup=__strimzi-topic-operator-kstreams},1651290759,1
{consumergroup=__strimzi-topic-operator-kstreams},1651290764,1
{consumergroup=__strimzi-topic-operator-kstreams},1651290769,1
{consumergroup=__strimzi-topic-operator-kstreams},1651290774,0
{consumergroup=__strimzi-topic-operator-kstreams},1651290779,0
{consumergroup=__strimzi-topic-operator-kstreams},1651290784,0
{consumergroup=__strimzi-topic-operator-kstreams},1651290789,0
{consumergroup=__strimzi-topic-operator-kstreams},1651290794,0
{consumergroup=__strimzi-topic-operator-kstreams},1651290799,0
{consumergroup=__strimzi-topic-operator-kstreams},1651290804,0
{consumergroup=__strimzi-topic-operator-kstreams},1651290809,0
{consumergroup=__strimzi-topic-operator-kstreams},1651290814,0
{consumergroup=__strimzi-topic-operator-kstreams},1651290819,0
{consumergroup=__strimzi-topic-operator-kstreams},1651290824,0
{consumergroup=__strimzi-topic-operator-kstreams},1651290829,0
{consumergroup=__strimzi-topic-operator-kstreams},1651290834,0
{consumergroup=__strimzi-topic-operator-kstreams},1651290839,0
{consumergroup=__strimzi-topic-operator-kstreams},1651290844,0
{consumergroup=__strimzi-topic-operator-kstreams},1651290849,0
{consumergroup=__strimzi-topic-operator-kstreams},1651290854,0
{consumergroup=__strimzi-topic-operator-kstreams},1651290859,0
{consumergroup=__strimzi-topic-operator-kstreams},1651290864,0
{consumergroup=__strimzi-topic-operator-kstreams},1651290869,0
{consumergroup=__strimzi-topic-operator-kstreams},1651290874,0
{consumergroup=__strimzi-topic-operator-kstreams},1651290879,0
{consumergroup=__strimzi-topic-operator-kstreams},1651290884,0
{consumergroup=__strimzi-topic-operator-kstreams},1651290889,0
{consumergroup=__strimzi-topic-operator-kstreams},1651290894,0
{consumergroup=__strimzi-topic-operator-kstreams},1651290899,0
{consumergroup=__strimzi-topic-operator-kstreams},1651290904,0
{consumergroup=__strimzi-topic-operator-kstreams},1651290909,0
{consumergroup=__strimzi-topic-operator-kstreams},1651290914,0
{consumergroup=__strimzi-topic-operator-kstreams},1651290919,0
{consumergroup=__strimzi-topic-operator-kstreams},1651290924,0
{consumergroup=__strimzi-topic-operator-kstreams},1651290929,0
{consumergroup=__strimzi-topic-operator-kstreams},1651290934,0
{consumergroup=__strimzi-topic-operator-kstreams},1651290939,0
{consumergroup=__strimzi-topic-operator-kstreams},1651290944,0
{consumergroup=__strimzi-topic-operator-kstreams},1651290949,0
{consumergroup=__strimzi-topic-operator-kstreams},1651290954,0
{consumergroup=__strimzi-topic-operator-kstreams},1651290959,0
{consumergroup=__strimzi-topic-operator-kstreams},1651290964,0
{consumergroup=__strimzi-topic-operator-kstreams},1651290969,0
{consumergroup=__strimzi-topic-operator-kstreams},1651290974,0
{consumergroup=__strimzi-topic-operator-kstreams},1651290979,0
{consumergroup=__strimzi-topic-operator-kstreams},1651290984,0
{consumergroup=__strimzi-topic-operator-kstreams},1651290989,0
{consumergroup=__strimzi-topic-operator-kstreams},1651290994,0
{consumergroup=__strimzi-topic-operator-kstreams},1651290999,0
{consumergroup=__strimzi-topic-operator-kstreams},1651291004,0
{consumergroup=__strimzi-topic-operator-kstreams},1651291009,0
{consumergroup=__strimzi-topic-operator-kstreams},1651291014,0
{consumergroup=__strimzi-topic-operator-kstreams},1651291019,0
{consumergroup=__strimzi-topic-operator-kstreams},1651291024,0
{consumergroup=__strimzi-topic-operator-kstreams},1651291029,0
{consumergroup=__strimzi-topic-operator-kstreams},1651291034,0
{consumergroup=__strimzi-topic-operator-kstreams},1651291039,0
{consumergroup=__strimzi-topic-operator-kstreams},1651291044,0
{consumergroup=__strimzi-topic-operator-kstreams},1651291049,0
{consumergroup=__strimzi-topic-operator-kstreams},1651291054,0
{consumergroup=__strimzi-topic-operator-kstreams},1651291059,0
{consumergroup=__strimzi-topic-operator-kstreams},1651291064,0
{consumergroup=__strimzi-topic-operator-kstreams},1651291069,0
{consumergroup=__strimzi-topic-operator-kstreams},1651291074,0
{consumergroup=__strimzi-topic-operator-kstreams},1651291079,0
{consumergroup=__strimzi-topic-operator-kstreams},1651291084,0
{consumergroup=__strimzi-topic-operator-kstreams},1651291089,0
{consumergroup=__strimzi-topic-operator-kstreams},1651291094,0
{consumergroup=__strimzi-topic-operator-kstreams},1651291099,0
{consumergroup=__strimzi-topic-operator-kstreams},1651291104,0
{consumergroup=__strimzi-topic-operator-kstreams},1651291109,0
{consumergroup=__strimzi-topic-operator-kstreams},1651291114,0
{consumergroup=__strimzi-topic-operator-kstreams},1651291119,0
{consumergroup=__strimzi-topic-operator-kstreams},1651291124,0
{consumergroup=__strimzi-topic-operator-kstreams},1651291129,0
{consumergroup=__strimzi-topic-operator-kstreams},1651291134,0
{consumergroup=__strimzi-topic-operator-kstreams},1651291139,0
{consumergroup=__strimzi-topic-operator-kstreams},1651291144,0
{consumergroup=__strimzi-topic-operator-kstreams},1651291149,0
{consumergroup=__strimzi-topic-operator-kstreams},1651291154,0
{consumergroup=__strimzi-topic-operator-kstreams},1651291159,0
{consumergroup=__strimzi-topic-operator-kstreams},1651291164,0
{consumergroup=__strimzi-topic-operator-kstreams},1651291169,0
{consumergroup=__strimzi-topic-operator-kstreams},1651291174,0
{consumergroup=__strimzi-topic-operator-kstreams},1651291179,0
{consumergroup=adapter-service},1651290714,11885
{consumergroup=adapter-service},1651290719,11885
{consumergroup=adapter-service},1651290724,11885
{consumergroup=adapter-service},1651290729,8855
{consumergroup=adapter-service},1651290734,8855
{consumergroup=adapter-service},1651290739,8855
{consumergroup=adapter-service},1651290744,8328
{consumergroup=adapter-service},1651290749,8328
{consumergroup=adapter-service},1651290754,8328
{consumergroup=adapter-service},1651290759,7950
{consumergroup=adapter-service},1651290764,7950
{consumergroup=adapter-service},1651290769,7950
{consumergroup=adapter-service},1651290774,7168
{consumergroup=adapter-service},1651290779,7168
{consumergroup=adapter-service},1651290784,7168
{consumergroup=adapter-service},1651290789,7590
{consumergroup=adapter-service},1651290794,7590
{consumergroup=adapter-service},1651290799,7590
{consumergroup=adapter-service},1651290804,6812
{consumergroup=adapter-service},1651290809,6812
{consumergroup=adapter-service},1651290814,6812
{consumergroup=adapter-service},1651290819,6552
{consumergroup=adapter-service},1651290824,6552
{consumergroup=adapter-service},1651290829,6552
{consumergroup=adapter-service},1651290834,6347
{consumergroup=adapter-service},1651290839,6347
{consumergroup=adapter-service},1651290844,6347
{consumergroup=adapter-service},1651290849,6361
{consumergroup=adapter-service},1651290854,6361
{consumergroup=adapter-service},1651290859,6361
{consumergroup=adapter-service},1651290864,6923
{consumergroup=adapter-service},1651290869,6923
{consumergroup=adapter-service},1651290874,6923
{consumergroup=adapter-service},1651290879,6663
{consumergroup=adapter-service},1651290884,6663
{consumergroup=adapter-service},1651290889,6663
{consumergroup=adapter-service},1651290894,6053
{consumergroup=adapter-service},1651290899,6053
{consumergroup=adapter-service},1651290904,6053
{consumergroup=adapter-service},1651290909,2580
{consumergroup=adapter-service},1651290914,2580
{consumergroup=adapter-service},1651290919,2580
{consumergroup=adapter-service},1651290924,6540
{consumergroup=adapter-service},1651290929,6540
{consumergroup=adapter-service},1651290934,6540
{consumergroup=adapter-service},1651290939,6142
{consumergroup=adapter-service},1651290944,6142
{consumergroup=adapter-service},1651290949,6142
{consumergroup=adapter-service},1651290954,5387
{consumergroup=adapter-service},1651290959,5387
{consumergroup=adapter-service},1651290964,5387
{consumergroup=adapter-service},1651290969,5916
{consumergroup=adapter-service},1651290974,5916
{consumergroup=adapter-service},1651290979,5916
{consumergroup=adapter-service},1651290984,4977
{consumergroup=adapter-service},1651290989,4977
{consumergroup=adapter-service},1651290994,4977
{consumergroup=adapter-service},1651290999,4708
{consumergroup=adapter-service},1651291004,4708
{consumergroup=adapter-service},1651291009,4708
{consumergroup=adapter-service},1651291014,4629
{consumergroup=adapter-service},1651291019,4629
{consumergroup=adapter-service},1651291024,4629
{consumergroup=adapter-service},1651291029,8329
{consumergroup=adapter-service},1651291034,8329
{consumergroup=adapter-service},1651291039,8329
{consumergroup=adapter-service},1651291044,5027
{consumergroup=adapter-service},1651291049,5027
{consumergroup=adapter-service},1651291054,5027
{consumergroup=adapter-service},1651291059,4887
{consumergroup=adapter-service},1651291064,4887
{consumergroup=adapter-service},1651291069,4887
{consumergroup=adapter-service},1651291074,3969
{consumergroup=adapter-service},1651291079,3969
{consumergroup=adapter-service},1651291084,3969
{consumergroup=adapter-service},1651291089,3717
{consumergroup=adapter-service},1651291094,3717
{consumergroup=adapter-service},1651291099,3717
{consumergroup=adapter-service},1651291104,3695
{consumergroup=adapter-service},1651291109,3695
{consumergroup=adapter-service},1651291114,3695
{consumergroup=adapter-service},1651291119,1358
{consumergroup=adapter-service},1651291124,1358
{consumergroup=adapter-service},1651291129,1358
{consumergroup=adapter-service},1651291134,3455
{consumergroup=adapter-service},1651291139,3455
{consumergroup=adapter-service},1651291144,3455
{consumergroup=adapter-service},1651291149,6013
{consumergroup=adapter-service},1651291154,6013
{consumergroup=adapter-service},1651291159,6013
{consumergroup=adapter-service},1651291164,3064
{consumergroup=adapter-service},1651291169,3064
{consumergroup=adapter-service},1651291174,3064
{consumergroup=adapter-service},1651291179,3097
{consumergroup=landscape-service},1651290729,12978
{consumergroup=landscape-service},1651290734,12978
{consumergroup=landscape-service},1651290739,12978
{consumergroup=landscape-service},1651290744,12246
{consumergroup=landscape-service},1651290749,12246
{consumergroup=landscape-service},1651290754,12246
{consumergroup=landscape-service},1651290759,11598
{consumergroup=landscape-service},1651290764,11598
{consumergroup=landscape-service},1651290769,11598
{consumergroup=landscape-service},1651290774,11960
{consumergroup=landscape-service},1651290779,11960
{consumergroup=landscape-service},1651290784,11960
{consumergroup=landscape-service},1651290789,10718
{consumergroup=landscape-service},1651290794,10718
{consumergroup=landscape-service},1651290799,10718
{consumergroup=landscape-service},1651290804,10588
{consumergroup=landscape-service},1651290809,10588
{consumergroup=landscape-service},1651290814,10588
{consumergroup=landscape-service},1651290819,10646
{consumergroup=landscape-service},1651290824,10646
{consumergroup=landscape-service},1651290829,10646
{consumergroup=landscape-service},1651290834,10174
{consumergroup=landscape-service},1651290839,10174
{consumergroup=landscape-service},1651290844,10174
{consumergroup=landscape-service},1651290849,9956
{consumergroup=landscape-service},1651290854,9956
{consumergroup=landscape-service},1651290859,9956
{consumergroup=landscape-service},1651290864,8725
{consumergroup=landscape-service},1651290869,8725
{consumergroup=landscape-service},1651290874,8725
{consumergroup=landscape-service},1651290879,8899
{consumergroup=landscape-service},1651290884,8899
{consumergroup=landscape-service},1651290889,8899
{consumergroup=landscape-service},1651290894,8077
{consumergroup=landscape-service},1651290899,8077
{consumergroup=landscape-service},1651290904,8077
{consumergroup=landscape-service},1651290909,4427
{consumergroup=landscape-service},1651290914,4427
{consumergroup=landscape-service},1651290919,4427
{consumergroup=landscape-service},1651290924,8135
{consumergroup=landscape-service},1651290929,8135
{consumergroup=landscape-service},1651290934,8135
{consumergroup=landscape-service},1651290939,6924
{consumergroup=landscape-service},1651290944,6924
{consumergroup=landscape-service},1651290949,6924
{consumergroup=landscape-service},1651290954,6368
{consumergroup=landscape-service},1651290959,6368
{consumergroup=landscape-service},1651290964,6368
{consumergroup=landscape-service},1651290969,6382
{consumergroup=landscape-service},1651290974,6382
{consumergroup=landscape-service},1651290979,6382
{consumergroup=landscape-service},1651290984,6518
{consumergroup=landscape-service},1651290989,6518
{consumergroup=landscape-service},1651290994,6518
{consumergroup=landscape-service},1651290999,6006
{consumergroup=landscape-service},1651291004,6006
{consumergroup=landscape-service},1651291009,6006
{consumergroup=landscape-service},1651291014,5059
{consumergroup=landscape-service},1651291019,5059
{consumergroup=landscape-service},1651291024,5059
{consumergroup=landscape-service},1651291029,7986
{consumergroup=landscape-service},1651291034,7986
{consumergroup=landscape-service},1651291039,7986
{consumergroup=landscape-service},1651291044,5040
{consumergroup=landscape-service},1651291049,5040
{consumergroup=landscape-service},1651291054,5040
{consumergroup=landscape-service},1651291059,4603
{consumergroup=landscape-service},1651291064,4603
{consumergroup=landscape-service},1651291069,4603
{consumergroup=landscape-service},1651291074,3554
{consumergroup=landscape-service},1651291079,3554
{consumergroup=landscape-service},1651291084,3554
{consumergroup=landscape-service},1651291089,3587
{consumergroup=landscape-service},1651291094,3587
{consumergroup=landscape-service},1651291099,3587
{consumergroup=landscape-service},1651291104,2678
{consumergroup=landscape-service},1651291109,2678
{consumergroup=landscape-service},1651291114,2678
{consumergroup=landscape-service},1651291119,15042
{consumergroup=landscape-service},1651291124,15042
{consumergroup=landscape-service},1651291129,15042
{consumergroup=landscape-service},1651291134,1766
{consumergroup=landscape-service},1651291139,1766
{consumergroup=landscape-service},1651291144,1766
{consumergroup=landscape-service},1651291149,4636
{consumergroup=landscape-service},1651291154,4636
{consumergroup=landscape-service},1651291159,4636
{consumergroup=landscape-service},1651291164,1331
{consumergroup=landscape-service},1651291169,1331
{consumergroup=landscape-service},1651291174,1331
{consumergroup=landscape-service},1651291179,835
{consumergroup=trace-service},1651290714,5033
{consumergroup=trace-service},1651290719,5033
{consumergroup=trace-service},1651290724,5033
{consumergroup=trace-service},1651290729,42437
{consumergroup=trace-service},1651290734,42437
{consumergroup=trace-service},1651290739,42437
{consumergroup=trace-service},1651290744,16915
{consumergroup=trace-service},1651290749,16915
{consumergroup=trace-service},1651290754,16915
{consumergroup=trace-service},1651290759,33072
{consumergroup=trace-service},1651290764,33072
{consumergroup=trace-service},1651290769,33072
{consumergroup=trace-service},1651290774,13948
{consumergroup=trace-service},1651290779,13948
{consumergroup=trace-service},1651290784,13948
{consumergroup=trace-service},1651290789,35611
{consumergroup=trace-service},1651290794,35611
{consumergroup=trace-service},1651290799,35611
{consumergroup=trace-service},1651290804,8966
{consumergroup=trace-service},1651290809,8966
{consumergroup=trace-service},1651290814,8966
{consumergroup=trace-service},1651290819,34400
{consumergroup=trace-service},1651290824,34400
{consumergroup=trace-service},1651290829,34400
{consumergroup=trace-service},1651290834,18391
{consumergroup=trace-service},1651290839,18391
{consumergroup=trace-service},1651290844,18391
{consumergroup=trace-service},1651290849,32197
{consumergroup=trace-service},1651290854,32197
{consumergroup=trace-service},1651290859,32197
{consumergroup=trace-service},1651290864,17207
{consumergroup=trace-service},1651290869,17207
{consumergroup=trace-service},1651290874,17207
{consumergroup=trace-service},1651290879,33277
{consumergroup=trace-service},1651290884,33277
{consumergroup=trace-service},1651290889,33277
{consumergroup=trace-service},1651290894,9963
{consumergroup=trace-service},1651290899,9963
{consumergroup=trace-service},1651290904,9963
{consumergroup=trace-service},1651290909,31406
{consumergroup=trace-service},1651290914,31406
{consumergroup=trace-service},1651290919,31406
{consumergroup=trace-service},1651290924,15004
{consumergroup=trace-service},1651290929,15004
{consumergroup=trace-service},1651290934,15004
{consumergroup=trace-service},1651290939,33815
{consumergroup=trace-service},1651290944,33815
{consumergroup=trace-service},1651290949,33815
{consumergroup=trace-service},1651290954,15167
{consumergroup=trace-service},1651290959,15167
{consumergroup=trace-service},1651290964,15167
{consumergroup=trace-service},1651290969,37105
{consumergroup=trace-service},1651290974,37105
{consumergroup=trace-service},1651290979,37105
{consumergroup=trace-service},1651290984,72902
{consumergroup=trace-service},1651290989,72902
{consumergroup=trace-service},1651290994,72902
{consumergroup=trace-service},1651290999,36013
{consumergroup=trace-service},1651291004,36013
{consumergroup=trace-service},1651291009,36013
{consumergroup=trace-service},1651291014,13546
{consumergroup=trace-service},1651291019,13546
{consumergroup=trace-service},1651291024,13546
{consumergroup=trace-service},1651291029,35492
{consumergroup=trace-service},1651291034,35492
{consumergroup=trace-service},1651291039,35492
{consumergroup=trace-service},1651291044,19627
{consumergroup=trace-service},1651291049,19627
{consumergroup=trace-service},1651291054,19627
{consumergroup=trace-service},1651291059,30257
{consumergroup=trace-service},1651291064,30257
{consumergroup=trace-service},1651291069,30257
{consumergroup=trace-service},1651291074,15643
{consumergroup=trace-service},1651291079,15643
{consumergroup=trace-service},1651291084,15643
{consumergroup=trace-service},1651291089,33920
{consumergroup=trace-service},1651291094,33920
{consumergroup=trace-service},1651291099,33920
{consumergroup=trace-service},1651291104,14582
{consumergroup=trace-service},1651291109,14582
{consumergroup=trace-service},1651291114,14582
{consumergroup=trace-service},1651291119,32697
{consumergroup=trace-service},1651291124,32697
{consumergroup=trace-service},1651291129,32697
{consumergroup=trace-service},1651291134,17529
{consumergroup=trace-service},1651291139,17529
{consumergroup=trace-service},1651291144,17529
{consumergroup=trace-service},1651291149,29016
{consumergroup=trace-service},1651291154,29016
{consumergroup=trace-service},1651291159,29016
{consumergroup=trace-service},1651291164,17574
{consumergroup=trace-service},1651291169,17574
{consumergroup=trace-service},1651291174,17574
{consumergroup=trace-service},1651291179,31001
{consumergroup=trace-token-events-consumer},1651290699,0
{consumergroup=trace-token-events-consumer},1651290704,0
{consumergroup=trace-token-events-consumer},1651290709,0
{consumergroup=trace-token-events-consumer},1651290714,0
{consumergroup=trace-token-events-consumer},1651290719,0
{consumergroup=trace-token-events-consumer},1651290724,0
{consumergroup=trace-token-events-consumer},1651290729,0
{consumergroup=trace-token-events-consumer},1651290734,0
{consumergroup=trace-token-events-consumer},1651290739,0
{consumergroup=trace-token-events-consumer},1651290744,0
{consumergroup=trace-token-events-consumer},1651290749,0
{consumergroup=trace-token-events-consumer},1651290754,0
{consumergroup=trace-token-events-consumer},1651290759,0
{consumergroup=trace-token-events-consumer},1651290764,0
{consumergroup=trace-token-events-consumer},1651290769,0
{consumergroup=trace-token-events-consumer},1651290774,0
{consumergroup=trace-token-events-consumer},1651290779,0
{consumergroup=trace-token-events-consumer},1651290784,0
{consumergroup=trace-token-events-consumer},1651290789,0
{consumergroup=trace-token-events-consumer},1651290794,0
{consumergroup=trace-token-events-consumer},1651290799,0
{consumergroup=trace-token-events-consumer},1651290804,0
{consumergroup=trace-token-events-consumer},1651290809,0
{consumergroup=trace-token-events-consumer},1651290814,0
{consumergroup=trace-token-events-consumer},1651290819,0
{consumergroup=trace-token-events-consumer},1651290824,0
{consumergroup=trace-token-events-consumer},1651290829,0
{consumergroup=trace-token-events-consumer},1651290834,0
{consumergroup=trace-token-events-consumer},1651290839,0
{consumergroup=trace-token-events-consumer},1651290844,0
{consumergroup=trace-token-events-consumer},1651290849,0
{consumergroup=trace-token-events-consumer},1651290854,0
{consumergroup=trace-token-events-consumer},1651290859,0
{consumergroup=trace-token-events-consumer},1651290864,0
{consumergroup=trace-token-events-consumer},1651290869,0
{consumergroup=trace-token-events-consumer},1651290874,0
{consumergroup=trace-token-events-consumer},1651290879,0
{consumergroup=trace-token-events-consumer},1651290884,0
{consumergroup=trace-token-events-consumer},1651290889,0
{consumergroup=trace-token-events-consumer},1651290894,0
{consumergroup=trace-token-events-consumer},1651290899,0
{consumergroup=trace-token-events-consumer},1651290904,0
{consumergroup=trace-token-events-consumer},1651290909,0
{consumergroup=trace-token-events-consumer},1651290914,0
{consumergroup=trace-token-events-consumer},1651290919,0
{consumergroup=trace-token-events-consumer},1651290924,0
{consumergroup=trace-token-events-consumer},1651290929,0
{consumergroup=trace-token-events-consumer},1651290934,0
{consumergroup=trace-token-events-consumer},1651290939,0
{consumergroup=trace-token-events-consumer},1651290944,0
{consumergroup=trace-token-events-consumer},1651290949,0
{consumergroup=trace-token-events-consumer},1651290954,0
{consumergroup=trace-token-events-consumer},1651290959,0
{consumergroup=trace-token-events-consumer},1651290964,0
{consumergroup=trace-token-events-consumer},1651290969,0
{consumergroup=trace-token-events-consumer},1651290974,0
{consumergroup=trace-token-events-consumer},1651290979,0
{consumergroup=trace-token-events-consumer},1651290984,0
{consumergroup=trace-token-events-consumer},1651290989,0
{consumergroup=trace-token-events-consumer},1651290994,0
{consumergroup=trace-token-events-consumer},1651290999,0
{consumergroup=trace-token-events-consumer},1651291004,0
{consumergroup=trace-token-events-consumer},1651291009,0
{consumergroup=trace-token-events-consumer},1651291014,0
{consumergroup=trace-token-events-consumer},1651291019,0
{consumergroup=trace-token-events-consumer},1651291024,0
{consumergroup=trace-token-events-consumer},1651291029,0
{consumergroup=trace-token-events-consumer},1651291034,0
{consumergroup=trace-token-events-consumer},1651291039,0
{consumergroup=trace-token-events-consumer},1651291044,0
{consumergroup=trace-token-events-consumer},1651291049,0
{consumergroup=trace-token-events-consumer},1651291054,0
{consumergroup=trace-token-events-consumer},1651291059,0
{consumergroup=trace-token-events-consumer},1651291064,0
{consumergroup=trace-token-events-consumer},1651291069,0
{consumergroup=trace-token-events-consumer},1651291074,0
{consumergroup=trace-token-events-consumer},1651291079,0
{consumergroup=trace-token-events-consumer},1651291084,0
{consumergroup=trace-token-events-consumer},1651291089,0
{consumergroup=trace-token-events-consumer},1651291094,0
{consumergroup=trace-token-events-consumer},1651291099,0
{consumergroup=trace-token-events-consumer},1651291104,0
{consumergroup=trace-token-events-consumer},1651291109,0
{consumergroup=trace-token-events-consumer},1651291114,0
{consumergroup=trace-token-events-consumer},1651291119,0
{consumergroup=trace-token-events-consumer},1651291124,0
{consumergroup=trace-token-events-consumer},1651291129,0
{consumergroup=trace-token-events-consumer},1651291134,0
{consumergroup=trace-token-events-consumer},1651291139,0
{consumergroup=trace-token-events-consumer},1651291144,0
{consumergroup=trace-token-events-consumer},1651291149,0
{consumergroup=trace-token-events-consumer},1651291154,0
{consumergroup=trace-token-events-consumer},1651291159,0
{consumergroup=trace-token-events-consumer},1651291164,0
{consumergroup=trace-token-events-consumer},1651291169,0
{consumergroup=trace-token-events-consumer},1651291174,0
{consumergroup=trace-token-events-consumer},1651291179,0
