labels,timestamp,value
{consumergroup=__strimzi-topic-operator-kstreams},1651358035,12
{consumergroup=__strimzi-topic-operator-kstreams},1651358040,12
{consumergroup=__strimzi-topic-operator-kstreams},1651358045,12
{consumergroup=__strimzi-topic-operator-kstreams},1651358050,12
{consumergroup=__strimzi-topic-operator-kstreams},1651358055,12
{consumergroup=__strimzi-topic-operator-kstreams},1651358060,12
{consumergroup=__strimzi-topic-operator-kstreams},1651358065,0
{consumergroup=__strimzi-topic-operator-kstreams},1651358070,0
{consumergroup=__strimzi-topic-operator-kstreams},1651358075,0
{consumergroup=__strimzi-topic-operator-kstreams},1651358080,0
{consumergroup=__strimzi-topic-operator-kstreams},1651358085,0
{consumergroup=__strimzi-topic-operator-kstreams},1651358090,0
{consumergroup=__strimzi-topic-operator-kstreams},1651358095,0
{consumergroup=__strimzi-topic-operator-kstreams},1651358100,0
{consumergroup=__strimzi-topic-operator-kstreams},1651358105,0
{consumergroup=__strimzi-topic-operator-kstreams},1651358110,0
{consumergroup=__strimzi-topic-operator-kstreams},1651358115,0
{consumergroup=__strimzi-topic-operator-kstreams},1651358120,0
{consumergroup=__strimzi-topic-operator-kstreams},1651358125,0
{consumergroup=__strimzi-topic-operator-kstreams},1651358130,0
{consumergroup=__strimzi-topic-operator-kstreams},1651358135,0
{consumergroup=__strimzi-topic-operator-kstreams},1651358140,0
{consumergroup=__strimzi-topic-operator-kstreams},1651358145,0
{consumergroup=__strimzi-topic-operator-kstreams},1651358150,0
{consumergroup=__strimzi-topic-operator-kstreams},1651358155,0
{consumergroup=__strimzi-topic-operator-kstreams},1651358160,0
{consumergroup=__strimzi-topic-operator-kstreams},1651358165,0
{consumergroup=__strimzi-topic-operator-kstreams},1651358170,0
{consumergroup=__strimzi-topic-operator-kstreams},1651358175,0
{consumergroup=__strimzi-topic-operator-kstreams},1651358180,0
{consumergroup=__strimzi-topic-operator-kstreams},1651358185,0
{consumergroup=__strimzi-topic-operator-kstreams},1651358190,0
{consumergroup=__strimzi-topic-operator-kstreams},1651358195,0
{consumergroup=__strimzi-topic-operator-kstreams},1651358200,0
{consumergroup=__strimzi-topic-operator-kstreams},1651358205,0
{consumergroup=__strimzi-topic-operator-kstreams},1651358210,0
{consumergroup=__strimzi-topic-operator-kstreams},1651358215,0
{consumergroup=__strimzi-topic-operator-kstreams},1651358220,0
{consumergroup=__strimzi-topic-operator-kstreams},1651358225,0
{consumergroup=__strimzi-topic-operator-kstreams},1651358230,0
{consumergroup=__strimzi-topic-operator-kstreams},1651358235,0
{consumergroup=__strimzi-topic-operator-kstreams},1651358240,0
{consumergroup=__strimzi-topic-operator-kstreams},1651358245,0
{consumergroup=__strimzi-topic-operator-kstreams},1651358250,0
{consumergroup=__strimzi-topic-operator-kstreams},1651358255,0
{consumergroup=__strimzi-topic-operator-kstreams},1651358260,0
{consumergroup=__strimzi-topic-operator-kstreams},1651358265,0
{consumergroup=__strimzi-topic-operator-kstreams},1651358270,0
{consumergroup=__strimzi-topic-operator-kstreams},1651358275,0
{consumergroup=__strimzi-topic-operator-kstreams},1651358280,0
{consumergroup=adapter-service},1651358065,681083
{consumergroup=adapter-service},1651358070,681083
{consumergroup=adapter-service},1651358075,681083
{consumergroup=adapter-service},1651358080,1112955
{consumergroup=adapter-service},1651358085,1112955
{consumergroup=adapter-service},1651358090,1112955
{consumergroup=adapter-service},1651358095,1182200
{consumergroup=adapter-service},1651358100,1182200
{consumergroup=adapter-service},1651358105,1182200
{consumergroup=adapter-service},1651358110,1292290
{consumergroup=adapter-service},1651358115,1292290
{consumergroup=adapter-service},1651358120,1292290
{consumergroup=adapter-service},1651358125,1357816
{consumergroup=adapter-service},1651358130,1357816
{consumergroup=adapter-service},1651358135,1357816
{consumergroup=adapter-service},1651358140,1099776
{consumergroup=adapter-service},1651358145,1099776
{consumergroup=adapter-service},1651358150,1099776
{consumergroup=adapter-service},1651358155,1182500
{consumergroup=adapter-service},1651358160,1182500
{consumergroup=adapter-service},1651358165,1182500
{consumergroup=adapter-service},1651358170,1170367
{consumergroup=adapter-service},1651358175,1170367
{consumergroup=adapter-service},1651358180,1170367
{consumergroup=adapter-service},1651358185,1209212
{consumergroup=adapter-service},1651358190,1209212
{consumergroup=adapter-service},1651358195,1209212
{consumergroup=adapter-service},1651358200,1114092
{consumergroup=adapter-service},1651358205,1114092
{consumergroup=adapter-service},1651358210,1114092
{consumergroup=adapter-service},1651358215,850620
{consumergroup=adapter-service},1651358220,850620
{consumergroup=adapter-service},1651358225,850620
{consumergroup=adapter-service},1651358230,753449
{consumergroup=adapter-service},1651358235,753449
{consumergroup=adapter-service},1651358240,753449
{consumergroup=adapter-service},1651358245,1090047
{consumergroup=adapter-service},1651358250,1090047
{consumergroup=adapter-service},1651358255,1090047
{consumergroup=adapter-service},1651358260,992139
{consumergroup=adapter-service},1651358265,992139
{consumergroup=adapter-service},1651358270,992139
{consumergroup=adapter-service},1651358275,1047118
{consumergroup=adapter-service},1651358280,1047118
