labels,timestamp,value
{consumergroup=__strimzi-topic-operator-kstreams},1651350448,1
{consumergroup=__strimzi-topic-operator-kstreams},1651350453,1
{consumergroup=__strimzi-topic-operator-kstreams},1651350458,1
{consumergroup=__strimzi-topic-operator-kstreams},1651350463,19
{consumergroup=__strimzi-topic-operator-kstreams},1651350468,19
{consumergroup=__strimzi-topic-operator-kstreams},1651350473,19
{consumergroup=__strimzi-topic-operator-kstreams},1651350478,0
{consumergroup=__strimzi-topic-operator-kstreams},1651350483,0
{consumergroup=__strimzi-topic-operator-kstreams},1651350488,0
{consumergroup=__strimzi-topic-operator-kstreams},1651350493,0
{consumergroup=__strimzi-topic-operator-kstreams},1651350498,0
{consumergroup=__strimzi-topic-operator-kstreams},1651350503,0
{consumergroup=__strimzi-topic-operator-kstreams},1651350508,0
{consumergroup=__strimzi-topic-operator-kstreams},1651350513,0
{consumergroup=__strimzi-topic-operator-kstreams},1651350518,0
{consumergroup=__strimzi-topic-operator-kstreams},1651350523,0
{consumergroup=__strimzi-topic-operator-kstreams},1651350528,0
{consumergroup=__strimzi-topic-operator-kstreams},1651350533,0
{consumergroup=__strimzi-topic-operator-kstreams},1651350538,0
{consumergroup=__strimzi-topic-operator-kstreams},1651350543,0
{consumergroup=__strimzi-topic-operator-kstreams},1651350548,0
{consumergroup=__strimzi-topic-operator-kstreams},1651350553,0
{consumergroup=__strimzi-topic-operator-kstreams},1651350558,0
{consumergroup=__strimzi-topic-operator-kstreams},1651350563,0
{consumergroup=__strimzi-topic-operator-kstreams},1651350568,0
{consumergroup=__strimzi-topic-operator-kstreams},1651350573,0
{consumergroup=__strimzi-topic-operator-kstreams},1651350578,0
{consumergroup=__strimzi-topic-operator-kstreams},1651350583,0
{consumergroup=__strimzi-topic-operator-kstreams},1651350588,0
{consumergroup=__strimzi-topic-operator-kstreams},1651350593,0
{consumergroup=__strimzi-topic-operator-kstreams},1651350598,0
{consumergroup=__strimzi-topic-operator-kstreams},1651350603,0
{consumergroup=__strimzi-topic-operator-kstreams},1651350608,0
{consumergroup=__strimzi-topic-operator-kstreams},1651350613,0
{consumergroup=__strimzi-topic-operator-kstreams},1651350618,0
{consumergroup=__strimzi-topic-operator-kstreams},1651350623,0
{consumergroup=__strimzi-topic-operator-kstreams},1651350628,0
{consumergroup=__strimzi-topic-operator-kstreams},1651350633,0
{consumergroup=__strimzi-topic-operator-kstreams},1651350638,0
{consumergroup=__strimzi-topic-operator-kstreams},1651350643,0
{consumergroup=__strimzi-topic-operator-kstreams},1651350648,0
{consumergroup=__strimzi-topic-operator-kstreams},1651350653,0
{consumergroup=__strimzi-topic-operator-kstreams},1651350658,0
{consumergroup=__strimzi-topic-operator-kstreams},1651350663,0
{consumergroup=__strimzi-topic-operator-kstreams},1651350668,0
{consumergroup=__strimzi-topic-operator-kstreams},1651350673,0
{consumergroup=__strimzi-topic-operator-kstreams},1651350678,0
{consumergroup=__strimzi-topic-operator-kstreams},1651350683,0
{consumergroup=__strimzi-topic-operator-kstreams},1651350688,0
{consumergroup=__strimzi-topic-operator-kstreams},1651350693,0
{consumergroup=__strimzi-topic-operator-kstreams},1651350698,0
{consumergroup=__strimzi-topic-operator-kstreams},1651350703,0
{consumergroup=adapter-service},1651350478,553
{consumergroup=adapter-service},1651350483,553
{consumergroup=adapter-service},1651350488,553
{consumergroup=adapter-service},1651350493,17256
{consumergroup=adapter-service},1651350498,17256
{consumergroup=adapter-service},1651350503,17256
{consumergroup=adapter-service},1651350508,476405
{consumergroup=adapter-service},1651350513,476405
{consumergroup=adapter-service},1651350518,476405
{consumergroup=adapter-service},1651350523,3633
{consumergroup=adapter-service},1651350528,3633
{consumergroup=adapter-service},1651350533,3633
{consumergroup=adapter-service},1651350538,464824
{consumergroup=adapter-service},1651350543,464824
{consumergroup=adapter-service},1651350548,464824
{consumergroup=adapter-service},1651350553,301
{consumergroup=adapter-service},1651350558,301
{consumergroup=adapter-service},1651350563,301
{consumergroup=adapter-service},1651350568,447752
{consumergroup=adapter-service},1651350573,447752
{consumergroup=adapter-service},1651350578,447752
{consumergroup=adapter-service},1651350583,0
{consumergroup=adapter-service},1651350588,0
{consumergroup=adapter-service},1651350593,0
{consumergroup=adapter-service},1651350598,442412
{consumergroup=adapter-service},1651350603,442412
{consumergroup=adapter-service},1651350608,442412
{consumergroup=adapter-service},1651350613,0
{consumergroup=adapter-service},1651350618,0
{consumergroup=adapter-service},1651350623,0
{consumergroup=adapter-service},1651350628,420174
{consumergroup=adapter-service},1651350633,420174
{consumergroup=adapter-service},1651350638,420174
{consumergroup=adapter-service},1651350643,0
{consumergroup=adapter-service},1651350648,0
{consumergroup=adapter-service},1651350653,0
{consumergroup=adapter-service},1651350658,396793
{consumergroup=adapter-service},1651350663,396793
{consumergroup=adapter-service},1651350668,396793
{consumergroup=adapter-service},1651350673,525465
{consumergroup=adapter-service},1651350678,525465
{consumergroup=adapter-service},1651350683,525465
{consumergroup=adapter-service},1651350688,383811
{consumergroup=adapter-service},1651350693,383811
{consumergroup=adapter-service},1651350698,383811
{consumergroup=adapter-service},1651350703,495421
