labels,timestamp,value
{job=theodolite-stu200776/combined-trace-podmonitor},1651270467,10.890670887090625
{job=theodolite-stu200776/combined-trace-podmonitor},1651270472,30.52645536105295
{job=theodolite-stu200776/combined-trace-podmonitor},1651270477,29.67070486341441
{job=theodolite-stu200776/combined-trace-podmonitor},1651270482,45.51487888292823
{job=theodolite-stu200776/combined-trace-podmonitor},1651270487,50.83832328422524
{job=theodolite-stu200776/combined-trace-podmonitor},1651270492,44.89360651973583
{job=theodolite-stu200776/combined-trace-podmonitor},1651270497,41.672578674905786
{job=theodolite-stu200776/combined-trace-podmonitor},1651270502,35.854114655925294
{job=theodolite-stu200776/combined-trace-podmonitor},1651270507,33.75232053056607
{job=theodolite-stu200776/combined-trace-podmonitor},1651270512,13.389210536875138
{job=theodolite-stu200776/combined-trace-podmonitor},1651270517,3.35366771631533
{job=theodolite-stu200776/combined-trace-podmonitor},1651270522,0
{job=theodolite-stu200776/combined-trace-podmonitor},1651270527,0
{job=theodolite-stu200776/combined-trace-podmonitor},1651270532,0
{job=theodolite-stu200776/combined-trace-podmonitor},1651270537,0
{job=theodolite-stu200776/combined-trace-podmonitor},1651270542,0
{job=theodolite-stu200776/combined-trace-podmonitor},1651270547,0
{job=theodolite-stu200776/combined-trace-podmonitor},1651270552,0
{job=theodolite-stu200776/combined-trace-podmonitor},1651270557,0
{job=theodolite-stu200776/combined-trace-podmonitor},1651270562,0
{job=theodolite-stu200776/combined-trace-podmonitor},1651270567,0
{job=theodolite-stu200776/combined-trace-podmonitor},1651270572,0
{job=theodolite-stu200776/combined-trace-podmonitor},1651270577,0
{job=theodolite-stu200776/combined-trace-podmonitor},1651270582,0
{job=theodolite-stu200776/combined-trace-podmonitor},1651270587,0
{job=theodolite-stu200776/combined-trace-podmonitor},1651270592,0
{job=theodolite-stu200776/combined-trace-podmonitor},1651270597,0
{job=theodolite-stu200776/combined-trace-podmonitor},1651270602,0
{job=theodolite-stu200776/combined-trace-podmonitor},1651270607,0
{job=theodolite-stu200776/combined-trace-podmonitor},1651270612,0
{job=theodolite-stu200776/combined-trace-podmonitor},1651270617,0
{job=theodolite-stu200776/combined-trace-podmonitor},1651270622,0
{job=theodolite-stu200776/combined-trace-podmonitor},1651270627,0
{job=theodolite-stu200776/combined-trace-podmonitor},1651270632,0
{job=theodolite-stu200776/combined-trace-podmonitor},1651270637,0
{job=theodolite-stu200776/combined-trace-podmonitor},1651270642,0
{job=theodolite-stu200776/combined-trace-podmonitor},1651270647,0
{job=theodolite-stu200776/combined-trace-podmonitor},1651270652,0
{job=theodolite-stu200776/combined-trace-podmonitor},1651270657,0
{job=theodolite-stu200776/combined-trace-podmonitor},1651270662,0
{job=theodolite-stu200776/combined-trace-podmonitor},1651270667,0
{job=theodolite-stu200776/combined-trace-podmonitor},1651270672,0
{job=theodolite-stu200776/combined-trace-podmonitor},1651270677,0
{job=theodolite-stu200776/combined-trace-podmonitor},1651270682,0
{job=theodolite-stu200776/combined-trace-podmonitor},1651270687,0
{job=theodolite-stu200776/combined-trace-podmonitor},1651270692,0
{job=theodolite-stu200776/combined-trace-podmonitor},1651270697,0
{job=theodolite-stu200776/combined-trace-podmonitor},1651270702,0
{job=theodolite-stu200776/combined-trace-podmonitor},1651270707,0
{job=theodolite-stu200776/combined-trace-podmonitor},1651270712,0
{job=theodolite-stu200776/combined-trace-podmonitor},1651270717,0
{job=theodolite-stu200776/combined-trace-podmonitor},1651270722,0
{job=theodolite-stu200776/combined-trace-podmonitor},1651270727,0
{job=theodolite-stu200776/combined-trace-podmonitor},1651270732,0
{job=theodolite-stu200776/combined-trace-podmonitor},1651270737,0
{job=theodolite-stu200776/combined-trace-podmonitor},1651270742,0
{job=theodolite-stu200776/combined-trace-podmonitor},1651270747,0
{job=theodolite-stu200776/combined-trace-podmonitor},1651270752,0
{job=theodolite-stu200776/combined-trace-podmonitor},1651270757,0
{job=theodolite-stu200776/combined-trace-podmonitor},1651270762,0
{job=theodolite-stu200776/combined-trace-podmonitor},1651270767,0
{job=theodolite-stu200776/combined-trace-podmonitor},1651270772,0
{job=theodolite-stu200776/combined-trace-podmonitor},1651270777,0
{job=theodolite-stu200776/combined-trace-podmonitor},1651270782,0
{job=theodolite-stu200776/combined-trace-podmonitor},1651270787,0
{job=theodolite-stu200776/combined-trace-podmonitor},1651270792,0
{job=theodolite-stu200776/combined-trace-podmonitor},1651270797,0
{job=theodolite-stu200776/combined-trace-podmonitor},1651270802,0
{job=theodolite-stu200776/combined-trace-podmonitor},1651270807,0
{job=theodolite-stu200776/combined-trace-podmonitor},1651270812,0
{job=theodolite-stu200776/combined-trace-podmonitor},1651270817,0
{job=theodolite-stu200776/combined-trace-podmonitor},1651270822,0
{job=theodolite-stu200776/combined-trace-podmonitor},1651270827,0
{job=theodolite-stu200776/combined-trace-podmonitor},1651270832,0
{job=theodolite-stu200776/combined-trace-podmonitor},1651270837,0
{job=theodolite-stu200776/combined-trace-podmonitor},1651270842,0
{job=theodolite-stu200776/combined-trace-podmonitor},1651270847,0
{job=theodolite-stu200776/combined-trace-podmonitor},1651270852,0
{job=theodolite-stu200776/combined-trace-podmonitor},1651270857,0
{job=theodolite-stu200776/combined-trace-podmonitor},1651270862,0
{job=theodolite-stu200776/combined-trace-podmonitor},1651270867,0
{job=theodolite-stu200776/combined-trace-podmonitor},1651270872,0
{job=theodolite-stu200776/combined-trace-podmonitor},1651270877,0
{job=theodolite-stu200776/combined-trace-podmonitor},1651270882,0
{job=theodolite-stu200776/combined-trace-podmonitor},1651270887,0
{job=theodolite-stu200776/combined-trace-podmonitor},1651270892,0
{job=theodolite-stu200776/combined-trace-podmonitor},1651270897,0
{job=theodolite-stu200776/combined-trace-podmonitor},1651270902,0
{job=theodolite-stu200776/combined-trace-podmonitor},1651270907,0
