labels,timestamp,value
{consumergroup=__strimzi-topic-operator-kstreams},1651357731,5
{consumergroup=__strimzi-topic-operator-kstreams},1651357736,5
{consumergroup=__strimzi-topic-operator-kstreams},1651357741,5
{consumergroup=__strimzi-topic-operator-kstreams},1651357746,8
{consumergroup=__strimzi-topic-operator-kstreams},1651357751,8
{consumergroup=__strimzi-topic-operator-kstreams},1651357756,8
{consumergroup=__strimzi-topic-operator-kstreams},1651357761,0
{consumergroup=__strimzi-topic-operator-kstreams},1651357766,0
{consumergroup=__strimzi-topic-operator-kstreams},1651357771,0
{consumergroup=__strimzi-topic-operator-kstreams},1651357776,0
{consumergroup=__strimzi-topic-operator-kstreams},1651357781,0
{consumergroup=__strimzi-topic-operator-kstreams},1651357786,0
{consumergroup=__strimzi-topic-operator-kstreams},1651357791,0
{consumergroup=__strimzi-topic-operator-kstreams},1651357796,0
{consumergroup=__strimzi-topic-operator-kstreams},1651357801,0
{consumergroup=__strimzi-topic-operator-kstreams},1651357806,0
{consumergroup=__strimzi-topic-operator-kstreams},1651357811,0
{consumergroup=__strimzi-topic-operator-kstreams},1651357816,0
{consumergroup=__strimzi-topic-operator-kstreams},1651357821,0
{consumergroup=__strimzi-topic-operator-kstreams},1651357826,0
{consumergroup=__strimzi-topic-operator-kstreams},1651357831,0
{consumergroup=__strimzi-topic-operator-kstreams},1651357836,0
{consumergroup=__strimzi-topic-operator-kstreams},1651357841,0
{consumergroup=__strimzi-topic-operator-kstreams},1651357846,0
{consumergroup=__strimzi-topic-operator-kstreams},1651357851,0
{consumergroup=__strimzi-topic-operator-kstreams},1651357856,0
{consumergroup=__strimzi-topic-operator-kstreams},1651357861,0
{consumergroup=__strimzi-topic-operator-kstreams},1651357866,0
{consumergroup=__strimzi-topic-operator-kstreams},1651357871,0
{consumergroup=__strimzi-topic-operator-kstreams},1651357876,0
{consumergroup=__strimzi-topic-operator-kstreams},1651357881,0
{consumergroup=__strimzi-topic-operator-kstreams},1651357886,0
{consumergroup=__strimzi-topic-operator-kstreams},1651357891,0
{consumergroup=__strimzi-topic-operator-kstreams},1651357896,0
{consumergroup=__strimzi-topic-operator-kstreams},1651357901,0
{consumergroup=__strimzi-topic-operator-kstreams},1651357906,0
{consumergroup=__strimzi-topic-operator-kstreams},1651357911,0
{consumergroup=__strimzi-topic-operator-kstreams},1651357916,0
{consumergroup=__strimzi-topic-operator-kstreams},1651357921,0
{consumergroup=__strimzi-topic-operator-kstreams},1651357926,0
{consumergroup=__strimzi-topic-operator-kstreams},1651357931,0
{consumergroup=__strimzi-topic-operator-kstreams},1651357936,0
{consumergroup=__strimzi-topic-operator-kstreams},1651357941,0
{consumergroup=__strimzi-topic-operator-kstreams},1651357946,0
{consumergroup=__strimzi-topic-operator-kstreams},1651357951,0
{consumergroup=__strimzi-topic-operator-kstreams},1651357956,0
{consumergroup=__strimzi-topic-operator-kstreams},1651357961,0
{consumergroup=__strimzi-topic-operator-kstreams},1651357966,0
{consumergroup=__strimzi-topic-operator-kstreams},1651357971,0
{consumergroup=__strimzi-topic-operator-kstreams},1651357976,0
{consumergroup=__strimzi-topic-operator-kstreams},1651357981,0
{consumergroup=__strimzi-topic-operator-kstreams},1651357986,0
{consumergroup=adapter-service},1651357761,0
{consumergroup=adapter-service},1651357766,0
{consumergroup=adapter-service},1651357771,0
{consumergroup=adapter-service},1651357776,880811
{consumergroup=adapter-service},1651357781,880811
{consumergroup=adapter-service},1651357786,880811
{consumergroup=adapter-service},1651357791,458418
{consumergroup=adapter-service},1651357796,458418
{consumergroup=adapter-service},1651357801,458418
{consumergroup=adapter-service},1651357806,401874
{consumergroup=adapter-service},1651357811,401874
{consumergroup=adapter-service},1651357816,401874
{consumergroup=adapter-service},1651357821,298998
{consumergroup=adapter-service},1651357826,298998
{consumergroup=adapter-service},1651357831,298998
{consumergroup=adapter-service},1651357836,296330
{consumergroup=adapter-service},1651357841,296330
{consumergroup=adapter-service},1651357846,296330
{consumergroup=adapter-service},1651357851,214664
{consumergroup=adapter-service},1651357856,214664
{consumergroup=adapter-service},1651357861,214664
{consumergroup=adapter-service},1651357866,215467
{consumergroup=adapter-service},1651357871,215467
{consumergroup=adapter-service},1651357876,215467
{consumergroup=adapter-service},1651357881,197502
{consumergroup=adapter-service},1651357886,197502
{consumergroup=adapter-service},1651357891,197502
{consumergroup=adapter-service},1651357896,191625
{consumergroup=adapter-service},1651357901,191625
{consumergroup=adapter-service},1651357906,191625
{consumergroup=adapter-service},1651357911,208926
{consumergroup=adapter-service},1651357916,208926
{consumergroup=adapter-service},1651357921,208926
{consumergroup=adapter-service},1651357926,167154
{consumergroup=adapter-service},1651357931,167154
{consumergroup=adapter-service},1651357936,167154
{consumergroup=adapter-service},1651357941,268023
{consumergroup=adapter-service},1651357946,268023
{consumergroup=adapter-service},1651357951,268023
{consumergroup=adapter-service},1651357956,144397
{consumergroup=adapter-service},1651357961,144397
{consumergroup=adapter-service},1651357966,144397
{consumergroup=adapter-service},1651357971,213836
{consumergroup=adapter-service},1651357976,213836
{consumergroup=adapter-service},1651357981,213836
{consumergroup=adapter-service},1651357986,283350
