labels,timestamp,value
{consumergroup=__strimzi-topic-operator-kstreams},1651408871,0
{consumergroup=__strimzi-topic-operator-kstreams},1651408876,0
{consumergroup=__strimzi-topic-operator-kstreams},1651408881,0
{consumergroup=__strimzi-topic-operator-kstreams},1651408886,0
{consumergroup=__strimzi-topic-operator-kstreams},1651408891,0
{consumergroup=__strimzi-topic-operator-kstreams},1651408896,0
{consumergroup=__strimzi-topic-operator-kstreams},1651408901,0
{consumergroup=__strimzi-topic-operator-kstreams},1651408906,0
{consumergroup=__strimzi-topic-operator-kstreams},1651408911,0
{consumergroup=__strimzi-topic-operator-kstreams},1651408916,0
{consumergroup=__strimzi-topic-operator-kstreams},1651408921,0
{consumergroup=__strimzi-topic-operator-kstreams},1651408926,0
{consumergroup=__strimzi-topic-operator-kstreams},1651408931,0
{consumergroup=__strimzi-topic-operator-kstreams},1651408936,0
{consumergroup=__strimzi-topic-operator-kstreams},1651408941,0
{consumergroup=__strimzi-topic-operator-kstreams},1651408946,0
{consumergroup=__strimzi-topic-operator-kstreams},1651408951,0
{consumergroup=__strimzi-topic-operator-kstreams},1651408956,0
{consumergroup=__strimzi-topic-operator-kstreams},1651408961,0
{consumergroup=__strimzi-topic-operator-kstreams},1651408966,0
{consumergroup=__strimzi-topic-operator-kstreams},1651408971,0
{consumergroup=__strimzi-topic-operator-kstreams},1651408976,0
{consumergroup=__strimzi-topic-operator-kstreams},1651408981,0
{consumergroup=__strimzi-topic-operator-kstreams},1651408986,0
{consumergroup=__strimzi-topic-operator-kstreams},1651408991,0
{consumergroup=__strimzi-topic-operator-kstreams},1651408996,0
{consumergroup=__strimzi-topic-operator-kstreams},1651409001,0
{consumergroup=__strimzi-topic-operator-kstreams},1651409006,0
{consumergroup=__strimzi-topic-operator-kstreams},1651409011,0
{consumergroup=__strimzi-topic-operator-kstreams},1651409016,0
{consumergroup=__strimzi-topic-operator-kstreams},1651409021,0
{consumergroup=__strimzi-topic-operator-kstreams},1651409026,0
{consumergroup=__strimzi-topic-operator-kstreams},1651409031,0
{consumergroup=__strimzi-topic-operator-kstreams},1651409036,0
{consumergroup=__strimzi-topic-operator-kstreams},1651409041,0
{consumergroup=__strimzi-topic-operator-kstreams},1651409046,0
{consumergroup=__strimzi-topic-operator-kstreams},1651409051,0
{consumergroup=__strimzi-topic-operator-kstreams},1651409056,0
{consumergroup=__strimzi-topic-operator-kstreams},1651409061,0
{consumergroup=__strimzi-topic-operator-kstreams},1651409066,0
{consumergroup=__strimzi-topic-operator-kstreams},1651409071,0
{consumergroup=__strimzi-topic-operator-kstreams},1651409076,0
{consumergroup=__strimzi-topic-operator-kstreams},1651409081,0
{consumergroup=__strimzi-topic-operator-kstreams},1651409086,0
{consumergroup=__strimzi-topic-operator-kstreams},1651409091,0
{consumergroup=__strimzi-topic-operator-kstreams},1651409096,0
{consumergroup=__strimzi-topic-operator-kstreams},1651409101,0
{consumergroup=__strimzi-topic-operator-kstreams},1651409106,0
{consumergroup=__strimzi-topic-operator-kstreams},1651409111,0
{consumergroup=__strimzi-topic-operator-kstreams},1651409116,0
{consumergroup=adapter-service},1651408901,243381
{consumergroup=adapter-service},1651408906,243381
{consumergroup=adapter-service},1651408911,243381
{consumergroup=adapter-service},1651408916,131955
{consumergroup=adapter-service},1651408921,131955
{consumergroup=adapter-service},1651408926,131955
{consumergroup=adapter-service},1651408931,59589
{consumergroup=adapter-service},1651408936,59589
{consumergroup=adapter-service},1651408941,59589
{consumergroup=adapter-service},1651408946,38230
{consumergroup=adapter-service},1651408951,38230
{consumergroup=adapter-service},1651408956,38230
{consumergroup=adapter-service},1651408961,65615
{consumergroup=adapter-service},1651408966,65615
{consumergroup=adapter-service},1651408971,65615
{consumergroup=adapter-service},1651408976,42585
{consumergroup=adapter-service},1651408981,42585
{consumergroup=adapter-service},1651408986,42585
{consumergroup=adapter-service},1651408991,60143
{consumergroup=adapter-service},1651408996,60143
{consumergroup=adapter-service},1651409001,60143
{consumergroup=adapter-service},1651409006,62114
{consumergroup=adapter-service},1651409011,62114
{consumergroup=adapter-service},1651409016,62114
{consumergroup=adapter-service},1651409021,117640
{consumergroup=adapter-service},1651409026,117640
{consumergroup=adapter-service},1651409031,117640
{consumergroup=adapter-service},1651409036,111180
{consumergroup=adapter-service},1651409041,111180
{consumergroup=adapter-service},1651409046,111180
{consumergroup=adapter-service},1651409051,98346
{consumergroup=adapter-service},1651409056,98346
{consumergroup=adapter-service},1651409061,98346
{consumergroup=adapter-service},1651409066,107947
{consumergroup=adapter-service},1651409071,107947
{consumergroup=adapter-service},1651409076,107947
{consumergroup=adapter-service},1651409081,77286
{consumergroup=adapter-service},1651409086,77286
{consumergroup=adapter-service},1651409091,77286
{consumergroup=adapter-service},1651409096,87019
{consumergroup=adapter-service},1651409101,87019
{consumergroup=adapter-service},1651409106,87019
{consumergroup=adapter-service},1651409111,80108
{consumergroup=adapter-service},1651409116,80108
