labels,timestamp,value
{consumergroup=__strimzi-topic-operator-kstreams},1651389175,0
{consumergroup=__strimzi-topic-operator-kstreams},1651389180,0
{consumergroup=__strimzi-topic-operator-kstreams},1651389185,0
{consumergroup=__strimzi-topic-operator-kstreams},1651389190,0
{consumergroup=__strimzi-topic-operator-kstreams},1651389195,0
{consumergroup=__strimzi-topic-operator-kstreams},1651389200,0
{consumergroup=__strimzi-topic-operator-kstreams},1651389205,0
{consumergroup=__strimzi-topic-operator-kstreams},1651389210,0
{consumergroup=__strimzi-topic-operator-kstreams},1651389215,0
{consumergroup=__strimzi-topic-operator-kstreams},1651389220,0
{consumergroup=__strimzi-topic-operator-kstreams},1651389225,0
{consumergroup=__strimzi-topic-operator-kstreams},1651389230,0
{consumergroup=__strimzi-topic-operator-kstreams},1651389235,0
{consumergroup=__strimzi-topic-operator-kstreams},1651389240,0
{consumergroup=__strimzi-topic-operator-kstreams},1651389245,0
{consumergroup=__strimzi-topic-operator-kstreams},1651389250,0
{consumergroup=__strimzi-topic-operator-kstreams},1651389255,0
{consumergroup=__strimzi-topic-operator-kstreams},1651389260,0
{consumergroup=__strimzi-topic-operator-kstreams},1651389265,0
{consumergroup=__strimzi-topic-operator-kstreams},1651389270,0
{consumergroup=__strimzi-topic-operator-kstreams},1651389275,0
{consumergroup=__strimzi-topic-operator-kstreams},1651389280,0
{consumergroup=__strimzi-topic-operator-kstreams},1651389285,0
{consumergroup=__strimzi-topic-operator-kstreams},1651389290,0
{consumergroup=__strimzi-topic-operator-kstreams},1651389295,0
{consumergroup=__strimzi-topic-operator-kstreams},1651389300,0
{consumergroup=__strimzi-topic-operator-kstreams},1651389305,0
{consumergroup=__strimzi-topic-operator-kstreams},1651389310,0
{consumergroup=__strimzi-topic-operator-kstreams},1651389315,0
{consumergroup=__strimzi-topic-operator-kstreams},1651389320,0
{consumergroup=__strimzi-topic-operator-kstreams},1651389325,0
{consumergroup=__strimzi-topic-operator-kstreams},1651389330,0
{consumergroup=__strimzi-topic-operator-kstreams},1651389335,0
{consumergroup=__strimzi-topic-operator-kstreams},1651389340,0
{consumergroup=__strimzi-topic-operator-kstreams},1651389345,0
{consumergroup=__strimzi-topic-operator-kstreams},1651389350,0
{consumergroup=__strimzi-topic-operator-kstreams},1651389355,0
{consumergroup=__strimzi-topic-operator-kstreams},1651389360,0
{consumergroup=__strimzi-topic-operator-kstreams},1651389365,0
{consumergroup=__strimzi-topic-operator-kstreams},1651389370,0
{consumergroup=__strimzi-topic-operator-kstreams},1651389375,0
{consumergroup=__strimzi-topic-operator-kstreams},1651389380,0
{consumergroup=__strimzi-topic-operator-kstreams},1651389385,0
{consumergroup=__strimzi-topic-operator-kstreams},1651389390,0
{consumergroup=__strimzi-topic-operator-kstreams},1651389395,0
{consumergroup=__strimzi-topic-operator-kstreams},1651389400,0
{consumergroup=__strimzi-topic-operator-kstreams},1651389405,0
{consumergroup=__strimzi-topic-operator-kstreams},1651389410,0
{consumergroup=__strimzi-topic-operator-kstreams},1651389415,0
{consumergroup=adapter-service},1651389190,266107
{consumergroup=adapter-service},1651389195,266107
{consumergroup=adapter-service},1651389200,266107
{consumergroup=adapter-service},1651389205,1826253
{consumergroup=adapter-service},1651389210,1826253
{consumergroup=adapter-service},1651389215,1826253
{consumergroup=adapter-service},1651389220,2614461
{consumergroup=adapter-service},1651389225,2614461
{consumergroup=adapter-service},1651389230,2614461
{consumergroup=adapter-service},1651389235,3317141
{consumergroup=adapter-service},1651389240,3317141
{consumergroup=adapter-service},1651389245,3317141
{consumergroup=adapter-service},1651389250,4069279
{consumergroup=adapter-service},1651389255,4069279
{consumergroup=adapter-service},1651389260,4069279
{consumergroup=adapter-service},1651389265,3950040
{consumergroup=adapter-service},1651389270,3950040
{consumergroup=adapter-service},1651389275,3950040
{consumergroup=adapter-service},1651389280,4402385
{consumergroup=adapter-service},1651389285,4402385
{consumergroup=adapter-service},1651389290,4402385
{consumergroup=adapter-service},1651389295,4373528
{consumergroup=adapter-service},1651389300,4373528
{consumergroup=adapter-service},1651389305,4373528
{consumergroup=adapter-service},1651389310,4130133
{consumergroup=adapter-service},1651389315,4130133
{consumergroup=adapter-service},1651389320,4130133
{consumergroup=adapter-service},1651389325,4011096
{consumergroup=adapter-service},1651389330,4011096
{consumergroup=adapter-service},1651389335,4011096
{consumergroup=adapter-service},1651389340,3734157
{consumergroup=adapter-service},1651389345,3734157
{consumergroup=adapter-service},1651389350,3734157
{consumergroup=adapter-service},1651389355,3633467
{consumergroup=adapter-service},1651389360,3633467
{consumergroup=adapter-service},1651389365,3633467
{consumergroup=adapter-service},1651389370,3356872
{consumergroup=adapter-service},1651389375,3356872
{consumergroup=adapter-service},1651389380,3356872
{consumergroup=adapter-service},1651389385,3251354
{consumergroup=adapter-service},1651389390,3251354
{consumergroup=adapter-service},1651389395,3251354
{consumergroup=adapter-service},1651389400,2977394
{consumergroup=adapter-service},1651389405,2977394
{consumergroup=adapter-service},1651389410,2977394
{consumergroup=adapter-service},1651389415,2904624
