labels,timestamp,value
{consumergroup=__strimzi-topic-operator-kstreams},1651369807,8
{consumergroup=__strimzi-topic-operator-kstreams},1651369812,8
{consumergroup=__strimzi-topic-operator-kstreams},1651369817,8
{consumergroup=__strimzi-topic-operator-kstreams},1651369822,0
{consumergroup=__strimzi-topic-operator-kstreams},1651369827,0
{consumergroup=__strimzi-topic-operator-kstreams},1651369832,0
{consumergroup=__strimzi-topic-operator-kstreams},1651369837,0
{consumergroup=__strimzi-topic-operator-kstreams},1651369842,0
{consumergroup=__strimzi-topic-operator-kstreams},1651369847,0
{consumergroup=__strimzi-topic-operator-kstreams},1651369852,0
{consumergroup=__strimzi-topic-operator-kstreams},1651369857,0
{consumergroup=__strimzi-topic-operator-kstreams},1651369862,0
{consumergroup=__strimzi-topic-operator-kstreams},1651369867,0
{consumergroup=__strimzi-topic-operator-kstreams},1651369872,0
{consumergroup=__strimzi-topic-operator-kstreams},1651369877,0
{consumergroup=__strimzi-topic-operator-kstreams},1651369882,0
{consumergroup=__strimzi-topic-operator-kstreams},1651369887,0
{consumergroup=__strimzi-topic-operator-kstreams},1651369892,0
{consumergroup=__strimzi-topic-operator-kstreams},1651369897,0
{consumergroup=__strimzi-topic-operator-kstreams},1651369902,0
{consumergroup=__strimzi-topic-operator-kstreams},1651369907,0
{consumergroup=__strimzi-topic-operator-kstreams},1651369912,0
{consumergroup=__strimzi-topic-operator-kstreams},1651369917,0
{consumergroup=__strimzi-topic-operator-kstreams},1651369922,0
{consumergroup=__strimzi-topic-operator-kstreams},1651369927,0
{consumergroup=__strimzi-topic-operator-kstreams},1651369932,0
{consumergroup=__strimzi-topic-operator-kstreams},1651369937,0
{consumergroup=__strimzi-topic-operator-kstreams},1651369942,0
{consumergroup=__strimzi-topic-operator-kstreams},1651369947,0
{consumergroup=__strimzi-topic-operator-kstreams},1651369952,0
{consumergroup=__strimzi-topic-operator-kstreams},1651369957,0
{consumergroup=__strimzi-topic-operator-kstreams},1651369962,0
{consumergroup=__strimzi-topic-operator-kstreams},1651369967,0
{consumergroup=__strimzi-topic-operator-kstreams},1651369972,0
{consumergroup=__strimzi-topic-operator-kstreams},1651369977,0
{consumergroup=__strimzi-topic-operator-kstreams},1651369982,0
{consumergroup=__strimzi-topic-operator-kstreams},1651369987,0
{consumergroup=__strimzi-topic-operator-kstreams},1651369992,0
{consumergroup=__strimzi-topic-operator-kstreams},1651369997,0
{consumergroup=__strimzi-topic-operator-kstreams},1651370002,0
{consumergroup=__strimzi-topic-operator-kstreams},1651370007,0
{consumergroup=__strimzi-topic-operator-kstreams},1651370012,0
{consumergroup=__strimzi-topic-operator-kstreams},1651370017,0
{consumergroup=__strimzi-topic-operator-kstreams},1651370022,0
{consumergroup=__strimzi-topic-operator-kstreams},1651370027,0
{consumergroup=__strimzi-topic-operator-kstreams},1651370032,0
{consumergroup=__strimzi-topic-operator-kstreams},1651370037,0
{consumergroup=__strimzi-topic-operator-kstreams},1651370042,0
{consumergroup=__strimzi-topic-operator-kstreams},1651370047,0
{consumergroup=__strimzi-topic-operator-kstreams},1651370052,0
{consumergroup=adapter-service},1651369837,1397007
{consumergroup=adapter-service},1651369842,1397007
{consumergroup=adapter-service},1651369847,1397007
{consumergroup=adapter-service},1651369852,3477168
{consumergroup=adapter-service},1651369857,3477168
{consumergroup=adapter-service},1651369862,3477168
{consumergroup=adapter-service},1651369867,5202658
{consumergroup=adapter-service},1651369872,5202658
{consumergroup=adapter-service},1651369877,5202658
{consumergroup=adapter-service},1651369882,6898541
{consumergroup=adapter-service},1651369887,6898541
{consumergroup=adapter-service},1651369892,6898541
{consumergroup=adapter-service},1651369897,8481906
{consumergroup=adapter-service},1651369902,8481906
{consumergroup=adapter-service},1651369907,8481906
{consumergroup=adapter-service},1651369912,10036962
{consumergroup=adapter-service},1651369917,10036962
{consumergroup=adapter-service},1651369922,10036962
{consumergroup=adapter-service},1651369927,11594179
{consumergroup=adapter-service},1651369932,11594179
{consumergroup=adapter-service},1651369937,11594179
{consumergroup=adapter-service},1651369942,13113834
{consumergroup=adapter-service},1651369947,13113834
{consumergroup=adapter-service},1651369952,13113834
{consumergroup=adapter-service},1651369957,14645178
{consumergroup=adapter-service},1651369962,14645178
{consumergroup=adapter-service},1651369967,14645178
{consumergroup=adapter-service},1651369972,16144404
{consumergroup=adapter-service},1651369977,16144404
{consumergroup=adapter-service},1651369982,16144404
{consumergroup=adapter-service},1651369987,17655216
{consumergroup=adapter-service},1651369992,17655216
{consumergroup=adapter-service},1651369997,17655216
{consumergroup=adapter-service},1651370002,19175071
{consumergroup=adapter-service},1651370007,19175071
{consumergroup=adapter-service},1651370012,19175071
{consumergroup=adapter-service},1651370017,20688350
{consumergroup=adapter-service},1651370022,20688350
{consumergroup=adapter-service},1651370027,20688350
{consumergroup=adapter-service},1651370032,22209742
{consumergroup=adapter-service},1651370037,22209742
{consumergroup=adapter-service},1651370042,22209742
{consumergroup=adapter-service},1651370047,23763254
{consumergroup=adapter-service},1651370052,23763254
