labels,timestamp,value
{consumergroup=__strimzi-topic-operator-kstreams},1651410938,16
{consumergroup=__strimzi-topic-operator-kstreams},1651410943,16
{consumergroup=__strimzi-topic-operator-kstreams},1651410948,16
{consumergroup=__strimzi-topic-operator-kstreams},1651410953,0
{consumergroup=__strimzi-topic-operator-kstreams},1651410958,0
{consumergroup=__strimzi-topic-operator-kstreams},1651410963,0
{consumergroup=__strimzi-topic-operator-kstreams},1651410968,0
{consumergroup=__strimzi-topic-operator-kstreams},1651410973,0
{consumergroup=__strimzi-topic-operator-kstreams},1651410978,0
{consumergroup=__strimzi-topic-operator-kstreams},1651410983,0
{consumergroup=__strimzi-topic-operator-kstreams},1651410988,0
{consumergroup=__strimzi-topic-operator-kstreams},1651410993,0
{consumergroup=__strimzi-topic-operator-kstreams},1651410998,0
{consumergroup=__strimzi-topic-operator-kstreams},1651411003,0
{consumergroup=__strimzi-topic-operator-kstreams},1651411008,0
{consumergroup=__strimzi-topic-operator-kstreams},1651411013,0
{consumergroup=__strimzi-topic-operator-kstreams},1651411018,0
{consumergroup=__strimzi-topic-operator-kstreams},1651411023,0
{consumergroup=__strimzi-topic-operator-kstreams},1651411028,0
{consumergroup=__strimzi-topic-operator-kstreams},1651411033,0
{consumergroup=__strimzi-topic-operator-kstreams},1651411038,0
{consumergroup=__strimzi-topic-operator-kstreams},1651411043,0
{consumergroup=__strimzi-topic-operator-kstreams},1651411048,0
{consumergroup=__strimzi-topic-operator-kstreams},1651411053,0
{consumergroup=__strimzi-topic-operator-kstreams},1651411058,0
{consumergroup=__strimzi-topic-operator-kstreams},1651411063,0
{consumergroup=__strimzi-topic-operator-kstreams},1651411068,0
{consumergroup=__strimzi-topic-operator-kstreams},1651411073,0
{consumergroup=__strimzi-topic-operator-kstreams},1651411078,0
{consumergroup=__strimzi-topic-operator-kstreams},1651411083,0
{consumergroup=__strimzi-topic-operator-kstreams},1651411088,0
{consumergroup=__strimzi-topic-operator-kstreams},1651411093,0
{consumergroup=__strimzi-topic-operator-kstreams},1651411098,0
{consumergroup=__strimzi-topic-operator-kstreams},1651411103,0
{consumergroup=__strimzi-topic-operator-kstreams},1651411108,0
{consumergroup=__strimzi-topic-operator-kstreams},1651411113,0
{consumergroup=__strimzi-topic-operator-kstreams},1651411118,0
{consumergroup=__strimzi-topic-operator-kstreams},1651411123,0
{consumergroup=__strimzi-topic-operator-kstreams},1651411128,0
{consumergroup=__strimzi-topic-operator-kstreams},1651411133,0
{consumergroup=__strimzi-topic-operator-kstreams},1651411138,0
{consumergroup=__strimzi-topic-operator-kstreams},1651411143,0
{consumergroup=__strimzi-topic-operator-kstreams},1651411148,0
{consumergroup=__strimzi-topic-operator-kstreams},1651411153,0
{consumergroup=__strimzi-topic-operator-kstreams},1651411158,0
{consumergroup=__strimzi-topic-operator-kstreams},1651411163,0
{consumergroup=__strimzi-topic-operator-kstreams},1651411168,0
{consumergroup=__strimzi-topic-operator-kstreams},1651411173,0
{consumergroup=__strimzi-topic-operator-kstreams},1651411178,0
{consumergroup=__strimzi-topic-operator-kstreams},1651411183,0
{consumergroup=__strimzi-topic-operator-kstreams},1651411188,0
{consumergroup=adapter-service},1651410968,89063
{consumergroup=adapter-service},1651410973,89063
{consumergroup=adapter-service},1651410978,89063
{consumergroup=adapter-service},1651410983,139418
{consumergroup=adapter-service},1651410988,139418
{consumergroup=adapter-service},1651410993,139418
{consumergroup=adapter-service},1651410998,126377
{consumergroup=adapter-service},1651411003,126377
{consumergroup=adapter-service},1651411008,126377
{consumergroup=adapter-service},1651411013,115195
{consumergroup=adapter-service},1651411018,115195
{consumergroup=adapter-service},1651411023,115195
{consumergroup=adapter-service},1651411028,97265
{consumergroup=adapter-service},1651411033,97265
{consumergroup=adapter-service},1651411038,97265
{consumergroup=adapter-service},1651411043,110101
{consumergroup=adapter-service},1651411048,110101
{consumergroup=adapter-service},1651411053,110101
{consumergroup=adapter-service},1651411058,89915
{consumergroup=adapter-service},1651411063,89915
{consumergroup=adapter-service},1651411068,89915
{consumergroup=adapter-service},1651411073,61281
{consumergroup=adapter-service},1651411078,61281
{consumergroup=adapter-service},1651411083,61281
{consumergroup=adapter-service},1651411088,39415
{consumergroup=adapter-service},1651411093,39415
{consumergroup=adapter-service},1651411098,39415
{consumergroup=adapter-service},1651411103,30936
{consumergroup=adapter-service},1651411108,30936
{consumergroup=adapter-service},1651411113,30936
{consumergroup=adapter-service},1651411118,46289
{consumergroup=adapter-service},1651411123,46289
{consumergroup=adapter-service},1651411128,46289
{consumergroup=adapter-service},1651411133,41054
{consumergroup=adapter-service},1651411138,41054
{consumergroup=adapter-service},1651411143,41054
{consumergroup=adapter-service},1651411148,36640
{consumergroup=adapter-service},1651411153,36640
{consumergroup=adapter-service},1651411158,36640
{consumergroup=adapter-service},1651411163,37945
{consumergroup=adapter-service},1651411168,37945
{consumergroup=adapter-service},1651411173,37945
{consumergroup=adapter-service},1651411178,24996
{consumergroup=adapter-service},1651411183,24996
{consumergroup=adapter-service},1651411188,24996
