labels,timestamp,value
{consumergroup=__strimzi-topic-operator-kstreams},1651387676,9
{consumergroup=__strimzi-topic-operator-kstreams},1651387681,9
{consumergroup=__strimzi-topic-operator-kstreams},1651387686,9
{consumergroup=__strimzi-topic-operator-kstreams},1651387691,0
{consumergroup=__strimzi-topic-operator-kstreams},1651387696,0
{consumergroup=__strimzi-topic-operator-kstreams},1651387701,0
{consumergroup=__strimzi-topic-operator-kstreams},1651387706,0
{consumergroup=__strimzi-topic-operator-kstreams},1651387711,0
{consumergroup=__strimzi-topic-operator-kstreams},1651387716,0
{consumergroup=__strimzi-topic-operator-kstreams},1651387721,0
{consumergroup=__strimzi-topic-operator-kstreams},1651387726,0
{consumergroup=__strimzi-topic-operator-kstreams},1651387731,0
{consumergroup=__strimzi-topic-operator-kstreams},1651387736,0
{consumergroup=__strimzi-topic-operator-kstreams},1651387741,0
{consumergroup=__strimzi-topic-operator-kstreams},1651387746,0
{consumergroup=__strimzi-topic-operator-kstreams},1651387751,0
{consumergroup=__strimzi-topic-operator-kstreams},1651387756,0
{consumergroup=__strimzi-topic-operator-kstreams},1651387761,0
{consumergroup=__strimzi-topic-operator-kstreams},1651387766,0
{consumergroup=__strimzi-topic-operator-kstreams},1651387771,0
{consumergroup=__strimzi-topic-operator-kstreams},1651387776,0
{consumergroup=__strimzi-topic-operator-kstreams},1651387781,0
{consumergroup=__strimzi-topic-operator-kstreams},1651387786,0
{consumergroup=__strimzi-topic-operator-kstreams},1651387791,0
{consumergroup=__strimzi-topic-operator-kstreams},1651387796,0
{consumergroup=__strimzi-topic-operator-kstreams},1651387801,0
{consumergroup=__strimzi-topic-operator-kstreams},1651387806,0
{consumergroup=__strimzi-topic-operator-kstreams},1651387811,0
{consumergroup=__strimzi-topic-operator-kstreams},1651387816,0
{consumergroup=__strimzi-topic-operator-kstreams},1651387821,0
{consumergroup=__strimzi-topic-operator-kstreams},1651387826,0
{consumergroup=__strimzi-topic-operator-kstreams},1651387831,0
{consumergroup=__strimzi-topic-operator-kstreams},1651387836,0
{consumergroup=__strimzi-topic-operator-kstreams},1651387841,0
{consumergroup=__strimzi-topic-operator-kstreams},1651387846,0
{consumergroup=__strimzi-topic-operator-kstreams},1651387851,0
{consumergroup=__strimzi-topic-operator-kstreams},1651387856,0
{consumergroup=__strimzi-topic-operator-kstreams},1651387861,0
{consumergroup=__strimzi-topic-operator-kstreams},1651387866,0
{consumergroup=__strimzi-topic-operator-kstreams},1651387871,0
{consumergroup=__strimzi-topic-operator-kstreams},1651387876,0
{consumergroup=__strimzi-topic-operator-kstreams},1651387881,0
{consumergroup=__strimzi-topic-operator-kstreams},1651387886,0
{consumergroup=__strimzi-topic-operator-kstreams},1651387891,0
{consumergroup=__strimzi-topic-operator-kstreams},1651387896,0
{consumergroup=__strimzi-topic-operator-kstreams},1651387901,0
{consumergroup=__strimzi-topic-operator-kstreams},1651387906,0
{consumergroup=__strimzi-topic-operator-kstreams},1651387911,0
{consumergroup=__strimzi-topic-operator-kstreams},1651387916,0
{consumergroup=__strimzi-topic-operator-kstreams},1651387921,0
{consumergroup=__strimzi-topic-operator-kstreams},1651387926,0
{consumergroup=adapter-service},1651387706,426002
{consumergroup=adapter-service},1651387711,426002
{consumergroup=adapter-service},1651387716,426002
{consumergroup=adapter-service},1651387721,1875819
{consumergroup=adapter-service},1651387726,1875819
{consumergroup=adapter-service},1651387731,1875819
{consumergroup=adapter-service},1651387736,2707838
{consumergroup=adapter-service},1651387741,2707838
{consumergroup=adapter-service},1651387746,2707838
{consumergroup=adapter-service},1651387751,3426155
{consumergroup=adapter-service},1651387756,3426155
{consumergroup=adapter-service},1651387761,3426155
{consumergroup=adapter-service},1651387766,3918744
{consumergroup=adapter-service},1651387771,3918744
{consumergroup=adapter-service},1651387776,3918744
{consumergroup=adapter-service},1651387781,4074898
{consumergroup=adapter-service},1651387786,4074898
{consumergroup=adapter-service},1651387791,4074898
{consumergroup=adapter-service},1651387796,4190325
{consumergroup=adapter-service},1651387801,4190325
{consumergroup=adapter-service},1651387806,4190325
{consumergroup=adapter-service},1651387811,4209290
{consumergroup=adapter-service},1651387816,4209290
{consumergroup=adapter-service},1651387821,4209290
{consumergroup=adapter-service},1651387826,4184079
{consumergroup=adapter-service},1651387831,4184079
{consumergroup=adapter-service},1651387836,4184079
{consumergroup=adapter-service},1651387841,4103546
{consumergroup=adapter-service},1651387846,4103546
{consumergroup=adapter-service},1651387851,4103546
{consumergroup=adapter-service},1651387856,4037514
{consumergroup=adapter-service},1651387861,4037514
{consumergroup=adapter-service},1651387866,4037514
{consumergroup=adapter-service},1651387871,3966605
{consumergroup=adapter-service},1651387876,3966605
{consumergroup=adapter-service},1651387881,3966605
{consumergroup=adapter-service},1651387886,3876085
{consumergroup=adapter-service},1651387891,3876085
{consumergroup=adapter-service},1651387896,3876085
{consumergroup=adapter-service},1651387901,3865138
{consumergroup=adapter-service},1651387906,3865138
{consumergroup=adapter-service},1651387911,3865138
{consumergroup=adapter-service},1651387916,3832703
{consumergroup=adapter-service},1651387921,3832703
{consumergroup=adapter-service},1651387926,3832703
