labels,timestamp,value
{consumergroup=__strimzi-topic-operator-kstreams},1651375364,5
{consumergroup=__strimzi-topic-operator-kstreams},1651375369,5
{consumergroup=__strimzi-topic-operator-kstreams},1651375374,5
{consumergroup=__strimzi-topic-operator-kstreams},1651375379,22
{consumergroup=__strimzi-topic-operator-kstreams},1651375384,22
{consumergroup=__strimzi-topic-operator-kstreams},1651375389,22
{consumergroup=__strimzi-topic-operator-kstreams},1651375394,0
{consumergroup=__strimzi-topic-operator-kstreams},1651375399,0
{consumergroup=__strimzi-topic-operator-kstreams},1651375404,0
{consumergroup=__strimzi-topic-operator-kstreams},1651375409,0
{consumergroup=__strimzi-topic-operator-kstreams},1651375414,0
{consumergroup=__strimzi-topic-operator-kstreams},1651375419,0
{consumergroup=__strimzi-topic-operator-kstreams},1651375424,0
{consumergroup=__strimzi-topic-operator-kstreams},1651375429,0
{consumergroup=__strimzi-topic-operator-kstreams},1651375434,0
{consumergroup=__strimzi-topic-operator-kstreams},1651375439,0
{consumergroup=__strimzi-topic-operator-kstreams},1651375444,0
{consumergroup=__strimzi-topic-operator-kstreams},1651375449,0
{consumergroup=__strimzi-topic-operator-kstreams},1651375454,0
{consumergroup=__strimzi-topic-operator-kstreams},1651375459,0
{consumergroup=__strimzi-topic-operator-kstreams},1651375464,0
{consumergroup=__strimzi-topic-operator-kstreams},1651375469,0
{consumergroup=__strimzi-topic-operator-kstreams},1651375474,0
{consumergroup=__strimzi-topic-operator-kstreams},1651375479,0
{consumergroup=__strimzi-topic-operator-kstreams},1651375484,0
{consumergroup=__strimzi-topic-operator-kstreams},1651375489,0
{consumergroup=__strimzi-topic-operator-kstreams},1651375494,0
{consumergroup=__strimzi-topic-operator-kstreams},1651375499,0
{consumergroup=__strimzi-topic-operator-kstreams},1651375504,0
{consumergroup=__strimzi-topic-operator-kstreams},1651375509,0
{consumergroup=__strimzi-topic-operator-kstreams},1651375514,0
{consumergroup=__strimzi-topic-operator-kstreams},1651375519,0
{consumergroup=__strimzi-topic-operator-kstreams},1651375524,0
{consumergroup=__strimzi-topic-operator-kstreams},1651375529,0
{consumergroup=__strimzi-topic-operator-kstreams},1651375534,0
{consumergroup=__strimzi-topic-operator-kstreams},1651375539,0
{consumergroup=__strimzi-topic-operator-kstreams},1651375544,0
{consumergroup=__strimzi-topic-operator-kstreams},1651375549,0
{consumergroup=__strimzi-topic-operator-kstreams},1651375554,0
{consumergroup=__strimzi-topic-operator-kstreams},1651375559,0
{consumergroup=__strimzi-topic-operator-kstreams},1651375564,0
{consumergroup=__strimzi-topic-operator-kstreams},1651375569,0
{consumergroup=__strimzi-topic-operator-kstreams},1651375574,0
{consumergroup=__strimzi-topic-operator-kstreams},1651375579,0
{consumergroup=__strimzi-topic-operator-kstreams},1651375584,0
{consumergroup=__strimzi-topic-operator-kstreams},1651375589,0
{consumergroup=__strimzi-topic-operator-kstreams},1651375594,0
{consumergroup=__strimzi-topic-operator-kstreams},1651375599,0
{consumergroup=__strimzi-topic-operator-kstreams},1651375604,0
{consumergroup=__strimzi-topic-operator-kstreams},1651375609,0
{consumergroup=__strimzi-topic-operator-kstreams},1651375614,0
{consumergroup=__strimzi-topic-operator-kstreams},1651375619,0
{consumergroup=adapter-service},1651375394,387989
{consumergroup=adapter-service},1651375399,387989
{consumergroup=adapter-service},1651375404,387989
{consumergroup=adapter-service},1651375409,2836189
{consumergroup=adapter-service},1651375414,2836189
{consumergroup=adapter-service},1651375419,2836189
{consumergroup=adapter-service},1651375424,4842470
{consumergroup=adapter-service},1651375429,4842470
{consumergroup=adapter-service},1651375434,4842470
{consumergroup=adapter-service},1651375439,6314801
{consumergroup=adapter-service},1651375444,6314801
{consumergroup=adapter-service},1651375449,6314801
{consumergroup=adapter-service},1651375454,7736189
{consumergroup=adapter-service},1651375459,7736189
{consumergroup=adapter-service},1651375464,7736189
{consumergroup=adapter-service},1651375469,8925996
{consumergroup=adapter-service},1651375474,8925996
{consumergroup=adapter-service},1651375479,8925996
{consumergroup=adapter-service},1651375484,9946943
{consumergroup=adapter-service},1651375489,9946943
{consumergroup=adapter-service},1651375494,9946943
{consumergroup=adapter-service},1651375499,11109389
{consumergroup=adapter-service},1651375504,11109389
{consumergroup=adapter-service},1651375509,11109389
{consumergroup=adapter-service},1651375514,12024216
{consumergroup=adapter-service},1651375519,12024216
{consumergroup=adapter-service},1651375524,12024216
{consumergroup=adapter-service},1651375529,12766485
{consumergroup=adapter-service},1651375534,12766485
{consumergroup=adapter-service},1651375539,12766485
{consumergroup=adapter-service},1651375544,13536770
{consumergroup=adapter-service},1651375549,13536770
{consumergroup=adapter-service},1651375554,13536770
{consumergroup=adapter-service},1651375559,14419351
{consumergroup=adapter-service},1651375564,14419351
{consumergroup=adapter-service},1651375569,14419351
{consumergroup=adapter-service},1651375574,15126749
{consumergroup=adapter-service},1651375579,15126749
{consumergroup=adapter-service},1651375584,15126749
{consumergroup=adapter-service},1651375589,16075404
{consumergroup=adapter-service},1651375594,16075404
{consumergroup=adapter-service},1651375599,16075404
{consumergroup=adapter-service},1651375604,16845039
{consumergroup=adapter-service},1651375609,16845039
{consumergroup=adapter-service},1651375614,16845039
{consumergroup=adapter-service},1651375619,17694385
