labels,timestamp,value
{consumergroup=__strimzi-topic-operator-kstreams},1651352569,2
{consumergroup=__strimzi-topic-operator-kstreams},1651352574,12
{consumergroup=__strimzi-topic-operator-kstreams},1651352579,12
{consumergroup=__strimzi-topic-operator-kstreams},1651352584,12
{consumergroup=__strimzi-topic-operator-kstreams},1651352589,0
{consumergroup=__strimzi-topic-operator-kstreams},1651352594,0
{consumergroup=__strimzi-topic-operator-kstreams},1651352599,0
{consumergroup=__strimzi-topic-operator-kstreams},1651352604,0
{consumergroup=__strimzi-topic-operator-kstreams},1651352609,0
{consumergroup=__strimzi-topic-operator-kstreams},1651352614,0
{consumergroup=__strimzi-topic-operator-kstreams},1651352619,0
{consumergroup=__strimzi-topic-operator-kstreams},1651352624,0
{consumergroup=__strimzi-topic-operator-kstreams},1651352629,0
{consumergroup=__strimzi-topic-operator-kstreams},1651352634,0
{consumergroup=__strimzi-topic-operator-kstreams},1651352639,0
{consumergroup=__strimzi-topic-operator-kstreams},1651352644,0
{consumergroup=__strimzi-topic-operator-kstreams},1651352649,0
{consumergroup=__strimzi-topic-operator-kstreams},1651352654,0
{consumergroup=__strimzi-topic-operator-kstreams},1651352659,0
{consumergroup=__strimzi-topic-operator-kstreams},1651352664,0
{consumergroup=__strimzi-topic-operator-kstreams},1651352669,0
{consumergroup=__strimzi-topic-operator-kstreams},1651352674,0
{consumergroup=__strimzi-topic-operator-kstreams},1651352679,0
{consumergroup=__strimzi-topic-operator-kstreams},1651352684,0
{consumergroup=__strimzi-topic-operator-kstreams},1651352689,0
{consumergroup=__strimzi-topic-operator-kstreams},1651352694,0
{consumergroup=__strimzi-topic-operator-kstreams},1651352699,0
{consumergroup=__strimzi-topic-operator-kstreams},1651352704,0
{consumergroup=__strimzi-topic-operator-kstreams},1651352709,0
{consumergroup=__strimzi-topic-operator-kstreams},1651352714,0
{consumergroup=__strimzi-topic-operator-kstreams},1651352719,0
{consumergroup=__strimzi-topic-operator-kstreams},1651352724,0
{consumergroup=__strimzi-topic-operator-kstreams},1651352729,0
{consumergroup=__strimzi-topic-operator-kstreams},1651352734,0
{consumergroup=__strimzi-topic-operator-kstreams},1651352739,0
{consumergroup=__strimzi-topic-operator-kstreams},1651352744,0
{consumergroup=__strimzi-topic-operator-kstreams},1651352749,0
{consumergroup=__strimzi-topic-operator-kstreams},1651352754,0
{consumergroup=__strimzi-topic-operator-kstreams},1651352759,0
{consumergroup=__strimzi-topic-operator-kstreams},1651352764,0
{consumergroup=__strimzi-topic-operator-kstreams},1651352769,0
{consumergroup=__strimzi-topic-operator-kstreams},1651352774,0
{consumergroup=__strimzi-topic-operator-kstreams},1651352779,0
{consumergroup=__strimzi-topic-operator-kstreams},1651352784,0
{consumergroup=__strimzi-topic-operator-kstreams},1651352789,0
{consumergroup=__strimzi-topic-operator-kstreams},1651352794,0
{consumergroup=__strimzi-topic-operator-kstreams},1651352799,0
{consumergroup=__strimzi-topic-operator-kstreams},1651352804,0
{consumergroup=__strimzi-topic-operator-kstreams},1651352809,0
{consumergroup=__strimzi-topic-operator-kstreams},1651352814,0
{consumergroup=__strimzi-topic-operator-kstreams},1651352819,0
{consumergroup=__strimzi-topic-operator-kstreams},1651352824,0
{consumergroup=__strimzi-topic-operator-kstreams},1651352829,0
{consumergroup=adapter-service},1651352569,0
{consumergroup=adapter-service},1651352604,22543
{consumergroup=adapter-service},1651352609,22543
{consumergroup=adapter-service},1651352614,22543
{consumergroup=adapter-service},1651352619,530898
{consumergroup=adapter-service},1651352624,530898
{consumergroup=adapter-service},1651352629,530898
{consumergroup=adapter-service},1651352634,318958
{consumergroup=adapter-service},1651352639,318958
{consumergroup=adapter-service},1651352644,318958
{consumergroup=adapter-service},1651352649,428081
{consumergroup=adapter-service},1651352654,428081
{consumergroup=adapter-service},1651352659,428081
{consumergroup=adapter-service},1651352664,282158
{consumergroup=adapter-service},1651352669,282158
{consumergroup=adapter-service},1651352674,282158
{consumergroup=adapter-service},1651352679,352407
{consumergroup=adapter-service},1651352684,352407
{consumergroup=adapter-service},1651352689,352407
{consumergroup=adapter-service},1651352694,296870
{consumergroup=adapter-service},1651352699,296870
{consumergroup=adapter-service},1651352704,296870
{consumergroup=adapter-service},1651352709,190477
{consumergroup=adapter-service},1651352714,190477
{consumergroup=adapter-service},1651352719,190477
{consumergroup=adapter-service},1651352724,459667
{consumergroup=adapter-service},1651352729,459667
{consumergroup=adapter-service},1651352734,459667
{consumergroup=adapter-service},1651352739,458611
{consumergroup=adapter-service},1651352744,458611
{consumergroup=adapter-service},1651352749,458611
{consumergroup=adapter-service},1651352754,377041
{consumergroup=adapter-service},1651352759,377041
{consumergroup=adapter-service},1651352764,377041
{consumergroup=adapter-service},1651352769,350442
{consumergroup=adapter-service},1651352774,350442
{consumergroup=adapter-service},1651352779,350442
{consumergroup=adapter-service},1651352784,276532
{consumergroup=adapter-service},1651352789,276532
{consumergroup=adapter-service},1651352794,276532
{consumergroup=adapter-service},1651352799,411345
{consumergroup=adapter-service},1651352804,411345
{consumergroup=adapter-service},1651352809,411345
{consumergroup=adapter-service},1651352814,459095
{consumergroup=adapter-service},1651352819,459095
{consumergroup=adapter-service},1651352824,459095
{consumergroup=adapter-service},1651352829,270775
