labels,timestamp,value
{consumergroup=__strimzi-topic-operator-kstreams},1651377772,2
{consumergroup=__strimzi-topic-operator-kstreams},1651377782,24
{consumergroup=__strimzi-topic-operator-kstreams},1651377787,24
{consumergroup=__strimzi-topic-operator-kstreams},1651377792,24
{consumergroup=__strimzi-topic-operator-kstreams},1651377797,0
{consumergroup=__strimzi-topic-operator-kstreams},1651377802,0
{consumergroup=__strimzi-topic-operator-kstreams},1651377807,0
{consumergroup=__strimzi-topic-operator-kstreams},1651377812,0
{consumergroup=__strimzi-topic-operator-kstreams},1651377817,0
{consumergroup=__strimzi-topic-operator-kstreams},1651377822,0
{consumergroup=__strimzi-topic-operator-kstreams},1651377827,0
{consumergroup=__strimzi-topic-operator-kstreams},1651377832,0
{consumergroup=__strimzi-topic-operator-kstreams},1651377837,0
{consumergroup=__strimzi-topic-operator-kstreams},1651377842,0
{consumergroup=__strimzi-topic-operator-kstreams},1651377847,0
{consumergroup=__strimzi-topic-operator-kstreams},1651377852,0
{consumergroup=__strimzi-topic-operator-kstreams},1651377857,0
{consumergroup=__strimzi-topic-operator-kstreams},1651377862,0
{consumergroup=__strimzi-topic-operator-kstreams},1651377867,0
{consumergroup=__strimzi-topic-operator-kstreams},1651377872,0
{consumergroup=__strimzi-topic-operator-kstreams},1651377877,0
{consumergroup=__strimzi-topic-operator-kstreams},1651377882,0
{consumergroup=__strimzi-topic-operator-kstreams},1651377887,0
{consumergroup=__strimzi-topic-operator-kstreams},1651377892,0
{consumergroup=__strimzi-topic-operator-kstreams},1651377897,0
{consumergroup=__strimzi-topic-operator-kstreams},1651377902,0
{consumergroup=__strimzi-topic-operator-kstreams},1651377907,0
{consumergroup=__strimzi-topic-operator-kstreams},1651377912,0
{consumergroup=__strimzi-topic-operator-kstreams},1651377917,0
{consumergroup=__strimzi-topic-operator-kstreams},1651377922,0
{consumergroup=__strimzi-topic-operator-kstreams},1651377927,0
{consumergroup=__strimzi-topic-operator-kstreams},1651377932,0
{consumergroup=__strimzi-topic-operator-kstreams},1651377937,0
{consumergroup=__strimzi-topic-operator-kstreams},1651377942,0
{consumergroup=__strimzi-topic-operator-kstreams},1651377947,0
{consumergroup=__strimzi-topic-operator-kstreams},1651377952,0
{consumergroup=__strimzi-topic-operator-kstreams},1651377957,0
{consumergroup=__strimzi-topic-operator-kstreams},1651377962,0
{consumergroup=__strimzi-topic-operator-kstreams},1651377967,0
{consumergroup=__strimzi-topic-operator-kstreams},1651377972,0
{consumergroup=__strimzi-topic-operator-kstreams},1651377977,0
{consumergroup=__strimzi-topic-operator-kstreams},1651377982,0
{consumergroup=__strimzi-topic-operator-kstreams},1651377987,0
{consumergroup=__strimzi-topic-operator-kstreams},1651377992,0
{consumergroup=__strimzi-topic-operator-kstreams},1651377997,0
{consumergroup=__strimzi-topic-operator-kstreams},1651378002,0
{consumergroup=__strimzi-topic-operator-kstreams},1651378007,0
{consumergroup=__strimzi-topic-operator-kstreams},1651378012,0
{consumergroup=__strimzi-topic-operator-kstreams},1651378017,0
{consumergroup=__strimzi-topic-operator-kstreams},1651378022,0
{consumergroup=__strimzi-topic-operator-kstreams},1651378027,0
{consumergroup=__strimzi-topic-operator-kstreams},1651378032,0
{consumergroup=adapter-service},1651377772,0
{consumergroup=adapter-service},1651377812,809330
{consumergroup=adapter-service},1651377817,809330
{consumergroup=adapter-service},1651377822,809330
{consumergroup=adapter-service},1651377827,2435003
{consumergroup=adapter-service},1651377832,2435003
{consumergroup=adapter-service},1651377837,2435003
{consumergroup=adapter-service},1651377842,3621773
{consumergroup=adapter-service},1651377847,3621773
{consumergroup=adapter-service},1651377852,3621773
{consumergroup=adapter-service},1651377857,4671117
{consumergroup=adapter-service},1651377862,4671117
{consumergroup=adapter-service},1651377867,4671117
{consumergroup=adapter-service},1651377872,5335293
{consumergroup=adapter-service},1651377877,5335293
{consumergroup=adapter-service},1651377882,5335293
{consumergroup=adapter-service},1651377887,5904019
{consumergroup=adapter-service},1651377892,5904019
{consumergroup=adapter-service},1651377897,5904019
{consumergroup=adapter-service},1651377902,6311149
{consumergroup=adapter-service},1651377907,6311149
{consumergroup=adapter-service},1651377912,6311149
{consumergroup=adapter-service},1651377917,6759302
{consumergroup=adapter-service},1651377922,6759302
{consumergroup=adapter-service},1651377927,6759302
{consumergroup=adapter-service},1651377932,6988893
{consumergroup=adapter-service},1651377937,6988893
{consumergroup=adapter-service},1651377942,6988893
{consumergroup=adapter-service},1651377947,7475282
{consumergroup=adapter-service},1651377952,7475282
{consumergroup=adapter-service},1651377957,7475282
{consumergroup=adapter-service},1651377962,7732177
{consumergroup=adapter-service},1651377967,7732177
{consumergroup=adapter-service},1651377972,7732177
{consumergroup=adapter-service},1651377977,8193009
{consumergroup=adapter-service},1651377982,8193009
{consumergroup=adapter-service},1651377987,8193009
{consumergroup=adapter-service},1651377992,8434936
{consumergroup=adapter-service},1651377997,8434936
{consumergroup=adapter-service},1651378002,8434936
{consumergroup=adapter-service},1651378007,8774101
{consumergroup=adapter-service},1651378012,8774101
{consumergroup=adapter-service},1651378017,8774101
{consumergroup=adapter-service},1651378022,9153390
{consumergroup=adapter-service},1651378027,9153390
{consumergroup=adapter-service},1651378032,9153390
