labels,timestamp,value
{job=theodolite-stu200776/combined-trace-podmonitor},1651282707,0.018546338025556854
{job=theodolite-stu200776/combined-trace-podmonitor},1651282712,0.3385625945802066
{job=theodolite-stu200776/combined-trace-podmonitor},1651282717,0.50204592532973
{job=theodolite-stu200776/combined-trace-podmonitor},1651282722,0.6787269452431001
{job=theodolite-stu200776/combined-trace-podmonitor},1651282727,0.6363267030829722
{job=theodolite-stu200776/combined-trace-podmonitor},1651282732,0.5288655196911021
{job=theodolite-stu200776/combined-trace-podmonitor},1651282737,0.5024928336350202
{job=theodolite-stu200776/combined-trace-podmonitor},1651282742,0.43327353873187346
{job=theodolite-stu200776/combined-trace-podmonitor},1651282747,0.3200167981730028
{job=theodolite-stu200776/combined-trace-podmonitor},1651282752,0
{job=theodolite-stu200776/combined-trace-podmonitor},1651282757,0
{job=theodolite-stu200776/combined-trace-podmonitor},1651282762,0
{job=theodolite-stu200776/combined-trace-podmonitor},1651282767,0
{job=theodolite-stu200776/combined-trace-podmonitor},1651282772,0
{job=theodolite-stu200776/combined-trace-podmonitor},1651282777,0
{job=theodolite-stu200776/combined-trace-podmonitor},1651282782,0
{job=theodolite-stu200776/combined-trace-podmonitor},1651282787,0
{job=theodolite-stu200776/combined-trace-podmonitor},1651282792,0
{job=theodolite-stu200776/combined-trace-podmonitor},1651282797,0
{job=theodolite-stu200776/combined-trace-podmonitor},1651282802,0
{job=theodolite-stu200776/combined-trace-podmonitor},1651282807,0
{job=theodolite-stu200776/combined-trace-podmonitor},1651282812,0
{job=theodolite-stu200776/combined-trace-podmonitor},1651282817,0
{job=theodolite-stu200776/combined-trace-podmonitor},1651282822,0
{job=theodolite-stu200776/combined-trace-podmonitor},1651282827,0
{job=theodolite-stu200776/combined-trace-podmonitor},1651282832,0
{job=theodolite-stu200776/combined-trace-podmonitor},1651282837,0
{job=theodolite-stu200776/combined-trace-podmonitor},1651282842,0
{job=theodolite-stu200776/combined-trace-podmonitor},1651282847,0
{job=theodolite-stu200776/combined-trace-podmonitor},1651282852,0
{job=theodolite-stu200776/combined-trace-podmonitor},1651282857,0
{job=theodolite-stu200776/combined-trace-podmonitor},1651282862,0
{job=theodolite-stu200776/combined-trace-podmonitor},1651282867,0
{job=theodolite-stu200776/combined-trace-podmonitor},1651282872,0
{job=theodolite-stu200776/combined-trace-podmonitor},1651282877,0
{job=theodolite-stu200776/combined-trace-podmonitor},1651282882,0
{job=theodolite-stu200776/combined-trace-podmonitor},1651282887,0
{job=theodolite-stu200776/combined-trace-podmonitor},1651282892,0
{job=theodolite-stu200776/combined-trace-podmonitor},1651282897,0
{job=theodolite-stu200776/combined-trace-podmonitor},1651282902,0
{job=theodolite-stu200776/combined-trace-podmonitor},1651282907,0
{job=theodolite-stu200776/combined-trace-podmonitor},1651282912,0
{job=theodolite-stu200776/combined-trace-podmonitor},1651282917,0
{job=theodolite-stu200776/combined-trace-podmonitor},1651282922,0
{job=theodolite-stu200776/combined-trace-podmonitor},1651282927,0
{job=theodolite-stu200776/combined-trace-podmonitor},1651282932,0
{job=theodolite-stu200776/combined-trace-podmonitor},1651282937,0
{job=theodolite-stu200776/combined-trace-podmonitor},1651282942,0
{job=theodolite-stu200776/combined-trace-podmonitor},1651282947,0
{job=theodolite-stu200776/combined-trace-podmonitor},1651282952,0
{job=theodolite-stu200776/combined-trace-podmonitor},1651282957,0
{job=theodolite-stu200776/combined-trace-podmonitor},1651282962,0
{job=theodolite-stu200776/combined-trace-podmonitor},1651282967,0
{job=theodolite-stu200776/combined-trace-podmonitor},1651282972,0
{job=theodolite-stu200776/combined-trace-podmonitor},1651282977,0
{job=theodolite-stu200776/combined-trace-podmonitor},1651282982,0
{job=theodolite-stu200776/combined-trace-podmonitor},1651282987,0
{job=theodolite-stu200776/combined-trace-podmonitor},1651282992,0
{job=theodolite-stu200776/combined-trace-podmonitor},1651282997,0
{job=theodolite-stu200776/combined-trace-podmonitor},1651283002,0
{job=theodolite-stu200776/combined-trace-podmonitor},1651283007,0
{job=theodolite-stu200776/combined-trace-podmonitor},1651283012,0
{job=theodolite-stu200776/combined-trace-podmonitor},1651283017,0
{job=theodolite-stu200776/combined-trace-podmonitor},1651283022,0
{job=theodolite-stu200776/combined-trace-podmonitor},1651283027,0
{job=theodolite-stu200776/combined-trace-podmonitor},1651283032,0
{job=theodolite-stu200776/combined-trace-podmonitor},1651283037,0
{job=theodolite-stu200776/combined-trace-podmonitor},1651283042,0
{job=theodolite-stu200776/combined-trace-podmonitor},1651283047,0
{job=theodolite-stu200776/combined-trace-podmonitor},1651283052,0
{job=theodolite-stu200776/combined-trace-podmonitor},1651283057,0
{job=theodolite-stu200776/combined-trace-podmonitor},1651283062,0
{job=theodolite-stu200776/combined-trace-podmonitor},1651283067,0
{job=theodolite-stu200776/combined-trace-podmonitor},1651283072,0
{job=theodolite-stu200776/combined-trace-podmonitor},1651283077,0
{job=theodolite-stu200776/combined-trace-podmonitor},1651283082,0
{job=theodolite-stu200776/combined-trace-podmonitor},1651283087,0
{job=theodolite-stu200776/combined-trace-podmonitor},1651283092,0
{job=theodolite-stu200776/combined-trace-podmonitor},1651283097,0
{job=theodolite-stu200776/combined-trace-podmonitor},1651283102,0
{job=theodolite-stu200776/combined-trace-podmonitor},1651283107,0
{job=theodolite-stu200776/combined-trace-podmonitor},1651283112,0
{job=theodolite-stu200776/combined-trace-podmonitor},1651283117,0
{job=theodolite-stu200776/combined-trace-podmonitor},1651283122,0
{job=theodolite-stu200776/combined-trace-podmonitor},1651283127,0
{job=theodolite-stu200776/combined-trace-podmonitor},1651283132,0
{job=theodolite-stu200776/combined-trace-podmonitor},1651283137,0
{job=theodolite-stu200776/combined-trace-podmonitor},1651283142,0
{job=theodolite-stu200776/combined-trace-podmonitor},1651283147,0
