labels,timestamp,value
{consumergroup=__strimzi-topic-operator-kstreams},1651408269,0
{consumergroup=__strimzi-topic-operator-kstreams},1651408274,0
{consumergroup=__strimzi-topic-operator-kstreams},1651408279,0
{consumergroup=__strimzi-topic-operator-kstreams},1651408284,0
{consumergroup=__strimzi-topic-operator-kstreams},1651408289,0
{consumergroup=__strimzi-topic-operator-kstreams},1651408294,0
{consumergroup=__strimzi-topic-operator-kstreams},1651408299,0
{consumergroup=__strimzi-topic-operator-kstreams},1651408304,0
{consumergroup=__strimzi-topic-operator-kstreams},1651408309,0
{consumergroup=__strimzi-topic-operator-kstreams},1651408314,0
{consumergroup=__strimzi-topic-operator-kstreams},1651408319,0
{consumergroup=__strimzi-topic-operator-kstreams},1651408324,0
{consumergroup=__strimzi-topic-operator-kstreams},1651408329,0
{consumergroup=__strimzi-topic-operator-kstreams},1651408334,0
{consumergroup=__strimzi-topic-operator-kstreams},1651408339,0
{consumergroup=__strimzi-topic-operator-kstreams},1651408344,0
{consumergroup=__strimzi-topic-operator-kstreams},1651408349,0
{consumergroup=__strimzi-topic-operator-kstreams},1651408354,0
{consumergroup=__strimzi-topic-operator-kstreams},1651408359,0
{consumergroup=__strimzi-topic-operator-kstreams},1651408364,0
{consumergroup=__strimzi-topic-operator-kstreams},1651408369,0
{consumergroup=__strimzi-topic-operator-kstreams},1651408374,0
{consumergroup=__strimzi-topic-operator-kstreams},1651408379,0
{consumergroup=__strimzi-topic-operator-kstreams},1651408384,0
{consumergroup=__strimzi-topic-operator-kstreams},1651408389,0
{consumergroup=__strimzi-topic-operator-kstreams},1651408394,0
{consumergroup=__strimzi-topic-operator-kstreams},1651408399,0
{consumergroup=__strimzi-topic-operator-kstreams},1651408404,0
{consumergroup=__strimzi-topic-operator-kstreams},1651408409,0
{consumergroup=__strimzi-topic-operator-kstreams},1651408414,0
{consumergroup=__strimzi-topic-operator-kstreams},1651408419,0
{consumergroup=__strimzi-topic-operator-kstreams},1651408424,0
{consumergroup=__strimzi-topic-operator-kstreams},1651408429,0
{consumergroup=__strimzi-topic-operator-kstreams},1651408434,0
{consumergroup=__strimzi-topic-operator-kstreams},1651408439,0
{consumergroup=__strimzi-topic-operator-kstreams},1651408444,0
{consumergroup=__strimzi-topic-operator-kstreams},1651408449,0
{consumergroup=__strimzi-topic-operator-kstreams},1651408454,0
{consumergroup=__strimzi-topic-operator-kstreams},1651408459,0
{consumergroup=__strimzi-topic-operator-kstreams},1651408464,0
{consumergroup=__strimzi-topic-operator-kstreams},1651408469,0
{consumergroup=__strimzi-topic-operator-kstreams},1651408474,0
{consumergroup=__strimzi-topic-operator-kstreams},1651408479,0
{consumergroup=__strimzi-topic-operator-kstreams},1651408484,0
{consumergroup=__strimzi-topic-operator-kstreams},1651408489,0
{consumergroup=__strimzi-topic-operator-kstreams},1651408494,0
{consumergroup=__strimzi-topic-operator-kstreams},1651408499,0
{consumergroup=__strimzi-topic-operator-kstreams},1651408504,0
{consumergroup=__strimzi-topic-operator-kstreams},1651408509,0
{consumergroup=__strimzi-topic-operator-kstreams},1651408514,0
{consumergroup=__strimzi-topic-operator-kstreams},1651408519,0
{consumergroup=adapter-service},1651408299,213293
{consumergroup=adapter-service},1651408304,213293
{consumergroup=adapter-service},1651408309,213293
{consumergroup=adapter-service},1651408314,152406
{consumergroup=adapter-service},1651408319,152406
{consumergroup=adapter-service},1651408324,152406
{consumergroup=adapter-service},1651408329,52465
{consumergroup=adapter-service},1651408334,52465
{consumergroup=adapter-service},1651408339,52465
{consumergroup=adapter-service},1651408344,75570
{consumergroup=adapter-service},1651408349,75570
{consumergroup=adapter-service},1651408354,75570
{consumergroup=adapter-service},1651408359,41919
{consumergroup=adapter-service},1651408364,41919
{consumergroup=adapter-service},1651408369,41919
{consumergroup=adapter-service},1651408374,69599
{consumergroup=adapter-service},1651408379,69599
{consumergroup=adapter-service},1651408384,69599
{consumergroup=adapter-service},1651408389,32026
{consumergroup=adapter-service},1651408394,32026
{consumergroup=adapter-service},1651408399,32026
{consumergroup=adapter-service},1651408404,67055
{consumergroup=adapter-service},1651408409,67055
{consumergroup=adapter-service},1651408414,67055
{consumergroup=adapter-service},1651408419,21742
{consumergroup=adapter-service},1651408424,21742
{consumergroup=adapter-service},1651408429,21742
{consumergroup=adapter-service},1651408434,22088
{consumergroup=adapter-service},1651408439,22088
{consumergroup=adapter-service},1651408444,22088
{consumergroup=adapter-service},1651408449,82743
{consumergroup=adapter-service},1651408454,82743
{consumergroup=adapter-service},1651408459,82743
{consumergroup=adapter-service},1651408464,12778
{consumergroup=adapter-service},1651408469,12778
{consumergroup=adapter-service},1651408474,12778
{consumergroup=adapter-service},1651408479,124210
{consumergroup=adapter-service},1651408484,124210
{consumergroup=adapter-service},1651408489,124210
{consumergroup=adapter-service},1651408494,35963
{consumergroup=adapter-service},1651408499,35963
{consumergroup=adapter-service},1651408504,35963
{consumergroup=adapter-service},1651408509,119263
{consumergroup=adapter-service},1651408514,119263
{consumergroup=adapter-service},1651408519,119263
