labels,timestamp,value
{consumergroup=__strimzi-topic-operator-kstreams},1651417793,0
{consumergroup=__strimzi-topic-operator-kstreams},1651417803,7
{consumergroup=__strimzi-topic-operator-kstreams},1651417808,7
{consumergroup=__strimzi-topic-operator-kstreams},1651417813,7
{consumergroup=__strimzi-topic-operator-kstreams},1651417818,14
{consumergroup=__strimzi-topic-operator-kstreams},1651417823,14
{consumergroup=__strimzi-topic-operator-kstreams},1651417828,14
{consumergroup=__strimzi-topic-operator-kstreams},1651417833,0
{consumergroup=__strimzi-topic-operator-kstreams},1651417838,0
{consumergroup=__strimzi-topic-operator-kstreams},1651417843,0
{consumergroup=__strimzi-topic-operator-kstreams},1651417848,0
{consumergroup=__strimzi-topic-operator-kstreams},1651417853,0
{consumergroup=__strimzi-topic-operator-kstreams},1651417858,0
{consumergroup=__strimzi-topic-operator-kstreams},1651417863,0
{consumergroup=__strimzi-topic-operator-kstreams},1651417868,0
{consumergroup=__strimzi-topic-operator-kstreams},1651417873,0
{consumergroup=__strimzi-topic-operator-kstreams},1651417878,0
{consumergroup=__strimzi-topic-operator-kstreams},1651417883,0
{consumergroup=__strimzi-topic-operator-kstreams},1651417888,0
{consumergroup=__strimzi-topic-operator-kstreams},1651417893,0
{consumergroup=__strimzi-topic-operator-kstreams},1651417898,0
{consumergroup=__strimzi-topic-operator-kstreams},1651417903,0
{consumergroup=__strimzi-topic-operator-kstreams},1651417908,0
{consumergroup=__strimzi-topic-operator-kstreams},1651417913,0
{consumergroup=__strimzi-topic-operator-kstreams},1651417918,0
{consumergroup=__strimzi-topic-operator-kstreams},1651417923,0
{consumergroup=__strimzi-topic-operator-kstreams},1651417928,0
{consumergroup=__strimzi-topic-operator-kstreams},1651417933,0
{consumergroup=__strimzi-topic-operator-kstreams},1651417938,0
{consumergroup=__strimzi-topic-operator-kstreams},1651417943,0
{consumergroup=__strimzi-topic-operator-kstreams},1651417948,0
{consumergroup=__strimzi-topic-operator-kstreams},1651417953,0
{consumergroup=__strimzi-topic-operator-kstreams},1651417958,0
{consumergroup=__strimzi-topic-operator-kstreams},1651417963,0
{consumergroup=__strimzi-topic-operator-kstreams},1651417968,0
{consumergroup=__strimzi-topic-operator-kstreams},1651417973,0
{consumergroup=__strimzi-topic-operator-kstreams},1651417978,0
{consumergroup=__strimzi-topic-operator-kstreams},1651417983,0
{consumergroup=__strimzi-topic-operator-kstreams},1651417988,0
{consumergroup=__strimzi-topic-operator-kstreams},1651417993,0
{consumergroup=__strimzi-topic-operator-kstreams},1651417998,0
{consumergroup=__strimzi-topic-operator-kstreams},1651418003,0
{consumergroup=__strimzi-topic-operator-kstreams},1651418008,0
{consumergroup=__strimzi-topic-operator-kstreams},1651418013,0
{consumergroup=__strimzi-topic-operator-kstreams},1651418018,0
{consumergroup=__strimzi-topic-operator-kstreams},1651418023,0
{consumergroup=__strimzi-topic-operator-kstreams},1651418028,0
{consumergroup=__strimzi-topic-operator-kstreams},1651418033,0
{consumergroup=__strimzi-topic-operator-kstreams},1651418038,0
{consumergroup=__strimzi-topic-operator-kstreams},1651418043,0
{consumergroup=__strimzi-topic-operator-kstreams},1651418048,0
{consumergroup=__strimzi-topic-operator-kstreams},1651418053,0
{consumergroup=adapter-service},1651417793,36905
{consumergroup=adapter-service},1651417833,70129
{consumergroup=adapter-service},1651417838,70129
{consumergroup=adapter-service},1651417843,70129
{consumergroup=adapter-service},1651417848,171576
{consumergroup=adapter-service},1651417853,171576
{consumergroup=adapter-service},1651417858,171576
{consumergroup=adapter-service},1651417863,186899
{consumergroup=adapter-service},1651417868,186899
{consumergroup=adapter-service},1651417873,186899
{consumergroup=adapter-service},1651417878,197656
{consumergroup=adapter-service},1651417883,197656
{consumergroup=adapter-service},1651417888,197656
{consumergroup=adapter-service},1651417893,221177
{consumergroup=adapter-service},1651417898,221177
{consumergroup=adapter-service},1651417903,221177
{consumergroup=adapter-service},1651417908,173003
{consumergroup=adapter-service},1651417913,173003
{consumergroup=adapter-service},1651417918,173003
{consumergroup=adapter-service},1651417923,193556
{consumergroup=adapter-service},1651417928,193556
{consumergroup=adapter-service},1651417933,193556
{consumergroup=adapter-service},1651417938,221150
{consumergroup=adapter-service},1651417943,221150
{consumergroup=adapter-service},1651417948,221150
{consumergroup=adapter-service},1651417953,216049
{consumergroup=adapter-service},1651417958,216049
{consumergroup=adapter-service},1651417963,216049
{consumergroup=adapter-service},1651417968,201958
{consumergroup=adapter-service},1651417973,201958
{consumergroup=adapter-service},1651417978,201958
{consumergroup=adapter-service},1651417983,203571
{consumergroup=adapter-service},1651417988,203571
{consumergroup=adapter-service},1651417993,203571
{consumergroup=adapter-service},1651417998,227880
{consumergroup=adapter-service},1651418003,227880
{consumergroup=adapter-service},1651418008,227880
{consumergroup=adapter-service},1651418013,200189
{consumergroup=adapter-service},1651418018,200189
{consumergroup=adapter-service},1651418023,200189
{consumergroup=adapter-service},1651418028,206989
{consumergroup=adapter-service},1651418033,206989
{consumergroup=adapter-service},1651418038,206989
{consumergroup=adapter-service},1651418043,228957
{consumergroup=adapter-service},1651418048,228957
{consumergroup=adapter-service},1651418053,228957
