labels,timestamp,value
{consumergroup=__strimzi-topic-operator-kstreams},1651416607,0
{consumergroup=__strimzi-topic-operator-kstreams},1651416612,7
{consumergroup=__strimzi-topic-operator-kstreams},1651416617,7
{consumergroup=__strimzi-topic-operator-kstreams},1651416622,7
{consumergroup=__strimzi-topic-operator-kstreams},1651416627,20
{consumergroup=__strimzi-topic-operator-kstreams},1651416632,20
{consumergroup=__strimzi-topic-operator-kstreams},1651416637,20
{consumergroup=__strimzi-topic-operator-kstreams},1651416642,0
{consumergroup=__strimzi-topic-operator-kstreams},1651416647,0
{consumergroup=__strimzi-topic-operator-kstreams},1651416652,0
{consumergroup=__strimzi-topic-operator-kstreams},1651416657,0
{consumergroup=__strimzi-topic-operator-kstreams},1651416662,0
{consumergroup=__strimzi-topic-operator-kstreams},1651416667,0
{consumergroup=__strimzi-topic-operator-kstreams},1651416672,0
{consumergroup=__strimzi-topic-operator-kstreams},1651416677,0
{consumergroup=__strimzi-topic-operator-kstreams},1651416682,0
{consumergroup=__strimzi-topic-operator-kstreams},1651416687,0
{consumergroup=__strimzi-topic-operator-kstreams},1651416692,0
{consumergroup=__strimzi-topic-operator-kstreams},1651416697,0
{consumergroup=__strimzi-topic-operator-kstreams},1651416702,0
{consumergroup=__strimzi-topic-operator-kstreams},1651416707,0
{consumergroup=__strimzi-topic-operator-kstreams},1651416712,0
{consumergroup=__strimzi-topic-operator-kstreams},1651416717,0
{consumergroup=__strimzi-topic-operator-kstreams},1651416722,0
{consumergroup=__strimzi-topic-operator-kstreams},1651416727,0
{consumergroup=__strimzi-topic-operator-kstreams},1651416732,0
{consumergroup=__strimzi-topic-operator-kstreams},1651416737,0
{consumergroup=__strimzi-topic-operator-kstreams},1651416742,0
{consumergroup=__strimzi-topic-operator-kstreams},1651416747,0
{consumergroup=__strimzi-topic-operator-kstreams},1651416752,0
{consumergroup=__strimzi-topic-operator-kstreams},1651416757,0
{consumergroup=__strimzi-topic-operator-kstreams},1651416762,0
{consumergroup=__strimzi-topic-operator-kstreams},1651416767,0
{consumergroup=__strimzi-topic-operator-kstreams},1651416772,0
{consumergroup=__strimzi-topic-operator-kstreams},1651416777,0
{consumergroup=__strimzi-topic-operator-kstreams},1651416782,0
{consumergroup=__strimzi-topic-operator-kstreams},1651416787,0
{consumergroup=__strimzi-topic-operator-kstreams},1651416792,0
{consumergroup=__strimzi-topic-operator-kstreams},1651416797,0
{consumergroup=__strimzi-topic-operator-kstreams},1651416802,0
{consumergroup=__strimzi-topic-operator-kstreams},1651416807,0
{consumergroup=__strimzi-topic-operator-kstreams},1651416812,0
{consumergroup=__strimzi-topic-operator-kstreams},1651416817,0
{consumergroup=__strimzi-topic-operator-kstreams},1651416822,0
{consumergroup=__strimzi-topic-operator-kstreams},1651416827,0
{consumergroup=__strimzi-topic-operator-kstreams},1651416832,0
{consumergroup=__strimzi-topic-operator-kstreams},1651416837,0
{consumergroup=__strimzi-topic-operator-kstreams},1651416842,0
{consumergroup=__strimzi-topic-operator-kstreams},1651416847,0
{consumergroup=__strimzi-topic-operator-kstreams},1651416852,0
{consumergroup=__strimzi-topic-operator-kstreams},1651416857,0
{consumergroup=__strimzi-topic-operator-kstreams},1651416862,0
{consumergroup=__strimzi-topic-operator-kstreams},1651416867,0
{consumergroup=adapter-service},1651416607,38690
{consumergroup=adapter-service},1651416612,0
{consumergroup=adapter-service},1651416617,0
{consumergroup=adapter-service},1651416622,0
{consumergroup=adapter-service},1651416642,0
{consumergroup=adapter-service},1651416647,0
{consumergroup=adapter-service},1651416652,0
{consumergroup=adapter-service},1651416657,61250
{consumergroup=adapter-service},1651416662,61250
{consumergroup=adapter-service},1651416667,61250
{consumergroup=adapter-service},1651416672,129102
{consumergroup=adapter-service},1651416677,129102
{consumergroup=adapter-service},1651416682,129102
{consumergroup=adapter-service},1651416687,93619
{consumergroup=adapter-service},1651416692,93619
{consumergroup=adapter-service},1651416697,93619
{consumergroup=adapter-service},1651416702,66067
{consumergroup=adapter-service},1651416707,66067
{consumergroup=adapter-service},1651416712,66067
{consumergroup=adapter-service},1651416717,51285
{consumergroup=adapter-service},1651416722,51285
{consumergroup=adapter-service},1651416727,51285
{consumergroup=adapter-service},1651416732,58190
{consumergroup=adapter-service},1651416737,58190
{consumergroup=adapter-service},1651416742,58190
{consumergroup=adapter-service},1651416747,64387
{consumergroup=adapter-service},1651416752,64387
{consumergroup=adapter-service},1651416757,64387
{consumergroup=adapter-service},1651416762,55424
{consumergroup=adapter-service},1651416767,55424
{consumergroup=adapter-service},1651416772,55424
{consumergroup=adapter-service},1651416777,47162
{consumergroup=adapter-service},1651416782,47162
{consumergroup=adapter-service},1651416787,47162
{consumergroup=adapter-service},1651416792,48563
{consumergroup=adapter-service},1651416797,48563
{consumergroup=adapter-service},1651416802,48563
{consumergroup=adapter-service},1651416807,61716
{consumergroup=adapter-service},1651416812,61716
{consumergroup=adapter-service},1651416817,61716
{consumergroup=adapter-service},1651416822,55655
{consumergroup=adapter-service},1651416827,55655
{consumergroup=adapter-service},1651416832,55655
{consumergroup=adapter-service},1651416837,51450
{consumergroup=adapter-service},1651416842,51450
{consumergroup=adapter-service},1651416847,51450
{consumergroup=adapter-service},1651416852,47801
{consumergroup=adapter-service},1651416857,47801
{consumergroup=adapter-service},1651416862,47801
{consumergroup=adapter-service},1651416867,53418
