labels,timestamp,value
{consumergroup=__strimzi-topic-operator-kstreams},1651407052,13
{consumergroup=__strimzi-topic-operator-kstreams},1651407057,13
{consumergroup=__strimzi-topic-operator-kstreams},1651407062,13
{consumergroup=__strimzi-topic-operator-kstreams},1651407067,0
{consumergroup=__strimzi-topic-operator-kstreams},1651407072,0
{consumergroup=__strimzi-topic-operator-kstreams},1651407077,0
{consumergroup=__strimzi-topic-operator-kstreams},1651407082,0
{consumergroup=__strimzi-topic-operator-kstreams},1651407087,0
{consumergroup=__strimzi-topic-operator-kstreams},1651407092,0
{consumergroup=__strimzi-topic-operator-kstreams},1651407097,0
{consumergroup=__strimzi-topic-operator-kstreams},1651407102,0
{consumergroup=__strimzi-topic-operator-kstreams},1651407107,0
{consumergroup=__strimzi-topic-operator-kstreams},1651407112,0
{consumergroup=__strimzi-topic-operator-kstreams},1651407117,0
{consumergroup=__strimzi-topic-operator-kstreams},1651407122,0
{consumergroup=__strimzi-topic-operator-kstreams},1651407127,0
{consumergroup=__strimzi-topic-operator-kstreams},1651407132,0
{consumergroup=__strimzi-topic-operator-kstreams},1651407137,0
{consumergroup=__strimzi-topic-operator-kstreams},1651407142,0
{consumergroup=__strimzi-topic-operator-kstreams},1651407147,0
{consumergroup=__strimzi-topic-operator-kstreams},1651407152,0
{consumergroup=__strimzi-topic-operator-kstreams},1651407157,0
{consumergroup=__strimzi-topic-operator-kstreams},1651407162,0
{consumergroup=__strimzi-topic-operator-kstreams},1651407167,0
{consumergroup=__strimzi-topic-operator-kstreams},1651407172,0
{consumergroup=__strimzi-topic-operator-kstreams},1651407177,0
{consumergroup=__strimzi-topic-operator-kstreams},1651407182,0
{consumergroup=__strimzi-topic-operator-kstreams},1651407187,0
{consumergroup=__strimzi-topic-operator-kstreams},1651407192,0
{consumergroup=__strimzi-topic-operator-kstreams},1651407197,0
{consumergroup=__strimzi-topic-operator-kstreams},1651407202,0
{consumergroup=__strimzi-topic-operator-kstreams},1651407207,0
{consumergroup=__strimzi-topic-operator-kstreams},1651407212,0
{consumergroup=__strimzi-topic-operator-kstreams},1651407217,0
{consumergroup=__strimzi-topic-operator-kstreams},1651407222,0
{consumergroup=__strimzi-topic-operator-kstreams},1651407227,0
{consumergroup=__strimzi-topic-operator-kstreams},1651407232,0
{consumergroup=__strimzi-topic-operator-kstreams},1651407237,0
{consumergroup=__strimzi-topic-operator-kstreams},1651407242,0
{consumergroup=__strimzi-topic-operator-kstreams},1651407247,0
{consumergroup=__strimzi-topic-operator-kstreams},1651407252,0
{consumergroup=__strimzi-topic-operator-kstreams},1651407257,0
{consumergroup=__strimzi-topic-operator-kstreams},1651407262,0
{consumergroup=__strimzi-topic-operator-kstreams},1651407267,0
{consumergroup=__strimzi-topic-operator-kstreams},1651407272,0
{consumergroup=__strimzi-topic-operator-kstreams},1651407277,0
{consumergroup=__strimzi-topic-operator-kstreams},1651407282,0
{consumergroup=__strimzi-topic-operator-kstreams},1651407287,0
{consumergroup=__strimzi-topic-operator-kstreams},1651407292,0
{consumergroup=__strimzi-topic-operator-kstreams},1651407297,0
{consumergroup=__strimzi-topic-operator-kstreams},1651407302,0
{consumergroup=__strimzi-topic-operator-kstreams},1651407307,0
{consumergroup=adapter-service},1651407082,9953
{consumergroup=adapter-service},1651407087,9953
{consumergroup=adapter-service},1651407092,9953
{consumergroup=adapter-service},1651407097,85204
{consumergroup=adapter-service},1651407102,85204
{consumergroup=adapter-service},1651407107,85204
{consumergroup=adapter-service},1651407112,147361
{consumergroup=adapter-service},1651407117,147361
{consumergroup=adapter-service},1651407122,147361
{consumergroup=adapter-service},1651407127,143821
{consumergroup=adapter-service},1651407132,143821
{consumergroup=adapter-service},1651407137,143821
{consumergroup=adapter-service},1651407142,66535
{consumergroup=adapter-service},1651407147,66535
{consumergroup=adapter-service},1651407152,66535
{consumergroup=adapter-service},1651407157,97877
{consumergroup=adapter-service},1651407162,97877
{consumergroup=adapter-service},1651407167,97877
{consumergroup=adapter-service},1651407172,123339
{consumergroup=adapter-service},1651407177,123339
{consumergroup=adapter-service},1651407182,123339
{consumergroup=adapter-service},1651407187,111072
{consumergroup=adapter-service},1651407192,111072
{consumergroup=adapter-service},1651407197,111072
{consumergroup=adapter-service},1651407202,116457
{consumergroup=adapter-service},1651407207,116457
{consumergroup=adapter-service},1651407212,116457
{consumergroup=adapter-service},1651407217,126581
{consumergroup=adapter-service},1651407222,126581
{consumergroup=adapter-service},1651407227,126581
{consumergroup=adapter-service},1651407232,177097
{consumergroup=adapter-service},1651407237,177097
{consumergroup=adapter-service},1651407242,177097
{consumergroup=adapter-service},1651407247,171005
{consumergroup=adapter-service},1651407252,171005
{consumergroup=adapter-service},1651407257,171005
{consumergroup=adapter-service},1651407262,137179
{consumergroup=adapter-service},1651407267,137179
{consumergroup=adapter-service},1651407272,137179
{consumergroup=adapter-service},1651407277,166275
{consumergroup=adapter-service},1651407282,166275
{consumergroup=adapter-service},1651407287,166275
{consumergroup=adapter-service},1651407292,141819
{consumergroup=adapter-service},1651407297,141819
{consumergroup=adapter-service},1651407302,141819
{consumergroup=adapter-service},1651407307,160372
