labels,timestamp,value
{consumergroup=__strimzi-topic-operator-kstreams},1651303582,0
{consumergroup=__strimzi-topic-operator-kstreams},1651303587,0
{consumergroup=__strimzi-topic-operator-kstreams},1651303592,0
{consumergroup=__strimzi-topic-operator-kstreams},1651303597,2
{consumergroup=__strimzi-topic-operator-kstreams},1651303602,2
{consumergroup=__strimzi-topic-operator-kstreams},1651303607,2
{consumergroup=__strimzi-topic-operator-kstreams},1651303612,0
{consumergroup=__strimzi-topic-operator-kstreams},1651303617,0
{consumergroup=__strimzi-topic-operator-kstreams},1651303622,0
{consumergroup=__strimzi-topic-operator-kstreams},1651303627,1
{consumergroup=__strimzi-topic-operator-kstreams},1651303632,1
{consumergroup=__strimzi-topic-operator-kstreams},1651303637,1
{consumergroup=__strimzi-topic-operator-kstreams},1651303642,0
{consumergroup=__strimzi-topic-operator-kstreams},1651303647,0
{consumergroup=__strimzi-topic-operator-kstreams},1651303652,0
{consumergroup=__strimzi-topic-operator-kstreams},1651303657,0
{consumergroup=__strimzi-topic-operator-kstreams},1651303662,0
{consumergroup=__strimzi-topic-operator-kstreams},1651303667,0
{consumergroup=__strimzi-topic-operator-kstreams},1651303672,0
{consumergroup=__strimzi-topic-operator-kstreams},1651303677,0
{consumergroup=__strimzi-topic-operator-kstreams},1651303682,0
{consumergroup=__strimzi-topic-operator-kstreams},1651303687,0
{consumergroup=__strimzi-topic-operator-kstreams},1651303692,0
{consumergroup=__strimzi-topic-operator-kstreams},1651303697,0
{consumergroup=__strimzi-topic-operator-kstreams},1651303702,0
{consumergroup=__strimzi-topic-operator-kstreams},1651303707,0
{consumergroup=__strimzi-topic-operator-kstreams},1651303712,0
{consumergroup=__strimzi-topic-operator-kstreams},1651303717,0
{consumergroup=__strimzi-topic-operator-kstreams},1651303722,0
{consumergroup=__strimzi-topic-operator-kstreams},1651303727,0
{consumergroup=__strimzi-topic-operator-kstreams},1651303732,0
{consumergroup=__strimzi-topic-operator-kstreams},1651303737,0
{consumergroup=__strimzi-topic-operator-kstreams},1651303742,0
{consumergroup=__strimzi-topic-operator-kstreams},1651303747,0
{consumergroup=__strimzi-topic-operator-kstreams},1651303752,0
{consumergroup=__strimzi-topic-operator-kstreams},1651303757,0
{consumergroup=__strimzi-topic-operator-kstreams},1651303762,0
{consumergroup=__strimzi-topic-operator-kstreams},1651303767,0
{consumergroup=__strimzi-topic-operator-kstreams},1651303772,0
{consumergroup=__strimzi-topic-operator-kstreams},1651303777,0
{consumergroup=__strimzi-topic-operator-kstreams},1651303782,0
{consumergroup=__strimzi-topic-operator-kstreams},1651303787,0
{consumergroup=__strimzi-topic-operator-kstreams},1651303792,0
{consumergroup=__strimzi-topic-operator-kstreams},1651303797,0
{consumergroup=__strimzi-topic-operator-kstreams},1651303802,0
{consumergroup=__strimzi-topic-operator-kstreams},1651303807,0
{consumergroup=__strimzi-topic-operator-kstreams},1651303812,0
{consumergroup=__strimzi-topic-operator-kstreams},1651303817,0
{consumergroup=__strimzi-topic-operator-kstreams},1651303822,0
{consumergroup=__strimzi-topic-operator-kstreams},1651303827,0
{consumergroup=__strimzi-topic-operator-kstreams},1651303832,0
{consumergroup=__strimzi-topic-operator-kstreams},1651303837,0
{consumergroup=__strimzi-topic-operator-kstreams},1651303842,0
{consumergroup=__strimzi-topic-operator-kstreams},1651303847,0
{consumergroup=__strimzi-topic-operator-kstreams},1651303852,0
{consumergroup=__strimzi-topic-operator-kstreams},1651303857,0
{consumergroup=__strimzi-topic-operator-kstreams},1651303862,0
{consumergroup=__strimzi-topic-operator-kstreams},1651303867,0
{consumergroup=__strimzi-topic-operator-kstreams},1651303872,0
{consumergroup=__strimzi-topic-operator-kstreams},1651303877,0
{consumergroup=__strimzi-topic-operator-kstreams},1651303882,0
{consumergroup=__strimzi-topic-operator-kstreams},1651303887,0
{consumergroup=__strimzi-topic-operator-kstreams},1651303892,0
{consumergroup=__strimzi-topic-operator-kstreams},1651303897,0
{consumergroup=__strimzi-topic-operator-kstreams},1651303902,0
{consumergroup=__strimzi-topic-operator-kstreams},1651303907,0
{consumergroup=__strimzi-topic-operator-kstreams},1651303912,0
{consumergroup=__strimzi-topic-operator-kstreams},1651303917,0
{consumergroup=__strimzi-topic-operator-kstreams},1651303922,0
{consumergroup=__strimzi-topic-operator-kstreams},1651303927,0
{consumergroup=__strimzi-topic-operator-kstreams},1651303932,0
{consumergroup=__strimzi-topic-operator-kstreams},1651303937,0
{consumergroup=__strimzi-topic-operator-kstreams},1651303942,0
{consumergroup=__strimzi-topic-operator-kstreams},1651303947,0
{consumergroup=__strimzi-topic-operator-kstreams},1651303952,0
{consumergroup=__strimzi-topic-operator-kstreams},1651303957,0
{consumergroup=__strimzi-topic-operator-kstreams},1651303962,0
{consumergroup=__strimzi-topic-operator-kstreams},1651303967,0
{consumergroup=__strimzi-topic-operator-kstreams},1651303972,0
{consumergroup=__strimzi-topic-operator-kstreams},1651303977,0
{consumergroup=__strimzi-topic-operator-kstreams},1651303982,0
{consumergroup=__strimzi-topic-operator-kstreams},1651303987,0
{consumergroup=__strimzi-topic-operator-kstreams},1651303992,0
{consumergroup=__strimzi-topic-operator-kstreams},1651303997,0
{consumergroup=__strimzi-topic-operator-kstreams},1651304002,0
{consumergroup=__strimzi-topic-operator-kstreams},1651304007,0
{consumergroup=__strimzi-topic-operator-kstreams},1651304012,0
{consumergroup=__strimzi-topic-operator-kstreams},1651304017,0
{consumergroup=__strimzi-topic-operator-kstreams},1651304022,0
{consumergroup=__strimzi-topic-operator-kstreams},1651304027,0
{consumergroup=__strimzi-topic-operator-kstreams},1651304032,0
{consumergroup=__strimzi-topic-operator-kstreams},1651304037,0
{consumergroup=__strimzi-topic-operator-kstreams},1651304042,0
{consumergroup=__strimzi-topic-operator-kstreams},1651304047,0
{consumergroup=__strimzi-topic-operator-kstreams},1651304052,0
{consumergroup=__strimzi-topic-operator-kstreams},1651304057,0
{consumergroup=__strimzi-topic-operator-kstreams},1651304062,0
{consumergroup=__strimzi-topic-operator-kstreams},1651304067,0
{consumergroup=__strimzi-topic-operator-kstreams},1651304072,0
{consumergroup=__strimzi-topic-operator-kstreams},1651304077,0
{consumergroup=__strimzi-topic-operator-kstreams},1651304082,0
{consumergroup=adapter-service},1651303612,0
{consumergroup=adapter-service},1651303617,0
{consumergroup=adapter-service},1651303622,0
{consumergroup=adapter-service},1651303627,824
{consumergroup=adapter-service},1651303632,824
{consumergroup=adapter-service},1651303637,824
{consumergroup=adapter-service},1651303642,2366
{consumergroup=adapter-service},1651303647,2366
{consumergroup=adapter-service},1651303652,2366
{consumergroup=adapter-service},1651303657,9347
{consumergroup=adapter-service},1651303662,9347
{consumergroup=adapter-service},1651303667,9347
{consumergroup=adapter-service},1651303672,13922
{consumergroup=adapter-service},1651303677,13922
{consumergroup=adapter-service},1651303682,13922
{consumergroup=adapter-service},1651303687,13623
{consumergroup=adapter-service},1651303692,13623
{consumergroup=adapter-service},1651303697,13623
{consumergroup=adapter-service},1651303702,13041
{consumergroup=adapter-service},1651303707,13041
{consumergroup=adapter-service},1651303712,13041
{consumergroup=adapter-service},1651303717,13542
{consumergroup=adapter-service},1651303722,13542
{consumergroup=adapter-service},1651303727,13542
{consumergroup=adapter-service},1651303732,12559
{consumergroup=adapter-service},1651303737,12559
{consumergroup=adapter-service},1651303742,12559
{consumergroup=adapter-service},1651303747,12401
{consumergroup=adapter-service},1651303752,12401
{consumergroup=adapter-service},1651303757,12401
{consumergroup=adapter-service},1651303762,12248
{consumergroup=adapter-service},1651303767,12248
{consumergroup=adapter-service},1651303772,12248
{consumergroup=adapter-service},1651303777,12170
{consumergroup=adapter-service},1651303782,12170
{consumergroup=adapter-service},1651303787,12170
{consumergroup=adapter-service},1651303792,11974
{consumergroup=adapter-service},1651303797,11974
{consumergroup=adapter-service},1651303802,11974
{consumergroup=adapter-service},1651303807,11713
{consumergroup=adapter-service},1651303812,11713
{consumergroup=adapter-service},1651303817,11713
{consumergroup=adapter-service},1651303822,11809
{consumergroup=adapter-service},1651303827,11809
{consumergroup=adapter-service},1651303832,11809
{consumergroup=adapter-service},1651303837,11569
{consumergroup=adapter-service},1651303842,11569
{consumergroup=adapter-service},1651303847,11569
{consumergroup=adapter-service},1651303852,12218
{consumergroup=adapter-service},1651303857,12218
{consumergroup=adapter-service},1651303862,12218
{consumergroup=adapter-service},1651303867,11861
{consumergroup=adapter-service},1651303872,11861
{consumergroup=adapter-service},1651303877,11861
{consumergroup=adapter-service},1651303882,10907
{consumergroup=adapter-service},1651303887,10907
{consumergroup=adapter-service},1651303892,10907
{consumergroup=adapter-service},1651303897,11580
{consumergroup=adapter-service},1651303902,11580
{consumergroup=adapter-service},1651303907,11580
{consumergroup=adapter-service},1651303912,10546
{consumergroup=adapter-service},1651303917,10546
{consumergroup=adapter-service},1651303922,10546
{consumergroup=adapter-service},1651303927,11147
{consumergroup=adapter-service},1651303932,11147
{consumergroup=adapter-service},1651303937,11147
{consumergroup=adapter-service},1651303942,10932
{consumergroup=adapter-service},1651303947,10932
{consumergroup=adapter-service},1651303952,10932
{consumergroup=adapter-service},1651303957,10050
{consumergroup=adapter-service},1651303962,10050
{consumergroup=adapter-service},1651303967,10050
{consumergroup=adapter-service},1651303972,9915
{consumergroup=adapter-service},1651303977,9915
{consumergroup=adapter-service},1651303982,9915
{consumergroup=adapter-service},1651303987,9700
{consumergroup=adapter-service},1651303992,9700
{consumergroup=adapter-service},1651303997,9700
{consumergroup=adapter-service},1651304002,9561
{consumergroup=adapter-service},1651304007,9561
{consumergroup=adapter-service},1651304012,9561
{consumergroup=adapter-service},1651304017,9316
{consumergroup=adapter-service},1651304022,9316
{consumergroup=adapter-service},1651304027,9316
{consumergroup=adapter-service},1651304032,9942
{consumergroup=adapter-service},1651304037,9942
{consumergroup=adapter-service},1651304042,9942
{consumergroup=adapter-service},1651304047,9847
{consumergroup=adapter-service},1651304052,9847
{consumergroup=adapter-service},1651304057,9847
{consumergroup=adapter-service},1651304062,8893
{consumergroup=adapter-service},1651304067,8893
{consumergroup=adapter-service},1651304072,8893
{consumergroup=adapter-service},1651304077,8691
{consumergroup=adapter-service},1651304082,8691
{consumergroup=landscape-service},1651303627,41541
{consumergroup=landscape-service},1651303632,41541
{consumergroup=landscape-service},1651303637,41541
{consumergroup=landscape-service},1651303642,28845
{consumergroup=landscape-service},1651303647,28845
{consumergroup=landscape-service},1651303652,28845
{consumergroup=landscape-service},1651303657,14992
{consumergroup=landscape-service},1651303662,14992
{consumergroup=landscape-service},1651303667,14992
{consumergroup=landscape-service},1651303672,13979
{consumergroup=landscape-service},1651303677,13979
{consumergroup=landscape-service},1651303682,13979
{consumergroup=landscape-service},1651303687,12778
{consumergroup=landscape-service},1651303692,12778
{consumergroup=landscape-service},1651303697,12778
{consumergroup=landscape-service},1651303702,13009
{consumergroup=landscape-service},1651303707,13009
{consumergroup=landscape-service},1651303712,13009
{consumergroup=landscape-service},1651303717,12403
{consumergroup=landscape-service},1651303722,12403
{consumergroup=landscape-service},1651303727,12403
{consumergroup=landscape-service},1651303732,11560
{consumergroup=landscape-service},1651303737,11560
{consumergroup=landscape-service},1651303742,11560
{consumergroup=landscape-service},1651303747,10916
{consumergroup=landscape-service},1651303752,10916
{consumergroup=landscape-service},1651303757,10916
{consumergroup=landscape-service},1651303762,9784
{consumergroup=landscape-service},1651303767,9784
{consumergroup=landscape-service},1651303772,9784
{consumergroup=landscape-service},1651303777,9375
{consumergroup=landscape-service},1651303782,9375
{consumergroup=landscape-service},1651303787,9375
{consumergroup=landscape-service},1651303792,8626
{consumergroup=landscape-service},1651303797,8626
{consumergroup=landscape-service},1651303802,8626
{consumergroup=landscape-service},1651303807,8644
{consumergroup=landscape-service},1651303812,8644
{consumergroup=landscape-service},1651303817,8644
{consumergroup=landscape-service},1651303822,7703
{consumergroup=landscape-service},1651303827,7703
{consumergroup=landscape-service},1651303832,7703
{consumergroup=landscape-service},1651303837,7861
{consumergroup=landscape-service},1651303842,7861
{consumergroup=landscape-service},1651303847,7861
{consumergroup=landscape-service},1651303852,6618
{consumergroup=landscape-service},1651303857,6618
{consumergroup=landscape-service},1651303862,6618
{consumergroup=landscape-service},1651303867,6153
{consumergroup=landscape-service},1651303872,6153
{consumergroup=landscape-service},1651303877,6153
{consumergroup=landscape-service},1651303882,5642
{consumergroup=landscape-service},1651303887,5642
{consumergroup=landscape-service},1651303892,5642
{consumergroup=landscape-service},1651303897,5068
{consumergroup=landscape-service},1651303902,5068
{consumergroup=landscape-service},1651303907,5068
{consumergroup=landscape-service},1651303912,4339
{consumergroup=landscape-service},1651303917,4339
{consumergroup=landscape-service},1651303922,4339
{consumergroup=landscape-service},1651303927,3787
{consumergroup=landscape-service},1651303932,3787
{consumergroup=landscape-service},1651303937,3787
{consumergroup=landscape-service},1651303942,3209
{consumergroup=landscape-service},1651303947,3209
{consumergroup=landscape-service},1651303952,3209
{consumergroup=landscape-service},1651303957,2670
{consumergroup=landscape-service},1651303962,2670
{consumergroup=landscape-service},1651303967,2670
{consumergroup=landscape-service},1651303972,3074
{consumergroup=landscape-service},1651303977,3074
{consumergroup=landscape-service},1651303982,3074
{consumergroup=landscape-service},1651303987,1662
{consumergroup=landscape-service},1651303992,1662
{consumergroup=landscape-service},1651303997,1662
{consumergroup=landscape-service},1651304002,1251
{consumergroup=landscape-service},1651304007,1251
{consumergroup=landscape-service},1651304012,1251
{consumergroup=landscape-service},1651304017,481
{consumergroup=landscape-service},1651304022,481
{consumergroup=landscape-service},1651304027,481
{consumergroup=landscape-service},1651304032,0
{consumergroup=landscape-service},1651304037,0
{consumergroup=landscape-service},1651304042,0
{consumergroup=landscape-service},1651304062,15134
{consumergroup=landscape-service},1651304067,15134
{consumergroup=landscape-service},1651304072,15134
{consumergroup=landscape-service},1651304077,14576
{consumergroup=landscape-service},1651304082,14576
{consumergroup=trace-service},1651303627,42450
{consumergroup=trace-service},1651303632,42450
{consumergroup=trace-service},1651303637,42450
{consumergroup=trace-service},1651303642,21824
{consumergroup=trace-service},1651303647,21824
{consumergroup=trace-service},1651303652,21824
{consumergroup=trace-service},1651303657,16733
{consumergroup=trace-service},1651303662,16733
{consumergroup=trace-service},1651303667,16733
{consumergroup=trace-service},1651303672,44111
{consumergroup=trace-service},1651303677,44111
{consumergroup=trace-service},1651303682,44111
{consumergroup=trace-service},1651303687,27141
{consumergroup=trace-service},1651303692,27141
{consumergroup=trace-service},1651303697,27141
{consumergroup=trace-service},1651303702,54359
{consumergroup=trace-service},1651303707,54359
{consumergroup=trace-service},1651303712,54359
{consumergroup=trace-service},1651303717,15733
{consumergroup=trace-service},1651303722,15733
{consumergroup=trace-service},1651303727,15733
{consumergroup=trace-service},1651303732,50289
{consumergroup=trace-service},1651303737,50289
{consumergroup=trace-service},1651303742,50289
{consumergroup=trace-service},1651303747,26608
{consumergroup=trace-service},1651303752,26608
{consumergroup=trace-service},1651303757,26608
{consumergroup=trace-service},1651303762,52145
{consumergroup=trace-service},1651303767,52145
{consumergroup=trace-service},1651303772,52145
{consumergroup=trace-service},1651303777,22225
{consumergroup=trace-service},1651303782,22225
{consumergroup=trace-service},1651303787,22225
{consumergroup=trace-service},1651303792,73368
{consumergroup=trace-service},1651303797,73368
{consumergroup=trace-service},1651303802,73368
{consumergroup=trace-service},1651303807,29945
{consumergroup=trace-service},1651303812,29945
{consumergroup=trace-service},1651303817,29945
{consumergroup=trace-service},1651303822,83210
{consumergroup=trace-service},1651303827,83210
{consumergroup=trace-service},1651303832,83210
{consumergroup=trace-service},1651303837,22825
{consumergroup=trace-service},1651303842,22825
{consumergroup=trace-service},1651303847,22825
{consumergroup=trace-service},1651303852,57918
{consumergroup=trace-service},1651303857,57918
{consumergroup=trace-service},1651303862,57918
{consumergroup=trace-service},1651303867,19183
{consumergroup=trace-service},1651303872,19183
{consumergroup=trace-service},1651303877,19183
{consumergroup=trace-service},1651303882,76218
{consumergroup=trace-service},1651303887,76218
{consumergroup=trace-service},1651303892,76218
{consumergroup=trace-service},1651303897,25310
{consumergroup=trace-service},1651303902,25310
{consumergroup=trace-service},1651303907,25310
{consumergroup=trace-service},1651303912,53189
{consumergroup=trace-service},1651303917,53189
{consumergroup=trace-service},1651303922,53189
{consumergroup=trace-service},1651303927,21840
{consumergroup=trace-service},1651303932,21840
{consumergroup=trace-service},1651303937,21840
{consumergroup=trace-service},1651303942,55826
{consumergroup=trace-service},1651303947,55826
{consumergroup=trace-service},1651303952,55826
{consumergroup=trace-service},1651303957,22589
{consumergroup=trace-service},1651303962,22589
{consumergroup=trace-service},1651303967,22589
{consumergroup=trace-service},1651303972,55308
{consumergroup=trace-service},1651303977,55308
{consumergroup=trace-service},1651303982,55308
{consumergroup=trace-service},1651303987,20080
{consumergroup=trace-service},1651303992,20080
{consumergroup=trace-service},1651303997,20080
{consumergroup=trace-service},1651304002,74123
{consumergroup=trace-service},1651304007,74123
{consumergroup=trace-service},1651304012,74123
{consumergroup=trace-service},1651304017,29468
{consumergroup=trace-service},1651304022,29468
{consumergroup=trace-service},1651304027,29468
{consumergroup=trace-service},1651304032,55424
{consumergroup=trace-service},1651304037,55424
{consumergroup=trace-service},1651304042,55424
{consumergroup=trace-service},1651304047,26559
{consumergroup=trace-service},1651304052,26559
{consumergroup=trace-service},1651304057,26559
{consumergroup=trace-service},1651304062,77018
{consumergroup=trace-service},1651304067,77018
{consumergroup=trace-service},1651304072,77018
{consumergroup=trace-service},1651304077,21195
{consumergroup=trace-service},1651304082,21195
{consumergroup=trace-token-events-consumer},1651303612,0
{consumergroup=trace-token-events-consumer},1651303617,0
{consumergroup=trace-token-events-consumer},1651303622,0
{consumergroup=trace-token-events-consumer},1651303627,0
{consumergroup=trace-token-events-consumer},1651303632,0
{consumergroup=trace-token-events-consumer},1651303637,0
{consumergroup=trace-token-events-consumer},1651303642,0
{consumergroup=trace-token-events-consumer},1651303647,0
{consumergroup=trace-token-events-consumer},1651303652,0
{consumergroup=trace-token-events-consumer},1651303657,0
{consumergroup=trace-token-events-consumer},1651303662,0
{consumergroup=trace-token-events-consumer},1651303667,0
{consumergroup=trace-token-events-consumer},1651303672,0
{consumergroup=trace-token-events-consumer},1651303677,0
{consumergroup=trace-token-events-consumer},1651303682,0
{consumergroup=trace-token-events-consumer},1651303687,0
{consumergroup=trace-token-events-consumer},1651303692,0
{consumergroup=trace-token-events-consumer},1651303697,0
{consumergroup=trace-token-events-consumer},1651303702,0
{consumergroup=trace-token-events-consumer},1651303707,0
{consumergroup=trace-token-events-consumer},1651303712,0
{consumergroup=trace-token-events-consumer},1651303717,0
{consumergroup=trace-token-events-consumer},1651303722,0
{consumergroup=trace-token-events-consumer},1651303727,0
{consumergroup=trace-token-events-consumer},1651303732,0
{consumergroup=trace-token-events-consumer},1651303737,0
{consumergroup=trace-token-events-consumer},1651303742,0
{consumergroup=trace-token-events-consumer},1651303747,0
{consumergroup=trace-token-events-consumer},1651303752,0
{consumergroup=trace-token-events-consumer},1651303757,0
{consumergroup=trace-token-events-consumer},1651303762,0
{consumergroup=trace-token-events-consumer},1651303767,0
{consumergroup=trace-token-events-consumer},1651303772,0
{consumergroup=trace-token-events-consumer},1651303777,0
{consumergroup=trace-token-events-consumer},1651303782,0
{consumergroup=trace-token-events-consumer},1651303787,0
{consumergroup=trace-token-events-consumer},1651303792,0
{consumergroup=trace-token-events-consumer},1651303797,0
{consumergroup=trace-token-events-consumer},1651303802,0
{consumergroup=trace-token-events-consumer},1651303807,0
{consumergroup=trace-token-events-consumer},1651303812,0
{consumergroup=trace-token-events-consumer},1651303817,0
{consumergroup=trace-token-events-consumer},1651303822,0
{consumergroup=trace-token-events-consumer},1651303827,0
{consumergroup=trace-token-events-consumer},1651303832,0
{consumergroup=trace-token-events-consumer},1651303837,0
{consumergroup=trace-token-events-consumer},1651303842,0
{consumergroup=trace-token-events-consumer},1651303847,0
{consumergroup=trace-token-events-consumer},1651303852,0
{consumergroup=trace-token-events-consumer},1651303857,0
{consumergroup=trace-token-events-consumer},1651303862,0
{consumergroup=trace-token-events-consumer},1651303867,0
{consumergroup=trace-token-events-consumer},1651303872,0
{consumergroup=trace-token-events-consumer},1651303877,0
{consumergroup=trace-token-events-consumer},1651303882,0
{consumergroup=trace-token-events-consumer},1651303887,0
{consumergroup=trace-token-events-consumer},1651303892,0
{consumergroup=trace-token-events-consumer},1651303897,0
{consumergroup=trace-token-events-consumer},1651303902,0
{consumergroup=trace-token-events-consumer},1651303907,0
{consumergroup=trace-token-events-consumer},1651303912,0
{consumergroup=trace-token-events-consumer},1651303917,0
{consumergroup=trace-token-events-consumer},1651303922,0
{consumergroup=trace-token-events-consumer},1651303927,0
{consumergroup=trace-token-events-consumer},1651303932,0
{consumergroup=trace-token-events-consumer},1651303937,0
{consumergroup=trace-token-events-consumer},1651303942,0
{consumergroup=trace-token-events-consumer},1651303947,0
{consumergroup=trace-token-events-consumer},1651303952,0
{consumergroup=trace-token-events-consumer},1651303957,0
{consumergroup=trace-token-events-consumer},1651303962,0
{consumergroup=trace-token-events-consumer},1651303967,0
{consumergroup=trace-token-events-consumer},1651303972,0
{consumergroup=trace-token-events-consumer},1651303977,0
{consumergroup=trace-token-events-consumer},1651303982,0
{consumergroup=trace-token-events-consumer},1651303987,0
{consumergroup=trace-token-events-consumer},1651303992,0
{consumergroup=trace-token-events-consumer},1651303997,0
{consumergroup=trace-token-events-consumer},1651304002,0
{consumergroup=trace-token-events-consumer},1651304007,0
{consumergroup=trace-token-events-consumer},1651304012,0
{consumergroup=trace-token-events-consumer},1651304017,0
{consumergroup=trace-token-events-consumer},1651304022,0
{consumergroup=trace-token-events-consumer},1651304027,0
{consumergroup=trace-token-events-consumer},1651304032,0
{consumergroup=trace-token-events-consumer},1651304037,0
{consumergroup=trace-token-events-consumer},1651304042,0
{consumergroup=trace-token-events-consumer},1651304047,0
{consumergroup=trace-token-events-consumer},1651304052,0
{consumergroup=trace-token-events-consumer},1651304057,0
{consumergroup=trace-token-events-consumer},1651304062,0
{consumergroup=trace-token-events-consumer},1651304067,0
{consumergroup=trace-token-events-consumer},1651304072,0
{consumergroup=trace-token-events-consumer},1651304077,0
{consumergroup=trace-token-events-consumer},1651304082,0
