labels,timestamp,value
{consumergroup=__strimzi-topic-operator-kstreams},1651412747,0
{consumergroup=__strimzi-topic-operator-kstreams},1651412752,0
{consumergroup=__strimzi-topic-operator-kstreams},1651412757,0
{consumergroup=__strimzi-topic-operator-kstreams},1651412762,0
{consumergroup=__strimzi-topic-operator-kstreams},1651412767,0
{consumergroup=__strimzi-topic-operator-kstreams},1651412772,0
{consumergroup=__strimzi-topic-operator-kstreams},1651412777,0
{consumergroup=__strimzi-topic-operator-kstreams},1651412782,0
{consumergroup=__strimzi-topic-operator-kstreams},1651412787,0
{consumergroup=__strimzi-topic-operator-kstreams},1651412792,0
{consumergroup=__strimzi-topic-operator-kstreams},1651412797,0
{consumergroup=__strimzi-topic-operator-kstreams},1651412802,0
{consumergroup=__strimzi-topic-operator-kstreams},1651412807,0
{consumergroup=__strimzi-topic-operator-kstreams},1651412812,0
{consumergroup=__strimzi-topic-operator-kstreams},1651412817,0
{consumergroup=__strimzi-topic-operator-kstreams},1651412822,0
{consumergroup=__strimzi-topic-operator-kstreams},1651412827,0
{consumergroup=__strimzi-topic-operator-kstreams},1651412832,0
{consumergroup=__strimzi-topic-operator-kstreams},1651412837,0
{consumergroup=__strimzi-topic-operator-kstreams},1651412842,0
{consumergroup=__strimzi-topic-operator-kstreams},1651412847,0
{consumergroup=__strimzi-topic-operator-kstreams},1651412852,0
{consumergroup=__strimzi-topic-operator-kstreams},1651412857,0
{consumergroup=__strimzi-topic-operator-kstreams},1651412862,0
{consumergroup=__strimzi-topic-operator-kstreams},1651412867,0
{consumergroup=__strimzi-topic-operator-kstreams},1651412872,0
{consumergroup=__strimzi-topic-operator-kstreams},1651412877,0
{consumergroup=__strimzi-topic-operator-kstreams},1651412882,0
{consumergroup=__strimzi-topic-operator-kstreams},1651412887,0
{consumergroup=__strimzi-topic-operator-kstreams},1651412892,0
{consumergroup=__strimzi-topic-operator-kstreams},1651412897,0
{consumergroup=__strimzi-topic-operator-kstreams},1651412902,0
{consumergroup=__strimzi-topic-operator-kstreams},1651412907,0
{consumergroup=__strimzi-topic-operator-kstreams},1651412912,0
{consumergroup=__strimzi-topic-operator-kstreams},1651412917,0
{consumergroup=__strimzi-topic-operator-kstreams},1651412922,0
{consumergroup=__strimzi-topic-operator-kstreams},1651412927,0
{consumergroup=__strimzi-topic-operator-kstreams},1651412932,0
{consumergroup=__strimzi-topic-operator-kstreams},1651412937,0
{consumergroup=__strimzi-topic-operator-kstreams},1651412942,0
{consumergroup=__strimzi-topic-operator-kstreams},1651412947,0
{consumergroup=__strimzi-topic-operator-kstreams},1651412952,0
{consumergroup=__strimzi-topic-operator-kstreams},1651412957,0
{consumergroup=__strimzi-topic-operator-kstreams},1651412962,0
{consumergroup=__strimzi-topic-operator-kstreams},1651412967,0
{consumergroup=__strimzi-topic-operator-kstreams},1651412972,0
{consumergroup=__strimzi-topic-operator-kstreams},1651412977,0
{consumergroup=__strimzi-topic-operator-kstreams},1651412982,0
{consumergroup=__strimzi-topic-operator-kstreams},1651412987,0
{consumergroup=__strimzi-topic-operator-kstreams},1651412992,0
{consumergroup=adapter-service},1651412762,0
{consumergroup=adapter-service},1651412767,0
{consumergroup=adapter-service},1651412772,0
{consumergroup=adapter-service},1651412777,137154
{consumergroup=adapter-service},1651412782,137154
{consumergroup=adapter-service},1651412787,137154
{consumergroup=adapter-service},1651412792,171150
{consumergroup=adapter-service},1651412797,171150
{consumergroup=adapter-service},1651412802,171150
{consumergroup=adapter-service},1651412807,213962
{consumergroup=adapter-service},1651412812,213962
{consumergroup=adapter-service},1651412817,213962
{consumergroup=adapter-service},1651412822,241411
{consumergroup=adapter-service},1651412827,241411
{consumergroup=adapter-service},1651412832,241411
{consumergroup=adapter-service},1651412837,253673
{consumergroup=adapter-service},1651412842,253673
{consumergroup=adapter-service},1651412847,253673
{consumergroup=adapter-service},1651412852,234694
{consumergroup=adapter-service},1651412857,234694
{consumergroup=adapter-service},1651412862,234694
{consumergroup=adapter-service},1651412867,262070
{consumergroup=adapter-service},1651412872,262070
{consumergroup=adapter-service},1651412877,262070
{consumergroup=adapter-service},1651412882,268074
{consumergroup=adapter-service},1651412887,268074
{consumergroup=adapter-service},1651412892,268074
{consumergroup=adapter-service},1651412897,267773
{consumergroup=adapter-service},1651412902,267773
{consumergroup=adapter-service},1651412907,267773
{consumergroup=adapter-service},1651412912,276251
{consumergroup=adapter-service},1651412917,276251
{consumergroup=adapter-service},1651412922,276251
{consumergroup=adapter-service},1651412927,289193
{consumergroup=adapter-service},1651412932,289193
{consumergroup=adapter-service},1651412937,289193
{consumergroup=adapter-service},1651412942,332988
{consumergroup=adapter-service},1651412947,332988
{consumergroup=adapter-service},1651412952,332988
{consumergroup=adapter-service},1651412957,343363
{consumergroup=adapter-service},1651412962,343363
{consumergroup=adapter-service},1651412967,343363
{consumergroup=adapter-service},1651412972,346844
{consumergroup=adapter-service},1651412977,346844
{consumergroup=adapter-service},1651412982,346844
{consumergroup=adapter-service},1651412987,352715
{consumergroup=adapter-service},1651412992,352715
