labels,timestamp,value
{consumergroup=__strimzi-topic-operator-kstreams},1651301727,3
{consumergroup=__strimzi-topic-operator-kstreams},1651301732,3
{consumergroup=__strimzi-topic-operator-kstreams},1651301737,3
{consumergroup=__strimzi-topic-operator-kstreams},1651301742,11
{consumergroup=__strimzi-topic-operator-kstreams},1651301747,11
{consumergroup=__strimzi-topic-operator-kstreams},1651301752,11
{consumergroup=__strimzi-topic-operator-kstreams},1651301757,3
{consumergroup=__strimzi-topic-operator-kstreams},1651301762,3
{consumergroup=__strimzi-topic-operator-kstreams},1651301767,3
{consumergroup=__strimzi-topic-operator-kstreams},1651301772,3
{consumergroup=__strimzi-topic-operator-kstreams},1651301777,3
{consumergroup=__strimzi-topic-operator-kstreams},1651301782,3
{consumergroup=__strimzi-topic-operator-kstreams},1651301787,0
{consumergroup=__strimzi-topic-operator-kstreams},1651301792,0
{consumergroup=__strimzi-topic-operator-kstreams},1651301797,0
{consumergroup=__strimzi-topic-operator-kstreams},1651301802,0
{consumergroup=__strimzi-topic-operator-kstreams},1651301807,0
{consumergroup=__strimzi-topic-operator-kstreams},1651301812,0
{consumergroup=__strimzi-topic-operator-kstreams},1651301817,0
{consumergroup=__strimzi-topic-operator-kstreams},1651301822,0
{consumergroup=__strimzi-topic-operator-kstreams},1651301827,0
{consumergroup=__strimzi-topic-operator-kstreams},1651301832,0
{consumergroup=__strimzi-topic-operator-kstreams},1651301837,0
{consumergroup=__strimzi-topic-operator-kstreams},1651301842,0
{consumergroup=__strimzi-topic-operator-kstreams},1651301847,0
{consumergroup=__strimzi-topic-operator-kstreams},1651301852,0
{consumergroup=__strimzi-topic-operator-kstreams},1651301857,0
{consumergroup=__strimzi-topic-operator-kstreams},1651301862,0
{consumergroup=__strimzi-topic-operator-kstreams},1651301867,0
{consumergroup=__strimzi-topic-operator-kstreams},1651301872,0
{consumergroup=__strimzi-topic-operator-kstreams},1651301877,0
{consumergroup=__strimzi-topic-operator-kstreams},1651301882,0
{consumergroup=__strimzi-topic-operator-kstreams},1651301887,0
{consumergroup=__strimzi-topic-operator-kstreams},1651301892,0
{consumergroup=__strimzi-topic-operator-kstreams},1651301897,0
{consumergroup=__strimzi-topic-operator-kstreams},1651301902,0
{consumergroup=__strimzi-topic-operator-kstreams},1651301907,0
{consumergroup=__strimzi-topic-operator-kstreams},1651301912,0
{consumergroup=__strimzi-topic-operator-kstreams},1651301917,0
{consumergroup=__strimzi-topic-operator-kstreams},1651301922,0
{consumergroup=__strimzi-topic-operator-kstreams},1651301927,0
{consumergroup=__strimzi-topic-operator-kstreams},1651301932,0
{consumergroup=__strimzi-topic-operator-kstreams},1651301937,0
{consumergroup=__strimzi-topic-operator-kstreams},1651301942,0
{consumergroup=__strimzi-topic-operator-kstreams},1651301947,0
{consumergroup=__strimzi-topic-operator-kstreams},1651301952,0
{consumergroup=__strimzi-topic-operator-kstreams},1651301957,0
{consumergroup=__strimzi-topic-operator-kstreams},1651301962,0
{consumergroup=__strimzi-topic-operator-kstreams},1651301967,0
{consumergroup=__strimzi-topic-operator-kstreams},1651301972,0
{consumergroup=__strimzi-topic-operator-kstreams},1651301977,0
{consumergroup=__strimzi-topic-operator-kstreams},1651301982,0
{consumergroup=__strimzi-topic-operator-kstreams},1651301987,0
{consumergroup=__strimzi-topic-operator-kstreams},1651301992,0
{consumergroup=__strimzi-topic-operator-kstreams},1651301997,0
{consumergroup=__strimzi-topic-operator-kstreams},1651302002,0
{consumergroup=__strimzi-topic-operator-kstreams},1651302007,0
{consumergroup=__strimzi-topic-operator-kstreams},1651302012,0
{consumergroup=__strimzi-topic-operator-kstreams},1651302017,0
{consumergroup=__strimzi-topic-operator-kstreams},1651302022,0
{consumergroup=__strimzi-topic-operator-kstreams},1651302027,0
{consumergroup=__strimzi-topic-operator-kstreams},1651302032,0
{consumergroup=__strimzi-topic-operator-kstreams},1651302037,0
{consumergroup=__strimzi-topic-operator-kstreams},1651302042,0
{consumergroup=__strimzi-topic-operator-kstreams},1651302047,0
{consumergroup=__strimzi-topic-operator-kstreams},1651302052,0
{consumergroup=__strimzi-topic-operator-kstreams},1651302057,0
{consumergroup=__strimzi-topic-operator-kstreams},1651302062,0
{consumergroup=__strimzi-topic-operator-kstreams},1651302067,0
{consumergroup=__strimzi-topic-operator-kstreams},1651302072,0
{consumergroup=__strimzi-topic-operator-kstreams},1651302077,0
{consumergroup=__strimzi-topic-operator-kstreams},1651302082,0
{consumergroup=__strimzi-topic-operator-kstreams},1651302087,0
{consumergroup=__strimzi-topic-operator-kstreams},1651302092,0
{consumergroup=__strimzi-topic-operator-kstreams},1651302097,0
{consumergroup=__strimzi-topic-operator-kstreams},1651302102,0
{consumergroup=__strimzi-topic-operator-kstreams},1651302107,0
{consumergroup=__strimzi-topic-operator-kstreams},1651302112,0
{consumergroup=__strimzi-topic-operator-kstreams},1651302117,0
{consumergroup=__strimzi-topic-operator-kstreams},1651302122,0
{consumergroup=__strimzi-topic-operator-kstreams},1651302127,0
{consumergroup=__strimzi-topic-operator-kstreams},1651302132,0
{consumergroup=__strimzi-topic-operator-kstreams},1651302137,0
{consumergroup=__strimzi-topic-operator-kstreams},1651302142,0
{consumergroup=__strimzi-topic-operator-kstreams},1651302147,0
{consumergroup=__strimzi-topic-operator-kstreams},1651302152,0
{consumergroup=__strimzi-topic-operator-kstreams},1651302157,0
{consumergroup=__strimzi-topic-operator-kstreams},1651302162,0
{consumergroup=__strimzi-topic-operator-kstreams},1651302167,0
{consumergroup=__strimzi-topic-operator-kstreams},1651302172,0
{consumergroup=__strimzi-topic-operator-kstreams},1651302177,0
{consumergroup=__strimzi-topic-operator-kstreams},1651302182,0
{consumergroup=__strimzi-topic-operator-kstreams},1651302187,0
{consumergroup=__strimzi-topic-operator-kstreams},1651302192,0
{consumergroup=__strimzi-topic-operator-kstreams},1651302197,0
{consumergroup=__strimzi-topic-operator-kstreams},1651302202,0
{consumergroup=__strimzi-topic-operator-kstreams},1651302207,0
{consumergroup=__strimzi-topic-operator-kstreams},1651302212,0
{consumergroup=__strimzi-topic-operator-kstreams},1651302217,0
{consumergroup=__strimzi-topic-operator-kstreams},1651302222,0
{consumergroup=__strimzi-topic-operator-kstreams},1651302227,0
{consumergroup=__strimzi-topic-operator-kstreams},1651302232,0
{consumergroup=__strimzi-topic-operator-kstreams},1651302237,0
{consumergroup=adapter-service},1651301772,1260
{consumergroup=adapter-service},1651301777,1260
{consumergroup=adapter-service},1651301782,1260
{consumergroup=adapter-service},1651301787,5463
{consumergroup=adapter-service},1651301792,5463
{consumergroup=adapter-service},1651301797,5463
{consumergroup=adapter-service},1651301802,3138
{consumergroup=adapter-service},1651301807,3138
{consumergroup=adapter-service},1651301812,3138
{consumergroup=adapter-service},1651301817,5320
{consumergroup=adapter-service},1651301822,5320
{consumergroup=adapter-service},1651301827,5320
{consumergroup=adapter-service},1651301832,4133
{consumergroup=adapter-service},1651301837,4133
{consumergroup=adapter-service},1651301842,4133
{consumergroup=adapter-service},1651301847,3812
{consumergroup=adapter-service},1651301852,3812
{consumergroup=adapter-service},1651301857,3812
{consumergroup=adapter-service},1651301862,8979
{consumergroup=adapter-service},1651301867,8979
{consumergroup=adapter-service},1651301872,8979
{consumergroup=adapter-service},1651301877,3240
{consumergroup=adapter-service},1651301882,3240
{consumergroup=adapter-service},1651301887,3240
{consumergroup=adapter-service},1651301892,10463
{consumergroup=adapter-service},1651301897,10463
{consumergroup=adapter-service},1651301902,10463
{consumergroup=adapter-service},1651301907,3035
{consumergroup=adapter-service},1651301912,3035
{consumergroup=adapter-service},1651301917,3035
{consumergroup=adapter-service},1651301922,13373
{consumergroup=adapter-service},1651301927,13373
{consumergroup=adapter-service},1651301932,13373
{consumergroup=adapter-service},1651301937,2728
{consumergroup=adapter-service},1651301942,2728
{consumergroup=adapter-service},1651301947,2728
{consumergroup=adapter-service},1651301952,12387
{consumergroup=adapter-service},1651301957,12387
{consumergroup=adapter-service},1651301962,12387
{consumergroup=adapter-service},1651301967,6408
{consumergroup=adapter-service},1651301972,6408
{consumergroup=adapter-service},1651301977,6408
{consumergroup=adapter-service},1651301982,12630
{consumergroup=adapter-service},1651301987,12630
{consumergroup=adapter-service},1651301992,12630
{consumergroup=adapter-service},1651301997,4781
{consumergroup=adapter-service},1651302002,4781
{consumergroup=adapter-service},1651302007,4781
{consumergroup=adapter-service},1651302012,12383
{consumergroup=adapter-service},1651302017,12383
{consumergroup=adapter-service},1651302022,12383
{consumergroup=adapter-service},1651302027,4367
{consumergroup=adapter-service},1651302032,4367
{consumergroup=adapter-service},1651302037,4367
{consumergroup=adapter-service},1651302042,11528
{consumergroup=adapter-service},1651302047,11528
{consumergroup=adapter-service},1651302052,11528
{consumergroup=adapter-service},1651302057,6426
{consumergroup=adapter-service},1651302062,6426
{consumergroup=adapter-service},1651302067,6426
{consumergroup=adapter-service},1651302072,10646
{consumergroup=adapter-service},1651302077,10646
{consumergroup=adapter-service},1651302082,10646
{consumergroup=adapter-service},1651302087,6026
{consumergroup=adapter-service},1651302092,6026
{consumergroup=adapter-service},1651302097,6026
{consumergroup=adapter-service},1651302102,10324
{consumergroup=adapter-service},1651302107,10324
{consumergroup=adapter-service},1651302112,10324
{consumergroup=adapter-service},1651302117,8419
{consumergroup=adapter-service},1651302122,8419
{consumergroup=adapter-service},1651302127,8419
{consumergroup=adapter-service},1651302132,10790
{consumergroup=adapter-service},1651302137,10790
{consumergroup=adapter-service},1651302142,10790
{consumergroup=adapter-service},1651302147,8082
{consumergroup=adapter-service},1651302152,8082
{consumergroup=adapter-service},1651302157,8082
{consumergroup=adapter-service},1651302162,10044
{consumergroup=adapter-service},1651302167,10044
{consumergroup=adapter-service},1651302172,10044
{consumergroup=adapter-service},1651302177,11077
{consumergroup=adapter-service},1651302182,11077
{consumergroup=adapter-service},1651302187,11077
{consumergroup=adapter-service},1651302192,9284
{consumergroup=adapter-service},1651302197,9284
{consumergroup=adapter-service},1651302202,9284
{consumergroup=adapter-service},1651302207,9883
{consumergroup=adapter-service},1651302212,9883
{consumergroup=adapter-service},1651302217,9883
{consumergroup=adapter-service},1651302222,8875
{consumergroup=adapter-service},1651302227,8875
{consumergroup=adapter-service},1651302232,8875
{consumergroup=adapter-service},1651302237,12752
{consumergroup=landscape-service},1651301787,42403
{consumergroup=landscape-service},1651301792,42403
{consumergroup=landscape-service},1651301797,42403
{consumergroup=landscape-service},1651301802,10423
{consumergroup=landscape-service},1651301807,10423
{consumergroup=landscape-service},1651301812,10423
{consumergroup=landscape-service},1651301817,12210
{consumergroup=landscape-service},1651301822,12210
{consumergroup=landscape-service},1651301827,12210
{consumergroup=landscape-service},1651301832,9296
{consumergroup=landscape-service},1651301837,9296
{consumergroup=landscape-service},1651301842,9296
{consumergroup=landscape-service},1651301847,10868
{consumergroup=landscape-service},1651301852,10868
{consumergroup=landscape-service},1651301857,10868
{consumergroup=landscape-service},1651301862,7093
{consumergroup=landscape-service},1651301867,7093
{consumergroup=landscape-service},1651301872,7093
{consumergroup=landscape-service},1651301877,9803
{consumergroup=landscape-service},1651301882,9803
{consumergroup=landscape-service},1651301887,9803
{consumergroup=landscape-service},1651301892,6667
{consumergroup=landscape-service},1651301897,6667
{consumergroup=landscape-service},1651301902,6667
{consumergroup=landscape-service},1651301907,8990
{consumergroup=landscape-service},1651301912,8990
{consumergroup=landscape-service},1651301917,8990
{consumergroup=landscape-service},1651301922,4826
{consumergroup=landscape-service},1651301927,4826
{consumergroup=landscape-service},1651301932,4826
{consumergroup=landscape-service},1651301937,7925
{consumergroup=landscape-service},1651301942,7925
{consumergroup=landscape-service},1651301947,7925
{consumergroup=landscape-service},1651301952,3921
{consumergroup=landscape-service},1651301957,3921
{consumergroup=landscape-service},1651301962,3921
{consumergroup=landscape-service},1651301967,13444
{consumergroup=landscape-service},1651301972,13444
{consumergroup=landscape-service},1651301977,13444
{consumergroup=landscape-service},1651301982,2537
{consumergroup=landscape-service},1651301987,2537
{consumergroup=landscape-service},1651301992,2537
{consumergroup=landscape-service},1651301997,5519
{consumergroup=landscape-service},1651302002,5519
{consumergroup=landscape-service},1651302007,5519
{consumergroup=landscape-service},1651302012,1786
{consumergroup=landscape-service},1651302017,1786
{consumergroup=landscape-service},1651302022,1786
{consumergroup=landscape-service},1651302027,5140
{consumergroup=landscape-service},1651302032,5140
{consumergroup=landscape-service},1651302037,5140
{consumergroup=landscape-service},1651302042,1504
{consumergroup=landscape-service},1651302047,1504
{consumergroup=landscape-service},1651302052,1504
{consumergroup=landscape-service},1651302057,4138
{consumergroup=landscape-service},1651302062,4138
{consumergroup=landscape-service},1651302067,4138
{consumergroup=landscape-service},1651302072,16402
{consumergroup=landscape-service},1651302077,16402
{consumergroup=landscape-service},1651302082,16402
{consumergroup=landscape-service},1651302087,2102
{consumergroup=landscape-service},1651302092,2102
{consumergroup=landscape-service},1651302097,2102
{consumergroup=landscape-service},1651302102,15289
{consumergroup=landscape-service},1651302107,15289
{consumergroup=landscape-service},1651302112,15289
{consumergroup=landscape-service},1651302117,1101
{consumergroup=landscape-service},1651302122,1101
{consumergroup=landscape-service},1651302127,1101
{consumergroup=landscape-service},1651302132,13324
{consumergroup=landscape-service},1651302137,13324
{consumergroup=landscape-service},1651302142,13324
{consumergroup=landscape-service},1651302147,17009
{consumergroup=landscape-service},1651302152,17009
{consumergroup=landscape-service},1651302157,17009
{consumergroup=landscape-service},1651302162,13393
{consumergroup=landscape-service},1651302167,13393
{consumergroup=landscape-service},1651302172,13393
{consumergroup=landscape-service},1651302177,14973
{consumergroup=landscape-service},1651302182,14973
{consumergroup=landscape-service},1651302187,14973
{consumergroup=landscape-service},1651302192,11885
{consumergroup=landscape-service},1651302197,11885
{consumergroup=landscape-service},1651302202,11885
{consumergroup=landscape-service},1651302207,14611
{consumergroup=landscape-service},1651302212,14611
{consumergroup=landscape-service},1651302217,14611
{consumergroup=landscape-service},1651302222,10074
{consumergroup=landscape-service},1651302227,10074
{consumergroup=landscape-service},1651302232,10074
{consumergroup=landscape-service},1651302237,12509
{consumergroup=trace-service},1651301772,10
{consumergroup=trace-service},1651301777,10
{consumergroup=trace-service},1651301782,10
{consumergroup=trace-service},1651301787,7969
{consumergroup=trace-service},1651301792,7969
{consumergroup=trace-service},1651301797,7969
{consumergroup=trace-service},1651301802,40121
{consumergroup=trace-service},1651301807,40121
{consumergroup=trace-service},1651301812,40121
{consumergroup=trace-service},1651301817,21031
{consumergroup=trace-service},1651301822,21031
{consumergroup=trace-service},1651301827,21031
{consumergroup=trace-service},1651301832,38156
{consumergroup=trace-service},1651301837,38156
{consumergroup=trace-service},1651301842,38156
{consumergroup=trace-service},1651301847,19515
{consumergroup=trace-service},1651301852,19515
{consumergroup=trace-service},1651301857,19515
{consumergroup=trace-service},1651301862,37261
{consumergroup=trace-service},1651301867,37261
{consumergroup=trace-service},1651301872,37261
{consumergroup=trace-service},1651301877,16513
{consumergroup=trace-service},1651301882,16513
{consumergroup=trace-service},1651301887,16513
{consumergroup=trace-service},1651301892,36167
{consumergroup=trace-service},1651301897,36167
{consumergroup=trace-service},1651301902,36167
{consumergroup=trace-service},1651301907,20405
{consumergroup=trace-service},1651301912,20405
{consumergroup=trace-service},1651301917,20405
{consumergroup=trace-service},1651301922,39363
{consumergroup=trace-service},1651301927,39363
{consumergroup=trace-service},1651301932,39363
{consumergroup=trace-service},1651301937,102995
{consumergroup=trace-service},1651301942,102995
{consumergroup=trace-service},1651301947,102995
{consumergroup=trace-service},1651301952,34121
{consumergroup=trace-service},1651301957,34121
{consumergroup=trace-service},1651301962,34121
{consumergroup=trace-service},1651301967,16408
{consumergroup=trace-service},1651301972,16408
{consumergroup=trace-service},1651301977,16408
{consumergroup=trace-service},1651301982,37657
{consumergroup=trace-service},1651301987,37657
{consumergroup=trace-service},1651301992,37657
{consumergroup=trace-service},1651301997,19211
{consumergroup=trace-service},1651302002,19211
{consumergroup=trace-service},1651302007,19211
{consumergroup=trace-service},1651302012,39789
{consumergroup=trace-service},1651302017,39789
{consumergroup=trace-service},1651302022,39789
{consumergroup=trace-service},1651302027,81266
{consumergroup=trace-service},1651302032,81266
{consumergroup=trace-service},1651302037,81266
{consumergroup=trace-service},1651302042,42861
{consumergroup=trace-service},1651302047,42861
{consumergroup=trace-service},1651302052,42861
{consumergroup=trace-service},1651302057,17486
{consumergroup=trace-service},1651302062,17486
{consumergroup=trace-service},1651302067,17486
{consumergroup=trace-service},1651302072,37111
{consumergroup=trace-service},1651302077,37111
{consumergroup=trace-service},1651302082,37111
{consumergroup=trace-service},1651302087,17715
{consumergroup=trace-service},1651302092,17715
{consumergroup=trace-service},1651302097,17715
{consumergroup=trace-service},1651302102,39639
{consumergroup=trace-service},1651302107,39639
{consumergroup=trace-service},1651302112,39639
{consumergroup=trace-service},1651302117,36152
{consumergroup=trace-service},1651302122,36152
{consumergroup=trace-service},1651302127,36152
{consumergroup=trace-service},1651302132,32469
{consumergroup=trace-service},1651302137,32469
{consumergroup=trace-service},1651302142,32469
{consumergroup=trace-service},1651302147,20164
{consumergroup=trace-service},1651302152,20164
{consumergroup=trace-service},1651302157,20164
{consumergroup=trace-service},1651302162,41128
{consumergroup=trace-service},1651302167,41128
{consumergroup=trace-service},1651302172,41128
{consumergroup=trace-service},1651302177,17023
{consumergroup=trace-service},1651302182,17023
{consumergroup=trace-service},1651302187,17023
{consumergroup=trace-service},1651302192,35194
{consumergroup=trace-service},1651302197,35194
{consumergroup=trace-service},1651302202,35194
{consumergroup=trace-service},1651302207,20085
{consumergroup=trace-service},1651302212,20085
{consumergroup=trace-service},1651302217,20085
{consumergroup=trace-service},1651302222,36515
{consumergroup=trace-service},1651302227,36515
{consumergroup=trace-service},1651302232,36515
{consumergroup=trace-service},1651302237,20493
{consumergroup=trace-token-events-consumer},1651301757,0
{consumergroup=trace-token-events-consumer},1651301762,0
{consumergroup=trace-token-events-consumer},1651301767,0
{consumergroup=trace-token-events-consumer},1651301772,0
{consumergroup=trace-token-events-consumer},1651301777,0
{consumergroup=trace-token-events-consumer},1651301782,0
{consumergroup=trace-token-events-consumer},1651301787,0
{consumergroup=trace-token-events-consumer},1651301792,0
{consumergroup=trace-token-events-consumer},1651301797,0
{consumergroup=trace-token-events-consumer},1651301802,0
{consumergroup=trace-token-events-consumer},1651301807,0
{consumergroup=trace-token-events-consumer},1651301812,0
{consumergroup=trace-token-events-consumer},1651301817,0
{consumergroup=trace-token-events-consumer},1651301822,0
{consumergroup=trace-token-events-consumer},1651301827,0
{consumergroup=trace-token-events-consumer},1651301832,0
{consumergroup=trace-token-events-consumer},1651301837,0
{consumergroup=trace-token-events-consumer},1651301842,0
{consumergroup=trace-token-events-consumer},1651301847,0
{consumergroup=trace-token-events-consumer},1651301852,0
{consumergroup=trace-token-events-consumer},1651301857,0
{consumergroup=trace-token-events-consumer},1651301862,0
{consumergroup=trace-token-events-consumer},1651301867,0
{consumergroup=trace-token-events-consumer},1651301872,0
{consumergroup=trace-token-events-consumer},1651301877,0
{consumergroup=trace-token-events-consumer},1651301882,0
{consumergroup=trace-token-events-consumer},1651301887,0
{consumergroup=trace-token-events-consumer},1651301892,0
{consumergroup=trace-token-events-consumer},1651301897,0
{consumergroup=trace-token-events-consumer},1651301902,0
{consumergroup=trace-token-events-consumer},1651301907,0
{consumergroup=trace-token-events-consumer},1651301912,0
{consumergroup=trace-token-events-consumer},1651301917,0
{consumergroup=trace-token-events-consumer},1651301922,0
{consumergroup=trace-token-events-consumer},1651301927,0
{consumergroup=trace-token-events-consumer},1651301932,0
{consumergroup=trace-token-events-consumer},1651301937,0
{consumergroup=trace-token-events-consumer},1651301942,0
{consumergroup=trace-token-events-consumer},1651301947,0
{consumergroup=trace-token-events-consumer},1651301952,0
{consumergroup=trace-token-events-consumer},1651301957,0
{consumergroup=trace-token-events-consumer},1651301962,0
{consumergroup=trace-token-events-consumer},1651301967,0
{consumergroup=trace-token-events-consumer},1651301972,0
{consumergroup=trace-token-events-consumer},1651301977,0
{consumergroup=trace-token-events-consumer},1651301982,0
{consumergroup=trace-token-events-consumer},1651301987,0
{consumergroup=trace-token-events-consumer},1651301992,0
{consumergroup=trace-token-events-consumer},1651301997,0
{consumergroup=trace-token-events-consumer},1651302002,0
{consumergroup=trace-token-events-consumer},1651302007,0
{consumergroup=trace-token-events-consumer},1651302012,0
{consumergroup=trace-token-events-consumer},1651302017,0
{consumergroup=trace-token-events-consumer},1651302022,0
{consumergroup=trace-token-events-consumer},1651302027,0
{consumergroup=trace-token-events-consumer},1651302032,0
{consumergroup=trace-token-events-consumer},1651302037,0
{consumergroup=trace-token-events-consumer},1651302042,0
{consumergroup=trace-token-events-consumer},1651302047,0
{consumergroup=trace-token-events-consumer},1651302052,0
{consumergroup=trace-token-events-consumer},1651302057,0
{consumergroup=trace-token-events-consumer},1651302062,0
{consumergroup=trace-token-events-consumer},1651302067,0
{consumergroup=trace-token-events-consumer},1651302072,0
{consumergroup=trace-token-events-consumer},1651302077,0
{consumergroup=trace-token-events-consumer},1651302082,0
{consumergroup=trace-token-events-consumer},1651302087,0
{consumergroup=trace-token-events-consumer},1651302092,0
{consumergroup=trace-token-events-consumer},1651302097,0
{consumergroup=trace-token-events-consumer},1651302102,0
{consumergroup=trace-token-events-consumer},1651302107,0
{consumergroup=trace-token-events-consumer},1651302112,0
{consumergroup=trace-token-events-consumer},1651302117,0
{consumergroup=trace-token-events-consumer},1651302122,0
{consumergroup=trace-token-events-consumer},1651302127,0
{consumergroup=trace-token-events-consumer},1651302132,0
{consumergroup=trace-token-events-consumer},1651302137,0
{consumergroup=trace-token-events-consumer},1651302142,0
{consumergroup=trace-token-events-consumer},1651302147,0
{consumergroup=trace-token-events-consumer},1651302152,0
{consumergroup=trace-token-events-consumer},1651302157,0
{consumergroup=trace-token-events-consumer},1651302162,0
{consumergroup=trace-token-events-consumer},1651302167,0
{consumergroup=trace-token-events-consumer},1651302172,0
{consumergroup=trace-token-events-consumer},1651302177,0
{consumergroup=trace-token-events-consumer},1651302182,0
{consumergroup=trace-token-events-consumer},1651302187,0
{consumergroup=trace-token-events-consumer},1651302192,0
{consumergroup=trace-token-events-consumer},1651302197,0
{consumergroup=trace-token-events-consumer},1651302202,0
{consumergroup=trace-token-events-consumer},1651302207,0
{consumergroup=trace-token-events-consumer},1651302212,0
{consumergroup=trace-token-events-consumer},1651302217,0
{consumergroup=trace-token-events-consumer},1651302222,0
{consumergroup=trace-token-events-consumer},1651302227,0
{consumergroup=trace-token-events-consumer},1651302232,0
{consumergroup=trace-token-events-consumer},1651302237,0
