labels,timestamp,value
{consumergroup=__strimzi-topic-operator-kstreams},1651413341,9
{consumergroup=__strimzi-topic-operator-kstreams},1651413346,9
{consumergroup=__strimzi-topic-operator-kstreams},1651413351,9
{consumergroup=__strimzi-topic-operator-kstreams},1651413356,0
{consumergroup=__strimzi-topic-operator-kstreams},1651413361,0
{consumergroup=__strimzi-topic-operator-kstreams},1651413366,0
{consumergroup=__strimzi-topic-operator-kstreams},1651413371,0
{consumergroup=__strimzi-topic-operator-kstreams},1651413376,0
{consumergroup=__strimzi-topic-operator-kstreams},1651413381,0
{consumergroup=__strimzi-topic-operator-kstreams},1651413386,0
{consumergroup=__strimzi-topic-operator-kstreams},1651413391,0
{consumergroup=__strimzi-topic-operator-kstreams},1651413396,0
{consumergroup=__strimzi-topic-operator-kstreams},1651413401,0
{consumergroup=__strimzi-topic-operator-kstreams},1651413406,0
{consumergroup=__strimzi-topic-operator-kstreams},1651413411,0
{consumergroup=__strimzi-topic-operator-kstreams},1651413416,0
{consumergroup=__strimzi-topic-operator-kstreams},1651413421,0
{consumergroup=__strimzi-topic-operator-kstreams},1651413426,0
{consumergroup=__strimzi-topic-operator-kstreams},1651413431,0
{consumergroup=__strimzi-topic-operator-kstreams},1651413436,0
{consumergroup=__strimzi-topic-operator-kstreams},1651413441,0
{consumergroup=__strimzi-topic-operator-kstreams},1651413446,0
{consumergroup=__strimzi-topic-operator-kstreams},1651413451,0
{consumergroup=__strimzi-topic-operator-kstreams},1651413456,0
{consumergroup=__strimzi-topic-operator-kstreams},1651413461,0
{consumergroup=__strimzi-topic-operator-kstreams},1651413466,0
{consumergroup=__strimzi-topic-operator-kstreams},1651413471,0
{consumergroup=__strimzi-topic-operator-kstreams},1651413476,0
{consumergroup=__strimzi-topic-operator-kstreams},1651413481,0
{consumergroup=__strimzi-topic-operator-kstreams},1651413486,0
{consumergroup=__strimzi-topic-operator-kstreams},1651413491,0
{consumergroup=__strimzi-topic-operator-kstreams},1651413496,0
{consumergroup=__strimzi-topic-operator-kstreams},1651413501,0
{consumergroup=__strimzi-topic-operator-kstreams},1651413506,0
{consumergroup=__strimzi-topic-operator-kstreams},1651413511,0
{consumergroup=__strimzi-topic-operator-kstreams},1651413516,0
{consumergroup=__strimzi-topic-operator-kstreams},1651413521,0
{consumergroup=__strimzi-topic-operator-kstreams},1651413526,0
{consumergroup=__strimzi-topic-operator-kstreams},1651413531,0
{consumergroup=__strimzi-topic-operator-kstreams},1651413536,0
{consumergroup=__strimzi-topic-operator-kstreams},1651413541,0
{consumergroup=__strimzi-topic-operator-kstreams},1651413546,0
{consumergroup=__strimzi-topic-operator-kstreams},1651413551,0
{consumergroup=__strimzi-topic-operator-kstreams},1651413556,0
{consumergroup=__strimzi-topic-operator-kstreams},1651413561,0
{consumergroup=__strimzi-topic-operator-kstreams},1651413566,0
{consumergroup=__strimzi-topic-operator-kstreams},1651413571,0
{consumergroup=__strimzi-topic-operator-kstreams},1651413576,0
{consumergroup=__strimzi-topic-operator-kstreams},1651413581,0
{consumergroup=__strimzi-topic-operator-kstreams},1651413586,0
{consumergroup=__strimzi-topic-operator-kstreams},1651413591,0
{consumergroup=adapter-service},1651413371,83760
{consumergroup=adapter-service},1651413376,83760
{consumergroup=adapter-service},1651413381,83760
{consumergroup=adapter-service},1651413386,146510
{consumergroup=adapter-service},1651413391,146510
{consumergroup=adapter-service},1651413396,146510
{consumergroup=adapter-service},1651413401,265771
{consumergroup=adapter-service},1651413406,265771
{consumergroup=adapter-service},1651413411,265771
{consumergroup=adapter-service},1651413416,232896
{consumergroup=adapter-service},1651413421,232896
{consumergroup=adapter-service},1651413426,232896
{consumergroup=adapter-service},1651413431,258007
{consumergroup=adapter-service},1651413436,258007
{consumergroup=adapter-service},1651413441,258007
{consumergroup=adapter-service},1651413446,272361
{consumergroup=adapter-service},1651413451,272361
{consumergroup=adapter-service},1651413456,272361
{consumergroup=adapter-service},1651413461,279206
{consumergroup=adapter-service},1651413466,279206
{consumergroup=adapter-service},1651413471,279206
{consumergroup=adapter-service},1651413476,244354
{consumergroup=adapter-service},1651413481,244354
{consumergroup=adapter-service},1651413486,244354
{consumergroup=adapter-service},1651413491,270758
{consumergroup=adapter-service},1651413496,270758
{consumergroup=adapter-service},1651413501,270758
{consumergroup=adapter-service},1651413506,278774
{consumergroup=adapter-service},1651413511,278774
{consumergroup=adapter-service},1651413516,278774
{consumergroup=adapter-service},1651413521,277749
{consumergroup=adapter-service},1651413526,277749
{consumergroup=adapter-service},1651413531,277749
{consumergroup=adapter-service},1651413536,310123
{consumergroup=adapter-service},1651413541,310123
{consumergroup=adapter-service},1651413546,310123
{consumergroup=adapter-service},1651413551,310362
{consumergroup=adapter-service},1651413556,310362
{consumergroup=adapter-service},1651413561,310362
{consumergroup=adapter-service},1651413566,331615
{consumergroup=adapter-service},1651413571,331615
{consumergroup=adapter-service},1651413576,331615
{consumergroup=adapter-service},1651413581,332779
{consumergroup=adapter-service},1651413586,332779
{consumergroup=adapter-service},1651413591,332779
