labels,timestamp,value
{job=theodolite-stu200776/combined-trace-podmonitor},1651293824,5.532076785663277
{job=theodolite-stu200776/combined-trace-podmonitor},1651293829,6.787698350900919
{job=theodolite-stu200776/combined-trace-podmonitor},1651293834,7.232887263878986
{job=theodolite-stu200776/combined-trace-podmonitor},1651293839,7.00634615720984
{job=theodolite-stu200776/combined-trace-podmonitor},1651293844,7.066481724451976
{job=theodolite-stu200776/combined-trace-podmonitor},1651293849,7.647925828489905
{job=theodolite-stu200776/combined-trace-podmonitor},1651293854,9.121153273409249
{job=theodolite-stu200776/combined-trace-podmonitor},1651293859,8.766388595215847
{job=theodolite-stu200776/combined-trace-podmonitor},1651293864,7.233539334664362
{job=theodolite-stu200776/combined-trace-podmonitor},1651293869,7.006934232943559
{job=theodolite-stu200776/combined-trace-podmonitor},1651293874,4.913541775355531
{job=theodolite-stu200776/combined-trace-podmonitor},1651293879,3.8843869926633157
{job=theodolite-stu200776/combined-trace-podmonitor},1651293884,0
{job=theodolite-stu200776/combined-trace-podmonitor},1651293889,0
{job=theodolite-stu200776/combined-trace-podmonitor},1651293894,0
{job=theodolite-stu200776/combined-trace-podmonitor},1651293899,0
{job=theodolite-stu200776/combined-trace-podmonitor},1651293904,0
{job=theodolite-stu200776/combined-trace-podmonitor},1651293909,0
{job=theodolite-stu200776/combined-trace-podmonitor},1651293914,0
{job=theodolite-stu200776/combined-trace-podmonitor},1651293919,0
{job=theodolite-stu200776/combined-trace-podmonitor},1651293924,0
{job=theodolite-stu200776/combined-trace-podmonitor},1651293929,0
{job=theodolite-stu200776/combined-trace-podmonitor},1651293934,0
{job=theodolite-stu200776/combined-trace-podmonitor},1651293939,0
{job=theodolite-stu200776/combined-trace-podmonitor},1651293944,0
{job=theodolite-stu200776/combined-trace-podmonitor},1651293949,0
{job=theodolite-stu200776/combined-trace-podmonitor},1651293954,0
{job=theodolite-stu200776/combined-trace-podmonitor},1651293959,0
{job=theodolite-stu200776/combined-trace-podmonitor},1651293964,0
{job=theodolite-stu200776/combined-trace-podmonitor},1651293969,0
{job=theodolite-stu200776/combined-trace-podmonitor},1651293974,0
{job=theodolite-stu200776/combined-trace-podmonitor},1651293979,0
{job=theodolite-stu200776/combined-trace-podmonitor},1651293984,0
{job=theodolite-stu200776/combined-trace-podmonitor},1651293989,0
{job=theodolite-stu200776/combined-trace-podmonitor},1651293994,0
{job=theodolite-stu200776/combined-trace-podmonitor},1651293999,0
{job=theodolite-stu200776/combined-trace-podmonitor},1651294004,0
{job=theodolite-stu200776/combined-trace-podmonitor},1651294009,0
{job=theodolite-stu200776/combined-trace-podmonitor},1651294014,0
{job=theodolite-stu200776/combined-trace-podmonitor},1651294019,0
{job=theodolite-stu200776/combined-trace-podmonitor},1651294024,0
{job=theodolite-stu200776/combined-trace-podmonitor},1651294029,0
{job=theodolite-stu200776/combined-trace-podmonitor},1651294034,0
{job=theodolite-stu200776/combined-trace-podmonitor},1651294039,0
{job=theodolite-stu200776/combined-trace-podmonitor},1651294044,0
{job=theodolite-stu200776/combined-trace-podmonitor},1651294049,0
{job=theodolite-stu200776/combined-trace-podmonitor},1651294054,0
{job=theodolite-stu200776/combined-trace-podmonitor},1651294059,0
{job=theodolite-stu200776/combined-trace-podmonitor},1651294064,0
{job=theodolite-stu200776/combined-trace-podmonitor},1651294069,0
{job=theodolite-stu200776/combined-trace-podmonitor},1651294074,0
{job=theodolite-stu200776/combined-trace-podmonitor},1651294079,0
{job=theodolite-stu200776/combined-trace-podmonitor},1651294084,0
{job=theodolite-stu200776/combined-trace-podmonitor},1651294089,0
{job=theodolite-stu200776/combined-trace-podmonitor},1651294094,0
{job=theodolite-stu200776/combined-trace-podmonitor},1651294099,0
{job=theodolite-stu200776/combined-trace-podmonitor},1651294104,0
{job=theodolite-stu200776/combined-trace-podmonitor},1651294109,0
{job=theodolite-stu200776/combined-trace-podmonitor},1651294114,0
{job=theodolite-stu200776/combined-trace-podmonitor},1651294119,0
{job=theodolite-stu200776/combined-trace-podmonitor},1651294124,0
{job=theodolite-stu200776/combined-trace-podmonitor},1651294129,0
{job=theodolite-stu200776/combined-trace-podmonitor},1651294134,0
{job=theodolite-stu200776/combined-trace-podmonitor},1651294139,0
{job=theodolite-stu200776/combined-trace-podmonitor},1651294144,0
{job=theodolite-stu200776/combined-trace-podmonitor},1651294149,0
{job=theodolite-stu200776/combined-trace-podmonitor},1651294154,0
{job=theodolite-stu200776/combined-trace-podmonitor},1651294159,0
{job=theodolite-stu200776/combined-trace-podmonitor},1651294164,0
{job=theodolite-stu200776/combined-trace-podmonitor},1651294169,0
{job=theodolite-stu200776/combined-trace-podmonitor},1651294174,0
{job=theodolite-stu200776/combined-trace-podmonitor},1651294179,0
{job=theodolite-stu200776/combined-trace-podmonitor},1651294184,0
{job=theodolite-stu200776/combined-trace-podmonitor},1651294189,0
{job=theodolite-stu200776/combined-trace-podmonitor},1651294194,0
{job=theodolite-stu200776/combined-trace-podmonitor},1651294199,0
{job=theodolite-stu200776/combined-trace-podmonitor},1651294204,0
{job=theodolite-stu200776/combined-trace-podmonitor},1651294209,0
{job=theodolite-stu200776/combined-trace-podmonitor},1651294214,0
{job=theodolite-stu200776/combined-trace-podmonitor},1651294219,0
{job=theodolite-stu200776/combined-trace-podmonitor},1651294224,0
{job=theodolite-stu200776/combined-trace-podmonitor},1651294229,0
{job=theodolite-stu200776/combined-trace-podmonitor},1651294234,0
{job=theodolite-stu200776/combined-trace-podmonitor},1651294239,0
{job=theodolite-stu200776/combined-trace-podmonitor},1651294244,0
{job=theodolite-stu200776/combined-trace-podmonitor},1651294249,0
{job=theodolite-stu200776/combined-trace-podmonitor},1651294254,0
{job=theodolite-stu200776/combined-trace-podmonitor},1651294259,0
