labels,timestamp,value
{consumergroup=__strimzi-topic-operator-kstreams},1651363991,7
{consumergroup=__strimzi-topic-operator-kstreams},1651363996,7
{consumergroup=__strimzi-topic-operator-kstreams},1651364001,7
{consumergroup=__strimzi-topic-operator-kstreams},1651364006,8
{consumergroup=__strimzi-topic-operator-kstreams},1651364011,8
{consumergroup=__strimzi-topic-operator-kstreams},1651364016,8
{consumergroup=__strimzi-topic-operator-kstreams},1651364021,0
{consumergroup=__strimzi-topic-operator-kstreams},1651364026,0
{consumergroup=__strimzi-topic-operator-kstreams},1651364031,0
{consumergroup=__strimzi-topic-operator-kstreams},1651364036,0
{consumergroup=__strimzi-topic-operator-kstreams},1651364041,0
{consumergroup=__strimzi-topic-operator-kstreams},1651364046,0
{consumergroup=__strimzi-topic-operator-kstreams},1651364051,0
{consumergroup=__strimzi-topic-operator-kstreams},1651364056,0
{consumergroup=__strimzi-topic-operator-kstreams},1651364061,0
{consumergroup=__strimzi-topic-operator-kstreams},1651364066,0
{consumergroup=__strimzi-topic-operator-kstreams},1651364071,0
{consumergroup=__strimzi-topic-operator-kstreams},1651364076,0
{consumergroup=__strimzi-topic-operator-kstreams},1651364081,0
{consumergroup=__strimzi-topic-operator-kstreams},1651364086,0
{consumergroup=__strimzi-topic-operator-kstreams},1651364091,0
{consumergroup=__strimzi-topic-operator-kstreams},1651364096,0
{consumergroup=__strimzi-topic-operator-kstreams},1651364101,0
{consumergroup=__strimzi-topic-operator-kstreams},1651364106,0
{consumergroup=__strimzi-topic-operator-kstreams},1651364111,0
{consumergroup=__strimzi-topic-operator-kstreams},1651364116,0
{consumergroup=__strimzi-topic-operator-kstreams},1651364121,0
{consumergroup=__strimzi-topic-operator-kstreams},1651364126,0
{consumergroup=__strimzi-topic-operator-kstreams},1651364131,0
{consumergroup=__strimzi-topic-operator-kstreams},1651364136,0
{consumergroup=__strimzi-topic-operator-kstreams},1651364141,0
{consumergroup=__strimzi-topic-operator-kstreams},1651364146,0
{consumergroup=__strimzi-topic-operator-kstreams},1651364151,0
{consumergroup=__strimzi-topic-operator-kstreams},1651364156,0
{consumergroup=__strimzi-topic-operator-kstreams},1651364161,0
{consumergroup=__strimzi-topic-operator-kstreams},1651364166,0
{consumergroup=__strimzi-topic-operator-kstreams},1651364171,0
{consumergroup=__strimzi-topic-operator-kstreams},1651364176,0
{consumergroup=__strimzi-topic-operator-kstreams},1651364181,0
{consumergroup=__strimzi-topic-operator-kstreams},1651364186,0
{consumergroup=__strimzi-topic-operator-kstreams},1651364191,0
{consumergroup=__strimzi-topic-operator-kstreams},1651364196,0
{consumergroup=__strimzi-topic-operator-kstreams},1651364201,0
{consumergroup=__strimzi-topic-operator-kstreams},1651364206,0
{consumergroup=__strimzi-topic-operator-kstreams},1651364211,0
{consumergroup=__strimzi-topic-operator-kstreams},1651364216,0
{consumergroup=__strimzi-topic-operator-kstreams},1651364221,0
{consumergroup=__strimzi-topic-operator-kstreams},1651364226,0
{consumergroup=__strimzi-topic-operator-kstreams},1651364231,0
{consumergroup=__strimzi-topic-operator-kstreams},1651364236,0
{consumergroup=__strimzi-topic-operator-kstreams},1651364241,0
{consumergroup=__strimzi-topic-operator-kstreams},1651364246,0
{consumergroup=adapter-service},1651364021,107160
{consumergroup=adapter-service},1651364026,107160
{consumergroup=adapter-service},1651364031,107160
{consumergroup=adapter-service},1651364036,874879
{consumergroup=adapter-service},1651364041,874879
{consumergroup=adapter-service},1651364046,874879
{consumergroup=adapter-service},1651364051,1260843
{consumergroup=adapter-service},1651364056,1260843
{consumergroup=adapter-service},1651364061,1260843
{consumergroup=adapter-service},1651364066,771243
{consumergroup=adapter-service},1651364071,771243
{consumergroup=adapter-service},1651364076,771243
{consumergroup=adapter-service},1651364081,840002
{consumergroup=adapter-service},1651364086,840002
{consumergroup=adapter-service},1651364091,840002
{consumergroup=adapter-service},1651364096,1294978
{consumergroup=adapter-service},1651364101,1294978
{consumergroup=adapter-service},1651364106,1294978
{consumergroup=adapter-service},1651364111,1040363
{consumergroup=adapter-service},1651364116,1040363
{consumergroup=adapter-service},1651364121,1040363
{consumergroup=adapter-service},1651364126,1376831
{consumergroup=adapter-service},1651364131,1376831
{consumergroup=adapter-service},1651364136,1376831
{consumergroup=adapter-service},1651364141,1230022
{consumergroup=adapter-service},1651364146,1230022
{consumergroup=adapter-service},1651364151,1230022
{consumergroup=adapter-service},1651364156,1343008
{consumergroup=adapter-service},1651364161,1343008
{consumergroup=adapter-service},1651364166,1343008
{consumergroup=adapter-service},1651364171,1869028
{consumergroup=adapter-service},1651364176,1869028
{consumergroup=adapter-service},1651364181,1869028
{consumergroup=adapter-service},1651364186,1779907
{consumergroup=adapter-service},1651364191,1779907
{consumergroup=adapter-service},1651364196,1779907
{consumergroup=adapter-service},1651364201,1795319
{consumergroup=adapter-service},1651364206,1795319
{consumergroup=adapter-service},1651364211,1795319
{consumergroup=adapter-service},1651364216,1873896
{consumergroup=adapter-service},1651364221,1873896
{consumergroup=adapter-service},1651364226,1873896
{consumergroup=adapter-service},1651364231,2115478
{consumergroup=adapter-service},1651364236,2115478
{consumergroup=adapter-service},1651364241,2115478
{consumergroup=adapter-service},1651364246,2297294
