labels,timestamp,value
{consumergroup=__strimzi-topic-operator-kstreams},1651365824,6
{consumergroup=__strimzi-topic-operator-kstreams},1651365829,6
{consumergroup=__strimzi-topic-operator-kstreams},1651365834,6
{consumergroup=__strimzi-topic-operator-kstreams},1651365839,6
{consumergroup=__strimzi-topic-operator-kstreams},1651365844,6
{consumergroup=__strimzi-topic-operator-kstreams},1651365849,6
{consumergroup=__strimzi-topic-operator-kstreams},1651365854,0
{consumergroup=__strimzi-topic-operator-kstreams},1651365859,0
{consumergroup=__strimzi-topic-operator-kstreams},1651365864,0
{consumergroup=__strimzi-topic-operator-kstreams},1651365869,0
{consumergroup=__strimzi-topic-operator-kstreams},1651365874,0
{consumergroup=__strimzi-topic-operator-kstreams},1651365879,0
{consumergroup=__strimzi-topic-operator-kstreams},1651365884,0
{consumergroup=__strimzi-topic-operator-kstreams},1651365889,0
{consumergroup=__strimzi-topic-operator-kstreams},1651365894,0
{consumergroup=__strimzi-topic-operator-kstreams},1651365899,0
{consumergroup=__strimzi-topic-operator-kstreams},1651365904,0
{consumergroup=__strimzi-topic-operator-kstreams},1651365909,0
{consumergroup=__strimzi-topic-operator-kstreams},1651365914,0
{consumergroup=__strimzi-topic-operator-kstreams},1651365919,0
{consumergroup=__strimzi-topic-operator-kstreams},1651365924,0
{consumergroup=__strimzi-topic-operator-kstreams},1651365929,0
{consumergroup=__strimzi-topic-operator-kstreams},1651365934,0
{consumergroup=__strimzi-topic-operator-kstreams},1651365939,0
{consumergroup=__strimzi-topic-operator-kstreams},1651365944,0
{consumergroup=__strimzi-topic-operator-kstreams},1651365949,0
{consumergroup=__strimzi-topic-operator-kstreams},1651365954,0
{consumergroup=__strimzi-topic-operator-kstreams},1651365959,0
{consumergroup=__strimzi-topic-operator-kstreams},1651365964,0
{consumergroup=__strimzi-topic-operator-kstreams},1651365969,0
{consumergroup=__strimzi-topic-operator-kstreams},1651365974,0
{consumergroup=__strimzi-topic-operator-kstreams},1651365979,0
{consumergroup=__strimzi-topic-operator-kstreams},1651365984,0
{consumergroup=__strimzi-topic-operator-kstreams},1651365989,0
{consumergroup=__strimzi-topic-operator-kstreams},1651365994,0
{consumergroup=__strimzi-topic-operator-kstreams},1651365999,0
{consumergroup=__strimzi-topic-operator-kstreams},1651366004,0
{consumergroup=__strimzi-topic-operator-kstreams},1651366009,0
{consumergroup=__strimzi-topic-operator-kstreams},1651366014,0
{consumergroup=__strimzi-topic-operator-kstreams},1651366019,0
{consumergroup=__strimzi-topic-operator-kstreams},1651366024,0
{consumergroup=__strimzi-topic-operator-kstreams},1651366029,0
{consumergroup=__strimzi-topic-operator-kstreams},1651366034,0
{consumergroup=__strimzi-topic-operator-kstreams},1651366039,0
{consumergroup=__strimzi-topic-operator-kstreams},1651366044,0
{consumergroup=__strimzi-topic-operator-kstreams},1651366049,0
{consumergroup=__strimzi-topic-operator-kstreams},1651366054,0
{consumergroup=__strimzi-topic-operator-kstreams},1651366059,0
{consumergroup=__strimzi-topic-operator-kstreams},1651366064,0
{consumergroup=__strimzi-topic-operator-kstreams},1651366069,0
{consumergroup=adapter-service},1651365839,191509
{consumergroup=adapter-service},1651365844,191509
{consumergroup=adapter-service},1651365849,191509
{consumergroup=adapter-service},1651365854,930637
{consumergroup=adapter-service},1651365859,930637
{consumergroup=adapter-service},1651365864,930637
{consumergroup=adapter-service},1651365869,637123
{consumergroup=adapter-service},1651365874,637123
{consumergroup=adapter-service},1651365879,637123
{consumergroup=adapter-service},1651365884,503184
{consumergroup=adapter-service},1651365889,503184
{consumergroup=adapter-service},1651365894,503184
{consumergroup=adapter-service},1651365899,909750
{consumergroup=adapter-service},1651365904,909750
{consumergroup=adapter-service},1651365909,909750
{consumergroup=adapter-service},1651365914,344971
{consumergroup=adapter-service},1651365919,344971
{consumergroup=adapter-service},1651365924,344971
{consumergroup=adapter-service},1651365929,504653
{consumergroup=adapter-service},1651365934,504653
{consumergroup=adapter-service},1651365939,504653
{consumergroup=adapter-service},1651365944,503431
{consumergroup=adapter-service},1651365949,503431
{consumergroup=adapter-service},1651365954,503431
{consumergroup=adapter-service},1651365959,486046
{consumergroup=adapter-service},1651365964,486046
{consumergroup=adapter-service},1651365969,486046
{consumergroup=adapter-service},1651365974,605809
{consumergroup=adapter-service},1651365979,605809
{consumergroup=adapter-service},1651365984,605809
{consumergroup=adapter-service},1651365989,536223
{consumergroup=adapter-service},1651365994,536223
{consumergroup=adapter-service},1651365999,536223
{consumergroup=adapter-service},1651366004,499290
{consumergroup=adapter-service},1651366009,499290
{consumergroup=adapter-service},1651366014,499290
{consumergroup=adapter-service},1651366019,595787
{consumergroup=adapter-service},1651366024,595787
{consumergroup=adapter-service},1651366029,595787
{consumergroup=adapter-service},1651366034,549366
{consumergroup=adapter-service},1651366039,549366
{consumergroup=adapter-service},1651366044,549366
{consumergroup=adapter-service},1651366049,790932
{consumergroup=adapter-service},1651366054,790932
{consumergroup=adapter-service},1651366059,790932
{consumergroup=adapter-service},1651366064,723845
{consumergroup=adapter-service},1651366069,723845
