labels,timestamp,value
{consumergroup=__strimzi-topic-operator-kstreams},1651384690,8
{consumergroup=__strimzi-topic-operator-kstreams},1651384695,8
{consumergroup=__strimzi-topic-operator-kstreams},1651384700,8
{consumergroup=__strimzi-topic-operator-kstreams},1651384705,8
{consumergroup=__strimzi-topic-operator-kstreams},1651384710,8
{consumergroup=__strimzi-topic-operator-kstreams},1651384715,8
{consumergroup=__strimzi-topic-operator-kstreams},1651384720,0
{consumergroup=__strimzi-topic-operator-kstreams},1651384725,0
{consumergroup=__strimzi-topic-operator-kstreams},1651384730,0
{consumergroup=__strimzi-topic-operator-kstreams},1651384735,0
{consumergroup=__strimzi-topic-operator-kstreams},1651384740,0
{consumergroup=__strimzi-topic-operator-kstreams},1651384745,0
{consumergroup=__strimzi-topic-operator-kstreams},1651384750,0
{consumergroup=__strimzi-topic-operator-kstreams},1651384755,0
{consumergroup=__strimzi-topic-operator-kstreams},1651384760,0
{consumergroup=__strimzi-topic-operator-kstreams},1651384765,0
{consumergroup=__strimzi-topic-operator-kstreams},1651384770,0
{consumergroup=__strimzi-topic-operator-kstreams},1651384775,0
{consumergroup=__strimzi-topic-operator-kstreams},1651384780,0
{consumergroup=__strimzi-topic-operator-kstreams},1651384785,0
{consumergroup=__strimzi-topic-operator-kstreams},1651384790,0
{consumergroup=__strimzi-topic-operator-kstreams},1651384795,0
{consumergroup=__strimzi-topic-operator-kstreams},1651384800,0
{consumergroup=__strimzi-topic-operator-kstreams},1651384805,0
{consumergroup=__strimzi-topic-operator-kstreams},1651384810,0
{consumergroup=__strimzi-topic-operator-kstreams},1651384815,0
{consumergroup=__strimzi-topic-operator-kstreams},1651384820,0
{consumergroup=__strimzi-topic-operator-kstreams},1651384825,0
{consumergroup=__strimzi-topic-operator-kstreams},1651384830,0
{consumergroup=__strimzi-topic-operator-kstreams},1651384835,0
{consumergroup=__strimzi-topic-operator-kstreams},1651384840,0
{consumergroup=__strimzi-topic-operator-kstreams},1651384845,0
{consumergroup=__strimzi-topic-operator-kstreams},1651384850,0
{consumergroup=__strimzi-topic-operator-kstreams},1651384855,0
{consumergroup=__strimzi-topic-operator-kstreams},1651384860,0
{consumergroup=__strimzi-topic-operator-kstreams},1651384865,0
{consumergroup=__strimzi-topic-operator-kstreams},1651384870,0
{consumergroup=__strimzi-topic-operator-kstreams},1651384875,0
{consumergroup=__strimzi-topic-operator-kstreams},1651384880,0
{consumergroup=__strimzi-topic-operator-kstreams},1651384885,0
{consumergroup=__strimzi-topic-operator-kstreams},1651384890,0
{consumergroup=__strimzi-topic-operator-kstreams},1651384895,0
{consumergroup=__strimzi-topic-operator-kstreams},1651384900,0
{consumergroup=__strimzi-topic-operator-kstreams},1651384905,0
{consumergroup=__strimzi-topic-operator-kstreams},1651384910,0
{consumergroup=__strimzi-topic-operator-kstreams},1651384915,0
{consumergroup=__strimzi-topic-operator-kstreams},1651384920,0
{consumergroup=__strimzi-topic-operator-kstreams},1651384925,0
{consumergroup=__strimzi-topic-operator-kstreams},1651384930,0
{consumergroup=__strimzi-topic-operator-kstreams},1651384935,0
{consumergroup=__strimzi-topic-operator-kstreams},1651384940,0
{consumergroup=__strimzi-topic-operator-kstreams},1651384945,0
{consumergroup=adapter-service},1651384720,121056
{consumergroup=adapter-service},1651384725,121056
{consumergroup=adapter-service},1651384730,121056
{consumergroup=adapter-service},1651384735,1018013
{consumergroup=adapter-service},1651384740,1018013
{consumergroup=adapter-service},1651384745,1018013
{consumergroup=adapter-service},1651384750,1707029
{consumergroup=adapter-service},1651384755,1707029
{consumergroup=adapter-service},1651384760,1707029
{consumergroup=adapter-service},1651384765,2309512
{consumergroup=adapter-service},1651384770,2309512
{consumergroup=adapter-service},1651384775,2309512
{consumergroup=adapter-service},1651384780,2785941
{consumergroup=adapter-service},1651384785,2785941
{consumergroup=adapter-service},1651384790,2785941
{consumergroup=adapter-service},1651384795,3309677
{consumergroup=adapter-service},1651384800,3309677
{consumergroup=adapter-service},1651384805,3309677
{consumergroup=adapter-service},1651384810,3661061
{consumergroup=adapter-service},1651384815,3661061
{consumergroup=adapter-service},1651384820,3661061
{consumergroup=adapter-service},1651384825,3905890
{consumergroup=adapter-service},1651384830,3905890
{consumergroup=adapter-service},1651384835,3905890
{consumergroup=adapter-service},1651384840,4086013
{consumergroup=adapter-service},1651384845,4086013
{consumergroup=adapter-service},1651384850,4086013
{consumergroup=adapter-service},1651384855,4192808
{consumergroup=adapter-service},1651384860,4192808
{consumergroup=adapter-service},1651384865,4192808
{consumergroup=adapter-service},1651384870,4302968
{consumergroup=adapter-service},1651384875,4302968
{consumergroup=adapter-service},1651384880,4302968
{consumergroup=adapter-service},1651384885,4326543
{consumergroup=adapter-service},1651384890,4326543
{consumergroup=adapter-service},1651384895,4326543
{consumergroup=adapter-service},1651384900,4481728
{consumergroup=adapter-service},1651384905,4481728
{consumergroup=adapter-service},1651384910,4481728
{consumergroup=adapter-service},1651384915,4580670
{consumergroup=adapter-service},1651384920,4580670
{consumergroup=adapter-service},1651384925,4580670
{consumergroup=adapter-service},1651384930,4655096
{consumergroup=adapter-service},1651384935,4655096
{consumergroup=adapter-service},1651384940,4655096
{consumergroup=adapter-service},1651384945,4736274
