labels,timestamp,value
{consumergroup=__strimzi-topic-operator-kstreams},1651370969,9
{consumergroup=__strimzi-topic-operator-kstreams},1651370974,9
{consumergroup=__strimzi-topic-operator-kstreams},1651370979,9
{consumergroup=__strimzi-topic-operator-kstreams},1651370984,14
{consumergroup=__strimzi-topic-operator-kstreams},1651370989,14
{consumergroup=__strimzi-topic-operator-kstreams},1651370994,14
{consumergroup=__strimzi-topic-operator-kstreams},1651370999,0
{consumergroup=__strimzi-topic-operator-kstreams},1651371004,0
{consumergroup=__strimzi-topic-operator-kstreams},1651371009,0
{consumergroup=__strimzi-topic-operator-kstreams},1651371014,0
{consumergroup=__strimzi-topic-operator-kstreams},1651371019,0
{consumergroup=__strimzi-topic-operator-kstreams},1651371024,0
{consumergroup=__strimzi-topic-operator-kstreams},1651371029,0
{consumergroup=__strimzi-topic-operator-kstreams},1651371034,0
{consumergroup=__strimzi-topic-operator-kstreams},1651371039,0
{consumergroup=__strimzi-topic-operator-kstreams},1651371044,0
{consumergroup=__strimzi-topic-operator-kstreams},1651371049,0
{consumergroup=__strimzi-topic-operator-kstreams},1651371054,0
{consumergroup=__strimzi-topic-operator-kstreams},1651371059,0
{consumergroup=__strimzi-topic-operator-kstreams},1651371064,0
{consumergroup=__strimzi-topic-operator-kstreams},1651371069,0
{consumergroup=__strimzi-topic-operator-kstreams},1651371074,0
{consumergroup=__strimzi-topic-operator-kstreams},1651371079,0
{consumergroup=__strimzi-topic-operator-kstreams},1651371084,0
{consumergroup=__strimzi-topic-operator-kstreams},1651371089,0
{consumergroup=__strimzi-topic-operator-kstreams},1651371094,0
{consumergroup=__strimzi-topic-operator-kstreams},1651371099,0
{consumergroup=__strimzi-topic-operator-kstreams},1651371104,0
{consumergroup=__strimzi-topic-operator-kstreams},1651371109,0
{consumergroup=__strimzi-topic-operator-kstreams},1651371114,0
{consumergroup=__strimzi-topic-operator-kstreams},1651371119,0
{consumergroup=__strimzi-topic-operator-kstreams},1651371124,0
{consumergroup=__strimzi-topic-operator-kstreams},1651371129,0
{consumergroup=__strimzi-topic-operator-kstreams},1651371134,0
{consumergroup=__strimzi-topic-operator-kstreams},1651371139,0
{consumergroup=__strimzi-topic-operator-kstreams},1651371144,0
{consumergroup=__strimzi-topic-operator-kstreams},1651371149,0
{consumergroup=__strimzi-topic-operator-kstreams},1651371154,0
{consumergroup=__strimzi-topic-operator-kstreams},1651371159,0
{consumergroup=__strimzi-topic-operator-kstreams},1651371164,0
{consumergroup=__strimzi-topic-operator-kstreams},1651371169,0
{consumergroup=__strimzi-topic-operator-kstreams},1651371174,0
{consumergroup=__strimzi-topic-operator-kstreams},1651371179,0
{consumergroup=__strimzi-topic-operator-kstreams},1651371184,0
{consumergroup=__strimzi-topic-operator-kstreams},1651371189,0
{consumergroup=__strimzi-topic-operator-kstreams},1651371194,0
{consumergroup=__strimzi-topic-operator-kstreams},1651371199,0
{consumergroup=__strimzi-topic-operator-kstreams},1651371204,0
{consumergroup=__strimzi-topic-operator-kstreams},1651371209,0
{consumergroup=__strimzi-topic-operator-kstreams},1651371214,0
{consumergroup=__strimzi-topic-operator-kstreams},1651371219,0
{consumergroup=__strimzi-topic-operator-kstreams},1651371224,0
{consumergroup=adapter-service},1651370999,90336
{consumergroup=adapter-service},1651371004,90336
{consumergroup=adapter-service},1651371009,90336
{consumergroup=adapter-service},1651371014,1178129
{consumergroup=adapter-service},1651371019,1178129
{consumergroup=adapter-service},1651371024,1178129
{consumergroup=adapter-service},1651371029,2200521
{consumergroup=adapter-service},1651371034,2200521
{consumergroup=adapter-service},1651371039,2200521
{consumergroup=adapter-service},1651371044,3091147
{consumergroup=adapter-service},1651371049,3091147
{consumergroup=adapter-service},1651371054,3091147
{consumergroup=adapter-service},1651371059,3961880
{consumergroup=adapter-service},1651371064,3961880
{consumergroup=adapter-service},1651371069,3961880
{consumergroup=adapter-service},1651371074,4785418
{consumergroup=adapter-service},1651371079,4785418
{consumergroup=adapter-service},1651371084,4785418
{consumergroup=adapter-service},1651371089,5488700
{consumergroup=adapter-service},1651371094,5488700
{consumergroup=adapter-service},1651371099,5488700
{consumergroup=adapter-service},1651371104,6205239
{consumergroup=adapter-service},1651371109,6205239
{consumergroup=adapter-service},1651371114,6205239
{consumergroup=adapter-service},1651371119,6872040
{consumergroup=adapter-service},1651371124,6872040
{consumergroup=adapter-service},1651371129,6872040
{consumergroup=adapter-service},1651371134,7542269
{consumergroup=adapter-service},1651371139,7542269
{consumergroup=adapter-service},1651371144,7542269
{consumergroup=adapter-service},1651371149,8196372
{consumergroup=adapter-service},1651371154,8196372
{consumergroup=adapter-service},1651371159,8196372
{consumergroup=adapter-service},1651371164,8855985
{consumergroup=adapter-service},1651371169,8855985
{consumergroup=adapter-service},1651371174,8855985
{consumergroup=adapter-service},1651371179,9506541
{consumergroup=adapter-service},1651371184,9506541
{consumergroup=adapter-service},1651371189,9506541
{consumergroup=adapter-service},1651371194,10172407
{consumergroup=adapter-service},1651371199,10172407
{consumergroup=adapter-service},1651371204,10172407
{consumergroup=adapter-service},1651371209,10830622
{consumergroup=adapter-service},1651371214,10830622
{consumergroup=adapter-service},1651371219,10830622
{consumergroup=adapter-service},1651371224,11549842
