labels,timestamp,value
{consumergroup=__strimzi-topic-operator-kstreams},1651406463,0
{consumergroup=__strimzi-topic-operator-kstreams},1651406468,0
{consumergroup=__strimzi-topic-operator-kstreams},1651406473,0
{consumergroup=__strimzi-topic-operator-kstreams},1651406478,0
{consumergroup=__strimzi-topic-operator-kstreams},1651406483,0
{consumergroup=__strimzi-topic-operator-kstreams},1651406488,0
{consumergroup=__strimzi-topic-operator-kstreams},1651406493,0
{consumergroup=__strimzi-topic-operator-kstreams},1651406498,0
{consumergroup=__strimzi-topic-operator-kstreams},1651406503,0
{consumergroup=__strimzi-topic-operator-kstreams},1651406508,0
{consumergroup=__strimzi-topic-operator-kstreams},1651406513,0
{consumergroup=__strimzi-topic-operator-kstreams},1651406518,0
{consumergroup=__strimzi-topic-operator-kstreams},1651406523,0
{consumergroup=__strimzi-topic-operator-kstreams},1651406528,0
{consumergroup=__strimzi-topic-operator-kstreams},1651406533,0
{consumergroup=__strimzi-topic-operator-kstreams},1651406538,0
{consumergroup=__strimzi-topic-operator-kstreams},1651406543,0
{consumergroup=__strimzi-topic-operator-kstreams},1651406548,0
{consumergroup=__strimzi-topic-operator-kstreams},1651406553,0
{consumergroup=__strimzi-topic-operator-kstreams},1651406558,0
{consumergroup=__strimzi-topic-operator-kstreams},1651406563,0
{consumergroup=__strimzi-topic-operator-kstreams},1651406568,0
{consumergroup=__strimzi-topic-operator-kstreams},1651406573,0
{consumergroup=__strimzi-topic-operator-kstreams},1651406578,0
{consumergroup=__strimzi-topic-operator-kstreams},1651406583,0
{consumergroup=__strimzi-topic-operator-kstreams},1651406588,0
{consumergroup=__strimzi-topic-operator-kstreams},1651406593,0
{consumergroup=__strimzi-topic-operator-kstreams},1651406598,0
{consumergroup=__strimzi-topic-operator-kstreams},1651406603,0
{consumergroup=__strimzi-topic-operator-kstreams},1651406608,0
{consumergroup=__strimzi-topic-operator-kstreams},1651406613,0
{consumergroup=__strimzi-topic-operator-kstreams},1651406618,0
{consumergroup=__strimzi-topic-operator-kstreams},1651406623,0
{consumergroup=__strimzi-topic-operator-kstreams},1651406628,0
{consumergroup=__strimzi-topic-operator-kstreams},1651406633,0
{consumergroup=__strimzi-topic-operator-kstreams},1651406638,0
{consumergroup=__strimzi-topic-operator-kstreams},1651406643,0
{consumergroup=__strimzi-topic-operator-kstreams},1651406648,0
{consumergroup=__strimzi-topic-operator-kstreams},1651406653,0
{consumergroup=__strimzi-topic-operator-kstreams},1651406658,0
{consumergroup=__strimzi-topic-operator-kstreams},1651406663,0
{consumergroup=__strimzi-topic-operator-kstreams},1651406668,0
{consumergroup=__strimzi-topic-operator-kstreams},1651406673,0
{consumergroup=__strimzi-topic-operator-kstreams},1651406678,0
{consumergroup=__strimzi-topic-operator-kstreams},1651406683,0
{consumergroup=__strimzi-topic-operator-kstreams},1651406688,0
{consumergroup=__strimzi-topic-operator-kstreams},1651406693,0
{consumergroup=__strimzi-topic-operator-kstreams},1651406698,0
{consumergroup=__strimzi-topic-operator-kstreams},1651406703,0
{consumergroup=__strimzi-topic-operator-kstreams},1651406708,0
{consumergroup=adapter-service},1651406493,69191
{consumergroup=adapter-service},1651406498,69191
{consumergroup=adapter-service},1651406503,69191
{consumergroup=adapter-service},1651406508,157582
{consumergroup=adapter-service},1651406513,157582
{consumergroup=adapter-service},1651406518,157582
{consumergroup=adapter-service},1651406523,134454
{consumergroup=adapter-service},1651406528,134454
{consumergroup=adapter-service},1651406533,134454
{consumergroup=adapter-service},1651406538,124049
{consumergroup=adapter-service},1651406543,124049
{consumergroup=adapter-service},1651406548,124049
{consumergroup=adapter-service},1651406553,108766
{consumergroup=adapter-service},1651406558,108766
{consumergroup=adapter-service},1651406563,108766
{consumergroup=adapter-service},1651406568,122551
{consumergroup=adapter-service},1651406573,122551
{consumergroup=adapter-service},1651406578,122551
{consumergroup=adapter-service},1651406583,118906
{consumergroup=adapter-service},1651406588,118906
{consumergroup=adapter-service},1651406593,118906
{consumergroup=adapter-service},1651406598,143323
{consumergroup=adapter-service},1651406603,143323
{consumergroup=adapter-service},1651406608,143323
{consumergroup=adapter-service},1651406613,133870
{consumergroup=adapter-service},1651406618,133870
{consumergroup=adapter-service},1651406623,133870
{consumergroup=adapter-service},1651406628,138631
{consumergroup=adapter-service},1651406633,138631
{consumergroup=adapter-service},1651406638,138631
{consumergroup=adapter-service},1651406643,108704
{consumergroup=adapter-service},1651406648,108704
{consumergroup=adapter-service},1651406653,108704
{consumergroup=adapter-service},1651406658,135923
{consumergroup=adapter-service},1651406663,135923
{consumergroup=adapter-service},1651406668,135923
{consumergroup=adapter-service},1651406673,97820
{consumergroup=adapter-service},1651406678,97820
{consumergroup=adapter-service},1651406683,97820
{consumergroup=adapter-service},1651406688,127595
{consumergroup=adapter-service},1651406693,127595
{consumergroup=adapter-service},1651406698,127595
{consumergroup=adapter-service},1651406703,126186
{consumergroup=adapter-service},1651406708,126186
