labels,timestamp,value
{job=theodolite-stu200776/combined-trace-podmonitor},1651308086,0
{job=theodolite-stu200776/combined-trace-podmonitor},1651308091,0
{job=theodolite-stu200776/combined-trace-podmonitor},1651308096,0
{job=theodolite-stu200776/combined-trace-podmonitor},1651308101,0
{job=theodolite-stu200776/combined-trace-podmonitor},1651308106,0
{job=theodolite-stu200776/combined-trace-podmonitor},1651308111,0
{job=theodolite-stu200776/combined-trace-podmonitor},1651308116,0
{job=theodolite-stu200776/combined-trace-podmonitor},1651308121,0
{job=theodolite-stu200776/combined-trace-podmonitor},1651308126,0
{job=theodolite-stu200776/combined-trace-podmonitor},1651308131,0
{job=theodolite-stu200776/combined-trace-podmonitor},1651308136,0
{job=theodolite-stu200776/combined-trace-podmonitor},1651308141,0
{job=theodolite-stu200776/combined-trace-podmonitor},1651308146,0
{job=theodolite-stu200776/combined-trace-podmonitor},1651308151,0
{job=theodolite-stu200776/combined-trace-podmonitor},1651308156,0
{job=theodolite-stu200776/combined-trace-podmonitor},1651308161,0
{job=theodolite-stu200776/combined-trace-podmonitor},1651308166,0
{job=theodolite-stu200776/combined-trace-podmonitor},1651308171,0
{job=theodolite-stu200776/combined-trace-podmonitor},1651308176,0
{job=theodolite-stu200776/combined-trace-podmonitor},1651308181,0
{job=theodolite-stu200776/combined-trace-podmonitor},1651308186,0
{job=theodolite-stu200776/combined-trace-podmonitor},1651308191,0
{job=theodolite-stu200776/combined-trace-podmonitor},1651308196,0
{job=theodolite-stu200776/combined-trace-podmonitor},1651308201,0
{job=theodolite-stu200776/combined-trace-podmonitor},1651308206,0
{job=theodolite-stu200776/combined-trace-podmonitor},1651308211,0
{job=theodolite-stu200776/combined-trace-podmonitor},1651308216,0
{job=theodolite-stu200776/combined-trace-podmonitor},1651308221,0
{job=theodolite-stu200776/combined-trace-podmonitor},1651308226,0
{job=theodolite-stu200776/combined-trace-podmonitor},1651308231,0
{job=theodolite-stu200776/combined-trace-podmonitor},1651308236,0
{job=theodolite-stu200776/combined-trace-podmonitor},1651308241,0
{job=theodolite-stu200776/combined-trace-podmonitor},1651308246,0
{job=theodolite-stu200776/combined-trace-podmonitor},1651308251,0
{job=theodolite-stu200776/combined-trace-podmonitor},1651308256,0
{job=theodolite-stu200776/combined-trace-podmonitor},1651308261,0
{job=theodolite-stu200776/combined-trace-podmonitor},1651308266,0
{job=theodolite-stu200776/combined-trace-podmonitor},1651308271,0
{job=theodolite-stu200776/combined-trace-podmonitor},1651308276,0
{job=theodolite-stu200776/combined-trace-podmonitor},1651308281,0
{job=theodolite-stu200776/combined-trace-podmonitor},1651308286,0
{job=theodolite-stu200776/combined-trace-podmonitor},1651308291,0
{job=theodolite-stu200776/combined-trace-podmonitor},1651308296,0
{job=theodolite-stu200776/combined-trace-podmonitor},1651308301,0
{job=theodolite-stu200776/combined-trace-podmonitor},1651308306,0
{job=theodolite-stu200776/combined-trace-podmonitor},1651308311,0
{job=theodolite-stu200776/combined-trace-podmonitor},1651308316,0
{job=theodolite-stu200776/combined-trace-podmonitor},1651308321,0
{job=theodolite-stu200776/combined-trace-podmonitor},1651308326,0
{job=theodolite-stu200776/combined-trace-podmonitor},1651308331,0
{job=theodolite-stu200776/combined-trace-podmonitor},1651308336,0
{job=theodolite-stu200776/combined-trace-podmonitor},1651308341,0
{job=theodolite-stu200776/combined-trace-podmonitor},1651308346,0
{job=theodolite-stu200776/combined-trace-podmonitor},1651308351,0
{job=theodolite-stu200776/combined-trace-podmonitor},1651308356,0
{job=theodolite-stu200776/combined-trace-podmonitor},1651308361,0
