labels,timestamp,value
{consumergroup=__strimzi-topic-operator-kstreams},1651344508,0
{consumergroup=__strimzi-topic-operator-kstreams},1651344513,0
{consumergroup=__strimzi-topic-operator-kstreams},1651344518,0
{consumergroup=__strimzi-topic-operator-kstreams},1651344523,0
{consumergroup=__strimzi-topic-operator-kstreams},1651344528,0
{consumergroup=__strimzi-topic-operator-kstreams},1651344533,0
{consumergroup=__strimzi-topic-operator-kstreams},1651344538,0
{consumergroup=__strimzi-topic-operator-kstreams},1651344543,0
{consumergroup=__strimzi-topic-operator-kstreams},1651344548,0
{consumergroup=__strimzi-topic-operator-kstreams},1651344553,0
{consumergroup=__strimzi-topic-operator-kstreams},1651344558,0
{consumergroup=__strimzi-topic-operator-kstreams},1651344563,0
{consumergroup=__strimzi-topic-operator-kstreams},1651344568,0
{consumergroup=__strimzi-topic-operator-kstreams},1651344573,0
{consumergroup=__strimzi-topic-operator-kstreams},1651344578,0
{consumergroup=__strimzi-topic-operator-kstreams},1651344583,0
{consumergroup=__strimzi-topic-operator-kstreams},1651344588,0
{consumergroup=__strimzi-topic-operator-kstreams},1651344593,0
{consumergroup=__strimzi-topic-operator-kstreams},1651344598,0
{consumergroup=__strimzi-topic-operator-kstreams},1651344603,0
{consumergroup=__strimzi-topic-operator-kstreams},1651344608,0
{consumergroup=__strimzi-topic-operator-kstreams},1651344613,0
{consumergroup=__strimzi-topic-operator-kstreams},1651344618,0
{consumergroup=__strimzi-topic-operator-kstreams},1651344623,0
{consumergroup=__strimzi-topic-operator-kstreams},1651344628,0
{consumergroup=__strimzi-topic-operator-kstreams},1651344633,0
{consumergroup=__strimzi-topic-operator-kstreams},1651344638,0
{consumergroup=__strimzi-topic-operator-kstreams},1651344643,0
{consumergroup=__strimzi-topic-operator-kstreams},1651344648,0
{consumergroup=__strimzi-topic-operator-kstreams},1651344653,0
{consumergroup=__strimzi-topic-operator-kstreams},1651344658,0
{consumergroup=__strimzi-topic-operator-kstreams},1651344663,0
{consumergroup=__strimzi-topic-operator-kstreams},1651344668,0
{consumergroup=__strimzi-topic-operator-kstreams},1651344673,0
{consumergroup=__strimzi-topic-operator-kstreams},1651344678,0
{consumergroup=__strimzi-topic-operator-kstreams},1651344683,0
{consumergroup=__strimzi-topic-operator-kstreams},1651344688,0
{consumergroup=__strimzi-topic-operator-kstreams},1651344693,0
{consumergroup=__strimzi-topic-operator-kstreams},1651344698,0
{consumergroup=__strimzi-topic-operator-kstreams},1651344703,0
{consumergroup=__strimzi-topic-operator-kstreams},1651344708,0
{consumergroup=__strimzi-topic-operator-kstreams},1651344713,0
{consumergroup=__strimzi-topic-operator-kstreams},1651344718,0
{consumergroup=__strimzi-topic-operator-kstreams},1651344723,0
{consumergroup=__strimzi-topic-operator-kstreams},1651344728,0
{consumergroup=__strimzi-topic-operator-kstreams},1651344733,0
{consumergroup=__strimzi-topic-operator-kstreams},1651344738,0
{consumergroup=__strimzi-topic-operator-kstreams},1651344743,0
{consumergroup=__strimzi-topic-operator-kstreams},1651344748,0
{consumergroup=__strimzi-topic-operator-kstreams},1651344753,0
{consumergroup=__strimzi-topic-operator-kstreams},1651344758,0
{consumergroup=__strimzi-topic-operator-kstreams},1651344763,0
{consumergroup=__strimzi-topic-operator-kstreams},1651344768,0
{consumergroup=adapter-service},1651344548,968919
{consumergroup=adapter-service},1651344553,968919
{consumergroup=adapter-service},1651344558,968919
{consumergroup=adapter-service},1651344563,2906942
{consumergroup=adapter-service},1651344568,2906942
{consumergroup=adapter-service},1651344573,2906942
{consumergroup=adapter-service},1651344578,4714755
{consumergroup=adapter-service},1651344583,4714755
{consumergroup=adapter-service},1651344588,4714755
{consumergroup=adapter-service},1651344593,6628777
{consumergroup=adapter-service},1651344598,6628777
{consumergroup=adapter-service},1651344603,6628777
{consumergroup=adapter-service},1651344608,8474329
{consumergroup=adapter-service},1651344613,8474329
{consumergroup=adapter-service},1651344618,8474329
{consumergroup=adapter-service},1651344623,10258781
{consumergroup=adapter-service},1651344628,10258781
{consumergroup=adapter-service},1651344633,10258781
{consumergroup=adapter-service},1651344638,12125884
{consumergroup=adapter-service},1651344643,12125884
{consumergroup=adapter-service},1651344648,12125884
{consumergroup=adapter-service},1651344653,13875094
{consumergroup=adapter-service},1651344658,13875094
{consumergroup=adapter-service},1651344663,13875094
{consumergroup=adapter-service},1651344668,15908114
{consumergroup=adapter-service},1651344673,15908114
{consumergroup=adapter-service},1651344678,15908114
{consumergroup=adapter-service},1651344683,17537013
{consumergroup=adapter-service},1651344688,17537013
{consumergroup=adapter-service},1651344693,17537013
{consumergroup=adapter-service},1651344698,19562401
{consumergroup=adapter-service},1651344703,19562401
{consumergroup=adapter-service},1651344708,19562401
{consumergroup=adapter-service},1651344713,21223688
{consumergroup=adapter-service},1651344718,21223688
{consumergroup=adapter-service},1651344723,21223688
{consumergroup=adapter-service},1651344728,22971458
{consumergroup=adapter-service},1651344733,22971458
{consumergroup=adapter-service},1651344738,22971458
{consumergroup=adapter-service},1651344743,24841147
{consumergroup=adapter-service},1651344748,24841147
{consumergroup=adapter-service},1651344753,24841147
{consumergroup=adapter-service},1651344758,26727574
{consumergroup=adapter-service},1651344763,26727574
{consumergroup=adapter-service},1651344768,26727574
