labels,timestamp,value
{consumergroup=__strimzi-topic-operator-kstreams},1651415726,0
{consumergroup=__strimzi-topic-operator-kstreams},1651415731,0
{consumergroup=__strimzi-topic-operator-kstreams},1651415736,0
{consumergroup=__strimzi-topic-operator-kstreams},1651415741,0
{consumergroup=__strimzi-topic-operator-kstreams},1651415746,0
{consumergroup=__strimzi-topic-operator-kstreams},1651415751,0
{consumergroup=__strimzi-topic-operator-kstreams},1651415756,0
{consumergroup=__strimzi-topic-operator-kstreams},1651415761,0
{consumergroup=__strimzi-topic-operator-kstreams},1651415766,0
{consumergroup=__strimzi-topic-operator-kstreams},1651415771,0
{consumergroup=__strimzi-topic-operator-kstreams},1651415776,0
{consumergroup=__strimzi-topic-operator-kstreams},1651415781,0
{consumergroup=__strimzi-topic-operator-kstreams},1651415786,0
{consumergroup=__strimzi-topic-operator-kstreams},1651415791,0
{consumergroup=__strimzi-topic-operator-kstreams},1651415796,0
{consumergroup=__strimzi-topic-operator-kstreams},1651415801,0
{consumergroup=__strimzi-topic-operator-kstreams},1651415806,0
{consumergroup=__strimzi-topic-operator-kstreams},1651415811,0
{consumergroup=__strimzi-topic-operator-kstreams},1651415816,0
{consumergroup=__strimzi-topic-operator-kstreams},1651415821,0
{consumergroup=__strimzi-topic-operator-kstreams},1651415826,0
{consumergroup=__strimzi-topic-operator-kstreams},1651415831,0
{consumergroup=__strimzi-topic-operator-kstreams},1651415836,0
{consumergroup=__strimzi-topic-operator-kstreams},1651415841,0
{consumergroup=__strimzi-topic-operator-kstreams},1651415846,0
{consumergroup=__strimzi-topic-operator-kstreams},1651415851,0
{consumergroup=__strimzi-topic-operator-kstreams},1651415856,0
{consumergroup=__strimzi-topic-operator-kstreams},1651415861,0
{consumergroup=__strimzi-topic-operator-kstreams},1651415866,0
{consumergroup=__strimzi-topic-operator-kstreams},1651415871,0
{consumergroup=__strimzi-topic-operator-kstreams},1651415876,0
{consumergroup=__strimzi-topic-operator-kstreams},1651415881,0
{consumergroup=__strimzi-topic-operator-kstreams},1651415886,0
{consumergroup=__strimzi-topic-operator-kstreams},1651415891,0
{consumergroup=__strimzi-topic-operator-kstreams},1651415896,0
{consumergroup=__strimzi-topic-operator-kstreams},1651415901,0
{consumergroup=__strimzi-topic-operator-kstreams},1651415906,0
{consumergroup=__strimzi-topic-operator-kstreams},1651415911,0
{consumergroup=__strimzi-topic-operator-kstreams},1651415916,0
{consumergroup=__strimzi-topic-operator-kstreams},1651415921,0
{consumergroup=__strimzi-topic-operator-kstreams},1651415926,0
{consumergroup=__strimzi-topic-operator-kstreams},1651415931,0
{consumergroup=__strimzi-topic-operator-kstreams},1651415936,0
{consumergroup=__strimzi-topic-operator-kstreams},1651415941,0
{consumergroup=__strimzi-topic-operator-kstreams},1651415946,0
{consumergroup=__strimzi-topic-operator-kstreams},1651415951,0
{consumergroup=__strimzi-topic-operator-kstreams},1651415956,0
{consumergroup=__strimzi-topic-operator-kstreams},1651415961,0
{consumergroup=__strimzi-topic-operator-kstreams},1651415966,0
{consumergroup=__strimzi-topic-operator-kstreams},1651415971,0
{consumergroup=__strimzi-topic-operator-kstreams},1651415976,0
{consumergroup=adapter-service},1651415756,137616
{consumergroup=adapter-service},1651415761,137616
{consumergroup=adapter-service},1651415766,137616
{consumergroup=adapter-service},1651415771,92296
{consumergroup=adapter-service},1651415776,92296
{consumergroup=adapter-service},1651415781,92296
{consumergroup=adapter-service},1651415786,34829
{consumergroup=adapter-service},1651415791,34829
{consumergroup=adapter-service},1651415796,34829
{consumergroup=adapter-service},1651415801,43788
{consumergroup=adapter-service},1651415806,43788
{consumergroup=adapter-service},1651415811,43788
{consumergroup=adapter-service},1651415816,46867
{consumergroup=adapter-service},1651415821,46867
{consumergroup=adapter-service},1651415826,46867
{consumergroup=adapter-service},1651415831,42333
{consumergroup=adapter-service},1651415836,42333
{consumergroup=adapter-service},1651415841,42333
{consumergroup=adapter-service},1651415846,34915
{consumergroup=adapter-service},1651415851,34915
{consumergroup=adapter-service},1651415856,34915
{consumergroup=adapter-service},1651415861,38603
{consumergroup=adapter-service},1651415866,38603
{consumergroup=adapter-service},1651415871,38603
{consumergroup=adapter-service},1651415876,40991
{consumergroup=adapter-service},1651415881,40991
{consumergroup=adapter-service},1651415886,40991
{consumergroup=adapter-service},1651415891,45485
{consumergroup=adapter-service},1651415896,45485
{consumergroup=adapter-service},1651415901,45485
{consumergroup=adapter-service},1651415906,42339
{consumergroup=adapter-service},1651415911,42339
{consumergroup=adapter-service},1651415916,42339
{consumergroup=adapter-service},1651415921,40386
{consumergroup=adapter-service},1651415926,40386
{consumergroup=adapter-service},1651415931,40386
{consumergroup=adapter-service},1651415936,48306
{consumergroup=adapter-service},1651415941,48306
{consumergroup=adapter-service},1651415946,48306
{consumergroup=adapter-service},1651415951,37426
{consumergroup=adapter-service},1651415956,37426
{consumergroup=adapter-service},1651415961,37426
{consumergroup=adapter-service},1651415966,47360
{consumergroup=adapter-service},1651415971,47360
{consumergroup=adapter-service},1651415976,47360
