labels,timestamp,value
{consumergroup=__strimzi-topic-operator-kstreams},1651387070,2
{consumergroup=__strimzi-topic-operator-kstreams},1651387075,12
{consumergroup=__strimzi-topic-operator-kstreams},1651387080,12
{consumergroup=__strimzi-topic-operator-kstreams},1651387085,12
{consumergroup=__strimzi-topic-operator-kstreams},1651387090,0
{consumergroup=__strimzi-topic-operator-kstreams},1651387095,0
{consumergroup=__strimzi-topic-operator-kstreams},1651387100,0
{consumergroup=__strimzi-topic-operator-kstreams},1651387105,0
{consumergroup=__strimzi-topic-operator-kstreams},1651387110,0
{consumergroup=__strimzi-topic-operator-kstreams},1651387115,0
{consumergroup=__strimzi-topic-operator-kstreams},1651387120,0
{consumergroup=__strimzi-topic-operator-kstreams},1651387125,0
{consumergroup=__strimzi-topic-operator-kstreams},1651387130,0
{consumergroup=__strimzi-topic-operator-kstreams},1651387135,0
{consumergroup=__strimzi-topic-operator-kstreams},1651387140,0
{consumergroup=__strimzi-topic-operator-kstreams},1651387145,0
{consumergroup=__strimzi-topic-operator-kstreams},1651387150,0
{consumergroup=__strimzi-topic-operator-kstreams},1651387155,0
{consumergroup=__strimzi-topic-operator-kstreams},1651387160,0
{consumergroup=__strimzi-topic-operator-kstreams},1651387165,0
{consumergroup=__strimzi-topic-operator-kstreams},1651387170,0
{consumergroup=__strimzi-topic-operator-kstreams},1651387175,0
{consumergroup=__strimzi-topic-operator-kstreams},1651387180,0
{consumergroup=__strimzi-topic-operator-kstreams},1651387185,0
{consumergroup=__strimzi-topic-operator-kstreams},1651387190,0
{consumergroup=__strimzi-topic-operator-kstreams},1651387195,0
{consumergroup=__strimzi-topic-operator-kstreams},1651387200,0
{consumergroup=__strimzi-topic-operator-kstreams},1651387205,0
{consumergroup=__strimzi-topic-operator-kstreams},1651387210,0
{consumergroup=__strimzi-topic-operator-kstreams},1651387215,0
{consumergroup=__strimzi-topic-operator-kstreams},1651387220,0
{consumergroup=__strimzi-topic-operator-kstreams},1651387225,0
{consumergroup=__strimzi-topic-operator-kstreams},1651387230,0
{consumergroup=__strimzi-topic-operator-kstreams},1651387235,0
{consumergroup=__strimzi-topic-operator-kstreams},1651387240,0
{consumergroup=__strimzi-topic-operator-kstreams},1651387245,0
{consumergroup=__strimzi-topic-operator-kstreams},1651387250,0
{consumergroup=__strimzi-topic-operator-kstreams},1651387255,0
{consumergroup=__strimzi-topic-operator-kstreams},1651387260,0
{consumergroup=__strimzi-topic-operator-kstreams},1651387265,0
{consumergroup=__strimzi-topic-operator-kstreams},1651387270,0
{consumergroup=__strimzi-topic-operator-kstreams},1651387275,0
{consumergroup=__strimzi-topic-operator-kstreams},1651387280,0
{consumergroup=__strimzi-topic-operator-kstreams},1651387285,0
{consumergroup=__strimzi-topic-operator-kstreams},1651387290,0
{consumergroup=__strimzi-topic-operator-kstreams},1651387295,0
{consumergroup=__strimzi-topic-operator-kstreams},1651387300,0
{consumergroup=__strimzi-topic-operator-kstreams},1651387305,0
{consumergroup=__strimzi-topic-operator-kstreams},1651387310,0
{consumergroup=__strimzi-topic-operator-kstreams},1651387315,0
{consumergroup=__strimzi-topic-operator-kstreams},1651387320,0
{consumergroup=__strimzi-topic-operator-kstreams},1651387325,0
{consumergroup=__strimzi-topic-operator-kstreams},1651387330,0
{consumergroup=adapter-service},1651387070,0
{consumergroup=adapter-service},1651387105,94256
{consumergroup=adapter-service},1651387110,94256
{consumergroup=adapter-service},1651387115,94256
{consumergroup=adapter-service},1651387120,1344155
{consumergroup=adapter-service},1651387125,1344155
{consumergroup=adapter-service},1651387130,1344155
{consumergroup=adapter-service},1651387135,2190672
{consumergroup=adapter-service},1651387140,2190672
{consumergroup=adapter-service},1651387145,2190672
{consumergroup=adapter-service},1651387150,2695053
{consumergroup=adapter-service},1651387155,2695053
{consumergroup=adapter-service},1651387160,2695053
{consumergroup=adapter-service},1651387165,3287328
{consumergroup=adapter-service},1651387170,3287328
{consumergroup=adapter-service},1651387175,3287328
{consumergroup=adapter-service},1651387180,3591256
{consumergroup=adapter-service},1651387185,3591256
{consumergroup=adapter-service},1651387190,3591256
{consumergroup=adapter-service},1651387195,3513729
{consumergroup=adapter-service},1651387200,3513729
{consumergroup=adapter-service},1651387205,3513729
{consumergroup=adapter-service},1651387210,3449119
{consumergroup=adapter-service},1651387215,3449119
{consumergroup=adapter-service},1651387220,3449119
{consumergroup=adapter-service},1651387225,3239650
{consumergroup=adapter-service},1651387230,3239650
{consumergroup=adapter-service},1651387235,3239650
{consumergroup=adapter-service},1651387240,3155788
{consumergroup=adapter-service},1651387245,3155788
{consumergroup=adapter-service},1651387250,3155788
{consumergroup=adapter-service},1651387255,2934229
{consumergroup=adapter-service},1651387260,2934229
{consumergroup=adapter-service},1651387265,2934229
{consumergroup=adapter-service},1651387270,2753477
{consumergroup=adapter-service},1651387275,2753477
{consumergroup=adapter-service},1651387280,2753477
{consumergroup=adapter-service},1651387285,2434811
{consumergroup=adapter-service},1651387290,2434811
{consumergroup=adapter-service},1651387295,2434811
{consumergroup=adapter-service},1651387300,2325181
{consumergroup=adapter-service},1651387305,2325181
{consumergroup=adapter-service},1651387310,2325181
{consumergroup=adapter-service},1651387315,2100093
{consumergroup=adapter-service},1651387320,2100093
{consumergroup=adapter-service},1651387325,2100093
{consumergroup=adapter-service},1651387330,1896176
