labels,timestamp,value
{consumergroup=__strimzi-topic-operator-kstreams},1651363089,3
{consumergroup=__strimzi-topic-operator-kstreams},1651363094,3
{consumergroup=__strimzi-topic-operator-kstreams},1651363099,3
{consumergroup=__strimzi-topic-operator-kstreams},1651363104,18
{consumergroup=__strimzi-topic-operator-kstreams},1651363109,18
{consumergroup=__strimzi-topic-operator-kstreams},1651363114,18
{consumergroup=__strimzi-topic-operator-kstreams},1651363119,0
{consumergroup=__strimzi-topic-operator-kstreams},1651363124,0
{consumergroup=__strimzi-topic-operator-kstreams},1651363129,0
{consumergroup=__strimzi-topic-operator-kstreams},1651363134,0
{consumergroup=__strimzi-topic-operator-kstreams},1651363139,0
{consumergroup=__strimzi-topic-operator-kstreams},1651363144,0
{consumergroup=__strimzi-topic-operator-kstreams},1651363149,0
{consumergroup=__strimzi-topic-operator-kstreams},1651363154,0
{consumergroup=__strimzi-topic-operator-kstreams},1651363159,0
{consumergroup=__strimzi-topic-operator-kstreams},1651363164,0
{consumergroup=__strimzi-topic-operator-kstreams},1651363169,0
{consumergroup=__strimzi-topic-operator-kstreams},1651363174,0
{consumergroup=__strimzi-topic-operator-kstreams},1651363179,0
{consumergroup=__strimzi-topic-operator-kstreams},1651363184,0
{consumergroup=__strimzi-topic-operator-kstreams},1651363189,0
{consumergroup=__strimzi-topic-operator-kstreams},1651363194,0
{consumergroup=__strimzi-topic-operator-kstreams},1651363199,0
{consumergroup=__strimzi-topic-operator-kstreams},1651363204,0
{consumergroup=__strimzi-topic-operator-kstreams},1651363209,0
{consumergroup=__strimzi-topic-operator-kstreams},1651363214,0
{consumergroup=__strimzi-topic-operator-kstreams},1651363219,0
{consumergroup=__strimzi-topic-operator-kstreams},1651363224,0
{consumergroup=__strimzi-topic-operator-kstreams},1651363229,0
{consumergroup=__strimzi-topic-operator-kstreams},1651363234,0
{consumergroup=__strimzi-topic-operator-kstreams},1651363239,0
{consumergroup=__strimzi-topic-operator-kstreams},1651363244,0
{consumergroup=__strimzi-topic-operator-kstreams},1651363249,0
{consumergroup=__strimzi-topic-operator-kstreams},1651363254,0
{consumergroup=__strimzi-topic-operator-kstreams},1651363259,0
{consumergroup=__strimzi-topic-operator-kstreams},1651363264,0
{consumergroup=__strimzi-topic-operator-kstreams},1651363269,0
{consumergroup=__strimzi-topic-operator-kstreams},1651363274,0
{consumergroup=__strimzi-topic-operator-kstreams},1651363279,0
{consumergroup=__strimzi-topic-operator-kstreams},1651363284,0
{consumergroup=__strimzi-topic-operator-kstreams},1651363289,0
{consumergroup=__strimzi-topic-operator-kstreams},1651363294,0
{consumergroup=__strimzi-topic-operator-kstreams},1651363299,0
{consumergroup=__strimzi-topic-operator-kstreams},1651363304,0
{consumergroup=__strimzi-topic-operator-kstreams},1651363309,0
{consumergroup=__strimzi-topic-operator-kstreams},1651363314,0
{consumergroup=__strimzi-topic-operator-kstreams},1651363319,0
{consumergroup=__strimzi-topic-operator-kstreams},1651363324,0
{consumergroup=__strimzi-topic-operator-kstreams},1651363329,0
{consumergroup=__strimzi-topic-operator-kstreams},1651363334,0
{consumergroup=__strimzi-topic-operator-kstreams},1651363339,0
{consumergroup=__strimzi-topic-operator-kstreams},1651363344,0
{consumergroup=adapter-service},1651363119,524678
{consumergroup=adapter-service},1651363124,524678
{consumergroup=adapter-service},1651363129,524678
{consumergroup=adapter-service},1651363134,455711
{consumergroup=adapter-service},1651363139,455711
{consumergroup=adapter-service},1651363144,455711
{consumergroup=adapter-service},1651363149,455893
{consumergroup=adapter-service},1651363154,455893
{consumergroup=adapter-service},1651363159,455893
{consumergroup=adapter-service},1651363164,362211
{consumergroup=adapter-service},1651363169,362211
{consumergroup=adapter-service},1651363174,362211
{consumergroup=adapter-service},1651363179,425345
{consumergroup=adapter-service},1651363184,425345
{consumergroup=adapter-service},1651363189,425345
{consumergroup=adapter-service},1651363194,334704
{consumergroup=adapter-service},1651363199,334704
{consumergroup=adapter-service},1651363204,334704
{consumergroup=adapter-service},1651363209,231483
{consumergroup=adapter-service},1651363214,231483
{consumergroup=adapter-service},1651363219,231483
{consumergroup=adapter-service},1651363224,274319
{consumergroup=adapter-service},1651363229,274319
{consumergroup=adapter-service},1651363234,274319
{consumergroup=adapter-service},1651363239,293138
{consumergroup=adapter-service},1651363244,293138
{consumergroup=adapter-service},1651363249,293138
{consumergroup=adapter-service},1651363254,335631
{consumergroup=adapter-service},1651363259,335631
{consumergroup=adapter-service},1651363264,335631
{consumergroup=adapter-service},1651363269,304915
{consumergroup=adapter-service},1651363274,304915
{consumergroup=adapter-service},1651363279,304915
{consumergroup=adapter-service},1651363284,155498
{consumergroup=adapter-service},1651363289,155498
{consumergroup=adapter-service},1651363294,155498
{consumergroup=adapter-service},1651363299,184194
{consumergroup=adapter-service},1651363304,184194
{consumergroup=adapter-service},1651363309,184194
{consumergroup=adapter-service},1651363314,105424
{consumergroup=adapter-service},1651363319,105424
{consumergroup=adapter-service},1651363324,105424
{consumergroup=adapter-service},1651363329,144318
{consumergroup=adapter-service},1651363334,144318
{consumergroup=adapter-service},1651363339,144318
{consumergroup=adapter-service},1651363344,206454
