labels,timestamp,value
{consumergroup=__strimzi-topic-operator-kstreams},1651355315,16
{consumergroup=__strimzi-topic-operator-kstreams},1651355320,16
{consumergroup=__strimzi-topic-operator-kstreams},1651355325,16
{consumergroup=__strimzi-topic-operator-kstreams},1651355330,0
{consumergroup=__strimzi-topic-operator-kstreams},1651355335,0
{consumergroup=__strimzi-topic-operator-kstreams},1651355340,0
{consumergroup=__strimzi-topic-operator-kstreams},1651355345,0
{consumergroup=__strimzi-topic-operator-kstreams},1651355350,0
{consumergroup=__strimzi-topic-operator-kstreams},1651355355,0
{consumergroup=__strimzi-topic-operator-kstreams},1651355360,0
{consumergroup=__strimzi-topic-operator-kstreams},1651355365,0
{consumergroup=__strimzi-topic-operator-kstreams},1651355370,0
{consumergroup=__strimzi-topic-operator-kstreams},1651355375,0
{consumergroup=__strimzi-topic-operator-kstreams},1651355380,0
{consumergroup=__strimzi-topic-operator-kstreams},1651355385,0
{consumergroup=__strimzi-topic-operator-kstreams},1651355390,0
{consumergroup=__strimzi-topic-operator-kstreams},1651355395,0
{consumergroup=__strimzi-topic-operator-kstreams},1651355400,0
{consumergroup=__strimzi-topic-operator-kstreams},1651355405,0
{consumergroup=__strimzi-topic-operator-kstreams},1651355410,0
{consumergroup=__strimzi-topic-operator-kstreams},1651355415,0
{consumergroup=__strimzi-topic-operator-kstreams},1651355420,0
{consumergroup=__strimzi-topic-operator-kstreams},1651355425,0
{consumergroup=__strimzi-topic-operator-kstreams},1651355430,0
{consumergroup=__strimzi-topic-operator-kstreams},1651355435,0
{consumergroup=__strimzi-topic-operator-kstreams},1651355440,0
{consumergroup=__strimzi-topic-operator-kstreams},1651355445,0
{consumergroup=__strimzi-topic-operator-kstreams},1651355450,0
{consumergroup=__strimzi-topic-operator-kstreams},1651355455,0
{consumergroup=__strimzi-topic-operator-kstreams},1651355460,0
{consumergroup=__strimzi-topic-operator-kstreams},1651355465,0
{consumergroup=__strimzi-topic-operator-kstreams},1651355470,0
{consumergroup=__strimzi-topic-operator-kstreams},1651355475,0
{consumergroup=__strimzi-topic-operator-kstreams},1651355480,0
{consumergroup=__strimzi-topic-operator-kstreams},1651355485,0
{consumergroup=__strimzi-topic-operator-kstreams},1651355490,0
{consumergroup=__strimzi-topic-operator-kstreams},1651355495,0
{consumergroup=__strimzi-topic-operator-kstreams},1651355500,0
{consumergroup=__strimzi-topic-operator-kstreams},1651355505,0
{consumergroup=__strimzi-topic-operator-kstreams},1651355510,0
{consumergroup=__strimzi-topic-operator-kstreams},1651355515,0
{consumergroup=__strimzi-topic-operator-kstreams},1651355520,0
{consumergroup=__strimzi-topic-operator-kstreams},1651355525,0
{consumergroup=__strimzi-topic-operator-kstreams},1651355530,0
{consumergroup=__strimzi-topic-operator-kstreams},1651355535,0
{consumergroup=__strimzi-topic-operator-kstreams},1651355540,0
{consumergroup=__strimzi-topic-operator-kstreams},1651355545,0
{consumergroup=__strimzi-topic-operator-kstreams},1651355550,0
{consumergroup=__strimzi-topic-operator-kstreams},1651355555,0
{consumergroup=__strimzi-topic-operator-kstreams},1651355560,0
{consumergroup=__strimzi-topic-operator-kstreams},1651355565,0
{consumergroup=adapter-service},1651355345,543603
{consumergroup=adapter-service},1651355350,543603
{consumergroup=adapter-service},1651355355,543603
{consumergroup=adapter-service},1651355360,1520688
{consumergroup=adapter-service},1651355365,1520688
{consumergroup=adapter-service},1651355370,1520688
{consumergroup=adapter-service},1651355375,1288482
{consumergroup=adapter-service},1651355380,1288482
{consumergroup=adapter-service},1651355385,1288482
{consumergroup=adapter-service},1651355390,1233064
{consumergroup=adapter-service},1651355395,1233064
{consumergroup=adapter-service},1651355400,1233064
{consumergroup=adapter-service},1651355405,989798
{consumergroup=adapter-service},1651355410,989798
{consumergroup=adapter-service},1651355415,989798
{consumergroup=adapter-service},1651355420,1165782
{consumergroup=adapter-service},1651355425,1165782
{consumergroup=adapter-service},1651355430,1165782
{consumergroup=adapter-service},1651355435,770677
{consumergroup=adapter-service},1651355440,770677
{consumergroup=adapter-service},1651355445,770677
{consumergroup=adapter-service},1651355450,1000951
{consumergroup=adapter-service},1651355455,1000951
{consumergroup=adapter-service},1651355460,1000951
{consumergroup=adapter-service},1651355465,1384583
{consumergroup=adapter-service},1651355470,1384583
{consumergroup=adapter-service},1651355475,1384583
{consumergroup=adapter-service},1651355480,1407596
{consumergroup=adapter-service},1651355485,1407596
{consumergroup=adapter-service},1651355490,1407596
{consumergroup=adapter-service},1651355495,1632156
{consumergroup=adapter-service},1651355500,1632156
{consumergroup=adapter-service},1651355505,1632156
{consumergroup=adapter-service},1651355510,1347889
{consumergroup=adapter-service},1651355515,1347889
{consumergroup=adapter-service},1651355520,1347889
{consumergroup=adapter-service},1651355525,1514474
{consumergroup=adapter-service},1651355530,1514474
{consumergroup=adapter-service},1651355535,1514474
{consumergroup=adapter-service},1651355540,1526780
{consumergroup=adapter-service},1651355545,1526780
{consumergroup=adapter-service},1651355550,1526780
{consumergroup=adapter-service},1651355555,1508730
{consumergroup=adapter-service},1651355560,1508730
{consumergroup=adapter-service},1651355565,1508730
