labels,timestamp,value
{consumergroup=__strimzi-topic-operator-kstreams},1651282014,0
{consumergroup=__strimzi-topic-operator-kstreams},1651282019,0
{consumergroup=__strimzi-topic-operator-kstreams},1651282024,0
{consumergroup=__strimzi-topic-operator-kstreams},1651282029,8
{consumergroup=__strimzi-topic-operator-kstreams},1651282034,8
{consumergroup=__strimzi-topic-operator-kstreams},1651282039,8
{consumergroup=__strimzi-topic-operator-kstreams},1651282044,0
{consumergroup=__strimzi-topic-operator-kstreams},1651282049,0
{consumergroup=__strimzi-topic-operator-kstreams},1651282054,0
{consumergroup=__strimzi-topic-operator-kstreams},1651282059,0
{consumergroup=__strimzi-topic-operator-kstreams},1651282064,0
{consumergroup=__strimzi-topic-operator-kstreams},1651282069,0
{consumergroup=__strimzi-topic-operator-kstreams},1651282074,0
{consumergroup=__strimzi-topic-operator-kstreams},1651282079,0
{consumergroup=__strimzi-topic-operator-kstreams},1651282084,0
{consumergroup=__strimzi-topic-operator-kstreams},1651282089,0
{consumergroup=__strimzi-topic-operator-kstreams},1651282094,0
{consumergroup=__strimzi-topic-operator-kstreams},1651282099,0
{consumergroup=__strimzi-topic-operator-kstreams},1651282104,0
{consumergroup=__strimzi-topic-operator-kstreams},1651282109,0
{consumergroup=__strimzi-topic-operator-kstreams},1651282114,0
{consumergroup=__strimzi-topic-operator-kstreams},1651282119,0
{consumergroup=__strimzi-topic-operator-kstreams},1651282124,0
{consumergroup=__strimzi-topic-operator-kstreams},1651282129,0
{consumergroup=__strimzi-topic-operator-kstreams},1651282134,0
{consumergroup=__strimzi-topic-operator-kstreams},1651282139,0
{consumergroup=__strimzi-topic-operator-kstreams},1651282144,0
{consumergroup=__strimzi-topic-operator-kstreams},1651282149,0
{consumergroup=__strimzi-topic-operator-kstreams},1651282154,0
{consumergroup=__strimzi-topic-operator-kstreams},1651282159,0
{consumergroup=__strimzi-topic-operator-kstreams},1651282164,0
{consumergroup=__strimzi-topic-operator-kstreams},1651282169,0
{consumergroup=__strimzi-topic-operator-kstreams},1651282174,0
{consumergroup=__strimzi-topic-operator-kstreams},1651282179,0
{consumergroup=__strimzi-topic-operator-kstreams},1651282184,0
{consumergroup=__strimzi-topic-operator-kstreams},1651282189,0
{consumergroup=__strimzi-topic-operator-kstreams},1651282194,0
{consumergroup=__strimzi-topic-operator-kstreams},1651282199,0
{consumergroup=__strimzi-topic-operator-kstreams},1651282204,0
{consumergroup=__strimzi-topic-operator-kstreams},1651282209,0
{consumergroup=__strimzi-topic-operator-kstreams},1651282214,0
{consumergroup=__strimzi-topic-operator-kstreams},1651282219,0
{consumergroup=__strimzi-topic-operator-kstreams},1651282224,0
{consumergroup=__strimzi-topic-operator-kstreams},1651282229,0
{consumergroup=__strimzi-topic-operator-kstreams},1651282234,0
{consumergroup=__strimzi-topic-operator-kstreams},1651282239,0
{consumergroup=__strimzi-topic-operator-kstreams},1651282244,0
{consumergroup=__strimzi-topic-operator-kstreams},1651282249,0
{consumergroup=__strimzi-topic-operator-kstreams},1651282254,0
{consumergroup=__strimzi-topic-operator-kstreams},1651282259,0
{consumergroup=__strimzi-topic-operator-kstreams},1651282264,0
{consumergroup=__strimzi-topic-operator-kstreams},1651282269,0
{consumergroup=__strimzi-topic-operator-kstreams},1651282274,0
{consumergroup=__strimzi-topic-operator-kstreams},1651282279,0
{consumergroup=__strimzi-topic-operator-kstreams},1651282284,0
{consumergroup=__strimzi-topic-operator-kstreams},1651282289,0
{consumergroup=__strimzi-topic-operator-kstreams},1651282294,0
{consumergroup=__strimzi-topic-operator-kstreams},1651282299,0
{consumergroup=__strimzi-topic-operator-kstreams},1651282304,0
{consumergroup=__strimzi-topic-operator-kstreams},1651282309,0
{consumergroup=__strimzi-topic-operator-kstreams},1651282314,0
{consumergroup=__strimzi-topic-operator-kstreams},1651282319,0
{consumergroup=__strimzi-topic-operator-kstreams},1651282324,0
{consumergroup=__strimzi-topic-operator-kstreams},1651282329,0
{consumergroup=__strimzi-topic-operator-kstreams},1651282334,0
{consumergroup=__strimzi-topic-operator-kstreams},1651282339,0
{consumergroup=__strimzi-topic-operator-kstreams},1651282344,0
{consumergroup=__strimzi-topic-operator-kstreams},1651282349,0
{consumergroup=__strimzi-topic-operator-kstreams},1651282354,0
{consumergroup=__strimzi-topic-operator-kstreams},1651282359,0
{consumergroup=__strimzi-topic-operator-kstreams},1651282364,0
{consumergroup=__strimzi-topic-operator-kstreams},1651282369,0
{consumergroup=__strimzi-topic-operator-kstreams},1651282374,0
{consumergroup=__strimzi-topic-operator-kstreams},1651282379,0
{consumergroup=__strimzi-topic-operator-kstreams},1651282384,0
{consumergroup=__strimzi-topic-operator-kstreams},1651282389,0
{consumergroup=__strimzi-topic-operator-kstreams},1651282394,0
{consumergroup=__strimzi-topic-operator-kstreams},1651282399,0
{consumergroup=__strimzi-topic-operator-kstreams},1651282404,0
{consumergroup=__strimzi-topic-operator-kstreams},1651282409,0
{consumergroup=__strimzi-topic-operator-kstreams},1651282414,0
{consumergroup=__strimzi-topic-operator-kstreams},1651282419,0
{consumergroup=__strimzi-topic-operator-kstreams},1651282424,0
{consumergroup=__strimzi-topic-operator-kstreams},1651282429,0
{consumergroup=__strimzi-topic-operator-kstreams},1651282434,0
{consumergroup=__strimzi-topic-operator-kstreams},1651282439,0
{consumergroup=__strimzi-topic-operator-kstreams},1651282444,0
{consumergroup=__strimzi-topic-operator-kstreams},1651282449,0
{consumergroup=__strimzi-topic-operator-kstreams},1651282454,0
{consumergroup=__strimzi-topic-operator-kstreams},1651282459,0
{consumergroup=__strimzi-topic-operator-kstreams},1651282464,0
{consumergroup=__strimzi-topic-operator-kstreams},1651282469,0
{consumergroup=__strimzi-topic-operator-kstreams},1651282474,0
{consumergroup=__strimzi-topic-operator-kstreams},1651282479,0
{consumergroup=__strimzi-topic-operator-kstreams},1651282484,0
{consumergroup=__strimzi-topic-operator-kstreams},1651282489,0
{consumergroup=__strimzi-topic-operator-kstreams},1651282494,0
{consumergroup=__strimzi-topic-operator-kstreams},1651282499,0
{consumergroup=__strimzi-topic-operator-kstreams},1651282504,0
{consumergroup=__strimzi-topic-operator-kstreams},1651282509,0
{consumergroup=__strimzi-topic-operator-kstreams},1651282514,0
{consumergroup=__strimzi-topic-operator-kstreams},1651282519,0
{consumergroup=__strimzi-topic-operator-kstreams},1651282524,0
{consumergroup=__strimzi-topic-operator-kstreams},1651282529,0
{consumergroup=adapter-service},1651282059,0
{consumergroup=adapter-service},1651282064,0
{consumergroup=adapter-service},1651282069,0
{consumergroup=adapter-service},1651282074,7779
{consumergroup=adapter-service},1651282079,7779
{consumergroup=adapter-service},1651282084,7779
{consumergroup=adapter-service},1651282089,11136
{consumergroup=adapter-service},1651282094,11136
{consumergroup=adapter-service},1651282099,11136
{consumergroup=adapter-service},1651282104,11928
{consumergroup=adapter-service},1651282109,11928
{consumergroup=adapter-service},1651282114,11928
{consumergroup=adapter-service},1651282119,13055
{consumergroup=adapter-service},1651282124,13055
{consumergroup=adapter-service},1651282129,13055
{consumergroup=adapter-service},1651282134,12272
{consumergroup=adapter-service},1651282139,12272
{consumergroup=adapter-service},1651282144,12272
{consumergroup=adapter-service},1651282149,9671
{consumergroup=adapter-service},1651282154,9671
{consumergroup=adapter-service},1651282159,9671
{consumergroup=adapter-service},1651282164,11693
{consumergroup=adapter-service},1651282169,11693
{consumergroup=adapter-service},1651282174,11693
{consumergroup=adapter-service},1651282179,9331
{consumergroup=adapter-service},1651282184,9331
{consumergroup=adapter-service},1651282189,9331
{consumergroup=adapter-service},1651282194,11429
{consumergroup=adapter-service},1651282199,11429
{consumergroup=adapter-service},1651282204,11429
{consumergroup=adapter-service},1651282209,8272
{consumergroup=adapter-service},1651282214,8272
{consumergroup=adapter-service},1651282219,8272
{consumergroup=adapter-service},1651282224,11186
{consumergroup=adapter-service},1651282229,11186
{consumergroup=adapter-service},1651282234,11186
{consumergroup=adapter-service},1651282239,8007
{consumergroup=adapter-service},1651282244,8007
{consumergroup=adapter-service},1651282249,8007
{consumergroup=adapter-service},1651282254,10924
{consumergroup=adapter-service},1651282259,10924
{consumergroup=adapter-service},1651282264,10924
{consumergroup=adapter-service},1651282269,7657
{consumergroup=adapter-service},1651282274,7657
{consumergroup=adapter-service},1651282279,7657
{consumergroup=adapter-service},1651282284,11246
{consumergroup=adapter-service},1651282289,11246
{consumergroup=adapter-service},1651282294,11246
{consumergroup=adapter-service},1651282299,7429
{consumergroup=adapter-service},1651282304,7429
{consumergroup=adapter-service},1651282309,7429
{consumergroup=adapter-service},1651282314,9725
{consumergroup=adapter-service},1651282319,9725
{consumergroup=adapter-service},1651282324,9725
{consumergroup=adapter-service},1651282329,7306
{consumergroup=adapter-service},1651282334,7306
{consumergroup=adapter-service},1651282339,7306
{consumergroup=adapter-service},1651282344,10686
{consumergroup=adapter-service},1651282349,10686
{consumergroup=adapter-service},1651282354,10686
{consumergroup=adapter-service},1651282359,9754
{consumergroup=adapter-service},1651282364,9754
{consumergroup=adapter-service},1651282369,9754
{consumergroup=adapter-service},1651282374,9670
{consumergroup=adapter-service},1651282379,9670
{consumergroup=adapter-service},1651282384,9670
{consumergroup=adapter-service},1651282389,6520
{consumergroup=adapter-service},1651282394,6520
{consumergroup=adapter-service},1651282399,6520
{consumergroup=adapter-service},1651282404,9484
{consumergroup=adapter-service},1651282409,9484
{consumergroup=adapter-service},1651282414,9484
{consumergroup=adapter-service},1651282419,8924
{consumergroup=adapter-service},1651282424,8924
{consumergroup=adapter-service},1651282429,8924
{consumergroup=adapter-service},1651282434,8930
{consumergroup=adapter-service},1651282439,8930
{consumergroup=adapter-service},1651282444,8930
{consumergroup=adapter-service},1651282449,5857
{consumergroup=adapter-service},1651282454,5857
{consumergroup=adapter-service},1651282459,5857
{consumergroup=adapter-service},1651282464,8748
{consumergroup=adapter-service},1651282469,8748
{consumergroup=adapter-service},1651282474,8748
{consumergroup=adapter-service},1651282479,5763
{consumergroup=adapter-service},1651282484,5763
{consumergroup=adapter-service},1651282489,5763
{consumergroup=adapter-service},1651282494,9269
{consumergroup=adapter-service},1651282499,9269
{consumergroup=adapter-service},1651282504,9269
{consumergroup=adapter-service},1651282509,5319
{consumergroup=adapter-service},1651282514,5319
{consumergroup=adapter-service},1651282519,5319
{consumergroup=adapter-service},1651282524,8159
{consumergroup=adapter-service},1651282529,8159
{consumergroup=landscape-service},1651282074,43552
{consumergroup=landscape-service},1651282079,43552
{consumergroup=landscape-service},1651282084,43552
{consumergroup=landscape-service},1651282089,10996
{consumergroup=landscape-service},1651282094,10996
{consumergroup=landscape-service},1651282099,10996
{consumergroup=landscape-service},1651282104,12857
{consumergroup=landscape-service},1651282109,12857
{consumergroup=landscape-service},1651282114,12857
{consumergroup=landscape-service},1651282119,11691
{consumergroup=landscape-service},1651282124,11691
{consumergroup=landscape-service},1651282129,11691
{consumergroup=landscape-service},1651282134,11227
{consumergroup=landscape-service},1651282139,11227
{consumergroup=landscape-service},1651282144,11227
{consumergroup=landscape-service},1651282149,7731
{consumergroup=landscape-service},1651282154,7731
{consumergroup=landscape-service},1651282159,7731
{consumergroup=landscape-service},1651282164,10455
{consumergroup=landscape-service},1651282169,10455
{consumergroup=landscape-service},1651282174,10455
{consumergroup=landscape-service},1651282179,7051
{consumergroup=landscape-service},1651282184,7051
{consumergroup=landscape-service},1651282189,7051
{consumergroup=landscape-service},1651282194,9309
{consumergroup=landscape-service},1651282199,9309
{consumergroup=landscape-service},1651282204,9309
{consumergroup=landscape-service},1651282209,5720
{consumergroup=landscape-service},1651282214,5720
{consumergroup=landscape-service},1651282219,5720
{consumergroup=landscape-service},1651282224,8537
{consumergroup=landscape-service},1651282229,8537
{consumergroup=landscape-service},1651282234,8537
{consumergroup=landscape-service},1651282239,5279
{consumergroup=landscape-service},1651282244,5279
{consumergroup=landscape-service},1651282249,5279
{consumergroup=landscape-service},1651282254,7175
{consumergroup=landscape-service},1651282259,7175
{consumergroup=landscape-service},1651282264,7175
{consumergroup=landscape-service},1651282269,4229
{consumergroup=landscape-service},1651282274,4229
{consumergroup=landscape-service},1651282279,4229
{consumergroup=landscape-service},1651282284,6754
{consumergroup=landscape-service},1651282289,6754
{consumergroup=landscape-service},1651282294,6754
{consumergroup=landscape-service},1651282299,3351
{consumergroup=landscape-service},1651282304,3351
{consumergroup=landscape-service},1651282309,3351
{consumergroup=landscape-service},1651282314,7966
{consumergroup=landscape-service},1651282319,7966
{consumergroup=landscape-service},1651282324,7966
{consumergroup=landscape-service},1651282329,2417
{consumergroup=landscape-service},1651282334,2417
{consumergroup=landscape-service},1651282339,2417
{consumergroup=landscape-service},1651282344,4318
{consumergroup=landscape-service},1651282349,4318
{consumergroup=landscape-service},1651282354,4318
{consumergroup=landscape-service},1651282359,3417
{consumergroup=landscape-service},1651282364,3417
{consumergroup=landscape-service},1651282369,3417
{consumergroup=landscape-service},1651282374,3163
{consumergroup=landscape-service},1651282379,3163
{consumergroup=landscape-service},1651282384,3163
{consumergroup=landscape-service},1651282389,15536
{consumergroup=landscape-service},1651282394,15536
{consumergroup=landscape-service},1651282399,15536
{consumergroup=landscape-service},1651282404,2560
{consumergroup=landscape-service},1651282409,2560
{consumergroup=landscape-service},1651282414,2560
{consumergroup=landscape-service},1651282419,883
{consumergroup=landscape-service},1651282424,883
{consumergroup=landscape-service},1651282429,883
{consumergroup=landscape-service},1651282434,1260
{consumergroup=landscape-service},1651282439,1260
{consumergroup=landscape-service},1651282444,1260
{consumergroup=landscape-service},1651282449,12225
{consumergroup=landscape-service},1651282454,12225
{consumergroup=landscape-service},1651282459,12225
{consumergroup=landscape-service},1651282464,310
{consumergroup=landscape-service},1651282469,310
{consumergroup=landscape-service},1651282474,310
{consumergroup=landscape-service},1651282479,11410
{consumergroup=landscape-service},1651282484,11410
{consumergroup=landscape-service},1651282489,11410
{consumergroup=landscape-service},1651282494,13964
{consumergroup=landscape-service},1651282499,13964
{consumergroup=landscape-service},1651282504,13964
{consumergroup=landscape-service},1651282509,11124
{consumergroup=landscape-service},1651282514,11124
{consumergroup=landscape-service},1651282519,11124
{consumergroup=landscape-service},1651282524,12828
{consumergroup=landscape-service},1651282529,12828
{consumergroup=trace-service},1651282074,8416
{consumergroup=trace-service},1651282079,8416
{consumergroup=trace-service},1651282084,8416
{consumergroup=trace-service},1651282089,42069
{consumergroup=trace-service},1651282094,42069
{consumergroup=trace-service},1651282099,42069
{consumergroup=trace-service},1651282104,17314
{consumergroup=trace-service},1651282109,17314
{consumergroup=trace-service},1651282114,17314
{consumergroup=trace-service},1651282119,29291
{consumergroup=trace-service},1651282124,29291
{consumergroup=trace-service},1651282129,29291
{consumergroup=trace-service},1651282134,37117
{consumergroup=trace-service},1651282139,37117
{consumergroup=trace-service},1651282144,37117
{consumergroup=trace-service},1651282149,31686
{consumergroup=trace-service},1651282154,31686
{consumergroup=trace-service},1651282159,31686
{consumergroup=trace-service},1651282164,15066
{consumergroup=trace-service},1651282169,15066
{consumergroup=trace-service},1651282174,15066
{consumergroup=trace-service},1651282179,28326
{consumergroup=trace-service},1651282184,28326
{consumergroup=trace-service},1651282189,28326
{consumergroup=trace-service},1651282194,13710
{consumergroup=trace-service},1651282199,13710
{consumergroup=trace-service},1651282204,13710
{consumergroup=trace-service},1651282209,27728
{consumergroup=trace-service},1651282214,27728
{consumergroup=trace-service},1651282219,27728
{consumergroup=trace-service},1651282224,13363
{consumergroup=trace-service},1651282229,13363
{consumergroup=trace-service},1651282234,13363
{consumergroup=trace-service},1651282239,28634
{consumergroup=trace-service},1651282244,28634
{consumergroup=trace-service},1651282249,28634
{consumergroup=trace-service},1651282254,10216
{consumergroup=trace-service},1651282259,10216
{consumergroup=trace-service},1651282264,10216
{consumergroup=trace-service},1651282269,30775
{consumergroup=trace-service},1651282274,30775
{consumergroup=trace-service},1651282279,30775
{consumergroup=trace-service},1651282284,13257
{consumergroup=trace-service},1651282289,13257
{consumergroup=trace-service},1651282294,13257
{consumergroup=trace-service},1651282299,28544
{consumergroup=trace-service},1651282304,28544
{consumergroup=trace-service},1651282309,28544
{consumergroup=trace-service},1651282314,12952
{consumergroup=trace-service},1651282319,12952
{consumergroup=trace-service},1651282324,12952
{consumergroup=trace-service},1651282329,29326
{consumergroup=trace-service},1651282334,29326
{consumergroup=trace-service},1651282339,29326
{consumergroup=trace-service},1651282344,14882
{consumergroup=trace-service},1651282349,14882
{consumergroup=trace-service},1651282354,14882
{consumergroup=trace-service},1651282359,31111
{consumergroup=trace-service},1651282364,31111
{consumergroup=trace-service},1651282369,31111
{consumergroup=trace-service},1651282374,10275
{consumergroup=trace-service},1651282379,10275
{consumergroup=trace-service},1651282384,10275
{consumergroup=trace-service},1651282389,31364
{consumergroup=trace-service},1651282394,31364
{consumergroup=trace-service},1651282399,31364
{consumergroup=trace-service},1651282404,13529
{consumergroup=trace-service},1651282409,13529
{consumergroup=trace-service},1651282414,13529
{consumergroup=trace-service},1651282419,30377
{consumergroup=trace-service},1651282424,30377
{consumergroup=trace-service},1651282429,30377
{consumergroup=trace-service},1651282434,9352
{consumergroup=trace-service},1651282439,9352
{consumergroup=trace-service},1651282444,9352
{consumergroup=trace-service},1651282449,31205
{consumergroup=trace-service},1651282454,31205
{consumergroup=trace-service},1651282459,31205
{consumergroup=trace-service},1651282464,14880
{consumergroup=trace-service},1651282469,14880
{consumergroup=trace-service},1651282474,14880
{consumergroup=trace-service},1651282479,27901
{consumergroup=trace-service},1651282484,27901
{consumergroup=trace-service},1651282489,27901
{consumergroup=trace-service},1651282494,14613
{consumergroup=trace-service},1651282499,14613
{consumergroup=trace-service},1651282504,14613
{consumergroup=trace-service},1651282509,28979
{consumergroup=trace-service},1651282514,28979
{consumergroup=trace-service},1651282519,28979
{consumergroup=trace-service},1651282524,11919
{consumergroup=trace-service},1651282529,11919
{consumergroup=trace-token-events-consumer},1651282059,0
{consumergroup=trace-token-events-consumer},1651282064,0
{consumergroup=trace-token-events-consumer},1651282069,0
{consumergroup=trace-token-events-consumer},1651282074,0
{consumergroup=trace-token-events-consumer},1651282079,0
{consumergroup=trace-token-events-consumer},1651282084,0
{consumergroup=trace-token-events-consumer},1651282089,0
{consumergroup=trace-token-events-consumer},1651282094,0
{consumergroup=trace-token-events-consumer},1651282099,0
{consumergroup=trace-token-events-consumer},1651282104,0
{consumergroup=trace-token-events-consumer},1651282109,0
{consumergroup=trace-token-events-consumer},1651282114,0
{consumergroup=trace-token-events-consumer},1651282119,0
{consumergroup=trace-token-events-consumer},1651282124,0
{consumergroup=trace-token-events-consumer},1651282129,0
{consumergroup=trace-token-events-consumer},1651282134,0
{consumergroup=trace-token-events-consumer},1651282139,0
{consumergroup=trace-token-events-consumer},1651282144,0
{consumergroup=trace-token-events-consumer},1651282149,0
{consumergroup=trace-token-events-consumer},1651282154,0
{consumergroup=trace-token-events-consumer},1651282159,0
{consumergroup=trace-token-events-consumer},1651282164,0
{consumergroup=trace-token-events-consumer},1651282169,0
{consumergroup=trace-token-events-consumer},1651282174,0
{consumergroup=trace-token-events-consumer},1651282179,0
{consumergroup=trace-token-events-consumer},1651282184,0
{consumergroup=trace-token-events-consumer},1651282189,0
{consumergroup=trace-token-events-consumer},1651282194,0
{consumergroup=trace-token-events-consumer},1651282199,0
{consumergroup=trace-token-events-consumer},1651282204,0
{consumergroup=trace-token-events-consumer},1651282209,0
{consumergroup=trace-token-events-consumer},1651282214,0
{consumergroup=trace-token-events-consumer},1651282219,0
{consumergroup=trace-token-events-consumer},1651282224,0
{consumergroup=trace-token-events-consumer},1651282229,0
{consumergroup=trace-token-events-consumer},1651282234,0
{consumergroup=trace-token-events-consumer},1651282239,0
{consumergroup=trace-token-events-consumer},1651282244,0
{consumergroup=trace-token-events-consumer},1651282249,0
{consumergroup=trace-token-events-consumer},1651282254,0
{consumergroup=trace-token-events-consumer},1651282259,0
{consumergroup=trace-token-events-consumer},1651282264,0
{consumergroup=trace-token-events-consumer},1651282269,0
{consumergroup=trace-token-events-consumer},1651282274,0
{consumergroup=trace-token-events-consumer},1651282279,0
{consumergroup=trace-token-events-consumer},1651282284,0
{consumergroup=trace-token-events-consumer},1651282289,0
{consumergroup=trace-token-events-consumer},1651282294,0
{consumergroup=trace-token-events-consumer},1651282299,0
{consumergroup=trace-token-events-consumer},1651282304,0
{consumergroup=trace-token-events-consumer},1651282309,0
{consumergroup=trace-token-events-consumer},1651282314,0
{consumergroup=trace-token-events-consumer},1651282319,0
{consumergroup=trace-token-events-consumer},1651282324,0
{consumergroup=trace-token-events-consumer},1651282329,0
{consumergroup=trace-token-events-consumer},1651282334,0
{consumergroup=trace-token-events-consumer},1651282339,0
{consumergroup=trace-token-events-consumer},1651282344,0
{consumergroup=trace-token-events-consumer},1651282349,0
{consumergroup=trace-token-events-consumer},1651282354,0
{consumergroup=trace-token-events-consumer},1651282359,0
{consumergroup=trace-token-events-consumer},1651282364,0
{consumergroup=trace-token-events-consumer},1651282369,0
{consumergroup=trace-token-events-consumer},1651282374,0
{consumergroup=trace-token-events-consumer},1651282379,0
{consumergroup=trace-token-events-consumer},1651282384,0
{consumergroup=trace-token-events-consumer},1651282389,0
{consumergroup=trace-token-events-consumer},1651282394,0
{consumergroup=trace-token-events-consumer},1651282399,0
{consumergroup=trace-token-events-consumer},1651282404,0
{consumergroup=trace-token-events-consumer},1651282409,0
{consumergroup=trace-token-events-consumer},1651282414,0
{consumergroup=trace-token-events-consumer},1651282419,0
{consumergroup=trace-token-events-consumer},1651282424,0
{consumergroup=trace-token-events-consumer},1651282429,0
{consumergroup=trace-token-events-consumer},1651282434,0
{consumergroup=trace-token-events-consumer},1651282439,0
{consumergroup=trace-token-events-consumer},1651282444,0
{consumergroup=trace-token-events-consumer},1651282449,0
{consumergroup=trace-token-events-consumer},1651282454,0
{consumergroup=trace-token-events-consumer},1651282459,0
{consumergroup=trace-token-events-consumer},1651282464,0
{consumergroup=trace-token-events-consumer},1651282469,0
{consumergroup=trace-token-events-consumer},1651282474,0
{consumergroup=trace-token-events-consumer},1651282479,0
{consumergroup=trace-token-events-consumer},1651282484,0
{consumergroup=trace-token-events-consumer},1651282489,0
{consumergroup=trace-token-events-consumer},1651282494,0
{consumergroup=trace-token-events-consumer},1651282499,0
{consumergroup=trace-token-events-consumer},1651282504,0
{consumergroup=trace-token-events-consumer},1651282509,0
{consumergroup=trace-token-events-consumer},1651282514,0
{consumergroup=trace-token-events-consumer},1651282519,0
{consumergroup=trace-token-events-consumer},1651282524,0
{consumergroup=trace-token-events-consumer},1651282529,0
