labels,timestamp,value
{consumergroup=__strimzi-topic-operator-kstreams},1651381118,17
{consumergroup=__strimzi-topic-operator-kstreams},1651381123,17
{consumergroup=__strimzi-topic-operator-kstreams},1651381128,17
{consumergroup=__strimzi-topic-operator-kstreams},1651381133,0
{consumergroup=__strimzi-topic-operator-kstreams},1651381138,0
{consumergroup=__strimzi-topic-operator-kstreams},1651381143,0
{consumergroup=__strimzi-topic-operator-kstreams},1651381148,0
{consumergroup=__strimzi-topic-operator-kstreams},1651381153,0
{consumergroup=__strimzi-topic-operator-kstreams},1651381158,0
{consumergroup=__strimzi-topic-operator-kstreams},1651381163,0
{consumergroup=__strimzi-topic-operator-kstreams},1651381168,0
{consumergroup=__strimzi-topic-operator-kstreams},1651381173,0
{consumergroup=__strimzi-topic-operator-kstreams},1651381178,0
{consumergroup=__strimzi-topic-operator-kstreams},1651381183,0
{consumergroup=__strimzi-topic-operator-kstreams},1651381188,0
{consumergroup=__strimzi-topic-operator-kstreams},1651381193,0
{consumergroup=__strimzi-topic-operator-kstreams},1651381198,0
{consumergroup=__strimzi-topic-operator-kstreams},1651381203,0
{consumergroup=__strimzi-topic-operator-kstreams},1651381208,0
{consumergroup=__strimzi-topic-operator-kstreams},1651381213,0
{consumergroup=__strimzi-topic-operator-kstreams},1651381218,0
{consumergroup=__strimzi-topic-operator-kstreams},1651381223,0
{consumergroup=__strimzi-topic-operator-kstreams},1651381228,0
{consumergroup=__strimzi-topic-operator-kstreams},1651381233,0
{consumergroup=__strimzi-topic-operator-kstreams},1651381238,0
{consumergroup=__strimzi-topic-operator-kstreams},1651381243,0
{consumergroup=__strimzi-topic-operator-kstreams},1651381248,0
{consumergroup=__strimzi-topic-operator-kstreams},1651381253,0
{consumergroup=__strimzi-topic-operator-kstreams},1651381258,0
{consumergroup=__strimzi-topic-operator-kstreams},1651381263,0
{consumergroup=__strimzi-topic-operator-kstreams},1651381268,0
{consumergroup=__strimzi-topic-operator-kstreams},1651381273,0
{consumergroup=__strimzi-topic-operator-kstreams},1651381278,0
{consumergroup=__strimzi-topic-operator-kstreams},1651381283,0
{consumergroup=__strimzi-topic-operator-kstreams},1651381288,0
{consumergroup=__strimzi-topic-operator-kstreams},1651381293,0
{consumergroup=__strimzi-topic-operator-kstreams},1651381298,0
{consumergroup=__strimzi-topic-operator-kstreams},1651381303,0
{consumergroup=__strimzi-topic-operator-kstreams},1651381308,0
{consumergroup=__strimzi-topic-operator-kstreams},1651381313,0
{consumergroup=__strimzi-topic-operator-kstreams},1651381318,0
{consumergroup=__strimzi-topic-operator-kstreams},1651381323,0
{consumergroup=__strimzi-topic-operator-kstreams},1651381328,0
{consumergroup=__strimzi-topic-operator-kstreams},1651381333,0
{consumergroup=__strimzi-topic-operator-kstreams},1651381338,0
{consumergroup=__strimzi-topic-operator-kstreams},1651381343,0
{consumergroup=__strimzi-topic-operator-kstreams},1651381348,0
{consumergroup=__strimzi-topic-operator-kstreams},1651381353,0
{consumergroup=__strimzi-topic-operator-kstreams},1651381358,0
{consumergroup=__strimzi-topic-operator-kstreams},1651381363,0
{consumergroup=adapter-service},1651381148,1365172
{consumergroup=adapter-service},1651381153,1365172
{consumergroup=adapter-service},1651381158,1365172
{consumergroup=adapter-service},1651381163,2284786
{consumergroup=adapter-service},1651381168,2284786
{consumergroup=adapter-service},1651381173,2284786
{consumergroup=adapter-service},1651381178,2967029
{consumergroup=adapter-service},1651381183,2967029
{consumergroup=adapter-service},1651381188,2967029
{consumergroup=adapter-service},1651381193,3566653
{consumergroup=adapter-service},1651381198,3566653
{consumergroup=adapter-service},1651381203,3566653
{consumergroup=adapter-service},1651381208,4026231
{consumergroup=adapter-service},1651381213,4026231
{consumergroup=adapter-service},1651381218,4026231
{consumergroup=adapter-service},1651381223,4221727
{consumergroup=adapter-service},1651381228,4221727
{consumergroup=adapter-service},1651381233,4221727
{consumergroup=adapter-service},1651381238,4173107
{consumergroup=adapter-service},1651381243,4173107
{consumergroup=adapter-service},1651381248,4173107
{consumergroup=adapter-service},1651381253,4294300
{consumergroup=adapter-service},1651381258,4294300
{consumergroup=adapter-service},1651381263,4294300
{consumergroup=adapter-service},1651381268,4351475
{consumergroup=adapter-service},1651381273,4351475
{consumergroup=adapter-service},1651381278,4351475
{consumergroup=adapter-service},1651381283,4306596
{consumergroup=adapter-service},1651381288,4306596
{consumergroup=adapter-service},1651381293,4306596
{consumergroup=adapter-service},1651381298,4286487
{consumergroup=adapter-service},1651381303,4286487
{consumergroup=adapter-service},1651381308,4286487
{consumergroup=adapter-service},1651381313,4291343
{consumergroup=adapter-service},1651381318,4291343
{consumergroup=adapter-service},1651381323,4291343
{consumergroup=adapter-service},1651381328,4243657
{consumergroup=adapter-service},1651381333,4243657
{consumergroup=adapter-service},1651381338,4243657
{consumergroup=adapter-service},1651381343,4233014
{consumergroup=adapter-service},1651381348,4233014
{consumergroup=adapter-service},1651381353,4233014
{consumergroup=adapter-service},1651381358,4130981
{consumergroup=adapter-service},1651381363,4130981
