labels,timestamp,value
{consumergroup=__strimzi-topic-operator-kstreams},1651373591,0
{consumergroup=__strimzi-topic-operator-kstreams},1651373596,9
{consumergroup=__strimzi-topic-operator-kstreams},1651373601,9
{consumergroup=__strimzi-topic-operator-kstreams},1651373606,9
{consumergroup=__strimzi-topic-operator-kstreams},1651373611,0
{consumergroup=__strimzi-topic-operator-kstreams},1651373616,0
{consumergroup=__strimzi-topic-operator-kstreams},1651373621,0
{consumergroup=__strimzi-topic-operator-kstreams},1651373626,0
{consumergroup=__strimzi-topic-operator-kstreams},1651373631,0
{consumergroup=__strimzi-topic-operator-kstreams},1651373636,0
{consumergroup=__strimzi-topic-operator-kstreams},1651373641,0
{consumergroup=__strimzi-topic-operator-kstreams},1651373646,0
{consumergroup=__strimzi-topic-operator-kstreams},1651373651,0
{consumergroup=__strimzi-topic-operator-kstreams},1651373656,0
{consumergroup=__strimzi-topic-operator-kstreams},1651373661,0
{consumergroup=__strimzi-topic-operator-kstreams},1651373666,0
{consumergroup=__strimzi-topic-operator-kstreams},1651373671,0
{consumergroup=__strimzi-topic-operator-kstreams},1651373676,0
{consumergroup=__strimzi-topic-operator-kstreams},1651373681,0
{consumergroup=__strimzi-topic-operator-kstreams},1651373686,0
{consumergroup=__strimzi-topic-operator-kstreams},1651373691,0
{consumergroup=__strimzi-topic-operator-kstreams},1651373696,0
{consumergroup=__strimzi-topic-operator-kstreams},1651373701,0
{consumergroup=__strimzi-topic-operator-kstreams},1651373706,0
{consumergroup=__strimzi-topic-operator-kstreams},1651373711,0
{consumergroup=__strimzi-topic-operator-kstreams},1651373716,0
{consumergroup=__strimzi-topic-operator-kstreams},1651373721,0
{consumergroup=__strimzi-topic-operator-kstreams},1651373726,0
{consumergroup=__strimzi-topic-operator-kstreams},1651373731,0
{consumergroup=__strimzi-topic-operator-kstreams},1651373736,0
{consumergroup=__strimzi-topic-operator-kstreams},1651373741,0
{consumergroup=__strimzi-topic-operator-kstreams},1651373746,0
{consumergroup=__strimzi-topic-operator-kstreams},1651373751,0
{consumergroup=__strimzi-topic-operator-kstreams},1651373756,0
{consumergroup=__strimzi-topic-operator-kstreams},1651373761,0
{consumergroup=__strimzi-topic-operator-kstreams},1651373766,0
{consumergroup=__strimzi-topic-operator-kstreams},1651373771,0
{consumergroup=__strimzi-topic-operator-kstreams},1651373776,0
{consumergroup=__strimzi-topic-operator-kstreams},1651373781,0
{consumergroup=__strimzi-topic-operator-kstreams},1651373786,0
{consumergroup=__strimzi-topic-operator-kstreams},1651373791,0
{consumergroup=__strimzi-topic-operator-kstreams},1651373796,0
{consumergroup=__strimzi-topic-operator-kstreams},1651373801,0
{consumergroup=__strimzi-topic-operator-kstreams},1651373806,0
{consumergroup=__strimzi-topic-operator-kstreams},1651373811,0
{consumergroup=__strimzi-topic-operator-kstreams},1651373816,0
{consumergroup=__strimzi-topic-operator-kstreams},1651373821,0
{consumergroup=__strimzi-topic-operator-kstreams},1651373826,0
{consumergroup=__strimzi-topic-operator-kstreams},1651373831,0
{consumergroup=__strimzi-topic-operator-kstreams},1651373836,0
{consumergroup=__strimzi-topic-operator-kstreams},1651373841,0
{consumergroup=__strimzi-topic-operator-kstreams},1651373846,0
{consumergroup=__strimzi-topic-operator-kstreams},1651373851,0
{consumergroup=adapter-service},1651373591,3217697
{consumergroup=adapter-service},1651373626,0
{consumergroup=adapter-service},1651373631,0
{consumergroup=adapter-service},1651373636,0
{consumergroup=adapter-service},1651373641,471496
{consumergroup=adapter-service},1651373646,471496
{consumergroup=adapter-service},1651373651,471496
{consumergroup=adapter-service},1651373656,822814
{consumergroup=adapter-service},1651373661,822814
{consumergroup=adapter-service},1651373666,822814
{consumergroup=adapter-service},1651373671,1143791
{consumergroup=adapter-service},1651373676,1143791
{consumergroup=adapter-service},1651373681,1143791
{consumergroup=adapter-service},1651373686,1457209
{consumergroup=adapter-service},1651373691,1457209
{consumergroup=adapter-service},1651373696,1457209
{consumergroup=adapter-service},1651373701,1726965
{consumergroup=adapter-service},1651373706,1726965
{consumergroup=adapter-service},1651373711,1726965
{consumergroup=adapter-service},1651373716,1931792
{consumergroup=adapter-service},1651373721,1931792
{consumergroup=adapter-service},1651373726,1931792
{consumergroup=adapter-service},1651373731,2093453
{consumergroup=adapter-service},1651373736,2093453
{consumergroup=adapter-service},1651373741,2093453
{consumergroup=adapter-service},1651373746,2254807
{consumergroup=adapter-service},1651373751,2254807
{consumergroup=adapter-service},1651373756,2254807
{consumergroup=adapter-service},1651373761,2386192
{consumergroup=adapter-service},1651373766,2386192
{consumergroup=adapter-service},1651373771,2386192
{consumergroup=adapter-service},1651373776,2581761
{consumergroup=adapter-service},1651373781,2581761
{consumergroup=adapter-service},1651373786,2581761
{consumergroup=adapter-service},1651373791,2737722
{consumergroup=adapter-service},1651373796,2737722
{consumergroup=adapter-service},1651373801,2737722
{consumergroup=adapter-service},1651373806,2858865
{consumergroup=adapter-service},1651373811,2858865
{consumergroup=adapter-service},1651373816,2858865
{consumergroup=adapter-service},1651373821,2980248
{consumergroup=adapter-service},1651373826,2980248
{consumergroup=adapter-service},1651373831,2980248
{consumergroup=adapter-service},1651373836,3105001
{consumergroup=adapter-service},1651373841,3105001
{consumergroup=adapter-service},1651373846,3105001
{consumergroup=adapter-service},1651373851,3235370
