labels,timestamp,value
{consumergroup=__strimzi-topic-operator-kstreams},1651405547,7
{consumergroup=__strimzi-topic-operator-kstreams},1651405552,7
{consumergroup=__strimzi-topic-operator-kstreams},1651405557,7
{consumergroup=__strimzi-topic-operator-kstreams},1651405562,0
{consumergroup=__strimzi-topic-operator-kstreams},1651405567,0
{consumergroup=__strimzi-topic-operator-kstreams},1651405572,0
{consumergroup=__strimzi-topic-operator-kstreams},1651405577,0
{consumergroup=__strimzi-topic-operator-kstreams},1651405582,0
{consumergroup=__strimzi-topic-operator-kstreams},1651405587,0
{consumergroup=__strimzi-topic-operator-kstreams},1651405592,0
{consumergroup=__strimzi-topic-operator-kstreams},1651405597,0
{consumergroup=__strimzi-topic-operator-kstreams},1651405602,0
{consumergroup=__strimzi-topic-operator-kstreams},1651405607,0
{consumergroup=__strimzi-topic-operator-kstreams},1651405612,0
{consumergroup=__strimzi-topic-operator-kstreams},1651405617,0
{consumergroup=__strimzi-topic-operator-kstreams},1651405622,0
{consumergroup=__strimzi-topic-operator-kstreams},1651405627,0
{consumergroup=__strimzi-topic-operator-kstreams},1651405632,0
{consumergroup=__strimzi-topic-operator-kstreams},1651405637,0
{consumergroup=__strimzi-topic-operator-kstreams},1651405642,0
{consumergroup=__strimzi-topic-operator-kstreams},1651405647,0
{consumergroup=__strimzi-topic-operator-kstreams},1651405652,0
{consumergroup=__strimzi-topic-operator-kstreams},1651405657,0
{consumergroup=__strimzi-topic-operator-kstreams},1651405662,0
{consumergroup=__strimzi-topic-operator-kstreams},1651405667,0
{consumergroup=__strimzi-topic-operator-kstreams},1651405672,0
{consumergroup=__strimzi-topic-operator-kstreams},1651405677,0
{consumergroup=__strimzi-topic-operator-kstreams},1651405682,0
{consumergroup=__strimzi-topic-operator-kstreams},1651405687,0
{consumergroup=__strimzi-topic-operator-kstreams},1651405692,0
{consumergroup=__strimzi-topic-operator-kstreams},1651405697,0
{consumergroup=__strimzi-topic-operator-kstreams},1651405702,0
{consumergroup=__strimzi-topic-operator-kstreams},1651405707,0
{consumergroup=__strimzi-topic-operator-kstreams},1651405712,0
{consumergroup=__strimzi-topic-operator-kstreams},1651405717,0
{consumergroup=__strimzi-topic-operator-kstreams},1651405722,0
{consumergroup=__strimzi-topic-operator-kstreams},1651405727,0
{consumergroup=__strimzi-topic-operator-kstreams},1651405732,0
{consumergroup=__strimzi-topic-operator-kstreams},1651405737,0
{consumergroup=__strimzi-topic-operator-kstreams},1651405742,0
{consumergroup=__strimzi-topic-operator-kstreams},1651405747,0
{consumergroup=__strimzi-topic-operator-kstreams},1651405752,0
{consumergroup=__strimzi-topic-operator-kstreams},1651405757,0
{consumergroup=__strimzi-topic-operator-kstreams},1651405762,0
{consumergroup=__strimzi-topic-operator-kstreams},1651405767,0
{consumergroup=__strimzi-topic-operator-kstreams},1651405772,0
{consumergroup=__strimzi-topic-operator-kstreams},1651405777,0
{consumergroup=__strimzi-topic-operator-kstreams},1651405782,0
{consumergroup=__strimzi-topic-operator-kstreams},1651405787,0
{consumergroup=__strimzi-topic-operator-kstreams},1651405792,0
{consumergroup=__strimzi-topic-operator-kstreams},1651405797,0
{consumergroup=__strimzi-topic-operator-kstreams},1651405802,0
{consumergroup=adapter-service},1651405577,0
{consumergroup=adapter-service},1651405582,0
{consumergroup=adapter-service},1651405587,0
{consumergroup=adapter-service},1651405592,17819
{consumergroup=adapter-service},1651405597,17819
{consumergroup=adapter-service},1651405602,17819
{consumergroup=adapter-service},1651405607,92536
{consumergroup=adapter-service},1651405612,92536
{consumergroup=adapter-service},1651405617,92536
{consumergroup=adapter-service},1651405622,52545
{consumergroup=adapter-service},1651405627,52545
{consumergroup=adapter-service},1651405632,52545
{consumergroup=adapter-service},1651405637,78192
{consumergroup=adapter-service},1651405642,78192
{consumergroup=adapter-service},1651405647,78192
{consumergroup=adapter-service},1651405652,88669
{consumergroup=adapter-service},1651405657,88669
{consumergroup=adapter-service},1651405662,88669
{consumergroup=adapter-service},1651405667,75225
{consumergroup=adapter-service},1651405672,75225
{consumergroup=adapter-service},1651405677,75225
{consumergroup=adapter-service},1651405682,97797
{consumergroup=adapter-service},1651405687,97797
{consumergroup=adapter-service},1651405692,97797
{consumergroup=adapter-service},1651405697,68332
{consumergroup=adapter-service},1651405702,68332
{consumergroup=adapter-service},1651405707,68332
{consumergroup=adapter-service},1651405712,95434
{consumergroup=adapter-service},1651405717,95434
{consumergroup=adapter-service},1651405722,95434
{consumergroup=adapter-service},1651405727,60349
{consumergroup=adapter-service},1651405732,60349
{consumergroup=adapter-service},1651405737,60349
{consumergroup=adapter-service},1651405742,86223
{consumergroup=adapter-service},1651405747,86223
{consumergroup=adapter-service},1651405752,86223
{consumergroup=adapter-service},1651405757,64682
{consumergroup=adapter-service},1651405762,64682
{consumergroup=adapter-service},1651405767,64682
{consumergroup=adapter-service},1651405772,68958
{consumergroup=adapter-service},1651405777,68958
{consumergroup=adapter-service},1651405782,68958
{consumergroup=adapter-service},1651405787,58200
{consumergroup=adapter-service},1651405792,58200
{consumergroup=adapter-service},1651405797,58200
{consumergroup=adapter-service},1651405802,71336
