labels,timestamp,value
{job=theodolite-stu200776/combined-trace-podmonitor},1651283330,0
{job=theodolite-stu200776/combined-trace-podmonitor},1651283335,0
{job=theodolite-stu200776/combined-trace-podmonitor},1651283340,0
{job=theodolite-stu200776/combined-trace-podmonitor},1651283345,0
{job=theodolite-stu200776/combined-trace-podmonitor},1651283350,0
{job=theodolite-stu200776/combined-trace-podmonitor},1651283355,0
{job=theodolite-stu200776/combined-trace-podmonitor},1651283360,0
{job=theodolite-stu200776/combined-trace-podmonitor},1651283365,0
{job=theodolite-stu200776/combined-trace-podmonitor},1651283370,0
{job=theodolite-stu200776/combined-trace-podmonitor},1651283375,0
{job=theodolite-stu200776/combined-trace-podmonitor},1651283380,0
{job=theodolite-stu200776/combined-trace-podmonitor},1651283385,0
{job=theodolite-stu200776/combined-trace-podmonitor},1651283390,0
{job=theodolite-stu200776/combined-trace-podmonitor},1651283395,0
{job=theodolite-stu200776/combined-trace-podmonitor},1651283400,0
{job=theodolite-stu200776/combined-trace-podmonitor},1651283405,0
{job=theodolite-stu200776/combined-trace-podmonitor},1651283410,0
{job=theodolite-stu200776/combined-trace-podmonitor},1651283415,0
{job=theodolite-stu200776/combined-trace-podmonitor},1651283420,0
{job=theodolite-stu200776/combined-trace-podmonitor},1651283425,0
{job=theodolite-stu200776/combined-trace-podmonitor},1651283430,0
{job=theodolite-stu200776/combined-trace-podmonitor},1651283435,0
{job=theodolite-stu200776/combined-trace-podmonitor},1651283440,0
{job=theodolite-stu200776/combined-trace-podmonitor},1651283445,0
{job=theodolite-stu200776/combined-trace-podmonitor},1651283450,0
{job=theodolite-stu200776/combined-trace-podmonitor},1651283455,0
{job=theodolite-stu200776/combined-trace-podmonitor},1651283460,0
{job=theodolite-stu200776/combined-trace-podmonitor},1651283465,0
{job=theodolite-stu200776/combined-trace-podmonitor},1651283470,0
{job=theodolite-stu200776/combined-trace-podmonitor},1651283475,0
{job=theodolite-stu200776/combined-trace-podmonitor},1651283480,0
{job=theodolite-stu200776/combined-trace-podmonitor},1651283485,0
{job=theodolite-stu200776/combined-trace-podmonitor},1651283490,0
{job=theodolite-stu200776/combined-trace-podmonitor},1651283495,0
{job=theodolite-stu200776/combined-trace-podmonitor},1651283500,0
{job=theodolite-stu200776/combined-trace-podmonitor},1651283505,0
{job=theodolite-stu200776/combined-trace-podmonitor},1651283510,0
{job=theodolite-stu200776/combined-trace-podmonitor},1651283515,0
{job=theodolite-stu200776/combined-trace-podmonitor},1651283520,0
{job=theodolite-stu200776/combined-trace-podmonitor},1651283525,0
{job=theodolite-stu200776/combined-trace-podmonitor},1651283530,0
{job=theodolite-stu200776/combined-trace-podmonitor},1651283535,0
{job=theodolite-stu200776/combined-trace-podmonitor},1651283540,0
{job=theodolite-stu200776/combined-trace-podmonitor},1651283545,0
{job=theodolite-stu200776/combined-trace-podmonitor},1651283550,0
{job=theodolite-stu200776/combined-trace-podmonitor},1651283555,0
{job=theodolite-stu200776/combined-trace-podmonitor},1651283560,0
{job=theodolite-stu200776/combined-trace-podmonitor},1651283565,0
{job=theodolite-stu200776/combined-trace-podmonitor},1651283570,0
{job=theodolite-stu200776/combined-trace-podmonitor},1651283575,0
{job=theodolite-stu200776/combined-trace-podmonitor},1651283580,0
{job=theodolite-stu200776/combined-trace-podmonitor},1651283585,0
{job=theodolite-stu200776/combined-trace-podmonitor},1651283590,0
{job=theodolite-stu200776/combined-trace-podmonitor},1651283595,0
{job=theodolite-stu200776/combined-trace-podmonitor},1651283600,0
{job=theodolite-stu200776/combined-trace-podmonitor},1651283605,0
{job=theodolite-stu200776/combined-trace-podmonitor},1651283610,0
{job=theodolite-stu200776/combined-trace-podmonitor},1651283615,0
{job=theodolite-stu200776/combined-trace-podmonitor},1651283620,0
{job=theodolite-stu200776/combined-trace-podmonitor},1651283625,0
{job=theodolite-stu200776/combined-trace-podmonitor},1651283630,0
{job=theodolite-stu200776/combined-trace-podmonitor},1651283635,0
{job=theodolite-stu200776/combined-trace-podmonitor},1651283640,0
{job=theodolite-stu200776/combined-trace-podmonitor},1651283645,0
{job=theodolite-stu200776/combined-trace-podmonitor},1651283650,0
{job=theodolite-stu200776/combined-trace-podmonitor},1651283655,0
{job=theodolite-stu200776/combined-trace-podmonitor},1651283660,0
{job=theodolite-stu200776/combined-trace-podmonitor},1651283665,0
{job=theodolite-stu200776/combined-trace-podmonitor},1651283670,0
{job=theodolite-stu200776/combined-trace-podmonitor},1651283675,0
{job=theodolite-stu200776/combined-trace-podmonitor},1651283680,0
{job=theodolite-stu200776/combined-trace-podmonitor},1651283685,0
{job=theodolite-stu200776/combined-trace-podmonitor},1651283690,0
{job=theodolite-stu200776/combined-trace-podmonitor},1651283695,0
{job=theodolite-stu200776/combined-trace-podmonitor},1651283700,0
{job=theodolite-stu200776/combined-trace-podmonitor},1651283705,0
{job=theodolite-stu200776/combined-trace-podmonitor},1651283710,0
{job=theodolite-stu200776/combined-trace-podmonitor},1651283715,0
{job=theodolite-stu200776/combined-trace-podmonitor},1651283720,0
{job=theodolite-stu200776/combined-trace-podmonitor},1651283725,0
{job=theodolite-stu200776/combined-trace-podmonitor},1651283730,0
{job=theodolite-stu200776/combined-trace-podmonitor},1651283735,0
{job=theodolite-stu200776/combined-trace-podmonitor},1651283740,0
{job=theodolite-stu200776/combined-trace-podmonitor},1651283745,0
{job=theodolite-stu200776/combined-trace-podmonitor},1651283750,0
{job=theodolite-stu200776/combined-trace-podmonitor},1651283755,0
{job=theodolite-stu200776/combined-trace-podmonitor},1651283760,0
{job=theodolite-stu200776/combined-trace-podmonitor},1651283765,0
{job=theodolite-stu200776/combined-trace-podmonitor},1651283770,0
