labels,timestamp,value
{job=theodolite-stu200776/combined-trace-podmonitor},1651308557,0
{job=theodolite-stu200776/combined-trace-podmonitor},1651308562,0
{job=theodolite-stu200776/combined-trace-podmonitor},1651308567,0
{job=theodolite-stu200776/combined-trace-podmonitor},1651308572,0
{job=theodolite-stu200776/combined-trace-podmonitor},1651308577,0
{job=theodolite-stu200776/combined-trace-podmonitor},1651308582,0
{job=theodolite-stu200776/combined-trace-podmonitor},1651308587,0
{job=theodolite-stu200776/combined-trace-podmonitor},1651308592,0
{job=theodolite-stu200776/combined-trace-podmonitor},1651308597,0
{job=theodolite-stu200776/combined-trace-podmonitor},1651308602,0
{job=theodolite-stu200776/combined-trace-podmonitor},1651308607,0
{job=theodolite-stu200776/combined-trace-podmonitor},1651308612,0
{job=theodolite-stu200776/combined-trace-podmonitor},1651308617,0
{job=theodolite-stu200776/combined-trace-podmonitor},1651308622,0
{job=theodolite-stu200776/combined-trace-podmonitor},1651308627,0
{job=theodolite-stu200776/combined-trace-podmonitor},1651308632,0
{job=theodolite-stu200776/combined-trace-podmonitor},1651308637,0
{job=theodolite-stu200776/combined-trace-podmonitor},1651308642,0
{job=theodolite-stu200776/combined-trace-podmonitor},1651308647,0
{job=theodolite-stu200776/combined-trace-podmonitor},1651308652,0
{job=theodolite-stu200776/combined-trace-podmonitor},1651308657,0
{job=theodolite-stu200776/combined-trace-podmonitor},1651308662,0
{job=theodolite-stu200776/combined-trace-podmonitor},1651308667,0
{job=theodolite-stu200776/combined-trace-podmonitor},1651308672,0
{job=theodolite-stu200776/combined-trace-podmonitor},1651308677,0
{job=theodolite-stu200776/combined-trace-podmonitor},1651308682,0
{job=theodolite-stu200776/combined-trace-podmonitor},1651308687,0
{job=theodolite-stu200776/combined-trace-podmonitor},1651308692,0
{job=theodolite-stu200776/combined-trace-podmonitor},1651308697,0
{job=theodolite-stu200776/combined-trace-podmonitor},1651308702,0
{job=theodolite-stu200776/combined-trace-podmonitor},1651308707,0
{job=theodolite-stu200776/combined-trace-podmonitor},1651308712,0
{job=theodolite-stu200776/combined-trace-podmonitor},1651308717,0
{job=theodolite-stu200776/combined-trace-podmonitor},1651308722,0
{job=theodolite-stu200776/combined-trace-podmonitor},1651308727,0
{job=theodolite-stu200776/combined-trace-podmonitor},1651308732,0
{job=theodolite-stu200776/combined-trace-podmonitor},1651308737,0
{job=theodolite-stu200776/combined-trace-podmonitor},1651308742,0
{job=theodolite-stu200776/combined-trace-podmonitor},1651308747,0
{job=theodolite-stu200776/combined-trace-podmonitor},1651308752,0
{job=theodolite-stu200776/combined-trace-podmonitor},1651308757,0
{job=theodolite-stu200776/combined-trace-podmonitor},1651308762,0
{job=theodolite-stu200776/combined-trace-podmonitor},1651308767,0
{job=theodolite-stu200776/combined-trace-podmonitor},1651308772,0
{job=theodolite-stu200776/combined-trace-podmonitor},1651308777,0
{job=theodolite-stu200776/combined-trace-podmonitor},1651308782,0
{job=theodolite-stu200776/combined-trace-podmonitor},1651308787,0
{job=theodolite-stu200776/combined-trace-podmonitor},1651308792,0
{job=theodolite-stu200776/combined-trace-podmonitor},1651308797,0
{job=theodolite-stu200776/combined-trace-podmonitor},1651308802,0
{job=theodolite-stu200776/combined-trace-podmonitor},1651308807,0
{job=theodolite-stu200776/combined-trace-podmonitor},1651308812,0
{job=theodolite-stu200776/combined-trace-podmonitor},1651308817,0
{job=theodolite-stu200776/combined-trace-podmonitor},1651308822,0
{job=theodolite-stu200776/combined-trace-podmonitor},1651308827,0
{job=theodolite-stu200776/combined-trace-podmonitor},1651308832,0
{job=theodolite-stu200776/combined-trace-podmonitor},1651308837,0
{job=theodolite-stu200776/combined-trace-podmonitor},1651308842,0
{job=theodolite-stu200776/combined-trace-podmonitor},1651308847,0
{job=theodolite-stu200776/combined-trace-podmonitor},1651308852,0
{job=theodolite-stu200776/combined-trace-podmonitor},1651308857,0
{job=theodolite-stu200776/combined-trace-podmonitor},1651308862,0
{job=theodolite-stu200776/combined-trace-podmonitor},1651308867,0
{job=theodolite-stu200776/combined-trace-podmonitor},1651308872,0
{job=theodolite-stu200776/combined-trace-podmonitor},1651308877,0
{job=theodolite-stu200776/combined-trace-podmonitor},1651308882,0
{job=theodolite-stu200776/combined-trace-podmonitor},1651308887,0
{job=theodolite-stu200776/combined-trace-podmonitor},1651308892,0
{job=theodolite-stu200776/combined-trace-podmonitor},1651308897,0
{job=theodolite-stu200776/combined-trace-podmonitor},1651308902,0
{job=theodolite-stu200776/combined-trace-podmonitor},1651308907,0
{job=theodolite-stu200776/combined-trace-podmonitor},1651308912,0
{job=theodolite-stu200776/combined-trace-podmonitor},1651308917,0
{job=theodolite-stu200776/combined-trace-podmonitor},1651308922,0
{job=theodolite-stu200776/combined-trace-podmonitor},1651308927,0
{job=theodolite-stu200776/combined-trace-podmonitor},1651308932,0
{job=theodolite-stu200776/combined-trace-podmonitor},1651308937,0
{job=theodolite-stu200776/combined-trace-podmonitor},1651308942,0
{job=theodolite-stu200776/combined-trace-podmonitor},1651308947,0
{job=theodolite-stu200776/combined-trace-podmonitor},1651308952,0
{job=theodolite-stu200776/combined-trace-podmonitor},1651308957,0
{job=theodolite-stu200776/combined-trace-podmonitor},1651308962,0
{job=theodolite-stu200776/combined-trace-podmonitor},1651308967,0
{job=theodolite-stu200776/combined-trace-podmonitor},1651308972,0
{job=theodolite-stu200776/combined-trace-podmonitor},1651308977,0
{job=theodolite-stu200776/combined-trace-podmonitor},1651308982,0
{job=theodolite-stu200776/combined-trace-podmonitor},1651308987,0
{job=theodolite-stu200776/combined-trace-podmonitor},1651308992,0
{job=theodolite-stu200776/combined-trace-podmonitor},1651308997,0
