labels,timestamp,value
{consumergroup=__strimzi-topic-operator-kstreams},1651375679,14
{consumergroup=__strimzi-topic-operator-kstreams},1651375684,14
{consumergroup=__strimzi-topic-operator-kstreams},1651375689,14
{consumergroup=__strimzi-topic-operator-kstreams},1651375694,0
{consumergroup=__strimzi-topic-operator-kstreams},1651375699,0
{consumergroup=__strimzi-topic-operator-kstreams},1651375704,0
{consumergroup=__strimzi-topic-operator-kstreams},1651375709,0
{consumergroup=__strimzi-topic-operator-kstreams},1651375714,0
{consumergroup=__strimzi-topic-operator-kstreams},1651375719,0
{consumergroup=__strimzi-topic-operator-kstreams},1651375724,0
{consumergroup=__strimzi-topic-operator-kstreams},1651375729,0
{consumergroup=__strimzi-topic-operator-kstreams},1651375734,0
{consumergroup=__strimzi-topic-operator-kstreams},1651375739,0
{consumergroup=__strimzi-topic-operator-kstreams},1651375744,0
{consumergroup=__strimzi-topic-operator-kstreams},1651375749,0
{consumergroup=__strimzi-topic-operator-kstreams},1651375754,0
{consumergroup=__strimzi-topic-operator-kstreams},1651375759,0
{consumergroup=__strimzi-topic-operator-kstreams},1651375764,0
{consumergroup=__strimzi-topic-operator-kstreams},1651375769,0
{consumergroup=__strimzi-topic-operator-kstreams},1651375774,0
{consumergroup=__strimzi-topic-operator-kstreams},1651375779,0
{consumergroup=__strimzi-topic-operator-kstreams},1651375784,0
{consumergroup=__strimzi-topic-operator-kstreams},1651375789,0
{consumergroup=__strimzi-topic-operator-kstreams},1651375794,0
{consumergroup=__strimzi-topic-operator-kstreams},1651375799,0
{consumergroup=__strimzi-topic-operator-kstreams},1651375804,0
{consumergroup=__strimzi-topic-operator-kstreams},1651375809,0
{consumergroup=__strimzi-topic-operator-kstreams},1651375814,0
{consumergroup=__strimzi-topic-operator-kstreams},1651375819,0
{consumergroup=__strimzi-topic-operator-kstreams},1651375824,0
{consumergroup=__strimzi-topic-operator-kstreams},1651375829,0
{consumergroup=__strimzi-topic-operator-kstreams},1651375834,0
{consumergroup=__strimzi-topic-operator-kstreams},1651375839,0
{consumergroup=__strimzi-topic-operator-kstreams},1651375844,0
{consumergroup=__strimzi-topic-operator-kstreams},1651375849,0
{consumergroup=__strimzi-topic-operator-kstreams},1651375854,0
{consumergroup=__strimzi-topic-operator-kstreams},1651375859,0
{consumergroup=__strimzi-topic-operator-kstreams},1651375864,0
{consumergroup=__strimzi-topic-operator-kstreams},1651375869,0
{consumergroup=__strimzi-topic-operator-kstreams},1651375874,0
{consumergroup=__strimzi-topic-operator-kstreams},1651375879,0
{consumergroup=__strimzi-topic-operator-kstreams},1651375884,0
{consumergroup=__strimzi-topic-operator-kstreams},1651375889,0
{consumergroup=__strimzi-topic-operator-kstreams},1651375894,0
{consumergroup=__strimzi-topic-operator-kstreams},1651375899,0
{consumergroup=__strimzi-topic-operator-kstreams},1651375904,0
{consumergroup=__strimzi-topic-operator-kstreams},1651375909,0
{consumergroup=__strimzi-topic-operator-kstreams},1651375914,0
{consumergroup=__strimzi-topic-operator-kstreams},1651375919,0
{consumergroup=__strimzi-topic-operator-kstreams},1651375924,0
{consumergroup=adapter-service},1651375709,1355301
{consumergroup=adapter-service},1651375714,1355301
{consumergroup=adapter-service},1651375719,1355301
{consumergroup=adapter-service},1651375724,3615759
{consumergroup=adapter-service},1651375729,3615759
{consumergroup=adapter-service},1651375734,3615759
{consumergroup=adapter-service},1651375739,5193599
{consumergroup=adapter-service},1651375744,5193599
{consumergroup=adapter-service},1651375749,5193599
{consumergroup=adapter-service},1651375754,7021198
{consumergroup=adapter-service},1651375759,7021198
{consumergroup=adapter-service},1651375764,7021198
{consumergroup=adapter-service},1651375769,8192209
{consumergroup=adapter-service},1651375774,8192209
{consumergroup=adapter-service},1651375779,8192209
{consumergroup=adapter-service},1651375784,9401910
{consumergroup=adapter-service},1651375789,9401910
{consumergroup=adapter-service},1651375794,9401910
{consumergroup=adapter-service},1651375799,10519737
{consumergroup=adapter-service},1651375804,10519737
{consumergroup=adapter-service},1651375809,10519737
{consumergroup=adapter-service},1651375814,11545249
{consumergroup=adapter-service},1651375819,11545249
{consumergroup=adapter-service},1651375824,11545249
{consumergroup=adapter-service},1651375829,12677248
{consumergroup=adapter-service},1651375834,12677248
{consumergroup=adapter-service},1651375839,12677248
{consumergroup=adapter-service},1651375844,13778858
{consumergroup=adapter-service},1651375849,13778858
{consumergroup=adapter-service},1651375854,13778858
{consumergroup=adapter-service},1651375859,14575383
{consumergroup=adapter-service},1651375864,14575383
{consumergroup=adapter-service},1651375869,14575383
{consumergroup=adapter-service},1651375874,15793779
{consumergroup=adapter-service},1651375879,15793779
{consumergroup=adapter-service},1651375884,15793779
{consumergroup=adapter-service},1651375889,16579553
{consumergroup=adapter-service},1651375894,16579553
{consumergroup=adapter-service},1651375899,16579553
{consumergroup=adapter-service},1651375904,17718909
{consumergroup=adapter-service},1651375909,17718909
{consumergroup=adapter-service},1651375914,17718909
{consumergroup=adapter-service},1651375919,18619617
{consumergroup=adapter-service},1651375924,18619617
