labels,timestamp,value
{consumergroup=__strimzi-topic-operator-kstreams},1651271009,8
{consumergroup=__strimzi-topic-operator-kstreams},1651271014,8
{consumergroup=__strimzi-topic-operator-kstreams},1651271019,8
{consumergroup=__strimzi-topic-operator-kstreams},1651271024,11
{consumergroup=__strimzi-topic-operator-kstreams},1651271029,11
{consumergroup=__strimzi-topic-operator-kstreams},1651271034,11
{consumergroup=__strimzi-topic-operator-kstreams},1651271039,0
{consumergroup=__strimzi-topic-operator-kstreams},1651271044,0
{consumergroup=__strimzi-topic-operator-kstreams},1651271049,0
{consumergroup=__strimzi-topic-operator-kstreams},1651271054,0
{consumergroup=__strimzi-topic-operator-kstreams},1651271059,0
{consumergroup=__strimzi-topic-operator-kstreams},1651271064,0
{consumergroup=__strimzi-topic-operator-kstreams},1651271069,0
{consumergroup=__strimzi-topic-operator-kstreams},1651271074,0
{consumergroup=__strimzi-topic-operator-kstreams},1651271079,0
{consumergroup=__strimzi-topic-operator-kstreams},1651271084,0
{consumergroup=__strimzi-topic-operator-kstreams},1651271089,0
{consumergroup=__strimzi-topic-operator-kstreams},1651271094,0
{consumergroup=__strimzi-topic-operator-kstreams},1651271099,0
{consumergroup=__strimzi-topic-operator-kstreams},1651271104,0
{consumergroup=__strimzi-topic-operator-kstreams},1651271109,0
{consumergroup=__strimzi-topic-operator-kstreams},1651271114,0
{consumergroup=__strimzi-topic-operator-kstreams},1651271119,0
{consumergroup=__strimzi-topic-operator-kstreams},1651271124,0
{consumergroup=__strimzi-topic-operator-kstreams},1651271129,0
{consumergroup=__strimzi-topic-operator-kstreams},1651271134,0
{consumergroup=__strimzi-topic-operator-kstreams},1651271139,0
{consumergroup=__strimzi-topic-operator-kstreams},1651271144,0
{consumergroup=__strimzi-topic-operator-kstreams},1651271149,0
{consumergroup=__strimzi-topic-operator-kstreams},1651271154,0
{consumergroup=__strimzi-topic-operator-kstreams},1651271159,0
{consumergroup=__strimzi-topic-operator-kstreams},1651271164,0
{consumergroup=__strimzi-topic-operator-kstreams},1651271169,0
{consumergroup=__strimzi-topic-operator-kstreams},1651271174,0
{consumergroup=__strimzi-topic-operator-kstreams},1651271179,0
{consumergroup=__strimzi-topic-operator-kstreams},1651271184,0
{consumergroup=__strimzi-topic-operator-kstreams},1651271189,0
{consumergroup=__strimzi-topic-operator-kstreams},1651271194,0
{consumergroup=__strimzi-topic-operator-kstreams},1651271199,0
{consumergroup=__strimzi-topic-operator-kstreams},1651271204,0
{consumergroup=__strimzi-topic-operator-kstreams},1651271209,0
{consumergroup=__strimzi-topic-operator-kstreams},1651271214,0
{consumergroup=__strimzi-topic-operator-kstreams},1651271219,0
{consumergroup=__strimzi-topic-operator-kstreams},1651271224,0
{consumergroup=__strimzi-topic-operator-kstreams},1651271229,0
{consumergroup=__strimzi-topic-operator-kstreams},1651271234,0
{consumergroup=__strimzi-topic-operator-kstreams},1651271239,0
{consumergroup=__strimzi-topic-operator-kstreams},1651271244,0
{consumergroup=__strimzi-topic-operator-kstreams},1651271249,0
{consumergroup=__strimzi-topic-operator-kstreams},1651271254,0
{consumergroup=__strimzi-topic-operator-kstreams},1651271259,0
{consumergroup=__strimzi-topic-operator-kstreams},1651271264,0
{consumergroup=__strimzi-topic-operator-kstreams},1651271269,0
{consumergroup=__strimzi-topic-operator-kstreams},1651271274,0
{consumergroup=__strimzi-topic-operator-kstreams},1651271279,0
{consumergroup=__strimzi-topic-operator-kstreams},1651271284,0
{consumergroup=__strimzi-topic-operator-kstreams},1651271289,0
{consumergroup=__strimzi-topic-operator-kstreams},1651271294,0
{consumergroup=__strimzi-topic-operator-kstreams},1651271299,0
{consumergroup=__strimzi-topic-operator-kstreams},1651271304,0
{consumergroup=__strimzi-topic-operator-kstreams},1651271309,0
{consumergroup=__strimzi-topic-operator-kstreams},1651271314,0
{consumergroup=__strimzi-topic-operator-kstreams},1651271319,0
{consumergroup=__strimzi-topic-operator-kstreams},1651271324,0
{consumergroup=__strimzi-topic-operator-kstreams},1651271329,0
{consumergroup=__strimzi-topic-operator-kstreams},1651271334,0
{consumergroup=__strimzi-topic-operator-kstreams},1651271339,0
{consumergroup=__strimzi-topic-operator-kstreams},1651271344,0
{consumergroup=__strimzi-topic-operator-kstreams},1651271349,0
{consumergroup=__strimzi-topic-operator-kstreams},1651271354,0
{consumergroup=__strimzi-topic-operator-kstreams},1651271359,0
{consumergroup=__strimzi-topic-operator-kstreams},1651271364,0
{consumergroup=__strimzi-topic-operator-kstreams},1651271369,0
{consumergroup=__strimzi-topic-operator-kstreams},1651271374,0
{consumergroup=__strimzi-topic-operator-kstreams},1651271379,0
{consumergroup=__strimzi-topic-operator-kstreams},1651271384,0
{consumergroup=__strimzi-topic-operator-kstreams},1651271389,0
{consumergroup=__strimzi-topic-operator-kstreams},1651271394,0
{consumergroup=__strimzi-topic-operator-kstreams},1651271399,0
{consumergroup=__strimzi-topic-operator-kstreams},1651271404,0
{consumergroup=__strimzi-topic-operator-kstreams},1651271409,0
{consumergroup=__strimzi-topic-operator-kstreams},1651271414,0
{consumergroup=__strimzi-topic-operator-kstreams},1651271419,0
{consumergroup=__strimzi-topic-operator-kstreams},1651271424,0
{consumergroup=__strimzi-topic-operator-kstreams},1651271429,0
{consumergroup=__strimzi-topic-operator-kstreams},1651271434,0
{consumergroup=__strimzi-topic-operator-kstreams},1651271439,0
{consumergroup=__strimzi-topic-operator-kstreams},1651271444,0
{consumergroup=__strimzi-topic-operator-kstreams},1651271449,0
{consumergroup=__strimzi-topic-operator-kstreams},1651271454,0
{consumergroup=__strimzi-topic-operator-kstreams},1651271459,0
{consumergroup=__strimzi-topic-operator-kstreams},1651271464,0
{consumergroup=__strimzi-topic-operator-kstreams},1651271469,0
{consumergroup=__strimzi-topic-operator-kstreams},1651271474,0
{consumergroup=__strimzi-topic-operator-kstreams},1651271479,0
{consumergroup=__strimzi-topic-operator-kstreams},1651271484,0
{consumergroup=__strimzi-topic-operator-kstreams},1651271489,0
{consumergroup=__strimzi-topic-operator-kstreams},1651271494,0
{consumergroup=__strimzi-topic-operator-kstreams},1651271499,0
{consumergroup=__strimzi-topic-operator-kstreams},1651271504,0
{consumergroup=__strimzi-topic-operator-kstreams},1651271509,0
{consumergroup=adapter-service},1651271039,0
{consumergroup=adapter-service},1651271044,0
{consumergroup=adapter-service},1651271049,0
{consumergroup=adapter-service},1651271054,25682
{consumergroup=adapter-service},1651271059,25682
{consumergroup=adapter-service},1651271064,25682
{consumergroup=adapter-service},1651271069,24882
{consumergroup=adapter-service},1651271074,24882
{consumergroup=adapter-service},1651271079,24882
{consumergroup=adapter-service},1651271084,24972
{consumergroup=adapter-service},1651271089,24972
{consumergroup=adapter-service},1651271094,24972
{consumergroup=adapter-service},1651271099,14434
{consumergroup=adapter-service},1651271104,14434
{consumergroup=adapter-service},1651271109,14434
{consumergroup=adapter-service},1651271114,4547
{consumergroup=adapter-service},1651271119,4547
{consumergroup=adapter-service},1651271124,4547
{consumergroup=adapter-service},1651271129,7944
{consumergroup=adapter-service},1651271134,7944
{consumergroup=adapter-service},1651271139,7944
{consumergroup=adapter-service},1651271144,5429
{consumergroup=adapter-service},1651271149,5429
{consumergroup=adapter-service},1651271154,5429
{consumergroup=adapter-service},1651271159,4206
{consumergroup=adapter-service},1651271164,4206
{consumergroup=adapter-service},1651271169,4206
{consumergroup=adapter-service},1651271174,3569
{consumergroup=adapter-service},1651271179,3569
{consumergroup=adapter-service},1651271184,3569
{consumergroup=adapter-service},1651271189,2022
{consumergroup=adapter-service},1651271194,2022
{consumergroup=adapter-service},1651271199,2022
{consumergroup=adapter-service},1651271204,3859
{consumergroup=adapter-service},1651271209,3859
{consumergroup=adapter-service},1651271214,3859
{consumergroup=adapter-service},1651271219,1250
{consumergroup=adapter-service},1651271224,1250
{consumergroup=adapter-service},1651271229,1250
{consumergroup=adapter-service},1651271234,2421
{consumergroup=adapter-service},1651271239,2421
{consumergroup=adapter-service},1651271244,2421
{consumergroup=adapter-service},1651271249,6931
{consumergroup=adapter-service},1651271254,6931
{consumergroup=adapter-service},1651271259,6931
{consumergroup=adapter-service},1651271264,6127
{consumergroup=adapter-service},1651271269,6127
{consumergroup=adapter-service},1651271274,6127
{consumergroup=adapter-service},1651271279,5681
{consumergroup=adapter-service},1651271284,5681
{consumergroup=adapter-service},1651271289,5681
{consumergroup=adapter-service},1651271294,11059
{consumergroup=adapter-service},1651271299,11059
{consumergroup=adapter-service},1651271304,11059
{consumergroup=adapter-service},1651271309,11353
{consumergroup=adapter-service},1651271314,11353
{consumergroup=adapter-service},1651271319,11353
{consumergroup=adapter-service},1651271324,9867
{consumergroup=adapter-service},1651271329,9867
{consumergroup=adapter-service},1651271334,9867
{consumergroup=adapter-service},1651271339,9345
{consumergroup=adapter-service},1651271344,9345
{consumergroup=adapter-service},1651271349,9345
{consumergroup=adapter-service},1651271354,11286
{consumergroup=adapter-service},1651271359,11286
{consumergroup=adapter-service},1651271364,11286
{consumergroup=adapter-service},1651271369,7978
{consumergroup=adapter-service},1651271374,7978
{consumergroup=adapter-service},1651271379,7978
{consumergroup=adapter-service},1651271384,7478
{consumergroup=adapter-service},1651271389,7478
{consumergroup=adapter-service},1651271394,7478
{consumergroup=adapter-service},1651271399,7049
{consumergroup=adapter-service},1651271404,7049
{consumergroup=adapter-service},1651271409,7049
{consumergroup=adapter-service},1651271414,6227
{consumergroup=adapter-service},1651271419,6227
{consumergroup=adapter-service},1651271424,6227
{consumergroup=adapter-service},1651271429,6504
{consumergroup=adapter-service},1651271434,6504
{consumergroup=adapter-service},1651271439,6504
{consumergroup=adapter-service},1651271444,5914
{consumergroup=adapter-service},1651271449,5914
{consumergroup=adapter-service},1651271454,5914
{consumergroup=adapter-service},1651271459,4459
{consumergroup=adapter-service},1651271464,4459
{consumergroup=adapter-service},1651271469,4459
{consumergroup=adapter-service},1651271474,6360
{consumergroup=adapter-service},1651271479,6360
{consumergroup=adapter-service},1651271484,6360
{consumergroup=adapter-service},1651271489,3323
{consumergroup=adapter-service},1651271494,3323
{consumergroup=adapter-service},1651271499,3323
{consumergroup=adapter-service},1651271504,2675
{consumergroup=adapter-service},1651271509,2675
{consumergroup=landscape-service},1651271054,11533
{consumergroup=landscape-service},1651271059,11533
{consumergroup=landscape-service},1651271064,11533
{consumergroup=landscape-service},1651271069,9255
{consumergroup=landscape-service},1651271074,9255
{consumergroup=landscape-service},1651271079,9255
{consumergroup=landscape-service},1651271084,7888
{consumergroup=landscape-service},1651271089,7888
{consumergroup=landscape-service},1651271094,7888
{consumergroup=landscape-service},1651271099,9904
{consumergroup=landscape-service},1651271104,9904
{consumergroup=landscape-service},1651271109,9904
{consumergroup=landscape-service},1651271114,9650
{consumergroup=landscape-service},1651271119,9650
{consumergroup=landscape-service},1651271124,9650
{consumergroup=landscape-service},1651271129,7555
{consumergroup=landscape-service},1651271134,7555
{consumergroup=landscape-service},1651271139,7555
{consumergroup=landscape-service},1651271144,6802
{consumergroup=landscape-service},1651271149,6802
{consumergroup=landscape-service},1651271154,6802
{consumergroup=landscape-service},1651271159,6144
{consumergroup=landscape-service},1651271164,6144
{consumergroup=landscape-service},1651271169,6144
{consumergroup=landscape-service},1651271174,6048
{consumergroup=landscape-service},1651271179,6048
{consumergroup=landscape-service},1651271184,6048
{consumergroup=landscape-service},1651271189,5875
{consumergroup=landscape-service},1651271194,5875
{consumergroup=landscape-service},1651271199,5875
{consumergroup=landscape-service},1651271204,8171
{consumergroup=landscape-service},1651271209,8171
{consumergroup=landscape-service},1651271214,8171
{consumergroup=landscape-service},1651271219,6224
{consumergroup=landscape-service},1651271224,6224
{consumergroup=landscape-service},1651271229,6224
{consumergroup=landscape-service},1651271234,7682
{consumergroup=landscape-service},1651271239,7682
{consumergroup=landscape-service},1651271244,7682
{consumergroup=landscape-service},1651271249,4949
{consumergroup=landscape-service},1651271254,4949
{consumergroup=landscape-service},1651271259,4949
{consumergroup=landscape-service},1651271264,4582
{consumergroup=landscape-service},1651271269,4582
{consumergroup=landscape-service},1651271274,4582
{consumergroup=landscape-service},1651271279,5301
{consumergroup=landscape-service},1651271284,5301
{consumergroup=landscape-service},1651271289,5301
{consumergroup=landscape-service},1651271294,4949
{consumergroup=landscape-service},1651271299,4949
{consumergroup=landscape-service},1651271304,4949
{consumergroup=landscape-service},1651271309,4278
{consumergroup=landscape-service},1651271314,4278
{consumergroup=landscape-service},1651271319,4278
{consumergroup=landscape-service},1651271324,3911
{consumergroup=landscape-service},1651271329,3911
{consumergroup=landscape-service},1651271334,3911
{consumergroup=landscape-service},1651271339,3789
{consumergroup=landscape-service},1651271344,3789
{consumergroup=landscape-service},1651271349,3789
{consumergroup=landscape-service},1651271354,6047
{consumergroup=landscape-service},1651271359,6047
{consumergroup=landscape-service},1651271364,6047
{consumergroup=landscape-service},1651271369,3481
{consumergroup=landscape-service},1651271374,3481
{consumergroup=landscape-service},1651271379,3481
{consumergroup=landscape-service},1651271384,3969
{consumergroup=landscape-service},1651271389,3969
{consumergroup=landscape-service},1651271394,3969
{consumergroup=landscape-service},1651271399,4522
{consumergroup=landscape-service},1651271404,4522
{consumergroup=landscape-service},1651271409,4522
{consumergroup=landscape-service},1651271414,4030
{consumergroup=landscape-service},1651271419,4030
{consumergroup=landscape-service},1651271424,4030
{consumergroup=landscape-service},1651271429,3177
{consumergroup=landscape-service},1651271434,3177
{consumergroup=landscape-service},1651271439,3177
{consumergroup=landscape-service},1651271444,3237
{consumergroup=landscape-service},1651271449,3237
{consumergroup=landscape-service},1651271454,3237
{consumergroup=landscape-service},1651271459,1895
{consumergroup=landscape-service},1651271464,1895
{consumergroup=landscape-service},1651271469,1895
{consumergroup=landscape-service},1651271474,4214
{consumergroup=landscape-service},1651271479,4214
{consumergroup=landscape-service},1651271484,4214
{consumergroup=landscape-service},1651271489,1893
{consumergroup=landscape-service},1651271494,1893
{consumergroup=landscape-service},1651271499,1893
{consumergroup=landscape-service},1651271504,549
{consumergroup=landscape-service},1651271509,549
{consumergroup=trace-service},1651271054,15111
{consumergroup=trace-service},1651271059,15111
{consumergroup=trace-service},1651271064,15111
{consumergroup=trace-service},1651271069,13820
{consumergroup=trace-service},1651271074,13820
{consumergroup=trace-service},1651271079,13820
{consumergroup=trace-service},1651271084,30880
{consumergroup=trace-service},1651271089,30880
{consumergroup=trace-service},1651271094,30880
{consumergroup=trace-service},1651271099,107144
{consumergroup=trace-service},1651271104,107144
{consumergroup=trace-service},1651271109,107144
{consumergroup=trace-service},1651271114,37187
{consumergroup=trace-service},1651271119,37187
{consumergroup=trace-service},1651271124,37187
{consumergroup=trace-service},1651271129,73750
{consumergroup=trace-service},1651271134,73750
{consumergroup=trace-service},1651271139,73750
{consumergroup=trace-service},1651271144,36221
{consumergroup=trace-service},1651271149,36221
{consumergroup=trace-service},1651271154,36221
{consumergroup=trace-service},1651271159,60696
{consumergroup=trace-service},1651271164,60696
{consumergroup=trace-service},1651271169,60696
{consumergroup=trace-service},1651271174,36709
{consumergroup=trace-service},1651271179,36709
{consumergroup=trace-service},1651271184,36709
{consumergroup=trace-service},1651271189,48635
{consumergroup=trace-service},1651271194,48635
{consumergroup=trace-service},1651271199,48635
{consumergroup=trace-service},1651271204,35050
{consumergroup=trace-service},1651271209,35050
{consumergroup=trace-service},1651271214,35050
{consumergroup=trace-service},1651271219,72655
{consumergroup=trace-service},1651271224,72655
{consumergroup=trace-service},1651271229,72655
{consumergroup=trace-service},1651271234,45545
{consumergroup=trace-service},1651271239,45545
{consumergroup=trace-service},1651271244,45545
{consumergroup=trace-service},1651271249,127695
{consumergroup=trace-service},1651271254,127695
{consumergroup=trace-service},1651271259,127695
{consumergroup=trace-service},1651271264,35824
{consumergroup=trace-service},1651271269,35824
{consumergroup=trace-service},1651271274,35824
{consumergroup=trace-service},1651271279,110534
{consumergroup=trace-service},1651271284,110534
{consumergroup=trace-service},1651271289,110534
{consumergroup=trace-service},1651271294,37461
{consumergroup=trace-service},1651271299,37461
{consumergroup=trace-service},1651271304,37461
{consumergroup=trace-service},1651271309,16308
{consumergroup=trace-service},1651271314,16308
{consumergroup=trace-service},1651271319,16308
{consumergroup=trace-service},1651271324,39736
{consumergroup=trace-service},1651271329,39736
{consumergroup=trace-service},1651271334,39736
{consumergroup=trace-service},1651271339,89346
{consumergroup=trace-service},1651271344,89346
{consumergroup=trace-service},1651271349,89346
{consumergroup=trace-service},1651271354,36918
{consumergroup=trace-service},1651271359,36918
{consumergroup=trace-service},1651271364,36918
{consumergroup=trace-service},1651271369,81014
{consumergroup=trace-service},1651271374,81014
{consumergroup=trace-service},1651271379,81014
{consumergroup=trace-service},1651271384,36583
{consumergroup=trace-service},1651271389,36583
{consumergroup=trace-service},1651271394,36583
{consumergroup=trace-service},1651271399,79187
{consumergroup=trace-service},1651271404,79187
{consumergroup=trace-service},1651271409,79187
{consumergroup=trace-service},1651271414,37012
{consumergroup=trace-service},1651271419,37012
{consumergroup=trace-service},1651271424,37012
{consumergroup=trace-service},1651271429,46709
{consumergroup=trace-service},1651271434,46709
{consumergroup=trace-service},1651271439,46709
{consumergroup=trace-service},1651271444,38199
{consumergroup=trace-service},1651271449,38199
{consumergroup=trace-service},1651271454,38199
{consumergroup=trace-service},1651271459,80728
{consumergroup=trace-service},1651271464,80728
{consumergroup=trace-service},1651271469,80728
{consumergroup=trace-service},1651271474,55727
{consumergroup=trace-service},1651271479,55727
{consumergroup=trace-service},1651271484,55727
{consumergroup=trace-service},1651271489,24161
{consumergroup=trace-service},1651271494,24161
{consumergroup=trace-service},1651271499,24161
{consumergroup=trace-service},1651271504,34135
{consumergroup=trace-service},1651271509,34135
{consumergroup=trace-token-events-consumer},1651271039,0
{consumergroup=trace-token-events-consumer},1651271044,0
{consumergroup=trace-token-events-consumer},1651271049,0
{consumergroup=trace-token-events-consumer},1651271054,0
{consumergroup=trace-token-events-consumer},1651271059,0
{consumergroup=trace-token-events-consumer},1651271064,0
{consumergroup=trace-token-events-consumer},1651271069,0
{consumergroup=trace-token-events-consumer},1651271074,0
{consumergroup=trace-token-events-consumer},1651271079,0
{consumergroup=trace-token-events-consumer},1651271084,0
{consumergroup=trace-token-events-consumer},1651271089,0
{consumergroup=trace-token-events-consumer},1651271094,0
{consumergroup=trace-token-events-consumer},1651271099,0
{consumergroup=trace-token-events-consumer},1651271104,0
{consumergroup=trace-token-events-consumer},1651271109,0
{consumergroup=trace-token-events-consumer},1651271114,0
{consumergroup=trace-token-events-consumer},1651271119,0
{consumergroup=trace-token-events-consumer},1651271124,0
{consumergroup=trace-token-events-consumer},1651271129,0
{consumergroup=trace-token-events-consumer},1651271134,0
{consumergroup=trace-token-events-consumer},1651271139,0
{consumergroup=trace-token-events-consumer},1651271144,0
{consumergroup=trace-token-events-consumer},1651271149,0
{consumergroup=trace-token-events-consumer},1651271154,0
{consumergroup=trace-token-events-consumer},1651271159,0
{consumergroup=trace-token-events-consumer},1651271164,0
{consumergroup=trace-token-events-consumer},1651271169,0
{consumergroup=trace-token-events-consumer},1651271174,0
{consumergroup=trace-token-events-consumer},1651271179,0
{consumergroup=trace-token-events-consumer},1651271184,0
{consumergroup=trace-token-events-consumer},1651271189,0
{consumergroup=trace-token-events-consumer},1651271194,0
{consumergroup=trace-token-events-consumer},1651271199,0
{consumergroup=trace-token-events-consumer},1651271204,0
{consumergroup=trace-token-events-consumer},1651271209,0
{consumergroup=trace-token-events-consumer},1651271214,0
{consumergroup=trace-token-events-consumer},1651271219,0
{consumergroup=trace-token-events-consumer},1651271224,0
{consumergroup=trace-token-events-consumer},1651271229,0
{consumergroup=trace-token-events-consumer},1651271234,0
{consumergroup=trace-token-events-consumer},1651271239,0
{consumergroup=trace-token-events-consumer},1651271244,0
{consumergroup=trace-token-events-consumer},1651271249,0
{consumergroup=trace-token-events-consumer},1651271254,0
{consumergroup=trace-token-events-consumer},1651271259,0
{consumergroup=trace-token-events-consumer},1651271264,0
{consumergroup=trace-token-events-consumer},1651271269,0
{consumergroup=trace-token-events-consumer},1651271274,0
{consumergroup=trace-token-events-consumer},1651271279,0
{consumergroup=trace-token-events-consumer},1651271284,0
{consumergroup=trace-token-events-consumer},1651271289,0
{consumergroup=trace-token-events-consumer},1651271294,0
{consumergroup=trace-token-events-consumer},1651271299,0
{consumergroup=trace-token-events-consumer},1651271304,0
{consumergroup=trace-token-events-consumer},1651271309,0
{consumergroup=trace-token-events-consumer},1651271314,0
{consumergroup=trace-token-events-consumer},1651271319,0
{consumergroup=trace-token-events-consumer},1651271324,0
{consumergroup=trace-token-events-consumer},1651271329,0
{consumergroup=trace-token-events-consumer},1651271334,0
{consumergroup=trace-token-events-consumer},1651271339,0
{consumergroup=trace-token-events-consumer},1651271344,0
{consumergroup=trace-token-events-consumer},1651271349,0
{consumergroup=trace-token-events-consumer},1651271354,0
{consumergroup=trace-token-events-consumer},1651271359,0
{consumergroup=trace-token-events-consumer},1651271364,0
{consumergroup=trace-token-events-consumer},1651271369,0
{consumergroup=trace-token-events-consumer},1651271374,0
{consumergroup=trace-token-events-consumer},1651271379,0
{consumergroup=trace-token-events-consumer},1651271384,0
{consumergroup=trace-token-events-consumer},1651271389,0
{consumergroup=trace-token-events-consumer},1651271394,0
{consumergroup=trace-token-events-consumer},1651271399,0
{consumergroup=trace-token-events-consumer},1651271404,0
{consumergroup=trace-token-events-consumer},1651271409,0
{consumergroup=trace-token-events-consumer},1651271414,0
{consumergroup=trace-token-events-consumer},1651271419,0
{consumergroup=trace-token-events-consumer},1651271424,0
{consumergroup=trace-token-events-consumer},1651271429,0
{consumergroup=trace-token-events-consumer},1651271434,0
{consumergroup=trace-token-events-consumer},1651271439,0
{consumergroup=trace-token-events-consumer},1651271444,0
{consumergroup=trace-token-events-consumer},1651271449,0
{consumergroup=trace-token-events-consumer},1651271454,0
{consumergroup=trace-token-events-consumer},1651271459,0
{consumergroup=trace-token-events-consumer},1651271464,0
{consumergroup=trace-token-events-consumer},1651271469,0
{consumergroup=trace-token-events-consumer},1651271474,0
{consumergroup=trace-token-events-consumer},1651271479,0
{consumergroup=trace-token-events-consumer},1651271484,0
{consumergroup=trace-token-events-consumer},1651271489,0
{consumergroup=trace-token-events-consumer},1651271494,0
{consumergroup=trace-token-events-consumer},1651271499,0
{consumergroup=trace-token-events-consumer},1651271504,0
{consumergroup=trace-token-events-consumer},1651271509,0
