labels,timestamp,value
{job=theodolite-stu200776/combined-trace-podmonitor},1651298109,0
{job=theodolite-stu200776/combined-trace-podmonitor},1651298114,0
{job=theodolite-stu200776/combined-trace-podmonitor},1651298119,0
{job=theodolite-stu200776/combined-trace-podmonitor},1651298124,0
{job=theodolite-stu200776/combined-trace-podmonitor},1651298129,0
{job=theodolite-stu200776/combined-trace-podmonitor},1651298134,0
{job=theodolite-stu200776/combined-trace-podmonitor},1651298139,0
{job=theodolite-stu200776/combined-trace-podmonitor},1651298144,0
{job=theodolite-stu200776/combined-trace-podmonitor},1651298149,0
{job=theodolite-stu200776/combined-trace-podmonitor},1651298154,0
{job=theodolite-stu200776/combined-trace-podmonitor},1651298159,0
{job=theodolite-stu200776/combined-trace-podmonitor},1651298164,0
{job=theodolite-stu200776/combined-trace-podmonitor},1651298169,0
{job=theodolite-stu200776/combined-trace-podmonitor},1651298174,0
{job=theodolite-stu200776/combined-trace-podmonitor},1651298179,0
{job=theodolite-stu200776/combined-trace-podmonitor},1651298184,0
{job=theodolite-stu200776/combined-trace-podmonitor},1651298189,0
{job=theodolite-stu200776/combined-trace-podmonitor},1651298194,0
{job=theodolite-stu200776/combined-trace-podmonitor},1651298199,0
{job=theodolite-stu200776/combined-trace-podmonitor},1651298204,0
{job=theodolite-stu200776/combined-trace-podmonitor},1651298209,0
{job=theodolite-stu200776/combined-trace-podmonitor},1651298214,0
{job=theodolite-stu200776/combined-trace-podmonitor},1651298219,0
{job=theodolite-stu200776/combined-trace-podmonitor},1651298224,0
{job=theodolite-stu200776/combined-trace-podmonitor},1651298229,0
{job=theodolite-stu200776/combined-trace-podmonitor},1651298234,0
{job=theodolite-stu200776/combined-trace-podmonitor},1651298239,0
{job=theodolite-stu200776/combined-trace-podmonitor},1651298244,0
{job=theodolite-stu200776/combined-trace-podmonitor},1651298249,0
{job=theodolite-stu200776/combined-trace-podmonitor},1651298254,0
{job=theodolite-stu200776/combined-trace-podmonitor},1651298259,0
{job=theodolite-stu200776/combined-trace-podmonitor},1651298264,0
{job=theodolite-stu200776/combined-trace-podmonitor},1651298269,0
{job=theodolite-stu200776/combined-trace-podmonitor},1651298274,0
{job=theodolite-stu200776/combined-trace-podmonitor},1651298279,0
{job=theodolite-stu200776/combined-trace-podmonitor},1651298284,0
{job=theodolite-stu200776/combined-trace-podmonitor},1651298289,0
{job=theodolite-stu200776/combined-trace-podmonitor},1651298294,0
{job=theodolite-stu200776/combined-trace-podmonitor},1651298299,0
{job=theodolite-stu200776/combined-trace-podmonitor},1651298304,0
{job=theodolite-stu200776/combined-trace-podmonitor},1651298309,0
{job=theodolite-stu200776/combined-trace-podmonitor},1651298314,0
{job=theodolite-stu200776/combined-trace-podmonitor},1651298319,0
{job=theodolite-stu200776/combined-trace-podmonitor},1651298324,0
{job=theodolite-stu200776/combined-trace-podmonitor},1651298329,0
{job=theodolite-stu200776/combined-trace-podmonitor},1651298334,0
{job=theodolite-stu200776/combined-trace-podmonitor},1651298339,0
{job=theodolite-stu200776/combined-trace-podmonitor},1651298344,0
{job=theodolite-stu200776/combined-trace-podmonitor},1651298349,0
{job=theodolite-stu200776/combined-trace-podmonitor},1651298354,0
{job=theodolite-stu200776/combined-trace-podmonitor},1651298359,0
{job=theodolite-stu200776/combined-trace-podmonitor},1651298364,0
{job=theodolite-stu200776/combined-trace-podmonitor},1651298369,0
{job=theodolite-stu200776/combined-trace-podmonitor},1651298374,0
{job=theodolite-stu200776/combined-trace-podmonitor},1651298379,0
{job=theodolite-stu200776/combined-trace-podmonitor},1651298384,0
{job=theodolite-stu200776/combined-trace-podmonitor},1651298389,0
{job=theodolite-stu200776/combined-trace-podmonitor},1651298394,0
{job=theodolite-stu200776/combined-trace-podmonitor},1651298399,0
{job=theodolite-stu200776/combined-trace-podmonitor},1651298404,0
{job=theodolite-stu200776/combined-trace-podmonitor},1651298409,0
{job=theodolite-stu200776/combined-trace-podmonitor},1651298414,0
{job=theodolite-stu200776/combined-trace-podmonitor},1651298419,0
{job=theodolite-stu200776/combined-trace-podmonitor},1651298424,0
{job=theodolite-stu200776/combined-trace-podmonitor},1651298429,0
{job=theodolite-stu200776/combined-trace-podmonitor},1651298434,0
{job=theodolite-stu200776/combined-trace-podmonitor},1651298439,0
{job=theodolite-stu200776/combined-trace-podmonitor},1651298444,0
{job=theodolite-stu200776/combined-trace-podmonitor},1651298449,0
{job=theodolite-stu200776/combined-trace-podmonitor},1651298454,0
{job=theodolite-stu200776/combined-trace-podmonitor},1651298459,0
{job=theodolite-stu200776/combined-trace-podmonitor},1651298464,0
{job=theodolite-stu200776/combined-trace-podmonitor},1651298469,0
{job=theodolite-stu200776/combined-trace-podmonitor},1651298474,0
{job=theodolite-stu200776/combined-trace-podmonitor},1651298479,0
{job=theodolite-stu200776/combined-trace-podmonitor},1651298484,0
{job=theodolite-stu200776/combined-trace-podmonitor},1651298489,0
{job=theodolite-stu200776/combined-trace-podmonitor},1651298494,0
{job=theodolite-stu200776/combined-trace-podmonitor},1651298499,0
{job=theodolite-stu200776/combined-trace-podmonitor},1651298504,0
{job=theodolite-stu200776/combined-trace-podmonitor},1651298509,0
{job=theodolite-stu200776/combined-trace-podmonitor},1651298514,0
{job=theodolite-stu200776/combined-trace-podmonitor},1651298519,0
{job=theodolite-stu200776/combined-trace-podmonitor},1651298524,0
{job=theodolite-stu200776/combined-trace-podmonitor},1651298529,0
{job=theodolite-stu200776/combined-trace-podmonitor},1651298534,0
{job=theodolite-stu200776/combined-trace-podmonitor},1651298539,0
{job=theodolite-stu200776/combined-trace-podmonitor},1651298544,0
{job=theodolite-stu200776/combined-trace-podmonitor},1651298549,0
