labels,timestamp,value
{consumergroup=__strimzi-topic-operator-kstreams},1651355009,8
{consumergroup=__strimzi-topic-operator-kstreams},1651355014,8
{consumergroup=__strimzi-topic-operator-kstreams},1651355019,8
{consumergroup=__strimzi-topic-operator-kstreams},1651355024,0
{consumergroup=__strimzi-topic-operator-kstreams},1651355029,0
{consumergroup=__strimzi-topic-operator-kstreams},1651355034,0
{consumergroup=__strimzi-topic-operator-kstreams},1651355039,0
{consumergroup=__strimzi-topic-operator-kstreams},1651355044,0
{consumergroup=__strimzi-topic-operator-kstreams},1651355049,0
{consumergroup=__strimzi-topic-operator-kstreams},1651355054,0
{consumergroup=__strimzi-topic-operator-kstreams},1651355059,0
{consumergroup=__strimzi-topic-operator-kstreams},1651355064,0
{consumergroup=__strimzi-topic-operator-kstreams},1651355069,0
{consumergroup=__strimzi-topic-operator-kstreams},1651355074,0
{consumergroup=__strimzi-topic-operator-kstreams},1651355079,0
{consumergroup=__strimzi-topic-operator-kstreams},1651355084,0
{consumergroup=__strimzi-topic-operator-kstreams},1651355089,0
{consumergroup=__strimzi-topic-operator-kstreams},1651355094,0
{consumergroup=__strimzi-topic-operator-kstreams},1651355099,0
{consumergroup=__strimzi-topic-operator-kstreams},1651355104,0
{consumergroup=__strimzi-topic-operator-kstreams},1651355109,0
{consumergroup=__strimzi-topic-operator-kstreams},1651355114,0
{consumergroup=__strimzi-topic-operator-kstreams},1651355119,0
{consumergroup=__strimzi-topic-operator-kstreams},1651355124,0
{consumergroup=__strimzi-topic-operator-kstreams},1651355129,0
{consumergroup=__strimzi-topic-operator-kstreams},1651355134,0
{consumergroup=__strimzi-topic-operator-kstreams},1651355139,0
{consumergroup=__strimzi-topic-operator-kstreams},1651355144,0
{consumergroup=__strimzi-topic-operator-kstreams},1651355149,0
{consumergroup=__strimzi-topic-operator-kstreams},1651355154,0
{consumergroup=__strimzi-topic-operator-kstreams},1651355159,0
{consumergroup=__strimzi-topic-operator-kstreams},1651355164,0
{consumergroup=__strimzi-topic-operator-kstreams},1651355169,0
{consumergroup=__strimzi-topic-operator-kstreams},1651355174,0
{consumergroup=__strimzi-topic-operator-kstreams},1651355179,0
{consumergroup=__strimzi-topic-operator-kstreams},1651355184,0
{consumergroup=__strimzi-topic-operator-kstreams},1651355189,0
{consumergroup=__strimzi-topic-operator-kstreams},1651355194,0
{consumergroup=__strimzi-topic-operator-kstreams},1651355199,0
{consumergroup=__strimzi-topic-operator-kstreams},1651355204,0
{consumergroup=__strimzi-topic-operator-kstreams},1651355209,0
{consumergroup=__strimzi-topic-operator-kstreams},1651355214,0
{consumergroup=__strimzi-topic-operator-kstreams},1651355219,0
{consumergroup=__strimzi-topic-operator-kstreams},1651355224,0
{consumergroup=__strimzi-topic-operator-kstreams},1651355229,0
{consumergroup=__strimzi-topic-operator-kstreams},1651355234,0
{consumergroup=__strimzi-topic-operator-kstreams},1651355239,0
{consumergroup=__strimzi-topic-operator-kstreams},1651355244,0
{consumergroup=__strimzi-topic-operator-kstreams},1651355249,0
{consumergroup=__strimzi-topic-operator-kstreams},1651355254,0
{consumergroup=adapter-service},1651355024,50073
{consumergroup=adapter-service},1651355029,50073
{consumergroup=adapter-service},1651355034,50073
{consumergroup=adapter-service},1651355039,1027218
{consumergroup=adapter-service},1651355044,1027218
{consumergroup=adapter-service},1651355049,1027218
{consumergroup=adapter-service},1651355054,1357778
{consumergroup=adapter-service},1651355059,1357778
{consumergroup=adapter-service},1651355064,1357778
{consumergroup=adapter-service},1651355069,1136397
{consumergroup=adapter-service},1651355074,1136397
{consumergroup=adapter-service},1651355079,1136397
{consumergroup=adapter-service},1651355084,1119907
{consumergroup=adapter-service},1651355089,1119907
{consumergroup=adapter-service},1651355094,1119907
{consumergroup=adapter-service},1651355099,1443329
{consumergroup=adapter-service},1651355104,1443329
{consumergroup=adapter-service},1651355109,1443329
{consumergroup=adapter-service},1651355114,1585544
{consumergroup=adapter-service},1651355119,1585544
{consumergroup=adapter-service},1651355124,1585544
{consumergroup=adapter-service},1651355129,1785580
{consumergroup=adapter-service},1651355134,1785580
{consumergroup=adapter-service},1651355139,1785580
{consumergroup=adapter-service},1651355144,2044963
{consumergroup=adapter-service},1651355149,2044963
{consumergroup=adapter-service},1651355154,2044963
{consumergroup=adapter-service},1651355159,2009923
{consumergroup=adapter-service},1651355164,2009923
{consumergroup=adapter-service},1651355169,2009923
{consumergroup=adapter-service},1651355174,2147586
{consumergroup=adapter-service},1651355179,2147586
{consumergroup=adapter-service},1651355184,2147586
{consumergroup=adapter-service},1651355189,2231718
{consumergroup=adapter-service},1651355194,2231718
{consumergroup=adapter-service},1651355199,2231718
{consumergroup=adapter-service},1651355204,2379719
{consumergroup=adapter-service},1651355209,2379719
{consumergroup=adapter-service},1651355214,2379719
{consumergroup=adapter-service},1651355219,2453905
{consumergroup=adapter-service},1651355224,2453905
{consumergroup=adapter-service},1651355229,2453905
{consumergroup=adapter-service},1651355234,2819309
{consumergroup=adapter-service},1651355239,2819309
{consumergroup=adapter-service},1651355244,2819309
{consumergroup=adapter-service},1651355249,2741820
{consumergroup=adapter-service},1651355254,2741820
