labels,timestamp,value
{consumergroup=__strimzi-topic-operator-kstreams},1651387974,13
{consumergroup=__strimzi-topic-operator-kstreams},1651387979,13
{consumergroup=__strimzi-topic-operator-kstreams},1651387984,13
{consumergroup=__strimzi-topic-operator-kstreams},1651387989,13
{consumergroup=__strimzi-topic-operator-kstreams},1651387994,13
{consumergroup=__strimzi-topic-operator-kstreams},1651387999,13
{consumergroup=__strimzi-topic-operator-kstreams},1651388004,0
{consumergroup=__strimzi-topic-operator-kstreams},1651388009,0
{consumergroup=__strimzi-topic-operator-kstreams},1651388014,0
{consumergroup=__strimzi-topic-operator-kstreams},1651388019,0
{consumergroup=__strimzi-topic-operator-kstreams},1651388024,0
{consumergroup=__strimzi-topic-operator-kstreams},1651388029,0
{consumergroup=__strimzi-topic-operator-kstreams},1651388034,0
{consumergroup=__strimzi-topic-operator-kstreams},1651388039,0
{consumergroup=__strimzi-topic-operator-kstreams},1651388044,0
{consumergroup=__strimzi-topic-operator-kstreams},1651388049,0
{consumergroup=__strimzi-topic-operator-kstreams},1651388054,0
{consumergroup=__strimzi-topic-operator-kstreams},1651388059,0
{consumergroup=__strimzi-topic-operator-kstreams},1651388064,0
{consumergroup=__strimzi-topic-operator-kstreams},1651388069,0
{consumergroup=__strimzi-topic-operator-kstreams},1651388074,0
{consumergroup=__strimzi-topic-operator-kstreams},1651388079,0
{consumergroup=__strimzi-topic-operator-kstreams},1651388084,0
{consumergroup=__strimzi-topic-operator-kstreams},1651388089,0
{consumergroup=__strimzi-topic-operator-kstreams},1651388094,0
{consumergroup=__strimzi-topic-operator-kstreams},1651388099,0
{consumergroup=__strimzi-topic-operator-kstreams},1651388104,0
{consumergroup=__strimzi-topic-operator-kstreams},1651388109,0
{consumergroup=__strimzi-topic-operator-kstreams},1651388114,0
{consumergroup=__strimzi-topic-operator-kstreams},1651388119,0
{consumergroup=__strimzi-topic-operator-kstreams},1651388124,0
{consumergroup=__strimzi-topic-operator-kstreams},1651388129,0
{consumergroup=__strimzi-topic-operator-kstreams},1651388134,0
{consumergroup=__strimzi-topic-operator-kstreams},1651388139,0
{consumergroup=__strimzi-topic-operator-kstreams},1651388144,0
{consumergroup=__strimzi-topic-operator-kstreams},1651388149,0
{consumergroup=__strimzi-topic-operator-kstreams},1651388154,0
{consumergroup=__strimzi-topic-operator-kstreams},1651388159,0
{consumergroup=__strimzi-topic-operator-kstreams},1651388164,0
{consumergroup=__strimzi-topic-operator-kstreams},1651388169,0
{consumergroup=__strimzi-topic-operator-kstreams},1651388174,0
{consumergroup=__strimzi-topic-operator-kstreams},1651388179,0
{consumergroup=__strimzi-topic-operator-kstreams},1651388184,0
{consumergroup=__strimzi-topic-operator-kstreams},1651388189,0
{consumergroup=__strimzi-topic-operator-kstreams},1651388194,0
{consumergroup=__strimzi-topic-operator-kstreams},1651388199,0
{consumergroup=__strimzi-topic-operator-kstreams},1651388204,0
{consumergroup=__strimzi-topic-operator-kstreams},1651388209,0
{consumergroup=__strimzi-topic-operator-kstreams},1651388214,0
{consumergroup=__strimzi-topic-operator-kstreams},1651388219,0
{consumergroup=__strimzi-topic-operator-kstreams},1651388224,0
{consumergroup=adapter-service},1651388004,521054
{consumergroup=adapter-service},1651388009,521054
{consumergroup=adapter-service},1651388014,521054
{consumergroup=adapter-service},1651388019,1812595
{consumergroup=adapter-service},1651388024,1812595
{consumergroup=adapter-service},1651388029,1812595
{consumergroup=adapter-service},1651388034,2808034
{consumergroup=adapter-service},1651388039,2808034
{consumergroup=adapter-service},1651388044,2808034
{consumergroup=adapter-service},1651388049,3577863
{consumergroup=adapter-service},1651388054,3577863
{consumergroup=adapter-service},1651388059,3577863
{consumergroup=adapter-service},1651388064,4273501
{consumergroup=adapter-service},1651388069,4273501
{consumergroup=adapter-service},1651388074,4273501
{consumergroup=adapter-service},1651388079,4810714
{consumergroup=adapter-service},1651388084,4810714
{consumergroup=adapter-service},1651388089,4810714
{consumergroup=adapter-service},1651388094,4972943
{consumergroup=adapter-service},1651388099,4972943
{consumergroup=adapter-service},1651388104,4972943
{consumergroup=adapter-service},1651388109,5294792
{consumergroup=adapter-service},1651388114,5294792
{consumergroup=adapter-service},1651388119,5294792
{consumergroup=adapter-service},1651388124,5466150
{consumergroup=adapter-service},1651388129,5466150
{consumergroup=adapter-service},1651388134,5466150
{consumergroup=adapter-service},1651388139,5510999
{consumergroup=adapter-service},1651388144,5510999
{consumergroup=adapter-service},1651388149,5510999
{consumergroup=adapter-service},1651388154,5573294
{consumergroup=adapter-service},1651388159,5573294
{consumergroup=adapter-service},1651388164,5573294
{consumergroup=adapter-service},1651388169,5702553
{consumergroup=adapter-service},1651388174,5702553
{consumergroup=adapter-service},1651388179,5702553
{consumergroup=adapter-service},1651388184,5680839
{consumergroup=adapter-service},1651388189,5680839
{consumergroup=adapter-service},1651388194,5680839
{consumergroup=adapter-service},1651388199,5699248
{consumergroup=adapter-service},1651388204,5699248
{consumergroup=adapter-service},1651388209,5699248
{consumergroup=adapter-service},1651388214,5782353
{consumergroup=adapter-service},1651388219,5782353
{consumergroup=adapter-service},1651388224,5782353
