labels,timestamp,value
{consumergroup=__strimzi-topic-operator-kstreams},1651357441,8
{consumergroup=__strimzi-topic-operator-kstreams},1651357446,8
{consumergroup=__strimzi-topic-operator-kstreams},1651357451,8
{consumergroup=__strimzi-topic-operator-kstreams},1651357456,0
{consumergroup=__strimzi-topic-operator-kstreams},1651357461,0
{consumergroup=__strimzi-topic-operator-kstreams},1651357466,0
{consumergroup=__strimzi-topic-operator-kstreams},1651357471,0
{consumergroup=__strimzi-topic-operator-kstreams},1651357476,0
{consumergroup=__strimzi-topic-operator-kstreams},1651357481,0
{consumergroup=__strimzi-topic-operator-kstreams},1651357486,0
{consumergroup=__strimzi-topic-operator-kstreams},1651357491,0
{consumergroup=__strimzi-topic-operator-kstreams},1651357496,0
{consumergroup=__strimzi-topic-operator-kstreams},1651357501,0
{consumergroup=__strimzi-topic-operator-kstreams},1651357506,0
{consumergroup=__strimzi-topic-operator-kstreams},1651357511,0
{consumergroup=__strimzi-topic-operator-kstreams},1651357516,0
{consumergroup=__strimzi-topic-operator-kstreams},1651357521,0
{consumergroup=__strimzi-topic-operator-kstreams},1651357526,0
{consumergroup=__strimzi-topic-operator-kstreams},1651357531,0
{consumergroup=__strimzi-topic-operator-kstreams},1651357536,0
{consumergroup=__strimzi-topic-operator-kstreams},1651357541,0
{consumergroup=__strimzi-topic-operator-kstreams},1651357546,0
{consumergroup=__strimzi-topic-operator-kstreams},1651357551,0
{consumergroup=__strimzi-topic-operator-kstreams},1651357556,0
{consumergroup=__strimzi-topic-operator-kstreams},1651357561,0
{consumergroup=__strimzi-topic-operator-kstreams},1651357566,0
{consumergroup=__strimzi-topic-operator-kstreams},1651357571,0
{consumergroup=__strimzi-topic-operator-kstreams},1651357576,0
{consumergroup=__strimzi-topic-operator-kstreams},1651357581,0
{consumergroup=__strimzi-topic-operator-kstreams},1651357586,0
{consumergroup=__strimzi-topic-operator-kstreams},1651357591,0
{consumergroup=__strimzi-topic-operator-kstreams},1651357596,0
{consumergroup=__strimzi-topic-operator-kstreams},1651357601,0
{consumergroup=__strimzi-topic-operator-kstreams},1651357606,0
{consumergroup=__strimzi-topic-operator-kstreams},1651357611,0
{consumergroup=__strimzi-topic-operator-kstreams},1651357616,0
{consumergroup=__strimzi-topic-operator-kstreams},1651357621,0
{consumergroup=__strimzi-topic-operator-kstreams},1651357626,0
{consumergroup=__strimzi-topic-operator-kstreams},1651357631,0
{consumergroup=__strimzi-topic-operator-kstreams},1651357636,0
{consumergroup=__strimzi-topic-operator-kstreams},1651357641,0
{consumergroup=__strimzi-topic-operator-kstreams},1651357646,0
{consumergroup=__strimzi-topic-operator-kstreams},1651357651,0
{consumergroup=__strimzi-topic-operator-kstreams},1651357656,0
{consumergroup=__strimzi-topic-operator-kstreams},1651357661,0
{consumergroup=__strimzi-topic-operator-kstreams},1651357666,0
{consumergroup=__strimzi-topic-operator-kstreams},1651357671,0
{consumergroup=__strimzi-topic-operator-kstreams},1651357676,0
{consumergroup=__strimzi-topic-operator-kstreams},1651357681,0
{consumergroup=__strimzi-topic-operator-kstreams},1651357686,0
{consumergroup=adapter-service},1651357456,0
{consumergroup=adapter-service},1651357461,0
{consumergroup=adapter-service},1651357466,0
{consumergroup=adapter-service},1651357471,548867
{consumergroup=adapter-service},1651357476,548867
{consumergroup=adapter-service},1651357481,548867
{consumergroup=adapter-service},1651357486,863554
{consumergroup=adapter-service},1651357491,863554
{consumergroup=adapter-service},1651357496,863554
{consumergroup=adapter-service},1651357501,836952
{consumergroup=adapter-service},1651357506,836952
{consumergroup=adapter-service},1651357511,836952
{consumergroup=adapter-service},1651357516,955811
{consumergroup=adapter-service},1651357521,955811
{consumergroup=adapter-service},1651357526,955811
{consumergroup=adapter-service},1651357531,688888
{consumergroup=adapter-service},1651357536,688888
{consumergroup=adapter-service},1651357541,688888
{consumergroup=adapter-service},1651357546,767802
{consumergroup=adapter-service},1651357551,767802
{consumergroup=adapter-service},1651357556,767802
{consumergroup=adapter-service},1651357561,469221
{consumergroup=adapter-service},1651357566,469221
{consumergroup=adapter-service},1651357571,469221
{consumergroup=adapter-service},1651357576,821079
{consumergroup=adapter-service},1651357581,821079
{consumergroup=adapter-service},1651357586,821079
{consumergroup=adapter-service},1651357591,605096
{consumergroup=adapter-service},1651357596,605096
{consumergroup=adapter-service},1651357601,605096
{consumergroup=adapter-service},1651357606,811654
{consumergroup=adapter-service},1651357611,811654
{consumergroup=adapter-service},1651357616,811654
{consumergroup=adapter-service},1651357621,462009
{consumergroup=adapter-service},1651357626,462009
{consumergroup=adapter-service},1651357631,462009
{consumergroup=adapter-service},1651357636,593965
{consumergroup=adapter-service},1651357641,593965
{consumergroup=adapter-service},1651357646,593965
{consumergroup=adapter-service},1651357651,623037
{consumergroup=adapter-service},1651357656,623037
{consumergroup=adapter-service},1651357661,623037
{consumergroup=adapter-service},1651357666,567418
{consumergroup=adapter-service},1651357671,567418
{consumergroup=adapter-service},1651357676,567418
{consumergroup=adapter-service},1651357681,676559
{consumergroup=adapter-service},1651357686,676559
