labels,timestamp,value
{consumergroup=__strimzi-topic-operator-kstreams},1651420828,22
{consumergroup=__strimzi-topic-operator-kstreams},1651420833,22
{consumergroup=__strimzi-topic-operator-kstreams},1651420838,22
{consumergroup=__strimzi-topic-operator-kstreams},1651420843,0
{consumergroup=__strimzi-topic-operator-kstreams},1651420848,0
{consumergroup=__strimzi-topic-operator-kstreams},1651420853,0
{consumergroup=__strimzi-topic-operator-kstreams},1651420858,0
{consumergroup=__strimzi-topic-operator-kstreams},1651420863,0
{consumergroup=__strimzi-topic-operator-kstreams},1651420868,0
{consumergroup=__strimzi-topic-operator-kstreams},1651420873,0
{consumergroup=__strimzi-topic-operator-kstreams},1651420878,0
{consumergroup=__strimzi-topic-operator-kstreams},1651420883,0
{consumergroup=__strimzi-topic-operator-kstreams},1651420888,0
{consumergroup=__strimzi-topic-operator-kstreams},1651420893,0
{consumergroup=__strimzi-topic-operator-kstreams},1651420898,0
{consumergroup=__strimzi-topic-operator-kstreams},1651420903,0
{consumergroup=__strimzi-topic-operator-kstreams},1651420908,0
{consumergroup=__strimzi-topic-operator-kstreams},1651420913,0
{consumergroup=__strimzi-topic-operator-kstreams},1651420918,0
{consumergroup=__strimzi-topic-operator-kstreams},1651420923,0
{consumergroup=__strimzi-topic-operator-kstreams},1651420928,0
{consumergroup=__strimzi-topic-operator-kstreams},1651420933,0
{consumergroup=__strimzi-topic-operator-kstreams},1651420938,0
{consumergroup=__strimzi-topic-operator-kstreams},1651420943,0
{consumergroup=__strimzi-topic-operator-kstreams},1651420948,0
{consumergroup=__strimzi-topic-operator-kstreams},1651420953,0
{consumergroup=__strimzi-topic-operator-kstreams},1651420958,0
{consumergroup=__strimzi-topic-operator-kstreams},1651420963,0
{consumergroup=__strimzi-topic-operator-kstreams},1651420968,0
{consumergroup=__strimzi-topic-operator-kstreams},1651420973,0
{consumergroup=__strimzi-topic-operator-kstreams},1651420978,0
{consumergroup=__strimzi-topic-operator-kstreams},1651420983,0
{consumergroup=__strimzi-topic-operator-kstreams},1651420988,0
{consumergroup=__strimzi-topic-operator-kstreams},1651420993,0
{consumergroup=__strimzi-topic-operator-kstreams},1651420998,0
{consumergroup=__strimzi-topic-operator-kstreams},1651421003,0
{consumergroup=__strimzi-topic-operator-kstreams},1651421008,0
{consumergroup=__strimzi-topic-operator-kstreams},1651421013,0
{consumergroup=__strimzi-topic-operator-kstreams},1651421018,0
{consumergroup=__strimzi-topic-operator-kstreams},1651421023,0
{consumergroup=__strimzi-topic-operator-kstreams},1651421028,0
{consumergroup=__strimzi-topic-operator-kstreams},1651421033,0
{consumergroup=__strimzi-topic-operator-kstreams},1651421038,0
{consumergroup=__strimzi-topic-operator-kstreams},1651421043,0
{consumergroup=__strimzi-topic-operator-kstreams},1651421048,0
{consumergroup=__strimzi-topic-operator-kstreams},1651421053,0
{consumergroup=__strimzi-topic-operator-kstreams},1651421058,0
{consumergroup=__strimzi-topic-operator-kstreams},1651421063,0
{consumergroup=__strimzi-topic-operator-kstreams},1651421068,0
{consumergroup=__strimzi-topic-operator-kstreams},1651421073,0
{consumergroup=adapter-service},1651420843,54
{consumergroup=adapter-service},1651420848,54
{consumergroup=adapter-service},1651420853,54
{consumergroup=adapter-service},1651420858,65786
{consumergroup=adapter-service},1651420863,65786
{consumergroup=adapter-service},1651420868,65786
{consumergroup=adapter-service},1651420873,62834
{consumergroup=adapter-service},1651420878,62834
{consumergroup=adapter-service},1651420883,62834
{consumergroup=adapter-service},1651420888,42907
{consumergroup=adapter-service},1651420893,42907
{consumergroup=adapter-service},1651420898,42907
{consumergroup=adapter-service},1651420903,56288
{consumergroup=adapter-service},1651420908,56288
{consumergroup=adapter-service},1651420913,56288
{consumergroup=adapter-service},1651420918,40698
{consumergroup=adapter-service},1651420923,40698
{consumergroup=adapter-service},1651420928,40698
{consumergroup=adapter-service},1651420933,53389
{consumergroup=adapter-service},1651420938,53389
{consumergroup=adapter-service},1651420943,53389
{consumergroup=adapter-service},1651420948,97787
{consumergroup=adapter-service},1651420953,97787
{consumergroup=adapter-service},1651420958,97787
{consumergroup=adapter-service},1651420963,3414
{consumergroup=adapter-service},1651420968,3414
{consumergroup=adapter-service},1651420973,3414
{consumergroup=adapter-service},1651420978,93439
{consumergroup=adapter-service},1651420983,93439
{consumergroup=adapter-service},1651420988,93439
{consumergroup=adapter-service},1651420993,101741
{consumergroup=adapter-service},1651420998,101741
{consumergroup=adapter-service},1651421003,101741
{consumergroup=adapter-service},1651421008,87077
{consumergroup=adapter-service},1651421013,87077
{consumergroup=adapter-service},1651421018,87077
{consumergroup=adapter-service},1651421023,91219
{consumergroup=adapter-service},1651421028,91219
{consumergroup=adapter-service},1651421033,91219
{consumergroup=adapter-service},1651421038,81620
{consumergroup=adapter-service},1651421043,81620
{consumergroup=adapter-service},1651421048,81620
{consumergroup=adapter-service},1651421053,95630
{consumergroup=adapter-service},1651421058,95630
{consumergroup=adapter-service},1651421063,95630
{consumergroup=adapter-service},1651421068,82599
{consumergroup=adapter-service},1651421073,82599
