labels,timestamp,value
{consumergroup=__strimzi-topic-operator-kstreams},1651398686,2
{consumergroup=__strimzi-topic-operator-kstreams},1651398691,18
{consumergroup=__strimzi-topic-operator-kstreams},1651398696,18
{consumergroup=__strimzi-topic-operator-kstreams},1651398701,18
{consumergroup=__strimzi-topic-operator-kstreams},1651398706,0
{consumergroup=__strimzi-topic-operator-kstreams},1651398711,0
{consumergroup=__strimzi-topic-operator-kstreams},1651398716,0
{consumergroup=__strimzi-topic-operator-kstreams},1651398721,0
{consumergroup=__strimzi-topic-operator-kstreams},1651398726,0
{consumergroup=__strimzi-topic-operator-kstreams},1651398731,0
{consumergroup=__strimzi-topic-operator-kstreams},1651398736,0
{consumergroup=__strimzi-topic-operator-kstreams},1651398741,0
{consumergroup=__strimzi-topic-operator-kstreams},1651398746,0
{consumergroup=__strimzi-topic-operator-kstreams},1651398751,0
{consumergroup=__strimzi-topic-operator-kstreams},1651398756,0
{consumergroup=__strimzi-topic-operator-kstreams},1651398761,0
{consumergroup=__strimzi-topic-operator-kstreams},1651398766,0
{consumergroup=__strimzi-topic-operator-kstreams},1651398771,0
{consumergroup=__strimzi-topic-operator-kstreams},1651398776,0
{consumergroup=__strimzi-topic-operator-kstreams},1651398781,0
{consumergroup=__strimzi-topic-operator-kstreams},1651398786,0
{consumergroup=__strimzi-topic-operator-kstreams},1651398791,0
{consumergroup=__strimzi-topic-operator-kstreams},1651398796,0
{consumergroup=__strimzi-topic-operator-kstreams},1651398801,0
{consumergroup=__strimzi-topic-operator-kstreams},1651398806,0
{consumergroup=__strimzi-topic-operator-kstreams},1651398811,0
{consumergroup=__strimzi-topic-operator-kstreams},1651398816,0
{consumergroup=__strimzi-topic-operator-kstreams},1651398821,0
{consumergroup=__strimzi-topic-operator-kstreams},1651398826,0
{consumergroup=__strimzi-topic-operator-kstreams},1651398831,0
{consumergroup=__strimzi-topic-operator-kstreams},1651398836,0
{consumergroup=__strimzi-topic-operator-kstreams},1651398841,0
{consumergroup=__strimzi-topic-operator-kstreams},1651398846,0
{consumergroup=__strimzi-topic-operator-kstreams},1651398851,0
{consumergroup=__strimzi-topic-operator-kstreams},1651398856,0
{consumergroup=__strimzi-topic-operator-kstreams},1651398861,0
{consumergroup=__strimzi-topic-operator-kstreams},1651398866,0
{consumergroup=__strimzi-topic-operator-kstreams},1651398871,0
{consumergroup=__strimzi-topic-operator-kstreams},1651398876,0
{consumergroup=__strimzi-topic-operator-kstreams},1651398881,0
{consumergroup=__strimzi-topic-operator-kstreams},1651398886,0
{consumergroup=__strimzi-topic-operator-kstreams},1651398891,0
{consumergroup=__strimzi-topic-operator-kstreams},1651398896,0
{consumergroup=__strimzi-topic-operator-kstreams},1651398901,0
{consumergroup=__strimzi-topic-operator-kstreams},1651398906,0
{consumergroup=__strimzi-topic-operator-kstreams},1651398911,0
{consumergroup=__strimzi-topic-operator-kstreams},1651398916,0
{consumergroup=__strimzi-topic-operator-kstreams},1651398921,0
{consumergroup=__strimzi-topic-operator-kstreams},1651398926,0
{consumergroup=__strimzi-topic-operator-kstreams},1651398931,0
{consumergroup=__strimzi-topic-operator-kstreams},1651398936,0
{consumergroup=__strimzi-topic-operator-kstreams},1651398941,0
{consumergroup=__strimzi-topic-operator-kstreams},1651398946,0
{consumergroup=adapter-service},1651398686,0
{consumergroup=adapter-service},1651398721,56382
{consumergroup=adapter-service},1651398726,56382
{consumergroup=adapter-service},1651398731,56382
{consumergroup=adapter-service},1651398736,103313
{consumergroup=adapter-service},1651398741,103313
{consumergroup=adapter-service},1651398746,103313
{consumergroup=adapter-service},1651398751,124518
{consumergroup=adapter-service},1651398756,124518
{consumergroup=adapter-service},1651398761,124518
{consumergroup=adapter-service},1651398766,174227
{consumergroup=adapter-service},1651398771,174227
{consumergroup=adapter-service},1651398776,174227
{consumergroup=adapter-service},1651398781,177280
{consumergroup=adapter-service},1651398786,177280
{consumergroup=adapter-service},1651398791,177280
{consumergroup=adapter-service},1651398796,174525
{consumergroup=adapter-service},1651398801,174525
{consumergroup=adapter-service},1651398806,174525
{consumergroup=adapter-service},1651398811,173774
{consumergroup=adapter-service},1651398816,173774
{consumergroup=adapter-service},1651398821,173774
{consumergroup=adapter-service},1651398826,181001
{consumergroup=adapter-service},1651398831,181001
{consumergroup=adapter-service},1651398836,181001
{consumergroup=adapter-service},1651398841,181160
{consumergroup=adapter-service},1651398846,181160
{consumergroup=adapter-service},1651398851,181160
{consumergroup=adapter-service},1651398856,157786
{consumergroup=adapter-service},1651398861,157786
{consumergroup=adapter-service},1651398866,157786
{consumergroup=adapter-service},1651398871,166417
{consumergroup=adapter-service},1651398876,166417
{consumergroup=adapter-service},1651398881,166417
{consumergroup=adapter-service},1651398886,173268
{consumergroup=adapter-service},1651398891,173268
{consumergroup=adapter-service},1651398896,173268
{consumergroup=adapter-service},1651398901,173857
{consumergroup=adapter-service},1651398906,173857
{consumergroup=adapter-service},1651398911,173857
{consumergroup=adapter-service},1651398916,170017
{consumergroup=adapter-service},1651398921,170017
{consumergroup=adapter-service},1651398926,170017
{consumergroup=adapter-service},1651398931,168945
{consumergroup=adapter-service},1651398936,168945
{consumergroup=adapter-service},1651398941,168945
{consumergroup=adapter-service},1651398946,184923
