labels,timestamp,value
{consumergroup=__strimzi-topic-operator-kstreams},1651397221,16
{consumergroup=__strimzi-topic-operator-kstreams},1651397226,16
{consumergroup=__strimzi-topic-operator-kstreams},1651397231,16
{consumergroup=__strimzi-topic-operator-kstreams},1651397236,0
{consumergroup=__strimzi-topic-operator-kstreams},1651397241,0
{consumergroup=__strimzi-topic-operator-kstreams},1651397246,0
{consumergroup=__strimzi-topic-operator-kstreams},1651397251,0
{consumergroup=__strimzi-topic-operator-kstreams},1651397256,0
{consumergroup=__strimzi-topic-operator-kstreams},1651397261,0
{consumergroup=__strimzi-topic-operator-kstreams},1651397266,0
{consumergroup=__strimzi-topic-operator-kstreams},1651397271,0
{consumergroup=__strimzi-topic-operator-kstreams},1651397276,0
{consumergroup=__strimzi-topic-operator-kstreams},1651397281,0
{consumergroup=__strimzi-topic-operator-kstreams},1651397286,0
{consumergroup=__strimzi-topic-operator-kstreams},1651397291,0
{consumergroup=__strimzi-topic-operator-kstreams},1651397296,0
{consumergroup=__strimzi-topic-operator-kstreams},1651397301,0
{consumergroup=__strimzi-topic-operator-kstreams},1651397306,0
{consumergroup=__strimzi-topic-operator-kstreams},1651397311,0
{consumergroup=__strimzi-topic-operator-kstreams},1651397316,0
{consumergroup=__strimzi-topic-operator-kstreams},1651397321,0
{consumergroup=__strimzi-topic-operator-kstreams},1651397326,0
{consumergroup=__strimzi-topic-operator-kstreams},1651397331,0
{consumergroup=__strimzi-topic-operator-kstreams},1651397336,0
{consumergroup=__strimzi-topic-operator-kstreams},1651397341,0
{consumergroup=__strimzi-topic-operator-kstreams},1651397346,0
{consumergroup=__strimzi-topic-operator-kstreams},1651397351,0
{consumergroup=__strimzi-topic-operator-kstreams},1651397356,0
{consumergroup=__strimzi-topic-operator-kstreams},1651397361,0
{consumergroup=__strimzi-topic-operator-kstreams},1651397366,0
{consumergroup=__strimzi-topic-operator-kstreams},1651397371,0
{consumergroup=__strimzi-topic-operator-kstreams},1651397376,0
{consumergroup=__strimzi-topic-operator-kstreams},1651397381,0
{consumergroup=__strimzi-topic-operator-kstreams},1651397386,0
{consumergroup=__strimzi-topic-operator-kstreams},1651397391,0
{consumergroup=__strimzi-topic-operator-kstreams},1651397396,0
{consumergroup=__strimzi-topic-operator-kstreams},1651397401,0
{consumergroup=__strimzi-topic-operator-kstreams},1651397406,0
{consumergroup=__strimzi-topic-operator-kstreams},1651397411,0
{consumergroup=__strimzi-topic-operator-kstreams},1651397416,0
{consumergroup=__strimzi-topic-operator-kstreams},1651397421,0
{consumergroup=__strimzi-topic-operator-kstreams},1651397426,0
{consumergroup=__strimzi-topic-operator-kstreams},1651397431,0
{consumergroup=__strimzi-topic-operator-kstreams},1651397436,0
{consumergroup=__strimzi-topic-operator-kstreams},1651397441,0
{consumergroup=__strimzi-topic-operator-kstreams},1651397446,0
{consumergroup=__strimzi-topic-operator-kstreams},1651397451,0
{consumergroup=__strimzi-topic-operator-kstreams},1651397456,0
{consumergroup=__strimzi-topic-operator-kstreams},1651397461,0
{consumergroup=__strimzi-topic-operator-kstreams},1651397466,0
{consumergroup=__strimzi-topic-operator-kstreams},1651397471,0
{consumergroup=__strimzi-topic-operator-kstreams},1651397476,0
{consumergroup=adapter-service},1651397251,12158
{consumergroup=adapter-service},1651397256,12158
{consumergroup=adapter-service},1651397261,12158
{consumergroup=adapter-service},1651397266,153752
{consumergroup=adapter-service},1651397271,153752
{consumergroup=adapter-service},1651397276,153752
{consumergroup=adapter-service},1651397281,218005
{consumergroup=adapter-service},1651397286,218005
{consumergroup=adapter-service},1651397291,218005
{consumergroup=adapter-service},1651397296,262506
{consumergroup=adapter-service},1651397301,262506
{consumergroup=adapter-service},1651397306,262506
{consumergroup=adapter-service},1651397311,281452
{consumergroup=adapter-service},1651397316,281452
{consumergroup=adapter-service},1651397321,281452
{consumergroup=adapter-service},1651397326,305725
{consumergroup=adapter-service},1651397331,305725
{consumergroup=adapter-service},1651397336,305725
{consumergroup=adapter-service},1651397341,337319
{consumergroup=adapter-service},1651397346,337319
{consumergroup=adapter-service},1651397351,337319
{consumergroup=adapter-service},1651397356,349226
{consumergroup=adapter-service},1651397361,349226
{consumergroup=adapter-service},1651397366,349226
{consumergroup=adapter-service},1651397371,381589
{consumergroup=adapter-service},1651397376,381589
{consumergroup=adapter-service},1651397381,381589
{consumergroup=adapter-service},1651397386,416085
{consumergroup=adapter-service},1651397391,416085
{consumergroup=adapter-service},1651397396,416085
{consumergroup=adapter-service},1651397401,449261
{consumergroup=adapter-service},1651397406,449261
{consumergroup=adapter-service},1651397411,449261
{consumergroup=adapter-service},1651397416,465020
{consumergroup=adapter-service},1651397421,465020
{consumergroup=adapter-service},1651397426,465020
{consumergroup=adapter-service},1651397431,494542
{consumergroup=adapter-service},1651397436,494542
{consumergroup=adapter-service},1651397441,494542
{consumergroup=adapter-service},1651397446,528058
{consumergroup=adapter-service},1651397451,528058
{consumergroup=adapter-service},1651397456,528058
{consumergroup=adapter-service},1651397461,546239
{consumergroup=adapter-service},1651397466,546239
{consumergroup=adapter-service},1651397471,546239
{consumergroup=adapter-service},1651397476,579017
