labels,timestamp,value
{consumergroup=__strimzi-topic-operator-kstreams},1651370096,2
{consumergroup=__strimzi-topic-operator-kstreams},1651370101,2
{consumergroup=__strimzi-topic-operator-kstreams},1651370106,2
{consumergroup=__strimzi-topic-operator-kstreams},1651370111,2
{consumergroup=__strimzi-topic-operator-kstreams},1651370116,2
{consumergroup=__strimzi-topic-operator-kstreams},1651370121,2
{consumergroup=__strimzi-topic-operator-kstreams},1651370126,0
{consumergroup=__strimzi-topic-operator-kstreams},1651370131,0
{consumergroup=__strimzi-topic-operator-kstreams},1651370136,0
{consumergroup=__strimzi-topic-operator-kstreams},1651370141,0
{consumergroup=__strimzi-topic-operator-kstreams},1651370146,0
{consumergroup=__strimzi-topic-operator-kstreams},1651370151,0
{consumergroup=__strimzi-topic-operator-kstreams},1651370156,0
{consumergroup=__strimzi-topic-operator-kstreams},1651370161,0
{consumergroup=__strimzi-topic-operator-kstreams},1651370166,0
{consumergroup=__strimzi-topic-operator-kstreams},1651370171,0
{consumergroup=__strimzi-topic-operator-kstreams},1651370176,0
{consumergroup=__strimzi-topic-operator-kstreams},1651370181,0
{consumergroup=__strimzi-topic-operator-kstreams},1651370186,0
{consumergroup=__strimzi-topic-operator-kstreams},1651370191,0
{consumergroup=__strimzi-topic-operator-kstreams},1651370196,0
{consumergroup=__strimzi-topic-operator-kstreams},1651370201,0
{consumergroup=__strimzi-topic-operator-kstreams},1651370206,0
{consumergroup=__strimzi-topic-operator-kstreams},1651370211,0
{consumergroup=__strimzi-topic-operator-kstreams},1651370216,0
{consumergroup=__strimzi-topic-operator-kstreams},1651370221,0
{consumergroup=__strimzi-topic-operator-kstreams},1651370226,0
{consumergroup=__strimzi-topic-operator-kstreams},1651370231,0
{consumergroup=__strimzi-topic-operator-kstreams},1651370236,0
{consumergroup=__strimzi-topic-operator-kstreams},1651370241,0
{consumergroup=__strimzi-topic-operator-kstreams},1651370246,0
{consumergroup=__strimzi-topic-operator-kstreams},1651370251,0
{consumergroup=__strimzi-topic-operator-kstreams},1651370256,0
{consumergroup=__strimzi-topic-operator-kstreams},1651370261,0
{consumergroup=__strimzi-topic-operator-kstreams},1651370266,0
{consumergroup=__strimzi-topic-operator-kstreams},1651370271,0
{consumergroup=__strimzi-topic-operator-kstreams},1651370276,0
{consumergroup=__strimzi-topic-operator-kstreams},1651370281,0
{consumergroup=__strimzi-topic-operator-kstreams},1651370286,0
{consumergroup=__strimzi-topic-operator-kstreams},1651370291,0
{consumergroup=__strimzi-topic-operator-kstreams},1651370296,0
{consumergroup=__strimzi-topic-operator-kstreams},1651370301,0
{consumergroup=__strimzi-topic-operator-kstreams},1651370306,0
{consumergroup=__strimzi-topic-operator-kstreams},1651370311,0
{consumergroup=__strimzi-topic-operator-kstreams},1651370316,0
{consumergroup=__strimzi-topic-operator-kstreams},1651370321,0
{consumergroup=__strimzi-topic-operator-kstreams},1651370326,0
{consumergroup=__strimzi-topic-operator-kstreams},1651370331,0
{consumergroup=__strimzi-topic-operator-kstreams},1651370336,0
{consumergroup=__strimzi-topic-operator-kstreams},1651370341,0
{consumergroup=__strimzi-topic-operator-kstreams},1651370346,0
{consumergroup=adapter-service},1651370126,335583
{consumergroup=adapter-service},1651370131,335583
{consumergroup=adapter-service},1651370136,335583
{consumergroup=adapter-service},1651370141,3074869
{consumergroup=adapter-service},1651370146,3074869
{consumergroup=adapter-service},1651370151,3074869
{consumergroup=adapter-service},1651370156,4710181
{consumergroup=adapter-service},1651370161,4710181
{consumergroup=adapter-service},1651370166,4710181
{consumergroup=adapter-service},1651370171,6586461
{consumergroup=adapter-service},1651370176,6586461
{consumergroup=adapter-service},1651370181,6586461
{consumergroup=adapter-service},1651370186,8142046
{consumergroup=adapter-service},1651370191,8142046
{consumergroup=adapter-service},1651370196,8142046
{consumergroup=adapter-service},1651370201,9892749
{consumergroup=adapter-service},1651370206,9892749
{consumergroup=adapter-service},1651370211,9892749
{consumergroup=adapter-service},1651370216,11260283
{consumergroup=adapter-service},1651370221,11260283
{consumergroup=adapter-service},1651370226,11260283
{consumergroup=adapter-service},1651370231,12922443
{consumergroup=adapter-service},1651370236,12922443
{consumergroup=adapter-service},1651370241,12922443
{consumergroup=adapter-service},1651370246,14287426
{consumergroup=adapter-service},1651370251,14287426
{consumergroup=adapter-service},1651370256,14287426
{consumergroup=adapter-service},1651370261,15927886
{consumergroup=adapter-service},1651370266,15927886
{consumergroup=adapter-service},1651370271,15927886
{consumergroup=adapter-service},1651370276,17389505
{consumergroup=adapter-service},1651370281,17389505
{consumergroup=adapter-service},1651370286,17389505
{consumergroup=adapter-service},1651370291,18945157
{consumergroup=adapter-service},1651370296,18945157
{consumergroup=adapter-service},1651370301,18945157
{consumergroup=adapter-service},1651370306,20418972
{consumergroup=adapter-service},1651370311,20418972
{consumergroup=adapter-service},1651370316,20418972
{consumergroup=adapter-service},1651370321,21975616
{consumergroup=adapter-service},1651370326,21975616
{consumergroup=adapter-service},1651370331,21975616
{consumergroup=adapter-service},1651370336,23522034
{consumergroup=adapter-service},1651370341,23522034
{consumergroup=adapter-service},1651370346,23522034
