labels,timestamp,value
{consumergroup=__strimzi-topic-operator-kstreams},1651359513,7
{consumergroup=__strimzi-topic-operator-kstreams},1651359518,7
{consumergroup=__strimzi-topic-operator-kstreams},1651359523,7
{consumergroup=__strimzi-topic-operator-kstreams},1651359528,7
{consumergroup=__strimzi-topic-operator-kstreams},1651359533,7
{consumergroup=__strimzi-topic-operator-kstreams},1651359538,7
{consumergroup=__strimzi-topic-operator-kstreams},1651359543,0
{consumergroup=__strimzi-topic-operator-kstreams},1651359548,0
{consumergroup=__strimzi-topic-operator-kstreams},1651359553,0
{consumergroup=__strimzi-topic-operator-kstreams},1651359558,0
{consumergroup=__strimzi-topic-operator-kstreams},1651359563,0
{consumergroup=__strimzi-topic-operator-kstreams},1651359568,0
{consumergroup=__strimzi-topic-operator-kstreams},1651359573,0
{consumergroup=__strimzi-topic-operator-kstreams},1651359578,0
{consumergroup=__strimzi-topic-operator-kstreams},1651359583,0
{consumergroup=__strimzi-topic-operator-kstreams},1651359588,0
{consumergroup=__strimzi-topic-operator-kstreams},1651359593,0
{consumergroup=__strimzi-topic-operator-kstreams},1651359598,0
{consumergroup=__strimzi-topic-operator-kstreams},1651359603,0
{consumergroup=__strimzi-topic-operator-kstreams},1651359608,0
{consumergroup=__strimzi-topic-operator-kstreams},1651359613,0
{consumergroup=__strimzi-topic-operator-kstreams},1651359618,0
{consumergroup=__strimzi-topic-operator-kstreams},1651359623,0
{consumergroup=__strimzi-topic-operator-kstreams},1651359628,0
{consumergroup=__strimzi-topic-operator-kstreams},1651359633,0
{consumergroup=__strimzi-topic-operator-kstreams},1651359638,0
{consumergroup=__strimzi-topic-operator-kstreams},1651359643,0
{consumergroup=__strimzi-topic-operator-kstreams},1651359648,0
{consumergroup=__strimzi-topic-operator-kstreams},1651359653,0
{consumergroup=__strimzi-topic-operator-kstreams},1651359658,0
{consumergroup=__strimzi-topic-operator-kstreams},1651359663,0
{consumergroup=__strimzi-topic-operator-kstreams},1651359668,0
{consumergroup=__strimzi-topic-operator-kstreams},1651359673,0
{consumergroup=__strimzi-topic-operator-kstreams},1651359678,0
{consumergroup=__strimzi-topic-operator-kstreams},1651359683,0
{consumergroup=__strimzi-topic-operator-kstreams},1651359688,0
{consumergroup=__strimzi-topic-operator-kstreams},1651359693,0
{consumergroup=__strimzi-topic-operator-kstreams},1651359698,0
{consumergroup=__strimzi-topic-operator-kstreams},1651359703,0
{consumergroup=__strimzi-topic-operator-kstreams},1651359708,0
{consumergroup=__strimzi-topic-operator-kstreams},1651359713,0
{consumergroup=__strimzi-topic-operator-kstreams},1651359718,0
{consumergroup=__strimzi-topic-operator-kstreams},1651359723,0
{consumergroup=__strimzi-topic-operator-kstreams},1651359728,0
{consumergroup=__strimzi-topic-operator-kstreams},1651359733,0
{consumergroup=__strimzi-topic-operator-kstreams},1651359738,0
{consumergroup=__strimzi-topic-operator-kstreams},1651359743,0
{consumergroup=__strimzi-topic-operator-kstreams},1651359748,0
{consumergroup=__strimzi-topic-operator-kstreams},1651359753,0
{consumergroup=__strimzi-topic-operator-kstreams},1651359758,0
{consumergroup=adapter-service},1651359528,17567
{consumergroup=adapter-service},1651359533,17567
{consumergroup=adapter-service},1651359538,17567
{consumergroup=adapter-service},1651359543,1001960
{consumergroup=adapter-service},1651359548,1001960
{consumergroup=adapter-service},1651359553,1001960
{consumergroup=adapter-service},1651359558,1108824
{consumergroup=adapter-service},1651359563,1108824
{consumergroup=adapter-service},1651359568,1108824
{consumergroup=adapter-service},1651359573,886816
{consumergroup=adapter-service},1651359578,886816
{consumergroup=adapter-service},1651359583,886816
{consumergroup=adapter-service},1651359588,540191
{consumergroup=adapter-service},1651359593,540191
{consumergroup=adapter-service},1651359598,540191
{consumergroup=adapter-service},1651359603,421962
{consumergroup=adapter-service},1651359608,421962
{consumergroup=adapter-service},1651359613,421962
{consumergroup=adapter-service},1651359618,363952
{consumergroup=adapter-service},1651359623,363952
{consumergroup=adapter-service},1651359628,363952
{consumergroup=adapter-service},1651359633,325552
{consumergroup=adapter-service},1651359638,325552
{consumergroup=adapter-service},1651359643,325552
{consumergroup=adapter-service},1651359648,416463
{consumergroup=adapter-service},1651359653,416463
{consumergroup=adapter-service},1651359658,416463
{consumergroup=adapter-service},1651359663,332801
{consumergroup=adapter-service},1651359668,332801
{consumergroup=adapter-service},1651359673,332801
{consumergroup=adapter-service},1651359678,166580
{consumergroup=adapter-service},1651359683,166580
{consumergroup=adapter-service},1651359688,166580
{consumergroup=adapter-service},1651359693,456757
{consumergroup=adapter-service},1651359698,456757
{consumergroup=adapter-service},1651359703,456757
{consumergroup=adapter-service},1651359708,384926
{consumergroup=adapter-service},1651359713,384926
{consumergroup=adapter-service},1651359718,384926
{consumergroup=adapter-service},1651359723,543657
{consumergroup=adapter-service},1651359728,543657
{consumergroup=adapter-service},1651359733,543657
{consumergroup=adapter-service},1651359738,275846
{consumergroup=adapter-service},1651359743,275846
{consumergroup=adapter-service},1651359748,275846
{consumergroup=adapter-service},1651359753,485637
{consumergroup=adapter-service},1651359758,485637
