labels,timestamp,value
{job=theodolite-stu200776/combined-trace-podmonitor},1651285177,0
{job=theodolite-stu200776/combined-trace-podmonitor},1651285182,0
{job=theodolite-stu200776/combined-trace-podmonitor},1651285187,0
{job=theodolite-stu200776/combined-trace-podmonitor},1651285192,0
{job=theodolite-stu200776/combined-trace-podmonitor},1651285197,0
{job=theodolite-stu200776/combined-trace-podmonitor},1651285202,0
{job=theodolite-stu200776/combined-trace-podmonitor},1651285207,0
{job=theodolite-stu200776/combined-trace-podmonitor},1651285212,0
{job=theodolite-stu200776/combined-trace-podmonitor},1651285217,0
{job=theodolite-stu200776/combined-trace-podmonitor},1651285222,0
{job=theodolite-stu200776/combined-trace-podmonitor},1651285227,0
{job=theodolite-stu200776/combined-trace-podmonitor},1651285232,0
{job=theodolite-stu200776/combined-trace-podmonitor},1651285237,0
{job=theodolite-stu200776/combined-trace-podmonitor},1651285242,0
{job=theodolite-stu200776/combined-trace-podmonitor},1651285247,0
{job=theodolite-stu200776/combined-trace-podmonitor},1651285252,0
{job=theodolite-stu200776/combined-trace-podmonitor},1651285257,0
{job=theodolite-stu200776/combined-trace-podmonitor},1651285262,0
{job=theodolite-stu200776/combined-trace-podmonitor},1651285267,0
{job=theodolite-stu200776/combined-trace-podmonitor},1651285272,0
{job=theodolite-stu200776/combined-trace-podmonitor},1651285277,0
{job=theodolite-stu200776/combined-trace-podmonitor},1651285282,0
{job=theodolite-stu200776/combined-trace-podmonitor},1651285287,0
{job=theodolite-stu200776/combined-trace-podmonitor},1651285292,0
{job=theodolite-stu200776/combined-trace-podmonitor},1651285297,0
{job=theodolite-stu200776/combined-trace-podmonitor},1651285302,0
{job=theodolite-stu200776/combined-trace-podmonitor},1651285307,0
{job=theodolite-stu200776/combined-trace-podmonitor},1651285312,0
{job=theodolite-stu200776/combined-trace-podmonitor},1651285317,0
{job=theodolite-stu200776/combined-trace-podmonitor},1651285322,0
{job=theodolite-stu200776/combined-trace-podmonitor},1651285327,0
{job=theodolite-stu200776/combined-trace-podmonitor},1651285332,0
{job=theodolite-stu200776/combined-trace-podmonitor},1651285337,0
{job=theodolite-stu200776/combined-trace-podmonitor},1651285342,0
{job=theodolite-stu200776/combined-trace-podmonitor},1651285347,0
{job=theodolite-stu200776/combined-trace-podmonitor},1651285352,0
{job=theodolite-stu200776/combined-trace-podmonitor},1651285357,0
{job=theodolite-stu200776/combined-trace-podmonitor},1651285362,0
{job=theodolite-stu200776/combined-trace-podmonitor},1651285367,0
{job=theodolite-stu200776/combined-trace-podmonitor},1651285372,0
{job=theodolite-stu200776/combined-trace-podmonitor},1651285377,0
{job=theodolite-stu200776/combined-trace-podmonitor},1651285382,0
{job=theodolite-stu200776/combined-trace-podmonitor},1651285387,0
{job=theodolite-stu200776/combined-trace-podmonitor},1651285392,0
{job=theodolite-stu200776/combined-trace-podmonitor},1651285397,0
{job=theodolite-stu200776/combined-trace-podmonitor},1651285402,0
{job=theodolite-stu200776/combined-trace-podmonitor},1651285407,0
{job=theodolite-stu200776/combined-trace-podmonitor},1651285412,0
{job=theodolite-stu200776/combined-trace-podmonitor},1651285417,0
{job=theodolite-stu200776/combined-trace-podmonitor},1651285422,0
{job=theodolite-stu200776/combined-trace-podmonitor},1651285427,0
{job=theodolite-stu200776/combined-trace-podmonitor},1651285432,0
{job=theodolite-stu200776/combined-trace-podmonitor},1651285437,0
{job=theodolite-stu200776/combined-trace-podmonitor},1651285442,0
{job=theodolite-stu200776/combined-trace-podmonitor},1651285447,0
{job=theodolite-stu200776/combined-trace-podmonitor},1651285452,0
{job=theodolite-stu200776/combined-trace-podmonitor},1651285457,0
{job=theodolite-stu200776/combined-trace-podmonitor},1651285462,0
{job=theodolite-stu200776/combined-trace-podmonitor},1651285467,0
{job=theodolite-stu200776/combined-trace-podmonitor},1651285472,0
{job=theodolite-stu200776/combined-trace-podmonitor},1651285477,0
{job=theodolite-stu200776/combined-trace-podmonitor},1651285482,0
{job=theodolite-stu200776/combined-trace-podmonitor},1651285487,0
{job=theodolite-stu200776/combined-trace-podmonitor},1651285492,0
{job=theodolite-stu200776/combined-trace-podmonitor},1651285497,0
{job=theodolite-stu200776/combined-trace-podmonitor},1651285502,0
{job=theodolite-stu200776/combined-trace-podmonitor},1651285507,0
{job=theodolite-stu200776/combined-trace-podmonitor},1651285512,0
{job=theodolite-stu200776/combined-trace-podmonitor},1651285517,0
{job=theodolite-stu200776/combined-trace-podmonitor},1651285522,0
{job=theodolite-stu200776/combined-trace-podmonitor},1651285527,0
{job=theodolite-stu200776/combined-trace-podmonitor},1651285532,0
{job=theodolite-stu200776/combined-trace-podmonitor},1651285537,0
{job=theodolite-stu200776/combined-trace-podmonitor},1651285542,0
{job=theodolite-stu200776/combined-trace-podmonitor},1651285547,0
{job=theodolite-stu200776/combined-trace-podmonitor},1651285552,0
{job=theodolite-stu200776/combined-trace-podmonitor},1651285557,0
{job=theodolite-stu200776/combined-trace-podmonitor},1651285562,0
{job=theodolite-stu200776/combined-trace-podmonitor},1651285567,0
{job=theodolite-stu200776/combined-trace-podmonitor},1651285572,0
{job=theodolite-stu200776/combined-trace-podmonitor},1651285577,0
{job=theodolite-stu200776/combined-trace-podmonitor},1651285582,0
{job=theodolite-stu200776/combined-trace-podmonitor},1651285587,0
{job=theodolite-stu200776/combined-trace-podmonitor},1651285592,0
{job=theodolite-stu200776/combined-trace-podmonitor},1651285597,0
{job=theodolite-stu200776/combined-trace-podmonitor},1651285602,0
{job=theodolite-stu200776/combined-trace-podmonitor},1651285607,0
{job=theodolite-stu200776/combined-trace-podmonitor},1651285612,0
{job=theodolite-stu200776/combined-trace-podmonitor},1651285617,0
