labels,timestamp,value
{consumergroup=__strimzi-topic-operator-kstreams},1651382945,0
{consumergroup=__strimzi-topic-operator-kstreams},1651382950,0
{consumergroup=__strimzi-topic-operator-kstreams},1651382955,0
{consumergroup=__strimzi-topic-operator-kstreams},1651382960,0
{consumergroup=__strimzi-topic-operator-kstreams},1651382965,0
{consumergroup=__strimzi-topic-operator-kstreams},1651382970,0
{consumergroup=__strimzi-topic-operator-kstreams},1651382975,0
{consumergroup=__strimzi-topic-operator-kstreams},1651382980,0
{consumergroup=__strimzi-topic-operator-kstreams},1651382985,0
{consumergroup=__strimzi-topic-operator-kstreams},1651382990,0
{consumergroup=__strimzi-topic-operator-kstreams},1651382995,0
{consumergroup=__strimzi-topic-operator-kstreams},1651383000,0
{consumergroup=__strimzi-topic-operator-kstreams},1651383005,0
{consumergroup=__strimzi-topic-operator-kstreams},1651383010,0
{consumergroup=__strimzi-topic-operator-kstreams},1651383015,0
{consumergroup=__strimzi-topic-operator-kstreams},1651383020,0
{consumergroup=__strimzi-topic-operator-kstreams},1651383025,0
{consumergroup=__strimzi-topic-operator-kstreams},1651383030,0
{consumergroup=__strimzi-topic-operator-kstreams},1651383035,0
{consumergroup=__strimzi-topic-operator-kstreams},1651383040,0
{consumergroup=__strimzi-topic-operator-kstreams},1651383045,0
{consumergroup=__strimzi-topic-operator-kstreams},1651383050,0
{consumergroup=__strimzi-topic-operator-kstreams},1651383055,0
{consumergroup=__strimzi-topic-operator-kstreams},1651383060,0
{consumergroup=__strimzi-topic-operator-kstreams},1651383065,0
{consumergroup=__strimzi-topic-operator-kstreams},1651383070,0
{consumergroup=__strimzi-topic-operator-kstreams},1651383075,0
{consumergroup=__strimzi-topic-operator-kstreams},1651383080,0
{consumergroup=__strimzi-topic-operator-kstreams},1651383085,0
{consumergroup=__strimzi-topic-operator-kstreams},1651383090,0
{consumergroup=__strimzi-topic-operator-kstreams},1651383095,0
{consumergroup=__strimzi-topic-operator-kstreams},1651383100,0
{consumergroup=__strimzi-topic-operator-kstreams},1651383105,0
{consumergroup=__strimzi-topic-operator-kstreams},1651383110,0
{consumergroup=__strimzi-topic-operator-kstreams},1651383115,0
{consumergroup=__strimzi-topic-operator-kstreams},1651383120,0
{consumergroup=__strimzi-topic-operator-kstreams},1651383125,0
{consumergroup=__strimzi-topic-operator-kstreams},1651383130,0
{consumergroup=__strimzi-topic-operator-kstreams},1651383135,0
{consumergroup=__strimzi-topic-operator-kstreams},1651383140,0
{consumergroup=__strimzi-topic-operator-kstreams},1651383145,0
{consumergroup=__strimzi-topic-operator-kstreams},1651383150,0
{consumergroup=__strimzi-topic-operator-kstreams},1651383155,0
{consumergroup=__strimzi-topic-operator-kstreams},1651383160,0
{consumergroup=__strimzi-topic-operator-kstreams},1651383165,0
{consumergroup=__strimzi-topic-operator-kstreams},1651383170,0
{consumergroup=__strimzi-topic-operator-kstreams},1651383175,0
{consumergroup=__strimzi-topic-operator-kstreams},1651383180,0
{consumergroup=__strimzi-topic-operator-kstreams},1651383185,0
{consumergroup=adapter-service},1651382975,1923433
{consumergroup=adapter-service},1651382980,1923433
{consumergroup=adapter-service},1651382985,1923433
{consumergroup=adapter-service},1651382990,3035057
{consumergroup=adapter-service},1651382995,3035057
{consumergroup=adapter-service},1651383000,3035057
{consumergroup=adapter-service},1651383005,3746006
{consumergroup=adapter-service},1651383010,3746006
{consumergroup=adapter-service},1651383015,3746006
{consumergroup=adapter-service},1651383020,4379858
{consumergroup=adapter-service},1651383025,4379858
{consumergroup=adapter-service},1651383030,4379858
{consumergroup=adapter-service},1651383035,4884247
{consumergroup=adapter-service},1651383040,4884247
{consumergroup=adapter-service},1651383045,4884247
{consumergroup=adapter-service},1651383050,4939798
{consumergroup=adapter-service},1651383055,4939798
{consumergroup=adapter-service},1651383060,4939798
{consumergroup=adapter-service},1651383065,4984377
{consumergroup=adapter-service},1651383070,4984377
{consumergroup=adapter-service},1651383075,4984377
{consumergroup=adapter-service},1651383080,4807518
{consumergroup=adapter-service},1651383085,4807518
{consumergroup=adapter-service},1651383090,4807518
{consumergroup=adapter-service},1651383095,4885465
{consumergroup=adapter-service},1651383100,4885465
{consumergroup=adapter-service},1651383105,4885465
{consumergroup=adapter-service},1651383110,4534272
{consumergroup=adapter-service},1651383115,4534272
{consumergroup=adapter-service},1651383120,4534272
{consumergroup=adapter-service},1651383125,4448390
{consumergroup=adapter-service},1651383130,4448390
{consumergroup=adapter-service},1651383135,4448390
{consumergroup=adapter-service},1651383140,4566868
{consumergroup=adapter-service},1651383145,4566868
{consumergroup=adapter-service},1651383150,4566868
{consumergroup=adapter-service},1651383155,4298704
{consumergroup=adapter-service},1651383160,4298704
{consumergroup=adapter-service},1651383165,4298704
{consumergroup=adapter-service},1651383170,4279455
{consumergroup=adapter-service},1651383175,4279455
{consumergroup=adapter-service},1651383180,4279455
{consumergroup=adapter-service},1651383185,4002948
