labels,timestamp,value
{consumergroup=__strimzi-topic-operator-kstreams},1651274673,0
{consumergroup=__strimzi-topic-operator-kstreams},1651274678,0
{consumergroup=__strimzi-topic-operator-kstreams},1651274683,0
{consumergroup=__strimzi-topic-operator-kstreams},1651274688,3
{consumergroup=__strimzi-topic-operator-kstreams},1651274693,3
{consumergroup=__strimzi-topic-operator-kstreams},1651274698,3
{consumergroup=__strimzi-topic-operator-kstreams},1651274703,0
{consumergroup=__strimzi-topic-operator-kstreams},1651274708,0
{consumergroup=__strimzi-topic-operator-kstreams},1651274713,0
{consumergroup=__strimzi-topic-operator-kstreams},1651274718,0
{consumergroup=__strimzi-topic-operator-kstreams},1651274723,0
{consumergroup=__strimzi-topic-operator-kstreams},1651274728,0
{consumergroup=__strimzi-topic-operator-kstreams},1651274733,0
{consumergroup=__strimzi-topic-operator-kstreams},1651274738,0
{consumergroup=__strimzi-topic-operator-kstreams},1651274743,0
{consumergroup=__strimzi-topic-operator-kstreams},1651274748,0
{consumergroup=__strimzi-topic-operator-kstreams},1651274753,0
{consumergroup=__strimzi-topic-operator-kstreams},1651274758,0
{consumergroup=__strimzi-topic-operator-kstreams},1651274763,0
{consumergroup=__strimzi-topic-operator-kstreams},1651274768,0
{consumergroup=__strimzi-topic-operator-kstreams},1651274773,0
{consumergroup=__strimzi-topic-operator-kstreams},1651274778,0
{consumergroup=__strimzi-topic-operator-kstreams},1651274783,0
{consumergroup=__strimzi-topic-operator-kstreams},1651274788,0
{consumergroup=__strimzi-topic-operator-kstreams},1651274793,0
{consumergroup=__strimzi-topic-operator-kstreams},1651274798,0
{consumergroup=__strimzi-topic-operator-kstreams},1651274803,0
{consumergroup=__strimzi-topic-operator-kstreams},1651274808,0
{consumergroup=__strimzi-topic-operator-kstreams},1651274813,0
{consumergroup=__strimzi-topic-operator-kstreams},1651274818,0
{consumergroup=__strimzi-topic-operator-kstreams},1651274823,0
{consumergroup=__strimzi-topic-operator-kstreams},1651274828,0
{consumergroup=__strimzi-topic-operator-kstreams},1651274833,0
{consumergroup=__strimzi-topic-operator-kstreams},1651274838,0
{consumergroup=__strimzi-topic-operator-kstreams},1651274843,0
{consumergroup=__strimzi-topic-operator-kstreams},1651274848,0
{consumergroup=__strimzi-topic-operator-kstreams},1651274853,0
{consumergroup=__strimzi-topic-operator-kstreams},1651274858,0
{consumergroup=__strimzi-topic-operator-kstreams},1651274863,0
{consumergroup=__strimzi-topic-operator-kstreams},1651274868,0
{consumergroup=__strimzi-topic-operator-kstreams},1651274873,0
{consumergroup=__strimzi-topic-operator-kstreams},1651274878,0
{consumergroup=__strimzi-topic-operator-kstreams},1651274883,0
{consumergroup=__strimzi-topic-operator-kstreams},1651274888,0
{consumergroup=__strimzi-topic-operator-kstreams},1651274893,0
{consumergroup=__strimzi-topic-operator-kstreams},1651274898,0
{consumergroup=__strimzi-topic-operator-kstreams},1651274903,0
{consumergroup=__strimzi-topic-operator-kstreams},1651274908,0
{consumergroup=__strimzi-topic-operator-kstreams},1651274913,0
{consumergroup=__strimzi-topic-operator-kstreams},1651274918,0
{consumergroup=__strimzi-topic-operator-kstreams},1651274923,0
{consumergroup=__strimzi-topic-operator-kstreams},1651274928,0
{consumergroup=__strimzi-topic-operator-kstreams},1651274933,0
{consumergroup=__strimzi-topic-operator-kstreams},1651274938,0
{consumergroup=__strimzi-topic-operator-kstreams},1651274943,0
{consumergroup=__strimzi-topic-operator-kstreams},1651274948,0
{consumergroup=__strimzi-topic-operator-kstreams},1651274953,0
{consumergroup=__strimzi-topic-operator-kstreams},1651274958,0
{consumergroup=__strimzi-topic-operator-kstreams},1651274963,0
{consumergroup=__strimzi-topic-operator-kstreams},1651274968,0
{consumergroup=__strimzi-topic-operator-kstreams},1651274973,0
{consumergroup=__strimzi-topic-operator-kstreams},1651274978,0
{consumergroup=__strimzi-topic-operator-kstreams},1651274983,0
{consumergroup=__strimzi-topic-operator-kstreams},1651274988,0
{consumergroup=__strimzi-topic-operator-kstreams},1651274993,0
{consumergroup=__strimzi-topic-operator-kstreams},1651274998,0
{consumergroup=__strimzi-topic-operator-kstreams},1651275003,0
{consumergroup=__strimzi-topic-operator-kstreams},1651275008,0
{consumergroup=__strimzi-topic-operator-kstreams},1651275013,0
{consumergroup=__strimzi-topic-operator-kstreams},1651275018,0
{consumergroup=__strimzi-topic-operator-kstreams},1651275023,0
{consumergroup=__strimzi-topic-operator-kstreams},1651275028,0
{consumergroup=__strimzi-topic-operator-kstreams},1651275033,0
{consumergroup=__strimzi-topic-operator-kstreams},1651275038,0
{consumergroup=__strimzi-topic-operator-kstreams},1651275043,0
{consumergroup=__strimzi-topic-operator-kstreams},1651275048,0
{consumergroup=__strimzi-topic-operator-kstreams},1651275053,0
{consumergroup=__strimzi-topic-operator-kstreams},1651275058,0
{consumergroup=__strimzi-topic-operator-kstreams},1651275063,0
{consumergroup=__strimzi-topic-operator-kstreams},1651275068,0
{consumergroup=__strimzi-topic-operator-kstreams},1651275073,0
{consumergroup=__strimzi-topic-operator-kstreams},1651275078,0
{consumergroup=__strimzi-topic-operator-kstreams},1651275083,0
{consumergroup=__strimzi-topic-operator-kstreams},1651275088,0
{consumergroup=__strimzi-topic-operator-kstreams},1651275093,0
{consumergroup=__strimzi-topic-operator-kstreams},1651275098,0
{consumergroup=__strimzi-topic-operator-kstreams},1651275103,0
{consumergroup=__strimzi-topic-operator-kstreams},1651275108,0
{consumergroup=__strimzi-topic-operator-kstreams},1651275113,0
{consumergroup=__strimzi-topic-operator-kstreams},1651275118,0
{consumergroup=__strimzi-topic-operator-kstreams},1651275123,0
{consumergroup=__strimzi-topic-operator-kstreams},1651275128,0
{consumergroup=__strimzi-topic-operator-kstreams},1651275133,0
{consumergroup=__strimzi-topic-operator-kstreams},1651275138,0
{consumergroup=__strimzi-topic-operator-kstreams},1651275143,0
{consumergroup=__strimzi-topic-operator-kstreams},1651275148,0
{consumergroup=__strimzi-topic-operator-kstreams},1651275153,0
{consumergroup=__strimzi-topic-operator-kstreams},1651275158,0
{consumergroup=__strimzi-topic-operator-kstreams},1651275163,0
{consumergroup=__strimzi-topic-operator-kstreams},1651275168,0
{consumergroup=__strimzi-topic-operator-kstreams},1651275173,0
{consumergroup=adapter-service},1651274703,0
{consumergroup=adapter-service},1651274708,0
{consumergroup=adapter-service},1651274713,0
{consumergroup=adapter-service},1651274718,25299
{consumergroup=adapter-service},1651274723,25299
{consumergroup=adapter-service},1651274728,25299
{consumergroup=adapter-service},1651274733,13830
{consumergroup=adapter-service},1651274738,13830
{consumergroup=adapter-service},1651274743,13830
{consumergroup=adapter-service},1651274748,6456
{consumergroup=adapter-service},1651274753,6456
{consumergroup=adapter-service},1651274758,6456
{consumergroup=adapter-service},1651274763,0
{consumergroup=adapter-service},1651274768,0
{consumergroup=adapter-service},1651274773,0
{consumergroup=adapter-service},1651274778,11176
{consumergroup=adapter-service},1651274783,11176
{consumergroup=adapter-service},1651274788,11176
{consumergroup=adapter-service},1651274793,10478
{consumergroup=adapter-service},1651274798,10478
{consumergroup=adapter-service},1651274803,10478
{consumergroup=adapter-service},1651274808,11090
{consumergroup=adapter-service},1651274813,11090
{consumergroup=adapter-service},1651274818,11090
{consumergroup=adapter-service},1651274823,7327
{consumergroup=adapter-service},1651274828,7327
{consumergroup=adapter-service},1651274833,7327
{consumergroup=adapter-service},1651274838,6095
{consumergroup=adapter-service},1651274843,6095
{consumergroup=adapter-service},1651274848,6095
{consumergroup=adapter-service},1651274853,5479
{consumergroup=adapter-service},1651274858,5479
{consumergroup=adapter-service},1651274863,5479
{consumergroup=adapter-service},1651274868,5479
{consumergroup=adapter-service},1651274873,5479
{consumergroup=adapter-service},1651274878,5479
{consumergroup=adapter-service},1651274883,3946
{consumergroup=adapter-service},1651274888,3946
{consumergroup=adapter-service},1651274893,3946
{consumergroup=adapter-service},1651274898,3164
{consumergroup=adapter-service},1651274903,3164
{consumergroup=adapter-service},1651274908,3164
{consumergroup=adapter-service},1651274913,2508
{consumergroup=adapter-service},1651274918,2508
{consumergroup=adapter-service},1651274923,2508
{consumergroup=adapter-service},1651274928,1653
{consumergroup=adapter-service},1651274933,1653
{consumergroup=adapter-service},1651274938,1653
{consumergroup=adapter-service},1651274943,1197
{consumergroup=adapter-service},1651274948,1197
{consumergroup=adapter-service},1651274953,1197
{consumergroup=adapter-service},1651274958,1320
{consumergroup=adapter-service},1651274963,1320
{consumergroup=adapter-service},1651274968,1320
{consumergroup=adapter-service},1651274973,395
{consumergroup=adapter-service},1651274978,395
{consumergroup=adapter-service},1651274983,395
{consumergroup=adapter-service},1651274988,5827
{consumergroup=adapter-service},1651274993,5827
{consumergroup=adapter-service},1651274998,5827
{consumergroup=adapter-service},1651275003,5276
{consumergroup=adapter-service},1651275008,5276
{consumergroup=adapter-service},1651275013,5276
{consumergroup=adapter-service},1651275018,5013
{consumergroup=adapter-service},1651275023,5013
{consumergroup=adapter-service},1651275028,5013
{consumergroup=adapter-service},1651275033,10392
{consumergroup=adapter-service},1651275038,10392
{consumergroup=adapter-service},1651275043,10392
{consumergroup=adapter-service},1651275048,10641
{consumergroup=adapter-service},1651275053,10641
{consumergroup=adapter-service},1651275058,10641
{consumergroup=adapter-service},1651275063,10097
{consumergroup=adapter-service},1651275068,10097
{consumergroup=adapter-service},1651275073,10097
{consumergroup=adapter-service},1651275078,4828
{consumergroup=adapter-service},1651275083,4828
{consumergroup=adapter-service},1651275088,4828
{consumergroup=adapter-service},1651275093,7981
{consumergroup=adapter-service},1651275098,7981
{consumergroup=adapter-service},1651275103,7981
{consumergroup=adapter-service},1651275108,7220
{consumergroup=adapter-service},1651275113,7220
{consumergroup=adapter-service},1651275118,7220
{consumergroup=adapter-service},1651275123,6676
{consumergroup=adapter-service},1651275128,6676
{consumergroup=adapter-service},1651275133,6676
{consumergroup=adapter-service},1651275138,6116
{consumergroup=adapter-service},1651275143,6116
{consumergroup=adapter-service},1651275148,6116
{consumergroup=adapter-service},1651275153,5620
{consumergroup=adapter-service},1651275158,5620
{consumergroup=adapter-service},1651275163,5620
{consumergroup=adapter-service},1651275168,4907
{consumergroup=adapter-service},1651275173,4907
{consumergroup=landscape-service},1651274718,12631
{consumergroup=landscape-service},1651274723,12631
{consumergroup=landscape-service},1651274728,12631
{consumergroup=landscape-service},1651274733,12100
{consumergroup=landscape-service},1651274738,12100
{consumergroup=landscape-service},1651274743,12100
{consumergroup=landscape-service},1651274748,11620
{consumergroup=landscape-service},1651274753,11620
{consumergroup=landscape-service},1651274758,11620
{consumergroup=landscape-service},1651274763,6262
{consumergroup=landscape-service},1651274768,6262
{consumergroup=landscape-service},1651274773,6262
{consumergroup=landscape-service},1651274778,6179
{consumergroup=landscape-service},1651274783,6179
{consumergroup=landscape-service},1651274788,6179
{consumergroup=landscape-service},1651274793,5851
{consumergroup=landscape-service},1651274798,5851
{consumergroup=landscape-service},1651274803,5851
{consumergroup=landscape-service},1651274808,7940
{consumergroup=landscape-service},1651274813,7940
{consumergroup=landscape-service},1651274818,7940
{consumergroup=landscape-service},1651274823,5774
{consumergroup=landscape-service},1651274828,5774
{consumergroup=landscape-service},1651274833,5774
{consumergroup=landscape-service},1651274838,4950
{consumergroup=landscape-service},1651274843,4950
{consumergroup=landscape-service},1651274848,4950
{consumergroup=landscape-service},1651274853,4765
{consumergroup=landscape-service},1651274858,4765
{consumergroup=landscape-service},1651274863,4765
{consumergroup=landscape-service},1651274868,5075
{consumergroup=landscape-service},1651274873,5075
{consumergroup=landscape-service},1651274878,5075
{consumergroup=landscape-service},1651274883,4341
{consumergroup=landscape-service},1651274888,4341
{consumergroup=landscape-service},1651274893,4341
{consumergroup=landscape-service},1651274898,4331
{consumergroup=landscape-service},1651274903,4331
{consumergroup=landscape-service},1651274908,4331
{consumergroup=landscape-service},1651274913,3946
{consumergroup=landscape-service},1651274918,3946
{consumergroup=landscape-service},1651274923,3946
{consumergroup=landscape-service},1651274928,3621
{consumergroup=landscape-service},1651274933,3621
{consumergroup=landscape-service},1651274938,3621
{consumergroup=landscape-service},1651274943,4184
{consumergroup=landscape-service},1651274948,4184
{consumergroup=landscape-service},1651274953,4184
{consumergroup=landscape-service},1651274958,3402
{consumergroup=landscape-service},1651274963,3402
{consumergroup=landscape-service},1651274968,3402
{consumergroup=landscape-service},1651274973,4076
{consumergroup=landscape-service},1651274978,4076
{consumergroup=landscape-service},1651274983,4076
{consumergroup=landscape-service},1651274988,2948
{consumergroup=landscape-service},1651274993,2948
{consumergroup=landscape-service},1651274998,2948
{consumergroup=landscape-service},1651275003,2998
{consumergroup=landscape-service},1651275008,2998
{consumergroup=landscape-service},1651275013,2998
{consumergroup=landscape-service},1651275018,2740
{consumergroup=landscape-service},1651275023,2740
{consumergroup=landscape-service},1651275028,2740
{consumergroup=landscape-service},1651275033,2381
{consumergroup=landscape-service},1651275038,2381
{consumergroup=landscape-service},1651275043,2381
{consumergroup=landscape-service},1651275048,2381
{consumergroup=landscape-service},1651275053,2381
{consumergroup=landscape-service},1651275058,2381
{consumergroup=landscape-service},1651275063,2320
{consumergroup=landscape-service},1651275068,2320
{consumergroup=landscape-service},1651275073,2320
{consumergroup=landscape-service},1651275078,5059
{consumergroup=landscape-service},1651275083,5059
{consumergroup=landscape-service},1651275088,5059
{consumergroup=landscape-service},1651275093,1404
{consumergroup=landscape-service},1651275098,1404
{consumergroup=landscape-service},1651275103,1404
{consumergroup=landscape-service},1651275108,1829
{consumergroup=landscape-service},1651275113,1829
{consumergroup=landscape-service},1651275118,1829
{consumergroup=landscape-service},1651275123,1345
{consumergroup=landscape-service},1651275128,1345
{consumergroup=landscape-service},1651275133,1345
{consumergroup=landscape-service},1651275138,248
{consumergroup=landscape-service},1651275143,248
{consumergroup=landscape-service},1651275148,248
{consumergroup=landscape-service},1651275153,0
{consumergroup=landscape-service},1651275158,0
{consumergroup=landscape-service},1651275163,0
{consumergroup=trace-service},1651274718,15804
{consumergroup=trace-service},1651274723,15804
{consumergroup=trace-service},1651274728,15804
{consumergroup=trace-service},1651274733,29939
{consumergroup=trace-service},1651274738,29939
{consumergroup=trace-service},1651274743,29939
{consumergroup=trace-service},1651274748,50737
{consumergroup=trace-service},1651274753,50737
{consumergroup=trace-service},1651274758,50737
{consumergroup=trace-service},1651274763,95528
{consumergroup=trace-service},1651274768,95528
{consumergroup=trace-service},1651274773,95528
{consumergroup=trace-service},1651274778,48288
{consumergroup=trace-service},1651274783,48288
{consumergroup=trace-service},1651274788,48288
{consumergroup=trace-service},1651274793,15202
{consumergroup=trace-service},1651274798,15202
{consumergroup=trace-service},1651274803,15202
{consumergroup=trace-service},1651274808,37282
{consumergroup=trace-service},1651274813,37282
{consumergroup=trace-service},1651274818,37282
{consumergroup=trace-service},1651274823,18456
{consumergroup=trace-service},1651274828,18456
{consumergroup=trace-service},1651274833,18456
{consumergroup=trace-service},1651274838,36207
{consumergroup=trace-service},1651274843,36207
{consumergroup=trace-service},1651274848,36207
{consumergroup=trace-service},1651274853,22799
{consumergroup=trace-service},1651274858,22799
{consumergroup=trace-service},1651274863,22799
{consumergroup=trace-service},1651274868,39717
{consumergroup=trace-service},1651274873,39717
{consumergroup=trace-service},1651274878,39717
{consumergroup=trace-service},1651274883,13588
{consumergroup=trace-service},1651274888,13588
{consumergroup=trace-service},1651274893,13588
{consumergroup=trace-service},1651274898,43619
{consumergroup=trace-service},1651274903,43619
{consumergroup=trace-service},1651274908,43619
{consumergroup=trace-service},1651274913,67561
{consumergroup=trace-service},1651274918,67561
{consumergroup=trace-service},1651274923,67561
{consumergroup=trace-service},1651274928,36909
{consumergroup=trace-service},1651274933,36909
{consumergroup=trace-service},1651274938,36909
{consumergroup=trace-service},1651274943,19847
{consumergroup=trace-service},1651274948,19847
{consumergroup=trace-service},1651274953,19847
{consumergroup=trace-service},1651274958,37414
{consumergroup=trace-service},1651274963,37414
{consumergroup=trace-service},1651274968,37414
{consumergroup=trace-service},1651274973,10684
{consumergroup=trace-service},1651274978,10684
{consumergroup=trace-service},1651274983,10684
{consumergroup=trace-service},1651274988,36097
{consumergroup=trace-service},1651274993,36097
{consumergroup=trace-service},1651274998,36097
{consumergroup=trace-service},1651275003,20532
{consumergroup=trace-service},1651275008,20532
{consumergroup=trace-service},1651275013,20532
{consumergroup=trace-service},1651275018,42032
{consumergroup=trace-service},1651275023,42032
{consumergroup=trace-service},1651275028,42032
{consumergroup=trace-service},1651275033,74087
{consumergroup=trace-service},1651275038,74087
{consumergroup=trace-service},1651275043,74087
{consumergroup=trace-service},1651275048,40586
{consumergroup=trace-service},1651275053,40586
{consumergroup=trace-service},1651275058,40586
{consumergroup=trace-service},1651275063,12614
{consumergroup=trace-service},1651275068,12614
{consumergroup=trace-service},1651275073,12614
{consumergroup=trace-service},1651275078,36275
{consumergroup=trace-service},1651275083,36275
{consumergroup=trace-service},1651275088,36275
{consumergroup=trace-service},1651275093,11790
{consumergroup=trace-service},1651275098,11790
{consumergroup=trace-service},1651275103,11790
{consumergroup=trace-service},1651275108,36069
{consumergroup=trace-service},1651275113,36069
{consumergroup=trace-service},1651275118,36069
{consumergroup=trace-service},1651275123,24105
{consumergroup=trace-service},1651275128,24105
{consumergroup=trace-service},1651275133,24105
{consumergroup=trace-service},1651275138,42205
{consumergroup=trace-service},1651275143,42205
{consumergroup=trace-service},1651275148,42205
{consumergroup=trace-service},1651275153,32222
{consumergroup=trace-service},1651275158,32222
{consumergroup=trace-service},1651275163,32222
{consumergroup=trace-service},1651275168,41578
{consumergroup=trace-service},1651275173,41578
{consumergroup=trace-token-events-consumer},1651274703,0
{consumergroup=trace-token-events-consumer},1651274708,0
{consumergroup=trace-token-events-consumer},1651274713,0
{consumergroup=trace-token-events-consumer},1651274718,0
{consumergroup=trace-token-events-consumer},1651274723,0
{consumergroup=trace-token-events-consumer},1651274728,0
{consumergroup=trace-token-events-consumer},1651274733,0
{consumergroup=trace-token-events-consumer},1651274738,0
{consumergroup=trace-token-events-consumer},1651274743,0
{consumergroup=trace-token-events-consumer},1651274748,0
{consumergroup=trace-token-events-consumer},1651274753,0
{consumergroup=trace-token-events-consumer},1651274758,0
{consumergroup=trace-token-events-consumer},1651274763,0
{consumergroup=trace-token-events-consumer},1651274768,0
{consumergroup=trace-token-events-consumer},1651274773,0
{consumergroup=trace-token-events-consumer},1651274778,0
{consumergroup=trace-token-events-consumer},1651274783,0
{consumergroup=trace-token-events-consumer},1651274788,0
{consumergroup=trace-token-events-consumer},1651274793,0
{consumergroup=trace-token-events-consumer},1651274798,0
{consumergroup=trace-token-events-consumer},1651274803,0
{consumergroup=trace-token-events-consumer},1651274808,0
{consumergroup=trace-token-events-consumer},1651274813,0
{consumergroup=trace-token-events-consumer},1651274818,0
{consumergroup=trace-token-events-consumer},1651274823,0
{consumergroup=trace-token-events-consumer},1651274828,0
{consumergroup=trace-token-events-consumer},1651274833,0
{consumergroup=trace-token-events-consumer},1651274838,0
{consumergroup=trace-token-events-consumer},1651274843,0
{consumergroup=trace-token-events-consumer},1651274848,0
{consumergroup=trace-token-events-consumer},1651274853,0
{consumergroup=trace-token-events-consumer},1651274858,0
{consumergroup=trace-token-events-consumer},1651274863,0
{consumergroup=trace-token-events-consumer},1651274868,0
{consumergroup=trace-token-events-consumer},1651274873,0
{consumergroup=trace-token-events-consumer},1651274878,0
{consumergroup=trace-token-events-consumer},1651274883,0
{consumergroup=trace-token-events-consumer},1651274888,0
{consumergroup=trace-token-events-consumer},1651274893,0
{consumergroup=trace-token-events-consumer},1651274898,0
{consumergroup=trace-token-events-consumer},1651274903,0
{consumergroup=trace-token-events-consumer},1651274908,0
{consumergroup=trace-token-events-consumer},1651274913,0
{consumergroup=trace-token-events-consumer},1651274918,0
{consumergroup=trace-token-events-consumer},1651274923,0
{consumergroup=trace-token-events-consumer},1651274928,0
{consumergroup=trace-token-events-consumer},1651274933,0
{consumergroup=trace-token-events-consumer},1651274938,0
{consumergroup=trace-token-events-consumer},1651274943,0
{consumergroup=trace-token-events-consumer},1651274948,0
{consumergroup=trace-token-events-consumer},1651274953,0
{consumergroup=trace-token-events-consumer},1651274958,0
{consumergroup=trace-token-events-consumer},1651274963,0
{consumergroup=trace-token-events-consumer},1651274968,0
{consumergroup=trace-token-events-consumer},1651274973,0
{consumergroup=trace-token-events-consumer},1651274978,0
{consumergroup=trace-token-events-consumer},1651274983,0
{consumergroup=trace-token-events-consumer},1651274988,0
{consumergroup=trace-token-events-consumer},1651274993,0
{consumergroup=trace-token-events-consumer},1651274998,0
{consumergroup=trace-token-events-consumer},1651275003,0
{consumergroup=trace-token-events-consumer},1651275008,0
{consumergroup=trace-token-events-consumer},1651275013,0
{consumergroup=trace-token-events-consumer},1651275018,0
{consumergroup=trace-token-events-consumer},1651275023,0
{consumergroup=trace-token-events-consumer},1651275028,0
{consumergroup=trace-token-events-consumer},1651275033,0
{consumergroup=trace-token-events-consumer},1651275038,0
{consumergroup=trace-token-events-consumer},1651275043,0
{consumergroup=trace-token-events-consumer},1651275048,0
{consumergroup=trace-token-events-consumer},1651275053,0
{consumergroup=trace-token-events-consumer},1651275058,0
{consumergroup=trace-token-events-consumer},1651275063,0
{consumergroup=trace-token-events-consumer},1651275068,0
{consumergroup=trace-token-events-consumer},1651275073,0
{consumergroup=trace-token-events-consumer},1651275078,0
{consumergroup=trace-token-events-consumer},1651275083,0
{consumergroup=trace-token-events-consumer},1651275088,0
{consumergroup=trace-token-events-consumer},1651275093,0
{consumergroup=trace-token-events-consumer},1651275098,0
{consumergroup=trace-token-events-consumer},1651275103,0
{consumergroup=trace-token-events-consumer},1651275108,0
{consumergroup=trace-token-events-consumer},1651275113,0
{consumergroup=trace-token-events-consumer},1651275118,0
{consumergroup=trace-token-events-consumer},1651275123,0
{consumergroup=trace-token-events-consumer},1651275128,0
{consumergroup=trace-token-events-consumer},1651275133,0
{consumergroup=trace-token-events-consumer},1651275138,0
{consumergroup=trace-token-events-consumer},1651275143,0
{consumergroup=trace-token-events-consumer},1651275148,0
{consumergroup=trace-token-events-consumer},1651275153,0
{consumergroup=trace-token-events-consumer},1651275158,0
{consumergroup=trace-token-events-consumer},1651275163,0
{consumergroup=trace-token-events-consumer},1651275168,0
{consumergroup=trace-token-events-consumer},1651275173,0
