labels,timestamp,value
{job=theodolite-stu200776/combined-trace-podmonitor},1651280857,0
{job=theodolite-stu200776/combined-trace-podmonitor},1651280862,0
{job=theodolite-stu200776/combined-trace-podmonitor},1651280867,0
{job=theodolite-stu200776/combined-trace-podmonitor},1651280872,0
{job=theodolite-stu200776/combined-trace-podmonitor},1651280877,0
{job=theodolite-stu200776/combined-trace-podmonitor},1651280882,0
{job=theodolite-stu200776/combined-trace-podmonitor},1651280887,0
{job=theodolite-stu200776/combined-trace-podmonitor},1651280892,0
{job=theodolite-stu200776/combined-trace-podmonitor},1651280897,0
{job=theodolite-stu200776/combined-trace-podmonitor},1651280902,0
{job=theodolite-stu200776/combined-trace-podmonitor},1651280907,0
{job=theodolite-stu200776/combined-trace-podmonitor},1651280912,0
{job=theodolite-stu200776/combined-trace-podmonitor},1651280917,0
{job=theodolite-stu200776/combined-trace-podmonitor},1651280922,0
{job=theodolite-stu200776/combined-trace-podmonitor},1651280927,0
{job=theodolite-stu200776/combined-trace-podmonitor},1651280932,0
{job=theodolite-stu200776/combined-trace-podmonitor},1651280937,0
{job=theodolite-stu200776/combined-trace-podmonitor},1651280942,0
{job=theodolite-stu200776/combined-trace-podmonitor},1651280947,0
{job=theodolite-stu200776/combined-trace-podmonitor},1651280952,0
{job=theodolite-stu200776/combined-trace-podmonitor},1651280957,0
{job=theodolite-stu200776/combined-trace-podmonitor},1651280962,0
{job=theodolite-stu200776/combined-trace-podmonitor},1651280967,0
{job=theodolite-stu200776/combined-trace-podmonitor},1651280972,0
{job=theodolite-stu200776/combined-trace-podmonitor},1651280977,0
{job=theodolite-stu200776/combined-trace-podmonitor},1651280982,0
{job=theodolite-stu200776/combined-trace-podmonitor},1651280987,0
{job=theodolite-stu200776/combined-trace-podmonitor},1651280992,0
{job=theodolite-stu200776/combined-trace-podmonitor},1651280997,0
{job=theodolite-stu200776/combined-trace-podmonitor},1651281002,0
{job=theodolite-stu200776/combined-trace-podmonitor},1651281007,0
{job=theodolite-stu200776/combined-trace-podmonitor},1651281012,0
{job=theodolite-stu200776/combined-trace-podmonitor},1651281017,0
{job=theodolite-stu200776/combined-trace-podmonitor},1651281022,0
{job=theodolite-stu200776/combined-trace-podmonitor},1651281027,0
{job=theodolite-stu200776/combined-trace-podmonitor},1651281032,0
{job=theodolite-stu200776/combined-trace-podmonitor},1651281037,0
{job=theodolite-stu200776/combined-trace-podmonitor},1651281042,0
{job=theodolite-stu200776/combined-trace-podmonitor},1651281047,0
{job=theodolite-stu200776/combined-trace-podmonitor},1651281052,0
{job=theodolite-stu200776/combined-trace-podmonitor},1651281057,0
{job=theodolite-stu200776/combined-trace-podmonitor},1651281062,0
{job=theodolite-stu200776/combined-trace-podmonitor},1651281067,0
{job=theodolite-stu200776/combined-trace-podmonitor},1651281072,0
{job=theodolite-stu200776/combined-trace-podmonitor},1651281077,0
{job=theodolite-stu200776/combined-trace-podmonitor},1651281082,0
{job=theodolite-stu200776/combined-trace-podmonitor},1651281087,0
{job=theodolite-stu200776/combined-trace-podmonitor},1651281092,0
{job=theodolite-stu200776/combined-trace-podmonitor},1651281097,0
{job=theodolite-stu200776/combined-trace-podmonitor},1651281102,0
{job=theodolite-stu200776/combined-trace-podmonitor},1651281107,0
{job=theodolite-stu200776/combined-trace-podmonitor},1651281112,0
{job=theodolite-stu200776/combined-trace-podmonitor},1651281117,0
{job=theodolite-stu200776/combined-trace-podmonitor},1651281122,0
{job=theodolite-stu200776/combined-trace-podmonitor},1651281127,0
{job=theodolite-stu200776/combined-trace-podmonitor},1651281132,0
{job=theodolite-stu200776/combined-trace-podmonitor},1651281137,0
{job=theodolite-stu200776/combined-trace-podmonitor},1651281142,0
{job=theodolite-stu200776/combined-trace-podmonitor},1651281147,0
{job=theodolite-stu200776/combined-trace-podmonitor},1651281152,0
{job=theodolite-stu200776/combined-trace-podmonitor},1651281157,0
{job=theodolite-stu200776/combined-trace-podmonitor},1651281162,0
{job=theodolite-stu200776/combined-trace-podmonitor},1651281167,0
{job=theodolite-stu200776/combined-trace-podmonitor},1651281172,0
{job=theodolite-stu200776/combined-trace-podmonitor},1651281177,0
{job=theodolite-stu200776/combined-trace-podmonitor},1651281182,0
{job=theodolite-stu200776/combined-trace-podmonitor},1651281187,0
{job=theodolite-stu200776/combined-trace-podmonitor},1651281192,0
{job=theodolite-stu200776/combined-trace-podmonitor},1651281197,0
{job=theodolite-stu200776/combined-trace-podmonitor},1651281202,0
{job=theodolite-stu200776/combined-trace-podmonitor},1651281207,0
{job=theodolite-stu200776/combined-trace-podmonitor},1651281212,0
{job=theodolite-stu200776/combined-trace-podmonitor},1651281217,0
{job=theodolite-stu200776/combined-trace-podmonitor},1651281222,0
{job=theodolite-stu200776/combined-trace-podmonitor},1651281227,0
{job=theodolite-stu200776/combined-trace-podmonitor},1651281232,0
{job=theodolite-stu200776/combined-trace-podmonitor},1651281237,0
{job=theodolite-stu200776/combined-trace-podmonitor},1651281242,0
{job=theodolite-stu200776/combined-trace-podmonitor},1651281247,0
{job=theodolite-stu200776/combined-trace-podmonitor},1651281252,0
{job=theodolite-stu200776/combined-trace-podmonitor},1651281257,0
{job=theodolite-stu200776/combined-trace-podmonitor},1651281262,0
{job=theodolite-stu200776/combined-trace-podmonitor},1651281267,0
{job=theodolite-stu200776/combined-trace-podmonitor},1651281272,0
{job=theodolite-stu200776/combined-trace-podmonitor},1651281277,0
{job=theodolite-stu200776/combined-trace-podmonitor},1651281282,0
{job=theodolite-stu200776/combined-trace-podmonitor},1651281287,0
{job=theodolite-stu200776/combined-trace-podmonitor},1651281292,0
