labels,timestamp,value
{job=theodolite-stu200776/combined-trace-podmonitor},1651311023,0
{job=theodolite-stu200776/combined-trace-podmonitor},1651311028,0
{job=theodolite-stu200776/combined-trace-podmonitor},1651311033,0
{job=theodolite-stu200776/combined-trace-podmonitor},1651311038,0
{job=theodolite-stu200776/combined-trace-podmonitor},1651311043,0
{job=theodolite-stu200776/combined-trace-podmonitor},1651311048,0
{job=theodolite-stu200776/combined-trace-podmonitor},1651311053,0
{job=theodolite-stu200776/combined-trace-podmonitor},1651311058,0
{job=theodolite-stu200776/combined-trace-podmonitor},1651311063,0
{job=theodolite-stu200776/combined-trace-podmonitor},1651311068,0
{job=theodolite-stu200776/combined-trace-podmonitor},1651311073,0
{job=theodolite-stu200776/combined-trace-podmonitor},1651311078,0
{job=theodolite-stu200776/combined-trace-podmonitor},1651311083,0
{job=theodolite-stu200776/combined-trace-podmonitor},1651311088,0
{job=theodolite-stu200776/combined-trace-podmonitor},1651311093,0
{job=theodolite-stu200776/combined-trace-podmonitor},1651311098,0
{job=theodolite-stu200776/combined-trace-podmonitor},1651311103,0
{job=theodolite-stu200776/combined-trace-podmonitor},1651311108,0
{job=theodolite-stu200776/combined-trace-podmonitor},1651311113,0
{job=theodolite-stu200776/combined-trace-podmonitor},1651311118,0
{job=theodolite-stu200776/combined-trace-podmonitor},1651311123,0
{job=theodolite-stu200776/combined-trace-podmonitor},1651311128,0
{job=theodolite-stu200776/combined-trace-podmonitor},1651311133,0
{job=theodolite-stu200776/combined-trace-podmonitor},1651311138,0
{job=theodolite-stu200776/combined-trace-podmonitor},1651311143,0
{job=theodolite-stu200776/combined-trace-podmonitor},1651311148,0
{job=theodolite-stu200776/combined-trace-podmonitor},1651311153,0
{job=theodolite-stu200776/combined-trace-podmonitor},1651311158,0
{job=theodolite-stu200776/combined-trace-podmonitor},1651311163,0
{job=theodolite-stu200776/combined-trace-podmonitor},1651311168,0
{job=theodolite-stu200776/combined-trace-podmonitor},1651311173,0
{job=theodolite-stu200776/combined-trace-podmonitor},1651311178,0
{job=theodolite-stu200776/combined-trace-podmonitor},1651311183,0
{job=theodolite-stu200776/combined-trace-podmonitor},1651311188,0
{job=theodolite-stu200776/combined-trace-podmonitor},1651311193,0
{job=theodolite-stu200776/combined-trace-podmonitor},1651311198,0
{job=theodolite-stu200776/combined-trace-podmonitor},1651311203,0
{job=theodolite-stu200776/combined-trace-podmonitor},1651311208,0
{job=theodolite-stu200776/combined-trace-podmonitor},1651311213,0
{job=theodolite-stu200776/combined-trace-podmonitor},1651311218,0
{job=theodolite-stu200776/combined-trace-podmonitor},1651311223,0
{job=theodolite-stu200776/combined-trace-podmonitor},1651311228,0
{job=theodolite-stu200776/combined-trace-podmonitor},1651311233,0
{job=theodolite-stu200776/combined-trace-podmonitor},1651311238,0
{job=theodolite-stu200776/combined-trace-podmonitor},1651311243,0
{job=theodolite-stu200776/combined-trace-podmonitor},1651311248,0
{job=theodolite-stu200776/combined-trace-podmonitor},1651311253,0
{job=theodolite-stu200776/combined-trace-podmonitor},1651311258,0
{job=theodolite-stu200776/combined-trace-podmonitor},1651311263,0
{job=theodolite-stu200776/combined-trace-podmonitor},1651311268,0
{job=theodolite-stu200776/combined-trace-podmonitor},1651311273,0
{job=theodolite-stu200776/combined-trace-podmonitor},1651311278,0
{job=theodolite-stu200776/combined-trace-podmonitor},1651311283,0
{job=theodolite-stu200776/combined-trace-podmonitor},1651311288,0
{job=theodolite-stu200776/combined-trace-podmonitor},1651311293,0
{job=theodolite-stu200776/combined-trace-podmonitor},1651311298,0
{job=theodolite-stu200776/combined-trace-podmonitor},1651311303,0
{job=theodolite-stu200776/combined-trace-podmonitor},1651311308,0
{job=theodolite-stu200776/combined-trace-podmonitor},1651311313,0
{job=theodolite-stu200776/combined-trace-podmonitor},1651311318,0
{job=theodolite-stu200776/combined-trace-podmonitor},1651311323,0
{job=theodolite-stu200776/combined-trace-podmonitor},1651311328,0
{job=theodolite-stu200776/combined-trace-podmonitor},1651311333,0
{job=theodolite-stu200776/combined-trace-podmonitor},1651311338,0
{job=theodolite-stu200776/combined-trace-podmonitor},1651311343,0
{job=theodolite-stu200776/combined-trace-podmonitor},1651311348,0
{job=theodolite-stu200776/combined-trace-podmonitor},1651311353,0
{job=theodolite-stu200776/combined-trace-podmonitor},1651311358,0
{job=theodolite-stu200776/combined-trace-podmonitor},1651311363,0
{job=theodolite-stu200776/combined-trace-podmonitor},1651311368,0
{job=theodolite-stu200776/combined-trace-podmonitor},1651311373,0
{job=theodolite-stu200776/combined-trace-podmonitor},1651311378,0
{job=theodolite-stu200776/combined-trace-podmonitor},1651311383,0
{job=theodolite-stu200776/combined-trace-podmonitor},1651311388,0
{job=theodolite-stu200776/combined-trace-podmonitor},1651311393,0
{job=theodolite-stu200776/combined-trace-podmonitor},1651311398,0
{job=theodolite-stu200776/combined-trace-podmonitor},1651311403,0
{job=theodolite-stu200776/combined-trace-podmonitor},1651311408,0
{job=theodolite-stu200776/combined-trace-podmonitor},1651311413,0
{job=theodolite-stu200776/combined-trace-podmonitor},1651311418,0
{job=theodolite-stu200776/combined-trace-podmonitor},1651311423,0
{job=theodolite-stu200776/combined-trace-podmonitor},1651311428,0
{job=theodolite-stu200776/combined-trace-podmonitor},1651311433,0
{job=theodolite-stu200776/combined-trace-podmonitor},1651311438,0
{job=theodolite-stu200776/combined-trace-podmonitor},1651311443,0
{job=theodolite-stu200776/combined-trace-podmonitor},1651311448,0
{job=theodolite-stu200776/combined-trace-podmonitor},1651311453,0
{job=theodolite-stu200776/combined-trace-podmonitor},1651311458,0
{job=theodolite-stu200776/combined-trace-podmonitor},1651311463,0
