labels,timestamp,value
{job=theodolite-stu200776/combined-trace-podmonitor},1651276550,11.295727517144364
{job=theodolite-stu200776/combined-trace-podmonitor},1651276555,20.72343197079909
{job=theodolite-stu200776/combined-trace-podmonitor},1651276560,25.63049054613926
{job=theodolite-stu200776/combined-trace-podmonitor},1651276565,24.060423058052613
{job=theodolite-stu200776/combined-trace-podmonitor},1651276570,33.88243912127064
{job=theodolite-stu200776/combined-trace-podmonitor},1651276575,37.87968513557232
{job=theodolite-stu200776/combined-trace-podmonitor},1651276580,31.87281766997608
{job=theodolite-stu200776/combined-trace-podmonitor},1651276585,29.48785680127301
{job=theodolite-stu200776/combined-trace-podmonitor},1651276590,25.6925865724451
{job=theodolite-stu200776/combined-trace-podmonitor},1651276595,24.08034908110554
{job=theodolite-stu200776/combined-trace-podmonitor},1651276600,7.977017594754509
{job=theodolite-stu200776/combined-trace-podmonitor},1651276605,0.1720091923599974
{job=theodolite-stu200776/combined-trace-podmonitor},1651276610,0.06972709725801396
{job=theodolite-stu200776/combined-trace-podmonitor},1651276615,0.01705087982539899
{job=theodolite-stu200776/combined-trace-podmonitor},1651276620,0
{job=theodolite-stu200776/combined-trace-podmonitor},1651276625,0
{job=theodolite-stu200776/combined-trace-podmonitor},1651276630,0
{job=theodolite-stu200776/combined-trace-podmonitor},1651276635,0
{job=theodolite-stu200776/combined-trace-podmonitor},1651276640,0
{job=theodolite-stu200776/combined-trace-podmonitor},1651276645,0
{job=theodolite-stu200776/combined-trace-podmonitor},1651276650,0
{job=theodolite-stu200776/combined-trace-podmonitor},1651276655,0
{job=theodolite-stu200776/combined-trace-podmonitor},1651276660,0
{job=theodolite-stu200776/combined-trace-podmonitor},1651276665,0
{job=theodolite-stu200776/combined-trace-podmonitor},1651276670,0
{job=theodolite-stu200776/combined-trace-podmonitor},1651276675,0
{job=theodolite-stu200776/combined-trace-podmonitor},1651276680,0
{job=theodolite-stu200776/combined-trace-podmonitor},1651276685,0
{job=theodolite-stu200776/combined-trace-podmonitor},1651276690,0
{job=theodolite-stu200776/combined-trace-podmonitor},1651276695,0
{job=theodolite-stu200776/combined-trace-podmonitor},1651276700,0
{job=theodolite-stu200776/combined-trace-podmonitor},1651276705,0
{job=theodolite-stu200776/combined-trace-podmonitor},1651276710,0
{job=theodolite-stu200776/combined-trace-podmonitor},1651276715,0
{job=theodolite-stu200776/combined-trace-podmonitor},1651276720,0
{job=theodolite-stu200776/combined-trace-podmonitor},1651276725,0
{job=theodolite-stu200776/combined-trace-podmonitor},1651276730,0
{job=theodolite-stu200776/combined-trace-podmonitor},1651276735,0
{job=theodolite-stu200776/combined-trace-podmonitor},1651276740,0
{job=theodolite-stu200776/combined-trace-podmonitor},1651276745,0
{job=theodolite-stu200776/combined-trace-podmonitor},1651276750,0
{job=theodolite-stu200776/combined-trace-podmonitor},1651276755,0
{job=theodolite-stu200776/combined-trace-podmonitor},1651276760,0
{job=theodolite-stu200776/combined-trace-podmonitor},1651276765,0
{job=theodolite-stu200776/combined-trace-podmonitor},1651276770,0
{job=theodolite-stu200776/combined-trace-podmonitor},1651276775,0
{job=theodolite-stu200776/combined-trace-podmonitor},1651276780,0
{job=theodolite-stu200776/combined-trace-podmonitor},1651276785,0
{job=theodolite-stu200776/combined-trace-podmonitor},1651276790,0
{job=theodolite-stu200776/combined-trace-podmonitor},1651276795,0
{job=theodolite-stu200776/combined-trace-podmonitor},1651276800,0
{job=theodolite-stu200776/combined-trace-podmonitor},1651276805,0
{job=theodolite-stu200776/combined-trace-podmonitor},1651276810,0
{job=theodolite-stu200776/combined-trace-podmonitor},1651276815,0
{job=theodolite-stu200776/combined-trace-podmonitor},1651276820,0
{job=theodolite-stu200776/combined-trace-podmonitor},1651276825,0
{job=theodolite-stu200776/combined-trace-podmonitor},1651276830,0
{job=theodolite-stu200776/combined-trace-podmonitor},1651276835,0
{job=theodolite-stu200776/combined-trace-podmonitor},1651276840,0
{job=theodolite-stu200776/combined-trace-podmonitor},1651276845,0
{job=theodolite-stu200776/combined-trace-podmonitor},1651276850,0
{job=theodolite-stu200776/combined-trace-podmonitor},1651276855,0
{job=theodolite-stu200776/combined-trace-podmonitor},1651276860,0
{job=theodolite-stu200776/combined-trace-podmonitor},1651276865,0
{job=theodolite-stu200776/combined-trace-podmonitor},1651276870,0
{job=theodolite-stu200776/combined-trace-podmonitor},1651276875,0
{job=theodolite-stu200776/combined-trace-podmonitor},1651276880,0
{job=theodolite-stu200776/combined-trace-podmonitor},1651276885,0
{job=theodolite-stu200776/combined-trace-podmonitor},1651276890,0
{job=theodolite-stu200776/combined-trace-podmonitor},1651276895,0
{job=theodolite-stu200776/combined-trace-podmonitor},1651276900,0
{job=theodolite-stu200776/combined-trace-podmonitor},1651276905,0
{job=theodolite-stu200776/combined-trace-podmonitor},1651276910,0
{job=theodolite-stu200776/combined-trace-podmonitor},1651276915,0
{job=theodolite-stu200776/combined-trace-podmonitor},1651276920,0
{job=theodolite-stu200776/combined-trace-podmonitor},1651276925,0
{job=theodolite-stu200776/combined-trace-podmonitor},1651276930,0
{job=theodolite-stu200776/combined-trace-podmonitor},1651276935,0
{job=theodolite-stu200776/combined-trace-podmonitor},1651276940,0
{job=theodolite-stu200776/combined-trace-podmonitor},1651276945,0
{job=theodolite-stu200776/combined-trace-podmonitor},1651276950,0
{job=theodolite-stu200776/combined-trace-podmonitor},1651276955,0
{job=theodolite-stu200776/combined-trace-podmonitor},1651276960,0
{job=theodolite-stu200776/combined-trace-podmonitor},1651276965,0
{job=theodolite-stu200776/combined-trace-podmonitor},1651276970,0
{job=theodolite-stu200776/combined-trace-podmonitor},1651276975,0
{job=theodolite-stu200776/combined-trace-podmonitor},1651276980,0
{job=theodolite-stu200776/combined-trace-podmonitor},1651276985,0
{job=theodolite-stu200776/combined-trace-podmonitor},1651276990,0
