labels,timestamp,value
{consumergroup=__strimzi-topic-operator-kstreams},1651367966,18
{consumergroup=__strimzi-topic-operator-kstreams},1651367971,18
{consumergroup=__strimzi-topic-operator-kstreams},1651367976,18
{consumergroup=__strimzi-topic-operator-kstreams},1651367981,18
{consumergroup=__strimzi-topic-operator-kstreams},1651367986,18
{consumergroup=__strimzi-topic-operator-kstreams},1651367991,18
{consumergroup=__strimzi-topic-operator-kstreams},1651367996,0
{consumergroup=__strimzi-topic-operator-kstreams},1651368001,0
{consumergroup=__strimzi-topic-operator-kstreams},1651368006,0
{consumergroup=__strimzi-topic-operator-kstreams},1651368011,0
{consumergroup=__strimzi-topic-operator-kstreams},1651368016,0
{consumergroup=__strimzi-topic-operator-kstreams},1651368021,0
{consumergroup=__strimzi-topic-operator-kstreams},1651368026,0
{consumergroup=__strimzi-topic-operator-kstreams},1651368031,0
{consumergroup=__strimzi-topic-operator-kstreams},1651368036,0
{consumergroup=__strimzi-topic-operator-kstreams},1651368041,0
{consumergroup=__strimzi-topic-operator-kstreams},1651368046,0
{consumergroup=__strimzi-topic-operator-kstreams},1651368051,0
{consumergroup=__strimzi-topic-operator-kstreams},1651368056,0
{consumergroup=__strimzi-topic-operator-kstreams},1651368061,0
{consumergroup=__strimzi-topic-operator-kstreams},1651368066,0
{consumergroup=__strimzi-topic-operator-kstreams},1651368071,0
{consumergroup=__strimzi-topic-operator-kstreams},1651368076,0
{consumergroup=__strimzi-topic-operator-kstreams},1651368081,0
{consumergroup=__strimzi-topic-operator-kstreams},1651368086,0
{consumergroup=__strimzi-topic-operator-kstreams},1651368091,0
{consumergroup=__strimzi-topic-operator-kstreams},1651368096,0
{consumergroup=__strimzi-topic-operator-kstreams},1651368101,0
{consumergroup=__strimzi-topic-operator-kstreams},1651368106,0
{consumergroup=__strimzi-topic-operator-kstreams},1651368111,0
{consumergroup=__strimzi-topic-operator-kstreams},1651368116,0
{consumergroup=__strimzi-topic-operator-kstreams},1651368121,0
{consumergroup=__strimzi-topic-operator-kstreams},1651368126,0
{consumergroup=__strimzi-topic-operator-kstreams},1651368131,0
{consumergroup=__strimzi-topic-operator-kstreams},1651368136,0
{consumergroup=__strimzi-topic-operator-kstreams},1651368141,0
{consumergroup=__strimzi-topic-operator-kstreams},1651368146,0
{consumergroup=__strimzi-topic-operator-kstreams},1651368151,0
{consumergroup=__strimzi-topic-operator-kstreams},1651368156,0
{consumergroup=__strimzi-topic-operator-kstreams},1651368161,0
{consumergroup=__strimzi-topic-operator-kstreams},1651368166,0
{consumergroup=__strimzi-topic-operator-kstreams},1651368171,0
{consumergroup=__strimzi-topic-operator-kstreams},1651368176,0
{consumergroup=__strimzi-topic-operator-kstreams},1651368181,0
{consumergroup=__strimzi-topic-operator-kstreams},1651368186,0
{consumergroup=__strimzi-topic-operator-kstreams},1651368191,0
{consumergroup=__strimzi-topic-operator-kstreams},1651368196,0
{consumergroup=__strimzi-topic-operator-kstreams},1651368201,0
{consumergroup=__strimzi-topic-operator-kstreams},1651368206,0
{consumergroup=__strimzi-topic-operator-kstreams},1651368211,0
{consumergroup=adapter-service},1651367996,414678
{consumergroup=adapter-service},1651368001,414678
{consumergroup=adapter-service},1651368006,414678
{consumergroup=adapter-service},1651368011,1122098
{consumergroup=adapter-service},1651368016,1122098
{consumergroup=adapter-service},1651368021,1122098
{consumergroup=adapter-service},1651368026,988822
{consumergroup=adapter-service},1651368031,988822
{consumergroup=adapter-service},1651368036,988822
{consumergroup=adapter-service},1651368041,1049043
{consumergroup=adapter-service},1651368046,1049043
{consumergroup=adapter-service},1651368051,1049043
{consumergroup=adapter-service},1651368056,1258158
{consumergroup=adapter-service},1651368061,1258158
{consumergroup=adapter-service},1651368066,1258158
{consumergroup=adapter-service},1651368071,874504
{consumergroup=adapter-service},1651368076,874504
{consumergroup=adapter-service},1651368081,874504
{consumergroup=adapter-service},1651368086,948053
{consumergroup=adapter-service},1651368091,948053
{consumergroup=adapter-service},1651368096,948053
{consumergroup=adapter-service},1651368101,967328
{consumergroup=adapter-service},1651368106,967328
{consumergroup=adapter-service},1651368111,967328
{consumergroup=adapter-service},1651368116,1077210
{consumergroup=adapter-service},1651368121,1077210
{consumergroup=adapter-service},1651368126,1077210
{consumergroup=adapter-service},1651368131,1164985
{consumergroup=adapter-service},1651368136,1164985
{consumergroup=adapter-service},1651368141,1164985
{consumergroup=adapter-service},1651368146,1456460
{consumergroup=adapter-service},1651368151,1456460
{consumergroup=adapter-service},1651368156,1456460
{consumergroup=adapter-service},1651368161,1525836
{consumergroup=adapter-service},1651368166,1525836
{consumergroup=adapter-service},1651368171,1525836
{consumergroup=adapter-service},1651368176,1482009
{consumergroup=adapter-service},1651368181,1482009
{consumergroup=adapter-service},1651368186,1482009
{consumergroup=adapter-service},1651368191,1730545
{consumergroup=adapter-service},1651368196,1730545
{consumergroup=adapter-service},1651368201,1730545
{consumergroup=adapter-service},1651368206,1723578
{consumergroup=adapter-service},1651368211,1723578
