labels,timestamp,value
{consumergroup=__strimzi-topic-operator-kstreams},1651407354,18
{consumergroup=__strimzi-topic-operator-kstreams},1651407359,18
{consumergroup=__strimzi-topic-operator-kstreams},1651407364,18
{consumergroup=__strimzi-topic-operator-kstreams},1651407369,0
{consumergroup=__strimzi-topic-operator-kstreams},1651407374,0
{consumergroup=__strimzi-topic-operator-kstreams},1651407379,0
{consumergroup=__strimzi-topic-operator-kstreams},1651407384,0
{consumergroup=__strimzi-topic-operator-kstreams},1651407389,0
{consumergroup=__strimzi-topic-operator-kstreams},1651407394,0
{consumergroup=__strimzi-topic-operator-kstreams},1651407399,0
{consumergroup=__strimzi-topic-operator-kstreams},1651407404,0
{consumergroup=__strimzi-topic-operator-kstreams},1651407409,0
{consumergroup=__strimzi-topic-operator-kstreams},1651407414,0
{consumergroup=__strimzi-topic-operator-kstreams},1651407419,0
{consumergroup=__strimzi-topic-operator-kstreams},1651407424,0
{consumergroup=__strimzi-topic-operator-kstreams},1651407429,0
{consumergroup=__strimzi-topic-operator-kstreams},1651407434,0
{consumergroup=__strimzi-topic-operator-kstreams},1651407439,0
{consumergroup=__strimzi-topic-operator-kstreams},1651407444,0
{consumergroup=__strimzi-topic-operator-kstreams},1651407449,0
{consumergroup=__strimzi-topic-operator-kstreams},1651407454,0
{consumergroup=__strimzi-topic-operator-kstreams},1651407459,0
{consumergroup=__strimzi-topic-operator-kstreams},1651407464,0
{consumergroup=__strimzi-topic-operator-kstreams},1651407469,0
{consumergroup=__strimzi-topic-operator-kstreams},1651407474,0
{consumergroup=__strimzi-topic-operator-kstreams},1651407479,0
{consumergroup=__strimzi-topic-operator-kstreams},1651407484,0
{consumergroup=__strimzi-topic-operator-kstreams},1651407489,0
{consumergroup=__strimzi-topic-operator-kstreams},1651407494,0
{consumergroup=__strimzi-topic-operator-kstreams},1651407499,0
{consumergroup=__strimzi-topic-operator-kstreams},1651407504,0
{consumergroup=__strimzi-topic-operator-kstreams},1651407509,0
{consumergroup=__strimzi-topic-operator-kstreams},1651407514,0
{consumergroup=__strimzi-topic-operator-kstreams},1651407519,0
{consumergroup=__strimzi-topic-operator-kstreams},1651407524,0
{consumergroup=__strimzi-topic-operator-kstreams},1651407529,0
{consumergroup=__strimzi-topic-operator-kstreams},1651407534,0
{consumergroup=__strimzi-topic-operator-kstreams},1651407539,0
{consumergroup=__strimzi-topic-operator-kstreams},1651407544,0
{consumergroup=__strimzi-topic-operator-kstreams},1651407549,0
{consumergroup=__strimzi-topic-operator-kstreams},1651407554,0
{consumergroup=__strimzi-topic-operator-kstreams},1651407559,0
{consumergroup=__strimzi-topic-operator-kstreams},1651407564,0
{consumergroup=__strimzi-topic-operator-kstreams},1651407569,0
{consumergroup=__strimzi-topic-operator-kstreams},1651407574,0
{consumergroup=__strimzi-topic-operator-kstreams},1651407579,0
{consumergroup=__strimzi-topic-operator-kstreams},1651407584,0
{consumergroup=__strimzi-topic-operator-kstreams},1651407589,0
{consumergroup=__strimzi-topic-operator-kstreams},1651407594,0
{consumergroup=__strimzi-topic-operator-kstreams},1651407599,0
{consumergroup=__strimzi-topic-operator-kstreams},1651407604,0
{consumergroup=__strimzi-topic-operator-kstreams},1651407609,0
{consumergroup=adapter-service},1651407384,98860
{consumergroup=adapter-service},1651407389,98860
{consumergroup=adapter-service},1651407394,98860
{consumergroup=adapter-service},1651407399,255084
{consumergroup=adapter-service},1651407404,255084
{consumergroup=adapter-service},1651407409,255084
{consumergroup=adapter-service},1651407414,260082
{consumergroup=adapter-service},1651407419,260082
{consumergroup=adapter-service},1651407424,260082
{consumergroup=adapter-service},1651407429,266311
{consumergroup=adapter-service},1651407434,266311
{consumergroup=adapter-service},1651407439,266311
{consumergroup=adapter-service},1651407444,270544
{consumergroup=adapter-service},1651407449,270544
{consumergroup=adapter-service},1651407454,270544
{consumergroup=adapter-service},1651407459,235737
{consumergroup=adapter-service},1651407464,235737
{consumergroup=adapter-service},1651407469,235737
{consumergroup=adapter-service},1651407474,298129
{consumergroup=adapter-service},1651407479,298129
{consumergroup=adapter-service},1651407484,298129
{consumergroup=adapter-service},1651407489,306774
{consumergroup=adapter-service},1651407494,306774
{consumergroup=adapter-service},1651407499,306774
{consumergroup=adapter-service},1651407504,315680
{consumergroup=adapter-service},1651407509,315680
{consumergroup=adapter-service},1651407514,315680
{consumergroup=adapter-service},1651407519,330954
{consumergroup=adapter-service},1651407524,330954
{consumergroup=adapter-service},1651407529,330954
{consumergroup=adapter-service},1651407534,376701
{consumergroup=adapter-service},1651407539,376701
{consumergroup=adapter-service},1651407544,376701
{consumergroup=adapter-service},1651407549,416822
{consumergroup=adapter-service},1651407554,416822
{consumergroup=adapter-service},1651407559,416822
{consumergroup=adapter-service},1651407564,373320
{consumergroup=adapter-service},1651407569,373320
{consumergroup=adapter-service},1651407574,373320
{consumergroup=adapter-service},1651407579,383446
{consumergroup=adapter-service},1651407584,383446
{consumergroup=adapter-service},1651407589,383446
{consumergroup=adapter-service},1651407594,395636
{consumergroup=adapter-service},1651407599,395636
{consumergroup=adapter-service},1651407604,395636
{consumergroup=adapter-service},1651407609,422182
