labels,timestamp,value
{consumergroup=__strimzi-topic-operator-kstreams},1651278308,3
{consumergroup=__strimzi-topic-operator-kstreams},1651278313,3
{consumergroup=__strimzi-topic-operator-kstreams},1651278318,3
{consumergroup=__strimzi-topic-operator-kstreams},1651278323,8
{consumergroup=__strimzi-topic-operator-kstreams},1651278328,8
{consumergroup=__strimzi-topic-operator-kstreams},1651278333,8
{consumergroup=__strimzi-topic-operator-kstreams},1651278338,0
{consumergroup=__strimzi-topic-operator-kstreams},1651278343,0
{consumergroup=__strimzi-topic-operator-kstreams},1651278348,0
{consumergroup=__strimzi-topic-operator-kstreams},1651278353,0
{consumergroup=__strimzi-topic-operator-kstreams},1651278358,0
{consumergroup=__strimzi-topic-operator-kstreams},1651278363,0
{consumergroup=__strimzi-topic-operator-kstreams},1651278368,0
{consumergroup=__strimzi-topic-operator-kstreams},1651278373,0
{consumergroup=__strimzi-topic-operator-kstreams},1651278378,0
{consumergroup=__strimzi-topic-operator-kstreams},1651278383,0
{consumergroup=__strimzi-topic-operator-kstreams},1651278388,0
{consumergroup=__strimzi-topic-operator-kstreams},1651278393,0
{consumergroup=__strimzi-topic-operator-kstreams},1651278398,0
{consumergroup=__strimzi-topic-operator-kstreams},1651278403,0
{consumergroup=__strimzi-topic-operator-kstreams},1651278408,0
{consumergroup=__strimzi-topic-operator-kstreams},1651278413,0
{consumergroup=__strimzi-topic-operator-kstreams},1651278418,0
{consumergroup=__strimzi-topic-operator-kstreams},1651278423,0
{consumergroup=__strimzi-topic-operator-kstreams},1651278428,0
{consumergroup=__strimzi-topic-operator-kstreams},1651278433,0
{consumergroup=__strimzi-topic-operator-kstreams},1651278438,0
{consumergroup=__strimzi-topic-operator-kstreams},1651278443,0
{consumergroup=__strimzi-topic-operator-kstreams},1651278448,0
{consumergroup=__strimzi-topic-operator-kstreams},1651278453,0
{consumergroup=__strimzi-topic-operator-kstreams},1651278458,0
{consumergroup=__strimzi-topic-operator-kstreams},1651278463,0
{consumergroup=__strimzi-topic-operator-kstreams},1651278468,0
{consumergroup=__strimzi-topic-operator-kstreams},1651278473,0
{consumergroup=__strimzi-topic-operator-kstreams},1651278478,0
{consumergroup=__strimzi-topic-operator-kstreams},1651278483,0
{consumergroup=__strimzi-topic-operator-kstreams},1651278488,0
{consumergroup=__strimzi-topic-operator-kstreams},1651278493,0
{consumergroup=__strimzi-topic-operator-kstreams},1651278498,0
{consumergroup=__strimzi-topic-operator-kstreams},1651278503,0
{consumergroup=__strimzi-topic-operator-kstreams},1651278508,0
{consumergroup=__strimzi-topic-operator-kstreams},1651278513,0
{consumergroup=__strimzi-topic-operator-kstreams},1651278518,0
{consumergroup=__strimzi-topic-operator-kstreams},1651278523,0
{consumergroup=__strimzi-topic-operator-kstreams},1651278528,0
{consumergroup=__strimzi-topic-operator-kstreams},1651278533,0
{consumergroup=__strimzi-topic-operator-kstreams},1651278538,0
{consumergroup=__strimzi-topic-operator-kstreams},1651278543,0
{consumergroup=__strimzi-topic-operator-kstreams},1651278548,0
{consumergroup=__strimzi-topic-operator-kstreams},1651278553,0
{consumergroup=__strimzi-topic-operator-kstreams},1651278558,0
{consumergroup=__strimzi-topic-operator-kstreams},1651278563,0
{consumergroup=__strimzi-topic-operator-kstreams},1651278568,0
{consumergroup=__strimzi-topic-operator-kstreams},1651278573,0
{consumergroup=__strimzi-topic-operator-kstreams},1651278578,0
{consumergroup=__strimzi-topic-operator-kstreams},1651278583,0
{consumergroup=__strimzi-topic-operator-kstreams},1651278588,0
{consumergroup=__strimzi-topic-operator-kstreams},1651278593,0
{consumergroup=__strimzi-topic-operator-kstreams},1651278598,0
{consumergroup=__strimzi-topic-operator-kstreams},1651278603,0
{consumergroup=__strimzi-topic-operator-kstreams},1651278608,0
{consumergroup=__strimzi-topic-operator-kstreams},1651278613,0
{consumergroup=__strimzi-topic-operator-kstreams},1651278618,0
{consumergroup=__strimzi-topic-operator-kstreams},1651278623,0
{consumergroup=__strimzi-topic-operator-kstreams},1651278628,0
{consumergroup=__strimzi-topic-operator-kstreams},1651278633,0
{consumergroup=__strimzi-topic-operator-kstreams},1651278638,0
{consumergroup=__strimzi-topic-operator-kstreams},1651278643,0
{consumergroup=__strimzi-topic-operator-kstreams},1651278648,0
{consumergroup=__strimzi-topic-operator-kstreams},1651278653,0
{consumergroup=__strimzi-topic-operator-kstreams},1651278658,0
{consumergroup=__strimzi-topic-operator-kstreams},1651278663,0
{consumergroup=__strimzi-topic-operator-kstreams},1651278668,0
{consumergroup=__strimzi-topic-operator-kstreams},1651278673,0
{consumergroup=__strimzi-topic-operator-kstreams},1651278678,0
{consumergroup=__strimzi-topic-operator-kstreams},1651278683,0
{consumergroup=__strimzi-topic-operator-kstreams},1651278688,0
{consumergroup=__strimzi-topic-operator-kstreams},1651278693,0
{consumergroup=__strimzi-topic-operator-kstreams},1651278698,0
{consumergroup=__strimzi-topic-operator-kstreams},1651278703,0
{consumergroup=__strimzi-topic-operator-kstreams},1651278708,0
{consumergroup=__strimzi-topic-operator-kstreams},1651278713,0
{consumergroup=__strimzi-topic-operator-kstreams},1651278718,0
{consumergroup=__strimzi-topic-operator-kstreams},1651278723,0
{consumergroup=__strimzi-topic-operator-kstreams},1651278728,0
{consumergroup=__strimzi-topic-operator-kstreams},1651278733,0
{consumergroup=__strimzi-topic-operator-kstreams},1651278738,0
{consumergroup=__strimzi-topic-operator-kstreams},1651278743,0
{consumergroup=__strimzi-topic-operator-kstreams},1651278748,0
{consumergroup=__strimzi-topic-operator-kstreams},1651278753,0
{consumergroup=__strimzi-topic-operator-kstreams},1651278758,0
{consumergroup=__strimzi-topic-operator-kstreams},1651278763,0
{consumergroup=__strimzi-topic-operator-kstreams},1651278768,0
{consumergroup=__strimzi-topic-operator-kstreams},1651278773,0
{consumergroup=__strimzi-topic-operator-kstreams},1651278778,0
{consumergroup=__strimzi-topic-operator-kstreams},1651278783,0
{consumergroup=__strimzi-topic-operator-kstreams},1651278788,0
{consumergroup=__strimzi-topic-operator-kstreams},1651278793,0
{consumergroup=__strimzi-topic-operator-kstreams},1651278798,0
{consumergroup=__strimzi-topic-operator-kstreams},1651278803,0
{consumergroup=__strimzi-topic-operator-kstreams},1651278808,0
{consumergroup=__strimzi-topic-operator-kstreams},1651278813,0
{consumergroup=__strimzi-topic-operator-kstreams},1651278818,0
{consumergroup=__strimzi-topic-operator-kstreams},1651278823,0
{consumergroup=adapter-service},1651278353,0
{consumergroup=adapter-service},1651278358,0
{consumergroup=adapter-service},1651278363,0
{consumergroup=adapter-service},1651278368,1042
{consumergroup=adapter-service},1651278373,1042
{consumergroup=adapter-service},1651278378,1042
{consumergroup=adapter-service},1651278383,1703
{consumergroup=adapter-service},1651278388,1703
{consumergroup=adapter-service},1651278393,1703
{consumergroup=adapter-service},1651278398,2749
{consumergroup=adapter-service},1651278403,2749
{consumergroup=adapter-service},1651278408,2749
{consumergroup=adapter-service},1651278413,3334
{consumergroup=adapter-service},1651278418,3334
{consumergroup=adapter-service},1651278423,3334
{consumergroup=adapter-service},1651278428,4116
{consumergroup=adapter-service},1651278433,4116
{consumergroup=adapter-service},1651278438,4116
{consumergroup=adapter-service},1651278443,6171
{consumergroup=adapter-service},1651278448,6171
{consumergroup=adapter-service},1651278453,6171
{consumergroup=adapter-service},1651278458,6624
{consumergroup=adapter-service},1651278463,6624
{consumergroup=adapter-service},1651278468,6624
{consumergroup=adapter-service},1651278473,8131
{consumergroup=adapter-service},1651278478,8131
{consumergroup=adapter-service},1651278483,8131
{consumergroup=adapter-service},1651278488,7589
{consumergroup=adapter-service},1651278493,7589
{consumergroup=adapter-service},1651278498,7589
{consumergroup=adapter-service},1651278503,8133
{consumergroup=adapter-service},1651278508,8133
{consumergroup=adapter-service},1651278513,8133
{consumergroup=adapter-service},1651278518,8125
{consumergroup=adapter-service},1651278523,8125
{consumergroup=adapter-service},1651278528,8125
{consumergroup=adapter-service},1651278533,8004
{consumergroup=adapter-service},1651278538,8004
{consumergroup=adapter-service},1651278543,8004
{consumergroup=adapter-service},1651278548,1559
{consumergroup=adapter-service},1651278553,1559
{consumergroup=adapter-service},1651278558,1559
{consumergroup=adapter-service},1651278563,8479
{consumergroup=adapter-service},1651278568,8479
{consumergroup=adapter-service},1651278573,8479
{consumergroup=adapter-service},1651278578,8405
{consumergroup=adapter-service},1651278583,8405
{consumergroup=adapter-service},1651278588,8405
{consumergroup=adapter-service},1651278593,8261
{consumergroup=adapter-service},1651278598,8261
{consumergroup=adapter-service},1651278603,8261
{consumergroup=adapter-service},1651278608,8187
{consumergroup=adapter-service},1651278613,8187
{consumergroup=adapter-service},1651278618,8187
{consumergroup=adapter-service},1651278623,8058
{consumergroup=adapter-service},1651278628,8058
{consumergroup=adapter-service},1651278633,8058
{consumergroup=adapter-service},1651278638,2695
{consumergroup=adapter-service},1651278643,2695
{consumergroup=adapter-service},1651278648,2695
{consumergroup=adapter-service},1651278653,7817
{consumergroup=adapter-service},1651278658,7817
{consumergroup=adapter-service},1651278663,7817
{consumergroup=adapter-service},1651278668,3320
{consumergroup=adapter-service},1651278673,3320
{consumergroup=adapter-service},1651278678,3320
{consumergroup=adapter-service},1651278683,7626
{consumergroup=adapter-service},1651278688,7626
{consumergroup=adapter-service},1651278693,7626
{consumergroup=adapter-service},1651278698,7466
{consumergroup=adapter-service},1651278703,7466
{consumergroup=adapter-service},1651278708,7466
{consumergroup=adapter-service},1651278713,6921
{consumergroup=adapter-service},1651278718,6921
{consumergroup=adapter-service},1651278723,6921
{consumergroup=adapter-service},1651278728,7317
{consumergroup=adapter-service},1651278733,7317
{consumergroup=adapter-service},1651278738,7317
{consumergroup=adapter-service},1651278743,7125
{consumergroup=adapter-service},1651278748,7125
{consumergroup=adapter-service},1651278753,7125
{consumergroup=adapter-service},1651278758,7718
{consumergroup=adapter-service},1651278763,7718
{consumergroup=adapter-service},1651278768,7718
{consumergroup=adapter-service},1651278773,6965
{consumergroup=adapter-service},1651278778,6965
{consumergroup=adapter-service},1651278783,6965
{consumergroup=adapter-service},1651278788,8083
{consumergroup=adapter-service},1651278793,8083
{consumergroup=adapter-service},1651278798,8083
{consumergroup=adapter-service},1651278803,6567
{consumergroup=adapter-service},1651278808,6567
{consumergroup=adapter-service},1651278813,6567
{consumergroup=adapter-service},1651278818,6546
{consumergroup=adapter-service},1651278823,6546
{consumergroup=landscape-service},1651278368,10463
{consumergroup=landscape-service},1651278373,10463
{consumergroup=landscape-service},1651278378,10463
{consumergroup=landscape-service},1651278383,433
{consumergroup=landscape-service},1651278388,433
{consumergroup=landscape-service},1651278393,433
{consumergroup=landscape-service},1651278503,9594
{consumergroup=landscape-service},1651278508,9594
{consumergroup=landscape-service},1651278513,9594
{consumergroup=landscape-service},1651278518,9758
{consumergroup=landscape-service},1651278523,9758
{consumergroup=landscape-service},1651278528,9758
{consumergroup=landscape-service},1651278533,10104
{consumergroup=landscape-service},1651278538,10104
{consumergroup=landscape-service},1651278543,10104
{consumergroup=landscape-service},1651278548,1510
{consumergroup=landscape-service},1651278553,1510
{consumergroup=landscape-service},1651278558,1510
{consumergroup=landscape-service},1651278563,9316
{consumergroup=landscape-service},1651278568,9316
{consumergroup=landscape-service},1651278573,9316
{consumergroup=landscape-service},1651278578,9775
{consumergroup=landscape-service},1651278583,9775
{consumergroup=landscape-service},1651278588,9775
{consumergroup=landscape-service},1651278593,9207
{consumergroup=landscape-service},1651278598,9207
{consumergroup=landscape-service},1651278603,9207
{consumergroup=landscape-service},1651278608,9616
{consumergroup=landscape-service},1651278613,9616
{consumergroup=landscape-service},1651278618,9616
{consumergroup=landscape-service},1651278623,9007
{consumergroup=landscape-service},1651278628,9007
{consumergroup=landscape-service},1651278633,9007
{consumergroup=landscape-service},1651278638,524
{consumergroup=landscape-service},1651278643,524
{consumergroup=landscape-service},1651278648,524
{consumergroup=landscape-service},1651278653,8842
{consumergroup=landscape-service},1651278658,8842
{consumergroup=landscape-service},1651278663,8842
{consumergroup=landscape-service},1651278668,272
{consumergroup=landscape-service},1651278673,272
{consumergroup=landscape-service},1651278678,272
{consumergroup=landscape-service},1651278683,8751
{consumergroup=landscape-service},1651278688,8751
{consumergroup=landscape-service},1651278693,8751
{consumergroup=landscape-service},1651278698,8640
{consumergroup=landscape-service},1651278703,8640
{consumergroup=landscape-service},1651278708,8640
{consumergroup=landscape-service},1651278728,8297
{consumergroup=landscape-service},1651278733,8297
{consumergroup=landscape-service},1651278738,8297
{consumergroup=landscape-service},1651278743,8591
{consumergroup=landscape-service},1651278748,8591
{consumergroup=landscape-service},1651278753,8591
{consumergroup=landscape-service},1651278758,8272
{consumergroup=landscape-service},1651278763,8272
{consumergroup=landscape-service},1651278768,8272
{consumergroup=landscape-service},1651278773,8139
{consumergroup=landscape-service},1651278778,8139
{consumergroup=landscape-service},1651278783,8139
{consumergroup=landscape-service},1651278788,101
{consumergroup=landscape-service},1651278793,101
{consumergroup=landscape-service},1651278798,101
{consumergroup=landscape-service},1651278803,7786
{consumergroup=landscape-service},1651278808,7786
{consumergroup=landscape-service},1651278813,7786
{consumergroup=landscape-service},1651278818,7915
{consumergroup=landscape-service},1651278823,7915
{consumergroup=trace-service},1651278368,28725
{consumergroup=trace-service},1651278373,28725
{consumergroup=trace-service},1651278378,28725
{consumergroup=trace-service},1651278383,10518
{consumergroup=trace-service},1651278388,10518
{consumergroup=trace-service},1651278393,10518
{consumergroup=trace-service},1651278398,17170
{consumergroup=trace-service},1651278403,17170
{consumergroup=trace-service},1651278408,17170
{consumergroup=trace-service},1651278413,5968
{consumergroup=trace-service},1651278418,5968
{consumergroup=trace-service},1651278423,5968
{consumergroup=trace-service},1651278428,19215
{consumergroup=trace-service},1651278433,19215
{consumergroup=trace-service},1651278438,19215
{consumergroup=trace-service},1651278443,11464
{consumergroup=trace-service},1651278448,11464
{consumergroup=trace-service},1651278453,11464
{consumergroup=trace-service},1651278458,16639
{consumergroup=trace-service},1651278463,16639
{consumergroup=trace-service},1651278468,16639
{consumergroup=trace-service},1651278473,5404
{consumergroup=trace-service},1651278478,5404
{consumergroup=trace-service},1651278483,5404
{consumergroup=trace-service},1651278488,18537
{consumergroup=trace-service},1651278493,18537
{consumergroup=trace-service},1651278498,18537
{consumergroup=trace-service},1651278503,10130
{consumergroup=trace-service},1651278508,10130
{consumergroup=trace-service},1651278513,10130
{consumergroup=trace-service},1651278518,18610
{consumergroup=trace-service},1651278523,18610
{consumergroup=trace-service},1651278528,18610
{consumergroup=trace-service},1651278533,8990
{consumergroup=trace-service},1651278538,8990
{consumergroup=trace-service},1651278543,8990
{consumergroup=trace-service},1651278548,19101
{consumergroup=trace-service},1651278553,19101
{consumergroup=trace-service},1651278558,19101
{consumergroup=trace-service},1651278563,7581
{consumergroup=trace-service},1651278568,7581
{consumergroup=trace-service},1651278573,7581
{consumergroup=trace-service},1651278578,17146
{consumergroup=trace-service},1651278583,17146
{consumergroup=trace-service},1651278588,17146
{consumergroup=trace-service},1651278593,7935
{consumergroup=trace-service},1651278598,7935
{consumergroup=trace-service},1651278603,7935
{consumergroup=trace-service},1651278608,17076
{consumergroup=trace-service},1651278613,17076
{consumergroup=trace-service},1651278618,17076
{consumergroup=trace-service},1651278623,5497
{consumergroup=trace-service},1651278628,5497
{consumergroup=trace-service},1651278633,5497
{consumergroup=trace-service},1651278638,20059
{consumergroup=trace-service},1651278643,20059
{consumergroup=trace-service},1651278648,20059
{consumergroup=trace-service},1651278653,7397
{consumergroup=trace-service},1651278658,7397
{consumergroup=trace-service},1651278663,7397
{consumergroup=trace-service},1651278668,18978
{consumergroup=trace-service},1651278673,18978
{consumergroup=trace-service},1651278678,18978
{consumergroup=trace-service},1651278683,9016
{consumergroup=trace-service},1651278688,9016
{consumergroup=trace-service},1651278693,9016
{consumergroup=trace-service},1651278698,20042
{consumergroup=trace-service},1651278703,20042
{consumergroup=trace-service},1651278708,20042
{consumergroup=trace-service},1651278713,9021
{consumergroup=trace-service},1651278718,9021
{consumergroup=trace-service},1651278723,9021
{consumergroup=trace-service},1651278728,18636
{consumergroup=trace-service},1651278733,18636
{consumergroup=trace-service},1651278738,18636
{consumergroup=trace-service},1651278743,8096
{consumergroup=trace-service},1651278748,8096
{consumergroup=trace-service},1651278753,8096
{consumergroup=trace-service},1651278758,17051
{consumergroup=trace-service},1651278763,17051
{consumergroup=trace-service},1651278768,17051
{consumergroup=trace-service},1651278773,8565
{consumergroup=trace-service},1651278778,8565
{consumergroup=trace-service},1651278783,8565
{consumergroup=trace-service},1651278788,15288
{consumergroup=trace-service},1651278793,15288
{consumergroup=trace-service},1651278798,15288
{consumergroup=trace-service},1651278803,5865
{consumergroup=trace-service},1651278808,5865
{consumergroup=trace-service},1651278813,5865
{consumergroup=trace-service},1651278818,17731
{consumergroup=trace-service},1651278823,17731
{consumergroup=trace-token-events-consumer},1651278353,0
{consumergroup=trace-token-events-consumer},1651278358,0
{consumergroup=trace-token-events-consumer},1651278363,0
{consumergroup=trace-token-events-consumer},1651278368,0
{consumergroup=trace-token-events-consumer},1651278373,0
{consumergroup=trace-token-events-consumer},1651278378,0
{consumergroup=trace-token-events-consumer},1651278383,0
{consumergroup=trace-token-events-consumer},1651278388,0
{consumergroup=trace-token-events-consumer},1651278393,0
{consumergroup=trace-token-events-consumer},1651278398,0
{consumergroup=trace-token-events-consumer},1651278403,0
{consumergroup=trace-token-events-consumer},1651278408,0
{consumergroup=trace-token-events-consumer},1651278413,0
{consumergroup=trace-token-events-consumer},1651278418,0
{consumergroup=trace-token-events-consumer},1651278423,0
{consumergroup=trace-token-events-consumer},1651278428,0
{consumergroup=trace-token-events-consumer},1651278433,0
{consumergroup=trace-token-events-consumer},1651278438,0
{consumergroup=trace-token-events-consumer},1651278443,0
{consumergroup=trace-token-events-consumer},1651278448,0
{consumergroup=trace-token-events-consumer},1651278453,0
{consumergroup=trace-token-events-consumer},1651278458,0
{consumergroup=trace-token-events-consumer},1651278463,0
{consumergroup=trace-token-events-consumer},1651278468,0
{consumergroup=trace-token-events-consumer},1651278473,0
{consumergroup=trace-token-events-consumer},1651278478,0
{consumergroup=trace-token-events-consumer},1651278483,0
{consumergroup=trace-token-events-consumer},1651278488,0
{consumergroup=trace-token-events-consumer},1651278493,0
{consumergroup=trace-token-events-consumer},1651278498,0
{consumergroup=trace-token-events-consumer},1651278503,0
{consumergroup=trace-token-events-consumer},1651278508,0
{consumergroup=trace-token-events-consumer},1651278513,0
{consumergroup=trace-token-events-consumer},1651278518,0
{consumergroup=trace-token-events-consumer},1651278523,0
{consumergroup=trace-token-events-consumer},1651278528,0
{consumergroup=trace-token-events-consumer},1651278533,0
{consumergroup=trace-token-events-consumer},1651278538,0
{consumergroup=trace-token-events-consumer},1651278543,0
{consumergroup=trace-token-events-consumer},1651278548,0
{consumergroup=trace-token-events-consumer},1651278553,0
{consumergroup=trace-token-events-consumer},1651278558,0
{consumergroup=trace-token-events-consumer},1651278563,0
{consumergroup=trace-token-events-consumer},1651278568,0
{consumergroup=trace-token-events-consumer},1651278573,0
{consumergroup=trace-token-events-consumer},1651278578,0
{consumergroup=trace-token-events-consumer},1651278583,0
{consumergroup=trace-token-events-consumer},1651278588,0
{consumergroup=trace-token-events-consumer},1651278593,0
{consumergroup=trace-token-events-consumer},1651278598,0
{consumergroup=trace-token-events-consumer},1651278603,0
{consumergroup=trace-token-events-consumer},1651278608,0
{consumergroup=trace-token-events-consumer},1651278613,0
{consumergroup=trace-token-events-consumer},1651278618,0
{consumergroup=trace-token-events-consumer},1651278623,0
{consumergroup=trace-token-events-consumer},1651278628,0
{consumergroup=trace-token-events-consumer},1651278633,0
{consumergroup=trace-token-events-consumer},1651278638,0
{consumergroup=trace-token-events-consumer},1651278643,0
{consumergroup=trace-token-events-consumer},1651278648,0
{consumergroup=trace-token-events-consumer},1651278653,0
{consumergroup=trace-token-events-consumer},1651278658,0
{consumergroup=trace-token-events-consumer},1651278663,0
{consumergroup=trace-token-events-consumer},1651278668,0
{consumergroup=trace-token-events-consumer},1651278673,0
{consumergroup=trace-token-events-consumer},1651278678,0
{consumergroup=trace-token-events-consumer},1651278683,0
{consumergroup=trace-token-events-consumer},1651278688,0
{consumergroup=trace-token-events-consumer},1651278693,0
{consumergroup=trace-token-events-consumer},1651278698,0
{consumergroup=trace-token-events-consumer},1651278703,0
{consumergroup=trace-token-events-consumer},1651278708,0
{consumergroup=trace-token-events-consumer},1651278713,0
{consumergroup=trace-token-events-consumer},1651278718,0
{consumergroup=trace-token-events-consumer},1651278723,0
{consumergroup=trace-token-events-consumer},1651278728,0
{consumergroup=trace-token-events-consumer},1651278733,0
{consumergroup=trace-token-events-consumer},1651278738,0
{consumergroup=trace-token-events-consumer},1651278743,0
{consumergroup=trace-token-events-consumer},1651278748,0
{consumergroup=trace-token-events-consumer},1651278753,0
{consumergroup=trace-token-events-consumer},1651278758,0
{consumergroup=trace-token-events-consumer},1651278763,0
{consumergroup=trace-token-events-consumer},1651278768,0
{consumergroup=trace-token-events-consumer},1651278773,0
{consumergroup=trace-token-events-consumer},1651278778,0
{consumergroup=trace-token-events-consumer},1651278783,0
{consumergroup=trace-token-events-consumer},1651278788,0
{consumergroup=trace-token-events-consumer},1651278793,0
{consumergroup=trace-token-events-consumer},1651278798,0
{consumergroup=trace-token-events-consumer},1651278803,0
{consumergroup=trace-token-events-consumer},1651278808,0
{consumergroup=trace-token-events-consumer},1651278813,0
{consumergroup=trace-token-events-consumer},1651278818,0
{consumergroup=trace-token-events-consumer},1651278823,0
