labels,timestamp,value
{consumergroup=__strimzi-topic-operator-kstreams},1651390659,19
{consumergroup=__strimzi-topic-operator-kstreams},1651390664,19
{consumergroup=__strimzi-topic-operator-kstreams},1651390669,19
{consumergroup=__strimzi-topic-operator-kstreams},1651390674,0
{consumergroup=__strimzi-topic-operator-kstreams},1651390679,0
{consumergroup=__strimzi-topic-operator-kstreams},1651390684,0
{consumergroup=__strimzi-topic-operator-kstreams},1651390689,0
{consumergroup=__strimzi-topic-operator-kstreams},1651390694,0
{consumergroup=__strimzi-topic-operator-kstreams},1651390699,0
{consumergroup=__strimzi-topic-operator-kstreams},1651390704,0
{consumergroup=__strimzi-topic-operator-kstreams},1651390709,0
{consumergroup=__strimzi-topic-operator-kstreams},1651390714,0
{consumergroup=__strimzi-topic-operator-kstreams},1651390719,0
{consumergroup=__strimzi-topic-operator-kstreams},1651390724,0
{consumergroup=__strimzi-topic-operator-kstreams},1651390729,0
{consumergroup=__strimzi-topic-operator-kstreams},1651390734,0
{consumergroup=__strimzi-topic-operator-kstreams},1651390739,0
{consumergroup=__strimzi-topic-operator-kstreams},1651390744,0
{consumergroup=__strimzi-topic-operator-kstreams},1651390749,0
{consumergroup=__strimzi-topic-operator-kstreams},1651390754,0
{consumergroup=__strimzi-topic-operator-kstreams},1651390759,0
{consumergroup=__strimzi-topic-operator-kstreams},1651390764,0
{consumergroup=__strimzi-topic-operator-kstreams},1651390769,0
{consumergroup=__strimzi-topic-operator-kstreams},1651390774,0
{consumergroup=__strimzi-topic-operator-kstreams},1651390779,0
{consumergroup=__strimzi-topic-operator-kstreams},1651390784,0
{consumergroup=__strimzi-topic-operator-kstreams},1651390789,0
{consumergroup=__strimzi-topic-operator-kstreams},1651390794,0
{consumergroup=__strimzi-topic-operator-kstreams},1651390799,0
{consumergroup=__strimzi-topic-operator-kstreams},1651390804,0
{consumergroup=__strimzi-topic-operator-kstreams},1651390809,0
{consumergroup=__strimzi-topic-operator-kstreams},1651390814,0
{consumergroup=__strimzi-topic-operator-kstreams},1651390819,0
{consumergroup=__strimzi-topic-operator-kstreams},1651390824,0
{consumergroup=__strimzi-topic-operator-kstreams},1651390829,0
{consumergroup=__strimzi-topic-operator-kstreams},1651390834,0
{consumergroup=__strimzi-topic-operator-kstreams},1651390839,0
{consumergroup=__strimzi-topic-operator-kstreams},1651390844,0
{consumergroup=__strimzi-topic-operator-kstreams},1651390849,0
{consumergroup=__strimzi-topic-operator-kstreams},1651390854,0
{consumergroup=__strimzi-topic-operator-kstreams},1651390859,0
{consumergroup=__strimzi-topic-operator-kstreams},1651390864,0
{consumergroup=__strimzi-topic-operator-kstreams},1651390869,0
{consumergroup=__strimzi-topic-operator-kstreams},1651390874,0
{consumergroup=__strimzi-topic-operator-kstreams},1651390879,0
{consumergroup=__strimzi-topic-operator-kstreams},1651390884,0
{consumergroup=__strimzi-topic-operator-kstreams},1651390889,0
{consumergroup=__strimzi-topic-operator-kstreams},1651390894,0
{consumergroup=__strimzi-topic-operator-kstreams},1651390899,0
{consumergroup=__strimzi-topic-operator-kstreams},1651390904,0
{consumergroup=adapter-service},1651390689,1162532
{consumergroup=adapter-service},1651390694,1162532
{consumergroup=adapter-service},1651390699,1162532
{consumergroup=adapter-service},1651390704,2546142
{consumergroup=adapter-service},1651390709,2546142
{consumergroup=adapter-service},1651390714,2546142
{consumergroup=adapter-service},1651390719,3401131
{consumergroup=adapter-service},1651390724,3401131
{consumergroup=adapter-service},1651390729,3401131
{consumergroup=adapter-service},1651390734,4122472
{consumergroup=adapter-service},1651390739,4122472
{consumergroup=adapter-service},1651390744,4122472
{consumergroup=adapter-service},1651390749,4472029
{consumergroup=adapter-service},1651390754,4472029
{consumergroup=adapter-service},1651390759,4472029
{consumergroup=adapter-service},1651390764,4977828
{consumergroup=adapter-service},1651390769,4977828
{consumergroup=adapter-service},1651390774,4977828
{consumergroup=adapter-service},1651390779,4850084
{consumergroup=adapter-service},1651390784,4850084
{consumergroup=adapter-service},1651390789,4850084
{consumergroup=adapter-service},1651390794,4567760
{consumergroup=adapter-service},1651390799,4567760
{consumergroup=adapter-service},1651390804,4567760
{consumergroup=adapter-service},1651390809,4386166
{consumergroup=adapter-service},1651390814,4386166
{consumergroup=adapter-service},1651390819,4386166
{consumergroup=adapter-service},1651390824,3988906
{consumergroup=adapter-service},1651390829,3988906
{consumergroup=adapter-service},1651390834,3988906
{consumergroup=adapter-service},1651390839,3805684
{consumergroup=adapter-service},1651390844,3805684
{consumergroup=adapter-service},1651390849,3805684
{consumergroup=adapter-service},1651390854,3699006
{consumergroup=adapter-service},1651390859,3699006
{consumergroup=adapter-service},1651390864,3699006
{consumergroup=adapter-service},1651390869,3279607
{consumergroup=adapter-service},1651390874,3279607
{consumergroup=adapter-service},1651390879,3279607
{consumergroup=adapter-service},1651390884,3209007
{consumergroup=adapter-service},1651390889,3209007
{consumergroup=adapter-service},1651390894,3209007
{consumergroup=adapter-service},1651390899,2928011
{consumergroup=adapter-service},1651390904,2928011
