labels,timestamp,value
{consumergroup=__strimzi-topic-operator-kstreams},1651310329,4
{consumergroup=__strimzi-topic-operator-kstreams},1651310334,4
{consumergroup=__strimzi-topic-operator-kstreams},1651310339,4
{consumergroup=__strimzi-topic-operator-kstreams},1651310344,11
{consumergroup=__strimzi-topic-operator-kstreams},1651310349,11
{consumergroup=__strimzi-topic-operator-kstreams},1651310354,11
{consumergroup=__strimzi-topic-operator-kstreams},1651310359,3
{consumergroup=__strimzi-topic-operator-kstreams},1651310364,3
{consumergroup=__strimzi-topic-operator-kstreams},1651310369,3
{consumergroup=__strimzi-topic-operator-kstreams},1651310374,3
{consumergroup=__strimzi-topic-operator-kstreams},1651310379,3
{consumergroup=__strimzi-topic-operator-kstreams},1651310384,3
{consumergroup=__strimzi-topic-operator-kstreams},1651310389,0
{consumergroup=__strimzi-topic-operator-kstreams},1651310394,0
{consumergroup=__strimzi-topic-operator-kstreams},1651310399,0
{consumergroup=__strimzi-topic-operator-kstreams},1651310404,0
{consumergroup=__strimzi-topic-operator-kstreams},1651310409,0
{consumergroup=__strimzi-topic-operator-kstreams},1651310414,0
{consumergroup=__strimzi-topic-operator-kstreams},1651310419,0
{consumergroup=__strimzi-topic-operator-kstreams},1651310424,0
{consumergroup=__strimzi-topic-operator-kstreams},1651310429,0
{consumergroup=__strimzi-topic-operator-kstreams},1651310434,0
{consumergroup=__strimzi-topic-operator-kstreams},1651310439,0
{consumergroup=__strimzi-topic-operator-kstreams},1651310444,0
{consumergroup=__strimzi-topic-operator-kstreams},1651310449,0
{consumergroup=__strimzi-topic-operator-kstreams},1651310454,0
{consumergroup=__strimzi-topic-operator-kstreams},1651310459,0
{consumergroup=__strimzi-topic-operator-kstreams},1651310464,0
{consumergroup=__strimzi-topic-operator-kstreams},1651310469,0
{consumergroup=__strimzi-topic-operator-kstreams},1651310474,0
{consumergroup=__strimzi-topic-operator-kstreams},1651310479,0
{consumergroup=__strimzi-topic-operator-kstreams},1651310484,0
{consumergroup=__strimzi-topic-operator-kstreams},1651310489,0
{consumergroup=__strimzi-topic-operator-kstreams},1651310494,0
{consumergroup=__strimzi-topic-operator-kstreams},1651310499,0
{consumergroup=__strimzi-topic-operator-kstreams},1651310504,0
{consumergroup=__strimzi-topic-operator-kstreams},1651310509,0
{consumergroup=__strimzi-topic-operator-kstreams},1651310514,0
{consumergroup=__strimzi-topic-operator-kstreams},1651310519,0
{consumergroup=__strimzi-topic-operator-kstreams},1651310524,0
{consumergroup=__strimzi-topic-operator-kstreams},1651310529,0
{consumergroup=__strimzi-topic-operator-kstreams},1651310534,0
{consumergroup=__strimzi-topic-operator-kstreams},1651310539,0
{consumergroup=__strimzi-topic-operator-kstreams},1651310544,0
{consumergroup=__strimzi-topic-operator-kstreams},1651310549,0
{consumergroup=__strimzi-topic-operator-kstreams},1651310554,0
{consumergroup=__strimzi-topic-operator-kstreams},1651310559,0
{consumergroup=__strimzi-topic-operator-kstreams},1651310564,0
{consumergroup=__strimzi-topic-operator-kstreams},1651310569,0
{consumergroup=__strimzi-topic-operator-kstreams},1651310574,0
{consumergroup=__strimzi-topic-operator-kstreams},1651310579,0
{consumergroup=__strimzi-topic-operator-kstreams},1651310584,0
{consumergroup=__strimzi-topic-operator-kstreams},1651310589,0
{consumergroup=__strimzi-topic-operator-kstreams},1651310594,0
{consumergroup=__strimzi-topic-operator-kstreams},1651310599,0
{consumergroup=__strimzi-topic-operator-kstreams},1651310604,0
{consumergroup=__strimzi-topic-operator-kstreams},1651310609,0
{consumergroup=__strimzi-topic-operator-kstreams},1651310614,0
{consumergroup=__strimzi-topic-operator-kstreams},1651310619,0
{consumergroup=__strimzi-topic-operator-kstreams},1651310624,0
{consumergroup=__strimzi-topic-operator-kstreams},1651310629,0
{consumergroup=__strimzi-topic-operator-kstreams},1651310634,0
{consumergroup=__strimzi-topic-operator-kstreams},1651310639,0
{consumergroup=__strimzi-topic-operator-kstreams},1651310644,0
{consumergroup=__strimzi-topic-operator-kstreams},1651310649,0
{consumergroup=__strimzi-topic-operator-kstreams},1651310654,0
{consumergroup=__strimzi-topic-operator-kstreams},1651310659,0
{consumergroup=__strimzi-topic-operator-kstreams},1651310664,0
{consumergroup=__strimzi-topic-operator-kstreams},1651310669,0
{consumergroup=__strimzi-topic-operator-kstreams},1651310674,0
{consumergroup=__strimzi-topic-operator-kstreams},1651310679,0
{consumergroup=__strimzi-topic-operator-kstreams},1651310684,0
{consumergroup=__strimzi-topic-operator-kstreams},1651310689,0
{consumergroup=__strimzi-topic-operator-kstreams},1651310694,0
{consumergroup=__strimzi-topic-operator-kstreams},1651310699,0
{consumergroup=__strimzi-topic-operator-kstreams},1651310704,0
{consumergroup=__strimzi-topic-operator-kstreams},1651310709,0
{consumergroup=__strimzi-topic-operator-kstreams},1651310714,0
{consumergroup=__strimzi-topic-operator-kstreams},1651310719,0
{consumergroup=__strimzi-topic-operator-kstreams},1651310724,0
{consumergroup=__strimzi-topic-operator-kstreams},1651310729,0
{consumergroup=__strimzi-topic-operator-kstreams},1651310734,0
{consumergroup=__strimzi-topic-operator-kstreams},1651310739,0
{consumergroup=__strimzi-topic-operator-kstreams},1651310744,0
{consumergroup=__strimzi-topic-operator-kstreams},1651310749,0
{consumergroup=__strimzi-topic-operator-kstreams},1651310754,0
{consumergroup=__strimzi-topic-operator-kstreams},1651310759,0
{consumergroup=__strimzi-topic-operator-kstreams},1651310764,0
{consumergroup=__strimzi-topic-operator-kstreams},1651310769,0
{consumergroup=__strimzi-topic-operator-kstreams},1651310774,0
{consumergroup=__strimzi-topic-operator-kstreams},1651310779,0
{consumergroup=__strimzi-topic-operator-kstreams},1651310784,0
{consumergroup=__strimzi-topic-operator-kstreams},1651310789,0
{consumergroup=__strimzi-topic-operator-kstreams},1651310794,0
{consumergroup=__strimzi-topic-operator-kstreams},1651310799,0
{consumergroup=__strimzi-topic-operator-kstreams},1651310804,0
{consumergroup=__strimzi-topic-operator-kstreams},1651310809,0
{consumergroup=__strimzi-topic-operator-kstreams},1651310814,0
{consumergroup=__strimzi-topic-operator-kstreams},1651310819,0
{consumergroup=__strimzi-topic-operator-kstreams},1651310824,0
{consumergroup=__strimzi-topic-operator-kstreams},1651310829,0
{consumergroup=__strimzi-topic-operator-kstreams},1651310834,0
{consumergroup=adapter-service},1651310374,9630
{consumergroup=adapter-service},1651310379,9630
{consumergroup=adapter-service},1651310384,9630
{consumergroup=adapter-service},1651310389,3785
{consumergroup=adapter-service},1651310394,3785
{consumergroup=adapter-service},1651310399,3785
{consumergroup=adapter-service},1651310404,5662
{consumergroup=adapter-service},1651310409,5662
{consumergroup=adapter-service},1651310414,5662
{consumergroup=adapter-service},1651310419,3068
{consumergroup=adapter-service},1651310424,3068
{consumergroup=adapter-service},1651310429,3068
{consumergroup=adapter-service},1651310434,5129
{consumergroup=adapter-service},1651310439,5129
{consumergroup=adapter-service},1651310444,5129
{consumergroup=adapter-service},1651310449,5118
{consumergroup=adapter-service},1651310454,5118
{consumergroup=adapter-service},1651310459,5118
{consumergroup=adapter-service},1651310464,4640
{consumergroup=adapter-service},1651310469,4640
{consumergroup=adapter-service},1651310474,4640
{consumergroup=adapter-service},1651310479,1353
{consumergroup=adapter-service},1651310484,1353
{consumergroup=adapter-service},1651310489,1353
{consumergroup=adapter-service},1651310494,6791
{consumergroup=adapter-service},1651310499,6791
{consumergroup=adapter-service},1651310504,6791
{consumergroup=adapter-service},1651310509,1194
{consumergroup=adapter-service},1651310514,1194
{consumergroup=adapter-service},1651310519,1194
{consumergroup=adapter-service},1651310524,3141
{consumergroup=adapter-service},1651310529,3141
{consumergroup=adapter-service},1651310534,3141
{consumergroup=adapter-service},1651310539,890
{consumergroup=adapter-service},1651310544,890
{consumergroup=adapter-service},1651310549,890
{consumergroup=adapter-service},1651310554,3022
{consumergroup=adapter-service},1651310559,3022
{consumergroup=adapter-service},1651310564,3022
{consumergroup=adapter-service},1651310569,740
{consumergroup=adapter-service},1651310574,740
{consumergroup=adapter-service},1651310579,740
{consumergroup=adapter-service},1651310584,2635
{consumergroup=adapter-service},1651310589,2635
{consumergroup=adapter-service},1651310594,2635
{consumergroup=adapter-service},1651310599,410
{consumergroup=adapter-service},1651310604,410
{consumergroup=adapter-service},1651310609,410
{consumergroup=adapter-service},1651310614,2286
{consumergroup=adapter-service},1651310619,2286
{consumergroup=adapter-service},1651310624,2286
{consumergroup=adapter-service},1651310629,1667
{consumergroup=adapter-service},1651310634,1667
{consumergroup=adapter-service},1651310639,1667
{consumergroup=adapter-service},1651310644,1943
{consumergroup=adapter-service},1651310649,1943
{consumergroup=adapter-service},1651310654,1943
{consumergroup=adapter-service},1651310659,2700
{consumergroup=adapter-service},1651310664,2700
{consumergroup=adapter-service},1651310669,2700
{consumergroup=adapter-service},1651310674,1721
{consumergroup=adapter-service},1651310679,1721
{consumergroup=adapter-service},1651310684,1721
{consumergroup=adapter-service},1651310689,3216
{consumergroup=adapter-service},1651310694,3216
{consumergroup=adapter-service},1651310699,3216
{consumergroup=adapter-service},1651310704,1363
{consumergroup=adapter-service},1651310709,1363
{consumergroup=adapter-service},1651310714,1363
{consumergroup=adapter-service},1651310719,3874
{consumergroup=adapter-service},1651310724,3874
{consumergroup=adapter-service},1651310729,3874
{consumergroup=adapter-service},1651310734,1109
{consumergroup=adapter-service},1651310739,1109
{consumergroup=adapter-service},1651310744,1109
{consumergroup=adapter-service},1651310749,1936
{consumergroup=adapter-service},1651310754,1936
{consumergroup=adapter-service},1651310759,1936
{consumergroup=adapter-service},1651310764,847
{consumergroup=adapter-service},1651310769,847
{consumergroup=adapter-service},1651310774,847
{consumergroup=adapter-service},1651310779,1634
{consumergroup=adapter-service},1651310784,1634
{consumergroup=adapter-service},1651310789,1634
{consumergroup=adapter-service},1651310794,571
{consumergroup=adapter-service},1651310799,571
{consumergroup=adapter-service},1651310804,571
{consumergroup=adapter-service},1651310809,2080
{consumergroup=adapter-service},1651310814,2080
{consumergroup=adapter-service},1651310819,2080
{consumergroup=adapter-service},1651310824,1175
{consumergroup=adapter-service},1651310829,1175
{consumergroup=adapter-service},1651310834,1175
{consumergroup=landscape-service},1651310389,9798
{consumergroup=landscape-service},1651310394,9798
{consumergroup=landscape-service},1651310399,9798
{consumergroup=landscape-service},1651310404,11617
{consumergroup=landscape-service},1651310409,11617
{consumergroup=landscape-service},1651310414,11617
{consumergroup=landscape-service},1651310419,8196
{consumergroup=landscape-service},1651310424,8196
{consumergroup=landscape-service},1651310429,8196
{consumergroup=landscape-service},1651310434,9784
{consumergroup=landscape-service},1651310439,9784
{consumergroup=landscape-service},1651310444,9784
{consumergroup=landscape-service},1651310449,11236
{consumergroup=landscape-service},1651310454,11236
{consumergroup=landscape-service},1651310459,11236
{consumergroup=landscape-service},1651310464,8924
{consumergroup=landscape-service},1651310469,8924
{consumergroup=landscape-service},1651310474,8924
{consumergroup=landscape-service},1651310479,6172
{consumergroup=landscape-service},1651310484,6172
{consumergroup=landscape-service},1651310489,6172
{consumergroup=landscape-service},1651310494,11337
{consumergroup=landscape-service},1651310499,11337
{consumergroup=landscape-service},1651310504,11337
{consumergroup=landscape-service},1651310509,5342
{consumergroup=landscape-service},1651310514,5342
{consumergroup=landscape-service},1651310519,5342
{consumergroup=landscape-service},1651310524,7775
{consumergroup=landscape-service},1651310529,7775
{consumergroup=landscape-service},1651310534,7775
{consumergroup=landscape-service},1651310539,5212
{consumergroup=landscape-service},1651310544,5212
{consumergroup=landscape-service},1651310549,5212
{consumergroup=landscape-service},1651310554,6355
{consumergroup=landscape-service},1651310559,6355
{consumergroup=landscape-service},1651310564,6355
{consumergroup=landscape-service},1651310569,3719
{consumergroup=landscape-service},1651310574,3719
{consumergroup=landscape-service},1651310579,3719
{consumergroup=landscape-service},1651310584,5568
{consumergroup=landscape-service},1651310589,5568
{consumergroup=landscape-service},1651310594,5568
{consumergroup=landscape-service},1651310599,3636
{consumergroup=landscape-service},1651310604,3636
{consumergroup=landscape-service},1651310609,3636
{consumergroup=landscape-service},1651310614,4774
{consumergroup=landscape-service},1651310619,4774
{consumergroup=landscape-service},1651310624,4774
{consumergroup=landscape-service},1651310629,2048
{consumergroup=landscape-service},1651310634,2048
{consumergroup=landscape-service},1651310639,2048
{consumergroup=landscape-service},1651310644,4567
{consumergroup=landscape-service},1651310649,4567
{consumergroup=landscape-service},1651310654,4567
{consumergroup=landscape-service},1651310659,4317
{consumergroup=landscape-service},1651310664,4317
{consumergroup=landscape-service},1651310669,4317
{consumergroup=landscape-service},1651310674,3775
{consumergroup=landscape-service},1651310679,3775
{consumergroup=landscape-service},1651310684,3775
{consumergroup=landscape-service},1651310689,1073
{consumergroup=landscape-service},1651310694,1073
{consumergroup=landscape-service},1651310699,1073
{consumergroup=landscape-service},1651310704,2880
{consumergroup=landscape-service},1651310709,2880
{consumergroup=landscape-service},1651310714,2880
{consumergroup=landscape-service},1651310719,15495
{consumergroup=landscape-service},1651310724,15495
{consumergroup=landscape-service},1651310729,15495
{consumergroup=landscape-service},1651310734,1383
{consumergroup=landscape-service},1651310739,1383
{consumergroup=landscape-service},1651310744,1383
{consumergroup=landscape-service},1651310749,2026
{consumergroup=landscape-service},1651310754,2026
{consumergroup=landscape-service},1651310759,2026
{consumergroup=landscape-service},1651310764,551
{consumergroup=landscape-service},1651310769,551
{consumergroup=landscape-service},1651310774,551
{consumergroup=landscape-service},1651310779,1100
{consumergroup=landscape-service},1651310784,1100
{consumergroup=landscape-service},1651310789,1100
{consumergroup=landscape-service},1651310809,157
{consumergroup=landscape-service},1651310814,157
{consumergroup=landscape-service},1651310819,157
{consumergroup=landscape-service},1651310824,14827
{consumergroup=landscape-service},1651310829,14827
{consumergroup=landscape-service},1651310834,14827
{consumergroup=trace-service},1651310374,26733
{consumergroup=trace-service},1651310379,26733
{consumergroup=trace-service},1651310384,26733
{consumergroup=trace-service},1651310389,3387
{consumergroup=trace-service},1651310394,3387
{consumergroup=trace-service},1651310399,3387
{consumergroup=trace-service},1651310404,31495
{consumergroup=trace-service},1651310409,31495
{consumergroup=trace-service},1651310414,31495
{consumergroup=trace-service},1651310419,96550
{consumergroup=trace-service},1651310424,96550
{consumergroup=trace-service},1651310429,96550
{consumergroup=trace-service},1651310434,19035
{consumergroup=trace-service},1651310439,19035
{consumergroup=trace-service},1651310444,19035
{consumergroup=trace-service},1651310449,63321
{consumergroup=trace-service},1651310454,63321
{consumergroup=trace-service},1651310459,63321
{consumergroup=trace-service},1651310464,24705
{consumergroup=trace-service},1651310469,24705
{consumergroup=trace-service},1651310474,24705
{consumergroup=trace-service},1651310479,69877
{consumergroup=trace-service},1651310484,69877
{consumergroup=trace-service},1651310489,69877
{consumergroup=trace-service},1651310494,21413
{consumergroup=trace-service},1651310499,21413
{consumergroup=trace-service},1651310504,21413
{consumergroup=trace-service},1651310509,53764
{consumergroup=trace-service},1651310514,53764
{consumergroup=trace-service},1651310519,53764
{consumergroup=trace-service},1651310524,22865
{consumergroup=trace-service},1651310529,22865
{consumergroup=trace-service},1651310534,22865
{consumergroup=trace-service},1651310539,71604
{consumergroup=trace-service},1651310544,71604
{consumergroup=trace-service},1651310549,71604
{consumergroup=trace-service},1651310554,16302
{consumergroup=trace-service},1651310559,16302
{consumergroup=trace-service},1651310564,16302
{consumergroup=trace-service},1651310569,55382
{consumergroup=trace-service},1651310574,55382
{consumergroup=trace-service},1651310579,55382
{consumergroup=trace-service},1651310584,26660
{consumergroup=trace-service},1651310589,26660
{consumergroup=trace-service},1651310594,26660
{consumergroup=trace-service},1651310599,84343
{consumergroup=trace-service},1651310604,84343
{consumergroup=trace-service},1651310609,84343
{consumergroup=trace-service},1651310614,20623
{consumergroup=trace-service},1651310619,20623
{consumergroup=trace-service},1651310624,20623
{consumergroup=trace-service},1651310629,63231
{consumergroup=trace-service},1651310634,63231
{consumergroup=trace-service},1651310639,63231
{consumergroup=trace-service},1651310644,19295
{consumergroup=trace-service},1651310649,19295
{consumergroup=trace-service},1651310654,19295
{consumergroup=trace-service},1651310659,59230
{consumergroup=trace-service},1651310664,59230
{consumergroup=trace-service},1651310669,59230
{consumergroup=trace-service},1651310674,26429
{consumergroup=trace-service},1651310679,26429
{consumergroup=trace-service},1651310684,26429
{consumergroup=trace-service},1651310689,64361
{consumergroup=trace-service},1651310694,64361
{consumergroup=trace-service},1651310699,64361
{consumergroup=trace-service},1651310704,24050
{consumergroup=trace-service},1651310709,24050
{consumergroup=trace-service},1651310714,24050
{consumergroup=trace-service},1651310719,59537
{consumergroup=trace-service},1651310724,59537
{consumergroup=trace-service},1651310729,59537
{consumergroup=trace-service},1651310734,19136
{consumergroup=trace-service},1651310739,19136
{consumergroup=trace-service},1651310744,19136
{consumergroup=trace-service},1651310749,53868
{consumergroup=trace-service},1651310754,53868
{consumergroup=trace-service},1651310759,53868
{consumergroup=trace-service},1651310764,22589
{consumergroup=trace-service},1651310769,22589
{consumergroup=trace-service},1651310774,22589
{consumergroup=trace-service},1651310779,57738
{consumergroup=trace-service},1651310784,57738
{consumergroup=trace-service},1651310789,57738
{consumergroup=trace-service},1651310794,20577
{consumergroup=trace-service},1651310799,20577
{consumergroup=trace-service},1651310804,20577
{consumergroup=trace-service},1651310809,52642
{consumergroup=trace-service},1651310814,52642
{consumergroup=trace-service},1651310819,52642
{consumergroup=trace-service},1651310824,22162
{consumergroup=trace-service},1651310829,22162
{consumergroup=trace-service},1651310834,22162
{consumergroup=trace-token-events-consumer},1651310359,0
{consumergroup=trace-token-events-consumer},1651310364,0
{consumergroup=trace-token-events-consumer},1651310369,0
{consumergroup=trace-token-events-consumer},1651310374,0
{consumergroup=trace-token-events-consumer},1651310379,0
{consumergroup=trace-token-events-consumer},1651310384,0
{consumergroup=trace-token-events-consumer},1651310389,0
{consumergroup=trace-token-events-consumer},1651310394,0
{consumergroup=trace-token-events-consumer},1651310399,0
{consumergroup=trace-token-events-consumer},1651310404,0
{consumergroup=trace-token-events-consumer},1651310409,0
{consumergroup=trace-token-events-consumer},1651310414,0
{consumergroup=trace-token-events-consumer},1651310419,0
{consumergroup=trace-token-events-consumer},1651310424,0
{consumergroup=trace-token-events-consumer},1651310429,0
{consumergroup=trace-token-events-consumer},1651310434,0
{consumergroup=trace-token-events-consumer},1651310439,0
{consumergroup=trace-token-events-consumer},1651310444,0
{consumergroup=trace-token-events-consumer},1651310449,0
{consumergroup=trace-token-events-consumer},1651310454,0
{consumergroup=trace-token-events-consumer},1651310459,0
{consumergroup=trace-token-events-consumer},1651310464,0
{consumergroup=trace-token-events-consumer},1651310469,0
{consumergroup=trace-token-events-consumer},1651310474,0
{consumergroup=trace-token-events-consumer},1651310479,0
{consumergroup=trace-token-events-consumer},1651310484,0
{consumergroup=trace-token-events-consumer},1651310489,0
{consumergroup=trace-token-events-consumer},1651310494,0
{consumergroup=trace-token-events-consumer},1651310499,0
{consumergroup=trace-token-events-consumer},1651310504,0
{consumergroup=trace-token-events-consumer},1651310509,0
{consumergroup=trace-token-events-consumer},1651310514,0
{consumergroup=trace-token-events-consumer},1651310519,0
{consumergroup=trace-token-events-consumer},1651310524,0
{consumergroup=trace-token-events-consumer},1651310529,0
{consumergroup=trace-token-events-consumer},1651310534,0
{consumergroup=trace-token-events-consumer},1651310539,0
{consumergroup=trace-token-events-consumer},1651310544,0
{consumergroup=trace-token-events-consumer},1651310549,0
{consumergroup=trace-token-events-consumer},1651310554,0
{consumergroup=trace-token-events-consumer},1651310559,0
{consumergroup=trace-token-events-consumer},1651310564,0
{consumergroup=trace-token-events-consumer},1651310569,0
{consumergroup=trace-token-events-consumer},1651310574,0
{consumergroup=trace-token-events-consumer},1651310579,0
{consumergroup=trace-token-events-consumer},1651310584,0
{consumergroup=trace-token-events-consumer},1651310589,0
{consumergroup=trace-token-events-consumer},1651310594,0
{consumergroup=trace-token-events-consumer},1651310599,0
{consumergroup=trace-token-events-consumer},1651310604,0
{consumergroup=trace-token-events-consumer},1651310609,0
{consumergroup=trace-token-events-consumer},1651310614,0
{consumergroup=trace-token-events-consumer},1651310619,0
{consumergroup=trace-token-events-consumer},1651310624,0
{consumergroup=trace-token-events-consumer},1651310629,0
{consumergroup=trace-token-events-consumer},1651310634,0
{consumergroup=trace-token-events-consumer},1651310639,0
{consumergroup=trace-token-events-consumer},1651310644,0
{consumergroup=trace-token-events-consumer},1651310649,0
{consumergroup=trace-token-events-consumer},1651310654,0
{consumergroup=trace-token-events-consumer},1651310659,0
{consumergroup=trace-token-events-consumer},1651310664,0
{consumergroup=trace-token-events-consumer},1651310669,0
{consumergroup=trace-token-events-consumer},1651310674,0
{consumergroup=trace-token-events-consumer},1651310679,0
{consumergroup=trace-token-events-consumer},1651310684,0
{consumergroup=trace-token-events-consumer},1651310689,0
{consumergroup=trace-token-events-consumer},1651310694,0
{consumergroup=trace-token-events-consumer},1651310699,0
{consumergroup=trace-token-events-consumer},1651310704,0
{consumergroup=trace-token-events-consumer},1651310709,0
{consumergroup=trace-token-events-consumer},1651310714,0
{consumergroup=trace-token-events-consumer},1651310719,0
{consumergroup=trace-token-events-consumer},1651310724,0
{consumergroup=trace-token-events-consumer},1651310729,0
{consumergroup=trace-token-events-consumer},1651310734,0
{consumergroup=trace-token-events-consumer},1651310739,0
{consumergroup=trace-token-events-consumer},1651310744,0
{consumergroup=trace-token-events-consumer},1651310749,0
{consumergroup=trace-token-events-consumer},1651310754,0
{consumergroup=trace-token-events-consumer},1651310759,0
{consumergroup=trace-token-events-consumer},1651310764,0
{consumergroup=trace-token-events-consumer},1651310769,0
{consumergroup=trace-token-events-consumer},1651310774,0
{consumergroup=trace-token-events-consumer},1651310779,0
{consumergroup=trace-token-events-consumer},1651310784,0
{consumergroup=trace-token-events-consumer},1651310789,0
{consumergroup=trace-token-events-consumer},1651310794,0
{consumergroup=trace-token-events-consumer},1651310799,0
{consumergroup=trace-token-events-consumer},1651310804,0
{consumergroup=trace-token-events-consumer},1651310809,0
{consumergroup=trace-token-events-consumer},1651310814,0
{consumergroup=trace-token-events-consumer},1651310819,0
{consumergroup=trace-token-events-consumer},1651310824,0
{consumergroup=trace-token-events-consumer},1651310829,0
{consumergroup=trace-token-events-consumer},1651310834,0
