labels,timestamp,value
{consumergroup=__strimzi-topic-operator-kstreams},1651404060,0
{consumergroup=__strimzi-topic-operator-kstreams},1651404065,6
{consumergroup=__strimzi-topic-operator-kstreams},1651404070,6
{consumergroup=__strimzi-topic-operator-kstreams},1651404075,6
{consumergroup=__strimzi-topic-operator-kstreams},1651404080,21
{consumergroup=__strimzi-topic-operator-kstreams},1651404085,21
{consumergroup=__strimzi-topic-operator-kstreams},1651404090,21
{consumergroup=__strimzi-topic-operator-kstreams},1651404095,0
{consumergroup=__strimzi-topic-operator-kstreams},1651404100,0
{consumergroup=__strimzi-topic-operator-kstreams},1651404105,0
{consumergroup=__strimzi-topic-operator-kstreams},1651404110,0
{consumergroup=__strimzi-topic-operator-kstreams},1651404115,0
{consumergroup=__strimzi-topic-operator-kstreams},1651404120,0
{consumergroup=__strimzi-topic-operator-kstreams},1651404125,0
{consumergroup=__strimzi-topic-operator-kstreams},1651404130,0
{consumergroup=__strimzi-topic-operator-kstreams},1651404135,0
{consumergroup=__strimzi-topic-operator-kstreams},1651404140,0
{consumergroup=__strimzi-topic-operator-kstreams},1651404145,0
{consumergroup=__strimzi-topic-operator-kstreams},1651404150,0
{consumergroup=__strimzi-topic-operator-kstreams},1651404155,0
{consumergroup=__strimzi-topic-operator-kstreams},1651404160,0
{consumergroup=__strimzi-topic-operator-kstreams},1651404165,0
{consumergroup=__strimzi-topic-operator-kstreams},1651404170,0
{consumergroup=__strimzi-topic-operator-kstreams},1651404175,0
{consumergroup=__strimzi-topic-operator-kstreams},1651404180,0
{consumergroup=__strimzi-topic-operator-kstreams},1651404185,0
{consumergroup=__strimzi-topic-operator-kstreams},1651404190,0
{consumergroup=__strimzi-topic-operator-kstreams},1651404195,0
{consumergroup=__strimzi-topic-operator-kstreams},1651404200,0
{consumergroup=__strimzi-topic-operator-kstreams},1651404205,0
{consumergroup=__strimzi-topic-operator-kstreams},1651404210,0
{consumergroup=__strimzi-topic-operator-kstreams},1651404215,0
{consumergroup=__strimzi-topic-operator-kstreams},1651404220,0
{consumergroup=__strimzi-topic-operator-kstreams},1651404225,0
{consumergroup=__strimzi-topic-operator-kstreams},1651404230,0
{consumergroup=__strimzi-topic-operator-kstreams},1651404235,0
{consumergroup=__strimzi-topic-operator-kstreams},1651404240,0
{consumergroup=__strimzi-topic-operator-kstreams},1651404245,0
{consumergroup=__strimzi-topic-operator-kstreams},1651404250,0
{consumergroup=__strimzi-topic-operator-kstreams},1651404255,0
{consumergroup=__strimzi-topic-operator-kstreams},1651404260,0
{consumergroup=__strimzi-topic-operator-kstreams},1651404265,0
{consumergroup=__strimzi-topic-operator-kstreams},1651404270,0
{consumergroup=__strimzi-topic-operator-kstreams},1651404275,0
{consumergroup=__strimzi-topic-operator-kstreams},1651404280,0
{consumergroup=__strimzi-topic-operator-kstreams},1651404285,0
{consumergroup=__strimzi-topic-operator-kstreams},1651404290,0
{consumergroup=__strimzi-topic-operator-kstreams},1651404295,0
{consumergroup=__strimzi-topic-operator-kstreams},1651404300,0
{consumergroup=__strimzi-topic-operator-kstreams},1651404305,0
{consumergroup=__strimzi-topic-operator-kstreams},1651404310,0
{consumergroup=__strimzi-topic-operator-kstreams},1651404315,0
{consumergroup=__strimzi-topic-operator-kstreams},1651404320,0
{consumergroup=adapter-service},1651404060,21888
{consumergroup=adapter-service},1651404095,0
{consumergroup=adapter-service},1651404100,0
{consumergroup=adapter-service},1651404105,0
{consumergroup=adapter-service},1651404110,125921
{consumergroup=adapter-service},1651404115,125921
{consumergroup=adapter-service},1651404120,125921
{consumergroup=adapter-service},1651404125,104817
{consumergroup=adapter-service},1651404130,104817
{consumergroup=adapter-service},1651404135,104817
{consumergroup=adapter-service},1651404140,55436
{consumergroup=adapter-service},1651404145,55436
{consumergroup=adapter-service},1651404150,55436
{consumergroup=adapter-service},1651404155,68774
{consumergroup=adapter-service},1651404160,68774
{consumergroup=adapter-service},1651404165,68774
{consumergroup=adapter-service},1651404170,45093
{consumergroup=adapter-service},1651404175,45093
{consumergroup=adapter-service},1651404180,45093
{consumergroup=adapter-service},1651404185,64334
{consumergroup=adapter-service},1651404190,64334
{consumergroup=adapter-service},1651404195,64334
{consumergroup=adapter-service},1651404200,41510
{consumergroup=adapter-service},1651404205,41510
{consumergroup=adapter-service},1651404210,41510
{consumergroup=adapter-service},1651404215,75956
{consumergroup=adapter-service},1651404220,75956
{consumergroup=adapter-service},1651404225,75956
{consumergroup=adapter-service},1651404230,65232
{consumergroup=adapter-service},1651404235,65232
{consumergroup=adapter-service},1651404240,65232
{consumergroup=adapter-service},1651404245,63915
{consumergroup=adapter-service},1651404250,63915
{consumergroup=adapter-service},1651404255,63915
{consumergroup=adapter-service},1651404260,65984
{consumergroup=adapter-service},1651404265,65984
{consumergroup=adapter-service},1651404270,65984
{consumergroup=adapter-service},1651404275,59652
{consumergroup=adapter-service},1651404280,59652
{consumergroup=adapter-service},1651404285,59652
{consumergroup=adapter-service},1651404290,74039
{consumergroup=adapter-service},1651404295,74039
{consumergroup=adapter-service},1651404300,74039
{consumergroup=adapter-service},1651404305,61194
{consumergroup=adapter-service},1651404310,61194
{consumergroup=adapter-service},1651404315,61194
{consumergroup=adapter-service},1651404320,64735
