labels,timestamp,value
{consumergroup=__strimzi-topic-operator-kstreams},1651368264,10
{consumergroup=__strimzi-topic-operator-kstreams},1651368269,10
{consumergroup=__strimzi-topic-operator-kstreams},1651368274,10
{consumergroup=__strimzi-topic-operator-kstreams},1651368279,10
{consumergroup=__strimzi-topic-operator-kstreams},1651368284,10
{consumergroup=__strimzi-topic-operator-kstreams},1651368289,10
{consumergroup=__strimzi-topic-operator-kstreams},1651368294,0
{consumergroup=__strimzi-topic-operator-kstreams},1651368299,0
{consumergroup=__strimzi-topic-operator-kstreams},1651368304,0
{consumergroup=__strimzi-topic-operator-kstreams},1651368309,0
{consumergroup=__strimzi-topic-operator-kstreams},1651368314,0
{consumergroup=__strimzi-topic-operator-kstreams},1651368319,0
{consumergroup=__strimzi-topic-operator-kstreams},1651368324,0
{consumergroup=__strimzi-topic-operator-kstreams},1651368329,0
{consumergroup=__strimzi-topic-operator-kstreams},1651368334,0
{consumergroup=__strimzi-topic-operator-kstreams},1651368339,0
{consumergroup=__strimzi-topic-operator-kstreams},1651368344,0
{consumergroup=__strimzi-topic-operator-kstreams},1651368349,0
{consumergroup=__strimzi-topic-operator-kstreams},1651368354,0
{consumergroup=__strimzi-topic-operator-kstreams},1651368359,0
{consumergroup=__strimzi-topic-operator-kstreams},1651368364,0
{consumergroup=__strimzi-topic-operator-kstreams},1651368369,0
{consumergroup=__strimzi-topic-operator-kstreams},1651368374,0
{consumergroup=__strimzi-topic-operator-kstreams},1651368379,0
{consumergroup=__strimzi-topic-operator-kstreams},1651368384,0
{consumergroup=__strimzi-topic-operator-kstreams},1651368389,0
{consumergroup=__strimzi-topic-operator-kstreams},1651368394,0
{consumergroup=__strimzi-topic-operator-kstreams},1651368399,0
{consumergroup=__strimzi-topic-operator-kstreams},1651368404,0
{consumergroup=__strimzi-topic-operator-kstreams},1651368409,0
{consumergroup=__strimzi-topic-operator-kstreams},1651368414,0
{consumergroup=__strimzi-topic-operator-kstreams},1651368419,0
{consumergroup=__strimzi-topic-operator-kstreams},1651368424,0
{consumergroup=__strimzi-topic-operator-kstreams},1651368429,0
{consumergroup=__strimzi-topic-operator-kstreams},1651368434,0
{consumergroup=__strimzi-topic-operator-kstreams},1651368439,0
{consumergroup=__strimzi-topic-operator-kstreams},1651368444,0
{consumergroup=__strimzi-topic-operator-kstreams},1651368449,0
{consumergroup=__strimzi-topic-operator-kstreams},1651368454,0
{consumergroup=__strimzi-topic-operator-kstreams},1651368459,0
{consumergroup=__strimzi-topic-operator-kstreams},1651368464,0
{consumergroup=__strimzi-topic-operator-kstreams},1651368469,0
{consumergroup=__strimzi-topic-operator-kstreams},1651368474,0
{consumergroup=__strimzi-topic-operator-kstreams},1651368479,0
{consumergroup=__strimzi-topic-operator-kstreams},1651368484,0
{consumergroup=__strimzi-topic-operator-kstreams},1651368489,0
{consumergroup=__strimzi-topic-operator-kstreams},1651368494,0
{consumergroup=__strimzi-topic-operator-kstreams},1651368499,0
{consumergroup=__strimzi-topic-operator-kstreams},1651368504,0
{consumergroup=__strimzi-topic-operator-kstreams},1651368509,0
{consumergroup=__strimzi-topic-operator-kstreams},1651368514,0
{consumergroup=adapter-service},1651368294,135414
{consumergroup=adapter-service},1651368299,135414
{consumergroup=adapter-service},1651368304,135414
{consumergroup=adapter-service},1651368309,451410
{consumergroup=adapter-service},1651368314,451410
{consumergroup=adapter-service},1651368319,451410
{consumergroup=adapter-service},1651368324,437112
{consumergroup=adapter-service},1651368329,437112
{consumergroup=adapter-service},1651368334,437112
{consumergroup=adapter-service},1651368339,403842
{consumergroup=adapter-service},1651368344,403842
{consumergroup=adapter-service},1651368349,403842
{consumergroup=adapter-service},1651368354,293336
{consumergroup=adapter-service},1651368359,293336
{consumergroup=adapter-service},1651368364,293336
{consumergroup=adapter-service},1651368369,262376
{consumergroup=adapter-service},1651368374,262376
{consumergroup=adapter-service},1651368379,262376
{consumergroup=adapter-service},1651368384,345841
{consumergroup=adapter-service},1651368389,345841
{consumergroup=adapter-service},1651368394,345841
{consumergroup=adapter-service},1651368399,332808
{consumergroup=adapter-service},1651368404,332808
{consumergroup=adapter-service},1651368409,332808
{consumergroup=adapter-service},1651368414,528100
{consumergroup=adapter-service},1651368419,528100
{consumergroup=adapter-service},1651368424,528100
{consumergroup=adapter-service},1651368429,206899
{consumergroup=adapter-service},1651368434,206899
{consumergroup=adapter-service},1651368439,206899
{consumergroup=adapter-service},1651368444,481507
{consumergroup=adapter-service},1651368449,481507
{consumergroup=adapter-service},1651368454,481507
{consumergroup=adapter-service},1651368459,306765
{consumergroup=adapter-service},1651368464,306765
{consumergroup=adapter-service},1651368469,306765
{consumergroup=adapter-service},1651368474,291621
{consumergroup=adapter-service},1651368479,291621
{consumergroup=adapter-service},1651368484,291621
{consumergroup=adapter-service},1651368489,355869
{consumergroup=adapter-service},1651368494,355869
{consumergroup=adapter-service},1651368499,355869
{consumergroup=adapter-service},1651368504,282431
{consumergroup=adapter-service},1651368509,282431
{consumergroup=adapter-service},1651368514,282431
