labels,timestamp,value
{consumergroup=__strimzi-topic-operator-kstreams},1651436070,15
{consumergroup=__strimzi-topic-operator-kstreams},1651436075,15
{consumergroup=__strimzi-topic-operator-kstreams},1651436080,15
{consumergroup=__strimzi-topic-operator-kstreams},1651436085,15
{consumergroup=__strimzi-topic-operator-kstreams},1651436090,15
{consumergroup=__strimzi-topic-operator-kstreams},1651436095,15
{consumergroup=__strimzi-topic-operator-kstreams},1651436100,0
{consumergroup=__strimzi-topic-operator-kstreams},1651436105,0
{consumergroup=__strimzi-topic-operator-kstreams},1651436110,0
{consumergroup=__strimzi-topic-operator-kstreams},1651436115,0
{consumergroup=__strimzi-topic-operator-kstreams},1651436120,0
{consumergroup=__strimzi-topic-operator-kstreams},1651436125,0
{consumergroup=__strimzi-topic-operator-kstreams},1651436130,0
{consumergroup=__strimzi-topic-operator-kstreams},1651436135,0
{consumergroup=__strimzi-topic-operator-kstreams},1651436140,0
{consumergroup=__strimzi-topic-operator-kstreams},1651436145,0
{consumergroup=__strimzi-topic-operator-kstreams},1651436150,0
{consumergroup=__strimzi-topic-operator-kstreams},1651436155,0
{consumergroup=__strimzi-topic-operator-kstreams},1651436160,0
{consumergroup=__strimzi-topic-operator-kstreams},1651436165,0
{consumergroup=__strimzi-topic-operator-kstreams},1651436170,0
{consumergroup=__strimzi-topic-operator-kstreams},1651436175,0
{consumergroup=__strimzi-topic-operator-kstreams},1651436180,0
{consumergroup=__strimzi-topic-operator-kstreams},1651436185,0
{consumergroup=__strimzi-topic-operator-kstreams},1651436190,0
{consumergroup=__strimzi-topic-operator-kstreams},1651436195,0
{consumergroup=__strimzi-topic-operator-kstreams},1651436200,0
{consumergroup=__strimzi-topic-operator-kstreams},1651436205,0
{consumergroup=__strimzi-topic-operator-kstreams},1651436210,0
{consumergroup=__strimzi-topic-operator-kstreams},1651436215,0
{consumergroup=__strimzi-topic-operator-kstreams},1651436220,0
{consumergroup=__strimzi-topic-operator-kstreams},1651436225,0
{consumergroup=__strimzi-topic-operator-kstreams},1651436230,0
{consumergroup=__strimzi-topic-operator-kstreams},1651436235,0
{consumergroup=__strimzi-topic-operator-kstreams},1651436240,0
{consumergroup=__strimzi-topic-operator-kstreams},1651436245,0
{consumergroup=__strimzi-topic-operator-kstreams},1651436250,0
{consumergroup=__strimzi-topic-operator-kstreams},1651436255,0
{consumergroup=__strimzi-topic-operator-kstreams},1651436260,0
{consumergroup=__strimzi-topic-operator-kstreams},1651436265,0
{consumergroup=__strimzi-topic-operator-kstreams},1651436270,0
{consumergroup=__strimzi-topic-operator-kstreams},1651436275,0
{consumergroup=__strimzi-topic-operator-kstreams},1651436280,0
{consumergroup=__strimzi-topic-operator-kstreams},1651436285,0
{consumergroup=__strimzi-topic-operator-kstreams},1651436290,0
{consumergroup=__strimzi-topic-operator-kstreams},1651436295,0
{consumergroup=__strimzi-topic-operator-kstreams},1651436300,0
{consumergroup=__strimzi-topic-operator-kstreams},1651436305,0
{consumergroup=__strimzi-topic-operator-kstreams},1651436310,0
{consumergroup=__strimzi-topic-operator-kstreams},1651436315,0
{consumergroup=__strimzi-topic-operator-kstreams},1651436320,0
{consumergroup=adapter-service},1651436100,146603
{consumergroup=adapter-service},1651436105,146603
{consumergroup=adapter-service},1651436110,146603
{consumergroup=adapter-service},1651436115,283249
{consumergroup=adapter-service},1651436120,283249
{consumergroup=adapter-service},1651436125,283249
{consumergroup=adapter-service},1651436130,412215
{consumergroup=adapter-service},1651436135,412215
{consumergroup=adapter-service},1651436140,412215
{consumergroup=adapter-service},1651436145,517274
{consumergroup=adapter-service},1651436150,517274
{consumergroup=adapter-service},1651436155,517274
{consumergroup=adapter-service},1651436160,626384
{consumergroup=adapter-service},1651436165,626384
{consumergroup=adapter-service},1651436170,626384
{consumergroup=adapter-service},1651436175,688606
{consumergroup=adapter-service},1651436180,688606
{consumergroup=adapter-service},1651436185,688606
{consumergroup=adapter-service},1651436190,749549
{consumergroup=adapter-service},1651436195,749549
{consumergroup=adapter-service},1651436200,749549
{consumergroup=adapter-service},1651436205,786773
{consumergroup=adapter-service},1651436210,786773
{consumergroup=adapter-service},1651436215,786773
{consumergroup=adapter-service},1651436220,780817
{consumergroup=adapter-service},1651436225,780817
{consumergroup=adapter-service},1651436230,780817
{consumergroup=adapter-service},1651436235,791324
{consumergroup=adapter-service},1651436240,791324
{consumergroup=adapter-service},1651436245,791324
{consumergroup=adapter-service},1651436250,794139
{consumergroup=adapter-service},1651436255,794139
{consumergroup=adapter-service},1651436260,794139
{consumergroup=adapter-service},1651436265,774106
{consumergroup=adapter-service},1651436270,774106
{consumergroup=adapter-service},1651436275,774106
{consumergroup=adapter-service},1651436280,760062
{consumergroup=adapter-service},1651436285,760062
{consumergroup=adapter-service},1651436290,760062
{consumergroup=adapter-service},1651436295,752773
{consumergroup=adapter-service},1651436300,752773
{consumergroup=adapter-service},1651436305,752773
{consumergroup=adapter-service},1651436310,739602
{consumergroup=adapter-service},1651436315,739602
{consumergroup=adapter-service},1651436320,739602
