labels,timestamp,value
{consumergroup=__strimzi-topic-operator-kstreams},1651317659,2
{consumergroup=__strimzi-topic-operator-kstreams},1651317664,2
{consumergroup=__strimzi-topic-operator-kstreams},1651317669,2
{consumergroup=__strimzi-topic-operator-kstreams},1651317674,11
{consumergroup=__strimzi-topic-operator-kstreams},1651317679,11
{consumergroup=__strimzi-topic-operator-kstreams},1651317684,11
{consumergroup=__strimzi-topic-operator-kstreams},1651317689,0
{consumergroup=__strimzi-topic-operator-kstreams},1651317694,0
{consumergroup=__strimzi-topic-operator-kstreams},1651317699,0
{consumergroup=__strimzi-topic-operator-kstreams},1651317704,0
{consumergroup=__strimzi-topic-operator-kstreams},1651317709,0
{consumergroup=__strimzi-topic-operator-kstreams},1651317714,0
{consumergroup=__strimzi-topic-operator-kstreams},1651317719,0
{consumergroup=__strimzi-topic-operator-kstreams},1651317724,0
{consumergroup=__strimzi-topic-operator-kstreams},1651317729,0
{consumergroup=__strimzi-topic-operator-kstreams},1651317734,0
{consumergroup=__strimzi-topic-operator-kstreams},1651317739,0
{consumergroup=__strimzi-topic-operator-kstreams},1651317744,0
{consumergroup=__strimzi-topic-operator-kstreams},1651317749,0
{consumergroup=__strimzi-topic-operator-kstreams},1651317754,0
{consumergroup=__strimzi-topic-operator-kstreams},1651317759,0
{consumergroup=__strimzi-topic-operator-kstreams},1651317764,0
{consumergroup=__strimzi-topic-operator-kstreams},1651317769,0
{consumergroup=__strimzi-topic-operator-kstreams},1651317774,0
{consumergroup=__strimzi-topic-operator-kstreams},1651317779,0
{consumergroup=__strimzi-topic-operator-kstreams},1651317784,0
{consumergroup=__strimzi-topic-operator-kstreams},1651317789,0
{consumergroup=__strimzi-topic-operator-kstreams},1651317794,0
{consumergroup=__strimzi-topic-operator-kstreams},1651317799,0
{consumergroup=__strimzi-topic-operator-kstreams},1651317804,0
{consumergroup=__strimzi-topic-operator-kstreams},1651317809,0
{consumergroup=__strimzi-topic-operator-kstreams},1651317814,0
{consumergroup=__strimzi-topic-operator-kstreams},1651317819,0
{consumergroup=__strimzi-topic-operator-kstreams},1651317824,0
{consumergroup=__strimzi-topic-operator-kstreams},1651317829,0
{consumergroup=__strimzi-topic-operator-kstreams},1651317834,0
{consumergroup=__strimzi-topic-operator-kstreams},1651317839,0
{consumergroup=__strimzi-topic-operator-kstreams},1651317844,0
{consumergroup=__strimzi-topic-operator-kstreams},1651317849,0
{consumergroup=__strimzi-topic-operator-kstreams},1651317854,0
{consumergroup=__strimzi-topic-operator-kstreams},1651317859,0
{consumergroup=__strimzi-topic-operator-kstreams},1651317864,0
{consumergroup=__strimzi-topic-operator-kstreams},1651317869,0
{consumergroup=__strimzi-topic-operator-kstreams},1651317874,0
{consumergroup=__strimzi-topic-operator-kstreams},1651317879,0
{consumergroup=__strimzi-topic-operator-kstreams},1651317884,0
{consumergroup=__strimzi-topic-operator-kstreams},1651317889,0
{consumergroup=__strimzi-topic-operator-kstreams},1651317894,0
{consumergroup=__strimzi-topic-operator-kstreams},1651317899,0
{consumergroup=__strimzi-topic-operator-kstreams},1651317904,0
{consumergroup=__strimzi-topic-operator-kstreams},1651317909,0
{consumergroup=__strimzi-topic-operator-kstreams},1651317914,0
{consumergroup=__strimzi-topic-operator-kstreams},1651317919,0
{consumergroup=__strimzi-topic-operator-kstreams},1651317924,0
{consumergroup=__strimzi-topic-operator-kstreams},1651317929,0
{consumergroup=__strimzi-topic-operator-kstreams},1651317934,0
{consumergroup=__strimzi-topic-operator-kstreams},1651317939,0
{consumergroup=__strimzi-topic-operator-kstreams},1651317944,0
{consumergroup=__strimzi-topic-operator-kstreams},1651317949,0
{consumergroup=__strimzi-topic-operator-kstreams},1651317954,0
{consumergroup=__strimzi-topic-operator-kstreams},1651317959,0
{consumergroup=__strimzi-topic-operator-kstreams},1651317964,0
{consumergroup=__strimzi-topic-operator-kstreams},1651317969,0
{consumergroup=__strimzi-topic-operator-kstreams},1651317974,0
{consumergroup=__strimzi-topic-operator-kstreams},1651317979,0
{consumergroup=__strimzi-topic-operator-kstreams},1651317984,0
{consumergroup=__strimzi-topic-operator-kstreams},1651317989,0
{consumergroup=__strimzi-topic-operator-kstreams},1651317994,0
{consumergroup=__strimzi-topic-operator-kstreams},1651317999,0
{consumergroup=__strimzi-topic-operator-kstreams},1651318004,0
{consumergroup=__strimzi-topic-operator-kstreams},1651318009,0
{consumergroup=__strimzi-topic-operator-kstreams},1651318014,0
{consumergroup=__strimzi-topic-operator-kstreams},1651318019,0
{consumergroup=__strimzi-topic-operator-kstreams},1651318024,0
{consumergroup=__strimzi-topic-operator-kstreams},1651318029,0
{consumergroup=__strimzi-topic-operator-kstreams},1651318034,0
{consumergroup=__strimzi-topic-operator-kstreams},1651318039,0
{consumergroup=__strimzi-topic-operator-kstreams},1651318044,0
{consumergroup=__strimzi-topic-operator-kstreams},1651318049,0
{consumergroup=__strimzi-topic-operator-kstreams},1651318054,0
{consumergroup=__strimzi-topic-operator-kstreams},1651318059,0
{consumergroup=__strimzi-topic-operator-kstreams},1651318064,0
{consumergroup=__strimzi-topic-operator-kstreams},1651318069,0
{consumergroup=__strimzi-topic-operator-kstreams},1651318074,0
{consumergroup=__strimzi-topic-operator-kstreams},1651318079,0
{consumergroup=__strimzi-topic-operator-kstreams},1651318084,0
{consumergroup=__strimzi-topic-operator-kstreams},1651318089,0
{consumergroup=__strimzi-topic-operator-kstreams},1651318094,0
{consumergroup=__strimzi-topic-operator-kstreams},1651318099,0
{consumergroup=__strimzi-topic-operator-kstreams},1651318104,0
{consumergroup=__strimzi-topic-operator-kstreams},1651318109,0
{consumergroup=__strimzi-topic-operator-kstreams},1651318114,0
{consumergroup=__strimzi-topic-operator-kstreams},1651318119,0
{consumergroup=__strimzi-topic-operator-kstreams},1651318124,0
{consumergroup=__strimzi-topic-operator-kstreams},1651318129,0
{consumergroup=__strimzi-topic-operator-kstreams},1651318134,0
{consumergroup=__strimzi-topic-operator-kstreams},1651318139,0
{consumergroup=__strimzi-topic-operator-kstreams},1651318144,0
{consumergroup=__strimzi-topic-operator-kstreams},1651318149,0
{consumergroup=__strimzi-topic-operator-kstreams},1651318154,0
{consumergroup=__strimzi-topic-operator-kstreams},1651318159,0
{consumergroup=__strimzi-topic-operator-kstreams},1651318164,0
{consumergroup=__strimzi-topic-operator-kstreams},1651318169,0
{consumergroup=adapter-service},1651317704,12714
{consumergroup=adapter-service},1651317709,12714
{consumergroup=adapter-service},1651317714,12714
{consumergroup=adapter-service},1651317719,19174
{consumergroup=adapter-service},1651317724,19174
{consumergroup=adapter-service},1651317729,19174
{consumergroup=adapter-service},1651317734,10150
{consumergroup=adapter-service},1651317739,10150
{consumergroup=adapter-service},1651317744,10150
{consumergroup=adapter-service},1651317749,5158
{consumergroup=adapter-service},1651317754,5158
{consumergroup=adapter-service},1651317759,5158
{consumergroup=adapter-service},1651317764,8940
{consumergroup=adapter-service},1651317769,8940
{consumergroup=adapter-service},1651317774,8940
{consumergroup=adapter-service},1651317779,3626
{consumergroup=adapter-service},1651317784,3626
{consumergroup=adapter-service},1651317789,3626
{consumergroup=adapter-service},1651317794,3936
{consumergroup=adapter-service},1651317799,3936
{consumergroup=adapter-service},1651317804,3936
{consumergroup=adapter-service},1651317809,666
{consumergroup=adapter-service},1651317814,666
{consumergroup=adapter-service},1651317819,666
{consumergroup=adapter-service},1651317824,1769
{consumergroup=adapter-service},1651317829,1769
{consumergroup=adapter-service},1651317834,1769
{consumergroup=adapter-service},1651317839,10675
{consumergroup=adapter-service},1651317844,10675
{consumergroup=adapter-service},1651317849,10675
{consumergroup=adapter-service},1651317854,785
{consumergroup=adapter-service},1651317859,785
{consumergroup=adapter-service},1651317864,785
{consumergroup=adapter-service},1651317869,9332
{consumergroup=adapter-service},1651317874,9332
{consumergroup=adapter-service},1651317879,9332
{consumergroup=adapter-service},1651317884,181
{consumergroup=adapter-service},1651317889,181
{consumergroup=adapter-service},1651317894,181
{consumergroup=adapter-service},1651317899,7983
{consumergroup=adapter-service},1651317904,7983
{consumergroup=adapter-service},1651317909,7983
{consumergroup=adapter-service},1651317914,9810
{consumergroup=adapter-service},1651317919,9810
{consumergroup=adapter-service},1651317924,9810
{consumergroup=adapter-service},1651317929,7445
{consumergroup=adapter-service},1651317934,7445
{consumergroup=adapter-service},1651317939,7445
{consumergroup=adapter-service},1651317944,8635
{consumergroup=adapter-service},1651317949,8635
{consumergroup=adapter-service},1651317954,8635
{consumergroup=adapter-service},1651317959,6576
{consumergroup=adapter-service},1651317964,6576
{consumergroup=adapter-service},1651317969,6576
{consumergroup=adapter-service},1651317974,8346
{consumergroup=adapter-service},1651317979,8346
{consumergroup=adapter-service},1651317984,8346
{consumergroup=adapter-service},1651317989,4920
{consumergroup=adapter-service},1651317994,4920
{consumergroup=adapter-service},1651317999,4920
{consumergroup=adapter-service},1651318004,7269
{consumergroup=adapter-service},1651318009,7269
{consumergroup=adapter-service},1651318014,7269
{consumergroup=adapter-service},1651318019,3993
{consumergroup=adapter-service},1651318024,3993
{consumergroup=adapter-service},1651318029,3993
{consumergroup=adapter-service},1651318034,5784
{consumergroup=adapter-service},1651318039,5784
{consumergroup=adapter-service},1651318044,5784
{consumergroup=adapter-service},1651318049,3563
{consumergroup=adapter-service},1651318054,3563
{consumergroup=adapter-service},1651318059,3563
{consumergroup=adapter-service},1651318064,4803
{consumergroup=adapter-service},1651318069,4803
{consumergroup=adapter-service},1651318074,4803
{consumergroup=adapter-service},1651318079,2626
{consumergroup=adapter-service},1651318084,2626
{consumergroup=adapter-service},1651318089,2626
{consumergroup=adapter-service},1651318094,3909
{consumergroup=adapter-service},1651318099,3909
{consumergroup=adapter-service},1651318104,3909
{consumergroup=adapter-service},1651318109,1041
{consumergroup=adapter-service},1651318114,1041
{consumergroup=adapter-service},1651318119,1041
{consumergroup=adapter-service},1651318124,3100
{consumergroup=adapter-service},1651318129,3100
{consumergroup=adapter-service},1651318134,3100
{consumergroup=adapter-service},1651318139,224
{consumergroup=adapter-service},1651318144,224
{consumergroup=adapter-service},1651318149,224
{consumergroup=adapter-service},1651318154,2098
{consumergroup=adapter-service},1651318159,2098
{consumergroup=adapter-service},1651318164,2098
{consumergroup=adapter-service},1651318169,125
{consumergroup=landscape-service},1651317719,4949
{consumergroup=landscape-service},1651317724,4949
{consumergroup=landscape-service},1651317729,4949
{consumergroup=landscape-service},1651317734,3226
{consumergroup=landscape-service},1651317739,3226
{consumergroup=landscape-service},1651317744,3226
{consumergroup=landscape-service},1651317749,1715
{consumergroup=landscape-service},1651317754,1715
{consumergroup=landscape-service},1651317759,1715
{consumergroup=landscape-service},1651317764,6110
{consumergroup=landscape-service},1651317769,6110
{consumergroup=landscape-service},1651317774,6110
{consumergroup=landscape-service},1651317779,1100
{consumergroup=landscape-service},1651317784,1100
{consumergroup=landscape-service},1651317789,1100
{consumergroup=landscape-service},1651317794,2962
{consumergroup=landscape-service},1651317799,2962
{consumergroup=landscape-service},1651317804,2962
{consumergroup=landscape-service},1651317809,358
{consumergroup=landscape-service},1651317814,358
{consumergroup=landscape-service},1651317819,358
{consumergroup=landscape-service},1651317824,2733
{consumergroup=landscape-service},1651317829,2733
{consumergroup=landscape-service},1651317834,2733
{consumergroup=landscape-service},1651317839,184
{consumergroup=landscape-service},1651317844,184
{consumergroup=landscape-service},1651317849,184
{consumergroup=landscape-service},1651317854,3053
{consumergroup=landscape-service},1651317859,3053
{consumergroup=landscape-service},1651317864,3053
{consumergroup=landscape-service},1651317869,593
{consumergroup=landscape-service},1651317874,593
{consumergroup=landscape-service},1651317879,593
{consumergroup=landscape-service},1651317884,2199
{consumergroup=landscape-service},1651317889,2199
{consumergroup=landscape-service},1651317894,2199
{consumergroup=landscape-service},1651317914,1834
{consumergroup=landscape-service},1651317919,1834
{consumergroup=landscape-service},1651317924,1834
{consumergroup=landscape-service},1651317944,1833
{consumergroup=landscape-service},1651317949,1833
{consumergroup=landscape-service},1651317954,1833
{consumergroup=landscape-service},1651317959,9956
{consumergroup=landscape-service},1651317964,9956
{consumergroup=landscape-service},1651317969,9956
{consumergroup=landscape-service},1651317974,878
{consumergroup=landscape-service},1651317979,878
{consumergroup=landscape-service},1651317984,878
{consumergroup=landscape-service},1651317989,10362
{consumergroup=landscape-service},1651317994,10362
{consumergroup=landscape-service},1651317999,10362
{consumergroup=landscape-service},1651318004,675
{consumergroup=landscape-service},1651318009,675
{consumergroup=landscape-service},1651318014,675
{consumergroup=landscape-service},1651318019,9445
{consumergroup=landscape-service},1651318024,9445
{consumergroup=landscape-service},1651318029,9445
{consumergroup=landscape-service},1651318034,1225
{consumergroup=landscape-service},1651318039,1225
{consumergroup=landscape-service},1651318044,1225
{consumergroup=landscape-service},1651318049,9137
{consumergroup=landscape-service},1651318054,9137
{consumergroup=landscape-service},1651318059,9137
{consumergroup=landscape-service},1651318064,1407
{consumergroup=landscape-service},1651318069,1407
{consumergroup=landscape-service},1651318074,1407
{consumergroup=landscape-service},1651318079,9244
{consumergroup=landscape-service},1651318084,9244
{consumergroup=landscape-service},1651318089,9244
{consumergroup=landscape-service},1651318094,183
{consumergroup=landscape-service},1651318099,183
{consumergroup=landscape-service},1651318104,183
{consumergroup=landscape-service},1651318109,8572
{consumergroup=landscape-service},1651318114,8572
{consumergroup=landscape-service},1651318119,8572
{consumergroup=landscape-service},1651318124,11231
{consumergroup=landscape-service},1651318129,11231
{consumergroup=landscape-service},1651318134,11231
{consumergroup=landscape-service},1651318139,8007
{consumergroup=landscape-service},1651318144,8007
{consumergroup=landscape-service},1651318149,8007
{consumergroup=landscape-service},1651318154,10394
{consumergroup=landscape-service},1651318159,10394
{consumergroup=landscape-service},1651318164,10394
{consumergroup=landscape-service},1651318169,8092
{consumergroup=trace-service},1651317704,2119
{consumergroup=trace-service},1651317709,2119
{consumergroup=trace-service},1651317714,2119
{consumergroup=trace-service},1651317719,23072
{consumergroup=trace-service},1651317724,23072
{consumergroup=trace-service},1651317729,23072
{consumergroup=trace-service},1651317734,39699
{consumergroup=trace-service},1651317739,39699
{consumergroup=trace-service},1651317744,39699
{consumergroup=trace-service},1651317749,9366
{consumergroup=trace-service},1651317754,9366
{consumergroup=trace-service},1651317759,9366
{consumergroup=trace-service},1651317764,30248
{consumergroup=trace-service},1651317769,30248
{consumergroup=trace-service},1651317774,30248
{consumergroup=trace-service},1651317779,10013
{consumergroup=trace-service},1651317784,10013
{consumergroup=trace-service},1651317789,10013
{consumergroup=trace-service},1651317794,37981
{consumergroup=trace-service},1651317799,37981
{consumergroup=trace-service},1651317804,37981
{consumergroup=trace-service},1651317809,16497
{consumergroup=trace-service},1651317814,16497
{consumergroup=trace-service},1651317819,16497
{consumergroup=trace-service},1651317824,28134
{consumergroup=trace-service},1651317829,28134
{consumergroup=trace-service},1651317834,28134
{consumergroup=trace-service},1651317839,21948
{consumergroup=trace-service},1651317844,21948
{consumergroup=trace-service},1651317849,21948
{consumergroup=trace-service},1651317854,26488
{consumergroup=trace-service},1651317859,26488
{consumergroup=trace-service},1651317864,26488
{consumergroup=trace-service},1651317869,22552
{consumergroup=trace-service},1651317874,22552
{consumergroup=trace-service},1651317879,22552
{consumergroup=trace-service},1651317884,27456
{consumergroup=trace-service},1651317889,27456
{consumergroup=trace-service},1651317894,27456
{consumergroup=trace-service},1651317899,15874
{consumergroup=trace-service},1651317904,15874
{consumergroup=trace-service},1651317909,15874
{consumergroup=trace-service},1651317914,37765
{consumergroup=trace-service},1651317919,37765
{consumergroup=trace-service},1651317924,37765
{consumergroup=trace-service},1651317929,10294
{consumergroup=trace-service},1651317934,10294
{consumergroup=trace-service},1651317939,10294
{consumergroup=trace-service},1651317944,26663
{consumergroup=trace-service},1651317949,26663
{consumergroup=trace-service},1651317954,26663
{consumergroup=trace-service},1651317959,10482
{consumergroup=trace-service},1651317964,10482
{consumergroup=trace-service},1651317969,10482
{consumergroup=trace-service},1651317974,27122
{consumergroup=trace-service},1651317979,27122
{consumergroup=trace-service},1651317984,27122
{consumergroup=trace-service},1651317989,14082
{consumergroup=trace-service},1651317994,14082
{consumergroup=trace-service},1651317999,14082
{consumergroup=trace-service},1651318004,27854
{consumergroup=trace-service},1651318009,27854
{consumergroup=trace-service},1651318014,27854
{consumergroup=trace-service},1651318019,18449
{consumergroup=trace-service},1651318024,18449
{consumergroup=trace-service},1651318029,18449
{consumergroup=trace-service},1651318034,26841
{consumergroup=trace-service},1651318039,26841
{consumergroup=trace-service},1651318044,26841
{consumergroup=trace-service},1651318049,22125
{consumergroup=trace-service},1651318054,22125
{consumergroup=trace-service},1651318059,22125
{consumergroup=trace-service},1651318064,35713
{consumergroup=trace-service},1651318069,35713
{consumergroup=trace-service},1651318074,35713
{consumergroup=trace-service},1651318079,93887
{consumergroup=trace-service},1651318084,93887
{consumergroup=trace-service},1651318089,93887
{consumergroup=trace-service},1651318094,40467
{consumergroup=trace-service},1651318099,40467
{consumergroup=trace-service},1651318104,40467
{consumergroup=trace-service},1651318109,11660
{consumergroup=trace-service},1651318114,11660
{consumergroup=trace-service},1651318119,11660
{consumergroup=trace-service},1651318124,41446
{consumergroup=trace-service},1651318129,41446
{consumergroup=trace-service},1651318134,41446
{consumergroup=trace-service},1651318139,10612
{consumergroup=trace-service},1651318144,10612
{consumergroup=trace-service},1651318149,10612
{consumergroup=trace-service},1651318154,38606
{consumergroup=trace-service},1651318159,38606
{consumergroup=trace-service},1651318164,38606
{consumergroup=trace-service},1651318169,13417
{consumergroup=trace-token-events-consumer},1651317689,0
{consumergroup=trace-token-events-consumer},1651317694,0
{consumergroup=trace-token-events-consumer},1651317699,0
{consumergroup=trace-token-events-consumer},1651317704,0
{consumergroup=trace-token-events-consumer},1651317709,0
{consumergroup=trace-token-events-consumer},1651317714,0
{consumergroup=trace-token-events-consumer},1651317719,0
{consumergroup=trace-token-events-consumer},1651317724,0
{consumergroup=trace-token-events-consumer},1651317729,0
{consumergroup=trace-token-events-consumer},1651317734,0
{consumergroup=trace-token-events-consumer},1651317739,0
{consumergroup=trace-token-events-consumer},1651317744,0
{consumergroup=trace-token-events-consumer},1651317749,0
{consumergroup=trace-token-events-consumer},1651317754,0
{consumergroup=trace-token-events-consumer},1651317759,0
{consumergroup=trace-token-events-consumer},1651317764,0
{consumergroup=trace-token-events-consumer},1651317769,0
{consumergroup=trace-token-events-consumer},1651317774,0
{consumergroup=trace-token-events-consumer},1651317779,0
{consumergroup=trace-token-events-consumer},1651317784,0
{consumergroup=trace-token-events-consumer},1651317789,0
{consumergroup=trace-token-events-consumer},1651317794,0
{consumergroup=trace-token-events-consumer},1651317799,0
{consumergroup=trace-token-events-consumer},1651317804,0
{consumergroup=trace-token-events-consumer},1651317809,0
{consumergroup=trace-token-events-consumer},1651317814,0
{consumergroup=trace-token-events-consumer},1651317819,0
{consumergroup=trace-token-events-consumer},1651317824,0
{consumergroup=trace-token-events-consumer},1651317829,0
{consumergroup=trace-token-events-consumer},1651317834,0
{consumergroup=trace-token-events-consumer},1651317839,0
{consumergroup=trace-token-events-consumer},1651317844,0
{consumergroup=trace-token-events-consumer},1651317849,0
{consumergroup=trace-token-events-consumer},1651317854,0
{consumergroup=trace-token-events-consumer},1651317859,0
{consumergroup=trace-token-events-consumer},1651317864,0
{consumergroup=trace-token-events-consumer},1651317869,0
{consumergroup=trace-token-events-consumer},1651317874,0
{consumergroup=trace-token-events-consumer},1651317879,0
{consumergroup=trace-token-events-consumer},1651317884,0
{consumergroup=trace-token-events-consumer},1651317889,0
{consumergroup=trace-token-events-consumer},1651317894,0
{consumergroup=trace-token-events-consumer},1651317899,0
{consumergroup=trace-token-events-consumer},1651317904,0
{consumergroup=trace-token-events-consumer},1651317909,0
{consumergroup=trace-token-events-consumer},1651317914,0
{consumergroup=trace-token-events-consumer},1651317919,0
{consumergroup=trace-token-events-consumer},1651317924,0
{consumergroup=trace-token-events-consumer},1651317929,0
{consumergroup=trace-token-events-consumer},1651317934,0
{consumergroup=trace-token-events-consumer},1651317939,0
{consumergroup=trace-token-events-consumer},1651317944,0
{consumergroup=trace-token-events-consumer},1651317949,0
{consumergroup=trace-token-events-consumer},1651317954,0
{consumergroup=trace-token-events-consumer},1651317959,0
{consumergroup=trace-token-events-consumer},1651317964,0
{consumergroup=trace-token-events-consumer},1651317969,0
{consumergroup=trace-token-events-consumer},1651317974,0
{consumergroup=trace-token-events-consumer},1651317979,0
{consumergroup=trace-token-events-consumer},1651317984,0
{consumergroup=trace-token-events-consumer},1651317989,0
{consumergroup=trace-token-events-consumer},1651317994,0
{consumergroup=trace-token-events-consumer},1651317999,0
{consumergroup=trace-token-events-consumer},1651318004,0
{consumergroup=trace-token-events-consumer},1651318009,0
{consumergroup=trace-token-events-consumer},1651318014,0
{consumergroup=trace-token-events-consumer},1651318019,0
{consumergroup=trace-token-events-consumer},1651318024,0
{consumergroup=trace-token-events-consumer},1651318029,0
{consumergroup=trace-token-events-consumer},1651318034,0
{consumergroup=trace-token-events-consumer},1651318039,0
{consumergroup=trace-token-events-consumer},1651318044,0
{consumergroup=trace-token-events-consumer},1651318049,0
{consumergroup=trace-token-events-consumer},1651318054,0
{consumergroup=trace-token-events-consumer},1651318059,0
{consumergroup=trace-token-events-consumer},1651318064,0
{consumergroup=trace-token-events-consumer},1651318069,0
{consumergroup=trace-token-events-consumer},1651318074,0
{consumergroup=trace-token-events-consumer},1651318079,0
{consumergroup=trace-token-events-consumer},1651318084,0
{consumergroup=trace-token-events-consumer},1651318089,0
{consumergroup=trace-token-events-consumer},1651318094,0
{consumergroup=trace-token-events-consumer},1651318099,0
{consumergroup=trace-token-events-consumer},1651318104,0
{consumergroup=trace-token-events-consumer},1651318109,0
{consumergroup=trace-token-events-consumer},1651318114,0
{consumergroup=trace-token-events-consumer},1651318119,0
{consumergroup=trace-token-events-consumer},1651318124,0
{consumergroup=trace-token-events-consumer},1651318129,0
{consumergroup=trace-token-events-consumer},1651318134,0
{consumergroup=trace-token-events-consumer},1651318139,0
{consumergroup=trace-token-events-consumer},1651318144,0
{consumergroup=trace-token-events-consumer},1651318149,0
{consumergroup=trace-token-events-consumer},1651318154,0
{consumergroup=trace-token-events-consumer},1651318159,0
{consumergroup=trace-token-events-consumer},1651318164,0
{consumergroup=trace-token-events-consumer},1651318169,0
