labels,timestamp,value
{consumergroup=__strimzi-topic-operator-kstreams},1651455513,18
{consumergroup=__strimzi-topic-operator-kstreams},1651455518,18
{consumergroup=__strimzi-topic-operator-kstreams},1651455523,18
{consumergroup=__strimzi-topic-operator-kstreams},1651455528,0
{consumergroup=__strimzi-topic-operator-kstreams},1651455533,0
{consumergroup=__strimzi-topic-operator-kstreams},1651455538,0
{consumergroup=__strimzi-topic-operator-kstreams},1651455543,0
{consumergroup=__strimzi-topic-operator-kstreams},1651455548,0
{consumergroup=__strimzi-topic-operator-kstreams},1651455553,0
{consumergroup=__strimzi-topic-operator-kstreams},1651455558,0
{consumergroup=__strimzi-topic-operator-kstreams},1651455563,0
{consumergroup=__strimzi-topic-operator-kstreams},1651455568,0
{consumergroup=__strimzi-topic-operator-kstreams},1651455573,0
{consumergroup=__strimzi-topic-operator-kstreams},1651455578,0
{consumergroup=__strimzi-topic-operator-kstreams},1651455583,0
{consumergroup=__strimzi-topic-operator-kstreams},1651455588,0
{consumergroup=__strimzi-topic-operator-kstreams},1651455593,0
{consumergroup=__strimzi-topic-operator-kstreams},1651455598,0
{consumergroup=__strimzi-topic-operator-kstreams},1651455603,0
{consumergroup=__strimzi-topic-operator-kstreams},1651455608,0
{consumergroup=__strimzi-topic-operator-kstreams},1651455613,0
{consumergroup=__strimzi-topic-operator-kstreams},1651455618,0
{consumergroup=__strimzi-topic-operator-kstreams},1651455623,0
{consumergroup=__strimzi-topic-operator-kstreams},1651455628,0
{consumergroup=__strimzi-topic-operator-kstreams},1651455633,0
{consumergroup=__strimzi-topic-operator-kstreams},1651455638,0
{consumergroup=__strimzi-topic-operator-kstreams},1651455643,0
{consumergroup=__strimzi-topic-operator-kstreams},1651455648,0
{consumergroup=__strimzi-topic-operator-kstreams},1651455653,0
{consumergroup=__strimzi-topic-operator-kstreams},1651455658,0
{consumergroup=__strimzi-topic-operator-kstreams},1651455663,0
{consumergroup=__strimzi-topic-operator-kstreams},1651455668,0
{consumergroup=__strimzi-topic-operator-kstreams},1651455673,0
{consumergroup=__strimzi-topic-operator-kstreams},1651455678,0
{consumergroup=__strimzi-topic-operator-kstreams},1651455683,0
{consumergroup=__strimzi-topic-operator-kstreams},1651455688,0
{consumergroup=__strimzi-topic-operator-kstreams},1651455693,0
{consumergroup=__strimzi-topic-operator-kstreams},1651455698,0
{consumergroup=__strimzi-topic-operator-kstreams},1651455703,0
{consumergroup=__strimzi-topic-operator-kstreams},1651455708,0
{consumergroup=__strimzi-topic-operator-kstreams},1651455713,0
{consumergroup=__strimzi-topic-operator-kstreams},1651455718,0
{consumergroup=__strimzi-topic-operator-kstreams},1651455723,0
{consumergroup=__strimzi-topic-operator-kstreams},1651455728,0
{consumergroup=__strimzi-topic-operator-kstreams},1651455733,0
{consumergroup=__strimzi-topic-operator-kstreams},1651455738,0
{consumergroup=__strimzi-topic-operator-kstreams},1651455743,0
{consumergroup=__strimzi-topic-operator-kstreams},1651455748,0
{consumergroup=__strimzi-topic-operator-kstreams},1651455753,0
{consumergroup=__strimzi-topic-operator-kstreams},1651455758,0
{consumergroup=adapter-service},1651455543,179733
{consumergroup=adapter-service},1651455548,179733
{consumergroup=adapter-service},1651455553,179733
{consumergroup=adapter-service},1651455558,406112
{consumergroup=adapter-service},1651455563,406112
{consumergroup=adapter-service},1651455568,406112
{consumergroup=adapter-service},1651455573,546047
{consumergroup=adapter-service},1651455578,546047
{consumergroup=adapter-service},1651455583,546047
{consumergroup=adapter-service},1651455588,693334
{consumergroup=adapter-service},1651455593,693334
{consumergroup=adapter-service},1651455598,693334
{consumergroup=adapter-service},1651455603,805304
{consumergroup=adapter-service},1651455608,805304
{consumergroup=adapter-service},1651455613,805304
{consumergroup=adapter-service},1651455618,882576
{consumergroup=adapter-service},1651455623,882576
{consumergroup=adapter-service},1651455628,882576
{consumergroup=adapter-service},1651455633,912537
{consumergroup=adapter-service},1651455638,912537
{consumergroup=adapter-service},1651455643,912537
{consumergroup=adapter-service},1651455648,925823
{consumergroup=adapter-service},1651455653,925823
{consumergroup=adapter-service},1651455658,925823
{consumergroup=adapter-service},1651455663,944722
{consumergroup=adapter-service},1651455668,944722
{consumergroup=adapter-service},1651455673,944722
{consumergroup=adapter-service},1651455678,944617
{consumergroup=adapter-service},1651455683,944617
{consumergroup=adapter-service},1651455688,944617
{consumergroup=adapter-service},1651455693,971120
{consumergroup=adapter-service},1651455698,971120
{consumergroup=adapter-service},1651455703,971120
{consumergroup=adapter-service},1651455708,976242
{consumergroup=adapter-service},1651455713,976242
{consumergroup=adapter-service},1651455718,976242
{consumergroup=adapter-service},1651455723,981588
{consumergroup=adapter-service},1651455728,981588
{consumergroup=adapter-service},1651455733,981588
{consumergroup=adapter-service},1651455738,990346
{consumergroup=adapter-service},1651455743,990346
{consumergroup=adapter-service},1651455748,990346
{consumergroup=adapter-service},1651455753,995242
{consumergroup=adapter-service},1651455758,995242
