labels,timestamp,value
{job=theodolite-stu200776/combined-trace-podmonitor},1651326234,0.10915825084052694
{job=theodolite-stu200776/combined-trace-podmonitor},1651326239,1.7084821005321844
{job=theodolite-stu200776/combined-trace-podmonitor},1651326244,2.9698578606017754
{job=theodolite-stu200776/combined-trace-podmonitor},1651326249,4.128068644951948
{job=theodolite-stu200776/combined-trace-podmonitor},1651326254,4.241193595988153
{job=theodolite-stu200776/combined-trace-podmonitor},1651326259,3.643640250604558
{job=theodolite-stu200776/combined-trace-podmonitor},1651326264,3.3408756369493458
{job=theodolite-stu200776/combined-trace-podmonitor},1651326269,2.947017739683673
{job=theodolite-stu200776/combined-trace-podmonitor},1651326274,2.350473136690143
{job=theodolite-stu200776/combined-trace-podmonitor},1651326279,0.602847026197286
{job=theodolite-stu200776/combined-trace-podmonitor},1651326284,0.018497280899707744
{job=theodolite-stu200776/combined-trace-podmonitor},1651326289,0
{job=theodolite-stu200776/combined-trace-podmonitor},1651326294,0
{job=theodolite-stu200776/combined-trace-podmonitor},1651326299,0
{job=theodolite-stu200776/combined-trace-podmonitor},1651326304,0
{job=theodolite-stu200776/combined-trace-podmonitor},1651326309,0
{job=theodolite-stu200776/combined-trace-podmonitor},1651326314,0
{job=theodolite-stu200776/combined-trace-podmonitor},1651326319,0
{job=theodolite-stu200776/combined-trace-podmonitor},1651326324,0
{job=theodolite-stu200776/combined-trace-podmonitor},1651326329,0
{job=theodolite-stu200776/combined-trace-podmonitor},1651326334,0
{job=theodolite-stu200776/combined-trace-podmonitor},1651326339,0
{job=theodolite-stu200776/combined-trace-podmonitor},1651326344,0
{job=theodolite-stu200776/combined-trace-podmonitor},1651326349,0
{job=theodolite-stu200776/combined-trace-podmonitor},1651326354,0
{job=theodolite-stu200776/combined-trace-podmonitor},1651326359,0
{job=theodolite-stu200776/combined-trace-podmonitor},1651326364,0
{job=theodolite-stu200776/combined-trace-podmonitor},1651326369,0
{job=theodolite-stu200776/combined-trace-podmonitor},1651326374,0
{job=theodolite-stu200776/combined-trace-podmonitor},1651326379,0
{job=theodolite-stu200776/combined-trace-podmonitor},1651326384,0
{job=theodolite-stu200776/combined-trace-podmonitor},1651326389,0
{job=theodolite-stu200776/combined-trace-podmonitor},1651326394,0
{job=theodolite-stu200776/combined-trace-podmonitor},1651326399,0
{job=theodolite-stu200776/combined-trace-podmonitor},1651326404,0
{job=theodolite-stu200776/combined-trace-podmonitor},1651326409,0
{job=theodolite-stu200776/combined-trace-podmonitor},1651326414,0
{job=theodolite-stu200776/combined-trace-podmonitor},1651326419,0
{job=theodolite-stu200776/combined-trace-podmonitor},1651326424,0
{job=theodolite-stu200776/combined-trace-podmonitor},1651326429,0
{job=theodolite-stu200776/combined-trace-podmonitor},1651326434,0
{job=theodolite-stu200776/combined-trace-podmonitor},1651326439,0
{job=theodolite-stu200776/combined-trace-podmonitor},1651326444,0
{job=theodolite-stu200776/combined-trace-podmonitor},1651326449,0
{job=theodolite-stu200776/combined-trace-podmonitor},1651326454,0
{job=theodolite-stu200776/combined-trace-podmonitor},1651326459,0
{job=theodolite-stu200776/combined-trace-podmonitor},1651326464,0
{job=theodolite-stu200776/combined-trace-podmonitor},1651326469,0
{job=theodolite-stu200776/combined-trace-podmonitor},1651326474,0
{job=theodolite-stu200776/combined-trace-podmonitor},1651326479,0
{job=theodolite-stu200776/combined-trace-podmonitor},1651326484,0
{job=theodolite-stu200776/combined-trace-podmonitor},1651326489,0
{job=theodolite-stu200776/combined-trace-podmonitor},1651326494,0
{job=theodolite-stu200776/combined-trace-podmonitor},1651326499,0
{job=theodolite-stu200776/combined-trace-podmonitor},1651326504,0
{job=theodolite-stu200776/combined-trace-podmonitor},1651326509,0
{job=theodolite-stu200776/combined-trace-podmonitor},1651326514,0
{job=theodolite-stu200776/combined-trace-podmonitor},1651326519,0
{job=theodolite-stu200776/combined-trace-podmonitor},1651326524,0
{job=theodolite-stu200776/combined-trace-podmonitor},1651326529,0
{job=theodolite-stu200776/combined-trace-podmonitor},1651326534,0
{job=theodolite-stu200776/combined-trace-podmonitor},1651326539,0
{job=theodolite-stu200776/combined-trace-podmonitor},1651326544,0
{job=theodolite-stu200776/combined-trace-podmonitor},1651326549,368.99920451890154
{job=theodolite-stu200776/combined-trace-podmonitor},1651326554,1185.0629440119935
{job=theodolite-stu200776/combined-trace-podmonitor},1651326559,2002.6316094019646
{job=theodolite-stu200776/combined-trace-podmonitor},1651326564,2138.1056484077344
{job=theodolite-stu200776/combined-trace-podmonitor},1651326569,1998.165107039794
{job=theodolite-stu200776/combined-trace-podmonitor},1651326574,1892.3676381334492
{job=theodolite-stu200776/combined-trace-podmonitor},1651326579,2154.254971702323
{job=theodolite-stu200776/combined-trace-podmonitor},1651326584,2411.0884596982105
{job=theodolite-stu200776/combined-trace-podmonitor},1651326589,2265.268228710572
{job=theodolite-stu200776/combined-trace-podmonitor},1651326594,1971.0201588294105
{job=theodolite-stu200776/combined-trace-podmonitor},1651326599,1649.8965021243666
{job=theodolite-stu200776/combined-trace-podmonitor},1651326604,1381.8707043956072
{job=theodolite-stu200776/combined-trace-podmonitor},1651326609,797.830121781772
{job=theodolite-stu200776/combined-trace-podmonitor},1651326614,257.53019180328823
{job=theodolite-stu200776/combined-trace-podmonitor},1651326619,0
{job=theodolite-stu200776/combined-trace-podmonitor},1651326624,0
{job=theodolite-stu200776/combined-trace-podmonitor},1651326629,0
{job=theodolite-stu200776/combined-trace-podmonitor},1651326634,55.77431664661409
{job=theodolite-stu200776/combined-trace-podmonitor},1651326639,908.5297046066848
{job=theodolite-stu200776/combined-trace-podmonitor},1651326644,1640.8026823734324
{job=theodolite-stu200776/combined-trace-podmonitor},1651326649,1627.5559068795528
{job=theodolite-stu200776/combined-trace-podmonitor},1651326654,1485.4881680930228
{job=theodolite-stu200776/combined-trace-podmonitor},1651326659,1387.250754442658
{job=theodolite-stu200776/combined-trace-podmonitor},1651326664,1302.815834283074
{job=theodolite-stu200776/combined-trace-podmonitor},1651326669,1187.0095434832435
{job=theodolite-stu200776/combined-trace-podmonitor},1651326674,972.617742097374
