labels,timestamp,value
{consumergroup=__strimzi-topic-operator-kstreams},1651433098,8
{consumergroup=__strimzi-topic-operator-kstreams},1651433103,8
{consumergroup=__strimzi-topic-operator-kstreams},1651433108,8
{consumergroup=__strimzi-topic-operator-kstreams},1651433113,0
{consumergroup=__strimzi-topic-operator-kstreams},1651433118,0
{consumergroup=__strimzi-topic-operator-kstreams},1651433123,0
{consumergroup=__strimzi-topic-operator-kstreams},1651433128,0
{consumergroup=__strimzi-topic-operator-kstreams},1651433133,0
{consumergroup=__strimzi-topic-operator-kstreams},1651433138,0
{consumergroup=__strimzi-topic-operator-kstreams},1651433143,0
{consumergroup=__strimzi-topic-operator-kstreams},1651433148,0
{consumergroup=__strimzi-topic-operator-kstreams},1651433153,0
{consumergroup=__strimzi-topic-operator-kstreams},1651433158,0
{consumergroup=__strimzi-topic-operator-kstreams},1651433163,0
{consumergroup=__strimzi-topic-operator-kstreams},1651433168,0
{consumergroup=__strimzi-topic-operator-kstreams},1651433173,0
{consumergroup=__strimzi-topic-operator-kstreams},1651433178,0
{consumergroup=__strimzi-topic-operator-kstreams},1651433183,0
{consumergroup=__strimzi-topic-operator-kstreams},1651433188,0
{consumergroup=__strimzi-topic-operator-kstreams},1651433193,0
{consumergroup=__strimzi-topic-operator-kstreams},1651433198,0
{consumergroup=__strimzi-topic-operator-kstreams},1651433203,0
{consumergroup=__strimzi-topic-operator-kstreams},1651433208,0
{consumergroup=__strimzi-topic-operator-kstreams},1651433213,0
{consumergroup=__strimzi-topic-operator-kstreams},1651433218,0
{consumergroup=__strimzi-topic-operator-kstreams},1651433223,0
{consumergroup=__strimzi-topic-operator-kstreams},1651433228,0
{consumergroup=__strimzi-topic-operator-kstreams},1651433233,0
{consumergroup=__strimzi-topic-operator-kstreams},1651433238,0
{consumergroup=__strimzi-topic-operator-kstreams},1651433243,0
{consumergroup=__strimzi-topic-operator-kstreams},1651433248,0
{consumergroup=__strimzi-topic-operator-kstreams},1651433253,0
{consumergroup=__strimzi-topic-operator-kstreams},1651433258,0
{consumergroup=__strimzi-topic-operator-kstreams},1651433263,0
{consumergroup=__strimzi-topic-operator-kstreams},1651433268,0
{consumergroup=__strimzi-topic-operator-kstreams},1651433273,0
{consumergroup=__strimzi-topic-operator-kstreams},1651433278,0
{consumergroup=__strimzi-topic-operator-kstreams},1651433283,0
{consumergroup=__strimzi-topic-operator-kstreams},1651433288,0
{consumergroup=__strimzi-topic-operator-kstreams},1651433293,0
{consumergroup=__strimzi-topic-operator-kstreams},1651433298,0
{consumergroup=__strimzi-topic-operator-kstreams},1651433303,0
{consumergroup=__strimzi-topic-operator-kstreams},1651433308,0
{consumergroup=__strimzi-topic-operator-kstreams},1651433313,0
{consumergroup=__strimzi-topic-operator-kstreams},1651433318,0
{consumergroup=__strimzi-topic-operator-kstreams},1651433323,0
{consumergroup=__strimzi-topic-operator-kstreams},1651433328,0
{consumergroup=__strimzi-topic-operator-kstreams},1651433333,0
{consumergroup=__strimzi-topic-operator-kstreams},1651433338,0
{consumergroup=__strimzi-topic-operator-kstreams},1651433343,0
{consumergroup=__strimzi-topic-operator-kstreams},1651433348,0
{consumergroup=__strimzi-topic-operator-kstreams},1651433353,0
{consumergroup=adapter-service},1651433128,0
{consumergroup=adapter-service},1651433133,0
{consumergroup=adapter-service},1651433138,0
{consumergroup=adapter-service},1651433143,49534
{consumergroup=adapter-service},1651433148,49534
{consumergroup=adapter-service},1651433153,49534
{consumergroup=adapter-service},1651433158,87160
{consumergroup=adapter-service},1651433163,87160
{consumergroup=adapter-service},1651433168,87160
{consumergroup=adapter-service},1651433173,117963
{consumergroup=adapter-service},1651433178,117963
{consumergroup=adapter-service},1651433183,117963
{consumergroup=adapter-service},1651433188,147069
{consumergroup=adapter-service},1651433193,147069
{consumergroup=adapter-service},1651433198,147069
{consumergroup=adapter-service},1651433203,172391
{consumergroup=adapter-service},1651433208,172391
{consumergroup=adapter-service},1651433213,172391
{consumergroup=adapter-service},1651433218,192141
{consumergroup=adapter-service},1651433223,192141
{consumergroup=adapter-service},1651433228,192141
{consumergroup=adapter-service},1651433233,207049
{consumergroup=adapter-service},1651433238,207049
{consumergroup=adapter-service},1651433243,207049
{consumergroup=adapter-service},1651433248,216847
{consumergroup=adapter-service},1651433253,216847
{consumergroup=adapter-service},1651433258,216847
{consumergroup=adapter-service},1651433263,227561
{consumergroup=adapter-service},1651433268,227561
{consumergroup=adapter-service},1651433273,227561
{consumergroup=adapter-service},1651433278,243520
{consumergroup=adapter-service},1651433283,243520
{consumergroup=adapter-service},1651433288,243520
{consumergroup=adapter-service},1651433293,250366
{consumergroup=adapter-service},1651433298,250366
{consumergroup=adapter-service},1651433303,250366
{consumergroup=adapter-service},1651433308,254084
{consumergroup=adapter-service},1651433313,254084
{consumergroup=adapter-service},1651433318,254084
{consumergroup=adapter-service},1651433323,258245
{consumergroup=adapter-service},1651433328,258245
{consumergroup=adapter-service},1651433333,258245
{consumergroup=adapter-service},1651433338,261554
{consumergroup=adapter-service},1651433343,261554
{consumergroup=adapter-service},1651433348,261554
{consumergroup=adapter-service},1651433353,265969
