labels,timestamp,value
{job=theodolite-stu200776/combined-trace-podmonitor},1651333615,0
{job=theodolite-stu200776/combined-trace-podmonitor},1651333620,0
{job=theodolite-stu200776/combined-trace-podmonitor},1651333625,0
{job=theodolite-stu200776/combined-trace-podmonitor},1651333630,0
{job=theodolite-stu200776/combined-trace-podmonitor},1651333635,0
{job=theodolite-stu200776/combined-trace-podmonitor},1651333640,10.827199608224134
{job=theodolite-stu200776/combined-trace-podmonitor},1651333645,29.97229107483198
{job=theodolite-stu200776/combined-trace-podmonitor},1651333650,38.53335234648563
{job=theodolite-stu200776/combined-trace-podmonitor},1651333655,50.630856846670774
{job=theodolite-stu200776/combined-trace-podmonitor},1651333660,56.35036418274995
{job=theodolite-stu200776/combined-trace-podmonitor},1651333665,51.66980008190661
{job=theodolite-stu200776/combined-trace-podmonitor},1651333670,51.13273355242822
{job=theodolite-stu200776/combined-trace-podmonitor},1651333675,46.16743285293624
{job=theodolite-stu200776/combined-trace-podmonitor},1651333680,34.88274492853378
{job=theodolite-stu200776/combined-trace-podmonitor},1651333685,18.992221379788784
{job=theodolite-stu200776/combined-trace-podmonitor},1651333690,12.164778068339356
{job=theodolite-stu200776/combined-trace-podmonitor},1651333695,9.08689006199256
{job=theodolite-stu200776/combined-trace-podmonitor},1651333700,3.3955789016372084
{job=theodolite-stu200776/combined-trace-podmonitor},1651333705,0.8846734940352964
{job=theodolite-stu200776/combined-trace-podmonitor},1651333710,0.1174142037639639
{job=theodolite-stu200776/combined-trace-podmonitor},1651333715,0
{job=theodolite-stu200776/combined-trace-podmonitor},1651333720,0
{job=theodolite-stu200776/combined-trace-podmonitor},1651333725,0
{job=theodolite-stu200776/combined-trace-podmonitor},1651333730,103.67803128821443
{job=theodolite-stu200776/combined-trace-podmonitor},1651333735,230.33762841606992
{job=theodolite-stu200776/combined-trace-podmonitor},1651333740,254.28758265089954
{job=theodolite-stu200776/combined-trace-podmonitor},1651333745,244.68763282137098
{job=theodolite-stu200776/combined-trace-podmonitor},1651333750,231.2408093738506
{job=theodolite-stu200776/combined-trace-podmonitor},1651333755,224.63275771155975
{job=theodolite-stu200776/combined-trace-podmonitor},1651333760,266.8702559393695
{job=theodolite-stu200776/combined-trace-podmonitor},1651333765,315.32603177077135
{job=theodolite-stu200776/combined-trace-podmonitor},1651333770,266.16241203865354
{job=theodolite-stu200776/combined-trace-podmonitor},1651333775,224.20978934823475
{job=theodolite-stu200776/combined-trace-podmonitor},1651333780,200.88061160939066
{job=theodolite-stu200776/combined-trace-podmonitor},1651333785,180.0140152552312
{job=theodolite-stu200776/combined-trace-podmonitor},1651333790,103.06441958880863
{job=theodolite-stu200776/combined-trace-podmonitor},1651333795,6.976267165948849
{job=theodolite-stu200776/combined-trace-podmonitor},1651333800,0
{job=theodolite-stu200776/combined-trace-podmonitor},1651333805,0
{job=theodolite-stu200776/combined-trace-podmonitor},1651333810,0
{job=theodolite-stu200776/combined-trace-podmonitor},1651333815,0
{job=theodolite-stu200776/combined-trace-podmonitor},1651333820,0
{job=theodolite-stu200776/combined-trace-podmonitor},1651333825,0
{job=theodolite-stu200776/combined-trace-podmonitor},1651333830,0
{job=theodolite-stu200776/combined-trace-podmonitor},1651333835,0
{job=theodolite-stu200776/combined-trace-podmonitor},1651333840,0
{job=theodolite-stu200776/combined-trace-podmonitor},1651333845,0
{job=theodolite-stu200776/combined-trace-podmonitor},1651333850,0
{job=theodolite-stu200776/combined-trace-podmonitor},1651333855,0
{job=theodolite-stu200776/combined-trace-podmonitor},1651333860,0
{job=theodolite-stu200776/combined-trace-podmonitor},1651333865,0
{job=theodolite-stu200776/combined-trace-podmonitor},1651333870,0
{job=theodolite-stu200776/combined-trace-podmonitor},1651333875,0
{job=theodolite-stu200776/combined-trace-podmonitor},1651333880,0
{job=theodolite-stu200776/combined-trace-podmonitor},1651333885,0
{job=theodolite-stu200776/combined-trace-podmonitor},1651333890,0
{job=theodolite-stu200776/combined-trace-podmonitor},1651333895,0
{job=theodolite-stu200776/combined-trace-podmonitor},1651333900,0
{job=theodolite-stu200776/combined-trace-podmonitor},1651333905,0
{job=theodolite-stu200776/combined-trace-podmonitor},1651333910,0
{job=theodolite-stu200776/combined-trace-podmonitor},1651333915,0
{job=theodolite-stu200776/combined-trace-podmonitor},1651333920,0
{job=theodolite-stu200776/combined-trace-podmonitor},1651333925,0
{job=theodolite-stu200776/combined-trace-podmonitor},1651333930,0
{job=theodolite-stu200776/combined-trace-podmonitor},1651333935,0
{job=theodolite-stu200776/combined-trace-podmonitor},1651333940,0
{job=theodolite-stu200776/combined-trace-podmonitor},1651333945,0
{job=theodolite-stu200776/combined-trace-podmonitor},1651333950,0
{job=theodolite-stu200776/combined-trace-podmonitor},1651333955,0
{job=theodolite-stu200776/combined-trace-podmonitor},1651333960,0
{job=theodolite-stu200776/combined-trace-podmonitor},1651333965,0
{job=theodolite-stu200776/combined-trace-podmonitor},1651333970,0
{job=theodolite-stu200776/combined-trace-podmonitor},1651333975,0
{job=theodolite-stu200776/combined-trace-podmonitor},1651333980,0
{job=theodolite-stu200776/combined-trace-podmonitor},1651333985,0
{job=theodolite-stu200776/combined-trace-podmonitor},1651333990,0
{job=theodolite-stu200776/combined-trace-podmonitor},1651333995,0
{job=theodolite-stu200776/combined-trace-podmonitor},1651334000,0
{job=theodolite-stu200776/combined-trace-podmonitor},1651334005,0
{job=theodolite-stu200776/combined-trace-podmonitor},1651334010,0
{job=theodolite-stu200776/combined-trace-podmonitor},1651334015,0
{job=theodolite-stu200776/combined-trace-podmonitor},1651334020,0
{job=theodolite-stu200776/combined-trace-podmonitor},1651334025,0
{job=theodolite-stu200776/combined-trace-podmonitor},1651334030,0
{job=theodolite-stu200776/combined-trace-podmonitor},1651334035,0
{job=theodolite-stu200776/combined-trace-podmonitor},1651334040,0
{job=theodolite-stu200776/combined-trace-podmonitor},1651334045,0
{job=theodolite-stu200776/combined-trace-podmonitor},1651334050,0
