labels,timestamp,value
{job=theodolite-stu200776/combined-trace-podmonitor},1651323160,5.435265221899536
{job=theodolite-stu200776/combined-trace-podmonitor},1651323165,25.606425766334215
{job=theodolite-stu200776/combined-trace-podmonitor},1651323170,54.93185616607432
{job=theodolite-stu200776/combined-trace-podmonitor},1651323175,50.596351327349666
{job=theodolite-stu200776/combined-trace-podmonitor},1651323180,44.26578956693144
{job=theodolite-stu200776/combined-trace-podmonitor},1651323185,41.83183164065197
{job=theodolite-stu200776/combined-trace-podmonitor},1651323190,62.07087715357067
{job=theodolite-stu200776/combined-trace-podmonitor},1651323195,79.91435127970655
{job=theodolite-stu200776/combined-trace-podmonitor},1651323200,88.71784772514877
{job=theodolite-stu200776/combined-trace-podmonitor},1651323205,81.97545890706898
{job=theodolite-stu200776/combined-trace-podmonitor},1651323210,70.27263627728134
{job=theodolite-stu200776/combined-trace-podmonitor},1651323215,65.92693131043424
{job=theodolite-stu200776/combined-trace-podmonitor},1651323220,39.97343806064248
{job=theodolite-stu200776/combined-trace-podmonitor},1651323225,19.81635994000304
{job=theodolite-stu200776/combined-trace-podmonitor},1651323230,0
{job=theodolite-stu200776/combined-trace-podmonitor},1651323235,0
{job=theodolite-stu200776/combined-trace-podmonitor},1651323240,0
{job=theodolite-stu200776/combined-trace-podmonitor},1651323245,0
{job=theodolite-stu200776/combined-trace-podmonitor},1651323250,0
{job=theodolite-stu200776/combined-trace-podmonitor},1651323255,0
{job=theodolite-stu200776/combined-trace-podmonitor},1651323260,0
{job=theodolite-stu200776/combined-trace-podmonitor},1651323265,0
{job=theodolite-stu200776/combined-trace-podmonitor},1651323270,0
{job=theodolite-stu200776/combined-trace-podmonitor},1651323275,0
{job=theodolite-stu200776/combined-trace-podmonitor},1651323280,0
{job=theodolite-stu200776/combined-trace-podmonitor},1651323285,0
{job=theodolite-stu200776/combined-trace-podmonitor},1651323290,0
{job=theodolite-stu200776/combined-trace-podmonitor},1651323295,0
{job=theodolite-stu200776/combined-trace-podmonitor},1651323300,0
{job=theodolite-stu200776/combined-trace-podmonitor},1651323305,0
{job=theodolite-stu200776/combined-trace-podmonitor},1651323310,0
{job=theodolite-stu200776/combined-trace-podmonitor},1651323315,0
{job=theodolite-stu200776/combined-trace-podmonitor},1651323320,0
{job=theodolite-stu200776/combined-trace-podmonitor},1651323325,0
{job=theodolite-stu200776/combined-trace-podmonitor},1651323330,0
{job=theodolite-stu200776/combined-trace-podmonitor},1651323335,0
{job=theodolite-stu200776/combined-trace-podmonitor},1651323340,0
{job=theodolite-stu200776/combined-trace-podmonitor},1651323345,0
{job=theodolite-stu200776/combined-trace-podmonitor},1651323350,0
{job=theodolite-stu200776/combined-trace-podmonitor},1651323355,0
{job=theodolite-stu200776/combined-trace-podmonitor},1651323360,0
{job=theodolite-stu200776/combined-trace-podmonitor},1651323365,0
{job=theodolite-stu200776/combined-trace-podmonitor},1651323370,0
{job=theodolite-stu200776/combined-trace-podmonitor},1651323375,0
{job=theodolite-stu200776/combined-trace-podmonitor},1651323380,0
{job=theodolite-stu200776/combined-trace-podmonitor},1651323385,0
{job=theodolite-stu200776/combined-trace-podmonitor},1651323390,0
{job=theodolite-stu200776/combined-trace-podmonitor},1651323395,0
{job=theodolite-stu200776/combined-trace-podmonitor},1651323400,0
{job=theodolite-stu200776/combined-trace-podmonitor},1651323405,0
{job=theodolite-stu200776/combined-trace-podmonitor},1651323410,0
{job=theodolite-stu200776/combined-trace-podmonitor},1651323415,0
{job=theodolite-stu200776/combined-trace-podmonitor},1651323420,0
{job=theodolite-stu200776/combined-trace-podmonitor},1651323425,266.3805391665557
{job=theodolite-stu200776/combined-trace-podmonitor},1651323430,1068.9468541945666
{job=theodolite-stu200776/combined-trace-podmonitor},1651323435,1141.23063480719
{job=theodolite-stu200776/combined-trace-podmonitor},1651323440,990.5495026196046
{job=theodolite-stu200776/combined-trace-podmonitor},1651323445,934.1067753447359
{job=theodolite-stu200776/combined-trace-podmonitor},1651323450,1281.900711949359
{job=theodolite-stu200776/combined-trace-podmonitor},1651323455,1423.0171197950738
{job=theodolite-stu200776/combined-trace-podmonitor},1651323460,1225.9710687453387
{job=theodolite-stu200776/combined-trace-podmonitor},1651323465,1141.3041620828067
{job=theodolite-stu200776/combined-trace-podmonitor},1651323470,990.5312015775103
{job=theodolite-stu200776/combined-trace-podmonitor},1651323475,934.0722926017212
{job=theodolite-stu200776/combined-trace-podmonitor},1651323480,612.4843559145586
{job=theodolite-stu200776/combined-trace-podmonitor},1651323485,330.27217120285343
{job=theodolite-stu200776/combined-trace-podmonitor},1651323490,0
{job=theodolite-stu200776/combined-trace-podmonitor},1651323495,0
{job=theodolite-stu200776/combined-trace-podmonitor},1651323500,0
{job=theodolite-stu200776/combined-trace-podmonitor},1651323505,0
{job=theodolite-stu200776/combined-trace-podmonitor},1651323510,0
{job=theodolite-stu200776/combined-trace-podmonitor},1651323515,0
{job=theodolite-stu200776/combined-trace-podmonitor},1651323520,0
{job=theodolite-stu200776/combined-trace-podmonitor},1651323525,0
{job=theodolite-stu200776/combined-trace-podmonitor},1651323530,0
{job=theodolite-stu200776/combined-trace-podmonitor},1651323535,0
{job=theodolite-stu200776/combined-trace-podmonitor},1651323540,0
{job=theodolite-stu200776/combined-trace-podmonitor},1651323545,0.01666694444907415
{job=theodolite-stu200776/combined-trace-podmonitor},1651323550,0.01666694444907415
{job=theodolite-stu200776/combined-trace-podmonitor},1651323555,0.023576564894494872
{job=theodolite-stu200776/combined-trace-podmonitor},1651323560,0.023576564894494872
{job=theodolite-stu200776/combined-trace-podmonitor},1651323565,0.019080328181644724
{job=theodolite-stu200776/combined-trace-podmonitor},1651323570,0.019080328181644724
{job=theodolite-stu200776/combined-trace-podmonitor},1651323575,0.03084801184563655
{job=theodolite-stu200776/combined-trace-podmonitor},1651323580,0.03084801184563655
{job=theodolite-stu200776/combined-trace-podmonitor},1651323585,0.023577676655742345
{job=theodolite-stu200776/combined-trace-podmonitor},1651323590,0.023577676655742345
{job=theodolite-stu200776/combined-trace-podmonitor},1651323595,0.01907960009158208
{job=theodolite-stu200776/combined-trace-podmonitor},1651323600,0.01907960009158208
