labels,timestamp,value
{consumergroup=__strimzi-topic-operator-kstreams},1651331680,0
{consumergroup=__strimzi-topic-operator-kstreams},1651331685,0
{consumergroup=__strimzi-topic-operator-kstreams},1651331690,0
{consumergroup=__strimzi-topic-operator-kstreams},1651331695,8
{consumergroup=__strimzi-topic-operator-kstreams},1651331700,8
{consumergroup=__strimzi-topic-operator-kstreams},1651331705,8
{consumergroup=__strimzi-topic-operator-kstreams},1651331710,0
{consumergroup=__strimzi-topic-operator-kstreams},1651331715,0
{consumergroup=__strimzi-topic-operator-kstreams},1651331720,0
{consumergroup=__strimzi-topic-operator-kstreams},1651331725,0
{consumergroup=__strimzi-topic-operator-kstreams},1651331730,0
{consumergroup=__strimzi-topic-operator-kstreams},1651331735,0
{consumergroup=__strimzi-topic-operator-kstreams},1651331740,0
{consumergroup=__strimzi-topic-operator-kstreams},1651331745,0
{consumergroup=__strimzi-topic-operator-kstreams},1651331750,0
{consumergroup=__strimzi-topic-operator-kstreams},1651331755,0
{consumergroup=__strimzi-topic-operator-kstreams},1651331760,0
{consumergroup=__strimzi-topic-operator-kstreams},1651331765,0
{consumergroup=__strimzi-topic-operator-kstreams},1651331770,0
{consumergroup=__strimzi-topic-operator-kstreams},1651331775,0
{consumergroup=__strimzi-topic-operator-kstreams},1651331780,0
{consumergroup=__strimzi-topic-operator-kstreams},1651331785,0
{consumergroup=__strimzi-topic-operator-kstreams},1651331790,0
{consumergroup=__strimzi-topic-operator-kstreams},1651331795,0
{consumergroup=__strimzi-topic-operator-kstreams},1651331800,0
{consumergroup=__strimzi-topic-operator-kstreams},1651331805,0
{consumergroup=__strimzi-topic-operator-kstreams},1651331810,0
{consumergroup=__strimzi-topic-operator-kstreams},1651331815,0
{consumergroup=__strimzi-topic-operator-kstreams},1651331820,0
{consumergroup=__strimzi-topic-operator-kstreams},1651331825,0
{consumergroup=__strimzi-topic-operator-kstreams},1651331830,0
{consumergroup=__strimzi-topic-operator-kstreams},1651331835,0
{consumergroup=__strimzi-topic-operator-kstreams},1651331840,0
{consumergroup=__strimzi-topic-operator-kstreams},1651331845,0
{consumergroup=__strimzi-topic-operator-kstreams},1651331850,0
{consumergroup=__strimzi-topic-operator-kstreams},1651331855,0
{consumergroup=__strimzi-topic-operator-kstreams},1651331860,0
{consumergroup=__strimzi-topic-operator-kstreams},1651331865,0
{consumergroup=__strimzi-topic-operator-kstreams},1651331870,0
{consumergroup=__strimzi-topic-operator-kstreams},1651331875,0
{consumergroup=__strimzi-topic-operator-kstreams},1651331880,0
{consumergroup=__strimzi-topic-operator-kstreams},1651331885,0
{consumergroup=__strimzi-topic-operator-kstreams},1651331890,0
{consumergroup=__strimzi-topic-operator-kstreams},1651331895,0
{consumergroup=__strimzi-topic-operator-kstreams},1651331900,0
{consumergroup=__strimzi-topic-operator-kstreams},1651331905,0
{consumergroup=__strimzi-topic-operator-kstreams},1651331910,0
{consumergroup=__strimzi-topic-operator-kstreams},1651331915,0
{consumergroup=__strimzi-topic-operator-kstreams},1651331920,0
{consumergroup=__strimzi-topic-operator-kstreams},1651331925,0
{consumergroup=__strimzi-topic-operator-kstreams},1651331930,0
{consumergroup=__strimzi-topic-operator-kstreams},1651331935,0
{consumergroup=__strimzi-topic-operator-kstreams},1651331940,0
{consumergroup=__strimzi-topic-operator-kstreams},1651331945,0
{consumergroup=__strimzi-topic-operator-kstreams},1651331950,0
{consumergroup=__strimzi-topic-operator-kstreams},1651331955,0
{consumergroup=__strimzi-topic-operator-kstreams},1651331960,0
{consumergroup=__strimzi-topic-operator-kstreams},1651331965,0
{consumergroup=__strimzi-topic-operator-kstreams},1651331970,0
{consumergroup=__strimzi-topic-operator-kstreams},1651331975,0
{consumergroup=__strimzi-topic-operator-kstreams},1651331980,0
{consumergroup=__strimzi-topic-operator-kstreams},1651331985,0
{consumergroup=__strimzi-topic-operator-kstreams},1651331990,0
{consumergroup=__strimzi-topic-operator-kstreams},1651331995,0
{consumergroup=__strimzi-topic-operator-kstreams},1651332000,0
{consumergroup=__strimzi-topic-operator-kstreams},1651332005,0
{consumergroup=__strimzi-topic-operator-kstreams},1651332010,0
{consumergroup=__strimzi-topic-operator-kstreams},1651332015,0
{consumergroup=__strimzi-topic-operator-kstreams},1651332020,0
{consumergroup=__strimzi-topic-operator-kstreams},1651332025,0
{consumergroup=__strimzi-topic-operator-kstreams},1651332030,0
{consumergroup=__strimzi-topic-operator-kstreams},1651332035,0
{consumergroup=__strimzi-topic-operator-kstreams},1651332040,0
{consumergroup=__strimzi-topic-operator-kstreams},1651332045,0
{consumergroup=__strimzi-topic-operator-kstreams},1651332050,0
{consumergroup=__strimzi-topic-operator-kstreams},1651332055,0
{consumergroup=__strimzi-topic-operator-kstreams},1651332060,0
{consumergroup=__strimzi-topic-operator-kstreams},1651332065,0
{consumergroup=__strimzi-topic-operator-kstreams},1651332070,0
{consumergroup=__strimzi-topic-operator-kstreams},1651332075,0
{consumergroup=__strimzi-topic-operator-kstreams},1651332080,0
{consumergroup=__strimzi-topic-operator-kstreams},1651332085,0
{consumergroup=__strimzi-topic-operator-kstreams},1651332090,0
{consumergroup=__strimzi-topic-operator-kstreams},1651332095,0
{consumergroup=__strimzi-topic-operator-kstreams},1651332100,0
{consumergroup=__strimzi-topic-operator-kstreams},1651332105,0
{consumergroup=__strimzi-topic-operator-kstreams},1651332110,0
{consumergroup=__strimzi-topic-operator-kstreams},1651332115,0
{consumergroup=__strimzi-topic-operator-kstreams},1651332120,0
{consumergroup=__strimzi-topic-operator-kstreams},1651332125,0
{consumergroup=__strimzi-topic-operator-kstreams},1651332130,0
{consumergroup=__strimzi-topic-operator-kstreams},1651332135,0
{consumergroup=__strimzi-topic-operator-kstreams},1651332140,0
{consumergroup=__strimzi-topic-operator-kstreams},1651332145,0
{consumergroup=__strimzi-topic-operator-kstreams},1651332150,0
{consumergroup=__strimzi-topic-operator-kstreams},1651332155,0
{consumergroup=__strimzi-topic-operator-kstreams},1651332160,0
{consumergroup=__strimzi-topic-operator-kstreams},1651332165,0
{consumergroup=__strimzi-topic-operator-kstreams},1651332170,0
{consumergroup=__strimzi-topic-operator-kstreams},1651332175,0
{consumergroup=__strimzi-topic-operator-kstreams},1651332180,0
{consumergroup=__strimzi-topic-operator-kstreams},1651332185,0
{consumergroup=adapter-service},1651331725,0
{consumergroup=adapter-service},1651331730,0
{consumergroup=adapter-service},1651331735,0
{consumergroup=adapter-service},1651331740,1163
{consumergroup=adapter-service},1651331745,1163
{consumergroup=adapter-service},1651331750,1163
{consumergroup=adapter-service},1651331755,14169
{consumergroup=adapter-service},1651331760,14169
{consumergroup=adapter-service},1651331765,14169
{consumergroup=adapter-service},1651331770,4186
{consumergroup=adapter-service},1651331775,4186
{consumergroup=adapter-service},1651331780,4186
{consumergroup=adapter-service},1651331785,12835
{consumergroup=adapter-service},1651331790,12835
{consumergroup=adapter-service},1651331795,12835
{consumergroup=adapter-service},1651331800,10627
{consumergroup=adapter-service},1651331805,10627
{consumergroup=adapter-service},1651331810,10627
{consumergroup=adapter-service},1651331815,12404
{consumergroup=adapter-service},1651331820,12404
{consumergroup=adapter-service},1651331825,12404
{consumergroup=adapter-service},1651331830,14223
{consumergroup=adapter-service},1651331835,14223
{consumergroup=adapter-service},1651331840,14223
{consumergroup=adapter-service},1651331845,12064
{consumergroup=adapter-service},1651331850,12064
{consumergroup=adapter-service},1651331855,12064
{consumergroup=adapter-service},1651331860,15512
{consumergroup=adapter-service},1651331865,15512
{consumergroup=adapter-service},1651331870,15512
{consumergroup=adapter-service},1651331875,11719
{consumergroup=adapter-service},1651331880,11719
{consumergroup=adapter-service},1651331885,11719
{consumergroup=adapter-service},1651331890,15115
{consumergroup=adapter-service},1651331895,15115
{consumergroup=adapter-service},1651331900,15115
{consumergroup=adapter-service},1651331905,11771
{consumergroup=adapter-service},1651331910,11771
{consumergroup=adapter-service},1651331915,11771
{consumergroup=adapter-service},1651331920,14972
{consumergroup=adapter-service},1651331925,14972
{consumergroup=adapter-service},1651331930,14972
{consumergroup=adapter-service},1651331935,10828
{consumergroup=adapter-service},1651331940,10828
{consumergroup=adapter-service},1651331945,10828
{consumergroup=adapter-service},1651331950,14421
{consumergroup=adapter-service},1651331955,14421
{consumergroup=adapter-service},1651331960,14421
{consumergroup=adapter-service},1651331965,10927
{consumergroup=adapter-service},1651331970,10927
{consumergroup=adapter-service},1651331975,10927
{consumergroup=adapter-service},1651331980,14087
{consumergroup=adapter-service},1651331985,14087
{consumergroup=adapter-service},1651331990,14087
{consumergroup=adapter-service},1651331995,10154
{consumergroup=adapter-service},1651332000,10154
{consumergroup=adapter-service},1651332005,10154
{consumergroup=adapter-service},1651332010,13566
{consumergroup=adapter-service},1651332015,13566
{consumergroup=adapter-service},1651332020,13566
{consumergroup=adapter-service},1651332025,9835
{consumergroup=adapter-service},1651332030,9835
{consumergroup=adapter-service},1651332035,9835
{consumergroup=adapter-service},1651332040,13235
{consumergroup=adapter-service},1651332045,13235
{consumergroup=adapter-service},1651332050,13235
{consumergroup=adapter-service},1651332055,9691
{consumergroup=adapter-service},1651332060,9691
{consumergroup=adapter-service},1651332065,9691
{consumergroup=adapter-service},1651332070,12880
{consumergroup=adapter-service},1651332075,12880
{consumergroup=adapter-service},1651332080,12880
{consumergroup=adapter-service},1651332085,10112
{consumergroup=adapter-service},1651332090,10112
{consumergroup=adapter-service},1651332095,10112
{consumergroup=adapter-service},1651332100,12666
{consumergroup=adapter-service},1651332105,12666
{consumergroup=adapter-service},1651332110,12666
{consumergroup=adapter-service},1651332115,8689
{consumergroup=adapter-service},1651332120,8689
{consumergroup=adapter-service},1651332125,8689
{consumergroup=adapter-service},1651332130,12392
{consumergroup=adapter-service},1651332135,12392
{consumergroup=adapter-service},1651332140,12392
{consumergroup=adapter-service},1651332145,8544
{consumergroup=adapter-service},1651332150,8544
{consumergroup=adapter-service},1651332155,8544
{consumergroup=adapter-service},1651332160,12031
{consumergroup=adapter-service},1651332165,12031
{consumergroup=adapter-service},1651332170,12031
{consumergroup=adapter-service},1651332175,9000
{consumergroup=adapter-service},1651332180,9000
{consumergroup=adapter-service},1651332185,9000
{consumergroup=landscape-service},1651331740,33439
{consumergroup=landscape-service},1651331745,33439
{consumergroup=landscape-service},1651331750,33439
{consumergroup=landscape-service},1651331755,16798
{consumergroup=landscape-service},1651331760,16798
{consumergroup=landscape-service},1651331765,16798
{consumergroup=landscape-service},1651331770,1145
{consumergroup=landscape-service},1651331775,1145
{consumergroup=landscape-service},1651331780,1145
{consumergroup=landscape-service},1651331785,15640
{consumergroup=landscape-service},1651331790,15640
{consumergroup=landscape-service},1651331795,15640
{consumergroup=landscape-service},1651331800,1512
{consumergroup=landscape-service},1651331805,1512
{consumergroup=landscape-service},1651331810,1512
{consumergroup=landscape-service},1651331815,14324
{consumergroup=landscape-service},1651331820,14324
{consumergroup=landscape-service},1651331825,14324
{consumergroup=landscape-service},1651331830,17148
{consumergroup=landscape-service},1651331835,17148
{consumergroup=landscape-service},1651331840,17148
{consumergroup=landscape-service},1651331845,12744
{consumergroup=landscape-service},1651331850,12744
{consumergroup=landscape-service},1651331855,12744
{consumergroup=landscape-service},1651331860,15747
{consumergroup=landscape-service},1651331865,15747
{consumergroup=landscape-service},1651331870,15747
{consumergroup=landscape-service},1651331875,11684
{consumergroup=landscape-service},1651331880,11684
{consumergroup=landscape-service},1651331885,11684
{consumergroup=landscape-service},1651331890,14505
{consumergroup=landscape-service},1651331895,14505
{consumergroup=landscape-service},1651331900,14505
{consumergroup=landscape-service},1651331905,10524
{consumergroup=landscape-service},1651331910,10524
{consumergroup=landscape-service},1651331915,10524
{consumergroup=landscape-service},1651331920,13203
{consumergroup=landscape-service},1651331925,13203
{consumergroup=landscape-service},1651331930,13203
{consumergroup=landscape-service},1651331935,9590
{consumergroup=landscape-service},1651331940,9590
{consumergroup=landscape-service},1651331945,9590
{consumergroup=landscape-service},1651331950,13017
{consumergroup=landscape-service},1651331955,13017
{consumergroup=landscape-service},1651331960,13017
{consumergroup=landscape-service},1651331965,7869
{consumergroup=landscape-service},1651331970,7869
{consumergroup=landscape-service},1651331975,7869
{consumergroup=landscape-service},1651331980,10805
{consumergroup=landscape-service},1651331985,10805
{consumergroup=landscape-service},1651331990,10805
{consumergroup=landscape-service},1651331995,6301
{consumergroup=landscape-service},1651332000,6301
{consumergroup=landscape-service},1651332005,6301
{consumergroup=landscape-service},1651332010,9356
{consumergroup=landscape-service},1651332015,9356
{consumergroup=landscape-service},1651332020,9356
{consumergroup=landscape-service},1651332025,6080
{consumergroup=landscape-service},1651332030,6080
{consumergroup=landscape-service},1651332035,6080
{consumergroup=landscape-service},1651332040,7979
{consumergroup=landscape-service},1651332045,7979
{consumergroup=landscape-service},1651332050,7979
{consumergroup=landscape-service},1651332055,4047
{consumergroup=landscape-service},1651332060,4047
{consumergroup=landscape-service},1651332065,4047
{consumergroup=landscape-service},1651332070,6357
{consumergroup=landscape-service},1651332075,6357
{consumergroup=landscape-service},1651332080,6357
{consumergroup=landscape-service},1651332085,1908
{consumergroup=landscape-service},1651332090,1908
{consumergroup=landscape-service},1651332095,1908
{consumergroup=landscape-service},1651332100,5192
{consumergroup=landscape-service},1651332105,5192
{consumergroup=landscape-service},1651332110,5192
{consumergroup=landscape-service},1651332115,715
{consumergroup=landscape-service},1651332120,715
{consumergroup=landscape-service},1651332125,715
{consumergroup=landscape-service},1651332130,4871
{consumergroup=landscape-service},1651332135,4871
{consumergroup=landscape-service},1651332140,4871
{consumergroup=landscape-service},1651332145,302
{consumergroup=landscape-service},1651332150,302
{consumergroup=landscape-service},1651332155,302
{consumergroup=landscape-service},1651332160,3413
{consumergroup=landscape-service},1651332165,3413
{consumergroup=landscape-service},1651332170,3413
{consumergroup=landscape-service},1651332175,17074
{consumergroup=landscape-service},1651332180,17074
{consumergroup=landscape-service},1651332185,17074
{consumergroup=trace-service},1651331725,8187
{consumergroup=trace-service},1651331730,8187
{consumergroup=trace-service},1651331735,8187
{consumergroup=trace-service},1651331740,43126
{consumergroup=trace-service},1651331745,43126
{consumergroup=trace-service},1651331750,43126
{consumergroup=trace-service},1651331755,25020
{consumergroup=trace-service},1651331760,25020
{consumergroup=trace-service},1651331765,25020
{consumergroup=trace-service},1651331770,39154
{consumergroup=trace-service},1651331775,39154
{consumergroup=trace-service},1651331780,39154
{consumergroup=trace-service},1651331785,111259
{consumergroup=trace-service},1651331790,111259
{consumergroup=trace-service},1651331795,111259
{consumergroup=trace-service},1651331800,37913
{consumergroup=trace-service},1651331805,37913
{consumergroup=trace-service},1651331810,37913
{consumergroup=trace-service},1651331815,90557
{consumergroup=trace-service},1651331820,90557
{consumergroup=trace-service},1651331825,90557
{consumergroup=trace-service},1651331830,40299
{consumergroup=trace-service},1651331835,40299
{consumergroup=trace-service},1651331840,40299
{consumergroup=trace-service},1651331845,116548
{consumergroup=trace-service},1651331850,116548
{consumergroup=trace-service},1651331855,116548
{consumergroup=trace-service},1651331860,40684
{consumergroup=trace-service},1651331865,40684
{consumergroup=trace-service},1651331870,40684
{consumergroup=trace-service},1651331875,45841
{consumergroup=trace-service},1651331880,45841
{consumergroup=trace-service},1651331885,45841
{consumergroup=trace-service},1651331890,38197
{consumergroup=trace-service},1651331895,38197
{consumergroup=trace-service},1651331900,38197
{consumergroup=trace-service},1651331905,82840
{consumergroup=trace-service},1651331910,82840
{consumergroup=trace-service},1651331915,82840
{consumergroup=trace-service},1651331920,37280
{consumergroup=trace-service},1651331925,37280
{consumergroup=trace-service},1651331930,37280
{consumergroup=trace-service},1651331935,78239
{consumergroup=trace-service},1651331940,78239
{consumergroup=trace-service},1651331945,78239
{consumergroup=trace-service},1651331950,40789
{consumergroup=trace-service},1651331955,40789
{consumergroup=trace-service},1651331960,40789
{consumergroup=trace-service},1651331965,69401
{consumergroup=trace-service},1651331970,69401
{consumergroup=trace-service},1651331975,69401
{consumergroup=trace-service},1651331980,40254
{consumergroup=trace-service},1651331985,40254
{consumergroup=trace-service},1651331990,40254
{consumergroup=trace-service},1651331995,78762
{consumergroup=trace-service},1651332000,78762
{consumergroup=trace-service},1651332005,78762
{consumergroup=trace-service},1651332010,39100
{consumergroup=trace-service},1651332015,39100
{consumergroup=trace-service},1651332020,39100
{consumergroup=trace-service},1651332025,77335
{consumergroup=trace-service},1651332030,77335
{consumergroup=trace-service},1651332035,77335
{consumergroup=trace-service},1651332040,88008
{consumergroup=trace-service},1651332045,88008
{consumergroup=trace-service},1651332050,88008
{consumergroup=trace-service},1651332055,104451
{consumergroup=trace-service},1651332060,104451
{consumergroup=trace-service},1651332065,104451
{consumergroup=trace-service},1651332070,38038
{consumergroup=trace-service},1651332075,38038
{consumergroup=trace-service},1651332080,38038
{consumergroup=trace-service},1651332085,64768
{consumergroup=trace-service},1651332090,64768
{consumergroup=trace-service},1651332095,64768
{consumergroup=trace-service},1651332100,39074
{consumergroup=trace-service},1651332105,39074
{consumergroup=trace-service},1651332110,39074
{consumergroup=trace-service},1651332115,89002
{consumergroup=trace-service},1651332120,89002
{consumergroup=trace-service},1651332125,89002
{consumergroup=trace-service},1651332130,40471
{consumergroup=trace-service},1651332135,40471
{consumergroup=trace-service},1651332140,40471
{consumergroup=trace-service},1651332145,117278
{consumergroup=trace-service},1651332150,117278
{consumergroup=trace-service},1651332155,117278
{consumergroup=trace-service},1651332160,38175
{consumergroup=trace-service},1651332165,38175
{consumergroup=trace-service},1651332170,38175
{consumergroup=trace-service},1651332175,86094
{consumergroup=trace-service},1651332180,86094
{consumergroup=trace-service},1651332185,86094
{consumergroup=trace-token-events-consumer},1651331710,0
{consumergroup=trace-token-events-consumer},1651331715,0
{consumergroup=trace-token-events-consumer},1651331720,0
{consumergroup=trace-token-events-consumer},1651331725,0
{consumergroup=trace-token-events-consumer},1651331730,0
{consumergroup=trace-token-events-consumer},1651331735,0
{consumergroup=trace-token-events-consumer},1651331740,0
{consumergroup=trace-token-events-consumer},1651331745,0
{consumergroup=trace-token-events-consumer},1651331750,0
{consumergroup=trace-token-events-consumer},1651331755,0
{consumergroup=trace-token-events-consumer},1651331760,0
{consumergroup=trace-token-events-consumer},1651331765,0
{consumergroup=trace-token-events-consumer},1651331770,0
{consumergroup=trace-token-events-consumer},1651331775,0
{consumergroup=trace-token-events-consumer},1651331780,0
{consumergroup=trace-token-events-consumer},1651331785,0
{consumergroup=trace-token-events-consumer},1651331790,0
{consumergroup=trace-token-events-consumer},1651331795,0
{consumergroup=trace-token-events-consumer},1651331800,0
{consumergroup=trace-token-events-consumer},1651331805,0
{consumergroup=trace-token-events-consumer},1651331810,0
{consumergroup=trace-token-events-consumer},1651331815,0
{consumergroup=trace-token-events-consumer},1651331820,0
{consumergroup=trace-token-events-consumer},1651331825,0
{consumergroup=trace-token-events-consumer},1651331830,0
{consumergroup=trace-token-events-consumer},1651331835,0
{consumergroup=trace-token-events-consumer},1651331840,0
{consumergroup=trace-token-events-consumer},1651331845,0
{consumergroup=trace-token-events-consumer},1651331850,0
{consumergroup=trace-token-events-consumer},1651331855,0
{consumergroup=trace-token-events-consumer},1651331860,0
{consumergroup=trace-token-events-consumer},1651331865,0
{consumergroup=trace-token-events-consumer},1651331870,0
{consumergroup=trace-token-events-consumer},1651331875,0
{consumergroup=trace-token-events-consumer},1651331880,0
{consumergroup=trace-token-events-consumer},1651331885,0
{consumergroup=trace-token-events-consumer},1651331890,0
{consumergroup=trace-token-events-consumer},1651331895,0
{consumergroup=trace-token-events-consumer},1651331900,0
{consumergroup=trace-token-events-consumer},1651331905,0
{consumergroup=trace-token-events-consumer},1651331910,0
{consumergroup=trace-token-events-consumer},1651331915,0
{consumergroup=trace-token-events-consumer},1651331920,0
{consumergroup=trace-token-events-consumer},1651331925,0
{consumergroup=trace-token-events-consumer},1651331930,0
{consumergroup=trace-token-events-consumer},1651331935,0
{consumergroup=trace-token-events-consumer},1651331940,0
{consumergroup=trace-token-events-consumer},1651331945,0
{consumergroup=trace-token-events-consumer},1651331950,0
{consumergroup=trace-token-events-consumer},1651331955,0
{consumergroup=trace-token-events-consumer},1651331960,0
{consumergroup=trace-token-events-consumer},1651331965,0
{consumergroup=trace-token-events-consumer},1651331970,0
{consumergroup=trace-token-events-consumer},1651331975,0
{consumergroup=trace-token-events-consumer},1651331980,0
{consumergroup=trace-token-events-consumer},1651331985,0
{consumergroup=trace-token-events-consumer},1651331990,0
{consumergroup=trace-token-events-consumer},1651331995,0
{consumergroup=trace-token-events-consumer},1651332000,0
{consumergroup=trace-token-events-consumer},1651332005,0
{consumergroup=trace-token-events-consumer},1651332010,0
{consumergroup=trace-token-events-consumer},1651332015,0
{consumergroup=trace-token-events-consumer},1651332020,0
{consumergroup=trace-token-events-consumer},1651332025,0
{consumergroup=trace-token-events-consumer},1651332030,0
{consumergroup=trace-token-events-consumer},1651332035,0
{consumergroup=trace-token-events-consumer},1651332040,0
{consumergroup=trace-token-events-consumer},1651332045,0
{consumergroup=trace-token-events-consumer},1651332050,0
{consumergroup=trace-token-events-consumer},1651332055,0
{consumergroup=trace-token-events-consumer},1651332060,0
{consumergroup=trace-token-events-consumer},1651332065,0
{consumergroup=trace-token-events-consumer},1651332070,0
{consumergroup=trace-token-events-consumer},1651332075,0
{consumergroup=trace-token-events-consumer},1651332080,0
{consumergroup=trace-token-events-consumer},1651332085,0
{consumergroup=trace-token-events-consumer},1651332090,0
{consumergroup=trace-token-events-consumer},1651332095,0
{consumergroup=trace-token-events-consumer},1651332100,0
{consumergroup=trace-token-events-consumer},1651332105,0
{consumergroup=trace-token-events-consumer},1651332110,0
{consumergroup=trace-token-events-consumer},1651332115,0
{consumergroup=trace-token-events-consumer},1651332120,0
{consumergroup=trace-token-events-consumer},1651332125,0
{consumergroup=trace-token-events-consumer},1651332130,0
{consumergroup=trace-token-events-consumer},1651332135,0
{consumergroup=trace-token-events-consumer},1651332140,0
{consumergroup=trace-token-events-consumer},1651332145,0
{consumergroup=trace-token-events-consumer},1651332150,0
{consumergroup=trace-token-events-consumer},1651332155,0
{consumergroup=trace-token-events-consumer},1651332160,0
{consumergroup=trace-token-events-consumer},1651332165,0
{consumergroup=trace-token-events-consumer},1651332170,0
{consumergroup=trace-token-events-consumer},1651332175,0
{consumergroup=trace-token-events-consumer},1651332180,0
{consumergroup=trace-token-events-consumer},1651332185,0
