labels,timestamp,value
{consumergroup=__strimzi-topic-operator-kstreams},1651326789,8
{consumergroup=__strimzi-topic-operator-kstreams},1651326794,8
{consumergroup=__strimzi-topic-operator-kstreams},1651326799,8
{consumergroup=__strimzi-topic-operator-kstreams},1651326804,0
{consumergroup=__strimzi-topic-operator-kstreams},1651326809,0
{consumergroup=__strimzi-topic-operator-kstreams},1651326814,0
{consumergroup=__strimzi-topic-operator-kstreams},1651326819,0
{consumergroup=__strimzi-topic-operator-kstreams},1651326824,0
{consumergroup=__strimzi-topic-operator-kstreams},1651326829,0
{consumergroup=__strimzi-topic-operator-kstreams},1651326834,0
{consumergroup=__strimzi-topic-operator-kstreams},1651326839,0
{consumergroup=__strimzi-topic-operator-kstreams},1651326844,0
{consumergroup=__strimzi-topic-operator-kstreams},1651326849,0
{consumergroup=__strimzi-topic-operator-kstreams},1651326854,0
{consumergroup=__strimzi-topic-operator-kstreams},1651326859,0
{consumergroup=__strimzi-topic-operator-kstreams},1651326864,0
{consumergroup=__strimzi-topic-operator-kstreams},1651326869,0
{consumergroup=__strimzi-topic-operator-kstreams},1651326874,0
{consumergroup=__strimzi-topic-operator-kstreams},1651326879,0
{consumergroup=__strimzi-topic-operator-kstreams},1651326884,0
{consumergroup=__strimzi-topic-operator-kstreams},1651326889,0
{consumergroup=__strimzi-topic-operator-kstreams},1651326894,0
{consumergroup=__strimzi-topic-operator-kstreams},1651326899,0
{consumergroup=__strimzi-topic-operator-kstreams},1651326904,0
{consumergroup=__strimzi-topic-operator-kstreams},1651326909,0
{consumergroup=__strimzi-topic-operator-kstreams},1651326914,0
{consumergroup=__strimzi-topic-operator-kstreams},1651326919,0
{consumergroup=__strimzi-topic-operator-kstreams},1651326924,0
{consumergroup=__strimzi-topic-operator-kstreams},1651326929,0
{consumergroup=__strimzi-topic-operator-kstreams},1651326934,0
{consumergroup=__strimzi-topic-operator-kstreams},1651326939,0
{consumergroup=__strimzi-topic-operator-kstreams},1651326944,0
{consumergroup=__strimzi-topic-operator-kstreams},1651326949,0
{consumergroup=__strimzi-topic-operator-kstreams},1651326954,0
{consumergroup=__strimzi-topic-operator-kstreams},1651326959,0
{consumergroup=__strimzi-topic-operator-kstreams},1651326964,0
{consumergroup=__strimzi-topic-operator-kstreams},1651326969,0
{consumergroup=__strimzi-topic-operator-kstreams},1651326974,0
{consumergroup=__strimzi-topic-operator-kstreams},1651326979,0
{consumergroup=__strimzi-topic-operator-kstreams},1651326984,0
{consumergroup=__strimzi-topic-operator-kstreams},1651326989,0
{consumergroup=__strimzi-topic-operator-kstreams},1651326994,0
{consumergroup=__strimzi-topic-operator-kstreams},1651326999,0
{consumergroup=__strimzi-topic-operator-kstreams},1651327004,0
{consumergroup=__strimzi-topic-operator-kstreams},1651327009,0
{consumergroup=__strimzi-topic-operator-kstreams},1651327014,0
{consumergroup=__strimzi-topic-operator-kstreams},1651327019,0
{consumergroup=__strimzi-topic-operator-kstreams},1651327024,0
{consumergroup=__strimzi-topic-operator-kstreams},1651327029,0
{consumergroup=__strimzi-topic-operator-kstreams},1651327034,0
{consumergroup=__strimzi-topic-operator-kstreams},1651327039,0
{consumergroup=__strimzi-topic-operator-kstreams},1651327044,0
{consumergroup=__strimzi-topic-operator-kstreams},1651327049,0
{consumergroup=__strimzi-topic-operator-kstreams},1651327054,0
{consumergroup=__strimzi-topic-operator-kstreams},1651327059,0
{consumergroup=__strimzi-topic-operator-kstreams},1651327064,0
{consumergroup=__strimzi-topic-operator-kstreams},1651327069,0
{consumergroup=__strimzi-topic-operator-kstreams},1651327074,0
{consumergroup=__strimzi-topic-operator-kstreams},1651327079,0
{consumergroup=__strimzi-topic-operator-kstreams},1651327084,0
{consumergroup=__strimzi-topic-operator-kstreams},1651327089,0
{consumergroup=__strimzi-topic-operator-kstreams},1651327094,0
{consumergroup=__strimzi-topic-operator-kstreams},1651327099,0
{consumergroup=__strimzi-topic-operator-kstreams},1651327104,0
{consumergroup=__strimzi-topic-operator-kstreams},1651327109,0
{consumergroup=__strimzi-topic-operator-kstreams},1651327114,0
{consumergroup=__strimzi-topic-operator-kstreams},1651327119,0
{consumergroup=__strimzi-topic-operator-kstreams},1651327124,0
{consumergroup=__strimzi-topic-operator-kstreams},1651327129,0
{consumergroup=__strimzi-topic-operator-kstreams},1651327134,0
{consumergroup=__strimzi-topic-operator-kstreams},1651327139,0
{consumergroup=__strimzi-topic-operator-kstreams},1651327144,0
{consumergroup=__strimzi-topic-operator-kstreams},1651327149,0
{consumergroup=__strimzi-topic-operator-kstreams},1651327154,0
{consumergroup=__strimzi-topic-operator-kstreams},1651327159,0
{consumergroup=__strimzi-topic-operator-kstreams},1651327164,0
{consumergroup=__strimzi-topic-operator-kstreams},1651327169,0
{consumergroup=__strimzi-topic-operator-kstreams},1651327174,0
{consumergroup=__strimzi-topic-operator-kstreams},1651327179,0
{consumergroup=__strimzi-topic-operator-kstreams},1651327184,0
{consumergroup=__strimzi-topic-operator-kstreams},1651327189,0
{consumergroup=__strimzi-topic-operator-kstreams},1651327194,0
{consumergroup=__strimzi-topic-operator-kstreams},1651327199,0
{consumergroup=__strimzi-topic-operator-kstreams},1651327204,0
{consumergroup=__strimzi-topic-operator-kstreams},1651327209,0
{consumergroup=__strimzi-topic-operator-kstreams},1651327214,0
{consumergroup=__strimzi-topic-operator-kstreams},1651327219,0
{consumergroup=__strimzi-topic-operator-kstreams},1651327224,0
{consumergroup=__strimzi-topic-operator-kstreams},1651327229,0
{consumergroup=__strimzi-topic-operator-kstreams},1651327234,0
{consumergroup=__strimzi-topic-operator-kstreams},1651327239,0
{consumergroup=__strimzi-topic-operator-kstreams},1651327244,0
{consumergroup=__strimzi-topic-operator-kstreams},1651327249,0
{consumergroup=__strimzi-topic-operator-kstreams},1651327254,0
{consumergroup=__strimzi-topic-operator-kstreams},1651327259,0
{consumergroup=__strimzi-topic-operator-kstreams},1651327264,0
{consumergroup=__strimzi-topic-operator-kstreams},1651327269,0
{consumergroup=__strimzi-topic-operator-kstreams},1651327274,0
{consumergroup=__strimzi-topic-operator-kstreams},1651327279,0
{consumergroup=__strimzi-topic-operator-kstreams},1651327284,0
{consumergroup=__strimzi-topic-operator-kstreams},1651327289,0
{consumergroup=adapter-service},1651326819,0
{consumergroup=adapter-service},1651326824,0
{consumergroup=adapter-service},1651326829,0
{consumergroup=adapter-service},1651326834,4142
{consumergroup=adapter-service},1651326839,4142
{consumergroup=adapter-service},1651326844,4142
{consumergroup=adapter-service},1651326849,8554
{consumergroup=adapter-service},1651326854,8554
{consumergroup=adapter-service},1651326859,8554
{consumergroup=adapter-service},1651326864,3499
{consumergroup=adapter-service},1651326869,3499
{consumergroup=adapter-service},1651326874,3499
{consumergroup=adapter-service},1651326879,19232
{consumergroup=adapter-service},1651326884,19232
{consumergroup=adapter-service},1651326889,19232
{consumergroup=adapter-service},1651326894,1650
{consumergroup=adapter-service},1651326899,1650
{consumergroup=adapter-service},1651326904,1650
{consumergroup=adapter-service},1651326909,18491
{consumergroup=adapter-service},1651326914,18491
{consumergroup=adapter-service},1651326919,18491
{consumergroup=adapter-service},1651326924,1295
{consumergroup=adapter-service},1651326929,1295
{consumergroup=adapter-service},1651326934,1295
{consumergroup=adapter-service},1651326939,18892
{consumergroup=adapter-service},1651326944,18892
{consumergroup=adapter-service},1651326949,18892
{consumergroup=adapter-service},1651326954,3260
{consumergroup=adapter-service},1651326959,3260
{consumergroup=adapter-service},1651326964,3260
{consumergroup=adapter-service},1651326969,18598
{consumergroup=adapter-service},1651326974,18598
{consumergroup=adapter-service},1651326979,18598
{consumergroup=adapter-service},1651326984,4955
{consumergroup=adapter-service},1651326989,4955
{consumergroup=adapter-service},1651326994,4955
{consumergroup=adapter-service},1651326999,18140
{consumergroup=adapter-service},1651327004,18140
{consumergroup=adapter-service},1651327009,18140
{consumergroup=adapter-service},1651327014,5627
{consumergroup=adapter-service},1651327019,5627
{consumergroup=adapter-service},1651327024,5627
{consumergroup=adapter-service},1651327029,17722
{consumergroup=adapter-service},1651327034,17722
{consumergroup=adapter-service},1651327039,17722
{consumergroup=adapter-service},1651327044,7767
{consumergroup=adapter-service},1651327049,7767
{consumergroup=adapter-service},1651327054,7767
{consumergroup=adapter-service},1651327059,17125
{consumergroup=adapter-service},1651327064,17125
{consumergroup=adapter-service},1651327069,17125
{consumergroup=adapter-service},1651327074,3573
{consumergroup=adapter-service},1651327079,3573
{consumergroup=adapter-service},1651327084,3573
{consumergroup=adapter-service},1651327089,16953
{consumergroup=adapter-service},1651327094,16953
{consumergroup=adapter-service},1651327099,16953
{consumergroup=adapter-service},1651327104,10747
{consumergroup=adapter-service},1651327109,10747
{consumergroup=adapter-service},1651327114,10747
{consumergroup=adapter-service},1651327119,16395
{consumergroup=adapter-service},1651327124,16395
{consumergroup=adapter-service},1651327129,16395
{consumergroup=adapter-service},1651327134,9810
{consumergroup=adapter-service},1651327139,9810
{consumergroup=adapter-service},1651327144,9810
{consumergroup=adapter-service},1651327149,16954
{consumergroup=adapter-service},1651327154,16954
{consumergroup=adapter-service},1651327159,16954
{consumergroup=adapter-service},1651327164,14834
{consumergroup=adapter-service},1651327169,14834
{consumergroup=adapter-service},1651327174,14834
{consumergroup=adapter-service},1651327179,15295
{consumergroup=adapter-service},1651327184,15295
{consumergroup=adapter-service},1651327189,15295
{consumergroup=adapter-service},1651327194,18813
{consumergroup=adapter-service},1651327199,18813
{consumergroup=adapter-service},1651327204,18813
{consumergroup=adapter-service},1651327209,16020
{consumergroup=adapter-service},1651327214,16020
{consumergroup=adapter-service},1651327219,16020
{consumergroup=adapter-service},1651327224,17916
{consumergroup=adapter-service},1651327229,17916
{consumergroup=adapter-service},1651327234,17916
{consumergroup=adapter-service},1651327239,16105
{consumergroup=adapter-service},1651327244,16105
{consumergroup=adapter-service},1651327249,16105
{consumergroup=adapter-service},1651327254,20107
{consumergroup=adapter-service},1651327259,20107
{consumergroup=adapter-service},1651327264,20107
{consumergroup=adapter-service},1651327269,14126
{consumergroup=adapter-service},1651327274,14126
{consumergroup=adapter-service},1651327279,14126
{consumergroup=adapter-service},1651327284,19637
{consumergroup=adapter-service},1651327289,19637
{consumergroup=landscape-service},1651326834,51843
{consumergroup=landscape-service},1651326839,51843
{consumergroup=landscape-service},1651326844,51843
{consumergroup=landscape-service},1651326849,6159
{consumergroup=landscape-service},1651326854,6159
{consumergroup=landscape-service},1651326859,6159
{consumergroup=landscape-service},1651326864,9692
{consumergroup=landscape-service},1651326869,9692
{consumergroup=landscape-service},1651326874,9692
{consumergroup=landscape-service},1651326879,3749
{consumergroup=landscape-service},1651326884,3749
{consumergroup=landscape-service},1651326889,3749
{consumergroup=landscape-service},1651326894,7652
{consumergroup=landscape-service},1651326899,7652
{consumergroup=landscape-service},1651326904,7652
{consumergroup=landscape-service},1651326909,1790
{consumergroup=landscape-service},1651326914,1790
{consumergroup=landscape-service},1651326919,1790
{consumergroup=landscape-service},1651326924,7140
{consumergroup=landscape-service},1651326929,7140
{consumergroup=landscape-service},1651326934,7140
{consumergroup=landscape-service},1651326939,1544
{consumergroup=landscape-service},1651326944,1544
{consumergroup=landscape-service},1651326949,1544
{consumergroup=landscape-service},1651326954,5265
{consumergroup=landscape-service},1651326959,5265
{consumergroup=landscape-service},1651326964,5265
{consumergroup=landscape-service},1651326969,24185
{consumergroup=landscape-service},1651326974,24185
{consumergroup=landscape-service},1651326979,24185
{consumergroup=landscape-service},1651326984,3713
{consumergroup=landscape-service},1651326989,3713
{consumergroup=landscape-service},1651326994,3713
{consumergroup=landscape-service},1651326999,21300
{consumergroup=landscape-service},1651327004,21300
{consumergroup=landscape-service},1651327009,21300
{consumergroup=landscape-service},1651327014,1279
{consumergroup=landscape-service},1651327019,1279
{consumergroup=landscape-service},1651327024,1279
{consumergroup=landscape-service},1651327029,18945
{consumergroup=landscape-service},1651327034,18945
{consumergroup=landscape-service},1651327039,18945
{consumergroup=landscape-service},1651327044,22772
{consumergroup=landscape-service},1651327049,22772
{consumergroup=landscape-service},1651327054,22772
{consumergroup=landscape-service},1651327059,18026
{consumergroup=landscape-service},1651327064,18026
{consumergroup=landscape-service},1651327069,18026
{consumergroup=landscape-service},1651327074,2807
{consumergroup=landscape-service},1651327079,2807
{consumergroup=landscape-service},1651327084,2807
{consumergroup=landscape-service},1651327089,15702
{consumergroup=landscape-service},1651327094,15702
{consumergroup=landscape-service},1651327099,15702
{consumergroup=landscape-service},1651327104,20936
{consumergroup=landscape-service},1651327109,20936
{consumergroup=landscape-service},1651327114,20936
{consumergroup=landscape-service},1651327119,14121
{consumergroup=landscape-service},1651327124,14121
{consumergroup=landscape-service},1651327129,14121
{consumergroup=landscape-service},1651327134,17934
{consumergroup=landscape-service},1651327139,17934
{consumergroup=landscape-service},1651327144,17934
{consumergroup=landscape-service},1651327149,12982
{consumergroup=landscape-service},1651327154,12982
{consumergroup=landscape-service},1651327159,12982
{consumergroup=landscape-service},1651327164,16509
{consumergroup=landscape-service},1651327169,16509
{consumergroup=landscape-service},1651327174,16509
{consumergroup=landscape-service},1651327179,9485
{consumergroup=landscape-service},1651327184,9485
{consumergroup=landscape-service},1651327189,9485
{consumergroup=landscape-service},1651327194,14481
{consumergroup=landscape-service},1651327199,14481
{consumergroup=landscape-service},1651327204,14481
{consumergroup=landscape-service},1651327209,7713
{consumergroup=landscape-service},1651327214,7713
{consumergroup=landscape-service},1651327219,7713
{consumergroup=landscape-service},1651327224,11126
{consumergroup=landscape-service},1651327229,11126
{consumergroup=landscape-service},1651327234,11126
{consumergroup=landscape-service},1651327239,8114
{consumergroup=landscape-service},1651327244,8114
{consumergroup=landscape-service},1651327249,8114
{consumergroup=landscape-service},1651327254,11890
{consumergroup=landscape-service},1651327259,11890
{consumergroup=landscape-service},1651327264,11890
{consumergroup=landscape-service},1651327269,6300
{consumergroup=landscape-service},1651327274,6300
{consumergroup=landscape-service},1651327279,6300
{consumergroup=landscape-service},1651327284,9120
{consumergroup=landscape-service},1651327289,9120
{consumergroup=trace-service},1651326834,23676
{consumergroup=trace-service},1651326839,23676
{consumergroup=trace-service},1651326844,23676
{consumergroup=trace-service},1651326849,49865
{consumergroup=trace-service},1651326854,49865
{consumergroup=trace-service},1651326859,49865
{consumergroup=trace-service},1651326864,106597
{consumergroup=trace-service},1651326869,106597
{consumergroup=trace-service},1651326874,106597
{consumergroup=trace-service},1651326879,51604
{consumergroup=trace-service},1651326884,51604
{consumergroup=trace-service},1651326889,51604
{consumergroup=trace-service},1651326894,109623
{consumergroup=trace-service},1651326899,109623
{consumergroup=trace-service},1651326904,109623
{consumergroup=trace-service},1651326909,48078
{consumergroup=trace-service},1651326914,48078
{consumergroup=trace-service},1651326919,48078
{consumergroup=trace-service},1651326924,102981
{consumergroup=trace-service},1651326929,102981
{consumergroup=trace-service},1651326934,102981
{consumergroup=trace-service},1651326939,49513
{consumergroup=trace-service},1651326944,49513
{consumergroup=trace-service},1651326949,49513
{consumergroup=trace-service},1651326954,103513
{consumergroup=trace-service},1651326959,103513
{consumergroup=trace-service},1651326964,103513
{consumergroup=trace-service},1651326969,49133
{consumergroup=trace-service},1651326974,49133
{consumergroup=trace-service},1651326979,49133
{consumergroup=trace-service},1651326984,104870
{consumergroup=trace-service},1651326989,104870
{consumergroup=trace-service},1651326994,104870
{consumergroup=trace-service},1651326999,105378
{consumergroup=trace-service},1651327004,105378
{consumergroup=trace-service},1651327009,105378
{consumergroup=trace-service},1651327014,118196
{consumergroup=trace-service},1651327019,118196
{consumergroup=trace-service},1651327024,118196
{consumergroup=trace-service},1651327029,113747
{consumergroup=trace-service},1651327034,113747
{consumergroup=trace-service},1651327039,113747
{consumergroup=trace-service},1651327044,136606
{consumergroup=trace-service},1651327049,136606
{consumergroup=trace-service},1651327054,136606
{consumergroup=trace-service},1651327059,51467
{consumergroup=trace-service},1651327064,51467
{consumergroup=trace-service},1651327069,51467
{consumergroup=trace-service},1651327074,103472
{consumergroup=trace-service},1651327079,103472
{consumergroup=trace-service},1651327084,103472
{consumergroup=trace-service},1651327089,218825
{consumergroup=trace-service},1651327094,218825
{consumergroup=trace-service},1651327099,218825
{consumergroup=trace-service},1651327104,116345
{consumergroup=trace-service},1651327109,116345
{consumergroup=trace-service},1651327114,116345
{consumergroup=trace-service},1651327119,48557
{consumergroup=trace-service},1651327124,48557
{consumergroup=trace-service},1651327129,48557
{consumergroup=trace-service},1651327134,101957
{consumergroup=trace-service},1651327139,101957
{consumergroup=trace-service},1651327144,101957
{consumergroup=trace-service},1651327149,248346
{consumergroup=trace-service},1651327154,248346
{consumergroup=trace-service},1651327159,248346
{consumergroup=trace-service},1651327164,99511
{consumergroup=trace-service},1651327169,99511
{consumergroup=trace-service},1651327174,99511
{consumergroup=trace-service},1651327179,46036
{consumergroup=trace-service},1651327184,46036
{consumergroup=trace-service},1651327189,46036
{consumergroup=trace-service},1651327194,86940
{consumergroup=trace-service},1651327199,86940
{consumergroup=trace-service},1651327204,86940
{consumergroup=trace-service},1651327209,47369
{consumergroup=trace-service},1651327214,47369
{consumergroup=trace-service},1651327219,47369
{consumergroup=trace-service},1651327224,97905
{consumergroup=trace-service},1651327229,97905
{consumergroup=trace-service},1651327234,97905
{consumergroup=trace-service},1651327239,192186
{consumergroup=trace-service},1651327244,192186
{consumergroup=trace-service},1651327249,192186
{consumergroup=trace-service},1651327254,22482
{consumergroup=trace-service},1651327259,22482
{consumergroup=trace-service},1651327264,22482
{consumergroup=trace-service},1651327269,45563
{consumergroup=trace-service},1651327274,45563
{consumergroup=trace-service},1651327279,45563
{consumergroup=trace-service},1651327284,89998
{consumergroup=trace-service},1651327289,89998
{consumergroup=trace-token-events-consumer},1651326819,0
{consumergroup=trace-token-events-consumer},1651326824,0
{consumergroup=trace-token-events-consumer},1651326829,0
{consumergroup=trace-token-events-consumer},1651326834,0
{consumergroup=trace-token-events-consumer},1651326839,0
{consumergroup=trace-token-events-consumer},1651326844,0
{consumergroup=trace-token-events-consumer},1651326849,0
{consumergroup=trace-token-events-consumer},1651326854,0
{consumergroup=trace-token-events-consumer},1651326859,0
{consumergroup=trace-token-events-consumer},1651326864,0
{consumergroup=trace-token-events-consumer},1651326869,0
{consumergroup=trace-token-events-consumer},1651326874,0
{consumergroup=trace-token-events-consumer},1651326879,0
{consumergroup=trace-token-events-consumer},1651326884,0
{consumergroup=trace-token-events-consumer},1651326889,0
{consumergroup=trace-token-events-consumer},1651326894,0
{consumergroup=trace-token-events-consumer},1651326899,0
{consumergroup=trace-token-events-consumer},1651326904,0
{consumergroup=trace-token-events-consumer},1651326909,0
{consumergroup=trace-token-events-consumer},1651326914,0
{consumergroup=trace-token-events-consumer},1651326919,0
{consumergroup=trace-token-events-consumer},1651326924,0
{consumergroup=trace-token-events-consumer},1651326929,0
{consumergroup=trace-token-events-consumer},1651326934,0
{consumergroup=trace-token-events-consumer},1651326939,0
{consumergroup=trace-token-events-consumer},1651326944,0
{consumergroup=trace-token-events-consumer},1651326949,0
{consumergroup=trace-token-events-consumer},1651326954,0
{consumergroup=trace-token-events-consumer},1651326959,0
{consumergroup=trace-token-events-consumer},1651326964,0
{consumergroup=trace-token-events-consumer},1651326969,0
{consumergroup=trace-token-events-consumer},1651326974,0
{consumergroup=trace-token-events-consumer},1651326979,0
{consumergroup=trace-token-events-consumer},1651326984,0
{consumergroup=trace-token-events-consumer},1651326989,0
{consumergroup=trace-token-events-consumer},1651326994,0
{consumergroup=trace-token-events-consumer},1651326999,0
{consumergroup=trace-token-events-consumer},1651327004,0
{consumergroup=trace-token-events-consumer},1651327009,0
{consumergroup=trace-token-events-consumer},1651327014,0
{consumergroup=trace-token-events-consumer},1651327019,0
{consumergroup=trace-token-events-consumer},1651327024,0
{consumergroup=trace-token-events-consumer},1651327029,0
{consumergroup=trace-token-events-consumer},1651327034,0
{consumergroup=trace-token-events-consumer},1651327039,0
{consumergroup=trace-token-events-consumer},1651327044,0
{consumergroup=trace-token-events-consumer},1651327049,0
{consumergroup=trace-token-events-consumer},1651327054,0
{consumergroup=trace-token-events-consumer},1651327059,0
{consumergroup=trace-token-events-consumer},1651327064,0
{consumergroup=trace-token-events-consumer},1651327069,0
{consumergroup=trace-token-events-consumer},1651327074,0
{consumergroup=trace-token-events-consumer},1651327079,0
{consumergroup=trace-token-events-consumer},1651327084,0
{consumergroup=trace-token-events-consumer},1651327089,0
{consumergroup=trace-token-events-consumer},1651327094,0
{consumergroup=trace-token-events-consumer},1651327099,0
{consumergroup=trace-token-events-consumer},1651327104,0
{consumergroup=trace-token-events-consumer},1651327109,0
{consumergroup=trace-token-events-consumer},1651327114,0
{consumergroup=trace-token-events-consumer},1651327119,0
{consumergroup=trace-token-events-consumer},1651327124,0
{consumergroup=trace-token-events-consumer},1651327129,0
{consumergroup=trace-token-events-consumer},1651327134,0
{consumergroup=trace-token-events-consumer},1651327139,0
{consumergroup=trace-token-events-consumer},1651327144,0
{consumergroup=trace-token-events-consumer},1651327149,0
{consumergroup=trace-token-events-consumer},1651327154,0
{consumergroup=trace-token-events-consumer},1651327159,0
{consumergroup=trace-token-events-consumer},1651327164,0
{consumergroup=trace-token-events-consumer},1651327169,0
{consumergroup=trace-token-events-consumer},1651327174,0
{consumergroup=trace-token-events-consumer},1651327179,0
{consumergroup=trace-token-events-consumer},1651327184,0
{consumergroup=trace-token-events-consumer},1651327189,0
{consumergroup=trace-token-events-consumer},1651327194,0
{consumergroup=trace-token-events-consumer},1651327199,0
{consumergroup=trace-token-events-consumer},1651327204,0
{consumergroup=trace-token-events-consumer},1651327209,0
{consumergroup=trace-token-events-consumer},1651327214,0
{consumergroup=trace-token-events-consumer},1651327219,0
{consumergroup=trace-token-events-consumer},1651327224,0
{consumergroup=trace-token-events-consumer},1651327229,0
{consumergroup=trace-token-events-consumer},1651327234,0
{consumergroup=trace-token-events-consumer},1651327239,0
{consumergroup=trace-token-events-consumer},1651327244,0
{consumergroup=trace-token-events-consumer},1651327249,0
{consumergroup=trace-token-events-consumer},1651327254,0
{consumergroup=trace-token-events-consumer},1651327259,0
{consumergroup=trace-token-events-consumer},1651327264,0
{consumergroup=trace-token-events-consumer},1651327269,0
{consumergroup=trace-token-events-consumer},1651327274,0
{consumergroup=trace-token-events-consumer},1651327279,0
{consumergroup=trace-token-events-consumer},1651327284,0
{consumergroup=trace-token-events-consumer},1651327289,0
