labels,timestamp,value
{consumergroup=__strimzi-topic-operator-kstreams},1651332931,11
{consumergroup=__strimzi-topic-operator-kstreams},1651332936,11
{consumergroup=__strimzi-topic-operator-kstreams},1651332941,11
{consumergroup=__strimzi-topic-operator-kstreams},1651332946,0
{consumergroup=__strimzi-topic-operator-kstreams},1651332951,0
{consumergroup=__strimzi-topic-operator-kstreams},1651332956,0
{consumergroup=__strimzi-topic-operator-kstreams},1651332961,3
{consumergroup=__strimzi-topic-operator-kstreams},1651332966,3
{consumergroup=__strimzi-topic-operator-kstreams},1651332971,3
{consumergroup=__strimzi-topic-operator-kstreams},1651332976,0
{consumergroup=__strimzi-topic-operator-kstreams},1651332981,0
{consumergroup=__strimzi-topic-operator-kstreams},1651332986,0
{consumergroup=__strimzi-topic-operator-kstreams},1651332991,0
{consumergroup=__strimzi-topic-operator-kstreams},1651332996,0
{consumergroup=__strimzi-topic-operator-kstreams},1651333001,0
{consumergroup=__strimzi-topic-operator-kstreams},1651333006,0
{consumergroup=__strimzi-topic-operator-kstreams},1651333011,0
{consumergroup=__strimzi-topic-operator-kstreams},1651333016,0
{consumergroup=__strimzi-topic-operator-kstreams},1651333021,0
{consumergroup=__strimzi-topic-operator-kstreams},1651333026,0
{consumergroup=__strimzi-topic-operator-kstreams},1651333031,0
{consumergroup=__strimzi-topic-operator-kstreams},1651333036,0
{consumergroup=__strimzi-topic-operator-kstreams},1651333041,0
{consumergroup=__strimzi-topic-operator-kstreams},1651333046,0
{consumergroup=__strimzi-topic-operator-kstreams},1651333051,0
{consumergroup=__strimzi-topic-operator-kstreams},1651333056,0
{consumergroup=__strimzi-topic-operator-kstreams},1651333061,0
{consumergroup=__strimzi-topic-operator-kstreams},1651333066,0
{consumergroup=__strimzi-topic-operator-kstreams},1651333071,0
{consumergroup=__strimzi-topic-operator-kstreams},1651333076,0
{consumergroup=__strimzi-topic-operator-kstreams},1651333081,0
{consumergroup=__strimzi-topic-operator-kstreams},1651333086,0
{consumergroup=__strimzi-topic-operator-kstreams},1651333091,0
{consumergroup=__strimzi-topic-operator-kstreams},1651333096,0
{consumergroup=__strimzi-topic-operator-kstreams},1651333101,0
{consumergroup=__strimzi-topic-operator-kstreams},1651333106,0
{consumergroup=__strimzi-topic-operator-kstreams},1651333111,0
{consumergroup=__strimzi-topic-operator-kstreams},1651333116,0
{consumergroup=__strimzi-topic-operator-kstreams},1651333121,0
{consumergroup=__strimzi-topic-operator-kstreams},1651333126,0
{consumergroup=__strimzi-topic-operator-kstreams},1651333131,0
{consumergroup=__strimzi-topic-operator-kstreams},1651333136,0
{consumergroup=__strimzi-topic-operator-kstreams},1651333141,0
{consumergroup=__strimzi-topic-operator-kstreams},1651333146,0
{consumergroup=__strimzi-topic-operator-kstreams},1651333151,0
{consumergroup=__strimzi-topic-operator-kstreams},1651333156,0
{consumergroup=__strimzi-topic-operator-kstreams},1651333161,0
{consumergroup=__strimzi-topic-operator-kstreams},1651333166,0
{consumergroup=__strimzi-topic-operator-kstreams},1651333171,0
{consumergroup=__strimzi-topic-operator-kstreams},1651333176,0
{consumergroup=__strimzi-topic-operator-kstreams},1651333181,0
{consumergroup=__strimzi-topic-operator-kstreams},1651333186,0
{consumergroup=__strimzi-topic-operator-kstreams},1651333191,0
{consumergroup=__strimzi-topic-operator-kstreams},1651333196,0
{consumergroup=__strimzi-topic-operator-kstreams},1651333201,0
{consumergroup=__strimzi-topic-operator-kstreams},1651333206,0
{consumergroup=__strimzi-topic-operator-kstreams},1651333211,0
{consumergroup=__strimzi-topic-operator-kstreams},1651333216,0
{consumergroup=__strimzi-topic-operator-kstreams},1651333221,0
{consumergroup=__strimzi-topic-operator-kstreams},1651333226,0
{consumergroup=__strimzi-topic-operator-kstreams},1651333231,0
{consumergroup=__strimzi-topic-operator-kstreams},1651333236,0
{consumergroup=__strimzi-topic-operator-kstreams},1651333241,0
{consumergroup=__strimzi-topic-operator-kstreams},1651333246,0
{consumergroup=__strimzi-topic-operator-kstreams},1651333251,0
{consumergroup=__strimzi-topic-operator-kstreams},1651333256,0
{consumergroup=__strimzi-topic-operator-kstreams},1651333261,0
{consumergroup=__strimzi-topic-operator-kstreams},1651333266,0
{consumergroup=__strimzi-topic-operator-kstreams},1651333271,0
{consumergroup=__strimzi-topic-operator-kstreams},1651333276,0
{consumergroup=__strimzi-topic-operator-kstreams},1651333281,0
{consumergroup=__strimzi-topic-operator-kstreams},1651333286,0
{consumergroup=__strimzi-topic-operator-kstreams},1651333291,0
{consumergroup=__strimzi-topic-operator-kstreams},1651333296,0
{consumergroup=__strimzi-topic-operator-kstreams},1651333301,0
{consumergroup=__strimzi-topic-operator-kstreams},1651333306,0
{consumergroup=__strimzi-topic-operator-kstreams},1651333311,0
{consumergroup=__strimzi-topic-operator-kstreams},1651333316,0
{consumergroup=__strimzi-topic-operator-kstreams},1651333321,0
{consumergroup=__strimzi-topic-operator-kstreams},1651333326,0
{consumergroup=__strimzi-topic-operator-kstreams},1651333331,0
{consumergroup=__strimzi-topic-operator-kstreams},1651333336,0
{consumergroup=__strimzi-topic-operator-kstreams},1651333341,0
{consumergroup=__strimzi-topic-operator-kstreams},1651333346,0
{consumergroup=__strimzi-topic-operator-kstreams},1651333351,0
{consumergroup=__strimzi-topic-operator-kstreams},1651333356,0
{consumergroup=__strimzi-topic-operator-kstreams},1651333361,0
{consumergroup=__strimzi-topic-operator-kstreams},1651333366,0
{consumergroup=__strimzi-topic-operator-kstreams},1651333371,0
{consumergroup=__strimzi-topic-operator-kstreams},1651333376,0
{consumergroup=__strimzi-topic-operator-kstreams},1651333381,0
{consumergroup=__strimzi-topic-operator-kstreams},1651333386,0
{consumergroup=__strimzi-topic-operator-kstreams},1651333391,0
{consumergroup=__strimzi-topic-operator-kstreams},1651333396,0
{consumergroup=__strimzi-topic-operator-kstreams},1651333401,0
{consumergroup=__strimzi-topic-operator-kstreams},1651333406,0
{consumergroup=__strimzi-topic-operator-kstreams},1651333411,0
{consumergroup=__strimzi-topic-operator-kstreams},1651333416,0
{consumergroup=__strimzi-topic-operator-kstreams},1651333421,0
{consumergroup=__strimzi-topic-operator-kstreams},1651333426,0
{consumergroup=__strimzi-topic-operator-kstreams},1651333431,0
{consumergroup=__strimzi-topic-operator-kstreams},1651333436,0
{consumergroup=adapter-service},1651332961,0
{consumergroup=adapter-service},1651332966,0
{consumergroup=adapter-service},1651332971,0
{consumergroup=adapter-service},1651332976,1119
{consumergroup=adapter-service},1651332981,1119
{consumergroup=adapter-service},1651332986,1119
{consumergroup=adapter-service},1651332991,3054
{consumergroup=adapter-service},1651332996,3054
{consumergroup=adapter-service},1651333001,3054
{consumergroup=adapter-service},1651333006,3180
{consumergroup=adapter-service},1651333011,3180
{consumergroup=adapter-service},1651333016,3180
{consumergroup=adapter-service},1651333021,15108
{consumergroup=adapter-service},1651333026,15108
{consumergroup=adapter-service},1651333031,15108
{consumergroup=adapter-service},1651333036,3821
{consumergroup=adapter-service},1651333041,3821
{consumergroup=adapter-service},1651333046,3821
{consumergroup=adapter-service},1651333051,13435
{consumergroup=adapter-service},1651333056,13435
{consumergroup=adapter-service},1651333061,13435
{consumergroup=adapter-service},1651333066,5186
{consumergroup=adapter-service},1651333071,5186
{consumergroup=adapter-service},1651333076,5186
{consumergroup=adapter-service},1651333081,13123
{consumergroup=adapter-service},1651333086,13123
{consumergroup=adapter-service},1651333091,13123
{consumergroup=adapter-service},1651333096,6750
{consumergroup=adapter-service},1651333101,6750
{consumergroup=adapter-service},1651333106,6750
{consumergroup=adapter-service},1651333111,14262
{consumergroup=adapter-service},1651333116,14262
{consumergroup=adapter-service},1651333121,14262
{consumergroup=adapter-service},1651333126,12800
{consumergroup=adapter-service},1651333131,12800
{consumergroup=adapter-service},1651333136,12800
{consumergroup=adapter-service},1651333141,14973
{consumergroup=adapter-service},1651333146,14973
{consumergroup=adapter-service},1651333151,14973
{consumergroup=adapter-service},1651333156,14028
{consumergroup=adapter-service},1651333161,14028
{consumergroup=adapter-service},1651333166,14028
{consumergroup=adapter-service},1651333171,13706
{consumergroup=adapter-service},1651333176,13706
{consumergroup=adapter-service},1651333181,13706
{consumergroup=adapter-service},1651333186,1952
{consumergroup=adapter-service},1651333191,1952
{consumergroup=adapter-service},1651333196,1952
{consumergroup=adapter-service},1651333201,13445
{consumergroup=adapter-service},1651333206,13445
{consumergroup=adapter-service},1651333211,13445
{consumergroup=adapter-service},1651333216,14336
{consumergroup=adapter-service},1651333221,14336
{consumergroup=adapter-service},1651333226,14336
{consumergroup=adapter-service},1651333231,13021
{consumergroup=adapter-service},1651333236,13021
{consumergroup=adapter-service},1651333241,13021
{consumergroup=adapter-service},1651333246,14149
{consumergroup=adapter-service},1651333251,14149
{consumergroup=adapter-service},1651333256,14149
{consumergroup=adapter-service},1651333261,12609
{consumergroup=adapter-service},1651333266,12609
{consumergroup=adapter-service},1651333271,12609
{consumergroup=adapter-service},1651333276,13543
{consumergroup=adapter-service},1651333281,13543
{consumergroup=adapter-service},1651333286,13543
{consumergroup=adapter-service},1651333291,13044
{consumergroup=adapter-service},1651333296,13044
{consumergroup=adapter-service},1651333301,13044
{consumergroup=adapter-service},1651333306,13092
{consumergroup=adapter-service},1651333311,13092
{consumergroup=adapter-service},1651333316,13092
{consumergroup=adapter-service},1651333321,12876
{consumergroup=adapter-service},1651333326,12876
{consumergroup=adapter-service},1651333331,12876
{consumergroup=adapter-service},1651333336,12888
{consumergroup=adapter-service},1651333341,12888
{consumergroup=adapter-service},1651333346,12888
{consumergroup=adapter-service},1651333351,11578
{consumergroup=adapter-service},1651333356,11578
{consumergroup=adapter-service},1651333361,11578
{consumergroup=adapter-service},1651333366,12505
{consumergroup=adapter-service},1651333371,12505
{consumergroup=adapter-service},1651333376,12505
{consumergroup=adapter-service},1651333381,12219
{consumergroup=adapter-service},1651333386,12219
{consumergroup=adapter-service},1651333391,12219
{consumergroup=adapter-service},1651333396,13252
{consumergroup=adapter-service},1651333401,13252
{consumergroup=adapter-service},1651333406,13252
{consumergroup=adapter-service},1651333411,11075
{consumergroup=adapter-service},1651333416,11075
{consumergroup=adapter-service},1651333421,11075
{consumergroup=adapter-service},1651333426,12018
{consumergroup=adapter-service},1651333431,12018
{consumergroup=adapter-service},1651333436,12018
{consumergroup=landscape-service},1651332976,31826
{consumergroup=landscape-service},1651332981,31826
{consumergroup=landscape-service},1651332986,31826
{consumergroup=landscape-service},1651332991,7158
{consumergroup=landscape-service},1651332996,7158
{consumergroup=landscape-service},1651333001,7158
{consumergroup=landscape-service},1651333006,6643
{consumergroup=landscape-service},1651333011,6643
{consumergroup=landscape-service},1651333016,6643
{consumergroup=landscape-service},1651333021,4546
{consumergroup=landscape-service},1651333026,4546
{consumergroup=landscape-service},1651333031,4546
{consumergroup=landscape-service},1651333036,6915
{consumergroup=landscape-service},1651333041,6915
{consumergroup=landscape-service},1651333046,6915
{consumergroup=landscape-service},1651333051,5177
{consumergroup=landscape-service},1651333056,5177
{consumergroup=landscape-service},1651333061,5177
{consumergroup=landscape-service},1651333066,5862
{consumergroup=landscape-service},1651333071,5862
{consumergroup=landscape-service},1651333076,5862
{consumergroup=landscape-service},1651333081,4392
{consumergroup=landscape-service},1651333086,4392
{consumergroup=landscape-service},1651333091,4392
{consumergroup=landscape-service},1651333096,5000
{consumergroup=landscape-service},1651333101,5000
{consumergroup=landscape-service},1651333106,5000
{consumergroup=landscape-service},1651333111,3320
{consumergroup=landscape-service},1651333116,3320
{consumergroup=landscape-service},1651333121,3320
{consumergroup=landscape-service},1651333126,4018
{consumergroup=landscape-service},1651333131,4018
{consumergroup=landscape-service},1651333136,4018
{consumergroup=landscape-service},1651333141,3473
{consumergroup=landscape-service},1651333146,3473
{consumergroup=landscape-service},1651333151,3473
{consumergroup=landscape-service},1651333156,3945
{consumergroup=landscape-service},1651333161,3945
{consumergroup=landscape-service},1651333166,3945
{consumergroup=landscape-service},1651333171,2418
{consumergroup=landscape-service},1651333176,2418
{consumergroup=landscape-service},1651333181,2418
{consumergroup=landscape-service},1651333186,6592
{consumergroup=landscape-service},1651333191,6592
{consumergroup=landscape-service},1651333196,6592
{consumergroup=landscape-service},1651333201,1541
{consumergroup=landscape-service},1651333206,1541
{consumergroup=landscape-service},1651333211,1541
{consumergroup=landscape-service},1651333216,1508
{consumergroup=landscape-service},1651333221,1508
{consumergroup=landscape-service},1651333226,1508
{consumergroup=landscape-service},1651333231,17050
{consumergroup=landscape-service},1651333236,17050
{consumergroup=landscape-service},1651333241,17050
{consumergroup=landscape-service},1651333246,1461
{consumergroup=landscape-service},1651333251,1461
{consumergroup=landscape-service},1651333256,1461
{consumergroup=landscape-service},1651333261,16096
{consumergroup=landscape-service},1651333266,16096
{consumergroup=landscape-service},1651333271,16096
{consumergroup=landscape-service},1651333276,16871
{consumergroup=landscape-service},1651333281,16871
{consumergroup=landscape-service},1651333286,16871
{consumergroup=landscape-service},1651333291,15228
{consumergroup=landscape-service},1651333296,15228
{consumergroup=landscape-service},1651333301,15228
{consumergroup=landscape-service},1651333306,16412
{consumergroup=landscape-service},1651333311,16412
{consumergroup=landscape-service},1651333316,16412
{consumergroup=landscape-service},1651333321,14187
{consumergroup=landscape-service},1651333326,14187
{consumergroup=landscape-service},1651333331,14187
{consumergroup=landscape-service},1651333336,15601
{consumergroup=landscape-service},1651333341,15601
{consumergroup=landscape-service},1651333346,15601
{consumergroup=landscape-service},1651333351,13815
{consumergroup=landscape-service},1651333356,13815
{consumergroup=landscape-service},1651333361,13815
{consumergroup=landscape-service},1651333366,14667
{consumergroup=landscape-service},1651333371,14667
{consumergroup=landscape-service},1651333376,14667
{consumergroup=landscape-service},1651333381,12469
{consumergroup=landscape-service},1651333386,12469
{consumergroup=landscape-service},1651333391,12469
{consumergroup=landscape-service},1651333396,13084
{consumergroup=landscape-service},1651333401,13084
{consumergroup=landscape-service},1651333406,13084
{consumergroup=landscape-service},1651333411,11513
{consumergroup=landscape-service},1651333416,11513
{consumergroup=landscape-service},1651333421,11513
{consumergroup=landscape-service},1651333426,12187
{consumergroup=landscape-service},1651333431,12187
{consumergroup=landscape-service},1651333436,12187
{consumergroup=trace-service},1651332976,8185
{consumergroup=trace-service},1651332981,8185
{consumergroup=trace-service},1651332986,8185
{consumergroup=trace-service},1651332991,25137
{consumergroup=trace-service},1651332996,25137
{consumergroup=trace-service},1651333001,25137
{consumergroup=trace-service},1651333006,58908
{consumergroup=trace-service},1651333011,58908
{consumergroup=trace-service},1651333016,58908
{consumergroup=trace-service},1651333021,4497
{consumergroup=trace-service},1651333026,4497
{consumergroup=trace-service},1651333031,4497
{consumergroup=trace-service},1651333036,50513
{consumergroup=trace-service},1651333041,50513
{consumergroup=trace-service},1651333046,50513
{consumergroup=trace-service},1651333051,18735
{consumergroup=trace-service},1651333056,18735
{consumergroup=trace-service},1651333061,18735
{consumergroup=trace-service},1651333066,43058
{consumergroup=trace-service},1651333071,43058
{consumergroup=trace-service},1651333076,43058
{consumergroup=trace-service},1651333081,21465
{consumergroup=trace-service},1651333086,21465
{consumergroup=trace-service},1651333091,21465
{consumergroup=trace-service},1651333096,45522
{consumergroup=trace-service},1651333101,45522
{consumergroup=trace-service},1651333106,45522
{consumergroup=trace-service},1651333111,8665
{consumergroup=trace-service},1651333116,8665
{consumergroup=trace-service},1651333121,8665
{consumergroup=trace-service},1651333126,47254
{consumergroup=trace-service},1651333131,47254
{consumergroup=trace-service},1651333136,47254
{consumergroup=trace-service},1651333141,12800
{consumergroup=trace-service},1651333146,12800
{consumergroup=trace-service},1651333151,12800
{consumergroup=trace-service},1651333156,56192
{consumergroup=trace-service},1651333161,56192
{consumergroup=trace-service},1651333166,56192
{consumergroup=trace-service},1651333171,17221
{consumergroup=trace-service},1651333176,17221
{consumergroup=trace-service},1651333181,17221
{consumergroup=trace-service},1651333186,55181
{consumergroup=trace-service},1651333191,55181
{consumergroup=trace-service},1651333196,55181
{consumergroup=trace-service},1651333201,22957
{consumergroup=trace-service},1651333206,22957
{consumergroup=trace-service},1651333211,22957
{consumergroup=trace-service},1651333216,42402
{consumergroup=trace-service},1651333221,42402
{consumergroup=trace-service},1651333226,42402
{consumergroup=trace-service},1651333231,16470
{consumergroup=trace-service},1651333236,16470
{consumergroup=trace-service},1651333241,16470
{consumergroup=trace-service},1651333246,45085
{consumergroup=trace-service},1651333251,45085
{consumergroup=trace-service},1651333256,45085
{consumergroup=trace-service},1651333261,14024
{consumergroup=trace-service},1651333266,14024
{consumergroup=trace-service},1651333271,14024
{consumergroup=trace-service},1651333276,49857
{consumergroup=trace-service},1651333281,49857
{consumergroup=trace-service},1651333286,49857
{consumergroup=trace-service},1651333291,17451
{consumergroup=trace-service},1651333296,17451
{consumergroup=trace-service},1651333301,17451
{consumergroup=trace-service},1651333306,45836
{consumergroup=trace-service},1651333311,45836
{consumergroup=trace-service},1651333316,45836
{consumergroup=trace-service},1651333321,14147
{consumergroup=trace-service},1651333326,14147
{consumergroup=trace-service},1651333331,14147
{consumergroup=trace-service},1651333336,49439
{consumergroup=trace-service},1651333341,49439
{consumergroup=trace-service},1651333346,49439
{consumergroup=trace-service},1651333351,15108
{consumergroup=trace-service},1651333356,15108
{consumergroup=trace-service},1651333361,15108
{consumergroup=trace-service},1651333366,45112
{consumergroup=trace-service},1651333371,45112
{consumergroup=trace-service},1651333376,45112
{consumergroup=trace-service},1651333381,14699
{consumergroup=trace-service},1651333386,14699
{consumergroup=trace-service},1651333391,14699
{consumergroup=trace-service},1651333396,44104
{consumergroup=trace-service},1651333401,44104
{consumergroup=trace-service},1651333406,44104
{consumergroup=trace-service},1651333411,16248
{consumergroup=trace-service},1651333416,16248
{consumergroup=trace-service},1651333421,16248
{consumergroup=trace-service},1651333426,48300
{consumergroup=trace-service},1651333431,48300
{consumergroup=trace-service},1651333436,48300
{consumergroup=trace-token-events-consumer},1651332961,0
{consumergroup=trace-token-events-consumer},1651332966,0
{consumergroup=trace-token-events-consumer},1651332971,0
{consumergroup=trace-token-events-consumer},1651332976,0
{consumergroup=trace-token-events-consumer},1651332981,0
{consumergroup=trace-token-events-consumer},1651332986,0
{consumergroup=trace-token-events-consumer},1651332991,0
{consumergroup=trace-token-events-consumer},1651332996,0
{consumergroup=trace-token-events-consumer},1651333001,0
{consumergroup=trace-token-events-consumer},1651333006,0
{consumergroup=trace-token-events-consumer},1651333011,0
{consumergroup=trace-token-events-consumer},1651333016,0
{consumergroup=trace-token-events-consumer},1651333021,0
{consumergroup=trace-token-events-consumer},1651333026,0
{consumergroup=trace-token-events-consumer},1651333031,0
{consumergroup=trace-token-events-consumer},1651333036,0
{consumergroup=trace-token-events-consumer},1651333041,0
{consumergroup=trace-token-events-consumer},1651333046,0
{consumergroup=trace-token-events-consumer},1651333051,0
{consumergroup=trace-token-events-consumer},1651333056,0
{consumergroup=trace-token-events-consumer},1651333061,0
{consumergroup=trace-token-events-consumer},1651333066,0
{consumergroup=trace-token-events-consumer},1651333071,0
{consumergroup=trace-token-events-consumer},1651333076,0
{consumergroup=trace-token-events-consumer},1651333081,0
{consumergroup=trace-token-events-consumer},1651333086,0
{consumergroup=trace-token-events-consumer},1651333091,0
{consumergroup=trace-token-events-consumer},1651333096,0
{consumergroup=trace-token-events-consumer},1651333101,0
{consumergroup=trace-token-events-consumer},1651333106,0
{consumergroup=trace-token-events-consumer},1651333111,0
{consumergroup=trace-token-events-consumer},1651333116,0
{consumergroup=trace-token-events-consumer},1651333121,0
{consumergroup=trace-token-events-consumer},1651333126,0
{consumergroup=trace-token-events-consumer},1651333131,0
{consumergroup=trace-token-events-consumer},1651333136,0
{consumergroup=trace-token-events-consumer},1651333141,0
{consumergroup=trace-token-events-consumer},1651333146,0
{consumergroup=trace-token-events-consumer},1651333151,0
{consumergroup=trace-token-events-consumer},1651333156,0
{consumergroup=trace-token-events-consumer},1651333161,0
{consumergroup=trace-token-events-consumer},1651333166,0
{consumergroup=trace-token-events-consumer},1651333171,0
{consumergroup=trace-token-events-consumer},1651333176,0
{consumergroup=trace-token-events-consumer},1651333181,0
{consumergroup=trace-token-events-consumer},1651333186,0
{consumergroup=trace-token-events-consumer},1651333191,0
{consumergroup=trace-token-events-consumer},1651333196,0
{consumergroup=trace-token-events-consumer},1651333201,0
{consumergroup=trace-token-events-consumer},1651333206,0
{consumergroup=trace-token-events-consumer},1651333211,0
{consumergroup=trace-token-events-consumer},1651333216,0
{consumergroup=trace-token-events-consumer},1651333221,0
{consumergroup=trace-token-events-consumer},1651333226,0
{consumergroup=trace-token-events-consumer},1651333231,0
{consumergroup=trace-token-events-consumer},1651333236,0
{consumergroup=trace-token-events-consumer},1651333241,0
{consumergroup=trace-token-events-consumer},1651333246,0
{consumergroup=trace-token-events-consumer},1651333251,0
{consumergroup=trace-token-events-consumer},1651333256,0
{consumergroup=trace-token-events-consumer},1651333261,0
{consumergroup=trace-token-events-consumer},1651333266,0
{consumergroup=trace-token-events-consumer},1651333271,0
{consumergroup=trace-token-events-consumer},1651333276,0
{consumergroup=trace-token-events-consumer},1651333281,0
{consumergroup=trace-token-events-consumer},1651333286,0
{consumergroup=trace-token-events-consumer},1651333291,0
{consumergroup=trace-token-events-consumer},1651333296,0
{consumergroup=trace-token-events-consumer},1651333301,0
{consumergroup=trace-token-events-consumer},1651333306,0
{consumergroup=trace-token-events-consumer},1651333311,0
{consumergroup=trace-token-events-consumer},1651333316,0
{consumergroup=trace-token-events-consumer},1651333321,0
{consumergroup=trace-token-events-consumer},1651333326,0
{consumergroup=trace-token-events-consumer},1651333331,0
{consumergroup=trace-token-events-consumer},1651333336,0
{consumergroup=trace-token-events-consumer},1651333341,0
{consumergroup=trace-token-events-consumer},1651333346,0
{consumergroup=trace-token-events-consumer},1651333351,0
{consumergroup=trace-token-events-consumer},1651333356,0
{consumergroup=trace-token-events-consumer},1651333361,0
{consumergroup=trace-token-events-consumer},1651333366,0
{consumergroup=trace-token-events-consumer},1651333371,0
{consumergroup=trace-token-events-consumer},1651333376,0
{consumergroup=trace-token-events-consumer},1651333381,0
{consumergroup=trace-token-events-consumer},1651333386,0
{consumergroup=trace-token-events-consumer},1651333391,0
{consumergroup=trace-token-events-consumer},1651333396,0
{consumergroup=trace-token-events-consumer},1651333401,0
{consumergroup=trace-token-events-consumer},1651333406,0
{consumergroup=trace-token-events-consumer},1651333411,0
{consumergroup=trace-token-events-consumer},1651333416,0
{consumergroup=trace-token-events-consumer},1651333421,0
{consumergroup=trace-token-events-consumer},1651333426,0
{consumergroup=trace-token-events-consumer},1651333431,0
{consumergroup=trace-token-events-consumer},1651333436,0
