labels,timestamp,value
{consumergroup=__strimzi-topic-operator-kstreams},1651455795,0
{consumergroup=__strimzi-topic-operator-kstreams},1651455805,23
{consumergroup=__strimzi-topic-operator-kstreams},1651455810,23
{consumergroup=__strimzi-topic-operator-kstreams},1651455815,23
{consumergroup=__strimzi-topic-operator-kstreams},1651455820,0
{consumergroup=__strimzi-topic-operator-kstreams},1651455825,0
{consumergroup=__strimzi-topic-operator-kstreams},1651455830,0
{consumergroup=__strimzi-topic-operator-kstreams},1651455835,0
{consumergroup=__strimzi-topic-operator-kstreams},1651455840,0
{consumergroup=__strimzi-topic-operator-kstreams},1651455845,0
{consumergroup=__strimzi-topic-operator-kstreams},1651455850,0
{consumergroup=__strimzi-topic-operator-kstreams},1651455855,0
{consumergroup=__strimzi-topic-operator-kstreams},1651455860,0
{consumergroup=__strimzi-topic-operator-kstreams},1651455865,0
{consumergroup=__strimzi-topic-operator-kstreams},1651455870,0
{consumergroup=__strimzi-topic-operator-kstreams},1651455875,0
{consumergroup=__strimzi-topic-operator-kstreams},1651455880,0
{consumergroup=__strimzi-topic-operator-kstreams},1651455885,0
{consumergroup=__strimzi-topic-operator-kstreams},1651455890,0
{consumergroup=__strimzi-topic-operator-kstreams},1651455895,0
{consumergroup=__strimzi-topic-operator-kstreams},1651455900,0
{consumergroup=__strimzi-topic-operator-kstreams},1651455905,0
{consumergroup=__strimzi-topic-operator-kstreams},1651455910,0
{consumergroup=__strimzi-topic-operator-kstreams},1651455915,0
{consumergroup=__strimzi-topic-operator-kstreams},1651455920,0
{consumergroup=__strimzi-topic-operator-kstreams},1651455925,0
{consumergroup=__strimzi-topic-operator-kstreams},1651455930,0
{consumergroup=__strimzi-topic-operator-kstreams},1651455935,0
{consumergroup=__strimzi-topic-operator-kstreams},1651455940,0
{consumergroup=__strimzi-topic-operator-kstreams},1651455945,0
{consumergroup=__strimzi-topic-operator-kstreams},1651455950,0
{consumergroup=__strimzi-topic-operator-kstreams},1651455955,0
{consumergroup=__strimzi-topic-operator-kstreams},1651455960,0
{consumergroup=__strimzi-topic-operator-kstreams},1651455965,0
{consumergroup=__strimzi-topic-operator-kstreams},1651455970,0
{consumergroup=__strimzi-topic-operator-kstreams},1651455975,0
{consumergroup=__strimzi-topic-operator-kstreams},1651455980,0
{consumergroup=__strimzi-topic-operator-kstreams},1651455985,0
{consumergroup=__strimzi-topic-operator-kstreams},1651455990,0
{consumergroup=__strimzi-topic-operator-kstreams},1651455995,0
{consumergroup=__strimzi-topic-operator-kstreams},1651456000,0
{consumergroup=__strimzi-topic-operator-kstreams},1651456005,0
{consumergroup=__strimzi-topic-operator-kstreams},1651456010,0
{consumergroup=__strimzi-topic-operator-kstreams},1651456015,0
{consumergroup=__strimzi-topic-operator-kstreams},1651456020,0
{consumergroup=__strimzi-topic-operator-kstreams},1651456025,0
{consumergroup=__strimzi-topic-operator-kstreams},1651456030,0
{consumergroup=__strimzi-topic-operator-kstreams},1651456035,0
{consumergroup=__strimzi-topic-operator-kstreams},1651456040,0
{consumergroup=__strimzi-topic-operator-kstreams},1651456045,0
{consumergroup=__strimzi-topic-operator-kstreams},1651456050,0
{consumergroup=__strimzi-topic-operator-kstreams},1651456055,0
{consumergroup=adapter-service},1651455795,951150
{consumergroup=adapter-service},1651455835,87592
{consumergroup=adapter-service},1651455840,87592
{consumergroup=adapter-service},1651455845,87592
{consumergroup=adapter-service},1651455850,433123
{consumergroup=adapter-service},1651455855,433123
{consumergroup=adapter-service},1651455860,433123
{consumergroup=adapter-service},1651455865,628833
{consumergroup=adapter-service},1651455870,628833
{consumergroup=adapter-service},1651455875,628833
{consumergroup=adapter-service},1651455880,801128
{consumergroup=adapter-service},1651455885,801128
{consumergroup=adapter-service},1651455890,801128
{consumergroup=adapter-service},1651455895,955541
{consumergroup=adapter-service},1651455900,955541
{consumergroup=adapter-service},1651455905,955541
{consumergroup=adapter-service},1651455910,1064635
{consumergroup=adapter-service},1651455915,1064635
{consumergroup=adapter-service},1651455920,1064635
{consumergroup=adapter-service},1651455925,1186902
{consumergroup=adapter-service},1651455930,1186902
{consumergroup=adapter-service},1651455935,1186902
{consumergroup=adapter-service},1651455940,1246754
{consumergroup=adapter-service},1651455945,1246754
{consumergroup=adapter-service},1651455950,1246754
{consumergroup=adapter-service},1651455955,1297593
{consumergroup=adapter-service},1651455960,1297593
{consumergroup=adapter-service},1651455965,1297593
{consumergroup=adapter-service},1651455970,1354630
{consumergroup=adapter-service},1651455975,1354630
{consumergroup=adapter-service},1651455980,1354630
{consumergroup=adapter-service},1651455985,1393405
{consumergroup=adapter-service},1651455990,1393405
{consumergroup=adapter-service},1651455995,1393405
{consumergroup=adapter-service},1651456000,1451791
{consumergroup=adapter-service},1651456005,1451791
{consumergroup=adapter-service},1651456010,1451791
{consumergroup=adapter-service},1651456015,1485528
{consumergroup=adapter-service},1651456020,1485528
{consumergroup=adapter-service},1651456025,1485528
{consumergroup=adapter-service},1651456030,1509300
{consumergroup=adapter-service},1651456035,1509300
{consumergroup=adapter-service},1651456040,1509300
{consumergroup=adapter-service},1651456045,1549000
{consumergroup=adapter-service},1651456050,1549000
{consumergroup=adapter-service},1651456055,1549000
