labels,timestamp,value
{consumergroup=__strimzi-topic-operator-kstreams},1651448898,18
{consumergroup=__strimzi-topic-operator-kstreams},1651448903,18
{consumergroup=__strimzi-topic-operator-kstreams},1651448908,18
{consumergroup=__strimzi-topic-operator-kstreams},1651448913,0
{consumergroup=__strimzi-topic-operator-kstreams},1651448918,0
{consumergroup=__strimzi-topic-operator-kstreams},1651448923,0
{consumergroup=__strimzi-topic-operator-kstreams},1651448928,0
{consumergroup=__strimzi-topic-operator-kstreams},1651448933,0
{consumergroup=__strimzi-topic-operator-kstreams},1651448938,0
{consumergroup=__strimzi-topic-operator-kstreams},1651448943,0
{consumergroup=__strimzi-topic-operator-kstreams},1651448948,0
{consumergroup=__strimzi-topic-operator-kstreams},1651448953,0
{consumergroup=__strimzi-topic-operator-kstreams},1651448958,0
{consumergroup=__strimzi-topic-operator-kstreams},1651448963,0
{consumergroup=__strimzi-topic-operator-kstreams},1651448968,0
{consumergroup=__strimzi-topic-operator-kstreams},1651448973,0
{consumergroup=__strimzi-topic-operator-kstreams},1651448978,0
{consumergroup=__strimzi-topic-operator-kstreams},1651448983,0
{consumergroup=__strimzi-topic-operator-kstreams},1651448988,0
{consumergroup=__strimzi-topic-operator-kstreams},1651448993,0
{consumergroup=__strimzi-topic-operator-kstreams},1651448998,0
{consumergroup=__strimzi-topic-operator-kstreams},1651449003,0
{consumergroup=__strimzi-topic-operator-kstreams},1651449008,0
{consumergroup=__strimzi-topic-operator-kstreams},1651449013,0
{consumergroup=__strimzi-topic-operator-kstreams},1651449018,0
{consumergroup=__strimzi-topic-operator-kstreams},1651449023,0
{consumergroup=__strimzi-topic-operator-kstreams},1651449028,0
{consumergroup=__strimzi-topic-operator-kstreams},1651449033,0
{consumergroup=__strimzi-topic-operator-kstreams},1651449038,0
{consumergroup=__strimzi-topic-operator-kstreams},1651449043,0
{consumergroup=__strimzi-topic-operator-kstreams},1651449048,0
{consumergroup=__strimzi-topic-operator-kstreams},1651449053,0
{consumergroup=__strimzi-topic-operator-kstreams},1651449058,0
{consumergroup=__strimzi-topic-operator-kstreams},1651449063,0
{consumergroup=__strimzi-topic-operator-kstreams},1651449068,0
{consumergroup=__strimzi-topic-operator-kstreams},1651449073,0
{consumergroup=__strimzi-topic-operator-kstreams},1651449078,0
{consumergroup=__strimzi-topic-operator-kstreams},1651449083,0
{consumergroup=__strimzi-topic-operator-kstreams},1651449088,0
{consumergroup=__strimzi-topic-operator-kstreams},1651449093,0
{consumergroup=__strimzi-topic-operator-kstreams},1651449098,0
{consumergroup=__strimzi-topic-operator-kstreams},1651449103,0
{consumergroup=__strimzi-topic-operator-kstreams},1651449108,0
{consumergroup=__strimzi-topic-operator-kstreams},1651449113,0
{consumergroup=__strimzi-topic-operator-kstreams},1651449118,0
{consumergroup=__strimzi-topic-operator-kstreams},1651449123,0
{consumergroup=__strimzi-topic-operator-kstreams},1651449128,0
{consumergroup=__strimzi-topic-operator-kstreams},1651449133,0
{consumergroup=__strimzi-topic-operator-kstreams},1651449138,0
{consumergroup=__strimzi-topic-operator-kstreams},1651449143,0
{consumergroup=__strimzi-topic-operator-kstreams},1651449148,0
{consumergroup=adapter-service},1651448928,55785
{consumergroup=adapter-service},1651448933,55785
{consumergroup=adapter-service},1651448938,55785
{consumergroup=adapter-service},1651448943,229736
{consumergroup=adapter-service},1651448948,229736
{consumergroup=adapter-service},1651448953,229736
{consumergroup=adapter-service},1651448958,367141
{consumergroup=adapter-service},1651448963,367141
{consumergroup=adapter-service},1651448968,367141
{consumergroup=adapter-service},1651448973,488888
{consumergroup=adapter-service},1651448978,488888
{consumergroup=adapter-service},1651448983,488888
{consumergroup=adapter-service},1651448988,597122
{consumergroup=adapter-service},1651448993,597122
{consumergroup=adapter-service},1651448998,597122
{consumergroup=adapter-service},1651449003,689297
{consumergroup=adapter-service},1651449008,689297
{consumergroup=adapter-service},1651449013,689297
{consumergroup=adapter-service},1651449018,771804
{consumergroup=adapter-service},1651449023,771804
{consumergroup=adapter-service},1651449028,771804
{consumergroup=adapter-service},1651449033,825240
{consumergroup=adapter-service},1651449038,825240
{consumergroup=adapter-service},1651449043,825240
{consumergroup=adapter-service},1651449048,861329
{consumergroup=adapter-service},1651449053,861329
{consumergroup=adapter-service},1651449058,861329
{consumergroup=adapter-service},1651449063,899151
{consumergroup=adapter-service},1651449068,899151
{consumergroup=adapter-service},1651449073,899151
{consumergroup=adapter-service},1651449078,915254
{consumergroup=adapter-service},1651449083,915254
{consumergroup=adapter-service},1651449088,915254
{consumergroup=adapter-service},1651449093,930132
{consumergroup=adapter-service},1651449098,930132
{consumergroup=adapter-service},1651449103,930132
{consumergroup=adapter-service},1651449108,949177
{consumergroup=adapter-service},1651449113,949177
{consumergroup=adapter-service},1651449118,949177
{consumergroup=adapter-service},1651449123,957584
{consumergroup=adapter-service},1651449128,957584
{consumergroup=adapter-service},1651449133,957584
{consumergroup=adapter-service},1651449138,974535
{consumergroup=adapter-service},1651449143,974535
{consumergroup=adapter-service},1651449148,974535
