labels,timestamp,value
{job=theodolite-stu200776/combined-trace-podmonitor},1651329295,0.07613178738354187
{job=theodolite-stu200776/combined-trace-podmonitor},1651329300,0.6118908076380393
{job=theodolite-stu200776/combined-trace-podmonitor},1651329305,1.4108774774642032
{job=theodolite-stu200776/combined-trace-podmonitor},1651329310,1.8193322198680957
{job=theodolite-stu200776/combined-trace-podmonitor},1651329315,1.8661801121188857
{job=theodolite-stu200776/combined-trace-podmonitor},1651329320,1.6608088632463303
{job=theodolite-stu200776/combined-trace-podmonitor},1651329325,1.4767281358659752
{job=theodolite-stu200776/combined-trace-podmonitor},1651329330,1.3447844058970064
{job=theodolite-stu200776/combined-trace-podmonitor},1651329335,0.9468430335465138
{job=theodolite-stu200776/combined-trace-podmonitor},1651329340,0.3399442497296478
{job=theodolite-stu200776/combined-trace-podmonitor},1651329345,0
{job=theodolite-stu200776/combined-trace-podmonitor},1651329350,0
{job=theodolite-stu200776/combined-trace-podmonitor},1651329355,0
{job=theodolite-stu200776/combined-trace-podmonitor},1651329360,0
{job=theodolite-stu200776/combined-trace-podmonitor},1651329365,0
{job=theodolite-stu200776/combined-trace-podmonitor},1651329370,0
{job=theodolite-stu200776/combined-trace-podmonitor},1651329375,0
{job=theodolite-stu200776/combined-trace-podmonitor},1651329380,0
{job=theodolite-stu200776/combined-trace-podmonitor},1651329385,0
{job=theodolite-stu200776/combined-trace-podmonitor},1651329390,0
{job=theodolite-stu200776/combined-trace-podmonitor},1651329395,0
{job=theodolite-stu200776/combined-trace-podmonitor},1651329400,0
{job=theodolite-stu200776/combined-trace-podmonitor},1651329405,0
{job=theodolite-stu200776/combined-trace-podmonitor},1651329410,0
{job=theodolite-stu200776/combined-trace-podmonitor},1651329415,0
{job=theodolite-stu200776/combined-trace-podmonitor},1651329420,0
{job=theodolite-stu200776/combined-trace-podmonitor},1651329425,302.36478491386924
{job=theodolite-stu200776/combined-trace-podmonitor},1651329430,844.6729917180975
{job=theodolite-stu200776/combined-trace-podmonitor},1651329435,1060.8799379468112
{job=theodolite-stu200776/combined-trace-podmonitor},1651329440,1003.3322978910028
{job=theodolite-stu200776/combined-trace-podmonitor},1651329445,938.9033393242536
{job=theodolite-stu200776/combined-trace-podmonitor},1651329450,935.3093447202956
{job=theodolite-stu200776/combined-trace-podmonitor},1651329455,1041.9060475620386
{job=theodolite-stu200776/combined-trace-podmonitor},1651329460,1103.0432344172405
{job=theodolite-stu200776/combined-trace-podmonitor},1651329465,1000.1301594809984
{job=theodolite-stu200776/combined-trace-podmonitor},1651329470,831.8840716862476
{job=theodolite-stu200776/combined-trace-podmonitor},1651329475,712.0815714993145
{job=theodolite-stu200776/combined-trace-podmonitor},1651329480,627.1691965953465
{job=theodolite-stu200776/combined-trace-podmonitor},1651329485,364.69053682160154
{job=theodolite-stu200776/combined-trace-podmonitor},1651329490,75.54524052065608
{job=theodolite-stu200776/combined-trace-podmonitor},1651329495,0
{job=theodolite-stu200776/combined-trace-podmonitor},1651329500,0
{job=theodolite-stu200776/combined-trace-podmonitor},1651329505,0
{job=theodolite-stu200776/combined-trace-podmonitor},1651329510,0
{job=theodolite-stu200776/combined-trace-podmonitor},1651329515,400.81410409288
{job=theodolite-stu200776/combined-trace-podmonitor},1651329520,1215.8645709394664
{job=theodolite-stu200776/combined-trace-podmonitor},1651329525,1649.4072365744346
{job=theodolite-stu200776/combined-trace-podmonitor},1651329530,1584.2749525820877
{job=theodolite-stu200776/combined-trace-podmonitor},1651329535,1411.7493549018186
{job=theodolite-stu200776/combined-trace-podmonitor},1651329540,1275.8027097325626
{job=theodolite-stu200776/combined-trace-podmonitor},1651329545,1088.8963737544236
{job=theodolite-stu200776/combined-trace-podmonitor},1651329550,794.7558340463754
{job=theodolite-stu200776/combined-trace-podmonitor},1651329555,695.6051763808804
{job=theodolite-stu200776/combined-trace-podmonitor},1651329560,539.3440287043729
{job=theodolite-stu200776/combined-trace-podmonitor},1651329565,463.473380106675
{job=theodolite-stu200776/combined-trace-podmonitor},1651329570,433.88163481113804
{job=theodolite-stu200776/combined-trace-podmonitor},1651329575,332.7930774060914
{job=theodolite-stu200776/combined-trace-podmonitor},1651329580,198.8149724012005
{job=theodolite-stu200776/combined-trace-podmonitor},1651329585,0
{job=theodolite-stu200776/combined-trace-podmonitor},1651329590,0
{job=theodolite-stu200776/combined-trace-podmonitor},1651329595,0
{job=theodolite-stu200776/combined-trace-podmonitor},1651329600,0
{job=theodolite-stu200776/combined-trace-podmonitor},1651329605,0
{job=theodolite-stu200776/combined-trace-podmonitor},1651329610,0
{job=theodolite-stu200776/combined-trace-podmonitor},1651329615,0
{job=theodolite-stu200776/combined-trace-podmonitor},1651329620,0
{job=theodolite-stu200776/combined-trace-podmonitor},1651329625,0
{job=theodolite-stu200776/combined-trace-podmonitor},1651329630,0
{job=theodolite-stu200776/combined-trace-podmonitor},1651329635,0
{job=theodolite-stu200776/combined-trace-podmonitor},1651329640,0
{job=theodolite-stu200776/combined-trace-podmonitor},1651329645,0
{job=theodolite-stu200776/combined-trace-podmonitor},1651329650,0
{job=theodolite-stu200776/combined-trace-podmonitor},1651329655,0
{job=theodolite-stu200776/combined-trace-podmonitor},1651329660,0
{job=theodolite-stu200776/combined-trace-podmonitor},1651329665,0
{job=theodolite-stu200776/combined-trace-podmonitor},1651329670,0
{job=theodolite-stu200776/combined-trace-podmonitor},1651329675,0
{job=theodolite-stu200776/combined-trace-podmonitor},1651329680,0
{job=theodolite-stu200776/combined-trace-podmonitor},1651329685,0
{job=theodolite-stu200776/combined-trace-podmonitor},1651329690,0
{job=theodolite-stu200776/combined-trace-podmonitor},1651329695,0
{job=theodolite-stu200776/combined-trace-podmonitor},1651329700,0
{job=theodolite-stu200776/combined-trace-podmonitor},1651329705,0
{job=theodolite-stu200776/combined-trace-podmonitor},1651329710,0
{job=theodolite-stu200776/combined-trace-podmonitor},1651329715,0
{job=theodolite-stu200776/combined-trace-podmonitor},1651329720,0
{job=theodolite-stu200776/combined-trace-podmonitor},1651329725,0
{job=theodolite-stu200776/combined-trace-podmonitor},1651329730,0
{job=theodolite-stu200776/combined-trace-podmonitor},1651329735,0
