labels,timestamp,value
{consumergroup=__strimzi-topic-operator-kstreams},1651442966,0
{consumergroup=__strimzi-topic-operator-kstreams},1651442971,0
{consumergroup=__strimzi-topic-operator-kstreams},1651442976,5
{consumergroup=__strimzi-topic-operator-kstreams},1651442981,5
{consumergroup=__strimzi-topic-operator-kstreams},1651442986,5
{consumergroup=__strimzi-topic-operator-kstreams},1651442991,19
{consumergroup=__strimzi-topic-operator-kstreams},1651442996,19
{consumergroup=__strimzi-topic-operator-kstreams},1651443001,19
{consumergroup=__strimzi-topic-operator-kstreams},1651443006,0
{consumergroup=__strimzi-topic-operator-kstreams},1651443011,0
{consumergroup=__strimzi-topic-operator-kstreams},1651443016,0
{consumergroup=__strimzi-topic-operator-kstreams},1651443021,0
{consumergroup=__strimzi-topic-operator-kstreams},1651443026,0
{consumergroup=__strimzi-topic-operator-kstreams},1651443031,0
{consumergroup=__strimzi-topic-operator-kstreams},1651443036,0
{consumergroup=__strimzi-topic-operator-kstreams},1651443041,0
{consumergroup=__strimzi-topic-operator-kstreams},1651443046,0
{consumergroup=__strimzi-topic-operator-kstreams},1651443051,0
{consumergroup=__strimzi-topic-operator-kstreams},1651443056,0
{consumergroup=__strimzi-topic-operator-kstreams},1651443061,0
{consumergroup=__strimzi-topic-operator-kstreams},1651443066,0
{consumergroup=__strimzi-topic-operator-kstreams},1651443071,0
{consumergroup=__strimzi-topic-operator-kstreams},1651443076,0
{consumergroup=__strimzi-topic-operator-kstreams},1651443081,0
{consumergroup=__strimzi-topic-operator-kstreams},1651443086,0
{consumergroup=__strimzi-topic-operator-kstreams},1651443091,0
{consumergroup=__strimzi-topic-operator-kstreams},1651443096,0
{consumergroup=__strimzi-topic-operator-kstreams},1651443101,0
{consumergroup=__strimzi-topic-operator-kstreams},1651443106,0
{consumergroup=__strimzi-topic-operator-kstreams},1651443111,0
{consumergroup=__strimzi-topic-operator-kstreams},1651443116,0
{consumergroup=__strimzi-topic-operator-kstreams},1651443121,0
{consumergroup=__strimzi-topic-operator-kstreams},1651443126,0
{consumergroup=__strimzi-topic-operator-kstreams},1651443131,0
{consumergroup=__strimzi-topic-operator-kstreams},1651443136,0
{consumergroup=__strimzi-topic-operator-kstreams},1651443141,0
{consumergroup=__strimzi-topic-operator-kstreams},1651443146,0
{consumergroup=__strimzi-topic-operator-kstreams},1651443151,0
{consumergroup=__strimzi-topic-operator-kstreams},1651443156,0
{consumergroup=__strimzi-topic-operator-kstreams},1651443161,0
{consumergroup=__strimzi-topic-operator-kstreams},1651443166,0
{consumergroup=__strimzi-topic-operator-kstreams},1651443171,0
{consumergroup=__strimzi-topic-operator-kstreams},1651443176,0
{consumergroup=__strimzi-topic-operator-kstreams},1651443181,0
{consumergroup=__strimzi-topic-operator-kstreams},1651443186,0
{consumergroup=__strimzi-topic-operator-kstreams},1651443191,0
{consumergroup=__strimzi-topic-operator-kstreams},1651443196,0
{consumergroup=__strimzi-topic-operator-kstreams},1651443201,0
{consumergroup=__strimzi-topic-operator-kstreams},1651443206,0
{consumergroup=__strimzi-topic-operator-kstreams},1651443211,0
{consumergroup=__strimzi-topic-operator-kstreams},1651443216,0
{consumergroup=__strimzi-topic-operator-kstreams},1651443221,0
{consumergroup=__strimzi-topic-operator-kstreams},1651443226,0
{consumergroup=adapter-service},1651442966,0
{consumergroup=adapter-service},1651442971,0
{consumergroup=adapter-service},1651443006,29268
{consumergroup=adapter-service},1651443011,29268
{consumergroup=adapter-service},1651443016,29268
{consumergroup=adapter-service},1651443021,106835
{consumergroup=adapter-service},1651443026,106835
{consumergroup=adapter-service},1651443031,106835
{consumergroup=adapter-service},1651443036,149212
{consumergroup=adapter-service},1651443041,149212
{consumergroup=adapter-service},1651443046,149212
{consumergroup=adapter-service},1651443051,195135
{consumergroup=adapter-service},1651443056,195135
{consumergroup=adapter-service},1651443061,195135
{consumergroup=adapter-service},1651443066,233829
{consumergroup=adapter-service},1651443071,233829
{consumergroup=adapter-service},1651443076,233829
{consumergroup=adapter-service},1651443081,271852
{consumergroup=adapter-service},1651443086,271852
{consumergroup=adapter-service},1651443091,271852
{consumergroup=adapter-service},1651443096,301466
{consumergroup=adapter-service},1651443101,301466
{consumergroup=adapter-service},1651443106,301466
{consumergroup=adapter-service},1651443111,319382
{consumergroup=adapter-service},1651443116,319382
{consumergroup=adapter-service},1651443121,319382
{consumergroup=adapter-service},1651443126,320916
{consumergroup=adapter-service},1651443131,320916
{consumergroup=adapter-service},1651443136,320916
{consumergroup=adapter-service},1651443141,319012
{consumergroup=adapter-service},1651443146,319012
{consumergroup=adapter-service},1651443151,319012
{consumergroup=adapter-service},1651443156,313190
{consumergroup=adapter-service},1651443161,313190
{consumergroup=adapter-service},1651443166,313190
{consumergroup=adapter-service},1651443171,307775
{consumergroup=adapter-service},1651443176,307775
{consumergroup=adapter-service},1651443181,307775
{consumergroup=adapter-service},1651443186,306546
{consumergroup=adapter-service},1651443191,306546
{consumergroup=adapter-service},1651443196,306546
{consumergroup=adapter-service},1651443201,309865
{consumergroup=adapter-service},1651443206,309865
{consumergroup=adapter-service},1651443211,309865
{consumergroup=adapter-service},1651443216,311629
{consumergroup=adapter-service},1651443221,311629
{consumergroup=adapter-service},1651443226,311629
