labels,timestamp,value
{job=theodolite-stu200776/combined-trace-podmonitor},1651324399,0
{job=theodolite-stu200776/combined-trace-podmonitor},1651324404,0
{job=theodolite-stu200776/combined-trace-podmonitor},1651324409,0
{job=theodolite-stu200776/combined-trace-podmonitor},1651324414,0
{job=theodolite-stu200776/combined-trace-podmonitor},1651324419,0
{job=theodolite-stu200776/combined-trace-podmonitor},1651324424,0
{job=theodolite-stu200776/combined-trace-podmonitor},1651324429,0
{job=theodolite-stu200776/combined-trace-podmonitor},1651324434,0
{job=theodolite-stu200776/combined-trace-podmonitor},1651324439,0
{job=theodolite-stu200776/combined-trace-podmonitor},1651324444,0
{job=theodolite-stu200776/combined-trace-podmonitor},1651324449,0
{job=theodolite-stu200776/combined-trace-podmonitor},1651324454,0
{job=theodolite-stu200776/combined-trace-podmonitor},1651324459,0
{job=theodolite-stu200776/combined-trace-podmonitor},1651324464,0
{job=theodolite-stu200776/combined-trace-podmonitor},1651324469,0
{job=theodolite-stu200776/combined-trace-podmonitor},1651324474,0
{job=theodolite-stu200776/combined-trace-podmonitor},1651324479,0
{job=theodolite-stu200776/combined-trace-podmonitor},1651324484,0
{job=theodolite-stu200776/combined-trace-podmonitor},1651324489,0
{job=theodolite-stu200776/combined-trace-podmonitor},1651324494,0
{job=theodolite-stu200776/combined-trace-podmonitor},1651324499,0
{job=theodolite-stu200776/combined-trace-podmonitor},1651324504,0
{job=theodolite-stu200776/combined-trace-podmonitor},1651324509,0
{job=theodolite-stu200776/combined-trace-podmonitor},1651324514,0
{job=theodolite-stu200776/combined-trace-podmonitor},1651324519,0
{job=theodolite-stu200776/combined-trace-podmonitor},1651324524,0
{job=theodolite-stu200776/combined-trace-podmonitor},1651324529,0
{job=theodolite-stu200776/combined-trace-podmonitor},1651324534,0
{job=theodolite-stu200776/combined-trace-podmonitor},1651324539,0
{job=theodolite-stu200776/combined-trace-podmonitor},1651324544,0
{job=theodolite-stu200776/combined-trace-podmonitor},1651324549,0
{job=theodolite-stu200776/combined-trace-podmonitor},1651324554,0
{job=theodolite-stu200776/combined-trace-podmonitor},1651324559,0
{job=theodolite-stu200776/combined-trace-podmonitor},1651324564,0
{job=theodolite-stu200776/combined-trace-podmonitor},1651324569,0
{job=theodolite-stu200776/combined-trace-podmonitor},1651324574,0
{job=theodolite-stu200776/combined-trace-podmonitor},1651324579,0
{job=theodolite-stu200776/combined-trace-podmonitor},1651324584,0
{job=theodolite-stu200776/combined-trace-podmonitor},1651324589,0
{job=theodolite-stu200776/combined-trace-podmonitor},1651324594,0
{job=theodolite-stu200776/combined-trace-podmonitor},1651324599,0
{job=theodolite-stu200776/combined-trace-podmonitor},1651324604,0
{job=theodolite-stu200776/combined-trace-podmonitor},1651324609,0
{job=theodolite-stu200776/combined-trace-podmonitor},1651324614,0
{job=theodolite-stu200776/combined-trace-podmonitor},1651324619,0
{job=theodolite-stu200776/combined-trace-podmonitor},1651324624,0
{job=theodolite-stu200776/combined-trace-podmonitor},1651324629,0
{job=theodolite-stu200776/combined-trace-podmonitor},1651324634,0
{job=theodolite-stu200776/combined-trace-podmonitor},1651324639,0
{job=theodolite-stu200776/combined-trace-podmonitor},1651324644,0
{job=theodolite-stu200776/combined-trace-podmonitor},1651324649,0
{job=theodolite-stu200776/combined-trace-podmonitor},1651324654,0
{job=theodolite-stu200776/combined-trace-podmonitor},1651324659,0
{job=theodolite-stu200776/combined-trace-podmonitor},1651324664,0
{job=theodolite-stu200776/combined-trace-podmonitor},1651324669,0
{job=theodolite-stu200776/combined-trace-podmonitor},1651324674,0
{job=theodolite-stu200776/combined-trace-podmonitor},1651324679,0
{job=theodolite-stu200776/combined-trace-podmonitor},1651324684,0
{job=theodolite-stu200776/combined-trace-podmonitor},1651324689,0
{job=theodolite-stu200776/combined-trace-podmonitor},1651324694,0
{job=theodolite-stu200776/combined-trace-podmonitor},1651324699,0
{job=theodolite-stu200776/combined-trace-podmonitor},1651324704,0
{job=theodolite-stu200776/combined-trace-podmonitor},1651324709,0
{job=theodolite-stu200776/combined-trace-podmonitor},1651324714,0
{job=theodolite-stu200776/combined-trace-podmonitor},1651324719,0
{job=theodolite-stu200776/combined-trace-podmonitor},1651324724,0
{job=theodolite-stu200776/combined-trace-podmonitor},1651324729,0
{job=theodolite-stu200776/combined-trace-podmonitor},1651324734,0
{job=theodolite-stu200776/combined-trace-podmonitor},1651324739,0
{job=theodolite-stu200776/combined-trace-podmonitor},1651324744,0
{job=theodolite-stu200776/combined-trace-podmonitor},1651324749,0
{job=theodolite-stu200776/combined-trace-podmonitor},1651324754,0
{job=theodolite-stu200776/combined-trace-podmonitor},1651324759,0
{job=theodolite-stu200776/combined-trace-podmonitor},1651324764,0
{job=theodolite-stu200776/combined-trace-podmonitor},1651324769,0
{job=theodolite-stu200776/combined-trace-podmonitor},1651324774,0
{job=theodolite-stu200776/combined-trace-podmonitor},1651324779,0
{job=theodolite-stu200776/combined-trace-podmonitor},1651324784,0
{job=theodolite-stu200776/combined-trace-podmonitor},1651324789,0
{job=theodolite-stu200776/combined-trace-podmonitor},1651324794,0
{job=theodolite-stu200776/combined-trace-podmonitor},1651324799,0
{job=theodolite-stu200776/combined-trace-podmonitor},1651324804,0
{job=theodolite-stu200776/combined-trace-podmonitor},1651324809,0
{job=theodolite-stu200776/combined-trace-podmonitor},1651324814,0
{job=theodolite-stu200776/combined-trace-podmonitor},1651324819,0
{job=theodolite-stu200776/combined-trace-podmonitor},1651324824,0
{job=theodolite-stu200776/combined-trace-podmonitor},1651324829,0
{job=theodolite-stu200776/combined-trace-podmonitor},1651324834,0
{job=theodolite-stu200776/combined-trace-podmonitor},1651324839,0
