labels,timestamp,value
{consumergroup=__strimzi-topic-operator-kstreams},1651328619,8
{consumergroup=__strimzi-topic-operator-kstreams},1651328624,8
{consumergroup=__strimzi-topic-operator-kstreams},1651328629,8
{consumergroup=__strimzi-topic-operator-kstreams},1651328634,8
{consumergroup=__strimzi-topic-operator-kstreams},1651328639,8
{consumergroup=__strimzi-topic-operator-kstreams},1651328644,8
{consumergroup=__strimzi-topic-operator-kstreams},1651328649,0
{consumergroup=__strimzi-topic-operator-kstreams},1651328654,0
{consumergroup=__strimzi-topic-operator-kstreams},1651328659,0
{consumergroup=__strimzi-topic-operator-kstreams},1651328664,0
{consumergroup=__strimzi-topic-operator-kstreams},1651328669,0
{consumergroup=__strimzi-topic-operator-kstreams},1651328674,0
{consumergroup=__strimzi-topic-operator-kstreams},1651328679,0
{consumergroup=__strimzi-topic-operator-kstreams},1651328684,0
{consumergroup=__strimzi-topic-operator-kstreams},1651328689,0
{consumergroup=__strimzi-topic-operator-kstreams},1651328694,0
{consumergroup=__strimzi-topic-operator-kstreams},1651328699,0
{consumergroup=__strimzi-topic-operator-kstreams},1651328704,0
{consumergroup=__strimzi-topic-operator-kstreams},1651328709,0
{consumergroup=__strimzi-topic-operator-kstreams},1651328714,0
{consumergroup=__strimzi-topic-operator-kstreams},1651328719,0
{consumergroup=__strimzi-topic-operator-kstreams},1651328724,0
{consumergroup=__strimzi-topic-operator-kstreams},1651328729,0
{consumergroup=__strimzi-topic-operator-kstreams},1651328734,0
{consumergroup=__strimzi-topic-operator-kstreams},1651328739,0
{consumergroup=__strimzi-topic-operator-kstreams},1651328744,0
{consumergroup=__strimzi-topic-operator-kstreams},1651328749,0
{consumergroup=__strimzi-topic-operator-kstreams},1651328754,1
{consumergroup=__strimzi-topic-operator-kstreams},1651328759,1
{consumergroup=__strimzi-topic-operator-kstreams},1651328764,1
{consumergroup=__strimzi-topic-operator-kstreams},1651328769,0
{consumergroup=__strimzi-topic-operator-kstreams},1651328774,0
{consumergroup=__strimzi-topic-operator-kstreams},1651328779,0
{consumergroup=__strimzi-topic-operator-kstreams},1651328784,0
{consumergroup=__strimzi-topic-operator-kstreams},1651328789,0
{consumergroup=__strimzi-topic-operator-kstreams},1651328794,0
{consumergroup=__strimzi-topic-operator-kstreams},1651328799,0
{consumergroup=__strimzi-topic-operator-kstreams},1651328804,0
{consumergroup=__strimzi-topic-operator-kstreams},1651328809,0
{consumergroup=__strimzi-topic-operator-kstreams},1651328814,0
{consumergroup=__strimzi-topic-operator-kstreams},1651328819,0
{consumergroup=__strimzi-topic-operator-kstreams},1651328824,0
{consumergroup=__strimzi-topic-operator-kstreams},1651328829,0
{consumergroup=__strimzi-topic-operator-kstreams},1651328834,0
{consumergroup=__strimzi-topic-operator-kstreams},1651328839,0
{consumergroup=__strimzi-topic-operator-kstreams},1651328844,0
{consumergroup=__strimzi-topic-operator-kstreams},1651328849,0
{consumergroup=__strimzi-topic-operator-kstreams},1651328854,0
{consumergroup=__strimzi-topic-operator-kstreams},1651328859,0
{consumergroup=__strimzi-topic-operator-kstreams},1651328864,0
{consumergroup=__strimzi-topic-operator-kstreams},1651328869,0
{consumergroup=__strimzi-topic-operator-kstreams},1651328874,0
{consumergroup=__strimzi-topic-operator-kstreams},1651328879,0
{consumergroup=__strimzi-topic-operator-kstreams},1651328884,0
{consumergroup=__strimzi-topic-operator-kstreams},1651328889,0
{consumergroup=__strimzi-topic-operator-kstreams},1651328894,0
{consumergroup=__strimzi-topic-operator-kstreams},1651328899,0
{consumergroup=__strimzi-topic-operator-kstreams},1651328904,0
{consumergroup=__strimzi-topic-operator-kstreams},1651328909,0
{consumergroup=__strimzi-topic-operator-kstreams},1651328914,0
{consumergroup=__strimzi-topic-operator-kstreams},1651328919,0
{consumergroup=__strimzi-topic-operator-kstreams},1651328924,0
{consumergroup=__strimzi-topic-operator-kstreams},1651328929,0
{consumergroup=__strimzi-topic-operator-kstreams},1651328934,0
{consumergroup=__strimzi-topic-operator-kstreams},1651328939,0
{consumergroup=__strimzi-topic-operator-kstreams},1651328944,0
{consumergroup=__strimzi-topic-operator-kstreams},1651328949,0
{consumergroup=__strimzi-topic-operator-kstreams},1651328954,0
{consumergroup=__strimzi-topic-operator-kstreams},1651328959,0
{consumergroup=__strimzi-topic-operator-kstreams},1651328964,0
{consumergroup=__strimzi-topic-operator-kstreams},1651328969,0
{consumergroup=__strimzi-topic-operator-kstreams},1651328974,0
{consumergroup=__strimzi-topic-operator-kstreams},1651328979,0
{consumergroup=__strimzi-topic-operator-kstreams},1651328984,0
{consumergroup=__strimzi-topic-operator-kstreams},1651328989,0
{consumergroup=__strimzi-topic-operator-kstreams},1651328994,0
{consumergroup=__strimzi-topic-operator-kstreams},1651328999,0
{consumergroup=__strimzi-topic-operator-kstreams},1651329004,0
{consumergroup=__strimzi-topic-operator-kstreams},1651329009,0
{consumergroup=__strimzi-topic-operator-kstreams},1651329014,0
{consumergroup=__strimzi-topic-operator-kstreams},1651329019,0
{consumergroup=__strimzi-topic-operator-kstreams},1651329024,0
{consumergroup=__strimzi-topic-operator-kstreams},1651329029,0
{consumergroup=__strimzi-topic-operator-kstreams},1651329034,0
{consumergroup=__strimzi-topic-operator-kstreams},1651329039,0
{consumergroup=__strimzi-topic-operator-kstreams},1651329044,0
{consumergroup=__strimzi-topic-operator-kstreams},1651329049,0
{consumergroup=__strimzi-topic-operator-kstreams},1651329054,0
{consumergroup=__strimzi-topic-operator-kstreams},1651329059,0
{consumergroup=__strimzi-topic-operator-kstreams},1651329064,0
{consumergroup=__strimzi-topic-operator-kstreams},1651329069,0
{consumergroup=__strimzi-topic-operator-kstreams},1651329074,0
{consumergroup=__strimzi-topic-operator-kstreams},1651329079,0
{consumergroup=__strimzi-topic-operator-kstreams},1651329084,0
{consumergroup=__strimzi-topic-operator-kstreams},1651329089,0
{consumergroup=__strimzi-topic-operator-kstreams},1651329094,0
{consumergroup=__strimzi-topic-operator-kstreams},1651329099,0
{consumergroup=__strimzi-topic-operator-kstreams},1651329104,0
{consumergroup=__strimzi-topic-operator-kstreams},1651329109,0
{consumergroup=__strimzi-topic-operator-kstreams},1651329114,0
{consumergroup=__strimzi-topic-operator-kstreams},1651329119,0
{consumergroup=__strimzi-topic-operator-kstreams},1651329124,0
{consumergroup=adapter-service},1651328664,24802
{consumergroup=adapter-service},1651328669,24802
{consumergroup=adapter-service},1651328674,24802
{consumergroup=adapter-service},1651328679,12234
{consumergroup=adapter-service},1651328684,12234
{consumergroup=adapter-service},1651328689,12234
{consumergroup=adapter-service},1651328694,8625
{consumergroup=adapter-service},1651328699,8625
{consumergroup=adapter-service},1651328704,8625
{consumergroup=adapter-service},1651328709,10988
{consumergroup=adapter-service},1651328714,10988
{consumergroup=adapter-service},1651328719,10988
{consumergroup=adapter-service},1651328724,10298
{consumergroup=adapter-service},1651328729,10298
{consumergroup=adapter-service},1651328734,10298
{consumergroup=adapter-service},1651328739,10242
{consumergroup=adapter-service},1651328744,10242
{consumergroup=adapter-service},1651328749,10242
{consumergroup=adapter-service},1651328754,5770
{consumergroup=adapter-service},1651328759,5770
{consumergroup=adapter-service},1651328764,5770
{consumergroup=adapter-service},1651328769,10003
{consumergroup=adapter-service},1651328774,10003
{consumergroup=adapter-service},1651328779,10003
{consumergroup=adapter-service},1651328784,5446
{consumergroup=adapter-service},1651328789,5446
{consumergroup=adapter-service},1651328794,5446
{consumergroup=adapter-service},1651328799,9289
{consumergroup=adapter-service},1651328804,9289
{consumergroup=adapter-service},1651328809,9289
{consumergroup=adapter-service},1651328814,4970
{consumergroup=adapter-service},1651328819,4970
{consumergroup=adapter-service},1651328824,4970
{consumergroup=adapter-service},1651328829,8915
{consumergroup=adapter-service},1651328834,8915
{consumergroup=adapter-service},1651328839,8915
{consumergroup=adapter-service},1651328844,8826
{consumergroup=adapter-service},1651328849,8826
{consumergroup=adapter-service},1651328854,8826
{consumergroup=adapter-service},1651328859,8586
{consumergroup=adapter-service},1651328864,8586
{consumergroup=adapter-service},1651328869,8586
{consumergroup=adapter-service},1651328874,4325
{consumergroup=adapter-service},1651328879,4325
{consumergroup=adapter-service},1651328884,4325
{consumergroup=adapter-service},1651328889,8213
{consumergroup=adapter-service},1651328894,8213
{consumergroup=adapter-service},1651328899,8213
{consumergroup=adapter-service},1651328904,4067
{consumergroup=adapter-service},1651328909,4067
{consumergroup=adapter-service},1651328914,4067
{consumergroup=adapter-service},1651328919,9226
{consumergroup=adapter-service},1651328924,9226
{consumergroup=adapter-service},1651328929,9226
{consumergroup=adapter-service},1651328934,7591
{consumergroup=adapter-service},1651328939,7591
{consumergroup=adapter-service},1651328944,7591
{consumergroup=adapter-service},1651328949,11507
{consumergroup=adapter-service},1651328954,11507
{consumergroup=adapter-service},1651328959,11507
{consumergroup=adapter-service},1651328964,3144
{consumergroup=adapter-service},1651328969,3144
{consumergroup=adapter-service},1651328974,3144
{consumergroup=adapter-service},1651328979,7079
{consumergroup=adapter-service},1651328984,7079
{consumergroup=adapter-service},1651328989,7079
{consumergroup=adapter-service},1651328994,6705
{consumergroup=adapter-service},1651328999,6705
{consumergroup=adapter-service},1651329004,6705
{consumergroup=adapter-service},1651329009,6971
{consumergroup=adapter-service},1651329014,6971
{consumergroup=adapter-service},1651329019,6971
{consumergroup=adapter-service},1651329024,2375
{consumergroup=adapter-service},1651329029,2375
{consumergroup=adapter-service},1651329034,2375
{consumergroup=adapter-service},1651329039,7489
{consumergroup=adapter-service},1651329044,7489
{consumergroup=adapter-service},1651329049,7489
{consumergroup=adapter-service},1651329054,2012
{consumergroup=adapter-service},1651329059,2012
{consumergroup=adapter-service},1651329064,2012
{consumergroup=adapter-service},1651329069,5913
{consumergroup=adapter-service},1651329074,5913
{consumergroup=adapter-service},1651329079,5913
{consumergroup=adapter-service},1651329084,2684
{consumergroup=adapter-service},1651329089,2684
{consumergroup=adapter-service},1651329094,2684
{consumergroup=adapter-service},1651329099,6556
{consumergroup=adapter-service},1651329104,6556
{consumergroup=adapter-service},1651329109,6556
{consumergroup=adapter-service},1651329114,5151
{consumergroup=adapter-service},1651329119,5151
{consumergroup=adapter-service},1651329124,5151
{consumergroup=landscape-service},1651328679,30851
{consumergroup=landscape-service},1651328684,30851
{consumergroup=landscape-service},1651328689,30851
{consumergroup=landscape-service},1651328694,12574
{consumergroup=landscape-service},1651328699,12574
{consumergroup=landscape-service},1651328704,12574
{consumergroup=landscape-service},1651328709,15328
{consumergroup=landscape-service},1651328714,15328
{consumergroup=landscape-service},1651328719,15328
{consumergroup=landscape-service},1651328724,15241
{consumergroup=landscape-service},1651328729,15241
{consumergroup=landscape-service},1651328734,15241
{consumergroup=landscape-service},1651328739,14966
{consumergroup=landscape-service},1651328744,14966
{consumergroup=landscape-service},1651328749,14966
{consumergroup=landscape-service},1651328754,9977
{consumergroup=landscape-service},1651328759,9977
{consumergroup=landscape-service},1651328764,9977
{consumergroup=landscape-service},1651328769,13514
{consumergroup=landscape-service},1651328774,13514
{consumergroup=landscape-service},1651328779,13514
{consumergroup=landscape-service},1651328784,7535
{consumergroup=landscape-service},1651328789,7535
{consumergroup=landscape-service},1651328794,7535
{consumergroup=landscape-service},1651328799,10864
{consumergroup=landscape-service},1651328804,10864
{consumergroup=landscape-service},1651328809,10864
{consumergroup=landscape-service},1651328814,5842
{consumergroup=landscape-service},1651328819,5842
{consumergroup=landscape-service},1651328824,5842
{consumergroup=landscape-service},1651328829,9162
{consumergroup=landscape-service},1651328834,9162
{consumergroup=landscape-service},1651328839,9162
{consumergroup=landscape-service},1651328844,8650
{consumergroup=landscape-service},1651328849,8650
{consumergroup=landscape-service},1651328854,8650
{consumergroup=landscape-service},1651328859,8961
{consumergroup=landscape-service},1651328864,8961
{consumergroup=landscape-service},1651328869,8961
{consumergroup=landscape-service},1651328874,2999
{consumergroup=landscape-service},1651328879,2999
{consumergroup=landscape-service},1651328884,2999
{consumergroup=landscape-service},1651328889,7163
{consumergroup=landscape-service},1651328894,7163
{consumergroup=landscape-service},1651328899,7163
{consumergroup=landscape-service},1651328904,1598
{consumergroup=landscape-service},1651328909,1598
{consumergroup=landscape-service},1651328914,1598
{consumergroup=landscape-service},1651328919,5215
{consumergroup=landscape-service},1651328924,5215
{consumergroup=landscape-service},1651328929,5215
{consumergroup=landscape-service},1651328934,3929
{consumergroup=landscape-service},1651328939,3929
{consumergroup=landscape-service},1651328944,3929
{consumergroup=landscape-service},1651328949,8351
{consumergroup=landscape-service},1651328954,8351
{consumergroup=landscape-service},1651328959,8351
{consumergroup=landscape-service},1651328964,18879
{consumergroup=landscape-service},1651328969,18879
{consumergroup=landscape-service},1651328974,18879
{consumergroup=landscape-service},1651328979,2076
{consumergroup=landscape-service},1651328984,2076
{consumergroup=landscape-service},1651328989,2076
{consumergroup=landscape-service},1651328994,963
{consumergroup=landscape-service},1651328999,963
{consumergroup=landscape-service},1651329004,963
{consumergroup=landscape-service},1651329009,412
{consumergroup=landscape-service},1651329014,412
{consumergroup=landscape-service},1651329019,412
{consumergroup=landscape-service},1651329024,15882
{consumergroup=landscape-service},1651329029,15882
{consumergroup=landscape-service},1651329034,15882
{consumergroup=landscape-service},1651329039,19534
{consumergroup=landscape-service},1651329044,19534
{consumergroup=landscape-service},1651329049,19534
{consumergroup=landscape-service},1651329054,15130
{consumergroup=landscape-service},1651329059,15130
{consumergroup=landscape-service},1651329064,15130
{consumergroup=landscape-service},1651329069,17688
{consumergroup=landscape-service},1651329074,17688
{consumergroup=landscape-service},1651329079,17688
{consumergroup=landscape-service},1651329084,12911
{consumergroup=landscape-service},1651329089,12911
{consumergroup=landscape-service},1651329094,12911
{consumergroup=landscape-service},1651329099,16242
{consumergroup=landscape-service},1651329104,16242
{consumergroup=landscape-service},1651329109,16242
{consumergroup=landscape-service},1651329114,15449
{consumergroup=landscape-service},1651329119,15449
{consumergroup=landscape-service},1651329124,15449
{consumergroup=trace-service},1651328664,16894
{consumergroup=trace-service},1651328669,16894
{consumergroup=trace-service},1651328674,16894
{consumergroup=trace-service},1651328679,36670
{consumergroup=trace-service},1651328684,36670
{consumergroup=trace-service},1651328689,36670
{consumergroup=trace-service},1651328694,85264
{consumergroup=trace-service},1651328699,85264
{consumergroup=trace-service},1651328704,85264
{consumergroup=trace-service},1651328709,43385
{consumergroup=trace-service},1651328714,43385
{consumergroup=trace-service},1651328719,43385
{consumergroup=trace-service},1651328724,87571
{consumergroup=trace-service},1651328729,87571
{consumergroup=trace-service},1651328734,87571
{consumergroup=trace-service},1651328739,41934
{consumergroup=trace-service},1651328744,41934
{consumergroup=trace-service},1651328749,41934
{consumergroup=trace-service},1651328754,109870
{consumergroup=trace-service},1651328759,109870
{consumergroup=trace-service},1651328764,109870
{consumergroup=trace-service},1651328769,37967
{consumergroup=trace-service},1651328774,37967
{consumergroup=trace-service},1651328779,37967
{consumergroup=trace-service},1651328784,69966
{consumergroup=trace-service},1651328789,69966
{consumergroup=trace-service},1651328794,69966
{consumergroup=trace-service},1651328799,40087
{consumergroup=trace-service},1651328804,40087
{consumergroup=trace-service},1651328809,40087
{consumergroup=trace-service},1651328814,84374
{consumergroup=trace-service},1651328819,84374
{consumergroup=trace-service},1651328824,84374
{consumergroup=trace-service},1651328829,37445
{consumergroup=trace-service},1651328834,37445
{consumergroup=trace-service},1651328839,37445
{consumergroup=trace-service},1651328844,81991
{consumergroup=trace-service},1651328849,81991
{consumergroup=trace-service},1651328854,81991
{consumergroup=trace-service},1651328859,37703
{consumergroup=trace-service},1651328864,37703
{consumergroup=trace-service},1651328869,37703
{consumergroup=trace-service},1651328874,101707
{consumergroup=trace-service},1651328879,101707
{consumergroup=trace-service},1651328884,101707
{consumergroup=trace-service},1651328889,37173
{consumergroup=trace-service},1651328894,37173
{consumergroup=trace-service},1651328899,37173
{consumergroup=trace-service},1651328904,76917
{consumergroup=trace-service},1651328909,76917
{consumergroup=trace-service},1651328914,76917
{consumergroup=trace-service},1651328919,40161
{consumergroup=trace-service},1651328924,40161
{consumergroup=trace-service},1651328929,40161
{consumergroup=trace-service},1651328934,86591
{consumergroup=trace-service},1651328939,86591
{consumergroup=trace-service},1651328944,86591
{consumergroup=trace-service},1651328949,124047
{consumergroup=trace-service},1651328954,124047
{consumergroup=trace-service},1651328959,124047
{consumergroup=trace-service},1651328964,104132
{consumergroup=trace-service},1651328969,104132
{consumergroup=trace-service},1651328974,104132
{consumergroup=trace-service},1651328979,41255
{consumergroup=trace-service},1651328984,41255
{consumergroup=trace-service},1651328989,41255
{consumergroup=trace-service},1651328994,74355
{consumergroup=trace-service},1651328999,74355
{consumergroup=trace-service},1651329004,74355
{consumergroup=trace-service},1651329009,39251
{consumergroup=trace-service},1651329014,39251
{consumergroup=trace-service},1651329019,39251
{consumergroup=trace-service},1651329024,79206
{consumergroup=trace-service},1651329029,79206
{consumergroup=trace-service},1651329034,79206
{consumergroup=trace-service},1651329039,133675
{consumergroup=trace-service},1651329044,133675
{consumergroup=trace-service},1651329049,133675
{consumergroup=trace-service},1651329054,89746
{consumergroup=trace-service},1651329059,89746
{consumergroup=trace-service},1651329064,89746
{consumergroup=trace-service},1651329069,39633
{consumergroup=trace-service},1651329074,39633
{consumergroup=trace-service},1651329079,39633
{consumergroup=trace-service},1651329084,88216
{consumergroup=trace-service},1651329089,88216
{consumergroup=trace-service},1651329094,88216
{consumergroup=trace-service},1651329099,112739
{consumergroup=trace-service},1651329104,112739
{consumergroup=trace-service},1651329109,112739
{consumergroup=trace-service},1651329114,116392
{consumergroup=trace-service},1651329119,116392
{consumergroup=trace-service},1651329124,116392
{consumergroup=trace-token-events-consumer},1651328649,0
{consumergroup=trace-token-events-consumer},1651328654,0
{consumergroup=trace-token-events-consumer},1651328659,0
{consumergroup=trace-token-events-consumer},1651328664,0
{consumergroup=trace-token-events-consumer},1651328669,0
{consumergroup=trace-token-events-consumer},1651328674,0
{consumergroup=trace-token-events-consumer},1651328679,0
{consumergroup=trace-token-events-consumer},1651328684,0
{consumergroup=trace-token-events-consumer},1651328689,0
{consumergroup=trace-token-events-consumer},1651328694,0
{consumergroup=trace-token-events-consumer},1651328699,0
{consumergroup=trace-token-events-consumer},1651328704,0
{consumergroup=trace-token-events-consumer},1651328709,0
{consumergroup=trace-token-events-consumer},1651328714,0
{consumergroup=trace-token-events-consumer},1651328719,0
{consumergroup=trace-token-events-consumer},1651328724,0
{consumergroup=trace-token-events-consumer},1651328729,0
{consumergroup=trace-token-events-consumer},1651328734,0
{consumergroup=trace-token-events-consumer},1651328739,0
{consumergroup=trace-token-events-consumer},1651328744,0
{consumergroup=trace-token-events-consumer},1651328749,0
{consumergroup=trace-token-events-consumer},1651328754,0
{consumergroup=trace-token-events-consumer},1651328759,0
{consumergroup=trace-token-events-consumer},1651328764,0
{consumergroup=trace-token-events-consumer},1651328769,0
{consumergroup=trace-token-events-consumer},1651328774,0
{consumergroup=trace-token-events-consumer},1651328779,0
{consumergroup=trace-token-events-consumer},1651328784,0
{consumergroup=trace-token-events-consumer},1651328789,0
{consumergroup=trace-token-events-consumer},1651328794,0
{consumergroup=trace-token-events-consumer},1651328799,0
{consumergroup=trace-token-events-consumer},1651328804,0
{consumergroup=trace-token-events-consumer},1651328809,0
{consumergroup=trace-token-events-consumer},1651328814,0
{consumergroup=trace-token-events-consumer},1651328819,0
{consumergroup=trace-token-events-consumer},1651328824,0
{consumergroup=trace-token-events-consumer},1651328829,0
{consumergroup=trace-token-events-consumer},1651328834,0
{consumergroup=trace-token-events-consumer},1651328839,0
{consumergroup=trace-token-events-consumer},1651328844,0
{consumergroup=trace-token-events-consumer},1651328849,0
{consumergroup=trace-token-events-consumer},1651328854,0
{consumergroup=trace-token-events-consumer},1651328859,0
{consumergroup=trace-token-events-consumer},1651328864,0
{consumergroup=trace-token-events-consumer},1651328869,0
{consumergroup=trace-token-events-consumer},1651328874,0
{consumergroup=trace-token-events-consumer},1651328879,0
{consumergroup=trace-token-events-consumer},1651328884,0
{consumergroup=trace-token-events-consumer},1651328889,0
{consumergroup=trace-token-events-consumer},1651328894,0
{consumergroup=trace-token-events-consumer},1651328899,0
{consumergroup=trace-token-events-consumer},1651328904,0
{consumergroup=trace-token-events-consumer},1651328909,0
{consumergroup=trace-token-events-consumer},1651328914,0
{consumergroup=trace-token-events-consumer},1651328919,0
{consumergroup=trace-token-events-consumer},1651328924,0
{consumergroup=trace-token-events-consumer},1651328929,0
{consumergroup=trace-token-events-consumer},1651328934,0
{consumergroup=trace-token-events-consumer},1651328939,0
{consumergroup=trace-token-events-consumer},1651328944,0
{consumergroup=trace-token-events-consumer},1651328949,0
{consumergroup=trace-token-events-consumer},1651328954,0
{consumergroup=trace-token-events-consumer},1651328959,0
{consumergroup=trace-token-events-consumer},1651328964,0
{consumergroup=trace-token-events-consumer},1651328969,0
{consumergroup=trace-token-events-consumer},1651328974,0
{consumergroup=trace-token-events-consumer},1651328979,0
{consumergroup=trace-token-events-consumer},1651328984,0
{consumergroup=trace-token-events-consumer},1651328989,0
{consumergroup=trace-token-events-consumer},1651328994,0
{consumergroup=trace-token-events-consumer},1651328999,0
{consumergroup=trace-token-events-consumer},1651329004,0
{consumergroup=trace-token-events-consumer},1651329009,0
{consumergroup=trace-token-events-consumer},1651329014,0
{consumergroup=trace-token-events-consumer},1651329019,0
{consumergroup=trace-token-events-consumer},1651329024,0
{consumergroup=trace-token-events-consumer},1651329029,0
{consumergroup=trace-token-events-consumer},1651329034,0
{consumergroup=trace-token-events-consumer},1651329039,0
{consumergroup=trace-token-events-consumer},1651329044,0
{consumergroup=trace-token-events-consumer},1651329049,0
{consumergroup=trace-token-events-consumer},1651329054,0
{consumergroup=trace-token-events-consumer},1651329059,0
{consumergroup=trace-token-events-consumer},1651329064,0
{consumergroup=trace-token-events-consumer},1651329069,0
{consumergroup=trace-token-events-consumer},1651329074,0
{consumergroup=trace-token-events-consumer},1651329079,0
{consumergroup=trace-token-events-consumer},1651329084,0
{consumergroup=trace-token-events-consumer},1651329089,0
{consumergroup=trace-token-events-consumer},1651329094,0
{consumergroup=trace-token-events-consumer},1651329099,0
{consumergroup=trace-token-events-consumer},1651329104,0
{consumergroup=trace-token-events-consumer},1651329109,0
{consumergroup=trace-token-events-consumer},1651329114,0
{consumergroup=trace-token-events-consumer},1651329119,0
{consumergroup=trace-token-events-consumer},1651329124,0
