labels,timestamp,value
{job=theodolite-stu200776/combined-trace-podmonitor},1651325623,0
{job=theodolite-stu200776/combined-trace-podmonitor},1651325628,0
{job=theodolite-stu200776/combined-trace-podmonitor},1651325633,0
{job=theodolite-stu200776/combined-trace-podmonitor},1651325638,0
{job=theodolite-stu200776/combined-trace-podmonitor},1651325643,0
{job=theodolite-stu200776/combined-trace-podmonitor},1651325648,0
{job=theodolite-stu200776/combined-trace-podmonitor},1651325653,0
{job=theodolite-stu200776/combined-trace-podmonitor},1651325658,0
{job=theodolite-stu200776/combined-trace-podmonitor},1651325663,0
{job=theodolite-stu200776/combined-trace-podmonitor},1651325668,0
{job=theodolite-stu200776/combined-trace-podmonitor},1651325673,0
{job=theodolite-stu200776/combined-trace-podmonitor},1651325678,0
{job=theodolite-stu200776/combined-trace-podmonitor},1651325683,0
{job=theodolite-stu200776/combined-trace-podmonitor},1651325688,0
{job=theodolite-stu200776/combined-trace-podmonitor},1651325693,0
{job=theodolite-stu200776/combined-trace-podmonitor},1651325698,0
{job=theodolite-stu200776/combined-trace-podmonitor},1651325703,0
{job=theodolite-stu200776/combined-trace-podmonitor},1651325708,0
{job=theodolite-stu200776/combined-trace-podmonitor},1651325713,0
{job=theodolite-stu200776/combined-trace-podmonitor},1651325718,0
{job=theodolite-stu200776/combined-trace-podmonitor},1651325723,0
{job=theodolite-stu200776/combined-trace-podmonitor},1651325728,0
{job=theodolite-stu200776/combined-trace-podmonitor},1651325733,35.38849323837721
{job=theodolite-stu200776/combined-trace-podmonitor},1651325738,323.2661172074616
{job=theodolite-stu200776/combined-trace-podmonitor},1651325743,735.3900213875477
{job=theodolite-stu200776/combined-trace-podmonitor},1651325748,723.9670176117735
{job=theodolite-stu200776/combined-trace-podmonitor},1651325753,697.6194358278854
{job=theodolite-stu200776/combined-trace-podmonitor},1651325758,682.63778704305
{job=theodolite-stu200776/combined-trace-podmonitor},1651325763,663.6378951613993
{job=theodolite-stu200776/combined-trace-podmonitor},1651325768,821.6985866361872
{job=theodolite-stu200776/combined-trace-podmonitor},1651325773,981.3388239008307
{job=theodolite-stu200776/combined-trace-podmonitor},1651325778,883.9401360574444
{job=theodolite-stu200776/combined-trace-podmonitor},1651325783,768.2821482534032
{job=theodolite-stu200776/combined-trace-podmonitor},1651325788,707.624428930761
{job=theodolite-stu200776/combined-trace-podmonitor},1651325793,598.7890104657888
{job=theodolite-stu200776/combined-trace-podmonitor},1651325798,801.5262878683874
{job=theodolite-stu200776/combined-trace-podmonitor},1651325803,1797.857086060963
{job=theodolite-stu200776/combined-trace-podmonitor},1651325808,2079.533574929654
{job=theodolite-stu200776/combined-trace-podmonitor},1651325813,1850.4246668588937
{job=theodolite-stu200776/combined-trace-podmonitor},1651325818,1711.803352612681
{job=theodolite-stu200776/combined-trace-podmonitor},1651325823,1593.6566222418267
{job=theodolite-stu200776/combined-trace-podmonitor},1651325828,2032.1021276874174
{job=theodolite-stu200776/combined-trace-podmonitor},1651325833,2450.97343667545
{job=theodolite-stu200776/combined-trace-podmonitor},1651325838,2198.2091292397413
{job=theodolite-stu200776/combined-trace-podmonitor},1651325843,1897.4750430635033
{job=theodolite-stu200776/combined-trace-podmonitor},1651325848,1743.1734257614244
{job=theodolite-stu200776/combined-trace-podmonitor},1651325853,1471.9999173805759
{job=theodolite-stu200776/combined-trace-podmonitor},1651325858,833.3506289304643
{job=theodolite-stu200776/combined-trace-podmonitor},1651325863,0
{job=theodolite-stu200776/combined-trace-podmonitor},1651325868,0
{job=theodolite-stu200776/combined-trace-podmonitor},1651325873,0
{job=theodolite-stu200776/combined-trace-podmonitor},1651325878,0
{job=theodolite-stu200776/combined-trace-podmonitor},1651325883,1.4599708005839882
{job=theodolite-stu200776/combined-trace-podmonitor},1651325888,127.62901568203843
{job=theodolite-stu200776/combined-trace-podmonitor},1651325893,993.7832465572436
{job=theodolite-stu200776/combined-trace-podmonitor},1651325898,1521.7619694931727
{job=theodolite-stu200776/combined-trace-podmonitor},1651325903,1783.931655845364
{job=theodolite-stu200776/combined-trace-podmonitor},1651325908,1711.1497391640548
{job=theodolite-stu200776/combined-trace-podmonitor},1651325913,1491.761762257046
{job=theodolite-stu200776/combined-trace-podmonitor},1651325918,1334.0649051924622
{job=theodolite-stu200776/combined-trace-podmonitor},1651325923,1032.1414413066707
{job=theodolite-stu200776/combined-trace-podmonitor},1651325928,1221.7511518947897
{job=theodolite-stu200776/combined-trace-podmonitor},1651325933,971.2150370089557
{job=theodolite-stu200776/combined-trace-podmonitor},1651325938,842.2764949086903
{job=theodolite-stu200776/combined-trace-podmonitor},1651325943,768.3834028941789
{job=theodolite-stu200776/combined-trace-podmonitor},1651325948,684.2863315433963
{job=theodolite-stu200776/combined-trace-podmonitor},1651325953,570.9651138151918
{job=theodolite-stu200776/combined-trace-podmonitor},1651325958,170.7220226066295
{job=theodolite-stu200776/combined-trace-podmonitor},1651325963,0
{job=theodolite-stu200776/combined-trace-podmonitor},1651325968,0
{job=theodolite-stu200776/combined-trace-podmonitor},1651325973,0
{job=theodolite-stu200776/combined-trace-podmonitor},1651325978,250.16856971289087
{job=theodolite-stu200776/combined-trace-podmonitor},1651325983,1554.940170276617
{job=theodolite-stu200776/combined-trace-podmonitor},1651325988,2327.47645169786
{job=theodolite-stu200776/combined-trace-podmonitor},1651325993,2255.951672919365
{job=theodolite-stu200776/combined-trace-podmonitor},1651325998,2166.7585388499515
{job=theodolite-stu200776/combined-trace-podmonitor},1651326003,2156.54243059662
{job=theodolite-stu200776/combined-trace-podmonitor},1651326008,1969.8360943779992
{job=theodolite-stu200776/combined-trace-podmonitor},1651326013,2088.1942474810344
{job=theodolite-stu200776/combined-trace-podmonitor},1651326018,1653.312231240985
{job=theodolite-stu200776/combined-trace-podmonitor},1651326023,1198.9811771975565
{job=theodolite-stu200776/combined-trace-podmonitor},1651326028,887.0578125915058
{job=theodolite-stu200776/combined-trace-podmonitor},1651326033,614.9801339220562
{job=theodolite-stu200776/combined-trace-podmonitor},1651326038,741.3290076061065
{job=theodolite-stu200776/combined-trace-podmonitor},1651326043,392.194332641275
{job=theodolite-stu200776/combined-trace-podmonitor},1651326048,398.1735972936243
{job=theodolite-stu200776/combined-trace-podmonitor},1651326053,350.8836237323035
{job=theodolite-stu200776/combined-trace-podmonitor},1651326058,365.70285927641874
{job=theodolite-stu200776/combined-trace-podmonitor},1651326063,370.72150610869465
