labels,timestamp,value
{consumergroup=__strimzi-topic-operator-kstreams},1651430752,0
{consumergroup=__strimzi-topic-operator-kstreams},1651430757,8
{consumergroup=__strimzi-topic-operator-kstreams},1651430762,8
{consumergroup=__strimzi-topic-operator-kstreams},1651430767,8
{consumergroup=__strimzi-topic-operator-kstreams},1651430772,2
{consumergroup=__strimzi-topic-operator-kstreams},1651430777,2
{consumergroup=__strimzi-topic-operator-kstreams},1651430782,2
{consumergroup=__strimzi-topic-operator-kstreams},1651430787,2
{consumergroup=__strimzi-topic-operator-kstreams},1651430792,2
{consumergroup=__strimzi-topic-operator-kstreams},1651430797,2
{consumergroup=__strimzi-topic-operator-kstreams},1651430802,0
{consumergroup=__strimzi-topic-operator-kstreams},1651430807,0
{consumergroup=__strimzi-topic-operator-kstreams},1651430812,0
{consumergroup=__strimzi-topic-operator-kstreams},1651430817,0
{consumergroup=__strimzi-topic-operator-kstreams},1651430822,0
{consumergroup=__strimzi-topic-operator-kstreams},1651430827,0
{consumergroup=__strimzi-topic-operator-kstreams},1651430832,0
{consumergroup=__strimzi-topic-operator-kstreams},1651430837,0
{consumergroup=__strimzi-topic-operator-kstreams},1651430842,0
{consumergroup=__strimzi-topic-operator-kstreams},1651430847,0
{consumergroup=__strimzi-topic-operator-kstreams},1651430852,0
{consumergroup=__strimzi-topic-operator-kstreams},1651430857,0
{consumergroup=__strimzi-topic-operator-kstreams},1651430862,0
{consumergroup=__strimzi-topic-operator-kstreams},1651430867,0
{consumergroup=__strimzi-topic-operator-kstreams},1651430872,0
{consumergroup=__strimzi-topic-operator-kstreams},1651430877,0
{consumergroup=__strimzi-topic-operator-kstreams},1651430882,0
{consumergroup=__strimzi-topic-operator-kstreams},1651430887,0
{consumergroup=__strimzi-topic-operator-kstreams},1651430892,0
{consumergroup=__strimzi-topic-operator-kstreams},1651430897,0
{consumergroup=__strimzi-topic-operator-kstreams},1651430902,0
{consumergroup=__strimzi-topic-operator-kstreams},1651430907,0
{consumergroup=__strimzi-topic-operator-kstreams},1651430912,0
{consumergroup=__strimzi-topic-operator-kstreams},1651430917,0
{consumergroup=__strimzi-topic-operator-kstreams},1651430922,0
{consumergroup=__strimzi-topic-operator-kstreams},1651430927,0
{consumergroup=__strimzi-topic-operator-kstreams},1651430932,0
{consumergroup=__strimzi-topic-operator-kstreams},1651430937,0
{consumergroup=__strimzi-topic-operator-kstreams},1651430942,0
{consumergroup=__strimzi-topic-operator-kstreams},1651430947,0
{consumergroup=__strimzi-topic-operator-kstreams},1651430952,0
{consumergroup=__strimzi-topic-operator-kstreams},1651430957,0
{consumergroup=__strimzi-topic-operator-kstreams},1651430962,0
{consumergroup=__strimzi-topic-operator-kstreams},1651430967,0
{consumergroup=__strimzi-topic-operator-kstreams},1651430972,0
{consumergroup=__strimzi-topic-operator-kstreams},1651430977,0
{consumergroup=__strimzi-topic-operator-kstreams},1651430982,0
{consumergroup=__strimzi-topic-operator-kstreams},1651430987,0
{consumergroup=__strimzi-topic-operator-kstreams},1651430992,0
{consumergroup=__strimzi-topic-operator-kstreams},1651430997,0
{consumergroup=__strimzi-topic-operator-kstreams},1651431002,0
{consumergroup=__strimzi-topic-operator-kstreams},1651431007,0
{consumergroup=__strimzi-topic-operator-kstreams},1651431012,0
{consumergroup=adapter-service},1651430752,1400627
{consumergroup=adapter-service},1651430787,0
{consumergroup=adapter-service},1651430792,0
{consumergroup=adapter-service},1651430797,0
{consumergroup=adapter-service},1651430802,64320
{consumergroup=adapter-service},1651430807,64320
{consumergroup=adapter-service},1651430812,64320
{consumergroup=adapter-service},1651430817,113772
{consumergroup=adapter-service},1651430822,113772
{consumergroup=adapter-service},1651430827,113772
{consumergroup=adapter-service},1651430832,157559
{consumergroup=adapter-service},1651430837,157559
{consumergroup=adapter-service},1651430842,157559
{consumergroup=adapter-service},1651430847,200794
{consumergroup=adapter-service},1651430852,200794
{consumergroup=adapter-service},1651430857,200794
{consumergroup=adapter-service},1651430862,241755
{consumergroup=adapter-service},1651430867,241755
{consumergroup=adapter-service},1651430872,241755
{consumergroup=adapter-service},1651430877,280209
{consumergroup=adapter-service},1651430882,280209
{consumergroup=adapter-service},1651430887,280209
{consumergroup=adapter-service},1651430892,313758
{consumergroup=adapter-service},1651430897,313758
{consumergroup=adapter-service},1651430902,313758
{consumergroup=adapter-service},1651430907,338432
{consumergroup=adapter-service},1651430912,338432
{consumergroup=adapter-service},1651430917,338432
{consumergroup=adapter-service},1651430922,362056
{consumergroup=adapter-service},1651430927,362056
{consumergroup=adapter-service},1651430932,362056
{consumergroup=adapter-service},1651430937,386775
{consumergroup=adapter-service},1651430942,386775
{consumergroup=adapter-service},1651430947,386775
{consumergroup=adapter-service},1651430952,407164
{consumergroup=adapter-service},1651430957,407164
{consumergroup=adapter-service},1651430962,407164
{consumergroup=adapter-service},1651430967,429031
{consumergroup=adapter-service},1651430972,429031
{consumergroup=adapter-service},1651430977,429031
{consumergroup=adapter-service},1651430982,444056
{consumergroup=adapter-service},1651430987,444056
{consumergroup=adapter-service},1651430992,444056
{consumergroup=adapter-service},1651430997,462254
{consumergroup=adapter-service},1651431002,462254
{consumergroup=adapter-service},1651431007,462254
{consumergroup=adapter-service},1651431012,483306
