labels,timestamp,value
{consumergroup=__strimzi-topic-operator-kstreams},1651440858,4
{consumergroup=__strimzi-topic-operator-kstreams},1651440873,0
{consumergroup=__strimzi-topic-operator-kstreams},1651440878,0
{consumergroup=__strimzi-topic-operator-kstreams},1651440883,0
{consumergroup=__strimzi-topic-operator-kstreams},1651440888,0
{consumergroup=__strimzi-topic-operator-kstreams},1651440893,0
{consumergroup=__strimzi-topic-operator-kstreams},1651440898,0
{consumergroup=__strimzi-topic-operator-kstreams},1651440903,0
{consumergroup=__strimzi-topic-operator-kstreams},1651440908,0
{consumergroup=__strimzi-topic-operator-kstreams},1651440913,0
{consumergroup=__strimzi-topic-operator-kstreams},1651440918,0
{consumergroup=__strimzi-topic-operator-kstreams},1651440923,0
{consumergroup=__strimzi-topic-operator-kstreams},1651440928,0
{consumergroup=__strimzi-topic-operator-kstreams},1651440933,0
{consumergroup=__strimzi-topic-operator-kstreams},1651440938,0
{consumergroup=__strimzi-topic-operator-kstreams},1651440943,0
{consumergroup=__strimzi-topic-operator-kstreams},1651440948,0
{consumergroup=__strimzi-topic-operator-kstreams},1651440953,0
{consumergroup=__strimzi-topic-operator-kstreams},1651440958,0
{consumergroup=__strimzi-topic-operator-kstreams},1651440963,0
{consumergroup=__strimzi-topic-operator-kstreams},1651440968,0
{consumergroup=__strimzi-topic-operator-kstreams},1651440973,0
{consumergroup=__strimzi-topic-operator-kstreams},1651440978,0
{consumergroup=__strimzi-topic-operator-kstreams},1651440983,0
{consumergroup=__strimzi-topic-operator-kstreams},1651440988,0
{consumergroup=__strimzi-topic-operator-kstreams},1651440993,0
{consumergroup=__strimzi-topic-operator-kstreams},1651440998,0
{consumergroup=__strimzi-topic-operator-kstreams},1651441003,0
{consumergroup=__strimzi-topic-operator-kstreams},1651441008,0
{consumergroup=__strimzi-topic-operator-kstreams},1651441013,0
{consumergroup=__strimzi-topic-operator-kstreams},1651441018,0
{consumergroup=__strimzi-topic-operator-kstreams},1651441023,0
{consumergroup=__strimzi-topic-operator-kstreams},1651441028,0
{consumergroup=__strimzi-topic-operator-kstreams},1651441033,0
{consumergroup=__strimzi-topic-operator-kstreams},1651441038,0
{consumergroup=__strimzi-topic-operator-kstreams},1651441043,0
{consumergroup=__strimzi-topic-operator-kstreams},1651441048,0
{consumergroup=__strimzi-topic-operator-kstreams},1651441053,0
{consumergroup=__strimzi-topic-operator-kstreams},1651441058,0
{consumergroup=__strimzi-topic-operator-kstreams},1651441063,0
{consumergroup=__strimzi-topic-operator-kstreams},1651441068,0
{consumergroup=__strimzi-topic-operator-kstreams},1651441073,0
{consumergroup=__strimzi-topic-operator-kstreams},1651441078,0
{consumergroup=__strimzi-topic-operator-kstreams},1651441083,0
{consumergroup=__strimzi-topic-operator-kstreams},1651441088,0
{consumergroup=__strimzi-topic-operator-kstreams},1651441093,0
{consumergroup=__strimzi-topic-operator-kstreams},1651441098,0
{consumergroup=__strimzi-topic-operator-kstreams},1651441103,0
{consumergroup=__strimzi-topic-operator-kstreams},1651441108,0
{consumergroup=__strimzi-topic-operator-kstreams},1651441113,0
{consumergroup=__strimzi-topic-operator-kstreams},1651441118,0
{consumergroup=adapter-service},1651440858,0
{consumergroup=adapter-service},1651440903,227937
{consumergroup=adapter-service},1651440908,227937
{consumergroup=adapter-service},1651440913,227937
{consumergroup=adapter-service},1651440918,424676
{consumergroup=adapter-service},1651440923,424676
{consumergroup=adapter-service},1651440928,424676
{consumergroup=adapter-service},1651440933,593806
{consumergroup=adapter-service},1651440938,593806
{consumergroup=adapter-service},1651440943,593806
{consumergroup=adapter-service},1651440948,752778
{consumergroup=adapter-service},1651440953,752778
{consumergroup=adapter-service},1651440958,752778
{consumergroup=adapter-service},1651440963,880145
{consumergroup=adapter-service},1651440968,880145
{consumergroup=adapter-service},1651440973,880145
{consumergroup=adapter-service},1651440978,959485
{consumergroup=adapter-service},1651440983,959485
{consumergroup=adapter-service},1651440988,959485
{consumergroup=adapter-service},1651440993,1013121
{consumergroup=adapter-service},1651440998,1013121
{consumergroup=adapter-service},1651441003,1013121
{consumergroup=adapter-service},1651441008,1054161
{consumergroup=adapter-service},1651441013,1054161
{consumergroup=adapter-service},1651441018,1054161
{consumergroup=adapter-service},1651441023,1104421
{consumergroup=adapter-service},1651441028,1104421
{consumergroup=adapter-service},1651441033,1104421
{consumergroup=adapter-service},1651441038,1161705
{consumergroup=adapter-service},1651441043,1161705
{consumergroup=adapter-service},1651441048,1161705
{consumergroup=adapter-service},1651441053,1212444
{consumergroup=adapter-service},1651441058,1212444
{consumergroup=adapter-service},1651441063,1212444
{consumergroup=adapter-service},1651441068,1253852
{consumergroup=adapter-service},1651441073,1253852
{consumergroup=adapter-service},1651441078,1253852
{consumergroup=adapter-service},1651441083,1278207
{consumergroup=adapter-service},1651441088,1278207
{consumergroup=adapter-service},1651441093,1278207
{consumergroup=adapter-service},1651441098,1327043
{consumergroup=adapter-service},1651441103,1327043
{consumergroup=adapter-service},1651441108,1327043
{consumergroup=adapter-service},1651441113,1362890
{consumergroup=adapter-service},1651441118,1362890
