labels,timestamp,value
{consumergroup=__strimzi-topic-operator-kstreams},1651435456,0
{consumergroup=__strimzi-topic-operator-kstreams},1651435466,17
{consumergroup=__strimzi-topic-operator-kstreams},1651435471,17
{consumergroup=__strimzi-topic-operator-kstreams},1651435476,17
{consumergroup=__strimzi-topic-operator-kstreams},1651435481,17
{consumergroup=__strimzi-topic-operator-kstreams},1651435486,17
{consumergroup=__strimzi-topic-operator-kstreams},1651435491,17
{consumergroup=__strimzi-topic-operator-kstreams},1651435496,0
{consumergroup=__strimzi-topic-operator-kstreams},1651435501,0
{consumergroup=__strimzi-topic-operator-kstreams},1651435506,0
{consumergroup=__strimzi-topic-operator-kstreams},1651435511,0
{consumergroup=__strimzi-topic-operator-kstreams},1651435516,0
{consumergroup=__strimzi-topic-operator-kstreams},1651435521,0
{consumergroup=__strimzi-topic-operator-kstreams},1651435526,0
{consumergroup=__strimzi-topic-operator-kstreams},1651435531,0
{consumergroup=__strimzi-topic-operator-kstreams},1651435536,0
{consumergroup=__strimzi-topic-operator-kstreams},1651435541,0
{consumergroup=__strimzi-topic-operator-kstreams},1651435546,0
{consumergroup=__strimzi-topic-operator-kstreams},1651435551,0
{consumergroup=__strimzi-topic-operator-kstreams},1651435556,0
{consumergroup=__strimzi-topic-operator-kstreams},1651435561,0
{consumergroup=__strimzi-topic-operator-kstreams},1651435566,0
{consumergroup=__strimzi-topic-operator-kstreams},1651435571,0
{consumergroup=__strimzi-topic-operator-kstreams},1651435576,0
{consumergroup=__strimzi-topic-operator-kstreams},1651435581,0
{consumergroup=__strimzi-topic-operator-kstreams},1651435586,0
{consumergroup=__strimzi-topic-operator-kstreams},1651435591,0
{consumergroup=__strimzi-topic-operator-kstreams},1651435596,0
{consumergroup=__strimzi-topic-operator-kstreams},1651435601,0
{consumergroup=__strimzi-topic-operator-kstreams},1651435606,0
{consumergroup=__strimzi-topic-operator-kstreams},1651435611,0
{consumergroup=__strimzi-topic-operator-kstreams},1651435616,0
{consumergroup=__strimzi-topic-operator-kstreams},1651435621,0
{consumergroup=__strimzi-topic-operator-kstreams},1651435626,0
{consumergroup=__strimzi-topic-operator-kstreams},1651435631,0
{consumergroup=__strimzi-topic-operator-kstreams},1651435636,0
{consumergroup=__strimzi-topic-operator-kstreams},1651435641,0
{consumergroup=__strimzi-topic-operator-kstreams},1651435646,0
{consumergroup=__strimzi-topic-operator-kstreams},1651435651,0
{consumergroup=__strimzi-topic-operator-kstreams},1651435656,0
{consumergroup=__strimzi-topic-operator-kstreams},1651435661,0
{consumergroup=__strimzi-topic-operator-kstreams},1651435666,0
{consumergroup=__strimzi-topic-operator-kstreams},1651435671,0
{consumergroup=__strimzi-topic-operator-kstreams},1651435676,0
{consumergroup=__strimzi-topic-operator-kstreams},1651435681,0
{consumergroup=__strimzi-topic-operator-kstreams},1651435686,0
{consumergroup=__strimzi-topic-operator-kstreams},1651435691,0
{consumergroup=__strimzi-topic-operator-kstreams},1651435696,0
{consumergroup=__strimzi-topic-operator-kstreams},1651435701,0
{consumergroup=__strimzi-topic-operator-kstreams},1651435706,0
{consumergroup=__strimzi-topic-operator-kstreams},1651435711,0
{consumergroup=__strimzi-topic-operator-kstreams},1651435716,0
{consumergroup=adapter-service},1651435456,211428
{consumergroup=adapter-service},1651435496,126596
{consumergroup=adapter-service},1651435501,126596
{consumergroup=adapter-service},1651435506,126596
{consumergroup=adapter-service},1651435511,235930
{consumergroup=adapter-service},1651435516,235930
{consumergroup=adapter-service},1651435521,235930
{consumergroup=adapter-service},1651435526,333542
{consumergroup=adapter-service},1651435531,333542
{consumergroup=adapter-service},1651435536,333542
{consumergroup=adapter-service},1651435541,428647
{consumergroup=adapter-service},1651435546,428647
{consumergroup=adapter-service},1651435551,428647
{consumergroup=adapter-service},1651435556,485760
{consumergroup=adapter-service},1651435561,485760
{consumergroup=adapter-service},1651435566,485760
{consumergroup=adapter-service},1651435571,534287
{consumergroup=adapter-service},1651435576,534287
{consumergroup=adapter-service},1651435581,534287
{consumergroup=adapter-service},1651435586,550752
{consumergroup=adapter-service},1651435591,550752
{consumergroup=adapter-service},1651435596,550752
{consumergroup=adapter-service},1651435601,539579
{consumergroup=adapter-service},1651435606,539579
{consumergroup=adapter-service},1651435611,539579
{consumergroup=adapter-service},1651435616,513273
{consumergroup=adapter-service},1651435621,513273
{consumergroup=adapter-service},1651435626,513273
{consumergroup=adapter-service},1651435631,479433
{consumergroup=adapter-service},1651435636,479433
{consumergroup=adapter-service},1651435641,479433
{consumergroup=adapter-service},1651435646,443296
{consumergroup=adapter-service},1651435651,443296
{consumergroup=adapter-service},1651435656,443296
{consumergroup=adapter-service},1651435661,430375
{consumergroup=adapter-service},1651435666,430375
{consumergroup=adapter-service},1651435671,430375
{consumergroup=adapter-service},1651435676,394884
{consumergroup=adapter-service},1651435681,394884
{consumergroup=adapter-service},1651435686,394884
{consumergroup=adapter-service},1651435691,349130
{consumergroup=adapter-service},1651435696,349130
{consumergroup=adapter-service},1651435701,349130
{consumergroup=adapter-service},1651435706,305563
{consumergroup=adapter-service},1651435711,305563
{consumergroup=adapter-service},1651435716,305563
