labels,timestamp,value
{consumergroup=__strimzi-topic-operator-kstreams},1651441784,9
{consumergroup=__strimzi-topic-operator-kstreams},1651441789,9
{consumergroup=__strimzi-topic-operator-kstreams},1651441794,9
{consumergroup=__strimzi-topic-operator-kstreams},1651441799,9
{consumergroup=__strimzi-topic-operator-kstreams},1651441804,9
{consumergroup=__strimzi-topic-operator-kstreams},1651441809,9
{consumergroup=__strimzi-topic-operator-kstreams},1651441814,0
{consumergroup=__strimzi-topic-operator-kstreams},1651441819,0
{consumergroup=__strimzi-topic-operator-kstreams},1651441824,0
{consumergroup=__strimzi-topic-operator-kstreams},1651441829,0
{consumergroup=__strimzi-topic-operator-kstreams},1651441834,0
{consumergroup=__strimzi-topic-operator-kstreams},1651441839,0
{consumergroup=__strimzi-topic-operator-kstreams},1651441844,0
{consumergroup=__strimzi-topic-operator-kstreams},1651441849,0
{consumergroup=__strimzi-topic-operator-kstreams},1651441854,0
{consumergroup=__strimzi-topic-operator-kstreams},1651441859,0
{consumergroup=__strimzi-topic-operator-kstreams},1651441864,0
{consumergroup=__strimzi-topic-operator-kstreams},1651441869,0
{consumergroup=__strimzi-topic-operator-kstreams},1651441874,0
{consumergroup=__strimzi-topic-operator-kstreams},1651441879,0
{consumergroup=__strimzi-topic-operator-kstreams},1651441884,0
{consumergroup=__strimzi-topic-operator-kstreams},1651441889,0
{consumergroup=__strimzi-topic-operator-kstreams},1651441894,0
{consumergroup=__strimzi-topic-operator-kstreams},1651441899,0
{consumergroup=__strimzi-topic-operator-kstreams},1651441904,0
{consumergroup=__strimzi-topic-operator-kstreams},1651441909,0
{consumergroup=__strimzi-topic-operator-kstreams},1651441914,0
{consumergroup=__strimzi-topic-operator-kstreams},1651441919,0
{consumergroup=__strimzi-topic-operator-kstreams},1651441924,0
{consumergroup=__strimzi-topic-operator-kstreams},1651441929,0
{consumergroup=__strimzi-topic-operator-kstreams},1651441934,0
{consumergroup=__strimzi-topic-operator-kstreams},1651441939,0
{consumergroup=__strimzi-topic-operator-kstreams},1651441944,0
{consumergroup=__strimzi-topic-operator-kstreams},1651441949,0
{consumergroup=__strimzi-topic-operator-kstreams},1651441954,0
{consumergroup=__strimzi-topic-operator-kstreams},1651441959,0
{consumergroup=__strimzi-topic-operator-kstreams},1651441964,0
{consumergroup=__strimzi-topic-operator-kstreams},1651441969,0
{consumergroup=__strimzi-topic-operator-kstreams},1651441974,0
{consumergroup=__strimzi-topic-operator-kstreams},1651441979,0
{consumergroup=__strimzi-topic-operator-kstreams},1651441984,0
{consumergroup=__strimzi-topic-operator-kstreams},1651441989,0
{consumergroup=__strimzi-topic-operator-kstreams},1651441994,0
{consumergroup=__strimzi-topic-operator-kstreams},1651441999,0
{consumergroup=__strimzi-topic-operator-kstreams},1651442004,0
{consumergroup=__strimzi-topic-operator-kstreams},1651442009,0
{consumergroup=__strimzi-topic-operator-kstreams},1651442014,0
{consumergroup=__strimzi-topic-operator-kstreams},1651442019,0
{consumergroup=__strimzi-topic-operator-kstreams},1651442024,0
{consumergroup=__strimzi-topic-operator-kstreams},1651442029,0
{consumergroup=__strimzi-topic-operator-kstreams},1651442034,0
{consumergroup=__strimzi-topic-operator-kstreams},1651442039,0
{consumergroup=adapter-service},1651441814,2927
{consumergroup=adapter-service},1651441819,2927
{consumergroup=adapter-service},1651441824,2927
{consumergroup=adapter-service},1651441829,339119
{consumergroup=adapter-service},1651441834,339119
{consumergroup=adapter-service},1651441839,339119
{consumergroup=adapter-service},1651441844,509415
{consumergroup=adapter-service},1651441849,509415
{consumergroup=adapter-service},1651441854,509415
{consumergroup=adapter-service},1651441859,661725
{consumergroup=adapter-service},1651441864,661725
{consumergroup=adapter-service},1651441869,661725
{consumergroup=adapter-service},1651441874,779428
{consumergroup=adapter-service},1651441879,779428
{consumergroup=adapter-service},1651441884,779428
{consumergroup=adapter-service},1651441889,896643
{consumergroup=adapter-service},1651441894,896643
{consumergroup=adapter-service},1651441899,896643
{consumergroup=adapter-service},1651441904,994728
{consumergroup=adapter-service},1651441909,994728
{consumergroup=adapter-service},1651441914,994728
{consumergroup=adapter-service},1651441919,1032284
{consumergroup=adapter-service},1651441924,1032284
{consumergroup=adapter-service},1651441929,1032284
{consumergroup=adapter-service},1651441934,1081797
{consumergroup=adapter-service},1651441939,1081797
{consumergroup=adapter-service},1651441944,1081797
{consumergroup=adapter-service},1651441949,1110127
{consumergroup=adapter-service},1651441954,1110127
{consumergroup=adapter-service},1651441959,1110127
{consumergroup=adapter-service},1651441964,1116625
{consumergroup=adapter-service},1651441969,1116625
{consumergroup=adapter-service},1651441974,1116625
{consumergroup=adapter-service},1651441979,1138582
{consumergroup=adapter-service},1651441984,1138582
{consumergroup=adapter-service},1651441989,1138582
{consumergroup=adapter-service},1651441994,1163103
{consumergroup=adapter-service},1651441999,1163103
{consumergroup=adapter-service},1651442004,1163103
{consumergroup=adapter-service},1651442009,1182830
{consumergroup=adapter-service},1651442014,1182830
{consumergroup=adapter-service},1651442019,1182830
{consumergroup=adapter-service},1651442024,1204386
{consumergroup=adapter-service},1651442029,1204386
{consumergroup=adapter-service},1651442034,1204386
{consumergroup=adapter-service},1651442039,1220213
