labels,timestamp,value
{consumergroup=__strimzi-topic-operator-kstreams},1651327400,11
{consumergroup=__strimzi-topic-operator-kstreams},1651327405,11
{consumergroup=__strimzi-topic-operator-kstreams},1651327410,11
{consumergroup=__strimzi-topic-operator-kstreams},1651327415,0
{consumergroup=__strimzi-topic-operator-kstreams},1651327420,0
{consumergroup=__strimzi-topic-operator-kstreams},1651327425,0
{consumergroup=__strimzi-topic-operator-kstreams},1651327430,3
{consumergroup=__strimzi-topic-operator-kstreams},1651327435,3
{consumergroup=__strimzi-topic-operator-kstreams},1651327440,3
{consumergroup=__strimzi-topic-operator-kstreams},1651327445,0
{consumergroup=__strimzi-topic-operator-kstreams},1651327450,0
{consumergroup=__strimzi-topic-operator-kstreams},1651327455,0
{consumergroup=__strimzi-topic-operator-kstreams},1651327460,0
{consumergroup=__strimzi-topic-operator-kstreams},1651327465,0
{consumergroup=__strimzi-topic-operator-kstreams},1651327470,0
{consumergroup=__strimzi-topic-operator-kstreams},1651327475,0
{consumergroup=__strimzi-topic-operator-kstreams},1651327480,0
{consumergroup=__strimzi-topic-operator-kstreams},1651327485,0
{consumergroup=__strimzi-topic-operator-kstreams},1651327490,0
{consumergroup=__strimzi-topic-operator-kstreams},1651327495,0
{consumergroup=__strimzi-topic-operator-kstreams},1651327500,0
{consumergroup=__strimzi-topic-operator-kstreams},1651327505,0
{consumergroup=__strimzi-topic-operator-kstreams},1651327510,0
{consumergroup=__strimzi-topic-operator-kstreams},1651327515,0
{consumergroup=__strimzi-topic-operator-kstreams},1651327520,0
{consumergroup=__strimzi-topic-operator-kstreams},1651327525,0
{consumergroup=__strimzi-topic-operator-kstreams},1651327530,0
{consumergroup=__strimzi-topic-operator-kstreams},1651327535,0
{consumergroup=__strimzi-topic-operator-kstreams},1651327540,0
{consumergroup=__strimzi-topic-operator-kstreams},1651327545,0
{consumergroup=__strimzi-topic-operator-kstreams},1651327550,0
{consumergroup=__strimzi-topic-operator-kstreams},1651327555,0
{consumergroup=__strimzi-topic-operator-kstreams},1651327560,0
{consumergroup=__strimzi-topic-operator-kstreams},1651327565,0
{consumergroup=__strimzi-topic-operator-kstreams},1651327570,0
{consumergroup=__strimzi-topic-operator-kstreams},1651327575,0
{consumergroup=__strimzi-topic-operator-kstreams},1651327580,0
{consumergroup=__strimzi-topic-operator-kstreams},1651327585,0
{consumergroup=__strimzi-topic-operator-kstreams},1651327590,0
{consumergroup=__strimzi-topic-operator-kstreams},1651327595,0
{consumergroup=__strimzi-topic-operator-kstreams},1651327600,0
{consumergroup=__strimzi-topic-operator-kstreams},1651327605,0
{consumergroup=__strimzi-topic-operator-kstreams},1651327610,0
{consumergroup=__strimzi-topic-operator-kstreams},1651327615,0
{consumergroup=__strimzi-topic-operator-kstreams},1651327620,0
{consumergroup=__strimzi-topic-operator-kstreams},1651327625,0
{consumergroup=__strimzi-topic-operator-kstreams},1651327630,0
{consumergroup=__strimzi-topic-operator-kstreams},1651327635,0
{consumergroup=__strimzi-topic-operator-kstreams},1651327640,0
{consumergroup=__strimzi-topic-operator-kstreams},1651327645,0
{consumergroup=__strimzi-topic-operator-kstreams},1651327650,0
{consumergroup=__strimzi-topic-operator-kstreams},1651327655,0
{consumergroup=__strimzi-topic-operator-kstreams},1651327660,0
{consumergroup=__strimzi-topic-operator-kstreams},1651327665,0
{consumergroup=__strimzi-topic-operator-kstreams},1651327670,0
{consumergroup=__strimzi-topic-operator-kstreams},1651327675,0
{consumergroup=__strimzi-topic-operator-kstreams},1651327680,0
{consumergroup=__strimzi-topic-operator-kstreams},1651327685,0
{consumergroup=__strimzi-topic-operator-kstreams},1651327690,0
{consumergroup=__strimzi-topic-operator-kstreams},1651327695,0
{consumergroup=__strimzi-topic-operator-kstreams},1651327700,0
{consumergroup=__strimzi-topic-operator-kstreams},1651327705,0
{consumergroup=__strimzi-topic-operator-kstreams},1651327710,0
{consumergroup=__strimzi-topic-operator-kstreams},1651327715,0
{consumergroup=__strimzi-topic-operator-kstreams},1651327720,0
{consumergroup=__strimzi-topic-operator-kstreams},1651327725,0
{consumergroup=__strimzi-topic-operator-kstreams},1651327730,0
{consumergroup=__strimzi-topic-operator-kstreams},1651327735,0
{consumergroup=__strimzi-topic-operator-kstreams},1651327740,0
{consumergroup=__strimzi-topic-operator-kstreams},1651327745,0
{consumergroup=__strimzi-topic-operator-kstreams},1651327750,0
{consumergroup=__strimzi-topic-operator-kstreams},1651327755,0
{consumergroup=__strimzi-topic-operator-kstreams},1651327760,0
{consumergroup=__strimzi-topic-operator-kstreams},1651327765,0
{consumergroup=__strimzi-topic-operator-kstreams},1651327770,0
{consumergroup=__strimzi-topic-operator-kstreams},1651327775,0
{consumergroup=__strimzi-topic-operator-kstreams},1651327780,0
{consumergroup=__strimzi-topic-operator-kstreams},1651327785,0
{consumergroup=__strimzi-topic-operator-kstreams},1651327790,0
{consumergroup=__strimzi-topic-operator-kstreams},1651327795,0
{consumergroup=__strimzi-topic-operator-kstreams},1651327800,0
{consumergroup=__strimzi-topic-operator-kstreams},1651327805,0
{consumergroup=__strimzi-topic-operator-kstreams},1651327810,0
{consumergroup=__strimzi-topic-operator-kstreams},1651327815,0
{consumergroup=__strimzi-topic-operator-kstreams},1651327820,0
{consumergroup=__strimzi-topic-operator-kstreams},1651327825,0
{consumergroup=__strimzi-topic-operator-kstreams},1651327830,0
{consumergroup=__strimzi-topic-operator-kstreams},1651327835,0
{consumergroup=__strimzi-topic-operator-kstreams},1651327840,0
{consumergroup=__strimzi-topic-operator-kstreams},1651327845,0
{consumergroup=__strimzi-topic-operator-kstreams},1651327850,0
{consumergroup=__strimzi-topic-operator-kstreams},1651327855,0
{consumergroup=__strimzi-topic-operator-kstreams},1651327860,0
{consumergroup=__strimzi-topic-operator-kstreams},1651327865,0
{consumergroup=__strimzi-topic-operator-kstreams},1651327870,0
{consumergroup=__strimzi-topic-operator-kstreams},1651327875,0
{consumergroup=__strimzi-topic-operator-kstreams},1651327880,0
{consumergroup=__strimzi-topic-operator-kstreams},1651327885,0
{consumergroup=__strimzi-topic-operator-kstreams},1651327890,0
{consumergroup=__strimzi-topic-operator-kstreams},1651327895,0
{consumergroup=__strimzi-topic-operator-kstreams},1651327900,0
{consumergroup=__strimzi-topic-operator-kstreams},1651327905,0
{consumergroup=adapter-service},1651327430,0
{consumergroup=adapter-service},1651327435,0
{consumergroup=adapter-service},1651327440,0
{consumergroup=adapter-service},1651327445,26661
{consumergroup=adapter-service},1651327450,26661
{consumergroup=adapter-service},1651327455,26661
{consumergroup=adapter-service},1651327460,1918
{consumergroup=adapter-service},1651327465,1918
{consumergroup=adapter-service},1651327470,1918
{consumergroup=adapter-service},1651327475,15988
{consumergroup=adapter-service},1651327480,15988
{consumergroup=adapter-service},1651327485,15988
{consumergroup=adapter-service},1651327490,3347
{consumergroup=adapter-service},1651327495,3347
{consumergroup=adapter-service},1651327500,3347
{consumergroup=adapter-service},1651327505,14567
{consumergroup=adapter-service},1651327510,14567
{consumergroup=adapter-service},1651327515,14567
{consumergroup=adapter-service},1651327520,6066
{consumergroup=adapter-service},1651327525,6066
{consumergroup=adapter-service},1651327530,6066
{consumergroup=adapter-service},1651327535,14959
{consumergroup=adapter-service},1651327540,14959
{consumergroup=adapter-service},1651327545,14959
{consumergroup=adapter-service},1651327550,12081
{consumergroup=adapter-service},1651327555,12081
{consumergroup=adapter-service},1651327560,12081
{consumergroup=adapter-service},1651327565,13853
{consumergroup=adapter-service},1651327570,13853
{consumergroup=adapter-service},1651327575,13853
{consumergroup=adapter-service},1651327580,9175
{consumergroup=adapter-service},1651327585,9175
{consumergroup=adapter-service},1651327590,9175
{consumergroup=adapter-service},1651327595,13166
{consumergroup=adapter-service},1651327600,13166
{consumergroup=adapter-service},1651327605,13166
{consumergroup=adapter-service},1651327610,13063
{consumergroup=adapter-service},1651327615,13063
{consumergroup=adapter-service},1651327620,13063
{consumergroup=adapter-service},1651327625,12921
{consumergroup=adapter-service},1651327630,12921
{consumergroup=adapter-service},1651327635,12921
{consumergroup=adapter-service},1651327640,17259
{consumergroup=adapter-service},1651327645,17259
{consumergroup=adapter-service},1651327650,17259
{consumergroup=adapter-service},1651327655,13505
{consumergroup=adapter-service},1651327660,13505
{consumergroup=adapter-service},1651327665,13505
{consumergroup=adapter-service},1651327670,16865
{consumergroup=adapter-service},1651327675,16865
{consumergroup=adapter-service},1651327680,16865
{consumergroup=adapter-service},1651327685,12891
{consumergroup=adapter-service},1651327690,12891
{consumergroup=adapter-service},1651327695,12891
{consumergroup=adapter-service},1651327700,16533
{consumergroup=adapter-service},1651327705,16533
{consumergroup=adapter-service},1651327710,16533
{consumergroup=adapter-service},1651327715,12835
{consumergroup=adapter-service},1651327720,12835
{consumergroup=adapter-service},1651327725,12835
{consumergroup=adapter-service},1651327730,15923
{consumergroup=adapter-service},1651327735,15923
{consumergroup=adapter-service},1651327740,15923
{consumergroup=adapter-service},1651327745,11328
{consumergroup=adapter-service},1651327750,11328
{consumergroup=adapter-service},1651327755,11328
{consumergroup=adapter-service},1651327760,15744
{consumergroup=adapter-service},1651327765,15744
{consumergroup=adapter-service},1651327770,15744
{consumergroup=adapter-service},1651327775,11757
{consumergroup=adapter-service},1651327780,11757
{consumergroup=adapter-service},1651327785,11757
{consumergroup=adapter-service},1651327790,4978
{consumergroup=adapter-service},1651327795,4978
{consumergroup=adapter-service},1651327800,4978
{consumergroup=adapter-service},1651327805,10548
{consumergroup=adapter-service},1651327810,10548
{consumergroup=adapter-service},1651327815,10548
{consumergroup=adapter-service},1651327820,15147
{consumergroup=adapter-service},1651327825,15147
{consumergroup=adapter-service},1651327830,15147
{consumergroup=adapter-service},1651327835,10515
{consumergroup=adapter-service},1651327840,10515
{consumergroup=adapter-service},1651327845,10515
{consumergroup=adapter-service},1651327850,14585
{consumergroup=adapter-service},1651327855,14585
{consumergroup=adapter-service},1651327860,14585
{consumergroup=adapter-service},1651327865,10041
{consumergroup=adapter-service},1651327870,10041
{consumergroup=adapter-service},1651327875,10041
{consumergroup=adapter-service},1651327880,14491
{consumergroup=adapter-service},1651327885,14491
{consumergroup=adapter-service},1651327890,14491
{consumergroup=adapter-service},1651327895,9489
{consumergroup=adapter-service},1651327900,9489
{consumergroup=adapter-service},1651327905,9489
{consumergroup=landscape-service},1651327460,2271
{consumergroup=landscape-service},1651327465,2271
{consumergroup=landscape-service},1651327470,2271
{consumergroup=landscape-service},1651327475,16810
{consumergroup=landscape-service},1651327480,16810
{consumergroup=landscape-service},1651327485,16810
{consumergroup=landscape-service},1651327490,0
{consumergroup=landscape-service},1651327495,0
{consumergroup=landscape-service},1651327500,0
{consumergroup=landscape-service},1651327505,15775
{consumergroup=landscape-service},1651327510,15775
{consumergroup=landscape-service},1651327515,15775
{consumergroup=landscape-service},1651327520,18606
{consumergroup=landscape-service},1651327525,18606
{consumergroup=landscape-service},1651327530,18606
{consumergroup=landscape-service},1651327535,14467
{consumergroup=landscape-service},1651327540,14467
{consumergroup=landscape-service},1651327545,14467
{consumergroup=landscape-service},1651327550,17461
{consumergroup=landscape-service},1651327555,17461
{consumergroup=landscape-service},1651327560,17461
{consumergroup=landscape-service},1651327565,13355
{consumergroup=landscape-service},1651327570,13355
{consumergroup=landscape-service},1651327575,13355
{consumergroup=landscape-service},1651327580,16450
{consumergroup=landscape-service},1651327585,16450
{consumergroup=landscape-service},1651327590,16450
{consumergroup=landscape-service},1651327595,11987
{consumergroup=landscape-service},1651327600,11987
{consumergroup=landscape-service},1651327605,11987
{consumergroup=landscape-service},1651327610,14922
{consumergroup=landscape-service},1651327615,14922
{consumergroup=landscape-service},1651327620,14922
{consumergroup=landscape-service},1651327625,9815
{consumergroup=landscape-service},1651327630,9815
{consumergroup=landscape-service},1651327635,9815
{consumergroup=landscape-service},1651327640,14821
{consumergroup=landscape-service},1651327645,14821
{consumergroup=landscape-service},1651327650,14821
{consumergroup=landscape-service},1651327655,8679
{consumergroup=landscape-service},1651327660,8679
{consumergroup=landscape-service},1651327665,8679
{consumergroup=landscape-service},1651327670,12490
{consumergroup=landscape-service},1651327675,12490
{consumergroup=landscape-service},1651327680,12490
{consumergroup=landscape-service},1651327685,7301
{consumergroup=landscape-service},1651327690,7301
{consumergroup=landscape-service},1651327695,7301
{consumergroup=landscape-service},1651327700,11677
{consumergroup=landscape-service},1651327705,11677
{consumergroup=landscape-service},1651327710,11677
{consumergroup=landscape-service},1651327715,6260
{consumergroup=landscape-service},1651327720,6260
{consumergroup=landscape-service},1651327725,6260
{consumergroup=landscape-service},1651327730,10168
{consumergroup=landscape-service},1651327735,10168
{consumergroup=landscape-service},1651327740,10168
{consumergroup=landscape-service},1651327745,4900
{consumergroup=landscape-service},1651327750,4900
{consumergroup=landscape-service},1651327755,4900
{consumergroup=landscape-service},1651327760,8734
{consumergroup=landscape-service},1651327765,8734
{consumergroup=landscape-service},1651327770,8734
{consumergroup=landscape-service},1651327775,5494
{consumergroup=landscape-service},1651327780,5494
{consumergroup=landscape-service},1651327785,5494
{consumergroup=landscape-service},1651327790,12815
{consumergroup=landscape-service},1651327795,12815
{consumergroup=landscape-service},1651327800,12815
{consumergroup=landscape-service},1651327805,4074
{consumergroup=landscape-service},1651327810,4074
{consumergroup=landscape-service},1651327815,4074
{consumergroup=landscape-service},1651327820,7423
{consumergroup=landscape-service},1651327825,7423
{consumergroup=landscape-service},1651327830,7423
{consumergroup=landscape-service},1651327835,3239
{consumergroup=landscape-service},1651327840,3239
{consumergroup=landscape-service},1651327845,3239
{consumergroup=landscape-service},1651327850,6213
{consumergroup=landscape-service},1651327855,6213
{consumergroup=landscape-service},1651327860,6213
{consumergroup=landscape-service},1651327865,608
{consumergroup=landscape-service},1651327870,608
{consumergroup=landscape-service},1651327875,608
{consumergroup=landscape-service},1651327880,5978
{consumergroup=landscape-service},1651327885,5978
{consumergroup=landscape-service},1651327890,5978
{consumergroup=landscape-service},1651327895,19442
{consumergroup=landscape-service},1651327900,19442
{consumergroup=landscape-service},1651327905,19442
{consumergroup=trace-service},1651327445,30905
{consumergroup=trace-service},1651327450,30905
{consumergroup=trace-service},1651327455,30905
{consumergroup=trace-service},1651327460,20736
{consumergroup=trace-service},1651327465,20736
{consumergroup=trace-service},1651327470,20736
{consumergroup=trace-service},1651327475,4811
{consumergroup=trace-service},1651327480,4811
{consumergroup=trace-service},1651327485,4811
{consumergroup=trace-service},1651327490,58811
{consumergroup=trace-service},1651327495,58811
{consumergroup=trace-service},1651327500,58811
{consumergroup=trace-service},1651327505,23358
{consumergroup=trace-service},1651327510,23358
{consumergroup=trace-service},1651327515,23358
{consumergroup=trace-service},1651327520,75145
{consumergroup=trace-service},1651327525,75145
{consumergroup=trace-service},1651327530,75145
{consumergroup=trace-service},1651327535,14739
{consumergroup=trace-service},1651327540,14739
{consumergroup=trace-service},1651327545,14739
{consumergroup=trace-service},1651327550,66450
{consumergroup=trace-service},1651327555,66450
{consumergroup=trace-service},1651327560,66450
{consumergroup=trace-service},1651327565,11062
{consumergroup=trace-service},1651327570,11062
{consumergroup=trace-service},1651327575,11062
{consumergroup=trace-service},1651327580,56768
{consumergroup=trace-service},1651327585,56768
{consumergroup=trace-service},1651327590,56768
{consumergroup=trace-service},1651327595,28000
{consumergroup=trace-service},1651327600,28000
{consumergroup=trace-service},1651327605,28000
{consumergroup=trace-service},1651327610,79430
{consumergroup=trace-service},1651327615,79430
{consumergroup=trace-service},1651327620,79430
{consumergroup=trace-service},1651327625,20282
{consumergroup=trace-service},1651327630,20282
{consumergroup=trace-service},1651327635,20282
{consumergroup=trace-service},1651327640,75920
{consumergroup=trace-service},1651327645,75920
{consumergroup=trace-service},1651327650,75920
{consumergroup=trace-service},1651327655,94795
{consumergroup=trace-service},1651327660,94795
{consumergroup=trace-service},1651327665,94795
{consumergroup=trace-service},1651327670,77364
{consumergroup=trace-service},1651327675,77364
{consumergroup=trace-service},1651327680,77364
{consumergroup=trace-service},1651327685,12365
{consumergroup=trace-service},1651327690,12365
{consumergroup=trace-service},1651327695,12365
{consumergroup=trace-service},1651327700,66759
{consumergroup=trace-service},1651327705,66759
{consumergroup=trace-service},1651327710,66759
{consumergroup=trace-service},1651327715,19914
{consumergroup=trace-service},1651327720,19914
{consumergroup=trace-service},1651327725,19914
{consumergroup=trace-service},1651327730,68444
{consumergroup=trace-service},1651327735,68444
{consumergroup=trace-service},1651327740,68444
{consumergroup=trace-service},1651327745,20825
{consumergroup=trace-service},1651327750,20825
{consumergroup=trace-service},1651327755,20825
{consumergroup=trace-service},1651327760,65303
{consumergroup=trace-service},1651327765,65303
{consumergroup=trace-service},1651327770,65303
{consumergroup=trace-service},1651327775,17289
{consumergroup=trace-service},1651327780,17289
{consumergroup=trace-service},1651327785,17289
{consumergroup=trace-service},1651327790,83318
{consumergroup=trace-service},1651327795,83318
{consumergroup=trace-service},1651327800,83318
{consumergroup=trace-service},1651327805,22545
{consumergroup=trace-service},1651327810,22545
{consumergroup=trace-service},1651327815,22545
{consumergroup=trace-service},1651327820,71630
{consumergroup=trace-service},1651327825,71630
{consumergroup=trace-service},1651327830,71630
{consumergroup=trace-service},1651327835,10598
{consumergroup=trace-service},1651327840,10598
{consumergroup=trace-service},1651327845,10598
{consumergroup=trace-service},1651327850,68122
{consumergroup=trace-service},1651327855,68122
{consumergroup=trace-service},1651327860,68122
{consumergroup=trace-service},1651327865,91339
{consumergroup=trace-service},1651327870,91339
{consumergroup=trace-service},1651327875,91339
{consumergroup=trace-service},1651327880,80975
{consumergroup=trace-service},1651327885,80975
{consumergroup=trace-service},1651327890,80975
{consumergroup=trace-service},1651327895,133148
{consumergroup=trace-service},1651327900,133148
{consumergroup=trace-service},1651327905,133148
{consumergroup=trace-token-events-consumer},1651327430,0
{consumergroup=trace-token-events-consumer},1651327435,0
{consumergroup=trace-token-events-consumer},1651327440,0
{consumergroup=trace-token-events-consumer},1651327445,0
{consumergroup=trace-token-events-consumer},1651327450,0
{consumergroup=trace-token-events-consumer},1651327455,0
{consumergroup=trace-token-events-consumer},1651327460,0
{consumergroup=trace-token-events-consumer},1651327465,0
{consumergroup=trace-token-events-consumer},1651327470,0
{consumergroup=trace-token-events-consumer},1651327475,0
{consumergroup=trace-token-events-consumer},1651327480,0
{consumergroup=trace-token-events-consumer},1651327485,0
{consumergroup=trace-token-events-consumer},1651327490,0
{consumergroup=trace-token-events-consumer},1651327495,0
{consumergroup=trace-token-events-consumer},1651327500,0
{consumergroup=trace-token-events-consumer},1651327505,0
{consumergroup=trace-token-events-consumer},1651327510,0
{consumergroup=trace-token-events-consumer},1651327515,0
{consumergroup=trace-token-events-consumer},1651327520,0
{consumergroup=trace-token-events-consumer},1651327525,0
{consumergroup=trace-token-events-consumer},1651327530,0
{consumergroup=trace-token-events-consumer},1651327535,0
{consumergroup=trace-token-events-consumer},1651327540,0
{consumergroup=trace-token-events-consumer},1651327545,0
{consumergroup=trace-token-events-consumer},1651327550,0
{consumergroup=trace-token-events-consumer},1651327555,0
{consumergroup=trace-token-events-consumer},1651327560,0
{consumergroup=trace-token-events-consumer},1651327565,0
{consumergroup=trace-token-events-consumer},1651327570,0
{consumergroup=trace-token-events-consumer},1651327575,0
{consumergroup=trace-token-events-consumer},1651327580,0
{consumergroup=trace-token-events-consumer},1651327585,0
{consumergroup=trace-token-events-consumer},1651327590,0
{consumergroup=trace-token-events-consumer},1651327595,0
{consumergroup=trace-token-events-consumer},1651327600,0
{consumergroup=trace-token-events-consumer},1651327605,0
{consumergroup=trace-token-events-consumer},1651327610,0
{consumergroup=trace-token-events-consumer},1651327615,0
{consumergroup=trace-token-events-consumer},1651327620,0
{consumergroup=trace-token-events-consumer},1651327625,0
{consumergroup=trace-token-events-consumer},1651327630,0
{consumergroup=trace-token-events-consumer},1651327635,0
{consumergroup=trace-token-events-consumer},1651327640,0
{consumergroup=trace-token-events-consumer},1651327645,0
{consumergroup=trace-token-events-consumer},1651327650,0
{consumergroup=trace-token-events-consumer},1651327655,0
{consumergroup=trace-token-events-consumer},1651327660,0
{consumergroup=trace-token-events-consumer},1651327665,0
{consumergroup=trace-token-events-consumer},1651327670,0
{consumergroup=trace-token-events-consumer},1651327675,0
{consumergroup=trace-token-events-consumer},1651327680,0
{consumergroup=trace-token-events-consumer},1651327685,0
{consumergroup=trace-token-events-consumer},1651327690,0
{consumergroup=trace-token-events-consumer},1651327695,0
{consumergroup=trace-token-events-consumer},1651327700,0
{consumergroup=trace-token-events-consumer},1651327705,0
{consumergroup=trace-token-events-consumer},1651327710,0
{consumergroup=trace-token-events-consumer},1651327715,0
{consumergroup=trace-token-events-consumer},1651327720,0
{consumergroup=trace-token-events-consumer},1651327725,0
{consumergroup=trace-token-events-consumer},1651327730,0
{consumergroup=trace-token-events-consumer},1651327735,0
{consumergroup=trace-token-events-consumer},1651327740,0
{consumergroup=trace-token-events-consumer},1651327745,0
{consumergroup=trace-token-events-consumer},1651327750,0
{consumergroup=trace-token-events-consumer},1651327755,0
{consumergroup=trace-token-events-consumer},1651327760,0
{consumergroup=trace-token-events-consumer},1651327765,0
{consumergroup=trace-token-events-consumer},1651327770,0
{consumergroup=trace-token-events-consumer},1651327775,0
{consumergroup=trace-token-events-consumer},1651327780,0
{consumergroup=trace-token-events-consumer},1651327785,0
{consumergroup=trace-token-events-consumer},1651327790,0
{consumergroup=trace-token-events-consumer},1651327795,0
{consumergroup=trace-token-events-consumer},1651327800,0
{consumergroup=trace-token-events-consumer},1651327805,0
{consumergroup=trace-token-events-consumer},1651327810,0
{consumergroup=trace-token-events-consumer},1651327815,0
{consumergroup=trace-token-events-consumer},1651327820,0
{consumergroup=trace-token-events-consumer},1651327825,0
{consumergroup=trace-token-events-consumer},1651327830,0
{consumergroup=trace-token-events-consumer},1651327835,0
{consumergroup=trace-token-events-consumer},1651327840,0
{consumergroup=trace-token-events-consumer},1651327845,0
{consumergroup=trace-token-events-consumer},1651327850,0
{consumergroup=trace-token-events-consumer},1651327855,0
{consumergroup=trace-token-events-consumer},1651327860,0
{consumergroup=trace-token-events-consumer},1651327865,0
{consumergroup=trace-token-events-consumer},1651327870,0
{consumergroup=trace-token-events-consumer},1651327875,0
{consumergroup=trace-token-events-consumer},1651327880,0
{consumergroup=trace-token-events-consumer},1651327885,0
{consumergroup=trace-token-events-consumer},1651327890,0
{consumergroup=trace-token-events-consumer},1651327895,0
{consumergroup=trace-token-events-consumer},1651327900,0
{consumergroup=trace-token-events-consumer},1651327905,0
