labels,timestamp,value
{consumergroup=__strimzi-topic-operator-kstreams},1651432223,9
{consumergroup=__strimzi-topic-operator-kstreams},1651432228,9
{consumergroup=__strimzi-topic-operator-kstreams},1651432233,9
{consumergroup=__strimzi-topic-operator-kstreams},1651432238,0
{consumergroup=__strimzi-topic-operator-kstreams},1651432243,0
{consumergroup=__strimzi-topic-operator-kstreams},1651432248,0
{consumergroup=__strimzi-topic-operator-kstreams},1651432253,0
{consumergroup=__strimzi-topic-operator-kstreams},1651432258,0
{consumergroup=__strimzi-topic-operator-kstreams},1651432263,0
{consumergroup=__strimzi-topic-operator-kstreams},1651432268,0
{consumergroup=__strimzi-topic-operator-kstreams},1651432273,0
{consumergroup=__strimzi-topic-operator-kstreams},1651432278,0
{consumergroup=__strimzi-topic-operator-kstreams},1651432283,0
{consumergroup=__strimzi-topic-operator-kstreams},1651432288,0
{consumergroup=__strimzi-topic-operator-kstreams},1651432293,0
{consumergroup=__strimzi-topic-operator-kstreams},1651432298,0
{consumergroup=__strimzi-topic-operator-kstreams},1651432303,0
{consumergroup=__strimzi-topic-operator-kstreams},1651432308,0
{consumergroup=__strimzi-topic-operator-kstreams},1651432313,0
{consumergroup=__strimzi-topic-operator-kstreams},1651432318,0
{consumergroup=__strimzi-topic-operator-kstreams},1651432323,0
{consumergroup=__strimzi-topic-operator-kstreams},1651432328,0
{consumergroup=__strimzi-topic-operator-kstreams},1651432333,0
{consumergroup=__strimzi-topic-operator-kstreams},1651432338,0
{consumergroup=__strimzi-topic-operator-kstreams},1651432343,0
{consumergroup=__strimzi-topic-operator-kstreams},1651432348,0
{consumergroup=__strimzi-topic-operator-kstreams},1651432353,0
{consumergroup=__strimzi-topic-operator-kstreams},1651432358,0
{consumergroup=__strimzi-topic-operator-kstreams},1651432363,0
{consumergroup=__strimzi-topic-operator-kstreams},1651432368,0
{consumergroup=__strimzi-topic-operator-kstreams},1651432373,0
{consumergroup=__strimzi-topic-operator-kstreams},1651432378,0
{consumergroup=__strimzi-topic-operator-kstreams},1651432383,0
{consumergroup=__strimzi-topic-operator-kstreams},1651432388,0
{consumergroup=__strimzi-topic-operator-kstreams},1651432393,0
{consumergroup=__strimzi-topic-operator-kstreams},1651432398,0
{consumergroup=__strimzi-topic-operator-kstreams},1651432403,0
{consumergroup=__strimzi-topic-operator-kstreams},1651432408,0
{consumergroup=__strimzi-topic-operator-kstreams},1651432413,0
{consumergroup=__strimzi-topic-operator-kstreams},1651432418,0
{consumergroup=__strimzi-topic-operator-kstreams},1651432423,0
{consumergroup=__strimzi-topic-operator-kstreams},1651432428,0
{consumergroup=__strimzi-topic-operator-kstreams},1651432433,0
{consumergroup=__strimzi-topic-operator-kstreams},1651432438,0
{consumergroup=__strimzi-topic-operator-kstreams},1651432443,0
{consumergroup=__strimzi-topic-operator-kstreams},1651432448,0
{consumergroup=__strimzi-topic-operator-kstreams},1651432453,0
{consumergroup=__strimzi-topic-operator-kstreams},1651432458,0
{consumergroup=__strimzi-topic-operator-kstreams},1651432463,0
{consumergroup=__strimzi-topic-operator-kstreams},1651432468,0
{consumergroup=__strimzi-topic-operator-kstreams},1651432473,0
{consumergroup=adapter-service},1651432253,17688
{consumergroup=adapter-service},1651432258,17688
{consumergroup=adapter-service},1651432263,17688
{consumergroup=adapter-service},1651432268,41125
{consumergroup=adapter-service},1651432273,41125
{consumergroup=adapter-service},1651432278,41125
{consumergroup=adapter-service},1651432283,57527
{consumergroup=adapter-service},1651432288,57527
{consumergroup=adapter-service},1651432293,57527
{consumergroup=adapter-service},1651432298,77335
{consumergroup=adapter-service},1651432303,77335
{consumergroup=adapter-service},1651432308,77335
{consumergroup=adapter-service},1651432313,83104
{consumergroup=adapter-service},1651432318,83104
{consumergroup=adapter-service},1651432323,83104
{consumergroup=adapter-service},1651432328,93340
{consumergroup=adapter-service},1651432333,93340
{consumergroup=adapter-service},1651432338,93340
{consumergroup=adapter-service},1651432343,97968
{consumergroup=adapter-service},1651432348,97968
{consumergroup=adapter-service},1651432353,97968
{consumergroup=adapter-service},1651432358,99367
{consumergroup=adapter-service},1651432363,99367
{consumergroup=adapter-service},1651432368,99367
{consumergroup=adapter-service},1651432373,98423
{consumergroup=adapter-service},1651432378,98423
{consumergroup=adapter-service},1651432383,98423
{consumergroup=adapter-service},1651432388,91613
{consumergroup=adapter-service},1651432393,91613
{consumergroup=adapter-service},1651432398,91613
{consumergroup=adapter-service},1651432403,78006
{consumergroup=adapter-service},1651432408,78006
{consumergroup=adapter-service},1651432413,78006
{consumergroup=adapter-service},1651432418,66519
{consumergroup=adapter-service},1651432423,66519
{consumergroup=adapter-service},1651432428,66519
{consumergroup=adapter-service},1651432433,55689
{consumergroup=adapter-service},1651432438,55689
{consumergroup=adapter-service},1651432443,55689
{consumergroup=adapter-service},1651432448,43595
{consumergroup=adapter-service},1651432453,43595
{consumergroup=adapter-service},1651432458,43595
{consumergroup=adapter-service},1651432463,32121
{consumergroup=adapter-service},1651432468,32121
{consumergroup=adapter-service},1651432473,32121
