labels,timestamp,value
{consumergroup=__strimzi-topic-operator-kstreams},1651440257,22
{consumergroup=__strimzi-topic-operator-kstreams},1651440262,22
{consumergroup=__strimzi-topic-operator-kstreams},1651440267,22
{consumergroup=__strimzi-topic-operator-kstreams},1651440272,0
{consumergroup=__strimzi-topic-operator-kstreams},1651440277,0
{consumergroup=__strimzi-topic-operator-kstreams},1651440282,0
{consumergroup=__strimzi-topic-operator-kstreams},1651440287,0
{consumergroup=__strimzi-topic-operator-kstreams},1651440292,0
{consumergroup=__strimzi-topic-operator-kstreams},1651440297,0
{consumergroup=__strimzi-topic-operator-kstreams},1651440302,0
{consumergroup=__strimzi-topic-operator-kstreams},1651440307,0
{consumergroup=__strimzi-topic-operator-kstreams},1651440312,0
{consumergroup=__strimzi-topic-operator-kstreams},1651440317,0
{consumergroup=__strimzi-topic-operator-kstreams},1651440322,0
{consumergroup=__strimzi-topic-operator-kstreams},1651440327,0
{consumergroup=__strimzi-topic-operator-kstreams},1651440332,0
{consumergroup=__strimzi-topic-operator-kstreams},1651440337,0
{consumergroup=__strimzi-topic-operator-kstreams},1651440342,0
{consumergroup=__strimzi-topic-operator-kstreams},1651440347,0
{consumergroup=__strimzi-topic-operator-kstreams},1651440352,0
{consumergroup=__strimzi-topic-operator-kstreams},1651440357,0
{consumergroup=__strimzi-topic-operator-kstreams},1651440362,0
{consumergroup=__strimzi-topic-operator-kstreams},1651440367,0
{consumergroup=__strimzi-topic-operator-kstreams},1651440372,0
{consumergroup=__strimzi-topic-operator-kstreams},1651440377,0
{consumergroup=__strimzi-topic-operator-kstreams},1651440382,0
{consumergroup=__strimzi-topic-operator-kstreams},1651440387,0
{consumergroup=__strimzi-topic-operator-kstreams},1651440392,0
{consumergroup=__strimzi-topic-operator-kstreams},1651440397,0
{consumergroup=__strimzi-topic-operator-kstreams},1651440402,0
{consumergroup=__strimzi-topic-operator-kstreams},1651440407,0
{consumergroup=__strimzi-topic-operator-kstreams},1651440412,0
{consumergroup=__strimzi-topic-operator-kstreams},1651440417,0
{consumergroup=__strimzi-topic-operator-kstreams},1651440422,0
{consumergroup=__strimzi-topic-operator-kstreams},1651440427,0
{consumergroup=__strimzi-topic-operator-kstreams},1651440432,0
{consumergroup=__strimzi-topic-operator-kstreams},1651440437,0
{consumergroup=__strimzi-topic-operator-kstreams},1651440442,0
{consumergroup=__strimzi-topic-operator-kstreams},1651440447,0
{consumergroup=__strimzi-topic-operator-kstreams},1651440452,0
{consumergroup=__strimzi-topic-operator-kstreams},1651440457,0
{consumergroup=__strimzi-topic-operator-kstreams},1651440462,0
{consumergroup=__strimzi-topic-operator-kstreams},1651440467,0
{consumergroup=__strimzi-topic-operator-kstreams},1651440472,0
{consumergroup=__strimzi-topic-operator-kstreams},1651440477,0
{consumergroup=__strimzi-topic-operator-kstreams},1651440482,0
{consumergroup=__strimzi-topic-operator-kstreams},1651440487,0
{consumergroup=__strimzi-topic-operator-kstreams},1651440492,0
{consumergroup=__strimzi-topic-operator-kstreams},1651440497,0
{consumergroup=__strimzi-topic-operator-kstreams},1651440502,0
{consumergroup=__strimzi-topic-operator-kstreams},1651440507,0
{consumergroup=adapter-service},1651440287,157828
{consumergroup=adapter-service},1651440292,157828
{consumergroup=adapter-service},1651440297,157828
{consumergroup=adapter-service},1651440302,353224
{consumergroup=adapter-service},1651440307,353224
{consumergroup=adapter-service},1651440312,353224
{consumergroup=adapter-service},1651440317,506988
{consumergroup=adapter-service},1651440322,506988
{consumergroup=adapter-service},1651440327,506988
{consumergroup=adapter-service},1651440332,614147
{consumergroup=adapter-service},1651440337,614147
{consumergroup=adapter-service},1651440342,614147
{consumergroup=adapter-service},1651440347,721086
{consumergroup=adapter-service},1651440352,721086
{consumergroup=adapter-service},1651440357,721086
{consumergroup=adapter-service},1651440362,792152
{consumergroup=adapter-service},1651440367,792152
{consumergroup=adapter-service},1651440372,792152
{consumergroup=adapter-service},1651440377,831030
{consumergroup=adapter-service},1651440382,831030
{consumergroup=adapter-service},1651440387,831030
{consumergroup=adapter-service},1651440392,832871
{consumergroup=adapter-service},1651440397,832871
{consumergroup=adapter-service},1651440402,832871
{consumergroup=adapter-service},1651440407,816085
{consumergroup=adapter-service},1651440412,816085
{consumergroup=adapter-service},1651440417,816085
{consumergroup=adapter-service},1651440422,808174
{consumergroup=adapter-service},1651440427,808174
{consumergroup=adapter-service},1651440432,808174
{consumergroup=adapter-service},1651440437,791295
{consumergroup=adapter-service},1651440442,791295
{consumergroup=adapter-service},1651440447,791295
{consumergroup=adapter-service},1651440452,760426
{consumergroup=adapter-service},1651440457,760426
{consumergroup=adapter-service},1651440462,760426
{consumergroup=adapter-service},1651440467,740381
{consumergroup=adapter-service},1651440472,740381
{consumergroup=adapter-service},1651440477,740381
{consumergroup=adapter-service},1651440482,712737
{consumergroup=adapter-service},1651440487,712737
{consumergroup=adapter-service},1651440492,712737
{consumergroup=adapter-service},1651440497,691000
{consumergroup=adapter-service},1651440502,691000
{consumergroup=adapter-service},1651440507,691000
