labels,timestamp,value
{consumergroup=__strimzi-topic-operator-kstreams},1651449504,0
{consumergroup=__strimzi-topic-operator-kstreams},1651449509,0
{consumergroup=__strimzi-topic-operator-kstreams},1651449514,0
{consumergroup=__strimzi-topic-operator-kstreams},1651449519,0
{consumergroup=__strimzi-topic-operator-kstreams},1651449524,0
{consumergroup=__strimzi-topic-operator-kstreams},1651449529,0
{consumergroup=__strimzi-topic-operator-kstreams},1651449534,0
{consumergroup=__strimzi-topic-operator-kstreams},1651449539,0
{consumergroup=__strimzi-topic-operator-kstreams},1651449544,0
{consumergroup=__strimzi-topic-operator-kstreams},1651449549,0
{consumergroup=__strimzi-topic-operator-kstreams},1651449554,0
{consumergroup=__strimzi-topic-operator-kstreams},1651449559,0
{consumergroup=__strimzi-topic-operator-kstreams},1651449564,0
{consumergroup=__strimzi-topic-operator-kstreams},1651449569,0
{consumergroup=__strimzi-topic-operator-kstreams},1651449574,0
{consumergroup=__strimzi-topic-operator-kstreams},1651449579,0
{consumergroup=__strimzi-topic-operator-kstreams},1651449584,0
{consumergroup=__strimzi-topic-operator-kstreams},1651449589,0
{consumergroup=__strimzi-topic-operator-kstreams},1651449594,0
{consumergroup=__strimzi-topic-operator-kstreams},1651449599,0
{consumergroup=__strimzi-topic-operator-kstreams},1651449604,0
{consumergroup=__strimzi-topic-operator-kstreams},1651449609,0
{consumergroup=__strimzi-topic-operator-kstreams},1651449614,0
{consumergroup=__strimzi-topic-operator-kstreams},1651449619,0
{consumergroup=__strimzi-topic-operator-kstreams},1651449624,0
{consumergroup=__strimzi-topic-operator-kstreams},1651449629,0
{consumergroup=__strimzi-topic-operator-kstreams},1651449634,0
{consumergroup=__strimzi-topic-operator-kstreams},1651449639,0
{consumergroup=__strimzi-topic-operator-kstreams},1651449644,0
{consumergroup=__strimzi-topic-operator-kstreams},1651449649,0
{consumergroup=__strimzi-topic-operator-kstreams},1651449654,0
{consumergroup=__strimzi-topic-operator-kstreams},1651449659,0
{consumergroup=__strimzi-topic-operator-kstreams},1651449664,0
{consumergroup=__strimzi-topic-operator-kstreams},1651449669,0
{consumergroup=__strimzi-topic-operator-kstreams},1651449674,0
{consumergroup=__strimzi-topic-operator-kstreams},1651449679,0
{consumergroup=__strimzi-topic-operator-kstreams},1651449684,0
{consumergroup=__strimzi-topic-operator-kstreams},1651449689,0
{consumergroup=__strimzi-topic-operator-kstreams},1651449694,0
{consumergroup=__strimzi-topic-operator-kstreams},1651449699,0
{consumergroup=__strimzi-topic-operator-kstreams},1651449704,0
{consumergroup=__strimzi-topic-operator-kstreams},1651449709,0
{consumergroup=__strimzi-topic-operator-kstreams},1651449714,0
{consumergroup=__strimzi-topic-operator-kstreams},1651449719,0
{consumergroup=__strimzi-topic-operator-kstreams},1651449724,0
{consumergroup=__strimzi-topic-operator-kstreams},1651449729,0
{consumergroup=__strimzi-topic-operator-kstreams},1651449734,0
{consumergroup=__strimzi-topic-operator-kstreams},1651449739,0
{consumergroup=__strimzi-topic-operator-kstreams},1651449744,0
{consumergroup=__strimzi-topic-operator-kstreams},1651449749,0
{consumergroup=adapter-service},1651449534,175091
{consumergroup=adapter-service},1651449539,175091
{consumergroup=adapter-service},1651449544,175091
{consumergroup=adapter-service},1651449549,330527
{consumergroup=adapter-service},1651449554,330527
{consumergroup=adapter-service},1651449559,330527
{consumergroup=adapter-service},1651449564,451782
{consumergroup=adapter-service},1651449569,451782
{consumergroup=adapter-service},1651449574,451782
{consumergroup=adapter-service},1651449579,573891
{consumergroup=adapter-service},1651449584,573891
{consumergroup=adapter-service},1651449589,573891
{consumergroup=adapter-service},1651449594,685191
{consumergroup=adapter-service},1651449599,685191
{consumergroup=adapter-service},1651449604,685191
{consumergroup=adapter-service},1651449609,759872
{consumergroup=adapter-service},1651449614,759872
{consumergroup=adapter-service},1651449619,759872
{consumergroup=adapter-service},1651449624,802480
{consumergroup=adapter-service},1651449629,802480
{consumergroup=adapter-service},1651449634,802480
{consumergroup=adapter-service},1651449639,823778
{consumergroup=adapter-service},1651449644,823778
{consumergroup=adapter-service},1651449649,823778
{consumergroup=adapter-service},1651449654,839955
{consumergroup=adapter-service},1651449659,839955
{consumergroup=adapter-service},1651449664,839955
{consumergroup=adapter-service},1651449669,849398
{consumergroup=adapter-service},1651449674,849398
{consumergroup=adapter-service},1651449679,849398
{consumergroup=adapter-service},1651449684,853814
{consumergroup=adapter-service},1651449689,853814
{consumergroup=adapter-service},1651449694,853814
{consumergroup=adapter-service},1651449699,846118
{consumergroup=adapter-service},1651449704,846118
{consumergroup=adapter-service},1651449709,846118
{consumergroup=adapter-service},1651449714,850381
{consumergroup=adapter-service},1651449719,850381
{consumergroup=adapter-service},1651449724,850381
{consumergroup=adapter-service},1651449729,849413
{consumergroup=adapter-service},1651449734,849413
{consumergroup=adapter-service},1651449739,849413
{consumergroup=adapter-service},1651449744,845040
{consumergroup=adapter-service},1651449749,845040
