labels,timestamp,value
{job=theodolite-stu200776/combined-trace-podmonitor},1651322558,0
{job=theodolite-stu200776/combined-trace-podmonitor},1651322563,0
{job=theodolite-stu200776/combined-trace-podmonitor},1651322568,53.64196332251468
{job=theodolite-stu200776/combined-trace-podmonitor},1651322573,53.64196332251468
{job=theodolite-stu200776/combined-trace-podmonitor},1651322578,44.906455292079535
{job=theodolite-stu200776/combined-trace-podmonitor},1651322583,44.906455292079535
{job=theodolite-stu200776/combined-trace-podmonitor},1651322588,289.8600442993527
{job=theodolite-stu200776/combined-trace-podmonitor},1651322593,289.8600442993527
{job=theodolite-stu200776/combined-trace-podmonitor},1651322598,263.169485774773
{job=theodolite-stu200776/combined-trace-podmonitor},1651322603,263.169485774773
{job=theodolite-stu200776/combined-trace-podmonitor},1651322608,215.82855310841484
{job=theodolite-stu200776/combined-trace-podmonitor},1651322613,215.82855310841484
{job=theodolite-stu200776/combined-trace-podmonitor},1651322618,241.2223349723207
{job=theodolite-stu200776/combined-trace-podmonitor},1651322623,241.2223349723207
{job=theodolite-stu200776/combined-trace-podmonitor},1651322628,186.83729232447658
{job=theodolite-stu200776/combined-trace-podmonitor},1651322633,186.83729232447658
{job=theodolite-stu200776/combined-trace-podmonitor},1651322638,152.31543988550698
{job=theodolite-stu200776/combined-trace-podmonitor},1651322643,152.31543988550698
{job=theodolite-stu200776/combined-trace-podmonitor},1651322648,0.3564033807406402
{job=theodolite-stu200776/combined-trace-podmonitor},1651322653,0.3564033807406402
{job=theodolite-stu200776/combined-trace-podmonitor},1651322658,0
{job=theodolite-stu200776/combined-trace-podmonitor},1651322663,0
{job=theodolite-stu200776/combined-trace-podmonitor},1651322668,0
{job=theodolite-stu200776/combined-trace-podmonitor},1651322673,0
{job=theodolite-stu200776/combined-trace-podmonitor},1651322678,0
{job=theodolite-stu200776/combined-trace-podmonitor},1651322683,0
{job=theodolite-stu200776/combined-trace-podmonitor},1651322688,0
{job=theodolite-stu200776/combined-trace-podmonitor},1651322693,0
{job=theodolite-stu200776/combined-trace-podmonitor},1651322698,0
{job=theodolite-stu200776/combined-trace-podmonitor},1651322703,0
{job=theodolite-stu200776/combined-trace-podmonitor},1651322708,0
{job=theodolite-stu200776/combined-trace-podmonitor},1651322713,0
{job=theodolite-stu200776/combined-trace-podmonitor},1651322718,0
{job=theodolite-stu200776/combined-trace-podmonitor},1651322723,0
{job=theodolite-stu200776/combined-trace-podmonitor},1651322728,0
{job=theodolite-stu200776/combined-trace-podmonitor},1651322733,0
{job=theodolite-stu200776/combined-trace-podmonitor},1651322738,0
{job=theodolite-stu200776/combined-trace-podmonitor},1651322743,0
{job=theodolite-stu200776/combined-trace-podmonitor},1651322748,0
{job=theodolite-stu200776/combined-trace-podmonitor},1651322753,0
{job=theodolite-stu200776/combined-trace-podmonitor},1651322758,0
{job=theodolite-stu200776/combined-trace-podmonitor},1651322763,0
{job=theodolite-stu200776/combined-trace-podmonitor},1651322768,0
{job=theodolite-stu200776/combined-trace-podmonitor},1651322773,0
{job=theodolite-stu200776/combined-trace-podmonitor},1651322778,0
{job=theodolite-stu200776/combined-trace-podmonitor},1651322783,0
{job=theodolite-stu200776/combined-trace-podmonitor},1651322788,0
{job=theodolite-stu200776/combined-trace-podmonitor},1651322793,0
{job=theodolite-stu200776/combined-trace-podmonitor},1651322798,0
{job=theodolite-stu200776/combined-trace-podmonitor},1651322803,0
{job=theodolite-stu200776/combined-trace-podmonitor},1651322808,0
{job=theodolite-stu200776/combined-trace-podmonitor},1651322813,0
{job=theodolite-stu200776/combined-trace-podmonitor},1651322818,0
{job=theodolite-stu200776/combined-trace-podmonitor},1651322823,0
{job=theodolite-stu200776/combined-trace-podmonitor},1651322828,457.7385208536479
{job=theodolite-stu200776/combined-trace-podmonitor},1651322833,457.7385208536479
{job=theodolite-stu200776/combined-trace-podmonitor},1651322838,448.2195897795415
{job=theodolite-stu200776/combined-trace-podmonitor},1651322843,448.2195897795415
{job=theodolite-stu200776/combined-trace-podmonitor},1651322848,417.5721818259534
{job=theodolite-stu200776/combined-trace-podmonitor},1651322853,417.5721818259534
{job=theodolite-stu200776/combined-trace-podmonitor},1651322858,699.9085587816593
{job=theodolite-stu200776/combined-trace-podmonitor},1651322863,699.9085587816593
{job=theodolite-stu200776/combined-trace-podmonitor},1651322868,535.5250424977221
{job=theodolite-stu200776/combined-trace-podmonitor},1651322873,535.5250424977221
{job=theodolite-stu200776/combined-trace-podmonitor},1651322878,433.5902223695765
{job=theodolite-stu200776/combined-trace-podmonitor},1651322883,433.5902223695765
{job=theodolite-stu200776/combined-trace-podmonitor},1651322888,0
{job=theodolite-stu200776/combined-trace-podmonitor},1651322893,0
{job=theodolite-stu200776/combined-trace-podmonitor},1651322898,0
{job=theodolite-stu200776/combined-trace-podmonitor},1651322903,0
{job=theodolite-stu200776/combined-trace-podmonitor},1651322908,0
{job=theodolite-stu200776/combined-trace-podmonitor},1651322913,0
{job=theodolite-stu200776/combined-trace-podmonitor},1651322918,0
{job=theodolite-stu200776/combined-trace-podmonitor},1651322923,0
{job=theodolite-stu200776/combined-trace-podmonitor},1651322928,0
{job=theodolite-stu200776/combined-trace-podmonitor},1651322933,0
{job=theodolite-stu200776/combined-trace-podmonitor},1651322938,0
{job=theodolite-stu200776/combined-trace-podmonitor},1651322943,0
{job=theodolite-stu200776/combined-trace-podmonitor},1651322948,0
{job=theodolite-stu200776/combined-trace-podmonitor},1651322953,0
{job=theodolite-stu200776/combined-trace-podmonitor},1651322958,0
{job=theodolite-stu200776/combined-trace-podmonitor},1651322963,0
{job=theodolite-stu200776/combined-trace-podmonitor},1651322968,0
{job=theodolite-stu200776/combined-trace-podmonitor},1651322973,0
{job=theodolite-stu200776/combined-trace-podmonitor},1651322978,0
{job=theodolite-stu200776/combined-trace-podmonitor},1651322983,0
{job=theodolite-stu200776/combined-trace-podmonitor},1651322988,0
