labels,timestamp,value
{consumergroup=__strimzi-topic-operator-kstreams},1651452803,14
{consumergroup=__strimzi-topic-operator-kstreams},1651452808,14
{consumergroup=__strimzi-topic-operator-kstreams},1651452813,14
{consumergroup=__strimzi-topic-operator-kstreams},1651452818,0
{consumergroup=__strimzi-topic-operator-kstreams},1651452823,0
{consumergroup=__strimzi-topic-operator-kstreams},1651452828,0
{consumergroup=__strimzi-topic-operator-kstreams},1651452833,0
{consumergroup=__strimzi-topic-operator-kstreams},1651452838,0
{consumergroup=__strimzi-topic-operator-kstreams},1651452843,0
{consumergroup=__strimzi-topic-operator-kstreams},1651452848,0
{consumergroup=__strimzi-topic-operator-kstreams},1651452853,0
{consumergroup=__strimzi-topic-operator-kstreams},1651452858,0
{consumergroup=__strimzi-topic-operator-kstreams},1651452863,0
{consumergroup=__strimzi-topic-operator-kstreams},1651452868,0
{consumergroup=__strimzi-topic-operator-kstreams},1651452873,0
{consumergroup=__strimzi-topic-operator-kstreams},1651452878,0
{consumergroup=__strimzi-topic-operator-kstreams},1651452883,0
{consumergroup=__strimzi-topic-operator-kstreams},1651452888,0
{consumergroup=__strimzi-topic-operator-kstreams},1651452893,0
{consumergroup=__strimzi-topic-operator-kstreams},1651452898,0
{consumergroup=__strimzi-topic-operator-kstreams},1651452903,0
{consumergroup=__strimzi-topic-operator-kstreams},1651452908,0
{consumergroup=__strimzi-topic-operator-kstreams},1651452913,0
{consumergroup=__strimzi-topic-operator-kstreams},1651452918,0
{consumergroup=__strimzi-topic-operator-kstreams},1651452923,0
{consumergroup=__strimzi-topic-operator-kstreams},1651452928,0
{consumergroup=__strimzi-topic-operator-kstreams},1651452933,0
{consumergroup=__strimzi-topic-operator-kstreams},1651452938,0
{consumergroup=__strimzi-topic-operator-kstreams},1651452943,0
{consumergroup=__strimzi-topic-operator-kstreams},1651452948,0
{consumergroup=__strimzi-topic-operator-kstreams},1651452953,0
{consumergroup=__strimzi-topic-operator-kstreams},1651452958,0
{consumergroup=__strimzi-topic-operator-kstreams},1651452963,0
{consumergroup=__strimzi-topic-operator-kstreams},1651452968,0
{consumergroup=__strimzi-topic-operator-kstreams},1651452973,0
{consumergroup=__strimzi-topic-operator-kstreams},1651452978,0
{consumergroup=__strimzi-topic-operator-kstreams},1651452983,0
{consumergroup=__strimzi-topic-operator-kstreams},1651452988,0
{consumergroup=__strimzi-topic-operator-kstreams},1651452993,0
{consumergroup=__strimzi-topic-operator-kstreams},1651452998,0
{consumergroup=__strimzi-topic-operator-kstreams},1651453003,0
{consumergroup=__strimzi-topic-operator-kstreams},1651453008,0
{consumergroup=__strimzi-topic-operator-kstreams},1651453013,0
{consumergroup=__strimzi-topic-operator-kstreams},1651453018,0
{consumergroup=__strimzi-topic-operator-kstreams},1651453023,0
{consumergroup=__strimzi-topic-operator-kstreams},1651453028,0
{consumergroup=__strimzi-topic-operator-kstreams},1651453033,0
{consumergroup=__strimzi-topic-operator-kstreams},1651453038,0
{consumergroup=__strimzi-topic-operator-kstreams},1651453043,0
{consumergroup=__strimzi-topic-operator-kstreams},1651453048,0
{consumergroup=adapter-service},1651452833,232652
{consumergroup=adapter-service},1651452838,232652
{consumergroup=adapter-service},1651452843,232652
{consumergroup=adapter-service},1651452848,405819
{consumergroup=adapter-service},1651452853,405819
{consumergroup=adapter-service},1651452858,405819
{consumergroup=adapter-service},1651452863,553418
{consumergroup=adapter-service},1651452868,553418
{consumergroup=adapter-service},1651452873,553418
{consumergroup=adapter-service},1651452878,691363
{consumergroup=adapter-service},1651452883,691363
{consumergroup=adapter-service},1651452888,691363
{consumergroup=adapter-service},1651452893,785785
{consumergroup=adapter-service},1651452898,785785
{consumergroup=adapter-service},1651452903,785785
{consumergroup=adapter-service},1651452908,859576
{consumergroup=adapter-service},1651452913,859576
{consumergroup=adapter-service},1651452918,859576
{consumergroup=adapter-service},1651452923,914689
{consumergroup=adapter-service},1651452928,914689
{consumergroup=adapter-service},1651452933,914689
{consumergroup=adapter-service},1651452938,938792
{consumergroup=adapter-service},1651452943,938792
{consumergroup=adapter-service},1651452948,938792
{consumergroup=adapter-service},1651452953,975192
{consumergroup=adapter-service},1651452958,975192
{consumergroup=adapter-service},1651452963,975192
{consumergroup=adapter-service},1651452968,976904
{consumergroup=adapter-service},1651452973,976904
{consumergroup=adapter-service},1651452978,976904
{consumergroup=adapter-service},1651452983,993279
{consumergroup=adapter-service},1651452988,993279
{consumergroup=adapter-service},1651452993,993279
{consumergroup=adapter-service},1651452998,996328
{consumergroup=adapter-service},1651453003,996328
{consumergroup=adapter-service},1651453008,996328
{consumergroup=adapter-service},1651453013,996131
{consumergroup=adapter-service},1651453018,996131
{consumergroup=adapter-service},1651453023,996131
{consumergroup=adapter-service},1651453028,1003629
{consumergroup=adapter-service},1651453033,1003629
{consumergroup=adapter-service},1651453038,1003629
{consumergroup=adapter-service},1651453043,1019155
{consumergroup=adapter-service},1651453048,1019155
