labels,timestamp,value
{consumergroup=__strimzi-topic-operator-kstreams},1651443562,18
{consumergroup=__strimzi-topic-operator-kstreams},1651443567,18
{consumergroup=__strimzi-topic-operator-kstreams},1651443572,18
{consumergroup=__strimzi-topic-operator-kstreams},1651443577,0
{consumergroup=__strimzi-topic-operator-kstreams},1651443582,0
{consumergroup=__strimzi-topic-operator-kstreams},1651443587,0
{consumergroup=__strimzi-topic-operator-kstreams},1651443592,0
{consumergroup=__strimzi-topic-operator-kstreams},1651443597,0
{consumergroup=__strimzi-topic-operator-kstreams},1651443602,0
{consumergroup=__strimzi-topic-operator-kstreams},1651443607,0
{consumergroup=__strimzi-topic-operator-kstreams},1651443612,0
{consumergroup=__strimzi-topic-operator-kstreams},1651443617,0
{consumergroup=__strimzi-topic-operator-kstreams},1651443622,0
{consumergroup=__strimzi-topic-operator-kstreams},1651443627,0
{consumergroup=__strimzi-topic-operator-kstreams},1651443632,0
{consumergroup=__strimzi-topic-operator-kstreams},1651443637,0
{consumergroup=__strimzi-topic-operator-kstreams},1651443642,0
{consumergroup=__strimzi-topic-operator-kstreams},1651443647,0
{consumergroup=__strimzi-topic-operator-kstreams},1651443652,0
{consumergroup=__strimzi-topic-operator-kstreams},1651443657,0
{consumergroup=__strimzi-topic-operator-kstreams},1651443662,0
{consumergroup=__strimzi-topic-operator-kstreams},1651443667,0
{consumergroup=__strimzi-topic-operator-kstreams},1651443672,0
{consumergroup=__strimzi-topic-operator-kstreams},1651443677,0
{consumergroup=__strimzi-topic-operator-kstreams},1651443682,0
{consumergroup=__strimzi-topic-operator-kstreams},1651443687,0
{consumergroup=__strimzi-topic-operator-kstreams},1651443692,0
{consumergroup=__strimzi-topic-operator-kstreams},1651443697,0
{consumergroup=__strimzi-topic-operator-kstreams},1651443702,0
{consumergroup=__strimzi-topic-operator-kstreams},1651443707,0
{consumergroup=__strimzi-topic-operator-kstreams},1651443712,0
{consumergroup=__strimzi-topic-operator-kstreams},1651443717,0
{consumergroup=__strimzi-topic-operator-kstreams},1651443722,0
{consumergroup=__strimzi-topic-operator-kstreams},1651443727,0
{consumergroup=__strimzi-topic-operator-kstreams},1651443732,0
{consumergroup=__strimzi-topic-operator-kstreams},1651443737,0
{consumergroup=__strimzi-topic-operator-kstreams},1651443742,0
{consumergroup=__strimzi-topic-operator-kstreams},1651443747,0
{consumergroup=__strimzi-topic-operator-kstreams},1651443752,0
{consumergroup=__strimzi-topic-operator-kstreams},1651443757,0
{consumergroup=__strimzi-topic-operator-kstreams},1651443762,0
{consumergroup=__strimzi-topic-operator-kstreams},1651443767,0
{consumergroup=__strimzi-topic-operator-kstreams},1651443772,0
{consumergroup=__strimzi-topic-operator-kstreams},1651443777,0
{consumergroup=__strimzi-topic-operator-kstreams},1651443782,0
{consumergroup=__strimzi-topic-operator-kstreams},1651443787,0
{consumergroup=__strimzi-topic-operator-kstreams},1651443792,0
{consumergroup=__strimzi-topic-operator-kstreams},1651443797,0
{consumergroup=__strimzi-topic-operator-kstreams},1651443802,0
{consumergroup=__strimzi-topic-operator-kstreams},1651443807,0
{consumergroup=__strimzi-topic-operator-kstreams},1651443812,0
{consumergroup=adapter-service},1651443592,21849
{consumergroup=adapter-service},1651443597,21849
{consumergroup=adapter-service},1651443602,21849
{consumergroup=adapter-service},1651443607,127953
{consumergroup=adapter-service},1651443612,127953
{consumergroup=adapter-service},1651443617,127953
{consumergroup=adapter-service},1651443622,194896
{consumergroup=adapter-service},1651443627,194896
{consumergroup=adapter-service},1651443632,194896
{consumergroup=adapter-service},1651443637,253477
{consumergroup=adapter-service},1651443642,253477
{consumergroup=adapter-service},1651443647,253477
{consumergroup=adapter-service},1651443652,311416
{consumergroup=adapter-service},1651443657,311416
{consumergroup=adapter-service},1651443662,311416
{consumergroup=adapter-service},1651443667,362334
{consumergroup=adapter-service},1651443672,362334
{consumergroup=adapter-service},1651443677,362334
{consumergroup=adapter-service},1651443682,410969
{consumergroup=adapter-service},1651443687,410969
{consumergroup=adapter-service},1651443692,410969
{consumergroup=adapter-service},1651443697,442674
{consumergroup=adapter-service},1651443702,442674
{consumergroup=adapter-service},1651443707,442674
{consumergroup=adapter-service},1651443712,467296
{consumergroup=adapter-service},1651443717,467296
{consumergroup=adapter-service},1651443722,467296
{consumergroup=adapter-service},1651443727,479953
{consumergroup=adapter-service},1651443732,479953
{consumergroup=adapter-service},1651443737,479953
{consumergroup=adapter-service},1651443742,494650
{consumergroup=adapter-service},1651443747,494650
{consumergroup=adapter-service},1651443752,494650
{consumergroup=adapter-service},1651443757,507263
{consumergroup=adapter-service},1651443762,507263
{consumergroup=adapter-service},1651443767,507263
{consumergroup=adapter-service},1651443772,514536
{consumergroup=adapter-service},1651443777,514536
{consumergroup=adapter-service},1651443782,514536
{consumergroup=adapter-service},1651443787,526740
{consumergroup=adapter-service},1651443792,526740
{consumergroup=adapter-service},1651443797,526740
{consumergroup=adapter-service},1651443802,537643
{consumergroup=adapter-service},1651443807,537643
{consumergroup=adapter-service},1651443812,537643
