labels,timestamp,value
{consumergroup=__strimzi-topic-operator-kstreams},1651444154,0
{consumergroup=__strimzi-topic-operator-kstreams},1651444159,0
{consumergroup=__strimzi-topic-operator-kstreams},1651444164,0
{consumergroup=__strimzi-topic-operator-kstreams},1651444169,0
{consumergroup=__strimzi-topic-operator-kstreams},1651444174,0
{consumergroup=__strimzi-topic-operator-kstreams},1651444179,0
{consumergroup=__strimzi-topic-operator-kstreams},1651444184,0
{consumergroup=__strimzi-topic-operator-kstreams},1651444189,0
{consumergroup=__strimzi-topic-operator-kstreams},1651444194,0
{consumergroup=__strimzi-topic-operator-kstreams},1651444199,0
{consumergroup=__strimzi-topic-operator-kstreams},1651444204,0
{consumergroup=__strimzi-topic-operator-kstreams},1651444209,0
{consumergroup=__strimzi-topic-operator-kstreams},1651444214,0
{consumergroup=__strimzi-topic-operator-kstreams},1651444219,0
{consumergroup=__strimzi-topic-operator-kstreams},1651444224,0
{consumergroup=__strimzi-topic-operator-kstreams},1651444229,0
{consumergroup=__strimzi-topic-operator-kstreams},1651444234,0
{consumergroup=__strimzi-topic-operator-kstreams},1651444239,0
{consumergroup=__strimzi-topic-operator-kstreams},1651444244,0
{consumergroup=__strimzi-topic-operator-kstreams},1651444249,0
{consumergroup=__strimzi-topic-operator-kstreams},1651444254,0
{consumergroup=__strimzi-topic-operator-kstreams},1651444259,0
{consumergroup=__strimzi-topic-operator-kstreams},1651444264,0
{consumergroup=__strimzi-topic-operator-kstreams},1651444269,0
{consumergroup=__strimzi-topic-operator-kstreams},1651444274,0
{consumergroup=__strimzi-topic-operator-kstreams},1651444279,0
{consumergroup=__strimzi-topic-operator-kstreams},1651444284,0
{consumergroup=__strimzi-topic-operator-kstreams},1651444289,0
{consumergroup=__strimzi-topic-operator-kstreams},1651444294,0
{consumergroup=__strimzi-topic-operator-kstreams},1651444299,0
{consumergroup=__strimzi-topic-operator-kstreams},1651444304,0
{consumergroup=__strimzi-topic-operator-kstreams},1651444309,0
{consumergroup=__strimzi-topic-operator-kstreams},1651444314,0
{consumergroup=__strimzi-topic-operator-kstreams},1651444319,0
{consumergroup=__strimzi-topic-operator-kstreams},1651444324,0
{consumergroup=__strimzi-topic-operator-kstreams},1651444329,0
{consumergroup=__strimzi-topic-operator-kstreams},1651444334,0
{consumergroup=__strimzi-topic-operator-kstreams},1651444339,0
{consumergroup=__strimzi-topic-operator-kstreams},1651444344,0
{consumergroup=__strimzi-topic-operator-kstreams},1651444349,0
{consumergroup=__strimzi-topic-operator-kstreams},1651444354,0
{consumergroup=__strimzi-topic-operator-kstreams},1651444359,0
{consumergroup=__strimzi-topic-operator-kstreams},1651444364,0
{consumergroup=__strimzi-topic-operator-kstreams},1651444369,0
{consumergroup=__strimzi-topic-operator-kstreams},1651444374,0
{consumergroup=__strimzi-topic-operator-kstreams},1651444379,0
{consumergroup=__strimzi-topic-operator-kstreams},1651444384,0
{consumergroup=__strimzi-topic-operator-kstreams},1651444389,0
{consumergroup=__strimzi-topic-operator-kstreams},1651444394,0
{consumergroup=__strimzi-topic-operator-kstreams},1651444399,0
{consumergroup=adapter-service},1651444184,79915
{consumergroup=adapter-service},1651444189,79915
{consumergroup=adapter-service},1651444194,79915
{consumergroup=adapter-service},1651444199,151782
{consumergroup=adapter-service},1651444204,151782
{consumergroup=adapter-service},1651444209,151782
{consumergroup=adapter-service},1651444214,223097
{consumergroup=adapter-service},1651444219,223097
{consumergroup=adapter-service},1651444224,223097
{consumergroup=adapter-service},1651444229,277925
{consumergroup=adapter-service},1651444234,277925
{consumergroup=adapter-service},1651444239,277925
{consumergroup=adapter-service},1651444244,336371
{consumergroup=adapter-service},1651444249,336371
{consumergroup=adapter-service},1651444254,336371
{consumergroup=adapter-service},1651444259,372365
{consumergroup=adapter-service},1651444264,372365
{consumergroup=adapter-service},1651444269,372365
{consumergroup=adapter-service},1651444274,413947
{consumergroup=adapter-service},1651444279,413947
{consumergroup=adapter-service},1651444284,413947
{consumergroup=adapter-service},1651444289,436409
{consumergroup=adapter-service},1651444294,436409
{consumergroup=adapter-service},1651444299,436409
{consumergroup=adapter-service},1651444304,441670
{consumergroup=adapter-service},1651444309,441670
{consumergroup=adapter-service},1651444314,441670
{consumergroup=adapter-service},1651444319,445794
{consumergroup=adapter-service},1651444324,445794
{consumergroup=adapter-service},1651444329,445794
{consumergroup=adapter-service},1651444334,436534
{consumergroup=adapter-service},1651444339,436534
{consumergroup=adapter-service},1651444344,436534
{consumergroup=adapter-service},1651444349,425447
{consumergroup=adapter-service},1651444354,425447
{consumergroup=adapter-service},1651444359,425447
{consumergroup=adapter-service},1651444364,416616
{consumergroup=adapter-service},1651444369,416616
{consumergroup=adapter-service},1651444374,416616
{consumergroup=adapter-service},1651444379,406888
{consumergroup=adapter-service},1651444384,406888
{consumergroup=adapter-service},1651444389,406888
{consumergroup=adapter-service},1651444394,399613
{consumergroup=adapter-service},1651444399,399613
