labels,timestamp,value
{consumergroup=__strimzi-topic-operator-kstreams},1651330444,0
{consumergroup=__strimzi-topic-operator-kstreams},1651330449,0
{consumergroup=__strimzi-topic-operator-kstreams},1651330454,0
{consumergroup=__strimzi-topic-operator-kstreams},1651330459,8
{consumergroup=__strimzi-topic-operator-kstreams},1651330464,8
{consumergroup=__strimzi-topic-operator-kstreams},1651330469,8
{consumergroup=__strimzi-topic-operator-kstreams},1651330474,0
{consumergroup=__strimzi-topic-operator-kstreams},1651330479,0
{consumergroup=__strimzi-topic-operator-kstreams},1651330484,0
{consumergroup=__strimzi-topic-operator-kstreams},1651330489,0
{consumergroup=__strimzi-topic-operator-kstreams},1651330494,0
{consumergroup=__strimzi-topic-operator-kstreams},1651330499,0
{consumergroup=__strimzi-topic-operator-kstreams},1651330504,0
{consumergroup=__strimzi-topic-operator-kstreams},1651330509,0
{consumergroup=__strimzi-topic-operator-kstreams},1651330514,0
{consumergroup=__strimzi-topic-operator-kstreams},1651330519,0
{consumergroup=__strimzi-topic-operator-kstreams},1651330524,0
{consumergroup=__strimzi-topic-operator-kstreams},1651330529,0
{consumergroup=__strimzi-topic-operator-kstreams},1651330534,0
{consumergroup=__strimzi-topic-operator-kstreams},1651330539,0
{consumergroup=__strimzi-topic-operator-kstreams},1651330544,0
{consumergroup=__strimzi-topic-operator-kstreams},1651330549,3
{consumergroup=__strimzi-topic-operator-kstreams},1651330554,3
{consumergroup=__strimzi-topic-operator-kstreams},1651330559,3
{consumergroup=__strimzi-topic-operator-kstreams},1651330564,0
{consumergroup=__strimzi-topic-operator-kstreams},1651330569,0
{consumergroup=__strimzi-topic-operator-kstreams},1651330574,0
{consumergroup=__strimzi-topic-operator-kstreams},1651330579,0
{consumergroup=__strimzi-topic-operator-kstreams},1651330584,0
{consumergroup=__strimzi-topic-operator-kstreams},1651330589,0
{consumergroup=__strimzi-topic-operator-kstreams},1651330594,0
{consumergroup=__strimzi-topic-operator-kstreams},1651330599,0
{consumergroup=__strimzi-topic-operator-kstreams},1651330604,0
{consumergroup=__strimzi-topic-operator-kstreams},1651330609,0
{consumergroup=__strimzi-topic-operator-kstreams},1651330614,0
{consumergroup=__strimzi-topic-operator-kstreams},1651330619,0
{consumergroup=__strimzi-topic-operator-kstreams},1651330624,0
{consumergroup=__strimzi-topic-operator-kstreams},1651330629,0
{consumergroup=__strimzi-topic-operator-kstreams},1651330634,0
{consumergroup=__strimzi-topic-operator-kstreams},1651330639,0
{consumergroup=__strimzi-topic-operator-kstreams},1651330644,0
{consumergroup=__strimzi-topic-operator-kstreams},1651330649,0
{consumergroup=__strimzi-topic-operator-kstreams},1651330654,0
{consumergroup=__strimzi-topic-operator-kstreams},1651330659,0
{consumergroup=__strimzi-topic-operator-kstreams},1651330664,0
{consumergroup=__strimzi-topic-operator-kstreams},1651330669,0
{consumergroup=__strimzi-topic-operator-kstreams},1651330674,0
{consumergroup=__strimzi-topic-operator-kstreams},1651330679,0
{consumergroup=__strimzi-topic-operator-kstreams},1651330684,0
{consumergroup=__strimzi-topic-operator-kstreams},1651330689,0
{consumergroup=__strimzi-topic-operator-kstreams},1651330694,0
{consumergroup=__strimzi-topic-operator-kstreams},1651330699,0
{consumergroup=__strimzi-topic-operator-kstreams},1651330704,0
{consumergroup=__strimzi-topic-operator-kstreams},1651330709,0
{consumergroup=__strimzi-topic-operator-kstreams},1651330714,0
{consumergroup=__strimzi-topic-operator-kstreams},1651330719,0
{consumergroup=__strimzi-topic-operator-kstreams},1651330724,0
{consumergroup=__strimzi-topic-operator-kstreams},1651330729,0
{consumergroup=__strimzi-topic-operator-kstreams},1651330734,0
{consumergroup=__strimzi-topic-operator-kstreams},1651330739,0
{consumergroup=__strimzi-topic-operator-kstreams},1651330744,0
{consumergroup=__strimzi-topic-operator-kstreams},1651330749,0
{consumergroup=__strimzi-topic-operator-kstreams},1651330754,0
{consumergroup=__strimzi-topic-operator-kstreams},1651330759,0
{consumergroup=__strimzi-topic-operator-kstreams},1651330764,0
{consumergroup=__strimzi-topic-operator-kstreams},1651330769,0
{consumergroup=__strimzi-topic-operator-kstreams},1651330774,0
{consumergroup=__strimzi-topic-operator-kstreams},1651330779,0
{consumergroup=__strimzi-topic-operator-kstreams},1651330784,0
{consumergroup=__strimzi-topic-operator-kstreams},1651330789,0
{consumergroup=__strimzi-topic-operator-kstreams},1651330794,0
{consumergroup=__strimzi-topic-operator-kstreams},1651330799,0
{consumergroup=__strimzi-topic-operator-kstreams},1651330804,0
{consumergroup=__strimzi-topic-operator-kstreams},1651330809,0
{consumergroup=__strimzi-topic-operator-kstreams},1651330814,0
{consumergroup=__strimzi-topic-operator-kstreams},1651330819,0
{consumergroup=__strimzi-topic-operator-kstreams},1651330824,0
{consumergroup=__strimzi-topic-operator-kstreams},1651330829,0
{consumergroup=__strimzi-topic-operator-kstreams},1651330834,0
{consumergroup=__strimzi-topic-operator-kstreams},1651330839,0
{consumergroup=__strimzi-topic-operator-kstreams},1651330844,0
{consumergroup=__strimzi-topic-operator-kstreams},1651330849,0
{consumergroup=__strimzi-topic-operator-kstreams},1651330854,0
{consumergroup=__strimzi-topic-operator-kstreams},1651330859,0
{consumergroup=__strimzi-topic-operator-kstreams},1651330864,0
{consumergroup=__strimzi-topic-operator-kstreams},1651330869,0
{consumergroup=__strimzi-topic-operator-kstreams},1651330874,0
{consumergroup=__strimzi-topic-operator-kstreams},1651330879,0
{consumergroup=__strimzi-topic-operator-kstreams},1651330884,0
{consumergroup=__strimzi-topic-operator-kstreams},1651330889,0
{consumergroup=__strimzi-topic-operator-kstreams},1651330894,0
{consumergroup=__strimzi-topic-operator-kstreams},1651330899,0
{consumergroup=__strimzi-topic-operator-kstreams},1651330904,0
{consumergroup=__strimzi-topic-operator-kstreams},1651330909,0
{consumergroup=__strimzi-topic-operator-kstreams},1651330914,0
{consumergroup=__strimzi-topic-operator-kstreams},1651330919,0
{consumergroup=__strimzi-topic-operator-kstreams},1651330924,0
{consumergroup=__strimzi-topic-operator-kstreams},1651330929,0
{consumergroup=__strimzi-topic-operator-kstreams},1651330934,0
{consumergroup=__strimzi-topic-operator-kstreams},1651330939,0
{consumergroup=__strimzi-topic-operator-kstreams},1651330944,0
{consumergroup=__strimzi-topic-operator-kstreams},1651330949,0
{consumergroup=__strimzi-topic-operator-kstreams},1651330954,0
{consumergroup=__strimzi-topic-operator-kstreams},1651330959,0
{consumergroup=adapter-service},1651330489,0
{consumergroup=adapter-service},1651330494,0
{consumergroup=adapter-service},1651330499,0
{consumergroup=adapter-service},1651330504,8798
{consumergroup=adapter-service},1651330509,8798
{consumergroup=adapter-service},1651330514,8798
{consumergroup=adapter-service},1651330519,2090
{consumergroup=adapter-service},1651330524,2090
{consumergroup=adapter-service},1651330529,2090
{consumergroup=adapter-service},1651330534,15383
{consumergroup=adapter-service},1651330539,15383
{consumergroup=adapter-service},1651330544,15383
{consumergroup=adapter-service},1651330549,1029
{consumergroup=adapter-service},1651330554,1029
{consumergroup=adapter-service},1651330559,1029
{consumergroup=adapter-service},1651330564,15797
{consumergroup=adapter-service},1651330569,15797
{consumergroup=adapter-service},1651330574,15797
{consumergroup=adapter-service},1651330579,584
{consumergroup=adapter-service},1651330584,584
{consumergroup=adapter-service},1651330589,584
{consumergroup=adapter-service},1651330594,15349
{consumergroup=adapter-service},1651330599,15349
{consumergroup=adapter-service},1651330604,15349
{consumergroup=adapter-service},1651330609,3975
{consumergroup=adapter-service},1651330614,3975
{consumergroup=adapter-service},1651330619,3975
{consumergroup=adapter-service},1651330624,14991
{consumergroup=adapter-service},1651330629,14991
{consumergroup=adapter-service},1651330634,14991
{consumergroup=adapter-service},1651330639,2903
{consumergroup=adapter-service},1651330644,2903
{consumergroup=adapter-service},1651330649,2903
{consumergroup=adapter-service},1651330654,6642
{consumergroup=adapter-service},1651330659,6642
{consumergroup=adapter-service},1651330664,6642
{consumergroup=adapter-service},1651330669,3481
{consumergroup=adapter-service},1651330674,3481
{consumergroup=adapter-service},1651330679,3481
{consumergroup=adapter-service},1651330684,7866
{consumergroup=adapter-service},1651330689,7866
{consumergroup=adapter-service},1651330694,7866
{consumergroup=adapter-service},1651330699,4404
{consumergroup=adapter-service},1651330704,4404
{consumergroup=adapter-service},1651330709,4404
{consumergroup=adapter-service},1651330714,11145
{consumergroup=adapter-service},1651330719,11145
{consumergroup=adapter-service},1651330724,11145
{consumergroup=adapter-service},1651330729,5338
{consumergroup=adapter-service},1651330734,5338
{consumergroup=adapter-service},1651330739,5338
{consumergroup=adapter-service},1651330744,12188
{consumergroup=adapter-service},1651330749,12188
{consumergroup=adapter-service},1651330754,12188
{consumergroup=adapter-service},1651330759,4020
{consumergroup=adapter-service},1651330764,4020
{consumergroup=adapter-service},1651330769,4020
{consumergroup=adapter-service},1651330774,14079
{consumergroup=adapter-service},1651330779,14079
{consumergroup=adapter-service},1651330784,14079
{consumergroup=adapter-service},1651330789,4451
{consumergroup=adapter-service},1651330794,4451
{consumergroup=adapter-service},1651330799,4451
{consumergroup=adapter-service},1651330804,13703
{consumergroup=adapter-service},1651330809,13703
{consumergroup=adapter-service},1651330814,13703
{consumergroup=adapter-service},1651330819,7251
{consumergroup=adapter-service},1651330824,7251
{consumergroup=adapter-service},1651330829,7251
{consumergroup=adapter-service},1651330834,13516
{consumergroup=adapter-service},1651330839,13516
{consumergroup=adapter-service},1651330844,13516
{consumergroup=adapter-service},1651330849,6084
{consumergroup=adapter-service},1651330854,6084
{consumergroup=adapter-service},1651330859,6084
{consumergroup=adapter-service},1651330864,15426
{consumergroup=adapter-service},1651330869,15426
{consumergroup=adapter-service},1651330874,15426
{consumergroup=adapter-service},1651330879,8152
{consumergroup=adapter-service},1651330884,8152
{consumergroup=adapter-service},1651330889,8152
{consumergroup=adapter-service},1651330894,14151
{consumergroup=adapter-service},1651330899,14151
{consumergroup=adapter-service},1651330904,14151
{consumergroup=adapter-service},1651330909,6870
{consumergroup=adapter-service},1651330914,6870
{consumergroup=adapter-service},1651330919,6870
{consumergroup=adapter-service},1651330924,13835
{consumergroup=adapter-service},1651330929,13835
{consumergroup=adapter-service},1651330934,13835
{consumergroup=adapter-service},1651330939,8248
{consumergroup=adapter-service},1651330944,8248
{consumergroup=adapter-service},1651330949,8248
{consumergroup=adapter-service},1651330954,13310
{consumergroup=adapter-service},1651330959,13310
{consumergroup=landscape-service},1651330504,39029
{consumergroup=landscape-service},1651330509,39029
{consumergroup=landscape-service},1651330514,39029
{consumergroup=landscape-service},1651330519,8666
{consumergroup=landscape-service},1651330524,8666
{consumergroup=landscape-service},1651330529,8666
{consumergroup=landscape-service},1651330534,4189
{consumergroup=landscape-service},1651330539,4189
{consumergroup=landscape-service},1651330544,4189
{consumergroup=landscape-service},1651330549,6275
{consumergroup=landscape-service},1651330554,6275
{consumergroup=landscape-service},1651330559,6275
{consumergroup=landscape-service},1651330564,1215
{consumergroup=landscape-service},1651330569,1215
{consumergroup=landscape-service},1651330574,1215
{consumergroup=landscape-service},1651330579,4504
{consumergroup=landscape-service},1651330584,4504
{consumergroup=landscape-service},1651330589,4504
{consumergroup=landscape-service},1651330594,415
{consumergroup=landscape-service},1651330599,415
{consumergroup=landscape-service},1651330604,415
{consumergroup=landscape-service},1651330609,2763
{consumergroup=landscape-service},1651330614,2763
{consumergroup=landscape-service},1651330619,2763
{consumergroup=landscape-service},1651330624,18381
{consumergroup=landscape-service},1651330629,18381
{consumergroup=landscape-service},1651330634,18381
{consumergroup=landscape-service},1651330639,1202
{consumergroup=landscape-service},1651330644,1202
{consumergroup=landscape-service},1651330649,1202
{consumergroup=landscape-service},1651330654,15536
{consumergroup=landscape-service},1651330659,15536
{consumergroup=landscape-service},1651330664,15536
{consumergroup=landscape-service},1651330684,15059
{consumergroup=landscape-service},1651330689,15059
{consumergroup=landscape-service},1651330694,15059
{consumergroup=landscape-service},1651330699,16813
{consumergroup=landscape-service},1651330704,16813
{consumergroup=landscape-service},1651330709,16813
{consumergroup=landscape-service},1651330714,12537
{consumergroup=landscape-service},1651330719,12537
{consumergroup=landscape-service},1651330724,12537
{consumergroup=landscape-service},1651330729,16415
{consumergroup=landscape-service},1651330734,16415
{consumergroup=landscape-service},1651330739,16415
{consumergroup=landscape-service},1651330744,11523
{consumergroup=landscape-service},1651330749,11523
{consumergroup=landscape-service},1651330754,11523
{consumergroup=landscape-service},1651330759,13947
{consumergroup=landscape-service},1651330764,13947
{consumergroup=landscape-service},1651330769,13947
{consumergroup=landscape-service},1651330774,9258
{consumergroup=landscape-service},1651330779,9258
{consumergroup=landscape-service},1651330784,9258
{consumergroup=landscape-service},1651330789,12787
{consumergroup=landscape-service},1651330794,12787
{consumergroup=landscape-service},1651330799,12787
{consumergroup=landscape-service},1651330804,7829
{consumergroup=landscape-service},1651330809,7829
{consumergroup=landscape-service},1651330814,7829
{consumergroup=landscape-service},1651330819,10863
{consumergroup=landscape-service},1651330824,10863
{consumergroup=landscape-service},1651330829,10863
{consumergroup=landscape-service},1651330834,6244
{consumergroup=landscape-service},1651330839,6244
{consumergroup=landscape-service},1651330844,6244
{consumergroup=landscape-service},1651330849,9239
{consumergroup=landscape-service},1651330854,9239
{consumergroup=landscape-service},1651330859,9239
{consumergroup=landscape-service},1651330864,4592
{consumergroup=landscape-service},1651330869,4592
{consumergroup=landscape-service},1651330874,4592
{consumergroup=landscape-service},1651330879,7841
{consumergroup=landscape-service},1651330884,7841
{consumergroup=landscape-service},1651330889,7841
{consumergroup=landscape-service},1651330894,3372
{consumergroup=landscape-service},1651330899,3372
{consumergroup=landscape-service},1651330904,3372
{consumergroup=landscape-service},1651330909,6329
{consumergroup=landscape-service},1651330914,6329
{consumergroup=landscape-service},1651330919,6329
{consumergroup=landscape-service},1651330924,1550
{consumergroup=landscape-service},1651330929,1550
{consumergroup=landscape-service},1651330934,1550
{consumergroup=landscape-service},1651330939,4594
{consumergroup=landscape-service},1651330944,4594
{consumergroup=landscape-service},1651330949,4594
{consumergroup=landscape-service},1651330954,0
{consumergroup=landscape-service},1651330959,0
{consumergroup=trace-service},1651330504,37781
{consumergroup=trace-service},1651330509,37781
{consumergroup=trace-service},1651330514,37781
{consumergroup=trace-service},1651330519,13540
{consumergroup=trace-service},1651330524,13540
{consumergroup=trace-service},1651330529,13540
{consumergroup=trace-service},1651330534,37143
{consumergroup=trace-service},1651330539,37143
{consumergroup=trace-service},1651330544,37143
{consumergroup=trace-service},1651330549,73263
{consumergroup=trace-service},1651330554,73263
{consumergroup=trace-service},1651330559,73263
{consumergroup=trace-service},1651330564,25439
{consumergroup=trace-service},1651330569,25439
{consumergroup=trace-service},1651330574,25439
{consumergroup=trace-service},1651330579,61032
{consumergroup=trace-service},1651330584,61032
{consumergroup=trace-service},1651330589,61032
{consumergroup=trace-service},1651330594,34623
{consumergroup=trace-service},1651330599,34623
{consumergroup=trace-service},1651330604,34623
{consumergroup=trace-service},1651330609,86039
{consumergroup=trace-service},1651330614,86039
{consumergroup=trace-service},1651330619,86039
{consumergroup=trace-service},1651330624,26629
{consumergroup=trace-service},1651330629,26629
{consumergroup=trace-service},1651330634,26629
{consumergroup=trace-service},1651330639,63935
{consumergroup=trace-service},1651330644,63935
{consumergroup=trace-service},1651330649,63935
{consumergroup=trace-service},1651330654,33954
{consumergroup=trace-service},1651330659,33954
{consumergroup=trace-service},1651330664,33954
{consumergroup=trace-service},1651330669,97206
{consumergroup=trace-service},1651330674,97206
{consumergroup=trace-service},1651330679,97206
{consumergroup=trace-service},1651330684,29836
{consumergroup=trace-service},1651330689,29836
{consumergroup=trace-service},1651330694,29836
{consumergroup=trace-service},1651330699,80244
{consumergroup=trace-service},1651330704,80244
{consumergroup=trace-service},1651330709,80244
{consumergroup=trace-service},1651330714,29378
{consumergroup=trace-service},1651330719,29378
{consumergroup=trace-service},1651330724,29378
{consumergroup=trace-service},1651330729,104875
{consumergroup=trace-service},1651330734,104875
{consumergroup=trace-service},1651330739,104875
{consumergroup=trace-service},1651330744,31425
{consumergroup=trace-service},1651330749,31425
{consumergroup=trace-service},1651330754,31425
{consumergroup=trace-service},1651330759,89274
{consumergroup=trace-service},1651330764,89274
{consumergroup=trace-service},1651330769,89274
{consumergroup=trace-service},1651330774,25863
{consumergroup=trace-service},1651330779,25863
{consumergroup=trace-service},1651330784,25863
{consumergroup=trace-service},1651330789,88098
{consumergroup=trace-service},1651330794,88098
{consumergroup=trace-service},1651330799,88098
{consumergroup=trace-service},1651330804,33184
{consumergroup=trace-service},1651330809,33184
{consumergroup=trace-service},1651330814,33184
{consumergroup=trace-service},1651330819,89947
{consumergroup=trace-service},1651330824,89947
{consumergroup=trace-service},1651330829,89947
{consumergroup=trace-service},1651330834,28698
{consumergroup=trace-service},1651330839,28698
{consumergroup=trace-service},1651330844,28698
{consumergroup=trace-service},1651330849,71766
{consumergroup=trace-service},1651330854,71766
{consumergroup=trace-service},1651330859,71766
{consumergroup=trace-service},1651330864,28094
{consumergroup=trace-service},1651330869,28094
{consumergroup=trace-service},1651330874,28094
{consumergroup=trace-service},1651330879,77648
{consumergroup=trace-service},1651330884,77648
{consumergroup=trace-service},1651330889,77648
{consumergroup=trace-service},1651330894,32705
{consumergroup=trace-service},1651330899,32705
{consumergroup=trace-service},1651330904,32705
{consumergroup=trace-service},1651330909,76063
{consumergroup=trace-service},1651330914,76063
{consumergroup=trace-service},1651330919,76063
{consumergroup=trace-service},1651330924,32628
{consumergroup=trace-service},1651330929,32628
{consumergroup=trace-service},1651330934,32628
{consumergroup=trace-service},1651330939,68642
{consumergroup=trace-service},1651330944,68642
{consumergroup=trace-service},1651330949,68642
{consumergroup=trace-service},1651330954,35436
{consumergroup=trace-service},1651330959,35436
{consumergroup=trace-token-events-consumer},1651330489,0
{consumergroup=trace-token-events-consumer},1651330494,0
{consumergroup=trace-token-events-consumer},1651330499,0
{consumergroup=trace-token-events-consumer},1651330504,0
{consumergroup=trace-token-events-consumer},1651330509,0
{consumergroup=trace-token-events-consumer},1651330514,0
{consumergroup=trace-token-events-consumer},1651330519,0
{consumergroup=trace-token-events-consumer},1651330524,0
{consumergroup=trace-token-events-consumer},1651330529,0
{consumergroup=trace-token-events-consumer},1651330534,0
{consumergroup=trace-token-events-consumer},1651330539,0
{consumergroup=trace-token-events-consumer},1651330544,0
{consumergroup=trace-token-events-consumer},1651330549,0
{consumergroup=trace-token-events-consumer},1651330554,0
{consumergroup=trace-token-events-consumer},1651330559,0
{consumergroup=trace-token-events-consumer},1651330564,0
{consumergroup=trace-token-events-consumer},1651330569,0
{consumergroup=trace-token-events-consumer},1651330574,0
{consumergroup=trace-token-events-consumer},1651330579,0
{consumergroup=trace-token-events-consumer},1651330584,0
{consumergroup=trace-token-events-consumer},1651330589,0
{consumergroup=trace-token-events-consumer},1651330594,0
{consumergroup=trace-token-events-consumer},1651330599,0
{consumergroup=trace-token-events-consumer},1651330604,0
{consumergroup=trace-token-events-consumer},1651330609,0
{consumergroup=trace-token-events-consumer},1651330614,0
{consumergroup=trace-token-events-consumer},1651330619,0
{consumergroup=trace-token-events-consumer},1651330624,0
{consumergroup=trace-token-events-consumer},1651330629,0
{consumergroup=trace-token-events-consumer},1651330634,0
{consumergroup=trace-token-events-consumer},1651330639,0
{consumergroup=trace-token-events-consumer},1651330644,0
{consumergroup=trace-token-events-consumer},1651330649,0
{consumergroup=trace-token-events-consumer},1651330654,0
{consumergroup=trace-token-events-consumer},1651330659,0
{consumergroup=trace-token-events-consumer},1651330664,0
{consumergroup=trace-token-events-consumer},1651330669,0
{consumergroup=trace-token-events-consumer},1651330674,0
{consumergroup=trace-token-events-consumer},1651330679,0
{consumergroup=trace-token-events-consumer},1651330684,0
{consumergroup=trace-token-events-consumer},1651330689,0
{consumergroup=trace-token-events-consumer},1651330694,0
{consumergroup=trace-token-events-consumer},1651330699,0
{consumergroup=trace-token-events-consumer},1651330704,0
{consumergroup=trace-token-events-consumer},1651330709,0
{consumergroup=trace-token-events-consumer},1651330714,0
{consumergroup=trace-token-events-consumer},1651330719,0
{consumergroup=trace-token-events-consumer},1651330724,0
{consumergroup=trace-token-events-consumer},1651330729,0
{consumergroup=trace-token-events-consumer},1651330734,0
{consumergroup=trace-token-events-consumer},1651330739,0
{consumergroup=trace-token-events-consumer},1651330744,0
{consumergroup=trace-token-events-consumer},1651330749,0
{consumergroup=trace-token-events-consumer},1651330754,0
{consumergroup=trace-token-events-consumer},1651330759,0
{consumergroup=trace-token-events-consumer},1651330764,0
{consumergroup=trace-token-events-consumer},1651330769,0
{consumergroup=trace-token-events-consumer},1651330774,0
{consumergroup=trace-token-events-consumer},1651330779,0
{consumergroup=trace-token-events-consumer},1651330784,0
{consumergroup=trace-token-events-consumer},1651330789,0
{consumergroup=trace-token-events-consumer},1651330794,0
{consumergroup=trace-token-events-consumer},1651330799,0
{consumergroup=trace-token-events-consumer},1651330804,0
{consumergroup=trace-token-events-consumer},1651330809,0
{consumergroup=trace-token-events-consumer},1651330814,0
{consumergroup=trace-token-events-consumer},1651330819,0
{consumergroup=trace-token-events-consumer},1651330824,0
{consumergroup=trace-token-events-consumer},1651330829,0
{consumergroup=trace-token-events-consumer},1651330834,0
{consumergroup=trace-token-events-consumer},1651330839,0
{consumergroup=trace-token-events-consumer},1651330844,0
{consumergroup=trace-token-events-consumer},1651330849,0
{consumergroup=trace-token-events-consumer},1651330854,0
{consumergroup=trace-token-events-consumer},1651330859,0
{consumergroup=trace-token-events-consumer},1651330864,0
{consumergroup=trace-token-events-consumer},1651330869,0
{consumergroup=trace-token-events-consumer},1651330874,0
{consumergroup=trace-token-events-consumer},1651330879,0
{consumergroup=trace-token-events-consumer},1651330884,0
{consumergroup=trace-token-events-consumer},1651330889,0
{consumergroup=trace-token-events-consumer},1651330894,0
{consumergroup=trace-token-events-consumer},1651330899,0
{consumergroup=trace-token-events-consumer},1651330904,0
{consumergroup=trace-token-events-consumer},1651330909,0
{consumergroup=trace-token-events-consumer},1651330914,0
{consumergroup=trace-token-events-consumer},1651330919,0
{consumergroup=trace-token-events-consumer},1651330924,0
{consumergroup=trace-token-events-consumer},1651330929,0
{consumergroup=trace-token-events-consumer},1651330934,0
{consumergroup=trace-token-events-consumer},1651330939,0
{consumergroup=trace-token-events-consumer},1651330944,0
{consumergroup=trace-token-events-consumer},1651330949,0
{consumergroup=trace-token-events-consumer},1651330954,0
{consumergroup=trace-token-events-consumer},1651330959,0
