labels,timestamp,value
{consumergroup=__strimzi-topic-operator-kstreams},1651324334,11
{consumergroup=__strimzi-topic-operator-kstreams},1651324339,11
{consumergroup=__strimzi-topic-operator-kstreams},1651324344,11
{consumergroup=__strimzi-topic-operator-kstreams},1651324349,3
{consumergroup=__strimzi-topic-operator-kstreams},1651324354,3
{consumergroup=__strimzi-topic-operator-kstreams},1651324359,3
{consumergroup=__strimzi-topic-operator-kstreams},1651324364,3
{consumergroup=__strimzi-topic-operator-kstreams},1651324369,3
{consumergroup=__strimzi-topic-operator-kstreams},1651324374,3
{consumergroup=__strimzi-topic-operator-kstreams},1651324379,0
{consumergroup=__strimzi-topic-operator-kstreams},1651324384,0
{consumergroup=__strimzi-topic-operator-kstreams},1651324389,0
{consumergroup=__strimzi-topic-operator-kstreams},1651324394,0
{consumergroup=__strimzi-topic-operator-kstreams},1651324399,0
{consumergroup=__strimzi-topic-operator-kstreams},1651324404,0
{consumergroup=__strimzi-topic-operator-kstreams},1651324409,0
{consumergroup=__strimzi-topic-operator-kstreams},1651324414,0
{consumergroup=__strimzi-topic-operator-kstreams},1651324419,0
{consumergroup=__strimzi-topic-operator-kstreams},1651324424,0
{consumergroup=__strimzi-topic-operator-kstreams},1651324429,0
{consumergroup=__strimzi-topic-operator-kstreams},1651324434,0
{consumergroup=__strimzi-topic-operator-kstreams},1651324439,0
{consumergroup=__strimzi-topic-operator-kstreams},1651324444,0
{consumergroup=__strimzi-topic-operator-kstreams},1651324449,0
{consumergroup=__strimzi-topic-operator-kstreams},1651324454,0
{consumergroup=__strimzi-topic-operator-kstreams},1651324459,0
{consumergroup=__strimzi-topic-operator-kstreams},1651324464,0
{consumergroup=__strimzi-topic-operator-kstreams},1651324469,0
{consumergroup=__strimzi-topic-operator-kstreams},1651324474,0
{consumergroup=__strimzi-topic-operator-kstreams},1651324479,0
{consumergroup=__strimzi-topic-operator-kstreams},1651324484,0
{consumergroup=__strimzi-topic-operator-kstreams},1651324489,0
{consumergroup=__strimzi-topic-operator-kstreams},1651324494,0
{consumergroup=__strimzi-topic-operator-kstreams},1651324499,0
{consumergroup=__strimzi-topic-operator-kstreams},1651324504,0
{consumergroup=__strimzi-topic-operator-kstreams},1651324509,0
{consumergroup=__strimzi-topic-operator-kstreams},1651324514,0
{consumergroup=__strimzi-topic-operator-kstreams},1651324519,0
{consumergroup=__strimzi-topic-operator-kstreams},1651324524,0
{consumergroup=__strimzi-topic-operator-kstreams},1651324529,0
{consumergroup=__strimzi-topic-operator-kstreams},1651324534,0
{consumergroup=__strimzi-topic-operator-kstreams},1651324539,0
{consumergroup=__strimzi-topic-operator-kstreams},1651324544,0
{consumergroup=__strimzi-topic-operator-kstreams},1651324549,0
{consumergroup=__strimzi-topic-operator-kstreams},1651324554,0
{consumergroup=__strimzi-topic-operator-kstreams},1651324559,0
{consumergroup=__strimzi-topic-operator-kstreams},1651324564,0
{consumergroup=__strimzi-topic-operator-kstreams},1651324569,0
{consumergroup=__strimzi-topic-operator-kstreams},1651324574,0
{consumergroup=__strimzi-topic-operator-kstreams},1651324579,0
{consumergroup=__strimzi-topic-operator-kstreams},1651324584,0
{consumergroup=__strimzi-topic-operator-kstreams},1651324589,0
{consumergroup=__strimzi-topic-operator-kstreams},1651324594,0
{consumergroup=__strimzi-topic-operator-kstreams},1651324599,0
{consumergroup=__strimzi-topic-operator-kstreams},1651324604,0
{consumergroup=__strimzi-topic-operator-kstreams},1651324609,0
{consumergroup=__strimzi-topic-operator-kstreams},1651324614,0
{consumergroup=__strimzi-topic-operator-kstreams},1651324619,0
{consumergroup=__strimzi-topic-operator-kstreams},1651324624,0
{consumergroup=__strimzi-topic-operator-kstreams},1651324629,0
{consumergroup=__strimzi-topic-operator-kstreams},1651324634,0
{consumergroup=__strimzi-topic-operator-kstreams},1651324639,0
{consumergroup=__strimzi-topic-operator-kstreams},1651324644,0
{consumergroup=__strimzi-topic-operator-kstreams},1651324649,0
{consumergroup=__strimzi-topic-operator-kstreams},1651324654,0
{consumergroup=__strimzi-topic-operator-kstreams},1651324659,0
{consumergroup=__strimzi-topic-operator-kstreams},1651324664,0
{consumergroup=__strimzi-topic-operator-kstreams},1651324669,0
{consumergroup=__strimzi-topic-operator-kstreams},1651324674,0
{consumergroup=__strimzi-topic-operator-kstreams},1651324679,0
{consumergroup=__strimzi-topic-operator-kstreams},1651324684,0
{consumergroup=__strimzi-topic-operator-kstreams},1651324689,0
{consumergroup=__strimzi-topic-operator-kstreams},1651324694,0
{consumergroup=__strimzi-topic-operator-kstreams},1651324699,0
{consumergroup=__strimzi-topic-operator-kstreams},1651324704,0
{consumergroup=__strimzi-topic-operator-kstreams},1651324709,0
{consumergroup=__strimzi-topic-operator-kstreams},1651324714,0
{consumergroup=__strimzi-topic-operator-kstreams},1651324719,0
{consumergroup=__strimzi-topic-operator-kstreams},1651324724,0
{consumergroup=__strimzi-topic-operator-kstreams},1651324729,0
{consumergroup=__strimzi-topic-operator-kstreams},1651324734,0
{consumergroup=__strimzi-topic-operator-kstreams},1651324739,0
{consumergroup=__strimzi-topic-operator-kstreams},1651324744,0
{consumergroup=__strimzi-topic-operator-kstreams},1651324749,0
{consumergroup=__strimzi-topic-operator-kstreams},1651324754,0
{consumergroup=__strimzi-topic-operator-kstreams},1651324759,0
{consumergroup=__strimzi-topic-operator-kstreams},1651324764,0
{consumergroup=__strimzi-topic-operator-kstreams},1651324769,0
{consumergroup=__strimzi-topic-operator-kstreams},1651324774,0
{consumergroup=__strimzi-topic-operator-kstreams},1651324779,0
{consumergroup=__strimzi-topic-operator-kstreams},1651324784,0
{consumergroup=__strimzi-topic-operator-kstreams},1651324789,0
{consumergroup=__strimzi-topic-operator-kstreams},1651324794,0
{consumergroup=__strimzi-topic-operator-kstreams},1651324799,0
{consumergroup=__strimzi-topic-operator-kstreams},1651324804,0
{consumergroup=__strimzi-topic-operator-kstreams},1651324809,0
{consumergroup=__strimzi-topic-operator-kstreams},1651324814,0
{consumergroup=__strimzi-topic-operator-kstreams},1651324819,0
{consumergroup=__strimzi-topic-operator-kstreams},1651324824,0
{consumergroup=__strimzi-topic-operator-kstreams},1651324829,0
{consumergroup=__strimzi-topic-operator-kstreams},1651324834,0
{consumergroup=__strimzi-topic-operator-kstreams},1651324839,0
{consumergroup=adapter-service},1651324364,0
{consumergroup=adapter-service},1651324369,0
{consumergroup=adapter-service},1651324374,0
{consumergroup=adapter-service},1651324379,3626
{consumergroup=adapter-service},1651324384,3626
{consumergroup=adapter-service},1651324389,3626
{consumergroup=adapter-service},1651324394,3993
{consumergroup=adapter-service},1651324399,3993
{consumergroup=adapter-service},1651324404,3993
{consumergroup=adapter-service},1651324409,2437
{consumergroup=adapter-service},1651324414,2437
{consumergroup=adapter-service},1651324419,2437
{consumergroup=adapter-service},1651324424,4951
{consumergroup=adapter-service},1651324429,4951
{consumergroup=adapter-service},1651324434,4951
{consumergroup=adapter-service},1651324439,2695
{consumergroup=adapter-service},1651324444,2695
{consumergroup=adapter-service},1651324449,2695
{consumergroup=adapter-service},1651324454,11828
{consumergroup=adapter-service},1651324459,11828
{consumergroup=adapter-service},1651324464,11828
{consumergroup=adapter-service},1651324469,2023
{consumergroup=adapter-service},1651324474,2023
{consumergroup=adapter-service},1651324479,2023
{consumergroup=adapter-service},1651324484,14345
{consumergroup=adapter-service},1651324489,14345
{consumergroup=adapter-service},1651324494,14345
{consumergroup=adapter-service},1651324499,1328
{consumergroup=adapter-service},1651324504,1328
{consumergroup=adapter-service},1651324509,1328
{consumergroup=adapter-service},1651324514,14498
{consumergroup=adapter-service},1651324519,14498
{consumergroup=adapter-service},1651324524,14498
{consumergroup=adapter-service},1651324529,1664
{consumergroup=adapter-service},1651324534,1664
{consumergroup=adapter-service},1651324539,1664
{consumergroup=adapter-service},1651324544,741
{consumergroup=adapter-service},1651324549,741
{consumergroup=adapter-service},1651324554,741
{consumergroup=adapter-service},1651324559,770
{consumergroup=adapter-service},1651324564,770
{consumergroup=adapter-service},1651324569,770
{consumergroup=adapter-service},1651324574,539
{consumergroup=adapter-service},1651324579,539
{consumergroup=adapter-service},1651324584,539
{consumergroup=adapter-service},1651324589,532
{consumergroup=adapter-service},1651324594,532
{consumergroup=adapter-service},1651324599,532
{consumergroup=adapter-service},1651324604,13866
{consumergroup=adapter-service},1651324609,13866
{consumergroup=adapter-service},1651324614,13866
{consumergroup=adapter-service},1651324619,1676
{consumergroup=adapter-service},1651324624,1676
{consumergroup=adapter-service},1651324629,1676
{consumergroup=adapter-service},1651324634,2596
{consumergroup=adapter-service},1651324639,2596
{consumergroup=adapter-service},1651324644,2596
{consumergroup=adapter-service},1651324649,4589
{consumergroup=adapter-service},1651324654,4589
{consumergroup=adapter-service},1651324659,4589
{consumergroup=adapter-service},1651324664,6568
{consumergroup=adapter-service},1651324669,6568
{consumergroup=adapter-service},1651324674,6568
{consumergroup=adapter-service},1651324679,7053
{consumergroup=adapter-service},1651324684,7053
{consumergroup=adapter-service},1651324689,7053
{consumergroup=adapter-service},1651324694,13188
{consumergroup=adapter-service},1651324699,13188
{consumergroup=adapter-service},1651324704,13188
{consumergroup=adapter-service},1651324709,6303
{consumergroup=adapter-service},1651324714,6303
{consumergroup=adapter-service},1651324719,6303
{consumergroup=adapter-service},1651324724,12204
{consumergroup=adapter-service},1651324729,12204
{consumergroup=adapter-service},1651324734,12204
{consumergroup=adapter-service},1651324739,10501
{consumergroup=adapter-service},1651324744,10501
{consumergroup=adapter-service},1651324749,10501
{consumergroup=adapter-service},1651324754,12693
{consumergroup=adapter-service},1651324759,12693
{consumergroup=adapter-service},1651324764,12693
{consumergroup=adapter-service},1651324769,9699
{consumergroup=adapter-service},1651324774,9699
{consumergroup=adapter-service},1651324779,9699
{consumergroup=adapter-service},1651324784,12858
{consumergroup=adapter-service},1651324789,12858
{consumergroup=adapter-service},1651324794,12858
{consumergroup=adapter-service},1651324799,13494
{consumergroup=adapter-service},1651324804,13494
{consumergroup=adapter-service},1651324809,13494
{consumergroup=adapter-service},1651324814,11166
{consumergroup=adapter-service},1651324819,11166
{consumergroup=adapter-service},1651324824,11166
{consumergroup=adapter-service},1651324829,14303
{consumergroup=adapter-service},1651324834,14303
{consumergroup=adapter-service},1651324839,14303
{consumergroup=landscape-service},1651324379,36201
{consumergroup=landscape-service},1651324384,36201
{consumergroup=landscape-service},1651324389,36201
{consumergroup=landscape-service},1651324394,28093
{consumergroup=landscape-service},1651324399,28093
{consumergroup=landscape-service},1651324404,28093
{consumergroup=landscape-service},1651324409,4954
{consumergroup=landscape-service},1651324414,4954
{consumergroup=landscape-service},1651324419,4954
{consumergroup=landscape-service},1651324424,17445
{consumergroup=landscape-service},1651324429,17445
{consumergroup=landscape-service},1651324434,17445
{consumergroup=landscape-service},1651324439,2135
{consumergroup=landscape-service},1651324444,2135
{consumergroup=landscape-service},1651324449,2135
{consumergroup=landscape-service},1651324454,16062
{consumergroup=landscape-service},1651324459,16062
{consumergroup=landscape-service},1651324464,16062
{consumergroup=landscape-service},1651324469,692
{consumergroup=landscape-service},1651324474,692
{consumergroup=landscape-service},1651324479,692
{consumergroup=landscape-service},1651324484,14978
{consumergroup=landscape-service},1651324489,14978
{consumergroup=landscape-service},1651324494,14978
{consumergroup=landscape-service},1651324499,767
{consumergroup=landscape-service},1651324504,767
{consumergroup=landscape-service},1651324509,767
{consumergroup=landscape-service},1651324514,12794
{consumergroup=landscape-service},1651324519,12794
{consumergroup=landscape-service},1651324524,12794
{consumergroup=landscape-service},1651324529,16574
{consumergroup=landscape-service},1651324534,16574
{consumergroup=landscape-service},1651324539,16574
{consumergroup=landscape-service},1651324544,14723
{consumergroup=landscape-service},1651324549,14723
{consumergroup=landscape-service},1651324554,14723
{consumergroup=landscape-service},1651324559,14553
{consumergroup=landscape-service},1651324564,14553
{consumergroup=landscape-service},1651324569,14553
{consumergroup=landscape-service},1651324574,14001
{consumergroup=landscape-service},1651324579,14001
{consumergroup=landscape-service},1651324584,14001
{consumergroup=landscape-service},1651324589,13482
{consumergroup=landscape-service},1651324594,13482
{consumergroup=landscape-service},1651324599,13482
{consumergroup=landscape-service},1651324604,9867
{consumergroup=landscape-service},1651324609,9867
{consumergroup=landscape-service},1651324614,9867
{consumergroup=landscape-service},1651324619,12931
{consumergroup=landscape-service},1651324624,12931
{consumergroup=landscape-service},1651324629,12931
{consumergroup=landscape-service},1651324634,12276
{consumergroup=landscape-service},1651324639,12276
{consumergroup=landscape-service},1651324644,12276
{consumergroup=landscape-service},1651324649,10833
{consumergroup=landscape-service},1651324654,10833
{consumergroup=landscape-service},1651324659,10833
{consumergroup=landscape-service},1651324664,10063
{consumergroup=landscape-service},1651324669,10063
{consumergroup=landscape-service},1651324674,10063
{consumergroup=landscape-service},1651324679,9626
{consumergroup=landscape-service},1651324684,9626
{consumergroup=landscape-service},1651324689,9626
{consumergroup=landscape-service},1651324694,5501
{consumergroup=landscape-service},1651324699,5501
{consumergroup=landscape-service},1651324704,5501
{consumergroup=landscape-service},1651324709,8523
{consumergroup=landscape-service},1651324714,8523
{consumergroup=landscape-service},1651324719,8523
{consumergroup=landscape-service},1651324724,4487
{consumergroup=landscape-service},1651324729,4487
{consumergroup=landscape-service},1651324734,4487
{consumergroup=landscape-service},1651324739,7241
{consumergroup=landscape-service},1651324744,7241
{consumergroup=landscape-service},1651324749,7241
{consumergroup=landscape-service},1651324754,3538
{consumergroup=landscape-service},1651324759,3538
{consumergroup=landscape-service},1651324764,3538
{consumergroup=landscape-service},1651324769,6241
{consumergroup=landscape-service},1651324774,6241
{consumergroup=landscape-service},1651324779,6241
{consumergroup=landscape-service},1651324784,5546
{consumergroup=landscape-service},1651324789,5546
{consumergroup=landscape-service},1651324794,5546
{consumergroup=landscape-service},1651324799,5054
{consumergroup=landscape-service},1651324804,5054
{consumergroup=landscape-service},1651324809,5054
{consumergroup=landscape-service},1651324814,1244
{consumergroup=landscape-service},1651324819,1244
{consumergroup=landscape-service},1651324824,1244
{consumergroup=landscape-service},1651324829,3995
{consumergroup=landscape-service},1651324834,3995
{consumergroup=landscape-service},1651324839,3995
{consumergroup=trace-service},1651324379,14134
{consumergroup=trace-service},1651324384,14134
{consumergroup=trace-service},1651324389,14134
{consumergroup=trace-service},1651324394,41406
{consumergroup=trace-service},1651324399,41406
{consumergroup=trace-service},1651324404,41406
{consumergroup=trace-service},1651324409,19748
{consumergroup=trace-service},1651324414,19748
{consumergroup=trace-service},1651324419,19748
{consumergroup=trace-service},1651324424,39472
{consumergroup=trace-service},1651324429,39472
{consumergroup=trace-service},1651324434,39472
{consumergroup=trace-service},1651324439,5928
{consumergroup=trace-service},1651324444,5928
{consumergroup=trace-service},1651324449,5928
{consumergroup=trace-service},1651324454,43361
{consumergroup=trace-service},1651324459,43361
{consumergroup=trace-service},1651324464,43361
{consumergroup=trace-service},1651324469,21857
{consumergroup=trace-service},1651324474,21857
{consumergroup=trace-service},1651324479,21857
{consumergroup=trace-service},1651324484,42469
{consumergroup=trace-service},1651324489,42469
{consumergroup=trace-service},1651324494,42469
{consumergroup=trace-service},1651324499,22544
{consumergroup=trace-service},1651324504,22544
{consumergroup=trace-service},1651324509,22544
{consumergroup=trace-service},1651324514,45703
{consumergroup=trace-service},1651324519,45703
{consumergroup=trace-service},1651324524,45703
{consumergroup=trace-service},1651324529,51487
{consumergroup=trace-service},1651324534,51487
{consumergroup=trace-service},1651324539,51487
{consumergroup=trace-service},1651324544,46413
{consumergroup=trace-service},1651324549,46413
{consumergroup=trace-service},1651324554,46413
{consumergroup=trace-service},1651324559,13157
{consumergroup=trace-service},1651324564,13157
{consumergroup=trace-service},1651324569,13157
{consumergroup=trace-service},1651324574,44141
{consumergroup=trace-service},1651324579,44141
{consumergroup=trace-service},1651324584,44141
{consumergroup=trace-service},1651324589,18212
{consumergroup=trace-service},1651324594,18212
{consumergroup=trace-service},1651324599,18212
{consumergroup=trace-service},1651324604,43909
{consumergroup=trace-service},1651324609,43909
{consumergroup=trace-service},1651324614,43909
{consumergroup=trace-service},1651324619,16781
{consumergroup=trace-service},1651324624,16781
{consumergroup=trace-service},1651324629,16781
{consumergroup=trace-service},1651324634,46311
{consumergroup=trace-service},1651324639,46311
{consumergroup=trace-service},1651324644,46311
{consumergroup=trace-service},1651324649,20869
{consumergroup=trace-service},1651324654,20869
{consumergroup=trace-service},1651324659,20869
{consumergroup=trace-service},1651324664,45111
{consumergroup=trace-service},1651324669,45111
{consumergroup=trace-service},1651324674,45111
{consumergroup=trace-service},1651324679,15792
{consumergroup=trace-service},1651324684,15792
{consumergroup=trace-service},1651324689,15792
{consumergroup=trace-service},1651324694,43437
{consumergroup=trace-service},1651324699,43437
{consumergroup=trace-service},1651324704,43437
{consumergroup=trace-service},1651324709,17379
{consumergroup=trace-service},1651324714,17379
{consumergroup=trace-service},1651324719,17379
{consumergroup=trace-service},1651324724,44133
{consumergroup=trace-service},1651324729,44133
{consumergroup=trace-service},1651324734,44133
{consumergroup=trace-service},1651324739,18127
{consumergroup=trace-service},1651324744,18127
{consumergroup=trace-service},1651324749,18127
{consumergroup=trace-service},1651324754,48626
{consumergroup=trace-service},1651324759,48626
{consumergroup=trace-service},1651324764,48626
{consumergroup=trace-service},1651324769,12286
{consumergroup=trace-service},1651324774,12286
{consumergroup=trace-service},1651324779,12286
{consumergroup=trace-service},1651324784,48472
{consumergroup=trace-service},1651324789,48472
{consumergroup=trace-service},1651324794,48472
{consumergroup=trace-service},1651324799,16314
{consumergroup=trace-service},1651324804,16314
{consumergroup=trace-service},1651324809,16314
{consumergroup=trace-service},1651324814,40989
{consumergroup=trace-service},1651324819,40989
{consumergroup=trace-service},1651324824,40989
{consumergroup=trace-service},1651324829,18524
{consumergroup=trace-service},1651324834,18524
{consumergroup=trace-service},1651324839,18524
{consumergroup=trace-token-events-consumer},1651324364,0
{consumergroup=trace-token-events-consumer},1651324369,0
{consumergroup=trace-token-events-consumer},1651324374,0
{consumergroup=trace-token-events-consumer},1651324379,0
{consumergroup=trace-token-events-consumer},1651324384,0
{consumergroup=trace-token-events-consumer},1651324389,0
{consumergroup=trace-token-events-consumer},1651324394,0
{consumergroup=trace-token-events-consumer},1651324399,0
{consumergroup=trace-token-events-consumer},1651324404,0
{consumergroup=trace-token-events-consumer},1651324409,0
{consumergroup=trace-token-events-consumer},1651324414,0
{consumergroup=trace-token-events-consumer},1651324419,0
{consumergroup=trace-token-events-consumer},1651324424,0
{consumergroup=trace-token-events-consumer},1651324429,0
{consumergroup=trace-token-events-consumer},1651324434,0
{consumergroup=trace-token-events-consumer},1651324439,0
{consumergroup=trace-token-events-consumer},1651324444,0
{consumergroup=trace-token-events-consumer},1651324449,0
{consumergroup=trace-token-events-consumer},1651324454,0
{consumergroup=trace-token-events-consumer},1651324459,0
{consumergroup=trace-token-events-consumer},1651324464,0
{consumergroup=trace-token-events-consumer},1651324469,0
{consumergroup=trace-token-events-consumer},1651324474,0
{consumergroup=trace-token-events-consumer},1651324479,0
{consumergroup=trace-token-events-consumer},1651324484,0
{consumergroup=trace-token-events-consumer},1651324489,0
{consumergroup=trace-token-events-consumer},1651324494,0
{consumergroup=trace-token-events-consumer},1651324499,0
{consumergroup=trace-token-events-consumer},1651324504,0
{consumergroup=trace-token-events-consumer},1651324509,0
{consumergroup=trace-token-events-consumer},1651324514,0
{consumergroup=trace-token-events-consumer},1651324519,0
{consumergroup=trace-token-events-consumer},1651324524,0
{consumergroup=trace-token-events-consumer},1651324529,0
{consumergroup=trace-token-events-consumer},1651324534,0
{consumergroup=trace-token-events-consumer},1651324539,0
{consumergroup=trace-token-events-consumer},1651324544,0
{consumergroup=trace-token-events-consumer},1651324549,0
{consumergroup=trace-token-events-consumer},1651324554,0
{consumergroup=trace-token-events-consumer},1651324559,0
{consumergroup=trace-token-events-consumer},1651324564,0
{consumergroup=trace-token-events-consumer},1651324569,0
{consumergroup=trace-token-events-consumer},1651324574,0
{consumergroup=trace-token-events-consumer},1651324579,0
{consumergroup=trace-token-events-consumer},1651324584,0
{consumergroup=trace-token-events-consumer},1651324589,0
{consumergroup=trace-token-events-consumer},1651324594,0
{consumergroup=trace-token-events-consumer},1651324599,0
{consumergroup=trace-token-events-consumer},1651324604,0
{consumergroup=trace-token-events-consumer},1651324609,0
{consumergroup=trace-token-events-consumer},1651324614,0
{consumergroup=trace-token-events-consumer},1651324619,0
{consumergroup=trace-token-events-consumer},1651324624,0
{consumergroup=trace-token-events-consumer},1651324629,0
{consumergroup=trace-token-events-consumer},1651324634,0
{consumergroup=trace-token-events-consumer},1651324639,0
{consumergroup=trace-token-events-consumer},1651324644,0
{consumergroup=trace-token-events-consumer},1651324649,0
{consumergroup=trace-token-events-consumer},1651324654,0
{consumergroup=trace-token-events-consumer},1651324659,0
{consumergroup=trace-token-events-consumer},1651324664,0
{consumergroup=trace-token-events-consumer},1651324669,0
{consumergroup=trace-token-events-consumer},1651324674,0
{consumergroup=trace-token-events-consumer},1651324679,0
{consumergroup=trace-token-events-consumer},1651324684,0
{consumergroup=trace-token-events-consumer},1651324689,0
{consumergroup=trace-token-events-consumer},1651324694,0
{consumergroup=trace-token-events-consumer},1651324699,0
{consumergroup=trace-token-events-consumer},1651324704,0
{consumergroup=trace-token-events-consumer},1651324709,0
{consumergroup=trace-token-events-consumer},1651324714,0
{consumergroup=trace-token-events-consumer},1651324719,0
{consumergroup=trace-token-events-consumer},1651324724,0
{consumergroup=trace-token-events-consumer},1651324729,0
{consumergroup=trace-token-events-consumer},1651324734,0
{consumergroup=trace-token-events-consumer},1651324739,0
{consumergroup=trace-token-events-consumer},1651324744,0
{consumergroup=trace-token-events-consumer},1651324749,0
{consumergroup=trace-token-events-consumer},1651324754,0
{consumergroup=trace-token-events-consumer},1651324759,0
{consumergroup=trace-token-events-consumer},1651324764,0
{consumergroup=trace-token-events-consumer},1651324769,0
{consumergroup=trace-token-events-consumer},1651324774,0
{consumergroup=trace-token-events-consumer},1651324779,0
{consumergroup=trace-token-events-consumer},1651324784,0
{consumergroup=trace-token-events-consumer},1651324789,0
{consumergroup=trace-token-events-consumer},1651324794,0
{consumergroup=trace-token-events-consumer},1651324799,0
{consumergroup=trace-token-events-consumer},1651324804,0
{consumergroup=trace-token-events-consumer},1651324809,0
{consumergroup=trace-token-events-consumer},1651324814,0
{consumergroup=trace-token-events-consumer},1651324819,0
{consumergroup=trace-token-events-consumer},1651324824,0
{consumergroup=trace-token-events-consumer},1651324829,0
{consumergroup=trace-token-events-consumer},1651324834,0
{consumergroup=trace-token-events-consumer},1651324839,0
