labels,timestamp,value
{consumergroup=__strimzi-topic-operator-kstreams},1651449202,0
{consumergroup=__strimzi-topic-operator-kstreams},1651449207,0
{consumergroup=__strimzi-topic-operator-kstreams},1651449212,0
{consumergroup=__strimzi-topic-operator-kstreams},1651449217,0
{consumergroup=__strimzi-topic-operator-kstreams},1651449222,0
{consumergroup=__strimzi-topic-operator-kstreams},1651449227,0
{consumergroup=__strimzi-topic-operator-kstreams},1651449232,0
{consumergroup=__strimzi-topic-operator-kstreams},1651449237,0
{consumergroup=__strimzi-topic-operator-kstreams},1651449242,0
{consumergroup=__strimzi-topic-operator-kstreams},1651449247,0
{consumergroup=__strimzi-topic-operator-kstreams},1651449252,0
{consumergroup=__strimzi-topic-operator-kstreams},1651449257,0
{consumergroup=__strimzi-topic-operator-kstreams},1651449262,0
{consumergroup=__strimzi-topic-operator-kstreams},1651449267,0
{consumergroup=__strimzi-topic-operator-kstreams},1651449272,0
{consumergroup=__strimzi-topic-operator-kstreams},1651449277,0
{consumergroup=__strimzi-topic-operator-kstreams},1651449282,0
{consumergroup=__strimzi-topic-operator-kstreams},1651449287,0
{consumergroup=__strimzi-topic-operator-kstreams},1651449292,0
{consumergroup=__strimzi-topic-operator-kstreams},1651449297,0
{consumergroup=__strimzi-topic-operator-kstreams},1651449302,0
{consumergroup=__strimzi-topic-operator-kstreams},1651449307,0
{consumergroup=__strimzi-topic-operator-kstreams},1651449312,0
{consumergroup=__strimzi-topic-operator-kstreams},1651449317,0
{consumergroup=__strimzi-topic-operator-kstreams},1651449322,0
{consumergroup=__strimzi-topic-operator-kstreams},1651449327,0
{consumergroup=__strimzi-topic-operator-kstreams},1651449332,0
{consumergroup=__strimzi-topic-operator-kstreams},1651449337,0
{consumergroup=__strimzi-topic-operator-kstreams},1651449342,0
{consumergroup=__strimzi-topic-operator-kstreams},1651449347,0
{consumergroup=__strimzi-topic-operator-kstreams},1651449352,0
{consumergroup=__strimzi-topic-operator-kstreams},1651449357,0
{consumergroup=__strimzi-topic-operator-kstreams},1651449362,0
{consumergroup=__strimzi-topic-operator-kstreams},1651449367,0
{consumergroup=__strimzi-topic-operator-kstreams},1651449372,0
{consumergroup=__strimzi-topic-operator-kstreams},1651449377,0
{consumergroup=__strimzi-topic-operator-kstreams},1651449382,0
{consumergroup=__strimzi-topic-operator-kstreams},1651449387,0
{consumergroup=__strimzi-topic-operator-kstreams},1651449392,0
{consumergroup=__strimzi-topic-operator-kstreams},1651449397,0
{consumergroup=__strimzi-topic-operator-kstreams},1651449402,0
{consumergroup=__strimzi-topic-operator-kstreams},1651449407,0
{consumergroup=__strimzi-topic-operator-kstreams},1651449412,0
{consumergroup=__strimzi-topic-operator-kstreams},1651449417,0
{consumergroup=__strimzi-topic-operator-kstreams},1651449422,0
{consumergroup=__strimzi-topic-operator-kstreams},1651449427,0
{consumergroup=__strimzi-topic-operator-kstreams},1651449432,0
{consumergroup=__strimzi-topic-operator-kstreams},1651449437,0
{consumergroup=__strimzi-topic-operator-kstreams},1651449442,0
{consumergroup=__strimzi-topic-operator-kstreams},1651449447,0
{consumergroup=__strimzi-topic-operator-kstreams},1651449452,0
{consumergroup=adapter-service},1651449232,66473
{consumergroup=adapter-service},1651449237,66473
{consumergroup=adapter-service},1651449242,66473
{consumergroup=adapter-service},1651449247,237787
{consumergroup=adapter-service},1651449252,237787
{consumergroup=adapter-service},1651449257,237787
{consumergroup=adapter-service},1651449262,364164
{consumergroup=adapter-service},1651449267,364164
{consumergroup=adapter-service},1651449272,364164
{consumergroup=adapter-service},1651449277,481941
{consumergroup=adapter-service},1651449282,481941
{consumergroup=adapter-service},1651449287,481941
{consumergroup=adapter-service},1651449292,588376
{consumergroup=adapter-service},1651449297,588376
{consumergroup=adapter-service},1651449302,588376
{consumergroup=adapter-service},1651449307,675023
{consumergroup=adapter-service},1651449312,675023
{consumergroup=adapter-service},1651449317,675023
{consumergroup=adapter-service},1651449322,743493
{consumergroup=adapter-service},1651449327,743493
{consumergroup=adapter-service},1651449332,743493
{consumergroup=adapter-service},1651449337,778794
{consumergroup=adapter-service},1651449342,778794
{consumergroup=adapter-service},1651449347,778794
{consumergroup=adapter-service},1651449352,808023
{consumergroup=adapter-service},1651449357,808023
{consumergroup=adapter-service},1651449362,808023
{consumergroup=adapter-service},1651449367,835507
{consumergroup=adapter-service},1651449372,835507
{consumergroup=adapter-service},1651449377,835507
{consumergroup=adapter-service},1651449382,855401
{consumergroup=adapter-service},1651449387,855401
{consumergroup=adapter-service},1651449392,855401
{consumergroup=adapter-service},1651449397,878559
{consumergroup=adapter-service},1651449402,878559
{consumergroup=adapter-service},1651449407,878559
{consumergroup=adapter-service},1651449412,903303
{consumergroup=adapter-service},1651449417,903303
{consumergroup=adapter-service},1651449422,903303
{consumergroup=adapter-service},1651449427,932706
{consumergroup=adapter-service},1651449432,932706
{consumergroup=adapter-service},1651449437,932706
{consumergroup=adapter-service},1651449442,940176
{consumergroup=adapter-service},1651449447,940176
{consumergroup=adapter-service},1651449452,940176
