labels,timestamp,value
{consumergroup=__strimzi-topic-operator-kstreams},1651446509,19
{consumergroup=__strimzi-topic-operator-kstreams},1651446514,19
{consumergroup=__strimzi-topic-operator-kstreams},1651446519,19
{consumergroup=__strimzi-topic-operator-kstreams},1651446524,0
{consumergroup=__strimzi-topic-operator-kstreams},1651446529,0
{consumergroup=__strimzi-topic-operator-kstreams},1651446534,0
{consumergroup=__strimzi-topic-operator-kstreams},1651446539,0
{consumergroup=__strimzi-topic-operator-kstreams},1651446544,0
{consumergroup=__strimzi-topic-operator-kstreams},1651446549,0
{consumergroup=__strimzi-topic-operator-kstreams},1651446554,0
{consumergroup=__strimzi-topic-operator-kstreams},1651446559,0
{consumergroup=__strimzi-topic-operator-kstreams},1651446564,0
{consumergroup=__strimzi-topic-operator-kstreams},1651446569,0
{consumergroup=__strimzi-topic-operator-kstreams},1651446574,0
{consumergroup=__strimzi-topic-operator-kstreams},1651446579,0
{consumergroup=__strimzi-topic-operator-kstreams},1651446584,0
{consumergroup=__strimzi-topic-operator-kstreams},1651446589,0
{consumergroup=__strimzi-topic-operator-kstreams},1651446594,0
{consumergroup=__strimzi-topic-operator-kstreams},1651446599,0
{consumergroup=__strimzi-topic-operator-kstreams},1651446604,0
{consumergroup=__strimzi-topic-operator-kstreams},1651446609,0
{consumergroup=__strimzi-topic-operator-kstreams},1651446614,0
{consumergroup=__strimzi-topic-operator-kstreams},1651446619,0
{consumergroup=__strimzi-topic-operator-kstreams},1651446624,0
{consumergroup=__strimzi-topic-operator-kstreams},1651446629,0
{consumergroup=__strimzi-topic-operator-kstreams},1651446634,0
{consumergroup=__strimzi-topic-operator-kstreams},1651446639,0
{consumergroup=__strimzi-topic-operator-kstreams},1651446644,0
{consumergroup=__strimzi-topic-operator-kstreams},1651446649,0
{consumergroup=__strimzi-topic-operator-kstreams},1651446654,0
{consumergroup=__strimzi-topic-operator-kstreams},1651446659,0
{consumergroup=__strimzi-topic-operator-kstreams},1651446664,0
{consumergroup=__strimzi-topic-operator-kstreams},1651446669,0
{consumergroup=__strimzi-topic-operator-kstreams},1651446674,0
{consumergroup=__strimzi-topic-operator-kstreams},1651446679,0
{consumergroup=__strimzi-topic-operator-kstreams},1651446684,0
{consumergroup=__strimzi-topic-operator-kstreams},1651446689,0
{consumergroup=__strimzi-topic-operator-kstreams},1651446694,0
{consumergroup=__strimzi-topic-operator-kstreams},1651446699,0
{consumergroup=__strimzi-topic-operator-kstreams},1651446704,0
{consumergroup=__strimzi-topic-operator-kstreams},1651446709,0
{consumergroup=__strimzi-topic-operator-kstreams},1651446714,0
{consumergroup=__strimzi-topic-operator-kstreams},1651446719,0
{consumergroup=__strimzi-topic-operator-kstreams},1651446724,0
{consumergroup=__strimzi-topic-operator-kstreams},1651446729,0
{consumergroup=__strimzi-topic-operator-kstreams},1651446734,0
{consumergroup=__strimzi-topic-operator-kstreams},1651446739,0
{consumergroup=__strimzi-topic-operator-kstreams},1651446744,0
{consumergroup=__strimzi-topic-operator-kstreams},1651446749,0
{consumergroup=__strimzi-topic-operator-kstreams},1651446754,0
{consumergroup=adapter-service},1651446524,0
{consumergroup=adapter-service},1651446529,0
{consumergroup=adapter-service},1651446534,0
{consumergroup=adapter-service},1651446539,143101
{consumergroup=adapter-service},1651446544,143101
{consumergroup=adapter-service},1651446549,143101
{consumergroup=adapter-service},1651446554,250120
{consumergroup=adapter-service},1651446559,250120
{consumergroup=adapter-service},1651446564,250120
{consumergroup=adapter-service},1651446569,342145
{consumergroup=adapter-service},1651446574,342145
{consumergroup=adapter-service},1651446579,342145
{consumergroup=adapter-service},1651446584,418792
{consumergroup=adapter-service},1651446589,418792
{consumergroup=adapter-service},1651446594,418792
{consumergroup=adapter-service},1651446599,493367
{consumergroup=adapter-service},1651446604,493367
{consumergroup=adapter-service},1651446609,493367
{consumergroup=adapter-service},1651446614,538721
{consumergroup=adapter-service},1651446619,538721
{consumergroup=adapter-service},1651446624,538721
{consumergroup=adapter-service},1651446629,590467
{consumergroup=adapter-service},1651446634,590467
{consumergroup=adapter-service},1651446639,590467
{consumergroup=adapter-service},1651446644,605288
{consumergroup=adapter-service},1651446649,605288
{consumergroup=adapter-service},1651446654,605288
{consumergroup=adapter-service},1651446659,594304
{consumergroup=adapter-service},1651446664,594304
{consumergroup=adapter-service},1651446669,594304
{consumergroup=adapter-service},1651446674,629481
{consumergroup=adapter-service},1651446679,629481
{consumergroup=adapter-service},1651446684,629481
{consumergroup=adapter-service},1651446689,629578
{consumergroup=adapter-service},1651446694,629578
{consumergroup=adapter-service},1651446699,629578
{consumergroup=adapter-service},1651446704,611293
{consumergroup=adapter-service},1651446709,611293
{consumergroup=adapter-service},1651446714,611293
{consumergroup=adapter-service},1651446719,615946
{consumergroup=adapter-service},1651446724,615946
{consumergroup=adapter-service},1651446729,615946
{consumergroup=adapter-service},1651446734,592697
{consumergroup=adapter-service},1651446739,592697
{consumergroup=adapter-service},1651446744,592697
{consumergroup=adapter-service},1651446749,592621
{consumergroup=adapter-service},1651446754,592621
