labels,timestamp,value
{consumergroup=__strimzi-topic-operator-kstreams},1651431048,5
{consumergroup=__strimzi-topic-operator-kstreams},1651431053,5
{consumergroup=__strimzi-topic-operator-kstreams},1651431063,0
{consumergroup=__strimzi-topic-operator-kstreams},1651431068,0
{consumergroup=__strimzi-topic-operator-kstreams},1651431073,0
{consumergroup=__strimzi-topic-operator-kstreams},1651431078,0
{consumergroup=__strimzi-topic-operator-kstreams},1651431083,0
{consumergroup=__strimzi-topic-operator-kstreams},1651431088,0
{consumergroup=__strimzi-topic-operator-kstreams},1651431093,0
{consumergroup=__strimzi-topic-operator-kstreams},1651431098,0
{consumergroup=__strimzi-topic-operator-kstreams},1651431103,0
{consumergroup=__strimzi-topic-operator-kstreams},1651431108,0
{consumergroup=__strimzi-topic-operator-kstreams},1651431113,0
{consumergroup=__strimzi-topic-operator-kstreams},1651431118,0
{consumergroup=__strimzi-topic-operator-kstreams},1651431123,0
{consumergroup=__strimzi-topic-operator-kstreams},1651431128,0
{consumergroup=__strimzi-topic-operator-kstreams},1651431133,0
{consumergroup=__strimzi-topic-operator-kstreams},1651431138,0
{consumergroup=__strimzi-topic-operator-kstreams},1651431143,0
{consumergroup=__strimzi-topic-operator-kstreams},1651431148,0
{consumergroup=__strimzi-topic-operator-kstreams},1651431153,0
{consumergroup=__strimzi-topic-operator-kstreams},1651431158,0
{consumergroup=__strimzi-topic-operator-kstreams},1651431163,0
{consumergroup=__strimzi-topic-operator-kstreams},1651431168,0
{consumergroup=__strimzi-topic-operator-kstreams},1651431173,0
{consumergroup=__strimzi-topic-operator-kstreams},1651431178,0
{consumergroup=__strimzi-topic-operator-kstreams},1651431183,0
{consumergroup=__strimzi-topic-operator-kstreams},1651431188,0
{consumergroup=__strimzi-topic-operator-kstreams},1651431193,0
{consumergroup=__strimzi-topic-operator-kstreams},1651431198,0
{consumergroup=__strimzi-topic-operator-kstreams},1651431203,0
{consumergroup=__strimzi-topic-operator-kstreams},1651431208,0
{consumergroup=__strimzi-topic-operator-kstreams},1651431213,0
{consumergroup=__strimzi-topic-operator-kstreams},1651431218,0
{consumergroup=__strimzi-topic-operator-kstreams},1651431223,0
{consumergroup=__strimzi-topic-operator-kstreams},1651431228,0
{consumergroup=__strimzi-topic-operator-kstreams},1651431233,0
{consumergroup=__strimzi-topic-operator-kstreams},1651431238,0
{consumergroup=__strimzi-topic-operator-kstreams},1651431243,0
{consumergroup=__strimzi-topic-operator-kstreams},1651431248,0
{consumergroup=__strimzi-topic-operator-kstreams},1651431253,0
{consumergroup=__strimzi-topic-operator-kstreams},1651431258,0
{consumergroup=__strimzi-topic-operator-kstreams},1651431263,0
{consumergroup=__strimzi-topic-operator-kstreams},1651431268,0
{consumergroup=__strimzi-topic-operator-kstreams},1651431273,0
{consumergroup=__strimzi-topic-operator-kstreams},1651431278,0
{consumergroup=__strimzi-topic-operator-kstreams},1651431283,0
{consumergroup=__strimzi-topic-operator-kstreams},1651431288,0
{consumergroup=__strimzi-topic-operator-kstreams},1651431293,0
{consumergroup=__strimzi-topic-operator-kstreams},1651431298,0
{consumergroup=__strimzi-topic-operator-kstreams},1651431303,0
{consumergroup=__strimzi-topic-operator-kstreams},1651431308,0
{consumergroup=adapter-service},1651431048,0
{consumergroup=adapter-service},1651431053,0
{consumergroup=adapter-service},1651431093,53200
{consumergroup=adapter-service},1651431098,53200
{consumergroup=adapter-service},1651431103,53200
{consumergroup=adapter-service},1651431108,102844
{consumergroup=adapter-service},1651431113,102844
{consumergroup=adapter-service},1651431118,102844
{consumergroup=adapter-service},1651431123,149575
{consumergroup=adapter-service},1651431128,149575
{consumergroup=adapter-service},1651431133,149575
{consumergroup=adapter-service},1651431138,195400
{consumergroup=adapter-service},1651431143,195400
{consumergroup=adapter-service},1651431148,195400
{consumergroup=adapter-service},1651431153,235642
{consumergroup=adapter-service},1651431158,235642
{consumergroup=adapter-service},1651431163,235642
{consumergroup=adapter-service},1651431168,275985
{consumergroup=adapter-service},1651431173,275985
{consumergroup=adapter-service},1651431178,275985
{consumergroup=adapter-service},1651431183,308645
{consumergroup=adapter-service},1651431188,308645
{consumergroup=adapter-service},1651431193,308645
{consumergroup=adapter-service},1651431198,340189
{consumergroup=adapter-service},1651431203,340189
{consumergroup=adapter-service},1651431208,340189
{consumergroup=adapter-service},1651431213,363315
{consumergroup=adapter-service},1651431218,363315
{consumergroup=adapter-service},1651431223,363315
{consumergroup=adapter-service},1651431228,385563
{consumergroup=adapter-service},1651431233,385563
{consumergroup=adapter-service},1651431238,385563
{consumergroup=adapter-service},1651431243,407596
{consumergroup=adapter-service},1651431248,407596
{consumergroup=adapter-service},1651431253,407596
{consumergroup=adapter-service},1651431258,430211
{consumergroup=adapter-service},1651431263,430211
{consumergroup=adapter-service},1651431268,430211
{consumergroup=adapter-service},1651431273,449421
{consumergroup=adapter-service},1651431278,449421
{consumergroup=adapter-service},1651431283,449421
{consumergroup=adapter-service},1651431288,472645
{consumergroup=adapter-service},1651431293,472645
{consumergroup=adapter-service},1651431298,472645
{consumergroup=adapter-service},1651431303,490992
{consumergroup=adapter-service},1651431308,490992
