labels,timestamp,value
{consumergroup=__strimzi-topic-operator-kstreams},1651338248,2
{consumergroup=__strimzi-topic-operator-kstreams},1651338253,2
{consumergroup=__strimzi-topic-operator-kstreams},1651338258,10
{consumergroup=__strimzi-topic-operator-kstreams},1651338263,10
{consumergroup=__strimzi-topic-operator-kstreams},1651338268,10
{consumergroup=__strimzi-topic-operator-kstreams},1651338273,0
{consumergroup=__strimzi-topic-operator-kstreams},1651338278,0
{consumergroup=__strimzi-topic-operator-kstreams},1651338283,0
{consumergroup=__strimzi-topic-operator-kstreams},1651338288,0
{consumergroup=__strimzi-topic-operator-kstreams},1651338293,0
{consumergroup=__strimzi-topic-operator-kstreams},1651338298,0
{consumergroup=__strimzi-topic-operator-kstreams},1651338303,0
{consumergroup=__strimzi-topic-operator-kstreams},1651338308,0
{consumergroup=__strimzi-topic-operator-kstreams},1651338313,0
{consumergroup=__strimzi-topic-operator-kstreams},1651338318,0
{consumergroup=__strimzi-topic-operator-kstreams},1651338323,0
{consumergroup=__strimzi-topic-operator-kstreams},1651338328,0
{consumergroup=__strimzi-topic-operator-kstreams},1651338333,0
{consumergroup=__strimzi-topic-operator-kstreams},1651338338,0
{consumergroup=__strimzi-topic-operator-kstreams},1651338343,0
{consumergroup=__strimzi-topic-operator-kstreams},1651338348,0
{consumergroup=__strimzi-topic-operator-kstreams},1651338353,0
{consumergroup=__strimzi-topic-operator-kstreams},1651338358,0
{consumergroup=__strimzi-topic-operator-kstreams},1651338363,0
{consumergroup=__strimzi-topic-operator-kstreams},1651338368,0
{consumergroup=__strimzi-topic-operator-kstreams},1651338373,0
{consumergroup=__strimzi-topic-operator-kstreams},1651338378,0
{consumergroup=__strimzi-topic-operator-kstreams},1651338383,0
{consumergroup=__strimzi-topic-operator-kstreams},1651338388,0
{consumergroup=__strimzi-topic-operator-kstreams},1651338393,0
{consumergroup=__strimzi-topic-operator-kstreams},1651338398,0
{consumergroup=__strimzi-topic-operator-kstreams},1651338403,0
{consumergroup=__strimzi-topic-operator-kstreams},1651338408,0
{consumergroup=__strimzi-topic-operator-kstreams},1651338413,0
{consumergroup=__strimzi-topic-operator-kstreams},1651338418,0
{consumergroup=__strimzi-topic-operator-kstreams},1651338423,0
{consumergroup=__strimzi-topic-operator-kstreams},1651338428,0
{consumergroup=__strimzi-topic-operator-kstreams},1651338433,0
{consumergroup=__strimzi-topic-operator-kstreams},1651338438,0
{consumergroup=__strimzi-topic-operator-kstreams},1651338443,0
{consumergroup=__strimzi-topic-operator-kstreams},1651338448,0
{consumergroup=__strimzi-topic-operator-kstreams},1651338453,0
{consumergroup=__strimzi-topic-operator-kstreams},1651338458,0
{consumergroup=__strimzi-topic-operator-kstreams},1651338463,0
{consumergroup=__strimzi-topic-operator-kstreams},1651338468,0
{consumergroup=__strimzi-topic-operator-kstreams},1651338473,0
{consumergroup=__strimzi-topic-operator-kstreams},1651338478,0
{consumergroup=__strimzi-topic-operator-kstreams},1651338483,0
{consumergroup=__strimzi-topic-operator-kstreams},1651338488,0
{consumergroup=__strimzi-topic-operator-kstreams},1651338493,0
{consumergroup=__strimzi-topic-operator-kstreams},1651338498,0
{consumergroup=__strimzi-topic-operator-kstreams},1651338503,0
{consumergroup=__strimzi-topic-operator-kstreams},1651338508,0
{consumergroup=adapter-service},1651338288,108143
{consumergroup=adapter-service},1651338293,108143
{consumergroup=adapter-service},1651338298,108143
{consumergroup=adapter-service},1651338303,431567
{consumergroup=adapter-service},1651338308,431567
{consumergroup=adapter-service},1651338313,431567
{consumergroup=adapter-service},1651338318,535872
{consumergroup=adapter-service},1651338323,535872
{consumergroup=adapter-service},1651338328,535872
{consumergroup=adapter-service},1651338333,625241
{consumergroup=adapter-service},1651338338,625241
{consumergroup=adapter-service},1651338343,625241
{consumergroup=adapter-service},1651338348,615821
{consumergroup=adapter-service},1651338353,615821
{consumergroup=adapter-service},1651338358,615821
{consumergroup=adapter-service},1651338363,727844
{consumergroup=adapter-service},1651338368,727844
{consumergroup=adapter-service},1651338373,727844
{consumergroup=adapter-service},1651338378,850917
{consumergroup=adapter-service},1651338383,850917
{consumergroup=adapter-service},1651338388,850917
{consumergroup=adapter-service},1651338393,919310
{consumergroup=adapter-service},1651338398,919310
{consumergroup=adapter-service},1651338403,919310
{consumergroup=adapter-service},1651338408,1017574
{consumergroup=adapter-service},1651338413,1017574
{consumergroup=adapter-service},1651338418,1017574
{consumergroup=adapter-service},1651338423,1078051
{consumergroup=adapter-service},1651338428,1078051
{consumergroup=adapter-service},1651338433,1078051
{consumergroup=adapter-service},1651338438,1167307
{consumergroup=adapter-service},1651338443,1167307
{consumergroup=adapter-service},1651338448,1167307
{consumergroup=adapter-service},1651338453,1280424
{consumergroup=adapter-service},1651338458,1280424
{consumergroup=adapter-service},1651338463,1280424
{consumergroup=adapter-service},1651338468,1329891
{consumergroup=adapter-service},1651338473,1329891
{consumergroup=adapter-service},1651338478,1329891
{consumergroup=adapter-service},1651338483,1384447
{consumergroup=adapter-service},1651338488,1384447
{consumergroup=adapter-service},1651338493,1384447
{consumergroup=adapter-service},1651338498,1533095
{consumergroup=adapter-service},1651338503,1533095
{consumergroup=adapter-service},1651338508,1533095
